日時,始値(BID),高値(BID),安値(BID),終値(BID)
201907090700,1395.2,1395.3,1395.1,1395.2
201907090701,1395.2,1395.2,1394.6,1394.7
201907090702,1394.7,1395.3,1394.7,1395.3
201907090703,1395.3,1395.7,1395.3,1395.7
201907090704,1395.7,1395.7,1395.6,1395.7
201907090705,1395.7,1395.7,1395.5,1395.5
201907090706,1395.5,1395.8,1395.5,1395.7
201907090707,1395.7,1395.7,1395.6,1395.6
201907090708,1395.6,1395.6,1395.5,1395.5
201907090709,1395.5,1395.6,1395.5,1395.5
201907090710,1395.5,1395.5,1395.1,1395.1
201907090711,1395.1,1395.2,1395.1,1395.2
201907090712,1395.2,1395.4,1395.1,1395.4
201907090713,1395.4,1395.6,1395.3,1395.6
201907090714,1395.6,1396,1395.6,1395.9
201907090715,1395.9,1395.9,1395.7,1395.7
201907090716,1395.7,1395.7,1395.5,1395.6
201907090717,1395.6,1395.6,1395.5,1395.5
201907090718,1395.5,1395.5,1395.4,1395.5
201907090719,1395.5,1395.5,1395.5,1395.5
201907090720,1395.5,1395.5,1395.5,1395.5
201907090721,1395.5,1395.5,1395.5,1395.5
201907090722,1395.5,1395.5,1395.3,1395.3
201907090723,1395.3,1395.3,1395.2,1395.2
201907090724,1395.2,1395.3,1395.2,1395.3
201907090725,1395.3,1395.3,1395.3,1395.3
201907090726,1395.3,1395.4,1395.2,1395.2
201907090727,1395.2,1395.3,1394.9,1395
201907090728,1395,1395.7,1395,1395.4
201907090729,1395.4,1395.5,1395.4,1395.4
201907090730,1395.4,1395.4,1395.3,1395.3
201907090731,1395.3,1395.3,1395.2,1395.2
201907090732,1395.2,1395.3,1394.9,1395.3
201907090733,1395.3,1395.8,1395.2,1395.3
201907090734,1395.3,1395.4,1395.2,1395.2
201907090735,1395.2,1395.3,1395,1395
201907090736,1395,1395.3,1395,1395.1
201907090737,1395.1,1395.2,1395,1395
201907090738,1395,1395.1,1395,1395
201907090739,1395,1395,1394.9,1395
201907090740,1395,1395.1,1395,1395.1
201907090741,1395.1,1395.2,1395.1,1395.2
201907090742,1395.2,1395.2,1395,1395
201907090743,1395,1395,1394.9,1394.9
201907090744,1394.9,1395,1394.9,1395
201907090745,1395,1395,1394.9,1394.9
201907090746,1394.9,1394.9,1394.3,1394.4
201907090747,1394.4,1394.6,1394.3,1394.3
201907090748,1394.3,1394.5,1394.2,1394.4
201907090749,1394.4,1394.9,1394.4,1394.7
201907090750,1394.7,1394.8,1394.4,1394.6
201907090751,1394.6,1394.7,1394.6,1394.7
201907090752,1394.7,1394.7,1394.6,1394.6
201907090753,1394.6,1394.7,1394.6,1394.7
201907090754,1394.7,1394.7,1394.4,1394.4
201907090755,1394.4,1394.4,1394.3,1394.3
201907090756,1394.3,1394.4,1394.3,1394.3
201907090757,1394.3,1394.3,1394.2,1394.2
201907090758,1394.2,1394.3,1394.1,1394.2
201907090759,1394.2,1394.3,1394.2,1394.3
201907090800,1394.3,1394.3,1394,1394.1
201907090801,1394.1,1394.1,1394,1394
201907090802,1394,1394,1393.4,1393.4
201907090803,1393.4,1393.6,1393.1,1393.5
201907090804,1393.5,1393.8,1393.4,1393.6
201907090805,1393.6,1393.8,1393.6,1393.7
201907090806,1393.7,1393.8,1393.6,1393.6
201907090807,1393.6,1393.6,1393.4,1393.5
201907090808,1393.5,1393.5,1393.4,1393.5
201907090809,1393.5,1393.5,1393.4,1393.4
201907090810,1393.4,1393.6,1393.4,1393.6
201907090811,1393.6,1393.6,1393,1393
201907090812,1393,1393,1392.9,1393
201907090813,1393,1393.3,1392.9,1393.1
201907090814,1393.1,1393.5,1393.1,1393.5
201907090815,1393.5,1393.6,1393.4,1393.6
201907090816,1393.6,1393.8,1393.5,1393.5
201907090817,1393.5,1393.8,1393.5,1393.8
201907090818,1393.8,1393.8,1393.5,1393.6
201907090819,1393.6,1393.6,1392.8,1392.8
201907090820,1392.8,1393.4,1392.8,1393.3
201907090821,1393.3,1393.3,1393.1,1393.2
201907090822,1393.2,1393.2,1393,1393
201907090823,1393,1393.1,1393,1393.1
201907090824,1393.1,1393.2,1392.9,1392.9
201907090825,1392.9,1393.2,1392.9,1393.2
201907090826,1393.2,1393.2,1393.1,1393.2
201907090827,1393.2,1393.4,1393.2,1393.4
201907090828,1393.4,1393.6,1393.4,1393.5
201907090829,1393.5,1393.6,1393.4,1393.5
201907090830,1393.5,1393.5,1393.4,1393.5
201907090831,1393.5,1393.7,1393.5,1393.6
201907090832,1393.6,1393.6,1393.5,1393.5
201907090833,1393.5,1393.7,1393.5,1393.5
201907090834,1393.5,1393.6,1393.3,1393.3
201907090835,1393.3,1393.3,1392.9,1393
201907090836,1392.9,1393.3,1392.9,1393.3
201907090837,1393.3,1393.4,1393.2,1393.4
201907090838,1393.4,1393.4,1393.2,1393.3
201907090839,1393.3,1393.4,1393.3,1393.4
201907090840,1393.4,1393.4,1393.1,1393.3
201907090841,1393.3,1393.3,1393.1,1393.1
201907090842,1393.1,1393.1,1392.7,1392.7
201907090843,1392.7,1393,1392.6,1392.8
201907090844,1392.8,1393.3,1392.8,1393.3
201907090845,1393.3,1393.5,1393.2,1393.4
201907090846,1393.4,1393.6,1393.3,1393.6
201907090847,1393.6,1393.6,1393.5,1393.5
201907090848,1393.5,1394,1393.5,1393.9
201907090849,1393.9,1394,1393.8,1393.9
201907090850,1393.9,1394.3,1393.8,1394.3
201907090851,1394.4,1394.6,1394.4,1394.6
201907090852,1394.6,1394.7,1394.1,1394.2
201907090853,1394.2,1394.6,1394.2,1394.4
201907090854,1394.4,1394.4,1394.2,1394.2
201907090855,1394.2,1394.3,1394.2,1394.2
201907090856,1394.2,1394.5,1394.2,1394.4
201907090857,1394.4,1394.5,1394.4,1394.5
201907090858,1394.5,1394.5,1394.3,1394.4
201907090859,1394.4,1394.4,1394.2,1394.2
201907090900,1394.2,1394.2,1393.9,1393.9
201907090901,1393.9,1393.9,1393.6,1393.9
201907090902,1393.9,1394.2,1393.9,1394.1
201907090903,1394.2,1394.4,1394.1,1394.3
201907090904,1394.3,1394.3,1394.2,1394.3
201907090905,1394.3,1394.3,1394.1,1394.2
201907090906,1394.2,1394.2,1393.8,1393.8
201907090907,1393.8,1394.2,1393.8,1394.2
201907090908,1394.2,1394.2,1393.9,1394
201907090909,1394,1394,1394,1394
201907090910,1394,1394,1393.7,1394
201907090911,1394,1394.4,1394,1394.2
201907090912,1394.3,1394.5,1394.1,1394.4
201907090913,1394.4,1394.4,1394,1394
201907090914,1394,1394.1,1393.9,1394
201907090915,1394,1394,1393.9,1393.9
201907090916,1393.9,1393.9,1393.8,1393.9
201907090917,1393.9,1394.1,1393.9,1394.1
201907090918,1394.1,1394.2,1394,1394.1
201907090919,1394.1,1394.1,1393.9,1394
201907090920,1394,1394.2,1393.7,1394.2
201907090921,1394.2,1394.3,1394.2,1394.2
201907090922,1394.2,1394.4,1394.2,1394.4
201907090923,1394.4,1394.5,1394.3,1394.4
201907090924,1394.4,1394.5,1394.3,1394.5
201907090925,1394.5,1394.6,1394.4,1394.5
201907090926,1394.5,1394.5,1394.3,1394.4
201907090927,1394.4,1394.8,1394.4,1394.7
201907090928,1394.7,1394.9,1394.6,1394.8
201907090929,1394.8,1395,1394.7,1394.9
201907090930,1394.9,1395,1394.6,1394.6
201907090931,1394.6,1394.7,1394.4,1394.5
201907090932,1394.5,1394.7,1394.5,1394.5
201907090933,1394.6,1395.2,1394.6,1395.2
201907090934,1395.2,1395.6,1395.2,1395.2
201907090935,1395.2,1395.4,1395,1395
201907090936,1395,1395.3,1394.9,1395.2
201907090937,1395.2,1395.2,1394.8,1394.8
201907090938,1394.8,1394.9,1394.7,1394.8
201907090939,1394.8,1394.8,1393.9,1394
201907090940,1394,1394.1,1393.9,1393.9
201907090941,1393.9,1393.9,1393.5,1393.8
201907090942,1393.8,1393.8,1393.5,1393.7
201907090943,1393.7,1393.8,1393.5,1393.7
201907090944,1393.7,1393.7,1391.7,1391.8
201907090945,1391.8,1392.2,1391.7,1392.2
201907090946,1392.2,1392.4,1392,1392.4
201907090947,1392.4,1392.4,1392.1,1392.3
201907090948,1392.3,1392.3,1391.7,1391.9
201907090949,1391.9,1392.1,1391.2,1391.5
201907090950,1391.4,1391.9,1390.7,1391.9
201907090951,1391.8,1392.1,1391.8,1392
201907090952,1392,1392.1,1391.8,1392
201907090953,1391.9,1392,1391.8,1391.8
201907090954,1391.8,1392.1,1391.6,1392.1
201907090955,1392.1,1392.6,1392.1,1392.5
201907090956,1392.5,1393,1392.4,1392.7
201907090957,1392.8,1392.8,1392.3,1392.4
201907090958,1392.4,1392.5,1392,1392.2
201907090959,1392.2,1392.3,1392.1,1392.2
201907091000,1392.2,1393.2,1392.2,1393
201907091001,1393.1,1393.7,1392.9,1393.5
201907091002,1393.5,1393.5,1393.2,1393.3
201907091003,1393.3,1394,1393.2,1394
201907091004,1394,1394.1,1393.3,1393.3
201907091005,1393.3,1393.4,1392.4,1392.8
201907091006,1392.8,1393.3,1392.8,1393.2
201907091007,1393.2,1393.2,1392.9,1392.9
201907091008,1392.9,1392.9,1392.3,1392.3
201907091009,1392.3,1392.4,1391.9,1392.2
201907091010,1392.2,1392.7,1392.2,1392.5
201907091011,1392.4,1392.5,1392.2,1392.3
201907091012,1392.2,1392.6,1392.2,1392.5
201907091013,1392.5,1392.5,1392.1,1392.3
201907091014,1392.2,1392.6,1392.2,1392.3
201907091015,1392.3,1392.4,1391.7,1391.9
201907091016,1391.9,1392.1,1391.7,1392
201907091017,1392,1392.1,1391.8,1391.8
201907091018,1391.8,1392.4,1391.7,1392.2
201907091019,1392.2,1392.6,1392.1,1392.6
201907091020,1392.6,1392.7,1392.4,1392.4
201907091021,1392.4,1392.5,1392.2,1392.5
201907091022,1392.5,1392.6,1392.4,1392.4
201907091023,1392.4,1392.5,1392.3,1392.3
201907091024,1392.3,1392.6,1392.3,1392.5
201907091025,1392.5,1392.8,1392.4,1392.8
201907091026,1392.8,1393.1,1392.8,1393
201907091027,1393,1393,1392.8,1392.9
201907091028,1392.9,1393,1392.7,1392.8
201907091029,1392.8,1392.8,1392.4,1392.6
201907091030,1392.6,1392.9,1392.6,1392.9
201907091031,1392.9,1393.2,1392.7,1393.1
201907091032,1393.1,1393.2,1393,1393.1
201907091033,1393.1,1393.1,1392.8,1392.8
201907091034,1392.8,1393.1,1392.8,1393.1
201907091035,1393.1,1393.1,1392.9,1393
201907091036,1393,1393,1392.9,1393
201907091037,1393,1393,1392.7,1392.9
201907091038,1392.9,1392.9,1392.5,1392.5
201907091039,1392.5,1392.5,1392.1,1392.1
201907091040,1392.2,1392.2,1391.5,1391.8
201907091041,1391.8,1391.9,1391.7,1391.7
201907091042,1391.7,1392.1,1391.6,1392.1
201907091043,1392.1,1392.2,1391.9,1392
201907091044,1392,1392,1391.8,1391.9
201907091045,1392,1392.1,1391.9,1391.9
201907091046,1391.9,1392,1391.9,1392
201907091047,1392,1392.1,1391.6,1391.7
201907091048,1391.6,1391.9,1391.6,1391.8
201907091049,1391.8,1391.9,1391.7,1391.9
201907091050,1391.9,1391.9,1391.8,1391.8
201907091051,1391.8,1392.1,1391.8,1392.1
201907091052,1392.1,1392.5,1392.1,1392.5
201907091053,1392.5,1392.6,1392.4,1392.6
201907091054,1392.6,1392.7,1392.5,1392.5
201907091055,1392.5,1392.7,1392.5,1392.7
201907091056,1392.7,1392.9,1392.6,1392.8
201907091057,1392.8,1393.1,1392.8,1392.9
201907091058,1392.9,1393.1,1392.9,1393.1
201907091059,1393.1,1393.3,1393.1,1393.2
201907091100,1393.2,1393.3,1393.1,1393.1
201907091101,1393.1,1393.3,1393,1393.3
201907091102,1393.3,1393.6,1393.3,1393.4
201907091103,1393.4,1393.5,1393.2,1393.3
201907091104,1393.3,1393.5,1393.1,1393.1
201907091105,1393.1,1393.1,1392.8,1392.9
201907091106,1392.9,1393,1392.7,1392.8
201907091107,1392.8,1392.8,1392.8,1392.8
201907091108,1392.8,1393.1,1392.8,1392.9
201907091109,1392.9,1393,1392.7,1392.7
201907091110,1392.7,1392.7,1392.6,1392.6
201907091111,1392.6,1393,1392.6,1392.9
201907091112,1392.8,1392.9,1392.6,1392.6
201907091113,1392.6,1392.6,1392.3,1392.4
201907091114,1392.4,1392.5,1392.3,1392.5
201907091115,1392.5,1392.5,1392.4,1392.4
201907091116,1392.4,1392.5,1392.4,1392.4
201907091117,1392.4,1392.5,1392.3,1392.3
201907091118,1392.3,1392.3,1392.2,1392.3
201907091119,1392.3,1392.7,1392.3,1392.6
201907091120,1392.6,1392.8,1392.6,1392.8
201907091121,1392.8,1392.8,1392.7,1392.7
201907091122,1392.7,1392.8,1392.7,1392.8
201907091123,1392.8,1393,1392.8,1393
201907091124,1393,1393,1392.9,1393
201907091125,1393,1393,1392.9,1392.9
201907091126,1392.9,1393,1392.9,1392.9
201907091127,1392.9,1393,1392.9,1393
201907091128,1393,1393,1392.9,1393
201907091129,1393,1393,1392.9,1392.9
201907091130,1392.9,1393,1392.8,1392.8
201907091131,1392.8,1392.9,1392.8,1392.9
201907091132,1392.9,1393,1392.9,1392.9
201907091133,1392.9,1393,1392.8,1392.9
201907091134,1392.9,1393.1,1392.9,1393
201907091135,1393,1393.1,1392.9,1393
201907091136,1393,1393.2,1393,1393.2
201907091137,1393.2,1393.2,1393.1,1393.1
201907091138,1393.1,1393.3,1393,1393
201907091139,1393,1393.1,1393,1393
201907091140,1393,1393,1393,1393
201907091141,1393,1393,1393,1393
201907091142,1393,1393.1,1393,1393.1
201907091143,1393.1,1393.1,1393.1,1393.1
201907091144,1393.1,1393.2,1393.1,1393.2
201907091145,1393.2,1393.2,1393,1393.2
201907091146,1393.2,1393.3,1393.2,1393.3
201907091147,1393.3,1393.5,1393.3,1393.5
201907091148,1393.5,1393.5,1393.3,1393.4
201907091149,1393.4,1393.5,1393.3,1393.4
201907091150,1393.4,1393.5,1393.4,1393.4
201907091151,1393.4,1393.5,1393.3,1393.5
201907091152,1393.5,1393.5,1393.3,1393.3
201907091153,1393.3,1393.4,1393.3,1393.4
201907091154,1393.4,1393.6,1393.4,1393.6
201907091155,1393.6,1394.5,1393.6,1394.3
201907091156,1394.3,1394.5,1394.2,1394.3
201907091157,1394.3,1394.5,1394.3,1394.5
201907091158,1394.5,1394.5,1394.3,1394.4
201907091159,1394.4,1394.4,1394.3,1394.3
201907091200,1394.3,1394.3,1394,1394
201907091201,1394,1394.3,1394,1394.3
201907091202,1394.3,1394.3,1394.2,1394.3
201907091203,1394.3,1394.3,1394.1,1394.2
201907091204,1394.2,1394.3,1394.2,1394.3
201907091205,1394.3,1394.4,1394.3,1394.3
201907091206,1394.4,1394.4,1394.3,1394.4
201907091207,1394.4,1394.4,1394.1,1394.1
201907091208,1394.2,1394.2,1394,1394
201907091209,1394,1394,1393.9,1394
201907091210,1394,1394.1,1394,1394
201907091211,1394,1394.1,1394,1394
201907091212,1394,1394,1393.9,1394
201907091213,1394,1394.2,1394,1394.1
201907091214,1394.1,1394.1,1393.9,1394
201907091215,1394,1394,1393.5,1393.5
201907091216,1393.5,1393.9,1393.5,1393.9
201907091217,1393.9,1394.1,1393.8,1394
201907091218,1394,1394.1,1393.9,1394
201907091219,1394,1394.1,1394,1394
201907091220,1394,1394.8,1394,1394.6
201907091221,1394.6,1394.7,1394.5,1394.6
201907091222,1394.6,1394.8,1394.6,1394.8
201907091223,1394.7,1395.4,1394.7,1395.4
201907091224,1395.4,1395.4,1395,1395.1
201907091225,1395,1395.6,1395,1395.6
201907091226,1395.6,1395.7,1395.4,1395.7
201907091227,1395.6,1395.8,1395.4,1395.4
201907091228,1395.5,1395.5,1395.3,1395.4
201907091229,1395.4,1395.8,1395.4,1395.6
201907091230,1395.6,1395.7,1395.5,1395.6
201907091231,1395.6,1395.6,1395.1,1395.2
201907091232,1395.2,1395.2,1395,1395
201907091233,1395,1395.1,1395,1395.1
201907091234,1395.1,1395.1,1395,1395
201907091235,1395,1395.1,1395,1395
201907091236,1395,1395.3,1395,1395.3
201907091237,1395.3,1395.4,1395.2,1395.3
201907091238,1395.3,1395.4,1395.3,1395.3
201907091239,1395.3,1395.6,1395.3,1395.4
201907091240,1395.4,1395.6,1395.4,1395.6
201907091241,1395.6,1395.6,1395.4,1395.4
201907091242,1395.4,1395.4,1395.3,1395.3
201907091243,1395.3,1395.4,1395.3,1395.3
201907091244,1395.3,1395.4,1395.3,1395.3
201907091245,1395.3,1395.3,1394.9,1395
201907091246,1395,1395.1,1395,1395
201907091247,1395,1395.2,1395,1395.1
201907091248,1395.1,1395.2,1395,1395.1
201907091249,1395.1,1395.2,1395.1,1395.1
201907091250,1395.1,1395.1,1394.8,1394.9
201907091251,1394.9,1394.9,1394.7,1394.7
201907091252,1394.7,1394.7,1394.5,1394.5
201907091253,1394.5,1394.8,1394.5,1394.8
201907091254,1394.7,1394.7,1394.5,1394.6
201907091255,1394.6,1394.8,1394.6,1394.8
201907091256,1394.8,1395,1394.7,1394.8
201907091257,1394.8,1394.8,1394.5,1394.5
201907091258,1394.5,1394.5,1394.4,1394.4
201907091259,1394.4,1394.4,1394.2,1394.2
201907091300,1394.2,1394.3,1394.1,1394.2
201907091301,1394.2,1394.5,1394.2,1394.4
201907091302,1394.4,1394.7,1394.2,1394.2
201907091303,1394.2,1394.5,1394.1,1394.4
201907091304,1394.4,1394.6,1394.3,1394.6
201907091305,1394.6,1394.7,1394.6,1394.7
201907091306,1394.7,1394.8,1394.7,1394.8
201907091307,1394.8,1394.8,1394.5,1394.6
201907091308,1394.6,1394.6,1394.5,1394.5
201907091309,1394.5,1394.5,1394.4,1394.5
201907091310,1394.5,1394.7,1394.4,1394.7
201907091311,1394.7,1394.7,1394.7,1394.7
201907091312,1394.7,1394.7,1394.6,1394.6
201907091313,1394.6,1394.7,1394.6,1394.6
201907091314,1394.6,1394.7,1394.6,1394.7
201907091315,1394.7,1394.8,1394.7,1394.7
201907091316,1394.7,1394.9,1394.7,1394.8
201907091317,1394.8,1394.8,1394.7,1394.8
201907091318,1394.8,1394.9,1394.8,1394.9
201907091319,1394.9,1395,1394.9,1394.9
201907091320,1394.9,1394.9,1394.5,1394.5
201907091321,1394.5,1394.6,1394.4,1394.6
201907091322,1394.6,1394.8,1394.6,1394.7
201907091323,1394.7,1394.8,1394.7,1394.8
201907091324,1394.8,1394.9,1394.7,1394.9
201907091325,1394.9,1394.9,1394.8,1394.8
201907091326,1394.8,1395.1,1394.8,1395.1
201907091327,1395,1395.2,1395,1395.2
201907091328,1395.2,1395.2,1395.1,1395.2
201907091329,1395.2,1395.3,1395.2,1395.2
201907091330,1395.2,1395.2,1395.1,1395.1
201907091331,1395.1,1395.1,1394.9,1394.9
201907091332,1394.9,1395,1394.9,1395
201907091333,1395,1395.1,1395,1395.1
201907091334,1395.1,1395.1,1395.1,1395.1
201907091335,1395.1,1395.1,1394.9,1394.9
201907091336,1394.9,1395,1394.9,1395
201907091337,1395,1395,1394.9,1394.9
201907091338,1394.9,1394.9,1394.9,1394.9
201907091339,1394.9,1395,1394.9,1395
201907091340,1395,1395.1,1395,1395
201907091341,1395,1395,1394.9,1395
201907091342,1395,1395,1394.9,1395
201907091343,1395,1395.1,1395,1395.1
201907091344,1395.1,1395.2,1395.1,1395.2
201907091345,1395.2,1395.2,1395.1,1395.2
201907091346,1395.2,1395.3,1395.2,1395.3
201907091347,1395.3,1395.5,1395.3,1395.5
201907091348,1395.5,1395.6,1395.4,1395.4
201907091349,1395.4,1395.7,1395.3,1395.7
201907091350,1395.7,1396.4,1395.6,1396.3
201907091351,1396.3,1396.3,1395.9,1396
201907091352,1396,1396.2,1395.8,1395.9
201907091353,1395.9,1396.2,1395.8,1396.1
201907091354,1396.1,1396.2,1396.1,1396.2
201907091355,1396.2,1396.2,1396,1396
201907091356,1396,1396,1395.9,1395.9
201907091357,1395.9,1396.2,1395.9,1396.1
201907091358,1396,1396.1,1396,1396.1
201907091359,1396.1,1396.1,1396,1396
201907091400,1396,1396.1,1396,1396.1
201907091401,1396.1,1396.1,1395.8,1395.8
201907091402,1395.8,1396,1395.8,1396
201907091403,1396,1396,1395.8,1395.8
201907091404,1395.8,1395.8,1395.6,1395.6
201907091405,1395.6,1395.6,1395.5,1395.5
201907091406,1395.5,1395.5,1395.4,1395.4
201907091407,1395.4,1395.6,1395.4,1395.6
201907091408,1395.6,1395.7,1395.6,1395.7
201907091409,1395.7,1395.8,1395.5,1395.6
201907091410,1395.6,1395.6,1395.4,1395.5
201907091411,1395.5,1395.6,1395.4,1395.6
201907091412,1395.5,1395.6,1395.4,1395.6
201907091413,1395.6,1395.6,1395.5,1395.5
201907091414,1395.5,1395.5,1395.4,1395.4
201907091415,1395.4,1395.5,1395.3,1395.3
201907091416,1395.3,1395.3,1395.3,1395.3
201907091417,1395.3,1395.4,1395.3,1395.4
201907091418,1395.4,1395.7,1395.4,1395.6
201907091419,1395.6,1395.6,1395.4,1395.5
201907091420,1395.5,1395.9,1395.4,1395.8
201907091421,1395.8,1395.8,1395.5,1395.5
201907091422,1395.5,1395.5,1395.4,1395.4
201907091423,1395.5,1395.5,1395.3,1395.4
201907091424,1395.4,1395.4,1395.3,1395.3
201907091425,1395.3,1395.5,1395.2,1395.2
201907091426,1395.2,1395.6,1395.2,1395.2
201907091427,1395.2,1395.6,1395.1,1395.4
201907091428,1395.4,1395.4,1395.2,1395.2
201907091429,1395.2,1395.4,1394.8,1395.2
201907091430,1395.2,1395.4,1395.1,1395.3
201907091431,1395.3,1395.5,1395.1,1395.5
201907091432,1395.5,1395.9,1395.5,1395.7
201907091433,1395.7,1395.9,1395.6,1395.6
201907091434,1395.6,1395.8,1395.6,1395.7
201907091435,1395.7,1395.8,1395.6,1395.6
201907091436,1395.6,1395.6,1395.4,1395.6
201907091437,1395.6,1395.6,1395.4,1395.5
201907091438,1395.5,1395.5,1394.6,1394.8
201907091439,1394.8,1395,1394.7,1395
201907091440,1395.1,1395.4,1394.6,1394.6
201907091441,1394.6,1394.7,1394.5,1394.6
201907091442,1394.6,1394.7,1394.3,1394.3
201907091443,1394.4,1394.6,1394.2,1394.6
201907091444,1394.6,1394.6,1394.4,1394.4
201907091445,1394.4,1394.5,1394.4,1394.4
201907091446,1394.4,1394.5,1394.2,1394.3
201907091447,1394.3,1394.4,1394.1,1394.3
201907091448,1394.3,1394.5,1394.2,1394.3
201907091449,1394.3,1394.3,1394.2,1394.3
201907091450,1394.3,1394.5,1394.3,1394.5
201907091451,1394.5,1394.9,1394.5,1394.7
201907091452,1394.7,1394.8,1394.6,1394.7
201907091453,1394.8,1394.9,1394.7,1394.8
201907091454,1394.8,1394.8,1394.6,1394.6
201907091455,1394.6,1394.7,1394.4,1394.4
201907091456,1394.4,1394.4,1394.3,1394.4
201907091457,1394.4,1394.4,1394.3,1394.3
201907091458,1394.3,1394.4,1394.3,1394.3
201907091459,1394.3,1394.4,1394.3,1394.3
201907091500,1394.3,1394.3,1393.8,1393.9
201907091501,1393.9,1393.9,1392.8,1392.8
201907091502,1392.8,1393.2,1392.8,1392.9
201907091503,1392.9,1393.2,1392.8,1392.9
201907091504,1392.9,1393.1,1392.8,1393.1
201907091505,1393.1,1393.1,1392.9,1392.9
201907091506,1392.9,1392.9,1392.2,1392.4
201907091507,1392.4,1392.8,1392.4,1392.6
201907091508,1392.6,1392.6,1392.5,1392.5
201907091509,1392.6,1392.8,1392.5,1392.7
201907091510,1392.7,1393.4,1392.6,1393.3
201907091511,1393.3,1393.4,1393.1,1393.4
201907091512,1393.4,1393.8,1393.2,1393.7
201907091513,1393.7,1393.7,1393.5,1393.6
201907091514,1393.6,1393.7,1393.5,1393.6
201907091515,1393.6,1393.9,1393.3,1393.7
201907091516,1393.7,1393.8,1393.4,1393.5
201907091517,1393.5,1393.5,1392.9,1392.9
201907091518,1392.9,1393,1392.8,1392.9
201907091519,1392.9,1393,1392.8,1393
201907091520,1393,1393.4,1392.9,1393.3
201907091521,1393.3,1393.5,1392.6,1392.6
201907091522,1392.7,1392.7,1392.3,1392.5
201907091523,1392.5,1392.8,1392.4,1392.4
201907091524,1392.5,1392.5,1392.2,1392.5
201907091525,1392.5,1392.8,1392.4,1392.4
201907091526,1392.4,1392.5,1392.1,1392.3
201907091527,1392.3,1392.6,1392.2,1392.6
201907091528,1392.6,1392.9,1392.6,1392.7
201907091529,1392.7,1392.8,1392.7,1392.7
201907091530,1392.7,1392.7,1392.2,1392.5
201907091531,1392.5,1392.6,1392.3,1392.6
201907091532,1392.6,1392.7,1392.5,1392.5
201907091533,1392.5,1392.8,1392.5,1392.8
201907091534,1392.8,1392.8,1392.5,1392.5
201907091535,1392.5,1392.8,1392.5,1392.6
201907091536,1392.6,1392.9,1392.6,1392.9
201907091537,1392.9,1393.2,1392.7,1393
201907091538,1393,1393.3,1393,1393.1
201907091539,1393.1,1393.5,1393,1393.5
201907091540,1393.5,1393.6,1393.4,1393.5
201907091541,1393.5,1394.1,1393.4,1394.1
201907091542,1394.1,1394.6,1394,1394.2
201907091543,1394.2,1394.2,1393.6,1393.6
201907091544,1393.6,1394.4,1393.6,1394.3
201907091545,1394.3,1394.4,1394.3,1394.3
201907091546,1394.3,1394.3,1393.7,1393.8
201907091547,1393.8,1394,1393.8,1393.9
201907091548,1393.9,1394.2,1393.9,1393.9
201907091549,1393.9,1394.1,1393.9,1394.1
201907091550,1394.1,1394.7,1394.1,1394.6
201907091551,1394.7,1395.1,1394.6,1394.8
201907091552,1394.8,1395,1394.6,1394.6
201907091553,1394.7,1395.1,1394.6,1394.8
201907091554,1394.8,1395,1394.6,1394.7
201907091555,1394.7,1394.9,1394.5,1394.9
201907091556,1394.9,1394.9,1394.5,1394.7
201907091557,1394.7,1394.7,1394,1394.1
201907091558,1394.1,1394.2,1393.7,1393.7
201907091559,1393.7,1393.7,1393.4,1393.5
201907091600,1393.5,1394.1,1393.3,1393.3
201907091601,1393.3,1393.5,1393.2,1393.5
201907091602,1393.5,1394.1,1393.5,1394.1
201907091603,1394.1,1394.1,1393.8,1394.1
201907091604,1394.1,1394.3,1394,1394.1
201907091605,1394,1394.2,1394,1394.1
201907091606,1394.1,1394.2,1393.9,1393.9
201907091607,1393.9,1394,1393.9,1393.9
201907091608,1393.9,1394.1,1393.9,1393.9
201907091609,1393.9,1394.2,1393.9,1394.2
201907091610,1394.2,1394.5,1394,1394.4
201907091611,1394.4,1394.7,1394.4,1394.5
201907091612,1394.5,1394.6,1394,1394
201907091613,1394,1394.1,1393.7,1393.7
201907091614,1393.7,1393.8,1393.5,1393.7
201907091615,1393.8,1394.2,1393.7,1394.2
201907091616,1394.2,1394.2,1393.8,1393.9
201907091617,1393.9,1393.9,1393.7,1393.7
201907091618,1393.7,1394.2,1393.7,1394.2
201907091619,1394.2,1394.3,1394.1,1394.2
201907091620,1394.2,1394.3,1394,1394.2
201907091621,1394.2,1394.5,1394.2,1394.4
201907091622,1394.4,1394.5,1394.4,1394.4
201907091623,1394.4,1394.4,1393.8,1393.8
201907091624,1393.8,1394.2,1393.8,1394.1
201907091625,1394.1,1394.2,1394,1394.1
201907091626,1394,1394,1393.8,1393.9
201907091627,1393.9,1393.9,1393.6,1393.8
201907091628,1393.8,1393.8,1393.6,1393.7
201907091629,1393.7,1394,1393.6,1393.9
201907091630,1393.9,1393.9,1393.5,1393.5
201907091631,1393.5,1393.9,1393.5,1393.8
201907091632,1393.8,1393.9,1393.7,1393.9
201907091633,1393.9,1394.1,1393.9,1394
201907091634,1394,1394,1393.8,1393.9
201907091635,1393.9,1394.2,1393.9,1394.1
201907091636,1394.1,1394.2,1393.8,1394.1
201907091637,1394.1,1394.1,1393.4,1393.4
201907091638,1393.4,1393.6,1393.3,1393.4
201907091639,1393.4,1393.4,1393.1,1393.3
201907091640,1393.3,1393.3,1392.9,1393.2
201907091641,1393.2,1393.2,1393,1393
201907091642,1393,1393.1,1392.6,1392.7
201907091643,1392.7,1392.8,1392.5,1392.7
201907091644,1392.7,1393.2,1392.7,1393
201907091645,1393,1393.2,1392.8,1393.2
201907091646,1393.2,1393.4,1393.2,1393.4
201907091647,1393.4,1393.6,1393.4,1393.5
201907091648,1393.5,1393.7,1393.3,1393.5
201907091649,1393.5,1393.5,1393.3,1393.4
201907091650,1393.4,1393.7,1393.3,1393.6
201907091651,1393.6,1393.7,1393,1393.2
201907091652,1393.3,1393.3,1393,1393.1
201907091653,1393.1,1393.2,1392.8,1392.9
201907091654,1392.9,1393.2,1392.9,1393.2
201907091655,1393.2,1393.3,1393,1393.1
201907091656,1393.1,1393.1,1392.7,1392.8
201907091657,1392.7,1392.8,1392.5,1392.8
201907091658,1392.8,1393.1,1392.7,1392.7
201907091659,1392.6,1392.7,1392.4,1392.6
201907091700,1392.6,1392.6,1392.2,1392.5
201907091701,1392.5,1392.5,1392.4,1392.5
201907091702,1392.5,1392.5,1391.7,1391.8
201907091703,1391.8,1392.4,1391.8,1392.2
201907091704,1392.2,1392.3,1392.2,1392.3
201907091705,1392.3,1392.8,1392.3,1392.6
201907091706,1392.6,1392.9,1392.4,1392.9
201907091707,1392.9,1393,1392.8,1393
201907091708,1393,1393,1392.9,1393
201907091709,1393,1393,1392.3,1392.3
201907091710,1392.3,1392.6,1392.2,1392.6
201907091711,1392.6,1392.7,1392.4,1392.5
201907091712,1392.5,1392.5,1392.3,1392.4
201907091713,1392.4,1392.5,1392.2,1392.3
201907091714,1392.3,1392.7,1392.1,1392.7
201907091715,1392.7,1392.8,1392.4,1392.6
201907091716,1392.6,1392.8,1392.5,1392.7
201907091717,1392.7,1393,1392.7,1393
201907091718,1393,1393.2,1392.8,1392.9
201907091719,1392.9,1393,1392.7,1392.7
201907091720,1392.7,1392.7,1392.4,1392.5
201907091721,1392.5,1392.6,1392.4,1392.5
201907091722,1392.5,1392.5,1392,1392.1
201907091723,1392.2,1392.3,1392.1,1392.2
201907091724,1392.2,1392.2,1391.8,1391.8
201907091725,1391.8,1391.9,1391.3,1391.4
201907091726,1391.4,1391.7,1391.3,1391.6
201907091727,1391.6,1391.6,1389.8,1390.7
201907091728,1390.7,1390.7,1390.2,1390.2
201907091729,1390.2,1390.4,1390.1,1390.3
201907091730,1390.3,1390.8,1389.9,1390.8
201907091731,1390.8,1390.8,1390.5,1390.7
201907091732,1390.7,1390.9,1390.6,1390.7
201907091733,1390.7,1391.1,1390.6,1391.1
201907091734,1391.1,1391.1,1390.9,1391.1
201907091735,1391.1,1391.1,1390.8,1390.8
201907091736,1390.8,1391.1,1390.7,1391.1
201907091737,1391.1,1391.1,1391,1391.1
201907091738,1391,1391.4,1390.9,1391.2
201907091739,1391.2,1391.5,1391.1,1391.4
201907091740,1391.5,1391.5,1391.3,1391.3
201907091741,1391.3,1391.4,1391.2,1391.2
201907091742,1391.2,1391.2,1390.7,1390.7
201907091743,1390.7,1391,1390.7,1390.8
201907091744,1390.8,1391,1390.7,1390.7
201907091745,1390.7,1390.9,1390.6,1390.7
201907091746,1390.7,1390.8,1390.3,1390.8
201907091747,1390.8,1390.8,1390.7,1390.8
201907091748,1390.8,1390.8,1390.3,1390.5
201907091749,1390.5,1390.8,1390.3,1390.4
201907091750,1390.4,1390.4,1389.9,1390.1
201907091751,1390.1,1390.1,1389.4,1389.6
201907091752,1389.6,1389.6,1387.7,1388.6
201907091753,1388.6,1389,1388.2,1388.9
201907091754,1388.9,1388.9,1387.2,1387.7
201907091755,1387.6,1387.8,1385.8,1386.8
201907091756,1386.8,1387.3,1386.5,1387.2
201907091757,1387.2,1387.9,1386.8,1387.6
201907091758,1387.6,1388,1387.4,1387.6
201907091759,1387.6,1387.8,1387.3,1387.4
201907091800,1387.5,1387.7,1387.4,1387.5
201907091801,1387.6,1387.7,1387.1,1387.7
201907091802,1387.7,1387.9,1387.1,1387.2
201907091803,1387.2,1387.6,1386.8,1387.5
201907091804,1387.5,1387.7,1387,1387
201907091805,1387,1387.3,1386.8,1387
201907091806,1387,1387.2,1386.9,1387
201907091807,1387,1387.2,1386.9,1387.2
201907091808,1387.2,1387.8,1387,1387.7
201907091809,1387.7,1387.9,1387.5,1387.9
201907091810,1387.9,1388.7,1387.9,1388.3
201907091811,1388.3,1388.6,1388,1388.5
201907091812,1388.5,1388.6,1388.2,1388.2
201907091813,1388.2,1388.2,1387.6,1387.9
201907091814,1387.9,1388.3,1387.8,1388.2
201907091815,1388.2,1388.7,1388.2,1388.3
201907091816,1388.3,1388.6,1388.1,1388.5
201907091817,1388.5,1388.7,1388.4,1388.5
201907091818,1388.5,1388.6,1388.2,1388.5
201907091819,1388.5,1388.7,1388.5,1388.6
201907091820,1388.6,1388.6,1388.2,1388.4
201907091821,1388.4,1388.6,1388.3,1388.5
201907091822,1388.5,1388.6,1388.2,1388.5
201907091823,1388.5,1388.5,1388.2,1388.2
201907091824,1388.1,1388.3,1388,1388.2
201907091825,1388.2,1388.4,1388.1,1388.1
201907091826,1388.1,1388.4,1388.1,1388.1
201907091827,1388.1,1388.1,1387.8,1387.8
201907091828,1387.8,1388,1387.8,1388
201907091829,1388,1388,1387.5,1387.7
201907091830,1387.7,1388.1,1387.6,1388.1
201907091831,1388.1,1388.4,1388,1388.2
201907091832,1388.2,1388.3,1388.1,1388.2
201907091833,1388.2,1388.3,1388,1388
201907091834,1388,1388.4,1388,1388.3
201907091835,1388.3,1388.3,1388,1388.2
201907091836,1388.2,1388.4,1388.2,1388.2
201907091837,1388.2,1388.4,1388.2,1388.3
201907091838,1388.3,1388.3,1387.7,1387.8
201907091839,1387.8,1388,1387.7,1388
201907091840,1388,1388,1387.8,1387.9
201907091841,1387.9,1388.2,1387.9,1388.1
201907091842,1388.1,1388.1,1387.9,1388
201907091843,1388,1388.1,1388,1388.1
201907091844,1388,1388.3,1387.9,1388.3
201907091845,1388.3,1388.3,1388,1388.1
201907091846,1388.1,1388.1,1387.9,1388.1
201907091847,1388.1,1388.2,1388,1388.1
201907091848,1388.1,1388.1,1388,1388
201907091849,1388,1388,1387.9,1388
201907091850,1388,1388.1,1387.7,1388.1
201907091851,1388.1,1388.2,1388,1388.2
201907091852,1388.2,1388.2,1388,1388.1
201907091853,1388.1,1388.5,1388.1,1388.1
201907091854,1388.1,1388.3,1388,1388.2
201907091855,1388.2,1388.3,1388.2,1388.2
201907091856,1388.3,1388.3,1388.2,1388.3
201907091857,1388.3,1388.3,1388.1,1388.1
201907091858,1388.1,1388.1,1388,1388.1
201907091859,1388.1,1388.1,1388,1388
201907091900,1388,1388,1387.8,1387.8
201907091901,1387.8,1387.8,1387.7,1387.7
201907091902,1387.7,1387.7,1387.4,1387.5
201907091903,1387.5,1388.2,1387.5,1388.2
201907091904,1388.2,1388.2,1388,1388.1
201907091905,1388.1,1388.2,1388,1388.1
201907091906,1388.1,1388.1,1388.1,1388.1
201907091907,1388.1,1388.3,1388.1,1388.3
201907091908,1388.2,1388.3,1388.1,1388.2
201907091909,1388.2,1388.3,1388.1,1388.3
201907091910,1388.3,1388.3,1388.1,1388.1
201907091911,1388.1,1388.1,1388,1388.1
201907091912,1388,1388.1,1388,1388
201907091913,1388,1388.1,1388,1388.1
201907091914,1388.1,1388.1,1388,1388
201907091915,1388.1,1388.1,1387.7,1387.7
201907091916,1387.7,1387.8,1387.7,1387.7
201907091917,1387.8,1387.8,1387.7,1387.7
201907091918,1387.7,1387.8,1387.6,1387.6
201907091919,1387.6,1387.7,1387.4,1387.7
201907091920,1387.8,1387.8,1387.7,1387.7
201907091921,1387.7,1387.7,1387.4,1387.4
201907091922,1387.4,1387.6,1387.4,1387.5
201907091923,1387.5,1387.6,1387.5,1387.6
201907091924,1387.6,1387.7,1387.6,1387.6
201907091925,1387.6,1387.7,1387.6,1387.7
201907091926,1387.7,1388,1387.2,1387.2
201907091927,1387.2,1387.8,1387.2,1387.8
201907091928,1387.8,1387.9,1387.8,1387.9
201907091929,1387.9,1387.9,1387.7,1387.7
201907091930,1387.7,1387.7,1387.5,1387.7
201907091931,1387.7,1387.9,1387.7,1387.9
201907091932,1387.9,1388.1,1387.4,1387.4
201907091933,1387.4,1387.4,1386.4,1386.9
201907091934,1386.9,1387.5,1386.8,1387.5
201907091935,1387.5,1387.7,1387.5,1387.7
201907091936,1387.7,1387.9,1387.6,1387.7
201907091937,1387.7,1388.4,1387.7,1388.4
201907091938,1388.4,1388.4,1388.2,1388.3
201907091939,1388.3,1388.6,1388.2,1388.6
201907091940,1388.6,1388.7,1388.5,1388.6
201907091941,1388.6,1388.8,1388.6,1388.6
201907091942,1388.6,1389.7,1388.6,1389.7
201907091943,1389.7,1389.9,1389.5,1389.7
201907091944,1389.7,1389.7,1389.4,1389.5
201907091945,1389.5,1389.8,1389.4,1389.7
201907091946,1389.7,1389.8,1389.6,1389.8
201907091947,1389.8,1390.2,1389.8,1389.9
201907091948,1389.9,1390.1,1389.8,1389.8
201907091949,1389.8,1389.9,1389.7,1389.8
201907091950,1389.8,1389.9,1389.6,1389.8
201907091951,1389.8,1389.9,1389.8,1389.8
201907091952,1389.9,1390.9,1389.8,1390.5
201907091953,1390.5,1390.6,1390.3,1390.4
201907091954,1390.4,1390.5,1390.2,1390.2
201907091955,1390.2,1390.4,1390.2,1390.2
201907091956,1390.2,1390.3,1390.1,1390.1
201907091957,1390.1,1390.1,1389.7,1389.8
201907091958,1389.8,1389.9,1389.4,1389.4
201907091959,1389.4,1389.5,1389.3,1389.4
201907092000,1389.4,1389.7,1388.9,1389
201907092001,1389,1389.2,1388.7,1389.1
201907092002,1389.2,1389.4,1389.1,1389.2
201907092003,1389.2,1389.4,1389.2,1389.3
201907092004,1389.3,1389.3,1388.9,1388.9
201907092005,1388.9,1389.3,1388.8,1389.3
201907092006,1389.3,1389.3,1389,1389.1
201907092007,1389.1,1389.3,1389.1,1389.3
201907092008,1389.3,1389.6,1389.3,1389.6
201907092009,1389.6,1389.8,1389.6,1389.7
201907092010,1389.7,1390,1389.6,1389.9
201907092011,1389.9,1390.4,1389.9,1390.4
201907092012,1390.4,1390.4,1390,1390
201907092013,1390,1390.3,1390,1390.2
201907092014,1390.2,1390.4,1390.1,1390.2
201907092015,1390.2,1390.4,1390.2,1390.4
201907092016,1390.4,1390.4,1390.2,1390.3
201907092017,1390.3,1390.4,1390.2,1390.2
201907092018,1390.2,1390.5,1390.1,1390.4
201907092019,1390.4,1390.4,1390.1,1390.3
201907092020,1390.3,1390.3,1389.9,1389.9
201907092021,1389.9,1390.1,1389.8,1389.8
201907092022,1389.9,1390,1389.7,1389.9
201907092023,1389.9,1389.9,1389.6,1389.7
201907092024,1389.7,1389.9,1389.6,1389.8
201907092025,1389.8,1390.1,1389.8,1390.1
201907092026,1390.1,1390.1,1389.8,1389.9
201907092027,1389.9,1390.1,1389.9,1390
201907092028,1390,1390.4,1390,1390.4
201907092029,1390.4,1390.4,1390.1,1390.2
201907092030,1390.2,1390.5,1390.2,1390.5
201907092031,1390.5,1390.7,1390.3,1390.3
201907092032,1390.3,1390.4,1390.1,1390.1
201907092033,1390.1,1390.2,1389.8,1390
201907092034,1389.9,1390,1389.2,1389.5
201907092035,1389.5,1389.9,1389.4,1389.9
201907092036,1389.9,1390,1389.8,1389.8
201907092037,1389.8,1389.9,1389.7,1389.9
201907092038,1389.9,1390,1389.9,1390
201907092039,1390,1390.3,1390,1390.3
201907092040,1390.3,1390.3,1389.9,1389.9
201907092041,1389.9,1390,1389.9,1390
201907092042,1390,1390.1,1389.9,1390
201907092043,1390,1390.3,1390,1390.2
201907092044,1390.1,1390.5,1390.1,1390.4
201907092045,1390.4,1390.6,1390.2,1390.6
201907092046,1390.6,1390.8,1390.5,1390.6
201907092047,1390.6,1390.8,1390.4,1390.4
201907092048,1390.4,1391.6,1390.4,1391.6
201907092049,1391.6,1391.6,1391,1391.2
201907092050,1391.2,1391.3,1391,1391
201907092051,1391,1391.7,1391,1391.7
201907092052,1391.7,1391.7,1391.2,1391.2
201907092053,1391.2,1391.5,1391.1,1391.4
201907092054,1391.4,1391.6,1391.2,1391.6
201907092055,1391.6,1392.7,1391.6,1392.1
201907092056,1392.1,1392.1,1391.7,1391.7
201907092057,1391.7,1392,1391.7,1391.8
201907092058,1391.8,1391.9,1391.6,1391.8
201907092059,1391.8,1392.1,1391.6,1391.6
201907092100,1391.6,1392.3,1391.6,1392.1
201907092101,1392.1,1392.4,1392,1392.3
201907092102,1392.3,1392.9,1392.3,1392.9
201907092103,1392.9,1392.9,1392.3,1392.5
201907092104,1392.5,1392.8,1392.5,1392.8
201907092105,1392.8,1392.9,1392.3,1392.3
201907092106,1392.1,1392.4,1391.9,1392
201907092107,1392,1392.5,1392,1392.3
201907092108,1392.4,1392.5,1392.2,1392.4
201907092109,1392.4,1392.7,1392.3,1392.4
201907092110,1392.4,1392.7,1392.4,1392.5
201907092111,1392.6,1392.6,1392.3,1392.5
201907092112,1392.5,1392.8,1392.4,1392.5
201907092113,1392.5,1392.9,1392.5,1392.7
201907092114,1392.7,1393.8,1392.6,1393.4
201907092115,1393.3,1394.3,1393.2,1393.7
201907092116,1393.7,1393.8,1393.1,1393.2
201907092117,1393.1,1393.4,1393,1393.2
201907092118,1393.2,1393.2,1392.7,1392.9
201907092119,1392.9,1392.9,1392.2,1392.3
201907092120,1392.3,1393.4,1392.2,1393
201907092121,1393,1393,1392.5,1393
201907092122,1393,1393.8,1393,1393.8
201907092123,1393.8,1393.9,1393.1,1393.1
201907092124,1393.2,1393.4,1393.1,1393.3
201907092125,1393.2,1393.8,1393.1,1393.5
201907092126,1393.5,1394.5,1393.5,1394.3
201907092127,1394.4,1394.5,1393.9,1394
201907092128,1394,1394.2,1393.7,1394
201907092129,1394,1394.4,1393.9,1394.3
201907092130,1394.4,1394.7,1394.1,1394.1
201907092131,1394.1,1394.6,1394,1394.3
201907092132,1394.3,1394.4,1393.6,1393.8
201907092133,1393.8,1393.9,1393.4,1393.5
201907092134,1393.5,1393.7,1393.4,1393.5
201907092135,1393.5,1393.6,1393.2,1393.2
201907092136,1393.2,1393.4,1392.9,1393.1
201907092137,1393.1,1393.2,1392.6,1392.6
201907092138,1392.6,1392.9,1392.6,1392.8
201907092139,1392.8,1393.2,1392.8,1392.8
201907092140,1392.7,1393.4,1392.5,1393.4
201907092141,1393.4,1393.5,1393.1,1393.1
201907092142,1393.1,1393.4,1393,1393.2
201907092143,1393.2,1393.2,1392.8,1392.8
201907092144,1392.8,1392.9,1392.6,1392.7
201907092145,1392.7,1392.8,1391.8,1392.3
201907092146,1392.2,1392.6,1392.2,1392.6
201907092147,1392.6,1392.8,1392.5,1392.6
201907092148,1392.6,1392.6,1392,1392.1
201907092149,1392.1,1392.3,1392,1392.1
201907092150,1392.2,1392.4,1392,1392.2
201907092151,1392.2,1392.3,1392,1392.1
201907092152,1392.1,1392.4,1392.1,1392.1
201907092153,1392.2,1392.5,1392.2,1392.5
201907092154,1392.5,1393,1392.4,1392.7
201907092155,1392.7,1393.1,1392.7,1393.1
201907092156,1393.1,1393.1,1392.8,1392.9
201907092157,1392.9,1393.3,1392.8,1393.2
201907092158,1393.2,1393.2,1392.7,1392.8
201907092159,1392.8,1393.1,1392.6,1392.8
201907092200,1392.8,1393,1392.1,1392.1
201907092201,1392.1,1392.4,1391.6,1391.8
201907092202,1391.8,1392.1,1391.6,1392.1
201907092203,1392.1,1392.1,1391.2,1391.4
201907092204,1391.4,1391.9,1391.3,1391.3
201907092205,1391.3,1391.6,1391,1391.6
201907092206,1391.6,1391.6,1391.2,1391.4
201907092207,1391.4,1391.7,1391.4,1391.7
201907092208,1391.7,1391.7,1391.1,1391.4
201907092209,1391.4,1391.8,1391.4,1391.7
201907092210,1391.7,1392.2,1391.7,1392.2
201907092211,1392.4,1392.9,1392.2,1392.3
201907092212,1392.3,1392.5,1392.2,1392.2
201907092213,1392.3,1392.6,1392.2,1392.4
201907092214,1392.4,1393.1,1392.4,1393
201907092215,1393,1393.1,1392.7,1392.7
201907092216,1392.7,1392.9,1392.5,1392.6
201907092217,1392.6,1393,1392.6,1393
201907092218,1393,1393.3,1392.9,1393.1
201907092219,1393.1,1393.6,1393.1,1393.4
201907092220,1393.3,1393.4,1393.1,1393.4
201907092221,1393.4,1393.6,1393,1393.1
201907092222,1393.1,1393.7,1393.1,1393.6
201907092223,1393.6,1393.7,1393,1393.2
201907092224,1393.2,1393.5,1393.2,1393.2
201907092225,1393.2,1393.3,1393,1393.3
201907092226,1393.3,1393.4,1393.1,1393.3
201907092227,1393.3,1393.3,1393.1,1393.1
201907092228,1393.1,1393.3,1393,1393.2
201907092229,1393.1,1393.3,1393.1,1393.2
201907092230,1393.2,1394.3,1393.2,1393.9
201907092231,1394,1394,1393.4,1393.6
201907092232,1393.5,1393.6,1392.6,1392.8
201907092233,1392.8,1392.8,1392,1392.1
201907092234,1392.1,1392.4,1392,1392.1
201907092235,1392.1,1392.1,1391.4,1391.8
201907092236,1391.7,1391.9,1391.2,1391.7
201907092237,1391.7,1391.9,1391.5,1391.8
201907092238,1391.8,1392,1391.4,1391.9
201907092239,1391.9,1392.3,1391.9,1392
201907092240,1392,1392.7,1391.9,1392.7
201907092241,1392.7,1393,1392.6,1392.6
201907092242,1392.6,1392.7,1392.3,1392.6
201907092243,1392.6,1392.7,1392.1,1392.2
201907092244,1392.2,1392.2,1391.6,1391.6
201907092245,1391.6,1391.8,1391.3,1391.5
201907092246,1391.5,1391.5,1390.8,1391.1
201907092247,1391.1,1391.4,1391,1391.1
201907092248,1391.1,1391.6,1391.1,1391.2
201907092249,1391.2,1391.5,1391.2,1391.3
201907092250,1391.3,1391.7,1391.2,1391.3
201907092251,1391.3,1391.5,1391.1,1391.2
201907092252,1391.2,1391.7,1391.2,1391.7
201907092253,1391.7,1392,1391.5,1391.8
201907092254,1391.8,1392,1391.6,1391.7
201907092255,1391.7,1392.2,1391.6,1392.1
201907092256,1392.2,1392.3,1391.9,1391.9
201907092257,1391.9,1391.9,1391.4,1391.4
201907092258,1391.4,1391.6,1391.2,1391.6
201907092259,1391.6,1391.8,1391.4,1391.6
201907092300,1391.6,1392.3,1391.6,1391.8
201907092301,1391.8,1392.1,1391.4,1391.6
201907092302,1391.6,1391.9,1391.3,1391.8
201907092303,1392.1,1392.5,1392.1,1392.3
201907092304,1392.3,1392.4,1391.9,1391.9
201907092305,1391.9,1391.9,1391.8,1391.8
201907092306,1391.8,1391.8,1391.5,1391.6
201907092307,1391.6,1391.7,1391.3,1391.4
201907092308,1391.4,1391.7,1391.3,1391.5
201907092309,1391.5,1391.8,1391.5,1391.8
201907092310,1391.8,1392.4,1391.7,1392.3
201907092311,1392.3,1392.4,1392.1,1392.2
201907092312,1392.2,1392.2,1392.1,1392.2
201907092313,1392.2,1392.5,1392.1,1392.5
201907092314,1392.5,1392.9,1392.5,1392.8
201907092315,1392.8,1392.9,1392.5,1392.6
201907092316,1392.6,1392.9,1392.4,1392.9
201907092317,1392.9,1393,1392.7,1392.9
201907092318,1392.9,1393.1,1392.7,1392.7
201907092319,1392.7,1392.8,1392.5,1392.6
201907092320,1392.6,1392.7,1392.4,1392.7
201907092321,1392.8,1392.9,1392.7,1392.8
201907092322,1392.8,1393.2,1392.6,1393.2
201907092323,1393.2,1393.2,1392.5,1392.6
201907092324,1392.6,1392.7,1392.2,1392.5
201907092325,1392.5,1392.8,1392.4,1392.7
201907092326,1392.7,1393,1392.7,1392.9
201907092327,1392.9,1393.3,1392.9,1393.1
201907092328,1393.1,1393.1,1392.7,1392.7
201907092329,1392.7,1392.8,1392.5,1392.5
201907092330,1392.5,1392.6,1392.1,1392.2
201907092331,1392.3,1392.4,1392,1392
201907092332,1392,1392,1391.6,1391.8
201907092333,1391.8,1391.8,1391.3,1391.5
201907092334,1391.5,1391.8,1391.4,1391.5
201907092335,1391.5,1391.7,1391.1,1391.1
201907092336,1391.1,1391.1,1390.5,1390.6
201907092337,1390.6,1390.9,1390.6,1390.7
201907092338,1390.8,1391.2,1390.6,1391
201907092339,1391,1391.2,1390.9,1391
201907092340,1391,1391.2,1390.2,1390.3
201907092341,1390.3,1390.8,1390.3,1390.4
201907092342,1390.4,1391.1,1390.3,1391.1
201907092343,1391.1,1391.2,1390.9,1391.1
201907092344,1391.1,1391.3,1391.1,1391.3
201907092345,1391.3,1391.7,1391.2,1391.7
201907092346,1391.6,1392,1391.6,1392
201907092347,1392,1392.3,1391.9,1392.3
201907092348,1392.3,1392.3,1391.9,1392
201907092349,1392,1392.2,1392,1392
201907092350,1392,1392.4,1392,1392.3
201907092351,1392.3,1392.3,1392.1,1392.3
201907092352,1392.3,1392.4,1391.9,1391.9
201907092353,1391.9,1392.1,1391.8,1392.1
201907092354,1392.1,1392.4,1392.1,1392.2
201907092355,1392.2,1392.6,1392.2,1392.6
201907092356,1392.6,1393.1,1392.6,1393.1
201907092357,1393,1393.3,1393,1393.3
201907092358,1393.3,1393.7,1393.3,1393.6
201907092359,1393.6,1393.8,1393.3,1393.3
201907100000,1393.4,1397.4,1393.4,1396.8
201907100001,1396.7,1399.8,1396.7,1399.3
201907100002,1399.4,1399.6,1397.6,1398.2
201907100003,1398.2,1398.4,1397.9,1397.9
201907100004,1397.9,1398.3,1396.7,1396.8
201907100005,1396.8,1397.6,1396.8,1396.9
201907100006,1397,1397.5,1396.7,1397.1
201907100007,1397.1,1397.6,1397.1,1397.4
201907100008,1397.5,1398.1,1397.2,1397.5
201907100009,1397.4,1398,1397.4,1397.9
201907100010,1397.9,1398.3,1397.7,1397.9
201907100011,1397.9,1398,1397,1397.1
201907100012,1397.2,1397.2,1396.4,1396.6
201907100013,1396.6,1396.9,1396.5,1396.7
201907100014,1396.7,1396.9,1396.5,1396.9
201907100015,1396.9,1397.1,1395.9,1396.1
201907100016,1396.1,1396.7,1395.8,1396.6
201907100017,1396.6,1396.9,1396.3,1396.8
201907100018,1396.8,1396.8,1396.5,1396.7
201907100019,1396.7,1397,1396.7,1397
201907100020,1397,1397.2,1396.7,1396.9
201907100021,1396.9,1397.1,1396.3,1396.5
201907100022,1396.5,1396.8,1395.8,1396
201907100023,1396,1396.3,1396,1396.3
201907100024,1396.2,1396.5,1396.2,1396.3
201907100025,1396.3,1396.6,1396,1396.6
201907100026,1396.6,1397,1396.6,1397
201907100027,1397,1397.3,1397,1397.3
201907100028,1397.3,1397.3,1397,1397
201907100029,1397,1397.1,1396.4,1396.5
201907100030,1396.5,1397,1396.5,1396.9
201907100031,1396.9,1397.2,1396.9,1397.1
201907100032,1397.1,1397.4,1397,1397.2
201907100033,1397.2,1397.5,1397.2,1397.5
201907100034,1397.5,1397.8,1397.4,1397.5
201907100035,1397.5,1397.8,1397.3,1397.3
201907100036,1397.3,1397.7,1397.3,1397.6
201907100037,1397.6,1397.6,1397.1,1397.2
201907100038,1397.2,1397.3,1396.7,1396.7
201907100039,1396.7,1397.2,1396.7,1397
201907100040,1397,1397.1,1396.6,1397
201907100041,1397,1397.5,1397,1397.4
201907100042,1397.4,1397.5,1396.5,1396.6
201907100043,1396.6,1397.1,1396.6,1396.8
201907100044,1396.8,1396.9,1396.6,1396.8
201907100045,1396.8,1397.2,1396.8,1397.1
201907100046,1397.1,1397.3,1396.9,1397.2
201907100047,1397.2,1397.5,1397.1,1397.5
201907100048,1397.5,1397.7,1397.4,1397.5
201907100049,1397.5,1397.8,1397.3,1397.6
201907100050,1397.6,1397.8,1397.4,1397.7
201907100051,1397.7,1397.8,1397.4,1397.4
201907100052,1397.4,1397.7,1397,1397.1
201907100053,1397.1,1397.3,1397.1,1397.2
201907100054,1397.2,1397.4,1396.8,1396.9
201907100055,1396.9,1397.4,1396.8,1397.3
201907100056,1397.3,1397.3,1397.2,1397.3
201907100057,1397.3,1397.4,1396.9,1397.3
201907100058,1397.3,1397.5,1397.3,1397.4
201907100059,1397.4,1397.8,1397.3,1397.6
201907100100,1397.6,1397.6,1396.9,1396.9
201907100101,1396.9,1396.9,1396.6,1396.6
201907100102,1396.6,1397,1396.6,1396.9
201907100103,1396.9,1396.9,1396.6,1396.6
201907100104,1396.6,1396.6,1396.2,1396.6
201907100105,1396.6,1396.6,1396.1,1396.1
201907100106,1396.1,1396.4,1396.1,1396.3
201907100107,1396.3,1396.7,1396.3,1396.5
201907100108,1396.5,1396.7,1396.3,1396.6
201907100109,1396.6,1396.8,1396.6,1396.7
201907100110,1396.6,1396.7,1396.5,1396.6
201907100111,1396.6,1397,1396.6,1397
201907100112,1397,1397.1,1396.9,1396.9
201907100113,1396.9,1396.9,1396.5,1396.6
201907100114,1396.6,1396.8,1396.4,1396.8
201907100115,1396.8,1396.9,1396.5,1396.8
201907100116,1396.8,1397.1,1396.7,1397
201907100117,1397,1397.1,1396.6,1396.8
201907100118,1396.8,1396.9,1396.7,1396.9
201907100119,1396.9,1397,1396.7,1396.8
201907100120,1396.8,1396.8,1396.5,1396.5
201907100121,1396.5,1396.5,1396.4,1396.5
201907100122,1396.5,1396.6,1396.2,1396.5
201907100123,1396.5,1396.9,1396.3,1396.8
201907100124,1396.7,1396.8,1396.4,1396.5
201907100125,1396.4,1396.8,1396.4,1396.8
201907100126,1396.8,1397.2,1396.8,1397.1
201907100127,1397.1,1397.4,1396.9,1397.4
201907100128,1397.4,1397.6,1397.3,1397.5
201907100129,1397.5,1397.6,1397.1,1397.2
201907100130,1397.2,1397.4,1397.1,1397.1
201907100131,1397.1,1397.2,1397,1397
201907100132,1397,1397,1396.5,1396.5
201907100133,1396.5,1396.6,1396.4,1396.5
201907100134,1396.5,1396.7,1396.5,1396.7
201907100135,1396.7,1396.7,1396.6,1396.7
201907100136,1396.7,1396.9,1396.7,1396.7
201907100137,1396.7,1396.8,1396.6,1396.8
201907100138,1396.8,1396.8,1396.6,1396.6
201907100139,1396.6,1396.7,1396.4,1396.4
201907100140,1396.4,1396.6,1396.4,1396.5
201907100141,1396.5,1396.5,1396.3,1396.5
201907100142,1396.5,1396.5,1396.1,1396.1
201907100143,1396.1,1396.4,1396.1,1396.3
201907100144,1396.3,1396.6,1396.3,1396.6
201907100145,1396.5,1396.7,1396.5,1396.7
201907100146,1396.7,1396.8,1396.7,1396.7
201907100147,1396.7,1396.8,1396.7,1396.8
201907100148,1396.8,1397,1396.8,1397
201907100149,1397,1397,1396.5,1396.5
201907100150,1396.5,1396.7,1396.5,1396.7
201907100151,1396.7,1396.7,1396.7,1396.7
201907100152,1396.7,1396.7,1396.3,1396.4
201907100153,1396.4,1396.5,1396.2,1396.3
201907100154,1396.3,1396.5,1396.3,1396.5
201907100155,1396.5,1396.7,1396.5,1396.7
201907100156,1396.7,1396.9,1396.6,1396.8
201907100157,1396.8,1396.9,1396.8,1396.8
201907100158,1396.8,1396.9,1396.7,1396.8
201907100159,1396.8,1396.9,1396.7,1396.7
201907100200,1396.7,1396.8,1396.6,1396.7
201907100201,1396.7,1397.1,1396.7,1397
201907100202,1397,1397.3,1396.9,1397.2
201907100203,1397.2,1397.4,1397,1397
201907100204,1397,1397.1,1396.9,1396.9
201907100205,1396.9,1397,1396.9,1397
201907100206,1397,1397.2,1396.7,1396.7
201907100207,1396.7,1396.7,1396.2,1396.6
201907100208,1396.6,1397.4,1396.6,1397.2
201907100209,1397.2,1397.4,1396.5,1396.5
201907100210,1396.5,1396.7,1396.3,1396.6
201907100211,1396.6,1397,1396.6,1397
201907100212,1397,1397.2,1396.9,1396.9
201907100213,1396.9,1397,1396.8,1396.8
201907100214,1396.8,1397.3,1396.8,1397.1
201907100215,1397.1,1397.2,1397,1397.2
201907100216,1397.1,1397.4,1397.1,1397.3
201907100217,1397.3,1397.3,1397.2,1397.3
201907100218,1397.3,1397.6,1397.2,1397.6
201907100219,1397.6,1397.9,1397.5,1397.6
201907100220,1397.6,1397.8,1397.5,1397.6
201907100221,1397.6,1397.8,1397.5,1397.7
201907100222,1397.7,1398.6,1397.7,1398.4
201907100223,1398.4,1399.9,1398.2,1399.4
201907100224,1399.4,1399.6,1399.2,1399.4
201907100225,1399.4,1399.4,1399.1,1399.2
201907100226,1399.3,1399.3,1398.8,1399.1
201907100227,1399.1,1399.2,1398.8,1398.8
201907100228,1398.8,1399.2,1398.7,1399.2
201907100229,1399.2,1399.2,1398,1398.3
201907100230,1398.2,1398.6,1398.2,1398.4
201907100231,1398.4,1399,1398.4,1398.6
201907100232,1398.6,1398.8,1398.4,1398.5
201907100233,1398.4,1398.6,1398.2,1398.2
201907100234,1398.2,1398.5,1398.1,1398.4
201907100235,1398.4,1398.4,1398.1,1398.2
201907100236,1398.2,1398.2,1398,1398.2
201907100237,1398.2,1398.2,1398,1398.2
201907100238,1398.2,1398.3,1398.2,1398.2
201907100239,1398.3,1398.4,1398.2,1398.2
201907100240,1398.2,1398.5,1398.1,1398.5
201907100241,1398.5,1398.5,1398.4,1398.4
201907100242,1398.4,1398.5,1398.3,1398.4
201907100243,1398.4,1398.4,1398.2,1398.2
201907100244,1398.2,1398.3,1398.1,1398.3
201907100245,1398.3,1398.4,1398.2,1398.3
201907100246,1398.3,1398.5,1398.3,1398.4
201907100247,1398.4,1398.4,1398.3,1398.3
201907100248,1398.3,1398.4,1398.2,1398.2
201907100249,1398.3,1398.3,1398,1398
201907100250,1398,1398.1,1397.6,1397.8
201907100251,1397.7,1397.8,1397.5,1397.5
201907100252,1397.5,1397.6,1397.4,1397.4
201907100253,1397.4,1397.7,1397.4,1397.7
201907100254,1397.6,1397.9,1397.5,1397.7
201907100255,1397.7,1398,1397.7,1398
201907100256,1398,1398.1,1398,1398
201907100257,1398,1398,1398,1398
201907100258,1398,1398.4,1398,1398.3
201907100259,1398.3,1398.4,1398,1398.1
201907100300,1398.1,1398.3,1398,1398.3
201907100301,1398.3,1398.3,1398.2,1398.3
201907100302,1398.3,1398.3,1398.1,1398.1
201907100303,1398.1,1398.3,1398.1,1398.2
201907100304,1398.2,1398.2,1397.6,1397.7
201907100305,1397.7,1397.9,1397.6,1397.8
201907100306,1397.8,1398.1,1397.8,1398
201907100307,1398,1398,1397.9,1398
201907100308,1398,1398,1397.9,1397.9
201907100309,1397.9,1397.9,1397.8,1397.9
201907100310,1397.9,1398,1397.8,1398
201907100311,1398,1398,1397.9,1397.9
201907100312,1397.9,1397.9,1397.9,1397.9
201907100313,1397.9,1398.1,1397.9,1398
201907100314,1398,1398,1397.9,1398
201907100315,1398,1398.1,1398,1398.1
201907100316,1398.2,1398.3,1398,1398
201907100317,1398,1398.2,1398,1398.1
201907100318,1398.1,1398.2,1398,1398.1
201907100319,1398.1,1398.1,1398,1398
201907100320,1398,1398.2,1398,1398.1
201907100321,1398.1,1398.2,1398,1398.1
201907100322,1398.1,1398.1,1398,1398
201907100323,1398,1398.2,1398,1398.2
201907100324,1398.2,1398.6,1398.1,1398.4
201907100325,1398.4,1398.4,1398.2,1398.2
201907100326,1398.2,1398.3,1398.1,1398.3
201907100327,1398.3,1398.3,1398,1398.3
201907100328,1398.3,1398.3,1398.2,1398.3
201907100329,1398.3,1398.4,1398.1,1398.1
201907100330,1398,1398.4,1398,1398.4
201907100331,1398.4,1398.4,1398.2,1398.3
201907100332,1398.3,1398.4,1398.2,1398.3
201907100333,1398.3,1398.3,1398.1,1398.2
201907100334,1398.2,1398.4,1398.2,1398.3
201907100335,1398.3,1398.4,1398.3,1398.4
201907100336,1398.4,1398.5,1398.4,1398.4
201907100337,1398.4,1398.4,1398.4,1398.4
201907100338,1398.4,1398.4,1398.4,1398.4
201907100339,1398.4,1398.4,1398.3,1398.4
201907100340,1398.4,1398.5,1398.3,1398.3
201907100341,1398.3,1398.4,1398.3,1398.3
201907100342,1398.3,1398.4,1398.3,1398.3
201907100343,1398.3,1398.3,1398.2,1398.3
201907100344,1398.3,1398.4,1398.3,1398.3
201907100345,1398.3,1398.3,1398,1398.1
201907100346,1398.1,1398.2,1398,1398.2
201907100347,1398.2,1398.2,1398.1,1398.1
201907100348,1398.1,1398.3,1398.1,1398.3
201907100349,1398.3,1398.4,1398.3,1398.4
201907100350,1398.4,1398.4,1398,1398.3
201907100351,1398.3,1398.3,1398.2,1398.2
201907100352,1398.2,1398.3,1398.1,1398.2
201907100353,1398.2,1398.2,1398.1,1398.2
201907100354,1398.2,1398.3,1398.2,1398.2
201907100355,1398.2,1398.3,1398.2,1398.2
201907100356,1398.2,1398.3,1398.2,1398.2
201907100357,1398.2,1398.4,1398.1,1398.4
201907100358,1398.4,1398.6,1398.3,1398.4
201907100359,1398.3,1398.3,1397.7,1397.7
201907100400,1397.7,1397.9,1397.7,1397.7
201907100401,1397.7,1397.7,1396.2,1396.2
201907100402,1396.2,1396.3,1396.1,1396.2
201907100403,1396.1,1396.2,1395.9,1396.2
201907100404,1396.2,1396.2,1396,1396.2
201907100405,1396.2,1396.3,1396,1396.1
201907100406,1396.1,1396.1,1395.5,1395.6
201907100407,1395.6,1395.9,1395.6,1395.9
201907100408,1395.9,1396,1395.7,1395.9
201907100409,1395.9,1395.9,1395.7,1395.7
201907100410,1395.7,1395.8,1395.5,1395.7
201907100411,1395.7,1395.8,1395.6,1395.8
201907100412,1395.8,1396.2,1395.8,1396.1
201907100413,1396.1,1396.1,1395.7,1395.9
201907100414,1395.8,1396,1395.8,1395.9
201907100415,1395.9,1396.2,1395.9,1396.2
201907100416,1396.2,1396.2,1395.9,1396.1
201907100417,1396.1,1396.3,1396,1396.3
201907100418,1396.3,1396.3,1396,1396.1
201907100419,1396.1,1396.2,1396.1,1396.1
201907100420,1396.1,1396.2,1396,1396.2
201907100421,1396.1,1396.2,1395.7,1395.7
201907100422,1395.7,1396.1,1395.7,1396.1
201907100423,1396.1,1396.3,1396.1,1396.2
201907100424,1396.2,1396.3,1396.1,1396.2
201907100425,1396.3,1396.5,1396.3,1396.4
201907100426,1396.4,1396.4,1396.4,1396.4
201907100427,1396.4,1396.7,1396.4,1396.7
201907100428,1396.7,1396.8,1396.6,1396.7
201907100429,1396.7,1396.8,1396.6,1396.6
201907100430,1396.6,1396.7,1396.5,1396.5
201907100431,1396.5,1396.6,1396.4,1396.6
201907100432,1396.6,1396.7,1396.5,1396.6
201907100433,1396.6,1396.9,1396.6,1396.9
201907100434,1396.9,1397.1,1396.8,1397
201907100435,1397,1397.1,1396.9,1397.1
201907100436,1397.1,1397.1,1397,1397
201907100437,1397,1397.1,1397,1397.1
201907100438,1397.1,1397.2,1397.1,1397.2
201907100439,1397.2,1397.4,1397.1,1397.2
201907100440,1397.2,1397.3,1397.2,1397.3
201907100441,1397.3,1397.5,1397.3,1397.4
201907100442,1397.4,1397.5,1397.3,1397.3
201907100443,1397.3,1397.4,1397.2,1397.3
201907100444,1397.4,1397.5,1397.3,1397.3
201907100445,1397.3,1397.3,1396.6,1396.6
201907100446,1396.6,1396.8,1396.3,1396.4
201907100447,1396.4,1396.8,1396.4,1396.6
201907100448,1396.6,1396.7,1396.3,1396.4
201907100449,1396.4,1396.7,1396.4,1396.6
201907100450,1396.6,1396.6,1396.4,1396.5
201907100451,1396.5,1396.7,1396.5,1396.7
201907100452,1396.7,1396.8,1396.6,1396.7
201907100453,1396.7,1396.8,1396.6,1396.7
201907100454,1396.6,1396.8,1396.5,1396.5
201907100455,1396.5,1396.7,1396.5,1396.7
201907100456,1396.7,1396.7,1396.6,1396.6
201907100457,1396.6,1396.7,1396.2,1396.3
201907100458,1396.3,1396.6,1396.3,1396.6
201907100459,1396.6,1396.7,1396.3,1396.6
201907100500,1396.6,1396.7,1395.8,1396.2
201907100501,1396.2,1396.4,1396.2,1396.4
201907100502,1396.3,1396.5,1396.3,1396.4
201907100503,1396.4,1396.6,1396.4,1396.6
201907100504,1396.6,1396.7,1396.6,1396.7
201907100505,1396.7,1396.7,1396.6,1396.6
201907100506,1396.6,1396.8,1396.6,1396.8
201907100507,1396.8,1397,1396.8,1397
201907100508,1397,1397,1397,1397
201907100509,1397,1397,1397,1397
201907100510,1397,1397.1,1397,1397
201907100511,1397,1397.1,1397,1397
201907100512,1397,1397.2,1397,1397.1
201907100513,1397.1,1397.2,1397,1397.1
201907100514,1397.1,1397.1,1396.9,1397.1
201907100515,1397.1,1397.1,1397,1397.1
201907100516,1397.2,1397.2,1397.1,1397.1
201907100517,1397.1,1397.1,1397.1,1397.1
201907100518,1397.1,1397.1,1397.1,1397.1
201907100519,1397.1,1397.1,1397.1,1397.1
201907100520,1397.1,1397.1,1396.8,1396.8
201907100521,1396.8,1397.3,1396.7,1397.3
201907100522,1397.3,1397.5,1397.1,1397.2
201907100523,1397.2,1397.2,1397,1397.2
201907100524,1397.2,1397.2,1397.1,1397.2
201907100525,1397.2,1397.3,1397.2,1397.2
201907100526,1397.2,1397.3,1397.1,1397.2
201907100527,1397.2,1397.2,1397,1397
201907100528,1397,1397,1396.9,1397
201907100529,1397,1397.1,1396.9,1396.9
201907100530,1396.9,1397.2,1396.9,1397.1
201907100531,1397.1,1397.1,1397,1397
201907100532,1397,1397.3,1397,1397.2
201907100533,1397.3,1397.3,1397.2,1397.2
201907100534,1397.2,1397.2,1397.1,1397.1
201907100535,1397.1,1397.2,1397.1,1397.2
201907100536,1397.2,1397.3,1397.2,1397.3
201907100537,1397.3,1397.3,1397.1,1397.1
201907100538,1397.1,1397.2,1397.1,1397.2
201907100539,1397.2,1397.2,1397.1,1397.2
201907100540,1397.2,1397.3,1397.2,1397.3
201907100541,1397.3,1397.3,1397.2,1397.2
201907100542,1397.3,1397.3,1397.2,1397.2
201907100543,1397.2,1397.5,1397.2,1397.4
201907100544,1397.4,1397.4,1397.3,1397.3
201907100545,1397.3,1397.4,1397.3,1397.3
201907100546,1397.3,1397.5,1397.3,1397.5
201907100547,1397.5,1397.5,1397.5,1397.5
201907100548,1397.5,1397.5,1397.5,1397.5
201907100549,1397.5,1397.5,1397.5,1397.5
201907100550,1397.4,1397.5,1397.3,1397.3
201907100551,1397.3,1397.4,1397.2,1397.4
201907100552,1397.4,1397.4,1397.3,1397.4
201907100553,1397.4,1397.4,1397.3,1397.4
201907100554,1397.4,1397.4,1397.4,1397.4
201907100555,1397.5,1397.6,1397.3,1397.3
201907100556,1397.3,1397.3,1397.2,1397.2
201907100557,1397.2,1397.3,1397.2,1397.2
201907100558,1397.2,1397.5,1397.2,1397.4
201907100559,1397.4,1397.5,1397.4,1397.4
