日時,始値(BID),高値(BID),安値(BID),終値(BID)
201907240700,1418.2,1418.4,1416.6,1416.7
201907240701,1416.7,1417.3,1416.7,1417.3
201907240702,1417.3,1417.3,1417,1417.1
201907240703,1417.1,1417.3,1416.7,1417.1
201907240704,1417.1,1417.4,1417,1417.2
201907240705,1417.2,1417.3,1417.2,1417.3
201907240706,1417.3,1417.6,1417.3,1417.6
201907240707,1417.6,1418.1,1417.5,1418
201907240708,1418,1418.1,1416.8,1417.3
201907240709,1417.3,1417.5,1417.2,1417.2
201907240710,1417.2,1417.2,1417,1417.1
201907240711,1417.2,1417.3,1417.2,1417.3
201907240712,1417.3,1417.6,1417.3,1417.4
201907240713,1417.4,1417.6,1417.2,1417.4
201907240714,1417.4,1417.4,1417.2,1417.2
201907240715,1417.2,1417.2,1417,1417.1
201907240716,1417.1,1417.2,1417.1,1417.2
201907240717,1417.2,1417.2,1416.6,1416.8
201907240718,1416.8,1417.1,1416.7,1417
201907240719,1417,1417,1416.4,1416.4
201907240720,1416.5,1416.8,1416.4,1416.7
201907240721,1416.7,1416.8,1416.6,1416.8
201907240722,1416.8,1417,1416.6,1416.7
201907240723,1416.7,1416.8,1416.3,1416.4
201907240724,1416.4,1416.7,1416.2,1416.6
201907240725,1416.6,1416.6,1416.4,1416.5
201907240726,1416.5,1416.5,1416.3,1416.4
201907240727,1416.4,1416.8,1416.4,1416.7
201907240728,1416.7,1416.7,1416.5,1416.6
201907240729,1416.6,1417,1416.6,1416.9
201907240730,1416.9,1417,1416.7,1416.9
201907240731,1416.9,1417,1416.5,1416.5
201907240732,1416.5,1416.5,1416.3,1416.5
201907240733,1416.5,1416.6,1416.4,1416.6
201907240734,1416.6,1416.7,1416.5,1416.7
201907240735,1416.7,1416.7,1416.3,1416.4
201907240736,1416.4,1416.8,1416.3,1416.8
201907240737,1416.8,1417,1416.7,1416.9
201907240738,1416.9,1417.6,1416.9,1417.3
201907240739,1417.3,1417.6,1417.1,1417.2
201907240740,1417.2,1417.3,1417.2,1417.2
201907240741,1417.2,1417.3,1417.2,1417.2
201907240742,1417.2,1417.2,1416.6,1416.6
201907240743,1416.6,1416.7,1416.6,1416.6
201907240744,1416.6,1416.6,1416.5,1416.5
201907240745,1416.5,1416.9,1416.5,1416.8
201907240746,1416.8,1416.9,1416.8,1416.9
201907240747,1416.9,1416.9,1416.8,1416.8
201907240748,1416.8,1417,1416.7,1417
201907240749,1417,1417,1416.8,1416.9
201907240750,1416.9,1416.9,1416.8,1416.8
201907240751,1416.8,1416.9,1416.8,1416.8
201907240752,1416.8,1416.9,1416.8,1416.8
201907240753,1416.8,1416.9,1416.8,1416.8
201907240754,1416.8,1416.8,1416.7,1416.8
201907240755,1416.8,1416.8,1416.6,1416.6
201907240756,1416.6,1416.9,1416.6,1416.9
201907240757,1416.9,1416.9,1416.7,1416.7
201907240758,1416.7,1416.8,1416.7,1416.8
201907240759,1416.8,1416.9,1416.7,1416.8
201907240800,1416.8,1416.9,1416.7,1416.9
201907240801,1416.9,1416.9,1416.7,1416.9
201907240802,1416.9,1416.9,1416.8,1416.8
201907240803,1416.9,1417.1,1416.9,1416.9
201907240804,1416.9,1417,1416.9,1416.9
201907240805,1416.9,1417.4,1416.9,1417.4
201907240806,1417.4,1417.4,1417.2,1417.2
201907240807,1417.2,1417.2,1417.2,1417.2
201907240808,1417.2,1417.2,1417,1417.1
201907240809,1417.1,1417.2,1417.1,1417.1
201907240810,1417.1,1417.1,1417,1417.1
201907240811,1417.1,1417.1,1417,1417.1
201907240812,1417.1,1417.1,1416.6,1416.6
201907240813,1416.6,1416.7,1416.5,1416.7
201907240814,1416.7,1416.7,1416.7,1416.7
201907240815,1416.7,1416.8,1416.6,1416.8
201907240816,1416.7,1417,1416.7,1417
201907240817,1417,1417,1416.9,1417
201907240818,1417,1417.1,1417,1417.1
201907240819,1417.1,1417.1,1417,1417.1
201907240820,1417.1,1417.2,1417.1,1417.1
201907240821,1417.1,1417.1,1416.6,1416.6
201907240822,1416.6,1416.7,1416.6,1416.7
201907240823,1416.7,1416.8,1416.7,1416.8
201907240824,1416.7,1416.8,1416.7,1416.7
201907240825,1416.7,1416.7,1416.6,1416.7
201907240826,1416.7,1417,1416.7,1416.9
201907240827,1416.9,1416.9,1416.7,1416.7
201907240828,1416.7,1416.7,1416.4,1416.7
201907240829,1416.7,1416.9,1416.6,1416.8
201907240830,1416.8,1416.8,1416.6,1416.7
201907240831,1416.8,1416.8,1416.7,1416.7
201907240832,1416.7,1416.8,1416.7,1416.8
201907240833,1416.8,1416.8,1416.8,1416.8
201907240834,1416.8,1416.9,1416.8,1416.8
201907240835,1416.8,1416.9,1416.7,1416.7
201907240836,1416.7,1416.7,1416.7,1416.7
201907240837,1416.7,1416.7,1416.6,1416.6
201907240838,1416.6,1416.6,1416.4,1416.5
201907240839,1416.5,1416.5,1416.5,1416.5
201907240840,1416.5,1416.7,1416.5,1416.5
201907240841,1416.5,1416.6,1416.5,1416.6
201907240842,1416.6,1416.7,1416.6,1416.6
201907240843,1416.6,1416.7,1416.6,1416.7
201907240844,1416.7,1416.7,1416.6,1416.7
201907240845,1416.7,1416.7,1416.6,1416.7
201907240846,1416.7,1416.7,1416.5,1416.6
201907240847,1416.6,1416.7,1416.5,1416.5
201907240848,1416.5,1416.6,1416.4,1416.4
201907240849,1416.4,1416.5,1416.4,1416.4
201907240850,1416.4,1416.5,1416.4,1416.4
201907240851,1416.5,1416.5,1416.4,1416.4
201907240852,1416.4,1416.6,1416.4,1416.5
201907240853,1416.5,1416.6,1416.5,1416.6
201907240854,1416.6,1416.7,1416.5,1416.7
201907240855,1416.7,1416.8,1416.6,1416.7
201907240856,1416.7,1416.9,1416.6,1416.7
201907240857,1416.7,1416.7,1416.6,1416.7
201907240858,1416.7,1416.8,1416.6,1416.8
201907240859,1416.8,1417,1416.8,1417
201907240900,1417,1417.1,1416.9,1416.9
201907240901,1416.9,1417,1416.8,1416.9
201907240902,1416.9,1416.9,1416.5,1416.5
201907240903,1416.5,1416.7,1416.5,1416.5
201907240904,1416.5,1416.6,1416.4,1416.5
201907240905,1416.4,1416.7,1416.4,1416.7
201907240906,1416.7,1416.7,1416.5,1416.7
201907240907,1416.7,1416.8,1416.6,1416.7
201907240908,1416.7,1416.8,1416.6,1416.6
201907240909,1416.6,1416.7,1416.6,1416.6
201907240910,1416.6,1416.7,1416.5,1416.5
201907240911,1416.5,1416.7,1416.5,1416.7
201907240912,1416.7,1416.7,1416.5,1416.5
201907240913,1416.5,1416.8,1416.5,1416.6
201907240914,1416.6,1416.8,1416.6,1416.7
201907240915,1416.7,1416.9,1416.7,1416.9
201907240916,1416.9,1416.9,1416.6,1416.7
201907240917,1416.8,1416.8,1416.5,1416.6
201907240918,1416.6,1416.7,1416.5,1416.6
201907240919,1416.6,1416.6,1416.5,1416.6
201907240920,1416.6,1416.7,1416.5,1416.7
201907240921,1416.7,1416.9,1416.7,1416.8
201907240922,1416.9,1416.9,1416.8,1416.9
201907240923,1416.9,1416.9,1416.7,1416.8
201907240924,1416.8,1416.9,1416.8,1416.9
201907240925,1416.9,1417.1,1416.9,1416.9
201907240926,1416.9,1417,1416.8,1416.8
201907240927,1416.8,1417.1,1416.8,1417
201907240928,1417,1417,1417,1417
201907240929,1417,1417.4,1417,1417.4
201907240930,1417.4,1417.4,1417.3,1417.3
201907240931,1417.4,1417.6,1417.4,1417.6
201907240932,1417.7,1417.9,1417.6,1417.7
201907240933,1417.8,1417.9,1417.7,1417.8
201907240934,1417.8,1418,1417.5,1417.5
201907240935,1417.5,1417.6,1417.3,1417.5
201907240936,1417.5,1417.5,1417.3,1417.3
201907240937,1417.3,1417.3,1417.2,1417.3
201907240938,1417.3,1417.5,1417.3,1417.5
201907240939,1417.5,1417.7,1417.4,1417.7
201907240940,1417.7,1417.8,1417.6,1417.7
201907240941,1417.7,1417.8,1417.7,1417.8
201907240942,1417.8,1417.9,1417.7,1417.8
201907240943,1417.8,1417.9,1417.8,1417.9
201907240944,1417.9,1418,1417.8,1417.9
201907240945,1417.9,1418.3,1417.9,1418.3
201907240946,1418.3,1418.4,1418.1,1418.1
201907240947,1418.1,1418.2,1418.1,1418.2
201907240948,1418.2,1418.3,1418.2,1418.2
201907240949,1418.2,1418.2,1418,1418
201907240950,1418,1418.5,1417.9,1418.5
201907240951,1418.5,1419.3,1418.4,1419.1
201907240952,1419.1,1419.3,1419,1419
201907240953,1419,1419.3,1419,1419.2
201907240954,1419.2,1419.3,1419.1,1419.1
201907240955,1419.1,1419.4,1419.1,1419.1
201907240956,1419.1,1419.2,1419.1,1419.1
201907240957,1419.1,1419.4,1419,1419.2
201907240958,1419.2,1419.3,1419,1419
201907240959,1419,1419,1418.9,1419
201907241000,1419,1420,1418.9,1419.8
201907241001,1419.8,1420.3,1419.7,1420.3
201907241002,1420.3,1420.4,1419.8,1419.9
201907241003,1419.9,1420.4,1419.9,1420.3
201907241004,1420.3,1420.3,1419.8,1419.9
201907241005,1419.9,1420,1419.8,1420
201907241006,1420,1420.2,1419.9,1420.1
201907241007,1420.1,1420.2,1420.1,1420.1
201907241008,1420.1,1420.2,1419.9,1420
201907241009,1420,1420.1,1419.8,1419.8
201907241010,1419.8,1420,1419.6,1420
201907241011,1420,1420,1419.8,1419.8
201907241012,1419.8,1420.1,1419.8,1420
201907241013,1419.9,1420.4,1419.9,1420.4
201907241014,1420.4,1420.4,1420.1,1420.3
201907241015,1420.3,1420.7,1420.3,1420.7
201907241016,1420.7,1420.7,1420.4,1420.4
201907241017,1420.4,1420.6,1420.2,1420.2
201907241018,1420.2,1420.2,1420.1,1420.1
201907241019,1420.1,1420.1,1419.9,1420
201907241020,1420,1420.1,1419.7,1419.7
201907241021,1419.7,1420.1,1419.7,1419.9
201907241022,1419.9,1420.1,1419.7,1420
201907241023,1420,1420.1,1419.9,1420
201907241024,1420,1420.4,1419.9,1420.4
201907241025,1420.4,1420.4,1420.1,1420.3
201907241026,1420.2,1420.4,1420.1,1420.2
201907241027,1420.2,1420.3,1420.1,1420.2
201907241028,1420.2,1420.2,1420.1,1420.1
201907241029,1420.1,1420.1,1419.9,1420.1
201907241030,1420.1,1420.1,1419.9,1419.9
201907241031,1419.9,1420.2,1419.9,1420.2
201907241032,1420.2,1420.2,1420,1420.1
201907241033,1420.1,1420.1,1420,1420.1
201907241034,1420.1,1420.1,1420,1420.1
201907241035,1420.1,1420.2,1420,1420.1
201907241036,1420.1,1420.5,1420.1,1420.5
201907241037,1420.5,1420.7,1420.5,1420.7
201907241038,1420.7,1420.7,1420.6,1420.6
201907241039,1420.6,1420.6,1420.4,1420.5
201907241040,1420.5,1420.6,1420.5,1420.6
201907241041,1420.6,1420.6,1420.3,1420.3
201907241042,1420.3,1420.4,1420,1420
201907241043,1420,1420.1,1419.8,1419.8
201907241044,1419.8,1419.9,1419.8,1419.8
201907241045,1419.8,1419.8,1419.3,1419.5
201907241046,1419.5,1419.6,1419.5,1419.6
201907241047,1419.6,1419.7,1419.6,1419.7
201907241048,1419.7,1419.7,1419.6,1419.7
201907241049,1419.7,1419.7,1419.4,1419.5
201907241050,1419.5,1419.5,1419.3,1419.3
201907241051,1419.3,1419.6,1419.3,1419.6
201907241052,1419.6,1419.7,1419.6,1419.6
201907241053,1419.6,1419.9,1419.6,1419.8
201907241054,1419.8,1419.9,1419.8,1419.9
201907241055,1419.9,1419.9,1419.8,1419.9
201907241056,1419.9,1420,1419.8,1419.8
201907241057,1419.8,1419.8,1419.7,1419.8
201907241058,1419.8,1419.8,1419.7,1419.8
201907241059,1419.8,1419.8,1419.7,1419.8
201907241100,1419.8,1419.8,1419.7,1419.7
201907241101,1419.7,1419.8,1419.6,1419.6
201907241102,1419.6,1419.7,1419.3,1419.3
201907241103,1419.3,1419.4,1419.3,1419.4
201907241104,1419.4,1419.6,1419.4,1419.6
201907241105,1419.6,1419.6,1419.4,1419.5
201907241106,1419.5,1419.8,1419.5,1419.8
201907241107,1419.8,1419.8,1419.5,1419.6
201907241108,1419.6,1419.8,1419.6,1419.8
201907241109,1419.8,1419.9,1419.7,1419.8
201907241110,1419.8,1419.9,1419.7,1419.9
201907241111,1419.9,1419.9,1419.8,1419.8
201907241112,1419.8,1419.8,1419.7,1419.7
201907241113,1419.7,1419.8,1419.7,1419.8
201907241114,1419.8,1419.9,1419.8,1419.9
201907241115,1419.9,1419.9,1419.9,1419.9
201907241116,1419.9,1419.9,1419.9,1419.9
201907241117,1419.9,1420.1,1419.9,1420.1
201907241118,1420.1,1420.4,1420.1,1420.3
201907241119,1420.3,1420.3,1420.2,1420.3
201907241120,1420.3,1420.4,1420.2,1420.4
201907241121,1420.4,1420.4,1420.3,1420.3
201907241122,1420.3,1420.3,1420.2,1420.3
201907241123,1420.3,1420.3,1420.2,1420.3
201907241124,1420.3,1420.5,1420.3,1420.5
201907241125,1420.5,1420.5,1420.4,1420.4
201907241126,1420.4,1420.5,1420.3,1420.4
201907241127,1420.4,1420.4,1420.3,1420.4
201907241128,1420.4,1420.4,1420.3,1420.4
201907241129,1420.4,1420.4,1420.3,1420.4
201907241130,1420.4,1420.5,1420.2,1420.3
201907241131,1420.3,1420.4,1420.2,1420.2
201907241132,1420.2,1420.3,1420.1,1420.3
201907241133,1420.3,1420.3,1420.1,1420.1
201907241134,1420.1,1420.4,1420.1,1420.3
201907241135,1420.3,1420.3,1420.1,1420.1
201907241136,1420.1,1420.3,1420.1,1420.3
201907241137,1420.3,1420.3,1420.2,1420.2
201907241138,1420.2,1420.2,1420.1,1420.1
201907241139,1420.1,1420.2,1420.1,1420.2
201907241140,1420.2,1420.2,1420.1,1420.2
201907241141,1420.2,1420.3,1420.2,1420.3
201907241142,1420.3,1420.3,1420.2,1420.2
201907241143,1420.2,1420.4,1420.2,1420.4
201907241144,1420.4,1420.4,1420.2,1420.4
201907241145,1420.4,1420.5,1420.4,1420.5
201907241146,1420.5,1420.7,1420.5,1420.6
201907241147,1420.6,1420.7,1420.4,1420.5
201907241148,1420.5,1420.6,1420.5,1420.6
201907241149,1420.6,1421.4,1420.6,1421.1
201907241150,1421.1,1421.3,1421,1421.3
201907241151,1421.3,1421.4,1421.2,1421.3
201907241152,1421.3,1422.2,1421.3,1422.1
201907241153,1422.1,1422.3,1422,1422.2
201907241154,1422.2,1422.2,1421.8,1421.9
201907241155,1421.9,1422,1421.8,1421.8
201907241156,1421.8,1422.1,1421.8,1422
201907241157,1422,1422.1,1421.9,1422
201907241158,1422,1422.1,1421.6,1421.8
201907241159,1421.8,1421.8,1421.5,1421.6
201907241200,1421.6,1421.8,1421.6,1421.8
201907241201,1421.8,1421.8,1421.6,1421.6
201907241202,1421.6,1421.7,1421.4,1421.6
201907241203,1421.6,1421.7,1421.6,1421.7
201907241204,1421.7,1421.8,1421.6,1421.8
201907241205,1421.8,1421.9,1421.6,1421.6
201907241206,1421.6,1421.7,1421.6,1421.7
201907241207,1421.7,1421.7,1421.6,1421.6
201907241208,1421.6,1421.7,1421.6,1421.6
201907241209,1421.6,1421.6,1421.5,1421.5
201907241210,1421.5,1421.5,1421.2,1421.3
201907241211,1421.3,1421.4,1421.1,1421.1
201907241212,1421.1,1421.2,1421.1,1421.1
201907241213,1421.1,1421.3,1421.1,1421.3
201907241214,1421.2,1421.4,1421.2,1421.4
201907241215,1421.4,1421.4,1421.3,1421.3
201907241216,1421.3,1421.3,1421,1421
201907241217,1421,1421,1420.9,1420.9
201907241218,1420.9,1420.9,1420.8,1420.9
201907241219,1420.9,1421,1420.8,1420.9
201907241220,1420.9,1421,1420.8,1420.9
201907241221,1420.9,1421,1420.8,1421
201907241222,1421,1421,1420.9,1421
201907241223,1421,1421,1420.8,1420.8
201907241224,1420.8,1421,1420.8,1420.9
201907241225,1420.9,1421,1420.8,1420.8
201907241226,1420.8,1421,1420.8,1420.9
201907241227,1420.9,1421,1420.8,1420.9
201907241228,1420.9,1421.1,1420.9,1421
201907241229,1421,1421,1420.8,1420.9
201907241230,1420.9,1421,1420.9,1420.9
201907241231,1420.9,1421,1420.9,1420.9
201907241232,1420.9,1420.9,1420.9,1420.9
201907241233,1420.9,1420.9,1420.9,1420.9
201907241234,1420.9,1420.9,1420.8,1420.9
201907241235,1420.9,1420.9,1420.9,1420.9
201907241236,1420.9,1420.9,1420.8,1420.9
201907241237,1420.9,1420.9,1420.9,1420.9
201907241238,1420.9,1420.9,1420.9,1420.9
201907241239,1420.9,1421,1420.9,1421
201907241240,1421,1421,1420.9,1420.9
201907241241,1420.9,1421.1,1420.9,1421.1
201907241242,1421.1,1421.1,1421,1421.1
201907241243,1421,1421,1420.9,1421
201907241244,1421,1421.1,1421,1421.1
201907241245,1421.1,1421.1,1420.9,1420.9
201907241246,1420.9,1420.9,1420.9,1420.9
201907241247,1420.9,1420.9,1420.6,1420.7
201907241248,1420.6,1420.6,1420.3,1420.3
201907241249,1420.3,1420.5,1420.3,1420.5
201907241250,1420.5,1420.5,1420.5,1420.5
201907241251,1420.5,1420.6,1420.5,1420.6
201907241252,1420.6,1420.6,1420.5,1420.6
201907241253,1420.6,1420.6,1420.5,1420.5
201907241254,1420.5,1420.5,1420.3,1420.3
201907241255,1420.3,1420.3,1420.2,1420.3
201907241256,1420.3,1420.3,1420.2,1420.3
201907241257,1420.3,1420.4,1420.2,1420.4
201907241258,1420.4,1420.4,1420.2,1420.4
201907241259,1420.4,1420.5,1420.3,1420.5
201907241300,1420.5,1420.5,1420.4,1420.4
201907241301,1420.4,1420.4,1420.3,1420.3
201907241302,1420.3,1420.4,1420.2,1420.4
201907241303,1420.4,1420.5,1420.4,1420.4
201907241304,1420.4,1420.6,1420.4,1420.6
201907241305,1420.6,1420.7,1420.5,1420.6
201907241306,1420.7,1420.7,1420.6,1420.7
201907241307,1420.7,1420.8,1420.7,1420.8
201907241308,1420.8,1420.9,1420.8,1420.8
201907241309,1420.8,1420.9,1420.8,1420.8
201907241310,1420.8,1420.9,1420.8,1420.9
201907241311,1420.9,1420.9,1420.7,1420.7
201907241312,1420.7,1420.7,1420.6,1420.7
201907241313,1420.7,1420.7,1420.6,1420.6
201907241314,1420.6,1420.6,1420.5,1420.5
201907241315,1420.5,1420.6,1420.5,1420.6
201907241316,1420.6,1420.6,1420.6,1420.6
201907241317,1420.6,1420.6,1420.5,1420.6
201907241318,1420.6,1420.7,1420.6,1420.7
201907241319,1420.7,1420.7,1420.4,1420.5
201907241320,1420.4,1420.4,1420,1420.2
201907241321,1420.2,1420.2,1419.8,1420.1
201907241322,1420.1,1420.3,1420,1420
201907241323,1420.1,1420.3,1420,1420.3
201907241324,1420.3,1420.4,1420.3,1420.4
201907241325,1420.4,1420.4,1420.3,1420.4
201907241326,1420.4,1420.5,1420.4,1420.5
201907241327,1420.5,1420.5,1420.3,1420.4
201907241328,1420.4,1420.6,1420.4,1420.5
201907241329,1420.5,1420.5,1420.4,1420.4
201907241330,1420.4,1420.4,1420.2,1420.2
201907241331,1420.2,1420.3,1420.2,1420.2
201907241332,1420.2,1420.3,1420.1,1420.2
201907241333,1420.2,1420.4,1420.2,1420.4
201907241334,1420.5,1420.5,1420.4,1420.5
201907241335,1420.5,1420.5,1420.4,1420.5
201907241336,1420.5,1420.5,1420.3,1420.3
201907241337,1420.3,1420.4,1420.3,1420.3
201907241338,1420.3,1420.3,1420.1,1420.2
201907241339,1420.2,1420.2,1420.1,1420.1
201907241340,1420.2,1420.2,1420.1,1420.1
201907241341,1420.1,1420.3,1420.1,1420.2
201907241342,1420.2,1420.2,1420.1,1420.1
201907241343,1420.1,1420.1,1420,1420
201907241344,1420,1420.1,1420,1420
201907241345,1420.1,1420.1,1420,1420.1
201907241346,1420,1420.1,1419.8,1420.1
201907241347,1420.1,1420.1,1420,1420
201907241348,1420,1420.1,1420,1420.1
201907241349,1420.1,1420.1,1420,1420
201907241350,1419.9,1419.9,1419.9,1419.9
201907241351,1419.9,1419.9,1419.9,1419.9
201907241352,1419.9,1420,1419.9,1419.9
201907241353,1419.9,1419.9,1419.8,1419.9
201907241354,1419.9,1419.9,1419.8,1419.9
201907241355,1419.9,1420,1419.9,1419.9
201907241356,1419.9,1419.9,1419.9,1419.9
201907241357,1419.9,1419.9,1419.9,1419.9
201907241358,1419.9,1420,1419.9,1420
201907241359,1420,1420,1420,1420
201907241400,1420,1420,1419.9,1419.9
201907241401,1419.9,1419.9,1419.9,1419.9
201907241402,1419.9,1419.9,1419.8,1419.8
201907241403,1419.8,1419.8,1419.8,1419.8
201907241404,1419.8,1419.9,1419.8,1419.8
201907241405,1419.8,1419.9,1419.8,1419.8
201907241406,1419.8,1419.8,1419.7,1419.8
201907241407,1419.8,1419.8,1419.5,1419.6
201907241408,1419.6,1419.6,1419.5,1419.6
201907241409,1419.6,1419.6,1419.4,1419.4
201907241410,1419.4,1419.4,1419.3,1419.3
201907241411,1419.3,1419.3,1419,1419.1
201907241412,1419.1,1419.3,1419.1,1419.3
201907241413,1419.3,1419.3,1419.2,1419.2
201907241414,1419.2,1419.2,1418.8,1418.9
201907241415,1418.9,1419,1418.4,1418.4
201907241416,1418.4,1418.4,1418.2,1418.3
201907241417,1418.3,1418.5,1418.3,1418.4
201907241418,1418.4,1418.7,1418.4,1418.7
201907241419,1418.7,1418.7,1418.5,1418.5
201907241420,1418.5,1418.6,1418.5,1418.6
201907241421,1418.6,1418.8,1418.6,1418.7
201907241422,1418.7,1418.9,1418.7,1418.9
201907241423,1418.9,1418.9,1418.8,1418.9
201907241424,1418.9,1419,1418.9,1419
201907241425,1419,1419,1418.8,1418.8
201907241426,1418.8,1419.1,1418.7,1419.1
201907241427,1419,1419.1,1419,1419
201907241428,1419,1419.1,1419,1419.1
201907241429,1419.1,1419.1,1418.8,1418.9
201907241430,1418.9,1419.1,1418.7,1419
201907241431,1419,1419,1418.7,1418.8
201907241432,1418.8,1419.5,1418.8,1419.5
201907241433,1419.5,1419.5,1419.3,1419.3
201907241434,1419.3,1419.5,1419.3,1419.5
201907241435,1419.5,1419.6,1419.4,1419.5
201907241436,1419.5,1419.5,1419.2,1419.2
201907241437,1419.2,1420,1419,1420
201907241438,1420,1420.4,1420,1420.3
201907241439,1420.3,1420.3,1420,1420.1
201907241440,1420.1,1420.2,1419.6,1420
201907241441,1420,1420.2,1420,1420.1
201907241442,1420.2,1420.4,1420.2,1420.3
201907241443,1420.3,1420.3,1420.2,1420.2
201907241444,1420.1,1420.2,1420,1420.2
201907241445,1420.2,1420.3,1420.1,1420.2
201907241446,1420.2,1420.4,1420.2,1420.3
201907241447,1420.3,1420.6,1420.3,1420.6
201907241448,1420.6,1420.7,1420.5,1420.7
201907241449,1420.7,1420.7,1420.6,1420.6
201907241450,1420.6,1420.7,1420.5,1420.6
201907241451,1420.6,1420.6,1420.4,1420.4
201907241452,1420.4,1420.5,1420.3,1420.4
201907241453,1420.4,1420.6,1420.4,1420.5
201907241454,1420.5,1420.6,1420.4,1420.6
201907241455,1420.6,1420.6,1420.2,1420.2
201907241456,1420.3,1420.4,1420.2,1420.4
201907241457,1420.4,1420.4,1420.3,1420.4
201907241458,1420.4,1420.5,1420.3,1420.3
201907241459,1420.3,1420.7,1420.3,1420.7
201907241500,1420.7,1420.7,1420.6,1420.6
201907241501,1420.6,1420.6,1420.3,1420.3
201907241502,1420.3,1420.3,1419.9,1420.1
201907241503,1420.1,1420.1,1420,1420.1
201907241504,1420.1,1420.1,1420,1420
201907241505,1420,1420,1419.8,1419.8
201907241506,1419.8,1419.9,1419.6,1419.8
201907241507,1419.8,1419.8,1419.7,1419.8
201907241508,1419.8,1420,1419.8,1420
201907241509,1420,1420.3,1419.9,1420.3
201907241510,1420.3,1420.5,1420.3,1420.3
201907241511,1420.3,1420.4,1420.2,1420.3
201907241512,1420.3,1420.4,1420.3,1420.4
201907241513,1420.4,1420.9,1420.4,1420.9
201907241514,1420.9,1421.1,1420.8,1421.1
201907241515,1421.1,1421.1,1420.8,1420.9
201907241516,1420.9,1420.9,1420.5,1420.9
201907241517,1420.9,1421.2,1420.8,1420.8
201907241518,1420.8,1421.2,1420.8,1421
201907241519,1421,1421.1,1420.9,1421
201907241520,1421,1421,1420.6,1420.6
201907241521,1420.6,1420.8,1420.6,1420.6
201907241522,1420.6,1420.8,1420.6,1420.7
201907241523,1420.7,1421.1,1420.7,1421
201907241524,1421,1421.6,1421,1421.3
201907241525,1421.3,1421.3,1420.8,1420.8
201907241526,1420.8,1421,1420.8,1420.8
201907241527,1420.8,1420.9,1420.5,1420.6
201907241528,1420.6,1420.8,1420.5,1420.8
201907241529,1420.8,1420.8,1420.6,1420.7
201907241530,1420.7,1420.8,1420.6,1420.6
201907241531,1420.6,1420.8,1420.5,1420.7
201907241532,1420.7,1421.1,1420.7,1421
201907241533,1421,1421.3,1421,1421.2
201907241534,1421.2,1421.2,1420.9,1421
201907241535,1421,1421,1420.7,1420.8
201907241536,1420.8,1421.2,1420.8,1421.1
201907241537,1421.2,1421.6,1421.1,1421.5
201907241538,1421.5,1421.7,1421.3,1421.5
201907241539,1421.5,1421.5,1420.9,1421
201907241540,1421.1,1421.5,1421,1421.5
201907241541,1421.5,1421.7,1421.3,1421.3
201907241542,1421.3,1421.7,1421.2,1421.6
201907241543,1421.6,1421.9,1421.6,1421.8
201907241544,1421.9,1422,1421.7,1422
201907241545,1422,1422.1,1421.8,1421.8
201907241546,1421.8,1422,1421.8,1422
201907241547,1422,1422.1,1421.9,1422.1
201907241548,1422.1,1422.4,1422.1,1422.2
201907241549,1422.2,1422.5,1422.2,1422.5
201907241550,1422.5,1422.6,1422.3,1422.3
201907241551,1422.3,1422.4,1422,1422
201907241552,1422,1422,1421.8,1422
201907241553,1422,1422.1,1421.8,1422
201907241554,1422,1422.3,1422,1422.2
201907241555,1422.2,1422.4,1422,1422.4
201907241556,1422.4,1422.4,1421.9,1422
201907241557,1422,1422.1,1421.9,1422
201907241558,1422,1422,1421.6,1421.7
201907241559,1421.7,1421.7,1421.6,1421.7
201907241600,1421.7,1421.9,1421.5,1421.7
201907241601,1421.7,1421.9,1421.6,1421.7
201907241602,1421.7,1421.7,1421.4,1421.5
201907241603,1421.5,1421.5,1421.3,1421.4
201907241604,1421.5,1421.5,1421,1421.2
201907241605,1421.2,1421.4,1421.1,1421.3
201907241606,1421.3,1421.3,1420.9,1421
201907241607,1421,1421.1,1420.8,1420.9
201907241608,1420.9,1421.1,1420.8,1420.9
201907241609,1420.8,1421.2,1420.8,1421.2
201907241610,1421.2,1421.4,1421.1,1421.1
201907241611,1421.1,1421.2,1420.7,1420.7
201907241612,1420.7,1421.3,1420.6,1421.3
201907241613,1421.3,1421.3,1420.9,1421.1
201907241614,1421.1,1421.2,1420.9,1421.1
201907241615,1421.1,1421.4,1420.7,1421.1
201907241616,1421.1,1421.1,1420.8,1421
201907241617,1421,1421,1420.8,1421
201907241618,1421,1421.4,1421,1421.3
201907241619,1421.3,1421.9,1421.3,1421.8
201907241620,1421.8,1422.4,1421.8,1422.1
201907241621,1422.1,1422.3,1422,1422.1
201907241622,1422.2,1422.7,1422.2,1422.3
201907241623,1422.3,1422.4,1422.2,1422.3
201907241624,1422.3,1422.6,1422.2,1422.4
201907241625,1422.4,1422.6,1422.4,1422.5
201907241626,1422.5,1422.6,1422.4,1422.5
201907241627,1422.5,1423.4,1422.5,1423.3
201907241628,1423.3,1423.3,1422.9,1422.9
201907241629,1422.9,1423.1,1422.8,1422.9
201907241630,1422.9,1424.1,1422.9,1423.7
201907241631,1423.7,1423.8,1423.1,1423.4
201907241632,1423.4,1423.7,1423.3,1423.5
201907241633,1423.5,1423.5,1423.3,1423.3
201907241634,1423.3,1423.5,1423.2,1423.5
201907241635,1423.5,1423.8,1423.4,1423.7
201907241636,1423.7,1423.8,1423.6,1423.7
201907241637,1423.6,1423.9,1423.6,1423.9
201907241638,1423.9,1424.5,1423.9,1424.2
201907241639,1424.3,1424.3,1423.9,1424.3
201907241640,1424.3,1424.4,1424.1,1424.3
201907241641,1424.3,1424.4,1424,1424.1
201907241642,1424.1,1424.3,1424,1424.1
201907241643,1424.1,1424.1,1423.9,1424
201907241644,1424,1424.2,1424,1424
201907241645,1423.9,1424,1423.7,1423.9
201907241646,1423.9,1424.1,1423.9,1424
201907241647,1424,1424.1,1423.9,1424.1
201907241648,1424.1,1424.3,1424,1424.1
201907241649,1424.1,1424.2,1423.6,1423.7
201907241650,1423.7,1423.7,1423.4,1423.5
201907241651,1423.5,1423.6,1422.7,1422.8
201907241652,1422.7,1422.9,1422.5,1422.5
201907241653,1422.5,1422.9,1422.5,1422.7
201907241654,1422.7,1423.1,1422.6,1423
201907241655,1423,1423.1,1422.5,1422.9
201907241656,1422.9,1423.2,1422.8,1423
201907241657,1423,1423.6,1423,1423.3
201907241658,1423.3,1423.4,1423.3,1423.4
201907241659,1423.4,1423.9,1423.4,1423.5
201907241700,1423.5,1423.7,1423.4,1423.4
201907241701,1423.3,1423.5,1423.2,1423.3
201907241702,1423.4,1423.4,1423.1,1423.1
201907241703,1423.1,1423.4,1423,1423.3
201907241704,1423.3,1423.5,1423.2,1423.5
201907241705,1423.5,1423.7,1423.5,1423.7
201907241706,1423.7,1423.7,1423.5,1423.5
201907241707,1423.5,1423.6,1423.4,1423.4
201907241708,1423.4,1423.5,1423.4,1423.4
201907241709,1423.4,1423.5,1423.4,1423.4
201907241710,1423.4,1423.4,1423.3,1423.3
201907241711,1423.3,1423.4,1423.3,1423.4
201907241712,1423.4,1423.5,1423.2,1423.3
201907241713,1423.3,1423.3,1423.3,1423.3
201907241714,1423.3,1423.4,1423.3,1423.4
201907241715,1423.4,1423.4,1423.2,1423.3
201907241716,1423.3,1423.4,1423.3,1423.3
201907241717,1423.3,1423.4,1423.3,1423.3
201907241718,1423.4,1423.6,1423.4,1423.6
201907241719,1423.6,1423.7,1423.6,1423.7
201907241720,1423.7,1424,1423.7,1423.8
201907241721,1423.8,1423.8,1423.6,1423.8
201907241722,1423.8,1423.8,1423.6,1423.7
201907241723,1423.7,1423.8,1423.7,1423.8
201907241724,1423.8,1423.9,1423.8,1423.8
201907241725,1423.8,1423.8,1423.6,1423.8
201907241726,1423.8,1423.9,1423.7,1423.8
201907241727,1423.8,1423.8,1423.7,1423.8
201907241728,1423.8,1423.9,1423.8,1423.8
201907241729,1423.8,1423.9,1423.8,1423.8
201907241730,1423.8,1424,1423.8,1423.9
201907241731,1423.9,1424,1423.9,1423.9
201907241732,1423.9,1424,1423.9,1423.9
201907241733,1423.9,1423.9,1423.9,1423.9
201907241734,1423.9,1423.9,1423.8,1423.8
201907241735,1423.8,1423.8,1423.8,1423.8
201907241736,1423.8,1423.8,1423.7,1423.8
201907241737,1423.8,1423.9,1423.8,1423.8
201907241738,1423.8,1423.8,1423.8,1423.8
201907241739,1423.8,1423.8,1423.7,1423.8
201907241740,1423.7,1423.7,1423.6,1423.7
201907241741,1423.7,1423.8,1423.7,1423.8
201907241742,1423.8,1423.9,1423.8,1423.9
201907241743,1423.9,1424.1,1423.9,1424.1
201907241744,1424.1,1424.3,1424.1,1424.1
201907241745,1424.1,1424.1,1423.9,1423.9
201907241746,1423.9,1424,1423.8,1423.8
201907241747,1423.8,1423.9,1423.8,1423.9
201907241748,1423.9,1423.9,1423.8,1423.8
201907241749,1423.8,1423.9,1423.8,1423.9
201907241750,1423.9,1423.9,1423.8,1423.9
201907241751,1423.9,1423.9,1423.8,1423.8
201907241752,1423.8,1423.9,1423.8,1423.9
201907241753,1423.9,1424.2,1423.9,1424.1
201907241754,1424.1,1424.4,1424,1424.4
201907241755,1424.4,1425.3,1424.3,1425.2
201907241756,1425.2,1425.9,1425,1425.5
201907241757,1425.5,1425.8,1425.3,1425.3
201907241758,1425.3,1425.3,1425,1425.1
201907241759,1425.1,1425.1,1425,1425.1
201907241800,1425.1,1425.1,1424.8,1424.9
201907241801,1424.9,1424.9,1424.6,1424.6
201907241802,1424.7,1424.8,1424.6,1424.7
201907241803,1424.7,1424.9,1424.6,1424.9
201907241804,1424.9,1424.9,1424.7,1424.7
201907241805,1424.7,1424.9,1424.6,1424.9
201907241806,1424.9,1425.1,1424.9,1425
201907241807,1425,1425.3,1425,1425.1
201907241808,1425.1,1425.1,1424.9,1425
201907241809,1425,1425,1424.9,1424.9
201907241810,1424.9,1425,1424.8,1425
201907241811,1425,1425,1424.8,1424.9
201907241812,1424.9,1425.1,1424.9,1425.1
201907241813,1425.1,1425.4,1425,1425.3
201907241814,1425.3,1425.7,1425.3,1425.7
201907241815,1425.7,1426,1425.6,1425.9
201907241816,1425.9,1426,1425.6,1425.8
201907241817,1425.8,1425.8,1425.6,1425.6
201907241818,1425.6,1425.7,1425.4,1425.4
201907241819,1425.4,1425.4,1425.3,1425.3
201907241820,1425.3,1425.3,1425,1425.2
201907241821,1425.2,1425.5,1425.2,1425.5
201907241822,1425.5,1425.7,1425.5,1425.7
201907241823,1425.7,1425.8,1425.7,1425.7
201907241824,1425.7,1425.9,1425.6,1425.6
201907241825,1425.7,1425.8,1425.6,1425.8
201907241826,1425.8,1425.9,1425.7,1425.9
201907241827,1425.9,1426.1,1425.8,1425.8
201907241828,1425.8,1425.8,1425.4,1425.4
201907241829,1425.5,1425.7,1425.4,1425.6
201907241830,1425.6,1425.7,1425.4,1425.5
201907241831,1425.5,1425.6,1425.3,1425.4
201907241832,1425.4,1425.5,1425.3,1425.5
201907241833,1425.5,1425.5,1425.4,1425.4
201907241834,1425.4,1425.4,1425.3,1425.3
201907241835,1425.3,1425.5,1425.2,1425.2
201907241836,1425.2,1425.4,1425.2,1425.3
201907241837,1425.3,1425.4,1425.3,1425.4
201907241838,1425.4,1425.4,1425.2,1425.3
201907241839,1425.3,1425.4,1425.3,1425.4
201907241840,1425.4,1425.6,1425.4,1425.5
201907241841,1425.5,1425.6,1425.5,1425.5
201907241842,1425.5,1425.7,1425.5,1425.7
201907241843,1425.7,1425.7,1425.6,1425.6
201907241844,1425.6,1426.4,1425.6,1426.3
201907241845,1426.3,1426.3,1425.8,1426
201907241846,1426,1426.3,1426,1426.2
201907241847,1426.2,1426.2,1426.1,1426.2
201907241848,1426.2,1426.2,1425.9,1426
201907241849,1426,1426.6,1426,1426.5
201907241850,1426.5,1426.6,1426.4,1426.4
201907241851,1426.4,1426.7,1426.4,1426.5
201907241852,1426.5,1426.5,1426.4,1426.4
201907241853,1426.4,1426.4,1426.2,1426.4
201907241854,1426.4,1426.4,1426,1426.1
201907241855,1426.1,1426.4,1426.1,1426.3
201907241856,1426.3,1426.4,1426.3,1426.4
201907241857,1426.4,1426.4,1426.3,1426.4
201907241858,1426.4,1426.5,1426.3,1426.3
201907241859,1426.3,1426.4,1426.3,1426.4
201907241900,1426.4,1426.4,1426.3,1426.4
201907241901,1426.4,1426.5,1426.3,1426.4
201907241902,1426.4,1426.5,1426.3,1426.3
201907241903,1426.3,1426.4,1426.3,1426.3
201907241904,1426.3,1426.3,1426.2,1426.3
201907241905,1426.3,1426.3,1425.8,1426.1
201907241906,1426.1,1426.3,1426.1,1426.2
201907241907,1426.2,1426.3,1426.1,1426.2
201907241908,1426.2,1426.2,1426.2,1426.2
201907241909,1426.2,1426.2,1425.9,1425.9
201907241910,1425.9,1426,1425.7,1425.8
201907241911,1425.8,1426,1425.7,1426
201907241912,1426,1426,1425.8,1425.8
201907241913,1425.8,1426,1425.8,1426
201907241914,1426,1426.1,1425.9,1425.9
201907241915,1425.9,1425.9,1425.7,1425.7
201907241916,1425.6,1425.6,1424.9,1425.1
201907241917,1425,1425.7,1425,1425.6
201907241918,1425.6,1425.7,1425.5,1425.6
201907241919,1425.6,1425.6,1425.3,1425.4
201907241920,1425.5,1425.5,1425.4,1425.4
201907241921,1425.4,1425.5,1425.4,1425.4
201907241922,1425.4,1425.5,1425.1,1425.1
201907241923,1425.1,1425.1,1425,1425.1
201907241924,1425.1,1425.1,1424.9,1425
201907241925,1425,1425.3,1425,1425.2
201907241926,1425.2,1425.3,1425.2,1425.2
201907241927,1425.2,1425.2,1425,1425
201907241928,1425,1425.1,1425,1425.1
201907241929,1425.1,1425.1,1425,1425.1
201907241930,1425.1,1425.2,1425.1,1425.2
201907241931,1425.2,1425.3,1425.1,1425.2
201907241932,1425.2,1425.3,1425.2,1425.2
201907241933,1425.2,1425.2,1425.2,1425.2
201907241934,1425.2,1425.7,1425.2,1425.7
201907241935,1425.7,1425.8,1425.6,1425.6
201907241936,1425.7,1425.8,1425.7,1425.7
201907241937,1425.7,1425.8,1425.7,1425.8
201907241938,1425.8,1425.8,1425.7,1425.8
201907241939,1425.8,1425.9,1425.8,1425.9
201907241940,1425.9,1426,1425.9,1425.9
201907241941,1425.9,1425.9,1425.6,1425.6
201907241942,1425.6,1425.7,1425.4,1425.4
201907241943,1425.4,1425.4,1425.2,1425.2
201907241944,1425.2,1425.5,1425.2,1425.5
201907241945,1425.5,1425.8,1425.5,1425.8
201907241946,1425.8,1426,1425.7,1426
201907241947,1426,1426.2,1425.9,1425.9
201907241948,1425.9,1425.9,1425.6,1425.6
201907241949,1425.6,1426.1,1425.6,1426.1
201907241950,1426.1,1426.3,1426,1426.2
201907241951,1426.2,1426.2,1426.1,1426.2
201907241952,1426.2,1426.2,1426.1,1426.1
201907241953,1426.1,1426.3,1426.1,1426.2
201907241954,1426.2,1426.4,1426.1,1426.4
201907241955,1426.4,1426.6,1426.3,1426.3
201907241956,1426.4,1426.5,1426.2,1426.5
201907241957,1426.5,1426.6,1426.4,1426.6
201907241958,1426.5,1426.5,1426.4,1426.4
201907241959,1426.4,1426.4,1426.1,1426.3
201907242000,1426.3,1426.3,1425.8,1425.8
201907242001,1425.8,1425.9,1425.8,1425.9
201907242002,1425.9,1426,1425.7,1426
201907242003,1426,1426.2,1426,1426
201907242004,1426.1,1426.5,1426,1426.5
201907242005,1426.5,1426.6,1426.4,1426.4
201907242006,1426.4,1426.4,1426.1,1426.2
201907242007,1426.2,1426.3,1426,1426.2
201907242008,1426.2,1426.3,1426,1426.1
201907242009,1426.1,1426.3,1426.1,1426.3
201907242010,1426.3,1426.4,1426.2,1426.2
201907242011,1426.2,1426.3,1426,1426
201907242012,1426,1426,1425.9,1426
201907242013,1426,1426,1425.5,1425.5
201907242014,1425.5,1425.5,1425.4,1425.5
201907242015,1425.5,1425.5,1425.1,1425.2
201907242016,1425.2,1425.3,1425.1,1425.2
201907242017,1425.2,1425.4,1425,1425.3
201907242018,1425.3,1425.3,1425.1,1425.1
201907242019,1425.1,1425.5,1425,1425.5
201907242020,1425.5,1425.7,1425.5,1425.6
201907242021,1425.6,1425.7,1425.5,1425.6
201907242022,1425.6,1425.8,1425.6,1425.6
201907242023,1425.6,1425.8,1425.6,1425.6
201907242024,1425.6,1425.7,1425.6,1425.7
201907242025,1425.7,1425.7,1425.6,1425.6
201907242026,1425.6,1425.9,1425.5,1425.9
201907242027,1425.9,1426,1425.8,1425.9
201907242028,1425.9,1426,1425.7,1425.7
201907242029,1425.7,1426.1,1425.7,1425.9
201907242030,1425.9,1426.2,1425.9,1426.1
201907242031,1426.1,1426.2,1426,1426
201907242032,1426,1426.2,1426,1426
201907242033,1426,1426.1,1426,1426
201907242034,1426,1426.3,1426,1426.3
201907242035,1426.3,1426.4,1426.1,1426.4
201907242036,1426.4,1426.4,1426.3,1426.4
201907242037,1426.4,1426.4,1426.2,1426.2
201907242038,1426.2,1426.5,1426.2,1426.4
201907242039,1426.4,1426.6,1426.3,1426.3
201907242040,1426.3,1426.3,1426,1426.1
201907242041,1426.1,1426.2,1426,1426.1
201907242042,1426.1,1426.3,1426.1,1426.3
201907242043,1426.3,1426.5,1426.3,1426.5
201907242044,1426.4,1427.1,1426.4,1427
201907242045,1427,1427.1,1426.9,1427
201907242046,1427,1427.6,1426.7,1426.7
201907242047,1426.7,1427,1426.7,1426.7
201907242048,1426.7,1427.1,1426.7,1426.9
201907242049,1426.9,1427,1426.8,1426.9
201907242050,1426.9,1427,1426.7,1426.7
201907242051,1426.7,1426.8,1426.5,1426.5
201907242052,1426.5,1426.7,1426.3,1426.7
201907242053,1426.7,1426.7,1426.2,1426.4
201907242054,1426.4,1426.5,1426.3,1426.5
201907242055,1426.5,1426.5,1426.4,1426.4
201907242056,1426.4,1426.5,1426.1,1426.1
201907242057,1426.1,1426.1,1426,1426.1
201907242058,1426,1426.1,1425.8,1426
201907242059,1426,1426,1425.6,1425.8
201907242100,1425.8,1426,1425.5,1425.7
201907242101,1425.7,1425.9,1425.6,1425.6
201907242102,1425.6,1425.8,1425.5,1425.7
201907242103,1425.6,1425.8,1425.4,1425.8
201907242104,1425.7,1425.9,1425.7,1425.7
201907242105,1425.7,1425.7,1425.6,1425.7
201907242106,1425.7,1426.6,1425.7,1426.5
201907242107,1426.5,1426.5,1426.3,1426.3
201907242108,1426.3,1426.6,1426.3,1426.5
201907242109,1426.6,1426.8,1426.5,1426.6
201907242110,1426.6,1427,1426.6,1426.8
201907242111,1426.8,1426.9,1426.7,1426.7
201907242112,1426.7,1426.8,1426.3,1426.5
201907242113,1426.5,1426.6,1426.3,1426.3
201907242114,1426.3,1426.4,1426.2,1426.4
201907242115,1426.4,1426.9,1426.4,1426.8
201907242116,1426.8,1426.9,1426.8,1426.9
201907242117,1426.9,1427.1,1426.9,1427.1
201907242118,1427.1,1427.2,1427,1427.1
201907242119,1427.1,1427.5,1427,1427.5
201907242120,1427.5,1428.5,1427.5,1427.8
201907242121,1427.8,1428,1427.5,1427.6
201907242122,1427.6,1427.6,1427.1,1427.2
201907242123,1427.2,1427.3,1426.6,1426.7
201907242124,1426.7,1427.1,1426.7,1426.9
201907242125,1426.9,1426.9,1426.5,1426.5
201907242126,1426.5,1426.6,1426.2,1426.2
201907242127,1426.2,1426.2,1426,1426.1
201907242128,1426.1,1426.7,1426,1426.5
201907242129,1426.4,1426.7,1426.1,1426.1
201907242130,1426.1,1426.4,1426.1,1426.3
201907242131,1426.3,1426.3,1426.1,1426.3
201907242132,1426.3,1426.3,1426.1,1426.2
201907242133,1426.2,1426.4,1426.2,1426.2
201907242134,1426.2,1426.3,1425.5,1425.5
201907242135,1425.5,1425.7,1425.1,1425.1
201907242136,1425.1,1425.1,1424.6,1424.7
201907242137,1424.7,1425.2,1424.7,1425.1
201907242138,1425.1,1425.3,1425.1,1425.2
201907242139,1425.2,1425.2,1424.7,1425.1
201907242140,1425.1,1425.3,1424.9,1425
201907242141,1425,1425.2,1424.9,1425
201907242142,1425,1425.2,1425,1425.2
201907242143,1425.2,1425.6,1425.1,1425.5
201907242144,1425.5,1425.8,1425.5,1425.7
201907242145,1425.7,1426.4,1425.7,1426.4
201907242146,1426.4,1426.7,1426.3,1426.3
201907242147,1426.3,1426.4,1425.8,1425.8
201907242148,1425.8,1426.1,1425.8,1426
201907242149,1426,1426.3,1425.9,1426.3
201907242150,1426.3,1426.3,1425.9,1426.1
201907242151,1426.1,1426.2,1426,1426
201907242152,1426,1426.3,1425.8,1425.8
201907242153,1425.8,1425.8,1425.3,1425.3
201907242154,1425.3,1425.6,1425.3,1425.5
201907242155,1425.5,1425.6,1425.3,1425.3
201907242156,1425.3,1425.4,1425.2,1425.2
201907242157,1425.2,1425.3,1424.9,1425.1
201907242158,1425.1,1425.3,1424.7,1424.7
201907242159,1424.7,1424.9,1424.6,1424.8
201907242200,1424.8,1425.4,1424.6,1425.2
201907242201,1425.2,1425.6,1425.2,1425.5
201907242202,1425.5,1425.5,1424.3,1424.6
201907242203,1424.6,1425,1424.5,1424.5
201907242204,1424.5,1425.2,1424.5,1425.2
201907242205,1425.1,1425.3,1424.9,1425.2
201907242206,1425.2,1425.5,1425.1,1425.5
201907242207,1425.5,1425.8,1425.3,1425.8
201907242208,1425.8,1426.1,1425.7,1425.7
201907242209,1425.7,1426.3,1425.7,1426.1
201907242210,1426.1,1426.7,1426.1,1426.5
201907242211,1426.6,1426.7,1426.1,1426.2
201907242212,1426.2,1426.6,1426.1,1426.1
201907242213,1426.1,1426.7,1426.1,1426.6
201907242214,1426.6,1426.9,1426.4,1426.6
201907242215,1426.6,1426.6,1425.6,1426
201907242216,1426,1426.3,1425.8,1426.2
201907242217,1426.2,1426.6,1426.2,1426.6
201907242218,1426.6,1427.3,1426.5,1427.1
201907242219,1427.1,1427.4,1427,1427.3
201907242220,1427.3,1428,1427.3,1427.5
201907242221,1427.5,1427.6,1427,1427
201907242222,1427.1,1427.2,1426.8,1427.2
201907242223,1427.2,1427.4,1427,1427
201907242224,1427,1427.2,1426.9,1427.1
201907242225,1427.1,1427.5,1427,1427.3
201907242226,1427.3,1427.5,1427.2,1427.5
201907242227,1427.5,1427.5,1427.1,1427.1
201907242228,1427.1,1427.3,1427,1427.2
201907242229,1427.2,1427.3,1426.8,1426.8
201907242230,1426.8,1427.1,1426.3,1426.3
201907242231,1426.3,1426.4,1426,1426.2
201907242232,1426.2,1426.4,1426,1426.1
201907242233,1426,1426.3,1425.8,1425.9
201907242234,1425.9,1426.5,1425.9,1426.3
201907242235,1426.2,1426.2,1425.6,1425.8
201907242236,1425.8,1426.4,1425.8,1426
201907242237,1426,1426.2,1425.8,1426
201907242238,1426,1426.5,1425.8,1426.5
201907242239,1426.4,1427,1426.4,1426.7
201907242240,1426.7,1427.2,1426.4,1427.1
201907242241,1427.1,1427.1,1426.3,1426.4
201907242242,1426.3,1426.8,1426.2,1426.8
201907242243,1426.8,1427.1,1426.6,1426.8
201907242244,1426.8,1426.9,1426.4,1426.8
201907242245,1426.8,1429.3,1426.8,1427.4
201907242246,1427.5,1427.8,1427.3,1427.6
201907242247,1427.6,1428.3,1427.4,1428.2
201907242248,1428.2,1428.3,1427.5,1427.5
201907242249,1427.5,1427.8,1427.5,1427.7
201907242250,1427.7,1427.7,1427,1427.2
201907242251,1427.2,1427.5,1427.2,1427.4
201907242252,1427.4,1427.5,1427,1427
201907242253,1427,1427.4,1426.9,1427.4
201907242254,1427.4,1427.6,1427.2,1427.4
201907242255,1427.4,1427.4,1427,1427.2
201907242256,1427.2,1427.9,1427.2,1427.6
201907242257,1427.6,1427.8,1427.6,1427.6
201907242258,1427.6,1427.9,1427.5,1427.9
201907242259,1427.9,1428.2,1427,1427
201907242300,1427,1427.4,1426.5,1426.8
201907242301,1426.7,1426.9,1426.4,1426.8
201907242302,1426.8,1426.9,1426.7,1426.9
201907242303,1426.9,1426.9,1426.6,1426.9
201907242304,1426.9,1427.1,1426.8,1427
201907242305,1427,1428.2,1427,1428.2
201907242306,1428.2,1429.3,1427.8,1427.8
201907242307,1427.8,1428.1,1427.8,1427.8
201907242308,1427.8,1428,1427.5,1427.5
201907242309,1427.5,1427.7,1427.3,1427.5
201907242310,1427.5,1427.5,1426.6,1427.1
201907242311,1427.1,1427.4,1426.7,1427
201907242312,1427,1427.7,1426.7,1427.6
201907242313,1427.6,1427.6,1427.2,1427.5
201907242314,1427.5,1427.5,1426.8,1426.9
201907242315,1426.9,1427,1426.7,1426.7
201907242316,1426.8,1426.9,1426.6,1426.8
201907242317,1426.8,1426.9,1425.8,1425.8
201907242318,1425.7,1426.3,1425.3,1425.8
201907242319,1425.8,1426,1425.6,1425.9
201907242320,1425.8,1426.4,1425.8,1426.3
201907242321,1426.3,1426.4,1426,1426
201907242322,1426,1426.3,1425.6,1425.8
201907242323,1425.8,1425.9,1425.6,1425.9
201907242324,1425.9,1426,1425.6,1425.6
201907242325,1425.6,1425.9,1425.3,1425.7
201907242326,1425.6,1426,1425.6,1425.7
201907242327,1425.8,1426.1,1425.7,1426
201907242328,1426,1426.1,1425.9,1426
201907242329,1426,1426,1425.1,1425.5
201907242330,1425.5,1425.8,1424.9,1424.9
201907242331,1424.9,1425,1424.6,1424.8
201907242332,1424.8,1425.5,1424.6,1425.1
201907242333,1425.1,1425.2,1424.9,1425.2
201907242334,1425.2,1425.2,1424.9,1425
201907242335,1425,1425.1,1424.7,1424.7
201907242336,1424.8,1424.8,1423.7,1423.8
201907242337,1423.9,1424.2,1423.1,1423.9
201907242338,1423.9,1424.3,1423.6,1423.9
201907242339,1423.9,1424,1423.7,1423.9
201907242340,1423.9,1424.1,1423.6,1424
201907242341,1424,1424.1,1423.7,1423.8
201907242342,1423.8,1424.4,1423.8,1424.2
201907242343,1424.2,1424.5,1424.1,1424.4
201907242344,1424.4,1424.5,1424.2,1424.3
201907242345,1424.3,1424.4,1424,1424
201907242346,1424,1424,1423.7,1423.8
201907242347,1423.8,1424,1423.5,1423.7
201907242348,1423.7,1423.7,1423.3,1423.6
201907242349,1423.5,1423.8,1423.4,1423.5
201907242350,1423.5,1423.8,1423.1,1423.1
201907242351,1423.1,1423.3,1422.3,1423.2
201907242352,1423.2,1423.5,1422.9,1423
201907242353,1423,1423.3,1422.9,1423.2
201907242354,1423.2,1423.3,1423,1423.3
201907242355,1423.3,1423.3,1423,1423.2
201907242356,1423.2,1423.3,1422.9,1423.3
201907242357,1423.3,1423.3,1423,1423
201907242358,1423,1423.7,1423,1423.6
201907242359,1423.6,1423.8,1423.5,1423.7
201907250000,1423.7,1424.1,1423.5,1423.9
201907250001,1423.9,1424.4,1423.9,1424.3
201907250002,1424.2,1424.7,1424.2,1424.6
201907250003,1424.6,1424.6,1424.2,1424.3
201907250004,1424.3,1424.4,1423.8,1424
201907250005,1424,1424.1,1423.5,1423.8
201907250006,1423.8,1424,1423.7,1423.8
201907250007,1423.8,1423.8,1423.4,1423.6
201907250008,1423.7,1423.8,1423.2,1423.3
201907250009,1423.3,1423.6,1423.2,1423.5
201907250010,1423.5,1423.6,1423,1423.2
201907250011,1423.2,1423.3,1423,1423.1
201907250012,1423.2,1423.2,1422.8,1422.9
201907250013,1422.8,1423,1422.7,1423
201907250014,1423,1423.7,1423,1423.7
201907250015,1423.7,1423.7,1423.5,1423.7
201907250016,1423.7,1423.9,1423.4,1423.5
201907250017,1423.6,1424,1423.6,1423.8
201907250018,1423.8,1424,1423.7,1423.8
201907250019,1423.8,1424.2,1423.8,1424.2
201907250020,1424.2,1424.5,1424.2,1424.4
201907250021,1424.4,1424.5,1424.3,1424.5
201907250022,1424.5,1424.5,1424.2,1424.2
201907250023,1424.2,1424.3,1424.1,1424.2
201907250024,1424.2,1424.2,1423.8,1423.9
201907250025,1423.9,1424,1423.6,1423.9
201907250026,1423.9,1423.9,1423.7,1423.7
201907250027,1423.7,1423.9,1423.6,1423.8
201907250028,1423.8,1423.8,1423.4,1423.6
201907250029,1423.6,1423.6,1423.2,1423.3
201907250030,1423.3,1423.3,1422.9,1422.9
201907250031,1422.9,1422.9,1422.6,1422.7
201907250032,1422.7,1422.9,1422.5,1422.5
201907250033,1422.4,1422.9,1422.4,1422.8
201907250034,1422.8,1423.2,1422.8,1423.2
201907250035,1423.2,1423.4,1423.1,1423.2
201907250036,1423.2,1423.4,1423.1,1423.3
201907250037,1423.3,1423.3,1422.8,1422.8
201907250038,1422.8,1422.8,1422.4,1422.8
201907250039,1422.8,1422.9,1422.4,1422.4
201907250040,1422.4,1422.9,1422.3,1422.6
201907250041,1422.6,1422.6,1422.3,1422.3
201907250042,1422.3,1422.4,1422,1422.2
201907250043,1422.2,1422.4,1422.1,1422.2
201907250044,1422.2,1422.3,1421.9,1422.1
201907250045,1422.1,1422.1,1421.8,1421.9
201907250046,1421.9,1422.3,1421.9,1422.2
201907250047,1422.2,1422.2,1422,1422.2
201907250048,1422.2,1422.5,1422.1,1422.4
201907250049,1422.4,1422.6,1422.3,1422.5
201907250050,1422.5,1422.6,1422.1,1422.1
201907250051,1422.1,1422.2,1421.7,1421.8
201907250052,1421.8,1421.8,1421.3,1421.6
201907250053,1421.6,1422,1421.6,1422
201907250054,1422,1422,1421.9,1422
201907250055,1422,1422.1,1421.7,1421.7
201907250056,1421.7,1422,1421.7,1421.9
201907250057,1421.9,1422,1421.9,1422
201907250058,1422,1422.3,1421.7,1422.2
201907250059,1422.2,1422.4,1422.1,1422.2
201907250100,1422.2,1422.3,1422,1422
201907250101,1422,1422,1421.5,1421.6
201907250102,1421.6,1421.7,1420.8,1421
201907250103,1421,1421.4,1420.9,1421.4
201907250104,1421.4,1421.4,1421.1,1421.2
201907250105,1421.2,1421.6,1421.2,1421.6
201907250106,1421.6,1421.7,1421.6,1421.7
201907250107,1421.7,1422,1421.7,1421.9
201907250108,1422,1422,1421.9,1422
201907250109,1422,1422,1421.8,1422
201907250110,1422,1422.2,1422,1422.1
201907250111,1422.1,1422.3,1422.1,1422.3
201907250112,1422.3,1422.4,1422,1422.1
201907250113,1422.1,1422.5,1422.1,1422.5
201907250114,1422.5,1422.5,1422,1422
201907250115,1422,1422.2,1421.9,1422.2
201907250116,1422.2,1422.5,1422.2,1422.3
201907250117,1422.3,1422.4,1422.1,1422.2
201907250118,1422.2,1422.3,1421.9,1422
201907250119,1422,1422.3,1422,1422.3
201907250120,1422.2,1422.4,1422.2,1422.3
201907250121,1422.3,1422.8,1422.3,1422.8
201907250122,1422.8,1422.8,1422.5,1422.7
201907250123,1422.7,1422.7,1422.3,1422.4
201907250124,1422.4,1422.4,1421.8,1422.1
201907250125,1422.1,1422.2,1421.7,1422
201907250126,1422,1422.2,1422,1422.1
201907250127,1422.1,1422.3,1422,1422.2
201907250128,1422.2,1422.7,1422.2,1422.6
201907250129,1422.7,1422.7,1422.6,1422.7
201907250130,1422.7,1422.9,1422.6,1422.8
201907250131,1422.8,1423,1422.8,1422.9
201907250132,1422.9,1423,1422.8,1422.9
201907250133,1422.9,1423.1,1422.9,1423.1
201907250134,1423.1,1423.1,1422.9,1423
201907250135,1423,1423,1422.6,1422.7
201907250136,1422.7,1422.8,1422.7,1422.7
201907250137,1422.7,1423,1422.7,1423
201907250138,1423,1423,1422.8,1422.9
201907250139,1422.9,1422.9,1422.8,1422.9
201907250140,1422.8,1422.8,1422.7,1422.8
201907250141,1422.8,1422.8,1422.5,1422.6
201907250142,1422.6,1422.8,1422.5,1422.6
201907250143,1422.6,1422.7,1422.5,1422.6
201907250144,1422.6,1422.8,1422.3,1422.4
201907250145,1422.4,1422.4,1422.1,1422.2
201907250146,1422.2,1422.4,1422.2,1422.3
201907250147,1422.3,1422.4,1422.2,1422.4
201907250148,1422.4,1422.4,1422.1,1422.4
201907250149,1422.4,1422.6,1422.2,1422.5
201907250150,1422.5,1422.6,1422.4,1422.6
201907250151,1422.6,1422.6,1422.4,1422.5
201907250152,1422.5,1422.7,1422.5,1422.6
201907250153,1422.6,1422.6,1422.2,1422.2
201907250154,1422.2,1422.3,1422,1422
201907250155,1422,1422.3,1422,1422.3
201907250156,1422.3,1422.4,1422.3,1422.3
201907250157,1422.3,1422.5,1422.3,1422.4
201907250158,1422.4,1422.6,1422.2,1422.2
201907250159,1422.2,1422.4,1422.2,1422.3
201907250200,1422.3,1422.4,1422.3,1422.4
201907250201,1422.4,1422.4,1422.2,1422.3
201907250202,1422.3,1422.3,1421,1421.2
201907250203,1421.2,1421.2,1420.7,1421.1
201907250204,1421,1421.4,1420.8,1421
201907250205,1421,1421.4,1421,1421.2
201907250206,1421.2,1421.2,1420.4,1420.5
201907250207,1420.5,1421,1420.4,1420.9
201907250208,1420.9,1421.4,1420.8,1421.3
201907250209,1421.3,1421.4,1421.1,1421.2
201907250210,1421.2,1421.2,1420.9,1421.1
201907250211,1421.1,1421.1,1420.7,1420.7
201907250212,1420.7,1421.1,1420.5,1421
201907250213,1421,1421.2,1420.9,1421.2
201907250214,1421.2,1421.2,1421,1421.2
201907250215,1421.2,1421.6,1421.1,1421.6
201907250216,1421.6,1421.6,1421.2,1421.5
201907250217,1421.5,1421.6,1421.2,1421.5
201907250218,1421.5,1422.1,1421.5,1422.1
201907250219,1422.1,1422.5,1422,1422.4
201907250220,1422.4,1422.5,1422.2,1422.4
201907250221,1422.4,1422.5,1422.2,1422.5
201907250222,1422.5,1422.9,1422.4,1422.7
201907250223,1422.7,1422.9,1422.7,1422.9
201907250224,1422.9,1423.3,1422.9,1422.9
201907250225,1422.9,1423.1,1422.6,1423
201907250226,1423,1423.2,1422.9,1423
201907250227,1423,1423.1,1422.7,1422.9
201907250228,1422.9,1423,1422.8,1422.9
201907250229,1422.8,1423.2,1422.8,1423.1
201907250230,1423.1,1423.1,1422.6,1422.9
201907250231,1422.9,1423.2,1422.9,1422.9
201907250232,1422.9,1423.1,1422.9,1423.1
201907250233,1423.1,1423.1,1422.9,1422.9
201907250234,1422.9,1423,1422.8,1422.8
201907250235,1422.8,1423.1,1422.8,1423.1
201907250236,1423.1,1423.3,1423.1,1423.2
201907250237,1423.3,1423.4,1423.1,1423.2
201907250238,1423.2,1423.5,1423.1,1423.3
201907250239,1423.3,1423.3,1423.2,1423.2
201907250240,1423.1,1423.3,1423.1,1423.2
201907250241,1423.2,1423.4,1423.2,1423.4
201907250242,1423.4,1423.4,1423.4,1423.4
201907250243,1423.4,1423.4,1423.3,1423.4
201907250244,1423.4,1423.5,1423.3,1423.4
201907250245,1423.4,1423.5,1423.4,1423.5
201907250246,1423.5,1424.3,1423.5,1424.2
201907250247,1424.2,1424.4,1424.1,1424.3
201907250248,1424.3,1424.4,1424,1424
201907250249,1424,1424,1423.8,1423.9
201907250250,1423.9,1423.9,1423.8,1423.8
201907250251,1423.8,1423.9,1423.7,1423.8
201907250252,1423.8,1423.9,1423.7,1423.9
201907250253,1423.8,1423.9,1423.8,1423.9
201907250254,1423.9,1423.9,1423.7,1423.7
201907250255,1423.7,1423.7,1423.5,1423.6
201907250256,1423.6,1423.8,1423.5,1423.5
201907250257,1423.5,1423.6,1423.3,1423.3
201907250258,1423.3,1423.3,1422.9,1422.9
201907250259,1422.9,1423.2,1422.9,1423
201907250300,1423,1423.4,1423,1423.3
201907250301,1423.3,1423.4,1423.3,1423.3
201907250302,1423.3,1423.3,1423,1423
201907250303,1423,1423,1422.8,1422.9
201907250304,1422.9,1423,1422.7,1422.9
201907250305,1422.9,1423.1,1422.9,1423.1
201907250306,1423.1,1423.1,1423,1423
201907250307,1423,1423.1,1423,1423
201907250308,1423,1423.1,1422.9,1422.9
201907250309,1422.9,1423.2,1422.9,1423.1
201907250310,1423.1,1423.1,1422.1,1422.1
201907250311,1422.1,1422.3,1421.7,1421.7
201907250312,1421.7,1421.8,1421.5,1421.6
201907250313,1421.6,1421.6,1421.4,1421.4
201907250314,1421.4,1421.6,1421.3,1421.4
201907250315,1421.4,1421.7,1421.4,1421.6
201907250316,1421.6,1422.2,1421.6,1422.2
201907250317,1422.2,1422.4,1422.1,1422.3
201907250318,1422.3,1422.4,1422.2,1422.3
201907250319,1422.2,1422.3,1422,1422.1
201907250320,1422.1,1422.1,1422,1422
201907250321,1422,1422.5,1422,1422.3
201907250322,1422.3,1422.5,1422.3,1422.5
201907250323,1422.5,1422.7,1422.5,1422.7
201907250324,1422.7,1422.7,1422.5,1422.6
201907250325,1422.6,1422.6,1422.3,1422.3
201907250326,1422.3,1422.4,1422.2,1422.3
201907250327,1422.3,1422.4,1422.3,1422.4
201907250328,1422.4,1422.5,1422.3,1422.5
201907250329,1422.5,1422.8,1422.5,1422.6
201907250330,1422.6,1422.7,1422.5,1422.7
201907250331,1422.7,1422.9,1422.7,1422.9
201907250332,1422.9,1422.9,1422.8,1422.9
201907250333,1422.9,1423.1,1422.9,1423
201907250334,1423,1423.2,1423,1423.1
201907250335,1423.1,1423.4,1423.1,1423.3
201907250336,1423.3,1423.3,1423.2,1423.3
201907250337,1423.3,1423.5,1423.3,1423.5
201907250338,1423.5,1423.5,1423.3,1423.4
201907250339,1423.4,1423.5,1423.3,1423.4
201907250340,1423.4,1423.5,1423.3,1423.5
201907250341,1423.5,1423.6,1423.4,1423.6
201907250342,1423.6,1423.7,1423.5,1423.5
201907250343,1423.5,1423.6,1423.4,1423.6
201907250344,1423.6,1423.6,1423.6,1423.6
201907250345,1423.6,1423.6,1423.4,1423.5
201907250346,1423.5,1423.5,1423.3,1423.3
201907250347,1423.3,1423.4,1423.3,1423.3
201907250348,1423.3,1423.5,1423.3,1423.5
201907250349,1423.5,1423.5,1423.4,1423.4
201907250350,1423.4,1423.4,1423.4,1423.4
201907250351,1423.4,1423.5,1423.4,1423.4
201907250352,1423.4,1423.4,1423.3,1423.4
201907250353,1423.4,1423.5,1423.4,1423.4
201907250354,1423.4,1423.5,1423.4,1423.4
201907250355,1423.4,1423.4,1423,1423
201907250356,1423,1423,1422.8,1422.9
201907250357,1422.9,1423,1422.9,1423
201907250358,1423,1423.1,1422.9,1422.9
201907250359,1422.9,1423.2,1422.9,1423.1
201907250400,1423.1,1423.2,1423.1,1423.2
201907250401,1423.1,1423.4,1423,1423.3
201907250402,1423.2,1423.3,1423.2,1423.2
201907250403,1423.2,1423.6,1423.2,1423.5
201907250404,1423.5,1423.6,1423.4,1423.4
201907250405,1423.4,1423.7,1423.4,1423.7
201907250406,1423.7,1423.8,1423.7,1423.7
201907250407,1423.7,1424.1,1423.7,1424.1
201907250408,1424,1424.4,1424,1424.2
201907250409,1424.2,1424.3,1424.1,1424.1
201907250410,1424.1,1424.1,1424,1424
201907250411,1424,1424.1,1423.9,1424
201907250412,1424,1424,1423.9,1423.9
201907250413,1423.9,1423.9,1423.5,1423.7
201907250414,1423.7,1423.7,1423.5,1423.5
201907250415,1423.5,1423.9,1423.5,1423.8
201907250416,1423.8,1423.9,1423.6,1423.9
201907250417,1423.9,1424,1423.9,1424
201907250418,1424,1424,1423.8,1423.9
201907250419,1423.9,1424.1,1423.9,1424.1
201907250420,1424.1,1424.1,1423.8,1423.9
201907250421,1423.9,1424.2,1423.9,1424.1
201907250422,1424.1,1424.3,1424,1424.1
201907250423,1424.1,1424.2,1424,1424.2
201907250424,1424.2,1424.2,1424.1,1424.1
201907250425,1424.1,1424.3,1424.1,1424.2
201907250426,1424.2,1424.2,1424.1,1424.1
201907250427,1424.1,1424.2,1424.1,1424.1
201907250428,1424.3,1424.3,1424.2,1424.2
201907250429,1424.2,1424.2,1424.1,1424.1
201907250430,1424.1,1424.1,1424,1424
201907250431,1424,1424.2,1424,1424.1
201907250432,1424.1,1424.2,1424,1424.2
201907250433,1424.2,1424.2,1424.1,1424.1
201907250434,1424.1,1424.2,1424,1424.2
201907250435,1424.2,1424.2,1424,1424
201907250436,1424,1424.2,1423.9,1424.1
201907250437,1424.1,1424.1,1423.7,1423.7
201907250438,1423.7,1423.7,1423.6,1423.7
201907250439,1423.7,1423.7,1423.6,1423.7
201907250440,1423.7,1423.7,1423.5,1423.6
201907250441,1423.6,1423.6,1423.4,1423.4
201907250442,1423.4,1423.6,1423.4,1423.6
201907250443,1423.6,1423.7,1423.6,1423.7
201907250444,1423.7,1423.9,1423.7,1423.8
201907250445,1423.8,1423.9,1423.6,1423.8
201907250446,1423.8,1424,1423.8,1423.9
201907250447,1423.9,1424,1423.9,1424
201907250448,1424,1424,1423.8,1423.9
201907250449,1423.9,1424.1,1423.9,1424
201907250450,1424,1424.1,1423.9,1423.9
201907250451,1424,1424.1,1423.9,1424.1
201907250452,1424.1,1424.1,1423.9,1423.9
201907250453,1424,1424,1423.8,1423.8
201907250454,1423.8,1423.9,1423.7,1423.9
201907250455,1423.9,1424.1,1423.8,1424
201907250456,1424,1424.1,1424,1424
201907250457,1424,1424.1,1423.9,1423.9
201907250458,1423.9,1424.1,1423.9,1424.1
201907250459,1424.1,1424.3,1424.1,1424.3
201907250500,1424.4,1424.5,1424.3,1424.5
201907250501,1424.5,1425.3,1424.4,1425.3
201907250502,1425.3,1425.3,1425.2,1425.2
201907250503,1425.2,1425.2,1425.2,1425.2
201907250504,1425.2,1425.7,1425.2,1425.7
201907250505,1425.7,1425.7,1424.9,1425.2
201907250506,1425.2,1425.3,1425.1,1425.3
201907250507,1425.3,1425.3,1425.1,1425.1
201907250508,1425.1,1425.2,1425,1425.1
201907250509,1425.1,1425.1,1425,1425
201907250510,1425,1425.1,1425,1425.1
201907250511,1425.1,1425.6,1425.1,1425.5
201907250512,1425.5,1425.6,1425.5,1425.5
201907250513,1425.5,1425.6,1425.3,1425.4
201907250514,1425.4,1425.4,1425.3,1425.4
201907250515,1425.4,1425.7,1425.4,1425.7
201907250516,1425.7,1425.7,1425.5,1425.5
201907250517,1425.5,1425.5,1425.2,1425.3
201907250518,1425.3,1425.4,1425.2,1425.4
201907250519,1425.4,1425.6,1425.4,1425.6
201907250520,1425.6,1425.6,1425.3,1425.4
201907250521,1425.4,1425.4,1425.2,1425.2
201907250522,1425.2,1425.2,1425,1425.2
201907250523,1425.2,1425.2,1425.1,1425.2
201907250524,1425.2,1425.2,1424.9,1424.9
201907250525,1424.9,1425.1,1424.9,1425
201907250526,1425,1425,1425,1425
201907250527,1425,1425.1,1425,1425.1
201907250528,1425.1,1425.2,1425.1,1425.1
201907250529,1425.1,1425.1,1425,1425.1
201907250530,1425.1,1425.3,1425.1,1425.2
201907250531,1425.2,1425.3,1425.1,1425.3
201907250532,1425.3,1425.3,1425.2,1425.3
201907250533,1425.4,1425.4,1425.3,1425.4
201907250534,1425.4,1425.4,1425.2,1425.2
201907250535,1425.2,1425.2,1424.8,1424.8
201907250536,1424.8,1424.8,1424.5,1424.7
201907250537,1424.7,1424.9,1424.7,1424.8
201907250538,1424.8,1424.9,1424.5,1424.8
201907250539,1424.8,1424.8,1424.6,1424.7
201907250540,1424.7,1424.9,1424.7,1424.8
201907250541,1424.9,1425,1424.9,1424.9
201907250542,1424.9,1425,1424.8,1425
201907250543,1425,1425.1,1424.9,1424.9
201907250544,1424.9,1425,1424.9,1425
201907250545,1424.9,1425.1,1424.9,1425
201907250546,1425,1425.1,1424.9,1425.1
201907250547,1425.1,1425.1,1425.1,1425.1
201907250548,1425.1,1425.3,1425.1,1425.1
201907250549,1425.1,1425.2,1425.1,1425.2
201907250550,1425.2,1425.4,1425.2,1425.2
201907250551,1425.2,1425.2,1425.1,1425.2
201907250552,1425.2,1425.2,1425.1,1425.1
201907250553,1425.1,1425.1,1425,1425
201907250554,1425,1425.1,1425,1425
201907250555,1425,1425,1425,1425
201907250556,1425,1425,1425,1425
201907250557,1425,1425.1,1424.9,1425.1
201907250558,1425.1,1425.4,1425,1425.4
201907250559,1425.4,1425.7,1425.2,1425.5
