日時,始値(BID),高値(BID),安値(BID),終値(BID)
201911070800,27451,27451,27435,27439
201911070801,27439,27440,27436,27438
201911070802,27438,27438,27435,27436
201911070803,27436,27436,27434,27434
201911070804,27434,27435,27432,27432
201911070805,27432,27435,27432,27435
201911070806,27435,27435,27434,27434
201911070807,27434,27434,27430,27432
201911070808,27431,27436,27431,27434
201911070809,27434,27437,27434,27436
201911070810,27435,27435,27430,27430
201911070811,27430,27430,27428,27430
201911070812,27430,27432,27429,27430
201911070813,27430,27430,27428,27428
201911070814,27428,27429,27428,27429
201911070815,27429,27432,27429,27432
201911070816,27432,27433,27432,27433
201911070817,27433,27433,27432,27432
201911070818,27432,27432,27432,27432
201911070819,27432,27432,27432,27432
201911070820,27432,27432,27429,27430
201911070821,27430,27430,27429,27429
201911070822,27429,27430,27429,27430
201911070823,27430,27430,27429,27430
201911070824,27430,27431,27430,27431
201911070825,27431,27431,27429,27429
201911070826,27429,27429,27429,27429
201911070827,27429,27429,27428,27429
201911070828,27429,27429,27427,27427
201911070829,27427,27429,27427,27427
201911070830,27427,27428,27426,27427
201911070831,27427,27428,27427,27428
201911070832,27429,27429,27427,27427
201911070833,27427,27427,27426,27426
201911070834,27426,27427,27426,27426
201911070835,27426,27429,27426,27429
201911070836,27429,27429,27426,27426
201911070837,27426,27426,27426,27426
201911070838,27426,27426,27425,27425
201911070839,27425,27427,27425,27425
201911070840,27424,27427,27424,27427
201911070841,27427,27427,27426,27426
201911070842,27426,27427,27426,27426
201911070843,27426,27427,27425,27425
201911070844,27425,27425,27424,27424
201911070845,27424,27425,27423,27424
201911070846,27424,27428,27424,27428
201911070847,27428,27431,27428,27431
201911070848,27432,27434,27432,27434
201911070849,27434,27434,27429,27430
201911070850,27431,27431,27427,27429
201911070851,27428,27428,27427,27428
201911070852,27428,27428,27420,27420
201911070853,27420,27420,27418,27419
201911070854,27419,27420,27417,27420
201911070855,27420,27420,27417,27417
201911070856,27417,27418,27414,27414
201911070857,27414,27414,27414,27414
201911070858,27414,27420,27414,27419
201911070859,27418,27418,27417,27418
201911070900,27417,27420,27417,27418
201911070901,27418,27419,27416,27417
201911070902,27417,27420,27414,27415
201911070903,27416,27418,27415,27416
201911070904,27416,27418,27416,27418
201911070905,27418,27420,27417,27419
201911070906,27419,27420,27419,27419
201911070907,27419,27422,27418,27422
201911070908,27422,27423,27421,27422
201911070909,27422,27423,27421,27421
201911070910,27421,27423,27420,27423
201911070911,27422,27422,27419,27419
201911070912,27419,27423,27419,27421
201911070913,27421,27423,27420,27421
201911070914,27421,27421,27420,27420
201911070915,27420,27421,27419,27419
201911070916,27419,27419,27416,27418
201911070917,27418,27421,27417,27419
201911070918,27419,27423,27419,27422
201911070919,27423,27425,27423,27424
201911070920,27424,27425,27423,27425
201911070921,27425,27426,27424,27425
201911070922,27425,27427,27424,27427
201911070923,27427,27428,27427,27427
201911070924,27427,27427,27421,27426
201911070925,27426,27427,27415,27415
201911070926,27415,27415,27407,27408
201911070927,27408,27422,27408,27417
201911070928,27417,27421,27415,27420
201911070929,27421,27424,27418,27421
201911070930,27421,27432,27421,27432
201911070931,27432,27432,27427,27429
201911070932,27429,27430,27427,27428
201911070933,27428,27431,27426,27431
201911070934,27431,27434,27428,27432
201911070935,27432,27433,27431,27433
201911070936,27433,27433,27427,27427
201911070937,27427,27431,27427,27431
201911070938,27430,27432,27430,27430
201911070939,27430,27432,27430,27432
201911070940,27432,27433,27431,27433
201911070941,27432,27433,27431,27431
201911070942,27431,27433,27431,27432
201911070943,27432,27432,27426,27428
201911070944,27428,27428,27427,27427
201911070945,27427,27429,27418,27418
201911070946,27418,27424,27418,27424
201911070947,27424,27427,27424,27425
201911070948,27425,27427,27425,27427
201911070949,27428,27428,27426,27427
201911070950,27427,27427,27425,27425
201911070951,27425,27426,27424,27424
201911070952,27424,27430,27424,27426
201911070953,27426,27429,27426,27428
201911070954,27428,27431,27428,27431
201911070955,27430,27430,27429,27429
201911070956,27429,27430,27424,27424
201911070957,27424,27426,27422,27423
201911070958,27423,27424,27422,27423
201911070959,27423,27424,27421,27422
201911071000,27422,27425,27422,27424
201911071001,27424,27426,27424,27425
201911071002,27425,27426,27420,27422
201911071003,27422,27422,27418,27418
201911071004,27418,27422,27418,27421
201911071005,27421,27422,27419,27419
201911071006,27419,27419,27416,27416
201911071007,27416,27420,27416,27419
201911071008,27419,27420,27418,27419
201911071009,27419,27419,27418,27419
201911071010,27419,27419,27416,27417
201911071011,27417,27418,27417,27418
201911071012,27417,27418,27416,27416
201911071013,27416,27420,27416,27420
201911071014,27420,27420,27417,27418
201911071015,27418,27418,27414,27417
201911071016,27417,27420,27417,27420
201911071017,27419,27423,27419,27423
201911071018,27423,27424,27421,27421
201911071019,27421,27422,27417,27418
201911071020,27418,27420,27416,27417
201911071021,27417,27417,27415,27416
201911071022,27416,27416,27414,27414
201911071023,27414,27414,27412,27413
201911071024,27413,27414,27411,27413
201911071025,27413,27416,27412,27415
201911071026,27415,27415,27412,27412
201911071027,27412,27416,27412,27415
201911071028,27415,27416,27414,27415
201911071029,27415,27416,27414,27414
201911071030,27415,27417,27414,27417
201911071031,27417,27425,27417,27422
201911071032,27422,27424,27419,27420
201911071033,27420,27422,27418,27421
201911071034,27421,27426,27420,27420
201911071035,27420,27421,27418,27418
201911071036,27419,27422,27418,27418
201911071037,27418,27421,27418,27420
201911071038,27420,27421,27417,27419
201911071039,27420,27421,27419,27419
201911071040,27419,27423,27419,27421
201911071041,27421,27422,27418,27420
201911071042,27419,27419,27415,27416
201911071043,27416,27416,27412,27415
201911071044,27415,27416,27412,27413
201911071045,27413,27413,27411,27412
201911071046,27412,27412,27409,27411
201911071047,27411,27412,27410,27412
201911071048,27412,27412,27405,27406
201911071049,27406,27406,27399,27400
201911071050,27400,27401,27399,27400
201911071051,27400,27402,27397,27397
201911071052,27397,27397,27393,27394
201911071053,27394,27396,27390,27394
201911071054,27394,27395,27389,27390
201911071055,27391,27393,27390,27392
201911071056,27391,27393,27390,27393
201911071057,27394,27395,27393,27394
201911071058,27394,27395,27394,27395
201911071059,27395,27395,27394,27394
201911071100,27394,27394,27392,27393
201911071101,27393,27395,27392,27394
201911071102,27395,27395,27392,27392
201911071103,27392,27394,27392,27393
201911071104,27393,27395,27393,27395
201911071105,27395,27395,27392,27395
201911071106,27396,27396,27394,27396
201911071107,27396,27396,27394,27395
201911071108,27395,27397,27395,27396
201911071109,27396,27398,27396,27397
201911071110,27396,27401,27396,27399
201911071111,27399,27402,27399,27400
201911071112,27400,27401,27399,27400
201911071113,27400,27401,27399,27401
201911071114,27400,27401,27399,27401
201911071115,27401,27403,27400,27402
201911071116,27402,27403,27400,27403
201911071117,27402,27404,27402,27402
201911071118,27403,27407,27402,27403
201911071119,27403,27405,27401,27405
201911071120,27405,27408,27405,27406
201911071121,27406,27407,27405,27406
201911071122,27406,27409,27406,27409
201911071123,27409,27410,27407,27409
201911071124,27409,27410,27408,27408
201911071125,27408,27408,27405,27406
201911071126,27406,27407,27406,27406
201911071127,27406,27408,27406,27407
201911071128,27408,27408,27406,27406
201911071129,27406,27410,27406,27410
201911071130,27410,27412,27409,27411
201911071131,27411,27412,27410,27412
201911071132,27413,27413,27412,27412
201911071133,27411,27412,27409,27411
201911071134,27411,27414,27411,27413
201911071135,27412,27413,27410,27411
201911071136,27411,27412,27410,27410
201911071137,27410,27411,27407,27407
201911071138,27407,27409,27405,27409
201911071139,27409,27410,27408,27409
201911071140,27409,27410,27408,27409
201911071141,27409,27410,27408,27409
201911071142,27408,27410,27408,27408
201911071143,27408,27408,27406,27407
201911071144,27407,27408,27407,27407
201911071145,27407,27409,27403,27403
201911071146,27403,27405,27403,27404
201911071147,27405,27405,27403,27404
201911071148,27403,27403,27400,27402
201911071149,27402,27402,27400,27402
201911071150,27402,27403,27402,27403
201911071151,27403,27403,27401,27403
201911071152,27402,27403,27399,27399
201911071153,27399,27400,27398,27399
201911071154,27399,27400,27398,27399
201911071155,27399,27400,27399,27399
201911071156,27399,27400,27398,27398
201911071157,27398,27398,27397,27397
201911071158,27397,27399,27397,27399
201911071159,27399,27400,27399,27400
201911071200,27400,27400,27397,27398
201911071201,27398,27400,27397,27398
201911071202,27398,27399,27398,27399
201911071203,27398,27399,27395,27395
201911071204,27396,27396,27395,27396
201911071205,27396,27399,27395,27399
201911071206,27398,27400,27398,27399
201911071207,27399,27399,27398,27398
201911071208,27398,27399,27398,27398
201911071209,27397,27397,27392,27393
201911071210,27393,27395,27392,27395
201911071211,27395,27397,27395,27396
201911071212,27396,27399,27396,27399
201911071213,27399,27400,27398,27398
201911071214,27399,27401,27399,27400
201911071215,27400,27401,27398,27399
201911071216,27399,27399,27397,27397
201911071217,27398,27399,27396,27397
201911071218,27396,27397,27396,27397
201911071219,27397,27398,27392,27393
201911071220,27392,27395,27392,27395
201911071221,27395,27395,27392,27394
201911071222,27394,27395,27393,27395
201911071223,27394,27396,27394,27396
201911071224,27396,27397,27395,27397
201911071225,27398,27398,27398,27398
201911071226,27398,27398,27396,27397
201911071227,27397,27397,27395,27395
201911071228,27396,27396,27394,27395
201911071229,27395,27396,27394,27396
201911071230,27396,27397,27394,27396
201911071231,27396,27398,27396,27398
201911071232,27399,27399,27398,27399
201911071233,27399,27401,27399,27401
201911071234,27402,27402,27401,27402
201911071235,27402,27402,27401,27402
201911071236,27402,27402,27400,27400
201911071237,27400,27402,27400,27402
201911071238,27402,27402,27401,27401
201911071239,27401,27402,27401,27402
201911071240,27402,27402,27401,27401
201911071241,27401,27402,27401,27401
201911071242,27401,27402,27401,27401
201911071243,27401,27402,27401,27402
201911071244,27402,27402,27401,27402
201911071245,27402,27402,27402,27402
201911071246,27402,27405,27402,27404
201911071247,27404,27405,27403,27405
201911071248,27405,27406,27404,27405
201911071249,27405,27406,27405,27405
201911071250,27405,27406,27405,27405
201911071251,27406,27406,27406,27406
201911071252,27406,27408,27406,27407
201911071253,27407,27407,27405,27406
201911071254,27406,27406,27405,27405
201911071255,27405,27407,27405,27406
201911071256,27406,27406,27405,27405
201911071257,27405,27406,27404,27405
201911071258,27405,27406,27404,27405
201911071259,27404,27404,27403,27404
201911071300,27404,27404,27403,27403
201911071301,27403,27404,27403,27404
201911071302,27404,27404,27402,27402
201911071303,27402,27403,27402,27403
201911071304,27403,27404,27403,27404
201911071305,27404,27404,27402,27404
201911071306,27404,27404,27403,27404
201911071307,27404,27405,27404,27404
201911071308,27404,27405,27404,27405
201911071309,27405,27406,27405,27405
201911071310,27405,27408,27405,27406
201911071311,27407,27407,27405,27406
201911071312,27406,27408,27406,27408
201911071313,27408,27409,27407,27409
201911071314,27409,27409,27409,27409
201911071315,27409,27410,27409,27410
201911071316,27409,27409,27408,27409
201911071317,27409,27409,27408,27409
201911071318,27409,27410,27408,27408
201911071319,27409,27409,27407,27408
201911071320,27407,27409,27407,27408
201911071321,27408,27409,27408,27408
201911071322,27408,27409,27408,27409
201911071323,27409,27409,27409,27409
201911071324,27409,27410,27409,27410
201911071325,27410,27411,27410,27410
201911071326,27410,27411,27410,27410
201911071327,27410,27410,27410,27410
201911071328,27410,27410,27410,27410
201911071329,27410,27410,27408,27409
201911071330,27410,27411,27410,27410
201911071331,27410,27410,27409,27409
201911071332,27409,27409,27409,27409
201911071333,27409,27409,27408,27409
201911071334,27409,27410,27409,27410
201911071335,27410,27410,27409,27410
201911071336,27410,27411,27410,27411
201911071337,27411,27411,27410,27411
201911071338,27411,27411,27410,27411
201911071339,27411,27411,27410,27411
201911071340,27411,27411,27410,27410
201911071341,27410,27411,27410,27411
201911071342,27411,27411,27408,27410
201911071343,27410,27410,27408,27408
201911071344,27408,27409,27408,27408
201911071345,27408,27409,27408,27409
201911071346,27409,27412,27408,27411
201911071347,27411,27411,27410,27411
201911071348,27411,27411,27411,27411
201911071349,27411,27411,27410,27410
201911071350,27410,27410,27408,27409
201911071351,27410,27410,27409,27410
201911071352,27409,27410,27409,27410
201911071353,27410,27411,27410,27411
201911071354,27411,27411,27410,27411
201911071355,27411,27411,27410,27410
201911071356,27410,27410,27408,27409
201911071357,27409,27410,27409,27410
201911071358,27411,27411,27410,27410
201911071359,27410,27412,27410,27411
201911071400,27411,27412,27410,27411
201911071401,27411,27412,27411,27411
201911071402,27411,27411,27410,27410
201911071403,27410,27411,27409,27411
201911071404,27411,27414,27411,27412
201911071405,27412,27412,27411,27412
201911071406,27412,27412,27411,27411
201911071407,27411,27411,27410,27411
201911071408,27411,27412,27410,27412
201911071409,27412,27412,27410,27410
201911071410,27410,27410,27408,27408
201911071411,27407,27408,27407,27407
201911071412,27407,27408,27407,27407
201911071413,27407,27407,27406,27406
201911071414,27406,27406,27405,27406
201911071415,27406,27406,27403,27403
201911071416,27403,27404,27403,27404
201911071417,27404,27408,27404,27408
201911071418,27408,27408,27407,27407
201911071419,27407,27408,27407,27407
201911071420,27407,27408,27407,27408
201911071421,27408,27409,27407,27409
201911071422,27409,27409,27408,27408
201911071423,27408,27408,27407,27408
201911071424,27408,27408,27406,27406
201911071425,27406,27408,27406,27407
201911071426,27408,27408,27407,27407
201911071427,27407,27408,27407,27408
201911071428,27408,27408,27405,27407
201911071429,27407,27407,27405,27406
201911071430,27407,27407,27406,27407
201911071431,27408,27408,27406,27406
201911071432,27407,27407,27405,27406
201911071433,27406,27406,27405,27405
201911071434,27405,27406,27404,27406
201911071435,27406,27407,27405,27407
201911071436,27408,27408,27407,27408
201911071437,27408,27409,27407,27408
201911071438,27408,27409,27408,27409
201911071439,27409,27410,27408,27408
201911071440,27408,27409,27408,27408
201911071441,27408,27409,27408,27409
201911071442,27409,27410,27408,27410
201911071443,27411,27411,27410,27411
201911071444,27411,27411,27405,27405
201911071445,27405,27406,27403,27403
201911071446,27403,27404,27403,27403
201911071447,27403,27406,27403,27406
201911071448,27406,27409,27405,27409
201911071449,27409,27409,27408,27408
201911071450,27408,27413,27408,27412
201911071451,27412,27413,27411,27411
201911071452,27411,27412,27411,27412
201911071453,27412,27417,27412,27416
201911071454,27416,27417,27414,27417
201911071455,27417,27417,27415,27415
201911071456,27415,27416,27414,27416
201911071457,27415,27416,27414,27415
201911071458,27415,27417,27415,27416
201911071459,27417,27418,27415,27417
201911071500,27417,27422,27417,27417
201911071501,27417,27420,27417,27420
201911071502,27420,27420,27417,27418
201911071503,27418,27420,27418,27420
201911071504,27420,27422,27420,27422
201911071505,27422,27427,27421,27426
201911071506,27426,27432,27426,27428
201911071507,27427,27428,27426,27428
201911071508,27428,27432,27428,27431
201911071509,27430,27432,27430,27431
201911071510,27431,27432,27429,27432
201911071511,27432,27432,27429,27430
201911071512,27430,27430,27429,27429
201911071513,27429,27430,27428,27429
201911071514,27429,27430,27427,27427
201911071515,27427,27430,27426,27430
201911071516,27429,27434,27429,27434
201911071517,27434,27434,27432,27433
201911071518,27433,27433,27430,27432
201911071519,27431,27432,27430,27432
201911071520,27432,27433,27432,27433
201911071521,27433,27433,27429,27429
201911071522,27429,27429,27428,27429
201911071523,27429,27430,27428,27429
201911071524,27429,27430,27429,27430
201911071525,27430,27430,27427,27428
201911071526,27428,27429,27427,27429
201911071527,27429,27429,27427,27428
201911071528,27427,27429,27427,27429
201911071529,27429,27429,27426,27426
201911071530,27426,27426,27425,27425
201911071531,27425,27426,27423,27423
201911071532,27423,27423,27421,27422
201911071533,27422,27422,27421,27422
201911071534,27423,27423,27422,27422
201911071535,27422,27422,27421,27422
201911071536,27421,27422,27420,27421
201911071537,27421,27422,27421,27421
201911071538,27421,27421,27420,27420
201911071539,27420,27422,27420,27422
201911071540,27422,27422,27421,27421
201911071541,27421,27423,27421,27421
201911071542,27421,27423,27421,27422
201911071543,27422,27423,27421,27422
201911071544,27422,27424,27422,27424
201911071545,27424,27424,27423,27424
201911071546,27424,27424,27423,27423
201911071547,27423,27424,27423,27424
201911071548,27424,27424,27424,27424
201911071549,27424,27424,27423,27423
201911071550,27423,27424,27422,27423
201911071551,27424,27424,27422,27423
201911071552,27423,27424,27422,27424
201911071553,27424,27424,27422,27422
201911071554,27422,27426,27422,27425
201911071555,27425,27426,27425,27426
201911071556,27426,27427,27426,27427
201911071557,27427,27427,27424,27424
201911071558,27424,27424,27423,27423
201911071559,27423,27427,27423,27426
201911071600,27426,27431,27423,27430
201911071601,27429,27430,27425,27425
201911071602,27425,27426,27421,27422
201911071603,27422,27427,27421,27426
201911071604,27426,27427,27426,27426
201911071605,27427,27428,27426,27428
201911071606,27428,27430,27428,27430
201911071607,27430,27430,27426,27426
201911071608,27426,27427,27425,27427
201911071609,27427,27436,27426,27433
201911071610,27433,27435,27432,27435
201911071611,27435,27436,27429,27429
201911071612,27429,27432,27429,27432
201911071613,27432,27433,27432,27433
201911071614,27433,27433,27432,27432
201911071615,27432,27432,27429,27430
201911071616,27430,27431,27428,27429
201911071617,27429,27430,27429,27429
201911071618,27429,27430,27428,27430
201911071619,27430,27470,27430,27464
201911071620,27464,27478,27463,27478
201911071621,27479,27494,27479,27485
201911071622,27485,27497,27482,27492
201911071623,27491,27501,27488,27493
201911071624,27493,27504,27487,27504
201911071625,27504,27513,27497,27509
201911071626,27509,27520,27502,27506
201911071627,27506,27536,27504,27531
201911071628,27531,27542,27529,27538
201911071629,27539,27564,27538,27558
201911071630,27558,27575,27553,27553
201911071631,27553,27576,27553,27576
201911071632,27576,27596,27572,27585
201911071633,27585,27591,27576,27577
201911071634,27577,27591,27577,27586
201911071635,27586,27589,27579,27585
201911071636,27585,27595,27578,27589
201911071637,27589,27592,27582,27587
201911071638,27587,27591,27582,27582
201911071639,27583,27593,27581,27586
201911071640,27585,27588,27579,27579
201911071641,27579,27586,27577,27579
201911071642,27579,27584,27577,27582
201911071643,27582,27586,27579,27580
201911071644,27580,27585,27576,27580
201911071645,27580,27581,27562,27563
201911071646,27562,27564,27546,27546
201911071647,27546,27567,27546,27566
201911071648,27566,27569,27560,27565
201911071649,27565,27566,27560,27560
201911071650,27560,27561,27553,27555
201911071651,27555,27557,27550,27552
201911071652,27552,27552,27545,27549
201911071653,27549,27549,27540,27541
201911071654,27540,27546,27537,27544
201911071655,27544,27552,27544,27552
201911071656,27552,27554,27550,27552
201911071657,27552,27559,27552,27557
201911071658,27557,27559,27555,27556
201911071659,27556,27558,27550,27553
201911071700,27551,27561,27547,27559
201911071701,27560,27567,27560,27567
201911071702,27568,27568,27560,27567
201911071703,27568,27571,27565,27567
201911071704,27567,27576,27567,27576
201911071705,27576,27576,27568,27572
201911071706,27572,27572,27564,27568
201911071707,27568,27572,27567,27569
201911071708,27569,27572,27561,27562
201911071709,27562,27563,27556,27558
201911071710,27557,27561,27557,27559
201911071711,27559,27564,27559,27559
201911071712,27559,27563,27556,27556
201911071713,27556,27558,27552,27555
201911071714,27555,27561,27551,27561
201911071715,27560,27565,27558,27560
201911071716,27559,27564,27559,27561
201911071717,27560,27562,27560,27561
201911071718,27561,27562,27558,27561
201911071719,27562,27562,27559,27560
201911071720,27560,27560,27556,27557
201911071721,27556,27556,27550,27553
201911071722,27553,27555,27550,27551
201911071723,27551,27551,27543,27545
201911071724,27545,27547,27543,27545
201911071725,27545,27547,27541,27542
201911071726,27542,27549,27542,27548
201911071727,27548,27552,27548,27548
201911071728,27549,27553,27549,27553
201911071729,27553,27555,27553,27553
201911071730,27554,27558,27554,27555
201911071731,27555,27567,27555,27567
201911071732,27567,27576,27566,27576
201911071733,27576,27580,27575,27579
201911071734,27579,27579,27571,27571
201911071735,27571,27573,27570,27572
201911071736,27571,27571,27565,27566
201911071737,27567,27567,27559,27560
201911071738,27561,27562,27559,27560
201911071739,27560,27560,27557,27558
201911071740,27558,27570,27558,27568
201911071741,27568,27573,27565,27567
201911071742,27567,27568,27565,27565
201911071743,27565,27567,27561,27562
201911071744,27561,27562,27557,27561
201911071745,27561,27565,27561,27565
201911071746,27564,27566,27563,27564
201911071747,27564,27568,27563,27564
201911071748,27564,27566,27561,27566
201911071749,27566,27567,27563,27566
201911071750,27566,27567,27563,27563
201911071751,27563,27564,27561,27562
201911071752,27562,27564,27561,27564
201911071753,27564,27568,27562,27565
201911071754,27565,27566,27564,27566
201911071755,27566,27566,27561,27566
201911071756,27566,27568,27564,27566
201911071757,27565,27569,27565,27569
201911071758,27569,27573,27568,27572
201911071759,27572,27572,27568,27571
201911071800,27571,27577,27571,27576
201911071801,27577,27580,27576,27579
201911071802,27578,27578,27572,27574
201911071803,27574,27575,27572,27573
201911071804,27573,27576,27571,27571
201911071805,27572,27577,27571,27576
201911071806,27576,27576,27569,27570
201911071807,27570,27574,27569,27572
201911071808,27573,27574,27571,27572
201911071809,27572,27573,27569,27570
201911071810,27570,27571,27564,27569
201911071811,27568,27573,27567,27572
201911071812,27572,27577,27572,27577
201911071813,27577,27584,27576,27580
201911071814,27580,27580,27576,27578
201911071815,27578,27580,27576,27577
201911071816,27577,27580,27576,27579
201911071817,27580,27581,27578,27580
201911071818,27580,27582,27580,27580
201911071819,27580,27581,27578,27580
201911071820,27580,27585,27580,27585
201911071821,27585,27585,27581,27584
201911071822,27584,27585,27581,27582
201911071823,27582,27582,27575,27575
201911071824,27575,27578,27575,27576
201911071825,27576,27578,27575,27577
201911071826,27577,27579,27577,27579
201911071827,27579,27579,27573,27575
201911071828,27575,27580,27575,27580
201911071829,27581,27583,27577,27577
201911071830,27577,27579,27575,27579
201911071831,27579,27580,27575,27575
201911071832,27575,27578,27574,27574
201911071833,27573,27574,27570,27574
201911071834,27574,27575,27573,27573
201911071835,27573,27575,27570,27571
201911071836,27571,27575,27571,27574
201911071837,27574,27580,27574,27579
201911071838,27578,27583,27577,27580
201911071839,27580,27583,27580,27583
201911071840,27583,27586,27578,27580
201911071841,27580,27583,27577,27583
201911071842,27583,27584,27580,27580
201911071843,27580,27583,27580,27581
201911071844,27582,27585,27582,27585
201911071845,27585,27590,27579,27580
201911071846,27580,27581,27578,27580
201911071847,27579,27583,27579,27582
201911071848,27582,27582,27576,27577
201911071849,27578,27579,27577,27579
201911071850,27579,27582,27576,27582
201911071851,27582,27587,27581,27586
201911071852,27586,27586,27579,27580
201911071853,27580,27586,27580,27583
201911071854,27583,27583,27578,27580
201911071855,27580,27582,27580,27582
201911071856,27582,27583,27581,27583
201911071857,27583,27585,27582,27582
201911071858,27581,27582,27580,27581
201911071859,27581,27581,27577,27578
201911071900,27578,27585,27577,27582
201911071901,27582,27591,27581,27585
201911071902,27585,27586,27584,27585
201911071903,27586,27588,27584,27588
201911071904,27588,27588,27584,27584
201911071905,27584,27584,27579,27579
201911071906,27580,27580,27578,27580
201911071907,27580,27581,27578,27581
201911071908,27581,27583,27580,27580
201911071909,27580,27582,27578,27579
201911071910,27578,27580,27578,27580
201911071911,27580,27582,27576,27577
201911071912,27577,27578,27576,27576
201911071913,27576,27578,27575,27576
201911071914,27576,27579,27576,27577
201911071915,27577,27583,27577,27582
201911071916,27581,27581,27577,27577
201911071917,27577,27579,27577,27578
201911071918,27578,27580,27578,27578
201911071919,27579,27580,27578,27580
201911071920,27580,27580,27577,27577
201911071921,27577,27579,27577,27579
201911071922,27579,27582,27578,27582
201911071923,27582,27583,27582,27583
201911071924,27583,27583,27580,27582
201911071925,27582,27588,27581,27587
201911071926,27587,27589,27582,27582
201911071927,27582,27588,27582,27585
201911071928,27585,27589,27585,27585
201911071929,27585,27586,27584,27585
201911071930,27585,27585,27583,27585
201911071931,27585,27585,27583,27583
201911071932,27583,27585,27581,27582
201911071933,27582,27582,27580,27582
201911071934,27582,27583,27581,27581
201911071935,27582,27582,27578,27578
201911071936,27579,27581,27578,27581
201911071937,27581,27581,27578,27579
201911071938,27579,27584,27579,27581
201911071939,27581,27581,27572,27572
201911071940,27572,27578,27572,27576
201911071941,27576,27583,27576,27581
201911071942,27581,27582,27576,27578
201911071943,27578,27582,27577,27580
201911071944,27580,27581,27578,27580
201911071945,27580,27580,27575,27577
201911071946,27577,27579,27576,27579
201911071947,27580,27580,27574,27576
201911071948,27577,27579,27576,27578
201911071949,27578,27581,27578,27580
201911071950,27580,27583,27579,27582
201911071951,27582,27585,27582,27585
201911071952,27585,27586,27583,27586
201911071953,27586,27586,27585,27585
201911071954,27585,27585,27582,27584
201911071955,27584,27589,27583,27584
201911071956,27583,27585,27583,27583
201911071957,27584,27590,27584,27588
201911071958,27588,27588,27585,27585
201911071959,27584,27584,27581,27582
201911072000,27582,27583,27581,27581
201911072001,27581,27581,27577,27578
201911072002,27578,27579,27576,27577
201911072003,27578,27585,27575,27584
201911072004,27584,27584,27578,27579
201911072005,27579,27581,27579,27580
201911072006,27579,27579,27577,27577
201911072007,27577,27581,27577,27577
201911072008,27577,27579,27577,27579
201911072009,27580,27581,27577,27577
201911072010,27577,27580,27576,27579
201911072011,27579,27583,27579,27582
201911072012,27582,27588,27582,27584
201911072013,27584,27584,27581,27583
201911072014,27583,27583,27579,27581
201911072015,27581,27583,27580,27582
201911072016,27582,27583,27581,27582
201911072017,27582,27583,27580,27580
201911072018,27580,27582,27580,27581
201911072019,27581,27581,27576,27577
201911072020,27577,27578,27574,27574
201911072021,27574,27578,27574,27577
201911072022,27577,27581,27577,27581
201911072023,27581,27585,27581,27582
201911072024,27582,27583,27581,27583
201911072025,27582,27582,27578,27578
201911072026,27579,27581,27578,27581
201911072027,27581,27582,27577,27578
201911072028,27578,27579,27577,27578
201911072029,27578,27579,27574,27576
201911072030,27576,27578,27574,27575
201911072031,27575,27576,27573,27573
201911072032,27573,27577,27573,27575
201911072033,27575,27577,27574,27576
201911072034,27576,27577,27575,27577
201911072035,27576,27577,27575,27576
201911072036,27577,27577,27576,27577
201911072037,27577,27579,27575,27576
201911072038,27576,27577,27575,27576
201911072039,27576,27578,27576,27576
201911072040,27576,27577,27576,27577
201911072041,27576,27576,27575,27576
201911072042,27576,27580,27576,27578
201911072043,27578,27579,27577,27577
201911072044,27577,27578,27575,27575
201911072045,27575,27576,27575,27575
201911072046,27575,27575,27572,27574
201911072047,27574,27574,27573,27574
201911072048,27574,27574,27573,27573
201911072049,27572,27574,27572,27573
201911072050,27573,27573,27569,27571
201911072051,27571,27571,27569,27570
201911072052,27570,27570,27568,27568
201911072053,27568,27569,27567,27567
201911072054,27567,27569,27567,27569
201911072055,27569,27569,27566,27567
201911072056,27567,27567,27565,27565
201911072057,27565,27565,27564,27565
201911072058,27565,27566,27564,27565
201911072059,27565,27566,27565,27566
201911072100,27566,27566,27560,27563
201911072101,27563,27566,27563,27565
201911072102,27565,27566,27563,27563
201911072103,27563,27565,27559,27560
201911072104,27560,27560,27557,27560
201911072105,27560,27560,27557,27559
201911072106,27559,27560,27559,27560
201911072107,27560,27563,27559,27563
201911072108,27563,27564,27561,27563
201911072109,27563,27564,27563,27563
201911072110,27564,27564,27562,27563
201911072111,27563,27566,27562,27566
201911072112,27567,27568,27566,27568
201911072113,27568,27569,27567,27567
201911072114,27567,27569,27565,27565
201911072115,27566,27567,27565,27565
201911072116,27565,27566,27563,27564
201911072117,27564,27566,27564,27565
201911072118,27565,27565,27563,27564
201911072119,27564,27564,27563,27563
201911072120,27563,27563,27561,27562
201911072121,27563,27565,27561,27562
201911072122,27562,27562,27559,27562
201911072123,27562,27562,27557,27558
201911072124,27558,27558,27553,27553
201911072125,27553,27556,27552,27556
201911072126,27556,27556,27554,27556
201911072127,27556,27557,27555,27557
201911072128,27557,27558,27556,27556
201911072129,27557,27558,27556,27556
201911072130,27556,27560,27556,27560
201911072131,27559,27560,27557,27560
201911072132,27560,27563,27558,27562
201911072133,27561,27563,27559,27563
201911072134,27563,27565,27561,27562
201911072135,27562,27563,27562,27563
201911072136,27563,27564,27563,27563
201911072137,27563,27565,27563,27563
201911072138,27563,27565,27563,27563
201911072139,27563,27566,27562,27564
201911072140,27564,27565,27562,27565
201911072141,27565,27566,27564,27565
201911072142,27565,27566,27563,27563
201911072143,27563,27565,27563,27565
201911072144,27565,27565,27564,27564
201911072145,27564,27566,27563,27565
201911072146,27565,27566,27564,27565
201911072147,27565,27566,27564,27565
201911072148,27565,27565,27563,27563
201911072149,27563,27566,27563,27566
201911072150,27566,27566,27566,27566
201911072151,27566,27569,27566,27567
201911072152,27567,27568,27565,27566
201911072153,27566,27567,27564,27564
201911072154,27564,27567,27564,27565
201911072155,27565,27565,27563,27564
201911072156,27564,27565,27564,27564
201911072157,27564,27568,27564,27566
201911072158,27566,27566,27565,27566
201911072159,27566,27566,27564,27565
201911072200,27565,27565,27563,27565
201911072201,27565,27569,27565,27566
201911072202,27567,27570,27567,27569
201911072203,27569,27569,27563,27563
201911072204,27562,27562,27554,27555
201911072205,27555,27558,27555,27557
201911072206,27558,27558,27554,27557
201911072207,27558,27561,27558,27561
201911072208,27561,27564,27561,27561
201911072209,27562,27564,27560,27564
201911072210,27564,27564,27563,27564
201911072211,27565,27565,27560,27561
201911072212,27561,27564,27561,27563
201911072213,27563,27564,27562,27563
201911072214,27563,27565,27563,27564
201911072215,27564,27572,27564,27570
201911072216,27570,27574,27570,27571
201911072217,27571,27577,27571,27576
201911072218,27576,27578,27575,27577
201911072219,27577,27578,27576,27576
201911072220,27576,27576,27572,27572
201911072221,27572,27572,27570,27571
201911072222,27571,27572,27571,27572
201911072223,27572,27575,27572,27575
201911072224,27575,27578,27575,27577
201911072225,27576,27577,27575,27576
201911072226,27577,27578,27576,27577
201911072227,27577,27577,27575,27576
201911072228,27576,27577,27576,27576
201911072229,27576,27578,27575,27578
201911072230,27578,27584,27577,27584
201911072231,27585,27589,27584,27588
201911072232,27588,27588,27584,27584
201911072233,27584,27586,27583,27585
201911072234,27585,27592,27585,27590
201911072235,27590,27590,27586,27588
201911072236,27589,27590,27587,27588
201911072237,27588,27589,27586,27589
201911072238,27589,27589,27587,27588
201911072239,27588,27589,27585,27585
201911072240,27585,27587,27583,27584
201911072241,27584,27585,27580,27580
201911072242,27581,27582,27580,27581
201911072243,27581,27582,27580,27580
201911072244,27580,27581,27580,27580
201911072245,27580,27581,27578,27580
201911072246,27580,27582,27580,27580
201911072247,27580,27580,27578,27579
201911072248,27580,27580,27571,27573
201911072249,27573,27573,27570,27572
201911072250,27571,27571,27565,27570
201911072251,27570,27570,27564,27567
201911072252,27567,27570,27565,27570
201911072253,27570,27570,27568,27569
201911072254,27569,27571,27568,27571
201911072255,27571,27573,27570,27570
201911072256,27570,27572,27570,27571
201911072257,27571,27572,27570,27572
201911072258,27572,27573,27572,27573
201911072259,27573,27574,27572,27573
201911072300,27573,27574,27572,27574
201911072301,27574,27575,27573,27574
201911072302,27573,27578,27572,27578
201911072303,27578,27581,27577,27580
201911072304,27580,27582,27579,27579
201911072305,27579,27581,27577,27579
201911072306,27579,27582,27579,27581
201911072307,27582,27583,27581,27581
201911072308,27581,27582,27580,27582
201911072309,27582,27583,27580,27581
201911072310,27581,27583,27581,27582
201911072311,27582,27584,27582,27584
201911072312,27584,27586,27584,27585
201911072313,27585,27588,27585,27585
201911072314,27585,27587,27585,27587
201911072315,27587,27588,27586,27588
201911072316,27588,27589,27586,27586
201911072317,27586,27587,27582,27587
201911072318,27587,27587,27585,27585
201911072319,27585,27587,27585,27585
201911072320,27585,27588,27585,27588
201911072321,27587,27588,27585,27587
201911072322,27587,27591,27587,27591
201911072323,27591,27595,27589,27595
201911072324,27595,27595,27591,27591
201911072325,27592,27592,27589,27592
201911072326,27592,27592,27589,27591
201911072327,27591,27593,27590,27593
201911072328,27593,27598,27591,27591
201911072329,27591,27594,27588,27593
201911072330,27593,27618,27592,27613
201911072331,27613,27622,27604,27618
201911072332,27618,27628,27618,27628
201911072333,27628,27631,27607,27609
201911072334,27609,27611,27604,27609
201911072335,27609,27612,27607,27608
201911072336,27608,27629,27608,27618
201911072337,27618,27632,27618,27626
201911072338,27626,27638,27625,27626
201911072339,27626,27630,27623,27629
201911072340,27629,27642,27629,27635
201911072341,27635,27654,27635,27652
201911072342,27651,27656,27650,27652
201911072343,27653,27654,27645,27649
201911072344,27649,27650,27641,27641
201911072345,27641,27648,27641,27647
201911072346,27647,27648,27641,27641
201911072347,27641,27642,27637,27641
201911072348,27641,27655,27640,27655
201911072349,27655,27665,27652,27653
201911072350,27652,27653,27644,27649
201911072351,27649,27651,27646,27648
201911072352,27648,27649,27642,27647
201911072353,27647,27656,27646,27655
201911072354,27655,27662,27654,27660
201911072355,27660,27661,27652,27655
201911072356,27655,27663,27653,27662
201911072357,27662,27671,27662,27666
201911072358,27665,27669,27661,27666
201911072359,27666,27669,27660,27660
201911080000,27660,27670,27659,27662
201911080001,27662,27663,27657,27658
201911080002,27658,27658,27650,27652
201911080003,27652,27654,27646,27651
201911080004,27651,27652,27647,27649
201911080005,27649,27653,27645,27645
201911080006,27645,27650,27642,27644
201911080007,27644,27644,27639,27643
201911080008,27643,27646,27642,27642
201911080009,27642,27645,27640,27640
201911080010,27641,27647,27639,27645
201911080011,27645,27646,27642,27646
201911080012,27646,27664,27646,27664
201911080013,27663,27665,27659,27661
201911080014,27661,27664,27656,27659
201911080015,27658,27663,27656,27661
201911080016,27661,27664,27660,27661
201911080017,27662,27665,27661,27664
201911080018,27665,27670,27665,27667
201911080019,27668,27673,27668,27670
201911080020,27670,27670,27660,27660
201911080021,27661,27662,27656,27659
201911080022,27659,27660,27657,27660
201911080023,27660,27660,27657,27658
201911080024,27658,27661,27657,27660
201911080025,27661,27662,27660,27660
201911080026,27660,27669,27660,27667
201911080027,27668,27668,27664,27666
201911080028,27666,27666,27662,27662
201911080029,27662,27665,27662,27664
201911080030,27664,27672,27664,27664
201911080031,27664,27670,27664,27669
201911080032,27669,27678,27669,27674
201911080033,27674,27689,27674,27680
201911080034,27680,27680,27670,27671
201911080035,27671,27674,27667,27674
201911080036,27674,27681,27670,27681
201911080037,27681,27686,27680,27681
201911080038,27681,27686,27678,27685
201911080039,27685,27693,27684,27686
201911080040,27687,27691,27686,27691
201911080041,27691,27691,27687,27690
201911080042,27690,27691,27688,27688
201911080043,27688,27689,27686,27686
201911080044,27685,27685,27680,27685
201911080045,27685,27693,27685,27693
201911080046,27694,27694,27687,27688
201911080047,27688,27691,27687,27690
201911080048,27690,27692,27689,27691
201911080049,27692,27695,27690,27693
201911080050,27693,27723,27691,27718
201911080051,27718,27720,27713,27716
201911080052,27716,27717,27708,27711
201911080053,27712,27712,27700,27701
201911080054,27701,27708,27701,27705
201911080055,27705,27710,27705,27706
201911080056,27706,27708,27704,27704
201911080057,27703,27715,27703,27714
201911080058,27716,27718,27712,27718
201911080059,27718,27718,27710,27711
201911080100,27711,27711,27701,27702
201911080101,27702,27708,27701,27707
201911080102,27707,27709,27702,27703
201911080103,27703,27705,27700,27701
201911080104,27700,27702,27696,27696
201911080105,27696,27696,27692,27692
201911080106,27692,27693,27688,27690
201911080107,27690,27693,27688,27688
201911080108,27688,27688,27682,27685
201911080109,27684,27686,27680,27681
201911080110,27681,27687,27680,27683
201911080111,27682,27685,27682,27684
201911080112,27684,27693,27684,27693
201911080113,27692,27696,27690,27693
201911080114,27693,27695,27693,27693
201911080115,27693,27693,27690,27690
201911080116,27691,27695,27688,27693
201911080117,27693,27699,27693,27696
201911080118,27696,27700,27695,27700
201911080119,27699,27703,27697,27698
201911080120,27698,27700,27697,27699
201911080121,27699,27699,27693,27693
201911080122,27693,27695,27685,27685
201911080123,27687,27687,27684,27687
201911080124,27687,27690,27684,27689
201911080125,27689,27691,27684,27684
201911080126,27684,27686,27682,27683
201911080127,27684,27686,27682,27683
201911080128,27683,27689,27683,27687
201911080129,27686,27689,27683,27684
201911080130,27684,27689,27683,27685
201911080131,27686,27686,27684,27684
201911080132,27684,27689,27683,27689
201911080133,27689,27692,27687,27690
201911080134,27690,27695,27690,27694
201911080135,27693,27696,27692,27695
201911080136,27695,27697,27692,27692
201911080137,27692,27692,27686,27687
201911080138,27688,27688,27682,27687
201911080139,27687,27688,27684,27686
201911080140,27686,27687,27684,27684
201911080141,27684,27686,27680,27685
201911080142,27685,27686,27683,27686
201911080143,27686,27691,27685,27689
201911080144,27689,27693,27687,27692
201911080145,27692,27692,27689,27689
201911080146,27689,27689,27683,27683
201911080147,27683,27684,27679,27682
201911080148,27682,27687,27677,27687
201911080149,27687,27690,27686,27686
201911080150,27685,27685,27679,27684
201911080151,27684,27684,27680,27680
201911080152,27680,27683,27676,27677
201911080153,27677,27678,27669,27669
201911080154,27669,27675,27667,27674
201911080155,27674,27676,27671,27675
201911080156,27675,27680,27674,27677
201911080157,27677,27680,27676,27679
201911080158,27679,27679,27675,27676
201911080159,27676,27735,27676,27732
201911080200,27733,27737,27708,27708
201911080201,27707,27711,27705,27706
201911080202,27706,27708,27692,27702
201911080203,27701,27713,27701,27704
201911080204,27704,27708,27700,27703
201911080205,27703,27703,27695,27697
201911080206,27698,27699,27695,27695
201911080207,27695,27702,27694,27701
201911080208,27701,27702,27697,27702
201911080209,27702,27707,27701,27707
201911080210,27706,27709,27702,27709
201911080211,27709,27712,27707,27709
201911080212,27709,27709,27702,27702
201911080213,27701,27703,27699,27701
201911080214,27701,27702,27692,27692
201911080215,27692,27693,27684,27685
201911080216,27685,27689,27684,27686
201911080217,27686,27689,27682,27689
201911080218,27689,27691,27686,27686
201911080219,27686,27691,27686,27688
201911080220,27688,27694,27688,27691
201911080221,27692,27693,27689,27690
201911080222,27690,27693,27689,27689
201911080223,27689,27694,27688,27694
201911080224,27694,27695,27691,27693
201911080225,27693,27695,27691,27691
201911080226,27691,27691,27689,27690
201911080227,27689,27693,27688,27693
201911080228,27693,27698,27692,27698
201911080229,27699,27704,27698,27704
201911080230,27704,27705,27700,27700
201911080231,27700,27700,27697,27700
201911080232,27700,27700,27697,27700
201911080233,27700,27704,27700,27701
201911080234,27701,27706,27701,27706
201911080235,27706,27708,27700,27700
201911080236,27700,27701,27697,27699
201911080237,27699,27701,27698,27699
201911080238,27699,27707,27698,27706
201911080239,27707,27707,27703,27704
201911080240,27705,27706,27701,27701
201911080241,27701,27706,27699,27705
201911080242,27705,27707,27699,27700
201911080243,27700,27702,27698,27698
201911080244,27698,27699,27695,27695
201911080245,27694,27696,27691,27694
201911080246,27694,27701,27694,27701
201911080247,27701,27702,27700,27700
201911080248,27700,27706,27699,27704
201911080249,27704,27713,27704,27712
201911080250,27712,27713,27709,27710
201911080251,27709,27713,27708,27713
201911080252,27713,27713,27706,27707
201911080253,27706,27707,27704,27706
201911080254,27706,27709,27704,27706
201911080255,27706,27709,27706,27708
201911080256,27709,27714,27709,27714
201911080257,27715,27716,27713,27715
201911080258,27716,27720,27716,27719
201911080259,27719,27719,27712,27713
201911080300,27713,27715,27710,27710
201911080301,27711,27712,27708,27712
201911080302,27712,27713,27708,27708
201911080303,27708,27713,27708,27710
201911080304,27709,27710,27704,27705
201911080305,27704,27705,27698,27700
201911080306,27700,27701,27697,27697
201911080307,27697,27701,27696,27699
201911080308,27698,27698,27694,27694
201911080309,27694,27696,27692,27696
201911080310,27696,27699,27695,27697
201911080311,27697,27698,27696,27697
201911080312,27697,27700,27696,27699
201911080313,27699,27700,27693,27696
201911080314,27697,27697,27695,27695
201911080315,27695,27695,27692,27692
201911080316,27692,27696,27690,27695
201911080317,27695,27698,27694,27696
201911080318,27696,27700,27696,27699
201911080319,27698,27698,27695,27696
201911080320,27696,27696,27694,27696
201911080321,27696,27696,27694,27695
201911080322,27695,27697,27694,27696
201911080323,27697,27697,27696,27696
201911080324,27696,27696,27693,27694
201911080325,27695,27696,27692,27696
201911080326,27696,27697,27695,27697
201911080327,27698,27698,27695,27696
201911080328,27696,27698,27695,27696
201911080329,27697,27698,27696,27696
201911080330,27696,27696,27694,27695
201911080331,27696,27696,27691,27691
201911080332,27691,27692,27685,27687
201911080333,27687,27691,27685,27689
201911080334,27690,27690,27688,27688
201911080335,27688,27690,27682,27682
201911080336,27682,27684,27681,27681
201911080337,27681,27682,27680,27681
201911080338,27681,27685,27681,27681
201911080339,27682,27685,27681,27685
201911080340,27685,27686,27684,27685
201911080341,27684,27684,27683,27683
201911080342,27683,27687,27682,27687
201911080343,27687,27688,27687,27688
201911080344,27688,27689,27686,27686
201911080345,27686,27688,27685,27687
201911080346,27687,27687,27685,27685
201911080347,27685,27687,27680,27682
201911080348,27682,27686,27682,27685
201911080349,27685,27688,27684,27687
201911080350,27687,27691,27687,27689
201911080351,27689,27691,27688,27689
201911080352,27690,27690,27686,27686
201911080353,27687,27689,27686,27688
201911080354,27688,27692,27688,27691
201911080355,27691,27694,27691,27694
201911080356,27694,27694,27692,27692
201911080357,27692,27692,27687,27689
201911080358,27689,27689,27686,27686
201911080359,27686,27689,27686,27688
201911080400,27689,27695,27687,27695
201911080401,27695,27698,27693,27698
201911080402,27698,27701,27694,27700
201911080403,27700,27705,27696,27705
201911080404,27704,27708,27704,27705
201911080405,27705,27705,27702,27703
201911080406,27703,27706,27702,27705
201911080407,27705,27707,27704,27706
201911080408,27706,27708,27702,27703
201911080409,27703,27705,27701,27704
201911080410,27704,27704,27702,27703
201911080411,27704,27706,27704,27705
201911080412,27705,27707,27704,27707
201911080413,27707,27709,27706,27708
201911080414,27707,27712,27706,27712
201911080415,27712,27712,27708,27710
201911080416,27710,27710,27707,27709
201911080417,27709,27711,27708,27711
201911080418,27711,27715,27711,27714
201911080419,27714,27715,27713,27715
201911080420,27715,27716,27710,27711
201911080421,27710,27713,27710,27712
201911080422,27712,27714,27711,27714
201911080423,27714,27714,27712,27712
201911080424,27712,27712,27710,27710
201911080425,27710,27710,27706,27706
201911080426,27706,27707,27705,27706
201911080427,27706,27706,27703,27704
201911080428,27704,27704,27702,27703
201911080429,27703,27703,27700,27701
201911080430,27701,27701,27696,27696
201911080431,27696,27698,27696,27697
201911080432,27696,27700,27696,27700
201911080433,27700,27700,27695,27695
201911080434,27695,27697,27690,27691
201911080435,27691,27693,27690,27692
201911080436,27692,27693,27689,27689
201911080437,27689,27689,27684,27686
201911080438,27687,27688,27685,27688
201911080439,27688,27691,27688,27691
201911080440,27691,27692,27691,27692
201911080441,27692,27692,27688,27688
201911080442,27688,27691,27688,27688
201911080443,27688,27691,27636,27636
201911080444,27636,27671,27617,27648
201911080445,27648,27664,27642,27655
201911080446,27656,27664,27649,27661
201911080447,27661,27663,27653,27653
201911080448,27653,27653,27645,27649
201911080449,27649,27649,27640,27644
201911080450,27644,27644,27624,27638
201911080451,27638,27645,27637,27642
201911080452,27642,27658,27642,27657
201911080453,27657,27659,27652,27655
201911080454,27655,27655,27642,27646
201911080455,27646,27657,27645,27657
201911080456,27657,27660,27656,27657
201911080457,27657,27660,27654,27656
201911080458,27656,27658,27653,27656
201911080459,27656,27659,27653,27657
201911080500,27658,27665,27657,27661
201911080501,27661,27664,27659,27660
201911080502,27660,27669,27660,27667
201911080503,27667,27672,27665,27669
201911080504,27669,27671,27665,27665
201911080505,27665,27668,27657,27658
201911080506,27658,27662,27656,27662
201911080507,27662,27662,27656,27658
201911080508,27658,27661,27655,27657
201911080509,27657,27665,27657,27661
201911080510,27661,27662,27653,27658
201911080511,27658,27659,27655,27657
201911080512,27657,27662,27656,27660
201911080513,27660,27662,27653,27653
201911080514,27653,27653,27648,27650
201911080515,27650,27650,27643,27643
201911080516,27643,27643,27634,27639
201911080517,27639,27640,27633,27638
201911080518,27638,27638,27624,27630
201911080519,27631,27632,27620,27622
201911080520,27622,27628,27606,27606
201911080521,27606,27617,27601,27617
201911080522,27618,27625,27617,27621
201911080523,27621,27627,27621,27624
201911080524,27624,27625,27615,27616
201911080525,27616,27623,27613,27623
201911080526,27623,27624,27616,27618
201911080527,27618,27627,27617,27627
201911080528,27627,27630,27624,27628
201911080529,27628,27634,27627,27632
201911080530,27632,27637,27631,27634
201911080531,27633,27638,27627,27630
201911080532,27630,27630,27627,27628
201911080533,27628,27629,27626,27627
201911080534,27627,27634,27627,27634
201911080535,27634,27635,27624,27627
201911080536,27627,27628,27617,27619
201911080537,27619,27621,27617,27620
201911080538,27620,27631,27619,27631
201911080539,27631,27631,27619,27620
201911080540,27620,27622,27615,27615
201911080541,27614,27620,27613,27617
201911080542,27617,27618,27613,27615
201911080543,27616,27616,27602,27606
201911080544,27607,27608,27595,27600
201911080545,27601,27612,27601,27611
201911080546,27611,27619,27611,27619
201911080547,27619,27628,27619,27628
201911080548,27628,27640,27625,27639
201911080549,27639,27641,27634,27639
201911080550,27639,27644,27637,27640
201911080551,27641,27641,27633,27633
201911080552,27633,27635,27625,27625
201911080553,27625,27625,27617,27618
201911080554,27617,27619,27610,27617
201911080555,27617,27624,27612,27616
201911080556,27617,27636,27617,27629
201911080557,27629,27635,27623,27634
201911080558,27634,27638,27631,27635
201911080559,27636,27641,27627,27641
201911080600,27641,27645,27634,27639
201911080601,27639,27641,27635,27637
201911080602,27637,27639,27635,27636
201911080603,27637,27637,27632,27634
201911080604,27635,27643,27635,27643
201911080605,27643,27648,27641,27647
201911080606,27647,27649,27646,27648
201911080607,27648,27657,27648,27657
201911080608,27657,27660,27656,27657
201911080609,27656,27658,27656,27658
201911080610,27658,27658,27656,27658
201911080611,27658,27662,27657,27661
201911080612,27661,27667,27659,27666
201911080613,27666,27666,27663,27665
201911080614,27666,27671,27663,27671
