日時,始値(BID),高値(BID),安値(BID),終値(BID)
201911060830,23331,23342,23329,23342
201911060831,23342,23344,23330,23333
201911060832,23333,23337,23330,23336
201911060833,23336,23336,23323,23325
201911060834,23325,23332,23325,23332
201911060835,23332,23333,23330,23332
201911060836,23331,23332,23330,23331
201911060837,23331,23331,23326,23326
201911060838,23326,23327,23326,23326
201911060839,23326,23331,23325,23325
201911060840,23325,23330,23325,23326
201911060841,23326,23327,23320,23322
201911060842,23322,23326,23320,23320
201911060843,23320,23325,23316,23320
201911060844,23320,23327,23318,23327
201911060845,23330,23330,23315,23319
201911060846,23320,23321,23316,23321
201911060847,23321,23325,23321,23325
201911060848,23325,23330,23325,23329
201911060849,23329,23330,23326,23328
201911060850,23328,23330,23327,23330
201911060851,23330,23334,23330,23334
201911060852,23334,23335,23331,23332
201911060853,23332,23332,23331,23331
201911060854,23331,23332,23328,23330
201911060855,23331,23335,23328,23329
201911060856,23329,23332,23328,23332
201911060857,23331,23331,23330,23330
201911060858,23330,23330,23321,23324
201911060859,23324,23325,23317,23320
201911060900,23320,23321,23301,23305
201911060901,23303,23312,23301,23306
201911060902,23305,23306,23301,23306
201911060903,23306,23312,23301,23306
201911060904,23306,23311,23305,23309
201911060905,23309,23310,23305,23309
201911060906,23309,23326,23308,23326
201911060907,23326,23335,23326,23331
201911060908,23332,23332,23316,23317
201911060909,23317,23322,23311,23312
201911060910,23312,23312,23288,23296
201911060911,23295,23297,23287,23288
201911060912,23288,23296,23286,23293
201911060913,23293,23304,23291,23295
201911060914,23295,23295,23288,23288
201911060915,23288,23290,23282,23282
201911060916,23282,23286,23282,23283
201911060917,23282,23289,23281,23287
201911060918,23287,23292,23286,23287
201911060919,23287,23287,23286,23286
201911060920,23286,23287,23282,23282
201911060921,23282,23297,23282,23297
201911060922,23297,23302,23296,23297
201911060923,23297,23299,23287,23287
201911060924,23287,23287,23285,23286
201911060925,23286,23292,23284,23292
201911060926,23292,23292,23287,23288
201911060927,23288,23289,23282,23289
201911060928,23289,23289,23282,23282
201911060929,23282,23285,23277,23279
201911060930,23279,23280,23276,23277
201911060931,23277,23277,23272,23272
201911060932,23272,23280,23272,23280
201911060933,23280,23281,23277,23280
201911060934,23280,23291,23280,23291
201911060935,23291,23292,23281,23282
201911060936,23282,23289,23281,23286
201911060937,23286,23287,23281,23287
201911060938,23287,23290,23287,23290
201911060939,23291,23295,23291,23293
201911060940,23293,23297,23293,23297
201911060941,23297,23297,23297,23297
201911060942,23297,23298,23292,23297
201911060943,23297,23303,23297,23299
201911060944,23299,23299,23292,23293
201911060945,23293,23297,23291,23295
201911060946,23295,23301,23294,23295
201911060947,23295,23295,23286,23292
201911060948,23292,23293,23290,23292
201911060949,23292,23294,23291,23292
201911060950,23292,23292,23286,23286
201911060951,23286,23286,23282,23284
201911060952,23284,23285,23281,23282
201911060953,23282,23282,23275,23275
201911060954,23275,23276,23272,23272
201911060955,23272,23272,23263,23272
201911060956,23272,23272,23266,23267
201911060957,23267,23267,23262,23265
201911060958,23265,23265,23258,23262
201911060959,23262,23264,23257,23257
201911061000,23257,23264,23252,23262
201911061001,23262,23264,23258,23262
201911061002,23262,23271,23261,23261
201911061003,23261,23264,23256,23264
201911061004,23265,23267,23260,23260
201911061005,23260,23264,23257,23262
201911061006,23262,23262,23259,23259
201911061007,23259,23259,23252,23252
201911061008,23252,23253,23247,23252
201911061009,23252,23252,23248,23249
201911061010,23252,23261,23252,23254
201911061011,23254,23264,23254,23262
201911061012,23262,23264,23257,23262
201911061013,23262,23262,23254,23257
201911061014,23257,23258,23252,23252
201911061015,23252,23252,23247,23250
201911061016,23250,23253,23248,23248
201911061017,23248,23252,23247,23248
201911061018,23248,23251,23247,23248
201911061019,23248,23251,23246,23251
201911061020,23251,23252,23247,23247
201911061021,23247,23252,23247,23252
201911061022,23252,23252,23248,23249
201911061023,23249,23250,23247,23247
201911061024,23247,23248,23247,23248
201911061025,23248,23262,23247,23262
201911061026,23262,23267,23262,23267
201911061027,23267,23267,23254,23257
201911061028,23257,23260,23255,23259
201911061029,23258,23264,23258,23261
201911061030,23261,23262,23256,23257
201911061031,23257,23262,23256,23261
201911061032,23262,23272,23261,23267
201911061033,23267,23283,23266,23278
201911061034,23277,23282,23271,23271
201911061035,23271,23280,23271,23277
201911061036,23277,23277,23271,23274
201911061037,23274,23277,23272,23276
201911061038,23275,23279,23271,23277
201911061039,23277,23280,23276,23280
201911061040,23280,23281,23277,23277
201911061041,23277,23279,23276,23277
201911061042,23277,23278,23271,23271
201911061043,23273,23276,23271,23274
201911061044,23274,23280,23273,23280
201911061045,23281,23286,23281,23286
201911061046,23286,23294,23282,23292
201911061047,23292,23294,23291,23292
201911061048,23292,23298,23291,23297
201911061049,23297,23299,23293,23297
201911061050,23297,23297,23290,23291
201911061051,23292,23292,23282,23290
201911061052,23290,23290,23286,23288
201911061053,23288,23294,23288,23293
201911061054,23293,23293,23286,23287
201911061055,23287,23287,23277,23277
201911061056,23277,23277,23274,23276
201911061057,23277,23281,23273,23280
201911061058,23280,23281,23274,23275
201911061059,23275,23277,23273,23276
201911061100,23277,23283,23274,23281
201911061101,23281,23283,23278,23282
201911061102,23282,23282,23276,23277
201911061103,23277,23277,23271,23272
201911061104,23272,23277,23272,23276
201911061105,23276,23277,23275,23276
201911061106,23276,23276,23275,23276
201911061107,23276,23276,23273,23275
201911061108,23275,23275,23271,23275
201911061109,23275,23275,23274,23274
201911061110,23274,23274,23272,23272
201911061111,23272,23275,23272,23275
201911061112,23275,23275,23271,23275
201911061113,23275,23277,23275,23277
201911061114,23277,23277,23274,23275
201911061115,23275,23277,23273,23275
201911061116,23275,23275,23272,23274
201911061117,23274,23275,23271,23271
201911061118,23271,23272,23271,23272
201911061119,23272,23272,23263,23264
201911061120,23264,23265,23262,23262
201911061121,23262,23262,23259,23259
201911061122,23259,23260,23252,23254
201911061123,23254,23255,23252,23255
201911061124,23255,23266,23255,23264
201911061125,23264,23267,23264,23267
201911061126,23267,23268,23262,23267
201911061127,23267,23267,23263,23264
201911061128,23264,23264,23261,23264
201911061129,23264,23267,23264,23265
201911061130,23266,23269,23266,23267
201911061131,23267,23268,23266,23266
201911061132,23266,23267,23266,23267
201911061133,23267,23267,23267,23267
201911061134,23267,23267,23262,23264
201911061135,23264,23266,23262,23262
201911061136,23262,23264,23261,23264
201911061137,23263,23266,23263,23264
201911061138,23264,23264,23261,23262
201911061139,23262,23264,23261,23262
201911061140,23262,23264,23261,23263
201911061141,23264,23265,23264,23265
201911061142,23265,23265,23264,23265
201911061143,23265,23265,23265,23265
201911061144,23265,23270,23265,23267
201911061145,23267,23267,23266,23267
201911061146,23267,23267,23262,23262
201911061147,23262,23262,23262,23262
201911061148,23262,23262,23261,23262
201911061149,23262,23262,23257,23257
201911061150,23257,23259,23257,23259
201911061151,23259,23262,23258,23261
201911061152,23260,23264,23259,23262
201911061153,23262,23262,23262,23262
201911061154,23262,23262,23260,23260
201911061155,23259,23262,23258,23261
201911061156,23261,23262,23261,23262
201911061157,23262,23262,23262,23262
201911061158,23262,23262,23260,23261
201911061159,23261,23261,23258,23258
201911061200,23258,23259,23257,23259
201911061201,23259,23260,23258,23260
201911061202,23260,23264,23260,23263
201911061203,23263,23264,23261,23262
201911061204,23262,23262,23262,23262
201911061205,23262,23264,23261,23264
201911061206,23264,23264,23261,23262
201911061207,23262,23264,23261,23264
201911061208,23264,23270,23264,23267
201911061209,23267,23270,23263,23269
201911061210,23269,23271,23266,23270
201911061211,23270,23271,23269,23269
201911061212,23269,23270,23268,23270
201911061213,23270,23272,23269,23271
201911061214,23271,23272,23271,23271
201911061215,23271,23274,23271,23274
201911061216,23274,23275,23273,23275
201911061217,23275,23275,23275,23275
201911061218,23275,23276,23274,23274
201911061219,23274,23275,23274,23275
201911061220,23275,23277,23275,23276
201911061221,23276,23277,23276,23277
201911061222,23277,23277,23276,23277
201911061223,23277,23277,23276,23276
201911061224,23276,23277,23275,23275
201911061225,23275,23277,23275,23277
201911061226,23277,23277,23275,23275
201911061227,23275,23275,23274,23274
201911061228,23274,23275,23272,23272
201911061229,23272,23272,23267,23267
201911061230,23267,23267,23261,23264
201911061231,23264,23267,23261,23262
201911061232,23262,23262,23257,23259
201911061233,23259,23260,23256,23257
201911061234,23257,23258,23256,23257
201911061235,23257,23262,23256,23262
201911061236,23262,23264,23261,23264
201911061237,23264,23264,23260,23261
201911061238,23261,23264,23261,23262
201911061239,23262,23263,23261,23262
201911061240,23262,23265,23261,23265
201911061241,23265,23265,23264,23264
201911061242,23264,23265,23264,23264
201911061243,23264,23265,23264,23265
201911061244,23265,23272,23264,23271
201911061245,23271,23272,23271,23271
201911061246,23271,23271,23268,23270
201911061247,23270,23270,23269,23270
201911061248,23270,23270,23269,23269
201911061249,23269,23274,23269,23272
201911061250,23272,23272,23266,23266
201911061251,23266,23267,23262,23267
201911061252,23267,23269,23266,23267
201911061253,23267,23269,23264,23264
201911061254,23264,23267,23264,23265
201911061255,23265,23265,23261,23264
201911061256,23264,23269,23264,23267
201911061257,23267,23267,23267,23267
201911061258,23267,23267,23267,23267
201911061259,23267,23267,23266,23266
201911061300,23266,23267,23262,23264
201911061301,23264,23264,23262,23264
201911061302,23264,23264,23262,23262
201911061303,23262,23262,23258,23261
201911061304,23261,23262,23261,23262
201911061305,23262,23262,23261,23262
201911061306,23262,23267,23261,23267
201911061307,23267,23267,23264,23264
201911061308,23265,23265,23261,23262
201911061309,23262,23263,23261,23262
201911061310,23262,23264,23261,23262
201911061311,23262,23263,23261,23262
201911061312,23262,23262,23262,23262
201911061313,23262,23267,23262,23265
201911061314,23265,23269,23264,23269
201911061315,23269,23270,23266,23267
201911061316,23267,23270,23265,23269
201911061317,23269,23270,23267,23270
201911061318,23270,23270,23269,23269
201911061319,23269,23271,23269,23271
201911061320,23271,23271,23270,23271
201911061321,23271,23271,23268,23270
201911061322,23270,23270,23269,23270
201911061323,23270,23270,23270,23270
201911061324,23270,23270,23267,23270
201911061325,23270,23275,23270,23272
201911061326,23272,23272,23271,23271
201911061327,23271,23272,23269,23272
201911061328,23272,23272,23269,23272
201911061329,23272,23272,23269,23271
201911061330,23271,23275,23271,23275
201911061331,23275,23275,23272,23272
201911061332,23272,23274,23271,23272
201911061333,23272,23274,23271,23274
201911061334,23274,23274,23271,23272
201911061335,23272,23272,23271,23272
201911061336,23272,23272,23272,23272
201911061337,23272,23275,23272,23275
201911061338,23275,23276,23274,23276
201911061339,23276,23276,23274,23274
201911061340,23274,23275,23274,23275
201911061341,23275,23277,23274,23277
201911061342,23277,23277,23276,23277
201911061343,23277,23277,23276,23276
201911061344,23276,23277,23276,23277
201911061345,23277,23277,23277,23277
201911061346,23277,23277,23277,23277
201911061347,23277,23277,23273,23274
201911061348,23274,23279,23274,23279
201911061349,23279,23282,23279,23282
201911061350,23282,23282,23281,23282
201911061351,23282,23282,23281,23282
201911061352,23282,23282,23282,23282
201911061353,23282,23282,23281,23281
201911061354,23281,23282,23280,23282
201911061355,23282,23282,23280,23282
201911061356,23282,23282,23281,23281
201911061357,23281,23281,23275,23277
201911061358,23277,23277,23277,23277
201911061359,23277,23277,23277,23277
201911061400,23277,23282,23277,23282
201911061401,23281,23282,23281,23282
201911061402,23282,23282,23281,23282
201911061403,23282,23282,23282,23282
201911061404,23282,23284,23282,23282
201911061405,23282,23283,23281,23282
201911061406,23282,23284,23282,23284
201911061407,23284,23284,23282,23282
201911061408,23282,23282,23282,23282
201911061409,23282,23282,23282,23282
201911061410,23282,23282,23282,23282
201911061411,23282,23282,23282,23282
201911061412,23282,23282,23277,23279
201911061413,23279,23279,23279,23279
201911061414,23279,23280,23279,23280
201911061415,23280,23282,23280,23282
201911061416,23282,23282,23282,23282
201911061417,23282,23283,23282,23282
201911061418,23282,23282,23282,23282
201911061419,23282,23282,23282,23282
201911061420,23282,23283,23282,23282
201911061421,23282,23282,23282,23282
201911061422,23282,23286,23282,23285
201911061423,23285,23288,23285,23287
201911061424,23287,23292,23287,23292
201911061425,23292,23292,23292,23292
201911061426,23292,23294,23292,23292
201911061427,23292,23296,23292,23296
201911061428,23296,23297,23296,23296
201911061429,23296,23297,23296,23296
201911061430,23296,23297,23296,23297
201911061431,23297,23297,23296,23297
201911061432,23297,23297,23297,23297
201911061433,23297,23297,23297,23297
201911061434,23297,23301,23297,23301
201911061435,23301,23301,23297,23297
201911061436,23297,23297,23297,23297
201911061437,23297,23297,23297,23297
201911061438,23297,23297,23297,23297
201911061439,23297,23297,23297,23297
201911061440,23297,23297,23292,23292
201911061441,23292,23292,23286,23286
201911061442,23286,23291,23286,23291
201911061443,23291,23291,23289,23291
201911061444,23291,23292,23291,23291
201911061445,23291,23291,23287,23290
201911061446,23290,23291,23286,23289
201911061447,23289,23292,23287,23292
201911061448,23292,23295,23292,23295
201911061449,23295,23296,23293,23294
201911061450,23294,23295,23292,23292
201911061451,23292,23294,23292,23294
201911061452,23294,23294,23289,23289
201911061453,23289,23294,23289,23294
201911061454,23294,23294,23288,23289
201911061455,23289,23294,23289,23292
201911061456,23292,23294,23291,23292
201911061457,23294,23294,23292,23294
201911061458,23294,23295,23294,23295
201911061459,23295,23301,23295,23301
201911061500,23301,23304,23291,23296
201911061501,23296,23296,23282,23286
201911061502,23286,23295,23286,23295
201911061503,23295,23296,23291,23292
201911061504,23292,23300,23292,23297
201911061505,23298,23300,23291,23292
201911061506,23292,23297,23292,23297
201911061507,23297,23297,23291,23292
201911061508,23292,23296,23291,23294
201911061509,23295,23300,23291,23295
201911061510,23296,23302,23296,23300
201911061511,23300,23317,23300,23317
201911061512,23317,23321,23315,23316
201911061513,23316,23316,23305,23307
201911061514,23307,23307,23301,23302
201911061515,23301,23302,23293,23295
201911061516,23295,23299,23295,23295
201911061517,23295,23299,23295,23299
201911061518,23299,23309,23299,23309
201911061519,23309,23309,23305,23307
201911061520,23307,23309,23304,23309
201911061521,23309,23310,23305,23310
201911061522,23310,23312,23309,23312
201911061523,23312,23312,23305,23306
201911061524,23306,23309,23303,23304
201911061525,23302,23307,23302,23305
201911061526,23305,23307,23303,23307
201911061527,23307,23307,23304,23307
201911061528,23307,23310,23306,23309
201911061529,23309,23311,23307,23308
201911061530,23308,23309,23307,23309
201911061531,23309,23309,23302,23303
201911061532,23303,23306,23303,23306
201911061533,23306,23306,23303,23303
201911061534,23303,23303,23300,23302
201911061535,23302,23302,23301,23302
201911061536,23302,23302,23301,23302
201911061537,23302,23302,23297,23298
201911061538,23298,23302,23297,23302
201911061539,23302,23302,23297,23302
201911061540,23302,23302,23301,23302
201911061541,23302,23302,23285,23294
201911061542,23293,23296,23288,23290
201911061543,23290,23291,23286,23290
201911061544,23290,23292,23286,23291
201911061545,23291,23297,23290,23295
201911061546,23295,23297,23295,23297
201911061547,23297,23297,23296,23296
201911061548,23296,23297,23295,23297
201911061549,23297,23298,23296,23296
201911061550,23296,23301,23296,23299
201911061551,23299,23299,23296,23299
201911061552,23299,23299,23296,23296
201911061553,23296,23297,23295,23295
201911061554,23295,23295,23294,23295
201911061555,23298,23298,23290,23292
201911061556,23292,23292,23285,23287
201911061557,23287,23292,23287,23292
201911061558,23292,23292,23290,23290
201911061559,23290,23292,23289,23291
201911061600,23291,23300,23290,23300
201911061601,23300,23302,23295,23302
201911061602,23302,23302,23295,23296
201911061603,23296,23296,23296,23296
201911061604,23296,23297,23296,23297
201911061605,23297,23297,23290,23296
201911061606,23296,23296,23290,23292
201911061607,23292,23292,23285,23286
201911061608,23286,23287,23284,23287
201911061609,23287,23287,23280,23282
201911061610,23282,23287,23281,23282
201911061611,23282,23282,23277,23277
201911061612,23277,23278,23271,23272
201911061613,23272,23272,23267,23272
201911061614,23272,23277,23270,23277
201911061615,23277,23285,23275,23285
201911061616,23285,23292,23283,23290
201911061617,23290,23292,23286,23287
201911061618,23287,23291,23285,23291
201911061619,23291,23294,23290,23290
201911061620,23290,23296,23290,23291
201911061621,23291,23292,23284,23287
201911061622,23287,23289,23287,23289
201911061623,23289,23289,23288,23289
201911061624,23289,23289,23286,23289
201911061625,23289,23290,23289,23290
201911061626,23290,23296,23290,23295
201911061627,23295,23301,23294,23300
201911061628,23300,23306,23300,23306
201911061629,23306,23307,23300,23307
201911061630,23310,23310,23306,23307
201911061631,23308,23309,23301,23301
201911061632,23302,23306,23301,23306
201911061633,23305,23306,23301,23301
201911061634,23302,23302,23302,23302
201911061635,23302,23302,23296,23297
201911061636,23297,23297,23296,23296
201911061637,23294,23296,23293,23295
201911061638,23295,23297,23294,23297
201911061639,23297,23297,23296,23297
201911061640,23297,23299,23296,23297
201911061641,23297,23299,23296,23297
201911061642,23297,23297,23292,23295
201911061643,23295,23296,23291,23292
201911061644,23292,23292,23291,23291
201911061645,23291,23293,23286,23292
201911061646,23291,23295,23291,23294
201911061647,23294,23295,23291,23293
201911061648,23291,23293,23291,23292
201911061649,23292,23292,23292,23292
201911061650,23292,23293,23291,23292
201911061651,23292,23292,23291,23291
201911061652,23291,23292,23291,23292
201911061653,23292,23294,23291,23294
201911061654,23293,23295,23292,23292
201911061655,23292,23292,23292,23292
201911061656,23292,23292,23292,23292
201911061657,23292,23292,23291,23291
201911061658,23291,23293,23291,23292
201911061659,23292,23295,23291,23295
201911061700,23295,23297,23291,23292
201911061701,23292,23295,23291,23295
201911061702,23295,23301,23295,23296
201911061703,23297,23299,23296,23297
201911061704,23297,23300,23297,23297
201911061705,23297,23297,23287,23291
201911061706,23291,23293,23288,23292
201911061707,23292,23301,23289,23301
201911061708,23301,23306,23301,23305
201911061709,23305,23305,23301,23302
201911061710,23302,23305,23302,23304
201911061711,23304,23310,23304,23307
201911061712,23307,23308,23306,23307
201911061713,23307,23309,23306,23309
201911061714,23309,23315,23309,23312
201911061715,23312,23314,23311,23312
201911061716,23312,23312,23307,23307
201911061717,23307,23307,23301,23302
201911061718,23302,23305,23301,23305
201911061719,23305,23306,23304,23305
201911061720,23305,23306,23301,23304
201911061721,23304,23305,23303,23305
201911061722,23305,23307,23305,23307
201911061723,23307,23308,23306,23308
201911061724,23308,23315,23308,23312
201911061725,23311,23316,23311,23315
201911061726,23315,23317,23314,23316
201911061727,23316,23317,23316,23317
201911061728,23317,23321,23316,23317
201911061729,23317,23318,23316,23317
201911061730,23317,23326,23317,23322
201911061731,23322,23324,23321,23322
201911061732,23321,23331,23321,23331
201911061733,23331,23335,23331,23332
201911061734,23332,23333,23331,23332
201911061735,23332,23332,23327,23327
201911061736,23327,23329,23326,23327
201911061737,23327,23327,23326,23327
201911061738,23327,23327,23321,23323
201911061739,23323,23325,23321,23323
201911061740,23324,23325,23323,23325
201911061741,23325,23326,23322,23322
201911061742,23322,23323,23321,23322
201911061743,23322,23322,23322,23322
201911061744,23322,23327,23322,23327
201911061745,23327,23335,23326,23333
201911061746,23333,23335,23331,23332
201911061747,23332,23334,23331,23334
201911061748,23334,23335,23331,23334
201911061749,23334,23334,23331,23334
201911061750,23333,23335,23333,23335
201911061751,23335,23335,23332,23332
201911061752,23332,23332,23331,23332
201911061753,23332,23332,23326,23326
201911061754,23326,23327,23326,23327
201911061755,23326,23331,23326,23331
201911061756,23331,23334,23327,23327
201911061757,23327,23327,23326,23327
201911061758,23327,23327,23326,23327
201911061759,23327,23327,23327,23327
201911061800,23327,23327,23317,23322
201911061801,23322,23326,23322,23322
201911061802,23322,23322,23316,23317
201911061803,23317,23321,23317,23321
201911061804,23321,23322,23321,23322
201911061805,23322,23322,23321,23322
201911061806,23322,23323,23316,23321
201911061807,23321,23322,23316,23321
201911061808,23321,23322,23318,23321
201911061809,23321,23324,23320,23322
201911061810,23322,23322,23318,23321
201911061811,23321,23321,23316,23317
201911061812,23317,23317,23317,23317
201911061813,23317,23317,23316,23316
201911061814,23316,23317,23316,23317
201911061815,23317,23317,23311,23312
201911061816,23312,23316,23312,23312
201911061817,23312,23312,23312,23312
201911061818,23312,23312,23312,23312
201911061819,23312,23312,23312,23312
201911061820,23312,23312,23311,23312
201911061821,23312,23312,23307,23311
201911061822,23311,23312,23307,23312
201911061823,23312,23313,23311,23312
201911061824,23312,23312,23311,23311
201911061825,23311,23315,23311,23312
201911061826,23312,23313,23310,23311
201911061827,23311,23312,23311,23311
201911061828,23311,23312,23306,23307
201911061829,23307,23307,23305,23306
201911061830,23306,23307,23305,23306
201911061831,23306,23306,23306,23306
201911061832,23306,23307,23302,23306
201911061833,23306,23311,23306,23310
201911061834,23310,23312,23307,23312
201911061835,23312,23312,23312,23312
201911061836,23312,23312,23312,23312
201911061837,23312,23312,23306,23306
201911061838,23306,23306,23301,23302
201911061839,23302,23302,23296,23297
201911061840,23297,23300,23296,23297
201911061841,23297,23300,23296,23300
201911061842,23300,23301,23296,23297
201911061843,23297,23297,23297,23297
201911061844,23297,23297,23296,23296
201911061845,23296,23297,23295,23296
201911061846,23296,23296,23292,23292
201911061847,23292,23292,23287,23292
201911061848,23292,23292,23292,23292
201911061849,23292,23292,23290,23291
201911061850,23291,23292,23287,23291
201911061851,23291,23291,23288,23291
201911061852,23291,23291,23282,23282
201911061853,23282,23287,23281,23287
201911061854,23287,23291,23286,23290
201911061855,23290,23292,23289,23292
201911061856,23292,23292,23291,23292
201911061857,23292,23292,23290,23291
201911061858,23291,23292,23291,23291
201911061859,23291,23292,23290,23291
201911061900,23291,23292,23286,23286
201911061901,23286,23290,23286,23287
201911061902,23287,23289,23287,23287
201911061903,23287,23291,23287,23291
201911061904,23291,23295,23290,23293
201911061905,23294,23295,23291,23294
201911061906,23294,23296,23291,23295
201911061907,23295,23296,23291,23292
201911061908,23292,23292,23292,23292
201911061909,23292,23295,23291,23292
201911061910,23292,23296,23291,23295
201911061911,23296,23296,23291,23292
201911061912,23292,23293,23292,23292
201911061913,23292,23295,23292,23295
201911061914,23295,23295,23291,23292
201911061915,23292,23293,23292,23292
201911061916,23292,23292,23287,23287
201911061917,23287,23291,23287,23291
201911061918,23291,23292,23288,23291
201911061919,23291,23292,23291,23292
201911061920,23292,23295,23292,23295
201911061921,23295,23297,23294,23297
201911061922,23297,23297,23296,23297
201911061923,23297,23297,23297,23297
201911061924,23297,23298,23296,23298
201911061925,23298,23302,23296,23297
201911061926,23297,23301,23296,23301
201911061927,23300,23301,23300,23301
201911061928,23300,23305,23300,23302
201911061929,23302,23302,23301,23302
201911061930,23302,23302,23296,23297
201911061931,23297,23301,23296,23301
201911061932,23301,23302,23301,23302
201911061933,23302,23302,23301,23302
201911061934,23302,23305,23301,23305
201911061935,23305,23306,23304,23306
201911061936,23306,23306,23305,23306
201911061937,23306,23306,23304,23305
201911061938,23305,23306,23305,23306
201911061939,23306,23306,23305,23306
201911061940,23306,23306,23304,23305
201911061941,23305,23306,23305,23306
201911061942,23306,23306,23305,23305
201911061943,23305,23305,23305,23305
201911061944,23305,23305,23301,23302
201911061945,23302,23302,23302,23302
201911061946,23302,23302,23302,23302
201911061947,23302,23304,23301,23303
201911061948,23303,23303,23301,23302
201911061949,23302,23304,23302,23304
201911061950,23304,23304,23303,23304
201911061951,23304,23304,23303,23304
201911061952,23304,23304,23304,23304
201911061953,23304,23305,23304,23305
201911061954,23305,23305,23304,23305
201911061955,23305,23310,23305,23310
201911061956,23310,23310,23306,23306
201911061957,23306,23309,23306,23307
201911061958,23307,23309,23306,23307
201911061959,23307,23310,23306,23310
201911062000,23310,23310,23306,23309
201911062001,23309,23309,23306,23307
201911062002,23307,23307,23307,23307
201911062003,23307,23309,23307,23309
201911062004,23309,23315,23309,23314
201911062005,23314,23314,23311,23312
201911062006,23312,23312,23312,23312
201911062007,23312,23312,23311,23312
201911062008,23312,23312,23311,23312
201911062009,23312,23312,23311,23312
201911062010,23312,23314,23311,23311
201911062011,23313,23316,23311,23315
201911062012,23314,23314,23311,23313
201911062013,23313,23313,23312,23312
201911062014,23312,23314,23312,23312
201911062015,23312,23312,23312,23312
201911062016,23312,23312,23312,23312
201911062017,23312,23312,23311,23312
201911062018,23312,23312,23306,23310
201911062019,23310,23311,23310,23311
201911062020,23311,23312,23309,23312
201911062021,23312,23314,23310,23312
201911062022,23312,23315,23312,23314
201911062023,23314,23315,23314,23315
201911062024,23315,23315,23314,23314
201911062025,23315,23315,23311,23313
201911062026,23313,23314,23313,23314
201911062027,23314,23314,23313,23314
201911062028,23314,23315,23314,23314
201911062029,23314,23316,23314,23316
201911062030,23316,23316,23314,23314
201911062031,23314,23315,23314,23315
201911062032,23316,23316,23314,23316
201911062033,23316,23316,23314,23315
201911062034,23315,23315,23311,23314
201911062035,23314,23314,23310,23312
201911062036,23312,23312,23312,23312
201911062037,23312,23312,23312,23312
201911062038,23312,23312,23312,23312
201911062039,23312,23312,23312,23312
201911062040,23312,23312,23312,23312
201911062041,23312,23312,23312,23312
201911062042,23312,23312,23312,23312
201911062043,23312,23314,23312,23314
201911062044,23314,23314,23313,23314
201911062045,23314,23315,23314,23315
201911062046,23315,23315,23314,23315
201911062047,23315,23316,23315,23315
201911062048,23315,23315,23314,23314
201911062049,23314,23314,23312,23312
201911062050,23312,23312,23312,23312
201911062051,23312,23314,23312,23312
201911062052,23312,23312,23312,23312
201911062053,23312,23312,23311,23312
201911062054,23312,23312,23306,23307
201911062055,23307,23310,23306,23308
201911062056,23308,23310,23306,23309
201911062057,23309,23310,23306,23310
201911062058,23310,23310,23310,23310
201911062059,23310,23311,23310,23311
201911062100,23311,23311,23309,23311
201911062101,23311,23311,23311,23311
201911062102,23311,23311,23311,23311
201911062103,23311,23311,23309,23310
201911062104,23310,23310,23306,23310
201911062105,23310,23310,23310,23310
201911062106,23310,23311,23309,23310
201911062107,23310,23311,23310,23311
201911062108,23311,23311,23310,23311
201911062109,23311,23311,23309,23311
201911062110,23311,23315,23311,23314
201911062111,23314,23315,23314,23315
201911062112,23315,23315,23314,23315
201911062113,23315,23316,23315,23315
201911062114,23315,23315,23315,23315
201911062115,23315,23315,23314,23314
201911062116,23314,23316,23312,23316
201911062117,23316,23320,23316,23320
201911062118,23320,23321,23320,23321
201911062119,23321,23322,23321,23322
201911062120,23322,23322,23322,23322
201911062121,23322,23324,23322,23324
201911062122,23324,23325,23322,23324
201911062123,23324,23324,23321,23322
201911062124,23322,23322,23322,23322
201911062125,23322,23322,23322,23322
201911062126,23322,23322,23316,23318
201911062127,23319,23320,23316,23317
201911062128,23317,23319,23316,23319
201911062129,23319,23321,23318,23321
201911062130,23321,23321,23319,23320
201911062131,23320,23320,23318,23319
201911062132,23320,23321,23320,23320
201911062133,23320,23320,23316,23320
201911062134,23320,23321,23318,23320
201911062135,23320,23320,23319,23320
201911062136,23320,23321,23319,23320
201911062137,23320,23321,23319,23321
201911062138,23321,23321,23320,23321
201911062139,23321,23321,23320,23321
201911062140,23321,23322,23321,23322
201911062141,23321,23321,23320,23320
201911062142,23321,23321,23320,23321
201911062143,23321,23324,23321,23324
201911062144,23324,23324,23321,23322
201911062145,23322,23324,23321,23324
201911062146,23324,23324,23324,23324
201911062147,23324,23325,23324,23325
201911062148,23325,23325,23324,23325
201911062149,23325,23325,23325,23325
201911062150,23325,23325,23325,23325
201911062151,23325,23325,23325,23325
201911062152,23325,23325,23325,23325
201911062153,23325,23325,23325,23325
201911062154,23325,23325,23325,23325
201911062155,23325,23325,23325,23325
201911062156,23325,23325,23325,23325
201911062157,23325,23325,23325,23325
201911062158,23325,23325,23325,23325
201911062159,23325,23325,23325,23325
201911062200,23325,23326,23323,23324
201911062201,23325,23325,23321,23321
201911062202,23321,23322,23320,23320
201911062203,23320,23320,23317,23317
201911062204,23317,23321,23316,23320
201911062205,23320,23321,23320,23321
201911062206,23321,23322,23321,23322
201911062207,23322,23322,23321,23321
201911062208,23321,23321,23320,23321
201911062209,23321,23321,23320,23320
201911062210,23320,23321,23320,23320
201911062211,23320,23321,23318,23318
201911062212,23318,23321,23318,23321
201911062213,23321,23321,23320,23321
201911062214,23321,23321,23320,23321
201911062215,23321,23324,23320,23322
201911062216,23322,23322,23322,23322
201911062217,23322,23322,23322,23322
201911062218,23322,23323,23321,23322
201911062219,23322,23322,23322,23322
201911062220,23322,23324,23322,23323
201911062221,23324,23324,23321,23322
201911062222,23322,23324,23321,23324
201911062223,23324,23324,23320,23324
201911062224,23324,23324,23323,23324
201911062225,23324,23330,23324,23326
201911062226,23326,23330,23326,23328
201911062227,23329,23329,23326,23327
201911062228,23327,23329,23326,23328
201911062229,23328,23329,23325,23327
201911062230,23327,23327,23321,23326
201911062231,23326,23326,23323,23325
201911062232,23324,23326,23321,23325
201911062233,23325,23326,23321,23326
201911062234,23326,23326,23325,23325
201911062235,23325,23326,23325,23326
201911062236,23326,23326,23325,23326
201911062237,23326,23326,23325,23326
201911062238,23326,23327,23325,23325
201911062239,23325,23326,23325,23326
201911062240,23326,23331,23326,23331
201911062241,23331,23331,23330,23331
201911062242,23331,23331,23330,23331
201911062243,23331,23331,23330,23331
201911062244,23331,23331,23330,23330
201911062245,23331,23331,23330,23331
201911062246,23331,23331,23331,23331
201911062247,23331,23331,23331,23331
201911062248,23331,23331,23330,23330
201911062249,23330,23331,23330,23330
201911062250,23330,23330,23330,23330
201911062251,23330,23330,23329,23330
201911062252,23330,23330,23330,23330
201911062253,23330,23330,23326,23329
201911062254,23329,23330,23325,23330
201911062255,23330,23330,23330,23330
201911062256,23330,23330,23330,23330
201911062257,23330,23330,23330,23330
201911062258,23330,23330,23330,23330
201911062259,23330,23330,23328,23329
201911062300,23329,23329,23326,23327
201911062301,23327,23327,23327,23327
201911062302,23327,23327,23327,23327
201911062303,23327,23327,23327,23327
201911062304,23327,23327,23327,23327
201911062305,23327,23327,23323,23326
201911062306,23326,23326,23321,23324
201911062307,23324,23325,23321,23325
201911062308,23325,23325,23321,23324
201911062309,23324,23325,23324,23325
201911062310,23324,23325,23321,23324
201911062311,23324,23325,23321,23324
201911062312,23324,23324,23323,23324
201911062313,23324,23325,23324,23325
201911062314,23325,23325,23324,23325
201911062315,23325,23325,23325,23325
201911062316,23326,23326,23325,23326
201911062317,23326,23326,23322,23322
201911062318,23322,23326,23322,23325
201911062319,23325,23326,23325,23326
201911062320,23326,23326,23325,23326
201911062321,23326,23326,23325,23326
201911062322,23325,23326,23323,23324
201911062323,23324,23326,23324,23325
201911062324,23325,23326,23324,23324
201911062325,23325,23325,23323,23324
201911062326,23324,23325,23323,23325
201911062327,23325,23325,23321,23323
201911062328,23323,23323,23316,23317
201911062329,23317,23317,23314,23314
201911062330,23314,23316,23301,23302
201911062331,23302,23306,23302,23304
201911062332,23304,23304,23296,23296
201911062333,23296,23297,23292,23294
201911062334,23295,23295,23291,23292
201911062335,23292,23293,23292,23292
201911062336,23292,23298,23287,23297
201911062337,23297,23298,23291,23292
201911062338,23292,23295,23291,23292
201911062339,23292,23296,23291,23295
201911062340,23295,23297,23291,23293
201911062341,23293,23297,23292,23296
201911062342,23296,23300,23296,23300
201911062343,23300,23309,23300,23309
201911062344,23309,23309,23306,23307
201911062345,23307,23310,23307,23308
201911062346,23308,23310,23306,23307
201911062347,23307,23310,23306,23307
201911062348,23307,23309,23306,23307
201911062349,23307,23307,23305,23306
201911062350,23306,23307,23302,23305
201911062351,23305,23312,23305,23311
201911062352,23311,23311,23306,23307
201911062353,23307,23310,23306,23309
201911062354,23309,23311,23308,23311
201911062355,23311,23317,23311,23315
201911062356,23315,23317,23313,23316
201911062357,23316,23322,23316,23322
201911062358,23322,23324,23321,23322
201911062359,23321,23323,23321,23322
201911070000,23322,23329,23321,23327
201911070001,23327,23327,23326,23326
201911070002,23326,23327,23326,23327
201911070003,23327,23327,23321,23322
201911070004,23322,23322,23316,23317
201911070005,23317,23325,23316,23323
201911070006,23323,23324,23321,23322
201911070007,23322,23322,23321,23321
201911070008,23321,23322,23318,23322
201911070009,23322,23323,23321,23323
201911070010,23323,23327,23321,23327
201911070011,23327,23327,23326,23327
201911070012,23327,23327,23325,23326
201911070013,23326,23330,23325,23327
201911070014,23327,23327,23327,23327
201911070015,23327,23327,23321,23325
201911070016,23325,23327,23325,23327
201911070017,23327,23327,23325,23326
201911070018,23326,23327,23321,23325
201911070019,23325,23326,23324,23324
201911070020,23324,23324,23321,23324
201911070021,23324,23325,23321,23325
201911070022,23325,23325,23321,23322
201911070023,23322,23322,23320,23321
201911070024,23321,23326,23321,23326
201911070025,23326,23327,23326,23327
201911070026,23327,23327,23326,23327
201911070027,23327,23327,23321,23322
201911070028,23322,23322,23316,23317
201911070029,23317,23321,23317,23321
201911070030,23321,23321,23316,23317
201911070031,23317,23322,23317,23321
201911070032,23321,23322,23316,23317
201911070033,23317,23322,23316,23321
201911070034,23321,23322,23317,23317
201911070035,23317,23317,23317,23317
201911070036,23317,23317,23316,23317
201911070037,23317,23321,23316,23317
201911070038,23317,23321,23317,23321
201911070039,23321,23322,23316,23322
201911070040,23322,23322,23321,23322
201911070041,23322,23322,23322,23322
201911070042,23322,23326,23322,23326
201911070043,23326,23327,23326,23327
201911070044,23327,23327,23325,23326
201911070045,23327,23330,23326,23329
201911070046,23329,23329,23326,23328
201911070047,23328,23330,23326,23328
201911070048,23328,23329,23326,23329
201911070049,23329,23329,23326,23327
201911070050,23327,23327,23324,23326
201911070051,23326,23326,23321,23323
201911070052,23323,23325,23321,23324
201911070053,23324,23324,23322,23323
201911070054,23323,23324,23321,23322
201911070055,23322,23322,23316,23317
201911070056,23317,23324,23317,23321
201911070057,23323,23324,23321,23323
201911070058,23321,23322,23321,23322
201911070059,23322,23322,23317,23321
201911070100,23322,23327,23321,23326
201911070101,23326,23326,23322,23322
201911070102,23322,23322,23318,23322
201911070103,23322,23324,23321,23322
201911070104,23322,23325,23321,23325
201911070105,23325,23327,23325,23327
201911070106,23327,23328,23326,23327
201911070107,23327,23329,23325,23329
201911070108,23329,23329,23328,23329
201911070109,23329,23330,23328,23330
201911070110,23330,23330,23329,23330
201911070111,23330,23330,23329,23330
201911070112,23330,23330,23329,23330
201911070113,23330,23330,23325,23329
201911070114,23329,23329,23326,23327
201911070115,23327,23330,23327,23329
201911070116,23329,23330,23328,23329
201911070117,23329,23329,23326,23327
201911070118,23327,23327,23327,23327
201911070119,23327,23329,23327,23329
201911070120,23329,23329,23328,23329
201911070121,23329,23330,23329,23329
201911070122,23329,23330,23327,23327
201911070123,23327,23329,23326,23327
201911070124,23327,23327,23327,23327
201911070125,23327,23327,23327,23327
201911070126,23327,23329,23327,23329
201911070127,23328,23329,23325,23327
201911070128,23327,23327,23326,23326
201911070129,23327,23329,23326,23329
201911070130,23329,23330,23327,23330
201911070131,23330,23331,23330,23330
201911070132,23330,23335,23330,23334
201911070133,23334,23342,23334,23340
201911070134,23340,23341,23339,23340
201911070135,23341,23344,23340,23341
201911070136,23341,23342,23340,23342
201911070137,23342,23342,23339,23341
201911070138,23341,23341,23337,23341
201911070139,23341,23342,23340,23342
201911070140,23342,23342,23341,23341
201911070141,23341,23342,23340,23342
201911070142,23342,23345,23341,23344
201911070143,23344,23350,23344,23345
201911070144,23345,23371,23299,23302
201911070145,23301,23331,23286,23324
201911070146,23324,23329,23312,23321
201911070147,23321,23331,23311,23312
201911070148,23312,23312,23286,23289
201911070149,23289,23302,23282,23296
201911070150,23294,23294,23281,23282
201911070151,23282,23282,23266,23277
201911070152,23277,23279,23257,23261
201911070153,23261,23271,23256,23259
201911070154,23259,23262,23252,23259
201911070155,23259,23275,23255,23275
201911070156,23274,23277,23271,23276
201911070157,23276,23281,23274,23276
201911070158,23277,23282,23276,23282
201911070159,23282,23285,23277,23282
201911070200,23280,23282,23276,23279
201911070201,23279,23281,23273,23280
201911070202,23282,23292,23280,23289
201911070203,23289,23290,23283,23286
201911070204,23286,23295,23285,23294
201911070205,23294,23301,23290,23299
201911070206,23299,23302,23298,23300
201911070207,23300,23305,23295,23301
201911070208,23301,23307,23300,23305
201911070209,23305,23307,23300,23301
201911070210,23301,23305,23294,23294
201911070211,23295,23297,23291,23292
201911070212,23292,23302,23292,23296
201911070213,23296,23302,23295,23297
201911070214,23296,23302,23296,23301
201911070215,23301,23302,23295,23296
201911070216,23296,23302,23295,23296
201911070217,23296,23297,23291,23292
201911070218,23292,23292,23286,23287
201911070219,23287,23292,23286,23290
201911070220,23290,23292,23286,23290
201911070221,23291,23297,23290,23292
201911070222,23292,23292,23291,23291
201911070223,23292,23292,23285,23286
201911070224,23286,23291,23285,23290
201911070225,23290,23291,23286,23286
201911070226,23286,23287,23274,23277
201911070227,23277,23277,23270,23271
201911070228,23271,23271,23265,23267
201911070229,23267,23269,23265,23267
201911070230,23267,23268,23261,23267
201911070231,23267,23267,23266,23267
201911070232,23267,23269,23262,23262
201911070233,23262,23264,23260,23262
201911070234,23262,23265,23260,23265
201911070235,23265,23267,23261,23267
201911070236,23267,23272,23267,23271
201911070237,23271,23272,23269,23272
201911070238,23272,23277,23271,23277
201911070239,23277,23277,23270,23274
201911070240,23274,23277,23274,23277
201911070241,23276,23277,23273,23274
201911070242,23274,23275,23270,23272
201911070243,23272,23272,23265,23271
201911070244,23270,23271,23266,23270
201911070245,23270,23270,23265,23268
201911070246,23268,23268,23265,23266
201911070247,23266,23267,23261,23262
201911070248,23261,23264,23258,23258
201911070249,23258,23266,23258,23266
201911070250,23266,23269,23266,23267
201911070251,23267,23267,23265,23267
201911070252,23267,23267,23265,23266
201911070253,23266,23267,23262,23262
201911070254,23262,23262,23256,23258
201911070255,23258,23260,23257,23259
201911070256,23259,23261,23256,23257
201911070257,23257,23260,23255,23258
201911070258,23258,23262,23255,23261
201911070259,23260,23266,23260,23266
201911070300,23267,23271,23266,23267
201911070301,23267,23267,23260,23261
201911070302,23262,23263,23257,23262
201911070303,23262,23262,23255,23261
201911070304,23261,23262,23255,23257
201911070305,23257,23259,23255,23256
201911070306,23256,23257,23251,23254
201911070307,23254,23257,23250,23253
201911070308,23254,23254,23250,23252
201911070309,23252,23255,23250,23252
201911070310,23252,23257,23250,23257
201911070311,23257,23257,23250,23255
201911070312,23255,23260,23255,23260
201911070313,23260,23265,23259,23262
201911070314,23262,23267,23261,23266
201911070315,23266,23272,23266,23271
201911070316,23271,23272,23270,23272
201911070317,23272,23276,23270,23272
201911070318,23272,23272,23265,23267
201911070319,23269,23272,23268,23272
201911070320,23271,23281,23270,23276
201911070321,23276,23281,23275,23278
201911070322,23278,23282,23277,23279
201911070323,23279,23282,23278,23282
201911070324,23282,23285,23280,23281
201911070325,23281,23282,23276,23278
201911070326,23278,23281,23278,23281
201911070327,23281,23282,23279,23281
201911070328,23281,23284,23280,23282
201911070329,23282,23282,23280,23282
201911070330,23282,23284,23280,23282
201911070331,23282,23282,23281,23282
201911070332,23282,23282,23276,23277
201911070333,23277,23279,23276,23277
201911070334,23277,23277,23276,23276
201911070335,23276,23277,23270,23276
201911070336,23276,23277,23273,23273
201911070337,23273,23273,23267,23272
201911070338,23272,23277,23270,23277
201911070339,23277,23277,23275,23277
201911070340,23277,23281,23275,23276
201911070341,23276,23283,23275,23282
201911070342,23282,23282,23280,23282
201911070343,23282,23282,23276,23280
201911070344,23280,23284,23278,23284
201911070345,23284,23287,23281,23282
201911070346,23282,23282,23281,23282
201911070347,23282,23282,23281,23282
201911070348,23282,23282,23275,23282
201911070349,23282,23282,23281,23282
201911070350,23282,23285,23280,23284
201911070351,23284,23287,23283,23287
201911070352,23287,23290,23285,23290
201911070353,23291,23293,23290,23292
201911070354,23292,23297,23291,23297
201911070355,23297,23302,23295,23296
201911070356,23296,23300,23295,23296
201911070357,23296,23302,23295,23301
201911070358,23301,23302,23299,23300
201911070359,23300,23302,23300,23302
201911070400,23301,23305,23301,23304
201911070401,23304,23307,23302,23302
201911070402,23302,23302,23295,23297
201911070403,23297,23298,23295,23295
201911070404,23295,23296,23290,23296
201911070405,23296,23297,23291,23292
201911070406,23292,23293,23290,23290
201911070407,23290,23295,23290,23294
201911070408,23294,23297,23291,23297
201911070409,23297,23297,23290,23292
201911070410,23292,23293,23291,23292
201911070411,23292,23292,23291,23292
201911070412,23292,23292,23286,23291
201911070413,23291,23292,23288,23290
201911070414,23290,23292,23290,23290
201911070415,23290,23292,23290,23292
201911070416,23292,23292,23291,23292
201911070417,23292,23295,23290,23292
201911070418,23292,23292,23289,23290
201911070419,23290,23291,23285,23287
201911070420,23287,23291,23285,23286
201911070421,23286,23287,23284,23286
201911070422,23286,23286,23280,23282
201911070423,23281,23281,23270,23270
201911070424,23274,23281,23270,23281
201911070425,23283,23287,23282,23284
201911070426,23284,23286,23284,23284
201911070427,23284,23284,23280,23281
201911070428,23281,23282,23280,23282
201911070429,23282,23282,23278,23282
201911070430,23282,23285,23280,23281
201911070431,23282,23285,23280,23283
201911070432,23283,23283,23281,23282
201911070433,23282,23282,23280,23281
201911070434,23281,23281,23276,23277
201911070435,23277,23281,23275,23277
201911070436,23277,23279,23276,23277
201911070437,23277,23277,23271,23272
201911070438,23272,23277,23271,23277
201911070439,23277,23277,23275,23275
201911070440,23275,23280,23275,23280
201911070441,23280,23281,23276,23276
201911070442,23276,23282,23275,23280
201911070443,23280,23282,23280,23282
201911070444,23282,23282,23279,23280
201911070445,23280,23282,23280,23282
201911070446,23282,23282,23275,23281
201911070447,23281,23282,23278,23279
201911070448,23279,23282,23279,23280
201911070449,23280,23284,23280,23281
201911070450,23281,23282,23280,23280
201911070451,23280,23283,23280,23282
201911070452,23282,23282,23277,23281
201911070453,23282,23282,23277,23281
201911070454,23281,23282,23278,23282
201911070455,23282,23282,23280,23282
201911070456,23282,23282,23281,23282
201911070457,23282,23282,23282,23282
201911070458,23282,23282,23282,23282
201911070459,23282,23286,23280,23285
201911070500,23285,23285,23280,23282
201911070501,23282,23282,23282,23282
201911070502,23282,23282,23276,23278
201911070503,23278,23282,23278,23282
201911070504,23282,23282,23281,23282
201911070505,23282,23282,23282,23282
201911070506,23282,23282,23275,23281
201911070507,23281,23281,23275,23276
201911070508,23276,23277,23272,23272
201911070509,23271,23277,23271,23277
201911070510,23277,23283,23276,23281
201911070511,23281,23287,23280,23287
201911070512,23287,23287,23280,23281
201911070513,23281,23282,23280,23282
201911070514,23282,23282,23280,23280
201911070515,23280,23282,23280,23282
201911070516,23282,23282,23280,23282
201911070517,23282,23284,23280,23282
201911070518,23282,23284,23280,23282
201911070519,23282,23283,23280,23282
201911070520,23283,23287,23281,23287
201911070521,23287,23287,23286,23287
201911070522,23287,23287,23285,23286
201911070523,23286,23287,23285,23287
201911070524,23287,23287,23287,23287
201911070525,23287,23287,23285,23285
201911070526,23285,23286,23281,23284
201911070527,23284,23285,23281,23285
201911070528,23285,23285,23284,23284
201911070529,23284,23284,23282,23282
201911070530,23282,23282,23281,23282
201911070531,23282,23282,23282,23282
201911070532,23282,23282,23282,23282
201911070533,23282,23283,23281,23282
201911070534,23282,23285,23280,23285
201911070535,23285,23286,23285,23286
201911070536,23286,23287,23286,23287
201911070537,23287,23292,23286,23292
201911070538,23292,23296,23292,23296
201911070539,23296,23296,23294,23294
201911070540,23295,23295,23286,23288
201911070541,23288,23289,23286,23288
201911070542,23288,23289,23288,23289
201911070543,23289,23290,23288,23289
201911070544,23289,23290,23287,23287
201911070545,23287,23291,23285,23290
201911070546,23290,23292,23290,23292
201911070547,23292,23292,23291,23291
201911070548,23291,23292,23291,23292
201911070549,23292,23297,23290,23297
201911070550,23297,23300,23295,23297
201911070551,23297,23297,23296,23297
201911070552,23297,23298,23294,23297
201911070553,23297,23298,23294,23295
201911070554,23295,23306,23294,23306
201911070555,23306,23307,23300,23301
201911070556,23301,23307,23300,23306
201911070557,23305,23305,23301,23304
201911070558,23304,23305,23302,23302
201911070559,23302,23306,23290,23301
201911070600,23301,23301,23295,23296
201911070601,23296,23299,23295,23298
201911070602,23298,23303,23297,23302
201911070603,23302,23310,23302,23307
201911070604,23307,23307,23300,23307
201911070605,23307,23307,23303,23304
201911070606,23304,23305,23304,23305
201911070607,23305,23305,23304,23305
201911070608,23305,23307,23305,23306
201911070609,23306,23307,23305,23305
201911070610,23305,23307,23305,23307
201911070611,23307,23307,23304,23305
201911070612,23305,23306,23300,23301
201911070613,23301,23301,23300,23301
201911070614,23301,23305,23300,23305
201911070615,23305,23305,23300,23301
201911070616,23301,23301,23301,23301
201911070617,23301,23301,23301,23301
201911070618,23301,23301,23301,23301
201911070619,23301,23301,23301,23301
201911070620,23301,23301,23301,23301
201911070621,23301,23301,23301,23301
201911070622,23301,23301,23301,23301
201911070623,23301,23301,23301,23301
201911070624,23301,23301,23301,23301
201911070625,23301,23302,23301,23301
201911070626,23301,23302,23301,23302
201911070627,23302,23302,23302,23302
201911070628,23302,23302,23301,23302
201911070629,23302,23302,23302,23302
201911070630,23302,23303,23301,23302
201911070631,23302,23306,23302,23306
201911070632,23306,23308,23306,23307
201911070633,23307,23308,23307,23308
201911070634,23307,23314,23307,23314
201911070635,23314,23314,23310,23310
201911070636,23310,23310,23307,23307
201911070637,23307,23309,23307,23309
201911070638,23309,23309,23309,23309
201911070639,23309,23310,23307,23307
201911070640,23307,23309,23307,23309
201911070641,23309,23309,23309,23309
201911070642,23309,23311,23309,23310
201911070643,23310,23311,23310,23311
201911070644,23311,23311,23310,23311
201911070645,23311,23311,23311,23311
201911070646,23311,23311,23311,23311
201911070647,23311,23311,23311,23311
201911070648,23311,23311,23311,23311
201911070649,23311,23311,23311,23311
201911070650,23311,23311,23310,23311
201911070651,23311,23311,23310,23311
201911070652,23311,23312,23311,23311
201911070653,23311,23312,23310,23311
201911070654,23311,23311,23311,23311
201911070655,23311,23315,23311,23315
201911070656,23315,23315,23311,23312
201911070657,23312,23317,23312,23316
201911070658,23316,23316,23315,23315
201911070659,23315,23316,23311,23311
