日時,始値(BID),高値(BID),安値(BID),終値(BID)
201911270830,23431,23444,23431,23441
201911270831,23441,23442,23430,23430
201911270832,23430,23432,23425,23432
201911270833,23432,23436,23431,23432
201911270834,23432,23432,23428,23430
201911270835,23430,23442,23430,23441
201911270836,23441,23441,23438,23440
201911270837,23440,23441,23437,23441
201911270838,23441,23442,23441,23442
201911270839,23442,23442,23440,23442
201911270840,23442,23451,23442,23446
201911270841,23446,23452,23445,23452
201911270842,23452,23452,23452,23452
201911270843,23452,23457,23450,23455
201911270844,23455,23457,23452,23457
201911270845,23457,23462,23451,23452
201911270846,23452,23452,23446,23452
201911270847,23452,23462,23452,23457
201911270848,23457,23463,23456,23461
201911270849,23461,23464,23461,23464
201911270850,23464,23464,23461,23464
201911270851,23464,23465,23461,23464
201911270852,23464,23464,23461,23462
201911270853,23462,23462,23459,23460
201911270854,23459,23460,23456,23456
201911270855,23456,23456,23453,23453
201911270856,23453,23455,23451,23451
201911270857,23451,23455,23451,23452
201911270858,23452,23456,23452,23455
201911270859,23455,23456,23445,23446
201911270900,23446,23460,23445,23459
201911270901,23459,23466,23459,23465
201911270902,23465,23476,23465,23472
201911270903,23472,23472,23455,23457
201911270904,23457,23469,23451,23468
201911270905,23469,23470,23461,23462
201911270906,23462,23462,23451,23458
201911270907,23458,23458,23446,23452
201911270908,23452,23452,23436,23440
201911270909,23440,23443,23437,23442
201911270910,23442,23452,23442,23452
201911270911,23451,23457,23441,23456
201911270912,23456,23465,23456,23465
201911270913,23465,23465,23441,23446
201911270914,23446,23452,23436,23441
201911270915,23442,23449,23441,23443
201911270916,23443,23462,23443,23454
201911270917,23453,23460,23453,23460
201911270918,23460,23465,23459,23465
201911270919,23465,23472,23461,23472
201911270920,23472,23474,23466,23474
201911270921,23473,23474,23466,23468
201911270922,23468,23482,23468,23481
201911270923,23481,23482,23477,23482
201911270924,23482,23485,23479,23485
201911270925,23485,23494,23485,23492
201911270926,23492,23494,23486,23491
201911270927,23491,23502,23491,23501
201911270928,23501,23502,23491,23492
201911270929,23492,23493,23472,23475
201911270930,23475,23477,23467,23472
201911270931,23472,23472,23466,23466
201911270932,23466,23466,23436,23438
201911270933,23438,23450,23426,23442
201911270934,23442,23452,23436,23451
201911270935,23451,23452,23442,23442
201911270936,23442,23442,23421,23423
201911270937,23423,23428,23413,23426
201911270938,23426,23431,23423,23428
201911270939,23428,23432,23423,23432
201911270940,23432,23444,23431,23442
201911270941,23442,23443,23435,23437
201911270942,23437,23450,23437,23449
201911270943,23449,23450,23443,23444
201911270944,23444,23444,23438,23441
201911270945,23441,23442,23441,23442
201911270946,23442,23451,23442,23449
201911270947,23449,23455,23448,23448
201911270948,23448,23450,23446,23449
201911270949,23448,23457,23448,23456
201911270950,23456,23457,23454,23456
201911270951,23456,23459,23456,23457
201911270952,23457,23457,23457,23457
201911270953,23457,23461,23457,23458
201911270954,23458,23466,23458,23465
201911270955,23465,23470,23465,23468
201911270956,23468,23471,23461,23464
201911270957,23464,23464,23458,23461
201911270958,23461,23462,23456,23461
201911270959,23461,23464,23461,23464
201911271000,23464,23468,23463,23467
201911271001,23467,23468,23463,23463
201911271002,23463,23464,23461,23461
201911271003,23461,23463,23456,23461
201911271004,23461,23463,23458,23460
201911271005,23460,23461,23457,23460
201911271006,23460,23462,23458,23460
201911271007,23460,23464,23460,23464
201911271008,23464,23465,23461,23464
201911271009,23464,23469,23463,23467
201911271010,23467,23469,23464,23466
201911271011,23466,23466,23462,23465
201911271012,23465,23467,23464,23467
201911271013,23467,23467,23466,23467
201911271014,23467,23467,23467,23467
201911271015,23467,23467,23462,23464
201911271016,23462,23463,23456,23457
201911271017,23457,23457,23452,23452
201911271018,23451,23457,23450,23457
201911271019,23457,23467,23457,23467
201911271020,23467,23471,23466,23467
201911271021,23467,23467,23453,23454
201911271022,23454,23459,23451,23458
201911271023,23458,23461,23457,23458
201911271024,23458,23462,23454,23454
201911271025,23454,23462,23453,23459
201911271026,23459,23459,23456,23457
201911271027,23457,23459,23456,23456
201911271028,23455,23457,23453,23457
201911271029,23457,23459,23456,23457
201911271030,23457,23464,23454,23454
201911271031,23454,23455,23446,23449
201911271032,23449,23454,23446,23451
201911271033,23451,23452,23448,23452
201911271034,23449,23452,23448,23452
201911271035,23452,23453,23447,23449
201911271036,23449,23449,23446,23447
201911271037,23447,23449,23446,23448
201911271038,23448,23449,23446,23449
201911271039,23449,23449,23433,23434
201911271040,23434,23444,23434,23443
201911271041,23443,23450,23443,23448
201911271042,23448,23462,23444,23458
201911271043,23458,23469,23457,23463
201911271044,23463,23469,23463,23467
201911271045,23467,23470,23463,23464
201911271046,23464,23464,23458,23461
201911271047,23461,23463,23455,23456
201911271048,23456,23464,23456,23463
201911271049,23463,23466,23462,23466
201911271050,23466,23470,23466,23470
201911271051,23470,23471,23463,23463
201911271052,23463,23465,23461,23465
201911271053,23465,23469,23465,23467
201911271054,23467,23469,23463,23464
201911271055,23463,23465,23463,23465
201911271056,23465,23465,23461,23461
201911271057,23461,23464,23458,23459
201911271058,23459,23459,23451,23452
201911271059,23452,23457,23452,23455
201911271100,23455,23458,23454,23457
201911271101,23457,23457,23456,23457
201911271102,23457,23457,23452,23452
201911271103,23452,23452,23446,23452
201911271104,23452,23452,23446,23449
201911271105,23449,23452,23448,23451
201911271106,23451,23454,23451,23454
201911271107,23454,23456,23453,23455
201911271108,23455,23456,23453,23453
201911271109,23453,23454,23453,23454
201911271110,23454,23459,23454,23457
201911271111,23457,23457,23450,23452
201911271112,23452,23453,23451,23452
201911271113,23452,23454,23451,23454
201911271114,23454,23455,23453,23454
201911271115,23455,23459,23454,23456
201911271116,23456,23457,23453,23455
201911271117,23454,23455,23453,23454
201911271118,23454,23457,23453,23454
201911271119,23454,23458,23454,23456
201911271120,23456,23457,23451,23453
201911271121,23453,23456,23453,23453
201911271122,23453,23456,23453,23454
201911271123,23454,23456,23454,23454
201911271124,23454,23459,23454,23458
201911271125,23458,23461,23458,23459
201911271126,23459,23461,23459,23461
201911271127,23461,23462,23461,23462
201911271128,23461,23461,23453,23457
201911271129,23457,23457,23453,23454
201911271130,23454,23459,23453,23454
201911271131,23453,23454,23451,23452
201911271132,23452,23454,23451,23453
201911271133,23453,23454,23451,23451
201911271134,23451,23452,23446,23449
201911271135,23450,23453,23449,23452
201911271136,23451,23452,23450,23450
201911271137,23450,23451,23447,23447
201911271138,23447,23447,23446,23447
201911271139,23447,23450,23446,23447
201911271140,23446,23451,23446,23447
201911271141,23447,23447,23447,23447
201911271142,23447,23447,23441,23444
201911271143,23444,23446,23443,23443
201911271144,23443,23445,23443,23445
201911271145,23445,23445,23444,23445
201911271146,23445,23450,23444,23450
201911271147,23450,23450,23443,23444
201911271148,23444,23447,23443,23447
201911271149,23447,23448,23444,23446
201911271150,23448,23449,23444,23445
201911271151,23445,23446,23444,23445
201911271152,23445,23446,23445,23445
201911271153,23445,23445,23444,23445
201911271154,23445,23450,23445,23446
201911271155,23446,23447,23446,23447
201911271156,23447,23450,23446,23450
201911271157,23450,23452,23446,23447
201911271158,23447,23447,23446,23446
201911271159,23446,23449,23446,23449
201911271200,23449,23451,23446,23451
201911271201,23451,23451,23450,23451
201911271202,23451,23456,23451,23456
201911271203,23456,23456,23456,23456
201911271204,23456,23457,23456,23456
201911271205,23456,23457,23456,23457
201911271206,23457,23457,23457,23457
201911271207,23457,23457,23456,23456
201911271208,23456,23457,23456,23456
201911271209,23456,23456,23456,23456
201911271210,23456,23457,23456,23456
201911271211,23456,23457,23456,23456
201911271212,23456,23456,23456,23456
201911271213,23456,23456,23453,23455
201911271214,23455,23457,23455,23457
201911271215,23457,23462,23456,23457
201911271216,23457,23457,23451,23453
201911271217,23453,23455,23451,23455
201911271218,23455,23455,23453,23454
201911271219,23454,23456,23453,23456
201911271220,23457,23459,23456,23457
201911271221,23457,23457,23457,23457
201911271222,23457,23457,23452,23452
201911271223,23452,23454,23451,23452
201911271224,23452,23452,23452,23452
201911271225,23452,23452,23452,23452
201911271226,23452,23452,23452,23452
201911271227,23452,23452,23452,23452
201911271228,23452,23452,23451,23452
201911271229,23452,23457,23452,23457
201911271230,23457,23463,23454,23462
201911271231,23462,23464,23462,23464
201911271232,23464,23466,23464,23466
201911271233,23466,23466,23464,23464
201911271234,23464,23466,23464,23465
201911271235,23465,23466,23465,23466
201911271236,23465,23472,23465,23471
201911271237,23471,23477,23471,23477
201911271238,23477,23477,23477,23477
201911271239,23477,23477,23477,23477
201911271240,23477,23482,23474,23482
201911271241,23482,23486,23481,23482
201911271242,23482,23484,23481,23481
201911271243,23481,23484,23481,23483
201911271244,23483,23489,23482,23487
201911271245,23487,23487,23487,23487
201911271246,23487,23490,23487,23490
201911271247,23490,23490,23489,23490
201911271248,23490,23493,23490,23492
201911271249,23492,23492,23486,23487
201911271250,23487,23487,23486,23486
201911271251,23486,23486,23482,23482
201911271252,23482,23482,23477,23477
201911271253,23477,23479,23477,23477
201911271254,23477,23477,23473,23474
201911271255,23474,23480,23474,23479
201911271256,23479,23479,23476,23476
201911271257,23476,23479,23476,23478
201911271258,23478,23479,23476,23479
201911271259,23479,23480,23479,23479
201911271300,23479,23479,23478,23479
201911271301,23479,23484,23479,23482
201911271302,23482,23482,23482,23482
201911271303,23482,23482,23482,23482
201911271304,23482,23482,23482,23482
201911271305,23482,23484,23481,23482
201911271306,23482,23484,23481,23484
201911271307,23484,23484,23484,23484
201911271308,23484,23485,23482,23483
201911271309,23483,23483,23476,23479
201911271310,23479,23479,23476,23479
201911271311,23479,23479,23478,23479
201911271312,23479,23479,23478,23479
201911271313,23479,23479,23478,23478
201911271314,23478,23479,23473,23475
201911271315,23475,23477,23473,23474
201911271316,23474,23474,23471,23472
201911271317,23472,23473,23472,23472
201911271318,23472,23473,23471,23472
201911271319,23472,23472,23472,23472
201911271320,23472,23472,23471,23471
201911271321,23471,23472,23471,23472
201911271322,23472,23472,23472,23472
201911271323,23472,23472,23472,23472
201911271324,23472,23488,23472,23487
201911271325,23487,23494,23486,23487
201911271326,23487,23487,23487,23487
201911271327,23487,23487,23487,23487
201911271328,23487,23487,23487,23487
201911271329,23487,23490,23487,23489
201911271330,23489,23491,23488,23490
201911271331,23490,23491,23490,23491
201911271332,23491,23491,23490,23491
201911271333,23491,23491,23490,23490
201911271334,23491,23491,23490,23491
201911271335,23491,23491,23491,23491
201911271336,23491,23494,23491,23494
201911271337,23494,23494,23492,23494
201911271338,23494,23494,23491,23493
201911271339,23493,23494,23491,23491
201911271340,23492,23492,23491,23492
201911271341,23492,23492,23491,23492
201911271342,23492,23492,23492,23492
201911271343,23492,23492,23491,23491
201911271344,23491,23491,23487,23490
201911271345,23490,23492,23490,23492
201911271346,23492,23492,23486,23486
201911271347,23486,23487,23486,23487
201911271348,23486,23487,23483,23483
201911271349,23482,23484,23482,23483
201911271350,23483,23490,23483,23487
201911271351,23487,23487,23486,23486
201911271352,23486,23486,23485,23485
201911271353,23485,23485,23485,23485
201911271354,23485,23485,23485,23485
201911271355,23485,23486,23485,23486
201911271356,23486,23486,23485,23486
201911271357,23486,23487,23485,23485
201911271358,23485,23487,23485,23485
201911271359,23485,23485,23485,23485
201911271400,23485,23487,23484,23485
201911271401,23485,23487,23482,23486
201911271402,23486,23486,23483,23484
201911271403,23484,23484,23481,23484
201911271404,23484,23484,23484,23484
201911271405,23484,23484,23483,23484
201911271406,23484,23484,23482,23482
201911271407,23482,23482,23482,23482
201911271408,23482,23482,23481,23481
201911271409,23481,23481,23473,23474
201911271410,23474,23479,23473,23477
201911271411,23477,23477,23473,23473
201911271412,23473,23473,23472,23472
201911271413,23472,23479,23472,23478
201911271414,23478,23478,23477,23477
201911271415,23477,23477,23477,23477
201911271416,23477,23477,23477,23477
201911271417,23477,23477,23477,23477
201911271418,23477,23477,23471,23474
201911271419,23474,23477,23474,23476
201911271420,23476,23477,23476,23477
201911271421,23477,23477,23477,23477
201911271422,23477,23477,23476,23477
201911271423,23477,23477,23476,23476
201911271424,23476,23477,23476,23476
201911271425,23476,23477,23473,23474
201911271426,23474,23474,23472,23474
201911271427,23474,23474,23472,23472
201911271428,23472,23472,23462,23463
201911271429,23463,23464,23461,23464
201911271430,23464,23474,23464,23474
201911271431,23474,23474,23463,23464
201911271432,23464,23466,23463,23465
201911271433,23465,23469,23465,23467
201911271434,23467,23467,23462,23462
201911271435,23462,23464,23462,23462
201911271436,23462,23464,23461,23464
201911271437,23464,23465,23463,23464
201911271438,23464,23465,23464,23465
201911271439,23465,23466,23465,23465
201911271440,23465,23466,23462,23462
201911271441,23462,23462,23462,23462
201911271442,23462,23462,23462,23462
201911271443,23462,23462,23462,23462
201911271444,23462,23462,23461,23461
201911271445,23461,23464,23457,23461
201911271446,23461,23462,23461,23461
201911271447,23461,23461,23456,23459
201911271448,23459,23459,23452,23452
201911271449,23452,23452,23452,23452
201911271450,23452,23454,23451,23454
201911271451,23454,23457,23454,23457
201911271452,23457,23459,23456,23459
201911271453,23459,23460,23459,23460
201911271454,23460,23460,23460,23460
201911271455,23460,23460,23454,23457
201911271456,23457,23458,23453,23454
201911271457,23454,23455,23452,23455
201911271458,23455,23457,23454,23455
201911271459,23454,23454,23449,23452
201911271500,23450,23460,23441,23456
201911271501,23456,23457,23454,23455
201911271502,23454,23460,23454,23460
201911271503,23460,23460,23457,23457
201911271504,23456,23457,23455,23456
201911271505,23456,23457,23456,23456
201911271506,23456,23456,23453,23453
201911271507,23453,23454,23447,23447
201911271508,23447,23447,23447,23447
201911271509,23447,23447,23443,23447
201911271510,23447,23447,23444,23445
201911271511,23445,23456,23444,23456
201911271512,23456,23469,23456,23466
201911271513,23466,23472,23466,23472
201911271514,23472,23474,23472,23474
201911271515,23474,23480,23471,23474
201911271516,23474,23479,23474,23479
201911271517,23479,23482,23476,23482
201911271518,23482,23482,23476,23482
201911271519,23482,23482,23479,23482
201911271520,23482,23482,23471,23472
201911271521,23472,23473,23470,23473
201911271522,23473,23474,23471,23472
201911271523,23472,23472,23472,23472
201911271524,23472,23472,23472,23472
201911271525,23472,23472,23465,23467
201911271526,23467,23471,23467,23471
201911271527,23471,23471,23459,23467
201911271528,23467,23468,23465,23468
201911271529,23468,23470,23468,23470
201911271530,23470,23470,23465,23465
201911271531,23465,23467,23462,23467
201911271532,23467,23467,23460,23460
201911271533,23460,23467,23460,23466
201911271534,23466,23467,23464,23467
201911271535,23467,23467,23466,23467
201911271536,23467,23467,23467,23467
201911271537,23467,23467,23467,23467
201911271538,23467,23467,23467,23467
201911271539,23467,23467,23467,23467
201911271540,23467,23467,23467,23467
201911271541,23467,23467,23467,23467
201911271542,23467,23467,23466,23466
201911271543,23466,23469,23466,23469
201911271544,23469,23470,23465,23465
201911271545,23466,23466,23466,23466
201911271546,23466,23466,23466,23466
201911271547,23466,23466,23465,23465
201911271548,23465,23467,23465,23465
201911271549,23465,23465,23464,23465
201911271550,23465,23466,23463,23463
201911271551,23463,23463,23463,23463
201911271552,23463,23465,23463,23465
201911271553,23465,23466,23465,23466
201911271554,23466,23466,23466,23466
201911271555,23468,23468,23465,23466
201911271556,23466,23467,23466,23467
201911271557,23467,23467,23466,23466
201911271558,23466,23467,23465,23465
201911271559,23465,23465,23461,23461
201911271600,23461,23466,23461,23465
201911271601,23465,23467,23463,23467
201911271602,23467,23467,23465,23465
201911271603,23465,23467,23465,23467
201911271604,23467,23468,23466,23468
201911271605,23468,23474,23468,23471
201911271606,23471,23474,23469,23469
201911271607,23469,23476,23469,23474
201911271608,23474,23474,23471,23472
201911271609,23472,23475,23471,23471
201911271610,23471,23476,23471,23475
201911271611,23475,23476,23471,23472
201911271612,23472,23477,23472,23476
201911271613,23476,23477,23476,23476
201911271614,23476,23477,23469,23471
201911271615,23471,23475,23471,23475
201911271616,23475,23475,23470,23471
201911271617,23471,23472,23470,23472
201911271618,23472,23472,23471,23472
201911271619,23472,23472,23471,23472
201911271620,23472,23481,23471,23481
201911271621,23481,23482,23480,23482
201911271622,23482,23482,23481,23481
201911271623,23481,23482,23475,23475
201911271624,23475,23476,23475,23476
201911271625,23476,23478,23475,23476
201911271626,23476,23478,23476,23478
201911271627,23478,23480,23478,23478
201911271628,23478,23486,23478,23486
201911271629,23486,23490,23485,23490
201911271630,23495,23497,23494,23496
201911271631,23496,23503,23496,23501
201911271632,23501,23501,23492,23492
201911271633,23492,23492,23491,23491
201911271634,23491,23491,23491,23491
201911271635,23491,23491,23490,23491
201911271636,23491,23491,23489,23490
201911271637,23490,23491,23490,23490
201911271638,23490,23491,23490,23490
201911271639,23490,23490,23489,23490
201911271640,23490,23496,23490,23491
201911271641,23491,23492,23489,23489
201911271642,23489,23489,23489,23489
201911271643,23489,23491,23487,23491
201911271644,23491,23491,23490,23491
201911271645,23491,23491,23491,23491
201911271646,23491,23493,23491,23492
201911271647,23492,23492,23492,23492
201911271648,23492,23492,23492,23492
201911271649,23492,23492,23492,23492
201911271650,23492,23494,23492,23494
201911271651,23494,23501,23494,23501
201911271652,23501,23501,23501,23501
201911271653,23501,23501,23495,23497
201911271654,23497,23500,23497,23500
201911271655,23500,23502,23500,23502
201911271656,23506,23512,23506,23511
201911271657,23511,23512,23511,23512
201911271658,23512,23512,23502,23502
201911271659,23502,23510,23502,23510
201911271700,23511,23511,23506,23507
201911271701,23507,23508,23506,23507
201911271702,23507,23507,23502,23506
201911271703,23506,23506,23501,23504
201911271704,23504,23508,23504,23507
201911271705,23507,23510,23505,23510
201911271706,23510,23510,23503,23509
201911271707,23508,23509,23501,23502
201911271708,23502,23504,23492,23492
201911271709,23492,23495,23481,23484
201911271710,23485,23492,23483,23492
201911271711,23492,23492,23488,23491
201911271712,23490,23495,23488,23495
201911271713,23495,23497,23493,23497
201911271714,23497,23497,23491,23492
201911271715,23492,23492,23481,23486
201911271716,23486,23486,23476,23479
201911271717,23479,23481,23478,23478
201911271718,23478,23480,23476,23480
201911271719,23480,23481,23476,23480
201911271720,23480,23482,23476,23481
201911271721,23481,23482,23480,23480
201911271722,23480,23481,23476,23477
201911271723,23477,23487,23477,23487
201911271724,23487,23487,23481,23482
201911271725,23482,23485,23481,23484
201911271726,23484,23488,23483,23486
201911271727,23487,23491,23487,23488
201911271728,23489,23490,23486,23487
201911271729,23487,23487,23481,23483
201911271730,23484,23487,23484,23485
201911271731,23485,23489,23485,23487
201911271732,23487,23487,23487,23487
201911271733,23487,23487,23484,23486
201911271734,23486,23487,23481,23482
201911271735,23482,23486,23482,23486
201911271736,23485,23486,23483,23486
201911271737,23486,23487,23486,23487
201911271738,23487,23487,23487,23487
201911271739,23487,23488,23486,23487
201911271740,23487,23488,23486,23488
201911271741,23487,23489,23486,23489
201911271742,23489,23491,23489,23491
201911271743,23491,23491,23490,23491
201911271744,23491,23491,23486,23487
201911271745,23486,23488,23486,23486
201911271746,23486,23487,23482,23483
201911271747,23483,23483,23481,23482
201911271748,23482,23482,23482,23482
201911271749,23482,23482,23482,23482
201911271750,23482,23490,23482,23486
201911271751,23486,23488,23483,23486
201911271752,23486,23488,23485,23488
201911271753,23488,23489,23486,23487
201911271754,23487,23487,23486,23487
201911271755,23487,23487,23486,23487
201911271756,23487,23487,23486,23487
201911271757,23487,23487,23487,23487
201911271758,23487,23487,23486,23487
201911271759,23487,23488,23486,23487
201911271800,23487,23489,23487,23487
201911271801,23487,23488,23486,23487
201911271802,23487,23493,23487,23492
201911271803,23492,23493,23491,23491
201911271804,23491,23491,23486,23490
201911271805,23490,23492,23490,23492
201911271806,23492,23492,23491,23491
201911271807,23491,23492,23491,23491
201911271808,23491,23492,23491,23492
201911271809,23492,23494,23491,23491
201911271810,23491,23492,23491,23492
201911271811,23492,23492,23492,23492
201911271812,23492,23500,23492,23500
201911271813,23500,23501,23500,23501
201911271814,23501,23505,23501,23504
201911271815,23504,23510,23504,23505
201911271816,23505,23507,23503,23507
201911271817,23507,23510,23506,23509
201911271818,23509,23510,23506,23507
201911271819,23507,23509,23506,23507
201911271820,23507,23510,23506,23509
201911271821,23509,23509,23505,23507
201911271822,23507,23509,23506,23507
201911271823,23507,23511,23506,23511
201911271824,23511,23512,23511,23512
201911271825,23512,23522,23512,23522
201911271826,23522,23522,23516,23516
201911271827,23516,23517,23516,23517
201911271828,23517,23520,23516,23519
201911271829,23518,23520,23516,23516
201911271830,23516,23519,23516,23517
201911271831,23517,23517,23512,23512
201911271832,23512,23514,23512,23512
201911271833,23512,23512,23512,23512
201911271834,23512,23515,23511,23511
201911271835,23511,23515,23511,23515
201911271836,23515,23515,23511,23512
201911271837,23512,23512,23512,23512
201911271838,23512,23512,23506,23507
201911271839,23507,23509,23507,23507
201911271840,23507,23507,23506,23506
201911271841,23506,23507,23506,23506
201911271842,23506,23511,23506,23510
201911271843,23510,23511,23508,23510
201911271844,23510,23511,23506,23507
201911271845,23507,23509,23507,23509
201911271846,23508,23509,23507,23509
201911271847,23509,23510,23506,23509
201911271848,23509,23510,23506,23506
201911271849,23506,23510,23506,23509
201911271850,23510,23510,23506,23508
201911271851,23508,23510,23506,23509
201911271852,23509,23510,23508,23509
201911271853,23509,23510,23506,23509
201911271854,23509,23510,23509,23510
201911271855,23510,23510,23508,23510
201911271856,23510,23511,23510,23511
201911271857,23511,23512,23511,23512
201911271858,23512,23512,23511,23512
201911271859,23512,23512,23512,23512
201911271900,23512,23512,23512,23512
201911271901,23512,23512,23512,23512
201911271902,23512,23512,23512,23512
201911271903,23512,23512,23512,23512
201911271904,23512,23512,23512,23512
201911271905,23512,23515,23512,23515
201911271906,23515,23515,23513,23515
201911271907,23515,23515,23512,23512
201911271908,23512,23512,23512,23512
201911271909,23512,23514,23512,23514
201911271910,23514,23514,23511,23512
201911271911,23512,23513,23511,23512
201911271912,23512,23514,23511,23514
201911271913,23514,23514,23511,23512
201911271914,23512,23512,23512,23512
201911271915,23512,23512,23508,23511
201911271916,23511,23511,23510,23511
201911271917,23511,23511,23510,23511
201911271918,23511,23511,23510,23510
201911271919,23510,23510,23509,23510
201911271920,23510,23510,23509,23510
201911271921,23510,23510,23510,23510
201911271922,23510,23511,23510,23511
201911271923,23511,23511,23507,23508
201911271924,23508,23509,23506,23507
201911271925,23507,23507,23506,23507
201911271926,23507,23507,23502,23502
201911271927,23502,23502,23502,23502
201911271928,23502,23505,23502,23505
201911271929,23505,23505,23503,23505
201911271930,23505,23506,23505,23506
201911271931,23506,23507,23506,23506
201911271932,23506,23506,23505,23506
201911271933,23506,23506,23505,23506
201911271934,23506,23506,23505,23505
201911271935,23505,23511,23505,23511
201911271936,23511,23511,23511,23511
201911271937,23511,23512,23511,23511
201911271938,23511,23512,23511,23512
201911271939,23512,23512,23512,23512
201911271940,23512,23512,23506,23508
201911271941,23509,23511,23509,23511
201911271942,23511,23512,23511,23512
201911271943,23512,23516,23512,23515
201911271944,23515,23515,23512,23512
201911271945,23512,23512,23508,23510
201911271946,23510,23512,23510,23512
201911271947,23512,23512,23507,23510
201911271948,23510,23510,23506,23507
201911271949,23507,23507,23507,23507
201911271950,23507,23507,23507,23507
201911271951,23507,23509,23507,23507
201911271952,23507,23509,23507,23509
201911271953,23508,23510,23506,23510
201911271954,23510,23510,23510,23510
201911271955,23510,23510,23509,23510
201911271956,23510,23510,23509,23510
201911271957,23510,23510,23510,23510
201911271958,23510,23510,23510,23510
201911271959,23510,23510,23507,23507
201911272000,23507,23509,23506,23508
201911272001,23508,23509,23506,23506
201911272002,23506,23510,23506,23508
201911272003,23508,23510,23506,23507
201911272004,23507,23507,23507,23507
201911272005,23507,23507,23507,23507
201911272006,23507,23507,23501,23502
201911272007,23502,23503,23501,23502
201911272008,23502,23502,23502,23502
201911272009,23502,23502,23502,23502
201911272010,23502,23504,23502,23502
201911272011,23502,23502,23502,23502
201911272012,23502,23502,23502,23502
201911272013,23502,23502,23502,23502
201911272014,23502,23502,23502,23502
201911272015,23502,23502,23497,23497
201911272016,23497,23497,23492,23492
201911272017,23492,23492,23492,23492
201911272018,23492,23492,23492,23492
201911272019,23492,23492,23492,23492
201911272020,23492,23494,23492,23494
201911272021,23495,23496,23495,23496
201911272022,23496,23497,23496,23496
201911272023,23496,23497,23496,23496
201911272024,23496,23496,23494,23495
201911272025,23495,23496,23492,23495
201911272026,23495,23496,23494,23496
201911272027,23496,23497,23496,23496
201911272028,23496,23497,23496,23496
201911272029,23496,23497,23496,23496
201911272030,23496,23496,23495,23495
201911272031,23495,23495,23495,23495
201911272032,23495,23495,23491,23495
201911272033,23495,23495,23494,23494
201911272034,23494,23494,23491,23494
201911272035,23494,23495,23494,23494
201911272036,23494,23494,23494,23494
201911272037,23494,23495,23494,23494
201911272038,23494,23495,23493,23495
201911272039,23495,23496,23494,23496
201911272040,23496,23496,23495,23495
201911272041,23495,23495,23495,23495
201911272042,23495,23495,23494,23495
201911272043,23495,23495,23495,23495
201911272044,23495,23495,23494,23495
201911272045,23495,23495,23495,23495
201911272046,23495,23496,23495,23496
201911272047,23496,23496,23495,23496
201911272048,23496,23496,23495,23495
201911272049,23495,23496,23495,23495
201911272050,23495,23495,23495,23495
201911272051,23495,23495,23492,23492
201911272052,23492,23492,23492,23492
201911272053,23492,23492,23492,23492
201911272054,23492,23492,23487,23487
201911272055,23487,23487,23487,23487
201911272056,23487,23487,23487,23487
201911272057,23487,23491,23487,23491
201911272058,23491,23491,23491,23491
201911272059,23491,23491,23486,23487
201911272100,23487,23490,23487,23490
201911272101,23490,23491,23490,23491
201911272102,23491,23491,23491,23491
201911272103,23491,23492,23491,23492
201911272104,23492,23492,23491,23491
201911272105,23491,23491,23490,23491
201911272106,23491,23491,23490,23491
201911272107,23491,23491,23490,23491
201911272108,23491,23491,23490,23490
201911272109,23490,23491,23490,23491
201911272110,23491,23491,23491,23491
201911272111,23491,23491,23491,23491
201911272112,23491,23491,23491,23491
201911272113,23491,23492,23491,23492
201911272114,23492,23492,23492,23492
201911272115,23492,23494,23492,23493
201911272116,23493,23495,23493,23495
201911272117,23495,23496,23495,23496
201911272118,23496,23496,23496,23496
201911272119,23496,23496,23496,23496
201911272120,23496,23496,23496,23496
201911272121,23496,23496,23495,23495
201911272122,23495,23496,23495,23496
201911272123,23496,23496,23495,23496
201911272124,23496,23496,23495,23495
201911272125,23495,23495,23495,23495
201911272126,23495,23495,23495,23495
201911272127,23495,23495,23495,23495
201911272128,23495,23495,23492,23492
201911272129,23492,23492,23492,23492
201911272130,23492,23492,23492,23492
201911272131,23492,23492,23492,23492
201911272132,23492,23492,23492,23492
201911272133,23492,23492,23492,23492
201911272134,23492,23494,23492,23494
201911272135,23494,23494,23491,23492
201911272136,23492,23492,23492,23492
201911272137,23492,23492,23491,23492
201911272138,23492,23492,23492,23492
201911272139,23492,23492,23492,23492
201911272140,23492,23492,23492,23492
201911272141,23492,23492,23492,23492
201911272142,23492,23492,23492,23492
201911272143,23492,23492,23492,23492
201911272144,23492,23492,23492,23492
201911272145,23492,23492,23492,23492
201911272146,23492,23492,23492,23492
201911272147,23492,23492,23492,23492
201911272148,23492,23492,23492,23492
201911272149,23492,23492,23492,23492
201911272150,23492,23492,23492,23492
201911272151,23492,23492,23492,23492
201911272152,23492,23494,23492,23494
201911272153,23494,23494,23494,23494
201911272154,23494,23494,23494,23494
201911272155,23494,23494,23494,23494
201911272156,23494,23495,23494,23494
201911272157,23494,23495,23494,23494
201911272158,23494,23494,23494,23494
201911272159,23494,23494,23494,23494
201911272200,23494,23494,23494,23494
201911272201,23494,23494,23494,23494
201911272202,23494,23494,23494,23494
201911272203,23494,23495,23494,23494
201911272204,23494,23494,23491,23494
201911272205,23494,23495,23494,23495
201911272206,23495,23495,23495,23495
201911272207,23495,23495,23495,23495
201911272208,23495,23495,23494,23494
201911272209,23494,23495,23494,23494
201911272210,23494,23494,23494,23494
201911272211,23494,23494,23494,23494
201911272212,23494,23495,23494,23494
201911272213,23494,23495,23494,23495
201911272214,23495,23501,23495,23501
201911272215,23501,23501,23498,23501
201911272216,23501,23501,23500,23501
201911272217,23501,23501,23498,23500
201911272218,23500,23500,23500,23500
201911272219,23500,23500,23500,23500
201911272220,23500,23501,23500,23501
201911272221,23501,23501,23500,23501
201911272222,23501,23501,23500,23500
201911272223,23500,23500,23496,23497
201911272224,23497,23499,23497,23497
201911272225,23497,23497,23497,23497
201911272226,23497,23497,23497,23497
201911272227,23497,23497,23497,23497
201911272228,23497,23497,23497,23497
201911272229,23497,23499,23496,23499
201911272230,23499,23510,23498,23509
201911272231,23509,23515,23508,23512
201911272232,23512,23515,23511,23512
201911272233,23512,23514,23511,23511
201911272234,23511,23514,23511,23512
201911272235,23512,23515,23511,23515
201911272236,23515,23516,23513,23513
201911272237,23514,23514,23511,23512
201911272238,23512,23514,23511,23514
201911272239,23514,23514,23511,23512
201911272240,23512,23512,23512,23512
201911272241,23512,23512,23512,23512
201911272242,23512,23512,23512,23512
201911272243,23512,23512,23512,23512
201911272244,23512,23512,23512,23512
201911272245,23512,23512,23512,23512
201911272246,23512,23512,23506,23508
201911272247,23508,23511,23508,23510
201911272248,23510,23510,23506,23507
201911272249,23507,23507,23507,23507
201911272250,23507,23507,23506,23506
201911272251,23506,23506,23502,23502
201911272252,23502,23502,23502,23502
201911272253,23502,23504,23501,23502
201911272254,23502,23502,23502,23502
201911272255,23502,23504,23502,23503
201911272256,23503,23506,23503,23503
201911272257,23503,23506,23503,23506
201911272258,23506,23506,23505,23506
201911272259,23506,23506,23502,23502
201911272300,23502,23504,23501,23502
201911272301,23502,23502,23502,23502
201911272302,23502,23502,23502,23502
201911272303,23502,23502,23502,23502
201911272304,23502,23502,23497,23497
201911272305,23497,23501,23496,23500
201911272306,23500,23501,23498,23501
201911272307,23501,23504,23501,23502
201911272308,23502,23503,23501,23502
201911272309,23502,23502,23497,23497
201911272310,23497,23497,23492,23495
201911272311,23495,23496,23495,23496
201911272312,23496,23496,23495,23495
201911272313,23495,23496,23495,23496
201911272314,23496,23502,23496,23502
201911272315,23502,23502,23500,23502
201911272316,23502,23505,23501,23505
201911272317,23505,23507,23505,23507
201911272318,23507,23507,23507,23507
201911272319,23507,23507,23507,23507
201911272320,23506,23508,23506,23507
201911272321,23507,23507,23502,23506
201911272322,23506,23507,23506,23507
201911272323,23507,23508,23506,23506
201911272324,23506,23510,23506,23510
201911272325,23510,23510,23506,23507
201911272326,23507,23509,23506,23508
201911272327,23508,23510,23508,23509
201911272328,23509,23510,23506,23509
201911272329,23509,23509,23508,23509
201911272330,23503,23511,23503,23506
201911272331,23506,23509,23502,23505
201911272332,23505,23506,23501,23503
201911272333,23503,23509,23503,23507
201911272334,23507,23509,23498,23509
201911272335,23509,23511,23506,23509
201911272336,23509,23511,23509,23510
201911272337,23510,23511,23509,23510
201911272338,23510,23511,23506,23506
201911272339,23506,23506,23503,23505
201911272340,23505,23509,23503,23507
201911272341,23507,23507,23501,23501
201911272342,23501,23502,23496,23501
201911272343,23501,23502,23501,23502
201911272344,23502,23502,23500,23501
201911272345,23501,23506,23500,23504
201911272346,23504,23507,23501,23501
201911272347,23501,23504,23501,23503
201911272348,23503,23503,23501,23502
201911272349,23502,23505,23501,23505
201911272350,23505,23510,23505,23508
201911272351,23508,23509,23506,23507
201911272352,23507,23507,23506,23506
201911272353,23506,23507,23501,23507
201911272354,23507,23509,23506,23506
201911272355,23506,23509,23506,23507
201911272356,23507,23508,23506,23507
201911272357,23507,23509,23506,23507
201911272358,23507,23507,23501,23503
201911272359,23503,23505,23503,23504
201911280000,23505,23505,23501,23501
201911280001,23501,23502,23492,23492
201911280002,23492,23498,23491,23498
201911280003,23498,23500,23493,23493
201911280004,23493,23500,23493,23496
201911280005,23496,23497,23493,23494
201911280006,23493,23494,23493,23493
201911280007,23493,23494,23492,23492
201911280008,23492,23492,23486,23489
201911280009,23489,23491,23489,23491
201911280010,23491,23493,23491,23491
201911280011,23492,23492,23489,23492
201911280012,23492,23496,23491,23496
201911280013,23496,23497,23496,23496
201911280014,23496,23496,23496,23496
201911280015,23496,23496,23495,23496
201911280016,23496,23496,23495,23496
201911280017,23495,23495,23491,23493
201911280018,23493,23495,23493,23495
201911280019,23495,23496,23495,23496
201911280020,23496,23496,23495,23496
201911280021,23496,23505,23496,23505
201911280022,23502,23503,23498,23499
201911280023,23499,23500,23496,23497
201911280024,23497,23497,23496,23497
201911280025,23497,23500,23496,23496
201911280026,23498,23499,23496,23499
201911280027,23498,23500,23496,23500
201911280028,23500,23503,23498,23500
201911280029,23500,23504,23499,23502
201911280030,23502,23502,23501,23502
201911280031,23502,23505,23501,23505
201911280032,23505,23506,23505,23505
201911280033,23505,23505,23501,23505
201911280034,23504,23506,23504,23506
201911280035,23505,23506,23503,23506
201911280036,23506,23506,23504,23505
201911280037,23505,23505,23504,23504
201911280038,23504,23505,23502,23502
201911280039,23502,23502,23500,23502
201911280040,23502,23505,23501,23504
201911280041,23504,23505,23501,23504
201911280042,23504,23505,23503,23503
201911280043,23503,23503,23501,23502
201911280044,23502,23503,23501,23502
201911280045,23502,23502,23496,23496
201911280046,23496,23504,23496,23502
201911280047,23503,23506,23503,23506
201911280048,23506,23509,23505,23508
201911280049,23509,23509,23506,23509
201911280050,23509,23509,23506,23507
201911280051,23507,23507,23506,23506
201911280052,23506,23508,23506,23507
201911280053,23507,23509,23506,23508
201911280054,23508,23510,23508,23510
201911280055,23510,23514,23510,23514
201911280056,23514,23516,23514,23516
201911280057,23516,23516,23514,23514
201911280058,23515,23520,23514,23519
201911280059,23519,23525,23519,23523
201911280100,23523,23527,23521,23527
201911280101,23527,23527,23526,23527
201911280102,23526,23527,23523,23526
201911280103,23526,23526,23525,23526
201911280104,23526,23532,23526,23532
201911280105,23532,23536,23532,23535
201911280106,23534,23535,23531,23532
201911280107,23532,23532,23528,23528
201911280108,23528,23530,23526,23529
201911280109,23529,23534,23529,23532
201911280110,23532,23534,23531,23531
201911280111,23533,23534,23531,23531
201911280112,23531,23531,23526,23529
201911280113,23529,23532,23529,23532
201911280114,23532,23532,23531,23531
201911280115,23531,23531,23529,23529
201911280116,23529,23531,23528,23529
201911280117,23529,23529,23526,23528
201911280118,23529,23529,23523,23524
201911280119,23524,23527,23524,23527
201911280120,23527,23529,23526,23528
201911280121,23528,23528,23526,23527
201911280122,23527,23527,23522,23523
201911280123,23522,23527,23522,23526
201911280124,23526,23526,23521,23523
201911280125,23523,23524,23521,23522
201911280126,23522,23522,23521,23521
201911280127,23521,23524,23521,23521
201911280128,23521,23527,23521,23526
201911280129,23526,23530,23526,23530
201911280130,23530,23530,23526,23528
201911280131,23528,23529,23526,23529
201911280132,23529,23534,23527,23533
201911280133,23533,23534,23526,23529
201911280134,23529,23531,23528,23530
201911280135,23530,23531,23530,23531
201911280136,23531,23534,23531,23533
201911280137,23534,23536,23533,23536
201911280138,23536,23540,23536,23537
201911280139,23537,23537,23536,23537
201911280140,23537,23541,23536,23537
201911280141,23537,23537,23537,23537
201911280142,23537,23537,23537,23537
201911280143,23537,23537,23537,23537
201911280144,23537,23538,23536,23537
201911280145,23537,23538,23536,23537
201911280146,23537,23537,23537,23537
201911280147,23537,23538,23537,23538
201911280148,23538,23538,23536,23537
201911280149,23537,23537,23536,23537
201911280150,23537,23537,23537,23537
201911280151,23537,23537,23531,23533
201911280152,23534,23535,23532,23535
201911280153,23535,23535,23533,23534
201911280154,23534,23534,23533,23534
201911280155,23534,23534,23531,23532
201911280156,23532,23532,23531,23532
201911280157,23532,23532,23531,23531
201911280158,23531,23534,23531,23532
201911280159,23532,23536,23531,23536
201911280200,23534,23537,23533,23535
201911280201,23535,23536,23535,23536
201911280202,23536,23537,23535,23537
201911280203,23537,23537,23536,23537
201911280204,23537,23537,23535,23537
201911280205,23537,23537,23536,23537
201911280206,23537,23537,23536,23536
201911280207,23536,23537,23536,23537
201911280208,23537,23537,23537,23537
201911280209,23537,23537,23537,23537
201911280210,23537,23537,23536,23536
201911280211,23536,23537,23536,23537
201911280212,23537,23537,23536,23537
201911280213,23537,23537,23530,23534
201911280214,23534,23537,23534,23536
201911280215,23536,23537,23531,23532
201911280216,23532,23532,23532,23532
201911280217,23532,23532,23532,23532
201911280218,23532,23532,23532,23532
201911280219,23532,23532,23532,23532
201911280220,23532,23532,23530,23532
201911280221,23532,23532,23531,23532
201911280222,23532,23532,23531,23531
201911280223,23531,23531,23530,23531
201911280224,23531,23531,23530,23531
201911280225,23531,23532,23530,23532
201911280226,23532,23537,23532,23537
201911280227,23537,23537,23537,23537
201911280228,23537,23537,23537,23537
201911280229,23537,23537,23537,23537
201911280230,23537,23537,23537,23537
201911280231,23537,23537,23537,23537
201911280232,23537,23537,23537,23537
201911280233,23537,23537,23537,23537
201911280234,23537,23537,23537,23537
201911280235,23537,23537,23537,23537
201911280236,23537,23539,23536,23538
201911280237,23538,23538,23535,23536
201911280238,23536,23539,23536,23536
201911280239,23536,23539,23535,23539
201911280240,23539,23540,23539,23540
201911280241,23540,23541,23539,23539
201911280242,23539,23541,23539,23539
201911280243,23539,23540,23539,23540
201911280244,23540,23540,23536,23537
201911280245,23537,23537,23537,23537
201911280246,23537,23537,23535,23537
201911280247,23537,23537,23536,23537
201911280248,23537,23537,23537,23537
201911280249,23537,23537,23537,23537
201911280250,23537,23539,23536,23537
201911280251,23537,23537,23537,23537
201911280252,23537,23538,23536,23537
201911280253,23537,23537,23536,23537
201911280254,23537,23542,23536,23539
201911280255,23539,23539,23535,23537
201911280256,23537,23540,23535,23540
201911280257,23540,23540,23535,23535
201911280258,23536,23537,23536,23536
201911280259,23536,23537,23535,23537
201911280300,23537,23537,23536,23537
201911280301,23537,23539,23535,23539
201911280302,23539,23544,23535,23544
201911280303,23544,23547,23543,23546
201911280304,23546,23547,23546,23547
201911280305,23547,23552,23546,23551
201911280306,23551,23552,23551,23552
201911280307,23552,23552,23550,23551
201911280308,23551,23554,23550,23550
201911280309,23550,23555,23550,23554
201911280310,23554,23554,23554,23554
201911280311,23554,23554,23554,23554
201911280312,23554,23555,23554,23554
201911280313,23554,23557,23554,23557
201911280314,23557,23567,23556,23565
201911280315,23565,23566,23556,23556
201911280316,23557,23558,23555,23556
201911280317,23556,23558,23555,23558
201911280318,23558,23561,23556,23561
201911280319,23561,23566,23560,23562
201911280320,23562,23562,23560,23562
201911280321,23562,23562,23561,23561
201911280322,23561,23562,23561,23562
201911280323,23562,23562,23555,23557
201911280324,23557,23557,23555,23557
201911280325,23556,23562,23556,23561
201911280326,23561,23562,23557,23560
201911280327,23560,23563,23559,23561
201911280328,23561,23562,23561,23562
201911280329,23562,23562,23560,23562
201911280330,23562,23562,23561,23562
201911280331,23562,23562,23562,23562
201911280332,23562,23562,23561,23562
201911280333,23562,23562,23562,23562
201911280334,23562,23562,23561,23562
201911280335,23562,23567,23561,23567
201911280336,23567,23572,23565,23565
201911280337,23566,23571,23565,23567
201911280338,23567,23570,23565,23566
201911280339,23566,23569,23565,23569
201911280340,23568,23570,23566,23570
201911280341,23570,23571,23568,23570
201911280342,23570,23570,23566,23566
201911280343,23566,23569,23566,23566
201911280344,23566,23568,23566,23567
201911280345,23567,23567,23566,23567
201911280346,23567,23567,23567,23567
201911280347,23565,23567,23565,23567
201911280348,23567,23567,23566,23566
201911280349,23566,23570,23565,23566
201911280350,23566,23569,23565,23566
201911280351,23566,23571,23565,23571
201911280352,23571,23571,23569,23569
201911280353,23569,23570,23569,23570
201911280354,23570,23570,23564,23564
201911280355,23564,23565,23564,23564
201911280356,23564,23567,23564,23567
201911280357,23567,23567,23565,23567
201911280358,23567,23567,23564,23564
201911280359,23564,23567,23564,23567
201911280400,23567,23567,23564,23565
201911280401,23565,23566,23564,23565
201911280402,23565,23566,23563,23564
201911280403,23564,23566,23564,23564
201911280404,23564,23566,23564,23565
201911280405,23565,23567,23565,23567
201911280406,23567,23569,23566,23567
201911280407,23567,23568,23565,23568
201911280408,23568,23569,23565,23567
201911280409,23567,23567,23566,23567
201911280410,23567,23567,23566,23567
201911280411,23567,23567,23566,23566
201911280412,23566,23567,23566,23566
201911280413,23566,23567,23565,23566
201911280414,23566,23569,23565,23565
201911280415,23565,23567,23565,23567
201911280416,23567,23567,23565,23565
201911280417,23565,23565,23561,23562
201911280418,23564,23565,23562,23564
201911280419,23564,23565,23563,23564
201911280420,23564,23567,23564,23567
201911280421,23567,23571,23567,23571
201911280422,23571,23571,23570,23571
201911280423,23571,23572,23571,23571
201911280424,23571,23571,23570,23571
201911280425,23571,23572,23570,23571
201911280426,23571,23573,23570,23571
201911280427,23571,23572,23570,23571
201911280428,23571,23575,23570,23575
201911280429,23575,23577,23571,23576
201911280430,23576,23577,23565,23566
201911280431,23566,23572,23565,23572
201911280432,23572,23572,23566,23567
201911280433,23567,23568,23566,23567
201911280434,23567,23571,23567,23571
201911280435,23571,23572,23571,23572
201911280436,23572,23574,23570,23574
201911280437,23574,23582,23570,23582
201911280438,23582,23587,23582,23587
201911280439,23587,23587,23586,23586
201911280440,23586,23587,23581,23587
201911280441,23587,23587,23587,23587
201911280442,23587,23587,23586,23587
201911280443,23587,23587,23586,23587
201911280444,23587,23587,23584,23587
201911280445,23587,23587,23581,23582
201911280446,23582,23582,23581,23581
201911280447,23581,23582,23580,23581
201911280448,23581,23582,23581,23582
201911280449,23582,23582,23582,23582
201911280450,23582,23582,23575,23579
201911280451,23580,23581,23580,23581
201911280452,23581,23582,23575,23576
201911280453,23576,23577,23575,23577
201911280454,23577,23577,23576,23577
201911280455,23577,23577,23577,23577
201911280456,23577,23577,23576,23576
201911280457,23576,23577,23576,23577
201911280458,23577,23577,23577,23577
201911280459,23577,23582,23575,23581
201911280500,23581,23582,23575,23577
201911280501,23577,23577,23576,23576
201911280502,23576,23577,23576,23576
201911280503,23576,23587,23575,23586
201911280504,23586,23587,23584,23587
201911280505,23587,23587,23581,23582
201911280506,23582,23584,23581,23582
201911280507,23582,23584,23581,23582
201911280508,23582,23584,23581,23584
201911280509,23584,23587,23583,23585
201911280510,23585,23587,23585,23587
201911280511,23587,23587,23582,23585
201911280512,23585,23587,23585,23585
201911280513,23585,23587,23585,23587
201911280514,23587,23587,23586,23586
201911280515,23586,23587,23586,23586
201911280516,23586,23587,23585,23587
201911280517,23587,23587,23586,23586
201911280518,23586,23587,23586,23587
201911280519,23587,23587,23580,23587
201911280520,23587,23587,23585,23587
201911280521,23587,23587,23587,23587
201911280522,23587,23587,23586,23586
201911280523,23586,23587,23586,23586
201911280524,23586,23586,23582,23585
201911280525,23585,23586,23584,23585
201911280526,23585,23586,23584,23585
201911280527,23585,23585,23581,23582
201911280528,23582,23582,23580,23580
201911280529,23580,23581,23580,23581
201911280530,23581,23582,23581,23581
201911280531,23581,23581,23580,23580
201911280532,23581,23581,23577,23577
201911280533,23577,23581,23577,23581
201911280534,23581,23581,23577,23577
201911280535,23577,23577,23575,23577
201911280536,23577,23577,23577,23577
201911280537,23577,23577,23576,23577
201911280538,23577,23577,23570,23571
201911280539,23571,23572,23569,23572
201911280540,23572,23572,23571,23572
201911280541,23572,23574,23570,23571
201911280542,23571,23572,23569,23569
201911280543,23569,23574,23569,23572
201911280544,23572,23572,23572,23572
201911280545,23572,23572,23572,23572
201911280546,23572,23574,23570,23574
201911280547,23574,23574,23571,23574
201911280548,23574,23574,23574,23574
201911280549,23574,23574,23572,23572
201911280550,23572,23574,23568,23574
201911280551,23574,23574,23572,23573
201911280552,23574,23574,23570,23570
201911280553,23570,23574,23570,23574
201911280554,23574,23577,23574,23575
201911280555,23575,23576,23567,23567
201911280556,23567,23572,23567,23572
201911280557,23572,23572,23565,23571
201911280558,23571,23576,23571,23576
201911280559,23576,23590,23575,23585
201911280600,23585,23588,23584,23585
201911280601,23585,23587,23585,23586
201911280602,23586,23587,23585,23587
201911280603,23587,23590,23585,23589
201911280604,23589,23590,23585,23586
201911280605,23586,23587,23586,23587
201911280606,23587,23587,23587,23587
201911280607,23587,23587,23582,23584
201911280608,23584,23586,23580,23582
201911280609,23582,23582,23582,23582
201911280610,23582,23582,23582,23582
201911280611,23582,23586,23581,23586
201911280612,23586,23586,23585,23586
201911280613,23586,23586,23579,23583
201911280614,23582,23585,23581,23584
201911280615,23584,23585,23584,23585
201911280616,23585,23585,23585,23585
201911280617,23585,23586,23585,23585
201911280618,23585,23585,23585,23585
201911280619,23585,23585,23585,23585
201911280620,23585,23585,23584,23584
201911280621,23584,23584,23584,23584
201911280622,23584,23585,23584,23585
201911280623,23585,23585,23585,23585
201911280624,23585,23585,23584,23584
201911280625,23584,23585,23584,23585
201911280626,23585,23585,23585,23585
201911280627,23585,23585,23585,23585
201911280628,23585,23585,23585,23585
201911280629,23585,23585,23585,23585
201911280630,23585,23587,23585,23587
201911280631,23587,23587,23580,23581
201911280632,23581,23586,23580,23583
201911280633,23583,23586,23581,23584
201911280634,23584,23584,23584,23584
201911280635,23584,23584,23577,23578
201911280636,23578,23579,23578,23578
201911280637,23578,23579,23578,23578
201911280638,23578,23579,23578,23579
201911280639,23579,23580,23579,23579
201911280640,23579,23580,23579,23579
201911280641,23579,23579,23579,23579
201911280642,23579,23580,23579,23580
201911280643,23580,23585,23580,23584
201911280644,23584,23584,23584,23584
201911280645,23584,23586,23581,23586
201911280646,23586,23587,23585,23585
201911280647,23585,23585,23585,23585
201911280648,23585,23585,23585,23585
201911280649,23585,23585,23585,23585
201911280650,23585,23585,23585,23585
201911280651,23585,23585,23585,23585
201911280652,23585,23585,23583,23583
201911280653,23583,23584,23583,23583
201911280654,23583,23585,23580,23585
201911280655,23585,23587,23584,23585
201911280656,23585,23587,23585,23587
201911280657,23587,23587,23587,23587
201911280658,23587,23587,23587,23587
201911280659,23587,23587,23586,23586
