日時,始値(BID),高値(BID),安値(BID),終値(BID)
201908060700,7344.4,7349.2,7337.7,7338.9
201908060701,7338.9,7341,7321,7321
201908060702,7321,7323.5,7305.8,7307.2
201908060703,7306.9,7318,7305.5,7306.9
201908060704,7306.9,7307,7287.7,7287.7
201908060705,7287.7,7287.7,7245.2,7270.7
201908060706,7270.8,7283.1,7269.6,7276.1
201908060707,7276.1,7290.8,7276,7278.3
201908060708,7278.3,7279.6,7267.9,7269.7
201908060709,7269.7,7279.7,7268.2,7276.6
201908060710,7276.6,7278.7,7272,7272.8
201908060711,7272.8,7273,7257.2,7259.2
201908060712,7259.6,7267,7258.9,7263.1
201908060713,7263.1,7280.7,7261.6,7277
201908060714,7277,7283.9,7275.3,7281.5
201908060715,7281.9,7283.1,7276,7276.4
201908060716,7276.4,7281.4,7273.6,7277.8
201908060717,7277.7,7283.9,7273.6,7280.5
201908060718,7280.5,7284.6,7277.9,7281.2
201908060719,7281.2,7287.8,7280.5,7287.4
201908060720,7287.4,7288.6,7285.5,7288.6
201908060721,7289.3,7293.9,7288.2,7292.6
201908060722,7292.6,7292.8,7288.6,7288.6
201908060723,7288.6,7291.5,7287.6,7291.2
201908060724,7291.2,7291.4,7284.9,7287.8
201908060725,7287.8,7288.1,7282.4,7282.4
201908060726,7282.4,7283.3,7278.4,7279.7
201908060727,7279.7,7284.8,7279.7,7283.1
201908060728,7283.1,7287.9,7279.9,7287
201908060729,7287,7291.3,7285.4,7289.3
201908060730,7289.7,7296.5,7286.2,7296.2
201908060731,7296.2,7304.7,7292.7,7303.1
201908060732,7303.1,7304.8,7296.4,7296.4
201908060733,7296.4,7296.4,7286.1,7286.7
201908060734,7286.7,7292.4,7285.5,7288.9
201908060735,7288.9,7291.7,7288.6,7290.2
201908060736,7290.2,7293.7,7289.6,7293.1
201908060737,7292.9,7294.9,7286.4,7290.1
201908060738,7290.1,7299.1,7289.9,7298.8
201908060739,7298.6,7298.6,7290.1,7293.7
201908060740,7293.7,7299.7,7292,7298.2
201908060741,7298.2,7298.2,7288.9,7288.9
201908060742,7289.1,7292.6,7288.6,7289.8
201908060743,7289.7,7291.1,7282.8,7282.8
201908060744,7282.8,7289.8,7282.8,7289.8
201908060745,7289.8,7291.3,7284.4,7285.8
201908060746,7285.8,7289.6,7285.8,7287.4
201908060747,7287.2,7288.3,7280.6,7281.1
201908060748,7281.1,7281.8,7276.4,7277.1
201908060749,7277.1,7281.6,7277,7279.4
201908060750,7279.2,7283.8,7278.9,7281.3
201908060751,7281.4,7283,7278,7279.2
201908060752,7279.2,7279.3,7277.5,7277.5
201908060753,7277.5,7278.1,7276.8,7276.8
201908060754,7276.8,7278.7,7276.1,7277.9
201908060755,7278.1,7279.6,7272,7272.5
201908060756,7272.6,7272.6,7265.2,7265.7
201908060757,7265.7,7267,7259.5,7259.9
201908060758,7259.9,7265.4,7259.9,7263.8
201908060759,7263.8,7265.2,7261.4,7261.5
201908060800,7261.5,7269.6,7261.4,7265.1
201908060801,7265.1,7265.5,7260.2,7262.1
201908060802,7262.1,7266.4,7262,7265.7
201908060803,7265.7,7268.2,7264.6,7267.7
201908060804,7267.5,7270.4,7267.1,7267.3
201908060805,7267.3,7272,7267.1,7271.1
201908060806,7271.1,7274.3,7270.8,7271.6
201908060807,7271.6,7271.7,7269.7,7270.1
201908060808,7270.1,7271.4,7269.9,7270.4
201908060809,7270.4,7270.4,7267.6,7267.6
201908060810,7267.6,7274.1,7267.4,7272.9
201908060811,7272.9,7274.6,7271.3,7271.3
201908060812,7271.3,7272.6,7270.6,7270.6
201908060813,7270.6,7273.9,7270.6,7273.3
201908060814,7273.3,7278.3,7273.3,7278.3
201908060815,7278.3,7280.1,7275.5,7278.6
201908060816,7278.6,7281.6,7277.9,7280.6
201908060817,7280.5,7283.7,7280.3,7280.7
201908060818,7280.7,7281.9,7276.3,7277.3
201908060819,7277.3,7279.7,7277,7277.9
201908060820,7277.9,7277.9,7272.8,7273.8
201908060821,7273.8,7273.8,7269.9,7269.9
201908060822,7269.9,7272.2,7267.4,7271.1
201908060823,7271.1,7272.2,7270.3,7271.2
201908060824,7271.2,7274.3,7269.9,7274.2
201908060825,7274.2,7277.1,7273.3,7275.7
201908060826,7275.7,7275.8,7272,7274.6
201908060827,7274.6,7277.8,7274.5,7275.5
201908060828,7275.5,7277.8,7273.9,7274.3
201908060829,7274.3,7277.1,7274.3,7277.1
201908060830,7277.1,7277.1,7268.4,7269.9
201908060831,7269.9,7272.1,7269.4,7269.8
201908060832,7269.6,7271.3,7269.1,7271.1
201908060833,7271.1,7272,7269.5,7270.1
201908060834,7270.1,7271.1,7263.8,7265.6
201908060835,7265.6,7265.6,7263.3,7263.3
201908060836,7263.3,7263.3,7258.3,7261.7
201908060837,7261.7,7262.1,7256.9,7258.9
201908060838,7258.9,7259.1,7252.4,7255.5
201908060839,7255.5,7258.6,7255.2,7258.3
201908060840,7258.3,7261.8,7258,7260.8
201908060841,7261.3,7261.6,7258.5,7258.5
201908060842,7258.5,7259.4,7253.2,7253.5
201908060843,7253.5,7256.8,7246,7251.6
201908060844,7251.6,7255.5,7249.1,7249.5
201908060845,7249.5,7252.6,7247.6,7248.1
201908060846,7248.1,7248.6,7225.5,7226.8
201908060847,7227.3,7234.2,7226.6,7233.3
201908060848,7233.3,7234.4,7230.7,7232.3
201908060849,7232.3,7237.7,7229.9,7236.9
201908060850,7236.9,7241.1,7235.4,7240.8
201908060851,7240.8,7241.1,7238.3,7241.1
201908060852,7241.1,7243.6,7239.4,7243
201908060853,7242.9,7248.3,7241,7241.5
201908060854,7241.5,7241.5,7233.2,7238.4
201908060855,7238.4,7240.9,7234.1,7240.9
201908060856,7240.9,7248,7239.8,7241.9
201908060857,7241.9,7245.8,7241.8,7242.5
201908060858,7242.5,7244.7,7240.4,7243
201908060859,7243,7244.4,7241.9,7243
201908060900,7243,7255.8,7243,7255
201908060901,7254.4,7258.6,7250.1,7251.3
201908060902,7251.3,7254,7245.6,7246.4
201908060903,7246.4,7247.5,7236.3,7236.6
201908060904,7236.6,7246.1,7236.1,7244.8
201908060905,7244.8,7253.1,7243.6,7252
201908060906,7252,7254.3,7247.3,7248.1
201908060907,7248.1,7249.9,7245.6,7246.2
201908060908,7246.4,7255.4,7246.4,7255.4
201908060909,7255.4,7257.6,7252.1,7253.8
201908060910,7253.8,7262,7252.3,7260.9
201908060911,7261.1,7263,7259.8,7260.3
201908060912,7260.3,7263.3,7259,7261.3
201908060913,7261.3,7271.9,7260.9,7271.7
201908060914,7271.7,7272.9,7266.9,7270.4
201908060915,7270.3,7272.6,7268.5,7271.3
201908060916,7271.4,7271.4,7266.8,7268.3
201908060917,7268.3,7268.3,7265.1,7268
201908060918,7268,7269.3,7266.7,7268.2
201908060919,7268.2,7274.8,7268.2,7274.1
201908060920,7274.6,7275.3,7269.1,7270.2
201908060921,7271.8,7277.3,7271.8,7274
201908060922,7274,7278.3,7271.9,7278.3
201908060923,7278.4,7279.1,7273.1,7274.4
201908060924,7274.7,7276.3,7272.7,7273.4
201908060925,7273.4,7274.1,7269.2,7272.7
201908060926,7272.7,7279.5,7272.1,7279.2
201908060927,7279,7279.3,7274.6,7276.1
201908060928,7276.1,7277,7274.2,7277
201908060929,7277,7280.8,7276.9,7278.6
201908060930,7278.1,7290.2,7278.1,7290.1
201908060931,7290.1,7290.1,7285.9,7287.3
201908060932,7287.3,7288.7,7284,7288.6
201908060933,7288.6,7289.1,7281.9,7282.4
201908060934,7282.4,7283,7279.9,7281.3
201908060935,7281.3,7286.4,7279.9,7285
201908060936,7285.4,7288.6,7284.4,7284.8
201908060937,7284.8,7285.3,7278.8,7282.1
201908060938,7282.1,7283.8,7277.2,7278.5
201908060939,7278.6,7280.4,7271.8,7273.8
201908060940,7273.8,7276.8,7268.5,7268.7
201908060941,7268.7,7275.3,7268.2,7274.1
201908060942,7273.7,7282.1,7273.7,7281.2
201908060943,7281.2,7283,7278.1,7282.9
201908060944,7282.9,7283.3,7279.9,7280.1
201908060945,7280.1,7281.3,7275.6,7279.2
201908060946,7279.2,7282,7275.6,7276.6
201908060947,7276.6,7281.1,7275.7,7281
201908060948,7281,7286.9,7281,7285.6
201908060949,7285.5,7290.7,7284.4,7289.8
201908060950,7289.8,7290,7286.4,7286.4
201908060951,7286.4,7292.5,7285.4,7291.9
201908060952,7291.9,7292.5,7287.4,7287.4
201908060953,7287.4,7288.2,7282.9,7285.1
201908060954,7285.7,7289.5,7285.7,7288.1
201908060955,7288.1,7292.8,7286.8,7286.8
201908060956,7286.8,7296.6,7286.8,7292.1
201908060957,7292.1,7292.1,7287.2,7289.6
201908060958,7289.6,7291.8,7287.1,7287.8
201908060959,7287.8,7288,7282.2,7283.9
201908061000,7284.1,7305.1,7283,7303.8
201908061001,7303.8,7304.1,7292.1,7298.6
201908061002,7298.6,7303.6,7295.9,7303.4
201908061003,7303.4,7323.2,7301.4,7323
201908061004,7324.1,7324.1,7313.3,7313.4
201908061005,7313.4,7317.1,7310.4,7317.1
201908061006,7316.8,7317.1,7308,7311.2
201908061007,7311.7,7312.2,7307.1,7307.7
201908061008,7307.7,7314.8,7306.8,7312.7
201908061009,7312.7,7316.1,7310,7311.9
201908061010,7311.9,7312.1,7306.2,7308.5
201908061011,7308.5,7308.8,7300.2,7300.5
201908061012,7300.5,7302.6,7297.9,7302.2
201908061013,7302.4,7303.3,7299.6,7299.7
201908061014,7299.7,7299.8,7293.6,7294.7
201908061015,7294.7,7345.8,7294.7,7332.2
201908061016,7332.1,7366.9,7329.7,7359.6
201908061017,7359.6,7359.6,7337.6,7341.4
201908061018,7341.4,7344.6,7333.6,7343.1
201908061019,7343.1,7343.6,7321.4,7324.4
201908061020,7324.4,7337.1,7324,7329.4
201908061021,7330.2,7331.8,7321.5,7324.6
201908061022,7324.8,7325.8,7319,7321.4
201908061023,7321.4,7330,7320.5,7327.3
201908061024,7328,7339.6,7327.3,7336.4
201908061025,7335.4,7336.3,7331.2,7332.1
201908061026,7332.1,7353.9,7332.1,7351.7
201908061027,7351.7,7354,7341.7,7344.7
201908061028,7344.7,7345.9,7328.6,7332.9
201908061029,7332.9,7337.3,7326.6,7328.4
201908061030,7328.4,7340.1,7324.1,7324.1
201908061031,7324.5,7331.2,7324.5,7329.6
201908061032,7329.6,7329.8,7320.9,7321.2
201908061033,7321.2,7321.2,7310.8,7317.2
201908061034,7318.4,7320.4,7313,7313
201908061035,7313,7328.7,7313,7327.9
201908061036,7327.9,7331.2,7321.8,7329.2
201908061037,7329.2,7333.2,7326.6,7330
201908061038,7330,7333.3,7325.4,7328.6
201908061039,7328.6,7334.3,7320.2,7331.8
201908061040,7331.8,7333.6,7320.9,7323
201908061041,7323,7330.8,7322.9,7327.1
201908061042,7327.1,7339.1,7326.6,7337.3
201908061043,7337.9,7339.6,7333.8,7336.7
201908061044,7336.8,7338.8,7333.1,7333.1
201908061045,7333.1,7339,7333.1,7339
201908061046,7339.2,7340.9,7338,7340
201908061047,7340.1,7342.8,7332.3,7332.7
201908061048,7332.7,7334,7316.5,7317.4
201908061049,7317.4,7323.1,7317.2,7322
201908061050,7322,7324.2,7317.5,7324.2
201908061051,7324.2,7337,7324,7334.7
201908061052,7334.7,7336.7,7332.1,7333.7
201908061053,7333.7,7339.3,7333.1,7337
201908061054,7337,7340.6,7336.4,7338.2
201908061055,7338.2,7343.6,7333,7336
201908061056,7336,7337.8,7331.8,7332.3
201908061057,7333,7334.2,7326.8,7327.8
201908061058,7327.7,7330.1,7321.3,7325.5
201908061059,7325.5,7332.5,7325.1,7330.6
201908061100,7330.6,7333.5,7322.2,7323.9
201908061101,7323.9,7328.2,7322.7,7328.2
201908061102,7328.5,7338,7327.1,7335.6
201908061103,7335.6,7335.6,7327.7,7328.2
201908061104,7328.2,7330.4,7325.2,7326.2
201908061105,7326.2,7328.2,7322.7,7324.4
201908061106,7324.4,7325.4,7320.1,7320.2
201908061107,7320.2,7326,7320.1,7324.2
201908061108,7324.2,7326.1,7321.2,7325.5
201908061109,7325.5,7325.8,7315.6,7317.2
201908061110,7317.2,7324.7,7315.4,7321.1
201908061111,7321.1,7323.4,7319.1,7322.4
201908061112,7322.3,7324.3,7319.8,7324.3
201908061113,7324.2,7326.8,7322,7322.3
201908061114,7322.2,7325.7,7320.1,7324.4
201908061115,7324.4,7325.7,7321.2,7325.2
201908061116,7325.2,7332.6,7325.1,7329.3
201908061117,7329.3,7330.6,7325.5,7325.5
201908061118,7325.1,7328.8,7324,7328.5
201908061119,7328.2,7331.3,7327.6,7328.4
201908061120,7328.4,7328.4,7321.5,7321.5
201908061121,7321.5,7324.5,7320.8,7321.1
201908061122,7321.1,7323.8,7320,7321.4
201908061123,7321.4,7321.9,7320,7320.5
201908061124,7320.5,7323,7319.7,7321.8
201908061125,7321.8,7321.9,7319.8,7321.9
201908061126,7321.9,7321.9,7317.4,7317.4
201908061127,7317.4,7317.8,7311.8,7312.8
201908061128,7312.8,7321.3,7311.9,7320.3
201908061129,7320.3,7320.3,7316.1,7316.1
201908061130,7316.1,7318.8,7315.6,7317.7
201908061131,7317.7,7317.8,7307.6,7313.2
201908061132,7313.2,7315.3,7312,7313.6
201908061133,7313.5,7314.3,7304.1,7306
201908061134,7306.2,7307.2,7302.8,7305.5
201908061135,7305.3,7309.9,7304.4,7308.7
201908061136,7308.7,7310.1,7306.9,7309.8
201908061137,7309.8,7313.3,7307.6,7308.4
201908061138,7308.4,7310.8,7308,7310.5
201908061139,7310.5,7317.6,7310.3,7317
201908061140,7317,7320.1,7313,7320.1
201908061141,7320.1,7323.8,7318.2,7322.8
201908061142,7322.8,7322.8,7315.2,7318.9
201908061143,7319.6,7323.5,7319.3,7322.1
201908061144,7322.1,7323.5,7320.3,7323.5
201908061145,7323.5,7323.5,7315.3,7319.8
201908061146,7319.8,7322.3,7319,7321.8
201908061147,7321.8,7322.1,7317.7,7317.9
201908061148,7317.9,7320.4,7317.9,7319.7
201908061149,7319.9,7323.1,7319.3,7323.1
201908061150,7323.1,7323.9,7317,7317
201908061151,7317,7317.6,7314.7,7315.5
201908061152,7315,7321.6,7314.9,7321.1
201908061153,7321.1,7326.5,7320,7325.8
201908061154,7325.9,7325.9,7323.4,7325.2
201908061155,7325.2,7327.5,7325.1,7326.7
201908061156,7326.7,7331.8,7325.9,7330.9
201908061157,7330.9,7335.3,7330.7,7335.1
201908061158,7335.1,7335.5,7331.1,7333.1
201908061159,7332.9,7336.2,7332.9,7336
201908061200,7336.6,7336.6,7330.7,7333.8
201908061201,7333.8,7334,7331.6,7332.3
201908061202,7332,7337.1,7331.7,7334.2
201908061203,7334.2,7335.3,7331.6,7333.2
201908061204,7333.2,7337.5,7333.2,7336.4
201908061205,7336.4,7336.6,7330.2,7330.8
201908061206,7330.8,7339,7330.1,7337.9
201908061207,7337.9,7340.6,7337.3,7337.3
201908061208,7337.2,7339.8,7336.9,7338.9
201908061209,7338.9,7340,7334.4,7334.5
201908061210,7334.5,7336.6,7330.2,7332.5
201908061211,7332.3,7334.1,7330.6,7332.8
201908061212,7332.8,7335.3,7332.1,7334.8
201908061213,7334.9,7336.3,7334.3,7334.5
201908061214,7335,7335,7332.3,7332.9
201908061215,7332.9,7333.9,7330.8,7331.7
201908061216,7331.6,7337.5,7331.6,7335.1
201908061217,7335.1,7338.6,7334.6,7338.2
201908061218,7338.2,7342.3,7336.1,7342.1
201908061219,7342.3,7350.1,7342.3,7349.1
201908061220,7349.1,7350.3,7345.9,7348
201908061221,7348,7352.9,7347.4,7349.4
201908061222,7349.4,7355.1,7349.4,7353.6
201908061223,7353.6,7354.6,7351,7351.7
201908061224,7351.7,7352.5,7350.6,7351.1
201908061225,7351.1,7351.3,7347.1,7348.9
201908061226,7348.9,7350.4,7347.1,7349.2
201908061227,7349.3,7350.7,7346.8,7347.7
201908061228,7347.7,7357.3,7347.5,7356.6
201908061229,7357,7359.1,7355.9,7358.2
201908061230,7358.2,7358.6,7354,7356.4
201908061231,7356.4,7359.5,7355.1,7355.3
201908061232,7355.3,7358.8,7354.9,7358.4
201908061233,7358.4,7369,7358.4,7367.3
201908061234,7367.3,7371,7364.9,7369
201908061235,7369.3,7373.3,7369.3,7370.9
201908061236,7370.9,7372.8,7369.4,7372.6
201908061237,7372.6,7377.3,7372.1,7376
201908061238,7376.4,7385.5,7376.1,7385.4
201908061239,7385.4,7387,7379.9,7382.4
201908061240,7382.4,7386.4,7380.2,7386.3
201908061241,7386.1,7386.8,7383.1,7384.5
201908061242,7384.6,7384.8,7382.2,7383.9
201908061243,7383.9,7387.3,7383,7385.7
201908061244,7385.9,7388.2,7385,7388.2
201908061245,7388.3,7388.6,7383.9,7384.9
201908061246,7384.9,7389.5,7383.9,7388.6
201908061247,7388.6,7391.3,7388.5,7389.9
201908061248,7389.9,7390.4,7385.4,7386.4
201908061249,7386.3,7386.3,7383.5,7384.9
201908061250,7384.9,7386.8,7384.2,7386.5
201908061251,7386.5,7392.9,7386.5,7392.7
201908061252,7392.7,7401.7,7390.7,7401.4
201908061253,7401.4,7406.5,7401.1,7406.5
201908061254,7406.7,7413.3,7406,7412.8
201908061255,7412.8,7414.6,7406.3,7413.1
201908061256,7413.1,7413.1,7408.9,7412
201908061257,7412,7416.7,7411.5,7415.7
201908061258,7415.7,7421.1,7415.6,7421
201908061259,7421,7421.5,7417.8,7420
201908061300,7419.7,7425.3,7414.4,7417
201908061301,7417,7417.5,7412.6,7415.6
201908061302,7415.6,7425.1,7414,7423.3
201908061303,7422.9,7426.6,7422.4,7424.5
201908061304,7424.5,7435.3,7424.3,7432.4
201908061305,7432.4,7439.2,7428,7438.7
201908061306,7438.5,7452,7438.2,7450.1
201908061307,7450.1,7452.8,7440.8,7444.7
201908061308,7444.7,7446.3,7439.2,7439.2
201908061309,7439.5,7441.4,7434.4,7438.1
201908061310,7438.1,7440.1,7435.3,7437.2
201908061311,7437.2,7447.1,7436.2,7441.4
201908061312,7441.6,7446.3,7440.9,7444.5
201908061313,7444.5,7446.1,7442.7,7445.2
201908061314,7445.1,7445.1,7438.8,7443.3
201908061315,7443.3,7447.6,7439.4,7439.4
201908061316,7439.4,7443.5,7437.1,7440
201908061317,7440,7440.1,7435.2,7439.6
201908061318,7439.4,7439.6,7436.4,7437
201908061319,7437,7440.3,7436,7436.1
201908061320,7436.1,7436.1,7432.4,7434.3
201908061321,7434.3,7436.3,7433.5,7435.7
201908061322,7435.6,7436.6,7433.7,7434
201908061323,7434,7434.2,7425,7426.4
201908061324,7426.4,7426.5,7422.2,7423
201908061325,7423.2,7428.7,7423,7427.9
201908061326,7427.9,7427.9,7417.8,7419.2
201908061327,7419.5,7421,7417,7417.7
201908061328,7417.7,7420.8,7417.5,7418.6
201908061329,7418.6,7420.7,7417.9,7418
201908061330,7418,7421.1,7416.7,7420.8
201908061331,7420.8,7420.9,7416.2,7416.3
201908061332,7416.3,7416.8,7411.7,7413.3
201908061333,7412.8,7412.8,7406.6,7408.8
201908061334,7408.8,7408.8,7404.8,7405.8
201908061335,7405.8,7406.8,7403.1,7404
201908061336,7403.8,7405,7398.3,7400.7
201908061337,7400.7,7404.1,7400.3,7403.1
201908061338,7403.1,7403.1,7398.6,7400.3
201908061339,7401.3,7404.3,7400.5,7401.7
201908061340,7401.7,7412.3,7401,7409.4
201908061341,7409.4,7412,7407.1,7411.5
201908061342,7411.5,7417.1,7410.8,7413.5
201908061343,7413.5,7414.5,7408.3,7410
201908061344,7410,7410.8,7408.3,7409.4
201908061345,7409.4,7409.4,7403.2,7403.9
201908061346,7403.9,7405.1,7402.2,7404.8
201908061347,7404.8,7406.4,7402.2,7403
201908061348,7402.4,7404.3,7398.8,7403.8
201908061349,7403.8,7406.4,7402.9,7405.9
201908061350,7405.9,7407.3,7399.1,7399.2
201908061351,7399.4,7403.6,7398,7402.4
201908061352,7402.4,7402.4,7394.3,7394.6
201908061353,7394.6,7399,7393.4,7397.5
201908061354,7397.5,7398.8,7396,7397.3
201908061355,7397.3,7405,7395.5,7405
201908061356,7405,7407,7403.8,7406.9
201908061357,7406.9,7410.3,7402.4,7402.4
201908061358,7402.4,7404.1,7399.6,7399.6
201908061359,7399.6,7400.8,7396.7,7398.5
201908061400,7398.7,7406.9,7398.7,7404.1
201908061401,7404.1,7405.1,7401,7403.2
201908061402,7403.2,7408.7,7402.4,7408.5
201908061403,7408.5,7415.9,7407.6,7414.7
201908061404,7415.5,7415.5,7409.2,7410.2
201908061405,7410.2,7414.4,7407,7413.7
201908061406,7413.7,7414.1,7411.2,7411.4
201908061407,7411.4,7412.8,7409.1,7409.5
201908061408,7409.5,7410.1,7407.4,7407.6
201908061409,7407.6,7415.5,7405.9,7415.5
201908061410,7415.7,7421.7,7415.1,7419.2
201908061411,7419.2,7423.6,7419.2,7422.4
201908061412,7422.4,7423.1,7415.1,7418.6
201908061413,7418.6,7422.5,7418.2,7420.3
201908061414,7420.3,7424.2,7420.3,7423.8
201908061415,7423.8,7424.3,7419.5,7420.6
201908061416,7420.7,7424.5,7420.7,7422.6
201908061417,7422.6,7423.7,7419.8,7420.3
201908061418,7420.3,7422.3,7419.9,7421.4
201908061419,7421.7,7423.8,7421.3,7422.9
201908061420,7423,7424.4,7420.3,7421.1
201908061421,7421.1,7422.1,7417.1,7419.3
201908061422,7419.4,7425,7417.7,7424.1
201908061423,7424.1,7424.1,7421.3,7421.3
201908061424,7421.3,7425.4,7421.3,7424.6
201908061425,7424.2,7426.7,7423.6,7426.7
201908061426,7426.7,7426.7,7421.3,7422.1
201908061427,7422.1,7425,7422.1,7424
201908061428,7424,7426.5,7422.5,7426.1
201908061429,7426,7426.7,7424.9,7425.8
201908061430,7425.8,7428,7423.6,7426.7
201908061431,7426.6,7427.4,7426,7426.6
201908061432,7426.6,7426.8,7420,7422.1
201908061433,7422.1,7423.2,7418.7,7418.8
201908061434,7418.9,7418.9,7416,7416.4
201908061435,7416.4,7420.8,7411.7,7412.5
201908061436,7412.5,7413.5,7411.2,7411.8
201908061437,7411.8,7412.1,7407.6,7409.7
201908061438,7409.7,7411.1,7408.7,7410.1
201908061439,7410.1,7410.8,7408.2,7409.4
201908061440,7409.4,7413.1,7407.9,7412.1
201908061441,7412.1,7414.6,7411,7413.4
201908061442,7413.4,7417.3,7412.5,7412.8
201908061443,7412.8,7413.6,7408.6,7410.5
201908061444,7410.5,7412.4,7409,7409.9
201908061445,7409.9,7412.1,7409.1,7411.1
201908061446,7411.1,7411.6,7408.8,7411.6
201908061447,7411.9,7413.8,7405.6,7407
201908061448,7407,7410.6,7406.3,7410.1
201908061449,7410.2,7410.2,7407,7407.8
201908061450,7407.8,7411.4,7407.5,7407.6
201908061451,7407.7,7410.8,7407,7410.4
201908061452,7410.4,7413,7410.4,7412.2
201908061453,7412.2,7414.3,7412.1,7413
201908061454,7413,7414.4,7410.6,7413.4
201908061455,7413.4,7415.8,7413,7415.3
201908061456,7415.3,7415.3,7409,7409.6
201908061457,7409.6,7412.2,7408.5,7412.2
201908061458,7412.2,7413.2,7410.3,7411.7
201908061459,7411.7,7415.6,7410.2,7414.6
201908061500,7414.6,7415.6,7404.9,7409.3
201908061501,7409.3,7422.7,7409.3,7422.4
201908061502,7422.6,7423.4,7418.6,7418.9
201908061503,7418.9,7427.1,7418.9,7426.8
201908061504,7426.8,7430.1,7424.1,7428.7
201908061505,7428.7,7430.9,7426.3,7428.7
201908061506,7428.7,7429.5,7427.3,7429.3
201908061507,7429.3,7429.9,7425.5,7426.4
201908061508,7426.4,7426.6,7421.5,7421.7
201908061509,7421.7,7423.2,7415.8,7420.2
201908061510,7420.2,7422.9,7420.1,7422.6
201908061511,7423.3,7426.3,7422,7424.3
201908061512,7424.3,7424.8,7420,7423.3
201908061513,7423.3,7424.2,7418.1,7418.8
201908061514,7418.9,7422.4,7416.3,7421.3
201908061515,7421.3,7421.4,7416,7418.6
201908061516,7418.6,7420.7,7411.5,7412.3
201908061517,7412.5,7418.6,7409.8,7417.3
201908061518,7417.3,7417.3,7413.3,7413.4
201908061519,7413.5,7418.8,7413.5,7415.3
201908061520,7415.3,7423.8,7414.8,7423.5
201908061521,7423.5,7425.1,7419,7421.2
201908061522,7421.2,7426.8,7421.2,7425.9
201908061523,7425.7,7426.5,7422.2,7424.8
201908061524,7424.9,7427.3,7423.8,7424.1
201908061525,7424.2,7425,7420.8,7421.7
201908061526,7421.2,7423.8,7419,7420.5
201908061527,7420.4,7424.2,7419.4,7423.9
201908061528,7423.9,7426.5,7422,7423.2
201908061529,7423.8,7425.5,7422.5,7422.5
201908061530,7422.5,7426.8,7421.7,7425.5
201908061531,7425.5,7428.4,7425.5,7427.2
201908061532,7426.3,7427.3,7424.6,7426.3
201908061533,7426.4,7426.9,7418.3,7418.7
201908061534,7418.7,7422.7,7418.6,7422.3
201908061535,7422.4,7426.4,7419.7,7423.5
201908061536,7423.3,7426.6,7422,7425
201908061537,7425,7425.1,7420.5,7420.7
201908061538,7420.7,7423.3,7419.9,7421.3
201908061539,7421.4,7422.1,7419.5,7421.8
201908061540,7421.7,7427.3,7421.3,7426.4
201908061541,7426.4,7426.4,7422.6,7425.1
201908061542,7425.6,7428.5,7425.5,7427.8
201908061543,7427.8,7427.8,7425.5,7426
201908061544,7426,7426.3,7424,7425
201908061545,7424.8,7425.4,7422.3,7423.3
201908061546,7423.3,7424.8,7421.3,7424.3
201908061547,7424.3,7425.6,7422.5,7425.3
201908061548,7425.3,7427.4,7419.9,7420.1
201908061549,7420.1,7425.6,7419.5,7425.6
201908061550,7425.6,7427.2,7424.4,7425.8
201908061551,7425.9,7426.5,7422.2,7425.7
201908061552,7425.7,7429.4,7425.3,7428.9
201908061553,7428.9,7432.3,7428.6,7429.5
201908061554,7429.5,7432.7,7429.2,7432.7
201908061555,7432.7,7432.7,7426.4,7427.9
201908061556,7427.9,7432.2,7427.9,7431
201908061557,7431.2,7432.3,7427,7428.4
201908061558,7428.4,7431,7428.4,7429.1
201908061559,7429.1,7431.4,7426.5,7431.4
201908061600,7431.4,7431.4,7421.1,7428
201908061601,7428,7430.5,7423.5,7429.4
201908061602,7429.4,7429.9,7423.9,7426.2
201908061603,7426.2,7426.8,7423.2,7424.9
201908061604,7424.9,7429.1,7422.3,7428.6
201908061605,7428.6,7429.9,7423.8,7426.2
201908061606,7426.8,7429.8,7424.9,7426.5
201908061607,7426.5,7437.1,7426.5,7436.1
201908061608,7436.1,7441.1,7436.1,7437.8
201908061609,7437.8,7440.1,7436.1,7437.4
201908061610,7437.4,7441.1,7437.4,7440.2
201908061611,7440.2,7442.1,7439.3,7441.8
201908061612,7441.8,7442.3,7436.8,7437.5
201908061613,7437.5,7437.5,7429.9,7430.8
201908061614,7430.8,7433.8,7428.7,7432.9
201908061615,7433.2,7435.7,7428.9,7434.4
201908061616,7434.4,7434.9,7429.5,7431.8
201908061617,7431.8,7438.5,7430.7,7436.4
201908061618,7437.1,7441.1,7436.8,7437.9
201908061619,7437.9,7438.8,7435.8,7437.6
201908061620,7437.6,7441.5,7437.6,7440.4
201908061621,7440.1,7443.3,7438.4,7440.4
201908061622,7440.4,7445.6,7439.5,7444.6
201908061623,7444.6,7445.9,7442.8,7445.9
201908061624,7445.9,7448.5,7445.9,7447.1
201908061625,7447.1,7450,7447.1,7448.6
201908061626,7448.6,7452.3,7447.6,7450.1
201908061627,7450.1,7450.9,7446.5,7447.6
201908061628,7447.6,7448,7444.1,7444.8
201908061629,7444.9,7447.6,7444.7,7447.1
201908061630,7447.1,7447.1,7443.6,7444
201908061631,7444,7446.3,7443.4,7444.8
201908061632,7444.8,7445.6,7443.5,7445.2
201908061633,7445.3,7448.5,7444.7,7447.9
201908061634,7448.3,7449,7446.3,7447.8
201908061635,7447.8,7448.2,7444.9,7445.8
201908061636,7445.8,7447.9,7445.1,7447.7
201908061637,7447.7,7448.8,7447.2,7447.9
201908061638,7447.9,7448.6,7446.8,7447.4
201908061639,7447.6,7450.3,7447.5,7449.3
201908061640,7449.4,7450.1,7447.2,7447.6
201908061641,7447.6,7451.1,7447,7447.1
201908061642,7447.1,7447.6,7439.9,7439.9
201908061643,7439.4,7439.8,7433,7433.6
201908061644,7433.6,7435,7430.4,7431.7
201908061645,7431.7,7432.6,7428,7431.2
201908061646,7431.2,7431.2,7421.3,7421.7
201908061647,7421.7,7422.6,7419,7419.5
201908061648,7419.5,7422.3,7416.9,7418.5
201908061649,7418.7,7424.3,7418.7,7421.9
201908061650,7421.9,7425.5,7421.9,7423.3
201908061651,7423.3,7425.9,7422.9,7425.9
201908061652,7425.9,7426.6,7424.5,7424.6
201908061653,7424.6,7425.1,7418.8,7419.1
201908061654,7419.1,7424.1,7418.3,7424.1
201908061655,7424.1,7433.4,7423.2,7429.8
201908061656,7429.8,7433.6,7427.9,7432.6
201908061657,7432.6,7432.6,7428.1,7431.1
201908061658,7431,7431.1,7422.9,7423
201908061659,7423,7425.1,7419.9,7423.5
201908061700,7423.5,7427.8,7420.2,7426.8
201908061701,7426.9,7426.9,7415.1,7415.1
201908061702,7414.9,7415.1,7406.5,7406.5
201908061703,7406.5,7410.9,7406,7408.2
201908061704,7408.2,7412.6,7408.2,7412.4
201908061705,7412.4,7417,7412.1,7415.1
201908061706,7415,7415.1,7410.3,7411.1
201908061707,7411.1,7415.5,7411,7415.4
201908061708,7415.4,7420.3,7414.8,7419.8
201908061709,7419.8,7421.1,7416.6,7418.9
201908061710,7418.9,7424.7,7415.3,7423.9
201908061711,7423.8,7423.8,7419.9,7422.8
201908061712,7422.8,7424.5,7415.4,7424
201908061713,7424,7428.3,7422.4,7427.6
201908061714,7426.6,7430.6,7425.4,7429.1
201908061715,7429.1,7429.1,7421.9,7425.4
201908061716,7425.4,7430.4,7425,7430.4
201908061717,7430.4,7432.9,7428.6,7432.9
201908061718,7432.9,7438.5,7432.7,7436.6
201908061719,7436.6,7439.4,7436.1,7436.7
201908061720,7436.3,7441.1,7436.3,7440.3
201908061721,7440.3,7446,7440.3,7444.7
201908061722,7444.7,7447.1,7443.1,7446.8
201908061723,7446.8,7448.8,7443.8,7448.4
201908061724,7448.4,7449.5,7446.3,7447.8
201908061725,7447.8,7448.9,7446.1,7446.3
201908061726,7446.3,7453.8,7446.3,7453.6
201908061727,7453.6,7457.5,7453.6,7454.8
201908061728,7454.8,7470.8,7454.8,7470.8
201908061729,7470.8,7473.1,7468.6,7471.9
201908061730,7471.9,7474.4,7466.7,7467.4
201908061731,7467.4,7469.2,7465,7465.9
201908061732,7465.2,7467.6,7462.5,7462.5
201908061733,7462.5,7466.7,7462.5,7466.6
201908061734,7466.6,7467.2,7458.5,7459.5
201908061735,7459.5,7463.4,7459.5,7463.1
201908061736,7463.1,7465.4,7461.1,7465.4
201908061737,7465.4,7466.5,7464.8,7465.5
201908061738,7465.5,7469.5,7464.3,7467.3
201908061739,7467.7,7473.4,7467.4,7469.6
201908061740,7469.6,7473.5,7468.4,7470.5
201908061741,7470.4,7472.6,7468.4,7469.9
201908061742,7469.9,7470.3,7465,7468.5
201908061743,7468.6,7468.7,7463.7,7465
201908061744,7465,7471.3,7464.4,7471
201908061745,7471,7474.1,7469.5,7470.5
201908061746,7470.6,7470.8,7466,7467
201908061747,7467,7470.8,7465.1,7470.1
201908061748,7470.1,7471.3,7468.3,7470.1
201908061749,7470.1,7472.2,7468.1,7471.5
201908061750,7471.3,7473.3,7468.5,7469.2
201908061751,7469.2,7469.8,7466.5,7467.2
201908061752,7467.2,7470.6,7467.2,7470.4
201908061753,7470.4,7470.5,7466.6,7466.7
201908061754,7466.7,7468.6,7464.7,7468.4
201908061755,7468.4,7469.1,7467.7,7468.1
201908061756,7468.1,7469.4,7467.7,7468.5
201908061757,7468.5,7468.8,7463.9,7464.3
201908061758,7464.2,7467.8,7463.4,7467.8
201908061759,7467.8,7472.1,7467.4,7470.4
201908061800,7470.2,7470.6,7464.2,7464.3
201908061801,7464.4,7469.2,7463.7,7466.7
201908061802,7466.7,7468.8,7466.1,7466.8
201908061803,7466.8,7467.8,7464.6,7464.8
201908061804,7464.8,7465.6,7463.2,7463.8
201908061805,7463.8,7465.4,7463,7464.9
201908061806,7464.9,7466.3,7463.9,7463.9
201908061807,7463.9,7467.3,7463.9,7466.5
201908061808,7466.5,7468.9,7464.4,7468.8
201908061809,7469.4,7471.8,7467.4,7470.9
201908061810,7470.9,7472.8,7469.1,7472.4
201908061811,7472.4,7472.4,7469.6,7470.2
201908061812,7470.2,7473.8,7470.2,7473.3
201908061813,7473.3,7473.3,7469.6,7471.4
201908061814,7471.4,7471.4,7467.8,7470.6
201908061815,7470.6,7470.6,7468.9,7469.6
201908061816,7469.6,7471.3,7469.4,7470.9
201908061817,7470.8,7471.9,7469.5,7471.7
201908061818,7471.3,7477.1,7471,7476.3
201908061819,7476.3,7478.3,7475.2,7475.8
201908061820,7475.8,7484.3,7475.8,7484.3
201908061821,7484.3,7485.7,7481.1,7484.5
201908061822,7484.5,7484.5,7480.3,7480.5
201908061823,7480.5,7480.5,7477,7477.2
201908061824,7477.2,7479.1,7476.4,7477.2
201908061825,7477.2,7480.8,7476,7480.5
201908061826,7480.6,7480.6,7477.9,7479.4
201908061827,7479.4,7479.4,7476.9,7477.3
201908061828,7477.3,7480.3,7476.9,7479.8
201908061829,7479.8,7482.3,7479.7,7481.9
201908061830,7481.9,7482.3,7474,7474.4
201908061831,7474.4,7476.4,7473.6,7475.2
201908061832,7475.2,7477.6,7473.4,7476.6
201908061833,7476.6,7477,7474.4,7475.6
201908061834,7475.6,7476.8,7473.9,7474.6
201908061835,7474.6,7476.8,7472,7472
201908061836,7472.2,7473.3,7472,7472
201908061837,7472.3,7474.8,7472,7473.3
201908061838,7473.3,7479.3,7472.1,7478.1
201908061839,7478.1,7478.1,7474.1,7474.1
201908061840,7474.2,7479.7,7473.3,7479.3
201908061841,7479.4,7480.4,7477.7,7479.2
201908061842,7479.2,7482.5,7478.6,7482.3
201908061843,7482.3,7484.2,7479.5,7479.5
201908061844,7479.6,7484.2,7479.6,7483.8
201908061845,7483.8,7483.8,7480,7480
201908061846,7480,7480,7477.2,7478
201908061847,7478,7480.8,7476.7,7479.9
201908061848,7479.9,7480.9,7477.9,7480.9
201908061849,7480.9,7480.9,7476.1,7479.6
201908061850,7479.6,7480,7477.6,7477.6
201908061851,7477.6,7480.1,7477.4,7479.6
201908061852,7479.8,7480,7477.4,7477.9
201908061853,7477.9,7477.9,7474.3,7474.3
201908061854,7474.2,7475.7,7472.6,7474.8
201908061855,7474.6,7476.8,7472.8,7473
201908061856,7473,7473.8,7471.5,7472.1
201908061857,7472.1,7473.5,7469.9,7471.1
201908061858,7470.6,7471.3,7464.1,7464.5
201908061859,7464.5,7466.8,7463.3,7465.8
201908061900,7465.8,7467,7464.6,7466
201908061901,7466,7466.5,7463.2,7463.5
201908061902,7463.5,7464.8,7458.6,7458.6
201908061903,7458.6,7462,7458,7459.5
201908061904,7459.5,7460,7457.8,7457.8
201908061905,7457.8,7461.3,7457.5,7459.6
201908061906,7459.6,7460.2,7457.5,7458.6
201908061907,7458.8,7459.7,7458,7458
201908061908,7458,7458.8,7453.4,7453.5
201908061909,7453.5,7455.6,7452.4,7455.1
201908061910,7455.1,7455.1,7450.2,7451.5
201908061911,7451.3,7456.4,7451.3,7456.2
201908061912,7456.2,7456.9,7454,7456
201908061913,7456,7457.3,7455.4,7455.5
201908061914,7455.5,7455.7,7450.8,7450.8
201908061915,7450.8,7454.1,7450.4,7454.1
201908061916,7454.1,7459,7452.2,7457.2
201908061917,7457.3,7457.6,7455.5,7456.2
201908061918,7456.1,7458.5,7455.6,7457
201908061919,7457.1,7457.1,7455.7,7456.2
201908061920,7456.2,7456.4,7454.5,7455.7
201908061921,7455.7,7456.2,7455.5,7455.8
201908061922,7455.8,7456.1,7451.6,7452.3
201908061923,7452.3,7456.3,7452,7456.2
201908061924,7456.2,7459.2,7455.4,7456.9
201908061925,7456.9,7458.3,7454.6,7454.8
201908061926,7454.8,7457.3,7454,7456.4
201908061927,7456.4,7457.1,7453.5,7454.6
201908061928,7454.6,7456.6,7454.6,7455.8
201908061929,7455.6,7458.3,7455.4,7456.6
201908061930,7456.6,7459.1,7456.4,7459.1
201908061931,7459.1,7461.4,7459.1,7460.4
201908061932,7460.4,7463.5,7460.2,7463.5
201908061933,7463.6,7469.2,7463.6,7469.2
201908061934,7469.2,7469.2,7466.3,7468.1
201908061935,7468.1,7468.2,7466.5,7466.9
201908061936,7466.9,7468.2,7465.5,7466.6
201908061937,7466.6,7467.4,7465.5,7467
201908061938,7467,7467,7464,7466
201908061939,7466,7467.1,7464.8,7466.4
201908061940,7466.4,7466.8,7465.8,7466.6
201908061941,7466.6,7466.8,7461.2,7464.1
201908061942,7464.1,7465.8,7462.7,7463.8
201908061943,7463.8,7464.4,7461.5,7463.9
201908061944,7463.9,7465.9,7463.9,7465.9
201908061945,7465.8,7472.2,7464.9,7472.1
201908061946,7472.1,7472.1,7469.2,7469.6
201908061947,7469.6,7470.5,7469.4,7470.1
201908061948,7470.1,7470.7,7466.6,7467
201908061949,7467,7467.4,7461.3,7463.1
201908061950,7463.1,7464.8,7461.7,7464
201908061951,7464,7464.4,7461,7461.5
201908061952,7461.5,7463.8,7461.5,7461.9
201908061953,7461.9,7463.7,7461.9,7462.3
201908061954,7462.3,7462.3,7459.9,7460.1
201908061955,7460.1,7460.3,7455.4,7456
201908061956,7456,7456.5,7453.2,7453.4
201908061957,7453.4,7455.2,7453.2,7454.7
201908061958,7454.6,7455.3,7453.5,7454.6
201908061959,7454.7,7459.4,7454.7,7459.3
201908062000,7459.3,7459.3,7453.4,7453.4
201908062001,7453.4,7455.3,7452.9,7455.1
201908062002,7455.1,7462.1,7454.6,7458.9
201908062003,7458.8,7458.8,7453.8,7455.1
201908062004,7455.1,7455.1,7450.2,7451
201908062005,7451,7453.8,7450.1,7450.3
201908062006,7450.1,7453.3,7450,7452.4
201908062007,7452.4,7455.3,7451.9,7454.8
201908062008,7454.8,7456.9,7453.3,7456.4
201908062009,7456.3,7461.2,7455.5,7459.5
201908062010,7459.6,7464.8,7458.7,7460.5
201908062011,7460.5,7462.3,7451.8,7452.9
201908062012,7452.9,7457.8,7452.9,7455.5
201908062013,7455.5,7455.5,7451.6,7452.2
201908062014,7452.2,7458.2,7451.6,7458.2
201908062015,7458.2,7463.8,7458.1,7462.6
201908062016,7462.6,7465.1,7462.6,7464.2
201908062017,7464.2,7464.3,7460.8,7461.1
201908062018,7461.1,7463.2,7460.6,7462.5
201908062019,7462.5,7465,7460.9,7464.3
201908062020,7464.3,7466.4,7463.1,7466.2
201908062021,7466.5,7474,7465.4,7472.6
201908062022,7472.6,7473.9,7470.7,7470.7
201908062023,7470.7,7472,7469.9,7470.5
201908062024,7470.1,7472.6,7470.1,7471.7
201908062025,7471.7,7471.7,7468.1,7469.8
201908062026,7469.7,7470.1,7468.4,7469
201908062027,7469,7472.3,7468,7471.2
201908062028,7471.2,7475.7,7471.1,7473.3
201908062029,7473.3,7474.5,7471.9,7473.1
201908062030,7473.1,7475.9,7472.9,7473.6
201908062031,7473.6,7475.6,7472.8,7474.4
201908062032,7474.4,7475,7471.7,7472.7
201908062033,7472.7,7473.8,7471.6,7473.3
201908062034,7473.3,7473.6,7471.6,7472.3
201908062035,7472.3,7474.6,7471,7473.3
201908062036,7473.3,7473.9,7471.3,7473.8
201908062037,7474.3,7477.9,7473.7,7476.8
201908062038,7476.8,7491.8,7475.8,7488.7
201908062039,7488.7,7489.5,7483.5,7485.5
201908062040,7485.5,7487.3,7482,7486.5
201908062041,7486.5,7488.6,7485.1,7487.2
201908062042,7487.2,7489.8,7487.2,7489.4
201908062043,7489.5,7489.7,7487,7489.3
201908062044,7489.3,7493.5,7486.9,7493.3
201908062045,7493.4,7493.4,7485.7,7486.9
201908062046,7486.9,7488.1,7485.8,7486.9
201908062047,7486.9,7486.9,7475,7475.3
201908062048,7475.3,7475.8,7470.1,7472.2
201908062049,7472.2,7476.5,7472.1,7472.1
201908062050,7472.1,7475,7472,7472.2
201908062051,7472.2,7473.6,7470,7470.9
201908062052,7470.9,7471.5,7466.1,7466.8
201908062053,7466.8,7474.1,7466.5,7473.3
201908062054,7473.3,7473.7,7468.1,7468.5
201908062055,7468.5,7471.8,7466.9,7471.4
201908062056,7471.4,7471.8,7470.1,7471.1
201908062057,7471.1,7471.9,7469.3,7470.1
201908062058,7470.2,7471.6,7468.5,7470
201908062059,7470,7472.8,7469.4,7471.6
201908062100,7471.6,7476.7,7471.6,7476.7
201908062101,7476.7,7477.3,7469.3,7469.9
201908062102,7469.9,7472.9,7467.8,7470.7
201908062103,7470.7,7472.9,7469,7472.6
201908062104,7473.2,7474.6,7470.1,7473.5
201908062105,7473.4,7475.1,7471.9,7473.7
201908062106,7473.7,7481.7,7473.7,7480.6
201908062107,7480.3,7481.6,7479.7,7480.5
201908062108,7480.5,7480.6,7474.9,7475.1
201908062109,7475.1,7476.6,7471.1,7471.1
201908062110,7471.1,7474.4,7470,7470
201908062111,7470,7471.1,7465.6,7469.3
201908062112,7469.3,7473.1,7468,7471.1
201908062113,7471.1,7474,7470.6,7471.5
201908062114,7471.5,7474.8,7471.5,7472.3
201908062115,7472.3,7472.8,7469.2,7470.1
201908062116,7470.1,7471,7467.6,7469.3
201908062117,7468.6,7472.3,7468.6,7472.3
201908062118,7472.4,7472.9,7466.4,7466.8
201908062119,7466.8,7468.1,7465.7,7467.6
201908062120,7467.6,7468.3,7465.6,7465.9
201908062121,7465.9,7467.8,7464.9,7464.9
201908062122,7464.9,7466,7461.4,7461.8
201908062123,7461.8,7463.6,7460.2,7462.3
201908062124,7462.4,7462.4,7457.3,7457.9
201908062125,7457.9,7458.8,7453.6,7455.8
201908062126,7455.8,7459.3,7454.9,7458
201908062127,7458,7462.1,7458,7461.3
201908062128,7461.3,7461.3,7458.5,7459.4
201908062129,7459.4,7460.8,7458.4,7459
201908062130,7459,7461.8,7458.1,7461.8
201908062131,7461.8,7465.5,7461.7,7465.3
201908062132,7465.3,7474.3,7465,7470.3
201908062133,7470.3,7473.7,7470,7470.1
201908062134,7470.1,7474.3,7470.1,7473.8
201908062135,7473.4,7476.5,7472.3,7474.4
201908062136,7474.4,7474.4,7467.4,7468
201908062137,7468,7468,7462.2,7465.8
201908062138,7466.4,7467.3,7462.5,7463.9
201908062139,7463.9,7466.3,7463.2,7464.7
201908062140,7464.7,7465.6,7460.2,7460.4
201908062141,7460.4,7463.8,7457.6,7458.8
201908062142,7458.8,7464.4,7458.2,7459.5
201908062143,7459.5,7461.8,7457.2,7460.8
201908062144,7460.8,7462.5,7459.4,7462.3
201908062145,7462.7,7463.5,7459.9,7460.5
201908062146,7460.5,7463.1,7459.1,7463.1
201908062147,7463.2,7467.9,7461.3,7465
201908062148,7465,7469.8,7464.7,7469.8
201908062149,7469.8,7471.1,7467.9,7470.2
201908062150,7470.2,7470.8,7468.8,7469.1
201908062151,7469.1,7470.2,7463,7463.2
201908062152,7463.2,7465.4,7462.3,7463.3
201908062153,7463.2,7467.5,7463.1,7465.4
201908062154,7465.5,7466.4,7464.1,7465.5
201908062155,7465.5,7465.5,7463.2,7465.3
201908062156,7465.3,7466,7463.9,7465.4
201908062157,7465.4,7465.6,7461.9,7464.7
201908062158,7464.7,7466.4,7461.3,7462.1
201908062159,7462.1,7465.6,7461.5,7463.7
201908062200,7464,7468.3,7463.8,7468.3
201908062201,7468.3,7469.1,7461.8,7461.8
201908062202,7461.8,7466.3,7460.9,7465.6
201908062203,7465.6,7471,7464,7470
201908062204,7470,7471.1,7468.3,7469
201908062205,7469.2,7470.3,7467.8,7467.9
201908062206,7467.8,7474.4,7467.8,7474.4
201908062207,7474.4,7476.3,7473.4,7473.8
201908062208,7473.8,7478.6,7472.6,7478.4
201908062209,7478.8,7482.1,7475.6,7479.1
201908062210,7479.1,7480.7,7476.2,7477.5
201908062211,7477.6,7483.1,7477.4,7481.6
201908062212,7482.3,7486.2,7481.5,7483.3
201908062213,7483.3,7485.6,7481.5,7483.3
201908062214,7483.3,7486,7483.3,7484.3
201908062215,7484.3,7489,7484.1,7488.8
201908062216,7488.8,7489.3,7484,7485.5
201908062217,7485.5,7485.5,7481.9,7483.8
201908062218,7483.8,7486.9,7483.8,7485.8
201908062219,7485.8,7487.1,7484.6,7485.4
201908062220,7485.4,7485.5,7481.9,7483.9
201908062221,7483.6,7483.6,7481.3,7482.4
201908062222,7482.4,7486.5,7481.7,7486
201908062223,7486,7489.4,7484.4,7489.4
201908062224,7489.3,7490,7486.4,7487
201908062225,7487,7487,7485.1,7486.8
201908062226,7486.8,7487.9,7485.9,7487.2
201908062227,7487.2,7489.5,7485.5,7489.1
201908062228,7489.6,7495.6,7489.6,7490.2
201908062229,7490.2,7493.9,7490.2,7491.5
201908062230,7491.2,7503.8,7490.2,7502.9
201908062231,7502.9,7516.6,7501.7,7516.4
201908062232,7516.4,7527.9,7513.7,7524.8
201908062233,7526.2,7527.4,7514.4,7518.3
201908062234,7518.8,7522,7515.5,7517.3
201908062235,7517.3,7520.3,7507.9,7520.1
201908062236,7520.4,7521.6,7511.9,7513.9
201908062237,7513.9,7516.5,7501.6,7505.8
201908062238,7505.8,7513.4,7504.8,7512.5
201908062239,7512.7,7512.8,7506.2,7507.5
201908062240,7507.5,7513,7506.7,7507.6
201908062241,7507.8,7513.2,7506.2,7512.9
201908062242,7512.4,7520.3,7510.4,7520.1
201908062243,7520.1,7520.6,7507,7509.6
201908062244,7510,7517.8,7508.2,7516.3
201908062245,7516,7518.6,7506.6,7506.6
201908062246,7506.6,7508,7492.1,7492.8
201908062247,7492.8,7493.2,7486.9,7490.5
201908062248,7490.6,7498,7488,7496
201908062249,7496,7501.5,7493.3,7498.7
201908062250,7498.7,7502.1,7487.9,7501.9
201908062251,7502,7507.1,7501.6,7506.6
201908062252,7506.6,7512.9,7503.5,7509
201908062253,7509,7516.6,7507.4,7515.7
201908062254,7515.6,7515.9,7507.5,7507.7
201908062255,7507.4,7513.4,7507.4,7512.6
201908062256,7512.6,7515.7,7508.3,7515.7
201908062257,7516.4,7517.6,7504.3,7508.2
201908062258,7507.7,7513.2,7505.9,7512.7
201908062259,7512.7,7516,7510.7,7515.3
201908062300,7515.7,7524.9,7513.9,7523.6
201908062301,7523.8,7526,7517.4,7524
201908062302,7524,7527.2,7521.8,7526.8
201908062303,7527,7532.6,7527,7530.1
201908062304,7530.2,7533.9,7524.2,7524.2
201908062305,7524.4,7526.2,7521.4,7522.6
201908062306,7522.5,7528.8,7517,7528.4
201908062307,7527.3,7529.4,7522.1,7522.1
201908062308,7522,7525.3,7516.2,7518.1
201908062309,7518.6,7521.9,7513.7,7516.1
201908062310,7516.1,7518.2,7508.3,7508.3
201908062311,7508.3,7509.4,7503,7503.7
201908062312,7503.6,7507.9,7503.3,7503.9
201908062313,7504.6,7504.6,7491.2,7491.2
201908062314,7490.9,7491.8,7484.1,7486.7
201908062315,7486.7,7486.7,7473.2,7474.7
201908062316,7475.5,7478.8,7471.8,7475.8
201908062317,7476.3,7484.4,7476.3,7479.9
201908062318,7479.9,7482.2,7474.6,7477.6
201908062319,7478.3,7478.6,7466.6,7468.2
201908062320,7468.2,7476.2,7467.3,7471.4
201908062321,7472,7475.8,7464,7473
201908062322,7472.4,7479,7471.4,7477.8
201908062323,7477.8,7483.4,7476.9,7481.8
201908062324,7481.9,7483.9,7479.1,7479.2
201908062325,7479.2,7487.6,7479.2,7486
201908062326,7486,7489.3,7484.8,7488.9
201908062327,7489.4,7492.4,7487.4,7491.3
201908062328,7491.2,7496.1,7489.7,7490.6
201908062329,7490.5,7491,7482,7482.4
201908062330,7483.2,7487.3,7476.8,7487.3
201908062331,7487.4,7490.8,7483,7483.8
201908062332,7483.8,7495.1,7483,7494.9
201908062333,7495.4,7497.7,7488.9,7491.5
201908062334,7491,7494.4,7488.1,7491
201908062335,7491.1,7492.8,7486,7486.8
201908062336,7486.3,7491.1,7480.3,7489.3
201908062337,7488.9,7497,7486.6,7494
201908062338,7494,7501.4,7491.2,7501.4
201908062339,7501.4,7502.8,7497.6,7502.4
201908062340,7502.3,7506.4,7499.7,7502.6
201908062341,7502.6,7508.7,7500,7506.1
201908062342,7506.9,7513.5,7505.6,7511.4
201908062343,7511.4,7514.5,7507.7,7507.8
201908062344,7507.8,7508.6,7502.2,7502.3
201908062345,7502.1,7504.5,7497.4,7498.4
201908062346,7498.4,7499,7494.1,7496.9
201908062347,7496.9,7500.2,7496.4,7498.7
201908062348,7498.9,7502.1,7496.8,7496.8
201908062349,7496.9,7498,7482,7484.3
201908062350,7484.3,7489.4,7481.1,7482.4
201908062351,7482.4,7485.8,7478.1,7478.7
201908062352,7478.8,7487,7478.1,7484.9
201908062353,7484.9,7487.9,7482.1,7485.2
201908062354,7485,7487,7481.2,7485.7
201908062355,7485.8,7486.9,7479.5,7486.6
201908062356,7486.6,7492.6,7486.6,7490.6
201908062357,7490.6,7494.3,7490.6,7493.7
201908062358,7493.7,7494.8,7489.4,7494.3
201908062359,7494.3,7496.1,7490.9,7491.9
201908070000,7491.9,7494.5,7483.5,7486.8
201908070001,7486.9,7486.9,7480.7,7480.7
201908070002,7480.7,7482.6,7475.5,7478.8
201908070003,7478.8,7479.9,7473.6,7475.7
201908070004,7475.7,7479.6,7472.6,7473.8
201908070005,7473.8,7478.8,7473.7,7477.9
201908070006,7477.9,7483.8,7477.6,7483.3
201908070007,7483.5,7485.4,7479.1,7479.8
201908070008,7479.5,7485.5,7477.8,7483.4
201908070009,7483.4,7483.4,7476.2,7476.4
201908070010,7476.4,7478.5,7471,7472.4
201908070011,7472.4,7477,7470.8,7472.4
201908070012,7472.4,7473.3,7467.9,7470.3
201908070013,7470.1,7473,7467.8,7467.8
201908070014,7467.8,7469.5,7458.8,7459
201908070015,7459,7463.3,7453.9,7454.2
201908070016,7454.2,7455.9,7449.3,7454.3
201908070017,7454.3,7459.9,7453.8,7459.7
201908070018,7459.7,7459.7,7452.3,7453.1
201908070019,7452.8,7454,7450.7,7451.3
201908070020,7451.4,7457.7,7449.7,7457
201908070021,7457,7459.2,7455.4,7458.2
201908070022,7458.4,7460.8,7454.2,7457.6
201908070023,7457.5,7464.2,7456.8,7463.7
201908070024,7463.5,7469.2,7462.9,7467.8
201908070025,7467.8,7471.1,7466.2,7469.8
201908070026,7469.8,7474.4,7469.8,7471.5
201908070027,7471.5,7472,7467.9,7470.5
201908070028,7471.4,7471.4,7467.3,7467.3
201908070029,7466.9,7468.4,7465.2,7468.2
201908070030,7468.2,7471.3,7467.2,7467.4
201908070031,7467.4,7469.3,7461.6,7463.4
201908070032,7463.5,7468.2,7457.5,7457.5
201908070033,7457.5,7457.5,7445.4,7446.2
201908070034,7445.9,7446.9,7442.5,7445.5
201908070035,7444.7,7453.3,7444.6,7448.9
201908070036,7448.9,7448.9,7441.2,7441.4
201908070037,7441.4,7442,7437.7,7439.7
201908070038,7439.9,7445.9,7439.1,7445.9
201908070039,7445.9,7450.8,7444.9,7449.9
201908070040,7449.8,7456.8,7445.3,7456.8
201908070041,7456.6,7461.9,7455.9,7457.6
201908070042,7457.6,7458.7,7454.3,7454.7
201908070043,7454.7,7457.4,7452,7456.1
201908070044,7456.1,7460.3,7455.1,7459
201908070045,7458.8,7459.8,7454.9,7457.9
201908070046,7457.9,7464,7457.8,7460.8
201908070047,7460.8,7469,7460.8,7463.8
201908070048,7463.8,7470.3,7463.8,7468.3
201908070049,7468.3,7472.3,7466.2,7471.1
201908070050,7471.1,7473.3,7467,7467
201908070051,7467,7469.1,7464.8,7467.8
201908070052,7467.9,7473.1,7464.5,7465.5
201908070053,7465.5,7467.6,7464,7464.6
201908070054,7464.6,7464.6,7456.4,7460.3
201908070055,7460.3,7462.4,7454.6,7455.9
201908070056,7455.8,7470.2,7455.8,7467.2
201908070057,7467.2,7469.7,7464.7,7469.7
201908070058,7469.7,7471.2,7467.5,7471
201908070059,7471.7,7478.9,7471.6,7477.6
201908070100,7477.6,7491.8,7477.6,7487.1
201908070101,7487.1,7488.2,7482.3,7482.4
201908070102,7482.7,7482.7,7474.4,7477.6
201908070103,7477.6,7480.5,7475.7,7475.9
201908070104,7475.9,7478.8,7470.8,7472.1
201908070105,7472,7476.1,7469.9,7471.7
201908070106,7471.7,7472,7467,7468.7
201908070107,7468.7,7471,7467.3,7469.5
201908070108,7469.5,7472.9,7465.9,7472.9
201908070109,7472.9,7474.3,7469.1,7473.7
201908070110,7473.7,7475.9,7469.4,7471.3
201908070111,7471.2,7473.1,7465.7,7465.9
201908070112,7465.9,7469.4,7464.4,7468.4
201908070113,7468.3,7479.9,7468.3,7479.9
201908070114,7480.3,7486.1,7479.8,7482.5
201908070115,7482.5,7483.6,7474.3,7476.7
201908070116,7476.7,7479.8,7474.9,7475.2
201908070117,7475.9,7477.4,7473.8,7473.8
201908070118,7473.8,7477.4,7466,7466.6
201908070119,7466.5,7469.4,7465.5,7469.4
201908070120,7469.6,7471.5,7464,7468.2
201908070121,7468.3,7468.4,7462.2,7463.8
201908070122,7464.2,7469.7,7463.8,7467.2
201908070123,7467.4,7467.4,7458.9,7460
201908070124,7460.7,7462.3,7458,7462.3
201908070125,7462.3,7465.1,7459.9,7460.5
201908070126,7460.8,7460.8,7456.6,7459
201908070127,7459,7461.3,7456.5,7460.7
201908070128,7460.7,7462.9,7456.6,7457.9
201908070129,7457.9,7460.8,7455.7,7457.6
201908070130,7457.3,7461.8,7453.6,7460.9
201908070131,7460.9,7465.2,7456.4,7459.3
201908070132,7459.3,7461.4,7457,7457.9
201908070133,7457.8,7460.3,7455.3,7458.2
201908070134,7458.3,7462.6,7457.3,7462.3
201908070135,7461.4,7468.2,7459.7,7468.2
201908070136,7468.2,7469.7,7462.2,7463.8
201908070137,7463.8,7465.4,7460,7461.8
201908070138,7461.8,7466.6,7461,7466.6
201908070139,7466.4,7469.8,7466,7468
201908070140,7468,7468.9,7463.4,7468.1
201908070141,7468.1,7470.5,7467.6,7469.3
201908070142,7468.8,7471.6,7468.1,7471.3
201908070143,7471.3,7474,7469.1,7472.3
201908070144,7472.3,7474.5,7470.3,7471.7
201908070145,7472.3,7473.5,7466.9,7470.3
201908070146,7470.3,7472.3,7465.2,7465.8
201908070147,7465.8,7466.6,7461,7462.6
201908070148,7462.8,7465.4,7459.6,7462
201908070149,7462,7464,7460.9,7461
201908070150,7461,7463.4,7457.5,7459.6
201908070151,7459.7,7462.3,7457.7,7457.7
201908070152,7457.7,7460.2,7455.7,7455.7
201908070153,7455.7,7459.5,7455,7455
201908070154,7455,7459.2,7454.5,7458.7
201908070155,7458.7,7459.2,7455.2,7458.6
201908070156,7458.6,7463.3,7458.4,7462.9
201908070157,7462.9,7465,7461.4,7463.9
201908070158,7463.9,7463.9,7457.6,7458.3
201908070159,7458.3,7461.5,7458.3,7460.7
201908070200,7460.7,7465.7,7460.7,7462.1
201908070201,7462.1,7466.1,7462.1,7464.3
201908070202,7464.3,7468.5,7462.6,7467.7
201908070203,7467.7,7473.5,7467.4,7471.5
201908070204,7471.5,7475.4,7469.8,7473.4
201908070205,7473.4,7478.3,7468.9,7476.7
201908070206,7476.7,7477.8,7473.2,7475.3
201908070207,7475.3,7484,7475.2,7483.8
201908070208,7483.9,7486.4,7482.9,7483.4
201908070209,7483.4,7485.1,7479.1,7481.9
201908070210,7481.9,7482.5,7478.2,7480.9
201908070211,7480.9,7482.5,7478.2,7481.9
201908070212,7481.9,7483.4,7478.7,7483.4
201908070213,7483.4,7485.3,7477.9,7478.1
201908070214,7478.2,7483.3,7478.1,7480.8
201908070215,7480.8,7484.6,7479.2,7479.7
201908070216,7479.7,7487.3,7479.1,7486.8
201908070217,7486.8,7486.8,7482.3,7483.5
201908070218,7483.8,7485.7,7482,7484.5
201908070219,7484.5,7485.9,7482.7,7484.7
201908070220,7484.7,7487.9,7483.6,7486.9
201908070221,7486.7,7487.8,7484.5,7486.3
201908070222,7486.3,7488.7,7484.9,7488.3
201908070223,7488.3,7493.5,7486.9,7493.1
201908070224,7493.2,7501.1,7493.2,7500.8
201908070225,7500.3,7503.6,7500,7502.8
201908070226,7502.8,7505.1,7501.4,7503.9
201908070227,7503.8,7506,7503.1,7504.4
201908070228,7504.4,7505.5,7498,7499.3
201908070229,7499.3,7501.7,7498.5,7500
201908070230,7499.8,7504.3,7498.8,7498.9
201908070231,7498.8,7503,7497.6,7500.9
201908070232,7500.9,7503,7499.5,7500.7
201908070233,7501.3,7504.9,7499.6,7500.2
201908070234,7500.2,7505.5,7498.9,7504.5
201908070235,7504.5,7505.3,7498.5,7499.3
201908070236,7499.4,7505.1,7499.4,7503.4
201908070237,7503.4,7505.9,7501.3,7505.5
201908070238,7505.5,7506.5,7503.3,7505.3
201908070239,7505.4,7511.9,7505.2,7510.3
201908070240,7510.8,7512.1,7506,7507.3
201908070241,7507.4,7509.1,7504.2,7508.6
201908070242,7508.6,7509.1,7506.1,7508.1
201908070243,7508,7509.6,7507,7509.4
201908070244,7509.4,7510.6,7505.3,7505.4
201908070245,7505.4,7508.6,7503.7,7505.8
201908070246,7505.8,7506.3,7501.9,7504.2
201908070247,7504.2,7504.4,7501.8,7503.7
201908070248,7503.7,7508.7,7502.4,7508.7
201908070249,7508.3,7510.4,7507.6,7509
201908070250,7509,7513.4,7508.5,7509
201908070251,7509.2,7509.2,7501.3,7503.9
201908070252,7503.9,7508,7502.8,7507.2
201908070253,7507.2,7511.3,7507.2,7509.2
201908070254,7509.2,7511.3,7507.2,7509.4
201908070255,7509.4,7509.5,7503.9,7509
201908070256,7509,7510.9,7506.3,7507.8
201908070257,7507.8,7509.3,7504.5,7505.8
201908070258,7505.8,7507.4,7503.9,7504.7
201908070259,7504.6,7509,7504.6,7508
201908070300,7508,7508,7501.9,7502.4
201908070301,7502.8,7503.1,7496.4,7496.4
201908070302,7496.4,7498,7491.4,7493.4
201908070303,7493.3,7496.4,7491.9,7496.4
201908070304,7497,7497,7493.4,7494.4
201908070305,7494.4,7494.4,7489.3,7489.5
201908070306,7489.5,7496.3,7489.5,7494.1
201908070307,7494,7498.4,7494,7497.1
201908070308,7497.1,7497.8,7492.8,7493.4
201908070309,7493.4,7495.5,7491.7,7494.9
201908070310,7494.9,7501.9,7494.9,7501.2
201908070311,7501.2,7507.3,7500.2,7506.2
201908070312,7506.2,7509.1,7505.7,7508.3
201908070313,7508.3,7509.6,7507.7,7508.9
201908070314,7508.9,7509.6,7507.7,7509.3
201908070315,7509.4,7522.6,7509.3,7522.5
201908070316,7522.5,7526,7521.9,7525.5
201908070317,7525.5,7532.2,7525.5,7530.9
201908070318,7530.9,7533.3,7529,7530.4
201908070319,7530.2,7532.3,7527.1,7532.2
201908070320,7531.9,7534.7,7525.5,7526.2
201908070321,7526.2,7531.9,7526.2,7527.7
201908070322,7527.4,7532,7526.9,7527.9
201908070323,7527.9,7530.9,7525.6,7526.2
201908070324,7526.3,7533,7526.3,7530.1
201908070325,7529.5,7536.3,7529.3,7534.9
201908070326,7534.9,7535.9,7530.9,7535.4
201908070327,7535.4,7539.9,7534.1,7539.9
201908070328,7540.1,7540.8,7536.6,7539.8
201908070329,7539.8,7540.3,7537.2,7537.7
201908070330,7537.7,7539.3,7532.6,7533.8
201908070331,7533.9,7537.3,7533.9,7535.8
201908070332,7536.1,7545.5,7536.1,7544.4
201908070333,7544.4,7548.6,7543.2,7547.8
201908070334,7547.9,7548,7542.9,7546.5
201908070335,7546.5,7546.5,7538.8,7542.8
201908070336,7542.8,7545.5,7539.2,7540.4
201908070337,7540.3,7541.4,7537.5,7539.8
201908070338,7539.6,7540.8,7535.6,7536.4
201908070339,7536.4,7540.1,7535.9,7536.3
201908070340,7536.3,7537,7532.5,7536.2
201908070341,7536.2,7539.6,7535.6,7538.9
201908070342,7538.8,7539.5,7535.8,7539.4
201908070343,7539.3,7546.6,7539.2,7546
201908070344,7546.2,7547.3,7540.5,7540.6
201908070345,7540.6,7541.1,7535.4,7535.5
201908070346,7535.8,7537.6,7534.6,7535.2
201908070347,7535.8,7537.8,7533.8,7537.5
201908070348,7537.5,7538.1,7534.3,7535.7
201908070349,7535.5,7538.2,7533.7,7536.9
201908070350,7537.4,7539.9,7536.1,7538.7
201908070351,7538.8,7538.8,7530.6,7531.3
201908070352,7531.3,7531.6,7527.5,7527.5
201908070353,7528,7529.4,7524.6,7529.1
201908070354,7529.1,7530.8,7524.1,7524.3
201908070355,7524.3,7528,7521.9,7527.3
201908070356,7527.3,7528.5,7525.4,7526.7
201908070357,7526.7,7527.8,7524.9,7525.8
201908070358,7525.8,7525.8,7523.2,7525.3
201908070359,7525.4,7525.4,7520.3,7521.6
201908070400,7521.6,7524.5,7520.5,7522.1
201908070401,7522.1,7528,7521.3,7524.3
201908070402,7524.3,7524.8,7517.5,7518.1
201908070403,7518.1,7522.6,7517.4,7522.4
201908070404,7522.4,7523.5,7520.7,7522.8
201908070405,7522.8,7527.8,7520.4,7527.8
201908070406,7527.9,7528.1,7523,7526
201908070407,7526.2,7527.4,7524,7524.4
201908070408,7524.4,7526.7,7522.7,7524.5
201908070409,7524.5,7524.9,7517.4,7517.4
201908070410,7517.4,7518.8,7511.9,7518.6
201908070411,7518.6,7520.7,7515.5,7516.3
201908070412,7516.3,7521.4,7515.3,7520.6
201908070413,7520.6,7524.8,7520.4,7522.8
201908070414,7522.8,7527.4,7522.5,7526.8
201908070415,7526.9,7530.2,7526.2,7530.1
201908070416,7530.1,7531.9,7525.1,7525.7
201908070417,7525.8,7527.6,7524.2,7525.7
201908070418,7525.7,7530.1,7525.1,7525.8
201908070419,7525.8,7530.1,7524.3,7530.1
201908070420,7530.9,7534.8,7529.2,7533.2
201908070421,7533.2,7534.1,7529.9,7529.9
201908070422,7529.9,7530.7,7526.2,7528.8
201908070423,7528.8,7530.9,7526.1,7527.6
201908070424,7527.6,7531.8,7525.9,7530.4
201908070425,7530.4,7531.5,7524.4,7524.5
201908070426,7524.9,7524.9,7517.4,7518.4
201908070427,7518.5,7520.7,7516.2,7519.8
201908070428,7519.8,7521.1,7515,7520.3
201908070429,7520.3,7522.3,7519.8,7521.3
201908070430,7521.3,7521.3,7514.4,7514.5
201908070431,7514.5,7520.8,7514.5,7520
201908070432,7519.8,7520.7,7516.1,7519.9
201908070433,7519.9,7520,7510.7,7513.1
201908070434,7513.1,7513.6,7510,7512.1
201908070435,7511.7,7518,7511.7,7517.6
201908070436,7517.6,7520.5,7515.5,7520.2
201908070437,7520.2,7525,7518.9,7521.2
201908070438,7521.2,7525.5,7521.2,7524
201908070439,7524,7528.7,7523.9,7528.7
201908070440,7528.8,7529.4,7524.3,7529.4
201908070441,7529.6,7530.1,7527.8,7528.2
201908070442,7528.2,7531.8,7526.5,7529.9
201908070443,7529.9,7535.8,7528.9,7533.8
201908070444,7533.5,7535,7530.4,7531.5
201908070445,7531.5,7531.5,7522.4,7522.9
201908070446,7523.3,7525.9,7520.4,7525.8
201908070447,7525.7,7534.9,7525.7,7532.9
201908070448,7533.1,7533.6,7530.9,7531.3
201908070449,7531.3,7534,7530,7532
201908070450,7532,7539.4,7532,7537.9
201908070451,7537.9,7537.9,7533.9,7534.6
201908070452,7534.5,7535.5,7528.7,7531.9
201908070453,7532.5,7534.6,7529.9,7531.7
201908070454,7531.7,7532.9,7530.2,7532
201908070455,7532,7534.2,7524.5,7525.4
201908070456,7525.8,7532,7524.1,7530.4
201908070457,7530.4,7534.2,7528.3,7530.6
201908070458,7530.6,7532.8,7525.4,7531.5
201908070459,7532.3,7532.3,7522,7525.8
201908070500,7526.7,7531.7,7523.9,7528.3
201908070501,7528.3,7533.3,7526.7,7530.2
201908070502,7530.3,7535,7530,7534.8
201908070503,7534.4,7534.6,7530.4,7530.4
201908070504,7530.4,7533.1,7530.4,7531.1
201908070505,7531.1,7535.1,7529.6,7529.6
201908070506,7529.8,7531,7527.9,7528.7
201908070507,7528.7,7529.5,7525.6,7525.6
201908070508,7525.6,7525.8,7521.9,7522.3
201908070509,7522.4,7524.4,7520.8,7523.5
201908070510,7523.5,7525.6,7521.5,7522.3
201908070511,7522.3,7522.6,7518.9,7519.2
201908070512,7519.4,7519.4,7515.6,7515.6
201908070513,7515.6,7518.3,7514.1,7517.3
201908070514,7517.4,7517.6,7513.8,7514.5
