日時,始値(BID),高値(BID),安値(BID),終値(BID)
201907160700,15.385,15.389,15.379,15.387
201907160701,15.387,15.392,15.385,15.386
201907160702,15.386,15.388,15.385,15.387
201907160703,15.387,15.391,15.386,15.387
201907160704,15.387,15.388,15.386,15.386
201907160705,15.386,15.401,15.385,15.401
201907160706,15.401,15.408,15.401,15.407
201907160707,15.408,15.408,15.407,15.407
201907160708,15.407,15.409,15.407,15.408
201907160709,15.408,15.409,15.407,15.408
201907160710,15.408,15.413,15.407,15.413
201907160711,15.413,15.413,15.406,15.408
201907160712,15.408,15.417,15.407,15.416
201907160713,15.417,15.418,15.415,15.417
201907160714,15.416,15.417,15.416,15.416
201907160715,15.416,15.417,15.413,15.413
201907160716,15.413,15.413,15.41,15.411
201907160717,15.411,15.412,15.41,15.411
201907160718,15.411,15.416,15.411,15.413
201907160719,15.413,15.413,15.41,15.41
201907160720,15.41,15.41,15.409,15.409
201907160721,15.41,15.41,15.407,15.408
201907160722,15.408,15.408,15.401,15.402
201907160723,15.402,15.402,15.401,15.401
201907160724,15.401,15.401,15.401,15.401
201907160725,15.401,15.402,15.401,15.402
201907160726,15.402,15.406,15.402,15.405
201907160727,15.405,15.406,15.405,15.405
201907160728,15.405,15.405,15.398,15.398
201907160729,15.398,15.398,15.398,15.398
201907160730,15.398,15.399,15.398,15.399
201907160731,15.399,15.399,15.398,15.399
201907160732,15.399,15.399,15.396,15.397
201907160733,15.397,15.398,15.397,15.397
201907160734,15.397,15.397,15.397,15.397
201907160735,15.397,15.397,15.397,15.397
201907160736,15.397,15.397,15.397,15.397
201907160737,15.397,15.397,15.397,15.397
201907160738,15.397,15.397,15.392,15.393
201907160739,15.393,15.394,15.393,15.394
201907160740,15.394,15.394,15.394,15.394
201907160741,15.394,15.397,15.393,15.395
201907160742,15.395,15.4,15.395,15.399
201907160743,15.399,15.4,15.398,15.399
201907160744,15.399,15.4,15.398,15.398
201907160745,15.398,15.403,15.397,15.401
201907160746,15.401,15.401,15.399,15.4
201907160747,15.4,15.403,15.399,15.399
201907160748,15.4,15.402,15.4,15.401
201907160749,15.401,15.401,15.398,15.4
201907160750,15.4,15.401,15.4,15.4
201907160751,15.4,15.4,15.4,15.4
201907160752,15.4,15.401,15.4,15.401
201907160753,15.401,15.401,15.4,15.4
201907160754,15.4,15.4,15.4,15.4
201907160755,15.4,15.4,15.4,15.4
201907160756,15.4,15.4,15.399,15.4
201907160757,15.4,15.4,15.394,15.395
201907160758,15.395,15.396,15.395,15.396
201907160759,15.396,15.396,15.389,15.393
201907160800,15.393,15.394,15.39,15.39
201907160801,15.39,15.39,15.39,15.39
201907160802,15.39,15.39,15.388,15.389
201907160803,15.389,15.389,15.387,15.387
201907160804,15.387,15.389,15.385,15.386
201907160805,15.386,15.389,15.385,15.389
201907160806,15.389,15.389,15.387,15.387
201907160807,15.387,15.387,15.385,15.385
201907160808,15.385,15.385,15.385,15.385
201907160809,15.385,15.385,15.384,15.385
201907160810,15.385,15.385,15.383,15.383
201907160811,15.383,15.385,15.38,15.381
201907160812,15.381,15.385,15.38,15.384
201907160813,15.384,15.385,15.38,15.381
201907160814,15.381,15.383,15.381,15.381
201907160815,15.381,15.385,15.381,15.381
201907160816,15.381,15.386,15.381,15.386
201907160817,15.386,15.386,15.385,15.385
201907160818,15.385,15.389,15.385,15.386
201907160819,15.386,15.389,15.386,15.388
201907160820,15.389,15.39,15.389,15.389
201907160821,15.389,15.39,15.389,15.39
201907160822,15.39,15.39,15.39,15.39
201907160823,15.39,15.394,15.39,15.394
201907160824,15.394,15.396,15.394,15.395
201907160825,15.395,15.396,15.394,15.395
201907160826,15.395,15.395,15.394,15.394
201907160827,15.394,15.395,15.394,15.395
201907160828,15.395,15.395,15.391,15.392
201907160829,15.392,15.394,15.392,15.392
201907160830,15.391,15.392,15.391,15.391
201907160831,15.391,15.395,15.39,15.39
201907160832,15.39,15.391,15.39,15.391
201907160833,15.391,15.391,15.39,15.391
201907160834,15.391,15.391,15.385,15.389
201907160835,15.389,15.39,15.387,15.387
201907160836,15.387,15.387,15.381,15.383
201907160837,15.385,15.385,15.384,15.385
201907160838,15.387,15.39,15.387,15.387
201907160839,15.387,15.388,15.387,15.388
201907160840,15.388,15.388,15.383,15.384
201907160841,15.384,15.387,15.384,15.387
201907160842,15.386,15.386,15.385,15.385
201907160843,15.385,15.386,15.385,15.386
201907160844,15.386,15.388,15.386,15.387
201907160845,15.387,15.39,15.385,15.386
201907160846,15.386,15.39,15.386,15.39
201907160847,15.39,15.39,15.387,15.389
201907160848,15.389,15.389,15.385,15.385
201907160849,15.385,15.386,15.385,15.385
201907160850,15.385,15.386,15.385,15.386
201907160851,15.386,15.386,15.385,15.385
201907160852,15.385,15.386,15.38,15.381
201907160853,15.381,15.385,15.381,15.385
201907160854,15.385,15.387,15.385,15.386
201907160855,15.386,15.388,15.386,15.386
201907160856,15.386,15.391,15.386,15.39
201907160857,15.39,15.391,15.39,15.391
201907160858,15.391,15.393,15.391,15.391
201907160859,15.391,15.391,15.389,15.39
201907160900,15.39,15.391,15.389,15.391
201907160901,15.391,15.396,15.391,15.393
201907160902,15.393,15.394,15.389,15.394
201907160903,15.394,15.394,15.389,15.389
201907160904,15.389,15.39,15.385,15.385
201907160905,15.385,15.389,15.384,15.384
201907160906,15.384,15.385,15.384,15.385
201907160907,15.385,15.389,15.385,15.389
201907160908,15.389,15.389,15.384,15.385
201907160909,15.385,15.385,15.383,15.384
201907160910,15.384,15.389,15.384,15.386
201907160911,15.386,15.386,15.384,15.385
201907160912,15.385,15.385,15.384,15.385
201907160913,15.385,15.385,15.384,15.384
201907160914,15.384,15.389,15.384,15.384
201907160915,15.385,15.387,15.383,15.385
201907160916,15.385,15.385,15.384,15.385
201907160917,15.385,15.385,15.385,15.385
201907160918,15.385,15.389,15.384,15.389
201907160919,15.389,15.389,15.384,15.388
201907160920,15.388,15.388,15.385,15.385
201907160921,15.385,15.385,15.383,15.384
201907160922,15.384,15.384,15.382,15.383
201907160923,15.383,15.384,15.383,15.383
201907160924,15.383,15.383,15.378,15.378
201907160925,15.378,15.379,15.377,15.377
201907160926,15.377,15.379,15.377,15.378
201907160927,15.378,15.379,15.377,15.378
201907160928,15.378,15.379,15.373,15.379
201907160929,15.379,15.379,15.376,15.378
201907160930,15.378,15.38,15.378,15.379
201907160931,15.379,15.379,15.378,15.378
201907160932,15.378,15.379,15.378,15.378
201907160933,15.378,15.378,15.373,15.374
201907160934,15.374,15.375,15.374,15.374
201907160935,15.374,15.374,15.369,15.374
201907160936,15.374,15.374,15.369,15.37
201907160937,15.37,15.37,15.368,15.369
201907160938,15.369,15.37,15.369,15.369
201907160939,15.369,15.37,15.368,15.37
201907160940,15.37,15.37,15.368,15.368
201907160941,15.368,15.37,15.368,15.37
201907160942,15.37,15.37,15.368,15.368
201907160943,15.368,15.37,15.366,15.369
201907160944,15.369,15.369,15.365,15.365
201907160945,15.365,15.365,15.365,15.365
201907160946,15.365,15.365,15.363,15.364
201907160947,15.364,15.365,15.364,15.365
201907160948,15.365,15.367,15.364,15.365
201907160949,15.365,15.365,15.361,15.364
201907160950,15.364,15.364,15.361,15.364
201907160951,15.364,15.369,15.364,15.369
201907160952,15.369,15.369,15.365,15.366
201907160953,15.366,15.367,15.364,15.364
201907160954,15.364,15.365,15.36,15.361
201907160955,15.361,15.362,15.359,15.36
201907160956,15.36,15.36,15.36,15.36
201907160957,15.36,15.36,15.358,15.358
201907160958,15.358,15.36,15.358,15.36
201907160959,15.36,15.36,15.359,15.359
201907161000,15.359,15.359,15.335,15.336
201907161001,15.336,15.34,15.334,15.339
201907161002,15.339,15.339,15.326,15.326
201907161003,15.326,15.331,15.325,15.329
201907161004,15.329,15.332,15.329,15.329
201907161005,15.329,15.33,15.326,15.326
201907161006,15.325,15.328,15.324,15.324
201907161007,15.325,15.325,15.321,15.324
201907161008,15.324,15.327,15.323,15.323
201907161009,15.323,15.329,15.32,15.32
201907161010,15.32,15.323,15.314,15.318
201907161011,15.318,15.322,15.318,15.319
201907161012,15.319,15.319,15.311,15.318
201907161013,15.318,15.318,15.308,15.309
201907161014,15.309,15.317,15.309,15.317
201907161015,15.317,15.321,15.315,15.321
201907161016,15.321,15.321,15.319,15.321
201907161017,15.321,15.321,15.316,15.316
201907161018,15.316,15.318,15.314,15.317
201907161019,15.317,15.319,15.317,15.318
201907161020,15.318,15.318,15.316,15.317
201907161021,15.317,15.323,15.317,15.321
201907161022,15.321,15.322,15.319,15.322
201907161023,15.322,15.323,15.318,15.318
201907161024,15.318,15.318,15.314,15.315
201907161025,15.315,15.322,15.315,15.322
201907161026,15.322,15.323,15.319,15.319
201907161027,15.319,15.32,15.317,15.318
201907161028,15.318,15.319,15.315,15.319
201907161029,15.319,15.323,15.315,15.32
201907161030,15.32,15.324,15.319,15.319
201907161031,15.319,15.321,15.319,15.32
201907161032,15.32,15.323,15.319,15.323
201907161033,15.323,15.33,15.323,15.33
201907161034,15.33,15.333,15.329,15.333
201907161035,15.333,15.334,15.331,15.334
201907161036,15.334,15.339,15.334,15.336
201907161037,15.336,15.336,15.331,15.334
201907161038,15.334,15.339,15.334,15.339
201907161039,15.339,15.339,15.338,15.339
201907161040,15.339,15.339,15.338,15.339
201907161041,15.339,15.339,15.337,15.339
201907161042,15.339,15.339,15.337,15.337
201907161043,15.337,15.339,15.334,15.337
201907161044,15.337,15.339,15.335,15.335
201907161045,15.335,15.339,15.335,15.339
201907161046,15.339,15.339,15.337,15.339
201907161047,15.339,15.344,15.339,15.343
201907161048,15.343,15.344,15.342,15.343
201907161049,15.343,15.343,15.342,15.343
201907161050,15.343,15.344,15.343,15.344
201907161051,15.344,15.345,15.343,15.344
201907161052,15.344,15.344,15.342,15.344
201907161053,15.344,15.344,15.344,15.344
201907161054,15.344,15.346,15.343,15.343
201907161055,15.343,15.344,15.342,15.343
201907161056,15.343,15.344,15.342,15.344
201907161057,15.344,15.344,15.342,15.343
201907161058,15.343,15.344,15.342,15.343
201907161059,15.343,15.343,15.342,15.343
201907161100,15.343,15.344,15.338,15.338
201907161101,15.338,15.341,15.338,15.341
201907161102,15.341,15.348,15.341,15.347
201907161103,15.347,15.354,15.347,15.353
201907161104,15.353,15.356,15.353,15.354
201907161105,15.354,15.355,15.353,15.354
201907161106,15.354,15.355,15.349,15.35
201907161107,15.35,15.35,15.346,15.346
201907161108,15.346,15.347,15.346,15.346
201907161109,15.346,15.347,15.346,15.347
201907161110,15.347,15.35,15.347,15.348
201907161111,15.348,15.35,15.348,15.35
201907161112,15.35,15.351,15.347,15.347
201907161113,15.347,15.349,15.347,15.349
201907161114,15.349,15.351,15.349,15.35
201907161115,15.35,15.354,15.349,15.354
201907161116,15.353,15.353,15.348,15.349
201907161117,15.349,15.351,15.348,15.351
201907161118,15.351,15.351,15.348,15.349
201907161119,15.348,15.351,15.348,15.35
201907161120,15.35,15.35,15.348,15.348
201907161121,15.348,15.349,15.348,15.349
201907161122,15.349,15.35,15.347,15.348
201907161123,15.348,15.349,15.348,15.348
201907161124,15.348,15.349,15.347,15.349
201907161125,15.349,15.349,15.348,15.349
201907161126,15.349,15.349,15.345,15.345
201907161127,15.345,15.345,15.34,15.342
201907161128,15.342,15.343,15.341,15.341
201907161129,15.341,15.341,15.34,15.34
201907161130,15.34,15.34,15.338,15.339
201907161131,15.339,15.339,15.333,15.333
201907161132,15.333,15.334,15.331,15.331
201907161133,15.331,15.334,15.331,15.333
201907161134,15.333,15.334,15.333,15.333
201907161135,15.333,15.333,15.332,15.333
201907161136,15.333,15.334,15.333,15.334
201907161137,15.334,15.336,15.332,15.336
201907161138,15.336,15.337,15.336,15.337
201907161139,15.337,15.34,15.337,15.339
201907161140,15.339,15.342,15.334,15.337
201907161141,15.337,15.337,15.336,15.337
201907161142,15.337,15.342,15.337,15.337
201907161143,15.336,15.342,15.333,15.34
201907161144,15.34,15.341,15.336,15.336
201907161145,15.336,15.337,15.335,15.336
201907161146,15.336,15.337,15.332,15.332
201907161147,15.333,15.335,15.333,15.334
201907161148,15.334,15.335,15.331,15.332
201907161149,15.332,15.332,15.331,15.331
201907161150,15.331,15.332,15.331,15.331
201907161151,15.332,15.332,15.331,15.332
201907161152,15.332,15.333,15.331,15.331
201907161153,15.332,15.333,15.331,15.332
201907161154,15.333,15.334,15.328,15.328
201907161155,15.328,15.328,15.326,15.327
201907161156,15.327,15.332,15.327,15.332
201907161157,15.332,15.333,15.332,15.333
201907161158,15.333,15.338,15.333,15.338
201907161159,15.338,15.338,15.337,15.337
201907161200,15.337,15.338,15.337,15.338
201907161201,15.338,15.338,15.337,15.338
201907161202,15.338,15.338,15.338,15.338
201907161203,15.338,15.338,15.337,15.337
201907161204,15.337,15.337,15.337,15.337
201907161205,15.337,15.337,15.336,15.337
201907161206,15.337,15.338,15.337,15.337
201907161207,15.337,15.337,15.332,15.334
201907161208,15.334,15.337,15.333,15.333
201907161209,15.332,15.332,15.329,15.332
201907161210,15.332,15.337,15.33,15.332
201907161211,15.332,15.336,15.332,15.335
201907161212,15.335,15.337,15.333,15.333
201907161213,15.333,15.333,15.329,15.331
201907161214,15.332,15.338,15.33,15.332
201907161215,15.332,15.334,15.33,15.334
201907161216,15.334,15.336,15.333,15.333
201907161217,15.333,15.334,15.332,15.332
201907161218,15.332,15.334,15.329,15.332
201907161219,15.332,15.336,15.332,15.335
201907161220,15.335,15.336,15.334,15.335
201907161221,15.335,15.336,15.334,15.335
201907161222,15.335,15.339,15.335,15.338
201907161223,15.338,15.339,15.338,15.339
201907161224,15.339,15.342,15.338,15.338
201907161225,15.338,15.343,15.338,15.343
201907161226,15.343,15.344,15.342,15.343
201907161227,15.343,15.343,15.343,15.343
201907161228,15.343,15.343,15.342,15.343
201907161229,15.343,15.343,15.338,15.338
201907161230,15.338,15.34,15.338,15.339
201907161231,15.339,15.339,15.338,15.338
201907161232,15.338,15.339,15.337,15.339
201907161233,15.339,15.339,15.335,15.335
201907161234,15.335,15.335,15.333,15.333
201907161235,15.333,15.334,15.332,15.332
201907161236,15.332,15.334,15.332,15.333
201907161237,15.333,15.333,15.329,15.332
201907161238,15.333,15.333,15.332,15.333
201907161239,15.333,15.333,15.327,15.328
201907161240,15.328,15.329,15.328,15.328
201907161241,15.328,15.328,15.327,15.328
201907161242,15.328,15.329,15.328,15.328
201907161243,15.328,15.329,15.328,15.328
201907161244,15.328,15.329,15.328,15.328
201907161245,15.328,15.328,15.327,15.327
201907161246,15.327,15.328,15.327,15.327
201907161247,15.327,15.329,15.327,15.328
201907161248,15.328,15.329,15.324,15.324
201907161249,15.324,15.325,15.323,15.323
201907161250,15.323,15.324,15.323,15.323
201907161251,15.323,15.324,15.323,15.324
201907161252,15.324,15.325,15.323,15.324
201907161253,15.324,15.328,15.324,15.326
201907161254,15.327,15.327,15.323,15.323
201907161255,15.323,15.327,15.323,15.327
201907161256,15.327,15.327,15.327,15.327
201907161257,15.327,15.328,15.325,15.328
201907161258,15.328,15.329,15.328,15.329
201907161259,15.329,15.329,15.328,15.328
201907161300,15.328,15.329,15.328,15.329
201907161301,15.329,15.329,15.328,15.328
201907161302,15.328,15.329,15.328,15.328
201907161303,15.328,15.329,15.327,15.327
201907161304,15.327,15.329,15.327,15.329
201907161305,15.329,15.329,15.327,15.328
201907161306,15.328,15.329,15.328,15.329
201907161307,15.329,15.333,15.329,15.333
201907161308,15.333,15.333,15.329,15.333
201907161309,15.333,15.334,15.332,15.333
201907161310,15.333,15.334,15.333,15.334
201907161311,15.334,15.334,15.332,15.334
201907161312,15.334,15.334,15.334,15.334
201907161313,15.334,15.334,15.332,15.333
201907161314,15.333,15.334,15.333,15.334
201907161315,15.334,15.334,15.333,15.333
201907161316,15.333,15.337,15.333,15.337
201907161317,15.337,15.338,15.334,15.334
201907161318,15.334,15.336,15.333,15.333
201907161319,15.333,15.334,15.333,15.334
201907161320,15.334,15.337,15.334,15.337
201907161321,15.337,15.338,15.337,15.338
201907161322,15.338,15.339,15.337,15.338
201907161323,15.338,15.339,15.338,15.339
201907161324,15.339,15.339,15.337,15.338
201907161325,15.338,15.339,15.338,15.339
201907161326,15.339,15.339,15.333,15.335
201907161327,15.335,15.337,15.333,15.334
201907161328,15.334,15.334,15.333,15.333
201907161329,15.333,15.337,15.333,15.337
201907161330,15.337,15.338,15.337,15.337
201907161331,15.337,15.339,15.337,15.339
201907161332,15.339,15.339,15.337,15.339
201907161333,15.339,15.339,15.338,15.339
201907161334,15.339,15.342,15.338,15.339
201907161335,15.339,15.339,15.337,15.337
201907161336,15.337,15.339,15.337,15.338
201907161337,15.338,15.339,15.337,15.338
201907161338,15.338,15.339,15.337,15.339
201907161339,15.338,15.338,15.337,15.337
201907161340,15.337,15.339,15.337,15.339
201907161341,15.339,15.339,15.337,15.337
201907161342,15.337,15.339,15.337,15.338
201907161343,15.338,15.339,15.337,15.338
201907161344,15.338,15.339,15.338,15.339
201907161345,15.339,15.342,15.338,15.338
201907161346,15.338,15.338,15.333,15.337
201907161347,15.337,15.337,15.333,15.337
201907161348,15.337,15.338,15.337,15.337
201907161349,15.337,15.342,15.333,15.333
201907161350,15.333,15.342,15.333,15.338
201907161351,15.338,15.342,15.338,15.338
201907161352,15.338,15.339,15.334,15.337
201907161353,15.337,15.337,15.336,15.337
201907161354,15.337,15.339,15.337,15.337
201907161355,15.338,15.339,15.337,15.338
201907161356,15.338,15.338,15.337,15.338
201907161357,15.338,15.339,15.333,15.333
201907161358,15.333,15.334,15.329,15.332
201907161359,15.332,15.334,15.328,15.333
201907161400,15.333,15.338,15.328,15.332
201907161401,15.332,15.333,15.328,15.333
201907161402,15.333,15.334,15.332,15.334
201907161403,15.334,15.334,15.334,15.334
201907161404,15.334,15.334,15.333,15.333
201907161405,15.333,15.337,15.333,15.337
201907161406,15.337,15.339,15.337,15.338
201907161407,15.338,15.344,15.338,15.343
201907161408,15.343,15.349,15.342,15.349
201907161409,15.347,15.349,15.347,15.348
201907161410,15.348,15.349,15.348,15.349
201907161411,15.349,15.349,15.347,15.348
201907161412,15.348,15.349,15.348,15.349
201907161413,15.349,15.349,15.347,15.348
201907161414,15.348,15.349,15.348,15.349
201907161415,15.349,15.352,15.347,15.347
201907161416,15.347,15.347,15.344,15.347
201907161417,15.346,15.347,15.343,15.347
201907161418,15.347,15.349,15.347,15.349
201907161419,15.349,15.352,15.348,15.348
201907161420,15.348,15.352,15.348,15.348
201907161421,15.348,15.348,15.347,15.347
201907161422,15.347,15.347,15.346,15.346
201907161423,15.346,15.346,15.338,15.338
201907161424,15.339,15.342,15.338,15.341
201907161425,15.341,15.343,15.341,15.343
201907161426,15.343,15.344,15.342,15.343
201907161427,15.343,15.343,15.341,15.341
201907161428,15.341,15.341,15.338,15.338
201907161429,15.338,15.339,15.338,15.339
201907161430,15.339,15.34,15.337,15.338
201907161431,15.338,15.342,15.338,15.342
201907161432,15.342,15.342,15.342,15.342
201907161433,15.342,15.342,15.342,15.342
201907161434,15.342,15.343,15.342,15.342
201907161435,15.342,15.344,15.342,15.343
201907161436,15.347,15.358,15.346,15.358
201907161437,15.358,15.362,15.357,15.362
201907161438,15.362,15.367,15.362,15.367
201907161439,15.367,15.368,15.363,15.363
201907161440,15.363,15.367,15.363,15.367
201907161441,15.367,15.372,15.367,15.368
201907161442,15.368,15.369,15.367,15.368
201907161443,15.368,15.368,15.363,15.368
201907161444,15.368,15.369,15.368,15.368
201907161445,15.368,15.375,15.368,15.375
201907161446,15.375,15.379,15.375,15.378
201907161447,15.378,15.379,15.378,15.378
201907161448,15.378,15.378,15.373,15.373
201907161449,15.373,15.377,15.373,15.374
201907161450,15.374,15.374,15.368,15.368
201907161451,15.368,15.369,15.368,15.369
201907161452,15.369,15.372,15.368,15.372
201907161453,15.372,15.379,15.368,15.378
201907161454,15.378,15.383,15.378,15.378
201907161455,15.378,15.379,15.377,15.377
201907161456,15.377,15.378,15.374,15.374
201907161457,15.374,15.375,15.372,15.374
201907161458,15.374,15.374,15.368,15.368
201907161459,15.368,15.369,15.368,15.369
201907161500,15.369,15.378,15.369,15.378
201907161501,15.378,15.378,15.377,15.378
201907161502,15.378,15.378,15.373,15.373
201907161503,15.373,15.379,15.373,15.374
201907161504,15.374,15.381,15.374,15.378
201907161505,15.378,15.38,15.374,15.375
201907161506,15.375,15.378,15.372,15.373
201907161507,15.373,15.378,15.373,15.378
201907161508,15.378,15.378,15.377,15.377
201907161509,15.377,15.378,15.373,15.373
201907161510,15.373,15.378,15.373,15.375
201907161511,15.375,15.379,15.371,15.372
201907161512,15.372,15.374,15.372,15.374
201907161513,15.374,15.378,15.373,15.373
201907161514,15.373,15.373,15.37,15.372
201907161515,15.372,15.373,15.371,15.373
201907161516,15.373,15.373,15.373,15.373
201907161517,15.373,15.378,15.373,15.378
201907161518,15.378,15.378,15.372,15.373
201907161519,15.373,15.373,15.372,15.373
201907161520,15.373,15.378,15.372,15.375
201907161521,15.376,15.376,15.372,15.375
201907161522,15.375,15.378,15.375,15.378
201907161523,15.378,15.383,15.376,15.383
201907161524,15.383,15.383,15.378,15.38
201907161525,15.38,15.383,15.38,15.383
201907161526,15.383,15.383,15.382,15.382
201907161527,15.382,15.383,15.382,15.383
201907161528,15.383,15.387,15.383,15.384
201907161529,15.384,15.385,15.382,15.383
201907161530,15.384,15.386,15.382,15.382
201907161531,15.382,15.383,15.377,15.378
201907161532,15.378,15.378,15.372,15.373
201907161533,15.373,15.378,15.372,15.374
201907161534,15.374,15.375,15.37,15.37
201907161535,15.37,15.372,15.369,15.37
201907161536,15.371,15.375,15.371,15.374
201907161537,15.374,15.385,15.374,15.385
201907161538,15.385,15.398,15.384,15.398
201907161539,15.398,15.404,15.398,15.4
201907161540,15.4,15.404,15.4,15.4
201907161541,15.4,15.401,15.398,15.399
201907161542,15.399,15.399,15.395,15.395
201907161543,15.395,15.4,15.394,15.398
201907161544,15.398,15.399,15.394,15.394
201907161545,15.394,15.394,15.393,15.394
201907161546,15.394,15.394,15.39,15.392
201907161547,15.392,15.394,15.388,15.394
201907161548,15.393,15.399,15.393,15.399
201907161549,15.399,15.399,15.394,15.394
201907161550,15.394,15.4,15.394,15.399
201907161551,15.399,15.404,15.399,15.404
201907161552,15.404,15.408,15.403,15.408
201907161553,15.408,15.408,15.405,15.405
201907161554,15.405,15.408,15.404,15.406
201907161555,15.406,15.408,15.403,15.408
201907161556,15.408,15.409,15.405,15.407
201907161557,15.407,15.419,15.407,15.417
201907161558,15.417,15.418,15.415,15.417
201907161559,15.417,15.421,15.417,15.418
201907161600,15.418,15.422,15.413,15.421
201907161601,15.421,15.427,15.421,15.427
201907161602,15.427,15.433,15.425,15.433
201907161603,15.433,15.433,15.43,15.431
201907161604,15.43,15.43,15.426,15.428
201907161605,15.428,15.43,15.426,15.426
201907161606,15.426,15.433,15.426,15.432
201907161607,15.433,15.437,15.432,15.435
201907161608,15.435,15.437,15.433,15.434
201907161609,15.434,15.437,15.433,15.434
201907161610,15.434,15.437,15.434,15.437
201907161611,15.437,15.44,15.433,15.435
201907161612,15.435,15.439,15.435,15.437
201907161613,15.436,15.437,15.432,15.432
201907161614,15.432,15.434,15.43,15.43
201907161615,15.43,15.433,15.43,15.432
201907161616,15.432,15.432,15.428,15.428
201907161617,15.428,15.433,15.428,15.431
201907161618,15.431,15.431,15.42,15.42
201907161619,15.42,15.42,15.414,15.416
201907161620,15.416,15.417,15.414,15.416
201907161621,15.416,15.421,15.416,15.421
201907161622,15.421,15.426,15.418,15.422
201907161623,15.422,15.428,15.42,15.427
201907161624,15.427,15.427,15.422,15.424
201907161625,15.424,15.431,15.424,15.426
201907161626,15.426,15.429,15.426,15.428
201907161627,15.429,15.435,15.429,15.432
201907161628,15.432,15.435,15.431,15.434
201907161629,15.434,15.439,15.434,15.436
201907161630,15.436,15.452,15.436,15.445
201907161631,15.447,15.451,15.446,15.449
201907161632,15.449,15.451,15.436,15.437
201907161633,15.437,15.44,15.436,15.438
201907161634,15.437,15.439,15.432,15.432
201907161635,15.432,15.436,15.431,15.436
201907161636,15.436,15.44,15.435,15.437
201907161637,15.437,15.437,15.431,15.431
201907161638,15.431,15.431,15.422,15.422
201907161639,15.422,15.422,15.419,15.421
201907161640,15.421,15.425,15.419,15.421
201907161641,15.421,15.425,15.419,15.425
201907161642,15.425,15.426,15.42,15.42
201907161643,15.42,15.424,15.419,15.424
201907161644,15.424,15.425,15.421,15.424
201907161645,15.425,15.425,15.419,15.421
201907161646,15.421,15.43,15.418,15.427
201907161647,15.427,15.43,15.426,15.429
201907161648,15.429,15.429,15.424,15.428
201907161649,15.428,15.43,15.426,15.429
201907161650,15.429,15.43,15.425,15.43
201907161651,15.43,15.435,15.429,15.433
201907161652,15.433,15.434,15.43,15.431
201907161653,15.431,15.445,15.431,15.444
201907161654,15.444,15.445,15.442,15.442
201907161655,15.442,15.446,15.442,15.443
201907161656,15.443,15.445,15.44,15.441
201907161657,15.441,15.442,15.441,15.441
201907161658,15.441,15.442,15.44,15.442
201907161659,15.442,15.442,15.437,15.437
201907161700,15.437,15.442,15.434,15.441
201907161701,15.441,15.441,15.437,15.441
201907161702,15.441,15.442,15.436,15.438
201907161703,15.438,15.442,15.437,15.441
201907161704,15.441,15.442,15.438,15.438
201907161705,15.438,15.451,15.438,15.451
201907161706,15.451,15.451,15.443,15.444
201907161707,15.444,15.444,15.433,15.436
201907161708,15.435,15.436,15.428,15.429
201907161709,15.428,15.437,15.428,15.436
201907161710,15.436,15.437,15.432,15.433
201907161711,15.433,15.434,15.43,15.432
201907161712,15.432,15.432,15.425,15.427
201907161713,15.427,15.428,15.419,15.419
201907161714,15.419,15.422,15.414,15.414
201907161715,15.414,15.418,15.414,15.418
201907161716,15.418,15.418,15.416,15.418
201907161717,15.418,15.42,15.417,15.417
201907161718,15.417,15.422,15.417,15.418
201907161719,15.418,15.421,15.418,15.418
201907161720,15.417,15.418,15.412,15.412
201907161721,15.412,15.417,15.402,15.404
201907161722,15.404,15.408,15.402,15.408
201907161723,15.408,15.408,15.407,15.407
201907161724,15.407,15.412,15.407,15.412
201907161725,15.412,15.412,15.411,15.412
201907161726,15.412,15.415,15.408,15.412
201907161727,15.412,15.418,15.412,15.413
201907161728,15.413,15.416,15.413,15.416
201907161729,15.416,15.417,15.416,15.416
201907161730,15.416,15.421,15.413,15.421
201907161731,15.421,15.421,15.417,15.417
201907161732,15.417,15.418,15.413,15.417
201907161733,15.417,15.42,15.417,15.418
201907161734,15.418,15.421,15.416,15.418
201907161735,15.418,15.42,15.417,15.417
201907161736,15.417,15.419,15.416,15.417
201907161737,15.417,15.417,15.403,15.407
201907161738,15.408,15.412,15.408,15.412
201907161739,15.412,15.414,15.411,15.413
201907161740,15.413,15.416,15.413,15.413
201907161741,15.412,15.417,15.412,15.413
201907161742,15.414,15.418,15.413,15.417
201907161743,15.418,15.42,15.417,15.417
201907161744,15.417,15.421,15.417,15.421
201907161745,15.42,15.422,15.419,15.422
201907161746,15.422,15.422,15.421,15.422
201907161747,15.422,15.422,15.417,15.418
201907161748,15.418,15.419,15.417,15.417
201907161749,15.417,15.419,15.417,15.419
201907161750,15.419,15.422,15.418,15.419
201907161751,15.419,15.422,15.417,15.417
201907161752,15.417,15.42,15.417,15.419
201907161753,15.419,15.422,15.418,15.418
201907161754,15.418,15.419,15.418,15.419
201907161755,15.419,15.422,15.419,15.419
201907161756,15.419,15.419,15.418,15.419
201907161757,15.419,15.422,15.419,15.419
201907161758,15.419,15.419,15.418,15.418
201907161759,15.419,15.419,15.418,15.419
201907161800,15.419,15.423,15.419,15.422
201907161801,15.422,15.422,15.418,15.418
201907161802,15.421,15.423,15.419,15.423
201907161803,15.423,15.423,15.419,15.419
201907161804,15.419,15.423,15.419,15.422
201907161805,15.422,15.424,15.422,15.423
201907161806,15.423,15.428,15.423,15.424
201907161807,15.424,15.427,15.423,15.426
201907161808,15.426,15.427,15.422,15.427
201907161809,15.427,15.427,15.421,15.422
201907161810,15.422,15.424,15.422,15.424
201907161811,15.424,15.425,15.418,15.418
201907161812,15.418,15.424,15.418,15.423
201907161813,15.423,15.424,15.419,15.422
201907161814,15.422,15.423,15.418,15.419
201907161815,15.419,15.423,15.419,15.423
201907161816,15.423,15.424,15.418,15.418
201907161817,15.418,15.419,15.417,15.417
201907161818,15.417,15.42,15.417,15.418
201907161819,15.418,15.418,15.416,15.418
201907161820,15.418,15.418,15.415,15.417
201907161821,15.417,15.422,15.417,15.419
201907161822,15.419,15.422,15.419,15.421
201907161823,15.421,15.423,15.421,15.423
201907161824,15.423,15.423,15.421,15.422
201907161825,15.422,15.422,15.414,15.416
201907161826,15.416,15.417,15.412,15.413
201907161827,15.413,15.417,15.412,15.417
201907161828,15.417,15.417,15.415,15.417
201907161829,15.417,15.422,15.417,15.419
201907161830,15.419,15.423,15.418,15.422
201907161831,15.422,15.422,15.417,15.419
201907161832,15.42,15.422,15.418,15.422
201907161833,15.422,15.422,15.418,15.418
201907161834,15.418,15.419,15.417,15.419
201907161835,15.419,15.422,15.417,15.417
201907161836,15.417,15.419,15.417,15.419
201907161837,15.419,15.419,15.417,15.418
201907161838,15.418,15.418,15.414,15.414
201907161839,15.414,15.414,15.413,15.413
201907161840,15.413,15.417,15.413,15.414
201907161841,15.414,15.414,15.412,15.412
201907161842,15.413,15.414,15.413,15.414
201907161843,15.414,15.414,15.413,15.414
201907161844,15.414,15.418,15.413,15.413
201907161845,15.413,15.417,15.413,15.417
201907161846,15.417,15.418,15.414,15.414
201907161847,15.414,15.414,15.412,15.414
201907161848,15.414,15.415,15.412,15.412
201907161849,15.412,15.413,15.409,15.409
201907161850,15.409,15.417,15.409,15.416
201907161851,15.416,15.418,15.415,15.417
201907161852,15.418,15.42,15.417,15.418
201907161853,15.418,15.418,15.418,15.418
201907161854,15.418,15.426,15.418,15.423
201907161855,15.423,15.423,15.418,15.418
201907161856,15.418,15.419,15.417,15.417
201907161857,15.417,15.419,15.414,15.418
201907161858,15.418,15.42,15.414,15.415
201907161859,15.415,15.415,15.405,15.405
201907161900,15.405,15.408,15.405,15.408
201907161901,15.408,15.409,15.408,15.408
201907161902,15.408,15.41,15.404,15.404
201907161903,15.404,15.404,15.401,15.403
201907161904,15.403,15.404,15.397,15.4
201907161905,15.402,15.402,15.395,15.395
201907161906,15.395,15.398,15.395,15.398
201907161907,15.398,15.399,15.398,15.398
201907161908,15.398,15.399,15.398,15.399
201907161909,15.399,15.399,15.398,15.399
201907161910,15.399,15.399,15.397,15.399
201907161911,15.399,15.4,15.398,15.399
201907161912,15.399,15.403,15.399,15.402
201907161913,15.402,15.403,15.402,15.402
201907161914,15.402,15.403,15.402,15.402
201907161915,15.402,15.402,15.391,15.392
201907161916,15.392,15.392,15.392,15.392
201907161917,15.392,15.398,15.392,15.397
201907161918,15.397,15.397,15.393,15.393
201907161919,15.393,15.393,15.392,15.392
201907161920,15.392,15.393,15.392,15.393
201907161921,15.393,15.397,15.393,15.397
201907161922,15.397,15.401,15.397,15.399
201907161923,15.399,15.399,15.398,15.398
201907161924,15.398,15.4,15.398,15.399
201907161925,15.399,15.402,15.398,15.399
201907161926,15.399,15.399,15.398,15.399
201907161927,15.399,15.399,15.398,15.398
201907161928,15.398,15.399,15.395,15.398
201907161929,15.398,15.398,15.398,15.398
201907161930,15.398,15.399,15.396,15.397
201907161931,15.396,15.398,15.394,15.394
201907161932,15.394,15.398,15.394,15.398
201907161933,15.398,15.398,15.393,15.393
201907161934,15.393,15.398,15.393,15.398
201907161935,15.398,15.398,15.397,15.398
201907161936,15.398,15.398,15.397,15.398
201907161937,15.398,15.398,15.397,15.397
201907161938,15.397,15.397,15.396,15.397
201907161939,15.397,15.397,15.393,15.393
201907161940,15.393,15.395,15.393,15.394
201907161941,15.394,15.394,15.392,15.394
201907161942,15.394,15.397,15.392,15.394
201907161943,15.394,15.394,15.393,15.394
201907161944,15.394,15.395,15.388,15.388
201907161945,15.388,15.393,15.384,15.393
201907161946,15.393,15.393,15.389,15.389
201907161947,15.389,15.389,15.383,15.388
201907161948,15.387,15.387,15.379,15.382
201907161949,15.382,15.383,15.38,15.383
201907161950,15.383,15.387,15.382,15.383
201907161951,15.383,15.387,15.378,15.386
201907161952,15.386,15.392,15.386,15.388
201907161953,15.388,15.391,15.388,15.389
201907161954,15.389,15.398,15.389,15.398
201907161955,15.398,15.398,15.393,15.393
201907161956,15.394,15.397,15.393,15.394
201907161957,15.394,15.394,15.39,15.392
201907161958,15.392,15.393,15.388,15.389
201907161959,15.389,15.392,15.388,15.389
201907162000,15.389,15.395,15.389,15.393
201907162001,15.393,15.394,15.393,15.394
201907162002,15.394,15.399,15.394,15.399
201907162003,15.399,15.401,15.395,15.395
201907162004,15.396,15.399,15.396,15.399
201907162005,15.399,15.399,15.398,15.398
201907162006,15.398,15.4,15.398,15.4
201907162007,15.4,15.403,15.399,15.401
201907162008,15.401,15.403,15.398,15.4
201907162009,15.4,15.4,15.394,15.394
201907162010,15.394,15.395,15.394,15.395
201907162011,15.395,15.395,15.389,15.389
201907162012,15.389,15.393,15.389,15.393
201907162013,15.393,15.394,15.392,15.393
201907162014,15.393,15.395,15.393,15.394
201907162015,15.394,15.4,15.394,15.399
201907162016,15.399,15.399,15.394,15.394
201907162017,15.394,15.399,15.394,15.398
201907162018,15.398,15.398,15.395,15.395
201907162019,15.395,15.398,15.395,15.395
201907162020,15.395,15.399,15.394,15.398
201907162021,15.398,15.402,15.398,15.399
201907162022,15.399,15.399,15.398,15.398
201907162023,15.398,15.399,15.398,15.399
201907162024,15.399,15.403,15.399,15.403
201907162025,15.403,15.403,15.399,15.399
201907162026,15.399,15.402,15.398,15.4
201907162027,15.4,15.404,15.398,15.403
201907162028,15.403,15.408,15.403,15.407
201907162029,15.408,15.408,15.407,15.407
201907162030,15.407,15.412,15.407,15.41
201907162031,15.41,15.414,15.41,15.413
201907162032,15.413,15.42,15.413,15.418
201907162033,15.418,15.422,15.417,15.418
201907162034,15.418,15.418,15.414,15.418
201907162035,15.418,15.423,15.418,15.423
201907162036,15.423,15.424,15.423,15.424
201907162037,15.424,15.427,15.423,15.424
201907162038,15.424,15.428,15.424,15.426
201907162039,15.426,15.428,15.426,15.427
201907162040,15.427,15.428,15.425,15.428
201907162041,15.428,15.428,15.422,15.423
201907162042,15.423,15.427,15.423,15.426
201907162043,15.425,15.434,15.423,15.433
201907162044,15.433,15.433,15.422,15.423
201907162045,15.422,15.423,15.415,15.415
201907162046,15.416,15.418,15.415,15.418
201907162047,15.418,15.419,15.415,15.415
201907162048,15.415,15.418,15.412,15.412
201907162049,15.412,15.412,15.408,15.41
201907162050,15.41,15.413,15.41,15.413
201907162051,15.413,15.413,15.408,15.408
201907162052,15.408,15.409,15.407,15.408
201907162053,15.408,15.408,15.406,15.406
201907162054,15.407,15.412,15.407,15.409
201907162055,15.409,15.409,15.408,15.408
201907162056,15.408,15.412,15.407,15.411
201907162057,15.411,15.416,15.41,15.416
201907162058,15.416,15.417,15.414,15.415
201907162059,15.415,15.416,15.414,15.416
201907162100,15.416,15.419,15.412,15.418
201907162101,15.418,15.44,15.418,15.438
201907162102,15.438,15.438,15.425,15.426
201907162103,15.426,15.431,15.424,15.429
201907162104,15.429,15.432,15.422,15.422
201907162105,15.422,15.422,15.416,15.416
201907162106,15.416,15.416,15.412,15.413
201907162107,15.413,15.418,15.413,15.418
201907162108,15.418,15.422,15.415,15.422
201907162109,15.422,15.426,15.422,15.424
201907162110,15.424,15.432,15.424,15.428
201907162111,15.428,15.428,15.425,15.428
201907162112,15.428,15.431,15.427,15.43
201907162113,15.429,15.434,15.428,15.43
201907162114,15.43,15.431,15.429,15.429
201907162115,15.429,15.431,15.422,15.423
201907162116,15.423,15.429,15.423,15.429
201907162117,15.429,15.431,15.427,15.43
201907162118,15.43,15.431,15.428,15.431
201907162119,15.431,15.431,15.427,15.429
201907162120,15.429,15.441,15.429,15.44
201907162121,15.439,15.442,15.436,15.439
201907162122,15.439,15.44,15.433,15.433
201907162123,15.433,15.433,15.431,15.433
201907162124,15.433,15.437,15.433,15.437
201907162125,15.437,15.443,15.436,15.442
201907162126,15.442,15.452,15.442,15.447
201907162127,15.447,15.448,15.442,15.442
201907162128,15.442,15.446,15.44,15.444
201907162129,15.444,15.445,15.438,15.439
201907162130,15.439,15.439,15.373,15.378
201907162131,15.377,15.386,15.358,15.381
201907162132,15.381,15.389,15.379,15.383
201907162133,15.382,15.388,15.37,15.375
201907162134,15.377,15.378,15.362,15.362
201907162135,15.362,15.38,15.36,15.379
201907162136,15.379,15.381,15.372,15.377
201907162137,15.374,15.383,15.373,15.38
201907162138,15.38,15.382,15.372,15.374
201907162139,15.374,15.381,15.365,15.367
201907162140,15.368,15.382,15.364,15.38
201907162141,15.379,15.386,15.375,15.378
201907162142,15.378,15.395,15.374,15.395
201907162143,15.393,15.395,15.375,15.375
201907162144,15.375,15.385,15.374,15.377
201907162145,15.377,15.378,15.372,15.373
201907162146,15.373,15.385,15.369,15.385
201907162147,15.385,15.386,15.378,15.379
201907162148,15.379,15.386,15.378,15.383
201907162149,15.383,15.383,15.37,15.379
201907162150,15.379,15.381,15.355,15.357
201907162151,15.358,15.371,15.356,15.368
201907162152,15.37,15.373,15.367,15.369
201907162153,15.369,15.376,15.366,15.375
201907162154,15.375,15.381,15.374,15.38
201907162155,15.383,15.389,15.381,15.384
201907162156,15.385,15.394,15.385,15.39
201907162157,15.39,15.4,15.389,15.391
201907162158,15.391,15.4,15.391,15.4
201907162159,15.402,15.406,15.399,15.405
201907162200,15.405,15.41,15.396,15.404
201907162201,15.404,15.414,15.4,15.412
201907162202,15.412,15.417,15.411,15.417
201907162203,15.417,15.42,15.408,15.408
201907162204,15.409,15.41,15.403,15.409
201907162205,15.409,15.409,15.399,15.4
201907162206,15.4,15.405,15.391,15.394
201907162207,15.393,15.393,15.374,15.377
201907162208,15.378,15.379,15.373,15.379
201907162209,15.378,15.378,15.365,15.365
201907162210,15.365,15.381,15.362,15.381
201907162211,15.381,15.381,15.362,15.363
201907162212,15.363,15.37,15.362,15.37
201907162213,15.369,15.37,15.364,15.364
201907162214,15.368,15.381,15.368,15.379
201907162215,15.379,15.39,15.377,15.389
201907162216,15.389,15.405,15.386,15.405
201907162217,15.405,15.416,15.401,15.415
201907162218,15.415,15.423,15.413,15.423
201907162219,15.423,15.428,15.416,15.428
201907162220,15.428,15.452,15.424,15.452
201907162221,15.451,15.464,15.444,15.46
201907162222,15.459,15.472,15.452,15.472
201907162223,15.472,15.479,15.472,15.473
201907162224,15.473,15.473,15.454,15.46
201907162225,15.458,15.461,15.452,15.453
201907162226,15.452,15.462,15.451,15.458
201907162227,15.459,15.461,15.455,15.457
201907162228,15.458,15.47,15.458,15.468
201907162229,15.468,15.49,15.467,15.489
201907162230,15.489,15.495,15.482,15.492
201907162231,15.492,15.492,15.482,15.485
201907162232,15.486,15.5,15.486,15.492
201907162233,15.492,15.494,15.479,15.484
201907162234,15.484,15.491,15.484,15.489
201907162235,15.489,15.491,15.482,15.491
201907162236,15.491,15.491,15.485,15.486
201907162237,15.486,15.526,15.486,15.522
201907162238,15.522,15.539,15.516,15.526
201907162239,15.526,15.546,15.518,15.543
201907162240,15.544,15.597,15.538,15.59
201907162241,15.59,15.591,15.562,15.562
201907162242,15.562,15.573,15.557,15.573
201907162243,15.577,15.624,15.577,15.624
201907162244,15.624,15.632,15.611,15.624
201907162245,15.624,15.653,15.624,15.637
201907162246,15.637,15.639,15.609,15.612
201907162247,15.611,15.611,15.588,15.594
201907162248,15.594,15.605,15.588,15.602
201907162249,15.603,15.617,15.603,15.611
201907162250,15.611,15.623,15.609,15.616
201907162251,15.616,15.63,15.614,15.629
201907162252,15.629,15.629,15.612,15.612
201907162253,15.612,15.615,15.596,15.597
201907162254,15.597,15.599,15.593,15.598
201907162255,15.598,15.598,15.59,15.592
201907162256,15.592,15.592,15.566,15.566
201907162257,15.565,15.578,15.558,15.573
201907162258,15.574,15.579,15.572,15.572
201907162259,15.569,15.578,15.566,15.576
201907162300,15.576,15.585,15.57,15.572
201907162301,15.572,15.583,15.57,15.581
201907162302,15.581,15.588,15.581,15.588
201907162303,15.588,15.611,15.588,15.608
201907162304,15.608,15.62,15.608,15.612
201907162305,15.612,15.626,15.612,15.625
201907162306,15.626,15.631,15.617,15.617
201907162307,15.617,15.62,15.608,15.608
201907162308,15.608,15.611,15.597,15.601
201907162309,15.601,15.616,15.598,15.616
201907162310,15.616,15.618,15.604,15.606
201907162311,15.606,15.607,15.597,15.598
201907162312,15.598,15.612,15.598,15.61
201907162313,15.61,15.618,15.61,15.618
201907162314,15.618,15.627,15.615,15.615
201907162315,15.615,15.623,15.615,15.622
201907162316,15.623,15.628,15.619,15.626
201907162317,15.626,15.636,15.626,15.636
201907162318,15.636,15.64,15.627,15.633
201907162319,15.633,15.638,15.632,15.634
201907162320,15.634,15.635,15.621,15.621
201907162321,15.621,15.625,15.609,15.609
201907162322,15.609,15.611,15.602,15.602
201907162323,15.602,15.619,15.601,15.619
201907162324,15.618,15.618,15.616,15.618
201907162325,15.617,15.625,15.617,15.623
201907162326,15.623,15.624,15.618,15.623
201907162327,15.623,15.625,15.621,15.623
201907162328,15.623,15.625,15.621,15.623
201907162329,15.623,15.625,15.619,15.621
201907162330,15.621,15.624,15.615,15.616
201907162331,15.616,15.617,15.606,15.608
201907162332,15.607,15.615,15.604,15.613
201907162333,15.613,15.617,15.612,15.616
201907162334,15.617,15.624,15.617,15.623
201907162335,15.624,15.639,15.623,15.638
201907162336,15.638,15.638,15.633,15.635
201907162337,15.635,15.637,15.631,15.637
201907162338,15.637,15.641,15.635,15.64
201907162339,15.64,15.64,15.636,15.636
201907162340,15.636,15.638,15.633,15.636
201907162341,15.636,15.637,15.636,15.636
201907162342,15.636,15.663,15.636,15.662
201907162343,15.662,15.689,15.662,15.687
201907162344,15.687,15.688,15.664,15.667
201907162345,15.666,15.672,15.663,15.67
201907162346,15.67,15.674,15.664,15.664
201907162347,15.664,15.673,15.663,15.671
201907162348,15.672,15.673,15.662,15.663
201907162349,15.663,15.671,15.66,15.671
201907162350,15.67,15.671,15.663,15.663
201907162351,15.663,15.672,15.662,15.67
201907162352,15.67,15.689,15.67,15.686
201907162353,15.687,15.689,15.678,15.678
201907162354,15.678,15.678,15.663,15.663
201907162355,15.663,15.665,15.66,15.66
201907162356,15.66,15.661,15.637,15.645
201907162357,15.645,15.656,15.644,15.656
201907162358,15.656,15.656,15.647,15.649
201907162359,15.647,15.649,15.644,15.646
201907170000,15.646,15.646,15.626,15.636
201907170001,15.636,15.642,15.636,15.641
201907170002,15.641,15.645,15.637,15.637
201907170003,15.637,15.637,15.627,15.627
201907170004,15.628,15.639,15.623,15.636
201907170005,15.636,15.636,15.629,15.632
201907170006,15.632,15.636,15.631,15.631
201907170007,15.631,15.636,15.631,15.632
201907170008,15.632,15.638,15.63,15.637
201907170009,15.637,15.641,15.635,15.641
201907170010,15.641,15.641,15.632,15.633
201907170011,15.633,15.633,15.616,15.619
201907170012,15.619,15.624,15.613,15.614
201907170013,15.614,15.618,15.608,15.608
201907170014,15.608,15.612,15.602,15.612
201907170015,15.612,15.617,15.608,15.611
201907170016,15.611,15.622,15.608,15.618
201907170017,15.618,15.632,15.618,15.632
201907170018,15.632,15.633,15.628,15.631
201907170019,15.632,15.632,15.628,15.632
201907170020,15.632,15.633,15.628,15.633
201907170021,15.633,15.633,15.628,15.632
201907170022,15.632,15.633,15.628,15.632
201907170023,15.632,15.643,15.632,15.642
201907170024,15.642,15.649,15.64,15.648
201907170025,15.648,15.653,15.647,15.651
201907170026,15.651,15.652,15.647,15.648
201907170027,15.648,15.652,15.647,15.648
201907170028,15.648,15.656,15.647,15.656
201907170029,15.656,15.657,15.652,15.657
201907170030,15.657,15.67,15.657,15.67
201907170031,15.67,15.671,15.666,15.667
201907170032,15.667,15.667,15.662,15.666
201907170033,15.665,15.667,15.662,15.662
201907170034,15.662,15.663,15.656,15.656
201907170035,15.656,15.666,15.656,15.666
201907170036,15.666,15.666,15.661,15.661
201907170037,15.661,15.661,15.652,15.653
201907170038,15.653,15.653,15.645,15.646
201907170039,15.646,15.646,15.642,15.645
201907170040,15.646,15.654,15.646,15.654
201907170041,15.654,15.655,15.651,15.655
201907170042,15.655,15.655,15.651,15.653
201907170043,15.653,15.657,15.651,15.657
201907170044,15.657,15.661,15.657,15.661
201907170045,15.661,15.662,15.657,15.662
201907170046,15.662,15.664,15.661,15.663
201907170047,15.663,15.664,15.661,15.662
201907170048,15.662,15.665,15.662,15.665
201907170049,15.665,15.666,15.661,15.666
201907170050,15.666,15.666,15.661,15.661
201907170051,15.661,15.662,15.656,15.656
201907170052,15.656,15.658,15.652,15.656
201907170053,15.656,15.658,15.656,15.657
201907170054,15.656,15.657,15.652,15.652
201907170055,15.652,15.653,15.642,15.642
201907170056,15.642,15.643,15.62,15.621
201907170057,15.621,15.622,15.6,15.603
201907170058,15.603,15.603,15.585,15.592
201907170059,15.592,15.592,15.577,15.578
201907170100,15.578,15.578,15.552,15.565
201907170101,15.565,15.565,15.546,15.551
201907170102,15.551,15.569,15.546,15.569
201907170103,15.569,15.58,15.567,15.58
201907170104,15.58,15.58,15.569,15.573
201907170105,15.573,15.586,15.572,15.583
201907170106,15.583,15.586,15.565,15.566
201907170107,15.566,15.566,15.542,15.542
201907170108,15.542,15.542,15.531,15.537
201907170109,15.536,15.545,15.536,15.544
201907170110,15.544,15.554,15.542,15.549
201907170111,15.549,15.551,15.544,15.544
201907170112,15.544,15.545,15.535,15.545
201907170113,15.545,15.555,15.545,15.555
201907170114,15.555,15.561,15.554,15.56
201907170115,15.56,15.56,15.545,15.546
201907170116,15.546,15.546,15.54,15.542
201907170117,15.542,15.551,15.542,15.551
201907170118,15.551,15.552,15.542,15.543
201907170119,15.542,15.555,15.542,15.555
201907170120,15.555,15.56,15.555,15.56
201907170121,15.56,15.568,15.559,15.566
201907170122,15.566,15.566,15.561,15.566
201907170123,15.567,15.574,15.566,15.574
201907170124,15.574,15.587,15.574,15.587
201907170125,15.587,15.594,15.582,15.591
201907170126,15.591,15.591,15.581,15.582
201907170127,15.584,15.586,15.58,15.584
201907170128,15.584,15.586,15.581,15.581
201907170129,15.581,15.581,15.565,15.566
201907170130,15.566,15.57,15.565,15.566
201907170131,15.566,15.575,15.566,15.575
201907170132,15.575,15.586,15.575,15.58
201907170133,15.58,15.586,15.58,15.585
201907170134,15.584,15.592,15.584,15.591
201907170135,15.591,15.596,15.59,15.596
201907170136,15.596,15.6,15.595,15.6
201907170137,15.6,15.6,15.595,15.599
201907170138,15.599,15.6,15.596,15.599
201907170139,15.599,15.604,15.599,15.6
201907170140,15.6,15.604,15.599,15.6
201907170141,15.6,15.602,15.595,15.595
201907170142,15.595,15.596,15.59,15.594
201907170143,15.594,15.604,15.594,15.604
201907170144,15.604,15.611,15.604,15.61
201907170145,15.61,15.615,15.609,15.611
201907170146,15.611,15.616,15.61,15.615
201907170147,15.615,15.62,15.614,15.615
201907170148,15.615,15.615,15.605,15.609
201907170149,15.609,15.611,15.605,15.607
201907170150,15.606,15.615,15.606,15.614
201907170151,15.614,15.619,15.614,15.619
201907170152,15.619,15.62,15.616,15.619
201907170153,15.619,15.62,15.618,15.619
201907170154,15.619,15.621,15.615,15.615
201907170155,15.615,15.615,15.61,15.611
201907170156,15.611,15.614,15.611,15.611
201907170157,15.611,15.612,15.61,15.61
201907170158,15.61,15.615,15.61,15.615
201907170159,15.615,15.635,15.615,15.635
201907170200,15.635,15.656,15.629,15.647
201907170201,15.647,15.664,15.647,15.657
201907170202,15.657,15.667,15.657,15.666
201907170203,15.666,15.666,15.656,15.658
201907170204,15.659,15.66,15.656,15.659
201907170205,15.66,15.667,15.654,15.665
201907170206,15.665,15.67,15.659,15.661
201907170207,15.661,15.663,15.658,15.662
201907170208,15.662,15.667,15.661,15.666
201907170209,15.666,15.672,15.663,15.672
201907170210,15.672,15.675,15.669,15.669
201907170211,15.669,15.675,15.669,15.674
201907170212,15.674,15.678,15.674,15.676
201907170213,15.674,15.679,15.674,15.677
201907170214,15.677,15.682,15.675,15.68
201907170215,15.68,15.686,15.68,15.683
201907170216,15.685,15.685,15.673,15.674
201907170217,15.675,15.676,15.667,15.672
201907170218,15.672,15.678,15.667,15.667
201907170219,15.667,15.671,15.662,15.662
201907170220,15.662,15.662,15.644,15.647
201907170221,15.647,15.647,15.628,15.628
201907170222,15.628,15.629,15.62,15.623
201907170223,15.624,15.629,15.619,15.626
201907170224,15.626,15.653,15.624,15.644
201907170225,15.645,15.649,15.643,15.648
201907170226,15.648,15.649,15.646,15.646
201907170227,15.646,15.648,15.639,15.641
201907170228,15.642,15.642,15.633,15.634
201907170229,15.634,15.634,15.632,15.632
201907170230,15.633,15.634,15.623,15.623
201907170231,15.623,15.63,15.623,15.628
201907170232,15.628,15.629,15.623,15.624
201907170233,15.624,15.628,15.622,15.623
201907170234,15.623,15.628,15.623,15.628
201907170235,15.628,15.63,15.623,15.623
201907170236,15.623,15.624,15.618,15.619
201907170237,15.619,15.619,15.617,15.617
201907170238,15.617,15.622,15.617,15.618
201907170239,15.618,15.618,15.608,15.614
201907170240,15.614,15.617,15.602,15.603
201907170241,15.603,15.604,15.593,15.595
201907170242,15.595,15.601,15.594,15.6
201907170243,15.6,15.612,15.598,15.61
201907170244,15.61,15.613,15.608,15.611
201907170245,15.611,15.616,15.606,15.615
201907170246,15.615,15.627,15.615,15.627
201907170247,15.627,15.638,15.626,15.636
201907170248,15.636,15.638,15.633,15.634
201907170249,15.634,15.635,15.625,15.628
201907170250,15.628,15.634,15.628,15.63
201907170251,15.63,15.631,15.621,15.624
201907170252,15.626,15.63,15.624,15.624
201907170253,15.624,15.624,15.615,15.615
201907170254,15.615,15.621,15.615,15.621
201907170255,15.62,15.62,15.619,15.619
201907170256,15.62,15.624,15.619,15.619
201907170257,15.619,15.625,15.618,15.625
201907170258,15.625,15.625,15.62,15.62
201907170259,15.62,15.623,15.619,15.619
201907170300,15.619,15.62,15.614,15.616
201907170301,15.616,15.616,15.614,15.614
201907170302,15.614,15.62,15.614,15.617
201907170303,15.617,15.618,15.615,15.615
201907170304,15.615,15.616,15.61,15.616
201907170305,15.616,15.62,15.616,15.619
201907170306,15.619,15.626,15.619,15.623
201907170307,15.623,15.627,15.623,15.624
201907170308,15.624,15.626,15.623,15.625
201907170309,15.625,15.625,15.621,15.622
201907170310,15.622,15.628,15.621,15.625
201907170311,15.625,15.626,15.623,15.625
201907170312,15.625,15.625,15.62,15.62
201907170313,15.62,15.625,15.62,15.624
201907170314,15.624,15.635,15.624,15.635
201907170315,15.635,15.64,15.635,15.64
201907170316,15.64,15.641,15.635,15.635
201907170317,15.635,15.635,15.63,15.631
201907170318,15.631,15.632,15.63,15.631
201907170319,15.631,15.631,15.624,15.625
201907170320,15.625,15.626,15.622,15.624
201907170321,15.625,15.625,15.598,15.599
201907170322,15.6,15.606,15.592,15.606
201907170323,15.606,15.607,15.604,15.606
201907170324,15.606,15.606,15.596,15.597
201907170325,15.597,15.601,15.593,15.6
201907170326,15.6,15.602,15.587,15.59
201907170327,15.59,15.591,15.588,15.591
201907170328,15.591,15.597,15.59,15.597
201907170329,15.597,15.601,15.596,15.599
201907170330,15.6,15.6,15.582,15.582
201907170331,15.582,15.587,15.582,15.585
201907170332,15.585,15.591,15.583,15.583
201907170333,15.583,15.584,15.58,15.582
201907170334,15.582,15.585,15.58,15.584
201907170335,15.583,15.583,15.576,15.582
201907170336,15.582,15.586,15.575,15.576
201907170337,15.575,15.58,15.573,15.579
201907170338,15.579,15.583,15.56,15.56
201907170339,15.559,15.565,15.555,15.56
201907170340,15.559,15.563,15.557,15.56
201907170341,15.56,15.567,15.56,15.566
201907170342,15.566,15.57,15.566,15.567
201907170343,15.567,15.573,15.567,15.571
201907170344,15.571,15.572,15.567,15.57
201907170345,15.57,15.572,15.568,15.568
201907170346,15.567,15.567,15.557,15.564
201907170347,15.564,15.571,15.564,15.57
201907170348,15.571,15.575,15.571,15.574
201907170349,15.574,15.577,15.571,15.575
201907170350,15.575,15.584,15.575,15.584
201907170351,15.584,15.586,15.581,15.585
201907170352,15.585,15.587,15.584,15.585
201907170353,15.585,15.587,15.584,15.587
201907170354,15.587,15.59,15.585,15.59
201907170355,15.59,15.595,15.589,15.591
201907170356,15.591,15.594,15.59,15.59
201907170357,15.59,15.59,15.58,15.58
201907170358,15.58,15.583,15.579,15.581
201907170359,15.581,15.585,15.581,15.582
201907170400,15.582,15.584,15.581,15.582
201907170401,15.582,15.585,15.581,15.583
201907170402,15.583,15.587,15.583,15.586
201907170403,15.587,15.587,15.585,15.586
201907170404,15.586,15.588,15.583,15.583
201907170405,15.583,15.586,15.582,15.585
201907170406,15.585,15.591,15.585,15.586
201907170407,15.586,15.588,15.585,15.586
201907170408,15.586,15.586,15.576,15.576
201907170409,15.576,15.577,15.575,15.575
201907170410,15.576,15.581,15.575,15.577
201907170411,15.577,15.578,15.575,15.575
201907170412,15.575,15.576,15.568,15.569
201907170413,15.569,15.571,15.565,15.571
201907170414,15.571,15.571,15.57,15.571
201907170415,15.57,15.571,15.566,15.566
201907170416,15.566,15.571,15.566,15.568
201907170417,15.566,15.571,15.565,15.571
201907170418,15.571,15.571,15.566,15.566
201907170419,15.566,15.568,15.566,15.567
201907170420,15.567,15.567,15.565,15.565
201907170421,15.565,15.566,15.565,15.566
201907170422,15.565,15.566,15.564,15.565
201907170423,15.565,15.567,15.565,15.566
201907170424,15.566,15.567,15.565,15.566
201907170425,15.565,15.566,15.561,15.562
201907170426,15.562,15.562,15.559,15.56
201907170427,15.56,15.56,15.557,15.558
201907170428,15.558,15.558,15.556,15.557
201907170429,15.557,15.557,15.545,15.545
201907170430,15.545,15.546,15.541,15.542
201907170431,15.542,15.543,15.535,15.537
201907170432,15.537,15.542,15.536,15.54
201907170433,15.538,15.54,15.537,15.539
201907170434,15.539,15.541,15.537,15.54
201907170435,15.54,15.542,15.536,15.537
201907170436,15.537,15.537,15.535,15.535
201907170437,15.535,15.536,15.534,15.535
201907170438,15.535,15.536,15.534,15.536
201907170439,15.536,15.537,15.534,15.535
201907170440,15.535,15.536,15.533,15.536
201907170441,15.536,15.537,15.535,15.536
201907170442,15.536,15.537,15.532,15.533
201907170443,15.533,15.534,15.531,15.531
201907170444,15.532,15.534,15.532,15.533
201907170445,15.533,15.536,15.532,15.536
201907170446,15.536,15.538,15.529,15.529
201907170447,15.529,15.53,15.526,15.527
201907170448,15.527,15.528,15.523,15.527
201907170449,15.527,15.527,15.522,15.522
201907170450,15.522,15.526,15.522,15.523
201907170451,15.523,15.524,15.522,15.523
201907170452,15.523,15.526,15.522,15.522
201907170453,15.522,15.526,15.522,15.524
201907170454,15.524,15.527,15.523,15.524
201907170455,15.524,15.528,15.522,15.527
201907170456,15.527,15.529,15.526,15.529
201907170457,15.529,15.531,15.528,15.53
201907170458,15.53,15.532,15.528,15.529
201907170459,15.528,15.529,15.527,15.528
201907170500,15.527,15.533,15.526,15.533
201907170501,15.533,15.546,15.533,15.546
201907170502,15.544,15.547,15.544,15.547
201907170503,15.547,15.547,15.544,15.544
201907170504,15.544,15.547,15.543,15.546
201907170505,15.546,15.546,15.546,15.546
201907170506,15.546,15.547,15.545,15.546
201907170507,15.546,15.546,15.545,15.545
201907170508,15.545,15.545,15.543,15.544
201907170509,15.544,15.544,15.541,15.541
201907170510,15.541,15.541,15.536,15.538
201907170511,15.538,15.541,15.538,15.541
201907170512,15.541,15.543,15.541,15.542
201907170513,15.542,15.542,15.538,15.541
201907170514,15.541,15.542,15.54,15.54
201907170515,15.54,15.54,15.534,15.534
201907170516,15.534,15.534,15.532,15.534
201907170517,15.534,15.534,15.532,15.532
201907170518,15.532,15.535,15.532,15.534
201907170519,15.534,15.535,15.532,15.532
201907170520,15.532,15.535,15.532,15.535
201907170521,15.535,15.535,15.535,15.535
201907170522,15.535,15.535,15.534,15.535
201907170523,15.535,15.535,15.533,15.535
201907170524,15.535,15.537,15.535,15.537
201907170525,15.538,15.539,15.538,15.538
201907170526,15.538,15.542,15.538,15.542
201907170527,15.542,15.543,15.542,15.543
201907170528,15.543,15.543,15.542,15.542
201907170529,15.542,15.543,15.542,15.542
201907170530,15.543,15.543,15.539,15.539
201907170531,15.539,15.539,15.537,15.537
201907170532,15.537,15.538,15.537,15.537
201907170533,15.537,15.538,15.537,15.538
201907170534,15.538,15.538,15.537,15.538
201907170535,15.538,15.538,15.538,15.538
201907170536,15.538,15.542,15.538,15.542
201907170537,15.542,15.542,15.542,15.542
201907170538,15.542,15.542,15.542,15.542
201907170539,15.542,15.543,15.542,15.543
201907170540,15.543,15.545,15.542,15.542
201907170541,15.542,15.547,15.542,15.545
201907170542,15.547,15.55,15.546,15.55
201907170543,15.55,15.551,15.548,15.551
201907170544,15.551,15.551,15.546,15.546
201907170545,15.546,15.549,15.546,15.547
201907170546,15.547,15.549,15.547,15.548
201907170547,15.548,15.548,15.546,15.547
201907170548,15.547,15.547,15.543,15.543
201907170549,15.543,15.543,15.538,15.538
201907170550,15.538,15.542,15.537,15.541
201907170551,15.541,15.546,15.541,15.546
201907170552,15.546,15.549,15.546,15.548
201907170553,15.548,15.548,15.546,15.546
201907170554,15.544,15.547,15.542,15.544
201907170555,15.546,15.548,15.546,15.548
201907170556,15.548,15.548,15.548,15.548
201907170557,15.548,15.548,15.54,15.548
201907170558,15.548,15.548,15.546,15.547
201907170559,15.547,15.547,15.537,15.537
