日時,始値(BID),高値(BID),安値(BID),終値(BID)
201912230800,28490,28490,28474,28485
201912230801,28485,28492,28485,28488
201912230802,28488,28498,28488,28497
201912230803,28497,28497,28492,28494
201912230804,28494,28494,28491,28492
201912230805,28492,28493,28490,28490
201912230806,28489,28491,28488,28490
201912230807,28490,28491,28489,28490
201912230808,28489,28490,28489,28489
201912230809,28489,28490,28488,28489
201912230810,28489,28489,28488,28489
201912230811,28489,28489,28486,28488
201912230812,28488,28489,28488,28488
201912230813,28488,28489,28488,28489
201912230814,28489,28489,28488,28488
201912230815,28488,28489,28487,28487
201912230816,28487,28490,28487,28490
201912230817,28490,28492,28490,28492
201912230818,28491,28492,28490,28491
201912230819,28491,28492,28491,28491
201912230820,28491,28495,28491,28494
201912230821,28494,28494,28493,28494
201912230822,28495,28496,28495,28496
201912230823,28496,28497,28496,28497
201912230824,28497,28498,28496,28497
201912230825,28498,28498,28496,28497
201912230826,28497,28501,28497,28501
201912230827,28501,28501,28500,28500
201912230828,28501,28501,28500,28500
201912230829,28500,28502,28500,28500
201912230830,28500,28502,28499,28499
201912230831,28499,28499,28497,28497
201912230832,28498,28500,28497,28500
201912230833,28501,28501,28496,28496
201912230834,28496,28500,28496,28500
201912230835,28499,28500,28499,28499
201912230836,28499,28508,28499,28508
201912230837,28508,28508,28505,28506
201912230838,28506,28506,28505,28506
201912230839,28506,28506,28504,28504
201912230840,28505,28505,28504,28505
201912230841,28505,28505,28504,28505
201912230842,28505,28505,28504,28504
201912230843,28504,28504,28501,28504
201912230844,28504,28504,28503,28503
201912230845,28503,28505,28503,28503
201912230846,28503,28504,28500,28500
201912230847,28500,28504,28500,28504
201912230848,28504,28504,28502,28503
201912230849,28503,28506,28502,28505
201912230850,28505,28507,28505,28506
201912230851,28506,28507,28505,28505
201912230852,28505,28506,28504,28505
201912230853,28506,28506,28503,28503
201912230854,28503,28504,28503,28503
201912230855,28503,28504,28503,28503
201912230856,28503,28503,28502,28502
201912230857,28502,28503,28501,28502
201912230858,28502,28502,28501,28501
201912230859,28501,28502,28501,28501
201912230900,28501,28501,28500,28500
201912230901,28500,28501,28496,28498
201912230902,28498,28499,28496,28499
201912230903,28499,28501,28497,28501
201912230904,28501,28501,28499,28500
201912230905,28499,28501,28499,28500
201912230906,28500,28501,28500,28500
201912230907,28500,28500,28497,28497
201912230908,28497,28498,28497,28498
201912230909,28499,28499,28497,28498
201912230910,28497,28498,28496,28498
201912230911,28498,28498,28494,28496
201912230912,28495,28495,28493,28494
201912230913,28493,28494,28491,28491
201912230914,28491,28493,28489,28493
201912230915,28492,28496,28492,28495
201912230916,28494,28495,28492,28494
201912230917,28495,28495,28494,28494
201912230918,28493,28495,28493,28495
201912230919,28494,28494,28492,28492
201912230920,28492,28496,28492,28496
201912230921,28497,28497,28493,28494
201912230922,28494,28494,28493,28494
201912230923,28494,28495,28493,28493
201912230924,28494,28494,28491,28491
201912230925,28491,28491,28489,28489
201912230926,28489,28491,28489,28490
201912230927,28490,28492,28490,28492
201912230928,28493,28493,28491,28492
201912230929,28492,28492,28491,28492
201912230930,28492,28492,28491,28491
201912230931,28491,28493,28491,28492
201912230932,28492,28494,28492,28492
201912230933,28492,28494,28492,28493
201912230934,28493,28493,28490,28490
201912230935,28489,28491,28489,28491
201912230936,28490,28490,28488,28490
201912230937,28490,28490,28489,28490
201912230938,28490,28490,28487,28487
201912230939,28487,28490,28487,28490
201912230940,28490,28490,28485,28487
201912230941,28487,28487,28487,28487
201912230942,28487,28488,28484,28484
201912230943,28484,28487,28484,28486
201912230944,28486,28487,28486,28487
201912230945,28486,28487,28484,28487
201912230946,28487,28487,28485,28487
201912230947,28487,28487,28484,28485
201912230948,28485,28487,28485,28487
201912230949,28487,28488,28487,28488
201912230950,28489,28489,28488,28489
201912230951,28489,28490,28489,28490
201912230952,28490,28490,28489,28489
201912230953,28489,28490,28488,28489
201912230954,28490,28490,28489,28489
201912230955,28489,28489,28487,28489
201912230956,28490,28492,28489,28492
201912230957,28492,28493,28490,28493
201912230958,28493,28494,28492,28493
201912230959,28493,28493,28491,28492
201912231000,28492,28493,28489,28490
201912231001,28490,28491,28489,28491
201912231002,28491,28492,28490,28491
201912231003,28492,28492,28490,28491
201912231004,28492,28494,28491,28494
201912231005,28494,28497,28494,28497
201912231006,28497,28498,28497,28497
201912231007,28497,28499,28495,28498
201912231008,28497,28497,28497,28497
201912231009,28497,28498,28497,28498
201912231010,28498,28499,28498,28499
201912231011,28499,28500,28499,28500
201912231012,28500,28500,28499,28499
201912231013,28500,28500,28498,28498
201912231014,28498,28499,28497,28498
201912231015,28498,28500,28498,28500
201912231016,28500,28501,28499,28500
201912231017,28500,28501,28500,28500
201912231018,28500,28500,28498,28498
201912231019,28498,28499,28497,28499
201912231020,28498,28498,28497,28497
201912231021,28497,28497,28495,28495
201912231022,28495,28495,28492,28494
201912231023,28494,28494,28493,28493
201912231024,28493,28494,28492,28494
201912231025,28493,28495,28492,28493
201912231026,28493,28494,28492,28493
201912231027,28493,28493,28492,28492
201912231028,28492,28495,28492,28495
201912231029,28495,28495,28493,28493
201912231030,28493,28493,28489,28493
201912231031,28493,28497,28491,28497
201912231032,28496,28496,28492,28492
201912231033,28492,28493,28489,28489
201912231034,28489,28490,28487,28488
201912231035,28488,28490,28487,28490
201912231036,28490,28491,28489,28491
201912231037,28490,28493,28490,28492
201912231038,28493,28493,28489,28490
201912231039,28489,28490,28487,28488
201912231040,28489,28491,28488,28491
201912231041,28490,28493,28490,28492
201912231042,28492,28492,28489,28490
201912231043,28490,28493,28490,28493
201912231044,28493,28495,28491,28495
201912231045,28495,28495,28490,28490
201912231046,28490,28493,28488,28493
201912231047,28493,28493,28491,28492
201912231048,28492,28495,28492,28495
201912231049,28496,28496,28491,28492
201912231050,28492,28494,28491,28494
201912231051,28493,28493,28491,28492
201912231052,28493,28494,28492,28493
201912231053,28493,28496,28492,28494
201912231054,28493,28494,28492,28494
201912231055,28494,28496,28494,28495
201912231056,28496,28498,28495,28498
201912231057,28497,28498,28497,28497
201912231058,28497,28498,28496,28496
201912231059,28496,28496,28496,28496
201912231100,28496,28496,28496,28496
201912231101,28497,28497,28496,28496
201912231102,28496,28498,28496,28498
201912231103,28498,28498,28497,28498
201912231104,28498,28498,28495,28496
201912231105,28496,28497,28495,28495
201912231106,28495,28495,28494,28494
201912231107,28494,28495,28494,28495
201912231108,28495,28496,28494,28496
201912231109,28496,28496,28495,28496
201912231110,28496,28497,28496,28497
201912231111,28497,28497,28496,28496
201912231112,28496,28498,28496,28496
201912231113,28496,28497,28496,28497
201912231114,28496,28497,28496,28496
201912231115,28496,28497,28496,28497
201912231116,28497,28497,28495,28495
201912231117,28495,28495,28495,28495
201912231118,28495,28496,28495,28496
201912231119,28496,28496,28495,28496
201912231120,28496,28496,28495,28495
201912231121,28495,28495,28495,28495
201912231122,28495,28495,28494,28495
201912231123,28495,28495,28494,28494
201912231124,28494,28494,28494,28494
201912231125,28494,28496,28493,28496
201912231126,28495,28496,28494,28496
201912231127,28495,28496,28494,28496
201912231128,28496,28496,28495,28496
201912231129,28495,28496,28495,28496
201912231130,28496,28496,28495,28495
201912231131,28495,28495,28495,28495
201912231132,28496,28496,28495,28495
201912231133,28495,28495,28494,28495
201912231134,28495,28495,28495,28495
201912231135,28495,28495,28493,28494
201912231136,28494,28495,28494,28494
201912231137,28494,28497,28494,28497
201912231138,28497,28498,28496,28496
201912231139,28496,28496,28495,28495
201912231140,28495,28495,28495,28495
201912231141,28495,28495,28495,28495
201912231142,28495,28495,28493,28493
201912231143,28493,28493,28493,28493
201912231144,28494,28494,28493,28493
201912231145,28493,28493,28490,28490
201912231146,28490,28492,28490,28491
201912231147,28491,28493,28491,28493
201912231148,28492,28493,28491,28491
201912231149,28491,28491,28490,28490
201912231150,28490,28492,28490,28492
201912231151,28492,28492,28491,28491
201912231152,28492,28492,28491,28492
201912231153,28492,28492,28491,28492
201912231154,28492,28493,28491,28493
201912231155,28493,28493,28491,28492
201912231156,28492,28492,28490,28490
201912231157,28490,28491,28488,28488
201912231158,28489,28489,28488,28488
201912231159,28488,28489,28488,28488
201912231200,28488,28488,28487,28487
201912231201,28487,28487,28486,28487
201912231202,28487,28487,28486,28487
201912231203,28487,28488,28487,28488
201912231204,28488,28489,28488,28489
201912231205,28489,28490,28489,28490
201912231206,28490,28490,28489,28489
201912231207,28489,28489,28488,28488
201912231208,28488,28488,28486,28487
201912231209,28487,28488,28486,28488
201912231210,28487,28488,28487,28488
201912231211,28487,28488,28487,28488
201912231212,28488,28489,28488,28489
201912231213,28489,28490,28489,28490
201912231214,28490,28490,28489,28490
201912231215,28490,28490,28490,28490
201912231216,28490,28490,28490,28490
201912231217,28490,28490,28490,28490
201912231218,28490,28490,28490,28490
201912231219,28490,28490,28490,28490
201912231220,28490,28490,28490,28490
201912231221,28490,28490,28490,28490
201912231222,28490,28490,28490,28490
201912231223,28490,28490,28490,28490
201912231224,28490,28490,28490,28490
201912231225,28490,28490,28489,28489
201912231226,28489,28490,28489,28490
201912231227,28490,28490,28490,28490
201912231228,28490,28490,28489,28490
201912231229,28490,28490,28490,28490
201912231230,28490,28490,28489,28490
201912231231,28490,28490,28488,28488
201912231232,28488,28488,28488,28488
201912231233,28488,28490,28488,28490
201912231234,28490,28490,28490,28490
201912231235,28490,28490,28490,28490
201912231236,28490,28490,28488,28488
201912231237,28488,28489,28488,28489
201912231238,28489,28490,28489,28489
201912231239,28489,28490,28489,28489
201912231240,28489,28489,28489,28489
201912231241,28489,28490,28489,28489
201912231242,28490,28490,28490,28490
201912231243,28490,28492,28490,28492
201912231244,28492,28492,28492,28492
201912231245,28492,28492,28492,28492
201912231246,28492,28493,28492,28493
201912231247,28493,28493,28493,28493
201912231248,28493,28493,28492,28493
201912231249,28493,28493,28493,28493
201912231250,28493,28495,28493,28494
201912231251,28494,28495,28494,28495
201912231252,28495,28495,28494,28494
201912231253,28494,28495,28494,28495
201912231254,28495,28496,28493,28494
201912231255,28494,28495,28494,28495
201912231256,28494,28494,28493,28493
201912231257,28493,28493,28492,28492
201912231258,28492,28493,28492,28493
201912231259,28493,28493,28493,28493
201912231300,28493,28493,28492,28492
201912231301,28492,28492,28492,28492
201912231302,28493,28493,28492,28492
201912231303,28492,28493,28492,28493
201912231304,28493,28493,28492,28492
201912231305,28492,28492,28491,28492
201912231306,28492,28492,28490,28491
201912231307,28491,28492,28491,28492
201912231308,28491,28492,28491,28492
201912231309,28492,28492,28491,28491
201912231310,28491,28492,28491,28491
201912231311,28491,28491,28491,28491
201912231312,28491,28491,28490,28490
201912231313,28490,28490,28490,28490
201912231314,28490,28490,28490,28490
201912231315,28490,28490,28490,28490
201912231316,28490,28490,28490,28490
201912231317,28490,28491,28490,28491
201912231318,28491,28492,28491,28492
201912231319,28492,28492,28492,28492
201912231320,28492,28492,28492,28492
201912231321,28493,28493,28493,28493
201912231322,28493,28493,28493,28493
201912231323,28493,28493,28493,28493
201912231324,28493,28493,28493,28493
201912231325,28493,28493,28493,28493
201912231326,28492,28492,28492,28492
201912231327,28492,28493,28492,28493
201912231328,28493,28493,28492,28493
201912231329,28493,28494,28493,28494
201912231330,28494,28494,28494,28494
201912231331,28494,28494,28494,28494
201912231332,28494,28495,28494,28495
201912231333,28495,28495,28495,28495
201912231334,28495,28495,28494,28494
201912231335,28494,28494,28494,28494
201912231336,28494,28494,28494,28494
201912231337,28494,28494,28493,28494
201912231338,28494,28494,28492,28494
201912231339,28494,28495,28493,28495
201912231340,28495,28495,28492,28493
201912231341,28493,28493,28492,28493
201912231342,28493,28493,28493,28493
201912231343,28493,28493,28493,28493
201912231344,28493,28494,28493,28494
201912231345,28494,28494,28494,28494
201912231346,28494,28494,28493,28494
201912231347,28494,28494,28493,28494
201912231348,28494,28494,28493,28493
201912231349,28493,28494,28493,28494
201912231350,28494,28494,28494,28494
201912231351,28494,28494,28493,28493
201912231352,28494,28494,28493,28494
201912231353,28494,28494,28493,28493
201912231354,28493,28493,28493,28493
201912231355,28493,28494,28493,28494
201912231356,28494,28494,28494,28494
201912231357,28494,28494,28493,28493
201912231358,28493,28493,28492,28492
201912231359,28493,28493,28492,28492
201912231400,28492,28492,28492,28492
201912231401,28492,28492,28492,28492
201912231402,28492,28492,28492,28492
201912231403,28492,28493,28492,28493
201912231404,28493,28493,28492,28493
201912231405,28493,28493,28493,28493
201912231406,28492,28493,28492,28492
201912231407,28492,28492,28491,28492
201912231408,28492,28492,28491,28491
201912231409,28491,28491,28491,28491
201912231410,28490,28490,28489,28489
201912231411,28489,28490,28489,28490
201912231412,28490,28490,28490,28490
201912231413,28489,28489,28488,28488
201912231414,28488,28489,28488,28489
201912231415,28489,28489,28489,28489
201912231416,28489,28490,28489,28490
201912231417,28490,28490,28489,28489
201912231418,28489,28489,28489,28489
201912231419,28489,28489,28489,28489
201912231420,28489,28489,28489,28489
201912231421,28489,28489,28488,28488
201912231422,28488,28488,28488,28488
201912231423,28488,28488,28488,28488
201912231424,28488,28488,28487,28487
201912231425,28487,28489,28487,28489
201912231426,28489,28489,28488,28488
201912231427,28488,28488,28487,28488
201912231428,28488,28488,28487,28487
201912231429,28487,28488,28486,28486
201912231430,28486,28488,28486,28488
201912231431,28488,28488,28488,28488
201912231432,28489,28490,28489,28489
201912231433,28489,28489,28488,28488
201912231434,28488,28488,28488,28488
201912231435,28488,28488,28488,28488
201912231436,28488,28489,28488,28489
201912231437,28489,28490,28489,28490
201912231438,28490,28490,28490,28490
201912231439,28490,28491,28490,28491
201912231440,28491,28492,28490,28491
201912231441,28491,28492,28491,28492
201912231442,28492,28493,28492,28493
201912231443,28493,28493,28492,28492
201912231444,28492,28494,28492,28494
201912231445,28494,28494,28494,28494
201912231446,28494,28494,28493,28494
201912231447,28494,28494,28493,28493
201912231448,28493,28493,28493,28493
201912231449,28493,28493,28492,28492
201912231450,28492,28492,28490,28490
201912231451,28490,28491,28490,28490
201912231452,28490,28490,28489,28490
201912231453,28490,28490,28488,28490
201912231454,28491,28491,28490,28491
201912231455,28491,28491,28489,28490
201912231456,28490,28491,28490,28491
201912231457,28490,28491,28489,28489
201912231458,28489,28490,28488,28488
201912231459,28488,28489,28487,28489
201912231500,28489,28489,28488,28488
201912231501,28489,28489,28487,28487
201912231502,28487,28487,28487,28487
201912231503,28487,28488,28487,28488
201912231504,28488,28488,28488,28488
201912231505,28489,28489,28489,28489
201912231506,28488,28488,28487,28488
201912231507,28487,28487,28487,28487
201912231508,28487,28487,28486,28487
201912231509,28487,28488,28487,28488
201912231510,28487,28487,28484,28484
201912231511,28484,28484,28483,28484
201912231512,28484,28485,28483,28485
201912231513,28485,28485,28483,28485
201912231514,28485,28485,28482,28483
201912231515,28483,28484,28482,28484
201912231516,28484,28484,28483,28483
201912231517,28483,28485,28483,28485
201912231518,28485,28486,28484,28484
201912231519,28484,28484,28482,28483
201912231520,28483,28483,28481,28482
201912231521,28482,28482,28482,28482
201912231522,28482,28482,28482,28482
201912231523,28482,28484,28482,28484
201912231524,28483,28484,28483,28484
201912231525,28484,28484,28482,28483
201912231526,28483,28484,28482,28483
201912231527,28483,28484,28483,28484
201912231528,28484,28486,28484,28485
201912231529,28485,28485,28485,28485
201912231530,28485,28485,28484,28484
201912231531,28484,28484,28484,28484
201912231532,28484,28484,28483,28483
201912231533,28483,28483,28482,28482
201912231534,28482,28483,28482,28482
201912231535,28482,28482,28481,28481
201912231536,28481,28482,28481,28482
201912231537,28482,28483,28482,28482
201912231538,28482,28482,28481,28482
201912231539,28482,28482,28480,28480
201912231540,28480,28480,28479,28480
201912231541,28479,28480,28479,28480
201912231542,28480,28480,28480,28480
201912231543,28480,28482,28480,28482
201912231544,28482,28482,28481,28481
201912231545,28481,28482,28481,28482
201912231546,28482,28482,28482,28482
201912231547,28482,28482,28479,28479
201912231548,28479,28481,28479,28480
201912231549,28480,28480,28479,28480
201912231550,28479,28479,28478,28479
201912231551,28479,28479,28479,28479
201912231552,28479,28479,28477,28477
201912231553,28477,28477,28475,28476
201912231554,28476,28476,28475,28475
201912231555,28475,28476,28475,28476
201912231556,28475,28475,28475,28475
201912231557,28475,28476,28475,28476
201912231558,28476,28476,28475,28475
201912231559,28476,28476,28476,28476
201912231600,28476,28480,28476,28480
201912231601,28480,28480,28478,28478
201912231602,28478,28478,28476,28477
201912231603,28477,28478,28476,28477
201912231604,28478,28478,28476,28477
201912231605,28477,28478,28477,28478
201912231606,28478,28480,28477,28480
201912231607,28480,28480,28478,28479
201912231608,28479,28482,28479,28482
201912231609,28482,28482,28479,28482
201912231610,28482,28483,28481,28483
201912231611,28483,28483,28481,28482
201912231612,28482,28484,28482,28483
201912231613,28483,28485,28483,28484
201912231614,28483,28485,28483,28485
201912231615,28485,28485,28480,28481
201912231616,28481,28483,28480,28482
201912231617,28482,28485,28482,28484
201912231618,28484,28484,28483,28484
201912231619,28484,28485,28482,28482
201912231620,28482,28483,28481,28481
201912231621,28481,28482,28481,28481
201912231622,28481,28482,28481,28482
201912231623,28482,28482,28481,28482
201912231624,28482,28483,28481,28483
201912231625,28482,28483,28480,28482
201912231626,28482,28482,28482,28482
201912231627,28482,28483,28482,28483
201912231628,28483,28483,28482,28483
201912231629,28482,28483,28482,28482
201912231630,28482,28484,28482,28484
201912231631,28484,28484,28482,28482
201912231632,28482,28483,28481,28481
201912231633,28481,28482,28480,28481
201912231634,28481,28481,28479,28479
201912231635,28479,28480,28478,28479
201912231636,28478,28479,28478,28478
201912231637,28478,28480,28478,28480
201912231638,28480,28483,28480,28483
201912231639,28483,28484,28482,28483
201912231640,28484,28484,28482,28484
201912231641,28483,28483,28482,28482
201912231642,28482,28484,28482,28483
201912231643,28483,28484,28482,28484
201912231644,28484,28484,28481,28483
201912231645,28483,28483,28482,28483
201912231646,28483,28483,28483,28483
201912231647,28484,28485,28479,28479
201912231648,28480,28480,28479,28479
201912231649,28480,28480,28479,28479
201912231650,28479,28479,28478,28478
201912231651,28478,28479,28478,28478
201912231652,28478,28478,28477,28477
201912231653,28477,28477,28476,28476
201912231654,28476,28478,28476,28478
201912231655,28478,28479,28478,28479
201912231656,28479,28480,28478,28480
201912231657,28480,28481,28479,28481
201912231658,28481,28483,28481,28482
201912231659,28482,28484,28482,28482
201912231700,28482,28487,28479,28483
201912231701,28483,28487,28483,28485
201912231702,28485,28486,28485,28485
201912231703,28485,28490,28485,28490
201912231704,28490,28492,28490,28490
201912231705,28490,28491,28485,28486
201912231706,28486,28487,28483,28484
201912231707,28484,28487,28483,28484
201912231708,28485,28487,28484,28487
201912231709,28487,28488,28480,28481
201912231710,28481,28485,28480,28485
201912231711,28485,28488,28484,28486
201912231712,28487,28492,28487,28490
201912231713,28490,28494,28490,28493
201912231714,28493,28493,28490,28490
201912231715,28491,28493,28490,28493
201912231716,28494,28494,28489,28489
201912231717,28490,28491,28488,28488
201912231718,28488,28490,28487,28490
201912231719,28491,28491,28490,28491
201912231720,28491,28494,28491,28491
201912231721,28491,28493,28490,28490
201912231722,28490,28490,28489,28490
201912231723,28490,28491,28490,28491
201912231724,28490,28491,28490,28491
201912231725,28491,28491,28490,28490
201912231726,28491,28492,28490,28491
201912231727,28492,28492,28490,28491
201912231728,28490,28491,28489,28490
201912231729,28490,28492,28490,28491
201912231730,28491,28491,28491,28491
201912231731,28490,28492,28490,28490
201912231732,28490,28491,28489,28490
201912231733,28490,28490,28487,28489
201912231734,28489,28489,28487,28488
201912231735,28488,28491,28487,28491
201912231736,28491,28492,28490,28492
201912231737,28492,28494,28492,28493
201912231738,28493,28493,28492,28492
201912231739,28492,28494,28492,28494
201912231740,28494,28494,28491,28492
201912231741,28492,28494,28492,28493
201912231742,28493,28496,28493,28495
201912231743,28495,28495,28493,28494
201912231744,28494,28497,28494,28497
201912231745,28497,28497,28494,28495
201912231746,28495,28496,28494,28494
201912231747,28494,28495,28494,28495
201912231748,28495,28495,28494,28494
201912231749,28494,28495,28493,28493
201912231750,28493,28493,28491,28492
201912231751,28493,28494,28492,28494
201912231752,28494,28494,28493,28493
201912231753,28493,28494,28491,28491
201912231754,28491,28493,28491,28493
201912231755,28492,28494,28492,28494
201912231756,28494,28494,28492,28492
201912231757,28492,28493,28492,28493
201912231758,28493,28493,28491,28492
201912231759,28492,28493,28492,28493
201912231800,28493,28493,28491,28492
201912231801,28492,28492,28490,28490
201912231802,28491,28494,28490,28494
201912231803,28494,28496,28494,28496
201912231804,28496,28497,28495,28497
201912231805,28497,28497,28495,28496
201912231806,28497,28497,28496,28496
201912231807,28496,28496,28495,28495
201912231808,28495,28497,28494,28495
201912231809,28495,28496,28495,28495
201912231810,28495,28496,28494,28496
201912231811,28496,28496,28495,28495
201912231812,28495,28497,28494,28496
201912231813,28496,28497,28496,28497
201912231814,28497,28497,28496,28496
201912231815,28495,28498,28495,28497
201912231816,28497,28499,28495,28499
201912231817,28499,28503,28499,28501
201912231818,28501,28506,28500,28506
201912231819,28506,28510,28504,28504
201912231820,28503,28505,28502,28504
201912231821,28504,28505,28503,28504
201912231822,28505,28505,28497,28500
201912231823,28500,28505,28500,28503
201912231824,28503,28505,28502,28504
201912231825,28504,28506,28503,28504
201912231826,28504,28506,28502,28503
201912231827,28503,28505,28503,28504
201912231828,28504,28504,28501,28501
201912231829,28501,28503,28501,28503
201912231830,28504,28505,28503,28505
201912231831,28505,28508,28505,28508
201912231832,28508,28509,28507,28507
201912231833,28508,28508,28505,28507
201912231834,28507,28507,28505,28506
201912231835,28505,28506,28503,28504
201912231836,28504,28505,28504,28504
201912231837,28504,28504,28503,28504
201912231838,28504,28504,28503,28503
201912231839,28503,28505,28503,28505
201912231840,28505,28507,28505,28506
201912231841,28506,28506,28505,28506
201912231842,28506,28506,28505,28505
201912231843,28505,28505,28504,28504
201912231844,28504,28505,28503,28505
201912231845,28504,28507,28502,28502
201912231846,28502,28504,28502,28503
201912231847,28503,28503,28502,28502
201912231848,28502,28503,28502,28503
201912231849,28503,28504,28503,28503
201912231850,28504,28505,28502,28502
201912231851,28502,28503,28502,28502
201912231852,28501,28502,28500,28501
201912231853,28501,28502,28501,28501
201912231854,28501,28502,28501,28501
201912231855,28501,28502,28501,28501
201912231856,28501,28502,28501,28501
201912231857,28501,28501,28500,28500
201912231858,28500,28501,28500,28501
201912231859,28500,28500,28499,28500
201912231900,28500,28500,28496,28496
201912231901,28496,28499,28494,28499
201912231902,28499,28499,28496,28496
201912231903,28496,28499,28496,28499
201912231904,28499,28499,28498,28499
201912231905,28499,28500,28499,28500
201912231906,28500,28500,28499,28500
201912231907,28500,28500,28498,28499
201912231908,28499,28502,28498,28502
201912231909,28502,28508,28502,28502
201912231910,28502,28502,28499,28499
201912231911,28499,28500,28497,28500
201912231912,28500,28503,28500,28503
201912231913,28503,28505,28502,28505
201912231914,28505,28505,28503,28503
201912231915,28504,28506,28504,28506
201912231916,28506,28506,28505,28505
201912231917,28505,28506,28504,28506
201912231918,28506,28506,28505,28506
201912231919,28506,28507,28506,28507
201912231920,28507,28507,28506,28507
201912231921,28507,28507,28505,28505
201912231922,28505,28506,28505,28506
201912231923,28506,28510,28506,28509
201912231924,28509,28509,28507,28508
201912231925,28508,28508,28508,28508
201912231926,28507,28508,28507,28508
201912231927,28508,28509,28507,28507
201912231928,28507,28508,28507,28507
201912231929,28507,28510,28507,28510
201912231930,28510,28511,28510,28511
201912231931,28511,28512,28509,28510
201912231932,28510,28512,28510,28511
201912231933,28512,28513,28512,28513
201912231934,28512,28513,28512,28513
201912231935,28513,28514,28512,28512
201912231936,28513,28513,28508,28508
201912231937,28508,28509,28508,28508
201912231938,28508,28508,28507,28508
201912231939,28508,28509,28508,28508
201912231940,28508,28508,28506,28506
201912231941,28506,28506,28505,28505
201912231942,28505,28505,28504,28504
201912231943,28504,28507,28504,28506
201912231944,28506,28507,28505,28507
201912231945,28507,28507,28504,28505
201912231946,28505,28506,28504,28506
201912231947,28506,28506,28504,28504
201912231948,28503,28504,28502,28504
201912231949,28504,28505,28503,28504
201912231950,28505,28507,28504,28506
201912231951,28506,28507,28505,28506
201912231952,28506,28507,28505,28507
201912231953,28507,28507,28504,28504
201912231954,28504,28505,28504,28504
201912231955,28504,28504,28503,28503
201912231956,28504,28504,28503,28503
201912231957,28503,28504,28501,28501
201912231958,28502,28504,28502,28504
201912231959,28504,28504,28504,28504
201912232000,28503,28505,28503,28504
201912232001,28504,28506,28504,28506
201912232002,28507,28507,28504,28504
201912232003,28505,28505,28503,28504
201912232004,28504,28506,28504,28505
201912232005,28505,28508,28505,28508
201912232006,28508,28511,28508,28511
201912232007,28511,28511,28507,28507
201912232008,28507,28509,28507,28509
201912232009,28509,28509,28508,28508
201912232010,28509,28510,28508,28510
201912232011,28509,28519,28509,28518
201912232012,28517,28517,28514,28515
201912232013,28515,28515,28514,28515
201912232014,28515,28516,28515,28516
201912232015,28516,28516,28515,28516
201912232016,28516,28517,28516,28517
201912232017,28517,28517,28516,28516
201912232018,28516,28516,28516,28516
201912232019,28516,28516,28516,28516
201912232020,28516,28516,28514,28514
201912232021,28514,28516,28513,28514
201912232022,28514,28514,28514,28514
201912232023,28514,28514,28513,28513
201912232024,28513,28514,28513,28514
201912232025,28514,28514,28511,28512
201912232026,28512,28512,28511,28512
201912232027,28513,28514,28513,28514
201912232028,28514,28516,28514,28516
201912232029,28516,28516,28515,28515
201912232030,28515,28515,28513,28513
201912232031,28513,28513,28508,28508
201912232032,28508,28510,28508,28510
201912232033,28510,28510,28509,28509
201912232034,28510,28513,28510,28511
201912232035,28512,28512,28510,28511
201912232036,28511,28511,28510,28511
201912232037,28511,28512,28510,28512
201912232038,28512,28516,28512,28516
201912232039,28516,28517,28515,28517
201912232040,28517,28518,28517,28517
201912232041,28518,28518,28515,28516
201912232042,28516,28517,28515,28515
201912232043,28516,28516,28515,28515
201912232044,28516,28516,28514,28516
201912232045,28516,28516,28513,28515
201912232046,28514,28515,28514,28515
201912232047,28515,28517,28515,28515
201912232048,28516,28518,28516,28518
201912232049,28518,28518,28516,28518
201912232050,28518,28518,28517,28517
201912232051,28517,28517,28516,28516
201912232052,28516,28517,28515,28517
201912232053,28517,28517,28515,28516
201912232054,28516,28516,28516,28516
201912232055,28515,28516,28515,28515
201912232056,28515,28516,28515,28516
201912232057,28516,28516,28515,28516
201912232058,28516,28517,28515,28517
201912232059,28517,28519,28517,28519
201912232100,28519,28519,28515,28516
201912232101,28516,28518,28515,28518
201912232102,28518,28520,28518,28518
201912232103,28518,28520,28518,28520
201912232104,28520,28521,28520,28520
201912232105,28520,28521,28519,28520
201912232106,28519,28521,28519,28521
201912232107,28521,28529,28521,28525
201912232108,28525,28530,28524,28530
201912232109,28531,28547,28531,28539
201912232110,28539,28540,28535,28537
201912232111,28537,28538,28535,28535
201912232112,28536,28536,28533,28533
201912232113,28534,28537,28533,28537
201912232114,28537,28540,28536,28538
201912232115,28538,28538,28534,28535
201912232116,28535,28538,28535,28537
201912232117,28536,28536,28535,28536
201912232118,28536,28536,28533,28535
201912232119,28535,28540,28535,28540
201912232120,28540,28541,28535,28535
201912232121,28535,28538,28533,28536
201912232122,28536,28536,28534,28534
201912232123,28534,28536,28534,28535
201912232124,28535,28535,28533,28533
201912232125,28533,28534,28533,28534
201912232126,28535,28535,28533,28533
201912232127,28534,28536,28534,28536
201912232128,28536,28540,28535,28540
201912232129,28541,28541,28538,28540
201912232130,28540,28540,28537,28538
201912232131,28538,28538,28536,28538
201912232132,28538,28541,28537,28537
201912232133,28537,28538,28536,28536
201912232134,28536,28540,28536,28539
201912232135,28538,28539,28538,28539
201912232136,28539,28539,28538,28539
201912232137,28539,28540,28539,28539
201912232138,28540,28541,28540,28541
201912232139,28540,28541,28540,28540
201912232140,28540,28541,28540,28540
201912232141,28540,28541,28539,28541
201912232142,28540,28541,28539,28540
201912232143,28540,28541,28540,28540
201912232144,28539,28540,28539,28539
201912232145,28539,28539,28538,28539
201912232146,28539,28539,28538,28538
201912232147,28539,28540,28539,28539
201912232148,28540,28540,28539,28539
201912232149,28539,28539,28538,28539
201912232150,28539,28540,28539,28540
201912232151,28540,28541,28540,28541
201912232152,28541,28543,28539,28543
201912232153,28543,28543,28541,28542
201912232154,28542,28544,28542,28544
201912232155,28545,28545,28544,28544
201912232156,28545,28545,28544,28545
201912232157,28544,28544,28543,28543
201912232158,28543,28543,28542,28542
201912232159,28542,28543,28542,28543
201912232200,28542,28544,28542,28543
201912232201,28543,28543,28540,28540
201912232202,28540,28543,28540,28542
201912232203,28542,28542,28540,28540
201912232204,28540,28541,28540,28541
201912232205,28541,28541,28540,28541
201912232206,28540,28540,28540,28540
201912232207,28541,28541,28539,28539
201912232208,28539,28539,28538,28538
201912232209,28538,28538,28537,28537
201912232210,28537,28538,28537,28538
201912232211,28538,28538,28536,28537
201912232212,28538,28539,28538,28539
201912232213,28539,28540,28538,28540
201912232214,28541,28541,28540,28540
201912232215,28540,28540,28538,28539
201912232216,28538,28540,28538,28539
201912232217,28539,28539,28536,28536
201912232218,28536,28536,28535,28535
201912232219,28535,28535,28535,28535
201912232220,28535,28535,28534,28535
201912232221,28535,28535,28534,28535
201912232222,28535,28536,28535,28536
201912232223,28536,28537,28536,28536
201912232224,28536,28539,28536,28539
201912232225,28540,28540,28538,28540
201912232226,28540,28540,28539,28540
201912232227,28540,28540,28539,28540
201912232228,28540,28540,28538,28539
201912232229,28539,28539,28537,28538
201912232230,28538,28539,28536,28537
201912232231,28537,28537,28536,28536
201912232232,28536,28537,28536,28537
201912232233,28536,28538,28536,28538
201912232234,28538,28538,28536,28536
201912232235,28536,28539,28536,28539
201912232236,28539,28543,28539,28542
201912232237,28542,28542,28540,28541
201912232238,28541,28543,28541,28541
201912232239,28541,28541,28540,28540
201912232240,28540,28542,28540,28542
201912232241,28542,28545,28542,28545
201912232242,28545,28545,28543,28543
201912232243,28543,28546,28543,28544
201912232244,28544,28544,28543,28543
201912232245,28543,28544,28543,28543
201912232246,28543,28543,28542,28542
201912232247,28543,28543,28536,28536
201912232248,28536,28539,28536,28539
201912232249,28539,28539,28537,28537
201912232250,28538,28538,28534,28534
201912232251,28534,28534,28534,28534
201912232252,28534,28534,28532,28533
201912232253,28533,28533,28531,28532
201912232254,28532,28532,28530,28530
201912232255,28530,28530,28527,28528
201912232256,28527,28527,28523,28525
201912232257,28525,28527,28525,28527
201912232258,28527,28528,28527,28528
201912232259,28528,28529,28524,28527
201912232300,28527,28527,28525,28526
201912232301,28526,28526,28525,28525
201912232302,28525,28525,28523,28525
201912232303,28525,28526,28525,28525
201912232304,28525,28525,28523,28524
201912232305,28524,28525,28520,28521
201912232306,28521,28523,28516,28518
201912232307,28518,28523,28517,28521
201912232308,28522,28524,28521,28523
201912232309,28523,28523,28521,28522
201912232310,28522,28523,28522,28523
201912232311,28523,28523,28521,28522
201912232312,28522,28522,28513,28513
201912232313,28512,28518,28512,28516
201912232314,28516,28518,28516,28517
201912232315,28517,28537,28516,28537
201912232316,28536,28543,28535,28542
201912232317,28542,28543,28533,28536
201912232318,28536,28541,28536,28541
201912232319,28541,28557,28540,28557
201912232320,28557,28574,28557,28566
201912232321,28565,28566,28560,28566
201912232322,28567,28581,28566,28575
201912232323,28575,28577,28570,28571
201912232324,28571,28571,28567,28569
201912232325,28569,28570,28569,28570
201912232326,28570,28570,28565,28569
201912232327,28570,28574,28568,28568
201912232328,28568,28568,28564,28566
201912232329,28566,28566,28559,28559
201912232330,28555,28559,28547,28549
201912232331,28549,28552,28533,28552
201912232332,28553,28565,28547,28565
201912232333,28565,28565,28547,28547
201912232334,28547,28558,28542,28549
201912232335,28549,28552,28542,28551
201912232336,28551,28554,28547,28551
201912232337,28551,28554,28546,28549
201912232338,28549,28551,28542,28542
201912232339,28542,28546,28541,28543
201912232340,28543,28543,28534,28543
201912232341,28543,28549,28542,28546
201912232342,28546,28547,28538,28539
201912232343,28540,28541,28534,28537
201912232344,28537,28541,28534,28535
201912232345,28536,28542,28534,28542
201912232346,28542,28550,28541,28549
201912232347,28549,28552,28546,28551
201912232348,28551,28557,28551,28555
201912232349,28555,28556,28552,28553
201912232350,28553,28558,28550,28558
201912232351,28558,28561,28554,28554
201912232352,28554,28557,28552,28557
201912232353,28558,28560,28556,28560
201912232354,28560,28562,28557,28560
201912232355,28560,28560,28554,28559
201912232356,28559,28560,28554,28558
201912232357,28558,28560,28554,28556
201912232358,28556,28557,28553,28557
201912232359,28557,28557,28553,28553
201912240000,28554,28559,28554,28559
201912240001,28559,28562,28552,28552
201912240002,28552,28555,28552,28555
201912240003,28554,28556,28551,28554
201912240004,28554,28556,28547,28549
201912240005,28549,28551,28543,28544
201912240006,28544,28548,28544,28547
201912240007,28546,28552,28546,28550
201912240008,28550,28554,28549,28552
201912240009,28551,28553,28549,28553
201912240010,28553,28563,28553,28559
201912240011,28559,28565,28559,28564
201912240012,28565,28569,28564,28566
201912240013,28566,28567,28560,28562
201912240014,28562,28562,28560,28561
201912240015,28561,28564,28560,28563
201912240016,28563,28564,28554,28561
201912240017,28561,28563,28558,28560
201912240018,28560,28566,28559,28565
201912240019,28566,28566,28563,28565
201912240020,28564,28567,28561,28563
201912240021,28562,28564,28561,28561
201912240022,28561,28564,28560,28560
201912240023,28561,28563,28559,28560
201912240024,28560,28564,28560,28561
201912240025,28561,28563,28559,28559
201912240026,28559,28561,28555,28560
201912240027,28559,28562,28558,28561
201912240028,28561,28564,28560,28562
201912240029,28562,28562,28558,28558
201912240030,28558,28560,28557,28557
201912240031,28557,28560,28556,28560
201912240032,28560,28560,28556,28556
201912240033,28556,28556,28553,28556
201912240034,28555,28557,28554,28554
201912240035,28554,28560,28553,28556
201912240036,28557,28559,28557,28557
201912240037,28558,28558,28557,28557
201912240038,28557,28557,28553,28556
201912240039,28557,28559,28555,28558
201912240040,28558,28562,28557,28562
201912240041,28562,28565,28562,28565
201912240042,28565,28567,28565,28567
201912240043,28568,28572,28568,28571
201912240044,28571,28574,28570,28574
201912240045,28574,28575,28566,28566
201912240046,28566,28570,28566,28567
201912240047,28566,28567,28563,28563
201912240048,28563,28567,28562,28564
201912240049,28564,28568,28564,28566
201912240050,28566,28570,28566,28570
201912240051,28570,28573,28570,28572
201912240052,28572,28573,28566,28566
201912240053,28566,28570,28566,28569
201912240054,28569,28569,28566,28566
201912240055,28566,28568,28565,28566
201912240056,28566,28567,28563,28565
201912240057,28566,28571,28566,28570
201912240058,28570,28575,28570,28575
201912240059,28574,28575,28572,28574
201912240100,28574,28576,28573,28576
201912240101,28576,28579,28575,28576
201912240102,28576,28577,28572,28577
201912240103,28577,28578,28572,28573
201912240104,28573,28573,28571,28572
201912240105,28572,28572,28569,28572
201912240106,28572,28572,28570,28572
201912240107,28572,28573,28570,28571
201912240108,28571,28572,28571,28571
201912240109,28571,28571,28566,28566
201912240110,28566,28566,28563,28565
201912240111,28565,28566,28564,28566
201912240112,28565,28566,28563,28564
201912240113,28564,28564,28562,28563
201912240114,28563,28565,28562,28563
201912240115,28563,28566,28563,28566
201912240116,28566,28568,28566,28567
201912240117,28567,28568,28565,28567
201912240118,28566,28569,28566,28567
201912240119,28567,28570,28567,28570
201912240120,28570,28570,28567,28568
201912240121,28568,28574,28568,28573
201912240122,28572,28573,28571,28572
201912240123,28572,28573,28569,28569
201912240124,28569,28569,28567,28568
201912240125,28568,28570,28567,28569
201912240126,28569,28571,28569,28571
201912240127,28571,28573,28571,28573
201912240128,28573,28576,28573,28575
201912240129,28575,28576,28574,28576
201912240130,28576,28578,28575,28578
201912240131,28578,28579,28578,28579
201912240132,28579,28579,28572,28573
201912240133,28573,28573,28569,28572
201912240134,28572,28572,28569,28570
201912240135,28570,28571,28569,28571
201912240136,28571,28571,28569,28569
201912240137,28570,28572,28570,28570
201912240138,28570,28571,28569,28570
201912240139,28570,28570,28569,28569
201912240140,28569,28570,28567,28568
201912240141,28568,28569,28564,28564
201912240142,28564,28566,28564,28565
201912240143,28566,28566,28565,28566
201912240144,28566,28568,28566,28568
201912240145,28568,28569,28568,28569
201912240146,28569,28571,28568,28570
201912240147,28570,28570,28567,28569
201912240148,28569,28571,28569,28570
201912240149,28570,28572,28570,28570
201912240150,28570,28572,28568,28572
201912240151,28572,28573,28572,28572
201912240152,28572,28572,28570,28570
201912240153,28570,28571,28569,28571
201912240154,28571,28575,28570,28573
201912240155,28573,28573,28567,28567
201912240156,28567,28570,28567,28568
201912240157,28568,28569,28566,28569
201912240158,28569,28570,28568,28569
201912240159,28569,28571,28569,28569
201912240200,28568,28569,28567,28568
201912240201,28568,28571,28568,28568
201912240202,28568,28569,28566,28567
201912240203,28567,28568,28566,28567
201912240204,28567,28568,28567,28567
201912240205,28568,28568,28566,28568
201912240206,28568,28569,28565,28567
201912240207,28568,28568,28566,28568
201912240208,28568,28569,28567,28567
201912240209,28568,28569,28567,28568
201912240210,28568,28568,28567,28567
201912240211,28567,28568,28567,28568
201912240212,28568,28569,28568,28568
201912240213,28568,28569,28565,28566
201912240214,28566,28567,28565,28566
201912240215,28566,28567,28565,28565
201912240216,28565,28566,28565,28566
201912240217,28566,28566,28563,28563
201912240218,28563,28563,28562,28563
201912240219,28563,28566,28563,28566
201912240220,28566,28566,28561,28561
201912240221,28561,28562,28560,28561
201912240222,28561,28562,28560,28561
201912240223,28561,28561,28559,28559
201912240224,28559,28561,28558,28559
201912240225,28559,28559,28558,28558
201912240226,28558,28560,28555,28559
201912240227,28559,28562,28559,28561
201912240228,28561,28562,28561,28562
201912240229,28562,28562,28556,28559
201912240230,28559,28561,28558,28560
201912240231,28559,28562,28559,28561
201912240232,28562,28562,28561,28562
201912240233,28562,28562,28561,28562
201912240234,28562,28563,28562,28562
201912240235,28562,28563,28562,28563
201912240236,28563,28564,28562,28562
201912240237,28562,28564,28562,28562
201912240238,28562,28562,28560,28560
201912240239,28560,28562,28560,28562
201912240240,28562,28563,28561,28563
201912240241,28563,28569,28563,28566
201912240242,28566,28566,28562,28562
201912240243,28562,28562,28560,28560
201912240244,28561,28562,28561,28562
201912240245,28562,28563,28561,28563
201912240246,28563,28563,28562,28563
201912240247,28563,28563,28562,28563
201912240248,28563,28563,28562,28562
201912240249,28562,28564,28560,28562
201912240250,28562,28562,28559,28560
201912240251,28560,28561,28559,28560
201912240252,28560,28560,28556,28557
201912240253,28557,28558,28557,28558
201912240254,28558,28558,28556,28558
201912240255,28558,28559,28558,28559
201912240256,28559,28560,28558,28559
201912240257,28559,28561,28559,28560
201912240258,28560,28560,28559,28559
201912240259,28560,28560,28558,28559
201912240300,28559,28561,28558,28561
201912240301,28561,28564,28560,28564
201912240302,28563,28565,28562,28563
201912240303,28563,28566,28563,28566
201912240304,28566,28566,28563,28564
201912240305,28563,28564,28563,28564
201912240306,28564,28564,28564,28564
201912240307,28564,28566,28564,28566
201912240308,28566,28566,28563,28563
201912240309,28563,28563,28562,28563
201912240310,28563,28563,28562,28563
201912240311,28563,28565,28563,28565
201912240312,28565,28566,28564,28566
201912240313,28566,28566,28566,28566
201912240314,28566,28567,28566,28566
201912240315,28566,28566,28564,28566
201912240316,28566,28566,28565,28565
201912240317,28566,28566,28565,28566
201912240318,28566,28567,28566,28567
201912240319,28567,28567,28565,28566
201912240320,28566,28567,28565,28567
201912240321,28567,28570,28567,28570
201912240322,28570,28570,28568,28569
201912240323,28569,28569,28567,28567
201912240324,28567,28568,28567,28568
201912240325,28568,28568,28567,28568
201912240326,28568,28568,28567,28567
201912240327,28567,28568,28565,28568
201912240328,28568,28568,28567,28567
201912240329,28567,28567,28565,28566
201912240330,28566,28566,28565,28565
201912240331,28565,28565,28563,28563
201912240332,28563,28563,28562,28563
201912240333,28563,28563,28560,28560
201912240334,28560,28561,28560,28560
201912240335,28560,28560,28559,28559
201912240336,28558,28559,28557,28558
201912240337,28558,28558,28556,28556
201912240338,28556,28556,28555,28555
201912240339,28555,28555,28553,28554
201912240340,28554,28556,28554,28554
201912240341,28554,28554,28552,28552
201912240342,28552,28552,28548,28550
201912240343,28550,28550,28547,28547
201912240344,28546,28548,28546,28546
201912240345,28547,28547,28546,28546
201912240346,28547,28549,28547,28547
201912240347,28547,28548,28546,28548
201912240348,28548,28548,28547,28547
201912240349,28547,28548,28547,28548
201912240350,28548,28551,28547,28550
201912240351,28550,28550,28548,28549
201912240352,28549,28550,28549,28550
201912240353,28550,28551,28550,28550
201912240354,28550,28551,28550,28551
201912240355,28551,28555,28551,28555
201912240356,28555,28556,28555,28555
201912240357,28555,28556,28554,28556
201912240358,28555,28555,28553,28553
201912240359,28553,28554,28552,28554
201912240400,28554,28561,28553,28557
201912240401,28557,28559,28555,28558
201912240402,28558,28561,28557,28559
201912240403,28560,28562,28559,28559
201912240404,28559,28562,28559,28561
201912240405,28560,28560,28558,28559
201912240406,28560,28560,28557,28557
201912240407,28557,28560,28557,28560
201912240408,28559,28562,28559,28562
201912240409,28562,28564,28562,28563
201912240410,28563,28563,28561,28561
201912240411,28561,28562,28560,28562
201912240412,28562,28563,28561,28562
201912240413,28562,28565,28561,28565
201912240414,28565,28565,28564,28564
201912240415,28564,28564,28561,28561
201912240416,28561,28562,28560,28562
201912240417,28562,28562,28558,28558
201912240418,28559,28559,28559,28559
201912240419,28559,28559,28558,28558
201912240420,28558,28559,28557,28557
201912240421,28557,28558,28557,28557
201912240422,28557,28559,28557,28557
201912240423,28557,28557,28554,28555
201912240424,28555,28557,28555,28556
201912240425,28556,28556,28555,28556
201912240426,28555,28555,28554,28554
201912240427,28555,28558,28555,28558
201912240428,28558,28559,28557,28557
201912240429,28557,28559,28557,28559
201912240430,28558,28562,28558,28559
201912240431,28559,28562,28559,28562
201912240432,28562,28563,28560,28563
201912240433,28563,28564,28558,28559
201912240434,28559,28561,28559,28559
201912240435,28560,28560,28553,28553
201912240436,28553,28558,28553,28557
201912240437,28557,28558,28556,28558
201912240438,28558,28559,28556,28556
201912240439,28556,28558,28556,28558
201912240440,28558,28558,28555,28556
201912240441,28557,28558,28556,28556
201912240442,28556,28556,28555,28555
201912240443,28555,28555,28554,28555
201912240444,28555,28555,28553,28555
201912240445,28554,28556,28554,28556
201912240446,28556,28556,28556,28556
201912240447,28556,28558,28556,28556
201912240448,28556,28557,28556,28556
201912240449,28556,28558,28556,28557
201912240450,28557,28557,28555,28555
201912240451,28555,28558,28554,28558
201912240452,28558,28558,28557,28558
201912240453,28558,28561,28558,28559
201912240454,28559,28561,28558,28559
201912240455,28558,28562,28558,28562
201912240456,28562,28564,28562,28564
201912240457,28564,28564,28562,28563
201912240458,28563,28564,28563,28564
201912240459,28564,28564,28564,28564
201912240500,28564,28565,28561,28561
201912240501,28561,28562,28561,28561
201912240502,28561,28562,28560,28560
201912240503,28560,28561,28559,28559
201912240504,28559,28562,28559,28562
201912240505,28562,28564,28561,28564
201912240506,28564,28567,28564,28567
201912240507,28567,28567,28565,28565
201912240508,28565,28566,28563,28563
201912240509,28562,28565,28562,28562
201912240510,28562,28565,28562,28564
201912240511,28565,28568,28565,28568
201912240512,28568,28568,28567,28568
201912240513,28568,28568,28567,28567
201912240514,28567,28567,28564,28565
201912240515,28565,28566,28565,28566
201912240516,28566,28566,28565,28566
201912240517,28565,28566,28561,28562
201912240518,28562,28563,28560,28563
201912240519,28563,28563,28561,28561
201912240520,28561,28561,28561,28561
201912240521,28561,28561,28557,28559
201912240522,28559,28561,28557,28560
201912240523,28561,28562,28559,28559
201912240524,28559,28561,28559,28561
201912240525,28561,28564,28560,28564
201912240526,28564,28565,28562,28562
201912240527,28561,28565,28561,28565
201912240528,28564,28566,28564,28565
201912240529,28565,28565,28563,28564
201912240530,28564,28566,28563,28565
201912240531,28566,28566,28564,28565
201912240532,28564,28565,28560,28561
201912240533,28561,28565,28561,28564
201912240534,28564,28566,28564,28565
201912240535,28565,28565,28562,28562
201912240536,28562,28562,28559,28559
201912240537,28559,28560,28558,28558
201912240538,28558,28558,28557,28557
201912240539,28557,28557,28553,28556
201912240540,28556,28556,28553,28555
201912240541,28555,28556,28554,28556
201912240542,28556,28556,28552,28552
201912240543,28552,28555,28551,28552
201912240544,28552,28553,28550,28552
201912240545,28552,28553,28552,28553
201912240546,28553,28557,28552,28554
201912240547,28555,28555,28549,28550
201912240548,28550,28554,28549,28552
201912240549,28552,28552,28548,28549
201912240550,28551,28558,28551,28551
201912240551,28551,28551,28550,28550
201912240552,28550,28552,28550,28551
201912240553,28552,28553,28548,28549
201912240554,28549,28552,28546,28551
201912240555,28551,28554,28546,28546
201912240556,28546,28549,28546,28548
201912240557,28548,28548,28543,28546
201912240558,28546,28546,28536,28536
201912240559,28536,28548,28534,28547
201912240600,28548,28551,28545,28546
201912240601,28546,28550,28546,28550
201912240602,28550,28550,28548,28548
201912240603,28548,28550,28548,28548
201912240604,28547,28547,28543,28545
201912240605,28546,28549,28545,28549
201912240606,28549,28550,28548,28550
201912240607,28551,28553,28550,28551
201912240608,28551,28553,28551,28552
201912240609,28551,28551,28548,28550
201912240610,28550,28550,28548,28548
201912240611,28548,28548,28545,28545
201912240612,28545,28547,28545,28547
201912240613,28547,28550,28547,28549
201912240614,28549,28552,28548,28548
