日時,始値(BID),高値(BID),安値(BID),終値(BID)
201901240800,1282.8,1282.8,1282.6,1282.7
201901240801,1282.7,1282.7,1282.5,1282.5
201901240802,1282.5,1282.6,1282.5,1282.6
201901240803,1282.6,1282.6,1282.6,1282.6
201901240804,1282.6,1282.7,1282.6,1282.7
201901240805,1282.7,1282.7,1282.7,1282.7
201901240806,1282.7,1282.7,1282.6,1282.6
201901240807,1282.6,1282.7,1282.6,1282.7
201901240808,1282.7,1282.8,1282.7,1282.7
201901240809,1282.7,1282.7,1282.7,1282.7
201901240810,1282.7,1282.7,1282.7,1282.7
201901240811,1282.7,1282.8,1282.7,1282.8
201901240812,1282.8,1282.8,1282.8,1282.8
201901240813,1282.9,1282.9,1282.8,1282.9
201901240814,1282.9,1282.9,1282.9,1282.9
201901240815,1282.8,1282.9,1282.8,1282.9
201901240816,1282.9,1283,1282.8,1282.8
201901240817,1282.8,1282.8,1282.7,1282.7
201901240818,1282.7,1282.7,1282.5,1282.6
201901240819,1282.6,1282.7,1282.5,1282.7
201901240820,1282.7,1282.7,1282.6,1282.6
201901240821,1282.6,1282.6,1282.6,1282.6
201901240822,1282.6,1282.7,1282.6,1282.7
201901240823,1282.7,1282.7,1282.6,1282.7
201901240824,1282.7,1282.7,1282.6,1282.7
201901240825,1282.7,1282.8,1282.7,1282.8
201901240826,1282.8,1282.8,1282.8,1282.8
201901240827,1282.8,1282.8,1282.7,1282.7
201901240828,1282.7,1282.7,1282.7,1282.7
201901240829,1282.7,1282.7,1282.6,1282.6
201901240830,1282.6,1282.6,1282.6,1282.6
201901240831,1282.6,1282.7,1282.6,1282.7
201901240832,1282.7,1282.7,1282.7,1282.7
201901240833,1282.7,1282.7,1282.7,1282.7
201901240834,1282.7,1282.7,1282.7,1282.7
201901240835,1282.7,1282.7,1282.6,1282.7
201901240836,1282.7,1282.7,1282.7,1282.7
201901240837,1282.7,1282.7,1282.7,1282.7
201901240838,1282.7,1282.7,1282.6,1282.7
201901240839,1282.7,1282.7,1282.7,1282.7
201901240840,1282.7,1282.7,1282.7,1282.7
201901240841,1282.7,1282.8,1282.7,1282.8
201901240842,1282.8,1283,1282.8,1283
201901240843,1283,1283,1282.9,1282.9
201901240844,1282.9,1283,1282.9,1283
201901240845,1283,1283.2,1283,1283.1
201901240846,1283.1,1283.1,1283,1283.1
201901240847,1283.1,1283.1,1283.1,1283.1
201901240848,1283.1,1283.2,1283.1,1283.2
201901240849,1283.2,1283.4,1283.1,1283.1
201901240850,1283.1,1283.2,1283.1,1283.1
201901240851,1283.1,1283.4,1282.8,1283.3
201901240852,1283.3,1283.4,1283.2,1283.4
201901240853,1283.4,1283.4,1283.3,1283.4
201901240854,1283.4,1283.4,1283.3,1283.3
201901240855,1283.4,1283.4,1283.2,1283.3
201901240856,1283.3,1283.6,1283.3,1283.6
201901240857,1283.6,1283.8,1283.6,1283.8
201901240858,1283.8,1283.8,1283.7,1283.7
201901240859,1283.7,1283.7,1283.7,1283.7
201901240900,1283.7,1284,1283.6,1283.9
201901240901,1283.9,1284,1283.9,1283.9
201901240902,1283.9,1283.9,1283.7,1283.7
201901240903,1283.7,1283.8,1283.7,1283.7
201901240904,1283.7,1283.7,1283.6,1283.6
201901240905,1283.6,1283.8,1283.6,1283.6
201901240906,1283.6,1283.6,1283.6,1283.6
201901240907,1283.6,1283.7,1283.6,1283.6
201901240908,1283.6,1283.7,1283.6,1283.6
201901240909,1283.5,1283.6,1283.4,1283.4
201901240910,1283.4,1283.6,1283.4,1283.4
201901240911,1283.4,1283.4,1283.4,1283.4
201901240912,1283.4,1283.4,1283.3,1283.3
201901240913,1283.3,1283.3,1283.1,1283.1
201901240914,1283.1,1283.1,1283.1,1283.1
201901240915,1283.1,1283.1,1283,1283
201901240916,1283,1283,1283,1283
201901240917,1283,1283,1282.9,1282.9
201901240918,1282.9,1283,1282.9,1283
201901240919,1283,1283,1283,1283
201901240920,1283,1283,1282.9,1283
201901240921,1283,1283,1282.9,1282.9
201901240922,1282.9,1282.9,1282.9,1282.9
201901240923,1282.9,1283,1282.9,1282.9
201901240924,1282.9,1283,1282.9,1283
201901240925,1283,1283.1,1283,1283.1
201901240926,1283.1,1283.1,1283.1,1283.1
201901240927,1283.1,1283.1,1283.1,1283.1
201901240928,1283.1,1283.1,1283.1,1283.1
201901240929,1283.1,1283.1,1282.9,1282.9
201901240930,1282.9,1283.2,1282.9,1283
201901240931,1283,1283.1,1283,1283.1
201901240932,1283.1,1283.3,1283.1,1283.3
201901240933,1283.2,1283.3,1283.2,1283.2
201901240934,1283.2,1283.2,1283.2,1283.2
201901240935,1283.2,1283.3,1283.2,1283.2
201901240936,1283.2,1283.2,1283.1,1283.1
201901240937,1283.1,1283.2,1283.1,1283.2
201901240938,1283.2,1283.2,1283.2,1283.2
201901240939,1283.2,1283.3,1283.2,1283.3
201901240940,1283.3,1283.3,1283.1,1283.1
201901240941,1283.1,1283.3,1283.1,1283.2
201901240942,1283.2,1283.3,1283,1283.1
201901240943,1283.1,1283.2,1283,1283.2
201901240944,1283.2,1283.2,1283.1,1283.1
201901240945,1283.1,1283.4,1283.1,1283.3
201901240946,1283.3,1283.3,1283.3,1283.3
201901240947,1283.3,1283.5,1283.3,1283.5
201901240948,1283.4,1283.4,1283.3,1283.4
201901240949,1283.4,1283.6,1283.4,1283.5
201901240950,1283.6,1283.8,1283.6,1283.8
201901240951,1283.8,1283.8,1283.8,1283.8
201901240952,1283.8,1284,1283.8,1284
201901240953,1284,1284,1283.7,1283.7
201901240954,1283.7,1283.9,1283.7,1283.9
201901240955,1283.9,1283.9,1283.8,1283.9
201901240956,1283.9,1284,1283.9,1284
201901240957,1284,1284.4,1283.9,1284.3
201901240958,1284.3,1284.3,1284.3,1284.3
201901240959,1284.3,1284.3,1284.2,1284.3
201901241000,1284.3,1284.4,1284.1,1284.1
201901241001,1284.1,1284.2,1284.1,1284.2
201901241002,1284.2,1284.2,1284.1,1284.2
201901241003,1284.2,1284.2,1284.1,1284.1
201901241004,1284.1,1284.5,1284.1,1284.4
201901241005,1284.4,1284.4,1283.5,1283.5
201901241006,1283.5,1283.6,1283.3,1283.5
201901241007,1283.5,1283.7,1283.5,1283.7
201901241008,1283.8,1283.9,1283.6,1283.8
201901241009,1283.8,1284.4,1283.7,1284.3
201901241010,1284.3,1284.3,1284.1,1284.1
201901241011,1284.1,1284.2,1284.1,1284.1
201901241012,1284.1,1284.1,1284.1,1284.1
201901241013,1284.1,1284.1,1283.9,1284.1
201901241014,1284.1,1284.2,1284.1,1284.2
201901241015,1284.2,1284.3,1284.1,1284.3
201901241016,1284.3,1284.4,1284.2,1284.2
201901241017,1284.2,1284.3,1284.2,1284.3
201901241018,1284.3,1284.4,1284.3,1284.4
201901241019,1284.4,1284.6,1284.4,1284.5
201901241020,1284.5,1284.6,1284.4,1284.4
201901241021,1284.4,1284.5,1284.3,1284.3
201901241022,1284.3,1284.3,1284.2,1284.2
201901241023,1284.2,1284.3,1284.2,1284.2
201901241024,1284.2,1284.2,1284.2,1284.2
201901241025,1284.2,1284.5,1284.2,1284.4
201901241026,1284.4,1284.5,1284.3,1284.4
201901241027,1284.4,1284.4,1284.3,1284.3
201901241028,1284.3,1284.3,1284,1284.1
201901241029,1284.1,1284.1,1283.9,1284
201901241030,1284,1284.3,1284,1284.2
201901241031,1284.2,1284.6,1284.2,1284.4
201901241032,1284.4,1284.5,1284.1,1284.1
201901241033,1284.1,1284.3,1284.1,1284.2
201901241034,1284.2,1284.2,1284.1,1284.2
201901241035,1284.2,1284.3,1284.2,1284.3
201901241036,1284.3,1284.3,1284.2,1284.3
201901241037,1284.3,1284.5,1284.3,1284.4
201901241038,1284.4,1284.5,1284.3,1284.5
201901241039,1284.5,1284.5,1284.4,1284.4
201901241040,1284.4,1284.6,1284.3,1284.6
201901241041,1284.6,1284.7,1284.5,1284.6
201901241042,1284.6,1284.6,1284.5,1284.5
201901241043,1284.5,1284.5,1284.3,1284.4
201901241044,1284.4,1284.4,1284.2,1284.3
201901241045,1284.3,1284.3,1284.1,1284.3
201901241046,1284.3,1284.3,1284.2,1284.2
201901241047,1284.2,1284.3,1284.2,1284.2
201901241048,1284.2,1284.2,1284.1,1284.2
201901241049,1284.2,1284.2,1284,1284
201901241050,1284,1284.3,1284,1284.2
201901241051,1284.2,1284.2,1284.1,1284.1
201901241052,1284.1,1284.2,1284,1284.2
201901241053,1284.2,1284.3,1284.2,1284.2
201901241054,1284.2,1284.3,1284.1,1284.3
201901241055,1284.3,1284.5,1284.3,1284.5
201901241056,1284.5,1284.6,1284.5,1284.6
201901241057,1284.6,1284.7,1284.5,1284.5
201901241058,1284.5,1284.5,1284.4,1284.4
201901241059,1284.4,1284.4,1284.3,1284.4
201901241100,1284.3,1284.4,1284.3,1284.3
201901241101,1284.3,1284.3,1284.2,1284.2
201901241102,1284.2,1284.3,1284.1,1284.2
201901241103,1284.2,1284.3,1284,1284
201901241104,1284,1284.1,1283.9,1284.1
201901241105,1284.1,1284.1,1284,1284.1
201901241106,1284.1,1284.1,1284,1284
201901241107,1284,1284.1,1284,1284
201901241108,1284,1284.1,1283.9,1283.9
201901241109,1283.9,1284,1283.9,1283.9
201901241110,1283.9,1283.9,1283.8,1283.9
201901241111,1283.9,1283.9,1283.8,1283.9
201901241112,1283.8,1283.9,1283.8,1283.8
201901241113,1283.8,1283.8,1283.7,1283.7
201901241114,1283.7,1283.7,1283.6,1283.6
201901241115,1283.6,1283.7,1283.6,1283.6
201901241116,1283.6,1283.7,1283.6,1283.7
201901241117,1283.7,1283.7,1283.5,1283.5
201901241118,1283.5,1283.6,1283.5,1283.5
201901241119,1283.5,1283.6,1283.5,1283.5
201901241120,1283.5,1283.5,1283.4,1283.4
201901241121,1283.4,1283.5,1283.4,1283.4
201901241122,1283.5,1283.5,1283.2,1283.3
201901241123,1283.3,1283.3,1283.2,1283.2
201901241124,1283.2,1283.2,1283,1283
201901241125,1283,1283,1282.9,1282.9
201901241126,1282.9,1283,1282.8,1283
201901241127,1283,1283.1,1283,1283.1
201901241128,1283.1,1283.1,1282.9,1283
201901241129,1283,1283,1282.9,1282.9
201901241130,1282.9,1283.1,1282.9,1283.1
201901241131,1283.1,1283.1,1283,1283.1
201901241132,1283.1,1283.2,1283.1,1283.2
201901241133,1283.2,1283.3,1282.9,1282.9
201901241134,1282.9,1283.1,1282.9,1283.1
201901241135,1283.1,1283.1,1282.9,1282.9
201901241136,1282.9,1283,1282.8,1282.8
201901241137,1282.8,1282.9,1282.8,1282.8
201901241138,1282.8,1283,1282.8,1283
201901241139,1283,1283,1282.9,1282.9
201901241140,1282.9,1282.9,1282.9,1282.9
201901241141,1282.9,1283.1,1282.9,1283.1
201901241142,1283.1,1283.2,1283,1283
201901241143,1283,1283.1,1283,1283.1
201901241144,1283.1,1283.1,1283,1283
201901241145,1283,1283.3,1283,1283.3
201901241146,1283.3,1283.3,1283.3,1283.3
201901241147,1283.3,1283.4,1283.2,1283.2
201901241148,1283.2,1283.3,1283.2,1283.2
201901241149,1283.2,1283.2,1283,1283
201901241150,1283,1283.1,1282.9,1283.1
201901241151,1283.1,1283.1,1283,1283.1
201901241152,1283.1,1283.1,1283.1,1283.1
201901241153,1283.1,1283.1,1283.1,1283.1
201901241154,1283.1,1283.2,1283.1,1283.2
201901241155,1283.2,1283.2,1283.1,1283.2
201901241156,1283.1,1283.4,1283.1,1283.4
201901241157,1283.4,1283.4,1283.3,1283.4
201901241158,1283.4,1283.4,1283.4,1283.4
201901241159,1283.4,1283.4,1283.2,1283.3
201901241200,1283.3,1283.4,1283.2,1283.4
201901241201,1283.4,1283.4,1283.4,1283.4
201901241202,1283.4,1283.5,1283.3,1283.5
201901241203,1283.5,1283.5,1283.4,1283.5
201901241204,1283.5,1283.5,1283.4,1283.5
201901241205,1283.4,1283.5,1283.3,1283.4
201901241206,1283.4,1283.5,1283.3,1283.3
201901241207,1283.3,1283.4,1283.3,1283.3
201901241208,1283.3,1283.5,1283.3,1283.4
201901241209,1283.4,1283.4,1283.3,1283.3
201901241210,1283.3,1283.3,1283.2,1283.3
201901241211,1283.3,1283.5,1283.3,1283.5
201901241212,1283.5,1283.5,1283.4,1283.5
201901241213,1283.4,1283.4,1283.3,1283.3
201901241214,1283.3,1283.3,1283.3,1283.3
201901241215,1283.3,1283.3,1283.2,1283.2
201901241216,1283.2,1283.3,1283.2,1283.3
201901241217,1283.3,1283.3,1283.2,1283.3
201901241218,1283.3,1283.4,1283.2,1283.3
201901241219,1283.3,1283.5,1283.3,1283.4
201901241220,1283.4,1283.4,1283.1,1283.2
201901241221,1283.2,1283.2,1283.1,1283.1
201901241222,1283.1,1283.1,1282.9,1282.9
201901241223,1282.9,1283,1282.9,1283
201901241224,1283,1283,1282.9,1282.9
201901241225,1282.9,1283,1282.9,1283
201901241226,1283.1,1283.1,1283.1,1283.1
201901241227,1283.1,1283.1,1283.1,1283.1
201901241228,1283.1,1283.2,1283.1,1283.2
201901241229,1283.2,1283.2,1283.1,1283.2
201901241230,1283.1,1283.2,1283,1283
201901241231,1283,1283.1,1283,1283.1
201901241232,1283.1,1283.1,1283,1283.1
201901241233,1283.1,1283.2,1283.1,1283.2
201901241234,1283.2,1283.2,1283.1,1283.1
201901241235,1283.1,1283.1,1283.1,1283.1
201901241236,1283.1,1283.1,1283.1,1283.1
201901241237,1283.1,1283.1,1283.1,1283.1
201901241238,1283.1,1283.1,1283.1,1283.1
201901241239,1283.1,1283.1,1282.9,1283
201901241240,1283,1283,1282.9,1283
201901241241,1282.9,1283,1282.8,1282.9
201901241242,1282.8,1282.8,1282.7,1282.7
201901241243,1282.7,1282.8,1282.6,1282.7
201901241244,1282.7,1282.7,1282.6,1282.6
201901241245,1282.6,1282.7,1282.6,1282.7
201901241246,1282.7,1282.7,1282.7,1282.7
201901241247,1282.7,1282.7,1282.7,1282.7
201901241248,1282.7,1282.7,1282.7,1282.7
201901241249,1282.7,1282.8,1282.7,1282.8
201901241250,1282.8,1282.9,1282.7,1282.9
201901241251,1282.9,1282.9,1282.8,1282.8
201901241252,1282.8,1282.8,1282.8,1282.8
201901241253,1282.8,1282.9,1282.8,1282.8
201901241254,1282.8,1282.9,1282.8,1282.9
201901241255,1282.9,1282.9,1282.8,1282.8
201901241256,1282.8,1282.8,1282.7,1282.7
201901241257,1282.8,1282.8,1282.7,1282.7
201901241258,1282.7,1282.9,1282.7,1282.8
201901241259,1282.8,1282.9,1282.8,1282.8
201901241300,1282.8,1282.9,1282.7,1282.8
201901241301,1282.9,1283,1282.8,1283
201901241302,1283,1283.1,1283,1283.1
201901241303,1283.1,1283.1,1282.9,1282.9
201901241304,1282.9,1282.9,1282.8,1282.8
201901241305,1282.8,1282.9,1282.8,1282.8
201901241306,1282.8,1283,1282.8,1283
201901241307,1283,1283.1,1283,1283
201901241308,1283,1283,1282.9,1282.9
201901241309,1282.9,1283,1282.8,1283
201901241310,1283,1283,1282.9,1283
201901241311,1283,1283,1282.9,1282.9
201901241312,1282.9,1283,1282.9,1283
201901241313,1283,1283,1282.9,1282.9
201901241314,1282.9,1283,1282.8,1282.8
201901241315,1282.8,1282.8,1282.8,1282.8
201901241316,1282.8,1282.8,1282.7,1282.8
201901241317,1282.8,1282.8,1282.7,1282.8
201901241318,1282.8,1282.8,1282.8,1282.8
201901241319,1282.8,1282.9,1282.8,1282.9
201901241320,1282.9,1282.9,1282.8,1282.9
201901241321,1282.9,1282.9,1282.8,1282.8
201901241322,1282.8,1282.8,1282.6,1282.6
201901241323,1282.6,1282.8,1282.6,1282.8
201901241324,1282.8,1282.9,1282.7,1282.8
201901241325,1282.7,1282.8,1282.7,1282.8
201901241326,1282.8,1282.9,1282.8,1282.8
201901241327,1282.8,1282.9,1282.7,1282.7
201901241328,1282.7,1282.7,1282.6,1282.6
201901241329,1282.6,1282.7,1282.3,1282.3
201901241330,1282.3,1282.4,1282.2,1282.3
201901241331,1282.2,1282.3,1282.1,1282.3
201901241332,1282.3,1282.3,1282.2,1282.3
201901241333,1282.3,1282.4,1282.2,1282.2
201901241334,1282.2,1282.4,1282.2,1282.4
201901241335,1282.4,1282.4,1282.2,1282.3
201901241336,1282.3,1282.4,1282.3,1282.3
201901241337,1282.3,1282.4,1282.3,1282.4
201901241338,1282.4,1282.5,1282.3,1282.4
201901241339,1282.4,1282.4,1282.3,1282.3
201901241340,1282.3,1282.3,1282.3,1282.3
201901241341,1282.3,1282.3,1282.2,1282.2
201901241342,1282.2,1282.2,1282.2,1282.2
201901241343,1282.2,1282.2,1282,1282
201901241344,1282,1282,1282,1282
201901241345,1282,1282,1281.8,1281.8
201901241346,1281.8,1281.8,1281.8,1281.8
201901241347,1281.8,1281.8,1281.8,1281.8
201901241348,1281.8,1281.8,1281.6,1281.7
201901241349,1281.7,1281.7,1281.6,1281.6
201901241350,1281.6,1281.6,1281.5,1281.5
201901241351,1281.5,1281.6,1281.4,1281.4
201901241352,1281.4,1281.4,1281.3,1281.3
201901241353,1281.3,1281.4,1281.3,1281.3
201901241354,1281.3,1281.6,1281.3,1281.6
201901241355,1281.6,1281.6,1281.6,1281.6
201901241356,1281.6,1281.6,1281.5,1281.6
201901241357,1281.6,1281.6,1281.6,1281.6
201901241358,1281.6,1281.6,1281.6,1281.6
201901241359,1281.6,1281.6,1281.6,1281.6
201901241400,1281.6,1281.6,1281.4,1281.4
201901241401,1281.4,1281.4,1281.3,1281.4
201901241402,1281.4,1281.4,1281.3,1281.3
201901241403,1281.3,1281.3,1281.1,1281.1
201901241404,1281.1,1281.1,1281.1,1281.1
201901241405,1281.1,1281.3,1281.1,1281.3
201901241406,1281.3,1281.4,1281.3,1281.4
201901241407,1281.4,1281.4,1281.3,1281.4
201901241408,1281.4,1281.4,1281.3,1281.3
201901241409,1281.3,1281.3,1281.2,1281.2
201901241410,1281.2,1281.2,1281.2,1281.2
201901241411,1281.2,1281.3,1281.2,1281.3
201901241412,1281.3,1281.3,1281.3,1281.3
201901241413,1281.3,1281.4,1281.3,1281.4
201901241414,1281.4,1281.5,1281.4,1281.5
201901241415,1281.5,1281.5,1281.5,1281.5
201901241416,1281.5,1281.5,1281.5,1281.5
201901241417,1281.5,1281.5,1281.5,1281.5
201901241418,1281.5,1281.5,1281.3,1281.3
201901241419,1281.3,1281.3,1281.2,1281.3
201901241420,1281.3,1281.4,1281.3,1281.4
201901241421,1281.4,1281.4,1281.2,1281.3
201901241422,1281.3,1281.3,1281.2,1281.2
201901241423,1281.2,1281.3,1281.2,1281.3
201901241424,1281.3,1281.3,1281.1,1281.2
201901241425,1281.2,1281.2,1281.2,1281.2
201901241426,1281.2,1281.2,1281.1,1281.1
201901241427,1281.1,1281.1,1281,1281
201901241428,1281,1281.2,1281,1281.2
201901241429,1281.2,1281.3,1281.2,1281.2
201901241430,1281.2,1281.3,1281,1281.2
201901241431,1281.3,1281.4,1281.3,1281.3
201901241432,1281.3,1281.3,1281.2,1281.2
201901241433,1281.2,1281.3,1281.2,1281.2
201901241434,1281.2,1281.3,1281.1,1281.1
201901241435,1281.1,1281.2,1281.1,1281.2
201901241436,1281.2,1281.3,1281.1,1281.3
201901241437,1281.3,1281.3,1281.3,1281.3
201901241438,1281.3,1281.4,1281.3,1281.4
201901241439,1281.4,1281.4,1281.3,1281.4
201901241440,1281.4,1281.4,1281.4,1281.4
201901241441,1281.4,1281.5,1281.4,1281.4
201901241442,1281.4,1281.4,1281.3,1281.4
201901241443,1281.4,1281.5,1281.4,1281.5
201901241444,1281.5,1281.5,1281.5,1281.5
201901241445,1281.5,1281.6,1281.5,1281.5
201901241446,1281.5,1281.6,1281.5,1281.6
201901241447,1281.6,1281.6,1281.5,1281.6
201901241448,1281.6,1281.7,1281.6,1281.7
201901241449,1281.7,1281.8,1281.7,1281.8
201901241450,1281.8,1281.8,1281.8,1281.8
201901241451,1281.8,1281.8,1281.8,1281.8
201901241452,1281.8,1281.9,1281.8,1281.8
201901241453,1281.8,1281.9,1281.8,1281.9
201901241454,1281.9,1282.1,1281.7,1281.7
201901241455,1281.7,1281.9,1281.6,1281.7
201901241456,1281.7,1281.7,1281.6,1281.6
201901241457,1281.6,1281.7,1281.6,1281.6
201901241458,1281.6,1281.7,1281.6,1281.6
201901241459,1281.6,1281.7,1281.6,1281.7
201901241500,1281.7,1281.7,1281.6,1281.6
201901241501,1281.6,1281.6,1281.5,1281.6
201901241502,1281.6,1281.7,1281.5,1281.6
201901241503,1281.6,1281.7,1281.5,1281.6
201901241504,1281.6,1281.6,1281.5,1281.5
201901241505,1281.5,1281.5,1281.4,1281.4
201901241506,1281.4,1281.5,1281.4,1281.5
201901241507,1281.5,1281.5,1281.5,1281.5
201901241508,1281.5,1281.8,1281.5,1281.8
201901241509,1281.8,1281.8,1281.6,1281.6
201901241510,1281.6,1281.8,1281.6,1281.8
201901241511,1281.8,1281.8,1281.7,1281.7
201901241512,1281.7,1281.9,1281.7,1281.9
201901241513,1281.9,1281.9,1281.8,1281.9
201901241514,1281.9,1281.9,1281.8,1281.9
201901241515,1281.9,1282.2,1281.9,1282.2
201901241516,1282.2,1282.3,1282.2,1282.2
201901241517,1282.2,1282.3,1282.2,1282.2
201901241518,1282.2,1282.3,1282.2,1282.3
201901241519,1282.3,1282.3,1282.1,1282.2
201901241520,1282.2,1282.2,1282,1282
201901241521,1282,1282,1281.9,1281.9
201901241522,1281.9,1281.9,1281.9,1281.9
201901241523,1281.9,1282.1,1281.9,1282.1
201901241524,1282.1,1282.1,1281.9,1281.9
201901241525,1281.9,1281.9,1281.9,1281.9
201901241526,1281.9,1281.9,1281.9,1281.9
201901241527,1281.9,1281.9,1281.8,1281.8
201901241528,1281.8,1281.9,1281.8,1281.8
201901241529,1281.8,1281.9,1281.8,1281.9
201901241530,1281.9,1281.9,1281.7,1281.8
201901241531,1281.8,1281.8,1281.4,1281.4
201901241532,1281.4,1281.5,1281.2,1281.2
201901241533,1281.2,1281.2,1281,1281
201901241534,1281,1281,1281,1281
201901241535,1281,1281,1281,1281
201901241536,1281,1281,1280.9,1281
201901241537,1281,1281.1,1280.9,1280.9
201901241538,1281,1281.1,1281,1281
201901241539,1281,1281.3,1281,1281.1
201901241540,1281.1,1281.2,1281,1281.1
201901241541,1281.1,1281.3,1281,1281.3
201901241542,1281.3,1281.3,1281.1,1281.1
201901241543,1281.1,1281.2,1280.9,1281
201901241544,1281,1281,1280.9,1281
201901241545,1281,1281.1,1280.9,1281.1
201901241546,1281.1,1281.1,1281.1,1281.1
201901241547,1281.1,1281.1,1281,1281
201901241548,1281,1281,1281,1281
201901241549,1281,1281.1,1281,1281.1
201901241550,1281.1,1281.3,1281.1,1281.3
201901241551,1281.3,1281.3,1281.2,1281.3
201901241552,1281.3,1281.4,1281.2,1281.3
201901241553,1281.3,1281.3,1281.1,1281.1
201901241554,1281.1,1281.2,1281.1,1281.2
201901241555,1281.2,1281.2,1281.1,1281.1
201901241556,1281.1,1281.2,1281.1,1281.1
201901241557,1281.1,1281.2,1281.1,1281.2
201901241558,1281.2,1281.2,1281.2,1281.2
201901241559,1281.2,1281.2,1281.1,1281.2
201901241600,1281.2,1281.2,1281,1281.1
201901241601,1281.1,1281.1,1280.8,1280.8
201901241602,1280.8,1280.9,1280.6,1280.6
201901241603,1280.6,1280.8,1280.6,1280.7
201901241604,1280.7,1280.8,1280.6,1280.8
201901241605,1280.8,1280.8,1280.7,1280.7
201901241606,1280.7,1280.8,1280.4,1280.5
201901241607,1280.5,1280.9,1280.5,1280.9
201901241608,1280.9,1281,1280.9,1280.9
201901241609,1280.9,1280.9,1280.9,1280.9
201901241610,1280.9,1281,1280.9,1281
201901241611,1281,1281,1280.9,1280.9
201901241612,1280.9,1281,1280.8,1281
201901241613,1281,1281.2,1280.9,1281.2
201901241614,1281.2,1281.4,1281.2,1281.3
201901241615,1281.3,1281.4,1281.2,1281.3
201901241616,1281.3,1281.5,1281.3,1281.3
201901241617,1281.3,1281.5,1281.3,1281.5
201901241618,1281.5,1281.5,1281.4,1281.5
201901241619,1281.5,1281.5,1281.3,1281.3
201901241620,1281.3,1281.4,1281.3,1281.3
201901241621,1281.3,1281.3,1281.3,1281.3
201901241622,1281.2,1281.3,1281.1,1281.1
201901241623,1281.1,1281.1,1280.9,1281
201901241624,1281,1281,1281,1281
201901241625,1281,1281.1,1280.8,1281
201901241626,1281,1281.1,1281,1281
201901241627,1281,1281,1280.8,1280.8
201901241628,1280.8,1280.9,1280.7,1280.7
201901241629,1280.7,1280.7,1280.5,1280.6
201901241630,1280.6,1280.7,1280.5,1280.6
201901241631,1280.6,1280.6,1280.5,1280.6
201901241632,1280.6,1280.7,1280.5,1280.6
201901241633,1280.6,1280.6,1280.3,1280.5
201901241634,1280.5,1280.5,1280.4,1280.4
201901241635,1280.4,1280.4,1280.4,1280.4
201901241636,1280.4,1280.5,1280.4,1280.4
201901241637,1280.4,1280.5,1280.4,1280.5
201901241638,1280.5,1280.5,1280.4,1280.4
201901241639,1280.5,1280.5,1280.4,1280.4
201901241640,1280.4,1280.4,1280.3,1280.3
201901241641,1280.3,1280.5,1280.3,1280.5
201901241642,1280.5,1280.5,1280.3,1280.4
201901241643,1280.4,1280.5,1280.1,1280.1
201901241644,1280.1,1280.3,1280.1,1280.3
201901241645,1280.3,1280.4,1280.2,1280.3
201901241646,1280.3,1280.4,1280.2,1280.2
201901241647,1280.2,1280.3,1280.2,1280.2
201901241648,1280.2,1280.4,1280.1,1280.2
201901241649,1280.2,1280.2,1280.2,1280.2
201901241650,1280.2,1280.3,1280.2,1280.2
201901241651,1280.2,1280.2,1280.1,1280.2
201901241652,1280.2,1280.3,1280.1,1280.3
201901241653,1280.3,1280.3,1280.1,1280.2
201901241654,1280.2,1280.2,1280.1,1280.1
201901241655,1280.1,1280.2,1279.9,1280.2
201901241656,1280.2,1280.2,1279.9,1280
201901241657,1280,1280,1279.8,1279.9
201901241658,1279.9,1279.9,1279.9,1279.9
201901241659,1279.9,1280.1,1279.9,1280.1
201901241700,1280.1,1280.1,1279.9,1280.1
201901241701,1280.1,1280.2,1279.9,1279.9
201901241702,1279.9,1280,1279.9,1279.9
201901241703,1279.9,1279.9,1279.7,1279.8
201901241704,1279.8,1279.9,1279.7,1279.7
201901241705,1279.7,1279.9,1279.7,1279.9
201901241706,1279.9,1280.2,1279.9,1280.2
201901241707,1280.2,1280.2,1279.9,1280.1
201901241708,1280.1,1280.1,1280.1,1280.1
201901241709,1280.1,1280.1,1280.1,1280.1
201901241710,1280.1,1280.1,1279.9,1280.1
201901241711,1280.1,1280.1,1279.9,1279.9
201901241712,1279.9,1279.9,1279.8,1279.8
201901241713,1279.8,1279.9,1279.7,1279.7
201901241714,1279.7,1279.8,1279.7,1279.7
201901241715,1279.7,1279.7,1279.3,1279.4
201901241716,1279.4,1279.7,1279.4,1279.6
201901241717,1279.6,1280,1279.6,1279.8
201901241718,1279.8,1280.1,1279.8,1279.8
201901241719,1279.8,1279.9,1279.8,1279.9
201901241720,1279.9,1280,1279.6,1279.8
201901241721,1279.9,1279.9,1279.6,1279.7
201901241722,1279.7,1280.6,1279.7,1280.5
201901241723,1280.5,1280.5,1280.3,1280.5
201901241724,1280.5,1280.5,1280.4,1280.5
201901241725,1280.5,1280.5,1280.3,1280.3
201901241726,1280.3,1280.3,1280.2,1280.2
201901241727,1280.2,1280.2,1280.1,1280.2
201901241728,1280.2,1280.2,1279.9,1279.9
201901241729,1279.9,1280,1279.8,1279.9
201901241730,1279.9,1280.3,1279.7,1280.1
201901241731,1280.1,1280.1,1279.9,1279.9
201901241732,1279.9,1279.9,1279.7,1279.8
201901241733,1279.8,1280,1279.7,1280
201901241734,1280,1280,1279.6,1279.6
201901241735,1279.6,1280.1,1279.6,1280.1
201901241736,1280.1,1280.6,1280.1,1280.6
201901241737,1280.6,1280.6,1280.4,1280.6
201901241738,1280.6,1280.6,1280.3,1280.3
201901241739,1280.3,1280.5,1280.2,1280.4
201901241740,1280.4,1280.4,1280.2,1280.4
201901241741,1280.4,1280.4,1280.2,1280.2
201901241742,1280.2,1280.2,1280.1,1280.2
201901241743,1280.2,1280.2,1279.9,1279.9
201901241744,1279.9,1280,1279.9,1280
201901241745,1280,1280,1279.8,1279.8
201901241746,1279.8,1279.9,1279.7,1279.7
201901241747,1279.7,1279.7,1279.6,1279.6
201901241748,1279.6,1279.8,1279.6,1279.8
201901241749,1279.8,1279.8,1279.7,1279.7
201901241750,1279.7,1279.7,1279.4,1279.4
201901241751,1279.4,1279.5,1279.4,1279.5
201901241752,1279.5,1279.6,1279.5,1279.5
201901241753,1279.5,1279.5,1279.4,1279.4
201901241754,1279.4,1279.5,1279.4,1279.4
201901241755,1279.4,1279.5,1278.3,1278.5
201901241756,1278.5,1278.7,1278.4,1278.7
201901241757,1278.7,1278.8,1278.6,1278.8
201901241758,1278.8,1278.9,1278.8,1278.9
201901241759,1278.9,1278.9,1278.8,1278.8
201901241800,1278.8,1278.9,1278.6,1278.8
201901241801,1278.8,1278.9,1278.7,1278.8
201901241802,1278.9,1278.9,1278.7,1278.8
201901241803,1278.8,1279.2,1278.8,1278.9
201901241804,1278.9,1279,1278.9,1278.9
201901241805,1279,1279,1278.7,1278.8
201901241806,1278.8,1278.9,1278.8,1278.8
201901241807,1278.8,1279,1278.8,1279
201901241808,1279,1279.2,1279,1279.1
201901241809,1279.1,1279.1,1278.9,1279.1
201901241810,1279.1,1279.1,1279,1279
201901241811,1279,1279.1,1279,1279.1
201901241812,1279.1,1279.2,1279.1,1279.2
201901241813,1279.2,1279.3,1279.2,1279.3
201901241814,1279.3,1279.3,1279.2,1279.3
201901241815,1279.3,1279.3,1279.2,1279.2
201901241816,1279.2,1279.5,1279.2,1279.5
201901241817,1279.5,1279.6,1279.5,1279.5
201901241818,1279.5,1279.7,1279.5,1279.7
201901241819,1279.7,1279.8,1279.7,1279.8
201901241820,1279.8,1279.9,1279.8,1279.8
201901241821,1279.8,1279.8,1279.5,1279.5
201901241822,1279.5,1279.7,1279.5,1279.7
201901241823,1279.7,1279.8,1279.6,1279.6
201901241824,1279.6,1279.6,1279.2,1279.2
201901241825,1279.2,1279.4,1279.2,1279.3
201901241826,1279.3,1279.3,1279.2,1279.3
201901241827,1279.3,1279.3,1279.1,1279.2
201901241828,1279.2,1279.2,1278.7,1279
201901241829,1279,1279.1,1278.9,1279.1
201901241830,1279.1,1279.2,1278.9,1279.1
201901241831,1279.1,1279.1,1278.9,1279.1
201901241832,1279.1,1279.3,1279.1,1279.2
201901241833,1279.2,1279.2,1278.7,1278.7
201901241834,1278.7,1278.7,1278.5,1278.7
201901241835,1278.7,1278.9,1278.6,1278.9
201901241836,1278.9,1279,1278.9,1279
201901241837,1279,1279.1,1278.9,1279
201901241838,1279.1,1279.1,1279,1279.1
201901241839,1279.1,1279.1,1279.1,1279.1
201901241840,1279.1,1279.2,1279.1,1279.2
201901241841,1279.2,1279.4,1279.2,1279.4
201901241842,1279.4,1279.4,1279.3,1279.4
201901241843,1279.4,1279.5,1279.4,1279.5
201901241844,1279.5,1279.5,1279.4,1279.4
201901241845,1279.4,1279.4,1279.3,1279.3
201901241846,1279.3,1279.4,1279.2,1279.2
201901241847,1279.2,1279.2,1279.1,1279.2
201901241848,1279.2,1279.3,1279.2,1279.2
201901241849,1279.2,1279.5,1279,1279.4
201901241850,1279.5,1279.6,1279.4,1279.6
201901241851,1279.6,1279.6,1279.4,1279.5
201901241852,1279.5,1279.6,1279.4,1279.5
201901241853,1279.5,1279.6,1279.5,1279.6
201901241854,1279.6,1279.6,1279.4,1279.4
201901241855,1279.5,1279.5,1279.4,1279.5
201901241856,1279.5,1279.7,1279.5,1279.7
201901241857,1279.7,1279.7,1279.5,1279.6
201901241858,1279.6,1279.7,1279.6,1279.6
201901241859,1279.6,1279.7,1279.6,1279.6
201901241900,1279.6,1279.6,1279.5,1279.6
201901241901,1279.6,1279.8,1279.6,1279.7
201901241902,1279.7,1279.8,1279.7,1279.7
201901241903,1279.7,1279.8,1279.7,1279.7
201901241904,1279.7,1279.7,1279.7,1279.7
201901241905,1279.7,1279.8,1279.7,1279.8
201901241906,1279.8,1279.8,1279.8,1279.8
201901241907,1279.8,1279.9,1279.8,1279.9
201901241908,1279.9,1280,1279.9,1279.9
201901241909,1279.9,1279.9,1279.7,1279.7
201901241910,1279.7,1279.8,1279.7,1279.8
201901241911,1279.8,1279.8,1279.7,1279.8
201901241912,1279.8,1280,1279.7,1279.9
201901241913,1279.9,1280.1,1279.9,1280
201901241914,1280,1280.1,1280,1280
201901241915,1280,1280.1,1280,1280.1
201901241916,1280.1,1280.1,1280,1280
201901241917,1280,1280.1,1280,1280.1
201901241918,1280,1280,1279.9,1279.9
201901241919,1279.9,1279.9,1279.8,1279.9
201901241920,1279.9,1279.9,1279.7,1279.8
201901241921,1279.8,1279.8,1279.8,1279.8
201901241922,1279.8,1279.8,1279.7,1279.8
201901241923,1279.8,1279.8,1279.7,1279.8
201901241924,1279.8,1279.8,1279.5,1279.6
201901241925,1279.6,1279.6,1279.5,1279.5
201901241926,1279.5,1279.5,1279.3,1279.5
201901241927,1279.5,1279.5,1279.1,1279.2
201901241928,1279.2,1279.4,1279.2,1279.4
201901241929,1279.4,1279.4,1279.3,1279.3
201901241930,1279.3,1279.7,1279.3,1279.5
201901241931,1279.5,1279.6,1279.5,1279.6
201901241932,1279.6,1279.8,1279.5,1279.7
201901241933,1279.7,1279.7,1279.6,1279.6
201901241934,1279.6,1279.8,1279.6,1279.8
201901241935,1279.8,1279.8,1279.7,1279.7
201901241936,1279.7,1279.8,1279.7,1279.7
201901241937,1279.7,1279.8,1279.7,1279.8
201901241938,1279.8,1279.9,1279.8,1279.8
201901241939,1279.8,1279.8,1279.8,1279.8
201901241940,1279.8,1279.8,1279.7,1279.7
201901241941,1279.7,1279.8,1279.7,1279.7
201901241942,1279.7,1279.7,1279.4,1279.4
201901241943,1279.4,1279.9,1279.4,1279.8
201901241944,1279.8,1280,1279.8,1279.9
201901241945,1279.9,1280,1279.8,1279.9
201901241946,1279.9,1280,1279.9,1280
201901241947,1280,1280,1279.7,1279.8
201901241948,1279.8,1280,1279.8,1279.8
201901241949,1279.8,1279.8,1279.5,1279.6
201901241950,1279.6,1279.8,1279.6,1279.7
201901241951,1279.7,1279.7,1279.5,1279.5
201901241952,1279.5,1279.6,1279.5,1279.5
201901241953,1279.6,1279.6,1279.5,1279.5
201901241954,1279.5,1279.5,1279.5,1279.5
201901241955,1279.5,1279.6,1279.5,1279.5
201901241956,1279.5,1279.5,1279.4,1279.4
201901241957,1279.4,1279.5,1279.4,1279.4
201901241958,1279.4,1279.6,1279.4,1279.6
201901241959,1279.6,1279.7,1279.5,1279.6
201901242000,1279.6,1279.6,1279.6,1279.6
201901242001,1279.6,1279.7,1279.5,1279.6
201901242002,1279.6,1279.6,1279.5,1279.6
201901242003,1279.6,1279.7,1279.6,1279.7
201901242004,1279.7,1279.9,1279.7,1279.8
201901242005,1279.8,1280,1279.8,1279.9
201901242006,1279.9,1279.9,1279.6,1279.6
201901242007,1279.6,1279.9,1279.6,1279.9
201901242008,1279.9,1279.9,1279.8,1279.8
201901242009,1279.8,1279.8,1279.7,1279.7
201901242010,1279.7,1279.7,1279.7,1279.7
201901242011,1279.7,1279.7,1279.4,1279.5
201901242012,1279.5,1279.5,1279.4,1279.5
201901242013,1279.5,1279.5,1279.4,1279.4
201901242014,1279.4,1279.4,1279.2,1279.3
201901242015,1279.3,1279.3,1279.1,1279.2
201901242016,1279.2,1279.3,1279.2,1279.3
201901242017,1279.3,1279.4,1279.3,1279.3
201901242018,1279.3,1279.3,1279.3,1279.3
201901242019,1279.3,1279.4,1279.3,1279.4
201901242020,1279.4,1279.4,1279.3,1279.3
201901242021,1279.3,1279.4,1279.3,1279.3
201901242022,1279.3,1279.3,1279.2,1279.3
201901242023,1279.3,1279.4,1279.3,1279.3
201901242024,1279.3,1279.3,1279.2,1279.3
201901242025,1279.3,1279.3,1279.1,1279.1
201901242026,1279.1,1279.3,1279.1,1279.3
201901242027,1279.3,1279.3,1279.3,1279.3
201901242028,1279.3,1279.4,1279.2,1279.4
201901242029,1279.4,1279.4,1279.1,1279.3
201901242030,1279.3,1279.4,1279.3,1279.3
201901242031,1279.4,1279.5,1279.3,1279.4
201901242032,1279.4,1279.5,1279.3,1279.5
201901242033,1279.5,1279.5,1279.4,1279.5
201901242034,1279.5,1279.5,1279.4,1279.5
201901242035,1279.5,1279.5,1279.4,1279.5
201901242036,1279.5,1279.6,1279.5,1279.6
201901242037,1279.6,1279.6,1279.5,1279.6
201901242038,1279.6,1279.7,1279.6,1279.7
201901242039,1279.7,1279.8,1279.6,1279.6
201901242040,1279.6,1279.7,1279.4,1279.5
201901242041,1279.5,1279.5,1279.5,1279.5
201901242042,1279.5,1279.5,1279.4,1279.5
201901242043,1279.5,1279.6,1279.5,1279.5
201901242044,1279.5,1279.6,1279.5,1279.6
201901242045,1279.6,1279.6,1279.6,1279.6
201901242046,1279.6,1279.7,1279.6,1279.6
201901242047,1279.6,1279.6,1279.5,1279.5
201901242048,1279.5,1279.5,1279.5,1279.5
201901242049,1279.5,1279.5,1279.3,1279.3
201901242050,1279.3,1279.4,1279.1,1279.3
201901242051,1279.3,1279.3,1279.2,1279.2
201901242052,1279.2,1279.3,1279.1,1279.2
201901242053,1279.2,1279.2,1279.2,1279.2
201901242054,1279.2,1279.2,1279.2,1279.2
201901242055,1279.2,1279.2,1279.2,1279.2
201901242056,1279.2,1279.5,1279.2,1279.4
201901242057,1279.4,1279.5,1279.3,1279.4
201901242058,1279.4,1279.6,1279.3,1279.5
201901242059,1279.5,1279.6,1279.5,1279.6
201901242100,1279.6,1279.7,1279.5,1279.6
201901242101,1279.6,1279.6,1279.4,1279.6
201901242102,1279.6,1279.6,1279.5,1279.5
201901242103,1279.5,1279.5,1279.4,1279.5
201901242104,1279.5,1279.5,1279.4,1279.5
201901242105,1279.5,1279.5,1279.4,1279.5
201901242106,1279.5,1279.5,1279.3,1279.3
201901242107,1279.3,1279.3,1279.2,1279.2
201901242108,1279.2,1279.3,1279.2,1279.3
201901242109,1279.3,1279.5,1279.3,1279.5
201901242110,1279.5,1279.5,1279.4,1279.5
201901242111,1279.5,1279.5,1279.4,1279.5
201901242112,1279.5,1279.5,1279.4,1279.4
201901242113,1279.4,1279.4,1279.2,1279.2
201901242114,1279.2,1279.2,1279.1,1279.1
201901242115,1279.1,1279.1,1279,1279
201901242116,1279,1279.1,1278.9,1278.9
201901242117,1278.9,1278.9,1278.7,1278.7
201901242118,1278.7,1278.8,1278.6,1278.6
201901242119,1278.6,1278.9,1278.6,1278.8
201901242120,1278.9,1279.3,1278.8,1279.3
201901242121,1279.3,1279.3,1279.2,1279.2
201901242122,1279.2,1279.2,1279.2,1279.2
201901242123,1279.2,1279.3,1279.2,1279.3
201901242124,1279.3,1279.3,1279.1,1279.1
201901242125,1279.1,1279.1,1279,1279.1
201901242126,1279,1279.2,1279,1279.1
201901242127,1279.1,1279.1,1279.1,1279.1
201901242128,1279.1,1279.1,1278.9,1278.9
201901242129,1278.9,1278.9,1278.8,1278.8
201901242130,1278.8,1278.8,1278.8,1278.8
201901242131,1278.8,1278.8,1278.8,1278.8
201901242132,1278.8,1278.8,1278.8,1278.8
201901242133,1278.8,1278.9,1278.8,1278.9
201901242134,1278.9,1278.9,1278.6,1278.6
201901242135,1278.6,1278.7,1278.4,1278.4
201901242136,1278.5,1278.7,1278.4,1278.6
201901242137,1278.6,1278.6,1278.5,1278.6
201901242138,1278.6,1278.7,1278.6,1278.7
201901242139,1278.7,1278.7,1278.6,1278.6
201901242140,1278.6,1278.8,1278.6,1278.8
201901242141,1278.8,1278.8,1278.7,1278.7
201901242142,1278.7,1278.8,1278.7,1278.7
201901242143,1278.8,1279,1278.8,1278.9
201901242144,1278.9,1279,1278.7,1279
201901242145,1279,1279.2,1278.9,1279.1
201901242146,1279.2,1279.2,1279.1,1279.1
201901242147,1279.1,1279.1,1278.8,1279
201901242148,1279,1279,1278.7,1278.8
201901242149,1278.8,1278.9,1278.6,1278.6
201901242150,1278.7,1278.7,1278.3,1278.3
201901242151,1278.3,1278.4,1278.2,1278.4
201901242152,1278.4,1278.7,1278.4,1278.7
201901242153,1278.7,1278.8,1278.7,1278.7
201901242154,1278.7,1278.8,1278.5,1278.7
201901242155,1278.7,1278.8,1278.7,1278.7
201901242156,1278.7,1278.9,1278.7,1278.9
201901242157,1278.9,1278.9,1278.8,1278.8
201901242158,1278.8,1278.9,1278.7,1278.8
201901242159,1278.8,1279.1,1278.8,1279.1
201901242200,1279.1,1279.1,1278.6,1278.8
201901242201,1278.8,1279.2,1278.8,1279.1
201901242202,1279.1,1279.2,1279,1279
201901242203,1279,1279.3,1279,1279.2
201901242204,1279.2,1279.3,1279,1279.1
201901242205,1279.1,1279.3,1279.1,1279.2
201901242206,1279.2,1279.2,1278.8,1279
201901242207,1279,1279.1,1279,1279.1
201901242208,1279.1,1279.1,1279,1279.1
201901242209,1279.1,1279.3,1279.1,1279.3
201901242210,1279.3,1279.7,1279.3,1279.6
201901242211,1279.6,1279.9,1279.5,1279.9
201901242212,1279.9,1279.9,1279.5,1279.6
201901242213,1279.6,1279.7,1279.5,1279.5
201901242214,1279.5,1279.7,1279.5,1279.5
201901242215,1279.5,1279.6,1279.5,1279.5
201901242216,1279.5,1279.6,1279.5,1279.6
201901242217,1279.6,1279.8,1279.6,1279.6
201901242218,1279.6,1279.6,1279.4,1279.6
201901242219,1279.6,1279.7,1279.6,1279.6
201901242220,1279.6,1279.6,1279.1,1279.4
201901242221,1279.4,1279.5,1279.1,1279.2
201901242222,1279.2,1279.2,1278.7,1278.7
201901242223,1278.7,1278.7,1277.7,1277.9
201901242224,1277.9,1278,1277.5,1277.9
201901242225,1277.9,1278,1277.5,1278
201901242226,1278,1278.1,1277.8,1278
201901242227,1278,1278,1277.7,1277.9
201901242228,1277.9,1278.1,1277.8,1278
201901242229,1277.9,1278.4,1277.9,1278.4
201901242230,1278.4,1278.4,1277.4,1277.6
201901242231,1277.6,1277.9,1277.5,1277.6
201901242232,1277.6,1278,1276.7,1276.9
201901242233,1276.9,1277.5,1276.7,1277.4
201901242234,1277.4,1278.3,1277,1278.2
201901242235,1278.2,1278.6,1277.7,1278.6
201901242236,1278.6,1279.5,1278.4,1278.8
201901242237,1278.8,1279,1277.8,1278.1
201901242238,1278.1,1278.6,1278,1278.4
201901242239,1278.4,1278.8,1278.3,1278.6
201901242240,1278.6,1279.1,1278.4,1278.9
201901242241,1278.9,1278.9,1278.2,1278.3
201901242242,1278.3,1278.4,1278,1278.3
201901242243,1278.3,1278.5,1278.2,1278.4
201901242244,1278.4,1278.6,1278.3,1278.4
201901242245,1278.4,1278.7,1278.4,1278.5
201901242246,1278.5,1278.8,1278.4,1278.7
201901242247,1278.7,1279,1278.5,1278.8
201901242248,1278.8,1279.1,1278.7,1279.1
201901242249,1279.1,1279.3,1278.9,1279.3
201901242250,1279.3,1279.3,1279,1279.2
201901242251,1279.1,1279.2,1278.8,1279
201901242252,1279,1279.3,1279,1279.3
201901242253,1279.3,1280.3,1279.2,1280.1
201901242254,1280.1,1280.4,1279.8,1280.3
201901242255,1280.3,1281.4,1280.3,1280.9
201901242256,1281,1281.5,1280.9,1281.4
201901242257,1281.5,1281.5,1280.9,1280.9
201901242258,1280.9,1281.1,1280.6,1280.7
201901242259,1280.7,1280.7,1280.3,1280.4
201901242300,1280.4,1280.9,1280.2,1280.2
201901242301,1280.2,1280.4,1279.7,1279.7
201901242302,1279.7,1280,1279.7,1279.9
201901242303,1279.9,1280,1279.6,1279.6
201901242304,1279.6,1279.9,1279.6,1279.9
201901242305,1279.9,1280.3,1279.9,1280.3
201901242306,1280.3,1281.2,1280.2,1281
201901242307,1281,1281.1,1280.7,1280.8
201901242308,1280.8,1281,1280.5,1280.5
201901242309,1280.5,1280.6,1280.3,1280.6
201901242310,1280.5,1281,1280.5,1280.8
201901242311,1280.8,1280.8,1280.5,1280.7
201901242312,1280.6,1280.9,1280.6,1280.8
201901242313,1280.8,1280.8,1280.6,1280.8
201901242314,1280.8,1281.4,1280.8,1281.3
201901242315,1281.3,1281.4,1281.1,1281.2
201901242316,1281.2,1281.4,1280.6,1280.7
201901242317,1280.7,1280.7,1280.5,1280.7
201901242318,1280.7,1280.8,1280.6,1280.7
201901242319,1280.7,1281.1,1280.7,1280.9
201901242320,1281,1281.1,1280.8,1281
201901242321,1281,1281,1280.8,1280.8
201901242322,1280.8,1281.1,1280.8,1280.9
201901242323,1280.9,1281.1,1280.7,1280.8
201901242324,1280.8,1281.2,1280.8,1281.2
201901242325,1281.2,1282.4,1281.2,1282.3
201901242326,1282.3,1282.3,1281.6,1281.7
201901242327,1281.7,1281.8,1281.4,1281.5
201901242328,1281.5,1281.9,1281.5,1281.7
201901242329,1281.7,1281.9,1281.7,1281.8
201901242330,1281.8,1282,1281.8,1281.8
201901242331,1281.8,1281.9,1281.7,1281.8
201901242332,1281.8,1281.9,1281.7,1281.8
201901242333,1281.8,1281.8,1281.5,1281.8
201901242334,1281.7,1282,1281.7,1282
201901242335,1282,1282.2,1281.9,1282.1
201901242336,1282.1,1282.3,1282,1282.2
201901242337,1282.2,1282.5,1282.1,1282.1
201901242338,1282.1,1282.5,1282.1,1282.5
201901242339,1282.5,1282.5,1282.2,1282.2
201901242340,1282.2,1282.9,1282.2,1282.7
201901242341,1282.8,1283.4,1282.8,1283.2
201901242342,1283.2,1283.7,1283.2,1283.5
201901242343,1283.5,1283.5,1282.8,1283
201901242344,1283,1283.3,1283,1283.2
201901242345,1283.2,1283.2,1282,1282.2
201901242346,1282.2,1282.5,1282,1282.4
201901242347,1282.4,1283.1,1282.4,1283
201901242348,1283,1283,1282.7,1282.9
201901242349,1282.9,1283.2,1282.9,1283.2
201901242350,1283.2,1283.3,1283.1,1283.2
201901242351,1283.2,1283.2,1283.1,1283.2
201901242352,1283.2,1283.3,1282.8,1282.8
201901242353,1282.8,1282.9,1282.7,1282.8
201901242354,1282.8,1283.3,1282.8,1283
201901242355,1283,1283.5,1282.9,1283.5
201901242356,1283.5,1283.5,1283,1283.2
201901242357,1283.2,1283.3,1283.1,1283.1
201901242358,1283.1,1283.3,1283,1283.2
201901242359,1283.2,1283.4,1283.2,1283.3
201901250000,1283.3,1283.7,1283.3,1283.6
201901250001,1283.6,1283.7,1283.3,1283.3
201901250002,1283.3,1283.4,1283,1283.1
201901250003,1283.2,1283.5,1283.2,1283.5
201901250004,1283.5,1283.5,1282.7,1282.9
201901250005,1282.9,1283,1282.8,1282.8
201901250006,1282.8,1282.8,1282.4,1282.4
201901250007,1282.4,1282.6,1282.4,1282.5
201901250008,1282.5,1282.8,1282.5,1282.6
201901250009,1282.6,1283,1282.5,1282.8
201901250010,1282.8,1282.9,1282.8,1282.8
201901250011,1282.8,1282.8,1282.4,1282.6
201901250012,1282.6,1282.7,1282.5,1282.7
201901250013,1282.7,1282.9,1282.7,1282.9
201901250014,1282.9,1282.9,1282.5,1282.5
201901250015,1282.5,1282.6,1281.6,1281.6
201901250016,1281.6,1282.1,1281.5,1281.8
201901250017,1281.9,1282.3,1281.8,1282.3
201901250018,1282.3,1282.3,1281.7,1281.7
201901250019,1281.7,1282,1281.7,1281.9
201901250020,1281.9,1282.1,1281.8,1281.8
201901250021,1281.8,1281.9,1281.4,1281.5
201901250022,1281.5,1281.7,1281.2,1281.7
201901250023,1281.7,1281.7,1281.4,1281.6
201901250024,1281.6,1281.7,1281.4,1281.4
201901250025,1281.4,1281.8,1281.4,1281.7
201901250026,1281.7,1282,1281.7,1281.9
201901250027,1281.9,1282.2,1281.9,1282.1
201901250028,1282.1,1282.3,1281.8,1281.9
201901250029,1281.9,1282,1281.8,1282
201901250030,1282,1282.1,1281.8,1281.9
201901250031,1281.9,1282,1281.7,1281.8
201901250032,1281.8,1282,1281.8,1282
201901250033,1282,1282.1,1282,1282.1
201901250034,1282.1,1282.5,1282.1,1282.4
201901250035,1282.4,1282.6,1282.4,1282.4
201901250036,1282.4,1282.4,1282.2,1282.4
201901250037,1282.4,1282.7,1282.4,1282.7
201901250038,1282.7,1282.7,1282.4,1282.4
201901250039,1282.4,1282.5,1282.2,1282.3
201901250040,1282.3,1282.3,1282.1,1282.1
201901250041,1282.1,1282.3,1282,1282.2
201901250042,1282.2,1282.3,1281.9,1281.9
201901250043,1281.9,1282.1,1281.9,1282
201901250044,1282,1282.1,1281.6,1281.7
201901250045,1281.7,1281.9,1281.6,1281.7
201901250046,1281.7,1281.8,1281.6,1281.6
201901250047,1281.6,1282,1281.6,1281.9
201901250048,1281.9,1282.1,1281.9,1281.9
201901250049,1281.9,1282.2,1281.9,1282
201901250050,1282,1282.2,1282,1282.2
201901250051,1282.2,1282.5,1282.1,1282.5
201901250052,1282.5,1282.5,1282.4,1282.5
201901250053,1282.5,1282.5,1282.2,1282.2
201901250054,1282.2,1282.4,1282.2,1282.3
201901250055,1282.2,1282.3,1282.2,1282.2
201901250056,1282.2,1282.2,1281.8,1281.8
201901250057,1281.8,1282,1281.8,1282
201901250058,1282.1,1282.2,1282,1282
201901250059,1282.1,1282.2,1282.1,1282.1
201901250100,1282.1,1282.2,1281.9,1282
201901250101,1282,1282.4,1282,1282.4
201901250102,1282.4,1282.5,1282.2,1282.2
201901250103,1282.2,1282.2,1282.1,1282.2
201901250104,1282.2,1282.4,1282.2,1282.3
201901250105,1282.3,1282.4,1282,1282
201901250106,1282,1282.2,1281.9,1282.1
201901250107,1282.1,1282.3,1282.1,1282.3
201901250108,1282.3,1282.4,1282,1282.1
201901250109,1282.1,1282.2,1282,1282
201901250110,1282,1282,1281.7,1281.8
201901250111,1281.8,1282.1,1281.8,1282
201901250112,1282,1282.3,1282,1282.3
201901250113,1282.3,1282.6,1282.3,1282.6
201901250114,1282.6,1282.7,1282.4,1282.4
201901250115,1282.4,1282.7,1282.4,1282.6
201901250116,1282.6,1282.6,1282.4,1282.5
201901250117,1282.5,1282.5,1282.2,1282.2
201901250118,1282.2,1282.3,1282.2,1282.2
201901250119,1282.2,1282.6,1282.2,1282.4
201901250120,1282.4,1282.6,1282.4,1282.5
201901250121,1282.5,1282.7,1282.4,1282.7
201901250122,1282.7,1282.9,1282.6,1282.9
201901250123,1282.8,1282.8,1282.6,1282.6
201901250124,1282.6,1282.8,1282.6,1282.8
201901250125,1282.8,1282.9,1282.6,1282.7
201901250126,1282.7,1282.8,1282.7,1282.7
201901250127,1282.7,1283,1282.7,1282.8
201901250128,1282.8,1282.8,1282.6,1282.6
201901250129,1282.6,1282.7,1282.5,1282.6
201901250130,1282.6,1282.8,1282.6,1282.6
201901250131,1282.6,1282.7,1282.6,1282.6
201901250132,1282.6,1282.7,1282.5,1282.7
201901250133,1282.7,1282.9,1282.7,1282.9
201901250134,1282.9,1282.9,1282.5,1282.7
201901250135,1282.7,1282.8,1282.7,1282.7
201901250136,1282.7,1282.8,1282.6,1282.6
201901250137,1282.6,1282.6,1282.2,1282.3
201901250138,1282.3,1282.4,1282.2,1282.4
201901250139,1282.4,1282.5,1282.3,1282.4
201901250140,1282.4,1282.6,1282.4,1282.5
201901250141,1282.5,1282.6,1282.5,1282.5
201901250142,1282.5,1282.6,1282.4,1282.6
201901250143,1282.6,1282.6,1282.5,1282.6
201901250144,1282.6,1282.7,1282.6,1282.7
201901250145,1282.7,1282.7,1282.6,1282.6
201901250146,1282.6,1282.6,1282.4,1282.5
201901250147,1282.5,1282.6,1282.3,1282.3
201901250148,1282.3,1282.3,1282.2,1282.3
201901250149,1282.3,1282.7,1282.1,1282.2
201901250150,1282.1,1282.3,1282,1282.1
201901250151,1282.1,1282.1,1281.7,1281.8
201901250152,1281.8,1282.1,1281.5,1281.8
201901250153,1281.8,1281.9,1281.6,1281.7
201901250154,1281.7,1282,1281.6,1282
201901250155,1282,1282,1281.8,1282
201901250156,1282,1282.1,1281.8,1282.1
201901250157,1282.1,1282.1,1281.9,1282
201901250158,1282,1282.2,1281.9,1282
201901250159,1282,1282,1281.9,1282
201901250200,1282,1282,1281.8,1282
201901250201,1282,1282.1,1282,1282.1
201901250202,1282.1,1282.3,1282.1,1282.2
201901250203,1282.2,1282.3,1282.1,1282.1
201901250204,1282.1,1282.1,1282,1282.1
201901250205,1282.1,1282.2,1281.9,1281.9
201901250206,1281.9,1282,1281.9,1281.9
201901250207,1281.9,1282,1281.9,1282
201901250208,1282,1282.1,1281.9,1281.9
201901250209,1281.9,1281.9,1281.7,1281.7
201901250210,1281.7,1281.8,1281.4,1281.4
201901250211,1281.4,1281.4,1281,1281.2
201901250212,1281.2,1281.3,1281.2,1281.3
201901250213,1281.3,1281.3,1280.7,1280.8
201901250214,1280.6,1280.8,1280.6,1280.7
201901250215,1280.7,1280.7,1280.3,1280.4
201901250216,1280.5,1280.5,1280.1,1280.3
201901250217,1280.3,1280.5,1280.3,1280.3
201901250218,1280.3,1280.6,1280.3,1280.5
201901250219,1280.5,1280.6,1280.2,1280.3
201901250220,1280.3,1280.5,1280.2,1280.5
201901250221,1280.5,1280.6,1280.3,1280.4
201901250222,1280.4,1280.6,1280.4,1280.6
201901250223,1280.6,1280.7,1280.3,1280.3
201901250224,1280.3,1280.5,1280.3,1280.5
201901250225,1280.5,1280.5,1280.4,1280.4
201901250226,1280.5,1280.7,1280.4,1280.6
201901250227,1280.7,1280.7,1280.6,1280.7
201901250228,1280.7,1280.7,1280.6,1280.6
201901250229,1280.6,1280.6,1280.3,1280.4
201901250230,1280.4,1280.6,1280.2,1280.5
201901250231,1280.5,1280.5,1280.3,1280.5
201901250232,1280.5,1280.7,1280.5,1280.7
201901250233,1280.7,1280.7,1280.6,1280.7
201901250234,1280.7,1280.7,1280.5,1280.5
201901250235,1280.5,1280.5,1280.3,1280.4
201901250236,1280.4,1280.4,1280.3,1280.3
201901250237,1280.3,1280.3,1280,1280.1
201901250238,1280.1,1280.2,1279.9,1280
201901250239,1280,1280,1279.9,1280
201901250240,1280,1280.2,1280,1280
201901250241,1279.9,1280.2,1279.9,1280.1
201901250242,1280.1,1280.3,1280.1,1280.3
201901250243,1280.3,1280.3,1280.1,1280.2
201901250244,1280.2,1280.3,1280.1,1280.1
201901250245,1280.1,1280.1,1280,1280
201901250246,1280,1280.1,1280,1280
201901250247,1280,1280.1,1280,1280
201901250248,1280,1280.2,1280,1280.2
201901250249,1280.2,1280.3,1280.2,1280.2
201901250250,1280.2,1280.3,1280.1,1280.3
201901250251,1280.3,1280.3,1280.2,1280.3
201901250252,1280.3,1280.5,1280.3,1280.4
201901250253,1280.4,1280.4,1280.2,1280.2
201901250254,1280.2,1280.3,1280.2,1280.3
201901250255,1280.3,1280.4,1280.2,1280.2
201901250256,1280.2,1280.2,1280,1280.1
201901250257,1280.1,1280.1,1280,1280
201901250258,1280,1280.1,1280,1280
201901250259,1280,1280.3,1280,1280.2
201901250300,1280.2,1280.2,1280,1280
201901250301,1280,1280,1279.6,1279.6
201901250302,1279.6,1280,1279.6,1280
201901250303,1280,1280.1,1279.8,1280.1
201901250304,1280.1,1280.4,1280.1,1280.4
201901250305,1280.4,1280.5,1280.2,1280.4
201901250306,1280.4,1280.5,1280.4,1280.4
201901250307,1280.4,1280.6,1280.4,1280.5
201901250308,1280.5,1280.8,1280.5,1280.8
201901250309,1280.8,1280.8,1280.6,1280.6
201901250310,1280.6,1280.6,1280.5,1280.6
201901250311,1280.6,1280.7,1280.5,1280.7
201901250312,1280.7,1281,1280.7,1280.8
201901250313,1280.8,1280.9,1280.7,1280.8
201901250314,1280.8,1280.8,1280.5,1280.7
201901250315,1280.7,1280.8,1280.6,1280.8
201901250316,1280.8,1281.3,1280.8,1281
201901250317,1281,1281,1280.9,1280.9
201901250318,1280.9,1281,1280.9,1280.9
201901250319,1280.9,1281,1280.8,1280.9
201901250320,1280.9,1281,1280.9,1280.9
201901250321,1280.9,1280.9,1280.7,1280.8
201901250322,1280.8,1280.9,1280.7,1280.8
201901250323,1280.8,1280.9,1280.8,1280.9
201901250324,1280.9,1280.9,1280.7,1280.9
201901250325,1280.9,1280.9,1280.7,1280.7
201901250326,1280.7,1280.9,1280.6,1280.9
201901250327,1280.9,1281,1280.9,1281
201901250328,1281,1281,1280.8,1280.9
201901250329,1280.9,1280.9,1280.5,1280.6
201901250330,1280.6,1280.9,1280.5,1280.9
201901250331,1280.9,1281,1280.7,1280.8
201901250332,1280.8,1280.8,1280.7,1280.7
201901250333,1280.7,1280.7,1280.6,1280.6
201901250334,1280.6,1280.8,1280.6,1280.7
201901250335,1280.7,1280.8,1280.6,1280.7
201901250336,1280.7,1280.7,1280.6,1280.6
201901250337,1280.6,1280.7,1280.3,1280.3
201901250338,1280.3,1280.7,1280.3,1280.7
201901250339,1280.7,1280.8,1280.7,1280.8
201901250340,1280.8,1280.8,1280.6,1280.7
201901250341,1280.7,1280.8,1280.6,1280.8
201901250342,1280.8,1280.8,1280.7,1280.8
201901250343,1280.8,1280.9,1280.6,1280.6
201901250344,1280.6,1280.6,1280.4,1280.4
201901250345,1280.4,1280.4,1280.2,1280.2
201901250346,1280.2,1280.3,1280.2,1280.2
201901250347,1280.3,1280.3,1280.2,1280.2
201901250348,1280.2,1280.3,1280.1,1280.3
201901250349,1280.3,1280.3,1280.1,1280.1
201901250350,1280.1,1280.2,1279.9,1280.2
201901250351,1280.2,1280.2,1280,1280
201901250352,1280,1280.1,1280,1280
201901250353,1280,1280.1,1279.9,1280.1
201901250354,1280.1,1280.1,1280,1280
201901250355,1280,1280,1280,1280
201901250356,1280,1280,1279.8,1279.8
201901250357,1279.8,1279.8,1279.4,1279.5
201901250358,1279.5,1279.8,1279.5,1279.7
201901250359,1279.7,1279.8,1279.7,1279.8
201901250400,1279.8,1279.9,1279.7,1279.9
201901250401,1279.9,1280.1,1279.9,1280
201901250402,1280,1280.1,1280,1280
201901250403,1280,1280.1,1279.9,1280
201901250404,1280,1280,1280,1280
201901250405,1280,1280,1279.8,1279.9
201901250406,1279.9,1279.9,1279.7,1279.9
201901250407,1279.9,1279.9,1279.7,1279.7
201901250408,1279.7,1279.7,1279.6,1279.7
201901250409,1279.7,1279.8,1279.7,1279.8
201901250410,1279.8,1279.8,1279.8,1279.8
201901250411,1279.8,1279.9,1279.7,1279.7
201901250412,1279.7,1279.7,1279.5,1279.6
201901250413,1279.6,1279.7,1279.6,1279.7
201901250414,1279.7,1279.7,1279.7,1279.7
201901250415,1279.7,1279.7,1279.7,1279.7
201901250416,1279.7,1279.9,1279.7,1279.9
201901250417,1279.9,1280,1279.9,1279.9
201901250418,1279.9,1279.9,1279.5,1279.5
201901250419,1279.5,1279.5,1279.4,1279.5
201901250420,1279.5,1279.5,1279.4,1279.4
201901250421,1279.4,1279.5,1279.4,1279.5
201901250422,1279.5,1279.5,1279.4,1279.5
201901250423,1279.4,1279.6,1279.4,1279.6
201901250424,1279.6,1279.7,1279.6,1279.6
201901250425,1279.6,1279.7,1279.5,1279.6
201901250426,1279.6,1279.6,1279.5,1279.5
201901250427,1279.5,1279.5,1279.5,1279.5
201901250428,1279.5,1279.6,1279.5,1279.6
201901250429,1279.6,1279.6,1279.4,1279.6
201901250430,1279.6,1279.8,1279.6,1279.8
201901250431,1279.8,1280,1279.8,1279.8
201901250432,1279.8,1279.8,1279.6,1279.7
201901250433,1279.7,1279.7,1279.7,1279.7
201901250434,1279.7,1279.7,1279.6,1279.6
201901250435,1279.6,1279.6,1279.5,1279.5
201901250436,1279.5,1279.6,1279.4,1279.4
201901250437,1279.4,1279.4,1279.3,1279.4
201901250438,1279.4,1279.7,1279.4,1279.7
201901250439,1279.7,1279.8,1279.7,1279.7
201901250440,1279.7,1279.8,1279.7,1279.7
201901250441,1279.7,1279.8,1279.6,1279.6
201901250442,1279.6,1279.6,1279.4,1279.5
201901250443,1279.5,1279.8,1279.5,1279.8
201901250444,1279.8,1279.8,1279.7,1279.7
201901250445,1279.7,1279.8,1279.7,1279.8
201901250446,1279.8,1280,1279.8,1280
201901250447,1280,1280,1279.7,1279.7
201901250448,1279.7,1279.8,1279.7,1279.8
201901250449,1279.8,1279.9,1279.7,1279.7
201901250450,1279.7,1279.8,1279.7,1279.8
201901250451,1279.8,1279.9,1279.7,1279.8
201901250452,1279.8,1280.1,1279.8,1280
201901250453,1280,1280.1,1280,1280
201901250454,1280,1280,1279.9,1280
201901250455,1280,1280,1279.9,1280
201901250456,1280,1280.1,1280,1280.1
201901250457,1280.1,1280.1,1280,1280
201901250458,1280,1280,1279.9,1279.9
201901250459,1279.9,1279.9,1279.8,1279.8
201901250500,1279.8,1280,1279.8,1279.9
201901250501,1279.9,1280,1279.9,1280
201901250502,1280,1280.1,1279.9,1280.1
201901250503,1280.1,1280.1,1280.1,1280.1
201901250504,1280.1,1280.1,1280.1,1280.1
201901250505,1280.1,1280.1,1280,1280.1
201901250506,1280.1,1280.1,1280,1280
201901250507,1280,1280.1,1280,1280
201901250508,1280,1280,1280,1280
201901250509,1280,1280,1280,1280
201901250510,1280,1280,1280,1280
201901250511,1280,1280,1279.8,1279.8
201901250512,1279.8,1279.8,1279.8,1279.8
201901250513,1279.8,1279.9,1279.8,1279.8
201901250514,1279.8,1279.9,1279.8,1279.9
201901250515,1279.9,1279.9,1279.9,1279.9
201901250516,1279.9,1280,1279.8,1280
201901250517,1280,1280,1279.9,1279.9
201901250518,1279.9,1280,1279.9,1280
201901250519,1280,1280,1280,1280
201901250520,1280,1280.1,1280,1280
201901250521,1280,1280,1279.9,1279.9
201901250522,1279.9,1280,1279.9,1280
201901250523,1280,1280,1280,1280
201901250524,1280,1280.1,1280,1280
201901250525,1280,1280.1,1280,1280.1
201901250526,1280,1280,1279.9,1280
201901250527,1280,1280,1280,1280
201901250528,1280,1280,1279.9,1280
201901250529,1280,1280,1279.9,1279.9
201901250530,1279.9,1280,1279.9,1280
201901250531,1280,1280.2,1280,1280.2
201901250532,1280.2,1280.3,1280.2,1280.3
201901250533,1280.3,1280.4,1280.3,1280.4
201901250534,1280.4,1280.5,1280.4,1280.4
201901250535,1280.4,1280.4,1280.3,1280.3
201901250536,1280.3,1280.4,1280.3,1280.3
201901250537,1280.3,1280.4,1280.3,1280.3
201901250538,1280.3,1280.5,1280.3,1280.5
201901250539,1280.4,1280.5,1280.4,1280.5
201901250540,1280.5,1280.5,1280.4,1280.5
201901250541,1280.5,1280.5,1280.5,1280.5
201901250542,1280.5,1280.5,1280.5,1280.5
201901250543,1280.5,1280.5,1280.5,1280.5
201901250544,1280.5,1280.5,1280.5,1280.5
201901250545,1280.5,1280.5,1280.4,1280.4
201901250546,1280.4,1280.4,1280.3,1280.3
201901250547,1280.3,1280.4,1280.3,1280.4
201901250548,1280.4,1280.5,1280.4,1280.5
201901250549,1280.5,1280.5,1280.4,1280.4
201901250550,1280.4,1280.5,1280.4,1280.5
201901250551,1280.5,1280.5,1280.4,1280.4
201901250552,1280.4,1280.4,1280.4,1280.4
201901250553,1280.4,1280.5,1280.4,1280.4
201901250554,1280.4,1280.5,1280.4,1280.5
201901250555,1280.4,1280.6,1280.4,1280.5
201901250556,1280.5,1280.7,1280.5,1280.7
201901250557,1280.7,1280.7,1280.6,1280.7
201901250558,1280.7,1280.7,1280.6,1280.6
201901250559,1280.6,1280.8,1280.6,1280.8
201901250600,1280.7,1281,1280.7,1281
201901250601,1281,1281,1280.9,1281
201901250602,1281,1281,1280.8,1280.8
201901250603,1280.8,1280.8,1280.8,1280.8
201901250604,1280.8,1280.8,1280.8,1280.8
201901250605,1280.8,1280.8,1280.7,1280.7
201901250606,1280.7,1280.7,1280.7,1280.7
201901250607,1280.7,1280.7,1280.7,1280.7
201901250608,1280.7,1280.7,1280.6,1280.7
201901250609,1280.7,1280.8,1280.7,1280.8
201901250610,1280.8,1280.9,1280.8,1280.9
201901250611,1280.9,1280.9,1280.8,1280.8
201901250612,1280.8,1280.8,1280.8,1280.8
201901250613,1280.8,1280.8,1280.8,1280.8
201901250614,1280.8,1280.8,1280.8,1280.8
201901250615,1280.8,1280.8,1280.8,1280.8
201901250616,1280.8,1280.8,1280.8,1280.8
201901250617,1280.8,1280.8,1280.8,1280.8
201901250618,1280.8,1280.8,1280.8,1280.8
201901250619,1280.8,1280.8,1280.8,1280.8
201901250620,1280.8,1280.8,1280.8,1280.8
201901250621,1280.8,1280.8,1280.8,1280.8
201901250622,1280.8,1280.8,1280.8,1280.8
201901250623,1280.8,1280.8,1280.8,1280.8
201901250624,1280.8,1280.8,1280.8,1280.8
201901250625,1280.8,1280.8,1280.8,1280.8
201901250626,1280.8,1280.8,1280.8,1280.8
201901250627,1280.8,1280.8,1280.8,1280.8
201901250628,1280.8,1280.8,1280.8,1280.8
201901250629,1280.8,1280.8,1280.8,1280.8
201901250630,1280.8,1280.8,1280.7,1280.7
201901250631,1280.7,1280.8,1280.5,1280.5
201901250632,1280.5,1280.6,1280.5,1280.6
201901250633,1280.6,1280.6,1280.5,1280.6
201901250634,1280.6,1280.6,1280.6,1280.6
201901250635,1280.6,1280.6,1280.6,1280.6
201901250636,1280.6,1280.6,1280.6,1280.6
201901250637,1280.6,1280.7,1280.6,1280.6
201901250638,1280.6,1280.7,1280.6,1280.7
201901250639,1280.7,1280.7,1280.6,1280.7
201901250640,1280.7,1280.7,1280.7,1280.7
201901250641,1280.7,1280.7,1280.7,1280.7
201901250642,1280.7,1280.7,1280.6,1280.6
201901250643,1280.6,1280.7,1280.6,1280.7
201901250644,1280.7,1280.7,1280.6,1280.7
201901250645,1280.7,1280.7,1280.7,1280.7
201901250646,1280.7,1280.7,1280.7,1280.7
201901250647,1280.7,1280.7,1280.7,1280.7
201901250648,1280.7,1280.7,1280.7,1280.7
201901250649,1280.7,1280.7,1280.7,1280.7
201901250650,1280.7,1280.8,1280.7,1280.8
201901250651,1280.8,1280.8,1280.7,1280.8
201901250652,1280.8,1280.8,1280.7,1280.7
201901250653,1280.7,1280.7,1280.7,1280.7
201901250654,1280.7,1280.7,1280.7,1280.7
201901250655,1280.7,1280.8,1280.7,1280.8
201901250656,1280.8,1280.8,1280.8,1280.8
201901250657,1280.8,1281,1280.8,1281
201901250658,1281,1281,1280.8,1280.9
201901250659,1280.9,1280.9,1280.8,1280.8
