日時,始値(BID),高値(BID),安値(BID),終値(BID)
201901100800,1293.4,1293.9,1293.1,1293.1
201901100801,1293.2,1293.3,1293,1293.1
201901100802,1293,1293.1,1292.9,1293
201901100803,1293,1293,1292.8,1292.9
201901100804,1292.9,1293,1292.8,1293
201901100805,1292.9,1293,1292.9,1292.9
201901100806,1292.9,1292.9,1292.8,1292.9
201901100807,1292.8,1292.9,1292.8,1292.8
201901100808,1292.8,1292.8,1292.8,1292.8
201901100809,1292.8,1292.8,1292.7,1292.8
201901100810,1292.8,1292.8,1292.8,1292.8
201901100811,1292.8,1292.8,1292.7,1292.7
201901100812,1292.7,1292.8,1292.7,1292.8
201901100813,1292.8,1292.8,1292.8,1292.8
201901100814,1292.8,1292.8,1292.8,1292.8
201901100815,1292.8,1292.8,1292.5,1292.5
201901100816,1292.5,1292.6,1292.5,1292.6
201901100817,1292.6,1292.6,1292.5,1292.5
201901100818,1292.5,1292.7,1292.5,1292.6
201901100819,1292.6,1292.7,1292.5,1292.5
201901100820,1292.5,1292.6,1292.5,1292.6
201901100821,1292.6,1292.6,1292.6,1292.6
201901100822,1292.6,1292.6,1292.6,1292.6
201901100823,1292.6,1292.6,1292.6,1292.6
201901100824,1292.6,1292.6,1292.4,1292.5
201901100825,1292.5,1292.6,1292.5,1292.5
201901100826,1292.6,1292.6,1292.4,1292.4
201901100827,1292.4,1292.5,1292.4,1292.5
201901100828,1292.5,1292.5,1292.4,1292.4
201901100829,1292.4,1292.5,1292.4,1292.5
201901100830,1292.5,1292.5,1292.5,1292.5
201901100831,1292.5,1292.5,1292.5,1292.5
201901100832,1292.5,1292.5,1292.5,1292.5
201901100833,1292.5,1292.6,1292.5,1292.6
201901100834,1292.6,1292.6,1292.5,1292.5
201901100835,1292.5,1292.7,1292.5,1292.6
201901100836,1292.6,1292.9,1292.6,1292.8
201901100837,1292.8,1292.9,1292.8,1292.9
201901100838,1292.9,1292.9,1292.8,1292.9
201901100839,1292.9,1292.9,1292.8,1292.9
201901100840,1292.8,1293,1292.8,1292.8
201901100841,1292.8,1293.2,1292.6,1293.2
201901100842,1293.2,1293.2,1293.1,1293.2
201901100843,1293.2,1293.2,1293,1293
201901100844,1293,1293,1292.9,1293
201901100845,1292.9,1293,1292.8,1292.8
201901100846,1292.9,1292.9,1292.8,1292.9
201901100847,1292.9,1292.9,1292.7,1292.8
201901100848,1292.8,1292.8,1292.8,1292.8
201901100849,1292.8,1292.8,1292.8,1292.8
201901100850,1292.8,1292.9,1292.8,1292.9
201901100851,1292.9,1293,1292.9,1292.9
201901100852,1292.9,1293,1292.8,1292.9
201901100853,1292.8,1292.8,1292.8,1292.8
201901100854,1292.8,1292.8,1292.7,1292.7
201901100855,1292.7,1292.8,1292.6,1292.7
201901100856,1292.7,1292.7,1292.7,1292.7
201901100857,1292.7,1292.8,1292.7,1292.8
201901100858,1292.8,1292.9,1292.8,1292.8
201901100859,1292.8,1292.8,1292.8,1292.8
201901100900,1292.8,1292.9,1292.8,1292.9
201901100901,1292.9,1293.4,1292.9,1293
201901100902,1293,1293.1,1293,1293
201901100903,1293,1293,1292.6,1292.6
201901100904,1292.6,1292.6,1292.5,1292.5
201901100905,1292.5,1292.6,1292,1292
201901100906,1292,1292.1,1291.9,1292
201901100907,1292,1292.1,1291.9,1292
201901100908,1292,1292.2,1292,1292
201901100909,1292,1292.2,1291.9,1292.2
201901100910,1292.1,1292.2,1292,1292
201901100911,1292.1,1292.2,1292.1,1292.1
201901100912,1292.1,1292.3,1292.1,1292.3
201901100913,1292.3,1292.4,1292.3,1292.3
201901100914,1292.3,1292.3,1292.2,1292.2
201901100915,1292.3,1292.5,1292.2,1292.4
201901100916,1292.5,1292.5,1292.2,1292.4
201901100917,1292.4,1292.5,1292.2,1292.3
201901100918,1292.4,1292.4,1292.3,1292.3
201901100919,1292.3,1292.4,1292.3,1292.3
201901100920,1292.3,1292.6,1292.3,1292.6
201901100921,1292.6,1292.6,1292.6,1292.6
201901100922,1292.6,1292.6,1292.4,1292.5
201901100923,1292.4,1292.5,1292.4,1292.5
201901100924,1292.5,1292.7,1292.5,1292.7
201901100925,1292.7,1292.9,1292.7,1292.8
201901100926,1292.8,1292.8,1292.6,1292.8
201901100927,1292.8,1292.8,1292.7,1292.7
201901100928,1292.7,1292.8,1292.6,1292.7
201901100929,1292.7,1292.8,1292.6,1292.7
201901100930,1292.7,1292.7,1292.7,1292.7
201901100931,1292.7,1292.8,1292.7,1292.7
201901100932,1292.7,1292.8,1292.7,1292.8
201901100933,1292.8,1292.8,1292.7,1292.7
201901100934,1292.7,1292.9,1292.6,1292.8
201901100935,1292.8,1292.9,1292.8,1292.8
201901100936,1292.8,1292.8,1292.7,1292.7
201901100937,1292.7,1292.7,1292.6,1292.6
201901100938,1292.6,1292.7,1292.5,1292.6
201901100939,1292.5,1292.7,1292.5,1292.7
201901100940,1292.7,1292.8,1292.7,1292.8
201901100941,1292.8,1292.8,1292.5,1292.6
201901100942,1292.6,1292.8,1292.6,1292.7
201901100943,1292.7,1292.8,1292.7,1292.8
201901100944,1292.8,1293,1292.8,1293
201901100945,1293,1293.1,1293,1293
201901100946,1293,1293.1,1293,1293.1
201901100947,1293.1,1293.3,1293.1,1293.3
201901100948,1293.3,1293.4,1293.2,1293.2
201901100949,1293.2,1293.3,1292.9,1292.9
201901100950,1292.9,1292.9,1292.8,1292.9
201901100951,1293,1293,1292.8,1292.8
201901100952,1292.8,1292.8,1292.8,1292.8
201901100953,1292.8,1292.8,1292.6,1292.7
201901100954,1292.7,1293,1292.6,1292.7
201901100955,1292.6,1292.7,1292.5,1292.6
201901100956,1292.6,1292.7,1292.6,1292.7
201901100957,1292.7,1293,1292.7,1292.9
201901100958,1292.9,1293.2,1292.9,1293
201901100959,1293,1293.1,1292.9,1293.1
201901101000,1293,1293.4,1292.8,1293.4
201901101001,1293.4,1293.5,1293.4,1293.5
201901101002,1293.5,1293.6,1293.2,1293.2
201901101003,1293.3,1293.4,1293,1293.2
201901101004,1293.2,1293.2,1293,1293.1
201901101005,1293.1,1293.2,1292.9,1293
201901101006,1293,1293.2,1292.9,1293.1
201901101007,1293,1293.1,1292.6,1292.8
201901101008,1292.8,1292.9,1292.6,1292.6
201901101009,1292.6,1292.8,1292.6,1292.7
201901101010,1292.7,1292.8,1292.6,1292.6
201901101011,1292.6,1292.6,1292.4,1292.6
201901101012,1292.6,1292.6,1292.3,1292.4
201901101013,1292.4,1292.6,1292.4,1292.4
201901101014,1292.4,1292.7,1292.4,1292.6
201901101015,1292.6,1292.8,1292.6,1292.8
201901101016,1292.8,1292.9,1292.7,1292.9
201901101017,1292.9,1293,1292.9,1292.9
201901101018,1292.9,1292.9,1292.8,1292.9
201901101019,1292.9,1292.9,1292.8,1292.8
201901101020,1292.8,1293.1,1292.8,1293
201901101021,1293,1293,1292.7,1292.7
201901101022,1292.7,1292.7,1292.5,1292.6
201901101023,1292.6,1292.7,1292.5,1292.5
201901101024,1292.5,1292.7,1292.1,1292.1
201901101025,1292.1,1292.2,1292,1292
201901101026,1292,1292.2,1292,1292.1
201901101027,1292.1,1292.1,1291.9,1291.9
201901101028,1291.9,1292.2,1291.9,1292.1
201901101029,1292.1,1292.2,1292.1,1292.2
201901101030,1292.2,1292.2,1291.6,1291.6
201901101031,1291.6,1291.9,1291.6,1291.7
201901101032,1291.8,1292,1291.7,1291.7
201901101033,1291.7,1291.7,1291.5,1291.5
201901101034,1291.5,1291.6,1291.5,1291.5
201901101035,1291.6,1291.8,1291.5,1291.8
201901101036,1291.8,1291.8,1291.7,1291.7
201901101037,1291.8,1291.9,1291.6,1291.9
201901101038,1291.9,1292.2,1291.9,1292.1
201901101039,1292.2,1292.3,1292.2,1292.3
201901101040,1292.3,1292.3,1292.3,1292.3
201901101041,1292.3,1292.5,1292.3,1292.3
201901101042,1292.3,1292.3,1292.2,1292.2
201901101043,1292.2,1292.3,1292.1,1292.3
201901101044,1292.3,1292.5,1292.2,1292.3
201901101045,1292.1,1292.3,1292.1,1292.2
201901101046,1292.3,1292.4,1292.2,1292.4
201901101047,1292.4,1292.8,1292.3,1292.7
201901101048,1292.8,1293,1292.7,1292.9
201901101049,1292.8,1293.1,1292.8,1293
201901101050,1293,1293,1292.9,1293
201901101051,1293,1293,1292.8,1292.8
201901101052,1292.7,1293,1292.7,1292.8
201901101053,1292.8,1292.9,1292.7,1292.9
201901101054,1292.8,1292.8,1292.5,1292.5
201901101055,1292.5,1292.6,1292.5,1292.6
201901101056,1292.6,1292.9,1292.5,1292.9
201901101057,1292.9,1292.9,1292.7,1292.7
201901101058,1292.7,1292.7,1292.5,1292.6
201901101059,1292.6,1292.6,1292.4,1292.4
201901101100,1292.4,1293,1292.4,1293
201901101101,1292.9,1293,1292.6,1292.6
201901101102,1292.6,1293,1292.6,1292.9
201901101103,1292.9,1293.1,1292.9,1293
201901101104,1293,1293.3,1293,1293.3
201901101105,1293.3,1293.3,1293.1,1293.1
201901101106,1293.2,1293.2,1293,1293
201901101107,1293,1293.1,1293,1293.1
201901101108,1293.1,1293.1,1293,1293.1
201901101109,1293.1,1293.3,1293.1,1293.3
201901101110,1293.3,1293.4,1293.2,1293.3
201901101111,1293.3,1293.4,1293.3,1293.4
201901101112,1293.4,1293.4,1293.3,1293.4
201901101113,1293.4,1293.5,1293.4,1293.5
201901101114,1293.5,1293.6,1293.5,1293.6
201901101115,1293.7,1293.8,1293.7,1293.8
201901101116,1293.8,1293.8,1293.6,1293.7
201901101117,1293.7,1293.7,1293.7,1293.7
201901101118,1293.6,1293.7,1293.6,1293.6
201901101119,1293.6,1293.8,1293.6,1293.8
201901101120,1293.8,1293.8,1293.8,1293.8
201901101121,1293.8,1293.8,1293.7,1293.7
201901101122,1293.7,1293.7,1293.7,1293.7
201901101123,1293.7,1293.7,1293.6,1293.6
201901101124,1293.6,1293.9,1293.6,1293.8
201901101125,1293.8,1293.8,1293.7,1293.7
201901101126,1293.7,1293.8,1293.6,1293.7
201901101127,1293.7,1293.7,1293.6,1293.7
201901101128,1293.7,1293.8,1293.7,1293.8
201901101129,1293.8,1293.8,1293.7,1293.7
201901101130,1293.7,1293.8,1293.7,1293.8
201901101131,1293.8,1293.8,1293.8,1293.8
201901101132,1293.8,1294,1293.8,1294
201901101133,1294,1294.4,1294,1294.4
201901101134,1294.4,1294.4,1294.1,1294.1
201901101135,1294.1,1294.1,1294.1,1294.1
201901101136,1294.1,1294.2,1294.1,1294.2
201901101137,1294.2,1294.6,1294.2,1294.6
201901101138,1294.5,1294.6,1294.5,1294.6
201901101139,1294.5,1294.6,1294.5,1294.5
201901101140,1294.5,1294.5,1294.2,1294.2
201901101141,1294.1,1294.2,1294.1,1294.2
201901101142,1294.2,1294.5,1294.2,1294.5
201901101143,1294.5,1294.5,1294.3,1294.5
201901101144,1294.5,1294.5,1294.5,1294.5
201901101145,1294.5,1294.5,1294.4,1294.5
201901101146,1294.5,1294.5,1294.3,1294.3
201901101147,1294.3,1294.5,1294.3,1294.5
201901101148,1294.5,1294.5,1294.4,1294.5
201901101149,1294.5,1294.7,1294.5,1294.5
201901101150,1294.6,1294.6,1294.4,1294.5
201901101151,1294.4,1294.5,1294.4,1294.5
201901101152,1294.5,1294.6,1294.5,1294.6
201901101153,1294.5,1294.5,1294.4,1294.5
201901101154,1294.5,1294.5,1294.4,1294.4
201901101155,1294.4,1294.5,1294.4,1294.5
201901101156,1294.5,1294.5,1294.5,1294.5
201901101157,1294.5,1294.6,1294.5,1294.6
201901101158,1294.6,1294.7,1294.6,1294.6
201901101159,1294.6,1294.7,1294.5,1294.5
201901101200,1294.6,1294.7,1294.6,1294.7
201901101201,1294.7,1294.8,1294.7,1294.7
201901101202,1294.7,1294.8,1294.7,1294.8
201901101203,1294.8,1294.9,1294.8,1294.9
201901101204,1294.9,1294.9,1294.6,1294.7
201901101205,1294.7,1294.9,1294.7,1294.8
201901101206,1294.8,1294.9,1294.7,1294.7
201901101207,1294.7,1294.8,1294.6,1294.8
201901101208,1294.8,1295.2,1294.8,1295.2
201901101209,1295.2,1295.4,1295.2,1295.4
201901101210,1295.3,1295.4,1295.2,1295.4
201901101211,1295.4,1296.1,1295.4,1296
201901101212,1296,1296.5,1296,1296
201901101213,1296,1296,1295.9,1295.9
201901101214,1295.9,1296,1295.9,1296
201901101215,1296.1,1296.3,1296.1,1296.2
201901101216,1296.2,1296.3,1296.2,1296.3
201901101217,1296.3,1296.3,1296.1,1296.1
201901101218,1296.1,1296.2,1296.1,1296.1
201901101219,1296.1,1296.4,1296.1,1296.3
201901101220,1296.3,1296.6,1296.3,1296.6
201901101221,1296.5,1296.6,1296.4,1296.5
201901101222,1296.4,1296.5,1296.3,1296.4
201901101223,1296.4,1296.4,1296.3,1296.4
201901101224,1296.4,1296.5,1296.3,1296.3
201901101225,1296.3,1296.3,1296.2,1296.3
201901101226,1296.3,1296.4,1296.2,1296.4
201901101227,1296.3,1296.3,1296.1,1296.1
201901101228,1296.1,1296.1,1296.1,1296.1
201901101229,1296.1,1296.1,1296,1296
201901101230,1296,1296.1,1296,1296.1
201901101231,1296.1,1296.3,1296.1,1296.2
201901101232,1296.2,1296.2,1296.1,1296.1
201901101233,1296.1,1296.3,1296.1,1296.3
201901101234,1296.3,1296.4,1296.3,1296.4
201901101235,1296.4,1296.7,1296.4,1296.7
201901101236,1296.7,1296.8,1296.6,1296.8
201901101237,1296.8,1296.9,1296.7,1296.7
201901101238,1296.7,1296.8,1296.6,1296.8
201901101239,1296.8,1296.8,1296.5,1296.6
201901101240,1296.6,1296.7,1296.6,1296.7
201901101241,1296.7,1296.9,1296.7,1296.9
201901101242,1296.9,1296.9,1296.6,1296.6
201901101243,1296.6,1296.7,1296.6,1296.7
201901101244,1296.7,1296.8,1296.7,1296.8
201901101245,1296.8,1296.8,1296.5,1296.6
201901101246,1296.6,1296.7,1296.6,1296.7
201901101247,1296.6,1296.6,1296.5,1296.5
201901101248,1296.5,1296.6,1296.5,1296.5
201901101249,1296.5,1296.7,1296.5,1296.6
201901101250,1296.6,1296.6,1296.5,1296.6
201901101251,1296.6,1296.6,1296.5,1296.5
201901101252,1296.5,1296.6,1296.5,1296.5
201901101253,1296.5,1296.8,1296.5,1296.7
201901101254,1296.7,1296.7,1296.5,1296.5
201901101255,1296.5,1296.5,1296.5,1296.5
201901101256,1296.5,1296.8,1296.5,1296.8
201901101257,1296.8,1296.9,1296.8,1296.8
201901101258,1296.8,1296.9,1296.8,1296.8
201901101259,1296.8,1296.8,1296.7,1296.8
201901101300,1296.8,1296.9,1296.6,1296.9
201901101301,1296.9,1296.9,1296.8,1296.8
201901101302,1296.8,1296.8,1296.7,1296.7
201901101303,1296.7,1296.7,1296.3,1296.4
201901101304,1296.4,1296.4,1296.2,1296.3
201901101305,1296.2,1296.2,1296.2,1296.2
201901101306,1296.2,1296.3,1296.1,1296.3
201901101307,1296.3,1296.3,1296.2,1296.3
201901101308,1296.3,1296.4,1296.3,1296.4
201901101309,1296.4,1296.5,1296.2,1296.5
201901101310,1296.5,1296.6,1296.3,1296.3
201901101311,1296.3,1296.3,1296.2,1296.3
201901101312,1296.3,1296.4,1296.3,1296.4
201901101313,1296.4,1296.4,1296.3,1296.3
201901101314,1296.3,1296.3,1296.2,1296.2
201901101315,1296.2,1296.2,1296.1,1296.2
201901101316,1296.2,1296.3,1296.1,1296.2
201901101317,1296.2,1296.4,1296.2,1296.3
201901101318,1296.3,1296.3,1296.2,1296.2
201901101319,1296.2,1296.3,1296.1,1296.3
201901101320,1296.3,1296.3,1296.2,1296.2
201901101321,1296.2,1296.2,1296.1,1296.1
201901101322,1296.1,1296.2,1296,1296.1
201901101323,1296.1,1296.2,1296.1,1296.1
201901101324,1296.1,1296.2,1296.1,1296.2
201901101325,1296.2,1296.2,1295.8,1296
201901101326,1295.9,1296,1295.9,1295.9
201901101327,1295.9,1296,1295.9,1295.9
201901101328,1295.9,1295.9,1295.8,1295.8
201901101329,1295.8,1295.9,1295.8,1295.9
201901101330,1295.9,1295.9,1295.7,1295.8
201901101331,1295.8,1295.8,1295.7,1295.7
201901101332,1295.7,1295.9,1295.7,1295.8
201901101333,1295.8,1295.8,1295.7,1295.8
201901101334,1295.8,1295.8,1295.7,1295.7
201901101335,1295.8,1295.8,1295.6,1295.6
201901101336,1295.6,1295.6,1295.6,1295.6
201901101337,1295.6,1295.6,1295.5,1295.6
201901101338,1295.6,1295.6,1295.5,1295.6
201901101339,1295.6,1295.6,1295.5,1295.5
201901101340,1295.5,1295.7,1295.5,1295.6
201901101341,1295.6,1295.7,1295.6,1295.7
201901101342,1295.7,1295.9,1295.7,1295.9
201901101343,1295.9,1296,1295.9,1295.9
201901101344,1295.9,1296,1295.9,1295.9
201901101345,1295.9,1296,1295.8,1295.8
201901101346,1295.8,1295.9,1295.7,1295.9
201901101347,1295.9,1295.9,1295.8,1295.8
201901101348,1295.8,1295.9,1295.8,1295.9
201901101349,1295.9,1295.9,1295.8,1295.8
201901101350,1295.8,1295.9,1295.8,1295.9
201901101351,1295.9,1295.9,1295.8,1295.8
201901101352,1295.8,1295.9,1295.8,1295.9
201901101353,1295.9,1295.9,1295.8,1295.8
201901101354,1295.8,1295.9,1295.8,1295.9
201901101355,1295.9,1295.9,1295.8,1295.9
201901101356,1295.9,1295.9,1295.8,1295.8
201901101357,1295.8,1295.9,1295.8,1295.8
201901101358,1295.8,1295.8,1295.7,1295.7
201901101359,1295.7,1295.7,1295.5,1295.6
201901101400,1295.6,1295.7,1295.5,1295.7
201901101401,1295.7,1295.7,1295.7,1295.7
201901101402,1295.8,1295.9,1295.8,1295.9
201901101403,1295.9,1295.9,1295.6,1295.6
201901101404,1295.7,1295.7,1295.6,1295.6
201901101405,1295.6,1295.6,1295.5,1295.5
201901101406,1295.5,1295.5,1295.5,1295.5
201901101407,1295.5,1295.5,1295.5,1295.5
201901101408,1295.5,1295.5,1295.5,1295.5
201901101409,1295.5,1295.5,1295.4,1295.5
201901101410,1295.5,1295.5,1295.4,1295.5
201901101411,1295.5,1295.5,1295.5,1295.5
201901101412,1295.5,1295.6,1295.5,1295.5
201901101413,1295.6,1295.6,1295.5,1295.5
201901101414,1295.5,1295.6,1295.5,1295.6
201901101415,1295.6,1295.7,1295.6,1295.7
201901101416,1295.7,1295.8,1295.7,1295.7
201901101417,1295.7,1295.8,1295.7,1295.8
201901101418,1295.8,1295.8,1295.8,1295.8
201901101419,1295.8,1295.9,1295.8,1295.9
201901101420,1295.9,1295.9,1295.9,1295.9
201901101421,1295.9,1295.9,1295.9,1295.9
201901101422,1295.9,1296,1295.7,1295.7
201901101423,1295.8,1295.8,1295.8,1295.8
201901101424,1295.9,1295.9,1295.8,1295.8
201901101425,1295.8,1295.8,1295.7,1295.7
201901101426,1295.7,1296.1,1295.6,1296.1
201901101427,1296,1296.3,1296,1296.3
201901101428,1296.3,1296.3,1296.1,1296.1
201901101429,1296.1,1296.2,1296,1296.2
201901101430,1296.3,1296.4,1296.3,1296.4
201901101431,1296.4,1296.6,1296.4,1296.5
201901101432,1296.5,1296.6,1296.4,1296.4
201901101433,1296.4,1296.5,1296.3,1296.4
201901101434,1296.4,1296.5,1296.4,1296.4
201901101435,1296.5,1296.7,1296.5,1296.6
201901101436,1296.6,1296.6,1296.6,1296.6
201901101437,1296.6,1296.7,1296.5,1296.6
201901101438,1296.5,1296.6,1296.3,1296.5
201901101439,1296.5,1296.6,1296.5,1296.5
201901101440,1296.5,1296.5,1296.3,1296.3
201901101441,1296.3,1296.3,1295.9,1295.9
201901101442,1296,1296,1295.9,1296
201901101443,1296,1296.2,1296,1296.2
201901101444,1296.2,1296.2,1296.2,1296.2
201901101445,1296.2,1296.3,1296.1,1296.2
201901101446,1296.2,1296.3,1296.1,1296.1
201901101447,1296.1,1296.1,1295.8,1295.8
201901101448,1295.9,1295.9,1295.6,1295.7
201901101449,1295.7,1295.8,1295.6,1295.8
201901101450,1295.8,1296.1,1295.8,1296
201901101451,1296,1296,1295.9,1296
201901101452,1296,1296.2,1296,1296.2
201901101453,1296.1,1296.2,1295.9,1295.9
201901101454,1295.9,1295.9,1295.8,1295.8
201901101455,1295.8,1295.8,1295.6,1295.6
201901101456,1295.6,1295.9,1295.6,1295.8
201901101457,1295.8,1295.9,1295.8,1295.8
201901101458,1295.8,1295.9,1295.8,1295.9
201901101459,1295.9,1296.1,1295.9,1296.1
201901101500,1296.1,1296.4,1296.1,1296.3
201901101501,1296.4,1296.4,1296.3,1296.3
201901101502,1296.4,1296.5,1296.3,1296.4
201901101503,1296.4,1296.4,1296.2,1296.2
201901101504,1296.2,1296.5,1296.2,1296.5
201901101505,1296.5,1296.5,1296.4,1296.5
201901101506,1296.5,1296.6,1296.5,1296.6
201901101507,1296.6,1296.6,1296.4,1296.4
201901101508,1296.4,1296.5,1295.9,1295.9
201901101509,1295.9,1296,1295.8,1295.8
201901101510,1295.8,1295.9,1295.8,1295.9
201901101511,1295.9,1295.9,1295.8,1295.8
201901101512,1295.8,1295.9,1295.8,1295.8
201901101513,1295.8,1295.9,1295.8,1295.8
201901101514,1295.8,1295.8,1295.7,1295.8
201901101515,1295.8,1295.8,1295.7,1295.7
201901101516,1295.7,1295.7,1295.7,1295.7
201901101517,1295.7,1295.8,1295.7,1295.8
201901101518,1295.8,1295.8,1295.7,1295.8
201901101519,1295.8,1295.9,1295.6,1295.6
201901101520,1295.6,1295.6,1295.6,1295.6
201901101521,1295.6,1295.6,1295.2,1295.2
201901101522,1295.2,1295.2,1294.7,1294.8
201901101523,1294.8,1294.9,1294.7,1294.8
201901101524,1294.8,1294.9,1294.8,1294.8
201901101525,1294.8,1295.1,1294.8,1295.1
201901101526,1295.1,1295.3,1295.1,1295.3
201901101527,1295.3,1295.3,1295.2,1295.2
201901101528,1295.1,1295.2,1295,1295.2
201901101529,1295.2,1295.2,1295.1,1295.1
201901101530,1295.2,1295.2,1295.1,1295.1
201901101531,1295.1,1295.1,1294.8,1294.8
201901101532,1294.8,1294.9,1294.8,1294.8
201901101533,1294.8,1295.1,1294.8,1295.1
201901101534,1295.1,1295.5,1295.1,1295.4
201901101535,1295.4,1295.7,1295.4,1295.7
201901101536,1295.6,1295.9,1295.6,1295.8
201901101537,1295.8,1295.9,1295.7,1295.7
201901101538,1295.7,1295.7,1295.6,1295.6
201901101539,1295.6,1295.7,1295.5,1295.5
201901101540,1295.5,1295.6,1295.5,1295.5
201901101541,1295.5,1295.5,1295.1,1295.2
201901101542,1295.2,1295.4,1295.2,1295.2
201901101543,1295.2,1295.2,1295.1,1295.1
201901101544,1295.1,1295.2,1295.1,1295.2
201901101545,1295.2,1295.3,1295.1,1295.1
201901101546,1295.1,1295.1,1295,1295
201901101547,1295,1295,1294.9,1294.9
201901101548,1294.9,1295,1294.9,1295
201901101549,1294.9,1295.5,1294.8,1295.5
201901101550,1295.5,1295.5,1295.4,1295.4
201901101551,1295.4,1295.4,1295.3,1295.4
201901101552,1295.4,1295.5,1295.4,1295.4
201901101553,1295.4,1295.5,1295.4,1295.4
201901101554,1295.4,1295.6,1295.4,1295.6
201901101555,1295.6,1295.6,1295.3,1295.3
201901101556,1295.3,1295.4,1295.3,1295.3
201901101557,1295.3,1295.3,1295.3,1295.3
201901101558,1295.3,1295.4,1295.3,1295.3
201901101559,1295.3,1295.3,1295.1,1295.1
201901101600,1295.1,1295.3,1295.1,1295.3
201901101601,1295.3,1295.4,1295.3,1295.3
201901101602,1295.3,1295.4,1295.1,1295.2
201901101603,1295.2,1295.2,1295,1295
201901101604,1295,1295.2,1294.9,1295
201901101605,1295,1295.3,1295,1295.2
201901101606,1295.2,1295.3,1294.9,1295.2
201901101607,1295.3,1295.4,1295.2,1295.4
201901101608,1295.4,1295.6,1295.4,1295.6
201901101609,1295.7,1295.8,1295.5,1295.5
201901101610,1295.5,1295.7,1295.5,1295.7
201901101611,1295.7,1295.9,1295.6,1295.6
201901101612,1295.5,1295.5,1295.2,1295.4
201901101613,1295.4,1295.4,1295.2,1295.3
201901101614,1295.4,1295.6,1295.3,1295.6
201901101615,1295.6,1295.9,1295.6,1295.7
201901101616,1295.7,1295.9,1295.7,1295.9
201901101617,1295.9,1296.3,1295.8,1296
201901101618,1296,1296.1,1296,1296
201901101619,1296,1296.2,1296,1296.2
201901101620,1296.2,1296.2,1296,1296
201901101621,1296,1296,1295.8,1295.8
201901101622,1295.8,1295.8,1295.6,1295.6
201901101623,1295.6,1295.8,1295.6,1295.7
201901101624,1295.7,1295.7,1295.5,1295.6
201901101625,1295.6,1295.7,1295.5,1295.5
201901101626,1295.6,1295.8,1295.5,1295.7
201901101627,1295.6,1295.7,1295.5,1295.5
201901101628,1295.5,1295.6,1295.5,1295.5
201901101629,1295.5,1295.8,1295.4,1295.8
201901101630,1295.8,1295.8,1295.6,1295.7
201901101631,1295.7,1295.8,1295.7,1295.7
201901101632,1295.7,1296.1,1295.6,1295.8
201901101633,1295.8,1296.1,1295.7,1296.1
201901101634,1296.1,1296.1,1296,1296
201901101635,1296,1296.2,1296,1296.2
201901101636,1296.2,1296.2,1296.1,1296.2
201901101637,1296.2,1296.2,1296,1296
201901101638,1296,1296.2,1296,1296.1
201901101639,1296.1,1296.1,1296,1296
201901101640,1296,1296,1296,1296
201901101641,1296,1296,1296,1296
201901101642,1296,1296,1295.8,1295.8
201901101643,1295.8,1295.9,1295.7,1295.8
201901101644,1295.9,1296.2,1295.7,1296.2
201901101645,1296.2,1296.4,1296.1,1296.1
201901101646,1296.1,1296.1,1296.1,1296.1
201901101647,1296.1,1296.1,1296,1296
201901101648,1296,1296,1296,1296
201901101649,1296,1296.1,1295.7,1295.7
201901101650,1295.7,1295.7,1295.4,1295.4
201901101651,1295.4,1295.4,1294.9,1294.9
201901101652,1295.1,1295.3,1295,1295.3
201901101653,1295.3,1295.3,1295,1295.2
201901101654,1295.2,1295.3,1295.2,1295.3
201901101655,1295.3,1295.3,1295.1,1295.1
201901101656,1295.2,1295.2,1295,1295.1
201901101657,1295.1,1295.3,1295,1295.2
201901101658,1295.2,1295.4,1295.2,1295.3
201901101659,1295.3,1295.4,1295.3,1295.4
201901101700,1295.4,1295.4,1295.1,1295.1
201901101701,1295.1,1295.7,1295.1,1295.7
201901101702,1295.7,1295.7,1295.4,1295.4
201901101703,1295.5,1295.6,1295.4,1295.6
201901101704,1295.6,1296,1295.6,1296
201901101705,1296,1296,1295.7,1295.9
201901101706,1295.8,1295.8,1295.7,1295.8
201901101707,1295.7,1296,1295.7,1296
201901101708,1296,1296.2,1296,1296.1
201901101709,1296.1,1296.3,1296.1,1296.2
201901101710,1296.2,1296.3,1296.1,1296.1
201901101711,1296.1,1296.2,1296.1,1296.2
201901101712,1296.2,1296.3,1296.1,1296.3
201901101713,1296.3,1296.6,1295.9,1296
201901101714,1296,1296.2,1296,1296.2
201901101715,1296.2,1296.6,1296.2,1296.5
201901101716,1296.6,1296.7,1296.5,1296.6
201901101717,1296.6,1296.6,1296.4,1296.6
201901101718,1296.5,1296.7,1296.2,1296.4
201901101719,1296.4,1296.6,1296.3,1296.5
201901101720,1296.6,1296.7,1296.5,1296.7
201901101721,1296.7,1296.8,1296.6,1296.6
201901101722,1296.6,1296.6,1296.3,1296.5
201901101723,1296.5,1296.5,1296.3,1296.5
201901101724,1296.5,1296.7,1296.5,1296.6
201901101725,1296.6,1296.6,1296.5,1296.6
201901101726,1296.6,1296.6,1296.4,1296.4
201901101727,1296.4,1296.4,1296.1,1296.1
201901101728,1296.1,1296.1,1296,1296
201901101729,1296,1296,1295.7,1295.7
201901101730,1295.7,1295.7,1295.4,1295.5
201901101731,1295.6,1295.8,1295.6,1295.8
201901101732,1295.8,1295.9,1295.7,1295.7
201901101733,1295.8,1295.9,1295.7,1295.8
201901101734,1295.8,1296,1295.7,1295.9
201901101735,1295.9,1296.1,1295.9,1296
201901101736,1296,1296.2,1296,1296.2
201901101737,1296.2,1296.2,1296,1296
201901101738,1296,1296.1,1296,1296
201901101739,1296,1296,1295.9,1295.9
201901101740,1296,1296,1295.9,1295.9
201901101741,1295.9,1296.2,1295.9,1296.1
201901101742,1296.1,1296.2,1296.1,1296.2
201901101743,1296.2,1296.4,1296.2,1296.4
201901101744,1296.4,1296.4,1296.3,1296.3
201901101745,1296.3,1296.4,1296.3,1296.4
201901101746,1296.4,1296.4,1296.2,1296.4
201901101747,1296.3,1296.4,1296.3,1296.3
201901101748,1296.3,1296.3,1296,1296
201901101749,1296.1,1296.1,1296,1296
201901101750,1296,1296,1295.7,1295.7
201901101751,1295.7,1295.9,1295.7,1295.7
201901101752,1295.7,1295.7,1295.3,1295.5
201901101753,1295.5,1295.5,1295.3,1295.4
201901101754,1295.4,1295.5,1295.2,1295.5
201901101755,1295.5,1295.5,1295.4,1295.4
201901101756,1295.4,1295.5,1295.3,1295.4
201901101757,1295.4,1295.4,1295.3,1295.4
201901101758,1295.4,1295.4,1294.5,1294.8
201901101759,1294.8,1294.8,1294.3,1294.4
201901101800,1294.4,1294.6,1294.2,1294.2
201901101801,1294.1,1294.3,1293.9,1293.9
201901101802,1293.9,1294.3,1293.9,1294.1
201901101803,1294.1,1294.3,1294.1,1294.2
201901101804,1294.2,1294.3,1294,1294.1
201901101805,1294.1,1294.1,1294,1294.1
201901101806,1294.1,1294.2,1294.1,1294.2
201901101807,1294.2,1294.3,1294.2,1294.3
201901101808,1294.3,1294.3,1294.2,1294.2
201901101809,1294.2,1294.2,1294,1294
201901101810,1294,1294,1293.4,1293.5
201901101811,1293.5,1293.6,1293.3,1293.4
201901101812,1293.4,1293.9,1293.4,1293.7
201901101813,1293.7,1293.9,1293.6,1293.7
201901101814,1293.7,1293.7,1293.2,1293.2
201901101815,1293.3,1293.3,1291.9,1292
201901101816,1292,1292.7,1291.9,1292.5
201901101817,1292.6,1292.8,1292.5,1292.7
201901101818,1292.6,1292.7,1292.5,1292.7
201901101819,1292.7,1292.9,1292.7,1292.9
201901101820,1292.9,1292.9,1292.5,1292.6
201901101821,1292.7,1293.1,1292.7,1293
201901101822,1293.1,1293.1,1293,1293.1
201901101823,1293.1,1293.1,1293,1293.1
201901101824,1293.1,1293.1,1292.8,1292.8
201901101825,1292.9,1292.9,1292.8,1292.9
201901101826,1293,1293.2,1292.8,1292.9
201901101827,1292.9,1293.1,1292.8,1293
201901101828,1293,1293.1,1292.8,1292.8
201901101829,1292.8,1292.8,1292.4,1292.7
201901101830,1292.7,1292.9,1292.7,1292.9
201901101831,1292.9,1293.2,1292.9,1293.2
201901101832,1293.2,1293.2,1293.1,1293.1
201901101833,1293.1,1293.2,1293,1293.1
201901101834,1293.2,1293.3,1293.2,1293.3
201901101835,1293.2,1293.2,1293,1293.1
201901101836,1293.2,1293.3,1292.9,1293
201901101837,1293,1293.2,1293,1293.1
201901101838,1293.2,1293.3,1293.1,1293.2
201901101839,1293.2,1293.3,1293.2,1293.2
201901101840,1293.2,1293.3,1293.2,1293.2
201901101841,1293.2,1293.3,1293.2,1293.2
201901101842,1293.1,1293.2,1292.9,1293
201901101843,1293,1293,1292.9,1292.9
201901101844,1292.9,1293,1292.9,1293
201901101845,1293,1293,1292.7,1292.7
201901101846,1292.7,1292.7,1292.5,1292.5
201901101847,1292.5,1292.6,1292.2,1292.4
201901101848,1292.4,1292.8,1292.4,1292.8
201901101849,1292.9,1292.9,1292.5,1292.6
201901101850,1292.6,1292.6,1292.5,1292.6
201901101851,1292.6,1292.8,1292.6,1292.8
201901101852,1292.8,1292.9,1292.8,1292.9
201901101853,1292.8,1292.9,1292.7,1292.7
201901101854,1292.7,1292.7,1292.7,1292.7
201901101855,1292.7,1292.9,1292.7,1292.7
201901101856,1292.7,1292.7,1292.6,1292.6
201901101857,1292.6,1292.7,1292.6,1292.7
201901101858,1292.7,1292.7,1292.6,1292.6
201901101859,1292.6,1292.9,1292.6,1292.9
201901101900,1292.9,1292.9,1292.5,1292.6
201901101901,1292.5,1292.6,1292.5,1292.6
201901101902,1292.6,1292.7,1292.6,1292.6
201901101903,1292.6,1292.8,1292.5,1292.6
201901101904,1292.6,1292.6,1292.3,1292.3
201901101905,1292.4,1292.7,1292.3,1292.4
201901101906,1292.5,1292.6,1292.4,1292.5
201901101907,1292.4,1292.6,1292.4,1292.5
201901101908,1292.5,1292.5,1292.5,1292.5
201901101909,1292.5,1292.8,1292.5,1292.7
201901101910,1292.7,1292.8,1292.6,1292.7
201901101911,1292.7,1292.8,1292.6,1292.8
201901101912,1292.8,1292.8,1292.7,1292.7
201901101913,1292.7,1292.7,1292.7,1292.7
201901101914,1292.7,1292.8,1292.7,1292.7
201901101915,1292.7,1292.7,1292.3,1292.4
201901101916,1292.4,1292.4,1292.1,1292.2
201901101917,1292.2,1292.2,1291.9,1292
201901101918,1292,1292.1,1292,1292.1
201901101919,1292.1,1292.4,1292.1,1292.3
201901101920,1292.3,1292.3,1292.1,1292.2
201901101921,1292.2,1292.2,1292.1,1292.2
201901101922,1292.2,1292.3,1292.1,1292.1
201901101923,1292.1,1292.3,1291.9,1292.2
201901101924,1292.2,1292.2,1291.9,1292.1
201901101925,1292.1,1292.2,1292.1,1292.2
201901101926,1292.2,1292.3,1292.2,1292.2
201901101927,1292.2,1292.4,1292.2,1292.4
201901101928,1292.4,1292.4,1292,1292
201901101929,1292,1292.1,1291.5,1291.5
201901101930,1291.6,1292.1,1291.6,1292
201901101931,1292,1292.3,1292,1292.1
201901101932,1292.1,1292.3,1292.1,1292.2
201901101933,1292.2,1292.2,1292.1,1292.2
201901101934,1292.2,1292.3,1292.2,1292.3
201901101935,1292.3,1292.3,1292.2,1292.2
201901101936,1292.2,1292.2,1292.1,1292.2
201901101937,1292.2,1292.2,1292.2,1292.2
201901101938,1292.2,1292.2,1292.1,1292.1
201901101939,1292.1,1292.1,1291.9,1291.9
201901101940,1291.9,1291.9,1291.8,1291.8
201901101941,1291.8,1292,1291.8,1292
201901101942,1292,1292,1291.9,1292
201901101943,1292,1292.2,1292,1292.2
201901101944,1292.2,1292.2,1292.2,1292.2
201901101945,1292.2,1292.2,1292.1,1292.2
201901101946,1292.2,1292.2,1292.2,1292.2
201901101947,1292.2,1292.2,1292.1,1292.1
201901101948,1292.1,1292.2,1292,1292.1
201901101949,1292.1,1292.2,1292.1,1292.2
201901101950,1292.2,1292.3,1292.2,1292.3
201901101951,1292.3,1292.5,1292.3,1292.5
201901101952,1292.5,1292.5,1292.4,1292.4
201901101953,1292.4,1292.7,1292.4,1292.5
201901101954,1292.5,1292.6,1292.4,1292.5
201901101955,1292.5,1292.6,1292.5,1292.6
201901101956,1292.6,1292.7,1292.6,1292.7
201901101957,1292.7,1292.8,1292.7,1292.8
201901101958,1292.9,1293.2,1292.8,1293
201901101959,1293,1293,1292.8,1292.9
201901102000,1292.8,1292.9,1292.7,1292.9
201901102001,1292.9,1293.1,1292.9,1293.1
201901102002,1293.1,1293.1,1293,1293.1
201901102003,1293.1,1293.2,1293,1293.2
201901102004,1293.2,1293.2,1293.1,1293.2
201901102005,1293.1,1293.1,1292.9,1292.9
201901102006,1292.9,1293.2,1292.9,1293.2
201901102007,1293.2,1293.3,1293.1,1293.3
201901102008,1293.2,1293.3,1293.2,1293.3
201901102009,1293.3,1293.5,1293.2,1293.3
201901102010,1293.3,1293.3,1293.1,1293.1
201901102011,1293.1,1293.3,1293.1,1293.2
201901102012,1293.2,1293.2,1293.1,1293.1
201901102013,1293.1,1293.3,1293,1293.2
201901102014,1293.2,1293.3,1293.2,1293.2
201901102015,1293.2,1293.3,1293.2,1293.3
201901102016,1293.3,1293.3,1293.2,1293.3
201901102017,1293.3,1293.3,1293.3,1293.3
201901102018,1293.3,1293.5,1293.3,1293.5
201901102019,1293.5,1293.7,1293.4,1293.7
201901102020,1293.7,1294,1293.7,1294
201901102021,1294,1294.1,1293.9,1293.9
201901102022,1293.9,1294,1293.8,1293.9
201901102023,1293.9,1294.1,1293.9,1293.9
201901102024,1293.9,1294.1,1293.9,1294.1
201901102025,1294.1,1294.2,1294.1,1294.1
201901102026,1294.1,1294.1,1294.1,1294.1
201901102027,1294.1,1294.1,1293.8,1293.8
201901102028,1293.8,1293.8,1293.7,1293.7
201901102029,1293.7,1293.7,1293.6,1293.6
201901102030,1293.6,1293.9,1293.6,1293.6
201901102031,1293.7,1293.7,1293.5,1293.6
201901102032,1293.6,1293.7,1293.4,1293.5
201901102033,1293.5,1293.6,1293.4,1293.6
201901102034,1293.6,1293.6,1293.4,1293.4
201901102035,1293.4,1293.4,1293.3,1293.4
201901102036,1293.4,1293.6,1293.4,1293.6
201901102037,1293.6,1293.6,1293.5,1293.6
201901102038,1293.6,1293.6,1293.5,1293.6
201901102039,1293.5,1293.6,1293.5,1293.6
201901102040,1293.6,1293.6,1293.4,1293.5
201901102041,1293.5,1293.6,1293.5,1293.5
201901102042,1293.5,1293.5,1293.3,1293.3
201901102043,1293.3,1293.3,1293.1,1293.2
201901102044,1293.2,1293.2,1293.2,1293.2
201901102045,1293.2,1293.2,1292.9,1293
201901102046,1293,1293,1292.9,1292.9
201901102047,1292.9,1293,1292.8,1293
201901102048,1293,1293.1,1293,1293
201901102049,1293,1293.1,1293,1293.1
201901102050,1293.1,1293.3,1293,1293.3
201901102051,1293.3,1293.3,1293.3,1293.3
201901102052,1293.3,1293.3,1293.3,1293.3
201901102053,1293.3,1293.4,1293.2,1293.2
201901102054,1293.2,1293.2,1292.9,1293
201901102055,1293,1293,1292.9,1293
201901102056,1293,1293,1292.9,1292.9
201901102057,1292.9,1292.9,1292.8,1292.9
201901102058,1292.9,1293,1292.8,1292.9
201901102059,1292.9,1292.9,1292.9,1292.9
201901102100,1292.9,1293,1292.7,1292.8
201901102101,1292.8,1293,1292.8,1292.8
201901102102,1292.8,1292.8,1292.4,1292.4
201901102103,1292.4,1292.6,1292.4,1292.5
201901102104,1292.5,1292.6,1292.5,1292.6
201901102105,1292.6,1292.8,1292.6,1292.8
201901102106,1292.8,1293,1292.8,1293
201901102107,1293,1293.1,1292.9,1293
201901102108,1293,1293.1,1293,1293.1
201901102109,1293.1,1293.4,1293.1,1293.4
201901102110,1293.4,1293.4,1293,1293.1
201901102111,1293.2,1293.4,1293.2,1293.3
201901102112,1293.3,1293.5,1293.3,1293.5
201901102113,1293.5,1293.8,1293.5,1293.7
201901102114,1293.7,1293.7,1293.5,1293.5
201901102115,1293.5,1293.5,1293.3,1293.5
201901102116,1293.5,1293.5,1293,1293.2
201901102117,1293.2,1293.2,1293.1,1293.2
201901102118,1293.2,1293.2,1293.2,1293.2
201901102119,1293.2,1293.2,1293.1,1293.2
201901102120,1293.2,1293.2,1292.9,1293
201901102121,1293,1293,1292.9,1292.9
201901102122,1292.9,1293.2,1292.9,1293.1
201901102123,1293.1,1293.2,1293.1,1293.2
201901102124,1293.2,1293.2,1293.1,1293.2
201901102125,1293.2,1293.2,1293,1293.2
201901102126,1293.2,1293.3,1293.2,1293.2
201901102127,1293.2,1293.2,1293.2,1293.2
201901102128,1293.2,1293.2,1293,1293.1
201901102129,1293.1,1293.1,1292.9,1292.9
201901102130,1292.9,1293.2,1292.9,1293.2
201901102131,1293.2,1293.4,1293.2,1293.4
201901102132,1293.4,1293.4,1293.3,1293.4
201901102133,1293.4,1293.4,1293.1,1293.1
201901102134,1293,1293.1,1292.9,1293
201901102135,1293,1293.1,1293,1293.1
201901102136,1293.1,1293.1,1293,1293.1
201901102137,1293.1,1293.2,1293,1293.2
201901102138,1293.2,1293.3,1293.1,1293.3
201901102139,1293.3,1293.4,1293.2,1293.4
201901102140,1293.4,1293.4,1293.3,1293.4
201901102141,1293.4,1293.4,1293.3,1293.3
201901102142,1293.3,1293.3,1293.2,1293.3
201901102143,1293.3,1293.3,1293.2,1293.3
201901102144,1293.3,1293.3,1293.3,1293.3
201901102145,1293.3,1293.4,1293.2,1293.4
201901102146,1293.4,1293.4,1293.2,1293.2
201901102147,1293.2,1293.2,1293.1,1293.1
201901102148,1293.1,1293.4,1293.1,1293.4
201901102149,1293.4,1293.5,1293.3,1293.5
201901102150,1293.5,1293.5,1293.4,1293.5
201901102151,1293.5,1293.5,1293.4,1293.5
201901102152,1293.5,1293.6,1293.4,1293.6
201901102153,1293.6,1293.6,1293.3,1293.3
201901102154,1293.3,1293.6,1293.3,1293.6
201901102155,1293.6,1293.7,1293.6,1293.6
201901102156,1293.6,1293.7,1293.5,1293.5
201901102157,1293.5,1293.5,1293.1,1293.2
201901102158,1293.2,1293.6,1293.2,1293.6
201901102159,1293.6,1293.8,1293.5,1293.8
201901102200,1293.8,1294,1293.7,1293.9
201901102201,1293.9,1294.4,1293.6,1294.4
201901102202,1294.5,1294.5,1293.8,1293.9
201901102203,1294,1294,1293.6,1293.9
201901102204,1293.9,1294,1293.8,1294
201901102205,1294,1294,1293.9,1293.9
201901102206,1293.9,1294.2,1293.9,1294.2
201901102207,1294.2,1294.3,1294.1,1294.2
201901102208,1294.2,1294.3,1294.1,1294.2
201901102209,1294.2,1294.3,1293.8,1294
201901102210,1294,1294.1,1294,1294
201901102211,1294,1294.2,1294,1294.1
201901102212,1294.1,1294.1,1293.8,1293.8
201901102213,1293.8,1293.8,1293.6,1293.7
201901102214,1293.7,1293.9,1293.7,1293.7
201901102215,1293.8,1293.8,1293.2,1293.2
201901102216,1293.3,1293.3,1292.7,1292.7
201901102217,1292.7,1292.8,1292.6,1292.6
201901102218,1292.6,1293.2,1292.6,1293
201901102219,1293.1,1293.3,1293,1293.3
201901102220,1293.3,1293.3,1292.9,1293.2
201901102221,1293.2,1293.2,1292.9,1292.9
201901102222,1292.9,1293.1,1292.7,1293
201901102223,1293,1293.1,1292.9,1293
201901102224,1293,1293,1292.6,1292.7
201901102225,1292.7,1292.9,1292.7,1292.8
201901102226,1292.8,1292.8,1292.7,1292.8
201901102227,1292.8,1292.8,1292.7,1292.7
201901102228,1292.7,1292.7,1292.3,1292.4
201901102229,1292.4,1292.6,1292.4,1292.6
201901102230,1292.6,1292.6,1292.1,1292.1
201901102231,1292.1,1292.1,1291.8,1292
201901102232,1292,1292,1291.6,1291.7
201901102233,1291.6,1291.7,1291.5,1291.5
201901102234,1291.5,1292,1291.4,1291.7
201901102235,1291.6,1292.1,1291.6,1292
201901102236,1292.1,1292.2,1291.8,1292.2
201901102237,1292.2,1292.5,1292.2,1292.2
201901102238,1292.3,1292.3,1291.8,1291.9
201901102239,1291.9,1292,1291.7,1291.8
201901102240,1291.9,1292,1291.8,1291.9
201901102241,1291.9,1292.1,1291.9,1292.1
201901102242,1292.1,1292.2,1291.8,1291.9
201901102243,1291.9,1292,1291.8,1291.8
201901102244,1291.8,1291.9,1291.7,1291.7
201901102245,1291.6,1291.6,1291.4,1291.5
201901102246,1291.5,1291.5,1291.1,1291.1
201901102247,1291,1291,1290.6,1291
201901102248,1291,1291.5,1291,1291.4
201901102249,1291.4,1291.6,1291.3,1291.6
201901102250,1291.6,1291.6,1291.3,1291.3
201901102251,1291.2,1291.3,1291.1,1291.2
201901102252,1291.2,1291.4,1291.1,1291.2
201901102253,1291.3,1291.4,1291.2,1291.3
201901102254,1291.3,1291.4,1291.1,1291.4
201901102255,1291.4,1291.4,1290.8,1290.8
201901102256,1290.8,1290.9,1290.7,1290.9
201901102257,1290.8,1290.8,1289.9,1289.9
201901102258,1289.9,1290.2,1289.9,1290
201901102259,1290,1290,1289.7,1289.8
201901102300,1289.7,1289.9,1289.1,1289.1
201901102301,1289.3,1289.6,1289.2,1289.3
201901102302,1289.4,1290.1,1289.4,1290.1
201901102303,1290.1,1290.3,1290.1,1290.2
201901102304,1290.2,1290.2,1289.5,1289.5
201901102305,1289.5,1289.9,1289.4,1289.9
201901102306,1289.9,1290.2,1289.7,1290.2
201901102307,1290.2,1290.2,1289.9,1290.1
201901102308,1290.1,1290.2,1290,1290.1
201901102309,1290,1290.4,1290,1290.2
201901102310,1290.2,1290.7,1290.2,1290.7
201901102311,1290.7,1290.7,1290.4,1290.6
201901102312,1290.7,1290.8,1290.4,1290.8
201901102313,1290.8,1290.9,1290.6,1290.7
201901102314,1290.7,1290.9,1290.5,1290.9
201901102315,1290.9,1291,1290.5,1290.6
201901102316,1290.5,1290.6,1290.4,1290.6
201901102317,1290.6,1291,1290.6,1290.9
201901102318,1290.9,1291,1290.8,1290.8
201901102319,1290.8,1291,1290.7,1290.9
201901102320,1290.9,1291.1,1290.7,1290.7
201901102321,1290.7,1290.8,1290.6,1290.6
201901102322,1290.6,1290.7,1290.6,1290.6
201901102323,1290.6,1290.7,1290.5,1290.6
201901102324,1290.6,1290.6,1290.3,1290.4
201901102325,1290.4,1290.5,1290.2,1290.2
201901102326,1290.2,1290.5,1290.2,1290.4
201901102327,1290.4,1290.4,1290.2,1290.4
201901102328,1290.4,1290.6,1290.3,1290.4
201901102329,1290.5,1290.5,1290,1290.2
201901102330,1290.2,1290.9,1290.2,1290.8
201901102331,1290.9,1291,1290.9,1291
201901102332,1291,1291,1290.4,1290.5
201901102333,1290.6,1290.8,1290.6,1290.6
201901102334,1290.6,1291.3,1290.6,1291.2
201901102335,1291.4,1291.5,1291.4,1291.5
201901102336,1291.5,1292.1,1291.4,1292.1
201901102337,1292.1,1292.1,1291.7,1291.8
201901102338,1291.8,1292.1,1291.7,1292
201901102339,1292.1,1292.1,1291.8,1291.8
201901102340,1291.7,1291.8,1291.7,1291.8
201901102341,1291.7,1291.7,1291.4,1291.5
201901102342,1291.4,1291.7,1291.4,1291.6
201901102343,1291.5,1291.6,1291.4,1291.6
201901102344,1291.7,1291.8,1291.6,1291.6
201901102345,1291.6,1291.7,1291.4,1291.5
201901102346,1291.3,1291.8,1291.3,1291.8
201901102347,1291.8,1292,1291.7,1292
201901102348,1292,1292,1291.8,1291.9
201901102349,1292,1292,1291.9,1292
201901102350,1292.1,1292.2,1292,1292
201901102351,1292,1292.1,1291.9,1292
201901102352,1291.9,1291.9,1291.6,1291.7
201901102353,1291.7,1292,1291.6,1291.9
201901102354,1291.8,1291.8,1291.7,1291.7
201901102355,1292,1292,1292,1292
201901102356,1291.9,1292,1291.9,1291.9
201901102357,1291.9,1291.9,1291.6,1291.6
201901102358,1291.6,1291.8,1291.6,1291.8
201901102359,1291.9,1291.9,1291.7,1291.7
201901110000,1291.9,1292.1,1291.8,1292.1
201901110001,1292.1,1292.1,1291.7,1291.7
201901110002,1291.8,1291.8,1291.7,1291.7
201901110003,1291.7,1291.9,1291.4,1291.4
201901110004,1291.5,1291.5,1291.3,1291.4
201901110005,1291.3,1291.5,1291.3,1291.5
201901110006,1291.4,1291.4,1290.7,1290.7
201901110007,1290.7,1290.9,1290.7,1290.8
201901110008,1290.7,1290.8,1290.6,1290.6
201901110009,1290.7,1290.8,1290.6,1290.7
201901110010,1290.7,1290.8,1290.6,1290.8
201901110011,1290.8,1291,1290.8,1291
201901110012,1291,1291.1,1291,1291
201901110013,1290.9,1290.9,1290.8,1290.8
201901110014,1290.8,1290.8,1290.6,1290.7
201901110015,1290.8,1290.8,1290.7,1290.7
201901110016,1290.7,1291.1,1290.7,1291
201901110017,1290.9,1291,1290.7,1290.8
201901110018,1290.7,1291,1290.7,1291
201901110019,1290.9,1291,1290.8,1290.9
201901110020,1291,1291,1290.9,1291
201901110021,1291,1291,1290.8,1290.8
201901110022,1290.8,1290.8,1290.6,1290.6
201901110023,1290.8,1290.9,1290.8,1290.8
201901110024,1290.8,1291,1290.8,1290.9
201901110025,1290.9,1290.9,1290.3,1290.3
201901110026,1290.3,1290.4,1290.3,1290.4
201901110027,1290.4,1290.5,1290.4,1290.5
201901110028,1290.4,1290.6,1290.4,1290.5
201901110029,1290.4,1290.4,1290.3,1290.3
201901110030,1290.4,1290.6,1290.3,1290.6
201901110031,1290.7,1290.8,1290.7,1290.7
201901110032,1290.7,1290.8,1290.7,1290.8
201901110033,1290.7,1290.7,1290.7,1290.7
201901110034,1290.5,1290.6,1290.5,1290.5
201901110035,1290.5,1290.7,1290.5,1290.7
201901110036,1290.6,1290.7,1290.6,1290.6
201901110037,1290.5,1290.5,1290.5,1290.5
201901110038,1290.6,1290.8,1290.6,1290.6
201901110039,1290.6,1290.9,1290.6,1290.7
201901110040,1290.5,1290.6,1290.4,1290.6
201901110041,1290.6,1290.7,1290.3,1290.4
201901110042,1290.3,1290.7,1290.3,1290.7
201901110043,1290.6,1290.6,1290.5,1290.5
201901110044,1290.7,1290.7,1290.5,1290.5
201901110045,1290.5,1290.6,1290.5,1290.6
201901110046,1290.5,1290.6,1290.4,1290.5
201901110047,1290.3,1290.4,1290.1,1290.1
201901110048,1290.2,1290.2,1289.5,1289.5
201901110049,1289.5,1289.5,1289.4,1289.5
201901110050,1289.6,1289.6,1289.6,1289.6
201901110051,1289.5,1289.5,1289.4,1289.5
201901110052,1289.5,1289.7,1289.5,1289.6
201901110053,1289.6,1289.7,1289.6,1289.6
201901110054,1289.7,1289.8,1289.6,1289.6
201901110055,1289.6,1289.8,1289.6,1289.7
201901110056,1289.7,1290,1289.7,1290
201901110057,1290,1290,1289.8,1289.8
201901110058,1289.9,1289.9,1289.7,1289.7
201901110059,1289.8,1290,1289.8,1290
201901110100,1290,1290,1289.8,1289.8
201901110101,1289.8,1289.9,1289.6,1289.8
201901110102,1289.8,1289.9,1289.8,1289.8
201901110103,1289.9,1289.9,1289.8,1289.8
201901110104,1289.7,1289.7,1289.5,1289.5
201901110105,1289.5,1289.5,1288.8,1289
201901110106,1288.8,1289.1,1288.8,1289.1
201901110107,1289,1289.2,1289,1289.2
201901110108,1289.2,1289.3,1289.1,1289.2
201901110109,1289.2,1289.2,1289,1289
201901110110,1289,1289,1288.5,1288.8
201901110111,1289,1289,1288.8,1288.9
201901110112,1288.8,1288.9,1288.8,1288.8
201901110113,1288.8,1289,1288.7,1289
201901110114,1289,1289.1,1289,1289.1
201901110115,1289.2,1289.2,1288.9,1288.9
201901110116,1289,1289,1288.8,1288.9
201901110117,1288.8,1289,1288.8,1289
201901110118,1288.9,1288.9,1288.8,1288.8
201901110119,1288.7,1288.7,1288.6,1288.7
201901110120,1288.7,1288.7,1288.6,1288.6
201901110121,1288.6,1288.8,1288.5,1288.6
201901110122,1288.6,1288.6,1288.5,1288.6
201901110123,1288.6,1288.7,1288.5,1288.5
201901110124,1288.5,1288.6,1288.4,1288.4
201901110125,1288.4,1288.4,1288.3,1288.4
201901110126,1288.3,1288.6,1288.3,1288.6
201901110127,1288.7,1288.9,1288.7,1288.9
201901110128,1288.9,1288.9,1288.8,1288.8
201901110129,1288.8,1288.8,1288.2,1288.2
201901110130,1288.1,1288.3,1288.1,1288.2
201901110131,1288.2,1288.3,1288.1,1288.3
201901110132,1288.3,1288.5,1288.3,1288.5
201901110133,1288.5,1288.7,1288.5,1288.6
201901110134,1288.6,1288.6,1288.2,1288.2
201901110135,1288.5,1288.5,1288.3,1288.4
201901110136,1288.4,1288.5,1288.3,1288.5
201901110137,1288.5,1288.8,1288.5,1288.8
201901110138,1288.8,1288.8,1288.7,1288.7
201901110139,1288.6,1288.6,1288.5,1288.6
201901110140,1288.7,1288.7,1288.5,1288.6
201901110141,1288.6,1288.7,1288.6,1288.7
201901110142,1288.7,1288.8,1288.6,1288.7
201901110143,1288.6,1288.7,1288.6,1288.7
201901110144,1288.7,1288.7,1288.6,1288.6
201901110145,1288.5,1288.7,1288.5,1288.6
201901110146,1288.6,1288.7,1288.5,1288.5
201901110147,1288.5,1288.5,1288.4,1288.5
201901110148,1288.5,1288.6,1288.5,1288.6
201901110149,1288.6,1288.8,1288.6,1288.7
201901110150,1288.7,1288.7,1288.3,1288.3
201901110151,1288.3,1288.4,1288.3,1288.4
201901110152,1288.3,1288.4,1288.2,1288.2
201901110153,1288.3,1288.3,1288.2,1288.2
201901110154,1288.1,1288.3,1288.1,1288.3
201901110155,1288.4,1288.4,1288.3,1288.3
201901110156,1288.4,1289,1288.4,1289
201901110157,1289,1289.1,1289,1289
201901110158,1289,1289.2,1289,1289.1
201901110159,1289.1,1289.1,1289,1289
201901110200,1288.9,1289,1288.8,1288.8
201901110201,1288.8,1288.8,1288.6,1288.6
201901110202,1288.7,1288.9,1288.7,1288.9
201901110203,1288.9,1288.9,1288.7,1288.7
201901110204,1288.7,1288.8,1288.7,1288.7
201901110205,1288.8,1289,1288.7,1288.7
201901110206,1288.8,1288.8,1288.5,1288.5
201901110207,1288.5,1288.5,1288.3,1288.3
201901110208,1288.3,1288.6,1288.3,1288.5
201901110209,1288.5,1288.6,1288.5,1288.5
201901110210,1288.5,1288.5,1288.5,1288.5
201901110211,1288.5,1288.5,1288.3,1288.3
201901110212,1288.3,1288.5,1288.2,1288.5
201901110213,1288.6,1288.6,1288.5,1288.5
201901110214,1288.5,1288.5,1288.4,1288.4
201901110215,1288.4,1288.4,1288.4,1288.4
201901110216,1288.3,1288.5,1288.3,1288.5
201901110217,1288.5,1288.9,1288.5,1288.9
201901110218,1288.9,1289,1288.9,1288.9
201901110219,1288.9,1288.9,1288.7,1288.8
201901110220,1288.8,1288.8,1288.8,1288.8
201901110221,1288.9,1289.1,1288.9,1289.1
201901110222,1289,1289.1,1288.9,1289
201901110223,1289,1289,1288.8,1288.9
201901110224,1289,1289,1288.7,1288.7
201901110225,1288.7,1288.7,1288.6,1288.7
201901110226,1288.7,1288.7,1288.7,1288.7
201901110227,1288.7,1288.8,1288.7,1288.8
201901110228,1288.7,1288.7,1288.7,1288.7
201901110229,1288.8,1288.8,1288.7,1288.7
201901110230,1288.7,1288.7,1288.7,1288.7
201901110231,1288.9,1288.9,1288.7,1288.7
201901110232,1288.7,1288.7,1288.6,1288.7
201901110233,1288.8,1288.8,1288.8,1288.8
201901110234,1288.8,1288.8,1288.8,1288.8
201901110235,1288.6,1288.6,1288.5,1288.6
201901110236,1288.4,1288.5,1288.4,1288.4
201901110237,1288.4,1288.4,1288.3,1288.3
201901110238,1288.3,1288.5,1288.3,1288.5
201901110239,1288.4,1288.5,1288.4,1288.4
201901110240,1288.4,1288.5,1288.4,1288.5
201901110241,1288.5,1288.6,1288.5,1288.6
201901110242,1288.6,1288.7,1288.6,1288.7
201901110243,1288.7,1288.8,1288.6,1288.8
201901110244,1288.6,1288.6,1288.3,1288.3
201901110245,1288.3,1288.5,1288.3,1288.4
201901110246,1288.3,1288.4,1288.2,1288.2
201901110247,1288,1288.1,1288,1288.1
201901110248,1288.1,1288.5,1288.1,1288.5
201901110249,1288.5,1288.5,1287.5,1287.7
201901110250,1287.5,1288.3,1287.5,1288.2
201901110251,1288.2,1288.3,1288.1,1288.3
201901110252,1288.1,1288.1,1288.1,1288.1
201901110253,1288,1288.1,1287.9,1288.1
201901110254,1288.1,1288.1,1287.9,1288.1
201901110255,1288.1,1288.2,1288.1,1288.1
201901110256,1288.1,1288.1,1288,1288.1
201901110257,1288.1,1288.1,1287.8,1287.8
201901110258,1287.8,1287.9,1287.7,1287.7
201901110259,1287.8,1288,1287.7,1287.8
201901110300,1287.8,1287.9,1287.8,1287.8
201901110301,1287.9,1287.9,1287.6,1287.9
201901110302,1287,1287.6,1287,1287.6
201901110303,1287.6,1287.7,1287.5,1287.5
201901110304,1287.5,1287.6,1287.5,1287.5
201901110305,1287.6,1287.8,1287.4,1287.6
201901110306,1287.6,1287.6,1287.3,1287.3
201901110307,1287.3,1288.3,1287.3,1288.3
201901110308,1288.2,1288.2,1288,1288.1
201901110309,1288.1,1288.4,1288,1288.4
201901110310,1288.3,1288.5,1288.3,1288.4
201901110311,1288.4,1288.4,1288.2,1288.2
201901110312,1288.2,1288.2,1288,1288.1
201901110313,1288,1288.1,1288,1288.1
201901110314,1288.2,1288.3,1288.2,1288.2
201901110315,1288.4,1288.5,1288.4,1288.5
201901110316,1288.4,1288.4,1288.2,1288.3
201901110317,1288.3,1288.5,1288.3,1288.5
201901110318,1288.5,1288.5,1288.4,1288.4
201901110319,1288.4,1288.4,1288.3,1288.4
201901110320,1288.4,1288.4,1288.1,1288.1
201901110321,1288.3,1288.4,1288.2,1288.4
201901110322,1288.3,1288.3,1288,1288
201901110323,1287.9,1288,1287.9,1287.9
201901110324,1288,1288,1287.3,1287.3
201901110325,1287.2,1287.5,1287.2,1287.5
201901110326,1287.3,1287.3,1287.1,1287.1
201901110327,1287.2,1287.2,1286.9,1286.9
201901110328,1286.5,1286.6,1286.4,1286.6
201901110329,1286.7,1286.8,1286.4,1286.8
201901110330,1286.9,1287,1286.7,1286.7
201901110331,1286.7,1286.7,1286.6,1286.6
201901110332,1286.7,1286.8,1286.6,1286.8
201901110333,1286.8,1286.8,1286.6,1286.6
201901110334,1286.6,1286.6,1286.5,1286.5
201901110335,1286.6,1286.7,1286.6,1286.7
201901110336,1286.7,1286.7,1286.5,1286.6
201901110337,1286.5,1286.8,1286.5,1286.8
201901110338,1286.8,1287,1286.8,1286.9
201901110339,1287.1,1287.4,1287.1,1287.4
201901110340,1287.4,1287.6,1287.4,1287.6
201901110341,1287.7,1288,1287.7,1287.9
201901110342,1288,1288.1,1288,1288.1
201901110343,1288,1288.2,1288,1288.1
201901110344,1287.9,1288,1287.9,1287.9
201901110345,1287.9,1287.9,1287.7,1287.7
201901110346,1287.7,1288,1287.7,1288
201901110347,1288.1,1288.2,1288.1,1288.2
201901110348,1288.2,1288.5,1288.2,1288.4
201901110349,1288.3,1288.4,1288.3,1288.4
201901110350,1288.4,1288.4,1288.3,1288.4
201901110351,1288.4,1288.4,1288.1,1288.1
201901110352,1288.1,1288.1,1288.1,1288.1
201901110353,1288.1,1288.1,1288,1288
201901110354,1288.1,1288.4,1288.1,1288.4
201901110355,1288.3,1288.4,1288.3,1288.3
201901110356,1288.3,1288.5,1288.3,1288.4
201901110357,1288.1,1288.1,1288.1,1288.1
201901110358,1288,1288,1287.8,1287.8
201901110359,1287.7,1287.9,1287.7,1287.7
201901110400,1287.7,1287.8,1287.6,1287.6
201901110401,1287.7,1287.7,1287.4,1287.5
201901110402,1287.4,1287.5,1287.4,1287.4
201901110403,1287.5,1287.6,1287.4,1287.6
201901110404,1287.6,1287.6,1287.5,1287.5
201901110405,1287.5,1287.5,1287.4,1287.4
201901110406,1287.4,1287.4,1287.3,1287.4
201901110407,1287.4,1287.5,1287.4,1287.5
201901110408,1287.5,1287.5,1287.4,1287.4
201901110409,1287.4,1287.5,1287.2,1287.2
201901110410,1287.2,1287.2,1287.2,1287.2
201901110411,1287.1,1287.3,1287.1,1287.2
201901110412,1287.2,1287.2,1287,1287
201901110413,1286.9,1286.9,1286.8,1286.9
201901110414,1286.9,1286.9,1286.9,1286.9
201901110415,1286.8,1286.8,1286.6,1286.8
201901110416,1286.7,1287,1286.7,1287
201901110417,1287.1,1287.1,1287,1287
201901110418,1287,1287,1286.9,1287
201901110419,1287,1287.1,1287,1287.1
201901110420,1287.1,1287.1,1287.1,1287.1
201901110421,1287.1,1287.1,1287,1287.1
201901110422,1287,1287,1286.9,1286.9
201901110423,1286.9,1287.1,1286.9,1287.1
201901110424,1287.1,1287.1,1287.1,1287.1
201901110425,1287.1,1287.1,1287,1287
201901110426,1287,1287,1286.9,1287
201901110427,1287,1287.1,1287,1287.1
201901110428,1287.1,1287.1,1286.8,1286.8
201901110429,1286.8,1286.8,1286.7,1286.8
201901110430,1286.8,1286.9,1286.7,1286.9
201901110431,1286.9,1287,1286.9,1287
201901110432,1287.1,1287.1,1287.1,1287.1
201901110433,1287,1287.1,1287,1287
201901110434,1287.1,1287.1,1287,1287.1
201901110435,1287.1,1287.1,1287.1,1287.1
201901110436,1287.1,1287.1,1287.1,1287.1
201901110437,1287.1,1287.1,1286.9,1286.9
201901110438,1286.9,1287,1286.9,1286.9
201901110439,1287,1287,1286.9,1286.9
201901110440,1286.9,1286.9,1286.9,1286.9
201901110441,1286.9,1287,1286.9,1287
201901110442,1286.8,1286.8,1286.7,1286.7
201901110443,1286.7,1287,1286.7,1287
201901110444,1287,1287,1287,1287
201901110445,1287,1287.1,1287,1287.1
201901110446,1287,1287,1286.9,1286.9
201901110447,1287,1287,1287,1287
201901110448,1287,1287.1,1287,1287.1
201901110449,1287.2,1287.4,1287.2,1287.4
201901110450,1287.4,1287.5,1287.4,1287.5
201901110451,1287.6,1287.7,1287.6,1287.7
201901110452,1287.7,1287.7,1287.7,1287.7
201901110453,1287.8,1287.8,1287.6,1287.6
201901110454,1287.5,1287.5,1287.4,1287.4
201901110455,1287.5,1287.5,1287.3,1287.3
201901110456,1287.3,1287.5,1287.3,1287.5
201901110457,1287.4,1287.5,1287.4,1287.5
201901110458,1287.5,1287.5,1287.5,1287.5
201901110459,1287.5,1287.5,1287.4,1287.4
201901110500,1287.4,1287.4,1287.3,1287.3
201901110501,1287.3,1287.4,1287.3,1287.4
201901110502,1287.4,1287.4,1287.3,1287.4
201901110503,1287.3,1287.3,1287.2,1287.3
201901110504,1287.3,1287.3,1287.2,1287.3
201901110505,1287.3,1287.4,1287.3,1287.4
201901110506,1287.4,1287.4,1287.3,1287.3
201901110507,1287.3,1287.3,1287.2,1287.2
201901110508,1287.2,1287.2,1287.2,1287.2
201901110509,1287.2,1287.2,1287,1287
201901110510,1287,1287,1287,1287
201901110511,1287,1287,1287,1287
201901110513,1286.8,1286.8,1286.7,1286.7
201901110514,1286.7,1286.8,1286.7,1286.7
201901110515,1286.7,1286.7,1286.6,1286.6
201901110516,1286.7,1286.8,1286.7,1286.8
201901110517,1286.8,1286.9,1286.8,1286.9
201901110518,1286.9,1286.9,1286.8,1286.9
201901110519,1286.9,1286.9,1286.9,1286.9
201901110520,1286.9,1287,1286.9,1287
201901110521,1287,1287,1286.9,1286.9
201901110522,1286.9,1286.9,1286.8,1286.8
201901110523,1286.8,1286.9,1286.7,1286.9
201901110524,1286.8,1286.8,1286.8,1286.8
201901110525,1286.7,1286.8,1286.7,1286.8
201901110526,1286.9,1286.9,1286.8,1286.9
201901110527,1286.9,1286.9,1286.8,1286.8
201901110528,1286.8,1286.9,1286.8,1286.9
201901110529,1287,1287,1286.9,1287
201901110530,1287,1287,1286.9,1286.9
201901110531,1287,1287,1286.9,1286.9
201901110532,1286.9,1286.9,1286.8,1286.8
201901110533,1286.8,1286.8,1286.8,1286.8
201901110534,1286.8,1286.8,1286.8,1286.8
201901110535,1286.8,1286.8,1286.8,1286.8
201901110536,1286.8,1286.8,1286.8,1286.8
201901110537,1286.8,1286.8,1286.8,1286.8
201901110538,1286.8,1286.8,1286.8,1286.8
201901110539,1286.8,1286.8,1286.8,1286.8
201901110540,1286.9,1286.9,1286.8,1286.8
201901110541,1286.9,1286.9,1286.8,1286.8
201901110542,1286.8,1286.8,1286.8,1286.8
201901110543,1286.8,1286.8,1286.8,1286.8
201901110544,1286.8,1286.8,1286.7,1286.7
201901110545,1286.8,1286.8,1286.8,1286.8
201901110546,1286.8,1286.8,1286.8,1286.8
201901110548,1286.8,1286.8,1286.8,1286.8
201901110549,1286.8,1286.8,1286.7,1286.7
201901110550,1286.5,1286.5,1286.5,1286.5
201901110551,1286.6,1286.6,1286.5,1286.6
201901110552,1286.6,1286.6,1286.6,1286.6
201901110553,1286.6,1286.7,1286.6,1286.7
201901110554,1286.7,1286.7,1286.6,1286.6
201901110555,1286.7,1286.7,1286.7,1286.7
201901110556,1286.7,1286.7,1286.5,1286.5
201901110557,1286.2,1286.3,1286.1,1286.1
201901110558,1286.2,1286.3,1286.2,1286.3
201901110559,1286.2,1286.2,1286,1286.1
201901110600,1286.3,1286.3,1286.2,1286.2
201901110601,1286.3,1286.3,1286.1,1286.1
201901110602,1286.1,1286.3,1286.1,1286.3
201901110603,1286.3,1286.4,1286.3,1286.3
201901110604,1286.3,1286.4,1286.3,1286.4
201901110605,1286.4,1286.6,1286.4,1286.6
201901110606,1286.6,1286.6,1286.5,1286.5
201901110607,1286.5,1286.5,1286.4,1286.5
201901110608,1286.5,1286.6,1286.5,1286.6
201901110609,1286.6,1286.6,1286.5,1286.5
201901110610,1286.5,1286.5,1286.4,1286.4
201901110611,1286.4,1286.4,1286.2,1286.2
201901110612,1286.2,1286.3,1286.2,1286.3
201901110613,1286.3,1286.4,1286.3,1286.3
201901110614,1286.3,1286.5,1286.3,1286.4
201901110615,1286.4,1286.4,1286.4,1286.4
201901110616,1286.4,1286.4,1286.4,1286.4
201901110617,1286.4,1286.4,1286.4,1286.4
201901110618,1286.4,1286.4,1286.4,1286.4
201901110619,1286.4,1286.4,1286.4,1286.4
201901110620,1286.4,1286.4,1286.3,1286.3
201901110621,1286.3,1286.4,1286.3,1286.3
201901110622,1286.3,1286.4,1286.3,1286.4
201901110623,1286.4,1286.4,1286.4,1286.4
201901110624,1286.4,1286.4,1286.3,1286.3
201901110625,1286.3,1286.3,1286.3,1286.3
201901110626,1286.3,1286.3,1286.3,1286.3
201901110627,1286.3,1286.3,1286.3,1286.3
201901110628,1286.3,1286.3,1286.3,1286.3
201901110629,1286.3,1286.4,1286.3,1286.3
201901110630,1286.3,1286.3,1286.2,1286.2
201901110631,1286.2,1286.2,1286.2,1286.2
201901110632,1286.2,1286.2,1286.2,1286.2
201901110633,1286.2,1286.2,1286.2,1286.2
201901110634,1286.2,1286.3,1286.1,1286.2
201901110635,1286.2,1286.2,1286.2,1286.2
201901110636,1286.2,1286.2,1286.2,1286.2
201901110637,1286.2,1286.2,1286.2,1286.2
201901110638,1286.2,1286.2,1286.2,1286.2
201901110639,1286.2,1286.3,1286.2,1286.2
201901110640,1286.2,1286.2,1286.1,1286.1
201901110641,1286.1,1286.3,1286.1,1286.1
201901110642,1286.1,1286.1,1286.1,1286.1
201901110643,1286.1,1286.1,1286.1,1286.1
201901110644,1286.1,1286.1,1286.1,1286.1
201901110645,1286.1,1286.2,1286.1,1286.1
201901110646,1286.1,1286.2,1286.1,1286.1
201901110647,1286.1,1286.2,1286.1,1286.2
201901110648,1286.2,1286.3,1286.2,1286.2
201901110649,1286.2,1286.2,1286.2,1286.2
201901110650,1286.1,1286.1,1286.1,1286.1
201901110651,1286.1,1286.1,1286.1,1286.1
201901110652,1286.1,1286.2,1286.1,1286.1
201901110653,1286.1,1286.1,1286,1286.1
201901110654,1286.1,1286.1,1286.1,1286.1
201901110655,1286.1,1286.1,1286.1,1286.1
201901110656,1286.1,1286.1,1286.1,1286.1
201901110657,1286.1,1286.4,1286.1,1286.3
201901110658,1286.3,1286.4,1286.3,1286.3
201901110659,1286.3,1286.4,1286.2,1286.4
