日時,始値(BID),高値(BID),安値(BID),終値(BID)
201901310800,1320.2,1320.5,1320.1,1320.5
201901310801,1320.5,1320.5,1320.2,1320.2
201901310802,1320.2,1320.2,1320.1,1320.1
201901310803,1320.1,1320.1,1320.1,1320.1
201901310804,1320.1,1320.4,1320.1,1320.3
201901310805,1320.3,1320.3,1320.1,1320.1
201901310806,1320.1,1320.1,1319.9,1319.9
201901310807,1319.9,1319.9,1319.9,1319.9
201901310808,1319.9,1320,1319.9,1319.9
201901310809,1319.9,1319.9,1319.8,1319.8
201901310810,1319.8,1319.8,1319.8,1319.8
201901310811,1319.8,1319.9,1319.8,1319.9
201901310812,1319.9,1320,1319.9,1320
201901310813,1320,1320,1320,1320
201901310814,1320,1320.2,1320,1320.2
201901310815,1320.2,1320.2,1320.1,1320.1
201901310816,1320.1,1320.1,1320.1,1320.1
201901310817,1320.1,1320.2,1320.1,1320.2
201901310818,1320.2,1320.3,1320.2,1320.3
201901310819,1320.3,1320.4,1320.2,1320.4
201901310820,1320.4,1320.4,1320.2,1320.2
201901310821,1320.2,1320.3,1320.2,1320.2
201901310822,1320.2,1320.2,1320.1,1320.1
201901310823,1320.1,1320.1,1319.9,1319.9
201901310824,1319.9,1319.9,1319.9,1319.9
201901310825,1319.9,1319.9,1319.8,1319.8
201901310826,1319.8,1319.8,1319.7,1319.8
201901310827,1319.8,1319.8,1319.7,1319.8
201901310828,1319.8,1319.8,1319.8,1319.8
201901310829,1319.8,1319.9,1319.8,1319.9
201901310830,1319.9,1320.1,1319.9,1320.1
201901310831,1320.1,1320.1,1320.1,1320.1
201901310832,1320.1,1320.1,1320,1320
201901310833,1320,1320,1319.9,1319.9
201901310834,1319.9,1319.9,1319.9,1319.9
201901310835,1319.9,1319.9,1319.9,1319.9
201901310836,1319.9,1319.9,1319.9,1319.9
201901310837,1319.9,1320,1319.9,1319.9
201901310838,1319.9,1320,1319.9,1320
201901310839,1320,1320,1320,1320
201901310840,1320,1320,1320,1320
201901310841,1320,1320,1319.9,1319.9
201901310842,1319.9,1319.9,1319.8,1319.8
201901310843,1319.8,1319.9,1319.7,1319.7
201901310844,1319.7,1319.8,1319.6,1319.7
201901310845,1319.7,1319.8,1319.6,1319.8
201901310846,1319.8,1319.8,1319.7,1319.7
201901310847,1319.7,1319.7,1319.7,1319.7
201901310848,1319.7,1319.7,1319.6,1319.6
201901310849,1319.6,1319.6,1319.6,1319.6
201901310850,1319.6,1319.7,1319.6,1319.6
201901310851,1319.6,1319.6,1319.6,1319.6
201901310852,1319.6,1319.6,1319.5,1319.5
201901310853,1319.5,1319.5,1319.3,1319.3
201901310854,1319.3,1319.3,1319.1,1319.1
201901310855,1319.1,1319.1,1319,1319
201901310856,1319,1319.1,1319,1319.1
201901310857,1319.1,1319.2,1319.1,1319.2
201901310858,1319.2,1319.2,1319.1,1319.1
201901310859,1319.1,1319.1,1319.1,1319.1
201901310900,1319.1,1319.4,1319.1,1319.4
201901310901,1319.4,1319.4,1319.3,1319.4
201901310902,1319.4,1319.6,1319.4,1319.6
201901310903,1319.6,1319.8,1319.6,1319.8
201901310904,1319.8,1319.8,1319.7,1319.7
201901310905,1319.7,1319.9,1319.7,1319.8
201901310906,1319.8,1319.9,1319.8,1319.9
201901310907,1319.9,1320.2,1319.9,1320.1
201901310908,1320.1,1320.3,1320.1,1320.3
201901310909,1320.3,1320.6,1320.2,1320.5
201901310910,1320.5,1320.5,1320.2,1320.2
201901310911,1320.2,1320.2,1320,1320.1
201901310912,1320.1,1320.1,1320,1320.1
201901310913,1320.1,1320.1,1319.8,1319.8
201901310914,1319.8,1320,1319.8,1320
201901310915,1319.9,1320.1,1319.7,1320.1
201901310916,1320.1,1320.1,1320,1320
201901310917,1320,1320,1319.9,1320
201901310918,1320,1320,1319.7,1319.7
201901310919,1319.7,1319.7,1319.6,1319.7
201901310920,1319.7,1320,1319.5,1319.9
201901310921,1319.8,1319.8,1319.6,1319.8
201901310922,1319.8,1319.8,1319.6,1319.7
201901310923,1319.7,1319.7,1319.5,1319.6
201901310924,1319.6,1319.6,1319.5,1319.5
201901310925,1319.5,1319.5,1319.5,1319.5
201901310926,1319.5,1319.5,1319.3,1319.3
201901310927,1319.3,1319.3,1319.1,1319.1
201901310928,1319.1,1319.2,1319.1,1319.1
201901310929,1319.1,1319.2,1319.1,1319.2
201901310930,1319.2,1319.4,1319,1319.1
201901310931,1319.1,1319.1,1319,1319.1
201901310932,1319.1,1319.4,1319.1,1319.3
201901310933,1319.3,1319.5,1319.3,1319.4
201901310934,1319.4,1319.5,1319.4,1319.4
201901310935,1319.4,1319.5,1319.3,1319.3
201901310936,1319.3,1319.4,1319.3,1319.4
201901310937,1319.4,1319.5,1319.3,1319.3
201901310938,1319.3,1319.4,1319.3,1319.4
201901310939,1319.4,1319.4,1319.3,1319.3
201901310940,1319.3,1319.4,1319.2,1319.2
201901310941,1319.2,1319.2,1318.9,1318.9
201901310942,1318.9,1319,1318.8,1318.8
201901310943,1318.8,1318.8,1318.5,1318.7
201901310944,1318.7,1318.7,1318.5,1318.5
201901310945,1318.5,1318.7,1318.3,1318.4
201901310946,1318.4,1318.5,1318.4,1318.4
201901310947,1318.4,1318.5,1318.4,1318.5
201901310948,1318.5,1318.7,1318.5,1318.5
201901310949,1318.5,1318.5,1318.4,1318.5
201901310950,1318.6,1318.7,1318.5,1318.7
201901310951,1318.7,1318.8,1318.6,1318.7
201901310952,1318.7,1318.8,1318.5,1318.6
201901310953,1318.6,1318.6,1318.5,1318.5
201901310954,1318.5,1318.5,1318.3,1318.3
201901310955,1318.3,1318.3,1318.1,1318.2
201901310956,1318.2,1318.2,1318,1318
201901310957,1318,1318,1317.9,1317.9
201901310958,1317.9,1318,1317.9,1318
201901310959,1318,1318.1,1318,1318
201901311000,1317.9,1318.2,1317.6,1318.1
201901311001,1318.1,1318.3,1317.6,1317.6
201901311002,1317.7,1317.7,1317.4,1317.5
201901311003,1317.4,1317.9,1317.3,1317.9
201901311004,1317.9,1318.2,1317.7,1318.2
201901311005,1318.2,1318.2,1317.8,1318.1
201901311006,1318.1,1318.2,1318.1,1318.2
201901311007,1318.1,1318.1,1318,1318
201901311008,1318,1318.3,1318,1318.3
201901311009,1318.3,1318.4,1318.2,1318.2
201901311010,1318.2,1318.2,1318,1318
201901311011,1318,1318.3,1317.9,1318.3
201901311012,1318.3,1318.4,1318.3,1318.4
201901311013,1318.4,1318.7,1318.3,1318.7
201901311014,1318.7,1318.8,1318.7,1318.7
201901311015,1318.7,1318.8,1318.7,1318.8
201901311016,1318.8,1318.9,1318.8,1318.9
201901311017,1318.9,1319,1318.8,1318.8
201901311018,1318.8,1318.9,1318.8,1318.8
201901311019,1318.8,1318.9,1318.7,1318.9
201901311020,1318.9,1318.9,1318.6,1318.7
201901311021,1318.7,1319,1318.7,1318.9
201901311022,1318.9,1318.9,1318.7,1318.8
201901311023,1318.8,1318.9,1318.7,1318.8
201901311024,1318.8,1318.9,1318.8,1318.9
201901311025,1318.9,1319,1318.9,1319
201901311026,1319,1319.1,1319,1319.1
201901311027,1319.1,1319.1,1318.8,1318.8
201901311028,1318.8,1318.9,1318.7,1318.8
201901311029,1318.8,1318.9,1318.8,1318.8
201901311030,1318.8,1319.1,1318.7,1319.1
201901311031,1319.1,1319.2,1318.9,1318.9
201901311032,1318.9,1318.9,1318.6,1318.6
201901311033,1318.6,1318.6,1318.3,1318.4
201901311034,1318.4,1318.4,1318.3,1318.3
201901311035,1318.3,1318.7,1318.3,1318.7
201901311036,1318.6,1319.2,1318.6,1319.1
201901311037,1319.1,1319.2,1318.9,1319
201901311038,1318.9,1319,1318.9,1319
201901311039,1319,1319.2,1319,1319.1
201901311040,1319.1,1319.4,1319.1,1319.3
201901311041,1319.3,1319.3,1319.1,1319.1
201901311042,1319.1,1319.2,1318.9,1318.9
201901311043,1318.9,1319.1,1318.9,1318.9
201901311044,1318.9,1319,1318.7,1318.9
201901311045,1318.9,1319,1318.9,1319
201901311046,1319,1319,1318.9,1318.9
201901311047,1318.9,1319,1318.8,1318.8
201901311048,1318.9,1318.9,1318.4,1318.5
201901311049,1318.6,1318.7,1318.5,1318.5
201901311050,1318.5,1318.5,1318.4,1318.4
201901311051,1318.4,1318.4,1318.2,1318.3
201901311052,1318.3,1318.7,1318.3,1318.7
201901311053,1318.7,1318.7,1318.6,1318.6
201901311054,1318.6,1318.6,1318.5,1318.5
201901311055,1318.5,1318.5,1318.2,1318.2
201901311056,1318.2,1318.3,1318.1,1318.1
201901311057,1318.1,1318.2,1318,1318.1
201901311058,1318.1,1318.1,1318,1318
201901311059,1318,1318.2,1318,1318.1
201901311100,1318.1,1318.2,1318,1318
201901311101,1318,1318.2,1317.8,1317.8
201901311102,1317.8,1317.9,1317.8,1317.8
201901311103,1317.8,1317.9,1317.8,1317.9
201901311104,1317.9,1318.2,1317.9,1318.2
201901311105,1318.2,1318.3,1318.2,1318.2
201901311106,1318.2,1318.4,1318.2,1318.3
201901311107,1318.3,1318.4,1318.1,1318.2
201901311108,1318.2,1318.3,1318.2,1318.2
201901311109,1318.2,1318.4,1318.2,1318.4
201901311110,1318.4,1318.4,1318.2,1318.3
201901311111,1318.3,1318.4,1318.3,1318.4
201901311112,1318.4,1318.5,1318.4,1318.4
201901311113,1318.4,1318.6,1318.3,1318.6
201901311114,1318.6,1318.6,1318.5,1318.5
201901311115,1318.5,1318.5,1318.3,1318.4
201901311116,1318.4,1318.5,1318.4,1318.4
201901311117,1318.4,1318.5,1318.4,1318.4
201901311118,1318.4,1318.4,1318.4,1318.4
201901311119,1318.4,1318.6,1318.4,1318.4
201901311120,1318.4,1318.5,1318.3,1318.4
201901311121,1318.5,1318.5,1318.3,1318.3
201901311122,1318.3,1318.6,1318.3,1318.6
201901311123,1318.6,1318.6,1318.5,1318.6
201901311124,1318.6,1318.6,1318.5,1318.5
201901311125,1318.5,1318.5,1318.3,1318.3
201901311126,1318.3,1318.4,1318.2,1318.3
201901311127,1318.3,1318.4,1318.2,1318.3
201901311128,1318.3,1318.3,1318.2,1318.3
201901311129,1318.3,1318.4,1318.3,1318.3
201901311130,1318.3,1318.3,1318.1,1318.2
201901311131,1318.2,1318.2,1318,1318.2
201901311132,1318.2,1318.2,1318.2,1318.2
201901311133,1318.2,1318.6,1318.2,1318.4
201901311134,1318.4,1318.5,1318.4,1318.5
201901311135,1318.5,1318.7,1318.5,1318.6
201901311136,1318.6,1318.7,1318.3,1318.4
201901311137,1318.4,1318.4,1318.1,1318.2
201901311138,1318.2,1318.3,1318.2,1318.3
201901311139,1318.3,1318.4,1318.3,1318.3
201901311140,1318.3,1318.3,1318.2,1318.3
201901311141,1318.3,1318.4,1318.3,1318.4
201901311142,1318.4,1318.4,1318.2,1318.3
201901311143,1318.3,1318.3,1318.1,1318.1
201901311144,1318.1,1318.2,1318,1318.2
201901311145,1318.3,1318.3,1318,1318
201901311146,1318,1318,1317.8,1317.8
201901311147,1317.8,1318.2,1317.8,1318.1
201901311148,1318.1,1318.4,1318.1,1318.4
201901311149,1318.4,1318.6,1318.4,1318.5
201901311150,1318.5,1318.6,1318.4,1318.4
201901311151,1318.4,1318.6,1318.4,1318.5
201901311152,1318.5,1318.6,1318.5,1318.5
201901311153,1318.5,1318.5,1318.5,1318.5
201901311154,1318.5,1318.5,1318.5,1318.5
201901311155,1318.5,1318.6,1318.4,1318.4
201901311156,1318.4,1318.6,1318.4,1318.6
201901311157,1318.5,1318.6,1318.5,1318.5
201901311158,1318.5,1318.6,1318.5,1318.6
201901311159,1318.6,1318.8,1318.6,1318.6
201901311200,1318.6,1318.8,1318.6,1318.8
201901311201,1318.8,1318.9,1318.8,1318.8
201901311202,1318.8,1318.8,1318.6,1318.7
201901311203,1318.7,1318.9,1318.6,1318.9
201901311204,1318.9,1319,1318.9,1318.9
201901311205,1318.9,1318.9,1318.8,1318.9
201901311206,1318.9,1318.9,1318.7,1318.8
201901311207,1318.8,1318.8,1318.7,1318.8
201901311208,1318.8,1319.2,1318.8,1319.1
201901311209,1319.1,1319.4,1319.1,1319.4
201901311210,1319.4,1319.6,1319.4,1319.6
201901311211,1319.6,1319.7,1319.4,1319.5
201901311212,1319.5,1319.6,1319.4,1319.6
201901311213,1319.6,1319.7,1319.5,1319.7
201901311214,1319.7,1319.7,1319.6,1319.6
201901311215,1319.6,1319.6,1319.5,1319.5
201901311216,1319.5,1319.5,1319.5,1319.5
201901311217,1319.5,1319.5,1319.4,1319.4
201901311218,1319.4,1319.4,1319.3,1319.4
201901311219,1319.4,1319.4,1319.3,1319.3
201901311220,1319.3,1319.4,1319.3,1319.4
201901311221,1319.4,1319.4,1319.3,1319.3
201901311222,1319.3,1319.3,1319.3,1319.3
201901311223,1319.3,1319.3,1319.2,1319.2
201901311224,1319.2,1319.4,1319.2,1319.3
201901311225,1319.3,1319.3,1319.2,1319.2
201901311226,1319.2,1319.2,1319.1,1319.2
201901311227,1319.2,1319.2,1319.1,1319.2
201901311228,1319.2,1319.3,1319.2,1319.3
201901311229,1319.3,1319.3,1319.2,1319.3
201901311230,1319.3,1319.4,1319.3,1319.4
201901311231,1319.4,1319.4,1319.3,1319.3
201901311232,1319.3,1319.4,1319.3,1319.4
201901311233,1319.4,1319.5,1319.4,1319.4
201901311234,1319.4,1319.5,1319.4,1319.5
201901311235,1319.5,1319.5,1319.3,1319.4
201901311236,1319.4,1319.4,1319.4,1319.4
201901311237,1319.4,1319.4,1319.4,1319.4
201901311238,1319.4,1319.4,1319.4,1319.4
201901311239,1319.4,1319.5,1319.4,1319.5
201901311240,1319.5,1319.5,1319.3,1319.4
201901311241,1319.4,1319.4,1319.3,1319.4
201901311242,1319.4,1319.4,1319.3,1319.3
201901311243,1319.3,1319.3,1319.2,1319.2
201901311244,1319.2,1319.3,1319.1,1319.2
201901311245,1319.2,1319.2,1319.2,1319.2
201901311246,1319.2,1319.2,1319.1,1319.1
201901311247,1319.1,1319.1,1319.1,1319.1
201901311248,1319.1,1319.2,1319.1,1319.2
201901311249,1319.2,1319.2,1319.2,1319.2
201901311250,1319.2,1319.4,1319.2,1319.4
201901311251,1319.4,1319.4,1319.2,1319.2
201901311252,1319.2,1319.2,1319.2,1319.2
201901311253,1319.2,1319.3,1319.2,1319.2
201901311254,1319.2,1319.2,1319.2,1319.2
201901311255,1319.2,1319.2,1319.2,1319.2
201901311256,1319.2,1319.2,1319.1,1319.2
201901311257,1319.2,1319.2,1319.1,1319.1
201901311258,1319.1,1319.1,1319,1319
201901311259,1319,1319.2,1319,1319.2
201901311300,1319.1,1319.2,1319,1319.2
201901311301,1319.2,1319.3,1319.1,1319.3
201901311302,1319.3,1319.4,1319.3,1319.3
201901311303,1319.3,1319.3,1319.1,1319.3
201901311304,1319.3,1319.4,1319.3,1319.4
201901311305,1319.4,1319.4,1319.2,1319.2
201901311306,1319.2,1319.3,1319.2,1319.3
201901311307,1319.3,1319.3,1319.2,1319.2
201901311308,1319.2,1319.3,1319.2,1319.3
201901311309,1319.3,1319.3,1319.2,1319.2
201901311310,1319.2,1319.3,1319.1,1319.3
201901311311,1319.3,1319.3,1319.3,1319.3
201901311312,1319.3,1319.4,1319.3,1319.3
201901311313,1319.3,1319.4,1319.3,1319.3
201901311314,1319.3,1319.4,1319.3,1319.4
201901311315,1319.4,1319.5,1319.4,1319.5
201901311316,1319.5,1319.5,1319.5,1319.5
201901311317,1319.5,1319.5,1319.5,1319.5
201901311318,1319.5,1319.6,1319.5,1319.6
201901311319,1319.6,1319.6,1319.6,1319.6
201901311320,1319.6,1319.6,1319.6,1319.6
201901311321,1319.6,1319.7,1319.6,1319.7
201901311322,1319.7,1319.7,1319.6,1319.6
201901311323,1319.6,1319.6,1319.5,1319.6
201901311324,1319.6,1319.6,1319.5,1319.6
201901311325,1319.6,1319.6,1319.6,1319.6
201901311326,1319.6,1319.6,1319.6,1319.6
201901311327,1319.6,1319.6,1319.5,1319.6
201901311328,1319.6,1319.7,1319.6,1319.7
201901311329,1319.7,1319.7,1319.6,1319.6
201901311330,1319.6,1319.7,1319.5,1319.6
201901311331,1319.6,1319.6,1319.6,1319.6
201901311332,1319.6,1319.6,1319.6,1319.6
201901311333,1319.6,1319.6,1319.6,1319.6
201901311334,1319.6,1319.6,1319.6,1319.6
201901311335,1319.6,1319.7,1319.6,1319.7
201901311336,1319.7,1319.9,1319.7,1319.9
201901311337,1319.9,1319.9,1319.8,1319.9
201901311338,1319.9,1319.9,1319.8,1319.9
201901311339,1319.9,1319.9,1319.5,1319.7
201901311340,1319.7,1319.7,1319.7,1319.7
201901311341,1319.7,1319.8,1319.7,1319.8
201901311342,1319.8,1319.8,1319.7,1319.8
201901311343,1319.8,1319.8,1319.7,1319.8
201901311344,1319.8,1319.8,1319.8,1319.8
201901311345,1319.8,1319.8,1319.7,1319.7
201901311346,1319.7,1319.7,1319.6,1319.6
201901311347,1319.6,1319.7,1319.5,1319.5
201901311348,1319.5,1319.6,1319.5,1319.6
201901311349,1319.6,1319.7,1319.6,1319.7
201901311350,1319.7,1319.8,1319.7,1319.7
201901311351,1319.7,1319.7,1319.6,1319.7
201901311352,1319.7,1319.8,1319.6,1319.8
201901311353,1319.8,1319.8,1319.6,1319.6
201901311354,1319.6,1319.6,1319.6,1319.6
201901311355,1319.6,1319.6,1319.5,1319.5
201901311356,1319.5,1319.5,1319.5,1319.5
201901311357,1319.5,1319.6,1319.5,1319.5
201901311358,1319.5,1319.6,1319.5,1319.5
201901311359,1319.5,1319.5,1319.4,1319.5
201901311400,1319.5,1319.5,1319.4,1319.5
201901311401,1319.5,1319.5,1319.4,1319.4
201901311402,1319.4,1319.4,1319.4,1319.4
201901311403,1319.4,1319.4,1319.4,1319.4
201901311404,1319.4,1319.5,1319.4,1319.4
201901311405,1319.4,1319.4,1319.4,1319.4
201901311406,1319.4,1319.4,1319.4,1319.4
201901311407,1319.4,1319.5,1319.4,1319.5
201901311408,1319.5,1319.5,1319.4,1319.5
201901311409,1319.5,1319.6,1319.5,1319.6
201901311410,1319.5,1319.6,1319.5,1319.5
201901311411,1319.5,1319.5,1319.4,1319.5
201901311412,1319.5,1319.6,1319.5,1319.5
201901311413,1319.5,1319.6,1319.5,1319.5
201901311414,1319.5,1319.5,1319.5,1319.5
201901311415,1319.5,1319.6,1319.4,1319.5
201901311416,1319.5,1319.5,1319.5,1319.5
201901311417,1319.5,1319.5,1319.5,1319.5
201901311418,1319.5,1319.5,1319.5,1319.5
201901311419,1319.5,1319.6,1319.5,1319.5
201901311420,1319.5,1319.5,1319.5,1319.5
201901311421,1319.4,1319.5,1319.4,1319.5
201901311422,1319.5,1319.8,1319.5,1319.7
201901311423,1319.7,1319.7,1319.7,1319.7
201901311424,1319.7,1319.8,1319.7,1319.8
201901311425,1319.8,1319.8,1319.8,1319.8
201901311426,1319.8,1319.8,1319.7,1319.7
201901311427,1319.7,1319.8,1319.7,1319.8
201901311428,1319.8,1319.9,1319.8,1319.9
201901311429,1319.9,1320,1319.9,1319.9
201901311430,1319.9,1320,1319.9,1319.9
201901311431,1319.9,1320,1319.8,1319.8
201901311432,1319.8,1320.4,1319.8,1320.3
201901311433,1320.3,1320.3,1320.1,1320.3
201901311434,1320.3,1320.3,1320.3,1320.3
201901311435,1320.3,1320.5,1320.3,1320.5
201901311436,1320.5,1320.6,1320.5,1320.6
201901311437,1320.6,1320.6,1320.5,1320.5
201901311438,1320.5,1320.6,1320.4,1320.5
201901311439,1320.5,1320.5,1320.3,1320.5
201901311440,1320.5,1320.8,1320.5,1320.8
201901311441,1320.8,1320.9,1320.7,1320.8
201901311442,1320.8,1320.8,1320.6,1320.7
201901311443,1320.7,1321,1320.7,1320.9
201901311444,1320.9,1321,1320.8,1320.8
201901311445,1320.7,1320.8,1320.6,1320.7
201901311446,1320.7,1320.7,1320.3,1320.3
201901311447,1320.4,1320.5,1320.4,1320.5
201901311448,1320.5,1320.5,1320.4,1320.4
201901311449,1320.4,1320.5,1320.4,1320.5
201901311450,1320.5,1320.5,1320.2,1320.3
201901311451,1320.3,1320.4,1320.3,1320.3
201901311452,1320.3,1320.3,1319.8,1319.8
201901311453,1319.8,1319.9,1319.8,1319.9
201901311454,1319.9,1319.9,1319.8,1319.8
201901311455,1319.8,1319.8,1319.7,1319.7
201901311456,1319.7,1319.7,1319.6,1319.6
201901311457,1319.6,1319.7,1319.6,1319.7
201901311458,1319.7,1319.8,1319.6,1319.7
201901311459,1319.7,1319.9,1319.7,1319.8
201901311500,1319.8,1319.9,1319.7,1319.9
201901311501,1319.9,1320,1319.6,1319.7
201901311502,1319.7,1319.8,1319.3,1319.3
201901311503,1319.3,1319.5,1319.3,1319.5
201901311504,1319.5,1319.5,1319.4,1319.4
201901311505,1319.4,1319.4,1319.3,1319.3
201901311506,1319.3,1319.4,1319.3,1319.4
201901311507,1319.4,1319.5,1319.4,1319.5
201901311508,1319.5,1319.5,1319.4,1319.4
201901311509,1319.4,1319.4,1319.1,1319.1
201901311510,1319.1,1319.1,1318.6,1318.7
201901311511,1318.7,1318.9,1318.6,1318.6
201901311512,1318.6,1318.8,1318.6,1318.7
201901311513,1318.7,1318.7,1318.6,1318.6
201901311514,1318.6,1318.7,1318.6,1318.7
201901311515,1318.7,1318.8,1318.7,1318.8
201901311516,1318.8,1319,1318.8,1318.8
201901311517,1318.8,1318.8,1318.6,1318.6
201901311518,1318.6,1318.7,1318.5,1318.7
201901311519,1318.7,1319,1318.7,1319
201901311520,1319,1319.1,1318.9,1319.1
201901311521,1319.1,1319.2,1319,1319.1
201901311522,1319.1,1319.2,1319.1,1319.2
201901311523,1319.2,1319.5,1319.2,1319.5
201901311524,1319.5,1319.5,1319.4,1319.5
201901311525,1319.5,1319.7,1319.5,1319.6
201901311526,1319.7,1319.7,1319.5,1319.7
201901311527,1319.6,1319.7,1319.1,1319.1
201901311528,1319.1,1319.2,1319,1319
201901311529,1319,1319,1319,1319
201901311530,1319,1319.2,1319,1319.1
201901311531,1319.1,1319.2,1319.1,1319.1
201901311532,1319.1,1319.2,1319.1,1319.1
201901311533,1319,1319.1,1319,1319
201901311534,1319,1319.2,1319,1319.2
201901311535,1319.2,1319.2,1319.1,1319.1
201901311536,1319.1,1319.1,1319,1319
201901311537,1319,1319.1,1319,1319.1
201901311538,1319.1,1319.4,1319,1319.4
201901311539,1319.4,1319.5,1319.3,1319.4
201901311540,1319.4,1319.4,1319.3,1319.4
201901311541,1319.4,1319.4,1319.4,1319.4
201901311542,1319.4,1319.5,1319.4,1319.4
201901311543,1319.4,1319.4,1319.4,1319.4
201901311544,1319.4,1319.5,1319.4,1319.5
201901311545,1319.5,1319.5,1319.4,1319.4
201901311546,1319.4,1319.5,1319.4,1319.4
201901311547,1319.4,1319.4,1319.3,1319.3
201901311548,1319.3,1319.4,1319.2,1319.3
201901311549,1319.3,1319.3,1319.3,1319.3
201901311550,1319.3,1319.5,1319.3,1319.3
201901311551,1319.3,1319.4,1319.2,1319.2
201901311552,1319.2,1319.2,1318.8,1318.8
201901311553,1318.8,1318.9,1318.8,1318.8
201901311554,1318.8,1318.9,1318.7,1318.9
201901311555,1318.9,1319,1318.8,1318.9
201901311556,1318.9,1319,1318.9,1319
201901311557,1319,1319.2,1319,1319.2
201901311558,1319.2,1319.4,1319.2,1319.3
201901311559,1319.3,1319.3,1319.2,1319.3
201901311600,1319.3,1319.4,1319.1,1319.2
201901311601,1319.2,1319.4,1319.1,1319.4
201901311602,1319.4,1319.6,1319.4,1319.6
201901311603,1319.6,1319.8,1319.6,1319.7
201901311604,1319.7,1319.8,1319.7,1319.8
201901311605,1319.8,1320.2,1319.8,1320.1
201901311606,1320.1,1320.2,1319.9,1320
201901311607,1320,1320.1,1319.9,1319.9
201901311608,1319.9,1320,1319.9,1320
201901311609,1320,1320,1319.9,1319.9
201901311610,1319.9,1320,1319.8,1319.9
201901311611,1319.9,1320,1319.8,1319.9
201901311612,1319.9,1319.9,1319.7,1319.8
201901311613,1319.8,1319.8,1319.6,1319.6
201901311614,1319.6,1319.7,1319.6,1319.7
201901311615,1319.7,1319.9,1319.6,1319.8
201901311616,1319.8,1319.9,1319.8,1319.9
201901311617,1319.9,1320.1,1319.9,1320.1
201901311618,1320.1,1320.4,1320.1,1320.3
201901311619,1320.3,1320.5,1320.3,1320.4
201901311620,1320.4,1320.9,1320.4,1320.8
201901311621,1320.8,1320.8,1320.7,1320.7
201901311622,1320.7,1321,1320.6,1321
201901311623,1320.9,1321,1320.8,1321
201901311624,1321,1321.3,1321,1321.2
201901311625,1321.2,1321.4,1321.2,1321.3
201901311626,1321.3,1321.5,1321.3,1321.5
201901311627,1321.5,1321.5,1321.3,1321.4
201901311628,1321.4,1321.6,1321.1,1321.1
201901311629,1321.2,1321.7,1321.1,1321.4
201901311630,1321.4,1321.7,1321.4,1321.5
201901311631,1321.5,1321.5,1321.3,1321.3
201901311632,1321.3,1321.4,1321.1,1321.2
201901311633,1321.2,1321.2,1321.1,1321.2
201901311634,1321.2,1321.2,1321,1321
201901311635,1321,1321.1,1320.9,1321
201901311636,1321,1321,1320.8,1321
201901311637,1321,1321,1320.8,1320.8
201901311638,1320.8,1320.9,1320.7,1320.7
201901311639,1320.7,1320.9,1320.7,1320.9
201901311640,1320.8,1320.9,1320.7,1320.8
201901311641,1320.8,1320.8,1320.7,1320.8
201901311642,1320.8,1321,1320.8,1320.9
201901311643,1321,1321,1320.8,1321
201901311644,1321,1321,1320.8,1320.9
201901311645,1320.9,1321.3,1320.9,1321.2
201901311646,1321.2,1321.2,1320.8,1320.8
201901311647,1320.8,1321.1,1320.8,1321.1
201901311648,1321.1,1321.3,1321,1321.1
201901311649,1321.1,1321.6,1321.1,1321.5
201901311650,1321.5,1321.5,1321.3,1321.4
201901311651,1321.4,1321.4,1320.9,1320.9
201901311652,1321,1321,1320.8,1320.9
201901311653,1320.9,1321,1320.7,1320.7
201901311654,1320.7,1320.7,1320.6,1320.7
201901311655,1320.7,1320.7,1320.6,1320.6
201901311656,1320.6,1320.7,1320.5,1320.6
201901311657,1320.5,1320.5,1320.2,1320.2
201901311658,1320.2,1320.3,1320.1,1320.2
201901311659,1320.2,1320.5,1320.2,1320.4
201901311700,1320.3,1320.8,1320.2,1320.2
201901311701,1320.1,1320.3,1319.9,1320
201901311702,1320,1320.4,1319.9,1320.4
201901311703,1320.4,1320.6,1320.1,1320.6
201901311704,1320.6,1320.7,1320.5,1320.5
201901311705,1320.5,1320.8,1320.5,1320.7
201901311706,1320.7,1321.2,1320.7,1321.2
201901311707,1321.2,1321.2,1321,1321.1
201901311708,1321.1,1321.1,1321,1321
201901311709,1321,1321.2,1321,1321.1
201901311710,1321.2,1321.2,1321.1,1321.1
201901311711,1321.1,1321.5,1321.1,1321.4
201901311712,1321.4,1321.6,1321.3,1321.5
201901311713,1321.5,1321.6,1321.2,1321.2
201901311714,1321.2,1321.3,1321.2,1321.3
201901311715,1321.3,1321.5,1321.3,1321.4
201901311716,1321.4,1321.5,1321.3,1321.3
201901311717,1321.3,1321.4,1321.3,1321.3
201901311718,1321.3,1321.3,1321.2,1321.2
201901311719,1321.2,1321.3,1321.2,1321.3
201901311720,1321.3,1321.6,1321.3,1321.5
201901311721,1321.5,1321.9,1321.5,1321.8
201901311722,1321.8,1321.9,1321.7,1321.8
201901311723,1321.8,1321.8,1321.4,1321.4
201901311724,1321.4,1321.4,1321.1,1321.3
201901311725,1321.3,1321.3,1321.1,1321.3
201901311726,1321.3,1321.3,1321.1,1321.2
201901311727,1321.2,1321.3,1321.1,1321.3
201901311728,1321.3,1321.4,1321.3,1321.3
201901311729,1321.3,1321.3,1321.1,1321.2
201901311730,1321.2,1321.2,1321,1321.1
201901311731,1321.1,1321.1,1320.9,1320.9
201901311732,1320.9,1320.9,1320.6,1320.7
201901311733,1320.7,1320.7,1320.5,1320.6
201901311734,1320.6,1320.8,1320.6,1320.7
201901311735,1320.7,1320.8,1320.6,1320.8
201901311736,1320.8,1320.8,1320.5,1320.8
201901311737,1320.8,1320.8,1320.5,1320.5
201901311738,1320.5,1320.7,1320.4,1320.7
201901311739,1320.6,1320.6,1320.4,1320.4
201901311740,1320.4,1320.6,1320.4,1320.6
201901311741,1320.6,1320.7,1320.5,1320.7
201901311742,1320.7,1320.7,1320.6,1320.7
201901311743,1320.7,1320.7,1320.6,1320.6
201901311744,1320.6,1320.7,1320.6,1320.7
201901311745,1320.7,1320.8,1320.6,1320.6
201901311746,1320.6,1320.7,1320.3,1320.3
201901311747,1320.3,1320.4,1320.3,1320.3
201901311748,1320.3,1320.3,1320.2,1320.2
201901311749,1320.2,1320.6,1320.1,1320.6
201901311750,1320.6,1320.7,1320.4,1320.5
201901311751,1320.5,1320.7,1320.5,1320.6
201901311752,1320.7,1320.7,1320.6,1320.6
201901311753,1320.7,1320.8,1320.7,1320.8
201901311754,1320.8,1320.8,1320.4,1320.4
201901311755,1320.4,1320.5,1320.4,1320.4
201901311756,1320.4,1320.5,1320.3,1320.3
201901311757,1320.3,1320.3,1320.2,1320.3
201901311758,1320.3,1320.3,1320.2,1320.3
201901311759,1320.3,1320.5,1320.2,1320.5
201901311800,1320.5,1320.5,1320.2,1320.2
201901311801,1320.2,1320.2,1320.1,1320.2
201901311802,1320.2,1320.5,1320.2,1320.5
201901311803,1320.5,1320.6,1320.3,1320.4
201901311804,1320.4,1320.4,1320.1,1320.1
201901311805,1320.1,1320.5,1320.1,1320.4
201901311806,1320.5,1320.5,1320.4,1320.4
201901311807,1320.4,1320.5,1320.3,1320.4
201901311808,1320.4,1320.5,1320.4,1320.5
201901311809,1320.5,1320.7,1320,1320.1
201901311810,1320.1,1320.2,1320.1,1320.2
201901311811,1320.2,1320.2,1320.1,1320.1
201901311812,1320.1,1320.1,1319.9,1320
201901311813,1320,1320.3,1320,1320.3
201901311814,1320.3,1320.3,1320.3,1320.3
201901311815,1320.3,1320.5,1320.2,1320.4
201901311816,1320.4,1320.5,1320.4,1320.4
201901311817,1320.4,1320.6,1320.3,1320.3
201901311818,1320.3,1320.3,1320.2,1320.3
201901311819,1320.3,1320.3,1320.2,1320.3
201901311820,1320.3,1320.5,1320.2,1320.4
201901311821,1320.4,1320.5,1320.3,1320.3
201901311822,1320.3,1320.5,1320.3,1320.5
201901311823,1320.5,1320.5,1320.4,1320.5
201901311824,1320.5,1320.6,1320.4,1320.6
201901311825,1320.6,1320.6,1320.5,1320.6
201901311826,1320.6,1320.6,1320.4,1320.5
201901311827,1320.6,1320.7,1320.6,1320.7
201901311828,1320.7,1320.7,1320.6,1320.6
201901311829,1320.6,1320.7,1320.4,1320.5
201901311830,1320.5,1320.5,1320.4,1320.5
201901311831,1320.5,1320.5,1320.4,1320.5
201901311832,1320.5,1320.5,1320.3,1320.3
201901311833,1320.3,1320.3,1320.1,1320.2
201901311834,1320.2,1320.2,1320.2,1320.2
201901311835,1320.2,1320.4,1320.2,1320.4
201901311836,1320.4,1320.4,1320.2,1320.3
201901311837,1320.3,1320.3,1320.1,1320.2
201901311838,1320.2,1320.2,1320.1,1320.2
201901311839,1320.2,1320.5,1320.2,1320.5
201901311840,1320.5,1320.8,1320.5,1320.7
201901311841,1320.7,1320.8,1320.6,1320.6
201901311842,1320.6,1320.8,1320.6,1320.8
201901311843,1320.8,1320.9,1320.8,1320.9
201901311844,1320.9,1320.9,1320.8,1320.8
201901311845,1320.8,1320.8,1320.7,1320.8
201901311846,1320.8,1320.9,1320.8,1320.8
201901311847,1320.8,1320.9,1320.8,1320.9
201901311848,1320.9,1321,1320.8,1320.9
201901311849,1320.9,1321,1320.9,1320.9
201901311850,1320.9,1321,1320.9,1321
201901311851,1321,1321,1320.9,1321
201901311852,1321,1321,1320.9,1321
201901311853,1321,1321.1,1320.9,1321.1
201901311854,1321.1,1321.1,1320.9,1321.1
201901311855,1321.1,1321.2,1321.1,1321.2
201901311856,1321.2,1321.3,1321.1,1321.1
201901311857,1321.1,1321.1,1320.8,1320.8
201901311858,1320.8,1320.8,1320.7,1320.7
201901311859,1320.7,1320.8,1320.6,1320.6
201901311900,1320.6,1320.7,1320.6,1320.7
201901311901,1320.7,1320.8,1320.6,1320.7
201901311902,1320.7,1320.8,1320.5,1320.7
201901311903,1320.6,1320.9,1320.6,1320.8
201901311904,1320.8,1320.9,1320.8,1320.8
201901311905,1320.8,1321,1320.7,1320.8
201901311906,1320.8,1321,1320.8,1321
201901311907,1321,1321.3,1321,1321.3
201901311908,1321.3,1321.3,1321,1321
201901311909,1321,1321.2,1321,1321.1
201901311910,1321.1,1321.4,1321.1,1321.4
201901311911,1321.4,1321.6,1321.3,1321.5
201901311912,1321.5,1321.7,1321.5,1321.6
201901311913,1321.6,1321.6,1321.4,1321.4
201901311914,1321.4,1321.6,1321.4,1321.6
201901311915,1321.6,1321.8,1321.6,1321.8
201901311916,1321.8,1321.8,1321.6,1321.7
201901311917,1321.7,1321.8,1321.5,1321.6
201901311918,1321.6,1322.1,1321.6,1322.1
201901311919,1322.1,1322.1,1321.7,1321.7
201901311920,1321.7,1321.9,1321.7,1321.7
201901311921,1321.7,1321.7,1321.7,1321.7
201901311922,1321.7,1321.7,1321.5,1321.6
201901311923,1321.6,1321.6,1321.6,1321.6
201901311924,1321.6,1321.6,1321.4,1321.4
201901311925,1321.4,1321.6,1321.4,1321.4
201901311926,1321.4,1321.5,1321.3,1321.4
201901311927,1321.3,1321.4,1321.3,1321.4
201901311928,1321.4,1321.5,1321.4,1321.5
201901311929,1321.5,1321.9,1321.5,1321.8
201901311930,1321.9,1321.9,1321.4,1321.8
201901311931,1321.8,1321.8,1321.6,1321.7
201901311932,1321.7,1321.7,1321.6,1321.7
201901311933,1321.7,1321.8,1321.6,1321.7
201901311934,1321.7,1321.7,1321.4,1321.4
201901311935,1321.4,1321.9,1321.4,1321.8
201901311936,1321.8,1322.1,1321.8,1321.9
201901311937,1321.9,1322.1,1321.9,1322.1
201901311938,1322,1322.3,1322,1322.2
201901311939,1322.2,1322.3,1322.1,1322.2
201901311940,1322.2,1322.3,1322.2,1322.2
201901311941,1322.2,1322.3,1322.1,1322.2
201901311942,1322.2,1322.3,1322.2,1322.2
201901311943,1322.2,1322.5,1322.2,1322.5
201901311944,1322.5,1322.5,1322.3,1322.5
201901311945,1322.5,1322.5,1322.4,1322.5
201901311946,1322.5,1322.5,1322.4,1322.4
201901311947,1322.4,1322.5,1322.3,1322.5
201901311948,1322.5,1322.5,1322.4,1322.5
201901311949,1322.5,1322.5,1322.4,1322.4
201901311950,1322.5,1322.5,1322.2,1322.2
201901311951,1322.2,1322.3,1322.2,1322.2
201901311952,1322.2,1322.4,1322.2,1322.4
201901311953,1322.4,1322.4,1322.2,1322.2
201901311954,1322.2,1322.4,1322.2,1322.4
201901311955,1322.4,1322.5,1322.4,1322.4
201901311956,1322.4,1322.5,1322.3,1322.4
201901311957,1322.4,1322.5,1322.3,1322.5
201901311958,1322.5,1322.5,1322.3,1322.4
201901311959,1322.4,1322.5,1322.3,1322.4
201901312000,1322.4,1322.5,1322.3,1322.4
201901312001,1322.3,1322.4,1322.2,1322.3
201901312002,1322.3,1322.3,1322.1,1322.2
201901312003,1322.2,1322.2,1322.2,1322.2
201901312004,1322.2,1322.3,1322.2,1322.3
201901312005,1322.3,1322.4,1322.2,1322.3
201901312006,1322.3,1322.3,1322.3,1322.3
201901312007,1322.3,1322.4,1322.3,1322.3
201901312008,1322.3,1322.3,1322.3,1322.3
201901312009,1322.3,1322.5,1322.3,1322.5
201901312010,1322.5,1322.8,1322.5,1322.6
201901312011,1322.6,1323,1322.6,1322.9
201901312012,1322.9,1323.1,1322.9,1322.9
201901312013,1322.9,1323.1,1322.9,1323
201901312014,1323,1323,1322.6,1322.6
201901312015,1322.6,1322.6,1322.5,1322.5
201901312016,1322.5,1322.8,1322.5,1322.7
201901312017,1322.7,1322.8,1322.4,1322.6
201901312018,1322.6,1322.7,1322.5,1322.5
201901312019,1322.5,1322.5,1322.4,1322.4
201901312020,1322.4,1322.5,1322.4,1322.5
201901312021,1322.5,1322.6,1322.5,1322.6
201901312022,1322.6,1322.6,1322.5,1322.5
201901312023,1322.5,1322.5,1322.4,1322.4
201901312024,1322.4,1322.4,1322.3,1322.4
201901312025,1322.4,1322.4,1322.2,1322.3
201901312026,1322.3,1322.6,1322.2,1322.4
201901312027,1322.4,1322.6,1322.4,1322.5
201901312028,1322.5,1322.5,1322.4,1322.4
201901312029,1322.4,1322.6,1322.4,1322.5
201901312030,1322.5,1322.6,1322.5,1322.5
201901312031,1322.5,1322.6,1322.5,1322.6
201901312032,1322.6,1322.6,1322.3,1322.3
201901312033,1322.3,1322.4,1322.3,1322.4
201901312034,1322.4,1322.4,1322.2,1322.3
201901312035,1322.3,1322.6,1322.3,1322.6
201901312036,1322.6,1323,1322.5,1323
201901312037,1323,1323.1,1323,1323
201901312038,1323.1,1323.3,1323,1323.3
201901312039,1323.2,1323.5,1323.2,1323.4
201901312040,1323.4,1323.4,1323,1323
201901312041,1323,1323.2,1323,1323.2
201901312042,1323.2,1323.4,1323.2,1323.4
201901312043,1323.4,1323.4,1323.1,1323.2
201901312044,1323.2,1323.3,1323.1,1323.1
201901312045,1323.1,1323.1,1323,1323.1
201901312046,1323.1,1323.2,1323,1323.2
201901312047,1323.2,1323.3,1323.2,1323.2
201901312048,1323.2,1323.4,1323.2,1323.3
201901312049,1323.3,1323.6,1323.3,1323.6
201901312050,1323.5,1323.5,1323.3,1323.3
201901312051,1323.3,1323.4,1323.2,1323.2
201901312052,1323.2,1323.2,1323.1,1323.1
201901312053,1323.1,1323.2,1323,1323.2
201901312054,1323.2,1323.4,1323.2,1323.4
201901312055,1323.4,1323.6,1323.4,1323.4
201901312056,1323.4,1323.4,1323.4,1323.4
201901312057,1323.4,1323.4,1323.3,1323.3
201901312058,1323.3,1323.4,1323.2,1323.4
201901312059,1323.4,1323.4,1323.1,1323.2
201901312100,1323.2,1323.2,1323,1323.1
201901312101,1323.1,1323.2,1323,1323.1
201901312102,1323.1,1323.1,1322.9,1322.9
201901312103,1322.9,1323,1322.7,1322.8
201901312104,1322.8,1323.1,1322.7,1323.1
201901312105,1323.1,1323.1,1323,1323.1
201901312106,1323.1,1323.1,1323,1323
201901312107,1323,1323,1322.9,1323
201901312108,1323,1323,1323,1323
201901312109,1323,1323.1,1322.9,1322.9
201901312110,1322.9,1322.9,1322.8,1322.9
201901312111,1322.9,1322.9,1322.8,1322.8
201901312112,1322.8,1322.9,1322.8,1322.9
201901312113,1322.9,1322.9,1322.8,1322.8
201901312114,1322.8,1322.9,1322.8,1322.9
201901312115,1322.9,1322.9,1322.9,1322.9
201901312116,1322.9,1322.9,1322.9,1322.9
201901312117,1322.9,1323.1,1322.9,1323.1
201901312118,1323.1,1323.1,1323,1323
201901312119,1323,1323.2,1322.9,1323
201901312120,1323,1323.1,1323,1323.1
201901312121,1323.1,1323.2,1323,1323.2
201901312122,1323.2,1323.3,1323.2,1323.3
201901312123,1323.3,1323.6,1323.3,1323.6
201901312124,1323.6,1323.6,1323.5,1323.5
201901312125,1323.5,1323.7,1323.4,1323.7
201901312126,1323.7,1323.7,1323.6,1323.7
201901312127,1323.7,1323.7,1323.6,1323.6
201901312128,1323.6,1323.9,1323.5,1323.9
201901312129,1323.9,1324.1,1323.8,1324.1
201901312130,1324.1,1324.1,1323.8,1323.8
201901312131,1323.8,1323.8,1323.6,1323.7
201901312132,1323.7,1324,1323.7,1324
201901312133,1324,1324.2,1323.9,1324.2
201901312134,1324.2,1324.4,1324.2,1324.2
201901312135,1324.2,1324.5,1324.2,1324.5
201901312136,1324.5,1324.5,1324.4,1324.4
201901312137,1324.4,1324.4,1324.3,1324.3
201901312138,1324.3,1324.3,1324.2,1324.3
201901312139,1324.3,1324.3,1324.2,1324.2
201901312140,1324.2,1324.2,1324,1324.1
201901312141,1324.1,1324.1,1324,1324
201901312142,1324,1324,1323.9,1323.9
201901312143,1323.9,1323.9,1323.6,1323.7
201901312144,1323.7,1323.7,1323.5,1323.6
201901312145,1323.6,1323.6,1323.3,1323.4
201901312146,1323.4,1323.4,1323.3,1323.4
201901312147,1323.4,1323.5,1323.2,1323.2
201901312148,1323.2,1323.4,1323.1,1323.3
201901312149,1323.3,1323.4,1322.8,1322.9
201901312150,1322.9,1323,1322.7,1322.8
201901312151,1322.8,1322.8,1322.6,1322.8
201901312152,1322.8,1322.9,1322.6,1322.9
201901312153,1323,1323,1322.9,1322.9
201901312154,1323,1323.2,1323,1323.1
201901312155,1323.1,1323.1,1323,1323.1
201901312156,1323.1,1323.1,1322.8,1322.8
201901312157,1322.8,1323,1322.8,1322.9
201901312158,1322.9,1323.1,1322.9,1323.1
201901312159,1323.1,1323.1,1322.9,1323
201901312200,1323,1323.4,1323,1323.4
201901312201,1323.4,1323.6,1323.2,1323.5
201901312202,1323.5,1323.6,1323.3,1323.4
201901312203,1323.4,1323.6,1323.2,1323.5
201901312204,1323.5,1323.8,1323.5,1323.6
201901312205,1323.6,1323.7,1323.5,1323.7
201901312206,1323.7,1323.7,1323.4,1323.4
201901312207,1323.4,1323.4,1323.1,1323.2
201901312208,1323.2,1323.3,1323.1,1323.1
201901312209,1323.1,1323.3,1323.1,1323.2
201901312210,1323.2,1323.3,1323.1,1323.1
201901312211,1323.1,1323.2,1322.9,1323.2
201901312212,1323.2,1323.2,1322.6,1322.8
201901312213,1322.8,1323,1322.7,1323
201901312214,1323,1323.2,1323,1323.2
201901312215,1323.2,1323.2,1322.9,1323.2
201901312216,1323.2,1323.3,1323.2,1323.2
201901312217,1323.2,1323.3,1323.2,1323.3
201901312218,1323.3,1323.5,1323,1323.5
201901312219,1323.5,1323.5,1323.4,1323.4
201901312220,1323.4,1323.7,1323.3,1323.6
201901312221,1323.6,1323.6,1323.4,1323.4
201901312222,1323.4,1323.5,1323.4,1323.5
201901312223,1323.5,1323.6,1323.4,1323.4
201901312224,1323.4,1323.6,1323.4,1323.5
201901312225,1323.5,1323.6,1323.1,1323.2
201901312226,1323.2,1323.2,1323.1,1323.1
201901312227,1323.1,1323.1,1323,1323
201901312228,1323,1323.3,1322.7,1323.1
201901312229,1323.1,1323.1,1323,1323.1
201901312230,1323.1,1324.5,1323.1,1324.3
201901312231,1324.3,1324.4,1324,1324.1
201901312232,1324.1,1324.3,1323.8,1323.8
201901312233,1323.8,1324.8,1323.8,1324.7
201901312234,1324.7,1324.7,1324.3,1324.5
201901312235,1324.5,1325.2,1324.5,1325.1
201901312236,1325,1325.4,1324.9,1325.3
201901312237,1325.3,1325.5,1325,1325.2
201901312238,1325.2,1325.4,1325.1,1325.2
201901312239,1325.2,1325.7,1325.1,1325.7
201901312240,1325.6,1325.8,1325.3,1325.8
201901312241,1325.8,1326.1,1325.7,1326.1
201901312242,1326.1,1326.1,1325.5,1325.6
201901312243,1325.6,1325.8,1325.5,1325.5
201901312244,1325.5,1325.5,1325.3,1325.3
201901312245,1325.4,1325.5,1325.1,1325.1
201901312246,1325.1,1325.1,1324.8,1324.8
201901312247,1324.8,1325.1,1324.8,1325.1
201901312248,1325.1,1325.5,1325.1,1325.3
201901312249,1325.3,1325.3,1325,1325.1
201901312250,1325.1,1325.3,1325.1,1325.2
201901312251,1325.2,1325.2,1324.8,1324.8
201901312252,1324.8,1324.9,1324.7,1324.7
201901312253,1324.7,1324.8,1324.6,1324.6
201901312254,1324.6,1324.6,1324,1324.3
201901312255,1324.3,1324.8,1324.3,1324.8
201901312256,1324.8,1324.9,1324.7,1324.9
201901312257,1324.9,1325.3,1324.9,1324.9
201901312258,1324.9,1325.1,1324.8,1325.1
201901312259,1325.1,1325.2,1325.1,1325.2
201901312300,1325.2,1325.2,1324.8,1325
201901312301,1325,1325.1,1324.6,1324.6
201901312302,1324.6,1325,1324.6,1324.8
201901312303,1324.8,1324.8,1324.3,1324.4
201901312304,1324.4,1324.8,1324.4,1324.8
201901312305,1324.8,1324.8,1324.6,1324.8
201901312306,1324.8,1324.9,1324.6,1324.6
201901312307,1324.6,1324.8,1324.4,1324.7
201901312308,1324.7,1324.7,1324.2,1324.2
201901312309,1324.2,1324.2,1323.7,1323.8
201901312310,1323.8,1323.9,1323.5,1323.7
201901312311,1323.7,1323.8,1323.5,1323.6
201901312312,1323.7,1323.9,1323.7,1323.8
201901312313,1323.8,1323.8,1323.5,1323.7
201901312314,1323.7,1323.9,1323.7,1323.8
201901312315,1323.8,1324,1323.8,1324
201901312316,1324,1324.3,1323.9,1324.1
201901312317,1324.2,1324.6,1324.1,1324.6
201901312318,1324.6,1324.6,1324.2,1324.4
201901312319,1324.4,1324.5,1324.3,1324.3
201901312320,1324.3,1324.3,1324.3,1324.3
201901312321,1324.3,1324.4,1324.2,1324.4
201901312322,1324.4,1324.5,1324.3,1324.4
201901312323,1324.4,1324.7,1324.4,1324.7
201901312324,1324.7,1325,1324.7,1324.9
201901312325,1324.9,1325,1324.6,1324.7
201901312326,1324.7,1324.7,1324.5,1324.6
201901312327,1324.6,1324.7,1324.5,1324.6
201901312328,1324.6,1324.6,1324.3,1324.4
201901312329,1324.4,1324.5,1324.3,1324.5
201901312330,1324.5,1324.5,1324.3,1324.3
201901312331,1324.3,1324.3,1323.6,1323.7
201901312332,1323.7,1324.2,1323.7,1324.2
201901312333,1324.2,1324.7,1324.2,1324.6
201901312334,1324.6,1324.7,1324.4,1324.4
201901312335,1324.4,1324.6,1324.2,1324.4
201901312336,1324.5,1324.7,1324.2,1324.7
201901312337,1324.8,1324.8,1324.2,1324.3
201901312338,1324.3,1324.3,1324.1,1324.3
201901312339,1324.3,1324.3,1323.7,1323.9
201901312340,1323.9,1323.9,1323.7,1323.8
201901312341,1323.8,1324.1,1323.8,1324.1
201901312342,1324.1,1324.2,1323.7,1323.7
201901312343,1323.7,1323.8,1323.6,1323.7
201901312344,1323.6,1324,1323.6,1323.9
201901312345,1324,1324.1,1323.8,1324.1
201901312346,1324.1,1324.2,1323.9,1323.9
201901312347,1323.9,1323.9,1323.3,1323.3
201901312348,1323.3,1323.4,1322.9,1323.3
201901312349,1323.3,1323.4,1323.2,1323.3
201901312350,1323.3,1323.6,1323.2,1323.5
201901312351,1323.5,1323.5,1322.7,1323.1
201901312352,1323.1,1323.4,1322.9,1323.3
201901312353,1323.3,1323.6,1323.1,1323.5
201901312354,1323.5,1323.8,1323.4,1323.6
201901312355,1323.6,1323.6,1323.4,1323.4
201901312356,1323.5,1323.6,1323.4,1323.5
201901312357,1323.4,1323.5,1323.2,1323.3
201901312358,1323.3,1323.6,1323.3,1323.5
201901312359,1323.5,1323.5,1322.9,1323
201902010000,1323,1323.6,1323,1323.2
201902010001,1323.2,1323.2,1322.8,1323
201902010002,1323,1323.2,1322.9,1323.2
201902010003,1323.2,1323.2,1322.1,1322.5
201902010004,1322.5,1322.9,1322.4,1322.6
201902010005,1322.6,1322.7,1322.5,1322.5
201902010006,1322.5,1322.6,1322.4,1322.6
201902010007,1322.6,1322.6,1322.2,1322.5
201902010008,1322.5,1322.6,1322.3,1322.3
201902010009,1322.3,1322.5,1322.2,1322.3
201902010010,1322.3,1322.4,1322.3,1322.4
201902010011,1322.4,1322.6,1322.4,1322.5
201902010012,1322.5,1322.6,1322.4,1322.6
201902010013,1322.6,1323.1,1322.6,1323.1
201902010014,1323.1,1323.3,1323.1,1323.2
201902010015,1323.2,1323.2,1323.1,1323.2
201902010016,1323.2,1323.8,1323.2,1323.8
201902010017,1323.8,1323.8,1323.6,1323.6
201902010018,1323.6,1323.8,1323.4,1323.5
201902010019,1323.5,1323.6,1323.4,1323.5
201902010020,1323.5,1324,1323.5,1323.9
201902010021,1323.9,1323.9,1323.7,1323.9
201902010022,1323.9,1324,1323.8,1324
201902010023,1324,1324,1323.8,1323.9
201902010024,1323.9,1324.5,1323.9,1324.3
201902010025,1324.3,1324.4,1324.1,1324.3
201902010026,1324.3,1324.4,1324,1324.2
201902010027,1324.2,1324.4,1324.1,1324.4
201902010028,1324.4,1324.4,1324.2,1324.3
201902010029,1324.3,1324.3,1324.1,1324.1
201902010030,1324.2,1324.3,1324,1324.2
201902010031,1324.1,1324.1,1323.9,1324.1
201902010032,1324.1,1324.5,1324.1,1324.4
201902010033,1324.4,1324.4,1324.1,1324.1
201902010034,1324.1,1324.1,1324,1324.1
201902010035,1324.1,1324.2,1323.9,1323.9
201902010036,1323.9,1324.1,1323.8,1324
201902010037,1323.9,1324.1,1323.7,1323.8
201902010038,1323.8,1324,1323.7,1323.7
201902010039,1323.7,1323.9,1323.6,1323.8
201902010040,1323.9,1324,1323.7,1323.9
201902010041,1323.9,1323.9,1323.6,1323.7
201902010042,1323.7,1324.1,1323.6,1324.1
201902010043,1324.1,1324.1,1323.9,1324.1
201902010044,1324.1,1324.3,1324,1324.2
201902010045,1324.2,1324.2,1323.7,1323.9
201902010046,1323.9,1324,1323.8,1323.9
201902010047,1323.9,1323.9,1323.7,1323.9
201902010048,1323.8,1324.1,1323.7,1324.1
201902010049,1324.1,1324.1,1323.6,1323.7
201902010050,1323.7,1323.7,1323.3,1323.6
201902010051,1323.6,1324,1323.6,1324
201902010052,1324,1324,1323.7,1323.9
201902010053,1323.9,1323.9,1323.6,1323.7
201902010054,1323.7,1323.8,1323.6,1323.7
201902010055,1323.7,1323.7,1323.3,1323.3
201902010056,1323.3,1323.5,1323,1323.1
201902010057,1323.1,1323.1,1322.3,1322.4
201902010058,1322.4,1322.7,1322.2,1322.3
201902010059,1322.3,1322.4,1321.9,1322.1
201902010100,1322.1,1322.7,1322.1,1322.4
201902010101,1322.4,1322.5,1322.1,1322.1
201902010102,1322.1,1322.4,1322,1322.2
201902010103,1322.2,1322.2,1321.8,1322
201902010104,1322,1322.4,1322,1322.3
201902010105,1322.3,1322.4,1321.8,1322.4
201902010106,1322.4,1322.5,1322.1,1322.1
201902010107,1322,1322.4,1321.9,1322.4
201902010108,1322.4,1322.5,1322.2,1322.5
201902010109,1322.5,1322.5,1322.2,1322.2
201902010110,1322.2,1322.3,1322,1322.2
201902010111,1322.3,1322.4,1322.1,1322.3
201902010112,1322.3,1322.5,1322.2,1322.3
201902010113,1322.3,1322.5,1322.3,1322.4
201902010114,1322.4,1322.6,1322.3,1322.4
201902010115,1322.4,1322.6,1322.3,1322.5
201902010116,1322.5,1322.8,1322.4,1322.5
201902010117,1322.5,1322.6,1322.4,1322.5
201902010118,1322.5,1322.5,1322.1,1322.1
201902010119,1322.1,1322.1,1321.5,1321.6
201902010120,1321.6,1321.6,1321.3,1321.4
201902010121,1321.4,1321.5,1321.1,1321.1
201902010122,1321.1,1321.1,1320.9,1320.9
201902010123,1320.9,1321,1320.6,1320.7
201902010124,1320.6,1321.3,1320.6,1321.3
201902010125,1321.3,1321.4,1321.1,1321.4
201902010126,1321.4,1321.4,1321.3,1321.4
201902010127,1321.4,1321.5,1321.3,1321.4
201902010128,1321.4,1321.7,1321.4,1321.6
201902010129,1321.6,1321.6,1321.3,1321.4
201902010130,1321.4,1321.8,1321.4,1321.5
201902010131,1321.5,1321.5,1321.1,1321.2
201902010132,1321.2,1321.2,1320.8,1320.8
201902010133,1320.8,1321.1,1320.7,1321
201902010134,1321,1321.3,1320.9,1321.2
201902010135,1321.2,1321.5,1321.2,1321.4
201902010136,1321.4,1321.4,1321.1,1321.1
201902010137,1321.2,1321.3,1321.1,1321.1
201902010138,1321.2,1321.2,1321,1321.1
201902010139,1321.1,1321.1,1321,1321.1
201902010140,1321.1,1321.1,1320.9,1320.9
201902010141,1320.9,1321,1320.7,1320.7
201902010142,1320.7,1320.7,1320.4,1320.5
201902010143,1320.4,1320.4,1320,1320.3
201902010144,1320.3,1320.7,1320.3,1320.6
201902010145,1320.6,1320.7,1320.4,1320.5
201902010146,1320.5,1320.5,1320.1,1320.1
201902010147,1320.1,1320.7,1320.1,1320.6
201902010148,1320.6,1320.9,1320.4,1320.8
201902010149,1320.9,1321,1320.5,1321
201902010150,1321,1321.1,1320.7,1320.9
201902010151,1320.9,1320.9,1320.8,1320.9
201902010152,1320.9,1321.1,1320.8,1321.1
201902010153,1321.1,1321.1,1320.9,1321.1
201902010154,1321.1,1321.1,1320.5,1320.6
201902010155,1320.6,1320.8,1320.6,1320.8
201902010156,1320.8,1321,1320.7,1320.8
201902010157,1320.8,1321,1320.6,1320.9
201902010158,1320.9,1320.9,1320.8,1320.9
201902010159,1320.9,1321.3,1320.9,1321.2
201902010200,1321.3,1321.3,1320.9,1321.1
201902010201,1321.1,1321.5,1321.1,1321.5
201902010202,1321.5,1321.7,1321.5,1321.7
201902010203,1321.7,1321.7,1321.3,1321.3
201902010204,1321.3,1321.5,1321.3,1321.4
201902010205,1321.4,1321.4,1321.3,1321.3
201902010206,1321.4,1321.4,1320.9,1321
201902010207,1321,1321.2,1321,1321.2
201902010208,1321.2,1321.4,1321,1321
201902010209,1321,1321.1,1320.8,1320.8
201902010210,1320.8,1321,1320.8,1321
201902010211,1321,1321.2,1321,1321.1
201902010212,1321.1,1321.2,1321,1321
201902010213,1321,1321,1320.8,1320.8
201902010214,1320.8,1320.9,1320.5,1320.6
201902010215,1320.6,1320.8,1320.5,1320.6
201902010216,1320.6,1320.9,1320.6,1320.8
201902010217,1320.8,1320.8,1320.3,1320.3
201902010218,1320.3,1320.6,1320.3,1320.6
201902010219,1320.6,1320.6,1320.2,1320.2
201902010220,1320.2,1320.2,1319.7,1319.9
201902010221,1319.9,1320,1319.8,1319.9
201902010222,1319.9,1320,1319.8,1320
201902010223,1320,1320.3,1320,1320.2
201902010224,1320.2,1320.6,1320.1,1320.4
201902010225,1320.4,1320.6,1320.3,1320.5
201902010226,1320.5,1320.7,1320.4,1320.6
201902010227,1320.6,1320.7,1320.5,1320.5
201902010228,1320.5,1320.5,1320.3,1320.4
201902010229,1320.4,1320.4,1320.2,1320.2
201902010230,1320.2,1320.6,1320.2,1320.5
201902010231,1320.5,1320.6,1320.4,1320.5
201902010232,1320.5,1320.5,1320.4,1320.4
201902010233,1320.4,1320.7,1320.4,1320.6
201902010234,1320.6,1320.7,1320.5,1320.6
201902010235,1320.6,1320.8,1320.5,1320.8
201902010236,1320.7,1320.7,1320.3,1320.6
201902010237,1320.6,1320.9,1320.5,1320.5
201902010238,1320.5,1320.8,1320.5,1320.7
201902010239,1320.7,1320.8,1320.6,1320.6
201902010240,1320.6,1320.7,1320.5,1320.6
201902010241,1320.6,1320.6,1320.5,1320.5
201902010242,1320.5,1320.8,1320.5,1320.7
201902010243,1320.7,1320.9,1320.6,1320.9
201902010244,1320.9,1321.2,1320.8,1321.2
201902010245,1321.2,1321.2,1321,1321.1
201902010246,1321.1,1321.2,1321,1321.2
201902010247,1321.2,1321.2,1320.8,1320.9
201902010248,1320.9,1321,1320.9,1321
201902010249,1321,1321.2,1320.9,1321.2
201902010250,1321.2,1321.3,1321.1,1321.2
201902010251,1321.2,1321.3,1321.1,1321.2
201902010252,1321.2,1321.4,1321.2,1321.3
201902010253,1321.3,1321.5,1321.3,1321.5
201902010254,1321.5,1321.6,1321.3,1321.6
201902010255,1321.6,1321.7,1321.6,1321.6
201902010256,1321.6,1321.7,1321.5,1321.6
201902010257,1321.6,1321.7,1321.5,1321.6
201902010258,1321.6,1321.7,1321.6,1321.7
201902010259,1321.7,1322,1321.6,1321.9
201902010300,1321.9,1322,1321.8,1321.9
201902010301,1321.9,1322.2,1321.7,1322.1
201902010302,1322.1,1322.1,1322.1,1322.1
201902010303,1322.1,1322.3,1321.9,1322.2
201902010304,1322.2,1322.2,1321.8,1321.9
201902010305,1321.9,1322.1,1321.9,1322
201902010306,1322,1322.2,1322,1322.2
201902010307,1322.2,1322.2,1321.9,1322
201902010308,1322,1322.1,1322,1322
201902010309,1322,1322,1321.8,1321.9
201902010310,1321.9,1321.9,1321.8,1321.9
201902010311,1321.9,1322,1321.8,1321.8
201902010312,1321.8,1321.9,1321.7,1321.7
201902010313,1321.7,1321.7,1321.6,1321.7
201902010314,1321.7,1321.8,1321.7,1321.8
201902010315,1321.8,1321.8,1321.5,1321.5
201902010316,1321.5,1321.5,1321.5,1321.5
201902010317,1321.5,1321.5,1321.4,1321.4
201902010318,1321.4,1321.4,1321.3,1321.3
201902010319,1321.3,1321.3,1321.1,1321.1
201902010320,1321.1,1321.1,1320.8,1320.8
201902010321,1320.8,1320.8,1320.7,1320.7
201902010322,1320.7,1320.7,1320.5,1320.6
201902010323,1320.6,1320.8,1320.6,1320.7
201902010324,1320.7,1320.8,1320.6,1320.7
201902010325,1320.6,1320.7,1320.4,1320.7
201902010326,1320.7,1320.8,1320.6,1320.6
201902010327,1320.6,1321,1320.6,1321
201902010328,1321,1321,1320.2,1320.3
201902010329,1320.3,1320.8,1320.3,1320.3
201902010330,1320.3,1320.3,1319.8,1320
201902010331,1320,1320.4,1320,1320.1
201902010332,1320.1,1320.1,1319.7,1319.8
201902010333,1319.8,1319.9,1319.2,1319.2
201902010334,1319.2,1319.5,1319.1,1319.4
201902010335,1319.4,1319.6,1319.4,1319.6
201902010336,1319.6,1319.7,1319.5,1319.7
201902010337,1319.7,1319.9,1319.6,1319.7
201902010338,1319.7,1319.8,1319.5,1319.8
201902010339,1319.8,1319.9,1319.6,1319.9
201902010340,1319.9,1319.9,1319.8,1319.9
201902010341,1319.9,1320.1,1319.9,1319.9
201902010342,1320,1320.2,1320,1320.1
201902010343,1320.1,1320.1,1319.9,1319.9
201902010344,1319.9,1319.9,1319.7,1319.8
201902010345,1319.8,1320,1319.7,1319.9
201902010346,1319.9,1320,1319.8,1320
201902010347,1320,1320.1,1320,1320.1
201902010348,1320.1,1320.1,1320,1320
201902010349,1320,1320.1,1319.9,1320.1
201902010350,1320.1,1320.1,1319.7,1319.8
201902010351,1319.8,1319.9,1319.7,1319.8
201902010352,1319.8,1319.8,1319.7,1319.7
201902010353,1319.7,1319.7,1319.6,1319.6
201902010354,1319.6,1319.8,1319.6,1319.7
201902010355,1319.7,1319.7,1319.6,1319.7
201902010356,1319.7,1319.8,1319.6,1319.6
201902010357,1319.6,1319.7,1319.5,1319.6
201902010358,1319.6,1319.6,1319.5,1319.5
201902010359,1319.5,1319.7,1319.5,1319.5
201902010400,1319.5,1319.5,1319.3,1319.3
201902010401,1319.3,1319.3,1318.7,1318.8
201902010402,1318.8,1318.8,1318.6,1318.7
201902010403,1318.7,1319.1,1318.7,1319.1
201902010404,1319.1,1319.1,1319,1319.1
201902010405,1319.1,1319.1,1319,1319
201902010406,1319,1319.1,1318.9,1319.1
201902010407,1319.1,1319.5,1319.1,1319.4
201902010408,1319.4,1319.5,1319.3,1319.3
201902010409,1319.3,1319.5,1319.2,1319.5
201902010410,1319.4,1319.7,1319.4,1319.7
201902010411,1319.8,1319.8,1319.7,1319.7
201902010412,1319.7,1319.8,1319.7,1319.7
201902010413,1319.7,1319.9,1319.7,1319.9
201902010414,1319.9,1319.9,1319.8,1319.9
201902010415,1319.9,1320,1319.9,1319.9
201902010416,1319.9,1320.1,1319.9,1320
201902010417,1320,1320,1319.8,1319.8
201902010418,1319.8,1320.1,1319.8,1320
201902010419,1319.9,1320.1,1319.9,1320.1
201902010420,1320.1,1320.3,1320.1,1320.3
201902010421,1320.4,1320.4,1320.2,1320.3
201902010422,1320.3,1320.4,1320.2,1320.2
201902010423,1320.2,1320.4,1320.2,1320.3
201902010424,1320.3,1320.3,1320.2,1320.2
201902010425,1320.2,1320.4,1320.2,1320.3
201902010426,1320.3,1320.4,1320.2,1320.4
201902010427,1320.4,1320.5,1320.3,1320.3
201902010428,1320.3,1320.6,1320.3,1320.6
201902010429,1320.6,1320.6,1320.4,1320.4
201902010430,1320.4,1320.5,1320.4,1320.4
201902010431,1320.4,1320.5,1320.3,1320.5
201902010432,1320.5,1320.5,1320.4,1320.4
201902010433,1320.4,1320.5,1320.4,1320.4
201902010434,1320.4,1320.4,1320.3,1320.4
201902010435,1320.4,1320.6,1320.4,1320.5
201902010436,1320.5,1320.6,1320.5,1320.6
201902010437,1320.6,1320.7,1320.6,1320.6
201902010438,1320.6,1320.6,1320.5,1320.5
201902010439,1320.5,1320.6,1320.5,1320.6
201902010440,1320.6,1320.6,1320.5,1320.5
201902010441,1320.5,1320.7,1320.5,1320.7
201902010442,1320.7,1320.7,1320.6,1320.6
201902010443,1320.6,1320.6,1320.4,1320.5
201902010444,1320.5,1320.5,1320.4,1320.4
201902010445,1320.4,1320.5,1320.3,1320.3
201902010446,1320.3,1320.4,1320.3,1320.3
201902010447,1320.3,1320.4,1320.2,1320.2
201902010448,1320.2,1320.3,1320.1,1320.3
201902010449,1320.3,1320.3,1320.1,1320.2
201902010450,1320.2,1320.2,1320.2,1320.2
201902010451,1320.2,1320.2,1319.9,1319.9
201902010452,1319.9,1319.9,1319.6,1319.9
201902010453,1319.9,1319.9,1319.7,1319.8
201902010454,1319.8,1320,1319.7,1319.9
201902010455,1319.9,1319.9,1319.8,1319.9
201902010456,1319.9,1320.1,1319.9,1320
201902010457,1320,1320.6,1320,1320.5
201902010458,1320.5,1320.8,1320.5,1320.8
201902010459,1320.8,1320.9,1320.7,1320.8
201902010500,1320.8,1321.3,1320.8,1321.1
201902010501,1321.1,1321.1,1320.9,1321
201902010502,1321,1321,1320.9,1320.9
201902010503,1320.9,1320.9,1320.7,1320.7
201902010504,1320.7,1320.8,1320.7,1320.8
201902010505,1320.8,1320.8,1320.7,1320.8
201902010506,1320.8,1320.9,1320.8,1320.9
201902010507,1320.9,1320.9,1320.7,1320.8
201902010508,1320.8,1321,1320.7,1320.9
201902010509,1320.9,1320.9,1320.8,1320.8
201902010510,1320.8,1320.8,1320.7,1320.7
201902010511,1320.7,1320.9,1320.7,1320.9
201902010512,1320.9,1321.2,1320.9,1321.1
201902010513,1321.1,1321.1,1321,1321.1
201902010514,1321.1,1321.3,1321.1,1321.2
201902010515,1321.3,1321.3,1321.1,1321.3
201902010516,1321.3,1321.3,1321.2,1321.2
201902010517,1321.2,1321.4,1321.2,1321.3
201902010518,1321.3,1321.4,1321.2,1321.4
201902010519,1321.4,1321.4,1321.3,1321.3
201902010520,1321.2,1321.4,1321.2,1321.4
201902010521,1321.4,1321.4,1321,1321
201902010522,1321,1321.2,1321,1321.1
201902010523,1321.1,1321.1,1320.9,1320.9
201902010524,1320.9,1320.9,1320.8,1320.9
201902010525,1320.8,1320.9,1320.8,1320.8
201902010526,1320.8,1320.8,1320.7,1320.8
201902010527,1320.8,1320.9,1320.7,1320.7
201902010528,1320.7,1320.7,1320.6,1320.6
201902010529,1320.6,1320.6,1320.5,1320.6
201902010530,1320.6,1320.8,1320.5,1320.8
201902010531,1320.8,1320.8,1320.7,1320.8
201902010532,1320.8,1320.8,1320.7,1320.8
201902010533,1320.8,1321,1320.8,1321
201902010534,1321,1321,1320.7,1320.7
201902010535,1320.7,1320.7,1320.6,1320.6
201902010536,1320.6,1320.6,1320.5,1320.6
201902010537,1320.6,1320.6,1320.5,1320.6
201902010538,1320.6,1320.6,1320.4,1320.5
201902010539,1320.5,1320.6,1320.5,1320.6
201902010540,1320.6,1320.7,1320.6,1320.7
201902010541,1320.7,1320.9,1320.6,1320.8
201902010542,1320.8,1320.8,1320.7,1320.7
201902010543,1320.7,1320.7,1320.6,1320.6
201902010544,1320.6,1320.7,1320.6,1320.7
201902010545,1320.7,1320.8,1320.7,1320.7
201902010546,1320.7,1320.8,1319.9,1319.9
201902010547,1319.9,1320.2,1319.8,1320.2
201902010548,1320.2,1320.3,1319.8,1319.9
201902010549,1319.9,1320.3,1319.9,1320.2
201902010550,1320.2,1320.3,1320.1,1320.1
201902010551,1320.1,1320.4,1320.1,1320.3
201902010552,1320.3,1320.4,1320.1,1320.1
201902010553,1320.1,1320.1,1319.8,1319.8
201902010554,1319.8,1319.8,1319.6,1319.7
201902010555,1319.7,1319.7,1319.4,1319.4
201902010556,1319.4,1319.6,1319.3,1319.6
201902010557,1319.6,1319.7,1319.1,1319.2
201902010558,1319.2,1319.8,1319.2,1319.8
201902010559,1319.8,1319.9,1319.7,1319.9
201902010600,1319.9,1320,1319.8,1319.9
201902010601,1319.9,1320.1,1319.9,1320.1
201902010602,1320.1,1320.1,1320.1,1320.1
201902010603,1320.1,1320.2,1320.1,1320.2
201902010604,1320.2,1320.2,1320.2,1320.2
201902010605,1320.2,1320.2,1320.1,1320.2
201902010606,1320.2,1320.4,1320.2,1320.3
201902010607,1320.2,1320.4,1320.2,1320.3
201902010608,1320.3,1320.4,1320.3,1320.4
201902010609,1320.4,1320.4,1320.4,1320.4
201902010610,1320.4,1320.4,1320.4,1320.4
201902010611,1320.4,1320.4,1320.3,1320.3
201902010612,1320.3,1320.3,1320.3,1320.3
201902010613,1320.3,1320.4,1320.3,1320.3
201902010614,1320.3,1320.3,1320.2,1320.3
201902010615,1320.3,1320.3,1320.2,1320.3
201902010616,1320.3,1320.4,1320.3,1320.3
201902010617,1320.3,1320.4,1320.2,1320.3
201902010618,1320.3,1320.3,1320.3,1320.3
201902010619,1320.3,1320.4,1320.3,1320.4
201902010620,1320.4,1320.4,1320.4,1320.4
201902010621,1320.4,1320.4,1320.4,1320.4
201902010622,1320.4,1320.4,1320.3,1320.3
201902010623,1320.3,1320.5,1320.3,1320.5
201902010624,1320.5,1320.7,1320.5,1320.7
201902010625,1320.7,1320.8,1320.5,1320.5
201902010626,1320.5,1320.5,1320.4,1320.5
201902010627,1320.5,1320.5,1320.3,1320.3
201902010628,1320.3,1320.4,1320.3,1320.3
201902010629,1320.3,1320.4,1320.3,1320.4
201902010630,1320.4,1320.5,1320.4,1320.5
201902010631,1320.4,1320.5,1320.4,1320.5
201902010632,1320.5,1320.7,1320.5,1320.6
201902010633,1320.6,1320.7,1320.6,1320.7
201902010634,1320.7,1320.7,1320.6,1320.6
201902010635,1320.6,1320.6,1320.6,1320.6
201902010636,1320.6,1320.6,1320.6,1320.6
201902010637,1320.6,1320.6,1320.6,1320.6
201902010638,1320.6,1320.6,1320.6,1320.6
201902010639,1320.6,1320.6,1320.5,1320.5
201902010640,1320.5,1320.5,1320.4,1320.5
201902010641,1320.5,1320.5,1320.4,1320.5
201902010642,1320.5,1320.5,1320.4,1320.5
201902010643,1320.5,1320.5,1320.4,1320.5
201902010644,1320.5,1320.6,1320.4,1320.6
201902010645,1320.6,1320.6,1320.6,1320.6
201902010646,1320.6,1320.7,1320.6,1320.7
201902010647,1320.7,1320.7,1320.7,1320.7
201902010648,1320.7,1320.8,1320.7,1320.8
201902010649,1320.8,1320.8,1320.7,1320.8
201902010650,1320.8,1321,1320.7,1321
201902010651,1321,1321,1321,1321
201902010652,1321,1321,1321,1321
201902010653,1321,1321,1321,1321
201902010654,1321,1321.1,1321,1321.1
201902010655,1321.1,1321.1,1321,1321
201902010656,1321,1321,1321,1321
201902010657,1321,1321.3,1321,1321.3
201902010658,1321.3,1321.5,1321.2,1321.4
201902010659,1321.4,1321.5,1321.4,1321.5
