日時,始値(BID),高値(BID),安値(BID),終値(BID)
201903270700,60.02,60.02,59.93,59.97
201903270701,59.97,59.98,59.95,59.95
201903270702,59.95,59.97,59.95,59.96
201903270703,59.96,59.96,59.92,59.93
201903270704,59.93,59.93,59.92,59.92
201903270705,59.92,59.92,59.91,59.92
201903270706,59.92,59.93,59.92,59.92
201903270707,59.92,59.93,59.92,59.92
201903270708,59.92,59.93,59.92,59.93
201903270709,59.93,59.93,59.93,59.93
201903270710,59.93,59.93,59.93,59.93
201903270711,59.93,59.93,59.91,59.92
201903270712,59.92,59.92,59.92,59.92
201903270713,59.92,59.92,59.91,59.92
201903270714,59.92,59.94,59.92,59.94
201903270715,59.94,59.95,59.94,59.94
201903270716,59.94,59.95,59.93,59.93
201903270717,59.93,59.93,59.92,59.92
201903270718,59.92,59.93,59.92,59.92
201903270719,59.92,59.92,59.92,59.92
201903270720,59.92,59.92,59.9,59.9
201903270721,59.9,59.9,59.89,59.89
201903270722,59.89,59.89,59.87,59.89
201903270723,59.89,59.9,59.89,59.9
201903270724,59.9,59.9,59.9,59.9
201903270725,59.9,59.91,59.9,59.9
201903270726,59.9,59.91,59.9,59.91
201903270727,59.91,59.92,59.91,59.91
201903270728,59.91,59.91,59.91,59.91
201903270729,59.91,59.92,59.91,59.92
201903270730,59.92,59.92,59.9,59.91
201903270731,59.91,59.92,59.91,59.91
201903270732,59.91,59.92,59.91,59.91
201903270733,59.91,59.91,59.91,59.91
201903270734,59.91,59.92,59.91,59.92
201903270735,59.92,59.92,59.92,59.92
201903270736,59.92,59.92,59.91,59.92
201903270737,59.92,59.92,59.92,59.92
201903270738,59.92,59.92,59.91,59.92
201903270739,59.92,59.93,59.92,59.93
201903270740,59.93,59.93,59.91,59.91
201903270741,59.91,59.92,59.91,59.92
201903270742,59.92,59.92,59.92,59.92
201903270743,59.92,59.92,59.92,59.92
201903270744,59.92,59.92,59.92,59.92
201903270745,59.92,59.92,59.92,59.92
201903270746,59.92,59.92,59.92,59.92
201903270747,59.92,59.92,59.92,59.92
201903270748,59.92,59.92,59.92,59.92
201903270749,59.92,59.92,59.91,59.91
201903270750,59.91,59.93,59.91,59.93
201903270751,59.93,59.93,59.92,59.92
201903270752,59.92,59.92,59.89,59.9
201903270753,59.9,59.9,59.89,59.9
201903270754,59.9,59.9,59.9,59.9
201903270755,59.9,59.9,59.89,59.89
201903270756,59.89,59.89,59.88,59.88
201903270757,59.88,59.88,59.86,59.86
201903270758,59.86,59.87,59.85,59.86
201903270759,59.86,59.86,59.86,59.86
201903270800,59.86,59.87,59.85,59.86
201903270801,59.86,59.86,59.85,59.85
201903270802,59.85,59.87,59.85,59.87
201903270803,59.87,59.87,59.86,59.86
201903270804,59.86,59.87,59.86,59.87
201903270805,59.87,59.87,59.87,59.87
201903270806,59.87,59.88,59.87,59.88
201903270807,59.87,59.87,59.87,59.87
201903270808,59.87,59.87,59.86,59.86
201903270809,59.86,59.86,59.85,59.86
201903270810,59.86,59.86,59.86,59.86
201903270811,59.86,59.86,59.86,59.86
201903270812,59.86,59.86,59.86,59.86
201903270813,59.86,59.86,59.86,59.86
201903270814,59.86,59.86,59.85,59.86
201903270815,59.86,59.86,59.86,59.86
201903270816,59.86,59.86,59.84,59.85
201903270817,59.85,59.85,59.84,59.84
201903270818,59.84,59.85,59.84,59.84
201903270819,59.84,59.84,59.84,59.84
201903270820,59.84,59.84,59.82,59.83
201903270821,59.83,59.83,59.83,59.83
201903270822,59.83,59.83,59.81,59.83
201903270823,59.83,59.83,59.82,59.82
201903270824,59.82,59.83,59.82,59.83
201903270825,59.83,59.84,59.83,59.83
201903270826,59.83,59.83,59.82,59.83
201903270827,59.83,59.83,59.83,59.83
201903270828,59.83,59.83,59.82,59.83
201903270829,59.83,59.83,59.82,59.82
201903270830,59.82,59.82,59.8,59.8
201903270831,59.8,59.8,59.79,59.79
201903270832,59.79,59.79,59.79,59.79
201903270833,59.79,59.81,59.79,59.8
201903270834,59.8,59.8,59.8,59.8
201903270835,59.8,59.8,59.79,59.8
201903270836,59.8,59.8,59.8,59.8
201903270837,59.8,59.81,59.8,59.81
201903270838,59.81,59.81,59.8,59.81
201903270839,59.81,59.81,59.81,59.81
201903270840,59.81,59.81,59.81,59.81
201903270841,59.81,59.81,59.81,59.81
201903270842,59.81,59.82,59.81,59.82
201903270843,59.82,59.82,59.82,59.82
201903270844,59.82,59.83,59.82,59.83
201903270845,59.83,59.85,59.83,59.85
201903270846,59.85,59.85,59.84,59.84
201903270847,59.84,59.86,59.84,59.86
201903270848,59.86,59.86,59.86,59.86
201903270849,59.86,59.86,59.86,59.86
201903270850,59.86,59.86,59.86,59.86
201903270851,59.86,59.86,59.84,59.84
201903270852,59.84,59.84,59.84,59.84
201903270853,59.84,59.84,59.83,59.83
201903270854,59.83,59.84,59.83,59.84
201903270855,59.84,59.85,59.84,59.85
201903270856,59.85,59.85,59.84,59.84
201903270857,59.84,59.85,59.84,59.85
201903270858,59.85,59.85,59.84,59.84
201903270859,59.84,59.85,59.84,59.85
201903270900,59.85,59.87,59.84,59.86
201903270901,59.86,59.9,59.86,59.89
201903270902,59.89,59.91,59.89,59.9
201903270903,59.9,59.91,59.89,59.89
201903270904,59.89,59.9,59.84,59.84
201903270905,59.84,59.84,59.81,59.83
201903270906,59.83,59.84,59.82,59.83
201903270907,59.83,59.85,59.83,59.84
201903270908,59.84,59.86,59.84,59.84
201903270909,59.84,59.84,59.82,59.83
201903270910,59.83,59.83,59.8,59.81
201903270911,59.81,59.82,59.81,59.81
201903270912,59.81,59.82,59.8,59.81
201903270913,59.81,59.82,59.81,59.82
201903270914,59.82,59.82,59.81,59.81
201903270915,59.81,59.81,59.79,59.8
201903270916,59.8,59.8,59.79,59.8
201903270917,59.8,59.81,59.8,59.81
201903270918,59.81,59.82,59.8,59.81
201903270919,59.81,59.82,59.81,59.81
201903270920,59.81,59.82,59.81,59.82
201903270921,59.82,59.85,59.82,59.84
201903270922,59.84,59.86,59.84,59.85
201903270923,59.85,59.87,59.85,59.87
201903270924,59.87,59.88,59.87,59.88
201903270925,59.88,59.89,59.88,59.88
201903270926,59.88,59.89,59.88,59.89
201903270927,59.89,59.89,59.87,59.87
201903270928,59.87,59.87,59.87,59.87
201903270929,59.87,59.87,59.87,59.87
201903270930,59.87,59.87,59.87,59.87
201903270931,59.87,59.87,59.85,59.85
201903270932,59.85,59.86,59.85,59.86
201903270933,59.86,59.87,59.85,59.87
201903270934,59.87,59.87,59.86,59.87
201903270935,59.87,59.87,59.85,59.86
201903270936,59.86,59.87,59.86,59.87
201903270937,59.87,59.87,59.86,59.87
201903270938,59.87,59.87,59.87,59.87
201903270939,59.87,59.87,59.87,59.87
201903270940,59.87,59.87,59.87,59.87
201903270941,59.87,59.88,59.87,59.88
201903270942,59.88,59.88,59.88,59.88
201903270943,59.88,59.89,59.88,59.89
201903270944,59.89,59.89,59.88,59.88
201903270945,59.88,59.88,59.88,59.88
201903270946,59.88,59.88,59.88,59.88
201903270947,59.88,59.88,59.87,59.87
201903270948,59.87,59.87,59.85,59.85
201903270949,59.85,59.85,59.83,59.84
201903270950,59.84,59.84,59.83,59.84
201903270951,59.84,59.84,59.84,59.84
201903270952,59.84,59.85,59.84,59.84
201903270953,59.84,59.85,59.84,59.84
201903270954,59.84,59.85,59.84,59.85
201903270955,59.85,59.85,59.85,59.85
201903270956,59.85,59.87,59.85,59.86
201903270957,59.86,59.87,59.86,59.86
201903270958,59.86,59.88,59.86,59.88
201903270959,59.88,59.89,59.87,59.88
201903271000,59.88,59.88,59.79,59.82
201903271001,59.82,59.85,59.81,59.85
201903271002,59.85,59.86,59.8,59.81
201903271003,59.81,59.83,59.81,59.82
201903271004,59.82,59.83,59.82,59.83
201903271005,59.83,59.85,59.83,59.85
201903271006,59.85,59.86,59.83,59.86
201903271007,59.86,59.88,59.86,59.86
201903271008,59.86,59.88,59.86,59.88
201903271009,59.88,59.9,59.87,59.9
201903271010,59.9,59.91,59.89,59.91
201903271011,59.91,59.93,59.91,59.92
201903271012,59.92,59.92,59.9,59.9
201903271013,59.9,59.9,59.89,59.89
201903271014,59.89,59.92,59.89,59.92
201903271015,59.92,59.95,59.91,59.94
201903271016,59.94,59.94,59.91,59.92
201903271017,59.92,59.93,59.9,59.92
201903271018,59.92,59.92,59.9,59.9
201903271019,59.9,59.91,59.89,59.9
201903271020,59.9,59.9,59.89,59.9
201903271021,59.9,59.91,59.89,59.9
201903271022,59.9,59.91,59.9,59.9
201903271023,59.9,59.93,59.9,59.92
201903271024,59.92,59.93,59.92,59.93
201903271025,59.93,59.93,59.92,59.93
201903271026,59.93,59.93,59.92,59.93
201903271027,59.93,59.93,59.92,59.93
201903271028,59.93,59.93,59.92,59.92
201903271029,59.92,59.95,59.91,59.95
201903271030,59.95,59.95,59.93,59.93
201903271031,59.93,59.95,59.93,59.95
201903271032,59.95,59.99,59.95,59.96
201903271033,59.96,59.99,59.96,59.97
201903271034,59.97,59.99,59.97,59.97
201903271035,59.97,59.97,59.97,59.97
201903271036,59.97,59.98,59.96,59.98
201903271037,59.98,59.98,59.97,59.98
201903271038,59.98,59.98,59.97,59.97
201903271039,59.97,59.98,59.97,59.98
201903271040,59.98,59.98,59.97,59.98
201903271041,59.98,59.98,59.97,59.97
201903271042,59.97,60,59.97,60
201903271043,60,60.02,60,60
201903271044,60,60.02,60,60.01
201903271045,60.01,60.03,60.01,60.02
201903271046,60.02,60.03,60.02,60.03
201903271047,60.03,60.03,60.03,60.03
201903271048,60.03,60.04,60.01,60.01
201903271049,60.01,60.01,60,60.01
201903271050,60.01,60.01,60,60
201903271051,60,60,59.99,59.99
201903271052,59.99,59.99,59.99,59.99
201903271053,59.99,60.01,59.98,60
201903271054,60,60.03,60,60.03
201903271055,60.03,60.03,60.02,60.03
201903271056,60.03,60.03,60,60.01
201903271057,60.01,60.01,60,60.01
201903271058,60.01,60.01,60,60
201903271059,60,60.01,60,60.01
201903271100,60.01,60.05,60.01,60.02
201903271101,60.02,60.03,60.02,60.02
201903271102,60.02,60.02,60,60.01
201903271103,60.01,60.02,60,60.01
201903271104,60.01,60.01,59.99,59.99
201903271105,59.99,59.99,59.98,59.99
201903271106,59.99,60.01,59.99,60.01
201903271107,60.01,60.02,60,60
201903271108,60,60,59.99,59.99
201903271109,59.99,59.99,59.97,59.97
201903271110,59.97,59.98,59.96,59.97
201903271111,59.97,59.98,59.96,59.97
201903271112,59.97,59.98,59.96,59.98
201903271113,59.98,59.98,59.98,59.98
201903271114,59.98,59.99,59.98,59.99
201903271115,59.99,59.99,59.98,59.98
201903271116,59.98,59.99,59.98,59.98
201903271117,59.98,59.98,59.98,59.98
201903271118,59.98,59.99,59.98,59.98
201903271119,59.98,59.98,59.97,59.97
201903271120,59.97,59.99,59.97,59.99
201903271121,59.99,59.99,59.98,59.99
201903271122,59.99,60.01,59.99,60.01
201903271123,60.01,60.02,60.01,60.02
201903271124,60.02,60.02,60.01,60.02
201903271125,60.02,60.02,60.01,60.01
201903271126,60.02,60.03,60.02,60.02
201903271127,60.02,60.02,60,60.01
201903271128,60.01,60.01,60.01,60.01
201903271129,60.01,60.01,59.99,59.99
201903271130,59.99,60.01,59.99,60
201903271131,60,60.01,60,60.01
201903271132,60.01,60.03,60.01,60.03
201903271133,60.03,60.03,60.03,60.03
201903271134,60.03,60.04,60.03,60.03
201903271135,60.03,60.03,60.01,60.01
201903271136,60.01,60.02,60.01,60.02
201903271137,60.02,60.03,60.01,60.02
201903271138,60.02,60.02,59.99,60.01
201903271139,60.01,60.01,60,60.01
201903271140,60.01,60.01,60,60.01
201903271141,60.01,60.01,60,60.01
201903271142,60.01,60.02,60.01,60.01
201903271143,60.01,60.01,59.99,59.99
201903271144,59.99,60,59.99,59.99
201903271145,59.99,60.01,59.99,60.01
201903271146,60.01,60.02,60.01,60.02
201903271147,60.02,60.03,60.02,60.03
201903271148,60.03,60.05,60.03,60.05
201903271149,60.05,60.05,60.02,60.02
201903271150,60.02,60.03,60.02,60.02
201903271151,60.02,60.02,60.01,60.01
201903271152,60.01,60.02,60,60
201903271153,60,60,59.99,59.99
201903271154,59.99,60,59.99,60
201903271155,60,60,59.99,59.99
201903271156,59.99,59.99,59.99,59.99
201903271157,59.99,59.99,59.98,59.98
201903271158,59.98,59.99,59.98,59.99
201903271159,59.99,60,59.98,60
201903271200,60,60,59.98,59.99
201903271201,59.99,59.99,59.97,59.98
201903271202,59.98,59.98,59.98,59.98
201903271203,59.98,60,59.98,59.99
201903271204,59.99,59.99,59.98,59.99
201903271205,59.99,59.99,59.98,59.99
201903271206,59.99,60.01,59.99,60.01
201903271207,60.01,60.01,60.01,60.01
201903271208,60.01,60.02,60.01,60.02
201903271209,60.02,60.04,60.02,60.03
201903271210,60.03,60.03,60.02,60.03
201903271211,60.03,60.03,60.02,60.02
201903271212,60.02,60.02,60.02,60.02
201903271213,60.02,60.02,60.01,60.01
201903271214,60.01,60.01,60.01,60.01
201903271215,60.01,60.02,60.01,60.02
201903271216,60.02,60.03,60.02,60.03
201903271217,60.03,60.04,60.02,60.03
201903271218,60.03,60.04,60.02,60.02
201903271219,60.02,60.03,60.02,60.02
201903271220,60.02,60.02,60.01,60.02
201903271221,60.02,60.02,60.02,60.02
201903271222,60.02,60.02,60.01,60.02
201903271223,60.02,60.02,60,60.01
201903271224,60.01,60.01,60.01,60.01
201903271225,60.01,60.01,60,60
201903271226,60,60,59.99,60
201903271227,60,60.01,60,60
201903271228,60,60,60,60
201903271229,60,60,60,60
201903271230,60,60.01,60,60
201903271231,60,60.01,60,60.01
201903271232,60.01,60.01,59.99,60
201903271233,60,60,59.98,59.98
201903271234,59.98,59.98,59.98,59.98
201903271235,59.98,59.98,59.97,59.98
201903271236,59.98,59.98,59.97,59.98
201903271237,59.98,60,59.98,60
201903271238,60,60,59.99,60
201903271239,60,60,59.99,59.99
201903271240,59.99,60,59.99,60
201903271241,60,60,59.99,59.99
201903271242,59.99,59.99,59.99,59.99
201903271243,59.99,59.99,59.99,59.99
201903271244,59.99,59.99,59.98,59.98
201903271245,59.98,59.99,59.98,59.98
201903271246,59.98,59.99,59.98,59.99
201903271247,59.99,59.99,59.99,59.99
201903271248,59.99,59.99,59.99,59.99
201903271249,59.99,59.99,59.99,59.99
201903271250,59.99,60,59.99,59.99
201903271251,59.99,60,59.99,60
201903271252,60,60,60,60
201903271253,60,60,59.99,60
201903271254,60,60,59.99,59.99
201903271255,59.99,60,59.99,60
201903271256,60,60,59.99,59.99
201903271257,59.99,59.99,59.98,59.98
201903271258,59.98,59.98,59.98,59.98
201903271259,59.98,59.98,59.98,59.98
201903271300,59.98,59.98,59.97,59.97
201903271301,59.97,59.97,59.97,59.97
201903271302,59.97,59.97,59.97,59.97
201903271303,59.97,59.98,59.97,59.98
201903271304,59.98,59.98,59.98,59.98
201903271305,59.98,59.98,59.98,59.98
201903271306,59.98,59.98,59.98,59.98
201903271307,59.98,59.98,59.98,59.98
201903271308,59.98,60,59.98,59.99
201903271309,59.99,59.99,59.98,59.99
201903271310,59.99,59.99,59.99,59.99
201903271311,59.99,59.99,59.99,59.99
201903271312,59.99,59.99,59.99,59.99
201903271313,59.99,59.99,59.98,59.98
201903271314,59.98,60,59.98,59.99
201903271315,59.99,60,59.98,59.99
201903271316,59.99,59.99,59.99,59.99
201903271317,59.99,60,59.99,60
201903271318,60,60,60,60
201903271319,60,60,60,60
201903271320,60,60.02,60,60.01
201903271321,60.01,60.02,60.01,60.02
201903271322,60.02,60.02,60.02,60.02
201903271323,60.02,60.02,60.02,60.02
201903271324,60.02,60.03,60.02,60.03
201903271325,60.03,60.03,60.03,60.03
201903271326,60.03,60.04,60.02,60.04
201903271327,60.04,60.04,60.03,60.03
201903271328,60.03,60.03,60.03,60.03
201903271329,60.03,60.04,60.03,60.03
201903271330,60.03,60.04,60.03,60.04
201903271331,60.04,60.05,60.04,60.05
201903271332,60.05,60.05,60.04,60.05
201903271333,60.05,60.05,60.05,60.05
201903271334,60.05,60.05,60.04,60.05
201903271335,60.05,60.05,60.03,60.04
201903271336,60.04,60.04,60.04,60.04
201903271337,60.04,60.04,60.04,60.04
201903271338,60.04,60.05,60.04,60.04
201903271339,60.04,60.05,60.03,60.04
201903271340,60.04,60.05,60.04,60.05
201903271341,60.05,60.06,60.05,60.05
201903271342,60.05,60.05,60.05,60.05
201903271343,60.05,60.05,60.05,60.05
201903271344,60.05,60.05,60.04,60.04
201903271345,60.04,60.04,60.04,60.04
201903271346,60.04,60.04,60.02,60.02
201903271347,60.02,60.03,60.02,60.03
201903271348,60.03,60.03,60.02,60.02
201903271349,60.02,60.02,60.02,60.02
201903271350,60.02,60.02,60.02,60.02
201903271351,60.02,60.04,60.02,60.03
201903271352,60.03,60.04,60.03,60.03
201903271353,60.03,60.03,60.01,60.01
201903271354,60.01,60.01,60.01,60.01
201903271355,60.01,60.02,60.01,60.02
201903271356,60.02,60.02,60.01,60.02
201903271357,60.02,60.02,60.01,60.01
201903271358,60.01,60.01,60,60
201903271359,60,60,60,60
201903271400,60,60,60,60
201903271401,60,60,60,60
201903271402,60,60.02,60,60.02
201903271403,60.02,60.02,60.01,60.01
201903271404,60.01,60.01,60.01,60.01
201903271405,60.01,60.01,60.01,60.01
201903271406,60.01,60.04,60.01,60.03
201903271407,60.03,60.03,60.03,60.03
201903271408,60.03,60.03,60.01,60.03
201903271409,60.03,60.03,60.03,60.03
201903271410,60.03,60.03,60.03,60.03
201903271411,60.03,60.03,60.03,60.03
201903271412,60.03,60.03,60.02,60.02
201903271413,60.02,60.02,60.01,60.02
201903271414,60.02,60.02,60.02,60.02
201903271415,60.02,60.02,60.01,60.01
201903271416,60.01,60.03,60.01,60.02
201903271417,60.02,60.03,60.02,60.02
201903271418,60.02,60.02,60.01,60.01
201903271419,60.01,60.01,60,60.01
201903271420,60.01,60.02,60.01,60.02
201903271421,60.02,60.02,60.02,60.02
201903271422,60.02,60.02,60.01,60.01
201903271423,60.01,60.01,60.01,60.01
201903271424,60.01,60.01,60.01,60.01
201903271425,60.01,60.01,60,60.01
201903271426,60.01,60.01,60,60.01
201903271427,60.01,60.01,60.01,60.01
201903271428,60.01,60.01,60,60.01
201903271429,60.01,60.01,60.01,60.01
201903271430,60.01,60.02,60.01,60.01
201903271431,60.01,60.03,60.01,60.03
201903271432,60.03,60.03,60.02,60.03
201903271433,60.03,60.03,60.02,60.03
201903271434,60.03,60.04,60.03,60.03
201903271435,60.03,60.03,60.02,60.03
201903271436,60.03,60.03,60.02,60.02
201903271437,60.02,60.03,60.02,60.03
201903271438,60.03,60.03,60.02,60.02
201903271439,60.02,60.02,60,60
201903271440,60,60,59.99,59.99
201903271441,59.99,59.99,59.98,59.99
201903271442,59.99,59.99,59.98,59.98
201903271443,59.98,59.98,59.97,59.97
201903271444,59.97,59.97,59.96,59.97
201903271445,59.97,60.01,59.96,60
201903271446,60,60,59.99,59.99
201903271447,59.99,60,59.99,59.99
201903271448,59.99,60,59.98,59.99
201903271449,59.99,59.99,59.98,59.99
201903271450,59.99,59.99,59.95,59.97
201903271451,59.97,59.98,59.96,59.97
201903271452,59.97,59.98,59.97,59.97
201903271453,59.97,59.97,59.97,59.97
201903271454,59.97,59.98,59.97,59.98
201903271455,59.98,59.98,59.97,59.97
201903271456,59.97,59.99,59.97,59.98
201903271457,59.98,59.98,59.97,59.97
201903271458,59.97,59.99,59.97,59.99
201903271459,59.99,60.01,59.99,60.01
201903271500,60.01,60.02,60.01,60.02
201903271501,60.02,60.03,60.01,60.02
201903271502,60.02,60.03,60.01,60.03
201903271503,60.03,60.03,60.01,60.01
201903271504,60.01,60.01,60,60
201903271505,60,60.01,59.99,59.99
201903271506,59.99,60,59.99,59.99
201903271507,59.99,60,59.99,60
201903271508,60,60,59.99,59.99
201903271509,59.99,59.99,59.99,59.99
201903271510,59.99,59.99,59.97,59.97
201903271511,59.97,60.01,59.97,60
201903271512,60,60,59.98,59.99
201903271513,59.99,60,59.98,60
201903271514,60,60.01,60,60.01
201903271515,60.01,60.01,59.99,60
201903271516,60,60.01,60,60
201903271517,60,60,59.99,59.99
201903271518,59.99,60,59.99,60
201903271519,59.99,59.99,59.98,59.99
201903271520,59.99,59.99,59.98,59.98
201903271521,59.98,59.98,59.93,59.95
201903271522,59.95,59.96,59.94,59.95
201903271523,59.95,59.96,59.95,59.95
201903271524,59.95,59.95,59.94,59.95
201903271525,59.95,59.95,59.94,59.94
201903271526,59.94,59.95,59.94,59.94
201903271527,59.94,59.95,59.94,59.95
201903271528,59.95,59.95,59.93,59.94
201903271529,59.94,59.96,59.94,59.95
201903271530,59.95,59.96,59.95,59.96
201903271531,59.96,59.96,59.95,59.96
201903271532,59.96,59.99,59.96,59.98
201903271533,59.98,59.98,59.95,59.96
201903271534,59.96,59.97,59.96,59.97
201903271535,59.97,59.97,59.96,59.97
201903271536,59.97,59.98,59.97,59.98
201903271537,59.98,59.98,59.97,59.98
201903271538,59.98,60,59.98,59.99
201903271539,59.99,60,59.99,60
201903271540,60,60.02,60,60.01
201903271541,60.01,60.01,60,60
201903271542,60,60,60,60
201903271543,60,60,59.97,59.97
201903271544,59.97,59.98,59.96,59.98
201903271545,59.98,59.98,59.97,59.98
201903271546,59.98,59.98,59.98,59.98
201903271547,59.98,59.98,59.97,59.98
201903271548,59.98,59.98,59.98,59.98
201903271549,59.98,59.98,59.98,59.98
201903271550,59.98,59.98,59.94,59.95
201903271551,59.95,59.96,59.94,59.95
201903271552,59.95,59.95,59.94,59.95
201903271553,59.95,59.95,59.94,59.94
201903271554,59.94,59.95,59.94,59.94
201903271555,59.94,59.94,59.93,59.94
201903271556,59.94,59.95,59.93,59.95
201903271557,59.95,59.96,59.95,59.95
201903271558,59.95,59.95,59.94,59.94
201903271559,59.94,59.95,59.93,59.93
201903271600,59.93,59.94,59.91,59.92
201903271601,59.92,59.92,59.91,59.92
201903271602,59.92,59.92,59.9,59.91
201903271603,59.91,59.93,59.91,59.91
201903271604,59.91,59.91,59.89,59.9
201903271605,59.9,59.91,59.89,59.89
201903271606,59.89,59.9,59.89,59.9
201903271607,59.9,59.9,59.89,59.9
201903271608,59.9,59.9,59.88,59.89
201903271609,59.89,59.91,59.89,59.91
201903271610,59.91,59.92,59.91,59.91
201903271611,59.91,59.91,59.91,59.91
201903271612,59.91,59.92,59.91,59.91
201903271613,59.91,59.91,59.9,59.9
201903271614,59.9,59.91,59.9,59.9
201903271615,59.9,59.9,59.9,59.9
201903271616,59.9,59.9,59.88,59.88
201903271617,59.88,59.9,59.88,59.9
201903271618,59.9,59.9,59.89,59.89
201903271619,59.89,59.91,59.89,59.9
201903271620,59.9,59.91,59.9,59.91
201903271621,59.91,59.92,59.91,59.92
201903271622,59.92,59.92,59.91,59.92
201903271623,59.92,59.93,59.91,59.91
201903271624,59.91,59.92,59.9,59.9
201903271625,59.9,59.9,59.88,59.89
201903271626,59.89,59.9,59.88,59.9
201903271627,59.9,59.9,59.88,59.88
201903271628,59.88,59.9,59.88,59.89
201903271629,59.89,59.89,59.89,59.89
201903271630,59.89,59.89,59.87,59.88
201903271631,59.88,59.88,59.87,59.87
201903271632,59.87,59.87,59.86,59.87
201903271633,59.87,59.87,59.86,59.87
201903271634,59.87,59.89,59.87,59.89
201903271635,59.89,59.89,59.87,59.87
201903271636,59.87,59.87,59.86,59.86
201903271637,59.86,59.88,59.85,59.88
201903271638,59.88,59.89,59.87,59.87
201903271639,59.87,59.89,59.87,59.89
201903271640,59.89,59.9,59.87,59.89
201903271641,59.89,59.9,59.88,59.89
201903271642,59.89,59.9,59.89,59.89
201903271643,59.89,59.9,59.89,59.89
201903271644,59.89,59.89,59.85,59.86
201903271645,59.86,59.88,59.85,59.88
201903271646,59.88,59.88,59.87,59.87
201903271647,59.87,59.87,59.86,59.86
201903271648,59.86,59.87,59.85,59.86
201903271649,59.86,59.87,59.85,59.86
201903271650,59.86,59.87,59.85,59.86
201903271651,59.86,59.87,59.86,59.87
201903271652,59.87,59.89,59.87,59.88
201903271653,59.88,59.9,59.88,59.89
201903271654,59.89,59.9,59.89,59.9
201903271655,59.9,59.9,59.89,59.89
201903271656,59.89,59.9,59.88,59.88
201903271657,59.88,59.91,59.88,59.9
201903271658,59.9,59.92,59.9,59.91
201903271659,59.91,59.92,59.89,59.89
201903271700,59.89,59.91,59.81,59.85
201903271701,59.85,59.85,59.82,59.83
201903271702,59.83,59.83,59.8,59.8
201903271703,59.8,59.81,59.78,59.8
201903271704,59.8,59.8,59.77,59.78
201903271705,59.78,59.78,59.77,59.78
201903271706,59.78,59.81,59.78,59.79
201903271707,59.79,59.79,59.77,59.78
201903271708,59.78,59.81,59.78,59.8
201903271709,59.8,59.82,59.8,59.81
201903271710,59.81,59.84,59.8,59.83
201903271711,59.83,59.84,59.81,59.81
201903271712,59.81,59.85,59.8,59.85
201903271713,59.85,59.88,59.85,59.87
201903271714,59.87,59.89,59.85,59.85
201903271715,59.85,59.89,59.85,59.88
201903271716,59.87,59.88,59.86,59.87
201903271717,59.87,59.89,59.86,59.88
201903271718,59.88,59.89,59.86,59.88
201903271719,59.88,59.88,59.85,59.85
201903271720,59.85,59.88,59.84,59.86
201903271721,59.86,59.87,59.85,59.85
201903271722,59.85,59.88,59.83,59.87
201903271723,59.87,59.89,59.84,59.85
201903271724,59.85,59.87,59.84,59.87
201903271725,59.87,59.87,59.82,59.83
201903271726,59.83,59.85,59.79,59.8
201903271727,59.8,59.83,59.77,59.83
201903271728,59.83,59.83,59.82,59.83
201903271729,59.83,59.85,59.82,59.82
201903271730,59.82,59.87,59.81,59.84
201903271731,59.84,59.85,59.83,59.84
201903271732,59.84,59.84,59.82,59.83
201903271733,59.83,59.83,59.8,59.8
201903271734,59.8,59.84,59.79,59.83
201903271735,59.83,59.84,59.83,59.84
201903271736,59.84,59.84,59.83,59.83
201903271737,59.83,59.84,59.82,59.82
201903271738,59.82,59.82,59.79,59.81
201903271739,59.81,59.82,59.79,59.79
201903271740,59.79,59.82,59.79,59.81
201903271741,59.81,59.82,59.81,59.82
201903271742,59.82,59.82,59.79,59.79
201903271743,59.79,59.79,59.77,59.77
201903271744,59.77,59.78,59.75,59.76
201903271745,59.76,59.8,59.76,59.79
201903271746,59.79,59.79,59.76,59.76
201903271747,59.76,59.77,59.75,59.77
201903271748,59.77,59.77,59.75,59.76
201903271749,59.76,59.76,59.75,59.75
201903271750,59.75,59.75,59.73,59.75
201903271751,59.75,59.75,59.71,59.72
201903271752,59.72,59.74,59.72,59.74
201903271753,59.74,59.74,59.73,59.73
201903271754,59.73,59.74,59.73,59.73
201903271755,59.73,59.76,59.72,59.76
201903271756,59.76,59.76,59.73,59.75
201903271757,59.75,59.75,59.73,59.74
201903271758,59.74,59.76,59.73,59.73
201903271759,59.74,59.74,59.71,59.73
201903271800,59.73,59.74,59.69,59.69
201903271801,59.69,59.73,59.69,59.72
201903271802,59.72,59.72,59.68,59.68
201903271803,59.68,59.68,59.67,59.68
201903271804,59.68,59.68,59.64,59.65
201903271805,59.65,59.68,59.63,59.66
201903271806,59.66,59.7,59.66,59.69
201903271807,59.69,59.73,59.69,59.72
201903271808,59.72,59.76,59.72,59.74
201903271809,59.74,59.74,59.71,59.71
201903271810,59.71,59.71,59.69,59.7
201903271811,59.7,59.74,59.7,59.73
201903271812,59.73,59.75,59.72,59.74
201903271813,59.74,59.76,59.74,59.74
201903271814,59.74,59.78,59.74,59.77
201903271815,59.77,59.79,59.74,59.77
201903271816,59.77,59.81,59.77,59.81
201903271817,59.81,59.82,59.8,59.81
201903271818,59.81,59.81,59.79,59.8
201903271819,59.8,59.8,59.79,59.79
201903271820,59.79,59.79,59.79,59.79
201903271821,59.8,59.82,59.8,59.82
201903271822,59.82,59.82,59.8,59.81
201903271823,59.81,59.82,59.81,59.81
201903271824,59.81,59.81,59.8,59.8
201903271825,59.8,59.81,59.79,59.8
201903271826,59.8,59.83,59.8,59.81
201903271827,59.81,59.82,59.8,59.82
201903271828,59.82,59.85,59.82,59.85
201903271829,59.85,59.86,59.84,59.86
201903271830,59.86,59.87,59.84,59.85
201903271831,59.85,59.85,59.83,59.84
201903271832,59.84,59.86,59.83,59.85
201903271833,59.85,59.85,59.84,59.84
201903271834,59.84,59.87,59.84,59.86
201903271835,59.86,59.86,59.84,59.84
201903271836,59.84,59.84,59.8,59.81
201903271837,59.81,59.81,59.79,59.81
201903271838,59.81,59.82,59.79,59.8
201903271839,59.8,59.82,59.8,59.81
201903271840,59.81,59.81,59.78,59.8
201903271841,59.8,59.81,59.79,59.8
201903271842,59.8,59.8,59.77,59.79
201903271843,59.79,59.81,59.77,59.77
201903271844,59.77,59.77,59.71,59.72
201903271845,59.72,59.75,59.71,59.72
201903271846,59.72,59.72,59.67,59.69
201903271847,59.69,59.72,59.69,59.72
201903271848,59.72,59.72,59.69,59.69
201903271849,59.69,59.71,59.69,59.7
201903271850,59.7,59.7,59.67,59.67
201903271851,59.67,59.67,59.55,59.58
201903271852,59.58,59.61,59.58,59.6
201903271853,59.6,59.63,59.59,59.62
201903271854,59.62,59.62,59.6,59.61
201903271855,59.61,59.61,59.6,59.6
201903271856,59.6,59.61,59.6,59.6
201903271857,59.6,59.61,59.59,59.61
201903271858,59.61,59.61,59.6,59.61
201903271859,59.61,59.63,59.61,59.62
201903271900,59.62,59.62,59.54,59.61
201903271901,59.61,59.61,59.59,59.59
201903271902,59.59,59.6,59.51,59.53
201903271903,59.53,59.56,59.52,59.53
201903271904,59.53,59.53,59.5,59.5
201903271905,59.5,59.52,59.5,59.5
201903271906,59.5,59.5,59.48,59.48
201903271907,59.48,59.51,59.48,59.51
201903271908,59.51,59.51,59.47,59.5
201903271909,59.5,59.52,59.49,59.51
201903271910,59.51,59.52,59.49,59.5
201903271911,59.5,59.5,59.44,59.45
201903271912,59.45,59.47,59.45,59.45
201903271913,59.45,59.47,59.43,59.46
201903271914,59.46,59.46,59.43,59.43
201903271915,59.43,59.48,59.42,59.47
201903271916,59.47,59.48,59.45,59.46
201903271917,59.46,59.46,59.43,59.44
201903271918,59.44,59.45,59.42,59.43
201903271919,59.43,59.43,59.42,59.43
201903271920,59.43,59.47,59.43,59.46
201903271921,59.46,59.48,59.45,59.47
201903271922,59.47,59.5,59.47,59.48
201903271923,59.48,59.48,59.44,59.45
201903271924,59.45,59.46,59.44,59.45
201903271925,59.45,59.46,59.43,59.46
201903271926,59.46,59.47,59.45,59.47
201903271927,59.47,59.48,59.46,59.48
201903271928,59.48,59.5,59.48,59.49
201903271929,59.49,59.5,59.48,59.49
201903271930,59.49,59.49,59.46,59.47
201903271931,59.47,59.51,59.46,59.5
201903271932,59.5,59.51,59.5,59.51
201903271933,59.51,59.52,59.49,59.5
201903271934,59.5,59.5,59.47,59.48
201903271935,59.48,59.48,59.43,59.43
201903271936,59.43,59.47,59.4,59.46
201903271937,59.46,59.49,59.44,59.49
201903271938,59.49,59.51,59.49,59.5
201903271939,59.5,59.5,59.47,59.5
201903271940,59.5,59.5,59.49,59.5
201903271941,59.5,59.5,59.48,59.49
201903271942,59.49,59.5,59.49,59.5
201903271943,59.5,59.5,59.48,59.5
201903271944,59.5,59.52,59.49,59.51
201903271945,59.51,59.51,59.5,59.51
201903271946,59.51,59.52,59.49,59.49
201903271947,59.49,59.5,59.47,59.5
201903271948,59.5,59.54,59.5,59.54
201903271949,59.54,59.56,59.52,59.56
201903271950,59.55,59.55,59.51,59.52
201903271951,59.52,59.55,59.52,59.54
201903271952,59.54,59.56,59.54,59.54
201903271953,59.54,59.54,59.52,59.53
201903271954,59.53,59.55,59.53,59.54
201903271955,59.54,59.54,59.52,59.52
201903271956,59.52,59.52,59.5,59.5
201903271957,59.5,59.51,59.5,59.5
201903271958,59.5,59.51,59.48,59.48
201903271959,59.48,59.48,59.46,59.47
201903272000,59.47,59.47,59.46,59.47
201903272001,59.47,59.52,59.47,59.52
201903272002,59.52,59.52,59.51,59.51
201903272003,59.51,59.53,59.51,59.51
201903272004,59.51,59.52,59.51,59.52
201903272005,59.52,59.52,59.5,59.5
201903272006,59.5,59.51,59.49,59.49
201903272007,59.49,59.51,59.49,59.49
201903272008,59.49,59.49,59.45,59.47
201903272009,59.47,59.49,59.46,59.48
201903272010,59.48,59.48,59.46,59.47
201903272011,59.47,59.48,59.44,59.45
201903272012,59.45,59.48,59.45,59.48
201903272013,59.48,59.48,59.45,59.47
201903272014,59.47,59.47,59.46,59.47
201903272015,59.47,59.5,59.46,59.49
201903272016,59.49,59.51,59.48,59.51
201903272017,59.51,59.54,59.51,59.52
201903272018,59.52,59.54,59.52,59.54
201903272019,59.54,59.57,59.54,59.56
201903272020,59.57,59.57,59.54,59.55
201903272021,59.55,59.55,59.54,59.55
201903272022,59.55,59.55,59.54,59.55
201903272023,59.55,59.56,59.55,59.56
201903272024,59.56,59.58,59.56,59.58
201903272025,59.58,59.58,59.56,59.57
201903272026,59.57,59.59,59.57,59.58
201903272027,59.58,59.58,59.55,59.56
201903272028,59.56,59.57,59.55,59.56
201903272029,59.56,59.56,59.55,59.56
201903272030,59.56,59.57,59.56,59.56
201903272031,59.56,59.58,59.56,59.57
201903272032,59.57,59.57,59.57,59.57
201903272033,59.57,59.59,59.57,59.59
201903272034,59.59,59.6,59.59,59.59
201903272035,59.59,59.59,59.58,59.58
201903272036,59.58,59.61,59.58,59.6
201903272037,59.6,59.6,59.57,59.57
201903272038,59.57,59.57,59.56,59.56
201903272039,59.56,59.56,59.54,59.56
201903272040,59.56,59.57,59.53,59.56
201903272041,59.56,59.6,59.56,59.59
201903272042,59.59,59.6,59.58,59.59
201903272043,59.59,59.59,59.57,59.57
201903272044,59.57,59.57,59.55,59.55
201903272045,59.55,59.55,59.53,59.54
201903272046,59.54,59.54,59.52,59.53
201903272047,59.53,59.54,59.52,59.53
201903272048,59.53,59.54,59.51,59.54
201903272049,59.54,59.58,59.53,59.57
201903272050,59.57,59.6,59.55,59.59
201903272051,59.59,59.66,59.59,59.64
201903272052,59.64,59.66,59.63,59.65
201903272053,59.65,59.68,59.64,59.66
201903272054,59.66,59.69,59.66,59.68
201903272055,59.68,59.68,59.67,59.67
201903272056,59.67,59.72,59.66,59.69
201903272057,59.69,59.73,59.69,59.72
201903272058,59.72,59.74,59.7,59.7
201903272059,59.7,59.72,59.7,59.7
201903272100,59.71,59.73,59.71,59.72
201903272101,59.72,59.73,59.7,59.71
201903272102,59.71,59.73,59.7,59.73
201903272103,59.73,59.73,59.68,59.69
201903272104,59.69,59.69,59.67,59.68
201903272105,59.68,59.69,59.65,59.66
201903272106,59.66,59.67,59.65,59.65
201903272107,59.65,59.65,59.63,59.65
201903272108,59.65,59.66,59.63,59.64
201903272109,59.64,59.64,59.62,59.64
201903272110,59.64,59.64,59.61,59.63
201903272111,59.63,59.64,59.62,59.62
201903272112,59.62,59.62,59.61,59.62
201903272113,59.62,59.63,59.62,59.62
201903272114,59.62,59.63,59.62,59.62
201903272115,59.62,59.62,59.61,59.62
201903272116,59.62,59.62,59.61,59.62
201903272117,59.62,59.65,59.62,59.63
201903272118,59.63,59.65,59.63,59.64
201903272119,59.64,59.66,59.63,59.63
201903272120,59.63,59.63,59.61,59.62
201903272121,59.62,59.62,59.59,59.59
201903272122,59.59,59.62,59.58,59.61
201903272123,59.61,59.62,59.6,59.62
201903272124,59.62,59.63,59.6,59.62
201903272125,59.63,59.68,59.61,59.67
201903272126,59.67,59.69,59.65,59.65
201903272127,59.65,59.67,59.65,59.66
201903272128,59.66,59.68,59.66,59.68
201903272129,59.68,59.69,59.67,59.68
201903272130,59.68,59.69,59.68,59.69
201903272131,59.69,59.73,59.69,59.73
201903272132,59.73,59.78,59.73,59.75
201903272133,59.75,59.78,59.75,59.77
201903272134,59.77,59.79,59.77,59.78
201903272135,59.78,59.8,59.77,59.79
201903272136,59.79,59.79,59.74,59.77
201903272137,59.77,59.78,59.75,59.77
201903272138,59.77,59.78,59.76,59.77
201903272139,59.77,59.78,59.77,59.78
201903272140,59.78,59.8,59.78,59.8
201903272141,59.8,59.86,59.79,59.84
201903272142,59.84,59.84,59.82,59.84
201903272143,59.84,59.86,59.83,59.85
201903272144,59.85,59.85,59.84,59.84
201903272145,59.84,59.9,59.84,59.9
201903272146,59.9,59.9,59.87,59.88
201903272147,59.88,59.88,59.86,59.86
201903272148,59.86,59.89,59.86,59.88
201903272149,59.88,59.89,59.85,59.85
201903272150,59.85,59.88,59.85,59.88
201903272151,59.88,59.88,59.85,59.86
201903272152,59.86,59.86,59.82,59.84
201903272153,59.84,59.86,59.83,59.83
201903272154,59.83,59.85,59.82,59.85
201903272155,59.85,59.87,59.85,59.85
201903272156,59.85,59.85,59.83,59.84
201903272157,59.84,59.85,59.83,59.84
201903272158,59.84,59.89,59.84,59.87
201903272159,59.87,59.93,59.87,59.92
201903272200,59.92,59.94,59.85,59.94
201903272201,59.94,59.97,59.93,59.97
201903272202,59.97,59.99,59.96,59.98
201903272203,59.98,59.99,59.96,59.98
201903272204,59.98,60.01,59.97,60.01
201903272205,60,60,59.94,59.96
201903272206,59.96,59.96,59.93,59.93
201903272207,59.93,59.94,59.87,59.88
201903272208,59.88,59.9,59.87,59.88
201903272209,59.88,59.9,59.87,59.89
201903272210,59.89,59.91,59.89,59.9
201903272211,59.9,59.92,59.9,59.92
201903272212,59.92,59.94,59.92,59.93
201903272213,59.93,59.93,59.9,59.91
201903272214,59.91,59.93,59.91,59.92
201903272215,59.92,59.93,59.9,59.9
201903272216,59.9,59.91,59.89,59.91
201903272217,59.91,59.93,59.9,59.91
201903272218,59.91,59.94,59.91,59.93
201903272219,59.93,59.97,59.93,59.93
201903272220,59.93,59.98,59.93,59.97
201903272221,59.97,59.99,59.97,59.99
201903272222,59.99,60.02,59.98,60
201903272223,60,60.04,60,60.02
201903272224,60.02,60.03,60.01,60.03
201903272225,60.03,60.1,60.03,60.08
201903272226,60.08,60.08,59.99,60
201903272227,60,60.04,59.99,60.03
201903272228,60.03,60.07,60.03,60.05
201903272229,60.05,60.07,60.05,60.05
201903272230,60.05,60.09,60.05,60.09
201903272231,60.09,60.15,60.07,60.14
201903272232,60.14,60.18,60.14,60.17
201903272233,60.18,60.2,60.16,60.19
201903272234,60.19,60.19,60.11,60.11
201903272235,60.11,60.14,60.1,60.1
201903272236,60.1,60.11,60.07,60.09
201903272237,60.09,60.09,60.05,60.06
201903272238,60.06,60.08,60.02,60.07
201903272239,60.07,60.1,60.06,60.1
201903272240,60.1,60.13,60.1,60.11
201903272241,60.11,60.13,60.08,60.1
201903272242,60.1,60.14,60.09,60.14
201903272243,60.14,60.15,60.11,60.11
201903272244,60.11,60.12,60.07,60.08
201903272245,60.09,60.1,60.08,60.1
201903272246,60.1,60.11,60.07,60.08
201903272247,60.08,60.09,60.07,60.09
201903272248,60.09,60.09,60.07,60.07
201903272249,60.07,60.08,60.04,60.07
201903272250,60.07,60.07,60.04,60.06
201903272251,60.06,60.1,60.05,60.1
201903272252,60.1,60.12,60.03,60.07
201903272253,60.07,60.09,60.04,60.05
201903272254,60.05,60.06,60.04,60.04
201903272255,60.04,60.04,60,60
201903272256,60,60,59.91,59.91
201903272257,59.91,59.97,59.91,59.96
201903272258,59.96,59.98,59.94,59.96
201903272259,59.96,60.01,59.96,60.01
201903272300,60.01,60.01,59.94,60
201903272301,60,60.01,59.98,59.99
201903272302,59.99,60.02,59.97,59.97
201903272303,59.97,59.98,59.95,59.97
201903272304,59.97,59.97,59.85,59.86
201903272305,59.86,59.86,59.82,59.82
201903272306,59.82,59.88,59.81,59.87
201903272307,59.87,59.88,59.83,59.86
201903272308,59.86,59.94,59.86,59.9
201903272309,59.9,59.93,59.89,59.9
201903272310,59.9,59.92,59.89,59.89
201903272311,59.89,59.9,59.86,59.87
201903272312,59.87,59.92,59.87,59.92
201903272313,59.92,60.01,59.92,60
201903272314,60,60.01,59.98,59.98
201903272315,59.98,59.99,59.96,59.98
201903272316,59.98,60.03,59.98,60.02
201903272317,60.02,60.03,60,60.02
201903272318,60.02,60.03,60.01,60.01
201903272319,60.01,60.02,60,60.02
201903272320,60.02,60.02,59.97,59.98
201903272321,59.98,59.99,59.97,59.97
201903272322,59.97,59.98,59.96,59.97
201903272323,59.97,59.99,59.97,59.98
201903272324,59.98,59.99,59.95,59.95
201903272325,59.95,59.98,59.92,59.97
201903272326,59.97,59.97,59.95,59.95
201903272327,59.95,59.96,59.94,59.95
201903272328,59.95,59.97,59.91,59.91
201903272329,59.91,60,59.9,59.96
201903272330,59.96,60.03,59.83,60.03
201903272331,60.03,60.03,59.87,59.88
201903272332,59.88,59.96,59.85,59.9
201903272333,59.89,59.9,59.79,59.79
201903272334,59.79,59.79,59.62,59.7
201903272335,59.7,59.83,59.63,59.78
201903272336,59.78,59.79,59.73,59.75
201903272337,59.75,59.83,59.74,59.81
201903272338,59.81,59.81,59.76,59.8
201903272339,59.8,59.89,59.78,59.79
201903272340,59.79,59.83,59.77,59.82
201903272341,59.82,59.82,59.78,59.8
201903272342,59.8,59.81,59.68,59.69
201903272343,59.66,59.66,59.61,59.63
201903272344,59.63,59.68,59.57,59.62
201903272345,59.62,59.62,59.56,59.59
201903272346,59.59,59.7,59.58,59.65
201903272347,59.65,59.67,59.63,59.66
201903272348,59.66,59.7,59.65,59.68
201903272349,59.68,59.72,59.62,59.7
201903272350,59.7,59.7,59.64,59.67
201903272351,59.67,59.73,59.66,59.71
201903272352,59.71,59.72,59.67,59.67
201903272353,59.67,59.7,59.65,59.68
201903272354,59.68,59.7,59.67,59.7
201903272355,59.7,59.77,59.69,59.74
201903272356,59.74,59.81,59.73,59.78
201903272357,59.78,59.83,59.77,59.83
201903272358,59.83,59.92,59.81,59.89
201903272359,59.89,59.89,59.84,59.84
201903280000,59.84,59.85,59.82,59.83
201903280001,59.83,59.88,59.81,59.81
201903280002,59.81,59.83,59.78,59.81
201903280003,59.81,59.83,59.8,59.81
201903280004,59.81,59.81,59.76,59.79
201903280005,59.79,59.79,59.74,59.77
201903280006,59.77,59.81,59.75,59.81
201903280007,59.82,59.85,59.82,59.83
201903280008,59.83,59.84,59.82,59.84
201903280009,59.84,59.85,59.8,59.8
201903280010,59.8,59.83,59.78,59.81
201903280011,59.81,59.81,59.73,59.74
201903280012,59.74,59.75,59.67,59.7
201903280013,59.7,59.7,59.62,59.62
201903280014,59.62,59.65,59.58,59.58
201903280015,59.58,59.64,59.56,59.59
201903280016,59.58,59.62,59.57,59.61
201903280017,59.61,59.63,59.6,59.61
201903280018,59.61,59.61,59.57,59.59
201903280019,59.59,59.61,59.58,59.61
201903280020,59.61,59.61,59.5,59.52
201903280021,59.52,59.54,59.49,59.52
201903280022,59.52,59.56,59.5,59.54
201903280023,59.54,59.61,59.54,59.59
201903280024,59.59,59.63,59.59,59.63
201903280025,59.63,59.71,59.63,59.69
201903280026,59.7,59.7,59.66,59.67
201903280027,59.67,59.68,59.66,59.67
201903280028,59.67,59.67,59.5,59.5
201903280029,59.5,59.52,59.46,59.5
201903280030,59.5,59.5,59.44,59.46
201903280031,59.46,59.49,59.4,59.48
201903280032,59.48,59.55,59.47,59.5
201903280033,59.5,59.51,59.39,59.39
201903280034,59.39,59.39,59.29,59.31
201903280035,59.31,59.31,59.21,59.24
201903280036,59.25,59.31,59.23,59.28
201903280037,59.28,59.3,59.23,59.3
201903280038,59.3,59.36,59.29,59.35
201903280039,59.35,59.35,59.27,59.27
201903280040,59.27,59.3,59.23,59.26
201903280041,59.26,59.26,59.21,59.22
201903280042,59.22,59.23,59.07,59.11
201903280043,59.11,59.13,59.05,59.1
201903280044,59.1,59.1,59.01,59.02
201903280045,59.02,59.03,58.95,59
201903280046,59,59.08,58.98,59.07
201903280047,59.07,59.14,59.06,59.12
201903280048,59.12,59.16,59.09,59.09
201903280049,59.09,59.1,59.06,59.07
201903280050,59.07,59.1,59.01,59.05
201903280051,59.05,59.08,58.98,58.99
201903280052,58.99,58.99,58.88,58.91
201903280053,58.91,58.91,58.81,58.84
201903280054,58.84,58.9,58.8,58.89
201903280055,58.89,58.94,58.85,58.94
201903280056,58.94,59.02,58.93,59
201903280057,59,59.07,58.98,59.06
201903280058,59.06,59.11,59.06,59.09
201903280059,59.09,59.11,59.08,59.1
201903280100,59.1,59.1,59.04,59.05
201903280101,59.05,59.11,59.05,59.11
201903280102,59.11,59.15,59.09,59.09
201903280103,59.09,59.17,59.08,59.17
201903280104,59.17,59.2,59.16,59.2
201903280105,59.2,59.23,59.19,59.21
201903280106,59.21,59.22,59.16,59.2
201903280107,59.2,59.2,59.15,59.16
201903280108,59.16,59.17,59.15,59.17
201903280109,59.17,59.19,59.14,59.17
201903280110,59.17,59.19,59.15,59.18
201903280111,59.18,59.19,59.16,59.19
201903280112,59.19,59.25,59.19,59.24
201903280113,59.24,59.27,59.21,59.21
201903280114,59.2,59.24,59.2,59.21
201903280115,59.21,59.24,59.2,59.23
201903280116,59.23,59.28,59.23,59.27
201903280117,59.27,59.29,59.26,59.28
201903280118,59.28,59.28,59.23,59.25
201903280119,59.25,59.28,59.23,59.27
201903280120,59.27,59.37,59.27,59.37
201903280121,59.36,59.38,59.35,59.37
201903280122,59.37,59.38,59.35,59.36
201903280123,59.36,59.36,59.31,59.31
201903280124,59.31,59.37,59.31,59.37
201903280125,59.37,59.37,59.28,59.32
201903280126,59.32,59.37,59.32,59.37
201903280127,59.37,59.4,59.36,59.37
201903280128,59.37,59.46,59.37,59.45
201903280129,59.45,59.55,59.45,59.51
201903280130,59.51,59.51,59.41,59.43
201903280131,59.43,59.46,59.42,59.42
201903280132,59.43,59.47,59.42,59.46
201903280133,59.46,59.51,59.46,59.48
201903280134,59.48,59.49,59.43,59.45
201903280135,59.45,59.46,59.45,59.45
201903280136,59.45,59.47,59.41,59.43
201903280137,59.43,59.47,59.42,59.46
201903280138,59.46,59.54,59.46,59.53
201903280139,59.53,59.55,59.49,59.49
201903280140,59.49,59.5,59.41,59.41
201903280141,59.41,59.46,59.41,59.45
201903280142,59.45,59.47,59.44,59.44
201903280143,59.44,59.47,59.43,59.45
201903280144,59.45,59.47,59.44,59.47
201903280145,59.47,59.52,59.47,59.47
201903280146,59.47,59.47,59.42,59.44
201903280147,59.44,59.44,59.42,59.44
201903280148,59.44,59.45,59.43,59.45
201903280149,59.45,59.46,59.42,59.42
201903280150,59.42,59.46,59.42,59.43
201903280151,59.43,59.44,59.42,59.43
201903280152,59.43,59.45,59.42,59.45
201903280153,59.45,59.49,59.44,59.49
201903280154,59.49,59.5,59.45,59.46
201903280155,59.46,59.46,59.38,59.38
201903280156,59.38,59.39,59.36,59.37
201903280157,59.37,59.37,59.35,59.36
201903280158,59.36,59.39,59.33,59.35
201903280159,59.35,59.36,59.31,59.32
201903280200,59.32,59.34,59.28,59.3
201903280201,59.3,59.3,59.27,59.29
201903280202,59.29,59.29,59.27,59.29
201903280203,59.29,59.29,59.22,59.24
201903280204,59.24,59.29,59.23,59.27
201903280205,59.27,59.34,59.27,59.32
201903280206,59.32,59.33,59.29,59.33
201903280207,59.33,59.33,59.27,59.27
201903280208,59.27,59.29,59.26,59.26
201903280209,59.26,59.26,59.22,59.23
201903280210,59.23,59.27,59.22,59.26
201903280211,59.26,59.26,59.24,59.26
201903280212,59.26,59.31,59.25,59.3
201903280213,59.3,59.33,59.28,59.29
201903280214,59.29,59.34,59.28,59.34
201903280215,59.34,59.34,59.31,59.32
201903280216,59.32,59.38,59.31,59.38
201903280217,59.38,59.39,59.34,59.35
201903280218,59.35,59.35,59.3,59.31
201903280219,59.31,59.34,59.31,59.33
201903280220,59.33,59.36,59.32,59.36
201903280221,59.36,59.38,59.35,59.37
201903280222,59.37,59.38,59.32,59.33
201903280223,59.33,59.36,59.31,59.33
201903280224,59.33,59.36,59.32,59.35
201903280225,59.35,59.37,59.35,59.37
201903280226,59.37,59.39,59.36,59.37
201903280227,59.37,59.39,59.37,59.38
201903280228,59.38,59.41,59.38,59.39
201903280229,59.39,59.43,59.38,59.42
201903280230,59.42,59.45,59.42,59.44
201903280231,59.44,59.45,59.41,59.42
201903280232,59.42,59.43,59.41,59.42
201903280233,59.42,59.44,59.42,59.42
201903280234,59.42,59.42,59.38,59.39
201903280235,59.39,59.4,59.36,59.37
201903280236,59.37,59.37,59.29,59.29
201903280237,59.29,59.32,59.29,59.32
201903280238,59.32,59.34,59.3,59.33
201903280239,59.33,59.34,59.31,59.31
201903280240,59.31,59.33,59.31,59.31
201903280241,59.31,59.34,59.31,59.32
201903280242,59.32,59.36,59.32,59.34
201903280243,59.34,59.36,59.33,59.35
201903280244,59.35,59.41,59.34,59.41
201903280245,59.4,59.44,59.4,59.43
201903280246,59.43,59.43,59.39,59.4
201903280247,59.4,59.4,59.36,59.37
201903280248,59.37,59.37,59.33,59.35
201903280249,59.35,59.37,59.34,59.34
201903280250,59.34,59.39,59.34,59.38
201903280251,59.38,59.4,59.38,59.4
201903280252,59.4,59.43,59.4,59.43
201903280253,59.43,59.44,59.38,59.4
201903280254,59.4,59.41,59.37,59.41
201903280255,59.41,59.43,59.41,59.42
201903280256,59.42,59.42,59.41,59.41
201903280257,59.41,59.43,59.4,59.43
201903280258,59.43,59.44,59.43,59.43
201903280259,59.43,59.45,59.41,59.44
201903280300,59.44,59.45,59.42,59.42
201903280301,59.42,59.44,59.4,59.44
201903280302,59.44,59.46,59.42,59.42
201903280303,59.42,59.43,59.4,59.42
201903280304,59.42,59.43,59.41,59.43
201903280305,59.43,59.45,59.42,59.43
201903280306,59.43,59.44,59.41,59.44
201903280307,59.44,59.47,59.43,59.45
201903280308,59.45,59.45,59.42,59.43
201903280309,59.43,59.44,59.41,59.43
201903280310,59.43,59.45,59.42,59.43
201903280311,59.43,59.46,59.42,59.44
201903280312,59.44,59.45,59.43,59.44
201903280313,59.44,59.45,59.41,59.44
201903280314,59.44,59.44,59.42,59.43
201903280315,59.43,59.43,59.38,59.38
201903280316,59.38,59.4,59.38,59.4
201903280317,59.4,59.41,59.36,59.36
201903280318,59.36,59.37,59.3,59.3
201903280319,59.3,59.31,59.28,59.29
201903280320,59.29,59.3,59.27,59.29
201903280321,59.29,59.34,59.27,59.32
201903280322,59.32,59.36,59.3,59.35
201903280323,59.35,59.37,59.33,59.37
201903280324,59.37,59.44,59.36,59.42
201903280325,59.42,59.43,59.34,59.35
201903280326,59.35,59.36,59.33,59.35
201903280327,59.35,59.38,59.32,59.36
201903280328,59.36,59.43,59.35,59.41
201903280329,59.41,59.42,59.37,59.38
201903280330,59.38,59.4,59.33,59.38
201903280331,59.39,59.4,59.38,59.39
201903280332,59.39,59.4,59.35,59.36
201903280333,59.36,59.36,59.33,59.34
201903280334,59.33,59.35,59.33,59.34
201903280335,59.34,59.34,59.31,59.31
201903280336,59.31,59.33,59.31,59.33
201903280337,59.33,59.34,59.32,59.32
201903280338,59.32,59.33,59.29,59.29
201903280339,59.29,59.3,59.28,59.29
201903280340,59.29,59.3,59.27,59.28
201903280341,59.28,59.3,59.28,59.3
201903280342,59.3,59.31,59.29,59.3
201903280343,59.3,59.3,59.28,59.29
201903280344,59.29,59.31,59.28,59.3
201903280345,59.3,59.3,59.29,59.29
201903280346,59.29,59.3,59.29,59.29
201903280347,59.29,59.3,59.28,59.3
201903280348,59.3,59.32,59.3,59.31
201903280349,59.31,59.33,59.31,59.32
201903280350,59.32,59.33,59.31,59.32
201903280351,59.32,59.33,59.31,59.32
201903280352,59.32,59.33,59.31,59.32
201903280353,59.32,59.32,59.31,59.32
201903280354,59.32,59.33,59.31,59.33
201903280355,59.33,59.35,59.33,59.34
201903280356,59.34,59.36,59.33,59.35
201903280357,59.35,59.36,59.34,59.35
201903280358,59.35,59.36,59.35,59.36
201903280359,59.36,59.36,59.36,59.36
201903280400,59.36,59.36,59.35,59.36
201903280401,59.36,59.36,59.35,59.36
201903280402,59.36,59.36,59.35,59.35
201903280403,59.35,59.35,59.34,59.34
201903280404,59.34,59.35,59.33,59.34
201903280405,59.34,59.34,59.33,59.34
201903280406,59.34,59.35,59.33,59.35
201903280407,59.35,59.35,59.34,59.34
201903280408,59.34,59.35,59.33,59.34
201903280409,59.34,59.35,59.34,59.34
201903280410,59.34,59.34,59.34,59.34
201903280411,59.34,59.36,59.34,59.35
201903280412,59.35,59.36,59.35,59.35
201903280413,59.35,59.36,59.35,59.36
201903280414,59.36,59.37,59.35,59.36
201903280415,59.36,59.36,59.34,59.34
201903280416,59.34,59.36,59.34,59.36
201903280417,59.36,59.37,59.35,59.35
201903280418,59.35,59.36,59.35,59.36
201903280419,59.36,59.36,59.35,59.36
201903280420,59.35,59.36,59.33,59.33
201903280421,59.33,59.37,59.33,59.37
201903280422,59.37,59.38,59.37,59.37
201903280423,59.37,59.38,59.35,59.35
201903280424,59.35,59.35,59.35,59.35
201903280425,59.35,59.36,59.34,59.36
201903280426,59.36,59.38,59.35,59.37
201903280427,59.37,59.38,59.37,59.37
201903280428,59.37,59.38,59.36,59.37
201903280429,59.38,59.41,59.37,59.4
201903280430,59.4,59.42,59.4,59.41
201903280431,59.41,59.42,59.41,59.41
201903280432,59.41,59.41,59.39,59.39
201903280433,59.39,59.39,59.38,59.39
201903280434,59.39,59.39,59.38,59.39
201903280435,59.39,59.39,59.37,59.38
201903280436,59.38,59.38,59.36,59.37
201903280437,59.37,59.37,59.36,59.37
201903280438,59.37,59.37,59.36,59.36
201903280439,59.36,59.38,59.36,59.38
201903280440,59.38,59.38,59.37,59.37
201903280441,59.37,59.38,59.37,59.38
201903280442,59.38,59.39,59.38,59.38
201903280443,59.38,59.39,59.38,59.38
201903280444,59.38,59.38,59.38,59.38
201903280445,59.38,59.41,59.38,59.4
201903280446,59.4,59.41,59.4,59.4
201903280447,59.4,59.4,59.39,59.4
201903280448,59.4,59.41,59.4,59.41
201903280449,59.41,59.42,59.41,59.42
201903280450,59.42,59.42,59.42,59.42
201903280451,59.42,59.42,59.4,59.41
201903280452,59.41,59.41,59.39,59.4
201903280453,59.4,59.4,59.39,59.39
201903280454,59.39,59.39,59.37,59.38
201903280455,59.38,59.38,59.35,59.36
201903280456,59.36,59.37,59.35,59.37
201903280457,59.37,59.37,59.35,59.36
201903280458,59.36,59.36,59.34,59.36
201903280459,59.36,59.36,59.35,59.36
201903280500,59.36,59.37,59.36,59.37
201903280501,59.37,59.39,59.37,59.37
201903280502,59.37,59.38,59.37,59.38
201903280503,59.38,59.38,59.38,59.38
201903280504,59.38,59.38,59.38,59.38
201903280505,59.38,59.38,59.38,59.38
201903280506,59.38,59.39,59.38,59.38
201903280507,59.38,59.4,59.38,59.38
201903280508,59.38,59.38,59.38,59.38
201903280509,59.38,59.38,59.38,59.38
201903280510,59.38,59.38,59.38,59.38
201903280511,59.38,59.38,59.37,59.38
201903280512,59.38,59.38,59.36,59.36
201903280513,59.36,59.36,59.35,59.36
201903280514,59.36,59.37,59.36,59.36
201903280515,59.36,59.36,59.34,59.34
201903280516,59.34,59.35,59.34,59.35
201903280517,59.35,59.36,59.35,59.36
201903280518,59.36,59.37,59.36,59.37
201903280519,59.37,59.38,59.37,59.38
201903280520,59.38,59.38,59.38,59.38
201903280521,59.38,59.38,59.38,59.38
201903280522,59.38,59.38,59.38,59.38
201903280523,59.38,59.38,59.38,59.38
201903280524,59.38,59.38,59.37,59.37
201903280525,59.37,59.37,59.36,59.37
201903280526,59.37,59.37,59.37,59.37
201903280527,59.37,59.37,59.35,59.37
201903280528,59.37,59.37,59.37,59.37
201903280529,59.37,59.38,59.37,59.38
201903280530,59.38,59.38,59.38,59.38
201903280531,59.38,59.38,59.37,59.37
201903280532,59.37,59.37,59.36,59.37
201903280533,59.37,59.38,59.37,59.37
201903280534,59.37,59.38,59.37,59.38
201903280535,59.38,59.38,59.37,59.38
201903280536,59.38,59.38,59.37,59.38
201903280537,59.38,59.38,59.38,59.38
201903280538,59.38,59.38,59.37,59.38
201903280539,59.38,59.38,59.37,59.37
201903280540,59.37,59.38,59.37,59.38
201903280541,59.38,59.39,59.38,59.38
201903280542,59.38,59.38,59.38,59.38
201903280543,59.38,59.38,59.37,59.38
201903280544,59.38,59.39,59.37,59.38
201903280545,59.38,59.38,59.38,59.38
201903280546,59.38,59.38,59.38,59.38
201903280547,59.38,59.38,59.38,59.38
201903280548,59.38,59.38,59.38,59.38
201903280549,59.38,59.39,59.38,59.38
201903280550,59.38,59.38,59.37,59.37
201903280551,59.37,59.38,59.37,59.38
201903280552,59.38,59.38,59.38,59.38
201903280553,59.38,59.38,59.37,59.37
201903280554,59.37,59.38,59.37,59.38
201903280555,59.38,59.38,59.37,59.38
201903280556,59.38,59.39,59.38,59.39
201903280557,59.39,59.39,59.39,59.39
201903280558,59.39,59.39,59.38,59.39
201903280559,59.39,59.4,59.38,59.39
