日時,始値(BID),高値(BID),安値(BID),終値(BID)
201903040800,55.82,55.97,55.82,55.95
201903040801,55.95,55.96,55.9,55.96
201903040802,55.96,56.02,55.93,56.01
201903040803,56.01,56.09,56,56.04
201903040804,56.04,56.1,56.04,56.07
201903040805,56.07,56.11,56.07,56.09
201903040806,56.09,56.12,56.09,56.12
201903040807,56.12,56.16,56.11,56.12
201903040808,56.12,56.12,56.11,56.12
201903040809,56.12,56.14,56.12,56.13
201903040810,56.13,56.13,56.11,56.11
201903040811,56.11,56.11,56.11,56.11
201903040812,56.11,56.12,56.11,56.11
201903040813,56.11,56.13,56.11,56.13
201903040814,56.13,56.13,56.12,56.13
201903040815,56.13,56.16,56.12,56.16
201903040816,56.16,56.22,56.16,56.2
201903040817,56.2,56.27,56.19,56.25
201903040818,56.25,56.25,56.22,56.22
201903040819,56.22,56.23,56.22,56.23
201903040820,56.23,56.23,56.19,56.19
201903040821,56.19,56.21,56.19,56.21
201903040822,56.21,56.23,56.21,56.22
201903040823,56.22,56.22,56.18,56.18
201903040824,56.18,56.2,56.18,56.2
201903040825,56.2,56.2,56.19,56.19
201903040826,56.19,56.2,56.19,56.19
201903040827,56.19,56.2,56.19,56.2
201903040828,56.2,56.22,56.2,56.21
201903040829,56.21,56.21,56.21,56.21
201903040830,56.21,56.21,56.18,56.19
201903040831,56.19,56.19,56.16,56.17
201903040832,56.17,56.17,56.14,56.16
201903040833,56.16,56.16,56.13,56.15
201903040834,56.15,56.15,56.14,56.15
201903040835,56.15,56.16,56.15,56.16
201903040836,56.16,56.16,56.15,56.15
201903040837,56.15,56.15,56.14,56.15
201903040838,56.15,56.15,56.14,56.14
201903040839,56.14,56.14,56.14,56.14
201903040840,56.14,56.14,56.02,56.08
201903040841,56.08,56.1,56.08,56.09
201903040842,56.09,56.09,56.08,56.09
201903040843,56.09,56.09,56.07,56.07
201903040844,56.07,56.08,56.06,56.07
201903040845,56.07,56.09,56.07,56.08
201903040846,56.08,56.09,56.08,56.08
201903040847,56.08,56.08,56.06,56.06
201903040848,56.06,56.06,56.04,56.04
201903040849,56.04,56.06,56.04,56.06
201903040850,56.06,56.06,56.04,56.05
201903040851,56.05,56.07,56.05,56.06
201903040852,56.06,56.07,56.05,56.05
201903040853,56.05,56.05,56.05,56.05
201903040854,56.05,56.07,56.05,56.05
201903040855,56.05,56.05,55.94,56.03
201903040856,56.03,56.03,55.97,55.97
201903040857,55.97,56.01,55.95,56
201903040858,56,56.01,55.99,55.99
201903040859,55.99,56,55.99,56
201903040900,56,56,55.96,55.96
201903040901,55.96,55.97,55.92,55.93
201903040902,55.93,55.97,55.92,55.96
201903040903,55.96,56,55.96,55.98
201903040904,55.98,56,55.98,55.99
201903040905,55.99,56.01,55.98,55.98
201903040906,55.98,55.98,55.94,55.94
201903040907,55.94,55.99,55.94,55.99
201903040908,55.99,56.03,55.99,56
201903040909,56,56,55.95,55.96
201903040910,55.96,56,55.93,55.99
201903040911,55.99,56.01,55.98,56.01
201903040912,56.01,56.01,55.98,55.98
201903040913,55.98,55.99,55.98,55.98
201903040914,55.98,56.01,55.98,56.01
201903040915,56.01,56.01,56,56.01
201903040916,56.01,56.01,55.99,55.99
201903040917,55.99,56,55.98,56
201903040918,56,56,56,56
201903040919,56,56.01,55.99,56.01
201903040920,56.01,56.01,56,56.01
201903040921,56.01,56.01,56,56.01
201903040922,56.01,56.02,56.01,56.02
201903040923,56.02,56.04,56.02,56.03
201903040924,56.03,56.03,56.03,56.03
201903040925,56.03,56.04,56.03,56.03
201903040926,56.03,56.04,56.03,56.04
201903040927,56.04,56.04,56.04,56.04
201903040928,56.04,56.05,56.04,56.05
201903040929,56.05,56.05,56.04,56.05
201903040930,56.05,56.05,56.04,56.04
201903040931,56.04,56.04,56.01,56.01
201903040932,56.01,56.02,56.01,56.02
201903040933,56.02,56.02,56.02,56.02
201903040934,56.02,56.02,56.01,56.02
201903040935,56.02,56.02,56.02,56.02
201903040936,56.02,56.03,56.02,56.03
201903040937,56.03,56.05,56.03,56.05
201903040938,56.05,56.05,56.04,56.05
201903040939,56.05,56.05,56.04,56.04
201903040940,56.04,56.05,56.04,56.04
201903040941,56.04,56.05,56.04,56.04
201903040942,56.04,56.04,56.02,56.02
201903040943,56.02,56.03,56.02,56.03
201903040944,56.03,56.04,56.02,56.03
201903040945,56.03,56.04,56.03,56.04
201903040946,56.04,56.04,56.03,56.04
201903040947,56.04,56.04,56.02,56.03
201903040948,56.03,56.04,56.01,56.01
201903040949,56.01,56.01,55.99,55.99
201903040950,55.99,55.99,55.98,55.98
201903040951,55.98,55.98,55.98,55.98
201903040952,55.98,56.03,55.98,56.03
201903040953,56.03,56.04,56.02,56.03
201903040954,56.03,56.05,56.03,56.05
201903040955,56.05,56.05,56.03,56.04
201903040956,56.04,56.04,56.03,56.03
201903040957,56.04,56.04,56.03,56.03
201903040958,56.03,56.03,56.03,56.03
201903040959,56.03,56.04,56.03,56.04
201903041000,56.04,56.05,56.03,56.04
201903041001,56.04,56.04,55.99,56.01
201903041002,56.01,56.03,56,56.02
201903041003,56.02,56.03,56.01,56.03
201903041004,56.03,56.05,56.02,56.04
201903041005,56.04,56.05,56.03,56.05
201903041006,56.05,56.06,56.04,56.06
201903041007,56.06,56.08,56.06,56.07
201903041008,56.07,56.09,56.07,56.09
201903041009,56.09,56.1,56.07,56.07
201903041010,56.07,56.09,56.07,56.09
201903041011,56.09,56.09,56.07,56.07
201903041012,56.07,56.11,56.07,56.09
201903041013,56.09,56.12,56.09,56.11
201903041014,56.11,56.12,56.1,56.11
201903041015,56.11,56.12,56.08,56.08
201903041016,56.08,56.1,56.07,56.1
201903041017,56.1,56.12,56.1,56.11
201903041018,56.11,56.12,56.09,56.11
201903041019,56.11,56.11,56.09,56.11
201903041020,56.11,56.13,56.1,56.12
201903041021,56.12,56.13,56.12,56.12
201903041022,56.12,56.12,56.1,56.11
201903041023,56.11,56.11,56.1,56.1
201903041024,56.1,56.12,56.1,56.1
201903041025,56.1,56.12,56.1,56.11
201903041026,56.11,56.12,56.11,56.11
201903041027,56.11,56.12,56.11,56.12
201903041028,56.12,56.15,56.12,56.14
201903041029,56.14,56.14,56.12,56.13
201903041030,56.13,56.15,56.11,56.11
201903041031,56.11,56.11,56.08,56.09
201903041032,56.09,56.1,56.07,56.1
201903041033,56.1,56.11,56.09,56.11
201903041034,56.11,56.13,56.1,56.13
201903041035,56.13,56.15,56.13,56.14
201903041036,56.14,56.14,56.1,56.12
201903041037,56.12,56.13,56.11,56.12
201903041038,56.12,56.12,56.09,56.1
201903041039,56.1,56.11,56.1,56.1
201903041040,56.1,56.1,56.09,56.09
201903041041,56.09,56.1,56.09,56.1
201903041042,56.1,56.1,56.08,56.08
201903041043,56.08,56.08,56.07,56.07
201903041044,56.07,56.08,56.07,56.08
201903041045,56.08,56.08,56.05,56.06
201903041046,56.06,56.07,56.05,56.06
201903041047,56.06,56.06,56.03,56.03
201903041048,56.03,56.05,56.03,56.05
201903041049,56.05,56.05,56.04,56.05
201903041050,56.05,56.05,56.03,56.04
201903041051,56.04,56.05,56.03,56.05
201903041052,56.05,56.05,56.04,56.04
201903041053,56.04,56.05,56.02,56.03
201903041054,56.03,56.03,56,56.01
201903041055,56.01,56.03,56.01,56.03
201903041056,56.03,56.03,56.02,56.02
201903041057,56.02,56.02,56.02,56.02
201903041058,56.02,56.02,56.01,56.01
201903041059,56.01,56.05,56.01,56.05
201903041100,56.05,56.07,56.05,56.05
201903041101,56.05,56.07,56.04,56.06
201903041102,56.06,56.07,56.05,56.06
201903041103,56.06,56.07,56.06,56.06
201903041104,56.06,56.07,56.06,56.06
201903041105,56.06,56.07,56.05,56.05
201903041106,56.05,56.07,56.05,56.06
201903041107,56.06,56.06,56.06,56.06
201903041108,56.06,56.07,56.06,56.06
201903041109,56.06,56.07,56.06,56.07
201903041110,56.07,56.07,56.06,56.07
201903041111,56.07,56.07,56.05,56.06
201903041112,56.06,56.07,56.06,56.07
201903041113,56.07,56.09,56.07,56.08
201903041114,56.08,56.1,56.08,56.09
201903041115,56.09,56.1,56.08,56.08
201903041116,56.08,56.08,56.08,56.08
201903041117,56.08,56.09,56.08,56.09
201903041118,56.09,56.1,56.09,56.1
201903041119,56.1,56.11,56.09,56.1
201903041120,56.1,56.11,56.1,56.11
201903041121,56.11,56.11,56.09,56.11
201903041122,56.11,56.11,56.1,56.1
201903041123,56.1,56.1,56.08,56.09
201903041124,56.09,56.1,56.09,56.1
201903041125,56.1,56.1,56.09,56.1
201903041126,56.1,56.1,56.09,56.09
201903041127,56.09,56.1,56.09,56.1
201903041128,56.1,56.1,56.09,56.1
201903041129,56.1,56.11,56.09,56.1
201903041130,56.1,56.11,56.1,56.1
201903041131,56.1,56.1,56.09,56.09
201903041132,56.09,56.11,56.09,56.1
201903041133,56.1,56.11,56.09,56.09
201903041134,56.09,56.11,56.09,56.1
201903041135,56.1,56.1,56.1,56.1
201903041136,56.1,56.11,56.1,56.1
201903041137,56.1,56.1,56.09,56.1
201903041138,56.1,56.1,56.09,56.1
201903041139,56.1,56.1,56.09,56.1
201903041140,56.1,56.11,56.1,56.1
201903041141,56.1,56.11,56.09,56.11
201903041142,56.11,56.12,56.1,56.12
201903041143,56.12,56.12,56.1,56.11
201903041144,56.11,56.12,56.11,56.11
201903041145,56.11,56.11,56.11,56.11
201903041146,56.11,56.12,56.11,56.11
201903041147,56.11,56.11,56.11,56.11
201903041148,56.11,56.11,56.1,56.1
201903041149,56.1,56.11,56.1,56.1
201903041150,56.1,56.1,56.09,56.09
201903041151,56.09,56.09,56.05,56.05
201903041152,56.05,56.07,56.04,56.07
201903041153,56.07,56.08,56.06,56.06
201903041154,56.06,56.06,56.06,56.06
201903041155,56.06,56.06,56.06,56.06
201903041156,56.06,56.06,56.05,56.05
201903041157,56.05,56.05,56.02,56.02
201903041158,56.02,56.05,56.02,56.05
201903041159,56.05,56.06,56.03,56.03
201903041200,56.03,56.05,56.03,56.05
201903041201,56.05,56.07,56.05,56.06
201903041202,56.06,56.06,56.04,56.06
201903041203,56.06,56.07,56.05,56.05
201903041204,56.05,56.06,56.05,56.05
201903041205,56.05,56.05,56.04,56.04
201903041206,56.04,56.04,56.04,56.04
201903041207,56.04,56.04,56.02,56.02
201903041208,56.02,56.03,56.02,56.02
201903041209,56.02,56.03,56.02,56.03
201903041210,56.03,56.04,56.03,56.04
201903041211,56.04,56.05,56.04,56.05
201903041212,56.05,56.05,56.04,56.04
201903041213,56.04,56.05,56.04,56.05
201903041214,56.05,56.05,56.04,56.04
201903041215,56.04,56.05,56.04,56.05
201903041216,56.05,56.05,56.04,56.04
201903041217,56.04,56.04,56.03,56.03
201903041218,56.03,56.04,56.02,56.04
201903041219,56.04,56.05,56.04,56.05
201903041220,56.05,56.05,56.04,56.05
201903041221,56.05,56.07,56.05,56.06
201903041222,56.06,56.06,56.05,56.06
201903041223,56.06,56.06,56.02,56.02
201903041224,56.02,56.04,56.02,56.04
201903041225,56.04,56.04,56.02,56.02
201903041226,56.02,56.02,56,56.01
201903041227,56.01,56.02,56.01,56.01
201903041228,56.01,56.03,56.01,56.02
201903041229,56.02,56.02,56.01,56.01
201903041230,56.01,56.02,56.01,56.02
201903041231,56.02,56.03,56.02,56.02
201903041232,56.02,56.04,56.02,56.04
201903041233,56.04,56.04,56.03,56.03
201903041234,56.03,56.04,56.03,56.03
201903041235,56.03,56.04,56.03,56.03
201903041236,56.03,56.03,56.02,56.02
201903041237,56.02,56.03,56.02,56.03
201903041238,56.03,56.03,56.03,56.03
201903041239,56.03,56.03,56.02,56.02
201903041240,56.02,56.02,56.02,56.02
201903041241,56.02,56.02,56.01,56.01
201903041242,56.01,56.02,56,56
201903041243,56,56.01,55.99,55.99
201903041244,55.99,56.01,55.99,56.01
201903041245,56.01,56.02,56.01,56.02
201903041246,56.02,56.04,56.02,56.04
201903041247,56.04,56.04,56.03,56.03
201903041248,56.03,56.03,56.03,56.03
201903041249,56.03,56.04,56.03,56.03
201903041250,56.03,56.03,56.03,56.03
201903041251,56.03,56.04,56.03,56.03
201903041252,56.03,56.05,56.03,56.05
201903041253,56.05,56.05,56.04,56.05
201903041254,56.05,56.06,56.05,56.06
201903041255,56.06,56.07,56.05,56.05
201903041256,56.05,56.06,56.05,56.06
201903041257,56.06,56.06,56.04,56.05
201903041258,56.05,56.05,56.04,56.05
201903041259,56.05,56.06,56.05,56.05
201903041300,56.05,56.05,56.05,56.05
201903041301,56.05,56.06,56.05,56.06
201903041302,56.06,56.06,56.05,56.06
201903041303,56.06,56.06,56.05,56.06
201903041304,56.06,56.06,56.06,56.06
201903041305,56.06,56.07,56.06,56.07
201903041306,56.07,56.07,56.07,56.07
201903041307,56.07,56.07,56.07,56.07
201903041308,56.07,56.07,56.06,56.06
201903041309,56.06,56.06,56.05,56.05
201903041310,56.05,56.06,56.05,56.06
201903041311,56.06,56.07,56.06,56.06
201903041312,56.06,56.06,56.05,56.05
201903041313,56.05,56.06,56.05,56.06
201903041314,56.06,56.06,56.05,56.05
201903041315,56.05,56.06,56.05,56.06
201903041316,56.06,56.07,56.05,56.07
201903041317,56.07,56.08,56.07,56.07
201903041318,56.07,56.08,56.07,56.08
201903041319,56.08,56.08,56.07,56.07
201903041320,56.07,56.07,56.07,56.07
201903041321,56.07,56.07,56.07,56.07
201903041322,56.07,56.08,56.07,56.08
201903041323,56.08,56.08,56.08,56.08
201903041324,56.08,56.08,56.08,56.08
201903041325,56.08,56.08,56.08,56.08
201903041326,56.08,56.08,56.08,56.08
201903041327,56.08,56.08,56.08,56.08
201903041328,56.08,56.08,56.08,56.08
201903041329,56.08,56.08,56.08,56.08
201903041330,56.08,56.08,56.08,56.08
201903041331,56.08,56.08,56.07,56.07
201903041332,56.07,56.07,56.06,56.07
201903041333,56.07,56.07,56.06,56.07
201903041334,56.07,56.07,56.07,56.07
201903041335,56.07,56.07,56.05,56.05
201903041336,56.05,56.06,56.04,56.05
201903041337,56.05,56.05,56.04,56.05
201903041338,56.05,56.05,56.04,56.05
201903041339,56.05,56.05,56.04,56.05
201903041340,56.05,56.05,56.04,56.04
201903041341,56.04,56.05,56.04,56.05
201903041342,56.05,56.05,56.05,56.05
201903041343,56.05,56.05,56.05,56.05
201903041344,56.05,56.06,56.05,56.06
201903041345,56.06,56.06,56.05,56.06
201903041346,56.06,56.07,56.06,56.06
201903041347,56.06,56.06,56.05,56.05
201903041348,56.05,56.05,56.04,56.05
201903041349,56.05,56.05,56.04,56.05
201903041350,56.05,56.05,56.05,56.05
201903041351,56.05,56.05,56.05,56.05
201903041352,56.05,56.05,56.05,56.05
201903041353,56.05,56.06,56.05,56.06
201903041354,56.06,56.06,56.06,56.06
201903041355,56.06,56.06,56.06,56.06
201903041356,56.06,56.06,56.06,56.06
201903041357,56.06,56.06,56.06,56.06
201903041358,56.06,56.06,56.06,56.06
201903041359,56.06,56.06,56.06,56.06
201903041400,56.06,56.07,56.06,56.07
201903041401,56.07,56.08,56.07,56.07
201903041402,56.07,56.08,56.07,56.08
201903041403,56.08,56.08,56.07,56.08
201903041404,56.08,56.08,56.07,56.08
201903041405,56.08,56.08,56.08,56.08
201903041406,56.08,56.08,56.08,56.08
201903041407,56.08,56.11,56.08,56.1
201903041408,56.11,56.11,56.1,56.1
201903041409,56.1,56.1,56.07,56.07
201903041410,56.07,56.07,56.06,56.06
201903041411,56.06,56.06,56.04,56.05
201903041412,56.05,56.05,56.04,56.04
201903041413,56.04,56.05,56.04,56.05
201903041414,56.05,56.05,56.04,56.05
201903041415,56.05,56.05,56.04,56.04
201903041416,56.04,56.06,56.04,56.06
201903041417,56.06,56.06,56.05,56.05
201903041418,56.05,56.05,56.05,56.05
201903041419,56.05,56.05,56.04,56.05
201903041420,56.05,56.05,56.05,56.05
201903041421,56.05,56.06,56.05,56.05
201903041422,56.05,56.05,56.05,56.05
201903041423,56.05,56.05,56.04,56.04
201903041424,56.04,56.04,56.04,56.04
201903041425,56.04,56.04,56.03,56.04
201903041426,56.04,56.04,56.02,56.03
201903041427,56.03,56.03,56,56.01
201903041428,56.01,56.01,56,56
201903041429,56,56,55.95,55.97
201903041430,55.97,55.99,55.94,55.97
201903041431,55.97,55.99,55.95,55.96
201903041432,55.96,55.97,55.9,55.9
201903041433,55.9,55.92,55.89,55.9
201903041434,55.9,55.92,55.89,55.92
201903041435,55.92,55.92,55.9,55.92
201903041436,55.92,55.93,55.92,55.92
201903041437,55.92,55.92,55.86,55.88
201903041438,55.88,55.89,55.87,55.88
201903041439,55.88,55.9,55.88,55.9
201903041440,55.9,55.91,55.89,55.9
201903041441,55.9,55.93,55.9,55.92
201903041442,55.92,55.92,55.91,55.92
201903041443,55.92,55.94,55.92,55.92
201903041444,55.92,55.92,55.9,55.92
201903041445,55.92,55.95,55.92,55.93
201903041446,55.93,55.93,55.92,55.93
201903041447,55.93,55.95,55.93,55.94
201903041448,55.94,55.94,55.94,55.94
201903041449,55.94,55.96,55.94,55.96
201903041450,55.96,55.96,55.94,55.95
201903041451,55.95,55.96,55.93,55.94
201903041452,55.94,55.97,55.94,55.95
201903041453,55.95,55.98,55.95,55.97
201903041454,55.97,56,55.97,56
201903041455,56,56.01,55.99,56
201903041456,56,56,56,56
201903041457,56,56,55.99,56
201903041458,56,56,55.98,55.98
201903041459,55.98,55.99,55.97,55.98
201903041500,55.98,55.98,55.97,55.98
201903041501,55.98,55.98,55.95,55.95
201903041502,55.95,55.97,55.95,55.96
201903041503,55.96,55.97,55.95,55.97
201903041504,55.97,55.97,55.95,55.95
201903041505,55.95,56,55.95,56
201903041506,56,56,55.95,55.96
201903041507,55.96,55.97,55.96,55.97
201903041508,55.97,55.98,55.96,55.97
201903041509,55.97,55.98,55.97,55.97
201903041510,55.97,55.98,55.96,55.98
201903041511,55.98,56,55.97,55.97
201903041512,55.97,55.97,55.96,55.96
201903041513,55.96,55.99,55.96,55.98
201903041514,55.98,55.99,55.97,55.99
201903041515,55.99,55.99,55.93,55.94
201903041516,55.94,55.96,55.93,55.95
201903041517,55.95,55.95,55.93,55.93
201903041518,55.93,55.95,55.93,55.94
201903041519,55.94,55.95,55.94,55.95
201903041520,55.95,55.96,55.95,55.95
201903041521,55.95,55.96,55.95,55.95
201903041522,55.95,55.97,55.95,55.97
201903041523,55.97,55.99,55.96,55.98
201903041524,55.98,56,55.97,55.98
201903041525,55.98,56.02,55.98,56.02
201903041526,56.02,56.02,55.99,56.01
201903041527,56.01,56.02,56.01,56.02
201903041528,56.02,56.02,56.01,56.02
201903041529,56.02,56.04,56.02,56.02
201903041530,56.02,56.03,56,56.01
201903041531,56,56.01,55.99,55.99
201903041532,55.99,55.99,55.98,55.99
201903041533,55.99,56.01,55.99,56
201903041534,55.99,56.01,55.98,56.01
201903041535,56.01,56.01,55.98,55.99
201903041536,55.99,56,55.98,55.99
201903041537,55.99,56.02,55.99,56.01
201903041538,56.01,56.02,56.01,56.01
201903041539,56.01,56.01,56,56
201903041540,56,56.02,55.99,56.02
201903041541,56.02,56.02,56,56
201903041542,56,56.01,56,56.01
201903041543,56.01,56.01,55.98,55.98
201903041544,55.98,55.99,55.97,55.99
201903041545,55.99,55.99,55.99,55.99
201903041546,55.99,55.99,55.97,55.97
201903041547,55.97,55.98,55.97,55.97
201903041548,55.97,55.99,55.97,55.99
201903041549,55.99,55.99,55.97,55.97
201903041550,55.97,55.97,55.96,55.97
201903041551,55.97,55.98,55.96,55.97
201903041552,55.97,56,55.97,55.99
201903041553,55.99,55.99,55.97,55.98
201903041554,55.98,55.99,55.98,55.99
201903041555,55.99,55.99,55.99,55.99
201903041556,55.99,56.01,55.99,56
201903041557,56,56.03,56,56.01
201903041558,56.01,56.02,56.01,56.02
201903041559,56.02,56.02,56,56
201903041600,56,56.01,55.97,55.98
201903041601,55.98,55.98,55.94,55.94
201903041602,55.94,55.94,55.91,55.93
201903041603,55.93,55.94,55.93,55.94
201903041604,55.94,55.94,55.92,55.93
201903041605,55.93,55.93,55.92,55.93
201903041606,55.93,55.94,55.93,55.94
201903041607,55.94,55.94,55.93,55.93
201903041608,55.93,55.94,55.93,55.93
201903041609,55.93,55.94,55.92,55.93
201903041610,55.93,55.93,55.92,55.92
201903041611,55.92,55.93,55.9,55.93
201903041612,55.93,55.93,55.91,55.92
201903041613,55.92,55.94,55.92,55.93
201903041614,55.93,55.93,55.93,55.93
201903041615,55.93,55.93,55.92,55.92
201903041616,55.92,55.92,55.9,55.91
201903041617,55.9,55.91,55.89,55.89
201903041618,55.89,55.89,55.88,55.89
201903041619,55.89,55.9,55.88,55.89
201903041620,55.89,55.89,55.87,55.88
201903041621,55.88,55.89,55.87,55.89
201903041622,55.89,55.89,55.88,55.89
201903041623,55.89,55.91,55.88,55.9
201903041624,55.9,55.93,55.9,55.91
201903041625,55.91,55.91,55.89,55.9
201903041626,55.9,55.91,55.9,55.91
201903041627,55.91,55.92,55.91,55.91
201903041628,55.91,55.91,55.9,55.9
201903041629,55.9,55.91,55.89,55.91
201903041630,55.91,55.91,55.9,55.91
201903041631,55.91,55.91,55.89,55.91
201903041632,55.91,55.93,55.9,55.9
201903041633,55.9,55.92,55.89,55.91
201903041634,55.91,55.92,55.91,55.91
201903041635,55.91,55.91,55.89,55.89
201903041636,55.89,55.91,55.89,55.91
201903041637,55.91,55.92,55.9,55.92
201903041638,55.92,55.94,55.92,55.94
201903041639,55.94,55.94,55.91,55.91
201903041640,55.91,55.92,55.91,55.92
201903041641,55.92,55.94,55.92,55.94
201903041642,55.94,55.95,55.93,55.95
201903041643,55.95,55.96,55.94,55.94
201903041644,55.94,55.94,55.93,55.94
201903041645,55.94,55.95,55.93,55.94
201903041646,55.94,55.94,55.9,55.92
201903041647,55.92,55.92,55.89,55.9
201903041648,55.9,55.91,55.86,55.86
201903041649,55.86,55.88,55.85,55.87
201903041650,55.87,55.89,55.87,55.88
201903041651,55.88,55.89,55.88,55.88
201903041652,55.88,55.89,55.87,55.87
201903041653,55.87,55.89,55.87,55.89
201903041654,55.89,55.89,55.86,55.86
201903041655,55.86,55.89,55.86,55.89
201903041656,55.89,55.89,55.88,55.89
201903041657,55.89,55.92,55.89,55.9
201903041658,55.9,55.92,55.9,55.92
201903041659,55.92,55.93,55.92,55.92
201903041700,55.92,55.92,55.89,55.9
201903041701,55.9,55.93,55.9,55.92
201903041702,55.92,55.92,55.9,55.9
201903041703,55.9,55.9,55.88,55.88
201903041704,55.88,55.9,55.87,55.87
201903041705,55.87,55.88,55.82,55.84
201903041706,55.84,55.89,55.82,55.86
201903041707,55.86,55.87,55.84,55.87
201903041708,55.87,55.87,55.85,55.87
201903041709,55.87,55.87,55.86,55.86
201903041710,55.86,55.87,55.84,55.85
201903041711,55.85,55.85,55.83,55.83
201903041712,55.83,55.88,55.83,55.85
201903041713,55.85,55.86,55.85,55.86
201903041714,55.86,55.86,55.8,55.85
201903041715,55.85,55.87,55.85,55.86
201903041716,55.86,55.87,55.85,55.85
201903041717,55.85,55.87,55.84,55.87
201903041718,55.87,55.92,55.87,55.91
201903041719,55.91,55.94,55.91,55.91
201903041720,55.91,55.94,55.91,55.92
201903041721,55.92,55.97,55.92,55.94
201903041722,55.94,55.96,55.94,55.96
201903041723,55.96,56.03,55.96,56.01
201903041724,56.01,56.05,56,56.05
201903041725,56.04,56.04,56,56.01
201903041726,56.01,56.01,55.97,55.98
201903041727,55.98,55.99,55.95,55.97
201903041728,55.97,56,55.95,55.99
201903041729,55.99,56.02,55.98,56
201903041730,56,56.03,55.98,56.02
201903041731,56.02,56.09,56.02,56.08
201903041732,56.08,56.09,56.04,56.04
201903041733,56.04,56.05,56.03,56.03
201903041734,56.03,56.04,56.01,56.02
201903041735,56.02,56.04,56.01,56.04
201903041736,56.04,56.04,56.02,56.03
201903041737,56.03,56.04,56.02,56.03
201903041738,56.03,56.03,56.01,56.02
201903041739,56.02,56.04,56.01,56.03
201903041740,56.04,56.06,56.03,56.05
201903041741,56.05,56.06,56.03,56.03
201903041742,56.03,56.04,56.01,56.01
201903041743,56.02,56.04,56.01,56.04
201903041744,56.04,56.04,56.01,56.02
201903041745,56.02,56.12,56,56.12
201903041746,56.12,56.12,56.09,56.11
201903041747,56.11,56.16,56.1,56.14
201903041748,56.14,56.14,56.1,56.11
201903041749,56.11,56.13,56.09,56.11
201903041750,56.11,56.14,56.1,56.13
201903041751,56.13,56.14,56.12,56.13
201903041752,56.13,56.14,56.12,56.13
201903041753,56.13,56.14,56.11,56.12
201903041754,56.12,56.12,56.09,56.12
201903041755,56.12,56.13,56.12,56.13
201903041756,56.13,56.14,56.12,56.14
201903041757,56.14,56.19,56.13,56.17
201903041758,56.17,56.17,56.15,56.15
201903041759,56.15,56.16,56.14,56.14
201903041800,56.14,56.2,56.14,56.17
201903041801,56.17,56.22,56.17,56.2
201903041802,56.19,56.21,56.19,56.2
201903041803,56.2,56.22,56.19,56.2
201903041804,56.2,56.21,56.18,56.18
201903041805,56.18,56.21,56.18,56.2
201903041806,56.2,56.22,56.19,56.22
201903041807,56.22,56.26,56.22,56.25
201903041808,56.25,56.25,56.23,56.23
201903041809,56.23,56.23,56.2,56.21
201903041810,56.21,56.22,56.19,56.19
201903041811,56.19,56.19,56.18,56.19
201903041812,56.19,56.24,56.19,56.23
201903041813,56.23,56.23,56.22,56.23
201903041814,56.23,56.23,56.22,56.22
201903041815,56.22,56.22,56.15,56.16
201903041816,56.16,56.2,56.15,56.19
201903041817,56.19,56.2,56.17,56.19
201903041818,56.19,56.22,56.19,56.22
201903041819,56.22,56.24,56.2,56.22
201903041820,56.22,56.24,56.21,56.23
201903041821,56.23,56.24,56.22,56.22
201903041822,56.23,56.23,56.2,56.23
201903041823,56.23,56.23,56.21,56.22
201903041824,56.22,56.22,56.19,56.22
201903041825,56.22,56.22,56.2,56.21
201903041826,56.21,56.25,56.21,56.24
201903041827,56.24,56.27,56.23,56.23
201903041828,56.23,56.25,56.23,56.24
201903041829,56.24,56.27,56.24,56.26
201903041830,56.26,56.27,56.25,56.26
201903041831,56.26,56.26,56.22,56.24
201903041832,56.24,56.26,56.24,56.26
201903041833,56.26,56.27,56.26,56.27
201903041834,56.27,56.27,56.24,56.26
201903041835,56.26,56.28,56.25,56.28
201903041836,56.28,56.3,56.27,56.29
201903041837,56.29,56.3,56.27,56.28
201903041838,56.28,56.28,56.25,56.25
201903041839,56.25,56.26,56.24,56.26
201903041840,56.26,56.26,56.23,56.23
201903041841,56.23,56.26,56.22,56.25
201903041842,56.25,56.3,56.25,56.27
201903041843,56.27,56.28,56.26,56.27
201903041844,56.27,56.28,56.25,56.26
201903041845,56.26,56.26,56.23,56.23
201903041846,56.23,56.23,56.22,56.23
201903041847,56.23,56.25,56.22,56.23
201903041848,56.23,56.25,56.23,56.24
201903041849,56.24,56.24,56.2,56.23
201903041850,56.23,56.25,56.22,56.22
201903041851,56.22,56.24,56.21,56.24
201903041852,56.24,56.26,56.23,56.24
201903041853,56.24,56.24,56.18,56.18
201903041854,56.18,56.2,56.18,56.19
201903041855,56.19,56.2,56.18,56.18
201903041856,56.18,56.2,56.17,56.17
201903041857,56.17,56.24,56.17,56.24
201903041858,56.24,56.35,56.24,56.33
201903041859,56.33,56.33,56.27,56.3
201903041900,56.3,56.31,56.25,56.3
201903041901,56.3,56.33,56.3,56.32
201903041902,56.32,56.35,56.32,56.34
201903041903,56.34,56.34,56.3,56.31
201903041904,56.31,56.32,56.29,56.3
201903041905,56.3,56.31,56.28,56.31
201903041906,56.31,56.31,56.29,56.3
201903041907,56.3,56.3,56.27,56.3
201903041908,56.3,56.3,56.29,56.29
201903041909,56.29,56.31,56.29,56.29
201903041910,56.29,56.3,56.28,56.29
201903041911,56.29,56.3,56.28,56.29
201903041912,56.29,56.32,56.28,56.31
201903041913,56.31,56.31,56.29,56.3
201903041914,56.3,56.31,56.3,56.3
201903041915,56.3,56.33,56.3,56.32
201903041916,56.32,56.34,56.3,56.3
201903041917,56.3,56.31,56.3,56.3
201903041918,56.3,56.31,56.29,56.29
201903041919,56.29,56.3,56.28,56.3
201903041920,56.3,56.32,56.3,56.31
201903041921,56.31,56.31,56.29,56.31
201903041922,56.31,56.32,56.3,56.3
201903041923,56.3,56.31,56.3,56.3
201903041924,56.3,56.31,56.3,56.3
201903041925,56.3,56.31,56.29,56.3
201903041926,56.3,56.31,56.29,56.31
201903041927,56.31,56.31,56.3,56.3
201903041928,56.3,56.31,56.3,56.31
201903041929,56.31,56.31,56.27,56.28
201903041930,56.28,56.35,56.27,56.34
201903041931,56.34,56.34,56.32,56.32
201903041932,56.32,56.34,56.31,56.34
201903041933,56.34,56.35,56.34,56.34
201903041934,56.34,56.37,56.34,56.36
201903041935,56.36,56.4,56.36,56.37
201903041936,56.37,56.38,56.33,56.34
201903041937,56.34,56.34,56.32,56.32
201903041938,56.32,56.34,56.32,56.34
201903041939,56.34,56.34,56.33,56.33
201903041940,56.33,56.34,56.33,56.34
201903041941,56.34,56.34,56.33,56.34
201903041942,56.34,56.34,56.32,56.33
201903041943,56.33,56.33,56.33,56.33
201903041944,56.33,56.34,56.32,56.32
201903041945,56.32,56.32,56.3,56.31
201903041946,56.31,56.32,56.3,56.3
201903041947,56.3,56.32,56.29,56.31
201903041948,56.31,56.32,56.31,56.31
201903041949,56.31,56.31,56.31,56.31
201903041950,56.31,56.31,56.29,56.3
201903041951,56.3,56.31,56.28,56.29
201903041952,56.29,56.3,56.28,56.3
201903041953,56.3,56.3,56.28,56.28
201903041954,56.28,56.28,56.27,56.28
201903041955,56.28,56.29,56.27,56.28
201903041956,56.28,56.29,56.28,56.28
201903041957,56.28,56.29,56.27,56.29
201903041958,56.29,56.31,56.29,56.3
201903041959,56.3,56.31,56.29,56.29
201903042000,56.29,56.29,56.27,56.29
201903042001,56.29,56.3,56.27,56.27
201903042002,56.27,56.27,56.23,56.23
201903042003,56.23,56.23,56.2,56.21
201903042004,56.21,56.23,56.17,56.18
201903042005,56.17,56.24,56.17,56.22
201903042006,56.22,56.23,56.2,56.2
201903042007,56.2,56.22,56.2,56.21
201903042008,56.21,56.22,56.2,56.22
201903042009,56.22,56.22,56.21,56.21
201903042010,56.21,56.21,56.16,56.17
201903042011,56.17,56.21,56.17,56.2
201903042012,56.2,56.2,56.18,56.19
201903042013,56.19,56.19,56.18,56.18
201903042014,56.18,56.22,56.18,56.21
201903042015,56.21,56.22,56.18,56.18
201903042016,56.18,56.2,56.18,56.19
201903042017,56.19,56.19,56.16,56.17
201903042018,56.17,56.17,56.11,56.11
201903042019,56.11,56.16,56.11,56.15
201903042020,56.15,56.17,56.12,56.12
201903042021,56.12,56.12,56.1,56.1
201903042022,56.1,56.12,56.1,56.1
201903042023,56.1,56.11,56.1,56.1
201903042024,56.1,56.11,56.1,56.11
201903042025,56.11,56.12,56.09,56.1
201903042026,56.1,56.13,56.09,56.13
201903042027,56.13,56.14,56.09,56.11
201903042028,56.11,56.13,56.11,56.13
201903042029,56.13,56.16,56.13,56.15
201903042030,56.15,56.16,56.14,56.14
201903042031,56.14,56.14,56.13,56.14
201903042032,56.14,56.14,56.11,56.11
201903042033,56.11,56.14,56.11,56.14
201903042034,56.14,56.14,56.12,56.12
201903042035,56.12,56.13,56.09,56.1
201903042036,56.1,56.1,56.08,56.09
201903042037,56.09,56.09,56.06,56.09
201903042038,56.09,56.11,56.09,56.09
201903042039,56.09,56.12,56.09,56.12
201903042040,56.12,56.13,56.1,56.12
201903042041,56.12,56.12,56.09,56.09
201903042042,56.09,56.12,56.09,56.11
201903042043,56.11,56.14,56.11,56.13
201903042044,56.13,56.15,56.12,56.15
201903042045,56.15,56.16,56.13,56.16
201903042046,56.16,56.17,56.14,56.15
201903042047,56.15,56.16,56.14,56.14
201903042048,56.14,56.15,56.13,56.13
201903042049,56.13,56.14,56.11,56.11
201903042050,56.11,56.12,56.1,56.12
201903042051,56.12,56.12,56.07,56.07
201903042052,56.07,56.08,56.06,56.07
201903042053,56.07,56.07,56.05,56.07
201903042054,56.07,56.08,56.07,56.07
201903042055,56.07,56.07,56.03,56.05
201903042056,56.05,56.06,56.03,56.04
201903042057,56.04,56.06,56.04,56.04
201903042058,56.04,56.05,56.03,56.05
201903042059,56.05,56.08,56.05,56.07
201903042100,56.07,56.08,56.06,56.08
201903042101,56.08,56.09,56.08,56.08
201903042102,56.08,56.09,56.08,56.09
201903042103,56.09,56.09,56.05,56.05
201903042104,56.05,56.07,56.02,56.03
201903042105,56.03,56.05,56.03,56.05
201903042106,56.05,56.15,56.05,56.14
201903042107,56.14,56.15,56.13,56.13
201903042108,56.13,56.13,56.12,56.13
201903042109,56.13,56.14,56.11,56.12
201903042110,56.12,56.15,56.1,56.14
201903042111,56.14,56.16,56.14,56.15
201903042112,56.15,56.16,56.12,56.12
201903042113,56.12,56.2,56.12,56.18
201903042114,56.18,56.2,56.16,56.19
201903042115,56.19,56.2,56.16,56.17
201903042116,56.17,56.21,56.17,56.2
201903042117,56.2,56.21,56.19,56.19
201903042118,56.19,56.2,56.17,56.18
201903042119,56.18,56.19,56.16,56.18
201903042120,56.18,56.18,56.17,56.17
201903042121,56.17,56.18,56.16,56.17
201903042122,56.17,56.18,56.16,56.18
201903042123,56.18,56.26,56.18,56.26
201903042124,56.26,56.27,56.24,56.26
201903042125,56.26,56.27,56.25,56.25
201903042126,56.25,56.26,56.23,56.25
201903042127,56.25,56.27,56.24,56.27
201903042128,56.27,56.27,56.27,56.27
201903042129,56.27,56.3,56.27,56.3
201903042130,56.3,56.32,56.3,56.3
201903042131,56.31,56.31,56.25,56.27
201903042132,56.27,56.27,56.23,56.25
201903042133,56.25,56.25,56.23,56.24
201903042134,56.24,56.25,56.23,56.23
201903042135,56.23,56.24,56.22,56.24
201903042136,56.24,56.26,56.23,56.25
201903042137,56.26,56.27,56.23,56.24
201903042138,56.24,56.25,56.21,56.22
201903042139,56.22,56.24,56.2,56.24
201903042140,56.24,56.24,56.22,56.23
201903042141,56.23,56.23,56.22,56.22
201903042142,56.22,56.25,56.22,56.25
201903042143,56.25,56.26,56.24,56.25
201903042144,56.25,56.28,56.24,56.25
201903042145,56.25,56.27,56.25,56.26
201903042146,56.26,56.28,56.25,56.26
201903042147,56.26,56.28,56.26,56.26
201903042148,56.26,56.26,56.24,56.24
201903042149,56.24,56.24,56.23,56.24
201903042150,56.23,56.23,56.19,56.21
201903042151,56.21,56.21,56.18,56.18
201903042152,56.18,56.23,56.18,56.23
201903042153,56.23,56.23,56.21,56.21
201903042154,56.21,56.23,56.2,56.23
201903042155,56.23,56.25,56.23,56.25
201903042156,56.25,56.25,56.23,56.23
201903042157,56.23,56.26,56.23,56.26
201903042158,56.26,56.27,56.25,56.27
201903042159,56.26,56.28,56.26,56.28
201903042200,56.28,56.28,56.25,56.25
201903042201,56.25,56.3,56.25,56.27
201903042202,56.27,56.28,56.25,56.25
201903042203,56.25,56.28,56.23,56.23
201903042204,56.23,56.25,56.21,56.24
201903042205,56.24,56.28,56.24,56.26
201903042206,56.26,56.3,56.26,56.28
201903042207,56.28,56.28,56.25,56.28
201903042208,56.28,56.28,56.26,56.28
201903042209,56.28,56.28,56.26,56.27
201903042210,56.27,56.32,56.27,56.32
201903042211,56.32,56.35,56.31,56.34
201903042212,56.34,56.35,56.33,56.33
201903042213,56.33,56.34,56.33,56.33
201903042214,56.33,56.35,56.33,56.35
201903042215,56.35,56.46,56.35,56.44
201903042216,56.44,56.51,56.44,56.51
201903042217,56.51,56.51,56.47,56.48
201903042218,56.48,56.53,56.47,56.51
201903042219,56.51,56.51,56.48,56.5
201903042220,56.5,56.5,56.47,56.48
201903042221,56.48,56.48,56.45,56.47
201903042222,56.47,56.48,56.46,56.48
201903042223,56.48,56.48,56.46,56.46
201903042224,56.46,56.47,56.45,56.46
201903042225,56.46,56.48,56.45,56.48
201903042226,56.48,56.49,56.45,56.46
201903042227,56.46,56.46,56.43,56.45
201903042228,56.45,56.46,56.42,56.43
201903042229,56.43,56.43,56.39,56.41
201903042230,56.41,56.44,56.4,56.43
201903042231,56.43,56.45,56.43,56.45
201903042232,56.45,56.45,56.44,56.45
201903042233,56.45,56.47,56.44,56.46
201903042234,56.46,56.48,56.45,56.46
201903042235,56.46,56.47,56.45,56.45
201903042236,56.45,56.47,56.39,56.44
201903042237,56.44,56.48,56.44,56.47
201903042238,56.47,56.47,56.46,56.47
201903042239,56.47,56.5,56.44,56.44
201903042240,56.44,56.45,56.43,56.44
201903042241,56.44,56.45,56.41,56.44
201903042242,56.44,56.46,56.43,56.46
201903042243,56.46,56.47,56.44,56.46
201903042244,56.46,56.5,56.46,56.48
201903042245,56.48,56.5,56.48,56.49
201903042246,56.49,56.5,56.48,56.5
201903042247,56.5,56.53,56.5,56.53
201903042248,56.53,56.53,56.48,56.49
201903042249,56.49,56.5,56.47,56.47
201903042250,56.47,56.48,56.45,56.47
201903042251,56.47,56.51,56.47,56.5
201903042252,56.5,56.5,56.46,56.49
201903042253,56.49,56.49,56.48,56.49
201903042254,56.49,56.49,56.47,56.48
201903042255,56.48,56.49,56.45,56.46
201903042256,56.46,56.46,56.42,56.43
201903042257,56.43,56.45,56.41,56.42
201903042258,56.42,56.43,56.4,56.43
201903042259,56.43,56.46,56.42,56.43
201903042300,56.43,56.47,56.42,56.44
201903042301,56.44,56.51,56.44,56.48
201903042302,56.48,56.51,56.46,56.51
201903042303,56.51,56.52,56.48,56.48
201903042304,56.48,56.6,56.48,56.6
201903042305,56.6,56.62,56.55,56.58
201903042306,56.58,56.59,56.53,56.54
201903042307,56.54,56.57,56.53,56.54
201903042308,56.54,56.54,56.5,56.51
201903042309,56.51,56.52,56.48,56.52
201903042310,56.52,56.52,56.49,56.49
201903042311,56.49,56.5,56.46,56.47
201903042312,56.47,56.48,56.45,56.46
201903042313,56.46,56.47,56.45,56.46
201903042314,56.46,56.52,56.46,56.48
201903042315,56.48,56.58,56.47,56.55
201903042316,56.55,56.58,56.55,56.58
201903042317,56.58,56.58,56.52,56.52
201903042318,56.52,56.55,56.52,56.55
201903042319,56.56,56.57,56.54,56.57
201903042320,56.57,56.6,56.57,56.57
201903042321,56.57,56.63,56.57,56.61
201903042322,56.61,56.69,56.61,56.67
201903042323,56.67,56.69,56.61,56.63
201903042324,56.63,56.66,56.63,56.63
201903042325,56.63,56.67,56.59,56.6
201903042326,56.6,56.63,56.58,56.61
201903042327,56.61,56.62,56.59,56.6
201903042328,56.6,56.66,56.59,56.65
201903042329,56.65,56.68,56.65,56.65
201903042330,56.65,56.69,56.65,56.68
201903042331,56.68,56.72,56.65,56.71
201903042332,56.71,56.76,56.7,56.73
201903042333,56.73,56.82,56.73,56.81
201903042334,56.81,56.83,56.81,56.82
201903042335,56.82,56.85,56.82,56.84
201903042336,56.84,56.86,56.79,56.8
201903042337,56.8,56.83,56.77,56.81
201903042338,56.81,56.84,56.78,56.8
201903042339,56.8,56.85,56.8,56.84
201903042340,56.84,56.86,56.82,56.83
201903042341,56.83,56.92,56.83,56.91
201903042342,56.91,56.93,56.9,56.91
201903042343,56.92,56.95,56.91,56.93
201903042344,56.93,56.97,56.92,56.95
201903042345,56.95,56.98,56.95,56.96
201903042346,56.96,56.99,56.88,56.88
201903042347,56.88,56.9,56.87,56.87
201903042348,56.87,56.87,56.84,56.86
201903042349,56.86,56.88,56.85,56.85
201903042350,56.85,56.86,56.8,56.81
201903042351,56.81,56.82,56.77,56.79
201903042352,56.79,56.8,56.76,56.77
201903042353,56.77,56.78,56.71,56.75
201903042354,56.75,56.8,56.75,56.77
201903042355,56.77,56.79,56.76,56.78
201903042356,56.78,56.81,56.77,56.8
201903042357,56.8,56.85,56.8,56.85
201903042358,56.85,56.85,56.82,56.84
201903042359,56.84,56.85,56.83,56.85
201903050000,56.85,56.91,56.84,56.88
201903050001,56.88,56.88,56.77,56.78
201903050002,56.78,56.82,56.78,56.79
201903050003,56.79,56.79,56.74,56.77
201903050004,56.77,56.8,56.76,56.77
201903050005,56.77,56.85,56.74,56.82
201903050006,56.82,56.82,56.77,56.78
201903050007,56.78,56.83,56.77,56.78
201903050008,56.78,56.8,56.76,56.79
201903050009,56.79,56.82,56.79,56.8
201903050010,56.8,56.82,56.77,56.8
201903050011,56.8,56.82,56.78,56.79
201903050012,56.79,56.79,56.74,56.79
201903050013,56.79,56.82,56.77,56.78
201903050014,56.78,56.88,56.78,56.85
201903050015,56.85,56.92,56.85,56.88
201903050016,56.88,56.9,56.82,56.82
201903050017,56.82,56.85,56.82,56.84
201903050018,56.84,56.84,56.79,56.81
201903050019,56.8,56.83,56.79,56.81
201903050020,56.82,56.84,56.79,56.82
201903050021,56.82,56.82,56.79,56.79
201903050022,56.79,56.8,56.73,56.73
201903050023,56.73,56.74,56.64,56.65
201903050024,56.65,56.72,56.65,56.7
201903050025,56.7,56.71,56.68,56.71
201903050026,56.71,56.76,56.7,56.74
201903050027,56.74,56.79,56.73,56.77
201903050028,56.77,56.77,56.73,56.75
201903050029,56.75,56.81,56.73,56.76
201903050030,56.76,56.81,56.76,56.78
201903050031,56.78,56.78,56.73,56.74
201903050032,56.74,56.75,56.69,56.69
201903050033,56.69,56.77,56.68,56.77
201903050034,56.77,56.78,56.75,56.76
201903050035,56.76,56.78,56.74,56.77
201903050036,56.77,56.77,56.71,56.74
201903050037,56.74,56.8,56.74,56.78
201903050038,56.79,56.81,56.77,56.81
201903050039,56.81,56.83,56.8,56.81
201903050040,56.81,56.83,56.8,56.81
201903050041,56.81,56.83,56.79,56.81
201903050042,56.81,56.81,56.71,56.71
201903050043,56.71,56.71,56.67,56.67
201903050044,56.67,56.73,56.66,56.72
201903050045,56.72,56.79,56.71,56.77
201903050046,56.77,56.8,56.74,56.75
201903050047,56.75,56.77,56.73,56.75
201903050048,56.75,56.76,56.71,56.76
201903050049,56.76,56.8,56.76,56.76
201903050050,56.76,56.77,56.72,56.73
201903050051,56.73,56.74,56.71,56.72
201903050052,56.72,56.73,56.69,56.7
201903050053,56.7,56.73,56.68,56.71
201903050054,56.71,56.71,56.62,56.64
201903050055,56.64,56.68,56.63,56.67
201903050056,56.67,56.68,56.61,56.62
201903050057,56.62,56.64,56.58,56.63
201903050058,56.63,56.66,56.63,56.64
201903050059,56.64,56.67,56.64,56.66
201903050100,56.66,56.7,56.63,56.69
201903050101,56.69,56.71,56.68,56.7
201903050102,56.7,56.74,56.7,56.73
201903050103,56.73,56.76,56.72,56.74
201903050104,56.74,56.77,56.67,56.67
201903050105,56.67,56.68,56.61,56.63
201903050106,56.63,56.68,56.63,56.66
201903050107,56.66,56.67,56.63,56.63
201903050108,56.63,56.64,56.58,56.58
201903050109,56.58,56.59,56.52,56.52
201903050110,56.52,56.6,56.51,56.55
201903050111,56.55,56.6,56.55,56.59
201903050112,56.59,56.63,56.59,56.61
201903050113,56.61,56.61,56.56,56.57
201903050114,56.57,56.58,56.54,56.54
201903050115,56.55,56.55,56.49,56.54
201903050116,56.54,56.6,56.53,56.6
201903050117,56.6,56.65,56.6,56.64
201903050118,56.64,56.64,56.61,56.63
201903050119,56.63,56.67,56.63,56.66
201903050120,56.66,56.67,56.62,56.63
201903050121,56.63,56.66,56.61,56.61
201903050122,56.61,56.62,56.55,56.56
201903050123,56.56,56.61,56.55,56.57
201903050124,56.57,56.6,56.54,56.56
201903050125,56.56,56.61,56.53,56.61
201903050126,56.61,56.64,56.58,56.58
201903050127,56.58,56.63,56.55,56.63
201903050128,56.63,56.67,56.61,56.63
201903050129,56.63,56.65,56.58,56.59
201903050130,56.57,56.63,56.55,56.6
201903050131,56.6,56.61,56.57,56.58
201903050132,56.58,56.62,56.57,56.62
201903050133,56.62,56.62,56.49,56.49
201903050134,56.49,56.5,56.46,56.47
201903050135,56.47,56.54,56.43,56.53
201903050136,56.53,56.53,56.5,56.5
201903050137,56.5,56.5,56.46,56.48
201903050138,56.48,56.52,56.43,56.51
201903050139,56.51,56.53,56.49,56.5
201903050140,56.5,56.51,56.44,56.46
201903050141,56.46,56.48,56.43,56.44
201903050142,56.44,56.44,56.3,56.31
201903050143,56.31,56.31,56.14,56.17
201903050144,56.17,56.23,56.15,56.15
201903050145,56.15,56.23,56.14,56.18
201903050146,56.18,56.27,56.18,56.27
201903050147,56.27,56.32,56.26,56.31
201903050148,56.31,56.33,56.27,56.32
201903050149,56.32,56.34,56.29,56.3
201903050150,56.3,56.33,56.27,56.33
201903050151,56.33,56.36,56.31,56.36
201903050152,56.36,56.36,56.31,56.31
201903050153,56.31,56.37,56.31,56.36
201903050154,56.36,56.37,56.32,56.32
201903050155,56.32,56.32,56.25,56.27
201903050156,56.27,56.3,56.25,56.3
201903050157,56.3,56.34,56.3,56.32
201903050158,56.32,56.34,56.3,56.33
201903050159,56.33,56.36,56.32,56.32
201903050200,56.32,56.34,56.27,56.32
201903050201,56.32,56.35,56.29,56.35
201903050202,56.35,56.36,56.33,56.33
201903050203,56.33,56.33,56.26,56.29
201903050204,56.29,56.3,56.26,56.27
201903050205,56.27,56.27,56.23,56.23
201903050206,56.23,56.24,56.19,56.22
201903050207,56.22,56.22,56.18,56.19
201903050208,56.19,56.25,56.18,56.24
201903050209,56.24,56.3,56.24,56.3
201903050210,56.3,56.3,56.24,56.26
201903050211,56.26,56.27,56.21,56.22
201903050212,56.22,56.23,56.2,56.21
201903050213,56.21,56.24,56.2,56.23
201903050214,56.23,56.24,56.1,56.13
201903050215,56.13,56.14,56.11,56.13
201903050216,56.13,56.15,56.09,56.1
201903050217,56.1,56.14,56.1,56.14
201903050218,56.14,56.15,56.05,56.07
201903050219,56.07,56.08,55.95,55.96
201903050220,55.96,56.06,55.96,56
201903050221,56,56.08,56,56.08
201903050222,56.08,56.12,56.07,56.08
201903050223,56.08,56.08,56.03,56.05
201903050224,56.05,56.08,56.03,56.07
201903050225,56.07,56.07,56.04,56.04
201903050226,56.04,56.07,56.03,56.03
201903050227,56.03,56.08,56.03,56.08
201903050228,56.08,56.1,56.03,56.09
201903050229,56.09,56.11,56.07,56.1
201903050230,56.1,56.12,56.08,56.09
201903050231,56.09,56.12,56.09,56.11
201903050232,56.11,56.15,56.1,56.15
201903050233,56.15,56.18,56.12,56.17
201903050234,56.17,56.19,56.16,56.18
201903050235,56.18,56.19,56.17,56.17
201903050236,56.17,56.17,56.16,56.16
201903050237,56.16,56.17,56.13,56.14
201903050238,56.14,56.16,56.14,56.16
201903050239,56.16,56.18,56.16,56.16
201903050240,56.16,56.17,56.14,56.14
201903050241,56.14,56.17,56.13,56.16
201903050242,56.16,56.17,56.15,56.16
201903050243,56.16,56.22,56.15,56.2
201903050244,56.2,56.2,56.15,56.17
201903050245,56.17,56.17,56.1,56.1
201903050246,56.1,56.1,56.06,56.09
201903050247,56.09,56.1,56.06,56.07
201903050248,56.07,56.1,56.05,56.1
201903050249,56.09,56.11,56.08,56.11
201903050250,56.11,56.15,56.09,56.14
201903050251,56.14,56.14,56.12,56.13
201903050252,56.13,56.16,56.13,56.16
201903050253,56.16,56.17,56.15,56.17
201903050254,56.17,56.2,56.16,56.16
201903050255,56.17,56.17,56.14,56.16
201903050256,56.16,56.16,56.1,56.1
201903050257,56.1,56.14,56.1,56.12
201903050258,56.12,56.14,56.11,56.13
201903050259,56.13,56.14,56.1,56.14
201903050300,56.14,56.15,56.1,56.11
201903050301,56.11,56.12,56.07,56.07
201903050302,56.07,56.11,56.06,56.1
201903050303,56.1,56.1,56.05,56.07
201903050304,56.07,56.07,56,56
201903050305,56,56.02,55.95,55.98
201903050306,55.98,55.99,55.95,55.97
201903050307,55.97,55.98,55.92,55.92
201903050308,55.92,55.95,55.9,55.91
201903050309,55.91,55.94,55.91,55.93
201903050310,55.93,55.96,55.92,55.94
201903050311,55.94,55.95,55.91,55.92
201903050312,55.92,55.95,55.91,55.93
201903050313,55.93,55.97,55.92,55.97
201903050314,55.97,56.04,55.97,56.02
201903050315,56.02,56.04,55.99,56
201903050316,56,56.07,56,56.04
201903050317,56.04,56.06,56.02,56.05
201903050318,56.05,56.1,56.05,56.09
201903050319,56.09,56.1,56.07,56.08
201903050320,56.08,56.13,56.08,56.1
201903050321,56.1,56.12,56.08,56.12
201903050322,56.12,56.13,56.1,56.12
201903050323,56.12,56.14,56.12,56.13
201903050324,56.13,56.14,56.11,56.13
201903050325,56.13,56.13,56.11,56.11
201903050326,56.11,56.13,56.11,56.12
201903050327,56.12,56.12,56.1,56.12
201903050328,56.12,56.17,56.11,56.16
201903050329,56.16,56.17,56.14,56.15
201903050330,56.15,56.15,56.11,56.11
201903050331,56.11,56.12,56.11,56.11
201903050332,56.11,56.13,56.11,56.12
201903050333,56.12,56.14,56.12,56.13
201903050334,56.13,56.15,56.11,56.12
201903050335,56.12,56.12,56.11,56.12
201903050336,56.12,56.12,56.12,56.12
201903050337,56.12,56.14,56.12,56.12
201903050338,56.12,56.13,56.08,56.09
201903050339,56.09,56.11,56.08,56.09
201903050340,56.09,56.1,56.08,56.09
201903050341,56.09,56.1,56.09,56.1
201903050342,56.1,56.12,56.09,56.12
201903050343,56.12,56.16,56.11,56.16
201903050344,56.16,56.16,56.14,56.15
201903050345,56.15,56.16,56.13,56.13
201903050346,56.13,56.13,56.11,56.11
201903050347,56.11,56.16,56.11,56.16
201903050348,56.16,56.18,56.16,56.16
201903050349,56.16,56.17,56.16,56.16
201903050350,56.16,56.17,56.16,56.17
201903050351,56.17,56.17,56.14,56.16
201903050352,56.16,56.2,56.15,56.19
201903050353,56.19,56.23,56.17,56.23
201903050354,56.23,56.29,56.22,56.27
201903050355,56.27,56.31,56.27,56.31
201903050356,56.31,56.32,56.29,56.3
201903050357,56.3,56.34,56.29,56.32
201903050358,56.32,56.33,56.31,56.33
201903050359,56.33,56.35,56.33,56.34
201903050400,56.34,56.37,56.32,56.33
201903050401,56.33,56.33,56.31,56.31
201903050402,56.3,56.31,56.3,56.31
201903050403,56.31,56.37,56.31,56.33
201903050404,56.33,56.33,56.27,56.28
201903050405,56.28,56.28,56.22,56.23
201903050406,56.23,56.28,56.23,56.27
201903050407,56.27,56.3,56.26,56.29
201903050408,56.29,56.32,56.26,56.3
201903050409,56.3,56.3,56.25,56.26
201903050410,56.26,56.26,56.23,56.23
201903050411,56.23,56.24,56.22,56.22
201903050412,56.22,56.24,56.2,56.22
201903050413,56.22,56.26,56.21,56.25
201903050414,56.25,56.27,56.24,56.27
201903050415,56.27,56.27,56.2,56.23
201903050416,56.23,56.29,56.22,56.28
201903050417,56.28,56.3,56.27,56.28
201903050418,56.28,56.29,56.27,56.28
201903050419,56.28,56.31,56.26,56.31
201903050420,56.31,56.32,56.3,56.31
201903050421,56.31,56.31,56.26,56.27
201903050422,56.27,56.29,56.26,56.29
201903050423,56.29,56.36,56.29,56.35
201903050424,56.35,56.44,56.35,56.43
201903050425,56.43,56.49,56.42,56.49
201903050426,56.49,56.5,56.44,56.5
201903050427,56.49,56.6,56.49,56.6
201903050428,56.6,56.61,56.54,56.6
201903050429,56.6,56.6,56.52,56.52
201903050430,56.52,56.52,56.49,56.51
201903050431,56.51,56.54,56.51,56.52
201903050432,56.52,56.54,56.51,56.51
201903050433,56.51,56.51,56.47,56.47
201903050434,56.47,56.49,56.46,56.48
201903050435,56.48,56.49,56.46,56.48
201903050436,56.48,56.48,56.47,56.48
201903050437,56.48,56.5,56.47,56.48
201903050438,56.48,56.49,56.47,56.48
201903050439,56.48,56.51,56.48,56.5
201903050440,56.5,56.51,56.49,56.5
201903050441,56.5,56.5,56.49,56.49
201903050442,56.49,56.51,56.49,56.51
201903050443,56.51,56.51,56.5,56.5
201903050444,56.5,56.51,56.49,56.51
201903050445,56.5,56.51,56.49,56.5
201903050446,56.5,56.51,56.5,56.51
201903050447,56.51,56.51,56.49,56.49
201903050448,56.49,56.5,56.47,56.47
201903050449,56.47,56.47,56.46,56.47
201903050450,56.47,56.49,56.47,56.48
201903050451,56.48,56.51,56.47,56.51
201903050452,56.51,56.53,56.51,56.53
201903050453,56.53,56.53,56.49,56.5
201903050454,56.5,56.5,56.49,56.5
201903050455,56.5,56.52,56.5,56.51
201903050456,56.51,56.51,56.49,56.5
201903050457,56.5,56.5,56.47,56.48
201903050458,56.48,56.48,56.46,56.46
201903050459,56.46,56.46,56.45,56.46
201903050500,56.46,56.47,56.46,56.46
201903050501,56.46,56.46,56.43,56.44
201903050502,56.44,56.44,56.42,56.44
201903050503,56.44,56.45,56.44,56.45
201903050504,56.45,56.45,56.43,56.45
201903050505,56.45,56.45,56.44,56.44
201903050506,56.44,56.45,56.43,56.43
201903050507,56.43,56.43,56.43,56.43
201903050508,56.43,56.45,56.43,56.45
201903050509,56.45,56.46,56.44,56.44
201903050510,56.44,56.45,56.44,56.45
201903050511,56.45,56.46,56.44,56.44
201903050512,56.44,56.44,56.43,56.44
201903050513,56.44,56.45,56.43,56.44
201903050514,56.44,56.45,56.43,56.44
201903050515,56.44,56.44,56.42,56.43
201903050516,56.43,56.44,56.42,56.43
201903050517,56.43,56.43,56.43,56.43
201903050518,56.43,56.44,56.43,56.44
201903050519,56.44,56.44,56.43,56.43
201903050520,56.43,56.44,56.42,56.43
201903050521,56.43,56.45,56.43,56.43
201903050522,56.43,56.44,56.43,56.43
201903050523,56.43,56.44,56.42,56.42
201903050524,56.42,56.43,56.42,56.42
201903050525,56.42,56.44,56.42,56.44
201903050526,56.44,56.44,56.44,56.44
201903050527,56.44,56.45,56.44,56.44
201903050528,56.44,56.47,56.44,56.46
201903050529,56.46,56.47,56.45,56.46
201903050530,56.46,56.47,56.45,56.46
201903050531,56.46,56.47,56.46,56.47
201903050532,56.47,56.48,56.46,56.48
201903050533,56.48,56.49,56.46,56.47
201903050534,56.47,56.47,56.45,56.46
201903050535,56.46,56.47,56.46,56.47
201903050536,56.47,56.48,56.46,56.47
201903050537,56.47,56.5,56.47,56.5
201903050538,56.5,56.51,56.5,56.51
201903050539,56.51,56.51,56.49,56.5
201903050540,56.5,56.51,56.49,56.51
201903050541,56.51,56.51,56.49,56.5
201903050542,56.5,56.5,56.48,56.49
201903050543,56.49,56.5,56.48,56.49
201903050544,56.49,56.51,56.49,56.5
201903050545,56.5,56.51,56.5,56.5
201903050546,56.5,56.52,56.5,56.52
201903050547,56.52,56.52,56.52,56.52
201903050548,56.52,56.53,56.52,56.52
201903050549,56.52,56.52,56.49,56.49
201903050550,56.49,56.51,56.49,56.51
201903050551,56.51,56.51,56.5,56.5
201903050552,56.5,56.5,56.49,56.49
201903050553,56.49,56.51,56.49,56.5
201903050554,56.5,56.51,56.5,56.51
201903050555,56.51,56.51,56.48,56.48
201903050556,56.48,56.48,56.47,56.48
201903050557,56.48,56.49,56.47,56.49
201903050558,56.49,56.5,56.48,56.49
201903050559,56.49,56.5,56.48,56.5
201903050600,56.5,56.5,56.49,56.49
201903050601,56.49,56.49,56.48,56.49
201903050602,56.49,56.49,56.47,56.48
201903050603,56.48,56.48,56.47,56.48
201903050604,56.48,56.49,56.48,56.48
201903050605,56.48,56.49,56.48,56.48
201903050606,56.48,56.48,56.48,56.48
201903050607,56.48,56.48,56.48,56.48
201903050608,56.48,56.48,56.48,56.48
201903050609,56.48,56.48,56.48,56.48
201903050610,56.48,56.49,56.48,56.48
201903050611,56.48,56.48,56.43,56.45
201903050612,56.45,56.47,56.45,56.47
201903050613,56.47,56.47,56.46,56.46
201903050614,56.46,56.47,56.46,56.46
201903050615,56.46,56.46,56.46,56.46
201903050616,56.46,56.46,56.46,56.46
201903050617,56.46,56.46,56.46,56.46
201903050618,56.46,56.46,56.45,56.45
201903050619,56.45,56.45,56.44,56.45
201903050620,56.45,56.45,56.43,56.44
201903050621,56.44,56.44,56.44,56.44
201903050622,56.44,56.44,56.44,56.44
201903050623,56.44,56.44,56.43,56.43
201903050624,56.43,56.44,56.43,56.44
201903050625,56.44,56.44,56.43,56.43
201903050626,56.43,56.44,56.43,56.44
201903050627,56.44,56.44,56.43,56.43
201903050628,56.43,56.43,56.42,56.43
201903050629,56.43,56.43,56.43,56.43
201903050630,56.43,56.44,56.43,56.43
201903050631,56.43,56.43,56.43,56.43
201903050632,56.43,56.44,56.43,56.44
201903050633,56.44,56.44,56.44,56.44
201903050634,56.44,56.44,56.43,56.43
201903050635,56.43,56.43,56.43,56.43
201903050636,56.43,56.43,56.43,56.43
201903050637,56.43,56.43,56.42,56.42
201903050638,56.42,56.42,56.4,56.4
201903050639,56.4,56.41,56.4,56.41
201903050640,56.41,56.41,56.41,56.41
201903050641,56.41,56.41,56.41,56.41
201903050642,56.41,56.41,56.41,56.41
201903050643,56.41,56.41,56.4,56.4
201903050644,56.4,56.41,56.4,56.41
201903050645,56.41,56.41,56.4,56.41
201903050646,56.41,56.43,56.41,56.42
201903050647,56.42,56.43,56.42,56.42
201903050648,56.42,56.43,56.42,56.43
201903050649,56.43,56.43,56.42,56.42
201903050650,56.42,56.43,56.42,56.42
201903050651,56.42,56.42,56.41,56.42
201903050652,56.42,56.44,56.42,56.44
201903050653,56.44,56.44,56.44,56.44
201903050654,56.44,56.44,56.44,56.44
201903050655,56.44,56.44,56.42,56.43
201903050656,56.43,56.44,56.42,56.42
201903050657,56.42,56.43,56.42,56.43
201903050658,56.43,56.43,56.42,56.43
201903050659,56.43,56.44,56.42,56.43
