日時,始値(BID),高値(BID),安値(BID),終値(BID)
201903110700,56.06,56.08,55.97,56.03
201903110701,56.03,56.03,55.94,55.95
201903110702,55.95,56.06,55.95,55.99
201903110703,55.98,56.05,55.98,56.05
201903110704,56.05,56.06,56.03,56.03
201903110705,56.03,56.08,56.03,56.07
201903110706,56.07,56.11,56.07,56.11
201903110707,56.11,56.13,56.1,56.13
201903110708,56.13,56.15,56.13,56.14
201903110709,56.14,56.15,56.13,56.13
201903110710,56.13,56.14,56.13,56.14
201903110711,56.14,56.14,56.13,56.13
201903110712,56.13,56.13,56.13,56.13
201903110713,56.13,56.13,56,56.03
201903110714,56.03,56.07,56.03,56.07
201903110715,56.07,56.09,56.07,56.07
201903110716,56.07,56.1,56.07,56.1
201903110717,56.1,56.1,56.1,56.1
201903110718,56.1,56.11,56.1,56.11
201903110719,56.11,56.11,56.11,56.11
201903110720,56.11,56.11,56.07,56.07
201903110721,56.07,56.07,56.07,56.07
201903110722,56.07,56.12,56.07,56.11
201903110723,56.11,56.13,56.11,56.13
201903110724,56.13,56.13,56.1,56.13
201903110725,56.13,56.16,56.13,56.13
201903110726,56.13,56.13,56.12,56.12
201903110727,56.12,56.13,56.12,56.12
201903110728,56.12,56.12,56.11,56.12
201903110729,56.12,56.14,56.12,56.14
201903110730,56.14,56.14,56.12,56.12
201903110731,56.12,56.12,56.08,56.09
201903110732,56.11,56.12,56.11,56.11
201903110733,56.11,56.11,56.1,56.11
201903110734,56.11,56.13,56.11,56.12
201903110735,56.12,56.12,56.12,56.12
201903110736,56.12,56.13,56.12,56.13
201903110737,56.13,56.13,56.13,56.13
201903110738,56.13,56.13,56.12,56.12
201903110739,56.12,56.12,56.12,56.12
201903110740,56.12,56.13,56.12,56.13
201903110741,56.13,56.14,56.12,56.13
201903110742,56.13,56.14,56.13,56.13
201903110743,56.13,56.13,56.13,56.13
201903110744,56.13,56.14,56.13,56.14
201903110745,56.14,56.14,56.13,56.13
201903110746,56.13,56.14,56.13,56.14
201903110747,56.14,56.14,56.13,56.13
201903110748,56.13,56.13,56.12,56.12
201903110749,56.12,56.12,56.11,56.12
201903110750,56.12,56.13,56.12,56.12
201903110751,56.12,56.15,56.12,56.13
201903110752,56.13,56.13,56.13,56.13
201903110753,56.13,56.14,56.13,56.13
201903110754,56.13,56.13,56.11,56.12
201903110755,56.12,56.12,56.11,56.11
201903110756,56.11,56.14,56.11,56.14
201903110757,56.14,56.15,56.14,56.15
201903110758,56.15,56.16,56.14,56.15
201903110759,56.15,56.17,56.15,56.16
201903110800,56.16,56.17,56.16,56.16
201903110801,56.16,56.17,56.16,56.17
201903110802,56.17,56.17,56.14,56.16
201903110803,56.16,56.16,56.14,56.15
201903110804,56.15,56.16,56.15,56.16
201903110805,56.16,56.17,56.16,56.17
201903110806,56.17,56.17,56.17,56.17
201903110807,56.17,56.17,56.14,56.15
201903110808,56.15,56.16,56.14,56.16
201903110809,56.16,56.16,56.16,56.16
201903110810,56.16,56.16,56.15,56.16
201903110811,56.16,56.17,56.16,56.17
201903110812,56.17,56.18,56.17,56.17
201903110813,56.17,56.18,56.16,56.16
201903110814,56.16,56.19,56.16,56.18
201903110815,56.18,56.18,56.17,56.18
201903110816,56.18,56.24,56.18,56.22
201903110817,56.22,56.23,56.21,56.22
201903110818,56.22,56.22,56.2,56.21
201903110819,56.21,56.22,56.21,56.22
201903110820,56.22,56.24,56.22,56.24
201903110821,56.24,56.24,56.22,56.22
201903110822,56.22,56.24,56.22,56.24
201903110823,56.24,56.25,56.22,56.22
201903110824,56.22,56.23,56.22,56.23
201903110825,56.23,56.23,56.21,56.22
201903110826,56.22,56.22,56.21,56.22
201903110827,56.22,56.26,56.22,56.26
201903110828,56.26,56.26,56.25,56.25
201903110829,56.25,56.25,56.24,56.24
201903110830,56.24,56.24,56.23,56.23
201903110831,56.23,56.23,56.21,56.21
201903110832,56.21,56.21,56.21,56.21
201903110833,56.21,56.21,56.19,56.2
201903110834,56.2,56.2,56.19,56.2
201903110835,56.2,56.2,56.2,56.2
201903110836,56.2,56.21,56.2,56.2
201903110837,56.2,56.2,56.18,56.19
201903110838,56.19,56.19,56.18,56.18
201903110839,56.18,56.18,56.16,56.17
201903110840,56.17,56.18,56.16,56.16
201903110841,56.16,56.18,56.16,56.18
201903110842,56.18,56.18,56.16,56.16
201903110843,56.16,56.16,56.14,56.14
201903110844,56.14,56.14,56.14,56.14
201903110845,56.14,56.15,56.13,56.15
201903110846,56.15,56.15,56.15,56.15
201903110847,56.15,56.15,56.14,56.14
201903110848,56.14,56.15,56.13,56.15
201903110849,56.15,56.15,56.14,56.15
201903110850,56.15,56.15,56.14,56.15
201903110851,56.15,56.15,56.15,56.15
201903110852,56.15,56.17,56.15,56.16
201903110853,56.16,56.16,56.15,56.15
201903110854,56.15,56.15,56.15,56.15
201903110855,56.15,56.15,56.13,56.15
201903110856,56.15,56.15,56.15,56.15
201903110857,56.15,56.15,56.15,56.15
201903110858,56.15,56.15,56.15,56.15
201903110859,56.15,56.15,56.12,56.14
201903110900,56.14,56.15,56.13,56.15
201903110901,56.15,56.19,56.15,56.18
201903110902,56.18,56.19,56.17,56.18
201903110903,56.18,56.19,56.17,56.17
201903110904,56.17,56.19,56.16,56.17
201903110905,56.17,56.19,56.17,56.18
201903110906,56.18,56.19,56.17,56.19
201903110907,56.19,56.2,56.19,56.2
201903110908,56.2,56.21,56.2,56.2
201903110909,56.2,56.21,56.2,56.21
201903110910,56.21,56.21,56.21,56.21
201903110911,56.21,56.21,56.2,56.21
201903110912,56.21,56.27,56.2,56.25
201903110913,56.25,56.25,56.24,56.24
201903110914,56.24,56.24,56.23,56.24
201903110915,56.24,56.25,56.24,56.24
201903110916,56.24,56.25,56.24,56.24
201903110917,56.24,56.24,56.23,56.23
201903110918,56.23,56.23,56.22,56.22
201903110919,56.22,56.22,56.21,56.22
201903110920,56.22,56.25,56.22,56.25
201903110921,56.25,56.25,56.24,56.24
201903110922,56.24,56.24,56.22,56.22
201903110923,56.22,56.22,56.2,56.21
201903110924,56.21,56.23,56.21,56.22
201903110925,56.22,56.22,56.2,56.21
201903110926,56.21,56.22,56.21,56.22
201903110927,56.22,56.22,56.22,56.22
201903110928,56.22,56.23,56.22,56.23
201903110929,56.23,56.25,56.22,56.25
201903110930,56.25,56.25,56.24,56.24
201903110931,56.24,56.24,56.21,56.22
201903110932,56.21,56.23,56.21,56.22
201903110933,56.22,56.22,56.2,56.2
201903110934,56.2,56.21,56.19,56.19
201903110935,56.19,56.19,56.18,56.18
201903110936,56.18,56.19,56.17,56.18
201903110937,56.18,56.19,56.17,56.18
201903110938,56.18,56.18,56.17,56.18
201903110939,56.18,56.2,56.17,56.2
201903110940,56.2,56.22,56.2,56.22
201903110941,56.22,56.22,56.19,56.2
201903110942,56.2,56.2,56.19,56.2
201903110943,56.2,56.2,56.19,56.19
201903110944,56.19,56.19,56.18,56.18
201903110945,56.18,56.18,56.17,56.17
201903110946,56.17,56.17,56.14,56.15
201903110947,56.15,56.15,56.13,56.14
201903110948,56.14,56.15,56.14,56.15
201903110949,56.15,56.15,56.15,56.15
201903110950,56.15,56.15,56.14,56.15
201903110951,56.15,56.15,56.15,56.15
201903110952,56.15,56.16,56.15,56.15
201903110953,56.15,56.16,56.14,56.15
201903110954,56.15,56.15,56.15,56.15
201903110955,56.15,56.15,56.14,56.14
201903110956,56.14,56.15,56.14,56.14
201903110957,56.14,56.14,56.12,56.13
201903110958,56.13,56.14,56.13,56.14
201903110959,56.14,56.14,56.14,56.14
201903111000,56.14,56.14,56.07,56.09
201903111001,56.09,56.13,56.08,56.11
201903111002,56.11,56.15,56.08,56.15
201903111003,56.15,56.15,56.1,56.11
201903111004,56.11,56.12,56.1,56.11
201903111005,56.11,56.13,56.11,56.12
201903111006,56.12,56.12,56.08,56.08
201903111007,56.08,56.08,56.04,56.05
201903111008,56.05,56.08,56.04,56.07
201903111009,56.07,56.09,56.06,56.08
201903111010,56.08,56.09,56.07,56.07
201903111011,56.07,56.09,56.07,56.09
201903111012,56.09,56.1,56.09,56.09
201903111013,56.09,56.09,56.07,56.08
201903111014,56.08,56.08,56.07,56.07
201903111015,56.07,56.1,56.06,56.09
201903111016,56.09,56.13,56.09,56.13
201903111017,56.13,56.13,56.11,56.11
201903111018,56.11,56.13,56.11,56.13
201903111019,56.13,56.16,56.13,56.15
201903111020,56.15,56.18,56.14,56.17
201903111021,56.17,56.19,56.16,56.18
201903111022,56.18,56.19,56.16,56.16
201903111023,56.16,56.16,56.15,56.16
201903111024,56.16,56.17,56.14,56.17
201903111025,56.17,56.17,56.16,56.17
201903111026,56.17,56.19,56.17,56.18
201903111027,56.18,56.19,56.17,56.18
201903111028,56.18,56.23,56.18,56.22
201903111029,56.22,56.23,56.21,56.22
201903111030,56.22,56.23,56.21,56.22
201903111031,56.22,56.22,56.19,56.2
201903111032,56.2,56.21,56.19,56.19
201903111033,56.19,56.19,56.18,56.19
201903111034,56.19,56.21,56.19,56.19
201903111035,56.19,56.2,56.18,56.19
201903111036,56.19,56.19,56.18,56.19
201903111037,56.19,56.19,56.15,56.16
201903111038,56.16,56.19,56.16,56.18
201903111039,56.18,56.18,56.17,56.17
201903111040,56.17,56.18,56.15,56.15
201903111041,56.15,56.18,56.15,56.18
201903111042,56.18,56.19,56.17,56.19
201903111043,56.19,56.19,56.17,56.18
201903111044,56.18,56.21,56.17,56.2
201903111045,56.2,56.21,56.2,56.2
201903111046,56.2,56.21,56.19,56.2
201903111047,56.2,56.21,56.19,56.2
201903111048,56.2,56.23,56.2,56.22
201903111049,56.22,56.23,56.21,56.22
201903111050,56.22,56.23,56.21,56.21
201903111051,56.21,56.22,56.21,56.22
201903111052,56.22,56.23,56.22,56.22
201903111053,56.22,56.26,56.22,56.26
201903111054,56.26,56.3,56.26,56.28
201903111055,56.28,56.29,56.27,56.27
201903111056,56.27,56.31,56.27,56.31
201903111057,56.3,56.32,56.28,56.3
201903111058,56.3,56.3,56.28,56.28
201903111059,56.28,56.28,56.27,56.27
201903111100,56.27,56.3,56.27,56.29
201903111101,56.29,56.31,56.28,56.31
201903111102,56.31,56.32,56.3,56.31
201903111103,56.31,56.31,56.28,56.29
201903111104,56.29,56.29,56.27,56.27
201903111105,56.27,56.29,56.26,56.27
201903111106,56.27,56.27,56.26,56.26
201903111107,56.26,56.27,56.25,56.26
201903111108,56.26,56.28,56.25,56.27
201903111109,56.27,56.28,56.25,56.25
201903111110,56.25,56.27,56.25,56.26
201903111111,56.26,56.28,56.26,56.27
201903111112,56.27,56.28,56.27,56.27
201903111113,56.27,56.27,56.24,56.25
201903111114,56.25,56.28,56.25,56.26
201903111115,56.26,56.27,56.26,56.26
201903111116,56.26,56.26,56.25,56.25
201903111117,56.25,56.26,56.24,56.26
201903111118,56.26,56.28,56.26,56.27
201903111119,56.27,56.28,56.27,56.27
201903111120,56.27,56.29,56.26,56.29
201903111121,56.29,56.29,56.27,56.27
201903111122,56.27,56.31,56.27,56.3
201903111123,56.3,56.3,56.29,56.3
201903111124,56.3,56.31,56.29,56.3
201903111125,56.3,56.3,56.3,56.3
201903111126,56.3,56.3,56.29,56.29
201903111127,56.29,56.3,56.29,56.29
201903111128,56.29,56.32,56.29,56.31
201903111129,56.31,56.31,56.3,56.3
201903111130,56.3,56.3,56.29,56.29
201903111131,56.29,56.3,56.29,56.3
201903111132,56.3,56.31,56.29,56.31
201903111133,56.31,56.33,56.31,56.32
201903111134,56.32,56.34,56.32,56.32
201903111135,56.32,56.33,56.31,56.31
201903111136,56.31,56.31,56.31,56.31
201903111137,56.31,56.33,56.31,56.32
201903111138,56.32,56.34,56.31,56.31
201903111139,56.31,56.32,56.31,56.32
201903111140,56.32,56.33,56.32,56.32
201903111141,56.32,56.33,56.32,56.33
201903111142,56.33,56.34,56.32,56.32
201903111143,56.32,56.32,56.3,56.31
201903111144,56.31,56.31,56.3,56.31
201903111145,56.31,56.31,56.3,56.31
201903111146,56.31,56.33,56.31,56.32
201903111147,56.32,56.33,56.32,56.32
201903111148,56.32,56.33,56.32,56.32
201903111149,56.32,56.32,56.3,56.3
201903111150,56.3,56.3,56.29,56.3
201903111151,56.3,56.31,56.3,56.31
201903111152,56.31,56.32,56.31,56.32
201903111153,56.32,56.33,56.31,56.32
201903111154,56.32,56.33,56.31,56.32
201903111155,56.32,56.35,56.32,56.35
201903111156,56.35,56.37,56.35,56.36
201903111157,56.36,56.37,56.35,56.36
201903111158,56.36,56.37,56.36,56.37
201903111159,56.37,56.4,56.37,56.4
201903111200,56.4,56.42,56.39,56.41
201903111201,56.41,56.41,56.39,56.4
201903111202,56.4,56.41,56.39,56.41
201903111203,56.41,56.41,56.39,56.39
201903111204,56.39,56.41,56.38,56.39
201903111205,56.39,56.39,56.37,56.38
201903111206,56.38,56.4,56.38,56.4
201903111207,56.4,56.4,56.38,56.39
201903111208,56.39,56.4,56.38,56.39
201903111209,56.39,56.44,56.39,56.43
201903111210,56.43,56.43,56.41,56.41
201903111211,56.41,56.42,56.4,56.4
201903111212,56.4,56.41,56.38,56.4
201903111213,56.4,56.4,56.38,56.38
201903111214,56.38,56.39,56.38,56.38
201903111215,56.38,56.41,56.38,56.4
201903111216,56.4,56.4,56.38,56.39
201903111217,56.39,56.4,56.38,56.4
201903111218,56.4,56.4,56.39,56.39
201903111219,56.39,56.4,56.39,56.4
201903111220,56.4,56.41,56.38,56.38
201903111221,56.38,56.39,56.38,56.38
201903111222,56.38,56.39,56.36,56.37
201903111223,56.37,56.39,56.36,56.38
201903111224,56.38,56.38,56.37,56.38
201903111225,56.38,56.38,56.35,56.36
201903111226,56.36,56.36,56.35,56.36
201903111227,56.36,56.37,56.36,56.36
201903111228,56.36,56.37,56.35,56.35
201903111229,56.35,56.37,56.35,56.36
201903111230,56.36,56.36,56.36,56.36
201903111231,56.36,56.37,56.36,56.36
201903111232,56.36,56.37,56.35,56.35
201903111233,56.35,56.36,56.35,56.36
201903111234,56.36,56.36,56.35,56.35
201903111235,56.35,56.35,56.35,56.35
201903111236,56.35,56.35,56.33,56.35
201903111237,56.35,56.36,56.35,56.35
201903111238,56.35,56.35,56.35,56.35
201903111239,56.35,56.35,56.34,56.35
201903111240,56.35,56.35,56.34,56.34
201903111241,56.34,56.34,56.33,56.34
201903111242,56.34,56.35,56.34,56.35
201903111243,56.35,56.36,56.35,56.35
201903111244,56.35,56.36,56.35,56.36
201903111245,56.36,56.36,56.36,56.36
201903111246,56.36,56.36,56.35,56.35
201903111247,56.35,56.35,56.33,56.34
201903111248,56.34,56.34,56.34,56.34
201903111249,56.34,56.35,56.33,56.35
201903111250,56.35,56.35,56.35,56.35
201903111251,56.35,56.36,56.35,56.36
201903111252,56.36,56.36,56.35,56.35
201903111253,56.35,56.35,56.35,56.35
201903111254,56.35,56.35,56.35,56.35
201903111255,56.35,56.36,56.35,56.35
201903111256,56.35,56.36,56.35,56.36
201903111257,56.36,56.36,56.36,56.36
201903111258,56.36,56.36,56.35,56.35
201903111259,56.35,56.35,56.35,56.35
201903111300,56.35,56.35,56.34,56.34
201903111301,56.34,56.34,56.34,56.34
201903111302,56.34,56.38,56.34,56.38
201903111303,56.38,56.39,56.37,56.38
201903111304,56.38,56.38,56.35,56.36
201903111305,56.36,56.36,56.36,56.36
201903111306,56.36,56.36,56.36,56.36
201903111307,56.36,56.36,56.35,56.35
201903111308,56.35,56.35,56.35,56.35
201903111309,56.35,56.35,56.35,56.35
201903111310,56.35,56.36,56.34,56.34
201903111311,56.34,56.34,56.34,56.34
201903111312,56.34,56.34,56.32,56.32
201903111313,56.32,56.33,56.32,56.32
201903111314,56.32,56.32,56.31,56.31
201903111315,56.31,56.32,56.3,56.32
201903111316,56.32,56.33,56.32,56.33
201903111317,56.33,56.34,56.33,56.33
201903111318,56.33,56.34,56.33,56.33
201903111319,56.33,56.33,56.32,56.32
201903111320,56.32,56.33,56.32,56.32
201903111321,56.32,56.33,56.32,56.33
201903111322,56.33,56.33,56.33,56.33
201903111323,56.33,56.33,56.32,56.32
201903111324,56.32,56.32,56.32,56.32
201903111325,56.32,56.34,56.32,56.34
201903111326,56.34,56.34,56.34,56.34
201903111327,56.34,56.35,56.34,56.34
201903111328,56.34,56.35,56.34,56.34
201903111329,56.34,56.34,56.34,56.34
201903111330,56.34,56.34,56.33,56.33
201903111331,56.33,56.33,56.33,56.33
201903111332,56.33,56.33,56.33,56.33
201903111333,56.33,56.34,56.33,56.34
201903111334,56.34,56.34,56.34,56.34
201903111335,56.34,56.34,56.34,56.34
201903111336,56.34,56.34,56.34,56.34
201903111337,56.34,56.34,56.34,56.34
201903111338,56.34,56.34,56.34,56.34
201903111339,56.34,56.34,56.34,56.34
201903111340,56.34,56.34,56.34,56.34
201903111341,56.34,56.34,56.34,56.34
201903111342,56.34,56.34,56.31,56.31
201903111343,56.31,56.32,56.31,56.32
201903111344,56.32,56.33,56.32,56.33
201903111345,56.33,56.33,56.32,56.32
201903111346,56.32,56.32,56.31,56.32
201903111347,56.32,56.32,56.32,56.32
201903111348,56.32,56.33,56.32,56.32
201903111349,56.32,56.33,56.32,56.33
201903111350,56.33,56.33,56.32,56.32
201903111351,56.32,56.32,56.32,56.32
201903111352,56.32,56.32,56.31,56.31
201903111353,56.31,56.32,56.31,56.32
201903111354,56.32,56.32,56.32,56.32
201903111355,56.32,56.32,56.32,56.32
201903111356,56.32,56.32,56.32,56.32
201903111357,56.32,56.32,56.32,56.32
201903111358,56.32,56.32,56.31,56.31
201903111359,56.31,56.31,56.31,56.31
201903111400,56.31,56.35,56.31,56.35
201903111401,56.35,56.35,56.34,56.34
201903111402,56.34,56.34,56.33,56.33
201903111403,56.33,56.34,56.33,56.33
201903111404,56.33,56.33,56.32,56.32
201903111405,56.32,56.32,56.31,56.32
201903111406,56.32,56.32,56.32,56.32
201903111407,56.32,56.32,56.32,56.32
201903111408,56.32,56.34,56.32,56.34
201903111409,56.34,56.34,56.33,56.34
201903111410,56.34,56.34,56.34,56.34
201903111411,56.34,56.34,56.32,56.32
201903111412,56.32,56.32,56.32,56.32
201903111413,56.32,56.32,56.29,56.3
201903111414,56.3,56.3,56.3,56.3
201903111415,56.3,56.3,56.29,56.3
201903111416,56.3,56.3,56.3,56.3
201903111417,56.3,56.3,56.3,56.3
201903111418,56.3,56.3,56.28,56.28
201903111419,56.28,56.29,56.28,56.29
201903111420,56.29,56.3,56.29,56.29
201903111421,56.29,56.31,56.29,56.31
201903111422,56.31,56.31,56.3,56.31
201903111423,56.31,56.32,56.31,56.31
201903111424,56.31,56.32,56.31,56.31
201903111425,56.31,56.31,56.29,56.3
201903111426,56.3,56.31,56.3,56.3
201903111427,56.3,56.31,56.3,56.31
201903111428,56.31,56.31,56.29,56.29
201903111429,56.29,56.29,56.29,56.29
201903111430,56.29,56.3,56.28,56.28
201903111431,56.28,56.28,56.27,56.28
201903111432,56.28,56.3,56.28,56.29
201903111433,56.29,56.31,56.29,56.31
201903111434,56.31,56.31,56.3,56.3
201903111435,56.3,56.32,56.3,56.32
201903111436,56.32,56.32,56.31,56.32
201903111437,56.32,56.34,56.32,56.34
201903111438,56.34,56.34,56.33,56.33
201903111439,56.33,56.33,56.3,56.3
201903111440,56.3,56.32,56.3,56.32
201903111441,56.32,56.33,56.31,56.33
201903111442,56.33,56.33,56.32,56.33
201903111443,56.33,56.34,56.32,56.34
201903111444,56.34,56.35,56.32,56.33
201903111445,56.33,56.33,56.32,56.33
201903111446,56.33,56.33,56.32,56.32
201903111447,56.32,56.34,56.32,56.34
201903111448,56.34,56.36,56.34,56.34
201903111449,56.34,56.37,56.34,56.35
201903111450,56.35,56.36,56.33,56.34
201903111451,56.34,56.34,56.34,56.34
201903111452,56.34,56.35,56.34,56.35
201903111453,56.35,56.36,56.34,56.35
201903111454,56.35,56.35,56.35,56.35
201903111455,56.35,56.37,56.35,56.36
201903111456,56.36,56.36,56.33,56.34
201903111457,56.34,56.34,56.32,56.33
201903111458,56.33,56.34,56.33,56.33
201903111459,56.33,56.33,56.32,56.32
201903111500,56.32,56.34,56.32,56.34
201903111501,56.34,56.36,56.34,56.36
201903111502,56.36,56.36,56.35,56.35
201903111503,56.35,56.38,56.35,56.37
201903111504,56.37,56.38,56.37,56.38
201903111505,56.38,56.4,56.37,56.4
201903111506,56.4,56.41,56.38,56.38
201903111507,56.38,56.39,56.38,56.38
201903111508,56.38,56.38,56.38,56.38
201903111509,56.38,56.38,56.37,56.38
201903111510,56.38,56.38,56.37,56.38
201903111511,56.38,56.38,56.38,56.38
201903111512,56.38,56.38,56.37,56.37
201903111513,56.37,56.37,56.35,56.35
201903111514,56.35,56.35,56.34,56.35
201903111515,56.35,56.37,56.35,56.37
201903111516,56.37,56.37,56.36,56.36
201903111517,56.36,56.37,56.36,56.36
201903111518,56.36,56.36,56.35,56.36
201903111519,56.36,56.36,56.36,56.36
201903111520,56.36,56.37,56.36,56.37
201903111521,56.37,56.37,56.34,56.35
201903111522,56.35,56.35,56.34,56.35
201903111523,56.35,56.35,56.35,56.35
201903111524,56.35,56.36,56.35,56.36
201903111525,56.36,56.38,56.36,56.38
201903111526,56.38,56.38,56.36,56.36
201903111527,56.36,56.36,56.35,56.36
201903111528,56.36,56.36,56.34,56.34
201903111529,56.34,56.35,56.34,56.34
201903111530,56.34,56.34,56.32,56.34
201903111531,56.34,56.35,56.34,56.34
201903111532,56.34,56.34,56.34,56.34
201903111533,56.34,56.35,56.34,56.34
201903111534,56.34,56.35,56.33,56.33
201903111535,56.33,56.33,56.3,56.31
201903111536,56.31,56.31,56.31,56.31
201903111537,56.31,56.32,56.28,56.31
201903111538,56.31,56.31,56.3,56.31
201903111539,56.31,56.31,56.3,56.3
201903111540,56.3,56.31,56.3,56.31
201903111541,56.31,56.32,56.3,56.31
201903111542,56.31,56.32,56.31,56.31
201903111543,56.31,56.32,56.31,56.32
201903111544,56.32,56.35,56.32,56.35
201903111545,56.35,56.35,56.33,56.34
201903111546,56.34,56.35,56.33,56.35
201903111547,56.35,56.35,56.34,56.34
201903111548,56.34,56.35,56.34,56.35
201903111549,56.35,56.39,56.35,56.39
201903111550,56.39,56.39,56.37,56.37
201903111551,56.37,56.37,56.34,56.34
201903111552,56.34,56.36,56.34,56.36
201903111553,56.36,56.37,56.34,56.34
201903111554,56.34,56.37,56.34,56.37
201903111555,56.37,56.37,56.34,56.34
201903111556,56.34,56.34,56.33,56.34
201903111557,56.34,56.36,56.34,56.34
201903111558,56.34,56.37,56.34,56.36
201903111559,56.36,56.38,56.36,56.38
201903111600,56.38,56.4,56.37,56.39
201903111601,56.39,56.39,56.37,56.39
201903111602,56.39,56.39,56.38,56.39
201903111603,56.39,56.39,56.37,56.38
201903111604,56.38,56.39,56.38,56.38
201903111605,56.38,56.42,56.38,56.41
201903111606,56.41,56.42,56.4,56.41
201903111607,56.41,56.42,56.4,56.4
201903111608,56.4,56.41,56.4,56.41
201903111609,56.41,56.41,56.4,56.4
201903111610,56.4,56.42,56.4,56.41
201903111611,56.41,56.42,56.41,56.41
201903111612,56.41,56.42,56.41,56.41
201903111613,56.4,56.42,56.39,56.41
201903111614,56.41,56.41,56.39,56.4
201903111615,56.4,56.41,56.39,56.4
201903111616,56.4,56.4,56.37,56.4
201903111617,56.4,56.41,56.39,56.4
201903111618,56.4,56.4,56.39,56.39
201903111619,56.39,56.4,56.39,56.4
201903111620,56.4,56.43,56.4,56.42
201903111621,56.42,56.43,56.41,56.41
201903111622,56.41,56.43,56.41,56.42
201903111623,56.42,56.42,56.4,56.4
201903111624,56.4,56.4,56.38,56.38
201903111625,56.38,56.38,56.37,56.37
201903111626,56.37,56.4,56.36,56.4
201903111627,56.4,56.4,56.39,56.39
201903111628,56.39,56.41,56.39,56.4
201903111629,56.4,56.41,56.39,56.39
201903111630,56.39,56.4,56.38,56.38
201903111631,56.38,56.38,56.37,56.38
201903111632,56.38,56.4,56.38,56.39
201903111633,56.39,56.4,56.38,56.39
201903111634,56.39,56.4,56.38,56.39
201903111635,56.39,56.39,56.36,56.38
201903111636,56.38,56.38,56.35,56.35
201903111637,56.35,56.36,56.34,56.35
201903111638,56.35,56.36,56.35,56.35
201903111639,56.35,56.38,56.35,56.37
201903111640,56.37,56.38,56.37,56.38
201903111641,56.38,56.38,56.36,56.37
201903111642,56.37,56.37,56.36,56.36
201903111643,56.36,56.37,56.36,56.36
201903111644,56.36,56.37,56.36,56.37
201903111645,56.37,56.38,56.36,56.38
201903111646,56.38,56.38,56.37,56.38
201903111647,56.38,56.38,56.37,56.37
201903111648,56.37,56.38,56.37,56.38
201903111649,56.38,56.41,56.38,56.4
201903111650,56.4,56.42,56.4,56.42
201903111651,56.42,56.43,56.42,56.43
201903111652,56.43,56.43,56.42,56.43
201903111653,56.43,56.43,56.42,56.43
201903111654,56.43,56.43,56.41,56.42
201903111655,56.42,56.43,56.4,56.43
201903111656,56.43,56.44,56.42,56.43
201903111657,56.43,56.47,56.43,56.47
201903111658,56.47,56.47,56.43,56.45
201903111659,56.45,56.45,56.44,56.45
201903111700,56.45,56.52,56.45,56.48
201903111701,56.48,56.5,56.47,56.5
201903111702,56.5,56.51,56.49,56.49
201903111703,56.49,56.54,56.49,56.51
201903111704,56.51,56.51,56.49,56.49
201903111705,56.49,56.59,56.49,56.54
201903111706,56.54,56.59,56.52,56.58
201903111707,56.58,56.62,56.58,56.6
201903111708,56.6,56.63,56.59,56.63
201903111709,56.63,56.64,56.62,56.62
201903111710,56.62,56.65,56.62,56.65
201903111711,56.65,56.66,56.64,56.65
201903111712,56.65,56.66,56.63,56.63
201903111713,56.63,56.64,56.61,56.61
201903111714,56.61,56.61,56.59,56.59
201903111715,56.59,56.61,56.59,56.6
201903111716,56.6,56.65,56.6,56.65
201903111717,56.65,56.66,56.63,56.65
201903111718,56.65,56.69,56.65,56.66
201903111719,56.66,56.67,56.66,56.66
201903111720,56.66,56.69,56.66,56.68
201903111721,56.68,56.71,56.68,56.71
201903111722,56.71,56.71,56.7,56.7
201903111723,56.7,56.72,56.7,56.72
201903111724,56.72,56.76,56.72,56.74
201903111725,56.74,56.77,56.74,56.74
201903111726,56.74,56.74,56.73,56.73
201903111727,56.73,56.73,56.7,56.71
201903111728,56.71,56.74,56.7,56.72
201903111729,56.72,56.76,56.71,56.76
201903111730,56.76,56.76,56.7,56.71
201903111731,56.71,56.74,56.7,56.71
201903111732,56.71,56.74,56.71,56.71
201903111733,56.72,56.73,56.71,56.72
201903111734,56.72,56.76,56.72,56.74
201903111735,56.74,56.77,56.73,56.75
201903111736,56.75,56.75,56.73,56.74
201903111737,56.74,56.75,56.72,56.72
201903111738,56.72,56.72,56.68,56.68
201903111739,56.68,56.68,56.66,56.67
201903111740,56.67,56.72,56.67,56.71
201903111741,56.71,56.71,56.69,56.69
201903111742,56.69,56.72,56.69,56.71
201903111743,56.71,56.73,56.69,56.69
201903111744,56.69,56.71,56.65,56.66
201903111745,56.65,56.69,56.63,56.67
201903111746,56.67,56.68,56.66,56.66
201903111747,56.66,56.67,56.63,56.64
201903111748,56.64,56.64,56.63,56.64
201903111749,56.64,56.65,56.64,56.64
201903111750,56.64,56.66,56.63,56.65
201903111751,56.65,56.67,56.63,56.63
201903111752,56.63,56.63,56.62,56.63
201903111753,56.63,56.64,56.63,56.63
201903111754,56.63,56.64,56.62,56.63
201903111755,56.63,56.65,56.63,56.65
201903111756,56.65,56.65,56.64,56.65
201903111757,56.65,56.65,56.62,56.64
201903111758,56.64,56.66,56.64,56.65
201903111759,56.65,56.66,56.62,56.63
201903111800,56.63,56.73,56.62,56.73
201903111801,56.72,56.77,56.72,56.74
201903111802,56.74,56.74,56.65,56.67
201903111803,56.67,56.67,56.62,56.63
201903111804,56.63,56.63,56.57,56.62
201903111805,56.62,56.64,56.61,56.62
201903111806,56.62,56.62,56.57,56.58
201903111807,56.58,56.61,56.57,56.59
201903111808,56.59,56.6,56.56,56.57
201903111809,56.57,56.57,56.53,56.54
201903111810,56.54,56.56,56.53,56.56
201903111811,56.56,56.59,56.54,56.56
201903111812,56.56,56.62,56.56,56.61
201903111813,56.61,56.66,56.6,56.63
201903111814,56.63,56.64,56.59,56.6
201903111815,56.6,56.61,56.59,56.6
201903111816,56.59,56.6,56.56,56.59
201903111817,56.59,56.66,56.59,56.65
201903111818,56.65,56.66,56.58,56.59
201903111819,56.59,56.61,56.58,56.61
201903111820,56.61,56.63,56.6,56.61
201903111821,56.61,56.65,56.61,56.64
201903111822,56.64,56.65,56.63,56.64
201903111823,56.64,56.64,56.59,56.59
201903111824,56.59,56.6,56.53,56.53
201903111825,56.53,56.53,56.49,56.51
201903111826,56.51,56.53,56.51,56.52
201903111827,56.52,56.52,56.46,56.48
201903111828,56.48,56.53,56.48,56.53
201903111829,56.53,56.53,56.47,56.49
201903111830,56.49,56.51,56.47,56.48
201903111831,56.48,56.49,56.45,56.45
201903111832,56.45,56.5,56.45,56.49
201903111833,56.49,56.52,56.48,56.52
201903111834,56.52,56.52,56.5,56.52
201903111835,56.52,56.52,56.5,56.51
201903111836,56.51,56.52,56.49,56.49
201903111837,56.49,56.49,56.46,56.49
201903111838,56.49,56.51,56.47,56.5
201903111839,56.5,56.5,56.48,56.5
201903111840,56.51,56.54,56.49,56.49
201903111841,56.49,56.5,56.46,56.47
201903111842,56.47,56.5,56.47,56.49
201903111843,56.49,56.5,56.48,56.48
201903111844,56.48,56.5,56.48,56.49
201903111845,56.49,56.51,56.48,56.49
201903111846,56.49,56.53,56.49,56.53
201903111847,56.53,56.57,56.53,56.56
201903111848,56.56,56.57,56.55,56.55
201903111849,56.55,56.55,56.48,56.5
201903111850,56.5,56.52,56.48,56.51
201903111851,56.51,56.54,56.51,56.53
201903111852,56.53,56.53,56.52,56.53
201903111853,56.53,56.53,56.49,56.5
201903111854,56.5,56.52,56.48,56.49
201903111855,56.49,56.51,56.49,56.51
201903111856,56.51,56.53,56.49,56.49
201903111857,56.49,56.51,56.48,56.48
201903111858,56.48,56.54,56.48,56.53
201903111859,56.53,56.6,56.53,56.59
201903111900,56.59,56.63,56.59,56.62
201903111901,56.62,56.63,56.61,56.61
201903111902,56.61,56.66,56.61,56.65
201903111903,56.65,56.65,56.62,56.62
201903111904,56.62,56.62,56.6,56.6
201903111905,56.6,56.63,56.6,56.62
201903111906,56.62,56.62,56.58,56.58
201903111907,56.58,56.6,56.58,56.58
201903111908,56.58,56.59,56.56,56.59
201903111909,56.59,56.59,56.56,56.58
201903111910,56.58,56.58,56.54,56.54
201903111911,56.54,56.54,56.52,56.53
201903111912,56.53,56.53,56.51,56.52
201903111913,56.52,56.54,56.51,56.54
201903111914,56.54,56.54,56.5,56.51
201903111915,56.51,56.51,56.49,56.5
201903111916,56.5,56.5,56.42,56.44
201903111917,56.44,56.5,56.44,56.47
201903111918,56.47,56.51,56.47,56.49
201903111919,56.49,56.5,56.47,56.48
201903111920,56.49,56.53,56.49,56.52
201903111921,56.52,56.54,56.52,56.52
201903111922,56.52,56.57,56.51,56.56
201903111923,56.56,56.63,56.55,56.59
201903111924,56.59,56.59,56.56,56.57
201903111925,56.57,56.6,56.57,56.6
201903111926,56.6,56.6,56.58,56.58
201903111927,56.58,56.6,56.57,56.59
201903111928,56.59,56.59,56.55,56.56
201903111929,56.56,56.59,56.56,56.57
201903111930,56.57,56.58,56.57,56.57
201903111931,56.57,56.58,56.57,56.58
201903111932,56.58,56.59,56.57,56.58
201903111933,56.58,56.59,56.55,56.55
201903111934,56.55,56.56,56.53,56.56
201903111935,56.56,56.59,56.56,56.59
201903111936,56.59,56.59,56.54,56.54
201903111937,56.54,56.59,56.54,56.57
201903111938,56.57,56.57,56.55,56.57
201903111939,56.57,56.57,56.54,56.56
201903111940,56.56,56.59,56.56,56.58
201903111941,56.58,56.61,56.58,56.61
201903111942,56.61,56.61,56.57,56.58
201903111943,56.58,56.6,56.57,56.58
201903111944,56.58,56.61,56.57,56.57
201903111945,56.57,56.58,56.55,56.56
201903111946,56.56,56.57,56.54,56.56
201903111947,56.56,56.58,56.55,56.55
201903111948,56.55,56.57,56.53,56.53
201903111949,56.53,56.55,56.53,56.54
201903111950,56.54,56.55,56.53,56.54
201903111951,56.54,56.58,56.53,56.55
201903111952,56.55,56.56,56.55,56.56
201903111953,56.56,56.57,56.51,56.53
201903111954,56.53,56.53,56.51,56.52
201903111955,56.52,56.53,56.48,56.48
201903111956,56.48,56.48,56.45,56.46
201903111957,56.46,56.51,56.46,56.5
201903111958,56.5,56.53,56.48,56.51
201903111959,56.51,56.52,56.5,56.51
201903112000,56.51,56.55,56.51,56.55
201903112001,56.55,56.55,56.54,56.55
201903112002,56.55,56.55,56.5,56.5
201903112003,56.5,56.52,56.49,56.51
201903112004,56.51,56.51,56.49,56.5
201903112005,56.5,56.51,56.46,56.48
201903112006,56.48,56.49,56.47,56.48
201903112007,56.48,56.49,56.48,56.49
201903112008,56.49,56.5,56.48,56.48
201903112009,56.48,56.5,56.45,56.49
201903112010,56.49,56.49,56.46,56.46
201903112011,56.46,56.47,56.46,56.46
201903112012,56.46,56.47,56.45,56.47
201903112013,56.47,56.48,56.37,56.39
201903112014,56.39,56.41,56.37,56.41
201903112015,56.41,56.42,56.41,56.41
201903112016,56.41,56.45,56.4,56.45
201903112017,56.45,56.46,56.43,56.44
201903112018,56.44,56.44,56.41,56.41
201903112019,56.41,56.41,56.38,56.39
201903112020,56.39,56.4,56.38,56.39
201903112021,56.39,56.39,56.37,56.38
201903112022,56.38,56.39,56.37,56.39
201903112023,56.39,56.39,56.36,56.39
201903112024,56.39,56.4,56.38,56.4
201903112025,56.4,56.4,56.38,56.38
201903112026,56.38,56.4,56.38,56.38
201903112027,56.38,56.4,56.37,56.38
201903112028,56.38,56.41,56.37,56.41
201903112029,56.41,56.43,56.4,56.42
201903112030,56.42,56.44,56.39,56.4
201903112031,56.4,56.43,56.39,56.42
201903112032,56.42,56.43,56.41,56.42
201903112033,56.42,56.45,56.41,56.42
201903112034,56.42,56.44,56.41,56.43
201903112035,56.43,56.45,56.42,56.44
201903112036,56.44,56.47,56.43,56.47
201903112037,56.47,56.5,56.47,56.48
201903112038,56.48,56.48,56.46,56.48
201903112039,56.48,56.48,56.46,56.47
201903112040,56.47,56.49,56.47,56.47
201903112041,56.47,56.47,56.45,56.46
201903112042,56.46,56.49,56.46,56.49
201903112043,56.49,56.49,56.46,56.46
201903112044,56.46,56.48,56.45,56.47
201903112045,56.47,56.47,56.44,56.45
201903112046,56.45,56.46,56.43,56.46
201903112047,56.46,56.48,56.45,56.47
201903112048,56.47,56.48,56.47,56.48
201903112049,56.48,56.49,56.47,56.49
201903112050,56.49,56.49,56.45,56.45
201903112051,56.45,56.46,56.43,56.43
201903112052,56.43,56.46,56.43,56.44
201903112053,56.44,56.46,56.44,56.45
201903112054,56.45,56.46,56.41,56.41
201903112055,56.41,56.43,56.4,56.43
201903112056,56.43,56.44,56.43,56.43
201903112057,56.43,56.43,56.41,56.42
201903112058,56.42,56.42,56.4,56.41
201903112059,56.41,56.41,56.39,56.4
201903112100,56.4,56.42,56.39,56.41
201903112101,56.41,56.41,56.4,56.4
201903112102,56.4,56.41,56.38,56.4
201903112103,56.4,56.47,56.4,56.46
201903112104,56.46,56.47,56.43,56.44
201903112105,56.44,56.46,56.44,56.45
201903112106,56.45,56.47,56.45,56.46
201903112107,56.46,56.47,56.45,56.47
201903112108,56.47,56.47,56.45,56.46
201903112109,56.46,56.46,56.44,56.45
201903112110,56.45,56.47,56.44,56.46
201903112111,56.46,56.47,56.45,56.46
201903112112,56.46,56.48,56.46,56.48
201903112113,56.48,56.54,56.48,56.53
201903112114,56.53,56.54,56.51,56.51
201903112115,56.51,56.54,56.51,56.53
201903112116,56.53,56.54,56.52,56.52
201903112117,56.52,56.54,56.52,56.54
201903112118,56.54,56.54,56.52,56.52
201903112119,56.52,56.53,56.52,56.53
201903112120,56.53,56.53,56.51,56.53
201903112121,56.53,56.54,56.53,56.53
201903112122,56.53,56.53,56.51,56.53
201903112123,56.53,56.53,56.48,56.49
201903112124,56.49,56.49,56.46,56.47
201903112125,56.47,56.48,56.45,56.46
201903112126,56.46,56.46,56.44,56.44
201903112127,56.44,56.44,56.41,56.42
201903112128,56.42,56.42,56.39,56.39
201903112129,56.39,56.4,56.3,56.3
201903112130,56.3,56.4,56.3,56.35
201903112131,56.35,56.37,56.34,56.35
201903112132,56.35,56.35,56.32,56.32
201903112133,56.32,56.34,56.31,56.31
201903112134,56.31,56.35,56.3,56.31
201903112135,56.31,56.33,56.31,56.33
201903112136,56.33,56.35,56.31,56.32
201903112137,56.32,56.35,56.32,56.34
201903112138,56.34,56.4,56.33,56.39
201903112139,56.39,56.4,56.36,56.36
201903112140,56.36,56.39,56.36,56.37
201903112141,56.37,56.39,56.37,56.39
201903112142,56.39,56.39,56.37,56.38
201903112143,56.38,56.42,56.38,56.41
201903112144,56.41,56.42,56.4,56.41
201903112145,56.41,56.42,56.39,56.4
201903112146,56.4,56.43,56.4,56.43
201903112147,56.43,56.45,56.4,56.42
201903112148,56.42,56.42,56.41,56.41
201903112149,56.41,56.44,56.4,56.44
201903112150,56.44,56.45,56.43,56.44
201903112151,56.44,56.46,56.44,56.46
201903112152,56.46,56.46,56.43,56.44
201903112153,56.44,56.44,56.42,56.42
201903112154,56.42,56.43,56.36,56.36
201903112155,56.36,56.47,56.35,56.45
201903112156,56.45,56.48,56.41,56.41
201903112157,56.41,56.42,56.38,56.4
201903112158,56.4,56.46,56.39,56.46
201903112159,56.46,56.48,56.44,56.45
201903112200,56.44,56.46,56.43,56.43
201903112201,56.43,56.52,56.42,56.51
201903112202,56.51,56.53,56.49,56.51
201903112203,56.51,56.56,56.45,56.46
201903112204,56.46,56.53,56.46,56.48
201903112205,56.48,56.52,56.46,56.51
201903112206,56.51,56.57,56.5,56.54
201903112207,56.54,56.59,56.52,56.54
201903112208,56.54,56.59,56.54,56.59
201903112209,56.59,56.62,56.58,56.6
201903112210,56.6,56.62,56.59,56.62
201903112211,56.62,56.64,56.62,56.63
201903112212,56.63,56.66,56.62,56.65
201903112213,56.65,56.67,56.64,56.67
201903112214,56.67,56.72,56.66,56.7
201903112215,56.7,56.76,56.7,56.75
201903112216,56.75,56.83,56.75,56.82
201903112217,56.82,56.85,56.82,56.84
201903112218,56.84,56.84,56.8,56.82
201903112219,56.81,56.85,56.81,56.83
201903112220,56.83,56.85,56.82,56.84
201903112221,56.84,56.85,56.83,56.84
201903112222,56.84,56.85,56.81,56.81
201903112223,56.81,56.84,56.81,56.83
201903112224,56.83,56.84,56.81,56.83
201903112225,56.83,56.84,56.82,56.83
201903112226,56.83,56.84,56.81,56.82
201903112227,56.82,56.82,56.8,56.8
201903112228,56.8,56.8,56.76,56.76
201903112229,56.76,56.83,56.75,56.83
201903112230,56.83,56.84,56.8,56.82
201903112231,56.82,56.87,56.81,56.83
201903112232,56.83,56.91,56.83,56.89
201903112233,56.89,56.93,56.88,56.9
201903112234,56.9,56.9,56.84,56.85
201903112235,56.85,56.9,56.85,56.86
201903112236,56.86,56.89,56.86,56.86
201903112237,56.86,56.86,56.79,56.81
201903112238,56.81,56.84,56.81,56.83
201903112239,56.83,56.86,56.81,56.83
201903112240,56.83,56.88,56.83,56.87
201903112241,56.87,56.87,56.79,56.83
201903112242,56.83,56.85,56.79,56.79
201903112243,56.79,56.83,56.78,56.82
201903112244,56.82,56.82,56.78,56.78
201903112245,56.78,56.78,56.73,56.74
201903112246,56.74,56.77,56.74,56.77
201903112247,56.77,56.78,56.74,56.76
201903112248,56.76,56.78,56.74,56.77
201903112249,56.77,56.77,56.75,56.75
201903112250,56.75,56.76,56.74,56.76
201903112251,56.76,56.8,56.76,56.78
201903112252,56.77,56.81,56.77,56.81
201903112253,56.81,56.82,56.79,56.8
201903112254,56.8,56.85,56.79,56.82
201903112255,56.83,56.83,56.78,56.82
201903112256,56.81,56.83,56.81,56.81
201903112257,56.81,56.81,56.78,56.78
201903112258,56.78,56.79,56.78,56.78
201903112259,56.78,56.79,56.76,56.77
201903112300,56.77,56.84,56.77,56.84
201903112301,56.84,56.84,56.81,56.84
201903112302,56.84,56.87,56.84,56.87
201903112303,56.87,56.93,56.87,56.92
201903112304,56.92,56.94,56.91,56.93
201903112305,56.93,56.95,56.92,56.94
201903112306,56.94,56.95,56.89,56.91
201903112307,56.91,56.91,56.81,56.81
201903112308,56.81,56.81,56.72,56.74
201903112309,56.74,56.78,56.74,56.74
201903112310,56.74,56.77,56.71,56.76
201903112311,56.76,56.77,56.74,56.74
201903112312,56.74,56.75,56.64,56.64
201903112313,56.64,56.71,56.64,56.7
201903112314,56.7,56.71,56.59,56.6
201903112315,56.6,56.6,56.52,56.57
201903112316,56.57,56.63,56.57,56.61
201903112317,56.62,56.63,56.59,56.59
201903112318,56.59,56.63,56.58,56.62
201903112319,56.62,56.64,56.62,56.63
201903112320,56.63,56.63,56.46,56.49
201903112321,56.49,56.51,56.47,56.48
201903112322,56.48,56.57,56.48,56.53
201903112323,56.53,56.54,56.5,56.5
201903112324,56.5,56.54,56.5,56.53
201903112325,56.53,56.57,56.51,56.56
201903112326,56.55,56.55,56.53,56.54
201903112327,56.54,56.55,56.48,56.53
201903112328,56.53,56.53,56.47,56.48
201903112329,56.48,56.52,56.46,56.51
201903112330,56.51,56.54,56.48,56.51
201903112331,56.51,56.51,56.44,56.45
201903112332,56.45,56.54,56.45,56.53
201903112333,56.53,56.61,56.53,56.57
201903112334,56.57,56.61,56.55,56.6
201903112335,56.6,56.63,56.56,56.63
201903112336,56.63,56.63,56.56,56.58
201903112337,56.58,56.61,56.58,56.59
201903112338,56.59,56.63,56.58,56.62
201903112339,56.62,56.64,56.6,56.64
201903112340,56.64,56.65,56.6,56.61
201903112341,56.61,56.65,56.58,56.58
201903112342,56.58,56.61,56.53,56.56
201903112343,56.56,56.61,56.56,56.59
201903112344,56.59,56.6,56.52,56.53
201903112345,56.53,56.54,56.51,56.52
201903112346,56.52,56.58,56.51,56.57
201903112347,56.57,56.63,56.55,56.57
201903112348,56.57,56.61,56.53,56.59
201903112349,56.59,56.61,56.58,56.6
201903112350,56.59,56.63,56.58,56.63
201903112351,56.63,56.63,56.56,56.59
201903112352,56.59,56.6,56.55,56.56
201903112353,56.56,56.58,56.54,56.55
201903112354,56.55,56.57,56.54,56.56
201903112355,56.56,56.57,56.5,56.55
201903112356,56.55,56.58,56.55,56.57
201903112357,56.57,56.59,56.56,56.57
201903112358,56.57,56.6,56.56,56.59
201903112359,56.59,56.61,56.58,56.61
201903120000,56.61,56.61,56.53,56.53
201903120001,56.53,56.53,56.47,56.5
201903120002,56.5,56.56,56.49,56.56
201903120003,56.56,56.57,56.52,56.53
201903120004,56.53,56.61,56.53,56.6
201903120005,56.6,56.66,56.59,56.64
201903120006,56.64,56.64,56.52,56.54
201903120007,56.54,56.57,56.54,56.56
201903120008,56.57,56.58,56.55,56.58
201903120009,56.58,56.59,56.56,56.57
201903120010,56.57,56.6,56.55,56.6
201903120011,56.6,56.6,56.57,56.57
201903120012,56.57,56.59,56.55,56.58
201903120013,56.58,56.6,56.57,56.58
201903120014,56.58,56.6,56.57,56.58
201903120015,56.58,56.6,56.57,56.59
201903120016,56.59,56.64,56.58,56.62
201903120017,56.62,56.64,56.62,56.63
201903120018,56.63,56.65,56.62,56.64
201903120019,56.64,56.65,56.6,56.6
201903120020,56.6,56.62,56.55,56.57
201903120021,56.57,56.59,56.57,56.58
201903120022,56.58,56.64,56.57,56.6
201903120023,56.6,56.61,56.58,56.59
201903120024,56.6,56.62,56.57,56.62
201903120025,56.62,56.62,56.61,56.61
201903120026,56.61,56.62,56.57,56.6
201903120027,56.6,56.66,56.6,56.64
201903120028,56.64,56.68,56.63,56.65
201903120029,56.65,56.67,56.64,56.66
201903120030,56.66,56.68,56.64,56.66
201903120031,56.66,56.68,56.65,56.67
201903120032,56.67,56.74,56.66,56.73
201903120033,56.73,56.78,56.73,56.78
201903120034,56.78,56.82,56.78,56.78
201903120035,56.78,56.81,56.78,56.81
201903120036,56.81,56.84,56.81,56.83
201903120037,56.83,56.86,56.81,56.83
201903120038,56.83,56.84,56.79,56.79
201903120039,56.79,56.79,56.71,56.73
201903120040,56.73,56.77,56.73,56.75
201903120041,56.75,56.77,56.75,56.75
201903120042,56.75,56.75,56.74,56.75
201903120043,56.75,56.79,56.75,56.78
201903120044,56.78,56.78,56.76,56.77
201903120045,56.77,56.83,56.77,56.83
201903120046,56.83,56.83,56.79,56.81
201903120047,56.81,56.83,56.8,56.82
201903120048,56.81,56.82,56.8,56.81
201903120049,56.81,56.82,56.79,56.79
201903120050,56.79,56.85,56.79,56.84
201903120051,56.84,56.84,56.8,56.8
201903120052,56.8,56.85,56.79,56.83
201903120053,56.83,56.87,56.79,56.83
201903120054,56.83,56.85,56.81,56.83
201903120055,56.83,56.89,56.83,56.86
201903120056,56.86,56.9,56.84,56.88
201903120057,56.89,56.9,56.86,56.87
201903120058,56.87,56.96,56.87,56.87
201903120059,56.87,56.9,56.84,56.86
201903120100,56.86,56.87,56.79,56.8
201903120101,56.8,56.84,56.8,56.8
201903120102,56.8,56.84,56.8,56.82
201903120103,56.82,56.85,56.81,56.84
201903120104,56.84,56.91,56.84,56.9
201903120105,56.9,56.94,56.9,56.92
201903120106,56.92,56.93,56.9,56.91
201903120107,56.91,56.92,56.89,56.91
201903120108,56.91,56.96,56.91,56.93
201903120109,56.93,56.97,56.92,56.93
201903120110,56.93,56.94,56.87,56.89
201903120111,56.89,56.9,56.87,56.89
201903120112,56.89,56.91,56.85,56.86
201903120113,56.86,56.87,56.83,56.84
201903120114,56.84,56.87,56.82,56.85
201903120115,56.85,56.87,56.83,56.86
201903120116,56.86,56.87,56.85,56.86
201903120117,56.86,56.9,56.86,56.9
201903120118,56.9,56.9,56.88,56.89
201903120119,56.89,56.91,56.85,56.86
201903120120,56.86,56.87,56.81,56.82
201903120121,56.82,56.83,56.8,56.8
201903120122,56.8,56.8,56.76,56.79
201903120123,56.79,56.82,56.77,56.77
201903120124,56.77,56.79,56.72,56.76
201903120125,56.76,56.78,56.72,56.77
201903120126,56.77,56.81,56.75,56.77
201903120127,56.77,56.77,56.73,56.74
201903120128,56.74,56.76,56.7,56.72
201903120129,56.72,56.74,56.52,56.55
201903120130,56.55,56.61,56.51,56.61
201903120131,56.61,56.62,56.56,56.6
201903120132,56.6,56.61,56.57,56.61
201903120133,56.61,56.61,56.38,56.38
201903120134,56.38,56.41,56.35,56.41
201903120135,56.41,56.45,56.34,56.45
201903120136,56.45,56.51,56.44,56.5
201903120137,56.5,56.52,56.49,56.5
201903120138,56.5,56.55,56.49,56.54
201903120139,56.53,56.54,56.52,56.54
201903120140,56.54,56.54,56.49,56.51
201903120141,56.51,56.56,56.49,56.53
201903120142,56.53,56.55,56.52,56.52
201903120143,56.52,56.53,56.49,56.51
201903120144,56.51,56.53,56.5,56.53
201903120145,56.52,56.53,56.49,56.51
201903120146,56.51,56.53,56.48,56.52
201903120147,56.52,56.56,56.52,56.53
201903120148,56.53,56.53,56.51,56.53
201903120149,56.53,56.53,56.49,56.52
201903120150,56.52,56.54,56.49,56.51
201903120151,56.51,56.53,56.5,56.52
201903120152,56.52,56.59,56.52,56.57
201903120153,56.57,56.58,56.55,56.56
201903120154,56.56,56.6,56.56,56.59
201903120155,56.59,56.61,56.57,56.58
201903120156,56.58,56.64,56.58,56.61
201903120157,56.61,56.65,56.61,56.65
201903120158,56.64,56.65,56.61,56.62
201903120159,56.62,56.64,56.62,56.63
201903120200,56.63,56.68,56.63,56.66
201903120201,56.66,56.66,56.61,56.61
201903120202,56.61,56.63,56.61,56.63
201903120203,56.63,56.64,56.61,56.63
201903120204,56.63,56.63,56.57,56.57
201903120205,56.57,56.64,56.57,56.62
201903120206,56.62,56.64,56.62,56.63
201903120207,56.63,56.64,56.61,56.63
201903120208,56.63,56.64,56.61,56.62
201903120209,56.62,56.63,56.6,56.63
201903120210,56.63,56.64,56.62,56.63
201903120211,56.63,56.65,56.62,56.65
201903120212,56.65,56.68,56.65,56.67
201903120213,56.67,56.68,56.62,56.68
201903120214,56.68,56.7,56.67,56.69
201903120215,56.69,56.72,56.69,56.7
201903120216,56.7,56.73,56.7,56.72
201903120217,56.72,56.72,56.71,56.71
201903120218,56.71,56.71,56.68,56.69
201903120219,56.68,56.71,56.68,56.7
201903120220,56.7,56.7,56.66,56.66
201903120221,56.66,56.69,56.66,56.67
201903120222,56.67,56.7,56.67,56.7
201903120223,56.7,56.7,56.69,56.7
201903120224,56.7,56.7,56.69,56.69
201903120225,56.69,56.7,56.68,56.68
201903120226,56.68,56.7,56.67,56.69
201903120227,56.69,56.7,56.67,56.7
201903120228,56.7,56.7,56.68,56.7
201903120229,56.7,56.71,56.68,56.71
201903120230,56.71,56.77,56.71,56.75
201903120231,56.75,56.75,56.73,56.74
201903120232,56.74,56.74,56.67,56.69
201903120233,56.69,56.7,56.67,56.68
201903120234,56.68,56.7,56.67,56.67
201903120235,56.67,56.7,56.67,56.69
201903120236,56.69,56.7,56.67,56.7
201903120237,56.7,56.73,56.69,56.73
201903120238,56.73,56.74,56.72,56.74
201903120239,56.74,56.74,56.72,56.74
201903120240,56.74,56.76,56.74,56.75
201903120241,56.75,56.76,56.71,56.72
201903120242,56.72,56.74,56.72,56.74
201903120243,56.74,56.78,56.73,56.77
201903120244,56.77,56.77,56.73,56.74
201903120245,56.74,56.76,56.74,56.75
201903120246,56.75,56.77,56.73,56.74
201903120247,56.74,56.76,56.73,56.75
201903120248,56.75,56.77,56.73,56.77
201903120249,56.77,56.78,56.76,56.77
201903120250,56.77,56.8,56.75,56.78
201903120251,56.78,56.8,56.77,56.78
201903120252,56.78,56.78,56.76,56.76
201903120253,56.77,56.78,56.75,56.76
201903120254,56.76,56.81,56.76,56.78
201903120255,56.78,56.79,56.77,56.79
201903120256,56.79,56.79,56.78,56.78
201903120257,56.78,56.79,56.77,56.78
201903120258,56.78,56.81,56.78,56.8
201903120259,56.8,56.81,56.8,56.8
201903120300,56.8,56.82,56.77,56.78
201903120301,56.78,56.78,56.73,56.73
201903120302,56.73,56.74,56.71,56.73
201903120303,56.73,56.74,56.72,56.73
201903120304,56.73,56.74,56.72,56.72
201903120305,56.72,56.77,56.72,56.77
201903120306,56.77,56.79,56.72,56.73
201903120307,56.73,56.74,56.71,56.73
201903120308,56.73,56.74,56.72,56.72
201903120309,56.72,56.73,56.7,56.71
201903120310,56.71,56.72,56.7,56.7
201903120311,56.69,56.73,56.69,56.72
201903120312,56.72,56.72,56.66,56.66
201903120313,56.66,56.69,56.66,56.66
201903120314,56.66,56.68,56.66,56.68
201903120315,56.68,56.71,56.67,56.71
201903120316,56.71,56.76,56.71,56.72
201903120317,56.72,56.73,56.69,56.71
201903120318,56.71,56.71,56.7,56.71
201903120319,56.71,56.71,56.69,56.7
201903120320,56.7,56.73,56.68,56.71
201903120321,56.71,56.77,56.71,56.77
201903120322,56.77,56.77,56.72,56.72
201903120323,56.72,56.78,56.72,56.75
201903120324,56.75,56.77,56.74,56.77
201903120325,56.77,56.78,56.75,56.75
201903120326,56.75,56.76,56.72,56.73
201903120327,56.73,56.73,56.66,56.7
201903120328,56.7,56.8,56.7,56.76
201903120329,56.76,56.81,56.76,56.8
201903120330,56.8,56.8,56.76,56.78
201903120331,56.78,56.81,56.77,56.8
201903120332,56.8,56.8,56.78,56.79
201903120333,56.79,56.79,56.77,56.79
201903120334,56.79,56.8,56.77,56.78
201903120335,56.78,56.78,56.77,56.78
201903120336,56.78,56.79,56.78,56.79
201903120337,56.79,56.8,56.79,56.79
201903120338,56.79,56.8,56.79,56.79
201903120339,56.79,56.79,56.77,56.77
201903120340,56.77,56.78,56.77,56.78
201903120341,56.78,56.8,56.78,56.8
201903120342,56.8,56.8,56.8,56.8
201903120343,56.8,56.8,56.78,56.78
201903120344,56.78,56.8,56.78,56.8
201903120345,56.8,56.81,56.79,56.8
201903120346,56.8,56.8,56.78,56.78
201903120347,56.78,56.79,56.78,56.78
201903120348,56.78,56.79,56.77,56.78
201903120349,56.78,56.78,56.77,56.77
201903120350,56.77,56.78,56.76,56.77
201903120351,56.76,56.76,56.75,56.76
201903120352,56.76,56.76,56.75,56.75
201903120353,56.75,56.76,56.75,56.75
201903120354,56.75,56.76,56.74,56.76
201903120355,56.76,56.77,56.76,56.76
201903120356,56.76,56.77,56.76,56.77
201903120357,56.77,56.77,56.75,56.75
201903120358,56.75,56.77,56.75,56.76
201903120359,56.76,56.77,56.76,56.77
201903120400,56.77,56.77,56.75,56.75
201903120401,56.75,56.76,56.75,56.76
201903120402,56.76,56.78,56.75,56.76
201903120403,56.76,56.77,56.75,56.76
201903120404,56.76,56.77,56.75,56.76
201903120405,56.76,56.76,56.76,56.76
201903120406,56.76,56.78,56.76,56.77
201903120407,56.77,56.78,56.77,56.78
201903120408,56.78,56.79,56.78,56.79
201903120409,56.79,56.79,56.76,56.76
201903120410,56.76,56.78,56.76,56.78
201903120411,56.78,56.8,56.78,56.8
201903120412,56.8,56.8,56.8,56.8
201903120413,56.8,56.8,56.79,56.8
201903120414,56.8,56.8,56.8,56.8
201903120415,56.8,56.81,56.8,56.81
201903120416,56.81,56.81,56.8,56.8
201903120417,56.8,56.8,56.79,56.8
201903120418,56.8,56.8,56.79,56.8
201903120419,56.8,56.8,56.79,56.79
201903120420,56.79,56.79,56.79,56.79
201903120421,56.79,56.82,56.79,56.8
201903120422,56.8,56.82,56.8,56.81
201903120423,56.81,56.81,56.8,56.8
201903120424,56.8,56.8,56.8,56.8
201903120425,56.8,56.8,56.79,56.79
201903120426,56.79,56.8,56.78,56.8
201903120427,56.8,56.8,56.79,56.79
201903120428,56.79,56.8,56.77,56.77
201903120429,56.77,56.78,56.77,56.77
201903120430,56.77,56.79,56.77,56.78
201903120431,56.78,56.78,56.78,56.78
201903120432,56.78,56.78,56.78,56.78
201903120433,56.78,56.78,56.78,56.78
201903120434,56.78,56.78,56.75,56.76
201903120435,56.76,56.76,56.76,56.76
201903120436,56.76,56.76,56.76,56.76
201903120437,56.76,56.76,56.75,56.76
201903120438,56.76,56.78,56.76,56.77
201903120439,56.77,56.77,56.76,56.76
201903120440,56.76,56.76,56.76,56.76
201903120441,56.76,56.78,56.76,56.77
201903120442,56.77,56.77,56.77,56.77
201903120443,56.77,56.77,56.77,56.77
201903120444,56.77,56.79,56.77,56.78
201903120445,56.78,56.79,56.78,56.79
201903120446,56.79,56.8,56.78,56.79
201903120447,56.79,56.81,56.79,56.81
201903120448,56.81,56.81,56.8,56.81
201903120449,56.81,56.82,56.81,56.81
201903120450,56.81,56.82,56.8,56.81
201903120451,56.81,56.81,56.8,56.8
201903120452,56.8,56.8,56.79,56.8
201903120453,56.8,56.8,56.79,56.8
201903120454,56.8,56.8,56.8,56.8
201903120455,56.8,56.8,56.79,56.79
201903120456,56.79,56.8,56.79,56.8
201903120457,56.8,56.8,56.79,56.8
201903120458,56.8,56.8,56.79,56.8
201903120459,56.81,56.81,56.79,56.8
201903120500,56.8,56.8,56.79,56.79
201903120501,56.79,56.81,56.79,56.81
201903120502,56.81,56.82,56.81,56.81
201903120503,56.81,56.82,56.81,56.81
201903120504,56.81,56.81,56.81,56.81
201903120505,56.81,56.81,56.81,56.81
201903120506,56.81,56.81,56.8,56.81
201903120507,56.81,56.81,56.8,56.8
201903120508,56.81,56.81,56.81,56.81
201903120509,56.81,56.81,56.81,56.81
201903120510,56.81,56.81,56.81,56.81
201903120511,56.81,56.82,56.81,56.81
201903120512,56.81,56.81,56.81,56.81
201903120513,56.81,56.82,56.81,56.81
201903120514,56.81,56.82,56.81,56.82
201903120515,56.82,56.82,56.81,56.82
201903120516,56.82,56.83,56.82,56.83
201903120517,56.83,56.83,56.82,56.82
201903120518,56.82,56.83,56.82,56.82
201903120519,56.82,56.83,56.82,56.83
201903120520,56.83,56.83,56.82,56.83
201903120521,56.83,56.83,56.83,56.83
201903120522,56.83,56.83,56.82,56.82
201903120523,56.82,56.83,56.82,56.82
201903120524,56.82,56.82,56.81,56.82
201903120525,56.82,56.84,56.82,56.83
201903120526,56.83,56.83,56.83,56.83
201903120527,56.83,56.83,56.81,56.82
201903120528,56.82,56.82,56.82,56.82
201903120529,56.82,56.83,56.82,56.83
201903120530,56.83,56.84,56.83,56.84
201903120531,56.84,56.84,56.83,56.84
201903120532,56.84,56.84,56.84,56.84
201903120533,56.84,56.84,56.84,56.84
201903120534,56.84,56.84,56.84,56.84
201903120535,56.84,56.85,56.82,56.82
201903120536,56.82,56.82,56.8,56.82
201903120537,56.82,56.82,56.82,56.82
201903120538,56.82,56.82,56.82,56.82
201903120539,56.82,56.82,56.82,56.82
201903120540,56.82,56.83,56.82,56.82
201903120541,56.82,56.82,56.82,56.82
201903120542,56.82,56.82,56.81,56.82
201903120543,56.82,56.82,56.81,56.82
201903120544,56.82,56.82,56.81,56.82
201903120545,56.82,56.82,56.81,56.81
201903120546,56.81,56.81,56.81,56.81
201903120547,56.81,56.81,56.8,56.81
201903120548,56.81,56.81,56.81,56.81
201903120549,56.81,56.82,56.81,56.82
201903120550,56.82,56.82,56.81,56.81
201903120551,56.81,56.82,56.81,56.82
201903120552,56.82,56.84,56.82,56.83
201903120553,56.83,56.83,56.82,56.82
201903120554,56.82,56.83,56.82,56.83
201903120555,56.83,56.83,56.78,56.78
201903120556,56.78,56.78,56.76,56.76
201903120557,56.76,56.76,56.76,56.76
201903120558,56.76,56.77,56.75,56.76
201903120559,56.76,56.76,56.75,56.76
