日時,始値(BID),高値(BID),安値(BID),終値(BID)
201903210700,59.98,60.02,59.98,60.02
201903210701,60.02,60.02,59.99,60.01
201903210702,60.01,60.01,60,60
201903210703,60,60,59.99,59.99
201903210704,59.99,59.99,59.96,59.98
201903210705,59.98,59.98,59.97,59.97
201903210706,59.97,59.98,59.97,59.98
201903210707,59.98,59.98,59.98,59.98
201903210708,59.98,59.99,59.97,59.99
201903210709,59.99,60,59.99,60
201903210710,60,60.01,60,60
201903210711,60,60.01,60,60
201903210712,60,60.01,60,60.01
201903210713,60.01,60.01,60,60
201903210714,60,60.01,60,60.01
201903210715,60.01,60.02,60.01,60.02
201903210716,60.02,60.02,60.01,60.01
201903210717,60.01,60.02,60.01,60.02
201903210718,60.02,60.02,60.02,60.02
201903210719,60.02,60.02,60.01,60.01
201903210720,60.01,60.02,60.01,60.02
201903210721,60.02,60.03,60.02,60.03
201903210722,60.03,60.04,60.03,60.04
201903210723,60.04,60.04,60.03,60.03
201903210724,60.03,60.03,60.02,60.02
201903210725,60.02,60.03,60.02,60.02
201903210726,60.02,60.02,60.02,60.02
201903210727,60.02,60.02,60.02,60.02
201903210728,60.02,60.02,60.02,60.02
201903210729,60.02,60.04,60.02,60.03
201903210730,60.03,60.03,60.02,60.03
201903210731,60.03,60.03,60.03,60.03
201903210732,60.03,60.03,60.03,60.03
201903210733,60.03,60.03,60.02,60.02
201903210734,60.02,60.02,60,60
201903210735,60,60.01,59.99,59.99
201903210736,59.99,59.99,59.98,59.98
201903210737,59.98,59.99,59.98,59.99
201903210738,59.99,60,59.99,59.99
201903210739,59.99,59.99,59.98,59.98
201903210740,59.98,59.98,59.97,59.98
201903210741,59.98,59.98,59.98,59.98
201903210742,59.98,60,59.98,60
201903210743,60,60,60,60
201903210744,60,60,60,60
201903210745,60,60,59.99,59.99
201903210746,59.99,60,59.99,60
201903210747,60,60,60,60
201903210748,60,60,59.96,59.97
201903210749,59.97,59.97,59.96,59.96
201903210750,59.96,59.97,59.96,59.97
201903210751,59.97,59.97,59.97,59.97
201903210752,59.97,59.97,59.97,59.97
201903210753,59.97,59.97,59.95,59.95
201903210754,59.95,59.96,59.95,59.95
201903210755,59.95,59.97,59.95,59.97
201903210756,59.97,59.98,59.97,59.98
201903210757,59.98,59.98,59.98,59.98
201903210758,59.98,59.98,59.98,59.98
201903210759,59.98,59.98,59.97,59.97
201903210800,59.97,59.97,59.97,59.97
201903210801,59.97,59.99,59.97,59.99
201903210802,59.99,60.01,59.99,60.01
201903210803,60.01,60.01,60,60
201903210804,60,60,60,60
201903210805,60,60,59.99,59.99
201903210806,59.99,60.01,59.99,60.01
201903210807,60.01,60.01,60,60
201903210808,60,60.01,59.99,60
201903210809,60,60.02,60,60.02
201903210810,60.02,60.03,60.02,60.03
201903210811,60.03,60.04,60.03,60.04
201903210812,60.04,60.06,60.04,60.05
201903210813,60.05,60.06,60.05,60.05
201903210814,60.05,60.05,60.05,60.05
201903210815,60.05,60.05,60.05,60.05
201903210816,60.05,60.05,60.05,60.05
201903210817,60.05,60.05,60.05,60.05
201903210818,60.05,60.05,60.04,60.04
201903210819,60.04,60.04,60.04,60.04
201903210820,60.04,60.04,60.04,60.04
201903210821,60.04,60.04,60.04,60.04
201903210822,60.04,60.08,60.04,60.08
201903210823,60.08,60.09,60.08,60.08
201903210824,60.08,60.08,60.06,60.06
201903210825,60.06,60.06,60.06,60.06
201903210826,60.06,60.07,60.06,60.07
201903210827,60.07,60.07,60.05,60.05
201903210828,60.05,60.05,60.05,60.05
201903210829,60.05,60.05,60.04,60.04
201903210830,60.04,60.05,60.04,60.05
201903210831,60.05,60.05,60.05,60.05
201903210832,60.05,60.05,60.05,60.05
201903210833,60.05,60.05,60.05,60.05
201903210834,60.05,60.05,60.05,60.05
201903210835,60.05,60.05,60.03,60.03
201903210836,60.03,60.04,60.03,60.03
201903210837,60.03,60.04,60.03,60.04
201903210838,60.04,60.04,60.03,60.03
201903210839,60.03,60.03,60.03,60.03
201903210840,60.03,60.03,60.03,60.03
201903210841,60.03,60.03,60.03,60.03
201903210842,60.03,60.03,60.02,60.02
201903210843,60.02,60.03,60.02,60.03
201903210844,60.03,60.03,60.03,60.03
201903210845,60.03,60.03,60.03,60.03
201903210846,60.03,60.03,60.03,60.03
201903210847,60.03,60.03,60.03,60.03
201903210848,60.03,60.03,60.03,60.03
201903210849,60.03,60.05,60.03,60.04
201903210850,60.04,60.04,60.04,60.04
201903210851,60.04,60.05,60.04,60.04
201903210852,60.04,60.05,60.04,60.05
201903210853,60.05,60.05,60.05,60.05
201903210854,60.05,60.05,60.05,60.05
201903210855,60.05,60.06,60.05,60.06
201903210856,60.06,60.06,60.06,60.06
201903210857,60.06,60.07,60.06,60.07
201903210858,60.07,60.07,60.06,60.07
201903210859,60.07,60.08,60.07,60.08
201903210900,60.08,60.1,60.07,60.08
201903210901,60.08,60.08,60.06,60.06
201903210902,60.06,60.07,60.05,60.06
201903210903,60.06,60.1,60.06,60.1
201903210904,60.1,60.11,60.09,60.11
201903210905,60.11,60.11,60.09,60.1
201903210906,60.1,60.1,60.08,60.08
201903210907,60.08,60.09,60.08,60.09
201903210908,60.09,60.09,60.08,60.08
201903210909,60.08,60.09,60.08,60.09
201903210910,60.09,60.12,60.09,60.1
201903210911,60.1,60.1,60.1,60.1
201903210912,60.1,60.11,60.1,60.11
201903210913,60.11,60.11,60.1,60.1
201903210914,60.1,60.1,60.1,60.1
201903210915,60.1,60.11,60.1,60.1
201903210916,60.1,60.11,60.1,60.11
201903210917,60.11,60.12,60.11,60.12
201903210918,60.12,60.14,60.11,60.14
201903210919,60.14,60.14,60.12,60.14
201903210920,60.14,60.14,60.12,60.12
201903210921,60.12,60.14,60.12,60.14
201903210922,60.14,60.14,60.11,60.11
201903210923,60.11,60.12,60.11,60.11
201903210924,60.11,60.11,60.1,60.1
201903210925,60.1,60.11,60.1,60.11
201903210926,60.11,60.12,60.11,60.12
201903210927,60.12,60.13,60.11,60.13
201903210928,60.13,60.13,60.12,60.12
201903210929,60.12,60.12,60.12,60.12
201903210930,60.12,60.17,60.11,60.16
201903210931,60.16,60.17,60.15,60.15
201903210932,60.15,60.16,60.14,60.15
201903210933,60.15,60.15,60.13,60.13
201903210934,60.13,60.14,60.13,60.13
201903210935,60.13,60.14,60.13,60.13
201903210936,60.13,60.15,60.13,60.14
201903210937,60.14,60.14,60.14,60.14
201903210938,60.14,60.15,60.14,60.15
201903210939,60.15,60.15,60.15,60.15
201903210940,60.15,60.16,60.15,60.15
201903210941,60.15,60.15,60.14,60.14
201903210942,60.14,60.15,60.14,60.15
201903210943,60.15,60.15,60.15,60.15
201903210944,60.15,60.15,60.15,60.15
201903210945,60.15,60.15,60.14,60.14
201903210946,60.14,60.14,60.14,60.14
201903210947,60.14,60.15,60.14,60.15
201903210948,60.15,60.15,60.15,60.15
201903210949,60.15,60.17,60.15,60.17
201903210950,60.17,60.18,60.17,60.18
201903210951,60.18,60.18,60.16,60.16
201903210952,60.16,60.16,60.16,60.16
201903210953,60.16,60.16,60.15,60.15
201903210954,60.15,60.16,60.15,60.16
201903210955,60.16,60.16,60.15,60.16
201903210956,60.16,60.16,60.15,60.16
201903210957,60.16,60.16,60.15,60.16
201903210958,60.16,60.16,60.16,60.16
201903210959,60.16,60.16,60.15,60.15
201903211000,60.15,60.15,60.14,60.15
201903211001,60.15,60.15,60.12,60.13
201903211002,60.13,60.14,60.11,60.11
201903211003,60.11,60.11,60.09,60.09
201903211004,60.09,60.12,60.09,60.12
201903211005,60.12,60.12,60.11,60.11
201903211006,60.11,60.11,60.09,60.09
201903211007,60.09,60.1,60.08,60.09
201903211008,60.09,60.09,60.08,60.09
201903211009,60.09,60.1,60.08,60.09
201903211010,60.09,60.09,60.08,60.09
201903211011,60.09,60.11,60.09,60.11
201903211012,60.11,60.13,60.11,60.12
201903211013,60.12,60.12,60.11,60.12
201903211014,60.12,60.12,60.11,60.11
201903211015,60.11,60.14,60.11,60.14
201903211016,60.14,60.14,60.12,60.14
201903211017,60.14,60.14,60.13,60.14
201903211018,60.14,60.14,60.13,60.13
201903211019,60.13,60.14,60.13,60.13
201903211020,60.13,60.16,60.13,60.15
201903211021,60.15,60.16,60.15,60.15
201903211022,60.15,60.15,60.13,60.13
201903211023,60.13,60.14,60.12,60.12
201903211024,60.12,60.12,60.11,60.11
201903211025,60.11,60.11,60.1,60.11
201903211026,60.11,60.12,60.11,60.11
201903211027,60.11,60.12,60.11,60.11
201903211028,60.11,60.14,60.11,60.13
201903211029,60.13,60.13,60.12,60.12
201903211030,60.12,60.12,60.1,60.1
201903211031,60.1,60.13,60.1,60.13
201903211032,60.13,60.13,60.13,60.13
201903211033,60.13,60.15,60.13,60.15
201903211034,60.15,60.15,60.13,60.13
201903211035,60.13,60.13,60.12,60.12
201903211036,60.12,60.12,60.12,60.12
201903211037,60.12,60.12,60.11,60.11
201903211038,60.11,60.13,60.11,60.12
201903211039,60.12,60.14,60.12,60.14
201903211040,60.14,60.15,60.13,60.15
201903211041,60.15,60.16,60.15,60.16
201903211042,60.16,60.16,60.14,60.15
201903211043,60.15,60.16,60.15,60.16
201903211044,60.16,60.17,60.15,60.17
201903211045,60.17,60.17,60.11,60.12
201903211046,60.12,60.13,60.11,60.11
201903211047,60.11,60.14,60.11,60.14
201903211048,60.14,60.14,60.13,60.14
201903211049,60.14,60.16,60.14,60.16
201903211050,60.16,60.17,60.16,60.16
201903211051,60.16,60.16,60.13,60.14
201903211052,60.14,60.15,60.14,60.15
201903211053,60.15,60.15,60.13,60.13
201903211054,60.13,60.13,60.12,60.13
201903211055,60.13,60.13,60.12,60.12
201903211056,60.12,60.13,60.11,60.11
201903211057,60.11,60.12,60.1,60.12
201903211058,60.12,60.13,60.12,60.13
201903211059,60.13,60.13,60.11,60.11
201903211100,60.11,60.14,60.11,60.13
201903211101,60.13,60.14,60.13,60.13
201903211102,60.13,60.14,60.12,60.13
201903211103,60.13,60.14,60.13,60.13
201903211104,60.13,60.14,60.13,60.13
201903211105,60.13,60.13,60.12,60.12
201903211106,60.12,60.12,60.11,60.12
201903211107,60.12,60.12,60.12,60.12
201903211108,60.12,60.12,60.12,60.12
201903211109,60.12,60.12,60.12,60.12
201903211110,60.12,60.13,60.12,60.13
201903211111,60.13,60.14,60.12,60.14
201903211112,60.14,60.14,60.12,60.12
201903211113,60.12,60.14,60.12,60.14
201903211114,60.14,60.16,60.14,60.16
201903211115,60.16,60.16,60.15,60.15
201903211116,60.15,60.15,60.13,60.13
201903211117,60.13,60.13,60.13,60.13
201903211118,60.13,60.13,60.12,60.12
201903211119,60.12,60.13,60.12,60.12
201903211120,60.12,60.12,60.12,60.12
201903211121,60.12,60.12,60.12,60.12
201903211122,60.12,60.13,60.12,60.13
201903211123,60.13,60.13,60.13,60.13
201903211124,60.13,60.14,60.13,60.13
201903211125,60.13,60.13,60.13,60.13
201903211126,60.13,60.13,60.12,60.13
201903211127,60.13,60.13,60.12,60.12
201903211128,60.12,60.12,60.12,60.12
201903211129,60.12,60.13,60.12,60.13
201903211130,60.13,60.14,60.12,60.14
201903211131,60.14,60.14,60.13,60.13
201903211132,60.13,60.13,60.12,60.12
201903211133,60.12,60.12,60.12,60.12
201903211134,60.12,60.12,60.11,60.11
201903211135,60.11,60.12,60.11,60.12
201903211136,60.12,60.13,60.12,60.13
201903211137,60.13,60.13,60.13,60.13
201903211138,60.13,60.13,60.12,60.12
201903211139,60.12,60.13,60.12,60.12
201903211140,60.12,60.13,60.12,60.13
201903211141,60.13,60.14,60.12,60.13
201903211142,60.13,60.14,60.13,60.14
201903211143,60.14,60.15,60.14,60.14
201903211144,60.14,60.15,60.13,60.15
201903211145,60.15,60.15,60.13,60.14
201903211146,60.14,60.14,60.13,60.14
201903211147,60.14,60.15,60.14,60.14
201903211148,60.14,60.14,60.14,60.14
201903211149,60.14,60.15,60.14,60.15
201903211150,60.15,60.15,60.15,60.15
201903211151,60.15,60.15,60.15,60.15
201903211152,60.15,60.15,60.14,60.14
201903211153,60.14,60.14,60.14,60.14
201903211154,60.14,60.14,60.14,60.14
201903211155,60.14,60.15,60.14,60.15
201903211156,60.15,60.15,60.14,60.14
201903211157,60.14,60.14,60.13,60.14
201903211158,60.14,60.14,60.14,60.14
201903211159,60.14,60.14,60.13,60.14
201903211200,60.14,60.15,60.14,60.15
201903211201,60.15,60.15,60.15,60.15
201903211202,60.15,60.15,60.14,60.14
201903211203,60.14,60.15,60.14,60.14
201903211204,60.14,60.15,60.14,60.15
201903211205,60.15,60.15,60.15,60.15
201903211206,60.15,60.16,60.15,60.15
201903211207,60.15,60.15,60.14,60.15
201903211208,60.15,60.15,60.13,60.13
201903211209,60.13,60.13,60.13,60.13
201903211210,60.13,60.13,60.13,60.13
201903211211,60.13,60.13,60.13,60.13
201903211212,60.13,60.13,60.12,60.12
201903211213,60.12,60.12,60.12,60.12
201903211214,60.12,60.13,60.12,60.12
201903211215,60.12,60.14,60.12,60.14
201903211216,60.14,60.14,60.12,60.12
201903211217,60.12,60.13,60.12,60.12
201903211218,60.12,60.13,60.12,60.13
201903211219,60.13,60.13,60.13,60.13
201903211220,60.13,60.14,60.13,60.13
201903211221,60.13,60.13,60.13,60.13
201903211222,60.13,60.13,60.12,60.13
201903211223,60.13,60.14,60.13,60.14
201903211224,60.14,60.14,60.13,60.13
201903211225,60.13,60.13,60.12,60.13
201903211226,60.13,60.13,60.12,60.12
201903211227,60.12,60.13,60.12,60.13
201903211228,60.13,60.15,60.13,60.15
201903211229,60.15,60.15,60.15,60.15
201903211230,60.15,60.16,60.15,60.16
201903211231,60.16,60.17,60.15,60.17
201903211232,60.17,60.17,60.17,60.17
201903211233,60.17,60.17,60.17,60.17
201903211234,60.17,60.17,60.17,60.17
201903211235,60.17,60.17,60.17,60.17
201903211236,60.17,60.17,60.17,60.17
201903211237,60.17,60.17,60.17,60.17
201903211238,60.17,60.18,60.17,60.18
201903211239,60.18,60.19,60.18,60.18
201903211240,60.18,60.18,60.17,60.18
201903211241,60.18,60.18,60.18,60.18
201903211242,60.18,60.18,60.17,60.17
201903211243,60.17,60.17,60.15,60.16
201903211244,60.16,60.16,60.15,60.16
201903211245,60.16,60.16,60.15,60.15
201903211246,60.15,60.16,60.15,60.16
201903211247,60.16,60.16,60.16,60.16
201903211248,60.16,60.16,60.16,60.16
201903211249,60.16,60.18,60.16,60.17
201903211250,60.17,60.18,60.15,60.15
201903211251,60.15,60.16,60.15,60.16
201903211252,60.16,60.18,60.16,60.18
201903211253,60.18,60.18,60.16,60.16
201903211254,60.16,60.17,60.16,60.16
201903211255,60.16,60.17,60.16,60.17
201903211256,60.17,60.17,60.17,60.17
201903211257,60.17,60.17,60.17,60.17
201903211258,60.17,60.17,60.17,60.17
201903211259,60.17,60.17,60.17,60.17
201903211300,60.17,60.17,60.17,60.17
201903211301,60.17,60.17,60.17,60.17
201903211302,60.17,60.17,60.16,60.16
201903211303,60.16,60.16,60.16,60.16
201903211304,60.16,60.16,60.16,60.16
201903211305,60.16,60.16,60.15,60.15
201903211306,60.15,60.16,60.15,60.16
201903211307,60.16,60.16,60.16,60.16
201903211308,60.16,60.17,60.16,60.17
201903211309,60.17,60.18,60.17,60.18
201903211310,60.18,60.18,60.18,60.18
201903211311,60.18,60.18,60.17,60.17
201903211312,60.17,60.17,60.17,60.17
201903211313,60.17,60.17,60.17,60.17
201903211314,60.17,60.17,60.16,60.16
201903211315,60.16,60.16,60.15,60.16
201903211316,60.16,60.16,60.15,60.16
201903211317,60.16,60.16,60.16,60.16
201903211318,60.16,60.17,60.16,60.17
201903211319,60.17,60.17,60.16,60.17
201903211320,60.17,60.17,60.17,60.17
201903211321,60.17,60.17,60.17,60.17
201903211322,60.17,60.17,60.17,60.17
201903211323,60.17,60.17,60.16,60.17
201903211324,60.17,60.17,60.17,60.17
201903211325,60.17,60.17,60.17,60.17
201903211326,60.17,60.17,60.17,60.17
201903211327,60.17,60.17,60.17,60.17
201903211328,60.17,60.17,60.17,60.17
201903211329,60.17,60.18,60.17,60.18
201903211330,60.18,60.18,60.17,60.18
201903211331,60.18,60.18,60.18,60.18
201903211332,60.18,60.18,60.17,60.18
201903211333,60.18,60.18,60.17,60.18
201903211334,60.18,60.18,60.17,60.18
201903211335,60.18,60.18,60.17,60.18
201903211336,60.18,60.18,60.17,60.18
201903211337,60.18,60.18,60.18,60.18
201903211338,60.18,60.18,60.17,60.17
201903211339,60.17,60.25,60.17,60.24
201903211340,60.24,60.24,60.21,60.22
201903211341,60.22,60.23,60.22,60.23
201903211342,60.23,60.23,60.22,60.22
201903211343,60.22,60.23,60.22,60.23
201903211344,60.23,60.23,60.22,60.22
201903211345,60.22,60.23,60.22,60.23
201903211346,60.23,60.24,60.23,60.23
201903211347,60.23,60.23,60.22,60.22
201903211348,60.22,60.22,60.22,60.22
201903211349,60.22,60.24,60.22,60.24
201903211350,60.23,60.25,60.23,60.24
201903211351,60.24,60.25,60.24,60.24
201903211352,60.24,60.25,60.23,60.24
201903211353,60.25,60.25,60.24,60.25
201903211354,60.25,60.25,60.24,60.24
201903211355,60.24,60.24,60.24,60.24
201903211356,60.24,60.24,60.24,60.24
201903211357,60.24,60.25,60.24,60.25
201903211358,60.25,60.25,60.25,60.25
201903211359,60.25,60.25,60.25,60.25
201903211400,60.25,60.3,60.25,60.3
201903211401,60.3,60.3,60.28,60.28
201903211402,60.28,60.28,60.25,60.25
201903211403,60.25,60.26,60.25,60.25
201903211404,60.25,60.26,60.25,60.26
201903211405,60.26,60.27,60.26,60.27
201903211406,60.27,60.27,60.24,60.24
201903211407,60.24,60.25,60.24,60.24
201903211408,60.24,60.25,60.24,60.24
201903211409,60.24,60.26,60.24,60.26
201903211410,60.26,60.27,60.26,60.26
201903211411,60.26,60.27,60.26,60.26
201903211412,60.26,60.28,60.26,60.28
201903211413,60.28,60.29,60.27,60.28
201903211414,60.28,60.28,60.28,60.28
201903211415,60.28,60.28,60.26,60.26
201903211416,60.26,60.26,60.24,60.24
201903211417,60.24,60.26,60.24,60.26
201903211418,60.26,60.26,60.25,60.25
201903211419,60.25,60.25,60.25,60.25
201903211420,60.25,60.26,60.25,60.25
201903211421,60.25,60.25,60.25,60.25
201903211422,60.25,60.25,60.24,60.24
201903211423,60.24,60.24,60.23,60.24
201903211424,60.24,60.24,60.22,60.23
201903211425,60.23,60.23,60.21,60.22
201903211426,60.22,60.22,60.22,60.22
201903211427,60.22,60.22,60.21,60.22
201903211428,60.22,60.23,60.22,60.23
201903211429,60.23,60.23,60.22,60.22
201903211430,60.22,60.23,60.21,60.23
201903211431,60.23,60.23,60.22,60.22
201903211432,60.22,60.22,60.21,60.21
201903211433,60.21,60.22,60.21,60.22
201903211434,60.22,60.23,60.22,60.23
201903211435,60.23,60.23,60.23,60.23
201903211436,60.23,60.23,60.22,60.23
201903211437,60.23,60.23,60.22,60.22
201903211438,60.22,60.23,60.22,60.22
201903211439,60.22,60.23,60.22,60.23
201903211440,60.23,60.24,60.22,60.22
201903211441,60.22,60.23,60.22,60.22
201903211442,60.22,60.22,60.21,60.21
201903211443,60.21,60.22,60.21,60.22
201903211444,60.22,60.23,60.21,60.22
201903211445,60.22,60.23,60.22,60.22
201903211446,60.22,60.22,60.2,60.2
201903211447,60.2,60.2,60.19,60.2
201903211448,60.2,60.21,60.2,60.2
201903211449,60.2,60.21,60.2,60.21
201903211450,60.21,60.21,60.2,60.21
201903211451,60.21,60.21,60.2,60.2
201903211452,60.2,60.21,60.2,60.2
201903211453,60.2,60.2,60.19,60.2
201903211454,60.2,60.2,60.19,60.2
201903211455,60.2,60.2,60.19,60.19
201903211456,60.19,60.19,60.18,60.18
201903211457,60.18,60.18,60.13,60.14
201903211458,60.14,60.14,60.13,60.13
201903211459,60.13,60.14,60.13,60.14
201903211500,60.14,60.16,60.13,60.16
201903211501,60.16,60.17,60.16,60.16
201903211502,60.16,60.17,60.16,60.16
201903211503,60.16,60.16,60.15,60.15
201903211504,60.15,60.16,60.14,60.16
201903211505,60.16,60.18,60.16,60.18
201903211506,60.18,60.19,60.17,60.17
201903211507,60.17,60.18,60.17,60.17
201903211508,60.17,60.17,60.16,60.16
201903211509,60.16,60.17,60.16,60.17
201903211510,60.17,60.18,60.17,60.18
201903211511,60.18,60.19,60.17,60.19
201903211512,60.19,60.2,60.18,60.19
201903211513,60.19,60.21,60.18,60.19
201903211514,60.19,60.22,60.18,60.22
201903211515,60.22,60.22,60.19,60.2
201903211516,60.2,60.21,60.18,60.2
201903211517,60.2,60.2,60.19,60.2
201903211518,60.2,60.21,60.19,60.21
201903211519,60.21,60.21,60.2,60.21
201903211520,60.21,60.21,60.2,60.2
201903211521,60.2,60.21,60.2,60.21
201903211522,60.21,60.21,60.2,60.2
201903211523,60.2,60.21,60.19,60.19
201903211524,60.19,60.19,60.19,60.19
201903211525,60.19,60.19,60.17,60.18
201903211526,60.18,60.18,60.17,60.17
201903211527,60.17,60.17,60.16,60.17
201903211528,60.17,60.17,60.16,60.17
201903211529,60.17,60.17,60.16,60.16
201903211530,60.16,60.17,60.16,60.17
201903211531,60.17,60.17,60.15,60.15
201903211532,60.15,60.15,60.15,60.15
201903211533,60.15,60.16,60.15,60.16
201903211534,60.16,60.17,60.16,60.17
201903211535,60.17,60.18,60.17,60.18
201903211536,60.18,60.2,60.18,60.2
201903211537,60.2,60.2,60.18,60.18
201903211538,60.18,60.19,60.18,60.18
201903211539,60.18,60.18,60.17,60.18
201903211540,60.18,60.2,60.18,60.2
201903211541,60.2,60.21,60.2,60.21
201903211542,60.21,60.23,60.21,60.22
201903211543,60.22,60.22,60.2,60.2
201903211544,60.2,60.22,60.2,60.22
201903211545,60.22,60.23,60.2,60.21
201903211546,60.21,60.21,60.19,60.21
201903211547,60.21,60.21,60.2,60.2
201903211548,60.2,60.21,60.19,60.2
201903211549,60.2,60.2,60.19,60.19
201903211550,60.19,60.19,60.17,60.17
201903211551,60.17,60.17,60.14,60.16
201903211552,60.16,60.16,60.13,60.14
201903211553,60.14,60.15,60.13,60.13
201903211554,60.13,60.14,60.13,60.14
201903211555,60.14,60.16,60.13,60.15
201903211556,60.15,60.15,60.14,60.14
201903211557,60.14,60.14,60.11,60.12
201903211558,60.12,60.13,60.11,60.12
201903211559,60.12,60.14,60.12,60.14
201903211600,60.14,60.14,60.12,60.13
201903211601,60.13,60.15,60.13,60.15
201903211602,60.15,60.15,60.13,60.13
201903211603,60.13,60.14,60.11,60.14
201903211604,60.14,60.15,60.14,60.15
201903211605,60.15,60.15,60.14,60.14
201903211606,60.14,60.15,60.14,60.14
201903211607,60.14,60.14,60.13,60.13
201903211608,60.13,60.13,60.11,60.12
201903211609,60.12,60.13,60.08,60.1
201903211610,60.1,60.13,60.1,60.11
201903211611,60.11,60.12,60.11,60.12
201903211612,60.12,60.12,60.11,60.11
201903211613,60.11,60.12,60.1,60.1
201903211614,60.1,60.11,60.1,60.11
201903211615,60.11,60.12,60.11,60.12
201903211616,60.12,60.12,60.1,60.1
201903211617,60.1,60.1,60.08,60.09
201903211618,60.09,60.09,60.08,60.09
201903211619,60.09,60.09,60.05,60.07
201903211620,60.07,60.07,60.06,60.06
201903211621,60.07,60.07,60.05,60.05
201903211622,60.05,60.05,60.03,60.05
201903211623,60.05,60.06,60.05,60.06
201903211624,60.06,60.07,60.05,60.06
201903211625,60.06,60.06,60.04,60.05
201903211626,60.05,60.06,60.04,60.06
201903211627,60.06,60.07,60.06,60.07
201903211628,60.07,60.08,60.06,60.08
201903211629,60.08,60.08,60.06,60.06
201903211630,60.06,60.08,60.06,60.07
201903211631,60.07,60.11,60.07,60.1
201903211632,60.1,60.1,60.08,60.1
201903211633,60.1,60.11,60.09,60.1
201903211634,60.1,60.12,60.09,60.12
201903211635,60.12,60.12,60.1,60.11
201903211636,60.11,60.11,60.09,60.09
201903211637,60.09,60.09,60.08,60.09
201903211638,60.09,60.11,60.09,60.11
201903211639,60.11,60.11,60.08,60.08
201903211640,60.08,60.09,60.08,60.08
201903211641,60.08,60.09,60.08,60.09
201903211642,60.09,60.1,60.09,60.1
201903211643,60.1,60.12,60.09,60.11
201903211644,60.11,60.12,60.1,60.11
201903211645,60.11,60.13,60.11,60.11
201903211646,60.11,60.13,60.11,60.13
201903211647,60.13,60.13,60.11,60.13
201903211648,60.13,60.14,60.12,60.13
201903211649,60.13,60.13,60.11,60.12
201903211650,60.12,60.13,60.11,60.12
201903211651,60.12,60.12,60.11,60.12
201903211652,60.12,60.13,60.11,60.12
201903211653,60.12,60.12,60.11,60.12
201903211654,60.12,60.12,60.1,60.11
201903211655,60.11,60.11,60.09,60.09
201903211656,60.09,60.1,60.09,60.1
201903211657,60.1,60.11,60.09,60.1
201903211658,60.1,60.1,60.09,60.09
201903211659,60.09,60.1,60.09,60.09
201903211700,60.09,60.1,60.06,60.07
201903211701,60.07,60.12,60.07,60.08
201903211702,60.08,60.09,60.07,60.09
201903211703,60.09,60.1,60.07,60.07
201903211704,60.07,60.1,60.07,60.09
201903211705,60.09,60.12,60.09,60.12
201903211706,60.12,60.14,60.12,60.13
201903211707,60.13,60.14,60.11,60.11
201903211708,60.11,60.11,60.07,60.07
201903211709,60.07,60.09,60.03,60.03
201903211710,60.03,60.06,60.02,60.04
201903211711,60.04,60.04,60.02,60.03
201903211712,60.03,60.04,60.03,60.04
201903211713,60.04,60.06,60.03,60.03
201903211714,60.03,60.03,60,60.01
201903211715,60.01,60.03,60.01,60.03
201903211716,60.03,60.05,60.03,60.04
201903211717,60.04,60.05,60.03,60.05
201903211718,60.05,60.06,60.04,60.06
201903211719,60.06,60.07,60.02,60.05
201903211720,60.05,60.08,60.05,60.06
201903211721,60.06,60.08,60.04,60.05
201903211722,60.05,60.11,60.04,60.1
201903211723,60.1,60.11,60.08,60.08
201903211724,60.08,60.09,60.07,60.08
201903211725,60.08,60.09,60.05,60.05
201903211726,60.05,60.1,60.05,60.09
201903211727,60.09,60.12,60.09,60.12
201903211728,60.12,60.17,60.12,60.17
201903211729,60.17,60.19,60.13,60.15
201903211730,60.15,60.18,60.15,60.18
201903211731,60.18,60.18,60.15,60.16
201903211732,60.16,60.16,60.09,60.1
201903211733,60.1,60.12,60.1,60.1
201903211734,60.1,60.1,60.01,60.03
201903211735,60.03,60.03,59.92,59.97
201903211736,59.97,59.97,59.95,59.96
201903211737,59.96,59.98,59.96,59.97
201903211738,59.97,59.97,59.95,59.97
201903211739,59.97,59.97,59.96,59.97
201903211740,59.97,59.97,59.91,59.92
201903211741,59.92,59.92,59.87,59.89
201903211742,59.89,59.95,59.89,59.93
201903211743,59.93,59.94,59.87,59.88
201903211744,59.88,59.91,59.88,59.9
201903211745,59.9,59.94,59.89,59.91
201903211746,59.91,59.92,59.91,59.91
201903211747,59.91,59.92,59.87,59.88
201903211748,59.88,59.89,59.86,59.88
201903211749,59.88,59.91,59.88,59.9
201903211750,59.89,59.9,59.86,59.88
201903211751,59.88,59.91,59.88,59.89
201903211752,59.89,59.91,59.89,59.89
201903211753,59.89,59.92,59.89,59.92
201903211754,59.92,59.93,59.91,59.91
201903211755,59.91,59.92,59.9,59.92
201903211756,59.92,59.94,59.92,59.94
201903211757,59.94,59.94,59.93,59.93
201903211758,59.93,59.95,59.92,59.95
201903211759,59.95,59.97,59.94,59.97
201903211800,59.97,60.05,59.97,60.04
201903211801,60.04,60.15,60.03,60.14
201903211802,60.14,60.26,60.11,60.2
201903211803,60.2,60.2,60.09,60.09
201903211804,60.09,60.1,60.04,60.06
201903211805,60.06,60.1,60.06,60.07
201903211806,60.07,60.09,60.05,60.09
201903211807,60.09,60.1,60.07,60.08
201903211808,60.08,60.1,60.08,60.1
201903211809,60.1,60.13,60.09,60.13
201903211810,60.13,60.15,60.12,60.13
201903211811,60.13,60.16,60.13,60.16
201903211812,60.16,60.2,60.15,60.19
201903211813,60.19,60.2,60.15,60.15
201903211814,60.15,60.17,60.13,60.13
201903211815,60.13,60.19,60.12,60.17
201903211816,60.17,60.18,60.15,60.17
201903211817,60.17,60.21,60.17,60.21
201903211818,60.21,60.21,60.18,60.19
201903211819,60.19,60.23,60.19,60.21
201903211820,60.21,60.24,60.21,60.24
201903211821,60.24,60.25,60.21,60.21
201903211822,60.21,60.21,60.14,60.16
201903211823,60.16,60.18,60.14,60.14
201903211824,60.14,60.16,60.13,60.15
201903211825,60.15,60.19,60.15,60.18
201903211826,60.18,60.18,60.14,60.14
201903211827,60.14,60.16,60.14,60.16
201903211828,60.16,60.16,60.14,60.15
201903211829,60.15,60.15,60.11,60.13
201903211830,60.13,60.15,60.11,60.14
201903211831,60.14,60.14,60.11,60.13
201903211832,60.13,60.14,60.13,60.13
201903211833,60.13,60.14,60.11,60.13
201903211834,60.13,60.18,60.12,60.14
201903211835,60.14,60.14,60.12,60.14
201903211836,60.14,60.15,60.13,60.14
201903211837,60.14,60.14,60.1,60.12
201903211838,60.12,60.12,60.1,60.12
201903211839,60.12,60.12,60.11,60.12
201903211840,60.12,60.14,60.1,60.1
201903211841,60.1,60.12,60.08,60.1
201903211842,60.1,60.1,60.07,60.1
201903211843,60.1,60.12,60.1,60.11
201903211844,60.11,60.12,60.09,60.09
201903211845,60.1,60.1,60.07,60.08
201903211846,60.08,60.08,60.02,60.02
201903211847,60.02,60.03,59.99,59.99
201903211848,59.99,60,59.96,59.97
201903211849,59.97,59.97,59.94,59.96
201903211850,59.96,59.98,59.95,59.97
201903211851,59.97,59.97,59.94,59.95
201903211852,59.95,59.96,59.95,59.96
201903211853,59.96,59.96,59.9,59.9
201903211854,59.9,59.92,59.9,59.91
201903211855,59.91,59.91,59.85,59.85
201903211856,59.85,59.93,59.84,59.92
201903211857,59.92,59.96,59.91,59.93
201903211858,59.93,59.95,59.93,59.94
201903211859,59.94,59.96,59.93,59.94
201903211900,59.94,59.94,59.91,59.93
201903211901,59.93,59.94,59.92,59.93
201903211902,59.93,59.96,59.9,59.96
201903211903,59.96,59.97,59.93,59.95
201903211904,59.95,59.98,59.95,59.98
201903211905,59.98,59.99,59.96,59.97
201903211906,59.97,59.98,59.97,59.97
201903211907,59.97,59.98,59.97,59.98
201903211908,59.98,59.99,59.97,59.97
201903211909,59.97,59.98,59.96,59.98
201903211910,59.98,60.03,59.98,60.02
201903211911,60.02,60.02,60.01,60.01
201903211912,60.01,60.03,60,60.02
201903211913,60.02,60.02,59.97,59.98
201903211914,59.98,59.98,59.95,59.97
201903211915,59.97,59.98,59.95,59.96
201903211916,59.96,59.99,59.95,59.97
201903211917,59.97,59.99,59.96,59.99
201903211918,59.99,59.99,59.98,59.99
201903211919,59.99,59.99,59.97,59.98
201903211920,59.98,60,59.98,59.98
201903211921,59.98,60.01,59.98,59.99
201903211922,59.98,59.99,59.97,59.98
201903211923,59.98,59.99,59.93,59.93
201903211924,59.93,59.93,59.9,59.92
201903211925,59.92,59.94,59.9,59.93
201903211926,59.93,59.93,59.9,59.9
201903211927,59.9,59.94,59.9,59.93
201903211928,59.93,59.93,59.91,59.92
201903211929,59.92,59.92,59.89,59.89
201903211930,59.89,59.89,59.87,59.87
201903211931,59.87,59.87,59.8,59.87
201903211932,59.87,59.91,59.84,59.91
201903211933,59.91,59.96,59.89,59.93
201903211934,59.93,59.94,59.9,59.92
201903211935,59.92,59.93,59.91,59.92
201903211936,59.92,59.92,59.9,59.91
201903211937,59.91,59.92,59.9,59.9
201903211938,59.9,59.9,59.86,59.88
201903211939,59.88,59.88,59.85,59.85
201903211940,59.85,59.86,59.83,59.85
201903211941,59.85,59.89,59.85,59.86
201903211942,59.86,59.89,59.86,59.88
201903211943,59.88,59.9,59.87,59.88
201903211944,59.88,59.89,59.88,59.88
201903211945,59.88,59.89,59.87,59.88
201903211946,59.88,59.88,59.84,59.88
201903211947,59.88,59.92,59.87,59.91
201903211948,59.91,59.99,59.9,59.97
201903211949,59.97,59.98,59.93,59.95
201903211950,59.95,59.95,59.91,59.91
201903211951,59.91,59.94,59.91,59.93
201903211952,59.93,59.95,59.93,59.94
201903211953,59.94,59.95,59.93,59.94
201903211954,59.94,59.96,59.92,59.93
201903211955,59.93,59.93,59.9,59.9
201903211956,59.9,59.9,59.82,59.82
201903211957,59.82,59.88,59.82,59.87
201903211958,59.87,59.88,59.85,59.86
201903211959,59.86,59.87,59.86,59.87
201903212000,59.87,59.89,59.85,59.88
201903212001,59.88,59.88,59.86,59.86
201903212002,59.86,59.86,59.82,59.83
201903212003,59.83,59.83,59.78,59.79
201903212004,59.79,59.83,59.78,59.82
201903212005,59.82,59.85,59.82,59.82
201903212006,59.82,59.83,59.82,59.83
201903212007,59.83,59.83,59.82,59.83
201903212008,59.83,59.83,59.8,59.81
201903212009,59.81,59.82,59.77,59.77
201903212010,59.77,59.81,59.77,59.79
201903212011,59.79,59.8,59.78,59.78
201903212012,59.78,59.78,59.77,59.78
201903212013,59.78,59.78,59.77,59.77
201903212014,59.77,59.77,59.72,59.73
201903212015,59.73,59.75,59.72,59.74
201903212016,59.74,59.76,59.72,59.75
201903212017,59.75,59.76,59.74,59.75
201903212018,59.75,59.78,59.74,59.78
201903212019,59.78,59.79,59.77,59.79
201903212020,59.79,59.79,59.77,59.78
201903212021,59.78,59.79,59.77,59.78
201903212022,59.78,59.79,59.74,59.76
201903212023,59.76,59.77,59.74,59.75
201903212024,59.75,59.75,59.72,59.74
201903212025,59.74,59.75,59.74,59.74
201903212026,59.74,59.74,59.72,59.72
201903212027,59.72,59.73,59.72,59.72
201903212028,59.72,59.77,59.72,59.76
201903212029,59.76,59.76,59.72,59.74
201903212030,59.74,59.77,59.74,59.76
201903212031,59.76,59.79,59.76,59.78
201903212032,59.78,59.79,59.74,59.74
201903212033,59.74,59.74,59.72,59.73
201903212034,59.73,59.74,59.73,59.73
201903212035,59.73,59.73,59.69,59.7
201903212036,59.7,59.72,59.68,59.71
201903212037,59.71,59.71,59.67,59.7
201903212038,59.7,59.7,59.69,59.7
201903212039,59.7,59.73,59.7,59.73
201903212040,59.73,59.73,59.67,59.69
201903212041,59.69,59.72,59.69,59.71
201903212042,59.71,59.72,59.7,59.72
201903212043,59.72,59.76,59.72,59.76
201903212044,59.76,59.83,59.75,59.82
201903212045,59.82,59.83,59.79,59.81
201903212046,59.81,59.81,59.76,59.76
201903212047,59.76,59.78,59.76,59.77
201903212048,59.77,59.78,59.75,59.75
201903212049,59.75,59.76,59.72,59.73
201903212050,59.73,59.74,59.72,59.73
201903212051,59.73,59.75,59.73,59.75
201903212052,59.75,59.75,59.72,59.72
201903212053,59.72,59.76,59.72,59.76
201903212054,59.76,59.76,59.74,59.75
201903212055,59.75,59.75,59.73,59.74
201903212056,59.74,59.75,59.74,59.75
201903212057,59.75,59.75,59.74,59.74
201903212058,59.74,59.75,59.74,59.74
201903212059,59.74,59.74,59.72,59.72
201903212100,59.72,59.76,59.72,59.76
201903212101,59.76,59.79,59.76,59.79
201903212102,59.79,59.82,59.76,59.77
201903212103,59.77,59.77,59.72,59.75
201903212104,59.75,59.79,59.75,59.79
201903212105,59.79,59.8,59.78,59.8
201903212106,59.8,59.81,59.78,59.78
201903212107,59.78,59.79,59.76,59.76
201903212108,59.76,59.76,59.74,59.76
201903212109,59.76,59.77,59.75,59.77
201903212110,59.77,59.77,59.75,59.75
201903212111,59.75,59.75,59.74,59.74
201903212112,59.74,59.76,59.74,59.75
201903212113,59.75,59.8,59.74,59.79
201903212114,59.79,59.79,59.75,59.76
201903212115,59.76,59.77,59.75,59.76
201903212116,59.75,59.82,59.75,59.81
201903212117,59.81,59.81,59.79,59.79
201903212118,59.79,59.82,59.79,59.8
201903212119,59.8,59.82,59.8,59.82
201903212120,59.82,59.85,59.82,59.85
201903212121,59.85,59.85,59.82,59.82
201903212122,59.82,59.83,59.81,59.83
201903212123,59.83,59.84,59.82,59.83
201903212124,59.83,59.83,59.81,59.82
201903212125,59.82,59.83,59.81,59.83
201903212126,59.83,59.83,59.81,59.81
201903212127,59.81,59.82,59.81,59.82
201903212128,59.82,59.82,59.8,59.81
201903212129,59.81,59.82,59.81,59.82
201903212130,59.82,59.84,59.81,59.82
201903212131,59.82,59.82,59.78,59.8
201903212132,59.8,59.87,59.8,59.85
201903212133,59.85,59.86,59.84,59.86
201903212134,59.86,59.86,59.83,59.83
201903212135,59.83,59.84,59.83,59.83
201903212136,59.83,59.84,59.83,59.84
201903212137,59.84,59.87,59.84,59.86
201903212138,59.86,59.87,59.84,59.85
201903212139,59.85,59.91,59.85,59.91
201903212140,59.91,59.91,59.88,59.9
201903212141,59.9,59.9,59.89,59.9
201903212142,59.9,59.9,59.89,59.89
201903212143,59.89,59.92,59.89,59.9
201903212144,59.9,59.9,59.87,59.88
201903212145,59.88,59.89,59.86,59.88
201903212146,59.88,59.89,59.87,59.88
201903212147,59.88,59.89,59.87,59.89
201903212148,59.89,59.91,59.88,59.9
201903212149,59.9,59.92,59.88,59.9
201903212150,59.9,59.91,59.89,59.89
201903212151,59.89,59.9,59.88,59.9
201903212152,59.9,59.94,59.89,59.91
201903212153,59.91,59.92,59.91,59.92
201903212154,59.92,59.92,59.9,59.91
201903212155,59.91,59.94,59.91,59.93
201903212156,59.93,59.96,59.93,59.95
201903212157,59.95,59.97,59.94,59.97
201903212158,59.97,59.98,59.96,59.97
201903212159,59.97,59.97,59.93,59.93
201903212200,59.93,60.03,59.92,60
201903212201,60,60.04,59.97,60.01
201903212202,60.01,60.06,60.01,60.05
201903212203,60.05,60.06,60,60.02
201903212204,60.02,60.06,60.01,60.05
201903212205,60.05,60.11,60.05,60.1
201903212206,60.1,60.11,60.06,60.09
201903212207,60.09,60.12,60.09,60.11
201903212208,60.11,60.14,60.1,60.13
201903212209,60.13,60.15,60.1,60.14
201903212210,60.14,60.15,60.12,60.13
201903212211,60.14,60.14,60.12,60.13
201903212212,60.13,60.16,60.12,60.12
201903212213,60.12,60.16,60.11,60.16
201903212214,60.16,60.17,60.13,60.13
201903212215,60.13,60.15,60.11,60.15
201903212216,60.15,60.15,60.09,60.1
201903212217,60.1,60.11,60.07,60.1
201903212218,60.1,60.1,60.07,60.07
201903212219,60.07,60.07,60,60.01
201903212220,60.01,60.06,60.01,60.05
201903212221,60.05,60.07,60.04,60.05
201903212222,60.05,60.05,59.98,59.99
201903212223,59.99,59.99,59.96,59.98
201903212224,59.97,60.02,59.97,60
201903212225,60,60.03,59.99,60.02
201903212226,60.02,60.03,59.99,60.01
201903212227,60.01,60.02,60,60.02
201903212228,60.02,60.06,60.02,60.06
201903212229,60.06,60.07,60.03,60.07
201903212230,60.07,60.09,60.01,60.08
201903212231,60.08,60.16,60.07,60.12
201903212232,60.12,60.15,60.1,60.11
201903212233,60.11,60.13,60.09,60.13
201903212234,60.13,60.14,60.11,60.13
201903212235,60.13,60.13,60.09,60.12
201903212236,60.12,60.16,60.12,60.14
201903212237,60.14,60.21,60.13,60.2
201903212238,60.2,60.2,60.13,60.16
201903212239,60.16,60.17,60.13,60.15
201903212240,60.15,60.16,60.1,60.14
201903212241,60.14,60.16,60.09,60.11
201903212242,60.11,60.18,60.1,60.16
201903212243,60.16,60.17,60.15,60.16
201903212244,60.16,60.18,60.15,60.18
201903212245,60.18,60.18,60.13,60.17
201903212246,60.17,60.2,60.15,60.15
201903212247,60.15,60.19,60.15,60.17
201903212248,60.17,60.17,60.11,60.12
201903212249,60.12,60.13,60.07,60.09
201903212250,60.09,60.12,60.08,60.1
201903212251,60.1,60.14,60.09,60.11
201903212252,60.11,60.13,60.1,60.12
201903212253,60.12,60.12,60.09,60.11
201903212254,60.11,60.11,60.09,60.1
201903212255,60.1,60.14,60.09,60.13
201903212256,60.13,60.14,60.06,60.06
201903212257,60.07,60.1,60.05,60.09
201903212258,60.09,60.12,60.05,60.06
201903212259,60.06,60.07,60.03,60.05
201903212300,60.05,60.08,60.02,60.04
201903212301,60.04,60.09,60.04,60.09
201903212302,60.09,60.12,60.05,60.11
201903212303,60.11,60.12,60.06,60.08
201903212304,60.08,60.11,60.04,60.08
201903212305,60.08,60.12,60.07,60.11
201903212306,60.11,60.11,60.06,60.1
201903212307,60.1,60.13,60.08,60.12
201903212308,60.12,60.12,60.1,60.12
201903212309,60.12,60.14,60.11,60.12
201903212310,60.12,60.17,60.11,60.15
201903212311,60.15,60.17,60.14,60.14
201903212312,60.14,60.16,60.13,60.13
201903212313,60.13,60.16,60.13,60.13
201903212314,60.13,60.15,60.13,60.15
201903212315,60.15,60.15,60.1,60.12
201903212316,60.12,60.16,60.07,60.07
201903212317,60.07,60.09,59.99,60.04
201903212318,60.04,60.05,59.91,59.91
201903212319,59.91,59.93,59.85,59.91
201903212320,59.9,59.98,59.88,59.89
201903212321,59.89,59.9,59.78,59.81
201903212322,59.81,59.97,59.81,59.9
201903212323,59.9,59.94,59.89,59.94
201903212324,59.93,59.94,59.91,59.92
201903212325,59.92,59.97,59.92,59.97
201903212326,59.97,60,59.96,60
201903212327,60,60.03,59.99,60.02
201903212328,60.02,60.03,60.02,60.03
201903212329,60.03,60.04,60,60
201903212330,60,60.09,60,60.06
201903212331,60.07,60.1,60.05,60.09
201903212332,60.09,60.11,60.07,60.08
201903212333,60.08,60.1,60.07,60.08
201903212334,60.08,60.13,60.07,60.11
201903212335,60.11,60.12,60.09,60.1
201903212336,60.1,60.12,60.08,60.11
201903212337,60.11,60.12,60.07,60.08
201903212338,60.08,60.11,60.07,60.1
201903212339,60.1,60.19,60.1,60.18
201903212340,60.18,60.24,60.18,60.22
201903212341,60.22,60.25,60.16,60.16
201903212342,60.16,60.2,60.15,60.19
201903212343,60.19,60.21,60.14,60.14
201903212344,60.14,60.18,60.14,60.16
201903212345,60.16,60.21,60.15,60.15
201903212346,60.15,60.19,60.11,60.18
201903212347,60.18,60.24,60.17,60.24
201903212348,60.24,60.25,60.21,60.22
201903212349,60.22,60.37,60.22,60.31
201903212350,60.31,60.34,60.26,60.28
201903212351,60.28,60.34,60.28,60.33
201903212352,60.33,60.36,60.32,60.33
201903212353,60.33,60.34,60.25,60.25
201903212354,60.25,60.28,60.23,60.25
201903212355,60.25,60.27,60.23,60.23
201903212356,60.23,60.27,60.23,60.24
201903212357,60.24,60.24,60.18,60.19
201903212358,60.2,60.21,60.12,60.14
201903212359,60.14,60.15,60.13,60.13
201903220000,60.13,60.18,60.13,60.17
201903220001,60.16,60.24,60.16,60.22
201903220002,60.22,60.26,60.21,60.23
201903220003,60.23,60.29,60.23,60.29
201903220004,60.29,60.31,60.24,60.24
201903220005,60.24,60.27,60.24,60.25
201903220006,60.25,60.28,60.25,60.27
201903220007,60.27,60.31,60.27,60.31
201903220008,60.31,60.35,60.31,60.34
201903220009,60.34,60.36,60.25,60.26
201903220010,60.26,60.28,60.26,60.26
201903220011,60.26,60.29,60.23,60.29
201903220012,60.29,60.33,60.27,60.27
201903220013,60.27,60.28,60.25,60.27
201903220014,60.27,60.31,60.27,60.3
201903220015,60.3,60.37,60.3,60.31
201903220016,60.31,60.32,60.26,60.32
201903220017,60.32,60.35,60.29,60.3
201903220018,60.3,60.32,60.24,60.26
201903220019,60.26,60.3,60.26,60.28
201903220020,60.28,60.31,60.26,60.26
201903220021,60.26,60.26,60.21,60.22
201903220022,60.22,60.26,60.22,60.25
201903220023,60.25,60.3,60.25,60.3
201903220024,60.3,60.34,60.3,60.32
201903220025,60.32,60.34,60.31,60.33
201903220026,60.33,60.33,60.31,60.32
201903220027,60.32,60.33,60.26,60.26
201903220028,60.26,60.28,60.23,60.25
201903220029,60.25,60.29,60.25,60.29
201903220030,60.29,60.29,60.21,60.22
201903220031,60.22,60.25,60.22,60.23
201903220032,60.23,60.25,60.21,60.22
201903220033,60.22,60.26,60.21,60.21
201903220034,60.21,60.22,60.18,60.19
201903220035,60.19,60.23,60.12,60.18
201903220036,60.18,60.21,60.17,60.19
201903220037,60.19,60.2,60.17,60.18
201903220038,60.18,60.18,60.13,60.14
201903220039,60.14,60.14,60.05,60.05
201903220040,60.05,60.06,60.02,60.05
201903220041,60.05,60.14,60.04,60.13
201903220042,60.13,60.15,60.09,60.15
201903220043,60.16,60.17,60.13,60.14
201903220044,60.14,60.16,60.13,60.13
201903220045,60.13,60.2,60.13,60.17
201903220046,60.17,60.18,60.16,60.17
201903220047,60.17,60.17,60.14,60.15
201903220048,60.15,60.16,60.14,60.15
201903220049,60.15,60.16,60.12,60.12
201903220050,60.12,60.14,60.09,60.13
201903220051,60.13,60.16,60.13,60.15
201903220052,60.15,60.18,60.14,60.15
201903220053,60.15,60.18,60.14,60.17
201903220054,60.17,60.18,60.15,60.18
201903220055,60.18,60.18,60.12,60.12
201903220056,60.13,60.15,60.1,60.14
201903220057,60.14,60.15,60.12,60.13
201903220058,60.13,60.18,60.13,60.17
201903220059,60.17,60.19,60.16,60.17
201903220100,60.17,60.18,60.15,60.18
201903220101,60.18,60.18,60.15,60.15
201903220102,60.15,60.16,60.09,60.09
201903220103,60.09,60.09,60.05,60.09
201903220104,60.09,60.12,60.09,60.09
201903220105,60.09,60.12,60.09,60.11
201903220106,60.11,60.14,60.06,60.06
201903220107,60.06,60.08,60.04,60.07
201903220108,60.07,60.1,60.05,60.05
201903220109,60.05,60.09,60.05,60.07
201903220110,60.07,60.11,60.07,60.1
201903220111,60.1,60.1,60.07,60.07
201903220112,60.07,60.1,60.07,60.1
201903220113,60.1,60.11,60.07,60.1
201903220114,60.1,60.13,60.1,60.12
201903220115,60.12,60.13,60.1,60.11
201903220116,60.11,60.12,60.08,60.08
201903220117,60.08,60.08,59.98,59.99
201903220118,59.99,60,59.9,59.94
201903220119,59.94,59.95,59.9,59.9
201903220120,59.9,59.91,59.82,59.87
201903220121,59.87,59.93,59.87,59.92
201903220122,59.92,59.99,59.9,59.99
201903220123,59.99,59.99,59.94,59.95
201903220124,59.95,59.98,59.9,59.91
201903220125,59.91,59.94,59.84,59.86
201903220126,59.86,59.91,59.86,59.89
201903220127,59.9,59.92,59.9,59.92
201903220128,59.92,59.94,59.88,59.92
201903220129,59.92,60,59.92,59.99
201903220130,59.99,60,59.93,59.93
201903220131,59.93,59.95,59.9,59.95
201903220132,59.95,59.96,59.91,59.93
201903220133,59.93,59.95,59.92,59.94
201903220134,59.94,59.94,59.92,59.94
201903220135,59.94,59.95,59.9,59.9
201903220136,59.9,59.9,59.87,59.88
201903220137,59.88,59.93,59.88,59.93
201903220138,59.93,59.94,59.91,59.93
201903220139,59.93,59.95,59.91,59.93
201903220140,59.93,59.95,59.91,59.94
201903220141,59.94,59.95,59.93,59.94
201903220142,59.94,59.95,59.93,59.95
201903220143,59.95,59.96,59.92,59.94
201903220144,59.94,59.94,59.89,59.89
201903220145,59.89,59.89,59.85,59.85
201903220146,59.85,59.85,59.8,59.82
201903220147,59.82,59.82,59.79,59.8
201903220148,59.8,59.8,59.7,59.71
201903220149,59.71,59.76,59.65,59.76
201903220150,59.76,59.8,59.75,59.75
201903220151,59.75,59.8,59.74,59.77
201903220152,59.77,59.79,59.75,59.77
201903220153,59.77,59.79,59.75,59.79
201903220154,59.79,59.81,59.77,59.78
201903220155,59.78,59.82,59.78,59.79
201903220156,59.8,59.8,59.78,59.8
201903220157,59.8,59.81,59.78,59.79
201903220158,59.79,59.79,59.77,59.79
201903220159,59.8,59.82,59.78,59.81
201903220200,59.81,59.84,59.8,59.83
201903220201,59.83,59.87,59.83,59.85
201903220202,59.85,59.86,59.83,59.85
201903220203,59.85,59.86,59.84,59.85
201903220204,59.85,59.86,59.85,59.86
201903220205,59.86,59.89,59.84,59.89
201903220206,59.89,59.91,59.85,59.91
201903220207,59.91,59.91,59.88,59.89
201903220208,59.89,59.9,59.89,59.89
201903220209,59.89,59.93,59.89,59.92
201903220210,59.92,59.93,59.92,59.92
201903220211,59.92,59.94,59.92,59.93
201903220212,59.93,59.93,59.92,59.92
201903220213,59.92,59.94,59.92,59.93
201903220214,59.93,59.94,59.91,59.91
201903220215,59.91,59.92,59.9,59.9
201903220216,59.9,59.92,59.9,59.91
201903220217,59.91,59.91,59.88,59.88
201903220218,59.88,59.89,59.87,59.88
201903220219,59.88,59.88,59.87,59.87
201903220220,59.87,59.88,59.86,59.88
201903220221,59.88,59.9,59.87,59.9
201903220222,59.9,59.91,59.9,59.9
201903220223,59.9,59.92,59.9,59.92
201903220224,59.92,59.94,59.92,59.93
201903220225,59.93,59.94,59.92,59.92
201903220226,59.92,59.94,59.92,59.94
201903220227,59.94,59.94,59.93,59.94
201903220228,59.94,59.96,59.93,59.94
201903220229,59.94,59.95,59.92,59.92
201903220230,59.93,59.93,59.91,59.93
201903220231,59.93,59.98,59.93,59.95
201903220232,59.95,59.96,59.94,59.96
201903220233,59.96,59.99,59.95,59.99
201903220234,59.99,60.01,59.97,59.98
201903220235,59.98,59.99,59.95,59.98
201903220236,59.98,59.99,59.97,59.98
201903220237,59.98,60.02,59.97,60.01
201903220238,60.01,60.03,60.01,60.02
201903220239,60.02,60.03,60.02,60.03
201903220240,60.03,60.05,60.02,60.04
201903220241,60.04,60.05,60.03,60.04
201903220242,60.04,60.05,60.04,60.05
201903220243,60.05,60.09,60.03,60.03
201903220244,60.03,60.06,60,60.04
201903220245,60.04,60.05,60,60.01
201903220246,60.01,60.01,59.98,60
201903220247,59.99,60,59.97,59.99
201903220248,59.99,60.06,59.99,60.05
201903220249,60.05,60.07,60.04,60.05
201903220250,60.05,60.09,60.05,60.06
201903220251,60.06,60.07,60.05,60.06
201903220252,60.06,60.08,60.05,60.07
201903220253,60.07,60.08,60.06,60.07
201903220254,60.07,60.08,60.06,60.08
201903220255,60.08,60.11,60.07,60.09
201903220256,60.09,60.1,60.09,60.1
201903220257,60.1,60.15,60.1,60.15
201903220258,60.15,60.2,60.15,60.19
201903220259,60.19,60.21,60.18,60.21
201903220300,60.21,60.23,60.16,60.18
201903220301,60.18,60.19,60.16,60.17
201903220302,60.17,60.18,60.14,60.15
201903220303,60.15,60.16,60.14,60.15
201903220304,60.15,60.15,60.13,60.14
201903220305,60.14,60.15,60.12,60.15
201903220306,60.15,60.17,60.15,60.16
201903220307,60.16,60.18,60.16,60.17
201903220308,60.17,60.19,60.17,60.18
201903220309,60.18,60.21,60.18,60.18
201903220310,60.18,60.21,60.18,60.18
201903220311,60.18,60.21,60.18,60.21
201903220312,60.21,60.21,60.18,60.2
201903220313,60.2,60.23,60.2,60.23
201903220314,60.23,60.23,60.21,60.21
201903220315,60.21,60.22,60.14,60.16
201903220316,60.17,60.17,60.14,60.16
201903220317,60.16,60.19,60.16,60.18
201903220318,60.18,60.19,60.12,60.15
201903220319,60.15,60.16,60.09,60.09
201903220320,60.09,60.15,60.08,60.1
201903220321,60.1,60.1,60.05,60.07
201903220322,60.07,60.1,60.06,60.07
201903220323,60.07,60.11,60.06,60.11
201903220324,60.12,60.15,60.07,60.1
201903220325,60.1,60.11,60.06,60.09
201903220326,60.09,60.14,60.08,60.13
201903220327,60.13,60.17,60.08,60.08
201903220328,60.08,60.08,59.91,59.92
201903220329,59.92,59.97,59.91,59.95
201903220330,59.95,59.99,59.91,59.93
201903220331,59.93,59.93,59.89,59.91
201903220332,59.91,59.93,59.89,59.91
201903220333,59.91,59.93,59.91,59.93
201903220334,59.94,59.94,59.87,59.9
201903220335,59.9,59.91,59.87,59.87
201903220336,59.87,59.9,59.87,59.87
201903220337,59.87,59.9,59.87,59.88
201903220338,59.89,59.89,59.87,59.87
201903220339,59.87,59.89,59.87,59.88
201903220340,59.88,59.88,59.87,59.88
201903220341,59.88,59.9,59.88,59.89
201903220342,59.89,59.91,59.89,59.91
201903220343,59.91,59.93,59.9,59.93
201903220344,59.93,59.93,59.93,59.93
201903220345,59.93,59.93,59.9,59.92
201903220346,59.92,59.92,59.9,59.9
201903220347,59.9,59.92,59.9,59.91
201903220348,59.91,59.92,59.91,59.92
201903220349,59.92,59.92,59.91,59.92
201903220350,59.92,59.94,59.91,59.94
201903220351,59.94,59.94,59.92,59.93
201903220352,59.93,59.93,59.92,59.93
201903220353,59.93,59.94,59.93,59.94
201903220354,59.94,59.94,59.93,59.93
201903220355,59.93,59.93,59.92,59.92
201903220356,59.92,59.92,59.89,59.89
201903220357,59.89,59.9,59.88,59.89
201903220358,59.89,59.9,59.87,59.88
201903220359,59.88,59.88,59.87,59.87
201903220400,59.87,59.87,59.85,59.87
201903220401,59.87,59.88,59.84,59.86
201903220402,59.86,59.87,59.86,59.86
201903220403,59.86,59.87,59.86,59.87
201903220404,59.87,59.87,59.86,59.87
201903220405,59.87,59.88,59.87,59.87
201903220406,59.87,59.88,59.87,59.88
201903220407,59.88,59.89,59.88,59.88
201903220408,59.88,59.91,59.88,59.88
201903220409,59.88,59.88,59.86,59.86
201903220410,59.86,59.87,59.86,59.86
201903220411,59.86,59.86,59.84,59.85
201903220412,59.85,59.85,59.81,59.81
201903220413,59.81,59.81,59.79,59.8
201903220414,59.8,59.82,59.79,59.81
201903220415,59.81,59.84,59.8,59.82
201903220416,59.82,59.84,59.81,59.83
201903220417,59.83,59.84,59.82,59.83
201903220418,59.83,59.84,59.82,59.82
201903220419,59.82,59.86,59.82,59.86
201903220420,59.85,59.86,59.85,59.85
201903220421,59.85,59.85,59.84,59.85
201903220422,59.85,59.85,59.85,59.85
201903220423,59.85,59.86,59.85,59.86
201903220424,59.86,59.87,59.85,59.86
201903220425,59.86,59.87,59.86,59.86
201903220426,59.86,59.86,59.84,59.85
201903220427,59.85,59.85,59.82,59.83
201903220428,59.83,59.85,59.82,59.84
201903220429,59.84,59.85,59.84,59.84
201903220430,59.84,59.85,59.84,59.85
201903220431,59.85,59.85,59.84,59.84
201903220432,59.84,59.84,59.82,59.84
201903220433,59.84,59.84,59.83,59.84
201903220434,59.84,59.84,59.82,59.83
201903220435,59.83,59.83,59.83,59.83
201903220436,59.83,59.83,59.8,59.81
201903220437,59.81,59.82,59.8,59.82
201903220438,59.82,59.83,59.82,59.82
201903220439,59.82,59.83,59.81,59.81
201903220440,59.81,59.82,59.8,59.8
201903220441,59.8,59.81,59.8,59.8
201903220442,59.8,59.81,59.8,59.8
201903220443,59.8,59.81,59.79,59.8
201903220444,59.8,59.84,59.8,59.84
201903220445,59.84,59.85,59.83,59.83
201903220446,59.83,59.84,59.78,59.82
201903220447,59.82,59.82,59.8,59.81
201903220448,59.81,59.81,59.8,59.81
201903220449,59.81,59.81,59.8,59.8
201903220450,59.8,59.81,59.8,59.81
201903220451,59.81,59.82,59.81,59.82
201903220452,59.82,59.83,59.81,59.83
201903220453,59.83,59.84,59.82,59.82
201903220454,59.82,59.83,59.82,59.82
201903220455,59.82,59.82,59.81,59.82
201903220456,59.82,59.82,59.81,59.82
201903220457,59.82,59.83,59.82,59.83
201903220458,59.83,59.85,59.82,59.85
201903220459,59.85,59.85,59.81,59.82
201903220500,59.82,59.84,59.82,59.84
201903220501,59.84,59.86,59.84,59.85
201903220502,59.85,59.86,59.85,59.86
201903220503,59.86,59.87,59.86,59.86
201903220504,59.86,59.88,59.86,59.87
201903220505,59.87,59.88,59.87,59.87
201903220506,59.87,59.88,59.87,59.87
201903220507,59.87,59.87,59.87,59.87
201903220508,59.87,59.87,59.86,59.86
201903220509,59.86,59.86,59.85,59.86
201903220510,59.86,59.86,59.84,59.84
201903220511,59.84,59.85,59.84,59.85
201903220512,59.85,59.86,59.85,59.85
201903220513,59.85,59.86,59.85,59.86
201903220514,59.86,59.86,59.85,59.85
201903220515,59.85,59.85,59.85,59.85
201903220516,59.85,59.86,59.85,59.85
201903220517,59.85,59.87,59.85,59.86
201903220518,59.86,59.86,59.85,59.85
201903220519,59.85,59.85,59.82,59.83
201903220520,59.83,59.85,59.83,59.85
201903220521,59.85,59.86,59.85,59.85
201903220522,59.85,59.86,59.85,59.86
201903220523,59.86,59.86,59.86,59.86
201903220524,59.86,59.86,59.85,59.86
201903220525,59.86,59.87,59.86,59.87
201903220526,59.87,59.87,59.86,59.86
201903220527,59.86,59.86,59.86,59.86
201903220528,59.86,59.87,59.86,59.86
201903220529,59.86,59.87,59.86,59.87
201903220530,59.87,59.87,59.84,59.86
201903220531,59.87,59.87,59.86,59.87
201903220532,59.87,59.87,59.85,59.86
201903220533,59.86,59.86,59.86,59.86
201903220534,59.86,59.87,59.86,59.86
201903220535,59.86,59.87,59.86,59.86
201903220536,59.86,59.86,59.85,59.85
201903220537,59.85,59.86,59.85,59.86
201903220538,59.86,59.87,59.86,59.86
201903220539,59.86,59.86,59.83,59.83
201903220540,59.83,59.83,59.83,59.83
201903220541,59.83,59.83,59.8,59.8
201903220542,59.8,59.8,59.79,59.8
201903220543,59.8,59.8,59.8,59.8
201903220544,59.8,59.8,59.79,59.8
201903220545,59.8,59.8,59.79,59.79
201903220546,59.79,59.8,59.79,59.8
201903220547,59.8,59.81,59.8,59.8
201903220548,59.8,59.83,59.8,59.83
201903220549,59.83,59.83,59.83,59.83
201903220550,59.83,59.83,59.82,59.83
201903220551,59.83,59.83,59.81,59.82
201903220552,59.82,59.82,59.81,59.81
201903220553,59.81,59.82,59.81,59.82
201903220554,59.82,59.82,59.82,59.82
201903220555,59.82,59.83,59.81,59.82
201903220556,59.82,59.85,59.82,59.84
201903220557,59.84,59.85,59.84,59.85
201903220558,59.85,59.87,59.84,59.86
201903220559,59.86,59.86,59.85,59.86
