日時,始値(BID),高値(BID),安値(BID),終値(BID)
201912020800,1464.1,1464.1,1462.3,1463.1
201912020801,1463.1,1463.1,1462.5,1462.5
201912020802,1462.5,1462.7,1462.1,1462.2
201912020803,1462.2,1462.5,1462.2,1462.5
201912020804,1462.5,1462.5,1462.4,1462.5
201912020805,1462.5,1462.5,1462.3,1462.3
201912020806,1462.3,1462.3,1461.8,1461.9
201912020807,1461.9,1462,1461.8,1461.9
201912020808,1461.9,1462.1,1461.9,1462
201912020809,1462,1462.1,1462,1462
201912020810,1462,1462.1,1461.8,1461.8
201912020811,1461.8,1461.9,1461.8,1461.9
201912020812,1461.9,1461.9,1461.7,1461.7
201912020813,1461.7,1461.8,1461.7,1461.8
201912020814,1461.8,1461.8,1461.8,1461.8
201912020815,1461.8,1461.8,1461.6,1461.6
201912020816,1461.6,1461.6,1461.5,1461.5
201912020817,1461.5,1461.5,1461.5,1461.5
201912020818,1461.5,1461.9,1461.5,1461.9
201912020819,1462,1462.1,1461.9,1462.1
201912020820,1462.1,1462.1,1461.9,1462.1
201912020821,1462.1,1462.2,1462.1,1462.1
201912020822,1462.1,1462.4,1462.1,1462.3
201912020823,1462.3,1462.3,1462.1,1462.2
201912020824,1462.2,1462.3,1462.1,1462.1
201912020825,1462.1,1462.2,1461.9,1461.9
201912020826,1461.9,1461.9,1461.8,1461.8
201912020827,1461.8,1462.1,1461.8,1462.1
201912020828,1462.1,1462.3,1462.1,1462.2
201912020829,1462.2,1462.2,1462.1,1462.1
201912020830,1462.1,1462.3,1462.1,1462.1
201912020831,1462.1,1462.2,1462,1462.1
201912020832,1462.1,1462.3,1462.1,1462.3
201912020833,1462.3,1462.3,1462.2,1462.2
201912020834,1462.2,1462.2,1462.1,1462.1
201912020835,1462.1,1462.1,1462.1,1462.1
201912020836,1462.1,1462.3,1462,1462
201912020837,1462,1462.1,1462,1462
201912020838,1462,1462.3,1462,1462.3
201912020839,1462.3,1462.3,1462.2,1462.2
201912020840,1462.2,1462.4,1462.2,1462.4
201912020841,1462.4,1462.4,1462.2,1462.2
201912020842,1462.2,1462.2,1462.1,1462.2
201912020843,1462.2,1462.2,1462.1,1462.1
201912020844,1462.1,1462.2,1462,1462.1
201912020845,1462.1,1462.1,1461.6,1461.8
201912020846,1461.8,1461.9,1461.8,1461.8
201912020847,1461.8,1461.9,1461.7,1461.9
201912020848,1461.9,1461.9,1461.8,1461.9
201912020849,1461.9,1461.9,1461.8,1461.8
201912020850,1461.8,1461.8,1461.7,1461.8
201912020851,1461.8,1461.8,1461.7,1461.7
201912020852,1461.7,1461.8,1461.6,1461.8
201912020853,1461.8,1461.8,1461.8,1461.8
201912020854,1461.8,1461.9,1461.7,1461.8
201912020855,1461.8,1461.9,1461.8,1461.8
201912020856,1461.8,1461.9,1461.8,1461.9
201912020857,1461.9,1462,1461.8,1461.8
201912020858,1461.8,1461.8,1461.7,1461.7
201912020859,1461.7,1461.9,1461.7,1461.7
201912020900,1461.7,1461.7,1461.3,1461.4
201912020901,1461.4,1461.4,1461.2,1461.2
201912020902,1461.3,1461.3,1461.2,1461.2
201912020903,1461.2,1461.2,1460.9,1461
201912020904,1461,1461,1460.8,1460.9
201912020905,1460.9,1460.9,1460.5,1460.7
201912020906,1460.7,1460.8,1460.6,1460.8
201912020907,1460.8,1460.9,1460.5,1460.7
201912020908,1460.7,1460.8,1460.4,1460.4
201912020909,1460.4,1460.5,1460.3,1460.5
201912020910,1460.5,1460.5,1460.2,1460.3
201912020911,1460.3,1460.4,1460.2,1460.4
201912020912,1460.4,1460.4,1460.1,1460.1
201912020913,1460.1,1460.4,1460.1,1460.4
201912020914,1460.4,1460.4,1460.2,1460.2
201912020915,1460.2,1460.5,1460.2,1460.5
201912020916,1460.5,1460.5,1460.2,1460.2
201912020917,1460.2,1460.3,1460.2,1460.2
201912020918,1460.2,1460.2,1459.9,1460.1
201912020919,1460.1,1460.1,1460,1460
201912020920,1460,1460.1,1459.9,1460.1
201912020921,1460.1,1460.2,1460.1,1460.1
201912020922,1460.1,1460.2,1460.1,1460.1
201912020923,1460.1,1460.2,1460,1460.2
201912020924,1460.2,1460.5,1460.2,1460.4
201912020925,1460.4,1460.5,1460.4,1460.4
201912020926,1460.4,1460.6,1460.4,1460.5
201912020927,1460.5,1460.5,1460.3,1460.4
201912020928,1460.4,1460.4,1460.3,1460.3
201912020929,1460.3,1460.3,1460,1460.1
201912020930,1460.1,1460.2,1460,1460
201912020931,1460,1460,1459.9,1459.9
201912020932,1459.9,1460,1459.9,1460
201912020933,1460,1460,1459.9,1460
201912020934,1460,1460.1,1460,1460.1
201912020935,1460.1,1460.1,1460,1460.1
201912020936,1460.1,1460.1,1459.9,1460
201912020937,1460.1,1460.1,1460,1460.1
201912020938,1460.1,1460.2,1459.9,1460
201912020939,1460,1460,1460,1460
201912020940,1460,1460.1,1459.9,1459.9
201912020941,1459.9,1460.2,1459.9,1460.2
201912020942,1460.2,1460.4,1460.2,1460.4
201912020943,1460.4,1460.5,1460.3,1460.4
201912020944,1460.4,1460.4,1460.3,1460.4
201912020945,1460.4,1460.4,1460.2,1460.3
201912020946,1460.3,1460.4,1460.3,1460.4
201912020947,1460.4,1460.4,1460.1,1460.2
201912020948,1460.2,1460.4,1460.2,1460.4
201912020949,1460.4,1460.6,1460.4,1460.5
201912020950,1460.5,1460.5,1460.5,1460.5
201912020951,1460.5,1460.5,1460.3,1460.5
201912020952,1460.5,1460.9,1460.5,1460.9
201912020953,1460.9,1461.1,1460.8,1461.1
201912020954,1461.1,1461.3,1461.1,1461.2
201912020955,1461.2,1461.2,1461,1461
201912020956,1461,1461,1460.9,1461
201912020957,1461,1461.1,1461,1461.1
201912020958,1461.1,1461.1,1461.1,1461.1
201912020959,1461.1,1461.1,1461.1,1461.1
201912021000,1461.1,1461.5,1460.1,1460.4
201912021001,1460.4,1460.9,1460.3,1460.8
201912021002,1460.8,1460.8,1460.4,1460.7
201912021003,1460.7,1460.7,1460.2,1460.4
201912021004,1460.4,1460.7,1460.4,1460.7
201912021005,1460.7,1460.9,1460.6,1460.7
201912021006,1460.7,1460.9,1460.7,1460.8
201912021007,1460.8,1460.9,1460.7,1460.7
201912021008,1460.7,1460.8,1460.6,1460.8
201912021009,1460.8,1460.9,1460.7,1460.9
201912021010,1460.9,1460.9,1460.6,1460.6
201912021011,1460.6,1460.6,1460.4,1460.6
201912021012,1460.6,1460.7,1460.5,1460.5
201912021013,1460.5,1460.5,1460.3,1460.5
201912021014,1460.5,1460.7,1460.4,1460.5
201912021015,1460.5,1460.5,1460.3,1460.3
201912021016,1460.3,1460.6,1460.3,1460.6
201912021017,1460.7,1460.7,1460.3,1460.3
201912021018,1460.3,1460.6,1460.3,1460.6
201912021019,1460.6,1460.6,1460.4,1460.5
201912021020,1460.5,1460.7,1460.5,1460.6
201912021021,1460.6,1460.6,1460.5,1460.6
201912021022,1460.6,1460.7,1460.6,1460.6
201912021023,1460.6,1460.6,1460.5,1460.5
201912021024,1460.5,1460.5,1460.4,1460.4
201912021025,1460.4,1460.6,1460.4,1460.6
201912021026,1460.6,1460.6,1460.5,1460.5
201912021027,1460.4,1460.4,1460.4,1460.4
201912021028,1460.4,1460.4,1460.4,1460.4
201912021029,1460.4,1460.6,1460.4,1460.5
201912021030,1460.5,1460.6,1460.5,1460.6
201912021031,1460.6,1460.7,1460.6,1460.7
201912021032,1460.7,1460.7,1460.6,1460.7
201912021033,1460.7,1460.9,1460.4,1460.5
201912021034,1460.5,1460.7,1460.3,1460.7
201912021035,1460.6,1460.7,1460.5,1460.6
201912021036,1460.6,1460.7,1460.5,1460.7
201912021037,1460.7,1460.7,1460.7,1460.7
201912021038,1460.7,1460.7,1460.6,1460.7
201912021039,1460.7,1460.8,1460.7,1460.8
201912021040,1460.8,1460.9,1460.8,1460.9
201912021041,1460.9,1460.9,1460.7,1460.8
201912021042,1460.8,1460.8,1460.7,1460.8
201912021043,1460.8,1460.9,1460.7,1460.8
201912021044,1460.8,1460.8,1460.6,1460.7
201912021045,1460.7,1460.7,1460.6,1460.6
201912021046,1460.6,1460.6,1460.2,1460.4
201912021047,1460.4,1460.6,1460.2,1460.2
201912021048,1460.2,1460.2,1460,1460.1
201912021049,1460.1,1460.3,1460.1,1460.3
201912021050,1460.3,1460.3,1460.2,1460.3
201912021051,1460.3,1460.3,1460.2,1460.3
201912021052,1460.3,1460.3,1460.1,1460.1
201912021053,1460.1,1460.2,1460,1460.1
201912021054,1460.1,1460.2,1460.1,1460.1
201912021055,1460.1,1460.3,1460.1,1460.3
201912021056,1460.3,1460.5,1460.3,1460.4
201912021057,1460.4,1460.5,1460.4,1460.5
201912021058,1460.5,1460.5,1460.4,1460.5
201912021059,1460.5,1460.5,1460.5,1460.5
201912021100,1460.5,1460.7,1460.4,1460.6
201912021101,1460.6,1460.7,1460.5,1460.5
201912021102,1460.5,1460.5,1460.4,1460.5
201912021103,1460.5,1460.5,1460.3,1460.3
201912021104,1460.3,1460.3,1460.2,1460.2
201912021105,1460.2,1460.3,1460.2,1460.2
201912021106,1460.2,1460.2,1460.1,1460.1
201912021107,1460.1,1460.2,1460.1,1460.2
201912021108,1460.2,1460.2,1460.1,1460.2
201912021109,1460.2,1460.3,1460.2,1460.2
201912021110,1460.2,1460.3,1460.2,1460.2
201912021111,1460.2,1460.3,1460.2,1460.3
201912021112,1460.3,1460.3,1460.1,1460.1
201912021113,1460.1,1460.3,1460.1,1460.2
201912021114,1460.2,1460.2,1460,1460
201912021115,1460,1460.2,1460,1460.2
201912021116,1460.2,1460.2,1460.1,1460.1
201912021117,1460.1,1460.1,1460,1460
201912021118,1460,1460.2,1460,1460.1
201912021119,1460.1,1460.2,1460.1,1460.1
201912021120,1460.1,1460.2,1460.1,1460.1
201912021121,1460.1,1460.1,1459.9,1460
201912021122,1460,1460.1,1460,1460
201912021123,1460,1460,1460,1460
201912021124,1460,1460,1459.7,1459.8
201912021125,1459.8,1460.1,1459.8,1459.9
201912021126,1459.9,1459.9,1459.7,1459.7
201912021127,1459.7,1459.8,1459.6,1459.7
201912021128,1459.7,1459.8,1459.6,1459.7
201912021129,1459.7,1459.8,1459.6,1459.6
201912021130,1459.6,1459.8,1459.6,1459.8
201912021131,1459.8,1459.8,1459.7,1459.8
201912021132,1459.8,1459.8,1459.6,1459.6
201912021133,1459.5,1459.6,1459.5,1459.6
201912021134,1459.6,1459.6,1459.5,1459.5
201912021135,1459.5,1459.6,1459.4,1459.4
201912021136,1459.5,1459.5,1459.4,1459.5
201912021137,1459.5,1459.7,1459.5,1459.6
201912021138,1459.6,1459.7,1459.6,1459.7
201912021139,1459.7,1459.7,1459.7,1459.7
201912021140,1459.8,1459.8,1459.7,1459.7
201912021141,1459.7,1459.8,1459.6,1459.7
201912021142,1459.7,1459.7,1459.6,1459.7
201912021143,1459.7,1459.8,1459.5,1459.5
201912021144,1459.5,1459.6,1459.4,1459.6
201912021145,1459.6,1459.6,1459.5,1459.5
201912021146,1459.5,1459.5,1459.3,1459.4
201912021147,1459.4,1459.4,1459.3,1459.3
201912021148,1459.3,1459.5,1459.3,1459.4
201912021149,1459.4,1459.4,1459.2,1459.3
201912021150,1459.3,1459.3,1459.3,1459.3
201912021151,1459.3,1459.3,1459.3,1459.3
201912021152,1459.4,1459.4,1459.3,1459.4
201912021153,1459.4,1459.5,1459.4,1459.4
201912021154,1459.4,1459.4,1459.4,1459.4
201912021155,1459.4,1459.4,1459.3,1459.3
201912021156,1459.3,1459.4,1459.3,1459.3
201912021157,1459.3,1459.4,1459.3,1459.4
201912021158,1459.4,1459.6,1459.4,1459.6
201912021159,1459.6,1459.6,1459.5,1459.6
201912021200,1459.5,1459.6,1459.5,1459.6
201912021201,1459.6,1459.6,1459.5,1459.5
201912021202,1459.5,1459.5,1459.5,1459.5
201912021203,1459.5,1459.5,1459.5,1459.5
201912021204,1459.5,1459.6,1459.5,1459.6
201912021205,1459.6,1459.6,1459.6,1459.6
201912021206,1459.6,1459.7,1459.6,1459.7
201912021207,1459.7,1459.8,1459.7,1459.8
201912021208,1459.8,1459.8,1459.8,1459.8
201912021209,1459.8,1459.8,1459.7,1459.8
201912021210,1459.8,1459.8,1459.6,1459.7
201912021211,1459.8,1459.8,1459.7,1459.7
201912021212,1459.7,1459.7,1459.7,1459.7
201912021213,1459.7,1460,1459.7,1460
201912021214,1459.9,1460,1459.9,1460
201912021215,1460,1460.1,1460,1460
201912021216,1460,1460,1460,1460
201912021217,1460,1460,1459.8,1459.9
201912021218,1459.9,1459.9,1459.9,1459.9
201912021219,1459.9,1459.9,1459.8,1459.8
201912021220,1459.8,1459.8,1459.7,1459.8
201912021221,1459.8,1459.8,1459.8,1459.8
201912021222,1459.8,1459.9,1459.8,1459.8
201912021223,1459.8,1459.8,1459.7,1459.7
201912021224,1459.7,1459.7,1459.6,1459.7
201912021225,1459.7,1459.7,1459.6,1459.7
201912021226,1459.7,1459.7,1459.6,1459.7
201912021227,1459.7,1459.7,1459.6,1459.6
201912021228,1459.6,1459.6,1459.6,1459.6
201912021229,1459.6,1459.6,1459.4,1459.4
201912021230,1459.4,1459.5,1459.4,1459.4
201912021231,1459.4,1459.4,1459.2,1459.2
201912021232,1459.2,1459.2,1459.2,1459.2
201912021233,1459.2,1459.3,1459.2,1459.2
201912021234,1459.2,1459.3,1459.2,1459.2
201912021235,1459.2,1459.3,1459,1459.1
201912021236,1459.1,1459.1,1459,1459.1
201912021237,1459.1,1459.1,1459,1459.1
201912021238,1459.1,1459.1,1459.1,1459.1
201912021239,1459.1,1459.3,1459.1,1459.3
201912021240,1459.3,1459.3,1459.2,1459.3
201912021241,1459.3,1459.4,1459.3,1459.4
201912021242,1459.4,1459.4,1459.3,1459.4
201912021243,1459.4,1459.4,1459.4,1459.4
201912021244,1459.4,1459.4,1459.3,1459.4
201912021245,1459.4,1459.4,1459.2,1459.3
201912021246,1459.3,1459.3,1459.2,1459.2
201912021247,1459.2,1459.2,1459.1,1459.1
201912021248,1459.1,1459.2,1459.1,1459.1
201912021249,1459.1,1459.2,1459.1,1459.1
201912021250,1459.1,1459.3,1459.1,1459.3
201912021251,1459.3,1459.3,1459.1,1459.1
201912021252,1459.1,1459.3,1459.1,1459.1
201912021253,1459.1,1459.1,1458.8,1458.9
201912021254,1458.9,1458.9,1458.7,1458.7
201912021255,1458.7,1458.8,1458.7,1458.8
201912021256,1458.8,1458.8,1458.8,1458.8
201912021257,1458.8,1458.9,1458.8,1458.8
201912021258,1458.9,1458.9,1458.9,1458.9
201912021259,1458.9,1459,1458.8,1458.9
201912021300,1458.9,1459.1,1458.9,1459
201912021301,1459,1459.1,1459,1459
201912021302,1459,1459,1459,1459
201912021303,1459,1459,1459,1459
201912021304,1459,1459,1458.9,1458.9
201912021305,1458.9,1458.9,1458.9,1458.9
201912021306,1458.9,1458.9,1458.8,1458.8
201912021307,1458.8,1458.8,1458.8,1458.8
201912021308,1458.8,1458.8,1458.8,1458.8
201912021309,1458.8,1458.9,1458.8,1458.9
201912021310,1458.9,1458.9,1458.9,1458.9
201912021311,1458.9,1459,1458.9,1458.9
201912021312,1458.9,1459,1458.9,1459
201912021313,1459,1459,1458.9,1458.9
201912021314,1458.9,1458.9,1458.9,1458.9
201912021315,1458.9,1459,1458.9,1459
201912021316,1459,1459.2,1459,1459.1
201912021317,1459.1,1459.1,1459,1459
201912021318,1459,1459,1459,1459
201912021319,1459,1459.3,1459,1459.3
201912021320,1459.3,1459.3,1459.2,1459.2
201912021321,1459.2,1459.3,1459.2,1459.2
201912021322,1459.2,1459.4,1459.2,1459.4
201912021323,1459.3,1459.4,1459.3,1459.4
201912021324,1459.4,1459.4,1459.3,1459.4
201912021325,1459.4,1459.4,1459.3,1459.3
201912021326,1459.3,1459.4,1459.3,1459.4
201912021327,1459.4,1459.5,1459.4,1459.5
201912021328,1459.5,1459.5,1459.5,1459.5
201912021329,1459.5,1459.5,1459.4,1459.4
201912021330,1459.4,1459.4,1459.4,1459.4
201912021331,1459.4,1459.4,1459.2,1459.2
201912021332,1459.2,1459.3,1459.2,1459.3
201912021333,1459.3,1459.3,1459.2,1459.2
201912021334,1459.2,1459.3,1459.2,1459.3
201912021335,1459.3,1459.3,1459.2,1459.2
201912021336,1459.2,1459.3,1459.2,1459.3
201912021337,1459.3,1459.3,1459.3,1459.3
201912021338,1459.3,1459.3,1459.3,1459.3
201912021339,1459.3,1459.3,1459.3,1459.3
201912021340,1459.3,1459.4,1459.2,1459.3
201912021341,1459.3,1459.3,1459.3,1459.3
201912021342,1459.3,1459.4,1459.3,1459.4
201912021343,1459.4,1459.5,1459.3,1459.5
201912021344,1459.4,1459.4,1459.4,1459.4
201912021345,1459.4,1459.4,1459.3,1459.4
201912021346,1459.4,1459.5,1459.4,1459.4
201912021347,1459.4,1459.5,1459.4,1459.4
201912021348,1459.4,1459.4,1459.3,1459.3
201912021349,1459.3,1459.4,1459.3,1459.3
201912021350,1459.3,1459.4,1459.3,1459.4
201912021351,1459.4,1459.4,1459.4,1459.4
201912021352,1459.4,1459.4,1459.4,1459.4
201912021353,1459.4,1459.5,1459.4,1459.4
201912021354,1459.4,1459.5,1459.4,1459.5
201912021355,1459.5,1459.5,1459.4,1459.4
201912021356,1459.5,1459.5,1459.5,1459.5
201912021357,1459.5,1459.5,1459.5,1459.5
201912021358,1459.5,1459.6,1459.5,1459.5
201912021359,1459.5,1459.5,1459.5,1459.5
201912021400,1459.5,1459.5,1459.4,1459.4
201912021401,1459.4,1459.4,1459.4,1459.4
201912021402,1459.4,1459.6,1459.4,1459.5
201912021403,1459.5,1459.8,1459.5,1459.8
201912021404,1459.8,1459.8,1459.8,1459.8
201912021405,1459.8,1459.8,1459.7,1459.8
201912021406,1459.8,1459.9,1459.8,1459.8
201912021407,1459.8,1459.9,1459.8,1459.9
201912021408,1459.9,1460,1459.9,1460
201912021409,1460,1460,1459.9,1460
201912021410,1460,1460,1460,1460
201912021411,1460,1460,1460,1460
201912021412,1460,1460,1460,1460
201912021413,1460,1460,1460,1460
201912021414,1460,1460,1460,1460
201912021415,1460,1460,1459.9,1459.9
201912021416,1459.9,1459.9,1459.9,1459.9
201912021417,1459.9,1459.9,1459.9,1459.9
201912021418,1459.9,1459.9,1459.9,1459.9
201912021419,1459.9,1460,1459.9,1460
201912021420,1460,1460,1459.9,1459.9
201912021421,1459.9,1459.9,1459.9,1459.9
201912021422,1459.9,1459.9,1459.9,1459.9
201912021423,1459.9,1459.9,1459.9,1459.9
201912021424,1459.9,1459.9,1459.9,1459.9
201912021425,1459.9,1460,1459.9,1460
201912021426,1460,1460.2,1460,1460.2
201912021427,1460.2,1460.2,1460.1,1460.2
201912021428,1460.2,1460.2,1460.1,1460.2
201912021429,1460.2,1460.3,1460.2,1460.2
201912021430,1460.2,1460.2,1460.1,1460.2
201912021431,1460.2,1460.3,1460.2,1460.3
201912021432,1460.3,1460.3,1460.2,1460.2
201912021433,1460.2,1460.3,1460.2,1460.2
201912021434,1460.2,1460.3,1460.2,1460.3
201912021435,1460.3,1460.3,1460.3,1460.3
201912021436,1460.3,1460.3,1460.1,1460.1
201912021437,1460.1,1460.2,1460.1,1460.1
201912021438,1460.1,1460.1,1460,1460
201912021439,1460,1460.1,1460,1460.1
201912021440,1460.1,1460.1,1460.1,1460.1
201912021441,1460.1,1460.1,1460,1460
201912021442,1460,1460,1460,1460
201912021443,1460,1460,1459.9,1459.9
201912021444,1459.9,1459.9,1459.8,1459.8
201912021445,1459.8,1459.8,1459.7,1459.8
201912021446,1459.8,1459.9,1459.8,1459.9
201912021447,1459.9,1459.9,1459.7,1459.8
201912021448,1459.8,1459.9,1459.8,1459.9
201912021449,1459.9,1459.9,1459.9,1459.9
201912021450,1459.9,1459.9,1459.8,1459.8
201912021451,1459.8,1459.8,1459.8,1459.8
201912021452,1459.8,1459.8,1459.8,1459.8
201912021453,1459.8,1459.8,1459.7,1459.7
201912021454,1459.7,1459.7,1459.6,1459.6
201912021455,1459.6,1459.8,1459.6,1459.6
201912021456,1459.6,1459.6,1459.6,1459.6
201912021457,1459.6,1459.6,1459.6,1459.6
201912021458,1459.6,1459.7,1459.6,1459.7
201912021459,1459.7,1459.7,1459.5,1459.5
201912021500,1459.5,1459.5,1459.1,1459.1
201912021501,1459.1,1459.4,1459.1,1459.4
201912021502,1459.4,1459.4,1459.4,1459.4
201912021503,1459.4,1459.5,1459.4,1459.5
201912021504,1459.5,1459.5,1459.4,1459.4
201912021505,1459.4,1459.4,1459.3,1459.3
201912021506,1459.3,1459.3,1459.2,1459.3
201912021507,1459.3,1459.3,1459.2,1459.2
201912021508,1459.2,1459.3,1459.2,1459.2
201912021509,1459.2,1459.2,1459,1459.1
201912021510,1459.1,1459.1,1459.1,1459.1
201912021511,1459.1,1459.1,1459.1,1459.1
201912021512,1459.1,1459.1,1459,1459.1
201912021513,1459.1,1459.3,1459.1,1459.2
201912021514,1459.2,1459.3,1459.2,1459.3
201912021515,1459.3,1459.4,1459.3,1459.4
201912021516,1459.4,1459.4,1459.2,1459.2
201912021517,1459.2,1459.2,1459.1,1459.1
201912021518,1459.1,1459.1,1459.1,1459.1
201912021519,1459.1,1459.1,1459.1,1459.1
201912021520,1459.1,1459.2,1459.1,1459.1
201912021521,1459.1,1459.2,1459.1,1459.2
201912021522,1459.2,1459.3,1459.2,1459.2
201912021523,1459.2,1459.3,1459.2,1459.3
201912021524,1459.3,1459.3,1459.2,1459.3
201912021525,1459.3,1459.3,1459.3,1459.3
201912021526,1459.3,1459.3,1459.3,1459.3
201912021527,1459.3,1459.3,1459.2,1459.2
201912021528,1459.2,1459.4,1459.2,1459.4
201912021529,1459.4,1459.4,1459.2,1459.2
201912021530,1459.2,1459.3,1459.2,1459.3
201912021531,1459.3,1459.3,1459.3,1459.3
201912021532,1459.3,1459.8,1459.3,1459.8
201912021533,1459.8,1459.8,1459.8,1459.8
201912021534,1459.8,1459.9,1459.8,1459.8
201912021535,1459.8,1459.8,1459.7,1459.7
201912021536,1459.7,1460,1459.7,1460
201912021537,1460,1460,1460,1460
201912021538,1460,1460.1,1460,1460
201912021539,1460,1460.1,1460,1460
201912021540,1460,1460.1,1460,1460.1
201912021541,1460.1,1460.2,1460.1,1460.2
201912021542,1460.2,1460.2,1460.1,1460.1
201912021543,1460.1,1460.1,1460,1460
201912021544,1460,1460.1,1459.9,1459.9
201912021545,1459.9,1460,1459.8,1460
201912021546,1460,1460.1,1460,1460
201912021547,1460,1460,1459.9,1459.9
201912021548,1459.9,1460,1459.9,1460
201912021549,1460,1460,1459.9,1460
201912021550,1460,1460.1,1460,1460.1
201912021551,1460.1,1460.1,1460,1460
201912021552,1460,1460.1,1459.9,1459.9
201912021553,1459.9,1460.1,1459.9,1460.1
201912021554,1460.1,1460.2,1460.1,1460.1
201912021555,1460.1,1460.2,1460.1,1460.1
201912021556,1460.1,1460.2,1460,1460.2
201912021557,1460.2,1460.2,1460.1,1460.1
201912021558,1460.1,1460.1,1460,1460
201912021559,1460,1460.1,1460,1460.1
201912021600,1460.1,1460.3,1460,1460.3
201912021601,1460.3,1460.3,1459.9,1459.9
201912021602,1459.9,1459.9,1459.7,1459.9
201912021603,1460,1460,1459.8,1459.8
201912021604,1459.8,1459.9,1459.7,1459.7
201912021605,1459.7,1459.7,1459.5,1459.5
201912021606,1459.5,1459.5,1459.2,1459.3
201912021607,1459.3,1459.3,1459.2,1459.3
201912021608,1459.3,1459.3,1459.2,1459.3
201912021609,1459.3,1459.4,1459.2,1459.3
201912021610,1459.3,1459.3,1458.9,1459
201912021611,1459,1459.1,1458.8,1458.9
201912021612,1458.9,1459,1458.7,1459
201912021613,1459,1459.1,1458.8,1459.1
201912021614,1459.1,1459.1,1458.8,1458.9
201912021615,1458.9,1458.9,1458.2,1458.4
201912021616,1458.4,1458.4,1458.2,1458.4
201912021617,1458.4,1458.8,1458.3,1458.8
201912021618,1458.8,1458.9,1458.6,1458.8
201912021619,1458.8,1458.9,1458.6,1458.9
201912021620,1458.9,1458.9,1458.3,1458.4
201912021621,1458.4,1458.6,1458.4,1458.6
201912021622,1458.6,1458.6,1458.4,1458.6
201912021623,1458.6,1458.9,1458.6,1458.8
201912021624,1458.8,1458.9,1458.7,1458.9
201912021625,1458.9,1459.2,1458.9,1459.2
201912021626,1459.2,1459.2,1458.8,1459.1
201912021627,1459.1,1459.3,1459.1,1459.3
201912021628,1459.3,1459.4,1459.2,1459.4
201912021629,1459.4,1459.5,1459.3,1459.4
201912021630,1459.4,1459.4,1459.1,1459.2
201912021631,1459.2,1459.4,1459.1,1459.4
201912021632,1459.4,1459.6,1459.4,1459.6
201912021633,1459.6,1459.6,1459.4,1459.6
201912021634,1459.6,1459.6,1459.5,1459.6
201912021635,1459.6,1459.6,1459.6,1459.6
201912021636,1459.6,1459.7,1459.5,1459.7
201912021637,1459.7,1459.7,1459.5,1459.7
201912021638,1459.7,1459.8,1459.6,1459.7
201912021639,1459.7,1459.7,1459.5,1459.6
201912021640,1459.6,1459.6,1459.2,1459.2
201912021641,1459.2,1459.2,1458.9,1459.1
201912021642,1459.1,1459.2,1458.5,1458.5
201912021643,1458.5,1458.6,1458.5,1458.6
201912021644,1458.6,1458.7,1458.3,1458.4
201912021645,1458.4,1458.7,1458.4,1458.7
201912021646,1458.7,1458.9,1458.6,1458.7
201912021647,1458.7,1458.7,1458.6,1458.6
201912021648,1458.7,1458.9,1458.5,1458.9
201912021649,1458.9,1458.9,1458.6,1458.8
201912021650,1458.8,1459.8,1458.7,1459.4
201912021651,1459.4,1459.4,1458.9,1459.1
201912021652,1459.1,1459.1,1458.8,1458.8
201912021653,1458.8,1458.8,1458.6,1458.7
201912021654,1458.7,1458.7,1458.6,1458.6
201912021655,1458.6,1458.6,1458.5,1458.6
201912021656,1458.6,1458.7,1458.5,1458.6
201912021657,1458.6,1458.8,1458.6,1458.6
201912021658,1458.6,1458.7,1458.4,1458.6
201912021659,1458.6,1458.9,1458.6,1458.8
201912021700,1458.8,1458.8,1457.8,1457.8
201912021701,1457.8,1457.8,1456.6,1456.8
201912021702,1456.8,1457.1,1456.7,1457
201912021703,1457,1457.2,1456.8,1457.1
201912021704,1457.1,1457.2,1456.8,1456.9
201912021705,1456.9,1457,1456.6,1456.8
201912021706,1456.8,1456.8,1456.1,1456.2
201912021707,1456.2,1456.4,1456.1,1456.3
201912021708,1456.3,1456.3,1455.8,1456.3
201912021709,1456.3,1456.5,1456.3,1456.3
201912021710,1456.3,1456.6,1456.1,1456.6
201912021711,1456.6,1456.7,1456.3,1456.6
201912021712,1456.6,1456.9,1456.6,1456.8
201912021713,1456.8,1456.8,1456.6,1456.7
201912021714,1456.7,1456.7,1456.4,1456.6
201912021715,1456.5,1456.5,1456,1456
201912021716,1456,1456.1,1455.7,1456
201912021717,1456,1456.3,1456,1456.1
201912021718,1456.1,1456.1,1455.9,1456
201912021719,1456,1456,1455.8,1455.9
201912021720,1455.9,1455.9,1455.8,1455.9
201912021721,1455.9,1455.9,1455.5,1455.6
201912021722,1455.6,1455.9,1455.6,1455.8
201912021723,1455.8,1456,1455.8,1456
201912021724,1456,1456,1455.3,1455.4
201912021725,1455.4,1455.5,1455.2,1455.4
201912021726,1455.4,1455.4,1455.3,1455.4
201912021727,1455.4,1455.5,1455.4,1455.5
201912021728,1455.5,1455.6,1455.4,1455.6
201912021729,1455.6,1455.6,1455.2,1455.4
201912021730,1455.4,1455.4,1455.1,1455.2
201912021731,1455.2,1455.3,1455.1,1455.1
201912021732,1455.1,1455.3,1455.1,1455.2
201912021733,1455.2,1455.4,1455.1,1455.3
201912021734,1455.3,1455.4,1455.2,1455.2
201912021735,1455.2,1455.2,1455,1455.1
201912021736,1455.1,1455.1,1455,1455
201912021737,1455.1,1455.2,1455.1,1455.1
201912021738,1455.1,1455.1,1454.8,1454.9
201912021739,1454.9,1455,1454.8,1454.9
201912021740,1454.9,1454.9,1454.7,1454.8
201912021741,1454.8,1455,1454.8,1454.8
201912021742,1454.8,1454.8,1454.7,1454.7
201912021743,1454.7,1454.7,1454.6,1454.6
201912021744,1454.7,1454.7,1454.4,1454.5
201912021745,1454.5,1454.5,1454.2,1454.2
201912021746,1454.2,1454.3,1454.1,1454.3
201912021747,1454.3,1454.4,1453.8,1454.1
201912021748,1454.1,1454.4,1454.1,1454.4
201912021749,1454.4,1454.5,1454.3,1454.4
201912021750,1454.4,1454.7,1454.3,1454.7
201912021751,1454.7,1454.8,1454.6,1454.8
201912021752,1454.8,1454.9,1454.5,1454.9
201912021753,1454.9,1454.9,1454.5,1454.9
201912021754,1454.9,1455,1454.8,1454.9
201912021755,1454.9,1455,1454.7,1454.8
201912021756,1454.8,1455.2,1454.8,1455.1
201912021757,1455.1,1455.2,1455,1455
201912021758,1455,1455.5,1454.9,1455.4
201912021759,1455.4,1455.4,1455.2,1455.3
201912021800,1455.3,1455.3,1454.8,1455
201912021801,1455,1455.2,1455,1455.2
201912021802,1455.2,1455.2,1454.8,1455.1
201912021803,1455,1455.3,1454.9,1455.3
201912021804,1455.3,1455.6,1455.1,1455.5
201912021805,1455.5,1456,1455.4,1455.9
201912021806,1455.9,1455.9,1455.8,1455.9
201912021807,1455.9,1455.9,1455.7,1455.9
201912021808,1455.9,1456.1,1455.8,1455.8
201912021809,1455.8,1455.8,1455.5,1455.6
201912021810,1455.6,1455.6,1455.2,1455.5
201912021811,1455.5,1455.5,1455.3,1455.4
201912021812,1455.4,1455.5,1455.3,1455.5
201912021813,1455.5,1455.5,1455.4,1455.5
201912021814,1455.5,1455.8,1455.4,1455.8
201912021815,1455.8,1455.8,1455.5,1455.6
201912021816,1455.6,1455.6,1455.2,1455.4
201912021817,1455.4,1455.4,1455.2,1455.2
201912021818,1455.2,1455.3,1455.1,1455.2
201912021819,1455.2,1455.2,1455.1,1455.2
201912021820,1455.2,1455.2,1454.9,1455
201912021821,1455,1455.2,1454.9,1455.2
201912021822,1455.2,1455.4,1455,1455.3
201912021823,1455.3,1455.4,1455.3,1455.4
201912021824,1455.4,1455.4,1455.2,1455.2
201912021825,1455.2,1455.3,1454.9,1455
201912021826,1455,1455.3,1455,1455.3
201912021827,1455.3,1455.7,1455.3,1455.6
201912021828,1455.7,1455.7,1455.4,1455.4
201912021829,1455.4,1455.6,1455.4,1455.5
201912021830,1455.5,1455.5,1455.4,1455.4
201912021831,1455.4,1455.4,1455.3,1455.3
201912021832,1455.3,1455.5,1455.3,1455.5
201912021833,1455.5,1455.5,1455.4,1455.4
201912021834,1455.4,1455.6,1455.4,1455.5
201912021835,1455.5,1455.6,1455.4,1455.5
201912021836,1455.5,1455.6,1455.5,1455.5
201912021837,1455.5,1455.5,1455.2,1455.4
201912021838,1455.4,1455.6,1455.4,1455.6
201912021839,1455.6,1455.8,1455.6,1455.7
201912021840,1455.8,1455.9,1455.8,1455.9
201912021841,1455.9,1456,1455.8,1456
201912021842,1456,1456.2,1455.9,1456.2
201912021843,1456.2,1456.2,1455.9,1456
201912021844,1456,1456,1455.9,1455.9
201912021845,1455.9,1455.9,1455.8,1455.9
201912021846,1455.9,1456,1455.9,1455.9
201912021847,1455.9,1455.9,1455.7,1455.7
201912021848,1455.7,1456.1,1455.6,1456.1
201912021849,1456.1,1456.1,1455.9,1455.9
201912021850,1455.9,1456,1455.8,1455.9
201912021851,1455.9,1455.9,1455.8,1455.9
201912021852,1455.9,1455.9,1455.7,1455.8
201912021853,1455.8,1456.1,1455.8,1456.1
201912021854,1456.1,1456.1,1455.9,1455.9
201912021855,1455.9,1456,1455.9,1455.9
201912021856,1455.9,1455.9,1455.8,1455.8
201912021857,1455.8,1455.9,1455.8,1455.8
201912021858,1455.8,1455.9,1455.8,1455.9
201912021859,1455.9,1455.9,1455.7,1455.7
201912021900,1455.7,1455.8,1455.6,1455.7
201912021901,1455.7,1456,1455.7,1456
201912021902,1456,1456.1,1456,1456.1
201912021903,1456.1,1456.2,1456.1,1456.2
201912021904,1456.2,1456.2,1456.1,1456.2
201912021905,1456.2,1456.2,1456,1456.1
201912021906,1456.1,1456.1,1456,1456.1
201912021907,1456.1,1456.2,1456,1456.2
201912021908,1456.3,1456.6,1456.3,1456.5
201912021909,1456.5,1456.6,1456.3,1456.3
201912021910,1456.3,1456.4,1456.3,1456.4
201912021911,1456.4,1456.5,1456.4,1456.4
201912021912,1456.4,1456.4,1456.3,1456.3
201912021913,1456.3,1456.3,1456.2,1456.3
201912021914,1456.3,1456.7,1456.3,1456.7
201912021915,1456.7,1456.8,1456.5,1456.5
201912021916,1456.5,1456.7,1456.5,1456.5
201912021917,1456.5,1456.5,1456.3,1456.4
201912021918,1456.4,1456.4,1456.2,1456.3
201912021919,1456.3,1456.5,1456.3,1456.5
201912021920,1456.5,1456.6,1456.4,1456.4
201912021921,1456.4,1456.4,1456.3,1456.4
201912021922,1456.4,1456.4,1456.1,1456.1
201912021923,1456.1,1456.2,1456.1,1456.2
201912021924,1456.1,1456.3,1456.1,1456.1
201912021925,1456.1,1456.2,1456.1,1456.2
201912021926,1456.2,1456.3,1456,1456.1
201912021927,1456.1,1456.3,1456.1,1456.2
201912021928,1456.2,1456.3,1456.2,1456.2
201912021929,1456.2,1456.3,1456.2,1456.3
201912021930,1456.3,1456.8,1456.2,1456.7
201912021931,1456.6,1456.7,1456.5,1456.6
201912021932,1456.6,1456.7,1456.6,1456.6
201912021933,1456.6,1456.6,1456.6,1456.6
201912021934,1456.6,1456.7,1456.6,1456.6
201912021935,1456.6,1456.7,1456.5,1456.5
201912021936,1456.5,1456.5,1456.2,1456.2
201912021937,1456.2,1456.3,1456.2,1456.3
201912021938,1456.3,1456.3,1456.2,1456.3
201912021939,1456.3,1456.3,1456.3,1456.3
201912021940,1456.3,1456.3,1456.2,1456.2
201912021941,1456.2,1456.3,1456.2,1456.2
201912021942,1456.2,1456.2,1456.2,1456.2
201912021943,1456.2,1456.3,1456.2,1456.2
201912021944,1456.2,1456.2,1456,1456
201912021945,1456.1,1456.1,1455.9,1456
201912021946,1456,1456,1455.9,1455.9
201912021947,1455.9,1456,1455.9,1456
201912021948,1456,1456,1456,1456
201912021949,1456,1456,1455.9,1456
201912021950,1456,1456,1455.4,1455.7
201912021951,1455.7,1455.8,1455.6,1455.8
201912021952,1455.8,1456.2,1455.8,1456.2
201912021953,1456.2,1456.2,1456,1456
201912021954,1456,1456.2,1456,1456.1
201912021955,1456.1,1456.4,1456.1,1456.4
201912021956,1456.4,1456.6,1456.2,1456.6
201912021957,1456.6,1456.7,1456.4,1456.5
201912021958,1456.5,1456.5,1456.4,1456.5
201912021959,1456.5,1456.7,1456.5,1456.7
201912022000,1456.7,1457.7,1456.6,1457.2
201912022001,1457.2,1457.4,1457,1457
201912022002,1457,1457.2,1457,1457.2
201912022003,1457.2,1457.4,1457.1,1457.2
201912022004,1457.2,1457.3,1457.1,1457.1
201912022005,1457.1,1457.1,1457,1457
201912022006,1457,1457.2,1457,1457.2
201912022007,1457.2,1457.5,1457.2,1457.2
201912022008,1457.2,1457.3,1457.2,1457.3
201912022009,1457.3,1457.4,1457,1457.1
201912022010,1457.1,1457.3,1457.1,1457.2
201912022011,1457.2,1457.6,1457.2,1457.5
201912022012,1457.5,1457.7,1457.5,1457.6
201912022013,1457.6,1457.8,1457.6,1457.8
201912022014,1457.8,1458.3,1457.8,1458.2
201912022015,1458.2,1458.4,1457.8,1457.8
201912022016,1457.8,1458.2,1457.8,1457.9
201912022017,1457.9,1458.1,1457.7,1457.7
201912022018,1457.7,1457.9,1457.7,1457.8
201912022019,1457.8,1457.8,1457.6,1457.6
201912022020,1457.6,1457.9,1457.5,1457.5
201912022021,1457.5,1457.6,1457.3,1457.4
201912022022,1457.4,1457.9,1457.4,1457.7
201912022023,1457.8,1457.9,1457.7,1457.8
201912022024,1457.8,1457.8,1457.7,1457.8
201912022025,1457.8,1457.8,1457.7,1457.7
201912022026,1457.7,1457.9,1457.7,1457.8
201912022027,1457.8,1458,1457.8,1458
201912022028,1458,1458,1457.9,1458
201912022029,1458,1458,1457.7,1457.7
201912022030,1457.7,1457.8,1457.7,1457.8
201912022031,1457.8,1458,1457.8,1457.9
201912022032,1457.9,1458.3,1457.9,1458.2
201912022033,1458.2,1458.6,1458.2,1458.3
201912022034,1458.3,1458.8,1458.3,1458.7
201912022035,1458.7,1458.7,1458.5,1458.6
201912022036,1458.6,1458.7,1458.5,1458.7
201912022037,1458.7,1458.7,1458.4,1458.6
201912022038,1458.6,1458.8,1458.5,1458.5
201912022039,1458.5,1458.6,1458.5,1458.5
201912022040,1458.5,1458.6,1458.4,1458.5
201912022041,1458.5,1458.5,1458.2,1458.2
201912022042,1458.2,1458.2,1457.9,1458.1
201912022043,1458.1,1458.3,1458,1458
201912022044,1458,1458.2,1458,1458.2
201912022045,1458.2,1458.3,1458.1,1458.1
201912022046,1458.1,1458.1,1457.9,1458
201912022047,1458,1458.2,1457.8,1457.9
201912022048,1457.9,1457.9,1457.7,1457.7
201912022049,1457.7,1457.9,1457.7,1457.8
201912022050,1457.8,1457.8,1457.7,1457.8
201912022051,1457.8,1457.8,1457.5,1457.5
201912022052,1457.5,1457.5,1457.4,1457.4
201912022053,1457.4,1457.5,1457.4,1457.5
201912022054,1457.5,1457.8,1457.5,1457.7
201912022055,1457.7,1457.7,1457.6,1457.6
201912022056,1457.6,1457.7,1457.5,1457.5
201912022057,1457.5,1458.1,1457.5,1458
201912022058,1458,1458.4,1458,1458.3
201912022059,1458.3,1458.6,1458.3,1458.6
201912022100,1458.6,1458.8,1458.3,1458.3
201912022101,1458.3,1458.4,1458.3,1458.3
201912022102,1458.4,1458.4,1457.9,1458
201912022103,1458,1458.1,1458,1458.1
201912022104,1458.1,1458.2,1458.1,1458.2
201912022105,1458.2,1458.2,1458.1,1458.2
201912022106,1458.2,1458.2,1458.1,1458.1
201912022107,1458.1,1458.2,1458,1458
201912022108,1458,1458.2,1458,1458.1
201912022109,1458.1,1458.3,1458.1,1458.3
201912022110,1458.3,1458.3,1458.2,1458.2
201912022111,1458.2,1458.3,1458.2,1458.2
201912022112,1458.2,1458.2,1458,1458.1
201912022113,1458.1,1458.2,1457.7,1457.8
201912022114,1457.8,1457.9,1457.8,1457.8
201912022115,1457.8,1457.8,1457.6,1457.7
201912022116,1457.7,1457.7,1457.6,1457.6
201912022117,1457.6,1457.7,1457.6,1457.6
201912022118,1457.6,1457.7,1457.5,1457.5
201912022119,1457.5,1457.7,1457.5,1457.6
201912022120,1457.6,1457.6,1457.3,1457.5
201912022121,1457.5,1457.6,1457.5,1457.6
201912022122,1457.6,1458.3,1457.6,1458.2
201912022123,1458.2,1458.6,1458.2,1458.4
201912022124,1458.4,1458.4,1458,1458
201912022125,1458,1458.1,1457.8,1457.9
201912022126,1457.9,1458,1457.9,1457.9
201912022127,1457.9,1458,1457.5,1457.5
201912022128,1457.5,1457.6,1457.5,1457.6
201912022129,1457.6,1457.8,1457.6,1457.8
201912022130,1457.8,1457.9,1457.7,1457.7
201912022131,1457.7,1457.8,1457.5,1457.6
201912022132,1457.6,1457.7,1457.5,1457.5
201912022133,1457.5,1457.7,1457.4,1457.7
201912022134,1457.7,1457.7,1457.5,1457.6
201912022135,1457.6,1457.7,1457.5,1457.5
201912022136,1457.5,1457.8,1457.5,1457.8
201912022137,1457.8,1457.8,1457.7,1457.8
201912022138,1457.8,1457.8,1457.7,1457.8
201912022139,1457.8,1457.8,1457.7,1457.7
201912022140,1457.7,1458.2,1457.7,1457.9
201912022141,1457.9,1457.9,1457.6,1457.7
201912022142,1457.7,1457.7,1457.4,1457.4
201912022143,1457.4,1457.5,1457.4,1457.5
201912022144,1457.5,1457.6,1457.4,1457.5
201912022145,1457.5,1457.6,1457.4,1457.5
201912022146,1457.5,1457.5,1457.1,1457.1
201912022147,1457.1,1457.2,1457,1457.1
201912022148,1457.1,1457.2,1457,1457.1
201912022149,1457.1,1457.4,1457.1,1457.4
201912022150,1457.4,1457.6,1457.3,1457.5
201912022151,1457.5,1457.5,1457.3,1457.5
201912022152,1457.5,1457.5,1457.2,1457.3
201912022153,1457.3,1457.4,1457.1,1457.2
201912022154,1457.2,1457.2,1457,1457
201912022155,1457,1457.4,1457,1457.4
201912022156,1457.4,1457.4,1457.3,1457.4
201912022157,1457.4,1457.4,1457.2,1457.4
201912022158,1457.4,1457.9,1457.4,1457.7
201912022159,1457.7,1457.9,1457.5,1457.9
201912022200,1457.9,1458.5,1457.8,1458.5
201912022201,1458.5,1458.8,1458.5,1458.8
201912022202,1458.8,1458.8,1458.6,1458.7
201912022203,1458.7,1459,1458.7,1458.7
201912022204,1458.7,1458.7,1458.4,1458.4
201912022205,1458.4,1458.5,1458.2,1458.5
201912022206,1458.5,1458.6,1458.2,1458.4
201912022207,1458.4,1458.5,1458.3,1458.4
201912022208,1458.4,1458.5,1458.2,1458.3
201912022209,1458.3,1458.3,1457.9,1457.9
201912022210,1457.9,1458.2,1457.8,1457.8
201912022211,1457.8,1457.9,1457.7,1457.9
201912022212,1457.9,1458.3,1457.8,1458.2
201912022213,1458.2,1458.3,1458.1,1458.2
201912022214,1458.2,1458.4,1458.2,1458.3
201912022215,1458.3,1458.6,1458,1458.6
201912022216,1458.7,1459.4,1458.6,1459.4
201912022217,1459.4,1459.5,1459.2,1459.4
201912022218,1459.4,1459.6,1459.4,1459.5
201912022219,1459.5,1459.7,1459,1459.2
201912022220,1459.2,1459.3,1458.8,1459.1
201912022221,1459.2,1459.4,1459.1,1459.3
201912022222,1459.3,1459.5,1459.2,1459.5
201912022223,1459.5,1459.9,1459.3,1459.4
201912022224,1459.4,1459.4,1458.9,1459.2
201912022225,1459.2,1459.7,1459.2,1459.3
201912022226,1459.3,1459.7,1459.2,1459.6
201912022227,1459.6,1459.7,1459.1,1459.3
201912022228,1459.4,1459.7,1459.4,1459.7
201912022229,1459.7,1459.7,1459.4,1459.5
201912022230,1459.5,1460,1459.5,1460
201912022231,1460,1460.2,1459.9,1460.1
201912022232,1460,1460.4,1460,1460.4
201912022233,1460.4,1460.7,1460.2,1460.4
201912022234,1460.3,1460.7,1460.1,1460.5
201912022235,1460.5,1461.3,1460.5,1461.2
201912022236,1461.2,1461.2,1460.7,1460.7
201912022237,1460.7,1461.4,1460.7,1461.1
201912022238,1461.1,1461.2,1460.7,1461
201912022239,1461,1461.5,1460.7,1460.7
201912022240,1460.7,1460.9,1460.5,1460.5
201912022241,1460.5,1460.6,1460.2,1460.2
201912022242,1460.1,1460.3,1460.1,1460.3
201912022243,1460.3,1460.3,1460,1460.3
201912022244,1460.2,1460.5,1460.2,1460.3
201912022245,1460.3,1460.7,1460.3,1460.7
201912022246,1460.7,1460.7,1460.4,1460.5
201912022247,1460.5,1460.5,1460.1,1460.1
201912022248,1460.1,1460.1,1459.4,1459.6
201912022249,1459.6,1460,1459.5,1459.7
201912022250,1459.7,1459.7,1459.1,1459.2
201912022251,1459.2,1459.2,1458.8,1459
201912022252,1459,1459,1458.6,1459
201912022253,1459,1459.1,1458.9,1459
201912022254,1459,1459.2,1458.7,1459.2
201912022255,1459.2,1459.2,1458.9,1459.1
201912022256,1459.1,1459.1,1458.9,1458.9
201912022257,1458.9,1459.1,1458.7,1458.7
201912022258,1458.8,1458.8,1458.6,1458.6
201912022259,1458.6,1458.7,1458.5,1458.5
201912022300,1458.5,1459,1458.5,1458.9
201912022301,1458.9,1459.4,1458.9,1459.2
201912022302,1459.2,1459.2,1459,1459.1
201912022303,1459.1,1459.3,1459.1,1459.2
201912022304,1459.2,1459.5,1459.2,1459.4
201912022305,1459.4,1459.6,1459.3,1459.5
201912022306,1459.5,1459.5,1458.9,1459
201912022307,1459,1459.1,1458.7,1458.8
201912022308,1458.8,1459.1,1458.8,1459.1
201912022309,1459.1,1459.2,1459,1459.1
201912022310,1459.1,1459.1,1458.3,1458.5
201912022311,1458.5,1458.6,1458.3,1458.5
201912022312,1458.5,1458.8,1458.1,1458.3
201912022313,1458.3,1458.4,1458.1,1458.4
201912022314,1458.4,1458.4,1458.1,1458.2
201912022315,1458.2,1458.2,1457.9,1458
201912022316,1458,1458.1,1457.7,1457.7
201912022317,1457.7,1457.7,1457.3,1457.4
201912022318,1457.4,1457.5,1457.2,1457.4
201912022319,1457.4,1457.6,1457.3,1457.4
201912022320,1457.4,1457.6,1457.1,1457.6
201912022321,1457.6,1457.7,1457.5,1457.6
201912022322,1457.6,1457.8,1457.5,1457.7
201912022323,1457.7,1458.1,1457.7,1458.1
201912022324,1458.1,1458.1,1457.9,1458
201912022325,1458.1,1458.4,1458,1458.4
201912022326,1458.4,1458.4,1458.2,1458.3
201912022327,1458.3,1458.4,1458.2,1458.4
201912022328,1458.4,1458.5,1458.2,1458.2
201912022329,1458.2,1458.2,1457.7,1457.8
201912022330,1457.8,1458.6,1457.8,1458.6
201912022331,1458.5,1458.9,1458.5,1458.9
201912022332,1458.9,1459,1458.5,1458.7
201912022333,1458.7,1458.9,1458.5,1458.7
201912022334,1458.7,1458.8,1458.3,1458.7
201912022335,1458.7,1458.9,1458.4,1458.6
201912022336,1458.6,1459.3,1458.5,1459.1
201912022337,1459.1,1459.1,1458.8,1459
201912022338,1459,1459.3,1459,1459.3
201912022339,1459.2,1459.7,1459.1,1459.7
201912022340,1459.7,1460,1459.6,1459.9
201912022341,1460,1460,1459.6,1459.6
201912022342,1459.6,1459.6,1458.8,1458.8
201912022343,1458.8,1459.1,1458.8,1458.9
201912022344,1458.9,1459,1458.8,1458.8
201912022345,1458.8,1459,1458.4,1458.8
201912022346,1458.8,1459.2,1458.7,1458.9
201912022347,1458.9,1459.4,1458.7,1459.2
201912022348,1459.2,1459.2,1458.2,1458.3
201912022349,1458.3,1458.5,1458.3,1458.5
201912022350,1458.5,1459,1458.3,1458.9
201912022351,1458.9,1459.4,1458.8,1458.8
201912022352,1458.8,1458.9,1458.2,1458.3
201912022353,1458.4,1458.5,1458.3,1458.3
201912022354,1458.3,1458.6,1458.3,1458.6
201912022355,1458.6,1458.8,1458.5,1458.7
201912022356,1458.7,1458.8,1458.6,1458.6
201912022357,1458.6,1458.7,1458.2,1458.2
201912022358,1458.2,1458.3,1458,1458
201912022359,1458,1458.3,1457.9,1458.2
201912030000,1458.2,1463.7,1458.2,1462.9
201912030001,1462.9,1463.4,1461.7,1462.1
201912030002,1462.1,1462.9,1461.7,1462.2
201912030003,1462.2,1462.6,1461.7,1461.8
201912030004,1461.8,1462.2,1461.2,1462.1
201912030005,1462.1,1463,1462.1,1462.9
201912030006,1463,1463.1,1461.8,1461.8
201912030007,1461.8,1462,1461.2,1461.3
201912030008,1461.3,1461.6,1460.7,1460.7
201912030009,1460.7,1461.3,1460.7,1460.9
201912030010,1460.9,1461.4,1460.5,1460.7
201912030011,1460.7,1460.9,1460.3,1460.4
201912030012,1460.4,1460.9,1460,1460.3
201912030013,1460.3,1460.9,1460.2,1460.6
201912030014,1460.6,1460.9,1460.1,1460.3
201912030015,1460.2,1460.6,1459.7,1460
201912030016,1460,1460.7,1459.9,1460.4
201912030017,1460.4,1460.9,1460.4,1460.9
201912030018,1460.9,1461.5,1460.9,1461.5
201912030019,1461.5,1462,1461.5,1461.9
201912030020,1461.9,1462,1461.3,1461.9
201912030021,1461.9,1462.2,1461.8,1462
201912030022,1462,1462.2,1461.4,1462.1
201912030023,1462.1,1462.7,1462.1,1462.6
201912030024,1462.6,1463,1462.5,1462.7
201912030025,1462.7,1462.8,1461.7,1461.8
201912030026,1461.8,1462.2,1461.8,1462.2
201912030027,1462.2,1463.1,1462.1,1463
201912030028,1463,1463,1462.5,1462.5
201912030029,1462.5,1462.7,1462.4,1462.6
201912030030,1462.6,1463.9,1462.6,1463.4
201912030031,1463.4,1463.8,1462.9,1463.1
201912030032,1463.1,1463.7,1462.9,1463.1
201912030033,1463.1,1463.4,1462.9,1463.2
201912030034,1463.2,1463.4,1462.5,1462.5
201912030035,1462.5,1465.3,1462.5,1463.5
201912030036,1463.5,1464.1,1463,1463.1
201912030037,1463.1,1463.1,1462.2,1462.3
201912030038,1462.3,1462.6,1462,1462.5
201912030039,1462.5,1463,1462.5,1462.6
201912030040,1462.5,1462.7,1462,1462.4
201912030041,1462.4,1462.7,1461.4,1461.6
201912030042,1461.6,1461.7,1460.8,1461
201912030043,1461,1461.4,1460.9,1461.3
201912030044,1461.3,1461.5,1461,1461.1
201912030045,1461.1,1461.9,1461.1,1461.9
201912030046,1461.9,1462.4,1461.9,1462.3
201912030047,1462.4,1463.8,1462.4,1463.6
201912030048,1463.6,1463.6,1462.9,1463
201912030049,1463,1463.1,1462.7,1462.9
201912030050,1463,1463.2,1462.1,1462.1
201912030051,1462.2,1463.3,1462.2,1463.2
201912030052,1463.2,1463.3,1463,1463.2
201912030053,1463.2,1463.4,1462.5,1462.7
201912030054,1462.8,1463.8,1462.8,1463.7
201912030055,1463.7,1464,1463.6,1463.8
201912030056,1463.8,1464.4,1463.7,1464.1
201912030057,1464.1,1464.1,1463.4,1463.5
201912030058,1463.5,1463.7,1463.1,1463.1
201912030059,1463.2,1463.5,1463,1463.3
201912030100,1463.4,1463.4,1462.4,1462.5
201912030101,1462.5,1463.1,1462.4,1463
201912030102,1463,1463.1,1462.5,1462.7
201912030103,1462.7,1462.7,1462.4,1462.4
201912030104,1462.4,1462.5,1462.1,1462.3
201912030105,1462.3,1462.3,1461.5,1461.7
201912030106,1461.7,1461.7,1461.4,1461.5
201912030107,1461.5,1461.6,1460.9,1461
201912030108,1461,1461.5,1460.7,1461.5
201912030109,1461.5,1461.6,1461.3,1461.5
201912030110,1461.5,1463,1461.4,1462.9
201912030111,1462.9,1463.6,1462.9,1463.5
201912030112,1463.5,1464.1,1463.5,1464.1
201912030113,1464.1,1464.4,1464,1464.2
201912030114,1464.2,1464.5,1464.1,1464.2
201912030115,1464.2,1464.6,1464.1,1464.4
201912030116,1464.4,1464.5,1464,1464.4
201912030117,1464.4,1464.9,1464.3,1464.6
201912030118,1464.6,1464.9,1464.4,1464.6
201912030119,1464.6,1464.7,1464,1464.2
201912030120,1464.2,1464.3,1463.8,1463.8
201912030121,1463.8,1463.8,1463.3,1463.3
201912030122,1463.3,1463.4,1463.2,1463.2
201912030123,1463.2,1463.4,1463,1463.1
201912030124,1463.1,1463.3,1462.9,1463.3
201912030125,1463.3,1463.3,1462.9,1462.9
201912030126,1462.9,1463,1462.6,1462.7
201912030127,1462.7,1462.9,1462.4,1462.7
201912030128,1462.7,1463.1,1462.5,1463
201912030129,1463,1463.5,1462.9,1463.5
201912030130,1463.5,1463.9,1463.5,1463.5
201912030131,1463.5,1464.2,1463.5,1464.1
201912030132,1464.1,1464.5,1464,1464.5
201912030133,1464.5,1464.6,1464.4,1464.4
201912030134,1464.5,1464.5,1464.3,1464.5
201912030135,1464.6,1464.8,1464.5,1464.8
201912030136,1464.8,1464.8,1464.6,1464.6
201912030137,1464.6,1464.6,1464.1,1464.1
201912030138,1464.1,1464.3,1463.8,1463.9
201912030139,1464,1464,1463.6,1463.6
201912030140,1463.6,1463.7,1463.4,1463.4
201912030141,1463.4,1463.4,1463.1,1463.4
201912030142,1463.4,1463.9,1463.4,1463.8
201912030143,1463.8,1464.4,1463.8,1464.3
201912030144,1464.3,1464.5,1464.2,1464.3
201912030145,1464.3,1464.6,1464.3,1464.5
201912030146,1464.5,1464.7,1464.4,1464.4
201912030147,1464.4,1464.8,1464.4,1464.6
201912030148,1464.6,1464.6,1463.8,1463.8
201912030149,1463.8,1464.4,1463.8,1464.3
201912030150,1464.3,1464.3,1463.5,1463.5
201912030151,1463.5,1463.6,1463.4,1463.5
201912030152,1463.5,1463.6,1463.3,1463.4
201912030153,1463.4,1463.4,1463.1,1463.4
201912030154,1463.4,1463.6,1463.3,1463.6
201912030155,1463.6,1463.7,1463.3,1463.3
201912030156,1463.3,1463.3,1462.9,1463
201912030157,1463,1463.2,1462.9,1463.2
201912030158,1463.2,1463.5,1463,1463.4
201912030159,1463.4,1463.4,1463.1,1463.3
201912030200,1463.3,1463.4,1462.8,1462.9
201912030201,1462.9,1463.1,1462.6,1462.8
201912030202,1462.8,1462.8,1462.7,1462.7
201912030203,1462.6,1462.9,1462.4,1462.6
201912030204,1462.6,1462.7,1462.2,1462.4
201912030205,1462.5,1462.6,1462.3,1462.3
201912030206,1462.3,1462.5,1462.3,1462.5
201912030207,1462.5,1462.6,1462.3,1462.3
201912030208,1462.3,1462.3,1461.9,1462.1
201912030209,1462.1,1462.6,1462,1462.2
201912030210,1462.2,1462.4,1462.1,1462.2
201912030211,1462.2,1462.3,1461.9,1462.3
201912030212,1462.2,1462.2,1462,1462.2
201912030213,1462.3,1462.4,1462.1,1462.4
201912030214,1462.4,1462.5,1462.1,1462.2
201912030215,1462.2,1462.3,1462.1,1462.3
201912030216,1462.3,1462.7,1462.3,1462.7
201912030217,1462.7,1462.7,1462.4,1462.7
201912030218,1462.7,1462.7,1462.4,1462.5
201912030219,1462.5,1462.5,1462.3,1462.3
201912030220,1462.3,1462.5,1462.2,1462.4
201912030221,1462.4,1462.7,1462.3,1462.7
201912030222,1462.7,1462.8,1462.6,1462.7
201912030223,1462.7,1462.8,1462.7,1462.7
201912030224,1462.8,1462.8,1462.7,1462.8
201912030225,1462.8,1462.8,1462.6,1462.7
201912030226,1462.7,1462.7,1462.1,1462.3
201912030227,1462.3,1463,1462.3,1462.9
201912030228,1463,1464.1,1462.9,1463
201912030229,1463,1463,1462.6,1462.6
201912030230,1462.6,1462.8,1462.5,1462.7
201912030231,1462.7,1463,1462.6,1462.8
201912030232,1462.8,1462.8,1462.4,1462.5
201912030233,1462.5,1462.5,1462.3,1462.5
201912030234,1462.5,1462.8,1462.4,1462.6
201912030235,1462.6,1463,1462.3,1462.9
201912030236,1462.9,1463.2,1462.9,1463
201912030237,1462.9,1463.3,1462.8,1463.2
201912030238,1463.2,1463.8,1463.1,1463.5
201912030239,1463.5,1463.8,1462.9,1462.9
201912030240,1463,1463.1,1462.7,1462.7
201912030241,1462.7,1463.3,1462.7,1463.2
201912030242,1463.2,1463.2,1463,1463
201912030243,1463,1463,1462.5,1462.5
201912030244,1462.5,1462.6,1462.4,1462.5
201912030245,1462.5,1462.6,1462.4,1462.5
201912030246,1462.5,1462.8,1462.5,1462.7
201912030247,1462.7,1463,1462.7,1463
201912030248,1463,1463.2,1463,1463.2
201912030249,1463.1,1463.7,1463.1,1463.6
201912030250,1463.6,1463.7,1463.3,1463.5
201912030251,1463.5,1463.6,1463.4,1463.6
201912030252,1463.6,1463.8,1463.3,1463.3
201912030253,1463.3,1463.6,1463,1463
201912030254,1463,1463.1,1462.9,1463
201912030255,1463,1463.1,1463,1463
201912030256,1463,1463.2,1463,1463.2
201912030257,1463.2,1463.4,1463.2,1463.2
201912030258,1463.2,1463.4,1463,1463.4
201912030259,1463.4,1463.5,1463.3,1463.4
201912030300,1463.4,1463.6,1463.2,1463.5
201912030301,1463.6,1463.8,1463.5,1463.6
201912030302,1463.6,1463.8,1463.5,1463.5
201912030303,1463.5,1463.5,1463.3,1463.3
201912030304,1463.3,1463.4,1463.1,1463.2
201912030305,1463.2,1463.5,1463.2,1463.5
201912030306,1463.5,1463.6,1463.2,1463.6
201912030307,1463.6,1463.8,1463.4,1463.7
201912030308,1463.7,1463.7,1463.4,1463.5
201912030309,1463.5,1463.6,1463.1,1463.2
201912030310,1463.2,1463.5,1463.2,1463.4
201912030311,1463.4,1463.6,1463.4,1463.6
201912030312,1463.6,1463.6,1463.5,1463.6
201912030313,1463.6,1463.7,1463.4,1463.6
201912030314,1463.6,1463.6,1463.3,1463.3
201912030315,1463.3,1463.4,1463,1463.2
201912030316,1463.2,1463.3,1463.1,1463.2
201912030317,1463.3,1463.4,1463.3,1463.4
201912030318,1463.4,1463.4,1463.2,1463.2
201912030319,1463.2,1463.2,1462.8,1462.8
201912030320,1462.8,1462.9,1462.8,1462.9
201912030321,1462.9,1463,1462.3,1462.5
201912030322,1462.5,1462.9,1462.5,1462.9
201912030323,1462.9,1462.9,1462.4,1462.4
201912030324,1462.4,1462.5,1462.2,1462.4
201912030325,1462.4,1462.7,1462.4,1462.6
201912030326,1462.6,1462.9,1462.5,1462.8
201912030327,1462.8,1462.9,1462.7,1462.8
201912030328,1462.8,1463.4,1462.8,1463.3
201912030329,1463.2,1463.4,1463.2,1463.2
201912030330,1463.2,1463.7,1463.2,1463.5
201912030331,1463.5,1463.6,1463.3,1463.4
201912030332,1463.4,1463.4,1462.8,1462.9
201912030333,1462.9,1462.9,1462.7,1462.8
201912030334,1462.8,1463.1,1462.8,1463.1
201912030335,1463.1,1463.3,1463.1,1463.2
201912030336,1463.2,1463.6,1463.2,1463.5
201912030337,1463.5,1463.9,1463.5,1463.8
201912030338,1463.8,1463.9,1463.8,1463.9
201912030339,1463.8,1463.9,1463.8,1463.9
201912030340,1463.9,1464,1463.8,1464
201912030341,1464,1464,1463.8,1463.9
201912030342,1463.9,1464.1,1463.9,1464
201912030343,1464,1464.2,1463.9,1464.1
201912030344,1464.1,1464.3,1464.1,1464.2
201912030345,1464.2,1464.3,1464.1,1464.2
201912030346,1464.2,1464.2,1464.1,1464.1
201912030347,1463.8,1463.8,1463.7,1463.8
201912030348,1463.8,1464.1,1463.5,1464
201912030349,1464,1464,1463.9,1463.9
201912030350,1463.9,1463.9,1463.7,1463.9
201912030351,1463.9,1464,1463.9,1463.9
201912030352,1463.9,1464,1463.8,1464
201912030353,1464,1464.2,1464,1464
201912030354,1464,1464.2,1464,1464.2
201912030355,1464.2,1464.3,1463.7,1464.2
201912030356,1464.2,1464.3,1464.2,1464.2
201912030357,1464.2,1464.2,1464.1,1464.1
201912030358,1464.1,1464.1,1464,1464
201912030359,1464,1464,1463.8,1463.9
201912030400,1463.9,1464.2,1463.8,1464.1
201912030401,1464.1,1464.6,1464,1464.5
201912030402,1464.5,1464.7,1464.5,1464.7
201912030403,1464.7,1464.8,1464.6,1464.8
201912030404,1464.8,1464.8,1464.7,1464.8
201912030405,1464.8,1464.9,1464.7,1464.7
201912030406,1464.7,1464.7,1464.4,1464.5
201912030407,1464.5,1464.5,1464.2,1464.2
201912030408,1464.2,1464.2,1464.1,1464.2
201912030409,1464.2,1464.2,1464,1464
201912030410,1464,1464.3,1464,1464.2
201912030411,1464.2,1464.2,1464.1,1464.2
201912030412,1464.2,1464.3,1464.1,1464.2
201912030413,1464.2,1464.3,1464.1,1464.1
201912030414,1464.1,1464.3,1464.1,1464.3
201912030415,1464.3,1464.3,1464.2,1464.2
201912030416,1464.2,1464.3,1464.2,1464.3
201912030417,1464.3,1464.3,1464.2,1464.3
201912030418,1464.2,1464.3,1464.1,1464.1
201912030419,1464.2,1464.3,1464.2,1464.3
201912030420,1464.3,1464.3,1464.1,1464.2
201912030421,1464.2,1464.2,1464,1464
201912030422,1464,1464.1,1463.3,1463.3
201912030423,1463.3,1463.4,1463.1,1463.1
201912030424,1463.1,1463.1,1462.7,1462.8
201912030425,1462.8,1463,1462.7,1462.8
201912030426,1462.8,1462.8,1462.5,1462.6
201912030427,1462.5,1462.5,1462.5,1462.5
201912030428,1462.5,1462.5,1462.5,1462.5
201912030429,1462.5,1462.6,1462.3,1462.3
201912030430,1462.3,1462.3,1462,1462.2
201912030431,1462.2,1462.3,1462.1,1462.2
201912030432,1462.2,1462.2,1461.8,1461.8
201912030433,1461.8,1462,1461.8,1461.9
201912030434,1461.9,1462.1,1461.9,1462
201912030435,1462,1462,1461.9,1461.9
201912030436,1461.9,1462,1461.9,1462
201912030437,1462,1462.1,1461.9,1462
201912030438,1462,1462.1,1461.9,1462.1
201912030439,1462.1,1462.4,1462.1,1462.4
201912030440,1462.4,1462.5,1462.1,1462.1
201912030441,1462.2,1462.3,1462.1,1462.3
201912030442,1462.3,1462.3,1461.9,1461.9
201912030443,1461.9,1462,1461.9,1462
201912030444,1462,1462.2,1462,1462
201912030445,1462,1462.1,1461.9,1461.9
201912030446,1461.9,1462.3,1461.9,1462.1
201912030447,1462.1,1462.3,1462,1462
201912030448,1462,1462.4,1461.8,1462.3
201912030449,1462.3,1462.3,1462.1,1462.3
201912030450,1462.3,1462.4,1462.2,1462.2
201912030451,1462.2,1462.3,1462.2,1462.2
201912030452,1462.3,1462.3,1462.1,1462.1
201912030453,1462.1,1462.3,1462.1,1462.2
201912030454,1462.2,1462.5,1462.2,1462.4
201912030455,1462.4,1462.5,1462.3,1462.4
201912030456,1462.4,1462.8,1462.4,1462.6
201912030457,1462.6,1462.7,1462.2,1462.2
201912030458,1462.2,1462.2,1462,1462.1
201912030459,1462.1,1462.3,1462.1,1462.2
201912030500,1462.2,1462.9,1462.2,1462.7
201912030501,1462.7,1462.9,1462.6,1462.8
201912030502,1462.8,1462.9,1462.6,1462.7
201912030503,1462.7,1462.8,1462.6,1462.6
201912030504,1462.6,1462.8,1462.6,1462.8
201912030505,1462.8,1462.9,1462.7,1462.8
201912030506,1462.8,1462.8,1462.7,1462.8
201912030507,1462.8,1463.2,1462.8,1463.2
201912030508,1463.2,1463.2,1463,1463.1
201912030509,1463.1,1463.1,1462.9,1462.9
201912030510,1462.9,1463.1,1462.8,1462.9
201912030511,1462.9,1463,1462.8,1462.9
201912030512,1462.9,1463,1462.7,1462.9
201912030513,1462.9,1463.5,1462.9,1463.2
201912030514,1463.2,1463.5,1463.2,1463.3
201912030515,1463.4,1463.6,1463.3,1463.4
201912030516,1463.4,1463.4,1463.2,1463.4
201912030517,1463.4,1463.4,1463.3,1463.3
201912030518,1463.3,1463.5,1463.3,1463.5
201912030519,1463.5,1463.5,1463.4,1463.4
201912030520,1463.4,1463.5,1463.4,1463.4
201912030521,1463.4,1463.5,1463.4,1463.4
201912030522,1463.3,1463.6,1463.3,1463.6
201912030523,1463.6,1463.6,1463.5,1463.6
201912030524,1463.6,1463.8,1463.5,1463.5
201912030525,1463.5,1463.7,1463.5,1463.7
201912030526,1463.7,1463.7,1463.3,1463.4
201912030527,1463.4,1463.4,1463.2,1463.2
201912030528,1463.2,1463.2,1463,1463.1
201912030529,1463.1,1463.3,1463.1,1463.2
201912030530,1463.2,1463.4,1463.1,1463.1
201912030531,1463.1,1463.2,1463.1,1463.2
201912030532,1463.2,1463.2,1463.1,1463.2
201912030533,1463.2,1463.2,1462.9,1462.9
201912030534,1462.9,1462.9,1462.7,1462.7
201912030535,1462.7,1462.8,1462.6,1462.8
201912030536,1462.8,1462.8,1462.7,1462.8
201912030537,1462.8,1462.9,1462.8,1462.8
201912030538,1462.8,1462.8,1462.5,1462.5
201912030539,1462.5,1462.8,1462.5,1462.7
201912030540,1462.7,1462.9,1462.7,1462.8
201912030541,1462.8,1462.9,1462.7,1462.7
201912030542,1462.7,1462.8,1462.6,1462.8
201912030543,1462.8,1462.8,1462.7,1462.7
201912030544,1462.7,1462.9,1462.7,1462.8
201912030545,1462.8,1462.8,1462.7,1462.8
201912030546,1462.8,1462.8,1462.6,1462.7
201912030547,1462.7,1462.9,1462.6,1462.9
201912030548,1462.8,1463,1462.8,1463
201912030549,1463,1463.1,1462.9,1463
201912030550,1463,1463.1,1462.7,1462.9
201912030551,1462.9,1462.9,1462.7,1462.7
201912030552,1462.7,1462.8,1462.6,1462.7
201912030553,1462.7,1462.9,1462.7,1462.9
201912030554,1462.9,1462.9,1462.8,1462.9
201912030555,1462.9,1463,1462.8,1462.9
201912030556,1463,1463.2,1462.9,1463
201912030557,1463,1463.3,1463,1463.2
201912030558,1463.2,1463.2,1463,1463.1
201912030559,1463.1,1463.1,1462.7,1462.8
201912030600,1462.7,1462.7,1462.5,1462.5
201912030601,1462.5,1462.6,1462.5,1462.5
201912030602,1462.5,1462.7,1462.5,1462.7
201912030603,1462.7,1462.8,1462.7,1462.8
201912030604,1462.8,1462.8,1462.8,1462.8
201912030605,1462.8,1462.9,1462.8,1462.9
201912030606,1462.9,1463,1462.7,1462.7
201912030607,1462.7,1462.7,1462.6,1462.7
201912030608,1462.7,1462.8,1462.7,1462.7
201912030609,1462.7,1462.7,1462.6,1462.6
201912030610,1462.6,1462.6,1462.6,1462.6
201912030611,1462.6,1462.6,1462.5,1462.5
201912030612,1462.5,1462.6,1462.5,1462.6
201912030613,1462.6,1462.7,1462.6,1462.7
201912030614,1462.7,1462.7,1462.6,1462.7
201912030615,1462.7,1462.7,1462.5,1462.6
201912030616,1462.6,1462.7,1462.6,1462.7
201912030617,1462.7,1462.7,1462.5,1462.6
201912030618,1462.6,1462.6,1462.6,1462.6
201912030619,1462.6,1462.6,1462.6,1462.6
201912030620,1462.6,1462.7,1462.6,1462.6
201912030621,1462.5,1462.6,1462.5,1462.6
201912030622,1462.6,1462.7,1462.6,1462.7
201912030623,1462.7,1462.7,1462.6,1462.6
201912030624,1462.6,1462.6,1462.5,1462.5
201912030625,1462.5,1462.6,1462.5,1462.6
201912030626,1462.6,1462.6,1462.6,1462.6
201912030627,1462.6,1462.6,1462.6,1462.6
201912030628,1462.6,1462.8,1462.6,1462.7
201912030629,1462.7,1462.7,1462.7,1462.7
201912030630,1462.7,1462.8,1462.5,1462.7
201912030631,1462.7,1462.7,1462.6,1462.6
201912030632,1462.6,1462.7,1462.6,1462.6
201912030633,1462.6,1462.7,1462.6,1462.6
201912030634,1462.6,1462.7,1462.6,1462.7
201912030635,1462.7,1462.7,1462.5,1462.5
201912030636,1462.5,1462.5,1462.2,1462.2
201912030637,1462.2,1462.3,1462.1,1462.3
201912030638,1462.3,1462.3,1462,1462
201912030639,1462,1462,1461.9,1461.9
201912030640,1461.9,1462,1461.9,1462
201912030641,1462,1462,1462,1462
201912030642,1462,1462.1,1462,1462.1
201912030643,1462.1,1462.2,1462.1,1462.2
201912030644,1462.2,1462.2,1462.2,1462.2
201912030645,1462.2,1462.3,1462.2,1462.2
201912030646,1462.2,1462.3,1462.2,1462.2
201912030647,1462.2,1462.3,1462.2,1462.3
201912030648,1462.3,1462.3,1462.3,1462.3
201912030649,1462.3,1462.4,1462.2,1462.2
201912030650,1462.2,1462.5,1462.2,1462.4
201912030651,1462.4,1462.4,1462.4,1462.4
201912030652,1462.4,1462.5,1462.4,1462.5
201912030653,1462.5,1462.6,1462.4,1462.4
201912030654,1462.4,1462.5,1462.4,1462.4
201912030655,1462.4,1462.4,1462.2,1462.2
201912030656,1462.2,1462.3,1462.2,1462.2
201912030657,1462.2,1462.3,1462.2,1462.3
201912030658,1462.2,1462.3,1462.1,1462.2
201912030659,1462.2,1462.3,1462.2,1462.3
