日時,始値(BID),高値(BID),安値(BID),終値(BID)
201908130830,20290,20295,20280,20291
201908130831,20291,20302,20291,20295
201908130832,20295,20306,20295,20295
201908130833,20295,20300,20294,20299
201908130834,20299,20302,20296,20301
201908130835,20301,20302,20296,20296
201908130836,20297,20317,20297,20313
201908130837,20313,20316,20311,20312
201908130838,20312,20320,20310,20320
201908130839,20320,20327,20320,20327
201908130840,20327,20336,20327,20336
201908130841,20336,20336,20330,20332
201908130842,20332,20332,20325,20325
201908130843,20325,20332,20321,20327
201908130844,20327,20332,20320,20331
201908130845,20335,20344,20327,20337
201908130846,20337,20337,20326,20332
201908130847,20332,20332,20326,20327
201908130848,20326,20327,20321,20325
201908130849,20325,20326,20308,20311
201908130850,20311,20324,20310,20321
201908130851,20321,20335,20321,20326
201908130852,20326,20326,20321,20326
201908130853,20326,20331,20325,20327
201908130854,20327,20331,20321,20326
201908130855,20326,20337,20325,20337
201908130856,20337,20345,20337,20341
201908130857,20341,20344,20336,20343
201908130858,20343,20344,20336,20344
201908130859,20344,20372,20343,20370
201908130900,20374,20466,20368,20437
201908130901,20437,20441,20396,20396
201908130902,20391,20394,20352,20356
201908130903,20356,20365,20336,20346
201908130904,20349,20349,20332,20337
201908130905,20337,20372,20335,20372
201908130906,20372,20372,20356,20357
201908130907,20357,20372,20357,20369
201908130908,20368,20376,20363,20370
201908130909,20369,20370,20351,20355
201908130910,20355,20367,20355,20362
201908130911,20362,20374,20360,20374
201908130912,20375,20376,20351,20353
201908130913,20352,20357,20346,20356
201908130914,20356,20356,20347,20351
201908130915,20352,20352,20347,20347
201908130916,20347,20352,20347,20352
201908130917,20352,20357,20351,20354
201908130918,20354,20370,20348,20367
201908130919,20367,20376,20358,20371
201908130920,20371,20381,20361,20377
201908130921,20376,20400,20375,20399
201908130922,20399,20402,20386,20402
201908130923,20402,20402,20392,20397
201908130924,20397,20398,20387,20397
201908130925,20396,20400,20391,20399
201908130926,20399,20406,20399,20402
201908130927,20402,20402,20395,20401
201908130928,20401,20402,20381,20382
201908130929,20382,20387,20381,20382
201908130930,20382,20387,20381,20383
201908130931,20383,20383,20368,20368
201908130932,20369,20370,20359,20362
201908130933,20362,20364,20358,20359
201908130934,20359,20365,20356,20361
201908130935,20361,20365,20356,20363
201908130936,20363,20376,20363,20372
201908130937,20372,20373,20366,20367
201908130938,20367,20372,20366,20366
201908130939,20366,20372,20366,20369
201908130940,20369,20369,20361,20362
201908130941,20362,20362,20352,20352
201908130942,20352,20352,20347,20347
201908130943,20347,20354,20347,20351
201908130944,20351,20357,20351,20352
201908130945,20354,20355,20351,20352
201908130946,20352,20360,20351,20353
201908130947,20355,20355,20352,20355
201908130948,20355,20362,20355,20360
201908130949,20360,20360,20352,20355
201908130950,20355,20361,20355,20355
201908130951,20356,20360,20355,20357
201908130952,20357,20361,20352,20352
201908130953,20352,20358,20351,20352
201908130954,20352,20366,20352,20362
201908130955,20362,20362,20347,20352
201908130956,20351,20351,20347,20347
201908130957,20347,20352,20347,20347
201908130958,20347,20359,20347,20358
201908130959,20357,20357,20351,20356
201908131000,20356,20371,20356,20368
201908131001,20368,20371,20366,20370
201908131002,20370,20391,20370,20391
201908131003,20391,20408,20391,20408
201908131004,20408,20422,20406,20417
201908131005,20417,20427,20397,20397
201908131006,20397,20398,20385,20392
201908131007,20392,20393,20386,20387
201908131008,20387,20387,20376,20385
201908131009,20386,20387,20376,20376
201908131010,20376,20389,20376,20388
201908131011,20388,20395,20386,20386
201908131012,20388,20401,20383,20396
201908131013,20396,20397,20392,20395
201908131014,20395,20404,20393,20402
201908131015,20402,20413,20377,20381
201908131016,20380,20397,20378,20396
201908131017,20396,20407,20396,20402
201908131018,20402,20402,20395,20396
201908131019,20396,20399,20393,20394
201908131020,20394,20410,20394,20407
201908131021,20407,20407,20393,20395
201908131022,20395,20405,20391,20402
201908131023,20401,20402,20395,20395
201908131024,20396,20397,20386,20391
201908131025,20391,20395,20385,20386
201908131026,20387,20387,20381,20387
201908131027,20387,20387,20376,20379
201908131028,20380,20382,20378,20382
201908131029,20382,20388,20376,20382
201908131030,20382,20397,20380,20395
201908131031,20395,20402,20388,20401
201908131032,20401,20407,20399,20405
201908131033,20405,20407,20403,20405
201908131034,20405,20414,20401,20411
201908131035,20411,20412,20406,20412
201908131036,20412,20417,20406,20416
201908131037,20416,20419,20407,20411
201908131038,20411,20422,20411,20422
201908131039,20422,20424,20419,20420
201908131040,20421,20427,20420,20427
201908131041,20426,20427,20416,20420
201908131042,20420,20421,20416,20420
201908131043,20420,20426,20416,20416
201908131044,20416,20422,20404,20407
201908131045,20406,20407,20393,20393
201908131046,20394,20402,20393,20399
201908131047,20400,20402,20384,20385
201908131048,20385,20387,20381,20386
201908131049,20386,20386,20376,20382
201908131050,20382,20392,20376,20392
201908131051,20392,20398,20390,20398
201908131052,20398,20398,20391,20394
201908131053,20394,20399,20394,20397
201908131054,20397,20400,20393,20394
201908131055,20395,20395,20388,20389
201908131056,20389,20390,20387,20387
201908131057,20387,20387,20376,20376
201908131058,20376,20376,20361,20362
201908131059,20362,20363,20356,20360
201908131100,20360,20370,20356,20367
201908131101,20367,20367,20356,20357
201908131102,20357,20357,20347,20347
201908131103,20347,20349,20342,20342
201908131104,20342,20351,20342,20351
201908131105,20351,20351,20342,20348
201908131106,20347,20348,20343,20347
201908131107,20347,20357,20347,20357
201908131108,20357,20371,20356,20371
201908131109,20371,20375,20368,20369
201908131110,20370,20377,20365,20376
201908131111,20376,20382,20373,20382
201908131112,20382,20382,20376,20377
201908131113,20377,20386,20376,20384
201908131114,20385,20391,20382,20391
201908131115,20392,20392,20386,20391
201908131116,20391,20392,20382,20387
201908131117,20387,20393,20386,20388
201908131118,20388,20399,20388,20396
201908131119,20396,20407,20393,20406
201908131120,20406,20407,20400,20402
201908131121,20402,20404,20401,20404
201908131122,20401,20411,20400,20405
201908131123,20406,20407,20403,20406
201908131124,20406,20412,20406,20407
201908131125,20407,20408,20406,20407
201908131126,20407,20414,20403,20413
201908131127,20413,20415,20411,20412
201908131128,20412,20413,20409,20412
201908131129,20412,20414,20410,20410
201908131130,20409,20411,20406,20407
201908131131,20407,20407,20401,20403
201908131132,20403,20407,20401,20401
201908131133,20401,20408,20401,20404
201908131134,20404,20412,20402,20411
201908131135,20411,20412,20406,20411
201908131136,20411,20411,20408,20409
201908131137,20409,20412,20407,20407
201908131138,20407,20407,20401,20402
201908131139,20402,20402,20401,20401
201908131140,20401,20405,20401,20402
201908131141,20402,20405,20401,20403
201908131142,20403,20405,20401,20404
201908131143,20404,20405,20401,20403
201908131144,20403,20411,20401,20411
201908131145,20411,20412,20406,20409
201908131146,20409,20422,20408,20420
201908131147,20420,20422,20416,20422
201908131148,20422,20422,20420,20422
201908131149,20422,20426,20421,20422
201908131150,20422,20422,20416,20422
201908131151,20422,20422,20416,20420
201908131152,20420,20420,20415,20418
201908131153,20418,20422,20418,20422
201908131154,20422,20425,20422,20424
201908131155,20424,20425,20418,20422
201908131156,20422,20422,20411,20412
201908131157,20412,20412,20406,20407
201908131158,20407,20407,20404,20407
201908131159,20407,20411,20406,20411
201908131200,20411,20412,20408,20408
201908131201,20408,20411,20406,20409
201908131202,20408,20409,20405,20407
201908131203,20407,20407,20407,20407
201908131204,20407,20412,20407,20411
201908131205,20411,20412,20411,20412
201908131206,20412,20412,20407,20407
201908131207,20407,20407,20406,20407
201908131208,20407,20410,20406,20410
201908131209,20410,20412,20410,20412
201908131210,20412,20412,20411,20412
201908131211,20412,20412,20411,20411
201908131212,20411,20411,20411,20411
201908131213,20411,20411,20408,20409
201908131214,20409,20409,20407,20409
201908131215,20409,20410,20407,20407
201908131216,20407,20407,20407,20407
201908131217,20407,20410,20406,20407
201908131218,20407,20409,20407,20409
201908131219,20409,20409,20407,20407
201908131220,20407,20407,20407,20407
201908131221,20407,20407,20407,20407
201908131222,20407,20407,20407,20407
201908131223,20407,20407,20407,20407
201908131224,20407,20407,20407,20407
201908131225,20407,20407,20407,20407
201908131226,20407,20407,20407,20407
201908131227,20407,20407,20407,20407
201908131228,20407,20407,20396,20396
201908131229,20395,20397,20391,20397
201908131230,20397,20404,20396,20402
201908131231,20402,20407,20401,20407
201908131232,20407,20411,20406,20411
201908131233,20411,20419,20411,20419
201908131234,20419,20420,20416,20417
201908131235,20417,20417,20411,20412
201908131236,20412,20414,20411,20412
201908131237,20412,20412,20402,20402
201908131238,20402,20405,20401,20403
201908131239,20403,20404,20396,20397
201908131240,20397,20397,20382,20385
201908131241,20385,20397,20383,20397
201908131242,20397,20397,20391,20394
201908131243,20394,20397,20393,20397
201908131244,20397,20398,20395,20397
201908131245,20397,20397,20395,20396
201908131246,20396,20397,20391,20392
201908131247,20392,20392,20386,20388
201908131248,20388,20388,20386,20387
201908131249,20387,20390,20386,20389
201908131250,20389,20392,20386,20391
201908131251,20391,20396,20391,20395
201908131252,20395,20397,20395,20396
201908131253,20394,20402,20391,20402
201908131254,20402,20402,20401,20401
201908131255,20401,20401,20391,20391
201908131256,20391,20392,20391,20392
201908131257,20393,20393,20391,20391
201908131258,20391,20392,20388,20392
201908131259,20392,20396,20391,20395
201908131300,20395,20397,20393,20397
201908131301,20397,20397,20389,20390
201908131302,20390,20390,20381,20382
201908131303,20382,20394,20381,20393
201908131304,20393,20393,20386,20388
201908131305,20388,20392,20386,20392
201908131306,20392,20393,20390,20392
201908131307,20392,20396,20391,20396
201908131308,20396,20397,20391,20395
201908131309,20395,20396,20393,20396
201908131310,20396,20397,20396,20397
201908131311,20397,20401,20393,20399
201908131312,20399,20402,20398,20401
201908131313,20401,20405,20401,20405
201908131314,20405,20410,20405,20408
201908131315,20409,20411,20408,20411
201908131316,20411,20411,20406,20407
201908131317,20407,20408,20406,20408
201908131318,20407,20407,20401,20402
201908131319,20402,20407,20401,20407
201908131320,20407,20410,20406,20410
201908131321,20410,20410,20409,20409
201908131322,20409,20411,20407,20410
201908131323,20410,20411,20407,20407
201908131324,20407,20408,20406,20406
201908131325,20406,20412,20406,20411
201908131326,20411,20412,20410,20411
201908131327,20411,20411,20407,20410
201908131328,20410,20416,20410,20416
201908131329,20416,20420,20415,20419
201908131330,20419,20420,20419,20419
201908131331,20419,20424,20419,20422
201908131332,20422,20422,20417,20417
201908131333,20417,20422,20417,20422
201908131334,20422,20429,20422,20427
201908131335,20427,20427,20425,20426
201908131336,20426,20427,20424,20425
201908131337,20425,20428,20425,20427
201908131338,20427,20428,20426,20427
201908131339,20427,20429,20427,20427
201908131340,20427,20427,20422,20422
201908131341,20422,20425,20422,20422
201908131342,20422,20425,20421,20425
201908131343,20424,20425,20422,20422
201908131344,20422,20422,20416,20422
201908131345,20422,20425,20422,20422
201908131346,20422,20422,20422,20422
201908131347,20422,20423,20421,20422
201908131348,20422,20426,20421,20426
201908131349,20426,20427,20426,20427
201908131350,20427,20427,20425,20426
201908131351,20426,20427,20425,20427
201908131352,20427,20427,20425,20426
201908131353,20426,20430,20426,20427
201908131354,20427,20429,20427,20427
201908131355,20427,20427,20422,20422
201908131356,20422,20422,20416,20416
201908131357,20416,20416,20406,20408
201908131358,20408,20408,20405,20406
201908131359,20406,20409,20402,20404
201908131400,20404,20406,20402,20404
201908131401,20404,20408,20404,20406
201908131402,20406,20407,20405,20407
201908131403,20407,20411,20406,20407
201908131404,20407,20410,20406,20410
201908131405,20410,20412,20409,20412
201908131406,20412,20412,20406,20407
201908131407,20407,20407,20407,20407
201908131408,20407,20408,20406,20407
201908131409,20407,20407,20406,20407
201908131410,20407,20409,20407,20407
201908131411,20407,20407,20402,20402
201908131412,20402,20404,20402,20402
201908131413,20402,20410,20401,20410
201908131414,20409,20411,20406,20407
201908131415,20407,20408,20406,20407
201908131416,20407,20410,20406,20410
201908131417,20410,20410,20408,20410
201908131418,20410,20412,20406,20412
201908131419,20412,20412,20411,20412
201908131420,20412,20412,20407,20407
201908131421,20407,20409,20406,20407
201908131422,20407,20410,20406,20410
201908131423,20410,20412,20409,20411
201908131424,20412,20417,20409,20417
201908131425,20417,20417,20414,20416
201908131426,20416,20417,20415,20416
201908131427,20416,20421,20415,20421
201908131428,20421,20422,20421,20421
201908131429,20421,20422,20417,20417
201908131430,20417,20420,20416,20417
201908131431,20417,20421,20416,20421
201908131432,20421,20431,20421,20427
201908131433,20427,20427,20426,20427
201908131434,20427,20427,20416,20421
201908131435,20421,20427,20421,20427
201908131436,20427,20427,20422,20422
201908131437,20422,20422,20419,20422
201908131438,20422,20422,20420,20421
201908131439,20421,20425,20421,20423
201908131440,20423,20426,20422,20422
201908131441,20422,20425,20422,20422
201908131442,20422,20422,20416,20420
201908131443,20420,20425,20420,20425
201908131444,20425,20425,20420,20421
201908131445,20421,20421,20420,20420
201908131446,20420,20420,20414,20417
201908131447,20417,20417,20412,20412
201908131448,20412,20420,20412,20420
201908131449,20419,20419,20416,20417
201908131450,20417,20417,20416,20417
201908131451,20416,20417,20411,20412
201908131452,20412,20412,20402,20404
201908131453,20405,20412,20402,20412
201908131454,20412,20412,20406,20410
201908131455,20407,20407,20401,20407
201908131456,20407,20407,20402,20402
201908131457,20402,20410,20402,20407
201908131458,20407,20408,20405,20406
201908131459,20407,20416,20405,20410
201908131500,20413,20418,20406,20415
201908131501,20414,20417,20411,20415
201908131502,20415,20422,20415,20421
201908131503,20421,20422,20411,20412
201908131504,20412,20412,20397,20400
201908131505,20400,20401,20391,20396
201908131506,20396,20396,20392,20392
201908131507,20392,20392,20376,20379
201908131508,20379,20389,20378,20387
201908131509,20387,20391,20384,20387
201908131510,20387,20388,20384,20385
201908131511,20385,20385,20377,20382
201908131512,20382,20382,20356,20362
201908131513,20362,20372,20360,20365
201908131514,20365,20367,20351,20353
201908131515,20353,20358,20351,20357
201908131516,20357,20357,20350,20352
201908131517,20352,20357,20344,20348
201908131518,20351,20352,20336,20337
201908131519,20337,20337,20332,20336
201908131520,20336,20337,20331,20337
201908131521,20337,20344,20337,20344
201908131522,20344,20345,20321,20321
201908131523,20321,20321,20300,20302
201908131524,20302,20315,20301,20312
201908131525,20310,20311,20299,20301
201908131526,20301,20311,20300,20310
201908131527,20310,20315,20307,20314
201908131528,20314,20315,20308,20311
201908131529,20311,20313,20307,20307
201908131530,20307,20310,20305,20305
201908131531,20305,20310,20305,20307
201908131532,20307,20312,20307,20312
201908131533,20312,20312,20306,20306
201908131534,20306,20307,20301,20306
201908131535,20306,20313,20305,20313
201908131536,20313,20313,20306,20306
201908131537,20306,20312,20305,20306
201908131538,20306,20306,20296,20296
201908131539,20296,20305,20296,20302
201908131540,20302,20307,20300,20300
201908131541,20299,20301,20295,20297
201908131542,20297,20297,20282,20286
201908131543,20286,20291,20285,20290
201908131544,20290,20297,20288,20297
201908131545,20297,20297,20293,20296
201908131546,20296,20299,20292,20294
201908131547,20294,20299,20294,20297
201908131548,20297,20302,20297,20297
201908131549,20297,20298,20288,20288
201908131550,20288,20298,20288,20298
201908131551,20298,20306,20298,20302
201908131552,20302,20302,20295,20295
201908131553,20295,20302,20295,20302
201908131554,20302,20302,20295,20300
201908131555,20309,20309,20295,20296
201908131556,20296,20303,20295,20301
201908131557,20301,20301,20290,20291
201908131558,20291,20291,20282,20290
201908131559,20290,20297,20290,20296
201908131600,20296,20304,20294,20295
201908131601,20295,20296,20282,20287
201908131602,20287,20300,20287,20297
201908131603,20297,20300,20293,20296
201908131604,20296,20302,20295,20302
201908131605,20302,20307,20297,20299
201908131606,20298,20309,20298,20298
201908131607,20298,20300,20293,20296
201908131608,20296,20316,20296,20316
201908131609,20316,20320,20315,20315
201908131610,20315,20326,20315,20315
201908131611,20315,20321,20312,20316
201908131612,20316,20322,20310,20311
201908131613,20311,20317,20311,20313
201908131614,20313,20316,20313,20315
201908131615,20315,20332,20315,20330
201908131616,20330,20337,20321,20321
201908131617,20321,20326,20315,20320
201908131618,20320,20321,20315,20316
201908131619,20315,20316,20310,20314
201908131620,20314,20316,20305,20315
201908131621,20315,20317,20315,20316
201908131622,20316,20316,20305,20305
201908131623,20305,20311,20305,20306
201908131624,20306,20308,20302,20305
201908131625,20305,20306,20295,20298
201908131626,20298,20302,20291,20291
201908131627,20291,20293,20289,20291
201908131628,20291,20297,20288,20297
201908131629,20297,20303,20292,20303
201908131630,20310,20322,20306,20320
201908131631,20320,20325,20316,20323
201908131632,20324,20330,20323,20327
201908131633,20327,20328,20321,20327
201908131634,20327,20330,20326,20327
201908131635,20327,20327,20316,20317
201908131636,20317,20320,20310,20311
201908131637,20311,20311,20291,20295
201908131638,20295,20307,20295,20306
201908131639,20306,20308,20301,20306
201908131640,20307,20308,20306,20307
201908131641,20307,20307,20287,20287
201908131642,20287,20296,20286,20296
201908131643,20296,20297,20291,20296
201908131644,20296,20296,20291,20295
201908131645,20295,20301,20291,20292
201908131646,20292,20292,20286,20291
201908131647,20291,20291,20277,20282
201908131648,20281,20282,20272,20274
201908131649,20275,20276,20271,20274
201908131650,20273,20280,20273,20277
201908131651,20277,20277,20261,20262
201908131652,20262,20275,20262,20266
201908131653,20265,20266,20257,20257
201908131654,20257,20257,20251,20252
201908131655,20252,20260,20247,20260
201908131656,20260,20261,20256,20260
201908131657,20260,20266,20256,20266
201908131658,20266,20267,20261,20263
201908131659,20263,20272,20263,20272
201908131700,20272,20292,20271,20278
201908131701,20278,20279,20276,20277
201908131702,20277,20280,20276,20278
201908131703,20277,20279,20276,20277
201908131704,20277,20279,20276,20277
201908131705,20277,20286,20276,20282
201908131706,20282,20282,20276,20277
201908131707,20277,20277,20270,20272
201908131708,20272,20278,20272,20277
201908131709,20277,20281,20276,20277
201908131710,20277,20277,20266,20274
201908131711,20274,20281,20274,20281
201908131712,20281,20290,20281,20289
201908131713,20288,20295,20288,20292
201908131714,20292,20302,20291,20297
201908131715,20297,20301,20296,20301
201908131716,20301,20302,20296,20301
201908131717,20301,20306,20300,20306
201908131718,20306,20310,20306,20307
201908131719,20307,20307,20296,20296
201908131720,20296,20306,20296,20306
201908131721,20306,20312,20305,20307
201908131722,20307,20307,20301,20307
201908131723,20307,20307,20301,20304
201908131724,20304,20311,20304,20308
201908131725,20308,20309,20306,20306
201908131726,20306,20307,20297,20297
201908131727,20297,20302,20295,20302
201908131728,20302,20305,20302,20304
201908131729,20304,20304,20296,20296
201908131730,20296,20300,20296,20298
201908131731,20298,20302,20286,20294
201908131732,20294,20304,20292,20301
201908131733,20301,20302,20297,20302
201908131734,20302,20322,20301,20319
201908131735,20319,20319,20306,20308
201908131736,20307,20310,20306,20310
201908131737,20310,20312,20309,20310
201908131738,20310,20316,20310,20313
201908131739,20314,20335,20313,20332
201908131740,20332,20332,20329,20331
201908131741,20331,20332,20321,20322
201908131742,20322,20326,20317,20322
201908131743,20322,20324,20321,20323
201908131744,20322,20325,20321,20325
201908131745,20325,20331,20322,20324
201908131746,20324,20324,20311,20315
201908131747,20316,20319,20316,20316
201908131748,20316,20320,20316,20316
201908131749,20316,20324,20316,20323
201908131750,20323,20331,20321,20326
201908131751,20326,20328,20323,20327
201908131752,20327,20327,20316,20317
201908131753,20317,20325,20316,20321
201908131754,20321,20322,20317,20317
201908131755,20318,20319,20316,20318
201908131756,20318,20320,20316,20317
201908131757,20317,20317,20311,20311
201908131758,20311,20317,20311,20317
201908131759,20317,20317,20311,20314
201908131800,20314,20314,20302,20305
201908131801,20305,20307,20302,20302
201908131802,20302,20302,20286,20287
201908131803,20287,20292,20286,20291
201908131804,20292,20297,20291,20297
201908131805,20297,20302,20291,20293
201908131806,20293,20293,20284,20288
201908131807,20288,20292,20287,20287
201908131808,20287,20287,20286,20286
201908131809,20286,20287,20282,20286
201908131810,20285,20290,20282,20282
201908131811,20282,20282,20266,20267
201908131812,20266,20267,20250,20258
201908131813,20257,20265,20256,20265
201908131814,20265,20267,20261,20267
201908131815,20267,20268,20261,20262
201908131816,20262,20262,20255,20262
201908131817,20262,20271,20261,20271
201908131818,20271,20272,20264,20267
201908131819,20267,20276,20266,20272
201908131820,20272,20272,20266,20266
201908131821,20266,20267,20257,20262
201908131822,20262,20263,20261,20262
201908131823,20262,20262,20253,20257
201908131824,20257,20266,20257,20263
201908131825,20263,20265,20256,20263
201908131826,20263,20271,20261,20267
201908131827,20267,20270,20266,20267
201908131828,20267,20268,20252,20255
201908131829,20255,20260,20255,20259
201908131830,20259,20259,20247,20251
201908131831,20251,20253,20246,20246
201908131832,20246,20250,20227,20231
201908131833,20231,20233,20226,20230
201908131834,20230,20232,20226,20227
201908131835,20227,20234,20227,20233
201908131836,20233,20236,20231,20233
201908131837,20233,20237,20231,20232
201908131838,20232,20244,20231,20241
201908131839,20242,20242,20236,20238
201908131840,20238,20240,20231,20233
201908131841,20233,20237,20231,20236
201908131842,20236,20242,20236,20241
201908131843,20241,20242,20236,20238
201908131844,20239,20241,20237,20241
201908131845,20241,20246,20240,20246
201908131846,20246,20254,20244,20247
201908131847,20247,20251,20246,20247
201908131848,20247,20251,20241,20250
201908131849,20250,20252,20246,20249
201908131850,20249,20252,20246,20248
201908131851,20248,20251,20246,20247
201908131852,20247,20248,20236,20237
201908131853,20237,20237,20231,20237
201908131854,20237,20241,20236,20240
201908131855,20240,20250,20240,20250
201908131856,20250,20251,20246,20251
201908131857,20251,20256,20251,20251
201908131858,20251,20252,20246,20251
201908131859,20251,20253,20241,20244
201908131900,20244,20251,20242,20249
201908131901,20249,20249,20246,20246
201908131902,20246,20249,20241,20249
201908131903,20248,20248,20246,20248
201908131904,20248,20260,20248,20260
201908131905,20260,20260,20251,20251
201908131906,20251,20252,20241,20241
201908131907,20241,20245,20241,20242
201908131908,20242,20249,20241,20246
201908131909,20247,20254,20246,20252
201908131910,20252,20252,20251,20252
201908131911,20252,20252,20248,20250
201908131912,20250,20251,20246,20247
201908131913,20247,20250,20245,20248
201908131914,20248,20249,20241,20242
201908131915,20242,20245,20236,20237
201908131916,20237,20237,20221,20222
201908131917,20222,20222,20207,20213
201908131918,20211,20224,20211,20221
201908131919,20221,20232,20221,20231
201908131920,20231,20256,20228,20255
201908131921,20255,20255,20246,20248
201908131922,20249,20254,20246,20252
201908131923,20252,20254,20250,20253
201908131924,20254,20255,20248,20255
201908131925,20255,20255,20251,20252
201908131926,20252,20259,20251,20256
201908131927,20257,20257,20247,20252
201908131928,20253,20255,20251,20253
201908131929,20253,20257,20248,20256
201908131930,20256,20257,20251,20253
201908131931,20253,20254,20246,20246
201908131932,20247,20255,20246,20252
201908131933,20252,20252,20246,20247
201908131934,20247,20250,20246,20248
201908131935,20251,20251,20246,20248
201908131936,20248,20256,20246,20254
201908131937,20254,20262,20253,20262
201908131938,20262,20276,20259,20276
201908131939,20276,20276,20266,20267
201908131940,20267,20267,20261,20263
201908131941,20263,20270,20261,20261
201908131942,20262,20266,20261,20264
201908131943,20264,20274,20261,20271
201908131944,20271,20280,20271,20275
201908131945,20275,20276,20271,20273
201908131946,20273,20273,20266,20267
201908131947,20268,20268,20265,20266
201908131948,20266,20269,20264,20266
201908131949,20266,20269,20265,20267
201908131950,20267,20275,20266,20275
201908131951,20275,20277,20273,20275
201908131952,20275,20275,20271,20272
201908131953,20272,20275,20272,20273
201908131954,20273,20275,20271,20272
201908131955,20272,20274,20271,20272
201908131956,20272,20274,20271,20272
201908131957,20272,20274,20271,20272
201908131958,20272,20280,20271,20276
201908131959,20276,20280,20276,20280
201908132000,20281,20289,20276,20289
201908132001,20289,20289,20281,20282
201908132002,20282,20287,20276,20286
201908132003,20286,20287,20281,20284
201908132004,20283,20286,20281,20283
201908132005,20282,20283,20271,20272
201908132006,20272,20273,20266,20270
201908132007,20270,20272,20266,20272
201908132008,20272,20281,20271,20278
201908132009,20278,20280,20276,20277
201908132010,20278,20282,20276,20276
201908132011,20276,20279,20276,20276
201908132012,20276,20277,20271,20273
201908132013,20273,20273,20267,20268
201908132014,20268,20268,20266,20267
201908132015,20267,20267,20257,20259
201908132016,20259,20263,20256,20262
201908132017,20262,20263,20260,20260
201908132018,20260,20266,20257,20266
201908132019,20266,20266,20261,20262
201908132020,20262,20263,20256,20262
201908132021,20262,20262,20257,20260
201908132022,20260,20262,20259,20261
201908132023,20261,20262,20256,20257
201908132024,20257,20257,20253,20255
201908132025,20255,20256,20251,20252
201908132026,20252,20252,20246,20247
201908132027,20247,20247,20244,20246
201908132028,20246,20246,20241,20242
201908132029,20242,20252,20237,20250
201908132030,20250,20253,20250,20252
201908132031,20252,20252,20245,20247
201908132032,20247,20247,20242,20242
201908132033,20242,20242,20236,20241
201908132034,20241,20242,20237,20238
201908132035,20238,20242,20238,20240
201908132036,20240,20246,20240,20246
201908132037,20246,20251,20244,20246
201908132038,20246,20250,20245,20246
201908132039,20246,20247,20242,20245
201908132040,20245,20247,20242,20246
201908132041,20246,20252,20246,20251
201908132042,20251,20252,20251,20252
201908132043,20252,20252,20251,20251
201908132044,20251,20252,20246,20247
201908132045,20247,20247,20243,20247
201908132046,20247,20249,20246,20247
201908132047,20247,20247,20241,20243
201908132048,20243,20244,20236,20237
201908132049,20237,20241,20236,20241
201908132050,20241,20241,20236,20237
201908132051,20237,20237,20236,20236
201908132052,20236,20238,20235,20238
201908132053,20238,20244,20236,20237
201908132054,20237,20246,20237,20246
201908132055,20246,20252,20246,20251
201908132056,20251,20252,20248,20248
201908132057,20248,20249,20246,20247
201908132058,20247,20249,20246,20247
201908132059,20247,20247,20241,20242
201908132100,20242,20243,20236,20242
201908132101,20241,20242,20236,20237
201908132102,20237,20237,20231,20234
201908132103,20233,20237,20231,20235
201908132104,20235,20237,20234,20237
201908132105,20237,20239,20236,20237
201908132106,20237,20237,20232,20236
201908132107,20236,20239,20236,20237
201908132108,20237,20238,20236,20237
201908132109,20237,20238,20236,20237
201908132110,20237,20237,20234,20234
201908132111,20234,20241,20233,20240
201908132112,20240,20241,20233,20235
201908132113,20234,20237,20231,20237
201908132114,20237,20240,20236,20237
201908132115,20237,20240,20236,20238
201908132116,20238,20240,20236,20239
201908132117,20239,20241,20236,20237
201908132118,20237,20241,20235,20241
201908132119,20241,20247,20241,20247
201908132120,20247,20247,20236,20236
201908132121,20236,20239,20236,20237
201908132122,20237,20241,20236,20241
201908132123,20241,20241,20232,20232
201908132124,20232,20241,20232,20241
201908132125,20241,20246,20238,20242
201908132126,20242,20246,20241,20246
201908132127,20246,20248,20245,20246
201908132128,20246,20252,20246,20251
201908132129,20251,20252,20250,20250
201908132130,20250,20254,20237,20240
201908132131,20240,20242,20236,20237
201908132132,20237,20246,20236,20244
201908132133,20245,20245,20236,20241
201908132134,20241,20247,20240,20247
201908132135,20246,20251,20241,20243
201908132136,20243,20246,20228,20238
201908132137,20241,20241,20231,20233
201908132138,20233,20234,20231,20231
201908132139,20231,20234,20226,20233
201908132140,20232,20237,20228,20233
201908132141,20233,20241,20231,20235
201908132142,20235,20241,20233,20241
201908132143,20241,20241,20236,20236
201908132144,20237,20241,20236,20241
201908132145,20241,20241,20236,20237
201908132146,20237,20237,20233,20236
201908132147,20236,20240,20232,20232
201908132148,20232,20232,20221,20222
201908132149,20222,20232,20221,20221
201908132150,20222,20227,20221,20226
201908132151,20226,20227,20222,20226
201908132152,20226,20232,20225,20232
201908132153,20232,20236,20231,20233
201908132154,20231,20241,20231,20237
201908132155,20237,20239,20236,20238
201908132156,20238,20239,20231,20233
201908132157,20233,20235,20226,20229
201908132158,20230,20236,20228,20233
201908132159,20233,20241,20233,20241
201908132200,20241,20246,20231,20232
201908132201,20232,20234,20226,20232
201908132202,20232,20234,20230,20231
201908132203,20231,20236,20231,20232
201908132204,20232,20242,20231,20242
201908132205,20242,20250,20241,20247
201908132206,20247,20247,20241,20242
201908132207,20242,20242,20236,20237
201908132208,20237,20240,20236,20237
201908132209,20237,20241,20236,20239
201908132210,20238,20241,20236,20237
201908132211,20237,20237,20231,20232
201908132212,20232,20234,20231,20231
201908132213,20232,20235,20232,20235
201908132214,20235,20242,20233,20241
201908132215,20241,20242,20238,20242
201908132216,20242,20250,20242,20247
201908132217,20247,20247,20245,20247
201908132218,20247,20252,20246,20252
201908132219,20252,20252,20246,20248
201908132220,20248,20253,20246,20251
201908132221,20251,20254,20249,20253
201908132222,20253,20254,20251,20254
201908132223,20254,20254,20250,20253
201908132224,20253,20254,20251,20252
201908132225,20252,20254,20251,20252
201908132226,20252,20253,20251,20253
201908132227,20253,20254,20250,20254
201908132228,20254,20259,20254,20256
201908132229,20256,20256,20251,20256
201908132230,20256,20256,20241,20251
201908132231,20251,20252,20237,20240
201908132232,20240,20246,20231,20232
201908132233,20232,20240,20231,20236
201908132234,20237,20256,20233,20254
201908132235,20254,20286,20254,20282
201908132236,20282,20330,20281,20329
201908132237,20328,20367,20318,20367
201908132238,20372,20386,20330,20344
201908132239,20345,20375,20345,20366
201908132240,20366,20386,20356,20361
201908132241,20361,20364,20347,20352
201908132242,20352,20356,20341,20342
201908132243,20342,20356,20341,20347
201908132244,20347,20381,20341,20381
201908132245,20381,20442,20357,20442
201908132246,20442,20544,20442,20538
201908132247,20537,20561,20501,20513
201908132248,20511,20629,20511,20626
201908132249,20626,20626,20568,20571
201908132250,20571,20584,20551,20561
201908132251,20562,20609,20557,20580
201908132252,20580,20594,20572,20592
201908132253,20592,20601,20574,20601
201908132254,20601,20631,20596,20607
201908132255,20607,20675,20602,20665
201908132256,20665,20671,20640,20664
201908132257,20665,20666,20632,20651
201908132258,20650,20659,20630,20659
201908132259,20659,20673,20651,20662
201908132300,20662,20671,20647,20650
201908132301,20650,20664,20621,20631
201908132302,20632,20641,20608,20620
201908132303,20620,20632,20616,20627
201908132304,20629,20635,20617,20630
201908132305,20630,20657,20626,20635
201908132306,20635,20636,20617,20617
201908132307,20618,20630,20617,20630
201908132308,20626,20631,20624,20625
201908132309,20625,20643,20625,20635
201908132310,20634,20645,20625,20637
201908132311,20637,20640,20630,20631
201908132312,20632,20639,20626,20631
201908132313,20631,20646,20629,20644
201908132314,20644,20645,20638,20642
201908132315,20642,20661,20642,20653
201908132316,20653,20675,20646,20674
201908132317,20674,20679,20666,20676
201908132318,20676,20707,20676,20706
201908132319,20706,20726,20696,20725
201908132320,20725,20730,20696,20702
201908132321,20701,20706,20686,20687
201908132322,20685,20699,20676,20692
201908132323,20693,20705,20690,20704
201908132324,20709,20709,20691,20702
201908132325,20701,20711,20697,20711
201908132326,20711,20729,20702,20729
201908132327,20729,20740,20710,20740
201908132328,20740,20740,20721,20730
201908132329,20732,20739,20718,20736
201908132330,20736,20740,20721,20731
201908132331,20731,20740,20731,20734
201908132332,20734,20745,20733,20742
201908132333,20742,20751,20727,20727
201908132334,20728,20734,20725,20726
201908132335,20726,20744,20724,20731
201908132336,20731,20738,20721,20722
201908132337,20721,20729,20716,20716
201908132338,20712,20732,20712,20717
201908132339,20717,20722,20715,20717
201908132340,20717,20722,20701,20702
201908132341,20702,20705,20691,20692
201908132342,20692,20697,20662,20675
201908132343,20675,20699,20675,20684
201908132344,20684,20689,20676,20686
201908132345,20687,20694,20681,20692
201908132346,20692,20692,20676,20682
201908132347,20682,20701,20682,20686
201908132348,20685,20693,20673,20675
201908132349,20672,20676,20661,20667
201908132350,20666,20674,20661,20663
201908132351,20664,20676,20660,20663
201908132352,20663,20681,20656,20657
201908132353,20660,20672,20660,20672
201908132354,20672,20687,20669,20678
201908132355,20679,20687,20672,20682
201908132356,20682,20683,20674,20678
201908132357,20679,20681,20671,20676
201908132358,20677,20681,20671,20674
201908132359,20674,20676,20666,20667
201908140000,20667,20672,20661,20670
201908140001,20670,20675,20662,20662
201908140002,20662,20662,20645,20645
201908140003,20646,20652,20643,20652
201908140004,20651,20653,20643,20648
201908140005,20648,20662,20641,20660
201908140006,20660,20669,20655,20669
201908140007,20669,20679,20663,20677
201908140008,20677,20681,20671,20680
201908140009,20680,20691,20678,20688
201908140010,20689,20690,20676,20686
201908140011,20686,20693,20682,20682
201908140012,20682,20688,20678,20686
201908140013,20685,20701,20681,20701
201908140014,20701,20701,20686,20688
201908140015,20688,20696,20671,20678
201908140016,20677,20682,20666,20667
201908140017,20667,20667,20631,20646
201908140018,20646,20650,20616,20621
201908140019,20622,20631,20607,20621
201908140020,20623,20631,20616,20629
201908140021,20629,20629,20616,20620
201908140022,20621,20624,20611,20612
201908140023,20612,20630,20606,20626
201908140024,20626,20641,20623,20632
201908140025,20632,20632,20622,20627
201908140026,20627,20636,20617,20636
201908140027,20635,20651,20633,20647
201908140028,20647,20655,20646,20648
201908140029,20649,20651,20632,20637
201908140030,20637,20637,20611,20630
201908140031,20629,20635,20623,20633
201908140032,20632,20636,20621,20623
201908140033,20623,20634,20623,20626
201908140034,20626,20632,20621,20627
201908140035,20625,20642,20624,20641
201908140036,20642,20647,20635,20647
201908140037,20647,20662,20646,20662
201908140038,20662,20665,20650,20657
201908140039,20656,20661,20651,20657
201908140040,20661,20677,20658,20674
201908140041,20675,20687,20674,20677
201908140042,20677,20684,20671,20671
201908140043,20671,20674,20657,20672
201908140044,20672,20685,20672,20681
201908140045,20681,20683,20676,20676
201908140046,20676,20684,20676,20684
201908140047,20684,20686,20678,20683
201908140048,20683,20687,20676,20677
201908140049,20676,20680,20671,20676
201908140050,20676,20682,20676,20676
201908140051,20676,20677,20666,20675
201908140052,20675,20692,20673,20692
201908140053,20692,20692,20681,20681
201908140054,20681,20692,20681,20692
201908140055,20693,20716,20693,20702
201908140056,20702,20706,20691,20698
201908140057,20697,20699,20689,20696
201908140058,20696,20707,20693,20703
201908140059,20703,20709,20701,20706
201908140100,20707,20709,20701,20707
201908140101,20707,20714,20706,20707
201908140102,20707,20707,20701,20702
201908140103,20702,20714,20701,20713
201908140104,20714,20714,20696,20696
201908140105,20697,20702,20682,20698
201908140106,20700,20709,20700,20704
201908140107,20704,20712,20704,20711
201908140108,20711,20712,20706,20707
201908140109,20707,20709,20696,20702
201908140110,20702,20707,20701,20706
201908140111,20707,20709,20696,20703
201908140112,20703,20707,20698,20701
201908140113,20702,20704,20698,20699
201908140114,20699,20715,20699,20715
201908140115,20715,20719,20713,20716
201908140116,20716,20721,20716,20716
201908140117,20716,20722,20716,20721
201908140118,20721,20721,20716,20717
201908140119,20717,20719,20716,20717
201908140120,20717,20724,20716,20722
201908140121,20722,20742,20721,20742
201908140122,20742,20742,20726,20731
201908140123,20731,20737,20731,20736
201908140124,20736,20736,20724,20727
201908140125,20727,20727,20716,20722
201908140126,20721,20725,20716,20717
201908140127,20717,20719,20711,20715
201908140128,20715,20717,20711,20711
201908140129,20712,20712,20706,20707
201908140130,20706,20711,20706,20707
201908140131,20707,20707,20691,20694
201908140132,20693,20696,20682,20686
201908140133,20686,20693,20686,20689
201908140134,20688,20697,20686,20696
201908140135,20697,20709,20697,20706
201908140136,20706,20707,20694,20698
201908140137,20696,20706,20696,20704
201908140138,20704,20704,20691,20696
201908140139,20697,20697,20691,20694
201908140140,20694,20702,20692,20701
201908140141,20701,20701,20696,20696
201908140142,20696,20699,20691,20693
201908140143,20693,20695,20688,20692
201908140144,20692,20699,20691,20696
201908140145,20696,20697,20691,20691
201908140146,20691,20698,20691,20696
201908140147,20696,20702,20694,20701
201908140148,20701,20702,20691,20693
201908140149,20693,20696,20691,20693
201908140150,20693,20701,20691,20700
201908140151,20700,20701,20696,20700
201908140152,20700,20701,20696,20696
201908140153,20696,20696,20691,20692
201908140154,20692,20695,20686,20688
201908140155,20689,20692,20685,20686
201908140156,20686,20687,20676,20677
201908140157,20677,20677,20671,20676
201908140158,20676,20685,20676,20684
201908140159,20684,20684,20677,20681
201908140200,20681,20682,20671,20672
201908140201,20672,20677,20670,20672
201908140202,20672,20682,20672,20681
201908140203,20681,20686,20680,20682
201908140204,20682,20696,20681,20694
201908140205,20696,20702,20691,20701
201908140206,20701,20701,20690,20691
201908140207,20691,20697,20691,20695
201908140208,20695,20712,20695,20707
201908140209,20707,20707,20700,20707
201908140210,20707,20712,20704,20706
201908140211,20706,20708,20702,20707
201908140212,20707,20711,20704,20707
201908140213,20707,20711,20705,20711
201908140214,20712,20712,20705,20705
201908140215,20705,20712,20705,20707
201908140216,20707,20707,20705,20707
201908140217,20707,20707,20630,20637
201908140218,20635,20671,20635,20661
201908140219,20657,20682,20656,20663
201908140220,20663,20664,20647,20661
201908140221,20656,20665,20653,20663
201908140222,20666,20682,20656,20666
201908140223,20666,20672,20657,20662
201908140224,20662,20667,20657,20663
201908140225,20663,20682,20660,20664
201908140226,20664,20667,20660,20665
201908140227,20665,20672,20664,20669
201908140228,20670,20677,20659,20661
201908140229,20661,20673,20657,20673
201908140230,20671,20673,20660,20670
201908140231,20670,20681,20668,20681
201908140232,20680,20680,20671,20672
201908140233,20672,20679,20667,20679
201908140234,20679,20687,20676,20682
201908140235,20682,20691,20682,20690
201908140236,20690,20690,20680,20687
201908140237,20687,20690,20681,20686
201908140238,20686,20692,20685,20686
201908140239,20686,20686,20675,20681
201908140240,20681,20687,20679,20680
201908140241,20680,20682,20679,20681
201908140242,20681,20682,20675,20680
201908140243,20680,20682,20675,20679
201908140244,20677,20687,20676,20684
201908140245,20684,20692,20681,20691
201908140246,20691,20699,20686,20699
201908140247,20699,20707,20695,20695
201908140248,20695,20695,20688,20693
201908140249,20693,20696,20686,20692
201908140250,20690,20697,20690,20691
201908140251,20691,20692,20690,20690
201908140252,20690,20697,20690,20697
201908140253,20697,20702,20695,20696
201908140254,20696,20702,20695,20696
201908140255,20696,20698,20691,20696
201908140256,20696,20705,20696,20701
201908140257,20701,20702,20692,20695
201908140258,20695,20702,20695,20697
201908140259,20697,20699,20695,20698
201908140300,20698,20702,20690,20693
201908140301,20693,20697,20690,20697
201908140302,20697,20697,20690,20691
201908140303,20691,20695,20690,20694
201908140304,20694,20697,20691,20695
201908140305,20695,20698,20690,20690
201908140306,20690,20693,20690,20691
201908140307,20691,20693,20690,20691
201908140308,20692,20692,20689,20692
201908140309,20692,20696,20691,20692
201908140310,20692,20697,20690,20692
201908140311,20692,20697,20691,20693
201908140312,20693,20697,20692,20696
201908140313,20696,20697,20693,20694
201908140314,20694,20696,20691,20696
201908140315,20696,20702,20695,20701
201908140316,20701,20705,20701,20701
201908140317,20701,20707,20700,20707
201908140318,20707,20707,20701,20701
201908140319,20701,20705,20701,20702
201908140320,20702,20707,20700,20700
201908140321,20702,20705,20700,20701
201908140322,20701,20707,20700,20701
201908140323,20701,20707,20700,20706
201908140324,20706,20707,20706,20706
201908140325,20706,20717,20706,20717
201908140326,20717,20717,20715,20715
201908140327,20715,20717,20715,20715
201908140328,20715,20722,20715,20722
201908140329,20722,20722,20715,20722
201908140330,20722,20722,20715,20717
201908140331,20717,20720,20711,20711
201908140332,20711,20716,20707,20715
201908140333,20715,20722,20715,20722
201908140334,20722,20726,20716,20725
201908140335,20725,20725,20715,20717
201908140336,20717,20722,20715,20719
201908140337,20719,20719,20712,20712
201908140338,20712,20718,20712,20718
201908140339,20718,20727,20717,20721
201908140340,20721,20722,20716,20716
201908140341,20716,20722,20716,20722
201908140342,20722,20722,20715,20717
201908140343,20717,20722,20717,20722
201908140344,20722,20722,20716,20720
201908140345,20720,20724,20715,20716
201908140346,20716,20720,20715,20716
201908140347,20716,20717,20705,20712
201908140348,20711,20712,20706,20710
201908140349,20710,20712,20709,20711
201908140350,20711,20712,20710,20711
201908140351,20711,20717,20710,20717
201908140352,20717,20717,20710,20711
201908140353,20711,20716,20710,20711
201908140354,20711,20716,20710,20711
201908140355,20711,20712,20710,20710
201908140356,20710,20710,20705,20706
201908140357,20706,20711,20705,20709
201908140358,20708,20712,20705,20712
201908140359,20712,20713,20710,20711
201908140400,20711,20715,20709,20711
201908140401,20711,20711,20707,20707
201908140402,20707,20707,20701,20701
201908140403,20701,20706,20695,20699
201908140404,20699,20705,20696,20699
201908140405,20699,20702,20695,20695
201908140406,20695,20700,20695,20698
201908140407,20698,20700,20691,20693
201908140408,20693,20697,20690,20697
201908140409,20697,20700,20690,20697
201908140410,20698,20699,20695,20697
201908140411,20697,20697,20692,20692
201908140412,20692,20693,20691,20692
201908140413,20692,20694,20686,20694
201908140414,20694,20697,20692,20697
201908140415,20697,20697,20694,20697
201908140416,20696,20702,20695,20702
201908140417,20702,20702,20696,20699
201908140418,20699,20702,20696,20700
201908140419,20700,20702,20700,20702
201908140420,20702,20705,20696,20700
201908140421,20700,20700,20690,20696
201908140422,20696,20697,20691,20696
201908140423,20696,20700,20695,20695
201908140424,20695,20697,20690,20695
201908140425,20696,20700,20695,20695
201908140426,20695,20699,20695,20697
201908140427,20697,20701,20694,20701
201908140428,20701,20704,20700,20701
201908140429,20701,20705,20700,20705
201908140430,20705,20705,20691,20694
201908140431,20694,20702,20694,20702
201908140432,20702,20703,20696,20701
201908140433,20701,20702,20694,20698
201908140434,20696,20697,20693,20696
201908140435,20696,20697,20690,20697
201908140436,20697,20700,20695,20696
201908140437,20696,20697,20691,20697
201908140438,20697,20700,20693,20697
201908140439,20697,20702,20696,20702
201908140440,20702,20706,20700,20705
201908140441,20705,20705,20695,20696
201908140442,20697,20701,20691,20695
201908140443,20695,20698,20690,20691
201908140444,20691,20696,20689,20692
201908140445,20692,20696,20689,20689
201908140446,20689,20692,20685,20686
201908140447,20686,20690,20685,20686
201908140448,20687,20689,20683,20688
201908140449,20687,20696,20685,20695
201908140450,20695,20697,20690,20697
201908140451,20697,20697,20690,20694
201908140452,20694,20707,20690,20702
201908140453,20702,20709,20696,20709
201908140454,20709,20715,20706,20715
201908140455,20719,20719,20695,20697
201908140456,20696,20700,20690,20691
201908140457,20691,20692,20687,20690
201908140458,20690,20697,20690,20696
201908140459,20696,20710,20691,20709
201908140500,20709,20714,20697,20701
201908140501,20701,20707,20698,20707
201908140502,20707,20715,20706,20715
201908140503,20715,20717,20711,20716
201908140504,20716,20717,20715,20715
201908140505,20715,20717,20715,20717
201908140506,20717,20717,20711,20714
201908140507,20714,20717,20710,20710
201908140508,20711,20717,20710,20717
201908140509,20717,20717,20710,20711
201908140510,20711,20717,20711,20716
201908140511,20716,20717,20715,20715
201908140512,20715,20717,20715,20717
201908140513,20717,20717,20714,20716
201908140514,20716,20722,20712,20722
201908140515,20722,20722,20717,20717
201908140516,20717,20717,20715,20716
201908140517,20716,20718,20715,20718
201908140518,20718,20718,20716,20716
201908140519,20716,20721,20716,20721
201908140520,20721,20726,20721,20726
201908140521,20726,20726,20725,20725
201908140522,20725,20726,20721,20721
201908140523,20721,20721,20717,20718
201908140524,20718,20722,20716,20717
201908140525,20717,20727,20716,20726
201908140526,20726,20727,20726,20727
201908140527,20727,20727,20720,20721
201908140528,20721,20727,20721,20727
201908140529,20727,20727,20722,20722
201908140530,20722,20727,20720,20723
201908140531,20723,20726,20721,20726
201908140532,20726,20726,20726,20726
201908140533,20726,20732,20726,20732
201908140534,20732,20746,20731,20746
201908140535,20746,20746,20745,20746
201908140536,20746,20746,20740,20740
201908140537,20740,20747,20740,20747
201908140538,20747,20747,20746,20747
201908140539,20747,20747,20740,20741
201908140540,20741,20742,20740,20740
201908140541,20740,20745,20740,20745
201908140542,20745,20749,20744,20749
201908140543,20749,20749,20743,20749
201908140544,20749,20752,20748,20748
201908140545,20748,20748,20743,20743
201908140546,20743,20744,20743,20743
201908140547,20743,20743,20743,20743
201908140548,20743,20743,20741,20742
201908140549,20742,20742,20741,20741
201908140550,20742,20742,20739,20740
201908140551,20740,20742,20740,20742
201908140552,20742,20742,20741,20741
201908140553,20741,20741,20736,20736
201908140554,20736,20745,20736,20743
201908140555,20743,20744,20743,20743
201908140556,20743,20743,20738,20738
201908140557,20738,20739,20736,20736
201908140558,20736,20736,20736,20736
201908140559,20736,20737,20736,20737
