日時,始値(BID),高値(BID),安値(BID),終値(BID)
201908120830,20467,20467,20440,20442
201908120831,20442,20448,20435,20435
201908120832,20435,20435,20413,20426
201908120833,20425,20430,20413,20413
201908120834,20413,20414,20390,20395
201908120835,20395,20397,20389,20397
201908120836,20397,20405,20395,20400
201908120837,20400,20417,20395,20414
201908120838,20414,20426,20402,20402
201908120839,20402,20410,20399,20410
201908120840,20410,20420,20409,20420
201908120841,20420,20420,20413,20418
201908120842,20418,20418,20406,20408
201908120843,20408,20414,20408,20414
201908120844,20414,20414,20406,20406
201908120845,20406,20413,20404,20413
201908120846,20413,20427,20409,20424
201908120847,20424,20432,20423,20432
201908120848,20433,20438,20413,20413
201908120849,20413,20426,20413,20422
201908120850,20422,20427,20395,20395
201908120851,20395,20411,20395,20410
201908120852,20410,20410,20407,20408
201908120853,20408,20408,20395,20399
201908120854,20399,20406,20395,20401
201908120855,20401,20406,20398,20399
201908120856,20399,20401,20383,20383
201908120857,20383,20395,20383,20389
201908120858,20389,20396,20389,20394
201908120859,20394,20400,20389,20396
201908120900,20396,20411,20396,20399
201908120901,20399,20401,20364,20371
201908120902,20371,20387,20371,20387
201908120903,20387,20402,20380,20400
201908120904,20400,20401,20383,20401
201908120905,20401,20411,20387,20406
201908120906,20407,20407,20400,20401
201908120907,20401,20402,20393,20400
201908120908,20400,20401,20390,20390
201908120909,20390,20396,20390,20396
201908120910,20396,20407,20392,20407
201908120911,20407,20407,20391,20395
201908120912,20395,20396,20385,20396
201908120913,20396,20396,20387,20387
201908120914,20387,20392,20380,20382
201908120915,20382,20382,20375,20379
201908120916,20379,20379,20375,20375
201908120917,20375,20377,20370,20372
201908120918,20372,20385,20371,20385
201908120919,20385,20386,20377,20382
201908120920,20382,20387,20381,20387
201908120921,20386,20402,20386,20396
201908120922,20396,20401,20391,20392
201908120923,20392,20392,20385,20386
201908120924,20386,20396,20385,20391
201908120925,20391,20392,20380,20380
201908120926,20380,20382,20371,20374
201908120927,20374,20381,20370,20381
201908120928,20381,20382,20366,20372
201908120929,20372,20383,20371,20383
201908120930,20383,20386,20380,20381
201908120931,20381,20387,20380,20382
201908120932,20382,20388,20377,20388
201908120933,20388,20388,20380,20385
201908120934,20385,20386,20382,20382
201908120935,20382,20391,20382,20387
201908120936,20387,20396,20387,20396
201908120937,20396,20397,20396,20396
201908120938,20396,20401,20396,20398
201908120939,20398,20402,20395,20399
201908120940,20399,20402,20399,20401
201908120941,20401,20416,20400,20412
201908120942,20412,20422,20410,20419
201908120943,20419,20426,20419,20424
201908120944,20424,20431,20421,20427
201908120945,20427,20433,20425,20430
201908120946,20430,20431,20413,20422
201908120947,20422,20425,20417,20421
201908120948,20421,20427,20419,20421
201908120949,20421,20421,20415,20416
201908120950,20416,20426,20416,20421
201908120951,20421,20421,20419,20420
201908120952,20421,20426,20420,20425
201908120953,20425,20425,20420,20420
201908120954,20421,20423,20420,20423
201908120955,20423,20426,20420,20424
201908120956,20424,20432,20424,20428
201908120957,20428,20430,20423,20426
201908120958,20426,20426,20414,20420
201908120959,20420,20424,20417,20422
201908121000,20422,20431,20420,20431
201908121001,20431,20445,20428,20441
201908121002,20441,20447,20440,20441
201908121003,20441,20441,20434,20438
201908121004,20436,20440,20435,20437
201908121005,20437,20440,20435,20437
201908121006,20437,20437,20435,20435
201908121007,20435,20437,20430,20432
201908121008,20432,20437,20430,20432
201908121009,20432,20432,20430,20432
201908121010,20432,20436,20430,20433
201908121011,20433,20437,20431,20431
201908121012,20431,20437,20430,20436
201908121013,20436,20437,20434,20436
201908121014,20436,20437,20431,20436
201908121015,20436,20452,20425,20449
201908121016,20449,20462,20449,20450
201908121017,20450,20461,20450,20458
201908121018,20458,20459,20447,20450
201908121019,20450,20450,20445,20445
201908121020,20445,20446,20438,20441
201908121021,20441,20451,20440,20450
201908121022,20450,20455,20448,20452
201908121023,20452,20452,20445,20451
201908121024,20451,20455,20450,20455
201908121025,20455,20476,20455,20475
201908121026,20476,20481,20468,20473
201908121027,20473,20473,20468,20470
201908121028,20470,20471,20465,20470
201908121029,20470,20483,20470,20480
201908121030,20480,20483,20475,20480
201908121031,20480,20492,20480,20481
201908121032,20481,20492,20481,20486
201908121033,20486,20506,20486,20505
201908121034,20505,20516,20500,20510
201908121035,20511,20521,20509,20515
201908121036,20515,20521,20515,20518
201908121037,20518,20523,20514,20520
201908121038,20520,20524,20519,20521
201908121039,20521,20522,20515,20519
201908121040,20519,20520,20505,20509
201908121041,20509,20522,20509,20515
201908121042,20515,20518,20510,20510
201908121043,20511,20516,20500,20506
201908121044,20506,20506,20486,20489
201908121045,20489,20506,20487,20503
201908121046,20503,20507,20496,20503
201908121047,20503,20507,20495,20500
201908121048,20501,20505,20497,20498
201908121049,20498,20507,20495,20507
201908121050,20507,20507,20497,20501
201908121051,20501,20507,20495,20496
201908121052,20496,20501,20495,20500
201908121053,20500,20505,20496,20500
201908121054,20500,20506,20495,20506
201908121055,20506,20512,20504,20511
201908121056,20511,20512,20505,20506
201908121057,20506,20517,20500,20516
201908121058,20516,20517,20510,20514
201908121059,20514,20514,20505,20505
201908121100,20505,20515,20505,20505
201908121101,20505,20511,20505,20511
201908121102,20511,20512,20505,20509
201908121103,20509,20512,20505,20507
201908121104,20507,20512,20506,20507
201908121105,20507,20511,20505,20505
201908121106,20505,20509,20505,20506
201908121107,20506,20507,20500,20506
201908121108,20506,20506,20505,20505
201908121109,20507,20507,20505,20505
201908121110,20505,20513,20505,20511
201908121111,20511,20512,20509,20509
201908121112,20510,20521,20510,20521
201908121113,20521,20521,20520,20521
201908121114,20521,20527,20521,20526
201908121115,20526,20542,20525,20535
201908121116,20535,20537,20525,20526
201908121117,20526,20527,20525,20526
201908121118,20526,20526,20515,20516
201908121119,20516,20521,20515,20521
201908121120,20521,20531,20520,20525
201908121121,20525,20532,20525,20532
201908121122,20532,20536,20531,20536
201908121123,20536,20541,20534,20535
201908121124,20535,20536,20530,20536
201908121125,20536,20542,20535,20541
201908121126,20541,20542,20535,20536
201908121127,20536,20542,20536,20540
201908121128,20540,20542,20529,20532
201908121129,20532,20536,20530,20536
201908121130,20536,20541,20532,20532
201908121131,20532,20532,20525,20525
201908121132,20525,20531,20525,20529
201908121133,20529,20531,20520,20520
201908121134,20520,20520,20515,20516
201908121135,20516,20521,20516,20521
201908121136,20521,20521,20515,20515
201908121137,20515,20521,20515,20521
201908121138,20521,20521,20512,20517
201908121139,20517,20519,20510,20511
201908121140,20511,20517,20506,20511
201908121141,20511,20511,20505,20507
201908121142,20507,20509,20505,20505
201908121143,20506,20507,20500,20501
201908121144,20501,20515,20501,20508
201908121145,20508,20511,20502,20508
201908121146,20508,20510,20498,20500
201908121147,20500,20506,20500,20501
201908121148,20501,20508,20500,20508
201908121149,20508,20508,20505,20505
201908121150,20505,20506,20505,20506
201908121151,20506,20506,20501,20506
201908121152,20506,20510,20505,20505
201908121153,20505,20510,20505,20505
201908121154,20505,20507,20500,20500
201908121155,20501,20505,20500,20503
201908121156,20503,20505,20500,20501
201908121157,20501,20512,20501,20511
201908121158,20511,20511,20505,20511
201908121159,20511,20512,20509,20510
201908121200,20510,20517,20510,20516
201908121201,20516,20522,20512,20521
201908121202,20520,20523,20516,20523
201908121203,20524,20527,20520,20527
201908121204,20527,20527,20523,20524
201908121205,20524,20531,20521,20531
201908121206,20531,20537,20529,20536
201908121207,20536,20537,20531,20536
201908121208,20536,20536,20536,20536
201908121209,20536,20536,20530,20531
201908121210,20531,20531,20520,20525
201908121211,20525,20525,20520,20520
201908121212,20520,20521,20520,20520
201908121213,20520,20521,20515,20516
201908121214,20516,20521,20515,20515
201908121215,20515,20520,20515,20518
201908121216,20518,20518,20515,20515
201908121217,20515,20520,20515,20518
201908121218,20518,20519,20516,20518
201908121219,20517,20517,20513,20517
201908121220,20517,20522,20515,20521
201908121221,20521,20521,20517,20519
201908121222,20521,20521,20515,20516
201908121223,20516,20519,20515,20516
201908121224,20516,20517,20515,20516
201908121225,20516,20519,20515,20519
201908121226,20519,20521,20517,20521
201908121227,20521,20522,20521,20521
201908121228,20521,20521,20521,20521
201908121229,20521,20521,20520,20520
201908121230,20520,20521,20516,20516
201908121231,20516,20516,20510,20511
201908121232,20511,20511,20510,20511
201908121233,20511,20512,20510,20510
201908121234,20510,20512,20510,20510
201908121235,20511,20513,20509,20511
201908121236,20511,20512,20511,20512
201908121237,20512,20516,20511,20516
201908121238,20516,20522,20515,20515
201908121239,20515,20517,20515,20517
201908121240,20517,20517,20515,20516
201908121241,20516,20522,20516,20522
201908121242,20522,20522,20520,20521
201908121243,20521,20521,20520,20520
201908121244,20521,20521,20521,20521
201908121245,20521,20521,20516,20516
201908121246,20516,20516,20514,20515
201908121247,20516,20516,20505,20506
201908121248,20506,20507,20505,20505
201908121249,20505,20506,20505,20505
201908121250,20505,20508,20505,20508
201908121251,20508,20511,20505,20511
201908121252,20511,20511,20507,20507
201908121253,20507,20510,20507,20510
201908121254,20510,20512,20507,20511
201908121255,20511,20511,20510,20510
201908121256,20510,20512,20507,20507
201908121257,20508,20508,20502,20505
201908121258,20505,20506,20504,20506
201908121259,20506,20506,20505,20505
201908121300,20505,20509,20505,20506
201908121301,20506,20506,20504,20504
201908121302,20504,20504,20504,20504
201908121303,20504,20504,20502,20502
201908121304,20502,20502,20500,20501
201908121305,20501,20506,20501,20506
201908121306,20506,20506,20500,20501
201908121307,20501,20502,20500,20501
201908121308,20501,20502,20489,20490
201908121309,20490,20492,20490,20492
201908121310,20492,20497,20490,20495
201908121311,20495,20496,20487,20487
201908121312,20487,20489,20487,20488
201908121313,20488,20492,20487,20492
201908121314,20492,20492,20486,20487
201908121315,20487,20491,20485,20485
201908121316,20485,20485,20481,20483
201908121317,20483,20486,20481,20481
201908121318,20481,20482,20481,20482
201908121319,20482,20487,20481,20487
201908121320,20487,20489,20482,20486
201908121321,20486,20491,20484,20491
201908121322,20491,20491,20489,20489
201908121323,20489,20490,20489,20489
201908121324,20489,20490,20489,20490
201908121325,20490,20492,20490,20492
201908121326,20492,20493,20492,20493
201908121327,20493,20493,20490,20491
201908121328,20491,20492,20488,20488
201908121329,20488,20488,20487,20487
201908121330,20487,20495,20487,20495
201908121331,20495,20496,20495,20495
201908121332,20495,20501,20495,20500
201908121333,20500,20501,20500,20500
201908121334,20500,20502,20500,20500
201908121335,20500,20509,20500,20509
201908121336,20509,20509,20505,20505
201908121337,20505,20509,20505,20507
201908121338,20507,20509,20507,20507
201908121339,20507,20508,20505,20507
201908121340,20507,20510,20507,20510
201908121341,20510,20510,20505,20506
201908121342,20506,20507,20505,20507
201908121343,20507,20507,20506,20506
201908121344,20506,20506,20505,20506
201908121345,20506,20506,20505,20505
201908121346,20505,20510,20505,20510
201908121347,20510,20510,20509,20510
201908121348,20510,20511,20490,20490
201908121349,20490,20501,20490,20501
201908121350,20501,20501,20495,20498
201908121351,20498,20498,20495,20496
201908121352,20496,20498,20495,20498
201908121353,20498,20498,20495,20495
201908121354,20495,20495,20495,20495
201908121355,20495,20502,20495,20495
201908121356,20495,20496,20495,20495
201908121357,20495,20498,20495,20497
201908121358,20497,20497,20492,20495
201908121359,20495,20497,20490,20497
201908121400,20497,20497,20490,20497
201908121401,20496,20502,20495,20502
201908121402,20502,20502,20502,20502
201908121403,20502,20502,20491,20491
201908121404,20491,20492,20487,20488
201908121405,20488,20488,20480,20481
201908121406,20481,20485,20480,20482
201908121407,20482,20485,20481,20481
201908121408,20481,20485,20481,20482
201908121409,20482,20487,20482,20483
201908121410,20483,20490,20483,20489
201908121411,20489,20495,20489,20495
201908121412,20495,20495,20487,20489
201908121413,20489,20491,20485,20490
201908121414,20490,20490,20487,20488
201908121415,20488,20492,20487,20488
201908121416,20488,20491,20487,20490
201908121417,20490,20496,20490,20495
201908121418,20495,20501,20495,20498
201908121419,20498,20502,20498,20502
201908121420,20502,20503,20500,20503
201908121421,20503,20503,20501,20501
201908121422,20501,20507,20500,20506
201908121423,20506,20510,20504,20510
201908121424,20510,20511,20510,20510
201908121425,20510,20517,20510,20512
201908121426,20512,20512,20507,20511
201908121427,20511,20512,20505,20510
201908121428,20510,20510,20509,20510
201908121429,20510,20510,20508,20510
201908121430,20510,20515,20509,20515
201908121431,20515,20515,20510,20510
201908121432,20510,20511,20507,20511
201908121433,20511,20516,20511,20515
201908121434,20515,20516,20515,20516
201908121435,20516,20523,20516,20521
201908121436,20521,20525,20520,20520
201908121437,20520,20521,20520,20520
201908121438,20520,20522,20520,20521
201908121439,20521,20524,20520,20520
201908121440,20520,20527,20520,20527
201908121441,20527,20527,20526,20526
201908121442,20526,20527,20521,20521
201908121443,20521,20522,20519,20521
201908121444,20521,20521,20519,20519
201908121445,20519,20522,20515,20521
201908121446,20521,20524,20520,20521
201908121447,20521,20524,20520,20521
201908121448,20521,20522,20516,20517
201908121449,20517,20517,20515,20517
201908121450,20517,20517,20514,20517
201908121451,20517,20517,20516,20517
201908121452,20517,20522,20516,20522
201908121453,20522,20522,20516,20516
201908121454,20516,20522,20516,20521
201908121455,20521,20527,20520,20527
201908121456,20527,20527,20526,20527
201908121457,20527,20527,20521,20522
201908121458,20522,20525,20521,20522
201908121459,20522,20522,20520,20520
201908121500,20520,20522,20511,20511
201908121501,20511,20517,20510,20515
201908121502,20515,20515,20510,20515
201908121503,20515,20530,20515,20529
201908121504,20529,20529,20525,20526
201908121505,20526,20527,20520,20525
201908121506,20525,20527,20515,20520
201908121507,20520,20522,20516,20516
201908121508,20516,20521,20516,20521
201908121509,20521,20522,20515,20522
201908121510,20522,20522,20510,20511
201908121511,20511,20517,20510,20515
201908121512,20515,20522,20515,20520
201908121513,20520,20522,20515,20515
201908121514,20515,20516,20515,20515
201908121515,20515,20526,20515,20524
201908121516,20524,20526,20520,20520
201908121517,20520,20522,20515,20515
201908121518,20515,20517,20512,20515
201908121519,20515,20516,20514,20515
201908121520,20515,20520,20515,20520
201908121521,20520,20521,20514,20521
201908121522,20521,20522,20519,20521
201908121523,20521,20522,20519,20521
201908121524,20521,20524,20517,20524
201908121525,20521,20522,20520,20521
201908121526,20521,20521,20516,20517
201908121527,20517,20522,20517,20522
201908121528,20522,20522,20518,20518
201908121529,20518,20526,20518,20526
201908121530,20526,20527,20521,20525
201908121531,20525,20525,20520,20521
201908121532,20521,20522,20516,20522
201908121533,20522,20522,20520,20521
201908121534,20521,20526,20521,20522
201908121535,20522,20524,20520,20524
201908121536,20524,20526,20523,20524
201908121537,20524,20526,20524,20526
201908121538,20526,20531,20523,20529
201908121539,20529,20532,20529,20530
201908121540,20530,20537,20530,20536
201908121541,20536,20537,20530,20531
201908121542,20531,20531,20526,20526
201908121543,20526,20531,20526,20531
201908121544,20531,20531,20531,20531
201908121545,20531,20532,20530,20531
201908121546,20532,20532,20526,20529
201908121547,20529,20532,20527,20532
201908121548,20532,20532,20520,20522
201908121549,20522,20522,20520,20521
201908121550,20521,20522,20520,20521
201908121551,20521,20522,20520,20522
201908121552,20522,20522,20520,20521
201908121553,20521,20521,20518,20518
201908121554,20518,20519,20516,20518
201908121555,20517,20523,20517,20518
201908121556,20518,20518,20515,20515
201908121557,20515,20516,20506,20511
201908121558,20511,20514,20510,20514
201908121559,20514,20517,20514,20516
201908121600,20516,20550,20515,20545
201908121601,20545,20554,20545,20550
201908121602,20550,20555,20550,20550
201908121603,20550,20556,20550,20550
201908121604,20550,20552,20550,20550
201908121605,20550,20559,20550,20557
201908121606,20557,20562,20555,20561
201908121607,20561,20565,20560,20561
201908121608,20561,20562,20555,20555
201908121609,20555,20558,20555,20555
201908121610,20555,20557,20550,20550
201908121611,20550,20551,20545,20545
201908121612,20545,20546,20545,20545
201908121613,20545,20551,20545,20547
201908121614,20547,20556,20547,20550
201908121615,20550,20560,20550,20555
201908121616,20555,20561,20554,20555
201908121617,20555,20556,20555,20555
201908121618,20555,20561,20555,20561
201908121619,20561,20567,20560,20567
201908121620,20567,20567,20565,20565
201908121621,20565,20571,20565,20570
201908121622,20570,20576,20569,20576
201908121623,20576,20577,20570,20575
201908121624,20575,20577,20570,20576
201908121625,20576,20576,20567,20568
201908121626,20568,20568,20565,20565
201908121627,20565,20571,20560,20570
201908121628,20570,20572,20565,20566
201908121629,20566,20566,20556,20556
201908121630,20556,20557,20552,20554
201908121631,20552,20554,20550,20552
201908121632,20552,20553,20550,20550
201908121633,20550,20551,20545,20548
201908121634,20548,20549,20544,20546
201908121635,20546,20547,20540,20542
201908121636,20542,20546,20540,20540
201908121637,20540,20549,20540,20547
201908121638,20547,20552,20545,20550
201908121639,20550,20552,20545,20547
201908121640,20547,20547,20545,20546
201908121641,20546,20554,20542,20553
201908121642,20553,20553,20550,20551
201908121643,20551,20561,20550,20561
201908121644,20561,20562,20557,20561
201908121645,20561,20562,20558,20561
201908121646,20561,20567,20560,20566
201908121647,20566,20566,20555,20556
201908121648,20556,20560,20550,20550
201908121649,20550,20552,20546,20546
201908121650,20546,20546,20540,20541
201908121651,20542,20542,20535,20537
201908121652,20537,20538,20530,20530
201908121653,20530,20532,20525,20525
201908121654,20525,20526,20521,20526
201908121655,20526,20527,20520,20526
201908121656,20526,20527,20524,20524
201908121657,20524,20527,20521,20526
201908121658,20526,20526,20520,20524
201908121659,20524,20526,20520,20520
201908121700,20520,20521,20510,20514
201908121701,20514,20517,20511,20515
201908121702,20515,20516,20506,20512
201908121703,20512,20512,20493,20493
201908121704,20493,20496,20480,20491
201908121705,20491,20491,20485,20487
201908121706,20487,20487,20466,20466
201908121707,20466,20467,20459,20460
201908121708,20460,20460,20432,20436
201908121709,20436,20446,20430,20440
201908121710,20440,20441,20430,20436
201908121711,20435,20446,20435,20440
201908121712,20440,20442,20435,20440
201908121713,20440,20447,20440,20442
201908121714,20442,20449,20441,20445
201908121715,20445,20447,20437,20445
201908121716,20445,20451,20441,20451
201908121717,20451,20457,20440,20442
201908121718,20442,20447,20426,20432
201908121719,20432,20434,20421,20427
201908121720,20427,20427,20422,20427
201908121721,20427,20427,20415,20416
201908121722,20416,20422,20415,20416
201908121723,20416,20416,20405,20412
201908121724,20410,20412,20403,20407
201908121725,20407,20407,20394,20396
201908121726,20396,20408,20395,20408
201908121727,20408,20408,20395,20396
201908121728,20396,20408,20396,20405
201908121729,20405,20415,20405,20410
201908121730,20410,20415,20410,20410
201908121731,20410,20417,20408,20410
201908121732,20410,20412,20391,20391
201908121733,20391,20394,20385,20394
201908121734,20394,20396,20386,20390
201908121735,20390,20407,20390,20405
201908121736,20405,20411,20402,20410
201908121737,20410,20410,20396,20397
201908121738,20397,20400,20395,20400
201908121739,20400,20402,20398,20402
201908121740,20402,20402,20395,20397
201908121741,20397,20397,20390,20390
201908121742,20390,20393,20378,20378
201908121743,20378,20382,20364,20367
201908121744,20367,20377,20365,20367
201908121745,20368,20377,20366,20377
201908121746,20377,20387,20376,20386
201908121747,20386,20392,20383,20385
201908121748,20385,20386,20375,20376
201908121749,20376,20378,20370,20370
201908121750,20370,20370,20363,20369
201908121751,20369,20371,20360,20360
201908121752,20360,20360,20347,20352
201908121753,20352,20362,20346,20351
201908121754,20351,20361,20350,20360
201908121755,20360,20362,20356,20361
201908121756,20361,20362,20355,20361
201908121757,20361,20371,20361,20371
201908121758,20371,20377,20371,20376
201908121759,20376,20376,20370,20376
201908121800,20375,20382,20370,20370
201908121801,20370,20371,20336,20341
201908121802,20341,20352,20341,20351
201908121803,20351,20351,20340,20340
201908121804,20340,20352,20335,20350
201908121805,20350,20361,20350,20356
201908121806,20356,20357,20353,20356
201908121807,20356,20361,20355,20360
201908121808,20360,20362,20355,20360
201908121809,20360,20362,20355,20356
201908121810,20356,20357,20350,20356
201908121811,20356,20357,20350,20352
201908121812,20352,20352,20350,20350
201908121813,20351,20352,20340,20346
201908121814,20346,20347,20341,20346
201908121815,20346,20347,20338,20342
201908121816,20342,20342,20335,20336
201908121817,20336,20342,20333,20336
201908121818,20336,20343,20329,20343
201908121819,20343,20344,20336,20337
201908121820,20337,20342,20335,20341
201908121821,20341,20350,20340,20347
201908121822,20347,20347,20345,20347
201908121823,20347,20347,20346,20347
201908121824,20347,20347,20346,20346
201908121825,20346,20346,20338,20341
201908121826,20341,20352,20340,20352
201908121827,20352,20352,20340,20342
201908121828,20342,20352,20340,20352
201908121829,20352,20362,20351,20360
201908121830,20360,20367,20355,20366
201908121831,20366,20382,20366,20382
201908121832,20382,20385,20377,20377
201908121833,20377,20380,20374,20376
201908121834,20376,20377,20367,20369
201908121835,20369,20380,20368,20379
201908121836,20379,20380,20376,20376
201908121837,20376,20381,20376,20379
201908121838,20379,20384,20378,20384
201908121839,20384,20393,20384,20392
201908121840,20392,20392,20378,20379
201908121841,20379,20380,20372,20375
201908121842,20375,20381,20372,20377
201908121843,20377,20377,20367,20371
201908121844,20371,20372,20368,20371
201908121845,20371,20371,20365,20366
201908121846,20366,20370,20365,20366
201908121847,20366,20367,20355,20356
201908121848,20356,20358,20344,20351
201908121849,20351,20352,20340,20341
201908121850,20341,20342,20330,20336
201908121851,20336,20337,20332,20335
201908121852,20335,20336,20329,20335
201908121853,20335,20342,20335,20341
201908121854,20341,20347,20337,20341
201908121855,20341,20347,20335,20347
201908121856,20347,20347,20341,20346
201908121857,20346,20346,20340,20341
201908121858,20341,20346,20335,20346
201908121859,20346,20346,20340,20343
201908121900,20344,20351,20340,20350
201908121901,20350,20352,20345,20345
201908121902,20345,20348,20340,20340
201908121903,20340,20345,20340,20344
201908121904,20344,20344,20322,20325
201908121905,20325,20331,20323,20326
201908121906,20326,20332,20324,20330
201908121907,20330,20332,20327,20332
201908121908,20332,20332,20325,20329
201908121909,20329,20329,20315,20317
201908121910,20317,20326,20310,20326
201908121911,20326,20331,20325,20331
201908121912,20331,20337,20325,20336
201908121913,20336,20347,20335,20343
201908121914,20341,20348,20341,20348
201908121915,20348,20349,20344,20345
201908121916,20345,20352,20345,20351
201908121917,20351,20357,20350,20355
201908121918,20355,20356,20350,20356
201908121919,20356,20361,20355,20355
201908121920,20355,20363,20355,20357
201908121921,20357,20360,20350,20350
201908121922,20350,20353,20350,20351
201908121923,20351,20352,20346,20349
201908121924,20349,20356,20346,20355
201908121925,20355,20357,20351,20354
201908121926,20354,20356,20340,20340
201908121927,20340,20346,20332,20333
201908121928,20333,20336,20325,20325
201908121929,20326,20327,20320,20320
201908121930,20320,20322,20305,20307
201908121931,20307,20307,20295,20306
201908121932,20306,20309,20291,20298
201908121933,20298,20301,20295,20295
201908121934,20295,20306,20295,20306
201908121935,20306,20316,20302,20315
201908121936,20315,20322,20315,20321
201908121937,20321,20321,20305,20310
201908121938,20310,20321,20307,20321
201908121939,20321,20321,20310,20311
201908121940,20311,20312,20304,20306
201908121941,20306,20312,20306,20311
201908121942,20311,20311,20302,20305
201908121943,20305,20306,20290,20296
201908121944,20296,20296,20290,20295
201908121945,20295,20302,20295,20302
201908121946,20302,20304,20295,20295
201908121947,20295,20301,20295,20301
201908121948,20301,20302,20295,20300
201908121949,20300,20305,20300,20302
201908121950,20302,20306,20296,20300
201908121951,20300,20311,20300,20305
201908121952,20305,20312,20305,20311
201908121953,20311,20318,20310,20318
201908121954,20320,20321,20315,20316
201908121955,20316,20326,20316,20326
201908121956,20326,20331,20325,20326
201908121957,20326,20327,20323,20323
201908121958,20323,20325,20315,20316
201908121959,20316,20321,20315,20320
201908122000,20320,20324,20320,20322
201908122001,20322,20332,20320,20330
201908122002,20330,20331,20330,20331
201908122003,20330,20331,20326,20326
201908122004,20326,20328,20325,20325
201908122005,20325,20332,20325,20330
201908122006,20330,20331,20327,20327
201908122007,20327,20328,20326,20327
201908122008,20327,20327,20321,20322
201908122009,20322,20322,20320,20321
201908122010,20321,20326,20320,20320
201908122011,20320,20321,20317,20317
201908122012,20319,20324,20315,20316
201908122013,20316,20322,20316,20320
201908122014,20320,20320,20315,20319
201908122015,20319,20320,20315,20318
201908122016,20318,20318,20310,20311
201908122017,20311,20312,20300,20301
201908122018,20301,20301,20285,20293
201908122019,20293,20293,20291,20292
201908122020,20292,20296,20288,20291
201908122021,20291,20291,20287,20287
201908122022,20287,20288,20275,20276
201908122023,20276,20280,20266,20270
201908122024,20270,20271,20256,20262
201908122025,20262,20262,20255,20260
201908122026,20260,20266,20258,20264
201908122027,20264,20277,20264,20275
201908122028,20275,20282,20275,20280
201908122029,20280,20287,20280,20286
201908122030,20285,20292,20281,20289
201908122031,20289,20289,20285,20286
201908122032,20286,20305,20286,20297
201908122033,20297,20302,20295,20296
201908122034,20296,20305,20295,20300
201908122035,20300,20306,20300,20304
201908122036,20304,20306,20297,20299
201908122037,20301,20309,20299,20306
201908122038,20306,20316,20302,20316
201908122039,20316,20325,20315,20320
201908122040,20320,20323,20315,20318
201908122041,20318,20318,20309,20311
201908122042,20311,20313,20305,20307
201908122043,20307,20310,20300,20302
201908122044,20302,20312,20300,20306
201908122045,20306,20307,20302,20303
201908122046,20303,20304,20296,20301
201908122047,20301,20307,20300,20301
201908122048,20301,20303,20300,20303
201908122049,20303,20321,20300,20319
201908122050,20319,20319,20311,20311
201908122051,20311,20316,20310,20312
201908122052,20312,20312,20310,20310
201908122053,20310,20312,20306,20311
201908122054,20311,20312,20304,20306
201908122055,20306,20307,20290,20290
201908122056,20290,20297,20285,20292
201908122057,20292,20296,20290,20290
201908122058,20290,20296,20290,20296
201908122059,20296,20296,20295,20296
201908122100,20296,20301,20290,20301
201908122101,20301,20318,20300,20316
201908122102,20316,20321,20313,20316
201908122103,20316,20318,20312,20317
201908122104,20317,20327,20315,20325
201908122105,20325,20331,20321,20330
201908122106,20330,20338,20325,20337
201908122107,20339,20341,20335,20335
201908122108,20335,20337,20332,20336
201908122109,20336,20337,20331,20332
201908122110,20332,20332,20326,20330
201908122111,20330,20331,20325,20326
201908122112,20326,20330,20325,20326
201908122113,20326,20328,20323,20325
201908122114,20326,20326,20325,20326
201908122115,20326,20326,20315,20320
201908122116,20319,20327,20315,20327
201908122117,20327,20327,20323,20327
201908122118,20327,20332,20327,20330
201908122119,20330,20332,20330,20330
201908122120,20330,20332,20330,20331
201908122121,20331,20336,20330,20332
201908122122,20332,20333,20326,20331
201908122123,20331,20332,20330,20331
201908122124,20331,20332,20327,20330
201908122125,20330,20341,20329,20339
201908122126,20339,20341,20336,20336
201908122127,20338,20341,20335,20336
201908122128,20336,20341,20335,20338
201908122129,20338,20343,20330,20332
201908122130,20332,20341,20331,20337
201908122131,20338,20338,20335,20336
201908122132,20336,20337,20329,20331
201908122133,20331,20336,20329,20335
201908122134,20335,20336,20332,20335
201908122135,20335,20336,20332,20335
201908122136,20334,20336,20334,20335
201908122137,20335,20336,20334,20336
201908122138,20336,20336,20330,20330
201908122139,20330,20331,20319,20319
201908122140,20319,20321,20300,20312
201908122141,20308,20317,20305,20315
201908122142,20315,20322,20315,20321
201908122143,20321,20321,20311,20316
201908122144,20316,20322,20311,20312
201908122145,20312,20317,20310,20316
201908122146,20316,20318,20312,20313
201908122147,20312,20317,20311,20315
201908122148,20315,20322,20315,20320
201908122149,20320,20326,20315,20323
201908122150,20323,20331,20320,20327
201908122151,20327,20331,20325,20325
201908122152,20325,20345,20325,20343
201908122153,20340,20356,20340,20351
201908122154,20351,20352,20345,20347
201908122155,20347,20347,20340,20345
201908122156,20345,20347,20342,20343
201908122157,20343,20356,20343,20356
201908122158,20356,20357,20340,20342
201908122159,20342,20347,20340,20342
201908122200,20342,20351,20341,20350
201908122201,20350,20356,20345,20347
201908122202,20347,20347,20340,20342
201908122203,20342,20349,20337,20340
201908122204,20340,20342,20330,20335
201908122205,20335,20341,20331,20340
201908122206,20340,20346,20339,20346
201908122207,20346,20356,20345,20354
201908122208,20354,20354,20344,20346
201908122209,20346,20349,20345,20345
201908122210,20345,20346,20337,20342
201908122211,20342,20346,20339,20343
201908122212,20343,20347,20340,20341
201908122213,20341,20342,20337,20337
201908122214,20338,20341,20331,20333
201908122215,20333,20338,20331,20338
201908122216,20338,20338,20335,20335
201908122217,20335,20336,20333,20334
201908122218,20334,20336,20334,20335
201908122219,20335,20340,20334,20338
201908122220,20338,20342,20336,20337
201908122221,20337,20337,20330,20331
201908122222,20331,20335,20330,20332
201908122223,20332,20332,20330,20330
201908122224,20330,20333,20326,20331
201908122225,20331,20336,20331,20335
201908122226,20335,20335,20332,20332
201908122227,20332,20337,20330,20336
201908122228,20336,20336,20330,20331
201908122229,20331,20331,20325,20327
201908122230,20330,20342,20323,20341
201908122231,20341,20357,20325,20335
201908122232,20335,20342,20315,20316
201908122233,20316,20332,20315,20328
201908122234,20328,20331,20316,20318
201908122235,20318,20321,20303,20313
201908122236,20313,20313,20291,20305
201908122237,20305,20321,20300,20316
201908122238,20316,20317,20302,20308
201908122239,20309,20320,20302,20303
201908122240,20303,20307,20290,20291
201908122241,20291,20298,20287,20296
201908122242,20295,20302,20290,20296
201908122243,20296,20303,20296,20301
201908122244,20301,20307,20295,20301
201908122245,20301,20322,20295,20316
201908122246,20316,20332,20316,20322
201908122247,20322,20326,20315,20316
201908122248,20316,20316,20300,20311
201908122249,20311,20316,20307,20311
201908122250,20311,20312,20305,20308
201908122251,20308,20321,20307,20320
201908122252,20320,20327,20315,20321
201908122253,20321,20321,20310,20311
201908122254,20311,20311,20300,20306
201908122255,20306,20314,20301,20310
201908122256,20310,20317,20305,20316
201908122257,20316,20326,20316,20321
201908122258,20320,20322,20317,20322
201908122259,20322,20332,20320,20332
201908122300,20331,20343,20325,20342
201908122301,20342,20367,20342,20360
201908122302,20360,20362,20355,20356
201908122303,20355,20355,20344,20346
201908122304,20346,20352,20340,20340
201908122305,20340,20340,20328,20335
201908122306,20335,20335,20327,20331
201908122307,20331,20332,20320,20321
201908122308,20321,20326,20316,20317
201908122309,20317,20322,20315,20322
201908122310,20322,20327,20316,20323
201908122311,20323,20337,20320,20325
201908122312,20325,20332,20320,20320
201908122313,20320,20332,20320,20326
201908122314,20326,20346,20325,20346
201908122315,20346,20351,20337,20341
201908122316,20341,20357,20340,20352
201908122317,20351,20361,20347,20361
201908122318,20361,20367,20355,20355
201908122319,20355,20361,20355,20360
201908122320,20360,20367,20355,20356
201908122321,20356,20367,20355,20365
201908122322,20365,20371,20363,20366
201908122323,20366,20391,20365,20386
201908122324,20385,20394,20385,20393
201908122325,20393,20402,20393,20401
201908122326,20401,20402,20385,20387
201908122327,20386,20387,20380,20386
201908122328,20386,20392,20383,20385
201908122329,20385,20390,20380,20380
201908122330,20380,20391,20380,20385
201908122331,20385,20392,20385,20390
201908122332,20390,20401,20390,20391
201908122333,20391,20391,20384,20385
201908122334,20385,20391,20381,20383
201908122335,20383,20386,20375,20376
201908122336,20376,20382,20375,20376
201908122337,20376,20379,20370,20372
201908122338,20372,20377,20367,20370
201908122339,20370,20376,20369,20376
201908122340,20376,20386,20375,20381
201908122341,20381,20382,20365,20372
201908122342,20372,20372,20355,20356
201908122343,20356,20362,20355,20362
201908122344,20362,20362,20346,20348
201908122345,20348,20351,20330,20330
201908122346,20330,20342,20325,20337
201908122347,20337,20341,20326,20328
201908122348,20328,20328,20317,20321
201908122349,20321,20332,20321,20329
201908122350,20329,20331,20320,20327
201908122351,20327,20335,20327,20331
201908122352,20331,20340,20330,20330
201908122353,20330,20341,20330,20338
201908122354,20338,20351,20338,20350
201908122355,20350,20352,20342,20343
201908122356,20344,20351,20344,20345
201908122357,20345,20357,20345,20356
201908122358,20356,20361,20352,20355
201908122359,20355,20357,20351,20356
201908130000,20353,20353,20344,20346
201908130001,20346,20347,20329,20335
201908130002,20334,20350,20333,20337
201908130003,20337,20337,20326,20329
201908130004,20329,20336,20326,20332
201908130005,20332,20332,20319,20323
201908130006,20323,20332,20320,20327
201908130007,20327,20330,20325,20329
201908130008,20329,20329,20325,20327
201908130009,20327,20327,20320,20322
201908130010,20322,20322,20301,20302
201908130011,20302,20302,20295,20298
201908130012,20298,20302,20285,20287
201908130013,20287,20289,20280,20281
201908130014,20281,20286,20275,20275
201908130015,20275,20284,20275,20280
201908130016,20280,20292,20280,20292
201908130017,20292,20314,20290,20311
201908130018,20312,20312,20301,20307
201908130019,20307,20317,20301,20316
201908130020,20316,20322,20313,20322
201908130021,20322,20327,20316,20327
201908130022,20327,20330,20325,20326
201908130023,20326,20327,20324,20325
201908130024,20325,20334,20325,20332
201908130025,20332,20339,20325,20334
201908130026,20334,20337,20330,20331
201908130027,20331,20332,20320,20326
201908130028,20326,20332,20324,20327
201908130029,20327,20332,20322,20326
201908130030,20326,20342,20325,20339
201908130031,20339,20347,20339,20346
201908130032,20346,20346,20336,20341
201908130033,20341,20342,20316,20316
201908130034,20316,20318,20309,20317
201908130035,20317,20327,20310,20327
201908130036,20327,20327,20320,20326
201908130037,20326,20327,20316,20318
201908130038,20318,20332,20318,20331
201908130039,20331,20333,20325,20327
201908130040,20327,20332,20321,20326
201908130041,20326,20333,20325,20333
201908130042,20333,20342,20329,20342
201908130043,20342,20347,20340,20344
201908130044,20344,20357,20344,20357
201908130045,20357,20364,20355,20357
201908130046,20357,20372,20356,20370
201908130047,20373,20377,20369,20375
201908130048,20376,20381,20370,20371
201908130049,20371,20379,20370,20379
201908130050,20379,20381,20371,20371
201908130051,20371,20381,20370,20377
201908130052,20377,20387,20373,20387
201908130053,20387,20388,20380,20386
201908130054,20386,20387,20382,20387
201908130055,20387,20387,20380,20380
201908130056,20380,20387,20380,20387
201908130057,20387,20387,20380,20381
201908130058,20381,20382,20376,20377
201908130059,20377,20379,20371,20373
201908130100,20373,20373,20361,20365
201908130101,20365,20367,20355,20356
201908130102,20356,20362,20346,20351
201908130103,20351,20353,20349,20350
201908130104,20350,20350,20346,20347
201908130105,20347,20347,20341,20341
201908130106,20341,20352,20341,20351
201908130107,20351,20352,20345,20345
201908130108,20345,20352,20345,20352
201908130109,20352,20363,20350,20359
201908130110,20359,20378,20359,20378
201908130111,20378,20382,20365,20366
201908130112,20366,20373,20366,20372
201908130113,20372,20374,20367,20371
201908130114,20371,20377,20366,20371
201908130115,20371,20377,20365,20366
201908130116,20366,20372,20365,20370
201908130117,20370,20372,20365,20370
201908130118,20370,20377,20365,20375
201908130119,20375,20387,20375,20386
201908130120,20386,20391,20384,20384
201908130121,20384,20387,20381,20385
201908130122,20385,20402,20385,20395
201908130123,20395,20396,20390,20392
201908130124,20392,20392,20381,20381
201908130125,20381,20387,20380,20380
201908130126,20380,20382,20370,20372
201908130127,20372,20377,20371,20377
201908130128,20377,20382,20374,20381
201908130129,20381,20387,20381,20385
201908130130,20385,20390,20379,20385
201908130131,20385,20401,20385,20401
201908130132,20401,20401,20390,20391
201908130133,20391,20397,20391,20397
201908130134,20396,20397,20380,20382
201908130135,20382,20382,20380,20381
201908130136,20381,20387,20381,20386
201908130137,20387,20387,20381,20382
201908130138,20382,20382,20381,20381
201908130139,20381,20384,20380,20382
201908130140,20382,20385,20352,20361
201908130141,20361,20366,20345,20354
201908130142,20354,20363,20354,20361
201908130143,20361,20366,20355,20361
201908130144,20361,20365,20356,20357
201908130145,20357,20357,20345,20355
201908130146,20357,20358,20350,20352
201908130147,20352,20352,20350,20352
201908130148,20352,20356,20351,20352
201908130149,20352,20352,20346,20352
201908130150,20352,20357,20349,20352
201908130151,20352,20352,20326,20326
201908130152,20326,20330,20325,20325
201908130153,20325,20328,20325,20327
201908130154,20327,20327,20325,20326
201908130155,20326,20329,20320,20326
201908130156,20326,20337,20325,20337
201908130157,20337,20337,20332,20336
201908130158,20335,20343,20335,20337
201908130159,20337,20339,20331,20337
201908130200,20337,20337,20331,20332
201908130201,20332,20335,20330,20333
201908130202,20333,20333,20330,20332
201908130203,20332,20332,20329,20332
201908130204,20332,20332,20325,20327
201908130205,20327,20332,20326,20332
201908130206,20332,20332,20325,20330
201908130207,20330,20341,20326,20341
201908130208,20341,20347,20335,20337
201908130209,20337,20337,20325,20327
201908130210,20327,20332,20325,20330
201908130211,20330,20331,20325,20330
201908130212,20330,20334,20326,20327
201908130213,20328,20334,20326,20334
201908130214,20334,20338,20334,20336
201908130215,20336,20342,20336,20337
201908130216,20337,20337,20332,20335
201908130217,20335,20339,20335,20335
201908130218,20335,20337,20318,20318
201908130219,20318,20326,20316,20325
201908130220,20325,20332,20324,20330
201908130221,20330,20332,20330,20331
201908130222,20331,20337,20330,20335
201908130223,20335,20337,20331,20331
201908130224,20331,20332,20325,20327
201908130225,20327,20332,20326,20327
201908130226,20327,20332,20325,20330
201908130227,20331,20333,20330,20331
201908130228,20331,20332,20330,20331
201908130229,20331,20332,20325,20332
201908130230,20332,20332,20326,20327
201908130231,20327,20327,20320,20326
201908130232,20326,20332,20325,20331
201908130233,20331,20332,20330,20330
201908130234,20330,20332,20330,20331
201908130235,20331,20332,20325,20326
201908130236,20326,20327,20320,20322
201908130237,20322,20325,20320,20321
201908130238,20321,20322,20316,20316
201908130239,20316,20317,20310,20312
201908130240,20312,20312,20300,20302
201908130241,20302,20312,20301,20311
201908130242,20310,20311,20302,20302
201908130243,20302,20302,20295,20298
201908130244,20298,20302,20291,20297
201908130245,20297,20299,20291,20298
201908130246,20298,20298,20290,20292
201908130247,20292,20292,20290,20292
201908130248,20292,20297,20290,20297
201908130249,20297,20297,20292,20297
201908130250,20297,20297,20291,20292
201908130251,20292,20292,20286,20287
201908130252,20287,20292,20285,20291
201908130253,20291,20292,20286,20292
201908130254,20291,20298,20290,20295
201908130255,20295,20302,20295,20296
201908130256,20296,20298,20290,20290
201908130257,20290,20297,20290,20291
201908130258,20291,20297,20291,20296
201908130259,20296,20298,20293,20297
201908130300,20297,20297,20286,20286
201908130301,20286,20291,20286,20287
201908130302,20287,20297,20285,20296
201908130303,20296,20300,20292,20296
201908130304,20296,20302,20295,20297
201908130305,20295,20297,20290,20294
201908130306,20294,20297,20285,20292
201908130307,20292,20292,20286,20288
201908130308,20286,20292,20286,20291
201908130309,20291,20292,20286,20291
201908130310,20291,20291,20281,20287
201908130311,20287,20297,20286,20296
201908130312,20296,20297,20295,20296
201908130313,20296,20297,20291,20292
201908130314,20292,20297,20292,20297
201908130315,20297,20301,20291,20292
201908130316,20291,20292,20291,20292
201908130317,20292,20296,20287,20292
201908130318,20292,20292,20285,20286
201908130319,20286,20287,20280,20282
201908130320,20282,20282,20276,20282
201908130321,20282,20282,20279,20281
201908130322,20281,20282,20271,20271
201908130323,20271,20272,20265,20271
201908130324,20271,20277,20270,20276
201908130325,20276,20277,20270,20272
201908130326,20272,20272,20261,20261
201908130327,20261,20264,20260,20260
201908130328,20260,20260,20255,20257
201908130329,20256,20257,20250,20252
201908130330,20252,20257,20251,20257
201908130331,20256,20258,20253,20256
201908130332,20256,20259,20254,20256
201908130333,20255,20259,20250,20256
201908130334,20256,20257,20251,20256
201908130335,20256,20259,20253,20257
201908130336,20257,20257,20246,20246
201908130337,20246,20252,20246,20252
201908130338,20252,20252,20245,20245
201908130339,20245,20247,20240,20242
201908130340,20242,20244,20238,20238
201908130341,20238,20240,20230,20236
201908130342,20236,20236,20226,20227
201908130343,20227,20227,20205,20212
201908130344,20212,20218,20210,20217
201908130345,20217,20222,20211,20221
201908130346,20221,20223,20212,20216
201908130347,20216,20222,20215,20222
201908130348,20222,20223,20220,20222
201908130349,20222,20222,20205,20207
201908130350,20207,20217,20207,20211
201908130351,20211,20222,20210,20221
201908130352,20221,20247,20216,20247
201908130353,20247,20247,20230,20231
201908130354,20231,20232,20230,20231
201908130355,20231,20242,20225,20240
201908130356,20240,20242,20230,20232
201908130357,20232,20236,20226,20226
201908130358,20226,20227,20222,20222
201908130359,20222,20226,20210,20226
201908130400,20226,20247,20220,20247
201908130401,20247,20253,20240,20252
201908130402,20251,20257,20249,20251
201908130403,20251,20253,20240,20250
201908130404,20250,20257,20245,20252
201908130405,20252,20252,20240,20246
201908130406,20246,20249,20242,20248
201908130407,20248,20249,20240,20240
201908130408,20240,20258,20240,20257
201908130409,20257,20257,20240,20240
201908130410,20240,20252,20240,20248
201908130411,20248,20252,20245,20247
201908130412,20247,20252,20245,20247
201908130413,20247,20248,20240,20241
201908130414,20241,20247,20240,20243
201908130415,20244,20247,20241,20241
201908130416,20241,20243,20239,20241
201908130417,20241,20243,20240,20241
201908130418,20241,20251,20240,20251
201908130419,20251,20259,20245,20252
201908130420,20252,20252,20242,20244
201908130421,20246,20252,20240,20246
201908130422,20246,20247,20236,20237
201908130423,20237,20242,20235,20240
201908130424,20240,20247,20240,20242
201908130425,20242,20243,20235,20240
201908130426,20240,20242,20236,20240
201908130427,20240,20247,20240,20245
201908130428,20247,20257,20247,20255
201908130429,20255,20257,20255,20257
201908130430,20257,20257,20255,20256
201908130431,20256,20261,20251,20257
201908130432,20257,20257,20255,20256
201908130433,20256,20257,20250,20251
201908130434,20251,20252,20245,20246
201908130435,20246,20252,20236,20238
201908130436,20238,20252,20238,20252
201908130437,20252,20253,20250,20252
201908130438,20252,20261,20250,20256
201908130439,20256,20262,20256,20260
201908130440,20260,20262,20255,20257
201908130441,20257,20262,20257,20262
201908130442,20262,20262,20256,20256
201908130443,20256,20266,20256,20261
201908130444,20262,20282,20260,20282
201908130445,20282,20287,20280,20286
201908130446,20286,20286,20276,20277
201908130447,20277,20277,20266,20267
201908130448,20267,20271,20260,20261
201908130449,20261,20262,20256,20257
201908130450,20257,20262,20256,20262
201908130451,20262,20267,20261,20267
201908130452,20267,20267,20260,20262
201908130453,20263,20269,20261,20266
201908130454,20266,20267,20262,20263
201908130455,20264,20267,20260,20266
201908130456,20266,20272,20265,20267
201908130457,20267,20267,20260,20261
201908130458,20261,20272,20260,20268
201908130459,20268,20268,20255,20267
201908130500,20266,20276,20265,20267
201908130501,20267,20267,20265,20267
201908130502,20267,20267,20265,20267
201908130503,20267,20270,20265,20270
201908130504,20270,20270,20256,20262
201908130505,20262,20265,20261,20261
201908130506,20261,20266,20261,20266
201908130507,20266,20266,20260,20261
201908130508,20261,20264,20261,20262
201908130509,20262,20262,20260,20261
201908130510,20261,20262,20260,20262
201908130511,20262,20262,20260,20260
201908130512,20260,20262,20259,20262
201908130513,20262,20267,20261,20267
201908130514,20267,20272,20261,20262
201908130515,20262,20267,20262,20266
201908130516,20266,20271,20262,20262
201908130517,20262,20262,20255,20259
201908130518,20259,20265,20259,20265
201908130519,20265,20265,20265,20265
201908130520,20265,20266,20265,20266
201908130521,20266,20266,20260,20260
201908130522,20260,20260,20258,20260
201908130523,20260,20260,20260,20260
201908130524,20260,20265,20260,20265
201908130525,20265,20265,20262,20262
201908130526,20262,20263,20261,20261
201908130527,20261,20261,20259,20260
201908130528,20260,20262,20260,20262
201908130529,20262,20262,20259,20259
201908130530,20259,20261,20248,20248
201908130531,20248,20250,20245,20245
201908130532,20245,20248,20245,20245
201908130533,20245,20246,20244,20246
201908130534,20246,20251,20245,20249
201908130535,20249,20254,20249,20254
201908130536,20254,20255,20254,20255
201908130537,20255,20255,20252,20252
201908130538,20252,20255,20251,20252
201908130539,20252,20269,20252,20264
201908130540,20264,20266,20260,20263
201908130541,20263,20264,20261,20261
201908130542,20261,20261,20261,20261
201908130543,20261,20265,20261,20265
201908130544,20265,20265,20263,20265
201908130545,20265,20265,20264,20265
201908130546,20265,20265,20265,20265
201908130547,20265,20265,20265,20265
201908130548,20265,20265,20265,20265
201908130549,20265,20265,20264,20264
201908130550,20264,20265,20262,20265
201908130551,20265,20265,20264,20265
201908130552,20265,20266,20263,20264
201908130553,20264,20266,20264,20266
201908130554,20266,20266,20265,20265
201908130555,20265,20265,20264,20265
201908130556,20265,20265,20265,20265
201908130557,20265,20265,20265,20265
201908130558,20265,20265,20265,20265
201908130559,20265,20269,20260,20260
