日時,始値(BID),高値(BID),安値(BID),終値(BID)
201908210830,20465,20471,20465,20470
201908210831,20470,20471,20469,20471
201908210832,20471,20471,20464,20464
201908210833,20464,20464,20456,20457
201908210834,20457,20462,20457,20462
201908210835,20462,20466,20462,20466
201908210836,20466,20472,20466,20472
201908210837,20472,20486,20472,20486
201908210838,20486,20486,20475,20476
201908210839,20476,20477,20471,20472
201908210840,20472,20474,20469,20474
201908210841,20474,20477,20474,20475
201908210842,20475,20481,20473,20476
201908210843,20476,20476,20470,20472
201908210844,20472,20477,20470,20471
201908210845,20480,20480,20471,20472
201908210846,20472,20476,20471,20476
201908210847,20476,20476,20471,20473
201908210848,20473,20473,20466,20467
201908210849,20467,20467,20466,20467
201908210850,20467,20471,20466,20467
201908210851,20467,20472,20466,20467
201908210852,20467,20467,20461,20462
201908210853,20462,20462,20462,20462
201908210854,20462,20467,20462,20467
201908210855,20467,20467,20462,20465
201908210856,20465,20471,20465,20471
201908210857,20471,20471,20461,20468
201908210858,20468,20469,20464,20467
201908210859,20467,20469,20462,20467
201908210900,20466,20476,20465,20472
201908210901,20471,20471,20461,20465
201908210902,20465,20481,20461,20481
201908210903,20481,20495,20481,20494
201908210904,20495,20503,20487,20491
201908210905,20491,20527,20490,20521
201908210906,20520,20527,20516,20521
201908210907,20520,20527,20520,20522
201908210908,20525,20527,20501,20502
201908210909,20502,20507,20491,20491
201908210910,20491,20496,20486,20496
201908210911,20496,20512,20496,20506
201908210912,20506,20509,20496,20496
201908210913,20496,20514,20496,20513
201908210914,20513,20515,20510,20510
201908210915,20510,20521,20510,20519
201908210916,20519,20525,20519,20522
201908210917,20522,20535,20520,20531
201908210918,20532,20535,20530,20531
201908210919,20532,20533,20521,20521
201908210920,20523,20532,20521,20532
201908210921,20532,20532,20521,20522
201908210922,20522,20522,20520,20521
201908210923,20521,20521,20516,20517
201908210924,20519,20534,20519,20528
201908210925,20528,20534,20526,20532
201908210926,20532,20532,20526,20527
201908210927,20527,20527,20521,20527
201908210928,20527,20530,20525,20525
201908210929,20525,20527,20521,20527
201908210930,20527,20533,20526,20531
201908210931,20531,20535,20530,20535
201908210932,20535,20537,20532,20532
201908210933,20532,20532,20522,20525
201908210934,20525,20531,20525,20531
201908210935,20531,20534,20528,20528
201908210936,20527,20532,20527,20532
201908210937,20532,20532,20527,20529
201908210938,20529,20534,20528,20534
201908210939,20534,20535,20533,20534
201908210940,20534,20535,20534,20535
201908210941,20535,20537,20535,20536
201908210942,20536,20537,20535,20535
201908210943,20536,20541,20536,20541
201908210944,20541,20541,20529,20532
201908210945,20532,20532,20525,20526
201908210946,20525,20527,20522,20527
201908210947,20527,20533,20525,20532
201908210948,20532,20532,20529,20531
201908210949,20531,20532,20529,20530
201908210950,20530,20532,20529,20530
201908210951,20530,20532,20530,20532
201908210952,20532,20532,20531,20532
201908210953,20532,20532,20530,20530
201908210954,20530,20532,20526,20527
201908210955,20527,20530,20526,20527
201908210956,20527,20527,20517,20520
201908210957,20521,20521,20512,20515
201908210958,20515,20515,20511,20515
201908210959,20515,20516,20514,20516
201908211000,20516,20522,20515,20522
201908211001,20522,20522,20520,20520
201908211002,20520,20522,20519,20520
201908211003,20520,20522,20519,20522
201908211004,20522,20522,20522,20522
201908211005,20522,20526,20521,20525
201908211006,20525,20532,20525,20532
201908211007,20532,20534,20530,20534
201908211008,20535,20536,20534,20535
201908211009,20535,20535,20531,20532
201908211010,20532,20532,20530,20532
201908211011,20532,20532,20527,20530
201908211012,20530,20532,20530,20532
201908211013,20532,20532,20530,20531
201908211014,20531,20532,20530,20531
201908211015,20530,20530,20527,20527
201908211016,20527,20527,20522,20522
201908211017,20522,20530,20522,20527
201908211018,20527,20529,20522,20527
201908211019,20527,20527,20524,20525
201908211020,20525,20526,20521,20526
201908211021,20525,20526,20521,20526
201908211022,20526,20530,20524,20527
201908211023,20527,20528,20526,20527
201908211024,20527,20530,20526,20530
201908211025,20530,20534,20530,20534
201908211026,20535,20535,20531,20532
201908211027,20532,20532,20527,20528
201908211028,20529,20529,20525,20527
201908211029,20527,20527,20522,20522
201908211030,20522,20522,20516,20518
201908211031,20518,20518,20511,20514
201908211032,20515,20524,20513,20524
201908211033,20525,20530,20524,20530
201908211034,20530,20530,20529,20530
201908211035,20530,20530,20526,20530
201908211036,20530,20545,20530,20544
201908211037,20544,20555,20544,20554
201908211038,20554,20562,20550,20556
201908211039,20556,20561,20556,20559
201908211040,20559,20561,20553,20557
201908211041,20557,20561,20557,20560
201908211042,20560,20561,20557,20560
201908211043,20560,20561,20556,20557
201908211044,20557,20557,20555,20555
201908211045,20556,20562,20555,20561
201908211046,20561,20561,20558,20559
201908211047,20559,20560,20556,20556
201908211048,20556,20559,20556,20557
201908211049,20557,20562,20557,20558
201908211050,20559,20562,20556,20562
201908211051,20562,20565,20562,20564
201908211052,20564,20568,20561,20567
201908211053,20567,20571,20563,20571
201908211054,20571,20578,20571,20577
201908211055,20577,20577,20568,20572
201908211056,20572,20581,20571,20581
201908211057,20581,20586,20581,20586
201908211058,20586,20589,20582,20587
201908211059,20587,20587,20581,20587
201908211100,20587,20588,20587,20587
201908211101,20587,20587,20581,20585
201908211102,20586,20588,20585,20587
201908211103,20588,20591,20585,20590
201908211104,20589,20590,20589,20590
201908211105,20590,20595,20590,20594
201908211106,20594,20594,20592,20594
201908211107,20594,20595,20592,20594
201908211108,20594,20595,20591,20592
201908211109,20592,20594,20592,20594
201908211110,20594,20595,20593,20595
201908211111,20595,20596,20590,20594
201908211112,20594,20603,20594,20603
201908211113,20601,20603,20597,20597
201908211114,20597,20597,20592,20592
201908211115,20592,20597,20592,20596
201908211116,20596,20596,20592,20592
201908211117,20592,20592,20588,20590
201908211118,20591,20591,20587,20591
201908211119,20590,20591,20586,20590
201908211120,20590,20590,20586,20588
201908211121,20588,20590,20586,20587
201908211122,20587,20587,20583,20585
201908211123,20585,20585,20582,20584
201908211124,20584,20584,20576,20581
201908211125,20581,20581,20576,20577
201908211126,20577,20582,20577,20582
201908211127,20583,20583,20576,20577
201908211128,20577,20577,20572,20572
201908211129,20572,20577,20572,20577
201908211130,20577,20579,20576,20579
201908211131,20579,20581,20577,20577
201908211132,20577,20578,20577,20577
201908211133,20577,20577,20571,20576
201908211134,20576,20578,20576,20578
201908211135,20578,20580,20576,20578
201908211136,20578,20580,20576,20578
201908211137,20578,20580,20576,20579
201908211138,20579,20581,20578,20580
201908211139,20580,20582,20579,20582
201908211140,20582,20582,20581,20581
201908211141,20581,20584,20581,20583
201908211142,20581,20583,20581,20582
201908211143,20582,20582,20582,20582
201908211144,20582,20582,20581,20582
201908211145,20582,20582,20582,20582
201908211146,20582,20582,20580,20581
201908211147,20581,20581,20576,20577
201908211148,20577,20577,20575,20575
201908211149,20575,20576,20571,20576
201908211150,20576,20577,20576,20576
201908211151,20577,20579,20576,20579
201908211152,20579,20584,20578,20584
201908211153,20583,20585,20581,20582
201908211154,20582,20584,20581,20581
201908211155,20581,20585,20581,20585
201908211156,20585,20585,20581,20581
201908211157,20582,20582,20581,20582
201908211158,20582,20582,20582,20582
201908211159,20582,20582,20582,20582
201908211200,20582,20584,20581,20584
201908211201,20584,20585,20581,20583
201908211202,20583,20584,20581,20582
201908211203,20582,20583,20576,20577
201908211204,20577,20582,20576,20582
201908211205,20582,20582,20579,20581
201908211206,20581,20582,20578,20580
201908211207,20580,20581,20576,20581
201908211208,20581,20582,20576,20577
201908211209,20577,20577,20577,20577
201908211210,20577,20577,20577,20577
201908211211,20577,20578,20576,20577
201908211212,20577,20577,20577,20577
201908211213,20577,20577,20576,20577
201908211214,20576,20577,20576,20576
201908211215,20576,20577,20576,20576
201908211216,20576,20577,20576,20577
201908211217,20577,20577,20576,20577
201908211218,20577,20577,20577,20577
201908211219,20577,20577,20577,20577
201908211220,20577,20577,20577,20577
201908211221,20577,20577,20577,20577
201908211222,20577,20577,20576,20576
201908211223,20576,20576,20575,20575
201908211224,20575,20576,20575,20575
201908211225,20575,20576,20572,20572
201908211226,20572,20572,20571,20572
201908211227,20572,20576,20571,20574
201908211228,20574,20576,20572,20576
201908211229,20576,20577,20576,20577
201908211230,20576,20577,20571,20576
201908211231,20576,20581,20576,20580
201908211232,20580,20581,20579,20581
201908211233,20581,20581,20580,20581
201908211234,20581,20582,20581,20581
201908211235,20581,20585,20578,20585
201908211236,20585,20588,20582,20587
201908211237,20587,20590,20586,20590
201908211238,20590,20592,20590,20591
201908211239,20591,20592,20591,20592
201908211240,20592,20592,20591,20592
201908211241,20592,20592,20587,20590
201908211242,20590,20591,20585,20586
201908211243,20586,20587,20585,20586
201908211244,20586,20587,20585,20586
201908211245,20586,20586,20582,20582
201908211246,20582,20585,20582,20585
201908211247,20585,20585,20582,20582
201908211248,20582,20582,20581,20582
201908211249,20581,20582,20580,20580
201908211250,20580,20582,20580,20582
201908211251,20582,20587,20582,20586
201908211252,20586,20591,20586,20591
201908211253,20591,20592,20591,20592
201908211254,20592,20592,20591,20591
201908211255,20591,20592,20591,20591
201908211256,20591,20591,20590,20590
201908211257,20590,20591,20590,20590
201908211258,20590,20591,20590,20590
201908211259,20590,20590,20586,20587
201908211300,20587,20587,20584,20586
201908211301,20586,20589,20586,20589
201908211302,20588,20589,20587,20587
201908211303,20587,20587,20586,20586
201908211304,20586,20587,20585,20586
201908211305,20586,20586,20585,20586
201908211306,20585,20585,20582,20584
201908211307,20584,20584,20581,20582
201908211308,20582,20582,20577,20577
201908211309,20577,20577,20577,20577
201908211310,20577,20577,20577,20577
201908211311,20577,20577,20577,20577
201908211312,20577,20577,20577,20577
201908211313,20577,20580,20577,20578
201908211314,20577,20577,20577,20577
201908211315,20577,20581,20577,20580
201908211316,20580,20581,20580,20580
201908211317,20580,20580,20577,20579
201908211318,20579,20580,20577,20577
201908211319,20577,20578,20576,20577
201908211320,20577,20578,20576,20577
201908211321,20577,20577,20577,20577
201908211322,20577,20577,20577,20577
201908211323,20577,20577,20576,20576
201908211324,20576,20577,20576,20577
201908211325,20577,20577,20577,20577
201908211326,20577,20577,20576,20577
201908211327,20577,20577,20577,20577
201908211328,20577,20577,20576,20577
201908211329,20577,20577,20577,20577
201908211330,20577,20577,20577,20577
201908211331,20577,20577,20577,20577
201908211332,20577,20577,20576,20576
201908211333,20576,20576,20572,20572
201908211334,20572,20572,20572,20572
201908211335,20572,20572,20571,20572
201908211336,20572,20577,20571,20577
201908211337,20577,20577,20572,20574
201908211338,20573,20575,20573,20574
201908211339,20574,20575,20571,20572
201908211340,20572,20574,20571,20574
201908211341,20574,20577,20573,20577
201908211342,20577,20577,20575,20576
201908211343,20576,20576,20575,20576
201908211344,20576,20580,20575,20580
201908211345,20580,20581,20579,20581
201908211346,20581,20582,20581,20582
201908211347,20582,20582,20580,20582
201908211348,20581,20582,20580,20581
201908211349,20581,20582,20581,20582
201908211350,20582,20584,20582,20582
201908211351,20582,20582,20581,20581
201908211352,20581,20582,20581,20582
201908211353,20582,20583,20581,20583
201908211354,20583,20583,20582,20582
201908211355,20582,20583,20581,20582
201908211356,20582,20582,20582,20582
201908211357,20582,20582,20578,20582
201908211358,20582,20582,20579,20582
201908211359,20582,20582,20581,20582
201908211400,20582,20582,20582,20582
201908211401,20582,20582,20582,20582
201908211402,20582,20582,20581,20582
201908211403,20582,20582,20582,20582
201908211404,20582,20582,20581,20581
201908211405,20581,20581,20580,20581
201908211406,20581,20581,20580,20581
201908211407,20581,20582,20581,20582
201908211408,20582,20584,20581,20584
201908211409,20584,20585,20584,20585
201908211410,20585,20590,20585,20589
201908211411,20589,20591,20589,20591
201908211412,20591,20591,20590,20590
201908211413,20590,20591,20590,20590
201908211414,20590,20591,20590,20590
201908211415,20590,20593,20590,20592
201908211416,20592,20594,20592,20594
201908211417,20594,20594,20591,20592
201908211418,20592,20592,20587,20587
201908211419,20587,20589,20586,20587
201908211420,20587,20588,20586,20587
201908211421,20587,20587,20587,20587
201908211422,20587,20587,20587,20587
201908211423,20587,20587,20587,20587
201908211424,20587,20587,20582,20582
201908211425,20582,20582,20582,20582
201908211426,20582,20582,20582,20582
201908211427,20582,20586,20582,20586
201908211428,20586,20591,20586,20590
201908211429,20590,20594,20590,20593
201908211430,20594,20594,20591,20593
201908211431,20593,20594,20592,20592
201908211432,20592,20592,20592,20592
201908211433,20592,20593,20592,20593
201908211434,20593,20594,20593,20594
201908211435,20594,20594,20594,20594
201908211436,20594,20594,20592,20592
201908211437,20592,20593,20592,20592
201908211438,20592,20592,20589,20592
201908211439,20592,20592,20592,20592
201908211440,20592,20592,20589,20590
201908211441,20590,20590,20589,20589
201908211442,20589,20590,20586,20587
201908211443,20587,20587,20587,20587
201908211444,20587,20587,20587,20587
201908211445,20587,20592,20587,20592
201908211446,20592,20592,20586,20587
201908211447,20587,20590,20586,20590
201908211448,20590,20591,20586,20590
201908211449,20590,20592,20589,20592
201908211450,20591,20592,20590,20590
201908211451,20590,20592,20590,20592
201908211452,20591,20591,20587,20591
201908211453,20591,20591,20590,20590
201908211454,20590,20595,20590,20594
201908211455,20594,20595,20593,20594
201908211456,20594,20594,20594,20594
201908211457,20594,20601,20594,20597
201908211458,20597,20599,20596,20597
201908211459,20597,20602,20597,20597
201908211500,20598,20598,20578,20581
201908211501,20581,20584,20577,20584
201908211502,20584,20587,20583,20586
201908211503,20586,20587,20585,20585
201908211504,20585,20585,20581,20581
201908211505,20581,20590,20580,20589
201908211506,20586,20589,20579,20580
201908211507,20580,20581,20575,20575
201908211508,20575,20582,20575,20581
201908211509,20581,20581,20571,20574
201908211510,20577,20582,20576,20580
201908211511,20580,20580,20576,20577
201908211512,20577,20577,20576,20576
201908211513,20576,20577,20572,20572
201908211514,20572,20572,20572,20572
201908211515,20572,20574,20571,20574
201908211516,20574,20574,20571,20571
201908211517,20571,20572,20569,20570
201908211518,20570,20570,20564,20567
201908211519,20567,20569,20566,20567
201908211520,20567,20571,20566,20570
201908211521,20570,20572,20566,20572
201908211522,20572,20572,20566,20567
201908211523,20567,20569,20566,20566
201908211524,20566,20567,20566,20567
201908211525,20567,20567,20565,20566
201908211526,20566,20568,20566,20566
201908211527,20566,20567,20562,20562
201908211528,20562,20567,20561,20566
201908211529,20566,20567,20565,20566
201908211530,20566,20567,20565,20566
201908211531,20566,20567,20566,20566
201908211532,20566,20567,20565,20566
201908211533,20566,20570,20565,20570
201908211534,20570,20570,20569,20569
201908211535,20569,20570,20566,20566
201908211536,20566,20567,20565,20565
201908211537,20565,20569,20565,20569
201908211538,20569,20571,20569,20569
201908211539,20569,20569,20566,20567
201908211540,20567,20567,20565,20566
201908211541,20566,20567,20563,20567
201908211542,20567,20567,20566,20566
201908211543,20566,20567,20565,20566
201908211544,20566,20567,20565,20567
201908211545,20567,20569,20567,20567
201908211546,20567,20567,20565,20567
201908211547,20568,20568,20565,20567
201908211548,20567,20570,20566,20570
201908211549,20570,20571,20569,20570
201908211550,20570,20572,20570,20570
201908211551,20570,20572,20570,20572
201908211552,20572,20572,20566,20567
201908211553,20567,20567,20565,20565
201908211554,20565,20571,20565,20571
201908211555,20568,20572,20566,20571
201908211556,20571,20572,20571,20572
201908211557,20572,20579,20572,20578
201908211558,20578,20578,20576,20577
201908211559,20577,20577,20575,20576
201908211600,20576,20581,20575,20580
201908211601,20580,20597,20580,20594
201908211602,20594,20606,20594,20605
201908211603,20605,20607,20600,20602
201908211604,20602,20607,20601,20606
201908211605,20606,20622,20602,20622
201908211606,20622,20622,20609,20613
201908211607,20613,20613,20606,20606
201908211608,20606,20617,20606,20617
201908211609,20617,20617,20610,20616
201908211610,20616,20617,20610,20611
201908211611,20611,20617,20610,20610
201908211612,20610,20612,20610,20612
201908211613,20612,20617,20610,20611
201908211614,20611,20611,20602,20606
201908211615,20606,20616,20605,20616
201908211616,20616,20617,20606,20606
201908211617,20606,20610,20605,20607
201908211618,20607,20621,20607,20618
201908211619,20617,20617,20610,20614
201908211620,20614,20623,20613,20622
201908211621,20622,20632,20620,20632
201908211622,20632,20637,20630,20630
201908211623,20630,20632,20620,20621
201908211624,20621,20622,20621,20622
201908211625,20622,20622,20621,20622
201908211626,20622,20625,20620,20622
201908211627,20622,20627,20622,20627
201908211628,20627,20631,20625,20626
201908211629,20626,20628,20625,20625
201908211630,20625,20625,20621,20622
201908211631,20622,20625,20621,20622
201908211632,20622,20622,20620,20622
201908211633,20622,20622,20618,20621
201908211634,20621,20625,20620,20624
201908211635,20625,20626,20621,20625
201908211636,20625,20627,20623,20625
201908211637,20625,20625,20623,20625
201908211638,20625,20625,20621,20622
201908211639,20622,20622,20617,20617
201908211640,20617,20620,20616,20620
201908211641,20620,20622,20620,20621
201908211642,20621,20621,20617,20620
201908211643,20620,20624,20620,20622
201908211644,20622,20623,20619,20619
201908211645,20619,20624,20618,20618
201908211646,20618,20621,20616,20620
201908211647,20620,20625,20620,20625
201908211648,20625,20635,20625,20626
201908211649,20626,20627,20621,20624
201908211650,20624,20629,20624,20628
201908211651,20628,20632,20626,20632
201908211652,20632,20634,20629,20633
201908211653,20633,20633,20631,20632
201908211654,20632,20632,20631,20632
201908211655,20632,20632,20631,20631
201908211656,20631,20632,20626,20627
201908211657,20627,20634,20627,20632
201908211658,20632,20633,20631,20632
201908211659,20632,20632,20626,20627
201908211700,20627,20631,20627,20631
201908211701,20631,20632,20629,20630
201908211702,20630,20639,20630,20637
201908211703,20637,20639,20635,20636
201908211704,20637,20640,20635,20637
201908211705,20637,20637,20631,20636
201908211706,20636,20636,20631,20632
201908211707,20632,20632,20628,20629
201908211708,20629,20630,20626,20627
201908211709,20627,20627,20627,20627
201908211710,20627,20627,20626,20627
201908211711,20627,20627,20627,20627
201908211712,20627,20627,20626,20627
201908211713,20626,20627,20617,20617
201908211714,20617,20621,20617,20621
201908211715,20621,20621,20616,20617
201908211716,20617,20620,20616,20617
201908211717,20617,20620,20616,20619
201908211718,20619,20621,20616,20617
201908211719,20618,20624,20616,20622
201908211720,20622,20629,20622,20628
201908211721,20628,20628,20627,20627
201908211722,20627,20627,20621,20623
201908211723,20621,20626,20621,20626
201908211724,20626,20630,20626,20630
201908211725,20630,20632,20626,20628
201908211726,20628,20632,20628,20631
201908211727,20631,20637,20630,20636
201908211728,20636,20637,20636,20636
201908211729,20636,20637,20635,20635
201908211730,20635,20635,20631,20634
201908211731,20634,20635,20633,20635
201908211732,20635,20636,20631,20632
201908211733,20632,20634,20631,20632
201908211734,20632,20634,20631,20632
201908211735,20632,20636,20632,20636
201908211736,20636,20639,20634,20637
201908211737,20637,20645,20634,20645
201908211738,20645,20645,20639,20643
201908211739,20643,20646,20643,20646
201908211740,20646,20657,20646,20657
201908211741,20657,20661,20651,20658
201908211742,20659,20660,20654,20656
201908211743,20656,20656,20655,20655
201908211744,20655,20662,20655,20660
201908211745,20660,20667,20658,20663
201908211746,20663,20667,20661,20667
201908211747,20667,20667,20666,20667
201908211748,20667,20668,20666,20667
201908211749,20667,20667,20665,20665
201908211750,20665,20668,20663,20666
201908211751,20666,20669,20661,20662
201908211752,20662,20663,20662,20662
201908211753,20662,20662,20656,20657
201908211754,20656,20660,20656,20660
201908211755,20660,20665,20660,20664
201908211756,20664,20665,20660,20662
201908211757,20662,20664,20660,20662
201908211758,20663,20665,20661,20663
201908211759,20663,20664,20661,20662
201908211800,20662,20664,20661,20663
201908211801,20663,20664,20661,20661
201908211802,20661,20664,20661,20663
201908211803,20663,20664,20660,20661
201908211804,20661,20661,20656,20657
201908211805,20657,20661,20656,20660
201908211806,20660,20664,20659,20661
201908211807,20661,20663,20656,20658
201908211808,20658,20661,20656,20656
201908211809,20658,20660,20656,20658
201908211810,20658,20661,20656,20661
201908211811,20661,20662,20656,20657
201908211812,20657,20659,20656,20657
201908211813,20657,20661,20656,20661
201908211814,20661,20663,20660,20661
201908211815,20663,20665,20662,20665
201908211816,20665,20665,20658,20658
201908211817,20658,20659,20656,20657
201908211818,20657,20657,20652,20653
201908211819,20653,20656,20652,20652
201908211820,20652,20656,20651,20654
201908211821,20655,20656,20651,20656
201908211822,20655,20657,20655,20656
201908211823,20656,20658,20654,20654
201908211824,20654,20657,20654,20657
201908211825,20657,20665,20656,20665
201908211826,20665,20665,20661,20662
201908211827,20662,20664,20659,20664
201908211828,20664,20665,20662,20664
201908211829,20664,20664,20663,20664
201908211830,20664,20664,20661,20661
201908211831,20661,20662,20661,20662
201908211832,20662,20664,20661,20664
201908211833,20664,20664,20660,20664
201908211834,20664,20664,20661,20663
201908211835,20663,20676,20662,20672
201908211836,20672,20672,20666,20672
201908211837,20672,20672,20671,20671
201908211838,20671,20671,20666,20671
201908211839,20671,20673,20666,20666
201908211840,20666,20669,20666,20667
201908211841,20667,20671,20666,20670
201908211842,20670,20672,20666,20672
201908211843,20672,20674,20670,20673
201908211844,20673,20674,20671,20672
201908211845,20672,20676,20671,20674
201908211846,20674,20675,20671,20672
201908211847,20672,20672,20665,20667
201908211848,20667,20668,20666,20667
201908211849,20667,20667,20662,20662
201908211850,20662,20662,20662,20662
201908211851,20662,20666,20661,20665
201908211852,20665,20669,20665,20669
201908211853,20669,20670,20666,20668
201908211854,20669,20669,20666,20667
201908211855,20667,20667,20663,20665
201908211856,20665,20665,20662,20662
201908211857,20662,20664,20661,20662
201908211858,20662,20663,20657,20657
201908211859,20657,20659,20656,20658
201908211900,20658,20659,20656,20657
201908211901,20657,20657,20657,20657
201908211902,20657,20657,20652,20652
201908211903,20652,20652,20646,20648
201908211904,20648,20651,20646,20651
201908211905,20651,20652,20651,20652
201908211906,20652,20655,20652,20652
201908211907,20652,20653,20652,20652
201908211908,20652,20655,20652,20655
201908211909,20655,20656,20655,20656
201908211910,20656,20656,20655,20655
201908211911,20655,20656,20655,20655
201908211912,20655,20655,20652,20655
201908211913,20655,20656,20655,20656
201908211914,20656,20659,20656,20657
201908211915,20657,20660,20656,20660
201908211916,20660,20660,20653,20656
201908211917,20656,20657,20654,20656
201908211918,20656,20658,20656,20658
201908211919,20658,20659,20656,20657
201908211920,20657,20658,20656,20657
201908211921,20657,20659,20655,20658
201908211922,20659,20663,20658,20663
201908211923,20663,20665,20662,20664
201908211924,20664,20664,20661,20662
201908211925,20662,20663,20661,20662
201908211926,20662,20662,20660,20661
201908211927,20661,20661,20656,20656
201908211928,20656,20659,20656,20659
201908211929,20659,20663,20658,20662
201908211930,20662,20664,20660,20662
201908211931,20662,20662,20658,20659
201908211932,20659,20661,20657,20658
201908211933,20658,20659,20656,20656
201908211934,20657,20660,20656,20660
201908211935,20660,20664,20660,20663
201908211936,20663,20663,20656,20657
201908211937,20657,20657,20652,20654
201908211938,20654,20654,20652,20654
201908211939,20654,20654,20652,20654
201908211940,20653,20654,20652,20654
201908211941,20654,20654,20652,20654
201908211942,20654,20660,20654,20658
201908211943,20659,20661,20656,20660
201908211944,20660,20662,20660,20662
201908211945,20662,20662,20656,20657
201908211946,20656,20659,20656,20656
201908211947,20657,20660,20656,20657
201908211948,20657,20660,20656,20660
201908211949,20660,20663,20660,20663
201908211950,20663,20663,20661,20662
201908211951,20662,20662,20656,20657
201908211952,20657,20660,20657,20660
201908211953,20660,20663,20660,20662
201908211954,20662,20664,20661,20662
201908211955,20662,20662,20661,20662
201908211956,20662,20662,20661,20661
201908211957,20661,20664,20661,20662
201908211958,20662,20662,20661,20662
201908211959,20662,20662,20656,20657
201908212000,20656,20661,20656,20661
201908212001,20661,20661,20659,20661
201908212002,20661,20662,20660,20662
201908212003,20662,20662,20657,20657
201908212004,20657,20658,20656,20657
201908212005,20657,20657,20657,20657
201908212006,20657,20659,20657,20657
201908212007,20657,20657,20656,20657
201908212008,20657,20660,20656,20657
201908212009,20657,20660,20657,20660
201908212010,20660,20660,20657,20660
201908212011,20660,20664,20660,20662
201908212012,20662,20663,20661,20662
201908212013,20662,20662,20660,20661
201908212014,20661,20661,20656,20658
201908212015,20658,20658,20657,20657
201908212016,20657,20657,20657,20657
201908212017,20657,20660,20656,20658
201908212018,20658,20662,20657,20661
201908212019,20661,20664,20661,20663
201908212020,20663,20664,20661,20662
201908212021,20662,20662,20662,20662
201908212022,20662,20662,20661,20661
201908212023,20661,20662,20661,20662
201908212024,20662,20662,20661,20662
201908212025,20662,20662,20661,20662
201908212026,20662,20662,20661,20662
201908212027,20662,20664,20661,20663
201908212028,20663,20664,20661,20662
201908212029,20662,20663,20662,20662
201908212030,20662,20662,20657,20657
201908212031,20657,20658,20657,20658
201908212032,20658,20660,20657,20660
201908212033,20660,20661,20659,20661
201908212034,20661,20661,20661,20661
201908212035,20661,20661,20661,20661
201908212036,20661,20661,20657,20657
201908212037,20657,20659,20657,20657
201908212038,20657,20660,20657,20659
201908212039,20659,20659,20657,20657
201908212040,20657,20657,20652,20657
201908212041,20656,20659,20656,20658
201908212042,20658,20658,20653,20655
201908212043,20655,20657,20655,20657
201908212044,20657,20657,20656,20657
201908212045,20657,20659,20656,20659
201908212046,20659,20661,20656,20660
201908212047,20660,20661,20658,20661
201908212048,20661,20664,20661,20663
201908212049,20663,20664,20661,20661
201908212050,20661,20663,20661,20662
201908212051,20662,20664,20661,20662
201908212052,20662,20662,20662,20662
201908212053,20662,20662,20662,20662
201908212054,20662,20662,20662,20662
201908212055,20662,20662,20662,20662
201908212056,20662,20662,20662,20662
201908212057,20662,20665,20662,20665
201908212058,20665,20665,20665,20665
201908212059,20665,20672,20665,20672
201908212100,20672,20672,20669,20670
201908212101,20670,20671,20666,20669
201908212102,20669,20670,20666,20667
201908212103,20668,20670,20667,20667
201908212104,20667,20667,20663,20663
201908212105,20663,20665,20662,20664
201908212106,20664,20667,20664,20666
201908212107,20666,20667,20666,20666
201908212108,20666,20667,20666,20667
201908212109,20666,20669,20666,20666
201908212110,20666,20670,20666,20670
201908212111,20670,20670,20668,20670
201908212112,20670,20670,20670,20670
201908212113,20670,20670,20668,20670
201908212114,20670,20672,20670,20672
201908212115,20672,20680,20662,20674
201908212116,20674,20677,20671,20677
201908212117,20677,20677,20667,20674
201908212118,20673,20676,20671,20672
201908212119,20672,20676,20671,20675
201908212120,20673,20680,20671,20679
201908212121,20680,20681,20676,20677
201908212122,20677,20677,20676,20677
201908212123,20677,20677,20671,20672
201908212124,20672,20673,20671,20672
201908212125,20672,20674,20671,20672
201908212126,20672,20672,20671,20671
201908212127,20671,20672,20671,20672
201908212128,20672,20672,20666,20668
201908212129,20666,20671,20666,20671
201908212130,20671,20676,20671,20671
201908212131,20671,20675,20671,20675
201908212132,20675,20675,20671,20672
201908212133,20672,20674,20671,20672
201908212134,20672,20672,20666,20667
201908212135,20667,20669,20666,20668
201908212136,20669,20672,20669,20672
201908212137,20672,20674,20671,20673
201908212138,20673,20673,20672,20672
201908212139,20672,20672,20666,20670
201908212140,20671,20671,20670,20670
201908212141,20670,20671,20667,20670
201908212142,20670,20671,20670,20671
201908212143,20671,20671,20671,20671
201908212144,20671,20672,20671,20672
201908212145,20672,20674,20671,20672
201908212146,20672,20673,20671,20671
201908212147,20671,20675,20671,20675
201908212148,20675,20675,20673,20675
201908212149,20675,20676,20674,20676
201908212150,20676,20677,20675,20676
201908212151,20676,20678,20676,20677
201908212152,20677,20685,20676,20683
201908212153,20684,20684,20676,20678
201908212154,20678,20679,20676,20679
201908212155,20680,20681,20676,20681
201908212156,20681,20681,20676,20677
201908212157,20676,20681,20676,20681
201908212158,20681,20682,20680,20682
201908212159,20682,20684,20681,20683
201908212200,20681,20684,20681,20682
201908212201,20682,20683,20681,20682
201908212202,20682,20682,20682,20682
201908212203,20682,20687,20682,20687
201908212204,20686,20689,20686,20687
201908212205,20687,20687,20687,20687
201908212206,20687,20690,20685,20690
201908212207,20690,20690,20685,20687
201908212208,20687,20689,20686,20687
201908212209,20687,20687,20687,20687
201908212210,20687,20687,20687,20687
201908212211,20687,20687,20686,20686
201908212212,20686,20687,20686,20687
201908212213,20687,20687,20687,20687
201908212214,20687,20687,20686,20687
201908212215,20687,20687,20685,20686
201908212216,20686,20686,20681,20682
201908212217,20682,20682,20682,20682
201908212218,20682,20682,20682,20682
201908212219,20682,20682,20682,20682
201908212220,20682,20684,20682,20682
201908212221,20682,20682,20676,20678
201908212222,20678,20678,20676,20677
201908212223,20677,20677,20677,20677
201908212224,20677,20677,20672,20672
201908212225,20672,20672,20671,20672
201908212226,20672,20675,20671,20674
201908212227,20674,20676,20674,20676
201908212228,20676,20676,20673,20676
201908212229,20676,20679,20676,20677
201908212230,20677,20680,20671,20676
201908212231,20677,20678,20661,20672
201908212232,20672,20672,20665,20668
201908212233,20668,20668,20659,20659
201908212234,20658,20662,20657,20662
201908212235,20662,20665,20658,20664
201908212236,20664,20666,20661,20665
201908212237,20665,20665,20661,20663
201908212238,20664,20665,20661,20664
201908212239,20664,20665,20663,20665
201908212240,20663,20676,20661,20676
201908212241,20676,20681,20673,20674
201908212242,20674,20682,20673,20678
201908212243,20678,20678,20675,20676
201908212244,20676,20677,20676,20677
201908212245,20677,20681,20676,20681
201908212246,20681,20681,20676,20677
201908212247,20677,20677,20676,20677
201908212248,20677,20677,20671,20672
201908212249,20672,20675,20671,20674
201908212250,20673,20676,20672,20674
201908212251,20674,20676,20671,20675
201908212252,20675,20675,20671,20673
201908212253,20673,20675,20672,20672
201908212254,20672,20672,20666,20670
201908212255,20669,20670,20666,20666
201908212256,20666,20672,20666,20669
201908212257,20669,20671,20666,20668
201908212258,20667,20669,20666,20667
201908212259,20667,20667,20666,20666
201908212300,20666,20672,20666,20672
201908212301,20672,20674,20666,20672
201908212302,20672,20675,20672,20675
201908212303,20675,20675,20667,20672
201908212304,20672,20675,20670,20671
201908212305,20671,20676,20671,20674
201908212306,20674,20674,20671,20674
201908212307,20674,20674,20671,20671
201908212308,20671,20674,20671,20672
201908212309,20672,20672,20666,20667
201908212310,20667,20669,20661,20667
201908212311,20667,20669,20667,20667
201908212312,20667,20669,20667,20667
201908212313,20667,20667,20662,20665
201908212314,20665,20665,20661,20662
201908212315,20662,20662,20657,20657
201908212316,20657,20662,20656,20661
201908212317,20661,20665,20661,20665
201908212318,20665,20671,20665,20669
201908212319,20670,20670,20669,20670
201908212320,20669,20670,20661,20664
201908212321,20665,20666,20663,20663
201908212322,20663,20665,20661,20665
201908212323,20665,20670,20665,20670
201908212324,20670,20670,20666,20667
201908212325,20668,20670,20666,20670
201908212326,20670,20670,20666,20670
201908212327,20670,20671,20669,20671
201908212328,20671,20674,20671,20672
201908212329,20672,20672,20666,20670
201908212330,20670,20672,20656,20668
201908212331,20670,20672,20666,20670
201908212332,20670,20672,20668,20669
201908212333,20669,20672,20666,20668
201908212334,20668,20669,20663,20663
201908212335,20663,20663,20653,20661
201908212336,20661,20661,20656,20658
201908212337,20658,20659,20653,20655
201908212338,20655,20656,20652,20654
201908212339,20654,20655,20651,20652
201908212340,20652,20655,20651,20652
201908212341,20652,20652,20648,20650
201908212342,20650,20651,20649,20651
201908212343,20651,20657,20651,20656
201908212344,20656,20657,20651,20652
201908212345,20652,20655,20650,20655
201908212346,20655,20655,20654,20654
201908212347,20654,20661,20654,20659
201908212348,20659,20659,20651,20655
201908212349,20655,20660,20655,20660
201908212350,20660,20661,20658,20661
201908212351,20661,20661,20661,20661
201908212352,20661,20665,20661,20665
201908212353,20663,20665,20662,20665
201908212354,20665,20666,20665,20666
201908212355,20666,20666,20665,20666
201908212356,20666,20666,20665,20666
201908212357,20666,20670,20665,20668
201908212358,20669,20672,20668,20671
201908212359,20671,20671,20666,20667
201908220000,20667,20670,20656,20658
201908220001,20660,20666,20660,20661
201908220002,20661,20666,20661,20662
201908220003,20662,20666,20661,20666
201908220004,20666,20666,20661,20665
201908220005,20665,20674,20665,20673
201908220006,20672,20673,20668,20671
201908220007,20671,20674,20670,20673
201908220008,20673,20674,20671,20673
201908220009,20673,20676,20670,20676
201908220010,20676,20676,20672,20674
201908220011,20674,20674,20671,20671
201908220012,20671,20674,20671,20671
201908220013,20673,20674,20671,20672
201908220014,20672,20676,20672,20675
201908220015,20675,20676,20674,20674
201908220016,20674,20676,20674,20675
201908220017,20675,20676,20674,20675
201908220018,20675,20676,20675,20676
201908220019,20676,20676,20673,20674
201908220020,20674,20676,20672,20675
201908220021,20675,20681,20674,20681
201908220022,20681,20684,20681,20681
201908220023,20681,20682,20681,20681
201908220024,20682,20682,20676,20678
201908220025,20678,20680,20676,20677
201908220026,20677,20681,20677,20679
201908220027,20678,20680,20676,20676
201908220028,20676,20678,20676,20677
201908220029,20677,20677,20676,20676
201908220030,20676,20676,20666,20667
201908220031,20667,20671,20666,20669
201908220032,20670,20672,20669,20672
201908220033,20672,20677,20672,20676
201908220034,20676,20683,20676,20682
201908220035,20681,20685,20681,20685
201908220036,20685,20690,20684,20686
201908220037,20686,20687,20685,20685
201908220038,20685,20687,20684,20687
201908220039,20687,20689,20686,20688
201908220040,20688,20696,20688,20695
201908220041,20695,20696,20694,20695
201908220042,20695,20695,20692,20694
201908220043,20694,20697,20694,20696
201908220044,20696,20697,20695,20696
201908220045,20696,20697,20695,20696
201908220046,20696,20696,20692,20692
201908220047,20692,20694,20692,20692
201908220048,20692,20692,20691,20691
201908220049,20691,20691,20686,20688
201908220050,20688,20690,20686,20686
201908220051,20686,20686,20681,20682
201908220052,20682,20685,20681,20685
201908220053,20685,20690,20684,20690
201908220054,20690,20690,20686,20690
201908220055,20690,20692,20690,20691
201908220056,20691,20694,20690,20691
201908220057,20692,20693,20691,20692
201908220058,20692,20718,20691,20716
201908220059,20715,20715,20691,20701
201908220100,20701,20705,20697,20703
201908220101,20703,20706,20701,20701
201908220102,20701,20702,20693,20694
201908220103,20695,20695,20691,20693
201908220104,20693,20694,20691,20691
201908220105,20692,20695,20691,20694
201908220106,20694,20694,20691,20692
201908220107,20692,20693,20691,20692
201908220108,20692,20692,20687,20688
201908220109,20687,20691,20686,20687
201908220110,20686,20695,20686,20694
201908220111,20695,20697,20693,20696
201908220112,20696,20697,20695,20696
201908220113,20696,20697,20696,20697
201908220114,20697,20697,20697,20697
201908220115,20697,20697,20696,20697
201908220116,20697,20697,20696,20696
201908220117,20696,20696,20687,20687
201908220118,20687,20687,20685,20687
201908220119,20687,20687,20687,20687
201908220120,20687,20687,20686,20687
201908220121,20687,20687,20686,20687
201908220122,20687,20687,20686,20686
201908220123,20686,20686,20686,20686
201908220124,20686,20686,20681,20683
201908220125,20683,20685,20683,20685
201908220126,20685,20686,20683,20683
201908220127,20683,20685,20681,20682
201908220128,20682,20684,20681,20682
201908220129,20682,20684,20681,20683
201908220130,20683,20686,20681,20685
201908220131,20685,20686,20681,20683
201908220132,20683,20687,20681,20683
201908220133,20683,20686,20681,20686
201908220134,20686,20692,20685,20691
201908220135,20691,20692,20686,20686
201908220136,20687,20690,20686,20690
201908220137,20690,20693,20690,20693
201908220138,20693,20694,20691,20692
201908220139,20692,20692,20692,20692
201908220140,20692,20692,20692,20692
201908220141,20692,20692,20686,20688
201908220142,20688,20689,20681,20682
201908220143,20682,20687,20681,20685
201908220144,20685,20685,20681,20684
201908220145,20684,20684,20681,20682
201908220146,20683,20685,20682,20685
201908220147,20685,20685,20681,20685
201908220148,20685,20685,20683,20685
201908220149,20685,20685,20681,20683
201908220150,20683,20687,20683,20687
201908220151,20687,20691,20687,20690
201908220152,20691,20691,20690,20691
201908220153,20691,20691,20689,20690
201908220154,20690,20691,20690,20691
201908220155,20691,20691,20691,20691
201908220156,20691,20694,20691,20693
201908220157,20692,20694,20691,20692
201908220158,20692,20692,20691,20691
201908220159,20692,20692,20691,20692
201908220200,20690,20690,20685,20687
201908220201,20687,20690,20685,20690
201908220202,20690,20690,20689,20689
201908220203,20689,20690,20688,20690
201908220204,20690,20691,20689,20689
201908220205,20689,20690,20689,20689
201908220206,20689,20689,20688,20689
201908220207,20689,20689,20686,20689
201908220208,20689,20689,20688,20689
201908220209,20689,20690,20689,20689
201908220210,20689,20690,20689,20689
201908220211,20689,20690,20689,20690
201908220212,20690,20690,20689,20689
201908220213,20689,20689,20686,20687
201908220214,20687,20687,20685,20687
201908220215,20687,20691,20686,20688
201908220216,20688,20689,20686,20687
201908220217,20687,20687,20686,20687
201908220218,20687,20687,20685,20686
201908220219,20686,20689,20685,20689
201908220220,20689,20689,20689,20689
201908220221,20689,20689,20685,20687
201908220222,20687,20687,20686,20687
201908220223,20687,20687,20686,20687
201908220224,20687,20687,20686,20687
201908220225,20687,20687,20687,20687
201908220226,20687,20687,20687,20687
201908220227,20687,20687,20686,20687
201908220228,20687,20687,20682,20685
201908220229,20685,20687,20685,20685
201908220230,20685,20686,20685,20686
201908220231,20686,20686,20684,20684
201908220232,20684,20684,20681,20682
201908220233,20682,20682,20682,20682
201908220234,20682,20682,20682,20682
201908220235,20682,20685,20680,20685
201908220236,20685,20685,20681,20681
201908220237,20681,20682,20680,20682
201908220238,20682,20682,20680,20682
201908220239,20682,20682,20681,20681
201908220240,20681,20684,20681,20682
201908220241,20682,20682,20681,20681
201908220242,20682,20684,20680,20681
201908220243,20681,20682,20680,20681
201908220244,20682,20682,20681,20682
201908220245,20682,20682,20681,20682
201908220246,20682,20682,20681,20682
201908220247,20682,20685,20681,20685
201908220248,20685,20685,20681,20685
201908220249,20685,20685,20685,20685
201908220250,20684,20685,20681,20682
201908220251,20682,20682,20680,20681
201908220252,20681,20682,20681,20682
201908220253,20682,20685,20680,20684
201908220254,20684,20685,20683,20685
201908220255,20685,20685,20684,20684
201908220256,20685,20685,20680,20684
201908220257,20684,20685,20684,20685
201908220258,20684,20684,20680,20680
201908220259,20680,20680,20670,20673
201908220300,20673,20673,20657,20662
201908220301,20662,20677,20662,20675
201908220302,20675,20677,20660,20663
201908220303,20663,20677,20661,20672
201908220304,20672,20680,20670,20679
201908220305,20679,20688,20676,20688
201908220306,20688,20688,20680,20682
201908220307,20683,20687,20675,20676
201908220308,20676,20682,20676,20681
201908220309,20681,20682,20676,20676
201908220310,20676,20682,20675,20675
201908220311,20675,20678,20670,20672
201908220312,20671,20671,20665,20669
201908220313,20669,20669,20660,20662
201908220314,20662,20667,20660,20667
201908220315,20667,20672,20666,20668
201908220316,20668,20672,20665,20671
201908220317,20671,20686,20670,20681
201908220318,20681,20689,20679,20682
201908220319,20682,20687,20682,20687
201908220320,20687,20692,20685,20692
201908220321,20692,20692,20686,20687
201908220322,20687,20687,20684,20684
201908220323,20684,20687,20683,20686
201908220324,20686,20687,20681,20682
201908220325,20682,20686,20680,20683
201908220326,20683,20687,20683,20687
201908220327,20687,20692,20685,20688
201908220328,20688,20694,20688,20692
201908220329,20692,20692,20690,20692
201908220330,20691,20697,20690,20692
201908220331,20692,20692,20686,20691
201908220332,20691,20694,20686,20691
201908220333,20691,20693,20690,20691
201908220334,20691,20693,20685,20691
201908220335,20690,20692,20687,20691
201908220336,20691,20691,20675,20675
201908220337,20675,20677,20670,20674
201908220338,20674,20677,20674,20675
201908220339,20674,20676,20670,20673
201908220340,20673,20677,20671,20675
201908220341,20676,20677,20674,20677
201908220342,20677,20677,20672,20676
201908220343,20676,20682,20675,20676
201908220344,20677,20677,20672,20676
201908220345,20676,20677,20673,20677
201908220346,20677,20677,20670,20672
201908220347,20672,20677,20672,20677
201908220348,20677,20677,20661,20661
201908220349,20661,20666,20661,20664
201908220350,20664,20665,20659,20660
201908220351,20660,20662,20656,20658
201908220352,20658,20662,20658,20661
201908220353,20661,20666,20660,20665
201908220354,20665,20665,20659,20662
201908220355,20662,20663,20660,20660
201908220356,20660,20665,20660,20664
201908220357,20664,20665,20661,20665
201908220358,20665,20667,20661,20667
201908220359,20667,20669,20666,20669
201908220400,20669,20672,20665,20667
201908220401,20667,20672,20666,20672
201908220402,20672,20672,20669,20671
201908220403,20671,20672,20669,20671
201908220404,20671,20672,20665,20666
201908220405,20666,20672,20666,20670
201908220406,20670,20670,20666,20669
201908220407,20669,20672,20663,20663
201908220408,20663,20666,20661,20665
201908220409,20665,20672,20665,20671
201908220410,20671,20676,20671,20674
201908220411,20674,20676,20670,20673
201908220412,20673,20673,20671,20672
201908220413,20672,20673,20670,20672
201908220414,20672,20672,20671,20672
201908220415,20672,20672,20670,20672
201908220416,20672,20672,20669,20672
201908220417,20672,20677,20670,20677
201908220418,20677,20681,20671,20681
201908220419,20681,20683,20680,20682
201908220420,20682,20684,20680,20680
201908220421,20680,20681,20675,20678
201908220422,20678,20681,20676,20678
201908220423,20678,20681,20676,20679
201908220424,20679,20681,20676,20677
201908220425,20677,20682,20676,20682
201908220426,20682,20682,20680,20681
201908220427,20681,20682,20676,20678
201908220428,20678,20681,20676,20678
201908220429,20678,20682,20676,20682
201908220430,20682,20682,20679,20682
201908220431,20682,20684,20680,20680
201908220432,20680,20687,20680,20687
201908220433,20687,20687,20681,20682
201908220434,20682,20687,20681,20686
201908220435,20686,20687,20681,20684
201908220436,20684,20686,20680,20685
201908220437,20686,20687,20680,20680
201908220438,20680,20687,20680,20687
201908220439,20687,20687,20681,20682
201908220440,20682,20687,20681,20687
201908220441,20687,20687,20680,20682
201908220442,20682,20683,20680,20682
201908220443,20682,20687,20681,20687
201908220444,20687,20687,20681,20686
201908220445,20686,20687,20680,20682
201908220446,20682,20685,20680,20680
201908220447,20680,20687,20680,20687
201908220448,20687,20687,20681,20684
201908220449,20681,20687,20680,20682
201908220450,20682,20687,20681,20682
201908220451,20682,20684,20675,20677
201908220452,20677,20680,20675,20677
201908220453,20677,20677,20676,20676
201908220454,20676,20680,20675,20677
201908220455,20677,20682,20675,20678
201908220456,20678,20682,20676,20679
201908220457,20679,20679,20675,20676
201908220458,20677,20677,20674,20677
201908220459,20677,20677,20666,20670
201908220500,20670,20679,20670,20677
201908220501,20677,20682,20677,20682
201908220502,20682,20687,20682,20687
201908220503,20687,20687,20682,20682
201908220504,20682,20682,20682,20682
201908220505,20682,20687,20682,20687
201908220506,20687,20687,20686,20687
201908220507,20687,20687,20681,20682
201908220508,20682,20685,20680,20685
201908220509,20685,20685,20681,20681
201908220510,20681,20687,20680,20681
201908220511,20681,20682,20680,20680
201908220512,20680,20682,20680,20682
201908220513,20682,20682,20676,20676
201908220514,20676,20684,20676,20684
201908220515,20684,20686,20680,20685
201908220516,20685,20689,20685,20689
201908220517,20689,20689,20685,20686
201908220518,20686,20687,20686,20686
201908220519,20686,20687,20686,20687
201908220520,20687,20690,20686,20689
201908220521,20689,20689,20686,20689
201908220522,20689,20689,20688,20689
201908220523,20688,20691,20688,20691
201908220524,20691,20692,20689,20689
201908220525,20689,20689,20687,20689
201908220526,20689,20691,20689,20690
201908220527,20690,20695,20690,20695
201908220528,20695,20696,20694,20696
201908220529,20696,20696,20689,20692
201908220530,20692,20693,20689,20693
201908220531,20693,20695,20692,20695
201908220532,20695,20698,20695,20697
201908220533,20697,20697,20697,20697
201908220534,20697,20698,20696,20697
201908220535,20697,20702,20697,20700
201908220536,20700,20701,20699,20701
201908220537,20701,20701,20699,20701
201908220538,20701,20701,20699,20699
201908220539,20699,20702,20697,20701
201908220540,20701,20701,20700,20700
201908220541,20700,20702,20700,20702
201908220542,20702,20702,20700,20701
201908220543,20701,20701,20699,20699
201908220544,20699,20700,20698,20698
201908220545,20697,20699,20697,20697
201908220546,20697,20697,20697,20697
201908220547,20697,20697,20697,20697
201908220548,20697,20697,20697,20697
201908220549,20697,20697,20696,20697
201908220550,20697,20698,20697,20698
201908220551,20698,20698,20696,20697
201908220552,20697,20698,20696,20698
201908220553,20698,20702,20698,20700
201908220554,20700,20701,20699,20699
201908220555,20699,20700,20699,20700
201908220556,20700,20700,20700,20700
201908220557,20700,20700,20700,20700
201908220558,20700,20700,20700,20700
201908220559,20700,20700,20697,20697
