日時,始値(BID),高値(BID),安値(BID),終値(BID)
201904050700,15.112,15.143,15.112,15.143
201904050701,15.143,15.148,15.143,15.146
201904050702,15.146,15.148,15.146,15.146
201904050703,15.146,15.15,15.146,15.15
201904050704,15.15,15.15,15.15,15.15
201904050705,15.15,15.151,15.15,15.15
201904050706,15.15,15.15,15.15,15.15
201904050707,15.15,15.15,15.15,15.15
201904050708,15.15,15.15,15.15,15.15
201904050709,15.15,15.15,15.15,15.15
201904050710,15.15,15.151,15.15,15.15
201904050711,15.15,15.15,15.15,15.15
201904050712,15.15,15.15,15.145,15.146
201904050713,15.146,15.146,15.145,15.145
201904050714,15.145,15.147,15.145,15.146
201904050715,15.146,15.147,15.146,15.146
201904050716,15.146,15.146,15.145,15.145
201904050717,15.145,15.145,15.145,15.145
201904050718,15.145,15.146,15.145,15.145
201904050719,15.145,15.153,15.145,15.151
201904050720,15.151,15.151,15.151,15.151
201904050721,15.151,15.151,15.15,15.15
201904050722,15.151,15.157,15.15,15.154
201904050723,15.154,15.157,15.153,15.156
201904050724,15.156,15.157,15.156,15.156
201904050725,15.156,15.157,15.153,15.153
201904050726,15.154,15.154,15.153,15.153
201904050727,15.154,15.154,15.153,15.154
201904050728,15.154,15.154,15.151,15.152
201904050729,15.152,15.152,15.152,15.152
201904050730,15.152,15.153,15.15,15.152
201904050731,15.153,15.154,15.152,15.154
201904050732,15.154,15.157,15.153,15.157
201904050733,15.157,15.157,15.153,15.154
201904050734,15.154,15.156,15.154,15.156
201904050735,15.156,15.156,15.155,15.156
201904050736,15.156,15.159,15.156,15.158
201904050737,15.159,15.16,15.158,15.158
201904050738,15.158,15.159,15.158,15.159
201904050739,15.158,15.159,15.158,15.158
201904050740,15.158,15.159,15.156,15.157
201904050741,15.157,15.158,15.157,15.157
201904050742,15.158,15.159,15.157,15.159
201904050743,15.159,15.16,15.158,15.159
201904050744,15.159,15.159,15.158,15.159
201904050745,15.159,15.16,15.159,15.16
201904050746,15.16,15.161,15.159,15.161
201904050747,15.161,15.161,15.159,15.159
201904050748,15.16,15.16,15.158,15.158
201904050749,15.158,15.162,15.158,15.162
201904050750,15.162,15.163,15.153,15.154
201904050751,15.154,15.157,15.154,15.155
201904050752,15.155,15.155,15.153,15.153
201904050753,15.153,15.154,15.153,15.153
201904050754,15.152,15.154,15.152,15.153
201904050755,15.153,15.153,15.152,15.153
201904050756,15.153,15.154,15.153,15.154
201904050757,15.154,15.154,15.154,15.154
201904050758,15.153,15.153,15.152,15.153
201904050759,15.153,15.154,15.149,15.149
201904050800,15.149,15.15,15.149,15.15
201904050801,15.149,15.15,15.143,15.144
201904050802,15.143,15.149,15.143,15.147
201904050803,15.147,15.147,15.145,15.145
201904050804,15.144,15.147,15.143,15.146
201904050805,15.147,15.149,15.146,15.149
201904050806,15.149,15.15,15.148,15.15
201904050807,15.15,15.15,15.148,15.15
201904050808,15.15,15.15,15.147,15.149
201904050809,15.149,15.149,15.149,15.149
201904050810,15.149,15.149,15.148,15.149
201904050811,15.149,15.149,15.146,15.146
201904050812,15.146,15.149,15.144,15.148
201904050813,15.148,15.149,15.146,15.146
201904050814,15.145,15.145,15.141,15.142
201904050815,15.142,15.143,15.141,15.142
201904050816,15.142,15.147,15.142,15.147
201904050817,15.147,15.149,15.147,15.149
201904050818,15.149,15.149,15.148,15.148
201904050819,15.148,15.149,15.148,15.149
201904050820,15.149,15.149,15.148,15.149
201904050821,15.148,15.149,15.148,15.149
201904050822,15.149,15.149,15.149,15.149
201904050823,15.148,15.148,15.147,15.147
201904050824,15.147,15.148,15.147,15.148
201904050825,15.148,15.149,15.147,15.148
201904050826,15.148,15.148,15.147,15.148
201904050827,15.148,15.149,15.148,15.149
201904050828,15.149,15.152,15.149,15.149
201904050829,15.149,15.149,15.148,15.149
201904050830,15.149,15.153,15.149,15.153
201904050831,15.153,15.153,15.15,15.15
201904050832,15.15,15.152,15.15,15.152
201904050833,15.152,15.153,15.151,15.151
201904050834,15.151,15.152,15.151,15.152
201904050835,15.152,15.152,15.147,15.148
201904050836,15.148,15.149,15.147,15.148
201904050837,15.148,15.151,15.147,15.151
201904050838,15.15,15.151,15.15,15.15
201904050839,15.15,15.151,15.149,15.149
201904050840,15.149,15.158,15.149,15.157
201904050841,15.157,15.158,15.157,15.157
201904050842,15.157,15.158,15.157,15.157
201904050843,15.157,15.159,15.153,15.153
201904050844,15.153,15.154,15.151,15.153
201904050845,15.153,15.153,15.152,15.152
201904050846,15.152,15.154,15.152,15.153
201904050847,15.153,15.153,15.152,15.153
201904050848,15.153,15.153,15.153,15.153
201904050849,15.153,15.154,15.153,15.154
201904050850,15.154,15.154,15.152,15.153
201904050851,15.153,15.154,15.152,15.154
201904050852,15.154,15.154,15.153,15.153
201904050853,15.153,15.155,15.152,15.153
201904050854,15.153,15.154,15.153,15.154
201904050855,15.154,15.154,15.151,15.153
201904050856,15.153,15.153,15.151,15.151
201904050857,15.151,15.154,15.151,15.153
201904050858,15.153,15.154,15.15,15.153
201904050859,15.153,15.153,15.146,15.148
201904050900,15.148,15.149,15.142,15.143
201904050901,15.143,15.144,15.141,15.142
201904050902,15.142,15.144,15.141,15.143
201904050903,15.143,15.144,15.141,15.142
201904050904,15.142,15.143,15.13,15.131
201904050905,15.131,15.139,15.131,15.138
201904050906,15.138,15.143,15.137,15.137
201904050907,15.137,15.139,15.137,15.138
201904050908,15.138,15.139,15.133,15.134
201904050909,15.134,15.135,15.133,15.135
201904050910,15.135,15.14,15.133,15.139
201904050911,15.139,15.143,15.138,15.143
201904050912,15.143,15.143,15.138,15.142
201904050913,15.142,15.143,15.141,15.143
201904050914,15.143,15.143,15.142,15.143
201904050915,15.143,15.148,15.143,15.148
201904050916,15.147,15.148,15.144,15.148
201904050917,15.148,15.148,15.148,15.148
201904050918,15.148,15.148,15.143,15.144
201904050919,15.144,15.145,15.143,15.145
201904050920,15.145,15.145,15.143,15.144
201904050921,15.144,15.144,15.138,15.139
201904050922,15.138,15.144,15.137,15.142
201904050923,15.142,15.144,15.142,15.144
201904050924,15.144,15.144,15.143,15.144
201904050925,15.144,15.149,15.142,15.148
201904050926,15.148,15.148,15.147,15.148
201904050927,15.148,15.149,15.147,15.149
201904050928,15.149,15.15,15.147,15.148
201904050929,15.148,15.149,15.147,15.148
201904050930,15.148,15.151,15.148,15.148
201904050931,15.148,15.149,15.147,15.148
201904050932,15.147,15.15,15.146,15.148
201904050933,15.147,15.15,15.146,15.148
201904050934,15.148,15.149,15.146,15.149
201904050935,15.149,15.149,15.146,15.148
201904050936,15.148,15.149,15.146,15.149
201904050937,15.149,15.149,15.146,15.149
201904050938,15.149,15.149,15.144,15.144
201904050939,15.144,15.144,15.143,15.144
201904050940,15.144,15.145,15.142,15.142
201904050941,15.142,15.143,15.142,15.142
201904050942,15.142,15.143,15.14,15.143
201904050943,15.143,15.144,15.142,15.144
201904050944,15.144,15.144,15.142,15.142
201904050945,15.142,15.143,15.141,15.142
201904050946,15.142,15.143,15.141,15.141
201904050947,15.141,15.141,15.138,15.139
201904050948,15.139,15.139,15.138,15.138
201904050949,15.138,15.139,15.137,15.139
201904050950,15.139,15.139,15.138,15.138
201904050951,15.138,15.138,15.135,15.136
201904050952,15.136,15.136,15.132,15.133
201904050953,15.133,15.134,15.132,15.133
201904050954,15.132,15.133,15.132,15.133
201904050955,15.133,15.133,15.132,15.133
201904050956,15.133,15.133,15.133,15.133
201904050957,15.133,15.137,15.133,15.136
201904050958,15.136,15.137,15.134,15.134
201904050959,15.134,15.134,15.133,15.134
201904051000,15.134,15.134,15.133,15.134
201904051001,15.134,15.134,15.133,15.134
201904051002,15.134,15.134,15.133,15.134
201904051003,15.134,15.134,15.133,15.133
201904051004,15.133,15.134,15.133,15.134
201904051005,15.134,15.134,15.133,15.133
201904051006,15.133,15.133,15.133,15.133
201904051007,15.133,15.133,15.133,15.133
201904051008,15.133,15.133,15.128,15.132
201904051009,15.132,15.133,15.128,15.129
201904051010,15.129,15.132,15.129,15.129
201904051011,15.129,15.129,15.128,15.128
201904051012,15.128,15.128,15.128,15.128
201904051013,15.128,15.129,15.128,15.129
201904051014,15.129,15.133,15.129,15.132
201904051015,15.132,15.132,15.13,15.131
201904051016,15.131,15.132,15.131,15.132
201904051017,15.132,15.132,15.131,15.131
201904051018,15.131,15.132,15.128,15.132
201904051019,15.132,15.132,15.132,15.132
201904051020,15.132,15.132,15.132,15.132
201904051021,15.132,15.132,15.128,15.129
201904051022,15.129,15.132,15.128,15.128
201904051023,15.128,15.13,15.127,15.127
201904051024,15.127,15.128,15.127,15.128
201904051025,15.128,15.128,15.127,15.128
201904051026,15.127,15.128,15.127,15.127
201904051027,15.127,15.128,15.127,15.127
201904051028,15.127,15.128,15.127,15.127
201904051029,15.127,15.128,15.126,15.126
201904051030,15.126,15.127,15.126,15.126
201904051031,15.126,15.131,15.126,15.131
201904051032,15.131,15.131,15.126,15.126
201904051033,15.126,15.13,15.126,15.13
201904051034,15.13,15.13,15.129,15.13
201904051035,15.13,15.13,15.13,15.13
201904051036,15.13,15.13,15.129,15.13
201904051037,15.13,15.13,15.129,15.13
201904051038,15.13,15.131,15.126,15.126
201904051039,15.126,15.13,15.126,15.13
201904051040,15.13,15.13,15.126,15.126
201904051041,15.126,15.126,15.126,15.126
201904051042,15.126,15.127,15.126,15.127
201904051043,15.127,15.127,15.126,15.127
201904051044,15.127,15.127,15.126,15.126
201904051045,15.126,15.127,15.126,15.126
201904051046,15.126,15.127,15.126,15.127
201904051047,15.127,15.131,15.126,15.127
201904051048,15.127,15.128,15.126,15.126
201904051049,15.126,15.126,15.126,15.126
201904051050,15.126,15.126,15.125,15.126
201904051051,15.126,15.126,15.125,15.126
201904051052,15.126,15.126,15.126,15.126
201904051053,15.126,15.127,15.126,15.126
201904051054,15.126,15.127,15.126,15.126
201904051055,15.126,15.126,15.126,15.126
201904051056,15.126,15.126,15.126,15.126
201904051057,15.126,15.127,15.125,15.126
201904051058,15.126,15.126,15.126,15.126
201904051059,15.126,15.127,15.125,15.127
201904051100,15.127,15.127,15.121,15.121
201904051101,15.121,15.122,15.121,15.121
201904051102,15.121,15.122,15.12,15.121
201904051103,15.121,15.121,15.121,15.121
201904051104,15.121,15.121,15.12,15.121
201904051105,15.121,15.122,15.12,15.121
201904051106,15.121,15.122,15.121,15.122
201904051107,15.122,15.122,15.121,15.121
201904051108,15.121,15.121,15.12,15.121
201904051109,15.121,15.122,15.121,15.122
201904051110,15.122,15.122,15.121,15.121
201904051111,15.121,15.122,15.121,15.122
201904051112,15.122,15.123,15.122,15.123
201904051113,15.122,15.127,15.122,15.127
201904051114,15.127,15.127,15.127,15.127
201904051115,15.127,15.127,15.125,15.125
201904051116,15.125,15.126,15.125,15.125
201904051117,15.125,15.125,15.124,15.125
201904051118,15.125,15.125,15.122,15.123
201904051119,15.123,15.124,15.122,15.122
201904051120,15.122,15.123,15.122,15.122
201904051121,15.122,15.123,15.122,15.122
201904051122,15.122,15.123,15.122,15.123
201904051123,15.123,15.123,15.121,15.122
201904051124,15.122,15.122,15.121,15.121
201904051125,15.121,15.122,15.121,15.121
201904051126,15.121,15.122,15.121,15.122
201904051127,15.122,15.122,15.121,15.122
201904051128,15.122,15.123,15.122,15.123
201904051129,15.123,15.123,15.122,15.122
201904051130,15.122,15.123,15.122,15.122
201904051131,15.121,15.122,15.121,15.122
201904051132,15.122,15.123,15.122,15.122
201904051133,15.122,15.123,15.122,15.123
201904051134,15.123,15.123,15.122,15.122
201904051135,15.122,15.123,15.122,15.123
201904051136,15.123,15.123,15.121,15.122
201904051137,15.122,15.123,15.122,15.123
201904051138,15.123,15.123,15.122,15.123
201904051139,15.123,15.123,15.122,15.123
201904051140,15.122,15.125,15.122,15.125
201904051141,15.125,15.126,15.125,15.126
201904051142,15.126,15.126,15.125,15.126
201904051143,15.125,15.126,15.125,15.126
201904051144,15.126,15.127,15.125,15.126
201904051145,15.126,15.126,15.125,15.125
201904051146,15.125,15.126,15.125,15.126
201904051147,15.126,15.126,15.123,15.123
201904051148,15.123,15.124,15.122,15.122
201904051149,15.122,15.123,15.122,15.122
201904051150,15.122,15.123,15.122,15.123
201904051151,15.123,15.123,15.122,15.122
201904051152,15.122,15.123,15.121,15.123
201904051153,15.123,15.123,15.122,15.122
201904051154,15.122,15.123,15.122,15.123
201904051155,15.123,15.123,15.122,15.122
201904051156,15.122,15.123,15.122,15.122
201904051157,15.122,15.123,15.117,15.121
201904051158,15.12,15.121,15.12,15.121
201904051159,15.12,15.121,15.119,15.12
201904051200,15.12,15.121,15.117,15.121
201904051201,15.121,15.121,15.12,15.121
201904051202,15.121,15.121,15.12,15.121
201904051203,15.12,15.121,15.12,15.121
201904051204,15.121,15.121,15.121,15.121
201904051205,15.121,15.121,15.121,15.121
201904051206,15.121,15.121,15.121,15.121
201904051207,15.121,15.121,15.117,15.118
201904051208,15.118,15.118,15.117,15.117
201904051209,15.117,15.118,15.117,15.117
201904051210,15.117,15.117,15.116,15.117
201904051211,15.117,15.117,15.116,15.116
201904051212,15.116,15.117,15.113,15.115
201904051213,15.114,15.116,15.112,15.116
201904051214,15.116,15.116,15.115,15.116
201904051215,15.116,15.116,15.115,15.116
201904051216,15.116,15.116,15.115,15.115
201904051217,15.115,15.116,15.115,15.115
201904051218,15.115,15.116,15.115,15.116
201904051219,15.117,15.117,15.115,15.117
201904051220,15.117,15.117,15.115,15.116
201904051221,15.116,15.116,15.115,15.116
201904051222,15.116,15.116,15.112,15.112
201904051223,15.112,15.113,15.112,15.112
201904051224,15.112,15.116,15.112,15.116
201904051225,15.116,15.116,15.112,15.112
201904051226,15.113,15.115,15.112,15.115
201904051227,15.115,15.115,15.112,15.112
201904051228,15.112,15.113,15.112,15.112
201904051229,15.112,15.112,15.111,15.112
201904051230,15.112,15.112,15.107,15.107
201904051231,15.107,15.111,15.107,15.111
201904051232,15.109,15.111,15.109,15.11
201904051233,15.11,15.111,15.109,15.111
201904051234,15.111,15.112,15.109,15.112
201904051235,15.112,15.112,15.109,15.109
201904051236,15.109,15.111,15.108,15.11
201904051237,15.11,15.112,15.107,15.107
201904051238,15.106,15.108,15.106,15.108
201904051239,15.108,15.11,15.107,15.11
201904051240,15.11,15.111,15.109,15.111
201904051241,15.111,15.111,15.107,15.107
201904051242,15.107,15.108,15.107,15.108
201904051243,15.108,15.108,15.107,15.107
201904051244,15.107,15.107,15.107,15.107
201904051245,15.107,15.107,15.102,15.102
201904051246,15.102,15.102,15.101,15.102
201904051247,15.102,15.102,15.1,15.101
201904051248,15.1,15.101,15.1,15.101
201904051249,15.101,15.101,15.097,15.101
201904051250,15.101,15.102,15.097,15.098
201904051251,15.098,15.101,15.097,15.101
201904051252,15.101,15.101,15.096,15.096
201904051253,15.096,15.098,15.093,15.097
201904051254,15.097,15.098,15.095,15.096
201904051255,15.095,15.098,15.092,15.093
201904051256,15.093,15.098,15.092,15.096
201904051257,15.096,15.097,15.095,15.095
201904051258,15.096,15.098,15.095,15.097
201904051259,15.097,15.097,15.097,15.097
201904051300,15.097,15.097,15.095,15.097
201904051301,15.097,15.098,15.096,15.097
201904051302,15.097,15.098,15.096,15.097
201904051303,15.097,15.102,15.097,15.102
201904051304,15.102,15.102,15.101,15.102
201904051305,15.102,15.102,15.102,15.102
201904051306,15.102,15.103,15.102,15.103
201904051307,15.103,15.103,15.102,15.102
201904051308,15.102,15.107,15.102,15.107
201904051309,15.107,15.108,15.106,15.107
201904051310,15.108,15.112,15.108,15.108
201904051311,15.108,15.109,15.108,15.108
201904051312,15.108,15.108,15.107,15.107
201904051313,15.107,15.108,15.103,15.103
201904051314,15.103,15.104,15.103,15.103
201904051315,15.103,15.103,15.103,15.103
201904051316,15.103,15.107,15.103,15.107
201904051317,15.107,15.107,15.103,15.103
201904051318,15.103,15.103,15.103,15.103
201904051319,15.103,15.107,15.103,15.107
201904051320,15.107,15.107,15.103,15.107
201904051321,15.107,15.107,15.106,15.107
201904051322,15.107,15.107,15.103,15.106
201904051323,15.106,15.107,15.106,15.106
201904051324,15.106,15.109,15.106,15.109
201904051325,15.109,15.112,15.109,15.109
201904051326,15.109,15.112,15.109,15.111
201904051327,15.112,15.112,15.109,15.112
201904051328,15.112,15.113,15.111,15.113
201904051329,15.113,15.113,15.112,15.112
201904051330,15.112,15.112,15.112,15.112
201904051331,15.112,15.113,15.112,15.113
201904051332,15.113,15.113,15.113,15.113
201904051333,15.113,15.114,15.113,15.114
201904051334,15.114,15.114,15.113,15.113
201904051335,15.113,15.114,15.113,15.114
201904051336,15.114,15.114,15.114,15.114
201904051337,15.114,15.114,15.114,15.114
201904051338,15.114,15.114,15.113,15.114
201904051339,15.114,15.114,15.114,15.114
201904051340,15.114,15.114,15.114,15.114
201904051341,15.114,15.114,15.114,15.114
201904051342,15.114,15.114,15.113,15.114
201904051343,15.114,15.114,15.114,15.114
201904051344,15.114,15.115,15.114,15.115
201904051345,15.115,15.119,15.114,15.119
201904051346,15.119,15.122,15.119,15.12
201904051347,15.12,15.123,15.12,15.122
201904051348,15.122,15.122,15.122,15.122
201904051349,15.122,15.123,15.119,15.12
201904051350,15.12,15.123,15.119,15.119
201904051351,15.119,15.122,15.119,15.119
201904051352,15.119,15.119,15.119,15.119
201904051353,15.119,15.12,15.119,15.119
201904051354,15.119,15.124,15.119,15.124
201904051355,15.124,15.125,15.124,15.125
201904051356,15.125,15.126,15.124,15.126
201904051357,15.126,15.13,15.126,15.13
201904051358,15.13,15.13,15.129,15.13
201904051359,15.13,15.13,15.13,15.13
201904051400,15.13,15.13,15.13,15.13
201904051401,15.13,15.13,15.125,15.128
201904051402,15.128,15.128,15.128,15.128
201904051403,15.128,15.128,15.126,15.128
201904051404,15.128,15.128,15.125,15.125
201904051405,15.125,15.126,15.125,15.125
201904051406,15.125,15.126,15.125,15.125
201904051407,15.125,15.126,15.125,15.125
201904051408,15.125,15.128,15.125,15.128
201904051409,15.128,15.129,15.128,15.129
201904051410,15.129,15.129,15.128,15.128
201904051411,15.128,15.129,15.128,15.128
201904051412,15.128,15.132,15.128,15.13
201904051413,15.13,15.133,15.13,15.133
201904051414,15.133,15.138,15.133,15.138
201904051415,15.138,15.138,15.135,15.135
201904051416,15.135,15.139,15.135,15.139
201904051417,15.139,15.139,15.139,15.139
201904051418,15.139,15.139,15.139,15.139
201904051419,15.139,15.144,15.139,15.144
201904051420,15.144,15.145,15.143,15.143
201904051421,15.143,15.143,15.14,15.141
201904051422,15.141,15.141,15.14,15.14
201904051423,15.14,15.141,15.14,15.14
201904051424,15.14,15.143,15.14,15.143
201904051425,15.143,15.143,15.143,15.143
201904051426,15.143,15.143,15.143,15.143
201904051427,15.143,15.143,15.141,15.143
201904051428,15.143,15.144,15.141,15.143
201904051429,15.143,15.143,15.141,15.141
201904051430,15.141,15.143,15.14,15.141
201904051431,15.141,15.141,15.14,15.14
201904051432,15.14,15.14,15.139,15.14
201904051433,15.14,15.14,15.14,15.14
201904051434,15.14,15.14,15.139,15.14
201904051435,15.14,15.14,15.14,15.14
201904051436,15.14,15.14,15.14,15.14
201904051437,15.14,15.14,15.14,15.14
201904051438,15.14,15.141,15.14,15.141
201904051439,15.141,15.141,15.14,15.141
201904051440,15.141,15.142,15.141,15.141
201904051441,15.141,15.141,15.136,15.136
201904051442,15.136,15.136,15.136,15.136
201904051443,15.136,15.137,15.136,15.136
201904051444,15.136,15.139,15.136,15.137
201904051445,15.137,15.139,15.136,15.137
201904051446,15.137,15.139,15.137,15.139
201904051447,15.139,15.139,15.139,15.139
201904051448,15.139,15.14,15.139,15.14
201904051449,15.14,15.14,15.139,15.139
201904051450,15.139,15.139,15.137,15.139
201904051451,15.139,15.141,15.139,15.14
201904051452,15.14,15.141,15.14,15.141
201904051453,15.141,15.141,15.14,15.14
201904051454,15.14,15.14,15.137,15.137
201904051455,15.137,15.137,15.137,15.137
201904051456,15.137,15.137,15.135,15.135
201904051457,15.135,15.135,15.135,15.135
201904051458,15.135,15.135,15.135,15.135
201904051459,15.135,15.136,15.134,15.135
201904051500,15.135,15.135,15.125,15.127
201904051501,15.127,15.129,15.126,15.126
201904051502,15.126,15.127,15.125,15.127
201904051503,15.127,15.127,15.125,15.125
201904051504,15.125,15.13,15.125,15.129
201904051505,15.129,15.13,15.121,15.122
201904051506,15.122,15.122,15.117,15.119
201904051507,15.12,15.12,15.116,15.117
201904051508,15.119,15.12,15.117,15.119
201904051509,15.12,15.12,15.115,15.117
201904051510,15.117,15.119,15.117,15.117
201904051511,15.117,15.117,15.117,15.117
201904051512,15.117,15.117,15.115,15.117
201904051513,15.117,15.117,15.115,15.117
201904051514,15.117,15.117,15.114,15.114
201904051515,15.114,15.116,15.111,15.116
201904051516,15.116,15.12,15.115,15.12
201904051517,15.12,15.12,15.119,15.12
201904051518,15.12,15.129,15.12,15.127
201904051519,15.128,15.134,15.128,15.13
201904051520,15.13,15.134,15.125,15.126
201904051521,15.126,15.128,15.126,15.127
201904051522,15.127,15.129,15.126,15.129
201904051523,15.128,15.129,15.126,15.126
201904051524,15.126,15.126,15.126,15.126
201904051525,15.126,15.126,15.125,15.126
201904051526,15.126,15.126,15.125,15.125
201904051527,15.125,15.126,15.125,15.126
201904051528,15.126,15.129,15.125,15.126
201904051529,15.126,15.128,15.125,15.126
201904051530,15.126,15.126,15.121,15.121
201904051531,15.121,15.121,15.115,15.115
201904051532,15.116,15.118,15.115,15.116
201904051533,15.116,15.12,15.116,15.12
201904051534,15.12,15.121,15.116,15.116
201904051535,15.116,15.12,15.116,15.12
201904051536,15.12,15.124,15.119,15.124
201904051537,15.124,15.126,15.124,15.126
201904051538,15.125,15.127,15.124,15.127
201904051539,15.127,15.129,15.126,15.127
201904051540,15.127,15.127,15.127,15.127
201904051541,15.127,15.129,15.127,15.128
201904051542,15.128,15.129,15.126,15.127
201904051543,15.126,15.129,15.126,15.127
201904051544,15.127,15.129,15.127,15.129
201904051545,15.129,15.13,15.129,15.13
201904051546,15.13,15.13,15.129,15.129
201904051547,15.129,15.13,15.129,15.129
201904051548,15.129,15.13,15.129,15.13
201904051549,15.13,15.131,15.13,15.13
201904051550,15.13,15.13,15.13,15.13
201904051551,15.13,15.131,15.13,15.131
201904051552,15.131,15.136,15.13,15.135
201904051553,15.135,15.136,15.135,15.135
201904051554,15.135,15.135,15.132,15.135
201904051555,15.135,15.135,15.131,15.131
201904051556,15.131,15.131,15.125,15.126
201904051557,15.127,15.13,15.126,15.13
201904051558,15.13,15.132,15.13,15.131
201904051559,15.131,15.139,15.13,15.138
201904051600,15.139,15.146,15.139,15.146
201904051601,15.146,15.148,15.139,15.141
201904051602,15.141,15.143,15.141,15.141
201904051603,15.141,15.141,15.136,15.14
201904051604,15.14,15.14,15.137,15.14
201904051605,15.14,15.143,15.14,15.143
201904051606,15.144,15.145,15.141,15.145
201904051607,15.145,15.145,15.141,15.143
201904051608,15.143,15.144,15.139,15.14
201904051609,15.139,15.141,15.137,15.14
201904051610,15.14,15.143,15.14,15.141
201904051611,15.141,15.148,15.141,15.146
201904051612,15.146,15.152,15.146,15.15
201904051613,15.15,15.15,15.144,15.145
201904051614,15.145,15.149,15.145,15.149
201904051615,15.149,15.151,15.149,15.151
201904051616,15.151,15.156,15.151,15.156
201904051617,15.156,15.156,15.153,15.153
201904051618,15.152,15.156,15.151,15.156
201904051619,15.156,15.156,15.153,15.154
201904051620,15.154,15.159,15.154,15.159
201904051621,15.159,15.166,15.157,15.164
201904051622,15.164,15.17,15.163,15.164
201904051623,15.164,15.169,15.161,15.169
201904051624,15.169,15.169,15.164,15.166
201904051625,15.166,15.17,15.166,15.169
201904051626,15.169,15.169,15.165,15.167
201904051627,15.17,15.171,15.167,15.171
201904051628,15.17,15.17,15.169,15.169
201904051629,15.169,15.171,15.169,15.17
201904051630,15.17,15.18,15.17,15.179
201904051631,15.179,15.184,15.176,15.177
201904051632,15.176,15.177,15.154,15.156
201904051633,15.156,15.156,15.152,15.154
201904051634,15.154,15.155,15.154,15.154
201904051635,15.154,15.164,15.154,15.162
201904051636,15.162,15.162,15.154,15.154
201904051637,15.154,15.16,15.154,15.155
201904051638,15.155,15.155,15.151,15.154
201904051639,15.154,15.154,15.146,15.149
201904051640,15.149,15.16,15.149,15.159
201904051641,15.159,15.16,15.158,15.16
201904051642,15.16,15.163,15.159,15.161
201904051643,15.161,15.163,15.161,15.163
201904051644,15.163,15.164,15.161,15.164
201904051645,15.164,15.164,15.161,15.161
201904051646,15.161,15.162,15.159,15.161
201904051647,15.161,15.161,15.16,15.161
201904051648,15.161,15.161,15.16,15.16
201904051649,15.16,15.16,15.159,15.159
201904051650,15.159,15.167,15.159,15.165
201904051651,15.165,15.168,15.164,15.168
201904051652,15.168,15.169,15.168,15.169
201904051653,15.169,15.17,15.168,15.168
201904051654,15.168,15.169,15.168,15.169
201904051655,15.169,15.169,15.166,15.169
201904051656,15.168,15.168,15.165,15.165
201904051657,15.165,15.165,15.161,15.164
201904051658,15.164,15.164,15.164,15.164
201904051659,15.164,15.165,15.163,15.164
201904051700,15.164,15.169,15.164,15.168
201904051701,15.168,15.168,15.165,15.165
201904051702,15.165,15.166,15.163,15.164
201904051703,15.164,15.166,15.164,15.165
201904051704,15.165,15.167,15.165,15.165
201904051705,15.165,15.17,15.165,15.167
201904051706,15.167,15.17,15.166,15.169
201904051707,15.169,15.17,15.168,15.17
201904051708,15.169,15.173,15.168,15.173
201904051709,15.173,15.174,15.17,15.171
201904051710,15.171,15.171,15.169,15.169
201904051711,15.169,15.169,15.166,15.168
201904051712,15.168,15.169,15.167,15.169
201904051713,15.169,15.169,15.168,15.168
201904051714,15.168,15.169,15.166,15.167
201904051715,15.167,15.169,15.167,15.168
201904051716,15.168,15.169,15.168,15.169
201904051717,15.169,15.169,15.168,15.169
201904051718,15.169,15.173,15.169,15.169
201904051719,15.169,15.169,15.165,15.166
201904051720,15.166,15.166,15.164,15.164
201904051721,15.164,15.164,15.159,15.159
201904051722,15.159,15.159,15.155,15.155
201904051723,15.155,15.156,15.154,15.155
201904051724,15.155,15.159,15.154,15.159
201904051725,15.159,15.159,15.156,15.156
201904051726,15.156,15.156,15.155,15.155
201904051727,15.155,15.155,15.153,15.154
201904051728,15.154,15.155,15.154,15.155
201904051729,15.155,15.158,15.155,15.155
201904051730,15.155,15.156,15.153,15.153
201904051731,15.153,15.155,15.153,15.154
201904051732,15.154,15.154,15.145,15.148
201904051733,15.148,15.148,15.145,15.148
201904051734,15.148,15.15,15.148,15.149
201904051735,15.149,15.149,15.148,15.149
201904051736,15.149,15.154,15.149,15.153
201904051737,15.153,15.154,15.153,15.153
201904051738,15.153,15.154,15.153,15.154
201904051739,15.154,15.154,15.153,15.153
201904051740,15.153,15.154,15.153,15.154
201904051741,15.154,15.154,15.15,15.154
201904051742,15.154,15.158,15.153,15.158
201904051743,15.158,15.158,15.155,15.158
201904051744,15.158,15.168,15.158,15.168
201904051745,15.168,15.168,15.164,15.164
201904051746,15.164,15.164,15.159,15.159
201904051747,15.159,15.164,15.156,15.164
201904051748,15.164,15.164,15.161,15.164
201904051749,15.164,15.168,15.162,15.163
201904051750,15.163,15.164,15.162,15.162
201904051751,15.162,15.164,15.162,15.163
201904051752,15.163,15.163,15.162,15.162
201904051753,15.162,15.165,15.162,15.164
201904051754,15.164,15.165,15.164,15.164
201904051755,15.164,15.165,15.164,15.165
201904051756,15.165,15.168,15.165,15.165
201904051757,15.165,15.165,15.155,15.156
201904051758,15.155,15.155,15.154,15.155
201904051759,15.155,15.155,15.152,15.153
201904051800,15.153,15.153,15.149,15.15
201904051801,15.15,15.153,15.15,15.151
201904051802,15.15,15.15,15.149,15.15
201904051803,15.15,15.15,15.149,15.149
201904051804,15.149,15.153,15.147,15.148
201904051805,15.148,15.148,15.144,15.148
201904051806,15.148,15.148,15.141,15.142
201904051807,15.142,15.144,15.14,15.144
201904051808,15.144,15.145,15.143,15.144
201904051809,15.144,15.147,15.144,15.144
201904051810,15.144,15.145,15.144,15.144
201904051811,15.144,15.145,15.144,15.145
201904051812,15.145,15.145,15.144,15.144
201904051813,15.144,15.144,15.144,15.144
201904051814,15.144,15.144,15.143,15.144
201904051815,15.144,15.144,15.143,15.143
201904051816,15.143,15.144,15.143,15.144
201904051817,15.144,15.144,15.143,15.144
201904051818,15.143,15.144,15.139,15.14
201904051819,15.14,15.14,15.135,15.135
201904051820,15.137,15.138,15.134,15.134
201904051821,15.134,15.134,15.128,15.129
201904051822,15.129,15.142,15.129,15.139
201904051823,15.139,15.141,15.138,15.139
201904051824,15.139,15.142,15.139,15.142
201904051825,15.142,15.143,15.138,15.142
201904051826,15.142,15.143,15.139,15.143
201904051827,15.143,15.147,15.143,15.147
201904051828,15.147,15.148,15.146,15.148
201904051829,15.148,15.151,15.148,15.148
201904051830,15.148,15.151,15.148,15.148
201904051831,15.148,15.152,15.148,15.151
201904051832,15.152,15.158,15.152,15.157
201904051833,15.157,15.158,15.155,15.156
201904051834,15.156,15.156,15.153,15.155
201904051835,15.155,15.165,15.155,15.162
201904051836,15.162,15.162,15.161,15.161
201904051837,15.162,15.162,15.157,15.158
201904051838,15.158,15.158,15.156,15.157
201904051839,15.157,15.158,15.152,15.152
201904051840,15.152,15.158,15.152,15.157
201904051841,15.157,15.157,15.157,15.157
201904051842,15.156,15.157,15.156,15.157
201904051843,15.157,15.157,15.156,15.157
201904051844,15.157,15.157,15.153,15.156
201904051845,15.157,15.157,15.153,15.153
201904051846,15.153,15.157,15.153,15.156
201904051847,15.156,15.156,15.152,15.152
201904051848,15.152,15.152,15.151,15.151
201904051849,15.151,15.151,15.151,15.151
201904051850,15.151,15.153,15.147,15.151
201904051851,15.151,15.151,15.148,15.151
201904051852,15.151,15.151,15.148,15.151
201904051853,15.151,15.152,15.147,15.147
201904051854,15.147,15.166,15.147,15.165
201904051855,15.165,15.166,15.165,15.166
201904051856,15.166,15.166,15.165,15.166
201904051857,15.166,15.172,15.166,15.172
201904051858,15.172,15.172,15.167,15.167
201904051859,15.167,15.171,15.167,15.167
201904051900,15.167,15.167,15.167,15.167
201904051901,15.167,15.167,15.167,15.167
201904051902,15.167,15.168,15.167,15.167
201904051903,15.167,15.171,15.167,15.168
201904051904,15.168,15.17,15.167,15.167
201904051905,15.167,15.169,15.167,15.168
201904051906,15.168,15.171,15.168,15.171
201904051907,15.172,15.172,15.167,15.167
201904051908,15.167,15.168,15.167,15.167
201904051909,15.167,15.167,15.166,15.166
201904051910,15.166,15.172,15.166,15.172
201904051911,15.172,15.172,15.169,15.169
201904051912,15.168,15.173,15.167,15.173
201904051913,15.173,15.178,15.173,15.177
201904051914,15.177,15.178,15.174,15.177
201904051915,15.177,15.177,15.177,15.177
201904051916,15.177,15.177,15.177,15.177
201904051917,15.177,15.177,15.174,15.174
201904051918,15.174,15.177,15.174,15.176
201904051919,15.176,15.177,15.174,15.175
201904051920,15.172,15.175,15.172,15.173
201904051921,15.173,15.178,15.173,15.178
201904051922,15.178,15.188,15.178,15.187
201904051923,15.186,15.188,15.186,15.187
201904051924,15.187,15.188,15.184,15.186
201904051925,15.186,15.186,15.182,15.186
201904051926,15.186,15.187,15.186,15.187
201904051927,15.187,15.187,15.186,15.186
201904051928,15.186,15.192,15.186,15.188
201904051929,15.188,15.188,15.187,15.187
201904051930,15.187,15.187,15.184,15.187
201904051931,15.187,15.191,15.187,15.191
201904051932,15.191,15.191,15.19,15.191
201904051933,15.191,15.191,15.191,15.191
201904051934,15.191,15.196,15.191,15.196
201904051935,15.196,15.196,15.195,15.196
201904051936,15.196,15.196,15.195,15.196
201904051937,15.196,15.196,15.195,15.196
201904051938,15.196,15.196,15.196,15.196
201904051939,15.196,15.197,15.196,15.196
201904051940,15.196,15.196,15.195,15.196
201904051941,15.196,15.196,15.191,15.191
201904051942,15.191,15.195,15.191,15.195
201904051943,15.195,15.196,15.195,15.195
201904051944,15.195,15.196,15.195,15.196
201904051945,15.196,15.196,15.196,15.196
201904051946,15.196,15.196,15.195,15.195
201904051947,15.195,15.195,15.195,15.195
201904051948,15.195,15.195,15.19,15.19
201904051949,15.19,15.191,15.19,15.19
201904051950,15.19,15.191,15.19,15.19
201904051951,15.19,15.19,15.189,15.189
201904051952,15.189,15.189,15.185,15.185
201904051953,15.185,15.186,15.185,15.186
201904051954,15.187,15.191,15.187,15.191
201904051955,15.191,15.197,15.191,15.196
201904051956,15.196,15.196,15.195,15.196
201904051957,15.196,15.197,15.196,15.196
201904051958,15.196,15.196,15.192,15.192
201904051959,15.192,15.192,15.187,15.187
201904052000,15.187,15.195,15.187,15.195
201904052001,15.196,15.196,15.191,15.191
201904052002,15.191,15.196,15.191,15.195
201904052003,15.193,15.195,15.192,15.195
201904052004,15.195,15.196,15.184,15.185
201904052005,15.185,15.186,15.178,15.181
201904052006,15.181,15.181,15.178,15.178
201904052007,15.178,15.179,15.175,15.176
201904052008,15.176,15.181,15.176,15.177
201904052009,15.178,15.178,15.176,15.177
201904052010,15.177,15.177,15.175,15.177
201904052011,15.177,15.181,15.177,15.18
201904052012,15.18,15.181,15.177,15.177
201904052013,15.177,15.177,15.176,15.177
201904052014,15.177,15.181,15.176,15.179
201904052015,15.179,15.181,15.179,15.181
201904052016,15.181,15.181,15.177,15.178
201904052017,15.177,15.177,15.171,15.172
201904052018,15.172,15.18,15.172,15.177
201904052019,15.177,15.179,15.176,15.176
201904052020,15.176,15.177,15.172,15.175
201904052021,15.175,15.175,15.166,15.168
201904052022,15.167,15.17,15.167,15.17
201904052023,15.17,15.17,15.169,15.17
201904052024,15.17,15.17,15.167,15.167
201904052025,15.167,15.169,15.166,15.167
201904052026,15.167,15.167,15.166,15.166
201904052027,15.165,15.166,15.162,15.162
201904052028,15.162,15.162,15.162,15.162
201904052029,15.162,15.165,15.162,15.165
201904052030,15.165,15.166,15.163,15.163
201904052031,15.163,15.165,15.162,15.162
201904052032,15.162,15.162,15.157,15.157
201904052033,15.157,15.157,15.155,15.156
201904052034,15.156,15.156,15.151,15.151
201904052035,15.151,15.156,15.151,15.156
201904052036,15.156,15.156,15.154,15.156
201904052037,15.156,15.156,15.154,15.155
201904052038,15.155,15.159,15.154,15.159
201904052039,15.159,15.159,15.155,15.159
201904052040,15.159,15.159,15.155,15.156
201904052041,15.156,15.156,15.154,15.156
201904052042,15.156,15.156,15.154,15.154
201904052043,15.154,15.154,15.15,15.15
201904052044,15.15,15.15,15.135,15.135
201904052045,15.135,15.141,15.135,15.138
201904052046,15.138,15.138,15.136,15.137
201904052047,15.137,15.138,15.136,15.138
201904052048,15.138,15.14,15.136,15.137
201904052049,15.138,15.138,15.13,15.13
201904052050,15.127,15.127,15.116,15.117
201904052051,15.117,15.121,15.116,15.12
201904052052,15.12,15.12,15.102,15.111
201904052053,15.111,15.112,15.106,15.108
201904052054,15.108,15.111,15.104,15.104
201904052055,15.104,15.104,15.093,15.103
201904052056,15.103,15.113,15.103,15.113
201904052057,15.114,15.118,15.112,15.117
201904052058,15.117,15.118,15.114,15.118
201904052059,15.118,15.118,15.113,15.117
201904052100,15.117,15.117,15.109,15.114
201904052101,15.114,15.126,15.112,15.126
201904052102,15.127,15.129,15.123,15.129
201904052103,15.129,15.129,15.124,15.124
201904052104,15.123,15.128,15.123,15.125
201904052105,15.125,15.125,15.124,15.124
201904052106,15.124,15.127,15.122,15.122
201904052107,15.122,15.122,15.115,15.115
201904052108,15.115,15.117,15.113,15.113
201904052109,15.113,15.114,15.103,15.106
201904052110,15.106,15.108,15.106,15.108
201904052111,15.107,15.108,15.103,15.104
201904052112,15.104,15.104,15.098,15.102
201904052113,15.102,15.111,15.102,15.108
201904052114,15.108,15.122,15.108,15.117
201904052115,15.117,15.117,15.11,15.112
201904052116,15.112,15.116,15.107,15.107
201904052117,15.107,15.112,15.107,15.111
201904052118,15.111,15.112,15.107,15.107
201904052119,15.107,15.107,15.106,15.107
201904052120,15.107,15.107,15.091,15.094
201904052121,15.095,15.11,15.095,15.109
201904052122,15.109,15.109,15.105,15.109
201904052123,15.109,15.116,15.109,15.116
201904052124,15.116,15.119,15.116,15.117
201904052125,15.117,15.12,15.115,15.116
201904052126,15.116,15.117,15.111,15.112
201904052127,15.111,15.111,15.108,15.109
201904052128,15.109,15.115,15.106,15.114
201904052129,15.114,15.146,15.113,15.14
201904052130,15.135,15.157,15.128,15.131
201904052131,15.126,15.143,15.12,15.139
201904052132,15.139,15.15,15.131,15.149
201904052133,15.149,15.162,15.141,15.159
201904052134,15.158,15.163,15.143,15.158
201904052135,15.158,15.159,15.141,15.141
201904052136,15.141,15.151,15.141,15.151
201904052137,15.151,15.154,15.14,15.143
201904052138,15.143,15.147,15.112,15.114
201904052139,15.114,15.122,15.098,15.098
201904052140,15.098,15.11,15.091,15.091
201904052141,15.091,15.101,15.079,15.079
201904052142,15.078,15.089,15.068,15.069
201904052143,15.069,15.079,15.066,15.072
201904052144,15.073,15.083,15.07,15.083
201904052145,15.083,15.085,15.07,15.085
201904052146,15.084,15.103,15.084,15.1
201904052147,15.1,15.107,15.095,15.095
201904052148,15.095,15.099,15.088,15.092
201904052149,15.092,15.093,15.083,15.083
201904052150,15.083,15.097,15.079,15.093
201904052151,15.093,15.114,15.093,15.112
201904052152,15.112,15.113,15.105,15.109
201904052153,15.109,15.114,15.102,15.114
201904052154,15.114,15.148,15.113,15.147
201904052155,15.148,15.151,15.139,15.145
201904052156,15.145,15.175,15.145,15.174
201904052157,15.174,15.175,15.155,15.159
201904052158,15.159,15.168,15.158,15.164
201904052159,15.164,15.178,15.162,15.176
201904052200,15.176,15.185,15.171,15.183
201904052201,15.183,15.186,15.166,15.174
201904052202,15.174,15.179,15.171,15.177
201904052203,15.178,15.188,15.178,15.185
201904052204,15.185,15.19,15.179,15.184
201904052205,15.185,15.193,15.185,15.188
201904052206,15.188,15.198,15.178,15.179
201904052207,15.179,15.183,15.172,15.176
201904052208,15.175,15.176,15.166,15.166
201904052209,15.166,15.179,15.166,15.179
201904052210,15.179,15.195,15.174,15.195
201904052211,15.195,15.195,15.186,15.189
201904052212,15.189,15.194,15.185,15.194
201904052213,15.194,15.194,15.189,15.19
201904052214,15.191,15.205,15.189,15.204
201904052215,15.204,15.204,15.187,15.195
201904052216,15.194,15.195,15.186,15.188
201904052217,15.188,15.19,15.185,15.186
201904052218,15.186,15.189,15.184,15.185
201904052219,15.185,15.185,15.184,15.185
201904052220,15.185,15.185,15.179,15.182
201904052221,15.181,15.184,15.179,15.179
201904052222,15.179,15.184,15.179,15.183
201904052223,15.183,15.184,15.179,15.183
201904052224,15.183,15.184,15.179,15.18
201904052225,15.18,15.183,15.178,15.179
201904052226,15.179,15.182,15.178,15.178
201904052227,15.178,15.18,15.174,15.174
201904052228,15.174,15.174,15.158,15.158
201904052229,15.158,15.159,15.153,15.157
201904052230,15.157,15.157,15.13,15.132
201904052231,15.132,15.148,15.124,15.126
201904052232,15.127,15.138,15.125,15.137
201904052233,15.138,15.154,15.138,15.143
201904052234,15.142,15.153,15.14,15.145
201904052235,15.146,15.148,15.133,15.134
201904052236,15.134,15.14,15.13,15.13
201904052237,15.13,15.13,15.122,15.129
201904052238,15.129,15.129,15.113,15.115
201904052239,15.115,15.118,15.108,15.108
201904052240,15.108,15.116,15.102,15.102
201904052241,15.103,15.109,15.102,15.104
201904052242,15.104,15.109,15.098,15.109
201904052243,15.109,15.118,15.107,15.107
201904052244,15.107,15.111,15.106,15.108
201904052245,15.107,15.108,15.099,15.104
201904052246,15.104,15.109,15.104,15.108
201904052247,15.108,15.108,15.104,15.106
201904052248,15.107,15.107,15.103,15.104
201904052249,15.104,15.105,15.097,15.103
201904052250,15.104,15.104,15.099,15.104
201904052251,15.104,15.104,15.094,15.094
201904052252,15.094,15.096,15.09,15.09
201904052253,15.09,15.09,15.083,15.085
201904052254,15.085,15.086,15.08,15.084
201904052255,15.085,15.085,15.075,15.075
201904052256,15.075,15.079,15.074,15.075
201904052257,15.075,15.09,15.069,15.09
201904052258,15.09,15.095,15.09,15.095
201904052259,15.095,15.095,15.094,15.094
201904052300,15.094,15.099,15.094,15.096
201904052301,15.096,15.104,15.093,15.103
201904052302,15.103,15.106,15.094,15.099
201904052303,15.098,15.098,15.079,15.089
201904052304,15.089,15.105,15.089,15.104
201904052305,15.104,15.104,15.097,15.1
201904052306,15.099,15.108,15.099,15.104
201904052307,15.104,15.104,15.099,15.103
201904052308,15.102,15.108,15.1,15.103
201904052309,15.103,15.104,15.102,15.103
201904052310,15.103,15.104,15.094,15.094
201904052311,15.094,15.108,15.094,15.108
201904052312,15.108,15.138,15.108,15.134
201904052313,15.134,15.142,15.128,15.139
201904052314,15.137,15.14,15.134,15.139
201904052315,15.139,15.139,15.129,15.129
201904052316,15.129,15.133,15.129,15.133
201904052317,15.133,15.134,15.129,15.129
201904052318,15.129,15.13,15.119,15.12
201904052319,15.119,15.124,15.114,15.114
201904052320,15.114,15.118,15.113,15.117
201904052321,15.117,15.122,15.112,15.114
201904052322,15.114,15.117,15.112,15.114
201904052323,15.114,15.115,15.112,15.113
201904052324,15.113,15.114,15.108,15.11
201904052325,15.109,15.117,15.109,15.117
201904052326,15.117,15.118,15.117,15.118
201904052327,15.117,15.128,15.117,15.128
201904052328,15.128,15.128,15.124,15.124
201904052329,15.124,15.128,15.119,15.127
201904052330,15.127,15.138,15.127,15.134
201904052331,15.135,15.138,15.134,15.134
201904052332,15.134,15.149,15.134,15.149
201904052333,15.149,15.153,15.147,15.149
201904052334,15.149,15.153,15.144,15.144
201904052335,15.144,15.157,15.144,15.157
201904052336,15.157,15.163,15.151,15.159
201904052337,15.159,15.163,15.154,15.154
201904052338,15.154,15.154,15.153,15.154
201904052339,15.158,15.168,15.158,15.168
201904052340,15.168,15.169,15.154,15.155
201904052341,15.154,15.155,15.153,15.153
201904052342,15.153,15.158,15.15,15.158
201904052343,15.158,15.167,15.155,15.164
201904052344,15.164,15.164,15.159,15.159
201904052345,15.159,15.159,15.149,15.155
201904052346,15.155,15.155,15.149,15.149
201904052347,15.149,15.149,15.148,15.149
201904052348,15.149,15.149,15.148,15.149
201904052349,15.149,15.149,15.144,15.144
201904052350,15.144,15.149,15.144,15.148
201904052351,15.148,15.153,15.148,15.151
201904052352,15.152,15.157,15.152,15.154
201904052353,15.154,15.154,15.152,15.154
201904052354,15.154,15.168,15.149,15.167
201904052355,15.167,15.168,15.162,15.168
201904052356,15.168,15.176,15.168,15.174
201904052357,15.174,15.178,15.169,15.169
201904052358,15.169,15.172,15.168,15.169
201904052359,15.169,15.169,15.159,15.162
201904060000,15.162,15.163,15.158,15.159
201904060001,15.159,15.168,15.159,15.168
201904060002,15.168,15.173,15.166,15.172
201904060003,15.172,15.172,15.169,15.169
201904060004,15.169,15.169,15.168,15.169
201904060005,15.169,15.169,15.168,15.169
201904060006,15.169,15.173,15.169,15.169
201904060007,15.169,15.169,15.166,15.167
201904060008,15.167,15.168,15.164,15.164
201904060009,15.164,15.164,15.152,15.153
201904060010,15.153,15.159,15.152,15.158
201904060011,15.158,15.173,15.158,15.169
201904060012,15.169,15.178,15.169,15.177
201904060013,15.177,15.178,15.174,15.174
201904060014,15.174,15.179,15.173,15.178
201904060015,15.178,15.178,15.172,15.174
201904060016,15.174,15.179,15.174,15.177
201904060017,15.177,15.177,15.164,15.164
201904060018,15.164,15.164,15.157,15.158
201904060019,15.158,15.158,15.154,15.155
201904060020,15.155,15.155,15.148,15.154
201904060021,15.154,15.156,15.149,15.152
201904060022,15.152,15.154,15.152,15.153
201904060023,15.153,15.158,15.153,15.158
201904060024,15.158,15.158,15.154,15.154
201904060025,15.154,15.155,15.149,15.149
201904060026,15.149,15.152,15.149,15.149
201904060027,15.149,15.151,15.148,15.148
201904060028,15.148,15.149,15.143,15.143
201904060029,15.143,15.144,15.143,15.144
201904060030,15.144,15.147,15.142,15.145
201904060031,15.147,15.147,15.142,15.143
201904060032,15.143,15.147,15.142,15.145
201904060033,15.145,15.149,15.144,15.144
201904060034,15.144,15.144,15.138,15.138
201904060035,15.138,15.138,15.133,15.133
201904060036,15.133,15.134,15.129,15.129
201904060037,15.129,15.13,15.128,15.129
201904060038,15.132,15.132,15.124,15.128
201904060039,15.128,15.134,15.128,15.134
201904060040,15.134,15.138,15.133,15.138
201904060041,15.138,15.138,15.134,15.134
201904060042,15.134,15.134,15.124,15.128
201904060043,15.128,15.133,15.127,15.133
201904060044,15.133,15.133,15.129,15.13
201904060045,15.13,15.134,15.13,15.132
201904060046,15.132,15.134,15.13,15.134
201904060047,15.134,15.134,15.128,15.128
201904060048,15.128,15.134,15.125,15.133
201904060049,15.133,15.137,15.133,15.134
201904060050,15.134,15.134,15.132,15.133
201904060051,15.133,15.137,15.133,15.137
201904060052,15.138,15.138,15.133,15.134
201904060053,15.134,15.134,15.129,15.13
201904060054,15.13,15.134,15.129,15.129
201904060055,15.129,15.129,15.128,15.128
201904060056,15.128,15.128,15.124,15.124
201904060057,15.124,15.129,15.124,15.128
201904060058,15.128,15.129,15.127,15.128
201904060059,15.128,15.132,15.127,15.128
201904060100,15.129,15.129,15.127,15.129
201904060101,15.129,15.133,15.129,15.131
201904060102,15.131,15.131,15.129,15.129
201904060103,15.129,15.131,15.125,15.125
201904060104,15.125,15.125,15.123,15.124
201904060105,15.124,15.124,15.123,15.124
201904060106,15.124,15.124,15.118,15.119
201904060107,15.119,15.119,15.115,15.119
201904060108,15.119,15.123,15.119,15.119
201904060109,15.119,15.123,15.119,15.123
201904060110,15.123,15.129,15.123,15.129
201904060111,15.129,15.134,15.128,15.134
201904060112,15.134,15.134,15.131,15.133
201904060113,15.133,15.139,15.133,15.138
201904060114,15.138,15.139,15.138,15.139
201904060115,15.138,15.139,15.134,15.134
201904060116,15.134,15.134,15.13,15.133
201904060117,15.133,15.133,15.128,15.129
201904060118,15.129,15.133,15.129,15.132
201904060119,15.132,15.134,15.132,15.134
201904060120,15.134,15.134,15.129,15.133
201904060121,15.133,15.133,15.128,15.132
201904060122,15.132,15.132,15.128,15.13
201904060123,15.13,15.13,15.124,15.124
201904060124,15.124,15.125,15.12,15.123
201904060125,15.123,15.125,15.123,15.124
201904060126,15.124,15.124,15.122,15.124
201904060127,15.124,15.124,15.123,15.124
201904060128,15.124,15.126,15.123,15.125
201904060129,15.125,15.125,15.124,15.125
201904060130,15.125,15.125,15.12,15.12
201904060131,15.12,15.128,15.12,15.125
201904060132,15.125,15.125,15.124,15.124
201904060133,15.124,15.125,15.124,15.125
201904060134,15.125,15.125,15.12,15.12
201904060135,15.119,15.12,15.119,15.12
201904060136,15.12,15.12,15.12,15.12
201904060137,15.12,15.124,15.12,15.124
201904060138,15.124,15.125,15.123,15.124
201904060139,15.124,15.124,15.119,15.12
201904060140,15.12,15.121,15.119,15.12
201904060141,15.12,15.124,15.12,15.124
201904060142,15.124,15.124,15.12,15.124
201904060143,15.124,15.125,15.122,15.124
201904060144,15.124,15.124,15.12,15.12
201904060145,15.12,15.12,15.119,15.119
201904060146,15.119,15.12,15.119,15.119
201904060147,15.119,15.119,15.119,15.119
201904060148,15.119,15.119,15.118,15.119
201904060149,15.119,15.119,15.118,15.119
201904060150,15.119,15.119,15.119,15.119
201904060151,15.119,15.124,15.119,15.121
201904060152,15.121,15.121,15.119,15.12
201904060153,15.12,15.12,15.118,15.119
201904060154,15.119,15.119,15.118,15.119
201904060155,15.119,15.119,15.114,15.114
201904060156,15.114,15.114,15.112,15.112
201904060157,15.112,15.114,15.104,15.104
201904060158,15.104,15.109,15.103,15.109
201904060159,15.109,15.11,15.105,15.108
201904060200,15.108,15.109,15.104,15.109
201904060201,15.108,15.109,15.105,15.105
201904060202,15.106,15.112,15.104,15.108
201904060203,15.108,15.11,15.108,15.108
201904060204,15.108,15.109,15.106,15.107
201904060205,15.108,15.109,15.107,15.107
201904060206,15.108,15.118,15.107,15.118
201904060207,15.118,15.118,15.116,15.118
201904060208,15.118,15.119,15.118,15.119
201904060209,15.119,15.12,15.119,15.12
201904060210,15.119,15.12,15.118,15.118
201904060211,15.118,15.119,15.118,15.119
201904060212,15.119,15.119,15.116,15.119
201904060213,15.119,15.119,15.118,15.118
201904060214,15.118,15.119,15.117,15.119
201904060215,15.119,15.119,15.118,15.118
201904060216,15.118,15.12,15.118,15.119
201904060217,15.119,15.123,15.119,15.12
201904060218,15.12,15.12,15.119,15.12
201904060219,15.12,15.124,15.12,15.124
201904060220,15.124,15.126,15.123,15.123
201904060221,15.124,15.132,15.123,15.132
201904060222,15.133,15.134,15.125,15.125
201904060223,15.126,15.128,15.123,15.124
201904060224,15.124,15.124,15.108,15.109
201904060225,15.109,15.114,15.108,15.114
201904060226,15.114,15.114,15.112,15.114
201904060227,15.114,15.114,15.113,15.114
201904060228,15.114,15.114,15.109,15.113
201904060229,15.113,15.113,15.105,15.105
201904060230,15.104,15.108,15.104,15.105
201904060231,15.105,15.105,15.102,15.102
201904060232,15.102,15.102,15.1,15.1
201904060233,15.1,15.1,15.1,15.1
201904060234,15.1,15.104,15.099,15.103
201904060235,15.103,15.104,15.1,15.1
201904060236,15.1,15.101,15.099,15.1
201904060237,15.1,15.101,15.099,15.1
201904060238,15.1,15.104,15.099,15.1
201904060239,15.1,15.101,15.1,15.1
201904060240,15.1,15.101,15.1,15.1
201904060241,15.1,15.1,15.1,15.1
201904060242,15.1,15.1,15.099,15.1
201904060243,15.099,15.101,15.099,15.1
201904060244,15.1,15.1,15.1,15.1
201904060245,15.1,15.103,15.099,15.103
201904060246,15.103,15.105,15.103,15.105
201904060247,15.105,15.105,15.104,15.104
201904060248,15.104,15.105,15.102,15.104
201904060249,15.104,15.104,15.101,15.104
201904060250,15.104,15.105,15.103,15.105
201904060251,15.105,15.107,15.099,15.099
201904060252,15.099,15.1,15.099,15.1
201904060253,15.1,15.104,15.099,15.103
201904060254,15.103,15.103,15.099,15.1
201904060255,15.1,15.1,15.099,15.099
201904060256,15.099,15.101,15.099,15.1
201904060257,15.1,15.102,15.099,15.1
201904060258,15.1,15.1,15.1,15.1
201904060259,15.1,15.1,15.1,15.1
201904060300,15.1,15.101,15.1,15.101
201904060301,15.101,15.101,15.1,15.1
201904060302,15.1,15.1,15.099,15.1
201904060303,15.1,15.101,15.1,15.1
201904060304,15.1,15.101,15.1,15.1
201904060305,15.1,15.1,15.1,15.1
201904060306,15.1,15.1,15.1,15.1
201904060307,15.099,15.1,15.095,15.096
201904060308,15.096,15.1,15.095,15.099
201904060309,15.099,15.1,15.099,15.1
201904060310,15.099,15.1,15.098,15.098
201904060311,15.098,15.099,15.097,15.099
201904060312,15.099,15.1,15.099,15.1
201904060313,15.099,15.1,15.099,15.099
201904060314,15.099,15.1,15.099,15.1
201904060315,15.1,15.1,15.1,15.1
201904060316,15.1,15.1,15.1,15.1
201904060317,15.1,15.101,15.1,15.1
201904060318,15.1,15.1,15.099,15.1
201904060319,15.1,15.105,15.099,15.105
201904060320,15.105,15.105,15.105,15.105
201904060321,15.105,15.105,15.099,15.099
201904060322,15.099,15.1,15.099,15.1
201904060323,15.1,15.101,15.1,15.1
201904060324,15.1,15.101,15.099,15.1
201904060325,15.099,15.104,15.099,15.104
201904060326,15.104,15.105,15.104,15.104
201904060327,15.104,15.104,15.102,15.104
201904060328,15.104,15.106,15.104,15.105
201904060329,15.105,15.105,15.104,15.105
201904060330,15.105,15.105,15.104,15.105
201904060331,15.105,15.105,15.105,15.105
201904060332,15.105,15.105,15.104,15.105
201904060333,15.105,15.105,15.102,15.104
201904060334,15.104,15.104,15.103,15.103
201904060335,15.103,15.105,15.103,15.105
201904060336,15.105,15.105,15.105,15.105
201904060337,15.104,15.106,15.104,15.104
201904060338,15.104,15.105,15.103,15.103
201904060339,15.103,15.104,15.103,15.104
201904060340,15.104,15.104,15.104,15.104
201904060341,15.104,15.105,15.104,15.105
201904060342,15.105,15.105,15.104,15.104
201904060343,15.104,15.105,15.104,15.105
201904060344,15.105,15.105,15.104,15.104
201904060345,15.104,15.104,15.104,15.104
201904060346,15.104,15.104,15.104,15.104
201904060347,15.104,15.104,15.1,15.1
201904060348,15.1,15.1,15.099,15.1
201904060349,15.1,15.1,15.099,15.099
201904060350,15.099,15.099,15.098,15.099
201904060351,15.099,15.099,15.099,15.099
201904060352,15.099,15.099,15.099,15.099
201904060353,15.099,15.099,15.096,15.096
201904060354,15.096,15.096,15.094,15.096
201904060355,15.096,15.098,15.095,15.095
201904060356,15.095,15.096,15.095,15.095
201904060357,15.095,15.096,15.095,15.096
201904060358,15.096,15.096,15.096,15.096
201904060359,15.096,15.099,15.096,15.099
201904060400,15.099,15.099,15.096,15.096
201904060401,15.096,15.099,15.096,15.096
201904060402,15.096,15.098,15.096,15.097
201904060403,15.097,15.099,15.097,15.099
201904060404,15.099,15.1,15.096,15.096
201904060405,15.096,15.097,15.096,15.096
201904060406,15.096,15.096,15.096,15.096
201904060407,15.096,15.097,15.096,15.096
201904060408,15.096,15.096,15.095,15.095
201904060409,15.095,15.095,15.095,15.095
201904060410,15.095,15.095,15.091,15.094
201904060411,15.094,15.095,15.094,15.094
201904060412,15.094,15.095,15.094,15.094
201904060413,15.094,15.095,15.094,15.095
201904060414,15.095,15.095,15.094,15.095
201904060415,15.095,15.101,15.095,15.097
201904060416,15.097,15.097,15.095,15.095
201904060417,15.095,15.096,15.095,15.096
201904060418,15.096,15.096,15.096,15.096
201904060419,15.096,15.096,15.091,15.091
201904060420,15.092,15.092,15.091,15.091
201904060421,15.091,15.093,15.091,15.092
201904060422,15.092,15.097,15.092,15.095
201904060423,15.095,15.096,15.095,15.096
201904060424,15.096,15.096,15.095,15.096
201904060425,15.096,15.096,15.095,15.096
201904060426,15.096,15.096,15.096,15.096
201904060427,15.096,15.096,15.096,15.096
201904060428,15.095,15.096,15.095,15.095
201904060429,15.095,15.096,15.095,15.095
201904060430,15.095,15.097,15.095,15.096
201904060431,15.096,15.097,15.095,15.096
201904060432,15.096,15.096,15.095,15.096
201904060433,15.096,15.097,15.095,15.096
201904060434,15.096,15.096,15.095,15.096
201904060435,15.096,15.096,15.095,15.095
201904060436,15.095,15.096,15.095,15.095
201904060437,15.095,15.097,15.095,15.097
201904060438,15.097,15.097,15.095,15.096
201904060439,15.096,15.097,15.095,15.097
201904060440,15.097,15.097,15.095,15.095
201904060441,15.095,15.097,15.095,15.097
201904060442,15.097,15.097,15.097,15.097
201904060443,15.097,15.098,15.097,15.097
201904060444,15.097,15.097,15.097,15.097
201904060445,15.097,15.097,15.097,15.097
201904060446,15.097,15.097,15.097,15.097
201904060447,15.097,15.097,15.094,15.094
201904060448,15.094,15.097,15.094,15.097
201904060449,15.097,15.097,15.097,15.097
201904060450,15.097,15.098,15.097,15.097
201904060451,15.097,15.098,15.097,15.098
201904060452,15.098,15.098,15.097,15.097
201904060453,15.097,15.098,15.097,15.097
201904060454,15.097,15.098,15.097,15.097
201904060455,15.097,15.097,15.097,15.097
201904060456,15.097,15.097,15.097,15.097
201904060457,15.098,15.1,15.097,15.1
201904060458,15.1,15.101,15.1,15.101
201904060459,15.101,15.101,15.1,15.1
201904060500,15.101,15.101,15.1,15.1
201904060501,15.1,15.1,15.1,15.1
201904060502,15.1,15.101,15.1,15.1
201904060503,15.1,15.1,15.1,15.1
201904060504,15.1,15.1,15.1,15.1
201904060505,15.1,15.1,15.1,15.1
201904060506,15.1,15.1,15.1,15.1
201904060507,15.1,15.1,15.1,15.1
201904060508,15.1,15.1,15.1,15.1
201904060509,15.1,15.1,15.1,15.1
201904060510,15.1,15.1,15.1,15.1
201904060511,15.1,15.1,15.1,15.1
201904060512,15.1,15.1,15.1,15.1
201904060513,15.1,15.101,15.1,15.1
201904060514,15.1,15.1,15.1,15.1
201904060515,15.1,15.1,15.1,15.1
201904060516,15.1,15.1,15.1,15.1
201904060517,15.1,15.1,15.098,15.1
201904060518,15.1,15.1,15.1,15.1
201904060519,15.1,15.1,15.1,15.1
201904060520,15.1,15.101,15.1,15.1
201904060521,15.1,15.101,15.1,15.101
201904060522,15.101,15.101,15.1,15.1
201904060523,15.1,15.101,15.1,15.1
201904060524,15.1,15.101,15.1,15.1
201904060525,15.1,15.101,15.1,15.1
201904060526,15.1,15.1,15.1,15.1
201904060527,15.1,15.101,15.1,15.1
201904060528,15.1,15.101,15.1,15.101
201904060529,15.101,15.101,15.101,15.101
201904060530,15.101,15.101,15.101,15.101
201904060531,15.101,15.101,15.1,15.101
201904060532,15.101,15.101,15.101,15.101
201904060533,15.101,15.101,15.101,15.101
201904060534,15.101,15.101,15.101,15.101
201904060535,15.101,15.101,15.101,15.101
201904060536,15.101,15.101,15.101,15.101
201904060537,15.101,15.101,15.1,15.1
201904060538,15.1,15.101,15.1,15.101
201904060539,15.101,15.101,15.097,15.097
201904060540,15.097,15.097,15.096,15.096
201904060541,15.096,15.096,15.096,15.096
201904060542,15.096,15.096,15.096,15.096
201904060543,15.096,15.097,15.095,15.096
201904060544,15.096,15.099,15.095,15.098
201904060545,15.098,15.1,15.098,15.099
201904060546,15.099,15.1,15.099,15.1
201904060547,15.1,15.1,15.1,15.1
201904060548,15.1,15.1,15.099,15.099
201904060549,15.099,15.1,15.099,15.1
201904060550,15.1,15.1,15.096,15.096
201904060551,15.096,15.097,15.096,15.096
201904060552,15.096,15.097,15.096,15.097
201904060553,15.097,15.098,15.096,15.097
201904060554,15.097,15.101,15.097,15.101
201904060555,15.101,15.101,15.095,15.1
201904060556,15.1,15.102,15.096,15.102
201904060557,15.102,15.106,15.097,15.106
201904060558,15.106,15.107,15.101,15.107
201904060559,15.107,15.107,15.095,15.101
