日時,始値(BID),高値(BID),安値(BID),終値(BID)
201904290700,26505,26524,26495,26519
201904290701,26519,26522,26513,26513
201904290702,26513,26520,26513,26520
201904290703,26520,26523,26517,26517
201904290704,26517,26522,26517,26517
201904290705,26517,26517,26511,26515
201904290706,26515,26516,26513,26514
201904290707,26513,26520,26513,26520
201904290708,26520,26522,26520,26522
201904290709,26522,26522,26519,26520
201904290710,26520,26522,26519,26521
201904290711,26521,26526,26520,26522
201904290712,26522,26523,26519,26521
201904290713,26521,26521,26519,26519
201904290714,26519,26524,26519,26524
201904290715,26524,26524,26515,26517
201904290716,26518,26518,26518,26518
201904290717,26518,26522,26518,26521
201904290718,26521,26521,26521,26521
201904290719,26521,26521,26518,26520
201904290720,26520,26520,26518,26518
201904290721,26518,26519,26518,26519
201904290722,26519,26519,26518,26518
201904290723,26518,26520,26518,26518
201904290724,26518,26523,26518,26522
201904290725,26522,26523,26520,26521
201904290726,26521,26521,26521,26521
201904290727,26521,26522,26521,26522
201904290728,26522,26522,26521,26521
201904290729,26521,26522,26519,26519
201904290730,26519,26519,26517,26517
201904290731,26517,26518,26516,26516
201904290732,26516,26518,26516,26516
201904290733,26516,26518,26516,26517
201904290734,26517,26518,26516,26517
201904290735,26517,26517,26515,26516
201904290736,26516,26516,26514,26514
201904290737,26514,26515,26514,26515
201904290738,26515,26515,26514,26515
201904290739,26515,26516,26515,26515
201904290740,26515,26516,26509,26511
201904290741,26510,26513,26510,26512
201904290742,26512,26512,26511,26511
201904290743,26511,26513,26511,26512
201904290744,26512,26514,26511,26512
201904290745,26511,26513,26510,26511
201904290746,26511,26513,26511,26513
201904290747,26513,26513,26508,26510
201904290748,26509,26512,26509,26511
201904290749,26512,26512,26509,26509
201904290750,26509,26510,26509,26510
201904290751,26510,26513,26510,26513
201904290752,26513,26513,26510,26510
201904290753,26510,26513,26510,26513
201904290754,26513,26516,26512,26515
201904290755,26515,26515,26510,26510
201904290756,26510,26512,26510,26512
201904290757,26512,26512,26512,26512
201904290758,26512,26516,26512,26515
201904290759,26515,26516,26515,26516
201904290800,26515,26517,26515,26516
201904290801,26516,26519,26516,26518
201904290802,26518,26519,26518,26518
201904290803,26518,26519,26517,26517
201904290804,26517,26518,26517,26517
201904290805,26517,26517,26513,26513
201904290806,26513,26514,26511,26511
201904290807,26510,26512,26510,26512
201904290808,26512,26514,26512,26512
201904290809,26513,26518,26513,26517
201904290810,26517,26517,26517,26517
201904290811,26517,26517,26513,26513
201904290812,26513,26514,26513,26514
201904290813,26514,26514,26514,26514
201904290814,26514,26514,26514,26514
201904290815,26514,26514,26514,26514
201904290816,26514,26514,26510,26511
201904290817,26511,26511,26510,26511
201904290818,26511,26513,26511,26512
201904290819,26512,26512,26512,26512
201904290820,26512,26512,26512,26512
201904290821,26512,26515,26512,26514
201904290822,26514,26514,26514,26514
201904290823,26514,26515,26514,26514
201904290824,26514,26516,26514,26515
201904290825,26515,26515,26512,26513
201904290826,26512,26512,26510,26510
201904290827,26509,26509,26507,26507
201904290828,26507,26511,26507,26511
201904290829,26510,26511,26510,26510
201904290830,26510,26511,26509,26511
201904290831,26511,26514,26511,26514
201904290832,26514,26514,26512,26514
201904290833,26514,26514,26511,26511
201904290834,26511,26512,26511,26512
201904290835,26512,26512,26509,26509
201904290836,26509,26510,26509,26509
201904290837,26510,26510,26509,26509
201904290838,26509,26509,26508,26509
201904290839,26509,26512,26508,26512
201904290840,26512,26512,26512,26512
201904290841,26512,26512,26512,26512
201904290842,26512,26512,26507,26507
201904290843,26507,26510,26507,26510
201904290844,26509,26509,26508,26508
201904290845,26508,26510,26507,26507
201904290846,26507,26510,26507,26508
201904290847,26508,26511,26508,26510
201904290848,26510,26512,26509,26512
201904290849,26512,26512,26510,26510
201904290850,26510,26511,26503,26503
201904290851,26503,26508,26503,26506
201904290852,26506,26508,26506,26508
201904290853,26508,26512,26508,26508
201904290854,26508,26510,26508,26510
201904290855,26510,26511,26509,26509
201904290856,26509,26510,26506,26507
201904290857,26507,26510,26507,26510
201904290858,26510,26510,26508,26509
201904290859,26509,26509,26508,26508
201904290900,26508,26514,26508,26512
201904290901,26512,26518,26512,26516
201904290902,26516,26517,26514,26515
201904290903,26515,26515,26508,26509
201904290904,26509,26514,26509,26514
201904290905,26515,26518,26508,26509
201904290906,26508,26514,26508,26514
201904290907,26515,26515,26514,26514
201904290908,26515,26516,26514,26515
201904290909,26515,26518,26515,26516
201904290910,26516,26516,26514,26514
201904290911,26514,26517,26513,26517
201904290912,26516,26517,26515,26516
201904290913,26516,26521,26515,26520
201904290914,26520,26521,26517,26518
201904290915,26518,26519,26513,26513
201904290916,26513,26514,26512,26514
201904290917,26514,26514,26510,26513
201904290918,26513,26516,26512,26514
201904290919,26514,26516,26513,26516
201904290920,26515,26516,26511,26513
201904290921,26513,26515,26513,26514
201904290922,26514,26520,26512,26520
201904290923,26519,26520,26518,26518
201904290924,26518,26523,26517,26523
201904290925,26523,26526,26521,26524
201904290926,26524,26527,26523,26527
201904290927,26527,26527,26526,26526
201904290928,26526,26531,26526,26527
201904290929,26527,26529,26527,26527
201904290930,26527,26529,26527,26527
201904290931,26527,26527,26525,26526
201904290932,26526,26528,26526,26527
201904290933,26527,26529,26527,26529
201904290934,26528,26533,26528,26533
201904290935,26532,26533,26531,26531
201904290936,26531,26533,26528,26528
201904290937,26528,26529,26528,26529
201904290938,26529,26529,26528,26528
201904290939,26528,26529,26527,26528
201904290940,26528,26529,26526,26528
201904290941,26528,26530,26527,26530
201904290942,26530,26530,26527,26527
201904290943,26528,26529,26527,26527
201904290944,26526,26526,26525,26525
201904290945,26526,26527,26525,26525
201904290946,26525,26525,26523,26524
201904290947,26524,26524,26521,26521
201904290948,26520,26521,26518,26521
201904290949,26521,26522,26520,26520
201904290950,26520,26521,26518,26518
201904290951,26519,26520,26518,26520
201904290952,26520,26520,26518,26518
201904290953,26518,26520,26518,26518
201904290954,26518,26519,26516,26518
201904290955,26518,26519,26517,26518
201904290956,26518,26518,26516,26517
201904290957,26517,26517,26517,26517
201904290958,26518,26519,26517,26518
201904290959,26519,26521,26518,26521
201904291000,26520,26521,26519,26519
201904291001,26519,26520,26519,26520
201904291002,26520,26524,26519,26523
201904291003,26523,26524,26523,26524
201904291004,26524,26524,26523,26523
201904291005,26524,26526,26523,26525
201904291006,26526,26526,26524,26524
201904291007,26524,26525,26523,26523
201904291008,26523,26523,26521,26521
201904291009,26520,26521,26519,26521
201904291010,26521,26522,26520,26520
201904291011,26520,26522,26520,26522
201904291012,26522,26524,26522,26523
201904291013,26523,26524,26523,26523
201904291014,26523,26523,26521,26521
201904291015,26521,26525,26521,26524
201904291016,26524,26529,26524,26528
201904291017,26528,26530,26528,26529
201904291018,26529,26536,26529,26532
201904291019,26532,26534,26532,26532
201904291020,26532,26533,26531,26531
201904291021,26531,26533,26528,26528
201904291022,26528,26528,26526,26526
201904291023,26526,26527,26524,26526
201904291024,26526,26528,26526,26528
201904291025,26528,26529,26526,26528
201904291026,26528,26530,26528,26530
201904291027,26530,26530,26527,26528
201904291028,26528,26529,26527,26527
201904291029,26527,26527,26521,26523
201904291030,26523,26523,26518,26518
201904291031,26519,26524,26518,26524
201904291032,26524,26524,26520,26521
201904291033,26521,26521,26517,26520
201904291034,26520,26520,26517,26517
201904291035,26517,26523,26516,26523
201904291036,26524,26524,26519,26521
201904291037,26521,26524,26520,26523
201904291038,26523,26524,26523,26523
201904291039,26523,26524,26522,26523
201904291040,26524,26526,26522,26524
201904291041,26524,26525,26518,26518
201904291042,26518,26518,26515,26515
201904291043,26515,26518,26515,26515
201904291044,26515,26516,26512,26512
201904291045,26512,26516,26512,26515
201904291046,26515,26517,26514,26514
201904291047,26514,26516,26514,26515
201904291048,26515,26516,26513,26514
201904291049,26514,26517,26514,26515
201904291050,26515,26518,26515,26517
201904291051,26518,26520,26518,26520
201904291052,26520,26521,26517,26518
201904291053,26517,26517,26514,26514
201904291054,26514,26517,26514,26516
201904291055,26516,26518,26515,26516
201904291056,26516,26517,26515,26515
201904291057,26515,26515,26512,26514
201904291058,26514,26517,26514,26515
201904291059,26515,26518,26514,26518
201904291100,26518,26519,26517,26518
201904291101,26518,26520,26518,26520
201904291102,26520,26524,26520,26523
201904291103,26523,26523,26520,26521
201904291104,26521,26527,26521,26526
201904291105,26526,26526,26523,26524
201904291106,26524,26527,26524,26527
201904291107,26527,26531,26527,26528
201904291108,26528,26530,26528,26529
201904291109,26529,26531,26529,26529
201904291110,26529,26530,26526,26526
201904291111,26526,26526,26524,26524
201904291112,26524,26525,26523,26525
201904291113,26525,26526,26525,26526
201904291114,26526,26526,26523,26523
201904291115,26523,26525,26523,26525
201904291116,26524,26525,26524,26525
201904291117,26525,26525,26524,26524
201904291118,26524,26528,26524,26527
201904291119,26527,26527,26524,26524
201904291120,26524,26527,26524,26527
201904291121,26526,26527,26525,26525
201904291122,26525,26530,26525,26530
201904291123,26530,26530,26526,26527
201904291124,26527,26530,26526,26527
201904291125,26527,26530,26527,26530
201904291126,26530,26530,26526,26526
201904291127,26526,26529,26526,26528
201904291128,26528,26529,26526,26526
201904291129,26527,26527,26524,26524
201904291130,26524,26529,26524,26528
201904291131,26528,26528,26524,26524
201904291132,26524,26524,26522,26523
201904291133,26524,26524,26521,26523
201904291134,26524,26525,26522,26523
201904291135,26523,26525,26523,26524
201904291136,26524,26524,26523,26523
201904291137,26523,26525,26523,26523
201904291138,26523,26524,26523,26523
201904291139,26523,26523,26520,26521
201904291140,26521,26523,26520,26522
201904291141,26521,26521,26520,26520
201904291142,26520,26521,26520,26520
201904291143,26520,26521,26519,26520
201904291144,26520,26521,26520,26520
201904291145,26520,26521,26520,26520
201904291146,26520,26521,26520,26521
201904291147,26521,26522,26520,26522
201904291148,26522,26523,26522,26522
201904291149,26523,26523,26521,26522
201904291150,26522,26525,26522,26524
201904291151,26524,26525,26523,26523
201904291152,26523,26526,26523,26526
201904291153,26526,26526,26524,26524
201904291154,26525,26526,26524,26526
201904291155,26526,26527,26525,26525
201904291156,26525,26526,26524,26525
201904291157,26526,26526,26525,26526
201904291158,26526,26528,26526,26527
201904291159,26526,26530,26526,26529
201904291200,26528,26532,26527,26527
201904291201,26527,26527,26526,26526
201904291202,26525,26526,26524,26524
201904291203,26524,26526,26524,26525
201904291204,26525,26528,26525,26528
201904291205,26528,26529,26526,26526
201904291206,26526,26527,26525,26525
201904291207,26525,26527,26524,26526
201904291208,26526,26528,26524,26525
201904291209,26525,26527,26524,26525
201904291210,26526,26528,26526,26527
201904291211,26526,26530,26526,26529
201904291212,26530,26531,26529,26530
201904291213,26529,26532,26529,26531
201904291214,26531,26533,26531,26532
201904291215,26533,26534,26532,26533
201904291216,26533,26534,26530,26530
201904291217,26530,26532,26530,26530
201904291218,26530,26531,26527,26528
201904291219,26528,26529,26527,26528
201904291220,26528,26529,26526,26527
201904291221,26526,26527,26525,26526
201904291222,26525,26527,26525,26526
201904291223,26526,26527,26525,26526
201904291224,26527,26528,26526,26527
201904291225,26527,26530,26527,26528
201904291226,26528,26532,26528,26530
201904291227,26530,26531,26529,26530
201904291228,26529,26530,26528,26529
201904291229,26528,26530,26528,26530
201904291230,26530,26531,26529,26530
201904291231,26530,26530,26529,26530
201904291232,26530,26530,26527,26528
201904291233,26528,26528,26527,26528
201904291234,26527,26530,26527,26529
201904291235,26529,26529,26526,26526
201904291236,26527,26527,26526,26527
201904291237,26528,26528,26527,26528
201904291238,26528,26529,26527,26529
201904291239,26529,26530,26528,26528
201904291240,26528,26529,26527,26528
201904291241,26528,26529,26528,26529
201904291242,26529,26530,26528,26529
201904291243,26529,26530,26529,26529
201904291244,26529,26530,26529,26529
201904291245,26529,26530,26529,26529
201904291246,26529,26530,26529,26529
201904291247,26529,26529,26527,26528
201904291248,26528,26530,26527,26530
201904291249,26530,26531,26529,26529
201904291250,26529,26530,26529,26529
201904291251,26529,26531,26528,26530
201904291252,26530,26531,26530,26531
201904291253,26531,26532,26530,26531
201904291254,26531,26531,26530,26531
201904291255,26531,26531,26529,26530
201904291256,26529,26529,26528,26528
201904291257,26527,26528,26527,26528
201904291258,26528,26529,26527,26529
201904291259,26529,26530,26528,26530
201904291300,26530,26532,26530,26531
201904291301,26531,26531,26530,26531
201904291302,26531,26532,26531,26531
201904291303,26531,26532,26531,26532
201904291304,26532,26532,26531,26531
201904291305,26531,26533,26531,26533
201904291306,26533,26533,26531,26531
201904291307,26531,26532,26530,26530
201904291308,26530,26533,26530,26533
201904291309,26532,26533,26532,26533
201904291310,26532,26535,26532,26535
201904291311,26535,26535,26534,26535
201904291312,26535,26535,26535,26535
201904291313,26535,26535,26533,26535
201904291314,26535,26536,26533,26533
201904291315,26533,26534,26533,26533
201904291316,26533,26534,26533,26534
201904291317,26534,26534,26533,26534
201904291318,26534,26534,26533,26533
201904291319,26533,26535,26533,26534
201904291320,26534,26534,26534,26534
201904291321,26534,26535,26534,26535
201904291322,26534,26537,26534,26536
201904291323,26536,26537,26536,26536
201904291324,26536,26537,26536,26536
201904291325,26536,26536,26535,26536
201904291326,26536,26536,26535,26536
201904291327,26536,26537,26535,26537
201904291328,26537,26537,26535,26537
201904291329,26536,26536,26536,26536
201904291330,26536,26537,26535,26536
201904291331,26536,26536,26535,26536
201904291332,26536,26536,26534,26534
201904291333,26535,26535,26534,26534
201904291334,26533,26535,26533,26534
201904291335,26534,26534,26533,26534
201904291336,26534,26534,26533,26534
201904291337,26534,26535,26534,26535
201904291338,26535,26535,26535,26535
201904291339,26535,26535,26533,26533
201904291340,26533,26533,26533,26533
201904291341,26533,26533,26532,26532
201904291342,26532,26532,26532,26532
201904291343,26532,26532,26532,26532
201904291344,26531,26532,26531,26532
201904291345,26531,26533,26531,26533
201904291346,26532,26533,26530,26530
201904291347,26530,26532,26530,26532
201904291348,26532,26533,26531,26532
201904291349,26533,26533,26532,26532
201904291350,26532,26533,26532,26532
201904291351,26532,26532,26530,26530
201904291352,26530,26530,26530,26530
201904291353,26530,26531,26530,26531
201904291354,26531,26531,26530,26530
201904291355,26530,26531,26530,26531
201904291356,26531,26532,26530,26530
201904291357,26530,26533,26530,26533
201904291358,26533,26533,26532,26532
201904291359,26533,26533,26532,26532
201904291400,26532,26535,26532,26534
201904291401,26533,26534,26532,26532
201904291402,26532,26534,26532,26532
201904291403,26531,26532,26530,26531
201904291404,26531,26531,26530,26530
201904291405,26531,26531,26530,26530
201904291406,26530,26530,26529,26530
201904291407,26530,26531,26530,26530
201904291408,26529,26529,26527,26527
201904291409,26527,26530,26527,26529
201904291410,26529,26529,26527,26529
201904291411,26530,26530,26527,26529
201904291412,26529,26529,26529,26529
201904291413,26529,26530,26529,26530
201904291414,26530,26530,26529,26530
201904291415,26530,26531,26528,26529
201904291416,26530,26531,26529,26531
201904291417,26531,26532,26531,26532
201904291418,26532,26532,26532,26532
201904291419,26532,26534,26531,26532
201904291420,26532,26532,26532,26532
201904291421,26533,26534,26531,26531
201904291422,26531,26532,26530,26532
201904291423,26532,26533,26532,26532
201904291424,26533,26534,26533,26533
201904291425,26533,26536,26533,26535
201904291426,26535,26540,26535,26540
201904291427,26540,26541,26540,26541
201904291428,26541,26541,26541,26541
201904291429,26541,26542,26541,26542
201904291430,26542,26544,26541,26542
201904291431,26542,26542,26540,26540
201904291432,26539,26540,26539,26540
201904291433,26540,26541,26540,26540
201904291434,26541,26541,26540,26540
201904291435,26540,26541,26540,26540
201904291436,26540,26542,26540,26541
201904291437,26541,26543,26541,26543
201904291438,26543,26543,26542,26543
201904291439,26543,26543,26542,26542
201904291440,26542,26543,26542,26543
201904291441,26543,26543,26541,26542
201904291442,26542,26543,26542,26543
201904291443,26542,26542,26540,26540
201904291444,26541,26541,26540,26541
201904291445,26540,26541,26540,26541
201904291446,26541,26542,26540,26541
201904291447,26541,26541,26540,26540
201904291448,26541,26541,26540,26540
201904291449,26540,26543,26540,26542
201904291450,26542,26545,26542,26544
201904291451,26544,26546,26544,26546
201904291452,26546,26548,26546,26548
201904291453,26548,26550,26547,26549
201904291454,26549,26555,26549,26555
201904291455,26555,26556,26553,26554
201904291456,26553,26553,26549,26552
201904291457,26551,26554,26551,26553
201904291458,26553,26553,26551,26552
201904291459,26551,26552,26548,26549
201904291500,26549,26549,26544,26544
201904291501,26544,26546,26542,26542
201904291502,26542,26546,26542,26544
201904291503,26544,26545,26542,26544
201904291504,26544,26545,26541,26543
201904291505,26542,26542,26540,26540
201904291506,26540,26545,26540,26545
201904291507,26545,26548,26543,26548
201904291508,26548,26548,26546,26546
201904291509,26546,26546,26542,26545
201904291510,26545,26546,26544,26546
201904291511,26546,26548,26545,26548
201904291512,26548,26549,26547,26548
201904291513,26548,26550,26547,26547
201904291514,26547,26547,26544,26545
201904291515,26545,26545,26543,26544
201904291516,26544,26547,26544,26547
201904291517,26547,26547,26545,26546
201904291518,26546,26546,26544,26545
201904291519,26545,26546,26544,26545
201904291520,26545,26545,26542,26544
201904291521,26545,26547,26544,26546
201904291522,26546,26548,26545,26546
201904291523,26546,26547,26545,26545
201904291524,26545,26545,26543,26545
201904291525,26545,26545,26540,26541
201904291526,26541,26542,26540,26540
201904291527,26540,26541,26539,26539
201904291528,26539,26541,26539,26540
201904291529,26541,26541,26540,26540
201904291530,26540,26542,26539,26541
201904291531,26541,26543,26541,26541
201904291532,26541,26542,26539,26540
201904291533,26540,26540,26539,26540
201904291534,26540,26543,26540,26543
201904291535,26542,26543,26535,26537
201904291536,26536,26540,26536,26538
201904291537,26539,26539,26538,26539
201904291538,26539,26539,26537,26537
201904291539,26536,26538,26536,26536
201904291540,26536,26536,26534,26535
201904291541,26535,26536,26533,26536
201904291542,26536,26536,26535,26535
201904291543,26535,26536,26534,26535
201904291544,26535,26536,26535,26536
201904291545,26536,26538,26536,26537
201904291546,26537,26537,26537,26537
201904291547,26537,26538,26536,26537
201904291548,26537,26540,26536,26539
201904291549,26539,26540,26539,26539
201904291550,26539,26541,26539,26541
201904291551,26541,26541,26538,26538
201904291552,26538,26540,26538,26539
201904291553,26539,26540,26539,26539
201904291554,26539,26541,26538,26541
201904291555,26541,26542,26540,26542
201904291556,26542,26542,26541,26541
201904291557,26541,26542,26538,26539
201904291558,26539,26540,26537,26537
201904291559,26537,26537,26534,26536
201904291600,26536,26538,26531,26533
201904291601,26533,26537,26532,26536
201904291602,26536,26536,26534,26536
201904291603,26536,26537,26534,26534
201904291604,26534,26534,26532,26534
201904291605,26534,26534,26531,26531
201904291606,26531,26533,26531,26532
201904291607,26532,26532,26529,26531
201904291608,26531,26531,26530,26530
201904291609,26530,26531,26526,26526
201904291610,26526,26533,26526,26533
201904291611,26533,26538,26532,26538
201904291612,26538,26539,26535,26537
201904291613,26538,26542,26537,26542
201904291614,26541,26544,26541,26541
201904291615,26541,26542,26538,26539
201904291616,26539,26541,26538,26538
201904291617,26538,26538,26536,26537
201904291618,26538,26538,26534,26535
201904291619,26536,26539,26534,26538
201904291620,26538,26538,26536,26536
201904291621,26536,26537,26535,26537
201904291622,26538,26538,26536,26536
201904291623,26536,26538,26536,26536
201904291624,26536,26538,26536,26538
201904291625,26538,26540,26538,26538
201904291626,26538,26538,26535,26535
201904291627,26536,26538,26535,26538
201904291628,26538,26539,26536,26539
201904291629,26540,26540,26538,26539
201904291630,26539,26541,26538,26538
201904291631,26538,26542,26538,26539
201904291632,26539,26541,26539,26540
201904291633,26540,26540,26536,26536
201904291634,26537,26538,26536,26537
201904291635,26537,26541,26537,26541
201904291636,26541,26542,26540,26541
201904291637,26541,26543,26541,26542
201904291638,26543,26544,26541,26543
201904291639,26543,26543,26542,26543
201904291640,26543,26544,26542,26542
201904291641,26542,26545,26542,26543
201904291642,26543,26544,26543,26544
201904291643,26544,26545,26542,26542
201904291644,26542,26545,26542,26545
201904291645,26545,26546,26543,26546
201904291646,26546,26546,26544,26545
201904291647,26545,26545,26545,26545
201904291648,26545,26546,26545,26545
201904291649,26545,26546,26544,26545
201904291650,26545,26546,26545,26546
201904291651,26547,26548,26546,26547
201904291652,26547,26547,26545,26546
201904291653,26546,26549,26546,26547
201904291654,26548,26550,26547,26550
201904291655,26550,26553,26549,26552
201904291656,26552,26554,26549,26554
201904291657,26554,26554,26551,26551
201904291658,26551,26553,26551,26552
201904291659,26552,26554,26551,26553
201904291700,26553,26555,26553,26553
201904291701,26553,26553,26550,26551
201904291702,26551,26551,26548,26548
201904291703,26548,26549,26547,26549
201904291704,26549,26549,26548,26548
201904291705,26548,26552,26547,26549
201904291706,26549,26550,26548,26548
201904291707,26549,26551,26548,26550
201904291708,26550,26551,26549,26549
201904291709,26549,26550,26547,26548
201904291710,26548,26551,26547,26549
201904291711,26549,26564,26549,26563
201904291712,26563,26578,26562,26574
201904291713,26574,26575,26569,26569
201904291714,26569,26570,26563,26563
201904291715,26564,26565,26562,26564
201904291716,26564,26565,26563,26565
201904291717,26565,26566,26563,26564
201904291718,26564,26567,26564,26566
201904291719,26566,26566,26563,26563
201904291720,26563,26563,26561,26561
201904291721,26561,26562,26560,26562
201904291722,26562,26565,26561,26565
201904291723,26564,26565,26562,26564
201904291724,26564,26564,26561,26561
201904291725,26561,26562,26558,26560
201904291726,26560,26563,26560,26560
201904291727,26560,26561,26558,26561
201904291728,26561,26561,26559,26561
201904291729,26561,26565,26561,26564
201904291730,26564,26564,26559,26562
201904291731,26562,26563,26560,26561
201904291732,26562,26563,26562,26563
201904291733,26562,26563,26561,26561
201904291734,26561,26563,26560,26561
201904291735,26561,26561,26550,26550
201904291736,26550,26553,26550,26550
201904291737,26550,26554,26550,26553
201904291738,26553,26554,26552,26553
201904291739,26553,26554,26552,26553
201904291740,26553,26553,26551,26551
201904291741,26552,26552,26551,26551
201904291742,26551,26555,26551,26553
201904291743,26553,26554,26552,26554
201904291744,26553,26553,26552,26553
201904291745,26553,26553,26553,26553
201904291746,26553,26554,26553,26554
201904291747,26554,26555,26553,26555
201904291748,26555,26555,26554,26554
201904291749,26554,26556,26553,26553
201904291750,26554,26554,26540,26540
201904291751,26540,26546,26540,26546
201904291752,26546,26549,26543,26548
201904291753,26548,26550,26547,26549
201904291754,26549,26549,26546,26547
201904291755,26547,26548,26546,26547
201904291756,26548,26549,26546,26549
201904291757,26548,26550,26547,26550
201904291758,26550,26550,26547,26548
201904291759,26548,26549,26546,26547
201904291800,26547,26549,26546,26547
201904291801,26547,26548,26546,26547
201904291802,26547,26547,26546,26546
201904291803,26546,26551,26546,26547
201904291804,26548,26549,26546,26548
201904291805,26548,26550,26547,26550
201904291806,26550,26551,26547,26550
201904291807,26550,26553,26549,26549
201904291808,26549,26551,26549,26550
201904291809,26550,26553,26550,26551
201904291810,26551,26553,26550,26551
201904291811,26552,26553,26550,26550
201904291812,26549,26550,26546,26548
201904291813,26548,26548,26546,26547
201904291814,26547,26547,26545,26546
201904291815,26545,26545,26542,26545
201904291816,26545,26547,26544,26547
201904291817,26546,26546,26544,26544
201904291818,26544,26546,26542,26543
201904291819,26543,26544,26542,26543
201904291820,26543,26543,26536,26537
201904291821,26537,26537,26536,26536
201904291822,26537,26537,26536,26536
201904291823,26536,26536,26531,26532
201904291824,26532,26532,26528,26529
201904291825,26528,26528,26518,26521
201904291826,26521,26524,26521,26524
201904291827,26524,26524,26520,26521
201904291828,26522,26524,26521,26524
201904291829,26524,26525,26523,26523
201904291830,26523,26527,26523,26525
201904291831,26525,26525,26523,26525
201904291832,26525,26525,26523,26523
201904291833,26523,26523,26518,26519
201904291834,26519,26520,26515,26518
201904291835,26517,26519,26517,26517
201904291836,26517,26518,26516,26518
201904291837,26518,26518,26516,26516
201904291838,26516,26516,26511,26512
201904291839,26511,26514,26511,26514
201904291840,26514,26514,26511,26513
201904291841,26512,26514,26512,26514
201904291842,26514,26515,26513,26514
201904291843,26514,26515,26513,26515
201904291844,26515,26516,26514,26514
201904291845,26514,26516,26514,26516
201904291846,26517,26520,26516,26520
201904291847,26519,26520,26518,26520
201904291848,26520,26521,26519,26521
201904291849,26521,26522,26521,26522
201904291850,26522,26525,26521,26525
201904291851,26525,26526,26523,26526
201904291852,26526,26526,26517,26517
201904291853,26517,26519,26516,26518
201904291854,26518,26520,26518,26519
201904291855,26519,26522,26518,26522
201904291856,26522,26523,26521,26522
201904291857,26522,26523,26521,26521
201904291858,26521,26524,26521,26524
201904291859,26524,26524,26522,26523
201904291900,26523,26523,26519,26519
201904291901,26519,26521,26519,26519
201904291902,26519,26522,26519,26522
201904291903,26522,26523,26520,26521
201904291904,26521,26524,26521,26524
201904291905,26524,26524,26519,26521
201904291906,26521,26522,26521,26521
201904291907,26521,26523,26520,26522
201904291908,26522,26524,26521,26521
201904291909,26521,26524,26520,26524
201904291910,26525,26526,26523,26525
201904291911,26525,26528,26524,26527
201904291912,26527,26530,26526,26528
201904291913,26528,26528,26527,26527
201904291914,26527,26529,26527,26529
201904291915,26529,26529,26526,26526
201904291916,26526,26526,26525,26526
201904291917,26526,26527,26526,26526
201904291918,26526,26527,26522,26527
201904291919,26527,26530,26527,26529
201904291920,26529,26532,26528,26529
201904291921,26529,26531,26529,26531
201904291922,26531,26533,26531,26532
201904291923,26532,26532,26529,26531
201904291924,26531,26531,26527,26527
201904291925,26527,26530,26527,26530
201904291926,26530,26530,26529,26529
201904291927,26529,26531,26529,26531
201904291928,26532,26532,26530,26530
201904291929,26530,26530,26523,26523
201904291930,26523,26523,26515,26516
201904291931,26517,26519,26516,26519
201904291932,26518,26519,26516,26516
201904291933,26516,26519,26514,26514
201904291934,26514,26516,26513,26513
201904291935,26513,26516,26513,26514
201904291936,26514,26517,26514,26516
201904291937,26516,26519,26515,26518
201904291938,26518,26519,26515,26516
201904291939,26516,26517,26516,26517
201904291940,26517,26520,26517,26517
201904291941,26517,26517,26515,26516
201904291942,26517,26517,26515,26515
201904291943,26515,26515,26512,26513
201904291944,26513,26513,26507,26507
201904291945,26507,26508,26502,26503
201904291946,26503,26505,26503,26504
201904291947,26504,26505,26503,26503
201904291948,26503,26503,26498,26501
201904291949,26502,26507,26502,26505
201904291950,26505,26505,26503,26504
201904291951,26503,26505,26503,26504
201904291952,26503,26505,26503,26504
201904291953,26504,26504,26502,26502
201904291954,26502,26504,26492,26496
201904291955,26496,26496,26492,26492
201904291956,26492,26496,26492,26495
201904291957,26495,26495,26494,26495
201904291958,26495,26495,26494,26495
201904291959,26495,26495,26493,26494
201904292000,26494,26495,26492,26493
201904292001,26493,26497,26492,26497
201904292002,26497,26497,26494,26495
201904292003,26495,26497,26495,26497
201904292004,26498,26498,26492,26494
201904292005,26494,26495,26494,26494
201904292006,26495,26497,26494,26496
201904292007,26496,26497,26496,26496
201904292008,26496,26497,26496,26497
201904292009,26497,26498,26496,26496
201904292010,26495,26495,26488,26490
201904292011,26490,26495,26489,26495
201904292012,26495,26496,26494,26494
201904292013,26494,26499,26494,26499
201904292014,26499,26503,26498,26503
201904292015,26503,26509,26503,26508
201904292016,26508,26510,26507,26510
201904292017,26510,26510,26507,26509
201904292018,26509,26509,26507,26508
201904292019,26509,26509,26502,26504
201904292020,26504,26505,26502,26503
201904292021,26503,26504,26501,26503
201904292022,26503,26504,26498,26498
201904292023,26498,26499,26496,26497
201904292024,26496,26499,26496,26498
201904292025,26497,26498,26496,26497
201904292026,26497,26497,26496,26496
201904292027,26496,26496,26492,26492
201904292028,26492,26492,26489,26489
201904292029,26489,26489,26483,26484
201904292030,26485,26492,26485,26492
201904292031,26493,26495,26493,26493
201904292032,26493,26498,26493,26493
201904292033,26493,26497,26493,26495
201904292034,26495,26498,26495,26498
201904292035,26498,26500,26490,26490
201904292036,26490,26493,26487,26488
201904292037,26487,26494,26487,26493
201904292038,26494,26496,26492,26496
201904292039,26496,26498,26493,26494
201904292040,26494,26496,26494,26496
201904292041,26495,26496,26494,26495
201904292042,26495,26495,26493,26494
201904292043,26495,26496,26494,26496
201904292044,26496,26497,26496,26496
201904292045,26496,26497,26494,26495
201904292046,26495,26495,26492,26492
201904292047,26493,26496,26493,26496
201904292048,26496,26498,26495,26496
201904292049,26496,26497,26495,26496
201904292050,26496,26496,26495,26496
201904292051,26496,26497,26495,26495
201904292052,26495,26497,26494,26497
201904292053,26497,26497,26495,26495
201904292054,26495,26497,26495,26496
201904292055,26496,26498,26495,26498
201904292056,26497,26497,26494,26494
201904292057,26494,26497,26494,26496
201904292058,26496,26498,26495,26497
201904292059,26497,26497,26496,26497
201904292100,26496,26501,26496,26501
201904292101,26501,26503,26500,26503
201904292102,26503,26503,26499,26499
201904292103,26499,26499,26496,26496
201904292104,26496,26499,26495,26499
201904292105,26499,26502,26498,26502
201904292106,26501,26503,26501,26503
201904292107,26503,26506,26502,26506
201904292108,26506,26506,26504,26506
201904292109,26506,26506,26505,26505
201904292110,26505,26506,26504,26505
201904292111,26506,26508,26505,26506
201904292112,26506,26507,26505,26505
201904292113,26505,26507,26505,26505
201904292114,26505,26507,26504,26505
201904292115,26505,26506,26504,26506
201904292116,26506,26507,26505,26507
201904292117,26507,26507,26505,26506
201904292118,26507,26507,26504,26506
201904292119,26506,26510,26506,26510
201904292120,26510,26510,26508,26508
201904292121,26508,26510,26508,26509
201904292122,26509,26509,26508,26508
201904292123,26508,26509,26507,26507
201904292124,26508,26508,26503,26503
201904292125,26502,26507,26501,26507
201904292126,26507,26512,26507,26512
201904292127,26512,26515,26512,26514
201904292128,26514,26515,26514,26514
201904292129,26514,26515,26513,26513
201904292130,26514,26522,26514,26522
201904292131,26521,26525,26521,26523
201904292132,26523,26523,26520,26521
201904292133,26521,26523,26519,26522
201904292134,26522,26524,26521,26521
201904292135,26521,26524,26521,26524
201904292136,26524,26524,26521,26523
201904292137,26522,26523,26520,26522
201904292138,26522,26522,26520,26520
201904292139,26520,26520,26517,26518
201904292140,26518,26518,26512,26513
201904292141,26514,26514,26511,26513
201904292142,26514,26514,26510,26510
201904292143,26510,26512,26507,26511
201904292144,26510,26510,26507,26507
201904292145,26507,26510,26503,26508
201904292146,26508,26509,26505,26507
201904292147,26507,26508,26505,26506
201904292148,26506,26506,26504,26505
201904292149,26504,26505,26504,26504
201904292150,26504,26508,26504,26507
201904292151,26507,26509,26506,26509
201904292152,26509,26513,26509,26513
201904292153,26512,26512,26511,26512
201904292154,26512,26519,26512,26518
201904292155,26518,26523,26518,26521
201904292156,26521,26525,26521,26524
201904292157,26524,26525,26524,26524
201904292158,26524,26524,26522,26523
201904292159,26523,26524,26522,26524
201904292200,26524,26525,26520,26523
201904292201,26523,26524,26520,26520
201904292202,26521,26522,26516,26516
201904292203,26516,26518,26516,26518
201904292204,26519,26519,26517,26517
201904292205,26517,26519,26512,26512
201904292206,26512,26513,26509,26512
201904292207,26512,26518,26512,26515
201904292208,26515,26517,26515,26516
201904292209,26516,26520,26516,26519
201904292210,26519,26520,26519,26519
201904292211,26519,26520,26519,26520
201904292212,26520,26521,26519,26521
201904292213,26520,26524,26520,26524
201904292214,26523,26523,26520,26522
201904292215,26522,26530,26522,26530
201904292216,26530,26532,26528,26528
201904292217,26528,26529,26527,26529
201904292218,26529,26531,26528,26530
201904292219,26530,26531,26528,26530
201904292220,26529,26530,26527,26529
201904292221,26529,26529,26526,26527
201904292222,26527,26527,26526,26527
201904292223,26527,26527,26522,26524
201904292224,26524,26526,26523,26525
201904292225,26525,26525,26519,26519
201904292226,26519,26522,26517,26521
201904292227,26521,26524,26520,26522
201904292228,26522,26522,26518,26519
201904292229,26519,26523,26519,26521
201904292230,26521,26527,26518,26527
201904292231,26526,26534,26522,26533
201904292232,26533,26533,26522,26529
201904292233,26529,26533,26517,26532
201904292234,26532,26543,26529,26538
201904292235,26537,26537,26526,26526
201904292236,26526,26533,26519,26522
201904292237,26522,26525,26508,26508
201904292238,26508,26516,26498,26516
201904292239,26516,26520,26506,26520
201904292240,26520,26520,26504,26513
201904292241,26513,26527,26513,26526
201904292242,26526,26527,26510,26519
201904292243,26519,26520,26513,26517
201904292244,26517,26532,26517,26524
201904292245,26525,26547,26523,26546
201904292246,26546,26546,26527,26527
201904292247,26527,26536,26527,26534
201904292248,26534,26539,26528,26530
201904292249,26529,26530,26512,26517
201904292250,26517,26519,26507,26507
201904292251,26507,26515,26505,26508
201904292252,26508,26517,26508,26517
201904292253,26517,26520,26509,26511
201904292254,26511,26517,26508,26512
201904292255,26512,26515,26508,26513
201904292256,26512,26522,26509,26522
201904292257,26523,26526,26517,26520
201904292258,26520,26524,26516,26523
201904292259,26521,26522,26517,26522
201904292300,26522,26525,26517,26517
201904292301,26517,26525,26517,26520
201904292302,26520,26534,26520,26527
201904292303,26527,26529,26520,26523
201904292304,26524,26535,26524,26529
201904292305,26529,26536,26526,26535
201904292306,26535,26536,26527,26529
201904292307,26529,26530,26518,26523
201904292308,26523,26524,26510,26520
201904292309,26520,26527,26519,26525
201904292310,26525,26533,26524,26530
201904292311,26530,26536,26530,26536
201904292312,26536,26543,26533,26535
201904292313,26535,26538,26528,26528
201904292314,26527,26533,26524,26531
201904292315,26532,26536,26527,26531
201904292316,26531,26533,26526,26527
201904292317,26528,26531,26520,26523
201904292318,26523,26526,26521,26525
201904292319,26525,26529,26525,26526
201904292320,26527,26532,26526,26528
201904292321,26527,26528,26522,26526
201904292322,26526,26530,26525,26530
201904292323,26530,26532,26530,26532
201904292324,26532,26540,26532,26533
201904292325,26533,26547,26533,26544
201904292326,26545,26545,26538,26542
201904292327,26542,26543,26539,26540
201904292328,26540,26540,26535,26536
201904292329,26536,26538,26534,26535
201904292330,26535,26542,26535,26541
201904292331,26541,26543,26535,26535
201904292332,26535,26540,26533,26535
201904292333,26535,26542,26535,26540
201904292334,26540,26543,26539,26542
201904292335,26543,26545,26540,26545
201904292336,26546,26552,26544,26551
201904292337,26551,26552,26545,26546
201904292338,26547,26548,26542,26543
201904292339,26542,26545,26539,26543
201904292340,26544,26548,26537,26539
201904292341,26538,26544,26538,26543
201904292342,26543,26543,26539,26541
201904292343,26541,26548,26539,26548
201904292344,26548,26550,26545,26550
201904292345,26550,26552,26543,26548
201904292346,26548,26550,26546,26547
201904292347,26547,26548,26542,26543
201904292348,26542,26547,26540,26546
201904292349,26546,26551,26546,26547
201904292350,26547,26550,26547,26550
201904292351,26550,26551,26546,26548
201904292352,26548,26550,26536,26539
201904292353,26539,26543,26539,26541
201904292354,26541,26545,26540,26540
201904292355,26540,26542,26539,26541
201904292356,26541,26543,26541,26541
201904292357,26541,26545,26540,26545
201904292358,26545,26545,26537,26537
201904292359,26537,26537,26530,26530
201904300000,26530,26530,26523,26528
201904300001,26529,26535,26529,26534
201904300002,26534,26535,26532,26534
201904300003,26534,26538,26534,26537
201904300004,26537,26543,26537,26543
201904300005,26543,26545,26541,26541
201904300006,26541,26542,26537,26540
201904300007,26540,26543,26537,26539
201904300008,26539,26540,26533,26535
201904300009,26535,26538,26534,26535
201904300010,26535,26541,26535,26538
201904300011,26538,26538,26532,26534
201904300012,26534,26536,26531,26535
201904300013,26535,26535,26531,26532
201904300014,26532,26532,26527,26529
201904300015,26528,26531,26527,26529
201904300016,26529,26529,26524,26524
201904300017,26524,26529,26524,26529
201904300018,26529,26529,26525,26527
201904300019,26527,26528,26523,26524
201904300020,26524,26525,26521,26523
201904300021,26523,26529,26520,26529
201904300022,26529,26534,26528,26531
201904300023,26531,26532,26526,26527
201904300024,26526,26529,26524,26524
201904300025,26524,26524,26515,26522
201904300026,26522,26523,26520,26523
201904300027,26522,26526,26522,26526
201904300028,26526,26526,26524,26526
201904300029,26526,26526,26522,26524
201904300030,26524,26525,26520,26522
201904300031,26521,26528,26521,26528
201904300032,26528,26535,26527,26535
201904300033,26535,26537,26533,26534
201904300034,26534,26538,26533,26537
201904300035,26537,26537,26532,26533
201904300036,26533,26536,26532,26532
201904300037,26532,26532,26530,26530
201904300038,26531,26534,26530,26533
201904300039,26532,26533,26527,26529
201904300040,26529,26533,26527,26530
201904300041,26530,26532,26529,26530
201904300042,26530,26535,26529,26533
201904300043,26533,26537,26532,26537
201904300044,26537,26538,26534,26537
201904300045,26537,26542,26537,26541
201904300046,26541,26541,26538,26538
201904300047,26539,26539,26537,26538
201904300048,26538,26542,26538,26541
201904300049,26541,26541,26533,26535
201904300050,26535,26539,26535,26539
201904300051,26540,26542,26539,26539
201904300052,26540,26542,26540,26542
201904300053,26541,26543,26539,26541
201904300054,26541,26541,26539,26540
201904300055,26539,26539,26534,26536
201904300056,26535,26538,26535,26537
201904300057,26536,26540,26536,26539
201904300058,26539,26539,26529,26529
201904300059,26529,26531,26529,26530
201904300100,26531,26531,26525,26525
201904300101,26525,26526,26520,26523
201904300102,26522,26526,26520,26526
201904300103,26527,26536,26526,26535
201904300104,26535,26538,26534,26537
201904300105,26537,26539,26536,26539
201904300106,26539,26542,26538,26542
201904300107,26542,26543,26541,26542
201904300108,26542,26543,26541,26542
201904300109,26542,26544,26539,26540
201904300110,26540,26543,26540,26541
201904300111,26541,26544,26541,26543
201904300112,26543,26543,26540,26541
201904300113,26540,26545,26540,26545
201904300114,26545,26547,26543,26545
201904300115,26545,26546,26544,26544
201904300116,26544,26545,26542,26543
201904300117,26543,26543,26539,26541
201904300118,26541,26542,26540,26541
201904300119,26540,26543,26540,26543
201904300120,26543,26546,26543,26545
201904300121,26545,26546,26544,26544
201904300122,26544,26545,26543,26545
201904300123,26545,26545,26541,26543
201904300124,26543,26546,26543,26546
201904300125,26546,26548,26545,26546
201904300126,26546,26550,26545,26549
201904300127,26549,26549,26547,26547
201904300128,26547,26548,26544,26544
201904300129,26544,26551,26544,26550
201904300130,26550,26556,26549,26556
201904300131,26557,26560,26556,26559
201904300132,26559,26559,26556,26556
201904300133,26556,26558,26550,26551
201904300134,26551,26551,26549,26550
201904300135,26550,26552,26550,26552
201904300136,26553,26554,26551,26553
201904300137,26553,26556,26553,26555
201904300138,26554,26557,26554,26557
201904300139,26557,26557,26552,26553
201904300140,26553,26555,26553,26553
201904300141,26553,26553,26551,26551
201904300142,26551,26552,26548,26549
201904300143,26549,26549,26546,26547
201904300144,26547,26549,26547,26547
201904300145,26548,26550,26546,26550
201904300146,26550,26550,26548,26549
201904300147,26549,26552,26548,26552
201904300148,26552,26554,26551,26553
201904300149,26553,26556,26553,26556
201904300150,26556,26557,26555,26556
201904300151,26556,26556,26554,26555
201904300152,26555,26560,26555,26560
201904300153,26560,26560,26559,26559
201904300154,26559,26561,26558,26561
201904300155,26561,26562,26560,26562
201904300156,26562,26562,26555,26556
201904300157,26556,26559,26556,26557
201904300158,26557,26560,26556,26556
201904300159,26556,26557,26555,26557
201904300200,26556,26557,26554,26554
201904300201,26554,26557,26554,26557
201904300202,26557,26559,26557,26557
201904300203,26557,26559,26556,26557
201904300204,26557,26558,26556,26556
201904300205,26557,26558,26556,26557
201904300206,26557,26559,26554,26555
201904300207,26555,26555,26553,26554
201904300208,26553,26554,26550,26554
201904300209,26553,26558,26553,26557
201904300210,26557,26562,26557,26560
201904300211,26561,26561,26556,26556
201904300212,26556,26556,26550,26552
201904300213,26552,26555,26551,26555
201904300214,26555,26558,26555,26557
201904300215,26557,26560,26557,26560
201904300216,26559,26559,26554,26555
201904300217,26554,26555,26552,26553
201904300218,26553,26554,26550,26551
201904300219,26551,26552,26549,26550
201904300220,26550,26552,26549,26550
201904300221,26551,26553,26551,26553
201904300222,26553,26554,26552,26553
201904300223,26553,26556,26553,26553
201904300224,26553,26553,26550,26551
201904300225,26551,26551,26548,26549
201904300226,26549,26553,26548,26552
201904300227,26552,26554,26549,26550
201904300228,26550,26550,26548,26550
201904300229,26550,26553,26549,26553
201904300230,26553,26553,26551,26552
201904300231,26552,26552,26548,26552
201904300232,26552,26553,26551,26552
201904300233,26553,26554,26551,26551
201904300234,26551,26554,26550,26554
201904300235,26553,26553,26551,26552
201904300236,26552,26552,26547,26547
201904300237,26547,26551,26547,26551
201904300238,26551,26553,26549,26550
201904300239,26550,26551,26550,26550
201904300240,26550,26551,26545,26545
201904300241,26545,26548,26545,26548
201904300242,26548,26549,26546,26549
201904300243,26549,26550,26547,26548
201904300244,26548,26549,26548,26549
201904300245,26549,26554,26549,26552
201904300246,26552,26555,26552,26555
201904300247,26555,26555,26551,26553
201904300248,26553,26555,26552,26554
201904300249,26554,26557,26554,26557
201904300250,26557,26559,26556,26558
201904300251,26558,26560,26558,26559
201904300252,26559,26560,26558,26560
201904300253,26560,26561,26558,26559
201904300254,26559,26561,26558,26559
201904300255,26559,26561,26559,26560
201904300256,26560,26561,26558,26559
201904300257,26559,26561,26559,26560
201904300258,26560,26561,26558,26561
201904300259,26561,26562,26559,26561
201904300300,26561,26565,26561,26563
201904300301,26563,26566,26563,26565
201904300302,26565,26568,26565,26568
201904300303,26568,26575,26568,26574
201904300304,26574,26576,26563,26563
201904300305,26563,26563,26560,26562
201904300306,26562,26567,26561,26565
201904300307,26565,26570,26565,26569
201904300308,26569,26570,26568,26570
201904300309,26570,26572,26569,26569
201904300310,26569,26572,26568,26570
201904300311,26569,26572,26569,26570
201904300312,26570,26570,26568,26569
201904300313,26569,26569,26568,26569
201904300314,26570,26570,26565,26566
201904300315,26566,26567,26565,26567
201904300316,26567,26570,26567,26569
201904300317,26569,26573,26569,26573
201904300318,26573,26576,26573,26576
201904300319,26576,26577,26574,26577
201904300320,26577,26583,26571,26572
201904300321,26572,26573,26571,26571
201904300322,26571,26573,26570,26573
201904300323,26574,26574,26572,26572
201904300324,26572,26577,26572,26575
201904300325,26575,26578,26575,26575
201904300326,26575,26578,26575,26577
201904300327,26578,26578,26572,26573
201904300328,26573,26573,26571,26572
201904300329,26572,26574,26572,26573
201904300330,26573,26581,26573,26575
201904300331,26575,26579,26574,26575
201904300332,26575,26576,26569,26574
201904300333,26574,26577,26574,26575
201904300334,26574,26575,26572,26573
201904300335,26573,26574,26571,26573
201904300336,26573,26576,26571,26573
201904300337,26573,26576,26571,26575
201904300338,26574,26575,26572,26573
201904300339,26573,26574,26570,26571
201904300340,26571,26571,26567,26567
201904300341,26567,26570,26566,26567
201904300342,26567,26570,26566,26566
201904300343,26567,26573,26567,26573
201904300344,26573,26575,26572,26572
201904300345,26572,26572,26568,26569
201904300346,26570,26572,26570,26570
201904300347,26570,26572,26569,26570
201904300348,26570,26571,26569,26569
201904300349,26569,26569,26562,26564
201904300350,26564,26569,26563,26568
201904300351,26568,26568,26564,26565
201904300352,26565,26565,26563,26564
201904300353,26564,26566,26560,26562
201904300354,26561,26563,26560,26562
201904300355,26563,26566,26562,26566
201904300356,26566,26568,26566,26567
201904300357,26568,26569,26568,26568
201904300358,26568,26568,26566,26566
201904300359,26566,26566,26561,26562
201904300400,26562,26564,26560,26563
201904300401,26563,26566,26563,26565
201904300402,26565,26566,26562,26562
201904300403,26562,26566,26562,26566
201904300404,26567,26570,26567,26569
201904300405,26569,26569,26565,26567
201904300406,26567,26569,26567,26567
201904300407,26568,26571,26568,26569
201904300408,26569,26569,26567,26569
201904300409,26568,26568,26566,26566
201904300410,26566,26566,26563,26563
201904300411,26563,26568,26563,26566
201904300412,26565,26569,26565,26569
201904300413,26569,26570,26563,26565
201904300414,26565,26569,26565,26567
201904300415,26567,26567,26565,26567
201904300416,26567,26568,26565,26565
201904300417,26565,26569,26563,26568
201904300418,26568,26569,26567,26567
201904300419,26567,26568,26565,26565
201904300420,26565,26569,26565,26569
201904300421,26569,26571,26568,26570
201904300422,26570,26570,26566,26568
201904300423,26568,26568,26566,26566
201904300424,26566,26566,26562,26563
201904300425,26562,26565,26562,26563
201904300426,26562,26564,26561,26562
201904300427,26562,26563,26561,26561
201904300428,26562,26564,26561,26564
201904300429,26564,26566,26563,26565
201904300430,26566,26566,26560,26561
201904300431,26561,26563,26561,26562
201904300432,26562,26570,26562,26570
201904300433,26570,26570,26566,26569
201904300434,26569,26569,26561,26563
201904300435,26563,26567,26561,26567
201904300436,26567,26570,26567,26568
201904300437,26568,26569,26566,26567
201904300438,26566,26570,26565,26570
201904300439,26570,26573,26569,26572
201904300440,26573,26575,26571,26575
201904300441,26575,26575,26568,26568
201904300442,26569,26569,26565,26565
201904300443,26565,26565,26562,26564
201904300444,26564,26565,26562,26563
201904300445,26563,26567,26552,26555
201904300446,26555,26556,26552,26555
201904300447,26555,26560,26553,26559
201904300448,26559,26562,26558,26562
201904300449,26562,26562,26558,26560
201904300450,26560,26560,26553,26553
201904300451,26553,26553,26549,26550
201904300452,26550,26551,26538,26540
201904300453,26540,26541,26534,26538
201904300454,26538,26539,26533,26533
201904300455,26533,26544,26533,26543
201904300456,26543,26548,26542,26546
201904300457,26546,26547,26541,26541
201904300458,26541,26544,26539,26543
201904300459,26543,26547,26533,26534
201904300500,26536,26538,26528,26533
201904300501,26533,26537,26531,26537
201904300502,26537,26541,26526,26541
201904300503,26541,26557,26539,26556
201904300504,26556,26556,26546,26548
201904300505,26548,26549,26545,26548
201904300506,26549,26555,26546,26555
201904300507,26554,26558,26552,26557
201904300508,26557,26561,26555,26558
201904300509,26558,26558,26544,26550
201904300510,26551,26551,26543,26544
201904300511,26544,26548,26544,26547
201904300512,26547,26548,26543,26548
201904300513,26549,26552,26548,26548
201904300514,26548,26549,26546,26546
