日時,始値(BID),高値(BID),安値(BID),終値(BID)
201904010700,25973,26023,25973,26017
201904010701,26016,26069,26016,26069
201904010702,26069,26081,26062,26068
201904010703,26068,26068,26057,26057
201904010704,26056,26074,26056,26064
201904010705,26065,26065,26056,26057
201904010706,26057,26059,26052,26052
201904010707,26052,26058,26051,26058
201904010708,26058,26062,26058,26058
201904010709,26058,26065,26056,26065
201904010710,26065,26065,26058,26060
201904010711,26060,26061,26058,26058
201904010712,26058,26058,26052,26054
201904010713,26054,26054,26051,26051
201904010714,26051,26053,26051,26052
201904010715,26052,26053,26049,26049
201904010716,26049,26053,26048,26052
201904010717,26052,26052,26046,26048
201904010718,26048,26055,26046,26051
201904010719,26051,26054,26051,26054
201904010720,26054,26063,26053,26062
201904010721,26062,26064,26057,26063
201904010722,26063,26065,26056,26057
201904010723,26057,26057,26055,26055
201904010724,26055,26058,26055,26056
201904010725,26056,26057,26056,26057
201904010726,26057,26057,26057,26057
201904010727,26057,26060,26057,26057
201904010728,26057,26059,26057,26059
201904010729,26059,26059,26057,26059
201904010730,26059,26060,26053,26053
201904010731,26053,26055,26053,26054
201904010732,26054,26056,26053,26055
201904010733,26055,26059,26055,26059
201904010734,26059,26059,26055,26056
201904010735,26057,26059,26057,26057
201904010736,26057,26058,26056,26056
201904010737,26056,26059,26056,26058
201904010738,26058,26060,26057,26059
201904010739,26059,26065,26059,26065
201904010740,26065,26067,26063,26067
201904010741,26067,26070,26067,26068
201904010742,26068,26069,26065,26066
201904010743,26066,26066,26063,26064
201904010744,26064,26065,26064,26064
201904010745,26065,26066,26064,26065
201904010746,26065,26066,26065,26065
201904010747,26066,26068,26062,26063
201904010748,26062,26063,26059,26059
201904010749,26059,26060,26057,26058
201904010750,26058,26060,26054,26059
201904010751,26060,26064,26055,26056
201904010752,26056,26062,26052,26061
201904010753,26061,26063,26055,26056
201904010754,26056,26061,26056,26060
201904010755,26061,26061,26056,26056
201904010756,26056,26059,26054,26055
201904010757,26055,26059,26055,26059
201904010758,26059,26059,26055,26056
201904010759,26056,26057,26056,26057
201904010800,26056,26057,26054,26054
201904010801,26054,26055,26053,26054
201904010802,26054,26054,26049,26049
201904010803,26049,26051,26047,26050
201904010804,26049,26056,26049,26055
201904010805,26055,26065,26055,26065
201904010806,26065,26065,26051,26051
201904010807,26051,26055,26049,26049
201904010808,26049,26050,26044,26044
201904010809,26044,26050,26044,26048
201904010810,26048,26049,26043,26043
201904010811,26043,26046,26041,26045
201904010812,26045,26052,26045,26050
201904010813,26050,26053,26050,26053
201904010814,26053,26055,26052,26054
201904010815,26054,26054,26050,26051
201904010816,26051,26052,26050,26050
201904010817,26050,26051,26050,26050
201904010818,26050,26052,26050,26052
201904010819,26052,26057,26050,26051
201904010820,26051,26051,26050,26051
201904010821,26051,26059,26051,26058
201904010822,26058,26062,26056,26057
201904010823,26056,26057,26054,26056
201904010824,26055,26056,26053,26053
201904010825,26053,26055,26052,26054
201904010826,26054,26060,26054,26055
201904010827,26055,26055,26054,26055
201904010828,26055,26055,26050,26051
201904010829,26051,26056,26051,26056
201904010830,26055,26055,26046,26046
201904010831,26046,26049,26043,26046
201904010832,26046,26046,26035,26039
201904010833,26039,26041,26037,26038
201904010834,26038,26039,26037,26037
201904010835,26038,26042,26038,26041
201904010836,26041,26044,26040,26043
201904010837,26043,26044,26043,26043
201904010838,26043,26045,26043,26043
201904010839,26043,26044,26041,26042
201904010840,26043,26051,26043,26051
201904010841,26051,26056,26049,26051
201904010842,26052,26058,26052,26055
201904010843,26055,26062,26055,26059
201904010844,26060,26065,26058,26061
201904010845,26061,26067,26061,26065
201904010846,26065,26075,26065,26068
201904010847,26069,26070,26064,26069
201904010848,26069,26071,26068,26071
201904010849,26071,26071,26065,26067
201904010850,26067,26068,26063,26065
201904010851,26065,26070,26064,26067
201904010852,26067,26069,26065,26069
201904010853,26069,26071,26066,26069
201904010854,26069,26071,26067,26067
201904010855,26067,26076,26067,26074
201904010856,26075,26075,26070,26074
201904010857,26074,26075,26070,26071
201904010858,26071,26072,26070,26070
201904010859,26070,26072,26067,26072
201904010900,26072,26077,26069,26075
201904010901,26074,26079,26067,26069
201904010902,26068,26074,26068,26071
201904010903,26071,26076,26071,26074
201904010904,26074,26077,26071,26077
201904010905,26077,26079,26074,26075
201904010906,26074,26077,26074,26074
201904010907,26074,26104,26074,26094
201904010908,26094,26108,26091,26101
201904010909,26101,26104,26100,26103
201904010910,26103,26106,26094,26096
201904010911,26096,26103,26095,26103
201904010912,26100,26105,26097,26098
201904010913,26098,26100,26095,26096
201904010914,26096,26099,26093,26096
201904010915,26096,26098,26091,26091
201904010916,26092,26097,26091,26094
201904010917,26094,26100,26093,26099
201904010918,26099,26099,26094,26095
201904010919,26095,26098,26094,26097
201904010920,26097,26102,26097,26100
201904010921,26100,26110,26099,26105
201904010922,26105,26106,26103,26104
201904010923,26105,26105,26099,26102
201904010924,26102,26102,26094,26094
201904010925,26094,26098,26093,26096
201904010926,26096,26099,26093,26096
201904010927,26097,26097,26091,26093
201904010928,26093,26095,26092,26094
201904010929,26094,26094,26089,26093
201904010930,26093,26098,26087,26088
201904010931,26088,26091,26088,26090
201904010932,26091,26091,26087,26087
201904010933,26087,26088,26085,26086
201904010934,26087,26087,26085,26086
201904010935,26086,26087,26085,26085
201904010936,26085,26087,26085,26086
201904010937,26086,26087,26085,26085
201904010938,26085,26085,26081,26083
201904010939,26082,26089,26082,26088
201904010940,26088,26092,26088,26091
201904010941,26091,26093,26088,26090
201904010942,26090,26093,26090,26091
201904010943,26091,26096,26090,26095
201904010944,26095,26095,26091,26094
201904010945,26094,26094,26093,26094
201904010946,26096,26096,26089,26090
201904010947,26090,26090,26086,26089
201904010948,26089,26090,26086,26089
201904010949,26090,26094,26089,26093
201904010950,26093,26095,26091,26093
201904010951,26094,26098,26092,26097
201904010952,26097,26097,26092,26094
201904010953,26094,26098,26094,26097
201904010954,26097,26098,26095,26096
201904010955,26096,26097,26091,26094
201904010956,26094,26094,26091,26093
201904010957,26093,26093,26088,26090
201904010958,26090,26091,26087,26088
201904010959,26089,26091,26086,26089
201904011000,26089,26095,26083,26092
201904011001,26092,26094,26090,26091
201904011002,26091,26098,26091,26097
201904011003,26097,26105,26097,26100
201904011004,26100,26103,26097,26097
201904011005,26097,26098,26091,26094
201904011006,26094,26095,26092,26092
201904011007,26094,26094,26091,26092
201904011008,26092,26094,26091,26091
201904011009,26091,26092,26089,26091
201904011010,26092,26092,26086,26087
201904011011,26088,26092,26086,26092
201904011012,26091,26092,26088,26089
201904011013,26089,26091,26089,26089
201904011014,26090,26090,26086,26087
201904011015,26087,26090,26086,26087
201904011016,26087,26090,26087,26088
201904011017,26088,26090,26085,26085
201904011018,26085,26088,26085,26085
201904011019,26085,26089,26085,26089
201904011020,26089,26089,26085,26085
201904011021,26085,26086,26083,26083
201904011022,26083,26084,26083,26083
201904011023,26083,26084,26082,26083
201904011024,26084,26084,26082,26084
201904011025,26083,26085,26083,26084
201904011026,26085,26088,26084,26086
201904011027,26086,26092,26084,26091
201904011028,26091,26094,26090,26092
201904011029,26093,26094,26089,26090
201904011030,26090,26090,26086,26087
201904011031,26087,26094,26087,26093
201904011032,26092,26092,26087,26088
201904011033,26088,26092,26087,26090
201904011034,26090,26092,26089,26090
201904011035,26090,26092,26089,26091
201904011036,26091,26096,26091,26095
201904011037,26095,26097,26095,26095
201904011038,26095,26097,26092,26092
201904011039,26092,26093,26089,26090
201904011040,26090,26092,26090,26091
201904011041,26090,26094,26090,26092
201904011042,26092,26093,26091,26092
201904011043,26092,26093,26089,26089
201904011044,26089,26096,26089,26094
201904011045,26094,26117,26094,26098
201904011046,26098,26103,26095,26095
201904011047,26095,26098,26094,26097
201904011048,26097,26106,26095,26104
201904011049,26104,26109,26103,26108
201904011050,26108,26113,26107,26112
201904011051,26112,26113,26108,26109
201904011052,26109,26111,26103,26103
201904011053,26102,26102,26099,26100
201904011054,26100,26101,26099,26100
201904011055,26099,26101,26099,26100
201904011056,26100,26103,26100,26103
201904011057,26102,26105,26100,26101
201904011058,26102,26108,26100,26100
201904011059,26100,26102,26100,26100
201904011100,26100,26102,26097,26097
201904011101,26096,26097,26093,26094
201904011102,26094,26102,26094,26102
201904011103,26102,26102,26099,26102
201904011104,26103,26104,26099,26102
201904011105,26102,26103,26100,26102
201904011106,26102,26104,26101,26103
201904011107,26103,26103,26100,26100
201904011108,26100,26104,26100,26103
201904011109,26103,26109,26103,26109
201904011110,26108,26109,26106,26108
201904011111,26108,26109,26106,26108
201904011112,26108,26116,26108,26115
201904011113,26115,26115,26109,26111
201904011114,26111,26114,26109,26113
201904011115,26113,26122,26113,26117
201904011116,26117,26118,26114,26115
201904011117,26115,26117,26111,26111
201904011118,26111,26115,26111,26112
201904011119,26112,26113,26109,26111
201904011120,26110,26113,26109,26113
201904011121,26113,26113,26110,26110
201904011122,26110,26113,26108,26112
201904011123,26113,26113,26112,26113
201904011124,26113,26115,26112,26114
201904011125,26114,26121,26114,26118
201904011126,26118,26120,26116,26118
201904011127,26118,26119,26118,26118
201904011128,26118,26120,26117,26117
201904011129,26118,26127,26118,26124
201904011130,26124,26126,26123,26124
201904011131,26124,26125,26120,26120
201904011132,26120,26123,26120,26121
201904011133,26121,26123,26121,26122
201904011134,26122,26125,26121,26124
201904011135,26124,26130,26122,26125
201904011136,26125,26126,26124,26125
201904011137,26125,26129,26125,26128
201904011138,26128,26131,26125,26127
201904011139,26127,26128,26126,26127
201904011140,26127,26128,26126,26126
201904011141,26126,26133,26126,26131
201904011142,26131,26131,26125,26125
201904011143,26124,26126,26121,26122
201904011144,26122,26124,26122,26122
201904011145,26122,26124,26119,26122
201904011146,26122,26123,26120,26122
201904011147,26122,26125,26121,26121
201904011148,26121,26123,26121,26123
201904011149,26123,26123,26122,26123
201904011150,26123,26125,26122,26124
201904011151,26124,26126,26122,26123
201904011152,26123,26124,26120,26123
201904011153,26122,26124,26118,26119
201904011154,26119,26120,26117,26118
201904011155,26117,26119,26116,26117
201904011156,26117,26118,26116,26117
201904011157,26117,26119,26117,26117
201904011158,26117,26117,26113,26113
201904011159,26113,26114,26113,26114
201904011200,26114,26114,26111,26111
201904011201,26111,26112,26111,26112
201904011202,26111,26112,26110,26110
201904011203,26110,26112,26110,26112
201904011204,26112,26113,26112,26113
201904011205,26112,26113,26112,26112
201904011206,26112,26114,26112,26114
201904011207,26114,26114,26109,26110
201904011208,26110,26113,26110,26112
201904011209,26112,26113,26111,26112
201904011210,26112,26114,26112,26113
201904011211,26113,26113,26111,26111
201904011212,26111,26111,26110,26110
201904011213,26110,26113,26110,26112
201904011214,26112,26112,26110,26111
201904011215,26111,26113,26111,26112
201904011216,26113,26115,26112,26114
201904011217,26114,26115,26112,26113
201904011218,26113,26114,26112,26112
201904011219,26113,26114,26112,26113
201904011220,26113,26115,26113,26113
201904011221,26113,26115,26113,26114
201904011222,26114,26116,26113,26113
201904011223,26113,26114,26113,26113
201904011224,26113,26114,26113,26113
201904011225,26114,26114,26113,26113
201904011226,26113,26118,26113,26115
201904011227,26115,26115,26115,26115
201904011228,26116,26116,26110,26111
201904011229,26111,26111,26109,26109
201904011230,26109,26111,26107,26107
201904011231,26108,26108,26103,26104
201904011232,26104,26108,26103,26107
201904011233,26107,26107,26105,26107
201904011234,26106,26109,26105,26105
201904011235,26105,26106,26105,26105
201904011236,26105,26106,26105,26105
201904011237,26106,26108,26106,26107
201904011238,26107,26108,26107,26107
201904011239,26106,26107,26104,26105
201904011240,26105,26106,26101,26102
201904011241,26102,26102,26098,26100
201904011242,26100,26103,26100,26101
201904011243,26101,26102,26100,26102
201904011244,26102,26103,26101,26102
201904011245,26102,26106,26102,26105
201904011246,26105,26105,26102,26102
201904011247,26102,26104,26100,26104
201904011248,26104,26104,26102,26102
201904011249,26102,26104,26102,26102
201904011250,26102,26103,26100,26101
201904011251,26101,26102,26101,26102
201904011252,26102,26103,26101,26102
201904011253,26102,26102,26101,26102
201904011254,26102,26104,26100,26104
201904011255,26104,26105,26104,26104
201904011256,26104,26106,26103,26104
201904011257,26104,26104,26103,26103
201904011258,26103,26104,26103,26103
201904011259,26103,26104,26103,26103
201904011300,26103,26104,26096,26101
201904011301,26101,26101,26099,26099
201904011302,26099,26100,26098,26098
201904011303,26098,26099,26097,26097
201904011304,26097,26099,26097,26098
201904011305,26098,26098,26096,26096
201904011306,26095,26097,26095,26097
201904011307,26096,26096,26093,26094
201904011308,26094,26095,26091,26093
201904011309,26092,26094,26092,26093
201904011310,26093,26095,26091,26092
201904011311,26091,26091,26087,26088
201904011312,26088,26088,26085,26087
201904011313,26087,26088,26085,26087
201904011314,26086,26087,26085,26085
201904011315,26085,26086,26085,26085
201904011316,26084,26086,26083,26084
201904011317,26083,26087,26083,26087
201904011318,26087,26090,26087,26090
201904011319,26090,26090,26086,26086
201904011320,26086,26087,26084,26084
201904011321,26084,26085,26084,26084
201904011322,26084,26085,26084,26085
201904011323,26085,26087,26085,26087
201904011324,26087,26088,26085,26087
201904011325,26087,26090,26086,26088
201904011326,26088,26088,26086,26087
201904011327,26086,26087,26083,26083
201904011328,26083,26085,26082,26084
201904011329,26084,26086,26083,26085
201904011330,26085,26086,26084,26085
201904011331,26086,26086,26083,26085
201904011332,26085,26090,26084,26090
201904011333,26090,26092,26089,26090
201904011334,26090,26090,26088,26089
201904011335,26089,26093,26089,26093
201904011336,26093,26096,26092,26094
201904011337,26094,26097,26094,26097
201904011338,26097,26098,26096,26098
201904011339,26098,26098,26097,26098
201904011340,26098,26101,26098,26099
201904011341,26099,26100,26094,26094
201904011342,26094,26095,26092,26092
201904011343,26092,26095,26092,26093
201904011344,26094,26094,26091,26092
201904011345,26092,26092,26087,26087
201904011346,26087,26087,26086,26087
201904011347,26087,26088,26084,26088
201904011348,26088,26093,26088,26092
201904011349,26092,26095,26092,26095
201904011350,26095,26095,26094,26094
201904011351,26095,26098,26095,26098
201904011352,26098,26098,26097,26097
201904011353,26097,26098,26096,26098
201904011354,26099,26100,26098,26099
201904011355,26099,26099,26097,26098
201904011356,26098,26099,26097,26098
201904011357,26098,26098,26097,26098
201904011358,26098,26099,26096,26098
201904011359,26097,26099,26096,26096
201904011400,26096,26100,26096,26097
201904011401,26098,26098,26091,26092
201904011402,26092,26095,26092,26093
201904011403,26093,26093,26089,26091
201904011404,26091,26094,26091,26092
201904011405,26092,26096,26092,26095
201904011406,26096,26099,26096,26097
201904011407,26097,26098,26095,26097
201904011408,26097,26098,26097,26097
201904011409,26097,26097,26095,26095
201904011410,26094,26096,26094,26094
201904011411,26094,26096,26094,26095
201904011412,26094,26095,26091,26094
201904011413,26095,26098,26094,26097
201904011414,26097,26098,26096,26097
201904011415,26097,26098,26091,26093
201904011416,26093,26096,26092,26095
201904011417,26095,26098,26095,26097
201904011418,26097,26098,26096,26096
201904011419,26096,26098,26096,26098
201904011420,26098,26100,26097,26099
201904011421,26099,26102,26098,26101
201904011422,26102,26103,26102,26102
201904011423,26101,26104,26101,26102
201904011424,26102,26103,26098,26098
201904011425,26098,26100,26097,26099
201904011426,26099,26100,26097,26099
201904011427,26099,26099,26096,26098
201904011428,26098,26100,26097,26100
201904011429,26100,26103,26099,26102
201904011430,26101,26103,26101,26102
201904011431,26102,26102,26100,26101
201904011432,26101,26106,26100,26106
201904011433,26105,26106,26103,26103
201904011434,26104,26104,26100,26102
201904011435,26102,26104,26100,26100
201904011436,26100,26101,26100,26101
201904011437,26100,26107,26100,26107
201904011438,26106,26106,26102,26103
201904011439,26103,26104,26101,26103
201904011440,26103,26104,26101,26102
201904011441,26102,26103,26100,26102
201904011442,26102,26102,26101,26101
201904011443,26101,26102,26098,26099
201904011444,26099,26100,26096,26100
201904011445,26100,26102,26098,26100
201904011446,26100,26102,26095,26095
201904011447,26096,26096,26092,26093
201904011448,26094,26094,26090,26090
201904011449,26090,26091,26087,26090
201904011450,26090,26096,26089,26094
201904011451,26094,26095,26092,26092
201904011452,26093,26095,26092,26095
201904011453,26095,26098,26094,26097
201904011454,26097,26099,26096,26099
201904011455,26099,26103,26096,26096
201904011456,26097,26098,26096,26096
201904011457,26096,26096,26091,26094
201904011458,26094,26095,26093,26094
201904011459,26095,26099,26094,26098
201904011500,26098,26103,26088,26092
201904011501,26092,26095,26090,26095
201904011502,26095,26095,26090,26092
201904011503,26092,26092,26082,26086
201904011504,26085,26092,26085,26089
201904011505,26089,26090,26086,26087
201904011506,26087,26088,26084,26088
201904011507,26088,26093,26086,26087
201904011508,26087,26091,26087,26087
201904011509,26087,26089,26087,26087
201904011510,26088,26088,26085,26086
201904011511,26086,26091,26086,26090
201904011512,26091,26091,26089,26091
201904011513,26091,26095,26090,26095
201904011514,26095,26095,26086,26088
201904011515,26088,26090,26083,26083
201904011516,26083,26084,26080,26080
201904011517,26080,26082,26077,26082
201904011518,26082,26088,26082,26088
201904011519,26088,26096,26088,26096
201904011520,26095,26095,26089,26093
201904011521,26092,26093,26087,26093
201904011522,26093,26095,26090,26093
201904011523,26093,26093,26089,26089
201904011524,26089,26090,26086,26086
201904011525,26086,26089,26085,26087
201904011526,26087,26089,26087,26087
201904011527,26087,26088,26087,26087
201904011528,26087,26092,26087,26092
201904011529,26092,26093,26090,26091
201904011530,26091,26093,26088,26089
201904011531,26088,26090,26088,26090
201904011532,26091,26094,26090,26094
201904011533,26094,26098,26094,26095
201904011534,26096,26098,26096,26096
201904011535,26096,26098,26095,26095
201904011536,26095,26098,26095,26096
201904011537,26096,26097,26094,26096
201904011538,26096,26096,26094,26096
201904011539,26095,26095,26093,26095
201904011540,26095,26095,26091,26092
201904011541,26092,26093,26091,26091
201904011542,26091,26094,26091,26094
201904011543,26094,26096,26093,26094
201904011544,26094,26096,26092,26094
201904011545,26094,26094,26091,26091
201904011546,26091,26092,26090,26091
201904011547,26091,26094,26090,26094
201904011548,26094,26096,26094,26095
201904011549,26095,26095,26091,26092
201904011550,26092,26095,26091,26093
201904011551,26093,26095,26092,26095
201904011552,26095,26095,26091,26092
201904011553,26093,26093,26092,26093
201904011554,26093,26097,26092,26096
201904011555,26095,26099,26095,26098
201904011556,26097,26100,26095,26097
201904011557,26097,26098,26096,26098
201904011558,26098,26102,26097,26100
201904011559,26101,26101,26096,26099
201904011600,26099,26105,26095,26105
201904011601,26105,26105,26095,26095
201904011602,26095,26096,26090,26092
201904011603,26092,26094,26090,26090
201904011604,26091,26095,26090,26092
201904011605,26092,26093,26086,26089
201904011606,26089,26101,26089,26099
201904011607,26099,26100,26095,26097
201904011608,26099,26104,26099,26100
201904011609,26100,26107,26098,26106
201904011610,26106,26115,26104,26112
201904011611,26112,26115,26110,26110
201904011612,26109,26110,26104,26104
201904011613,26104,26107,26102,26104
201904011614,26104,26109,26104,26105
201904011615,26106,26108,26099,26099
201904011616,26099,26103,26099,26103
201904011617,26103,26103,26100,26100
201904011618,26100,26100,26096,26097
201904011619,26097,26100,26094,26094
201904011620,26094,26100,26094,26099
201904011621,26099,26100,26096,26099
201904011622,26099,26102,26098,26098
201904011623,26098,26100,26098,26099
201904011624,26099,26101,26098,26100
201904011625,26100,26102,26095,26098
201904011626,26099,26100,26097,26099
201904011627,26099,26104,26099,26100
201904011628,26099,26107,26099,26101
201904011629,26101,26103,26098,26100
201904011630,26100,26100,26095,26097
201904011631,26096,26099,26094,26094
201904011632,26094,26096,26093,26095
201904011633,26095,26101,26095,26100
201904011634,26100,26102,26100,26102
201904011635,26102,26103,26100,26100
201904011636,26100,26100,26095,26100
201904011637,26100,26101,26096,26096
201904011638,26096,26099,26096,26098
201904011639,26099,26103,26098,26101
201904011640,26102,26104,26100,26103
201904011641,26104,26106,26101,26105
201904011642,26105,26109,26105,26108
201904011643,26108,26108,26100,26100
201904011644,26100,26103,26095,26103
201904011645,26103,26109,26102,26108
201904011646,26108,26111,26106,26109
201904011647,26109,26113,26109,26113
201904011648,26113,26114,26111,26112
201904011649,26112,26113,26108,26110
201904011650,26109,26119,26109,26115
201904011651,26115,26116,26113,26116
201904011652,26115,26118,26113,26118
201904011653,26118,26122,26117,26118
201904011654,26118,26122,26118,26120
201904011655,26120,26122,26118,26121
201904011656,26121,26127,26121,26127
201904011657,26127,26127,26124,26124
201904011658,26124,26127,26124,26125
201904011659,26125,26127,26124,26127
201904011700,26127,26128,26125,26128
201904011701,26128,26128,26121,26123
201904011702,26123,26123,26116,26116
201904011703,26116,26117,26114,26115
201904011704,26115,26117,26113,26114
201904011705,26114,26118,26114,26117
201904011706,26117,26117,26111,26113
201904011707,26113,26113,26112,26113
201904011708,26113,26114,26110,26110
201904011709,26110,26113,26108,26108
201904011710,26109,26109,26106,26108
201904011711,26108,26111,26108,26111
201904011712,26111,26114,26110,26114
201904011713,26114,26117,26114,26116
201904011714,26116,26116,26112,26114
201904011715,26114,26120,26112,26119
201904011716,26119,26120,26118,26120
201904011717,26120,26128,26120,26127
201904011718,26126,26129,26124,26129
201904011719,26129,26136,26128,26135
201904011720,26135,26142,26135,26138
201904011721,26137,26138,26132,26132
201904011722,26132,26136,26131,26135
201904011723,26135,26136,26131,26133
201904011724,26132,26133,26127,26128
201904011725,26128,26128,26126,26128
201904011726,26128,26131,26127,26131
201904011727,26131,26135,26130,26133
201904011728,26133,26137,26133,26136
201904011729,26136,26138,26134,26138
201904011730,26138,26151,26138,26151
201904011731,26151,26151,26145,26145
201904011732,26145,26147,26142,26145
201904011733,26145,26145,26141,26145
201904011734,26144,26145,26141,26145
201904011735,26145,26151,26145,26149
201904011736,26149,26151,26148,26150
201904011737,26149,26156,26149,26154
201904011738,26154,26156,26149,26151
201904011739,26152,26152,26148,26151
201904011740,26151,26152,26149,26150
201904011741,26150,26151,26149,26149
201904011742,26149,26149,26148,26149
201904011743,26149,26150,26148,26149
201904011744,26149,26150,26147,26148
201904011745,26148,26153,26148,26153
201904011746,26153,26154,26148,26148
201904011747,26148,26152,26148,26150
201904011748,26150,26151,26148,26148
201904011749,26148,26150,26147,26148
201904011750,26148,26150,26147,26147
201904011751,26147,26149,26145,26147
201904011752,26147,26148,26140,26141
201904011753,26141,26142,26139,26140
201904011754,26140,26140,26135,26136
201904011755,26135,26140,26135,26140
201904011756,26140,26143,26138,26139
201904011757,26139,26140,26136,26136
201904011758,26136,26137,26135,26137
201904011759,26138,26140,26136,26139
201904011800,26139,26139,26135,26135
201904011801,26135,26141,26133,26140
201904011802,26141,26143,26138,26138
201904011803,26138,26141,26134,26137
201904011804,26137,26137,26132,26134
201904011805,26135,26138,26133,26137
201904011806,26137,26142,26137,26142
201904011807,26142,26143,26138,26140
201904011808,26140,26143,26139,26143
201904011809,26142,26142,26140,26140
201904011810,26140,26143,26139,26142
201904011811,26141,26142,26137,26137
201904011812,26137,26138,26130,26130
201904011813,26130,26130,26124,26126
201904011814,26127,26130,26126,26129
201904011815,26128,26128,26121,26123
201904011816,26123,26127,26122,26127
201904011817,26128,26131,26127,26127
201904011818,26127,26132,26127,26132
201904011819,26132,26132,26125,26132
201904011820,26132,26135,26121,26124
201904011821,26124,26129,26123,26129
201904011822,26128,26128,26125,26125
201904011823,26125,26126,26120,26120
201904011824,26120,26124,26120,26124
201904011825,26124,26126,26123,26124
201904011826,26124,26125,26120,26124
201904011827,26124,26124,26121,26122
201904011828,26122,26125,26121,26123
201904011829,26124,26124,26121,26122
201904011830,26122,26123,26120,26122
201904011831,26122,26122,26120,26120
201904011832,26120,26123,26120,26123
201904011833,26123,26126,26123,26125
201904011834,26124,26124,26120,26121
201904011835,26121,26121,26117,26118
201904011836,26118,26120,26117,26119
201904011837,26119,26122,26119,26122
201904011838,26122,26122,26119,26119
201904011839,26119,26119,26116,26116
201904011840,26116,26119,26114,26114
201904011841,26114,26121,26114,26120
201904011842,26120,26124,26119,26124
201904011843,26124,26126,26122,26125
201904011844,26125,26125,26123,26123
201904011845,26123,26123,26120,26122
201904011846,26122,26122,26116,26116
201904011847,26116,26116,26115,26116
201904011848,26116,26116,26111,26111
201904011849,26111,26113,26110,26112
201904011850,26112,26115,26110,26115
201904011851,26115,26115,26113,26114
201904011852,26114,26115,26113,26114
201904011853,26114,26117,26113,26115
201904011854,26115,26117,26115,26116
201904011855,26116,26116,26113,26113
201904011856,26113,26114,26110,26114
201904011857,26114,26114,26110,26113
201904011858,26113,26116,26112,26116
201904011859,26116,26116,26113,26113
201904011900,26113,26113,26104,26108
201904011901,26108,26113,26108,26112
201904011902,26112,26116,26111,26111
201904011903,26111,26113,26104,26113
201904011904,26112,26115,26112,26113
201904011905,26113,26114,26111,26111
201904011906,26111,26114,26109,26113
201904011907,26113,26115,26112,26113
201904011908,26114,26115,26112,26112
201904011909,26112,26116,26112,26114
201904011910,26114,26115,26112,26114
201904011911,26114,26121,26114,26121
201904011912,26122,26125,26120,26124
201904011913,26124,26130,26124,26130
201904011914,26131,26132,26127,26127
201904011915,26127,26128,26122,26125
201904011916,26125,26126,26124,26125
201904011917,26125,26126,26124,26125
201904011918,26125,26125,26118,26118
201904011919,26118,26118,26114,26115
201904011920,26115,26117,26104,26106
201904011921,26106,26106,26098,26101
201904011922,26101,26101,26094,26098
201904011923,26098,26101,26097,26099
201904011924,26099,26101,26097,26100
201904011925,26100,26100,26096,26096
201904011926,26096,26100,26096,26100
201904011927,26100,26100,26098,26100
201904011928,26101,26101,26096,26101
201904011929,26100,26103,26099,26102
201904011930,26102,26102,26100,26101
201904011931,26101,26102,26100,26101
201904011932,26101,26102,26100,26101
201904011933,26101,26103,26099,26102
201904011934,26102,26105,26102,26103
201904011935,26103,26104,26101,26102
201904011936,26102,26106,26102,26105
201904011937,26105,26109,26105,26108
201904011938,26108,26110,26108,26109
201904011939,26109,26113,26109,26112
201904011940,26112,26112,26108,26108
201904011941,26108,26108,26106,26106
201904011942,26107,26107,26104,26104
201904011943,26104,26111,26103,26111
201904011944,26111,26111,26108,26108
201904011945,26108,26109,26104,26104
201904011946,26104,26105,26103,26104
201904011947,26104,26110,26104,26109
201904011948,26109,26111,26108,26110
201904011949,26110,26112,26109,26110
201904011950,26110,26111,26106,26110
201904011951,26110,26115,26110,26113
201904011952,26113,26115,26112,26113
201904011953,26113,26115,26112,26114
201904011954,26115,26115,26098,26098
201904011955,26098,26118,26095,26118
201904011956,26118,26118,26109,26110
201904011957,26111,26113,26109,26111
201904011958,26112,26112,26107,26107
201904011959,26107,26107,26095,26099
201904012000,26099,26099,26094,26098
201904012001,26098,26099,26096,26097
201904012002,26097,26099,26095,26099
201904012003,26099,26103,26098,26102
201904012004,26102,26107,26102,26106
201904012005,26106,26106,26094,26100
201904012006,26100,26104,26100,26102
201904012007,26102,26105,26102,26105
201904012008,26105,26109,26104,26107
201904012009,26107,26110,26106,26108
201904012010,26108,26109,26106,26106
201904012011,26106,26117,26106,26117
201904012012,26117,26121,26114,26121
201904012013,26121,26127,26118,26120
201904012014,26120,26122,26119,26121
201904012015,26120,26122,26117,26118
201904012016,26118,26127,26118,26127
201904012017,26127,26128,26125,26126
201904012018,26126,26129,26124,26127
201904012019,26127,26128,26122,26124
201904012020,26124,26125,26122,26123
201904012021,26123,26124,26120,26123
201904012022,26123,26124,26120,26124
201904012023,26124,26125,26122,26123
201904012024,26123,26123,26121,26121
201904012025,26121,26122,26117,26117
201904012026,26117,26120,26116,26120
201904012027,26120,26123,26120,26120
201904012028,26119,26121,26118,26120
201904012029,26120,26124,26120,26124
201904012030,26124,26126,26122,26125
201904012031,26125,26127,26122,26124
201904012032,26125,26134,26125,26133
201904012033,26133,26133,26127,26127
201904012034,26126,26127,26116,26118
201904012035,26118,26121,26118,26121
201904012036,26121,26122,26112,26116
201904012037,26116,26117,26115,26116
201904012038,26116,26119,26116,26116
201904012039,26116,26117,26116,26116
201904012040,26116,26119,26115,26115
201904012041,26115,26118,26114,26118
201904012042,26118,26122,26116,26121
201904012043,26121,26125,26120,26124
201904012044,26124,26125,26121,26125
201904012045,26125,26127,26124,26126
201904012046,26127,26127,26123,26124
201904012047,26124,26126,26121,26124
201904012048,26124,26124,26120,26121
201904012049,26121,26121,26111,26115
201904012050,26115,26115,26110,26115
201904012051,26115,26117,26114,26117
201904012052,26117,26124,26116,26123
201904012053,26123,26126,26122,26123
201904012054,26123,26126,26122,26125
201904012055,26125,26126,26122,26122
201904012056,26122,26125,26122,26125
201904012057,26126,26126,26121,26123
201904012058,26123,26132,26122,26132
201904012059,26132,26132,26128,26129
201904012100,26129,26133,26127,26129
201904012101,26129,26145,26128,26145
201904012102,26145,26148,26140,26147
201904012103,26148,26151,26145,26151
201904012104,26152,26152,26148,26148
201904012105,26148,26148,26139,26144
201904012106,26144,26145,26142,26143
201904012107,26143,26147,26143,26145
201904012108,26145,26150,26145,26149
201904012109,26149,26151,26138,26140
201904012110,26140,26140,26135,26136
201904012111,26135,26139,26135,26137
201904012112,26137,26139,26137,26138
201904012113,26138,26138,26135,26138
201904012114,26139,26139,26133,26133
201904012115,26133,26137,26133,26133
201904012116,26133,26134,26132,26134
201904012117,26134,26135,26132,26132
201904012118,26132,26133,26129,26130
201904012119,26130,26132,26129,26131
201904012120,26132,26132,26125,26130
201904012121,26130,26134,26129,26133
201904012122,26133,26138,26132,26135
201904012123,26135,26135,26131,26133
201904012124,26133,26134,26130,26131
201904012125,26132,26132,26126,26129
201904012126,26129,26133,26126,26126
201904012127,26126,26134,26126,26132
201904012128,26132,26139,26132,26139
201904012129,26140,26142,26134,26140
201904012130,26140,26140,26096,26114
201904012131,26114,26121,26113,26121
201904012132,26121,26130,26121,26124
201904012133,26124,26127,26122,26125
201904012134,26125,26128,26123,26126
201904012135,26126,26139,26126,26138
201904012136,26139,26145,26138,26145
201904012137,26145,26145,26141,26142
201904012138,26142,26146,26141,26146
201904012139,26146,26147,26144,26144
201904012140,26144,26144,26141,26141
201904012141,26141,26141,26138,26138
201904012142,26138,26144,26138,26138
201904012143,26138,26139,26136,26137
201904012144,26137,26141,26136,26139
201904012145,26139,26147,26139,26146
201904012146,26146,26150,26143,26149
201904012147,26149,26151,26148,26148
201904012148,26148,26150,26144,26144
201904012149,26144,26144,26138,26141
201904012150,26141,26141,26135,26135
201904012151,26135,26137,26133,26134
201904012152,26134,26139,26134,26139
201904012153,26139,26142,26137,26141
201904012154,26141,26141,26137,26139
201904012155,26139,26140,26137,26138
201904012156,26138,26139,26131,26131
201904012157,26131,26134,26131,26134
201904012158,26134,26138,26133,26134
201904012159,26135,26135,26133,26135
201904012200,26134,26142,26131,26142
201904012201,26141,26142,26137,26141
201904012202,26141,26146,26141,26145
201904012203,26145,26146,26143,26146
201904012204,26146,26146,26141,26141
201904012205,26141,26145,26141,26144
201904012206,26144,26146,26142,26143
201904012207,26144,26146,26143,26145
201904012208,26145,26146,26144,26145
201904012209,26145,26146,26143,26143
201904012210,26143,26144,26141,26142
201904012211,26142,26142,26140,26140
201904012212,26140,26140,26137,26138
201904012213,26138,26138,26135,26135
201904012214,26136,26140,26135,26140
201904012215,26141,26150,26141,26147
201904012216,26147,26158,26147,26157
201904012217,26157,26159,26155,26159
201904012218,26159,26159,26153,26153
201904012219,26153,26153,26153,26153
201904012220,26153,26154,26150,26150
201904012221,26151,26154,26150,26154
201904012222,26154,26157,26154,26156
201904012223,26156,26156,26154,26155
201904012224,26154,26157,26154,26155
201904012225,26155,26155,26151,26151
201904012226,26152,26152,26147,26147
201904012227,26147,26155,26147,26155
201904012228,26155,26156,26147,26147
201904012229,26148,26152,26142,26146
201904012230,26146,26153,26132,26137
201904012231,26137,26139,26125,26134
201904012232,26134,26149,26131,26146
201904012233,26146,26147,26131,26131
201904012234,26131,26131,26120,26126
201904012235,26126,26129,26115,26116
201904012236,26116,26116,26086,26104
201904012237,26105,26106,26092,26103
201904012238,26103,26103,26086,26096
201904012239,26096,26100,26088,26095
201904012240,26095,26107,26093,26101
201904012241,26101,26101,26087,26088
201904012242,26088,26101,26080,26084
201904012243,26084,26089,26080,26081
201904012244,26081,26101,26078,26101
201904012245,26101,26110,26088,26089
201904012246,26089,26100,26088,26094
201904012247,26094,26105,26089,26105
201904012248,26105,26106,26094,26094
201904012249,26094,26106,26091,26100
201904012250,26100,26115,26099,26108
201904012251,26108,26112,26105,26112
201904012252,26112,26120,26112,26116
201904012253,26116,26123,26114,26119
201904012254,26118,26118,26106,26107
201904012255,26107,26118,26107,26111
201904012256,26111,26111,26098,26103
201904012257,26103,26114,26103,26106
201904012258,26106,26116,26103,26116
201904012259,26116,26118,26100,26103
201904012300,26103,26145,26103,26145
201904012301,26145,26164,26141,26163
201904012302,26162,26173,26159,26173
201904012303,26173,26175,26160,26160
201904012304,26160,26170,26159,26170
201904012305,26169,26171,26159,26167
201904012306,26167,26170,26152,26154
201904012307,26153,26158,26150,26154
201904012308,26154,26155,26143,26144
201904012309,26144,26146,26133,26136
201904012310,26136,26136,26120,26122
201904012311,26122,26136,26119,26135
201904012312,26135,26141,26132,26140
201904012313,26141,26148,26133,26135
201904012314,26135,26140,26133,26135
201904012315,26136,26144,26129,26138
201904012316,26139,26146,26134,26143
201904012317,26143,26153,26142,26150
201904012318,26150,26154,26147,26153
201904012319,26152,26167,26152,26165
201904012320,26165,26167,26155,26155
201904012321,26155,26163,26148,26159
201904012322,26159,26159,26147,26147
201904012323,26147,26156,26147,26155
201904012324,26155,26155,26134,26135
201904012325,26135,26152,26135,26151
201904012326,26151,26151,26144,26149
201904012327,26149,26155,26143,26143
201904012328,26143,26151,26142,26145
201904012329,26145,26151,26141,26150
201904012330,26150,26160,26149,26157
201904012331,26157,26160,26145,26145
201904012332,26145,26159,26145,26159
201904012333,26159,26162,26157,26157
201904012334,26157,26165,26156,26162
201904012335,26162,26163,26151,26153
201904012336,26153,26162,26153,26154
201904012337,26154,26158,26150,26158
201904012338,26158,26160,26154,26160
201904012339,26160,26163,26156,26163
201904012340,26161,26166,26161,26163
201904012341,26163,26163,26154,26159
201904012342,26159,26166,26159,26162
201904012343,26162,26178,26162,26176
201904012344,26176,26177,26169,26170
201904012345,26170,26171,26167,26171
201904012346,26171,26171,26168,26168
201904012347,26168,26173,26168,26172
201904012348,26172,26173,26169,26169
201904012349,26169,26176,26160,26173
201904012350,26174,26178,26173,26174
201904012351,26174,26175,26171,26172
201904012352,26173,26173,26169,26170
201904012353,26170,26171,26166,26168
201904012354,26168,26173,26168,26169
201904012355,26168,26173,26167,26168
201904012356,26168,26174,26168,26171
201904012357,26171,26176,26170,26172
201904012358,26171,26173,26169,26171
201904012359,26171,26173,26171,26171
201904020000,26171,26176,26168,26168
201904020001,26168,26170,26165,26166
201904020002,26166,26178,26166,26176
201904020003,26177,26194,26177,26190
201904020004,26189,26191,26182,26182
201904020005,26182,26184,26181,26181
201904020006,26181,26186,26181,26186
201904020007,26185,26187,26182,26184
201904020008,26184,26190,26184,26185
201904020009,26186,26190,26184,26187
201904020010,26186,26190,26180,26180
201904020011,26180,26187,26179,26185
201904020012,26185,26189,26182,26183
201904020013,26183,26186,26179,26180
201904020014,26180,26185,26179,26181
201904020015,26181,26186,26179,26180
201904020016,26180,26196,26180,26191
201904020017,26191,26193,26189,26190
201904020018,26190,26198,26190,26195
201904020019,26196,26197,26192,26193
201904020020,26193,26194,26190,26190
201904020021,26190,26190,26182,26182
201904020022,26182,26188,26182,26184
201904020023,26184,26190,26183,26190
201904020024,26190,26191,26187,26190
201904020025,26189,26189,26184,26185
201904020026,26185,26190,26184,26190
201904020027,26190,26192,26183,26184
201904020028,26184,26184,26178,26184
201904020029,26184,26193,26184,26186
201904020030,26186,26186,26174,26177
201904020031,26177,26179,26172,26172
201904020032,26172,26174,26169,26170
201904020033,26170,26171,26166,26169
201904020034,26169,26174,26162,26174
201904020035,26174,26177,26172,26176
201904020036,26176,26177,26168,26172
201904020037,26172,26176,26172,26176
201904020038,26177,26181,26172,26173
201904020039,26173,26173,26164,26164
201904020040,26163,26172,26163,26172
201904020041,26172,26173,26167,26168
201904020042,26167,26173,26166,26172
201904020043,26172,26172,26161,26161
201904020044,26162,26162,26156,26161
201904020045,26160,26166,26160,26164
201904020046,26163,26168,26162,26167
201904020047,26167,26169,26165,26168
201904020048,26168,26175,26167,26174
201904020049,26174,26182,26174,26181
201904020050,26181,26183,26180,26180
201904020051,26180,26181,26175,26175
201904020052,26175,26179,26175,26176
201904020053,26176,26182,26176,26178
201904020054,26178,26181,26175,26177
201904020055,26177,26182,26173,26182
201904020056,26182,26188,26182,26188
201904020057,26188,26192,26188,26189
201904020058,26189,26205,26189,26200
201904020059,26201,26202,26192,26193
201904020100,26193,26194,26184,26184
201904020101,26183,26184,26177,26181
201904020102,26181,26185,26177,26183
201904020103,26183,26188,26182,26186
201904020104,26186,26189,26182,26183
201904020105,26182,26186,26175,26175
201904020106,26175,26180,26175,26177
201904020107,26177,26177,26169,26170
201904020108,26171,26171,26163,26167
201904020109,26167,26170,26167,26170
201904020110,26170,26173,26169,26172
201904020111,26172,26183,26172,26183
201904020112,26183,26183,26176,26179
201904020113,26179,26183,26177,26177
201904020114,26177,26177,26170,26171
201904020115,26171,26177,26171,26177
201904020116,26177,26179,26176,26177
201904020117,26177,26187,26177,26187
201904020118,26187,26189,26186,26189
201904020119,26189,26192,26187,26188
201904020120,26189,26189,26185,26188
201904020121,26188,26190,26188,26190
201904020122,26190,26195,26189,26192
201904020123,26192,26196,26191,26195
201904020124,26195,26195,26187,26188
201904020125,26188,26189,26182,26183
201904020126,26183,26186,26182,26183
201904020127,26183,26187,26183,26187
201904020128,26187,26187,26180,26183
201904020129,26183,26189,26183,26189
201904020130,26188,26191,26187,26189
201904020131,26189,26192,26188,26192
201904020132,26192,26194,26190,26191
201904020133,26191,26196,26188,26189
201904020134,26189,26194,26187,26193
201904020135,26194,26195,26189,26189
201904020136,26189,26191,26186,26186
201904020137,26187,26190,26187,26187
201904020138,26187,26189,26185,26188
201904020139,26188,26190,26186,26190
201904020140,26190,26193,26190,26193
201904020141,26193,26196,26191,26191
201904020142,26191,26193,26189,26190
201904020143,26190,26193,26189,26193
201904020144,26193,26195,26190,26192
201904020145,26192,26196,26192,26193
201904020146,26193,26196,26193,26195
201904020147,26195,26200,26195,26199
201904020148,26199,26200,26194,26200
201904020149,26200,26200,26196,26198
201904020150,26198,26200,26197,26197
201904020151,26197,26198,26191,26192
201904020152,26192,26193,26186,26189
201904020153,26189,26195,26189,26192
201904020154,26192,26196,26192,26194
201904020155,26194,26197,26192,26194
201904020156,26194,26195,26190,26192
201904020157,26192,26203,26192,26200
201904020158,26200,26203,26199,26202
201904020159,26202,26205,26202,26205
201904020200,26204,26207,26199,26200
201904020201,26199,26206,26199,26206
201904020202,26206,26207,26205,26205
201904020203,26205,26208,26202,26205
201904020204,26205,26208,26204,26204
201904020205,26204,26204,26196,26197
201904020206,26197,26198,26192,26193
201904020207,26193,26195,26192,26194
201904020208,26194,26198,26194,26198
201904020209,26198,26202,26197,26201
201904020210,26201,26202,26193,26193
201904020211,26193,26194,26191,26192
201904020212,26192,26192,26188,26188
201904020213,26188,26189,26186,26188
201904020214,26188,26190,26188,26189
201904020215,26189,26192,26189,26192
201904020216,26193,26196,26190,26191
201904020217,26191,26193,26189,26190
201904020218,26190,26194,26190,26193
201904020219,26192,26192,26190,26191
201904020220,26190,26190,26183,26185
201904020221,26185,26191,26185,26190
201904020222,26189,26192,26189,26192
201904020223,26191,26194,26190,26194
201904020224,26194,26194,26191,26193
201904020225,26193,26193,26186,26187
201904020226,26187,26191,26187,26190
201904020227,26189,26199,26188,26198
201904020228,26198,26198,26196,26196
201904020229,26196,26198,26190,26194
201904020230,26194,26195,26191,26194
201904020231,26193,26194,26191,26191
201904020232,26191,26192,26189,26192
201904020233,26193,26201,26193,26200
201904020234,26200,26202,26198,26198
201904020235,26198,26201,26195,26195
201904020236,26195,26198,26194,26198
201904020237,26198,26203,26198,26201
201904020238,26202,26202,26197,26199
201904020239,26199,26202,26198,26201
201904020240,26201,26204,26200,26203
201904020241,26204,26204,26202,26202
201904020242,26202,26204,26202,26202
201904020243,26202,26203,26197,26200
201904020244,26199,26199,26194,26196
201904020245,26196,26200,26194,26198
201904020246,26198,26208,26198,26205
201904020247,26205,26206,26200,26201
201904020248,26201,26203,26198,26198
201904020249,26199,26199,26197,26198
201904020250,26198,26204,26198,26200
201904020251,26200,26204,26199,26204
201904020252,26204,26208,26204,26205
201904020253,26204,26208,26202,26206
201904020254,26206,26206,26201,26201
201904020255,26202,26208,26202,26208
201904020256,26208,26212,26207,26211
201904020257,26211,26212,26208,26208
201904020258,26209,26210,26207,26210
201904020259,26210,26212,26206,26212
201904020300,26212,26213,26208,26211
201904020301,26212,26221,26211,26219
201904020302,26219,26223,26216,26222
201904020303,26223,26223,26216,26219
201904020304,26219,26222,26218,26221
201904020305,26222,26222,26217,26218
201904020306,26218,26222,26218,26220
201904020307,26219,26227,26219,26225
201904020308,26224,26231,26224,26229
201904020309,26228,26235,26228,26234
201904020310,26234,26241,26234,26237
201904020311,26237,26243,26236,26240
201904020312,26240,26246,26239,26245
201904020313,26244,26251,26241,26241
201904020314,26241,26244,26238,26240
201904020315,26240,26242,26236,26238
201904020316,26239,26241,26235,26235
201904020317,26235,26235,26230,26231
201904020318,26230,26234,26229,26230
201904020319,26230,26231,26229,26231
201904020320,26231,26232,26228,26231
201904020321,26230,26232,26229,26230
201904020322,26230,26236,26230,26236
201904020323,26235,26236,26232,26236
201904020324,26236,26237,26235,26236
201904020325,26236,26238,26235,26237
201904020326,26237,26240,26236,26238
201904020327,26238,26242,26235,26239
201904020328,26239,26239,26230,26231
201904020329,26230,26232,26222,26223
201904020330,26223,26229,26223,26224
201904020331,26224,26227,26223,26226
201904020332,26225,26227,26223,26227
201904020333,26227,26227,26224,26225
201904020334,26225,26232,26225,26231
201904020335,26231,26233,26228,26230
201904020336,26230,26230,26224,26224
201904020337,26224,26227,26224,26227
201904020338,26226,26228,26224,26224
201904020339,26224,26228,26224,26227
201904020340,26228,26232,26228,26230
201904020341,26230,26236,26230,26235
201904020342,26235,26236,26233,26234
201904020343,26234,26236,26231,26233
201904020344,26233,26234,26228,26230
201904020345,26230,26230,26223,26223
201904020346,26223,26231,26223,26231
201904020347,26231,26231,26227,26229
201904020348,26229,26232,26228,26231
201904020349,26231,26233,26226,26226
201904020350,26227,26233,26225,26231
201904020351,26231,26231,26223,26224
201904020352,26224,26225,26223,26223
201904020353,26223,26225,26219,26222
201904020354,26222,26227,26221,26227
201904020355,26227,26231,26226,26231
201904020356,26231,26236,26230,26235
201904020357,26235,26244,26235,26242
201904020358,26242,26242,26235,26235
201904020359,26235,26235,26232,26234
201904020400,26234,26234,26220,26223
201904020401,26223,26228,26222,26227
201904020402,26227,26228,26224,26227
201904020403,26227,26228,26226,26227
201904020404,26227,26229,26220,26220
201904020405,26220,26223,26215,26216
201904020406,26217,26227,26217,26221
201904020407,26222,26225,26215,26216
201904020408,26216,26220,26211,26214
201904020409,26214,26216,26212,26214
201904020410,26214,26214,26203,26203
201904020411,26203,26210,26203,26207
201904020412,26207,26217,26203,26217
201904020413,26217,26217,26212,26213
201904020414,26213,26217,26210,26217
201904020415,26217,26217,26212,26216
201904020416,26216,26226,26215,26226
201904020417,26226,26229,26224,26227
201904020418,26226,26230,26225,26230
201904020419,26231,26235,26230,26235
201904020420,26235,26237,26230,26230
201904020421,26230,26235,26229,26231
201904020422,26231,26235,26231,26232
201904020423,26232,26235,26230,26235
201904020424,26235,26240,26235,26238
201904020425,26238,26239,26233,26234
201904020426,26234,26235,26229,26234
201904020427,26234,26238,26234,26237
201904020428,26237,26239,26235,26238
201904020429,26238,26246,26238,26246
201904020430,26246,26246,26240,26240
201904020431,26240,26241,26235,26237
201904020432,26237,26241,26234,26238
201904020433,26238,26239,26232,26232
201904020434,26232,26234,26229,26233
201904020435,26233,26235,26229,26234
201904020436,26234,26238,26234,26238
201904020437,26238,26239,26236,26239
201904020438,26239,26239,26231,26232
201904020439,26233,26239,26233,26236
201904020440,26236,26241,26235,26241
201904020441,26241,26244,26240,26242
201904020442,26242,26242,26235,26240
201904020443,26240,26244,26238,26242
201904020444,26242,26245,26239,26243
201904020445,26243,26243,26238,26242
201904020446,26242,26246,26242,26246
201904020447,26246,26246,26237,26237
201904020448,26237,26237,26231,26233
201904020449,26233,26243,26233,26242
201904020450,26242,26245,26241,26245
201904020451,26245,26251,26244,26250
201904020452,26250,26257,26250,26257
201904020453,26257,26258,26256,26256
201904020454,26257,26271,26257,26271
201904020455,26271,26282,26271,26278
201904020456,26278,26286,26277,26284
201904020457,26284,26285,26270,26270
201904020458,26270,26275,26270,26274
201904020459,26274,26274,26256,26259
201904020500,26258,26258,26239,26240
201904020501,26240,26241,26228,26232
201904020502,26232,26242,26232,26240
201904020503,26240,26246,26240,26242
201904020504,26242,26242,26234,26236
201904020505,26236,26241,26236,26240
201904020506,26240,26240,26237,26240
201904020507,26241,26250,26240,26250
201904020508,26249,26253,26248,26251
201904020509,26251,26253,26250,26252
201904020510,26252,26258,26249,26257
201904020511,26257,26257,26256,26257
201904020512,26257,26261,26256,26260
201904020513,26260,26260,26256,26256
201904020514,26256,26261,26251,26259
