日時,始値(BID),高値(BID),安値(BID),終値(BID)
201908130700,17.069,17.079,17.055,17.079
201908130701,17.08,17.08,17.066,17.075
201908130702,17.075,17.082,17.075,17.079
201908130703,17.079,17.08,17.072,17.072
201908130704,17.071,17.072,17.063,17.065
201908130705,17.065,17.065,17.063,17.063
201908130706,17.063,17.063,17.061,17.061
201908130707,17.061,17.061,17.059,17.06
201908130708,17.06,17.066,17.059,17.059
201908130709,17.059,17.059,17.056,17.056
201908130710,17.056,17.06,17.055,17.06
201908130711,17.06,17.06,17.057,17.057
201908130712,17.057,17.058,17.056,17.056
201908130713,17.056,17.061,17.056,17.06
201908130714,17.06,17.06,17.06,17.06
201908130715,17.06,17.06,17.055,17.055
201908130716,17.055,17.055,17.055,17.055
201908130717,17.055,17.055,17.05,17.052
201908130718,17.052,17.06,17.052,17.06
201908130719,17.06,17.062,17.06,17.062
201908130720,17.062,17.063,17.062,17.062
201908130721,17.062,17.063,17.062,17.063
201908130722,17.063,17.063,17.06,17.06
201908130723,17.06,17.06,17.06,17.06
201908130724,17.06,17.061,17.06,17.06
201908130725,17.06,17.065,17.06,17.065
201908130726,17.065,17.065,17.06,17.06
201908130727,17.06,17.065,17.06,17.065
201908130728,17.065,17.066,17.061,17.065
201908130729,17.065,17.065,17.065,17.065
201908130730,17.065,17.065,17.065,17.065
201908130731,17.064,17.065,17.064,17.065
201908130732,17.065,17.065,17.065,17.065
201908130733,17.065,17.065,17.065,17.065
201908130734,17.065,17.065,17.06,17.061
201908130735,17.061,17.061,17.06,17.061
201908130736,17.061,17.061,17.06,17.06
201908130737,17.06,17.061,17.06,17.06
201908130738,17.06,17.065,17.06,17.065
201908130739,17.065,17.065,17.065,17.065
201908130740,17.065,17.065,17.065,17.065
201908130741,17.065,17.065,17.065,17.065
201908130742,17.065,17.065,17.06,17.06
201908130743,17.06,17.06,17.06,17.06
201908130744,17.06,17.061,17.06,17.06
201908130745,17.06,17.065,17.06,17.065
201908130746,17.065,17.066,17.065,17.066
201908130747,17.066,17.066,17.061,17.061
201908130748,17.061,17.061,17.06,17.061
201908130749,17.061,17.066,17.061,17.065
201908130750,17.065,17.065,17.06,17.065
201908130751,17.065,17.065,17.065,17.065
201908130752,17.065,17.065,17.062,17.065
201908130753,17.065,17.066,17.065,17.066
201908130754,17.066,17.066,17.065,17.065
201908130755,17.065,17.065,17.065,17.065
201908130756,17.065,17.065,17.065,17.065
201908130757,17.065,17.066,17.065,17.065
201908130758,17.065,17.065,17.06,17.061
201908130759,17.061,17.072,17.061,17.07
201908130800,17.07,17.071,17.07,17.07
201908130801,17.07,17.075,17.07,17.075
201908130802,17.075,17.08,17.075,17.08
201908130803,17.08,17.081,17.08,17.08
201908130804,17.08,17.081,17.08,17.081
201908130805,17.081,17.084,17.08,17.08
201908130806,17.08,17.08,17.08,17.08
201908130807,17.08,17.08,17.076,17.08
201908130808,17.08,17.08,17.08,17.08
201908130809,17.079,17.084,17.079,17.084
201908130810,17.084,17.085,17.084,17.085
201908130811,17.085,17.085,17.078,17.08
201908130812,17.08,17.081,17.075,17.076
201908130813,17.076,17.076,17.075,17.075
201908130814,17.075,17.075,17.075,17.075
201908130815,17.075,17.075,17.07,17.07
201908130816,17.07,17.07,17.07,17.07
201908130817,17.07,17.07,17.07,17.07
201908130818,17.07,17.07,17.07,17.07
201908130819,17.07,17.07,17.07,17.07
201908130820,17.07,17.07,17.07,17.07
201908130821,17.07,17.07,17.07,17.07
201908130822,17.07,17.07,17.065,17.066
201908130823,17.066,17.07,17.066,17.07
201908130824,17.07,17.07,17.07,17.07
201908130825,17.07,17.07,17.065,17.066
201908130826,17.066,17.066,17.066,17.066
201908130827,17.066,17.07,17.065,17.07
201908130828,17.07,17.07,17.07,17.07
201908130829,17.07,17.07,17.066,17.066
201908130830,17.066,17.071,17.066,17.071
201908130831,17.071,17.071,17.07,17.07
201908130832,17.07,17.071,17.069,17.071
201908130833,17.071,17.072,17.071,17.071
201908130834,17.071,17.073,17.07,17.073
201908130835,17.073,17.075,17.072,17.075
201908130836,17.075,17.075,17.073,17.075
201908130837,17.075,17.076,17.075,17.076
201908130838,17.076,17.077,17.076,17.076
201908130839,17.076,17.077,17.075,17.077
201908130840,17.077,17.077,17.075,17.075
201908130841,17.075,17.075,17.074,17.075
201908130842,17.075,17.076,17.075,17.075
201908130843,17.075,17.075,17.075,17.075
201908130844,17.075,17.076,17.074,17.075
201908130845,17.075,17.075,17.07,17.07
201908130846,17.071,17.071,17.068,17.069
201908130847,17.069,17.07,17.069,17.07
201908130848,17.07,17.07,17.069,17.069
201908130849,17.069,17.07,17.069,17.07
201908130850,17.07,17.07,17.069,17.069
201908130851,17.069,17.07,17.069,17.07
201908130852,17.07,17.071,17.07,17.071
201908130853,17.071,17.072,17.07,17.071
201908130854,17.071,17.074,17.07,17.07
201908130855,17.07,17.071,17.069,17.069
201908130856,17.069,17.07,17.069,17.07
201908130857,17.07,17.07,17.069,17.069
201908130858,17.069,17.075,17.069,17.075
201908130859,17.075,17.076,17.075,17.075
201908130900,17.075,17.075,17.07,17.074
201908130901,17.074,17.079,17.073,17.079
201908130902,17.078,17.083,17.078,17.083
201908130903,17.083,17.084,17.083,17.084
201908130904,17.084,17.084,17.079,17.079
201908130905,17.079,17.086,17.078,17.085
201908130906,17.085,17.087,17.083,17.083
201908130907,17.083,17.086,17.083,17.084
201908130908,17.084,17.085,17.084,17.084
201908130909,17.084,17.085,17.083,17.084
201908130910,17.084,17.086,17.083,17.085
201908130911,17.085,17.086,17.082,17.083
201908130912,17.083,17.085,17.083,17.085
201908130913,17.085,17.085,17.081,17.082
201908130914,17.082,17.085,17.082,17.085
201908130915,17.085,17.086,17.081,17.082
201908130916,17.082,17.085,17.082,17.085
201908130917,17.085,17.086,17.085,17.085
201908130918,17.085,17.086,17.084,17.084
201908130919,17.084,17.086,17.084,17.084
201908130920,17.084,17.089,17.084,17.084
201908130921,17.084,17.085,17.08,17.08
201908130922,17.08,17.08,17.075,17.079
201908130923,17.079,17.079,17.078,17.079
201908130924,17.079,17.08,17.079,17.079
201908130925,17.079,17.079,17.079,17.079
201908130926,17.079,17.085,17.079,17.082
201908130927,17.084,17.084,17.081,17.081
201908130928,17.081,17.088,17.081,17.088
201908130929,17.088,17.094,17.087,17.093
201908130930,17.093,17.097,17.093,17.096
201908130931,17.096,17.097,17.096,17.097
201908130932,17.097,17.098,17.094,17.095
201908130933,17.095,17.101,17.095,17.101
201908130934,17.101,17.101,17.1,17.1
201908130935,17.1,17.101,17.1,17.101
201908130936,17.101,17.101,17.094,17.096
201908130937,17.096,17.096,17.094,17.096
201908130938,17.096,17.098,17.093,17.095
201908130939,17.095,17.096,17.091,17.094
201908130940,17.094,17.094,17.088,17.09
201908130941,17.09,17.091,17.089,17.089
201908130942,17.089,17.095,17.089,17.094
201908130943,17.094,17.094,17.089,17.089
201908130944,17.089,17.09,17.087,17.089
201908130945,17.089,17.091,17.088,17.088
201908130946,17.088,17.089,17.086,17.089
201908130947,17.089,17.092,17.089,17.09
201908130948,17.09,17.09,17.089,17.09
201908130949,17.09,17.094,17.089,17.094
201908130950,17.094,17.094,17.089,17.09
201908130951,17.09,17.094,17.09,17.094
201908130952,17.094,17.095,17.09,17.091
201908130953,17.091,17.092,17.088,17.09
201908130954,17.09,17.09,17.084,17.09
201908130955,17.09,17.091,17.09,17.09
201908130956,17.09,17.09,17.085,17.086
201908130957,17.086,17.086,17.085,17.085
201908130958,17.085,17.085,17.084,17.084
201908130959,17.084,17.086,17.081,17.081
201908131000,17.082,17.094,17.074,17.094
201908131001,17.094,17.117,17.094,17.117
201908131002,17.116,17.116,17.099,17.108
201908131003,17.108,17.124,17.108,17.12
201908131004,17.12,17.145,17.119,17.14
201908131005,17.14,17.167,17.14,17.165
201908131006,17.166,17.2,17.166,17.197
201908131007,17.195,17.211,17.195,17.21
201908131008,17.211,17.292,17.21,17.284
201908131009,17.283,17.287,17.256,17.261
201908131010,17.258,17.284,17.251,17.271
201908131011,17.271,17.275,17.24,17.24
201908131012,17.24,17.252,17.234,17.245
201908131013,17.244,17.258,17.243,17.248
201908131014,17.248,17.248,17.239,17.243
201908131015,17.243,17.245,17.233,17.245
201908131016,17.244,17.253,17.238,17.242
201908131017,17.242,17.255,17.239,17.248
201908131018,17.248,17.267,17.244,17.263
201908131019,17.264,17.282,17.254,17.254
201908131020,17.254,17.258,17.248,17.258
201908131021,17.258,17.277,17.257,17.26
201908131022,17.26,17.275,17.255,17.268
201908131023,17.268,17.272,17.254,17.272
201908131024,17.272,17.275,17.259,17.26
201908131025,17.26,17.262,17.25,17.253
201908131026,17.253,17.257,17.251,17.254
201908131027,17.253,17.26,17.252,17.253
201908131028,17.253,17.272,17.25,17.269
201908131029,17.269,17.273,17.261,17.27
201908131030,17.27,17.273,17.263,17.267
201908131031,17.267,17.277,17.264,17.276
201908131032,17.277,17.295,17.276,17.289
201908131033,17.284,17.325,17.284,17.325
201908131034,17.325,17.326,17.306,17.307
201908131035,17.307,17.313,17.297,17.302
201908131036,17.302,17.335,17.302,17.331
201908131037,17.331,17.334,17.316,17.331
201908131038,17.332,17.341,17.331,17.341
201908131039,17.341,17.341,17.323,17.332
201908131040,17.331,17.331,17.314,17.327
201908131041,17.328,17.329,17.317,17.329
201908131042,17.328,17.33,17.316,17.316
201908131043,17.316,17.329,17.313,17.322
201908131044,17.325,17.349,17.324,17.346
201908131045,17.345,17.35,17.345,17.346
201908131046,17.346,17.346,17.333,17.333
201908131047,17.333,17.334,17.32,17.334
201908131048,17.334,17.343,17.327,17.331
201908131049,17.332,17.34,17.324,17.328
201908131050,17.328,17.341,17.324,17.337
201908131051,17.337,17.351,17.335,17.345
201908131052,17.345,17.345,17.332,17.332
201908131053,17.33,17.338,17.328,17.334
201908131054,17.334,17.334,17.324,17.334
201908131055,17.334,17.354,17.333,17.354
201908131056,17.354,17.359,17.347,17.348
201908131057,17.348,17.349,17.344,17.347
201908131058,17.347,17.351,17.343,17.348
201908131059,17.348,17.353,17.344,17.344
201908131100,17.345,17.353,17.339,17.339
201908131101,17.339,17.341,17.334,17.34
201908131102,17.339,17.339,17.328,17.328
201908131103,17.328,17.338,17.328,17.338
201908131104,17.338,17.34,17.33,17.33
201908131105,17.33,17.333,17.312,17.318
201908131106,17.318,17.326,17.311,17.322
201908131107,17.322,17.327,17.313,17.313
201908131108,17.313,17.322,17.308,17.308
201908131109,17.308,17.312,17.298,17.303
201908131110,17.303,17.314,17.303,17.303
201908131111,17.303,17.315,17.303,17.313
201908131112,17.313,17.318,17.309,17.317
201908131113,17.317,17.332,17.317,17.328
201908131114,17.328,17.333,17.328,17.33
201908131115,17.33,17.33,17.32,17.323
201908131116,17.323,17.325,17.323,17.323
201908131117,17.323,17.326,17.317,17.317
201908131118,17.317,17.32,17.313,17.313
201908131119,17.313,17.315,17.312,17.314
201908131120,17.314,17.318,17.313,17.313
201908131121,17.313,17.314,17.307,17.309
201908131122,17.309,17.309,17.297,17.299
201908131123,17.299,17.301,17.294,17.3
201908131124,17.301,17.305,17.3,17.3
201908131125,17.3,17.304,17.299,17.299
201908131126,17.299,17.299,17.284,17.284
201908131127,17.284,17.285,17.283,17.283
201908131128,17.283,17.284,17.279,17.279
201908131129,17.279,17.28,17.279,17.279
201908131130,17.279,17.289,17.278,17.288
201908131131,17.288,17.293,17.284,17.284
201908131132,17.284,17.284,17.275,17.279
201908131133,17.283,17.288,17.279,17.279
201908131134,17.278,17.279,17.273,17.277
201908131135,17.277,17.283,17.276,17.279
201908131136,17.279,17.29,17.279,17.289
201908131137,17.289,17.29,17.288,17.288
201908131138,17.288,17.297,17.288,17.297
201908131139,17.297,17.297,17.289,17.293
201908131140,17.293,17.293,17.283,17.287
201908131141,17.287,17.294,17.287,17.292
201908131142,17.289,17.295,17.287,17.287
201908131143,17.288,17.289,17.279,17.283
201908131144,17.283,17.283,17.268,17.268
201908131145,17.268,17.282,17.267,17.282
201908131146,17.282,17.282,17.274,17.277
201908131147,17.277,17.278,17.273,17.273
201908131148,17.273,17.285,17.273,17.284
201908131149,17.284,17.285,17.278,17.284
201908131150,17.284,17.294,17.282,17.294
201908131151,17.295,17.297,17.288,17.291
201908131152,17.291,17.294,17.289,17.293
201908131153,17.293,17.294,17.284,17.284
201908131154,17.284,17.29,17.283,17.289
201908131155,17.289,17.297,17.288,17.294
201908131156,17.294,17.307,17.294,17.307
201908131157,17.307,17.307,17.297,17.298
201908131158,17.298,17.304,17.297,17.302
201908131159,17.302,17.303,17.293,17.293
201908131200,17.293,17.294,17.291,17.292
201908131201,17.292,17.294,17.287,17.293
201908131202,17.293,17.303,17.293,17.303
201908131203,17.303,17.303,17.296,17.298
201908131204,17.298,17.303,17.298,17.303
201908131205,17.303,17.305,17.302,17.305
201908131206,17.307,17.313,17.304,17.305
201908131207,17.305,17.31,17.305,17.307
201908131208,17.307,17.31,17.307,17.307
201908131209,17.307,17.308,17.301,17.303
201908131210,17.303,17.303,17.294,17.298
201908131211,17.298,17.307,17.298,17.307
201908131212,17.307,17.307,17.304,17.304
201908131213,17.304,17.305,17.295,17.298
201908131214,17.298,17.301,17.298,17.299
201908131215,17.3,17.303,17.299,17.303
201908131216,17.303,17.303,17.298,17.299
201908131217,17.299,17.299,17.296,17.298
201908131218,17.298,17.298,17.292,17.294
201908131219,17.294,17.294,17.279,17.279
201908131220,17.279,17.283,17.277,17.283
201908131221,17.283,17.284,17.279,17.281
201908131222,17.281,17.281,17.276,17.276
201908131223,17.276,17.281,17.274,17.276
201908131224,17.276,17.281,17.276,17.281
201908131225,17.281,17.286,17.281,17.286
201908131226,17.286,17.287,17.282,17.287
201908131227,17.287,17.291,17.287,17.291
201908131228,17.291,17.294,17.291,17.292
201908131229,17.292,17.293,17.288,17.289
201908131230,17.289,17.292,17.284,17.284
201908131231,17.284,17.284,17.276,17.277
201908131232,17.277,17.277,17.272,17.273
201908131233,17.274,17.279,17.272,17.277
201908131234,17.277,17.283,17.277,17.277
201908131235,17.277,17.282,17.277,17.282
201908131236,17.282,17.282,17.278,17.279
201908131237,17.277,17.279,17.277,17.278
201908131238,17.278,17.278,17.278,17.278
201908131239,17.278,17.278,17.277,17.278
201908131240,17.278,17.283,17.278,17.283
201908131241,17.283,17.283,17.277,17.278
201908131242,17.278,17.282,17.278,17.282
201908131243,17.282,17.283,17.281,17.282
201908131244,17.282,17.285,17.282,17.283
201908131245,17.283,17.283,17.278,17.283
201908131246,17.283,17.284,17.283,17.283
201908131247,17.283,17.284,17.283,17.284
201908131248,17.284,17.294,17.284,17.294
201908131249,17.294,17.294,17.293,17.294
201908131250,17.294,17.294,17.288,17.288
201908131251,17.288,17.291,17.287,17.287
201908131252,17.287,17.292,17.285,17.292
201908131253,17.293,17.294,17.293,17.293
201908131254,17.293,17.293,17.292,17.292
201908131255,17.292,17.293,17.292,17.293
201908131256,17.293,17.297,17.293,17.294
201908131257,17.294,17.297,17.293,17.293
201908131258,17.293,17.296,17.293,17.295
201908131259,17.295,17.301,17.293,17.297
201908131300,17.296,17.296,17.286,17.288
201908131301,17.288,17.288,17.285,17.288
201908131302,17.288,17.288,17.287,17.288
201908131303,17.288,17.29,17.288,17.288
201908131304,17.288,17.288,17.287,17.288
201908131305,17.288,17.288,17.287,17.288
201908131306,17.288,17.288,17.288,17.288
201908131307,17.288,17.288,17.286,17.287
201908131308,17.287,17.289,17.287,17.288
201908131309,17.288,17.292,17.288,17.292
201908131310,17.292,17.292,17.288,17.288
201908131311,17.288,17.292,17.288,17.288
201908131312,17.288,17.293,17.288,17.291
201908131313,17.291,17.292,17.288,17.288
201908131314,17.288,17.293,17.288,17.29
201908131315,17.29,17.296,17.29,17.296
201908131316,17.296,17.296,17.292,17.292
201908131317,17.292,17.293,17.29,17.293
201908131318,17.293,17.293,17.292,17.293
201908131319,17.293,17.293,17.293,17.293
201908131320,17.293,17.293,17.288,17.288
201908131321,17.288,17.293,17.288,17.293
201908131322,17.293,17.298,17.293,17.296
201908131323,17.296,17.298,17.296,17.297
201908131324,17.297,17.298,17.297,17.298
201908131325,17.298,17.298,17.297,17.298
201908131326,17.298,17.298,17.297,17.298
201908131327,17.298,17.298,17.297,17.297
201908131328,17.297,17.301,17.297,17.298
201908131329,17.298,17.298,17.297,17.297
201908131330,17.298,17.298,17.297,17.298
201908131331,17.298,17.298,17.296,17.296
201908131332,17.297,17.297,17.292,17.293
201908131333,17.293,17.293,17.292,17.293
201908131334,17.292,17.293,17.291,17.291
201908131335,17.291,17.292,17.291,17.291
201908131336,17.291,17.292,17.291,17.292
201908131337,17.292,17.292,17.291,17.292
201908131338,17.292,17.292,17.291,17.292
201908131339,17.292,17.293,17.291,17.292
201908131340,17.292,17.292,17.291,17.292
201908131341,17.292,17.292,17.287,17.288
201908131342,17.288,17.292,17.287,17.292
201908131343,17.291,17.291,17.287,17.287
201908131344,17.287,17.291,17.287,17.29
201908131345,17.29,17.291,17.288,17.29
201908131346,17.29,17.292,17.289,17.29
201908131347,17.29,17.297,17.289,17.296
201908131348,17.296,17.297,17.296,17.296
201908131349,17.296,17.297,17.296,17.297
201908131350,17.297,17.297,17.296,17.296
201908131351,17.296,17.297,17.295,17.297
201908131352,17.297,17.297,17.296,17.297
201908131353,17.297,17.297,17.297,17.297
201908131354,17.297,17.3,17.296,17.3
201908131355,17.3,17.3,17.298,17.3
201908131356,17.3,17.3,17.3,17.3
201908131357,17.3,17.3,17.297,17.297
201908131358,17.297,17.298,17.297,17.297
201908131359,17.297,17.297,17.296,17.297
201908131400,17.297,17.297,17.294,17.295
201908131401,17.295,17.295,17.292,17.292
201908131402,17.292,17.292,17.291,17.292
201908131403,17.292,17.292,17.291,17.292
201908131404,17.292,17.292,17.29,17.291
201908131405,17.291,17.291,17.287,17.291
201908131406,17.291,17.293,17.291,17.291
201908131407,17.291,17.292,17.291,17.292
201908131408,17.292,17.292,17.292,17.292
201908131409,17.292,17.296,17.292,17.294
201908131410,17.294,17.297,17.294,17.296
201908131411,17.296,17.297,17.285,17.287
201908131412,17.287,17.287,17.279,17.281
201908131413,17.281,17.282,17.276,17.278
201908131414,17.278,17.284,17.278,17.284
201908131415,17.284,17.284,17.284,17.284
201908131416,17.284,17.285,17.283,17.283
201908131417,17.284,17.286,17.283,17.286
201908131418,17.286,17.286,17.283,17.286
201908131419,17.286,17.286,17.285,17.286
201908131420,17.286,17.286,17.283,17.286
201908131421,17.286,17.286,17.284,17.286
201908131422,17.286,17.286,17.281,17.282
201908131423,17.282,17.286,17.281,17.286
201908131424,17.286,17.286,17.285,17.286
201908131425,17.286,17.286,17.285,17.285
201908131426,17.286,17.286,17.285,17.285
201908131427,17.286,17.286,17.285,17.286
201908131428,17.286,17.286,17.284,17.286
201908131429,17.286,17.286,17.285,17.286
201908131430,17.286,17.307,17.286,17.307
201908131431,17.307,17.313,17.306,17.312
201908131432,17.312,17.312,17.306,17.307
201908131433,17.307,17.313,17.304,17.312
201908131434,17.312,17.34,17.311,17.337
201908131435,17.337,17.343,17.328,17.336
201908131436,17.337,17.356,17.337,17.352
201908131437,17.352,17.356,17.345,17.349
201908131438,17.346,17.347,17.337,17.338
201908131439,17.338,17.344,17.333,17.342
201908131440,17.342,17.342,17.329,17.329
201908131441,17.329,17.34,17.329,17.34
201908131442,17.34,17.365,17.34,17.362
201908131443,17.364,17.37,17.356,17.368
201908131444,17.368,17.375,17.364,17.368
201908131445,17.368,17.368,17.351,17.351
201908131446,17.351,17.366,17.351,17.364
201908131447,17.364,17.365,17.358,17.358
201908131448,17.358,17.36,17.343,17.343
201908131449,17.343,17.353,17.337,17.349
201908131450,17.349,17.349,17.339,17.344
201908131451,17.344,17.349,17.337,17.341
201908131452,17.341,17.353,17.34,17.352
201908131453,17.352,17.357,17.347,17.35
201908131454,17.35,17.35,17.335,17.341
201908131455,17.341,17.347,17.335,17.342
201908131456,17.342,17.342,17.332,17.333
201908131457,17.333,17.337,17.332,17.336
201908131458,17.336,17.336,17.325,17.331
201908131459,17.33,17.336,17.325,17.335
201908131500,17.335,17.336,17.322,17.327
201908131501,17.327,17.337,17.326,17.335
201908131502,17.335,17.335,17.321,17.321
201908131503,17.321,17.321,17.3,17.307
201908131504,17.31,17.317,17.31,17.316
201908131505,17.317,17.328,17.314,17.328
201908131506,17.328,17.335,17.328,17.335
201908131507,17.335,17.35,17.334,17.35
201908131508,17.35,17.35,17.339,17.343
201908131509,17.343,17.351,17.343,17.344
201908131510,17.344,17.355,17.343,17.349
201908131511,17.349,17.349,17.336,17.339
201908131512,17.339,17.344,17.339,17.341
201908131513,17.34,17.343,17.336,17.343
201908131514,17.343,17.343,17.332,17.338
201908131515,17.338,17.338,17.321,17.324
201908131516,17.324,17.326,17.319,17.324
201908131517,17.324,17.331,17.322,17.331
201908131518,17.331,17.342,17.331,17.341
201908131519,17.341,17.344,17.339,17.34
201908131520,17.34,17.353,17.34,17.346
201908131521,17.345,17.353,17.344,17.347
201908131522,17.347,17.359,17.346,17.357
201908131523,17.357,17.368,17.354,17.367
201908131524,17.367,17.373,17.366,17.373
201908131525,17.372,17.377,17.367,17.376
201908131526,17.376,17.379,17.365,17.378
201908131527,17.378,17.383,17.37,17.382
201908131528,17.382,17.397,17.381,17.39
201908131529,17.39,17.391,17.374,17.374
201908131530,17.374,17.404,17.374,17.404
201908131531,17.404,17.404,17.391,17.395
201908131532,17.393,17.394,17.383,17.391
201908131533,17.389,17.396,17.389,17.395
201908131534,17.395,17.395,17.384,17.389
201908131535,17.389,17.389,17.374,17.374
201908131536,17.373,17.374,17.367,17.371
201908131537,17.369,17.378,17.369,17.374
201908131538,17.374,17.384,17.374,17.379
201908131539,17.382,17.396,17.378,17.393
201908131540,17.395,17.395,17.388,17.388
201908131541,17.388,17.393,17.388,17.392
201908131542,17.393,17.4,17.393,17.399
201908131543,17.401,17.405,17.397,17.399
201908131544,17.399,17.399,17.394,17.398
201908131545,17.397,17.416,17.397,17.409
201908131546,17.409,17.412,17.403,17.409
201908131547,17.409,17.409,17.398,17.398
201908131548,17.397,17.4,17.394,17.398
201908131549,17.398,17.41,17.398,17.409
201908131550,17.409,17.409,17.403,17.406
201908131551,17.405,17.405,17.398,17.398
201908131552,17.398,17.402,17.393,17.394
201908131553,17.394,17.404,17.39,17.403
201908131554,17.403,17.414,17.403,17.411
201908131555,17.411,17.411,17.4,17.4
201908131556,17.4,17.403,17.392,17.393
201908131557,17.393,17.397,17.392,17.397
201908131558,17.397,17.4,17.392,17.392
201908131559,17.392,17.393,17.384,17.384
201908131600,17.383,17.393,17.382,17.391
201908131601,17.391,17.394,17.383,17.389
201908131602,17.389,17.389,17.38,17.38
201908131603,17.38,17.38,17.37,17.373
201908131604,17.373,17.373,17.361,17.364
201908131605,17.364,17.373,17.361,17.368
201908131606,17.369,17.376,17.368,17.374
201908131607,17.373,17.377,17.369,17.371
201908131608,17.371,17.371,17.358,17.364
201908131609,17.364,17.369,17.362,17.363
201908131610,17.363,17.367,17.361,17.363
201908131611,17.361,17.363,17.359,17.361
201908131612,17.361,17.363,17.358,17.363
201908131613,17.363,17.364,17.357,17.358
201908131614,17.359,17.361,17.358,17.361
201908131615,17.361,17.362,17.357,17.358
201908131616,17.358,17.359,17.354,17.356
201908131617,17.356,17.36,17.354,17.358
201908131618,17.358,17.36,17.356,17.358
201908131619,17.358,17.358,17.351,17.351
201908131620,17.351,17.354,17.348,17.352
201908131621,17.356,17.357,17.351,17.356
201908131622,17.356,17.359,17.355,17.357
201908131623,17.357,17.365,17.355,17.363
201908131624,17.363,17.366,17.361,17.365
201908131625,17.365,17.39,17.365,17.389
201908131626,17.389,17.398,17.389,17.389
201908131627,17.389,17.393,17.386,17.389
201908131628,17.389,17.389,17.383,17.384
201908131629,17.384,17.387,17.382,17.382
201908131630,17.382,17.387,17.381,17.383
201908131631,17.383,17.383,17.378,17.381
201908131632,17.381,17.387,17.381,17.384
201908131633,17.384,17.387,17.381,17.382
201908131634,17.382,17.387,17.382,17.387
201908131635,17.387,17.408,17.387,17.408
201908131636,17.408,17.408,17.402,17.408
201908131637,17.408,17.41,17.408,17.408
201908131638,17.408,17.413,17.407,17.412
201908131639,17.412,17.413,17.407,17.408
201908131640,17.408,17.409,17.403,17.407
201908131641,17.408,17.412,17.406,17.412
201908131642,17.412,17.425,17.409,17.417
201908131643,17.419,17.422,17.416,17.417
201908131644,17.417,17.42,17.414,17.414
201908131645,17.414,17.433,17.41,17.433
201908131646,17.433,17.434,17.426,17.432
201908131647,17.432,17.441,17.43,17.432
201908131648,17.433,17.44,17.432,17.437
201908131649,17.435,17.438,17.432,17.435
201908131650,17.435,17.437,17.427,17.437
201908131651,17.437,17.438,17.432,17.434
201908131652,17.432,17.443,17.432,17.438
201908131653,17.438,17.443,17.437,17.441
201908131654,17.441,17.447,17.441,17.442
201908131655,17.445,17.446,17.44,17.442
201908131656,17.443,17.452,17.442,17.448
201908131657,17.448,17.448,17.438,17.441
201908131658,17.44,17.442,17.435,17.441
201908131659,17.441,17.442,17.433,17.434
201908131700,17.434,17.437,17.426,17.43
201908131701,17.43,17.432,17.424,17.424
201908131702,17.424,17.425,17.413,17.415
201908131703,17.415,17.416,17.408,17.411
201908131704,17.411,17.411,17.401,17.401
201908131705,17.401,17.426,17.401,17.422
201908131706,17.422,17.423,17.413,17.419
201908131707,17.419,17.423,17.416,17.42
201908131708,17.42,17.428,17.42,17.426
201908131709,17.426,17.429,17.424,17.426
201908131710,17.428,17.429,17.424,17.428
201908131711,17.428,17.429,17.422,17.422
201908131712,17.422,17.422,17.415,17.422
201908131713,17.422,17.43,17.42,17.43
201908131714,17.43,17.43,17.417,17.417
201908131715,17.417,17.423,17.417,17.417
201908131716,17.417,17.417,17.414,17.416
201908131717,17.416,17.417,17.409,17.409
201908131718,17.409,17.411,17.403,17.404
201908131719,17.404,17.41,17.404,17.405
201908131720,17.405,17.407,17.403,17.405
201908131721,17.405,17.408,17.398,17.407
201908131722,17.406,17.406,17.397,17.403
201908131723,17.403,17.408,17.397,17.397
201908131724,17.397,17.398,17.39,17.392
201908131725,17.393,17.394,17.389,17.389
201908131726,17.39,17.394,17.39,17.393
201908131727,17.393,17.4,17.393,17.398
201908131728,17.398,17.401,17.388,17.388
201908131729,17.388,17.398,17.387,17.392
201908131730,17.392,17.41,17.39,17.41
201908131731,17.409,17.411,17.399,17.401
201908131732,17.402,17.405,17.397,17.399
201908131733,17.399,17.401,17.395,17.399
201908131734,17.399,17.406,17.398,17.401
201908131735,17.401,17.401,17.395,17.399
201908131736,17.399,17.407,17.399,17.407
201908131737,17.407,17.413,17.403,17.409
201908131738,17.409,17.409,17.405,17.405
201908131739,17.405,17.406,17.391,17.396
201908131740,17.396,17.397,17.384,17.39
201908131741,17.39,17.39,17.378,17.38
201908131742,17.38,17.385,17.379,17.384
201908131743,17.384,17.386,17.383,17.385
201908131744,17.386,17.392,17.385,17.391
201908131745,17.391,17.397,17.39,17.392
201908131746,17.392,17.396,17.389,17.396
201908131747,17.396,17.396,17.389,17.39
201908131748,17.391,17.391,17.385,17.387
201908131749,17.387,17.39,17.386,17.387
201908131750,17.387,17.391,17.386,17.386
201908131751,17.386,17.395,17.386,17.391
201908131752,17.393,17.399,17.392,17.396
201908131753,17.397,17.397,17.391,17.391
201908131754,17.391,17.391,17.386,17.388
201908131755,17.388,17.389,17.382,17.382
201908131756,17.382,17.396,17.382,17.396
201908131757,17.395,17.401,17.395,17.395
201908131758,17.395,17.396,17.393,17.394
201908131759,17.394,17.399,17.393,17.399
201908131800,17.399,17.421,17.399,17.419
201908131801,17.419,17.422,17.419,17.42
201908131802,17.421,17.424,17.42,17.422
201908131803,17.421,17.424,17.421,17.421
201908131804,17.421,17.429,17.421,17.424
201908131805,17.423,17.427,17.422,17.423
201908131806,17.423,17.426,17.422,17.423
201908131807,17.423,17.431,17.418,17.429
201908131808,17.429,17.434,17.427,17.431
201908131809,17.431,17.433,17.429,17.432
201908131810,17.43,17.444,17.43,17.443
201908131811,17.443,17.444,17.438,17.444
201908131812,17.445,17.457,17.443,17.453
201908131813,17.455,17.458,17.454,17.457
201908131814,17.457,17.458,17.453,17.454
201908131815,17.454,17.46,17.453,17.459
201908131816,17.459,17.459,17.455,17.458
201908131817,17.458,17.458,17.453,17.456
201908131818,17.456,17.46,17.455,17.457
201908131819,17.457,17.459,17.45,17.45
201908131820,17.451,17.452,17.445,17.446
201908131821,17.446,17.446,17.439,17.442
201908131822,17.442,17.444,17.436,17.439
201908131823,17.439,17.449,17.439,17.449
201908131824,17.449,17.459,17.449,17.457
201908131825,17.457,17.459,17.452,17.458
201908131826,17.458,17.458,17.438,17.439
201908131827,17.438,17.443,17.438,17.442
201908131828,17.442,17.443,17.44,17.443
201908131829,17.443,17.443,17.435,17.437
201908131830,17.436,17.438,17.421,17.423
201908131831,17.423,17.423,17.417,17.421
201908131832,17.421,17.428,17.414,17.422
201908131833,17.422,17.429,17.421,17.426
201908131834,17.426,17.431,17.421,17.423
201908131835,17.421,17.424,17.418,17.421
201908131836,17.421,17.427,17.42,17.426
201908131837,17.426,17.429,17.423,17.426
201908131838,17.426,17.438,17.426,17.437
201908131839,17.438,17.441,17.436,17.44
201908131840,17.44,17.44,17.432,17.436
201908131841,17.436,17.44,17.431,17.439
201908131842,17.438,17.438,17.433,17.436
201908131843,17.436,17.449,17.433,17.448
201908131844,17.448,17.455,17.443,17.455
201908131845,17.455,17.455,17.447,17.448
201908131846,17.448,17.453,17.442,17.453
201908131847,17.452,17.46,17.451,17.455
201908131848,17.455,17.455,17.441,17.444
201908131849,17.444,17.449,17.442,17.445
201908131850,17.444,17.445,17.438,17.443
201908131851,17.443,17.451,17.44,17.451
201908131852,17.451,17.46,17.45,17.454
201908131853,17.454,17.484,17.45,17.479
201908131854,17.476,17.489,17.474,17.486
201908131855,17.486,17.489,17.484,17.485
201908131856,17.486,17.486,17.475,17.475
201908131857,17.476,17.483,17.47,17.482
201908131858,17.482,17.482,17.473,17.476
201908131859,17.476,17.487,17.474,17.475
201908131900,17.475,17.484,17.473,17.483
201908131901,17.483,17.502,17.482,17.498
201908131902,17.498,17.499,17.487,17.488
201908131903,17.488,17.493,17.487,17.489
201908131904,17.492,17.494,17.486,17.487
201908131905,17.486,17.489,17.482,17.487
201908131906,17.487,17.488,17.477,17.479
201908131907,17.48,17.497,17.48,17.496
201908131908,17.496,17.497,17.492,17.493
201908131909,17.492,17.493,17.483,17.49
201908131910,17.49,17.492,17.482,17.487
201908131911,17.487,17.492,17.487,17.487
201908131912,17.487,17.489,17.482,17.484
201908131913,17.485,17.488,17.482,17.482
201908131914,17.482,17.497,17.482,17.497
201908131915,17.496,17.499,17.495,17.498
201908131916,17.498,17.5,17.493,17.497
201908131917,17.497,17.503,17.494,17.502
201908131918,17.502,17.502,17.496,17.502
201908131919,17.502,17.502,17.496,17.497
201908131920,17.497,17.502,17.487,17.492
201908131921,17.492,17.493,17.485,17.486
201908131922,17.486,17.487,17.481,17.484
201908131923,17.484,17.49,17.482,17.49
201908131924,17.49,17.49,17.486,17.487
201908131925,17.486,17.492,17.486,17.492
201908131926,17.492,17.493,17.486,17.486
201908131927,17.486,17.492,17.486,17.487
201908131928,17.487,17.494,17.487,17.491
201908131929,17.491,17.491,17.486,17.486
201908131930,17.486,17.487,17.477,17.477
201908131931,17.477,17.478,17.476,17.476
201908131932,17.476,17.476,17.472,17.472
201908131933,17.472,17.472,17.466,17.467
201908131934,17.467,17.468,17.462,17.467
201908131935,17.467,17.472,17.467,17.467
201908131936,17.467,17.467,17.462,17.466
201908131937,17.467,17.471,17.465,17.466
201908131938,17.466,17.466,17.45,17.455
201908131939,17.455,17.457,17.451,17.451
201908131940,17.45,17.455,17.447,17.455
201908131941,17.455,17.46,17.453,17.457
201908131942,17.457,17.458,17.455,17.455
201908131943,17.455,17.455,17.445,17.447
201908131944,17.447,17.456,17.446,17.454
201908131945,17.455,17.458,17.447,17.451
201908131946,17.451,17.451,17.446,17.449
201908131947,17.448,17.459,17.448,17.456
201908131948,17.456,17.463,17.456,17.461
201908131949,17.461,17.464,17.455,17.455
201908131950,17.455,17.459,17.452,17.452
201908131951,17.452,17.454,17.445,17.446
201908131952,17.446,17.446,17.44,17.44
201908131953,17.44,17.457,17.44,17.456
201908131954,17.456,17.46,17.453,17.46
201908131955,17.46,17.46,17.451,17.455
201908131956,17.455,17.456,17.451,17.452
201908131957,17.452,17.452,17.442,17.444
201908131958,17.449,17.449,17.44,17.441
201908131959,17.441,17.446,17.436,17.439
201908132000,17.439,17.454,17.437,17.447
201908132001,17.447,17.459,17.446,17.451
201908132002,17.45,17.451,17.441,17.442
201908132003,17.441,17.446,17.436,17.437
201908132004,17.438,17.442,17.426,17.426
201908132005,17.426,17.432,17.426,17.426
201908132006,17.426,17.429,17.425,17.426
201908132007,17.426,17.431,17.425,17.43
201908132008,17.43,17.435,17.425,17.434
201908132009,17.432,17.438,17.429,17.438
201908132010,17.438,17.447,17.436,17.446
201908132011,17.446,17.447,17.441,17.445
201908132012,17.445,17.445,17.435,17.436
201908132013,17.436,17.437,17.435,17.436
201908132014,17.436,17.436,17.398,17.402
201908132015,17.402,17.418,17.402,17.416
201908132016,17.416,17.418,17.415,17.416
201908132017,17.416,17.417,17.406,17.406
201908132018,17.407,17.407,17.401,17.401
201908132019,17.401,17.404,17.397,17.397
201908132020,17.397,17.402,17.397,17.402
201908132021,17.402,17.402,17.399,17.401
201908132022,17.401,17.401,17.396,17.401
201908132023,17.401,17.403,17.401,17.403
201908132024,17.402,17.41,17.4,17.41
201908132025,17.41,17.416,17.41,17.416
201908132026,17.416,17.417,17.411,17.415
201908132027,17.415,17.416,17.411,17.412
201908132028,17.412,17.416,17.411,17.416
201908132029,17.416,17.425,17.416,17.421
201908132030,17.42,17.426,17.42,17.426
201908132031,17.426,17.426,17.419,17.421
201908132032,17.421,17.426,17.421,17.426
201908132033,17.425,17.444,17.424,17.442
201908132034,17.441,17.446,17.44,17.446
201908132035,17.446,17.451,17.442,17.451
201908132036,17.451,17.457,17.45,17.454
201908132037,17.454,17.454,17.447,17.449
201908132038,17.449,17.45,17.445,17.449
201908132039,17.449,17.463,17.449,17.459
201908132040,17.46,17.465,17.454,17.465
201908132041,17.466,17.468,17.458,17.46
201908132042,17.459,17.461,17.457,17.457
201908132043,17.457,17.457,17.444,17.444
201908132044,17.444,17.448,17.43,17.432
201908132045,17.433,17.438,17.433,17.437
201908132046,17.437,17.444,17.435,17.437
201908132047,17.437,17.438,17.436,17.437
201908132048,17.437,17.442,17.432,17.44
201908132049,17.44,17.447,17.438,17.446
201908132050,17.446,17.448,17.428,17.432
201908132051,17.432,17.433,17.429,17.43
201908132052,17.43,17.43,17.423,17.425
201908132053,17.424,17.428,17.423,17.428
201908132054,17.428,17.428,17.427,17.427
201908132055,17.427,17.428,17.423,17.423
201908132056,17.423,17.427,17.418,17.423
201908132057,17.423,17.427,17.423,17.426
201908132058,17.427,17.441,17.427,17.439
201908132059,17.439,17.451,17.439,17.445
201908132100,17.445,17.446,17.416,17.427
201908132101,17.427,17.44,17.425,17.437
201908132102,17.436,17.436,17.428,17.433
201908132103,17.433,17.433,17.423,17.433
201908132104,17.433,17.433,17.416,17.421
201908132105,17.421,17.427,17.415,17.423
201908132106,17.423,17.436,17.423,17.436
201908132107,17.436,17.438,17.428,17.438
201908132108,17.438,17.442,17.436,17.438
201908132109,17.438,17.442,17.434,17.439
201908132110,17.438,17.442,17.437,17.437
201908132111,17.438,17.441,17.436,17.437
201908132112,17.437,17.438,17.429,17.438
201908132113,17.438,17.438,17.432,17.433
201908132114,17.433,17.443,17.432,17.443
201908132115,17.443,17.443,17.423,17.423
201908132116,17.423,17.426,17.419,17.422
201908132117,17.422,17.427,17.415,17.417
201908132118,17.418,17.422,17.415,17.418
201908132119,17.419,17.422,17.414,17.414
201908132120,17.413,17.414,17.405,17.413
201908132121,17.413,17.427,17.408,17.412
201908132122,17.412,17.417,17.395,17.396
201908132123,17.395,17.397,17.393,17.395
201908132124,17.392,17.395,17.386,17.389
201908132125,17.389,17.389,17.344,17.346
201908132126,17.346,17.366,17.346,17.366
201908132127,17.366,17.371,17.365,17.366
201908132128,17.366,17.368,17.361,17.364
201908132129,17.364,17.374,17.364,17.371
201908132130,17.371,17.371,17.337,17.358
201908132131,17.358,17.367,17.342,17.364
201908132132,17.364,17.364,17.348,17.349
201908132133,17.348,17.357,17.337,17.356
201908132134,17.356,17.356,17.317,17.317
201908132135,17.317,17.319,17.274,17.279
201908132136,17.279,17.317,17.273,17.317
201908132137,17.317,17.324,17.312,17.32
201908132138,17.32,17.32,17.302,17.32
201908132139,17.322,17.328,17.308,17.325
201908132140,17.325,17.343,17.322,17.343
201908132141,17.342,17.352,17.339,17.348
201908132142,17.348,17.362,17.348,17.358
201908132143,17.358,17.369,17.358,17.368
201908132144,17.368,17.373,17.36,17.36
201908132145,17.359,17.368,17.358,17.362
201908132146,17.362,17.372,17.36,17.364
201908132147,17.364,17.374,17.359,17.373
201908132148,17.374,17.378,17.371,17.377
201908132149,17.377,17.382,17.372,17.381
201908132150,17.381,17.388,17.38,17.382
201908132151,17.38,17.38,17.372,17.373
201908132152,17.373,17.373,17.361,17.361
201908132153,17.361,17.361,17.337,17.343
201908132154,17.346,17.347,17.337,17.341
201908132155,17.341,17.357,17.341,17.356
201908132156,17.356,17.358,17.352,17.353
201908132157,17.353,17.353,17.342,17.343
201908132158,17.342,17.342,17.327,17.328
201908132159,17.328,17.329,17.306,17.313
201908132200,17.313,17.323,17.307,17.323
201908132201,17.323,17.338,17.312,17.312
201908132202,17.312,17.337,17.312,17.332
201908132203,17.332,17.346,17.329,17.335
201908132204,17.331,17.335,17.324,17.325
201908132205,17.325,17.34,17.322,17.34
201908132206,17.34,17.353,17.339,17.344
201908132207,17.344,17.349,17.333,17.335
201908132208,17.334,17.334,17.306,17.31
201908132209,17.31,17.321,17.31,17.313
201908132210,17.315,17.322,17.312,17.322
201908132211,17.322,17.322,17.294,17.295
201908132212,17.295,17.305,17.294,17.297
201908132213,17.296,17.308,17.296,17.304
201908132214,17.304,17.314,17.301,17.31
201908132215,17.31,17.315,17.296,17.303
201908132216,17.303,17.303,17.28,17.281
201908132217,17.281,17.294,17.281,17.287
201908132218,17.287,17.287,17.272,17.274
201908132219,17.274,17.295,17.273,17.292
201908132220,17.292,17.296,17.29,17.292
201908132221,17.292,17.303,17.29,17.299
201908132222,17.299,17.303,17.296,17.296
201908132223,17.296,17.3,17.291,17.291
201908132224,17.291,17.296,17.283,17.286
201908132225,17.286,17.291,17.282,17.291
201908132226,17.291,17.291,17.272,17.275
201908132227,17.275,17.282,17.271,17.28
201908132228,17.28,17.291,17.279,17.283
201908132229,17.282,17.29,17.281,17.286
201908132230,17.286,17.292,17.274,17.276
201908132231,17.276,17.281,17.257,17.257
201908132232,17.256,17.27,17.253,17.254
201908132233,17.255,17.256,17.234,17.234
201908132234,17.234,17.251,17.219,17.219
201908132235,17.218,17.224,17.192,17.224
201908132236,17.224,17.224,17.165,17.172
201908132237,17.172,17.181,17.131,17.132
201908132238,17.133,17.187,17.133,17.178
201908132239,17.179,17.197,17.163,17.187
201908132240,17.187,17.207,17.171,17.202
201908132241,17.202,17.222,17.197,17.217
201908132242,17.217,17.243,17.216,17.241
201908132243,17.241,17.241,17.221,17.237
201908132244,17.237,17.246,17.227,17.231
201908132245,17.23,17.237,17.206,17.206
201908132246,17.206,17.237,17.184,17.184
201908132247,17.183,17.196,17.178,17.187
201908132248,17.188,17.201,17.137,17.137
201908132249,17.137,17.138,17.052,17.085
201908132250,17.085,17.141,17.085,17.126
201908132251,17.126,17.126,17.026,17.039
201908132252,17.041,17.063,16.988,17.063
201908132253,17.062,17.064,16.991,16.999
201908132254,17.002,17.016,16.901,16.937
201908132255,16.939,16.944,16.723,16.725
201908132256,16.725,16.725,16.531,16.664
201908132257,16.663,16.771,16.652,16.754
201908132258,16.757,16.849,16.757,16.795
201908132259,16.794,16.794,16.68,16.684
201908132300,16.682,16.808,16.667,16.794
201908132301,16.794,16.869,16.773,16.854
201908132302,16.853,16.87,16.833,16.833
201908132303,16.833,16.911,16.826,16.886
201908132304,16.882,16.907,16.868,16.902
201908132305,16.903,16.929,16.887,16.9
201908132306,16.895,16.906,16.886,16.893
201908132307,16.892,16.908,16.858,16.859
201908132308,16.854,16.856,16.829,16.83
201908132309,16.83,16.875,16.825,16.867
201908132310,16.867,16.873,16.829,16.852
201908132311,16.852,16.857,16.828,16.842
201908132312,16.842,16.871,16.841,16.871
201908132313,16.871,16.871,16.846,16.857
201908132314,16.857,16.867,16.841,16.852
201908132315,16.853,16.853,16.805,16.805
201908132316,16.805,16.813,16.767,16.77
201908132317,16.772,16.838,16.772,16.816
201908132318,16.819,16.848,16.819,16.832
201908132319,16.829,16.853,16.822,16.846
201908132320,16.847,16.86,16.837,16.848
201908132321,16.848,16.862,16.82,16.862
201908132322,16.861,16.868,16.842,16.859
201908132323,16.86,16.863,16.847,16.847
201908132324,16.85,16.877,16.85,16.872
201908132325,16.872,16.878,16.857,16.863
201908132326,16.864,16.874,16.855,16.859
201908132327,16.857,16.868,16.846,16.846
201908132328,16.846,16.874,16.846,16.862
201908132329,16.862,16.874,16.854,16.874
201908132330,16.876,16.894,16.873,16.877
201908132331,16.877,16.877,16.834,16.834
201908132332,16.834,16.838,16.789,16.799
201908132333,16.798,16.852,16.798,16.852
201908132334,16.852,16.88,16.844,16.877
201908132335,16.877,16.877,16.853,16.874
201908132336,16.874,16.876,16.858,16.874
201908132337,16.871,16.901,16.869,16.893
201908132338,16.892,16.902,16.89,16.897
201908132339,16.897,16.904,16.892,16.897
201908132340,16.896,16.92,16.892,16.918
201908132341,16.917,16.95,16.912,16.934
201908132342,16.931,16.95,16.926,16.927
201908132343,16.926,16.946,16.911,16.946
201908132344,16.95,16.952,16.93,16.941
201908132345,16.941,16.942,16.907,16.928
201908132346,16.923,16.924,16.897,16.899
201908132347,16.899,16.927,16.899,16.922
201908132348,16.922,16.932,16.907,16.929
201908132349,16.928,16.948,16.928,16.944
201908132350,16.944,16.981,16.943,16.976
201908132351,16.975,16.98,16.962,16.97
201908132352,16.97,16.973,16.955,16.964
201908132353,16.964,16.982,16.96,16.975
201908132354,16.975,16.975,16.964,16.974
201908132355,16.974,16.983,16.96,16.967
201908132356,16.967,16.97,16.952,16.956
201908132357,16.956,16.964,16.954,16.959
201908132358,16.959,16.991,16.958,16.978
201908132359,16.977,17.01,16.973,17.001
201908140000,17.001,17.013,16.996,17.009
201908140001,17.009,17.009,16.976,16.977
201908140002,16.977,16.982,16.961,16.971
201908140003,16.97,16.982,16.966,16.97
201908140004,16.97,16.979,16.953,16.954
201908140005,16.954,16.969,16.954,16.955
201908140006,16.956,16.974,16.956,16.967
201908140007,16.967,16.967,16.952,16.963
201908140008,16.962,16.988,16.962,16.986
201908140009,16.986,17.012,16.986,16.996
201908140010,16.994,17.008,16.994,17.001
201908140011,17.002,17.011,16.999,17.004
201908140012,17.004,17.007,16.991,16.995
201908140013,16.995,16.995,16.962,16.968
201908140014,16.968,16.975,16.958,16.975
201908140015,16.979,16.991,16.966,16.972
201908140016,16.972,16.983,16.967,16.981
201908140017,16.981,16.985,16.966,16.972
201908140018,16.972,16.995,16.967,16.991
201908140019,16.99,17.004,16.984,16.999
201908140020,16.997,17.011,16.996,17.001
201908140021,17,17.011,16.993,17.01
201908140022,17.011,17.033,17.011,17.033
201908140023,17.032,17.032,17.02,17.023
201908140024,17.022,17.022,17.004,17.005
201908140025,17.005,17.015,16.983,17.014
201908140026,17.016,17.026,17.007,17.015
201908140027,17.014,17.014,17.001,17.005
201908140028,17.007,17.009,16.996,17.007
201908140029,17.006,17.019,17.006,17.012
201908140030,17.012,17.017,16.992,16.992
201908140031,16.992,16.993,16.983,16.991
201908140032,16.991,16.997,16.991,16.996
201908140033,16.996,17.01,16.996,17.003
201908140034,17.003,17.01,16.999,17.01
201908140035,17.01,17.01,17.001,17.006
201908140036,17.006,17.014,17.004,17.014
201908140037,17.014,17.014,16.997,17
201908140038,17.001,17.006,16.992,16.992
201908140039,16.992,16.994,16.983,16.99
201908140040,16.99,16.99,16.967,16.97
201908140041,16.97,16.984,16.965,16.983
201908140042,16.983,16.995,16.975,16.99
201908140043,16.99,17.01,16.988,16.999
201908140044,16.997,17.001,16.979,16.98
201908140045,16.981,16.987,16.979,16.986
201908140046,16.986,16.99,16.972,16.989
201908140047,16.988,17.002,16.984,17.001
201908140048,17.001,17.001,16.981,16.989
201908140049,16.989,16.995,16.981,16.985
201908140050,16.985,16.985,16.969,16.974
201908140051,16.975,16.989,16.974,16.985
201908140052,16.985,16.99,16.976,16.981
201908140053,16.98,16.998,16.98,16.995
201908140054,16.993,16.998,16.988,16.996
201908140055,16.996,16.998,16.981,16.995
201908140056,16.995,17.008,16.99,17.006
201908140057,17.007,17.007,16.989,16.997
201908140058,16.997,17.002,16.99,17.001
201908140059,17.001,17.005,16.996,17.002
201908140100,17.002,17.005,16.989,16.992
201908140101,16.992,16.996,16.987,16.991
201908140102,16.991,16.992,16.982,16.985
201908140103,16.986,16.998,16.985,16.993
201908140104,16.993,16.999,16.991,16.997
201908140105,16.999,17.008,16.996,16.997
201908140106,16.997,17.01,16.996,17.01
201908140107,17.01,17.01,16.997,16.998
201908140108,16.998,17.002,16.986,16.99
201908140109,16.99,16.993,16.989,16.991
201908140110,16.991,16.997,16.989,16.99
201908140111,16.99,16.991,16.985,16.987
201908140112,16.987,16.997,16.986,16.992
201908140113,16.992,17.005,16.991,17.003
201908140114,17.002,17.003,16.993,16.994
201908140115,16.994,16.994,16.985,16.985
201908140116,16.985,16.991,16.984,16.991
201908140117,16.991,16.993,16.984,16.986
201908140118,16.986,16.991,16.985,16.988
201908140119,16.988,17.005,16.988,17.002
201908140120,17.002,17.003,16.992,16.993
201908140121,16.991,16.991,16.984,16.984
201908140122,16.985,16.992,16.984,16.985
201908140123,16.985,16.989,16.984,16.987
201908140124,16.986,16.989,16.983,16.988
201908140125,16.988,16.992,16.983,16.984
201908140126,16.984,16.995,16.98,16.995
201908140127,16.995,16.997,16.986,16.995
201908140128,16.995,16.996,16.983,16.986
201908140129,16.986,16.987,16.982,16.983
201908140130,16.982,16.984,16.958,16.961
201908140131,16.961,16.961,16.928,16.933
201908140132,16.934,16.947,16.934,16.936
201908140133,16.936,16.937,16.926,16.936
201908140134,16.936,16.939,16.933,16.936
201908140135,16.937,16.941,16.935,16.937
201908140136,16.936,16.966,16.936,16.962
201908140137,16.961,16.963,16.956,16.956
201908140138,16.958,16.972,16.958,16.971
201908140139,16.971,16.974,16.966,16.966
201908140140,16.965,16.968,16.957,16.958
201908140141,16.956,16.959,16.953,16.954
201908140142,16.953,16.957,16.952,16.953
201908140143,16.953,16.974,16.952,16.974
201908140144,16.974,16.983,16.96,16.96
201908140145,16.96,16.982,16.96,16.978
201908140146,16.978,16.984,16.976,16.984
201908140147,16.984,16.985,16.976,16.98
201908140148,16.98,16.98,16.975,16.975
201908140149,16.975,16.986,16.975,16.978
201908140150,16.978,16.988,16.978,16.981
201908140151,16.981,16.984,16.977,16.981
201908140152,16.985,16.99,16.982,16.99
201908140153,16.99,16.99,16.984,16.99
201908140154,16.988,16.991,16.983,16.986
201908140155,16.985,16.986,16.982,16.984
201908140156,16.984,16.984,16.973,16.98
201908140157,16.98,16.981,16.976,16.977
201908140158,16.977,16.986,16.976,16.982
201908140159,16.982,16.986,16.982,16.986
201908140200,16.986,16.991,16.985,16.991
201908140201,16.991,16.992,16.986,16.988
201908140202,16.988,16.994,16.986,16.992
201908140203,16.991,16.994,16.986,16.988
201908140204,16.988,16.991,16.983,16.983
201908140205,16.983,16.983,16.971,16.973
201908140206,16.973,16.976,16.973,16.973
201908140207,16.973,16.973,16.971,16.972
201908140208,16.973,16.973,16.946,16.946
201908140209,16.947,16.951,16.941,16.945
201908140210,16.945,16.948,16.94,16.942
201908140211,16.942,16.952,16.94,16.951
201908140212,16.951,16.954,16.943,16.943
201908140213,16.943,16.946,16.941,16.944
201908140214,16.943,16.947,16.938,16.938
201908140215,16.938,16.945,16.911,16.911
201908140216,16.912,16.931,16.911,16.928
201908140217,16.927,16.991,16.922,16.991
201908140218,16.992,17.014,16.975,17.01
201908140219,17.01,17.01,16.983,17.002
201908140220,17.003,17.023,17.003,17.02
201908140221,17.02,17.022,16.999,17.001
201908140222,17.001,17.005,16.983,16.998
201908140223,16.999,17.009,16.999,17.003
201908140224,17.004,17.008,17,17.004
201908140225,17.005,17.009,16.997,16.997
201908140226,16.997,17,16.993,16.994
201908140227,16.991,16.991,16.98,16.98
201908140228,16.98,16.989,16.972,16.989
201908140229,16.99,16.991,16.977,16.984
201908140230,16.984,17,16.984,16.992
201908140231,16.993,16.993,16.98,16.98
201908140232,16.98,16.984,16.975,16.984
201908140233,16.984,16.984,16.978,16.978
201908140234,16.978,16.989,16.978,16.989
201908140235,16.989,16.99,16.975,16.976
201908140236,16.976,16.98,16.965,16.966
201908140237,16.966,16.976,16.965,16.975
201908140238,16.975,16.985,16.974,16.982
201908140239,16.983,16.988,16.979,16.985
201908140240,16.985,16.988,16.979,16.98
201908140241,16.98,16.99,16.98,16.99
201908140242,16.99,16.998,16.985,16.986
201908140243,16.988,16.989,16.982,16.983
201908140244,16.983,16.983,16.979,16.979
201908140245,16.979,16.983,16.974,16.979
201908140246,16.979,16.984,16.977,16.977
201908140247,16.977,16.979,16.969,16.973
201908140248,16.973,16.974,16.955,16.955
201908140249,16.957,16.963,16.95,16.96
201908140250,16.963,16.969,16.954,16.956
201908140251,16.958,16.964,16.958,16.964
201908140252,16.964,16.966,16.959,16.963
201908140253,16.964,16.964,16.96,16.964
201908140254,16.962,16.962,16.954,16.956
201908140255,16.955,16.966,16.949,16.949
201908140256,16.949,16.951,16.943,16.945
201908140257,16.945,16.949,16.945,16.947
201908140258,16.947,16.953,16.947,16.951
201908140259,16.951,16.961,16.951,16.961
201908140300,16.961,16.966,16.955,16.955
201908140301,16.955,16.965,16.955,16.965
201908140302,16.965,16.965,16.956,16.959
201908140303,16.959,16.96,16.951,16.955
201908140304,16.955,16.955,16.949,16.949
201908140305,16.949,16.959,16.946,16.958
201908140306,16.959,16.959,16.955,16.958
201908140307,16.958,16.96,16.954,16.954
201908140308,16.954,16.958,16.95,16.95
201908140309,16.953,16.958,16.953,16.958
201908140310,16.958,16.959,16.95,16.95
201908140311,16.95,16.953,16.945,16.945
201908140312,16.945,16.952,16.943,16.949
201908140313,16.948,16.951,16.946,16.949
201908140314,16.949,16.955,16.945,16.948
201908140315,16.949,16.949,16.938,16.938
201908140316,16.938,16.941,16.929,16.929
201908140317,16.929,16.932,16.923,16.929
201908140318,16.929,16.931,16.916,16.918
201908140319,16.917,16.93,16.916,16.927
201908140320,16.927,16.93,16.92,16.929
201908140321,16.929,16.934,16.926,16.929
201908140322,16.929,16.934,16.926,16.932
201908140323,16.932,16.939,16.932,16.939
201908140324,16.939,16.949,16.937,16.942
201908140325,16.942,16.944,16.937,16.938
201908140326,16.938,16.944,16.938,16.94
201908140327,16.94,16.945,16.937,16.942
201908140328,16.941,16.941,16.931,16.935
201908140329,16.936,16.94,16.93,16.932
201908140330,16.932,16.937,16.929,16.932
201908140331,16.932,16.948,16.931,16.947
201908140332,16.947,16.955,16.937,16.939
201908140333,16.939,16.943,16.935,16.942
201908140334,16.939,16.948,16.936,16.937
201908140335,16.937,16.942,16.937,16.94
201908140336,16.94,16.943,16.931,16.933
201908140337,16.933,16.935,16.928,16.93
201908140338,16.93,16.942,16.93,16.935
201908140339,16.937,16.939,16.935,16.939
201908140340,16.939,16.944,16.935,16.935
201908140341,16.936,16.94,16.935,16.94
201908140342,16.94,16.944,16.937,16.942
201908140343,16.942,16.944,16.94,16.94
201908140344,16.94,16.945,16.94,16.945
201908140345,16.945,16.951,16.943,16.947
201908140346,16.947,16.95,16.944,16.949
201908140347,16.949,16.955,16.949,16.952
201908140348,16.952,16.956,16.95,16.956
201908140349,16.956,16.956,16.952,16.955
201908140350,16.955,16.958,16.95,16.958
201908140351,16.956,16.958,16.955,16.956
201908140352,16.956,16.958,16.954,16.958
201908140353,16.958,16.96,16.954,16.959
201908140354,16.959,16.959,16.956,16.956
201908140355,16.956,16.962,16.955,16.959
201908140356,16.959,16.964,16.956,16.956
201908140357,16.956,16.961,16.953,16.955
201908140358,16.955,16.957,16.953,16.953
201908140359,16.952,16.959,16.952,16.958
201908140400,16.958,16.961,16.953,16.957
201908140401,16.957,16.967,16.957,16.961
201908140402,16.961,16.965,16.958,16.96
201908140403,16.961,16.966,16.958,16.964
201908140404,16.964,16.967,16.96,16.963
201908140405,16.961,16.965,16.961,16.963
201908140406,16.962,16.964,16.958,16.964
201908140407,16.964,16.97,16.963,16.966
201908140408,16.967,16.968,16.964,16.964
201908140409,16.964,16.967,16.959,16.96
201908140410,16.959,16.962,16.956,16.958
201908140411,16.958,16.962,16.956,16.958
201908140412,16.958,16.96,16.957,16.959
201908140413,16.959,16.96,16.957,16.958
201908140414,16.958,16.961,16.955,16.959
201908140415,16.959,16.959,16.954,16.954
201908140416,16.954,16.954,16.945,16.949
201908140417,16.949,16.95,16.945,16.948
201908140418,16.948,16.948,16.942,16.943
201908140419,16.943,16.945,16.941,16.943
201908140420,16.944,16.944,16.938,16.942
201908140421,16.942,16.95,16.942,16.947
201908140422,16.944,16.95,16.944,16.948
201908140423,16.948,16.948,16.943,16.945
201908140424,16.945,16.948,16.945,16.947
201908140425,16.947,16.95,16.943,16.95
201908140426,16.95,16.951,16.949,16.95
201908140427,16.95,16.953,16.947,16.949
201908140428,16.949,16.952,16.948,16.952
201908140429,16.952,16.952,16.947,16.948
201908140430,16.948,16.957,16.948,16.956
201908140431,16.956,16.957,16.952,16.954
201908140432,16.954,16.957,16.954,16.954
201908140433,16.954,16.956,16.953,16.956
201908140434,16.956,16.958,16.954,16.956
201908140435,16.956,16.959,16.953,16.954
201908140436,16.953,16.956,16.953,16.955
201908140437,16.955,16.955,16.952,16.954
201908140438,16.954,16.956,16.952,16.953
201908140439,16.953,16.956,16.953,16.955
201908140440,16.955,16.956,16.951,16.956
201908140441,16.956,16.957,16.954,16.955
201908140442,16.955,16.959,16.953,16.959
201908140443,16.959,16.959,16.957,16.959
201908140444,16.959,16.959,16.957,16.959
201908140445,16.959,16.959,16.957,16.959
201908140446,16.956,16.958,16.955,16.957
201908140447,16.957,16.959,16.955,16.956
201908140448,16.956,16.963,16.955,16.961
201908140449,16.96,16.963,16.96,16.963
201908140450,16.964,16.965,16.96,16.962
201908140451,16.962,16.966,16.962,16.964
201908140452,16.964,16.965,16.96,16.964
201908140453,16.965,16.966,16.961,16.963
201908140454,16.963,16.963,16.96,16.963
201908140455,16.963,16.965,16.962,16.963
201908140456,16.963,16.964,16.955,16.956
201908140457,16.956,16.957,16.948,16.951
201908140458,16.951,16.954,16.948,16.948
201908140459,16.948,16.95,16.943,16.944
201908140500,16.945,16.954,16.945,16.953
201908140501,16.952,16.959,16.952,16.959
201908140502,16.959,16.96,16.956,16.957
201908140503,16.957,16.958,16.951,16.951
201908140504,16.951,16.951,16.946,16.948
201908140505,16.948,16.952,16.947,16.952
201908140506,16.952,16.954,16.952,16.952
201908140507,16.952,16.961,16.951,16.961
201908140508,16.961,16.961,16.956,16.959
201908140509,16.959,16.959,16.956,16.957
201908140510,16.957,16.957,16.949,16.953
201908140511,16.953,16.953,16.948,16.951
201908140512,16.951,16.954,16.949,16.954
201908140513,16.954,16.954,16.951,16.951
201908140514,16.951,16.954,16.95,16.953
201908140515,16.953,16.953,16.947,16.949
201908140516,16.949,16.952,16.949,16.952
201908140517,16.952,16.952,16.948,16.949
201908140518,16.949,16.949,16.948,16.949
201908140519,16.949,16.95,16.948,16.949
201908140520,16.949,16.949,16.948,16.949
201908140521,16.949,16.949,16.947,16.949
201908140522,16.949,16.949,16.949,16.949
201908140523,16.949,16.949,16.947,16.947
201908140524,16.947,16.948,16.945,16.947
201908140525,16.947,16.949,16.944,16.947
201908140526,16.947,16.947,16.944,16.947
201908140527,16.947,16.948,16.944,16.945
201908140528,16.945,16.948,16.943,16.944
201908140529,16.944,16.944,16.942,16.942
201908140530,16.943,16.944,16.942,16.944
201908140531,16.944,16.944,16.943,16.943
201908140532,16.943,16.944,16.943,16.944
201908140533,16.944,16.944,16.943,16.944
201908140534,16.944,16.944,16.943,16.943
201908140535,16.943,16.944,16.943,16.944
201908140536,16.944,16.947,16.944,16.945
201908140537,16.945,16.945,16.943,16.943
201908140538,16.943,16.944,16.942,16.943
201908140539,16.943,16.944,16.943,16.944
201908140540,16.944,16.944,16.944,16.944
201908140541,16.944,16.947,16.944,16.947
201908140542,16.947,16.948,16.947,16.947
201908140543,16.947,16.948,16.947,16.947
201908140544,16.947,16.947,16.946,16.947
201908140545,16.946,16.953,16.946,16.951
201908140546,16.951,16.952,16.951,16.951
201908140547,16.951,16.953,16.951,16.953
201908140548,16.953,16.953,16.951,16.953
201908140549,16.952,16.953,16.952,16.953
201908140550,16.953,16.958,16.953,16.957
201908140551,16.957,16.958,16.957,16.958
201908140552,16.958,16.962,16.958,16.962
201908140553,16.962,16.962,16.959,16.959
201908140554,16.959,16.96,16.959,16.96
201908140555,16.959,16.962,16.957,16.957
201908140556,16.957,16.958,16.955,16.955
201908140557,16.955,16.955,16.953,16.955
201908140558,16.955,16.955,16.953,16.955
201908140559,16.955,16.957,16.954,16.954
