日時,始値(BID),高値(BID),安値(BID),終値(BID)
201904010700,60.23,60.28,60.12,60.24
201904010701,60.24,60.33,60.24,60.33
201904010702,60.33,60.35,60.31,60.32
201904010703,60.32,60.32,60.26,60.27
201904010704,60.27,60.3,60.27,60.3
201904010705,60.3,60.33,60.3,60.32
201904010706,60.32,60.32,60.29,60.29
201904010707,60.29,60.3,60.27,60.3
201904010708,60.3,60.3,60.29,60.3
201904010709,60.3,60.3,60.29,60.29
201904010710,60.29,60.3,60.29,60.3
201904010711,60.3,60.31,60.3,60.3
201904010712,60.3,60.31,60.3,60.3
201904010713,60.3,60.3,60.29,60.29
201904010714,60.29,60.31,60.29,60.31
201904010715,60.31,60.31,60.3,60.3
201904010716,60.3,60.33,60.3,60.33
201904010717,60.33,60.34,60.33,60.34
201904010718,60.34,60.35,60.34,60.34
201904010719,60.34,60.34,60.33,60.34
201904010720,60.34,60.36,60.33,60.36
201904010721,60.36,60.36,60.35,60.36
201904010722,60.36,60.39,60.36,60.38
201904010723,60.38,60.38,60.35,60.37
201904010724,60.37,60.38,60.37,60.37
201904010725,60.37,60.37,60.37,60.37
201904010726,60.37,60.38,60.34,60.35
201904010727,60.35,60.36,60.34,60.35
201904010728,60.35,60.35,60.34,60.35
201904010729,60.35,60.37,60.35,60.37
201904010730,60.37,60.38,60.36,60.36
201904010731,60.36,60.36,60.35,60.36
201904010732,60.36,60.36,60.34,60.34
201904010733,60.34,60.39,60.34,60.39
201904010734,60.39,60.4,60.38,60.4
201904010735,60.4,60.42,60.4,60.41
201904010736,60.41,60.41,60.4,60.4
201904010737,60.4,60.41,60.4,60.4
201904010738,60.4,60.4,60.37,60.37
201904010739,60.37,60.38,60.37,60.38
201904010740,60.38,60.38,60.38,60.38
201904010741,60.38,60.39,60.38,60.39
201904010742,60.39,60.4,60.39,60.4
201904010743,60.4,60.4,60.39,60.4
201904010744,60.4,60.4,60.39,60.39
201904010745,60.39,60.39,60.39,60.39
201904010746,60.39,60.4,60.38,60.4
201904010747,60.4,60.4,60.39,60.4
201904010748,60.4,60.41,60.39,60.39
201904010749,60.39,60.39,60.38,60.39
201904010750,60.39,60.39,60.39,60.39
201904010751,60.39,60.4,60.39,60.39
201904010752,60.39,60.4,60.38,60.39
201904010753,60.39,60.39,60.38,60.38
201904010754,60.38,60.38,60.38,60.38
201904010755,60.38,60.38,60.37,60.37
201904010756,60.37,60.37,60.35,60.35
201904010757,60.35,60.37,60.35,60.36
201904010758,60.36,60.37,60.36,60.36
201904010759,60.36,60.36,60.36,60.36
201904010800,60.36,60.36,60.34,60.35
201904010801,60.35,60.36,60.34,60.35
201904010802,60.35,60.35,60.35,60.35
201904010803,60.35,60.36,60.34,60.35
201904010804,60.35,60.38,60.35,60.37
201904010805,60.37,60.37,60.37,60.37
201904010806,60.37,60.37,60.35,60.36
201904010807,60.36,60.36,60.35,60.35
201904010808,60.35,60.35,60.35,60.35
201904010809,60.35,60.35,60.35,60.35
201904010810,60.35,60.35,60.33,60.33
201904010811,60.33,60.34,60.33,60.34
201904010812,60.34,60.37,60.34,60.36
201904010813,60.36,60.36,60.35,60.36
201904010814,60.36,60.36,60.36,60.36
201904010815,60.36,60.36,60.35,60.35
201904010816,60.35,60.35,60.35,60.35
201904010817,60.35,60.35,60.35,60.35
201904010818,60.35,60.36,60.35,60.36
201904010819,60.36,60.36,60.36,60.36
201904010820,60.36,60.36,60.35,60.35
201904010821,60.35,60.36,60.35,60.36
201904010822,60.36,60.36,60.35,60.35
201904010823,60.35,60.35,60.33,60.33
201904010824,60.33,60.34,60.33,60.34
201904010825,60.34,60.34,60.33,60.33
201904010826,60.33,60.33,60.31,60.33
201904010827,60.33,60.33,60.31,60.32
201904010828,60.32,60.32,60.3,60.3
201904010829,60.3,60.31,60.3,60.31
201904010830,60.31,60.32,60.31,60.31
201904010831,60.31,60.31,60.3,60.31
201904010832,60.31,60.31,60.31,60.31
201904010833,60.31,60.31,60.31,60.31
201904010834,60.31,60.31,60.31,60.31
201904010835,60.31,60.31,60.31,60.31
201904010836,60.31,60.32,60.31,60.31
201904010837,60.31,60.31,60.31,60.31
201904010838,60.31,60.33,60.31,60.32
201904010839,60.32,60.32,60.32,60.32
201904010840,60.32,60.33,60.32,60.33
201904010841,60.33,60.34,60.33,60.34
201904010842,60.34,60.34,60.34,60.34
201904010843,60.34,60.35,60.34,60.35
201904010844,60.35,60.35,60.35,60.35
201904010845,60.35,60.38,60.35,60.37
201904010846,60.37,60.38,60.37,60.37
201904010847,60.37,60.38,60.36,60.38
201904010848,60.38,60.38,60.37,60.37
201904010849,60.37,60.38,60.36,60.38
201904010850,60.38,60.39,60.38,60.39
201904010851,60.39,60.4,60.38,60.4
201904010852,60.4,60.4,60.37,60.37
201904010853,60.37,60.38,60.37,60.38
201904010854,60.38,60.38,60.37,60.38
201904010855,60.38,60.38,60.37,60.38
201904010856,60.38,60.38,60.37,60.37
201904010857,60.37,60.37,60.37,60.37
201904010858,60.37,60.38,60.36,60.36
201904010859,60.36,60.36,60.35,60.35
201904010900,60.35,60.38,60.34,60.38
201904010901,60.38,60.38,60.37,60.37
201904010902,60.37,60.37,60.35,60.37
201904010903,60.37,60.38,60.37,60.38
201904010904,60.38,60.39,60.37,60.39
201904010905,60.39,60.4,60.39,60.4
201904010906,60.4,60.4,60.39,60.4
201904010907,60.4,60.43,60.4,60.43
201904010908,60.43,60.45,60.43,60.44
201904010909,60.44,60.45,60.44,60.45
201904010910,60.45,60.46,60.45,60.45
201904010911,60.45,60.46,60.44,60.46
201904010912,60.46,60.46,60.44,60.44
201904010913,60.44,60.45,60.43,60.44
201904010914,60.44,60.46,60.44,60.45
201904010915,60.45,60.46,60.45,60.45
201904010916,60.45,60.46,60.45,60.45
201904010917,60.45,60.45,60.45,60.45
201904010918,60.45,60.45,60.44,60.44
201904010919,60.44,60.44,60.43,60.44
201904010920,60.44,60.44,60.44,60.44
201904010921,60.43,60.45,60.43,60.45
201904010922,60.45,60.45,60.45,60.45
201904010923,60.45,60.45,60.45,60.45
201904010924,60.45,60.45,60.44,60.45
201904010925,60.45,60.45,60.44,60.45
201904010926,60.45,60.45,60.44,60.45
201904010927,60.45,60.45,60.42,60.43
201904010928,60.43,60.43,60.42,60.42
201904010929,60.42,60.42,60.41,60.41
201904010930,60.41,60.43,60.41,60.41
201904010931,60.41,60.41,60.41,60.41
201904010932,60.41,60.41,60.4,60.4
201904010933,60.4,60.41,60.4,60.41
201904010934,60.41,60.41,60.4,60.41
201904010935,60.41,60.41,60.41,60.41
201904010936,60.41,60.41,60.41,60.41
201904010937,60.41,60.42,60.41,60.41
201904010938,60.41,60.41,60.41,60.41
201904010939,60.41,60.42,60.41,60.41
201904010940,60.41,60.42,60.41,60.42
201904010941,60.42,60.42,60.42,60.42
201904010942,60.42,60.43,60.42,60.43
201904010943,60.43,60.43,60.43,60.43
201904010944,60.43,60.43,60.43,60.43
201904010945,60.43,60.43,60.43,60.43
201904010946,60.43,60.44,60.42,60.42
201904010947,60.42,60.42,60.42,60.42
201904010948,60.42,60.43,60.42,60.43
201904010949,60.43,60.44,60.43,60.44
201904010950,60.44,60.45,60.44,60.45
201904010951,60.45,60.46,60.44,60.45
201904010952,60.45,60.45,60.43,60.44
201904010953,60.44,60.44,60.43,60.44
201904010954,60.44,60.44,60.44,60.44
201904010955,60.44,60.44,60.43,60.43
201904010956,60.43,60.43,60.42,60.42
201904010957,60.42,60.42,60.41,60.41
201904010958,60.41,60.42,60.4,60.41
201904010959,60.41,60.42,60.4,60.42
201904011000,60.42,60.44,60.38,60.42
201904011001,60.42,60.44,60.42,60.43
201904011002,60.43,60.46,60.43,60.46
201904011003,60.46,60.49,60.46,60.47
201904011004,60.47,60.49,60.47,60.47
201904011005,60.47,60.47,60.45,60.45
201904011006,60.45,60.45,60.44,60.44
201904011007,60.44,60.45,60.42,60.43
201904011008,60.43,60.43,60.42,60.43
201904011009,60.43,60.45,60.43,60.45
201904011010,60.45,60.45,60.43,60.44
201904011011,60.44,60.45,60.44,60.45
201904011012,60.45,60.46,60.44,60.44
201904011013,60.44,60.48,60.44,60.46
201904011014,60.46,60.47,60.45,60.47
201904011015,60.47,60.49,60.47,60.49
201904011016,60.49,60.5,60.49,60.49
201904011017,60.49,60.51,60.48,60.48
201904011018,60.48,60.48,60.46,60.46
201904011019,60.46,60.47,60.45,60.46
201904011020,60.46,60.46,60.44,60.44
201904011021,60.44,60.45,60.44,60.44
201904011022,60.44,60.44,60.43,60.44
201904011023,60.44,60.45,60.43,60.43
201904011024,60.43,60.44,60.43,60.44
201904011025,60.44,60.44,60.44,60.44
201904011026,60.44,60.46,60.44,60.45
201904011027,60.45,60.48,60.45,60.48
201904011028,60.48,60.49,60.47,60.48
201904011029,60.48,60.49,60.47,60.47
201904011030,60.47,60.49,60.46,60.48
201904011031,60.48,60.49,60.48,60.48
201904011032,60.48,60.48,60.46,60.47
201904011033,60.47,60.5,60.47,60.48
201904011034,60.48,60.49,60.47,60.48
201904011035,60.48,60.48,60.47,60.48
201904011036,60.48,60.48,60.47,60.48
201904011037,60.48,60.48,60.47,60.47
201904011038,60.47,60.48,60.47,60.48
201904011039,60.48,60.48,60.47,60.47
201904011040,60.47,60.47,60.45,60.45
201904011041,60.45,60.47,60.45,60.47
201904011042,60.47,60.48,60.46,60.47
201904011043,60.47,60.47,60.46,60.46
201904011044,60.46,60.47,60.46,60.47
201904011045,60.47,60.5,60.47,60.49
201904011046,60.49,60.49,60.47,60.47
201904011047,60.47,60.48,60.47,60.48
201904011048,60.48,60.48,60.45,60.46
201904011049,60.46,60.47,60.45,60.47
201904011050,60.47,60.48,60.46,60.48
201904011051,60.48,60.48,60.46,60.46
201904011052,60.46,60.48,60.46,60.46
201904011053,60.46,60.46,60.45,60.45
201904011054,60.45,60.45,60.44,60.45
201904011055,60.45,60.46,60.45,60.45
201904011056,60.45,60.46,60.45,60.46
201904011057,60.46,60.46,60.44,60.44
201904011058,60.44,60.46,60.43,60.43
201904011059,60.43,60.43,60.43,60.43
201904011100,60.43,60.46,60.43,60.44
201904011101,60.44,60.44,60.42,60.43
201904011102,60.43,60.45,60.42,60.44
201904011103,60.44,60.44,60.43,60.44
201904011104,60.44,60.46,60.43,60.46
201904011105,60.46,60.47,60.45,60.47
201904011106,60.47,60.47,60.46,60.46
201904011107,60.46,60.46,60.44,60.45
201904011108,60.45,60.46,60.45,60.45
201904011109,60.45,60.46,60.44,60.45
201904011110,60.45,60.45,60.44,60.44
201904011111,60.44,60.45,60.43,60.44
201904011112,60.44,60.45,60.44,60.45
201904011113,60.45,60.45,60.44,60.45
201904011114,60.45,60.45,60.44,60.44
201904011115,60.44,60.45,60.44,60.44
201904011116,60.44,60.44,60.43,60.43
201904011117,60.43,60.43,60.43,60.43
201904011118,60.43,60.43,60.43,60.43
201904011119,60.43,60.43,60.43,60.43
201904011120,60.43,60.45,60.43,60.45
201904011121,60.45,60.46,60.45,60.46
201904011122,60.46,60.47,60.46,60.47
201904011123,60.47,60.47,60.47,60.47
201904011124,60.47,60.48,60.47,60.47
201904011125,60.47,60.48,60.47,60.47
201904011126,60.47,60.48,60.47,60.48
201904011127,60.48,60.48,60.47,60.48
201904011128,60.48,60.48,60.47,60.47
201904011129,60.47,60.48,60.47,60.48
201904011130,60.48,60.48,60.48,60.48
201904011131,60.48,60.49,60.46,60.47
201904011132,60.47,60.48,60.47,60.47
201904011133,60.47,60.47,60.46,60.47
201904011134,60.47,60.48,60.47,60.48
201904011135,60.48,60.49,60.47,60.48
201904011136,60.48,60.48,60.47,60.47
201904011137,60.47,60.48,60.47,60.48
201904011138,60.48,60.49,60.48,60.49
201904011139,60.49,60.49,60.48,60.48
201904011140,60.48,60.49,60.48,60.48
201904011141,60.48,60.5,60.48,60.49
201904011142,60.49,60.5,60.48,60.48
201904011143,60.48,60.48,60.47,60.47
201904011144,60.47,60.48,60.47,60.47
201904011145,60.47,60.48,60.46,60.47
201904011146,60.47,60.48,60.46,60.47
201904011147,60.47,60.47,60.47,60.47
201904011148,60.47,60.47,60.47,60.47
201904011149,60.47,60.48,60.47,60.47
201904011150,60.47,60.49,60.47,60.49
201904011151,60.49,60.5,60.48,60.5
201904011152,60.5,60.5,60.49,60.49
201904011153,60.49,60.5,60.48,60.49
201904011154,60.49,60.49,60.48,60.48
201904011155,60.48,60.49,60.47,60.48
201904011156,60.48,60.48,60.47,60.48
201904011157,60.48,60.48,60.48,60.48
201904011158,60.48,60.48,60.46,60.46
201904011159,60.46,60.47,60.46,60.47
201904011200,60.47,60.47,60.46,60.47
201904011201,60.47,60.47,60.47,60.47
201904011202,60.47,60.47,60.45,60.45
201904011203,60.45,60.46,60.45,60.45
201904011204,60.45,60.46,60.45,60.45
201904011205,60.45,60.46,60.45,60.46
201904011206,60.46,60.47,60.46,60.47
201904011207,60.47,60.47,60.45,60.45
201904011208,60.45,60.46,60.45,60.45
201904011209,60.45,60.46,60.45,60.45
201904011210,60.45,60.46,60.45,60.45
201904011211,60.45,60.45,60.45,60.45
201904011212,60.45,60.45,60.45,60.45
201904011213,60.45,60.45,60.44,60.45
201904011214,60.45,60.45,60.44,60.45
201904011215,60.45,60.47,60.45,60.47
201904011216,60.47,60.48,60.46,60.48
201904011217,60.48,60.49,60.47,60.47
201904011218,60.47,60.48,60.47,60.47
201904011219,60.47,60.48,60.46,60.48
201904011220,60.48,60.49,60.48,60.49
201904011221,60.49,60.5,60.49,60.49
201904011222,60.49,60.49,60.48,60.49
201904011223,60.49,60.49,60.49,60.49
201904011224,60.49,60.49,60.49,60.49
201904011225,60.49,60.49,60.49,60.49
201904011226,60.49,60.5,60.49,60.49
201904011227,60.49,60.49,60.49,60.49
201904011228,60.49,60.49,60.49,60.49
201904011229,60.49,60.5,60.48,60.49
201904011230,60.49,60.49,60.48,60.48
201904011231,60.48,60.48,60.48,60.48
201904011232,60.48,60.49,60.48,60.49
201904011233,60.49,60.49,60.48,60.48
201904011234,60.48,60.49,60.48,60.49
201904011235,60.49,60.49,60.49,60.49
201904011236,60.49,60.49,60.49,60.49
201904011237,60.49,60.49,60.49,60.49
201904011238,60.49,60.49,60.48,60.49
201904011239,60.49,60.49,60.48,60.48
201904011240,60.48,60.48,60.47,60.47
201904011241,60.47,60.48,60.47,60.48
201904011242,60.48,60.49,60.48,60.49
201904011243,60.49,60.49,60.48,60.48
201904011244,60.48,60.49,60.48,60.48
201904011245,60.48,60.49,60.48,60.49
201904011246,60.49,60.49,60.48,60.48
201904011247,60.48,60.48,60.48,60.48
201904011248,60.48,60.48,60.48,60.48
201904011249,60.48,60.49,60.48,60.49
201904011250,60.49,60.49,60.49,60.49
201904011251,60.49,60.49,60.48,60.48
201904011252,60.48,60.48,60.48,60.48
201904011253,60.48,60.48,60.48,60.48
201904011254,60.48,60.49,60.48,60.49
201904011255,60.49,60.49,60.49,60.49
201904011256,60.49,60.49,60.49,60.49
201904011257,60.49,60.49,60.49,60.49
201904011258,60.49,60.5,60.48,60.5
201904011259,60.5,60.5,60.49,60.49
201904011300,60.49,60.5,60.49,60.49
201904011301,60.49,60.49,60.48,60.49
201904011302,60.49,60.5,60.49,60.5
201904011303,60.5,60.5,60.49,60.49
201904011304,60.49,60.5,60.49,60.49
201904011305,60.49,60.49,60.48,60.48
201904011306,60.48,60.48,60.48,60.48
201904011307,60.48,60.48,60.47,60.48
201904011308,60.48,60.48,60.47,60.47
201904011309,60.47,60.48,60.47,60.47
201904011310,60.47,60.48,60.47,60.48
201904011311,60.48,60.48,60.47,60.48
201904011312,60.48,60.48,60.47,60.48
201904011313,60.48,60.48,60.48,60.48
201904011314,60.48,60.48,60.47,60.47
201904011315,60.47,60.48,60.47,60.47
201904011316,60.47,60.47,60.47,60.47
201904011317,60.47,60.47,60.47,60.47
201904011318,60.47,60.48,60.47,60.48
201904011319,60.48,60.48,60.47,60.47
201904011320,60.47,60.47,60.47,60.47
201904011321,60.47,60.47,60.47,60.47
201904011322,60.47,60.48,60.47,60.47
201904011323,60.47,60.47,60.47,60.47
201904011324,60.47,60.48,60.47,60.48
201904011325,60.48,60.48,60.47,60.48
201904011326,60.48,60.48,60.48,60.48
201904011327,60.48,60.48,60.47,60.47
201904011328,60.47,60.47,60.47,60.47
201904011329,60.47,60.47,60.47,60.47
201904011330,60.47,60.47,60.47,60.47
201904011331,60.47,60.47,60.47,60.47
201904011332,60.47,60.48,60.47,60.48
201904011333,60.48,60.48,60.47,60.47
201904011334,60.47,60.47,60.47,60.47
201904011335,60.47,60.48,60.47,60.48
201904011336,60.48,60.48,60.48,60.48
201904011337,60.48,60.49,60.48,60.49
201904011338,60.49,60.49,60.49,60.49
201904011339,60.49,60.49,60.49,60.49
201904011340,60.49,60.5,60.49,60.5
201904011341,60.5,60.5,60.49,60.49
201904011342,60.49,60.5,60.49,60.49
201904011343,60.49,60.49,60.49,60.49
201904011344,60.49,60.49,60.49,60.49
201904011345,60.49,60.5,60.49,60.49
201904011346,60.49,60.49,60.49,60.49
201904011347,60.49,60.49,60.49,60.49
201904011348,60.49,60.5,60.49,60.49
201904011349,60.49,60.49,60.49,60.49
201904011350,60.49,60.49,60.49,60.49
201904011351,60.49,60.49,60.49,60.49
201904011352,60.49,60.49,60.49,60.49
201904011353,60.49,60.49,60.49,60.49
201904011354,60.49,60.5,60.49,60.5
201904011355,60.5,60.5,60.5,60.5
201904011356,60.5,60.52,60.5,60.52
201904011357,60.52,60.52,60.51,60.51
201904011358,60.51,60.52,60.51,60.52
201904011359,60.52,60.52,60.51,60.51
201904011400,60.51,60.52,60.51,60.52
201904011401,60.52,60.52,60.51,60.51
201904011402,60.51,60.52,60.51,60.51
201904011403,60.51,60.51,60.51,60.51
201904011404,60.51,60.52,60.51,60.52
201904011405,60.52,60.52,60.52,60.52
201904011406,60.52,60.52,60.52,60.52
201904011407,60.52,60.52,60.51,60.52
201904011408,60.52,60.53,60.52,60.53
201904011409,60.53,60.53,60.52,60.53
201904011410,60.53,60.53,60.52,60.52
201904011411,60.52,60.52,60.52,60.52
201904011412,60.52,60.52,60.51,60.52
201904011413,60.52,60.52,60.51,60.52
201904011414,60.52,60.52,60.52,60.52
201904011415,60.52,60.52,60.5,60.51
201904011416,60.51,60.52,60.51,60.51
201904011417,60.51,60.52,60.51,60.52
201904011418,60.52,60.52,60.52,60.52
201904011419,60.52,60.53,60.52,60.52
201904011420,60.52,60.53,60.52,60.53
201904011421,60.53,60.53,60.53,60.53
201904011422,60.53,60.55,60.53,60.55
201904011423,60.55,60.56,60.55,60.56
201904011424,60.56,60.57,60.56,60.56
201904011425,60.56,60.57,60.56,60.57
201904011426,60.57,60.57,60.57,60.57
201904011427,60.57,60.58,60.57,60.57
201904011428,60.57,60.57,60.57,60.57
201904011429,60.57,60.58,60.56,60.57
201904011430,60.57,60.57,60.55,60.56
201904011431,60.56,60.58,60.56,60.58
201904011432,60.58,60.59,60.57,60.58
201904011433,60.58,60.58,60.57,60.57
201904011434,60.57,60.58,60.56,60.58
201904011435,60.58,60.58,60.55,60.56
201904011436,60.56,60.56,60.56,60.56
201904011437,60.56,60.58,60.56,60.57
201904011438,60.57,60.57,60.56,60.57
201904011439,60.57,60.57,60.56,60.56
201904011440,60.56,60.57,60.56,60.56
201904011441,60.56,60.56,60.55,60.55
201904011442,60.55,60.57,60.55,60.56
201904011443,60.56,60.57,60.56,60.57
201904011444,60.57,60.58,60.57,60.57
201904011445,60.57,60.58,60.57,60.58
201904011446,60.58,60.58,60.56,60.57
201904011447,60.57,60.57,60.56,60.56
201904011448,60.56,60.57,60.55,60.56
201904011449,60.56,60.56,60.56,60.56
201904011450,60.56,60.61,60.56,60.6
201904011451,60.6,60.6,60.59,60.59
201904011452,60.59,60.59,60.58,60.59
201904011453,60.59,60.59,60.59,60.59
201904011454,60.59,60.59,60.58,60.59
201904011455,60.59,60.61,60.59,60.6
201904011456,60.6,60.61,60.6,60.61
201904011457,60.61,60.62,60.6,60.62
201904011458,60.62,60.62,60.62,60.62
201904011459,60.62,60.63,60.6,60.61
201904011500,60.61,60.62,60.6,60.6
201904011501,60.6,60.61,60.6,60.61
201904011502,60.61,60.61,60.57,60.57
201904011503,60.57,60.57,60.55,60.57
201904011504,60.57,60.58,60.56,60.56
201904011505,60.56,60.57,60.55,60.56
201904011506,60.56,60.56,60.55,60.55
201904011507,60.55,60.57,60.54,60.57
201904011508,60.57,60.57,60.54,60.55
201904011509,60.55,60.55,60.54,60.54
201904011510,60.54,60.54,60.53,60.54
201904011511,60.54,60.54,60.53,60.53
201904011512,60.53,60.53,60.52,60.52
201904011513,60.52,60.52,60.5,60.51
201904011514,60.51,60.52,60.5,60.52
201904011515,60.52,60.53,60.51,60.52
201904011516,60.52,60.52,60.5,60.51
201904011517,60.51,60.53,60.51,60.53
201904011518,60.53,60.55,60.53,60.54
201904011519,60.54,60.55,60.53,60.54
201904011520,60.54,60.54,60.52,60.53
201904011521,60.53,60.53,60.52,60.53
201904011522,60.53,60.53,60.52,60.52
201904011523,60.52,60.52,60.52,60.52
201904011524,60.52,60.52,60.5,60.51
201904011525,60.51,60.52,60.51,60.52
201904011526,60.52,60.53,60.52,60.52
201904011527,60.52,60.52,60.51,60.51
201904011528,60.51,60.51,60.5,60.51
201904011529,60.51,60.52,60.51,60.51
201904011530,60.51,60.52,60.51,60.51
201904011531,60.51,60.51,60.5,60.51
201904011532,60.51,60.51,60.5,60.5
201904011533,60.5,60.51,60.5,60.5
201904011534,60.5,60.51,60.5,60.51
201904011535,60.51,60.53,60.51,60.53
201904011536,60.53,60.54,60.53,60.53
201904011537,60.53,60.55,60.53,60.54
201904011538,60.54,60.55,60.53,60.55
201904011539,60.55,60.55,60.54,60.55
201904011540,60.55,60.55,60.53,60.54
201904011541,60.54,60.54,60.53,60.53
201904011542,60.53,60.53,60.5,60.51
201904011543,60.51,60.53,60.51,60.51
201904011544,60.51,60.53,60.51,60.52
201904011545,60.52,60.53,60.51,60.51
201904011546,60.51,60.51,60.49,60.49
201904011547,60.49,60.5,60.49,60.49
201904011548,60.49,60.5,60.49,60.49
201904011549,60.49,60.49,60.49,60.49
201904011550,60.49,60.51,60.49,60.5
201904011551,60.5,60.51,60.49,60.5
201904011552,60.5,60.51,60.49,60.51
201904011553,60.51,60.53,60.51,60.52
201904011554,60.52,60.52,60.49,60.49
201904011555,60.49,60.49,60.47,60.48
201904011556,60.48,60.49,60.47,60.48
201904011557,60.48,60.49,60.47,60.49
201904011558,60.49,60.49,60.48,60.49
201904011559,60.49,60.5,60.47,60.48
201904011600,60.48,60.49,60.45,60.47
201904011601,60.47,60.47,60.45,60.47
201904011602,60.47,60.47,60.44,60.44
201904011603,60.44,60.45,60.44,60.45
201904011604,60.45,60.53,60.45,60.53
201904011605,60.54,60.55,60.47,60.49
201904011606,60.49,60.51,60.48,60.5
201904011607,60.5,60.55,60.49,60.55
201904011608,60.55,60.56,60.54,60.54
201904011609,60.54,60.6,60.54,60.59
201904011610,60.59,60.61,60.58,60.58
201904011611,60.58,60.59,60.56,60.56
201904011612,60.57,60.57,60.53,60.54
201904011613,60.54,60.54,60.51,60.52
201904011614,60.52,60.54,60.51,60.51
201904011615,60.51,60.53,60.51,60.51
201904011616,60.51,60.52,60.51,60.52
201904011617,60.52,60.53,60.52,60.53
201904011618,60.53,60.55,60.51,60.54
201904011619,60.54,60.56,60.52,60.56
201904011620,60.56,60.57,60.56,60.57
201904011621,60.57,60.57,60.55,60.57
201904011622,60.57,60.58,60.57,60.57
201904011623,60.57,60.58,60.57,60.58
201904011624,60.58,60.58,60.57,60.58
201904011625,60.58,60.61,60.58,60.6
201904011626,60.6,60.62,60.6,60.61
201904011627,60.61,60.63,60.61,60.61
201904011628,60.61,60.61,60.6,60.6
201904011629,60.6,60.62,60.59,60.62
201904011630,60.62,60.65,60.61,60.64
201904011631,60.64,60.65,60.62,60.64
201904011632,60.64,60.65,60.63,60.65
201904011633,60.65,60.66,60.64,60.65
201904011634,60.65,60.66,60.65,60.66
201904011635,60.66,60.72,60.66,60.67
201904011636,60.67,60.71,60.67,60.71
201904011637,60.71,60.72,60.65,60.65
201904011638,60.65,60.67,60.65,60.65
201904011639,60.65,60.67,60.65,60.67
201904011640,60.67,60.69,60.66,60.69
201904011641,60.69,60.69,60.66,60.68
201904011642,60.68,60.68,60.67,60.67
201904011643,60.67,60.69,60.67,60.68
201904011644,60.68,60.69,60.67,60.69
201904011645,60.69,60.71,60.69,60.7
201904011646,60.7,60.71,60.7,60.71
201904011647,60.71,60.72,60.71,60.72
201904011648,60.72,60.72,60.72,60.72
201904011649,60.72,60.72,60.69,60.7
201904011650,60.7,60.7,60.67,60.67
201904011651,60.67,60.68,60.64,60.65
201904011652,60.65,60.69,60.65,60.67
201904011653,60.67,60.68,60.66,60.67
201904011654,60.67,60.69,60.67,60.67
201904011655,60.67,60.69,60.67,60.69
201904011656,60.69,60.69,60.68,60.69
201904011657,60.69,60.69,60.67,60.67
201904011658,60.67,60.71,60.67,60.7
201904011659,60.7,60.71,60.7,60.7
201904011700,60.7,60.71,60.68,60.71
201904011701,60.71,60.72,60.66,60.66
201904011702,60.66,60.68,60.66,60.68
201904011703,60.68,60.7,60.68,60.69
201904011704,60.69,60.69,60.68,60.69
201904011705,60.69,60.7,60.66,60.66
201904011706,60.66,60.68,60.66,60.68
201904011707,60.68,60.69,60.66,60.68
201904011708,60.68,60.69,60.67,60.68
201904011709,60.68,60.69,60.68,60.69
201904011710,60.69,60.69,60.67,60.68
201904011711,60.68,60.68,60.67,60.67
201904011712,60.67,60.68,60.67,60.67
201904011713,60.67,60.69,60.67,60.68
201904011714,60.68,60.69,60.68,60.69
201904011715,60.69,60.71,60.67,60.71
201904011716,60.71,60.82,60.71,60.8
201904011717,60.8,60.84,60.8,60.83
201904011718,60.83,60.83,60.79,60.81
201904011719,60.81,60.84,60.81,60.84
201904011720,60.84,60.85,60.83,60.84
201904011721,60.84,60.85,60.81,60.82
201904011722,60.82,60.83,60.8,60.82
201904011723,60.82,60.83,60.81,60.81
201904011724,60.81,60.82,60.8,60.81
201904011725,60.81,60.82,60.8,60.81
201904011726,60.81,60.81,60.78,60.79
201904011727,60.79,60.81,60.79,60.8
201904011728,60.8,60.8,60.73,60.76
201904011729,60.76,60.76,60.72,60.73
201904011730,60.73,60.77,60.71,60.76
201904011731,60.76,60.8,60.76,60.8
201904011732,60.8,60.8,60.78,60.79
201904011733,60.79,60.8,60.77,60.77
201904011734,60.77,60.79,60.77,60.78
201904011735,60.78,60.8,60.78,60.78
201904011736,60.78,60.8,60.78,60.79
201904011737,60.79,60.83,60.79,60.82
201904011738,60.82,60.83,60.79,60.79
201904011739,60.79,60.8,60.78,60.8
201904011740,60.8,60.82,60.76,60.76
201904011741,60.76,60.78,60.76,60.76
201904011742,60.76,60.78,60.75,60.76
201904011743,60.76,60.77,60.75,60.76
201904011744,60.76,60.76,60.75,60.75
201904011745,60.75,60.77,60.75,60.76
201904011746,60.76,60.78,60.75,60.76
201904011747,60.76,60.78,60.76,60.78
201904011748,60.78,60.78,60.76,60.77
201904011749,60.77,60.77,60.72,60.73
201904011750,60.73,60.74,60.72,60.72
201904011751,60.72,60.72,60.69,60.7
201904011752,60.7,60.72,60.7,60.7
201904011753,60.7,60.7,60.69,60.69
201904011754,60.69,60.7,60.67,60.67
201904011755,60.67,60.71,60.67,60.7
201904011756,60.7,60.71,60.69,60.69
201904011757,60.69,60.7,60.69,60.7
201904011758,60.7,60.7,60.69,60.69
201904011759,60.69,60.7,60.68,60.69
201904011800,60.69,60.69,60.66,60.67
201904011801,60.67,60.69,60.66,60.69
201904011802,60.69,60.71,60.67,60.67
201904011803,60.67,60.69,60.66,60.66
201904011804,60.66,60.68,60.66,60.66
201904011805,60.66,60.69,60.66,60.66
201904011806,60.66,60.69,60.65,60.68
201904011807,60.68,60.69,60.68,60.68
201904011808,60.68,60.7,60.68,60.68
201904011809,60.68,60.69,60.67,60.67
201904011810,60.67,60.69,60.67,60.69
201904011811,60.69,60.71,60.69,60.7
201904011812,60.7,60.71,60.7,60.71
201904011813,60.71,60.71,60.68,60.69
201904011814,60.69,60.72,60.69,60.71
201904011815,60.71,60.72,60.7,60.7
201904011816,60.7,60.72,60.7,60.72
201904011817,60.72,60.72,60.72,60.72
201904011818,60.72,60.74,60.7,60.73
201904011819,60.73,60.76,60.73,60.76
201904011820,60.76,60.77,60.72,60.72
201904011821,60.72,60.72,60.7,60.72
201904011822,60.72,60.73,60.71,60.73
201904011823,60.73,60.75,60.73,60.74
201904011824,60.74,60.74,60.71,60.72
201904011825,60.72,60.75,60.72,60.73
201904011826,60.73,60.73,60.71,60.71
201904011827,60.71,60.73,60.71,60.72
201904011828,60.72,60.73,60.7,60.73
201904011829,60.73,60.74,60.72,60.74
201904011830,60.74,60.74,60.7,60.7
201904011831,60.7,60.7,60.69,60.69
201904011832,60.69,60.72,60.68,60.71
201904011833,60.71,60.73,60.71,60.72
201904011834,60.72,60.73,60.7,60.71
201904011835,60.71,60.71,60.68,60.68
201904011836,60.68,60.69,60.68,60.69
201904011837,60.69,60.7,60.66,60.67
201904011838,60.67,60.68,60.66,60.66
201904011839,60.66,60.66,60.61,60.64
201904011840,60.64,60.66,60.64,60.65
201904011841,60.65,60.65,60.63,60.64
201904011842,60.64,60.64,60.62,60.64
201904011843,60.64,60.64,60.62,60.63
201904011844,60.63,60.64,60.62,60.63
201904011845,60.63,60.64,60.62,60.63
201904011846,60.63,60.63,60.6,60.6
201904011847,60.6,60.64,60.6,60.64
201904011848,60.64,60.65,60.62,60.62
201904011849,60.62,60.62,60.61,60.62
201904011850,60.62,60.62,60.58,60.61
201904011851,60.61,60.62,60.59,60.6
201904011852,60.6,60.61,60.6,60.6
201904011853,60.6,60.62,60.6,60.61
201904011854,60.61,60.62,60.6,60.61
201904011855,60.61,60.62,60.61,60.62
201904011856,60.62,60.63,60.6,60.62
201904011857,60.62,60.64,60.62,60.64
201904011858,60.64,60.64,60.63,60.64
201904011859,60.64,60.66,60.64,60.66
201904011900,60.66,60.66,60.64,60.65
201904011901,60.65,60.66,60.65,60.65
201904011902,60.65,60.65,60.61,60.61
201904011903,60.61,60.61,60.5,60.58
201904011904,60.58,60.58,60.54,60.54
201904011905,60.54,60.56,60.54,60.55
201904011906,60.55,60.56,60.55,60.56
201904011907,60.56,60.57,60.56,60.57
201904011908,60.57,60.58,60.54,60.55
201904011909,60.55,60.56,60.53,60.53
201904011910,60.53,60.54,60.53,60.54
201904011911,60.54,60.55,60.53,60.55
201904011912,60.55,60.56,60.54,60.56
201904011913,60.56,60.59,60.56,60.58
201904011914,60.58,60.6,60.57,60.58
201904011915,60.58,60.6,60.57,60.59
201904011916,60.59,60.61,60.59,60.6
201904011917,60.6,60.6,60.57,60.57
201904011918,60.57,60.57,60.55,60.56
201904011919,60.56,60.56,60.54,60.54
201904011920,60.54,60.56,60.54,60.56
201904011921,60.56,60.56,60.54,60.54
201904011922,60.54,60.55,60.54,60.55
201904011923,60.55,60.55,60.54,60.55
201904011924,60.55,60.58,60.55,60.58
201904011925,60.58,60.58,60.55,60.55
201904011926,60.55,60.55,60.52,60.54
201904011927,60.54,60.55,60.53,60.54
201904011928,60.54,60.54,60.52,60.54
201904011929,60.54,60.54,60.52,60.54
201904011930,60.54,60.55,60.54,60.55
201904011931,60.55,60.55,60.54,60.54
201904011932,60.54,60.55,60.54,60.54
201904011933,60.54,60.54,60.51,60.51
201904011934,60.51,60.52,60.5,60.52
201904011935,60.52,60.52,60.5,60.51
201904011936,60.51,60.53,60.51,60.52
201904011937,60.52,60.55,60.52,60.55
201904011938,60.55,60.55,60.54,60.54
201904011939,60.54,60.57,60.54,60.57
201904011940,60.57,60.58,60.56,60.56
201904011941,60.56,60.56,60.54,60.56
201904011942,60.56,60.56,60.56,60.56
201904011943,60.56,60.56,60.53,60.55
201904011944,60.55,60.55,60.51,60.52
201904011945,60.52,60.55,60.52,60.55
201904011946,60.55,60.55,60.54,60.55
201904011947,60.55,60.56,60.54,60.55
201904011948,60.55,60.58,60.55,60.57
201904011949,60.57,60.58,60.57,60.58
201904011950,60.58,60.58,60.55,60.55
201904011951,60.55,60.63,60.55,60.63
201904011952,60.63,60.64,60.62,60.62
201904011953,60.62,60.66,60.61,60.66
201904011954,60.66,60.67,60.64,60.66
201904011955,60.66,60.73,60.65,60.7
201904011956,60.7,60.71,60.69,60.7
201904011957,60.7,60.71,60.69,60.7
201904011958,60.7,60.71,60.7,60.71
201904011959,60.71,60.71,60.69,60.7
201904012000,60.7,60.74,60.7,60.74
201904012001,60.74,60.75,60.73,60.74
201904012002,60.74,60.74,60.71,60.73
201904012003,60.73,60.74,60.72,60.72
201904012004,60.72,60.75,60.72,60.74
201904012005,60.74,60.74,60.71,60.73
201904012006,60.73,60.75,60.73,60.75
201904012007,60.75,60.78,60.74,60.75
201904012008,60.75,60.77,60.75,60.75
201904012009,60.75,60.78,60.75,60.78
201904012010,60.78,60.83,60.78,60.83
201904012011,60.83,60.87,60.82,60.86
201904012012,60.86,60.88,60.86,60.87
201904012013,60.87,60.88,60.86,60.87
201904012014,60.87,60.87,60.85,60.85
201904012015,60.85,60.88,60.85,60.86
201904012016,60.86,60.87,60.86,60.86
201904012017,60.86,60.87,60.85,60.87
201904012018,60.87,60.88,60.86,60.86
201904012019,60.86,60.86,60.83,60.84
201904012020,60.84,60.84,60.81,60.81
201904012021,60.81,60.81,60.78,60.79
201904012022,60.79,60.79,60.77,60.78
201904012023,60.78,60.8,60.78,60.8
201904012024,60.8,60.81,60.79,60.81
201904012025,60.81,60.82,60.78,60.78
201904012026,60.78,60.8,60.78,60.8
201904012027,60.8,60.81,60.79,60.79
201904012028,60.79,60.81,60.78,60.8
201904012029,60.8,60.81,60.79,60.81
201904012030,60.81,60.82,60.79,60.79
201904012031,60.79,60.82,60.79,60.82
201904012032,60.82,60.86,60.82,60.85
201904012033,60.85,60.85,60.84,60.84
201904012034,60.84,60.84,60.82,60.83
201904012035,60.83,60.85,60.81,60.83
201904012036,60.83,60.85,60.82,60.84
201904012037,60.84,60.85,60.83,60.85
201904012038,60.85,60.86,60.83,60.84
201904012039,60.84,60.85,60.83,60.84
201904012040,60.84,60.87,60.84,60.85
201904012041,60.85,60.85,60.84,60.85
201904012042,60.85,60.87,60.84,60.84
201904012043,60.84,60.85,60.84,60.84
201904012044,60.84,60.85,60.84,60.85
201904012045,60.85,60.86,60.85,60.86
201904012046,60.86,60.86,60.82,60.82
201904012047,60.82,60.84,60.81,60.83
201904012048,60.83,60.84,60.82,60.84
201904012049,60.84,60.85,60.82,60.84
201904012050,60.84,60.84,60.81,60.82
201904012051,60.82,60.83,60.82,60.82
201904012052,60.82,60.83,60.81,60.83
201904012053,60.83,60.83,60.83,60.83
201904012054,60.83,60.86,60.83,60.86
201904012055,60.86,60.86,60.83,60.83
201904012056,60.83,60.84,60.83,60.83
201904012057,60.83,60.84,60.83,60.84
201904012058,60.84,60.86,60.83,60.84
201904012059,60.84,60.84,60.83,60.83
201904012100,60.83,60.85,60.83,60.85
201904012101,60.85,60.85,60.84,60.85
201904012102,60.85,60.87,60.85,60.87
201904012103,60.87,60.87,60.86,60.86
201904012104,60.86,60.87,60.81,60.81
201904012105,60.81,60.81,60.75,60.79
201904012106,60.79,60.8,60.73,60.75
201904012107,60.75,60.77,60.74,60.77
201904012108,60.77,60.79,60.77,60.78
201904012109,60.78,60.79,60.74,60.76
201904012110,60.76,60.77,60.75,60.75
201904012111,60.75,60.78,60.75,60.77
201904012112,60.77,60.79,60.76,60.79
201904012113,60.79,60.81,60.79,60.81
201904012114,60.81,60.83,60.8,60.82
201904012115,60.82,60.82,60.82,60.82
201904012116,60.82,60.85,60.82,60.85
201904012117,60.85,60.89,60.85,60.88
201904012118,60.88,60.9,60.86,60.89
201904012119,60.89,60.9,60.87,60.89
201904012120,60.89,60.89,60.86,60.87
201904012121,60.87,60.88,60.86,60.87
201904012122,60.87,60.88,60.87,60.87
201904012123,60.87,60.88,60.86,60.86
201904012124,60.86,60.87,60.84,60.86
201904012125,60.86,60.86,60.84,60.84
201904012126,60.84,60.84,60.82,60.83
201904012127,60.83,60.85,60.83,60.85
201904012128,60.85,60.85,60.82,60.85
201904012129,60.85,60.86,60.84,60.84
201904012130,60.84,60.85,60.77,60.79
201904012131,60.79,60.81,60.76,60.77
201904012132,60.77,60.79,60.76,60.78
201904012133,60.78,60.8,60.77,60.8
201904012134,60.8,60.83,60.8,60.82
201904012135,60.82,60.84,60.82,60.84
201904012136,60.84,60.85,60.83,60.84
201904012137,60.84,60.87,60.84,60.86
201904012138,60.86,60.86,60.83,60.83
201904012139,60.83,60.84,60.82,60.83
201904012140,60.83,60.83,60.79,60.8
201904012141,60.8,60.81,60.79,60.8
201904012142,60.8,60.8,60.78,60.79
201904012143,60.79,60.8,60.78,60.79
201904012144,60.79,60.81,60.78,60.81
201904012145,60.81,60.82,60.79,60.79
201904012146,60.79,60.81,60.79,60.81
201904012147,60.81,60.81,60.8,60.8
201904012148,60.8,60.81,60.79,60.79
201904012149,60.79,60.79,60.75,60.77
201904012150,60.77,60.77,60.75,60.76
201904012151,60.76,60.78,60.76,60.78
201904012152,60.78,60.79,60.77,60.77
201904012153,60.77,60.78,60.76,60.78
201904012154,60.78,60.8,60.77,60.8
201904012155,60.8,60.8,60.75,60.75
201904012156,60.75,60.77,60.75,60.77
201904012157,60.77,60.79,60.76,60.78
201904012158,60.78,60.84,60.78,60.79
201904012159,60.79,60.81,60.77,60.78
201904012200,60.78,60.86,60.76,60.85
201904012201,60.85,60.85,60.69,60.71
201904012202,60.71,60.8,60.71,60.74
201904012203,60.74,60.76,60.68,60.69
201904012204,60.69,60.72,60.67,60.69
201904012205,60.69,60.71,60.67,60.68
201904012206,60.68,60.68,60.63,60.65
201904012207,60.65,60.69,60.64,60.68
201904012208,60.68,60.74,60.68,60.74
201904012209,60.74,60.79,60.73,60.78
201904012210,60.78,60.78,60.74,60.77
201904012211,60.77,60.77,60.73,60.74
201904012212,60.74,60.75,60.7,60.74
201904012213,60.74,60.77,60.72,60.72
201904012214,60.72,60.77,60.72,60.77
201904012215,60.77,60.79,60.73,60.74
201904012216,60.74,60.8,60.74,60.79
201904012217,60.8,60.83,60.79,60.82
201904012218,60.82,60.83,60.78,60.79
201904012219,60.79,60.79,60.74,60.74
201904012220,60.74,60.75,60.69,60.73
201904012221,60.73,60.73,60.72,60.72
201904012222,60.72,60.74,60.68,60.69
201904012223,60.69,60.73,60.69,60.71
201904012224,60.71,60.74,60.7,60.71
201904012225,60.71,60.72,60.68,60.68
201904012226,60.68,60.71,60.67,60.67
201904012227,60.67,60.71,60.67,60.68
201904012228,60.68,60.7,60.67,60.68
201904012229,60.68,60.71,60.68,60.7
201904012230,60.7,60.71,60.68,60.7
201904012231,60.7,60.7,60.57,60.59
201904012232,60.59,60.65,60.59,60.64
201904012233,60.64,60.65,60.6,60.62
201904012234,60.62,60.62,60.59,60.6
201904012235,60.6,60.64,60.6,60.61
201904012236,60.61,60.62,60.59,60.61
201904012237,60.61,60.63,60.6,60.62
201904012238,60.62,60.62,60.57,60.6
201904012239,60.6,60.62,60.59,60.61
201904012240,60.61,60.61,60.58,60.61
201904012241,60.61,60.61,60.59,60.59
201904012242,60.59,60.62,60.59,60.6
201904012243,60.6,60.62,60.6,60.6
201904012244,60.6,60.61,60.55,60.57
201904012245,60.57,60.57,60.51,60.51
201904012246,60.51,60.57,60.5,60.57
201904012247,60.57,60.61,60.55,60.6
201904012248,60.6,60.6,60.57,60.58
201904012249,60.58,60.6,60.55,60.59
201904012250,60.59,60.62,60.59,60.6
201904012251,60.59,60.71,60.59,60.71
201904012252,60.71,60.77,60.69,60.77
201904012253,60.77,60.8,60.74,60.76
201904012254,60.76,60.79,60.75,60.77
201904012255,60.77,60.78,60.73,60.74
201904012256,60.74,60.76,60.73,60.75
201904012257,60.75,60.76,60.74,60.74
201904012258,60.74,60.75,60.74,60.75
201904012259,60.75,60.76,60.74,60.76
201904012300,60.76,61.01,60.76,61.01
201904012301,61.01,61.05,60.97,61.05
201904012302,61.05,61.12,61.04,61.1
201904012303,61.1,61.13,61.06,61.09
201904012304,61.09,61.11,61.03,61.06
201904012305,61.06,61.09,61.01,61.03
201904012306,61.02,61.03,60.96,60.97
201904012307,60.97,60.99,60.95,60.98
201904012308,60.98,60.99,60.94,60.97
201904012309,60.96,60.97,60.95,60.95
201904012310,60.95,60.96,60.92,60.93
201904012311,60.93,60.96,60.91,60.96
201904012312,60.95,60.99,60.94,60.97
201904012313,60.97,60.99,60.9,60.91
201904012314,60.91,60.92,60.87,60.9
201904012315,60.9,60.93,60.87,60.91
201904012316,60.91,60.94,60.89,60.91
201904012317,60.91,60.93,60.89,60.91
201904012318,60.91,60.93,60.87,60.89
201904012319,60.89,60.9,60.84,60.86
201904012320,60.86,60.86,60.8,60.83
201904012321,60.83,60.87,60.83,60.86
201904012322,60.86,60.86,60.81,60.83
201904012323,60.83,60.87,60.82,60.87
201904012324,60.87,60.94,60.87,60.92
201904012325,60.92,60.96,60.91,60.96
201904012326,60.96,60.96,60.9,60.91
201904012327,60.91,60.92,60.87,60.87
201904012328,60.87,60.9,60.86,60.9
201904012329,60.9,60.95,60.9,60.95
201904012330,60.94,60.98,60.94,60.95
201904012331,60.95,60.99,60.92,60.98
201904012332,60.97,60.99,60.95,60.95
201904012333,60.95,61.01,60.95,61.01
201904012334,61.01,61.01,60.99,60.99
201904012335,60.99,60.99,60.87,60.88
201904012336,60.88,60.96,60.88,60.94
201904012337,60.94,60.97,60.94,60.97
201904012338,60.97,60.98,60.95,60.98
201904012339,60.98,60.99,60.94,60.94
201904012340,60.94,60.95,60.89,60.92
201904012341,60.92,60.92,60.88,60.88
201904012342,60.88,60.91,60.87,60.88
201904012343,60.88,60.91,60.87,60.91
201904012344,60.91,60.92,60.88,60.91
201904012345,60.91,60.91,60.84,60.87
201904012346,60.87,60.87,60.83,60.84
201904012347,60.84,60.88,60.83,60.88
201904012348,60.88,60.93,60.88,60.91
201904012349,60.91,60.94,60.89,60.91
201904012350,60.91,60.94,60.9,60.93
201904012351,60.93,60.94,60.92,60.94
201904012352,60.94,60.94,60.91,60.94
201904012353,60.94,60.94,60.89,60.9
201904012354,60.9,60.91,60.9,60.91
201904012355,60.91,60.93,60.89,60.93
201904012356,60.93,60.98,60.92,60.98
201904012357,60.98,61,60.96,60.99
201904012358,60.99,61.02,60.99,61.01
201904012359,61.01,61.04,61,61.02
201904020000,61.02,61.03,61.01,61.01
201904020001,61.01,61.03,61.01,61.03
201904020002,61.03,61.04,61.02,61.03
201904020003,61.03,61.17,61.03,61.12
201904020004,61.11,61.12,61.05,61.05
201904020005,61.05,61.08,61.01,61.08
201904020006,61.08,61.08,61,61
201904020007,61,61.03,61,61.01
201904020008,61.01,61.02,61,61
201904020009,61,61.02,60.97,60.98
201904020010,60.98,60.98,60.94,60.97
201904020011,60.97,61,60.96,61
201904020012,61,61.05,61,61.03
201904020013,61.03,61.06,61.02,61.06
201904020014,61.06,61.12,61.05,61.12
201904020015,61.12,61.16,61.07,61.07
201904020016,61.07,61.12,61.07,61.11
201904020017,61.11,61.11,61.09,61.11
201904020018,61.11,61.11,61.09,61.09
201904020019,61.09,61.11,61.05,61.06
201904020020,61.06,61.07,61.05,61.05
201904020021,61.05,61.06,61.04,61.06
201904020022,61.06,61.06,61.02,61.04
201904020023,61.04,61.07,61.03,61.06
201904020024,61.06,61.1,61.05,61.05
201904020025,61.05,61.11,61.03,61.11
201904020026,61.11,61.12,61.07,61.12
201904020027,61.12,61.19,61.12,61.13
201904020028,61.13,61.15,61.08,61.11
201904020029,61.11,61.2,61.11,61.16
201904020030,61.16,61.17,61.11,61.17
201904020031,61.17,61.22,61.17,61.2
201904020032,61.2,61.2,61.12,61.15
201904020033,61.15,61.15,61.11,61.11
201904020034,61.12,61.14,61.11,61.13
201904020035,61.13,61.16,61.12,61.13
201904020036,61.13,61.14,61.09,61.1
201904020037,61.1,61.12,61.08,61.1
201904020038,61.1,61.12,61.1,61.1
201904020039,61.1,61.12,61.09,61.09
201904020040,61.09,61.11,61.08,61.08
201904020041,61.08,61.08,61.07,61.07
201904020042,61.07,61.07,61.03,61.03
201904020043,61.03,61.03,61.01,61.02
201904020044,61.02,61.02,61,61.01
201904020045,61.01,61.02,60.94,60.97
201904020046,60.97,61,60.96,60.99
201904020047,60.99,61.01,60.99,61
201904020048,61,61.03,60.99,61.02
201904020049,61.03,61.05,61.02,61.04
201904020050,61.04,61.08,61.03,61.07
201904020051,61.07,61.08,61.06,61.06
201904020052,61.06,61.08,61.06,61.06
201904020053,61.06,61.12,61.06,61.11
201904020054,61.11,61.14,61.1,61.11
201904020055,61.11,61.15,61.11,61.15
201904020056,61.15,61.18,61.15,61.17
201904020057,61.17,61.18,61.16,61.17
201904020058,61.17,61.2,61.15,61.18
201904020059,61.18,61.22,61.17,61.21
201904020100,61.21,61.23,61.15,61.17
201904020101,61.17,61.18,61.15,61.16
201904020102,61.16,61.16,61.14,61.15
201904020103,61.15,61.15,61.15,61.15
201904020104,61.15,61.18,61.15,61.17
201904020105,61.16,61.16,61.11,61.12
201904020106,61.12,61.12,61.09,61.11
201904020107,61.11,61.11,61.08,61.09
201904020108,61.09,61.1,61.08,61.1
201904020109,61.1,61.11,61.09,61.1
201904020110,61.1,61.11,61.07,61.07
201904020111,61.07,61.1,61.07,61.09
201904020112,61.09,61.1,61.05,61.07
201904020113,61.07,61.09,61.06,61.07
201904020114,61.07,61.09,61.05,61.09
201904020115,61.09,61.1,61.07,61.08
201904020116,61.08,61.09,61.06,61.07
201904020117,61.07,61.09,61.04,61.05
201904020118,61.05,61.08,61.04,61.07
201904020119,61.07,61.08,61.05,61.07
201904020120,61.07,61.09,61.07,61.08
201904020121,61.08,61.1,61.08,61.1
201904020122,61.1,61.13,61.09,61.13
201904020123,61.13,61.16,61.13,61.15
201904020124,61.15,61.17,61.14,61.14
201904020125,61.14,61.14,61.11,61.14
201904020126,61.14,61.15,61.13,61.13
201904020127,61.13,61.13,61.1,61.11
201904020128,61.11,61.13,61.1,61.13
201904020129,61.13,61.14,61.12,61.13
201904020130,61.13,61.18,61.13,61.16
201904020131,61.16,61.17,61.16,61.17
201904020132,61.17,61.2,61.17,61.19
201904020133,61.19,61.2,61.19,61.19
201904020134,61.19,61.2,61.18,61.19
201904020135,61.19,61.19,61.18,61.18
201904020136,61.18,61.18,61.15,61.16
201904020137,61.16,61.16,61.14,61.15
201904020138,61.15,61.19,61.15,61.19
201904020139,61.19,61.2,61.18,61.2
201904020140,61.2,61.23,61.2,61.23
201904020141,61.23,61.3,61.22,61.27
201904020142,61.27,61.28,61.24,61.25
201904020143,61.25,61.3,61.25,61.3
201904020144,61.3,61.3,61.26,61.26
201904020145,61.27,61.3,61.27,61.3
201904020146,61.3,61.31,61.29,61.31
201904020147,61.31,61.33,61.29,61.29
201904020148,61.29,61.31,61.29,61.31
201904020149,61.31,61.32,61.28,61.29
201904020150,61.29,61.3,61.28,61.29
201904020151,61.29,61.3,61.28,61.3
201904020152,61.3,61.3,61.23,61.25
201904020153,61.25,61.28,61.25,61.28
201904020154,61.28,61.3,61.28,61.3
201904020155,61.3,61.31,61.28,61.28
201904020156,61.28,61.28,61.27,61.28
201904020157,61.28,61.32,61.28,61.32
201904020158,61.32,61.33,61.31,61.33
201904020159,61.33,61.37,61.31,61.33
201904020200,61.34,61.41,61.33,61.41
201904020201,61.41,61.43,61.38,61.42
201904020202,61.42,61.44,61.4,61.4
201904020203,61.4,61.45,61.4,61.45
201904020204,61.45,61.49,61.44,61.44
201904020205,61.44,61.45,61.41,61.44
201904020206,61.44,61.45,61.42,61.45
201904020207,61.45,61.46,61.43,61.44
201904020208,61.44,61.47,61.44,61.46
201904020209,61.46,61.48,61.45,61.47
201904020210,61.47,61.47,61.45,61.46
201904020211,61.46,61.48,61.45,61.46
201904020212,61.46,61.47,61.44,61.45
201904020213,61.45,61.47,61.44,61.47
201904020214,61.47,61.48,61.46,61.48
201904020215,61.48,61.56,61.48,61.54
201904020216,61.54,61.55,61.53,61.53
201904020217,61.53,61.55,61.5,61.54
201904020218,61.54,61.55,61.51,61.51
201904020219,61.51,61.52,61.49,61.49
201904020220,61.49,61.5,61.46,61.46
201904020221,61.46,61.48,61.45,61.48
201904020222,61.48,61.48,61.46,61.47
201904020223,61.47,61.49,61.46,61.49
201904020224,61.49,61.49,61.48,61.48
201904020225,61.48,61.48,61.46,61.47
201904020226,61.47,61.51,61.47,61.51
201904020227,61.51,61.58,61.5,61.57
201904020228,61.57,61.62,61.55,61.56
201904020229,61.56,61.6,61.55,61.55
201904020230,61.55,61.58,61.53,61.53
201904020231,61.53,61.58,61.52,61.52
201904020232,61.52,61.55,61.52,61.55
201904020233,61.54,61.58,61.54,61.58
201904020234,61.58,61.61,61.58,61.6
201904020235,61.6,61.61,61.58,61.6
201904020236,61.6,61.61,61.58,61.61
201904020237,61.61,61.62,61.6,61.62
201904020238,61.62,61.63,61.61,61.63
201904020239,61.63,61.63,61.58,61.59
201904020240,61.59,61.64,61.59,61.64
201904020241,61.64,61.66,61.63,61.65
201904020242,61.65,61.65,61.61,61.62
201904020243,61.62,61.65,61.56,61.56
201904020244,61.56,61.62,61.56,61.6
201904020245,61.6,61.62,61.6,61.62
201904020246,61.62,61.66,61.62,61.66
201904020247,61.66,61.7,61.64,61.65
201904020248,61.65,61.67,61.63,61.66
201904020249,61.66,61.68,61.63,61.67
201904020250,61.67,61.69,61.64,61.65
201904020251,61.65,61.68,61.64,61.64
201904020252,61.64,61.65,61.61,61.61
201904020253,61.61,61.65,61.6,61.62
201904020254,61.62,61.64,61.6,61.61
201904020255,61.61,61.62,61.58,61.6
201904020256,61.6,61.61,61.59,61.6
201904020257,61.6,61.62,61.59,61.59
201904020258,61.59,61.61,61.58,61.6
201904020259,61.6,61.6,61.56,61.59
201904020300,61.59,61.59,61.55,61.55
201904020301,61.55,61.56,61.52,61.55
201904020302,61.55,61.56,61.52,61.53
201904020303,61.53,61.54,61.51,61.52
201904020304,61.52,61.53,61.48,61.49
201904020305,61.49,61.52,61.49,61.51
201904020306,61.51,61.55,61.51,61.55
201904020307,61.56,61.57,61.51,61.52
201904020308,61.52,61.56,61.52,61.55
201904020309,61.55,61.56,61.55,61.55
201904020310,61.55,61.56,61.52,61.55
201904020311,61.55,61.57,61.54,61.57
201904020312,61.57,61.59,61.55,61.57
201904020313,61.57,61.58,61.53,61.53
201904020314,61.53,61.57,61.52,61.56
201904020315,61.56,61.58,61.54,61.55
201904020316,61.55,61.57,61.51,61.51
201904020317,61.51,61.52,61.5,61.52
201904020318,61.52,61.58,61.51,61.57
201904020319,61.57,61.59,61.57,61.58
201904020320,61.58,61.58,61.52,61.54
201904020321,61.54,61.56,61.53,61.54
201904020322,61.54,61.56,61.53,61.55
201904020323,61.55,61.57,61.53,61.56
201904020324,61.56,61.58,61.55,61.58
201904020325,61.59,61.59,61.51,61.53
201904020326,61.53,61.56,61.48,61.56
201904020327,61.56,61.57,61.5,61.55
201904020328,61.55,61.58,61.51,61.57
201904020329,61.57,61.61,61.55,61.58
201904020330,61.58,61.58,61.55,61.57
201904020331,61.57,61.6,61.57,61.6
201904020332,61.6,61.62,61.6,61.6
201904020333,61.6,61.6,61.59,61.6
201904020334,61.6,61.61,61.59,61.6
201904020335,61.6,61.6,61.56,61.56
201904020336,61.56,61.58,61.56,61.57
201904020337,61.57,61.58,61.56,61.56
201904020338,61.56,61.57,61.55,61.56
201904020339,61.56,61.56,61.55,61.56
201904020340,61.56,61.57,61.56,61.56
201904020341,61.56,61.56,61.55,61.56
201904020342,61.56,61.56,61.54,61.55
201904020343,61.55,61.55,61.54,61.54
201904020344,61.54,61.55,61.53,61.53
201904020345,61.53,61.53,61.52,61.52
201904020346,61.52,61.53,61.52,61.53
201904020347,61.53,61.54,61.53,61.54
201904020348,61.54,61.55,61.54,61.54
201904020349,61.54,61.54,61.54,61.54
201904020350,61.54,61.55,61.53,61.55
201904020351,61.55,61.55,61.53,61.54
201904020352,61.54,61.55,61.54,61.54
201904020353,61.54,61.56,61.54,61.55
201904020354,61.55,61.55,61.55,61.55
201904020355,61.55,61.56,61.55,61.56
201904020356,61.56,61.56,61.55,61.55
201904020357,61.55,61.56,61.55,61.55
201904020358,61.55,61.56,61.55,61.55
201904020359,61.55,61.56,61.55,61.55
201904020400,61.55,61.55,61.53,61.54
201904020401,61.54,61.54,61.54,61.54
201904020402,61.54,61.55,61.54,61.55
201904020403,61.55,61.56,61.55,61.55
201904020404,61.55,61.56,61.55,61.56
201904020405,61.56,61.56,61.55,61.56
201904020406,61.56,61.58,61.56,61.57
201904020407,61.57,61.58,61.56,61.57
201904020408,61.57,61.58,61.57,61.58
201904020409,61.58,61.58,61.57,61.57
201904020410,61.57,61.57,61.56,61.56
201904020411,61.56,61.58,61.56,61.57
201904020412,61.57,61.58,61.57,61.57
201904020413,61.57,61.58,61.57,61.58
201904020414,61.58,61.58,61.57,61.58
201904020415,61.58,61.58,61.57,61.58
201904020416,61.58,61.59,61.58,61.59
201904020417,61.59,61.6,61.59,61.6
201904020418,61.6,61.6,61.59,61.59
201904020419,61.59,61.59,61.59,61.59
201904020420,61.59,61.6,61.58,61.6
201904020421,61.6,61.6,61.59,61.59
201904020422,61.59,61.6,61.59,61.59
201904020423,61.59,61.59,61.58,61.58
201904020424,61.58,61.59,61.58,61.59
201904020425,61.59,61.59,61.59,61.59
201904020426,61.59,61.59,61.58,61.59
201904020427,61.59,61.6,61.59,61.59
201904020428,61.59,61.59,61.59,61.59
201904020429,61.59,61.59,61.57,61.58
201904020430,61.58,61.58,61.57,61.58
201904020431,61.58,61.58,61.57,61.57
201904020432,61.57,61.58,61.56,61.57
201904020433,61.57,61.58,61.57,61.57
201904020434,61.57,61.58,61.57,61.57
201904020435,61.57,61.59,61.57,61.58
201904020436,61.58,61.58,61.58,61.58
201904020437,61.58,61.59,61.58,61.59
201904020438,61.59,61.6,61.59,61.6
201904020439,61.6,61.6,61.6,61.6
201904020440,61.6,61.61,61.6,61.6
201904020441,61.6,61.65,61.6,61.63
201904020442,61.63,61.63,61.62,61.63
201904020443,61.63,61.64,61.63,61.64
201904020444,61.64,61.66,61.64,61.65
201904020445,61.65,61.66,61.64,61.65
201904020446,61.65,61.66,61.64,61.64
201904020447,61.64,61.65,61.64,61.64
201904020448,61.64,61.64,61.64,61.64
201904020449,61.64,61.64,61.63,61.63
201904020450,61.63,61.63,61.62,61.62
201904020451,61.62,61.62,61.61,61.62
201904020452,61.62,61.62,61.62,61.62
201904020453,61.62,61.62,61.6,61.6
201904020454,61.6,61.61,61.6,61.61
201904020455,61.61,61.63,61.61,61.63
201904020456,61.63,61.65,61.62,61.64
201904020457,61.64,61.65,61.64,61.64
201904020458,61.64,61.64,61.63,61.63
201904020459,61.63,61.63,61.62,61.63
201904020500,61.63,61.63,61.61,61.62
201904020501,61.62,61.62,61.61,61.62
201904020502,61.62,61.63,61.62,61.63
201904020503,61.63,61.64,61.63,61.64
201904020504,61.64,61.64,61.63,61.64
201904020505,61.64,61.64,61.63,61.63
201904020506,61.63,61.65,61.63,61.64
201904020507,61.64,61.64,61.63,61.64
201904020508,61.64,61.65,61.64,61.65
201904020509,61.65,61.65,61.65,61.65
201904020510,61.65,61.66,61.65,61.65
201904020511,61.65,61.66,61.65,61.66
201904020512,61.66,61.67,61.66,61.66
201904020513,61.66,61.67,61.66,61.67
201904020514,61.67,61.67,61.66,61.67
201904020515,61.67,61.68,61.66,61.67
201904020516,61.67,61.69,61.67,61.69
201904020517,61.69,61.7,61.69,61.69
201904020518,61.69,61.69,61.68,61.68
201904020519,61.68,61.69,61.68,61.68
201904020520,61.68,61.69,61.68,61.69
201904020521,61.69,61.69,61.69,61.69
201904020522,61.69,61.7,61.69,61.69
201904020523,61.69,61.69,61.69,61.69
201904020524,61.69,61.69,61.69,61.69
201904020525,61.69,61.71,61.69,61.7
201904020526,61.7,61.7,61.7,61.7
201904020527,61.7,61.71,61.7,61.7
201904020528,61.7,61.7,61.69,61.7
201904020529,61.7,61.7,61.69,61.7
201904020530,61.7,61.72,61.68,61.69
201904020531,61.69,61.7,61.69,61.69
201904020532,61.69,61.7,61.67,61.68
201904020533,61.68,61.68,61.68,61.68
201904020534,61.68,61.68,61.68,61.68
201904020535,61.68,61.68,61.67,61.68
201904020536,61.68,61.68,61.68,61.68
201904020537,61.68,61.69,61.68,61.69
201904020538,61.69,61.69,61.69,61.69
201904020539,61.69,61.69,61.68,61.68
201904020540,61.68,61.68,61.68,61.68
201904020541,61.68,61.69,61.68,61.69
201904020542,61.69,61.7,61.68,61.7
201904020543,61.7,61.7,61.69,61.7
201904020544,61.7,61.7,61.69,61.7
201904020545,61.7,61.71,61.66,61.67
201904020546,61.67,61.69,61.66,61.68
201904020547,61.68,61.7,61.68,61.7
201904020548,61.7,61.71,61.68,61.7
201904020549,61.7,61.73,61.7,61.71
201904020550,61.71,61.77,61.71,61.76
201904020551,61.76,61.77,61.76,61.76
201904020552,61.76,61.77,61.76,61.77
201904020553,61.77,61.78,61.75,61.77
201904020554,61.77,61.78,61.75,61.75
201904020555,61.75,61.77,61.73,61.74
201904020556,61.74,61.74,61.72,61.73
201904020557,61.73,61.74,61.73,61.74
201904020558,61.74,61.75,61.73,61.75
201904020559,61.75,61.76,61.75,61.76
