日時,始値(BID),高値(BID),安値(BID),終値(BID)
201907310700,58.33,58.35,58.3,58.34
201907310701,58.34,58.36,58.34,58.35
201907310702,58.35,58.38,58.34,58.38
201907310703,58.38,58.39,58.37,58.38
201907310704,58.38,58.38,58.27,58.3
201907310705,58.3,58.32,58.29,58.29
201907310706,58.29,58.31,58.29,58.3
201907310707,58.3,58.31,58.29,58.29
201907310708,58.29,58.31,58.29,58.31
201907310709,58.31,58.32,58.3,58.32
201907310710,58.32,58.34,58.32,58.34
201907310711,58.34,58.34,58.33,58.34
201907310712,58.34,58.34,58.33,58.33
201907310713,58.33,58.33,58.33,58.33
201907310714,58.33,58.33,58.32,58.32
201907310715,58.32,58.33,58.32,58.32
201907310716,58.32,58.32,58.31,58.31
201907310717,58.32,58.32,58.24,58.24
201907310718,58.24,58.25,58.19,58.19
201907310719,58.19,58.19,58.01,58.02
201907310720,58.02,58.08,57.98,58.08
201907310721,58.08,58.08,57.97,57.98
201907310722,57.98,58.07,57.96,58.03
201907310723,58.03,58.16,58.03,58.14
201907310724,58.14,58.14,58.09,58.11
201907310725,58.11,58.11,58.08,58.09
201907310726,58.09,58.13,58.08,58.13
201907310727,58.13,58.17,58.13,58.17
201907310728,58.17,58.18,58.17,58.17
201907310729,58.17,58.17,58.12,58.14
201907310730,58.14,58.14,58.13,58.13
201907310731,58.13,58.16,58.12,58.16
201907310732,58.17,58.17,58.13,58.13
201907310733,58.13,58.14,58.13,58.13
201907310734,58.13,58.14,58.11,58.11
201907310735,58.11,58.13,58.1,58.11
201907310736,58.11,58.14,58.11,58.14
201907310737,58.14,58.17,58.14,58.16
201907310738,58.16,58.17,58.14,58.14
201907310739,58.14,58.14,58.13,58.13
201907310740,58.13,58.15,58.13,58.13
201907310741,58.13,58.15,58.13,58.15
201907310742,58.15,58.15,58.15,58.15
201907310743,58.15,58.17,58.15,58.15
201907310744,58.15,58.16,58.15,58.16
201907310745,58.16,58.17,58.15,58.17
201907310746,58.17,58.17,58.15,58.16
201907310747,58.16,58.16,58.15,58.15
201907310748,58.15,58.16,58.15,58.16
201907310749,58.16,58.16,58.15,58.16
201907310750,58.16,58.16,58.14,58.14
201907310751,58.14,58.14,58.12,58.13
201907310752,58.13,58.14,58.12,58.13
201907310753,58.13,58.14,58.12,58.12
201907310754,58.12,58.14,58.11,58.12
201907310755,58.12,58.14,58.11,58.11
201907310756,58.11,58.12,58.11,58.11
201907310757,58.11,58.11,58.1,58.11
201907310758,58.11,58.11,58.11,58.11
201907310759,58.11,58.14,58.11,58.13
201907310800,58.13,58.14,58.12,58.12
201907310801,58.12,58.13,58.12,58.13
201907310802,58.13,58.14,58.12,58.14
201907310803,58.14,58.16,58.14,58.14
201907310804,58.14,58.15,58.14,58.14
201907310805,58.14,58.14,58.14,58.14
201907310806,58.14,58.14,58.14,58.14
201907310807,58.14,58.14,58.13,58.13
201907310808,58.13,58.14,58.13,58.14
201907310809,58.14,58.17,58.14,58.16
201907310810,58.16,58.16,58.14,58.15
201907310811,58.15,58.15,58.14,58.15
201907310812,58.15,58.15,58.14,58.15
201907310813,58.15,58.15,58.14,58.14
201907310814,58.14,58.16,58.14,58.16
201907310815,58.16,58.17,58.16,58.16
201907310816,58.16,58.18,58.16,58.18
201907310817,58.18,58.18,58.17,58.17
201907310818,58.17,58.19,58.16,58.16
201907310819,58.16,58.16,58.15,58.15
201907310820,58.15,58.16,58.15,58.16
201907310821,58.16,58.17,58.16,58.16
201907310822,58.16,58.16,58.15,58.15
201907310823,58.15,58.16,58.15,58.15
201907310824,58.15,58.17,58.15,58.17
201907310825,58.17,58.17,58.16,58.17
201907310826,58.17,58.19,58.16,58.19
201907310827,58.19,58.2,58.19,58.19
201907310828,58.19,58.2,58.19,58.2
201907310829,58.2,58.2,58.19,58.19
201907310830,58.19,58.21,58.19,58.2
201907310831,58.2,58.2,58.19,58.2
201907310832,58.2,58.2,58.18,58.19
201907310833,58.19,58.2,58.18,58.19
201907310834,58.19,58.2,58.18,58.19
201907310835,58.19,58.19,58.18,58.19
201907310836,58.19,58.19,58.19,58.19
201907310837,58.19,58.19,58.19,58.19
201907310838,58.19,58.21,58.19,58.21
201907310839,58.21,58.21,58.21,58.21
201907310840,58.21,58.21,58.21,58.21
201907310841,58.21,58.22,58.21,58.22
201907310842,58.22,58.22,58.22,58.22
201907310843,58.22,58.22,58.22,58.22
201907310844,58.22,58.22,58.21,58.21
201907310845,58.21,58.21,58.21,58.21
201907310846,58.21,58.21,58.21,58.21
201907310847,58.21,58.21,58.21,58.21
201907310848,58.21,58.21,58.21,58.21
201907310849,58.21,58.23,58.21,58.23
201907310850,58.23,58.24,58.22,58.23
201907310851,58.23,58.25,58.23,58.24
201907310852,58.24,58.24,58.23,58.23
201907310853,58.23,58.24,58.23,58.24
201907310854,58.24,58.24,58.23,58.24
201907310855,58.24,58.25,58.24,58.24
201907310856,58.24,58.25,58.24,58.24
201907310857,58.24,58.26,58.24,58.25
201907310858,58.25,58.27,58.25,58.27
201907310859,58.27,58.27,58.26,58.26
201907310900,58.26,58.28,58.24,58.28
201907310901,58.28,58.3,58.26,58.27
201907310902,58.27,58.3,58.27,58.29
201907310903,58.29,58.29,58.27,58.28
201907310904,58.28,58.3,58.27,58.29
201907310905,58.29,58.31,58.28,58.29
201907310906,58.29,58.29,58.26,58.28
201907310907,58.28,58.28,58.27,58.28
201907310908,58.28,58.28,58.26,58.28
201907310909,58.28,58.28,58.27,58.27
201907310910,58.27,58.28,58.25,58.26
201907310911,58.27,58.28,58.26,58.26
201907310912,58.26,58.27,58.25,58.25
201907310913,58.25,58.26,58.24,58.24
201907310914,58.24,58.25,58.24,58.25
201907310915,58.25,58.26,58.24,58.25
201907310916,58.25,58.26,58.24,58.25
201907310917,58.25,58.25,58.25,58.25
201907310918,58.25,58.26,58.25,58.25
201907310919,58.25,58.3,58.25,58.3
201907310920,58.3,58.32,58.3,58.31
201907310921,58.31,58.32,58.31,58.32
201907310922,58.32,58.32,58.31,58.31
201907310923,58.31,58.31,58.3,58.3
201907310924,58.3,58.32,58.3,58.32
201907310925,58.32,58.32,58.31,58.31
201907310926,58.31,58.31,58.3,58.31
201907310927,58.31,58.31,58.28,58.29
201907310928,58.29,58.29,58.28,58.29
201907310929,58.29,58.31,58.28,58.3
201907310930,58.3,58.3,58.29,58.29
201907310931,58.29,58.3,58.29,58.29
201907310932,58.29,58.3,58.29,58.29
201907310933,58.29,58.29,58.29,58.29
201907310934,58.29,58.3,58.29,58.3
201907310935,58.3,58.33,58.3,58.32
201907310936,58.32,58.32,58.31,58.32
201907310937,58.32,58.32,58.31,58.32
201907310938,58.32,58.32,58.31,58.31
201907310939,58.31,58.31,58.3,58.31
201907310940,58.31,58.31,58.3,58.3
201907310941,58.3,58.32,58.3,58.31
201907310942,58.31,58.32,58.31,58.32
201907310943,58.32,58.32,58.31,58.32
201907310944,58.32,58.32,58.31,58.32
201907310945,58.32,58.35,58.32,58.34
201907310946,58.34,58.34,58.31,58.32
201907310947,58.32,58.32,58.31,58.32
201907310948,58.32,58.32,58.31,58.31
201907310949,58.31,58.32,58.31,58.31
201907310950,58.31,58.32,58.3,58.32
201907310951,58.32,58.32,58.31,58.31
201907310952,58.31,58.31,58.3,58.3
201907310953,58.3,58.3,58.3,58.3
201907310954,58.3,58.3,58.3,58.3
201907310955,58.3,58.3,58.3,58.3
201907310956,58.3,58.3,58.3,58.3
201907310957,58.3,58.3,58.29,58.29
201907310958,58.29,58.29,58.29,58.29
201907310959,58.29,58.31,58.29,58.3
201907311000,58.3,58.34,58.29,58.31
201907311001,58.31,58.31,58.28,58.28
201907311002,58.28,58.29,58.27,58.28
201907311003,58.3,58.31,58.28,58.3
201907311004,58.3,58.3,58.28,58.28
201907311005,58.28,58.32,58.27,58.31
201907311006,58.31,58.35,58.31,58.35
201907311007,58.35,58.35,58.32,58.32
201907311008,58.32,58.38,58.32,58.37
201907311009,58.37,58.4,58.36,58.39
201907311010,58.39,58.41,58.38,58.38
201907311011,58.38,58.39,58.36,58.36
201907311012,58.36,58.37,58.35,58.37
201907311013,58.37,58.38,58.37,58.38
201907311014,58.38,58.38,58.37,58.37
201907311015,58.37,58.38,58.36,58.37
201907311016,58.37,58.37,58.36,58.37
201907311017,58.37,58.37,58.36,58.37
201907311018,58.37,58.38,58.36,58.36
201907311019,58.36,58.37,58.35,58.35
201907311020,58.35,58.36,58.35,58.36
201907311021,58.36,58.36,58.35,58.35
201907311022,58.35,58.39,58.35,58.39
201907311023,58.39,58.39,58.37,58.37
201907311024,58.37,58.4,58.37,58.4
201907311025,58.4,58.42,58.39,58.41
201907311026,58.41,58.42,58.39,58.39
201907311027,58.39,58.4,58.39,58.4
201907311028,58.4,58.4,58.38,58.38
201907311029,58.38,58.39,58.37,58.37
201907311030,58.37,58.42,58.37,58.4
201907311031,58.4,58.4,58.39,58.39
201907311032,58.39,58.41,58.39,58.4
201907311033,58.4,58.42,58.4,58.42
201907311034,58.42,58.42,58.41,58.42
201907311035,58.42,58.42,58.4,58.41
201907311036,58.41,58.43,58.41,58.42
201907311037,58.42,58.43,58.41,58.43
201907311038,58.43,58.44,58.42,58.44
201907311039,58.44,58.45,58.44,58.45
201907311040,58.45,58.45,58.43,58.44
201907311041,58.44,58.46,58.44,58.45
201907311042,58.45,58.45,58.44,58.45
201907311043,58.45,58.45,58.44,58.44
201907311044,58.44,58.44,58.41,58.42
201907311045,58.42,58.42,58.41,58.42
201907311046,58.42,58.43,58.42,58.43
201907311047,58.43,58.43,58.42,58.42
201907311048,58.42,58.42,58.41,58.41
201907311049,58.41,58.42,58.41,58.42
201907311050,58.42,58.45,58.42,58.44
201907311051,58.44,58.44,58.41,58.43
201907311052,58.43,58.43,58.41,58.42
201907311053,58.42,58.43,58.42,58.42
201907311054,58.42,58.43,58.41,58.42
201907311055,58.42,58.43,58.42,58.42
201907311056,58.42,58.43,58.41,58.42
201907311057,58.42,58.43,58.42,58.42
201907311058,58.42,58.44,58.42,58.43
201907311059,58.43,58.44,58.42,58.43
201907311100,58.43,58.47,58.43,58.45
201907311101,58.45,58.45,58.43,58.43
201907311102,58.43,58.44,58.43,58.43
201907311103,58.43,58.44,58.43,58.44
201907311104,58.44,58.45,58.44,58.45
201907311105,58.45,58.47,58.45,58.46
201907311106,58.46,58.46,58.44,58.44
201907311107,58.44,58.45,58.44,58.45
201907311108,58.45,58.45,58.44,58.44
201907311109,58.44,58.45,58.44,58.45
201907311110,58.45,58.45,58.44,58.44
201907311111,58.44,58.44,58.44,58.44
201907311112,58.44,58.44,58.43,58.44
201907311113,58.44,58.47,58.43,58.47
201907311114,58.47,58.47,58.47,58.47
201907311115,58.47,58.47,58.47,58.47
201907311116,58.47,58.47,58.44,58.44
201907311117,58.44,58.44,58.44,58.44
201907311118,58.44,58.44,58.43,58.44
201907311119,58.44,58.44,58.41,58.42
201907311120,58.42,58.42,58.41,58.42
201907311121,58.42,58.42,58.42,58.42
201907311122,58.42,58.42,58.41,58.42
201907311123,58.42,58.42,58.41,58.41
201907311124,58.41,58.41,58.4,58.4
201907311125,58.4,58.4,58.4,58.4
201907311126,58.4,58.4,58.39,58.4
201907311127,58.4,58.42,58.4,58.42
201907311128,58.42,58.42,58.42,58.42
201907311129,58.42,58.42,58.41,58.41
201907311130,58.41,58.42,58.4,58.41
201907311131,58.41,58.41,58.41,58.41
201907311132,58.41,58.41,58.39,58.4
201907311133,58.4,58.4,58.39,58.39
201907311134,58.39,58.4,58.38,58.39
201907311135,58.39,58.4,58.39,58.4
201907311136,58.39,58.41,58.39,58.41
201907311137,58.41,58.42,58.4,58.42
201907311138,58.42,58.43,58.42,58.43
201907311139,58.43,58.44,58.42,58.43
201907311140,58.43,58.44,58.43,58.43
201907311141,58.43,58.43,58.43,58.43
201907311142,58.43,58.43,58.42,58.42
201907311143,58.42,58.44,58.42,58.42
201907311144,58.42,58.43,58.42,58.42
201907311145,58.42,58.43,58.41,58.41
201907311146,58.41,58.43,58.41,58.42
201907311147,58.42,58.43,58.42,58.42
201907311148,58.42,58.43,58.41,58.43
201907311149,58.43,58.43,58.42,58.42
201907311150,58.42,58.42,58.41,58.42
201907311151,58.42,58.42,58.41,58.42
201907311152,58.42,58.43,58.41,58.43
201907311153,58.43,58.45,58.43,58.44
201907311154,58.44,58.44,58.43,58.43
201907311155,58.43,58.43,58.42,58.43
201907311156,58.43,58.44,58.43,58.43
201907311157,58.43,58.44,58.43,58.43
201907311158,58.43,58.44,58.43,58.43
201907311159,58.43,58.46,58.43,58.46
201907311200,58.46,58.5,58.46,58.49
201907311201,58.49,58.49,58.48,58.49
201907311202,58.49,58.49,58.48,58.49
201907311203,58.49,58.51,58.49,58.49
201907311204,58.49,58.5,58.49,58.5
201907311205,58.5,58.51,58.49,58.49
201907311206,58.49,58.5,58.49,58.5
201907311207,58.5,58.5,58.47,58.47
201907311208,58.47,58.48,58.46,58.46
201907311209,58.46,58.47,58.45,58.45
201907311210,58.45,58.46,58.43,58.44
201907311211,58.44,58.44,58.42,58.44
201907311212,58.44,58.44,58.42,58.42
201907311213,58.42,58.43,58.42,58.42
201907311214,58.42,58.44,58.41,58.44
201907311215,58.44,58.44,58.43,58.44
201907311216,58.44,58.45,58.44,58.45
201907311217,58.45,58.47,58.45,58.46
201907311218,58.46,58.47,58.46,58.46
201907311219,58.46,58.47,58.46,58.46
201907311220,58.46,58.47,58.45,58.46
201907311221,58.46,58.46,58.44,58.44
201907311222,58.44,58.46,58.44,58.46
201907311223,58.46,58.46,58.45,58.45
201907311224,58.45,58.46,58.44,58.45
201907311225,58.45,58.46,58.45,58.45
201907311226,58.45,58.46,58.45,58.46
201907311227,58.46,58.46,58.45,58.46
201907311228,58.46,58.47,58.44,58.44
201907311229,58.44,58.45,58.44,58.44
201907311230,58.44,58.45,58.44,58.44
201907311231,58.44,58.45,58.44,58.45
201907311232,58.45,58.45,58.44,58.44
201907311233,58.44,58.45,58.44,58.44
201907311234,58.44,58.44,58.43,58.44
201907311235,58.44,58.45,58.43,58.45
201907311236,58.45,58.46,58.45,58.45
201907311237,58.45,58.46,58.44,58.45
201907311238,58.45,58.45,58.44,58.45
201907311239,58.45,58.46,58.45,58.46
201907311240,58.46,58.47,58.46,58.47
201907311241,58.47,58.48,58.46,58.47
201907311242,58.47,58.47,58.46,58.46
201907311243,58.46,58.47,58.46,58.46
201907311244,58.46,58.46,58.46,58.46
201907311245,58.46,58.46,58.46,58.46
201907311246,58.46,58.46,58.44,58.44
201907311247,58.44,58.44,58.44,58.44
201907311248,58.44,58.45,58.44,58.45
201907311249,58.45,58.46,58.45,58.45
201907311250,58.45,58.45,58.44,58.44
201907311251,58.44,58.45,58.44,58.44
201907311252,58.44,58.44,58.44,58.44
201907311253,58.44,58.44,58.44,58.44
201907311254,58.44,58.44,58.44,58.44
201907311255,58.44,58.45,58.43,58.44
201907311256,58.44,58.45,58.44,58.44
201907311257,58.44,58.44,58.44,58.44
201907311258,58.44,58.45,58.44,58.44
201907311259,58.44,58.44,58.44,58.44
201907311300,58.44,58.44,58.43,58.44
201907311301,58.43,58.43,58.43,58.43
201907311302,58.43,58.43,58.42,58.42
201907311303,58.42,58.42,58.42,58.42
201907311304,58.42,58.42,58.41,58.41
201907311305,58.41,58.41,58.4,58.4
201907311306,58.4,58.41,58.4,58.41
201907311307,58.41,58.41,58.41,58.41
201907311308,58.41,58.42,58.41,58.41
201907311309,58.41,58.42,58.41,58.42
201907311310,58.42,58.42,58.42,58.42
201907311311,58.42,58.42,58.41,58.42
201907311312,58.42,58.42,58.42,58.42
201907311313,58.42,58.43,58.42,58.43
201907311314,58.43,58.43,58.42,58.43
201907311315,58.43,58.44,58.43,58.43
201907311316,58.43,58.43,58.42,58.42
201907311317,58.42,58.43,58.42,58.42
201907311318,58.42,58.43,58.42,58.42
201907311319,58.42,58.44,58.42,58.44
201907311320,58.44,58.44,58.43,58.43
201907311321,58.43,58.44,58.43,58.43
201907311322,58.43,58.43,58.43,58.43
201907311323,58.43,58.44,58.43,58.44
201907311324,58.44,58.44,58.44,58.44
201907311325,58.44,58.44,58.43,58.43
201907311326,58.43,58.43,58.43,58.43
201907311327,58.43,58.43,58.42,58.42
201907311328,58.42,58.43,58.42,58.43
201907311329,58.43,58.43,58.41,58.42
201907311330,58.42,58.42,58.4,58.4
201907311331,58.4,58.4,58.39,58.39
201907311332,58.39,58.41,58.39,58.41
201907311333,58.41,58.41,58.41,58.41
201907311334,58.41,58.41,58.41,58.41
201907311335,58.41,58.41,58.41,58.41
201907311336,58.41,58.42,58.41,58.41
201907311337,58.41,58.42,58.41,58.42
201907311338,58.42,58.42,58.41,58.41
201907311339,58.41,58.42,58.41,58.41
201907311340,58.41,58.41,58.41,58.41
201907311341,58.41,58.42,58.41,58.41
201907311342,58.41,58.41,58.41,58.41
201907311343,58.41,58.43,58.41,58.43
201907311344,58.43,58.43,58.43,58.43
201907311345,58.43,58.44,58.43,58.44
201907311346,58.44,58.44,58.43,58.44
201907311347,58.44,58.44,58.43,58.44
201907311348,58.44,58.44,58.44,58.44
201907311349,58.44,58.44,58.43,58.44
201907311350,58.44,58.44,58.43,58.44
201907311351,58.44,58.44,58.44,58.44
201907311352,58.44,58.45,58.44,58.44
201907311353,58.44,58.44,58.44,58.44
201907311354,58.44,58.44,58.44,58.44
201907311355,58.44,58.44,58.44,58.44
201907311356,58.44,58.44,58.43,58.43
201907311357,58.43,58.43,58.43,58.43
201907311358,58.43,58.45,58.43,58.45
201907311359,58.45,58.45,58.43,58.44
201907311400,58.44,58.45,58.44,58.44
201907311401,58.44,58.44,58.44,58.44
201907311402,58.44,58.44,58.44,58.44
201907311403,58.44,58.44,58.44,58.44
201907311404,58.44,58.46,58.44,58.45
201907311405,58.45,58.45,58.45,58.45
201907311406,58.45,58.45,58.44,58.45
201907311407,58.45,58.45,58.43,58.43
201907311408,58.43,58.43,58.43,58.43
201907311409,58.43,58.43,58.42,58.42
201907311410,58.42,58.44,58.42,58.44
201907311411,58.44,58.44,58.44,58.44
201907311412,58.44,58.44,58.43,58.43
201907311413,58.43,58.43,58.43,58.43
201907311414,58.43,58.43,58.42,58.42
201907311415,58.42,58.42,58.42,58.42
201907311416,58.42,58.42,58.42,58.42
201907311417,58.42,58.43,58.42,58.43
201907311418,58.43,58.43,58.39,58.4
201907311419,58.4,58.41,58.4,58.4
201907311420,58.4,58.4,58.4,58.4
201907311421,58.4,58.4,58.4,58.4
201907311422,58.4,58.41,58.39,58.4
201907311423,58.4,58.4,58.39,58.4
201907311424,58.4,58.41,58.4,58.41
201907311425,58.41,58.41,58.41,58.41
201907311426,58.41,58.41,58.4,58.4
201907311427,58.4,58.41,58.4,58.41
201907311428,58.41,58.41,58.4,58.4
201907311429,58.4,58.4,58.4,58.4
201907311430,58.4,58.41,58.4,58.41
201907311431,58.41,58.41,58.41,58.41
201907311432,58.41,58.41,58.4,58.4
201907311433,58.4,58.41,58.4,58.41
201907311434,58.41,58.42,58.41,58.42
201907311435,58.42,58.42,58.42,58.42
201907311436,58.42,58.43,58.42,58.43
201907311437,58.43,58.43,58.42,58.42
201907311438,58.42,58.42,58.41,58.41
201907311439,58.41,58.41,58.41,58.41
201907311440,58.41,58.42,58.41,58.42
201907311441,58.42,58.43,58.42,58.42
201907311442,58.42,58.42,58.4,58.4
201907311443,58.4,58.41,58.4,58.4
201907311444,58.4,58.41,58.4,58.41
201907311445,58.41,58.41,58.4,58.41
201907311446,58.41,58.42,58.41,58.42
201907311447,58.42,58.42,58.41,58.42
201907311448,58.42,58.42,58.42,58.42
201907311449,58.42,58.44,58.42,58.44
201907311450,58.44,58.44,58.43,58.44
201907311451,58.44,58.44,58.44,58.44
201907311452,58.44,58.44,58.43,58.43
201907311453,58.43,58.43,58.43,58.43
201907311454,58.43,58.46,58.43,58.46
201907311455,58.46,58.46,58.45,58.45
201907311456,58.45,58.46,58.45,58.45
201907311457,58.45,58.47,58.45,58.46
201907311458,58.46,58.47,58.46,58.47
201907311459,58.47,58.47,58.45,58.45
201907311500,58.45,58.46,58.44,58.45
201907311501,58.45,58.47,58.45,58.45
201907311502,58.45,58.47,58.44,58.47
201907311503,58.47,58.47,58.45,58.46
201907311504,58.46,58.46,58.45,58.45
201907311505,58.45,58.46,58.45,58.46
201907311506,58.46,58.46,58.46,58.46
201907311507,58.46,58.47,58.46,58.47
201907311508,58.47,58.48,58.46,58.47
201907311509,58.47,58.48,58.47,58.47
201907311510,58.47,58.48,58.46,58.48
201907311511,58.48,58.49,58.47,58.49
201907311512,58.49,58.49,58.48,58.49
201907311513,58.49,58.49,58.49,58.49
201907311514,58.49,58.49,58.46,58.47
201907311515,58.47,58.49,58.46,58.48
201907311516,58.48,58.49,58.48,58.49
201907311517,58.49,58.49,58.48,58.49
201907311518,58.49,58.49,58.48,58.48
201907311519,58.48,58.48,58.46,58.47
201907311520,58.47,58.5,58.47,58.5
201907311521,58.5,58.5,58.48,58.48
201907311522,58.48,58.48,58.47,58.47
201907311523,58.47,58.49,58.47,58.48
201907311524,58.48,58.49,58.48,58.49
201907311525,58.49,58.49,58.47,58.47
201907311526,58.47,58.48,58.47,58.48
201907311527,58.48,58.48,58.47,58.48
201907311528,58.48,58.48,58.47,58.47
201907311529,58.48,58.48,58.47,58.48
201907311530,58.48,58.48,58.47,58.47
201907311531,58.47,58.48,58.47,58.48
201907311532,58.48,58.48,58.45,58.45
201907311533,58.45,58.45,58.44,58.44
201907311534,58.44,58.47,58.44,58.46
201907311535,58.46,58.47,58.45,58.45
201907311536,58.45,58.45,58.44,58.44
201907311537,58.44,58.44,58.42,58.42
201907311538,58.42,58.43,58.42,58.42
201907311539,58.42,58.43,58.41,58.42
201907311540,58.42,58.43,58.41,58.41
201907311541,58.41,58.43,58.41,58.42
201907311542,58.42,58.43,58.42,58.42
201907311543,58.42,58.43,58.42,58.43
201907311544,58.43,58.44,58.42,58.43
201907311545,58.43,58.44,58.41,58.42
201907311546,58.42,58.43,58.42,58.43
201907311547,58.43,58.44,58.43,58.43
201907311548,58.43,58.44,58.43,58.43
201907311549,58.43,58.43,58.42,58.42
201907311550,58.41,58.42,58.37,58.39
201907311551,58.39,58.42,58.38,58.41
201907311552,58.41,58.42,58.39,58.4
201907311553,58.4,58.41,58.39,58.4
201907311554,58.4,58.4,58.38,58.39
201907311555,58.39,58.39,58.37,58.37
201907311556,58.37,58.38,58.37,58.37
201907311557,58.37,58.38,58.37,58.38
201907311558,58.38,58.38,58.36,58.37
201907311559,58.37,58.37,58.36,58.36
201907311600,58.36,58.39,58.36,58.37
201907311601,58.37,58.4,58.37,58.4
201907311602,58.39,58.42,58.39,58.4
201907311603,58.4,58.41,58.4,58.4
201907311604,58.4,58.41,58.39,58.39
201907311605,58.39,58.42,58.39,58.4
201907311606,58.4,58.4,58.38,58.39
201907311607,58.39,58.41,58.39,58.41
201907311608,58.41,58.42,58.4,58.4
201907311609,58.4,58.41,58.4,58.41
201907311610,58.41,58.47,58.41,58.46
201907311611,58.46,58.5,58.46,58.5
201907311612,58.5,58.55,58.49,58.51
201907311613,58.51,58.51,58.46,58.46
201907311614,58.46,58.49,58.45,58.48
201907311615,58.48,58.49,58.43,58.44
201907311616,58.44,58.46,58.44,58.45
201907311617,58.45,58.46,58.44,58.45
201907311618,58.45,58.45,58.44,58.44
201907311619,58.44,58.45,58.4,58.4
201907311620,58.4,58.41,58.4,58.4
201907311621,58.4,58.42,58.38,58.41
201907311622,58.41,58.43,58.41,58.42
201907311623,58.42,58.43,58.42,58.42
201907311624,58.42,58.43,58.41,58.42
201907311625,58.42,58.42,58.39,58.39
201907311626,58.39,58.4,58.37,58.37
201907311627,58.37,58.38,58.36,58.37
201907311628,58.37,58.37,58.3,58.31
201907311629,58.31,58.33,58.31,58.32
201907311630,58.32,58.33,58.32,58.33
201907311631,58.33,58.35,58.31,58.31
201907311632,58.31,58.32,58.3,58.31
201907311633,58.31,58.34,58.31,58.34
201907311634,58.34,58.34,58.32,58.33
201907311635,58.33,58.33,58.32,58.33
201907311636,58.33,58.33,58.3,58.32
201907311637,58.32,58.33,58.32,58.32
201907311638,58.32,58.32,58.31,58.32
201907311639,58.32,58.33,58.32,58.33
201907311640,58.33,58.35,58.33,58.34
201907311641,58.34,58.35,58.34,58.35
201907311642,58.35,58.35,58.33,58.33
201907311643,58.33,58.33,58.3,58.3
201907311644,58.3,58.32,58.3,58.32
201907311645,58.32,58.35,58.3,58.32
201907311646,58.32,58.34,58.32,58.34
201907311647,58.34,58.34,58.31,58.31
201907311648,58.31,58.32,58.31,58.31
201907311649,58.31,58.31,58.26,58.28
201907311650,58.28,58.3,58.28,58.28
201907311651,58.28,58.3,58.28,58.29
201907311652,58.29,58.34,58.29,58.33
201907311653,58.33,58.34,58.31,58.31
201907311654,58.31,58.32,58.29,58.3
201907311655,58.3,58.32,58.3,58.31
201907311656,58.31,58.31,58.3,58.3
201907311657,58.3,58.32,58.3,58.3
201907311658,58.3,58.31,58.3,58.3
201907311659,58.3,58.33,58.3,58.33
201907311700,58.33,58.34,58.3,58.31
201907311701,58.31,58.32,58.25,58.26
201907311702,58.26,58.29,58.26,58.29
201907311703,58.29,58.29,58.27,58.27
201907311704,58.27,58.28,58.24,58.25
201907311705,58.25,58.29,58.25,58.27
201907311706,58.27,58.28,58.26,58.26
201907311707,58.26,58.28,58.26,58.28
201907311708,58.28,58.28,58.27,58.27
201907311709,58.27,58.29,58.27,58.29
201907311710,58.29,58.33,58.28,58.3
201907311711,58.3,58.34,58.29,58.32
201907311712,58.32,58.34,58.32,58.33
201907311713,58.34,58.35,58.33,58.33
201907311714,58.33,58.34,58.32,58.32
201907311715,58.32,58.32,58.3,58.32
201907311716,58.32,58.34,58.32,58.33
201907311717,58.33,58.33,58.32,58.33
201907311718,58.33,58.34,58.32,58.33
201907311719,58.33,58.33,58.3,58.31
201907311720,58.31,58.32,58.3,58.3
201907311721,58.3,58.32,58.3,58.31
201907311722,58.31,58.33,58.31,58.33
201907311723,58.33,58.33,58.3,58.3
201907311724,58.3,58.31,58.29,58.29
201907311725,58.29,58.31,58.29,58.31
201907311726,58.31,58.31,58.28,58.3
201907311727,58.3,58.31,58.28,58.28
201907311728,58.28,58.3,58.26,58.29
201907311729,58.29,58.3,58.28,58.29
201907311730,58.29,58.3,58.27,58.28
201907311731,58.28,58.32,58.28,58.32
201907311732,58.32,58.33,58.32,58.33
201907311733,58.33,58.36,58.31,58.32
201907311734,58.32,58.33,58.26,58.27
201907311735,58.27,58.28,58.24,58.26
201907311736,58.26,58.27,58.22,58.23
201907311737,58.23,58.24,58.22,58.23
201907311738,58.23,58.24,58.22,58.23
201907311739,58.23,58.24,58.22,58.23
201907311740,58.23,58.24,58.23,58.24
201907311741,58.24,58.24,58.22,58.23
201907311742,58.23,58.24,58.22,58.23
201907311743,58.23,58.24,58.22,58.24
201907311744,58.24,58.24,58.2,58.22
201907311745,58.22,58.24,58.22,58.24
201907311746,58.24,58.25,58.23,58.23
201907311747,58.23,58.25,58.23,58.24
201907311748,58.24,58.25,58.22,58.23
201907311749,58.23,58.24,58.23,58.24
201907311750,58.24,58.25,58.23,58.24
201907311751,58.24,58.25,58.24,58.25
201907311752,58.25,58.3,58.25,58.3
201907311753,58.3,58.3,58.27,58.28
201907311754,58.28,58.28,58.26,58.27
201907311755,58.27,58.27,58.25,58.27
201907311756,58.27,58.3,58.26,58.29
201907311757,58.29,58.3,58.27,58.28
201907311758,58.28,58.29,58.27,58.28
201907311759,58.28,58.3,58.27,58.29
201907311800,58.29,58.34,58.29,58.33
201907311801,58.33,58.33,58.32,58.32
201907311802,58.32,58.33,58.31,58.32
201907311803,58.32,58.33,58.31,58.33
201907311804,58.33,58.34,58.32,58.33
201907311805,58.33,58.36,58.33,58.35
201907311806,58.35,58.39,58.35,58.35
201907311807,58.35,58.36,58.33,58.35
201907311808,58.35,58.36,58.34,58.35
201907311809,58.35,58.35,58.33,58.34
201907311810,58.34,58.35,58.34,58.34
201907311811,58.34,58.37,58.34,58.37
201907311812,58.37,58.37,58.36,58.37
201907311813,58.37,58.41,58.37,58.4
201907311814,58.4,58.45,58.4,58.44
201907311815,58.44,58.46,58.43,58.46
201907311816,58.46,58.5,58.46,58.49
201907311817,58.49,58.52,58.49,58.49
201907311818,58.49,58.49,58.46,58.46
201907311819,58.46,58.46,58.42,58.42
201907311820,58.42,58.44,58.41,58.44
201907311821,58.44,58.44,58.43,58.44
201907311822,58.44,58.44,58.41,58.43
201907311823,58.43,58.45,58.43,58.44
201907311824,58.44,58.46,58.43,58.45
201907311825,58.45,58.47,58.45,58.46
201907311826,58.46,58.47,58.42,58.45
201907311827,58.45,58.46,58.44,58.45
201907311828,58.45,58.45,58.42,58.44
201907311829,58.44,58.44,58.36,58.39
201907311830,58.39,58.4,58.37,58.4
201907311831,58.4,58.4,58.38,58.4
201907311832,58.4,58.42,58.4,58.42
201907311833,58.42,58.43,58.41,58.42
201907311834,58.42,58.42,58.4,58.41
201907311835,58.41,58.43,58.41,58.43
201907311836,58.43,58.44,58.42,58.43
201907311837,58.43,58.44,58.42,58.43
201907311838,58.43,58.43,58.43,58.43
201907311839,58.43,58.43,58.42,58.42
201907311840,58.42,58.42,58.4,58.42
201907311841,58.42,58.42,58.41,58.42
201907311842,58.42,58.42,58.39,58.4
201907311843,58.4,58.4,58.39,58.39
201907311844,58.39,58.4,58.39,58.39
201907311845,58.39,58.4,58.39,58.4
201907311846,58.4,58.4,58.38,58.39
201907311847,58.39,58.39,58.37,58.39
201907311848,58.39,58.4,58.38,58.38
201907311849,58.38,58.38,58.37,58.37
201907311850,58.37,58.37,58.35,58.36
201907311851,58.36,58.37,58.36,58.37
201907311852,58.37,58.38,58.36,58.38
201907311853,58.38,58.38,58.36,58.36
201907311854,58.36,58.38,58.36,58.38
201907311855,58.37,58.38,58.37,58.37
201907311856,58.37,58.38,58.36,58.36
201907311857,58.36,58.37,58.36,58.36
201907311858,58.36,58.36,58.35,58.36
201907311859,58.36,58.36,58.35,58.36
201907311900,58.36,58.37,58.36,58.36
201907311901,58.36,58.37,58.35,58.36
201907311902,58.36,58.37,58.36,58.37
201907311903,58.37,58.37,58.37,58.37
201907311904,58.37,58.38,58.37,58.37
201907311905,58.37,58.38,58.37,58.38
201907311906,58.38,58.38,58.37,58.37
201907311907,58.37,58.37,58.36,58.37
201907311908,58.37,58.37,58.35,58.36
201907311909,58.36,58.37,58.35,58.35
201907311910,58.35,58.36,58.35,58.36
201907311911,58.36,58.37,58.36,58.37
201907311912,58.37,58.38,58.37,58.38
201907311913,58.38,58.38,58.37,58.38
201907311914,58.38,58.39,58.36,58.36
201907311915,58.36,58.36,58.36,58.36
201907311916,58.36,58.36,58.35,58.35
201907311917,58.35,58.36,58.35,58.36
201907311918,58.36,58.37,58.36,58.37
201907311919,58.37,58.37,58.35,58.35
201907311920,58.35,58.37,58.35,58.37
201907311921,58.37,58.37,58.35,58.37
201907311922,58.37,58.38,58.36,58.36
201907311923,58.36,58.36,58.35,58.36
201907311924,58.36,58.36,58.34,58.34
201907311925,58.34,58.36,58.34,58.35
201907311926,58.35,58.35,58.34,58.34
201907311927,58.34,58.36,58.34,58.35
201907311928,58.35,58.36,58.35,58.36
201907311929,58.36,58.36,58.33,58.34
201907311930,58.34,58.36,58.33,58.34
201907311931,58.34,58.36,58.33,58.35
201907311932,58.35,58.36,58.34,58.35
201907311933,58.35,58.36,58.34,58.35
201907311934,58.35,58.38,58.35,58.38
201907311935,58.38,58.39,58.37,58.39
201907311936,58.39,58.43,58.39,58.4
201907311937,58.4,58.4,58.39,58.39
201907311938,58.4,58.4,58.38,58.38
201907311939,58.38,58.38,58.36,58.37
201907311940,58.37,58.38,58.37,58.37
201907311941,58.37,58.38,58.36,58.37
201907311942,58.37,58.38,58.35,58.38
201907311943,58.38,58.38,58.37,58.37
201907311944,58.37,58.38,58.35,58.37
201907311945,58.37,58.39,58.37,58.39
201907311946,58.39,58.39,58.36,58.36
201907311947,58.36,58.36,58.35,58.35
201907311948,58.35,58.37,58.35,58.37
201907311949,58.37,58.38,58.37,58.38
201907311950,58.38,58.4,58.38,58.39
201907311951,58.39,58.4,58.39,58.39
201907311952,58.39,58.4,58.39,58.39
201907311953,58.39,58.4,58.39,58.39
201907311954,58.39,58.39,58.37,58.38
201907311955,58.38,58.4,58.38,58.39
201907311956,58.39,58.39,58.38,58.39
201907311957,58.39,58.41,58.39,58.41
201907311958,58.41,58.42,58.41,58.41
201907311959,58.41,58.41,58.39,58.4
201907312000,58.4,58.43,58.4,58.43
201907312001,58.43,58.46,58.42,58.44
201907312002,58.44,58.45,58.44,58.44
201907312003,58.44,58.45,58.44,58.44
201907312004,58.44,58.45,58.43,58.44
201907312005,58.44,58.45,58.44,58.44
201907312006,58.44,58.44,58.43,58.44
201907312007,58.44,58.44,58.43,58.44
201907312008,58.44,58.47,58.44,58.44
201907312009,58.44,58.44,58.43,58.43
201907312010,58.43,58.43,58.41,58.41
201907312011,58.41,58.41,58.4,58.4
201907312012,58.4,58.42,58.4,58.41
201907312013,58.41,58.42,58.4,58.41
201907312014,58.41,58.42,58.4,58.4
201907312015,58.4,58.41,58.39,58.41
201907312016,58.41,58.41,58.39,58.39
201907312017,58.39,58.4,58.38,58.39
201907312018,58.39,58.41,58.39,58.41
201907312019,58.41,58.43,58.41,58.43
201907312020,58.43,58.45,58.42,58.44
201907312021,58.44,58.48,58.43,58.47
201907312022,58.47,58.49,58.47,58.49
201907312023,58.49,58.49,58.44,58.44
201907312024,58.44,58.45,58.44,58.44
201907312025,58.44,58.45,58.41,58.42
201907312026,58.42,58.43,58.4,58.42
201907312027,58.42,58.44,58.41,58.43
201907312028,58.43,58.45,58.43,58.44
201907312029,58.44,58.45,58.43,58.45
201907312030,58.45,58.46,58.44,58.45
201907312031,58.45,58.49,58.45,58.47
201907312032,58.47,58.47,58.44,58.45
201907312033,58.45,58.45,58.43,58.44
201907312034,58.44,58.45,58.44,58.44
201907312035,58.44,58.45,58.42,58.44
201907312036,58.44,58.44,58.43,58.44
201907312037,58.44,58.45,58.43,58.45
201907312038,58.45,58.45,58.44,58.44
201907312039,58.44,58.45,58.44,58.45
201907312040,58.45,58.45,58.45,58.45
201907312041,58.45,58.45,58.44,58.44
201907312042,58.44,58.46,58.44,58.45
201907312043,58.45,58.48,58.44,58.48
201907312044,58.48,58.49,58.47,58.47
201907312045,58.47,58.48,58.47,58.48
201907312046,58.48,58.48,58.47,58.48
201907312047,58.48,58.48,58.47,58.47
201907312048,58.47,58.47,58.46,58.47
201907312049,58.47,58.49,58.47,58.49
201907312050,58.49,58.51,58.49,58.49
201907312051,58.49,58.5,58.48,58.5
201907312052,58.5,58.5,58.46,58.48
201907312053,58.48,58.49,58.47,58.48
201907312054,58.48,58.49,58.47,58.48
201907312055,58.48,58.48,58.47,58.47
201907312056,58.47,58.5,58.47,58.49
201907312057,58.49,58.5,58.49,58.49
201907312058,58.49,58.49,58.49,58.49
201907312059,58.49,58.51,58.49,58.5
201907312100,58.5,58.5,58.47,58.48
201907312101,58.48,58.48,58.47,58.47
201907312102,58.47,58.51,58.47,58.51
201907312103,58.51,58.51,58.5,58.51
201907312104,58.51,58.51,58.49,58.49
201907312105,58.49,58.5,58.49,58.5
201907312106,58.5,58.51,58.49,58.5
201907312107,58.5,58.5,58.49,58.5
201907312108,58.5,58.51,58.5,58.51
201907312109,58.51,58.52,58.5,58.51
201907312110,58.51,58.52,58.51,58.52
201907312111,58.52,58.54,58.51,58.53
201907312112,58.53,58.57,58.53,58.55
201907312113,58.55,58.57,58.55,58.56
201907312114,58.56,58.57,58.54,58.54
201907312115,58.54,58.54,58.51,58.52
201907312116,58.52,58.55,58.52,58.54
201907312117,58.54,58.54,58.53,58.53
201907312118,58.53,58.56,58.53,58.55
201907312119,58.55,58.55,58.54,58.55
201907312120,58.55,58.56,58.54,58.56
201907312121,58.56,58.56,58.53,58.54
201907312122,58.54,58.56,58.51,58.52
201907312123,58.52,58.53,58.52,58.52
201907312124,58.52,58.52,58.5,58.52
201907312125,58.52,58.53,58.52,58.53
201907312126,58.53,58.53,58.52,58.52
201907312127,58.52,58.56,58.52,58.55
201907312128,58.55,58.56,58.55,58.55
201907312129,58.55,58.55,58.54,58.55
201907312130,58.55,58.56,58.55,58.56
201907312131,58.56,58.6,58.56,58.59
201907312132,58.59,58.61,58.57,58.59
201907312133,58.59,58.59,58.56,58.57
201907312134,58.57,58.58,58.55,58.56
201907312135,58.56,58.58,58.56,58.57
201907312136,58.57,58.58,58.57,58.57
201907312137,58.57,58.58,58.57,58.57
201907312138,58.57,58.58,58.57,58.58
201907312139,58.58,58.6,58.58,58.6
201907312140,58.6,58.62,58.6,58.61
201907312141,58.61,58.62,58.59,58.59
201907312142,58.59,58.62,58.59,58.61
201907312143,58.61,58.62,58.6,58.62
201907312144,58.62,58.62,58.61,58.61
201907312145,58.61,58.62,58.61,58.62
201907312146,58.62,58.65,58.62,58.62
201907312147,58.62,58.62,58.55,58.57
201907312148,58.57,58.59,58.56,58.58
201907312149,58.58,58.58,58.55,58.55
201907312150,58.55,58.56,58.53,58.54
201907312151,58.54,58.54,58.51,58.52
201907312152,58.52,58.54,58.52,58.54
201907312153,58.54,58.54,58.53,58.53
201907312154,58.53,58.55,58.53,58.55
201907312155,58.55,58.56,58.55,58.55
201907312156,58.55,58.55,58.53,58.54
201907312157,58.54,58.56,58.54,58.54
201907312158,58.54,58.56,58.52,58.53
201907312159,58.53,58.55,58.52,58.52
201907312200,58.52,58.54,58.5,58.51
201907312201,58.51,58.61,58.51,58.61
201907312202,58.61,58.61,58.53,58.56
201907312203,58.56,58.57,58.52,58.54
201907312204,58.54,58.56,58.52,58.56
201907312205,58.56,58.64,58.55,58.63
201907312206,58.63,58.63,58.58,58.6
201907312207,58.6,58.66,58.6,58.66
201907312208,58.66,58.66,58.63,58.66
201907312209,58.66,58.66,58.63,58.64
201907312210,58.64,58.65,58.62,58.62
201907312211,58.62,58.64,58.61,58.63
201907312212,58.63,58.65,58.63,58.63
201907312213,58.63,58.64,58.62,58.62
201907312214,58.62,58.63,58.61,58.62
201907312215,58.62,58.64,58.61,58.62
201907312216,58.62,58.65,58.62,58.64
201907312217,58.64,58.66,58.64,58.65
201907312218,58.65,58.66,58.64,58.65
201907312219,58.65,58.65,58.63,58.63
201907312220,58.63,58.63,58.6,58.62
201907312221,58.62,58.62,58.57,58.57
201907312222,58.57,58.57,58.54,58.54
201907312223,58.54,58.55,58.52,58.54
201907312224,58.54,58.56,58.54,58.55
201907312225,58.55,58.57,58.55,58.57
201907312226,58.57,58.58,58.56,58.57
201907312227,58.57,58.57,58.55,58.55
201907312228,58.55,58.55,58.52,58.53
201907312229,58.53,58.59,58.51,58.59
201907312230,58.59,58.59,58.56,58.58
201907312231,58.58,58.61,58.57,58.58
201907312232,58.58,58.58,58.51,58.52
201907312233,58.52,58.52,58.43,58.47
201907312234,58.46,58.51,58.45,58.5
201907312235,58.5,58.53,58.49,58.53
201907312236,58.53,58.53,58.45,58.45
201907312237,58.45,58.47,58.39,58.41
201907312238,58.41,58.41,58.32,58.35
201907312239,58.35,58.35,58.26,58.26
201907312240,58.26,58.33,58.26,58.28
201907312241,58.28,58.32,58.28,58.3
201907312242,58.3,58.36,58.3,58.32
201907312243,58.32,58.35,58.31,58.32
201907312244,58.32,58.35,58.32,58.33
201907312245,58.33,58.36,58.33,58.34
201907312246,58.34,58.38,58.34,58.37
201907312247,58.37,58.38,58.36,58.37
201907312248,58.37,58.38,58.34,58.36
201907312249,58.36,58.37,58.35,58.37
201907312250,58.37,58.37,58.34,58.35
201907312251,58.35,58.35,58.34,58.34
201907312252,58.34,58.35,58.33,58.33
201907312253,58.33,58.37,58.33,58.35
201907312254,58.35,58.35,58.32,58.33
201907312255,58.33,58.37,58.33,58.35
201907312256,58.35,58.36,58.33,58.33
201907312257,58.33,58.34,58.27,58.29
201907312258,58.29,58.31,58.28,58.3
201907312259,58.3,58.32,58.29,58.31
201907312300,58.31,58.39,58.3,58.39
201907312301,58.39,58.41,58.37,58.4
201907312302,58.4,58.4,58.39,58.39
201907312303,58.39,58.44,58.39,58.43
201907312304,58.43,58.43,58.4,58.43
201907312305,58.43,58.43,58.41,58.42
201907312306,58.42,58.42,58.38,58.41
201907312307,58.41,58.42,58.4,58.41
201907312308,58.41,58.42,58.39,58.42
201907312309,58.42,58.42,58.37,58.38
201907312310,58.38,58.42,58.38,58.4
201907312311,58.4,58.41,58.37,58.39
201907312312,58.39,58.4,58.37,58.37
201907312313,58.37,58.37,58.33,58.35
201907312314,58.35,58.37,58.34,58.37
201907312315,58.36,58.37,58.33,58.33
201907312316,58.33,58.38,58.33,58.37
201907312317,58.37,58.38,58.37,58.37
201907312318,58.37,58.38,58.37,58.38
201907312319,58.38,58.39,58.37,58.38
201907312320,58.38,58.42,58.38,58.41
201907312321,58.41,58.44,58.38,58.38
201907312322,58.38,58.44,58.38,58.42
201907312323,58.42,58.44,58.41,58.43
201907312324,58.43,58.43,58.4,58.4
201907312325,58.4,58.42,58.4,58.42
201907312326,58.42,58.45,58.41,58.45
201907312327,58.45,58.45,58.4,58.43
201907312328,58.43,58.44,58.37,58.39
201907312329,58.39,58.42,58.35,58.41
201907312330,58.45,58.69,58.45,58.58
201907312331,58.58,58.65,58.52,58.59
201907312332,58.59,58.66,58.58,58.66
201907312333,58.66,58.75,58.66,58.72
201907312334,58.72,58.75,58.63,58.64
201907312335,58.64,58.73,58.64,58.69
201907312336,58.69,58.79,58.67,58.78
201907312337,58.78,58.8,58.74,58.77
201907312338,58.77,58.77,58.71,58.73
201907312339,58.73,58.73,58.69,58.71
201907312340,58.71,58.72,58.66,58.67
201907312341,58.67,58.72,58.66,58.71
201907312342,58.71,58.71,58.66,58.66
201907312343,58.66,58.67,58.64,58.64
201907312344,58.64,58.64,58.54,58.61
201907312345,58.61,58.62,58.57,58.59
201907312346,58.6,58.62,58.54,58.54
201907312347,58.54,58.56,58.52,58.52
201907312348,58.52,58.56,58.5,58.54
201907312349,58.54,58.6,58.53,58.6
201907312350,58.6,58.61,58.58,58.6
201907312351,58.6,58.6,58.42,58.43
201907312352,58.43,58.49,58.43,58.49
201907312353,58.49,58.49,58.44,58.44
201907312354,58.44,58.47,58.42,58.46
201907312355,58.46,58.46,58.41,58.42
201907312356,58.42,58.45,58.42,58.43
201907312357,58.43,58.46,58.35,58.35
201907312358,58.34,58.4,58.25,58.25
201907312359,58.25,58.26,58.13,58.2
201908010000,58.2,58.2,58.06,58.13
201908010001,58.13,58.25,58.11,58.24
201908010002,58.24,58.27,58.17,58.22
201908010003,58.22,58.25,58.16,58.23
201908010004,58.23,58.34,58.23,58.31
201908010005,58.31,58.31,58.26,58.28
201908010006,58.28,58.28,58.24,58.24
201908010007,58.24,58.25,58.2,58.22
201908010008,58.22,58.26,58.2,58.24
201908010009,58.24,58.24,58.16,58.17
201908010010,58.17,58.21,58.16,58.2
201908010011,58.2,58.23,58.17,58.23
201908010012,58.23,58.25,58.21,58.22
201908010013,58.21,58.21,58.13,58.14
201908010014,58.14,58.15,58.08,58.1
201908010015,58.1,58.16,58.08,58.12
201908010016,58.12,58.2,58.11,58.18
201908010017,58.18,58.2,58.15,58.16
201908010018,58.16,58.21,58.15,58.17
201908010019,58.17,58.2,58.17,58.18
201908010020,58.18,58.22,58.18,58.2
201908010021,58.2,58.22,58.19,58.2
201908010022,58.21,58.27,58.21,58.27
201908010023,58.27,58.31,58.26,58.3
201908010024,58.3,58.3,58.23,58.24
201908010025,58.23,58.26,58.22,58.23
201908010026,58.23,58.29,58.23,58.27
201908010027,58.27,58.29,58.24,58.29
201908010028,58.29,58.3,58.27,58.27
201908010029,58.27,58.32,58.19,58.26
201908010030,58.26,58.39,58.23,58.38
201908010031,58.38,58.43,58.37,58.4
201908010032,58.4,58.4,58.34,58.37
201908010033,58.37,58.4,58.34,58.34
201908010034,58.34,58.4,58.34,58.4
201908010035,58.4,58.41,58.36,58.37
201908010036,58.37,58.4,58.37,58.4
201908010037,58.4,58.41,58.39,58.41
201908010038,58.41,58.5,58.41,58.45
201908010039,58.45,58.48,58.44,58.45
201908010040,58.45,58.47,58.45,58.47
201908010041,58.47,58.47,58.43,58.44
201908010042,58.44,58.47,58.42,58.46
201908010043,58.46,58.48,58.43,58.45
201908010044,58.45,58.45,58.38,58.41
201908010045,58.41,58.44,58.4,58.42
201908010046,58.42,58.43,58.35,58.4
201908010047,58.39,58.43,58.39,58.43
201908010048,58.43,58.44,58.39,58.41
201908010049,58.41,58.45,58.41,58.45
201908010050,58.45,58.45,58.41,58.44
201908010051,58.44,58.45,58.43,58.45
201908010052,58.45,58.45,58.4,58.41
201908010053,58.41,58.44,58.41,58.42
201908010054,58.42,58.43,58.41,58.41
201908010055,58.41,58.44,58.39,58.44
201908010056,58.44,58.44,58.4,58.41
201908010057,58.41,58.44,58.4,58.43
201908010058,58.43,58.46,58.42,58.45
201908010059,58.45,58.48,58.44,58.48
201908010100,58.48,58.49,58.44,58.45
201908010101,58.45,58.47,58.43,58.45
201908010102,58.46,58.49,58.45,58.46
201908010103,58.46,58.5,58.45,58.48
201908010104,58.48,58.52,58.47,58.5
201908010105,58.5,58.56,58.48,58.48
201908010106,58.48,58.52,58.46,58.47
201908010107,58.47,58.48,58.45,58.46
201908010108,58.46,58.48,58.44,58.46
201908010109,58.46,58.46,58.35,58.41
201908010110,58.41,58.43,58.39,58.42
201908010111,58.41,58.45,58.38,58.4
201908010112,58.39,58.41,58.38,58.39
201908010113,58.39,58.42,58.38,58.4
201908010114,58.4,58.43,58.39,58.41
201908010115,58.41,58.45,58.38,58.4
201908010116,58.4,58.41,58.37,58.37
201908010117,58.37,58.38,58.31,58.31
201908010118,58.31,58.33,58.27,58.27
201908010119,58.27,58.28,58.25,58.27
201908010120,58.27,58.27,58.21,58.22
201908010121,58.22,58.25,58.2,58.24
201908010122,58.24,58.26,58.21,58.21
201908010123,58.21,58.25,58.2,58.23
201908010124,58.23,58.24,58.22,58.24
201908010125,58.24,58.26,58.21,58.21
201908010126,58.21,58.26,58.2,58.24
201908010127,58.24,58.26,58.23,58.26
201908010128,58.26,58.26,58.24,58.26
201908010129,58.26,58.27,58.22,58.24
201908010130,58.24,58.32,58.24,58.3
201908010131,58.3,58.31,58.26,58.27
201908010132,58.27,58.29,58.26,58.29
201908010133,58.29,58.31,58.29,58.29
201908010134,58.29,58.3,58.27,58.3
201908010135,58.3,58.3,58.27,58.28
201908010136,58.29,58.31,58.28,58.3
201908010137,58.3,58.31,58.28,58.31
201908010138,58.31,58.32,58.3,58.32
201908010139,58.32,58.33,58.3,58.3
201908010140,58.3,58.32,58.29,58.31
201908010141,58.31,58.34,58.29,58.34
201908010142,58.34,58.36,58.33,58.33
201908010143,58.33,58.34,58.32,58.34
201908010144,58.34,58.34,58.33,58.34
201908010145,58.34,58.34,58.32,58.34
201908010146,58.34,58.35,58.34,58.35
201908010147,58.35,58.38,58.35,58.37
201908010148,58.37,58.38,58.37,58.38
201908010149,58.38,58.39,58.36,58.37
201908010150,58.37,58.38,58.36,58.38
201908010151,58.38,58.39,58.36,58.39
201908010152,58.39,58.4,58.38,58.4
201908010153,58.4,58.45,58.4,58.42
201908010154,58.42,58.43,58.42,58.42
201908010155,58.42,58.45,58.41,58.44
201908010156,58.44,58.46,58.44,58.45
201908010157,58.45,58.45,58.43,58.44
201908010158,58.44,58.48,58.42,58.47
201908010159,58.47,58.49,58.47,58.49
201908010200,58.49,58.53,58.47,58.52
201908010201,58.52,58.54,58.51,58.52
201908010202,58.52,58.52,58.51,58.51
201908010203,58.51,58.51,58.45,58.45
201908010204,58.45,58.46,58.42,58.44
201908010205,58.44,58.45,58.42,58.45
201908010206,58.45,58.46,58.44,58.46
201908010207,58.46,58.49,58.45,58.48
201908010208,58.48,58.48,58.46,58.46
201908010209,58.46,58.49,58.46,58.49
201908010210,58.49,58.49,58.46,58.49
201908010211,58.49,58.5,58.49,58.49
201908010212,58.49,58.5,58.48,58.48
201908010213,58.48,58.5,58.45,58.49
201908010214,58.49,58.5,58.47,58.49
201908010215,58.49,58.49,58.48,58.49
201908010216,58.49,58.5,58.47,58.5
201908010217,58.5,58.51,58.5,58.5
201908010218,58.5,58.5,58.46,58.48
201908010219,58.48,58.48,58.45,58.46
201908010220,58.46,58.47,58.43,58.44
201908010221,58.44,58.45,58.44,58.45
201908010222,58.45,58.47,58.45,58.45
201908010223,58.45,58.5,58.45,58.49
201908010224,58.49,58.5,58.49,58.49
201908010225,58.49,58.54,58.49,58.53
201908010226,58.53,58.57,58.52,58.54
201908010227,58.54,58.57,58.54,58.57
201908010228,58.57,58.6,58.55,58.59
201908010229,58.59,58.59,58.54,58.56
201908010230,58.56,58.57,58.55,58.57
201908010231,58.57,58.61,58.56,58.58
201908010232,58.58,58.62,58.58,58.6
201908010233,58.6,58.61,58.57,58.58
201908010234,58.58,58.58,58.57,58.57
201908010235,58.57,58.58,58.56,58.56
201908010236,58.56,58.58,58.56,58.56
201908010237,58.56,58.57,58.5,58.52
201908010238,58.53,58.53,58.47,58.48
201908010239,58.48,58.48,58.43,58.43
201908010240,58.43,58.47,58.43,58.44
201908010241,58.44,58.45,58.4,58.43
201908010242,58.43,58.43,58.41,58.41
201908010243,58.41,58.44,58.4,58.43
201908010244,58.43,58.44,58.42,58.43
201908010245,58.43,58.48,58.43,58.47
201908010246,58.47,58.49,58.47,58.48
201908010247,58.48,58.51,58.47,58.51
201908010248,58.51,58.51,58.47,58.47
201908010249,58.47,58.48,58.47,58.48
201908010250,58.48,58.48,58.47,58.48
201908010251,58.48,58.5,58.47,58.5
201908010252,58.5,58.51,58.49,58.51
201908010253,58.51,58.52,58.51,58.51
201908010254,58.51,58.51,58.5,58.5
201908010255,58.5,58.51,58.5,58.51
201908010256,58.51,58.53,58.51,58.52
201908010257,58.52,58.53,58.48,58.5
201908010258,58.5,58.51,58.44,58.45
201908010259,58.45,58.54,58.44,58.52
201908010300,58.52,58.52,58.39,58.41
201908010301,58.41,58.44,58.1,58.12
201908010302,58.12,58.22,58.08,58.21
201908010303,58.21,58.23,58.18,58.23
201908010304,58.23,58.36,58.19,58.34
201908010305,58.34,58.4,58.32,58.39
201908010306,58.39,58.5,58.37,58.5
201908010307,58.5,58.53,58.47,58.5
201908010308,58.5,58.52,58.46,58.49
201908010309,58.49,58.51,58.38,58.41
201908010310,58.41,58.42,58.31,58.31
201908010311,58.31,58.35,58.25,58.33
201908010312,58.33,58.39,58.32,58.38
201908010313,58.38,58.4,58.37,58.4
201908010314,58.4,58.41,58.35,58.36
201908010315,58.36,58.39,58.3,58.32
201908010316,58.32,58.33,58.28,58.29
201908010317,58.29,58.33,58.27,58.29
201908010318,58.29,58.3,58.23,58.26
201908010319,58.26,58.3,58.23,58.3
201908010320,58.3,58.33,58.28,58.31
201908010321,58.31,58.45,58.31,58.38
201908010322,58.38,58.45,58.37,58.41
201908010323,58.41,58.46,58.4,58.45
201908010324,58.45,58.5,58.43,58.5
201908010325,58.5,58.51,58.45,58.51
201908010326,58.52,58.56,58.47,58.56
201908010327,58.56,58.58,58.47,58.58
201908010328,58.58,58.62,58.55,58.6
201908010329,58.6,58.61,58.5,58.52
201908010330,58.51,58.54,58.45,58.51
201908010331,58.51,58.55,58.49,58.55
201908010332,58.55,58.58,58.55,58.56
201908010333,58.56,58.56,58.53,58.54
201908010334,58.54,58.54,58.51,58.53
201908010335,58.53,58.55,58.52,58.53
201908010336,58.53,58.54,58.52,58.54
201908010337,58.54,58.54,58.48,58.49
201908010338,58.48,58.49,58.44,58.47
201908010339,58.47,58.5,58.45,58.46
201908010340,58.46,58.46,58.43,58.46
201908010341,58.46,58.48,58.44,58.48
201908010342,58.48,58.49,58.46,58.47
201908010343,58.47,58.49,58.46,58.46
201908010344,58.46,58.49,58.46,58.46
201908010345,58.46,58.46,58.27,58.36
201908010346,58.36,58.36,58.27,58.3
201908010347,58.3,58.35,58.27,58.32
201908010348,58.33,58.33,58.26,58.28
201908010349,58.28,58.29,58.24,58.27
201908010350,58.27,58.27,58.17,58.18
201908010351,58.18,58.2,58.11,58.13
201908010352,58.13,58.13,57.98,57.99
201908010353,58,58,57.88,57.91
201908010354,57.91,58.16,57.9,58.14
201908010355,58.14,58.14,58.02,58.08
201908010356,58.07,58.13,58.06,58.09
201908010357,58.09,58.09,58.02,58.07
201908010358,58.07,58.07,58,58.02
201908010359,58.02,58.11,58.01,58.11
201908010400,58.11,58.11,58.01,58.05
201908010401,58.05,58.07,58.02,58.03
201908010402,58.03,58.12,58.02,58.12
201908010403,58.12,58.19,58.1,58.16
201908010404,58.16,58.16,58.05,58.05
201908010405,58.05,58.09,58.04,58.07
201908010406,58.07,58.11,58.05,58.11
201908010407,58.11,58.12,58.09,58.11
201908010408,58.11,58.11,58.05,58.07
201908010409,58.07,58.08,58.05,58.07
201908010410,58.07,58.07,58.04,58.05
201908010411,58.04,58.08,58.04,58.04
201908010412,58.04,58.06,58.03,58.04
201908010413,58.04,58.08,58.03,58.06
201908010414,58.06,58.08,58.05,58.07
201908010415,58.07,58.08,58.03,58.03
201908010416,58.03,58.06,58.01,58.05
201908010417,58.05,58.08,58.02,58.07
201908010418,58.07,58.08,58.05,58.05
201908010419,58.06,58.09,58.06,58.06
201908010420,58.06,58.09,58.05,58.08
201908010421,58.08,58.14,58.07,58.13
201908010422,58.13,58.13,58.08,58.1
201908010423,58.1,58.11,58.04,58.05
201908010424,58.05,58.07,58.03,58.06
201908010425,58.06,58.07,58.03,58.03
201908010426,58.03,58.06,58.03,58.06
201908010427,58.06,58.06,58.03,58.05
201908010428,58.05,58.05,58.03,58.05
201908010429,58.05,58.05,58.03,58.04
201908010430,58.04,58.04,58.03,58.03
201908010431,58.03,58.05,58.03,58.04
201908010432,58.04,58.05,58.03,58.04
201908010433,58.04,58.05,58.02,58.02
201908010434,58.02,58.03,58.01,58.01
201908010435,58.01,58.03,58.01,58.02
201908010436,58.02,58.07,58.02,58.05
201908010437,58.05,58.06,58.05,58.05
201908010438,58.05,58.05,58.02,58.04
201908010439,58.04,58.05,58.04,58.04
201908010440,58.04,58.05,58.01,58.01
201908010441,58.01,58.02,58.01,58.01
201908010442,58.01,58.01,58,58
201908010443,58,58,57.92,57.95
201908010444,57.95,57.98,57.91,57.95
201908010445,57.95,57.96,57.93,57.96
201908010446,57.96,57.98,57.95,57.98
201908010447,57.97,58.02,57.97,58
201908010448,58,58.02,57.99,58.01
201908010449,58.01,58.03,57.96,57.99
201908010450,57.99,57.99,57.94,57.95
201908010451,57.95,57.98,57.94,57.95
201908010452,57.95,58,57.95,57.99
201908010453,57.99,57.99,57.94,57.95
201908010454,57.95,57.97,57.95,57.97
201908010455,57.97,57.97,57.96,57.96
201908010456,57.96,57.98,57.96,57.98
201908010457,57.98,57.99,57.97,57.97
201908010458,57.97,57.99,57.96,57.99
201908010459,57.99,58.03,57.98,58.02
201908010500,58.02,58.02,57.98,57.99
201908010501,57.99,57.99,57.97,57.97
201908010502,57.98,57.98,57.96,57.96
201908010503,57.96,57.97,57.94,57.94
201908010504,57.94,57.98,57.94,57.97
201908010505,57.97,57.98,57.96,57.96
201908010506,57.96,57.97,57.94,57.94
201908010507,57.94,57.95,57.94,57.95
201908010508,57.95,57.95,57.94,57.94
201908010509,57.94,57.95,57.94,57.95
201908010510,57.95,57.95,57.94,57.95
201908010511,57.95,57.95,57.95,57.95
201908010512,57.95,57.96,57.95,57.96
201908010513,57.96,57.96,57.94,57.95
201908010514,57.95,57.96,57.95,57.95
201908010515,57.95,58.02,57.95,58.01
201908010516,58.01,58.03,58,58.01
201908010517,58.01,58.02,57.97,57.99
201908010518,57.99,58.01,57.99,58
201908010519,58,58.03,58,58.02
201908010520,58.02,58.02,57.99,58
201908010521,58,58,57.99,58
201908010522,58,58,57.99,57.99
201908010523,57.99,58,57.99,58
201908010524,58,58,57.99,57.99
201908010525,57.99,57.99,57.99,57.99
201908010526,57.99,57.99,57.95,57.96
201908010527,57.96,57.97,57.94,57.96
201908010528,57.96,57.98,57.96,57.97
201908010529,57.97,57.97,57.94,57.95
201908010530,57.95,57.99,57.95,57.99
201908010531,57.99,57.99,57.96,57.97
201908010532,57.97,57.97,57.94,57.95
201908010533,57.95,57.96,57.94,57.96
201908010534,57.96,57.96,57.95,57.96
201908010535,57.96,57.97,57.96,57.97
201908010536,57.97,57.97,57.97,57.97
201908010537,57.97,57.97,57.94,57.94
201908010538,57.94,57.94,57.93,57.93
201908010539,57.93,57.94,57.93,57.94
201908010540,57.94,57.99,57.9,57.9
201908010541,57.9,57.91,57.86,57.87
201908010542,57.87,57.9,57.86,57.87
201908010543,57.87,57.9,57.87,57.88
201908010544,57.88,57.93,57.88,57.91
201908010545,57.91,57.91,57.88,57.9
201908010546,57.9,57.94,57.88,57.88
201908010547,57.88,57.9,57.87,57.87
201908010548,57.87,57.89,57.87,57.87
201908010549,57.87,57.87,57.86,57.87
201908010550,57.87,57.87,57.82,57.83
201908010551,57.83,57.84,57.81,57.83
201908010552,57.83,57.83,57.79,57.81
201908010553,57.81,57.83,57.81,57.82
201908010554,57.82,57.83,57.82,57.83
201908010555,57.83,57.87,57.82,57.87
201908010556,57.87,57.89,57.87,57.88
201908010557,57.88,57.89,57.86,57.86
201908010558,57.86,57.9,57.85,57.9
201908010559,57.9,57.9,57.87,57.87
