日時,始値(BID),高値(BID),安値(BID),終値(BID)
201906070700,14.891,14.896,14.879,14.891
201906070701,14.891,14.901,14.891,14.901
201906070702,14.901,14.901,14.9,14.9
201906070703,14.9,14.9,14.9,14.9
201906070704,14.9,14.9,14.9,14.9
201906070705,14.9,14.9,14.9,14.9
201906070706,14.9,14.9,14.9,14.9
201906070707,14.9,14.9,14.9,14.9
201906070708,14.9,14.9,14.896,14.9
201906070709,14.9,14.901,14.899,14.899
201906070710,14.899,14.899,14.899,14.899
201906070711,14.899,14.899,14.897,14.899
201906070712,14.899,14.899,14.899,14.899
201906070713,14.899,14.899,14.899,14.899
201906070714,14.899,14.899,14.899,14.899
201906070715,14.899,14.9,14.899,14.9
201906070716,14.9,14.9,14.9,14.9
201906070717,14.9,14.9,14.9,14.9
201906070718,14.9,14.9,14.896,14.896
201906070719,14.896,14.896,14.896,14.896
201906070720,14.896,14.896,14.896,14.896
201906070721,14.896,14.897,14.896,14.896
201906070722,14.896,14.897,14.896,14.897
201906070723,14.897,14.897,14.897,14.897
201906070724,14.897,14.898,14.897,14.898
201906070725,14.898,14.898,14.897,14.897
201906070726,14.897,14.898,14.897,14.898
201906070727,14.898,14.898,14.897,14.897
201906070728,14.897,14.897,14.896,14.897
201906070729,14.897,14.897,14.897,14.897
201906070730,14.897,14.897,14.894,14.894
201906070731,14.894,14.894,14.893,14.893
201906070732,14.893,14.894,14.893,14.894
201906070733,14.894,14.894,14.893,14.893
201906070734,14.893,14.895,14.893,14.895
201906070735,14.895,14.895,14.892,14.892
201906070736,14.892,14.892,14.892,14.892
201906070737,14.892,14.892,14.891,14.891
201906070738,14.891,14.892,14.888,14.889
201906070739,14.889,14.889,14.889,14.889
201906070740,14.889,14.889,14.888,14.888
201906070741,14.888,14.888,14.887,14.888
201906070742,14.888,14.888,14.887,14.887
201906070743,14.887,14.887,14.887,14.887
201906070744,14.887,14.888,14.887,14.887
201906070745,14.887,14.887,14.887,14.887
201906070746,14.887,14.887,14.887,14.887
201906070747,14.887,14.888,14.887,14.888
201906070748,14.888,14.889,14.888,14.888
201906070749,14.888,14.89,14.888,14.889
201906070750,14.889,14.89,14.888,14.889
201906070751,14.889,14.89,14.889,14.889
201906070752,14.889,14.889,14.887,14.887
201906070753,14.887,14.888,14.887,14.888
201906070754,14.888,14.888,14.887,14.887
201906070755,14.887,14.888,14.887,14.887
201906070756,14.887,14.888,14.887,14.887
201906070757,14.887,14.888,14.887,14.888
201906070758,14.887,14.888,14.887,14.887
201906070759,14.887,14.888,14.887,14.888
201906070800,14.888,14.888,14.883,14.883
201906070801,14.884,14.884,14.883,14.883
201906070802,14.883,14.884,14.883,14.884
201906070803,14.884,14.884,14.882,14.883
201906070804,14.883,14.883,14.879,14.879
201906070805,14.879,14.88,14.878,14.878
201906070806,14.878,14.878,14.878,14.878
201906070807,14.878,14.878,14.877,14.877
201906070808,14.877,14.879,14.877,14.878
201906070809,14.877,14.88,14.877,14.88
201906070810,14.88,14.88,14.877,14.88
201906070811,14.88,14.88,14.878,14.879
201906070812,14.879,14.88,14.877,14.877
201906070813,14.877,14.878,14.877,14.878
201906070814,14.878,14.878,14.877,14.877
201906070815,14.877,14.879,14.877,14.877
201906070816,14.877,14.878,14.877,14.878
201906070817,14.878,14.878,14.877,14.878
201906070818,14.878,14.879,14.877,14.877
201906070819,14.877,14.878,14.877,14.877
201906070820,14.877,14.877,14.877,14.877
201906070821,14.877,14.877,14.874,14.874
201906070822,14.874,14.875,14.873,14.874
201906070823,14.874,14.874,14.872,14.874
201906070824,14.874,14.874,14.873,14.874
201906070825,14.874,14.874,14.873,14.873
201906070826,14.873,14.873,14.87,14.87
201906070827,14.87,14.87,14.869,14.869
201906070828,14.869,14.87,14.869,14.87
201906070829,14.87,14.87,14.869,14.87
201906070830,14.87,14.872,14.87,14.872
201906070831,14.872,14.874,14.87,14.87
201906070832,14.87,14.871,14.869,14.87
201906070833,14.87,14.871,14.868,14.871
201906070834,14.871,14.871,14.87,14.871
201906070835,14.871,14.875,14.871,14.875
201906070836,14.874,14.875,14.873,14.875
201906070837,14.875,14.875,14.871,14.871
201906070838,14.872,14.872,14.87,14.87
201906070839,14.87,14.87,14.867,14.867
201906070840,14.867,14.869,14.864,14.865
201906070841,14.865,14.865,14.86,14.861
201906070842,14.861,14.865,14.861,14.864
201906070843,14.864,14.866,14.862,14.865
201906070844,14.865,14.866,14.863,14.865
201906070845,14.865,14.867,14.865,14.866
201906070846,14.866,14.866,14.863,14.866
201906070847,14.866,14.866,14.864,14.865
201906070848,14.865,14.869,14.864,14.869
201906070849,14.869,14.87,14.866,14.866
201906070850,14.866,14.866,14.865,14.865
201906070851,14.865,14.865,14.863,14.864
201906070852,14.864,14.866,14.864,14.864
201906070853,14.865,14.866,14.863,14.865
201906070854,14.865,14.866,14.865,14.865
201906070855,14.865,14.866,14.865,14.866
201906070856,14.866,14.867,14.865,14.866
201906070857,14.866,14.866,14.865,14.865
201906070858,14.865,14.866,14.865,14.865
201906070859,14.865,14.867,14.865,14.865
201906070900,14.865,14.866,14.865,14.865
201906070901,14.865,14.865,14.863,14.865
201906070902,14.865,14.865,14.86,14.861
201906070903,14.861,14.862,14.86,14.862
201906070904,14.862,14.868,14.861,14.868
201906070905,14.868,14.87,14.866,14.87
201906070906,14.87,14.876,14.87,14.876
201906070907,14.875,14.876,14.875,14.875
201906070908,14.875,14.876,14.874,14.875
201906070909,14.875,14.876,14.873,14.875
201906070910,14.875,14.876,14.872,14.874
201906070911,14.874,14.875,14.872,14.872
201906070912,14.872,14.872,14.868,14.871
201906070913,14.871,14.871,14.87,14.871
201906070914,14.871,14.872,14.871,14.871
201906070915,14.871,14.872,14.87,14.87
201906070916,14.87,14.871,14.87,14.871
201906070917,14.871,14.872,14.87,14.87
201906070918,14.871,14.872,14.869,14.87
201906070919,14.87,14.871,14.865,14.867
201906070920,14.867,14.867,14.866,14.866
201906070921,14.866,14.87,14.866,14.87
201906070922,14.87,14.872,14.87,14.871
201906070923,14.871,14.872,14.871,14.872
201906070924,14.872,14.875,14.871,14.875
201906070925,14.875,14.875,14.873,14.875
201906070926,14.875,14.875,14.874,14.874
201906070927,14.874,14.874,14.869,14.87
201906070928,14.87,14.87,14.869,14.87
201906070929,14.87,14.87,14.866,14.867
201906070930,14.867,14.867,14.865,14.866
201906070931,14.866,14.866,14.864,14.866
201906070932,14.866,14.867,14.865,14.866
201906070933,14.866,14.866,14.865,14.866
201906070934,14.866,14.871,14.866,14.871
201906070935,14.87,14.87,14.865,14.867
201906070936,14.867,14.87,14.865,14.869
201906070937,14.869,14.869,14.868,14.869
201906070938,14.869,14.871,14.869,14.871
201906070939,14.871,14.871,14.87,14.871
201906070940,14.871,14.871,14.869,14.869
201906070941,14.869,14.869,14.866,14.869
201906070942,14.869,14.869,14.865,14.865
201906070943,14.865,14.866,14.865,14.866
201906070944,14.866,14.866,14.865,14.865
201906070945,14.865,14.866,14.861,14.861
201906070946,14.861,14.864,14.86,14.86
201906070947,14.86,14.86,14.855,14.859
201906070948,14.859,14.859,14.854,14.856
201906070949,14.856,14.858,14.855,14.858
201906070950,14.858,14.858,14.855,14.856
201906070951,14.856,14.856,14.855,14.855
201906070952,14.855,14.855,14.854,14.855
201906070953,14.855,14.855,14.855,14.855
201906070954,14.855,14.856,14.853,14.855
201906070955,14.855,14.856,14.854,14.855
201906070956,14.855,14.859,14.855,14.858
201906070957,14.858,14.861,14.858,14.86
201906070958,14.86,14.86,14.859,14.859
201906070959,14.859,14.864,14.859,14.864
201906071000,14.864,14.864,14.86,14.864
201906071001,14.864,14.866,14.862,14.865
201906071002,14.866,14.868,14.865,14.868
201906071003,14.868,14.869,14.865,14.866
201906071004,14.866,14.867,14.865,14.866
201906071005,14.866,14.866,14.865,14.865
201906071006,14.865,14.866,14.864,14.865
201906071007,14.865,14.866,14.864,14.865
201906071008,14.865,14.866,14.864,14.864
201906071009,14.864,14.866,14.864,14.864
201906071010,14.864,14.869,14.863,14.866
201906071011,14.866,14.867,14.865,14.866
201906071012,14.866,14.869,14.865,14.866
201906071013,14.866,14.87,14.865,14.869
201906071014,14.869,14.873,14.869,14.871
201906071015,14.871,14.871,14.87,14.87
201906071016,14.87,14.874,14.87,14.874
201906071017,14.874,14.875,14.869,14.869
201906071018,14.87,14.871,14.868,14.869
201906071019,14.869,14.871,14.868,14.87
201906071020,14.87,14.87,14.869,14.87
201906071021,14.87,14.871,14.865,14.865
201906071022,14.865,14.865,14.864,14.865
201906071023,14.865,14.87,14.863,14.87
201906071024,14.87,14.871,14.869,14.87
201906071025,14.87,14.871,14.869,14.87
201906071026,14.87,14.872,14.87,14.871
201906071027,14.871,14.872,14.871,14.871
201906071028,14.871,14.872,14.871,14.872
201906071029,14.871,14.873,14.871,14.873
201906071030,14.873,14.876,14.873,14.876
201906071031,14.876,14.876,14.876,14.876
201906071032,14.876,14.878,14.876,14.876
201906071033,14.876,14.876,14.872,14.872
201906071034,14.872,14.872,14.871,14.871
201906071035,14.871,14.872,14.866,14.87
201906071036,14.87,14.872,14.87,14.872
201906071037,14.872,14.872,14.87,14.871
201906071038,14.871,14.872,14.87,14.871
201906071039,14.871,14.871,14.87,14.87
201906071040,14.87,14.87,14.87,14.87
201906071041,14.87,14.871,14.87,14.871
201906071042,14.871,14.871,14.87,14.871
201906071043,14.871,14.871,14.87,14.87
201906071044,14.87,14.871,14.87,14.871
201906071045,14.871,14.871,14.87,14.871
201906071046,14.871,14.873,14.87,14.872
201906071047,14.872,14.873,14.871,14.873
201906071048,14.873,14.876,14.873,14.875
201906071049,14.875,14.876,14.872,14.872
201906071050,14.872,14.876,14.872,14.876
201906071051,14.876,14.877,14.875,14.877
201906071052,14.877,14.882,14.877,14.882
201906071053,14.882,14.882,14.88,14.881
201906071054,14.881,14.882,14.88,14.881
201906071055,14.881,14.882,14.88,14.881
201906071056,14.881,14.883,14.881,14.883
201906071057,14.883,14.883,14.881,14.881
201906071058,14.882,14.885,14.882,14.885
201906071059,14.885,14.885,14.884,14.885
201906071100,14.885,14.886,14.885,14.885
201906071101,14.885,14.885,14.879,14.879
201906071102,14.879,14.88,14.879,14.88
201906071103,14.88,14.881,14.879,14.881
201906071104,14.881,14.881,14.88,14.881
201906071105,14.881,14.882,14.881,14.882
201906071106,14.882,14.882,14.879,14.881
201906071107,14.881,14.882,14.881,14.882
201906071108,14.882,14.882,14.88,14.88
201906071109,14.88,14.88,14.88,14.88
201906071110,14.88,14.881,14.88,14.881
201906071111,14.881,14.883,14.88,14.882
201906071112,14.882,14.885,14.881,14.884
201906071113,14.884,14.885,14.881,14.885
201906071114,14.885,14.886,14.884,14.885
201906071115,14.884,14.885,14.88,14.881
201906071116,14.881,14.885,14.881,14.884
201906071117,14.884,14.885,14.884,14.885
201906071118,14.885,14.886,14.884,14.886
201906071119,14.886,14.886,14.885,14.885
201906071120,14.885,14.885,14.884,14.884
201906071121,14.884,14.885,14.884,14.885
201906071122,14.885,14.885,14.884,14.885
201906071123,14.885,14.886,14.884,14.886
201906071124,14.886,14.886,14.885,14.885
201906071125,14.885,14.886,14.885,14.886
201906071126,14.886,14.886,14.885,14.885
201906071127,14.884,14.886,14.884,14.886
201906071128,14.886,14.887,14.885,14.885
201906071129,14.885,14.886,14.884,14.886
201906071130,14.886,14.886,14.885,14.886
201906071131,14.886,14.89,14.886,14.89
201906071132,14.89,14.891,14.89,14.891
201906071133,14.891,14.891,14.89,14.891
201906071134,14.891,14.891,14.891,14.891
201906071135,14.891,14.891,14.891,14.891
201906071136,14.891,14.891,14.889,14.89
201906071137,14.89,14.89,14.886,14.89
201906071138,14.89,14.89,14.886,14.889
201906071139,14.889,14.89,14.889,14.889
201906071140,14.889,14.891,14.889,14.89
201906071141,14.89,14.891,14.889,14.889
201906071142,14.889,14.891,14.889,14.891
201906071143,14.891,14.896,14.891,14.896
201906071144,14.896,14.896,14.895,14.896
201906071145,14.896,14.896,14.895,14.896
201906071146,14.896,14.897,14.895,14.895
201906071147,14.896,14.896,14.895,14.895
201906071148,14.896,14.897,14.891,14.894
201906071149,14.894,14.895,14.894,14.894
201906071150,14.894,14.894,14.891,14.894
201906071151,14.894,14.894,14.894,14.894
201906071152,14.894,14.894,14.891,14.894
201906071153,14.894,14.894,14.889,14.89
201906071154,14.89,14.891,14.89,14.89
201906071155,14.89,14.891,14.886,14.886
201906071156,14.886,14.886,14.885,14.885
201906071157,14.885,14.886,14.885,14.885
201906071158,14.885,14.886,14.885,14.886
201906071159,14.886,14.887,14.886,14.886
201906071200,14.886,14.889,14.885,14.889
201906071201,14.889,14.891,14.889,14.891
201906071202,14.891,14.891,14.891,14.891
201906071203,14.891,14.891,14.89,14.891
201906071204,14.891,14.891,14.886,14.886
201906071205,14.886,14.886,14.882,14.882
201906071206,14.882,14.884,14.881,14.884
201906071207,14.884,14.886,14.884,14.884
201906071208,14.884,14.887,14.884,14.886
201906071209,14.886,14.886,14.885,14.886
201906071210,14.886,14.887,14.884,14.885
201906071211,14.885,14.886,14.884,14.885
201906071212,14.885,14.886,14.885,14.886
201906071213,14.886,14.886,14.886,14.886
201906071214,14.886,14.887,14.885,14.885
201906071215,14.885,14.885,14.881,14.881
201906071216,14.881,14.885,14.881,14.882
201906071217,14.882,14.882,14.881,14.882
201906071218,14.882,14.882,14.88,14.88
201906071219,14.88,14.88,14.878,14.878
201906071220,14.878,14.878,14.872,14.873
201906071221,14.874,14.876,14.874,14.875
201906071222,14.875,14.875,14.873,14.875
201906071223,14.875,14.875,14.874,14.875
201906071224,14.875,14.875,14.873,14.874
201906071225,14.874,14.875,14.874,14.875
201906071226,14.875,14.876,14.873,14.874
201906071227,14.874,14.874,14.873,14.873
201906071228,14.873,14.875,14.873,14.875
201906071229,14.874,14.875,14.873,14.874
201906071230,14.874,14.876,14.874,14.875
201906071231,14.876,14.876,14.875,14.875
201906071232,14.875,14.875,14.875,14.875
201906071233,14.875,14.876,14.875,14.876
201906071234,14.875,14.876,14.875,14.875
201906071235,14.875,14.876,14.875,14.875
201906071236,14.875,14.875,14.875,14.875
201906071237,14.875,14.876,14.875,14.876
201906071238,14.876,14.876,14.875,14.875
201906071239,14.875,14.876,14.875,14.876
201906071240,14.876,14.876,14.875,14.875
201906071241,14.875,14.877,14.875,14.875
201906071242,14.875,14.877,14.875,14.876
201906071243,14.876,14.877,14.875,14.875
201906071244,14.875,14.875,14.874,14.875
201906071245,14.875,14.877,14.875,14.876
201906071246,14.876,14.877,14.875,14.876
201906071247,14.875,14.877,14.875,14.876
201906071248,14.877,14.877,14.876,14.877
201906071249,14.877,14.877,14.875,14.876
201906071250,14.876,14.877,14.875,14.876
201906071251,14.876,14.877,14.875,14.877
201906071252,14.877,14.878,14.876,14.876
201906071253,14.876,14.877,14.876,14.877
201906071254,14.877,14.877,14.876,14.877
201906071255,14.877,14.877,14.876,14.877
201906071256,14.877,14.877,14.874,14.876
201906071257,14.876,14.877,14.876,14.876
201906071258,14.876,14.876,14.875,14.875
201906071259,14.875,14.877,14.875,14.877
201906071300,14.877,14.877,14.875,14.876
201906071301,14.876,14.879,14.876,14.878
201906071302,14.878,14.878,14.877,14.878
201906071303,14.878,14.879,14.877,14.878
201906071304,14.878,14.879,14.877,14.879
201906071305,14.878,14.882,14.878,14.882
201906071306,14.882,14.883,14.88,14.883
201906071307,14.883,14.883,14.883,14.883
201906071308,14.883,14.883,14.883,14.883
201906071309,14.883,14.887,14.883,14.886
201906071310,14.886,14.887,14.886,14.887
201906071311,14.887,14.888,14.885,14.888
201906071312,14.888,14.889,14.887,14.887
201906071313,14.887,14.888,14.887,14.887
201906071314,14.887,14.888,14.885,14.887
201906071315,14.887,14.888,14.887,14.888
201906071316,14.888,14.89,14.888,14.889
201906071317,14.889,14.889,14.887,14.889
201906071318,14.889,14.889,14.889,14.889
201906071319,14.889,14.889,14.888,14.888
201906071320,14.888,14.889,14.888,14.889
201906071321,14.889,14.89,14.888,14.889
201906071322,14.889,14.893,14.889,14.893
201906071323,14.893,14.893,14.891,14.892
201906071324,14.892,14.892,14.89,14.892
201906071325,14.892,14.892,14.89,14.891
201906071326,14.891,14.891,14.888,14.888
201906071327,14.888,14.888,14.887,14.887
201906071328,14.887,14.889,14.887,14.888
201906071329,14.888,14.888,14.885,14.888
201906071330,14.888,14.888,14.886,14.886
201906071331,14.886,14.887,14.883,14.886
201906071332,14.886,14.887,14.885,14.886
201906071333,14.886,14.887,14.884,14.887
201906071334,14.887,14.887,14.885,14.885
201906071335,14.885,14.885,14.882,14.882
201906071336,14.882,14.884,14.882,14.882
201906071337,14.882,14.883,14.88,14.882
201906071338,14.882,14.883,14.882,14.882
201906071339,14.882,14.883,14.881,14.883
201906071340,14.882,14.884,14.882,14.883
201906071341,14.883,14.883,14.88,14.88
201906071342,14.88,14.882,14.88,14.882
201906071343,14.882,14.882,14.882,14.882
201906071344,14.882,14.882,14.877,14.877
201906071345,14.877,14.877,14.875,14.877
201906071346,14.877,14.877,14.876,14.876
201906071347,14.875,14.876,14.872,14.874
201906071348,14.873,14.876,14.872,14.876
201906071349,14.876,14.877,14.875,14.877
201906071350,14.877,14.877,14.877,14.877
201906071351,14.877,14.877,14.875,14.877
201906071352,14.877,14.877,14.877,14.877
201906071353,14.877,14.877,14.877,14.877
201906071354,14.877,14.877,14.877,14.877
201906071355,14.877,14.877,14.874,14.877
201906071356,14.877,14.877,14.877,14.877
201906071357,14.877,14.877,14.877,14.877
201906071358,14.877,14.877,14.877,14.877
201906071359,14.877,14.877,14.877,14.877
201906071400,14.877,14.877,14.877,14.877
201906071401,14.877,14.877,14.875,14.875
201906071402,14.875,14.876,14.875,14.875
201906071403,14.875,14.875,14.875,14.875
201906071404,14.875,14.875,14.875,14.875
201906071405,14.875,14.875,14.875,14.875
201906071406,14.875,14.875,14.875,14.875
201906071407,14.875,14.875,14.875,14.875
201906071408,14.875,14.876,14.875,14.875
201906071409,14.875,14.875,14.875,14.875
201906071410,14.875,14.876,14.875,14.875
201906071411,14.875,14.876,14.875,14.876
201906071412,14.876,14.876,14.876,14.876
201906071413,14.876,14.876,14.876,14.876
201906071414,14.876,14.876,14.875,14.875
201906071415,14.876,14.877,14.876,14.877
201906071416,14.88,14.88,14.877,14.877
201906071417,14.877,14.88,14.877,14.88
201906071418,14.88,14.881,14.877,14.88
201906071419,14.88,14.88,14.876,14.876
201906071420,14.876,14.879,14.875,14.876
201906071421,14.876,14.882,14.876,14.882
201906071422,14.882,14.882,14.88,14.882
201906071423,14.882,14.883,14.881,14.881
201906071424,14.881,14.882,14.881,14.882
201906071425,14.882,14.882,14.881,14.882
201906071426,14.881,14.884,14.881,14.881
201906071427,14.881,14.882,14.881,14.882
201906071428,14.882,14.882,14.881,14.881
201906071429,14.881,14.881,14.88,14.881
201906071430,14.881,14.881,14.877,14.877
201906071431,14.877,14.878,14.877,14.877
201906071432,14.878,14.878,14.877,14.878
201906071433,14.878,14.878,14.876,14.877
201906071434,14.877,14.878,14.877,14.877
201906071435,14.877,14.877,14.877,14.877
201906071436,14.877,14.879,14.876,14.877
201906071437,14.877,14.877,14.876,14.877
201906071438,14.877,14.877,14.877,14.877
201906071439,14.877,14.877,14.877,14.877
201906071440,14.877,14.881,14.877,14.88
201906071441,14.88,14.882,14.88,14.881
201906071442,14.881,14.881,14.88,14.881
201906071443,14.881,14.881,14.876,14.876
201906071444,14.876,14.877,14.876,14.876
201906071445,14.876,14.877,14.875,14.876
201906071446,14.876,14.877,14.876,14.877
201906071447,14.877,14.877,14.876,14.876
201906071448,14.876,14.877,14.876,14.876
201906071449,14.876,14.879,14.876,14.878
201906071450,14.878,14.878,14.877,14.877
201906071451,14.877,14.878,14.877,14.878
201906071452,14.878,14.878,14.877,14.877
201906071453,14.877,14.878,14.877,14.877
201906071454,14.877,14.878,14.876,14.877
201906071455,14.876,14.877,14.876,14.877
201906071456,14.877,14.877,14.876,14.876
201906071457,14.876,14.876,14.876,14.876
201906071458,14.876,14.877,14.876,14.876
201906071459,14.876,14.877,14.876,14.877
201906071500,14.877,14.877,14.876,14.877
201906071501,14.876,14.876,14.871,14.871
201906071502,14.871,14.872,14.871,14.872
201906071503,14.872,14.873,14.871,14.871
201906071504,14.871,14.873,14.871,14.871
201906071505,14.871,14.872,14.871,14.872
201906071506,14.872,14.873,14.871,14.872
201906071507,14.872,14.872,14.871,14.871
201906071508,14.871,14.871,14.867,14.871
201906071509,14.871,14.872,14.87,14.871
201906071510,14.871,14.872,14.871,14.872
201906071511,14.871,14.873,14.871,14.872
201906071512,14.872,14.874,14.872,14.873
201906071513,14.873,14.874,14.871,14.873
201906071514,14.873,14.873,14.872,14.872
201906071515,14.872,14.873,14.872,14.873
201906071516,14.873,14.877,14.872,14.874
201906071517,14.876,14.878,14.876,14.878
201906071518,14.878,14.878,14.877,14.878
201906071519,14.878,14.878,14.877,14.878
201906071520,14.878,14.878,14.877,14.877
201906071521,14.877,14.878,14.877,14.877
201906071522,14.877,14.883,14.876,14.882
201906071523,14.882,14.882,14.877,14.878
201906071524,14.878,14.878,14.877,14.877
201906071525,14.877,14.881,14.877,14.881
201906071526,14.881,14.881,14.872,14.873
201906071527,14.873,14.874,14.872,14.873
201906071528,14.872,14.875,14.872,14.874
201906071529,14.874,14.874,14.868,14.869
201906071530,14.869,14.869,14.853,14.853
201906071531,14.853,14.853,14.852,14.852
201906071532,14.852,14.855,14.851,14.853
201906071533,14.853,14.857,14.853,14.857
201906071534,14.857,14.858,14.853,14.857
201906071535,14.857,14.863,14.857,14.863
201906071536,14.863,14.872,14.863,14.868
201906071537,14.868,14.873,14.866,14.872
201906071538,14.873,14.873,14.864,14.866
201906071539,14.866,14.868,14.866,14.867
201906071540,14.867,14.869,14.866,14.868
201906071541,14.868,14.868,14.866,14.867
201906071542,14.867,14.868,14.863,14.868
201906071543,14.868,14.869,14.867,14.869
201906071544,14.869,14.869,14.863,14.863
201906071545,14.863,14.866,14.858,14.864
201906071546,14.864,14.868,14.863,14.868
201906071547,14.868,14.868,14.863,14.866
201906071548,14.866,14.867,14.862,14.865
201906071549,14.865,14.867,14.863,14.867
201906071550,14.866,14.872,14.866,14.872
201906071551,14.871,14.873,14.871,14.871
201906071552,14.871,14.873,14.867,14.872
201906071553,14.872,14.875,14.872,14.874
201906071554,14.873,14.874,14.872,14.872
201906071555,14.872,14.874,14.872,14.874
201906071556,14.874,14.877,14.872,14.872
201906071557,14.872,14.873,14.868,14.868
201906071558,14.868,14.869,14.866,14.868
201906071559,14.868,14.869,14.867,14.868
201906071600,14.868,14.872,14.867,14.868
201906071601,14.868,14.872,14.868,14.871
201906071602,14.872,14.875,14.872,14.873
201906071603,14.873,14.875,14.871,14.875
201906071604,14.875,14.883,14.875,14.882
201906071605,14.882,14.891,14.881,14.891
201906071606,14.891,14.893,14.888,14.891
201906071607,14.891,14.897,14.891,14.897
201906071608,14.897,14.902,14.897,14.898
201906071609,14.898,14.9,14.896,14.896
201906071610,14.897,14.897,14.892,14.892
201906071611,14.892,14.895,14.891,14.894
201906071612,14.894,14.895,14.892,14.895
201906071613,14.895,14.9,14.894,14.9
201906071614,14.9,14.902,14.896,14.902
201906071615,14.902,14.902,14.9,14.901
201906071616,14.901,14.908,14.901,14.907
201906071617,14.906,14.908,14.905,14.908
201906071618,14.908,14.911,14.906,14.91
201906071619,14.91,14.911,14.907,14.907
201906071620,14.907,14.907,14.902,14.902
201906071621,14.901,14.906,14.901,14.905
201906071622,14.905,14.906,14.905,14.905
201906071623,14.905,14.906,14.901,14.905
201906071624,14.905,14.907,14.904,14.907
201906071625,14.907,14.908,14.906,14.908
201906071626,14.908,14.908,14.905,14.905
201906071627,14.905,14.911,14.905,14.911
201906071628,14.911,14.916,14.91,14.916
201906071629,14.916,14.916,14.911,14.911
201906071630,14.911,14.913,14.91,14.911
201906071631,14.912,14.916,14.912,14.916
201906071632,14.916,14.918,14.915,14.915
201906071633,14.915,14.916,14.912,14.912
201906071634,14.915,14.915,14.915,14.915
201906071635,14.915,14.916,14.912,14.916
201906071636,14.916,14.918,14.916,14.918
201906071637,14.918,14.918,14.915,14.916
201906071638,14.916,14.917,14.913,14.915
201906071639,14.915,14.918,14.912,14.916
201906071640,14.916,14.921,14.916,14.917
201906071641,14.917,14.918,14.915,14.915
201906071642,14.915,14.921,14.915,14.92
201906071643,14.92,14.926,14.92,14.926
201906071644,14.926,14.927,14.923,14.926
201906071645,14.926,14.928,14.926,14.928
201906071646,14.928,14.928,14.926,14.928
201906071647,14.928,14.928,14.926,14.927
201906071648,14.927,14.928,14.927,14.928
201906071649,14.928,14.932,14.928,14.931
201906071650,14.931,14.931,14.926,14.927
201906071651,14.927,14.928,14.925,14.926
201906071652,14.926,14.926,14.922,14.925
201906071653,14.926,14.926,14.925,14.925
201906071654,14.925,14.927,14.925,14.925
201906071655,14.925,14.93,14.925,14.928
201906071656,14.928,14.93,14.927,14.927
201906071657,14.927,14.932,14.927,14.931
201906071658,14.931,14.932,14.93,14.932
201906071659,14.932,14.932,14.93,14.932
201906071700,14.931,14.944,14.93,14.94
201906071701,14.94,14.942,14.938,14.94
201906071702,14.94,14.94,14.935,14.935
201906071703,14.935,14.936,14.934,14.936
201906071704,14.936,14.94,14.934,14.939
201906071705,14.939,14.942,14.939,14.942
201906071706,14.942,14.946,14.942,14.945
201906071707,14.945,14.948,14.945,14.945
201906071708,14.945,14.945,14.941,14.941
201906071709,14.941,14.946,14.94,14.944
201906071710,14.945,14.946,14.94,14.94
201906071711,14.94,14.941,14.936,14.938
201906071712,14.938,14.941,14.938,14.941
201906071713,14.941,14.941,14.94,14.941
201906071714,14.941,14.941,14.937,14.938
201906071715,14.938,14.941,14.936,14.94
201906071716,14.94,14.94,14.94,14.94
201906071717,14.94,14.942,14.94,14.94
201906071718,14.94,14.942,14.94,14.941
201906071719,14.942,14.942,14.94,14.94
201906071720,14.94,14.941,14.94,14.94
201906071721,14.94,14.941,14.94,14.941
201906071722,14.941,14.942,14.94,14.94
201906071723,14.94,14.941,14.936,14.936
201906071724,14.936,14.937,14.931,14.931
201906071725,14.931,14.932,14.929,14.929
201906071726,14.929,14.929,14.926,14.926
201906071727,14.926,14.926,14.92,14.924
201906071728,14.924,14.931,14.924,14.931
201906071729,14.931,14.936,14.93,14.936
201906071730,14.936,14.936,14.931,14.931
201906071731,14.931,14.931,14.927,14.929
201906071732,14.929,14.931,14.927,14.927
201906071733,14.927,14.927,14.924,14.924
201906071734,14.924,14.926,14.924,14.926
201906071735,14.926,14.931,14.926,14.93
201906071736,14.929,14.929,14.922,14.924
201906071737,14.924,14.924,14.92,14.924
201906071738,14.924,14.925,14.921,14.925
201906071739,14.925,14.926,14.924,14.925
201906071740,14.924,14.925,14.923,14.924
201906071741,14.924,14.925,14.924,14.925
201906071742,14.925,14.927,14.925,14.926
201906071743,14.926,14.927,14.925,14.926
201906071744,14.926,14.928,14.925,14.926
201906071745,14.926,14.93,14.925,14.93
201906071746,14.93,14.931,14.93,14.931
201906071747,14.931,14.931,14.93,14.93
201906071748,14.931,14.932,14.93,14.931
201906071749,14.932,14.932,14.931,14.932
201906071750,14.932,14.933,14.932,14.932
201906071751,14.932,14.932,14.932,14.932
201906071752,14.932,14.932,14.93,14.931
201906071753,14.931,14.931,14.93,14.931
201906071754,14.931,14.931,14.931,14.931
201906071755,14.931,14.932,14.931,14.932
201906071756,14.932,14.932,14.931,14.932
201906071757,14.932,14.932,14.931,14.932
201906071758,14.932,14.935,14.932,14.934
201906071759,14.932,14.935,14.93,14.931
201906071800,14.931,14.932,14.929,14.93
201906071801,14.93,14.93,14.925,14.926
201906071802,14.927,14.927,14.925,14.926
201906071803,14.926,14.926,14.925,14.925
201906071804,14.925,14.925,14.92,14.921
201906071805,14.921,14.921,14.92,14.92
201906071806,14.92,14.92,14.915,14.92
201906071807,14.92,14.92,14.915,14.92
201906071808,14.92,14.92,14.915,14.917
201906071809,14.917,14.921,14.916,14.919
201906071810,14.919,14.921,14.919,14.92
201906071811,14.92,14.92,14.92,14.92
201906071812,14.92,14.921,14.92,14.92
201906071813,14.92,14.92,14.916,14.916
201906071814,14.916,14.921,14.915,14.915
201906071815,14.915,14.916,14.914,14.915
201906071816,14.915,14.915,14.911,14.911
201906071817,14.911,14.912,14.911,14.911
201906071818,14.912,14.912,14.911,14.911
201906071819,14.911,14.911,14.906,14.906
201906071820,14.906,14.906,14.905,14.906
201906071821,14.906,14.909,14.906,14.909
201906071822,14.909,14.909,14.908,14.909
201906071823,14.909,14.911,14.909,14.91
201906071824,14.91,14.91,14.909,14.909
201906071825,14.909,14.909,14.905,14.906
201906071826,14.906,14.906,14.905,14.905
201906071827,14.905,14.906,14.905,14.906
201906071828,14.906,14.909,14.905,14.909
201906071829,14.909,14.91,14.909,14.91
201906071830,14.91,14.91,14.905,14.905
201906071831,14.905,14.911,14.905,14.909
201906071832,14.91,14.911,14.906,14.906
201906071833,14.906,14.91,14.906,14.909
201906071834,14.909,14.91,14.905,14.906
201906071835,14.906,14.909,14.906,14.906
201906071836,14.906,14.908,14.905,14.906
201906071837,14.906,14.906,14.905,14.905
201906071838,14.905,14.905,14.905,14.905
201906071839,14.905,14.906,14.904,14.904
201906071840,14.905,14.905,14.903,14.903
201906071841,14.903,14.904,14.903,14.904
201906071842,14.904,14.905,14.903,14.904
201906071843,14.905,14.905,14.903,14.903
201906071844,14.903,14.903,14.9,14.901
201906071845,14.901,14.904,14.9,14.904
201906071846,14.904,14.905,14.903,14.904
201906071847,14.904,14.905,14.904,14.904
201906071848,14.904,14.904,14.903,14.904
201906071849,14.904,14.904,14.9,14.9
201906071850,14.9,14.902,14.9,14.901
201906071851,14.901,14.906,14.9,14.906
201906071852,14.905,14.905,14.9,14.901
201906071853,14.9,14.901,14.9,14.9
201906071854,14.9,14.902,14.9,14.902
201906071855,14.902,14.906,14.902,14.905
201906071856,14.905,14.906,14.904,14.906
201906071857,14.906,14.906,14.901,14.901
201906071858,14.901,14.901,14.895,14.896
201906071859,14.896,14.896,14.89,14.89
201906071900,14.891,14.892,14.89,14.89
201906071901,14.891,14.891,14.887,14.887
201906071902,14.887,14.887,14.885,14.887
201906071903,14.889,14.889,14.885,14.886
201906071904,14.886,14.886,14.885,14.886
201906071905,14.886,14.887,14.884,14.886
201906071906,14.887,14.891,14.886,14.891
201906071907,14.891,14.891,14.89,14.89
201906071908,14.89,14.891,14.89,14.89
201906071909,14.891,14.891,14.89,14.891
201906071910,14.891,14.899,14.891,14.899
201906071911,14.899,14.899,14.894,14.895
201906071912,14.895,14.895,14.894,14.894
201906071913,14.894,14.895,14.894,14.894
201906071914,14.894,14.894,14.889,14.891
201906071915,14.891,14.894,14.89,14.892
201906071916,14.891,14.894,14.89,14.891
201906071917,14.891,14.891,14.889,14.89
201906071918,14.89,14.897,14.889,14.896
201906071919,14.896,14.903,14.896,14.903
201906071920,14.903,14.903,14.9,14.9
201906071921,14.9,14.9,14.897,14.898
201906071922,14.898,14.899,14.898,14.898
201906071923,14.898,14.9,14.89,14.893
201906071924,14.893,14.895,14.892,14.892
201906071925,14.892,14.892,14.89,14.89
201906071926,14.89,14.894,14.89,14.892
201906071927,14.892,14.893,14.892,14.892
201906071928,14.892,14.892,14.89,14.892
201906071929,14.892,14.893,14.891,14.891
201906071930,14.891,14.895,14.891,14.895
201906071931,14.895,14.896,14.892,14.892
201906071932,14.892,14.892,14.891,14.892
201906071933,14.892,14.892,14.89,14.891
201906071934,14.891,14.893,14.89,14.893
201906071935,14.893,14.895,14.891,14.893
201906071936,14.893,14.897,14.893,14.897
201906071937,14.897,14.897,14.896,14.897
201906071938,14.897,14.9,14.896,14.899
201906071939,14.899,14.902,14.899,14.902
201906071940,14.902,14.903,14.897,14.897
201906071941,14.897,14.897,14.896,14.896
201906071942,14.896,14.901,14.895,14.901
201906071943,14.901,14.903,14.901,14.903
201906071944,14.903,14.907,14.902,14.906
201906071945,14.905,14.905,14.903,14.904
201906071946,14.904,14.904,14.899,14.901
201906071947,14.901,14.904,14.9,14.9
201906071948,14.9,14.904,14.9,14.9
201906071949,14.9,14.901,14.9,14.901
201906071950,14.901,14.906,14.901,14.906
201906071951,14.906,14.906,14.9,14.902
201906071952,14.902,14.902,14.9,14.9
201906071953,14.9,14.902,14.9,14.9
201906071954,14.9,14.901,14.896,14.9
201906071955,14.9,14.9,14.899,14.899
201906071956,14.899,14.901,14.898,14.901
201906071957,14.901,14.901,14.899,14.9
201906071958,14.9,14.905,14.9,14.903
201906071959,14.903,14.904,14.897,14.898
201906072000,14.899,14.904,14.899,14.903
201906072001,14.903,14.903,14.9,14.9
201906072002,14.9,14.904,14.9,14.903
201906072003,14.903,14.903,14.9,14.901
201906072004,14.901,14.904,14.901,14.904
201906072005,14.904,14.904,14.901,14.904
201906072006,14.905,14.905,14.902,14.905
201906072007,14.905,14.909,14.904,14.906
201906072008,14.906,14.907,14.905,14.906
201906072009,14.906,14.907,14.905,14.907
201906072010,14.906,14.91,14.906,14.91
201906072011,14.91,14.913,14.91,14.911
201906072012,14.911,14.913,14.911,14.912
201906072013,14.912,14.914,14.911,14.912
201906072014,14.912,14.912,14.909,14.91
201906072015,14.91,14.911,14.909,14.911
201906072016,14.911,14.916,14.911,14.916
201906072017,14.916,14.917,14.909,14.909
201906072018,14.909,14.913,14.909,14.91
201906072019,14.91,14.911,14.91,14.911
201906072020,14.911,14.911,14.91,14.91
201906072021,14.911,14.912,14.91,14.911
201906072022,14.911,14.914,14.91,14.914
201906072023,14.914,14.916,14.914,14.914
201906072024,14.914,14.914,14.91,14.911
201906072025,14.911,14.915,14.911,14.911
201906072026,14.911,14.914,14.91,14.911
201906072027,14.911,14.911,14.909,14.91
201906072028,14.91,14.913,14.91,14.911
201906072029,14.911,14.914,14.91,14.914
201906072030,14.914,14.917,14.914,14.916
201906072031,14.916,14.917,14.911,14.911
201906072032,14.911,14.918,14.911,14.918
201906072033,14.918,14.918,14.915,14.915
201906072034,14.915,14.916,14.91,14.914
201906072035,14.914,14.914,14.909,14.91
201906072036,14.91,14.91,14.909,14.91
201906072037,14.91,14.91,14.909,14.909
201906072038,14.909,14.909,14.905,14.907
201906072039,14.907,14.909,14.903,14.905
201906072040,14.905,14.906,14.902,14.906
201906072041,14.906,14.906,14.9,14.901
201906072042,14.901,14.905,14.897,14.899
201906072043,14.9,14.905,14.899,14.904
201906072044,14.903,14.906,14.903,14.905
201906072045,14.905,14.905,14.9,14.9
201906072046,14.9,14.908,14.9,14.902
201906072047,14.902,14.906,14.901,14.906
201906072048,14.906,14.907,14.904,14.904
201906072049,14.904,14.907,14.9,14.901
201906072050,14.901,14.902,14.9,14.9
201906072051,14.9,14.9,14.898,14.899
201906072052,14.898,14.901,14.898,14.901
201906072053,14.901,14.906,14.901,14.905
201906072054,14.905,14.909,14.905,14.907
201906072055,14.907,14.912,14.907,14.91
201906072056,14.91,14.914,14.91,14.911
201906072057,14.911,14.912,14.91,14.91
201906072058,14.91,14.91,14.909,14.909
201906072059,14.909,14.911,14.909,14.91
201906072100,14.91,14.911,14.906,14.906
201906072101,14.906,14.915,14.906,14.914
201906072102,14.915,14.916,14.913,14.914
201906072103,14.914,14.921,14.914,14.92
201906072104,14.92,14.924,14.92,14.922
201906072105,14.922,14.924,14.921,14.924
201906072106,14.924,14.925,14.92,14.924
201906072107,14.924,14.93,14.924,14.93
201906072108,14.93,14.933,14.93,14.933
201906072109,14.933,14.934,14.933,14.933
201906072110,14.933,14.936,14.933,14.934
201906072111,14.934,14.936,14.934,14.935
201906072112,14.935,14.94,14.934,14.94
201906072113,14.94,14.941,14.936,14.936
201906072114,14.936,14.937,14.934,14.935
201906072115,14.936,14.939,14.928,14.934
201906072116,14.934,14.941,14.934,14.94
201906072117,14.94,14.943,14.94,14.941
201906072118,14.941,14.945,14.94,14.944
201906072119,14.945,14.946,14.94,14.942
201906072120,14.942,14.947,14.942,14.947
201906072121,14.947,14.947,14.94,14.941
201906072122,14.941,14.944,14.938,14.939
201906072123,14.939,14.946,14.937,14.945
201906072124,14.945,14.946,14.943,14.944
201906072125,14.944,14.95,14.944,14.949
201906072126,14.949,14.956,14.949,14.954
201906072127,14.954,14.954,14.927,14.927
201906072128,14.927,14.944,14.926,14.93
201906072129,14.93,14.951,14.929,14.945
201906072130,14.945,15.007,14.943,14.99
201906072131,14.991,15.017,14.99,15.006
201906072132,15.006,15.015,14.99,14.995
201906072133,14.994,15.001,14.97,14.971
201906072134,14.971,14.977,14.969,14.971
201906072135,14.971,14.991,14.967,14.99
201906072136,14.99,15.021,14.989,15.021
201906072137,15.021,15.027,15.009,15.009
201906072138,15.006,15.011,14.992,14.997
201906072139,14.997,15.013,14.99,15.009
201906072140,15.01,15.016,15.002,15.005
201906072141,15.005,15.006,14.996,15
201906072142,15,15.001,14.982,14.992
201906072143,14.992,15.007,14.992,15.003
201906072144,15.003,15.004,14.987,14.997
201906072145,14.997,14.997,14.984,14.992
201906072146,14.993,15.007,14.991,15.007
201906072147,15.007,15.017,15.004,15.016
201906072148,15.016,15.019,14.996,15.002
201906072149,15.002,15.003,14.992,14.998
201906072150,14.998,15.004,14.958,14.98
201906072151,14.979,14.986,14.967,14.969
201906072152,14.969,14.973,14.951,14.972
201906072153,14.972,14.994,14.972,14.988
201906072154,14.987,14.991,14.977,14.991
201906072155,14.991,14.992,14.978,14.978
201906072156,14.978,14.979,14.972,14.973
201906072157,14.973,14.979,14.957,14.968
201906072158,14.968,14.98,14.966,14.98
201906072159,14.979,14.985,14.972,14.976
201906072200,14.975,14.98,14.963,14.963
201906072201,14.963,14.973,14.963,14.969
201906072202,14.97,14.986,14.969,14.974
201906072203,14.974,14.986,14.973,14.979
201906072204,14.978,14.99,14.973,14.988
201906072205,14.988,15.007,14.987,14.996
201906072206,14.998,14.999,14.984,14.988
201906072207,14.988,14.989,14.98,14.98
201906072208,14.98,14.999,14.98,14.993
201906072209,14.993,15.01,14.993,15.009
201906072210,15.009,15.014,15.003,15.009
201906072211,15.009,15.014,15,15.013
201906072212,15.013,15.017,15.013,15.017
201906072213,15.017,15.018,15.009,15.012
201906072214,15.012,15.013,14.997,14.998
201906072215,14.998,14.998,14.986,14.988
201906072216,14.988,15.004,14.988,14.995
201906072217,14.995,14.997,14.985,14.988
201906072218,14.988,14.988,14.979,14.986
201906072219,14.985,14.987,14.982,14.987
201906072220,14.988,14.993,14.987,14.992
201906072221,14.992,14.999,14.992,14.999
201906072222,14.999,15.011,14.999,15
201906072223,15,15,14.985,14.992
201906072224,14.992,15.005,14.992,14.994
201906072225,14.994,15.009,14.992,15.007
201906072226,15.007,15.016,15.003,15.016
201906072227,15.016,15.017,15.012,15.012
201906072228,15.012,15.015,15.007,15.014
201906072229,15.014,15.015,15.001,15.012
201906072230,15.012,15.013,14.998,14.998
201906072231,14.999,15.007,14.993,14.998
201906072232,14.998,15.007,14.997,15.001
201906072233,15.001,15.004,14.999,15
201906072234,15.001,15.001,14.991,14.999
201906072235,14.999,15.01,14.997,15.008
201906072236,15.008,15.015,15.006,15.01
201906072237,15.01,15.012,15.002,15.002
201906072238,15.002,15.007,15.001,15.003
201906072239,15.003,15.008,15.002,15.008
201906072240,15.008,15.017,15.008,15.009
201906072241,15.008,15.008,15.001,15.002
201906072242,15.003,15.003,14.996,15
201906072243,14.998,15.015,14.997,15.011
201906072244,15.011,15.014,15.01,15.011
201906072245,15.011,15.015,15.01,15.012
201906072246,15.011,15.016,15.01,15.01
201906072247,15.01,15.015,15.009,15.01
201906072248,15.01,15.015,15.01,15.011
201906072249,15.011,15.011,14.996,14.996
201906072250,14.996,15.005,14.995,15.002
201906072251,15.002,15.009,15.001,15.005
201906072252,15.005,15.006,14.999,15.005
201906072253,15.006,15.01,15.005,15.01
201906072254,15.009,15.01,15.005,15.006
201906072255,15.008,15.016,15.008,15.015
201906072256,15.013,15.017,15.011,15.016
201906072257,15.016,15.021,15.014,15.019
201906072258,15.018,15.022,15.014,15.015
201906072259,15.015,15.016,14.997,15
201906072300,15,15.007,14.995,15.007
201906072301,15.008,15.011,15.005,15.01
201906072302,15.011,15.021,15.011,15.02
201906072303,15.02,15.028,15.02,15.026
201906072304,15.027,15.047,15.025,15.045
201906072305,15.045,15.06,15.045,15.06
201906072306,15.062,15.076,15.061,15.065
201906072307,15.066,15.066,15.051,15.056
201906072308,15.056,15.061,15.055,15.058
201906072309,15.058,15.06,15.054,15.055
201906072310,15.055,15.06,15.054,15.057
201906072311,15.056,15.061,15.055,15.056
201906072312,15.056,15.062,15.056,15.061
201906072313,15.061,15.061,15.055,15.055
201906072314,15.055,15.066,15.055,15.066
201906072315,15.066,15.076,15.065,15.076
201906072316,15.076,15.076,15.071,15.076
201906072317,15.076,15.081,15.075,15.08
201906072318,15.08,15.085,15.079,15.081
201906072319,15.081,15.09,15.081,15.088
201906072320,15.088,15.127,15.088,15.125
201906072321,15.125,15.13,15.118,15.118
201906072322,15.118,15.122,15.102,15.108
201906072323,15.108,15.115,15.103,15.109
201906072324,15.109,15.112,15.1,15.103
201906072325,15.104,15.104,15.099,15.099
201906072326,15.099,15.104,15.098,15.099
201906072327,15.099,15.103,15.098,15.099
201906072328,15.099,15.108,15.093,15.108
201906072329,15.108,15.109,15.103,15.104
201906072330,15.104,15.128,15.103,15.124
201906072331,15.124,15.14,15.121,15.139
201906072332,15.139,15.145,15.134,15.143
201906072333,15.143,15.143,15.116,15.131
201906072334,15.131,15.132,15.12,15.124
201906072335,15.124,15.125,15.116,15.116
201906072336,15.116,15.125,15.116,15.121
201906072337,15.12,15.121,15.113,15.113
201906072338,15.113,15.123,15.112,15.119
201906072339,15.118,15.119,15.109,15.109
201906072340,15.109,15.109,15.075,15.091
201906072341,15.09,15.093,15.079,15.085
201906072342,15.084,15.087,15.077,15.084
201906072343,15.084,15.088,15.084,15.087
201906072344,15.087,15.09,15.084,15.085
201906072345,15.085,15.088,15.08,15.087
201906072346,15.087,15.091,15.086,15.09
201906072347,15.09,15.093,15.088,15.091
201906072348,15.091,15.098,15.091,15.098
201906072349,15.098,15.1,15.095,15.099
201906072350,15.099,15.104,15.097,15.103
201906072351,15.103,15.114,15.098,15.109
201906072352,15.109,15.11,15.102,15.103
201906072353,15.103,15.113,15.102,15.109
201906072354,15.109,15.109,15.099,15.099
201906072355,15.099,15.099,15.088,15.091
201906072356,15.091,15.093,15.084,15.084
201906072357,15.084,15.085,15.077,15.078
201906072358,15.078,15.088,15.078,15.086
201906072359,15.086,15.092,15.084,15.09
201906080000,15.09,15.091,15.085,15.085
201906080001,15.085,15.086,15.084,15.085
201906080002,15.085,15.095,15.085,15.095
201906080003,15.095,15.095,15.089,15.089
201906080004,15.089,15.091,15.084,15.088
201906080005,15.088,15.092,15.087,15.089
201906080006,15.089,15.091,15.088,15.089
201906080007,15.089,15.093,15.088,15.093
201906080008,15.093,15.098,15.093,15.098
201906080009,15.098,15.104,15.097,15.104
201906080010,15.105,15.105,15.098,15.098
201906080011,15.098,15.098,15.087,15.089
201906080012,15.089,15.094,15.089,15.094
201906080013,15.094,15.094,15.088,15.089
201906080014,15.089,15.089,15.084,15.086
201906080015,15.086,15.086,15.084,15.085
201906080016,15.085,15.089,15.084,15.087
201906080017,15.086,15.088,15.085,15.085
201906080018,15.085,15.088,15.084,15.085
201906080019,15.085,15.087,15.08,15.081
201906080020,15.081,15.084,15.081,15.084
201906080021,15.084,15.084,15.075,15.08
201906080022,15.079,15.081,15.078,15.078
201906080023,15.078,15.078,15.068,15.068
201906080024,15.068,15.07,15.065,15.069
201906080025,15.069,15.069,15.058,15.058
201906080026,15.058,15.06,15.043,15.044
201906080027,15.044,15.046,15.043,15.045
201906080028,15.045,15.05,15.044,15.049
201906080029,15.049,15.05,15.048,15.049
201906080030,15.049,15.049,15.035,15.039
201906080031,15.039,15.043,15.039,15.039
201906080032,15.039,15.046,15.037,15.044
201906080033,15.044,15.045,15.044,15.045
201906080034,15.045,15.05,15.044,15.049
201906080035,15.049,15.051,15.043,15.047
201906080036,15.047,15.057,15.047,15.056
201906080037,15.057,15.057,15.054,15.054
201906080038,15.054,15.057,15.051,15.051
201906080039,15.051,15.056,15.05,15.05
201906080040,15.05,15.05,15.045,15.047
201906080041,15.047,15.051,15.044,15.051
201906080042,15.051,15.051,15.044,15.045
201906080043,15.045,15.051,15.045,15.05
201906080044,15.05,15.054,15.049,15.052
201906080045,15.052,15.06,15.051,15.057
201906080046,15.057,15.06,15.056,15.056
201906080047,15.056,15.06,15.056,15.06
201906080048,15.06,15.06,15.042,15.044
201906080049,15.043,15.049,15.043,15.047
201906080050,15.047,15.047,15.042,15.045
201906080051,15.046,15.047,15.044,15.046
201906080052,15.046,15.048,15.045,15.046
201906080053,15.046,15.048,15.042,15.042
201906080054,15.042,15.042,15.034,15.037
201906080055,15.037,15.039,15.015,15.017
201906080056,15.017,15.021,15.015,15.016
201906080057,15.016,15.016,14.996,14.998
201906080058,14.999,15.011,14.999,15.01
201906080059,15.01,15.02,15.01,15.02
201906080100,15.02,15.02,15.014,15.016
201906080101,15.016,15.027,15.016,15.027
201906080102,15.027,15.029,15.025,15.029
201906080103,15.029,15.029,15.025,15.026
201906080104,15.025,15.035,15.025,15.035
201906080105,15.035,15.045,15.035,15.045
201906080106,15.045,15.052,15.045,15.05
201906080107,15.05,15.054,15.05,15.054
201906080108,15.054,15.055,15.051,15.054
201906080109,15.054,15.06,15.053,15.06
201906080110,15.06,15.062,15.058,15.06
201906080111,15.06,15.06,15.049,15.051
201906080112,15.051,15.054,15.05,15.054
201906080113,15.054,15.055,15.053,15.055
201906080114,15.055,15.056,15.054,15.055
201906080115,15.055,15.055,15.053,15.055
201906080116,15.055,15.06,15.055,15.059
201906080117,15.059,15.06,15.052,15.053
201906080118,15.053,15.055,15.053,15.055
201906080119,15.055,15.056,15.05,15.051
201906080120,15.051,15.052,15.05,15.051
201906080121,15.051,15.052,15.05,15.051
201906080122,15.051,15.052,15.05,15.05
201906080123,15.05,15.055,15.05,15.054
201906080124,15.054,15.055,15.05,15.05
201906080125,15.05,15.05,15.049,15.05
201906080126,15.05,15.055,15.05,15.055
201906080127,15.055,15.055,15.055,15.055
201906080128,15.055,15.058,15.055,15.056
201906080129,15.056,15.056,15.051,15.051
201906080130,15.051,15.051,15.05,15.051
201906080131,15.051,15.055,15.051,15.055
201906080132,15.055,15.055,15.05,15.051
201906080133,15.051,15.051,15.05,15.05
201906080134,15.05,15.052,15.05,15.052
201906080135,15.052,15.056,15.051,15.056
201906080136,15.055,15.056,15.051,15.051
201906080137,15.051,15.051,15.041,15.041
201906080138,15.041,15.046,15.04,15.044
201906080139,15.044,15.045,15.042,15.045
201906080140,15.045,15.046,15.044,15.045
201906080141,15.045,15.046,15.045,15.045
201906080142,15.045,15.048,15.045,15.046
201906080143,15.046,15.047,15.046,15.046
201906080144,15.046,15.051,15.046,15.05
201906080145,15.05,15.051,15.045,15.046
201906080146,15.046,15.048,15.045,15.046
201906080147,15.046,15.047,15.045,15.045
201906080148,15.045,15.05,15.045,15.05
201906080149,15.05,15.051,15.05,15.051
201906080150,15.051,15.052,15.05,15.051
201906080151,15.051,15.054,15.05,15.053
201906080152,15.053,15.054,15.05,15.05
201906080153,15.05,15.05,15.045,15.046
201906080154,15.046,15.046,15.045,15.046
201906080155,15.046,15.046,15.039,15.04
201906080156,15.04,15.04,15.035,15.035
201906080157,15.035,15.042,15.035,15.041
201906080158,15.041,15.046,15.04,15.046
201906080159,15.046,15.047,15.042,15.042
201906080200,15.042,15.048,15.042,15.046
201906080201,15.046,15.051,15.045,15.048
201906080202,15.048,15.053,15.047,15.053
201906080203,15.053,15.053,15.047,15.051
201906080204,15.052,15.053,15.049,15.052
201906080205,15.052,15.054,15.048,15.049
201906080206,15.049,15.052,15.048,15.05
201906080207,15.05,15.053,15.05,15.052
201906080208,15.052,15.052,15.042,15.043
201906080209,15.043,15.045,15.042,15.043
201906080210,15.043,15.044,15.039,15.042
201906080211,15.042,15.043,15.033,15.033
201906080212,15.033,15.045,15.032,15.044
201906080213,15.044,15.045,15.044,15.045
201906080214,15.045,15.045,15.039,15.042
201906080215,15.042,15.043,15.04,15.04
201906080216,15.04,15.044,15.04,15.042
201906080217,15.042,15.042,15.024,15.025
201906080218,15.025,15.03,15.023,15.029
201906080219,15.029,15.03,15.028,15.029
201906080220,15.029,15.031,15.026,15.028
201906080221,15.028,15.03,15.025,15.029
201906080222,15.029,15.03,15.024,15.024
201906080223,15.024,15.033,15.024,15.032
201906080224,15.032,15.035,15.029,15.032
201906080225,15.033,15.034,15.032,15.033
201906080226,15.033,15.035,15.032,15.033
201906080227,15.033,15.034,15.033,15.033
201906080228,15.033,15.033,15.028,15.029
201906080229,15.03,15.035,15.03,15.033
201906080230,15.032,15.032,15.028,15.028
201906080231,15.028,15.029,15.02,15.021
201906080232,15.021,15.021,15.017,15.019
201906080233,15.019,15.02,15.015,15.016
201906080234,15.016,15.019,15.016,15.016
201906080235,15.016,15.016,15.014,15.014
201906080236,15.014,15.015,15.01,15.011
201906080237,15.011,15.011,15.01,15.011
201906080238,15.011,15.017,15.01,15.016
201906080239,15.016,15.017,15.016,15.016
201906080240,15.016,15.016,15.014,15.015
201906080241,15.014,15.022,15.014,15.02
201906080242,15.02,15.021,15.016,15.016
201906080243,15.016,15.016,15.016,15.016
201906080244,15.017,15.017,15.016,15.016
201906080245,15.016,15.022,15.016,15.018
201906080246,15.017,15.021,15.016,15.021
201906080247,15.021,15.022,15.02,15.02
201906080248,15.02,15.022,15.016,15.016
201906080249,15.016,15.021,15.015,15.015
201906080250,15.015,15.016,15.012,15.012
201906080251,15.012,15.017,15.011,15.016
201906080252,15.016,15.017,15.015,15.015
201906080253,15.016,15.017,15.015,15.016
201906080254,15.016,15.018,15.015,15.017
201906080255,15.017,15.017,15.014,15.014
201906080256,15.014,15.022,15.014,15.021
201906080257,15.021,15.026,15.02,15.026
201906080258,15.026,15.026,15.021,15.021
201906080259,15.021,15.026,15.021,15.025
201906080300,15.025,15.026,15.024,15.025
201906080301,15.025,15.026,15.024,15.025
201906080302,15.025,15.026,15.024,15.025
201906080303,15.025,15.025,15.019,15.02
201906080304,15.02,15.021,15.015,15.019
201906080305,15.019,15.024,15.019,15.024
201906080306,15.024,15.025,15.02,15.02
201906080307,15.02,15.022,15.019,15.02
201906080308,15.021,15.022,15.018,15.02
201906080309,15.02,15.022,15.019,15.02
201906080310,15.02,15.022,15.02,15.022
201906080311,15.022,15.025,15.02,15.024
201906080312,15.024,15.025,15.023,15.024
201906080313,15.024,15.025,15.019,15.02
201906080314,15.02,15.022,15.019,15.02
201906080315,15.02,15.022,15.019,15.019
201906080316,15.02,15.025,15.02,15.025
201906080317,15.024,15.026,15.024,15.024
201906080318,15.024,15.025,15.02,15.02
201906080319,15.02,15.021,15.018,15.019
201906080320,15.019,15.02,15.015,15.015
201906080321,15.015,15.017,15.014,15.014
201906080322,15.014,15.015,15.009,15.011
201906080323,15.011,15.011,15.009,15.009
201906080324,15.009,15.015,15.009,15.014
201906080325,15.014,15.016,15.013,15.015
201906080326,15.015,15.016,15.008,15.008
201906080327,15.008,15.011,15.008,15.011
201906080328,15.011,15.011,15.008,15.009
201906080329,15.009,15.014,15.009,15.012
201906080330,15.011,15.011,15.009,15.01
201906080331,15.01,15.01,15.008,15.009
201906080332,15.009,15.011,15.008,15.01
201906080333,15.01,15.013,15.008,15.009
201906080334,15.009,15.01,14.998,14.998
201906080335,14.998,14.999,14.988,14.989
201906080336,14.989,14.99,14.988,14.989
201906080337,14.989,14.989,14.987,14.989
201906080338,14.989,14.989,14.985,14.986
201906080339,14.986,14.99,14.985,14.985
201906080340,14.985,14.986,14.985,14.985
201906080341,14.985,14.986,14.985,14.986
201906080342,14.986,14.99,14.985,14.99
201906080343,14.99,14.991,14.986,14.989
201906080344,14.989,14.99,14.988,14.989
201906080345,14.989,14.99,14.988,14.988
201906080346,14.989,14.989,14.985,14.988
201906080347,14.988,14.989,14.984,14.989
201906080348,14.989,14.99,14.988,14.989
201906080349,14.989,14.993,14.989,14.99
201906080350,14.99,14.99,14.987,14.989
201906080351,14.989,14.99,14.987,14.987
201906080352,14.987,14.987,14.984,14.985
201906080353,14.984,14.986,14.984,14.984
201906080354,14.984,14.989,14.984,14.988
201906080355,14.989,14.997,14.988,14.996
201906080356,14.995,15,14.995,14.996
201906080357,14.996,14.997,14.995,14.996
201906080358,14.996,15.001,14.996,14.999
201906080359,14.999,15,14.997,14.999
201906080400,14.999,15.005,14.998,15.004
201906080401,15.004,15.004,15.004,15.004
201906080402,15.005,15.005,15.003,15.005
201906080403,15.005,15.005,15.004,15.005
201906080404,15.005,15.008,15.005,15.007
201906080405,15.007,15.007,15.006,15.006
201906080406,15.006,15.007,15.006,15.006
201906080407,15.007,15.007,15.005,15.005
201906080408,15.005,15.007,15.005,15.006
201906080409,15.006,15.007,15.006,15.007
201906080410,15.007,15.007,15.006,15.007
201906080411,15.007,15.007,15.007,15.007
201906080412,15.007,15.011,15.007,15.011
201906080413,15.011,15.012,15.009,15.011
201906080414,15.011,15.011,15.007,15.008
201906080415,15.007,15.008,15.005,15.007
201906080416,15.007,15.014,15.006,15.011
201906080417,15.012,15.013,15.011,15.012
201906080418,15.012,15.012,15.009,15.011
201906080419,15.011,15.012,15.011,15.011
201906080420,15.011,15.015,15.01,15.011
201906080421,15.011,15.012,15.01,15.012
201906080422,15.012,15.012,15.01,15.011
201906080423,15.011,15.016,15.011,15.014
201906080424,15.013,15.013,15.012,15.012
201906080425,15.012,15.012,15.012,15.012
201906080426,15.012,15.012,15.011,15.012
201906080427,15.012,15.013,15.011,15.012
201906080428,15.012,15.014,15.012,15.013
201906080429,15.013,15.013,15.012,15.013
201906080430,15.012,15.013,15.012,15.013
201906080431,15.013,15.014,15.012,15.012
201906080432,15.011,15.013,15.011,15.013
201906080433,15.013,15.013,15.012,15.013
201906080434,15.013,15.014,15.011,15.013
201906080435,15.013,15.013,15.013,15.013
201906080436,15.013,15.013,15.011,15.013
201906080437,15.013,15.013,15.011,15.012
201906080438,15.012,15.013,15.011,15.013
201906080439,15.012,15.016,15.012,15.016
201906080440,15.016,15.021,15.015,15.02
201906080441,15.02,15.022,15.02,15.022
201906080442,15.022,15.022,15.017,15.018
201906080443,15.019,15.019,15.017,15.017
201906080444,15.017,15.019,15.017,15.017
201906080445,15.017,15.019,15.017,15.017
201906080446,15.017,15.018,15.017,15.017
201906080447,15.017,15.017,15.016,15.017
201906080448,15.017,15.017,15.016,15.017
201906080449,15.017,15.017,15.016,15.016
201906080450,15.016,15.017,15.016,15.016
201906080451,15.016,15.017,15.016,15.017
201906080452,15.017,15.017,15.016,15.017
201906080453,15.017,15.017,15.011,15.012
201906080454,15.013,15.013,15.011,15.011
201906080455,15.011,15.013,15.01,15.011
201906080456,15.011,15.012,15.011,15.012
201906080457,15.012,15.012,15.011,15.011
201906080458,15.012,15.013,15.011,15.011
201906080459,15.011,15.017,15.011,15.013
201906080500,15.013,15.013,15.011,15.012
201906080501,15.012,15.013,15.012,15.012
201906080502,15.012,15.012,15.01,15.011
201906080503,15.011,15.011,15.011,15.011
201906080504,15.011,15.012,15.011,15.012
201906080505,15.012,15.012,15.01,15.01
201906080506,15.009,15.01,15.009,15.01
201906080507,15.01,15.01,15.01,15.01
201906080508,15.01,15.012,15.01,15.012
201906080509,15.012,15.012,15.011,15.012
201906080510,15.011,15.012,15.01,15.011
201906080511,15.011,15.015,15.01,15.015
201906080512,15.015,15.015,15.012,15.012
201906080513,15.011,15.011,15.011,15.011
201906080514,15.011,15.011,15.011,15.011
201906080515,15.011,15.011,15.01,15.01
201906080516,15.01,15.011,15.009,15.01
201906080517,15.01,15.011,15.01,15.011
201906080518,15.011,15.013,15.011,15.011
201906080519,15.011,15.011,15.011,15.011
201906080520,15.011,15.011,15.011,15.011
201906080521,15.011,15.011,15.011,15.011
201906080522,15.011,15.011,15.011,15.011
201906080523,15.011,15.012,15.011,15.012
201906080524,15.012,15.012,15.012,15.012
201906080525,15.012,15.015,15.012,15.014
201906080526,15.014,15.019,15.014,15.019
201906080527,15.019,15.019,15.016,15.017
201906080528,15.017,15.017,15.015,15.015
201906080529,15.015,15.017,15.015,15.017
201906080530,15.016,15.018,15.015,15.017
201906080531,15.017,15.018,15.017,15.017
201906080532,15.017,15.018,15.017,15.017
201906080533,15.017,15.018,15.017,15.018
201906080534,15.018,15.018,15.017,15.017
201906080535,15.017,15.018,15.017,15.018
201906080536,15.018,15.018,15.017,15.017
201906080537,15.017,15.018,15.017,15.017
201906080538,15.017,15.017,15.017,15.017
201906080539,15.017,15.018,15.013,15.015
201906080540,15.015,15.015,15.015,15.015
201906080541,15.015,15.015,15.015,15.015
201906080542,15.015,15.015,15.014,15.015
201906080543,15.015,15.015,15.015,15.015
201906080544,15.015,15.015,15.014,15.015
201906080545,15.015,15.016,15.014,15.015
201906080546,15.015,15.015,15.014,15.015
201906080547,15.015,15.015,15.014,15.015
201906080548,15.015,15.015,15.01,15.01
201906080549,15.01,15.01,15.006,15.006
201906080550,15.006,15.007,15.005,15.007
201906080551,15.007,15.008,15.005,15.006
201906080552,15.006,15.009,15.005,15.009
201906080553,15.009,15.012,15.007,15.012
201906080554,15.012,15.013,15.006,15.006
201906080555,15.006,15.006,15.002,15.003
201906080556,15.003,15.004,15.003,15.004
201906080557,15.004,15.009,15.002,15.009
201906080558,15.004,15.004,15.001,15.002
201906080559,15.002,15.006,14.989,14.989
