日時,始値(BID),高値(BID),安値(BID),終値(BID)
201906240700,15.338,15.363,15.336,15.356
201906240701,15.354,15.357,15.342,15.347
201906240702,15.347,15.35,15.343,15.349
201906240703,15.35,15.35,15.345,15.35
201906240704,15.35,15.35,15.349,15.349
201906240705,15.349,15.355,15.349,15.355
201906240706,15.355,15.365,15.354,15.365
201906240707,15.365,15.37,15.364,15.37
201906240708,15.37,15.375,15.369,15.375
201906240709,15.375,15.375,15.37,15.37
201906240710,15.37,15.372,15.368,15.369
201906240711,15.369,15.374,15.369,15.373
201906240712,15.373,15.374,15.371,15.373
201906240713,15.373,15.375,15.372,15.375
201906240714,15.375,15.379,15.375,15.378
201906240715,15.378,15.38,15.376,15.38
201906240716,15.38,15.383,15.377,15.377
201906240717,15.377,15.38,15.376,15.38
201906240718,15.38,15.384,15.38,15.383
201906240719,15.383,15.384,15.381,15.382
201906240720,15.382,15.383,15.382,15.382
201906240721,15.382,15.382,15.38,15.381
201906240722,15.381,15.385,15.381,15.382
201906240723,15.384,15.386,15.383,15.385
201906240724,15.385,15.385,15.384,15.384
201906240725,15.385,15.385,15.384,15.384
201906240726,15.384,15.384,15.382,15.382
201906240727,15.382,15.382,15.381,15.381
201906240728,15.381,15.381,15.381,15.381
201906240729,15.381,15.383,15.381,15.383
201906240730,15.383,15.384,15.382,15.383
201906240731,15.383,15.385,15.383,15.384
201906240732,15.384,15.388,15.384,15.387
201906240733,15.386,15.394,15.384,15.394
201906240734,15.394,15.406,15.394,15.405
201906240735,15.405,15.428,15.404,15.426
201906240736,15.427,15.427,15.415,15.415
201906240737,15.413,15.413,15.404,15.404
201906240738,15.404,15.419,15.404,15.416
201906240739,15.416,15.416,15.4,15.4
201906240740,15.4,15.4,15.378,15.378
201906240741,15.378,15.378,15.378,15.378
201906240742,15.378,15.378,15.364,15.365
201906240743,15.366,15.377,15.365,15.374
201906240744,15.374,15.38,15.374,15.38
201906240745,15.38,15.384,15.375,15.384
201906240746,15.384,15.385,15.384,15.384
201906240747,15.384,15.398,15.384,15.397
201906240748,15.397,15.407,15.394,15.407
201906240749,15.407,15.407,15.394,15.396
201906240750,15.396,15.396,15.386,15.386
201906240751,15.386,15.396,15.386,15.395
201906240752,15.395,15.399,15.394,15.398
201906240753,15.398,15.402,15.397,15.402
201906240754,15.402,15.41,15.4,15.41
201906240755,15.41,15.41,15.397,15.397
201906240756,15.397,15.397,15.384,15.384
201906240757,15.384,15.393,15.384,15.392
201906240758,15.393,15.393,15.384,15.386
201906240759,15.385,15.391,15.385,15.39
201906240800,15.39,15.391,15.381,15.381
201906240801,15.381,15.381,15.375,15.378
201906240802,15.378,15.383,15.378,15.383
201906240803,15.385,15.385,15.382,15.383
201906240804,15.383,15.383,15.378,15.378
201906240805,15.378,15.378,15.365,15.365
201906240806,15.365,15.366,15.363,15.364
201906240807,15.364,15.368,15.363,15.367
201906240808,15.367,15.368,15.363,15.363
201906240809,15.363,15.363,15.347,15.353
201906240810,15.353,15.363,15.353,15.361
201906240811,15.361,15.364,15.358,15.362
201906240812,15.362,15.367,15.361,15.367
201906240813,15.368,15.368,15.366,15.366
201906240814,15.366,15.366,15.364,15.364
201906240815,15.364,15.367,15.36,15.365
201906240816,15.365,15.377,15.365,15.37
201906240817,15.37,15.371,15.367,15.37
201906240818,15.37,15.375,15.37,15.375
201906240819,15.375,15.375,15.367,15.37
201906240820,15.37,15.371,15.369,15.371
201906240821,15.372,15.372,15.368,15.37
201906240822,15.37,15.375,15.37,15.375
201906240823,15.375,15.379,15.374,15.379
201906240824,15.379,15.379,15.375,15.375
201906240825,15.375,15.376,15.368,15.368
201906240826,15.368,15.371,15.367,15.37
201906240827,15.37,15.37,15.366,15.366
201906240828,15.367,15.375,15.366,15.375
201906240829,15.375,15.376,15.372,15.373
201906240830,15.373,15.373,15.37,15.372
201906240831,15.372,15.372,15.368,15.37
201906240832,15.37,15.375,15.368,15.375
201906240833,15.375,15.379,15.374,15.375
201906240834,15.377,15.38,15.377,15.379
201906240835,15.379,15.379,15.378,15.378
201906240836,15.378,15.393,15.378,15.392
201906240837,15.392,15.393,15.383,15.383
201906240838,15.383,15.385,15.382,15.384
201906240839,15.383,15.39,15.383,15.389
201906240840,15.388,15.393,15.387,15.393
201906240841,15.394,15.394,15.387,15.387
201906240842,15.387,15.389,15.382,15.383
201906240843,15.383,15.384,15.378,15.383
201906240844,15.383,15.383,15.382,15.383
201906240845,15.383,15.388,15.383,15.388
201906240846,15.388,15.388,15.382,15.383
201906240847,15.384,15.386,15.382,15.385
201906240848,15.385,15.392,15.379,15.39
201906240849,15.39,15.394,15.39,15.394
201906240850,15.394,15.395,15.389,15.392
201906240851,15.392,15.394,15.389,15.392
201906240852,15.392,15.397,15.392,15.396
201906240853,15.395,15.4,15.39,15.4
201906240854,15.4,15.401,15.394,15.398
201906240855,15.398,15.4,15.394,15.4
201906240856,15.4,15.41,15.4,15.41
201906240857,15.41,15.41,15.398,15.401
201906240858,15.4,15.405,15.4,15.405
201906240859,15.405,15.41,15.403,15.406
201906240900,15.406,15.409,15.403,15.403
201906240901,15.403,15.406,15.403,15.405
201906240902,15.405,15.405,15.398,15.403
201906240903,15.403,15.403,15.394,15.397
201906240904,15.397,15.401,15.393,15.401
201906240905,15.401,15.402,15.398,15.402
201906240906,15.402,15.411,15.402,15.407
201906240907,15.407,15.417,15.407,15.416
201906240908,15.416,15.421,15.415,15.421
201906240909,15.421,15.422,15.415,15.417
201906240910,15.417,15.421,15.412,15.42
201906240911,15.42,15.432,15.416,15.427
201906240912,15.426,15.433,15.421,15.432
201906240913,15.431,15.431,15.422,15.426
201906240914,15.426,15.431,15.421,15.427
201906240915,15.427,15.433,15.422,15.422
201906240916,15.422,15.425,15.42,15.421
201906240917,15.421,15.421,15.417,15.421
201906240918,15.42,15.426,15.42,15.422
201906240919,15.422,15.425,15.419,15.42
201906240920,15.42,15.421,15.414,15.415
201906240921,15.415,15.417,15.415,15.416
201906240922,15.416,15.416,15.41,15.415
201906240923,15.415,15.415,15.41,15.41
201906240924,15.41,15.411,15.402,15.41
201906240925,15.41,15.411,15.407,15.407
201906240926,15.407,15.416,15.406,15.412
201906240927,15.412,15.416,15.41,15.411
201906240928,15.411,15.411,15.402,15.402
201906240929,15.402,15.402,15.399,15.4
201906240930,15.4,15.405,15.397,15.397
201906240931,15.397,15.399,15.387,15.39
201906240932,15.39,15.395,15.388,15.391
201906240933,15.391,15.392,15.386,15.39
201906240934,15.39,15.391,15.39,15.391
201906240935,15.391,15.393,15.391,15.392
201906240936,15.392,15.394,15.381,15.39
201906240937,15.39,15.392,15.387,15.392
201906240938,15.391,15.391,15.386,15.386
201906240939,15.386,15.387,15.386,15.387
201906240940,15.387,15.391,15.387,15.387
201906240941,15.387,15.39,15.382,15.387
201906240942,15.387,15.391,15.387,15.387
201906240943,15.387,15.387,15.382,15.382
201906240944,15.382,15.386,15.377,15.381
201906240945,15.381,15.383,15.381,15.383
201906240946,15.383,15.384,15.376,15.376
201906240947,15.376,15.382,15.375,15.381
201906240948,15.378,15.381,15.374,15.375
201906240949,15.375,15.38,15.372,15.378
201906240950,15.378,15.381,15.377,15.381
201906240951,15.381,15.381,15.377,15.377
201906240952,15.377,15.381,15.377,15.381
201906240953,15.381,15.391,15.381,15.39
201906240954,15.391,15.391,15.38,15.385
201906240955,15.385,15.386,15.384,15.385
201906240956,15.385,15.386,15.38,15.381
201906240957,15.381,15.384,15.376,15.376
201906240958,15.376,15.376,15.37,15.371
201906240959,15.371,15.373,15.367,15.373
201906241000,15.373,15.374,15.344,15.36
201906241001,15.361,15.378,15.359,15.377
201906241002,15.376,15.39,15.364,15.389
201906241003,15.389,15.42,15.379,15.42
201906241004,15.42,15.437,15.401,15.407
201906241005,15.407,15.425,15.401,15.417
201906241006,15.417,15.417,15.391,15.397
201906241007,15.399,15.403,15.392,15.398
201906241008,15.398,15.4,15.392,15.392
201906241009,15.392,15.393,15.386,15.387
201906241010,15.387,15.387,15.374,15.378
201906241011,15.378,15.386,15.374,15.384
201906241012,15.385,15.399,15.384,15.39
201906241013,15.39,15.39,15.381,15.384
201906241014,15.384,15.39,15.384,15.388
201906241015,15.388,15.39,15.382,15.383
201906241016,15.384,15.386,15.375,15.377
201906241017,15.377,15.387,15.377,15.383
201906241018,15.383,15.389,15.379,15.381
201906241019,15.381,15.382,15.372,15.377
201906241020,15.377,15.383,15.375,15.376
201906241021,15.376,15.385,15.376,15.383
201906241022,15.383,15.402,15.383,15.402
201906241023,15.402,15.403,15.394,15.399
201906241024,15.399,15.401,15.397,15.4
201906241025,15.4,15.4,15.391,15.392
201906241026,15.392,15.392,15.389,15.389
201906241027,15.389,15.396,15.385,15.396
201906241028,15.396,15.396,15.39,15.393
201906241029,15.393,15.394,15.384,15.384
201906241030,15.384,15.399,15.384,15.389
201906241031,15.389,15.393,15.385,15.385
201906241032,15.385,15.386,15.38,15.38
201906241033,15.378,15.378,15.372,15.377
201906241034,15.377,15.384,15.377,15.381
201906241035,15.381,15.383,15.379,15.383
201906241036,15.383,15.388,15.381,15.387
201906241037,15.387,15.396,15.383,15.396
201906241038,15.394,15.396,15.391,15.395
201906241039,15.394,15.403,15.39,15.403
201906241040,15.403,15.403,15.392,15.392
201906241041,15.392,15.396,15.387,15.396
201906241042,15.396,15.399,15.392,15.398
201906241043,15.398,15.4,15.398,15.399
201906241044,15.399,15.404,15.398,15.4
201906241045,15.4,15.405,15.4,15.404
201906241046,15.404,15.406,15.402,15.403
201906241047,15.403,15.41,15.403,15.409
201906241048,15.408,15.411,15.408,15.409
201906241049,15.409,15.412,15.407,15.411
201906241050,15.411,15.411,15.4,15.403
201906241051,15.403,15.404,15.393,15.394
201906241052,15.394,15.397,15.388,15.389
201906241053,15.389,15.396,15.388,15.39
201906241054,15.39,15.395,15.39,15.39
201906241055,15.39,15.394,15.388,15.388
201906241056,15.388,15.389,15.384,15.384
201906241057,15.384,15.39,15.378,15.387
201906241058,15.387,15.391,15.387,15.391
201906241059,15.391,15.391,15.39,15.39
201906241100,15.39,15.39,15.384,15.385
201906241101,15.385,15.385,15.385,15.385
201906241102,15.385,15.39,15.385,15.39
201906241103,15.39,15.39,15.385,15.385
201906241104,15.385,15.385,15.385,15.385
201906241105,15.385,15.385,15.38,15.382
201906241106,15.382,15.386,15.381,15.386
201906241107,15.386,15.387,15.385,15.386
201906241108,15.386,15.391,15.385,15.385
201906241109,15.386,15.386,15.379,15.383
201906241110,15.383,15.385,15.381,15.384
201906241111,15.385,15.385,15.381,15.382
201906241112,15.382,15.386,15.382,15.386
201906241113,15.385,15.385,15.375,15.376
201906241114,15.376,15.376,15.371,15.375
201906241115,15.375,15.378,15.375,15.376
201906241116,15.376,15.378,15.375,15.376
201906241117,15.376,15.378,15.37,15.372
201906241118,15.372,15.372,15.369,15.37
201906241119,15.37,15.371,15.366,15.37
201906241120,15.37,15.37,15.366,15.366
201906241121,15.366,15.372,15.366,15.372
201906241122,15.37,15.375,15.37,15.374
201906241123,15.374,15.376,15.374,15.376
201906241124,15.376,15.376,15.375,15.376
201906241125,15.376,15.377,15.375,15.376
201906241126,15.376,15.381,15.376,15.381
201906241127,15.381,15.381,15.376,15.38
201906241128,15.38,15.382,15.38,15.381
201906241129,15.381,15.385,15.38,15.385
201906241130,15.385,15.385,15.372,15.372
201906241131,15.371,15.376,15.371,15.375
201906241132,15.375,15.376,15.372,15.376
201906241133,15.376,15.376,15.371,15.374
201906241134,15.373,15.374,15.367,15.369
201906241135,15.369,15.371,15.366,15.369
201906241136,15.369,15.369,15.356,15.36
201906241137,15.36,15.365,15.359,15.365
201906241138,15.365,15.365,15.363,15.365
201906241139,15.365,15.365,15.361,15.365
201906241140,15.365,15.366,15.362,15.365
201906241141,15.365,15.365,15.364,15.364
201906241142,15.364,15.364,15.36,15.36
201906241143,15.36,15.362,15.356,15.356
201906241144,15.356,15.362,15.356,15.361
201906241145,15.361,15.362,15.355,15.36
201906241146,15.36,15.36,15.354,15.359
201906241147,15.359,15.365,15.357,15.365
201906241148,15.364,15.366,15.364,15.366
201906241149,15.366,15.371,15.365,15.371
201906241150,15.371,15.371,15.365,15.37
201906241151,15.37,15.372,15.367,15.371
201906241152,15.371,15.376,15.371,15.375
201906241153,15.375,15.384,15.374,15.381
201906241154,15.38,15.386,15.38,15.385
201906241155,15.385,15.385,15.38,15.38
201906241156,15.38,15.382,15.38,15.38
201906241157,15.38,15.381,15.379,15.381
201906241158,15.381,15.384,15.38,15.384
201906241159,15.384,15.39,15.384,15.389
201906241200,15.389,15.39,15.385,15.389
201906241201,15.389,15.392,15.388,15.39
201906241202,15.39,15.391,15.39,15.391
201906241203,15.391,15.396,15.39,15.393
201906241204,15.393,15.395,15.385,15.385
201906241205,15.385,15.385,15.384,15.384
201906241206,15.384,15.384,15.379,15.38
201906241207,15.381,15.385,15.381,15.381
201906241208,15.381,15.381,15.378,15.38
201906241209,15.38,15.38,15.379,15.38
201906241210,15.38,15.38,15.379,15.379
201906241211,15.379,15.379,15.378,15.378
201906241212,15.378,15.38,15.378,15.379
201906241213,15.379,15.379,15.374,15.375
201906241214,15.374,15.378,15.374,15.374
201906241215,15.374,15.374,15.373,15.374
201906241216,15.374,15.375,15.374,15.374
201906241217,15.374,15.38,15.374,15.38
201906241218,15.38,15.38,15.379,15.38
201906241219,15.38,15.38,15.379,15.38
201906241220,15.381,15.381,15.38,15.38
201906241221,15.38,15.38,15.38,15.38
201906241222,15.38,15.38,15.375,15.379
201906241223,15.379,15.379,15.374,15.374
201906241224,15.374,15.375,15.374,15.375
201906241225,15.375,15.379,15.375,15.376
201906241226,15.376,15.376,15.371,15.371
201906241227,15.371,15.375,15.36,15.361
201906241228,15.361,15.361,15.355,15.356
201906241229,15.356,15.357,15.353,15.353
201906241230,15.353,15.356,15.353,15.356
201906241231,15.356,15.357,15.353,15.356
201906241232,15.356,15.356,15.337,15.342
201906241233,15.342,15.343,15.337,15.337
201906241234,15.337,15.338,15.333,15.337
201906241235,15.337,15.337,15.32,15.322
201906241236,15.322,15.329,15.322,15.328
201906241237,15.328,15.334,15.327,15.332
201906241238,15.332,15.333,15.331,15.333
201906241239,15.333,15.334,15.333,15.334
201906241240,15.334,15.338,15.333,15.336
201906241241,15.336,15.343,15.336,15.342
201906241242,15.342,15.346,15.338,15.346
201906241243,15.346,15.347,15.343,15.347
201906241244,15.347,15.348,15.347,15.347
201906241245,15.347,15.347,15.342,15.342
201906241246,15.342,15.342,15.338,15.342
201906241247,15.342,15.342,15.34,15.342
201906241248,15.342,15.342,15.341,15.342
201906241249,15.342,15.342,15.338,15.338
201906241250,15.338,15.338,15.333,15.333
201906241251,15.333,15.337,15.333,15.337
201906241252,15.337,15.342,15.336,15.342
201906241253,15.342,15.342,15.337,15.341
201906241254,15.342,15.342,15.338,15.338
201906241255,15.338,15.341,15.338,15.338
201906241256,15.338,15.342,15.338,15.338
201906241257,15.338,15.342,15.337,15.337
201906241258,15.337,15.337,15.333,15.333
201906241259,15.333,15.335,15.331,15.332
201906241300,15.332,15.333,15.331,15.332
201906241301,15.332,15.332,15.327,15.327
201906241302,15.327,15.333,15.327,15.329
201906241303,15.329,15.329,15.324,15.324
201906241304,15.324,15.324,15.322,15.323
201906241305,15.323,15.329,15.322,15.328
201906241306,15.328,15.328,15.325,15.327
201906241307,15.327,15.329,15.327,15.328
201906241308,15.328,15.328,15.324,15.325
201906241309,15.325,15.327,15.324,15.325
201906241310,15.325,15.333,15.315,15.332
201906241311,15.332,15.333,15.323,15.324
201906241312,15.324,15.328,15.324,15.327
201906241313,15.327,15.329,15.327,15.329
201906241314,15.329,15.329,15.324,15.324
201906241315,15.324,15.329,15.324,15.329
201906241316,15.329,15.329,15.325,15.327
201906241317,15.327,15.331,15.325,15.328
201906241318,15.328,15.328,15.328,15.328
201906241319,15.328,15.332,15.328,15.332
201906241320,15.332,15.332,15.328,15.329
201906241321,15.329,15.333,15.328,15.333
201906241322,15.333,15.333,15.332,15.333
201906241323,15.333,15.333,15.328,15.328
201906241324,15.328,15.335,15.328,15.328
201906241325,15.328,15.332,15.325,15.332
201906241326,15.332,15.332,15.325,15.327
201906241327,15.327,15.327,15.324,15.327
201906241328,15.327,15.329,15.327,15.327
201906241329,15.327,15.329,15.327,15.329
201906241330,15.329,15.333,15.328,15.332
201906241331,15.332,15.334,15.332,15.333
201906241332,15.333,15.334,15.333,15.333
201906241333,15.333,15.333,15.332,15.332
201906241334,15.332,15.332,15.326,15.327
201906241335,15.327,15.328,15.325,15.327
201906241336,15.327,15.329,15.327,15.327
201906241337,15.327,15.328,15.327,15.328
201906241338,15.328,15.329,15.324,15.324
201906241339,15.324,15.329,15.324,15.329
201906241340,15.329,15.333,15.329,15.332
201906241341,15.332,15.332,15.329,15.329
201906241342,15.329,15.329,15.329,15.329
201906241343,15.329,15.329,15.329,15.329
201906241344,15.329,15.332,15.329,15.332
201906241345,15.332,15.334,15.332,15.334
201906241346,15.334,15.334,15.332,15.332
201906241347,15.332,15.334,15.332,15.332
201906241348,15.332,15.332,15.327,15.327
201906241349,15.327,15.329,15.327,15.329
201906241350,15.329,15.332,15.328,15.332
201906241351,15.331,15.332,15.331,15.332
201906241352,15.332,15.332,15.331,15.331
201906241353,15.331,15.333,15.331,15.331
201906241354,15.331,15.331,15.327,15.327
201906241355,15.327,15.327,15.324,15.324
201906241356,15.324,15.326,15.323,15.323
201906241357,15.323,15.326,15.322,15.326
201906241358,15.326,15.327,15.323,15.324
201906241359,15.324,15.327,15.324,15.326
201906241400,15.326,15.326,15.324,15.325
201906241401,15.325,15.326,15.322,15.322
201906241402,15.322,15.327,15.322,15.326
201906241403,15.326,15.328,15.326,15.327
201906241404,15.325,15.328,15.325,15.326
201906241405,15.327,15.327,15.324,15.326
201906241406,15.326,15.327,15.322,15.327
201906241407,15.327,15.328,15.326,15.328
201906241408,15.328,15.329,15.328,15.328
201906241409,15.328,15.329,15.328,15.329
201906241410,15.329,15.329,15.328,15.328
201906241411,15.328,15.328,15.328,15.328
201906241412,15.328,15.329,15.328,15.328
201906241413,15.328,15.328,15.327,15.327
201906241414,15.325,15.328,15.325,15.326
201906241415,15.326,15.326,15.32,15.321
201906241416,15.321,15.322,15.319,15.319
201906241417,15.319,15.323,15.319,15.323
201906241418,15.323,15.323,15.323,15.323
201906241419,15.322,15.324,15.322,15.323
201906241420,15.323,15.324,15.323,15.324
201906241421,15.324,15.328,15.324,15.328
201906241422,15.328,15.329,15.327,15.328
201906241423,15.328,15.329,15.328,15.329
201906241424,15.329,15.329,15.328,15.328
201906241425,15.328,15.332,15.328,15.332
201906241426,15.332,15.335,15.332,15.335
201906241427,15.334,15.338,15.334,15.337
201906241428,15.337,15.339,15.336,15.339
201906241429,15.339,15.343,15.333,15.333
201906241430,15.333,15.338,15.333,15.338
201906241431,15.338,15.343,15.333,15.343
201906241432,15.344,15.344,15.339,15.342
201906241433,15.342,15.344,15.342,15.343
201906241434,15.343,15.352,15.343,15.352
201906241435,15.353,15.354,15.348,15.348
201906241436,15.348,15.348,15.343,15.343
201906241437,15.343,15.352,15.343,15.351
201906241438,15.351,15.351,15.346,15.347
201906241439,15.347,15.35,15.346,15.349
201906241440,15.348,15.349,15.343,15.343
201906241441,15.344,15.347,15.343,15.347
201906241442,15.347,15.348,15.345,15.347
201906241443,15.347,15.348,15.343,15.343
201906241444,15.343,15.346,15.343,15.343
201906241445,15.343,15.347,15.343,15.343
201906241446,15.343,15.344,15.343,15.344
201906241447,15.344,15.352,15.343,15.352
201906241448,15.353,15.356,15.351,15.353
201906241449,15.353,15.358,15.352,15.358
201906241450,15.358,15.363,15.356,15.363
201906241451,15.363,15.364,15.358,15.361
201906241452,15.361,15.361,15.358,15.361
201906241453,15.361,15.363,15.361,15.363
201906241454,15.363,15.367,15.361,15.363
201906241455,15.363,15.367,15.363,15.364
201906241456,15.364,15.366,15.363,15.364
201906241457,15.364,15.366,15.359,15.361
201906241458,15.361,15.361,15.353,15.354
201906241459,15.354,15.354,15.342,15.344
201906241500,15.343,15.36,15.343,15.357
201906241501,15.357,15.357,15.352,15.353
201906241502,15.353,15.358,15.353,15.357
201906241503,15.357,15.36,15.353,15.359
201906241504,15.359,15.369,15.359,15.369
201906241505,15.368,15.382,15.368,15.379
201906241506,15.379,15.382,15.378,15.379
201906241507,15.378,15.379,15.376,15.377
201906241508,15.377,15.385,15.375,15.384
201906241509,15.384,15.386,15.379,15.384
201906241510,15.384,15.385,15.379,15.381
201906241511,15.38,15.387,15.379,15.384
201906241512,15.384,15.394,15.384,15.388
201906241513,15.388,15.393,15.388,15.39
201906241514,15.392,15.398,15.392,15.395
201906241515,15.395,15.399,15.393,15.394
201906241516,15.394,15.398,15.394,15.394
201906241517,15.394,15.398,15.393,15.394
201906241518,15.394,15.395,15.394,15.394
201906241519,15.394,15.394,15.388,15.389
201906241520,15.388,15.39,15.384,15.384
201906241521,15.384,15.385,15.378,15.383
201906241522,15.383,15.388,15.379,15.388
201906241523,15.388,15.388,15.382,15.382
201906241524,15.382,15.382,15.374,15.377
201906241525,15.377,15.38,15.377,15.379
201906241526,15.379,15.379,15.372,15.373
201906241527,15.373,15.373,15.369,15.369
201906241528,15.369,15.373,15.369,15.37
201906241529,15.37,15.374,15.37,15.374
201906241530,15.374,15.374,15.366,15.37
201906241531,15.369,15.371,15.365,15.367
201906241532,15.367,15.375,15.367,15.373
201906241533,15.373,15.373,15.368,15.368
201906241534,15.368,15.373,15.367,15.373
201906241535,15.373,15.375,15.373,15.375
201906241536,15.375,15.377,15.373,15.374
201906241537,15.374,15.376,15.374,15.374
201906241538,15.374,15.374,15.364,15.364
201906241539,15.364,15.364,15.358,15.361
201906241540,15.361,15.363,15.359,15.359
201906241541,15.359,15.359,15.353,15.354
201906241542,15.354,15.357,15.349,15.356
201906241543,15.356,15.356,15.352,15.354
201906241544,15.354,15.354,15.343,15.344
201906241545,15.344,15.347,15.343,15.344
201906241546,15.343,15.345,15.338,15.339
201906241547,15.339,15.344,15.338,15.339
201906241548,15.339,15.348,15.338,15.348
201906241549,15.348,15.348,15.347,15.347
201906241550,15.347,15.352,15.347,15.348
201906241551,15.348,15.35,15.344,15.35
201906241552,15.349,15.352,15.349,15.349
201906241553,15.349,15.349,15.349,15.349
201906241554,15.349,15.358,15.349,15.354
201906241555,15.354,15.355,15.35,15.353
201906241556,15.353,15.353,15.34,15.34
201906241557,15.34,15.34,15.332,15.332
201906241558,15.332,15.342,15.327,15.339
201906241559,15.339,15.343,15.339,15.342
201906241600,15.342,15.354,15.342,15.352
201906241601,15.352,15.367,15.352,15.367
201906241602,15.367,15.367,15.363,15.367
201906241603,15.367,15.367,15.363,15.363
201906241604,15.363,15.367,15.359,15.364
201906241605,15.364,15.366,15.358,15.358
201906241606,15.358,15.359,15.353,15.353
201906241607,15.353,15.353,15.346,15.346
201906241608,15.346,15.349,15.337,15.338
201906241609,15.338,15.341,15.328,15.332
201906241610,15.333,15.339,15.332,15.339
201906241611,15.339,15.339,15.33,15.333
201906241612,15.333,15.339,15.333,15.339
201906241613,15.338,15.339,15.327,15.333
201906241614,15.333,15.339,15.333,15.339
201906241615,15.339,15.357,15.336,15.356
201906241616,15.356,15.358,15.351,15.351
201906241617,15.351,15.354,15.35,15.351
201906241618,15.351,15.355,15.348,15.351
201906241619,15.351,15.351,15.346,15.351
201906241620,15.351,15.354,15.348,15.349
201906241621,15.348,15.351,15.345,15.35
201906241622,15.35,15.35,15.342,15.345
201906241623,15.345,15.346,15.343,15.345
201906241624,15.346,15.348,15.345,15.345
201906241625,15.345,15.345,15.334,15.338
201906241626,15.338,15.34,15.337,15.34
201906241627,15.34,15.345,15.339,15.345
201906241628,15.345,15.347,15.343,15.344
201906241629,15.344,15.346,15.339,15.344
201906241630,15.345,15.345,15.345,15.345
201906241631,15.345,15.347,15.345,15.345
201906241632,15.345,15.345,15.336,15.34
201906241633,15.34,15.341,15.336,15.34
201906241634,15.34,15.341,15.337,15.339
201906241635,15.339,15.346,15.339,15.346
201906241636,15.346,15.347,15.341,15.345
201906241637,15.345,15.352,15.345,15.349
201906241638,15.349,15.351,15.346,15.351
201906241639,15.351,15.355,15.351,15.354
201906241640,15.354,15.355,15.352,15.355
201906241641,15.355,15.355,15.35,15.351
201906241642,15.351,15.354,15.35,15.354
201906241643,15.354,15.355,15.35,15.35
201906241644,15.35,15.355,15.349,15.353
201906241645,15.353,15.359,15.351,15.355
201906241646,15.354,15.354,15.345,15.349
201906241647,15.349,15.349,15.344,15.344
201906241648,15.344,15.345,15.34,15.34
201906241649,15.34,15.345,15.336,15.345
201906241650,15.345,15.345,15.344,15.344
201906241651,15.345,15.352,15.341,15.341
201906241652,15.341,15.345,15.34,15.344
201906241653,15.343,15.345,15.341,15.345
201906241654,15.345,15.345,15.336,15.336
201906241655,15.336,15.336,15.33,15.335
201906241656,15.335,15.335,15.33,15.334
201906241657,15.334,15.339,15.334,15.334
201906241658,15.334,15.335,15.331,15.335
201906241659,15.335,15.335,15.328,15.331
201906241700,15.331,15.339,15.329,15.338
201906241701,15.338,15.339,15.333,15.335
201906241702,15.335,15.341,15.331,15.339
201906241703,15.339,15.339,15.333,15.338
201906241704,15.338,15.34,15.334,15.336
201906241705,15.336,15.34,15.334,15.334
201906241706,15.334,15.336,15.333,15.333
201906241707,15.333,15.335,15.332,15.335
201906241708,15.335,15.34,15.335,15.338
201906241709,15.338,15.343,15.338,15.34
201906241710,15.339,15.341,15.337,15.338
201906241711,15.337,15.339,15.332,15.339
201906241712,15.339,15.339,15.333,15.333
201906241713,15.333,15.333,15.328,15.329
201906241714,15.329,15.33,15.327,15.327
201906241715,15.327,15.33,15.326,15.328
201906241716,15.328,15.334,15.328,15.334
201906241717,15.334,15.345,15.334,15.345
201906241718,15.345,15.352,15.345,15.349
201906241719,15.349,15.353,15.349,15.353
201906241720,15.353,15.354,15.35,15.35
201906241721,15.35,15.354,15.35,15.353
201906241722,15.353,15.354,15.348,15.354
201906241723,15.354,15.362,15.354,15.362
201906241724,15.362,15.368,15.362,15.364
201906241725,15.364,15.368,15.364,15.367
201906241726,15.367,15.367,15.365,15.366
201906241727,15.366,15.368,15.365,15.367
201906241728,15.367,15.368,15.367,15.368
201906241729,15.367,15.37,15.364,15.367
201906241730,15.367,15.367,15.362,15.364
201906241731,15.364,15.365,15.363,15.364
201906241732,15.364,15.365,15.363,15.363
201906241733,15.363,15.363,15.36,15.363
201906241734,15.363,15.367,15.363,15.364
201906241735,15.364,15.364,15.363,15.363
201906241736,15.363,15.373,15.363,15.373
201906241737,15.371,15.384,15.369,15.382
201906241738,15.381,15.389,15.38,15.389
201906241739,15.389,15.393,15.387,15.389
201906241740,15.389,15.389,15.385,15.385
201906241741,15.385,15.389,15.381,15.388
201906241742,15.388,15.39,15.387,15.388
201906241743,15.388,15.39,15.386,15.387
201906241744,15.387,15.387,15.383,15.387
201906241745,15.387,15.39,15.384,15.387
201906241746,15.387,15.387,15.381,15.382
201906241747,15.382,15.383,15.381,15.381
201906241748,15.381,15.391,15.381,15.388
201906241749,15.389,15.389,15.385,15.386
201906241750,15.386,15.39,15.385,15.386
201906241751,15.386,15.391,15.385,15.387
201906241752,15.387,15.39,15.385,15.385
201906241753,15.386,15.386,15.38,15.38
201906241754,15.38,15.385,15.377,15.379
201906241755,15.378,15.378,15.376,15.376
201906241756,15.375,15.38,15.375,15.376
201906241757,15.376,15.381,15.376,15.378
201906241758,15.378,15.385,15.378,15.381
201906241759,15.381,15.386,15.38,15.381
201906241800,15.382,15.386,15.382,15.386
201906241801,15.386,15.386,15.377,15.38
201906241802,15.38,15.381,15.376,15.377
201906241803,15.377,15.381,15.377,15.377
201906241804,15.377,15.38,15.375,15.376
201906241805,15.376,15.377,15.375,15.376
201906241806,15.376,15.381,15.376,15.377
201906241807,15.377,15.378,15.375,15.376
201906241808,15.376,15.376,15.376,15.376
201906241809,15.376,15.376,15.375,15.376
201906241810,15.376,15.381,15.373,15.381
201906241811,15.381,15.385,15.381,15.382
201906241812,15.382,15.386,15.382,15.386
201906241813,15.386,15.386,15.381,15.382
201906241814,15.382,15.382,15.378,15.381
201906241815,15.381,15.383,15.38,15.381
201906241816,15.381,15.382,15.381,15.382
201906241817,15.382,15.382,15.38,15.38
201906241818,15.38,15.38,15.374,15.379
201906241819,15.378,15.378,15.376,15.377
201906241820,15.376,15.382,15.376,15.382
201906241821,15.382,15.386,15.381,15.386
201906241822,15.386,15.386,15.382,15.385
201906241823,15.385,15.386,15.382,15.382
201906241824,15.382,15.382,15.379,15.379
201906241825,15.379,15.385,15.379,15.385
201906241826,15.385,15.388,15.385,15.388
201906241827,15.388,15.388,15.381,15.382
201906241828,15.382,15.385,15.382,15.385
201906241829,15.385,15.386,15.385,15.386
201906241830,15.386,15.387,15.382,15.383
201906241831,15.383,15.383,15.38,15.38
201906241832,15.381,15.381,15.376,15.379
201906241833,15.379,15.379,15.376,15.376
201906241834,15.376,15.376,15.375,15.376
201906241835,15.376,15.376,15.371,15.371
201906241836,15.371,15.372,15.371,15.371
201906241837,15.371,15.371,15.371,15.371
201906241838,15.371,15.371,15.37,15.37
201906241839,15.37,15.371,15.37,15.37
201906241840,15.37,15.37,15.37,15.37
201906241841,15.37,15.37,15.365,15.37
201906241842,15.37,15.37,15.365,15.365
201906241843,15.365,15.368,15.365,15.366
201906241844,15.366,15.366,15.361,15.361
201906241845,15.361,15.363,15.361,15.363
201906241846,15.363,15.363,15.361,15.361
201906241847,15.36,15.36,15.355,15.356
201906241848,15.356,15.362,15.356,15.361
201906241849,15.361,15.365,15.361,15.365
201906241850,15.365,15.365,15.364,15.364
201906241851,15.364,15.364,15.361,15.361
201906241852,15.361,15.371,15.361,15.369
201906241853,15.369,15.384,15.369,15.371
201906241854,15.371,15.373,15.366,15.367
201906241855,15.367,15.369,15.365,15.366
201906241856,15.366,15.374,15.365,15.372
201906241857,15.371,15.371,15.365,15.366
201906241858,15.366,15.369,15.365,15.369
201906241859,15.369,15.37,15.36,15.365
201906241900,15.365,15.366,15.359,15.361
201906241901,15.361,15.366,15.36,15.364
201906241902,15.364,15.365,15.362,15.364
201906241903,15.365,15.365,15.362,15.365
201906241904,15.365,15.365,15.36,15.365
201906241905,15.365,15.369,15.362,15.363
201906241906,15.363,15.363,15.36,15.361
201906241907,15.362,15.366,15.361,15.366
201906241908,15.366,15.366,15.363,15.365
201906241909,15.365,15.368,15.363,15.367
201906241910,15.367,15.369,15.364,15.365
201906241911,15.365,15.365,15.359,15.359
201906241912,15.359,15.359,15.355,15.355
201906241913,15.355,15.358,15.355,15.357
201906241914,15.357,15.367,15.355,15.367
201906241915,15.367,15.368,15.362,15.366
201906241916,15.366,15.37,15.364,15.364
201906241917,15.364,15.365,15.36,15.361
201906241918,15.361,15.362,15.36,15.36
201906241919,15.36,15.36,15.36,15.36
201906241920,15.36,15.363,15.36,15.362
201906241921,15.363,15.363,15.36,15.361
201906241922,15.361,15.367,15.359,15.367
201906241923,15.367,15.375,15.367,15.373
201906241924,15.373,15.378,15.371,15.377
201906241925,15.377,15.379,15.375,15.376
201906241926,15.376,15.377,15.375,15.376
201906241927,15.376,15.377,15.375,15.377
201906241928,15.377,15.383,15.375,15.383
201906241929,15.383,15.389,15.382,15.386
201906241930,15.386,15.388,15.382,15.385
201906241931,15.385,15.388,15.385,15.385
201906241932,15.385,15.387,15.385,15.386
201906241933,15.386,15.387,15.385,15.385
201906241934,15.385,15.387,15.379,15.379
201906241935,15.379,15.379,15.376,15.377
201906241936,15.376,15.377,15.375,15.375
201906241937,15.375,15.38,15.375,15.377
201906241938,15.377,15.377,15.375,15.377
201906241939,15.377,15.38,15.376,15.376
201906241940,15.376,15.377,15.374,15.375
201906241941,15.375,15.375,15.371,15.371
201906241942,15.371,15.374,15.37,15.372
201906241943,15.372,15.375,15.371,15.371
201906241944,15.371,15.372,15.366,15.366
201906241945,15.366,15.37,15.366,15.366
201906241946,15.366,15.372,15.366,15.369
201906241947,15.369,15.372,15.367,15.371
201906241948,15.371,15.372,15.368,15.368
201906241949,15.368,15.369,15.366,15.366
201906241950,15.365,15.367,15.362,15.362
201906241951,15.362,15.373,15.362,15.37
201906241952,15.37,15.376,15.368,15.376
201906241953,15.376,15.376,15.372,15.375
201906241954,15.375,15.375,15.371,15.371
201906241955,15.371,15.371,15.369,15.37
201906241956,15.37,15.374,15.369,15.369
201906241957,15.369,15.374,15.368,15.374
201906241958,15.374,15.38,15.372,15.376
201906241959,15.376,15.376,15.366,15.366
201906242000,15.366,15.368,15.359,15.363
201906242001,15.363,15.366,15.363,15.363
201906242002,15.363,15.363,15.359,15.362
201906242003,15.362,15.363,15.362,15.363
201906242004,15.363,15.37,15.362,15.365
201906242005,15.365,15.37,15.362,15.37
201906242006,15.37,15.382,15.37,15.372
201906242007,15.372,15.372,15.369,15.371
201906242008,15.371,15.371,15.359,15.36
201906242009,15.36,15.367,15.36,15.366
201906242010,15.366,15.368,15.365,15.367
201906242011,15.367,15.367,15.365,15.366
201906242012,15.366,15.367,15.365,15.365
201906242013,15.365,15.365,15.356,15.357
201906242014,15.357,15.357,15.355,15.356
201906242015,15.357,15.365,15.357,15.361
201906242016,15.362,15.364,15.361,15.363
201906242017,15.363,15.365,15.36,15.365
201906242018,15.365,15.366,15.364,15.366
201906242019,15.366,15.374,15.365,15.374
201906242020,15.372,15.375,15.37,15.37
201906242021,15.37,15.372,15.369,15.369
201906242022,15.369,15.37,15.364,15.365
201906242023,15.365,15.365,15.364,15.365
201906242024,15.365,15.38,15.365,15.377
201906242025,15.377,15.377,15.369,15.369
201906242026,15.369,15.37,15.363,15.365
201906242027,15.365,15.365,15.36,15.36
201906242028,15.36,15.366,15.36,15.365
201906242029,15.365,15.365,15.363,15.363
201906242030,15.361,15.366,15.359,15.366
201906242031,15.366,15.366,15.364,15.365
201906242032,15.365,15.365,15.364,15.365
201906242033,15.365,15.382,15.365,15.381
201906242034,15.381,15.385,15.38,15.381
201906242035,15.381,15.385,15.38,15.382
201906242036,15.381,15.381,15.376,15.379
201906242037,15.379,15.381,15.372,15.372
201906242038,15.372,15.377,15.372,15.375
201906242039,15.375,15.375,15.374,15.375
201906242040,15.374,15.376,15.374,15.376
201906242041,15.376,15.376,15.371,15.375
201906242042,15.375,15.375,15.374,15.375
201906242043,15.375,15.379,15.375,15.378
201906242044,15.379,15.386,15.378,15.381
201906242045,15.38,15.382,15.377,15.382
201906242046,15.382,15.384,15.381,15.384
201906242047,15.384,15.386,15.381,15.386
201906242048,15.386,15.387,15.384,15.385
201906242049,15.385,15.389,15.384,15.387
201906242050,15.387,15.387,15.386,15.386
201906242051,15.386,15.386,15.384,15.385
201906242052,15.385,15.385,15.372,15.375
201906242053,15.375,15.38,15.375,15.38
201906242054,15.38,15.38,15.373,15.374
201906242055,15.374,15.374,15.368,15.37
201906242056,15.369,15.377,15.369,15.375
201906242057,15.375,15.376,15.372,15.374
201906242058,15.374,15.374,15.37,15.371
201906242059,15.371,15.372,15.37,15.371
201906242100,15.371,15.372,15.36,15.365
201906242101,15.365,15.366,15.351,15.351
201906242102,15.351,15.356,15.351,15.353
201906242103,15.355,15.355,15.346,15.35
201906242104,15.35,15.356,15.35,15.355
201906242105,15.355,15.358,15.353,15.358
201906242106,15.358,15.358,15.348,15.351
201906242107,15.351,15.354,15.349,15.349
201906242108,15.347,15.348,15.341,15.345
201906242109,15.345,15.349,15.341,15.344
201906242110,15.344,15.346,15.34,15.341
201906242111,15.341,15.342,15.334,15.339
201906242112,15.339,15.346,15.339,15.34
201906242113,15.34,15.343,15.34,15.34
201906242114,15.341,15.346,15.341,15.346
201906242115,15.347,15.35,15.331,15.335
201906242116,15.335,15.337,15.33,15.334
201906242117,15.333,15.333,15.326,15.327
201906242118,15.327,15.334,15.327,15.329
201906242119,15.329,15.335,15.325,15.335
201906242120,15.335,15.347,15.335,15.341
201906242121,15.342,15.342,15.339,15.34
201906242122,15.34,15.342,15.335,15.341
201906242123,15.341,15.341,15.332,15.337
201906242124,15.336,15.34,15.331,15.337
201906242125,15.337,15.338,15.319,15.321
201906242126,15.321,15.324,15.309,15.315
201906242127,15.315,15.316,15.309,15.315
201906242128,15.315,15.32,15.315,15.32
201906242129,15.32,15.33,15.319,15.328
201906242130,15.328,15.33,15.323,15.323
201906242131,15.322,15.328,15.316,15.328
201906242132,15.326,15.327,15.315,15.326
201906242133,15.327,15.331,15.326,15.33
201906242134,15.33,15.344,15.33,15.342
201906242135,15.342,15.352,15.342,15.352
201906242136,15.354,15.356,15.345,15.345
201906242137,15.345,15.349,15.339,15.339
201906242138,15.339,15.341,15.338,15.339
201906242139,15.339,15.339,15.328,15.328
201906242140,15.329,15.329,15.316,15.319
201906242141,15.319,15.329,15.319,15.323
201906242142,15.323,15.329,15.322,15.324
201906242143,15.324,15.324,15.311,15.311
201906242144,15.311,15.319,15.311,15.315
201906242145,15.315,15.322,15.315,15.32
201906242146,15.32,15.32,15.311,15.315
201906242147,15.315,15.326,15.315,15.322
201906242148,15.32,15.327,15.32,15.325
201906242149,15.325,15.327,15.325,15.326
201906242150,15.326,15.327,15.325,15.325
201906242151,15.325,15.331,15.325,15.331
201906242152,15.331,15.341,15.33,15.333
201906242153,15.333,15.337,15.329,15.332
201906242154,15.332,15.335,15.33,15.33
201906242155,15.33,15.33,15.312,15.317
201906242156,15.317,15.318,15.311,15.314
201906242157,15.315,15.321,15.314,15.32
201906242158,15.321,15.321,15.311,15.311
201906242159,15.311,15.316,15.31,15.311
201906242200,15.311,15.311,15.299,15.305
201906242201,15.302,15.302,15.291,15.291
201906242202,15.292,15.306,15.291,15.305
201906242203,15.306,15.31,15.302,15.305
201906242204,15.305,15.306,15.298,15.302
201906242205,15.302,15.31,15.302,15.31
201906242206,15.31,15.325,15.31,15.324
201906242207,15.325,15.335,15.319,15.32
201906242208,15.319,15.321,15.311,15.311
201906242209,15.313,15.314,15.309,15.309
201906242210,15.309,15.315,15.307,15.311
201906242211,15.311,15.311,15.306,15.307
201906242212,15.307,15.314,15.306,15.31
201906242213,15.31,15.315,15.306,15.315
201906242214,15.315,15.316,15.312,15.316
201906242215,15.316,15.317,15.312,15.312
201906242216,15.312,15.32,15.312,15.32
201906242217,15.32,15.324,15.319,15.319
201906242218,15.319,15.32,15.315,15.32
201906242219,15.32,15.321,15.318,15.32
201906242220,15.32,15.329,15.32,15.325
201906242221,15.325,15.326,15.322,15.326
201906242222,15.326,15.326,15.319,15.319
201906242223,15.319,15.324,15.316,15.32
201906242224,15.32,15.321,15.317,15.321
201906242225,15.321,15.326,15.32,15.321
201906242226,15.321,15.323,15.318,15.319
201906242227,15.319,15.32,15.316,15.318
201906242228,15.317,15.317,15.316,15.317
201906242229,15.317,15.325,15.315,15.325
201906242230,15.325,15.325,15.32,15.322
201906242231,15.322,15.329,15.321,15.326
201906242232,15.326,15.331,15.324,15.331
201906242233,15.331,15.335,15.329,15.334
201906242234,15.334,15.346,15.334,15.345
201906242235,15.345,15.35,15.342,15.346
201906242236,15.345,15.346,15.336,15.336
201906242237,15.336,15.338,15.327,15.332
201906242238,15.332,15.332,15.326,15.327
201906242239,15.327,15.333,15.327,15.332
201906242240,15.332,15.332,15.319,15.327
201906242241,15.329,15.336,15.328,15.336
201906242242,15.336,15.338,15.327,15.328
201906242243,15.328,15.332,15.323,15.326
201906242244,15.326,15.332,15.326,15.328
201906242245,15.328,15.343,15.328,15.338
201906242246,15.338,15.343,15.338,15.343
201906242247,15.343,15.345,15.34,15.343
201906242248,15.343,15.348,15.342,15.347
201906242249,15.347,15.357,15.347,15.357
201906242250,15.357,15.369,15.357,15.361
201906242251,15.361,15.362,15.358,15.358
201906242252,15.358,15.362,15.357,15.358
201906242253,15.358,15.358,15.352,15.353
201906242254,15.353,15.361,15.352,15.361
201906242255,15.361,15.362,15.355,15.356
201906242256,15.356,15.358,15.353,15.356
201906242257,15.356,15.357,15.352,15.352
201906242258,15.353,15.354,15.351,15.353
201906242259,15.353,15.353,15.345,15.349
201906242300,15.349,15.362,15.349,15.352
201906242301,15.352,15.352,15.344,15.346
201906242302,15.345,15.35,15.344,15.347
201906242303,15.347,15.348,15.343,15.343
201906242304,15.343,15.344,15.333,15.343
201906242305,15.342,15.347,15.341,15.346
201906242306,15.345,15.345,15.344,15.345
201906242307,15.345,15.346,15.343,15.344
201906242308,15.345,15.349,15.344,15.349
201906242309,15.348,15.349,15.345,15.348
201906242310,15.348,15.353,15.348,15.353
201906242311,15.353,15.36,15.351,15.351
201906242312,15.351,15.353,15.349,15.351
201906242313,15.351,15.353,15.35,15.35
201906242314,15.35,15.351,15.349,15.349
201906242315,15.349,15.356,15.349,15.354
201906242316,15.354,15.36,15.354,15.359
201906242317,15.359,15.365,15.359,15.36
201906242318,15.36,15.365,15.359,15.365
201906242319,15.365,15.366,15.363,15.365
201906242320,15.365,15.366,15.362,15.365
201906242321,15.365,15.373,15.365,15.37
201906242322,15.369,15.37,15.364,15.364
201906242323,15.364,15.37,15.361,15.369
201906242324,15.369,15.373,15.369,15.37
201906242325,15.37,15.38,15.37,15.379
201906242326,15.379,15.385,15.375,15.375
201906242327,15.375,15.376,15.37,15.375
201906242328,15.375,15.38,15.375,15.377
201906242329,15.376,15.385,15.376,15.379
201906242330,15.38,15.385,15.38,15.385
201906242331,15.385,15.385,15.376,15.376
201906242332,15.376,15.381,15.374,15.38
201906242333,15.38,15.381,15.379,15.381
201906242334,15.382,15.385,15.38,15.385
201906242335,15.385,15.39,15.385,15.387
201906242336,15.387,15.39,15.386,15.386
201906242337,15.386,15.388,15.381,15.386
201906242338,15.386,15.386,15.385,15.386
201906242339,15.386,15.387,15.381,15.381
201906242340,15.381,15.385,15.376,15.381
201906242341,15.381,15.385,15.377,15.381
201906242342,15.381,15.387,15.381,15.386
201906242343,15.386,15.386,15.381,15.381
201906242344,15.381,15.382,15.378,15.381
201906242345,15.381,15.382,15.375,15.375
201906242346,15.375,15.381,15.375,15.38
201906242347,15.38,15.381,15.377,15.38
201906242348,15.38,15.38,15.376,15.376
201906242349,15.376,15.378,15.375,15.377
201906242350,15.377,15.381,15.377,15.38
201906242351,15.38,15.381,15.375,15.375
201906242352,15.375,15.376,15.371,15.375
201906242353,15.375,15.375,15.371,15.371
201906242354,15.371,15.375,15.37,15.375
201906242355,15.375,15.376,15.375,15.375
201906242356,15.375,15.375,15.367,15.37
201906242357,15.37,15.38,15.37,15.376
201906242358,15.376,15.378,15.371,15.375
201906242359,15.375,15.376,15.371,15.371
201906250000,15.371,15.376,15.371,15.375
201906250001,15.375,15.375,15.368,15.372
201906250002,15.372,15.375,15.37,15.375
201906250003,15.375,15.375,15.37,15.37
201906250004,15.37,15.373,15.369,15.373
201906250005,15.372,15.379,15.372,15.379
201906250006,15.379,15.381,15.379,15.38
201906250007,15.38,15.385,15.38,15.385
201906250008,15.385,15.387,15.385,15.385
201906250009,15.385,15.385,15.381,15.385
201906250010,15.385,15.391,15.385,15.385
201906250011,15.385,15.391,15.385,15.39
201906250012,15.39,15.399,15.386,15.399
201906250013,15.4,15.401,15.395,15.401
201906250014,15.401,15.402,15.399,15.402
201906250015,15.402,15.41,15.402,15.405
201906250016,15.404,15.404,15.395,15.396
201906250017,15.396,15.401,15.396,15.399
201906250018,15.399,15.409,15.398,15.409
201906250019,15.408,15.435,15.406,15.425
201906250020,15.425,15.446,15.425,15.432
201906250021,15.433,15.433,15.42,15.422
201906250022,15.421,15.433,15.42,15.433
201906250023,15.433,15.438,15.433,15.435
201906250024,15.435,15.437,15.432,15.436
201906250025,15.436,15.451,15.436,15.451
201906250026,15.451,15.459,15.445,15.459
201906250027,15.459,15.46,15.443,15.444
201906250028,15.445,15.447,15.44,15.443
201906250029,15.443,15.448,15.44,15.445
201906250030,15.445,15.445,15.43,15.43
201906250031,15.43,15.434,15.429,15.429
201906250032,15.429,15.429,15.422,15.428
201906250033,15.427,15.428,15.42,15.425
201906250034,15.425,15.425,15.414,15.416
201906250035,15.416,15.416,15.411,15.414
201906250036,15.414,15.414,15.409,15.409
201906250037,15.409,15.416,15.409,15.415
201906250038,15.415,15.42,15.411,15.42
201906250039,15.42,15.42,15.412,15.413
201906250040,15.413,15.415,15.409,15.415
201906250041,15.415,15.415,15.41,15.411
201906250042,15.411,15.416,15.41,15.416
201906250043,15.416,15.416,15.41,15.411
201906250044,15.411,15.417,15.411,15.414
201906250045,15.414,15.42,15.409,15.411
201906250046,15.411,15.412,15.41,15.41
201906250047,15.41,15.412,15.404,15.404
201906250048,15.404,15.405,15.4,15.401
201906250049,15.401,15.412,15.401,15.41
201906250050,15.41,15.41,15.405,15.405
201906250051,15.405,15.406,15.401,15.404
201906250052,15.404,15.405,15.396,15.399
201906250053,15.399,15.4,15.391,15.391
201906250054,15.391,15.391,15.388,15.388
201906250055,15.388,15.391,15.38,15.385
201906250056,15.385,15.39,15.384,15.385
201906250057,15.385,15.391,15.385,15.391
201906250058,15.391,15.4,15.391,15.395
201906250059,15.395,15.405,15.395,15.404
201906250100,15.405,15.41,15.404,15.404
201906250101,15.404,15.405,15.401,15.405
201906250102,15.405,15.41,15.405,15.409
201906250103,15.409,15.415,15.409,15.41
201906250104,15.41,15.41,15.405,15.406
201906250105,15.406,15.409,15.405,15.406
201906250106,15.406,15.409,15.404,15.405
201906250107,15.405,15.406,15.405,15.406
201906250108,15.406,15.411,15.406,15.411
201906250109,15.411,15.411,15.41,15.411
201906250110,15.411,15.411,15.409,15.41
201906250111,15.41,15.416,15.409,15.416
201906250112,15.416,15.424,15.415,15.424
201906250113,15.424,15.424,15.42,15.42
201906250114,15.42,15.42,15.419,15.419
201906250115,15.419,15.42,15.418,15.42
201906250116,15.42,15.421,15.419,15.42
201906250117,15.42,15.425,15.42,15.423
201906250118,15.423,15.423,15.418,15.419
201906250119,15.419,15.419,15.411,15.411
201906250120,15.411,15.415,15.41,15.41
201906250121,15.41,15.411,15.405,15.41
201906250122,15.41,15.41,15.409,15.41
201906250123,15.411,15.411,15.409,15.41
201906250124,15.409,15.411,15.409,15.411
201906250125,15.411,15.416,15.41,15.415
201906250126,15.415,15.416,15.414,15.415
201906250127,15.415,15.415,15.41,15.411
201906250128,15.411,15.411,15.41,15.411
201906250129,15.411,15.415,15.411,15.414
201906250130,15.414,15.414,15.412,15.413
201906250131,15.414,15.415,15.413,15.415
201906250132,15.415,15.415,15.413,15.415
201906250133,15.415,15.415,15.41,15.41
201906250134,15.41,15.415,15.407,15.415
201906250135,15.415,15.415,15.409,15.41
201906250136,15.41,15.41,15.405,15.41
201906250137,15.41,15.414,15.41,15.411
201906250138,15.412,15.414,15.41,15.414
201906250139,15.414,15.415,15.411,15.411
201906250140,15.411,15.411,15.406,15.406
201906250141,15.406,15.406,15.406,15.406
201906250142,15.406,15.411,15.406,15.41
201906250143,15.41,15.41,15.405,15.41
201906250144,15.409,15.416,15.406,15.415
201906250145,15.415,15.416,15.415,15.415
201906250146,15.415,15.415,15.415,15.415
201906250147,15.415,15.415,15.411,15.411
201906250148,15.411,15.415,15.409,15.415
201906250149,15.415,15.415,15.414,15.415
201906250150,15.415,15.415,15.41,15.41
201906250151,15.41,15.41,15.405,15.41
201906250152,15.41,15.41,15.405,15.405
201906250153,15.405,15.406,15.405,15.406
201906250154,15.406,15.406,15.405,15.405
201906250155,15.405,15.405,15.404,15.405
201906250156,15.405,15.405,15.4,15.405
201906250157,15.405,15.41,15.405,15.41
201906250158,15.41,15.41,15.408,15.41
201906250159,15.41,15.413,15.408,15.41
201906250200,15.41,15.415,15.41,15.415
201906250201,15.415,15.42,15.41,15.41
201906250202,15.41,15.41,15.402,15.402
201906250203,15.401,15.405,15.399,15.402
201906250204,15.402,15.404,15.399,15.401
201906250205,15.401,15.401,15.398,15.398
201906250206,15.398,15.4,15.398,15.399
201906250207,15.399,15.399,15.397,15.397
201906250208,15.397,15.402,15.397,15.398
201906250209,15.398,15.398,15.397,15.398
201906250210,15.398,15.398,15.391,15.393
201906250211,15.393,15.397,15.393,15.394
201906250212,15.394,15.403,15.394,15.398
201906250213,15.399,15.4,15.397,15.399
201906250214,15.399,15.399,15.391,15.393
201906250215,15.393,15.396,15.392,15.394
201906250216,15.394,15.395,15.389,15.389
201906250217,15.389,15.39,15.384,15.387
201906250218,15.387,15.39,15.383,15.39
201906250219,15.39,15.39,15.382,15.382
201906250220,15.382,15.382,15.377,15.377
201906250221,15.376,15.377,15.371,15.374
201906250222,15.374,15.381,15.373,15.375
201906250223,15.375,15.385,15.374,15.385
201906250224,15.385,15.39,15.379,15.386
201906250225,15.386,15.386,15.379,15.381
201906250226,15.382,15.383,15.381,15.381
201906250227,15.381,15.385,15.38,15.385
201906250228,15.385,15.391,15.384,15.39
201906250229,15.39,15.395,15.39,15.39
201906250230,15.389,15.395,15.389,15.391
201906250231,15.391,15.395,15.391,15.391
201906250232,15.391,15.394,15.389,15.392
201906250233,15.392,15.395,15.392,15.393
201906250234,15.393,15.395,15.393,15.394
201906250235,15.394,15.396,15.394,15.395
201906250236,15.395,15.396,15.395,15.396
201906250237,15.394,15.398,15.394,15.395
201906250238,15.395,15.396,15.394,15.396
201906250239,15.396,15.396,15.394,15.396
201906250240,15.396,15.396,15.395,15.396
201906250241,15.396,15.399,15.396,15.399
201906250242,15.399,15.4,15.394,15.394
201906250243,15.394,15.396,15.394,15.396
201906250244,15.396,15.396,15.395,15.396
201906250245,15.396,15.397,15.395,15.396
201906250246,15.396,15.401,15.396,15.401
201906250247,15.401,15.401,15.401,15.401
201906250248,15.401,15.401,15.4,15.4
201906250249,15.4,15.4,15.397,15.4
201906250250,15.4,15.405,15.4,15.404
201906250251,15.404,15.409,15.404,15.406
201906250252,15.406,15.409,15.405,15.409
201906250253,15.409,15.41,15.409,15.41
201906250254,15.41,15.41,15.409,15.41
201906250255,15.41,15.412,15.409,15.409
201906250256,15.409,15.41,15.407,15.41
201906250257,15.41,15.411,15.41,15.41
201906250258,15.41,15.411,15.409,15.41
201906250259,15.41,15.413,15.409,15.411
201906250300,15.411,15.42,15.411,15.42
201906250301,15.42,15.421,15.418,15.418
201906250302,15.418,15.42,15.418,15.418
201906250303,15.418,15.418,15.415,15.416
201906250304,15.416,15.418,15.413,15.413
201906250305,15.413,15.415,15.41,15.414
201906250306,15.414,15.414,15.41,15.411
201906250307,15.411,15.411,15.409,15.409
201906250308,15.409,15.41,15.407,15.41
201906250309,15.41,15.41,15.406,15.408
201906250310,15.408,15.409,15.405,15.405
201906250311,15.405,15.406,15.405,15.405
201906250312,15.405,15.409,15.404,15.406
201906250313,15.406,15.406,15.406,15.406
201906250314,15.406,15.406,15.405,15.405
201906250315,15.405,15.405,15.405,15.405
201906250316,15.405,15.405,15.404,15.405
201906250317,15.405,15.405,15.405,15.405
201906250318,15.405,15.405,15.403,15.404
201906250319,15.404,15.405,15.404,15.405
201906250320,15.405,15.405,15.405,15.405
201906250321,15.405,15.406,15.404,15.404
201906250322,15.404,15.405,15.404,15.405
201906250323,15.405,15.408,15.404,15.405
201906250324,15.405,15.409,15.405,15.409
201906250325,15.409,15.41,15.409,15.409
201906250326,15.409,15.41,15.409,15.409
201906250327,15.409,15.411,15.408,15.41
201906250328,15.41,15.41,15.41,15.41
201906250329,15.41,15.41,15.409,15.409
201906250330,15.409,15.41,15.409,15.409
201906250331,15.409,15.41,15.409,15.41
201906250332,15.41,15.411,15.409,15.41
201906250333,15.41,15.414,15.41,15.41
201906250334,15.41,15.411,15.41,15.411
201906250335,15.411,15.415,15.411,15.415
201906250336,15.415,15.419,15.414,15.415
201906250337,15.415,15.415,15.414,15.414
201906250338,15.414,15.415,15.414,15.415
201906250339,15.415,15.416,15.411,15.415
201906250340,15.415,15.415,15.414,15.415
201906250341,15.414,15.419,15.414,15.419
201906250342,15.419,15.42,15.419,15.42
201906250343,15.42,15.42,15.419,15.42
201906250344,15.42,15.42,15.419,15.42
201906250345,15.42,15.42,15.419,15.42
201906250346,15.42,15.431,15.42,15.431
201906250347,15.431,15.447,15.43,15.44
201906250348,15.44,15.449,15.44,15.449
201906250349,15.449,15.449,15.444,15.449
201906250350,15.447,15.447,15.437,15.44
201906250351,15.44,15.448,15.439,15.445
201906250352,15.445,15.449,15.444,15.448
201906250353,15.448,15.453,15.444,15.453
201906250354,15.453,15.462,15.453,15.459
201906250355,15.459,15.463,15.459,15.463
201906250356,15.463,15.465,15.455,15.457
201906250357,15.457,15.457,15.442,15.444
201906250358,15.444,15.449,15.443,15.444
201906250359,15.444,15.445,15.439,15.442
201906250400,15.442,15.442,15.438,15.44
201906250401,15.44,15.442,15.439,15.439
201906250402,15.439,15.442,15.439,15.441
201906250403,15.441,15.442,15.439,15.441
201906250404,15.441,15.442,15.44,15.441
201906250405,15.441,15.442,15.437,15.438
201906250406,15.438,15.439,15.437,15.438
201906250407,15.437,15.438,15.437,15.438
201906250408,15.438,15.443,15.438,15.441
201906250409,15.441,15.442,15.441,15.442
201906250410,15.442,15.442,15.432,15.432
201906250411,15.432,15.433,15.43,15.432
201906250412,15.432,15.433,15.432,15.432
201906250413,15.431,15.434,15.431,15.433
201906250414,15.433,15.433,15.427,15.427
201906250415,15.427,15.428,15.424,15.427
201906250416,15.427,15.427,15.413,15.415
201906250417,15.416,15.419,15.415,15.415
201906250418,15.415,15.415,15.414,15.414
201906250419,15.415,15.415,15.414,15.414
201906250420,15.414,15.415,15.412,15.414
201906250421,15.414,15.415,15.414,15.414
201906250422,15.414,15.416,15.414,15.416
201906250423,15.416,15.424,15.416,15.424
201906250424,15.424,15.425,15.42,15.422
201906250425,15.422,15.424,15.42,15.423
201906250426,15.423,15.424,15.423,15.424
201906250427,15.424,15.429,15.424,15.429
201906250428,15.429,15.429,15.426,15.429
201906250429,15.429,15.431,15.429,15.43
201906250430,15.43,15.434,15.43,15.43
201906250431,15.431,15.431,15.43,15.43
201906250432,15.43,15.43,15.429,15.43
201906250433,15.43,15.436,15.43,15.436
201906250434,15.436,15.438,15.436,15.438
201906250435,15.438,15.438,15.432,15.433
201906250436,15.433,15.433,15.432,15.432
201906250437,15.432,15.432,15.431,15.432
201906250438,15.432,15.433,15.432,15.433
201906250439,15.433,15.433,15.432,15.433
201906250440,15.433,15.433,15.428,15.429
201906250441,15.429,15.434,15.429,15.434
201906250442,15.434,15.438,15.434,15.438
201906250443,15.437,15.438,15.436,15.438
201906250444,15.438,15.439,15.436,15.437
201906250445,15.437,15.439,15.436,15.436
201906250446,15.436,15.441,15.436,15.441
201906250447,15.441,15.442,15.439,15.441
201906250448,15.441,15.444,15.441,15.443
201906250449,15.443,15.444,15.442,15.442
201906250450,15.442,15.442,15.438,15.439
201906250451,15.439,15.439,15.438,15.439
201906250452,15.439,15.443,15.439,15.442
201906250453,15.442,15.443,15.439,15.441
201906250454,15.44,15.442,15.436,15.438
201906250455,15.438,15.438,15.436,15.438
201906250456,15.438,15.438,15.434,15.435
201906250457,15.435,15.439,15.435,15.439
201906250458,15.439,15.44,15.438,15.439
201906250459,15.439,15.443,15.439,15.439
201906250500,15.437,15.438,15.434,15.437
201906250501,15.437,15.439,15.434,15.435
201906250502,15.435,15.436,15.434,15.434
201906250503,15.434,15.435,15.434,15.435
201906250504,15.435,15.441,15.434,15.44
201906250505,15.44,15.441,15.437,15.437
201906250506,15.437,15.441,15.436,15.437
201906250507,15.437,15.438,15.437,15.438
201906250508,15.438,15.438,15.438,15.438
201906250509,15.438,15.438,15.438,15.438
201906250510,15.438,15.44,15.438,15.44
201906250511,15.44,15.442,15.439,15.439
201906250512,15.439,15.439,15.437,15.437
201906250513,15.437,15.438,15.436,15.437
201906250514,15.437,15.437,15.437,15.437
201906250515,15.438,15.438,15.437,15.438
201906250516,15.438,15.439,15.436,15.438
201906250517,15.438,15.438,15.438,15.438
201906250518,15.438,15.438,15.438,15.438
201906250519,15.438,15.438,15.438,15.438
201906250520,15.438,15.438,15.438,15.438
201906250521,15.438,15.438,15.438,15.438
201906250522,15.438,15.44,15.435,15.44
201906250523,15.44,15.44,15.439,15.439
201906250524,15.439,15.441,15.439,15.441
201906250525,15.441,15.441,15.441,15.441
201906250526,15.441,15.442,15.441,15.441
201906250527,15.441,15.441,15.44,15.44
201906250528,15.44,15.441,15.439,15.439
201906250529,15.439,15.439,15.438,15.439
201906250530,15.439,15.441,15.439,15.441
201906250531,15.441,15.445,15.441,15.442
201906250532,15.442,15.442,15.441,15.441
201906250533,15.442,15.442,15.441,15.441
201906250534,15.441,15.441,15.441,15.441
201906250535,15.441,15.441,15.441,15.441
201906250536,15.441,15.442,15.441,15.441
201906250537,15.441,15.442,15.438,15.442
201906250538,15.442,15.442,15.442,15.442
201906250539,15.442,15.442,15.438,15.438
201906250540,15.438,15.438,15.437,15.437
201906250541,15.437,15.438,15.437,15.438
201906250542,15.438,15.438,15.437,15.438
201906250543,15.438,15.438,15.436,15.437
201906250544,15.437,15.437,15.429,15.429
201906250545,15.429,15.433,15.429,15.433
201906250546,15.433,15.433,15.433,15.433
201906250547,15.433,15.433,15.433,15.433
201906250548,15.433,15.433,15.433,15.433
201906250549,15.433,15.433,15.433,15.433
201906250550,15.433,15.433,15.433,15.433
201906250551,15.433,15.433,15.432,15.433
201906250552,15.433,15.434,15.433,15.433
201906250553,15.433,15.438,15.433,15.435
201906250554,15.435,15.435,15.434,15.434
201906250555,15.435,15.438,15.434,15.438
201906250556,15.433,15.438,15.433,15.438
201906250557,15.438,15.438,15.435,15.436
201906250558,15.436,15.437,15.436,15.436
201906250559,15.436,15.436,15.428,15.428
