日時,始値(BID),高値(BID),安値(BID),終値(BID)
201906210700,15.443,15.455,15.442,15.442
201906210701,15.444,15.445,15.443,15.445
201906210702,15.445,15.445,15.44,15.44
201906210703,15.44,15.44,15.435,15.44
201906210704,15.44,15.44,15.435,15.435
201906210705,15.435,15.436,15.431,15.432
201906210706,15.432,15.441,15.432,15.441
201906210707,15.441,15.441,15.441,15.441
201906210708,15.441,15.441,15.441,15.441
201906210709,15.441,15.442,15.441,15.442
201906210710,15.442,15.442,15.442,15.442
201906210711,15.442,15.442,15.44,15.44
201906210712,15.44,15.442,15.44,15.442
201906210713,15.442,15.444,15.442,15.443
201906210714,15.443,15.444,15.443,15.444
201906210715,15.444,15.445,15.444,15.445
201906210716,15.445,15.445,15.444,15.445
201906210717,15.445,15.45,15.445,15.45
201906210718,15.45,15.45,15.45,15.45
201906210719,15.45,15.453,15.45,15.452
201906210720,15.452,15.455,15.452,15.453
201906210721,15.453,15.453,15.452,15.452
201906210722,15.452,15.453,15.452,15.452
201906210723,15.452,15.452,15.448,15.449
201906210724,15.449,15.449,15.449,15.449
201906210725,15.449,15.449,15.449,15.449
201906210726,15.449,15.452,15.448,15.452
201906210727,15.452,15.452,15.452,15.452
201906210728,15.452,15.453,15.452,15.452
201906210729,15.452,15.453,15.452,15.453
201906210730,15.453,15.453,15.452,15.452
201906210731,15.452,15.452,15.452,15.452
201906210732,15.452,15.453,15.452,15.452
201906210733,15.452,15.455,15.452,15.455
201906210734,15.455,15.455,15.453,15.454
201906210735,15.454,15.454,15.454,15.454
201906210736,15.454,15.454,15.454,15.454
201906210737,15.454,15.454,15.454,15.454
201906210738,15.454,15.454,15.454,15.454
201906210739,15.454,15.454,15.454,15.454
201906210740,15.454,15.454,15.452,15.453
201906210741,15.453,15.454,15.453,15.453
201906210742,15.453,15.454,15.453,15.454
201906210743,15.454,15.454,15.453,15.453
201906210744,15.453,15.453,15.453,15.453
201906210745,15.453,15.453,15.453,15.453
201906210746,15.453,15.453,15.453,15.453
201906210747,15.453,15.453,15.452,15.452
201906210748,15.452,15.452,15.449,15.449
201906210749,15.449,15.449,15.448,15.448
201906210750,15.449,15.449,15.447,15.447
201906210751,15.447,15.447,15.446,15.447
201906210752,15.447,15.447,15.443,15.444
201906210753,15.444,15.444,15.442,15.443
201906210754,15.443,15.443,15.442,15.443
201906210755,15.443,15.443,15.442,15.443
201906210756,15.443,15.443,15.442,15.442
201906210757,15.442,15.442,15.442,15.442
201906210758,15.443,15.446,15.443,15.446
201906210759,15.446,15.446,15.444,15.444
201906210800,15.443,15.444,15.443,15.443
201906210801,15.443,15.443,15.442,15.442
201906210802,15.442,15.442,15.442,15.442
201906210803,15.442,15.443,15.438,15.439
201906210804,15.439,15.439,15.438,15.439
201906210805,15.439,15.439,15.437,15.438
201906210806,15.439,15.441,15.438,15.44
201906210807,15.441,15.441,15.44,15.441
201906210808,15.441,15.444,15.439,15.444
201906210809,15.444,15.444,15.443,15.443
201906210810,15.443,15.443,15.441,15.441
201906210811,15.44,15.44,15.438,15.438
201906210812,15.438,15.439,15.438,15.439
201906210813,15.439,15.439,15.433,15.434
201906210814,15.434,15.434,15.434,15.434
201906210815,15.434,15.434,15.433,15.434
201906210816,15.434,15.434,15.433,15.434
201906210817,15.434,15.434,15.433,15.433
201906210818,15.433,15.434,15.433,15.434
201906210819,15.434,15.443,15.434,15.44
201906210820,15.44,15.44,15.438,15.438
201906210821,15.438,15.438,15.438,15.438
201906210822,15.438,15.439,15.438,15.438
201906210823,15.438,15.442,15.438,15.441
201906210824,15.441,15.443,15.441,15.442
201906210825,15.442,15.443,15.442,15.442
201906210826,15.442,15.443,15.442,15.443
201906210827,15.443,15.444,15.443,15.444
201906210828,15.444,15.445,15.443,15.444
201906210829,15.444,15.445,15.444,15.445
201906210830,15.445,15.446,15.445,15.446
201906210831,15.446,15.446,15.445,15.445
201906210832,15.445,15.445,15.445,15.445
201906210833,15.445,15.446,15.445,15.446
201906210834,15.446,15.446,15.446,15.446
201906210835,15.446,15.451,15.446,15.451
201906210836,15.451,15.452,15.45,15.451
201906210837,15.451,15.451,15.448,15.448
201906210838,15.448,15.449,15.447,15.449
201906210839,15.449,15.457,15.449,15.456
201906210840,15.455,15.455,15.453,15.455
201906210841,15.455,15.455,15.454,15.455
201906210842,15.455,15.455,15.449,15.449
201906210843,15.449,15.452,15.449,15.451
201906210844,15.451,15.452,15.449,15.452
201906210845,15.453,15.454,15.452,15.452
201906210846,15.452,15.453,15.452,15.452
201906210847,15.452,15.453,15.452,15.453
201906210848,15.453,15.457,15.452,15.455
201906210849,15.454,15.456,15.453,15.455
201906210850,15.454,15.455,15.453,15.455
201906210851,15.454,15.454,15.452,15.452
201906210852,15.453,15.453,15.451,15.453
201906210853,15.452,15.453,15.451,15.453
201906210854,15.453,15.456,15.452,15.456
201906210855,15.456,15.458,15.455,15.457
201906210856,15.457,15.457,15.456,15.457
201906210857,15.457,15.457,15.456,15.457
201906210858,15.457,15.457,15.456,15.456
201906210859,15.456,15.457,15.453,15.453
201906210900,15.453,15.453,15.444,15.449
201906210901,15.449,15.452,15.448,15.452
201906210902,15.452,15.452,15.448,15.45
201906210903,15.451,15.455,15.449,15.452
201906210904,15.452,15.453,15.449,15.451
201906210905,15.451,15.453,15.448,15.453
201906210906,15.453,15.456,15.452,15.454
201906210907,15.453,15.458,15.453,15.458
201906210908,15.458,15.461,15.457,15.46
201906210909,15.461,15.463,15.458,15.463
201906210910,15.463,15.463,15.462,15.462
201906210911,15.462,15.467,15.462,15.467
201906210912,15.467,15.478,15.466,15.477
201906210913,15.477,15.484,15.469,15.471
201906210914,15.471,15.471,15.458,15.463
201906210915,15.463,15.473,15.463,15.473
201906210916,15.473,15.474,15.468,15.473
201906210917,15.473,15.473,15.467,15.472
201906210918,15.471,15.476,15.468,15.468
201906210919,15.468,15.468,15.466,15.467
201906210920,15.468,15.469,15.462,15.465
201906210921,15.466,15.466,15.461,15.461
201906210922,15.461,15.463,15.458,15.458
201906210923,15.458,15.463,15.458,15.463
201906210924,15.462,15.465,15.461,15.462
201906210925,15.462,15.471,15.462,15.467
201906210926,15.467,15.472,15.466,15.472
201906210927,15.472,15.476,15.468,15.468
201906210928,15.468,15.468,15.457,15.457
201906210929,15.457,15.46,15.457,15.459
201906210930,15.459,15.462,15.451,15.452
201906210931,15.452,15.456,15.452,15.452
201906210932,15.452,15.454,15.451,15.453
201906210933,15.453,15.453,15.448,15.452
201906210934,15.452,15.452,15.442,15.442
201906210935,15.442,15.443,15.436,15.437
201906210936,15.437,15.452,15.437,15.452
201906210937,15.452,15.453,15.448,15.448
201906210938,15.448,15.454,15.447,15.453
201906210939,15.453,15.457,15.452,15.457
201906210940,15.457,15.467,15.452,15.467
201906210941,15.467,15.467,15.457,15.461
201906210942,15.461,15.461,15.452,15.452
201906210943,15.452,15.453,15.447,15.447
201906210944,15.447,15.448,15.446,15.446
201906210945,15.446,15.448,15.445,15.447
201906210946,15.447,15.453,15.447,15.452
201906210947,15.452,15.454,15.451,15.452
201906210948,15.452,15.452,15.445,15.446
201906210949,15.446,15.447,15.445,15.446
201906210950,15.446,15.447,15.442,15.442
201906210951,15.442,15.443,15.44,15.442
201906210952,15.442,15.446,15.44,15.44
201906210953,15.44,15.443,15.44,15.443
201906210954,15.442,15.442,15.441,15.441
201906210955,15.442,15.443,15.441,15.442
201906210956,15.442,15.445,15.441,15.441
201906210957,15.441,15.443,15.441,15.442
201906210958,15.442,15.447,15.441,15.446
201906210959,15.446,15.448,15.446,15.447
201906211000,15.448,15.448,15.426,15.446
201906211001,15.446,15.467,15.446,15.466
201906211002,15.466,15.466,15.455,15.456
201906211003,15.456,15.472,15.451,15.47
201906211004,15.471,15.475,15.465,15.475
201906211005,15.475,15.481,15.471,15.48
201906211006,15.48,15.48,15.472,15.476
201906211007,15.477,15.481,15.472,15.472
201906211008,15.472,15.472,15.458,15.461
201906211009,15.461,15.463,15.458,15.461
201906211010,15.461,15.461,15.441,15.441
201906211011,15.44,15.449,15.44,15.449
201906211012,15.449,15.463,15.449,15.457
201906211013,15.458,15.462,15.452,15.461
201906211014,15.461,15.463,15.46,15.463
201906211015,15.463,15.463,15.447,15.453
201906211016,15.453,15.454,15.448,15.448
201906211017,15.448,15.452,15.444,15.452
201906211018,15.453,15.456,15.452,15.456
201906211019,15.456,15.459,15.452,15.457
201906211020,15.457,15.457,15.452,15.456
201906211021,15.456,15.456,15.449,15.45
201906211022,15.45,15.45,15.443,15.443
201906211023,15.443,15.452,15.443,15.449
201906211024,15.449,15.449,15.437,15.442
201906211025,15.442,15.45,15.44,15.448
201906211026,15.448,15.449,15.443,15.443
201906211027,15.442,15.443,15.433,15.433
201906211028,15.433,15.442,15.433,15.439
201906211029,15.439,15.44,15.435,15.435
201906211030,15.435,15.439,15.435,15.439
201906211031,15.439,15.444,15.439,15.444
201906211032,15.444,15.462,15.444,15.46
201906211033,15.46,15.473,15.458,15.472
201906211034,15.472,15.474,15.468,15.472
201906211035,15.472,15.475,15.469,15.472
201906211036,15.472,15.477,15.469,15.477
201906211037,15.477,15.489,15.476,15.488
201906211038,15.487,15.49,15.478,15.489
201906211039,15.489,15.49,15.484,15.49
201906211040,15.49,15.49,15.482,15.483
201906211041,15.483,15.491,15.481,15.488
201906211042,15.488,15.489,15.488,15.488
201906211043,15.488,15.49,15.488,15.489
201906211044,15.489,15.49,15.488,15.489
201906211045,15.489,15.491,15.487,15.49
201906211046,15.49,15.49,15.489,15.49
201906211047,15.49,15.495,15.489,15.493
201906211048,15.493,15.494,15.484,15.489
201906211049,15.489,15.491,15.488,15.489
201906211050,15.489,15.489,15.48,15.485
201906211051,15.485,15.491,15.484,15.489
201906211052,15.489,15.491,15.488,15.491
201906211053,15.49,15.493,15.49,15.491
201906211054,15.491,15.499,15.487,15.487
201906211055,15.488,15.496,15.487,15.494
201906211056,15.494,15.5,15.487,15.5
201906211057,15.5,15.503,15.491,15.502
201906211058,15.502,15.502,15.491,15.497
201906211059,15.497,15.516,15.491,15.516
201906211100,15.516,15.53,15.512,15.518
201906211101,15.518,15.551,15.516,15.545
201906211102,15.545,15.55,15.529,15.544
201906211103,15.544,15.549,15.533,15.533
201906211104,15.534,15.534,15.51,15.521
201906211105,15.523,15.533,15.52,15.522
201906211106,15.522,15.534,15.518,15.524
201906211107,15.524,15.524,15.51,15.512
201906211108,15.514,15.526,15.514,15.519
201906211109,15.52,15.525,15.512,15.52
201906211110,15.52,15.525,15.517,15.519
201906211111,15.519,15.522,15.519,15.521
201906211112,15.521,15.527,15.518,15.519
201906211113,15.519,15.52,15.502,15.502
201906211114,15.502,15.506,15.488,15.488
201906211115,15.488,15.492,15.455,15.464
201906211116,15.461,15.48,15.456,15.461
201906211117,15.464,15.469,15.459,15.469
201906211118,15.47,15.474,15.466,15.471
201906211119,15.471,15.477,15.471,15.477
201906211120,15.477,15.479,15.473,15.474
201906211121,15.474,15.484,15.474,15.48
201906211122,15.48,15.481,15.476,15.479
201906211123,15.479,15.485,15.478,15.485
201906211124,15.485,15.485,15.47,15.474
201906211125,15.474,15.491,15.472,15.491
201906211126,15.491,15.491,15.481,15.481
201906211127,15.481,15.495,15.478,15.493
201906211128,15.493,15.508,15.493,15.506
201906211129,15.505,15.505,15.494,15.497
201906211130,15.496,15.507,15.496,15.506
201906211131,15.506,15.507,15.494,15.496
201906211132,15.498,15.498,15.485,15.494
201906211133,15.492,15.496,15.487,15.493
201906211134,15.492,15.505,15.492,15.498
201906211135,15.498,15.508,15.492,15.507
201906211136,15.507,15.508,15.502,15.508
201906211137,15.509,15.512,15.503,15.512
201906211138,15.513,15.523,15.512,15.512
201906211139,15.512,15.517,15.508,15.509
201906211140,15.508,15.526,15.508,15.517
201906211141,15.517,15.52,15.513,15.517
201906211142,15.517,15.519,15.506,15.517
201906211143,15.517,15.517,15.508,15.508
201906211144,15.508,15.51,15.501,15.504
201906211145,15.504,15.511,15.501,15.507
201906211146,15.507,15.514,15.503,15.512
201906211147,15.512,15.513,15.503,15.505
201906211148,15.505,15.509,15.505,15.507
201906211149,15.508,15.508,15.504,15.505
201906211150,15.504,15.505,15.494,15.495
201906211151,15.495,15.497,15.492,15.494
201906211152,15.494,15.494,15.49,15.491
201906211153,15.491,15.498,15.491,15.497
201906211154,15.497,15.497,15.491,15.492
201906211155,15.492,15.494,15.491,15.491
201906211156,15.491,15.493,15.489,15.492
201906211157,15.492,15.494,15.487,15.488
201906211158,15.489,15.489,15.484,15.488
201906211159,15.487,15.488,15.483,15.483
201906211200,15.483,15.487,15.479,15.486
201906211201,15.486,15.488,15.484,15.487
201906211202,15.488,15.488,15.485,15.488
201906211203,15.488,15.498,15.488,15.495
201906211204,15.495,15.498,15.493,15.495
201906211205,15.495,15.495,15.49,15.492
201906211206,15.493,15.496,15.492,15.495
201906211207,15.495,15.499,15.495,15.496
201906211208,15.496,15.5,15.494,15.499
201906211209,15.5,15.5,15.489,15.49
201906211210,15.49,15.491,15.489,15.49
201906211211,15.49,15.491,15.49,15.49
201906211212,15.49,15.499,15.49,15.496
201906211213,15.496,15.496,15.494,15.496
201906211214,15.496,15.5,15.496,15.499
201906211215,15.499,15.503,15.499,15.502
201906211216,15.502,15.505,15.496,15.496
201906211217,15.496,15.496,15.491,15.491
201906211218,15.491,15.492,15.486,15.486
201906211219,15.486,15.486,15.483,15.486
201906211220,15.486,15.489,15.483,15.488
201906211221,15.487,15.491,15.483,15.484
201906211222,15.484,15.488,15.48,15.481
201906211223,15.481,15.484,15.48,15.484
201906211224,15.484,15.485,15.479,15.485
201906211225,15.484,15.485,15.48,15.48
201906211226,15.48,15.48,15.475,15.478
201906211227,15.478,15.48,15.477,15.479
201906211228,15.477,15.481,15.476,15.48
201906211229,15.479,15.479,15.474,15.476
201906211230,15.476,15.476,15.47,15.474
201906211231,15.474,15.476,15.471,15.476
201906211232,15.476,15.476,15.471,15.471
201906211233,15.471,15.476,15.471,15.472
201906211234,15.472,15.476,15.47,15.47
201906211235,15.47,15.473,15.47,15.472
201906211236,15.472,15.477,15.472,15.477
201906211237,15.479,15.48,15.476,15.48
201906211238,15.48,15.481,15.48,15.481
201906211239,15.481,15.481,15.476,15.476
201906211240,15.478,15.478,15.476,15.476
201906211241,15.477,15.477,15.476,15.476
201906211242,15.476,15.481,15.476,15.481
201906211243,15.481,15.484,15.48,15.483
201906211244,15.483,15.485,15.481,15.485
201906211245,15.486,15.486,15.484,15.486
201906211246,15.486,15.49,15.486,15.49
201906211247,15.49,15.49,15.489,15.489
201906211248,15.489,15.49,15.486,15.486
201906211249,15.486,15.486,15.48,15.481
201906211250,15.481,15.486,15.481,15.486
201906211251,15.485,15.486,15.484,15.485
201906211252,15.485,15.49,15.48,15.489
201906211253,15.49,15.49,15.486,15.49
201906211254,15.49,15.491,15.486,15.491
201906211255,15.491,15.493,15.49,15.491
201906211256,15.491,15.495,15.489,15.489
201906211257,15.489,15.491,15.489,15.49
201906211258,15.49,15.49,15.49,15.49
201906211259,15.49,15.492,15.49,15.491
201906211300,15.491,15.491,15.49,15.491
201906211301,15.491,15.498,15.49,15.494
201906211302,15.494,15.494,15.493,15.494
201906211303,15.494,15.499,15.494,15.495
201906211304,15.495,15.496,15.495,15.496
201906211305,15.496,15.496,15.49,15.49
201906211306,15.49,15.495,15.49,15.494
201906211307,15.494,15.499,15.494,15.498
201906211308,15.498,15.499,15.498,15.499
201906211309,15.499,15.499,15.499,15.499
201906211310,15.499,15.504,15.498,15.499
201906211311,15.499,15.504,15.499,15.5
201906211312,15.5,15.502,15.498,15.498
201906211313,15.498,15.499,15.493,15.497
201906211314,15.497,15.497,15.494,15.495
201906211315,15.495,15.495,15.491,15.495
201906211316,15.495,15.5,15.495,15.5
201906211317,15.5,15.5,15.496,15.499
201906211318,15.499,15.5,15.498,15.499
201906211319,15.499,15.499,15.499,15.499
201906211320,15.499,15.499,15.494,15.494
201906211321,15.494,15.5,15.494,15.5
201906211322,15.5,15.505,15.498,15.504
201906211323,15.504,15.504,15.499,15.499
201906211324,15.499,15.501,15.499,15.499
201906211325,15.499,15.499,15.494,15.495
201906211326,15.495,15.495,15.494,15.494
201906211327,15.494,15.494,15.493,15.494
201906211328,15.494,15.494,15.489,15.489
201906211329,15.489,15.489,15.488,15.489
201906211330,15.489,15.493,15.489,15.493
201906211331,15.493,15.497,15.493,15.494
201906211332,15.494,15.494,15.483,15.484
201906211333,15.484,15.485,15.479,15.479
201906211334,15.479,15.482,15.479,15.479
201906211335,15.479,15.48,15.474,15.476
201906211336,15.476,15.478,15.473,15.473
201906211337,15.473,15.478,15.473,15.478
201906211338,15.478,15.478,15.475,15.478
201906211339,15.478,15.478,15.473,15.475
201906211340,15.475,15.478,15.475,15.478
201906211341,15.478,15.478,15.476,15.478
201906211342,15.478,15.478,15.473,15.474
201906211343,15.475,15.478,15.475,15.478
201906211344,15.479,15.479,15.474,15.478
201906211345,15.478,15.478,15.476,15.477
201906211346,15.477,15.477,15.473,15.474
201906211347,15.474,15.474,15.469,15.469
201906211348,15.469,15.469,15.468,15.469
201906211349,15.469,15.475,15.464,15.475
201906211350,15.48,15.48,15.469,15.474
201906211351,15.474,15.474,15.464,15.47
201906211352,15.47,15.47,15.464,15.468
201906211353,15.468,15.469,15.464,15.469
201906211354,15.469,15.47,15.469,15.47
201906211355,15.47,15.472,15.469,15.469
201906211356,15.469,15.469,15.464,15.468
201906211357,15.466,15.468,15.464,15.466
201906211358,15.466,15.468,15.464,15.468
201906211359,15.468,15.469,15.468,15.469
201906211400,15.469,15.474,15.469,15.474
201906211401,15.474,15.479,15.473,15.479
201906211402,15.479,15.48,15.477,15.478
201906211403,15.478,15.48,15.474,15.475
201906211404,15.475,15.475,15.474,15.475
201906211405,15.475,15.475,15.474,15.475
201906211406,15.475,15.476,15.474,15.476
201906211407,15.476,15.476,15.469,15.474
201906211408,15.474,15.475,15.474,15.475
201906211409,15.474,15.479,15.474,15.479
201906211410,15.479,15.484,15.478,15.484
201906211411,15.484,15.49,15.484,15.489
201906211412,15.489,15.491,15.485,15.489
201906211413,15.489,15.489,15.485,15.489
201906211414,15.489,15.49,15.486,15.486
201906211415,15.486,15.487,15.484,15.484
201906211416,15.484,15.485,15.484,15.485
201906211417,15.484,15.485,15.48,15.48
201906211418,15.48,15.481,15.48,15.48
201906211419,15.48,15.48,15.48,15.48
201906211420,15.48,15.484,15.479,15.479
201906211421,15.479,15.48,15.475,15.475
201906211422,15.475,15.481,15.475,15.48
201906211423,15.48,15.48,15.48,15.48
201906211424,15.48,15.484,15.48,15.484
201906211425,15.484,15.484,15.48,15.481
201906211426,15.48,15.484,15.48,15.48
201906211427,15.48,15.482,15.48,15.481
201906211428,15.481,15.485,15.481,15.485
201906211429,15.485,15.485,15.481,15.481
201906211430,15.481,15.481,15.47,15.472
201906211431,15.472,15.475,15.471,15.474
201906211432,15.474,15.474,15.467,15.467
201906211433,15.467,15.471,15.466,15.469
201906211434,15.469,15.471,15.469,15.47
201906211435,15.47,15.471,15.466,15.471
201906211436,15.471,15.474,15.471,15.471
201906211437,15.471,15.471,15.463,15.463
201906211438,15.463,15.465,15.458,15.46
201906211439,15.46,15.465,15.46,15.463
201906211440,15.463,15.464,15.46,15.462
201906211441,15.462,15.462,15.446,15.449
201906211442,15.45,15.452,15.442,15.442
201906211443,15.443,15.445,15.433,15.433
201906211444,15.434,15.445,15.43,15.442
201906211445,15.441,15.445,15.438,15.443
201906211446,15.444,15.446,15.44,15.441
201906211447,15.441,15.445,15.438,15.445
201906211448,15.445,15.445,15.434,15.435
201906211449,15.435,15.44,15.434,15.436
201906211450,15.436,15.438,15.427,15.427
201906211451,15.427,15.431,15.426,15.429
201906211452,15.43,15.43,15.425,15.425
201906211453,15.425,15.425,15.413,15.414
201906211454,15.414,15.415,15.408,15.409
201906211455,15.406,15.407,15.389,15.392
201906211456,15.392,15.396,15.388,15.391
201906211457,15.392,15.393,15.384,15.384
201906211458,15.384,15.389,15.381,15.386
201906211459,15.386,15.387,15.374,15.377
201906211500,15.377,15.389,15.377,15.382
201906211501,15.382,15.385,15.379,15.382
201906211502,15.382,15.383,15.356,15.359
201906211503,15.362,15.38,15.361,15.365
201906211504,15.363,15.383,15.363,15.383
201906211505,15.383,15.386,15.369,15.369
201906211506,15.369,15.369,15.358,15.365
201906211507,15.365,15.37,15.348,15.367
201906211508,15.365,15.367,15.357,15.362
201906211509,15.362,15.37,15.36,15.37
201906211510,15.37,15.37,15.361,15.363
201906211511,15.363,15.365,15.357,15.362
201906211512,15.363,15.37,15.358,15.369
201906211513,15.369,15.373,15.365,15.371
201906211514,15.373,15.38,15.369,15.379
201906211515,15.379,15.379,15.37,15.37
201906211516,15.37,15.383,15.369,15.378
201906211517,15.378,15.381,15.361,15.364
201906211518,15.361,15.365,15.35,15.358
201906211519,15.358,15.363,15.35,15.351
201906211520,15.35,15.362,15.35,15.36
201906211521,15.36,15.36,15.349,15.352
201906211522,15.352,15.358,15.347,15.357
201906211523,15.358,15.359,15.343,15.348
201906211524,15.348,15.349,15.342,15.345
201906211525,15.345,15.358,15.345,15.358
201906211526,15.357,15.358,15.342,15.353
201906211527,15.351,15.358,15.35,15.358
201906211528,15.357,15.357,15.346,15.347
201906211529,15.348,15.35,15.343,15.343
201906211530,15.343,15.345,15.335,15.335
201906211531,15.335,15.341,15.335,15.338
201906211532,15.338,15.348,15.336,15.348
201906211533,15.347,15.351,15.346,15.348
201906211534,15.348,15.352,15.344,15.351
201906211535,15.351,15.351,15.333,15.333
201906211536,15.333,15.343,15.333,15.336
201906211537,15.336,15.347,15.336,15.339
201906211538,15.338,15.34,15.32,15.32
201906211539,15.32,15.324,15.305,15.306
201906211540,15.306,15.32,15.306,15.317
201906211541,15.317,15.318,15.312,15.312
201906211542,15.312,15.312,15.304,15.304
201906211543,15.304,15.31,15.304,15.31
201906211544,15.31,15.31,15.305,15.307
201906211545,15.306,15.323,15.306,15.322
201906211546,15.322,15.327,15.32,15.325
201906211547,15.325,15.336,15.325,15.332
201906211548,15.332,15.337,15.33,15.337
201906211549,15.337,15.339,15.334,15.337
201906211550,15.337,15.338,15.326,15.331
201906211551,15.331,15.334,15.33,15.334
201906211552,15.334,15.334,15.322,15.324
201906211553,15.324,15.335,15.324,15.334
201906211554,15.334,15.336,15.331,15.334
201906211555,15.334,15.337,15.334,15.336
201906211556,15.336,15.337,15.332,15.334
201906211557,15.334,15.34,15.334,15.337
201906211558,15.339,15.343,15.336,15.339
201906211559,15.339,15.34,15.33,15.331
201906211600,15.331,15.333,15.313,15.328
201906211601,15.328,15.338,15.328,15.333
201906211602,15.333,15.338,15.332,15.338
201906211603,15.337,15.346,15.337,15.343
201906211604,15.343,15.343,15.323,15.326
201906211605,15.325,15.328,15.321,15.328
201906211606,15.328,15.338,15.328,15.334
201906211607,15.334,15.341,15.332,15.332
201906211608,15.332,15.333,15.327,15.33
201906211609,15.33,15.33,15.312,15.315
201906211610,15.314,15.316,15.308,15.312
201906211611,15.312,15.314,15.31,15.313
201906211612,15.313,15.318,15.313,15.318
201906211613,15.318,15.323,15.318,15.319
201906211614,15.319,15.323,15.314,15.319
201906211615,15.319,15.337,15.317,15.329
201906211616,15.328,15.329,15.317,15.319
201906211617,15.319,15.32,15.309,15.319
201906211618,15.32,15.322,15.309,15.32
201906211619,15.319,15.322,15.311,15.313
201906211620,15.312,15.317,15.302,15.303
201906211621,15.303,15.323,15.303,15.322
201906211622,15.323,15.327,15.317,15.32
201906211623,15.319,15.323,15.304,15.304
201906211624,15.304,15.313,15.3,15.311
201906211625,15.311,15.313,15.305,15.312
201906211626,15.311,15.324,15.311,15.321
201906211627,15.32,15.321,15.315,15.316
201906211628,15.316,15.32,15.315,15.319
201906211629,15.319,15.323,15.31,15.31
201906211630,15.311,15.324,15.304,15.308
201906211631,15.309,15.312,15.302,15.31
201906211632,15.309,15.318,15.309,15.318
201906211633,15.318,15.319,15.294,15.294
201906211634,15.294,15.301,15.288,15.3
201906211635,15.3,15.304,15.277,15.29
201906211636,15.29,15.299,15.287,15.297
201906211637,15.297,15.31,15.293,15.304
201906211638,15.303,15.309,15.303,15.305
201906211639,15.305,15.306,15.294,15.295
201906211640,15.295,15.295,15.277,15.277
201906211641,15.277,15.28,15.27,15.275
201906211642,15.275,15.275,15.267,15.272
201906211643,15.271,15.275,15.255,15.26
201906211644,15.26,15.26,15.251,15.251
201906211645,15.254,15.255,15.224,15.227
201906211646,15.227,15.236,15.221,15.226
201906211647,15.227,15.232,15.221,15.222
201906211648,15.223,15.227,15.217,15.221
201906211649,15.221,15.221,15.212,15.218
201906211650,15.219,15.219,15.184,15.189
201906211651,15.188,15.191,15.166,15.172
201906211652,15.172,15.183,15.159,15.18
201906211653,15.18,15.201,15.176,15.197
201906211654,15.197,15.205,15.185,15.186
201906211655,15.187,15.187,15.164,15.166
201906211656,15.166,15.182,15.166,15.182
201906211657,15.182,15.191,15.178,15.191
201906211658,15.191,15.191,15.178,15.182
201906211659,15.182,15.188,15.181,15.188
201906211700,15.188,15.188,15.177,15.178
201906211701,15.178,15.183,15.177,15.182
201906211702,15.183,15.183,15.177,15.181
201906211703,15.181,15.184,15.181,15.183
201906211704,15.183,15.183,15.174,15.177
201906211705,15.177,15.18,15.157,15.162
201906211706,15.162,15.188,15.162,15.188
201906211707,15.188,15.195,15.184,15.185
201906211708,15.185,15.195,15.185,15.19
201906211709,15.19,15.204,15.19,15.204
201906211710,15.204,15.209,15.2,15.204
201906211711,15.204,15.227,15.203,15.227
201906211712,15.226,15.234,15.219,15.225
201906211713,15.225,15.231,15.221,15.225
201906211714,15.225,15.23,15.223,15.226
201906211715,15.226,15.245,15.226,15.245
201906211716,15.245,15.257,15.242,15.244
201906211717,15.244,15.254,15.243,15.252
201906211718,15.252,15.254,15.247,15.253
201906211719,15.255,15.255,15.245,15.246
201906211720,15.245,15.261,15.244,15.258
201906211721,15.258,15.275,15.257,15.275
201906211722,15.272,15.274,15.265,15.271
201906211723,15.27,15.282,15.266,15.281
201906211724,15.281,15.287,15.275,15.284
201906211725,15.284,15.286,15.278,15.279
201906211726,15.279,15.281,15.27,15.271
201906211727,15.271,15.281,15.271,15.281
201906211728,15.281,15.281,15.271,15.271
201906211729,15.271,15.273,15.267,15.267
201906211730,15.267,15.269,15.261,15.262
201906211731,15.262,15.262,15.257,15.257
201906211732,15.257,15.264,15.256,15.262
201906211733,15.262,15.263,15.257,15.262
201906211734,15.262,15.263,15.256,15.26
201906211735,15.258,15.258,15.255,15.257
201906211736,15.255,15.255,15.24,15.246
201906211737,15.245,15.248,15.239,15.242
201906211738,15.242,15.252,15.241,15.252
201906211739,15.252,15.26,15.25,15.26
201906211740,15.26,15.267,15.26,15.267
201906211741,15.267,15.279,15.264,15.277
201906211742,15.277,15.285,15.277,15.284
201906211743,15.284,15.29,15.282,15.288
201906211744,15.288,15.288,15.277,15.281
201906211745,15.279,15.297,15.279,15.296
201906211746,15.296,15.296,15.288,15.292
201906211747,15.292,15.293,15.288,15.29
201906211748,15.291,15.296,15.29,15.29
201906211749,15.29,15.291,15.281,15.283
201906211750,15.283,15.291,15.28,15.281
201906211751,15.281,15.284,15.278,15.282
201906211752,15.282,15.282,15.276,15.282
201906211753,15.282,15.285,15.277,15.282
201906211754,15.282,15.288,15.281,15.282
201906211755,15.282,15.292,15.282,15.292
201906211756,15.292,15.295,15.29,15.29
201906211757,15.29,15.292,15.29,15.29
201906211758,15.29,15.3,15.289,15.296
201906211759,15.296,15.297,15.291,15.297
201906211800,15.297,15.297,15.28,15.283
201906211801,15.284,15.284,15.28,15.281
201906211802,15.281,15.282,15.276,15.277
201906211803,15.277,15.279,15.271,15.272
201906211804,15.272,15.272,15.265,15.266
201906211805,15.265,15.267,15.264,15.266
201906211806,15.266,15.267,15.261,15.261
201906211807,15.26,15.261,15.26,15.261
201906211808,15.261,15.262,15.256,15.258
201906211809,15.257,15.266,15.257,15.262
201906211810,15.262,15.266,15.261,15.262
201906211811,15.262,15.262,15.251,15.252
201906211812,15.252,15.256,15.25,15.256
201906211813,15.256,15.257,15.25,15.252
201906211814,15.252,15.256,15.251,15.256
201906211815,15.256,15.261,15.252,15.261
201906211816,15.261,15.268,15.261,15.267
201906211817,15.266,15.267,15.263,15.266
201906211818,15.266,15.276,15.266,15.276
201906211819,15.276,15.276,15.268,15.272
201906211820,15.272,15.272,15.266,15.266
201906211821,15.266,15.268,15.266,15.268
201906211822,15.268,15.268,15.267,15.268
201906211823,15.268,15.268,15.266,15.266
201906211824,15.266,15.266,15.265,15.265
201906211825,15.264,15.266,15.262,15.262
201906211826,15.262,15.266,15.262,15.266
201906211827,15.265,15.269,15.264,15.265
201906211828,15.265,15.27,15.265,15.265
201906211829,15.265,15.266,15.264,15.265
201906211830,15.265,15.269,15.262,15.265
201906211831,15.266,15.268,15.265,15.265
201906211832,15.264,15.266,15.264,15.265
201906211833,15.265,15.27,15.265,15.27
201906211834,15.27,15.275,15.266,15.271
201906211835,15.271,15.271,15.268,15.269
201906211836,15.269,15.269,15.259,15.26
201906211837,15.26,15.26,15.257,15.259
201906211838,15.259,15.264,15.259,15.26
201906211839,15.26,15.26,15.259,15.26
201906211840,15.26,15.26,15.256,15.259
201906211841,15.259,15.259,15.257,15.257
201906211842,15.257,15.259,15.256,15.257
201906211843,15.257,15.257,15.245,15.248
201906211844,15.248,15.255,15.248,15.255
201906211845,15.255,15.261,15.251,15.259
201906211846,15.259,15.262,15.259,15.261
201906211847,15.261,15.264,15.26,15.264
201906211848,15.264,15.265,15.262,15.265
201906211849,15.265,15.265,15.255,15.262
201906211850,15.262,15.264,15.257,15.262
201906211851,15.262,15.272,15.262,15.271
201906211852,15.271,15.271,15.268,15.268
201906211853,15.268,15.268,15.266,15.267
201906211854,15.267,15.273,15.266,15.273
201906211855,15.273,15.273,15.268,15.268
201906211856,15.268,15.275,15.268,15.271
201906211857,15.271,15.272,15.269,15.271
201906211858,15.271,15.275,15.27,15.271
201906211859,15.271,15.274,15.267,15.269
201906211900,15.268,15.269,15.262,15.263
201906211901,15.262,15.264,15.26,15.261
201906211902,15.261,15.265,15.256,15.256
201906211903,15.256,15.26,15.256,15.259
201906211904,15.26,15.26,15.253,15.254
201906211905,15.254,15.266,15.254,15.265
201906211906,15.263,15.268,15.262,15.264
201906211907,15.263,15.263,15.256,15.26
201906211908,15.26,15.263,15.257,15.263
201906211909,15.263,15.265,15.259,15.262
201906211910,15.262,15.262,15.257,15.258
201906211911,15.258,15.26,15.257,15.257
201906211912,15.257,15.26,15.255,15.26
201906211913,15.26,15.26,15.255,15.259
201906211914,15.258,15.258,15.256,15.258
201906211915,15.258,15.258,15.254,15.258
201906211916,15.258,15.265,15.257,15.263
201906211917,15.263,15.268,15.262,15.267
201906211918,15.267,15.27,15.265,15.27
201906211919,15.27,15.274,15.269,15.273
201906211920,15.273,15.274,15.267,15.274
201906211921,15.274,15.274,15.27,15.273
201906211922,15.273,15.274,15.27,15.271
201906211923,15.271,15.275,15.271,15.274
201906211924,15.273,15.279,15.272,15.279
201906211925,15.279,15.285,15.275,15.284
201906211926,15.284,15.286,15.284,15.286
201906211927,15.285,15.306,15.284,15.305
201906211928,15.305,15.309,15.294,15.296
201906211929,15.296,15.296,15.285,15.288
201906211930,15.288,15.288,15.285,15.288
201906211931,15.288,15.299,15.286,15.295
201906211932,15.295,15.295,15.289,15.294
201906211933,15.295,15.303,15.293,15.302
201906211934,15.302,15.319,15.299,15.319
201906211935,15.319,15.325,15.315,15.322
201906211936,15.321,15.338,15.317,15.329
201906211937,15.331,15.36,15.329,15.359
201906211938,15.359,15.386,15.357,15.367
201906211939,15.366,15.366,15.335,15.339
201906211940,15.339,15.36,15.335,15.36
201906211941,15.36,15.36,15.343,15.345
201906211942,15.345,15.347,15.336,15.337
201906211943,15.337,15.339,15.329,15.338
201906211944,15.335,15.341,15.326,15.33
201906211945,15.33,15.33,15.322,15.326
201906211946,15.327,15.348,15.327,15.344
201906211947,15.344,15.344,15.33,15.339
201906211948,15.339,15.339,15.332,15.335
201906211949,15.335,15.337,15.329,15.334
201906211950,15.329,15.331,15.309,15.325
201906211951,15.325,15.328,15.32,15.32
201906211952,15.321,15.321,15.291,15.291
201906211953,15.291,15.321,15.291,15.32
201906211954,15.319,15.319,15.302,15.315
201906211955,15.316,15.316,15.304,15.309
201906211956,15.31,15.311,15.299,15.31
201906211957,15.31,15.313,15.295,15.306
201906211958,15.306,15.306,15.295,15.3
201906211959,15.3,15.301,15.283,15.284
201906212000,15.284,15.295,15.279,15.281
201906212001,15.281,15.293,15.28,15.291
201906212002,15.29,15.299,15.285,15.289
201906212003,15.289,15.295,15.286,15.29
201906212004,15.29,15.29,15.28,15.285
201906212005,15.285,15.285,15.27,15.276
201906212006,15.276,15.285,15.275,15.282
201906212007,15.282,15.285,15.28,15.281
201906212008,15.281,15.286,15.28,15.284
201906212009,15.284,15.287,15.284,15.286
201906212010,15.286,15.292,15.285,15.292
201906212011,15.292,15.292,15.286,15.289
201906212012,15.289,15.291,15.281,15.291
201906212013,15.29,15.291,15.271,15.279
201906212014,15.279,15.286,15.276,15.286
201906212015,15.286,15.287,15.277,15.28
201906212016,15.28,15.281,15.277,15.28
201906212017,15.28,15.281,15.275,15.275
201906212018,15.274,15.275,15.261,15.266
201906212019,15.266,15.27,15.264,15.267
201906212020,15.267,15.275,15.257,15.27
201906212021,15.27,15.275,15.27,15.272
201906212022,15.272,15.278,15.272,15.274
201906212023,15.274,15.276,15.272,15.275
201906212024,15.275,15.275,15.269,15.272
201906212025,15.272,15.274,15.268,15.268
201906212026,15.268,15.274,15.267,15.274
201906212027,15.274,15.274,15.269,15.269
201906212028,15.269,15.273,15.269,15.271
201906212029,15.271,15.274,15.267,15.274
201906212030,15.274,15.277,15.271,15.276
201906212031,15.276,15.282,15.274,15.274
201906212032,15.274,15.279,15.274,15.279
201906212033,15.28,15.31,15.275,15.31
201906212034,15.309,15.312,15.301,15.302
201906212035,15.303,15.314,15.301,15.313
201906212036,15.313,15.319,15.311,15.316
201906212037,15.316,15.323,15.315,15.322
201906212038,15.322,15.327,15.322,15.325
201906212039,15.322,15.322,15.314,15.316
201906212040,15.316,15.326,15.315,15.326
201906212041,15.326,15.327,15.315,15.317
201906212042,15.317,15.322,15.316,15.317
201906212043,15.317,15.321,15.316,15.319
201906212044,15.318,15.321,15.31,15.31
201906212045,15.31,15.314,15.309,15.311
201906212046,15.311,15.318,15.311,15.317
201906212047,15.317,15.324,15.317,15.323
201906212048,15.323,15.324,15.317,15.317
201906212049,15.317,15.317,15.307,15.311
201906212050,15.311,15.316,15.305,15.315
201906212051,15.315,15.316,15.315,15.316
201906212052,15.316,15.321,15.314,15.321
201906212053,15.321,15.326,15.321,15.322
201906212054,15.322,15.326,15.321,15.326
201906212055,15.326,15.326,15.299,15.302
201906212056,15.302,15.31,15.295,15.307
201906212057,15.307,15.312,15.307,15.309
201906212058,15.307,15.313,15.307,15.312
201906212059,15.312,15.315,15.311,15.312
201906212100,15.312,15.327,15.312,15.323
201906212101,15.323,15.323,15.295,15.296
201906212102,15.295,15.297,15.29,15.292
201906212103,15.291,15.296,15.286,15.287
201906212104,15.288,15.296,15.285,15.286
201906212105,15.285,15.291,15.284,15.287
201906212106,15.287,15.29,15.283,15.29
201906212107,15.29,15.312,15.29,15.307
201906212108,15.307,15.308,15.291,15.294
201906212109,15.294,15.296,15.292,15.295
201906212110,15.295,15.297,15.294,15.295
201906212111,15.295,15.302,15.292,15.302
201906212112,15.304,15.305,15.301,15.301
201906212113,15.301,15.303,15.295,15.295
201906212114,15.295,15.3,15.293,15.298
201906212115,15.298,15.315,15.296,15.311
201906212116,15.311,15.319,15.311,15.317
201906212117,15.317,15.317,15.312,15.316
201906212118,15.316,15.322,15.316,15.321
201906212119,15.321,15.321,15.317,15.32
201906212120,15.32,15.326,15.32,15.326
201906212121,15.325,15.326,15.322,15.325
201906212122,15.325,15.326,15.323,15.325
201906212123,15.325,15.331,15.325,15.33
201906212124,15.33,15.347,15.33,15.346
201906212125,15.346,15.363,15.345,15.355
201906212126,15.355,15.359,15.348,15.354
201906212127,15.355,15.358,15.352,15.352
201906212128,15.352,15.352,15.337,15.342
201906212129,15.342,15.346,15.336,15.346
201906212130,15.346,15.346,15.316,15.316
201906212131,15.316,15.321,15.31,15.311
201906212132,15.311,15.317,15.307,15.31
201906212133,15.31,15.318,15.306,15.317
201906212134,15.318,15.325,15.316,15.321
201906212135,15.321,15.329,15.317,15.327
201906212136,15.327,15.345,15.326,15.341
201906212137,15.341,15.355,15.337,15.353
201906212138,15.355,15.356,15.339,15.351
201906212139,15.351,15.356,15.345,15.356
201906212140,15.356,15.356,15.341,15.341
201906212141,15.341,15.356,15.337,15.347
201906212142,15.347,15.359,15.342,15.351
201906212143,15.351,15.356,15.35,15.351
201906212144,15.351,15.351,15.345,15.346
201906212145,15.346,15.347,15.339,15.339
201906212146,15.339,15.34,15.328,15.329
201906212147,15.329,15.336,15.325,15.327
201906212148,15.327,15.331,15.326,15.327
201906212149,15.327,15.34,15.322,15.337
201906212150,15.338,15.339,15.331,15.337
201906212151,15.337,15.349,15.337,15.344
201906212152,15.344,15.357,15.342,15.35
201906212153,15.35,15.35,15.341,15.349
201906212154,15.349,15.35,15.345,15.35
201906212155,15.35,15.361,15.345,15.35
201906212156,15.35,15.355,15.345,15.355
201906212157,15.355,15.362,15.353,15.36
201906212158,15.361,15.367,15.358,15.358
201906212159,15.358,15.359,15.346,15.35
201906212200,15.35,15.355,15.345,15.35
201906212201,15.352,15.367,15.352,15.355
201906212202,15.355,15.359,15.349,15.356
201906212203,15.356,15.365,15.354,15.359
201906212204,15.359,15.359,15.346,15.349
201906212205,15.349,15.358,15.345,15.353
201906212206,15.354,15.359,15.349,15.357
201906212207,15.357,15.359,15.351,15.352
201906212208,15.352,15.354,15.345,15.345
201906212209,15.345,15.359,15.344,15.358
201906212210,15.358,15.358,15.348,15.354
201906212211,15.354,15.354,15.349,15.352
201906212212,15.352,15.354,15.344,15.349
201906212213,15.349,15.351,15.341,15.341
201906212214,15.341,15.343,15.323,15.324
201906212215,15.324,15.335,15.324,15.33
201906212216,15.334,15.339,15.334,15.335
201906212217,15.335,15.336,15.326,15.326
201906212218,15.326,15.339,15.326,15.334
201906212219,15.334,15.335,15.331,15.334
201906212220,15.335,15.339,15.331,15.331
201906212221,15.331,15.335,15.325,15.33
201906212222,15.33,15.339,15.329,15.33
201906212223,15.33,15.331,15.325,15.33
201906212224,15.33,15.337,15.326,15.335
201906212225,15.335,15.337,15.331,15.337
201906212226,15.337,15.339,15.335,15.337
201906212227,15.336,15.34,15.335,15.34
201906212228,15.34,15.341,15.331,15.331
201906212229,15.331,15.334,15.326,15.326
201906212230,15.326,15.341,15.325,15.341
201906212231,15.341,15.347,15.339,15.342
201906212232,15.342,15.347,15.341,15.347
201906212233,15.347,15.353,15.346,15.351
201906212234,15.35,15.352,15.342,15.346
201906212235,15.346,15.347,15.342,15.346
201906212236,15.346,15.353,15.346,15.352
201906212237,15.352,15.357,15.352,15.356
201906212238,15.356,15.359,15.345,15.347
201906212239,15.347,15.356,15.346,15.355
201906212240,15.355,15.36,15.355,15.356
201906212241,15.356,15.363,15.355,15.361
201906212242,15.361,15.361,15.353,15.353
201906212243,15.353,15.363,15.353,15.359
201906212244,15.358,15.359,15.345,15.349
201906212245,15.349,15.368,15.347,15.362
201906212246,15.364,15.367,15.351,15.357
201906212247,15.358,15.366,15.355,15.361
201906212248,15.36,15.361,15.355,15.355
201906212249,15.355,15.362,15.353,15.361
201906212250,15.361,15.366,15.355,15.361
201906212251,15.361,15.361,15.348,15.348
201906212252,15.347,15.347,15.34,15.341
201906212253,15.341,15.344,15.324,15.324
201906212254,15.324,15.34,15.321,15.34
201906212255,15.34,15.344,15.333,15.344
201906212256,15.344,15.344,15.334,15.335
201906212257,15.335,15.342,15.335,15.337
201906212258,15.337,15.337,15.328,15.33
201906212259,15.33,15.33,15.319,15.32
201906212300,15.321,15.337,15.32,15.332
201906212301,15.332,15.336,15.322,15.328
201906212302,15.327,15.337,15.327,15.328
201906212303,15.328,15.338,15.326,15.331
201906212304,15.332,15.336,15.31,15.319
201906212305,15.319,15.324,15.316,15.317
201906212306,15.317,15.331,15.308,15.331
201906212307,15.331,15.331,15.317,15.319
201906212308,15.319,15.32,15.304,15.313
201906212309,15.314,15.316,15.295,15.296
201906212310,15.296,15.297,15.274,15.283
201906212311,15.283,15.294,15.283,15.29
201906212312,15.289,15.29,15.276,15.282
201906212313,15.282,15.289,15.277,15.278
201906212314,15.278,15.278,15.257,15.257
201906212315,15.257,15.266,15.256,15.262
201906212316,15.262,15.266,15.248,15.248
201906212317,15.248,15.249,15.21,15.212
201906212318,15.213,15.223,15.206,15.212
201906212319,15.212,15.239,15.212,15.238
201906212320,15.238,15.238,15.218,15.231
201906212321,15.231,15.245,15.23,15.243
201906212322,15.243,15.252,15.24,15.25
201906212323,15.251,15.258,15.245,15.257
201906212324,15.257,15.258,15.25,15.258
201906212325,15.258,15.259,15.25,15.252
201906212326,15.252,15.269,15.252,15.267
201906212327,15.267,15.269,15.262,15.264
201906212328,15.264,15.264,15.257,15.261
201906212329,15.261,15.265,15.254,15.264
201906212330,15.264,15.279,15.264,15.275
201906212331,15.275,15.276,15.265,15.274
201906212332,15.274,15.275,15.265,15.266
201906212333,15.267,15.269,15.261,15.263
201906212334,15.263,15.278,15.262,15.272
201906212335,15.272,15.272,15.262,15.265
201906212336,15.265,15.275,15.264,15.272
201906212337,15.272,15.275,15.266,15.267
201906212338,15.267,15.27,15.258,15.262
201906212339,15.26,15.262,15.256,15.262
201906212340,15.262,15.265,15.259,15.264
201906212341,15.265,15.268,15.257,15.259
201906212342,15.259,15.261,15.256,15.256
201906212343,15.256,15.256,15.246,15.248
201906212344,15.247,15.25,15.242,15.245
201906212345,15.245,15.254,15.245,15.254
201906212346,15.254,15.258,15.25,15.254
201906212347,15.254,15.264,15.253,15.261
201906212348,15.261,15.27,15.256,15.265
201906212349,15.265,15.276,15.265,15.271
201906212350,15.271,15.278,15.27,15.276
201906212351,15.276,15.282,15.275,15.28
201906212352,15.28,15.28,15.27,15.27
201906212353,15.27,15.279,15.263,15.278
201906212354,15.278,15.278,15.269,15.272
201906212355,15.272,15.275,15.269,15.269
201906212356,15.269,15.274,15.266,15.269
201906212357,15.269,15.276,15.267,15.276
201906212358,15.276,15.279,15.271,15.273
201906212359,15.271,15.274,15.269,15.271
201906220000,15.271,15.272,15.26,15.261
201906220001,15.261,15.262,15.241,15.244
201906220002,15.244,15.252,15.244,15.246
201906220003,15.246,15.249,15.239,15.246
201906220004,15.246,15.25,15.244,15.249
201906220005,15.249,15.267,15.248,15.265
201906220006,15.265,15.267,15.261,15.263
201906220007,15.263,15.271,15.263,15.27
201906220008,15.269,15.273,15.256,15.257
201906220009,15.257,15.265,15.257,15.258
201906220010,15.257,15.264,15.256,15.258
201906220011,15.258,15.267,15.258,15.265
201906220012,15.265,15.266,15.259,15.264
201906220013,15.262,15.265,15.259,15.261
201906220014,15.261,15.266,15.26,15.262
201906220015,15.262,15.265,15.259,15.264
201906220016,15.264,15.265,15.261,15.263
201906220017,15.263,15.269,15.263,15.269
201906220018,15.266,15.269,15.265,15.266
201906220019,15.265,15.266,15.263,15.265
201906220020,15.265,15.27,15.263,15.266
201906220021,15.266,15.286,15.266,15.286
201906220022,15.286,15.291,15.275,15.283
201906220023,15.281,15.287,15.279,15.285
201906220024,15.285,15.292,15.285,15.292
201906220025,15.293,15.302,15.292,15.296
201906220026,15.296,15.302,15.294,15.301
201906220027,15.301,15.306,15.293,15.294
201906220028,15.294,15.3,15.294,15.297
201906220029,15.297,15.298,15.291,15.296
201906220030,15.296,15.296,15.29,15.295
201906220031,15.295,15.296,15.292,15.294
201906220032,15.292,15.295,15.29,15.292
201906220033,15.291,15.291,15.284,15.288
201906220034,15.287,15.289,15.281,15.286
201906220035,15.286,15.286,15.28,15.28
201906220036,15.28,15.28,15.272,15.273
201906220037,15.273,15.277,15.272,15.276
201906220038,15.276,15.277,15.272,15.277
201906220039,15.277,15.279,15.275,15.279
201906220040,15.278,15.281,15.277,15.279
201906220041,15.279,15.281,15.279,15.279
201906220042,15.279,15.284,15.279,15.283
201906220043,15.283,15.289,15.283,15.286
201906220044,15.286,15.286,15.283,15.284
201906220045,15.283,15.301,15.283,15.301
201906220046,15.301,15.301,15.298,15.298
201906220047,15.298,15.301,15.298,15.3
201906220048,15.3,15.311,15.299,15.311
201906220049,15.311,15.311,15.304,15.311
201906220050,15.311,15.311,15.304,15.308
201906220051,15.31,15.315,15.305,15.309
201906220052,15.309,15.31,15.301,15.301
201906220053,15.303,15.304,15.295,15.298
201906220054,15.298,15.301,15.297,15.3
201906220055,15.3,15.3,15.295,15.298
201906220056,15.296,15.301,15.295,15.295
201906220057,15.295,15.295,15.293,15.293
201906220058,15.293,15.298,15.293,15.297
201906220059,15.298,15.3,15.293,15.299
201906220100,15.299,15.3,15.295,15.3
201906220101,15.3,15.301,15.296,15.298
201906220102,15.298,15.301,15.295,15.301
201906220103,15.301,15.301,15.295,15.3
201906220104,15.3,15.304,15.3,15.301
201906220105,15.301,15.302,15.299,15.301
201906220106,15.3,15.3,15.295,15.296
201906220107,15.296,15.3,15.29,15.3
201906220108,15.3,15.301,15.296,15.3
201906220109,15.3,15.302,15.296,15.299
201906220110,15.299,15.299,15.291,15.291
201906220111,15.291,15.292,15.291,15.291
201906220112,15.291,15.291,15.285,15.286
201906220113,15.286,15.29,15.281,15.29
201906220114,15.29,15.29,15.285,15.286
201906220115,15.286,15.299,15.286,15.299
201906220116,15.299,15.299,15.296,15.296
201906220117,15.296,15.296,15.285,15.285
201906220118,15.285,15.285,15.279,15.28
201906220119,15.28,15.282,15.279,15.28
201906220120,15.28,15.281,15.276,15.277
201906220121,15.277,15.279,15.274,15.274
201906220122,15.274,15.276,15.271,15.276
201906220123,15.276,15.277,15.269,15.269
201906220124,15.269,15.276,15.269,15.27
201906220125,15.27,15.272,15.269,15.272
201906220126,15.272,15.273,15.27,15.27
201906220127,15.271,15.275,15.26,15.261
201906220128,15.261,15.262,15.255,15.257
201906220129,15.257,15.262,15.257,15.262
201906220130,15.262,15.262,15.256,15.256
201906220131,15.256,15.261,15.255,15.261
201906220132,15.261,15.266,15.261,15.266
201906220133,15.266,15.27,15.265,15.27
201906220134,15.27,15.27,15.266,15.266
201906220135,15.266,15.266,15.261,15.262
201906220136,15.262,15.262,15.254,15.259
201906220137,15.257,15.26,15.249,15.252
201906220138,15.252,15.255,15.25,15.251
201906220139,15.251,15.251,15.241,15.245
201906220140,15.245,15.247,15.242,15.246
201906220141,15.246,15.247,15.243,15.247
201906220142,15.247,15.247,15.244,15.245
201906220143,15.245,15.246,15.235,15.24
201906220144,15.24,15.245,15.24,15.245
201906220145,15.245,15.252,15.244,15.251
201906220146,15.251,15.251,15.247,15.251
201906220147,15.251,15.265,15.251,15.264
201906220148,15.265,15.266,15.26,15.26
201906220149,15.261,15.264,15.26,15.26
201906220150,15.26,15.265,15.26,15.265
201906220151,15.265,15.266,15.264,15.265
201906220152,15.265,15.267,15.264,15.265
201906220153,15.265,15.27,15.265,15.265
201906220154,15.265,15.269,15.264,15.265
201906220155,15.265,15.269,15.263,15.269
201906220156,15.269,15.27,15.268,15.27
201906220157,15.27,15.271,15.266,15.266
201906220158,15.269,15.272,15.269,15.27
201906220159,15.27,15.274,15.266,15.266
201906220200,15.266,15.27,15.264,15.264
201906220201,15.264,15.271,15.264,15.269
201906220202,15.269,15.282,15.268,15.282
201906220203,15.282,15.284,15.279,15.279
201906220204,15.279,15.284,15.279,15.284
201906220205,15.283,15.288,15.28,15.281
201906220206,15.284,15.285,15.276,15.279
201906220207,15.279,15.282,15.276,15.276
201906220208,15.276,15.283,15.276,15.281
201906220209,15.28,15.284,15.28,15.28
201906220210,15.28,15.289,15.28,15.288
201906220211,15.288,15.292,15.287,15.29
201906220212,15.29,15.291,15.287,15.291
201906220213,15.291,15.293,15.29,15.29
201906220214,15.29,15.296,15.29,15.296
201906220215,15.296,15.301,15.293,15.301
201906220216,15.301,15.309,15.3,15.307
201906220217,15.306,15.306,15.291,15.292
201906220218,15.292,15.299,15.29,15.296
201906220219,15.296,15.299,15.293,15.296
201906220220,15.296,15.296,15.293,15.293
201906220221,15.293,15.3,15.293,15.3
201906220222,15.3,15.305,15.3,15.301
201906220223,15.302,15.305,15.301,15.304
201906220224,15.304,15.304,15.285,15.289
201906220225,15.289,15.301,15.289,15.297
201906220226,15.297,15.299,15.296,15.296
201906220227,15.296,15.299,15.296,15.299
201906220228,15.299,15.3,15.284,15.284
201906220229,15.283,15.287,15.273,15.274
201906220230,15.274,15.284,15.274,15.283
201906220231,15.285,15.285,15.272,15.277
201906220232,15.275,15.279,15.271,15.274
201906220233,15.272,15.282,15.27,15.282
201906220234,15.282,15.287,15.28,15.286
201906220235,15.286,15.292,15.285,15.29
201906220236,15.29,15.29,15.285,15.287
201906220237,15.287,15.289,15.284,15.289
201906220238,15.289,15.294,15.289,15.292
201906220239,15.292,15.294,15.289,15.29
201906220240,15.29,15.291,15.284,15.287
201906220241,15.287,15.291,15.286,15.291
201906220242,15.291,15.291,15.287,15.291
201906220243,15.291,15.291,15.286,15.286
201906220244,15.286,15.29,15.284,15.29
201906220245,15.29,15.291,15.286,15.286
201906220246,15.286,15.29,15.286,15.29
201906220247,15.29,15.29,15.286,15.29
201906220248,15.29,15.291,15.286,15.29
201906220249,15.29,15.291,15.288,15.291
201906220250,15.29,15.291,15.287,15.288
201906220251,15.288,15.291,15.288,15.291
201906220252,15.29,15.293,15.29,15.293
201906220253,15.293,15.294,15.291,15.291
201906220254,15.292,15.294,15.291,15.291
201906220255,15.291,15.293,15.285,15.285
201906220256,15.285,15.293,15.285,15.291
201906220257,15.291,15.291,15.29,15.29
201906220258,15.29,15.291,15.286,15.289
201906220259,15.289,15.291,15.288,15.289
201906220300,15.289,15.291,15.288,15.29
201906220301,15.29,15.291,15.29,15.29
201906220302,15.29,15.294,15.29,15.294
201906220303,15.294,15.299,15.294,15.299
201906220304,15.299,15.299,15.298,15.298
201906220305,15.298,15.304,15.298,15.304
201906220306,15.304,15.305,15.301,15.305
201906220307,15.305,15.305,15.301,15.303
201906220308,15.303,15.305,15.301,15.301
201906220309,15.301,15.303,15.301,15.301
201906220310,15.301,15.302,15.301,15.301
201906220311,15.301,15.305,15.301,15.301
201906220312,15.301,15.302,15.3,15.3
201906220313,15.3,15.305,15.3,15.301
201906220314,15.301,15.305,15.301,15.305
201906220315,15.306,15.306,15.301,15.301
201906220316,15.301,15.304,15.301,15.302
201906220317,15.302,15.305,15.302,15.305
201906220318,15.304,15.304,15.303,15.303
201906220319,15.303,15.304,15.301,15.301
201906220320,15.301,15.302,15.3,15.302
201906220321,15.302,15.302,15.301,15.302
201906220322,15.302,15.304,15.301,15.301
201906220323,15.301,15.301,15.301,15.301
201906220324,15.301,15.301,15.3,15.3
201906220325,15.3,15.301,15.3,15.301
201906220326,15.301,15.302,15.3,15.302
201906220327,15.302,15.303,15.301,15.301
201906220328,15.301,15.306,15.301,15.306
201906220329,15.306,15.306,15.305,15.305
201906220330,15.305,15.306,15.305,15.305
201906220331,15.305,15.306,15.305,15.306
201906220332,15.306,15.31,15.306,15.309
201906220333,15.309,15.31,15.309,15.31
201906220334,15.31,15.31,15.31,15.31
201906220335,15.31,15.311,15.31,15.311
201906220336,15.311,15.313,15.311,15.311
201906220337,15.311,15.311,15.31,15.31
201906220338,15.31,15.312,15.31,15.311
201906220339,15.311,15.311,15.306,15.309
201906220340,15.309,15.311,15.306,15.311
201906220341,15.311,15.316,15.311,15.312
201906220342,15.312,15.316,15.311,15.316
201906220343,15.315,15.32,15.315,15.32
201906220344,15.32,15.321,15.317,15.32
201906220345,15.32,15.32,15.315,15.32
201906220346,15.32,15.32,15.313,15.313
201906220347,15.313,15.315,15.313,15.313
201906220348,15.315,15.317,15.31,15.31
201906220349,15.31,15.314,15.31,15.312
201906220350,15.313,15.314,15.309,15.309
201906220351,15.309,15.314,15.309,15.314
201906220352,15.314,15.314,15.312,15.314
201906220353,15.314,15.314,15.312,15.314
201906220354,15.314,15.317,15.314,15.317
201906220355,15.318,15.318,15.314,15.314
201906220356,15.315,15.32,15.315,15.32
201906220357,15.32,15.32,15.319,15.32
201906220358,15.32,15.32,15.319,15.319
201906220359,15.319,15.32,15.316,15.32
201906220400,15.32,15.322,15.317,15.317
201906220401,15.317,15.317,15.315,15.316
201906220402,15.316,15.316,15.315,15.316
201906220403,15.316,15.316,15.314,15.316
201906220404,15.316,15.319,15.316,15.316
201906220405,15.316,15.319,15.316,15.319
201906220406,15.319,15.324,15.319,15.323
201906220407,15.323,15.323,15.319,15.323
201906220408,15.323,15.324,15.321,15.323
201906220409,15.323,15.323,15.32,15.32
201906220410,15.32,15.321,15.32,15.32
201906220411,15.321,15.324,15.321,15.322
201906220412,15.321,15.324,15.321,15.324
201906220413,15.324,15.324,15.321,15.321
201906220414,15.321,15.321,15.32,15.321
201906220415,15.321,15.324,15.321,15.324
201906220416,15.324,15.324,15.321,15.324
201906220417,15.324,15.324,15.322,15.322
201906220418,15.322,15.322,15.32,15.321
201906220419,15.321,15.322,15.32,15.321
201906220420,15.321,15.326,15.32,15.326
201906220421,15.326,15.327,15.325,15.327
201906220422,15.327,15.328,15.325,15.326
201906220423,15.326,15.331,15.326,15.331
201906220424,15.331,15.331,15.326,15.326
201906220425,15.326,15.334,15.326,15.331
201906220426,15.331,15.335,15.331,15.334
201906220427,15.334,15.336,15.332,15.335
201906220428,15.336,15.34,15.336,15.336
201906220429,15.336,15.337,15.332,15.334
201906220430,15.334,15.334,15.326,15.327
201906220431,15.327,15.331,15.326,15.326
201906220432,15.326,15.33,15.326,15.327
201906220433,15.327,15.332,15.327,15.331
201906220434,15.331,15.335,15.33,15.334
201906220435,15.334,15.336,15.332,15.335
201906220436,15.336,15.339,15.332,15.337
201906220437,15.337,15.337,15.336,15.336
201906220438,15.336,15.341,15.336,15.34
201906220439,15.34,15.34,15.339,15.34
201906220440,15.34,15.341,15.34,15.34
201906220441,15.34,15.34,15.34,15.34
201906220442,15.34,15.341,15.339,15.34
201906220443,15.34,15.342,15.338,15.34
201906220444,15.34,15.34,15.336,15.337
201906220445,15.337,15.337,15.337,15.337
201906220446,15.337,15.337,15.337,15.337
201906220447,15.337,15.34,15.337,15.339
201906220448,15.339,15.341,15.339,15.341
201906220449,15.341,15.341,15.341,15.341
201906220450,15.341,15.341,15.337,15.337
201906220451,15.336,15.337,15.336,15.337
201906220452,15.337,15.337,15.337,15.337
201906220453,15.337,15.339,15.336,15.336
201906220454,15.336,15.336,15.333,15.334
201906220455,15.334,15.336,15.329,15.329
201906220456,15.329,15.33,15.329,15.33
201906220457,15.33,15.33,15.33,15.33
201906220458,15.33,15.332,15.33,15.331
201906220459,15.331,15.331,15.327,15.327
201906220500,15.326,15.326,15.321,15.325
201906220501,15.325,15.326,15.32,15.326
201906220502,15.326,15.33,15.326,15.33
201906220503,15.33,15.33,15.33,15.33
201906220504,15.33,15.33,15.329,15.329
201906220505,15.329,15.33,15.329,15.329
201906220506,15.329,15.329,15.328,15.328
201906220507,15.328,15.329,15.328,15.329
201906220508,15.329,15.329,15.329,15.329
201906220509,15.329,15.329,15.327,15.327
201906220510,15.327,15.33,15.327,15.329
201906220511,15.329,15.329,15.328,15.329
201906220512,15.329,15.329,15.329,15.329
201906220513,15.329,15.329,15.328,15.329
201906220514,15.329,15.33,15.328,15.328
201906220515,15.328,15.329,15.328,15.329
201906220516,15.329,15.329,15.329,15.329
201906220517,15.329,15.329,15.327,15.327
201906220518,15.327,15.327,15.327,15.327
201906220519,15.327,15.329,15.327,15.328
201906220520,15.328,15.329,15.328,15.329
201906220521,15.329,15.33,15.328,15.328
201906220522,15.328,15.33,15.328,15.33
201906220523,15.33,15.33,15.329,15.33
201906220524,15.33,15.33,15.328,15.328
201906220525,15.329,15.329,15.327,15.327
201906220526,15.327,15.327,15.327,15.327
201906220527,15.327,15.327,15.327,15.327
201906220528,15.327,15.327,15.327,15.327
201906220529,15.327,15.327,15.327,15.327
201906220530,15.327,15.336,15.327,15.336
201906220531,15.336,15.336,15.336,15.336
201906220532,15.335,15.336,15.335,15.335
201906220533,15.335,15.335,15.334,15.335
201906220534,15.335,15.335,15.334,15.335
201906220535,15.335,15.336,15.335,15.335
201906220536,15.335,15.336,15.335,15.336
201906220537,15.336,15.336,15.335,15.335
201906220538,15.335,15.335,15.334,15.334
201906220539,15.334,15.335,15.334,15.334
201906220540,15.334,15.334,15.334,15.334
201906220541,15.334,15.335,15.334,15.335
201906220542,15.335,15.335,15.335,15.335
201906220543,15.335,15.335,15.335,15.335
201906220544,15.335,15.336,15.334,15.336
201906220545,15.336,15.337,15.336,15.337
201906220546,15.337,15.337,15.332,15.333
201906220547,15.333,15.334,15.333,15.333
201906220548,15.333,15.333,15.33,15.331
201906220549,15.331,15.337,15.331,15.336
201906220550,15.336,15.337,15.334,15.335
201906220551,15.335,15.337,15.334,15.336
201906220552,15.336,15.336,15.331,15.334
201906220553,15.334,15.334,15.333,15.333
201906220554,15.333,15.333,15.33,15.331
201906220555,15.331,15.331,15.326,15.327
201906220556,15.327,15.33,15.327,15.33
201906220557,15.33,15.331,15.329,15.329
201906220558,15.329,15.329,15.323,15.323
201906220559,15.323,15.33,15.32,15.324
