日時,始値(BID),高値(BID),安値(BID),終値(BID)
201902210800,16.045,16.06,16.045,16.06
201902210801,16.06,16.06,16.056,16.058
201902210802,16.058,16.06,16.058,16.06
201902210803,16.06,16.06,16.058,16.059
201902210804,16.059,16.06,16.059,16.06
201902210805,16.06,16.06,16.059,16.06
201902210806,16.06,16.06,16.059,16.06
201902210807,16.06,16.062,16.059,16.061
201902210808,16.061,16.062,16.061,16.061
201902210809,16.061,16.061,16.061,16.061
201902210810,16.061,16.063,16.061,16.063
201902210811,16.066,16.066,16.064,16.066
201902210812,16.066,16.069,16.065,16.069
201902210813,16.069,16.069,16.066,16.066
201902210814,16.066,16.066,16.066,16.066
201902210815,16.066,16.069,16.066,16.069
201902210816,16.069,16.069,16.068,16.069
201902210817,16.069,16.069,16.068,16.069
201902210818,16.069,16.07,16.068,16.069
201902210819,16.069,16.069,16.069,16.069
201902210820,16.069,16.07,16.069,16.069
201902210821,16.069,16.071,16.069,16.071
201902210822,16.071,16.071,16.07,16.071
201902210823,16.071,16.072,16.071,16.071
201902210824,16.071,16.071,16.069,16.069
201902210825,16.069,16.069,16.066,16.066
201902210826,16.066,16.066,16.066,16.066
201902210827,16.066,16.066,16.066,16.066
201902210828,16.065,16.066,16.065,16.065
201902210829,16.065,16.065,16.065,16.065
201902210830,16.065,16.065,16.064,16.065
201902210831,16.065,16.065,16.064,16.065
201902210832,16.065,16.065,16.065,16.065
201902210833,16.065,16.065,16.065,16.065
201902210834,16.065,16.065,16.065,16.065
201902210835,16.065,16.065,16.065,16.065
201902210836,16.065,16.065,16.065,16.065
201902210837,16.065,16.068,16.065,16.068
201902210838,16.068,16.068,16.067,16.068
201902210839,16.068,16.068,16.068,16.068
201902210840,16.068,16.068,16.068,16.068
201902210841,16.068,16.068,16.068,16.068
201902210842,16.068,16.068,16.068,16.068
201902210843,16.068,16.068,16.068,16.068
201902210844,16.068,16.068,16.068,16.068
201902210845,16.068,16.074,16.068,16.074
201902210846,16.074,16.075,16.074,16.075
201902210847,16.075,16.075,16.075,16.075
201902210848,16.075,16.076,16.073,16.074
201902210849,16.074,16.076,16.073,16.075
201902210850,16.075,16.076,16.074,16.075
201902210851,16.075,16.075,16.074,16.074
201902210852,16.074,16.074,16.073,16.073
201902210853,16.073,16.074,16.073,16.074
201902210854,16.074,16.075,16.073,16.075
201902210855,16.075,16.075,16.075,16.075
201902210856,16.075,16.075,16.075,16.075
201902210857,16.075,16.075,16.075,16.075
201902210858,16.075,16.075,16.075,16.075
201902210859,16.075,16.078,16.073,16.078
201902210900,16.078,16.078,16.078,16.078
201902210901,16.078,16.078,16.078,16.078
201902210902,16.079,16.079,16.077,16.077
201902210903,16.077,16.077,16.076,16.076
201902210904,16.076,16.076,16.073,16.074
201902210905,16.074,16.074,16.074,16.074
201902210906,16.074,16.074,16.071,16.072
201902210907,16.072,16.073,16.071,16.073
201902210908,16.073,16.073,16.073,16.073
201902210909,16.073,16.075,16.073,16.073
201902210910,16.073,16.078,16.073,16.078
201902210911,16.078,16.079,16.078,16.079
201902210912,16.079,16.079,16.079,16.079
201902210913,16.079,16.079,16.078,16.078
201902210914,16.078,16.079,16.078,16.079
201902210915,16.079,16.082,16.079,16.079
201902210916,16.079,16.079,16.079,16.079
201902210917,16.079,16.081,16.079,16.081
201902210918,16.081,16.081,16.08,16.081
201902210919,16.081,16.081,16.081,16.081
201902210920,16.081,16.082,16.081,16.082
201902210921,16.082,16.082,16.081,16.081
201902210922,16.081,16.081,16.079,16.081
201902210923,16.081,16.082,16.081,16.081
201902210924,16.081,16.082,16.081,16.081
201902210925,16.081,16.083,16.081,16.081
201902210926,16.081,16.084,16.081,16.084
201902210927,16.084,16.084,16.084,16.084
201902210928,16.084,16.088,16.084,16.086
201902210929,16.086,16.087,16.083,16.084
201902210930,16.084,16.092,16.084,16.092
201902210931,16.092,16.093,16.088,16.088
201902210932,16.088,16.091,16.087,16.087
201902210933,16.088,16.09,16.087,16.087
201902210934,16.087,16.088,16.087,16.087
201902210935,16.087,16.087,16.086,16.086
201902210936,16.086,16.087,16.086,16.087
201902210937,16.086,16.087,16.083,16.083
201902210938,16.083,16.087,16.083,16.086
201902210939,16.086,16.086,16.082,16.082
201902210940,16.082,16.082,16.082,16.082
201902210941,16.082,16.082,16.082,16.082
201902210942,16.082,16.082,16.082,16.082
201902210943,16.082,16.082,16.082,16.082
201902210944,16.082,16.083,16.082,16.082
201902210945,16.082,16.082,16.082,16.082
201902210946,16.082,16.083,16.081,16.082
201902210947,16.082,16.082,16.077,16.077
201902210948,16.077,16.078,16.077,16.078
201902210949,16.078,16.079,16.078,16.078
201902210950,16.078,16.083,16.078,16.08
201902210951,16.08,16.083,16.08,16.082
201902210952,16.082,16.088,16.082,16.088
201902210953,16.088,16.088,16.084,16.085
201902210954,16.084,16.085,16.083,16.083
201902210955,16.083,16.088,16.083,16.088
201902210956,16.088,16.088,16.085,16.085
201902210957,16.085,16.088,16.085,16.088
201902210958,16.088,16.088,16.085,16.085
201902210959,16.085,16.088,16.085,16.088
201902211000,16.088,16.089,16.085,16.085
201902211001,16.085,16.097,16.085,16.091
201902211002,16.091,16.094,16.089,16.094
201902211003,16.094,16.098,16.093,16.093
201902211004,16.093,16.094,16.092,16.093
201902211005,16.093,16.093,16.083,16.083
201902211006,16.083,16.083,16.072,16.072
201902211007,16.072,16.077,16.072,16.073
201902211008,16.073,16.073,16.068,16.071
201902211009,16.071,16.072,16.066,16.066
201902211010,16.067,16.067,16.063,16.067
201902211011,16.067,16.067,16.061,16.061
201902211012,16.061,16.062,16.053,16.057
201902211013,16.057,16.057,16.044,16.045
201902211014,16.044,16.048,16.041,16.048
201902211015,16.048,16.048,16.044,16.044
201902211016,16.044,16.044,16.034,16.034
201902211017,16.034,16.038,16.032,16.035
201902211018,16.035,16.038,16.034,16.037
201902211019,16.037,16.038,16.033,16.035
201902211020,16.035,16.036,16.028,16.029
201902211021,16.029,16.029,16.023,16.024
201902211022,16.024,16.024,16.019,16.021
201902211023,16.021,16.026,16.021,16.023
201902211024,16.024,16.024,16.018,16.02
201902211025,16.02,16.021,16.014,16.017
201902211026,16.017,16.018,16.014,16.016
201902211027,16.016,16.017,16.007,16.01
201902211028,16.01,16.017,16.01,16.017
201902211029,16.017,16.024,16.017,16.024
201902211030,16.024,16.024,16.021,16.024
201902211031,16.024,16.027,16.022,16.022
201902211032,16.022,16.022,16.014,16.019
201902211033,16.019,16.021,16.018,16.018
201902211034,16.018,16.021,16.014,16.014
201902211035,16.013,16.014,16.005,16.005
201902211036,16.005,16.008,16.005,16.007
201902211037,16.007,16.013,16.007,16.013
201902211038,16.013,16.014,16.012,16.012
201902211039,16.012,16.012,16.008,16.012
201902211040,16.012,16.012,16.01,16.01
201902211041,16.01,16.01,16.008,16.008
201902211042,16.008,16.01,16.008,16.008
201902211043,16.008,16.008,16.004,16.004
201902211044,16.004,16.004,15.999,15.999
201902211045,16,16.003,16,16.003
201902211046,16.003,16.005,16.003,16.004
201902211047,16.004,16.005,16.003,16.003
201902211048,16.003,16.003,16.001,16.002
201902211049,16.002,16.003,16.002,16.002
201902211050,16.002,16.004,16.002,16.002
201902211051,16.002,16.004,16,16
201902211052,16,16,15.996,15.998
201902211053,15.998,15.998,15.986,15.987
201902211054,15.987,15.989,15.986,15.987
201902211055,15.987,15.988,15.982,15.983
201902211056,15.983,15.988,15.982,15.988
201902211057,15.988,15.992,15.988,15.989
201902211058,15.989,15.99,15.989,15.989
201902211059,15.989,15.989,15.987,15.987
201902211100,15.984,15.987,15.984,15.986
201902211101,15.986,15.987,15.984,15.986
201902211102,15.986,15.988,15.984,15.986
201902211103,15.986,15.988,15.981,15.982
201902211104,15.982,15.983,15.977,15.978
201902211105,15.978,15.979,15.978,15.978
201902211106,15.978,15.978,15.978,15.978
201902211107,15.978,15.981,15.977,15.978
201902211108,15.978,15.983,15.977,15.982
201902211109,15.982,15.987,15.982,15.987
201902211110,15.987,15.988,15.985,15.987
201902211111,15.987,15.989,15.987,15.988
201902211112,15.989,15.993,15.988,15.993
201902211113,15.993,15.993,15.992,15.993
201902211114,15.993,15.993,15.99,15.99
201902211115,15.99,15.99,15.989,15.989
201902211116,15.989,15.99,15.988,15.99
201902211117,15.99,15.99,15.989,15.989
201902211118,15.989,15.99,15.984,15.988
201902211119,15.988,15.988,15.987,15.988
201902211120,15.988,15.988,15.988,15.988
201902211121,15.988,15.988,15.987,15.988
201902211122,15.988,15.989,15.988,15.988
201902211123,15.988,15.989,15.987,15.988
201902211124,15.988,15.988,15.987,15.987
201902211125,15.987,15.993,15.987,15.993
201902211126,15.993,15.993,15.989,15.991
201902211127,15.992,15.994,15.992,15.993
201902211128,15.993,15.994,15.991,15.991
201902211129,15.991,15.993,15.991,15.992
201902211130,15.992,15.993,15.991,15.993
201902211131,15.993,15.993,15.987,15.988
201902211132,15.988,15.988,15.984,15.984
201902211133,15.984,15.984,15.982,15.983
201902211134,15.983,15.984,15.983,15.984
201902211135,15.984,15.984,15.983,15.983
201902211136,15.983,15.983,15.983,15.983
201902211137,15.983,15.984,15.983,15.983
201902211138,15.983,15.987,15.982,15.982
201902211139,15.982,15.983,15.982,15.983
201902211140,15.983,15.984,15.983,15.983
201902211141,15.983,15.984,15.983,15.984
201902211142,15.984,15.984,15.983,15.984
201902211143,15.984,15.984,15.982,15.983
201902211144,15.983,15.983,15.983,15.983
201902211145,15.983,15.984,15.983,15.983
201902211146,15.984,15.988,15.983,15.988
201902211147,15.988,15.999,15.988,15.998
201902211148,15.998,16.002,15.997,16.002
201902211149,16.002,16.004,16.001,16.003
201902211150,16.003,16.003,16.002,16.003
201902211151,16.003,16.003,16.002,16.003
201902211152,16.003,16.003,16.002,16.003
201902211153,16.003,16.003,16.002,16.003
201902211154,16.003,16.003,16.002,16.003
201902211155,16.002,16.002,16.002,16.002
201902211156,16.002,16.002,16,16.001
201902211157,16.001,16.001,15.996,15.996
201902211158,15.996,15.998,15.996,15.996
201902211159,15.996,15.996,15.991,15.991
201902211200,15.991,15.995,15.991,15.995
201902211201,15.995,15.995,15.995,15.995
201902211202,15.995,15.996,15.995,15.995
201902211203,15.995,16,15.995,16
201902211204,15.999,16,15.996,15.996
201902211205,15.996,15.997,15.996,15.996
201902211206,15.996,15.996,15.995,15.995
201902211207,15.995,15.995,15.992,15.992
201902211208,15.992,15.995,15.992,15.994
201902211209,15.994,15.995,15.994,15.994
201902211210,15.992,15.995,15.992,15.994
201902211211,15.994,15.994,15.992,15.994
201902211212,15.994,15.995,15.994,15.995
201902211213,15.995,16,15.995,16
201902211214,16,16.002,16,16.001
201902211215,16.001,16.001,16.001,16.001
201902211216,16.001,16.001,15.996,15.997
201902211217,15.997,16.001,15.997,16.001
201902211218,16.001,16.002,16.001,16.001
201902211219,16.001,16.002,16.001,16.002
201902211220,16.002,16.003,16.001,16.003
201902211221,16.003,16.006,16.002,16.002
201902211222,16.002,16.009,16.002,16.008
201902211223,16.008,16.008,16.007,16.007
201902211224,16.007,16.01,16.007,16.01
201902211225,16.01,16.01,16.008,16.009
201902211226,16.009,16.01,16.009,16.01
201902211227,16.01,16.01,16.008,16.008
201902211228,16.008,16.009,16.005,16.008
201902211229,16.007,16.007,16.007,16.007
201902211230,16.007,16.008,16.003,16.008
201902211231,16.008,16.012,16.008,16.008
201902211232,16.008,16.012,16.008,16.008
201902211233,16.008,16.011,16.008,16.008
201902211234,16.008,16.012,16.008,16.008
201902211235,16.008,16.008,16.007,16.008
201902211236,16.008,16.01,16.007,16.009
201902211237,16.009,16.009,16.008,16.008
201902211238,16.008,16.013,16.008,16.012
201902211239,16.012,16.014,16.012,16.013
201902211240,16.013,16.014,16.013,16.013
201902211241,16.013,16.022,16.013,16.019
201902211242,16.019,16.022,16.019,16.019
201902211243,16.019,16.019,16.018,16.018
201902211244,16.018,16.018,16.018,16.018
201902211245,16.018,16.022,16.018,16.021
201902211246,16.021,16.021,16.019,16.019
201902211247,16.019,16.021,16.018,16.019
201902211248,16.018,16.021,16.018,16.019
201902211249,16.021,16.023,16.019,16.023
201902211250,16.023,16.024,16.022,16.023
201902211251,16.023,16.027,16.022,16.024
201902211252,16.025,16.026,16.022,16.023
201902211253,16.022,16.023,16.022,16.023
201902211254,16.023,16.024,16.023,16.024
201902211255,16.024,16.027,16.024,16.027
201902211256,16.027,16.027,16.024,16.024
201902211257,16.024,16.024,16.021,16.022
201902211258,16.022,16.022,16.022,16.022
201902211259,16.022,16.023,16.022,16.023
201902211300,16.023,16.025,16.022,16.025
201902211301,16.025,16.029,16.024,16.029
201902211302,16.029,16.031,16.029,16.031
201902211303,16.032,16.032,16.029,16.029
201902211304,16.029,16.031,16.029,16.029
201902211305,16.029,16.029,16.029,16.029
201902211306,16.029,16.029,16.029,16.029
201902211307,16.029,16.029,16.029,16.029
201902211308,16.029,16.029,16.028,16.028
201902211309,16.028,16.029,16.028,16.028
201902211310,16.028,16.028,16.028,16.028
201902211311,16.028,16.028,16.028,16.028
201902211312,16.028,16.029,16.028,16.029
201902211313,16.029,16.029,16.028,16.029
201902211314,16.028,16.029,16.028,16.028
201902211315,16.028,16.031,16.028,16.029
201902211316,16.029,16.032,16.029,16.031
201902211317,16.031,16.032,16.029,16.031
201902211318,16.031,16.031,16.029,16.029
201902211319,16.029,16.032,16.029,16.032
201902211320,16.032,16.032,16.028,16.029
201902211321,16.029,16.031,16.028,16.031
201902211322,16.031,16.031,16.028,16.029
201902211323,16.028,16.032,16.028,16.032
201902211324,16.032,16.032,16.029,16.029
201902211325,16.029,16.029,16.027,16.028
201902211326,16.028,16.028,16.027,16.027
201902211327,16.027,16.028,16.027,16.028
201902211328,16.028,16.028,16.028,16.028
201902211329,16.028,16.028,16.028,16.028
201902211330,16.028,16.028,16.028,16.028
201902211331,16.028,16.029,16.028,16.028
201902211332,16.028,16.03,16.028,16.029
201902211333,16.029,16.029,16.028,16.029
201902211334,16.029,16.029,16.028,16.029
201902211335,16.029,16.029,16.028,16.028
201902211336,16.028,16.028,16.027,16.028
201902211337,16.028,16.029,16.027,16.028
201902211338,16.028,16.029,16.028,16.029
201902211339,16.029,16.029,16.028,16.028
201902211340,16.028,16.028,16.028,16.028
201902211341,16.028,16.029,16.028,16.028
201902211342,16.028,16.028,16.028,16.028
201902211343,16.028,16.028,16.028,16.028
201902211344,16.028,16.028,16.028,16.028
201902211345,16.028,16.029,16.028,16.029
201902211346,16.029,16.029,16.029,16.029
201902211347,16.029,16.029,16.028,16.029
201902211348,16.029,16.029,16.029,16.029
201902211349,16.029,16.032,16.029,16.032
201902211350,16.032,16.032,16.029,16.029
201902211351,16.029,16.032,16.029,16.029
201902211352,16.029,16.029,16.029,16.029
201902211353,16.029,16.029,16.028,16.028
201902211354,16.028,16.029,16.028,16.029
201902211355,16.029,16.029,16.028,16.029
201902211356,16.029,16.029,16.028,16.029
201902211357,16.029,16.032,16.028,16.032
201902211358,16.032,16.032,16.03,16.032
201902211359,16.032,16.032,16.031,16.032
201902211400,16.032,16.032,16.032,16.032
201902211401,16.032,16.032,16.032,16.032
201902211402,16.032,16.033,16.032,16.033
201902211403,16.033,16.036,16.033,16.036
201902211404,16.036,16.037,16.036,16.037
201902211405,16.037,16.037,16.034,16.034
201902211406,16.034,16.034,16.034,16.034
201902211407,16.034,16.037,16.033,16.033
201902211408,16.033,16.037,16.033,16.036
201902211409,16.036,16.036,16.034,16.034
201902211410,16.034,16.034,16.034,16.034
201902211411,16.034,16.034,16.033,16.034
201902211412,16.034,16.036,16.034,16.034
201902211413,16.034,16.037,16.034,16.037
201902211414,16.037,16.037,16.034,16.034
201902211415,16.034,16.035,16.034,16.034
201902211416,16.034,16.035,16.034,16.034
201902211417,16.034,16.036,16.034,16.034
201902211418,16.034,16.037,16.034,16.037
201902211419,16.037,16.038,16.036,16.037
201902211420,16.037,16.037,16.034,16.037
201902211421,16.037,16.037,16.034,16.037
201902211422,16.037,16.037,16.034,16.034
201902211423,16.034,16.034,16.034,16.034
201902211424,16.034,16.035,16.034,16.034
201902211425,16.034,16.035,16.034,16.034
201902211426,16.034,16.035,16.03,16.03
201902211427,16.03,16.032,16.018,16.018
201902211428,16.018,16.019,16.004,16.004
201902211429,16.004,16.009,16.001,16.003
201902211430,16.003,16.017,16.003,16.016
201902211431,16.016,16.024,16.015,16.023
201902211432,16.025,16.027,16.021,16.021
201902211433,16.021,16.021,16.014,16.015
201902211434,16.015,16.015,16.011,16.013
201902211435,16.012,16.016,16.012,16.014
201902211436,16.014,16.016,16.013,16.015
201902211437,16.015,16.022,16.014,16.021
201902211438,16.021,16.021,16.016,16.017
201902211439,16.017,16.017,16.012,16.014
201902211440,16.014,16.015,16.011,16.011
201902211441,16.011,16.011,16.007,16.008
201902211442,16.008,16.012,16.008,16.012
201902211443,16.012,16.012,16.005,16.008
201902211444,16.008,16.013,16.007,16.011
201902211445,16.007,16.01,16.006,16.009
201902211446,16.009,16.009,16.006,16.008
201902211447,16.008,16.009,16.005,16.006
201902211448,16.006,16.008,16.004,16.004
201902211449,16.004,16.006,16.004,16.006
201902211450,16.006,16.009,16.006,16.009
201902211451,16.009,16.009,16.005,16.007
201902211452,16.008,16.008,16.004,16.005
201902211453,16.005,16.005,16,16
201902211454,16,16.003,16,16.001
201902211455,16.001,16.003,16,16
201902211456,16,16,15.996,15.997
201902211457,15.997,15.999,15.994,15.994
201902211458,15.994,15.994,15.993,15.993
201902211459,15.992,15.993,15.991,15.993
201902211500,15.993,15.994,15.988,15.988
201902211501,15.988,15.988,15.981,15.983
201902211502,15.983,15.988,15.982,15.988
201902211503,15.988,15.99,15.987,15.99
201902211504,15.99,15.993,15.988,15.993
201902211505,15.993,15.993,15.988,15.989
201902211506,15.989,15.99,15.989,15.99
201902211507,15.99,15.991,15.989,15.99
201902211508,15.99,15.998,15.99,15.996
201902211509,15.996,15.998,15.994,15.995
201902211510,15.995,15.995,15.993,15.994
201902211511,15.994,15.998,15.994,15.995
201902211512,15.995,15.995,15.993,15.993
201902211513,15.993,15.994,15.989,15.99
201902211514,15.99,15.995,15.99,15.995
201902211515,15.995,15.995,15.992,15.992
201902211516,15.992,15.993,15.992,15.993
201902211517,15.993,15.994,15.992,15.992
201902211518,15.992,15.992,15.984,15.984
201902211519,15.984,15.984,15.981,15.983
201902211520,15.983,15.986,15.983,15.986
201902211521,15.987,15.987,15.982,15.983
201902211522,15.983,15.986,15.982,15.984
201902211523,15.984,15.984,15.983,15.983
201902211524,15.983,15.983,15.981,15.982
201902211525,15.982,15.984,15.982,15.983
201902211526,15.984,15.984,15.982,15.982
201902211527,15.982,15.984,15.982,15.983
201902211528,15.983,15.984,15.983,15.984
201902211529,15.984,15.987,15.984,15.987
201902211530,15.987,15.987,15.984,15.986
201902211531,15.986,15.986,15.984,15.984
201902211532,15.984,15.986,15.984,15.986
201902211533,15.986,15.986,15.984,15.986
201902211534,15.986,15.986,15.978,15.978
201902211535,15.979,15.979,15.973,15.973
201902211536,15.973,15.976,15.971,15.971
201902211537,15.971,15.972,15.971,15.971
201902211538,15.971,15.976,15.971,15.973
201902211539,15.973,15.973,15.971,15.973
201902211540,15.973,15.974,15.972,15.973
201902211541,15.973,15.974,15.972,15.972
201902211542,15.972,15.973,15.972,15.973
201902211543,15.973,15.973,15.971,15.973
201902211544,15.973,15.973,15.967,15.967
201902211545,15.967,15.967,15.965,15.966
201902211546,15.966,15.972,15.966,15.972
201902211547,15.971,15.973,15.968,15.972
201902211548,15.972,15.972,15.97,15.971
201902211549,15.971,15.971,15.967,15.969
201902211550,15.969,15.971,15.968,15.971
201902211551,15.971,15.972,15.971,15.971
201902211552,15.971,15.971,15.967,15.967
201902211553,15.967,15.968,15.967,15.967
201902211554,15.967,15.968,15.967,15.968
201902211555,15.968,15.968,15.966,15.966
201902211556,15.966,15.967,15.963,15.963
201902211557,15.963,15.964,15.961,15.961
201902211558,15.961,15.962,15.958,15.958
201902211559,15.958,15.958,15.957,15.958
201902211600,15.958,15.966,15.958,15.966
201902211601,15.966,15.977,15.966,15.977
201902211602,15.977,15.978,15.973,15.978
201902211603,15.978,15.982,15.977,15.981
201902211604,15.981,15.982,15.979,15.982
201902211605,15.982,15.983,15.972,15.972
201902211606,15.972,15.973,15.972,15.972
201902211607,15.972,15.974,15.972,15.973
201902211608,15.973,15.974,15.972,15.972
201902211609,15.972,15.977,15.972,15.977
201902211610,15.977,15.977,15.976,15.976
201902211611,15.976,15.977,15.975,15.977
201902211612,15.977,15.981,15.977,15.981
201902211613,15.981,15.982,15.973,15.979
201902211614,15.979,15.987,15.979,15.987
201902211615,15.987,15.987,15.982,15.982
201902211616,15.982,15.983,15.982,15.983
201902211617,15.982,15.983,15.979,15.982
201902211618,15.982,15.982,15.978,15.981
201902211619,15.981,15.982,15.981,15.981
201902211620,15.981,15.981,15.977,15.981
201902211621,15.981,15.981,15.972,15.972
201902211622,15.972,15.977,15.972,15.973
201902211623,15.973,15.975,15.968,15.97
201902211624,15.971,15.975,15.97,15.973
201902211625,15.973,15.973,15.965,15.968
201902211626,15.968,15.975,15.968,15.969
201902211627,15.97,15.991,15.97,15.983
201902211628,15.983,15.985,15.975,15.975
201902211629,15.975,15.982,15.975,15.978
201902211630,15.978,15.978,15.973,15.977
201902211631,15.977,15.977,15.965,15.971
201902211632,15.971,15.973,15.971,15.973
201902211633,15.973,15.977,15.973,15.974
201902211634,15.974,15.978,15.973,15.973
201902211635,15.973,15.977,15.973,15.977
201902211636,15.977,15.981,15.977,15.981
201902211637,15.981,15.982,15.977,15.977
201902211638,15.978,15.978,15.973,15.973
201902211639,15.974,15.978,15.974,15.977
201902211640,15.977,15.979,15.977,15.978
201902211641,15.978,15.978,15.977,15.977
201902211642,15.977,15.98,15.977,15.979
201902211643,15.979,15.981,15.977,15.977
201902211644,15.977,15.978,15.973,15.973
201902211645,15.973,15.974,15.971,15.974
201902211646,15.974,15.974,15.972,15.973
201902211647,15.973,15.974,15.972,15.973
201902211648,15.973,15.973,15.971,15.973
201902211649,15.973,15.973,15.972,15.972
201902211650,15.972,15.977,15.972,15.976
201902211651,15.976,15.976,15.973,15.976
201902211652,15.976,15.981,15.976,15.978
201902211653,15.978,15.982,15.977,15.982
201902211654,15.982,15.982,15.981,15.982
201902211655,15.982,15.982,15.978,15.978
201902211656,15.978,15.98,15.976,15.978
201902211657,15.978,15.978,15.976,15.978
201902211658,15.978,15.979,15.976,15.976
201902211659,15.976,15.981,15.976,15.98
201902211700,15.981,15.992,15.98,15.992
201902211701,15.992,15.993,15.989,15.989
201902211702,15.989,15.989,15.984,15.984
201902211703,15.984,15.984,15.973,15.973
201902211704,15.973,15.977,15.972,15.977
201902211705,15.976,15.983,15.974,15.982
201902211706,15.983,15.99,15.981,15.989
201902211707,15.988,15.993,15.988,15.993
201902211708,15.993,15.993,15.988,15.991
201902211709,15.991,15.993,15.988,15.992
201902211710,15.992,15.992,15.988,15.991
201902211711,15.992,15.993,15.988,15.991
201902211712,15.991,15.992,15.988,15.992
201902211713,15.992,15.994,15.992,15.993
201902211714,15.993,15.998,15.992,15.997
201902211715,15.998,16.007,15.994,15.998
201902211716,15.994,15.998,15.994,15.994
201902211717,15.994,15.994,15.985,15.988
201902211718,15.988,15.988,15.984,15.984
201902211719,15.984,15.984,15.973,15.973
201902211720,15.973,15.974,15.972,15.972
201902211721,15.972,15.973,15.969,15.972
201902211722,15.972,15.972,15.969,15.97
201902211723,15.97,15.972,15.966,15.969
201902211724,15.969,15.977,15.969,15.972
201902211725,15.972,15.972,15.964,15.967
201902211726,15.967,15.967,15.958,15.958
201902211727,15.958,15.959,15.942,15.942
201902211728,15.942,15.947,15.93,15.931
201902211729,15.931,15.932,15.921,15.921
201902211730,15.921,15.922,15.913,15.916
201902211731,15.916,15.922,15.914,15.915
201902211732,15.915,15.918,15.913,15.917
201902211733,15.917,15.917,15.898,15.901
201902211734,15.901,15.906,15.901,15.905
201902211735,15.905,15.911,15.905,15.909
201902211736,15.909,15.909,15.904,15.906
201902211737,15.906,15.913,15.906,15.91
201902211738,15.91,15.914,15.909,15.913
201902211739,15.913,15.918,15.913,15.918
201902211740,15.918,15.918,15.913,15.914
201902211741,15.914,15.914,15.907,15.907
201902211742,15.907,15.911,15.907,15.909
201902211743,15.909,15.912,15.909,15.912
201902211744,15.912,15.913,15.91,15.913
201902211745,15.913,15.913,15.91,15.913
201902211746,15.913,15.913,15.909,15.91
201902211747,15.912,15.913,15.905,15.905
201902211748,15.905,15.905,15.899,15.9
201902211749,15.902,15.903,15.9,15.903
201902211750,15.903,15.908,15.903,15.908
201902211751,15.908,15.912,15.908,15.909
201902211752,15.909,15.909,15.894,15.894
201902211753,15.894,15.895,15.888,15.889
201902211754,15.886,15.893,15.886,15.893
201902211755,15.893,15.893,15.885,15.889
201902211756,15.889,15.889,15.886,15.889
201902211757,15.889,15.895,15.889,15.895
201902211758,15.895,15.9,15.894,15.9
201902211759,15.9,15.905,15.9,15.904
201902211800,15.903,15.903,15.896,15.896
201902211801,15.896,15.897,15.896,15.896
201902211802,15.895,15.895,15.889,15.891
201902211803,15.891,15.895,15.889,15.895
201902211804,15.895,15.895,15.892,15.892
201902211805,15.892,15.892,15.885,15.885
201902211806,15.885,15.885,15.867,15.867
201902211807,15.867,15.875,15.867,15.875
201902211808,15.875,15.877,15.874,15.876
201902211809,15.876,15.876,15.868,15.868
201902211810,15.868,15.869,15.856,15.861
201902211811,15.861,15.865,15.861,15.863
201902211812,15.863,15.865,15.861,15.862
201902211813,15.862,15.864,15.861,15.862
201902211814,15.861,15.864,15.859,15.861
201902211815,15.861,15.861,15.85,15.851
201902211816,15.851,15.855,15.849,15.855
201902211817,15.855,15.855,15.85,15.85
201902211818,15.85,15.851,15.849,15.85
201902211819,15.85,15.851,15.85,15.851
201902211820,15.851,15.852,15.85,15.851
201902211821,15.851,15.851,15.843,15.843
201902211822,15.843,15.85,15.843,15.849
201902211823,15.849,15.85,15.845,15.845
201902211824,15.845,15.846,15.843,15.843
201902211825,15.843,15.856,15.843,15.854
201902211826,15.856,15.86,15.854,15.857
201902211827,15.857,15.857,15.855,15.856
201902211828,15.856,15.857,15.855,15.856
201902211829,15.856,15.859,15.856,15.859
201902211830,15.859,15.859,15.846,15.851
201902211831,15.851,15.859,15.851,15.859
201902211832,15.859,15.861,15.852,15.857
201902211833,15.857,15.862,15.857,15.858
201902211834,15.858,15.86,15.856,15.858
201902211835,15.858,15.858,15.856,15.857
201902211836,15.857,15.861,15.853,15.853
201902211837,15.853,15.856,15.853,15.856
201902211838,15.856,15.863,15.856,15.863
201902211839,15.863,15.868,15.862,15.866
201902211840,15.866,15.866,15.856,15.857
201902211841,15.857,15.857,15.853,15.853
201902211842,15.853,15.859,15.853,15.858
201902211843,15.858,15.858,15.852,15.853
201902211844,15.853,15.854,15.852,15.853
201902211845,15.853,15.86,15.852,15.86
201902211846,15.86,15.86,15.857,15.858
201902211847,15.858,15.858,15.852,15.854
201902211848,15.854,15.855,15.852,15.855
201902211849,15.855,15.858,15.848,15.848
201902211850,15.848,15.848,15.841,15.842
201902211851,15.842,15.844,15.841,15.843
201902211852,15.843,15.851,15.843,15.848
201902211853,15.848,15.855,15.848,15.855
201902211854,15.857,15.857,15.853,15.856
201902211855,15.856,15.856,15.852,15.853
201902211856,15.853,15.856,15.853,15.856
201902211857,15.856,15.857,15.855,15.856
201902211858,15.856,15.862,15.856,15.862
201902211859,15.862,15.862,15.86,15.862
201902211900,15.862,15.862,15.858,15.858
201902211901,15.858,15.86,15.856,15.86
201902211902,15.86,15.863,15.859,15.862
201902211903,15.862,15.866,15.86,15.865
201902211904,15.865,15.867,15.864,15.867
201902211905,15.867,15.869,15.867,15.869
201902211906,15.869,15.869,15.866,15.867
201902211907,15.867,15.869,15.867,15.869
201902211908,15.869,15.87,15.867,15.867
201902211909,15.867,15.869,15.867,15.868
201902211910,15.868,15.869,15.868,15.869
201902211911,15.869,15.869,15.869,15.869
201902211912,15.869,15.869,15.864,15.864
201902211913,15.864,15.866,15.864,15.866
201902211914,15.867,15.867,15.864,15.865
201902211915,15.866,15.868,15.865,15.866
201902211916,15.866,15.869,15.866,15.868
201902211917,15.868,15.868,15.866,15.867
201902211918,15.867,15.868,15.866,15.867
201902211919,15.867,15.873,15.866,15.872
201902211920,15.872,15.874,15.872,15.874
201902211921,15.874,15.874,15.873,15.873
201902211922,15.873,15.873,15.869,15.869
201902211923,15.869,15.871,15.869,15.869
201902211924,15.869,15.87,15.868,15.868
201902211925,15.868,15.869,15.868,15.868
201902211926,15.868,15.868,15.864,15.867
201902211927,15.867,15.868,15.864,15.865
201902211928,15.865,15.865,15.863,15.864
201902211929,15.864,15.865,15.864,15.864
201902211930,15.864,15.867,15.864,15.867
201902211931,15.867,15.872,15.867,15.872
201902211932,15.872,15.884,15.871,15.883
201902211933,15.883,15.888,15.882,15.888
201902211934,15.888,15.889,15.887,15.887
201902211935,15.888,15.892,15.887,15.889
201902211936,15.889,15.892,15.889,15.889
201902211937,15.889,15.89,15.889,15.889
201902211938,15.889,15.891,15.889,15.89
201902211939,15.89,15.893,15.89,15.891
201902211940,15.891,15.892,15.89,15.89
201902211941,15.89,15.89,15.89,15.89
201902211942,15.89,15.892,15.89,15.892
201902211943,15.892,15.892,15.89,15.891
201902211944,15.891,15.892,15.89,15.892
201902211945,15.892,15.892,15.89,15.89
201902211946,15.89,15.893,15.89,15.892
201902211947,15.892,15.894,15.892,15.894
201902211948,15.894,15.895,15.894,15.894
201902211949,15.895,15.895,15.894,15.895
201902211950,15.895,15.895,15.895,15.895
201902211951,15.895,15.895,15.895,15.895
201902211952,15.895,15.895,15.895,15.895
201902211953,15.895,15.895,15.894,15.894
201902211954,15.894,15.895,15.894,15.894
201902211955,15.894,15.894,15.89,15.89
201902211956,15.89,15.891,15.89,15.89
201902211957,15.89,15.898,15.89,15.898
201902211958,15.898,15.898,15.897,15.898
201902211959,15.898,15.899,15.898,15.898
201902212000,15.898,15.898,15.895,15.895
201902212001,15.895,15.895,15.89,15.89
201902212002,15.89,15.893,15.889,15.89
201902212003,15.89,15.89,15.888,15.889
201902212004,15.889,15.889,15.888,15.889
201902212005,15.889,15.898,15.889,15.898
201902212006,15.898,15.898,15.898,15.898
201902212007,15.898,15.898,15.895,15.895
201902212008,15.895,15.898,15.893,15.894
201902212009,15.894,15.894,15.893,15.894
201902212010,15.894,15.9,15.894,15.899
201902212011,15.899,15.902,15.898,15.902
201902212012,15.902,15.903,15.899,15.899
201902212013,15.899,15.9,15.899,15.899
201902212014,15.899,15.899,15.894,15.894
201902212015,15.894,15.894,15.889,15.889
201902212016,15.889,15.889,15.889,15.889
201902212017,15.889,15.889,15.888,15.888
201902212018,15.888,15.889,15.888,15.889
201902212019,15.889,15.892,15.889,15.892
201902212020,15.891,15.893,15.891,15.893
201902212021,15.893,15.893,15.893,15.893
201902212022,15.894,15.898,15.894,15.898
201902212023,15.898,15.901,15.897,15.9
201902212024,15.9,15.9,15.897,15.897
201902212025,15.897,15.902,15.894,15.902
201902212026,15.902,15.903,15.901,15.901
201902212027,15.902,15.902,15.899,15.899
201902212028,15.899,15.902,15.898,15.902
201902212029,15.902,15.903,15.901,15.901
201902212030,15.901,15.906,15.901,15.903
201902212031,15.903,15.904,15.903,15.903
201902212032,15.903,15.903,15.899,15.902
201902212033,15.902,15.903,15.902,15.903
201902212034,15.903,15.903,15.899,15.899
201902212035,15.899,15.903,15.899,15.903
201902212036,15.903,15.903,15.902,15.902
201902212037,15.902,15.903,15.902,15.903
201902212038,15.903,15.903,15.9,15.9
201902212039,15.901,15.902,15.9,15.902
201902212040,15.902,15.902,15.899,15.902
201902212041,15.902,15.907,15.901,15.902
201902212042,15.902,15.904,15.902,15.904
201902212043,15.904,15.905,15.903,15.905
201902212044,15.905,15.907,15.905,15.905
201902212045,15.904,15.904,15.9,15.9
201902212046,15.9,15.9,15.894,15.894
201902212047,15.894,15.894,15.893,15.894
201902212048,15.894,15.895,15.892,15.892
201902212049,15.892,15.892,15.886,15.887
201902212050,15.887,15.888,15.887,15.888
201902212051,15.888,15.891,15.888,15.889
201902212052,15.889,15.891,15.889,15.89
201902212053,15.89,15.892,15.89,15.892
201902212054,15.892,15.898,15.892,15.898
201902212055,15.898,15.902,15.898,15.902
201902212056,15.901,15.907,15.9,15.9
201902212057,15.9,15.903,15.9,15.902
201902212058,15.902,15.903,15.902,15.902
201902212059,15.902,15.903,15.9,15.9
201902212100,15.9,15.903,15.899,15.903
201902212101,15.903,15.904,15.9,15.903
201902212102,15.903,15.911,15.903,15.909
201902212103,15.909,15.914,15.909,15.914
201902212104,15.914,15.914,15.91,15.914
201902212105,15.914,15.918,15.913,15.918
201902212106,15.918,15.919,15.916,15.918
201902212107,15.918,15.919,15.918,15.919
201902212108,15.919,15.92,15.916,15.919
201902212109,15.919,15.919,15.915,15.916
201902212110,15.917,15.919,15.916,15.919
201902212111,15.919,15.924,15.919,15.921
201902212112,15.921,15.923,15.92,15.92
201902212113,15.919,15.919,15.911,15.911
201902212114,15.911,15.914,15.91,15.911
201902212115,15.911,15.911,15.909,15.91
201902212116,15.91,15.914,15.91,15.91
201902212117,15.91,15.915,15.91,15.915
201902212118,15.915,15.918,15.915,15.918
201902212119,15.918,15.92,15.918,15.92
201902212120,15.919,15.92,15.918,15.92
201902212121,15.92,15.92,15.915,15.917
201902212122,15.917,15.918,15.915,15.918
201902212123,15.918,15.919,15.918,15.919
201902212124,15.919,15.919,15.918,15.919
201902212125,15.919,15.923,15.919,15.923
201902212126,15.923,15.923,15.92,15.92
201902212127,15.92,15.927,15.92,15.925
201902212128,15.925,15.925,15.923,15.925
201902212129,15.925,15.925,15.924,15.924
201902212130,15.924,15.927,15.92,15.92
201902212131,15.92,15.923,15.919,15.923
201902212132,15.923,15.928,15.923,15.925
201902212133,15.925,15.929,15.925,15.929
201902212134,15.929,15.933,15.924,15.925
201902212135,15.925,15.928,15.925,15.928
201902212136,15.928,15.93,15.928,15.93
201902212137,15.93,15.93,15.929,15.93
201902212138,15.93,15.93,15.929,15.929
201902212139,15.929,15.929,15.919,15.92
201902212140,15.92,15.92,15.915,15.916
201902212141,15.915,15.92,15.915,15.92
201902212142,15.92,15.924,15.919,15.921
201902212143,15.921,15.924,15.92,15.92
201902212144,15.92,15.92,15.91,15.911
201902212145,15.911,15.914,15.909,15.911
201902212146,15.911,15.913,15.91,15.91
201902212147,15.91,15.911,15.909,15.91
201902212148,15.91,15.914,15.909,15.914
201902212149,15.915,15.919,15.914,15.919
201902212150,15.919,15.924,15.918,15.92
201902212151,15.92,15.923,15.92,15.921
201902212152,15.921,15.924,15.921,15.924
201902212153,15.924,15.924,15.919,15.919
201902212154,15.919,15.92,15.919,15.919
201902212155,15.92,15.92,15.91,15.91
201902212156,15.91,15.915,15.91,15.915
201902212157,15.915,15.918,15.91,15.911
201902212158,15.91,15.914,15.91,15.913
201902212159,15.913,15.915,15.911,15.911
201902212200,15.91,15.91,15.903,15.908
201902212201,15.908,15.916,15.908,15.915
201902212202,15.915,15.928,15.914,15.927
201902212203,15.927,15.928,15.919,15.925
201902212204,15.925,15.931,15.925,15.929
201902212205,15.929,15.931,15.926,15.929
201902212206,15.929,15.929,15.924,15.924
201902212207,15.924,15.925,15.922,15.924
201902212208,15.924,15.924,15.92,15.92
201902212209,15.92,15.925,15.92,15.925
201902212210,15.926,15.933,15.926,15.933
201902212211,15.933,15.936,15.933,15.936
201902212212,15.938,15.939,15.935,15.939
201902212213,15.939,15.941,15.938,15.941
201902212214,15.94,15.94,15.935,15.935
201902212215,15.935,15.936,15.935,15.936
201902212216,15.936,15.941,15.936,15.94
201902212217,15.94,15.941,15.935,15.935
201902212218,15.935,15.935,15.926,15.93
201902212219,15.93,15.934,15.928,15.931
201902212220,15.931,15.949,15.931,15.948
201902212221,15.949,15.95,15.946,15.95
201902212222,15.95,15.95,15.945,15.945
201902212223,15.945,15.948,15.94,15.94
201902212224,15.94,15.943,15.939,15.943
201902212225,15.943,15.943,15.935,15.935
201902212226,15.935,15.935,15.934,15.935
201902212227,15.935,15.939,15.934,15.939
201902212228,15.939,15.94,15.938,15.938
201902212229,15.938,15.938,15.934,15.934
201902212230,15.934,15.956,15.932,15.946
201902212231,15.946,15.948,15.935,15.939
201902212232,15.94,15.945,15.937,15.941
201902212233,15.941,15.946,15.941,15.946
201902212234,15.945,15.945,15.934,15.939
201902212235,15.938,15.94,15.929,15.934
201902212236,15.934,15.934,15.929,15.934
201902212237,15.934,15.934,15.925,15.925
201902212238,15.925,15.929,15.92,15.924
201902212239,15.924,15.926,15.92,15.92
201902212240,15.92,15.933,15.915,15.93
201902212241,15.93,15.93,15.925,15.928
201902212242,15.928,15.929,15.924,15.929
201902212243,15.929,15.933,15.929,15.929
201902212244,15.929,15.93,15.922,15.928
201902212245,15.928,15.933,15.928,15.93
201902212246,15.931,15.934,15.929,15.933
201902212247,15.934,15.934,15.929,15.929
201902212248,15.93,15.933,15.929,15.929
201902212249,15.929,15.93,15.92,15.92
201902212250,15.92,15.924,15.92,15.92
201902212251,15.92,15.92,15.91,15.915
201902212252,15.915,15.92,15.913,15.92
201902212253,15.92,15.93,15.92,15.93
201902212254,15.93,15.93,15.924,15.925
201902212255,15.925,15.926,15.916,15.92
201902212256,15.92,15.925,15.92,15.924
201902212257,15.924,15.925,15.92,15.92
201902212258,15.92,15.924,15.919,15.922
201902212259,15.922,15.924,15.921,15.921
201902212300,15.921,15.921,15.909,15.91
201902212301,15.91,15.912,15.909,15.91
201902212302,15.91,15.915,15.909,15.912
201902212303,15.912,15.915,15.91,15.914
201902212304,15.914,15.914,15.906,15.91
201902212305,15.91,15.91,15.905,15.909
201902212306,15.909,15.91,15.899,15.899
201902212307,15.899,15.9,15.884,15.884
201902212308,15.883,15.889,15.88,15.886
201902212309,15.887,15.896,15.886,15.895
201902212310,15.895,15.895,15.89,15.894
201902212311,15.894,15.904,15.893,15.904
201902212312,15.904,15.905,15.903,15.904
201902212313,15.904,15.905,15.9,15.901
201902212314,15.901,15.909,15.9,15.909
201902212315,15.91,15.913,15.908,15.909
201902212316,15.909,15.913,15.909,15.911
201902212317,15.911,15.914,15.91,15.911
201902212318,15.911,15.923,15.91,15.921
201902212319,15.921,15.925,15.918,15.918
201902212320,15.918,15.924,15.918,15.923
201902212321,15.923,15.923,15.916,15.919
201902212322,15.919,15.924,15.919,15.923
201902212323,15.923,15.923,15.919,15.921
201902212324,15.921,15.923,15.915,15.918
201902212325,15.918,15.923,15.918,15.922
201902212326,15.922,15.923,15.92,15.921
201902212327,15.921,15.921,15.919,15.92
201902212328,15.92,15.925,15.92,15.925
201902212329,15.925,15.925,15.924,15.924
201902212330,15.924,15.925,15.923,15.924
201902212331,15.924,15.928,15.918,15.928
201902212332,15.929,15.931,15.923,15.924
201902212333,15.924,15.936,15.923,15.936
201902212334,15.937,15.938,15.929,15.929
201902212335,15.929,15.938,15.929,15.937
201902212336,15.938,15.947,15.936,15.94
201902212337,15.94,15.94,15.93,15.934
201902212338,15.933,15.936,15.931,15.931
201902212339,15.931,15.934,15.93,15.933
201902212340,15.933,15.933,15.925,15.929
201902212341,15.929,15.93,15.926,15.93
201902212342,15.93,15.931,15.919,15.92
201902212343,15.92,15.92,15.912,15.914
201902212344,15.914,15.916,15.911,15.916
201902212345,15.916,15.922,15.916,15.921
201902212346,15.921,15.921,15.894,15.895
201902212347,15.895,15.895,15.891,15.894
201902212348,15.893,15.894,15.888,15.891
201902212349,15.891,15.891,15.882,15.884
201902212350,15.884,15.893,15.883,15.89
201902212351,15.889,15.896,15.889,15.893
201902212352,15.894,15.901,15.894,15.9
201902212353,15.899,15.904,15.894,15.897
201902212354,15.897,15.898,15.893,15.897
201902212355,15.897,15.898,15.894,15.897
201902212356,15.897,15.898,15.878,15.878
201902212357,15.878,15.882,15.872,15.874
201902212358,15.874,15.878,15.872,15.878
201902212359,15.878,15.88,15.878,15.88
201902220000,15.88,15.88,15.868,15.868
201902220001,15.868,15.878,15.867,15.872
201902220002,15.871,15.878,15.869,15.875
201902220003,15.875,15.878,15.868,15.869
201902220004,15.869,15.873,15.869,15.869
201902220005,15.869,15.87,15.864,15.868
201902220006,15.868,15.868,15.864,15.867
201902220007,15.867,15.867,15.858,15.861
201902220008,15.86,15.87,15.859,15.869
201902220009,15.869,15.873,15.865,15.865
201902220010,15.865,15.868,15.864,15.868
201902220011,15.868,15.884,15.865,15.884
201902220012,15.884,15.885,15.879,15.881
201902220013,15.882,15.891,15.879,15.891
201902220014,15.892,15.897,15.889,15.895
201902220015,15.895,15.902,15.895,15.9
201902220016,15.9,15.91,15.894,15.909
201902220017,15.908,15.912,15.903,15.904
201902220018,15.904,15.904,15.9,15.902
201902220019,15.902,15.903,15.899,15.902
201902220020,15.9,15.908,15.9,15.908
201902220021,15.908,15.913,15.905,15.905
201902220022,15.905,15.91,15.904,15.905
201902220023,15.905,15.905,15.899,15.899
201902220024,15.899,15.902,15.899,15.9
201902220025,15.9,15.908,15.9,15.905
201902220026,15.905,15.905,15.9,15.905
201902220027,15.904,15.909,15.904,15.905
201902220028,15.905,15.909,15.905,15.906
201902220029,15.906,15.909,15.905,15.905
201902220030,15.905,15.906,15.904,15.904
201902220031,15.904,15.905,15.9,15.904
201902220032,15.904,15.904,15.899,15.9
201902220033,15.901,15.905,15.899,15.903
201902220034,15.903,15.909,15.9,15.905
201902220035,15.905,15.906,15.9,15.904
201902220036,15.904,15.905,15.903,15.904
201902220037,15.904,15.909,15.904,15.909
201902220038,15.909,15.914,15.909,15.91
201902220039,15.91,15.911,15.909,15.91
201902220040,15.91,15.916,15.91,15.915
201902220041,15.915,15.915,15.906,15.908
201902220042,15.909,15.91,15.908,15.909
201902220043,15.909,15.915,15.909,15.911
201902220044,15.912,15.917,15.911,15.911
201902220045,15.911,15.914,15.91,15.911
201902220046,15.911,15.912,15.9,15.904
201902220047,15.904,15.904,15.895,15.896
201902220048,15.898,15.9,15.895,15.9
201902220049,15.9,15.9,15.899,15.899
201902220050,15.899,15.9,15.895,15.895
201902220051,15.895,15.898,15.894,15.895
201902220052,15.895,15.895,15.885,15.885
201902220053,15.885,15.892,15.884,15.89
201902220054,15.89,15.894,15.889,15.891
201902220055,15.891,15.894,15.889,15.89
201902220056,15.891,15.895,15.889,15.894
201902220057,15.893,15.901,15.893,15.898
201902220058,15.898,15.899,15.895,15.895
201902220059,15.895,15.895,15.889,15.894
201902220100,15.894,15.895,15.89,15.894
201902220101,15.894,15.895,15.888,15.889
201902220102,15.889,15.893,15.889,15.889
201902220103,15.889,15.889,15.885,15.885
201902220104,15.885,15.885,15.879,15.88
201902220105,15.88,15.888,15.88,15.888
201902220106,15.888,15.888,15.883,15.883
201902220107,15.883,15.884,15.88,15.883
201902220108,15.883,15.884,15.879,15.88
201902220109,15.88,15.884,15.88,15.884
201902220110,15.884,15.884,15.883,15.883
201902220111,15.883,15.885,15.882,15.884
201902220112,15.884,15.884,15.883,15.883
201902220113,15.883,15.894,15.883,15.893
201902220114,15.893,15.894,15.891,15.894
201902220115,15.894,15.894,15.888,15.888
201902220116,15.888,15.896,15.887,15.895
201902220117,15.895,15.895,15.892,15.894
201902220118,15.894,15.898,15.89,15.89
201902220119,15.89,15.894,15.89,15.89
201902220120,15.89,15.898,15.89,15.897
201902220121,15.897,15.899,15.895,15.895
201902220122,15.894,15.898,15.893,15.896
201902220123,15.896,15.899,15.893,15.893
201902220124,15.893,15.895,15.887,15.887
201902220125,15.887,15.894,15.887,15.893
201902220126,15.894,15.899,15.892,15.899
201902220127,15.9,15.9,15.893,15.893
201902220128,15.893,15.899,15.893,15.899
201902220129,15.9,15.901,15.89,15.893
201902220130,15.893,15.894,15.888,15.888
201902220131,15.888,15.888,15.884,15.885
201902220132,15.885,15.886,15.882,15.883
201902220133,15.883,15.884,15.879,15.883
201902220134,15.883,15.884,15.878,15.881
201902220135,15.881,15.883,15.879,15.88
201902220136,15.88,15.882,15.879,15.882
201902220137,15.882,15.885,15.881,15.885
201902220138,15.885,15.885,15.879,15.879
201902220139,15.879,15.88,15.878,15.878
201902220140,15.878,15.882,15.878,15.879
201902220141,15.879,15.881,15.878,15.88
201902220142,15.88,15.881,15.878,15.879
201902220143,15.879,15.88,15.879,15.879
201902220144,15.879,15.879,15.865,15.867
201902220145,15.867,15.868,15.865,15.867
201902220146,15.867,15.868,15.865,15.867
201902220147,15.867,15.87,15.867,15.867
201902220148,15.867,15.875,15.867,15.872
201902220149,15.872,15.873,15.87,15.872
201902220150,15.872,15.875,15.872,15.874
201902220151,15.874,15.874,15.872,15.873
201902220152,15.873,15.873,15.864,15.865
201902220153,15.865,15.867,15.864,15.865
201902220154,15.865,15.867,15.864,15.864
201902220155,15.864,15.864,15.862,15.862
201902220156,15.862,15.867,15.862,15.867
201902220157,15.867,15.872,15.867,15.872
201902220158,15.871,15.872,15.869,15.872
201902220159,15.873,15.873,15.868,15.871
201902220200,15.871,15.875,15.869,15.875
201902220201,15.875,15.875,15.873,15.874
201902220202,15.874,15.874,15.87,15.87
201902220203,15.87,15.873,15.87,15.872
201902220204,15.873,15.873,15.871,15.871
201902220205,15.871,15.875,15.864,15.865
201902220206,15.865,15.865,15.859,15.859
201902220207,15.859,15.86,15.854,15.857
201902220208,15.855,15.856,15.854,15.855
201902220209,15.855,15.856,15.854,15.855
201902220210,15.855,15.86,15.855,15.859
201902220211,15.859,15.86,15.858,15.858
201902220212,15.858,15.859,15.855,15.857
201902220213,15.857,15.857,15.847,15.854
201902220214,15.854,15.859,15.854,15.859
201902220215,15.859,15.859,15.854,15.854
201902220216,15.854,15.859,15.853,15.858
201902220217,15.858,15.859,15.854,15.858
201902220218,15.858,15.858,15.853,15.855
201902220219,15.855,15.855,15.853,15.854
201902220220,15.854,15.859,15.854,15.857
201902220221,15.857,15.86,15.857,15.86
201902220222,15.86,15.866,15.86,15.866
201902220223,15.865,15.867,15.864,15.865
201902220224,15.865,15.867,15.862,15.862
201902220225,15.862,15.862,15.852,15.853
201902220226,15.853,15.857,15.853,15.855
201902220227,15.855,15.857,15.853,15.853
201902220228,15.853,15.853,15.848,15.849
201902220229,15.849,15.852,15.848,15.852
201902220230,15.852,15.852,15.849,15.849
201902220231,15.849,15.85,15.848,15.848
201902220232,15.848,15.853,15.848,15.852
201902220233,15.852,15.852,15.849,15.849
201902220234,15.848,15.848,15.841,15.842
201902220235,15.842,15.843,15.839,15.843
201902220236,15.843,15.846,15.842,15.844
201902220237,15.844,15.844,15.839,15.842
201902220238,15.842,15.844,15.839,15.84
201902220239,15.84,15.846,15.839,15.845
201902220240,15.847,15.85,15.846,15.849
201902220241,15.849,15.856,15.848,15.854
201902220242,15.855,15.862,15.855,15.862
201902220243,15.862,15.862,15.859,15.86
201902220244,15.86,15.861,15.858,15.859
201902220245,15.859,15.864,15.858,15.863
201902220246,15.863,15.867,15.863,15.865
201902220247,15.865,15.867,15.864,15.866
201902220248,15.866,15.867,15.863,15.863
201902220249,15.863,15.867,15.861,15.867
201902220250,15.867,15.867,15.863,15.864
201902220251,15.864,15.868,15.864,15.865
201902220252,15.865,15.869,15.865,15.869
201902220253,15.869,15.87,15.868,15.869
201902220254,15.869,15.87,15.864,15.865
201902220255,15.865,15.869,15.865,15.869
201902220256,15.869,15.873,15.869,15.869
201902220257,15.869,15.87,15.868,15.87
201902220258,15.87,15.87,15.867,15.867
201902220259,15.867,15.868,15.864,15.865
201902220300,15.865,15.865,15.86,15.86
201902220301,15.86,15.865,15.859,15.865
201902220302,15.865,15.868,15.863,15.863
201902220303,15.864,15.866,15.861,15.863
201902220304,15.863,15.863,15.858,15.859
201902220305,15.86,15.862,15.858,15.861
201902220306,15.861,15.863,15.857,15.859
201902220307,15.858,15.861,15.857,15.86
201902220308,15.86,15.861,15.857,15.857
201902220309,15.857,15.861,15.857,15.859
201902220310,15.859,15.861,15.858,15.859
201902220311,15.859,15.859,15.855,15.858
201902220312,15.858,15.86,15.849,15.849
201902220313,15.849,15.85,15.845,15.848
201902220314,15.848,15.85,15.846,15.848
201902220315,15.848,15.85,15.848,15.849
201902220316,15.849,15.85,15.848,15.849
201902220317,15.849,15.85,15.843,15.844
201902220318,15.844,15.844,15.841,15.841
201902220319,15.843,15.843,15.838,15.838
201902220320,15.839,15.84,15.838,15.838
201902220321,15.838,15.84,15.831,15.832
201902220322,15.832,15.838,15.832,15.837
201902220323,15.837,15.837,15.83,15.833
201902220324,15.833,15.834,15.825,15.825
201902220325,15.824,15.829,15.82,15.821
201902220326,15.82,15.826,15.82,15.826
201902220327,15.826,15.826,15.825,15.826
201902220328,15.826,15.826,15.82,15.821
201902220329,15.821,15.824,15.817,15.824
201902220330,15.825,15.84,15.825,15.838
201902220331,15.838,15.838,15.832,15.835
201902220332,15.835,15.835,15.83,15.835
201902220333,15.835,15.836,15.834,15.835
201902220334,15.835,15.835,15.834,15.835
201902220335,15.835,15.837,15.834,15.834
201902220336,15.834,15.835,15.832,15.833
201902220337,15.833,15.834,15.832,15.834
201902220338,15.834,15.834,15.831,15.833
201902220339,15.833,15.835,15.833,15.835
201902220340,15.835,15.835,15.834,15.834
201902220341,15.834,15.836,15.831,15.831
201902220342,15.831,15.834,15.831,15.834
201902220343,15.834,15.835,15.834,15.835
201902220344,15.835,15.835,15.831,15.832
201902220345,15.832,15.832,15.831,15.831
201902220346,15.831,15.831,15.827,15.827
201902220347,15.827,15.827,15.825,15.826
201902220348,15.826,15.827,15.825,15.825
201902220349,15.826,15.826,15.821,15.822
201902220350,15.823,15.825,15.82,15.825
201902220351,15.825,15.827,15.825,15.825
201902220352,15.825,15.828,15.822,15.827
201902220353,15.827,15.827,15.821,15.825
201902220354,15.825,15.825,15.821,15.821
201902220355,15.822,15.825,15.817,15.825
201902220356,15.826,15.827,15.821,15.827
201902220357,15.827,15.831,15.826,15.831
201902220358,15.83,15.83,15.829,15.83
201902220359,15.83,15.831,15.827,15.829
201902220400,15.829,15.829,15.825,15.826
201902220401,15.826,15.826,15.821,15.823
201902220402,15.823,15.827,15.823,15.825
201902220403,15.825,15.827,15.818,15.818
201902220404,15.818,15.819,15.811,15.814
201902220405,15.815,15.816,15.813,15.813
201902220406,15.813,15.816,15.813,15.813
201902220407,15.813,15.814,15.812,15.813
201902220408,15.813,15.815,15.812,15.812
201902220409,15.813,15.813,15.811,15.811
201902220410,15.811,15.813,15.811,15.812
201902220411,15.813,15.813,15.807,15.808
201902220412,15.807,15.808,15.807,15.807
201902220413,15.807,15.809,15.807,15.809
201902220414,15.809,15.812,15.808,15.808
201902220415,15.808,15.812,15.808,15.811
201902220416,15.811,15.812,15.807,15.812
201902220417,15.812,15.813,15.812,15.813
201902220418,15.813,15.817,15.813,15.817
201902220419,15.817,15.817,15.812,15.814
201902220420,15.816,15.817,15.814,15.817
201902220421,15.817,15.819,15.817,15.818
201902220422,15.818,15.818,15.818,15.818
201902220423,15.818,15.821,15.817,15.82
201902220424,15.82,15.823,15.819,15.822
201902220425,15.822,15.827,15.822,15.827
201902220426,15.827,15.831,15.827,15.829
201902220427,15.829,15.829,15.827,15.829
201902220428,15.829,15.833,15.829,15.833
201902220429,15.833,15.836,15.832,15.833
201902220430,15.833,15.835,15.832,15.832
201902220431,15.832,15.834,15.83,15.833
201902220432,15.833,15.833,15.829,15.833
201902220433,15.833,15.835,15.833,15.833
201902220434,15.833,15.836,15.833,15.836
201902220435,15.836,15.841,15.836,15.837
201902220436,15.837,15.839,15.835,15.838
201902220437,15.838,15.841,15.837,15.841
201902220438,15.841,15.841,15.839,15.84
201902220439,15.84,15.846,15.84,15.844
201902220440,15.844,15.847,15.844,15.847
201902220441,15.847,15.847,15.841,15.843
201902220442,15.843,15.847,15.843,15.845
201902220443,15.845,15.847,15.844,15.844
201902220444,15.844,15.845,15.841,15.841
201902220445,15.841,15.844,15.841,15.844
201902220446,15.844,15.848,15.844,15.847
201902220447,15.848,15.848,15.846,15.848
201902220448,15.848,15.849,15.846,15.846
201902220449,15.847,15.849,15.845,15.848
201902220450,15.848,15.849,15.846,15.849
201902220451,15.849,15.85,15.848,15.85
201902220452,15.85,15.85,15.848,15.848
201902220453,15.848,15.848,15.848,15.848
201902220454,15.848,15.848,15.848,15.848
201902220455,15.848,15.849,15.844,15.845
201902220456,15.845,15.845,15.843,15.844
201902220457,15.844,15.845,15.843,15.845
201902220458,15.845,15.845,15.844,15.844
201902220459,15.843,15.845,15.843,15.843
201902220500,15.843,15.844,15.842,15.843
201902220501,15.843,15.843,15.84,15.841
201902220502,15.841,15.844,15.841,15.843
201902220503,15.843,15.843,15.841,15.843
201902220504,15.843,15.843,15.841,15.843
201902220505,15.843,15.845,15.843,15.843
201902220506,15.844,15.844,15.843,15.843
201902220507,15.843,15.844,15.841,15.843
201902220508,15.843,15.844,15.843,15.843
201902220509,15.843,15.844,15.843,15.843
201902220510,15.844,15.844,15.843,15.843
201902220511,15.843,15.843,15.841,15.843
201902220512,15.843,15.843,15.841,15.843
201902220513,15.843,15.844,15.843,15.843
201902220514,15.843,15.843,15.84,15.841
201902220515,15.841,15.841,15.84,15.841
201902220516,15.841,15.841,15.84,15.84
201902220517,15.84,15.84,15.839,15.84
201902220518,15.84,15.84,15.839,15.839
201902220519,15.839,15.839,15.839,15.839
201902220520,15.839,15.84,15.839,15.84
201902220521,15.84,15.841,15.833,15.835
201902220522,15.835,15.836,15.83,15.83
201902220523,15.83,15.833,15.83,15.833
201902220524,15.833,15.833,15.828,15.828
201902220525,15.828,15.829,15.828,15.828
201902220526,15.829,15.831,15.828,15.83
201902220527,15.83,15.83,15.829,15.83
201902220528,15.83,15.83,15.828,15.829
201902220529,15.829,15.831,15.829,15.831
201902220530,15.83,15.833,15.83,15.833
201902220531,15.833,15.834,15.833,15.833
201902220532,15.833,15.833,15.833,15.833
201902220533,15.833,15.834,15.833,15.834
201902220534,15.834,15.834,15.833,15.833
201902220535,15.833,15.833,15.832,15.833
201902220536,15.834,15.834,15.83,15.83
201902220537,15.83,15.83,15.828,15.83
201902220538,15.83,15.83,15.828,15.828
201902220539,15.828,15.829,15.825,15.825
201902220540,15.825,15.828,15.824,15.827
201902220541,15.828,15.838,15.827,15.837
201902220542,15.835,15.844,15.829,15.844
201902220543,15.844,15.844,15.833,15.833
201902220544,15.833,15.833,15.828,15.83
201902220545,15.83,15.834,15.829,15.833
201902220546,15.833,15.834,15.802,15.803
201902220547,15.804,15.811,15.804,15.807
201902220548,15.806,15.814,15.806,15.813
201902220549,15.813,15.814,15.81,15.813
201902220550,15.813,15.815,15.813,15.814
201902220551,15.814,15.815,15.812,15.813
201902220552,15.813,15.813,15.81,15.81
201902220553,15.81,15.811,15.807,15.807
201902220554,15.807,15.808,15.804,15.805
201902220555,15.805,15.811,15.805,15.81
201902220556,15.81,15.811,15.809,15.81
201902220557,15.81,15.812,15.809,15.81
201902220558,15.81,15.814,15.81,15.814
201902220559,15.814,15.814,15.81,15.81
201902220600,15.81,15.81,15.805,15.808
201902220601,15.807,15.808,15.804,15.804
201902220602,15.804,15.805,15.802,15.802
201902220603,15.802,15.804,15.802,15.803
201902220604,15.804,15.805,15.804,15.804
201902220605,15.804,15.805,15.803,15.804
201902220606,15.804,15.805,15.803,15.805
201902220607,15.805,15.806,15.804,15.804
201902220608,15.804,15.806,15.804,15.806
201902220609,15.806,15.806,15.805,15.805
201902220610,15.805,15.806,15.805,15.805
201902220611,15.805,15.809,15.805,15.809
201902220612,15.809,15.81,15.809,15.81
201902220613,15.81,15.81,15.809,15.81
201902220614,15.81,15.81,15.809,15.809
201902220615,15.81,15.81,15.809,15.81
201902220616,15.81,15.81,15.808,15.808
201902220617,15.809,15.809,15.808,15.808
201902220618,15.808,15.81,15.808,15.809
201902220619,15.809,15.811,15.809,15.811
201902220620,15.811,15.811,15.81,15.811
201902220621,15.811,15.811,15.81,15.811
201902220622,15.811,15.812,15.81,15.811
201902220623,15.811,15.812,15.81,15.81
201902220624,15.81,15.812,15.81,15.811
201902220625,15.811,15.814,15.811,15.814
201902220626,15.814,15.814,15.814,15.814
201902220627,15.814,15.815,15.814,15.814
201902220628,15.814,15.814,15.814,15.814
201902220629,15.814,15.814,15.814,15.814
201902220630,15.815,15.815,15.815,15.815
201902220631,15.815,15.815,15.814,15.815
201902220632,15.815,15.815,15.815,15.815
201902220633,15.815,15.816,15.815,15.816
201902220634,15.816,15.816,15.795,15.801
201902220635,15.801,15.807,15.801,15.806
201902220636,15.806,15.806,15.805,15.806
201902220637,15.806,15.806,15.806,15.806
201902220638,15.806,15.81,15.806,15.81
201902220639,15.81,15.81,15.81,15.81
201902220640,15.81,15.811,15.81,15.811
201902220641,15.811,15.811,15.807,15.807
201902220642,15.807,15.809,15.805,15.808
201902220643,15.808,15.809,15.808,15.809
201902220644,15.809,15.81,15.807,15.808
201902220645,15.808,15.81,15.806,15.81
201902220646,15.81,15.81,15.809,15.809
201902220647,15.809,15.81,15.808,15.81
201902220648,15.81,15.811,15.809,15.81
201902220649,15.81,15.811,15.81,15.81
201902220650,15.81,15.811,15.802,15.802
201902220651,15.802,15.803,15.802,15.802
201902220652,15.802,15.802,15.802,15.802
201902220653,15.802,15.804,15.802,15.803
201902220654,15.803,15.803,15.802,15.802
201902220655,15.802,15.803,15.801,15.802
201902220656,15.802,15.803,15.801,15.801
201902220657,15.801,15.805,15.801,15.802
201902220658,15.802,15.802,15.799,15.799
201902220659,15.799,15.799,15.777,15.777
