日時,始値(BID),高値(BID),安値(BID),終値(BID)
201902200800,15.973,15.985,15.951,15.981
201902200801,15.981,15.983,15.976,15.976
201902200802,15.976,15.977,15.97,15.972
201902200803,15.972,15.972,15.97,15.971
201902200804,15.971,15.971,15.966,15.967
201902200805,15.967,15.971,15.967,15.968
201902200806,15.967,15.968,15.967,15.967
201902200807,15.967,15.968,15.966,15.967
201902200808,15.967,15.967,15.965,15.966
201902200809,15.966,15.966,15.964,15.964
201902200810,15.964,15.966,15.964,15.966
201902200811,15.966,15.966,15.965,15.965
201902200812,15.965,15.966,15.965,15.966
201902200813,15.966,15.966,15.964,15.965
201902200814,15.965,15.965,15.965,15.965
201902200815,15.965,15.967,15.965,15.965
201902200816,15.965,15.966,15.965,15.966
201902200817,15.966,15.966,15.962,15.962
201902200818,15.962,15.963,15.962,15.963
201902200819,15.963,15.963,15.963,15.963
201902200820,15.963,15.963,15.963,15.963
201902200821,15.963,15.963,15.963,15.963
201902200822,15.963,15.964,15.963,15.963
201902200823,15.963,15.963,15.963,15.963
201902200824,15.963,15.963,15.963,15.963
201902200825,15.963,15.965,15.963,15.963
201902200826,15.963,15.964,15.963,15.964
201902200827,15.964,15.966,15.964,15.964
201902200828,15.964,15.964,15.964,15.964
201902200829,15.964,15.964,15.964,15.964
201902200830,15.966,15.968,15.966,15.967
201902200831,15.968,15.968,15.967,15.967
201902200832,15.967,15.967,15.967,15.967
201902200833,15.967,15.967,15.967,15.967
201902200834,15.967,15.967,15.967,15.967
201902200835,15.967,15.967,15.967,15.967
201902200836,15.967,15.967,15.966,15.966
201902200837,15.966,15.967,15.965,15.966
201902200838,15.967,15.967,15.965,15.966
201902200839,15.966,15.967,15.966,15.966
201902200840,15.966,15.967,15.965,15.966
201902200841,15.966,15.967,15.966,15.967
201902200842,15.967,15.967,15.966,15.966
201902200843,15.966,15.967,15.965,15.966
201902200844,15.966,15.966,15.964,15.964
201902200845,15.964,15.965,15.964,15.964
201902200846,15.964,15.965,15.964,15.964
201902200847,15.964,15.964,15.963,15.964
201902200848,15.964,15.965,15.964,15.964
201902200849,15.964,15.965,15.964,15.964
201902200850,15.964,15.965,15.964,15.964
201902200851,15.964,15.966,15.964,15.965
201902200852,15.964,15.965,15.964,15.965
201902200853,15.965,15.966,15.964,15.965
201902200854,15.965,15.966,15.964,15.964
201902200855,15.964,15.964,15.963,15.963
201902200856,15.963,15.964,15.963,15.964
201902200857,15.964,15.964,15.963,15.964
201902200858,15.964,15.964,15.964,15.964
201902200859,15.964,15.964,15.964,15.964
201902200900,15.964,15.964,15.963,15.963
201902200901,15.963,15.964,15.963,15.963
201902200902,15.963,15.963,15.963,15.963
201902200903,15.963,15.963,15.961,15.961
201902200904,15.961,15.961,15.96,15.96
201902200905,15.96,15.96,15.96,15.96
201902200906,15.96,15.966,15.96,15.966
201902200907,15.966,15.966,15.962,15.962
201902200908,15.962,15.965,15.962,15.965
201902200909,15.965,15.97,15.965,15.97
201902200910,15.97,15.97,15.968,15.968
201902200911,15.968,15.968,15.966,15.966
201902200912,15.966,15.967,15.965,15.966
201902200913,15.966,15.966,15.965,15.966
201902200914,15.966,15.966,15.966,15.966
201902200915,15.966,15.967,15.965,15.966
201902200916,15.966,15.966,15.962,15.962
201902200917,15.962,15.962,15.961,15.962
201902200918,15.962,15.965,15.962,15.965
201902200919,15.963,15.965,15.962,15.962
201902200920,15.962,15.965,15.962,15.965
201902200921,15.965,15.965,15.961,15.961
201902200922,15.961,15.965,15.961,15.961
201902200923,15.961,15.962,15.961,15.961
201902200924,15.961,15.962,15.961,15.962
201902200925,15.962,15.962,15.962,15.962
201902200926,15.962,15.962,15.961,15.962
201902200927,15.962,15.962,15.962,15.962
201902200928,15.962,15.962,15.961,15.962
201902200929,15.962,15.963,15.961,15.961
201902200930,15.962,15.962,15.956,15.961
201902200931,15.961,15.965,15.961,15.962
201902200932,15.962,15.965,15.962,15.965
201902200933,15.965,15.966,15.965,15.966
201902200934,15.966,15.966,15.965,15.965
201902200935,15.965,15.966,15.965,15.965
201902200936,15.965,15.965,15.961,15.961
201902200937,15.961,15.962,15.961,15.961
201902200938,15.961,15.962,15.961,15.961
201902200939,15.961,15.962,15.961,15.961
201902200940,15.961,15.964,15.961,15.962
201902200941,15.962,15.965,15.962,15.965
201902200942,15.965,15.965,15.965,15.965
201902200943,15.965,15.965,15.965,15.965
201902200944,15.965,15.966,15.965,15.965
201902200945,15.965,15.966,15.965,15.966
201902200946,15.966,15.966,15.965,15.966
201902200947,15.966,15.97,15.966,15.97
201902200948,15.97,15.97,15.969,15.97
201902200949,15.97,15.97,15.967,15.968
201902200950,15.968,15.968,15.967,15.967
201902200951,15.967,15.968,15.967,15.967
201902200952,15.967,15.968,15.967,15.968
201902200953,15.968,15.968,15.967,15.968
201902200954,15.968,15.973,15.968,15.972
201902200955,15.972,15.973,15.972,15.973
201902200956,15.973,15.973,15.972,15.972
201902200957,15.972,15.976,15.972,15.974
201902200958,15.974,15.976,15.974,15.976
201902200959,15.976,15.977,15.973,15.976
201902201000,15.976,15.978,15.975,15.977
201902201001,15.977,15.981,15.976,15.981
201902201002,15.981,15.984,15.981,15.983
201902201003,15.983,15.983,15.978,15.982
201902201004,15.982,15.982,15.979,15.979
201902201005,15.979,15.983,15.979,15.983
201902201006,15.983,15.983,15.979,15.983
201902201007,15.983,15.983,15.982,15.983
201902201008,15.983,15.986,15.983,15.984
201902201009,15.984,15.984,15.983,15.984
201902201010,15.984,15.984,15.983,15.984
201902201011,15.984,15.987,15.983,15.987
201902201012,15.987,15.987,15.987,15.987
201902201013,15.987,15.987,15.987,15.987
201902201014,15.987,15.988,15.987,15.988
201902201015,15.988,15.988,15.988,15.988
201902201016,15.988,15.989,15.988,15.989
201902201017,15.989,15.998,15.989,15.998
201902201018,15.998,16.007,15.998,16.006
201902201019,16.006,16.017,16.003,16.017
201902201020,16.017,16.032,16.015,16.032
201902201021,16.032,16.033,16.028,16.033
201902201022,16.033,16.036,16.033,16.033
201902201023,16.033,16.033,16.03,16.033
201902201024,16.033,16.041,16.033,16.041
201902201025,16.042,16.042,16.036,16.039
201902201026,16.038,16.04,16.036,16.036
201902201027,16.036,16.036,16.035,16.036
201902201028,16.036,16.04,16.036,16.04
201902201029,16.04,16.045,16.037,16.045
201902201030,16.045,16.045,16.037,16.037
201902201031,16.037,16.04,16.037,16.039
201902201032,16.039,16.042,16.035,16.04
201902201033,16.04,16.04,16.032,16.032
201902201034,16.032,16.032,16.03,16.031
201902201035,16.031,16.032,16.03,16.031
201902201036,16.031,16.035,16.031,16.035
201902201037,16.035,16.035,16.033,16.034
201902201038,16.032,16.035,16.032,16.033
201902201039,16.033,16.035,16.023,16.023
201902201040,16.023,16.023,16.015,16.023
201902201041,16.022,16.025,16.019,16.022
201902201042,16.022,16.025,16.021,16.021
201902201043,16.02,16.022,16.02,16.021
201902201044,16.02,16.022,16.02,16.021
201902201045,16.021,16.024,16.02,16.024
201902201046,16.024,16.026,16.022,16.024
201902201047,16.023,16.024,16.022,16.024
201902201048,16.024,16.026,16.022,16.026
201902201049,16.026,16.034,16.026,16.034
201902201050,16.034,16.037,16.031,16.037
201902201051,16.037,16.042,16.036,16.042
201902201052,16.042,16.043,16.041,16.043
201902201053,16.043,16.047,16.043,16.047
201902201054,16.047,16.05,16.047,16.049
201902201055,16.049,16.056,16.049,16.055
201902201056,16.055,16.059,16.054,16.057
201902201057,16.057,16.06,16.056,16.059
201902201058,16.059,16.061,16.053,16.053
201902201059,16.053,16.054,16.051,16.051
201902201100,16.051,16.051,16.047,16.051
201902201101,16.051,16.052,16.051,16.052
201902201102,16.051,16.055,16.051,16.052
201902201103,16.052,16.054,16.052,16.054
201902201104,16.054,16.054,16.053,16.054
201902201105,16.054,16.054,16.048,16.048
201902201106,16.048,16.051,16.048,16.048
201902201107,16.048,16.048,16.043,16.045
201902201108,16.045,16.047,16.045,16.047
201902201109,16.047,16.047,16.046,16.047
201902201110,16.047,16.047,16.047,16.047
201902201111,16.047,16.052,16.047,16.052
201902201112,16.052,16.062,16.052,16.062
201902201113,16.062,16.062,16.059,16.061
201902201114,16.061,16.062,16.061,16.062
201902201115,16.062,16.062,16.057,16.057
201902201116,16.057,16.057,16.056,16.056
201902201117,16.056,16.056,16.052,16.052
201902201118,16.052,16.053,16.052,16.053
201902201119,16.053,16.056,16.053,16.054
201902201120,16.054,16.054,16.053,16.053
201902201121,16.053,16.056,16.053,16.053
201902201122,16.053,16.053,16.052,16.053
201902201123,16.053,16.056,16.052,16.052
201902201124,16.052,16.056,16.052,16.056
201902201125,16.056,16.057,16.054,16.057
201902201126,16.057,16.057,16.056,16.057
201902201127,16.057,16.061,16.057,16.061
201902201128,16.061,16.061,16.058,16.061
201902201129,16.061,16.065,16.061,16.063
201902201130,16.063,16.066,16.063,16.065
201902201131,16.065,16.065,16.061,16.061
201902201132,16.061,16.061,16.058,16.061
201902201133,16.06,16.062,16.058,16.06
201902201134,16.06,16.061,16.058,16.058
201902201135,16.058,16.06,16.057,16.058
201902201136,16.058,16.059,16.058,16.058
201902201137,16.058,16.058,16.057,16.058
201902201138,16.058,16.061,16.057,16.058
201902201139,16.058,16.063,16.058,16.063
201902201140,16.063,16.066,16.062,16.065
201902201141,16.065,16.065,16.062,16.064
201902201142,16.064,16.068,16.064,16.068
201902201143,16.068,16.074,16.068,16.074
201902201144,16.074,16.074,16.073,16.073
201902201145,16.073,16.073,16.071,16.071
201902201146,16.071,16.073,16.071,16.072
201902201147,16.072,16.072,16.067,16.068
201902201148,16.068,16.072,16.068,16.071
201902201149,16.071,16.073,16.071,16.073
201902201150,16.073,16.077,16.073,16.074
201902201151,16.074,16.077,16.073,16.073
201902201152,16.072,16.076,16.072,16.073
201902201153,16.073,16.073,16.07,16.071
201902201154,16.071,16.071,16.068,16.068
201902201155,16.068,16.071,16.068,16.071
201902201156,16.071,16.072,16.068,16.068
201902201157,16.068,16.069,16.067,16.068
201902201158,16.068,16.068,16.067,16.068
201902201159,16.068,16.068,16.063,16.063
201902201200,16.063,16.066,16.063,16.066
201902201201,16.066,16.068,16.063,16.068
201902201202,16.068,16.068,16.065,16.065
201902201203,16.065,16.065,16.06,16.061
201902201204,16.061,16.062,16.061,16.061
201902201205,16.061,16.061,16.061,16.061
201902201206,16.061,16.063,16.058,16.062
201902201207,16.062,16.062,16.059,16.059
201902201208,16.059,16.059,16.054,16.054
201902201209,16.054,16.055,16.054,16.055
201902201210,16.055,16.058,16.055,16.058
201902201211,16.058,16.058,16.055,16.057
201902201212,16.057,16.058,16.055,16.056
201902201213,16.056,16.056,16.055,16.055
201902201214,16.055,16.057,16.055,16.055
201902201215,16.055,16.056,16.055,16.055
201902201216,16.055,16.055,16.055,16.055
201902201217,16.055,16.055,16.05,16.052
201902201218,16.052,16.052,16.05,16.052
201902201219,16.052,16.052,16.049,16.05
201902201220,16.05,16.052,16.047,16.048
201902201221,16.048,16.049,16.046,16.047
201902201222,16.047,16.047,16.047,16.047
201902201223,16.047,16.048,16.047,16.048
201902201224,16.048,16.049,16.047,16.048
201902201225,16.049,16.049,16.048,16.049
201902201226,16.049,16.049,16.045,16.047
201902201227,16.047,16.047,16.044,16.047
201902201228,16.047,16.047,16.043,16.043
201902201229,16.043,16.044,16.04,16.04
201902201230,16.04,16.04,16.039,16.04
201902201231,16.04,16.04,16.039,16.039
201902201232,16.039,16.039,16.035,16.035
201902201233,16.035,16.037,16.034,16.034
201902201234,16.034,16.034,16.031,16.033
201902201235,16.032,16.033,16.032,16.033
201902201236,16.033,16.033,16.032,16.033
201902201237,16.033,16.034,16.032,16.034
201902201238,16.034,16.034,16.029,16.03
201902201239,16.03,16.03,16.027,16.028
201902201240,16.028,16.029,16.028,16.028
201902201241,16.028,16.03,16.028,16.028
201902201242,16.028,16.029,16.028,16.029
201902201243,16.029,16.031,16.029,16.03
201902201244,16.03,16.034,16.03,16.034
201902201245,16.034,16.034,16.03,16.03
201902201246,16.03,16.033,16.029,16.033
201902201247,16.033,16.034,16.032,16.033
201902201248,16.033,16.034,16.03,16.031
201902201249,16.031,16.031,16.03,16.03
201902201250,16.03,16.033,16.029,16.032
201902201251,16.032,16.032,16.029,16.03
201902201252,16.03,16.033,16.029,16.033
201902201253,16.033,16.033,16.029,16.029
201902201254,16.029,16.03,16.029,16.029
201902201255,16.029,16.029,16.029,16.029
201902201256,16.029,16.029,16.026,16.026
201902201257,16.026,16.026,16.025,16.026
201902201258,16.026,16.028,16.024,16.024
201902201259,16.024,16.026,16.024,16.026
201902201300,16.026,16.029,16.026,16.028
201902201301,16.028,16.029,16.028,16.028
201902201302,16.028,16.028,16.024,16.025
201902201303,16.025,16.025,16.024,16.024
201902201304,16.024,16.024,16.024,16.024
201902201305,16.024,16.024,16.021,16.021
201902201306,16.021,16.023,16.021,16.023
201902201307,16.023,16.023,16.022,16.023
201902201308,16.023,16.028,16.022,16.028
201902201309,16.028,16.029,16.025,16.029
201902201310,16.029,16.03,16.027,16.03
201902201311,16.03,16.03,16.028,16.029
201902201312,16.029,16.03,16.029,16.029
201902201313,16.03,16.03,16.029,16.029
201902201314,16.029,16.029,16.025,16.027
201902201315,16.028,16.028,16.025,16.025
201902201316,16.025,16.026,16.025,16.025
201902201317,16.025,16.025,16.024,16.025
201902201318,16.025,16.025,16.024,16.024
201902201319,16.024,16.025,16.02,16.02
201902201320,16.02,16.02,16.018,16.02
201902201321,16.02,16.02,16.019,16.019
201902201322,16.019,16.019,16.014,16.014
201902201323,16.014,16.017,16.014,16.014
201902201324,16.014,16.017,16.014,16.017
201902201325,16.017,16.018,16.015,16.018
201902201326,16.017,16.018,16.017,16.018
201902201327,16.018,16.018,16.018,16.018
201902201328,16.018,16.02,16.018,16.019
201902201329,16.019,16.024,16.019,16.023
201902201330,16.023,16.023,16.023,16.023
201902201331,16.023,16.025,16.023,16.025
201902201332,16.025,16.026,16.025,16.025
201902201333,16.025,16.026,16.025,16.025
201902201334,16.025,16.029,16.025,16.029
201902201335,16.029,16.03,16.029,16.03
201902201336,16.03,16.03,16.029,16.029
201902201337,16.029,16.029,16.029,16.029
201902201338,16.029,16.029,16.029,16.029
201902201339,16.029,16.029,16.025,16.025
201902201340,16.025,16.026,16.024,16.024
201902201341,16.024,16.024,16.022,16.023
201902201342,16.023,16.023,16.019,16.02
201902201343,16.02,16.021,16.02,16.02
201902201344,16.02,16.024,16.02,16.024
201902201345,16.024,16.025,16.02,16.02
201902201346,16.02,16.023,16.02,16.023
201902201347,16.023,16.024,16.023,16.024
201902201348,16.024,16.024,16.024,16.024
201902201349,16.024,16.025,16.024,16.024
201902201350,16.024,16.024,16.024,16.024
201902201351,16.024,16.025,16.024,16.025
201902201352,16.025,16.028,16.025,16.028
201902201353,16.028,16.028,16.025,16.025
201902201354,16.025,16.026,16.025,16.026
201902201355,16.026,16.026,16.025,16.025
201902201356,16.025,16.025,16.025,16.025
201902201357,16.025,16.028,16.025,16.028
201902201358,16.028,16.029,16.028,16.029
201902201359,16.029,16.029,16.028,16.028
201902201400,16.028,16.029,16.028,16.029
201902201401,16.029,16.029,16.028,16.029
201902201402,16.029,16.029,16.028,16.028
201902201403,16.028,16.029,16.025,16.025
201902201404,16.025,16.026,16.025,16.026
201902201405,16.028,16.028,16.026,16.028
201902201406,16.028,16.03,16.026,16.026
201902201407,16.026,16.03,16.026,16.03
201902201408,16.03,16.03,16.029,16.03
201902201409,16.029,16.03,16.029,16.029
201902201410,16.03,16.03,16.029,16.029
201902201411,16.029,16.03,16.029,16.03
201902201412,16.029,16.03,16.029,16.029
201902201413,16.029,16.03,16.029,16.029
201902201414,16.029,16.03,16.029,16.029
201902201415,16.029,16.03,16.026,16.026
201902201416,16.026,16.026,16.026,16.026
201902201417,16.026,16.026,16.026,16.026
201902201418,16.026,16.026,16.026,16.026
201902201419,16.026,16.026,16.025,16.025
201902201420,16.025,16.025,16.024,16.025
201902201421,16.025,16.025,16.024,16.024
201902201422,16.024,16.025,16.024,16.025
201902201423,16.025,16.025,16.024,16.025
201902201424,16.024,16.025,16.024,16.025
201902201425,16.025,16.025,16.024,16.024
201902201426,16.024,16.026,16.024,16.026
201902201427,16.025,16.026,16.024,16.024
201902201428,16.024,16.028,16.024,16.028
201902201429,16.028,16.029,16.026,16.026
201902201430,16.027,16.034,16.027,16.034
201902201431,16.034,16.041,16.034,16.04
201902201432,16.04,16.041,16.036,16.037
201902201433,16.037,16.039,16.037,16.037
201902201434,16.037,16.037,16.037,16.037
201902201435,16.037,16.037,16.026,16.027
201902201436,16.027,16.027,16.02,16.021
201902201437,16.021,16.022,16.02,16.02
201902201438,16.02,16.02,16.016,16.016
201902201439,16.016,16.016,16.016,16.016
201902201440,16.016,16.02,16.016,16.017
201902201441,16.017,16.018,16.017,16.017
201902201442,16.017,16.017,16.014,16.015
201902201443,16.015,16.015,16.011,16.012
201902201444,16.012,16.017,16.011,16.015
201902201445,16.015,16.016,16.015,16.016
201902201446,16.016,16.019,16.016,16.017
201902201447,16.017,16.021,16.017,16.021
201902201448,16.021,16.027,16.021,16.026
201902201449,16.026,16.026,16.023,16.026
201902201450,16.026,16.029,16.025,16.029
201902201451,16.028,16.031,16.028,16.031
201902201452,16.03,16.03,16.027,16.03
201902201453,16.03,16.031,16.027,16.031
201902201454,16.031,16.031,16.028,16.028
201902201455,16.028,16.031,16.028,16.028
201902201456,16.028,16.029,16.028,16.028
201902201457,16.028,16.029,16.028,16.029
201902201458,16.029,16.031,16.029,16.031
201902201459,16.031,16.032,16.028,16.031
201902201500,16.031,16.031,16.029,16.031
201902201501,16.031,16.036,16.031,16.036
201902201502,16.036,16.037,16.036,16.036
201902201503,16.036,16.036,16.032,16.033
201902201504,16.033,16.033,16.031,16.031
201902201505,16.031,16.032,16.031,16.032
201902201506,16.032,16.032,16.032,16.032
201902201507,16.032,16.036,16.032,16.033
201902201508,16.033,16.039,16.032,16.039
201902201509,16.039,16.039,16.037,16.037
201902201510,16.037,16.038,16.034,16.037
201902201511,16.036,16.037,16.032,16.033
201902201512,16.033,16.033,16.032,16.033
201902201513,16.033,16.033,16.028,16.028
201902201514,16.028,16.029,16.027,16.028
201902201515,16.028,16.032,16.027,16.031
201902201516,16.031,16.033,16.031,16.033
201902201517,16.033,16.037,16.032,16.037
201902201518,16.036,16.036,16.032,16.032
201902201519,16.032,16.033,16.032,16.033
201902201520,16.033,16.033,16.028,16.028
201902201521,16.028,16.028,16.027,16.027
201902201522,16.027,16.027,16.023,16.026
201902201523,16.026,16.027,16.026,16.026
201902201524,16.026,16.026,16.018,16.018
201902201525,16.017,16.018,16.017,16.018
201902201526,16.018,16.018,16.016,16.017
201902201527,16.017,16.017,16.015,16.016
201902201528,16.016,16.018,16.012,16.016
201902201529,16.016,16.016,16.007,16.007
201902201530,16.007,16.008,16.003,16.004
201902201531,16.004,16.007,16.004,16.007
201902201532,16.007,16.007,16.006,16.006
201902201533,16.007,16.007,16.006,16.007
201902201534,16.007,16.011,16.007,16.01
201902201535,16.011,16.011,16.008,16.008
201902201536,16.008,16.011,16.008,16.008
201902201537,16.008,16.008,16.007,16.007
201902201538,16.007,16.007,16.004,16.004
201902201539,16.004,16.004,16.002,16.002
201902201540,16.002,16.002,15.999,16.001
201902201541,16.001,16.002,15.998,16
201902201542,16,16.001,16,16.001
201902201543,16.001,16.001,15.996,15.997
201902201544,15.997,15.998,15.995,15.995
201902201545,15.995,15.997,15.991,15.992
201902201546,15.992,15.993,15.992,15.993
201902201547,15.993,15.995,15.992,15.995
201902201548,15.995,15.997,15.993,15.997
201902201549,15.997,15.998,15.996,15.997
201902201550,15.997,15.998,15.997,15.998
201902201551,15.998,16.001,15.998,15.999
201902201552,15.999,15.999,15.997,15.998
201902201553,15.998,15.998,15.996,15.997
201902201554,15.997,15.997,15.994,15.996
201902201555,15.996,15.996,15.993,15.993
201902201556,15.993,15.994,15.993,15.993
201902201557,15.993,15.994,15.992,15.993
201902201558,15.993,15.996,15.993,15.996
201902201559,15.996,15.996,15.994,15.996
201902201600,15.996,16,15.996,16
201902201601,16,16.001,15.998,16.001
201902201602,16.001,16.001,15.998,15.998
201902201603,15.998,16.001,15.997,16
201902201604,15.998,16.001,15.998,16.001
201902201605,16.001,16.001,15.999,16
201902201606,16,16.001,15.998,16.001
201902201607,16.001,16.002,15.998,16.002
201902201608,16.002,16.014,16.002,16.012
201902201609,16.012,16.017,16.012,16.017
201902201610,16.017,16.019,16.017,16.018
201902201611,16.018,16.019,16.017,16.017
201902201612,16.018,16.019,16.012,16.012
201902201613,16.012,16.016,16.012,16.014
201902201614,16.014,16.016,16.014,16.014
201902201615,16.014,16.015,16.013,16.014
201902201616,16.014,16.016,16.013,16.016
201902201617,16.016,16.016,16.013,16.016
201902201618,16.016,16.018,16.015,16.017
201902201619,16.017,16.018,16.016,16.018
201902201620,16.018,16.022,16.018,16.019
201902201621,16.019,16.019,16.015,16.018
201902201622,16.017,16.018,16.014,16.014
201902201623,16.014,16.017,16.014,16.014
201902201624,16.013,16.014,16.008,16.009
201902201625,16.009,16.009,16.007,16.009
201902201626,16.009,16.012,16.008,16.012
201902201627,16.012,16.013,16.009,16.009
201902201628,16.009,16.013,16.009,16.012
201902201629,16.011,16.012,16.002,16.004
201902201630,16.004,16.007,15.999,15.999
201902201631,15.999,16.012,15.999,16.012
201902201632,16.012,16.012,16.011,16.011
201902201633,16.011,16.017,16.011,16.014
201902201634,16.014,16.017,16.012,16.013
201902201635,16.014,16.015,16.01,16.01
201902201636,16.01,16.012,16.007,16.01
201902201637,16.01,16.01,16.004,16.004
201902201638,16.004,16.012,16.004,16.012
201902201639,16.012,16.012,16.011,16.012
201902201640,16.012,16.012,16.009,16.012
201902201641,16.012,16.012,16.009,16.009
201902201642,16.009,16.009,16.007,16.007
201902201643,16.007,16.007,16.004,16.004
201902201644,16.004,16.008,16.003,16.005
201902201645,16.005,16.007,16.004,16.007
201902201646,16.007,16.008,16.004,16.004
201902201647,16.004,16.004,16.002,16.002
201902201648,16.002,16.003,16.002,16.003
201902201649,16.003,16.011,16.003,16.011
201902201650,16.011,16.013,16.009,16.013
201902201651,16.013,16.017,16.013,16.017
201902201652,16.017,16.022,16.017,16.019
201902201653,16.019,16.019,16.018,16.019
201902201654,16.019,16.019,16.018,16.018
201902201655,16.017,16.017,16.013,16.014
201902201656,16.014,16.015,16.013,16.014
201902201657,16.014,16.014,16.013,16.014
201902201658,16.014,16.014,16.007,16.009
201902201659,16.009,16.009,16.008,16.008
201902201700,16.011,16.016,16.003,16.003
201902201701,16.003,16.011,16.002,16.011
201902201702,16.011,16.011,16.003,16.006
201902201703,16.006,16.012,16.006,16.012
201902201704,16.012,16.016,16.012,16.016
201902201705,16.016,16.027,16.015,16.027
201902201706,16.027,16.028,16.025,16.026
201902201707,16.027,16.031,16.027,16.03
201902201708,16.031,16.031,16.026,16.028
201902201709,16.028,16.03,16.028,16.028
201902201710,16.028,16.032,16.027,16.032
201902201711,16.032,16.043,16.032,16.043
201902201712,16.043,16.043,16.031,16.032
201902201713,16.033,16.038,16.033,16.038
201902201714,16.038,16.039,16.036,16.038
201902201715,16.038,16.047,16.038,16.046
201902201716,16.046,16.05,16.046,16.048
201902201717,16.048,16.048,16.041,16.046
201902201718,16.046,16.046,16.044,16.045
201902201719,16.045,16.046,16.041,16.041
201902201720,16.041,16.042,16.037,16.04
201902201721,16.04,16.042,16.04,16.041
201902201722,16.041,16.041,16.036,16.036
201902201723,16.036,16.036,16.031,16.032
201902201724,16.032,16.04,16.032,16.04
201902201725,16.04,16.04,16.038,16.04
201902201726,16.04,16.041,16.04,16.041
201902201727,16.041,16.042,16.039,16.039
201902201728,16.04,16.04,16.036,16.036
201902201729,16.036,16.04,16.036,16.04
201902201730,16.04,16.04,16.037,16.039
201902201731,16.039,16.041,16.039,16.04
201902201732,16.042,16.05,16.042,16.046
201902201733,16.046,16.046,16.042,16.042
201902201734,16.042,16.042,16.041,16.041
201902201735,16.041,16.041,16.036,16.04
201902201736,16.04,16.041,16.036,16.041
201902201737,16.041,16.041,16.039,16.041
201902201738,16.041,16.041,16.04,16.04
201902201739,16.04,16.04,16.037,16.04
201902201740,16.04,16.041,16.04,16.041
201902201741,16.04,16.045,16.04,16.043
201902201742,16.042,16.042,16.037,16.037
201902201743,16.037,16.04,16.037,16.037
201902201744,16.037,16.038,16.035,16.035
201902201745,16.035,16.036,16.032,16.035
201902201746,16.035,16.04,16.035,16.039
201902201747,16.039,16.04,16.039,16.04
201902201748,16.04,16.041,16.04,16.041
201902201749,16.041,16.041,16.037,16.037
201902201750,16.037,16.039,16.035,16.035
201902201751,16.035,16.035,16.032,16.035
201902201752,16.035,16.035,16.032,16.032
201902201753,16.032,16.032,16.03,16.03
201902201754,16.03,16.031,16.03,16.031
201902201755,16.031,16.031,16.03,16.03
201902201756,16.03,16.035,16.03,16.031
201902201757,16.031,16.033,16.03,16.03
201902201758,16.03,16.03,16.026,16.029
201902201759,16.029,16.03,16.029,16.029
201902201800,16.029,16.03,16.026,16.03
201902201801,16.03,16.03,16.028,16.03
201902201802,16.03,16.03,16.029,16.03
201902201803,16.03,16.03,16.029,16.03
201902201804,16.03,16.031,16.03,16.031
201902201805,16.031,16.031,16.029,16.031
201902201806,16.031,16.031,16.03,16.03
201902201807,16.03,16.03,16.03,16.03
201902201808,16.03,16.04,16.03,16.04
201902201809,16.04,16.044,16.039,16.04
201902201810,16.04,16.044,16.04,16.041
201902201811,16.041,16.041,16.04,16.04
201902201812,16.04,16.04,16.04,16.04
201902201813,16.04,16.044,16.04,16.044
201902201814,16.044,16.049,16.044,16.045
201902201815,16.045,16.046,16.045,16.046
201902201816,16.046,16.054,16.046,16.054
201902201817,16.054,16.054,16.053,16.054
201902201818,16.054,16.055,16.053,16.053
201902201819,16.053,16.054,16.053,16.054
201902201820,16.054,16.06,16.054,16.059
201902201821,16.059,16.064,16.059,16.062
201902201822,16.063,16.064,16.063,16.064
201902201823,16.064,16.064,16.063,16.064
201902201824,16.064,16.064,16.059,16.06
201902201825,16.06,16.064,16.06,16.063
201902201826,16.063,16.065,16.063,16.065
201902201827,16.065,16.069,16.065,16.069
201902201828,16.068,16.071,16.068,16.071
201902201829,16.071,16.075,16.07,16.07
201902201830,16.07,16.071,16.07,16.07
201902201831,16.07,16.07,16.064,16.065
201902201832,16.065,16.069,16.065,16.069
201902201833,16.069,16.069,16.065,16.066
201902201834,16.066,16.069,16.06,16.061
201902201835,16.063,16.063,16.06,16.062
201902201836,16.062,16.069,16.062,16.069
201902201837,16.069,16.07,16.067,16.068
201902201838,16.068,16.069,16.066,16.069
201902201839,16.069,16.07,16.069,16.07
201902201840,16.07,16.07,16.069,16.07
201902201841,16.07,16.07,16.06,16.06
201902201842,16.061,16.061,16.061,16.061
201902201843,16.061,16.062,16.061,16.062
201902201844,16.061,16.061,16.061,16.061
201902201845,16.061,16.061,16.053,16.055
201902201846,16.055,16.06,16.055,16.06
201902201847,16.06,16.06,16.06,16.06
201902201848,16.06,16.06,16.059,16.059
201902201849,16.059,16.06,16.059,16.059
201902201850,16.059,16.059,16.054,16.055
201902201851,16.055,16.056,16.055,16.056
201902201852,16.056,16.06,16.056,16.059
201902201853,16.059,16.059,16.058,16.058
201902201854,16.058,16.059,16.058,16.058
201902201855,16.058,16.063,16.058,16.063
201902201856,16.063,16.063,16.059,16.06
201902201857,16.06,16.06,16.05,16.051
201902201858,16.051,16.052,16.051,16.051
201902201859,16.051,16.052,16.047,16.05
201902201900,16.05,16.051,16.05,16.051
201902201901,16.051,16.052,16.051,16.051
201902201902,16.051,16.051,16.046,16.047
201902201903,16.047,16.047,16.045,16.045
201902201904,16.045,16.046,16.045,16.046
201902201905,16.045,16.046,16.044,16.046
201902201906,16.046,16.05,16.045,16.05
201902201907,16.05,16.055,16.05,16.055
201902201908,16.055,16.057,16.055,16.056
201902201909,16.056,16.059,16.055,16.055
201902201910,16.055,16.056,16.055,16.055
201902201911,16.055,16.056,16.053,16.053
201902201912,16.053,16.053,16.051,16.052
201902201913,16.052,16.059,16.052,16.059
201902201914,16.059,16.06,16.056,16.059
201902201915,16.06,16.065,16.06,16.064
201902201916,16.064,16.064,16.06,16.06
201902201917,16.06,16.06,16.056,16.059
201902201918,16.059,16.061,16.059,16.061
201902201919,16.061,16.061,16.058,16.059
201902201920,16.059,16.06,16.059,16.059
201902201921,16.059,16.06,16.056,16.06
201902201922,16.06,16.06,16.06,16.06
201902201923,16.06,16.065,16.06,16.065
201902201924,16.065,16.065,16.06,16.061
201902201925,16.061,16.061,16.06,16.06
201902201926,16.06,16.061,16.06,16.061
201902201927,16.061,16.062,16.06,16.061
201902201928,16.061,16.062,16.06,16.062
201902201929,16.062,16.062,16.056,16.056
201902201930,16.056,16.07,16.056,16.066
201902201931,16.066,16.066,16.062,16.064
201902201932,16.064,16.065,16.06,16.064
201902201933,16.064,16.064,16.061,16.062
201902201934,16.062,16.063,16.061,16.061
201902201935,16.061,16.061,16.061,16.061
201902201936,16.061,16.062,16.06,16.061
201902201937,16.061,16.064,16.06,16.061
201902201938,16.061,16.064,16.06,16.064
201902201939,16.064,16.065,16.063,16.064
201902201940,16.064,16.064,16.06,16.061
201902201941,16.061,16.063,16.061,16.061
201902201942,16.061,16.061,16.061,16.061
201902201943,16.061,16.062,16.061,16.061
201902201944,16.061,16.064,16.061,16.064
201902201945,16.064,16.064,16.061,16.064
201902201946,16.064,16.064,16.063,16.064
201902201947,16.064,16.064,16.061,16.064
201902201948,16.064,16.064,16.064,16.064
201902201949,16.064,16.064,16.063,16.063
201902201950,16.063,16.064,16.063,16.064
201902201951,16.064,16.065,16.063,16.064
201902201952,16.063,16.063,16.059,16.059
201902201953,16.059,16.063,16.059,16.06
201902201954,16.06,16.06,16.06,16.06
201902201955,16.06,16.06,16.055,16.059
201902201956,16.059,16.059,16.054,16.054
201902201957,16.054,16.056,16.054,16.056
201902201958,16.056,16.058,16.055,16.058
201902201959,16.058,16.058,16.055,16.056
201902202000,16.056,16.056,16.055,16.055
201902202001,16.055,16.055,16.051,16.051
201902202002,16.051,16.054,16.05,16.054
201902202003,16.054,16.055,16.054,16.054
201902202004,16.054,16.055,16.051,16.053
201902202005,16.053,16.058,16.051,16.058
201902202006,16.058,16.06,16.058,16.059
201902202007,16.06,16.06,16.059,16.06
201902202008,16.06,16.06,16.055,16.055
201902202009,16.055,16.059,16.055,16.058
201902202010,16.058,16.058,16.056,16.058
201902202011,16.058,16.058,16.055,16.055
201902202012,16.055,16.06,16.055,16.06
201902202013,16.06,16.061,16.059,16.06
201902202014,16.06,16.063,16.06,16.063
201902202015,16.063,16.065,16.063,16.064
201902202016,16.064,16.065,16.064,16.065
201902202017,16.065,16.065,16.064,16.065
201902202018,16.065,16.065,16.059,16.059
201902202019,16.059,16.059,16.054,16.055
201902202020,16.055,16.058,16.055,16.058
201902202021,16.059,16.059,16.055,16.055
201902202022,16.055,16.058,16.055,16.055
201902202023,16.055,16.059,16.055,16.058
201902202024,16.058,16.058,16.055,16.058
201902202025,16.058,16.059,16.058,16.059
201902202026,16.059,16.059,16.057,16.058
201902202027,16.058,16.058,16.054,16.054
201902202028,16.054,16.055,16.054,16.054
201902202029,16.054,16.054,16.053,16.053
201902202030,16.053,16.054,16.053,16.054
201902202031,16.054,16.054,16.052,16.054
201902202032,16.054,16.054,16.049,16.053
201902202033,16.053,16.053,16.051,16.052
201902202034,16.052,16.053,16.052,16.053
201902202035,16.053,16.053,16.052,16.053
201902202036,16.053,16.053,16.053,16.053
201902202037,16.053,16.057,16.053,16.054
201902202038,16.054,16.057,16.054,16.057
201902202039,16.057,16.057,16.049,16.049
201902202040,16.049,16.049,16.049,16.049
201902202041,16.049,16.049,16.047,16.047
201902202042,16.047,16.048,16.043,16.043
201902202043,16.043,16.043,16.043,16.043
201902202044,16.043,16.043,16.042,16.043
201902202045,16.042,16.043,16.039,16.04
201902202046,16.04,16.04,16.034,16.038
201902202047,16.037,16.039,16.037,16.038
201902202048,16.038,16.043,16.038,16.043
201902202049,16.042,16.043,16.042,16.043
201902202050,16.043,16.047,16.042,16.047
201902202051,16.046,16.047,16.045,16.045
201902202052,16.045,16.048,16.044,16.048
201902202053,16.047,16.047,16.044,16.044
201902202054,16.044,16.047,16.043,16.045
201902202055,16.045,16.045,16.043,16.043
201902202056,16.043,16.043,16.042,16.043
201902202057,16.043,16.046,16.042,16.046
201902202058,16.046,16.046,16.043,16.046
201902202059,16.046,16.047,16.039,16.042
201902202100,16.042,16.042,16.034,16.034
201902202101,16.034,16.038,16.027,16.029
201902202102,16.029,16.033,16.028,16.033
201902202103,16.033,16.033,16.024,16.024
201902202104,16.024,16.028,16.024,16.028
201902202105,16.027,16.028,16.019,16.019
201902202106,16.019,16.019,16.014,16.019
201902202107,16.019,16.019,16.013,16.013
201902202108,16.012,16.014,16.003,16.003
201902202109,16.004,16.008,16.004,16.004
201902202110,16.004,16.004,16.003,16.004
201902202111,16.004,16.009,16.004,16.009
201902202112,16.009,16.019,16.009,16.018
201902202113,16.018,16.028,16.017,16.028
201902202114,16.028,16.028,16.026,16.028
201902202115,16.028,16.038,16.027,16.038
201902202116,16.038,16.038,16.032,16.035
201902202117,16.035,16.039,16.034,16.039
201902202118,16.039,16.04,16.034,16.035
201902202119,16.034,16.036,16.031,16.035
201902202120,16.035,16.04,16.032,16.034
201902202121,16.034,16.035,16.03,16.03
201902202122,16.03,16.03,16.029,16.03
201902202123,16.03,16.031,16.029,16.029
201902202124,16.029,16.031,16.028,16.031
201902202125,16.031,16.031,16.03,16.031
201902202126,16.031,16.031,16.025,16.026
201902202127,16.026,16.026,16.025,16.026
201902202128,16.026,16.026,16.023,16.023
201902202129,16.023,16.029,16.023,16.029
201902202130,16.029,16.034,16.029,16.034
201902202131,16.034,16.036,16.034,16.036
201902202132,16.036,16.045,16.036,16.045
201902202133,16.045,16.045,16.04,16.04
201902202134,16.04,16.044,16.04,16.044
201902202135,16.041,16.046,16.041,16.044
201902202136,16.044,16.045,16.041,16.042
201902202137,16.042,16.044,16.042,16.044
201902202138,16.045,16.045,16.037,16.037
201902202139,16.037,16.038,16.037,16.037
201902202140,16.037,16.04,16.037,16.04
201902202141,16.04,16.041,16.04,16.04
201902202142,16.04,16.041,16.04,16.04
201902202143,16.04,16.041,16.04,16.04
201902202144,16.04,16.04,16.04,16.04
201902202145,16.04,16.04,16.04,16.04
201902202146,16.04,16.041,16.04,16.041
201902202147,16.041,16.046,16.041,16.046
201902202148,16.046,16.05,16.046,16.05
201902202149,16.05,16.05,16.049,16.05
201902202150,16.05,16.05,16.049,16.05
201902202151,16.05,16.055,16.049,16.052
201902202152,16.052,16.055,16.052,16.052
201902202153,16.052,16.052,16.046,16.046
201902202154,16.046,16.047,16.046,16.046
201902202155,16.046,16.046,16.046,16.046
201902202156,16.046,16.046,16.044,16.045
201902202157,16.045,16.045,16.044,16.044
201902202158,16.044,16.045,16.044,16.045
201902202159,16.045,16.045,16.044,16.045
201902202200,16.045,16.048,16.044,16.045
201902202201,16.045,16.048,16.045,16.046
201902202202,16.046,16.05,16.046,16.05
201902202203,16.051,16.051,16.049,16.05
201902202204,16.05,16.051,16.049,16.05
201902202205,16.05,16.051,16.049,16.05
201902202206,16.05,16.051,16.05,16.05
201902202207,16.05,16.05,16.048,16.048
201902202208,16.048,16.05,16.048,16.049
201902202209,16.05,16.05,16.049,16.05
201902202210,16.05,16.05,16.048,16.048
201902202211,16.048,16.049,16.046,16.047
201902202212,16.047,16.054,16.047,16.054
201902202213,16.054,16.055,16.051,16.052
201902202214,16.052,16.052,16.046,16.047
201902202215,16.047,16.047,16.035,16.036
201902202216,16.036,16.036,16.029,16.035
201902202217,16.035,16.054,16.035,16.054
201902202218,16.054,16.054,16.048,16.049
201902202219,16.049,16.049,16.042,16.045
201902202220,16.045,16.045,16.03,16.03
201902202221,16.03,16.031,16.029,16.031
201902202222,16.031,16.034,16.03,16.031
201902202223,16.032,16.032,16.03,16.03
201902202224,16.03,16.03,16.022,16.026
201902202225,16.025,16.035,16.025,16.034
201902202226,16.034,16.039,16.033,16.038
201902202227,16.036,16.038,16.026,16.026
201902202228,16.025,16.025,16.02,16.021
201902202229,16.021,16.025,16.019,16.02
201902202230,16.02,16.024,16.02,16.02
201902202231,16.02,16.03,16.019,16.029
201902202232,16.029,16.029,16.025,16.025
201902202233,16.025,16.025,16.018,16.023
201902202234,16.023,16.023,16.018,16.019
201902202235,16.019,16.019,16.016,16.016
201902202236,16.016,16.016,16.011,16.015
201902202237,16.015,16.02,16.015,16.02
201902202238,16.02,16.029,16.02,16.029
201902202239,16.03,16.032,16.029,16.03
201902202240,16.03,16.039,16.03,16.037
201902202241,16.037,16.041,16.036,16.041
201902202242,16.041,16.042,16.041,16.042
201902202243,16.042,16.042,16.036,16.038
201902202244,16.039,16.044,16.037,16.04
201902202245,16.04,16.04,16.036,16.036
201902202246,16.036,16.04,16.036,16.037
201902202247,16.037,16.038,16.037,16.037
201902202248,16.037,16.045,16.036,16.045
201902202249,16.045,16.045,16.041,16.041
201902202250,16.041,16.045,16.041,16.045
201902202251,16.044,16.05,16.044,16.048
201902202252,16.047,16.047,16.045,16.046
201902202253,16.046,16.05,16.046,16.05
201902202254,16.05,16.05,16.043,16.045
201902202255,16.045,16.045,16.038,16.04
201902202256,16.04,16.047,16.038,16.047
201902202257,16.047,16.047,16.038,16.041
201902202258,16.041,16.045,16.041,16.045
201902202259,16.045,16.045,16.036,16.036
201902202300,16.036,16.036,16.006,16.015
201902202301,16.015,16.031,16.015,16.027
201902202302,16.027,16.034,16.027,16.033
201902202303,16.033,16.04,16.033,16.04
201902202304,16.04,16.044,16.04,16.044
201902202305,16.044,16.049,16.044,16.049
201902202306,16.049,16.05,16.048,16.049
201902202307,16.049,16.057,16.049,16.049
201902202308,16.047,16.049,16.044,16.049
201902202309,16.049,16.049,16.048,16.049
201902202310,16.049,16.049,16.04,16.042
201902202311,16.043,16.053,16.04,16.053
201902202312,16.053,16.057,16.052,16.054
201902202313,16.054,16.054,16.049,16.053
201902202314,16.053,16.053,16.052,16.053
201902202315,16.053,16.053,16.048,16.048
201902202316,16.048,16.052,16.047,16.049
201902202317,16.049,16.049,16.048,16.049
201902202318,16.049,16.053,16.049,16.053
201902202319,16.053,16.053,16.039,16.039
201902202320,16.039,16.049,16.039,16.044
201902202321,16.044,16.048,16.044,16.045
201902202322,16.045,16.048,16.045,16.047
201902202323,16.048,16.055,16.048,16.054
201902202324,16.054,16.059,16.053,16.057
201902202325,16.057,16.057,16.053,16.054
201902202326,16.054,16.058,16.053,16.055
201902202327,16.057,16.059,16.055,16.058
201902202328,16.058,16.059,16.058,16.058
201902202329,16.058,16.059,16.058,16.059
201902202330,16.059,16.06,16.058,16.059
201902202331,16.059,16.06,16.05,16.05
201902202332,16.05,16.051,16.044,16.051
201902202333,16.051,16.051,16.044,16.046
201902202334,16.046,16.05,16.046,16.047
201902202335,16.049,16.049,16.041,16.041
201902202336,16.041,16.041,16.032,16.034
201902202337,16.034,16.038,16.033,16.036
201902202338,16.036,16.044,16.036,16.037
201902202339,16.037,16.037,16.031,16.034
201902202340,16.034,16.046,16.034,16.043
201902202341,16.043,16.049,16.042,16.049
201902202342,16.049,16.049,16.042,16.044
201902202343,16.044,16.055,16.044,16.054
201902202344,16.055,16.059,16.05,16.05
201902202345,16.051,16.054,16.051,16.051
201902202346,16.05,16.05,16.047,16.047
201902202347,16.047,16.054,16.047,16.054
201902202348,16.054,16.056,16.052,16.054
201902202349,16.054,16.054,16.05,16.05
201902202350,16.05,16.058,16.05,16.057
201902202351,16.057,16.057,16.054,16.056
201902202352,16.056,16.057,16.055,16.057
201902202353,16.057,16.057,16.054,16.057
201902202354,16.057,16.061,16.055,16.059
201902202355,16.059,16.059,16.056,16.056
201902202356,16.056,16.056,16.052,16.054
201902202357,16.054,16.059,16.054,16.059
201902202358,16.059,16.059,16.052,16.052
201902202359,16.052,16.054,16.052,16.052
201902210000,16.052,16.057,16.052,16.056
201902210001,16.056,16.058,16.051,16.057
201902210002,16.057,16.062,16.057,16.06
201902210003,16.061,16.061,16.059,16.06
201902210004,16.06,16.067,16.057,16.067
201902210005,16.066,16.074,16.066,16.07
201902210006,16.07,16.08,16.067,16.073
201902210007,16.073,16.073,16.057,16.058
201902210008,16.058,16.061,16.051,16.06
201902210009,16.06,16.06,16.049,16.055
201902210010,16.055,16.06,16.055,16.06
201902210011,16.06,16.065,16.06,16.063
201902210012,16.064,16.07,16.061,16.069
201902210013,16.069,16.071,16.062,16.064
201902210014,16.064,16.068,16.059,16.06
201902210015,16.06,16.065,16.051,16.053
201902210016,16.052,16.058,16.05,16.056
201902210017,16.056,16.06,16.056,16.059
201902210018,16.058,16.06,16.055,16.055
201902210019,16.054,16.054,16.048,16.049
201902210020,16.049,16.054,16.049,16.054
201902210021,16.054,16.056,16.053,16.054
201902210022,16.054,16.054,16.048,16.053
201902210023,16.053,16.055,16.052,16.055
201902210024,16.054,16.055,16.054,16.054
201902210025,16.054,16.058,16.054,16.058
201902210026,16.058,16.063,16.053,16.063
201902210027,16.063,16.068,16.063,16.064
201902210028,16.064,16.074,16.064,16.071
201902210029,16.071,16.074,16.069,16.073
201902210030,16.074,16.084,16.072,16.079
201902210031,16.079,16.079,16.071,16.071
201902210032,16.073,16.077,16.072,16.074
201902210033,16.074,16.078,16.073,16.078
201902210034,16.078,16.083,16.072,16.074
201902210035,16.073,16.078,16.072,16.072
201902210036,16.072,16.074,16.069,16.073
201902210037,16.073,16.08,16.073,16.078
201902210038,16.078,16.082,16.073,16.079
201902210039,16.079,16.082,16.073,16.074
201902210040,16.074,16.083,16.074,16.083
201902210041,16.083,16.083,16.074,16.079
201902210042,16.079,16.082,16.078,16.078
201902210043,16.078,16.079,16.073,16.074
201902210044,16.074,16.075,16.069,16.071
201902210045,16.073,16.078,16.072,16.078
201902210046,16.078,16.078,16.072,16.074
201902210047,16.074,16.074,16.073,16.073
201902210048,16.073,16.079,16.072,16.079
201902210049,16.079,16.081,16.079,16.079
201902210050,16.079,16.082,16.078,16.08
201902210051,16.08,16.083,16.078,16.079
201902210052,16.079,16.082,16.079,16.08
201902210053,16.08,16.08,16.074,16.074
201902210054,16.074,16.083,16.074,16.082
201902210055,16.082,16.088,16.082,16.088
201902210056,16.088,16.088,16.082,16.083
201902210057,16.083,16.088,16.083,16.084
201902210058,16.084,16.088,16.084,16.087
201902210059,16.087,16.091,16.084,16.089
201902210100,16.089,16.094,16.089,16.093
201902210101,16.093,16.098,16.093,16.093
201902210102,16.093,16.103,16.093,16.102
201902210103,16.102,16.103,16.097,16.101
201902210104,16.1,16.102,16.097,16.1
201902210105,16.1,16.106,16.1,16.106
201902210106,16.107,16.107,16.098,16.101
201902210107,16.101,16.102,16.097,16.098
201902210108,16.098,16.101,16.097,16.097
201902210109,16.097,16.102,16.097,16.099
201902210110,16.099,16.103,16.098,16.103
201902210111,16.103,16.106,16.099,16.103
201902210112,16.103,16.103,16.102,16.103
201902210113,16.103,16.108,16.102,16.108
201902210114,16.108,16.113,16.107,16.109
201902210115,16.108,16.112,16.108,16.108
201902210116,16.109,16.109,16.107,16.109
201902210117,16.109,16.113,16.109,16.112
201902210118,16.112,16.113,16.108,16.108
201902210119,16.108,16.114,16.108,16.113
201902210120,16.112,16.123,16.112,16.123
201902210121,16.123,16.137,16.122,16.128
201902210122,16.128,16.128,16.123,16.123
201902210123,16.122,16.125,16.117,16.122
201902210124,16.122,16.127,16.118,16.123
201902210125,16.123,16.127,16.122,16.122
201902210126,16.122,16.123,16.119,16.121
201902210127,16.121,16.126,16.12,16.126
201902210128,16.127,16.132,16.126,16.128
201902210129,16.128,16.129,16.123,16.129
201902210130,16.13,16.13,16.127,16.127
201902210131,16.127,16.127,16.126,16.127
201902210132,16.127,16.131,16.125,16.125
201902210133,16.125,16.125,16.12,16.12
201902210134,16.12,16.121,16.116,16.116
201902210135,16.117,16.125,16.116,16.122
201902210136,16.122,16.122,16.117,16.121
201902210137,16.121,16.124,16.121,16.121
201902210138,16.121,16.122,16.121,16.121
201902210139,16.121,16.122,16.117,16.119
201902210140,16.12,16.121,16.116,16.116
201902210141,16.116,16.116,16.114,16.114
201902210142,16.115,16.116,16.113,16.114
201902210143,16.114,16.115,16.111,16.111
201902210144,16.111,16.115,16.111,16.111
201902210145,16.111,16.117,16.111,16.115
201902210146,16.115,16.116,16.114,16.114
201902210147,16.114,16.116,16.113,16.116
201902210148,16.116,16.116,16.116,16.116
201902210149,16.116,16.121,16.116,16.119
201902210150,16.119,16.12,16.116,16.12
201902210151,16.12,16.126,16.119,16.125
201902210152,16.125,16.127,16.124,16.127
201902210153,16.127,16.127,16.126,16.126
201902210154,16.126,16.126,16.125,16.126
201902210155,16.127,16.127,16.122,16.126
201902210156,16.126,16.127,16.124,16.126
201902210157,16.126,16.126,16.122,16.122
201902210158,16.122,16.123,16.122,16.123
201902210159,16.123,16.123,16.122,16.122
201902210200,16.122,16.123,16.121,16.122
201902210201,16.122,16.123,16.122,16.122
201902210202,16.122,16.123,16.117,16.121
201902210203,16.121,16.121,16.117,16.118
201902210204,16.118,16.122,16.118,16.121
201902210205,16.121,16.121,16.115,16.116
201902210206,16.116,16.116,16.115,16.116
201902210207,16.116,16.117,16.112,16.115
201902210208,16.115,16.115,16.111,16.111
201902210209,16.111,16.112,16.111,16.111
201902210210,16.111,16.122,16.111,16.121
201902210211,16.121,16.129,16.12,16.127
201902210212,16.127,16.131,16.127,16.13
201902210213,16.13,16.136,16.126,16.133
201902210214,16.133,16.133,16.13,16.13
201902210215,16.13,16.136,16.13,16.132
201902210216,16.132,16.136,16.131,16.135
201902210217,16.135,16.141,16.135,16.141
201902210218,16.141,16.141,16.14,16.141
201902210219,16.141,16.143,16.133,16.134
201902210220,16.131,16.135,16.131,16.132
201902210221,16.132,16.135,16.131,16.131
201902210222,16.131,16.135,16.131,16.131
201902210223,16.131,16.135,16.131,16.134
201902210224,16.134,16.135,16.131,16.135
201902210225,16.135,16.135,16.132,16.135
201902210226,16.134,16.135,16.13,16.134
201902210227,16.134,16.134,16.125,16.125
201902210228,16.125,16.13,16.125,16.13
201902210229,16.13,16.13,16.128,16.128
201902210230,16.128,16.13,16.125,16.13
201902210231,16.13,16.13,16.129,16.13
201902210232,16.13,16.131,16.13,16.13
201902210233,16.13,16.131,16.13,16.13
201902210234,16.13,16.13,16.13,16.13
201902210235,16.13,16.135,16.13,16.135
201902210236,16.135,16.139,16.135,16.139
201902210237,16.138,16.15,16.137,16.14
201902210238,16.14,16.14,16.134,16.135
201902210239,16.135,16.136,16.132,16.136
201902210240,16.136,16.139,16.133,16.133
201902210241,16.132,16.135,16.13,16.135
201902210242,16.135,16.135,16.133,16.134
201902210243,16.134,16.139,16.134,16.138
201902210244,16.138,16.14,16.137,16.138
201902210245,16.138,16.145,16.138,16.143
201902210246,16.143,16.144,16.14,16.143
201902210247,16.143,16.149,16.143,16.144
201902210248,16.145,16.15,16.145,16.149
201902210249,16.149,16.15,16.149,16.149
201902210250,16.149,16.15,16.148,16.149
201902210251,16.149,16.157,16.149,16.15
201902210252,16.15,16.156,16.15,16.156
201902210253,16.155,16.155,16.149,16.154
201902210254,16.154,16.155,16.153,16.153
201902210255,16.154,16.155,16.149,16.154
201902210256,16.154,16.155,16.15,16.155
201902210257,16.155,16.155,16.153,16.154
201902210258,16.153,16.155,16.15,16.155
201902210259,16.155,16.155,16.152,16.154
201902210300,16.154,16.16,16.152,16.159
201902210301,16.16,16.165,16.16,16.164
201902210302,16.164,16.165,16.162,16.164
201902210303,16.165,16.169,16.164,16.167
201902210304,16.167,16.169,16.164,16.167
201902210305,16.169,16.17,16.167,16.169
201902210306,16.169,16.169,16.167,16.168
201902210307,16.168,16.168,16.163,16.164
201902210308,16.164,16.168,16.163,16.168
201902210309,16.168,16.184,16.166,16.183
201902210310,16.183,16.208,16.182,16.207
201902210311,16.207,16.207,16.185,16.186
201902210312,16.187,16.189,16.177,16.178
201902210313,16.178,16.187,16.177,16.187
201902210314,16.187,16.187,16.176,16.183
201902210315,16.182,16.183,16.181,16.182
201902210316,16.182,16.182,16.18,16.182
201902210317,16.181,16.182,16.181,16.182
201902210318,16.182,16.182,16.181,16.181
201902210319,16.181,16.182,16.176,16.177
201902210320,16.177,16.189,16.176,16.188
201902210321,16.188,16.193,16.187,16.187
201902210322,16.187,16.189,16.186,16.187
201902210323,16.187,16.188,16.181,16.187
201902210324,16.187,16.197,16.187,16.197
201902210325,16.196,16.203,16.195,16.201
201902210326,16.201,16.202,16.197,16.197
201902210327,16.197,16.198,16.187,16.188
201902210328,16.188,16.189,16.182,16.184
201902210329,16.186,16.188,16.179,16.179
201902210330,16.179,16.183,16.177,16.183
201902210331,16.183,16.188,16.183,16.187
201902210332,16.187,16.188,16.186,16.187
201902210333,16.187,16.192,16.186,16.191
201902210334,16.192,16.193,16.19,16.192
201902210335,16.192,16.193,16.19,16.193
201902210336,16.193,16.193,16.181,16.182
201902210337,16.182,16.183,16.181,16.183
201902210338,16.183,16.184,16.177,16.182
201902210339,16.182,16.183,16.177,16.183
201902210340,16.183,16.183,16.182,16.183
201902210341,16.183,16.183,16.182,16.183
201902210342,16.183,16.192,16.182,16.192
201902210343,16.192,16.194,16.188,16.189
201902210344,16.189,16.193,16.187,16.189
201902210345,16.189,16.189,16.187,16.188
201902210346,16.188,16.188,16.186,16.187
201902210347,16.187,16.187,16.177,16.178
201902210348,16.178,16.179,16.177,16.178
201902210349,16.178,16.184,16.178,16.183
201902210350,16.183,16.183,16.181,16.182
201902210351,16.182,16.183,16.182,16.183
201902210352,16.183,16.184,16.182,16.182
201902210353,16.183,16.183,16.181,16.181
201902210354,16.182,16.183,16.181,16.183
201902210355,16.183,16.183,16.164,16.168
201902210356,16.168,16.168,16.153,16.153
201902210357,16.153,16.154,16.149,16.153
201902210358,16.153,16.153,16.143,16.143
201902210359,16.144,16.159,16.139,16.155
201902210400,16.154,16.163,16.15,16.162
201902210401,16.162,16.163,16.122,16.122
201902210402,16.123,16.131,16.104,16.109
201902210403,16.109,16.121,16.109,16.119
201902210404,16.119,16.133,16.112,16.112
201902210405,16.112,16.127,16.111,16.119
201902210406,16.118,16.132,16.115,16.117
201902210407,16.118,16.129,16.109,16.11
201902210408,16.11,16.13,16.108,16.128
201902210409,16.128,16.128,16.11,16.112
201902210410,16.111,16.114,16.093,16.093
201902210411,16.093,16.098,16.047,16.047
201902210412,16.048,16.069,16.048,16.058
201902210413,16.057,16.058,16.05,16.053
201902210414,16.053,16.053,16.044,16.044
201902210415,16.044,16.045,16.031,16.043
201902210416,16.043,16.043,16.026,16.026
201902210417,16.026,16.029,16.022,16.025
201902210418,16.025,16.038,16.024,16.036
201902210419,16.036,16.041,16.034,16.04
201902210420,16.04,16.043,16.034,16.037
201902210421,16.037,16.037,16.029,16.034
201902210422,16.034,16.034,16.023,16.024
201902210423,16.024,16.036,16.024,16.035
201902210424,16.035,16.041,16.035,16.041
201902210425,16.041,16.045,16.04,16.045
201902210426,16.045,16.055,16.042,16.045
201902210427,16.045,16.055,16.043,16.055
201902210428,16.055,16.058,16.054,16.057
201902210429,16.057,16.062,16.055,16.058
201902210430,16.058,16.062,16.054,16.06
201902210431,16.06,16.062,16.058,16.061
201902210432,16.061,16.062,16.058,16.06
201902210433,16.06,16.076,16.06,16.075
201902210434,16.075,16.087,16.072,16.087
201902210435,16.087,16.087,16.078,16.084
201902210436,16.084,16.088,16.083,16.088
201902210437,16.088,16.095,16.088,16.095
201902210438,16.095,16.095,16.088,16.089
201902210439,16.089,16.103,16.089,16.103
201902210440,16.103,16.103,16.095,16.096
201902210441,16.097,16.097,16.087,16.093
201902210442,16.093,16.097,16.093,16.094
201902210443,16.094,16.098,16.094,16.097
201902210444,16.097,16.104,16.096,16.104
201902210445,16.104,16.105,16.104,16.104
201902210446,16.106,16.108,16.105,16.105
201902210447,16.105,16.106,16.102,16.104
201902210448,16.104,16.106,16.103,16.106
201902210449,16.108,16.109,16.105,16.105
201902210450,16.105,16.111,16.104,16.111
201902210451,16.111,16.112,16.11,16.112
201902210452,16.115,16.131,16.115,16.131
201902210453,16.131,16.131,16.126,16.126
201902210454,16.126,16.129,16.125,16.129
201902210455,16.129,16.13,16.126,16.126
201902210456,16.126,16.126,16.122,16.123
201902210457,16.123,16.126,16.122,16.126
201902210458,16.126,16.126,16.119,16.12
201902210459,16.121,16.121,16.118,16.119
201902210500,16.119,16.119,16.104,16.104
201902210501,16.104,16.114,16.104,16.11
201902210502,16.11,16.117,16.109,16.116
201902210503,16.116,16.121,16.115,16.119
201902210504,16.117,16.117,16.112,16.115
201902210505,16.115,16.116,16.115,16.115
201902210506,16.115,16.115,16.114,16.115
201902210507,16.114,16.115,16.112,16.113
201902210508,16.114,16.12,16.113,16.114
201902210509,16.114,16.115,16.109,16.113
201902210510,16.115,16.12,16.114,16.119
201902210511,16.119,16.119,16.112,16.114
201902210512,16.114,16.115,16.105,16.115
201902210513,16.115,16.115,16.109,16.114
201902210514,16.113,16.114,16.111,16.114
201902210515,16.114,16.116,16.113,16.114
201902210516,16.114,16.121,16.114,16.121
201902210517,16.121,16.124,16.119,16.121
201902210518,16.122,16.122,16.118,16.118
201902210519,16.118,16.118,16.115,16.117
201902210520,16.118,16.119,16.115,16.116
201902210521,16.115,16.119,16.115,16.116
201902210522,16.116,16.119,16.114,16.114
201902210523,16.114,16.114,16.111,16.113
201902210524,16.113,16.114,16.109,16.11
201902210525,16.11,16.114,16.11,16.113
201902210526,16.113,16.115,16.111,16.113
201902210527,16.113,16.114,16.113,16.114
201902210528,16.114,16.115,16.108,16.108
201902210529,16.108,16.109,16.105,16.106
201902210530,16.105,16.105,16.1,16.102
201902210531,16.102,16.105,16.098,16.098
201902210532,16.098,16.1,16.098,16.1
201902210533,16.099,16.1,16.095,16.096
201902210534,16.095,16.095,16.09,16.09
201902210535,16.09,16.09,16.087,16.088
201902210536,16.088,16.09,16.086,16.089
201902210537,16.089,16.09,16.089,16.09
201902210538,16.09,16.09,16.089,16.089
201902210539,16.089,16.089,16.086,16.088
201902210540,16.088,16.09,16.088,16.09
201902210541,16.09,16.09,16.088,16.09
201902210542,16.09,16.09,16.083,16.083
201902210543,16.083,16.084,16.083,16.083
201902210544,16.083,16.084,16.081,16.083
201902210545,16.083,16.084,16.083,16.083
201902210546,16.083,16.088,16.069,16.078
201902210547,16.079,16.084,16.078,16.079
201902210548,16.079,16.079,16.077,16.077
201902210549,16.077,16.077,16.075,16.075
201902210550,16.075,16.075,16.07,16.072
201902210551,16.072,16.076,16.072,16.075
201902210552,16.073,16.076,16.073,16.073
201902210553,16.073,16.076,16.073,16.076
201902210554,16.076,16.078,16.075,16.078
201902210555,16.078,16.078,16.073,16.073
201902210556,16.073,16.073,16.068,16.069
201902210557,16.068,16.073,16.068,16.069
201902210558,16.068,16.068,16.064,16.068
201902210559,16.068,16.069,16.064,16.065
201902210600,16.065,16.065,16.061,16.065
201902210601,16.065,16.065,16.059,16.059
201902210602,16.059,16.059,16.055,16.055
201902210603,16.055,16.059,16.055,16.059
201902210604,16.059,16.065,16.059,16.065
201902210605,16.065,16.066,16.065,16.066
201902210606,16.066,16.069,16.066,16.069
201902210607,16.069,16.069,16.061,16.061
201902210608,16.061,16.065,16.061,16.065
201902210609,16.065,16.065,16.064,16.064
201902210610,16.064,16.065,16.064,16.064
201902210611,16.064,16.064,16.064,16.064
201902210612,16.064,16.064,16.063,16.064
201902210613,16.064,16.065,16.061,16.061
201902210614,16.061,16.063,16.06,16.06
201902210615,16.06,16.061,16.06,16.06
201902210616,16.06,16.061,16.058,16.059
201902210617,16.059,16.059,16.056,16.056
201902210618,16.056,16.056,16.056,16.056
201902210619,16.056,16.056,16.056,16.056
201902210620,16.056,16.056,16.055,16.055
201902210621,16.055,16.056,16.055,16.055
201902210622,16.055,16.056,16.055,16.055
201902210623,16.055,16.056,16.055,16.056
201902210624,16.055,16.055,16.055,16.055
201902210625,16.055,16.055,16.051,16.051
201902210626,16.051,16.051,16.051,16.051
201902210627,16.051,16.051,16.049,16.049
201902210628,16.049,16.049,16.046,16.046
201902210629,16.046,16.046,16.038,16.038
201902210630,16.038,16.043,16.038,16.043
201902210631,16.043,16.046,16.043,16.046
201902210632,16.046,16.048,16.046,16.047
201902210633,16.047,16.048,16.047,16.048
201902210634,16.048,16.05,16.048,16.048
201902210635,16.048,16.048,16.048,16.048
201902210636,16.048,16.049,16.048,16.049
201902210637,16.049,16.052,16.049,16.051
201902210638,16.051,16.053,16.05,16.052
201902210639,16.052,16.053,16.051,16.053
201902210640,16.053,16.053,16.053,16.053
201902210641,16.053,16.054,16.053,16.053
201902210642,16.053,16.056,16.053,16.056
201902210643,16.056,16.059,16.056,16.058
201902210644,16.058,16.058,16.057,16.058
201902210645,16.058,16.058,16.057,16.057
201902210646,16.057,16.058,16.054,16.054
201902210647,16.054,16.056,16.054,16.055
201902210648,16.055,16.056,16.055,16.056
201902210649,16.056,16.056,16.05,16.051
201902210650,16.051,16.052,16.05,16.051
201902210651,16.051,16.052,16.05,16.051
201902210652,16.051,16.051,16.048,16.049
201902210653,16.049,16.05,16.048,16.048
201902210654,16.048,16.05,16.048,16.049
201902210655,16.049,16.049,16.046,16.047
201902210656,16.047,16.048,16.046,16.046
201902210657,16.046,16.048,16.042,16.042
201902210658,16.042,16.045,16.04,16.044
201902210659,16.044,16.051,16.04,16.045
