日時,始値(BID),高値(BID),安値(BID),終値(BID)
201903210700,1312.5,1313,1312.5,1312.9
201903210701,1312.9,1313.4,1312.9,1313.2
201903210702,1313.2,1313.6,1313.2,1313.6
201903210703,1313.6,1313.7,1313.5,1313.5
201903210704,1313.6,1313.6,1313.3,1313.4
201903210705,1313.4,1313.4,1313.4,1313.4
201903210706,1313.4,1313.5,1313.4,1313.5
201903210707,1313.5,1313.5,1313.4,1313.5
201903210708,1313.5,1313.6,1313.5,1313.6
201903210709,1313.6,1313.6,1313.5,1313.5
201903210710,1313.5,1313.6,1313.5,1313.6
201903210711,1313.6,1313.6,1313.6,1313.6
201903210712,1313.6,1313.6,1313.6,1313.6
201903210713,1313.6,1313.6,1313.6,1313.6
201903210714,1313.6,1313.6,1313.5,1313.6
201903210715,1313.6,1313.6,1313.5,1313.6
201903210716,1313.6,1313.7,1313.5,1313.6
201903210717,1313.6,1313.6,1313.5,1313.5
201903210718,1313.5,1313.6,1313.4,1313.5
201903210719,1313.5,1313.7,1313.5,1313.7
201903210720,1313.7,1313.7,1313.6,1313.6
201903210721,1313.6,1313.8,1313.5,1313.8
201903210722,1313.8,1313.8,1313.6,1313.7
201903210723,1313.6,1313.8,1313.6,1313.7
201903210724,1313.7,1313.7,1313.7,1313.7
201903210725,1313.7,1313.8,1313.7,1313.7
201903210726,1313.7,1314.1,1313.7,1314
201903210727,1314,1314.1,1313.9,1314.1
201903210728,1314.1,1314.2,1314,1314
201903210729,1314.1,1314.1,1314,1314.1
201903210730,1314.1,1314.1,1314,1314
201903210731,1314,1314,1313.9,1314
201903210732,1314,1314.1,1314,1314
201903210733,1314,1314.1,1314,1314
201903210734,1314,1314.1,1314,1314
201903210735,1314.1,1314.1,1314,1314.1
201903210736,1314.1,1314.1,1314,1314.1
201903210737,1314.1,1314.1,1314.1,1314.1
201903210738,1314.1,1314.1,1313.9,1313.9
201903210739,1313.9,1313.9,1313.9,1313.9
201903210740,1313.9,1313.9,1313.8,1313.9
201903210741,1313.9,1313.9,1313.8,1313.9
201903210742,1313.9,1314,1313.8,1313.9
201903210743,1313.9,1314,1313.9,1313.9
201903210744,1313.9,1314,1313.9,1313.9
201903210745,1313.9,1314,1313.9,1313.9
201903210746,1313.9,1313.9,1313.9,1313.9
201903210747,1313.9,1314,1313.9,1313.9
201903210748,1313.9,1313.9,1313.8,1313.8
201903210749,1313.8,1313.9,1313.7,1313.7
201903210750,1313.7,1313.9,1313.7,1313.8
201903210751,1313.8,1314,1313.8,1314
201903210752,1314,1314,1313.8,1313.9
201903210753,1313.9,1314,1313.9,1313.9
201903210754,1313.9,1313.9,1313.9,1313.9
201903210755,1313.9,1313.9,1313.9,1313.9
201903210756,1313.9,1313.9,1313.9,1313.9
201903210757,1313.9,1313.9,1313.9,1313.9
201903210758,1313.9,1313.9,1313.9,1313.9
201903210759,1313.9,1313.9,1313.8,1313.9
201903210800,1313.9,1313.9,1313.8,1313.8
201903210801,1313.8,1314.1,1313.8,1314.1
201903210802,1314.1,1314.1,1314.1,1314.1
201903210803,1314.1,1314.1,1314,1314
201903210804,1314,1314.1,1314,1314.1
201903210805,1314.1,1314.1,1314.1,1314.1
201903210806,1314.1,1314.2,1314.1,1314.2
201903210807,1314.2,1314.2,1314.1,1314.1
201903210808,1314.1,1314.4,1314.1,1314.4
201903210809,1314.4,1314.5,1314.3,1314.5
201903210810,1314.5,1314.6,1314.5,1314.6
201903210811,1314.6,1314.6,1314.5,1314.6
201903210812,1314.6,1314.8,1314.6,1314.8
201903210813,1314.8,1314.8,1314.5,1314.5
201903210814,1314.5,1314.5,1314.5,1314.5
201903210815,1314.5,1314.5,1314.5,1314.5
201903210816,1314.5,1314.6,1314.5,1314.5
201903210817,1314.5,1314.5,1314.5,1314.5
201903210818,1314.5,1314.6,1314.5,1314.5
201903210819,1314.5,1314.5,1314.4,1314.4
201903210820,1314.4,1314.5,1314.4,1314.5
201903210821,1314.5,1314.5,1314.4,1314.4
201903210822,1314.4,1314.4,1314.4,1314.4
201903210823,1314.4,1314.5,1314.4,1314.5
201903210824,1314.5,1314.6,1314.5,1314.6
201903210825,1314.6,1314.6,1314.6,1314.6
201903210826,1314.6,1314.6,1314.6,1314.6
201903210827,1314.6,1314.6,1314.6,1314.6
201903210828,1314.6,1314.6,1314.6,1314.6
201903210829,1314.6,1314.6,1314.6,1314.6
201903210830,1314.6,1314.8,1314.6,1314.8
201903210831,1314.8,1314.8,1314.7,1314.7
201903210832,1314.7,1314.8,1314.7,1314.8
201903210833,1314.8,1314.8,1314.8,1314.8
201903210834,1314.8,1314.8,1314.8,1314.8
201903210835,1314.8,1314.8,1314.7,1314.7
201903210836,1314.7,1315,1314.7,1315
201903210837,1315,1315.1,1314.9,1315.1
201903210838,1315.1,1315.3,1315.1,1315.3
201903210839,1315.3,1315.3,1315.2,1315.2
201903210840,1315.2,1315.2,1315.2,1315.2
201903210841,1315.2,1315.3,1315.2,1315.3
201903210842,1315.3,1315.3,1315.3,1315.3
201903210843,1315.3,1315.5,1315.3,1315.5
201903210844,1315.5,1315.5,1315.5,1315.5
201903210845,1315.5,1315.5,1315.3,1315.3
201903210846,1315.3,1315.3,1315.2,1315.2
201903210847,1315.2,1315.5,1315.1,1315.4
201903210848,1315.4,1315.5,1315.3,1315.4
201903210849,1315.4,1315.4,1315.2,1315.3
201903210850,1315.3,1315.4,1315.2,1315.4
201903210851,1315.4,1315.4,1315.1,1315.1
201903210852,1315.1,1315.3,1315.1,1315.3
201903210853,1315.3,1315.3,1315.3,1315.3
201903210854,1315.3,1315.3,1315.3,1315.3
201903210855,1315.3,1315.5,1315.3,1315.5
201903210856,1315.5,1315.5,1315.5,1315.5
201903210857,1315.5,1315.5,1315.4,1315.4
201903210858,1315.4,1315.4,1315.4,1315.4
201903210859,1315.4,1315.4,1315.3,1315.3
201903210900,1315.3,1315.4,1315.3,1315.4
201903210901,1315.4,1315.5,1315.4,1315.4
201903210902,1315.4,1315.5,1315.3,1315.5
201903210903,1315.5,1315.7,1315.5,1315.7
201903210904,1315.7,1316,1315.7,1315.9
201903210905,1315.9,1315.9,1315.8,1315.8
201903210906,1315.8,1315.8,1315.6,1315.7
201903210907,1315.7,1315.8,1315.7,1315.7
201903210908,1315.7,1315.7,1315.5,1315.5
201903210909,1315.5,1315.5,1315.4,1315.4
201903210910,1315.4,1315.5,1315.3,1315.3
201903210911,1315.3,1315.3,1315.2,1315.2
201903210912,1315.2,1315.2,1315,1315
201903210913,1315.1,1315.1,1314.7,1314.8
201903210914,1314.8,1314.8,1314.8,1314.8
201903210915,1314.8,1314.8,1314.8,1314.8
201903210916,1314.8,1314.9,1314.8,1314.9
201903210917,1314.9,1315,1314.9,1314.9
201903210918,1314.9,1314.9,1314.9,1314.9
201903210919,1314.9,1314.9,1314.7,1314.7
201903210920,1314.7,1314.8,1314.5,1314.5
201903210921,1314.5,1314.6,1314.4,1314.4
201903210922,1314.4,1314.6,1314.4,1314.4
201903210923,1314.4,1314.5,1314.3,1314.5
201903210924,1314.5,1314.6,1314.5,1314.5
201903210925,1314.5,1314.7,1314.5,1314.7
201903210926,1314.7,1314.8,1314.7,1314.8
201903210927,1314.8,1315,1314.8,1314.9
201903210928,1314.9,1315.1,1314.9,1315
201903210929,1315,1315.1,1314.9,1315
201903210930,1315,1315.8,1315,1315.5
201903210931,1315.5,1315.6,1315.3,1315.3
201903210932,1315.3,1315.5,1315.3,1315.5
201903210933,1315.5,1315.5,1315.3,1315.4
201903210934,1315.3,1315.5,1315.3,1315.4
201903210935,1315.4,1315.4,1315.3,1315.3
201903210936,1315.3,1315.5,1315.3,1315.4
201903210937,1315.5,1315.5,1315.4,1315.5
201903210938,1315.5,1315.5,1315.4,1315.4
201903210939,1315.4,1315.5,1315.3,1315.3
201903210940,1315.3,1315.6,1315.3,1315.6
201903210941,1315.6,1315.6,1315.4,1315.5
201903210942,1315.5,1315.7,1315.5,1315.7
201903210943,1315.7,1315.8,1315.6,1315.8
201903210944,1315.8,1316,1315.8,1315.9
201903210945,1315.9,1315.9,1315.8,1315.8
201903210946,1315.8,1315.9,1315.8,1315.9
201903210947,1315.9,1315.9,1315.7,1315.7
201903210948,1315.7,1315.7,1315.7,1315.7
201903210949,1315.7,1315.8,1315.7,1315.8
201903210950,1315.8,1316.2,1315.8,1316
201903210951,1316,1316,1315.6,1315.6
201903210952,1315.6,1315.7,1315.6,1315.7
201903210953,1315.7,1315.7,1315.6,1315.6
201903210954,1315.6,1315.7,1315.6,1315.6
201903210955,1315.6,1315.6,1315.6,1315.6
201903210956,1315.6,1316,1315.6,1316
201903210957,1316,1316.1,1315.9,1316.1
201903210958,1316.1,1316.2,1316,1316
201903210959,1316,1316,1315.9,1315.9
201903211000,1315.9,1316.6,1315.9,1316.4
201903211001,1316.4,1316.4,1315.9,1316.2
201903211002,1316.2,1316.3,1315.6,1315.9
201903211003,1315.9,1316.2,1315.8,1316
201903211004,1316,1316.4,1316,1316.4
201903211005,1316.3,1316.3,1316.1,1316.2
201903211006,1316.2,1316.2,1316,1316
201903211007,1316,1316,1315.6,1315.6
201903211008,1315.6,1315.7,1315.6,1315.6
201903211009,1315.6,1315.7,1315.6,1315.6
201903211010,1315.6,1315.7,1315.4,1315.5
201903211011,1315.5,1315.5,1315.3,1315.5
201903211012,1315.5,1315.7,1315.5,1315.7
201903211013,1315.7,1315.9,1315.7,1315.8
201903211014,1315.8,1315.8,1315.7,1315.8
201903211015,1315.8,1315.8,1315.6,1315.6
201903211016,1315.6,1315.8,1315.6,1315.8
201903211017,1315.8,1315.8,1315.6,1315.6
201903211018,1315.6,1315.8,1315.6,1315.7
201903211019,1315.7,1316,1315.7,1316
201903211020,1316,1316.1,1315.9,1315.9
201903211021,1315.9,1316,1315.8,1316
201903211022,1316,1316.1,1316,1316.1
201903211023,1316.1,1316.1,1315.9,1316
201903211024,1316,1316.2,1316,1316.2
201903211025,1316.2,1316.4,1316.1,1316.4
201903211026,1316.4,1316.4,1316.4,1316.4
201903211027,1316.4,1316.5,1316.4,1316.5
201903211028,1316.5,1316.5,1316.5,1316.5
201903211029,1316.5,1316.6,1316.5,1316.6
201903211030,1316.6,1316.6,1316.5,1316.6
201903211031,1316.6,1317.2,1316.6,1317.1
201903211032,1317.1,1317.2,1317,1317.2
201903211033,1317.2,1317.5,1317.2,1317.4
201903211034,1317.4,1317.4,1317.1,1317.3
201903211035,1317.3,1317.4,1317.2,1317.4
201903211036,1317.4,1317.4,1317.2,1317.4
201903211037,1317.4,1317.6,1317.4,1317.5
201903211038,1317.5,1317.6,1317.4,1317.5
201903211039,1317.5,1317.8,1317.4,1317.7
201903211040,1317.7,1318.1,1317.6,1317.9
201903211041,1317.9,1318.2,1317.9,1318.1
201903211042,1318.1,1318.1,1318,1318.1
201903211043,1318.1,1318.2,1318.1,1318.1
201903211044,1318.1,1318.1,1318,1318
201903211045,1318,1318,1317.9,1317.9
201903211046,1317.9,1317.9,1317.7,1317.7
201903211047,1317.7,1317.7,1317.7,1317.7
201903211048,1317.7,1317.8,1317.7,1317.7
201903211049,1317.7,1318,1317.7,1317.8
201903211050,1317.8,1318,1317.8,1317.9
201903211051,1317.9,1317.9,1317.8,1317.8
201903211052,1317.8,1317.8,1317.8,1317.8
201903211053,1317.8,1317.8,1317.6,1317.6
201903211054,1317.6,1317.6,1317.5,1317.6
201903211055,1317.6,1317.6,1317.6,1317.6
201903211056,1317.6,1317.6,1317.4,1317.5
201903211057,1317.5,1317.7,1317.5,1317.7
201903211058,1317.7,1317.9,1317.6,1317.8
201903211059,1317.8,1317.8,1317.6,1317.7
201903211100,1317.7,1317.8,1317.5,1317.6
201903211101,1317.6,1317.7,1317.5,1317.5
201903211102,1317.5,1317.7,1317.5,1317.6
201903211103,1317.6,1317.7,1317.4,1317.7
201903211104,1317.7,1318.1,1317.7,1317.9
201903211105,1317.9,1318,1317.8,1317.8
201903211106,1317.8,1318.2,1317.8,1318.1
201903211107,1318.1,1318.1,1318.1,1318.1
201903211108,1318.1,1318.3,1318.1,1318.3
201903211109,1318.3,1318.3,1318,1318.1
201903211110,1318.1,1318.2,1318.1,1318.1
201903211111,1318.1,1318.2,1318,1318.1
201903211112,1318.1,1318.2,1318.1,1318.2
201903211113,1318.2,1318.4,1318.2,1318.3
201903211114,1318.3,1318.3,1318.3,1318.3
201903211115,1318.3,1318.3,1318.2,1318.2
201903211116,1318.2,1318.3,1318.2,1318.3
201903211117,1318.3,1318.3,1318.2,1318.2
201903211118,1318.2,1318.3,1318.2,1318.3
201903211119,1318.3,1318.4,1318.2,1318.2
201903211120,1318.2,1318.3,1318.2,1318.2
201903211121,1318.2,1318.5,1318.1,1318.2
201903211122,1318.2,1318.4,1318.2,1318.3
201903211123,1318.3,1318.3,1318.3,1318.3
201903211124,1318.3,1318.4,1318.3,1318.4
201903211125,1318.4,1318.5,1318.3,1318.4
201903211126,1318.4,1318.5,1318.4,1318.5
201903211127,1318.5,1318.5,1318.4,1318.5
201903211128,1318.4,1318.5,1318.4,1318.5
201903211129,1318.5,1318.7,1318.5,1318.7
201903211130,1318.6,1318.7,1318.5,1318.6
201903211131,1318.6,1318.7,1318.3,1318.4
201903211132,1318.4,1318.5,1318.4,1318.4
201903211133,1318.4,1318.4,1318.4,1318.4
201903211134,1318.4,1318.5,1318.3,1318.3
201903211135,1318.3,1318.5,1318.3,1318.5
201903211136,1318.5,1318.8,1318.4,1318.7
201903211137,1318.7,1318.9,1318.7,1318.9
201903211138,1318.9,1318.9,1318.8,1318.9
201903211139,1318.9,1318.9,1318.6,1318.8
201903211140,1318.8,1318.9,1318.7,1318.7
201903211141,1318.7,1318.8,1318.6,1318.8
201903211142,1318.8,1318.8,1318.7,1318.8
201903211143,1318.8,1318.9,1318.8,1318.9
201903211144,1318.9,1318.9,1318.8,1318.8
201903211145,1318.8,1318.8,1318.6,1318.7
201903211146,1318.7,1318.8,1318.7,1318.7
201903211147,1318.7,1318.7,1318.7,1318.7
201903211148,1318.7,1318.8,1318.7,1318.7
201903211149,1318.7,1318.7,1318.6,1318.7
201903211150,1318.7,1318.7,1318.6,1318.7
201903211151,1318.7,1318.7,1318.6,1318.7
201903211152,1318.7,1318.7,1318.6,1318.6
201903211153,1318.6,1318.7,1318.6,1318.6
201903211154,1318.6,1318.6,1318.4,1318.4
201903211155,1318.4,1318.4,1318.3,1318.3
201903211156,1318.3,1318.4,1318.2,1318.2
201903211157,1318.2,1318.2,1318.1,1318.2
201903211158,1318.2,1318.3,1318.1,1318.3
201903211159,1318.3,1318.3,1318.2,1318.2
201903211200,1318.2,1318.3,1318.1,1318.3
201903211201,1318.3,1318.3,1318.3,1318.3
201903211202,1318.3,1318.3,1318.2,1318.2
201903211203,1318.2,1318.4,1318.2,1318.3
201903211204,1318.3,1318.3,1318.3,1318.3
201903211205,1318.3,1318.4,1318.3,1318.3
201903211206,1318.3,1318.4,1318.3,1318.4
201903211207,1318.4,1318.5,1318.4,1318.5
201903211208,1318.5,1318.5,1318.5,1318.5
201903211209,1318.5,1318.6,1318.5,1318.6
201903211210,1318.6,1318.6,1318.6,1318.6
201903211211,1318.6,1318.6,1318.5,1318.6
201903211212,1318.6,1318.6,1318.6,1318.6
201903211213,1318.6,1318.6,1318.5,1318.5
201903211214,1318.5,1318.5,1318.4,1318.4
201903211215,1318.4,1318.4,1318.3,1318.3
201903211216,1318.3,1318.4,1318.2,1318.2
201903211217,1318.2,1318.2,1318,1318
201903211218,1318,1318.1,1317.9,1317.9
201903211219,1317.9,1317.9,1317.6,1317.7
201903211220,1317.7,1317.7,1317.7,1317.7
201903211221,1317.7,1317.8,1317.7,1317.7
201903211222,1317.7,1317.8,1317.7,1317.7
201903211223,1317.7,1317.8,1317.7,1317.7
201903211224,1317.7,1317.7,1317.7,1317.7
201903211225,1317.7,1317.8,1317.7,1317.8
201903211226,1317.8,1317.8,1317.7,1317.7
201903211227,1317.7,1317.7,1317.7,1317.7
201903211228,1317.7,1317.7,1317.7,1317.7
201903211229,1317.7,1317.9,1317.7,1317.9
201903211230,1317.9,1318,1317.8,1317.8
201903211231,1317.8,1317.8,1317.8,1317.8
201903211232,1317.8,1317.8,1317.8,1317.8
201903211233,1317.8,1318,1317.8,1318
201903211234,1318,1318,1317.9,1317.9
201903211235,1317.9,1317.9,1317.8,1317.8
201903211236,1317.8,1318,1317.8,1317.9
201903211237,1317.9,1317.9,1317.9,1317.9
201903211238,1317.9,1317.9,1317.9,1317.9
201903211239,1317.9,1318.1,1317.9,1318
201903211240,1318,1318.3,1318,1318.3
201903211241,1318.3,1318.4,1318.3,1318.3
201903211242,1318.3,1318.3,1318.2,1318.2
201903211243,1318.2,1318.2,1318.1,1318.2
201903211244,1318.2,1318.2,1318.1,1318.1
201903211245,1318.1,1318.1,1318.1,1318.1
201903211246,1318.1,1318.2,1318.1,1318.2
201903211247,1318.2,1318.2,1318.2,1318.2
201903211248,1318.2,1318.2,1318.2,1318.2
201903211249,1318.2,1318.3,1318.2,1318.2
201903211250,1318.2,1318.3,1318.2,1318.3
201903211251,1318.3,1318.5,1318.3,1318.5
201903211252,1318.5,1318.5,1318.4,1318.5
201903211253,1318.5,1318.6,1318.5,1318.6
201903211254,1318.6,1318.6,1318.5,1318.6
201903211255,1318.5,1318.5,1318.5,1318.5
201903211256,1318.5,1318.6,1318.5,1318.5
201903211257,1318.5,1318.6,1318.5,1318.6
201903211258,1318.6,1318.6,1318.6,1318.6
201903211259,1318.6,1318.6,1318.6,1318.6
201903211300,1318.6,1318.6,1318.5,1318.5
201903211301,1318.5,1318.5,1318.5,1318.5
201903211302,1318.5,1318.5,1318.4,1318.4
201903211303,1318.4,1318.4,1318.3,1318.4
201903211304,1318.4,1318.4,1318.3,1318.4
201903211305,1318.4,1318.4,1318.4,1318.4
201903211306,1318.4,1318.4,1318.4,1318.4
201903211307,1318.4,1318.6,1318.4,1318.6
201903211308,1318.6,1318.7,1318.5,1318.7
201903211309,1318.7,1318.7,1318.7,1318.7
201903211310,1318.7,1318.7,1318.6,1318.6
201903211311,1318.6,1318.6,1318.6,1318.6
201903211312,1318.6,1318.7,1318.5,1318.7
201903211313,1318.7,1318.7,1318.6,1318.6
201903211314,1318.6,1318.6,1318.6,1318.6
201903211315,1318.6,1318.6,1318.5,1318.5
201903211316,1318.5,1318.6,1318.5,1318.6
201903211317,1318.6,1318.6,1318.5,1318.5
201903211318,1318.6,1318.6,1318.4,1318.5
201903211319,1318.5,1318.5,1318.4,1318.5
201903211320,1318.5,1318.5,1318.4,1318.5
201903211321,1318.5,1318.5,1318.4,1318.4
201903211322,1318.5,1318.5,1318.4,1318.4
201903211323,1318.4,1318.5,1318.4,1318.5
201903211324,1318.5,1318.6,1318.5,1318.6
201903211325,1318.6,1318.6,1318.6,1318.6
201903211326,1318.6,1318.6,1318.5,1318.6
201903211327,1318.6,1318.6,1318.6,1318.6
201903211328,1318.6,1318.6,1318.6,1318.6
201903211329,1318.6,1318.7,1318.6,1318.7
201903211330,1318.7,1318.7,1318.6,1318.6
201903211331,1318.6,1318.7,1318.6,1318.6
201903211332,1318.6,1318.6,1318.6,1318.6
201903211333,1318.6,1318.8,1318.6,1318.7
201903211334,1318.7,1318.7,1318.6,1318.6
201903211335,1318.6,1318.7,1318.6,1318.7
201903211336,1318.7,1318.7,1318.6,1318.7
201903211337,1318.7,1318.8,1318.6,1318.8
201903211338,1318.7,1318.7,1318.7,1318.7
201903211339,1318.7,1318.7,1318.7,1318.7
201903211340,1318.7,1318.9,1318.7,1318.9
201903211341,1318.9,1318.9,1318.9,1318.9
201903211342,1318.9,1318.9,1318.8,1318.8
201903211343,1318.8,1318.9,1318.8,1318.8
201903211344,1318.9,1318.9,1318.8,1318.8
201903211345,1318.8,1318.8,1318.8,1318.8
201903211346,1318.8,1318.8,1318.7,1318.8
201903211347,1318.8,1318.8,1318.7,1318.8
201903211348,1318.8,1318.8,1318.6,1318.7
201903211349,1318.7,1318.7,1318.5,1318.5
201903211350,1318.5,1318.5,1318.4,1318.5
201903211351,1318.5,1318.5,1318.4,1318.4
201903211352,1318.4,1318.5,1318.4,1318.5
201903211353,1318.5,1318.7,1318.5,1318.6
201903211354,1318.6,1318.7,1318.6,1318.6
201903211355,1318.6,1318.7,1318.6,1318.6
201903211356,1318.6,1318.7,1318.6,1318.7
201903211357,1318.7,1318.7,1318.6,1318.6
201903211358,1318.6,1318.7,1318.6,1318.6
201903211359,1318.6,1318.7,1318.6,1318.7
201903211400,1318.7,1318.7,1318.7,1318.7
201903211401,1318.7,1318.7,1318.7,1318.7
201903211402,1318.7,1318.7,1318.6,1318.6
201903211403,1318.6,1318.6,1318.6,1318.6
201903211404,1318.6,1318.7,1318.6,1318.7
201903211405,1318.7,1318.8,1318.7,1318.7
201903211406,1318.7,1318.7,1318.6,1318.6
201903211407,1318.6,1318.6,1318.5,1318.5
201903211408,1318.5,1318.5,1318.4,1318.5
201903211409,1318.5,1318.5,1318.4,1318.4
201903211410,1318.4,1318.5,1318.4,1318.5
201903211411,1318.5,1318.5,1318.4,1318.4
201903211412,1318.4,1318.4,1318.4,1318.4
201903211413,1318.4,1318.4,1318.4,1318.4
201903211414,1318.4,1318.4,1318.3,1318.3
201903211415,1318.3,1318.3,1318.3,1318.3
201903211416,1318.3,1318.3,1318.3,1318.3
201903211417,1318.3,1318.3,1318.3,1318.3
201903211418,1318.3,1318.3,1318.3,1318.3
201903211419,1318.3,1318.3,1318.3,1318.3
201903211420,1318.3,1318.3,1318.3,1318.3
201903211421,1318.3,1318.3,1318.3,1318.3
201903211422,1318.3,1318.4,1318.2,1318.2
201903211423,1318.2,1318.2,1318.2,1318.2
201903211424,1318.2,1318.2,1318.2,1318.2
201903211425,1318.2,1318.2,1318.1,1318.2
201903211426,1318.2,1318.2,1318.2,1318.2
201903211427,1318.2,1318.2,1318.2,1318.2
201903211428,1318.2,1318.3,1318.1,1318.1
201903211429,1318.1,1318.1,1318.1,1318.1
201903211430,1318.1,1318.1,1317.9,1318
201903211431,1318,1318,1317.9,1318
201903211432,1318,1318,1317.8,1317.9
201903211433,1317.8,1317.9,1317.7,1317.9
201903211434,1317.9,1318,1317.9,1318
201903211435,1318,1318.1,1318,1318.1
201903211436,1318.1,1318.3,1318.1,1318.1
201903211437,1318.1,1318.3,1318.1,1318.1
201903211438,1318.1,1318.2,1318.1,1318.2
201903211439,1318.2,1318.3,1318.2,1318.3
201903211440,1318.2,1318.3,1318.2,1318.3
201903211441,1318.3,1318.3,1318.3,1318.3
201903211442,1318.3,1318.3,1318.2,1318.2
201903211443,1318.2,1318.3,1318.2,1318.2
201903211444,1318.2,1318.2,1318.2,1318.2
201903211445,1318.2,1318.2,1318.2,1318.2
201903211446,1318.2,1318.2,1318.1,1318.2
201903211447,1318.2,1318.2,1318,1318
201903211448,1318,1318.1,1318,1318
201903211449,1318,1318.2,1318,1318.1
201903211450,1318.1,1318.1,1318,1318
201903211451,1318,1318,1317.6,1317.6
201903211452,1317.6,1317.7,1317.6,1317.6
201903211453,1317.6,1317.7,1317.6,1317.6
201903211454,1317.6,1317.8,1317.6,1317.7
201903211455,1317.7,1317.8,1317.7,1317.7
201903211456,1317.7,1317.8,1317.7,1317.7
201903211457,1317.7,1317.7,1317.5,1317.5
201903211458,1317.5,1317.6,1317.5,1317.5
201903211459,1317.5,1317.5,1317.3,1317.4
201903211500,1317.4,1317.5,1317.3,1317.5
201903211501,1317.5,1317.7,1317.4,1317.5
201903211502,1317.5,1317.5,1317.4,1317.4
201903211503,1317.4,1317.6,1317.4,1317.6
201903211504,1317.6,1317.9,1317.6,1317.9
201903211505,1317.9,1318,1317.9,1317.9
201903211506,1317.9,1318.1,1317.9,1318.1
201903211507,1318.1,1318.1,1318,1318.1
201903211508,1318.1,1318.2,1318,1318
201903211509,1318,1318,1317.8,1318
201903211510,1318,1318,1317.9,1317.9
201903211511,1317.9,1317.9,1317.9,1317.9
201903211512,1317.9,1317.9,1317.8,1317.9
201903211513,1317.9,1318,1317.9,1317.9
201903211514,1317.9,1318,1317.9,1318
201903211515,1318,1318,1317.9,1317.9
201903211516,1317.9,1318,1317.9,1317.9
201903211517,1317.9,1318,1317.9,1317.9
201903211518,1317.9,1318.1,1317.9,1318.1
201903211519,1318.1,1318.3,1318.1,1318.3
201903211520,1318.3,1318.5,1318.3,1318.5
201903211521,1318.5,1318.6,1318.4,1318.4
201903211522,1318.4,1318.5,1318.3,1318.5
201903211523,1318.5,1318.5,1318.4,1318.4
201903211524,1318.4,1318.5,1318.4,1318.5
201903211525,1318.5,1318.5,1318.2,1318.2
201903211526,1318.2,1318.4,1318.2,1318.4
201903211527,1318.4,1318.4,1318.3,1318.3
201903211528,1318.3,1318.3,1318.2,1318.2
201903211529,1318.2,1318.4,1318.2,1318.4
201903211530,1318.4,1318.5,1318.4,1318.5
201903211531,1318.5,1318.6,1318.5,1318.6
201903211532,1318.5,1318.5,1318.4,1318.5
201903211533,1318.5,1318.5,1318.4,1318.4
201903211534,1318.4,1318.5,1318.4,1318.4
201903211535,1318.4,1318.5,1318.4,1318.5
201903211536,1318.5,1318.6,1318.5,1318.6
201903211537,1318.6,1318.9,1318.6,1318.9
201903211538,1318.9,1318.9,1318.6,1318.8
201903211539,1318.8,1319,1318.8,1319
201903211540,1319,1319.1,1319,1319
201903211541,1319,1319.1,1319,1319.1
201903211542,1319.1,1319.1,1319,1319.1
201903211543,1319.1,1319.1,1318.8,1318.9
201903211544,1318.9,1318.9,1318.8,1318.9
201903211545,1318.9,1318.9,1318.8,1318.8
201903211546,1318.8,1318.8,1318.6,1318.7
201903211547,1318.7,1318.7,1318.6,1318.6
201903211548,1318.6,1318.7,1318.5,1318.6
201903211549,1318.6,1318.6,1318.5,1318.5
201903211550,1318.5,1318.6,1318.4,1318.4
201903211551,1318.4,1318.7,1318.4,1318.7
201903211552,1318.7,1318.7,1318.5,1318.5
201903211553,1318.6,1318.7,1318.5,1318.7
201903211554,1318.7,1318.7,1318.6,1318.6
201903211555,1318.6,1318.6,1318.5,1318.6
201903211556,1318.6,1318.7,1318.6,1318.7
201903211557,1318.7,1318.7,1318.7,1318.7
201903211558,1318.7,1319,1318.7,1319
201903211559,1319,1319,1319,1319
201903211600,1319,1319,1318.8,1319
201903211601,1319,1319.4,1319,1319.4
201903211602,1319.5,1319.6,1319.4,1319.5
201903211603,1319.5,1319.5,1319.1,1319.2
201903211604,1319.2,1319.3,1319.2,1319.3
201903211605,1319.3,1319.4,1319.2,1319.2
201903211606,1319.2,1319.3,1319.2,1319.3
201903211607,1319.3,1319.3,1319.2,1319.3
201903211608,1319.3,1319.3,1319.2,1319.3
201903211609,1319.3,1319.3,1319.1,1319.1
201903211610,1319.1,1319.2,1319.1,1319.1
201903211611,1319.1,1319.2,1319.1,1319.1
201903211612,1319.1,1319.2,1319.1,1319.2
201903211613,1319.2,1319.2,1318.8,1318.8
201903211614,1318.8,1318.9,1318.8,1318.8
201903211615,1318.8,1318.9,1318.7,1318.7
201903211616,1318.7,1318.7,1318.5,1318.5
201903211617,1318.5,1318.9,1318.5,1318.9
201903211618,1318.9,1318.9,1318.7,1318.7
201903211619,1318.7,1318.8,1318.7,1318.8
201903211620,1318.8,1319,1318.8,1319
201903211621,1319,1319,1318.7,1318.7
201903211622,1318.8,1318.8,1318.8,1318.8
201903211623,1318.8,1318.9,1318.7,1318.8
201903211624,1318.8,1318.9,1318.7,1318.9
201903211625,1318.9,1319.1,1318.8,1319
201903211626,1319,1319.1,1319,1319.1
201903211627,1319.1,1319.2,1319.1,1319.1
201903211628,1319.1,1319.2,1319.1,1319.2
201903211629,1319.2,1319.4,1319.1,1319.4
201903211630,1319.4,1319.5,1319.4,1319.4
201903211631,1319.4,1319.9,1319.4,1319.9
201903211632,1319.9,1319.9,1319.6,1319.9
201903211633,1319.9,1320.1,1319.9,1320
201903211634,1320,1320,1319.6,1319.6
201903211635,1319.6,1319.8,1319.6,1319.6
201903211636,1319.6,1319.8,1319.6,1319.6
201903211637,1319.6,1320.2,1319.6,1320.2
201903211638,1320.2,1320.2,1319.7,1319.8
201903211639,1319.8,1319.9,1319.7,1319.7
201903211640,1319.7,1319.9,1319.7,1319.9
201903211641,1319.8,1319.9,1319.7,1319.7
201903211642,1319.7,1319.8,1319.6,1319.7
201903211643,1319.7,1319.7,1319.6,1319.7
201903211644,1319.7,1319.8,1319.6,1319.6
201903211645,1319.7,1319.7,1319.5,1319.5
201903211646,1319.5,1319.8,1319.5,1319.8
201903211647,1319.8,1319.8,1319.6,1319.8
201903211648,1319.8,1319.8,1319.6,1319.8
201903211649,1319.8,1319.9,1319.7,1319.9
201903211650,1319.9,1320,1319.7,1319.7
201903211651,1319.7,1319.7,1319.3,1319.4
201903211652,1319.4,1319.5,1319.4,1319.4
201903211653,1319.4,1319.5,1319,1319
201903211654,1319,1319.1,1318.9,1318.9
201903211655,1318.9,1318.9,1318.5,1318.5
201903211656,1318.5,1318.7,1318.4,1318.7
201903211657,1318.7,1318.8,1318.6,1318.7
201903211658,1318.7,1318.7,1318.5,1318.6
201903211659,1318.6,1318.8,1318.6,1318.8
201903211700,1318.8,1318.9,1318.5,1318.8
201903211701,1318.8,1318.9,1318.6,1318.6
201903211702,1318.6,1318.6,1318.5,1318.6
201903211703,1318.6,1318.6,1318.5,1318.6
201903211704,1318.6,1318.8,1318.6,1318.8
201903211705,1318.8,1318.9,1318.6,1318.9
201903211706,1318.9,1319.2,1318.8,1319.2
201903211707,1319.2,1319.3,1318.8,1319.1
201903211708,1319.1,1319.4,1319.1,1319.3
201903211709,1319.3,1319.3,1319,1319.2
201903211710,1319.2,1319.3,1319.1,1319.3
201903211711,1319.3,1319.3,1319,1319.1
201903211712,1319.1,1319.3,1319.1,1319.1
201903211713,1319.1,1319.4,1319.1,1319.2
201903211714,1319.2,1319.2,1319,1319.2
201903211715,1319.2,1319.3,1319.1,1319.2
201903211716,1319.2,1319.3,1319.1,1319.3
201903211717,1319.3,1319.3,1319.1,1319.2
201903211718,1319.2,1319.2,1318.8,1318.9
201903211719,1318.9,1318.9,1318.6,1318.7
201903211720,1318.7,1318.8,1318.7,1318.7
201903211721,1318.7,1318.9,1318.7,1318.8
201903211722,1318.8,1318.9,1318.6,1318.8
201903211723,1318.8,1318.8,1318.5,1318.5
201903211724,1318.5,1318.6,1318.4,1318.5
201903211725,1318.6,1318.7,1318.4,1318.5
201903211726,1318.5,1318.6,1318.4,1318.4
201903211727,1318.4,1318.4,1318.2,1318.4
201903211728,1318.4,1319,1318.4,1318.6
201903211729,1318.6,1318.8,1318.5,1318.7
201903211730,1318.7,1318.8,1318.4,1318.4
201903211731,1318.4,1318.6,1318.4,1318.5
201903211732,1318.5,1318.5,1318.4,1318.4
201903211733,1318.4,1318.5,1318.3,1318.3
201903211734,1318.3,1318.3,1318.1,1318.2
201903211735,1318.2,1318.3,1318.1,1318.1
201903211736,1318.1,1318.3,1318.1,1318.2
201903211737,1318.2,1318.3,1318.2,1318.2
201903211738,1318.2,1318.2,1317.6,1317.9
201903211739,1317.9,1318.1,1317.8,1318
201903211740,1318,1318,1317.6,1317.7
201903211741,1317.7,1317.9,1317.7,1317.8
201903211742,1317.8,1317.9,1317.6,1317.8
201903211743,1317.8,1317.8,1317.6,1317.7
201903211744,1317.7,1317.8,1317.6,1317.8
201903211745,1317.8,1318.2,1317.7,1318.2
201903211746,1318.2,1318.3,1318.1,1318.2
201903211747,1318.2,1318.3,1318.1,1318.2
201903211748,1318.2,1318.2,1318.1,1318.1
201903211749,1318.1,1318.2,1317.9,1318
201903211750,1318,1318,1317.6,1317.6
201903211751,1317.7,1317.8,1317.6,1317.8
201903211752,1317.8,1317.9,1317.8,1317.8
201903211753,1317.8,1317.9,1317.8,1317.8
201903211754,1317.8,1318,1317.8,1318
201903211755,1318,1318,1317.6,1317.6
201903211756,1317.6,1317.6,1317.5,1317.5
201903211757,1317.5,1317.8,1317.5,1317.8
201903211758,1317.8,1317.8,1317.6,1317.7
201903211759,1317.7,1317.8,1317.7,1317.7
201903211800,1317.7,1318.2,1317.7,1318.1
201903211801,1318.1,1318.1,1318,1318.1
201903211802,1318.1,1318.2,1318,1318.2
201903211803,1318.2,1318.2,1317.9,1317.9
201903211804,1317.9,1317.9,1317.6,1317.8
201903211805,1317.8,1317.8,1317.7,1317.7
201903211806,1317.8,1318,1317.7,1318
201903211807,1318,1318,1317.9,1317.9
201903211808,1317.9,1318.1,1317.8,1318.1
201903211809,1318.1,1318.2,1318,1318.1
201903211810,1318.1,1318.5,1318,1318.4
201903211811,1318.4,1318.6,1318.4,1318.4
201903211812,1318.4,1318.6,1318.4,1318.5
201903211813,1318.5,1318.5,1318.1,1318.2
201903211814,1318.2,1318.2,1318.1,1318.2
201903211815,1318.2,1318.2,1318.1,1318.2
201903211816,1318.2,1318.4,1318.2,1318.3
201903211817,1318.3,1318.5,1318.2,1318.5
201903211818,1318.5,1318.5,1318.3,1318.3
201903211819,1318.3,1318.4,1318.2,1318.3
201903211820,1318.3,1318.4,1318.3,1318.3
201903211821,1318.3,1318.4,1318.2,1318.2
201903211822,1318.2,1318.3,1318.2,1318.2
201903211823,1318.2,1318.3,1318.2,1318.2
201903211824,1318.2,1318.3,1318.2,1318.2
201903211825,1318.2,1318.2,1318.1,1318.2
201903211826,1318.2,1318.2,1317.9,1318
201903211827,1318,1318,1318,1318
201903211828,1318,1318,1317.8,1317.8
201903211829,1317.8,1317.8,1317.7,1317.8
201903211830,1317.7,1317.8,1317.7,1317.8
201903211831,1317.8,1317.9,1317.7,1317.7
201903211832,1317.7,1317.8,1317.6,1317.6
201903211833,1317.6,1317.8,1317.6,1317.7
201903211834,1317.7,1317.8,1317.6,1317.8
201903211835,1317.8,1317.8,1317.6,1317.6
201903211836,1317.6,1317.7,1317.6,1317.6
201903211837,1317.6,1317.8,1317.5,1317.8
201903211838,1317.8,1317.8,1317.5,1317.6
201903211839,1317.6,1317.6,1317.4,1317.4
201903211840,1317.4,1317.6,1317.4,1317.6
201903211841,1317.6,1317.7,1317.6,1317.7
201903211842,1317.7,1317.9,1317.7,1317.8
201903211843,1317.8,1317.9,1317.7,1317.8
201903211844,1317.8,1317.9,1317.8,1317.9
201903211845,1317.9,1317.9,1317.8,1317.9
201903211846,1317.9,1317.9,1317.5,1317.5
201903211847,1317.6,1317.7,1317.6,1317.7
201903211848,1317.7,1317.8,1317.6,1317.6
201903211849,1317.6,1317.6,1317.5,1317.5
201903211850,1317.5,1317.7,1317.5,1317.6
201903211851,1317.6,1317.6,1317.4,1317.5
201903211852,1317.5,1317.7,1317.5,1317.6
201903211853,1317.6,1317.6,1317.4,1317.4
201903211854,1317.4,1317.5,1317.3,1317.4
201903211855,1317.4,1317.4,1317.4,1317.4
201903211856,1317.4,1317.5,1317.4,1317.5
201903211857,1317.5,1317.5,1317.3,1317.4
201903211858,1317.4,1317.4,1317.3,1317.4
201903211859,1317.4,1317.5,1317.3,1317.3
201903211900,1317.3,1317.8,1317.3,1317.5
201903211901,1317.5,1317.6,1317.5,1317.6
201903211902,1317.6,1317.7,1317.6,1317.7
201903211903,1317.7,1317.8,1317.7,1317.8
201903211904,1317.8,1317.8,1317.7,1317.8
201903211905,1317.8,1317.8,1317.7,1317.7
201903211906,1317.7,1317.7,1317.5,1317.6
201903211907,1317.6,1317.7,1317.6,1317.6
201903211908,1317.6,1317.8,1317.6,1317.8
201903211909,1317.8,1317.9,1317.8,1317.9
201903211910,1317.9,1318.2,1317.9,1318.2
201903211911,1318.2,1318.3,1318.1,1318.2
201903211912,1318.2,1318.3,1318.2,1318.3
201903211913,1318.3,1318.4,1318.2,1318.2
201903211914,1318.2,1318.2,1318.1,1318.1
201903211915,1318.1,1318.2,1318,1318
201903211916,1318,1318,1317.9,1317.9
201903211917,1317.9,1317.9,1317.8,1317.9
201903211918,1317.9,1318.1,1317.9,1318.1
201903211919,1318.1,1318.1,1317.9,1318
201903211920,1318,1318.1,1318,1318.1
201903211921,1318.1,1318.1,1318,1318.1
201903211922,1318.1,1318.2,1318.1,1318.2
201903211923,1318.2,1318.2,1318.1,1318.1
201903211924,1318.1,1318.2,1318,1318.1
201903211925,1318,1318,1317.9,1317.9
201903211926,1317.9,1318,1317.8,1317.9
201903211927,1318,1318,1317.7,1317.8
201903211928,1317.8,1317.8,1317.7,1317.7
201903211929,1317.7,1317.7,1317.4,1317.5
201903211930,1317.5,1317.5,1317.2,1317.3
201903211931,1317.3,1317.6,1317.3,1317.4
201903211932,1317.4,1317.5,1317.1,1317.1
201903211933,1317.1,1317.3,1316.9,1317.3
201903211934,1317.2,1317.3,1317.2,1317.3
201903211935,1317.3,1317.5,1317.3,1317.4
201903211936,1317.4,1317.4,1317.4,1317.4
201903211937,1317.4,1317.4,1317.1,1317.2
201903211938,1317.2,1317.3,1317.1,1317.1
201903211939,1317.1,1317.1,1317,1317.1
201903211940,1317.1,1317.1,1316.4,1316.8
201903211941,1316.8,1316.9,1316.7,1316.7
201903211942,1316.8,1316.8,1316.5,1316.7
201903211943,1316.7,1316.7,1316.1,1316.1
201903211944,1316.1,1316.3,1316.1,1316.1
201903211945,1316.1,1316.1,1315.8,1315.9
201903211946,1315.9,1316,1315.8,1315.8
201903211947,1315.8,1315.8,1315.4,1315.4
201903211948,1315.4,1315.6,1315.2,1315.2
201903211949,1315.2,1315.4,1315.1,1315.4
201903211950,1315.4,1315.6,1315.4,1315.5
201903211951,1315.5,1315.7,1315.5,1315.7
201903211952,1315.7,1315.7,1315.5,1315.6
201903211953,1315.6,1315.6,1315.4,1315.5
201903211954,1315.5,1315.5,1315.2,1315.3
201903211955,1315.3,1315.3,1315.1,1315.1
201903211956,1315.1,1315.5,1315.1,1315.3
201903211957,1315.3,1315.3,1314.9,1315.1
201903211958,1315.1,1315.1,1314.5,1314.6
201903211959,1314.6,1314.7,1314.2,1314.2
201903212000,1314.2,1314.6,1314.2,1314.6
201903212001,1314.6,1315,1314.6,1314.7
201903212002,1314.7,1315,1314.7,1314.8
201903212003,1314.8,1315,1314.8,1315
201903212004,1315,1315.3,1314.9,1315.3
201903212005,1315.3,1315.4,1315.2,1315.3
201903212006,1315.3,1315.5,1315.2,1315.4
201903212007,1315.4,1315.5,1315.4,1315.5
201903212008,1315.5,1315.6,1315.5,1315.6
201903212009,1315.6,1315.6,1315.3,1315.4
201903212010,1315.3,1315.5,1315.3,1315.4
201903212011,1315.4,1315.5,1315.3,1315.4
201903212012,1315.4,1315.6,1315.4,1315.4
201903212013,1315.4,1315.4,1315.2,1315.2
201903212014,1315.2,1315.3,1315.2,1315.2
201903212015,1315.2,1315.3,1315.2,1315.3
201903212016,1315.3,1315.4,1315.2,1315.4
201903212017,1315.4,1315.4,1315.2,1315.2
201903212018,1315.2,1315.6,1315.2,1315.5
201903212019,1315.5,1315.8,1315.5,1315.7
201903212020,1315.7,1315.7,1315.2,1315.3
201903212021,1315.3,1315.4,1315.3,1315.3
201903212022,1315.3,1315.3,1315.2,1315.3
201903212023,1315.3,1315.3,1315.2,1315.3
201903212024,1315.3,1315.7,1315.3,1315.7
201903212025,1315.7,1315.7,1315.4,1315.5
201903212026,1315.5,1315.7,1315.4,1315.6
201903212027,1315.6,1315.8,1315.5,1315.8
201903212028,1315.8,1315.9,1315.8,1315.9
201903212029,1315.9,1316,1315.9,1316
201903212030,1316,1316.1,1315.9,1315.9
201903212031,1315.9,1316.1,1315.8,1316.1
201903212032,1316.1,1316.2,1316.1,1316.1
201903212033,1316.1,1316.2,1316.1,1316.2
201903212034,1316.2,1316.3,1316.2,1316.3
201903212035,1316.3,1316.3,1316.1,1316.1
201903212036,1316.1,1316.1,1315.8,1315.8
201903212037,1315.8,1315.8,1315.3,1315.5
201903212038,1315.5,1315.6,1315.3,1315.6
201903212039,1315.6,1315.6,1315.3,1315.3
201903212040,1315.3,1315.4,1315.2,1315.3
201903212041,1315.3,1315.4,1315.3,1315.3
201903212042,1315.3,1315.4,1315.3,1315.3
201903212043,1315.3,1315.4,1315.2,1315.2
201903212044,1315.2,1315.3,1314.9,1315.2
201903212045,1315.2,1315.3,1315.1,1315.2
201903212046,1315.2,1315.2,1315.2,1315.2
201903212047,1315.2,1315.3,1315.2,1315.3
201903212048,1315.3,1315.5,1315.2,1315.5
201903212049,1315.5,1315.5,1315.4,1315.5
201903212050,1315.5,1315.7,1315.4,1315.7
201903212051,1315.7,1315.9,1315.7,1315.8
201903212052,1315.8,1316,1315.8,1315.8
201903212053,1315.8,1315.8,1315.6,1315.6
201903212054,1315.6,1315.7,1315.5,1315.5
201903212055,1315.5,1315.8,1315.5,1315.7
201903212056,1315.7,1315.7,1315.4,1315.5
201903212057,1315.5,1315.5,1315.3,1315.3
201903212058,1315.3,1315.3,1315.2,1315.2
201903212059,1315.2,1315.3,1315.2,1315.2
201903212100,1315.2,1315.4,1315.1,1315.1
201903212101,1315.1,1315.4,1315.1,1315.2
201903212102,1315.2,1315.3,1315.1,1315.1
201903212103,1315.1,1315.2,1315,1315.2
201903212104,1315.2,1315.5,1315.2,1315.5
201903212105,1315.5,1315.7,1315.5,1315.5
201903212106,1315.5,1315.5,1315.4,1315.4
201903212107,1315.4,1315.4,1315.2,1315.4
201903212108,1315.4,1315.4,1315.1,1315.3
201903212109,1315.3,1315.3,1315.2,1315.2
201903212110,1315.2,1315.3,1315.2,1315.2
201903212111,1315.2,1315.2,1315.2,1315.2
201903212112,1315.2,1315.2,1315,1315
201903212113,1315,1315.1,1314.9,1315.1
201903212114,1315.1,1315.2,1315,1315.1
201903212115,1315.1,1315.2,1315,1315.2
201903212116,1315.2,1315.3,1315.1,1315.3
201903212117,1315.3,1315.4,1315.1,1315.1
201903212118,1315.1,1315.4,1315.1,1315.4
201903212119,1315.4,1315.6,1315.3,1315.6
201903212120,1315.6,1315.7,1315.2,1315.2
201903212121,1315.2,1315.5,1315.1,1315.3
201903212122,1315.3,1315.5,1315.2,1315.5
201903212123,1315.5,1315.9,1315.4,1315.8
201903212124,1315.8,1315.8,1315.6,1315.8
201903212125,1315.8,1316.2,1315.8,1316.1
201903212126,1316.1,1316.7,1316,1316.6
201903212127,1316.6,1317,1316.6,1317
201903212128,1317,1317.4,1316.8,1317.4
201903212129,1317.4,1317.4,1317,1317.2
201903212130,1317.2,1317.6,1316.5,1316.7
201903212131,1316.7,1316.9,1316.6,1316.6
201903212132,1316.6,1316.9,1316.6,1316.6
201903212133,1316.6,1316.6,1316.3,1316.5
201903212134,1316.5,1316.7,1316.3,1316.4
201903212135,1316.4,1316.5,1316.2,1316.2
201903212136,1316.2,1316.8,1316.1,1316.8
201903212137,1316.8,1318.4,1316.8,1318.3
201903212138,1318.3,1318.3,1317.9,1317.9
201903212139,1317.9,1318.2,1317.9,1318
201903212140,1318,1318.2,1317.9,1317.9
201903212141,1317.9,1317.9,1317.5,1317.5
201903212142,1317.5,1318.1,1317.5,1318
201903212143,1318,1318.2,1317.8,1318
201903212144,1318,1318.1,1317.7,1318
201903212145,1317.9,1318.1,1317.9,1318.1
201903212146,1318.1,1318.2,1318.1,1318.1
201903212147,1318,1318.4,1318,1318.1
201903212148,1318.1,1318.2,1317.9,1318
201903212149,1318,1318.1,1317.8,1317.8
201903212150,1317.8,1318.1,1317.7,1318
201903212151,1318,1318,1317.6,1317.7
201903212152,1317.7,1317.9,1317.6,1317.7
201903212153,1317.7,1318.2,1317.7,1318.1
201903212154,1318.1,1318.3,1318,1318.3
201903212155,1318.3,1318.3,1318.1,1318.3
201903212156,1318.3,1318.4,1318.1,1318.2
201903212157,1318.2,1318.3,1318.1,1318.1
201903212158,1318.1,1318.2,1318,1318.1
201903212159,1318.1,1318.1,1317.7,1317.7
201903212200,1317.7,1317.8,1317.2,1317.3
201903212201,1317.3,1317.5,1317.2,1317.3
201903212202,1317.3,1317.4,1317,1317.3
201903212203,1317.3,1317.7,1317.3,1317.5
201903212204,1317.5,1317.6,1317.2,1317.3
201903212205,1317.3,1317.3,1316.4,1316.6
201903212206,1316.6,1316.9,1316.6,1316.6
201903212207,1316.6,1316.6,1316.1,1316.2
201903212208,1316.2,1316.4,1316,1316.2
201903212209,1316.2,1316.4,1315.9,1316.4
201903212210,1316.3,1316.5,1316.1,1316.2
201903212211,1316.2,1316.3,1315.8,1316.1
201903212212,1316.2,1316.2,1315.5,1315.6
201903212213,1315.6,1315.7,1315.3,1315.3
201903212214,1315.3,1315.8,1315.2,1315.8
201903212215,1315.8,1315.8,1315.3,1315.6
201903212216,1315.6,1315.7,1315.5,1315.7
201903212217,1315.7,1316,1315.7,1315.9
201903212218,1315.9,1316.1,1315.9,1316.1
201903212219,1316.1,1316.1,1315.9,1316.1
201903212220,1316.1,1316.3,1315.8,1315.8
201903212221,1315.8,1315.9,1315.8,1315.9
201903212222,1315.9,1316.1,1315.8,1316
201903212223,1316,1316,1315.6,1315.7
201903212224,1315.7,1316.3,1315.7,1316.3
201903212225,1316.3,1316.4,1316.1,1316.3
201903212226,1316.3,1316.4,1316.1,1316.2
201903212227,1316.2,1316.3,1316.1,1316.3
201903212228,1316.3,1316.3,1315.9,1316
201903212229,1316,1316.4,1316,1316.1
201903212230,1316.1,1316.5,1316.1,1316.4
201903212231,1316.4,1316.4,1315.8,1315.9
201903212232,1315.9,1316,1315.7,1316
201903212233,1316,1316.1,1315.8,1316
201903212234,1316,1316,1314.8,1314.9
201903212235,1314.9,1315.3,1314.6,1314.8
201903212236,1314.7,1315.4,1314.7,1315.3
201903212237,1315.3,1315.4,1315.1,1315.2
201903212238,1315.2,1315.2,1314.9,1315
201903212239,1315,1315.2,1314.9,1315.2
201903212240,1315.2,1315.2,1314.9,1314.9
201903212241,1314.9,1315,1314.7,1314.9
201903212242,1314.9,1315.1,1314.8,1315.1
201903212243,1315.1,1315.2,1315,1315.2
201903212244,1315.2,1315.2,1314.8,1314.8
201903212245,1314.8,1314.8,1314.1,1314.2
201903212246,1314.2,1314.4,1313.8,1313.8
201903212247,1313.8,1314,1313.6,1313.9
201903212248,1313.9,1314.4,1313.8,1314.3
201903212249,1314.4,1314.4,1313.7,1313.7
201903212250,1313.7,1314.1,1313.6,1313.8
201903212251,1313.9,1314,1313.5,1313.9
201903212252,1313.9,1313.9,1313.6,1313.6
201903212253,1313.7,1313.7,1313.5,1313.6
201903212254,1313.6,1313.7,1313,1313.1
201903212255,1313,1313,1312.5,1312.7
201903212256,1312.7,1312.9,1312.5,1312.8
201903212257,1312.8,1313.4,1312.7,1313.4
201903212258,1313.4,1313.4,1312.8,1313
201903212259,1313,1313,1312.8,1312.9
201903212300,1312.9,1312.9,1311.7,1311.8
201903212301,1311.7,1312.1,1311.7,1312
201903212302,1312.1,1312.4,1312,1312.1
201903212303,1312,1312.2,1311.8,1312
201903212304,1312,1312,1311.6,1311.6
201903212305,1311.6,1311.9,1311.5,1311.7
201903212306,1311.7,1311.7,1311.4,1311.7
201903212307,1311.7,1312.2,1311.6,1312.1
201903212308,1312.1,1312.4,1311.9,1312.4
201903212309,1312.4,1312.4,1312,1312
201903212310,1312,1312,1311.6,1311.8
201903212311,1311.8,1312,1311.7,1311.8
201903212312,1311.8,1311.9,1311.7,1311.8
201903212313,1311.8,1312.1,1311.7,1311.9
201903212314,1311.9,1311.9,1311.7,1311.9
201903212315,1311.9,1311.9,1311.5,1311.5
201903212316,1311.5,1311.5,1311.3,1311.3
201903212317,1311.3,1311.3,1310.7,1311
201903212318,1311,1311.6,1310.9,1311.3
201903212319,1311.3,1311.5,1311,1311.3
201903212320,1311.2,1311.3,1310.9,1310.9
201903212321,1310.9,1310.9,1310.3,1310.6
201903212322,1310.6,1311.1,1310.6,1311
201903212323,1311,1311.1,1310.7,1311
201903212324,1311,1311.3,1310.8,1311.1
201903212325,1311.1,1311.5,1311,1311.2
201903212326,1311.2,1311.8,1311.1,1311.8
201903212327,1311.8,1312,1311.5,1312
201903212328,1312,1312,1311.8,1311.8
201903212329,1311.8,1312,1311.7,1312
201903212330,1311.9,1312.2,1311.6,1312.2
201903212331,1312.2,1312.2,1311,1311
201903212332,1311,1311.5,1310.8,1311.4
201903212333,1311.4,1311.4,1311,1311.1
201903212334,1311.1,1311.1,1310.6,1310.6
201903212335,1310.6,1310.7,1310.5,1310.7
201903212336,1310.7,1311.4,1310.6,1311.4
201903212337,1311.4,1311.5,1311.3,1311.5
201903212338,1311.5,1311.6,1311.5,1311.6
201903212339,1311.6,1311.7,1311.6,1311.7
201903212340,1311.7,1311.9,1311.5,1311.7
201903212341,1311.7,1311.7,1311.4,1311.4
201903212342,1311.4,1311.7,1311.4,1311.7
201903212343,1311.7,1311.8,1311.5,1311.5
201903212344,1311.5,1311.6,1311.4,1311.6
201903212345,1311.6,1311.7,1311.5,1311.7
201903212346,1311.7,1311.7,1311.5,1311.5
201903212347,1311.5,1311.5,1311.3,1311.4
201903212348,1311.4,1311.5,1311.3,1311.5
201903212349,1311.5,1311.5,1311.2,1311.3
201903212350,1311.4,1311.4,1310.9,1310.9
201903212351,1310.9,1311,1310.8,1311
201903212352,1311,1311.2,1310.9,1311.2
201903212353,1311.2,1311.2,1311,1311.1
201903212354,1311.1,1311.1,1310.4,1310.4
201903212355,1310.4,1310.4,1309.1,1309.4
201903212356,1309.4,1309.7,1309.2,1309.3
201903212357,1309.3,1309.7,1309.3,1309.5
201903212358,1309.5,1309.5,1309.4,1309.5
201903212359,1309.5,1309.5,1309.2,1309.5
201903220000,1309.5,1309.8,1309.3,1309.6
201903220001,1309.6,1309.6,1309.3,1309.3
201903220002,1309.3,1309.3,1308.6,1308.8
201903220003,1308.8,1309.4,1308.8,1309.4
201903220004,1309.4,1309.7,1309.1,1309.7
201903220005,1309.7,1309.7,1309.6,1309.6
201903220006,1309.6,1309.6,1309.2,1309.2
201903220007,1309.2,1309.3,1309.2,1309.2
201903220008,1309.2,1309.2,1308.9,1309.1
201903220009,1309.1,1309.4,1309,1309.4
201903220010,1309.4,1309.5,1309.3,1309.4
201903220011,1309.4,1309.7,1309.4,1309.6
201903220012,1309.6,1309.9,1309.6,1309.9
201903220013,1309.9,1310,1309.7,1309.8
201903220014,1309.8,1309.8,1309.5,1309.7
201903220015,1309.7,1309.7,1309,1309
201903220016,1309,1309.1,1308.6,1308.9
201903220017,1308.9,1309.2,1308.8,1309.1
201903220018,1309.1,1309.4,1309.1,1309.4
201903220019,1309.4,1309.4,1309,1309.1
201903220020,1309.1,1309.1,1309,1309.1
201903220021,1309.1,1309.4,1309.1,1309.4
201903220022,1309.4,1309.4,1309.1,1309.3
201903220023,1309.3,1309.8,1309.3,1309.7
201903220024,1309.7,1310,1309.5,1309.8
201903220025,1309.8,1309.9,1309.7,1309.7
201903220026,1309.7,1310.1,1309.7,1310
201903220027,1310.1,1310.7,1310,1310.7
201903220028,1310.7,1311.2,1310.4,1311.2
201903220029,1311.1,1311.4,1310.9,1311
201903220030,1311,1311,1310.8,1311
201903220031,1311,1311,1310.7,1310.7
201903220032,1310.7,1310.8,1310.4,1310.4
201903220033,1310.4,1310.5,1310.2,1310.3
201903220034,1310.3,1310.4,1309.9,1309.9
201903220035,1309.9,1310,1309.4,1309.6
201903220036,1309.6,1309.9,1309.4,1309.8
201903220037,1309.9,1310.3,1309.9,1310.3
201903220038,1310.3,1310.6,1310.2,1310.5
201903220039,1310.5,1310.5,1310.1,1310.1
201903220040,1310.1,1310.2,1309.9,1310.1
201903220041,1310.1,1310.5,1310.1,1310.5
201903220042,1310.5,1310.5,1310.3,1310.4
201903220043,1310.4,1310.4,1310.3,1310.4
201903220044,1310.4,1310.6,1310.4,1310.5
201903220045,1310.5,1310.5,1310.3,1310.5
201903220046,1310.4,1310.6,1310.4,1310.5
201903220047,1310.6,1310.6,1310.3,1310.4
201903220048,1310.4,1310.6,1310.4,1310.6
201903220049,1310.6,1310.9,1310.5,1310.8
201903220050,1310.8,1310.8,1310.5,1310.5
201903220051,1310.5,1310.7,1310.3,1310.7
201903220052,1310.7,1310.8,1310.3,1310.3
201903220053,1310.3,1310.5,1310.2,1310.2
201903220054,1310.2,1310.3,1310.1,1310.3
201903220055,1310.3,1310.3,1310.1,1310.2
201903220056,1310.2,1310.4,1310.2,1310.2
201903220057,1310.2,1310.6,1310.2,1310.6
201903220058,1310.6,1310.6,1310.5,1310.5
201903220059,1310.5,1310.7,1310.4,1310.4
201903220100,1310.4,1310.4,1310,1310.2
201903220101,1310.2,1310.2,1309.8,1309.9
201903220102,1309.9,1310.1,1309.9,1310
201903220103,1310,1310.1,1310,1310
201903220104,1310,1310.2,1309.8,1310.1
201903220105,1310.1,1310.3,1310.1,1310.3
201903220106,1310.4,1310.9,1310.3,1310.9
201903220107,1310.9,1310.9,1310.7,1310.8
201903220108,1310.8,1310.8,1310.4,1310.5
201903220109,1310.4,1310.4,1310.2,1310.3
201903220110,1310.3,1310.3,1310.1,1310.1
201903220111,1310.1,1310.1,1309.6,1309.7
201903220112,1309.7,1309.9,1309.7,1309.8
201903220113,1309.8,1309.8,1309.5,1309.7
201903220114,1309.7,1309.7,1309.3,1309.3
201903220115,1309.3,1309.4,1309,1309
201903220116,1309,1309,1308.5,1308.5
201903220117,1308.5,1308.8,1306.6,1306.9
201903220118,1306.9,1307.2,1306.7,1307.2
201903220119,1307.2,1307.2,1306.3,1306.5
201903220120,1306.5,1306.5,1305.2,1306.1
201903220121,1306.1,1306.4,1305.9,1306.2
201903220122,1306.3,1306.3,1304.9,1304.9
201903220123,1304.9,1305.5,1304.9,1305.5
201903220124,1305.4,1305.5,1304.7,1304.9
201903220125,1304.8,1305.3,1304.7,1304.8
201903220126,1304.8,1305.2,1304.7,1304.8
201903220127,1304.8,1304.8,1304.2,1304.5
201903220128,1304.5,1304.5,1303.1,1303.2
201903220129,1303.2,1304.1,1303.2,1304.1
201903220130,1304.1,1304.3,1303.8,1303.9
201903220131,1303.9,1304,1303.7,1303.9
201903220132,1303.9,1304.4,1303.5,1304.3
201903220133,1304.3,1304.6,1304,1304.6
201903220134,1304.6,1304.6,1304.2,1304.5
201903220135,1304.4,1304.4,1304.1,1304.3
201903220136,1304.3,1304.3,1303.9,1304
201903220137,1304,1304.5,1304,1304.2
201903220138,1304.2,1304.3,1304.1,1304.3
201903220139,1304.3,1304.4,1304.2,1304.2
201903220140,1304.2,1304.6,1304.2,1304.5
201903220141,1304.5,1304.7,1304.4,1304.7
201903220142,1304.7,1304.9,1304.7,1304.8
201903220143,1304.8,1304.9,1304.6,1304.8
201903220144,1304.8,1305.1,1304.7,1305.1
201903220145,1305.1,1305.5,1305,1305.4
201903220146,1305.4,1305.4,1305,1305.4
201903220147,1305.4,1305.6,1305.3,1305.5
201903220148,1305.5,1305.5,1305.1,1305.2
201903220149,1305.2,1305.6,1305.2,1305.6
201903220150,1305.6,1305.6,1305.2,1305.4
201903220151,1305.4,1305.8,1305.4,1305.7
201903220152,1305.8,1305.9,1305.6,1305.7
201903220153,1305.7,1306,1305.7,1306
201903220154,1306,1306,1305.7,1305.7
201903220155,1305.7,1305.8,1305.4,1305.6
201903220156,1305.6,1305.6,1305.3,1305.5
201903220157,1305.5,1305.5,1305.4,1305.5
201903220158,1305.5,1305.7,1305.5,1305.7
201903220159,1305.7,1305.9,1305.7,1305.9
201903220200,1305.9,1305.9,1305.6,1305.8
201903220201,1305.8,1305.9,1305.7,1305.8
201903220202,1305.8,1305.9,1305.6,1305.7
201903220203,1305.7,1305.8,1305.6,1305.8
201903220204,1305.8,1305.9,1305.7,1305.8
201903220205,1305.7,1305.8,1305.5,1305.7
201903220206,1305.7,1305.9,1305.6,1305.9
201903220207,1305.9,1306,1305.7,1305.7
201903220208,1305.7,1305.9,1305.7,1305.8
201903220209,1305.8,1305.8,1305.6,1305.6
201903220210,1305.6,1305.8,1305.6,1305.8
201903220211,1305.8,1305.8,1305.5,1305.6
201903220212,1305.6,1305.8,1305.5,1305.8
201903220213,1305.8,1306.2,1305.8,1306.1
201903220214,1306.1,1306.2,1306,1306.2
201903220215,1306.2,1306.2,1305.9,1306
201903220216,1306,1306.1,1305.9,1306
201903220217,1306,1306.1,1305.8,1305.8
201903220218,1305.8,1305.9,1305.7,1305.9
201903220219,1305.9,1305.9,1305.8,1305.8
201903220220,1305.8,1305.9,1305.7,1305.9
201903220221,1305.9,1306.2,1305.9,1306.1
201903220222,1306.1,1306.5,1306.1,1306.4
201903220223,1306.4,1306.7,1306.4,1306.6
201903220224,1306.6,1306.7,1306.5,1306.5
201903220225,1306.5,1306.9,1306.5,1306.7
201903220226,1306.7,1306.9,1306.7,1306.7
201903220227,1306.7,1306.8,1306.7,1306.8
201903220228,1306.8,1307.2,1306.8,1307.2
201903220229,1307.2,1307.7,1307.2,1307.7
201903220230,1307.7,1307.7,1307,1307.2
201903220231,1307.2,1307.2,1306.9,1306.9
201903220232,1306.9,1307.2,1306.9,1307.1
201903220233,1307.1,1307.2,1307.1,1307.2
201903220234,1307.2,1307.3,1307.2,1307.3
201903220235,1307.3,1307.3,1307.2,1307.2
201903220236,1307.3,1307.3,1307.2,1307.2
201903220237,1307.2,1307.2,1307,1307.1
201903220238,1307.1,1307.1,1307,1307
201903220239,1307,1307,1306.7,1306.8
201903220240,1306.8,1307.1,1306.7,1306.9
201903220241,1307,1307,1306.8,1306.8
201903220242,1306.8,1306.8,1306.7,1306.8
201903220243,1306.8,1306.8,1306.6,1306.8
201903220244,1306.8,1306.8,1306.3,1306.6
201903220245,1306.6,1306.7,1306.5,1306.5
201903220246,1306.5,1306.5,1306,1306
201903220247,1306,1306.3,1306,1306.2
201903220248,1306.1,1306.2,1305.9,1305.9
201903220249,1305.9,1306.1,1305.9,1306.1
201903220250,1306.1,1306.1,1306,1306.1
201903220251,1306.1,1306.2,1306.1,1306.2
201903220252,1306.2,1306.2,1306.1,1306.2
201903220253,1306.2,1306.6,1306.2,1306.6
201903220254,1306.6,1307.1,1306.6,1307
201903220255,1307,1307.3,1307,1307.3
201903220256,1307.3,1307.5,1307.3,1307.5
201903220257,1307.5,1307.8,1307.4,1307.7
201903220258,1307.6,1307.7,1307.6,1307.6
201903220259,1307.6,1307.8,1307.6,1307.8
201903220300,1307.8,1307.8,1307.3,1307.5
201903220301,1307.4,1307.6,1307.2,1307.3
201903220302,1307.3,1307.5,1307.3,1307.3
201903220303,1307.3,1307.6,1307.2,1307.5
201903220304,1307.5,1307.7,1307.4,1307.7
201903220305,1307.7,1307.7,1307.5,1307.6
201903220306,1307.6,1308.3,1307.6,1308.3
201903220307,1308.3,1308.5,1308.3,1308.3
201903220308,1308.3,1308.4,1308.1,1308.1
201903220309,1308.1,1308.2,1308,1308.1
201903220310,1308.1,1308.1,1307.5,1307.5
201903220311,1307.5,1307.9,1307.5,1307.9
201903220312,1307.9,1308,1307.8,1308
201903220313,1308,1308.1,1307.9,1308
201903220314,1308,1308.1,1308,1308.1
201903220315,1308.1,1308.1,1307.9,1307.9
201903220316,1307.9,1307.9,1307.6,1307.9
201903220317,1307.9,1308,1307.9,1308
201903220318,1308,1308,1307.8,1308
201903220319,1308,1308.2,1308,1308.2
201903220320,1308.2,1308.3,1308.1,1308.3
201903220321,1308.3,1308.4,1308.2,1308.2
201903220322,1308.2,1308.7,1308.2,1308.5
201903220323,1308.5,1308.6,1308.3,1308.6
201903220324,1308.6,1308.8,1308.4,1308.8
201903220325,1308.8,1308.8,1308.5,1308.7
201903220326,1308.7,1308.8,1308.6,1308.8
201903220327,1308.8,1308.8,1308.7,1308.8
201903220328,1308.8,1308.9,1308.5,1308.6
201903220329,1308.6,1308.8,1308.6,1308.8
201903220330,1308.8,1308.9,1308.7,1308.8
201903220331,1308.8,1309.1,1308.7,1308.9
201903220332,1308.9,1308.9,1308.5,1308.8
201903220333,1308.8,1308.9,1308.8,1308.9
201903220334,1308.9,1309.1,1308.9,1308.9
201903220335,1308.9,1309,1308.5,1308.8
201903220336,1308.7,1308.8,1308.5,1308.5
201903220337,1308.5,1308.5,1308.2,1308.4
201903220338,1308.4,1308.4,1308,1308.1
201903220339,1308.1,1308.3,1308.1,1308.3
201903220340,1308.3,1308.3,1308.1,1308.1
201903220341,1308.1,1308.1,1307.9,1307.9
201903220342,1307.9,1308.3,1307.9,1308.3
201903220343,1308.3,1308.3,1307.9,1308.1
201903220344,1308.1,1308.2,1308,1308.1
201903220345,1308.1,1308.3,1308.1,1308.3
201903220346,1308.3,1308.5,1308.2,1308.5
201903220347,1308.5,1308.7,1308.5,1308.6
201903220348,1308.6,1308.7,1308.5,1308.7
201903220349,1308.7,1309,1308.7,1309
201903220350,1309,1309,1308.6,1308.7
201903220351,1308.7,1308.7,1308.5,1308.7
201903220352,1308.7,1308.7,1308.6,1308.6
201903220353,1308.6,1308.7,1308.5,1308.6
201903220354,1308.6,1308.7,1308.5,1308.5
201903220355,1308.6,1308.6,1308.2,1308.3
201903220356,1308.3,1308.3,1308.2,1308.3
201903220357,1308.3,1308.5,1308.3,1308.4
201903220358,1308.4,1308.5,1308.3,1308.5
201903220359,1308.5,1308.8,1308.5,1308.8
201903220400,1308.8,1308.8,1308.6,1308.7
201903220401,1308.7,1308.7,1308.2,1308.3
201903220402,1308.3,1308.6,1308.3,1308.6
201903220403,1308.6,1308.7,1308.6,1308.7
201903220404,1308.7,1308.7,1308.5,1308.5
201903220405,1308.5,1308.6,1308.5,1308.6
201903220406,1308.6,1309,1308.6,1308.9
201903220407,1308.9,1308.9,1308.5,1308.9
201903220408,1308.9,1308.9,1308.7,1308.7
201903220409,1308.7,1308.8,1308.5,1308.5
201903220410,1308.5,1308.7,1308.5,1308.7
201903220411,1308.7,1308.7,1308.6,1308.7
201903220412,1308.7,1308.7,1308.6,1308.7
201903220413,1308.7,1308.7,1308.6,1308.6
201903220414,1308.7,1308.7,1308.6,1308.6
201903220415,1308.5,1308.7,1308.5,1308.7
201903220416,1308.7,1308.9,1308.7,1308.8
201903220417,1308.8,1308.8,1308.8,1308.8
201903220418,1308.8,1308.8,1308.7,1308.7
201903220419,1308.7,1308.8,1308.6,1308.6
201903220420,1308.6,1308.6,1308.6,1308.6
201903220421,1308.6,1308.6,1308.6,1308.6
201903220422,1308.6,1308.6,1308.6,1308.6
201903220423,1308.6,1308.7,1308.6,1308.7
201903220424,1308.7,1308.7,1308.6,1308.7
201903220425,1308.7,1308.9,1308.6,1308.9
201903220426,1308.9,1308.9,1308.8,1308.9
201903220427,1308.8,1308.9,1308.8,1308.8
201903220428,1308.8,1308.9,1308.8,1308.8
201903220429,1308.7,1308.8,1308.5,1308.7
201903220430,1308.7,1308.9,1308.7,1308.8
201903220431,1308.8,1308.8,1308.5,1308.5
201903220432,1308.5,1308.6,1308.4,1308.4
201903220433,1308.4,1308.4,1308.4,1308.4
201903220434,1308.4,1308.6,1308.1,1308.1
201903220435,1308.1,1308.2,1308,1308.2
201903220436,1308.2,1308.2,1308.1,1308.2
201903220437,1308.2,1308.3,1308.2,1308.3
201903220438,1308.3,1308.3,1308.3,1308.3
201903220439,1308.3,1308.3,1308.2,1308.3
201903220440,1308.3,1308.3,1308.2,1308.2
201903220441,1308.2,1308.3,1308.2,1308.3
201903220442,1308.3,1308.3,1308.3,1308.3
201903220443,1308.3,1308.4,1308.3,1308.3
201903220444,1308.3,1308.3,1308.1,1308.2
201903220445,1308.2,1308.3,1308.2,1308.2
201903220446,1308.2,1308.3,1308.2,1308.2
201903220447,1308.2,1308.3,1308.2,1308.3
201903220448,1308.3,1308.3,1308.2,1308.3
201903220449,1308.2,1308.3,1308.1,1308.2
201903220450,1308.2,1308.3,1308.2,1308.3
201903220451,1308.3,1308.4,1308.2,1308.3
201903220452,1308.3,1308.4,1308.3,1308.3
201903220453,1308.3,1308.3,1308.2,1308.2
201903220454,1308.2,1308.4,1308.2,1308.4
201903220455,1308.4,1309,1308.4,1308.9
201903220456,1308.9,1309.1,1308.9,1309.1
201903220457,1309.1,1309.4,1309.1,1309.4
201903220458,1309.4,1309.5,1309.3,1309.4
201903220459,1309.4,1309.4,1309.1,1309.2
201903220500,1309.2,1309.3,1309.1,1309.1
201903220501,1309,1309.1,1309,1309
201903220502,1309,1309.1,1309,1309
201903220503,1309,1309.1,1309,1309.1
201903220504,1309,1309.1,1309,1309.1
201903220505,1309.1,1309.1,1309,1309
201903220506,1309,1309,1308.9,1309
201903220507,1309,1309,1309,1309
201903220508,1309,1309,1308.9,1309
201903220509,1309,1309,1308.9,1309
201903220510,1308.9,1309,1308.9,1309
201903220511,1309,1309,1308.9,1308.9
201903220512,1308.9,1308.9,1308.9,1308.9
201903220513,1308.9,1308.9,1308.8,1308.8
201903220514,1308.8,1308.9,1308.8,1308.9
201903220515,1308.9,1309.1,1308.8,1309.1
201903220516,1309.1,1309.1,1309,1309
201903220517,1309,1309,1309,1309
201903220518,1309,1309,1308.9,1309
201903220519,1309,1309.1,1309,1309
201903220520,1309,1309.1,1308.9,1308.9
201903220521,1308.9,1308.9,1308.8,1308.9
201903220522,1308.9,1309,1308.9,1309
201903220523,1309,1309,1309,1309
201903220524,1309,1309,1308.9,1308.9
201903220525,1308.9,1308.9,1308.9,1308.9
201903220526,1308.9,1308.9,1308.8,1308.9
201903220527,1308.9,1308.9,1308.9,1308.9
201903220528,1308.9,1308.9,1308.9,1308.9
201903220529,1308.9,1308.9,1308.9,1308.9
201903220530,1308.9,1309,1308.9,1309
201903220531,1309,1309.2,1309,1309.2
201903220532,1309.2,1309.2,1309.1,1309.1
201903220533,1309.1,1309.1,1309.1,1309.1
201903220534,1309.1,1309.1,1309,1309.1
201903220535,1309.1,1309.1,1309.1,1309.1
201903220536,1309.1,1309.2,1309.1,1309.2
201903220537,1309.2,1309.2,1309.2,1309.2
201903220538,1309.2,1309.2,1309.2,1309.2
201903220539,1309.2,1309.2,1309.2,1309.2
201903220540,1309.2,1309.2,1309.1,1309.2
201903220541,1309.2,1309.2,1309.1,1309.2
201903220542,1309.2,1309.2,1309.1,1309.1
201903220543,1309.1,1309.2,1309.1,1309.2
201903220544,1309.2,1309.2,1309.1,1309.1
201903220545,1309.1,1309.2,1309,1309
201903220546,1309,1309.1,1309,1309
201903220547,1309,1309,1309,1309
201903220548,1309,1309,1309,1309
201903220549,1309,1309,1308.9,1309
201903220550,1309,1309,1309,1309
201903220551,1309,1309.1,1309,1309.1
201903220552,1309.1,1309.1,1309.1,1309.1
201903220553,1309.1,1309.2,1309.1,1309.2
201903220554,1309.2,1309.2,1309.2,1309.2
201903220555,1309.2,1309.2,1309.2,1309.2
201903220556,1309.2,1309.2,1309.2,1309.2
201903220557,1309.2,1309.2,1309.2,1309.2
201903220558,1309.2,1309.3,1309.2,1309.2
201903220559,1309.2,1309.3,1309.1,1309.3
