日時,始値(BID),高値(BID),安値(BID),終値(BID)
201910070700,7700.3,7721.8,7680.3,7720.9
201910070701,7720.9,7730.1,7717.3,7728.7
201910070702,7728.7,7733.1,7726.6,7732.7
201910070703,7732.8,7732.8,7727.5,7729.2
201910070704,7729.2,7729.2,7724.7,7726.7
201910070705,7726.7,7729.3,7726.5,7727.8
201910070706,7727.7,7729.6,7727.5,7727.6
201910070707,7727.6,7729.4,7726.8,7727.8
201910070708,7727.8,7729.5,7727.1,7729.1
201910070709,7729.4,7733.7,7729.4,7732.6
201910070710,7732.6,7732.8,7731,7731
201910070711,7731,7731.8,7730,7730.8
201910070712,7730.7,7731.3,7729.9,7729.9
201910070713,7729.9,7730.3,7728.9,7729.7
201910070714,7729.7,7730.1,7729.6,7730.1
201910070715,7730,7731.2,7729,7729.1
201910070716,7729.1,7730.3,7729.1,7729.8
201910070717,7729.6,7730.9,7729,7730.4
201910070718,7730.8,7730.9,7729.3,7729.4
201910070719,7729.4,7730.9,7729.1,7730.3
201910070720,7730.2,7730.8,7729.7,7729.9
201910070721,7730.1,7730.4,7729.5,7729.8
201910070722,7729.8,7729.8,7728.9,7729.1
201910070723,7729.1,7729.5,7725.9,7725.9
201910070724,7725.9,7728.3,7725.6,7728
201910070725,7728,7730.3,7728,7729.8
201910070726,7729.8,7729.8,7728.6,7729
201910070727,7729,7731,7728.9,7730.5
201910070728,7730.5,7731.3,7729.9,7729.9
201910070729,7730,7730.3,7728.9,7728.9
201910070730,7728.9,7729.8,7728.7,7729.8
201910070731,7729.8,7730.3,7729.2,7729.9
201910070732,7729.9,7732.2,7729.7,7732.2
201910070733,7732.2,7732.2,7730.6,7731.2
201910070734,7731.3,7732.2,7731,7731.8
201910070735,7731.8,7732.2,7731.2,7731.6
201910070736,7731.6,7732.8,7731.5,7732
201910070737,7732.2,7733.6,7731.9,7733.4
201910070738,7733.4,7735.1,7733.3,7734.2
201910070739,7734.2,7734.6,7732.1,7732.2
201910070740,7732.3,7732.6,7730.9,7732.6
201910070741,7732.6,7732.9,7732.3,7732.9
201910070742,7732.9,7732.9,7731.6,7732
201910070743,7731.8,7732.3,7730.8,7731.9
201910070744,7731.9,7732.4,7731.9,7732
201910070745,7731.9,7732.5,7731.4,7731.4
201910070746,7731.4,7732.5,7731.3,7731.7
201910070747,7731.7,7732,7731.4,7731.5
201910070748,7731.5,7732.3,7731.5,7732.3
201910070749,7732.3,7732.7,7732.1,7732.1
201910070750,7732.1,7732.6,7731.3,7731.3
201910070751,7731.2,7731.6,7731.1,7731.1
201910070752,7731.1,7731.6,7731.1,7731.5
201910070753,7731.5,7732,7731.4,7731.9
201910070754,7731.9,7732.3,7731.9,7732.1
201910070755,7732.1,7732.1,7731.6,7731.7
201910070756,7731.7,7732.1,7730.7,7731.9
201910070757,7731.9,7734.3,7731.9,7733.5
201910070758,7733.4,7737.1,7733.4,7736.5
201910070759,7736.5,7740.2,7736.4,7739.9
201910070800,7739.9,7740.3,7736.1,7737.1
201910070801,7737.1,7738.3,7736.8,7737
201910070802,7737.1,7738.4,7737.1,7738
201910070803,7738,7738.2,7737.8,7738.2
201910070804,7737.9,7739.6,7737.9,7738.3
201910070805,7738.4,7739.4,7738.1,7739.3
201910070806,7739.3,7739.5,7738.1,7738.8
201910070807,7738.8,7738.9,7737.3,7738.4
201910070808,7738.4,7738.5,7738,7738.2
201910070809,7738.3,7738.6,7738,7738.2
201910070810,7738.1,7738.6,7737,7737.5
201910070811,7737.8,7738.2,7737.3,7737.6
201910070812,7737.8,7739.2,7737.8,7738.3
201910070813,7738.3,7738.9,7738,7738.8
201910070814,7738.8,7741.2,7738.8,7740.5
201910070815,7740.5,7742.1,7740,7740.1
201910070816,7740.1,7740.5,7739.3,7740.1
201910070817,7740.1,7740.2,7739.5,7739.5
201910070818,7739.5,7740.4,7739.4,7740.4
201910070819,7740.4,7740.4,7740,7740.1
201910070820,7740.1,7740.1,7739.3,7739.8
201910070821,7739.6,7740.5,7739.2,7740.2
201910070822,7740.2,7740.6,7739.8,7740.3
201910070823,7740.3,7743.6,7740.3,7743.6
201910070824,7743.6,7743.7,7742,7742.4
201910070825,7742.4,7742.7,7741.4,7741.8
201910070826,7741.8,7741.9,7741.5,7741.7
201910070827,7741.6,7742.7,7741.4,7742.4
201910070828,7742.4,7743.1,7742,7742.9
201910070829,7742.9,7744.1,7742.9,7743.8
201910070830,7743.8,7743.8,7742,7742.9
201910070831,7742.9,7742.9,7741.5,7742.5
201910070832,7742.5,7743.2,7742.3,7742.9
201910070833,7742.9,7743.9,7742.8,7743.8
201910070834,7743.8,7746,7743.8,7744.8
201910070835,7744.9,7746.3,7744.9,7746.2
201910070836,7746.2,7746.2,7743.9,7743.9
201910070837,7743.9,7745,7743.9,7744.1
201910070838,7744,7744.7,7742.8,7743.1
201910070839,7743.1,7743.2,7742.3,7743
201910070840,7743,7743.7,7742.4,7743.5
201910070841,7743.6,7745,7743.6,7744.5
201910070842,7744.5,7745.1,7743.4,7744
201910070843,7743.8,7744.5,7743.6,7744.3
201910070844,7744.5,7746.8,7744.5,7745.5
201910070845,7745.5,7745.6,7743.7,7743.7
201910070846,7743.7,7746.1,7743.4,7744.3
201910070847,7744.3,7744.3,7743.3,7743.5
201910070848,7743.5,7743.8,7742.7,7742.9
201910070849,7742.9,7743,7742.6,7742.8
201910070850,7742.9,7742.9,7741.7,7741.9
201910070851,7741.9,7742.5,7740.8,7741.3
201910070852,7741.3,7741.6,7740.1,7740.2
201910070853,7740.2,7740.4,7739.2,7740.4
201910070854,7740.4,7740.5,7739.1,7739.6
201910070855,7739.5,7740.8,7738.6,7740.5
201910070856,7740.4,7741.1,7739.9,7740.9
201910070857,7740.9,7740.9,7740.5,7740.5
201910070858,7740.4,7740.5,7738.9,7739.2
201910070859,7739.2,7739.6,7736.8,7737.9
201910070900,7737.9,7742.4,7737.6,7742.3
201910070901,7742.3,7743,7739.4,7739.5
201910070902,7739.5,7742,7739.5,7741.7
201910070903,7741.7,7743.5,7740.4,7743.3
201910070904,7743.3,7745.5,7743.3,7744.9
201910070905,7744.9,7746.5,7742.6,7742.6
201910070906,7742.6,7743.2,7742,7742.3
201910070907,7742.3,7742.8,7740.7,7741.3
201910070908,7741.2,7741.4,7737.9,7738.6
201910070909,7738.6,7739.9,7737.9,7739.9
201910070910,7740,7740.1,7737.9,7738.6
201910070911,7738.6,7738.6,7731.1,7733.9
201910070912,7734.1,7734.8,7732.2,7734.8
201910070913,7734.8,7735.3,7732.7,7733.2
201910070914,7733.2,7734.9,7732.7,7734.1
201910070915,7734.1,7737.1,7733.7,7735.9
201910070916,7735.9,7737,7735.4,7736.1
201910070917,7736.2,7736.9,7735.9,7735.9
201910070918,7735.9,7736.2,7734.7,7736.1
201910070919,7736.1,7737.1,7735.9,7736.5
201910070920,7736.5,7737.3,7732.9,7733.9
201910070921,7733.9,7734.8,7731.9,7731.9
201910070922,7731.9,7732.9,7731.5,7732.8
201910070923,7732.8,7733,7731.7,7731.7
201910070924,7731.7,7731.7,7728.4,7728.5
201910070925,7728.5,7729.5,7726.2,7726.4
201910070926,7726.4,7727.7,7725.8,7727.1
201910070927,7727.1,7727.3,7725.3,7726.9
201910070928,7726.8,7727.4,7725.1,7727.1
201910070929,7727.2,7728,7726.8,7727.1
201910070930,7727.1,7727.9,7726.6,7727.2
201910070931,7727.1,7728.4,7726.5,7727.7
201910070932,7727.6,7728.4,7727.5,7727.5
201910070933,7727.6,7727.6,7726.9,7727.3
201910070934,7727.3,7727.3,7726.6,7727.1
201910070935,7727.2,7728,7726.7,7727.8
201910070936,7727.8,7728.5,7727.2,7728.3
201910070937,7728.3,7729.4,7728.1,7728.6
201910070938,7728.6,7728.9,7727.8,7728.5
201910070939,7728.5,7729.8,7728.4,7729.4
201910070940,7729.4,7729.7,7728.4,7729.2
201910070941,7729.1,7729.1,7727.6,7727.8
201910070942,7727.8,7727.8,7726.5,7726.9
201910070943,7726.9,7727.2,7726,7727.2
201910070944,7727.2,7728.3,7726.8,7727.9
201910070945,7727.8,7730.3,7726.9,7730.3
201910070946,7730,7731.6,7729.5,7731.4
201910070947,7731.4,7732.8,7729.6,7732.6
201910070948,7732.6,7732.8,7731.7,7732.2
201910070949,7732.2,7732.4,7729.7,7730.2
201910070950,7730.2,7730.6,7729.2,7730.3
201910070951,7730.3,7731.9,7729.5,7731.4
201910070952,7731.3,7731.3,7730.6,7731
201910070953,7731,7731.7,7729.7,7729.7
201910070954,7729.7,7731.2,7729.7,7730.8
201910070955,7730.8,7731.4,7730.4,7730.7
201910070956,7730.7,7730.7,7728.7,7728.8
201910070957,7728.9,7728.9,7727.6,7728.4
201910070958,7728.4,7729.1,7728.1,7728.4
201910070959,7728.4,7728.6,7726.4,7726.9
201910071000,7726.9,7728.2,7726.2,7728.1
201910071001,7728.2,7728.6,7724.1,7725
201910071002,7725,7725.1,7720.9,7722.3
201910071003,7722.3,7723.8,7721.8,7723.3
201910071004,7723.3,7723.6,7721.9,7723.2
201910071005,7723.2,7724.1,7721.7,7723.5
201910071006,7723.5,7724.3,7722.2,7724.3
201910071007,7724.3,7725.2,7724.2,7724.9
201910071008,7724.9,7725.8,7724.3,7725.1
201910071009,7725.1,7725.3,7723.9,7725.1
201910071010,7725.1,7725.1,7723.3,7724.8
201910071011,7724.8,7726.1,7724.6,7725.9
201910071012,7725.9,7726.1,7724.5,7724.8
201910071013,7724.8,7725.6,7724.1,7724.1
201910071014,7724.1,7725.6,7723.9,7725.3
201910071015,7725.3,7725.3,7724.1,7724.4
201910071016,7724.4,7724.6,7723.3,7724.1
201910071017,7724,7724.1,7723,7723
201910071018,7723,7723.6,7722.5,7723.6
201910071019,7723.6,7723.8,7722,7722
201910071020,7722,7723.2,7721.4,7723.2
201910071021,7723.2,7723.2,7721.6,7722
201910071022,7722,7723.3,7721.8,7722.9
201910071023,7722.9,7723.4,7722.8,7723.1
201910071024,7723.1,7724.9,7723.1,7724
201910071025,7724.2,7725.3,7724,7724.3
201910071026,7724.3,7725.5,7724.1,7725
201910071027,7725,7726,7724.8,7725.5
201910071028,7725.6,7725.6,7724.6,7724.6
201910071029,7724.6,7726.2,7724.4,7725.9
201910071030,7725.9,7727.3,7725.4,7726.4
201910071031,7726.4,7726.6,7725.8,7726.6
201910071032,7726.6,7726.6,7724.9,7725.9
201910071033,7725.9,7726.1,7724.9,7725.7
201910071034,7725.7,7730.3,7725.7,7729.9
201910071035,7729.9,7729.9,7727.9,7729.2
201910071036,7729.2,7730.1,7728.8,7729.2
201910071037,7729.3,7729.6,7728.9,7729.3
201910071038,7729.3,7729.4,7728.5,7728.6
201910071039,7728.6,7728.8,7728.2,7728.6
201910071040,7728.6,7728.8,7727.6,7728.3
201910071041,7728.4,7728.5,7727.3,7727.3
201910071042,7727.4,7728.4,7727.2,7728.4
201910071043,7728.4,7730.8,7727.6,7730.8
201910071044,7730.7,7732.3,7730.7,7732
201910071045,7732,7732.9,7731.3,7732.1
201910071046,7732.1,7732.1,7731,7731
201910071047,7731,7731,7729.7,7730
201910071048,7730.1,7731.3,7729.4,7731.3
201910071049,7731.3,7731.3,7729.8,7729.8
201910071050,7729.6,7730.5,7729.3,7730.2
201910071051,7730,7730.7,7729.6,7730.5
201910071052,7730.5,7730.6,7729,7729
201910071053,7729,7729,7726.9,7726.9
201910071054,7726.9,7727.5,7726.6,7727
201910071055,7727,7728.1,7727,7727.2
201910071056,7727.2,7729.5,7727.2,7729.3
201910071057,7729.3,7729.3,7728.7,7728.8
201910071058,7728.8,7729.4,7727.9,7729.3
201910071059,7729.3,7731.6,7729.3,7731.3
201910071100,7731.3,7731.7,7729.9,7730.2
201910071101,7730.1,7730.1,7728.7,7728.8
201910071102,7728.8,7729.4,7728.3,7729.1
201910071103,7729.1,7729.6,7728.8,7728.8
201910071104,7728.8,7728.9,7728.2,7728.4
201910071105,7728.4,7728.5,7726.9,7727.4
201910071106,7727.4,7728.3,7727.2,7727.8
201910071107,7727.8,7728.5,7727.1,7727.1
201910071108,7727.1,7727.3,7726.4,7726.6
201910071109,7726.6,7726.6,7725.6,7725.9
201910071110,7725.9,7726.8,7725.9,7726.6
201910071111,7726.6,7726.8,7726.4,7726.4
201910071112,7726.4,7726.6,7724.9,7725.3
201910071113,7725.3,7725.7,7723.8,7723.8
201910071114,7723.8,7728.1,7723.8,7727.9
201910071115,7727.9,7727.9,7726.5,7727.2
201910071116,7727.2,7727.3,7725.8,7726.4
201910071117,7726.4,7727.6,7725.9,7726.9
201910071118,7726.8,7727.4,7726.4,7727.1
201910071119,7727.1,7727.8,7724.4,7726.4
201910071120,7726.4,7727.5,7726,7726.4
201910071121,7726.4,7726.6,7725.7,7726.2
201910071122,7726.2,7727.8,7725.6,7727.1
201910071123,7727.1,7727.1,7726.1,7726.4
201910071124,7726.3,7726.3,7726.1,7726.1
201910071125,7726.1,7726.1,7725.4,7725.9
201910071126,7725.9,7726,7722.2,7724.9
201910071127,7724.9,7725.8,7723.9,7725.8
201910071128,7725.8,7725.8,7724.4,7725.2
201910071129,7725.2,7725.8,7724.9,7725.3
201910071130,7725.3,7725.4,7724.9,7725.3
201910071131,7725.3,7726,7724.9,7725.8
201910071132,7725.8,7726.1,7725.7,7725.8
201910071133,7725.8,7726.1,7725.6,7725.8
201910071134,7725.8,7726.1,7725.4,7725.9
201910071135,7725.9,7726.5,7725.4,7726
201910071136,7726,7726.3,7725.6,7725.9
201910071137,7725.9,7727,7725.8,7727
201910071138,7727,7727.7,7726.8,7727.4
201910071139,7727.4,7728.2,7726.9,7727
201910071140,7727,7727.2,7726.3,7726.3
201910071141,7726.3,7729.2,7726.2,7727.3
201910071142,7727.3,7727.4,7726.6,7726.7
201910071143,7726.6,7727.6,7726.5,7727.6
201910071144,7727.6,7727.8,7727.1,7727.6
201910071145,7727.6,7727.8,7726.8,7726.8
201910071146,7726.8,7727.3,7725,7725.9
201910071147,7725.9,7726.7,7725.6,7726.6
201910071148,7726.6,7727.3,7726.4,7727.2
201910071149,7727.2,7727.2,7726.4,7726.8
201910071150,7726.9,7728,7726.9,7727.4
201910071151,7727.4,7727.8,7727.4,7727.6
201910071152,7727.6,7728.7,7727.2,7727.7
201910071153,7727.7,7728,7727.3,7727.5
201910071154,7727.6,7728.1,7727.4,7727.6
201910071155,7727.6,7727.6,7726.4,7726.8
201910071156,7726.8,7727.2,7726.6,7726.6
201910071157,7726.6,7726.6,7726.1,7726.3
201910071158,7726.3,7726.6,7726,7726.6
201910071159,7726.5,7726.9,7726.5,7726.9
201910071200,7726.9,7727.5,7726.6,7726.6
201910071201,7726.6,7726.8,7725.8,7725.9
201910071202,7725.9,7726.3,7725.8,7726.3
201910071203,7726.3,7726.4,7725.3,7725.3
201910071204,7725.3,7726.1,7724.6,7725.8
201910071205,7725.8,7726.4,7725.8,7726.2
201910071206,7726.2,7726.8,7725.8,7725.9
201910071207,7725.9,7726.5,7725.9,7726.5
201910071208,7726.6,7727.8,7726.6,7727.2
201910071209,7727.2,7728,7727.1,7727.9
201910071210,7727.9,7728.9,7726.6,7727.4
201910071211,7727.4,7727.9,7727.4,7727.7
201910071212,7727.7,7728.2,7727.7,7728.1
201910071213,7728.1,7728.3,7728,7728
201910071214,7728,7728.4,7727.8,7727.8
201910071215,7727.8,7728.3,7727.7,7727.8
201910071216,7728,7728.2,7727.7,7727.9
201910071217,7727.8,7727.8,7727,7727.2
201910071218,7727.2,7727.6,7727.2,7727.6
201910071219,7727.6,7728.5,7727.6,7728.3
201910071220,7728.3,7729.2,7728.2,7728.7
201910071221,7728.7,7729.5,7728.6,7729.2
201910071222,7729.1,7729.2,7727.9,7728.3
201910071223,7728.3,7728.8,7728,7728.7
201910071224,7728.7,7728.9,7728.4,7728.7
201910071225,7728.6,7728.7,7728,7728.7
201910071226,7728.7,7728.7,7727.8,7727.9
201910071227,7727.8,7728.7,7727.3,7728.7
201910071228,7728.7,7728.8,7728.4,7728.4
201910071229,7728.4,7729.1,7728.1,7729
201910071230,7729,7730.2,7728.9,7729.3
201910071231,7729.3,7730.5,7729.3,7730.4
201910071232,7730.5,7730.6,7729.7,7729.8
201910071233,7729.7,7730.6,7729.7,7730.2
201910071234,7730.2,7730.6,7729.9,7730.6
201910071235,7730.6,7730.8,7729.3,7729.4
201910071236,7729.4,7729.9,7729.3,7729.6
201910071237,7729.6,7729.7,7729.1,7729.2
201910071238,7729.2,7729.5,7728.6,7729.2
201910071239,7729,7729.2,7728.6,7728.9
201910071240,7728.9,7730,7728.9,7729.8
201910071241,7729.8,7730.1,7729.4,7729.8
201910071242,7729.8,7730.3,7727.2,7727.7
201910071243,7727.7,7728.5,7727.7,7728.1
201910071244,7728.2,7728.7,7728,7728.1
201910071245,7728.1,7728.4,7727.9,7728.4
201910071246,7728.4,7728.8,7728.2,7728.6
201910071247,7728.8,7728.9,7728.2,7728.8
201910071248,7728.9,7729.4,7728.6,7729.4
201910071249,7729.4,7729.4,7728.5,7728.6
201910071250,7728.6,7728.6,7727.5,7727.8
201910071251,7727.8,7728.2,7727,7727.7
201910071252,7727.7,7728,7727.2,7727.6
201910071253,7727.6,7727.8,7727.3,7727.8
201910071254,7727.8,7728.1,7727.8,7728.1
201910071255,7728.1,7728.1,7727.6,7728.1
201910071256,7728.1,7728.4,7727.8,7728.2
201910071257,7728.2,7728.4,7727.8,7728.2
201910071258,7728.2,7728.6,7727.9,7728.2
201910071259,7728.2,7728.5,7727.8,7728.5
201910071300,7728.2,7728.7,7728.1,7728.1
201910071301,7728.1,7728.9,7728.1,7728.2
201910071302,7728.2,7728.5,7728.1,7728.3
201910071303,7728.3,7728.4,7727.9,7728.2
201910071304,7728.2,7728.9,7728.2,7728.9
201910071305,7728.9,7728.9,7726.1,7726.7
201910071306,7726.7,7727.6,7726.6,7727.3
201910071307,7727.3,7727.6,7727.2,7727.6
201910071308,7727.8,7728.2,7727.7,7728.2
201910071309,7728.2,7728.9,7728.2,7728.7
201910071310,7728.7,7730.6,7728.7,7729.2
201910071311,7729.1,7729.6,7729,7729.2
201910071312,7729.2,7729.2,7727.3,7727.3
201910071313,7727.3,7728.9,7727.3,7728.6
201910071314,7728.6,7729.7,7728.6,7728.8
201910071315,7728.8,7729.4,7728.4,7729
201910071316,7729,7729.7,7728.9,7729.6
201910071317,7729.5,7730.3,7729.5,7729.5
201910071318,7729.5,7730.5,7729.5,7730.2
201910071319,7730.2,7730.6,7729.8,7730.4
201910071320,7730.3,7730.3,7729.9,7730.1
201910071321,7730.1,7730.7,7730.1,7730.5
201910071322,7730.5,7732.4,7730.5,7732.4
201910071323,7732.4,7732.6,7730.9,7731.7
201910071324,7731.7,7732.3,7731,7731
201910071325,7731,7731.6,7730.7,7730.9
201910071326,7730.8,7731.1,7730.3,7730.3
201910071327,7730.2,7731.1,7730.2,7730.9
201910071328,7730.9,7731.1,7730.9,7731.1
201910071329,7731,7731,7730.2,7730.9
201910071330,7730.9,7732.7,7730.7,7732.7
201910071331,7732.7,7738.9,7732.6,7735.5
201910071332,7735.6,7737.7,7735.6,7736.7
201910071333,7736.4,7736.4,7733.6,7735.6
201910071334,7735.7,7737.6,7735.4,7736.9
201910071335,7736.9,7737.6,7736.2,7736.4
201910071336,7736.3,7737.4,7736.3,7736.6
201910071337,7736.6,7736.7,7736.1,7736.6
201910071338,7736.7,7737,7736.4,7736.4
201910071339,7736.4,7737.1,7736.3,7737.1
201910071340,7737.1,7737.2,7736.7,7737.1
201910071341,7737,7737.5,7736.9,7736.9
201910071342,7736.9,7737.1,7735.9,7736.1
201910071343,7736,7736.5,7735.9,7736.4
201910071344,7736.5,7736.8,7736.1,7736.1
201910071345,7736.1,7736.6,7735.5,7735.8
201910071346,7735.8,7736.1,7735.4,7736
201910071347,7736,7736.3,7735.8,7736.1
201910071348,7736.1,7736.4,7735.9,7736.4
201910071349,7736.4,7736.5,7735.5,7735.5
201910071350,7735.5,7736.4,7735.5,7736
201910071351,7736,7736.4,7736,7736.2
201910071352,7736.2,7737.3,7736.1,7737.1
201910071353,7737.1,7737.8,7736.9,7737
201910071354,7737,7737.2,7737,7737.1
201910071355,7737.1,7737.4,7737,7737
201910071356,7737,7737.9,7737,7737.1
201910071357,7737.1,7737.2,7736.9,7737.1
201910071358,7737.1,7737.4,7737.1,7737.4
201910071359,7737.4,7738.1,7737.3,7737.6
201910071400,7737.6,7737.7,7736.1,7736.1
201910071401,7736.1,7736.5,7736,7736.1
201910071402,7736,7736.2,7735.9,7736
201910071403,7736,7736.2,7735,7735.9
201910071404,7735.9,7736.1,7735.4,7735.6
201910071405,7735.6,7737.3,7735.5,7737.1
201910071406,7737.1,7737.1,7736.4,7736.4
201910071407,7736.4,7736.4,7736.1,7736.1
201910071408,7736.1,7737,7735.9,7736.1
201910071409,7736.1,7736.1,7735.1,7735.3
201910071410,7735.4,7735.9,7735.2,7735.6
201910071411,7735.6,7736.6,7735.3,7736.1
201910071412,7736.1,7736.1,7735.4,7735.6
201910071413,7735.6,7735.6,7734.7,7734.8
201910071414,7734.8,7734.8,7733.7,7733.8
201910071415,7733.8,7735,7733.8,7735
201910071416,7735,7735.4,7734.7,7735.1
201910071417,7735.1,7736.1,7735.1,7736.1
201910071418,7736.1,7736.4,7736,7736.4
201910071419,7736.3,7736.6,7736.2,7736.2
201910071420,7736.3,7736.5,7736.2,7736.2
201910071421,7736.1,7736.1,7735.2,7735.5
201910071422,7735.5,7736.2,7735,7735
201910071423,7735,7735.2,7734.7,7735.1
201910071424,7735.1,7736.1,7735.1,7735.9
201910071425,7735.9,7736.6,7735.9,7736.1
201910071426,7736.2,7736.3,7735.6,7735.6
201910071427,7735.6,7736.2,7735.3,7735.3
201910071428,7735.3,7735.6,7734.6,7734.8
201910071429,7734.8,7735.2,7734.7,7734.8
201910071430,7734.8,7735.6,7734.7,7734.7
201910071431,7734.7,7734.8,7734.7,7734.8
201910071432,7734.8,7736.2,7734.8,7735.8
201910071433,7735.8,7736.7,7735.7,7735.7
201910071434,7735.6,7736.1,7735,7735.2
201910071435,7734.9,7735.5,7734.9,7735.5
201910071436,7735.5,7735.5,7735.1,7735.1
201910071437,7735.1,7735.6,7735.1,7735.3
201910071438,7735.3,7735.6,7735.3,7735.4
201910071439,7735.4,7735.4,7735.1,7735.1
201910071440,7735.1,7735.7,7734.3,7734.3
201910071441,7734.5,7734.7,7734,7734.4
201910071442,7734.3,7734.4,7733,7733.1
201910071443,7733.1,7733.6,7732.4,7732.5
201910071444,7732.5,7734.2,7732.5,7733.6
201910071445,7733.5,7734.6,7733.1,7734.6
201910071446,7734.7,7735.1,7734.1,7734.8
201910071447,7734.7,7735.6,7734.7,7734.7
201910071448,7734.7,7734.9,7734,7734.4
201910071449,7734.3,7734.7,7734.2,7734.4
201910071450,7734.4,7734.6,7733.8,7734.3
201910071451,7734.4,7735.1,7734.3,7735.1
201910071452,7735.1,7735.1,7734.6,7734.7
201910071453,7734.6,7734.8,7734.4,7734.8
201910071454,7734.8,7735,7733.9,7733.9
201910071455,7733.9,7734.3,7733.7,7734.3
201910071456,7734.3,7734.8,7733.9,7734.1
201910071457,7734.1,7735.1,7733.7,7733.9
201910071458,7733.9,7734.4,7733.9,7734.4
201910071459,7734.4,7736.2,7734.3,7735.6
201910071500,7735.6,7736.3,7732.9,7735.9
201910071501,7735.9,7735.9,7733.9,7734.6
201910071502,7734.6,7738.3,7733.6,7737.8
201910071503,7737.8,7741.7,7736.3,7740.8
201910071504,7740.7,7741.1,7737.9,7738
201910071505,7738,7739.4,7737,7739.4
201910071506,7739.4,7740.7,7739.1,7739.6
201910071507,7739.6,7740,7738.4,7739.1
201910071508,7739.1,7739.4,7738.6,7739.1
201910071509,7739.1,7739.5,7738.5,7738.9
201910071510,7738.9,7741.3,7738.8,7741.3
201910071511,7741.3,7741.6,7740.3,7741
201910071512,7741.1,7741.9,7741,7741.8
201910071513,7741.8,7741.8,7740.4,7740.5
201910071514,7740.3,7740.6,7739.8,7739.8
201910071515,7739.9,7740.6,7739.4,7740.2
201910071516,7740.2,7740.8,7738.8,7739.6
201910071517,7739.6,7741.5,7739.2,7741.3
201910071518,7741.4,7741.6,7740,7741.6
201910071519,7741.6,7743.1,7739.9,7739.9
201910071520,7739.9,7741.5,7739.8,7741.2
201910071521,7741.2,7742.1,7741.1,7741.1
201910071522,7741.1,7742.1,7740.7,7741.9
201910071523,7741.9,7743.6,7741.9,7743.6
201910071524,7744,7744,7741.5,7741.5
201910071525,7741.5,7741.9,7741.4,7741.5
201910071526,7741.5,7742.6,7737.8,7737.8
201910071527,7738,7739.1,7737.4,7738.4
201910071528,7738.4,7738.6,7737.8,7738.1
201910071529,7738.2,7738.4,7738.1,7738.4
201910071530,7738.3,7738.9,7738,7738.9
201910071531,7738.9,7739,7736.9,7737.1
201910071532,7737.1,7739.2,7736.9,7738.8
201910071533,7738.8,7740.6,7738.8,7740.1
201910071534,7740.1,7740.9,7739.4,7739.9
201910071535,7739.9,7741.9,7739.6,7741.4
201910071536,7741.4,7741.8,7741,7741.8
201910071537,7741.8,7742,7740.5,7741.2
201910071538,7741.2,7742.4,7741.2,7742.2
201910071539,7742.2,7742.4,7741.2,7741.4
201910071540,7741.4,7741.6,7740.6,7741.5
201910071541,7741.5,7741.6,7741,7741.2
201910071542,7741.2,7741.2,7740.8,7740.8
201910071543,7740.8,7741.4,7740.7,7741.4
201910071544,7741.4,7741.4,7740.8,7741.1
201910071545,7741,7741.4,7739.6,7739.7
201910071546,7739.7,7740.1,7739.4,7739.7
201910071547,7739.7,7739.9,7739.1,7739.3
201910071548,7739.3,7739.6,7738.9,7739.1
201910071549,7739.1,7739.9,7738.4,7739.9
201910071550,7739.9,7740.1,7738.8,7739.2
201910071551,7739.4,7739.6,7739.1,7739.1
201910071552,7739.1,7739.6,7738.1,7738.1
201910071553,7738.1,7738.1,7734.7,7735.3
201910071554,7735.3,7736.6,7734.8,7735.9
201910071555,7735.9,7737.8,7735.5,7735.5
201910071556,7735.5,7737.6,7735.5,7736.6
201910071557,7736.6,7736.6,7735.4,7735.4
201910071558,7735.4,7735.5,7734.8,7735.1
201910071559,7735.1,7735.1,7731.2,7731.3
201910071600,7731.3,7734.4,7731.3,7733.6
201910071601,7734,7735.9,7733.1,7733.3
201910071602,7733.4,7735.8,7731.9,7735.4
201910071603,7735.4,7735.4,7732.1,7732.1
201910071604,7732.2,7734,7731.4,7732
201910071605,7732,7733.5,7731.4,7732.5
201910071606,7732.8,7732.8,7728.3,7729
201910071607,7729,7730.2,7725.8,7725.8
201910071608,7725.8,7727.3,7724.5,7724.9
201910071609,7724.8,7725.9,7724.7,7725.2
201910071610,7725.9,7728.9,7725.4,7727.8
201910071611,7727.8,7728.8,7726.1,7727.1
201910071612,7727.1,7729.6,7726.8,7729.1
201910071613,7729.1,7730.6,7728.8,7730.1
201910071614,7730.1,7733.4,7729.9,7732.6
201910071615,7732.6,7733,7731.1,7731.9
201910071616,7731.8,7732.3,7731,7731.9
201910071617,7731.9,7733.3,7731.1,7733.1
201910071618,7733.1,7733.1,7731,7731
201910071619,7731,7734.2,7731,7733.8
201910071620,7733.6,7736.9,7733.4,7735.7
201910071621,7735.7,7743.3,7735.7,7742.7
201910071622,7742.7,7743.6,7740.8,7743.5
201910071623,7743.5,7747.8,7742.7,7746.7
201910071624,7746.7,7747.2,7743,7746.3
201910071625,7746.3,7746.3,7743.5,7744.5
201910071626,7744.5,7745.9,7743.8,7744
201910071627,7744,7746.3,7743.9,7745.1
201910071628,7745.1,7746.8,7743.4,7743.4
201910071629,7743.4,7744.1,7741.1,7741.8
201910071630,7741.9,7744.3,7741.8,7744.2
201910071631,7744.2,7744.2,7741.8,7742.6
201910071632,7742.6,7742.6,7741,7741.9
201910071633,7741.9,7743.1,7741.1,7741.3
201910071634,7741.3,7741.3,7739,7739.3
201910071635,7739.3,7741.6,7738.7,7740.9
201910071636,7740.9,7741.5,7739.3,7740
201910071637,7740.6,7740.6,7737.7,7740.6
201910071638,7740.6,7740.6,7738.6,7738.6
201910071639,7738.6,7739.6,7737.4,7738.1
201910071640,7738.1,7740.3,7737.6,7740.3
201910071641,7740.3,7740.4,7734.1,7735.9
201910071642,7735.9,7737.2,7735.1,7736.3
201910071643,7736.4,7736.7,7735.4,7736.5
201910071644,7736.5,7737.1,7735.1,7735.9
201910071645,7735.8,7738.6,7735.3,7738.3
201910071646,7738.3,7742.8,7738.3,7740.3
201910071647,7740.6,7741.7,7740.4,7740.9
201910071648,7740.9,7741.6,7739.8,7740.3
201910071649,7740.3,7741.3,7738.2,7738.4
201910071650,7738.4,7738.6,7734.8,7735.1
201910071651,7735.1,7738.5,7735.1,7737.7
201910071652,7737.7,7737.7,7735.7,7736.5
201910071653,7736.5,7736.5,7732.1,7732.3
201910071654,7732.3,7733.2,7731.2,7732.9
201910071655,7732.9,7732.9,7728.7,7728.9
201910071656,7728.9,7729.8,7726.1,7726.4
201910071657,7726.4,7729.1,7724.9,7728.2
201910071658,7728.2,7731.9,7727.6,7731.8
201910071659,7731.8,7734.3,7731.8,7733.6
201910071700,7733.6,7736.4,7728.7,7729.9
201910071701,7729.9,7730.1,7728.2,7729.2
201910071702,7729.3,7730.6,7727.5,7728.4
201910071703,7728.4,7732,7728.4,7730.2
201910071704,7730.2,7731.9,7727.3,7730.9
201910071705,7731.1,7736.5,7730.5,7733.3
201910071706,7733.3,7733.8,7729.7,7729.7
201910071707,7729.7,7730.8,7728.4,7728.9
201910071708,7728.9,7729.9,7728,7729.2
201910071709,7729.2,7729.9,7726.3,7726.9
201910071710,7726.9,7729.6,7725.6,7729.1
201910071711,7729.1,7730.3,7727.9,7728.9
201910071712,7728.9,7730.3,7728.8,7729.2
201910071713,7729.2,7729.2,7727.6,7728
201910071714,7727.7,7728.9,7726.1,7727.5
201910071715,7727.6,7727.8,7726.4,7727.3
201910071716,7727.1,7730.8,7727.1,7730.2
201910071717,7730.3,7730.7,7728.6,7730
201910071718,7730,7730.1,7728.6,7729.3
201910071719,7729.3,7729.3,7728.1,7728.3
201910071720,7728.3,7730.5,7727,7730.5
201910071721,7730.5,7731.8,7728.8,7729.9
201910071722,7729.9,7730.4,7729,7729.5
201910071723,7729.5,7730,7725.1,7725.4
201910071724,7725.4,7727.3,7724.1,7724.1
201910071725,7724.1,7731,7724,7729.4
201910071726,7729.4,7732.2,7729.2,7731.6
201910071727,7731.6,7731.9,7729,7729.8
201910071728,7729.8,7730.5,7727,7727.7
201910071729,7727.7,7729.1,7727.3,7728.8
201910071730,7728.8,7730.1,7725.7,7728.5
201910071731,7728.5,7729.9,7727.2,7727.4
201910071732,7727.3,7728.3,7726.8,7728.1
201910071733,7728.1,7731.7,7726.1,7729.3
201910071734,7729.4,7730.8,7728.9,7729.8
201910071735,7729.8,7732.3,7729.3,7729.6
201910071736,7729.7,7731.4,7727.9,7730.2
201910071737,7730.3,7731,7729.5,7730.3
201910071738,7730.3,7730.3,7728.5,7729.1
201910071739,7729.2,7729.3,7726.4,7728.7
201910071740,7728.6,7729.6,7726.2,7729.1
201910071741,7729.1,7730.2,7727.8,7730.1
201910071742,7730.1,7732.3,7730.1,7730.7
201910071743,7730.7,7731.3,7729.7,7730.3
201910071744,7730.4,7731.9,7728.7,7729.5
201910071745,7729.5,7729.5,7727.1,7727.8
201910071746,7727.8,7727.8,7725.9,7726.5
201910071747,7726.7,7728.6,7725.5,7728.3
201910071748,7728.3,7729.3,7727.2,7728.7
201910071749,7728.7,7729.8,7728.1,7728.5
201910071750,7728.5,7729.6,7727.5,7727.5
201910071751,7727.5,7728,7726.7,7727.6
201910071752,7727.6,7730.2,7726.8,7729.2
201910071753,7729.2,7729.7,7727,7727
201910071754,7727.1,7728.5,7726.9,7727.8
201910071755,7727.8,7727.8,7725,7725.4
201910071756,7725.4,7725.6,7723.9,7724.5
201910071757,7724.5,7724.6,7722.3,7723.6
201910071758,7723.6,7724,7722.6,7723.3
201910071759,7723.3,7725.3,7722.6,7725.3
201910071800,7725.3,7728.1,7724.5,7726.6
201910071801,7726.6,7727.1,7725.5,7727.1
201910071802,7727.1,7727.6,7726.4,7727.3
201910071803,7727.3,7727.8,7725.6,7726.2
201910071804,7726.2,7729.7,7726.2,7729.3
201910071805,7729.3,7731.5,7728.9,7729.9
201910071806,7729.8,7730.3,7726.3,7727.2
201910071807,7727.1,7728.4,7726.5,7727
201910071808,7727,7728.1,7726.7,7727.7
201910071809,7727.7,7729.7,7727.2,7728.9
201910071810,7728.9,7728.9,7726.4,7727.2
201910071811,7727.2,7727.3,7725.6,7726.4
201910071812,7726.4,7728,7726,7727
201910071813,7726.9,7727.6,7726.7,7726.7
201910071814,7726.7,7727.4,7726.6,7726.8
201910071815,7726.7,7727.9,7725.8,7726.5
201910071816,7726.5,7728.3,7726.1,7727.9
201910071817,7727.8,7728.1,7725.6,7725.6
201910071818,7725.5,7726.6,7725.1,7725.3
201910071819,7725.3,7727.1,7725,7725.9
201910071820,7725.8,7727.1,7725.4,7726.1
201910071821,7726.1,7726.1,7724.2,7724.3
201910071822,7724.2,7724.9,7723.9,7724.1
201910071823,7724.1,7725.5,7724,7724.7
201910071824,7724.7,7725.7,7724.1,7724.8
201910071825,7724.8,7727.2,7724.8,7726.4
201910071826,7726.3,7727.6,7725.2,7725.5
201910071827,7725.5,7725.9,7724.6,7724.8
201910071828,7724.8,7725,7724.2,7724.8
201910071829,7724.8,7725.8,7724.4,7725.1
201910071830,7725.1,7726.4,7723.9,7724
201910071831,7724.1,7725.3,7723.8,7723.9
201910071832,7723.9,7724.5,7723.8,7724.3
201910071833,7724.3,7724.4,7722.9,7723.9
201910071834,7724.3,7727.8,7724.1,7727.2
201910071835,7727.2,7728.4,7727.1,7728.1
201910071836,7728.1,7729.8,7727.2,7729.4
201910071837,7729.6,7730.3,7727.1,7727.1
201910071838,7727.1,7728.2,7726.9,7728
201910071839,7728,7728.9,7727.4,7728.8
201910071840,7728.8,7730.1,7728,7729.6
201910071841,7729.6,7730,7729,7729
201910071842,7729,7729,7726.3,7726.7
201910071843,7726.7,7727.5,7726.2,7726.8
201910071844,7726.9,7726.9,7726.2,7726.6
201910071845,7726.6,7728.9,7726.6,7727.8
201910071846,7727.8,7732,7726.4,7729.7
201910071847,7729.7,7729.7,7727.5,7728.4
201910071848,7728.4,7729.1,7728.4,7728.8
201910071849,7728.7,7730.3,7728,7730
201910071850,7730,7731.1,7729.9,7730.8
201910071851,7730.8,7730.8,7729.8,7730.3
201910071852,7730.3,7730.8,7729.9,7730.2
201910071853,7730.2,7730.6,7729.3,7729.3
201910071854,7729.3,7730.5,7728.8,7729.7
201910071855,7729.7,7732.3,7729.5,7731.8
201910071856,7731.8,7731.8,7729.3,7729.8
201910071857,7729.8,7729.9,7727.8,7728.8
201910071858,7729,7729.3,7728.4,7729.3
201910071859,7729,7730.3,7728.8,7730.1
201910071900,7730.2,7730.2,7727.1,7727.1
201910071901,7727.1,7729.5,7727.1,7728.6
201910071902,7728.6,7728.6,7725.4,7725.4
201910071903,7725.4,7730.2,7725.4,7729.6
201910071904,7729.6,7730.3,7727.7,7729.7
201910071905,7729.7,7730.4,7729.1,7729.5
201910071906,7729.5,7730.2,7729.1,7729.4
201910071907,7729.4,7730.3,7728.5,7728.7
201910071908,7728.7,7729,7727.7,7728
201910071909,7728.1,7730.3,7727.7,7730
201910071910,7729.9,7735.2,7729.9,7733.3
201910071911,7733.3,7733.9,7731.7,7732.5
201910071912,7732.5,7733.2,7732.1,7732.6
201910071913,7732.6,7736.2,7732.6,7736.2
201910071914,7736.2,7738.3,7735.7,7737.1
201910071915,7737.1,7738.3,7735.9,7736.8
201910071916,7736.8,7738.3,7736.8,7738.2
201910071917,7738.6,7739,7736.5,7736.6
201910071918,7736.6,7737.9,7736.5,7737.3
201910071919,7737.3,7738.9,7736.9,7738.8
201910071920,7738.8,7739.5,7737.5,7739.2
201910071921,7739.2,7739.6,7738,7738.4
201910071922,7738.4,7738.4,7736.8,7736.8
201910071923,7736.8,7738.9,7736.8,7737.3
201910071924,7737.3,7739.6,7737.1,7739.2
201910071925,7739.2,7742.8,7739.1,7740.9
201910071926,7740.9,7741.6,7739.1,7739.3
201910071927,7739.3,7740.4,7738.6,7738.9
201910071928,7738.7,7740.3,7738.6,7739.6
201910071929,7739.7,7740.1,7739,7739.3
201910071930,7739.3,7740.9,7739.1,7739.1
201910071931,7739.2,7740.4,7738.7,7740.3
201910071932,7740.3,7741.5,7740,7740.9
201910071933,7740.9,7742,7740.4,7741.8
201910071934,7741.8,7742.8,7741.7,7742
201910071935,7742,7743.8,7741.9,7743.4
201910071936,7743.4,7745.4,7743.2,7744.4
201910071937,7744.4,7744.6,7742.2,7742.8
201910071938,7742.8,7742.9,7741.6,7742.6
201910071939,7742.7,7743.2,7742,7742.3
201910071940,7742.3,7743.8,7742.1,7743.6
201910071941,7743.7,7744.6,7743.6,7744.1
201910071942,7744,7744.1,7742.6,7742.6
201910071943,7742.6,7743.1,7742.3,7742.7
201910071944,7742.6,7744.8,7742.4,7744.6
201910071945,7744.6,7745,7743.4,7744.8
201910071946,7744.8,7746.1,7744.6,7746.1
201910071947,7746.1,7746.8,7745.8,7746.1
201910071948,7746.1,7747.1,7745.9,7747.1
201910071949,7747.1,7747.3,7746.6,7746.8
201910071950,7746.8,7752.1,7746.8,7750.4
201910071951,7750.4,7750.6,7749.3,7749.6
201910071952,7749.6,7750.4,7748.9,7749.3
201910071953,7749.3,7750.1,7748.8,7750
201910071954,7750.1,7751,7749.4,7750.4
201910071955,7750.4,7753.8,7750.1,7752.6
201910071956,7752.6,7752.8,7751.3,7751.3
201910071957,7751.3,7752.8,7751.2,7752.4
201910071958,7752.4,7758.6,7751.7,7757.6
201910071959,7757.6,7758.5,7757.1,7757.8
201910072000,7757.8,7758.8,7755.4,7755.7
201910072001,7755.7,7756.1,7753.8,7754.4
201910072002,7754.4,7754.8,7753,7754.3
201910072003,7754.2,7754.7,7753.3,7754.1
201910072004,7754.1,7754.6,7753.6,7754.6
201910072005,7754.6,7756.9,7754.6,7756.8
201910072006,7757,7757,7755.5,7756.4
201910072007,7756.4,7756.5,7753.5,7753.8
201910072008,7753.8,7755.1,7753.5,7753.5
201910072009,7753.5,7754,7753.4,7753.9
201910072010,7753.8,7756.4,7753.4,7755.7
201910072011,7755.7,7755.8,7753.9,7754.6
201910072012,7754.6,7755,7753.9,7754.1
201910072013,7754.1,7754.6,7753.1,7754.2
201910072014,7754.2,7754.6,7753.1,7753.6
201910072015,7753.6,7753.8,7751.8,7751.8
201910072016,7751.8,7751.9,7748.9,7748.9
201910072017,7748.8,7750.8,7748.8,7749.9
201910072018,7749.8,7750.2,7749.2,7749.5
201910072019,7749.5,7749.9,7748.7,7748.9
201910072020,7749,7749.9,7748.6,7749.6
201910072021,7749.7,7750.2,7749,7749.5
201910072022,7749.5,7749.7,7748.9,7749.6
201910072023,7749.6,7749.8,7747.9,7747.9
201910072024,7747.9,7749.5,7747.8,7747.9
201910072025,7747.8,7748.4,7747.2,7747.6
201910072026,7747.6,7749.1,7747.5,7748.8
201910072027,7748.8,7749.3,7748.4,7748.8
201910072028,7748.8,7748.9,7747.9,7748.3
201910072029,7748.3,7750,7748.3,7749.9
201910072030,7749.9,7750,7748.4,7748.9
201910072031,7748.9,7749.8,7748.3,7749.7
201910072032,7749.7,7751.8,7749.2,7751.6
201910072033,7751.6,7751.9,7750.8,7751.3
201910072034,7751.3,7752.1,7751.1,7752.1
201910072035,7752.1,7753.3,7751,7752.5
201910072036,7752.5,7753.4,7751.8,7753.1
201910072037,7753.5,7755.8,7752.9,7754.6
201910072038,7754.6,7754.6,7752.2,7752.6
201910072039,7752.6,7752.6,7751.3,7752.1
201910072040,7752.1,7753.3,7751.8,7752.8
201910072041,7752.8,7753.8,7752.4,7753.3
201910072042,7753.3,7754.3,7753.1,7754.2
201910072043,7754.2,7756.1,7753.6,7753.7
201910072044,7753.7,7753.7,7751.1,7751.1
201910072045,7751.1,7751.9,7748.2,7750.8
201910072046,7750.9,7751.4,7750.7,7751.2
201910072047,7751.2,7751.3,7749,7749
201910072048,7748.9,7749.4,7747.4,7748.7
201910072049,7748.8,7748.8,7743.6,7744.3
201910072050,7744.3,7746.4,7744.3,7745.3
201910072051,7745.4,7747.3,7745.2,7747
201910072052,7747,7748.3,7746.1,7746.1
201910072053,7746.1,7747.2,7745.3,7746.8
201910072054,7746.8,7747.6,7745.9,7746.9
201910072055,7746.9,7747,7746.3,7746.6
201910072056,7746.6,7746.7,7745.6,7745.8
201910072057,7745.8,7746.6,7745.1,7745.5
201910072058,7745.5,7745.5,7743.7,7743.7
201910072059,7743.7,7745.9,7743.7,7745.5
201910072100,7745.6,7745.6,7743.4,7743.9
201910072101,7743.9,7744.8,7743.1,7743.3
201910072102,7743.3,7745.1,7743,7744.8
201910072103,7744.9,7745.2,7743.9,7745.2
201910072104,7745.2,7745.4,7744.4,7744.7
201910072105,7744.7,7745.7,7744.1,7745.1
201910072106,7745.1,7747.1,7743.9,7746.9
201910072107,7746.9,7749.2,7746.6,7747.6
201910072108,7747.6,7748.1,7746.7,7747.8
201910072109,7747.9,7748.3,7746.4,7746.4
201910072110,7746.4,7747.5,7745.4,7746.4
201910072111,7746.4,7747,7746,7746.2
201910072112,7746.2,7747.4,7745.3,7747.3
201910072113,7747.3,7747.8,7747.2,7747.4
201910072114,7747.4,7749,7747.2,7747.8
201910072115,7747.8,7748.4,7747.2,7747.2
201910072116,7747.2,7749.1,7746.9,7749.1
201910072117,7748.9,7753.3,7748.9,7751.4
201910072118,7751.4,7754.8,7751.2,7753.1
201910072119,7753.1,7753.4,7752.3,7753
201910072120,7753.3,7753.8,7751.9,7751.9
201910072121,7751.9,7751.9,7749.2,7749.8
201910072122,7749.8,7751.4,7748.7,7749.7
201910072123,7749.7,7750.9,7749.5,7750
201910072124,7750,7751.4,7749.9,7750
201910072125,7750,7750.8,7749.1,7749.4
201910072126,7749.4,7749.5,7746.2,7746.2
201910072127,7746.2,7747.4,7745.6,7747.4
201910072128,7747.4,7747.8,7746.7,7747.4
201910072129,7747.4,7747.6,7746.4,7747.1
201910072130,7747.1,7749.1,7746,7748.9
201910072131,7748.9,7748.9,7747.5,7748.3
201910072132,7748.3,7748.6,7747.9,7748.2
201910072133,7748.1,7748.2,7747.5,7747.8
201910072134,7747.8,7747.9,7746.2,7746.4
201910072135,7746.5,7746.5,7744.8,7745.5
201910072136,7745.5,7746.7,7745.2,7745.9
201910072137,7745.9,7746.2,7745,7745
201910072138,7745,7746.3,7744.7,7746.1
201910072139,7746.1,7746.1,7743.7,7744.5
201910072140,7744.5,7748.3,7744.3,7747.9
201910072141,7747.9,7748.6,7747.7,7747.8
201910072142,7747.8,7748.3,7746.8,7747.1
201910072143,7747.1,7747.6,7745.9,7746.1
201910072144,7746.1,7746.1,7744.6,7745.1
201910072145,7745,7746.6,7745,7746.5
201910072146,7746.5,7747.6,7745.9,7746.9
201910072147,7746.9,7748.3,7746.6,7748.3
201910072148,7748.4,7748.4,7745.7,7745.8
201910072149,7745.8,7747,7745.8,7746.9
201910072150,7746.9,7747.6,7746.3,7746.3
201910072151,7746.5,7746.9,7745.6,7745.9
201910072152,7745.9,7746.2,7741.1,7742.2
201910072153,7742.2,7743.3,7741.4,7741.8
201910072154,7741.8,7743.3,7741.6,7742.3
201910072155,7742.3,7742.4,7740.6,7741.3
201910072156,7741.3,7744.2,7740.6,7741.5
201910072157,7741.5,7742.6,7741.3,7742.1
201910072158,7742.2,7742.2,7738.9,7740.4
201910072159,7740.3,7741.6,7739.2,7739.6
201910072200,7739.6,7740.8,7739.2,7740.1
201910072201,7740.2,7742.7,7740.2,7742.6
201910072202,7742.7,7743.8,7741.8,7742.5
201910072203,7742.5,7743.6,7742,7742.3
201910072204,7742.3,7742.7,7741,7741.4
201910072205,7741.4,7741.8,7740.4,7741.7
201910072206,7741.7,7742.6,7741.5,7742.5
201910072207,7742.5,7743.4,7741.9,7743.4
201910072208,7743.4,7743.8,7742.1,7742.3
201910072209,7742.3,7743.1,7742,7743.1
201910072210,7743.1,7743.5,7742.1,7742.1
201910072211,7742.2,7743.1,7742,7742.1
201910072212,7742.1,7742.1,7740.1,7740.2
201910072213,7740.2,7741.9,7739.9,7741
201910072214,7741,7741.9,7741,7741.5
201910072215,7741.6,7741.7,7740.1,7740.9
201910072216,7740.9,7742.1,7740.6,7741.8
201910072217,7741.8,7743.8,7741.6,7743
201910072218,7743,7744,7741.8,7742.6
201910072219,7742.6,7743.8,7742.1,7743.5
201910072220,7743.5,7743.6,7742,7743.2
201910072221,7743.1,7743.2,7742.1,7742.1
201910072222,7742.1,7742.1,7739.6,7740.3
201910072223,7740.3,7742,7740.3,7741.2
201910072224,7741.2,7741.5,7739.6,7740.9
201910072225,7740.9,7743.6,7740.7,7743.1
201910072226,7743.1,7745.4,7742.8,7744.1
201910072227,7744.1,7745.1,7743.6,7744.7
201910072228,7744.7,7744.7,7739.5,7740.4
201910072229,7740.4,7741.2,7737.2,7737.8
201910072230,7737.8,7746.6,7736.3,7739.9
201910072231,7739.9,7749.3,7738.6,7746.3
201910072232,7746.3,7755.7,7744.7,7755.4
201910072233,7756.1,7756.3,7752.9,7753.6
201910072234,7753.7,7754,7742.6,7751.4
201910072235,7751.4,7751.9,7742,7744.3
201910072236,7744.3,7747.4,7734.6,7734.6
201910072237,7734.9,7737.7,7731.9,7732.7
201910072238,7732.7,7735.1,7729.9,7732.4
201910072239,7732.4,7739.8,7730.7,7738.3
201910072240,7738.5,7738.5,7733.9,7735.6
201910072241,7735.6,7740.3,7734.9,7736
201910072242,7736,7736,7730.8,7731.2
201910072243,7731.2,7734,7728.1,7730.8
201910072244,7730.8,7735,7730.8,7733.9
201910072245,7733.9,7734.1,7726.4,7728.3
201910072246,7728.3,7731.8,7727.3,7729.1
201910072247,7729.1,7729.1,7724.4,7725.6
201910072248,7725.4,7732.3,7724.8,7730.1
201910072249,7730,7734,7728.9,7732.5
201910072250,7732.5,7737.8,7731.6,7735.3
201910072251,7735.3,7741.4,7734.5,7741.2
201910072252,7741.3,7746.6,7741.2,7744.5
201910072253,7744.5,7745.3,7738.4,7741
201910072254,7741,7743.1,7738.9,7739.5
201910072255,7739.5,7748.1,7739.5,7745.4
201910072256,7745.4,7747.6,7745.2,7747
201910072257,7746.8,7748.3,7742.5,7743.5
201910072258,7743.5,7745.5,7738.6,7738.6
201910072259,7738.7,7740.7,7736.6,7739.4
201910072300,7739.4,7741.7,7733.2,7734.1
201910072301,7734.1,7735.5,7732.3,7733
201910072302,7733,7734.8,7731.9,7732.2
201910072303,7732.2,7735.1,7730.5,7733.7
201910072304,7733.7,7739.3,7733.7,7739.3
201910072305,7740.1,7747.6,7740.1,7747.5
201910072306,7747.4,7755.2,7747.4,7751.7
201910072307,7751.9,7753.8,7750.2,7750.2
201910072308,7750.2,7752.3,7749,7750.8
201910072309,7750.8,7754.8,7750.2,7754.8
201910072310,7754.8,7758.5,7752.8,7756.6
201910072311,7756.9,7759,7752.4,7753.4
201910072312,7753.4,7755.1,7750.1,7750.9
201910072313,7750.9,7753,7750.8,7752
201910072314,7752,7754.1,7751.2,7752.8
201910072315,7752.8,7760.2,7752.7,7755.2
201910072316,7755.1,7755.2,7751.4,7752.7
201910072317,7752.4,7753.8,7749.4,7751.3
201910072318,7751.3,7753,7749.9,7750.6
201910072319,7750.6,7750.9,7747.9,7748.8
201910072320,7748.8,7751.5,7748.6,7750.4
201910072321,7750.4,7755.8,7750.4,7752.4
201910072322,7752.4,7753.9,7751.6,7751.9
201910072323,7751.9,7752.6,7749.2,7750.6
201910072324,7750.6,7755.3,7750.6,7752
201910072325,7752,7754,7750.8,7753.3
201910072326,7753.2,7759.9,7753.2,7759.9
201910072327,7759.9,7763.1,7759.9,7761.2
201910072328,7762.5,7763.8,7759.8,7761.2
201910072329,7761.2,7762.3,7759,7760.4
201910072330,7760.4,7760.9,7758.3,7759.8
201910072331,7759.9,7762.9,7758.7,7760.9
201910072332,7760.9,7762.3,7759.7,7760.2
201910072333,7760.4,7763.8,7759.9,7762.4
201910072334,7762.4,7762.4,7758.9,7759.7
201910072335,7759.5,7761.3,7758.9,7761.2
201910072336,7761.2,7762.4,7757.8,7757.9
201910072337,7757.9,7758.3,7753.4,7756.8
201910072338,7756.9,7756.9,7751.9,7752.2
201910072339,7752.1,7753.2,7750.2,7751.8
201910072340,7751.8,7756.6,7751.1,7755.9
201910072341,7755.9,7761,7755.6,7760.9
201910072342,7760.8,7761.1,7757.6,7759.5
201910072343,7759.5,7761.1,7757.1,7760.3
201910072344,7760.2,7763.9,7758.5,7759.2
201910072345,7759.2,7761.3,7754.2,7756.5
201910072346,7756.4,7759.3,7755.9,7757.2
201910072347,7757.3,7759.1,7755.2,7757.8
201910072348,7757.9,7758.4,7756.6,7756.8
201910072349,7756.8,7759.1,7755.8,7756.3
201910072350,7756.1,7761.5,7756.1,7759.7
201910072351,7759.7,7761.6,7759.2,7761.1
201910072352,7761.1,7763.2,7760.4,7760.5
201910072353,7760.6,7761.3,7758.7,7760.3
201910072354,7760.3,7763.1,7760.2,7762.5
201910072355,7762.5,7769.9,7760.9,7769.5
201910072356,7769.5,7772.6,7768.4,7770.9
201910072357,7770.7,7772.3,7768.4,7771.6
201910072358,7771.6,7772.5,7768.4,7769.1
201910072359,7769.2,7772,7768.8,7770.1
201910080000,7770.4,7777.8,7769.7,7777
201910080001,7777,7780.8,7777,7778.9
201910080002,7778.9,7783.6,7778.2,7780.9
201910080003,7780.6,7783.2,7780.4,7783.2
201910080004,7783.1,7784.2,7779.9,7780.2
201910080005,7780.2,7780.8,7776.2,7778.3
201910080006,7778.2,7782.8,7778.2,7781.9
201910080007,7781.8,7785.8,7780.7,7784.1
201910080008,7784.1,7785.7,7782.9,7784
201910080009,7784.4,7786.2,7783.2,7783.5
201910080010,7783.6,7785.6,7780.9,7781.8
201910080011,7781.8,7782.1,7775.6,7775.6
201910080012,7775.4,7778.7,7775.4,7777.1
201910080013,7777.1,7778.2,7771.4,7773.7
201910080014,7773.6,7775.3,7772.7,7775.2
201910080015,7775.2,7776.6,7773.9,7775.5
201910080016,7775.6,7776.8,7775.2,7776.2
201910080017,7776,7776.5,7773.4,7773.7
201910080018,7773.7,7774.8,7772,7773.6
201910080019,7773.6,7775.7,7772.6,7775.7
201910080020,7775.6,7777.5,7773.2,7774.7
201910080021,7774.7,7775.9,7773.6,7774.4
201910080022,7774.4,7774.9,7770.9,7771.9
201910080023,7771.9,7772.4,7769.1,7770.8
201910080024,7770.8,7772.3,7770.2,7770.9
201910080025,7770.9,7776.4,7770.9,7776.4
201910080026,7776.4,7778.7,7775.4,7778.1
201910080027,7778.1,7778.1,7774.7,7775.6
201910080028,7775.7,7776.3,7774.4,7774.6
201910080029,7774.4,7774.7,7771,7772
201910080030,7771.9,7776.3,7770.6,7774.7
201910080031,7774.7,7774.7,7771.7,7774.5
201910080032,7774.5,7779.8,7774.1,7779.1
201910080033,7779.1,7781.6,7776.9,7780.6
201910080034,7780.6,7781.3,7778.9,7780.9
201910080035,7780.9,7781.5,7778.3,7779
201910080036,7779,7779.5,7774.6,7776.3
201910080037,7776.4,7778.5,7776.4,7778
201910080038,7778,7778,7775.2,7776.5
201910080039,7776.5,7777.6,7775.6,7776.8
201910080040,7776.8,7776.8,7772.1,7774.2
201910080041,7774.2,7777.4,7774,7777.3
201910080042,7777.3,7783,7777.1,7780.7
201910080043,7780.8,7782.4,7779.4,7781.7
201910080044,7781.7,7782.9,7780.4,7782
201910080045,7782,7784.2,7781.3,7782.1
201910080046,7782.1,7782.1,7780.6,7781.7
201910080047,7781.6,7781.6,7778.2,7778.6
201910080048,7778.6,7780.7,7777.9,7779.7
201910080049,7779.7,7779.9,7778.2,7779
201910080050,7779,7780.9,7778.4,7780.5
201910080051,7780.5,7783,7779.3,7782.6
201910080052,7782.6,7783.3,7780.1,7780.7
201910080053,7780.7,7781.5,7780,7781
201910080054,7781,7783.7,7780.2,7783.1
201910080055,7782.9,7784.7,7781.6,7782.3
201910080056,7782.3,7784.5,7780.3,7780.4
201910080057,7780.4,7782.1,7780.2,7781.6
201910080058,7781.7,7783.3,7781.5,7782.5
201910080059,7782.7,7786.9,7781.9,7786.6
201910080100,7786.6,7787.1,7782.9,7783.5
201910080101,7783.7,7785.5,7783.3,7784.9
201910080102,7784.9,7785.1,7782.6,7783.1
201910080103,7783.2,7784.5,7781.6,7781.6
201910080104,7781.8,7782,7779.6,7779.9
201910080105,7779.9,7781,7778.6,7780.4
201910080106,7780.4,7782.2,7779.9,7780.1
201910080107,7780.1,7780.5,7778.2,7779.3
201910080108,7779.3,7779.5,7777.9,7778.5
201910080109,7778.5,7778.6,7776.9,7778.4
201910080110,7778.4,7778.4,7774.2,7776.5
201910080111,7776.6,7777.6,7775.9,7777.6
201910080112,7777.7,7779.3,7777.3,7779.2
201910080113,7779.1,7779.9,7777.6,7779.9
201910080114,7779.9,7780.3,7777.1,7779.2
201910080115,7779.2,7780.3,7778.2,7778.8
201910080116,7778.8,7782.4,7778.8,7780.3
201910080117,7780.3,7780.7,7777.9,7780.1
201910080118,7780.1,7780.1,7776.4,7776.9
201910080119,7776.9,7777.7,7776.3,7776.4
201910080120,7776.4,7779.3,7776.4,7777.1
201910080121,7777,7780.2,7777,7780.2
201910080122,7780.2,7781.5,7779.7,7779.9
201910080123,7779.8,7780.1,7777.4,7777.4
201910080124,7777.6,7778.2,7776.1,7777.1
201910080125,7777.1,7777.3,7773.4,7773.7
201910080126,7773.7,7773.8,7770.4,7772.1
201910080127,7772.1,7772.5,7767.5,7768.2
201910080128,7768.2,7770.3,7768.1,7770.3
201910080129,7770.2,7770.9,7769.1,7769.1
201910080130,7769.1,7769.5,7765.6,7766.4
201910080131,7766.4,7767.8,7765.6,7767.7
201910080132,7767.7,7768.1,7766.4,7767.4
201910080133,7767.4,7767.4,7766.1,7766.8
201910080134,7766.8,7767.3,7765.9,7766.3
201910080135,7766.3,7769.2,7766.1,7768.9
201910080136,7768.9,7770.1,7767.9,7768.3
201910080137,7768.3,7768.5,7766.9,7766.9
201910080138,7767.2,7767.2,7764.1,7766.9
201910080139,7766.9,7769.5,7766.4,7769.2
201910080140,7769.2,7772,7769.1,7771.7
201910080141,7771.6,7772.5,7771.2,7772.1
201910080142,7772.1,7772.3,7770,7770.2
201910080143,7770.2,7773.1,7769.4,7773.1
201910080144,7773,7773.2,7771.9,7772.6
201910080145,7772.6,7773.1,7770.9,7772.7
201910080146,7772.7,7776.5,7772.3,7774.2
201910080147,7774.2,7775.3,7773.1,7775.3
201910080148,7775.3,7775.5,7774,7774.4
201910080149,7774.4,7776,7774.4,7776
201910080150,7775.9,7776.5,7775.1,7775.4
201910080151,7775.4,7775.4,7772.9,7774.5
201910080152,7774.5,7776.2,7770.2,7770.9
201910080153,7770.9,7771.9,7769.9,7770.1
201910080154,7770.1,7770.8,7769.1,7769.8
201910080155,7769.8,7770.8,7768.2,7769.9
201910080156,7769.9,7770.8,7768,7768.6
201910080157,7768.6,7770.1,7768.3,7769.7
201910080158,7769.7,7770.1,7768.9,7769.2
201910080159,7769,7769.8,7768.8,7769.1
201910080200,7769.2,7770.6,7767.4,7770.4
201910080201,7770.3,7772.7,7770.1,7771.1
201910080202,7771.1,7775.7,7771,7775.6
201910080203,7775.5,7776,7774.4,7775.5
201910080204,7775.5,7775.5,7773.2,7773.5
201910080205,7773.4,7773.7,7767.6,7768.3
201910080206,7768.3,7770.4,7768.3,7768.5
201910080207,7768.5,7768.7,7764.7,7764.7
201910080208,7764.6,7765,7762.2,7763.6
201910080209,7763.5,7763.7,7756.9,7756.9
201910080210,7756.9,7758.1,7753.7,7754.1
201910080211,7754.1,7756.6,7753,7756.3
201910080212,7756.3,7757.9,7755.2,7756.3
201910080213,7756.3,7758.6,7755.5,7757.3
201910080214,7757.3,7757.4,7755.5,7755.5
201910080215,7755.6,7755.6,7751.6,7752.1
201910080216,7752.2,7755.6,7751,7754.6
201910080217,7754.6,7756.8,7754.6,7756.3
201910080218,7756.3,7756.7,7753.9,7754.4
201910080219,7754.3,7756.2,7754.1,7755.3
201910080220,7755.3,7757,7754.6,7757
201910080221,7757,7759.4,7756.7,7759.4
201910080222,7759.4,7759.6,7758.1,7759.2
201910080223,7759.2,7761.2,7759.2,7761
201910080224,7761.2,7763.4,7760.6,7761.9
201910080225,7761.9,7763.3,7761.7,7762.5
201910080226,7762.5,7762.5,7759.8,7761.5
201910080227,7761.5,7762.5,7760.5,7761.4
201910080228,7761.4,7761.4,7759.4,7760.2
201910080229,7760.2,7760.8,7759.6,7760.4
201910080230,7760.4,7762.7,7759.2,7761.9
201910080231,7761.7,7762.5,7760.5,7761.9
201910080232,7761.9,7775.9,7761.9,7774.6
201910080233,7774.6,7790.9,7774.6,7787.5
201910080234,7787.5,7793.4,7780.9,7780.9
201910080235,7780.8,7792.8,7776.3,7792.7
201910080236,7792.7,7794.4,7785.6,7786.9
201910080237,7786.9,7793.3,7786.9,7792.3
201910080238,7792.3,7795.4,7790.1,7792.9
201910080239,7792.9,7798.4,7792.9,7793.7
201910080240,7793.7,7796,7792.5,7792.8
201910080241,7792.8,7793.4,7789.7,7792.3
201910080242,7792.2,7793.8,7788.7,7793.4
201910080243,7793.3,7793.3,7787.9,7789
201910080244,7789,7789.5,7787.9,7788
201910080245,7788.3,7789.3,7784.4,7786.6
201910080246,7786.7,7790.6,7786.6,7790.6
201910080247,7790.6,7791.2,7787.3,7789.2
201910080248,7789.2,7793.3,7789.2,7791.4
201910080249,7791.4,7791.7,7788.9,7789.2
201910080250,7789.2,7791.2,7788.7,7789.3
201910080251,7789.3,7792.2,7788.8,7790.2
201910080252,7790.2,7791.5,7789.3,7790
201910080253,7790,7791.8,7787,7788.2
201910080254,7788,7791.6,7787.4,7791.2
201910080255,7791.2,7791.4,7788.1,7789.4
201910080256,7789.4,7792,7789.1,7791.9
201910080257,7792.2,7792.2,7788.6,7790.8
201910080258,7790.5,7792.4,7789.9,7791.8
201910080259,7791.8,7793.6,7791.4,7792.2
201910080300,7792.2,7793.8,7790,7790
201910080301,7790.1,7791.2,7788.9,7790
201910080302,7790,7792.2,7788.2,7789.6
201910080303,7789.6,7790.6,7788.5,7789.4
201910080304,7789.5,7789.9,7785.2,7785.7
201910080305,7786,7787.5,7779.7,7780
201910080306,7780,7780.8,7772.8,7776.2
201910080307,7776,7776,7767.9,7772.1
201910080308,7772.1,7775.1,7771.2,7774.5
201910080309,7774.5,7776,7772.7,7773
201910080310,7773,7775.1,7770.9,7771.2
201910080311,7771.2,7771.2,7765.7,7766.1
201910080312,7766.1,7769.1,7764.1,7767.8
201910080313,7767.7,7768.4,7764.9,7766.2
201910080314,7766.2,7768.3,7764.9,7767.5
201910080315,7767.6,7769.3,7762.6,7763.7
201910080316,7763.7,7765.8,7761.7,7764.9
201910080317,7764.9,7766.8,7764.1,7766.5
201910080318,7766.5,7767.3,7765.3,7766.2
201910080319,7766.4,7767.5,7764.9,7767.5
201910080320,7767.5,7767.5,7764.8,7766.1
201910080321,7766.1,7766.3,7761.7,7762.8
201910080322,7763,7764.4,7760.9,7762.9
201910080323,7762.9,7764.5,7761.9,7763.7
201910080324,7763.5,7766.6,7763.1,7766.1
201910080325,7766.1,7767.3,7764.7,7766.4
201910080326,7766.4,7767.1,7764.4,7764.8
201910080327,7764.8,7766.6,7763.6,7764.9
201910080328,7764.9,7768,7764.7,7767.4
201910080329,7767.4,7769.7,7767.4,7768.8
201910080330,7768.8,7768.8,7766.1,7766.5
201910080331,7766.8,7767.6,7763.1,7763.1
201910080332,7763.1,7765.9,7761.4,7765
201910080333,7764.6,7764.6,7758.9,7759.7
201910080334,7759.6,7759.6,7754.1,7756.8
201910080335,7756.8,7757.6,7753.7,7756.4
201910080336,7756.4,7757.3,7751.9,7754
201910080337,7753.8,7754.8,7752.4,7752.6
201910080338,7752.6,7754.6,7752.3,7754.2
201910080339,7754.2,7757.8,7753.2,7756.5
201910080340,7756.4,7756.6,7754.4,7756.3
201910080341,7756.3,7759,7756.2,7758.3
201910080342,7758.4,7758.4,7750.1,7753.4
201910080343,7753.4,7756.1,7752.4,7755.9
201910080344,7756.1,7758.3,7755.7,7756.7
201910080345,7756.7,7757.3,7753.8,7756.9
201910080346,7756.9,7756.9,7750,7751.1
201910080347,7750.9,7752.7,7749.3,7751
201910080348,7751,7751.4,7747.9,7751.4
201910080349,7751.4,7754.5,7750.5,7750.9
201910080350,7750.2,7752,7739.8,7740.4
201910080351,7740.4,7746.3,7738.1,7745.4
201910080352,7745.4,7746.2,7742.8,7744.8
201910080353,7744.5,7744.5,7739.1,7739.1
201910080354,7739.1,7743,7738.9,7742.3
201910080355,7742.3,7746.6,7740.3,7746.5
201910080356,7746.3,7748.5,7746.3,7747.4
201910080357,7747.4,7751.8,7747.1,7751.3
201910080358,7751.3,7753.2,7750.7,7752.1
201910080359,7752.1,7754.4,7751.1,7753.4
201910080400,7753.3,7755.1,7748.7,7751.1
201910080401,7751.1,7751.9,7748.8,7749.9
201910080402,7749.9,7751.1,7748.4,7750.3
201910080403,7750.3,7754.1,7748.7,7753.4
201910080404,7753.4,7753.8,7750.2,7750.2
201910080405,7750.1,7753.4,7750.1,7752.2
201910080406,7752.1,7752.8,7750.3,7751.8
201910080407,7751.9,7753.5,7750.3,7753.2
201910080408,7753,7756.3,7752.5,7755.7
201910080409,7755.7,7759.4,7755.7,7758.4
201910080410,7758.4,7758.4,7754.8,7757
201910080411,7757,7757,7748.1,7749.8
201910080412,7749.8,7754,7749.8,7751.9
201910080413,7751.9,7756.5,7751.4,7756.5
201910080414,7756.8,7761.4,7756.4,7759.4
201910080415,7759.3,7760.4,7757.2,7757.8
201910080416,7757.8,7761,7757.8,7760
201910080417,7759.9,7762,7758.9,7760.2
201910080418,7760.1,7761.8,7760.1,7761.4
201910080419,7761.3,7761.4,7759.7,7760.2
201910080420,7760.5,7761.1,7757.3,7758.3
201910080421,7758.3,7758.8,7755.4,7755.7
201910080422,7755.7,7755.9,7751.4,7753.9
201910080423,7753.8,7756.6,7753.7,7755.4
201910080424,7755.4,7755.7,7753.5,7755.5
201910080425,7755.5,7761,7755.5,7761
201910080426,7761.1,7762,7759.8,7760.2
201910080427,7760.1,7764.8,7759.3,7763.3
201910080428,7763.3,7763.8,7761,7761.5
201910080429,7761.4,7761.4,7758.7,7761.2
201910080430,7761.3,7762.3,7756.9,7756.9
201910080431,7756.9,7757.3,7752.5,7754.3
201910080432,7754.4,7758.6,7752.5,7758.3
201910080433,7758.4,7758.4,7752.7,7752.8
201910080434,7752.8,7753.5,7747.4,7749
201910080435,7749,7752.6,7748.4,7748.5
201910080436,7748.4,7751.5,7748.1,7750.3
201910080437,7750.3,7751.6,7747.6,7748.6
201910080438,7748.6,7750.4,7747.2,7749.1
201910080439,7749.1,7752.4,7748.9,7752.3
201910080440,7752.3,7753.3,7749.8,7750.1
201910080441,7750.1,7750.3,7747.4,7747.9
201910080442,7747.9,7750.5,7746.7,7746.7
201910080443,7746.7,7748.3,7745.1,7748
201910080444,7748,7748.3,7746.4,7748.2
201910080445,7748.2,7749.8,7746.1,7749.1
201910080446,7749.1,7752.5,7748.9,7750.9
201910080447,7751.1,7751.5,7746.7,7747.7
201910080448,7747.8,7747.8,7744.7,7744.7
201910080449,7744.7,7746.5,7744.6,7744.8
201910080450,7744.9,7744.9,7739.7,7741.9
201910080451,7741.9,7743.3,7738.5,7738.7
201910080452,7738.7,7742.3,7737.5,7741.7
201910080453,7741.6,7741.8,7738.6,7741
201910080454,7740.7,7742,7736,7736.9
201910080455,7736.9,7748.4,7736.9,7745.2
201910080456,7745.2,7747.5,7743.4,7746.8
201910080457,7746.8,7750.6,7746.7,7748.7
201910080458,7748.7,7750.8,7744.3,7745.7
201910080459,7745.7,7747.5,7734,7734.4
201910080500,7736.4,7739,7730.7,7736.6
201910080501,7736.7,7738,7733.6,7735.2
201910080502,7735.1,7736,7733.3,7733.9
201910080503,7733.7,7735.6,7732.5,7735.6
201910080504,7735.6,7738.6,7735.1,7737.6
201910080505,7737.6,7737.7,7734,7734
201910080506,7734.3,7734.8,7733,7734.8
201910080507,7734.8,7734.8,7732,7732.9
201910080508,7732.9,7736.7,7732.9,7736.7
201910080509,7736.7,7738.4,7735.6,7737
201910080510,7737,7737,7733.5,7734.1
201910080511,7734.1,7735.2,7731.9,7733.4
201910080512,7733.4,7733.9,7732.1,7733
201910080513,7733,7738.1,7732.9,7737.2
201910080514,7737.2,7741,7736.7,7738.6
