日時,始値(BID),高値(BID),安値(BID),終値(BID)
201910160700,7960.8,7960.8,7954.3,7956.2
201910160701,7956.2,7958,7955.8,7956.8
201910160702,7956.8,7957.4,7956.5,7956.5
201910160703,7956.6,7957.1,7956,7957.1
201910160704,7957.1,7957.1,7956.2,7956.5
201910160705,7956.5,7956.7,7954.7,7955
201910160706,7955,7955.3,7954.7,7954.8
201910160707,7954.8,7954.9,7953.8,7953.8
201910160708,7953.7,7954.3,7953.4,7953.9
201910160709,7953.9,7954.9,7953.2,7953.2
201910160710,7953.5,7954.4,7952.7,7953.6
201910160711,7953.6,7954.5,7953.4,7954.4
201910160712,7954.4,7955.3,7954.2,7955
201910160713,7954.9,7955.4,7954.7,7955.2
201910160714,7955.2,7955.5,7955.1,7955.3
201910160715,7955.3,7955.5,7954.8,7955.1
201910160716,7955.1,7955.5,7954.9,7955
201910160717,7955,7957.3,7955,7957.2
201910160718,7957.4,7957.9,7957.2,7957.3
201910160719,7957.3,7957.6,7956.4,7956.9
201910160720,7956.9,7958.8,7956.9,7958.6
201910160721,7958.6,7958.6,7958,7958
201910160722,7958.1,7958.2,7957.4,7957.4
201910160723,7957.4,7957.6,7956.9,7957
201910160724,7957,7957.5,7956.5,7956.5
201910160725,7956.5,7956.8,7956.5,7956.6
201910160726,7956.6,7956.8,7956.6,7956.7
201910160727,7956.7,7957.8,7956.6,7957.8
201910160728,7958,7958.1,7957.7,7957.8
201910160729,7957.8,7958.5,7957.7,7958
201910160730,7958.2,7958.5,7957.5,7957.5
201910160731,7957.5,7958.3,7957,7958
201910160732,7957.9,7958.1,7957.7,7957.7
201910160733,7957.7,7958.5,7957.7,7957.8
201910160734,7957.8,7959.9,7957.7,7959.8
201910160735,7959.9,7959.9,7957.5,7958.1
201910160736,7958.1,7958.3,7957.9,7957.9
201910160737,7957.9,7958.4,7957.4,7957.6
201910160738,7957.5,7957.6,7954.9,7954.9
201910160739,7954.9,7955.4,7954.2,7954.4
201910160740,7954.4,7955.4,7954.4,7954.9
201910160741,7954.9,7955.6,7954.9,7955.4
201910160742,7955.4,7955.5,7955,7955.2
201910160743,7955.2,7955.2,7954.1,7954.3
201910160744,7954.3,7954.5,7954.2,7954.3
201910160745,7954.3,7954.7,7954.1,7954.7
201910160746,7954.7,7954.8,7954.4,7954.8
201910160747,7954.8,7954.9,7954.7,7954.8
201910160748,7954.7,7954.8,7954.1,7954.2
201910160749,7954.2,7955.8,7954.2,7955.2
201910160750,7955.3,7955.4,7954.2,7954.4
201910160751,7954.4,7954.9,7953.8,7954.2
201910160752,7954.2,7955.4,7954.2,7955.4
201910160753,7955.4,7955.9,7954.7,7955.2
201910160754,7955.2,7955.6,7954.4,7955.1
201910160755,7955,7955.1,7953.8,7954
201910160756,7954,7954.4,7953.2,7953.9
201910160757,7953.9,7954.4,7953.1,7954.4
201910160758,7954.4,7954.8,7954.2,7954.7
201910160759,7954.7,7955.1,7954,7954.2
201910160800,7954,7954.4,7953.6,7954.3
201910160801,7954.3,7954.3,7953.1,7953.1
201910160802,7953.2,7953.2,7951.5,7952.6
201910160803,7952.6,7952.9,7951.8,7951.8
201910160804,7951.8,7952.5,7951.8,7952.5
201910160805,7952.5,7952.9,7952.4,7952.7
201910160806,7952.8,7952.8,7952.4,7952.6
201910160807,7952.6,7952.7,7951.7,7952.4
201910160808,7952.4,7952.8,7952.4,7952.8
201910160809,7952.8,7952.8,7952.2,7952.7
201910160810,7952.7,7953.3,7952.2,7952.5
201910160811,7952.5,7953.1,7952.2,7952.7
201910160812,7952.7,7952.8,7951.9,7952
201910160813,7952,7952.1,7950.8,7950.8
201910160814,7950.9,7951.2,7947.4,7947.9
201910160815,7947.9,7948.7,7947.1,7947.1
201910160816,7947,7947.7,7946.9,7947.7
201910160817,7947.7,7948.8,7947.4,7948.8
201910160818,7948.8,7949,7948.3,7948.8
201910160819,7948.9,7949,7948.5,7948.6
201910160820,7948.5,7948.6,7948.2,7948.5
201910160821,7948.4,7948.6,7947.3,7947.9
201910160822,7947.9,7948.8,7947.8,7948.3
201910160823,7948.3,7948.3,7946.9,7947.4
201910160824,7947.4,7948.5,7947.3,7948.1
201910160825,7948.2,7948.3,7947.4,7947.4
201910160826,7947.4,7949.5,7947.4,7949.2
201910160827,7949.2,7949.7,7948.9,7948.9
201910160828,7948.9,7950.2,7948.9,7949.8
201910160829,7949.7,7951.6,7949.4,7951.3
201910160830,7951.3,7951.3,7948.4,7948.4
201910160831,7948.4,7949.6,7948.4,7948.9
201910160832,7948.9,7950.8,7948.9,7950.7
201910160833,7950.8,7951.1,7949.8,7950.1
201910160834,7950,7951,7950,7950.1
201910160835,7950.2,7950.8,7949.8,7950.7
201910160836,7950.7,7951.2,7950.7,7950.7
201910160837,7950.7,7950.8,7950.2,7950.3
201910160838,7950.4,7951.6,7950.3,7951.3
201910160839,7951.4,7951.6,7950.7,7951.5
201910160840,7951.4,7951.4,7950.3,7950.3
201910160841,7950.3,7950.8,7950.3,7950.7
201910160842,7950.6,7950.8,7950.2,7950.2
201910160843,7950.2,7950.2,7949.7,7950.1
201910160844,7950.1,7950.1,7949.7,7949.8
201910160845,7949.8,7949.8,7947.9,7948.1
201910160846,7948.1,7949.5,7948.1,7949.5
201910160847,7949.4,7949.4,7949.3,7949.4
201910160848,7949.4,7949.6,7948.8,7948.9
201910160849,7948.9,7949.3,7948.7,7949.1
201910160850,7949.1,7949.3,7948.2,7948.3
201910160851,7948.4,7949.6,7948.4,7949.3
201910160852,7949.3,7950,7948.7,7949.3
201910160853,7949.5,7951.1,7949.4,7951
201910160854,7951,7951.1,7950.4,7950.5
201910160855,7950.5,7950.8,7950.4,7950.4
201910160856,7950.4,7950.8,7949.6,7950.2
201910160857,7950.2,7950.5,7949.8,7950.2
201910160858,7950.3,7951.8,7950.3,7950.4
201910160859,7950.4,7951.5,7950.3,7950.9
201910160900,7951.3,7951.8,7949.8,7950.6
201910160901,7950.6,7951.2,7950,7950.6
201910160902,7950.8,7953.1,7950.6,7952.4
201910160903,7952.3,7952.5,7949.1,7951.3
201910160904,7951.3,7952,7950.9,7951.8
201910160905,7951.8,7956.3,7951.4,7956.1
201910160906,7956.1,7958.5,7953.4,7954.2
201910160907,7954.5,7955.3,7953.9,7954.3
201910160908,7954.3,7954.9,7952.2,7953.5
201910160909,7953.5,7954.2,7952.4,7953.1
201910160910,7953.1,7953.5,7951.2,7952
201910160911,7952,7952.7,7951.8,7952.3
201910160912,7952.3,7952.4,7951.1,7951.7
201910160913,7951.7,7952.4,7951.1,7951.6
201910160914,7951.6,7952.6,7951.4,7952.2
201910160915,7952.2,7953.9,7952.1,7953.7
201910160916,7953.6,7955.9,7953.4,7955.8
201910160917,7955.8,7956.1,7953.8,7953.8
201910160918,7953.8,7954.5,7952.9,7952.9
201910160919,7952.8,7954.1,7952.8,7953
201910160920,7953.1,7953.8,7952.7,7953.4
201910160921,7953.3,7953.3,7951.3,7951.3
201910160922,7951.3,7951.3,7948.9,7949.2
201910160923,7949.2,7949.8,7949,7949.7
201910160924,7949.6,7950.7,7949.2,7950.6
201910160925,7950.6,7951.4,7949.9,7951.3
201910160926,7951.3,7952,7951.1,7951.1
201910160927,7951.1,7952.3,7951.1,7951.7
201910160928,7951.7,7952.1,7950.3,7950.3
201910160929,7950.3,7951.3,7950,7950.1
201910160930,7950.1,7951,7949.7,7949.9
201910160931,7949.9,7950,7949.4,7949.6
201910160932,7949.6,7949.9,7949.2,7949.2
201910160933,7949.2,7950.3,7949.2,7949.6
201910160934,7949.6,7950,7949.2,7949.4
201910160935,7949.4,7950.3,7948.9,7949.8
201910160936,7949.8,7949.8,7941.2,7944.2
201910160937,7944.2,7944.4,7941.3,7942.8
201910160938,7942.5,7943.6,7937.2,7942.1
201910160939,7942.1,7942.4,7937.9,7939.3
201910160940,7939.3,7941.7,7939,7941.6
201910160941,7941.5,7942,7937.3,7937.9
201910160942,7937.9,7939.3,7936.4,7938.9
201910160943,7938.9,7939,7936.2,7938.6
201910160944,7938.3,7939.2,7938.1,7939.2
201910160945,7939.2,7941.5,7938.4,7941.4
201910160946,7941.4,7942.5,7940.3,7940.6
201910160947,7940.6,7941.8,7939.2,7939.2
201910160948,7939.2,7939.9,7938.8,7939.8
201910160949,7939.8,7940.8,7939.2,7940.8
201910160950,7940.8,7942,7940.2,7942
201910160951,7942,7942.9,7941,7942.9
201910160952,7942.8,7943.3,7942,7942.3
201910160953,7942.4,7942.8,7940.9,7941.8
201910160954,7941.8,7942.3,7941.2,7941.6
201910160955,7941.6,7943.2,7941.6,7942.5
201910160956,7942.5,7944.5,7942.5,7943.2
201910160957,7943.2,7944,7943.2,7943.2
201910160958,7943.2,7943.8,7942.7,7942.9
201910160959,7942.9,7943,7941.8,7942.7
201910161000,7942.7,7944.3,7942.7,7942.8
201910161001,7942.9,7943.2,7941,7941.4
201910161002,7941.4,7942.1,7940.3,7940.4
201910161003,7940.4,7940.6,7939.9,7940.3
201910161004,7940.3,7940.7,7938.9,7939.7
201910161005,7939.7,7941.2,7939.7,7940.2
201910161006,7940.2,7940.9,7938.8,7939.2
201910161007,7939.2,7941,7939.1,7940.8
201910161008,7940.8,7941.7,7940.5,7941.2
201910161009,7941.2,7941.6,7940.1,7940.9
201910161010,7940.9,7941.3,7938.8,7938.9
201910161011,7938.9,7938.9,7937.3,7938.3
201910161012,7938.3,7941.4,7938,7941
201910161013,7941,7941.6,7941,7941
201910161014,7941,7941.3,7940.6,7940.6
201910161015,7940.6,7942.2,7939.6,7941
201910161016,7941,7941.9,7940.6,7941.1
201910161017,7941.1,7941.4,7940.2,7940.4
201910161018,7940.4,7940.4,7937.9,7939.5
201910161019,7939.5,7939.5,7936.3,7937.9
201910161020,7937.9,7938.2,7936.2,7936.2
201910161021,7936.2,7936.4,7934.5,7935.4
201910161022,7935.4,7936.6,7935.1,7936.3
201910161023,7936.3,7938.1,7935.9,7937.6
201910161024,7937.6,7938.3,7936.1,7936.8
201910161025,7936.8,7937.8,7936.4,7936.9
201910161026,7936.9,7938,7936.6,7937.5
201910161027,7937.5,7938.3,7937.2,7937.3
201910161028,7937.3,7937.7,7936.8,7937
201910161029,7937.1,7937.8,7936.5,7936.8
201910161030,7936.8,7938.5,7935,7937.7
201910161031,7937.7,7940.9,7937.5,7940.6
201910161032,7940.6,7942.1,7940.4,7942
201910161033,7942.1,7943.6,7941.7,7942.9
201910161034,7942.9,7943.3,7942.4,7943
201910161035,7943,7943.3,7941.2,7942.2
201910161036,7942.2,7942.4,7940.7,7941.2
201910161037,7941.2,7942.2,7941.1,7941.8
201910161038,7941.8,7944.3,7941.7,7944.3
201910161039,7944.3,7945.2,7943.2,7944
201910161040,7944,7944.2,7943.2,7943.4
201910161041,7943.4,7944.7,7943.1,7944.7
201910161042,7944.6,7945.5,7944.6,7944.8
201910161043,7944.8,7945.3,7943.8,7944.1
201910161044,7944.1,7945.2,7944.1,7944.9
201910161045,7944.9,7945.7,7943,7943.5
201910161046,7943.5,7944.5,7942.9,7944.3
201910161047,7944.3,7945,7943.8,7944.3
201910161048,7944.3,7945.8,7944.2,7945.6
201910161049,7945.6,7947,7945.5,7945.6
201910161050,7945.6,7946.5,7944.3,7944.8
201910161051,7944.9,7945.5,7944.7,7945.4
201910161052,7945.4,7946.3,7945.2,7945.8
201910161053,7945.8,7946.4,7945.8,7945.9
201910161054,7946.1,7947.3,7946,7947
201910161055,7947,7947.6,7946.7,7946.9
201910161056,7946.9,7947.4,7945.8,7945.9
201910161057,7945.9,7946.5,7945.4,7945.7
201910161058,7945.7,7946,7944.8,7945.4
201910161059,7945.4,7946.3,7945.2,7946.2
201910161100,7946.2,7947.9,7946.1,7947
201910161101,7947,7947.4,7945.4,7945.4
201910161102,7945.4,7945.8,7945.4,7945.8
201910161103,7945.7,7945.7,7943.2,7944.5
201910161104,7944.5,7944.9,7943.7,7944.5
201910161105,7944.5,7944.7,7943.8,7944.1
201910161106,7944.1,7945.7,7944.1,7945.4
201910161107,7945.4,7945.5,7944.8,7945.3
201910161108,7945.3,7946.3,7944.7,7946.3
201910161109,7946.3,7946.3,7945.3,7945.6
201910161110,7945.6,7945.8,7945.2,7945.4
201910161111,7945.3,7946.4,7944.8,7945.7
201910161112,7945.6,7946.4,7945.4,7945.5
201910161113,7945.5,7945.5,7943.5,7943.9
201910161114,7943.9,7943.9,7942.1,7943
201910161115,7943,7943.6,7942.5,7943.2
201910161116,7943.1,7944.2,7943.1,7943.6
201910161117,7943.6,7944,7942.4,7942.6
201910161118,7942.6,7942.7,7941.7,7941.8
201910161119,7941.9,7942.8,7941.7,7942.5
201910161120,7942.5,7944.4,7942.5,7943.5
201910161121,7943.5,7944.9,7943.5,7944.6
201910161122,7944.6,7945,7943.1,7943.1
201910161123,7943.2,7944.8,7943.1,7944.7
201910161124,7944.5,7944.5,7943.1,7943.2
201910161125,7943.2,7944.1,7943.2,7943.8
201910161126,7943.8,7943.8,7943,7943.1
201910161127,7943.1,7944.2,7943.1,7944.2
201910161128,7944,7945,7944,7944.9
201910161129,7944.9,7945.1,7942.8,7943.3
201910161130,7943.3,7943.3,7942.4,7942.9
201910161131,7942.9,7943.4,7942.5,7942.9
201910161132,7942.9,7943,7942.5,7942.7
201910161133,7942.7,7945.3,7942.7,7945.2
201910161134,7945.2,7946.8,7944.8,7946.4
201910161135,7946.4,7947.8,7946.4,7947.8
201910161136,7947.8,7948.8,7947.7,7948.3
201910161137,7948.3,7948.3,7947,7947.5
201910161138,7947.5,7947.9,7946.9,7947.4
201910161139,7947.4,7948.3,7947.2,7947.4
201910161140,7947.5,7948.7,7947.4,7948.4
201910161141,7948.4,7948.5,7947.4,7947.7
201910161142,7947.6,7947.6,7946.8,7947.1
201910161143,7947.1,7948.1,7946.8,7948.1
201910161144,7948.2,7948.7,7947.5,7947.6
201910161145,7947.6,7950.3,7947.6,7949.5
201910161146,7949.5,7949.6,7948.3,7949.6
201910161147,7949.5,7950.4,7947.9,7947.9
201910161148,7947.9,7948.1,7947.5,7947.9
201910161149,7947.9,7948,7946.9,7946.9
201910161150,7946.9,7948.8,7946.8,7948
201910161151,7948.1,7948.1,7947.1,7947.5
201910161152,7947.6,7947.9,7946.9,7947.2
201910161153,7947,7947.2,7946.3,7946.3
201910161154,7946.3,7946.5,7945.2,7945.2
201910161155,7945.2,7946.2,7945.2,7945.9
201910161156,7945.9,7946.6,7945.5,7946.1
201910161157,7946.1,7946.3,7944.9,7945.1
201910161158,7945.1,7945.3,7944.4,7945.1
201910161159,7945.1,7945.4,7944.9,7945.3
201910161200,7945.3,7946,7944.7,7945.9
201910161201,7945.9,7946.2,7945.6,7945.9
201910161202,7945.8,7946.3,7945.6,7945.9
201910161203,7945.9,7946.4,7945.9,7946.2
201910161204,7946.2,7946.2,7944.1,7944.4
201910161205,7944.4,7944.8,7944.2,7944.3
201910161206,7944.4,7945.5,7944.4,7945.2
201910161207,7945.2,7945.4,7944.8,7944.8
201910161208,7944.8,7944.8,7944.4,7944.5
201910161209,7944.4,7944.9,7944.3,7944.8
201910161210,7944.8,7945.3,7944.2,7944.4
201910161211,7944.4,7944.8,7944.2,7944.7
201910161212,7944.7,7945,7944.4,7944.7
201910161213,7944.7,7945,7944.7,7945
201910161214,7945,7946,7944.6,7945.8
201910161215,7945.8,7946.1,7943,7943.3
201910161216,7943.3,7943.7,7943.2,7943.2
201910161217,7943.2,7943.6,7943,7943.2
201910161218,7943.2,7943.3,7938.1,7938.1
201910161219,7938.2,7938.4,7936.1,7937.2
201910161220,7937.2,7938,7933.5,7937.2
201910161221,7937.2,7937.6,7935.4,7935.9
201910161222,7935.9,7938.3,7935.4,7938
201910161223,7937.9,7938.6,7937.4,7938.4
201910161224,7938.4,7938.8,7936.3,7936.3
201910161225,7936.4,7939.5,7936.3,7939.5
201910161226,7939.5,7940.1,7938.2,7939.7
201910161227,7939.5,7940.1,7937.9,7938.9
201910161228,7938.9,7939.9,7938.1,7938.1
201910161229,7938.2,7939.9,7937.4,7939.9
201910161230,7939.9,7940.4,7938.7,7939.4
201910161231,7939.4,7940,7937.9,7939.3
201910161232,7939.3,7939.5,7938.6,7938.8
201910161233,7938.8,7940,7938.2,7939.4
201910161234,7939.5,7942.4,7939.5,7942
201910161235,7942,7942,7940.9,7941
201910161236,7941,7941.4,7939.4,7940.4
201910161237,7940.4,7940.9,7940.3,7940.7
201910161238,7940.7,7942.2,7940.7,7941.9
201910161239,7941.9,7942.1,7941.4,7941.9
201910161240,7941.8,7941.9,7940.4,7940.5
201910161241,7940.4,7940.6,7939.7,7940.5
201910161242,7940.6,7941.2,7940.2,7940.3
201910161243,7940.3,7940.7,7939.8,7940.3
201910161244,7940.3,7940.7,7939.5,7939.6
201910161245,7939.6,7939.9,7938.5,7938.8
201910161246,7938.8,7938.9,7937.2,7937.6
201910161247,7937.6,7938.7,7937.6,7938.3
201910161248,7938.3,7938.6,7937.4,7937.4
201910161249,7937.4,7937.8,7935.9,7936.6
201910161250,7936.6,7937.4,7936.4,7937.4
201910161251,7937.4,7937.4,7935.7,7936.1
201910161252,7936.1,7936.9,7935.7,7935.7
201910161253,7935.5,7936.5,7935,7936.5
201910161254,7936.5,7936.8,7936.1,7936.7
201910161255,7936.7,7937.3,7936.1,7936.5
201910161256,7936.5,7936.7,7935.9,7935.9
201910161257,7935.9,7936.1,7934.9,7935.7
201910161258,7935.7,7936.3,7935.2,7936.2
201910161259,7936.2,7937,7935.9,7937
201910161300,7937,7937.4,7936.7,7936.9
201910161301,7936.9,7937.2,7936.7,7936.9
201910161302,7936.9,7937.3,7936.7,7937.1
201910161303,7937.1,7938.5,7937.1,7938.5
201910161304,7938.6,7938.6,7937.2,7937.4
201910161305,7937.4,7937.7,7937.3,7937.4
201910161306,7937.4,7938.5,7937.2,7937.9
201910161307,7937.9,7937.9,7936.2,7936.2
201910161308,7936.2,7936.3,7935.7,7935.7
201910161309,7935.7,7935.8,7934.4,7934.6
201910161310,7934.6,7935.8,7934.2,7934.4
201910161311,7934.4,7934.7,7932.4,7933.2
201910161312,7933.2,7934.4,7933,7933.9
201910161313,7933.9,7933.9,7933,7933.1
201910161314,7933,7933.4,7932.2,7933.2
201910161315,7933.2,7933.4,7932.9,7933.1
201910161316,7933.1,7933.9,7932.4,7932.4
201910161317,7932.4,7932.5,7931.9,7932.2
201910161318,7932.2,7933.3,7931.7,7932.9
201910161319,7932.9,7934.2,7932.8,7933.9
201910161320,7933.9,7933.9,7932.9,7933.5
201910161321,7933.5,7934.8,7933.5,7934.5
201910161322,7934.5,7934.9,7934.4,7934.5
201910161323,7934.5,7934.8,7934,7934.5
201910161324,7934.5,7935.2,7934.3,7935.1
201910161325,7935.1,7935.3,7934.7,7935.1
201910161326,7935.1,7937.1,7935.1,7936.6
201910161327,7936.6,7936.6,7935.8,7936.2
201910161328,7936.2,7936.8,7936.2,7936.5
201910161329,7936.5,7936.7,7935.6,7936.3
201910161330,7936.3,7936.4,7935.8,7935.9
201910161331,7935.9,7936.1,7935,7935.2
201910161332,7935.2,7935.2,7934.5,7934.9
201910161333,7934.9,7935.7,7934.7,7935.7
201910161334,7935.7,7937.6,7935.2,7937.6
201910161335,7937.6,7937.6,7936.8,7936.9
201910161336,7936.9,7937.7,7936.9,7937.7
201910161337,7937.7,7938.3,7937,7938.3
201910161338,7938.3,7938.3,7937.7,7937.8
201910161339,7937.8,7938.1,7937.1,7937.2
201910161340,7937.1,7938.3,7936.9,7938.2
201910161341,7938.2,7938.2,7937.4,7937.7
201910161342,7937.7,7938.3,7937.2,7937.4
201910161343,7937.4,7937.8,7937.3,7937.6
201910161344,7937.6,7938.1,7937.6,7937.7
201910161345,7937.7,7938.3,7937.6,7937.7
201910161346,7937.6,7937.8,7937.5,7937.8
201910161347,7937.9,7937.9,7935.2,7935.4
201910161348,7935.7,7935.7,7935,7935.7
201910161349,7935.7,7936.3,7935.2,7936.1
201910161350,7936.1,7936.8,7936.1,7936.5
201910161351,7936.6,7936.6,7935.9,7936.1
201910161352,7936.1,7936.5,7936.1,7936.2
201910161353,7936.2,7937.2,7936.2,7937
201910161354,7937.1,7938.1,7936.9,7938
201910161355,7938.2,7938.3,7937.5,7937.6
201910161356,7937.6,7938.2,7937.3,7938.2
201910161357,7938.2,7938.3,7937.9,7938
201910161358,7937.9,7938,7937.3,7937.7
201910161359,7937.7,7937.7,7937.3,7937.4
201910161400,7937.4,7939.6,7937.4,7939.2
201910161401,7939.2,7939.8,7939.1,7939.2
201910161402,7939.2,7941.1,7939,7940.6
201910161403,7940.3,7942.2,7940.1,7941.8
201910161404,7941.8,7942.9,7941.3,7941.9
201910161405,7941.9,7942.7,7941.7,7941.8
201910161406,7941.8,7941.8,7939.4,7939.4
201910161407,7939.4,7940.3,7939.3,7940.1
201910161408,7940.1,7941.5,7940.1,7941.4
201910161409,7941.4,7942.3,7940.9,7941.9
201910161410,7941.9,7942.8,7941.5,7942
201910161411,7941.9,7942.3,7941.3,7941.4
201910161412,7941.4,7941.9,7941.4,7941.7
201910161413,7941.6,7941.8,7941.2,7941.6
201910161414,7941.6,7942.5,7941.4,7941.4
201910161415,7941.4,7941.6,7940.9,7941.2
201910161416,7941.2,7942,7940.9,7941
201910161417,7941,7941,7939.6,7940
201910161418,7940,7940.1,7939.5,7939.7
201910161419,7939.7,7940.8,7939.6,7940.1
201910161420,7940.2,7940.8,7940.1,7940.7
201910161421,7940.6,7940.8,7938.3,7938.3
201910161422,7938.3,7939.1,7938.3,7938.7
201910161423,7938.6,7939.3,7938.4,7939.2
201910161424,7939.2,7939.5,7938.4,7938.4
201910161425,7938.4,7938.6,7937.5,7937.6
201910161426,7937.7,7938,7937.2,7937.7
201910161427,7937.7,7937.8,7936.2,7936.3
201910161428,7936.3,7936.4,7935.1,7935.6
201910161429,7935.6,7936.3,7935.6,7935.7
201910161430,7935.7,7935.7,7934.2,7935.1
201910161431,7934.9,7936,7934.5,7935.7
201910161432,7935.7,7936,7934.9,7935.7
201910161433,7935.7,7936.1,7934.4,7935.3
201910161434,7935.4,7936.3,7935.2,7936.3
201910161435,7936.4,7937,7936.2,7937
201910161436,7937,7937.9,7937,7937.6
201910161437,7937.7,7937.8,7936.5,7936.6
201910161438,7936.6,7937.3,7936.3,7937.3
201910161439,7937.3,7937.7,7936.4,7936.9
201910161440,7936.8,7936.9,7935.2,7936
201910161441,7936,7936.5,7935.7,7936.1
201910161442,7936.1,7936.7,7936,7936.4
201910161443,7936.4,7936.5,7935.9,7936.3
201910161444,7936.3,7936.4,7935.9,7935.9
201910161445,7935.9,7936,7935.1,7935.2
201910161446,7935.2,7935.3,7934.2,7934.3
201910161447,7934.3,7936.8,7934.3,7936.8
201910161448,7936.8,7937.6,7936.6,7937.4
201910161449,7937.4,7938.2,7937.1,7938.2
201910161450,7938.2,7939.2,7937.9,7938.2
201910161451,7938.2,7938.8,7937.7,7938.8
201910161452,7938.8,7939.9,7938,7939.9
201910161453,7939.9,7940.3,7939.4,7939.5
201910161454,7939.5,7940.3,7939.3,7939.4
201910161455,7939.6,7940.5,7939.5,7939.9
201910161456,7939.9,7940.6,7939.8,7940
201910161457,7940,7940.2,7939.1,7939.7
201910161458,7939.7,7939.8,7938.5,7938.8
201910161459,7938.8,7939.4,7938.4,7938.5
201910161500,7938.4,7941,7938.4,7939.8
201910161501,7939.8,7940.1,7937.4,7937.4
201910161502,7937.4,7940.1,7937.2,7939.4
201910161503,7939.4,7942.1,7939.3,7942.1
201910161504,7942.1,7942.1,7940.7,7941.3
201910161505,7941.3,7946.6,7941.3,7945.1
201910161506,7945.1,7947.8,7944.3,7946.3
201910161507,7946.3,7947.9,7946.3,7947.9
201910161508,7947.8,7948.5,7947.7,7948
201910161509,7948,7948.2,7946.1,7947
201910161510,7947,7947.5,7946.3,7947.5
201910161511,7947.6,7948.7,7947.3,7948.7
201910161512,7948.8,7949.1,7948,7948.1
201910161513,7948.1,7948.8,7947.4,7947.7
201910161514,7947.7,7949.8,7947.7,7948.2
201910161515,7948.3,7957.1,7947.8,7957.1
201910161516,7957.1,7958.4,7956.1,7957.6
201910161517,7957.6,7958,7955.2,7955.2
201910161518,7955.2,7955.6,7954.5,7954.5
201910161519,7954.5,7954.6,7952.6,7952.6
201910161520,7952.6,7953.1,7950,7950
201910161521,7950,7951.8,7950,7950.8
201910161522,7950.8,7952,7950.4,7950.6
201910161523,7950.6,7951.6,7950,7950.1
201910161524,7950.1,7954.6,7950.1,7954.1
201910161525,7954.1,7954.1,7953,7953.2
201910161526,7953.2,7953.2,7952.1,7952.3
201910161527,7952.3,7952.9,7951.4,7952.2
201910161528,7952.2,7952.7,7951.5,7951.5
201910161529,7951.5,7953.3,7951.4,7953.1
201910161530,7953,7953.8,7951.4,7952.9
201910161531,7952.9,7953.4,7951.6,7951.6
201910161532,7951.6,7953.1,7951,7952.8
201910161533,7952.8,7954.5,7952.4,7954.4
201910161534,7954.5,7955.3,7954.4,7954.8
201910161535,7954.9,7955.7,7953.3,7953.3
201910161536,7953.3,7954.8,7953.3,7954.7
201910161537,7954.7,7955,7953.3,7953.7
201910161538,7953.5,7953.5,7951.9,7953
201910161539,7953,7953.8,7952.6,7953.5
201910161540,7953.4,7953.5,7951.9,7951.9
201910161541,7951.9,7952.1,7949.8,7950.2
201910161542,7950.1,7951.5,7949.8,7951
201910161543,7951,7951.9,7950.3,7951.9
201910161544,7951.9,7952,7949.7,7950.3
201910161545,7950.3,7951.9,7950.3,7951.8
201910161546,7951.8,7953.3,7951.4,7953.3
201910161547,7953,7954.4,7952.8,7953.6
201910161548,7953.6,7954,7953.1,7953.4
201910161549,7953.4,7953.7,7950.9,7951
201910161550,7950.8,7953,7950.3,7952.1
201910161551,7951.5,7952.5,7950.6,7950.7
201910161552,7950.6,7950.9,7949.8,7950.6
201910161553,7950.6,7950.6,7949.8,7950.3
201910161554,7950.3,7950.3,7949.6,7950.1
201910161555,7950.1,7951.4,7950.1,7951.3
201910161556,7951.3,7952.8,7951.1,7952.1
201910161557,7952.1,7952.5,7950,7950
201910161558,7950,7950.9,7949.9,7950.8
201910161559,7950.8,7950.8,7949.4,7949.4
201910161600,7949.4,7955.7,7949.4,7955.7
201910161601,7955.7,7956,7951.1,7951.6
201910161602,7951.6,7953.5,7950,7953.1
201910161603,7953.1,7953.8,7951,7952.8
201910161604,7952.8,7953.7,7951.2,7953.7
201910161605,7953.6,7953.6,7948.3,7949.6
201910161606,7949.8,7951.8,7947.9,7948.8
201910161607,7948.8,7948.8,7946.8,7947.8
201910161608,7947.8,7948.9,7946.7,7947.5
201910161609,7947.5,7947.8,7946.7,7946.9
201910161610,7946.9,7946.9,7943.7,7945.9
201910161611,7945.9,7946.4,7944,7945.9
201910161612,7945.9,7948,7944.6,7947.6
201910161613,7947.6,7948.6,7947.1,7948.1
201910161614,7948.1,7948.5,7944.4,7946.2
201910161615,7946.2,7947.5,7945.5,7946.9
201910161616,7946.9,7947.4,7946.1,7947.2
201910161617,7947.2,7947.6,7944.6,7945.2
201910161618,7945.2,7948,7945.2,7947.7
201910161619,7947.6,7949.1,7946.8,7948.8
201910161620,7948.8,7949.1,7946.1,7947.8
201910161621,7948.2,7949.8,7947.7,7948.4
201910161622,7948.4,7950,7948.1,7949.2
201910161623,7949.2,7951.7,7949.2,7951
201910161624,7951.1,7953.8,7951.1,7953.7
201910161625,7953.7,7954.8,7948.7,7949.2
201910161626,7949.2,7950.5,7941.1,7941.4
201910161627,7940.6,7945,7936.4,7938.4
201910161628,7938.4,7942.3,7936.6,7938
201910161629,7938,7940.4,7935.6,7936.8
201910161630,7936.8,7941.3,7936.7,7940.9
201910161631,7940.9,7942.3,7939.8,7940.7
201910161632,7940.7,7941.3,7938.1,7939.6
201910161633,7939.6,7942,7939,7940.4
201910161634,7940.4,7942.1,7937.2,7937.8
201910161635,7937.8,7941,7937.3,7939.4
201910161636,7939.4,7942,7939.4,7941.1
201910161637,7941.2,7944,7941.2,7942.4
201910161638,7942.4,7944.1,7941.7,7942.6
201910161639,7943.1,7943.3,7940.3,7940.6
201910161640,7940.6,7941.8,7939.5,7941.4
201910161641,7941.3,7941.8,7939.5,7940.7
201910161642,7940.6,7942.6,7940.4,7941.9
201910161643,7941.8,7943.2,7941.3,7942.4
201910161644,7942.4,7942.9,7941.2,7941.5
201910161645,7941.5,7942.8,7939.2,7942.8
201910161646,7942.8,7942.8,7940.5,7941
201910161647,7941,7942,7940.6,7940.9
201910161648,7940.9,7943,7940.8,7941.9
201910161649,7941.9,7946.1,7941.9,7944.7
201910161650,7944.7,7944.8,7943,7943.4
201910161651,7943.4,7945.8,7943.2,7945.1
201910161652,7945.1,7946.4,7944.9,7946.3
201910161653,7946.3,7946.8,7944.9,7944.9
201910161654,7944.9,7945.2,7943.9,7944.3
201910161655,7944.4,7944.5,7942.6,7944.5
201910161656,7944.5,7944.6,7943.1,7944.1
201910161657,7944.1,7944.4,7942.9,7943.5
201910161658,7943.5,7944.5,7942.8,7944.4
201910161659,7944.4,7945,7943.2,7944.7
201910161700,7944.7,7946.1,7942.1,7942.9
201910161701,7942.9,7943.4,7937.7,7938.9
201910161702,7938.9,7941.1,7937.5,7940.8
201910161703,7940.9,7944.1,7940.8,7942.7
201910161704,7942.7,7944.1,7941.9,7941.9
201910161705,7941.9,7944.1,7941.9,7943.2
201910161706,7943.5,7943.5,7941.5,7942.2
201910161707,7941.6,7942.2,7939.6,7939.6
201910161708,7939.6,7940.3,7938.4,7938.4
201910161709,7938.4,7939.7,7938.3,7938.8
201910161710,7938.8,7939.8,7933.1,7935.7
201910161711,7935.7,7936.5,7933.9,7935.3
201910161712,7935.3,7935.9,7933.8,7935.1
201910161713,7935.4,7936,7934.1,7934.6
201910161714,7934.6,7936.4,7934.4,7935.7
201910161715,7935.7,7935.8,7934,7935.4
201910161716,7935.4,7936.3,7934.6,7935.8
201910161717,7936.2,7938.3,7936.2,7937
201910161718,7937,7937.4,7935.8,7936.9
201910161719,7936.9,7938.3,7936.5,7937.9
201910161720,7937.6,7937.8,7935.2,7936.3
201910161721,7936.3,7938.1,7936.1,7937.9
201910161722,7937.9,7938.8,7937.6,7937.9
201910161723,7937.9,7938.8,7937.3,7938.4
201910161724,7938.4,7938.8,7936.9,7936.9
201910161725,7936.8,7938.4,7936.6,7937.6
201910161726,7937.6,7937.8,7935.4,7936.6
201910161727,7936.6,7938.3,7936.4,7937
201910161728,7937,7937.6,7936.4,7936.9
201910161729,7936.9,7937.5,7935.9,7937.4
201910161730,7937.4,7937.6,7935.6,7936.4
201910161731,7936.4,7936.5,7935,7935.2
201910161732,7935.2,7935.8,7933,7935.3
201910161733,7935.3,7935.5,7933.6,7935.5
201910161734,7935.5,7935.5,7934.1,7934.9
201910161735,7934.9,7936.1,7934.5,7935.4
201910161736,7935.4,7935.4,7933.4,7934.6
201910161737,7934.6,7935.1,7933.9,7935.1
201910161738,7935.1,7935.2,7933.8,7935.2
201910161739,7935.2,7935.4,7934,7934.2
201910161740,7934.2,7935.5,7934.1,7935.3
201910161741,7935.4,7936.3,7934.6,7934.8
201910161742,7934.8,7935.4,7934.3,7934.5
201910161743,7934.6,7935.7,7934.6,7935.7
201910161744,7935.7,7935.9,7935,7935.9
201910161745,7935.8,7937.4,7935.5,7935.5
201910161746,7935.5,7937,7935.2,7936.1
201910161747,7936,7936.3,7935.4,7935.7
201910161748,7935.7,7935.9,7935.2,7935.6
201910161749,7935.6,7936.4,7934.9,7935.4
201910161750,7935.4,7936.3,7935,7936.3
201910161751,7936.3,7936.3,7935.2,7935.4
201910161752,7935.4,7937,7935.2,7936.9
201910161753,7936.9,7939.8,7936.9,7938.7
201910161754,7938.7,7939.8,7938.6,7939.8
201910161755,7939.8,7939.8,7938,7938.9
201910161756,7938.9,7939.8,7938.7,7938.8
201910161757,7938.8,7939.7,7937.9,7938.4
201910161758,7938.4,7939,7938.4,7938.5
201910161759,7938.7,7939,7938.6,7938.6
201910161800,7938.6,7939.9,7938.5,7939.1
201910161801,7939.1,7939.4,7926.4,7930.1
201910161802,7930.1,7931.9,7927,7929.3
201910161803,7929.3,7931.8,7927.5,7930.6
201910161804,7930.6,7932.9,7929.6,7932.9
201910161805,7932.9,7934.6,7931.9,7933.4
201910161806,7933.4,7933.8,7931.8,7931.8
201910161807,7931.8,7933.9,7931.8,7933.1
201910161808,7933.1,7935,7932.9,7934.3
201910161809,7934.4,7935.5,7933.3,7934.1
201910161810,7934.1,7935.4,7933.7,7934.1
201910161811,7934.1,7934.8,7932.6,7934.8
201910161812,7934.8,7936.3,7933.4,7936.1
201910161813,7936.1,7937.3,7935.7,7936.8
201910161814,7936.8,7937.6,7936.4,7936.5
201910161815,7936.5,7937.4,7936.4,7936.9
201910161816,7936.9,7937.8,7936.6,7937.4
201910161817,7937.4,7938.8,7932.6,7933.2
201910161818,7933.3,7935.9,7933.3,7935.4
201910161819,7935.4,7937.6,7935.4,7937.1
201910161820,7937.1,7937.4,7935.6,7936.1
201910161821,7936.1,7937.7,7935.8,7936.3
201910161822,7936.3,7938.3,7935.9,7936.4
201910161823,7936.4,7936.4,7934.7,7935.8
201910161824,7935.8,7936.1,7934.8,7935.4
201910161825,7935.3,7936.3,7934.4,7935.9
201910161826,7935.9,7936.3,7933,7933.4
201910161827,7933.4,7935.2,7933.4,7935.1
201910161828,7935.1,7936.5,7934.6,7936.1
201910161829,7936.1,7936.9,7935.4,7936.4
201910161830,7936.4,7936.5,7935.6,7935.9
201910161831,7935.9,7936.3,7935.6,7935.8
201910161832,7935.8,7936.9,7934.8,7936.4
201910161833,7936.4,7938.5,7935.9,7938.2
201910161834,7938.2,7938.8,7937.9,7938.6
201910161835,7938.6,7940.1,7938.6,7939.8
201910161836,7939.8,7940.3,7937.7,7940.1
201910161837,7940.1,7941.3,7938.1,7939.1
201910161838,7939.1,7939.3,7938,7938.8
201910161839,7938.8,7939.1,7938.8,7939
201910161840,7939,7940.3,7938.5,7939.7
201910161841,7939.7,7940,7938.5,7938.7
201910161842,7938.7,7939.5,7937.1,7938.4
201910161843,7938.3,7938.4,7937.6,7937.9
201910161844,7937.9,7938.4,7936.6,7937.4
201910161845,7937.4,7938.4,7936.8,7938.3
201910161846,7938.3,7939.1,7938.1,7939.1
201910161847,7939.1,7939.1,7937.9,7938.1
201910161848,7938.1,7938.1,7937.4,7937.4
201910161849,7937.4,7939,7937.4,7938.3
201910161850,7938.3,7939.6,7938.2,7938.6
201910161851,7938.6,7938.6,7936.8,7937.4
201910161852,7937.4,7937.6,7936.5,7936.9
201910161853,7936.9,7936.9,7934.7,7934.9
201910161854,7934.7,7936.1,7933.8,7935.2
201910161855,7935.2,7935.2,7932.8,7933.2
201910161856,7933.2,7936.8,7933.1,7936.6
201910161857,7936.6,7940.1,7934.4,7939.1
201910161858,7939.1,7941.4,7938.7,7939.1
201910161859,7939.1,7940.4,7937.1,7938.7
201910161900,7938.7,7942.8,7938.6,7942.2
201910161901,7942.3,7942.6,7940.8,7942.4
201910161902,7942.4,7942.5,7940.5,7941.3
201910161903,7941.3,7942.6,7940.8,7942.1
201910161904,7942.1,7943.8,7942.1,7943.8
201910161905,7943.8,7944.4,7942.2,7942.4
201910161906,7942.4,7944.6,7942.4,7944
201910161907,7944,7946.2,7943.9,7945.8
201910161908,7945.8,7948,7945.8,7947.6
201910161909,7947.6,7947.7,7944.5,7945.6
201910161910,7945.7,7947.3,7945.4,7946.6
201910161911,7946.6,7948.3,7946.3,7947.3
201910161912,7947.3,7947.3,7945.4,7945.4
201910161913,7945.4,7946,7944.5,7944.9
201910161914,7944.9,7944.9,7942.4,7943.2
201910161915,7943.3,7943.3,7942,7942.2
201910161916,7942.1,7942.8,7941.1,7941.8
201910161917,7941.8,7941.8,7940.3,7940.6
201910161918,7940.6,7941.5,7939.4,7939.9
201910161919,7939.8,7941.3,7939.7,7939.9
201910161920,7939.9,7941.1,7939.4,7940.9
201910161921,7940.9,7941.9,7940.8,7941.9
201910161922,7941.9,7942.1,7940.7,7941.1
201910161923,7941.1,7943.8,7940.5,7943.1
201910161924,7943.1,7943.7,7942.4,7943.7
201910161925,7943.7,7944.3,7943.2,7943.5
201910161926,7943.5,7944.1,7943.5,7943.9
201910161927,7944,7944,7942.6,7942.6
201910161928,7942.6,7942.9,7941.9,7942.5
201910161929,7942.5,7943.2,7941.2,7942.5
201910161930,7942.5,7942.8,7941.6,7941.6
201910161931,7941.5,7943.2,7941.5,7942.5
201910161932,7942.5,7942.5,7941.2,7941.2
201910161933,7941.2,7941.3,7939.5,7940.6
201910161934,7940.6,7941.1,7936.1,7939.1
201910161935,7939.1,7941.6,7938.6,7939.6
201910161936,7939.6,7939.8,7937.7,7938.6
201910161937,7938.6,7938.6,7937.3,7937.7
201910161938,7937.6,7937.6,7935.3,7935.7
201910161939,7935.7,7936.9,7935.4,7936.6
201910161940,7936.6,7936.8,7936.2,7936.8
201910161941,7936.8,7937.1,7936.4,7936.4
201910161942,7936.4,7936.9,7936.2,7936.3
201910161943,7936.3,7937.1,7935.9,7936.6
201910161944,7936.6,7937.6,7936.5,7936.7
201910161945,7936.7,7936.8,7935.9,7936.7
201910161946,7936.7,7936.9,7935.8,7936.1
201910161947,7936.2,7937,7936.1,7936.7
201910161948,7936.7,7937.2,7936.7,7936.8
201910161949,7936.9,7936.9,7935.8,7935.8
201910161950,7935.9,7936.2,7935.4,7935.4
201910161951,7935.4,7937.8,7935.4,7937.7
201910161952,7937.7,7937.9,7936.7,7937.6
201910161953,7938.1,7938.3,7937.4,7937.5
201910161954,7937.5,7938.8,7937.5,7938.6
201910161955,7938.6,7939.1,7938.4,7938.9
201910161956,7938.9,7939.8,7937.9,7939.1
201910161957,7939.1,7939.8,7938.4,7939.7
201910161958,7939.7,7940.5,7939.2,7939.6
201910161959,7939.6,7939.9,7939,7939.3
201910162000,7939.3,7939.9,7937.1,7937.4
201910162001,7937.4,7937.5,7936.1,7936.4
201910162002,7936.4,7937,7935.9,7936.8
201910162003,7936.8,7937,7936.5,7936.6
201910162004,7936.6,7936.6,7935.7,7936.1
201910162005,7936.1,7941.8,7934.1,7935.4
201910162006,7935.3,7937.3,7933.4,7936.8
201910162007,7936.8,7936.8,7934.9,7936.1
201910162008,7936.1,7938.1,7935.9,7937.8
201910162009,7937.9,7938.9,7937.5,7938.5
201910162010,7938.5,7939.8,7938.2,7938.3
201910162011,7938.4,7939.1,7937.7,7937.8
201910162012,7937.8,7937.8,7936.9,7937.6
201910162013,7937.6,7939.3,7936.1,7938.5
201910162014,7938.5,7940.6,7937.8,7940.2
201910162015,7940.2,7941.8,7939.5,7941.6
201910162016,7941.6,7942.1,7941.4,7941.4
201910162017,7941.4,7941.8,7941.2,7941.4
201910162018,7941.4,7943.5,7940.9,7943
201910162019,7943,7943,7942,7942.6
201910162020,7942.6,7942.6,7940.6,7940.9
201910162021,7941.2,7943.6,7941.2,7942.8
201910162022,7942.8,7943.3,7940.8,7941.2
201910162023,7941.2,7941.2,7939.9,7940.1
201910162024,7940.1,7940.8,7939.9,7940.7
201910162025,7940.6,7941,7939.7,7939.7
201910162026,7939.7,7942.4,7939.7,7942.2
201910162027,7942.2,7942.4,7940.7,7941.1
201910162028,7941.1,7941.8,7940.7,7941.7
201910162029,7941.5,7941.6,7940.7,7940.7
201910162030,7940.8,7941.3,7940.4,7940.4
201910162031,7940.3,7941.5,7939.7,7940
201910162032,7940,7940.4,7938.9,7939.7
201910162033,7939.7,7940.6,7939.4,7940.3
201910162034,7940.3,7940.3,7936.9,7938.2
201910162035,7938.2,7939.3,7938.1,7938.5
201910162036,7938.6,7939.5,7937.9,7939.4
201910162037,7939.4,7939.8,7938.4,7938.7
201910162038,7938.7,7941,7938.7,7941
201910162039,7941.4,7942.8,7941,7941.3
201910162040,7941.3,7941.6,7940.9,7941.4
201910162041,7941.4,7941.6,7940.1,7941.6
201910162042,7941.6,7944.5,7941.6,7944
201910162043,7944.1,7944.1,7942.8,7943
201910162044,7943,7943,7940.5,7942.2
201910162045,7942.2,7943.6,7940.6,7943.4
201910162046,7943.4,7943.7,7942.5,7942.9
201910162047,7942.8,7943.3,7942.4,7942.4
201910162048,7942.4,7942.7,7941.6,7942.7
201910162049,7942.7,7942.7,7940.8,7940.8
201910162050,7940.8,7941,7939.4,7940.3
201910162051,7940.3,7940.6,7937.9,7938.8
201910162052,7938.7,7938.8,7937.2,7937.8
201910162053,7937.9,7938.1,7937.5,7938.1
201910162054,7938.1,7938.4,7937.4,7938
201910162055,7938,7939.5,7938,7938.8
201910162056,7938.8,7939.2,7938.4,7938.5
201910162057,7938.5,7938.9,7937.6,7937.9
201910162058,7937.8,7938.5,7937,7938.2
201910162059,7938.2,7938.6,7937.3,7937.4
201910162100,7937.4,7937.4,7934.2,7937.1
201910162101,7937,7937.5,7936.5,7937.5
201910162102,7937.5,7938.4,7937.2,7937.9
201910162103,7937.9,7938.4,7936.8,7936.8
201910162104,7936.8,7938.6,7936.8,7937.4
201910162105,7937.4,7937.7,7936.1,7936.8
201910162106,7936.9,7937.4,7936.4,7936.4
201910162107,7936.4,7937.3,7936,7937.2
201910162108,7937.2,7937.5,7936,7936.4
201910162109,7936.4,7936.9,7935.8,7936.4
201910162110,7936.4,7937.4,7936.4,7937.3
201910162111,7937.4,7938.6,7937.3,7938.3
201910162112,7938.3,7939.5,7938,7939.2
201910162113,7939.1,7940.5,7939.1,7940.3
201910162114,7940.3,7940.9,7940.1,7940.6
201910162115,7940.6,7940.7,7940.2,7940.4
201910162116,7940.4,7940.8,7939.9,7940.6
201910162117,7940.6,7940.8,7940,7940.4
201910162118,7940.4,7941.2,7940.3,7941.1
201910162119,7941.1,7942,7941,7941.4
201910162120,7941.4,7942.7,7941.2,7941.3
201910162121,7941.3,7945.6,7941.2,7945.4
201910162122,7945.4,7953.9,7945.2,7953.4
201910162123,7953.4,7953.4,7947.7,7949.7
201910162124,7949.7,7950.8,7947.9,7950
201910162125,7950.1,7952.1,7948.6,7951.6
201910162126,7950.6,7950.6,7947.8,7948.5
201910162127,7948.2,7948.3,7947.1,7947.4
201910162128,7947.4,7948.6,7947.2,7947.7
201910162129,7947.7,7948.6,7939.1,7945.3
201910162130,7945.3,7945.3,7931.3,7937.8
201910162131,7937.8,7941,7937,7939.4
201910162132,7939.5,7940.5,7936.7,7937.7
201910162133,7938,7939.8,7937.7,7939.3
201910162134,7939.3,7942.9,7939.1,7940.1
201910162135,7940.1,7940.5,7936.8,7937.5
201910162136,7937.5,7938.4,7932.9,7935.3
201910162137,7935.2,7935.6,7933.9,7934.6
201910162138,7934.5,7936.3,7934.4,7935.9
201910162139,7935.8,7937.8,7935.5,7936.7
201910162140,7936.7,7939.4,7936.4,7939.4
201910162141,7939.6,7940.8,7938.2,7939.6
201910162142,7939.7,7939.9,7938.9,7939.2
201910162143,7939.2,7940.1,7938.5,7939.3
201910162144,7939.3,7939.3,7936.3,7936.9
201910162145,7936.9,7937.3,7935.4,7935.5
201910162146,7935.5,7936.1,7933.9,7934.5
201910162147,7934.5,7935.1,7933.7,7934.2
201910162148,7934.2,7935.3,7932.9,7934
201910162149,7934.1,7935.5,7933.9,7935.1
201910162150,7935.1,7935.3,7934.1,7934.5
201910162151,7934.5,7936.7,7934.4,7936.4
201910162152,7936.4,7937.5,7936.2,7936.7
201910162153,7936.7,7937.9,7936.3,7937.3
201910162154,7937.3,7937.6,7936.4,7936.5
201910162155,7936.4,7936.8,7934.9,7934.9
201910162156,7934.9,7935.9,7934.6,7935.3
201910162157,7935.4,7936.3,7934.6,7935.5
201910162158,7935.5,7936.8,7934.8,7936.7
201910162159,7936.7,7937.6,7936.4,7937.4
201910162200,7937.4,7938,7936.2,7937.7
201910162201,7937.7,7938.8,7936.7,7937.9
201910162202,7937.9,7938,7935.4,7935.9
201910162203,7935.9,7936.4,7935,7935.4
201910162204,7935.4,7935.8,7935.2,7935.2
201910162205,7935.2,7935.2,7934,7934.2
201910162206,7934.1,7934.8,7933.9,7934.8
201910162207,7934.9,7935.9,7934.3,7935.8
201910162208,7935.8,7936.2,7935.1,7935.4
201910162209,7935.4,7935.4,7934.9,7935
201910162210,7935,7935.3,7934.7,7935.1
201910162211,7935.1,7937,7935,7936.9
201910162212,7936.9,7937,7936.1,7936.7
201910162213,7936.7,7936.9,7935.7,7935.8
201910162214,7935.8,7937.1,7935.7,7936.6
201910162215,7936.7,7937,7936.1,7936.9
201910162216,7936.8,7937,7935.9,7936.4
201910162217,7936.4,7937.2,7936,7937.1
201910162218,7937.1,7937.2,7935.9,7936
201910162219,7936,7936.6,7933.1,7933.3
201910162220,7933.3,7933.3,7929.2,7931
201910162221,7931,7931.7,7930.2,7931.6
201910162222,7931.6,7932.2,7931.1,7931.1
201910162223,7931.1,7932,7930.9,7931
201910162224,7931,7931,7928.6,7929.3
201910162225,7929.3,7930.9,7929,7930.8
201910162226,7930.8,7930.8,7927.7,7928.3
201910162227,7928.3,7930.3,7928,7930.2
201910162228,7930.2,7930.2,7926.6,7927.8
201910162229,7927.8,7928.9,7927.6,7928.3
201910162230,7927.3,7927.3,7919.7,7921.5
201910162231,7921.5,7924.2,7918.6,7919.2
201910162232,7919.2,7920.1,7916.5,7920.1
201910162233,7919.9,7928.3,7917.9,7927.9
201910162234,7927.9,7930.3,7926.2,7928.9
201910162235,7928.9,7932.2,7922.3,7922.3
201910162236,7922.1,7924.1,7918.7,7923
201910162237,7923,7928.5,7922.8,7926.6
201910162238,7926.6,7929.9,7925.3,7929
201910162239,7928.9,7931.2,7925.7,7926.5
201910162240,7926.7,7930.3,7926,7930.1
201910162241,7930.1,7934.7,7928.6,7929.6
201910162242,7929.2,7929.3,7924.9,7926.9
201910162243,7926.9,7931.8,7926.9,7931.8
201910162244,7931.8,7932.2,7927.9,7929.7
201910162245,7929.7,7930.4,7926.6,7926.9
201910162246,7926.3,7926.3,7920.9,7922.5
201910162247,7922.5,7928.3,7922.5,7925.5
201910162248,7925.6,7931,7925.4,7927.9
201910162249,7927.8,7931.2,7927.5,7930.9
201910162250,7930.9,7931.8,7923.6,7925.5
201910162251,7925.5,7925.9,7921.8,7924.7
201910162252,7924.7,7926.9,7923.4,7923.8
201910162253,7923.8,7925.2,7920.4,7925.2
201910162254,7925.2,7927.8,7923.6,7927.8
201910162255,7927.8,7929.1,7924.7,7925
201910162256,7925,7926.9,7922.4,7924.4
201910162257,7924.4,7924.4,7921,7922.2
201910162258,7921.9,7922.6,7916.5,7918.2
201910162259,7918.2,7920.5,7916.5,7920.5
201910162300,7920.5,7922.8,7917.4,7917.8
201910162301,7917.6,7922.9,7916.9,7921.3
201910162302,7921.3,7921.6,7913.7,7917.4
201910162303,7917.4,7920.3,7913,7913
201910162304,7913,7914.6,7907.8,7910.9
201910162305,7910.9,7912.4,7907.4,7908.9
201910162306,7908.7,7911.6,7908.7,7911.1
201910162307,7911.1,7916.4,7911.1,7915.9
201910162308,7915.8,7920.7,7915.8,7919.3
201910162309,7919.3,7921.9,7918.2,7919.2
201910162310,7919.2,7922.9,7918.8,7920.8
201910162311,7920.9,7922.9,7920.1,7922
201910162312,7922,7924.6,7921.8,7922
201910162313,7922,7923.4,7921.2,7922.2
201910162314,7922.3,7924.5,7921.4,7921.8
201910162315,7921.5,7923.7,7918.9,7922.9
201910162316,7922.9,7926.4,7922.9,7923.9
201910162317,7923.9,7927.6,7923.6,7927.3
201910162318,7927.4,7929.8,7927.3,7928.4
201910162319,7928.2,7930.3,7928,7928
201910162320,7928,7930.2,7927.9,7929.3
201910162321,7929.3,7929.9,7927.7,7928
201910162322,7928,7928.9,7926.4,7928
201910162323,7927.8,7929.8,7926.9,7927.7
201910162324,7927.7,7930,7927.4,7929.2
201910162325,7929.2,7930,7926.9,7929.7
201910162326,7929.9,7936.2,7929.5,7934.5
201910162327,7934.4,7937.3,7934.4,7934.6
201910162328,7934.6,7936.5,7934.4,7935.3
201910162329,7935.4,7936.1,7933.8,7935.5
201910162330,7935.5,7937.4,7930.3,7931.9
201910162331,7932.2,7935,7931.7,7934.9
201910162332,7934.9,7938.2,7933.9,7935.4
201910162333,7935.1,7937,7932.8,7932.8
201910162334,7932.9,7933.4,7929.8,7933.3
201910162335,7933.3,7937.4,7933.3,7937.4
201910162336,7937.7,7940.3,7936.7,7939.6
201910162337,7939.7,7940.5,7937.2,7937.7
201910162338,7937.7,7938.6,7936.7,7937.4
201910162339,7937.4,7939.6,7936.9,7937.9
201910162340,7937.9,7939.4,7935.9,7938.4
201910162341,7938.4,7938.7,7934.6,7935.4
201910162342,7935.2,7936.2,7934.2,7935
201910162343,7935.1,7935.9,7934.2,7935
201910162344,7935,7936.3,7932.3,7933
201910162345,7933.2,7937.9,7933.2,7934.2
201910162346,7934.3,7937.5,7934.3,7936.2
201910162347,7936.1,7937.4,7934.4,7935.7
201910162348,7935.6,7935.8,7933.1,7934.3
201910162349,7934.3,7935.4,7930.3,7935.1
201910162350,7935.1,7937.3,7934.9,7937.2
201910162351,7937.2,7943.3,7937.2,7941.7
201910162352,7941.7,7946.4,7941.2,7944.4
201910162353,7944.4,7946.1,7942.4,7945.2
201910162354,7945.2,7945.3,7942.7,7942.9
201910162355,7942.8,7944.9,7941.4,7944.6
201910162356,7944.6,7946,7943.2,7945.9
201910162357,7945.9,7947.5,7944.4,7946.5
201910162358,7946.4,7946.8,7943.9,7944.4
201910162359,7944.4,7945.5,7942.1,7945
201910170000,7945,7946.6,7944,7946.4
201910170001,7946.7,7949.9,7946.4,7948.5
201910170002,7948.5,7948.5,7945.2,7947.1
201910170003,7947.1,7948.8,7946.4,7947.7
201910170004,7947.5,7949.9,7947.4,7948.2
201910170005,7948.1,7950.8,7948.1,7950.5
201910170006,7950.5,7952.4,7949.4,7950
201910170007,7950.1,7950.1,7946.4,7947.6
201910170008,7947.6,7948.1,7946.2,7946.4
201910170009,7946.4,7947,7944.2,7944.4
201910170010,7944.4,7946.5,7943.4,7943.5
201910170011,7943.6,7945,7943.6,7943.9
201910170012,7943.9,7944.1,7942.8,7943.6
201910170013,7943.5,7944.2,7942.6,7943.5
201910170014,7943.5,7943.5,7942.1,7943.3
201910170015,7943.3,7943.5,7938.4,7938.8
201910170016,7938.7,7941.1,7938.4,7939.7
201910170017,7939.5,7939.5,7936,7936
201910170018,7936,7937,7933.7,7935.9
201910170019,7935.9,7936.5,7933.9,7934.4
201910170020,7934.4,7936,7933.8,7935.9
201910170021,7935.9,7936.2,7934.1,7934.1
201910170022,7934.2,7935.8,7933.9,7934.7
201910170023,7934.9,7936.6,7934.4,7936.1
201910170024,7936.1,7938,7934.7,7934.9
201910170025,7934.9,7937,7934.8,7936.7
201910170026,7936.6,7936.7,7935.4,7936.7
201910170027,7936.6,7936.6,7932.7,7932.8
201910170028,7932.8,7933.6,7932.4,7933.3
201910170029,7933.3,7933.3,7931,7931.5
201910170030,7931.5,7933.5,7930.9,7931
201910170031,7930.8,7932.7,7930.4,7931.6
201910170032,7931.5,7931.5,7927.4,7927.4
201910170033,7927.4,7927.4,7923.1,7925.3
201910170034,7925.3,7925.5,7921.4,7923.3
201910170035,7923.3,7924.5,7922.4,7924
201910170036,7924,7926,7923.8,7926
201910170037,7926,7929.3,7925.4,7928.2
201910170038,7928.1,7928.4,7926.9,7928.2
201910170039,7928.2,7928.4,7926.6,7927.2
201910170040,7927.2,7927.2,7926.1,7927
201910170041,7927,7929,7926.4,7927.6
201910170042,7927.6,7931.5,7927.2,7931.2
201910170043,7931.2,7931.7,7929.9,7930.4
201910170044,7930.2,7932.6,7929.7,7932.6
201910170045,7932.6,7936.9,7932.1,7936.6
201910170046,7936.6,7936.6,7934.4,7934.7
201910170047,7934.7,7936.1,7934.2,7936.1
201910170048,7936.1,7939.3,7935.9,7938.4
201910170049,7938.4,7942.1,7937.9,7941.3
201910170050,7941.1,7942.4,7937,7937.9
201910170051,7937.9,7938.6,7935.8,7936
201910170052,7936,7937.3,7934.6,7936.4
201910170053,7936.4,7937.2,7935.7,7937
201910170054,7937,7937.5,7934.9,7934.9
201910170055,7934.9,7935,7932.2,7933.3
201910170056,7933.2,7933.8,7931.4,7933.5
201910170057,7933.5,7935,7933.3,7933.4
201910170058,7933.4,7933.6,7931.5,7931.5
201910170059,7931.5,7931.9,7930.6,7930.9
201910170100,7930.8,7934.1,7930.8,7932.1
201910170101,7932.2,7933.3,7931.4,7932.2
201910170102,7932.2,7933,7931.6,7932.9
201910170103,7932.9,7934.6,7932.9,7933.3
201910170104,7933.4,7933.5,7932.4,7933
201910170105,7933,7937.3,7933,7935.9
201910170106,7935.9,7936.1,7934.7,7936.1
201910170107,7936.1,7936.3,7933.8,7934.8
201910170108,7934.8,7934.9,7934.1,7934.3
201910170109,7934.3,7934.8,7932.2,7933.7
201910170110,7933.7,7934.1,7931.8,7933.2
201910170111,7933.2,7933.2,7929.8,7930.8
201910170112,7930.8,7931,7929.7,7930
201910170113,7930,7931,7929.9,7931
201910170114,7931,7931.5,7928.5,7928.5
201910170115,7928.4,7930,7928.2,7928.4
201910170116,7928.4,7929.8,7927.6,7928.9
201910170117,7928.9,7930.3,7928.6,7929.5
201910170118,7929.7,7929.7,7926.3,7927
201910170119,7927,7927.4,7925.8,7927
201910170120,7927,7929.5,7926.2,7928.9
201910170121,7928.9,7929.4,7927.6,7929.3
201910170122,7929.3,7930.2,7928.8,7929.4
201910170123,7929.4,7929.8,7926.8,7926.9
201910170124,7926.9,7927.5,7925.6,7927.4
201910170125,7927.4,7928,7925.9,7927.2
201910170126,7927.1,7928.1,7926.4,7927.1
201910170127,7927.1,7927.1,7925,7925.7
201910170128,7925.7,7925.7,7922.7,7922.9
201910170129,7922.8,7926.3,7922.8,7926.2
201910170130,7926.2,7927.9,7926.2,7927
201910170131,7927.1,7927.5,7924.7,7925.6
201910170132,7925.6,7926.3,7924,7925.3
201910170133,7925.3,7925.3,7922.9,7923.2
201910170134,7923.1,7924.8,7922.7,7923.9
201910170135,7923.9,7924.5,7923.4,7923.4
201910170136,7923.4,7925.6,7923,7925.1
201910170137,7925.1,7925.5,7923.2,7924
201910170138,7924.1,7924.1,7922.2,7923.2
201910170139,7923.2,7924.1,7921.4,7921.8
201910170140,7921.8,7922.5,7919.2,7921.6
201910170141,7921.6,7923.6,7921.1,7923.6
201910170142,7923.6,7923.6,7921.4,7921.4
201910170143,7921.4,7921.9,7920.1,7920.8
201910170144,7920.9,7921.9,7920.7,7921.6
201910170145,7921.7,7924,7921.4,7923.7
201910170146,7923.7,7925.8,7923.6,7924.9
201910170147,7924.9,7925.2,7924.2,7925
201910170148,7925.1,7925.2,7923.4,7924.4
201910170149,7924.4,7924.4,7921.8,7923.3
201910170150,7923.4,7923.6,7917.7,7918.3
201910170151,7918.2,7920.3,7918.1,7919.1
201910170152,7919.1,7919.5,7917.9,7918.3
201910170153,7918.4,7919,7917.9,7918.8
201910170154,7918.8,7919.9,7918.6,7919.6
201910170155,7919.6,7921.9,7918.9,7921.7
201910170156,7921.6,7921.6,7920.6,7920.6
201910170157,7920.6,7920.8,7919,7919.2
201910170158,7919.2,7919.5,7918.3,7918.5
201910170159,7918.5,7920.3,7918.1,7918.1
201910170200,7918.1,7920.5,7918.1,7918.7
201910170201,7918.6,7921.4,7918.6,7921.2
201910170202,7921.1,7925.4,7920.7,7924.4
201910170203,7924.5,7924.5,7922.6,7922.7
201910170204,7922.6,7922.7,7919.9,7919.9
201910170205,7919.9,7920.6,7919.6,7920
201910170206,7919.9,7921.6,7919.6,7920
201910170207,7920,7920.2,7918.7,7919
201910170208,7919,7920,7918.8,7919.4
201910170209,7919.4,7919.6,7915.2,7916.9
201910170210,7916.9,7917.6,7915.9,7917
201910170211,7917,7917.8,7916,7917.8
201910170212,7917.8,7918.3,7917.1,7917.6
201910170213,7917.6,7917.8,7915.2,7915.9
201910170214,7915.9,7917,7913.4,7916.4
201910170215,7916.3,7916.4,7914.9,7915.8
201910170216,7915.7,7916.5,7914.7,7914.7
201910170217,7914.7,7915.7,7914,7915.5
201910170218,7915.5,7916.3,7915,7916.3
201910170219,7916,7916.5,7914.9,7916
201910170220,7916,7919.7,7915.9,7918.8
201910170221,7918.8,7919,7916.9,7916.9
201910170222,7916.9,7917,7915.2,7915.9
201910170223,7915.9,7916.3,7914.5,7915.2
201910170224,7915.2,7915.4,7914.7,7914.7
201910170225,7914.7,7916.5,7914.5,7915.9
201910170226,7915.9,7915.9,7914.9,7915.9
201910170227,7915.8,7916,7914.1,7914.6
201910170228,7914.6,7915.8,7914.4,7915.7
201910170229,7915.6,7917.7,7915.6,7917.6
201910170230,7917.6,7919.2,7917.4,7919
201910170231,7919.1,7920.7,7918.7,7919.7
201910170232,7919.7,7919.7,7917.9,7919.4
201910170233,7919.4,7921.5,7919.4,7921.2
201910170234,7921.1,7922.6,7920.5,7922.6
201910170235,7922.6,7923.7,7922.4,7922.9
201910170236,7922.9,7923.8,7922.7,7923.5
201910170237,7923.7,7924.3,7923.1,7924.3
201910170238,7924.4,7924.4,7922.4,7923.6
201910170239,7923.5,7923.9,7923.3,7923.5
201910170240,7923.5,7924.3,7922.7,7922.7
201910170241,7922.7,7923.3,7921.7,7923.3
201910170242,7923.3,7925.4,7923.2,7925.4
201910170243,7925.6,7926.8,7916.8,7921.6
201910170244,7921.6,7924.1,7921.3,7923.9
201910170245,7923.9,7924.3,7920.9,7921.5
201910170246,7921.5,7923.5,7918,7920.2
201910170247,7920.1,7923.2,7920.1,7922.2
201910170248,7922.2,7923.8,7922.1,7922.3
201910170249,7922.4,7924.1,7921.9,7921.9
201910170250,7921.9,7923.3,7921.6,7921.9
201910170251,7921.9,7923.8,7921.9,7923.8
201910170252,7923.8,7923.8,7921.5,7921.5
201910170253,7921.5,7921.5,7920.3,7920.9
201910170254,7920.9,7921.7,7920.4,7920.6
201910170255,7920.6,7920.6,7918.6,7918.9
201910170256,7918.9,7919.7,7916,7917.5
201910170257,7917.6,7917.7,7916.3,7917.7
201910170258,7917.7,7918,7916.4,7917.6
201910170259,7917.6,7917.7,7916,7916.1
201910170300,7916.5,7919.5,7915.3,7915.6
201910170301,7915.4,7918,7915.4,7917.8
201910170302,7917.8,7918.9,7917.8,7918.5
201910170303,7918.5,7918.5,7916.8,7917.9
201910170304,7917.9,7917.9,7916.7,7917.2
201910170305,7917.2,7917.5,7915.9,7917
201910170306,7917,7919,7917,7919
201910170307,7919.3,7919.5,7918.4,7918.5
201910170308,7918.5,7918.7,7917.5,7918.3
201910170309,7918.3,7919.4,7917.7,7919.4
201910170310,7919.4,7921.1,7919.3,7921
201910170311,7921.2,7921.2,7920.2,7921.2
201910170312,7921,7921,7919.4,7920.7
201910170313,7920.9,7923.1,7920.9,7921.5
201910170314,7921.5,7923.1,7921.5,7923.1
201910170315,7923.1,7923.9,7921.4,7921.8
201910170316,7922.2,7922.2,7921.4,7922
201910170317,7922.1,7923.1,7922.1,7922.8
201910170318,7922.9,7924.8,7922.9,7924.6
201910170319,7924.7,7924.7,7922.9,7923.3
201910170320,7923.3,7923.8,7922.3,7923.8
201910170321,7923.8,7924.5,7922.7,7923.4
201910170322,7923.4,7925.2,7922.9,7925
201910170323,7924.9,7925.4,7924.2,7925.2
201910170324,7925.3,7925.7,7923.3,7923.6
201910170325,7923.6,7925,7923.6,7924.8
201910170326,7924.8,7925,7924.2,7924.7
201910170327,7924.5,7925.6,7924.4,7925.2
201910170328,7925.2,7926.1,7924.9,7925.4
201910170329,7925.4,7925.4,7922.6,7923.1
201910170330,7923.2,7924.5,7923.2,7924.4
201910170331,7924.4,7927.1,7924.4,7926.4
201910170332,7926.4,7927,7925.6,7926.3
201910170333,7926.3,7928.6,7926.3,7928
201910170334,7928,7928.8,7927.2,7928.4
201910170335,7928.4,7930,7928.4,7929.6
201910170336,7929.6,7930.5,7929.3,7930
201910170337,7930,7930.5,7928.5,7929.4
201910170338,7929.4,7929.4,7927.9,7928.4
201910170339,7928.4,7931.2,7927.8,7931
201910170340,7931,7932.9,7930.5,7930.6
201910170341,7930.7,7931.9,7930.3,7931.7
201910170342,7931.7,7933.2,7931.2,7932.6
201910170343,7932.5,7933,7931.4,7932.2
201910170344,7932.2,7932.6,7931.4,7931.7
201910170345,7931.7,7932.9,7931.7,7932.6
201910170346,7932.7,7933.1,7931.4,7931.6
201910170347,7931.8,7932.5,7930.9,7931.5
201910170348,7931.5,7932.4,7931.4,7932.4
201910170349,7932.3,7932.3,7931.2,7931.9
201910170350,7931.9,7933.3,7931.8,7933.2
201910170351,7933.2,7934.4,7932.7,7933.5
201910170352,7933.5,7933.5,7931.6,7931.7
201910170353,7931.7,7933.9,7931.6,7933.1
201910170354,7933.1,7933.1,7932,7932.9
201910170355,7932.8,7933.1,7931.7,7932.4
201910170356,7932.4,7933.6,7932.3,7933.4
201910170357,7933.3,7933.5,7931.9,7932
201910170358,7932,7933.5,7931.9,7932.8
201910170359,7932.8,7933.4,7931.2,7931.9
201910170400,7931.9,7932.5,7929.6,7929.7
201910170401,7929.7,7931,7929.4,7930.7
201910170402,7930.7,7931.9,7930,7931.6
201910170403,7931.4,7932,7931.2,7931.3
201910170404,7931.3,7931.3,7928.8,7929.2
201910170405,7929.1,7929.1,7927.2,7928.2
201910170406,7928.4,7930,7928.4,7928.9
201910170407,7928.9,7929.6,7928.6,7928.6
201910170408,7928.6,7928.6,7927.1,7927.7
201910170409,7927.8,7928.8,7926.3,7927.5
201910170410,7927.5,7927.5,7926.9,7927.3
201910170411,7927.3,7927.3,7925.6,7926.9
201910170412,7926.9,7927.2,7926.4,7927
201910170413,7927,7927,7923.4,7923.7
201910170414,7923.7,7925.3,7923,7924
201910170415,7924.3,7924.3,7921.9,7922.1
201910170416,7922,7922,7919.9,7919.9
201910170417,7919.9,7920.1,7919.1,7919.4
201910170418,7919.4,7923.3,7919.2,7923.2
201910170419,7923.4,7925.6,7922.1,7922.1
201910170420,7922.1,7922.5,7921,7922.4
201910170421,7922.7,7923.8,7922.4,7923.4
201910170422,7923.4,7923.5,7921.6,7921.6
201910170423,7921.6,7922.5,7921.6,7921.9
201910170424,7921.8,7922.6,7921.4,7922.6
201910170425,7922.6,7923.5,7922.4,7923.3
201910170426,7923.3,7924.6,7923.2,7923.8
201910170427,7923.6,7923.7,7922.5,7923.4
201910170428,7923.5,7923.5,7922.8,7922.8
201910170429,7922.8,7923.7,7922,7923.3
201910170430,7923.3,7924.9,7922.4,7924.8
201910170431,7924.8,7927.1,7924.8,7926.1
201910170432,7926.1,7926.7,7925.4,7925.7
201910170433,7925.7,7926,7924.3,7924.7
201910170434,7924.6,7926.3,7924.6,7926.3
201910170435,7926.4,7927,7925.7,7926.2
201910170436,7926.2,7927.4,7925.5,7927.2
201910170437,7927.4,7928.3,7926.7,7928.3
201910170438,7928.3,7929.1,7928,7929.1
201910170439,7929.1,7930,7928.7,7929.1
201910170440,7929.1,7929.7,7928.1,7929.5
201910170441,7929.6,7930.6,7929.6,7930.4
201910170442,7930.4,7931.1,7930.1,7930.4
201910170443,7930.4,7932.1,7930.1,7930.4
201910170444,7930.4,7931.1,7925.4,7925.5
201910170445,7925.5,7928.9,7925.2,7928.6
201910170446,7928.7,7930.3,7927.9,7930
201910170447,7929.8,7931.5,7929.8,7931
201910170448,7931,7931,7929.6,7930.5
201910170449,7930.5,7930.9,7928.5,7929.2
201910170450,7929,7931.8,7928.2,7931.4
201910170451,7931.3,7931.4,7930.9,7930.9
201910170452,7930.9,7934.2,7929.2,7933.9
201910170453,7933.8,7934.1,7932.5,7934.1
201910170454,7934.1,7936.8,7933.3,7936.8
201910170455,7936.8,7936.8,7930.4,7930.6
201910170456,7931,7931.6,7928.5,7929.2
201910170457,7929.2,7932.4,7928.7,7931.5
201910170458,7931.7,7933.2,7930.9,7932.1
201910170459,7932.1,7934.1,7930.4,7933.1
201910170500,7933.4,7944.6,7926.3,7930.9
201910170501,7930.4,7936.7,7927.6,7934.8
201910170502,7934.8,7947.5,7933.9,7941.9
201910170503,7941.9,7943.3,7938.9,7939.3
201910170504,7939.3,7941,7939,7939.9
201910170505,7939.9,7940.8,7936.7,7940.8
201910170506,7940.8,7943.5,7939.9,7943.3
201910170507,7943.3,7944.5,7941.5,7942.7
201910170508,7942.7,7945.1,7942.7,7944.8
201910170509,7944.8,7945.4,7942.9,7944.1
201910170510,7943.9,7946.7,7943.9,7946.3
201910170511,7946.3,7948.6,7946.2,7948.3
201910170512,7948.3,7948.6,7945.6,7946.3
201910170513,7946.4,7948.6,7946.4,7947.8
201910170514,7947.8,7949.4,7945.9,7948.1
