日時,始値(BID),高値(BID),安値(BID),終値(BID)
201910090700,7620.5,7629.1,7620.5,7627.2
201910090701,7627.2,7627.3,7623.7,7624.1
201910090702,7624.1,7624.1,7620.6,7623.4
201910090703,7623.4,7624,7622.5,7624
201910090704,7624,7624.4,7621.4,7622.4
201910090705,7622.4,7623.6,7622.4,7623.4
201910090706,7623.3,7624.9,7623.1,7624.4
201910090707,7624.4,7627.2,7624.4,7627
201910090708,7627,7627.2,7624.6,7625.2
201910090709,7625.1,7626.3,7624.4,7625.5
201910090710,7625.5,7626,7625.2,7626
201910090711,7626,7626.2,7625.8,7626
201910090712,7626.1,7627.1,7625.8,7626.4
201910090713,7626.4,7626.5,7626,7626.2
201910090714,7626.2,7630.1,7626.2,7630.1
201910090715,7630.1,7630.7,7627.7,7627.9
201910090716,7627.9,7629.8,7627.7,7629.1
201910090717,7629.1,7629.6,7628.5,7628.5
201910090718,7628.5,7629.1,7627.8,7629.1
201910090719,7629.1,7629.1,7627.9,7628.7
201910090720,7628.8,7630.6,7628.4,7629.3
201910090721,7629.3,7629.8,7628.3,7629.1
201910090722,7629.1,7629.5,7628.8,7628.8
201910090723,7628.8,7629.3,7628.6,7629.1
201910090724,7628.8,7628.8,7627.8,7628.1
201910090725,7628.1,7628.2,7624.7,7624.7
201910090726,7624.7,7625.7,7624.7,7625.7
201910090727,7625.3,7625.9,7624.5,7624.8
201910090728,7624.8,7625.5,7624.8,7624.9
201910090729,7624.9,7625.1,7622.5,7623.6
201910090730,7623.6,7625.1,7623.6,7624.7
201910090731,7624.8,7625.8,7624.3,7625.7
201910090732,7625.7,7626,7624.5,7624.6
201910090733,7624.6,7624.6,7622.4,7622.8
201910090734,7623,7624.2,7623,7624.2
201910090735,7624.2,7625.3,7624,7625.2
201910090736,7625.2,7625.7,7624.4,7624.7
201910090737,7624.7,7625.9,7624.7,7625.8
201910090738,7625.8,7625.8,7623.4,7624.1
201910090739,7624,7624.8,7623.9,7624.3
201910090740,7624.3,7625.5,7623.9,7624.6
201910090741,7624.6,7624.7,7623.4,7623.8
201910090742,7623.8,7624.6,7623.5,7624
201910090743,7624,7625.3,7624,7625.3
201910090744,7625.3,7625.3,7623.8,7623.8
201910090745,7623.8,7625,7623.8,7624.5
201910090746,7624.5,7624.8,7624.4,7624.7
201910090747,7624.7,7624.8,7623.1,7623.3
201910090748,7623.3,7623.5,7623.1,7623.3
201910090749,7623.3,7623.3,7622.4,7622.9
201910090750,7622.9,7623.5,7622.4,7623
201910090751,7623,7623.6,7622.9,7623.3
201910090752,7623.3,7623.4,7622.3,7622.3
201910090753,7622.3,7622.5,7621.6,7621.7
201910090754,7621.7,7621.7,7619.2,7619.2
201910090755,7619.5,7620.5,7619.2,7620.5
201910090756,7620.3,7620.5,7619.5,7620.4
201910090757,7620.4,7620.8,7619.4,7619.4
201910090758,7619.5,7619.5,7619.3,7619.3
201910090759,7619.3,7619.4,7606.5,7611.1
201910090800,7611.1,7611.1,7606.4,7607.5
201910090801,7607.5,7611.6,7606.8,7611
201910090802,7611,7612,7610.1,7612
201910090803,7612,7612,7609.3,7609.8
201910090804,7609.6,7614,7608.7,7611
201910090805,7611,7611,7608.7,7608.8
201910090806,7608.8,7611.5,7608.8,7611.5
201910090807,7611.5,7614.5,7611.1,7612.4
201910090808,7612.4,7613.5,7612.4,7613.3
201910090809,7613.3,7613.4,7612.9,7613.1
201910090810,7613.2,7614.2,7612.9,7613.9
201910090811,7613.9,7616.5,7613.8,7615.9
201910090812,7615.9,7617.8,7615.8,7616.9
201910090813,7616.9,7618.8,7616.9,7618
201910090814,7618.2,7620.4,7618.1,7620.4
201910090815,7620.4,7620.8,7617.2,7618.6
201910090816,7618.6,7618.6,7616.6,7617
201910090817,7617,7617.6,7615.3,7615.9
201910090818,7615.9,7617.1,7607.6,7608.1
201910090819,7608.1,7612.6,7608.1,7612.5
201910090820,7612.5,7613.9,7610.6,7611.6
201910090821,7611.6,7617.1,7610.8,7617.1
201910090822,7616.3,7617.8,7616.3,7617
201910090823,7617,7617.3,7613.5,7613.7
201910090824,7613.8,7615.4,7612.3,7612.5
201910090825,7612.5,7613.6,7611.4,7612.1
201910090826,7612.1,7613.5,7612.1,7612.5
201910090827,7612.5,7615.3,7612.5,7614.5
201910090828,7614.5,7615.9,7614.5,7614.8
201910090829,7614.8,7616.7,7614.8,7616
201910090830,7616,7616,7612.9,7614.2
201910090831,7614,7615,7613,7613.8
201910090832,7613.8,7617.8,7613.8,7617.8
201910090833,7617.8,7617.8,7615,7616.1
201910090834,7616.1,7617.1,7614.9,7614.9
201910090835,7614.9,7616.4,7614.9,7615.9
201910090836,7615.9,7618,7615.9,7617.1
201910090837,7617.1,7617.8,7616.3,7617.1
201910090838,7616.8,7617.5,7616.6,7617.4
201910090839,7617.4,7618.6,7617.2,7618.1
201910090840,7617.7,7619,7617.5,7617.6
201910090841,7618.1,7618.6,7617.2,7618.1
201910090842,7618.1,7619,7617.2,7617.5
201910090843,7617.4,7618.1,7615.9,7615.9
201910090844,7615.9,7616.6,7612.8,7612.8
201910090845,7612.8,7617.3,7612.8,7615.8
201910090846,7615.8,7616.5,7614.6,7615.6
201910090847,7615.6,7616.1,7615.1,7615.1
201910090848,7615.1,7615.6,7614.4,7614.5
201910090849,7614.2,7615.2,7614.2,7614.8
201910090850,7614.7,7615,7614.2,7614.3
201910090851,7614.3,7615.1,7614.2,7615.1
201910090852,7615.1,7615.1,7614.2,7615.1
201910090853,7615.1,7615.1,7613.4,7614.1
201910090854,7614.1,7615,7614.1,7614.4
201910090855,7614.6,7616.5,7614.6,7616.5
201910090856,7616.5,7617.6,7616.4,7617.3
201910090857,7617.3,7617.4,7616.5,7617.1
201910090858,7617.1,7617.6,7616.1,7616.6
201910090859,7616.6,7617.3,7616.4,7616.4
201910090900,7616.4,7622.7,7616.4,7621.4
201910090901,7621.4,7624.9,7621.3,7624.9
201910090902,7624.9,7630.6,7624.6,7629.6
201910090903,7629.6,7629.6,7625.8,7626.6
201910090904,7626.7,7627.9,7626.2,7627.7
201910090905,7627.7,7627.8,7626.1,7627.1
201910090906,7627.1,7627.1,7625.5,7625.8
201910090907,7625.8,7628.1,7624.9,7625.3
201910090908,7625.3,7628.1,7624.9,7627.8
201910090909,7627.8,7633.5,7627.8,7632.2
201910090910,7632.2,7632.6,7628.7,7628.8
201910090911,7628.8,7629.1,7627.8,7628.1
201910090912,7628.2,7628.8,7627.7,7628.1
201910090913,7628.1,7628.3,7626,7627.2
201910090914,7627.2,7627.4,7625.4,7626.5
201910090915,7626.5,7626.8,7625.1,7625.6
201910090916,7625.6,7626.9,7624.8,7626.9
201910090917,7626.9,7629.8,7626.7,7628.7
201910090918,7628.7,7630.2,7628.4,7629.7
201910090919,7629.6,7631.4,7629.3,7630.5
201910090920,7630.6,7631.6,7630.4,7630.7
201910090921,7630.7,7636.4,7630.6,7633.7
201910090922,7633.7,7637.3,7633.1,7637.2
201910090923,7637.2,7637.6,7635,7637.1
201910090924,7637.4,7637.4,7635.1,7636.2
201910090925,7636.1,7636.3,7635,7636.2
201910090926,7636.2,7636.2,7633.5,7634.5
201910090927,7634.5,7634.8,7633.2,7634.7
201910090928,7634.7,7635.5,7633.7,7634.1
201910090929,7634.1,7634.7,7633.1,7633.8
201910090930,7633.8,7633.8,7630.3,7630.4
201910090931,7630.4,7632.9,7629.4,7632.9
201910090932,7632.9,7632.9,7631.6,7631.9
201910090933,7631.9,7632.3,7629.8,7629.9
201910090934,7629.9,7629.9,7628.9,7629.7
201910090935,7629.7,7631.1,7629.3,7631
201910090936,7631,7631.3,7630.4,7630.9
201910090937,7630.9,7633.7,7630.9,7631.7
201910090938,7631.9,7632.7,7631.9,7632.2
201910090939,7632.2,7632.8,7632,7632.7
201910090940,7632.7,7633,7631.2,7632.1
201910090941,7632.1,7632.8,7631.4,7631.7
201910090942,7631.6,7631.9,7631,7631.1
201910090943,7631.1,7631.6,7630.9,7631.5
201910090944,7631.5,7632.1,7630.7,7630.7
201910090945,7630.7,7631.8,7630.3,7630.4
201910090946,7630.4,7631.4,7630.3,7631.2
201910090947,7631.3,7631.7,7631.1,7631.2
201910090948,7631.1,7632,7630.9,7631.9
201910090949,7631.9,7632.1,7631.7,7631.7
201910090950,7631.7,7632.2,7630.9,7631.8
201910090951,7632,7633.2,7632,7632.9
201910090952,7632.9,7634,7632.6,7634
201910090953,7634,7634,7632.7,7633.5
201910090954,7633.5,7635.2,7633.5,7635.1
201910090955,7635.2,7642.8,7634.9,7641.2
201910090956,7641.2,7642.7,7640.3,7641.1
201910090957,7641.1,7641.5,7640.1,7640.6
201910090958,7640.6,7641,7638,7638.8
201910090959,7638.8,7639.4,7637.7,7637.7
201910091000,7637.7,7642,7637.7,7639.5
201910091001,7639.5,7639.5,7637.9,7638.5
201910091002,7638.6,7639.4,7637.9,7637.9
201910091003,7637.8,7639.1,7637.8,7638.9
201910091004,7638.9,7640.1,7638.8,7639.1
201910091005,7639.1,7639.7,7638.6,7639.7
201910091006,7639.7,7639.8,7638.1,7638.8
201910091007,7638.8,7639.6,7638.3,7639.2
201910091008,7639.2,7639.8,7638.1,7638.4
201910091009,7638.4,7639.7,7638.3,7639.4
201910091010,7639.5,7641.2,7638.6,7640.4
201910091011,7640.4,7640.8,7639.6,7640.1
201910091012,7640.1,7640.9,7638.7,7638.9
201910091013,7638.8,7638.9,7637.9,7638.2
201910091014,7638.2,7638.5,7637,7637.8
201910091015,7637.8,7639.3,7637.2,7639.1
201910091016,7639.1,7646.3,7638.4,7644.7
201910091017,7644.7,7644.8,7643.3,7643.3
201910091018,7643.3,7643.6,7642.2,7642.6
201910091019,7642.6,7642.8,7640.4,7640.8
201910091020,7640.8,7642.1,7640.3,7641.6
201910091021,7641.6,7642,7640.1,7641.2
201910091022,7641.2,7641.7,7640,7640.9
201910091023,7640.9,7641.2,7639.9,7640.2
201910091024,7640.1,7640.1,7638.8,7639.7
201910091025,7639.7,7640.4,7638.1,7638.2
201910091026,7638.2,7638.9,7637.6,7638.5
201910091027,7638.6,7639,7637.9,7638.4
201910091028,7638.4,7639.7,7638.3,7638.9
201910091029,7638.9,7640.5,7638,7638
201910091030,7638,7640,7635.4,7635.8
201910091031,7635.6,7636.5,7633.6,7635.2
201910091032,7635.1,7635.6,7634.1,7634.8
201910091033,7634.8,7634.9,7633.1,7634.2
201910091034,7634.2,7639.8,7634.2,7638.8
201910091035,7638.8,7639,7636,7636.6
201910091036,7636.6,7636.7,7635.1,7635.7
201910091037,7635.7,7635.9,7634.9,7635.6
201910091038,7635.6,7636.1,7634.6,7635.4
201910091039,7635.4,7635.7,7633.4,7634.1
201910091040,7633.9,7635.4,7633.7,7634.3
201910091041,7634.3,7635.3,7633.7,7635.3
201910091042,7635.3,7637.1,7635.1,7636.8
201910091043,7636.9,7639.1,7636.1,7637.2
201910091044,7637.2,7637.8,7636.9,7636.9
201910091045,7636.8,7637.8,7636.4,7636.8
201910091046,7636.8,7637.6,7636.1,7637.2
201910091047,7637.2,7640.6,7636.9,7640.2
201910091048,7640.1,7644,7639.7,7643.5
201910091049,7643.4,7645.8,7643.1,7645.3
201910091050,7645.4,7647.3,7644.6,7647.3
201910091051,7647.3,7647.9,7644.9,7645.7
201910091052,7645.6,7647.5,7644.4,7644.6
201910091053,7644.6,7645.8,7644,7644.8
201910091054,7644.8,7646.3,7644.6,7644.8
201910091055,7644.8,7644.9,7642.6,7643
201910091056,7643,7644.5,7643,7643.9
201910091057,7643.9,7648.3,7643.9,7647
201910091058,7647,7647.5,7646.4,7647.1
201910091059,7646.9,7647.1,7645.5,7646.2
201910091100,7646.1,7647.2,7645.7,7645.9
201910091101,7645.9,7646.8,7644.1,7644.2
201910091102,7644.3,7644.6,7641.6,7641.8
201910091103,7641.8,7643.5,7641.6,7643.4
201910091104,7643.3,7643.6,7642.2,7643.1
201910091105,7643.2,7645.5,7643.2,7645.1
201910091106,7645.1,7646.3,7644.7,7644.7
201910091107,7644.7,7645,7643.9,7644.8
201910091108,7644.8,7645,7644,7644.5
201910091109,7644.5,7644.7,7643.1,7644.7
201910091110,7644.7,7644.9,7644.1,7644.3
201910091111,7644.3,7644.9,7642.4,7642.6
201910091112,7642.6,7643.2,7641.9,7642.4
201910091113,7642.4,7643.1,7642.3,7642.9
201910091114,7642.9,7643.4,7642.2,7642.8
201910091115,7642.8,7642.8,7641.1,7641.3
201910091116,7641.3,7641.4,7640.3,7640.9
201910091117,7640.8,7640.8,7639.4,7639.4
201910091118,7639.4,7640.9,7639.4,7640.6
201910091119,7640.6,7640.7,7640,7640
201910091120,7640,7642.6,7638.2,7641.4
201910091121,7641.4,7642.4,7641.3,7642.3
201910091122,7642.3,7643.4,7642.1,7642.8
201910091123,7642.8,7644.2,7642.3,7643.9
201910091124,7643.9,7643.9,7642.2,7642.6
201910091125,7642.5,7643.1,7642.4,7642.4
201910091126,7642.4,7642.8,7642.3,7642.7
201910091127,7642.7,7644.5,7642.6,7643.1
201910091128,7643.1,7643.2,7642.3,7642.5
201910091129,7642.5,7643.2,7642.4,7642.9
201910091130,7642.9,7645.3,7642.9,7644
201910091131,7644,7648.6,7643.2,7647.9
201910091132,7647.9,7647.9,7646.5,7646.5
201910091133,7646.5,7647.4,7645.9,7647.3
201910091134,7647.3,7647.8,7646.7,7647.8
201910091135,7647.7,7647.9,7646.7,7646.7
201910091136,7646.7,7646.7,7645.7,7646.1
201910091137,7646,7646.1,7645.1,7645.3
201910091138,7645.6,7647.1,7645.6,7646.9
201910091139,7646.9,7647.1,7646.4,7646.9
201910091140,7646.9,7647.2,7646.1,7646.2
201910091141,7646.1,7648.3,7646.1,7647.6
201910091142,7647.6,7648.1,7646.1,7647.1
201910091143,7647.1,7647.4,7646.5,7647.3
201910091144,7647.3,7647.3,7646.9,7647
201910091145,7647,7648.4,7646.5,7647.7
201910091146,7647.7,7648.5,7647.6,7648.4
201910091147,7648.4,7648.5,7647.2,7647.2
201910091148,7647.2,7647.3,7645.4,7645.6
201910091149,7645.6,7645.9,7645.1,7645.6
201910091150,7645.6,7646.7,7645,7645.6
201910091151,7645.6,7646.8,7645.6,7646.3
201910091152,7646.3,7646.8,7646,7646.1
201910091153,7646.1,7646.4,7645.6,7645.7
201910091154,7645.6,7646.1,7645.4,7645.6
201910091155,7645.6,7646.1,7645,7645.2
201910091156,7645,7645.2,7644.3,7644.5
201910091157,7644.5,7644.8,7644.2,7644.6
201910091158,7644.6,7645.3,7644.1,7644.7
201910091159,7644.7,7645.9,7644.7,7645.4
201910091200,7645.4,7647.2,7645.4,7646.9
201910091201,7646.9,7646.9,7645.7,7646.6
201910091202,7646.6,7646.8,7645.4,7645.6
201910091203,7645.5,7646,7645.1,7645.1
201910091204,7645,7645.1,7643.9,7644
201910091205,7644,7644,7643.1,7643.4
201910091206,7643.4,7644.3,7643.4,7643.8
201910091207,7643.8,7644.5,7643.4,7644.1
201910091208,7644.1,7644.5,7643.8,7644.5
201910091209,7644.5,7644.5,7643.9,7644.3
201910091210,7644.3,7644.9,7644.1,7644.9
201910091211,7644.9,7645.1,7644.1,7644.7
201910091212,7644.7,7644.7,7644.1,7644.4
201910091213,7644.4,7646.1,7644.4,7645.8
201910091214,7645.8,7647.1,7645.8,7647.1
201910091215,7647.1,7647.1,7645.2,7645.2
201910091216,7645.2,7645.3,7644.5,7644.9
201910091217,7644.9,7645.6,7644.9,7645.6
201910091218,7645.4,7647.1,7644.8,7646.7
201910091219,7646.7,7646.9,7646.3,7646.6
201910091220,7646.6,7646.9,7646.1,7646.3
201910091221,7646.3,7646.9,7645.8,7645.8
201910091222,7645.8,7645.9,7645.1,7645.5
201910091223,7645.5,7645.8,7645,7645.4
201910091224,7645.3,7645.4,7644.9,7644.9
201910091225,7644.9,7645.1,7644.1,7644.1
201910091226,7644.1,7644.4,7644,7644
201910091227,7644,7644.5,7643.9,7644.4
201910091228,7644.4,7644.7,7643.9,7644.2
201910091229,7644.2,7644.2,7642.3,7642.9
201910091230,7642.9,7642.9,7641.8,7642.3
201910091231,7642.5,7642.8,7642.3,7642.5
201910091232,7642.5,7643,7642.2,7642.8
201910091233,7642.9,7642.9,7641.8,7641.8
201910091234,7641.8,7642.5,7641.8,7642.1
201910091235,7642.2,7642.3,7641.9,7642.2
201910091236,7642.2,7643.2,7642,7643
201910091237,7643.1,7643.4,7642.4,7642.4
201910091238,7642.4,7642.4,7635.6,7636.3
201910091239,7636.3,7637.9,7635.1,7635.1
201910091240,7635.1,7635.9,7634.5,7635.1
201910091241,7635.1,7637.6,7634.7,7637
201910091242,7637,7637.1,7634.1,7635.4
201910091243,7635.4,7636.8,7635.4,7636.5
201910091244,7636.5,7636.6,7635.9,7635.9
201910091245,7635.9,7637.3,7635.9,7637
201910091246,7637.1,7637.6,7637,7637.1
201910091247,7637,7637.2,7636.5,7636.5
201910091248,7636.5,7636.6,7635.3,7635.4
201910091249,7635.3,7635.8,7635.2,7635.5
201910091250,7635.6,7636.1,7634.6,7634.9
201910091251,7634.9,7635.6,7634,7635.6
201910091252,7635.6,7635.7,7635,7635.6
201910091253,7635.6,7636.9,7635.6,7636.6
201910091254,7636.7,7636.7,7635.5,7635.5
201910091255,7635.5,7636,7634.9,7635.2
201910091256,7635.4,7635.9,7635.2,7635.3
201910091257,7635.4,7636.2,7635.2,7636.1
201910091258,7636.1,7637.6,7636,7637.3
201910091259,7637.3,7639.9,7637.3,7639.6
201910091300,7639.6,7641.1,7637.4,7637.7
201910091301,7637.6,7637.9,7637.1,7637.5
201910091302,7637.5,7638.3,7637.5,7637.9
201910091303,7637.9,7638.5,7637.9,7638.2
201910091304,7638.2,7639.2,7637.8,7638.3
201910091305,7638.3,7638.6,7638.3,7638.5
201910091306,7638.5,7639.4,7638.1,7639.4
201910091307,7639.4,7639.9,7638.9,7639.6
201910091308,7639.6,7640.1,7639.4,7639.4
201910091309,7639.4,7639.4,7639,7639.4
201910091310,7639.4,7639.4,7638.8,7639.2
201910091311,7639.2,7640.4,7639.2,7640.4
201910091312,7640.4,7641,7640.4,7640.9
201910091313,7640.9,7641.4,7640.7,7640.9
201910091314,7640.9,7641.5,7640.8,7641
201910091315,7641.1,7641.1,7640.4,7640.6
201910091316,7640.6,7641,7640.3,7640.3
201910091317,7640.3,7640.7,7639.6,7639.7
201910091318,7639.7,7640.1,7638.6,7638.6
201910091319,7638.6,7639.1,7638.1,7638.3
201910091320,7638.3,7638.7,7638.1,7638.1
201910091321,7638.1,7638.6,7637.8,7637.8
201910091322,7637.9,7638.3,7637.7,7638
201910091323,7637.8,7637.9,7637.4,7637.4
201910091324,7637.4,7637.5,7636.4,7636.4
201910091325,7636.4,7636.6,7635.6,7636.4
201910091326,7636.4,7637,7636.2,7636.4
201910091327,7636.4,7637.4,7636.3,7637.4
201910091328,7637.4,7637.7,7637.4,7637.4
201910091329,7637.4,7638,7636.9,7637
201910091330,7637,7637,7634.6,7635.1
201910091331,7635,7635.2,7634,7634
201910091332,7634.3,7634.3,7631.7,7631.9
201910091333,7631.8,7632.5,7630.6,7630.8
201910091334,7630.9,7631.3,7630.5,7631.2
201910091335,7631.1,7631.3,7630.9,7630.9
201910091336,7630.9,7631.3,7630.4,7630.4
201910091337,7630.4,7630.5,7628.9,7628.9
201910091338,7628.9,7630.4,7628.6,7630.3
201910091339,7630.3,7630.3,7628.9,7629.1
201910091340,7629.1,7629.3,7626.3,7626.3
201910091341,7626.3,7626.6,7623.6,7623.9
201910091342,7623.9,7625.6,7623.7,7625.6
201910091343,7625.6,7626.4,7625.1,7626.3
201910091344,7626.3,7626.6,7625,7625.6
201910091345,7625.7,7625.7,7624,7624.1
201910091346,7624.1,7625.3,7623.5,7625.3
201910091347,7625.3,7626.1,7624.6,7624.6
201910091348,7624.6,7625.9,7624.3,7624.8
201910091349,7624.8,7625.8,7623.3,7625.8
201910091350,7625.9,7626,7624.2,7624.8
201910091351,7624.8,7626.1,7624.1,7626.1
201910091352,7626,7627.3,7624.7,7625.8
201910091353,7625.9,7629.3,7625.9,7629
201910091354,7629,7629.4,7628,7628.2
201910091355,7628.2,7629.2,7628.2,7628.6
201910091356,7628.6,7628.6,7627.2,7627.4
201910091357,7627.6,7627.6,7626.3,7626.4
201910091358,7626.4,7628.1,7626.1,7628
201910091359,7627.9,7628.8,7627.9,7628.2
201910091400,7628.2,7631.4,7628.1,7631.1
201910091401,7631.1,7632.3,7631,7632
201910091402,7632,7633.3,7631.6,7632.6
201910091403,7632.6,7632.9,7631.6,7631.9
201910091404,7631.9,7632.1,7631.3,7631.7
201910091405,7631.7,7632.9,7631.5,7632.8
201910091406,7632.8,7634.1,7632.5,7633.7
201910091407,7633.7,7634.6,7633.5,7633.9
201910091408,7633.9,7634.3,7631.2,7632.7
201910091409,7632.6,7632.8,7632,7632.3
201910091410,7632.3,7632.9,7632.3,7632.7
201910091411,7632.7,7632.7,7631,7631.1
201910091412,7631.1,7632.2,7631,7631.2
201910091413,7631.3,7632.2,7631.3,7632
201910091414,7632,7634,7632,7633.4
201910091415,7633.4,7633.8,7632.8,7633.8
201910091416,7633.8,7633.9,7633.3,7633.5
201910091417,7633.5,7633.5,7632.1,7632.1
201910091418,7632.1,7632.9,7632,7632.2
201910091419,7632.2,7632.6,7631.8,7632.3
201910091420,7632.3,7637.1,7632.3,7636.3
201910091421,7636.2,7636.6,7635.1,7635.7
201910091422,7635.6,7636.1,7635.2,7635.5
201910091423,7635.4,7635.5,7634.7,7635
201910091424,7635,7635.4,7634.8,7634.8
201910091425,7634.7,7635.4,7633.8,7634
201910091426,7634,7634,7631.6,7631.6
201910091427,7631.6,7631.6,7629.9,7630.5
201910091428,7630.5,7630.5,7629.6,7629.9
201910091429,7629.9,7629.9,7626.3,7626.3
201910091430,7626.3,7630.1,7626.3,7628.7
201910091431,7628.5,7628.9,7627.5,7628.9
201910091432,7629,7630.8,7629,7629.5
201910091433,7629.5,7630.2,7629.3,7630.2
201910091434,7630.2,7630.9,7629.3,7630
201910091435,7630,7630.5,7628.8,7628.8
201910091436,7628.8,7630,7628.5,7629.1
201910091437,7629.1,7629.5,7628.7,7628.9
201910091438,7628.9,7629.1,7628,7628.4
201910091439,7628.4,7628.9,7628.4,7628.4
201910091440,7628.4,7629.2,7628.1,7628.3
201910091441,7628.3,7628.8,7627.5,7627.6
201910091442,7627.6,7628.3,7627.4,7627.6
201910091443,7627.6,7628,7626.2,7626.8
201910091444,7626.8,7629.1,7626.8,7629
201910091445,7629,7632.3,7629,7631.3
201910091446,7631.4,7632.9,7631.4,7632.9
201910091447,7632.8,7634.3,7632.2,7633.7
201910091448,7633.7,7634,7632.9,7633.8
201910091449,7633.9,7633.9,7632.3,7633.1
201910091450,7633.1,7633.2,7631.4,7631.7
201910091451,7631.6,7632.3,7630.3,7630.5
201910091452,7630.5,7631.4,7629.9,7630.1
201910091453,7630.1,7631.2,7629.9,7630.2
201910091454,7630.2,7631.8,7629.8,7629.8
201910091455,7629.8,7630.1,7628.5,7629.9
201910091456,7629.9,7630.9,7629.3,7629.8
201910091457,7629.8,7630.7,7629.7,7630
201910091458,7630,7630.7,7629.9,7630.5
201910091459,7630.5,7632.1,7629.6,7632.1
201910091500,7632.1,7638.9,7628.7,7638
201910091501,7637.9,7637.9,7635.1,7637.2
201910091502,7637.2,7637.7,7636.1,7637.6
201910091503,7637.7,7639.9,7637.3,7639.7
201910091504,7639.7,7639.8,7637.9,7639.5
201910091505,7639.4,7640.7,7638,7638.7
201910091506,7638.7,7638.7,7637.6,7637.7
201910091507,7637.7,7638.5,7636.2,7636.5
201910091508,7636.5,7637.2,7635.8,7636.3
201910091509,7636.3,7636.9,7635.8,7636.2
201910091510,7636,7636.1,7634.6,7634.6
201910091511,7634.6,7635.3,7634.4,7634.6
201910091512,7634.7,7634.7,7633.3,7633.4
201910091513,7633.4,7633.5,7629.7,7630.6
201910091514,7630.2,7632,7630.2,7631.6
201910091515,7631.6,7631.8,7628.6,7629
201910091516,7629,7630.3,7629,7630
201910091517,7630,7630,7628.1,7628.8
201910091518,7628.8,7630.6,7628.8,7630.6
201910091519,7630.6,7631,7629.8,7629.8
201910091520,7629.9,7630.2,7629,7630.2
201910091521,7630.2,7630.9,7629.2,7629.9
201910091522,7629.9,7630.3,7629.4,7630.3
201910091523,7630.3,7631.8,7630.2,7631.5
201910091524,7631.5,7633,7631.5,7631.5
201910091525,7631.7,7634.4,7631.6,7633.5
201910091526,7633.5,7633.6,7632.8,7633.6
201910091527,7633.6,7634.1,7632.8,7632.9
201910091528,7632.9,7633.4,7631.7,7631.8
201910091529,7631.8,7631.8,7626.9,7628.5
201910091530,7628.5,7630.5,7628.5,7630.5
201910091531,7630.5,7630.5,7627.3,7627.4
201910091532,7627.4,7627.6,7626.4,7626.9
201910091533,7626.9,7629.6,7626.9,7628
201910091534,7628,7628.5,7627.5,7628.4
201910091535,7628.4,7628.4,7625.6,7625.6
201910091536,7625.6,7625.6,7617.4,7617.4
201910091537,7617.4,7619.6,7615.9,7618.6
201910091538,7618.6,7620.1,7616.6,7617
201910091539,7617,7619.6,7617,7619.3
201910091540,7619.3,7619.7,7618.4,7619.3
201910091541,7619.4,7619.8,7617.9,7618.1
201910091542,7618.1,7618.1,7612.7,7612.8
201910091543,7612.8,7616.4,7612.2,7615.5
201910091544,7615.5,7617.1,7615.3,7616.6
201910091545,7616.7,7618.9,7615.6,7618.6
201910091546,7618.6,7619.8,7617.6,7619.6
201910091547,7619.6,7619.6,7618.1,7619.1
201910091548,7619.1,7621.3,7618.6,7620.3
201910091549,7620.3,7620.5,7618.1,7619.2
201910091550,7619.2,7620.2,7618.6,7619.4
201910091551,7619.4,7620.9,7619.4,7619.9
201910091552,7619.9,7620.6,7618.4,7618.5
201910091553,7618.5,7619.6,7618.5,7619.6
201910091554,7619.6,7621.1,7619.5,7621.1
201910091555,7621.1,7623.4,7620.6,7622.4
201910091556,7622.8,7622.8,7621.6,7622.3
201910091557,7622.3,7622.9,7620.6,7622.8
201910091558,7622.8,7622.9,7620.9,7622.1
201910091559,7622.1,7622.6,7620.4,7620.4
201910091600,7620.4,7624.1,7618,7618.5
201910091601,7618.5,7620.5,7613.8,7615.8
201910091602,7615.8,7619.3,7614.1,7617.2
201910091603,7617.2,7617.4,7612,7616.2
201910091604,7616.1,7616.2,7611.2,7613.3
201910091605,7613.2,7617.8,7613.1,7615
201910091606,7615,7616.5,7613.7,7616
201910091607,7616,7616.4,7613.9,7614.2
201910091608,7614.2,7618.5,7614.2,7618.3
201910091609,7618.3,7621.3,7617.7,7618.6
201910091610,7618.6,7630.1,7618.6,7629
201910091611,7629,7631.5,7628.1,7630.8
201910091612,7630.6,7632.8,7628.1,7628.1
201910091613,7628.1,7629.9,7627.8,7628.8
201910091614,7628.8,7629.2,7625.9,7626
201910091615,7625.6,7627,7619.7,7627
201910091616,7627,7634.4,7627,7632.8
201910091617,7632.8,7633.3,7629.9,7631.5
201910091618,7631.5,7633.8,7630.6,7633.2
201910091619,7633.2,7636.3,7633.2,7635.3
201910091620,7635.3,7637,7622.2,7627.9
201910091621,7627.9,7634.7,7627.9,7631.3
201910091622,7631.3,7634.3,7630.8,7632.1
201910091623,7632.1,7636.2,7630.5,7635.8
201910091624,7636.2,7638,7634.4,7636.5
201910091625,7636.6,7636.6,7631.3,7632.6
201910091626,7632.6,7636.4,7632.6,7633.7
201910091627,7633.7,7635.1,7630.9,7634.5
201910091628,7634.5,7642.1,7634,7641.8
201910091629,7641.8,7653.7,7640.4,7651.7
201910091630,7650.9,7651.3,7644.7,7645.6
201910091631,7645.5,7646.6,7643.1,7643.6
201910091632,7643.6,7645.8,7641.5,7645.2
201910091633,7645.2,7647.6,7644.2,7646.9
201910091634,7646.9,7648.2,7645.6,7645.6
201910091635,7645.6,7647.9,7643.6,7646.8
201910091636,7646.5,7646.7,7642.6,7642.6
201910091637,7642.5,7645.6,7642.4,7644.2
201910091638,7644,7644.5,7642.6,7642.7
201910091639,7642.2,7645.3,7642.1,7645.1
201910091640,7645.1,7646.3,7642.2,7645.9
201910091641,7645.9,7650.8,7645.5,7650.7
201910091642,7650.7,7661.4,7650.7,7660.1
201910091643,7659.7,7660.1,7654.9,7657.6
201910091644,7657.6,7658.1,7655.4,7657.3
201910091645,7657.3,7657.3,7652.2,7652.5
201910091646,7652.5,7655.1,7651.6,7654.6
201910091647,7654.6,7654.8,7648.6,7648.6
201910091648,7648.6,7651.1,7647.6,7647.6
201910091649,7647.5,7651.1,7647.5,7648.8
201910091650,7648.7,7649.5,7647.6,7649.3
201910091651,7649.3,7649.3,7646.3,7648.5
201910091652,7648.5,7652.4,7647.2,7652.4
201910091653,7652.3,7652.4,7649.8,7649.9
201910091654,7649.9,7650.8,7649,7649.8
201910091655,7649.8,7650.7,7646.6,7646.8
201910091656,7646.8,7647.1,7644.9,7646.1
201910091657,7646.1,7647.6,7645.6,7646.3
201910091658,7646,7646,7642.9,7643
201910091659,7643,7643,7641,7642
201910091700,7642.1,7645.8,7641.8,7645.1
201910091701,7645.1,7645.3,7643.2,7644.1
201910091702,7644.1,7644.8,7642.4,7643.6
201910091703,7643.6,7645.3,7642.6,7644.5
201910091704,7644.5,7645.6,7643.4,7644.1
201910091705,7644.1,7644.1,7641.2,7641.7
201910091706,7641.7,7642,7636.2,7638.4
201910091707,7638.6,7642.2,7638,7641.3
201910091708,7641.4,7642,7640.1,7640.1
201910091709,7640.1,7641.2,7639.9,7640.2
201910091710,7640.1,7642,7640.1,7640.5
201910091711,7640.5,7643.5,7640.5,7643.5
201910091712,7643.6,7645.6,7642.5,7645.6
201910091713,7645.6,7652.1,7645.2,7650
201910091714,7650,7650.1,7646.7,7648.1
201910091715,7648.1,7651.1,7647.4,7651
201910091716,7651,7651,7648.3,7648.6
201910091717,7648.6,7649.7,7645.2,7645.7
201910091718,7645.7,7654.6,7645.5,7652.1
201910091719,7652.1,7657.4,7650.3,7655.9
201910091720,7655.5,7656.8,7652.7,7653.1
201910091721,7653.1,7655.3,7652.1,7652.1
201910091722,7652.1,7654,7650.9,7651.3
201910091723,7651.3,7653.1,7650.8,7651.9
201910091724,7651.9,7653.6,7650.8,7651.5
201910091725,7651.5,7654.1,7650.7,7653.3
201910091726,7653.3,7657.3,7653.1,7656.6
201910091727,7656.6,7656.8,7655.1,7655.6
201910091728,7655.6,7656.1,7654,7655.9
201910091729,7655.9,7657.3,7655,7655.6
201910091730,7655.6,7658,7652.5,7654
201910091731,7654.1,7655.9,7653.5,7653.5
201910091732,7653.5,7653.8,7651.8,7651.8
201910091733,7651.8,7653.6,7651.4,7652.1
201910091734,7652.1,7653.8,7651.7,7653.8
201910091735,7653.8,7653.8,7650.5,7650.5
201910091736,7650.5,7652.3,7650.5,7652.3
201910091737,7652.4,7652.5,7650.9,7650.9
201910091738,7650.9,7655.9,7650.9,7655.9
201910091739,7655.9,7659.3,7654.6,7658.2
201910091740,7658.2,7661.9,7657.7,7661.9
201910091741,7661.9,7662.5,7657.7,7657.9
201910091742,7657.9,7657.9,7653.7,7654.8
201910091743,7654.8,7657.6,7654.4,7657.5
201910091744,7657.5,7658.9,7656.6,7657.6
201910091745,7657.6,7660.8,7657.6,7660.3
201910091746,7660.3,7661.1,7659.7,7660.1
201910091747,7660.1,7661.2,7658,7660.7
201910091748,7660.7,7661.8,7660.4,7660.9
201910091749,7660.9,7660.9,7658.8,7660.1
201910091750,7660.1,7663.8,7659.5,7660.4
201910091751,7660.3,7660.3,7656.9,7657.9
201910091752,7657.9,7661.6,7657.9,7660.6
201910091753,7660.6,7660.6,7657.5,7659.4
201910091754,7659.4,7659.4,7656.4,7657.5
201910091755,7657.5,7664.1,7657,7661.3
201910091756,7661.4,7661.8,7659.9,7660.2
201910091757,7660.2,7660.6,7658.8,7660.1
201910091758,7660.1,7660.1,7658.8,7658.8
201910091759,7658.7,7659.4,7657.3,7657.5
201910091800,7657.4,7657.8,7656.3,7656.3
201910091801,7656.3,7658.1,7655.2,7657.8
201910091802,7657.7,7658.2,7657.2,7657.9
201910091803,7657.8,7658.8,7657.4,7657.7
201910091804,7657.7,7658.4,7657.1,7657.9
201910091805,7657.9,7660.5,7657.4,7660.5
201910091806,7660.4,7660.6,7659.4,7659.6
201910091807,7659.6,7659.6,7658.4,7658.4
201910091808,7658.4,7659.8,7657.8,7659.7
201910091809,7659.7,7660.2,7658.3,7658.3
201910091810,7658.3,7658.6,7657,7658.2
201910091811,7658.2,7693.5,7656.9,7691.6
201910091812,7691.4,7709.8,7680.2,7692.3
201910091813,7692.3,7695.7,7686.2,7690.6
201910091814,7690.6,7695.5,7688.5,7689.9
201910091815,7690.2,7699,7690.2,7694.1
201910091816,7694.1,7703.9,7694.1,7698.6
201910091817,7698.6,7701.4,7696.9,7698.4
201910091818,7698.4,7698.5,7686.2,7692.1
201910091819,7692.1,7694.6,7683.7,7687.1
201910091820,7687.1,7691.4,7687.1,7689.4
201910091821,7689,7696.6,7689,7695.2
201910091822,7695.2,7695.6,7690.1,7690.1
201910091823,7690.1,7695.1,7689.7,7695
201910091824,7694.8,7696.8,7692,7693.2
201910091825,7693.2,7699.9,7693.2,7697.8
201910091826,7697.8,7700.4,7696.8,7698.6
201910091827,7698.6,7701.2,7698.4,7700.8
201910091828,7700.8,7701.6,7694.1,7694.8
201910091829,7694.8,7698.6,7692.2,7692.5
201910091830,7689.5,7691.6,7683.6,7686.3
201910091831,7686.3,7693,7686.3,7688.5
201910091832,7688.5,7690.3,7686.2,7689.9
201910091833,7690,7691.1,7688.7,7689.8
201910091834,7689.8,7689.8,7682.8,7684.1
201910091835,7684.1,7686.8,7683.9,7685.9
201910091836,7685.9,7687.6,7684.9,7687.1
201910091837,7687.1,7689.1,7685.7,7685.9
201910091838,7685.9,7685.9,7680.4,7685.6
201910091839,7685.6,7694.1,7685.6,7690.5
201910091840,7690.5,7690.7,7686.5,7686.6
201910091841,7686.6,7688.3,7685.6,7688.1
201910091842,7688.1,7690.4,7687.2,7688.3
201910091843,7688.3,7689.6,7686.9,7688.7
201910091844,7688.7,7691.2,7686.7,7689.8
201910091845,7689.9,7693.6,7688.1,7692.2
201910091846,7692.2,7692.8,7683.6,7684
201910091847,7684,7718.2,7683.3,7701.4
201910091848,7703.4,7710,7693.1,7698.3
201910091849,7698.3,7701,7691.3,7696.9
201910091850,7696.9,7696.9,7684.2,7690.7
201910091851,7690.7,7692.9,7687.4,7690.9
201910091852,7690.9,7693.2,7687.8,7690.3
201910091853,7690.3,7695.4,7689.7,7693.2
201910091854,7692.6,7700.1,7691.3,7698.1
201910091855,7698.1,7702.9,7696.8,7697.3
201910091856,7697.3,7702,7697.3,7698
201910091857,7698,7701.1,7696.1,7700.5
201910091858,7700.5,7706,7699.8,7702.7
201910091859,7702.7,7704.8,7700.8,7703.8
201910091900,7703.8,7705.1,7696.2,7696.9
201910091901,7696.6,7699.8,7695.3,7695.3
201910091902,7695.3,7695.3,7689.5,7691.5
201910091903,7691.5,7693.2,7690.1,7692.2
201910091904,7692.2,7692.6,7688.8,7689.5
201910091905,7689.5,7690.1,7687.3,7688.6
201910091906,7688.6,7688.6,7686,7687.4
201910091907,7687.3,7689.3,7686.1,7688.1
201910091908,7688.1,7691.3,7686.9,7689.5
201910091909,7689.5,7689.5,7686.2,7686.6
201910091910,7686.6,7688.8,7682.2,7684.7
201910091911,7684.7,7686.6,7683.9,7683.9
201910091912,7683.9,7686.3,7683.8,7684.3
201910091913,7684.3,7685.3,7683,7684.2
201910091914,7684.2,7685.9,7684.1,7684.6
201910091915,7684.6,7685.4,7682.5,7685.1
201910091916,7685.3,7686.8,7684.8,7686.3
201910091917,7686.3,7688.1,7685.8,7687
201910091918,7687,7689.6,7686.8,7689
201910091919,7689,7689.3,7687.3,7687.9
201910091920,7687.9,7688.1,7686.2,7686.8
201910091921,7686.8,7690.9,7686.3,7690.2
201910091922,7690.2,7694.1,7689.9,7693.5
201910091923,7693.4,7693.4,7691.2,7691.3
201910091924,7691.3,7692.1,7689.7,7691
201910091925,7691,7693.1,7690.9,7691.9
201910091926,7691.9,7699.6,7691.4,7697.4
201910091927,7697.4,7698.2,7696,7697.4
201910091928,7697.4,7705.1,7697,7697
201910091929,7697,7701.7,7696.9,7698.3
201910091930,7698.3,7699.4,7694.5,7694.8
201910091931,7694.8,7696.6,7691.1,7693.7
201910091932,7693.7,7699.1,7693.6,7698.6
201910091933,7698.6,7701.7,7698.2,7699.4
201910091934,7699.4,7701.3,7698,7700.1
201910091935,7700.1,7702.8,7699.3,7701.7
201910091936,7701.7,7703.8,7700.2,7703.6
201910091937,7703.3,7704,7699.7,7700.5
201910091938,7700.5,7701.8,7698.4,7701.8
201910091939,7701.8,7701.8,7699.2,7699.6
201910091940,7699.6,7700,7696.2,7698.1
201910091941,7698.1,7699.9,7697.5,7698.3
201910091942,7698.3,7701.2,7698.3,7700.8
201910091943,7700.8,7701.4,7699.5,7701.2
201910091944,7701,7702.1,7699.6,7700.9
201910091945,7700.9,7703.1,7700.8,7701.8
201910091946,7701.9,7705,7699.1,7700.3
201910091947,7700.3,7702.5,7699.7,7701.9
201910091948,7701.9,7702.6,7700,7700
201910091949,7700,7701.2,7698.9,7698.9
201910091950,7698.9,7699.6,7696.6,7698.5
201910091951,7698.5,7699.4,7697.6,7697.9
201910091952,7697.9,7698,7693.4,7696.1
201910091953,7696.1,7700.3,7696,7699.8
201910091954,7699.8,7700.3,7698.4,7698.9
201910091955,7698.9,7699.3,7698,7698.6
201910091956,7698.6,7698.6,7695.3,7696.5
201910091957,7696.5,7701,7696.5,7700.8
201910091958,7700.8,7701.6,7698.7,7700.4
201910091959,7700.4,7700.4,7696.5,7696.5
201910092000,7696.5,7697.3,7691.2,7691.4
201910092001,7691.4,7695.8,7691,7693.8
201910092002,7694,7694.8,7690.1,7690.3
201910092003,7690.3,7690.6,7688.2,7688.9
201910092004,7688.9,7690.3,7687.2,7688.5
201910092005,7688.9,7690.4,7688.4,7689.3
201910092006,7689.3,7690.3,7688.4,7688.6
201910092007,7688.6,7690.6,7688.4,7690.2
201910092008,7690.2,7690.4,7689.3,7690
201910092009,7690,7691.3,7689.4,7690.6
201910092010,7690.6,7690.6,7689.1,7690.1
201910092011,7690.1,7690.2,7688.2,7688.9
201910092012,7688.9,7689.3,7687.9,7688.9
201910092013,7688.9,7689.3,7687.6,7687.9
201910092014,7687.9,7692.1,7687.9,7691.9
201910092015,7692.1,7695,7691.2,7694.9
201910092016,7694.9,7695.3,7693,7693.2
201910092017,7693.2,7693.3,7692.3,7693
201910092018,7693,7693.1,7691.9,7692.4
201910092019,7692.4,7693.1,7691.3,7693
201910092020,7693,7700.3,7692.9,7699.3
201910092021,7699.1,7700.3,7697.2,7699.1
201910092022,7699.1,7701.6,7697,7699.2
201910092023,7699.2,7699.3,7697.4,7697.9
201910092024,7698,7702,7698,7702
201910092025,7702,7703.5,7700.3,7700.6
201910092026,7700.6,7700.8,7699.8,7699.8
201910092027,7699.8,7701.3,7699.8,7700.6
201910092028,7700.6,7702.1,7699.9,7701.3
201910092029,7701.4,7702.4,7700.4,7701.2
201910092030,7701.4,7701.9,7699.6,7700.1
201910092031,7700.1,7700.4,7698.1,7698.3
201910092032,7698.3,7698.8,7696.2,7696.5
201910092033,7696.5,7697.1,7695.4,7696.8
201910092034,7696.8,7697.9,7696.1,7697.4
201910092035,7697.4,7698.1,7696.6,7697.1
201910092036,7697.1,7697.9,7696.9,7697.4
201910092037,7697.5,7698.4,7697.1,7697.1
201910092038,7697.1,7698.2,7696.8,7697.8
201910092039,7698.1,7698.4,7696.8,7698.3
201910092040,7698.3,7699.1,7697.4,7697.5
201910092041,7697.5,7697.5,7694.8,7695.2
201910092042,7695.2,7696.1,7694.7,7695.7
201910092043,7695.7,7695.7,7693.7,7694.4
201910092044,7694.4,7695.2,7694,7694.1
201910092045,7694.1,7696.8,7694.1,7696.8
201910092046,7696.7,7696.7,7694.4,7694.4
201910092047,7694.4,7697.6,7694.3,7697.6
201910092048,7697.6,7699,7696.6,7699
201910092049,7699,7699,7694.7,7696.9
201910092050,7696.8,7697.2,7693.7,7693.9
201910092051,7693.9,7694.3,7692.8,7693.3
201910092052,7693.2,7696.8,7693.2,7696.2
201910092053,7696.2,7698.1,7695.9,7697.3
201910092054,7697.3,7699.8,7696.9,7699.6
201910092055,7699.6,7702.3,7699.2,7699.3
201910092056,7699.3,7700.6,7699.3,7699.9
201910092057,7699.9,7701.1,7698.6,7701.1
201910092058,7701.1,7701.8,7699.6,7700.4
201910092059,7700.4,7702.6,7698.6,7702.2
201910092100,7702.2,7705,7698.4,7701.2
201910092101,7700.9,7702.5,7699.4,7701.9
201910092102,7701.9,7702.8,7698.7,7699.3
201910092103,7699.3,7706.1,7698.2,7705
201910092104,7705.6,7706.6,7704.2,7704.7
201910092105,7704.7,7705.3,7702.1,7703.7
201910092106,7703.7,7705.1,7700.6,7700.6
201910092107,7700.6,7701.2,7699.7,7699.9
201910092108,7699.8,7700.7,7697.6,7698.2
201910092109,7698.2,7699.3,7696.3,7696.3
201910092110,7696.4,7699.1,7696.4,7697.7
201910092111,7697.7,7699.3,7696.4,7696.5
201910092112,7696.5,7698.8,7696.5,7696.7
201910092113,7696.7,7700.3,7695.9,7698.2
201910092114,7698.2,7699.1,7695.9,7696.8
201910092115,7696.8,7697.4,7696.4,7696.9
201910092116,7696.9,7697.9,7696,7697.3
201910092117,7697.3,7697.8,7696.2,7697.5
201910092118,7697.5,7697.7,7696.4,7696.4
201910092119,7696.4,7699.6,7696.4,7698.8
201910092120,7698.8,7700,7696.9,7697.1
201910092121,7697.1,7697.7,7696.3,7696.3
201910092122,7696.3,7696.3,7691.7,7693.8
201910092123,7693.8,7693.9,7691.2,7692.8
201910092124,7692.8,7694.1,7692.8,7693.4
201910092125,7693.4,7693.7,7691.2,7692.1
201910092126,7692.1,7692.6,7690.6,7690.8
201910092127,7690.8,7691.9,7689.1,7690
201910092128,7690,7690.6,7689.3,7690.3
201910092129,7690.3,7691.2,7690,7690.9
201910092130,7690.9,7693.3,7689.6,7693.1
201910092131,7693,7693.5,7692.1,7692.9
201910092132,7692.9,7692.9,7689.3,7691.3
201910092133,7691.3,7692.3,7690.6,7691.3
201910092134,7691.3,7691.4,7689.9,7690.6
201910092135,7690.6,7691.8,7688.5,7689.6
201910092136,7689.6,7690.3,7689,7689.2
201910092137,7688.9,7691.3,7688.3,7690.8
201910092138,7690.8,7690.8,7689.2,7689.7
201910092139,7689.7,7691.3,7687.1,7687.1
201910092140,7687.1,7688.7,7683.7,7685
201910092141,7685,7685.7,7684.2,7684.5
201910092142,7684.6,7684.9,7681.4,7682.1
201910092143,7681.7,7681.8,7679.6,7680.1
201910092144,7680.2,7684.7,7680.2,7684.7
201910092145,7684.7,7686.7,7684.6,7686.6
201910092146,7686.6,7686.6,7683.5,7684.5
201910092147,7684.6,7686.7,7684.4,7684.8
201910092148,7684.8,7685.2,7682.9,7682.9
201910092149,7682.9,7684.5,7682.5,7683.7
201910092150,7683.7,7686.9,7683.3,7683.8
201910092151,7683.8,7683.8,7680.8,7683.5
201910092152,7683.5,7685.3,7682.1,7683.6
201910092153,7683.6,7685.3,7683.6,7685
201910092154,7684.9,7685.1,7684.3,7684.7
201910092155,7684.7,7688,7684.7,7687
201910092156,7687,7687.7,7685.7,7686.2
201910092157,7686.2,7686.3,7684.6,7684.6
201910092158,7684.6,7687.9,7684.5,7687.5
201910092159,7687.2,7688.3,7685.6,7687.1
201910092200,7687.1,7687.3,7684.4,7685.1
201910092201,7685.1,7686.2,7684.1,7684.8
201910092202,7684.9,7685.3,7683.4,7684
201910092203,7684,7685.3,7683.5,7684.1
201910092204,7684.1,7684.3,7682.8,7683.6
201910092205,7683.6,7683.6,7681.5,7682.4
201910092206,7682.5,7685.8,7682.5,7684.4
201910092207,7684.4,7684.8,7683.3,7683.3
201910092208,7683.3,7683.4,7681.1,7682.6
201910092209,7682.6,7683.9,7682.4,7683.7
201910092210,7683.9,7684.1,7682.3,7682.3
201910092211,7682.3,7682.6,7674.9,7677.2
201910092212,7677.2,7678.8,7676.2,7677.6
201910092213,7677.6,7677.6,7672,7672.5
201910092214,7672.4,7676.3,7672.4,7676.3
201910092215,7676.3,7676.7,7674.8,7676.1
201910092216,7676.1,7679.9,7675.9,7679.9
201910092217,7679.9,7682.6,7679.1,7681.9
201910092218,7681.9,7682.8,7681.6,7682.6
201910092219,7682.6,7684.6,7682.3,7684.1
201910092220,7684.1,7685.5,7683.9,7684.4
201910092221,7684.4,7684.4,7682.7,7682.7
201910092222,7682.7,7682.8,7682,7682.2
201910092223,7682.2,7684,7682.2,7682.5
201910092224,7682.5,7683.3,7681.6,7683.1
201910092225,7683.1,7683.8,7682,7683.1
201910092226,7682.8,7683.1,7680.8,7681.1
201910092227,7681.1,7681.1,7679.2,7680.3
201910092228,7680.3,7685.1,7680.3,7683.3
201910092229,7683.3,7683.8,7681.8,7682.5
201910092230,7683.9,7691.4,7680.8,7683
201910092231,7683,7686.4,7679.4,7680.1
201910092232,7679.9,7687.1,7679.1,7683.7
201910092233,7683.8,7687.4,7679.7,7679.7
201910092234,7679.8,7679.8,7671.2,7672.6
201910092235,7673,7681.3,7670.3,7677.1
201910092236,7676.8,7679.3,7675.9,7676.4
201910092237,7676.4,7677.4,7673.3,7675.7
201910092238,7675.7,7679.4,7674.5,7678.6
201910092239,7678.7,7687.3,7678.7,7685
201910092240,7685,7692.3,7685,7691.2
201910092241,7691.2,7694.4,7689.8,7691.2
201910092242,7691,7696.6,7691,7692.1
201910092243,7692.1,7692.6,7687.1,7690.6
201910092244,7690.7,7694.3,7682.9,7685.2
201910092245,7684.9,7691.2,7684.4,7689.4
201910092246,7689.4,7693.3,7688.3,7692.9
201910092247,7693,7695.8,7692.2,7694.6
201910092248,7694.6,7695,7689.8,7691.3
201910092249,7691.3,7692.3,7688.1,7688.8
201910092250,7688.8,7690.8,7683,7685.7
201910092251,7685.9,7686.9,7682.5,7683.6
201910092252,7683.6,7684.4,7673,7673
201910092253,7673,7673.2,7661.9,7669.8
201910092254,7669.6,7672.9,7667.4,7668.5
201910092255,7668.5,7672.2,7667.7,7668
201910092256,7668,7672.5,7667.5,7672.4
201910092257,7672.4,7676.1,7670.8,7672.8
201910092258,7672.8,7675,7671.2,7672.2
201910092259,7672.1,7674.6,7671.9,7673.3
201910092300,7673.3,7684.8,7671.8,7682.6
201910092301,7682.6,7686.8,7671.1,7676.4
201910092302,7676.4,7679.3,7674.4,7676.8
201910092303,7676.6,7678.4,7673.1,7676.1
201910092304,7676,7679,7674.3,7677.6
201910092305,7677.6,7682.1,7677.6,7680.9
201910092306,7681.1,7683.1,7679.4,7680.8
201910092307,7680.8,7683.7,7676.7,7677.1
201910092308,7677.1,7681.1,7676.4,7679.8
201910092309,7679.9,7682.8,7677.8,7678.8
201910092310,7678.6,7680.9,7676.2,7678.9
201910092311,7678.9,7685.4,7676.9,7683.4
201910092312,7683,7686.5,7682.9,7683.4
201910092313,7683.4,7684.3,7679.1,7679.1
201910092314,7679.1,7679.1,7669.3,7671.9
201910092315,7672.3,7676,7671.3,7672.4
201910092316,7672.4,7676.6,7672.4,7675.3
201910092317,7675.3,7677.3,7674.7,7676.3
201910092318,7675.4,7682.3,7675.1,7680.6
201910092319,7680.6,7684,7680.6,7683
201910092320,7683.1,7687.4,7680.8,7680.8
201910092321,7681.2,7685.1,7680.4,7684.2
201910092322,7684.2,7687.1,7683.7,7684.8
201910092323,7684.8,7689.7,7684.7,7687.9
201910092324,7687.7,7688.2,7684.4,7686.9
201910092325,7686.9,7687.8,7683.4,7684
201910092326,7684.1,7686.3,7682.5,7685.3
201910092327,7685.1,7687.1,7683.9,7686.5
201910092328,7686.5,7687.1,7683.3,7683.6
201910092329,7683.6,7688.1,7682.7,7686.8
201910092330,7686.8,7691.9,7685.1,7685.8
201910092331,7685.8,7686.8,7683,7686
201910092332,7686,7690.5,7685.2,7689.3
201910092333,7689.4,7689.8,7687.1,7688.8
201910092334,7688.9,7689.7,7686.2,7686.2
201910092335,7686.2,7686.6,7684.1,7684.7
201910092336,7684.7,7688.8,7683.7,7688.1
201910092337,7688.2,7688.3,7685.2,7685.4
201910092338,7685.4,7686.3,7683.4,7683.4
201910092339,7683.4,7683.8,7680.3,7683.1
201910092340,7683.3,7685.7,7682.8,7684.2
201910092341,7684.2,7686.4,7682.4,7683.4
201910092342,7683.4,7686.3,7682.4,7685.8
201910092343,7685.8,7688.5,7685.8,7686.8
201910092344,7686.8,7689.4,7686.2,7687.7
201910092345,7687.7,7692.4,7687.6,7692
201910092346,7691.9,7692.5,7689.9,7689.9
201910092347,7689.9,7691.4,7686.2,7688.3
201910092348,7688.4,7690.8,7688.2,7689.3
201910092349,7689.3,7690.8,7687.4,7688.2
201910092350,7688.1,7690.1,7687.4,7688.9
201910092351,7688.9,7688.9,7685.6,7686.4
201910092352,7686.4,7687.8,7684.6,7686.4
201910092353,7686.4,7686.8,7682.3,7683.4
201910092354,7683.4,7686.6,7682.9,7684.6
201910092355,7684.4,7687,7680.7,7686.5
201910092356,7686.5,7688.3,7686.4,7687.3
201910092357,7687.3,7687.9,7686,7687.3
201910092358,7687.4,7688.1,7685.5,7688.1
201910092359,7688.1,7691,7688.1,7691
201910100000,7691,7696.4,7684.6,7686.2
201910100001,7685.8,7687.6,7675.1,7676.6
201910100002,7676.6,7680.1,7671.3,7674.8
201910100003,7674.8,7680.8,7674.1,7678.5
201910100004,7678.5,7680.7,7678,7679.6
201910100005,7679.6,7682.3,7678.7,7679.7
201910100006,7679.7,7679.7,7676.9,7678.2
201910100007,7678.2,7680.3,7673.8,7674.1
201910100008,7674.2,7676,7672.7,7674.1
201910100009,7674.1,7677.8,7673.9,7677.7
201910100010,7677.7,7679.5,7674.3,7676.9
201910100011,7676.9,7677.8,7674.8,7674.8
201910100012,7674.8,7675.2,7671.9,7673.5
201910100013,7673.7,7676.6,7670.4,7672.1
201910100014,7672.1,7675.9,7671.9,7673.4
201910100015,7673.4,7678,7671.5,7676.4
201910100016,7676.3,7677.8,7673.9,7677.4
201910100017,7677.4,7680,7676.4,7680
201910100018,7680,7684.5,7678.8,7684.4
201910100019,7684.3,7684.4,7679.6,7680.6
201910100020,7680.6,7680.8,7678.6,7679.8
201910100021,7679.8,7681.3,7677.7,7678.3
201910100022,7679.1,7680,7678.4,7678.4
201910100023,7678.5,7683.8,7678.4,7682
201910100024,7681.9,7682.4,7678.6,7680.5
201910100025,7680.8,7682,7678.2,7678.6
201910100026,7678.6,7680.8,7677.6,7678.5
201910100027,7678.5,7680.6,7678.2,7678.9
201910100028,7678.9,7680.8,7678.1,7679.1
201910100029,7679.1,7679.9,7675.3,7679.2
201910100030,7679.2,7682.4,7677.2,7679
201910100031,7679,7683.7,7679,7683.7
201910100032,7683.6,7686.8,7683.2,7686.1
201910100033,7686,7686,7683.8,7684.9
201910100034,7684.8,7687.2,7684.4,7686.6
201910100035,7686.7,7686.7,7683.2,7684
201910100036,7684.1,7685.9,7683.6,7685.3
201910100037,7685.3,7686.7,7684.3,7686.3
201910100038,7686.2,7689.1,7685.1,7688.2
201910100039,7688.2,7691.9,7687.7,7687.7
201910100040,7687.7,7688.8,7685.4,7688.6
201910100041,7688.6,7689.6,7688.4,7689.3
201910100042,7689.4,7693.5,7689.4,7692.8
201910100043,7692.8,7694.1,7691.5,7692.5
201910100044,7692.7,7693.4,7690.2,7691.8
201910100045,7691.8,7698.2,7691.8,7697.5
201910100046,7697.5,7704.9,7697.1,7703.8
201910100047,7703.4,7705.1,7700.1,7700.4
201910100048,7700.3,7702.7,7698.7,7702.7
201910100049,7702.7,7703.3,7700.9,7701.5
201910100050,7701.5,7704.2,7701.5,7702.9
201910100051,7702.9,7706.2,7702.4,7703
201910100052,7703.1,7703.5,7700.3,7701.8
201910100053,7701.8,7702.1,7700.6,7701.2
201910100054,7701,7701.6,7699.4,7700.1
201910100055,7700.1,7702.1,7697.4,7698.8
201910100056,7698.8,7700.5,7695.5,7696.8
201910100057,7696.9,7698.9,7696.8,7698.6
201910100058,7698.5,7699,7696.9,7697.5
201910100059,7697.4,7698.1,7695.6,7695.8
201910100100,7695.9,7699.5,7695.9,7698.5
201910100101,7698.5,7699.5,7698.2,7698.7
201910100102,7698.7,7699.3,7697,7698.1
201910100103,7698.1,7699,7696.1,7699
201910100104,7699,7700.8,7698.8,7700.4
201910100105,7700.3,7701.1,7698.7,7701.1
201910100106,7700.9,7703.7,7700.9,7703.7
201910100107,7703.7,7704.2,7700.7,7702.7
201910100108,7702.7,7704.4,7702.4,7703.7
201910100109,7703.9,7703.9,7699.6,7700.6
201910100110,7700.6,7701.3,7699.4,7700.5
201910100111,7700.6,7702.5,7700,7701.8
201910100112,7701.9,7702.2,7700.4,7700.8
201910100113,7700.8,7703.6,7700,7701.9
201910100114,7701.9,7704.8,7701.9,7704.8
201910100115,7704.7,7705.2,7702.2,7703.4
201910100116,7703.4,7703.5,7700.4,7700.4
201910100117,7700.7,7701.5,7698.9,7700.2
201910100118,7700,7701.2,7697,7698.3
201910100119,7698.3,7698.5,7696.6,7698.4
201910100120,7698.4,7700.1,7697.9,7699.1
201910100121,7699.1,7701.5,7698,7700.7
201910100122,7700.7,7702,7700.4,7700.8
201910100123,7700.8,7701.1,7698.7,7700.8
201910100124,7700.6,7700.9,7698.9,7700.2
201910100125,7700.2,7700.8,7698.9,7699.1
201910100126,7699.1,7699.7,7697.9,7698.1
201910100127,7698.1,7699.6,7696.7,7699.1
201910100128,7699.1,7699.1,7693.4,7695.5
201910100129,7695.6,7697,7695.3,7696.3
201910100130,7696.3,7700.5,7696.3,7699.2
201910100131,7699.2,7700.7,7698.4,7699.9
201910100132,7700,7702.5,7699.6,7701.8
201910100133,7701.8,7703.8,7701.2,7702.5
201910100134,7702.5,7704.8,7700.9,7704.2
201910100135,7704.1,7708.3,7704.1,7707.8
201910100136,7707.9,7707.9,7704.9,7705.7
201910100137,7705.7,7706.2,7704.9,7705.6
201910100138,7705.7,7706.2,7702.6,7702.9
201910100139,7702.9,7704.8,7702.6,7703.1
201910100140,7703.1,7704,7702.4,7703.9
201910100141,7703.8,7704.6,7702.5,7704.1
201910100142,7704.1,7704.8,7702.9,7702.9
201910100143,7702.8,7704.5,7702.7,7704.5
201910100144,7704.6,7704.8,7703.1,7704.6
201910100145,7704.5,7704.5,7700.4,7700.6
201910100146,7700.6,7701.2,7698.8,7701.2
201910100147,7701.2,7702.8,7701.2,7702.5
201910100148,7702.5,7702.7,7700.9,7700.9
201910100149,7701,7702.6,7699.9,7702.4
201910100150,7702.4,7702.8,7698.9,7699.6
201910100151,7699.6,7699.8,7698.4,7698.8
201910100152,7698.7,7699.8,7697.2,7697.4
201910100153,7697.4,7699.9,7696.4,7698.1
201910100154,7698.1,7699.7,7696.8,7698.7
201910100155,7698.7,7701.7,7698.6,7701.7
201910100156,7701.7,7702.3,7700.9,7702.3
201910100157,7702.3,7703.8,7702.1,7703.6
201910100158,7703.6,7706.9,7703.6,7706
201910100159,7706,7707,7704.7,7706.5
201910100200,7706.5,7719.8,7706.5,7717.3
201910100201,7717.2,7717.6,7712.2,7713.7
201910100202,7713.7,7714.1,7710.5,7711.6
201910100203,7712.3,7713.2,7709.1,7710.4
201910100204,7709.7,7710.3,7705.3,7707.6
201910100205,7707.7,7707.7,7701.3,7702.4
201910100206,7702.4,7705.3,7702.2,7704.1
201910100207,7704.1,7705.3,7702.5,7704.6
201910100208,7704.6,7704.6,7702.9,7703.8
201910100209,7703.8,7704.5,7702.2,7703.3
201910100210,7703.3,7703.3,7698.4,7699.5
201910100211,7699.5,7703.8,7699.1,7701
201910100212,7701,7703.6,7700.3,7701.2
201910100213,7701.2,7701.8,7698.8,7700.3
201910100214,7699.9,7702.5,7699.9,7700.9
201910100215,7700.9,7702.3,7699.4,7702
201910100216,7702,7702.1,7699.1,7699.6
201910100217,7699.6,7699.6,7696.1,7698
201910100218,7698,7698.6,7695.1,7695.9
201910100219,7695.7,7697.9,7695.7,7696.2
201910100220,7696,7697.6,7693.8,7697.2
201910100221,7697.2,7698.4,7696.5,7696.9
201910100222,7696.9,7697.5,7696.4,7696.8
201910100223,7696.8,7697.2,7695.5,7696.1
201910100224,7696.1,7697.8,7695.4,7697.6
201910100225,7697.6,7699.3,7697.4,7697.9
201910100226,7697.9,7699,7697.2,7697.8
201910100227,7697.8,7698.5,7696.7,7696.8
201910100228,7696.9,7698.3,7696.6,7697.7
201910100229,7697.7,7700.1,7697.7,7698.2
201910100230,7698.1,7700,7697.2,7699.5
201910100231,7699.5,7700.1,7698.2,7699.5
201910100232,7699.5,7700.3,7698.9,7699.6
201910100233,7699.5,7701.5,7699,7701.5
201910100234,7701.5,7701.6,7699.9,7700.3
201910100235,7700.4,7701.5,7700.2,7700.9
201910100236,7700.9,7703.2,7700.6,7702.8
201910100237,7702.8,7703.4,7700.7,7701.6
201910100238,7701.6,7702.5,7701.1,7701.4
201910100239,7701.4,7703,7700.9,7702.3
201910100240,7702.3,7704.6,7700.6,7704.1
201910100241,7704.3,7704.9,7704.1,7704.3
201910100242,7704.3,7704.4,7701.4,7703
201910100243,7703,7703.3,7701.8,7702.4
201910100244,7702.4,7703.4,7702.1,7702.9
201910100245,7702.8,7704.6,7702.6,7703.3
201910100246,7703.3,7705.4,7701.8,7704.8
201910100247,7704.8,7705.5,7704.1,7704.2
201910100248,7704,7706,7703.9,7705.8
201910100249,7705.8,7708.4,7705.6,7707.4
201910100250,7707.6,7710.4,7706.2,7708.7
201910100251,7708.7,7709.7,7708,7709.4
201910100252,7709.4,7710.8,7709.3,7710.3
201910100253,7710.2,7710.2,7707.4,7707.9
201910100254,7707.8,7708.1,7706.6,7706.8
201910100255,7706.8,7706.8,7704,7704.8
201910100256,7705.2,7706.6,7704.8,7706.1
201910100257,7706.1,7706.6,7704.9,7705.6
201910100258,7705.6,7705.6,7704.3,7705.1
201910100259,7705.1,7705.1,7703.9,7704
201910100300,7704,7705.1,7699.6,7703.6
201910100301,7703.6,7710.1,7701.6,7701.6
201910100302,7701.7,7703.4,7700.1,7701.6
201910100303,7701.6,7704.1,7701.2,7701.8
201910100304,7701.9,7702.2,7697.1,7697.9
201910100305,7697.9,7705.6,7697.9,7701.8
201910100306,7701.9,7705.6,7701.9,7703.4
201910100307,7703.4,7705.6,7701.6,7703.9
201910100308,7703.9,7704.8,7702.7,7703.4
201910100309,7703.4,7704.9,7702.2,7703.1
201910100310,7703.1,7705.6,7701.1,7704.6
201910100311,7704.6,7706.8,7704,7705.5
201910100312,7705.5,7708.8,7705.2,7707.3
201910100313,7707.3,7708,7705.4,7705.8
201910100314,7705.5,7708.5,7704.9,7706.4
201910100315,7706.4,7708.8,7704.7,7707.1
201910100316,7707,7708.9,7706.1,7706.1
201910100317,7706.3,7708.7,7705.3,7708.7
201910100318,7708.7,7712.3,7708.4,7711
201910100319,7711.2,7711.2,7709.4,7710.1
201910100320,7710.1,7712.7,7709,7711.4
201910100321,7711.5,7711.5,7709,7711
201910100322,7711,7713.6,7709.7,7713.1
201910100323,7713.8,7714.5,7710.1,7710.9
201910100324,7710.8,7711.8,7709.9,7711
201910100325,7711,7711.7,7709.2,7709.2
201910100326,7709.2,7709.9,7707.9,7709.7
201910100327,7709.9,7710.8,7708.2,7708.2
201910100328,7708.2,7710.7,7707.9,7708.9
201910100329,7708.9,7709.7,7708.5,7708.6
201910100330,7708.6,7711.5,7708.6,7711.2
201910100331,7711.2,7712.1,7710.3,7711.4
201910100332,7711.3,7712.3,7709.8,7711.6
201910100333,7711.6,7713.5,7711.2,7713.2
201910100334,7713.2,7714.3,7711,7711.2
201910100335,7711.2,7713.2,7711.2,7713
201910100336,7713,7714.5,7712.7,7712.9
201910100337,7712.9,7713.6,7711.7,7712.3
201910100338,7712.3,7713,7711.2,7711.2
201910100339,7711.4,7716.6,7711.4,7715.8
201910100340,7715.8,7718.2,7715.3,7717.2
201910100341,7717.2,7717.2,7714.6,7714.9
201910100342,7714.8,7717,7714.7,7716.6
201910100343,7716.6,7716.7,7714.9,7714.9
201910100344,7714.9,7715.8,7713.1,7715.7
201910100345,7715.7,7716.9,7714.6,7715.3
201910100346,7715.3,7717.5,7715.3,7716.6
201910100347,7716.7,7717.2,7716.1,7717.2
201910100348,7717.4,7718.3,7716.2,7716.2
201910100349,7716.2,7716.3,7715.2,7715.6
201910100350,7715.6,7718.2,7715.6,7716.3
201910100351,7716.6,7717.7,7716.1,7716.7
201910100352,7716.7,7718.5,7716.1,7718.5
201910100353,7718.5,7718.8,7717.4,7718.1
201910100354,7718.2,7726.9,7717.3,7725.8
201910100355,7725.8,7726.4,7720.6,7721.1
201910100356,7720.9,7721.1,7718.4,7718.9
201910100357,7718.9,7720.6,7718.9,7719.5
201910100358,7719.1,7720.8,7719,7720.4
201910100359,7720.4,7722.5,7719.7,7722
201910100400,7722,7723.4,7720.3,7721
201910100401,7721.1,7724.1,7720.6,7723.6
201910100402,7723.7,7727.6,7723.1,7725.2
201910100403,7725.2,7725.3,7723.1,7724
201910100404,7724,7725.3,7723.9,7724.8
201910100405,7724.8,7725.8,7724.2,7724.3
201910100406,7724.3,7725.3,7723.7,7724.4
201910100407,7724.4,7726.5,7724.4,7726.5
201910100408,7726.5,7726.5,7725.6,7725.8
201910100409,7725.8,7727.3,7725.6,7726.2
201910100410,7726.2,7727.2,7725.9,7726.5
201910100411,7726.5,7727.1,7724.7,7725
201910100412,7725,7725.9,7724.7,7724.7
201910100413,7724.7,7725.4,7722.8,7725
201910100414,7725,7725.5,7722.5,7722.9
201910100415,7723,7725.3,7722.4,7724.1
201910100416,7724.1,7724.9,7723.6,7724.8
201910100417,7724.8,7725,7722.9,7724.5
201910100418,7724.5,7724.8,7723.4,7723.6
201910100419,7723.7,7724.6,7723.7,7724.1
201910100420,7724.2,7724.5,7722.2,7722.4
201910100421,7722.4,7722.6,7720.9,7720.9
201910100422,7720.9,7721.3,7719.7,7720
201910100423,7720,7721.9,7719.5,7721.9
201910100424,7722,7723.8,7721.9,7722.6
201910100425,7722.8,7723.9,7720.8,7722.5
201910100426,7722.5,7722.5,7720.9,7721
201910100427,7721.1,7722.1,7720.3,7722
201910100428,7722.1,7724.3,7722.1,7723.9
201910100429,7723.9,7725,7723.9,7725
201910100430,7725.1,7726.3,7723.4,7724.7
201910100431,7724.7,7726.9,7723.7,7725.2
201910100432,7725,7727.8,7724.9,7725.1
201910100433,7725.1,7725.4,7723.8,7724.8
201910100434,7724.8,7726.5,7724.8,7726.2
201910100435,7726.2,7728.9,7725.9,7728
201910100436,7728,7729.3,7727.4,7729.1
201910100437,7729.1,7730.9,7728.6,7729.6
201910100438,7729.6,7730.5,7729.4,7730.3
201910100439,7730.3,7731,7729.3,7730.1
201910100440,7730,7730,7727.4,7727.8
201910100441,7727.8,7728.5,7727.4,7728.2
201910100442,7728.3,7731,7728,7730.5
201910100443,7730.5,7730.8,7708.6,7717.8
201910100444,7717.8,7720.8,7702.3,7702.3
201910100445,7702.3,7710.3,7700.7,7709
201910100446,7709.3,7710.4,7703.1,7704.9
201910100447,7704.9,7704.9,7697.1,7702.8
201910100448,7702.9,7703.6,7699.8,7702.9
201910100449,7703.1,7706.6,7700.9,7701.6
201910100450,7701.6,7706.8,7701,7706.2
201910100451,7706.9,7708.1,7704.1,7707.7
201910100452,7707.7,7710.8,7707.1,7709
201910100453,7709,7709,7706.2,7707.5
201910100454,7707.6,7712.2,7707.4,7712.2
201910100455,7712.6,7716.7,7709.3,7709.7
201910100456,7709.7,7710,7704.9,7706.1
201910100457,7706.1,7707,7702.9,7703.6
201910100458,7703.4,7705.3,7703.2,7704.7
201910100459,7704.7,7704.7,7695.8,7701
201910100500,7702.8,7702.8,7688.5,7689
201910100501,7689.9,7697.3,7688.8,7691.9
201910100502,7691.9,7693,7690.7,7691.4
201910100503,7691.4,7694.5,7691.3,7692.8
201910100504,7693.1,7695.6,7691.4,7695.2
201910100505,7695,7695.8,7692.2,7692.8
201910100506,7692.8,7693.6,7692.2,7693.1
201910100507,7692.9,7695.5,7692.9,7695.5
201910100508,7695.5,7695.5,7692.9,7694.4
201910100509,7694.4,7696.3,7694.2,7695.9
201910100510,7695.9,7697.6,7695,7697.6
201910100511,7697.6,7697.7,7695.7,7696
201910100512,7696,7697.6,7694.9,7697.3
201910100513,7697.5,7700.1,7696.9,7697.6
201910100514,7697.5,7701.6,7696.8,7700.8
