日時,始値(BID),高値(BID),安値(BID),終値(BID)
201910140700,7850.3,7877.6,7850.3,7867.6
201910140701,7867.7,7869.1,7863.2,7867.5
201910140702,7867.5,7870.3,7866.1,7869.5
201910140703,7869.6,7870.1,7868.7,7869.4
201910140704,7869.4,7870.9,7867.6,7867.6
201910140705,7867.6,7868.5,7865.4,7867
201910140706,7867,7868.5,7866.5,7867.9
201910140707,7867.8,7869,7867.6,7868.6
201910140708,7868.6,7869,7867.9,7868.2
201910140709,7868.3,7868.8,7867.1,7868.7
201910140710,7868.7,7869.3,7868.3,7868.7
201910140711,7868.7,7873,7868.7,7872.5
201910140712,7872.3,7874.5,7872.3,7873.5
201910140713,7873.5,7876.3,7873.5,7876.3
201910140714,7876.3,7877.6,7875.4,7876.6
201910140715,7876.6,7877,7873.3,7876.4
201910140716,7876.4,7877.4,7874.6,7875.5
201910140717,7875.5,7876.8,7874.8,7876.5
201910140718,7876.5,7877.2,7876,7876.6
201910140719,7876.7,7876.9,7875.3,7875.6
201910140720,7875.4,7876.2,7875,7875.3
201910140721,7875.3,7875.3,7873.2,7873.4
201910140722,7873.4,7874.3,7871,7871.9
201910140723,7871.9,7872.5,7871.8,7871.9
201910140724,7871.9,7873,7871.4,7872.9
201910140725,7872.9,7874.4,7872.4,7873.9
201910140726,7873.9,7874.3,7873.5,7874.3
201910140727,7874.1,7876.5,7874.1,7875.2
201910140728,7875.2,7875.6,7872.7,7873.1
201910140729,7873.1,7874.5,7873.1,7873.9
201910140730,7873.8,7874.2,7871.9,7873.9
201910140731,7873.8,7874.2,7873.4,7873.6
201910140732,7873.7,7873.7,7872.9,7873.2
201910140733,7873.2,7874.1,7872.4,7873.9
201910140734,7873.8,7875.3,7873.8,7875.3
201910140735,7875.3,7875.3,7873.8,7874.5
201910140736,7874.5,7874.5,7872.9,7874.1
201910140737,7874.1,7875.4,7873.3,7875
201910140738,7875.8,7875.8,7874.8,7875.4
201910140739,7875.4,7877.9,7875.1,7877.7
201910140740,7877.7,7881.2,7877.4,7878.7
201910140741,7878.7,7885.8,7878.6,7883.8
201910140742,7884,7885.2,7883,7884.9
201910140743,7884.9,7886.9,7884.7,7886.2
201910140744,7886.5,7886.5,7884.4,7885.4
201910140745,7885,7887.1,7884.5,7886.5
201910140746,7886.5,7888.6,7886.1,7887.6
201910140747,7887.6,7888.6,7887.2,7887.8
201910140748,7887.7,7888.3,7886.6,7888.1
201910140749,7888.1,7888.6,7886.2,7886.2
201910140750,7886.2,7888.1,7886.2,7887
201910140751,7887,7887.1,7886.1,7886.8
201910140752,7886.8,7887,7884.6,7884.9
201910140753,7884.9,7884.9,7882.7,7883.2
201910140754,7883.2,7884.9,7882.7,7882.8
201910140755,7882.7,7883.2,7881.5,7882.7
201910140756,7882.7,7884.8,7882,7883.8
201910140757,7883.8,7883.8,7882.9,7883.2
201910140758,7883,7883.6,7881.7,7881.9
201910140759,7881.9,7883.3,7881.2,7883
201910140800,7883,7883.9,7882.4,7883
201910140801,7883.1,7884.6,7882.9,7884.6
201910140802,7884.6,7885.1,7884,7884.2
201910140803,7884.2,7884.8,7884.1,7884.8
201910140804,7884.8,7884.9,7883.9,7884.5
201910140805,7884.5,7885.6,7882.9,7885.3
201910140806,7885.3,7885.8,7884.6,7884.6
201910140807,7884.6,7884.6,7883.5,7883.8
201910140808,7883.8,7884.8,7883.5,7884.4
201910140809,7884.4,7885.3,7884.4,7885
201910140810,7885,7885,7883.9,7884
201910140811,7884,7885.8,7884,7885.6
201910140812,7885.6,7885.7,7884.1,7884.1
201910140813,7884.1,7885.7,7884.1,7885.4
201910140814,7885.4,7885.7,7885.2,7885.5
201910140815,7885.5,7886.8,7885.4,7886
201910140816,7886,7886.5,7885.2,7885.5
201910140817,7885.5,7885.8,7884.4,7884.7
201910140818,7884.7,7884.9,7884,7884.7
201910140819,7884.5,7884.7,7883.8,7883.9
201910140820,7883.9,7883.9,7882.9,7883.2
201910140821,7883.2,7883.7,7882.6,7882.7
201910140822,7882.7,7884,7882.3,7883.9
201910140823,7883.9,7883.9,7882.2,7882.5
201910140824,7882.5,7882.8,7881.5,7881.8
201910140825,7881.8,7883,7881.8,7883
201910140826,7883.1,7883.3,7882.3,7882.3
201910140827,7882.2,7883.6,7882.2,7883.6
201910140828,7883.6,7885.3,7882.9,7885.1
201910140829,7885.1,7885.3,7883.8,7884.6
201910140830,7884.6,7886.2,7884.6,7886.2
201910140831,7886.6,7891.1,7886.6,7888.8
201910140832,7888.8,7892.1,7888.8,7890.2
201910140833,7890.3,7890.8,7888.8,7889.1
201910140834,7889,7890.8,7889,7890.6
201910140835,7890.6,7890.7,7888.4,7889.5
201910140836,7889.5,7889.5,7888.2,7888.7
201910140837,7888.7,7889.2,7888,7888
201910140838,7888.1,7889,7887.9,7888.5
201910140839,7888.5,7889.6,7888.5,7889.2
201910140840,7889.3,7890.3,7889,7889.3
201910140841,7889.3,7890.3,7888.9,7889.1
201910140842,7889.1,7889.6,7888.1,7889.4
201910140843,7889.4,7890.2,7888.7,7889.7
201910140844,7889.7,7889.7,7889.1,7889.4
201910140845,7889.4,7889.4,7888.3,7888.5
201910140846,7888.6,7888.6,7888.1,7888.3
201910140847,7888.3,7888.5,7886.1,7886.6
201910140848,7886.6,7888.5,7886.6,7888.1
201910140849,7888.1,7888.7,7887.9,7888.1
201910140850,7888.1,7888.5,7888,7888.3
201910140851,7888.3,7888.3,7887.4,7887.8
201910140852,7887.8,7888.6,7887.5,7888
201910140853,7888,7888.3,7886.8,7887.1
201910140854,7887.1,7887.4,7886.1,7887.1
201910140855,7887.3,7887.7,7886.6,7887.2
201910140856,7887.2,7888.1,7887.2,7888.1
201910140857,7888.1,7888.3,7887.8,7887.9
201910140858,7887.6,7888.7,7887.5,7888.6
201910140859,7888.7,7892.6,7888.7,7892.6
201910140900,7892.6,7893.8,7890.3,7890.7
201910140901,7890.6,7894.2,7890.6,7892.6
201910140902,7892.6,7893.1,7891.3,7891.5
201910140903,7891.5,7892.3,7890.9,7891.3
201910140904,7891.3,7893.3,7890.9,7893.1
201910140905,7893.3,7894,7891.5,7892.4
201910140906,7892.4,7892.7,7891.5,7891.6
201910140907,7891.5,7892,7890.9,7891.3
201910140908,7891.3,7891.5,7887.9,7888.9
201910140909,7888.9,7890.4,7888.9,7889.2
201910140910,7889.2,7889.4,7883.3,7884.4
201910140911,7884.4,7884.4,7881.9,7883.1
201910140912,7883.1,7883.5,7881.5,7882.1
201910140913,7882.1,7882.9,7881.2,7881.2
201910140914,7881.2,7882.9,7880.9,7882.7
201910140915,7882.7,7885.7,7882.4,7883.7
201910140916,7883.7,7884.5,7883.1,7884.2
201910140917,7884.2,7884.5,7883.2,7884.4
201910140918,7884.5,7885.6,7884.4,7885
201910140919,7885,7886.1,7884.6,7884.6
201910140920,7884.6,7885.1,7883,7883.2
201910140921,7883.1,7883.5,7882.3,7883.3
201910140922,7883.3,7883.6,7881.5,7881.7
201910140923,7881.7,7882.6,7880.5,7880.9
201910140924,7880.9,7882.1,7880.7,7881.6
201910140925,7881.6,7881.8,7879.8,7879.8
201910140926,7880,7880.6,7878.5,7879
201910140927,7879,7880.1,7878.9,7879.6
201910140928,7879.6,7880.2,7877.2,7880.2
201910140929,7880.2,7880.4,7878.5,7880.2
201910140930,7880.2,7880.3,7876.9,7877.1
201910140931,7877,7877,7871.4,7871.4
201910140932,7871.4,7873,7870.7,7872
201910140933,7872,7873.7,7872,7873.7
201910140934,7873.6,7874.5,7872.2,7873
201910140935,7873.6,7874.5,7872.9,7873.6
201910140936,7873.6,7874.2,7873.3,7873.9
201910140937,7873.9,7874,7871.2,7871.6
201910140938,7871.6,7872.2,7871.2,7872
201910140939,7871.8,7873.4,7871.5,7873.4
201910140940,7873.4,7873.8,7872.4,7872.6
201910140941,7872.6,7873.4,7872.4,7873.4
201910140942,7873.4,7875.8,7873.4,7875.4
201910140943,7875.4,7876.3,7875.3,7875.4
201910140944,7875.4,7877,7875.4,7875.7
201910140945,7875.7,7876.9,7875.5,7875.8
201910140946,7875.8,7876,7874.9,7875.3
201910140947,7875.3,7877.3,7875.3,7876.8
201910140948,7876.9,7877.1,7876.1,7876.4
201910140949,7876.4,7877.5,7876.4,7877.1
201910140950,7877.1,7877.6,7875.8,7875.8
201910140951,7875.4,7876.4,7875,7876.4
201910140952,7876.4,7877.6,7875.9,7877.6
201910140953,7877.6,7877.7,7874.4,7875
201910140954,7875.4,7876.2,7875.2,7875.9
201910140955,7875.9,7876.8,7875.8,7875.9
201910140956,7875.9,7876.3,7874,7874.4
201910140957,7874.4,7875.4,7873.8,7873.8
201910140958,7873.8,7875.2,7873.8,7873.9
201910140959,7873.9,7875.6,7873.9,7875.3
201910141000,7874.8,7874.8,7870.3,7870.8
201910141001,7870.8,7874.4,7870.8,7874.2
201910141002,7874.2,7875.8,7874.2,7875.3
201910141003,7875.4,7877.5,7875.3,7877.1
201910141004,7877.1,7878.4,7876.5,7877.6
201910141005,7877.6,7878.5,7876.8,7876.8
201910141006,7876.8,7876.8,7875,7875.3
201910141007,7875.3,7876.9,7875.3,7875.9
201910141008,7875.9,7876.4,7873.3,7873.3
201910141009,7873.3,7874.1,7867.5,7871.2
201910141010,7871,7872.8,7870.9,7872
201910141011,7872,7872.4,7870.9,7871.8
201910141012,7871.8,7872.3,7867.3,7867.7
201910141013,7867.7,7868.8,7863.9,7864.1
201910141014,7864,7867,7863.1,7863.6
201910141015,7863.6,7865.8,7859.9,7861.2
201910141016,7861.2,7861.6,7857.8,7859.3
201910141017,7859.3,7859.7,7856.6,7856.6
201910141018,7856.6,7859.6,7856.6,7859.6
201910141019,7859.6,7860.5,7858.7,7859.4
201910141020,7859.4,7862.6,7859.1,7862.5
201910141021,7862.5,7863.5,7861.8,7862.3
201910141022,7862.3,7863.4,7862,7862.5
201910141023,7862.5,7864.1,7862.3,7864
201910141024,7864,7864.2,7860.6,7861.2
201910141025,7861.1,7864.2,7861.1,7863.2
201910141026,7863.3,7864.1,7863.1,7863.5
201910141027,7863.5,7867.7,7863.4,7866.9
201910141028,7866.9,7869.1,7866.2,7867.6
201910141029,7867.6,7869.8,7867.6,7869.1
201910141030,7869.1,7869.9,7867.2,7867.6
201910141031,7867.6,7868.2,7865,7865
201910141032,7865,7868.3,7864.4,7867.7
201910141033,7867.7,7868.6,7866.9,7867.3
201910141034,7867.3,7868.1,7865.2,7865.3
201910141035,7865.3,7865.9,7863.5,7864.9
201910141036,7864.9,7867.8,7864.1,7867.1
201910141037,7867.3,7867.3,7865.6,7867.1
201910141038,7867.1,7867.3,7863,7863.9
201910141039,7863.9,7863.9,7857,7857
201910141040,7857.2,7860.2,7856.9,7858.7
201910141041,7858.7,7859.3,7857.3,7857.7
201910141042,7857.7,7858.8,7855.7,7857.8
201910141043,7857.8,7860.4,7856.6,7860.4
201910141044,7860.4,7862.9,7860.4,7862.6
201910141045,7862.7,7864.6,7861.6,7864.6
201910141046,7864.6,7865.7,7863.4,7865.6
201910141047,7865.6,7867.6,7864.8,7867.5
201910141048,7867.5,7867.8,7865.9,7866.5
201910141049,7866.3,7868.3,7865.6,7867.2
201910141050,7867.2,7869.2,7866.9,7867.4
201910141051,7867.4,7868.7,7866.3,7867.7
201910141052,7867.6,7872.8,7867.6,7872.7
201910141053,7872.7,7872.8,7868.9,7869.7
201910141054,7869.7,7873,7869.7,7872.9
201910141055,7872.7,7874.1,7871.2,7872.3
201910141056,7872.3,7872.5,7871.4,7872.1
201910141057,7872.1,7872.9,7870.8,7871.6
201910141058,7871.6,7873.8,7871.6,7873.8
201910141059,7873.8,7876.2,7873,7875.9
201910141100,7875.9,7876.1,7871.8,7872.4
201910141101,7872.4,7874.3,7870.9,7871.1
201910141102,7871.1,7874.1,7871,7873.8
201910141103,7873.9,7874.2,7872.3,7872.9
201910141104,7873,7875,7872,7874.5
201910141105,7874.5,7877.3,7874.4,7877.1
201910141106,7877.1,7878.4,7876.5,7877.7
201910141107,7877.7,7881.5,7877,7881.3
201910141108,7881.3,7881.3,7878.4,7879.8
201910141109,7879.8,7882.8,7879.8,7882.1
201910141110,7882.2,7882.6,7878.9,7879.1
201910141111,7879.1,7879.9,7878.5,7878.8
201910141112,7878.8,7879.5,7877.9,7877.9
201910141113,7877.9,7879.3,7876.6,7878.7
201910141114,7878.7,7879.5,7877.3,7878.8
201910141115,7878.8,7879.7,7877.5,7877.6
201910141116,7877.6,7877.6,7875.6,7876.4
201910141117,7876.4,7876.6,7874.2,7874.3
201910141118,7874.3,7875.8,7874.3,7875.4
201910141119,7875.4,7876.5,7873,7873.3
201910141120,7873.4,7873.7,7872.1,7873.1
201910141121,7873.2,7874.3,7872.4,7872.5
201910141122,7872.4,7873.3,7871.9,7873.3
201910141123,7873.3,7873.8,7872.1,7873.4
201910141124,7873.4,7874.6,7873.1,7873.2
201910141125,7873.2,7875.4,7873.2,7873.9
201910141126,7873.9,7875.3,7872.7,7872.8
201910141127,7872.8,7873.1,7871.6,7872.3
201910141128,7872.3,7873.6,7872.1,7872.7
201910141129,7872.7,7876.3,7872.7,7875.3
201910141130,7875.3,7875.3,7874.1,7875.1
201910141131,7875.1,7876.9,7874.2,7876.5
201910141132,7876.6,7877.1,7875.9,7876.2
201910141133,7876.2,7877.7,7876.2,7877.4
201910141134,7877.4,7878.3,7876.5,7878
201910141135,7877.9,7879.3,7876.3,7876.3
201910141136,7876.3,7876.8,7874.2,7874.9
201910141137,7874.9,7876.5,7874.9,7875.2
201910141138,7875.2,7875.2,7870.8,7873.3
201910141139,7873.3,7873.4,7872,7873.4
201910141140,7873.4,7874.8,7873,7874.8
201910141141,7874.6,7876.5,7874.4,7876.5
201910141142,7876.5,7876.6,7873.9,7874.3
201910141143,7874.4,7875.9,7874.1,7875.5
201910141144,7875.5,7877.4,7875.5,7877.4
201910141145,7877.4,7877.7,7876.5,7877.5
201910141146,7877.5,7878.8,7877.3,7878
201910141147,7877.9,7877.9,7876.7,7877.5
201910141148,7877.5,7877.9,7876.9,7877.7
201910141149,7877.7,7878.4,7876.6,7876.9
201910141150,7876.9,7877.7,7876.6,7877.4
201910141151,7877.4,7880,7877.2,7879.2
201910141152,7879.2,7879.4,7878,7878.2
201910141153,7878.2,7879.3,7878.1,7878.1
201910141154,7878.1,7878.8,7877.5,7877.6
201910141155,7877.5,7878.8,7877.2,7877.8
201910141156,7877.8,7877.8,7875.5,7875.5
201910141157,7875.7,7876.9,7875.4,7876.3
201910141158,7876.4,7876.4,7875,7875
201910141159,7875,7875.3,7874,7874.7
201910141200,7874.6,7875.6,7871.8,7872.8
201910141201,7872.9,7874.5,7872.9,7874.3
201910141202,7874.3,7874.5,7873.5,7874.1
201910141203,7874.1,7875.6,7873.4,7874.9
201910141204,7874.9,7876.9,7874.9,7876.3
201910141205,7876.3,7877.3,7876,7876.4
201910141206,7876.4,7876.8,7876.1,7876.5
201910141207,7876.5,7878.1,7876.3,7877.4
201910141208,7877.3,7878.4,7877.2,7878
201910141209,7878,7878.3,7877.1,7877.2
201910141210,7877.2,7877.3,7876.4,7876.9
201910141211,7876.9,7878.1,7876.5,7878.1
201910141212,7878.2,7878.3,7877.6,7877.6
201910141213,7877.7,7878.2,7877.4,7877.4
201910141214,7877.4,7877.4,7876.5,7877.4
201910141215,7877.4,7878.4,7876.1,7876.2
201910141216,7876.2,7876.8,7874.7,7874.8
201910141217,7874.8,7876.6,7874.8,7876.5
201910141218,7876.3,7876.8,7875.7,7875.9
201910141219,7875.9,7876.8,7875.4,7876.8
201910141220,7876.8,7877.1,7875.4,7876.4
201910141221,7876.4,7876.6,7875,7875.5
201910141222,7875.5,7877,7874.6,7875.7
201910141223,7875.7,7877,7875.1,7876.9
201910141224,7876.9,7877.2,7875.3,7876.5
201910141225,7876.5,7876.5,7874.2,7874.8
201910141226,7874.7,7875.7,7874.4,7875.7
201910141227,7875.7,7876.6,7874.7,7874.8
201910141228,7874.8,7877.1,7874.1,7876.9
201910141229,7876.9,7878,7876.4,7877.9
201910141230,7877.9,7878.4,7876.7,7876.8
201910141231,7876.9,7877.3,7876.9,7877.2
201910141232,7877.2,7877.4,7876.7,7876.8
201910141233,7876.8,7876.9,7876.5,7876.5
201910141234,7876.4,7876.6,7876.2,7876.3
201910141235,7876.3,7876.8,7876,7876.1
201910141236,7876.1,7878.1,7875.8,7877.6
201910141237,7877.6,7877.8,7877.5,7877.5
201910141238,7877.6,7877.8,7877.2,7877.2
201910141239,7877.2,7877.7,7876.5,7876.5
201910141240,7876.9,7877.3,7876.3,7876.3
201910141241,7876.3,7876.8,7876.1,7876.5
201910141242,7876.5,7876.7,7876.1,7876.1
201910141243,7876.1,7877.5,7875.6,7877.3
201910141244,7877.4,7877.5,7877.1,7877.1
201910141245,7877.1,7878.4,7876.9,7877.6
201910141246,7877.6,7878.1,7877.6,7878.1
201910141247,7878.1,7878.7,7877.8,7878.2
201910141248,7878.2,7879,7878.2,7878.9
201910141249,7878.9,7879.3,7878.1,7879.3
201910141250,7879.3,7880,7877.8,7877.8
201910141251,7877.8,7878.3,7877.3,7877.5
201910141252,7877.5,7878,7876.9,7878
201910141253,7878,7879.1,7878,7878
201910141254,7878,7878.1,7877.4,7877.4
201910141255,7877.4,7877.6,7876.8,7876.9
201910141256,7876.9,7877.3,7876.4,7877
201910141257,7877,7877.4,7876.8,7877.3
201910141258,7877.3,7877.9,7876.9,7877.9
201910141259,7877.9,7879,7877.9,7878.7
201910141300,7878.6,7879.2,7878.4,7878.9
201910141301,7878.7,7879.5,7878.6,7879.1
201910141302,7879.2,7879.2,7878.5,7878.6
201910141303,7878.6,7878.9,7877.9,7878.7
201910141304,7878.7,7878.9,7878,7878.6
201910141305,7878.6,7878.7,7878.4,7878.5
201910141306,7878.5,7878.5,7877.3,7878
201910141307,7878,7878.4,7877.8,7878.2
201910141308,7878.2,7878.8,7877.9,7878.6
201910141309,7878.6,7879.8,7878.6,7879.6
201910141310,7879.5,7880,7879.2,7879.5
201910141311,7879.5,7881.6,7879.5,7880.2
201910141312,7880.2,7881,7879.8,7880.5
201910141313,7880.5,7881,7880.1,7880.8
201910141314,7880.8,7880.8,7880.3,7880.5
201910141315,7880.6,7881.6,7880.5,7881.2
201910141316,7881.2,7881.4,7880.6,7880.9
201910141317,7880.9,7882.3,7880.9,7882
201910141318,7882,7885.6,7882,7884.2
201910141319,7884.2,7884.7,7883.5,7884.1
201910141320,7884.1,7884.4,7882.8,7882.8
201910141321,7882.9,7883.1,7882.2,7882.3
201910141322,7882.3,7882.3,7881.4,7881.4
201910141323,7881.6,7881.8,7881,7881
201910141324,7881,7881.8,7881,7881
201910141325,7881,7881.1,7880.1,7880.6
201910141326,7880.8,7881,7880.2,7880.4
201910141327,7880.4,7881.1,7879.8,7879.8
201910141328,7879.8,7880.3,7878.7,7879.6
201910141329,7879.8,7880.1,7879.4,7879.9
201910141330,7879.9,7881.5,7879.9,7881.1
201910141331,7881.1,7881.3,7878.9,7878.9
201910141332,7878.9,7879,7877.2,7877.7
201910141333,7877.7,7877.8,7875.5,7876.2
201910141334,7876.2,7876.9,7876.1,7876.3
201910141335,7876.4,7877.1,7876.4,7876.8
201910141336,7876.8,7877.4,7876.4,7876.4
201910141337,7876.4,7876.4,7872.6,7873.6
201910141338,7873.6,7874.3,7873.5,7874.1
201910141339,7874.2,7874.3,7873.7,7873.8
201910141340,7873.8,7874.1,7872.9,7873.3
201910141341,7873.3,7873.8,7872.8,7873.3
201910141342,7873.3,7874.5,7873.2,7874.2
201910141343,7874.2,7874.5,7873.5,7874.3
201910141344,7874.3,7875.2,7874,7874.5
201910141345,7874.5,7874.6,7872.8,7873.4
201910141346,7873.4,7873.9,7872.7,7873.3
201910141347,7873.3,7873.8,7872.9,7873.5
201910141348,7873.8,7874.1,7873.5,7874
201910141349,7874.1,7874.5,7874.1,7874.2
201910141350,7874.2,7874.9,7874.2,7874.3
201910141351,7874.4,7874.6,7874.2,7874.2
201910141352,7874.2,7875.3,7874.2,7875.3
201910141353,7875.3,7875.5,7874.5,7875.3
201910141354,7875.3,7875.3,7874.8,7874.8
201910141355,7874.8,7874.8,7874,7874.7
201910141356,7874.7,7874.9,7874.2,7874.2
201910141357,7874.2,7874.3,7874.1,7874.1
201910141358,7874.1,7874.6,7874,7874
201910141359,7874,7874.3,7871.6,7871.9
201910141400,7871.9,7871.9,7866.4,7867.7
201910141401,7867.7,7870.9,7867.7,7870.6
201910141402,7870.6,7871.9,7870.6,7871.2
201910141403,7871.2,7872.1,7871.2,7872.1
201910141404,7872.1,7873.3,7871.2,7871.6
201910141405,7871.6,7872.4,7871.3,7871.6
201910141406,7871.6,7872.1,7870.8,7870.8
201910141407,7870.8,7871.2,7869.5,7869.5
201910141408,7869.5,7870.5,7867.6,7868.7
201910141409,7868.7,7870,7868.2,7869.9
201910141410,7869.9,7870.4,7869.1,7869.1
201910141411,7869,7869,7867.8,7867.8
201910141412,7867.8,7869,7867.2,7868.6
201910141413,7868.6,7869.2,7868,7869.1
201910141414,7869.1,7869.8,7867.9,7867.9
201910141415,7868,7869.1,7867.3,7869.1
201910141416,7869.1,7869.5,7868.5,7869.2
201910141417,7869.2,7869.3,7867.1,7867.1
201910141418,7867.1,7867.9,7866.1,7867.6
201910141419,7867.5,7867.9,7866.8,7867.7
201910141420,7867.7,7868,7867.4,7868
201910141421,7868,7868.7,7867.4,7867.5
201910141422,7867.5,7868.3,7867.4,7867.9
201910141423,7867.9,7867.9,7865.9,7867.2
201910141424,7867.2,7867.2,7866.4,7866.8
201910141425,7866.8,7867.2,7864.3,7866.4
201910141426,7866.4,7867.3,7866.3,7867.1
201910141427,7867.2,7867.8,7866.9,7867.7
201910141428,7867.7,7867.7,7866.6,7867.1
201910141429,7867.1,7867.9,7866.7,7866.7
201910141430,7866.7,7866.8,7864.3,7864.3
201910141431,7864.3,7865.6,7863.9,7864
201910141432,7864,7866.1,7863.8,7865.8
201910141433,7865.9,7866,7864.5,7865.6
201910141434,7865.6,7866.8,7865.6,7866.8
201910141435,7866.8,7867.8,7866.6,7867.7
201910141436,7867.7,7868.7,7867.2,7868.5
201910141437,7868.5,7870.1,7867.9,7869.5
201910141438,7869.7,7870.8,7869.4,7870.3
201910141439,7870.4,7870.8,7869.7,7870.5
201910141440,7870.5,7870.8,7870.2,7870.6
201910141441,7870.6,7871.1,7869.2,7871
201910141442,7870.9,7871.4,7870.1,7870.8
201910141443,7870.8,7872.1,7870.5,7870.5
201910141444,7870.5,7871.1,7868.4,7869
201910141445,7869,7870.2,7867.9,7868.3
201910141446,7868.2,7868.3,7866.5,7866.7
201910141447,7866.7,7866.7,7863.5,7864.2
201910141448,7864.4,7864.4,7862.1,7863.8
201910141449,7863.7,7865.1,7863.5,7864.4
201910141450,7864.4,7865,7863.9,7864.9
201910141451,7864.9,7867.1,7864.9,7865.9
201910141452,7865.9,7866.8,7865.6,7866.2
201910141453,7866.2,7866.6,7865.2,7866
201910141454,7866,7867.4,7866,7866.8
201910141455,7866.8,7868.3,7866.8,7867.1
201910141456,7867.1,7867.1,7864.6,7865.3
201910141457,7865.3,7866.1,7864.8,7866.1
201910141458,7866.1,7867,7866,7866
201910141459,7866,7866.9,7865.8,7865.9
201910141500,7865.9,7872.6,7865.9,7867
201910141501,7867,7868.3,7863.6,7864.4
201910141502,7864.4,7866.1,7863.9,7866.1
201910141503,7866.1,7867.6,7865.6,7867.4
201910141504,7867.4,7869.1,7866.4,7868.7
201910141505,7868.7,7868.8,7865.8,7866.5
201910141506,7866.5,7867,7863.2,7864.9
201910141507,7864.9,7865.2,7863.6,7864.3
201910141508,7864.3,7866.3,7864.3,7865.8
201910141509,7865.8,7866.3,7862.2,7863.7
201910141510,7863.7,7865.6,7862.1,7865.2
201910141511,7865.2,7867.6,7864.8,7867.5
201910141512,7867.4,7869.3,7866.7,7868.6
201910141513,7868.6,7869.2,7867,7869
201910141514,7869.1,7870.1,7867.5,7868.1
201910141515,7868.1,7869.6,7867.5,7868.3
201910141516,7868.3,7868.3,7866.4,7867
201910141517,7867.2,7870.8,7867.2,7870
201910141518,7870,7870.1,7868.6,7869
201910141519,7869,7870.4,7868.4,7868.7
201910141520,7868.7,7868.9,7864.9,7865.8
201910141521,7865.8,7867.1,7863.3,7864.2
201910141522,7864.2,7865.7,7864.2,7865
201910141523,7865.1,7865.5,7864,7865.5
201910141524,7865.5,7866.4,7863.4,7863.7
201910141525,7863.7,7864.6,7862.7,7863.6
201910141526,7863.6,7864.8,7861.4,7864.6
201910141527,7864.6,7865.7,7863.1,7863.4
201910141528,7863.3,7864.1,7860.5,7860.9
201910141529,7861,7862.7,7861,7862.1
201910141530,7862.1,7863.4,7861.8,7862.8
201910141531,7862.8,7863.3,7861.2,7861.2
201910141532,7861.2,7861.6,7859.6,7861.3
201910141533,7861.3,7862.1,7860.1,7861.2
201910141534,7861.2,7862.9,7861,7862.6
201910141535,7862.6,7862.9,7862,7862.7
201910141536,7862.7,7865.9,7862,7864.3
201910141537,7864.3,7866.1,7864.1,7865.2
201910141538,7865.2,7867.6,7865.2,7865.8
201910141539,7865.8,7866.8,7865.3,7865.9
201910141540,7865.8,7865.8,7863.9,7864.1
201910141541,7864.3,7864.8,7862,7862
201910141542,7862,7863.8,7860.9,7863.2
201910141543,7863.2,7865,7862.9,7864.7
201910141544,7864.7,7867.6,7864.7,7867.3
201910141545,7867.2,7868.8,7865.5,7868.6
201910141546,7868.6,7869.6,7867.8,7867.8
201910141547,7867.9,7869.4,7867.9,7869.4
201910141548,7869.4,7869.6,7867.8,7868.3
201910141549,7868.3,7870.4,7868.3,7869.7
201910141550,7869.7,7870.4,7867.3,7867.4
201910141551,7867.3,7868.3,7866.8,7867.9
201910141552,7867.9,7868.1,7866.1,7867.4
201910141553,7867.4,7867.4,7866.1,7867
201910141554,7867,7867.1,7862.2,7864.9
201910141555,7864.9,7866.7,7863.9,7865.1
201910141556,7865.1,7865.1,7863.5,7864.5
201910141557,7864.4,7865.4,7863.2,7865.4
201910141558,7865.4,7867.3,7865.4,7866.7
201910141559,7866.7,7867.8,7864.5,7867.7
201910141600,7867.7,7868.8,7863.3,7866.5
201910141601,7866.5,7867.4,7862.8,7865.6
201910141602,7865.8,7865.8,7862.3,7863.5
201910141603,7863.6,7866.1,7861.9,7863.1
201910141604,7863.1,7863.3,7860.8,7861.1
201910141605,7861.1,7861.3,7857.6,7860.3
201910141606,7860.3,7861.1,7858.1,7859.3
201910141607,7859.3,7859.3,7855.1,7855.9
201910141608,7855.9,7857.9,7854.3,7857.5
201910141609,7857.5,7859.6,7857,7858.5
201910141610,7858.5,7859.9,7856.8,7858.8
201910141611,7858.8,7858.8,7853.5,7853.6
201910141612,7853.6,7855.9,7853.2,7853.7
201910141613,7853.7,7855.3,7853.1,7853.6
201910141614,7853.6,7853.6,7850.7,7852.3
201910141615,7852.4,7852.5,7848.6,7850.1
201910141616,7850.1,7853.1,7849.4,7852.5
201910141617,7852.6,7854.9,7851.7,7854.8
201910141618,7854.8,7857.3,7854.1,7855.3
201910141619,7855.3,7857.1,7854.3,7855
201910141620,7855,7855.7,7854,7855.3
201910141621,7855.3,7856.5,7854.1,7854.8
201910141622,7854.8,7858.7,7854.8,7858.5
201910141623,7858.6,7858.7,7856.3,7856.4
201910141624,7856.2,7857.9,7856.2,7857.4
201910141625,7857.4,7858.8,7856.6,7857.3
201910141626,7857.3,7857.4,7855.4,7855.6
201910141627,7855.7,7855.9,7853.3,7853.8
201910141628,7853.8,7854.6,7852,7852
201910141629,7852.1,7853.1,7851.8,7852
201910141630,7852,7852.1,7850.2,7850.2
201910141631,7850.2,7850.3,7846.4,7847.3
201910141632,7847.3,7850.3,7847.2,7850
201910141633,7850,7851.8,7849.3,7851.8
201910141634,7851.7,7853.1,7851.3,7852
201910141635,7852,7852.5,7850,7850.3
201910141636,7850.3,7850.7,7846.6,7848.4
201910141637,7848.4,7848.9,7847,7847
201910141638,7847,7847.7,7846.5,7847.1
201910141639,7847,7847.5,7845.1,7846.6
201910141640,7846.6,7847,7845.2,7845.8
201910141641,7845.8,7846.9,7843.1,7843.5
201910141642,7843.5,7845.4,7843.3,7843.3
201910141643,7843.3,7844.9,7843.3,7844.9
201910141644,7844.9,7845.3,7843.1,7843.8
201910141645,7843.8,7844.5,7842.2,7844.5
201910141646,7844.5,7847.6,7844.5,7847.5
201910141647,7847.5,7847.9,7845.7,7847.5
201910141648,7847.5,7847.5,7845.9,7846.4
201910141649,7846.4,7846.7,7845.4,7845.8
201910141650,7845.8,7846.8,7845.6,7846.8
201910141651,7846.8,7849,7846.8,7848.7
201910141652,7848.8,7849.1,7847.5,7847.5
201910141653,7847.5,7847.5,7843.5,7844.2
201910141654,7844.2,7844.3,7843,7843.3
201910141655,7843.4,7845,7843,7845
201910141656,7845,7845.1,7843.2,7843.3
201910141657,7843.3,7845,7842.9,7844.9
201910141658,7845,7845,7843.1,7843.5
201910141659,7843.5,7844.8,7843.5,7844
201910141700,7844,7846.3,7843.8,7843.9
201910141701,7843.9,7844.3,7843.1,7843.8
201910141702,7843.8,7845.3,7842.2,7845.3
201910141703,7845.3,7845.9,7844.4,7844.4
201910141704,7844.3,7844.8,7841,7841.7
201910141705,7841.6,7842.3,7840.1,7842.3
201910141706,7842.3,7846.3,7842,7843.4
201910141707,7843.4,7845.2,7842.6,7844.8
201910141708,7844.8,7845.1,7843.6,7843.6
201910141709,7843.6,7844.4,7842.6,7842.6
201910141710,7842.6,7843.8,7842.4,7842.8
201910141711,7842.9,7844.1,7842.9,7843.8
201910141712,7843.9,7844.6,7843.4,7844.6
201910141713,7844.6,7845.1,7843.1,7843.3
201910141714,7843.3,7844.6,7842,7844.4
201910141715,7844.4,7844.8,7843.8,7843.8
201910141716,7843.5,7843.5,7840.3,7841.5
201910141717,7841.5,7844.8,7841.5,7843.8
201910141718,7843.8,7843.8,7841,7841.8
201910141719,7841.8,7842.3,7840.6,7841.6
201910141720,7841.8,7842.3,7840.6,7841.8
201910141721,7841.8,7844.4,7841.8,7843.5
201910141722,7843.5,7843.7,7841.6,7842
201910141723,7842,7842.8,7840.9,7841.9
201910141724,7841.9,7844.4,7840.8,7844.3
201910141725,7844.3,7846.4,7844.2,7845.7
201910141726,7845.7,7847.2,7844.9,7846.4
201910141727,7846.4,7847.6,7846.1,7846.9
201910141728,7846.9,7847.1,7845.7,7846.7
201910141729,7846.7,7849.2,7846.4,7849
201910141730,7849,7849.1,7847.7,7848
201910141731,7848,7848.5,7847.2,7847.2
201910141732,7847.2,7847.4,7846.5,7846.9
201910141733,7846.8,7847.3,7845.4,7846.6
201910141734,7846.6,7847,7844.5,7844.6
201910141735,7844.6,7847.3,7844.6,7847.2
201910141736,7847.3,7848,7846.9,7847.8
201910141737,7847.8,7851.3,7847.7,7850.6
201910141738,7850.5,7851.8,7850.2,7851.2
201910141739,7851.2,7853,7850.9,7850.9
201910141740,7850.9,7851.4,7849.7,7851.3
201910141741,7851.3,7854.3,7851.3,7853.6
201910141742,7853.6,7854,7853,7853.9
201910141743,7853.9,7855.5,7853.9,7854.4
201910141744,7854.3,7854.5,7853.1,7854.3
201910141745,7854.3,7857.5,7852.8,7856.3
201910141746,7856.3,7857.6,7855.4,7857.4
201910141747,7857.4,7857.8,7856.4,7856.5
201910141748,7856.4,7857.1,7855.7,7856.1
201910141749,7856.1,7856.5,7855.7,7855.9
201910141750,7855.9,7856.3,7855,7855.2
201910141751,7855.2,7855.5,7854.4,7854.5
201910141752,7854.5,7854.8,7853.3,7854.1
201910141753,7854,7854.6,7853.9,7853.9
201910141754,7853.9,7855.3,7853.9,7854.1
201910141755,7854.1,7854.1,7852.7,7853.6
201910141756,7853.5,7855,7853.5,7854.1
201910141757,7854.1,7855.1,7853.9,7855.1
201910141758,7855.1,7855.4,7852.4,7852.4
201910141759,7852.5,7853,7851,7852.4
201910141800,7852.8,7852.8,7851.4,7851.7
201910141801,7851.6,7853.8,7851.6,7853.3
201910141802,7853.3,7853.3,7852.2,7852.5
201910141803,7852.8,7853.3,7852.1,7852.4
201910141804,7852.4,7852.6,7850.3,7850.4
201910141805,7850.3,7852.8,7850.1,7851.3
201910141806,7851.4,7852.3,7851.2,7851.2
201910141807,7851.2,7851.7,7850.9,7851.2
201910141808,7851.2,7851.9,7850.9,7851.7
201910141809,7851.6,7851.9,7850.4,7850.4
201910141810,7850.4,7850.6,7848,7848.7
201910141811,7848.7,7850.9,7848.5,7850.9
201910141812,7850.9,7851.5,7850.1,7851
201910141813,7850.9,7851.4,7850.5,7850.8
201910141814,7850.8,7852.3,7850.1,7850.1
201910141815,7850.1,7850.4,7848.8,7849.3
201910141816,7849.3,7851.6,7849.3,7851.6
201910141817,7851.6,7853.1,7851.4,7852.9
201910141818,7852.7,7853.8,7852.1,7853.3
201910141819,7853.3,7853.3,7842.5,7842.5
201910141820,7842.5,7847.9,7838.7,7841.7
201910141821,7841.7,7841.8,7826.7,7827.1
201910141822,7827,7827.8,7822.5,7826.9
201910141823,7826.8,7834.6,7826.3,7833.7
201910141824,7833.7,7835.6,7829.4,7829.8
201910141825,7829.8,7831.3,7827.4,7830.3
201910141826,7830.3,7831.4,7823.7,7825.2
201910141827,7825.2,7827.1,7822.9,7822.9
201910141828,7822.9,7824.4,7818.7,7823.7
201910141829,7823.7,7826.6,7822.2,7825.7
201910141830,7825.5,7830.1,7824.4,7829.2
201910141831,7829.2,7829.3,7823.4,7826.7
201910141832,7826.7,7831.6,7826.7,7830.2
201910141833,7830.2,7831.1,7827.4,7828.2
201910141834,7828.2,7828.6,7825.5,7826.3
201910141835,7826.3,7828.1,7822.8,7822.9
201910141836,7822.9,7823.8,7819.2,7820.4
201910141837,7820.4,7825.3,7820.4,7824.8
201910141838,7824.8,7826.6,7824.2,7826.3
201910141839,7826.3,7826.4,7822.9,7824.5
201910141840,7824.3,7825.3,7816.1,7816.1
201910141841,7816.1,7816.4,7812.2,7812.5
201910141842,7812.5,7813.9,7811.6,7811.7
201910141843,7811.6,7814.3,7811.6,7813.2
201910141844,7813.2,7813.2,7807,7807.6
201910141845,7807.6,7810.3,7807,7809.7
201910141846,7809.7,7811.8,7809.2,7811.8
201910141847,7811.8,7813.5,7811.8,7813.3
201910141848,7813.3,7815.8,7811.7,7812.2
201910141849,7812.2,7815.2,7812.2,7815.2
201910141850,7815.2,7815.3,7813.3,7814.3
201910141851,7814.2,7815.3,7812.4,7813.3
201910141852,7813.5,7816.7,7813.3,7816
201910141853,7816.1,7818.9,7815.6,7816.4
201910141854,7816.4,7816.9,7812,7812.4
201910141855,7812.4,7812.8,7808.2,7810.4
201910141856,7810.4,7814.6,7810.4,7813.4
201910141857,7813.3,7815.1,7812.8,7814
201910141858,7814,7814.8,7810.5,7811.3
201910141859,7811.3,7812,7809.3,7809.5
201910141900,7809.5,7814.3,7809.4,7814.2
201910141901,7813.6,7813.6,7810.5,7811.3
201910141902,7811.3,7813.1,7810.8,7812.7
201910141903,7812.7,7814.2,7812.5,7813
201910141904,7813,7813.3,7811.1,7812.5
201910141905,7812.5,7816,7811.2,7814.1
201910141906,7814.1,7816.1,7813.6,7814.2
201910141907,7814.2,7815.6,7812.5,7815.6
201910141908,7815.6,7816.2,7814.9,7815.7
201910141909,7815.7,7817.2,7815.7,7816.8
201910141910,7817,7817.6,7815.4,7815.4
201910141911,7815.3,7816.1,7814.2,7814.9
201910141912,7814.9,7815.3,7810.9,7811.4
201910141913,7811.4,7813.5,7811.2,7812.5
201910141914,7812.6,7813.4,7811.8,7812.7
201910141915,7812.7,7814.4,7812.4,7813.3
201910141916,7813.3,7815.5,7813.3,7814.8
201910141917,7814.8,7815.8,7814.3,7815.7
201910141918,7815.7,7816.9,7814.9,7815.4
201910141919,7815.5,7815.8,7813.9,7814.7
201910141920,7814.5,7817,7814.5,7815.9
201910141921,7815.9,7816.6,7815.1,7815.3
201910141922,7815.4,7816.1,7815.4,7816
201910141923,7816,7818.3,7814.5,7814.5
201910141924,7814.6,7815.4,7813.6,7815.2
201910141925,7815.2,7816.8,7813.1,7813.3
201910141926,7813.3,7814.8,7812.7,7814.8
201910141927,7814.8,7815.8,7813.7,7814.9
201910141928,7814.9,7815.5,7814.1,7814.9
201910141929,7814.8,7814.8,7812.2,7813.4
201910141930,7813.4,7813.9,7812.2,7812.4
201910141931,7812.4,7813.4,7809.6,7809.7
201910141932,7809.7,7810.5,7807.9,7809.4
201910141933,7809.4,7813.3,7809.4,7812.6
201910141934,7812.6,7812.8,7811.5,7812.8
201910141935,7812.8,7815.1,7812.6,7815.1
201910141936,7815.1,7818.2,7814.9,7817.9
201910141937,7817.8,7818.1,7815.4,7816.1
201910141938,7816,7817.3,7815.4,7816
201910141939,7816,7816.2,7814.4,7815.1
201910141940,7815.1,7817.5,7815.1,7817
201910141941,7816.9,7817.6,7815,7816.1
201910141942,7816.1,7816.7,7814.9,7815.1
201910141943,7815.1,7818.3,7815.1,7816
201910141944,7816.2,7817.8,7815,7817.3
201910141945,7817.3,7818.7,7816.9,7817.4
201910141946,7817.4,7817.6,7816.8,7817.1
201910141947,7817.1,7817.8,7815.7,7817.5
201910141948,7817.6,7818.3,7816.8,7818
201910141949,7818,7818.5,7816.1,7817.4
201910141950,7817.4,7822,7817.4,7822
201910141951,7822,7822.4,7820.4,7822.2
201910141952,7822.2,7822.2,7820.9,7822
201910141953,7822,7822.6,7821.3,7821.3
201910141954,7821.4,7823.8,7821.4,7823.3
201910141955,7823.3,7829.3,7823.2,7826.5
201910141956,7826.5,7826.5,7824.1,7824.1
201910141957,7824.1,7826.6,7824.1,7826
201910141958,7826,7826.4,7824.9,7825.8
201910141959,7825.8,7826.8,7825.2,7826.6
201910142000,7826.6,7827.7,7826.1,7826.3
201910142001,7826.3,7827,7824.9,7825.9
201910142002,7825.9,7826.6,7825.5,7826.6
201910142003,7826.6,7826.8,7825.9,7826.2
201910142004,7826.2,7827.1,7825.9,7826.5
201910142005,7826.5,7826.6,7825.1,7825.2
201910142006,7825.2,7825.6,7823.4,7825.6
201910142007,7825.6,7825.6,7824.5,7824.5
201910142008,7824.5,7825.3,7824.3,7825.3
201910142009,7825.2,7825.7,7824.9,7825.4
201910142010,7825.5,7826.6,7825.4,7825.6
201910142011,7825.6,7826.2,7823.8,7826.1
201910142012,7826,7827.3,7825.3,7827
201910142013,7827,7828.3,7827,7827.8
201910142014,7827.8,7830.4,7827.6,7830.4
201910142015,7830.3,7830.3,7827.7,7828.4
201910142016,7828.4,7828.6,7827.5,7828.2
201910142017,7828.1,7828.4,7827.4,7827.5
201910142018,7827.5,7828,7827.5,7827.8
201910142019,7827.8,7828.8,7827.4,7828.6
201910142020,7828.6,7829.8,7828.6,7829.3
201910142021,7829.3,7830.9,7828.1,7830.4
201910142022,7830.4,7832,7827.8,7829.5
201910142023,7829.5,7829.9,7828.6,7828.6
201910142024,7828.6,7829.3,7828.2,7828.7
201910142025,7828.7,7830.1,7828.1,7829.3
201910142026,7829.3,7829.8,7828.1,7828.6
201910142027,7828.8,7831.6,7828.8,7830
201910142028,7830,7830.2,7829.5,7830
201910142029,7830,7831.3,7828.5,7831.3
201910142030,7831.3,7831.3,7830,7830.8
201910142031,7830.8,7831.8,7830.1,7831.6
201910142032,7831.6,7833,7831.3,7832.4
201910142033,7832.4,7833.9,7832.4,7833
201910142034,7833,7834,7831.5,7832.2
201910142035,7832.2,7832.8,7830.7,7832.8
201910142036,7833.1,7833.3,7831.6,7832.4
201910142037,7832.4,7833.2,7832.3,7832.4
201910142038,7832.4,7833.2,7831.4,7832.9
201910142039,7833,7834,7832.4,7833.1
201910142040,7833.1,7833.3,7832.6,7832.9
201910142041,7832.9,7835.2,7832.9,7835
201910142042,7834.9,7835.1,7832.9,7833.6
201910142043,7833.7,7834.1,7832.9,7832.9
201910142044,7833,7833.9,7833,7833.4
201910142045,7833.3,7835.4,7832.3,7833.1
201910142046,7832.8,7832.9,7832.2,7832.6
201910142047,7832.7,7835.3,7832.4,7833.8
201910142048,7833.8,7834.1,7833,7833.9
201910142049,7833.7,7834.7,7833.7,7834.2
201910142050,7834.2,7835.8,7833.8,7835.8
201910142051,7835.8,7835.8,7834.7,7835.1
201910142052,7835.1,7836.8,7835.1,7836.8
201910142053,7836.8,7837.4,7836.3,7836.9
201910142054,7836.9,7837.5,7836.6,7837.4
201910142055,7837.5,7841.3,7837.2,7840.5
201910142056,7840.5,7843.3,7840.1,7842.2
201910142057,7842.2,7843,7841.6,7843
201910142058,7843,7844.3,7842.7,7842.9
201910142059,7842.8,7843.9,7842.8,7843.7
201910142100,7843.7,7845.7,7841.9,7842.4
201910142101,7842.4,7843.2,7842.4,7842.8
201910142102,7842.7,7853.2,7842.5,7846.4
201910142103,7846.4,7846.6,7843.5,7844.1
201910142104,7844.3,7844.8,7843.1,7843.2
201910142105,7843.2,7844.3,7840.9,7841.7
201910142106,7841.7,7841.7,7838.2,7838.9
201910142107,7838.9,7840.8,7838.8,7839.8
201910142108,7839.9,7841.1,7838.5,7838.8
201910142109,7838.8,7838.9,7837.5,7837.9
201910142110,7837.9,7838.4,7837.2,7837.2
201910142111,7837.2,7838.3,7836.8,7837.2
201910142112,7837.2,7841.6,7837.2,7840.7
201910142113,7840.7,7841.4,7839.6,7840.5
201910142114,7840.6,7840.8,7838,7838.4
201910142115,7838.4,7839,7837.9,7838.4
201910142116,7838.3,7840.3,7837.9,7839.1
201910142117,7839,7839,7836.4,7836.4
201910142118,7836.3,7838.7,7836,7838.3
201910142119,7838.3,7839.4,7838.1,7839.4
201910142120,7839.4,7840.9,7838.4,7839.6
201910142121,7839.5,7839.5,7838.3,7839.4
201910142122,7839.4,7841,7839.2,7840.5
201910142123,7840.5,7840.9,7839.2,7839.4
201910142124,7839.4,7840.6,7839.3,7839.9
201910142125,7839.9,7840.7,7839.9,7840.6
201910142126,7840.6,7840.6,7839.4,7839.7
201910142127,7839.6,7840.3,7838.3,7839.7
201910142128,7839.8,7840.3,7838.7,7839
201910142129,7839,7840.2,7838.7,7839.6
201910142130,7839.6,7839.8,7838.1,7839.1
201910142131,7839.1,7839.6,7837.8,7837.8
201910142132,7837.8,7839.3,7837.4,7839.1
201910142133,7839.1,7839.3,7837.9,7838
201910142134,7837.9,7838.6,7837.3,7838.5
201910142135,7838.8,7838.8,7837.3,7838.3
201910142136,7838.4,7841.5,7838.4,7841.2
201910142137,7841.2,7841.4,7839.7,7840.3
201910142138,7840.3,7841,7840,7840.4
201910142139,7840.4,7840.5,7839,7839.9
201910142140,7839.9,7840.3,7839.6,7839.6
201910142141,7839.3,7839.3,7835.3,7835.3
201910142142,7835.3,7835.3,7833.4,7834.7
201910142143,7834.7,7836.2,7834.1,7835.4
201910142144,7835.4,7835.6,7834.5,7834.9
201910142145,7834.9,7835.3,7833.2,7833.2
201910142146,7833.2,7834.6,7831.9,7834.4
201910142147,7834.4,7835.1,7833.6,7835
201910142148,7834.9,7836.4,7834.7,7835.8
201910142149,7835.8,7836.4,7835.2,7835.4
201910142150,7835.4,7835.4,7834.2,7834.6
201910142151,7834.6,7834.9,7834.1,7834.6
201910142152,7834.6,7834.7,7833.7,7833.9
201910142153,7834.1,7834.5,7831.6,7833.8
201910142154,7833.8,7835.3,7833.8,7834.9
201910142155,7834.9,7834.9,7833.7,7834.7
201910142156,7834.7,7835.2,7833.4,7833.6
201910142157,7833.6,7835.3,7833.4,7835.3
201910142158,7835.3,7836.4,7835.3,7836.1
201910142159,7836.1,7838,7836,7836
201910142200,7836,7836.5,7835.2,7836
201910142201,7836,7837.6,7836,7836.7
201910142202,7836.7,7839.3,7836.1,7839.3
201910142203,7839.3,7840.5,7838.7,7840
201910142204,7840,7840.3,7839,7839.3
201910142205,7839.3,7841.4,7839,7840.4
201910142206,7840.4,7842.2,7839.9,7842.1
201910142207,7842.2,7843.4,7841,7841.5
201910142208,7841.7,7841.7,7839.6,7840.4
201910142209,7840.4,7840.5,7839.4,7840.2
201910142210,7840.2,7841.1,7839.8,7841.1
201910142211,7841.1,7842.3,7840.5,7841.1
201910142212,7841.3,7841.8,7840.7,7841.1
201910142213,7841.1,7841.4,7840.6,7841.2
201910142214,7841.2,7841.9,7840.7,7840.9
201910142215,7840.9,7840.9,7838.4,7839.9
201910142216,7839.9,7840.4,7838.9,7839.6
201910142217,7839.6,7841.1,7839.6,7841
201910142218,7840.9,7841.3,7838.9,7839.4
201910142219,7839.4,7839.6,7838.7,7838.8
201910142220,7838.8,7839.3,7838.4,7839.2
201910142221,7839.2,7839.3,7838,7838.4
201910142222,7838.3,7838.3,7837.3,7837.3
201910142223,7837.3,7837.8,7837.1,7837.2
201910142224,7837.3,7837.3,7832.3,7833.3
201910142225,7833.3,7833.8,7831.9,7833.4
201910142226,7833.4,7835.5,7832.7,7834.8
201910142227,7834.9,7843.8,7834.5,7842
201910142228,7842,7848,7841.3,7844.3
201910142229,7844.4,7845.1,7842.8,7842.9
201910142230,7842.9,7861.4,7842.9,7859.2
201910142231,7859.2,7865.3,7859.2,7860.8
201910142232,7860.8,7861.4,7854.2,7854.4
201910142233,7854.2,7856.8,7851.9,7853
201910142234,7853,7853.3,7846.6,7848.5
201910142235,7848.5,7851.4,7845.9,7849.2
201910142236,7848.9,7850.8,7844.9,7846.8
201910142237,7846.8,7846.9,7838.7,7839.4
201910142238,7839.4,7841.8,7837.7,7838.6
201910142239,7838.6,7841.8,7836.8,7839.3
201910142240,7839.4,7841.9,7835.9,7836.3
201910142241,7836.4,7841.1,7836.4,7840.7
201910142242,7840.5,7842.4,7838.4,7842.4
201910142243,7842.4,7847.7,7841.8,7844.2
201910142244,7844.2,7844.2,7838.4,7841.8
201910142245,7841.7,7846.9,7838.2,7844.5
201910142246,7844.4,7850.7,7841.7,7849.2
201910142247,7849.2,7850.8,7847,7849.5
201910142248,7849.5,7853,7849.3,7852.9
201910142249,7852.9,7858.6,7852.2,7857.8
201910142250,7857.8,7857.9,7853.2,7855.2
201910142251,7855.2,7855.3,7850.7,7852.7
201910142252,7852.7,7852.7,7847.7,7849.2
201910142253,7849.2,7849.8,7847.2,7849.1
201910142254,7849.4,7851.1,7848.4,7848.5
201910142255,7848.6,7853.3,7846.5,7852.4
201910142256,7852.3,7857.3,7851.9,7856.7
201910142257,7856.8,7859.5,7854.3,7856.6
201910142258,7856.6,7859,7856.4,7858
201910142259,7858.1,7858.1,7854.3,7855.9
201910142300,7855.9,7858.9,7855.3,7856.4
201910142301,7856.4,7860.1,7856.1,7857.7
201910142302,7857.7,7859.5,7854.4,7858.1
201910142303,7857.9,7862.2,7857.9,7859.6
201910142304,7859.6,7862,7857.9,7860.6
201910142305,7860.7,7861.6,7859.1,7859.9
201910142306,7859.9,7862.6,7858.2,7862.4
201910142307,7862.4,7864.9,7860.9,7863.9
201910142308,7863.9,7870.3,7863.9,7869.8
201910142309,7869.9,7873.3,7868.7,7872.1
201910142310,7872.1,7872.3,7869.9,7872
201910142311,7872.1,7872.1,7869.2,7870.8
201910142312,7870.8,7870.8,7868.1,7868.5
201910142313,7868.5,7868.8,7866.2,7867.3
201910142314,7867.3,7867.5,7861.9,7861.9
201910142315,7861.8,7863.4,7860.9,7860.9
201910142316,7860.9,7861.6,7859.4,7860.4
201910142317,7860.4,7861.7,7859.6,7859.8
201910142318,7859.2,7860.3,7856.5,7856.9
201910142319,7856.8,7857.3,7854.8,7854.9
201910142320,7854.9,7855.7,7853,7854.6
201910142321,7854.8,7855.8,7853.5,7855.3
201910142322,7855.3,7856,7854.1,7856
201910142323,7856,7857.4,7855.7,7856.3
201910142324,7856.4,7856.6,7851.7,7851.9
201910142325,7851.7,7853.7,7850.5,7851.2
201910142326,7851.2,7854.3,7849.1,7849.3
201910142327,7849.4,7853.4,7849.4,7853.4
201910142328,7853.4,7854,7851.9,7853.9
201910142329,7853.9,7854.5,7852.4,7852.8
201910142330,7852.8,7858.3,7852.8,7857.8
201910142331,7857.9,7862.1,7857.6,7860.9
201910142332,7860.9,7862.9,7860.7,7861.8
201910142333,7861.6,7863.1,7861.2,7861.7
201910142334,7861.7,7861.7,7858.6,7860
201910142335,7860.1,7864.9,7860,7863.2
201910142336,7863.1,7863.3,7859.9,7861.6
201910142337,7861.6,7863.1,7860.4,7861.8
201910142338,7861.8,7864,7861.7,7863.8
201910142339,7863.8,7868.3,7863.7,7867.4
201910142340,7867.4,7869.4,7866.2,7866.9
201910142341,7866.9,7867.9,7865.5,7865.8
201910142342,7865.9,7868.5,7864.9,7866.3
201910142343,7866.3,7868.4,7865.4,7868.1
201910142344,7868.2,7869.6,7867.9,7868.9
201910142345,7868.8,7870.4,7867.4,7870
201910142346,7870.2,7870.2,7867.3,7867.3
201910142347,7867.3,7869.5,7866.8,7868.8
201910142348,7868.8,7869.6,7867.4,7867.7
201910142349,7867.6,7869.3,7867.2,7869.1
201910142350,7869.1,7870.3,7868.1,7868.6
201910142351,7868.6,7869.1,7866.6,7867.2
201910142352,7867.2,7869.5,7866.7,7867.5
201910142353,7867.5,7869.7,7867.1,7867.5
201910142354,7867.5,7869.5,7867.2,7868.5
201910142355,7868.5,7872.3,7867.4,7870.1
201910142356,7870.1,7871.7,7870.1,7870.9
201910142357,7870.9,7871,7869.2,7869.9
201910142358,7869.9,7875.9,7869.9,7874.8
201910142359,7874.8,7876.8,7874.6,7875.4
201910150000,7875.4,7878.3,7873.5,7873.8
201910150001,7874,7874.5,7872,7872.6
201910150002,7872.6,7872.6,7869.2,7869.9
201910150003,7869.9,7869.9,7867.2,7867.2
201910150004,7866.9,7867.4,7863.4,7865.6
201910150005,7865.7,7866.8,7861.2,7861.3
201910150006,7861.4,7865,7861.1,7864.8
201910150007,7864.8,7866.1,7863.9,7865.6
201910150008,7865.6,7867.4,7864.4,7867.4
201910150009,7867.4,7869.8,7866.6,7866.7
201910150010,7866.7,7869,7865.9,7867.9
201910150011,7867.9,7868.4,7862.7,7863.4
201910150012,7863.4,7864.8,7861.9,7864.8
201910150013,7864.8,7865.5,7863.9,7864.5
201910150014,7864.6,7869.8,7863.4,7868.4
201910150015,7868.4,7868.7,7865.6,7867.7
201910150016,7867.6,7868.6,7865.9,7866.3
201910150017,7866.3,7868.1,7866.2,7866.6
201910150018,7866.6,7868.8,7866.6,7867.2
201910150019,7867.3,7867.5,7866.4,7866.9
201910150020,7866.8,7867.2,7865.4,7865.6
201910150021,7865.5,7866.1,7861.9,7862.9
201910150022,7862.9,7865.3,7862.9,7863.7
201910150023,7863.7,7866.1,7863.7,7864.8
201910150024,7864.8,7865.8,7862.9,7864.3
201910150025,7864.4,7865.5,7863.1,7863.8
201910150026,7863.8,7863.9,7858.7,7859.5
201910150027,7859.6,7861.9,7858.8,7861.4
201910150028,7861.3,7862.5,7859.9,7860.8
201910150029,7860.9,7862.5,7860.4,7861.3
201910150030,7861.3,7865.1,7860.6,7864
201910150031,7864,7866.3,7863.7,7865.8
201910150032,7865.8,7866.4,7863.9,7865
201910150033,7865,7866,7864.4,7865.3
201910150034,7865.4,7865.9,7864.2,7865.9
201910150035,7865.8,7868.2,7865.8,7867.3
201910150036,7867.2,7868.4,7867.2,7868
201910150037,7867.9,7869.5,7867.5,7869
201910150038,7869,7870.4,7867.7,7869.5
201910150039,7869.5,7870.7,7868.9,7869.8
201910150040,7869.8,7872,7867.4,7867.8
201910150041,7867.7,7870.1,7867.7,7869.4
201910150042,7869.4,7869.9,7867.7,7868.2
201910150043,7868.2,7868.5,7865.7,7865.7
201910150044,7865.7,7865.8,7864.1,7864.1
201910150045,7864.1,7865.4,7863.8,7864.9
201910150046,7864.9,7865.8,7864,7865.8
201910150047,7865.8,7866.4,7864.2,7866.2
201910150048,7866.2,7866.3,7863.4,7863.8
201910150049,7863.8,7864.5,7863,7863.9
201910150050,7863.8,7864.5,7863.2,7864.3
201910150051,7864.3,7865.3,7863.9,7865.2
201910150052,7865.2,7865.2,7863.2,7864.6
201910150053,7864.6,7866.7,7864.6,7865.9
201910150054,7865.9,7867.5,7865.4,7866.8
201910150055,7866.8,7868.8,7864.7,7864.9
201910150056,7864.9,7865.1,7863.7,7864.4
201910150057,7864.4,7866,7863.7,7865.2
201910150058,7865.2,7865.5,7863.4,7863.5
201910150059,7863.5,7863.8,7862.1,7863
201910150100,7863,7865.8,7861.9,7864
201910150101,7864,7864.8,7861.3,7861.3
201910150102,7861.4,7862.4,7860.6,7860.7
201910150103,7860.7,7860.7,7857.9,7858.5
201910150104,7858.5,7859,7856,7857.2
201910150105,7857.2,7858.6,7856.9,7858.5
201910150106,7858.5,7861.6,7858.5,7861.6
201910150107,7861.6,7862,7860.1,7861.9
201910150108,7861.9,7861.9,7860.1,7860.9
201910150109,7860.9,7862.1,7860.5,7861.6
201910150110,7861.6,7861.9,7858.9,7859
201910150111,7859.1,7859.1,7856.4,7857.6
201910150112,7857.6,7859.1,7857.3,7858.3
201910150113,7858.3,7860,7857.5,7859.6
201910150114,7859.5,7859.5,7858.4,7859.1
201910150115,7859.3,7860.7,7859.1,7860.3
201910150116,7860.3,7861.1,7860.1,7860.9
201910150117,7860.8,7863.1,7860.8,7863.1
201910150118,7863.1,7863.1,7861.4,7861.5
201910150119,7861.7,7861.9,7860.4,7861.8
201910150120,7861.8,7862.3,7854.9,7856.4
201910150121,7856.4,7856.8,7852.8,7855.6
201910150122,7855.6,7857.8,7855.4,7856.8
201910150123,7856.8,7858.9,7856.2,7858.3
201910150124,7858.2,7858.3,7856.4,7857.2
201910150125,7857.2,7857.2,7854.3,7854.5
201910150126,7854.5,7856.5,7853.9,7855.4
201910150127,7855.4,7855.6,7853.4,7853.4
201910150128,7853.4,7855.1,7852.9,7854.3
201910150129,7854.3,7855.3,7853.3,7854
201910150130,7854,7855.3,7853.1,7855.3
201910150131,7855.3,7857.3,7854.9,7857.1
201910150132,7857.1,7857.6,7855.9,7856.4
201910150133,7856.3,7857.9,7855.9,7857.6
201910150134,7857.6,7857.6,7856.4,7856.7
201910150135,7856.6,7857.5,7856.3,7856.9
201910150136,7856.9,7858.9,7856.9,7858.7
201910150137,7858.5,7860,7858.2,7858.7
201910150138,7858.7,7858.7,7857.2,7857.2
201910150139,7857.2,7858.2,7856,7856.5
201910150140,7856.5,7856.5,7854.5,7854.5
201910150141,7854.5,7855.5,7853.6,7854.5
201910150142,7854.5,7856,7854.4,7855.7
201910150143,7855.7,7857.1,7855.4,7857
201910150144,7857,7857,7854.9,7854.9
201910150145,7854.9,7857,7853.9,7856.7
201910150146,7856.7,7857,7856.4,7856.5
201910150147,7856.5,7858,7856.2,7858
201910150148,7857.9,7857.9,7855.2,7855.8
201910150149,7855.8,7856.4,7853.4,7853.9
201910150150,7853.9,7855.9,7853.9,7854.7
201910150151,7854.7,7855.7,7853.4,7853.5
201910150152,7853.5,7853.8,7852.4,7853.6
201910150153,7853.6,7855.2,7853.6,7853.9
201910150154,7853.9,7854.1,7851.6,7852.7
201910150155,7852.7,7853.8,7852.2,7853.3
201910150156,7853.3,7853.6,7852.2,7852.3
201910150157,7852.3,7852.8,7851.9,7852.4
201910150158,7852.4,7852.5,7850.7,7850.7
201910150159,7850.5,7855.5,7850.5,7854.7
201910150200,7854.7,7855.3,7853.4,7854.9
201910150201,7854.9,7856.1,7854.6,7855.4
201910150202,7855.4,7856.7,7855.4,7856.2
201910150203,7856.1,7856.3,7854.9,7855.2
201910150204,7855.2,7856.8,7854.7,7856.1
201910150205,7856.1,7859.4,7855.5,7858.4
201910150206,7858.4,7859.1,7857.7,7859.1
201910150207,7859,7862.1,7858.9,7861.3
201910150208,7861.4,7862.3,7860.4,7862.3
201910150209,7862.3,7862.5,7860.5,7860.9
201910150210,7860.9,7861.7,7860.2,7860.5
201910150211,7860.5,7860.6,7859.4,7860.4
201910150212,7860.3,7860.8,7859.9,7860
201910150213,7860,7860.3,7859.4,7859.6
201910150214,7859.5,7860.1,7858.9,7860
201910150215,7860,7861.1,7859.9,7860.4
201910150216,7860.4,7862,7860.4,7861.8
201910150217,7861.8,7862,7859.4,7859.5
201910150218,7859.5,7859.5,7857.4,7857.9
201910150219,7857.9,7858.1,7856.5,7857.9
201910150220,7857.9,7859.5,7857.8,7858.8
201910150221,7858.8,7859.1,7857.3,7857.3
201910150222,7857.3,7857.3,7855.1,7855.2
201910150223,7855.2,7855.5,7854.7,7855.5
201910150224,7855.5,7856.5,7854.6,7855.3
201910150225,7855.3,7855.9,7854.5,7855.6
201910150226,7855.5,7856.7,7855.2,7855.4
201910150227,7855.4,7857.1,7854.6,7857.1
201910150228,7857,7858.4,7856.9,7858.1
201910150229,7858.1,7858.2,7857.4,7857.6
201910150230,7857.7,7857.7,7854.4,7854.5
201910150231,7854.5,7855.3,7854.3,7855.3
201910150232,7855.3,7856,7854.2,7856
201910150233,7856,7856,7854.8,7855.4
201910150234,7855.3,7855.3,7853.7,7854.7
201910150235,7854.7,7855,7853.3,7854.3
201910150236,7854.3,7854.3,7852.4,7852.7
201910150237,7852.6,7853,7852,7852.2
201910150238,7852.2,7853.5,7851.2,7852.2
201910150239,7852.2,7852.9,7850.9,7852.7
201910150240,7852.6,7854.3,7852.6,7853.4
201910150241,7853.4,7857.1,7852.9,7856.8
201910150242,7856.8,7859.6,7856.1,7859.1
201910150243,7859,7860.4,7858.4,7858.8
201910150244,7858.8,7859.3,7857.7,7857.7
201910150245,7857.7,7858.6,7856.9,7857.9
201910150246,7857.9,7857.9,7856.2,7856.9
201910150247,7856.9,7858.3,7856.9,7858.3
201910150248,7858.1,7859,7857.6,7858.9
201910150249,7858.9,7860.1,7858.9,7860.1
201910150250,7860.2,7860.5,7858.9,7858.9
201910150251,7858.8,7858.8,7855.9,7856.3
201910150252,7856.3,7857.4,7856.1,7856.9
201910150253,7856.9,7858.6,7856.9,7858.5
201910150254,7858.6,7861.9,7857.9,7860.9
201910150255,7860.9,7861,7859.9,7860.8
201910150256,7860.8,7863,7860.7,7862.6
201910150257,7862.6,7864.1,7862.1,7862.9
201910150258,7862.7,7863.9,7862.5,7863.4
201910150259,7863.4,7865,7863.2,7864.7
201910150300,7864.7,7869.4,7864.4,7865.6
201910150301,7865.8,7866.3,7864.1,7864.5
201910150302,7864.5,7865.6,7864.4,7864.4
201910150303,7864.4,7865.3,7863.9,7864.5
201910150304,7864.5,7864.9,7863.6,7863.6
201910150305,7863.6,7864.6,7862.6,7864.3
201910150306,7864.3,7865.9,7864.2,7865.4
201910150307,7865.4,7866.3,7864.9,7866
201910150308,7866,7866.5,7865.2,7865.9
201910150309,7865.9,7866.5,7865.3,7866.1
201910150310,7866.2,7867,7865.8,7866.7
201910150311,7866.6,7867.6,7866.1,7867.4
201910150312,7867.4,7867.6,7866.5,7866.9
201910150313,7866.9,7869.1,7866.9,7868.9
201910150314,7868.9,7870.3,7868.4,7870.2
201910150315,7870.1,7870.9,7868.9,7869.2
201910150316,7869.2,7870.2,7868.2,7868.4
201910150317,7868.4,7868.6,7867.2,7868
201910150318,7868,7869.9,7867.9,7868.8
201910150319,7868.8,7870.6,7868.8,7869.1
201910150320,7869.1,7870.4,7868.9,7870.4
201910150321,7870.3,7871,7868.9,7868.9
201910150322,7868.9,7869,7868,7868.2
201910150323,7868.2,7870.1,7867.5,7869.8
201910150324,7869.8,7869.8,7867.9,7868.2
201910150325,7868.2,7868.5,7867.3,7868.3
201910150326,7868.2,7869.6,7867.9,7868.7
201910150327,7868.7,7870.2,7868.6,7869.3
201910150328,7869.3,7869.8,7868.9,7869.1
201910150329,7869,7869.3,7866.5,7868.7
201910150330,7868.7,7869.1,7867.7,7867.7
201910150331,7867.6,7868.7,7867.2,7867.7
201910150332,7867.7,7868.6,7867.3,7868.6
201910150333,7868.5,7869.4,7867,7869.4
201910150334,7869.4,7869.4,7868.2,7868.9
201910150335,7868.9,7868.9,7867.4,7867.6
201910150336,7867.6,7867.9,7864.7,7865.6
201910150337,7865.5,7867.5,7865.3,7866.9
201910150338,7866.9,7867.6,7866.3,7866.3
201910150339,7866.3,7866.4,7864.5,7864.9
201910150340,7864.9,7865.9,7864.5,7864.9
201910150341,7864.9,7865.5,7864.4,7864.5
201910150342,7864.6,7865.3,7864,7864.5
201910150343,7864.5,7866.7,7864.5,7865.4
201910150344,7865.4,7865.5,7863.6,7865.4
201910150345,7865.4,7865.7,7863.6,7863.8
201910150346,7863.8,7864,7863.1,7863.8
201910150347,7863.8,7864.3,7863.4,7863.9
201910150348,7863.9,7864.1,7862.7,7862.7
201910150349,7862.7,7864.1,7862.4,7864.1
201910150350,7864,7866.9,7864,7865.4
201910150351,7865.4,7865.4,7861.4,7863.4
201910150352,7863.4,7864.1,7862.4,7862.9
201910150353,7862.9,7863.9,7862.6,7863.7
201910150354,7863.7,7864.9,7863.2,7864.2
201910150355,7864.2,7864.3,7863.4,7863.7
201910150356,7863.7,7866.2,7863.4,7865.8
201910150357,7865.8,7866.1,7864.4,7864.9
201910150358,7864.9,7866.4,7864.9,7866.3
201910150359,7866.3,7866.3,7864.7,7864.7
201910150400,7864.5,7866.3,7863.8,7866.1
201910150401,7866.1,7866.2,7863.7,7865.2
201910150402,7865.3,7866,7863.6,7863.8
201910150403,7863.8,7864.3,7862.3,7863.3
201910150404,7863.3,7863.5,7861.2,7861.3
201910150405,7861.3,7861.3,7860,7860.4
201910150406,7860.4,7860.6,7859.4,7860.1
201910150407,7860.1,7861.8,7860.1,7861.8
201910150408,7861.9,7862.7,7861.9,7862.5
201910150409,7862.5,7862.9,7861.2,7861.2
201910150410,7861.2,7862.3,7861,7862
201910150411,7861.8,7862.3,7860.7,7862.2
201910150412,7862.2,7863.3,7861.9,7863.3
201910150413,7862.9,7864.3,7862.8,7863.4
201910150414,7863.4,7863.5,7861.9,7863.4
201910150415,7863.4,7863.9,7862.4,7863.4
201910150416,7863.4,7863.8,7862.4,7862.9
201910150417,7862.9,7864,7862.4,7863.8
201910150418,7863.8,7866.5,7863.8,7866.1
201910150419,7866.1,7867.2,7865.9,7866.7
201910150420,7866.7,7867.1,7865.5,7865.5
201910150421,7865.6,7867.6,7864.9,7867.4
201910150422,7867.4,7868,7867.3,7867.8
201910150423,7867.9,7868.5,7866.2,7866.2
201910150424,7866.2,7868.8,7866.2,7867.7
201910150425,7867.7,7869.4,7867.1,7869.4
201910150426,7869.4,7869.5,7868.6,7868.6
201910150427,7868.7,7870.8,7868.2,7869.4
201910150428,7869.4,7869.4,7867.4,7867.5
201910150429,7867.5,7867.6,7865.5,7866.2
201910150430,7866.3,7867,7864.3,7864.5
201910150431,7864.5,7865.1,7861.5,7861.5
201910150432,7861.5,7861.6,7858.2,7861.4
201910150433,7861.4,7861.4,7859.6,7860.5
201910150434,7860.6,7861.5,7859.6,7860.9
201910150435,7860.9,7861.3,7859.9,7861.3
201910150436,7861.3,7861.4,7859.4,7860.4
201910150437,7860.4,7862.8,7860.4,7862.5
201910150438,7862.5,7862.9,7861.4,7861.7
201910150439,7861.7,7863.1,7860.5,7860.9
201910150440,7860.9,7861,7857.5,7858.1
201910150441,7858,7858.6,7856.7,7857.2
201910150442,7857.2,7857.4,7855.7,7857.1
201910150443,7857.1,7858.1,7857,7857.6
201910150444,7857.6,7858.7,7857.2,7858.2
201910150445,7858.2,7859.4,7856.4,7856.8
201910150446,7856.8,7857,7855.4,7856.4
201910150447,7856.3,7857.8,7856.1,7856.1
201910150448,7856.1,7857.4,7855.5,7857.2
201910150449,7857.1,7858.2,7856.3,7856.9
201910150450,7856.9,7861.7,7854.9,7860.4
201910150451,7860.4,7861.2,7857.2,7857.2
201910150452,7857.4,7858.6,7856.6,7858.3
201910150453,7858.3,7862.3,7858.1,7861.7
201910150454,7861.7,7864.2,7861.7,7863.3
201910150455,7863.5,7863.5,7855.9,7858.1
201910150456,7858.1,7858.9,7855.2,7855.2
201910150457,7855.3,7857.8,7854.3,7857.8
201910150458,7857.9,7858.7,7855.2,7855.4
201910150459,7855.4,7857.9,7853.1,7855.2
201910150500,7853.6,7855.4,7849.6,7849.8
201910150501,7849.8,7853,7847.3,7851.5
201910150502,7851.5,7852.3,7849.8,7852
201910150503,7852,7853.3,7851.8,7852.8
201910150504,7852.8,7854,7852.3,7853.8
201910150505,7853.9,7856.3,7853.9,7855.9
201910150506,7855.9,7857.8,7855.7,7857.4
201910150507,7857.4,7858,7857.1,7857.6
201910150508,7857.6,7857.8,7856.7,7857.7
201910150509,7857.7,7857.7,7855.9,7856.2
201910150510,7856.2,7859,7856.2,7858.7
201910150511,7858.7,7859.5,7858.6,7859.4
201910150512,7859.4,7859.8,7859.2,7859.6
201910150513,7859.6,7864,7859.6,7863.4
201910150514,7863.3,7863.3,7855.8,7857.8
