日時,始値(BID),高値(BID),安値(BID),終値(BID)
201906030700,24742,24743,24700,24700
201906030701,24700,24709,24690,24698
201906030702,24698,24708,24693,24706
201906030703,24706,24706,24696,24706
201906030704,24706,24707,24691,24692
201906030705,24692,24695,24684,24686
201906030706,24686,24694,24686,24689
201906030707,24689,24697,24688,24695
201906030708,24695,24701,24695,24699
201906030709,24699,24699,24695,24696
201906030710,24695,24698,24693,24693
201906030711,24693,24698,24692,24693
201906030712,24693,24696,24690,24690
201906030713,24691,24699,24691,24691
201906030714,24691,24691,24680,24680
201906030715,24680,24688,24678,24679
201906030716,24680,24680,24676,24677
201906030717,24677,24677,24666,24666
201906030718,24667,24667,24660,24663
201906030719,24663,24664,24663,24663
201906030720,24663,24663,24658,24659
201906030721,24659,24659,24628,24628
201906030722,24628,24643,24627,24639
201906030723,24639,24639,24629,24629
201906030724,24629,24629,24616,24629
201906030725,24629,24634,24629,24634
201906030726,24634,24634,24626,24628
201906030727,24628,24629,24626,24626
201906030728,24626,24640,24626,24640
201906030729,24640,24649,24640,24646
201906030730,24646,24659,24644,24652
201906030731,24652,24654,24644,24645
201906030732,24645,24646,24640,24642
201906030733,24642,24647,24642,24646
201906030734,24647,24655,24646,24652
201906030735,24652,24652,24648,24651
201906030736,24651,24654,24650,24650
201906030737,24650,24652,24644,24645
201906030738,24645,24645,24636,24636
201906030739,24636,24637,24627,24627
201906030740,24627,24637,24623,24624
201906030741,24623,24625,24620,24623
201906030742,24623,24630,24621,24630
201906030743,24630,24641,24628,24641
201906030744,24642,24643,24635,24636
201906030745,24636,24642,24636,24641
201906030746,24640,24640,24628,24630
201906030747,24630,24637,24630,24637
201906030748,24637,24638,24629,24634
201906030749,24634,24636,24628,24631
201906030750,24631,24635,24630,24635
201906030751,24635,24638,24632,24634
201906030752,24634,24644,24632,24641
201906030753,24641,24643,24635,24636
201906030754,24636,24636,24631,24633
201906030755,24633,24636,24631,24632
201906030756,24632,24638,24632,24638
201906030757,24638,24645,24638,24640
201906030758,24640,24640,24634,24634
201906030759,24634,24638,24634,24638
201906030800,24638,24644,24636,24643
201906030801,24643,24646,24630,24631
201906030802,24632,24641,24630,24636
201906030803,24636,24643,24636,24640
201906030804,24640,24650,24640,24645
201906030805,24645,24646,24642,24642
201906030806,24642,24648,24642,24648
201906030807,24648,24650,24645,24650
201906030808,24650,24654,24647,24653
201906030809,24653,24654,24646,24651
201906030810,24651,24652,24648,24652
201906030811,24652,24655,24651,24655
201906030812,24655,24656,24651,24655
201906030813,24655,24661,24654,24658
201906030814,24658,24661,24642,24642
201906030815,24642,24655,24642,24653
201906030816,24653,24654,24649,24650
201906030817,24650,24650,24643,24644
201906030818,24644,24650,24644,24648
201906030819,24648,24652,24644,24650
201906030820,24650,24652,24645,24649
201906030821,24648,24651,24648,24650
201906030822,24649,24656,24649,24653
201906030823,24653,24653,24650,24652
201906030824,24651,24653,24648,24650
201906030825,24649,24655,24648,24655
201906030826,24655,24655,24650,24650
201906030827,24650,24656,24648,24656
201906030828,24656,24659,24655,24658
201906030829,24658,24658,24655,24657
201906030830,24657,24658,24650,24653
201906030831,24653,24655,24652,24654
201906030832,24654,24657,24654,24656
201906030833,24656,24656,24644,24650
201906030834,24650,24651,24642,24643
201906030835,24640,24642,24636,24638
201906030836,24638,24640,24637,24639
201906030837,24639,24645,24639,24644
201906030838,24644,24647,24644,24646
201906030839,24646,24647,24645,24646
201906030840,24646,24646,24639,24639
201906030841,24639,24643,24639,24641
201906030842,24640,24643,24639,24639
201906030843,24639,24640,24636,24638
201906030844,24638,24641,24637,24638
201906030845,24639,24644,24637,24641
201906030846,24641,24644,24637,24638
201906030847,24638,24643,24637,24642
201906030848,24642,24644,24641,24642
201906030849,24642,24643,24639,24640
201906030850,24640,24642,24638,24639
201906030851,24640,24642,24638,24642
201906030852,24642,24647,24641,24647
201906030853,24647,24651,24645,24649
201906030854,24650,24652,24638,24638
201906030855,24638,24645,24637,24644
201906030856,24644,24652,24644,24651
201906030857,24651,24653,24645,24645
201906030858,24645,24648,24643,24644
201906030859,24644,24647,24644,24646
201906030900,24647,24653,24641,24642
201906030901,24642,24642,24637,24641
201906030902,24641,24654,24635,24651
201906030903,24652,24665,24646,24660
201906030904,24660,24666,24660,24665
201906030905,24665,24672,24658,24658
201906030906,24658,24664,24657,24663
201906030907,24663,24664,24659,24660
201906030908,24660,24662,24654,24661
201906030909,24661,24668,24658,24667
201906030910,24667,24669,24660,24660
201906030911,24661,24665,24659,24663
201906030912,24663,24672,24663,24666
201906030913,24666,24667,24661,24663
201906030914,24663,24664,24660,24661
201906030915,24661,24662,24657,24660
201906030916,24659,24670,24659,24670
201906030917,24670,24671,24665,24669
201906030918,24669,24670,24667,24670
201906030919,24669,24671,24667,24671
201906030920,24671,24678,24671,24673
201906030921,24673,24676,24670,24671
201906030922,24671,24673,24667,24668
201906030923,24669,24673,24668,24671
201906030924,24671,24671,24664,24665
201906030925,24665,24667,24660,24660
201906030926,24661,24672,24660,24672
201906030927,24673,24673,24669,24671
201906030928,24671,24671,24664,24665
201906030929,24665,24668,24664,24666
201906030930,24666,24667,24662,24666
201906030931,24666,24673,24666,24672
201906030932,24672,24676,24671,24673
201906030933,24673,24684,24671,24684
201906030934,24683,24691,24683,24687
201906030935,24687,24690,24687,24690
201906030936,24690,24691,24688,24688
201906030937,24688,24691,24687,24688
201906030938,24688,24689,24687,24687
201906030939,24687,24689,24685,24685
201906030940,24685,24685,24682,24683
201906030941,24683,24685,24678,24680
201906030942,24680,24687,24680,24686
201906030943,24686,24690,24685,24689
201906030944,24688,24691,24684,24685
201906030945,24685,24688,24684,24687
201906030946,24687,24689,24685,24685
201906030947,24686,24689,24684,24688
201906030948,24688,24690,24687,24687
201906030949,24687,24691,24687,24689
201906030950,24689,24691,24689,24691
201906030951,24691,24692,24690,24692
201906030952,24693,24694,24691,24693
201906030953,24693,24694,24691,24692
201906030954,24692,24696,24692,24696
201906030955,24697,24697,24694,24696
201906030956,24695,24695,24693,24694
201906030957,24694,24694,24689,24691
201906030958,24691,24694,24691,24692
201906030959,24692,24695,24692,24695
201906031000,24695,24698,24690,24691
201906031001,24691,24692,24684,24687
201906031002,24687,24687,24677,24679
201906031003,24679,24682,24675,24681
201906031004,24681,24686,24678,24685
201906031005,24686,24686,24681,24681
201906031006,24681,24683,24681,24681
201906031007,24681,24681,24677,24678
201906031008,24677,24682,24674,24682
201906031009,24681,24682,24674,24674
201906031010,24674,24674,24670,24673
201906031011,24672,24673,24670,24670
201906031012,24671,24672,24669,24671
201906031013,24671,24673,24666,24673
201906031014,24673,24673,24669,24672
201906031015,24671,24677,24671,24675
201906031016,24675,24681,24675,24678
201906031017,24678,24688,24678,24687
201906031018,24687,24688,24683,24683
201906031019,24684,24685,24677,24678
201906031020,24680,24681,24677,24681
201906031021,24681,24683,24678,24680
201906031022,24680,24680,24670,24670
201906031023,24670,24673,24668,24669
201906031024,24669,24676,24668,24676
201906031025,24676,24679,24676,24677
201906031026,24678,24682,24677,24679
201906031027,24679,24686,24679,24686
201906031028,24686,24692,24686,24690
201906031029,24690,24691,24686,24688
201906031030,24689,24691,24682,24689
201906031031,24689,24695,24687,24687
201906031032,24687,24688,24677,24681
201906031033,24682,24685,24678,24679
201906031034,24678,24679,24671,24672
201906031035,24673,24673,24664,24665
201906031036,24665,24671,24663,24671
201906031037,24672,24675,24670,24674
201906031038,24674,24682,24673,24675
201906031039,24675,24675,24667,24669
201906031040,24669,24674,24665,24667
201906031041,24667,24669,24664,24669
201906031042,24669,24672,24667,24667
201906031043,24667,24670,24667,24668
201906031044,24668,24681,24668,24680
201906031045,24680,24697,24680,24691
201906031046,24691,24696,24690,24694
201906031047,24693,24697,24693,24696
201906031048,24696,24705,24692,24694
201906031049,24694,24699,24690,24690
201906031050,24690,24694,24689,24689
201906031051,24689,24695,24682,24686
201906031052,24686,24690,24686,24687
201906031053,24688,24695,24687,24694
201906031054,24695,24696,24691,24692
201906031055,24692,24693,24686,24687
201906031056,24687,24691,24686,24690
201906031057,24691,24697,24690,24691
201906031058,24691,24694,24686,24686
201906031059,24686,24688,24681,24682
201906031100,24682,24684,24677,24678
201906031101,24678,24689,24678,24687
201906031102,24688,24688,24678,24680
201906031103,24680,24680,24674,24678
201906031104,24678,24679,24670,24670
201906031105,24670,24678,24670,24677
201906031106,24677,24684,24675,24683
201906031107,24683,24688,24682,24683
201906031108,24683,24684,24677,24679
201906031109,24679,24680,24671,24672
201906031110,24672,24675,24669,24673
201906031111,24673,24676,24673,24673
201906031112,24673,24675,24670,24675
201906031113,24675,24676,24669,24669
201906031114,24669,24672,24667,24668
201906031115,24667,24668,24662,24662
201906031116,24662,24669,24662,24668
201906031117,24667,24673,24666,24673
201906031118,24673,24675,24670,24673
201906031119,24673,24673,24670,24672
201906031120,24673,24674,24670,24672
201906031121,24673,24674,24666,24667
201906031122,24667,24669,24665,24667
201906031123,24667,24671,24664,24669
201906031124,24670,24670,24666,24667
201906031125,24667,24669,24664,24664
201906031126,24664,24665,24661,24664
201906031127,24664,24669,24663,24668
201906031128,24668,24668,24665,24666
201906031129,24666,24666,24663,24664
201906031130,24664,24669,24663,24669
201906031131,24669,24670,24667,24668
201906031132,24668,24669,24666,24667
201906031133,24667,24671,24666,24671
201906031134,24671,24677,24670,24674
201906031135,24675,24678,24674,24677
201906031136,24677,24677,24672,24672
201906031137,24672,24673,24671,24671
201906031138,24671,24677,24671,24676
201906031139,24676,24676,24674,24674
201906031140,24674,24675,24668,24670
201906031141,24670,24678,24670,24676
201906031142,24676,24680,24673,24679
201906031143,24679,24680,24675,24677
201906031144,24677,24679,24677,24679
201906031145,24679,24681,24678,24679
201906031146,24680,24682,24680,24681
201906031147,24681,24684,24679,24679
201906031148,24679,24688,24679,24686
201906031149,24686,24687,24683,24683
201906031150,24683,24684,24679,24679
201906031151,24679,24682,24677,24677
201906031152,24677,24678,24673,24675
201906031153,24675,24675,24671,24674
201906031154,24674,24680,24674,24679
201906031155,24679,24680,24675,24678
201906031156,24678,24680,24675,24679
201906031157,24679,24681,24675,24675
201906031158,24675,24681,24675,24679
201906031159,24679,24681,24675,24675
201906031200,24675,24681,24675,24679
201906031201,24679,24680,24674,24675
201906031202,24674,24678,24673,24675
201906031203,24675,24676,24673,24673
201906031204,24673,24677,24673,24675
201906031205,24675,24675,24671,24671
201906031206,24671,24674,24668,24673
201906031207,24673,24677,24672,24675
201906031208,24675,24678,24669,24671
201906031209,24670,24670,24667,24670
201906031210,24670,24675,24669,24672
201906031211,24673,24679,24673,24675
201906031212,24675,24677,24674,24674
201906031213,24674,24676,24674,24676
201906031214,24676,24676,24672,24672
201906031215,24672,24678,24671,24675
201906031216,24675,24676,24670,24670
201906031217,24670,24672,24670,24670
201906031218,24670,24672,24670,24670
201906031219,24670,24670,24667,24667
201906031220,24667,24671,24666,24667
201906031221,24667,24671,24666,24669
201906031222,24669,24669,24666,24669
201906031223,24669,24670,24664,24667
201906031224,24667,24679,24667,24676
201906031225,24677,24677,24671,24674
201906031226,24674,24675,24670,24671
201906031227,24671,24678,24671,24675
201906031228,24675,24678,24675,24677
201906031229,24677,24680,24677,24680
201906031230,24680,24684,24679,24680
201906031231,24680,24682,24679,24682
201906031232,24681,24682,24679,24681
201906031233,24681,24682,24681,24681
201906031234,24681,24681,24679,24679
201906031235,24679,24682,24679,24682
201906031236,24682,24683,24680,24680
201906031237,24680,24680,24677,24680
201906031238,24680,24684,24679,24682
201906031239,24683,24684,24682,24684
201906031240,24684,24684,24680,24681
201906031241,24681,24683,24681,24683
201906031242,24684,24684,24679,24683
201906031243,24683,24684,24681,24682
201906031244,24682,24682,24681,24681
201906031245,24681,24682,24680,24682
201906031246,24681,24681,24677,24678
201906031247,24678,24681,24678,24680
201906031248,24679,24682,24679,24681
201906031249,24681,24682,24680,24682
201906031250,24683,24684,24682,24684
201906031251,24684,24685,24683,24684
201906031252,24684,24686,24684,24684
201906031253,24684,24684,24680,24683
201906031254,24683,24683,24682,24683
201906031255,24684,24684,24680,24680
201906031256,24680,24680,24678,24679
201906031257,24679,24680,24676,24678
201906031258,24678,24679,24676,24677
201906031259,24677,24679,24675,24678
201906031300,24678,24679,24678,24678
201906031301,24677,24678,24676,24676
201906031302,24676,24676,24669,24670
201906031303,24670,24673,24669,24670
201906031304,24669,24671,24669,24670
201906031305,24670,24673,24670,24671
201906031306,24671,24673,24670,24673
201906031307,24673,24673,24673,24673
201906031308,24673,24673,24672,24673
201906031309,24672,24674,24672,24672
201906031310,24672,24672,24671,24672
201906031311,24672,24673,24672,24672
201906031312,24672,24674,24669,24671
201906031313,24671,24673,24671,24672
201906031314,24672,24673,24667,24667
201906031315,24667,24668,24666,24667
201906031316,24667,24669,24667,24668
201906031317,24667,24668,24664,24665
201906031318,24665,24666,24664,24665
201906031319,24665,24667,24665,24666
201906031320,24667,24667,24663,24664
201906031321,24664,24665,24663,24664
201906031322,24664,24664,24661,24662
201906031323,24662,24664,24662,24662
201906031324,24662,24663,24657,24657
201906031325,24657,24661,24657,24660
201906031326,24660,24660,24658,24658
201906031327,24658,24662,24658,24661
201906031328,24661,24661,24658,24661
201906031329,24662,24663,24661,24661
201906031330,24661,24662,24661,24661
201906031331,24661,24663,24661,24663
201906031332,24663,24663,24662,24663
201906031333,24663,24667,24662,24667
201906031334,24668,24668,24661,24661
201906031335,24661,24661,24658,24658
201906031336,24658,24660,24658,24659
201906031337,24659,24659,24657,24657
201906031338,24657,24657,24656,24656
201906031339,24656,24662,24656,24662
201906031340,24662,24667,24661,24666
201906031341,24666,24676,24666,24676
201906031342,24677,24678,24669,24669
201906031343,24669,24670,24668,24670
201906031344,24670,24671,24668,24668
201906031345,24668,24669,24666,24666
201906031346,24666,24667,24664,24667
201906031347,24667,24667,24665,24667
201906031348,24667,24669,24667,24667
201906031349,24667,24670,24667,24669
201906031350,24669,24669,24666,24666
201906031351,24666,24667,24664,24667
201906031352,24667,24668,24666,24666
201906031353,24666,24667,24661,24662
201906031354,24662,24662,24657,24660
201906031355,24659,24662,24659,24661
201906031356,24661,24662,24656,24656
201906031357,24657,24658,24656,24657
201906031358,24657,24657,24654,24654
201906031359,24654,24655,24651,24651
201906031400,24651,24660,24651,24658
201906031401,24659,24662,24658,24662
201906031402,24662,24663,24660,24662
201906031403,24662,24665,24661,24665
201906031404,24665,24665,24656,24656
201906031405,24657,24659,24656,24658
201906031406,24658,24668,24658,24666
201906031407,24666,24668,24665,24666
201906031408,24666,24674,24665,24674
201906031409,24674,24677,24672,24672
201906031410,24672,24676,24672,24675
201906031411,24675,24676,24674,24675
201906031412,24675,24675,24672,24672
201906031413,24673,24676,24671,24673
201906031414,24673,24677,24673,24673
201906031415,24673,24678,24673,24675
201906031416,24676,24676,24674,24674
201906031417,24674,24676,24672,24672
201906031418,24672,24674,24672,24674
201906031419,24674,24681,24674,24678
201906031420,24678,24681,24678,24681
201906031421,24680,24681,24678,24680
201906031422,24680,24681,24680,24680
201906031423,24680,24681,24677,24677
201906031424,24677,24679,24676,24679
201906031425,24679,24683,24678,24682
201906031426,24683,24683,24679,24679
201906031427,24680,24681,24679,24680
201906031428,24680,24680,24678,24679
201906031429,24679,24681,24678,24681
201906031430,24681,24687,24681,24686
201906031431,24686,24688,24686,24688
201906031432,24688,24689,24685,24685
201906031433,24685,24688,24685,24688
201906031434,24688,24690,24686,24686
201906031435,24686,24692,24686,24690
201906031436,24690,24690,24688,24688
201906031437,24688,24688,24684,24685
201906031438,24685,24687,24683,24684
201906031439,24684,24686,24682,24683
201906031440,24683,24688,24682,24688
201906031441,24688,24689,24686,24688
201906031442,24688,24696,24688,24693
201906031443,24693,24694,24691,24691
201906031444,24691,24694,24691,24694
201906031445,24694,24697,24694,24696
201906031446,24696,24700,24696,24698
201906031447,24698,24698,24694,24695
201906031448,24694,24697,24694,24697
201906031449,24697,24698,24694,24694
201906031450,24694,24698,24691,24693
201906031451,24693,24693,24690,24691
201906031452,24691,24693,24689,24693
201906031453,24693,24695,24693,24694
201906031454,24694,24694,24690,24690
201906031455,24690,24691,24689,24689
201906031456,24689,24691,24689,24690
201906031457,24690,24693,24690,24692
201906031458,24692,24692,24690,24691
201906031459,24691,24691,24689,24691
201906031500,24691,24714,24691,24708
201906031501,24708,24715,24706,24707
201906031502,24707,24713,24707,24709
201906031503,24709,24710,24705,24707
201906031504,24706,24706,24703,24705
201906031505,24705,24709,24705,24707
201906031506,24707,24710,24705,24705
201906031507,24705,24710,24705,24705
201906031508,24705,24705,24700,24703
201906031509,24702,24706,24701,24706
201906031510,24706,24706,24698,24701
201906031511,24701,24706,24701,24703
201906031512,24703,24708,24702,24705
201906031513,24705,24709,24704,24709
201906031514,24709,24711,24701,24701
201906031515,24701,24703,24699,24701
201906031516,24701,24703,24700,24702
201906031517,24702,24702,24697,24697
201906031518,24697,24697,24691,24691
201906031519,24691,24691,24685,24686
201906031520,24686,24687,24685,24687
201906031521,24687,24689,24686,24686
201906031522,24685,24687,24682,24685
201906031523,24685,24687,24683,24684
201906031524,24685,24688,24684,24686
201906031525,24685,24686,24682,24683
201906031526,24683,24688,24683,24687
201906031527,24687,24688,24682,24683
201906031528,24683,24684,24682,24682
201906031529,24682,24684,24680,24680
201906031530,24680,24688,24680,24686
201906031531,24686,24690,24684,24686
201906031532,24686,24689,24685,24686
201906031533,24686,24691,24685,24690
201906031534,24690,24696,24688,24694
201906031535,24694,24702,24693,24700
201906031536,24700,24705,24700,24702
201906031537,24702,24703,24696,24696
201906031538,24696,24697,24694,24695
201906031539,24696,24702,24696,24698
201906031540,24698,24704,24698,24704
201906031541,24703,24705,24701,24702
201906031542,24702,24706,24702,24705
201906031543,24705,24709,24700,24701
201906031544,24700,24700,24696,24696
201906031545,24696,24698,24694,24694
201906031546,24694,24696,24691,24694
201906031547,24693,24701,24693,24700
201906031548,24700,24700,24696,24697
201906031549,24696,24697,24689,24691
201906031550,24691,24693,24690,24690
201906031551,24690,24691,24683,24684
201906031552,24684,24686,24681,24683
201906031553,24683,24691,24683,24691
201906031554,24692,24693,24689,24690
201906031555,24689,24693,24688,24688
201906031556,24688,24691,24685,24685
201906031557,24685,24688,24683,24686
201906031558,24686,24686,24680,24681
201906031559,24681,24689,24680,24686
201906031600,24686,24692,24682,24691
201906031601,24691,24691,24681,24691
201906031602,24691,24696,24687,24688
201906031603,24688,24688,24676,24682
201906031604,24682,24687,24679,24680
201906031605,24680,24684,24677,24677
201906031606,24677,24677,24663,24664
201906031607,24664,24671,24664,24669
201906031608,24669,24672,24666,24667
201906031609,24667,24669,24665,24666
201906031610,24666,24670,24664,24667
201906031611,24667,24668,24652,24655
201906031612,24654,24657,24648,24648
201906031613,24648,24652,24642,24652
201906031614,24652,24655,24644,24647
201906031615,24647,24649,24642,24643
201906031616,24643,24653,24642,24651
201906031617,24651,24653,24646,24650
201906031618,24650,24657,24643,24655
201906031619,24655,24656,24651,24655
201906031620,24655,24656,24651,24656
201906031621,24656,24658,24652,24654
201906031622,24654,24657,24648,24648
201906031623,24647,24651,24642,24647
201906031624,24647,24650,24647,24648
201906031625,24648,24648,24634,24639
201906031626,24639,24641,24634,24634
201906031627,24634,24638,24634,24637
201906031628,24637,24642,24637,24640
201906031629,24640,24641,24637,24638
201906031630,24638,24638,24635,24637
201906031631,24637,24637,24629,24635
201906031632,24635,24652,24635,24640
201906031633,24639,24643,24630,24635
201906031634,24635,24639,24624,24628
201906031635,24628,24631,24624,24630
201906031636,24630,24632,24626,24631
201906031637,24631,24638,24629,24635
201906031638,24635,24636,24628,24628
201906031639,24629,24631,24623,24625
201906031640,24625,24628,24621,24623
201906031641,24623,24625,24620,24623
201906031642,24623,24626,24622,24622
201906031643,24622,24623,24617,24621
201906031644,24621,24629,24619,24626
201906031645,24626,24634,24626,24626
201906031646,24626,24626,24619,24619
201906031647,24619,24622,24610,24620
201906031648,24620,24628,24619,24619
201906031649,24620,24623,24615,24615
201906031650,24615,24624,24615,24621
201906031651,24621,24635,24620,24632
201906031652,24633,24634,24629,24631
201906031653,24631,24632,24627,24631
201906031654,24631,24635,24631,24634
201906031655,24635,24646,24635,24645
201906031656,24645,24646,24638,24639
201906031657,24639,24640,24634,24636
201906031658,24636,24640,24632,24634
201906031659,24633,24636,24631,24634
201906031700,24634,24644,24634,24635
201906031701,24635,24646,24635,24646
201906031702,24645,24648,24643,24648
201906031703,24648,24652,24647,24650
201906031704,24649,24657,24648,24651
201906031705,24651,24652,24648,24650
201906031706,24650,24654,24647,24653
201906031707,24653,24664,24652,24662
201906031708,24662,24662,24653,24659
201906031709,24658,24659,24653,24655
201906031710,24655,24658,24654,24654
201906031711,24654,24656,24654,24656
201906031712,24656,24659,24654,24658
201906031713,24658,24659,24653,24656
201906031714,24657,24660,24657,24657
201906031715,24657,24664,24657,24664
201906031716,24664,24672,24659,24671
201906031717,24671,24674,24663,24664
201906031718,24663,24664,24662,24662
201906031719,24662,24664,24662,24663
201906031720,24663,24666,24662,24664
201906031721,24664,24667,24661,24667
201906031722,24667,24673,24666,24672
201906031723,24671,24675,24670,24673
201906031724,24673,24676,24669,24672
201906031725,24672,24674,24671,24672
201906031726,24672,24673,24665,24667
201906031727,24667,24672,24666,24669
201906031728,24669,24675,24669,24674
201906031729,24674,24674,24669,24670
201906031730,24670,24670,24663,24664
201906031731,24664,24671,24664,24670
201906031732,24669,24677,24669,24669
201906031733,24669,24671,24665,24666
201906031734,24666,24668,24658,24660
201906031735,24660,24663,24659,24660
201906031736,24660,24665,24658,24662
201906031737,24662,24662,24654,24655
201906031738,24653,24655,24652,24652
201906031739,24652,24654,24649,24653
201906031740,24654,24663,24653,24659
201906031741,24659,24659,24655,24656
201906031742,24656,24668,24656,24666
201906031743,24667,24670,24664,24670
201906031744,24670,24674,24669,24672
201906031745,24672,24674,24668,24668
201906031746,24668,24673,24665,24670
201906031747,24669,24671,24668,24670
201906031748,24670,24671,24666,24667
201906031749,24667,24672,24666,24668
201906031750,24668,24676,24667,24676
201906031751,24676,24679,24674,24679
201906031752,24679,24681,24676,24676
201906031753,24676,24687,24675,24686
201906031754,24686,24689,24686,24688
201906031755,24688,24694,24685,24690
201906031756,24689,24691,24688,24688
201906031757,24688,24689,24686,24687
201906031758,24687,24687,24682,24684
201906031759,24684,24690,24682,24690
201906031800,24690,24696,24686,24692
201906031801,24692,24698,24690,24692
201906031802,24692,24701,24692,24697
201906031803,24697,24705,24696,24700
201906031804,24700,24703,24698,24703
201906031805,24703,24710,24703,24708
201906031806,24708,24709,24705,24709
201906031807,24709,24709,24706,24707
201906031808,24707,24707,24699,24705
201906031809,24705,24710,24704,24708
201906031810,24709,24710,24707,24707
201906031811,24707,24711,24706,24711
201906031812,24711,24712,24708,24710
201906031813,24710,24710,24705,24708
201906031814,24708,24719,24707,24712
201906031815,24712,24714,24707,24708
201906031816,24707,24716,24707,24716
201906031817,24716,24716,24712,24714
201906031818,24714,24715,24709,24712
201906031819,24712,24717,24711,24716
201906031820,24716,24716,24713,24715
201906031821,24715,24715,24711,24714
201906031822,24714,24718,24712,24713
201906031823,24714,24714,24706,24710
201906031824,24710,24711,24707,24707
201906031825,24707,24720,24707,24718
201906031826,24718,24731,24718,24729
201906031827,24728,24735,24728,24735
201906031828,24735,24740,24735,24738
201906031829,24738,24744,24732,24732
201906031830,24732,24736,24731,24733
201906031831,24733,24739,24732,24736
201906031832,24736,24738,24735,24736
201906031833,24736,24742,24735,24736
201906031834,24736,24737,24735,24735
201906031835,24735,24737,24731,24731
201906031836,24731,24732,24723,24723
201906031837,24723,24729,24721,24724
201906031838,24724,24729,24722,24728
201906031839,24728,24730,24727,24730
201906031840,24728,24734,24727,24734
201906031841,24734,24734,24729,24729
201906031842,24729,24732,24729,24731
201906031843,24731,24731,24723,24724
201906031844,24724,24728,24722,24728
201906031845,24728,24728,24724,24726
201906031846,24725,24731,24724,24730
201906031847,24731,24734,24731,24733
201906031848,24733,24733,24729,24730
201906031849,24730,24732,24729,24731
201906031850,24731,24738,24729,24735
201906031851,24734,24737,24733,24735
201906031852,24735,24739,24735,24736
201906031853,24735,24739,24734,24738
201906031854,24738,24743,24736,24743
201906031855,24743,24743,24739,24739
201906031856,24739,24739,24734,24737
201906031857,24737,24740,24736,24737
201906031858,24737,24740,24736,24739
201906031859,24739,24742,24738,24738
201906031900,24738,24744,24737,24740
201906031901,24741,24743,24741,24741
201906031902,24741,24750,24741,24748
201906031903,24748,24754,24745,24751
201906031904,24751,24753,24748,24750
201906031905,24750,24756,24749,24750
201906031906,24750,24760,24748,24757
201906031907,24757,24757,24748,24755
201906031908,24755,24762,24755,24760
201906031909,24760,24760,24757,24757
201906031910,24757,24758,24755,24757
201906031911,24758,24760,24756,24759
201906031912,24759,24759,24755,24755
201906031913,24755,24758,24753,24753
201906031914,24753,24753,24745,24747
201906031915,24747,24752,24743,24752
201906031916,24752,24762,24750,24756
201906031917,24756,24761,24750,24760
201906031918,24759,24764,24748,24748
201906031919,24748,24750,24746,24748
201906031920,24747,24747,24740,24741
201906031921,24741,24741,24736,24737
201906031922,24737,24737,24732,24734
201906031923,24734,24736,24732,24735
201906031924,24736,24738,24735,24738
201906031925,24737,24743,24736,24742
201906031926,24743,24743,24739,24740
201906031927,24740,24740,24733,24733
201906031928,24733,24741,24733,24741
201906031929,24741,24744,24740,24741
201906031930,24741,24744,24736,24736
201906031931,24736,24736,24727,24727
201906031932,24727,24729,24722,24722
201906031933,24722,24727,24718,24727
201906031934,24728,24733,24724,24727
201906031935,24726,24728,24723,24724
201906031936,24724,24729,24724,24724
201906031937,24724,24725,24721,24724
201906031938,24723,24724,24720,24721
201906031939,24721,24724,24719,24720
201906031940,24720,24723,24719,24722
201906031941,24722,24722,24716,24716
201906031942,24717,24723,24717,24723
201906031943,24723,24723,24721,24722
201906031944,24722,24723,24720,24721
201906031945,24721,24724,24720,24722
201906031946,24722,24724,24722,24723
201906031947,24723,24726,24722,24725
201906031948,24725,24727,24725,24727
201906031949,24727,24732,24727,24730
201906031950,24730,24731,24727,24727
201906031951,24727,24728,24726,24726
201906031952,24726,24727,24726,24727
201906031953,24728,24731,24726,24727
201906031954,24727,24730,24726,24727
201906031955,24727,24727,24724,24726
201906031956,24726,24731,24725,24731
201906031957,24731,24735,24728,24734
201906031958,24734,24735,24728,24729
201906031959,24729,24731,24724,24726
201906032000,24726,24737,24726,24737
201906032001,24737,24738,24733,24734
201906032002,24734,24736,24733,24734
201906032003,24734,24738,24733,24738
201906032004,24738,24739,24736,24736
201906032005,24736,24740,24736,24740
201906032006,24741,24742,24738,24740
201906032007,24740,24742,24739,24739
201906032008,24739,24742,24737,24740
201906032009,24740,24748,24740,24748
201906032010,24748,24754,24748,24749
201906032011,24750,24751,24744,24744
201906032012,24744,24746,24742,24745
201906032013,24745,24751,24742,24743
201906032014,24743,24743,24732,24733
201906032015,24732,24735,24732,24732
201906032016,24732,24748,24732,24737
201906032017,24737,24741,24736,24741
201906032018,24741,24744,24741,24743
201906032019,24743,24746,24743,24745
201906032020,24745,24749,24745,24749
201906032021,24749,24751,24748,24750
201906032022,24749,24765,24749,24763
201906032023,24763,24765,24761,24764
201906032024,24764,24764,24761,24762
201906032025,24762,24764,24757,24759
201906032026,24759,24761,24757,24758
201906032027,24759,24766,24759,24764
201906032028,24763,24768,24763,24765
201906032029,24765,24767,24765,24765
201906032030,24765,24767,24764,24766
201906032031,24766,24767,24762,24762
201906032032,24761,24766,24760,24765
201906032033,24765,24768,24762,24764
201906032034,24764,24765,24763,24764
201906032035,24764,24768,24764,24765
201906032036,24765,24765,24756,24764
201906032037,24764,24767,24760,24760
201906032038,24760,24760,24753,24753
201906032039,24753,24756,24753,24756
201906032040,24756,24760,24756,24760
201906032041,24760,24760,24755,24756
201906032042,24757,24758,24755,24758
201906032043,24757,24759,24755,24755
201906032044,24755,24756,24754,24755
201906032045,24755,24756,24755,24756
201906032046,24756,24756,24754,24754
201906032047,24754,24758,24752,24756
201906032048,24756,24757,24749,24752
201906032049,24752,24756,24751,24754
201906032050,24755,24761,24755,24757
201906032051,24757,24759,24755,24757
201906032052,24757,24758,24755,24755
201906032053,24755,24756,24750,24750
201906032054,24750,24753,24749,24753
201906032055,24753,24753,24748,24748
201906032056,24748,24750,24747,24748
201906032057,24748,24750,24748,24748
201906032058,24748,24751,24747,24749
201906032059,24749,24753,24749,24753
201906032100,24752,24757,24752,24757
201906032101,24757,24761,24756,24757
201906032102,24757,24758,24748,24750
201906032103,24750,24750,24744,24744
201906032104,24744,24748,24743,24746
201906032105,24746,24746,24738,24743
201906032106,24743,24744,24741,24741
201906032107,24741,24744,24741,24744
201906032108,24744,24744,24741,24741
201906032109,24741,24748,24740,24745
201906032110,24745,24761,24744,24761
201906032111,24761,24761,24755,24759
201906032112,24759,24759,24748,24748
201906032113,24749,24754,24747,24753
201906032114,24753,24754,24745,24746
201906032115,24746,24750,24745,24750
201906032116,24750,24750,24742,24744
201906032117,24744,24751,24744,24745
201906032118,24745,24746,24743,24746
201906032119,24745,24749,24743,24744
201906032120,24744,24747,24737,24738
201906032121,24738,24742,24738,24742
201906032122,24741,24741,24735,24736
201906032123,24736,24741,24735,24738
201906032124,24739,24749,24738,24749
201906032125,24749,24750,24741,24741
201906032126,24741,24745,24740,24743
201906032127,24743,24743,24741,24742
201906032128,24741,24743,24740,24742
201906032129,24742,24743,24738,24740
201906032130,24740,24744,24739,24743
201906032131,24744,24749,24742,24748
201906032132,24749,24750,24745,24745
201906032133,24745,24745,24741,24744
201906032134,24744,24747,24743,24745
201906032135,24745,24747,24742,24747
201906032136,24747,24747,24743,24744
201906032137,24744,24745,24738,24740
201906032138,24740,24742,24739,24741
201906032139,24741,24751,24740,24750
201906032140,24750,24752,24747,24751
201906032141,24751,24762,24751,24760
201906032142,24760,24760,24758,24760
201906032143,24759,24760,24758,24758
201906032144,24760,24766,24758,24766
201906032145,24766,24770,24765,24768
201906032146,24768,24772,24765,24769
201906032147,24769,24773,24768,24773
201906032148,24773,24777,24772,24777
201906032149,24777,24784,24776,24782
201906032150,24782,24787,24778,24785
201906032151,24785,24787,24782,24783
201906032152,24783,24784,24780,24781
201906032153,24781,24781,24778,24778
201906032154,24778,24782,24776,24776
201906032155,24776,24776,24773,24773
201906032156,24774,24776,24770,24774
201906032157,24774,24782,24774,24782
201906032158,24782,24793,24781,24793
201906032159,24793,24797,24792,24792
201906032200,24792,24794,24790,24790
201906032201,24790,24791,24784,24785
201906032202,24785,24790,24784,24789
201906032203,24789,24801,24789,24800
201906032204,24800,24804,24796,24798
201906032205,24798,24799,24795,24795
201906032206,24795,24798,24793,24793
201906032207,24792,24794,24789,24791
201906032208,24790,24797,24789,24797
201906032209,24796,24796,24789,24789
201906032210,24789,24790,24788,24790
201906032211,24790,24791,24789,24791
201906032212,24791,24791,24787,24788
201906032213,24788,24790,24785,24790
201906032214,24790,24790,24788,24790
201906032215,24790,24791,24787,24787
201906032216,24787,24787,24784,24784
201906032217,24784,24785,24779,24779
201906032218,24779,24783,24779,24780
201906032219,24780,24782,24778,24781
201906032220,24781,24785,24781,24785
201906032221,24785,24788,24784,24787
201906032222,24787,24792,24786,24791
201906032223,24791,24792,24788,24791
201906032224,24791,24798,24790,24795
201906032225,24795,24802,24795,24801
201906032226,24800,24812,24800,24810
201906032227,24810,24811,24808,24809
201906032228,24809,24815,24807,24811
201906032229,24811,24814,24810,24810
201906032230,24810,24823,24806,24820
201906032231,24820,24854,24816,24848
201906032232,24848,24860,24841,24854
201906032233,24853,24870,24852,24870
201906032234,24870,24882,24868,24879
201906032235,24879,24882,24873,24880
201906032236,24880,24886,24878,24882
201906032237,24882,24891,24877,24887
201906032238,24887,24888,24882,24884
201906032239,24884,24890,24880,24880
201906032240,24880,24891,24878,24881
201906032241,24881,24888,24877,24883
201906032242,24883,24884,24870,24873
201906032243,24873,24879,24868,24876
201906032244,24876,24876,24869,24870
201906032245,24869,24869,24848,24848
201906032246,24848,24851,24836,24841
201906032247,24841,24841,24806,24806
201906032248,24806,24808,24783,24800
201906032249,24800,24804,24793,24799
201906032250,24799,24811,24799,24810
201906032251,24810,24811,24795,24803
201906032252,24803,24814,24800,24808
201906032253,24807,24808,24795,24796
201906032254,24795,24795,24764,24764
201906032255,24764,24783,24758,24782
201906032256,24782,24783,24770,24775
201906032257,24775,24783,24767,24781
201906032258,24781,24783,24766,24770
201906032259,24770,24779,24766,24769
201906032300,24769,24781,24753,24775
201906032301,24775,24778,24736,24736
201906032302,24735,24735,24702,24708
201906032303,24708,24733,24708,24733
201906032304,24733,24761,24732,24760
201906032305,24760,24762,24752,24752
201906032306,24752,24779,24744,24778
201906032307,24778,24800,24774,24800
201906032308,24801,24808,24791,24794
201906032309,24794,24812,24794,24811
201906032310,24811,24813,24797,24813
201906032311,24813,24821,24806,24807
201906032312,24806,24811,24795,24801
201906032313,24801,24811,24795,24796
201906032314,24796,24815,24796,24809
201906032315,24809,24809,24792,24805
201906032316,24805,24810,24793,24803
201906032317,24806,24813,24800,24810
201906032318,24810,24829,24808,24827
201906032319,24827,24841,24818,24841
201906032320,24842,24847,24834,24845
201906032321,24845,24859,24841,24858
201906032322,24857,24860,24849,24850
201906032323,24849,24857,24844,24856
201906032324,24856,24874,24854,24874
201906032325,24873,24883,24868,24883
201906032326,24882,24888,24878,24888
201906032327,24888,24896,24886,24895
201906032328,24895,24908,24895,24907
201906032329,24906,24906,24887,24898
201906032330,24899,24905,24889,24894
201906032331,24894,24914,24891,24912
201906032332,24911,24911,24895,24905
201906032333,24905,24915,24903,24903
201906032334,24902,24911,24900,24905
201906032335,24905,24908,24894,24897
201906032336,24896,24905,24894,24894
201906032337,24894,24907,24894,24905
201906032338,24904,24912,24903,24909
201906032339,24909,24933,24905,24931
201906032340,24932,24936,24925,24925
201906032341,24925,24932,24920,24924
201906032342,24925,24928,24913,24919
201906032343,24919,24934,24919,24924
201906032344,24925,24934,24917,24928
201906032345,24928,24933,24922,24922
201906032346,24922,24927,24918,24923
201906032347,24923,24924,24916,24916
201906032348,24915,24917,24895,24897
201906032349,24897,24901,24890,24890
201906032350,24889,24889,24880,24882
201906032351,24882,24893,24881,24883
201906032352,24883,24892,24883,24892
201906032353,24891,24899,24888,24888
201906032354,24888,24896,24887,24892
201906032355,24892,24897,24888,24895
201906032356,24895,24910,24895,24901
201906032357,24901,24908,24895,24897
201906032358,24897,24905,24897,24904
201906032359,24904,24909,24902,24906
201906040000,24905,24912,24901,24905
201906040001,24905,24913,24900,24904
201906040002,24904,24905,24895,24905
201906040003,24906,24908,24895,24898
201906040004,24899,24912,24899,24912
201906040005,24912,24915,24896,24897
201906040006,24898,24903,24892,24898
201906040007,24898,24903,24884,24884
201906040008,24885,24885,24873,24879
201906040009,24877,24884,24874,24876
201906040010,24876,24878,24869,24869
201906040011,24868,24876,24862,24862
201906040012,24862,24868,24857,24863
201906040013,24863,24864,24852,24853
201906040014,24853,24862,24853,24861
201906040015,24861,24865,24854,24865
201906040016,24865,24866,24857,24859
201906040017,24859,24864,24855,24856
201906040018,24856,24867,24853,24865
201906040019,24864,24867,24856,24857
201906040020,24857,24862,24852,24855
201906040021,24855,24862,24855,24860
201906040022,24860,24867,24860,24867
201906040023,24868,24875,24864,24874
201906040024,24874,24882,24874,24878
201906040025,24877,24879,24868,24878
201906040026,24878,24886,24878,24883
201906040027,24883,24884,24872,24880
201906040028,24880,24883,24872,24879
201906040029,24879,24885,24871,24878
201906040030,24879,24888,24871,24887
201906040031,24887,24897,24884,24896
201906040032,24896,24898,24889,24889
201906040033,24889,24894,24885,24890
201906040034,24890,24891,24878,24885
201906040035,24885,24887,24869,24876
201906040036,24875,24879,24858,24866
201906040037,24867,24870,24858,24859
201906040038,24859,24869,24856,24868
201906040039,24868,24876,24868,24875
201906040040,24875,24886,24869,24881
201906040041,24881,24884,24860,24862
201906040042,24861,24861,24845,24853
201906040043,24853,24870,24853,24869
201906040044,24869,24878,24867,24876
201906040045,24875,24882,24875,24879
201906040046,24879,24885,24874,24876
201906040047,24876,24881,24866,24876
201906040048,24877,24879,24856,24860
201906040049,24860,24861,24840,24847
201906040050,24847,24857,24840,24855
201906040051,24854,24855,24844,24847
201906040052,24847,24849,24841,24846
201906040053,24846,24847,24837,24842
201906040054,24842,24842,24834,24836
201906040055,24835,24839,24827,24829
201906040056,24829,24829,24822,24824
201906040057,24824,24828,24816,24823
201906040058,24823,24827,24819,24821
201906040059,24821,24827,24817,24822
201906040100,24822,24830,24815,24829
201906040101,24830,24836,24829,24830
201906040102,24830,24831,24822,24828
201906040103,24828,24829,24811,24811
201906040104,24811,24814,24804,24804
201906040105,24804,24809,24795,24796
201906040106,24796,24798,24791,24794
201906040107,24794,24801,24793,24796
201906040108,24796,24798,24781,24787
201906040109,24786,24797,24779,24797
201906040110,24797,24802,24793,24801
201906040111,24802,24802,24790,24791
201906040112,24791,24794,24783,24783
201906040113,24783,24784,24770,24773
201906040114,24774,24788,24774,24782
201906040115,24782,24784,24767,24770
201906040116,24770,24781,24765,24781
201906040117,24781,24786,24776,24785
201906040118,24785,24785,24776,24776
201906040119,24776,24784,24772,24783
201906040120,24783,24783,24769,24775
201906040121,24775,24782,24767,24767
201906040122,24767,24770,24762,24767
201906040123,24767,24773,24763,24764
201906040124,24764,24766,24755,24758
201906040125,24758,24764,24755,24762
201906040126,24762,24771,24760,24763
201906040127,24763,24767,24760,24763
201906040128,24763,24763,24753,24756
201906040129,24757,24757,24743,24750
201906040130,24750,24762,24744,24762
201906040131,24762,24771,24760,24764
201906040132,24764,24765,24754,24754
201906040133,24754,24754,24741,24751
201906040134,24750,24750,24730,24732
201906040135,24732,24742,24731,24736
201906040136,24736,24746,24735,24746
201906040137,24746,24752,24743,24749
201906040138,24749,24755,24748,24754
201906040139,24754,24773,24754,24772
201906040140,24772,24772,24756,24759
201906040141,24759,24772,24759,24766
201906040142,24766,24767,24754,24754
201906040143,24756,24761,24752,24758
201906040144,24758,24766,24757,24760
201906040145,24760,24761,24752,24757
201906040146,24756,24772,24754,24770
201906040147,24770,24781,24769,24781
201906040148,24782,24787,24778,24782
201906040149,24782,24789,24779,24787
201906040150,24787,24787,24773,24773
201906040151,24774,24779,24772,24775
201906040152,24776,24781,24766,24766
201906040153,24766,24771,24764,24768
201906040154,24768,24779,24766,24779
201906040155,24779,24792,24779,24790
201906040156,24791,24793,24781,24782
201906040157,24782,24782,24771,24774
201906040158,24774,24781,24772,24777
201906040159,24777,24777,24764,24764
201906040200,24764,24772,24756,24759
201906040201,24759,24764,24735,24738
201906040202,24738,24747,24734,24747
201906040203,24747,24757,24742,24755
201906040204,24754,24766,24753,24765
201906040205,24765,24770,24756,24768
201906040206,24768,24768,24757,24760
201906040207,24760,24776,24758,24770
201906040208,24770,24777,24766,24768
201906040209,24768,24791,24768,24791
201906040210,24789,24797,24785,24787
201906040211,24787,24791,24781,24784
201906040212,24784,24789,24781,24789
201906040213,24789,24802,24786,24798
201906040214,24798,24812,24798,24809
201906040215,24808,24814,24798,24810
201906040216,24810,24812,24799,24811
201906040217,24811,24814,24804,24807
201906040218,24807,24812,24797,24799
201906040219,24799,24801,24794,24798
201906040220,24798,24810,24795,24805
201906040221,24805,24805,24792,24794
201906040222,24794,24800,24784,24786
201906040223,24787,24800,24785,24796
201906040224,24796,24805,24792,24803
201906040225,24803,24893,24803,24893
201906040226,24893,24923,24865,24869
201906040227,24869,24875,24839,24861
201906040228,24862,24874,24808,24813
201906040229,24813,24845,24813,24838
201906040230,24838,24838,24787,24790
201906040231,24789,24796,24750,24767
201906040232,24766,24797,24760,24787
201906040233,24787,24792,24775,24775
201906040234,24775,24783,24758,24772
201906040235,24772,24783,24759,24776
201906040236,24777,24785,24756,24758
201906040237,24758,24766,24745,24753
201906040238,24754,24773,24753,24757
201906040239,24757,24764,24749,24751
201906040240,24750,24767,24747,24759
201906040241,24759,24781,24751,24779
201906040242,24779,24799,24777,24792
201906040243,24792,24807,24792,24803
201906040244,24803,24816,24792,24793
201906040245,24793,24802,24789,24791
201906040246,24792,24822,24790,24822
201906040247,24822,24822,24798,24799
201906040248,24799,24818,24799,24808
201906040249,24808,24810,24788,24799
201906040250,24799,24809,24790,24805
201906040251,24805,24810,24796,24810
201906040252,24811,24822,24806,24812
201906040253,24812,24818,24806,24806
201906040254,24806,24811,24794,24795
201906040255,24794,24809,24791,24798
201906040256,24798,24812,24796,24809
201906040257,24809,24844,24809,24835
201906040258,24834,24861,24834,24848
201906040259,24848,24852,24841,24841
201906040300,24841,24853,24828,24828
201906040301,24828,24846,24826,24843
201906040302,24842,24871,24837,24867
201906040303,24867,24878,24863,24865
201906040304,24865,24871,24858,24863
201906040305,24863,24880,24860,24870
201906040306,24870,24877,24861,24862
201906040307,24862,24873,24859,24865
201906040308,24864,24884,24864,24884
201906040309,24884,24894,24879,24894
201906040310,24894,24894,24874,24874
201906040311,24874,24878,24866,24871
201906040312,24871,24873,24864,24865
201906040313,24865,24868,24856,24856
201906040314,24856,24866,24851,24863
201906040315,24863,24865,24855,24865
201906040316,24866,24866,24841,24843
201906040317,24843,24850,24840,24849
201906040318,24849,24852,24831,24832
201906040319,24832,24849,24832,24838
201906040320,24837,24851,24834,24851
201906040321,24851,24861,24845,24851
201906040322,24852,24861,24844,24856
201906040323,24856,24857,24840,24842
201906040324,24842,24846,24838,24843
201906040325,24843,24849,24832,24848
201906040326,24848,24851,24836,24849
201906040327,24849,24851,24835,24846
201906040328,24843,24852,24838,24838
201906040329,24838,24845,24828,24845
201906040330,24844,24869,24844,24853
201906040331,24853,24857,24847,24849
201906040332,24849,24862,24842,24845
201906040333,24845,24849,24831,24834
201906040334,24833,24836,24809,24814
201906040335,24814,24822,24807,24815
201906040336,24814,24821,24806,24819
201906040337,24820,24823,24801,24801
201906040338,24801,24804,24788,24802
201906040339,24802,24810,24797,24807
201906040340,24807,24811,24797,24800
201906040341,24800,24801,24785,24794
201906040342,24794,24800,24788,24799
201906040343,24799,24803,24793,24797
201906040344,24797,24798,24783,24798
201906040345,24798,24806,24795,24800
201906040346,24799,24805,24792,24794
201906040347,24793,24797,24776,24776
201906040348,24776,24784,24774,24776
201906040349,24776,24786,24773,24776
201906040350,24776,24776,24762,24763
201906040351,24763,24771,24760,24765
201906040352,24765,24765,24751,24759
201906040353,24759,24764,24752,24755
201906040354,24755,24765,24749,24755
201906040355,24755,24763,24753,24760
201906040356,24760,24764,24755,24755
201906040357,24755,24760,24749,24753
201906040358,24753,24753,24742,24745
201906040359,24744,24761,24736,24759
201906040400,24759,24764,24748,24748
201906040401,24748,24750,24737,24740
201906040402,24741,24743,24734,24736
201906040403,24736,24747,24720,24721
201906040404,24720,24720,24707,24718
201906040405,24718,24728,24715,24727
201906040406,24727,24738,24724,24726
201906040407,24727,24739,24721,24726
201906040408,24726,24729,24717,24729
201906040409,24729,24732,24718,24719
201906040410,24719,24722,24708,24709
201906040411,24709,24710,24701,24704
201906040412,24704,24704,24697,24699
201906040413,24700,24727,24700,24724
201906040414,24724,24755,24719,24755
201906040415,24755,24766,24752,24762
201906040416,24761,24766,24751,24752
201906040417,24752,24753,24730,24731
201906040418,24731,24738,24724,24737
201906040419,24736,24750,24736,24750
201906040420,24750,24770,24741,24768
201906040421,24768,24788,24768,24783
201906040422,24783,24784,24761,24772
201906040423,24771,24795,24768,24793
201906040424,24793,24797,24760,24761
201906040425,24761,24765,24739,24763
201906040426,24763,24763,24725,24728
201906040427,24728,24728,24703,24725
201906040428,24726,24742,24713,24742
201906040429,24742,24743,24714,24718
201906040430,24718,24719,24690,24697
201906040431,24701,24711,24691,24711
201906040432,24711,24711,24684,24696
201906040433,24696,24714,24692,24707
201906040434,24704,24715,24700,24711
201906040435,24711,24731,24704,24724
201906040436,24724,24728,24708,24708
201906040437,24708,24723,24706,24720
201906040438,24720,24733,24720,24729
201906040439,24729,24729,24702,24717
201906040440,24718,24738,24718,24737
201906040441,24737,24748,24716,24731
201906040442,24731,24752,24731,24744
201906040443,24744,24752,24736,24738
201906040444,24737,24751,24734,24744
201906040445,24744,24755,24744,24750
201906040446,24751,24763,24738,24738
201906040447,24738,24743,24723,24732
201906040448,24732,24733,24721,24732
201906040449,24731,24745,24724,24741
201906040450,24741,24768,24741,24763
201906040451,24763,24780,24761,24762
201906040452,24762,24765,24755,24755
201906040453,24756,24757,24741,24742
201906040454,24742,24766,24742,24764
201906040455,24764,24806,24764,24806
201906040456,24806,24807,24792,24805
201906040457,24805,24828,24805,24824
201906040458,24824,24837,24819,24829
201906040459,24829,24831,24802,24815
201906040500,24815,24830,24813,24821
201906040501,24821,24826,24813,24813
201906040502,24813,24833,24813,24832
201906040503,24832,24838,24829,24835
201906040504,24835,24845,24834,24845
201906040505,24845,24852,24839,24848
201906040506,24848,24860,24848,24855
201906040507,24856,24868,24855,24864
201906040508,24864,24864,24856,24857
201906040509,24857,24862,24854,24862
201906040510,24862,24866,24858,24860
201906040511,24860,24860,24856,24858
201906040512,24858,24860,24858,24858
201906040513,24858,24862,24858,24861
201906040514,24861,24874,24861,24874
