日時,始値(BID),高値(BID),安値(BID),終値(BID)
201906200700,26520,26530,26513,26526
201906200701,26526,26526,26515,26518
201906200702,26518,26520,26518,26520
201906200703,26521,26529,26518,26523
201906200704,26523,26533,26523,26532
201906200705,26532,26536,26532,26534
201906200706,26536,26536,26531,26531
201906200707,26532,26532,26529,26531
201906200708,26531,26532,26529,26530
201906200709,26530,26546,26529,26543
201906200710,26543,26543,26537,26537
201906200711,26537,26538,26535,26536
201906200712,26535,26535,26533,26534
201906200713,26534,26534,26531,26531
201906200714,26532,26537,26531,26537
201906200715,26536,26545,26535,26540
201906200716,26540,26541,26538,26538
201906200717,26538,26538,26537,26537
201906200718,26537,26538,26537,26538
201906200719,26536,26536,26536,26536
201906200720,26536,26537,26536,26536
201906200721,26536,26536,26533,26533
201906200722,26533,26536,26532,26536
201906200723,26536,26536,26533,26533
201906200724,26532,26536,26532,26532
201906200725,26532,26532,26531,26532
201906200726,26532,26532,26531,26532
201906200727,26532,26535,26532,26533
201906200728,26533,26538,26533,26537
201906200729,26537,26539,26537,26539
201906200730,26539,26540,26534,26534
201906200731,26534,26536,26534,26534
201906200732,26534,26536,26534,26535
201906200733,26535,26537,26535,26535
201906200734,26535,26535,26534,26534
201906200735,26534,26537,26533,26537
201906200736,26537,26537,26536,26536
201906200737,26536,26544,26536,26543
201906200738,26543,26549,26543,26548
201906200739,26548,26548,26546,26546
201906200740,26546,26548,26546,26547
201906200741,26547,26555,26547,26554
201906200742,26554,26555,26552,26552
201906200743,26552,26554,26551,26551
201906200744,26551,26554,26548,26550
201906200745,26550,26561,26550,26561
201906200746,26562,26562,26559,26561
201906200747,26561,26574,26561,26568
201906200748,26568,26569,26565,26568
201906200749,26568,26568,26567,26567
201906200750,26567,26573,26567,26572
201906200751,26573,26573,26570,26570
201906200752,26571,26573,26569,26572
201906200753,26572,26573,26570,26572
201906200754,26572,26573,26568,26568
201906200755,26568,26568,26567,26567
201906200756,26567,26567,26564,26565
201906200757,26565,26567,26563,26567
201906200758,26567,26568,26566,26566
201906200759,26566,26566,26565,26565
201906200800,26565,26566,26562,26562
201906200801,26562,26567,26562,26567
201906200802,26567,26568,26566,26566
201906200803,26566,26567,26565,26566
201906200804,26566,26566,26564,26564
201906200805,26564,26566,26564,26566
201906200806,26566,26566,26562,26564
201906200807,26564,26565,26562,26562
201906200808,26562,26565,26562,26564
201906200809,26564,26565,26564,26565
201906200810,26565,26565,26564,26564
201906200811,26564,26567,26564,26567
201906200812,26567,26572,26567,26572
201906200813,26572,26573,26572,26572
201906200814,26572,26574,26565,26567
201906200815,26567,26574,26563,26574
201906200816,26574,26576,26574,26575
201906200817,26575,26585,26575,26578
201906200818,26578,26579,26574,26576
201906200819,26576,26578,26574,26575
201906200820,26574,26576,26573,26575
201906200821,26575,26575,26574,26574
201906200822,26574,26574,26572,26573
201906200823,26572,26575,26572,26573
201906200824,26573,26577,26573,26575
201906200825,26575,26577,26574,26575
201906200826,26575,26578,26575,26578
201906200827,26578,26581,26578,26579
201906200828,26579,26581,26578,26579
201906200829,26580,26581,26579,26579
201906200830,26579,26580,26574,26574
201906200831,26574,26589,26572,26589
201906200832,26589,26590,26584,26588
201906200833,26588,26588,26584,26584
201906200834,26584,26584,26584,26584
201906200835,26585,26588,26584,26588
201906200836,26588,26588,26586,26586
201906200837,26586,26587,26585,26587
201906200838,26588,26590,26587,26587
201906200839,26587,26588,26586,26587
201906200840,26586,26588,26582,26583
201906200841,26583,26587,26583,26587
201906200842,26587,26587,26584,26584
201906200843,26584,26588,26584,26588
201906200844,26588,26595,26588,26595
201906200845,26595,26601,26593,26601
201906200846,26601,26617,26601,26614
201906200847,26614,26614,26611,26614
201906200848,26613,26614,26613,26614
201906200849,26614,26614,26610,26611
201906200850,26611,26613,26608,26611
201906200851,26611,26612,26609,26611
201906200852,26611,26612,26609,26612
201906200853,26612,26617,26611,26611
201906200854,26611,26611,26610,26610
201906200855,26610,26610,26603,26603
201906200856,26603,26604,26598,26599
201906200857,26599,26603,26599,26601
201906200858,26601,26603,26601,26601
201906200859,26602,26603,26598,26598
201906200900,26599,26602,26593,26595
201906200901,26595,26604,26590,26600
201906200902,26600,26608,26600,26608
201906200903,26608,26610,26598,26599
201906200904,26598,26602,26597,26600
201906200905,26600,26610,26600,26608
201906200906,26608,26612,26604,26605
201906200907,26605,26612,26602,26605
201906200908,26604,26611,26601,26611
201906200909,26611,26612,26607,26608
201906200910,26608,26610,26606,26607
201906200911,26607,26611,26607,26611
201906200912,26611,26613,26609,26611
201906200913,26611,26611,26606,26607
201906200914,26607,26608,26604,26604
201906200915,26604,26605,26598,26599
201906200916,26598,26600,26597,26599
201906200917,26599,26599,26596,26597
201906200918,26597,26600,26595,26599
201906200919,26599,26600,26595,26598
201906200920,26598,26601,26598,26599
201906200921,26599,26600,26598,26598
201906200922,26598,26599,26596,26596
201906200923,26596,26599,26596,26598
201906200924,26598,26599,26595,26595
201906200925,26595,26595,26590,26592
201906200926,26591,26593,26590,26592
201906200927,26592,26592,26590,26591
201906200928,26591,26593,26591,26592
201906200929,26592,26592,26590,26592
201906200930,26592,26598,26592,26594
201906200931,26594,26595,26592,26593
201906200932,26593,26596,26592,26592
201906200933,26592,26595,26591,26591
201906200934,26591,26596,26591,26594
201906200935,26594,26594,26592,26592
201906200936,26593,26596,26591,26594
201906200937,26594,26598,26593,26598
201906200938,26598,26599,26597,26599
201906200939,26599,26599,26595,26596
201906200940,26596,26597,26595,26597
201906200941,26596,26603,26596,26603
201906200942,26603,26609,26602,26607
201906200943,26607,26609,26599,26600
201906200944,26600,26600,26598,26599
201906200945,26598,26598,26593,26596
201906200946,26596,26597,26593,26593
201906200947,26593,26595,26591,26592
201906200948,26592,26592,26590,26590
201906200949,26591,26592,26590,26592
201906200950,26592,26595,26592,26595
201906200951,26595,26595,26591,26595
201906200952,26595,26598,26593,26597
201906200953,26597,26598,26596,26597
201906200954,26596,26598,26596,26598
201906200955,26597,26599,26591,26593
201906200956,26593,26596,26590,26593
201906200957,26593,26593,26590,26590
201906200958,26592,26592,26589,26590
201906200959,26590,26593,26590,26593
201906201000,26593,26598,26593,26596
201906201001,26596,26597,26592,26597
201906201002,26597,26602,26596,26602
201906201003,26602,26606,26599,26604
201906201004,26605,26609,26603,26609
201906201005,26608,26609,26604,26605
201906201006,26605,26605,26601,26603
201906201007,26603,26605,26602,26603
201906201008,26603,26609,26603,26608
201906201009,26608,26620,26608,26613
201906201010,26613,26613,26602,26602
201906201011,26602,26604,26600,26602
201906201012,26602,26602,26600,26600
201906201013,26601,26604,26600,26602
201906201014,26602,26605,26600,26601
201906201015,26601,26602,26596,26598
201906201016,26598,26600,26594,26595
201906201017,26595,26599,26593,26596
201906201018,26596,26596,26590,26590
201906201019,26591,26592,26588,26589
201906201020,26589,26591,26584,26591
201906201021,26591,26593,26587,26588
201906201022,26588,26589,26587,26588
201906201023,26587,26592,26585,26591
201906201024,26591,26594,26589,26591
201906201025,26590,26594,26585,26591
201906201026,26591,26598,26590,26598
201906201027,26598,26604,26597,26602
201906201028,26601,26604,26600,26602
201906201029,26603,26604,26598,26600
201906201030,26600,26601,26596,26601
201906201031,26602,26603,26595,26597
201906201032,26598,26601,26598,26599
201906201033,26599,26606,26599,26606
201906201034,26606,26607,26602,26604
201906201035,26604,26607,26602,26604
201906201036,26604,26605,26596,26598
201906201037,26598,26604,26598,26603
201906201038,26603,26606,26602,26602
201906201039,26602,26605,26601,26605
201906201040,26604,26605,26601,26602
201906201041,26602,26608,26600,26600
201906201042,26600,26601,26595,26595
201906201043,26595,26597,26593,26596
201906201044,26596,26599,26594,26598
201906201045,26598,26601,26597,26601
201906201046,26601,26602,26598,26599
201906201047,26599,26601,26598,26598
201906201048,26598,26602,26598,26599
201906201049,26599,26599,26594,26596
201906201050,26596,26597,26594,26596
201906201051,26595,26602,26595,26601
201906201052,26601,26604,26601,26603
201906201053,26602,26603,26601,26603
201906201054,26603,26605,26602,26603
201906201055,26603,26608,26603,26607
201906201056,26607,26608,26603,26607
201906201057,26607,26608,26604,26604
201906201058,26604,26608,26604,26606
201906201059,26606,26608,26604,26608
201906201100,26608,26608,26604,26607
201906201101,26607,26608,26605,26608
201906201102,26608,26610,26604,26604
201906201103,26604,26605,26601,26603
201906201104,26602,26606,26601,26604
201906201105,26603,26605,26602,26602
201906201106,26603,26604,26601,26601
201906201107,26601,26603,26601,26602
201906201108,26602,26605,26602,26604
201906201109,26605,26607,26605,26606
201906201110,26606,26608,26604,26607
201906201111,26606,26608,26606,26607
201906201112,26607,26612,26607,26611
201906201113,26611,26612,26611,26611
201906201114,26611,26612,26609,26609
201906201115,26609,26612,26609,26612
201906201116,26612,26613,26610,26611
201906201117,26612,26613,26611,26611
201906201118,26612,26613,26609,26610
201906201119,26610,26610,26609,26610
201906201120,26611,26613,26607,26608
201906201121,26608,26613,26607,26613
201906201122,26614,26615,26613,26614
201906201123,26614,26618,26614,26617
201906201124,26617,26621,26617,26618
201906201125,26618,26618,26615,26615
201906201126,26615,26617,26613,26613
201906201127,26614,26618,26613,26616
201906201128,26616,26616,26610,26612
201906201129,26612,26615,26610,26610
201906201130,26610,26612,26610,26612
201906201131,26612,26612,26611,26612
201906201132,26612,26613,26611,26612
201906201133,26613,26615,26612,26615
201906201134,26615,26615,26613,26613
201906201135,26613,26614,26613,26614
201906201136,26614,26617,26614,26616
201906201137,26616,26616,26613,26613
201906201138,26613,26614,26613,26614
201906201139,26613,26614,26613,26614
201906201140,26614,26614,26613,26613
201906201141,26614,26615,26613,26615
201906201142,26615,26619,26615,26618
201906201143,26618,26618,26614,26616
201906201144,26616,26616,26613,26613
201906201145,26613,26614,26611,26611
201906201146,26611,26614,26611,26614
201906201147,26614,26614,26613,26613
201906201148,26613,26616,26613,26614
201906201149,26614,26616,26613,26613
201906201150,26614,26614,26612,26612
201906201151,26612,26612,26609,26610
201906201152,26610,26610,26607,26607
201906201153,26607,26609,26604,26605
201906201154,26605,26605,26602,26603
201906201155,26604,26605,26602,26603
201906201156,26603,26608,26603,26604
201906201157,26604,26608,26604,26607
201906201158,26607,26608,26602,26604
201906201159,26604,26605,26601,26603
201906201200,26602,26604,26602,26603
201906201201,26603,26605,26601,26604
201906201202,26604,26604,26602,26603
201906201203,26603,26605,26602,26605
201906201204,26605,26609,26605,26608
201906201205,26608,26611,26607,26611
201906201206,26611,26611,26606,26608
201906201207,26608,26610,26608,26609
201906201208,26609,26610,26608,26610
201906201209,26610,26610,26608,26609
201906201210,26609,26611,26608,26610
201906201211,26611,26613,26609,26612
201906201212,26613,26615,26612,26614
201906201213,26614,26617,26613,26615
201906201214,26615,26619,26615,26616
201906201215,26616,26619,26614,26616
201906201216,26615,26618,26615,26616
201906201217,26615,26616,26614,26615
201906201218,26615,26616,26613,26613
201906201219,26613,26616,26613,26614
201906201220,26614,26616,26612,26615
201906201221,26614,26620,26614,26619
201906201222,26619,26620,26618,26620
201906201223,26620,26620,26616,26616
201906201224,26617,26620,26615,26620
201906201225,26619,26621,26617,26621
201906201226,26620,26621,26617,26618
201906201227,26617,26617,26614,26615
201906201228,26616,26619,26616,26616
201906201229,26616,26617,26614,26614
201906201230,26615,26617,26613,26614
201906201231,26613,26614,26612,26614
201906201232,26615,26616,26614,26615
201906201233,26615,26617,26615,26615
201906201234,26615,26615,26615,26615
201906201235,26614,26614,26613,26614
201906201236,26614,26615,26613,26614
201906201237,26614,26615,26613,26615
201906201238,26614,26615,26614,26614
201906201239,26615,26620,26615,26618
201906201240,26618,26619,26617,26619
201906201241,26619,26619,26617,26617
201906201242,26617,26617,26616,26617
201906201243,26617,26620,26617,26619
201906201244,26619,26620,26619,26620
201906201245,26619,26620,26619,26619
201906201246,26619,26619,26618,26618
201906201247,26618,26618,26618,26618
201906201248,26618,26618,26617,26618
201906201249,26618,26622,26618,26620
201906201250,26620,26621,26620,26620
201906201251,26620,26621,26618,26619
201906201252,26619,26620,26616,26616
201906201253,26616,26618,26616,26617
201906201254,26617,26619,26616,26616
201906201255,26616,26619,26616,26617
201906201256,26618,26620,26617,26620
201906201257,26620,26621,26620,26620
201906201258,26620,26622,26617,26617
201906201259,26617,26618,26616,26616
201906201300,26616,26618,26615,26616
201906201301,26617,26618,26617,26618
201906201302,26618,26619,26617,26619
201906201303,26619,26620,26618,26618
201906201304,26619,26620,26615,26617
201906201305,26616,26617,26616,26617
201906201306,26617,26617,26616,26617
201906201307,26617,26618,26615,26615
201906201308,26615,26615,26613,26615
201906201309,26615,26615,26613,26614
201906201310,26614,26616,26614,26616
201906201311,26615,26616,26614,26616
201906201312,26616,26616,26614,26615
201906201313,26615,26615,26614,26614
201906201314,26615,26615,26614,26614
201906201315,26614,26615,26613,26614
201906201316,26615,26615,26614,26615
201906201317,26615,26615,26614,26615
201906201318,26615,26616,26615,26615
201906201319,26615,26615,26614,26614
201906201320,26614,26617,26614,26615
201906201321,26615,26616,26614,26614
201906201322,26614,26615,26614,26614
201906201323,26615,26616,26614,26616
201906201324,26616,26616,26615,26616
201906201325,26616,26616,26615,26615
201906201326,26615,26615,26614,26615
201906201327,26615,26615,26614,26615
201906201328,26615,26615,26615,26615
201906201329,26615,26615,26613,26614
201906201330,26613,26616,26613,26615
201906201331,26615,26615,26613,26613
201906201332,26613,26614,26613,26613
201906201333,26613,26613,26611,26611
201906201334,26611,26611,26609,26610
201906201335,26611,26611,26609,26610
201906201336,26610,26612,26609,26609
201906201337,26609,26611,26609,26610
201906201338,26610,26611,26610,26610
201906201339,26610,26610,26610,26610
201906201340,26610,26610,26609,26610
201906201341,26610,26610,26609,26609
201906201342,26609,26610,26609,26610
201906201343,26610,26610,26607,26610
201906201344,26610,26610,26607,26608
201906201345,26608,26609,26607,26608
201906201346,26608,26609,26608,26608
201906201347,26608,26609,26607,26608
201906201348,26608,26609,26608,26609
201906201349,26609,26610,26608,26610
201906201350,26610,26610,26608,26610
201906201351,26610,26612,26609,26610
201906201352,26610,26610,26608,26609
201906201353,26609,26609,26608,26609
201906201354,26609,26611,26609,26610
201906201355,26610,26610,26608,26609
201906201356,26609,26609,26608,26608
201906201357,26608,26610,26608,26609
201906201358,26609,26610,26609,26610
201906201359,26610,26619,26610,26619
201906201400,26619,26619,26616,26616
201906201401,26616,26617,26613,26614
201906201402,26614,26615,26613,26615
201906201403,26615,26616,26615,26615
201906201404,26615,26615,26613,26614
201906201405,26614,26616,26614,26616
201906201406,26616,26619,26615,26618
201906201407,26619,26620,26616,26617
201906201408,26617,26618,26615,26615
201906201409,26615,26615,26614,26614
201906201410,26614,26615,26614,26615
201906201411,26615,26619,26615,26619
201906201412,26619,26619,26612,26612
201906201413,26612,26614,26611,26613
201906201414,26613,26617,26613,26615
201906201415,26615,26615,26611,26612
201906201416,26611,26613,26611,26612
201906201417,26613,26613,26611,26612
201906201418,26612,26613,26611,26611
201906201419,26611,26612,26606,26606
201906201420,26606,26609,26605,26608
201906201421,26608,26611,26608,26611
201906201422,26611,26613,26611,26612
201906201423,26612,26612,26608,26610
201906201424,26610,26612,26609,26611
201906201425,26612,26614,26611,26614
201906201426,26615,26616,26614,26615
201906201427,26615,26615,26613,26614
201906201428,26614,26616,26614,26615
201906201429,26615,26615,26612,26613
201906201430,26613,26615,26613,26613
201906201431,26613,26617,26613,26617
201906201432,26617,26619,26615,26619
201906201433,26619,26620,26617,26619
201906201434,26619,26621,26619,26621
201906201435,26621,26623,26621,26623
201906201436,26623,26623,26620,26620
201906201437,26620,26622,26618,26618
201906201438,26618,26620,26618,26619
201906201439,26619,26620,26618,26618
201906201440,26618,26623,26618,26623
201906201441,26624,26624,26621,26622
201906201442,26622,26624,26622,26623
201906201443,26622,26624,26621,26623
201906201444,26623,26623,26620,26620
201906201445,26620,26626,26620,26623
201906201446,26624,26624,26623,26623
201906201447,26623,26626,26623,26626
201906201448,26626,26630,26625,26629
201906201449,26628,26629,26621,26621
201906201450,26621,26626,26621,26625
201906201451,26625,26626,26622,26623
201906201452,26623,26624,26619,26620
201906201453,26620,26623,26620,26621
201906201454,26622,26622,26619,26620
201906201455,26621,26622,26618,26620
201906201456,26620,26623,26619,26620
201906201457,26619,26620,26617,26617
201906201458,26618,26619,26617,26617
201906201459,26617,26619,26616,26617
201906201500,26618,26618,26613,26613
201906201501,26613,26613,26612,26612
201906201502,26611,26616,26611,26613
201906201503,26613,26614,26611,26611
201906201504,26611,26617,26611,26617
201906201505,26618,26626,26618,26625
201906201506,26625,26625,26622,26624
201906201507,26624,26624,26621,26623
201906201508,26624,26628,26623,26627
201906201509,26627,26631,26626,26626
201906201510,26626,26630,26626,26626
201906201511,26627,26629,26626,26629
201906201512,26629,26630,26627,26629
201906201513,26629,26631,26627,26628
201906201514,26628,26630,26625,26627
201906201515,26627,26633,26627,26632
201906201516,26632,26634,26631,26633
201906201517,26633,26635,26631,26635
201906201518,26635,26635,26633,26635
201906201519,26635,26635,26632,26633
201906201520,26633,26638,26632,26634
201906201521,26634,26637,26633,26636
201906201522,26636,26638,26636,26638
201906201523,26638,26641,26636,26638
201906201524,26638,26638,26635,26636
201906201525,26635,26640,26635,26639
201906201526,26639,26646,26639,26645
201906201527,26646,26647,26644,26645
201906201528,26645,26649,26644,26646
201906201529,26646,26650,26646,26649
201906201530,26649,26651,26648,26651
201906201531,26651,26654,26651,26653
201906201532,26653,26660,26653,26659
201906201533,26659,26659,26650,26654
201906201534,26654,26654,26650,26650
201906201535,26650,26650,26648,26648
201906201536,26649,26649,26646,26647
201906201537,26647,26647,26645,26647
201906201538,26647,26648,26646,26647
201906201539,26648,26655,26648,26654
201906201540,26654,26655,26650,26651
201906201541,26651,26653,26651,26653
201906201542,26653,26653,26649,26649
201906201543,26649,26653,26649,26652
201906201544,26652,26658,26652,26656
201906201545,26657,26658,26656,26658
201906201546,26658,26664,26658,26659
201906201547,26659,26660,26656,26657
201906201548,26657,26664,26657,26661
201906201549,26661,26663,26660,26660
201906201550,26660,26662,26659,26659
201906201551,26659,26660,26655,26656
201906201552,26656,26659,26656,26656
201906201553,26656,26660,26656,26658
201906201554,26659,26664,26659,26662
201906201555,26662,26663,26660,26661
201906201556,26661,26663,26660,26662
201906201557,26662,26663,26660,26660
201906201558,26660,26662,26659,26661
201906201559,26661,26662,26656,26657
201906201600,26655,26662,26655,26659
201906201601,26659,26663,26659,26660
201906201602,26660,26661,26658,26658
201906201603,26657,26662,26656,26662
201906201604,26662,26663,26659,26661
201906201605,26660,26663,26658,26661
201906201606,26661,26661,26656,26657
201906201607,26657,26663,26657,26662
201906201608,26662,26666,26661,26665
201906201609,26665,26666,26662,26665
201906201610,26665,26676,26664,26671
201906201611,26672,26676,26672,26675
201906201612,26676,26679,26675,26679
201906201613,26681,26681,26675,26677
201906201614,26677,26678,26673,26675
201906201615,26675,26677,26671,26674
201906201616,26674,26678,26674,26676
201906201617,26677,26678,26676,26678
201906201618,26678,26684,26677,26679
201906201619,26679,26680,26674,26674
201906201620,26674,26676,26673,26674
201906201621,26675,26677,26675,26676
201906201622,26676,26676,26670,26671
201906201623,26671,26673,26668,26671
201906201624,26671,26680,26671,26678
201906201625,26678,26679,26676,26679
201906201626,26679,26681,26677,26680
201906201627,26680,26687,26680,26684
201906201628,26684,26684,26680,26680
201906201629,26680,26682,26679,26679
201906201630,26679,26683,26678,26682
201906201631,26682,26684,26678,26680
201906201632,26680,26683,26679,26681
201906201633,26681,26684,26679,26683
201906201634,26683,26686,26681,26683
201906201635,26683,26684,26682,26682
201906201636,26682,26684,26680,26684
201906201637,26684,26685,26677,26677
201906201638,26678,26678,26675,26676
201906201639,26676,26678,26675,26676
201906201640,26676,26679,26675,26675
201906201641,26675,26678,26675,26677
201906201642,26677,26678,26676,26678
201906201643,26678,26684,26677,26683
201906201644,26683,26684,26674,26678
201906201645,26678,26681,26677,26681
201906201646,26681,26682,26677,26678
201906201647,26678,26683,26675,26675
201906201648,26675,26675,26668,26670
201906201649,26669,26672,26667,26670
201906201650,26670,26673,26668,26668
201906201651,26668,26670,26666,26666
201906201652,26665,26667,26664,26667
201906201653,26668,26672,26667,26669
201906201654,26669,26674,26668,26672
201906201655,26672,26672,26668,26669
201906201656,26669,26671,26669,26669
201906201657,26669,26673,26669,26671
201906201658,26671,26671,26668,26669
201906201659,26669,26669,26664,26666
201906201700,26666,26668,26664,26666
201906201701,26666,26668,26665,26666
201906201702,26666,26670,26666,26669
201906201703,26669,26669,26667,26669
201906201704,26669,26670,26667,26667
201906201705,26667,26668,26666,26666
201906201706,26666,26670,26666,26667
201906201707,26667,26671,26667,26670
201906201708,26670,26673,26670,26672
201906201709,26673,26676,26672,26673
201906201710,26673,26676,26672,26674
201906201711,26673,26680,26672,26678
201906201712,26678,26682,26677,26680
201906201713,26680,26683,26677,26677
201906201714,26678,26680,26674,26674
201906201715,26673,26679,26672,26678
201906201716,26678,26679,26675,26677
201906201717,26676,26677,26670,26671
201906201718,26671,26675,26671,26674
201906201719,26674,26674,26671,26674
201906201720,26673,26677,26672,26677
201906201721,26677,26681,26677,26681
201906201722,26681,26682,26680,26682
201906201723,26682,26682,26680,26681
201906201724,26682,26686,26681,26683
201906201725,26683,26687,26682,26687
201906201726,26686,26690,26685,26689
201906201727,26689,26691,26687,26691
201906201728,26691,26698,26689,26698
201906201729,26697,26702,26697,26700
201906201730,26699,26703,26698,26703
201906201731,26703,26704,26700,26701
201906201732,26701,26716,26701,26714
201906201733,26714,26720,26713,26720
201906201734,26720,26724,26716,26724
201906201735,26724,26726,26723,26724
201906201736,26724,26724,26722,26723
201906201737,26723,26725,26718,26718
201906201738,26718,26718,26713,26714
201906201739,26714,26716,26713,26714
201906201740,26714,26718,26713,26713
201906201741,26713,26714,26712,26712
201906201742,26713,26718,26712,26716
201906201743,26716,26719,26716,26719
201906201744,26719,26724,26719,26723
201906201745,26723,26727,26723,26726
201906201746,26726,26727,26724,26725
201906201747,26725,26733,26724,26730
201906201748,26730,26730,26727,26729
201906201749,26728,26734,26727,26733
201906201750,26734,26735,26732,26734
201906201751,26734,26735,26732,26734
201906201752,26734,26735,26728,26728
201906201753,26728,26729,26725,26725
201906201754,26725,26726,26722,26724
201906201755,26725,26727,26724,26725
201906201756,26725,26727,26721,26723
201906201757,26723,26726,26722,26722
201906201758,26722,26724,26722,26722
201906201759,26722,26724,26721,26721
201906201800,26722,26724,26719,26724
201906201801,26724,26729,26724,26729
201906201802,26730,26733,26728,26728
201906201803,26729,26729,26727,26727
201906201804,26727,26730,26727,26730
201906201805,26731,26735,26730,26735
201906201806,26735,26737,26734,26735
201906201807,26735,26735,26733,26734
201906201808,26734,26737,26733,26735
201906201809,26735,26737,26734,26736
201906201810,26735,26737,26733,26736
201906201811,26736,26740,26736,26736
201906201812,26737,26739,26737,26739
201906201813,26739,26741,26738,26740
201906201814,26740,26741,26737,26740
201906201815,26740,26741,26738,26739
201906201816,26739,26743,26738,26743
201906201817,26743,26746,26742,26742
201906201818,26742,26744,26740,26744
201906201819,26744,26746,26742,26746
201906201820,26747,26747,26741,26745
201906201821,26745,26746,26743,26745
201906201822,26745,26746,26743,26743
201906201823,26743,26746,26740,26741
201906201824,26741,26741,26738,26739
201906201825,26738,26743,26738,26741
201906201826,26741,26746,26741,26745
201906201827,26744,26748,26744,26746
201906201828,26746,26752,26744,26751
201906201829,26751,26757,26750,26752
201906201830,26752,26756,26748,26756
201906201831,26756,26761,26755,26761
201906201832,26761,26762,26760,26761
201906201833,26761,26764,26761,26764
201906201834,26764,26766,26763,26766
201906201835,26767,26767,26763,26764
201906201836,26764,26765,26762,26762
201906201837,26762,26764,26755,26756
201906201838,26756,26758,26756,26757
201906201839,26757,26759,26756,26757
201906201840,26756,26757,26755,26757
201906201841,26757,26757,26755,26756
201906201842,26757,26757,26753,26753
201906201843,26753,26757,26753,26756
201906201844,26755,26760,26755,26759
201906201845,26759,26760,26754,26756
201906201846,26756,26759,26756,26759
201906201847,26759,26762,26757,26760
201906201848,26760,26765,26759,26762
201906201849,26762,26765,26758,26760
201906201850,26760,26760,26758,26760
201906201851,26761,26762,26757,26757
201906201852,26757,26759,26756,26759
201906201853,26759,26761,26757,26761
201906201854,26761,26762,26760,26761
201906201855,26761,26764,26761,26762
201906201856,26763,26763,26761,26761
201906201857,26761,26763,26760,26762
201906201858,26763,26764,26762,26764
201906201859,26764,26764,26761,26763
201906201900,26762,26763,26761,26762
201906201901,26761,26762,26761,26762
201906201902,26761,26764,26760,26762
201906201903,26763,26763,26759,26761
201906201904,26760,26761,26759,26761
201906201905,26762,26762,26757,26759
201906201906,26759,26759,26757,26758
201906201907,26757,26758,26755,26757
201906201908,26757,26758,26755,26757
201906201909,26757,26759,26756,26756
201906201910,26756,26758,26755,26757
201906201911,26757,26759,26757,26758
201906201912,26758,26759,26758,26758
201906201913,26758,26760,26758,26758
201906201914,26760,26760,26757,26759
201906201915,26759,26760,26758,26759
201906201916,26760,26761,26759,26760
201906201917,26759,26760,26756,26756
201906201918,26757,26757,26756,26756
201906201919,26756,26757,26756,26756
201906201920,26756,26757,26756,26756
201906201921,26756,26756,26754,26755
201906201922,26755,26758,26755,26758
201906201923,26758,26760,26758,26758
201906201924,26758,26760,26758,26758
201906201925,26758,26760,26758,26760
201906201926,26759,26760,26758,26759
201906201927,26759,26761,26759,26759
201906201928,26759,26760,26756,26756
201906201929,26756,26757,26753,26755
201906201930,26754,26754,26752,26753
201906201931,26753,26753,26750,26751
201906201932,26750,26750,26747,26748
201906201933,26747,26747,26745,26746
201906201934,26745,26746,26745,26745
201906201935,26746,26747,26743,26743
201906201936,26743,26746,26743,26744
201906201937,26745,26745,26742,26742
201906201938,26743,26744,26742,26743
201906201939,26743,26744,26742,26743
201906201940,26743,26743,26740,26741
201906201941,26741,26742,26740,26741
201906201942,26741,26743,26739,26740
201906201943,26740,26741,26739,26740
201906201944,26741,26744,26740,26743
201906201945,26743,26744,26741,26744
201906201946,26744,26747,26743,26746
201906201947,26746,26747,26746,26746
201906201948,26746,26746,26745,26746
201906201949,26746,26746,26742,26742
201906201950,26742,26744,26742,26744
201906201951,26744,26744,26740,26741
201906201952,26741,26742,26739,26740
201906201953,26740,26743,26739,26742
201906201954,26741,26743,26741,26741
201906201955,26742,26743,26741,26742
201906201956,26742,26746,26742,26743
201906201957,26743,26743,26739,26739
201906201958,26739,26739,26736,26736
201906201959,26736,26737,26732,26733
201906202000,26733,26733,26727,26730
201906202001,26730,26734,26730,26733
201906202002,26734,26736,26731,26734
201906202003,26734,26736,26733,26736
201906202004,26736,26740,26735,26739
201906202005,26739,26740,26738,26738
201906202006,26738,26739,26735,26739
201906202007,26739,26739,26736,26739
201906202008,26739,26741,26737,26737
201906202009,26737,26737,26735,26736
201906202010,26737,26739,26735,26737
201906202011,26736,26738,26736,26737
201906202012,26737,26740,26737,26738
201906202013,26738,26739,26735,26738
201906202014,26737,26737,26734,26734
201906202015,26734,26734,26729,26731
201906202016,26731,26737,26730,26737
201906202017,26737,26743,26737,26743
201906202018,26743,26745,26742,26743
201906202019,26743,26744,26738,26740
201906202020,26741,26743,26739,26740
201906202021,26740,26741,26739,26740
201906202022,26740,26741,26738,26740
201906202023,26740,26745,26740,26745
201906202024,26745,26748,26745,26748
201906202025,26748,26752,26748,26751
201906202026,26751,26752,26750,26751
201906202027,26751,26752,26750,26750
201906202028,26751,26751,26746,26746
201906202029,26746,26749,26745,26748
201906202030,26747,26751,26745,26750
201906202031,26749,26751,26747,26750
201906202032,26750,26751,26749,26751
201906202033,26750,26751,26749,26750
201906202034,26749,26752,26749,26751
201906202035,26751,26753,26751,26753
201906202036,26753,26756,26753,26756
201906202037,26756,26756,26754,26754
201906202038,26755,26757,26754,26755
201906202039,26755,26764,26755,26762
201906202040,26762,26765,26762,26764
201906202041,26764,26770,26764,26766
201906202042,26767,26770,26766,26770
201906202043,26769,26771,26768,26769
201906202044,26769,26770,26766,26769
201906202045,26769,26771,26768,26768
201906202046,26768,26769,26765,26767
201906202047,26767,26770,26763,26763
201906202048,26763,26765,26760,26761
201906202049,26761,26762,26760,26762
201906202050,26762,26762,26759,26759
201906202051,26759,26760,26758,26758
201906202052,26758,26762,26758,26760
201906202053,26761,26761,26759,26760
201906202054,26760,26761,26760,26760
201906202055,26760,26760,26759,26760
201906202056,26759,26760,26756,26759
201906202057,26759,26759,26756,26756
201906202058,26756,26760,26756,26759
201906202059,26757,26760,26757,26758
201906202100,26759,26762,26757,26757
201906202101,26757,26764,26757,26761
201906202102,26761,26765,26761,26764
201906202103,26765,26766,26763,26764
201906202104,26764,26765,26762,26765
201906202105,26764,26766,26762,26763
201906202106,26763,26764,26756,26756
201906202107,26756,26760,26756,26760
201906202108,26760,26762,26758,26759
201906202109,26759,26761,26758,26760
201906202110,26760,26766,26760,26763
201906202111,26762,26762,26758,26760
201906202112,26760,26762,26760,26762
201906202113,26761,26762,26760,26762
201906202114,26762,26765,26758,26761
201906202115,26761,26764,26761,26762
201906202116,26762,26762,26760,26761
201906202117,26761,26763,26760,26762
201906202118,26762,26763,26760,26760
201906202119,26761,26762,26760,26762
201906202120,26762,26769,26761,26761
201906202121,26762,26764,26762,26763
201906202122,26762,26766,26762,26766
201906202123,26766,26769,26766,26767
201906202124,26767,26769,26766,26767
201906202125,26767,26768,26765,26765
201906202126,26765,26767,26764,26765
201906202127,26765,26767,26765,26766
201906202128,26766,26769,26766,26767
201906202129,26766,26771,26765,26770
201906202130,26769,26771,26768,26770
201906202131,26770,26776,26770,26774
201906202132,26775,26775,26770,26775
201906202133,26776,26783,26774,26782
201906202134,26782,26782,26778,26782
201906202135,26782,26785,26780,26780
201906202136,26781,26781,26779,26780
201906202137,26780,26781,26777,26778
201906202138,26778,26779,26774,26777
201906202139,26777,26777,26774,26774
201906202140,26774,26775,26773,26774
201906202141,26774,26774,26771,26771
201906202142,26771,26773,26771,26772
201906202143,26772,26773,26771,26771
201906202144,26771,26771,26768,26768
201906202145,26768,26770,26768,26768
201906202146,26768,26770,26766,26769
201906202147,26770,26771,26768,26770
201906202148,26770,26771,26767,26769
201906202149,26768,26771,26768,26770
201906202150,26770,26771,26769,26770
201906202151,26771,26772,26769,26770
201906202152,26770,26771,26769,26770
201906202153,26770,26771,26769,26770
201906202154,26770,26771,26768,26769
201906202155,26769,26771,26768,26769
201906202156,26770,26771,26768,26770
201906202157,26770,26770,26766,26769
201906202158,26769,26769,26765,26768
201906202159,26767,26768,26763,26763
201906202200,26763,26766,26763,26766
201906202201,26766,26773,26766,26772
201906202202,26772,26774,26771,26773
201906202203,26773,26776,26771,26771
201906202204,26771,26775,26771,26775
201906202205,26775,26776,26773,26776
201906202206,26776,26776,26772,26773
201906202207,26773,26775,26771,26771
201906202208,26771,26772,26769,26769
201906202209,26770,26772,26770,26770
201906202210,26770,26771,26767,26771
201906202211,26771,26772,26769,26771
201906202212,26771,26775,26771,26772
201906202213,26772,26776,26771,26776
201906202214,26776,26776,26774,26775
201906202215,26775,26775,26771,26772
201906202216,26772,26778,26772,26778
201906202217,26778,26779,26776,26778
201906202218,26778,26779,26772,26772
201906202219,26772,26772,26770,26772
201906202220,26772,26773,26770,26771
201906202221,26771,26771,26767,26767
201906202222,26768,26769,26767,26767
201906202223,26767,26768,26766,26767
201906202224,26766,26769,26766,26768
201906202225,26768,26770,26767,26768
201906202226,26768,26772,26768,26769
201906202227,26769,26769,26766,26768
201906202228,26768,26769,26762,26762
201906202229,26762,26767,26762,26765
201906202230,26763,26769,26758,26759
201906202231,26763,26766,26757,26761
201906202232,26762,26770,26759,26763
201906202233,26762,26762,26734,26742
201906202234,26742,26745,26732,26732
201906202235,26732,26737,26719,26722
201906202236,26723,26731,26723,26725
201906202237,26726,26732,26726,26727
201906202238,26727,26741,26727,26741
201906202239,26741,26753,26738,26753
201906202240,26752,26760,26748,26760
201906202241,26760,26769,26758,26767
201906202242,26767,26770,26756,26762
201906202243,26761,26762,26743,26745
201906202244,26745,26749,26742,26746
201906202245,26746,26759,26739,26740
201906202246,26739,26745,26736,26742
201906202247,26742,26748,26738,26746
201906202248,26746,26754,26746,26754
201906202249,26754,26756,26744,26748
201906202250,26748,26757,26745,26757
201906202251,26757,26763,26756,26760
201906202252,26761,26765,26759,26759
201906202253,26759,26764,26755,26763
201906202254,26764,26767,26762,26767
201906202255,26767,26769,26764,26765
201906202256,26764,26767,26755,26758
201906202257,26758,26761,26755,26761
201906202258,26761,26761,26753,26758
201906202259,26758,26758,26737,26737
201906202300,26739,26745,26730,26740
201906202301,26740,26756,26738,26755
201906202302,26755,26764,26752,26764
201906202303,26763,26764,26755,26758
201906202304,26758,26762,26752,26762
201906202305,26762,26763,26752,26759
201906202306,26759,26762,26747,26747
201906202307,26746,26752,26745,26747
201906202308,26747,26751,26746,26748
201906202309,26748,26753,26744,26745
201906202310,26744,26748,26741,26745
201906202311,26745,26755,26741,26755
201906202312,26755,26766,26755,26762
201906202313,26762,26762,26741,26741
201906202314,26741,26747,26733,26734
201906202315,26734,26743,26734,26738
201906202316,26737,26738,26727,26729
201906202317,26729,26730,26723,26728
201906202318,26728,26735,26727,26733
201906202319,26732,26735,26722,26722
201906202320,26722,26722,26708,26714
201906202321,26714,26718,26707,26708
201906202322,26708,26712,26706,26711
201906202323,26712,26719,26712,26718
201906202324,26716,26727,26716,26727
201906202325,26727,26734,26726,26730
201906202326,26730,26734,26728,26729
201906202327,26729,26730,26722,26725
201906202328,26725,26726,26715,26726
201906202329,26726,26726,26710,26713
201906202330,26714,26718,26705,26705
201906202331,26705,26712,26703,26710
201906202332,26710,26715,26706,26707
201906202333,26707,26711,26706,26708
201906202334,26708,26711,26703,26703
201906202335,26703,26709,26701,26709
201906202336,26709,26710,26700,26704
201906202337,26705,26705,26697,26700
201906202338,26700,26701,26695,26699
201906202339,26699,26707,26699,26707
201906202340,26707,26708,26699,26700
201906202341,26699,26712,26698,26711
201906202342,26711,26718,26709,26711
201906202343,26711,26718,26711,26715
201906202344,26715,26721,26713,26721
201906202345,26722,26726,26717,26726
201906202346,26727,26732,26726,26728
201906202347,26728,26728,26715,26722
201906202348,26723,26729,26721,26725
201906202349,26725,26728,26722,26723
201906202350,26723,26732,26723,26730
201906202351,26730,26730,26717,26720
201906202352,26720,26726,26717,26725
201906202353,26724,26730,26724,26729
201906202354,26729,26730,26719,26721
201906202355,26721,26723,26712,26713
201906202356,26713,26714,26709,26709
201906202357,26710,26711,26697,26698
201906202358,26698,26700,26696,26698
201906202359,26699,26699,26685,26687
201906210000,26687,26706,26687,26701
201906210001,26701,26706,26695,26706
201906210002,26706,26709,26702,26703
201906210003,26703,26704,26693,26693
201906210004,26693,26695,26683,26694
201906210005,26694,26700,26690,26692
201906210006,26692,26698,26691,26692
201906210007,26692,26702,26692,26699
201906210008,26699,26708,26699,26707
201906210009,26707,26709,26701,26703
201906210010,26703,26710,26703,26706
201906210011,26706,26712,26702,26711
201906210012,26711,26711,26703,26705
201906210013,26704,26704,26697,26697
201906210014,26698,26700,26688,26688
201906210015,26689,26689,26684,26685
201906210016,26685,26692,26685,26690
201906210017,26690,26695,26684,26685
201906210018,26686,26688,26681,26681
201906210019,26682,26690,26682,26687
201906210020,26687,26691,26684,26687
201906210021,26687,26688,26681,26686
201906210022,26686,26689,26683,26688
201906210023,26688,26694,26688,26692
201906210024,26692,26692,26687,26689
201906210025,26688,26690,26684,26687
201906210026,26687,26689,26684,26684
201906210027,26684,26684,26671,26671
201906210028,26671,26679,26669,26671
201906210029,26672,26676,26672,26676
201906210030,26676,26688,26673,26687
201906210031,26686,26687,26683,26683
201906210032,26682,26682,26671,26672
201906210033,26672,26673,26667,26669
201906210034,26670,26670,26662,26662
201906210035,26663,26673,26661,26672
201906210036,26671,26673,26665,26665
201906210037,26665,26671,26665,26671
201906210038,26672,26673,26668,26671
201906210039,26671,26674,26670,26673
201906210040,26673,26677,26671,26671
201906210041,26671,26673,26670,26670
201906210042,26670,26673,26665,26671
201906210043,26671,26676,26669,26676
201906210044,26676,26685,26676,26683
201906210045,26682,26692,26679,26689
201906210046,26689,26691,26687,26691
201906210047,26692,26697,26691,26692
201906210048,26692,26701,26692,26699
201906210049,26699,26700,26693,26694
201906210050,26694,26699,26694,26696
201906210051,26696,26699,26696,26698
201906210052,26698,26701,26697,26699
201906210053,26700,26705,26699,26702
201906210054,26702,26703,26700,26703
201906210055,26703,26703,26698,26700
201906210056,26699,26704,26699,26702
201906210057,26703,26706,26698,26698
201906210058,26698,26699,26687,26687
201906210059,26687,26692,26684,26687
201906210100,26687,26689,26678,26680
201906210101,26680,26681,26676,26676
201906210102,26675,26679,26674,26677
201906210103,26676,26680,26674,26678
201906210104,26679,26679,26672,26673
201906210105,26673,26676,26669,26671
201906210106,26671,26676,26666,26675
201906210107,26675,26677,26671,26671
201906210108,26672,26673,26669,26670
201906210109,26670,26673,26662,26662
201906210110,26662,26662,26628,26633
201906210111,26633,26645,26632,26634
201906210112,26634,26634,26627,26633
201906210113,26632,26632,26610,26610
201906210114,26611,26611,26595,26597
201906210115,26597,26600,26586,26590
201906210116,26590,26592,26566,26566
201906210117,26566,26588,26566,26576
201906210118,26576,26576,26559,26561
201906210119,26561,26565,26548,26564
201906210120,26564,26569,26552,26569
201906210121,26569,26577,26566,26576
201906210122,26576,26582,26571,26582
201906210123,26580,26591,26579,26590
201906210124,26593,26610,26589,26610
201906210125,26610,26613,26594,26597
201906210126,26598,26623,26598,26622
201906210127,26621,26622,26614,26618
201906210128,26618,26620,26613,26616
201906210129,26616,26631,26615,26630
201906210130,26630,26635,26624,26632
201906210131,26632,26640,26629,26640
201906210132,26640,26651,26639,26641
201906210133,26641,26641,26628,26630
201906210134,26630,26633,26625,26627
201906210135,26627,26630,26617,26627
201906210136,26626,26628,26622,26624
201906210137,26624,26626,26614,26626
201906210138,26626,26637,26626,26628
201906210139,26628,26633,26621,26626
201906210140,26626,26630,26622,26626
201906210141,26626,26633,26623,26630
201906210142,26630,26643,26629,26640
201906210143,26640,26642,26634,26642
201906210144,26642,26648,26641,26645
201906210145,26645,26647,26635,26638
201906210146,26638,26646,26638,26641
201906210147,26641,26649,26640,26643
201906210148,26642,26647,26642,26647
201906210149,26647,26652,26645,26652
201906210150,26653,26658,26646,26648
201906210151,26648,26654,26645,26649
201906210152,26649,26650,26642,26646
201906210153,26645,26648,26636,26636
201906210154,26636,26639,26631,26632
201906210155,26631,26633,26621,26627
201906210156,26627,26644,26627,26641
201906210157,26641,26651,26641,26649
201906210158,26649,26654,26649,26650
201906210159,26650,26659,26648,26649
201906210200,26650,26659,26650,26658
201906210201,26658,26658,26648,26648
201906210202,26648,26650,26644,26644
201906210203,26644,26650,26644,26650
201906210204,26650,26662,26650,26650
201906210205,26650,26657,26649,26651
201906210206,26651,26656,26646,26656
201906210207,26656,26659,26651,26656
201906210208,26656,26666,26656,26665
201906210209,26665,26671,26662,26665
201906210210,26665,26665,26657,26657
201906210211,26658,26662,26656,26661
201906210212,26661,26666,26661,26662
201906210213,26662,26670,26662,26664
201906210214,26665,26667,26661,26665
201906210215,26665,26666,26660,26662
201906210216,26662,26663,26656,26657
201906210217,26657,26666,26657,26665
201906210218,26664,26667,26662,26664
201906210219,26664,26667,26656,26665
201906210220,26665,26669,26665,26668
201906210221,26668,26670,26664,26665
201906210222,26665,26670,26659,26662
201906210223,26662,26667,26659,26667
201906210224,26667,26675,26666,26671
201906210225,26672,26681,26672,26681
201906210226,26681,26683,26678,26683
201906210227,26683,26692,26682,26691
201906210228,26691,26703,26689,26703
201906210229,26703,26704,26701,26703
201906210230,26703,26707,26702,26707
201906210231,26707,26707,26702,26702
201906210232,26702,26707,26700,26706
201906210233,26706,26707,26702,26704
201906210234,26704,26704,26698,26698
201906210235,26698,26700,26689,26689
201906210236,26689,26692,26688,26691
201906210237,26690,26692,26688,26688
201906210238,26688,26690,26687,26688
201906210239,26688,26692,26687,26691
201906210240,26691,26693,26687,26691
201906210241,26692,26693,26690,26692
201906210242,26692,26692,26685,26685
201906210243,26685,26686,26679,26682
201906210244,26682,26688,26682,26685
201906210245,26685,26685,26680,26683
201906210246,26683,26687,26683,26686
201906210247,26686,26686,26683,26684
201906210248,26684,26684,26679,26682
201906210249,26682,26687,26681,26687
201906210250,26686,26688,26685,26685
201906210251,26685,26688,26683,26684
201906210252,26684,26684,26679,26680
201906210253,26680,26684,26680,26682
201906210254,26683,26683,26677,26680
201906210255,26679,26687,26674,26687
201906210256,26687,26687,26681,26683
201906210257,26683,26686,26681,26686
201906210258,26686,26693,26686,26693
201906210259,26693,26695,26689,26689
201906210300,26689,26692,26679,26691
201906210301,26691,26702,26691,26696
201906210302,26696,26697,26691,26691
201906210303,26691,26693,26687,26691
201906210304,26693,26696,26691,26693
201906210305,26693,26700,26692,26697
201906210306,26697,26698,26690,26693
201906210307,26694,26702,26694,26701
201906210308,26701,26706,26700,26706
201906210309,26706,26710,26701,26706
201906210310,26706,26708,26698,26701
201906210311,26701,26702,26698,26701
201906210312,26701,26702,26699,26699
201906210313,26699,26706,26696,26703
201906210314,26703,26703,26696,26697
201906210315,26697,26700,26693,26700
201906210316,26700,26706,26700,26704
201906210317,26703,26706,26701,26706
201906210318,26706,26710,26705,26708
201906210319,26709,26709,26705,26707
201906210320,26707,26708,26700,26703
201906210321,26703,26710,26700,26701
201906210322,26701,26707,26701,26704
201906210323,26704,26706,26700,26701
201906210324,26702,26704,26700,26703
201906210325,26703,26706,26703,26706
201906210326,26705,26707,26703,26705
201906210327,26706,26706,26697,26697
201906210328,26697,26705,26697,26704
201906210329,26704,26706,26701,26706
201906210330,26705,26707,26702,26706
201906210331,26706,26717,26706,26715
201906210332,26715,26717,26711,26711
201906210333,26710,26717,26707,26717
201906210334,26717,26717,26712,26717
201906210335,26717,26724,26717,26723
201906210336,26723,26723,26715,26717
201906210337,26717,26721,26716,26717
201906210338,26717,26719,26714,26718
201906210339,26718,26721,26714,26717
201906210340,26716,26720,26716,26718
201906210341,26718,26721,26717,26720
201906210342,26720,26726,26720,26722
201906210343,26723,26727,26721,26727
201906210344,26727,26728,26717,26720
201906210345,26720,26728,26720,26728
201906210346,26728,26732,26728,26729
201906210347,26729,26732,26728,26729
201906210348,26729,26730,26725,26729
201906210349,26729,26732,26728,26730
201906210350,26730,26731,26725,26725
201906210351,26725,26732,26725,26731
201906210352,26731,26731,26724,26725
201906210353,26725,26728,26724,26727
201906210354,26727,26730,26724,26727
201906210355,26726,26726,26721,26725
201906210356,26724,26729,26722,26729
201906210357,26728,26735,26728,26734
201906210358,26734,26736,26732,26734
201906210359,26734,26734,26732,26734
201906210400,26734,26734,26726,26728
201906210401,26728,26729,26725,26729
201906210402,26728,26728,26721,26723
201906210403,26723,26728,26721,26728
201906210404,26728,26729,26722,26723
201906210405,26723,26723,26710,26710
201906210406,26710,26715,26706,26709
201906210407,26709,26714,26706,26713
201906210408,26714,26717,26713,26715
201906210409,26714,26715,26708,26711
201906210410,26711,26718,26711,26718
201906210411,26717,26719,26715,26718
201906210412,26717,26722,26717,26719
201906210413,26719,26723,26718,26723
201906210414,26723,26726,26723,26724
201906210415,26724,26725,26716,26721
201906210416,26721,26725,26721,26725
201906210417,26725,26730,26724,26729
201906210418,26729,26732,26727,26732
201906210419,26732,26733,26730,26731
201906210420,26730,26736,26730,26734
201906210421,26734,26740,26734,26740
201906210422,26740,26741,26737,26737
201906210423,26737,26737,26731,26732
201906210424,26731,26733,26729,26733
201906210425,26733,26736,26733,26734
201906210426,26733,26739,26733,26736
201906210427,26736,26743,26734,26742
201906210428,26743,26744,26740,26741
201906210429,26741,26741,26736,26738
201906210430,26738,26742,26736,26739
201906210431,26738,26738,26728,26729
201906210432,26730,26737,26729,26733
201906210433,26734,26737,26733,26736
201906210434,26736,26738,26734,26736
201906210435,26735,26740,26735,26740
201906210436,26740,26752,26740,26752
201906210437,26752,26754,26746,26749
201906210438,26748,26754,26746,26752
201906210439,26752,26755,26750,26750
201906210440,26750,26758,26750,26757
201906210441,26758,26765,26757,26763
201906210442,26763,26772,26762,26771
201906210443,26771,26777,26769,26773
201906210444,26773,26777,26772,26776
201906210445,26775,26775,26767,26768
201906210446,26768,26775,26765,26775
201906210447,26775,26781,26775,26781
201906210448,26781,26786,26778,26781
201906210449,26781,26793,26781,26792
201906210450,26792,26794,26782,26782
201906210451,26782,26786,26778,26781
201906210452,26781,26787,26781,26785
201906210453,26786,26795,26785,26795
201906210454,26794,26797,26784,26796
201906210455,26795,26811,26795,26795
201906210456,26795,26799,26794,26799
201906210457,26799,26805,26796,26804
201906210458,26804,26805,26799,26800
201906210459,26800,26805,26766,26766
201906210500,26761,26777,26761,26773
201906210501,26773,26781,26773,26778
201906210502,26778,26780,26776,26780
201906210503,26780,26781,26777,26780
201906210504,26780,26781,26760,26764
201906210505,26764,26767,26762,26766
201906210506,26765,26769,26765,26769
201906210507,26769,26775,26769,26774
201906210508,26774,26775,26771,26772
201906210509,26772,26772,26763,26763
201906210510,26763,26767,26763,26765
201906210511,26765,26765,26760,26765
201906210512,26764,26769,26764,26767
201906210513,26767,26768,26763,26763
201906210514,26763,26779,26763,26777
