日時,始値(BID),高値(BID),安値(BID),終値(BID)
201906260700,26568,26568,26556,26567
201906260701,26566,26568,26557,26568
201906260702,26568,26571,26568,26569
201906260703,26569,26570,26568,26570
201906260704,26570,26572,26567,26571
201906260705,26571,26573,26568,26571
201906260706,26571,26572,26570,26571
201906260707,26570,26571,26570,26571
201906260708,26571,26573,26569,26570
201906260709,26570,26570,26567,26567
201906260710,26567,26567,26567,26567
201906260711,26567,26567,26565,26566
201906260712,26566,26567,26563,26563
201906260713,26563,26566,26563,26566
201906260714,26566,26566,26565,26565
201906260715,26565,26568,26565,26568
201906260716,26568,26574,26568,26574
201906260717,26574,26576,26573,26574
201906260718,26574,26574,26571,26572
201906260719,26572,26574,26572,26574
201906260720,26574,26577,26574,26576
201906260721,26576,26579,26575,26576
201906260722,26576,26577,26572,26572
201906260723,26572,26573,26572,26572
201906260724,26573,26574,26572,26572
201906260725,26572,26574,26571,26574
201906260726,26574,26577,26573,26577
201906260727,26577,26577,26576,26577
201906260728,26577,26577,26575,26575
201906260729,26574,26577,26574,26577
201906260730,26577,26577,26572,26572
201906260731,26572,26576,26572,26575
201906260732,26575,26575,26575,26575
201906260733,26575,26577,26575,26577
201906260734,26577,26579,26577,26578
201906260735,26578,26579,26574,26574
201906260736,26574,26574,26574,26574
201906260737,26574,26576,26572,26572
201906260738,26572,26574,26572,26573
201906260739,26573,26573,26570,26572
201906260740,26572,26572,26571,26572
201906260741,26572,26574,26570,26573
201906260742,26573,26574,26573,26574
201906260743,26574,26574,26572,26573
201906260744,26573,26573,26571,26571
201906260745,26571,26572,26571,26572
201906260746,26572,26573,26572,26572
201906260747,26572,26575,26572,26574
201906260748,26574,26576,26574,26575
201906260749,26575,26576,26574,26575
201906260750,26575,26576,26574,26574
201906260751,26574,26575,26573,26573
201906260752,26573,26573,26573,26573
201906260753,26573,26574,26573,26573
201906260754,26573,26576,26573,26576
201906260755,26576,26578,26575,26578
201906260756,26578,26578,26576,26576
201906260757,26576,26578,26576,26578
201906260758,26578,26579,26577,26578
201906260759,26578,26581,26578,26581
201906260800,26581,26582,26566,26566
201906260801,26566,26567,26565,26567
201906260802,26567,26567,26558,26558
201906260803,26558,26560,26558,26559
201906260804,26559,26560,26555,26555
201906260805,26555,26557,26555,26557
201906260806,26557,26560,26557,26559
201906260807,26559,26560,26559,26559
201906260808,26559,26561,26559,26561
201906260809,26560,26561,26560,26561
201906260810,26561,26561,26560,26560
201906260811,26560,26561,26560,26561
201906260812,26561,26561,26558,26558
201906260813,26558,26558,26556,26557
201906260814,26557,26557,26557,26557
201906260815,26557,26557,26557,26557
201906260816,26557,26558,26557,26558
201906260817,26558,26559,26558,26558
201906260818,26558,26558,26557,26558
201906260819,26558,26558,26557,26558
201906260820,26558,26558,26558,26558
201906260821,26558,26559,26558,26558
201906260822,26558,26558,26555,26555
201906260823,26555,26555,26555,26555
201906260824,26555,26555,26543,26544
201906260825,26544,26547,26544,26545
201906260826,26545,26546,26545,26545
201906260827,26546,26546,26543,26544
201906260828,26544,26546,26544,26544
201906260829,26544,26547,26544,26547
201906260830,26547,26548,26543,26543
201906260831,26543,26544,26541,26544
201906260832,26544,26546,26543,26544
201906260833,26544,26544,26537,26537
201906260834,26537,26539,26537,26538
201906260835,26539,26542,26537,26542
201906260836,26542,26544,26542,26544
201906260837,26544,26545,26544,26544
201906260838,26544,26545,26543,26544
201906260839,26544,26545,26540,26540
201906260840,26540,26541,26540,26541
201906260841,26541,26541,26539,26539
201906260842,26539,26540,26538,26539
201906260843,26539,26539,26536,26538
201906260844,26538,26539,26535,26539
201906260845,26539,26542,26538,26542
201906260846,26541,26542,26537,26537
201906260847,26537,26537,26508,26514
201906260848,26514,26519,26514,26517
201906260849,26517,26520,26516,26517
201906260850,26517,26523,26517,26522
201906260851,26522,26526,26522,26526
201906260852,26526,26529,26525,26528
201906260853,26528,26530,26528,26528
201906260854,26529,26530,26526,26530
201906260855,26530,26534,26529,26534
201906260856,26534,26536,26534,26535
201906260857,26535,26535,26533,26534
201906260858,26534,26534,26532,26533
201906260859,26533,26536,26530,26536
201906260900,26537,26544,26534,26542
201906260901,26542,26556,26542,26550
201906260902,26550,26555,26549,26553
201906260903,26553,26561,26553,26559
201906260904,26559,26565,26556,26564
201906260905,26564,26565,26558,26561
201906260906,26561,26564,26561,26561
201906260907,26561,26561,26552,26553
201906260908,26553,26554,26551,26554
201906260909,26554,26558,26554,26556
201906260910,26556,26558,26553,26557
201906260911,26557,26562,26557,26560
201906260912,26560,26561,26555,26555
201906260913,26555,26556,26554,26554
201906260914,26554,26556,26551,26551
201906260915,26552,26554,26549,26554
201906260916,26554,26567,26554,26564
201906260917,26564,26564,26556,26557
201906260918,26557,26561,26557,26559
201906260919,26558,26558,26556,26556
201906260920,26555,26557,26554,26555
201906260921,26555,26560,26555,26560
201906260922,26559,26560,26558,26559
201906260923,26559,26564,26559,26563
201906260924,26563,26572,26563,26572
201906260925,26572,26572,26566,26569
201906260926,26568,26570,26566,26568
201906260927,26568,26572,26568,26571
201906260928,26571,26571,26568,26568
201906260929,26568,26570,26568,26569
201906260930,26569,26573,26566,26566
201906260931,26567,26567,26560,26562
201906260932,26562,26567,26562,26567
201906260933,26567,26571,26567,26571
201906260934,26571,26572,26568,26568
201906260935,26568,26573,26566,26572
201906260936,26572,26572,26569,26572
201906260937,26572,26572,26570,26572
201906260938,26572,26573,26572,26572
201906260939,26572,26572,26570,26571
201906260940,26571,26573,26569,26572
201906260941,26572,26573,26570,26571
201906260942,26571,26572,26569,26569
201906260943,26569,26570,26568,26569
201906260944,26569,26571,26568,26568
201906260945,26568,26571,26568,26571
201906260946,26571,26574,26570,26572
201906260947,26572,26573,26571,26572
201906260948,26572,26573,26571,26573
201906260949,26573,26573,26571,26572
201906260950,26572,26576,26572,26575
201906260951,26575,26579,26575,26576
201906260952,26576,26579,26576,26579
201906260953,26579,26580,26579,26579
201906260954,26579,26579,26579,26579
201906260955,26578,26578,26575,26575
201906260956,26575,26576,26575,26575
201906260957,26575,26576,26574,26575
201906260958,26575,26575,26568,26568
201906260959,26568,26568,26565,26565
201906261000,26565,26566,26556,26556
201906261001,26557,26568,26556,26567
201906261002,26567,26569,26564,26564
201906261003,26564,26566,26561,26561
201906261004,26561,26563,26561,26561
201906261005,26561,26564,26558,26563
201906261006,26563,26563,26559,26560
201906261007,26560,26560,26558,26558
201906261008,26558,26564,26557,26564
201906261009,26564,26564,26561,26561
201906261010,26561,26561,26557,26558
201906261011,26558,26561,26557,26558
201906261012,26558,26559,26557,26559
201906261013,26559,26564,26558,26564
201906261014,26564,26567,26562,26567
201906261015,26567,26573,26567,26572
201906261016,26572,26573,26560,26562
201906261017,26561,26562,26556,26556
201906261018,26556,26559,26554,26557
201906261019,26557,26557,26554,26554
201906261020,26554,26556,26553,26555
201906261021,26554,26556,26554,26555
201906261022,26555,26558,26554,26558
201906261023,26558,26562,26557,26560
201906261024,26560,26560,26553,26554
201906261025,26555,26557,26552,26554
201906261026,26554,26556,26551,26552
201906261027,26551,26553,26550,26552
201906261028,26552,26552,26550,26551
201906261029,26551,26553,26547,26552
201906261030,26552,26554,26547,26547
201906261031,26547,26556,26546,26555
201906261032,26555,26558,26554,26555
201906261033,26555,26567,26555,26566
201906261034,26566,26570,26564,26570
201906261035,26569,26572,26569,26569
201906261036,26569,26573,26568,26573
201906261037,26573,26573,26565,26566
201906261038,26567,26567,26563,26564
201906261039,26563,26567,26563,26567
201906261040,26567,26569,26565,26568
201906261041,26568,26569,26567,26569
201906261042,26569,26574,26567,26573
201906261043,26573,26574,26568,26569
201906261044,26569,26572,26567,26567
201906261045,26567,26568,26557,26557
201906261046,26557,26561,26557,26558
201906261047,26558,26564,26558,26563
201906261048,26563,26572,26563,26572
201906261049,26572,26573,26570,26570
201906261050,26570,26576,26570,26575
201906261051,26575,26576,26572,26573
201906261052,26573,26576,26570,26571
201906261053,26571,26574,26569,26573
201906261054,26573,26577,26572,26572
201906261055,26572,26573,26571,26572
201906261056,26572,26572,26570,26570
201906261057,26570,26571,26564,26564
201906261058,26564,26565,26563,26564
201906261059,26564,26564,26560,26560
201906261100,26560,26561,26553,26559
201906261101,26559,26560,26558,26560
201906261102,26560,26563,26560,26561
201906261103,26561,26566,26561,26564
201906261104,26564,26566,26562,26566
201906261105,26566,26566,26560,26561
201906261106,26561,26568,26560,26567
201906261107,26568,26569,26567,26569
201906261108,26569,26569,26562,26562
201906261109,26560,26562,26554,26559
201906261110,26559,26560,26555,26559
201906261111,26559,26561,26559,26561
201906261112,26561,26563,26561,26563
201906261113,26564,26564,26559,26560
201906261114,26560,26561,26559,26561
201906261115,26561,26566,26561,26563
201906261116,26562,26568,26562,26567
201906261117,26566,26566,26564,26565
201906261118,26565,26566,26561,26562
201906261119,26562,26564,26562,26563
201906261120,26563,26566,26562,26566
201906261121,26566,26569,26564,26569
201906261122,26569,26572,26568,26570
201906261123,26570,26573,26570,26572
201906261124,26572,26575,26572,26573
201906261125,26573,26577,26571,26577
201906261126,26577,26577,26574,26575
201906261127,26575,26577,26575,26577
201906261128,26577,26577,26571,26572
201906261129,26572,26577,26572,26577
201906261130,26576,26578,26574,26575
201906261131,26575,26575,26573,26575
201906261132,26575,26576,26571,26573
201906261133,26574,26575,26572,26574
201906261134,26575,26576,26573,26576
201906261135,26576,26577,26574,26575
201906261136,26575,26577,26575,26577
201906261137,26577,26579,26576,26579
201906261138,26578,26580,26577,26577
201906261139,26577,26577,26574,26575
201906261140,26575,26577,26573,26573
201906261141,26573,26574,26573,26573
201906261142,26572,26573,26571,26571
201906261143,26571,26574,26570,26574
201906261144,26574,26575,26571,26571
201906261145,26571,26574,26571,26573
201906261146,26573,26573,26565,26566
201906261147,26566,26567,26565,26567
201906261148,26567,26568,26565,26567
201906261149,26567,26567,26565,26565
201906261150,26564,26566,26563,26563
201906261151,26563,26565,26561,26561
201906261152,26561,26563,26559,26561
201906261153,26561,26566,26561,26565
201906261154,26565,26566,26563,26564
201906261155,26564,26564,26559,26561
201906261156,26560,26561,26558,26560
201906261157,26560,26560,26555,26555
201906261158,26555,26559,26554,26557
201906261159,26557,26563,26557,26562
201906261200,26562,26562,26556,26558
201906261201,26558,26560,26557,26558
201906261202,26558,26560,26557,26559
201906261203,26559,26564,26558,26563
201906261204,26562,26563,26562,26563
201906261205,26562,26564,26562,26563
201906261206,26563,26565,26562,26563
201906261207,26563,26563,26560,26560
201906261208,26560,26561,26557,26558
201906261209,26558,26559,26556,26559
201906261210,26558,26562,26557,26560
201906261211,26560,26562,26559,26561
201906261212,26561,26565,26561,26564
201906261213,26565,26565,26564,26565
201906261214,26566,26566,26565,26565
201906261215,26566,26566,26565,26565
201906261216,26565,26565,26563,26563
201906261217,26563,26566,26563,26566
201906261218,26566,26567,26563,26563
201906261219,26563,26566,26563,26565
201906261220,26565,26567,26563,26567
201906261221,26567,26570,26567,26569
201906261222,26569,26573,26568,26572
201906261223,26572,26573,26569,26570
201906261224,26570,26570,26566,26567
201906261225,26567,26569,26566,26566
201906261226,26566,26567,26564,26565
201906261227,26565,26566,26564,26565
201906261228,26565,26569,26565,26568
201906261229,26568,26571,26568,26571
201906261230,26571,26571,26566,26567
201906261231,26567,26568,26566,26567
201906261232,26567,26569,26567,26568
201906261233,26568,26569,26565,26566
201906261234,26566,26567,26564,26564
201906261235,26564,26564,26561,26561
201906261236,26561,26563,26561,26563
201906261237,26563,26564,26561,26563
201906261238,26563,26566,26563,26564
201906261239,26564,26564,26562,26563
201906261240,26564,26565,26562,26565
201906261241,26565,26565,26561,26561
201906261242,26562,26563,26561,26563
201906261243,26563,26563,26563,26563
201906261244,26563,26565,26562,26564
201906261245,26564,26566,26563,26563
201906261246,26562,26562,26561,26561
201906261247,26562,26563,26561,26563
201906261248,26562,26563,26562,26563
201906261249,26563,26566,26563,26566
201906261250,26566,26566,26563,26564
201906261251,26564,26565,26564,26565
201906261252,26565,26566,26564,26565
201906261253,26565,26566,26565,26565
201906261254,26565,26565,26563,26563
201906261255,26563,26565,26563,26563
201906261256,26563,26563,26561,26561
201906261257,26562,26563,26562,26562
201906261258,26563,26563,26562,26563
201906261259,26563,26563,26561,26561
201906261300,26561,26565,26561,26563
201906261301,26563,26564,26562,26563
201906261302,26563,26564,26561,26561
201906261303,26561,26561,26557,26560
201906261304,26560,26560,26559,26560
201906261305,26560,26562,26560,26561
201906261306,26561,26561,26560,26560
201906261307,26560,26561,26560,26561
201906261308,26561,26562,26560,26562
201906261309,26562,26562,26562,26562
201906261310,26562,26562,26561,26561
201906261311,26561,26562,26561,26561
201906261312,26561,26561,26560,26560
201906261313,26560,26560,26560,26560
201906261314,26560,26562,26560,26562
201906261315,26562,26562,26562,26562
201906261316,26562,26562,26561,26561
201906261317,26561,26564,26561,26563
201906261318,26563,26564,26562,26562
201906261319,26562,26562,26561,26561
201906261320,26561,26562,26560,26562
201906261321,26562,26563,26562,26562
201906261322,26563,26563,26562,26563
201906261323,26563,26563,26562,26563
201906261324,26563,26564,26563,26564
201906261325,26564,26565,26562,26562
201906261326,26563,26563,26562,26562
201906261327,26562,26562,26561,26561
201906261328,26561,26561,26560,26560
201906261329,26560,26564,26560,26563
201906261330,26563,26565,26562,26563
201906261331,26563,26564,26563,26564
201906261332,26564,26566,26564,26566
201906261333,26566,26566,26563,26563
201906261334,26563,26563,26562,26562
201906261335,26562,26565,26561,26563
201906261336,26564,26564,26562,26563
201906261337,26562,26562,26561,26561
201906261338,26561,26563,26560,26561
201906261339,26560,26561,26560,26560
201906261340,26560,26562,26560,26562
201906261341,26562,26562,26561,26561
201906261342,26560,26561,26559,26559
201906261343,26559,26559,26558,26558
201906261344,26557,26558,26555,26555
201906261345,26555,26556,26555,26555
201906261346,26555,26556,26553,26554
201906261347,26554,26554,26550,26551
201906261348,26551,26553,26550,26550
201906261349,26551,26554,26550,26554
201906261350,26553,26553,26552,26552
201906261351,26553,26553,26552,26552
201906261352,26552,26552,26548,26548
201906261353,26548,26549,26547,26548
201906261354,26548,26549,26547,26548
201906261355,26548,26549,26547,26549
201906261356,26548,26549,26548,26548
201906261357,26548,26548,26546,26547
201906261358,26547,26547,26538,26539
201906261359,26539,26540,26537,26537
201906261400,26537,26538,26536,26536
201906261401,26536,26539,26535,26536
201906261402,26536,26538,26536,26538
201906261403,26538,26541,26538,26540
201906261404,26540,26542,26540,26541
201906261405,26541,26542,26541,26542
201906261406,26542,26542,26541,26542
201906261407,26542,26545,26542,26545
201906261408,26545,26548,26544,26547
201906261409,26547,26547,26545,26546
201906261410,26547,26549,26546,26548
201906261411,26548,26549,26548,26548
201906261412,26548,26550,26547,26550
201906261413,26550,26551,26549,26551
201906261414,26551,26551,26545,26545
201906261415,26546,26547,26545,26545
201906261416,26545,26547,26544,26544
201906261417,26544,26545,26544,26545
201906261418,26545,26546,26544,26544
201906261419,26544,26545,26543,26543
201906261420,26543,26544,26542,26543
201906261421,26543,26545,26543,26544
201906261422,26544,26545,26541,26541
201906261423,26541,26545,26541,26545
201906261424,26545,26547,26545,26546
201906261425,26546,26546,26543,26544
201906261426,26544,26544,26541,26541
201906261427,26541,26542,26541,26542
201906261428,26542,26543,26541,26541
201906261429,26541,26542,26541,26541
201906261430,26541,26544,26540,26543
201906261431,26544,26548,26544,26547
201906261432,26547,26547,26545,26545
201906261433,26545,26547,26545,26545
201906261434,26545,26546,26544,26544
201906261435,26545,26546,26544,26546
201906261436,26546,26546,26544,26545
201906261437,26545,26549,26545,26549
201906261438,26548,26549,26547,26549
201906261439,26549,26549,26548,26548
201906261440,26548,26550,26547,26550
201906261441,26551,26551,26550,26550
201906261442,26550,26551,26548,26549
201906261443,26548,26548,26547,26547
201906261444,26546,26546,26540,26541
201906261445,26541,26541,26536,26536
201906261446,26535,26539,26535,26539
201906261447,26539,26546,26539,26545
201906261448,26545,26545,26543,26545
201906261449,26545,26545,26543,26545
201906261450,26546,26547,26545,26546
201906261451,26547,26549,26546,26549
201906261452,26549,26550,26548,26549
201906261453,26549,26550,26548,26549
201906261454,26549,26550,26548,26549
201906261455,26549,26549,26547,26549
201906261456,26548,26551,26548,26550
201906261457,26550,26554,26550,26552
201906261458,26552,26552,26550,26551
201906261459,26551,26554,26551,26553
201906261500,26554,26557,26554,26557
201906261501,26556,26558,26555,26555
201906261502,26555,26558,26554,26554
201906261503,26554,26557,26554,26556
201906261504,26556,26559,26556,26559
201906261505,26559,26560,26557,26560
201906261506,26559,26559,26558,26558
201906261507,26558,26560,26558,26559
201906261508,26559,26561,26559,26559
201906261509,26560,26560,26557,26558
201906261510,26558,26560,26557,26559
201906261511,26559,26559,26557,26558
201906261512,26558,26561,26558,26561
201906261513,26561,26561,26560,26560
201906261514,26560,26560,26557,26559
201906261515,26559,26561,26558,26561
201906261516,26561,26562,26561,26561
201906261517,26561,26561,26560,26561
201906261518,26560,26561,26557,26557
201906261519,26556,26557,26556,26557
201906261520,26557,26558,26557,26557
201906261521,26557,26560,26557,26559
201906261522,26559,26560,26559,26560
201906261523,26560,26561,26560,26560
201906261524,26560,26560,26559,26559
201906261525,26559,26559,26553,26553
201906261526,26553,26554,26552,26553
201906261527,26553,26556,26553,26553
201906261528,26553,26554,26552,26554
201906261529,26554,26554,26550,26550
201906261530,26549,26551,26548,26551
201906261531,26551,26552,26550,26552
201906261532,26552,26556,26552,26555
201906261533,26555,26556,26555,26555
201906261534,26555,26556,26552,26552
201906261535,26552,26556,26552,26556
201906261536,26556,26557,26555,26557
201906261537,26556,26556,26554,26554
201906261538,26554,26555,26553,26554
201906261539,26554,26554,26553,26554
201906261540,26554,26554,26551,26551
201906261541,26551,26552,26550,26550
201906261542,26550,26553,26550,26551
201906261543,26551,26556,26550,26556
201906261544,26556,26556,26555,26555
201906261545,26555,26558,26555,26557
201906261546,26557,26558,26557,26558
201906261547,26558,26558,26556,26556
201906261548,26556,26557,26556,26556
201906261549,26556,26560,26553,26560
201906261550,26560,26565,26559,26565
201906261551,26565,26566,26562,26563
201906261552,26563,26568,26563,26568
201906261553,26568,26570,26567,26569
201906261554,26569,26571,26566,26567
201906261555,26567,26568,26562,26567
201906261556,26567,26571,26566,26566
201906261557,26566,26568,26565,26566
201906261558,26566,26568,26565,26566
201906261559,26566,26568,26564,26564
201906261600,26564,26572,26561,26572
201906261601,26572,26572,26566,26568
201906261602,26568,26570,26566,26568
201906261603,26568,26571,26567,26568
201906261604,26568,26570,26568,26568
201906261605,26569,26569,26559,26560
201906261606,26560,26571,26559,26571
201906261607,26571,26571,26562,26564
201906261608,26564,26564,26560,26561
201906261609,26560,26565,26557,26564
201906261610,26564,26572,26563,26570
201906261611,26570,26570,26565,26566
201906261612,26566,26569,26564,26569
201906261613,26568,26568,26561,26564
201906261614,26564,26567,26563,26565
201906261615,26565,26565,26557,26564
201906261616,26563,26566,26562,26564
201906261617,26564,26564,26560,26561
201906261618,26561,26562,26558,26561
201906261619,26561,26562,26555,26555
201906261620,26555,26555,26548,26552
201906261621,26553,26558,26552,26556
201906261622,26556,26556,26553,26555
201906261623,26555,26555,26550,26550
201906261624,26550,26554,26550,26553
201906261625,26553,26555,26548,26555
201906261626,26555,26562,26555,26562
201906261627,26562,26563,26553,26554
201906261628,26554,26567,26554,26567
201906261629,26567,26567,26558,26558
201906261630,26557,26558,26554,26554
201906261631,26555,26560,26554,26557
201906261632,26557,26564,26556,26562
201906261633,26562,26562,26558,26558
201906261634,26558,26562,26555,26555
201906261635,26555,26556,26550,26556
201906261636,26556,26563,26555,26559
201906261637,26559,26563,26559,26561
201906261638,26561,26563,26561,26563
201906261639,26563,26564,26562,26564
201906261640,26564,26566,26560,26560
201906261641,26560,26563,26559,26562
201906261642,26562,26563,26558,26559
201906261643,26560,26563,26560,26561
201906261644,26561,26563,26559,26563
201906261645,26563,26563,26557,26560
201906261646,26560,26562,26560,26561
201906261647,26561,26563,26561,26562
201906261648,26563,26566,26562,26566
201906261649,26566,26566,26564,26565
201906261650,26566,26567,26563,26565
201906261651,26565,26565,26562,26562
201906261652,26562,26562,26559,26561
201906261653,26561,26562,26561,26561
201906261654,26561,26569,26561,26568
201906261655,26568,26570,26566,26567
201906261656,26567,26570,26567,26569
201906261657,26569,26571,26568,26570
201906261658,26570,26572,26570,26570
201906261659,26569,26569,26566,26566
201906261700,26566,26567,26562,26567
201906261701,26567,26571,26567,26570
201906261702,26570,26571,26568,26571
201906261703,26571,26571,26568,26569
201906261704,26568,26573,26568,26573
201906261705,26573,26573,26566,26566
201906261706,26566,26568,26563,26565
201906261707,26565,26567,26565,26566
201906261708,26566,26569,26563,26564
201906261709,26564,26565,26563,26564
201906261710,26564,26571,26564,26570
201906261711,26570,26571,26566,26568
201906261712,26568,26569,26563,26566
201906261713,26566,26566,26562,26562
201906261714,26562,26564,26561,26562
201906261715,26562,26567,26560,26567
201906261716,26566,26567,26564,26566
201906261717,26566,26567,26564,26565
201906261718,26565,26569,26564,26566
201906261719,26566,26569,26566,26568
201906261720,26569,26570,26563,26563
201906261721,26563,26564,26562,26564
201906261722,26564,26567,26563,26565
201906261723,26565,26566,26563,26565
201906261724,26565,26568,26564,26565
201906261725,26565,26567,26563,26567
201906261726,26567,26567,26562,26562
201906261727,26562,26566,26560,26563
201906261728,26563,26564,26562,26562
201906261729,26561,26565,26560,26565
201906261730,26565,26567,26564,26565
201906261731,26565,26568,26564,26568
201906261732,26567,26574,26567,26573
201906261733,26574,26575,26572,26575
201906261734,26575,26575,26573,26574
201906261735,26574,26574,26573,26573
201906261736,26573,26575,26571,26573
201906261737,26573,26576,26572,26575
201906261738,26575,26576,26573,26575
201906261739,26575,26582,26575,26582
201906261740,26581,26585,26581,26584
201906261741,26584,26585,26583,26585
201906261742,26585,26590,26585,26590
201906261743,26590,26591,26589,26590
201906261744,26590,26593,26587,26593
201906261745,26593,26601,26593,26598
201906261746,26598,26601,26597,26600
201906261747,26600,26604,26598,26599
201906261748,26599,26599,26596,26598
201906261749,26598,26598,26593,26596
201906261750,26595,26598,26590,26590
201906261751,26590,26592,26587,26592
201906261752,26592,26594,26592,26594
201906261753,26593,26596,26592,26594
201906261754,26594,26596,26592,26595
201906261755,26595,26596,26594,26596
201906261756,26596,26596,26595,26596
201906261757,26596,26597,26595,26597
201906261758,26597,26600,26596,26599
201906261759,26599,26602,26598,26598
201906261800,26598,26598,26595,26597
201906261801,26597,26602,26596,26597
201906261802,26597,26602,26592,26600
201906261803,26600,26600,26597,26598
201906261804,26599,26602,26598,26600
201906261805,26600,26612,26600,26612
201906261806,26612,26625,26611,26622
201906261807,26622,26628,26620,26628
201906261808,26628,26640,26628,26640
201906261809,26641,26646,26640,26646
201906261810,26646,26651,26646,26646
201906261811,26647,26655,26647,26651
201906261812,26651,26668,26651,26668
201906261813,26668,26675,26666,26667
201906261814,26667,26680,26667,26678
201906261815,26678,26684,26674,26675
201906261816,26675,26676,26662,26666
201906261817,26666,26668,26658,26659
201906261818,26659,26671,26657,26666
201906261819,26665,26665,26657,26657
201906261820,26657,26662,26657,26662
201906261821,26661,26664,26659,26659
201906261822,26659,26660,26653,26657
201906261823,26657,26663,26657,26662
201906261824,26662,26673,26662,26670
201906261825,26670,26670,26664,26666
201906261826,26665,26674,26665,26672
201906261827,26672,26683,26672,26683
201906261828,26683,26684,26679,26680
201906261829,26680,26689,26680,26683
201906261830,26683,26684,26676,26678
201906261831,26678,26681,26674,26680
201906261832,26680,26681,26676,26680
201906261833,26680,26682,26671,26671
201906261834,26671,26676,26670,26671
201906261835,26671,26671,26666,26670
201906261836,26670,26670,26663,26665
201906261837,26665,26671,26665,26666
201906261838,26666,26667,26664,26664
201906261839,26664,26671,26664,26671
201906261840,26671,26675,26666,26669
201906261841,26669,26675,26669,26675
201906261842,26675,26678,26675,26677
201906261843,26677,26680,26673,26673
201906261844,26674,26680,26674,26679
201906261845,26679,26684,26679,26681
201906261846,26682,26685,26682,26685
201906261847,26685,26685,26673,26673
201906261848,26673,26678,26673,26678
201906261849,26678,26680,26672,26673
201906261850,26672,26678,26670,26677
201906261851,26677,26680,26674,26674
201906261852,26674,26681,26674,26679
201906261853,26678,26679,26676,26679
201906261854,26680,26680,26675,26680
201906261855,26680,26680,26674,26676
201906261856,26676,26681,26675,26677
201906261857,26677,26679,26676,26678
201906261858,26677,26678,26671,26671
201906261859,26671,26672,26669,26671
201906261900,26671,26678,26671,26674
201906261901,26674,26680,26674,26680
201906261902,26680,26681,26676,26677
201906261903,26677,26681,26673,26673
201906261904,26673,26678,26673,26678
201906261905,26678,26681,26678,26678
201906261906,26678,26683,26678,26683
201906261907,26683,26684,26679,26681
201906261908,26681,26681,26679,26680
201906261909,26680,26682,26678,26682
201906261910,26682,26683,26679,26683
201906261911,26683,26683,26680,26681
201906261912,26681,26681,26675,26676
201906261913,26676,26681,26676,26681
201906261914,26681,26681,26679,26681
201906261915,26680,26686,26680,26686
201906261916,26686,26686,26680,26682
201906261917,26682,26685,26680,26680
201906261918,26681,26685,26681,26684
201906261919,26684,26690,26684,26690
201906261920,26690,26695,26690,26694
201906261921,26694,26695,26692,26692
201906261922,26692,26692,26689,26690
201906261923,26690,26694,26690,26694
201906261924,26694,26701,26693,26701
201906261925,26702,26702,26695,26698
201906261926,26698,26701,26695,26701
201906261927,26701,26701,26696,26696
201906261928,26697,26698,26694,26695
201906261929,26695,26695,26688,26689
201906261930,26689,26689,26682,26683
201906261931,26683,26686,26683,26686
201906261932,26686,26689,26686,26688
201906261933,26689,26690,26688,26688
201906261934,26688,26688,26685,26687
201906261935,26687,26688,26682,26682
201906261936,26682,26683,26680,26680
201906261937,26680,26681,26679,26681
201906261938,26681,26684,26680,26684
201906261939,26684,26685,26682,26685
201906261940,26685,26687,26684,26686
201906261941,26687,26687,26680,26680
201906261942,26680,26681,26661,26670
201906261943,26670,26675,26670,26674
201906261944,26674,26675,26670,26670
201906261945,26671,26673,26660,26661
201906261946,26661,26671,26661,26669
201906261947,26669,26674,26669,26672
201906261948,26673,26673,26671,26672
201906261949,26672,26675,26671,26673
201906261950,26673,26673,26669,26669
201906261951,26670,26673,26669,26673
201906261952,26673,26674,26671,26671
201906261953,26672,26672,26669,26672
201906261954,26671,26672,26670,26672
201906261955,26672,26676,26671,26675
201906261956,26675,26677,26674,26677
201906261957,26677,26677,26668,26668
201906261958,26668,26671,26664,26666
201906261959,26665,26668,26665,26665
201906262000,26665,26669,26665,26667
201906262001,26667,26667,26664,26664
201906262002,26664,26668,26664,26667
201906262003,26667,26673,26667,26673
201906262004,26673,26676,26673,26675
201906262005,26675,26680,26675,26678
201906262006,26678,26678,26671,26672
201906262007,26672,26675,26671,26674
201906262008,26676,26678,26666,26666
201906262009,26666,26672,26666,26669
201906262010,26669,26675,26668,26674
201906262011,26674,26675,26671,26672
201906262012,26672,26673,26671,26672
201906262013,26672,26673,26668,26669
201906262014,26670,26673,26668,26668
201906262015,26668,26672,26667,26671
201906262016,26671,26671,26666,26666
201906262017,26666,26667,26662,26667
201906262018,26666,26667,26665,26665
201906262019,26665,26669,26663,26667
201906262020,26667,26669,26666,26666
201906262021,26666,26666,26664,26665
201906262022,26665,26666,26663,26663
201906262023,26663,26668,26662,26667
201906262024,26667,26667,26662,26664
201906262025,26664,26668,26663,26666
201906262026,26666,26667,26665,26666
201906262027,26666,26672,26666,26670
201906262028,26670,26670,26667,26667
201906262029,26667,26671,26667,26671
201906262030,26671,26673,26670,26672
201906262031,26672,26672,26670,26671
201906262032,26671,26671,26663,26665
201906262033,26665,26667,26662,26666
201906262034,26666,26666,26663,26665
201906262035,26664,26666,26663,26666
201906262036,26666,26666,26665,26665
201906262037,26665,26665,26659,26660
201906262038,26659,26662,26658,26662
201906262039,26661,26661,26656,26656
201906262040,26655,26659,26653,26655
201906262041,26655,26657,26655,26657
201906262042,26657,26657,26655,26656
201906262043,26657,26661,26656,26658
201906262044,26658,26661,26658,26659
201906262045,26658,26660,26655,26659
201906262046,26659,26660,26657,26659
201906262047,26659,26662,26659,26662
201906262048,26662,26668,26662,26667
201906262049,26668,26669,26664,26669
201906262050,26669,26672,26669,26672
201906262051,26672,26672,26668,26668
201906262052,26667,26667,26664,26666
201906262053,26666,26667,26663,26663
201906262054,26663,26665,26662,26664
201906262055,26664,26666,26663,26664
201906262056,26664,26667,26664,26667
201906262057,26667,26667,26663,26663
201906262058,26663,26664,26662,26664
201906262059,26664,26664,26662,26664
201906262100,26664,26667,26663,26666
201906262101,26667,26668,26666,26666
201906262102,26666,26667,26666,26666
201906262103,26666,26666,26665,26666
201906262104,26666,26668,26665,26667
201906262105,26667,26674,26664,26674
201906262106,26674,26674,26667,26669
201906262107,26670,26670,26667,26668
201906262108,26668,26669,26665,26666
201906262109,26666,26666,26664,26665
201906262110,26666,26669,26666,26666
201906262111,26666,26668,26664,26668
201906262112,26668,26668,26666,26667
201906262113,26666,26668,26665,26668
201906262114,26668,26670,26667,26668
201906262115,26668,26670,26667,26667
201906262116,26667,26669,26667,26669
201906262117,26669,26672,26668,26672
201906262118,26672,26675,26672,26672
201906262119,26672,26673,26667,26667
201906262120,26667,26667,26662,26664
201906262121,26664,26666,26660,26663
201906262122,26662,26667,26658,26658
201906262123,26658,26659,26647,26655
201906262124,26655,26668,26651,26658
201906262125,26657,26664,26653,26661
201906262126,26661,26662,26657,26659
201906262127,26659,26662,26656,26656
201906262128,26656,26663,26655,26657
201906262129,26657,26660,26654,26654
201906262130,26654,26660,26651,26652
201906262131,26652,26654,26651,26653
201906262132,26653,26654,26650,26652
201906262133,26652,26654,26648,26648
201906262134,26648,26648,26642,26642
201906262135,26642,26644,26641,26642
201906262136,26642,26643,26639,26641
201906262137,26641,26641,26636,26638
201906262138,26638,26640,26631,26631
201906262139,26631,26639,26631,26637
201906262140,26638,26638,26631,26632
201906262141,26631,26635,26620,26627
201906262142,26628,26630,26620,26624
201906262143,26624,26626,26618,26621
201906262144,26620,26623,26614,26614
201906262145,26614,26614,26609,26614
201906262146,26614,26615,26612,26613
201906262147,26614,26623,26614,26623
201906262148,26623,26626,26623,26623
201906262149,26623,26623,26619,26623
201906262150,26623,26626,26623,26625
201906262151,26625,26627,26624,26624
201906262152,26624,26624,26620,26622
201906262153,26622,26625,26620,26625
201906262154,26625,26626,26624,26626
201906262155,26626,26633,26626,26631
201906262156,26631,26634,26630,26633
201906262157,26633,26636,26632,26636
201906262158,26636,26638,26634,26637
201906262159,26636,26637,26636,26637
201906262200,26637,26637,26628,26628
201906262201,26628,26632,26628,26630
201906262202,26630,26632,26624,26625
201906262203,26626,26626,26624,26624
201906262204,26624,26625,26623,26624
201906262205,26625,26628,26624,26628
201906262206,26627,26628,26625,26626
201906262207,26626,26631,26625,26629
201906262208,26630,26631,26627,26631
201906262209,26631,26636,26630,26632
201906262210,26632,26635,26632,26634
201906262211,26633,26635,26632,26634
201906262212,26635,26638,26634,26637
201906262213,26637,26638,26636,26637
201906262214,26637,26641,26636,26641
201906262215,26641,26641,26638,26639
201906262216,26639,26649,26639,26649
201906262217,26649,26649,26642,26642
201906262218,26643,26644,26638,26639
201906262219,26639,26641,26639,26641
201906262220,26641,26645,26640,26642
201906262221,26642,26642,26640,26640
201906262222,26640,26641,26639,26641
201906262223,26641,26641,26638,26639
201906262224,26639,26641,26639,26639
201906262225,26639,26640,26639,26640
201906262226,26640,26640,26639,26639
201906262227,26639,26641,26639,26641
201906262228,26641,26641,26634,26638
201906262229,26638,26639,26632,26637
201906262230,26636,26645,26620,26623
201906262231,26624,26637,26619,26636
201906262232,26636,26656,26632,26647
201906262233,26648,26650,26624,26635
201906262234,26635,26638,26627,26635
201906262235,26635,26654,26635,26650
201906262236,26650,26656,26649,26652
201906262237,26652,26664,26652,26662
201906262238,26662,26673,26661,26665
201906262239,26665,26668,26658,26663
201906262240,26664,26664,26649,26651
201906262241,26652,26652,26646,26646
201906262242,26646,26655,26644,26655
201906262243,26655,26658,26651,26655
201906262244,26654,26654,26634,26634
201906262245,26635,26640,26631,26632
201906262246,26632,26639,26626,26626
201906262247,26626,26626,26615,26615
201906262248,26615,26619,26605,26608
201906262249,26608,26610,26598,26603
201906262250,26603,26606,26591,26591
201906262251,26593,26598,26591,26596
201906262252,26596,26598,26589,26591
201906262253,26591,26596,26591,26596
201906262254,26596,26614,26596,26613
201906262255,26613,26615,26607,26608
201906262256,26608,26610,26602,26602
201906262257,26602,26614,26599,26610
201906262258,26609,26624,26609,26622
201906262259,26621,26624,26618,26623
201906262300,26622,26626,26612,26619
201906262301,26618,26618,26612,26618
201906262302,26618,26623,26614,26618
201906262303,26618,26620,26611,26618
201906262304,26618,26619,26613,26616
201906262305,26616,26616,26607,26616
201906262306,26615,26615,26610,26613
201906262307,26613,26613,26604,26606
201906262308,26607,26615,26605,26614
201906262309,26614,26617,26611,26616
201906262310,26615,26618,26609,26610
201906262311,26610,26612,26599,26599
201906262312,26599,26603,26595,26596
201906262313,26596,26600,26593,26599
201906262314,26599,26601,26593,26594
201906262315,26594,26601,26591,26595
201906262316,26595,26597,26590,26591
201906262317,26591,26591,26585,26586
201906262318,26586,26588,26583,26587
201906262319,26586,26586,26582,26584
201906262320,26583,26597,26583,26597
201906262321,26596,26598,26588,26588
201906262322,26588,26596,26587,26592
201906262323,26592,26596,26589,26591
201906262324,26591,26591,26585,26589
201906262325,26589,26592,26587,26592
201906262326,26592,26604,26592,26604
201906262327,26604,26609,26603,26609
201906262328,26609,26615,26604,26609
201906262329,26609,26610,26607,26610
201906262330,26611,26631,26611,26626
201906262331,26625,26635,26622,26625
201906262332,26625,26631,26624,26629
201906262333,26629,26631,26625,26625
201906262334,26626,26630,26625,26630
201906262335,26630,26639,26627,26628
201906262336,26628,26630,26623,26624
201906262337,26623,26624,26618,26618
201906262338,26618,26623,26618,26623
201906262339,26623,26623,26619,26621
201906262340,26621,26622,26617,26618
201906262341,26618,26627,26616,26625
201906262342,26625,26625,26617,26618
201906262343,26619,26624,26614,26617
201906262344,26617,26621,26613,26615
201906262345,26615,26627,26615,26620
201906262346,26621,26622,26618,26618
201906262347,26618,26623,26618,26623
201906262348,26624,26628,26621,26624
201906262349,26625,26637,26624,26636
201906262350,26636,26647,26636,26637
201906262351,26637,26638,26628,26638
201906262352,26638,26638,26628,26629
201906262353,26629,26632,26625,26627
201906262354,26627,26627,26617,26617
201906262355,26618,26618,26609,26615
201906262356,26615,26617,26612,26616
201906262357,26616,26621,26615,26619
201906262358,26619,26625,26617,26625
201906262359,26625,26628,26624,26628
201906270000,26628,26631,26625,26631
201906270001,26631,26638,26629,26638
201906270002,26638,26639,26629,26629
201906270003,26630,26635,26627,26634
201906270004,26634,26651,26634,26647
201906270005,26647,26647,26643,26647
201906270006,26647,26647,26637,26639
201906270007,26639,26640,26635,26636
201906270008,26636,26637,26631,26634
201906270009,26634,26638,26634,26635
201906270010,26635,26638,26632,26638
201906270011,26638,26638,26631,26632
201906270012,26632,26635,26631,26632
201906270013,26632,26632,26616,26616
201906270014,26617,26617,26597,26599
201906270015,26599,26602,26594,26600
201906270016,26599,26607,26595,26607
201906270017,26607,26608,26604,26606
201906270018,26605,26609,26601,26601
201906270019,26600,26605,26596,26598
201906270020,26598,26603,26593,26601
201906270021,26601,26607,26600,26607
201906270022,26607,26610,26605,26610
201906270023,26610,26611,26610,26610
201906270024,26611,26612,26609,26610
201906270025,26610,26612,26607,26608
201906270026,26608,26616,26608,26614
201906270027,26614,26614,26610,26612
201906270028,26612,26620,26611,26620
201906270029,26620,26626,26612,26625
201906270030,26625,26627,26618,26621
201906270031,26621,26621,26614,26618
201906270032,26618,26620,26608,26610
201906270033,26610,26611,26603,26603
201906270034,26603,26609,26601,26609
201906270035,26609,26615,26602,26602
201906270036,26602,26612,26602,26611
201906270037,26611,26614,26609,26609
201906270038,26609,26611,26605,26605
201906270039,26605,26610,26604,26609
201906270040,26609,26609,26598,26600
201906270041,26601,26603,26599,26601
201906270042,26601,26604,26597,26601
201906270043,26602,26613,26602,26613
201906270044,26613,26614,26606,26607
201906270045,26607,26610,26603,26609
201906270046,26609,26616,26609,26615
201906270047,26615,26617,26614,26615
201906270048,26615,26618,26609,26609
201906270049,26609,26616,26608,26615
201906270050,26615,26617,26611,26612
201906270051,26611,26611,26598,26603
201906270052,26603,26604,26599,26600
201906270053,26601,26608,26600,26605
201906270054,26606,26612,26602,26609
201906270055,26609,26610,26607,26610
201906270056,26610,26622,26609,26619
201906270057,26619,26619,26615,26617
201906270058,26618,26621,26617,26618
201906270059,26618,26631,26618,26631
201906270100,26631,26641,26629,26629
201906270101,26629,26634,26628,26628
201906270102,26628,26629,26620,26624
201906270103,26623,26628,26618,26620
201906270104,26619,26622,26619,26620
201906270105,26620,26627,26620,26623
201906270106,26623,26628,26623,26628
201906270107,26628,26629,26625,26627
201906270108,26627,26630,26625,26629
201906270109,26630,26635,26630,26633
201906270110,26633,26635,26630,26635
201906270111,26635,26639,26633,26634
201906270112,26634,26638,26634,26636
201906270113,26636,26640,26633,26639
201906270114,26639,26639,26633,26634
201906270115,26634,26634,26626,26629
201906270116,26629,26632,26629,26631
201906270117,26631,26632,26629,26632
201906270118,26631,26632,26625,26625
201906270119,26625,26632,26625,26628
201906270120,26628,26630,26624,26625
201906270121,26625,26625,26617,26617
201906270122,26617,26617,26611,26615
201906270123,26615,26619,26614,26614
201906270124,26614,26621,26614,26621
201906270125,26621,26632,26621,26631
201906270126,26631,26634,26628,26631
201906270127,26632,26632,26626,26626
201906270128,26626,26627,26619,26624
201906270129,26624,26629,26624,26627
201906270130,26627,26630,26627,26628
201906270131,26629,26629,26622,26626
201906270132,26626,26631,26624,26630
201906270133,26630,26631,26628,26631
201906270134,26631,26633,26630,26633
201906270135,26633,26634,26631,26632
201906270136,26632,26635,26631,26634
201906270137,26634,26639,26634,26639
201906270138,26640,26641,26636,26637
201906270139,26636,26640,26636,26638
201906270140,26637,26639,26636,26638
201906270141,26638,26643,26638,26643
201906270142,26643,26645,26640,26643
201906270143,26644,26649,26644,26649
201906270144,26649,26653,26649,26650
201906270145,26650,26653,26650,26652
201906270146,26652,26655,26647,26647
201906270147,26647,26650,26646,26648
201906270148,26648,26648,26645,26646
201906270149,26646,26650,26643,26643
201906270150,26643,26645,26641,26642
201906270151,26642,26644,26639,26639
201906270152,26639,26639,26632,26639
201906270153,26640,26645,26640,26644
201906270154,26644,26649,26640,26649
201906270155,26650,26651,26648,26651
201906270156,26651,26651,26649,26651
201906270157,26651,26652,26645,26651
201906270158,26651,26653,26650,26653
201906270159,26653,26653,26647,26649
201906270200,26649,26651,26644,26644
201906270201,26645,26645,26637,26638
201906270202,26638,26641,26635,26636
201906270203,26636,26637,26631,26631
201906270204,26631,26636,26631,26633
201906270205,26633,26634,26630,26631
201906270206,26631,26632,26629,26632
201906270207,26632,26633,26630,26630
201906270208,26630,26630,26621,26628
201906270209,26628,26628,26622,26624
201906270210,26624,26627,26622,26627
201906270211,26627,26630,26626,26626
201906270212,26625,26627,26622,26624
201906270213,26624,26628,26622,26628
201906270214,26628,26629,26626,26629
201906270215,26629,26633,26625,26632
201906270216,26632,26637,26632,26637
201906270217,26638,26638,26628,26631
201906270218,26631,26632,26629,26629
201906270219,26629,26631,26626,26626
201906270220,26626,26628,26626,26628
201906270221,26628,26635,26628,26633
201906270222,26633,26634,26629,26631
201906270223,26631,26632,26628,26630
201906270224,26631,26631,26624,26625
201906270225,26625,26630,26623,26630
201906270226,26630,26632,26627,26628
201906270227,26629,26629,26619,26619
201906270228,26619,26620,26613,26616
201906270229,26617,26617,26613,26614
201906270230,26614,26617,26609,26614
201906270231,26614,26618,26614,26618
201906270232,26618,26619,26607,26608
201906270233,26609,26609,26604,26605
201906270234,26605,26606,26605,26606
201906270235,26606,26606,26603,26603
201906270236,26604,26604,26595,26597
201906270237,26597,26600,26595,26600
201906270238,26600,26612,26600,26612
201906270239,26611,26612,26605,26608
201906270240,26608,26608,26594,26595
201906270241,26595,26597,26593,26596
201906270242,26596,26597,26594,26596
201906270243,26596,26598,26594,26598
201906270244,26598,26601,26597,26601
201906270245,26601,26601,26596,26598
201906270246,26598,26599,26590,26591
201906270247,26589,26589,26578,26578
201906270248,26578,26585,26577,26583
201906270249,26583,26592,26583,26591
201906270250,26591,26593,26590,26590
201906270251,26590,26590,26582,26585
201906270252,26584,26587,26583,26587
201906270253,26588,26591,26588,26589
201906270254,26589,26589,26586,26588
201906270255,26588,26598,26588,26598
201906270256,26598,26601,26597,26598
201906270257,26598,26599,26595,26596
201906270258,26596,26601,26596,26601
201906270259,26601,26601,26598,26601
201906270300,26601,26605,26600,26604
201906270301,26604,26607,26603,26607
201906270302,26607,26607,26604,26604
201906270303,26604,26605,26598,26599
201906270304,26600,26606,26598,26605
201906270305,26604,26608,26603,26608
201906270306,26608,26609,26607,26609
201906270307,26609,26610,26608,26608
201906270308,26607,26609,26600,26600
201906270309,26599,26604,26599,26604
201906270310,26604,26616,26604,26616
201906270311,26615,26617,26612,26612
201906270312,26612,26613,26609,26611
201906270313,26611,26615,26610,26611
201906270314,26610,26612,26607,26611
201906270315,26611,26617,26611,26613
201906270316,26613,26616,26612,26615
201906270317,26615,26616,26610,26613
201906270318,26613,26613,26606,26610
201906270319,26610,26614,26609,26610
201906270320,26610,26617,26610,26615
201906270321,26616,26618,26611,26611
201906270322,26611,26615,26608,26611
201906270323,26611,26615,26610,26610
201906270324,26609,26610,26604,26606
201906270325,26606,26610,26604,26604
201906270326,26604,26612,26603,26612
201906270327,26612,26612,26602,26602
201906270328,26602,26604,26595,26604
201906270329,26605,26612,26605,26612
201906270330,26612,26613,26605,26605
201906270331,26604,26608,26604,26607
201906270332,26606,26607,26594,26594
201906270333,26594,26600,26594,26598
201906270334,26599,26600,26597,26599
201906270335,26599,26600,26592,26593
201906270336,26593,26596,26590,26591
201906270337,26591,26593,26590,26590
201906270338,26590,26597,26590,26594
201906270339,26595,26596,26590,26592
201906270340,26592,26594,26588,26588
201906270341,26588,26588,26581,26582
201906270342,26582,26590,26579,26579
201906270343,26579,26579,26571,26573
201906270344,26573,26577,26571,26577
201906270345,26577,26582,26577,26579
201906270346,26579,26580,26575,26580
201906270347,26580,26587,26580,26585
201906270348,26585,26586,26576,26579
201906270349,26579,26583,26578,26580
201906270350,26581,26582,26578,26582
201906270351,26582,26583,26578,26578
201906270352,26577,26577,26568,26568
201906270353,26568,26570,26564,26566
201906270354,26566,26571,26562,26571
201906270355,26571,26587,26570,26584
201906270356,26584,26596,26583,26594
201906270357,26594,26598,26587,26597
201906270358,26597,26599,26594,26595
201906270359,26595,26598,26594,26595
201906270400,26594,26600,26594,26599
201906270401,26600,26608,26600,26606
201906270402,26606,26613,26603,26612
201906270403,26612,26612,26606,26609
201906270404,26609,26609,26601,26604
201906270405,26604,26605,26599,26600
201906270406,26600,26601,26597,26600
201906270407,26600,26600,26596,26597
201906270408,26597,26602,26596,26600
201906270409,26600,26606,26599,26602
201906270410,26601,26603,26598,26603
201906270411,26604,26606,26597,26598
201906270412,26598,26599,26592,26598
201906270413,26598,26605,26598,26602
201906270414,26602,26608,26600,26603
201906270415,26603,26611,26603,26604
201906270416,26604,26604,26597,26598
201906270417,26598,26601,26594,26597
201906270418,26597,26605,26596,26602
201906270419,26602,26607,26601,26601
201906270420,26600,26604,26599,26603
201906270421,26603,26604,26596,26598
201906270422,26599,26605,26595,26604
201906270423,26604,26608,26604,26606
201906270424,26606,26606,26601,26603
201906270425,26603,26605,26599,26601
201906270426,26601,26611,26601,26609
201906270427,26607,26608,26597,26598
201906270428,26598,26600,26597,26598
201906270429,26598,26599,26591,26591
201906270430,26591,26599,26587,26599
201906270431,26599,26599,26593,26597
201906270432,26597,26603,26597,26600
201906270433,26599,26601,26596,26598
201906270434,26597,26599,26589,26589
201906270435,26590,26598,26589,26598
201906270436,26598,26601,26594,26596
201906270437,26596,26602,26596,26601
201906270438,26601,26603,26598,26601
201906270439,26601,26602,26599,26602
201906270440,26602,26610,26602,26607
201906270441,26607,26613,26605,26606
201906270442,26606,26613,26605,26609
201906270443,26609,26609,26585,26586
201906270444,26586,26591,26584,26585
201906270445,26585,26585,26571,26575
201906270446,26575,26579,26566,26566
201906270447,26566,26574,26563,26566
201906270448,26567,26577,26567,26573
201906270449,26574,26577,26569,26574
201906270450,26574,26581,26572,26572
201906270451,26572,26574,26566,26572
201906270452,26572,26577,26572,26577
201906270453,26577,26581,26574,26581
201906270454,26581,26581,26569,26569
201906270455,26569,26583,26565,26566
201906270456,26566,26566,26562,26562
201906270457,26563,26567,26561,26564
201906270458,26564,26569,26562,26562
201906270459,26562,26569,26546,26553
201906270500,26552,26559,26547,26557
201906270501,26558,26558,26544,26544
201906270502,26544,26551,26544,26549
201906270503,26549,26552,26542,26543
201906270504,26543,26546,26542,26542
201906270505,26542,26548,26542,26548
201906270506,26548,26556,26548,26555
201906270507,26555,26555,26551,26551
201906270508,26551,26553,26551,26552
201906270509,26552,26553,26550,26551
201906270510,26551,26553,26550,26553
201906270511,26553,26560,26553,26558
201906270512,26558,26558,26554,26555
201906270513,26554,26555,26551,26553
201906270514,26552,26553,26546,26549
