日時,始値(BID),高値(BID),安値(BID),終値(BID)
201906120700,26064,26064,26047,26051
201906120701,26051,26054,26045,26048
201906120702,26048,26053,26047,26051
201906120703,26051,26053,26048,26051
201906120704,26052,26053,26051,26052
201906120705,26052,26052,26049,26051
201906120706,26050,26052,26050,26051
201906120707,26051,26051,26049,26049
201906120708,26049,26049,26045,26046
201906120709,26046,26046,26044,26044
201906120710,26044,26044,26041,26042
201906120711,26042,26044,26042,26044
201906120712,26044,26047,26043,26046
201906120713,26046,26047,26046,26046
201906120714,26046,26050,26046,26050
201906120715,26049,26050,26048,26048
201906120716,26048,26051,26048,26051
201906120717,26050,26054,26050,26054
201906120718,26054,26055,26053,26053
201906120719,26053,26056,26053,26056
201906120720,26056,26056,26054,26054
201906120721,26054,26056,26054,26054
201906120722,26054,26057,26054,26057
201906120723,26057,26057,26056,26056
201906120724,26056,26057,26056,26057
201906120725,26057,26058,26057,26058
201906120726,26058,26059,26057,26058
201906120727,26058,26060,26058,26060
201906120728,26060,26060,26057,26060
201906120729,26060,26060,26058,26058
201906120730,26058,26060,26058,26060
201906120731,26060,26062,26060,26062
201906120732,26062,26063,26062,26063
201906120733,26063,26064,26063,26063
201906120734,26063,26063,26060,26060
201906120735,26060,26061,26060,26060
201906120736,26060,26060,26057,26057
201906120737,26057,26058,26057,26058
201906120738,26057,26060,26057,26060
201906120739,26060,26060,26060,26060
201906120740,26060,26060,26059,26059
201906120741,26059,26060,26059,26059
201906120742,26059,26065,26059,26062
201906120743,26062,26062,26061,26062
201906120744,26062,26062,26061,26062
201906120745,26062,26064,26061,26064
201906120746,26064,26064,26062,26062
201906120747,26062,26062,26061,26061
201906120748,26061,26062,26053,26053
201906120749,26053,26054,26053,26054
201906120750,26054,26056,26053,26056
201906120751,26056,26058,26055,26058
201906120752,26058,26059,26057,26058
201906120753,26058,26059,26058,26058
201906120754,26058,26059,26058,26058
201906120755,26058,26059,26058,26058
201906120756,26058,26059,26058,26058
201906120757,26058,26059,26058,26059
201906120758,26059,26059,26058,26058
201906120759,26058,26058,26056,26056
201906120800,26056,26056,26053,26053
201906120801,26053,26060,26053,26059
201906120802,26060,26061,26060,26061
201906120803,26061,26062,26061,26062
201906120804,26062,26068,26062,26066
201906120805,26066,26068,26065,26067
201906120806,26067,26068,26065,26067
201906120807,26067,26067,26064,26066
201906120808,26066,26066,26063,26063
201906120809,26063,26065,26063,26065
201906120810,26065,26067,26065,26067
201906120811,26067,26079,26067,26070
201906120812,26071,26073,26069,26072
201906120813,26072,26076,26072,26074
201906120814,26074,26075,26073,26074
201906120815,26074,26074,26071,26071
201906120816,26071,26073,26071,26072
201906120817,26071,26072,26064,26064
201906120818,26064,26066,26062,26065
201906120819,26065,26065,26064,26065
201906120820,26064,26066,26063,26063
201906120821,26063,26063,26061,26061
201906120822,26061,26064,26061,26064
201906120823,26064,26064,26061,26061
201906120824,26061,26062,26061,26062
201906120825,26062,26063,26062,26063
201906120826,26063,26063,26060,26062
201906120827,26062,26062,26061,26061
201906120828,26061,26064,26061,26064
201906120829,26064,26064,26063,26064
201906120830,26064,26064,26058,26058
201906120831,26058,26061,26058,26059
201906120832,26059,26059,26056,26057
201906120833,26057,26059,26056,26059
201906120834,26059,26059,26057,26057
201906120835,26057,26058,26055,26058
201906120836,26058,26067,26058,26067
201906120837,26067,26067,26063,26065
201906120838,26064,26066,26061,26063
201906120839,26064,26064,26061,26062
201906120840,26062,26062,26062,26062
201906120841,26062,26067,26062,26067
201906120842,26066,26067,26065,26067
201906120843,26067,26067,26065,26067
201906120844,26067,26067,26064,26064
201906120845,26064,26064,26062,26062
201906120846,26062,26062,26056,26057
201906120847,26057,26058,26055,26058
201906120848,26058,26059,26054,26056
201906120849,26056,26060,26055,26055
201906120850,26055,26055,26048,26050
201906120851,26050,26054,26049,26053
201906120852,26053,26058,26045,26053
201906120853,26053,26058,26053,26057
201906120854,26057,26061,26050,26052
201906120855,26052,26054,26049,26049
201906120856,26049,26052,26049,26050
201906120857,26050,26053,26049,26050
201906120858,26050,26052,26050,26052
201906120859,26052,26052,26049,26049
201906120900,26049,26051,26041,26049
201906120901,26049,26054,26047,26054
201906120902,26054,26062,26050,26061
201906120903,26061,26063,26054,26055
201906120904,26055,26058,26054,26058
201906120905,26057,26057,26053,26053
201906120906,26053,26056,26049,26051
201906120907,26052,26059,26051,26058
201906120908,26058,26065,26058,26061
201906120909,26061,26063,26058,26062
201906120910,26062,26068,26061,26065
201906120911,26065,26067,26063,26066
201906120912,26066,26067,26060,26061
201906120913,26061,26063,26060,26060
201906120914,26060,26062,26060,26062
201906120915,26062,26062,26059,26061
201906120916,26061,26063,26059,26062
201906120917,26063,26066,26063,26065
201906120918,26066,26066,26065,26065
201906120919,26065,26066,26065,26065
201906120920,26065,26066,26060,26061
201906120921,26061,26062,26059,26060
201906120922,26060,26060,26055,26059
201906120923,26059,26063,26058,26063
201906120924,26063,26065,26061,26061
201906120925,26061,26068,26061,26068
201906120926,26067,26072,26067,26071
201906120927,26071,26088,26071,26086
201906120928,26085,26089,26084,26084
201906120929,26084,26091,26084,26087
201906120930,26087,26088,26085,26086
201906120931,26086,26086,26081,26081
201906120932,26081,26081,26077,26077
201906120933,26077,26081,26076,26081
201906120934,26081,26081,26076,26077
201906120935,26077,26077,26072,26073
201906120936,26073,26074,26069,26070
201906120937,26071,26073,26071,26072
201906120938,26072,26073,26071,26072
201906120939,26072,26072,26070,26070
201906120940,26070,26073,26069,26070
201906120941,26070,26073,26070,26072
201906120942,26072,26073,26070,26071
201906120943,26071,26074,26071,26071
201906120944,26071,26075,26071,26073
201906120945,26073,26073,26071,26072
201906120946,26071,26072,26064,26064
201906120947,26065,26066,26064,26065
201906120948,26065,26068,26065,26066
201906120949,26066,26067,26063,26063
201906120950,26063,26067,26063,26065
201906120951,26065,26066,26064,26064
201906120952,26064,26067,26064,26067
201906120953,26067,26069,26066,26068
201906120954,26068,26069,26067,26068
201906120955,26068,26068,26064,26066
201906120956,26066,26067,26065,26067
201906120957,26067,26067,26065,26066
201906120958,26066,26071,26066,26070
201906120959,26071,26071,26071,26071
201906121000,26071,26074,26063,26063
201906121001,26063,26064,26052,26053
201906121002,26053,26057,26053,26056
201906121003,26057,26060,26053,26060
201906121004,26060,26068,26058,26068
201906121005,26070,26077,26069,26074
201906121006,26075,26075,26071,26072
201906121007,26072,26074,26070,26070
201906121008,26070,26070,26064,26067
201906121009,26067,26073,26067,26073
201906121010,26072,26073,26070,26071
201906121011,26071,26075,26070,26075
201906121012,26074,26077,26072,26074
201906121013,26074,26076,26073,26074
201906121014,26074,26075,26073,26075
201906121015,26075,26075,26061,26065
201906121016,26065,26065,26060,26060
201906121017,26061,26062,26055,26058
201906121018,26058,26060,26056,26057
201906121019,26057,26057,26054,26055
201906121020,26055,26058,26054,26056
201906121021,26056,26059,26056,26058
201906121022,26058,26060,26056,26059
201906121023,26059,26060,26058,26059
201906121024,26060,26062,26059,26060
201906121025,26060,26062,26059,26061
201906121026,26061,26061,26056,26058
201906121027,26058,26058,26054,26055
201906121028,26055,26056,26054,26055
201906121029,26055,26055,26052,26052
201906121030,26052,26052,26045,26046
201906121031,26046,26047,26040,26045
201906121032,26045,26045,26032,26038
201906121033,26041,26050,26038,26048
201906121034,26048,26048,26040,26044
201906121035,26044,26044,26036,26036
201906121036,26037,26037,26031,26032
201906121037,26032,26032,26029,26030
201906121038,26030,26033,26029,26033
201906121039,26033,26034,26029,26034
201906121040,26034,26040,26033,26037
201906121041,26037,26042,26036,26041
201906121042,26041,26043,26039,26042
201906121043,26042,26042,26035,26035
201906121044,26035,26045,26034,26045
201906121045,26045,26045,26036,26037
201906121046,26037,26041,26036,26038
201906121047,26038,26044,26037,26044
201906121048,26045,26048,26043,26048
201906121049,26048,26049,26044,26045
201906121050,26045,26050,26044,26050
201906121051,26049,26050,26046,26048
201906121052,26048,26049,26046,26047
201906121053,26047,26051,26046,26050
201906121054,26050,26052,26049,26052
201906121055,26052,26052,26049,26050
201906121056,26050,26053,26048,26053
201906121057,26053,26057,26052,26056
201906121058,26056,26058,26055,26058
201906121059,26058,26060,26056,26058
201906121100,26058,26059,26056,26059
201906121101,26058,26058,26056,26058
201906121102,26058,26059,26054,26059
201906121103,26059,26059,26055,26056
201906121104,26056,26056,26054,26055
201906121105,26055,26056,26053,26055
201906121106,26054,26057,26053,26056
201906121107,26056,26058,26055,26055
201906121108,26055,26056,26051,26051
201906121109,26051,26053,26051,26052
201906121110,26052,26053,26048,26048
201906121111,26048,26049,26047,26047
201906121112,26047,26048,26045,26047
201906121113,26047,26047,26045,26047
201906121114,26047,26047,26045,26045
201906121115,26045,26045,26043,26043
201906121116,26043,26046,26042,26045
201906121117,26045,26052,26044,26051
201906121118,26051,26051,26050,26050
201906121119,26050,26050,26047,26049
201906121120,26049,26050,26046,26049
201906121121,26049,26050,26048,26048
201906121122,26048,26049,26047,26048
201906121123,26048,26050,26046,26046
201906121124,26046,26047,26045,26046
201906121125,26046,26049,26046,26047
201906121126,26047,26051,26047,26051
201906121127,26051,26051,26049,26049
201906121128,26050,26051,26047,26049
201906121129,26049,26051,26049,26050
201906121130,26050,26050,26048,26050
201906121131,26050,26050,26047,26047
201906121132,26047,26047,26045,26045
201906121133,26045,26048,26045,26046
201906121134,26046,26048,26045,26047
201906121135,26047,26051,26046,26050
201906121136,26050,26053,26049,26053
201906121137,26053,26053,26045,26045
201906121138,26045,26046,26042,26043
201906121139,26043,26043,26038,26039
201906121140,26038,26039,26037,26038
201906121141,26037,26039,26037,26039
201906121142,26039,26043,26038,26043
201906121143,26043,26044,26041,26042
201906121144,26042,26042,26037,26037
201906121145,26038,26038,26036,26036
201906121146,26036,26036,26032,26035
201906121147,26035,26036,26035,26035
201906121148,26036,26037,26033,26037
201906121149,26037,26037,26034,26036
201906121150,26036,26038,26036,26037
201906121151,26037,26039,26036,26038
201906121152,26038,26038,26035,26037
201906121153,26037,26039,26037,26037
201906121154,26037,26038,26035,26037
201906121155,26037,26039,26037,26038
201906121156,26038,26038,26035,26036
201906121157,26036,26036,26034,26035
201906121158,26035,26035,26033,26034
201906121159,26034,26038,26032,26038
201906121200,26038,26040,26035,26039
201906121201,26039,26042,26039,26042
201906121202,26042,26044,26040,26043
201906121203,26043,26044,26042,26044
201906121204,26043,26044,26042,26043
201906121205,26044,26050,26044,26049
201906121206,26049,26049,26044,26044
201906121207,26044,26044,26041,26043
201906121208,26042,26047,26042,26045
201906121209,26046,26046,26042,26042
201906121210,26042,26045,26042,26043
201906121211,26043,26044,26042,26043
201906121212,26044,26046,26043,26044
201906121213,26044,26046,26042,26043
201906121214,26043,26044,26043,26044
201906121215,26045,26045,26043,26043
201906121216,26043,26044,26042,26042
201906121217,26041,26043,26041,26041
201906121218,26041,26044,26041,26044
201906121219,26044,26047,26044,26046
201906121220,26046,26052,26046,26051
201906121221,26051,26054,26051,26054
201906121222,26054,26054,26051,26052
201906121223,26052,26052,26051,26051
201906121224,26051,26051,26050,26051
201906121225,26052,26052,26050,26051
201906121226,26050,26052,26050,26051
201906121227,26050,26052,26049,26051
201906121228,26050,26051,26050,26050
201906121229,26051,26052,26050,26052
201906121230,26051,26054,26051,26054
201906121231,26054,26055,26052,26053
201906121232,26053,26056,26053,26056
201906121233,26056,26058,26055,26058
201906121234,26058,26059,26058,26059
201906121235,26059,26059,26058,26059
201906121236,26059,26061,26058,26059
201906121237,26059,26059,26058,26059
201906121238,26059,26059,26055,26056
201906121239,26057,26057,26054,26054
201906121240,26054,26055,26051,26053
201906121241,26052,26053,26051,26053
201906121242,26052,26053,26051,26052
201906121243,26052,26052,26051,26052
201906121244,26052,26053,26052,26053
201906121245,26052,26054,26052,26052
201906121246,26052,26053,26051,26053
201906121247,26053,26053,26051,26051
201906121248,26051,26051,26050,26050
201906121249,26051,26051,26049,26051
201906121250,26052,26053,26051,26052
201906121251,26052,26053,26052,26052
201906121252,26052,26053,26052,26053
201906121253,26053,26053,26052,26052
201906121254,26052,26052,26051,26051
201906121255,26051,26053,26051,26052
201906121256,26052,26052,26050,26052
201906121257,26052,26053,26052,26052
201906121258,26052,26052,26051,26051
201906121259,26051,26052,26049,26050
201906121300,26050,26053,26049,26049
201906121301,26049,26051,26049,26050
201906121302,26050,26051,26049,26050
201906121303,26050,26051,26050,26050
201906121304,26050,26050,26047,26048
201906121305,26048,26049,26048,26049
201906121306,26049,26050,26049,26049
201906121307,26050,26050,26047,26047
201906121308,26047,26049,26047,26048
201906121309,26049,26050,26049,26050
201906121310,26050,26051,26049,26050
201906121311,26050,26052,26049,26052
201906121312,26052,26052,26049,26050
201906121313,26050,26050,26049,26049
201906121314,26048,26049,26048,26049
201906121315,26049,26050,26046,26048
201906121316,26048,26048,26045,26045
201906121317,26045,26046,26045,26046
201906121318,26046,26046,26045,26045
201906121319,26045,26046,26045,26046
201906121320,26046,26047,26046,26046
201906121321,26046,26047,26045,26045
201906121322,26045,26045,26043,26044
201906121323,26044,26045,26044,26044
201906121324,26044,26044,26042,26043
201906121325,26043,26043,26042,26043
201906121326,26043,26044,26043,26044
201906121327,26044,26044,26043,26043
201906121328,26044,26044,26043,26043
201906121329,26043,26045,26043,26044
201906121330,26044,26046,26043,26045
201906121331,26045,26045,26044,26045
201906121332,26045,26045,26044,26045
201906121333,26045,26045,26044,26044
201906121334,26044,26045,26044,26044
201906121335,26044,26045,26043,26044
201906121336,26044,26045,26043,26044
201906121337,26044,26044,26041,26041
201906121338,26041,26044,26041,26043
201906121339,26043,26043,26042,26043
201906121340,26044,26046,26043,26046
201906121341,26046,26047,26045,26046
201906121342,26046,26047,26045,26046
201906121343,26046,26048,26046,26046
201906121344,26046,26046,26042,26042
201906121345,26042,26043,26040,26040
201906121346,26040,26041,26039,26039
201906121347,26039,26039,26038,26038
201906121348,26039,26042,26038,26041
201906121349,26041,26041,26040,26040
201906121350,26040,26040,26039,26040
201906121351,26040,26042,26039,26041
201906121352,26041,26041,26039,26039
201906121353,26039,26040,26038,26040
201906121354,26040,26041,26039,26039
201906121355,26039,26041,26039,26040
201906121356,26040,26040,26039,26039
201906121357,26039,26039,26038,26038
201906121358,26038,26040,26038,26040
201906121359,26039,26041,26039,26041
201906121400,26041,26042,26035,26038
201906121401,26038,26040,26038,26039
201906121402,26039,26039,26039,26039
201906121403,26039,26042,26038,26040
201906121404,26040,26046,26040,26045
201906121405,26045,26046,26040,26041
201906121406,26041,26044,26040,26043
201906121407,26043,26043,26039,26040
201906121408,26040,26041,26039,26039
201906121409,26040,26040,26038,26038
201906121410,26038,26038,26035,26035
201906121411,26035,26036,26034,26034
201906121412,26034,26038,26034,26037
201906121413,26038,26040,26037,26040
201906121414,26040,26040,26035,26036
201906121415,26035,26037,26032,26032
201906121416,26033,26034,26032,26033
201906121417,26033,26035,26033,26035
201906121418,26035,26036,26030,26030
201906121419,26030,26033,26028,26032
201906121420,26032,26032,26030,26032
201906121421,26032,26033,26030,26033
201906121422,26032,26034,26031,26032
201906121423,26032,26033,26031,26033
201906121424,26033,26033,26031,26031
201906121425,26031,26031,26029,26031
201906121426,26031,26031,26029,26030
201906121427,26030,26031,26029,26031
201906121428,26032,26032,26029,26030
201906121429,26031,26031,26028,26029
201906121430,26030,26031,26028,26029
201906121431,26029,26034,26029,26032
201906121432,26032,26033,26031,26031
201906121433,26031,26032,26030,26030
201906121434,26030,26031,26027,26028
201906121435,26028,26028,26025,26025
201906121436,26025,26027,26025,26026
201906121437,26026,26029,26026,26029
201906121438,26028,26029,26027,26027
201906121439,26027,26027,26025,26026
201906121440,26026,26026,26023,26025
201906121441,26025,26028,26025,26025
201906121442,26026,26027,26025,26025
201906121443,26025,26027,26025,26026
201906121444,26026,26028,26025,26026
201906121445,26026,26026,26022,26022
201906121446,26022,26022,26021,26022
201906121447,26023,26025,26022,26023
201906121448,26023,26023,26022,26022
201906121449,26021,26024,26021,26023
201906121450,26023,26029,26023,26029
201906121451,26029,26029,26024,26025
201906121452,26026,26027,26021,26021
201906121453,26021,26023,26020,26021
201906121454,26021,26022,26017,26017
201906121455,26017,26021,26017,26019
201906121456,26019,26019,26015,26016
201906121457,26016,26016,26006,26011
201906121458,26011,26011,26005,26005
201906121459,26005,26005,25996,26004
201906121500,26004,26006,25996,26002
201906121501,26002,26002,25999,26000
201906121502,26000,26002,25997,26001
201906121503,26000,26004,25998,26001
201906121504,26002,26007,26001,26007
201906121505,26007,26007,26004,26006
201906121506,26006,26008,26004,26005
201906121507,26005,26006,25997,25997
201906121508,25997,25999,25991,25991
201906121509,25991,25992,25989,25989
201906121510,25989,25991,25986,25988
201906121511,25989,25991,25988,25990
201906121512,25990,25993,25989,25993
201906121513,25993,25994,25989,25990
201906121514,25990,25992,25989,25990
201906121515,25990,25993,25987,25992
201906121516,25991,25992,25988,25990
201906121517,25990,25993,25988,25989
201906121518,25989,25991,25986,25988
201906121519,25988,25990,25988,25989
201906121520,25989,25991,25987,25991
201906121521,25991,25994,25991,25991
201906121522,25991,25993,25990,25993
201906121523,25994,25994,25990,25990
201906121524,25990,25992,25989,25989
201906121525,25988,25990,25986,25986
201906121526,25986,25991,25984,25991
201906121527,25990,25997,25989,25997
201906121528,25997,25997,25995,25997
201906121529,25996,25997,25996,25996
201906121530,25996,26002,25994,26002
201906121531,26002,26003,25998,26000
201906121532,26000,26000,25995,25995
201906121533,25995,25997,25989,25990
201906121534,25989,25994,25989,25993
201906121535,25993,25994,25989,25991
201906121536,25991,25996,25991,25995
201906121537,25995,25996,25994,25995
201906121538,25996,25996,25994,25996
201906121539,25996,25996,25990,25990
201906121540,25990,25990,25980,25981
201906121541,25981,25984,25981,25984
201906121542,25984,25987,25982,25982
201906121543,25982,25985,25980,25983
201906121544,25983,25984,25977,25978
201906121545,25978,25983,25976,25983
201906121546,25983,25985,25983,25983
201906121547,25983,25989,25981,25988
201906121548,25988,25991,25987,25990
201906121549,25990,25992,25986,25988
201906121550,25988,25991,25985,25986
201906121551,25986,25987,25984,25986
201906121552,25986,25987,25985,25987
201906121553,25987,25989,25985,25987
201906121554,25987,25987,25985,25986
201906121555,25986,25992,25986,25991
201906121556,25991,25992,25990,25990
201906121557,25990,25990,25987,25987
201906121558,25987,25987,25984,25986
201906121559,25986,25989,25984,25984
201906121600,25984,25993,25984,25993
201906121601,25992,25993,25986,25991
201906121602,25990,25997,25990,25995
201906121603,25995,26003,25995,26001
201906121604,26001,26001,25997,25998
201906121605,25998,26002,25998,26001
201906121606,26001,26004,25996,25996
201906121607,25996,25997,25992,25993
201906121608,25993,25995,25990,25991
201906121609,25991,25993,25991,25993
201906121610,25992,26000,25992,25999
201906121611,25999,26004,25998,26001
201906121612,26001,26004,26001,26003
201906121613,26003,26007,26001,26004
201906121614,26004,26008,26004,26004
201906121615,26004,26013,26004,26013
201906121616,26014,26014,26009,26012
201906121617,26012,26013,26008,26008
201906121618,26009,26009,26005,26009
201906121619,26009,26014,26008,26013
201906121620,26013,26016,26013,26015
201906121621,26015,26016,26010,26010
201906121622,26011,26012,26005,26007
201906121623,26008,26013,26008,26008
201906121624,26008,26015,26007,26015
201906121625,26015,26016,26011,26011
201906121626,26011,26016,26011,26014
201906121627,26014,26018,26013,26016
201906121628,26015,26021,26015,26018
201906121629,26018,26019,26014,26014
201906121630,26015,26020,26010,26020
201906121631,26020,26022,26019,26021
201906121632,26021,26021,26017,26019
201906121633,26018,26022,26018,26020
201906121634,26020,26022,26018,26020
201906121635,26020,26025,26020,26020
201906121636,26020,26021,26017,26017
201906121637,26017,26021,26016,26018
201906121638,26018,26018,26013,26014
201906121639,26014,26017,26013,26014
201906121640,26013,26016,26013,26015
201906121641,26016,26021,26016,26019
201906121642,26019,26023,26018,26022
201906121643,26023,26023,26018,26020
201906121644,26020,26020,26016,26018
201906121645,26019,26025,26019,26022
201906121646,26022,26022,26016,26018
201906121647,26019,26019,26001,26007
201906121648,26007,26007,26001,26002
201906121649,26001,26006,26001,26005
201906121650,26005,26007,26003,26007
201906121651,26007,26012,26003,26005
201906121652,26004,26008,26002,26006
201906121653,26006,26007,26001,26003
201906121654,26003,26008,26001,26007
201906121655,26006,26006,26003,26004
201906121656,26004,26004,26000,26003
201906121657,26003,26005,26000,26002
201906121658,26002,26004,26001,26004
201906121659,26004,26007,26001,26001
201906121700,26001,26015,26001,26015
201906121701,26015,26033,26014,26028
201906121702,26028,26031,26022,26025
201906121703,26025,26026,26020,26021
201906121704,26021,26024,26021,26022
201906121705,26022,26022,26019,26020
201906121706,26020,26023,26019,26021
201906121707,26021,26027,26019,26027
201906121708,26027,26029,26025,26025
201906121709,26025,26029,26023,26024
201906121710,26024,26026,26022,26023
201906121711,26023,26025,26020,26020
201906121712,26021,26022,26018,26018
201906121713,26018,26019,26011,26013
201906121714,26013,26013,26002,26002
201906121715,26003,26006,26001,26001
201906121716,26001,26004,25991,25992
201906121717,25993,25996,25991,25993
201906121718,25993,25993,25982,25983
201906121719,25983,25986,25980,25981
201906121720,25981,25985,25980,25983
201906121721,25982,25988,25981,25987
201906121722,25989,25989,25983,25983
201906121723,25984,25988,25983,25985
201906121724,25985,25989,25984,25989
201906121725,25988,25989,25984,25987
201906121726,25987,25993,25987,25988
201906121727,25988,25991,25987,25991
201906121728,25991,25992,25986,25986
201906121729,25986,25988,25983,25984
201906121730,25984,25989,25984,25985
201906121731,25985,25991,25985,25990
201906121732,25991,25997,25990,25994
201906121733,25994,25997,25994,25997
201906121734,25997,25998,25994,25994
201906121735,25994,26000,25993,25999
201906121736,25999,26002,25999,26002
201906121737,26002,26005,26000,26001
201906121738,26001,26002,25998,26000
201906121739,26000,26006,26000,26006
201906121740,26006,26009,26004,26007
201906121741,26007,26008,26004,26007
201906121742,26007,26010,26007,26010
201906121743,26010,26015,26008,26015
201906121744,26014,26016,26011,26013
201906121745,26013,26015,26013,26013
201906121746,26013,26014,26006,26008
201906121747,26008,26011,26007,26010
201906121748,26010,26012,26009,26010
201906121749,26009,26011,26005,26005
201906121750,26005,26006,26002,26004
201906121751,26004,26005,25999,25999
201906121752,25999,26004,25998,26001
201906121753,26002,26002,25994,25994
201906121754,25995,25997,25993,25995
201906121755,25995,25996,25992,25996
201906121756,25996,25996,25991,25994
201906121757,25994,25997,25993,25994
201906121758,25995,25998,25993,25996
201906121759,25996,25996,25992,25993
201906121800,25993,25994,25985,25985
201906121801,25985,25985,25981,25982
201906121802,25983,25984,25980,25981
201906121803,25981,25982,25974,25982
201906121804,25981,25986,25981,25982
201906121805,25983,25985,25976,25983
201906121806,25983,25987,25983,25984
201906121807,25984,25987,25984,25987
201906121808,25986,25992,25986,25988
201906121809,25988,25993,25984,25993
201906121810,25994,26002,25993,26000
201906121811,26000,26005,25999,26003
201906121812,26003,26006,26002,26003
201906121813,26004,26008,26003,26006
201906121814,26006,26008,26005,26005
201906121815,26005,26007,26001,26001
201906121816,26001,26003,25999,26002
201906121817,26002,26004,25998,26001
201906121818,26001,26002,25998,25999
201906121819,25999,26003,25999,26003
201906121820,26003,26004,26001,26004
201906121821,26004,26008,26004,26008
201906121822,26008,26008,26002,26002
201906121823,26002,26003,25996,25996
201906121824,25996,25999,25993,25998
201906121825,25998,26000,25994,25998
201906121826,25998,25999,25996,25997
201906121827,25997,26002,25997,26002
201906121828,26002,26006,26002,26003
201906121829,26004,26005,26003,26003
201906121830,26002,26004,26000,26004
201906121831,26004,26006,25999,26001
201906121832,26001,26007,26000,26006
201906121833,26006,26011,26003,26005
201906121834,26005,26007,26003,26003
201906121835,26003,26003,26001,26003
201906121836,26003,26003,26001,26002
201906121837,26002,26002,25994,25994
201906121838,25995,25996,25990,25991
201906121839,25991,25991,25982,25982
201906121840,25983,25983,25976,25978
201906121841,25978,25983,25977,25980
201906121842,25981,25983,25977,25978
201906121843,25978,25979,25974,25977
201906121844,25977,25978,25973,25973
201906121845,25973,25979,25973,25978
201906121846,25978,25978,25975,25976
201906121847,25976,25979,25976,25978
201906121848,25979,25981,25979,25979
201906121849,25979,25980,25978,25979
201906121850,25979,25980,25978,25979
201906121851,25979,25980,25975,25975
201906121852,25976,25978,25972,25972
201906121853,25972,25973,25971,25972
201906121854,25972,25976,25971,25976
201906121855,25976,25977,25973,25973
201906121856,25973,25975,25972,25975
201906121857,25975,25980,25974,25978
201906121858,25979,25979,25976,25978
201906121859,25978,25979,25974,25979
201906121900,25978,25984,25975,25984
201906121901,25984,25987,25983,25986
201906121902,25985,25988,25985,25986
201906121903,25986,25989,25985,25987
201906121904,25987,25990,25987,25990
201906121905,25990,25991,25989,25989
201906121906,25989,25991,25986,25987
201906121907,25988,25988,25981,25983
201906121908,25983,25984,25964,25966
201906121909,25966,25972,25966,25969
201906121910,25969,25970,25962,25963
201906121911,25963,25965,25960,25964
201906121912,25964,25965,25961,25964
201906121913,25964,25972,25963,25972
201906121914,25972,25975,25971,25974
201906121915,25974,25975,25972,25975
201906121916,25975,25980,25974,25980
201906121917,25980,25983,25978,25983
201906121918,25983,25984,25982,25983
201906121919,25983,25987,25983,25987
201906121920,25987,25989,25986,25988
201906121921,25988,25996,25988,25996
201906121922,25996,25997,25990,25991
201906121923,25991,25993,25989,25993
201906121924,25993,25993,25990,25992
201906121925,25992,25994,25987,25989
201906121926,25989,25990,25986,25990
201906121927,25990,25990,25987,25988
201906121928,25988,25992,25986,25992
201906121929,25992,25995,25989,25994
201906121930,25994,25995,25993,25995
201906121931,25996,25999,25994,25996
201906121932,25996,25997,25995,25995
201906121933,25995,25997,25994,25996
201906121934,25996,26000,25996,25997
201906121935,25996,25999,25995,25997
201906121936,25996,25998,25995,25995
201906121937,25995,25999,25995,25997
201906121938,25998,26001,25998,26000
201906121939,26001,26005,26001,26003
201906121940,26003,26011,26000,26011
201906121941,26011,26013,26006,26006
201906121942,26006,26015,26006,26014
201906121943,26015,26017,26014,26015
201906121944,26015,26015,26014,26015
201906121945,26014,26015,26007,26007
201906121946,26008,26009,26005,26006
201906121947,26006,26007,26005,26006
201906121948,26006,26011,26005,26011
201906121949,26011,26011,26005,26005
201906121950,26005,26010,26005,26009
201906121951,26009,26009,26005,26006
201906121952,26006,26013,26006,26009
201906121953,26009,26015,26008,26010
201906121954,26010,26010,26005,26007
201906121955,26007,26015,26006,26010
201906121956,26011,26012,26009,26011
201906121957,26011,26012,26010,26011
201906121958,26011,26011,26008,26008
201906121959,26008,26016,26008,26016
201906122000,26016,26023,26016,26019
201906122001,26019,26023,26019,26022
201906122002,26022,26024,26019,26022
201906122003,26022,26024,26019,26019
201906122004,26019,26022,26019,26022
201906122005,26022,26022,26019,26020
201906122006,26020,26020,26018,26019
201906122007,26019,26020,26015,26015
201906122008,26015,26017,26014,26017
201906122009,26017,26018,26014,26016
201906122010,26017,26017,26008,26008
201906122011,26009,26013,26009,26010
201906122012,26010,26011,26007,26007
201906122013,26007,26008,26002,26003
201906122014,26003,26003,25998,26002
201906122015,26002,26002,26000,26000
201906122016,26000,26002,25999,26001
201906122017,26001,26002,25998,26000
201906122018,26000,26000,25997,25998
201906122019,25999,25999,25996,25997
201906122020,25997,25999,25996,25996
201906122021,25996,26000,25993,25993
201906122022,25993,25993,25986,25986
201906122023,25986,25990,25980,25985
201906122024,25985,25991,25983,25989
201906122025,25990,25994,25988,25991
201906122026,25991,25994,25989,25992
201906122027,25993,25993,25988,25988
201906122028,25988,25991,25988,25991
201906122029,25991,25994,25990,25991
201906122030,25991,25998,25991,25998
201906122031,25998,26002,25998,26002
201906122032,26001,26002,25998,26000
201906122033,26000,26000,25995,25996
201906122034,25996,25996,25995,25996
201906122035,25996,26003,25996,26001
201906122036,26001,26001,25992,25992
201906122037,25992,25995,25991,25991
201906122038,25991,25992,25985,25988
201906122039,25988,25989,25987,25989
201906122040,25989,25990,25985,25990
201906122041,25990,25992,25989,25991
201906122042,25991,25992,25988,25989
201906122043,25989,25992,25987,25988
201906122044,25988,25990,25987,25990
201906122045,25990,25991,25986,25987
201906122046,25987,25991,25987,25991
201906122047,25991,25992,25989,25991
201906122048,25991,25994,25991,25993
201906122049,25994,25996,25993,25994
201906122050,25994,26000,25994,26000
201906122051,26000,26001,25999,26000
201906122052,26000,26001,25994,25994
201906122053,25994,25994,25992,25993
201906122054,25993,25997,25993,25993
201906122055,25993,25995,25991,25994
201906122056,25993,25993,25987,25989
201906122057,25988,25988,25984,25986
201906122058,25986,25987,25985,25986
201906122059,25986,25986,25980,25981
201906122100,25981,25987,25981,25986
201906122101,25986,25990,25986,25989
201906122102,25989,25990,25987,25989
201906122103,25989,25990,25989,25990
201906122104,25991,25994,25983,25985
201906122105,25985,25990,25985,25986
201906122106,25986,25989,25986,25988
201906122107,25989,25989,25986,25987
201906122108,25988,25989,25987,25988
201906122109,25988,25988,25984,25984
201906122110,25984,25989,25984,25989
201906122111,25989,25994,25988,25991
201906122112,25992,25994,25991,25994
201906122113,25994,25996,25993,25996
201906122114,25996,25997,25993,25995
201906122115,25995,25997,25995,25995
201906122116,25995,25997,25993,25994
201906122117,25994,25999,25992,25998
201906122118,25998,26001,25997,26001
201906122119,26001,26001,25996,25999
201906122120,25999,26001,25998,26000
201906122121,26000,26002,25998,26002
201906122122,26001,26001,25999,25999
201906122123,26000,26003,26000,26003
201906122124,26003,26008,26003,26007
201906122125,26007,26008,26007,26008
201906122126,26008,26008,26000,26005
201906122127,26005,26006,26004,26004
201906122128,26004,26005,26002,26003
201906122129,26003,26004,26002,26003
201906122130,26002,26030,26002,26014
201906122131,26014,26026,26014,26025
201906122132,26026,26027,26021,26023
201906122133,26024,26024,26011,26013
201906122134,26013,26017,26012,26014
201906122135,26014,26017,26011,26014
201906122136,26014,26015,26011,26013
201906122137,26013,26014,26010,26010
201906122138,26010,26017,26010,26016
201906122139,26016,26016,26010,26010
201906122140,26010,26010,26007,26009
201906122141,26009,26014,26009,26014
201906122142,26014,26017,26013,26013
201906122143,26013,26015,26010,26011
201906122144,26011,26011,26005,26005
201906122145,26005,26008,26004,26005
201906122146,26004,26005,26004,26004
201906122147,26004,26007,26004,26004
201906122148,26004,26008,26001,26008
201906122149,26009,26009,26007,26008
201906122150,26008,26009,26007,26008
201906122151,26009,26012,26007,26008
201906122152,26007,26008,26004,26005
201906122153,26004,26007,26003,26003
201906122154,26003,26005,26002,26003
201906122155,26002,26005,25999,26004
201906122156,26004,26004,26001,26001
201906122157,26001,26002,26000,26002
201906122158,26002,26006,26002,26005
201906122159,26005,26005,26001,26002
201906122200,26002,26010,26002,26010
201906122201,26010,26015,26010,26015
201906122202,26015,26018,26012,26017
201906122203,26017,26020,26017,26020
201906122204,26019,26020,26015,26018
201906122205,26018,26018,26016,26016
201906122206,26016,26021,26016,26020
201906122207,26020,26020,26017,26017
201906122208,26018,26021,26018,26020
201906122209,26020,26024,26020,26023
201906122210,26023,26025,26018,26019
201906122211,26020,26022,26018,26019
201906122212,26019,26020,26016,26018
201906122213,26018,26019,26016,26019
201906122214,26019,26022,26019,26021
201906122215,26022,26027,26020,26027
201906122216,26027,26027,26024,26025
201906122217,26026,26031,26025,26029
201906122218,26029,26031,26029,26029
201906122219,26029,26031,26027,26028
201906122220,26028,26029,26026,26028
201906122221,26028,26029,26028,26028
201906122222,26028,26029,26025,26025
201906122223,26025,26027,26025,26026
201906122224,26027,26030,26026,26030
201906122225,26030,26038,26030,26038
201906122226,26038,26040,26037,26039
201906122227,26039,26044,26039,26043
201906122228,26043,26052,26043,26051
201906122229,26051,26052,26047,26052
201906122230,26052,26095,26052,26063
201906122231,26063,26065,26043,26049
201906122232,26048,26049,26039,26049
201906122233,26049,26049,26029,26034
201906122234,26034,26040,26028,26038
201906122235,26038,26050,26037,26049
201906122236,26049,26052,26040,26045
201906122237,26045,26058,26043,26057
201906122238,26057,26079,26057,26077
201906122239,26078,26078,26070,26074
201906122240,26074,26084,26069,26082
201906122241,26083,26089,26076,26089
201906122242,26089,26090,26083,26086
201906122243,26086,26087,26071,26074
201906122244,26075,26075,26061,26067
201906122245,26067,26073,26058,26072
201906122246,26072,26078,26070,26075
201906122247,26075,26077,26058,26060
201906122248,26059,26061,26054,26058
201906122249,26058,26063,26048,26049
201906122250,26051,26054,26040,26049
201906122251,26050,26061,26048,26053
201906122252,26053,26065,26053,26058
201906122253,26058,26058,26049,26053
201906122254,26052,26052,26045,26048
201906122255,26047,26058,26042,26045
201906122256,26045,26053,26042,26051
201906122257,26050,26058,26047,26056
201906122258,26057,26060,26048,26050
201906122259,26050,26060,26050,26060
201906122300,26060,26063,26052,26059
201906122301,26059,26068,26059,26061
201906122302,26062,26071,26062,26067
201906122303,26066,26068,26063,26064
201906122304,26065,26065,26055,26057
201906122305,26057,26057,26046,26047
201906122306,26047,26049,26040,26044
201906122307,26044,26052,26033,26037
201906122308,26037,26042,26037,26039
201906122309,26039,26039,26028,26029
201906122310,26029,26040,26029,26039
201906122311,26039,26041,26036,26041
201906122312,26041,26044,26036,26044
201906122313,26044,26044,26038,26040
201906122314,26040,26040,26030,26034
201906122315,26034,26035,26026,26027
201906122316,26027,26041,26027,26040
201906122317,26040,26040,26028,26029
201906122318,26030,26036,26028,26036
201906122319,26036,26040,26035,26036
201906122320,26036,26041,26034,26038
201906122321,26037,26048,26037,26048
201906122322,26048,26055,26048,26053
201906122323,26053,26054,26043,26045
201906122324,26045,26046,26030,26032
201906122325,26033,26034,26023,26026
201906122326,26027,26029,26017,26023
201906122327,26024,26026,26014,26017
201906122328,26017,26021,26013,26013
201906122329,26014,26016,26011,26015
201906122330,26016,26023,26010,26010
201906122331,26011,26011,26004,26010
201906122332,26010,26010,26004,26007
201906122333,26008,26011,26006,26008
201906122334,26008,26012,26006,26012
201906122335,26012,26024,26012,26021
201906122336,26021,26034,26021,26031
201906122337,26030,26034,26028,26033
201906122338,26033,26039,26029,26039
201906122339,26040,26050,26039,26042
201906122340,26043,26053,26043,26049
201906122341,26049,26054,26045,26047
201906122342,26047,26047,26036,26039
201906122343,26039,26041,26035,26035
201906122344,26035,26040,26034,26036
201906122345,26036,26046,26035,26044
201906122346,26045,26060,26045,26059
201906122347,26058,26058,26052,26052
201906122348,26052,26064,26052,26061
201906122349,26061,26061,26055,26057
201906122350,26056,26062,26056,26057
201906122351,26057,26062,26056,26059
201906122352,26059,26069,26059,26067
201906122353,26067,26067,26055,26056
201906122354,26056,26056,26048,26048
201906122355,26048,26048,26041,26045
201906122356,26045,26047,26041,26045
201906122357,26045,26045,26037,26038
201906122358,26038,26038,26024,26024
201906122359,26024,26029,26017,26017
201906130000,26017,26025,26010,26023
201906130001,26023,26028,26019,26022
201906130002,26022,26022,26001,26005
201906130003,26005,26015,26002,26013
201906130004,26014,26025,26013,26025
201906130005,26025,26031,26020,26022
201906130006,26022,26025,26018,26021
201906130007,26021,26023,26015,26016
201906130008,26015,26021,26014,26019
201906130009,26019,26019,26013,26014
201906130010,26014,26017,26012,26016
201906130011,26017,26020,26014,26016
201906130012,26016,26017,26006,26007
201906130013,26007,26008,26003,26006
201906130014,26007,26009,25999,26000
201906130015,26001,26007,26001,26007
201906130016,26008,26012,26007,26009
201906130017,26008,26015,26006,26006
201906130018,26006,26011,26005,26008
201906130019,26008,26020,26008,26018
201906130020,26019,26020,26012,26012
201906130021,26012,26014,26004,26005
201906130022,26005,26007,26003,26005
201906130023,26005,26012,26004,26011
201906130024,26010,26019,26007,26018
201906130025,26018,26022,26014,26022
201906130026,26022,26027,26018,26018
201906130027,26018,26018,26014,26015
201906130028,26015,26015,26009,26009
201906130029,26009,26019,26006,26017
201906130030,26017,26023,26012,26022
201906130031,26022,26026,26016,26016
201906130032,26017,26019,26015,26018
201906130033,26019,26030,26019,26029
201906130034,26029,26031,26020,26020
201906130035,26021,26024,26008,26009
201906130036,26009,26011,26008,26008
201906130037,26008,26010,25991,25991
201906130038,25991,25992,25983,25989
201906130039,25990,25994,25987,25992
201906130040,25992,25995,25988,25994
201906130041,25995,26000,25994,25998
201906130042,25998,26003,25996,25998
201906130043,25998,26000,25995,25997
201906130044,25997,25997,25992,25996
201906130045,25995,25996,25986,25990
201906130046,25990,25992,25988,25991
201906130047,25991,25998,25990,25995
201906130048,25995,25998,25993,25996
201906130049,25996,25996,25989,25989
201906130050,25989,25997,25987,25997
201906130051,25997,26000,25988,25988
201906130052,25988,25988,25977,25981
201906130053,25981,25981,25970,25972
201906130054,25972,25975,25967,25969
201906130055,25969,25979,25966,25976
201906130056,25976,25985,25976,25983
201906130057,25983,25984,25977,25979
201906130058,25979,25981,25977,25978
201906130059,25979,25979,25970,25970
201906130100,25970,25983,25969,25983
201906130101,25983,25992,25983,25986
201906130102,25986,25986,25981,25985
201906130103,25985,25988,25982,25982
201906130104,25982,25983,25978,25981
201906130105,25981,25982,25977,25980
201906130106,25980,25986,25979,25985
201906130107,25985,25987,25981,25986
201906130108,25986,25993,25984,25993
201906130109,25993,25996,25988,25988
201906130110,25988,25992,25983,25985
201906130111,25985,25985,25983,25984
201906130112,25984,25988,25982,25986
201906130113,25987,25987,25979,25980
201906130114,25981,25981,25977,25978
201906130115,25978,25981,25973,25981
201906130116,25981,25990,25981,25988
201906130117,25988,25992,25985,25991
201906130118,25991,25993,25990,25990
201906130119,25990,25995,25990,25990
201906130120,25990,25990,25983,25988
201906130121,25987,25996,25987,25994
201906130122,25994,25997,25991,25993
201906130123,25993,26008,25993,26007
201906130124,26007,26012,26001,26007
201906130125,26008,26025,26008,26021
201906130126,26021,26026,26021,26022
201906130127,26022,26023,26020,26020
201906130128,26020,26022,26018,26019
201906130129,26019,26023,26018,26019
201906130130,26019,26023,26019,26020
201906130131,26020,26021,26016,26021
201906130132,26021,26030,26020,26021
201906130133,26020,26022,26018,26019
201906130134,26019,26021,26017,26017
201906130135,26017,26018,26012,26013
201906130136,26013,26013,26006,26007
201906130137,26007,26007,26002,26006
201906130138,26006,26006,26003,26004
201906130139,26004,26007,26002,26007
201906130140,26007,26007,26003,26005
201906130141,26005,26007,26002,26006
201906130142,26006,26008,26004,26007
201906130143,26007,26007,26003,26006
201906130144,26005,26006,26000,26005
201906130145,26005,26013,26005,26008
201906130146,26009,26015,26008,26013
201906130147,26013,26023,26013,26023
201906130148,26023,26027,26023,26027
201906130149,26027,26036,26027,26033
201906130150,26033,26042,26033,26039
201906130151,26040,26043,26033,26036
201906130152,26036,26038,26034,26035
201906130153,26035,26037,26031,26031
201906130154,26031,26032,26028,26028
201906130155,26028,26029,26026,26028
201906130156,26028,26035,26027,26033
201906130157,26033,26034,26028,26033
201906130158,26033,26033,26027,26027
201906130159,26026,26026,26023,26024
201906130200,26024,26026,26022,26022
201906130201,26022,26024,26020,26021
201906130202,26021,26021,26016,26016
201906130203,26016,26017,26015,26017
201906130204,26017,26019,26014,26015
201906130205,26015,26023,26014,26022
201906130206,26022,26023,26019,26019
201906130207,26020,26022,26016,26021
201906130208,26021,26026,26019,26024
201906130209,26024,26024,26014,26015
201906130210,26015,26015,26004,26005
201906130211,26005,26005,26000,26000
201906130212,25999,26004,25999,26004
201906130213,26004,26007,26002,26003
201906130214,26004,26006,25999,26004
201906130215,26004,26005,26000,26001
201906130216,26001,26002,25999,26001
201906130217,26001,26004,26000,26002
201906130218,26002,26008,26002,26007
201906130219,26007,26007,26004,26007
201906130220,26008,26016,26007,26014
201906130221,26015,26019,26015,26019
201906130222,26019,26021,26015,26016
201906130223,26016,26021,26014,26020
201906130224,26020,26020,26015,26016
201906130225,26015,26015,26007,26013
201906130226,26013,26019,26013,26017
201906130227,26016,26016,26012,26014
201906130228,26014,26018,26012,26017
201906130229,26017,26019,26015,26016
201906130230,26016,26017,26014,26014
201906130231,26014,26014,26007,26007
201906130232,26007,26007,26002,26003
201906130233,26003,26005,26001,26003
201906130234,26003,26009,26002,26009
201906130235,26008,26009,26005,26008
201906130236,26008,26009,26000,26000
201906130237,26000,26001,25998,25998
201906130238,25998,25998,25993,25995
201906130239,25995,25998,25994,25996
201906130240,25995,26000,25994,25999
201906130241,25999,25999,25994,25996
201906130242,25996,25996,25989,25989
201906130243,25989,25995,25989,25994
201906130244,25994,25996,25992,25996
201906130245,25996,26007,25996,26007
201906130246,26007,26008,25997,25998
201906130247,25999,26004,25998,26001
201906130248,26001,26006,26000,26006
201906130249,26004,26006,26002,26006
201906130250,26006,26008,26004,26008
201906130251,26008,26010,26006,26009
201906130252,26009,26009,26005,26006
201906130253,26006,26009,26006,26008
201906130254,26008,26011,26007,26008
201906130255,26008,26009,26006,26007
201906130256,26007,26012,26007,26010
201906130257,26011,26011,26007,26007
201906130258,26007,26009,26007,26009
201906130259,26009,26009,26004,26008
201906130300,26009,26010,26004,26005
201906130301,26005,26006,26000,26003
201906130302,26002,26005,26000,26005
201906130303,26005,26008,26004,26006
201906130304,26006,26008,25998,25998
201906130305,25998,25998,25991,25994
201906130306,25994,26000,25993,25995
201906130307,25995,25999,25993,25999
201906130308,25998,25998,25993,25994
201906130309,25994,25994,25986,25991
201906130310,25990,25994,25990,25992
201906130311,25992,25996,25992,25993
201906130312,25993,25995,25989,25991
201906130313,25990,25993,25989,25990
201906130314,25990,25993,25988,25992
201906130315,25992,26000,25992,25998
201906130316,25998,26000,25995,25997
201906130317,25997,25997,25990,25990
201906130318,25990,25991,25987,25991
201906130319,25991,25991,25986,25989
201906130320,25990,25994,25987,25987
201906130321,25988,25988,25983,25985
201906130322,25985,25991,25985,25991
201906130323,25991,25992,25987,25990
201906130324,25990,25998,25990,25996
201906130325,25996,25996,25991,25991
201906130326,25991,25996,25991,25991
201906130327,25991,25994,25990,25990
201906130328,25990,25993,25990,25992
201906130329,25993,25994,25991,25993
201906130330,25993,25993,25991,25992
201906130331,25992,25993,25988,25990
201906130332,25990,25990,25985,25987
201906130333,25987,25995,25987,25995
201906130334,25995,25999,25993,25998
201906130335,25998,26000,25996,25999
201906130336,25998,26000,25998,26000
201906130337,26000,26006,26000,26005
201906130338,26004,26008,26004,26005
201906130339,26005,26006,26003,26003
201906130340,26003,26006,26002,26004
201906130341,26004,26004,26000,26001
201906130342,26001,26004,26000,26003
201906130343,26003,26006,25999,26000
201906130344,26000,26010,25999,26009
201906130345,26009,26013,26007,26013
201906130346,26013,26019,26012,26019
201906130347,26019,26026,26019,26023
201906130348,26023,26026,26023,26023
201906130349,26023,26024,26020,26023
201906130350,26024,26027,26024,26025
201906130351,26024,26026,26022,26025
201906130352,26024,26027,26024,26026
201906130353,26026,26027,26020,26020
201906130354,26020,26021,26019,26019
201906130355,26019,26023,26019,26021
201906130356,26021,26025,26020,26024
201906130357,26024,26024,26022,26023
201906130358,26023,26025,26022,26023
201906130359,26023,26023,26021,26021
201906130400,26022,26024,26015,26016
201906130401,26016,26020,26016,26019
201906130402,26018,26018,26014,26014
201906130403,26014,26016,26010,26011
201906130404,26011,26011,26006,26007
201906130405,26007,26007,26004,26004
201906130406,26004,26012,26004,26009
201906130407,26008,26016,26008,26013
201906130408,26014,26014,26010,26010
201906130409,26009,26016,26009,26014
201906130410,26014,26014,26011,26012
201906130411,26012,26015,26010,26012
201906130412,26012,26019,26011,26019
201906130413,26019,26019,26016,26016
201906130414,26016,26020,26016,26018
201906130415,26018,26019,26009,26011
201906130416,26011,26013,26009,26010
201906130417,26010,26011,26008,26008
201906130418,26008,26010,26007,26010
201906130419,26009,26011,26009,26009
201906130420,26009,26014,26008,26010
201906130421,26010,26012,26009,26010
201906130422,26010,26014,26010,26011
201906130423,26011,26014,26009,26009
201906130424,26009,26009,26004,26006
201906130425,26006,26012,26006,26012
201906130426,26012,26012,26007,26007
201906130427,26007,26007,26002,26002
201906130428,26002,26008,26002,26007
201906130429,26008,26008,26002,26003
201906130430,26003,26007,26000,26006
201906130431,26007,26013,26005,26013
201906130432,26014,26014,26009,26010
201906130433,26010,26010,26004,26004
201906130434,26004,26009,26004,26006
201906130435,26006,26008,26002,26005
201906130436,26005,26006,26000,26003
201906130437,26003,26003,26000,26002
201906130438,26002,26004,26000,26001
201906130439,26001,26002,25999,26002
201906130440,26002,26007,25999,26007
201906130441,26007,26012,26007,26011
201906130442,26011,26011,26004,26004
201906130443,26004,26005,25996,25997
201906130444,25997,25997,25993,25995
201906130445,25995,26002,25992,26000
201906130446,26000,26001,25996,25996
201906130447,25997,25999,25996,25997
201906130448,25997,26002,25994,26002
201906130449,26002,26002,25996,26001
201906130450,26001,26009,26001,26006
201906130451,26006,26007,26001,26007
201906130452,26007,26013,26003,26013
201906130453,26013,26016,26011,26016
201906130454,26016,26019,26006,26007
201906130455,26007,26013,26000,26001
201906130456,26001,26004,26000,26000
201906130457,26000,26001,25998,25998
201906130458,25998,26005,25998,26003
201906130459,26002,26017,25996,26015
201906130500,26015,26018,26009,26013
201906130501,26014,26017,26011,26014
201906130502,26014,26017,26012,26015
201906130503,26015,26018,26013,26018
201906130504,26018,26021,26016,26018
201906130505,26017,26018,26016,26016
201906130506,26016,26019,26016,26018
201906130507,26018,26019,26017,26017
201906130508,26017,26018,26016,26017
201906130509,26017,26017,26013,26013
201906130510,26013,26013,26010,26012
201906130511,26012,26013,26010,26010
201906130512,26010,26010,26008,26008
201906130513,26008,26009,26007,26008
201906130514,26007,26013,26007,26013
