日時,始値(BID),高値(BID),安値(BID),終値(BID)
201901160800,51.99,52,51.91,51.91
201901160801,51.91,51.98,51.91,51.95
201901160802,51.95,51.96,51.93,51.95
201901160803,51.95,51.95,51.91,51.92
201901160804,51.92,51.92,51.88,51.9
201901160805,51.9,51.9,51.85,51.86
201901160806,51.86,51.88,51.86,51.88
201901160807,51.88,51.91,51.88,51.91
201901160808,51.91,51.92,51.91,51.92
201901160809,51.92,51.93,51.92,51.92
201901160810,51.92,51.92,51.9,51.9
201901160811,51.9,51.9,51.9,51.9
201901160812,51.9,51.91,51.9,51.9
201901160813,51.9,51.91,51.9,51.91
201901160814,51.91,51.91,51.9,51.9
201901160815,51.9,51.92,51.9,51.92
201901160816,51.92,51.92,51.92,51.92
201901160817,51.92,51.93,51.92,51.93
201901160818,51.93,51.94,51.93,51.94
201901160819,51.94,51.94,51.93,51.93
201901160820,51.93,51.93,51.92,51.92
201901160821,51.92,51.92,51.91,51.92
201901160822,51.92,51.92,51.9,51.91
201901160823,51.91,51.91,51.91,51.91
201901160824,51.91,51.92,51.91,51.92
201901160825,51.92,51.92,51.9,51.9
201901160826,51.9,51.9,51.9,51.9
201901160827,51.9,51.91,51.9,51.91
201901160828,51.91,51.91,51.9,51.9
201901160829,51.9,51.91,51.9,51.91
201901160830,51.91,51.91,51.9,51.91
201901160831,51.91,51.91,51.91,51.91
201901160832,51.91,51.92,51.91,51.92
201901160833,51.92,51.93,51.92,51.92
201901160834,51.92,51.92,51.92,51.92
201901160835,51.92,51.92,51.92,51.92
201901160836,51.92,51.92,51.9,51.91
201901160837,51.91,51.91,51.91,51.91
201901160838,51.91,51.92,51.85,51.89
201901160839,51.89,51.92,51.89,51.92
201901160840,51.92,51.93,51.91,51.91
201901160841,51.91,51.91,51.91,51.91
201901160842,51.91,51.91,51.91,51.91
201901160843,51.91,51.91,51.91,51.91
201901160844,51.91,51.92,51.91,51.92
201901160845,51.92,51.92,51.91,51.91
201901160846,51.91,51.92,51.9,51.9
201901160847,51.9,51.9,51.9,51.9
201901160848,51.9,51.91,51.9,51.91
201901160849,51.91,51.91,51.91,51.91
201901160850,51.91,51.91,51.9,51.9
201901160851,51.9,51.9,51.88,51.9
201901160852,51.9,51.91,51.9,51.91
201901160853,51.91,51.91,51.9,51.9
201901160854,51.9,51.9,51.9,51.9
201901160855,51.9,51.9,51.89,51.89
201901160856,51.89,51.89,51.89,51.89
201901160857,51.89,51.89,51.86,51.88
201901160858,51.88,51.88,51.87,51.87
201901160859,51.87,51.88,51.86,51.88
201901160900,51.88,51.88,51.86,51.87
201901160901,51.87,51.87,51.86,51.87
201901160902,51.87,51.87,51.87,51.87
201901160903,51.87,51.87,51.85,51.85
201901160904,51.85,51.85,51.84,51.85
201901160905,51.85,51.85,51.81,51.81
201901160906,51.81,51.81,51.78,51.8
201901160907,51.8,51.8,51.77,51.79
201901160908,51.79,51.8,51.78,51.79
201901160909,51.79,51.82,51.78,51.82
201901160910,51.82,51.83,51.82,51.82
201901160911,51.82,51.82,51.77,51.77
201901160912,51.78,51.78,51.76,51.77
201901160913,51.77,51.8,51.76,51.79
201901160914,51.79,51.79,51.79,51.79
201901160915,51.79,51.79,51.78,51.78
201901160916,51.78,51.78,51.76,51.76
201901160917,51.76,51.78,51.75,51.78
201901160918,51.78,51.78,51.77,51.77
201901160919,51.77,51.77,51.76,51.76
201901160920,51.76,51.76,51.74,51.76
201901160921,51.76,51.78,51.75,51.78
201901160922,51.78,51.79,51.78,51.78
201901160923,51.78,51.8,51.78,51.8
201901160924,51.8,51.82,51.8,51.82
201901160925,51.82,51.83,51.81,51.81
201901160926,51.81,51.83,51.8,51.82
201901160927,51.82,51.82,51.8,51.81
201901160928,51.81,51.81,51.81,51.81
201901160929,51.81,51.83,51.81,51.82
201901160930,51.82,51.83,51.81,51.82
201901160931,51.82,51.82,51.82,51.82
201901160932,51.82,51.88,51.82,51.87
201901160933,51.87,51.92,51.87,51.92
201901160934,51.92,52.01,51.92,52.01
201901160935,52.01,52.03,51.97,52.01
201901160936,52.01,52.02,51.98,51.98
201901160937,51.98,51.98,51.96,51.96
201901160938,51.96,51.96,51.94,51.94
201901160939,51.94,51.98,51.94,51.96
201901160940,51.96,51.96,51.95,51.95
201901160941,51.95,51.95,51.93,51.94
201901160942,51.94,51.95,51.92,51.94
201901160943,51.94,51.94,51.92,51.93
201901160944,51.93,51.95,51.92,51.95
201901160945,51.95,51.96,51.91,51.91
201901160946,51.91,51.92,51.9,51.91
201901160947,51.91,51.91,51.91,51.91
201901160948,51.91,51.91,51.91,51.91
201901160949,51.91,51.91,51.91,51.91
201901160950,51.91,51.91,51.86,51.86
201901160951,51.86,51.86,51.85,51.85
201901160952,51.85,51.86,51.84,51.86
201901160953,51.86,51.9,51.86,51.88
201901160954,51.88,51.89,51.88,51.89
201901160955,51.89,51.89,51.89,51.89
201901160956,51.89,51.9,51.88,51.88
201901160957,51.88,51.88,51.86,51.87
201901160958,51.87,51.88,51.86,51.86
201901160959,51.86,51.86,51.86,51.86
201901161000,51.86,51.88,51.74,51.75
201901161001,51.75,51.79,51.75,51.77
201901161002,51.77,51.77,51.73,51.75
201901161003,51.75,51.79,51.75,51.78
201901161004,51.78,51.8,51.75,51.77
201901161005,51.77,51.79,51.75,51.79
201901161006,51.79,51.79,51.75,51.76
201901161007,51.76,51.78,51.76,51.78
201901161008,51.78,51.8,51.77,51.78
201901161009,51.78,51.81,51.78,51.8
201901161010,51.8,51.8,51.79,51.8
201901161011,51.8,51.84,51.8,51.84
201901161012,51.84,51.85,51.8,51.8
201901161013,51.8,51.82,51.79,51.79
201901161014,51.79,51.84,51.76,51.77
201901161015,51.77,51.77,51.74,51.76
201901161016,51.76,51.77,51.75,51.76
201901161017,51.76,51.79,51.76,51.78
201901161018,51.78,51.79,51.77,51.78
201901161019,51.78,51.78,51.75,51.76
201901161020,51.76,51.77,51.74,51.77
201901161021,51.77,51.78,51.74,51.78
201901161022,51.78,51.78,51.77,51.78
201901161023,51.78,51.8,51.78,51.8
201901161024,51.8,51.81,51.79,51.8
201901161025,51.8,51.82,51.8,51.81
201901161026,51.81,51.81,51.78,51.78
201901161027,51.78,51.79,51.77,51.77
201901161028,51.77,51.78,51.76,51.78
201901161029,51.78,51.79,51.78,51.78
201901161030,51.78,51.78,51.75,51.75
201901161031,51.75,51.77,51.74,51.75
201901161032,51.75,51.76,51.74,51.76
201901161033,51.76,51.77,51.74,51.74
201901161034,51.74,51.84,51.7,51.79
201901161035,51.79,51.83,51.78,51.82
201901161036,51.82,51.82,51.79,51.81
201901161037,51.81,51.81,51.79,51.79
201901161038,51.79,51.81,51.79,51.81
201901161039,51.81,51.82,51.81,51.82
201901161040,51.82,51.83,51.82,51.82
201901161041,51.82,51.82,51.8,51.8
201901161042,51.8,51.82,51.8,51.82
201901161043,51.82,51.82,51.81,51.81
201901161044,51.81,51.82,51.81,51.82
201901161045,51.82,51.85,51.81,51.85
201901161046,51.85,51.87,51.85,51.87
201901161047,51.87,51.88,51.85,51.85
201901161048,51.85,51.88,51.85,51.87
201901161049,51.87,51.89,51.87,51.88
201901161050,51.88,51.92,51.88,51.89
201901161051,51.89,51.91,51.88,51.89
201901161052,51.89,51.91,51.89,51.9
201901161053,51.9,51.9,51.88,51.89
201901161054,51.89,51.91,51.89,51.91
201901161055,51.91,51.95,51.91,51.91
201901161056,51.91,51.93,51.91,51.91
201901161057,51.91,51.92,51.9,51.91
201901161058,51.91,51.94,51.9,51.93
201901161059,51.93,51.96,51.93,51.94
201901161100,51.94,52.02,51.94,52.01
201901161101,52.01,52.02,51.96,51.97
201901161102,51.97,52.01,51.97,51.97
201901161103,51.97,51.98,51.96,51.96
201901161104,51.96,51.97,51.93,51.95
201901161105,51.95,51.95,51.91,51.94
201901161106,51.94,51.96,51.94,51.96
201901161107,51.96,51.96,51.96,51.96
201901161108,51.96,51.98,51.96,51.97
201901161109,51.97,51.97,51.96,51.97
201901161110,51.97,51.97,51.94,51.96
201901161111,51.96,51.96,51.95,51.95
201901161112,51.95,51.98,51.94,51.97
201901161113,51.97,51.97,51.94,51.95
201901161114,51.95,51.95,51.93,51.93
201901161115,51.93,51.94,51.93,51.93
201901161116,51.93,51.98,51.93,51.96
201901161117,51.96,51.96,51.95,51.95
201901161118,51.95,51.96,51.95,51.95
201901161119,51.95,51.95,51.93,51.94
201901161120,51.94,51.94,51.93,51.94
201901161121,51.94,51.95,51.94,51.95
201901161122,51.95,51.97,51.95,51.97
201901161123,51.97,51.99,51.97,51.98
201901161124,51.98,51.98,51.98,51.98
201901161125,51.98,52,51.97,51.99
201901161126,51.99,52.01,51.98,52.01
201901161127,52.01,52.01,51.99,51.99
201901161128,51.99,52,51.97,51.99
201901161129,51.99,51.99,51.98,51.99
201901161130,51.99,52.01,51.99,52
201901161131,52,52.01,52,52
201901161132,52,52.01,52,52
201901161133,52,52.02,52,52.01
201901161134,52.01,52.02,52,52.01
201901161135,52.01,52.09,52.01,52.03
201901161136,52.03,52.06,52.03,52.06
201901161137,52.06,52.06,52.01,52.02
201901161138,52.02,52.04,52,52
201901161139,52,52.01,51.99,52
201901161140,52,52,51.98,51.99
201901161141,51.99,51.99,51.99,51.99
201901161142,51.99,51.99,51.99,51.99
201901161143,51.99,51.99,51.99,51.99
201901161144,51.99,52.01,51.99,52.01
201901161145,52.01,52.01,51.98,51.99
201901161146,51.99,51.99,51.99,51.99
201901161147,51.99,51.99,51.98,51.98
201901161148,51.98,51.98,51.97,51.97
201901161149,51.97,51.98,51.96,51.98
201901161150,51.98,51.99,51.97,51.97
201901161151,51.97,51.97,51.97,51.97
201901161152,51.97,51.97,51.96,51.97
201901161153,51.97,51.97,51.95,51.96
201901161154,51.96,51.96,51.95,51.96
201901161155,51.96,51.96,51.95,51.95
201901161156,51.95,51.98,51.94,51.97
201901161157,51.97,51.99,51.97,51.98
201901161158,51.98,51.99,51.98,51.98
201901161159,51.98,51.98,51.98,51.98
201901161200,51.98,51.98,51.97,51.97
201901161201,51.97,51.97,51.96,51.97
201901161202,51.97,51.99,51.97,51.98
201901161203,51.98,51.98,51.98,51.98
201901161204,51.98,51.98,51.98,51.98
201901161205,51.98,51.98,51.97,51.97
201901161206,51.97,51.97,51.97,51.97
201901161207,51.97,51.97,51.95,51.96
201901161208,51.96,51.96,51.95,51.95
201901161209,51.95,51.96,51.94,51.96
201901161210,51.96,51.97,51.95,51.96
201901161211,51.96,51.96,51.95,51.96
201901161212,51.96,51.97,51.96,51.97
201901161213,51.97,51.98,51.97,51.98
201901161214,51.98,51.98,51.98,51.98
201901161215,51.98,51.98,51.96,51.96
201901161216,51.96,51.98,51.96,51.98
201901161217,51.98,52.01,51.98,51.99
201901161218,51.99,52,51.99,51.99
201901161219,51.99,51.99,51.99,51.99
201901161220,51.99,51.99,51.97,51.97
201901161221,51.97,51.97,51.95,51.95
201901161222,51.95,51.95,51.94,51.95
201901161223,51.95,51.97,51.94,51.95
201901161224,51.95,51.96,51.94,51.95
201901161225,51.95,51.95,51.94,51.95
201901161226,51.95,51.97,51.94,51.96
201901161227,51.96,51.97,51.96,51.96
201901161228,51.96,51.96,51.94,51.94
201901161229,51.94,51.95,51.93,51.95
201901161230,51.95,51.95,51.93,51.94
201901161231,51.94,51.95,51.94,51.94
201901161232,51.94,51.95,51.94,51.94
201901161233,51.94,51.94,51.93,51.93
201901161234,51.93,51.93,51.92,51.93
201901161235,51.93,51.94,51.92,51.94
201901161236,51.94,51.94,51.92,51.93
201901161237,51.93,51.94,51.93,51.93
201901161238,51.93,51.93,51.92,51.93
201901161239,51.93,51.93,51.92,51.92
201901161240,51.92,51.92,51.89,51.89
201901161241,51.89,51.91,51.89,51.9
201901161242,51.9,51.9,51.89,51.9
201901161243,51.9,51.9,51.89,51.9
201901161244,51.9,51.92,51.89,51.9
201901161245,51.9,51.92,51.9,51.91
201901161246,51.91,51.93,51.91,51.92
201901161247,51.92,51.92,51.92,51.92
201901161248,51.92,51.93,51.92,51.92
201901161249,51.92,51.95,51.92,51.94
201901161250,51.94,51.97,51.94,51.97
201901161251,51.97,51.97,51.95,51.95
201901161252,51.95,51.95,51.94,51.95
201901161253,51.95,51.96,51.95,51.95
201901161254,51.95,51.95,51.94,51.94
201901161255,51.94,51.94,51.94,51.94
201901161256,51.94,51.95,51.94,51.95
201901161257,51.95,51.95,51.94,51.94
201901161258,51.94,51.94,51.94,51.94
201901161259,51.94,51.95,51.94,51.95
201901161300,51.95,51.98,51.95,51.98
201901161301,51.98,51.99,51.98,51.99
201901161302,51.99,52.01,51.99,52
201901161303,52,52,51.99,51.99
201901161304,51.99,52,51.99,51.99
201901161305,51.99,51.99,51.97,51.97
201901161306,51.97,51.98,51.96,51.97
201901161307,51.97,51.99,51.97,51.99
201901161308,51.99,51.99,51.98,51.98
201901161309,51.98,51.98,51.98,51.98
201901161310,51.98,51.99,51.98,51.99
201901161311,51.99,51.99,51.98,51.98
201901161312,51.98,51.99,51.97,51.99
201901161313,51.99,51.99,51.98,51.99
201901161314,51.99,51.99,51.98,51.99
201901161315,51.99,52,51.98,51.98
201901161316,51.98,51.98,51.97,51.98
201901161317,51.98,51.99,51.97,51.98
201901161318,51.98,51.98,51.98,51.98
201901161319,51.98,52,51.98,52
201901161320,52,52.03,52,52.02
201901161321,52.02,52.04,52.01,52.03
201901161322,52.03,52.06,52.03,52.03
201901161323,52.03,52.04,52.01,52.02
201901161324,52.02,52.04,52.01,52.02
201901161325,52.02,52.02,52.01,52.02
201901161326,52.02,52.03,52.01,52.02
201901161327,52.02,52.04,52.01,52.03
201901161328,52.03,52.05,52.03,52.05
201901161329,52.05,52.06,52.05,52.06
201901161330,52.06,52.06,52.05,52.05
201901161331,52.05,52.14,52.05,52.11
201901161332,52.11,52.11,52.1,52.1
201901161333,52.1,52.13,52.1,52.11
201901161334,52.11,52.13,52.1,52.13
201901161335,52.13,52.14,52.12,52.13
201901161336,52.13,52.14,52.12,52.13
201901161337,52.13,52.14,52.12,52.13
201901161338,52.13,52.13,52.11,52.11
201901161339,52.11,52.12,52.11,52.11
201901161340,52.11,52.11,52.1,52.1
201901161341,52.1,52.1,52.08,52.1
201901161342,52.1,52.11,52.09,52.1
201901161343,52.1,52.12,52.09,52.11
201901161344,52.11,52.11,52.09,52.11
201901161345,52.1,52.11,52.09,52.1
201901161346,52.1,52.1,52.09,52.09
201901161347,52.09,52.1,52.09,52.1
201901161348,52.1,52.1,52.08,52.08
201901161349,52.08,52.08,52.07,52.08
201901161350,52.08,52.09,52.08,52.09
201901161351,52.09,52.09,52.08,52.08
201901161352,52.08,52.08,52.08,52.08
201901161353,52.08,52.1,52.07,52.1
201901161354,52.1,52.11,52.1,52.11
201901161355,52.11,52.11,52.1,52.1
201901161356,52.1,52.11,52.1,52.11
201901161357,52.11,52.11,52.1,52.11
201901161358,52.11,52.11,52.09,52.09
201901161359,52.09,52.09,52.08,52.08
201901161400,52.08,52.08,52.07,52.07
201901161401,52.07,52.07,52.06,52.06
201901161402,52.06,52.07,52.06,52.07
201901161403,52.07,52.08,52.07,52.07
201901161404,52.07,52.08,52.07,52.08
201901161405,52.08,52.1,52.06,52.09
201901161406,52.09,52.1,52.09,52.09
201901161407,52.09,52.12,52.09,52.12
201901161408,52.12,52.13,52.11,52.13
201901161409,52.13,52.16,52.11,52.16
201901161410,52.16,52.17,52.13,52.14
201901161411,52.14,52.15,52.13,52.14
201901161412,52.14,52.14,52.12,52.12
201901161413,52.12,52.12,52.11,52.12
201901161414,52.12,52.13,52.11,52.12
201901161415,52.12,52.12,52.12,52.12
201901161416,52.12,52.12,52.1,52.1
201901161417,52.1,52.13,52.1,52.12
201901161418,52.12,52.13,52.12,52.13
201901161419,52.13,52.15,52.12,52.14
201901161420,52.14,52.15,52.13,52.15
201901161421,52.15,52.15,52.14,52.14
201901161422,52.14,52.14,52.13,52.13
201901161423,52.13,52.14,52.13,52.14
201901161424,52.14,52.15,52.13,52.13
201901161425,52.13,52.13,52.11,52.11
201901161426,52.11,52.13,52.11,52.13
201901161427,52.13,52.13,52.12,52.12
201901161428,52.12,52.14,52.12,52.13
201901161429,52.13,52.13,52.12,52.12
201901161430,52.12,52.14,52.11,52.13
201901161431,52.13,52.13,52.09,52.1
201901161432,52.1,52.1,52.08,52.09
201901161433,52.09,52.1,52.09,52.09
201901161434,52.09,52.09,52.09,52.09
201901161435,52.09,52.09,52.07,52.07
201901161436,52.07,52.09,52.07,52.09
201901161437,52.09,52.09,52.08,52.09
201901161438,52.09,52.1,52.08,52.1
201901161439,52.1,52.11,52.09,52.09
201901161440,52.09,52.1,52.09,52.09
201901161441,52.09,52.1,52.06,52.09
201901161442,52.09,52.1,52.09,52.09
201901161443,52.09,52.1,52.09,52.1
201901161444,52.1,52.12,52.1,52.11
201901161445,52.11,52.12,52.11,52.12
201901161446,52.12,52.14,52.12,52.13
201901161447,52.13,52.14,52.12,52.13
201901161448,52.13,52.14,52.12,52.13
201901161449,52.13,52.13,52.12,52.13
201901161450,52.13,52.13,52.09,52.1
201901161451,52.1,52.13,52.1,52.13
201901161452,52.13,52.14,52.13,52.14
201901161453,52.14,52.16,52.14,52.14
201901161454,52.14,52.18,52.14,52.16
201901161455,52.16,52.18,52.16,52.17
201901161456,52.17,52.18,52.16,52.17
201901161457,52.17,52.17,52.14,52.16
201901161458,52.16,52.17,52.14,52.14
201901161459,52.14,52.15,52.14,52.15
201901161500,52.15,52.15,52.14,52.15
201901161501,52.15,52.15,52.14,52.14
201901161502,52.14,52.15,52.13,52.13
201901161503,52.13,52.14,52.13,52.13
201901161504,52.13,52.14,52.12,52.12
201901161505,52.12,52.14,52.12,52.14
201901161506,52.14,52.15,52.14,52.14
201901161507,52.14,52.17,52.14,52.16
201901161508,52.16,52.17,52.16,52.17
201901161509,52.17,52.19,52.17,52.19
201901161510,52.19,52.2,52.18,52.18
201901161511,52.18,52.19,52.17,52.17
201901161512,52.17,52.19,52.17,52.18
201901161513,52.18,52.18,52.16,52.17
201901161514,52.17,52.17,52.14,52.16
201901161515,52.16,52.2,52.16,52.2
201901161516,52.2,52.2,52.16,52.17
201901161517,52.17,52.18,52.16,52.17
201901161518,52.17,52.17,52.16,52.16
201901161519,52.16,52.18,52.16,52.18
201901161520,52.18,52.2,52.18,52.19
201901161521,52.19,52.34,52.19,52.21
201901161522,52.21,52.24,52.18,52.2
201901161523,52.2,52.22,52.2,52.22
201901161524,52.22,52.22,52.17,52.17
201901161525,52.17,52.2,52.17,52.19
201901161526,52.19,52.19,52.18,52.18
201901161527,52.18,52.19,52.17,52.18
201901161528,52.18,52.2,52.17,52.19
201901161529,52.19,52.19,52.17,52.17
201901161530,52.17,52.18,52.17,52.18
201901161531,52.18,52.18,52.09,52.12
201901161532,52.12,52.15,52.12,52.14
201901161533,52.14,52.14,52.08,52.1
201901161534,52.1,52.11,52.1,52.1
201901161535,52.1,52.1,52.07,52.08
201901161536,52.08,52.1,52.08,52.09
201901161537,52.09,52.11,52.09,52.1
201901161538,52.1,52.12,52.1,52.12
201901161539,52.12,52.12,52.1,52.1
201901161540,52.1,52.11,52.1,52.11
201901161541,52.11,52.13,52.11,52.11
201901161542,52.11,52.11,52.1,52.1
201901161543,52.1,52.1,52.09,52.09
201901161544,52.09,52.1,52.09,52.09
201901161545,52.09,52.09,52.08,52.08
201901161546,52.08,52.08,52.05,52.07
201901161547,52.07,52.08,52.07,52.08
201901161548,52.08,52.11,52.08,52.1
201901161549,52.1,52.15,52.1,52.13
201901161550,52.13,52.16,52.13,52.15
201901161551,52.15,52.15,52.12,52.13
201901161552,52.13,52.13,52.13,52.13
201901161553,52.13,52.13,52.11,52.11
201901161554,52.11,52.11,52.1,52.1
201901161555,52.11,52.14,52.11,52.12
201901161556,52.12,52.12,52.12,52.12
201901161557,52.12,52.12,52.11,52.12
201901161558,52.12,52.13,52.12,52.12
201901161559,52.12,52.12,52.09,52.1
201901161600,52.1,52.11,52.09,52.11
201901161601,52.11,52.11,52.09,52.09
201901161602,52.09,52.1,52.08,52.09
201901161603,52.09,52.13,52.08,52.12
201901161604,52.12,52.12,52.1,52.12
201901161605,52.12,52.14,52.12,52.14
201901161606,52.14,52.18,52.13,52.17
201901161607,52.17,52.18,52.16,52.16
201901161608,52.16,52.18,52.15,52.16
201901161609,52.16,52.16,52.14,52.16
201901161610,52.16,52.17,52.16,52.16
201901161611,52.16,52.19,52.16,52.19
201901161612,52.19,52.22,52.18,52.2
201901161613,52.2,52.21,52.16,52.17
201901161614,52.17,52.17,52.13,52.17
201901161615,52.17,52.17,52.15,52.17
201901161616,52.16,52.19,52.16,52.18
201901161617,52.18,52.21,52.18,52.19
201901161618,52.19,52.2,52.18,52.19
201901161619,52.19,52.2,52.19,52.19
201901161620,52.19,52.19,52.18,52.19
201901161621,52.19,52.2,52.18,52.19
201901161622,52.19,52.19,52.18,52.18
201901161623,52.18,52.21,52.18,52.21
201901161624,52.21,52.25,52.2,52.2
201901161625,52.2,52.22,52.19,52.19
201901161626,52.19,52.2,52.18,52.19
201901161627,52.19,52.2,52.18,52.19
201901161628,52.19,52.2,52.17,52.19
201901161629,52.19,52.2,52.19,52.2
201901161630,52.2,52.21,52.19,52.2
201901161631,52.2,52.25,52.2,52.2
201901161632,52.2,52.22,52.2,52.22
201901161633,52.22,52.23,52.2,52.21
201901161634,52.21,52.21,52.19,52.19
201901161635,52.19,52.19,52.16,52.17
201901161636,52.17,52.18,52.14,52.15
201901161637,52.15,52.17,52.14,52.17
201901161638,52.17,52.19,52.17,52.18
201901161639,52.18,52.19,52.17,52.19
201901161640,52.19,52.2,52.19,52.2
201901161641,52.2,52.2,52.17,52.17
201901161642,52.17,52.18,52.16,52.17
201901161643,52.17,52.19,52.16,52.19
201901161644,52.19,52.2,52.17,52.17
201901161645,52.17,52.18,52.16,52.18
201901161646,52.18,52.21,52.18,52.21
201901161647,52.21,52.22,52.2,52.2
201901161648,52.2,52.21,52.19,52.19
201901161649,52.19,52.21,52.19,52.2
201901161650,52.2,52.21,52.2,52.2
201901161651,52.2,52.2,52.18,52.19
201901161652,52.19,52.2,52.18,52.19
201901161653,52.19,52.2,52.17,52.19
201901161654,52.19,52.19,52.17,52.18
201901161655,52.18,52.19,52.15,52.16
201901161656,52.16,52.17,52.14,52.15
201901161657,52.15,52.15,52.13,52.15
201901161658,52.15,52.15,52.13,52.14
201901161659,52.14,52.15,52.12,52.15
201901161700,52.15,52.17,52.14,52.16
201901161701,52.16,52.23,52.16,52.23
201901161702,52.23,52.25,52.2,52.21
201901161703,52.21,52.21,52.15,52.16
201901161704,52.16,52.16,52.08,52.08
201901161705,52.08,52.09,52.06,52.09
201901161706,52.09,52.1,52.05,52.07
201901161707,52.07,52.09,52.06,52.07
201901161708,52.07,52.09,52.07,52.08
201901161709,52.08,52.09,52.08,52.08
201901161710,52.08,52.09,52.07,52.07
201901161711,52.07,52.09,52.07,52.09
201901161712,52.09,52.14,52.09,52.12
201901161713,52.12,52.13,52.1,52.1
201901161714,52.1,52.14,52.1,52.14
201901161715,52.14,52.16,52.12,52.12
201901161716,52.12,52.16,52.12,52.15
201901161717,52.15,52.17,52.11,52.11
201901161718,52.11,52.14,52.1,52.11
201901161719,52.11,52.15,52.1,52.14
201901161720,52.14,52.17,52.14,52.17
201901161721,52.17,52.17,52.15,52.17
201901161722,52.17,52.18,52.16,52.18
201901161723,52.18,52.18,52.15,52.17
201901161724,52.17,52.19,52.08,52.09
201901161725,52.09,52.15,52.09,52.15
201901161726,52.15,52.18,52.13,52.17
201901161727,52.17,52.22,52.16,52.21
201901161728,52.21,52.24,52.2,52.23
201901161729,52.23,52.23,52.16,52.16
201901161730,52.16,52.24,52.16,52.23
201901161731,52.23,52.28,52.22,52.27
201901161732,52.27,52.3,52.27,52.28
201901161733,52.28,52.31,52.26,52.28
201901161734,52.28,52.33,52.27,52.28
201901161735,52.28,52.3,52.26,52.27
201901161736,52.27,52.28,52.26,52.27
201901161737,52.27,52.29,52.26,52.26
201901161738,52.26,52.29,52.25,52.28
201901161739,52.28,52.29,52.27,52.28
201901161740,52.28,52.3,52.27,52.27
201901161741,52.27,52.29,52.26,52.26
201901161742,52.26,52.28,52.22,52.28
201901161743,52.28,52.29,52.27,52.28
201901161744,52.28,52.28,52.27,52.28
201901161745,52.28,52.39,52.28,52.34
201901161746,52.34,52.37,52.33,52.36
201901161747,52.36,52.41,52.34,52.39
201901161748,52.38,52.4,52.36,52.39
201901161749,52.39,52.42,52.36,52.42
201901161750,52.42,52.47,52.41,52.44
201901161751,52.44,52.46,52.43,52.46
201901161752,52.46,52.5,52.45,52.45
201901161753,52.45,52.47,52.44,52.46
201901161754,52.46,52.46,52.42,52.43
201901161755,52.43,52.44,52.39,52.4
201901161756,52.4,52.44,52.39,52.44
201901161757,52.44,52.44,52.41,52.43
201901161758,52.43,52.45,52.42,52.44
201901161759,52.44,52.44,52.39,52.4
201901161800,52.4,52.4,52.36,52.37
201901161801,52.37,52.41,52.36,52.38
201901161802,52.38,52.4,52.37,52.4
201901161803,52.4,52.43,52.39,52.4
201901161804,52.4,52.45,52.39,52.44
201901161805,52.44,52.44,52.39,52.4
201901161806,52.4,52.4,52.34,52.35
201901161807,52.35,52.37,52.32,52.32
201901161808,52.32,52.34,52.32,52.34
201901161809,52.34,52.34,52.31,52.31
201901161810,52.31,52.33,52.31,52.32
201901161811,52.32,52.35,52.32,52.32
201901161812,52.32,52.32,52.31,52.31
201901161813,52.31,52.31,52.28,52.28
201901161814,52.28,52.29,52.26,52.29
201901161815,52.29,52.31,52.27,52.3
201901161816,52.3,52.32,52.28,52.31
201901161817,52.31,52.32,52.27,52.29
201901161818,52.29,52.29,52.26,52.26
201901161819,52.26,52.3,52.26,52.29
201901161820,52.29,52.31,52.29,52.3
201901161821,52.3,52.31,52.28,52.28
201901161822,52.28,52.28,52.18,52.21
201901161823,52.21,52.21,52.19,52.2
201901161824,52.2,52.21,52.19,52.2
201901161825,52.2,52.23,52.2,52.2
201901161826,52.2,52.2,52.18,52.18
201901161827,52.18,52.18,52.15,52.15
201901161828,52.15,52.19,52.15,52.18
201901161829,52.18,52.18,52.15,52.16
201901161830,52.16,52.16,52.1,52.11
201901161831,52.11,52.14,52.09,52.13
201901161832,52.13,52.14,52.11,52.12
201901161833,52.12,52.13,52.06,52.07
201901161834,52.07,52.12,52.05,52.09
201901161835,52.09,52.1,52.03,52.09
201901161836,52.09,52.11,52.08,52.1
201901161837,52.1,52.11,52.07,52.09
201901161838,52.09,52.09,52.06,52.07
201901161839,52.07,52.09,52.04,52.05
201901161840,52.05,52.06,51.98,52.02
201901161841,52.02,52.06,52.01,52.04
201901161842,52.04,52.05,52.03,52.04
201901161843,52.04,52.04,52,52.01
201901161844,52.01,52.03,52,52.01
201901161845,52.01,52.01,51.98,52
201901161846,52,52.01,51.98,52
201901161847,52,52.01,51.98,51.99
201901161848,51.99,52.03,51.99,52
201901161849,52,52.06,51.99,52.03
201901161850,52.03,52.07,52.03,52.07
201901161851,52.07,52.08,51.97,51.99
201901161852,51.99,51.99,51.93,51.94
201901161853,51.94,51.96,51.92,51.94
201901161854,51.94,51.94,51.89,51.91
201901161855,51.91,51.91,51.81,51.84
201901161856,51.84,51.86,51.8,51.81
201901161857,51.81,51.87,51.81,51.86
201901161858,51.86,51.9,51.86,51.89
201901161859,51.89,51.91,51.85,51.9
201901161900,51.9,51.91,51.84,51.87
201901161901,51.87,51.89,51.85,51.89
201901161902,51.89,51.89,51.81,51.81
201901161903,51.81,51.81,51.77,51.8
201901161904,51.8,51.83,51.79,51.83
201901161905,51.83,51.84,51.77,51.77
201901161906,51.77,51.78,51.74,51.77
201901161907,51.77,51.84,51.75,51.82
201901161908,51.82,51.84,51.8,51.81
201901161909,51.81,51.82,51.79,51.8
201901161910,51.8,51.81,51.79,51.81
201901161911,51.81,51.87,51.81,51.87
201901161912,51.87,51.87,51.83,51.84
201901161913,51.84,51.85,51.82,51.83
201901161914,51.83,51.87,51.83,51.83
201901161915,51.83,51.86,51.82,51.86
201901161916,51.86,51.86,51.82,51.82
201901161917,51.82,51.82,51.8,51.81
201901161918,51.81,51.84,51.8,51.83
201901161919,51.83,51.87,51.83,51.85
201901161920,51.85,51.89,51.85,51.89
201901161921,51.89,51.92,51.89,51.89
201901161922,51.89,51.92,51.89,51.92
201901161923,51.92,51.93,51.9,51.92
201901161924,51.92,51.92,51.87,51.89
201901161925,51.89,51.94,51.88,51.94
201901161926,51.94,51.94,51.92,51.93
201901161927,51.93,51.94,51.93,51.93
201901161928,51.93,51.93,51.91,51.91
201901161929,51.92,51.92,51.9,51.9
201901161930,51.9,51.9,51.87,51.89
201901161931,51.89,51.93,51.88,51.92
201901161932,51.92,51.95,51.91,51.93
201901161933,51.93,51.93,51.91,51.91
201901161934,51.91,51.92,51.9,51.91
201901161935,51.91,51.91,51.87,51.88
201901161936,51.88,51.88,51.82,51.84
201901161937,51.84,51.87,51.84,51.85
201901161938,51.85,51.87,51.84,51.86
201901161939,51.86,51.88,51.84,51.85
201901161940,51.85,51.88,51.83,51.86
201901161941,51.86,51.87,51.84,51.84
201901161942,51.84,51.85,51.83,51.84
201901161943,51.84,51.91,51.83,51.91
201901161944,51.91,51.93,51.9,51.93
201901161945,51.93,51.94,51.88,51.91
201901161946,51.91,51.96,51.9,51.91
201901161947,51.91,51.97,51.91,51.95
201901161948,51.95,51.99,51.95,51.97
201901161949,51.97,51.97,51.95,51.96
201901161950,51.96,51.96,51.93,51.94
201901161951,51.94,51.95,51.93,51.95
201901161952,51.95,51.95,51.89,51.9
201901161953,51.9,51.92,51.89,51.92
201901161954,51.92,51.93,51.9,51.91
201901161955,51.91,51.93,51.91,51.92
201901161956,51.92,51.92,51.9,51.91
201901161957,51.91,51.92,51.9,51.92
201901161958,51.92,51.95,51.91,51.91
201901161959,51.91,51.91,51.87,51.89
201901162000,51.89,51.9,51.88,51.89
201901162001,51.89,51.89,51.87,51.87
201901162002,51.87,51.87,51.83,51.85
201901162003,51.85,51.89,51.85,51.89
201901162004,51.89,51.93,51.88,51.91
201901162005,51.91,51.94,51.91,51.94
201901162006,51.95,51.95,51.93,51.94
201901162007,51.94,51.94,51.91,51.92
201901162008,51.92,51.92,51.9,51.91
201901162009,51.91,51.91,51.87,51.88
201901162010,51.88,51.88,51.84,51.84
201901162011,51.84,51.87,51.84,51.87
201901162012,51.87,51.87,51.85,51.87
201901162013,51.87,51.89,51.87,51.89
201901162014,51.89,51.91,51.88,51.89
201901162015,51.89,51.91,51.89,51.9
201901162016,51.9,51.9,51.86,51.87
201901162017,51.87,51.88,51.85,51.87
201901162018,51.87,51.88,51.84,51.85
201901162019,51.85,51.85,51.83,51.83
201901162020,51.83,51.83,51.79,51.81
201901162021,51.81,51.83,51.79,51.8
201901162022,51.8,51.83,51.8,51.83
201901162023,51.83,51.85,51.82,51.83
201901162024,51.83,51.86,51.83,51.84
201901162025,51.84,51.87,51.84,51.85
201901162026,51.85,51.85,51.81,51.82
201901162027,51.82,51.82,51.79,51.82
201901162028,51.82,51.84,51.81,51.84
201901162029,51.84,51.84,51.8,51.81
201901162030,51.81,51.82,51.79,51.79
201901162031,51.79,51.8,51.78,51.79
201901162032,51.79,51.79,51.72,51.78
201901162033,51.78,51.83,51.77,51.82
201901162034,51.82,51.82,51.72,51.72
201901162035,51.72,51.74,51.64,51.71
201901162036,51.71,51.74,51.62,51.62
201901162037,51.62,51.64,51.59,51.6
201901162038,51.6,51.65,51.6,51.63
201901162039,51.63,51.65,51.62,51.65
201901162040,51.64,51.64,51.62,51.62
201901162041,51.62,51.65,51.62,51.64
201901162042,51.64,51.67,51.64,51.66
201901162043,51.66,51.67,51.65,51.66
201901162044,51.66,51.66,51.64,51.65
201901162045,51.65,51.66,51.61,51.66
201901162046,51.66,51.69,51.66,51.68
201901162047,51.68,51.7,51.64,51.66
201901162048,51.66,51.68,51.66,51.67
201901162049,51.67,51.68,51.66,51.67
201901162050,51.67,51.68,51.66,51.68
201901162051,51.68,51.71,51.67,51.7
201901162052,51.7,51.72,51.69,51.7
201901162053,51.7,51.7,51.69,51.69
201901162054,51.69,51.73,51.68,51.72
201901162055,51.72,51.73,51.69,51.71
201901162056,51.71,51.72,51.71,51.71
201901162057,51.71,51.72,51.7,51.72
201901162058,51.72,51.73,51.71,51.71
201901162059,51.71,51.72,51.71,51.71
201901162100,51.71,51.72,51.7,51.71
201901162101,51.71,51.75,51.71,51.73
201901162102,51.73,51.74,51.72,51.72
201901162103,51.72,51.73,51.69,51.73
201901162104,51.71,51.75,51.71,51.75
201901162105,51.75,51.75,51.7,51.71
201901162106,51.71,51.74,51.7,51.71
201901162107,51.71,51.71,51.7,51.7
201901162108,51.7,51.71,51.66,51.68
201901162109,51.68,51.69,51.67,51.68
201901162110,51.68,51.71,51.68,51.69
201901162111,51.7,51.7,51.69,51.69
201901162112,51.69,51.7,51.69,51.7
201901162113,51.7,51.72,51.69,51.69
201901162114,51.69,51.71,51.69,51.71
201901162115,51.71,51.71,51.66,51.67
201901162116,51.67,51.68,51.66,51.68
201901162117,51.68,51.68,51.66,51.66
201901162118,51.66,51.68,51.65,51.68
201901162119,51.68,51.68,51.66,51.66
201901162120,51.65,51.65,51.62,51.62
201901162121,51.62,51.66,51.61,51.65
201901162122,51.65,51.66,51.63,51.63
201901162123,51.63,51.68,51.63,51.67
201901162124,51.67,51.7,51.67,51.7
201901162125,51.7,51.71,51.67,51.67
201901162126,51.67,51.67,51.66,51.67
201901162127,51.67,51.68,51.67,51.67
201901162128,51.67,51.67,51.66,51.66
201901162129,51.66,51.66,51.64,51.65
201901162130,51.65,51.66,51.62,51.65
201901162131,51.65,51.68,51.65,51.67
201901162132,51.67,51.67,51.63,51.64
201901162133,51.64,51.64,51.6,51.6
201901162134,51.6,51.6,51.57,51.59
201901162135,51.59,51.59,51.53,51.55
201901162136,51.55,51.58,51.53,51.53
201901162137,51.53,51.57,51.53,51.55
201901162138,51.55,51.6,51.55,51.59
201901162139,51.59,51.61,51.58,51.6
201901162140,51.6,51.62,51.59,51.61
201901162141,51.61,51.68,51.6,51.63
201901162142,51.63,51.64,51.62,51.63
201901162143,51.63,51.66,51.63,51.66
201901162144,51.66,51.7,51.65,51.69
201901162145,51.69,51.74,51.69,51.73
201901162146,51.73,51.73,51.71,51.73
201901162147,51.73,51.75,51.72,51.74
201901162148,51.74,51.75,51.72,51.72
201901162149,51.72,51.72,51.71,51.71
201901162150,51.71,51.71,51.69,51.71
201901162151,51.7,51.71,51.7,51.71
201901162152,51.71,51.71,51.69,51.7
201901162153,51.7,51.7,51.69,51.7
201901162154,51.7,51.7,51.66,51.67
201901162155,51.67,51.7,51.67,51.68
201901162156,51.68,51.69,51.67,51.68
201901162157,51.68,51.69,51.67,51.68
201901162158,51.68,51.69,51.66,51.67
201901162159,51.67,51.68,51.65,51.66
201901162200,51.66,51.67,51.62,51.67
201901162201,51.67,51.67,51.65,51.67
201901162202,51.67,51.67,51.62,51.63
201901162203,51.63,51.67,51.6,51.65
201901162204,51.65,51.72,51.65,51.71
201901162205,51.71,51.71,51.69,51.7
201901162206,51.7,51.7,51.62,51.64
201901162207,51.64,51.64,51.61,51.62
201901162208,51.62,51.63,51.61,51.62
201901162209,51.62,51.63,51.58,51.6
201901162210,51.6,51.63,51.6,51.62
201901162211,51.62,51.62,51.58,51.59
201901162212,51.59,51.59,51.55,51.57
201901162213,51.57,51.63,51.56,51.58
201901162214,51.58,51.58,51.52,51.56
201901162215,51.56,51.56,51.53,51.56
201901162216,51.56,51.56,51.47,51.49
201901162217,51.49,51.5,51.48,51.48
201901162218,51.48,51.5,51.46,51.49
201901162219,51.49,51.51,51.47,51.5
201901162220,51.5,51.54,51.5,51.53
201901162221,51.53,51.56,51.53,51.55
201901162222,51.55,51.57,51.54,51.56
201901162223,51.56,51.58,51.54,51.57
201901162224,51.57,51.61,51.57,51.6
201901162225,51.6,51.61,51.59,51.59
201901162226,51.59,51.59,51.57,51.57
201901162227,51.57,51.58,51.56,51.57
201901162228,51.57,51.59,51.55,51.55
201901162229,51.55,51.56,51.54,51.54
201901162230,51.54,51.59,51.53,51.57
201901162231,51.57,51.59,51.56,51.58
201901162232,51.58,51.58,51.53,51.56
201901162233,51.56,51.58,51.54,51.57
201901162234,51.57,51.59,51.56,51.59
201901162235,51.59,51.59,51.57,51.58
201901162236,51.58,51.61,51.57,51.6
201901162237,51.6,51.6,51.55,51.55
201901162238,51.55,51.58,51.53,51.55
201901162239,51.55,51.57,51.54,51.55
201901162240,51.55,51.6,51.54,51.59
201901162241,51.59,51.61,51.54,51.55
201901162242,51.55,51.6,51.54,51.57
201901162243,51.58,51.6,51.56,51.59
201901162244,51.59,51.59,51.57,51.58
201901162245,51.58,51.58,51.54,51.55
201901162246,51.55,51.56,51.54,51.55
201901162247,51.55,51.65,51.54,51.64
201901162248,51.64,51.67,51.64,51.66
201901162249,51.66,51.66,51.62,51.64
201901162250,51.64,51.65,51.61,51.63
201901162251,51.63,51.63,51.61,51.61
201901162252,51.61,51.61,51.58,51.6
201901162253,51.6,51.6,51.59,51.59
201901162254,51.59,51.59,51.54,51.56
201901162255,51.56,51.58,51.56,51.58
201901162256,51.58,51.6,51.57,51.6
201901162257,51.6,51.61,51.55,51.57
201901162258,51.57,51.6,51.57,51.58
201901162259,51.58,51.6,51.56,51.56
201901162300,51.56,51.58,51.45,51.55
201901162301,51.55,51.55,51.46,51.54
201901162302,51.54,51.54,51.49,51.54
201901162303,51.54,51.69,51.54,51.68
201901162304,51.68,51.68,51.6,51.61
201901162305,51.61,51.67,51.6,51.62
201901162306,51.62,51.65,51.59,51.63
201901162307,51.63,51.65,51.59,51.63
201901162308,51.63,51.76,51.63,51.73
201901162309,51.73,51.78,51.7,51.77
201901162310,51.77,51.88,51.77,51.87
201901162311,51.87,51.89,51.84,51.87
201901162312,51.87,51.93,51.87,51.91
201901162313,51.9,51.92,51.86,51.89
201901162314,51.89,51.91,51.86,51.86
201901162315,51.86,51.92,51.86,51.91
201901162316,51.91,51.95,51.91,51.92
201901162317,51.92,51.92,51.89,51.92
201901162318,51.92,51.96,51.92,51.95
201901162319,51.95,51.96,51.92,51.95
201901162320,51.95,51.99,51.95,51.98
201901162321,51.98,51.98,51.92,51.92
201901162322,51.92,51.93,51.86,51.88
201901162323,51.88,51.9,51.87,51.9
201901162324,51.9,51.9,51.86,51.88
201901162325,51.88,51.92,51.87,51.91
201901162326,51.91,51.93,51.9,51.91
201901162327,51.91,51.93,51.83,51.87
201901162328,51.87,51.88,51.85,51.86
201901162329,51.86,51.89,51.85,51.89
201901162330,51.89,51.95,51.87,51.94
201901162331,51.94,52.09,51.94,52.07
201901162332,52.07,52.07,52.01,52.03
201901162333,52.03,52.06,52.01,52.02
201901162334,52.02,52.06,52,52.04
201901162335,52.04,52.06,51.99,52
201901162336,52,52.03,51.96,51.98
201901162337,51.98,52.08,51.97,52.05
201901162338,52.05,52.05,51.99,52.01
201901162339,52.01,52.03,51.99,52.01
201901162340,52.01,52.01,51.89,51.93
201901162341,51.93,51.93,51.9,51.9
201901162342,51.9,51.9,51.86,51.89
201901162343,51.89,51.92,51.86,51.9
201901162344,51.9,51.93,51.89,51.93
201901162345,51.93,51.98,51.92,51.95
201901162346,51.95,52.01,51.95,51.98
201901162347,51.98,51.99,51.95,51.96
201901162348,51.96,51.99,51.95,51.98
201901162349,51.98,52.03,51.96,52.01
201901162350,52,52.03,52,52.01
201901162351,52.01,52.02,51.99,51.99
201901162352,51.99,52.04,51.97,52.03
201901162353,52.03,52.09,52.03,52.07
201901162354,52.07,52.09,52.05,52.09
201901162355,52.09,52.19,52.09,52.19
201901162356,52.19,52.2,52.16,52.18
201901162357,52.18,52.19,52.16,52.18
201901162358,52.18,52.19,52.17,52.17
201901162359,52.17,52.18,52.14,52.14
201901170000,52.14,52.27,52.14,52.25
201901170001,52.25,52.3,52.24,52.26
201901170002,52.26,52.29,52.21,52.21
201901170003,52.21,52.23,52.18,52.2
201901170004,52.2,52.21,52.18,52.18
201901170005,52.18,52.21,52.16,52.18
201901170006,52.18,52.22,52.17,52.21
201901170007,52.21,52.23,52.2,52.22
201901170008,52.22,52.24,52.19,52.2
201901170009,52.2,52.23,52.19,52.2
201901170010,52.2,52.24,52.19,52.21
201901170011,52.21,52.27,52.2,52.22
201901170012,52.22,52.23,52.15,52.16
201901170013,52.16,52.16,52.11,52.12
201901170014,52.12,52.15,52.11,52.14
201901170015,52.14,52.16,52.07,52.16
201901170016,52.16,52.2,52.15,52.2
201901170017,52.19,52.25,52.18,52.24
201901170018,52.24,52.25,52.16,52.17
201901170019,52.17,52.21,52.17,52.18
201901170020,52.19,52.21,52.15,52.15
201901170021,52.15,52.16,52.13,52.14
201901170022,52.14,52.17,52.12,52.14
201901170023,52.15,52.16,52.13,52.14
201901170024,52.14,52.19,52.14,52.19
201901170025,52.19,52.2,52.17,52.18
201901170026,52.18,52.2,52.11,52.12
201901170027,52.12,52.17,52.12,52.16
201901170028,52.16,52.25,52.16,52.2
201901170029,52.2,52.27,52.16,52.22
201901170030,52.22,52.37,52.02,52.18
201901170031,52.18,52.18,52.07,52.11
201901170032,52.12,52.22,52.09,52.09
201901170033,52.09,52.11,51.97,52
201901170034,52,52.08,52,52.02
201901170035,52.02,52.07,51.88,51.93
201901170036,51.93,51.94,51.84,51.85
201901170037,51.85,51.85,51.73,51.73
201901170038,51.73,51.93,51.72,51.79
201901170039,51.79,51.82,51.71,51.72
201901170040,51.72,51.72,51.57,51.58
201901170041,51.58,51.61,51.44,51.52
201901170042,51.52,51.69,51.47,51.65
201901170043,51.64,51.66,51.59,51.64
201901170044,51.65,51.65,51.55,51.59
201901170045,51.59,51.65,51.56,51.6
201901170046,51.6,51.73,51.6,51.73
201901170047,51.73,51.75,51.66,51.72
201901170048,51.72,51.81,51.72,51.78
201901170049,51.78,51.8,51.73,51.8
201901170050,51.8,51.85,51.78,51.78
201901170051,51.78,51.87,51.78,51.82
201901170052,51.82,51.83,51.72,51.74
201901170053,51.74,51.74,51.63,51.63
201901170054,51.63,51.73,51.63,51.71
201901170055,51.71,51.73,51.63,51.64
201901170056,51.64,51.7,51.6,51.7
201901170057,51.7,51.75,51.69,51.74
201901170058,51.74,51.75,51.72,51.75
201901170059,51.75,51.75,51.67,51.68
201901170100,51.68,51.7,51.51,51.55
201901170101,51.55,51.58,51.53,51.54
201901170102,51.54,51.54,51.48,51.51
201901170103,51.51,51.52,51.31,51.32
201901170104,51.32,51.38,51.25,51.29
201901170105,51.29,51.41,51.27,51.41
201901170106,51.41,51.45,51.31,51.31
201901170107,51.31,51.5,51.31,51.47
201901170108,51.47,51.62,51.47,51.62
201901170109,51.62,51.67,51.57,51.65
201901170110,51.65,51.69,51.64,51.66
201901170111,51.67,51.67,51.58,51.58
201901170112,51.58,51.61,51.48,51.58
201901170113,51.58,51.58,51.49,51.55
201901170114,51.57,51.67,51.56,51.65
201901170115,51.65,51.66,51.62,51.62
201901170116,51.62,51.65,51.61,51.63
201901170117,51.64,51.73,51.64,51.71
201901170118,51.71,51.78,51.69,51.77
201901170119,51.77,51.82,51.71,51.74
201901170120,51.74,51.83,51.74,51.77
201901170121,51.77,51.84,51.77,51.82
201901170122,51.82,51.82,51.73,51.74
201901170123,51.74,51.79,51.74,51.77
201901170124,51.77,51.81,51.68,51.7
201901170125,51.7,51.81,51.7,51.8
201901170126,51.8,51.81,51.75,51.79
201901170127,51.79,51.8,51.72,51.78
201901170128,51.78,52,51.78,51.99
201901170129,51.99,52.11,51.99,52.07
201901170130,52.07,52.08,51.87,52
201901170131,52,52.07,51.95,51.97
201901170132,51.97,52.01,51.95,51.99
201901170133,51.99,52.01,51.96,51.99
201901170134,51.99,52.04,51.99,52.04
201901170135,52.04,52.1,52.03,52.1
201901170136,52.1,52.22,52.1,52.21
201901170137,52.21,52.21,52.12,52.12
201901170138,52.13,52.14,51.94,51.94
201901170139,51.94,51.99,51.92,51.94
201901170140,51.94,51.94,51.86,51.88
201901170141,51.88,51.91,51.85,51.88
201901170142,51.88,51.94,51.84,51.92
201901170143,51.92,52.04,51.92,52.01
201901170144,52.01,52.08,52.01,52.08
201901170145,52.08,52.12,52.08,52.08
201901170146,52.08,52.14,52.04,52.07
201901170147,52.07,52.08,51.99,52.03
201901170148,52.03,52.04,51.99,51.99
201901170149,51.99,52.02,51.99,51.99
201901170150,51.99,52,51.92,51.95
201901170151,51.95,51.98,51.93,51.96
201901170152,51.96,51.98,51.94,51.94
201901170153,51.94,52,51.94,51.99
201901170154,51.99,52.05,51.99,52.03
201901170155,52.03,52.06,52,52
201901170156,52,52.04,51.97,52.01
201901170157,52.01,52.02,51.97,52
201901170158,52,52.02,51.9,51.92
201901170159,51.92,51.94,51.89,51.93
201901170200,51.93,51.94,51.89,51.94
201901170201,51.94,51.94,51.88,51.9
201901170202,51.9,51.91,51.86,51.88
201901170203,51.88,51.92,51.85,51.92
201901170204,51.92,51.92,51.89,51.91
201901170205,51.91,51.93,51.89,51.92
201901170206,51.92,51.94,51.91,51.91
201901170207,51.91,51.92,51.81,51.85
201901170208,51.85,51.88,51.83,51.86
201901170209,51.86,51.91,51.85,51.91
201901170210,51.91,51.92,51.89,51.91
201901170211,51.91,51.96,51.91,51.95
201901170212,51.95,52.01,51.94,52.01
201901170213,52,52.02,51.98,51.99
201901170214,51.99,52,51.96,51.97
201901170215,51.97,51.99,51.86,51.89
201901170216,51.89,51.91,51.86,51.89
201901170217,51.89,51.91,51.87,51.91
201901170218,51.91,51.92,51.88,51.91
201901170219,51.91,51.91,51.87,51.91
201901170220,51.91,51.95,51.89,51.91
201901170221,51.91,51.91,51.87,51.9
201901170222,51.9,51.91,51.88,51.89
201901170223,51.89,51.9,51.86,51.89
201901170224,51.89,51.92,51.86,51.87
201901170225,51.87,51.88,51.79,51.82
201901170226,51.81,51.84,51.8,51.83
201901170227,51.83,51.83,51.78,51.79
201901170228,51.79,51.83,51.78,51.8
201901170229,51.8,51.8,51.73,51.74
201901170230,51.74,51.79,51.73,51.79
201901170231,51.79,51.82,51.79,51.81
201901170232,51.81,51.81,51.8,51.81
201901170233,51.81,51.82,51.8,51.8
201901170234,51.8,51.8,51.77,51.79
201901170235,51.79,51.8,51.75,51.76
201901170236,51.76,51.8,51.75,51.79
201901170237,51.79,51.79,51.73,51.74
201901170238,51.74,51.79,51.74,51.76
201901170239,51.76,51.76,51.71,51.74
201901170240,51.74,51.79,51.74,51.79
201901170241,51.79,51.83,51.79,51.83
201901170242,51.83,51.85,51.81,51.82
201901170243,51.82,51.83,51.8,51.8
201901170244,51.8,51.82,51.79,51.79
201901170245,51.79,51.82,51.78,51.79
201901170246,51.79,51.79,51.78,51.78
201901170247,51.78,51.79,51.76,51.77
201901170248,51.77,51.78,51.75,51.75
201901170249,51.75,51.76,51.69,51.7
201901170250,51.7,51.74,51.7,51.73
201901170251,51.73,51.74,51.71,51.74
201901170252,51.74,51.76,51.74,51.74
201901170253,51.74,51.74,51.71,51.72
201901170254,51.72,51.73,51.72,51.72
201901170255,51.72,51.81,51.72,51.8
201901170256,51.8,51.8,51.73,51.78
201901170257,51.78,51.79,51.77,51.77
201901170258,51.77,51.8,51.76,51.8
201901170259,51.8,51.8,51.77,51.79
201901170300,51.79,51.81,51.77,51.79
201901170301,51.79,51.88,51.79,51.85
201901170302,51.85,51.89,51.85,51.89
201901170303,51.89,51.89,51.87,51.88
201901170304,51.88,51.9,51.88,51.9
201901170305,51.9,51.9,51.85,51.85
201901170306,51.85,51.87,51.85,51.86
201901170307,51.86,51.88,51.83,51.87
201901170308,51.87,51.89,51.85,51.85
201901170309,51.85,51.87,51.85,51.87
201901170310,51.87,51.9,51.86,51.89
201901170311,51.89,51.92,51.87,51.89
201901170312,51.89,51.91,51.88,51.88
201901170313,51.88,51.89,51.86,51.88
201901170314,51.88,51.88,51.87,51.87
201901170315,51.87,51.88,51.82,51.83
201901170316,51.83,51.85,51.82,51.84
201901170317,51.84,51.85,51.81,51.84
201901170318,51.84,51.85,51.82,51.84
201901170319,51.84,51.88,51.84,51.85
201901170320,51.85,51.87,51.84,51.86
201901170321,51.86,51.88,51.85,51.86
201901170322,51.86,51.89,51.86,51.88
201901170323,51.88,51.89,51.86,51.89
201901170324,51.89,51.93,51.89,51.9
201901170325,51.9,51.92,51.89,51.91
201901170326,51.91,51.92,51.9,51.9
201901170327,51.9,51.91,51.84,51.85
201901170328,51.85,51.87,51.84,51.86
201901170329,51.85,51.85,51.83,51.83
201901170330,51.83,51.88,51.79,51.88
201901170331,51.88,51.91,51.87,51.9
201901170332,51.9,51.91,51.88,51.88
201901170333,51.88,51.9,51.86,51.86
201901170334,51.86,51.86,51.8,51.82
201901170335,51.82,51.86,51.82,51.83
201901170336,51.83,51.83,51.79,51.8
201901170337,51.8,51.83,51.8,51.8
201901170338,51.8,51.83,51.79,51.81
201901170339,51.81,51.83,51.81,51.82
201901170340,51.82,51.85,51.81,51.84
201901170341,51.84,51.88,51.84,51.88
201901170342,51.88,51.88,51.84,51.86
201901170343,51.86,51.87,51.84,51.86
201901170344,51.86,51.86,51.81,51.81
201901170345,51.81,51.89,51.81,51.87
201901170346,51.87,51.88,51.85,51.85
201901170347,51.85,51.85,51.8,51.81
201901170348,51.81,51.82,51.77,51.8
201901170349,51.8,51.84,51.8,51.81
201901170350,51.81,51.81,51.78,51.8
201901170351,51.8,51.82,51.77,51.8
201901170352,51.8,51.82,51.8,51.81
201901170353,51.81,51.83,51.78,51.82
201901170354,51.82,51.84,51.8,51.82
201901170355,51.82,51.87,51.82,51.86
201901170356,51.86,51.9,51.86,51.88
201901170357,51.88,51.89,51.87,51.88
201901170358,51.88,51.91,51.86,51.86
201901170359,51.86,51.9,51.86,51.89
201901170400,51.89,51.94,51.84,51.87
201901170401,51.87,51.9,51.87,51.87
201901170402,51.88,51.96,51.88,51.94
201901170403,51.94,51.96,51.92,51.92
201901170404,51.92,51.94,51.89,51.89
201901170405,51.89,51.94,51.89,51.92
201901170406,51.92,51.94,51.9,51.92
201901170407,51.92,51.95,51.91,51.94
201901170408,51.94,51.94,51.9,51.93
201901170409,51.93,51.96,51.92,51.95
201901170410,51.95,52,51.94,51.99
201901170411,51.99,52.01,51.97,51.98
201901170412,51.98,51.98,51.94,51.96
201901170413,51.96,51.96,51.86,51.88
201901170414,51.88,51.9,51.87,51.89
201901170415,51.89,51.92,51.82,51.84
201901170416,51.84,51.85,51.82,51.85
201901170417,51.85,51.85,51.82,51.83
201901170418,51.83,51.87,51.82,51.83
201901170419,51.83,51.86,51.82,51.84
201901170420,51.84,51.98,51.84,51.97
201901170421,51.97,52.06,51.97,52.04
201901170422,52.04,52.06,51.97,52.03
201901170423,52.04,52.04,51.99,52
201901170424,51.99,52.02,51.95,51.98
201901170425,51.98,52.05,51.98,52.03
201901170426,52.03,52.12,52.02,52.1
201901170427,52.1,52.26,52.09,52.24
201901170428,52.24,52.33,52.24,52.31
201901170429,52.31,52.32,52.25,52.27
201901170430,52.27,52.36,52.27,52.31
201901170431,52.31,52.4,52.31,52.39
201901170432,52.39,52.39,52.29,52.3
201901170433,52.3,52.33,52.3,52.32
201901170434,52.32,52.34,52.26,52.26
201901170435,52.26,52.26,52.17,52.21
201901170436,52.22,52.26,52.21,52.25
201901170437,52.25,52.28,52.23,52.24
201901170438,52.24,52.27,52.24,52.24
201901170439,52.24,52.33,52.24,52.3
201901170440,52.3,52.31,52.27,52.28
201901170441,52.28,52.3,52.26,52.27
201901170442,52.28,52.3,52.28,52.29
201901170443,52.29,52.29,52.25,52.27
201901170444,52.27,52.28,52.26,52.27
201901170445,52.27,52.28,52.24,52.27
201901170446,52.27,52.28,52.25,52.26
201901170447,52.26,52.29,52.26,52.29
201901170448,52.29,52.31,52.29,52.3
201901170449,52.3,52.32,52.3,52.32
201901170450,52.32,52.32,52.3,52.3
201901170451,52.3,52.3,52.26,52.26
201901170452,52.26,52.29,52.22,52.22
201901170453,52.22,52.24,52.2,52.21
201901170454,52.21,52.22,52.2,52.21
201901170455,52.21,52.26,52.21,52.25
201901170456,52.25,52.27,52.25,52.27
201901170457,52.27,52.29,52.26,52.28
201901170458,52.28,52.28,52.26,52.27
201901170459,52.27,52.27,52.24,52.25
201901170500,52.25,52.28,52.24,52.28
201901170501,52.28,52.3,52.27,52.29
201901170502,52.29,52.3,52.28,52.3
201901170503,52.3,52.34,52.29,52.33
201901170504,52.33,52.36,52.32,52.35
201901170505,52.35,52.36,52.34,52.36
201901170506,52.37,52.37,52.35,52.36
201901170507,52.36,52.37,52.36,52.37
201901170508,52.37,52.37,52.35,52.36
201901170509,52.36,52.38,52.36,52.37
201901170510,52.37,52.4,52.37,52.39
201901170511,52.39,52.4,52.39,52.39
201901170512,52.39,52.39,52.38,52.38
201901170513,52.38,52.39,52.38,52.39
201901170514,52.39,52.39,52.37,52.37
201901170515,52.37,52.38,52.36,52.38
201901170516,52.38,52.4,52.38,52.4
201901170517,52.4,52.41,52.39,52.41
201901170518,52.41,52.41,52.39,52.4
201901170519,52.4,52.42,52.4,52.41
201901170520,52.41,52.43,52.41,52.42
201901170521,52.42,52.43,52.42,52.42
201901170522,52.42,52.43,52.4,52.4
201901170523,52.4,52.42,52.4,52.41
201901170524,52.41,52.41,52.39,52.39
201901170525,52.39,52.39,52.37,52.37
201901170526,52.37,52.4,52.36,52.39
201901170527,52.39,52.4,52.37,52.4
201901170528,52.4,52.4,52.38,52.38
201901170529,52.38,52.4,52.38,52.39
201901170530,52.39,52.39,52.37,52.37
201901170531,52.37,52.39,52.37,52.38
201901170532,52.38,52.38,52.33,52.34
201901170533,52.34,52.34,52.3,52.31
201901170534,52.31,52.34,52.3,52.33
201901170535,52.33,52.38,52.33,52.38
201901170536,52.38,52.39,52.34,52.34
201901170537,52.34,52.35,52.32,52.33
201901170538,52.33,52.35,52.33,52.34
201901170539,52.34,52.35,52.33,52.35
201901170540,52.35,52.36,52.35,52.36
201901170541,52.36,52.36,52.32,52.32
201901170542,52.32,52.34,52.3,52.34
201901170543,52.34,52.35,52.33,52.35
201901170544,52.35,52.37,52.34,52.37
201901170545,52.37,52.38,52.35,52.37
201901170546,52.37,52.38,52.36,52.36
201901170547,52.36,52.38,52.36,52.38
201901170548,52.38,52.4,52.35,52.39
201901170549,52.39,52.41,52.39,52.41
201901170550,52.41,52.41,52.39,52.4
201901170551,52.4,52.41,52.38,52.4
201901170552,52.39,52.4,52.38,52.39
201901170553,52.39,52.4,52.38,52.39
201901170554,52.39,52.4,52.38,52.38
201901170555,52.38,52.41,52.38,52.41
201901170556,52.41,52.41,52.4,52.4
201901170557,52.4,52.4,52.37,52.37
201901170558,52.37,52.38,52.37,52.37
201901170559,52.37,52.37,52.34,52.34
201901170600,52.34,52.37,52.34,52.37
201901170601,52.37,52.38,52.36,52.37
201901170602,52.37,52.39,52.37,52.38
201901170603,52.38,52.38,52.36,52.36
201901170604,52.36,52.36,52.35,52.35
201901170605,52.35,52.35,52.34,52.34
201901170606,52.34,52.34,52.33,52.34
201901170607,52.34,52.34,52.33,52.34
201901170608,52.34,52.34,52.33,52.33
201901170609,52.33,52.35,52.33,52.34
201901170610,52.34,52.34,52.34,52.34
201901170611,52.34,52.35,52.34,52.35
201901170612,52.35,52.36,52.35,52.35
201901170613,52.35,52.35,52.34,52.34
201901170614,52.34,52.35,52.34,52.34
201901170615,52.34,52.35,52.34,52.34
201901170616,52.34,52.34,52.34,52.34
201901170617,52.34,52.34,52.34,52.34
201901170618,52.34,52.34,52.33,52.34
201901170619,52.34,52.34,52.33,52.33
201901170620,52.33,52.33,52.32,52.33
201901170621,52.33,52.33,52.33,52.33
201901170622,52.33,52.33,52.33,52.33
201901170623,52.33,52.34,52.33,52.33
201901170624,52.33,52.34,52.33,52.33
201901170625,52.33,52.33,52.33,52.33
201901170626,52.33,52.33,52.32,52.33
201901170627,52.33,52.33,52.32,52.32
201901170628,52.32,52.33,52.32,52.33
201901170629,52.33,52.33,52.33,52.33
201901170630,52.33,52.34,52.33,52.33
201901170631,52.33,52.34,52.33,52.34
201901170632,52.34,52.35,52.34,52.34
201901170633,52.34,52.35,52.34,52.34
201901170634,52.34,52.34,52.34,52.34
201901170635,52.34,52.34,52.33,52.33
201901170636,52.33,52.33,52.33,52.33
201901170637,52.33,52.35,52.33,52.34
201901170638,52.34,52.35,52.34,52.34
201901170639,52.34,52.34,52.34,52.34
201901170640,52.34,52.35,52.34,52.34
201901170641,52.34,52.35,52.34,52.35
201901170642,52.35,52.35,52.35,52.35
201901170643,52.35,52.35,52.35,52.35
201901170644,52.35,52.35,52.34,52.35
201901170645,52.35,52.36,52.35,52.36
201901170646,52.36,52.36,52.36,52.36
201901170647,52.36,52.36,52.36,52.36
201901170648,52.36,52.36,52.35,52.35
201901170649,52.35,52.35,52.35,52.35
201901170650,52.35,52.36,52.34,52.35
201901170651,52.35,52.35,52.35,52.35
201901170652,52.35,52.36,52.35,52.35
201901170653,52.35,52.35,52.34,52.34
201901170654,52.34,52.34,52.34,52.34
201901170655,52.34,52.34,52.3,52.32
201901170656,52.32,52.33,52.31,52.32
201901170657,52.32,52.32,52.31,52.32
201901170658,52.32,52.33,52.32,52.32
201901170659,52.32,52.33,52.3,52.31
