日時,始値(BID),高値(BID),安値(BID),終値(BID)
201901240800,52.44,52.49,52.41,52.48
201901240801,52.48,52.53,52.48,52.5
201901240802,52.5,52.51,52.48,52.5
201901240803,52.5,52.52,52.5,52.51
201901240804,52.51,52.51,52.49,52.49
201901240805,52.49,52.49,52.46,52.46
201901240806,52.46,52.46,52.44,52.44
201901240807,52.44,52.44,52.44,52.44
201901240808,52.44,52.5,52.44,52.47
201901240809,52.48,52.48,52.47,52.48
201901240810,52.48,52.48,52.47,52.47
201901240811,52.47,52.47,52.46,52.46
201901240812,52.46,52.48,52.45,52.48
201901240813,52.48,52.49,52.48,52.49
201901240814,52.49,52.5,52.49,52.49
201901240815,52.49,52.49,52.48,52.48
201901240816,52.48,52.48,52.46,52.47
201901240817,52.47,52.47,52.47,52.47
201901240818,52.47,52.47,52.47,52.47
201901240819,52.47,52.47,52.47,52.47
201901240820,52.47,52.48,52.47,52.48
201901240821,52.48,52.48,52.48,52.48
201901240822,52.48,52.49,52.47,52.48
201901240823,52.48,52.48,52.47,52.47
201901240824,52.47,52.47,52.46,52.47
201901240825,52.47,52.47,52.44,52.45
201901240826,52.45,52.45,52.44,52.44
201901240827,52.44,52.44,52.43,52.43
201901240828,52.43,52.44,52.39,52.43
201901240829,52.43,52.43,52.42,52.43
201901240830,52.43,52.46,52.43,52.45
201901240831,52.45,52.45,52.44,52.45
201901240832,52.45,52.45,52.45,52.45
201901240833,52.45,52.45,52.45,52.45
201901240834,52.45,52.45,52.45,52.45
201901240835,52.45,52.45,52.44,52.45
201901240836,52.45,52.45,52.44,52.45
201901240837,52.45,52.46,52.45,52.46
201901240838,52.46,52.47,52.45,52.47
201901240839,52.47,52.47,52.47,52.47
201901240840,52.47,52.47,52.47,52.47
201901240841,52.47,52.48,52.47,52.48
201901240842,52.48,52.48,52.48,52.48
201901240843,52.48,52.49,52.48,52.49
201901240844,52.49,52.49,52.49,52.49
201901240845,52.49,52.5,52.48,52.49
201901240846,52.49,52.49,52.48,52.49
201901240847,52.49,52.5,52.49,52.5
201901240848,52.5,52.5,52.47,52.47
201901240849,52.47,52.47,52.47,52.47
201901240850,52.47,52.47,52.44,52.45
201901240851,52.45,52.46,52.44,52.44
201901240852,52.44,52.45,52.44,52.45
201901240853,52.45,52.45,52.45,52.45
201901240854,52.45,52.45,52.45,52.45
201901240855,52.45,52.45,52.44,52.44
201901240856,52.44,52.45,52.44,52.45
201901240857,52.45,52.45,52.45,52.45
201901240858,52.45,52.45,52.45,52.45
201901240859,52.45,52.45,52.44,52.44
201901240900,52.44,52.45,52.44,52.44
201901240901,52.44,52.44,52.41,52.41
201901240902,52.41,52.41,52.4,52.41
201901240903,52.41,52.43,52.41,52.42
201901240904,52.42,52.43,52.42,52.43
201901240905,52.43,52.43,52.41,52.41
201901240906,52.41,52.41,52.4,52.4
201901240907,52.4,52.41,52.4,52.41
201901240908,52.41,52.41,52.36,52.36
201901240909,52.36,52.38,52.36,52.37
201901240910,52.37,52.41,52.37,52.39
201901240911,52.39,52.41,52.39,52.4
201901240912,52.4,52.4,52.39,52.4
201901240913,52.4,52.41,52.4,52.4
201901240914,52.4,52.4,52.37,52.39
201901240915,52.39,52.39,52.38,52.38
201901240916,52.38,52.4,52.38,52.4
201901240917,52.4,52.41,52.4,52.41
201901240918,52.41,52.41,52.41,52.41
201901240919,52.41,52.41,52.38,52.39
201901240920,52.39,52.39,52.39,52.39
201901240921,52.39,52.41,52.39,52.4
201901240922,52.4,52.4,52.38,52.39
201901240923,52.39,52.41,52.38,52.4
201901240924,52.4,52.41,52.4,52.4
201901240925,52.4,52.4,52.35,52.36
201901240926,52.36,52.38,52.36,52.36
201901240927,52.36,52.37,52.36,52.37
201901240928,52.37,52.37,52.36,52.36
201901240929,52.36,52.36,52.33,52.34
201901240930,52.34,52.37,52.34,52.35
201901240931,52.35,52.37,52.35,52.37
201901240932,52.37,52.37,52.37,52.37
201901240933,52.37,52.39,52.37,52.39
201901240934,52.39,52.39,52.38,52.38
201901240935,52.38,52.38,52.36,52.38
201901240936,52.38,52.39,52.36,52.38
201901240937,52.38,52.38,52.38,52.38
201901240938,52.38,52.42,52.38,52.42
201901240939,52.42,52.43,52.4,52.42
201901240940,52.42,52.49,52.42,52.48
201901240941,52.48,52.51,52.46,52.5
201901240942,52.5,52.5,52.48,52.49
201901240943,52.49,52.53,52.49,52.53
201901240944,52.53,52.55,52.52,52.55
201901240945,52.55,52.58,52.54,52.57
201901240946,52.57,52.57,52.54,52.56
201901240947,52.56,52.56,52.54,52.54
201901240948,52.54,52.54,52.53,52.53
201901240949,52.53,52.54,52.53,52.53
201901240950,52.53,52.53,52.52,52.52
201901240951,52.52,52.52,52.5,52.52
201901240952,52.52,52.53,52.52,52.53
201901240953,52.53,52.53,52.52,52.52
201901240954,52.52,52.53,52.51,52.51
201901240955,52.51,52.51,52.5,52.5
201901240956,52.5,52.5,52.48,52.48
201901240957,52.48,52.5,52.48,52.49
201901240958,52.49,52.5,52.48,52.49
201901240959,52.49,52.49,52.48,52.48
201901241000,52.48,52.52,52.42,52.5
201901241001,52.5,52.55,52.5,52.55
201901241002,52.55,52.58,52.54,52.57
201901241003,52.57,52.58,52.56,52.57
201901241004,52.57,52.65,52.57,52.63
201901241005,52.63,52.69,52.62,52.69
201901241006,52.69,52.7,52.66,52.68
201901241007,52.68,52.68,52.64,52.67
201901241008,52.67,52.67,52.64,52.65
201901241009,52.65,52.66,52.63,52.64
201901241010,52.64,52.64,52.62,52.63
201901241011,52.63,52.64,52.63,52.63
201901241012,52.63,52.66,52.63,52.66
201901241013,52.66,52.66,52.64,52.64
201901241014,52.64,52.64,52.62,52.62
201901241015,52.62,52.63,52.61,52.63
201901241016,52.63,52.64,52.63,52.63
201901241017,52.63,52.63,52.61,52.62
201901241018,52.62,52.62,52.61,52.62
201901241019,52.62,52.62,52.6,52.6
201901241020,52.6,52.61,52.6,52.61
201901241021,52.61,52.61,52.59,52.6
201901241022,52.6,52.61,52.6,52.61
201901241023,52.61,52.61,52.6,52.61
201901241024,52.61,52.61,52.6,52.61
201901241025,52.61,52.64,52.61,52.64
201901241026,52.64,52.66,52.64,52.64
201901241027,52.64,52.64,52.64,52.64
201901241028,52.64,52.64,52.63,52.63
201901241029,52.63,52.63,52.63,52.63
201901241030,52.63,52.63,52.58,52.6
201901241031,52.6,52.69,52.59,52.67
201901241032,52.67,52.68,52.65,52.68
201901241033,52.68,52.7,52.65,52.66
201901241034,52.67,52.67,52.63,52.63
201901241035,52.63,52.63,52.59,52.59
201901241036,52.59,52.61,52.57,52.57
201901241037,52.57,52.61,52.57,52.58
201901241038,52.58,52.58,52.54,52.56
201901241039,52.56,52.56,52.54,52.55
201901241040,52.55,52.55,52.54,52.55
201901241041,52.55,52.56,52.54,52.54
201901241042,52.54,52.54,52.51,52.52
201901241043,52.52,52.54,52.51,52.54
201901241044,52.54,52.56,52.54,52.56
201901241045,52.56,52.57,52.55,52.55
201901241046,52.55,52.55,52.54,52.55
201901241047,52.55,52.57,52.53,52.54
201901241048,52.54,52.54,52.48,52.5
201901241049,52.5,52.51,52.47,52.48
201901241050,52.48,52.5,52.48,52.48
201901241051,52.48,52.49,52.47,52.48
201901241052,52.48,52.5,52.48,52.48
201901241053,52.48,52.5,52.48,52.5
201901241054,52.5,52.5,52.43,52.43
201901241055,52.43,52.46,52.39,52.4
201901241056,52.4,52.43,52.38,52.39
201901241057,52.39,52.4,52.37,52.4
201901241058,52.4,52.4,52.33,52.37
201901241059,52.37,52.37,52.35,52.36
201901241100,52.36,52.36,52.29,52.31
201901241101,52.31,52.32,52.29,52.32
201901241102,52.32,52.32,52.25,52.27
201901241103,52.27,52.27,52.21,52.25
201901241104,52.25,52.26,52.23,52.26
201901241105,52.26,52.26,52.18,52.19
201901241106,52.19,52.25,52.18,52.25
201901241107,52.25,52.26,52.24,52.25
201901241108,52.25,52.28,52.24,52.27
201901241109,52.27,52.3,52.26,52.3
201901241110,52.3,52.34,52.3,52.31
201901241111,52.31,52.32,52.3,52.31
201901241112,52.31,52.31,52.3,52.3
201901241113,52.3,52.32,52.29,52.29
201901241114,52.29,52.29,52.25,52.26
201901241115,52.26,52.3,52.26,52.27
201901241116,52.27,52.31,52.27,52.28
201901241117,52.28,52.3,52.28,52.29
201901241118,52.29,52.29,52.28,52.29
201901241119,52.29,52.29,52.28,52.28
201901241120,52.28,52.3,52.27,52.3
201901241121,52.3,52.31,52.29,52.3
201901241122,52.3,52.31,52.3,52.3
201901241123,52.3,52.33,52.3,52.31
201901241124,52.31,52.31,52.3,52.3
201901241125,52.3,52.3,52.29,52.29
201901241126,52.29,52.3,52.27,52.3
201901241127,52.3,52.31,52.3,52.31
201901241128,52.31,52.31,52.3,52.3
201901241129,52.3,52.3,52.28,52.3
201901241130,52.3,52.3,52.27,52.28
201901241131,52.28,52.28,52.24,52.25
201901241132,52.25,52.25,52.22,52.23
201901241133,52.23,52.23,52.18,52.19
201901241134,52.19,52.23,52.19,52.23
201901241135,52.23,52.23,52.21,52.22
201901241136,52.22,52.23,52.2,52.2
201901241137,52.2,52.22,52.2,52.21
201901241138,52.22,52.23,52.22,52.23
201901241139,52.23,52.25,52.22,52.24
201901241140,52.24,52.28,52.24,52.27
201901241141,52.27,52.27,52.26,52.27
201901241142,52.27,52.29,52.26,52.27
201901241143,52.27,52.29,52.26,52.26
201901241144,52.26,52.27,52.26,52.27
201901241145,52.27,52.27,52.27,52.27
201901241146,52.27,52.33,52.27,52.31
201901241147,52.31,52.33,52.31,52.32
201901241148,52.32,52.35,52.32,52.34
201901241149,52.34,52.36,52.34,52.35
201901241150,52.35,52.37,52.35,52.37
201901241151,52.37,52.37,52.34,52.34
201901241152,52.34,52.36,52.34,52.36
201901241153,52.36,52.36,52.35,52.36
201901241154,52.36,52.36,52.34,52.34
201901241155,52.34,52.34,52.33,52.33
201901241156,52.33,52.36,52.33,52.36
201901241157,52.36,52.36,52.34,52.34
201901241158,52.34,52.36,52.34,52.36
201901241159,52.36,52.36,52.35,52.35
201901241200,52.35,52.4,52.35,52.39
201901241201,52.39,52.4,52.37,52.39
201901241202,52.39,52.4,52.38,52.39
201901241203,52.39,52.39,52.38,52.39
201901241204,52.39,52.4,52.38,52.38
201901241205,52.38,52.39,52.37,52.39
201901241206,52.4,52.4,52.39,52.4
201901241207,52.4,52.4,52.39,52.39
201901241208,52.39,52.4,52.39,52.39
201901241209,52.39,52.41,52.39,52.41
201901241210,52.41,52.42,52.41,52.41
201901241211,52.41,52.42,52.4,52.4
201901241212,52.4,52.41,52.4,52.4
201901241213,52.4,52.4,52.4,52.4
201901241214,52.4,52.4,52.39,52.39
201901241215,52.38,52.38,52.38,52.38
201901241216,52.38,52.4,52.38,52.4
201901241217,52.4,52.4,52.4,52.4
201901241218,52.41,52.42,52.4,52.41
201901241219,52.41,52.42,52.39,52.4
201901241220,52.4,52.42,52.39,52.42
201901241221,52.42,52.42,52.39,52.39
201901241222,52.39,52.4,52.39,52.39
201901241223,52.39,52.4,52.39,52.39
201901241224,52.4,52.41,52.39,52.39
201901241225,52.39,52.4,52.38,52.39
201901241226,52.39,52.39,52.39,52.39
201901241227,52.39,52.4,52.39,52.4
201901241228,52.4,52.4,52.39,52.39
201901241229,52.39,52.39,52.35,52.35
201901241230,52.35,52.36,52.35,52.36
201901241231,52.36,52.38,52.36,52.37
201901241232,52.37,52.37,52.36,52.36
201901241233,52.36,52.37,52.36,52.37
201901241234,52.37,52.38,52.36,52.36
201901241235,52.36,52.36,52.35,52.36
201901241236,52.36,52.36,52.35,52.35
201901241237,52.35,52.4,52.35,52.37
201901241238,52.37,52.38,52.37,52.38
201901241239,52.38,52.38,52.38,52.38
201901241240,52.38,52.4,52.38,52.39
201901241241,52.39,52.4,52.38,52.39
201901241242,52.39,52.39,52.38,52.38
201901241243,52.38,52.39,52.38,52.39
201901241244,52.39,52.41,52.39,52.4
201901241245,52.4,52.4,52.4,52.4
201901241246,52.4,52.42,52.4,52.41
201901241247,52.41,52.42,52.4,52.4
201901241248,52.4,52.41,52.4,52.4
201901241249,52.4,52.41,52.4,52.41
201901241250,52.41,52.41,52.41,52.41
201901241251,52.41,52.41,52.4,52.4
201901241252,52.4,52.4,52.39,52.4
201901241253,52.4,52.4,52.38,52.39
201901241254,52.39,52.39,52.38,52.38
201901241255,52.38,52.38,52.37,52.37
201901241256,52.37,52.41,52.37,52.4
201901241257,52.4,52.4,52.4,52.4
201901241258,52.4,52.43,52.4,52.41
201901241259,52.41,52.42,52.41,52.42
201901241300,52.42,52.43,52.42,52.43
201901241301,52.43,52.43,52.42,52.42
201901241302,52.42,52.42,52.4,52.4
201901241303,52.4,52.42,52.4,52.42
201901241304,52.42,52.42,52.41,52.42
201901241305,52.42,52.42,52.42,52.42
201901241306,52.42,52.43,52.41,52.43
201901241307,52.43,52.43,52.42,52.43
201901241308,52.43,52.44,52.43,52.44
201901241309,52.44,52.45,52.44,52.45
201901241310,52.45,52.46,52.45,52.46
201901241311,52.46,52.46,52.46,52.46
201901241312,52.46,52.47,52.46,52.47
201901241313,52.47,52.47,52.45,52.46
201901241314,52.46,52.46,52.45,52.45
201901241315,52.45,52.46,52.44,52.46
201901241316,52.46,52.47,52.46,52.47
201901241317,52.47,52.47,52.46,52.46
201901241318,52.46,52.46,52.46,52.46
201901241319,52.46,52.47,52.46,52.46
201901241320,52.46,52.46,52.45,52.45
201901241321,52.45,52.46,52.45,52.45
201901241322,52.45,52.45,52.44,52.44
201901241323,52.44,52.44,52.44,52.44
201901241324,52.44,52.45,52.44,52.44
201901241325,52.44,52.44,52.43,52.43
201901241326,52.43,52.44,52.43,52.43
201901241327,52.43,52.43,52.43,52.43
201901241328,52.43,52.44,52.43,52.43
201901241329,52.43,52.44,52.42,52.42
201901241330,52.42,52.42,52.41,52.41
201901241331,52.41,52.42,52.4,52.41
201901241332,52.41,52.41,52.4,52.41
201901241333,52.41,52.41,52.4,52.41
201901241334,52.41,52.43,52.41,52.43
201901241335,52.43,52.43,52.43,52.43
201901241336,52.43,52.43,52.43,52.43
201901241337,52.43,52.43,52.39,52.4
201901241338,52.4,52.4,52.4,52.4
201901241339,52.4,52.4,52.39,52.39
201901241340,52.39,52.39,52.38,52.38
201901241341,52.38,52.4,52.38,52.39
201901241342,52.39,52.4,52.39,52.39
201901241343,52.39,52.4,52.39,52.4
201901241344,52.4,52.41,52.4,52.41
201901241345,52.41,52.41,52.4,52.4
201901241346,52.4,52.42,52.4,52.42
201901241347,52.42,52.43,52.41,52.41
201901241348,52.41,52.42,52.4,52.41
201901241349,52.41,52.41,52.41,52.41
201901241350,52.41,52.41,52.4,52.4
201901241351,52.4,52.4,52.4,52.4
201901241352,52.4,52.4,52.39,52.39
201901241353,52.39,52.4,52.38,52.39
201901241354,52.39,52.39,52.38,52.39
201901241355,52.39,52.39,52.37,52.37
201901241356,52.37,52.37,52.36,52.37
201901241357,52.37,52.4,52.36,52.39
201901241358,52.39,52.39,52.39,52.39
201901241359,52.39,52.4,52.39,52.39
201901241400,52.39,52.39,52.39,52.39
201901241401,52.39,52.4,52.39,52.4
201901241402,52.4,52.4,52.39,52.39
201901241403,52.39,52.4,52.39,52.4
201901241404,52.4,52.41,52.4,52.4
201901241405,52.4,52.41,52.4,52.4
201901241406,52.4,52.4,52.4,52.4
201901241407,52.4,52.42,52.4,52.42
201901241408,52.42,52.42,52.4,52.4
201901241409,52.4,52.4,52.39,52.39
201901241410,52.39,52.39,52.37,52.38
201901241411,52.38,52.38,52.37,52.37
201901241412,52.37,52.38,52.37,52.38
201901241413,52.38,52.39,52.37,52.38
201901241414,52.38,52.39,52.38,52.39
201901241415,52.39,52.39,52.39,52.39
201901241416,52.39,52.39,52.38,52.39
201901241417,52.39,52.4,52.39,52.4
201901241418,52.4,52.4,52.39,52.39
201901241419,52.39,52.4,52.39,52.39
201901241420,52.39,52.4,52.39,52.4
201901241421,52.4,52.4,52.39,52.4
201901241422,52.4,52.41,52.4,52.4
201901241423,52.4,52.4,52.4,52.4
201901241424,52.4,52.41,52.4,52.4
201901241425,52.4,52.42,52.4,52.41
201901241426,52.41,52.42,52.4,52.4
201901241427,52.4,52.4,52.4,52.4
201901241428,52.4,52.4,52.37,52.37
201901241429,52.37,52.38,52.37,52.38
201901241430,52.38,52.38,52.32,52.32
201901241431,52.32,52.33,52.31,52.32
201901241432,52.32,52.33,52.32,52.32
201901241433,52.32,52.35,52.3,52.31
201901241434,52.31,52.33,52.31,52.33
201901241435,52.33,52.34,52.33,52.34
201901241436,52.34,52.35,52.3,52.31
201901241437,52.31,52.32,52.3,52.32
201901241438,52.32,52.33,52.32,52.32
201901241439,52.32,52.32,52.29,52.3
201901241440,52.3,52.31,52.29,52.3
201901241441,52.3,52.33,52.29,52.31
201901241442,52.31,52.33,52.31,52.32
201901241443,52.32,52.33,52.32,52.32
201901241444,52.32,52.32,52.31,52.31
201901241445,52.31,52.33,52.31,52.33
201901241446,52.33,52.33,52.3,52.31
201901241447,52.31,52.33,52.31,52.31
201901241448,52.31,52.32,52.29,52.29
201901241449,52.29,52.29,52.24,52.26
201901241450,52.26,52.26,52.25,52.26
201901241451,52.26,52.28,52.25,52.27
201901241452,52.27,52.28,52.26,52.27
201901241453,52.27,52.27,52.26,52.27
201901241454,52.27,52.3,52.27,52.29
201901241455,52.29,52.31,52.29,52.3
201901241456,52.3,52.31,52.3,52.31
201901241457,52.31,52.33,52.31,52.33
201901241458,52.33,52.34,52.32,52.32
201901241459,52.32,52.33,52.3,52.33
201901241500,52.33,52.33,52.29,52.29
201901241501,52.29,52.32,52.29,52.32
201901241502,52.32,52.33,52.32,52.32
201901241503,52.32,52.37,52.32,52.36
201901241504,52.36,52.37,52.36,52.37
201901241505,52.37,52.37,52.36,52.36
201901241506,52.36,52.37,52.35,52.35
201901241507,52.35,52.35,52.34,52.35
201901241508,52.35,52.35,52.33,52.35
201901241509,52.35,52.37,52.35,52.35
201901241510,52.35,52.37,52.35,52.36
201901241511,52.36,52.37,52.33,52.34
201901241512,52.34,52.36,52.34,52.35
201901241513,52.35,52.37,52.35,52.37
201901241514,52.37,52.37,52.35,52.35
201901241515,52.35,52.38,52.35,52.37
201901241516,52.37,52.37,52.36,52.37
201901241517,52.37,52.37,52.35,52.35
201901241518,52.35,52.37,52.35,52.37
201901241519,52.37,52.37,52.36,52.37
201901241520,52.37,52.37,52.37,52.37
201901241521,52.37,52.37,52.34,52.35
201901241522,52.35,52.35,52.33,52.34
201901241523,52.34,52.35,52.34,52.35
201901241524,52.35,52.35,52.34,52.34
201901241525,52.34,52.35,52.33,52.35
201901241526,52.35,52.36,52.34,52.36
201901241527,52.36,52.37,52.35,52.35
201901241528,52.35,52.35,52.34,52.35
201901241529,52.35,52.35,52.33,52.34
201901241530,52.34,52.34,52.32,52.34
201901241531,52.34,52.34,52.32,52.32
201901241532,52.32,52.33,52.31,52.32
201901241533,52.32,52.36,52.32,52.35
201901241534,52.35,52.35,52.34,52.35
201901241535,52.35,52.37,52.35,52.36
201901241536,52.36,52.37,52.35,52.37
201901241537,52.37,52.38,52.36,52.36
201901241538,52.36,52.36,52.36,52.36
201901241539,52.36,52.36,52.34,52.34
201901241540,52.34,52.35,52.34,52.35
201901241541,52.35,52.35,52.31,52.31
201901241542,52.31,52.31,52.29,52.3
201901241543,52.3,52.31,52.29,52.31
201901241544,52.31,52.32,52.3,52.3
201901241545,52.3,52.31,52.29,52.3
201901241546,52.3,52.31,52.3,52.31
201901241547,52.31,52.33,52.3,52.33
201901241548,52.33,52.35,52.33,52.33
201901241549,52.33,52.37,52.33,52.37
201901241550,52.37,52.37,52.34,52.34
201901241551,52.34,52.35,52.34,52.35
201901241552,52.35,52.39,52.35,52.38
201901241553,52.38,52.38,52.36,52.36
201901241554,52.36,52.37,52.36,52.37
201901241555,52.37,52.38,52.36,52.36
201901241556,52.36,52.36,52.34,52.34
201901241557,52.34,52.35,52.34,52.35
201901241558,52.35,52.37,52.35,52.36
201901241559,52.36,52.38,52.36,52.37
201901241600,52.37,52.39,52.37,52.38
201901241601,52.38,52.39,52.37,52.37
201901241602,52.37,52.37,52.34,52.34
201901241603,52.34,52.34,52.31,52.31
201901241604,52.31,52.37,52.31,52.37
201901241605,52.37,52.4,52.37,52.37
201901241606,52.37,52.37,52.32,52.33
201901241607,52.33,52.34,52.33,52.34
201901241608,52.34,52.34,52.33,52.34
201901241609,52.34,52.34,52.33,52.34
201901241610,52.34,52.35,52.33,52.35
201901241611,52.35,52.35,52.33,52.35
201901241612,52.35,52.35,52.32,52.35
201901241613,52.35,52.36,52.34,52.36
201901241614,52.36,52.38,52.35,52.36
201901241615,52.36,52.39,52.36,52.38
201901241616,52.38,52.38,52.35,52.35
201901241617,52.35,52.35,52.33,52.34
201901241618,52.34,52.35,52.33,52.33
201901241619,52.33,52.34,52.32,52.33
201901241620,52.33,52.34,52.33,52.34
201901241621,52.34,52.36,52.34,52.35
201901241622,52.35,52.35,52.34,52.35
201901241623,52.35,52.35,52.34,52.35
201901241624,52.35,52.37,52.35,52.37
201901241625,52.37,52.37,52.34,52.34
201901241626,52.34,52.35,52.31,52.33
201901241627,52.33,52.33,52.3,52.3
201901241628,52.3,52.32,52.29,52.3
201901241629,52.3,52.32,52.27,52.32
201901241630,52.32,52.32,52.31,52.32
201901241631,52.32,52.38,52.32,52.36
201901241632,52.36,52.38,52.36,52.37
201901241633,52.37,52.43,52.37,52.42
201901241634,52.42,52.44,52.41,52.42
201901241635,52.42,52.44,52.41,52.43
201901241636,52.43,52.43,52.43,52.43
201901241637,52.43,52.44,52.43,52.44
201901241638,52.44,52.44,52.41,52.41
201901241639,52.41,52.42,52.39,52.41
201901241640,52.41,52.43,52.38,52.43
201901241641,52.43,52.44,52.42,52.44
201901241642,52.44,52.44,52.44,52.44
201901241643,52.44,52.47,52.43,52.43
201901241644,52.43,52.46,52.42,52.44
201901241645,52.44,52.44,52.42,52.43
201901241646,52.43,52.45,52.4,52.45
201901241647,52.45,52.45,52.42,52.42
201901241648,52.42,52.43,52.42,52.43
201901241649,52.43,52.44,52.43,52.44
201901241650,52.44,52.45,52.44,52.44
201901241651,52.44,52.45,52.43,52.43
201901241652,52.43,52.45,52.42,52.44
201901241653,52.44,52.44,52.39,52.4
201901241654,52.4,52.4,52.39,52.39
201901241655,52.39,52.39,52.36,52.37
201901241656,52.37,52.37,52.31,52.32
201901241657,52.32,52.33,52.3,52.31
201901241658,52.31,52.31,52.28,52.29
201901241659,52.29,52.33,52.29,52.33
201901241700,52.32,52.32,52.29,52.3
201901241701,52.3,52.32,52.3,52.32
201901241702,52.32,52.33,52.32,52.32
201901241703,52.31,52.36,52.31,52.36
201901241704,52.36,52.39,52.35,52.38
201901241705,52.38,52.44,52.38,52.43
201901241706,52.43,52.44,52.39,52.43
201901241707,52.43,52.43,52.4,52.42
201901241708,52.42,52.43,52.4,52.41
201901241709,52.41,52.43,52.41,52.43
201901241710,52.43,52.44,52.41,52.42
201901241711,52.42,52.42,52.36,52.37
201901241712,52.37,52.42,52.37,52.41
201901241713,52.41,52.41,52.36,52.37
201901241714,52.37,52.38,52.36,52.38
201901241715,52.38,52.39,52.34,52.39
201901241716,52.39,52.42,52.39,52.4
201901241717,52.4,52.44,52.39,52.43
201901241718,52.43,52.44,52.39,52.42
201901241719,52.42,52.43,52.41,52.41
201901241720,52.41,52.41,52.37,52.37
201901241721,52.37,52.37,52.23,52.24
201901241722,52.25,52.28,52.21,52.23
201901241723,52.23,52.25,52.18,52.22
201901241724,52.22,52.25,52.21,52.23
201901241725,52.23,52.23,52.18,52.22
201901241726,52.22,52.23,52.17,52.2
201901241727,52.2,52.22,52.18,52.2
201901241728,52.2,52.23,52.19,52.22
201901241729,52.22,52.23,52.18,52.18
201901241730,52.18,52.19,52.11,52.16
201901241731,52.16,52.22,52.16,52.19
201901241732,52.19,52.22,52.17,52.21
201901241733,52.21,52.21,52.17,52.2
201901241734,52.2,52.2,52.18,52.19
201901241735,52.19,52.23,52.19,52.22
201901241736,52.22,52.24,52.21,52.23
201901241737,52.23,52.26,52.23,52.24
201901241738,52.24,52.24,52.2,52.2
201901241739,52.2,52.23,52.19,52.2
201901241740,52.2,52.26,52.2,52.23
201901241741,52.23,52.25,52.22,52.23
201901241742,52.23,52.26,52.23,52.25
201901241743,52.25,52.29,52.24,52.28
201901241744,52.28,52.29,52.26,52.26
201901241745,52.26,52.28,52.25,52.26
201901241746,52.26,52.31,52.26,52.31
201901241747,52.31,52.31,52.3,52.31
201901241748,52.31,52.31,52.28,52.28
201901241749,52.28,52.32,52.28,52.29
201901241750,52.29,52.29,52.25,52.26
201901241751,52.26,52.29,52.24,52.27
201901241752,52.27,52.3,52.25,52.3
201901241753,52.3,52.3,52.27,52.29
201901241754,52.29,52.3,52.28,52.29
201901241755,52.29,52.33,52.29,52.32
201901241756,52.32,52.32,52.29,52.29
201901241757,52.29,52.3,52.27,52.27
201901241758,52.27,52.33,52.27,52.31
201901241759,52.31,52.34,52.31,52.33
201901241800,52.33,52.35,52.31,52.32
201901241801,52.32,52.33,52.28,52.29
201901241802,52.29,52.33,52.28,52.3
201901241803,52.3,52.32,52.28,52.32
201901241804,52.32,52.33,52.31,52.33
201901241805,52.33,52.35,52.32,52.34
201901241806,52.34,52.35,52.32,52.34
201901241807,52.34,52.37,52.34,52.35
201901241808,52.35,52.37,52.35,52.37
201901241809,52.37,52.41,52.37,52.4
201901241810,52.4,52.42,52.4,52.42
201901241811,52.42,52.44,52.41,52.43
201901241812,52.43,52.53,52.43,52.51
201901241813,52.51,52.63,52.51,52.6
201901241814,52.59,52.6,52.56,52.59
201901241815,52.59,52.65,52.59,52.64
201901241816,52.64,52.66,52.62,52.66
201901241817,52.65,52.66,52.6,52.65
201901241818,52.65,52.66,52.61,52.61
201901241819,52.61,52.63,52.6,52.61
201901241820,52.61,52.65,52.61,52.65
201901241821,52.65,52.72,52.65,52.69
201901241822,52.69,52.7,52.66,52.67
201901241823,52.67,52.67,52.62,52.62
201901241824,52.62,52.63,52.59,52.59
201901241825,52.59,52.64,52.59,52.62
201901241826,52.62,52.63,52.61,52.62
201901241827,52.62,52.65,52.61,52.65
201901241828,52.65,52.65,52.62,52.63
201901241829,52.63,52.65,52.61,52.65
201901241830,52.65,52.66,52.59,52.6
201901241831,52.6,52.63,52.59,52.6
201901241832,52.6,52.67,52.59,52.67
201901241833,52.67,52.71,52.66,52.69
201901241834,52.69,52.7,52.64,52.67
201901241835,52.67,52.68,52.61,52.63
201901241836,52.63,52.66,52.63,52.65
201901241837,52.65,52.67,52.64,52.66
201901241838,52.66,52.69,52.64,52.65
201901241839,52.65,52.66,52.64,52.64
201901241840,52.64,52.65,52.63,52.64
201901241841,52.64,52.65,52.63,52.65
201901241842,52.65,52.65,52.63,52.65
201901241843,52.65,52.68,52.65,52.67
201901241844,52.67,52.7,52.67,52.69
201901241845,52.69,52.74,52.69,52.72
201901241846,52.72,52.74,52.72,52.73
201901241847,52.73,52.83,52.72,52.82
201901241848,52.82,52.86,52.8,52.83
201901241849,52.83,52.83,52.79,52.8
201901241850,52.8,52.81,52.78,52.81
201901241851,52.81,52.81,52.78,52.81
201901241852,52.81,52.86,52.81,52.86
201901241853,52.86,52.86,52.81,52.81
201901241854,52.81,52.84,52.81,52.83
201901241855,52.83,52.83,52.82,52.83
201901241856,52.83,52.83,52.79,52.79
201901241857,52.79,52.79,52.73,52.74
201901241858,52.74,52.78,52.74,52.77
201901241859,52.77,52.79,52.77,52.78
201901241900,52.78,52.79,52.74,52.75
201901241901,52.75,52.77,52.75,52.77
201901241902,52.77,52.83,52.77,52.82
201901241903,52.82,52.83,52.8,52.8
201901241904,52.8,52.82,52.8,52.82
201901241905,52.82,52.84,52.81,52.81
201901241906,52.81,52.81,52.76,52.77
201901241907,52.77,52.78,52.74,52.75
201901241908,52.75,52.76,52.74,52.74
201901241909,52.74,52.76,52.72,52.75
201901241910,52.76,52.76,52.72,52.73
201901241911,52.73,52.73,52.71,52.73
201901241912,52.73,52.78,52.72,52.74
201901241913,52.74,52.76,52.73,52.76
201901241914,52.76,52.77,52.74,52.75
201901241915,52.75,52.76,52.73,52.76
201901241916,52.76,52.8,52.75,52.76
201901241917,52.76,52.79,52.76,52.77
201901241918,52.77,52.78,52.75,52.76
201901241919,52.76,52.77,52.74,52.77
201901241920,52.77,52.8,52.77,52.78
201901241921,52.78,52.8,52.76,52.77
201901241922,52.77,52.78,52.77,52.77
201901241923,52.77,52.78,52.73,52.73
201901241924,52.73,52.75,52.72,52.75
201901241925,52.75,52.75,52.73,52.73
201901241926,52.73,52.74,52.7,52.71
201901241927,52.71,52.73,52.7,52.72
201901241928,52.72,52.72,52.69,52.69
201901241929,52.69,52.72,52.68,52.7
201901241930,52.7,52.71,52.69,52.69
201901241931,52.69,52.7,52.66,52.68
201901241932,52.68,52.69,52.64,52.64
201901241933,52.64,52.66,52.62,52.63
201901241934,52.63,52.68,52.63,52.68
201901241935,52.68,52.7,52.68,52.68
201901241936,52.68,52.69,52.65,52.66
201901241937,52.66,52.68,52.65,52.68
201901241938,52.68,52.7,52.68,52.69
201901241939,52.69,52.69,52.67,52.68
201901241940,52.68,52.68,52.66,52.66
201901241941,52.66,52.7,52.64,52.7
201901241942,52.7,52.72,52.69,52.7
201901241943,52.7,52.7,52.66,52.67
201901241944,52.67,52.69,52.66,52.68
201901241945,52.68,52.69,52.67,52.67
201901241946,52.67,52.72,52.66,52.66
201901241947,52.66,52.66,52.59,52.6
201901241948,52.6,52.62,52.59,52.6
201901241949,52.6,52.62,52.6,52.61
201901241950,52.61,52.63,52.6,52.6
201901241951,52.6,52.63,52.55,52.62
201901241952,52.62,52.63,52.61,52.62
201901241953,52.62,52.64,52.6,52.61
201901241954,52.61,52.61,52.59,52.6
201901241955,52.6,52.61,52.57,52.58
201901241956,52.58,52.6,52.58,52.58
201901241957,52.58,52.6,52.56,52.56
201901241958,52.56,52.59,52.54,52.59
201901241959,52.59,52.6,52.58,52.59
201901242000,52.59,52.6,52.55,52.56
201901242001,52.56,52.57,52.55,52.56
201901242002,52.56,52.56,52.54,52.56
201901242003,52.56,52.58,52.54,52.54
201901242004,52.54,52.64,52.54,52.61
201901242005,52.61,52.64,52.61,52.61
201901242006,52.61,52.62,52.6,52.61
201901242007,52.61,52.61,52.6,52.61
201901242008,52.61,52.63,52.6,52.63
201901242009,52.63,52.63,52.62,52.62
201901242010,52.62,52.63,52.52,52.53
201901242011,52.54,52.54,52.47,52.49
201901242012,52.49,52.53,52.49,52.51
201901242013,52.51,52.52,52.47,52.5
201901242014,52.5,52.51,52.44,52.49
201901242015,52.49,52.53,52.48,52.52
201901242016,52.52,52.54,52.52,52.53
201901242017,52.53,52.53,52.51,52.53
201901242018,52.53,52.54,52.51,52.54
201901242019,52.54,52.56,52.54,52.54
201901242020,52.54,52.56,52.54,52.54
201901242021,52.54,52.56,52.53,52.55
201901242022,52.55,52.55,52.5,52.53
201901242023,52.53,52.56,52.53,52.53
201901242024,52.53,52.54,52.51,52.53
201901242025,52.53,52.54,52.49,52.5
201901242026,52.5,52.52,52.49,52.51
201901242027,52.51,52.51,52.49,52.5
201901242028,52.5,52.5,52.47,52.5
201901242029,52.5,52.5,52.48,52.5
201901242030,52.5,52.5,52.46,52.47
201901242031,52.47,52.49,52.46,52.46
201901242032,52.46,52.46,52.37,52.39
201901242033,52.41,52.41,52.36,52.37
201901242034,52.37,52.39,52.35,52.38
201901242035,52.38,52.38,52.3,52.31
201901242036,52.31,52.33,52.27,52.33
201901242037,52.33,52.35,52.3,52.35
201901242038,52.35,52.36,52.34,52.36
201901242039,52.36,52.38,52.35,52.36
201901242040,52.36,52.37,52.34,52.35
201901242041,52.35,52.35,52.33,52.33
201901242042,52.33,52.37,52.33,52.35
201901242043,52.35,52.37,52.35,52.36
201901242044,52.36,52.37,52.35,52.36
201901242045,52.36,52.37,52.32,52.37
201901242046,52.37,52.4,52.37,52.38
201901242047,52.38,52.41,52.37,52.4
201901242048,52.4,52.41,52.39,52.4
201901242049,52.4,52.42,52.39,52.41
201901242050,52.41,52.42,52.39,52.4
201901242051,52.4,52.42,52.39,52.41
201901242052,52.41,52.41,52.39,52.4
201901242053,52.4,52.42,52.4,52.41
201901242054,52.41,52.42,52.35,52.36
201901242055,52.36,52.37,52.35,52.37
201901242056,52.37,52.42,52.36,52.39
201901242057,52.39,52.39,52.35,52.38
201901242058,52.38,52.41,52.38,52.4
201901242059,52.4,52.41,52.39,52.4
201901242100,52.4,52.4,52.34,52.35
201901242101,52.35,52.38,52.35,52.36
201901242102,52.36,52.38,52.36,52.38
201901242103,52.38,52.4,52.38,52.39
201901242104,52.39,52.45,52.38,52.45
201901242105,52.45,52.46,52.43,52.44
201901242106,52.44,52.45,52.41,52.42
201901242107,52.42,52.42,52.35,52.36
201901242108,52.36,52.36,52.28,52.28
201901242109,52.28,52.29,52.26,52.29
201901242110,52.29,52.3,52.27,52.29
201901242111,52.29,52.3,52.22,52.26
201901242112,52.26,52.26,52.24,52.24
201901242113,52.24,52.27,52.24,52.26
201901242114,52.26,52.28,52.26,52.27
201901242115,52.27,52.27,52.22,52.26
201901242116,52.26,52.27,52.24,52.26
201901242117,52.26,52.28,52.25,52.25
201901242118,52.25,52.27,52.25,52.26
201901242119,52.26,52.27,52.21,52.23
201901242120,52.23,52.23,52.19,52.2
201901242121,52.2,52.26,52.18,52.25
201901242122,52.25,52.27,52.24,52.24
201901242123,52.24,52.26,52.23,52.24
201901242124,52.24,52.26,52.24,52.26
201901242125,52.26,52.27,52.22,52.22
201901242126,52.22,52.22,52.15,52.15
201901242127,52.15,52.17,52.15,52.15
201901242128,52.15,52.17,52.13,52.16
201901242129,52.16,52.18,52.09,52.09
201901242130,52.09,52.15,52.09,52.14
201901242131,52.15,52.16,52.13,52.15
201901242132,52.15,52.17,52.12,52.17
201901242133,52.17,52.18,52.13,52.15
201901242134,52.15,52.15,52.13,52.13
201901242135,52.13,52.16,52.11,52.15
201901242136,52.15,52.17,52.13,52.15
201901242137,52.15,52.15,52.12,52.13
201901242138,52.13,52.17,52.12,52.16
201901242139,52.16,52.18,52.15,52.16
201901242140,52.17,52.18,52.15,52.18
201901242141,52.18,52.2,52.16,52.18
201901242142,52.18,52.19,52.18,52.18
201901242143,52.18,52.19,52.16,52.16
201901242144,52.16,52.22,52.16,52.19
201901242145,52.19,52.22,52.18,52.2
201901242146,52.2,52.23,52.19,52.2
201901242147,52.2,52.21,52.18,52.18
201901242148,52.18,52.2,52.14,52.15
201901242149,52.15,52.2,52.15,52.2
201901242150,52.2,52.23,52.19,52.23
201901242151,52.23,52.24,52.21,52.21
201901242152,52.21,52.22,52.19,52.21
201901242153,52.21,52.23,52.19,52.23
201901242154,52.23,52.26,52.21,52.25
201901242155,52.25,52.26,52.23,52.23
201901242156,52.23,52.25,52.2,52.25
201901242157,52.25,52.25,52.21,52.23
201901242158,52.23,52.24,52.21,52.24
201901242159,52.24,52.29,52.19,52.2
201901242200,52.2,52.26,52.2,52.2
201901242201,52.2,52.26,52.2,52.25
201901242202,52.25,52.26,52.23,52.24
201901242203,52.24,52.25,52.23,52.24
201901242204,52.24,52.29,52.24,52.28
201901242205,52.28,52.33,52.28,52.31
201901242206,52.31,52.32,52.28,52.29
201901242207,52.29,52.3,52.29,52.3
201901242208,52.3,52.31,52.28,52.3
201901242209,52.3,52.3,52.28,52.29
201901242210,52.29,52.31,52.29,52.31
201901242211,52.31,52.31,52.29,52.3
201901242212,52.3,52.3,52.26,52.28
201901242213,52.28,52.3,52.26,52.28
201901242214,52.28,52.28,52.23,52.27
201901242215,52.27,52.27,52.2,52.2
201901242216,52.2,52.24,52.18,52.19
201901242217,52.19,52.22,52.19,52.21
201901242218,52.21,52.23,52.19,52.21
201901242219,52.21,52.23,52.2,52.22
201901242220,52.22,52.22,52.19,52.19
201901242221,52.19,52.25,52.18,52.24
201901242222,52.24,52.32,52.24,52.31
201901242223,52.31,52.32,52.27,52.29
201901242224,52.29,52.31,52.28,52.31
201901242225,52.31,52.34,52.29,52.34
201901242226,52.34,52.36,52.34,52.34
201901242227,52.34,52.35,52.3,52.32
201901242228,52.32,52.36,52.32,52.35
201901242229,52.35,52.37,52.34,52.35
201901242230,52.35,52.37,52.34,52.35
201901242231,52.35,52.38,52.35,52.36
201901242232,52.36,52.39,52.22,52.22
201901242233,52.22,52.33,52.21,52.28
201901242234,52.28,52.28,52.18,52.21
201901242235,52.21,52.24,52.18,52.21
201901242236,52.21,52.26,52.19,52.21
201901242237,52.21,52.24,52.17,52.19
201901242238,52.19,52.2,52.14,52.2
201901242239,52.2,52.3,52.17,52.29
201901242240,52.29,52.32,52.27,52.32
201901242241,52.32,52.33,52.3,52.31
201901242242,52.31,52.32,52.21,52.24
201901242243,52.24,52.26,52.22,52.22
201901242244,52.22,52.24,52.21,52.21
201901242245,52.21,52.23,52.2,52.22
201901242246,52.22,52.23,52.17,52.18
201901242247,52.18,52.2,52.17,52.18
201901242248,52.18,52.19,52.14,52.15
201901242249,52.15,52.2,52.13,52.2
201901242250,52.2,52.2,52.11,52.12
201901242251,52.12,52.21,52.06,52.21
201901242252,52.21,52.21,52.18,52.21
201901242253,52.21,52.27,52.21,52.27
201901242254,52.27,52.28,52.25,52.26
201901242255,52.26,52.29,52.25,52.27
201901242256,52.27,52.27,52.21,52.25
201901242257,52.25,52.26,52.22,52.23
201901242258,52.23,52.24,52.21,52.23
201901242259,52.23,52.23,52.17,52.21
201901242300,52.21,52.29,52.21,52.27
201901242301,52.27,52.37,52.27,52.35
201901242302,52.35,52.39,52.34,52.37
201901242303,52.37,52.42,52.35,52.37
201901242304,52.37,52.45,52.37,52.44
201901242305,52.44,52.46,52.43,52.45
201901242306,52.45,52.55,52.45,52.55
201901242307,52.55,52.57,52.54,52.55
201901242308,52.55,52.57,52.52,52.54
201901242309,52.54,52.54,52.51,52.53
201901242310,52.53,52.56,52.43,52.47
201901242311,52.47,52.51,52.45,52.47
201901242312,52.47,52.5,52.44,52.45
201901242313,52.45,52.48,52.45,52.47
201901242314,52.47,52.53,52.47,52.51
201901242315,52.5,52.55,52.5,52.55
201901242316,52.54,52.61,52.54,52.59
201901242317,52.59,52.65,52.59,52.65
201901242318,52.65,52.67,52.58,52.58
201901242319,52.58,52.6,52.56,52.56
201901242320,52.56,52.58,52.52,52.55
201901242321,52.55,52.57,52.47,52.5
201901242322,52.49,52.56,52.47,52.55
201901242323,52.55,52.65,52.55,52.62
201901242324,52.62,52.64,52.6,52.62
201901242325,52.62,52.69,52.62,52.67
201901242326,52.67,52.71,52.6,52.61
201901242327,52.61,52.61,52.56,52.57
201901242328,52.58,52.66,52.58,52.63
201901242329,52.63,52.69,52.63,52.65
201901242330,52.65,52.7,52.64,52.67
201901242331,52.67,52.7,52.59,52.61
201901242332,52.61,52.65,52.56,52.58
201901242333,52.58,52.64,52.57,52.64
201901242334,52.64,52.75,52.64,52.72
201901242335,52.72,52.78,52.68,52.75
201901242336,52.75,52.8,52.69,52.71
201901242337,52.72,52.73,52.66,52.67
201901242338,52.67,52.68,52.59,52.6
201901242339,52.6,52.62,52.58,52.61
201901242340,52.61,52.64,52.56,52.58
201901242341,52.58,52.61,52.54,52.59
201901242342,52.59,52.63,52.59,52.62
201901242343,52.63,52.68,52.62,52.66
201901242344,52.66,52.69,52.66,52.66
201901242345,52.66,52.72,52.66,52.71
201901242346,52.71,52.73,52.66,52.66
201901242347,52.66,52.74,52.64,52.73
201901242348,52.73,52.75,52.67,52.68
201901242349,52.69,52.7,52.64,52.64
201901242350,52.64,52.7,52.63,52.68
201901242351,52.68,52.74,52.68,52.72
201901242352,52.73,52.74,52.69,52.69
201901242353,52.69,52.74,52.65,52.66
201901242354,52.66,52.72,52.66,52.69
201901242355,52.69,52.72,52.64,52.64
201901242356,52.64,52.72,52.64,52.7
201901242357,52.7,52.78,52.7,52.76
201901242358,52.76,52.77,52.72,52.74
201901242359,52.74,52.75,52.7,52.71
201901250000,52.71,52.71,52.65,52.65
201901250001,52.65,52.75,52.65,52.71
201901250002,52.71,52.75,52.67,52.67
201901250003,52.67,52.74,52.67,52.7
201901250004,52.71,52.73,52.68,52.69
201901250005,52.69,52.71,52.67,52.7
201901250006,52.7,52.7,52.64,52.65
201901250007,52.65,52.66,52.57,52.59
201901250008,52.59,52.6,52.57,52.59
201901250009,52.59,52.76,52.59,52.75
201901250010,52.75,52.78,52.73,52.76
201901250011,52.76,52.78,52.67,52.68
201901250012,52.68,52.72,52.65,52.66
201901250013,52.66,52.69,52.64,52.65
201901250014,52.65,52.67,52.63,52.65
201901250015,52.65,52.74,52.65,52.72
201901250016,52.72,52.76,52.69,52.74
201901250017,52.74,52.75,52.67,52.68
201901250018,52.68,52.7,52.62,52.67
201901250019,52.67,52.76,52.67,52.75
201901250020,52.75,52.76,52.74,52.76
201901250021,52.76,52.9,52.72,52.74
201901250022,52.74,52.76,52.7,52.73
201901250023,52.73,52.75,52.72,52.74
201901250024,52.74,52.78,52.71,52.77
201901250025,52.77,52.8,52.76,52.8
201901250026,52.8,52.85,52.8,52.81
201901250027,52.81,52.81,52.78,52.8
201901250028,52.8,52.83,52.8,52.83
201901250029,52.83,52.83,52.79,52.8
201901250030,52.8,52.8,52.73,52.74
201901250031,52.74,52.75,52.71,52.74
201901250032,52.74,52.74,52.71,52.74
201901250033,52.74,52.85,52.73,52.83
201901250034,52.83,52.88,52.82,52.82
201901250035,52.82,52.87,52.82,52.85
201901250036,52.85,52.85,52.81,52.85
201901250037,52.85,52.85,52.79,52.79
201901250038,52.79,52.8,52.77,52.79
201901250039,52.79,52.83,52.79,52.83
201901250040,52.83,52.84,52.78,52.79
201901250041,52.79,52.84,52.78,52.83
201901250042,52.83,52.87,52.8,52.85
201901250043,52.85,52.85,52.82,52.85
201901250044,52.85,52.87,52.82,52.82
201901250045,52.82,52.82,52.79,52.81
201901250046,52.81,52.83,52.81,52.82
201901250047,52.82,52.85,52.82,52.83
201901250048,52.83,52.83,52.74,52.74
201901250049,52.75,52.78,52.74,52.74
201901250050,52.75,52.78,52.74,52.75
201901250051,52.75,52.78,52.74,52.74
201901250052,52.74,52.81,52.74,52.79
201901250053,52.79,52.81,52.78,52.79
201901250054,52.79,52.81,52.75,52.77
201901250055,52.77,52.82,52.77,52.8
201901250056,52.8,52.86,52.8,52.83
201901250057,52.83,52.88,52.81,52.87
201901250058,52.87,52.88,52.82,52.83
201901250059,52.83,52.86,52.79,52.82
201901250100,52.82,52.82,52.56,52.66
201901250101,52.66,52.77,52.64,52.75
201901250102,52.75,52.75,52.61,52.68
201901250103,52.68,52.75,52.62,52.65
201901250104,52.65,52.67,52.57,52.59
201901250105,52.6,52.75,52.52,52.74
201901250106,52.74,53.17,52.74,53.14
201901250107,53.14,53.22,53.13,53.16
201901250108,53.16,53.16,53.05,53.05
201901250109,53.05,53.05,52.92,52.95
201901250110,52.95,53.03,52.88,52.93
201901250111,52.92,52.93,52.7,52.78
201901250112,52.78,52.78,52.71,52.75
201901250113,52.74,52.74,52.6,52.73
201901250114,52.72,52.8,52.69,52.69
201901250115,52.69,52.75,52.67,52.71
201901250116,52.71,52.71,52.62,52.65
201901250117,52.65,52.76,52.65,52.75
201901250118,52.75,52.91,52.73,52.86
201901250119,52.86,52.88,52.82,52.85
201901250120,52.85,52.88,52.82,52.87
201901250121,52.87,52.89,52.72,52.75
201901250122,52.75,52.82,52.75,52.79
201901250123,52.79,52.86,52.79,52.84
201901250124,52.84,52.97,52.82,52.94
201901250125,52.94,53.01,52.88,52.9
201901250126,52.9,52.92,52.87,52.89
201901250127,52.89,52.91,52.81,52.89
201901250128,52.89,53.02,52.89,53.01
201901250129,53,53.02,52.83,52.86
201901250130,52.86,52.86,52.76,52.85
201901250131,52.85,52.93,52.84,52.92
201901250132,52.92,52.97,52.92,52.96
201901250133,52.96,53.01,52.96,52.99
201901250134,52.99,53,52.94,52.97
201901250135,52.97,53.05,52.97,52.98
201901250136,52.98,52.98,52.95,52.96
201901250137,52.96,53.04,52.91,52.93
201901250138,52.91,52.97,52.91,52.96
201901250139,52.95,53.08,52.95,53.04
201901250140,53.04,53.13,53.04,53.08
201901250141,53.08,53.12,53.07,53.08
201901250142,53.09,53.13,53.07,53.11
201901250143,53.11,53.13,53.09,53.12
201901250144,53.12,53.13,53.09,53.12
201901250145,53.12,53.17,53.06,53.1
201901250146,53.1,53.13,53.09,53.11
201901250147,53.11,53.2,53.1,53.15
201901250148,53.15,53.18,53.14,53.17
201901250149,53.17,53.38,53.17,53.34
201901250150,53.32,53.4,53.32,53.36
201901250151,53.36,53.38,53.32,53.35
201901250152,53.35,53.35,53.26,53.29
201901250153,53.29,53.36,53.29,53.34
201901250154,53.34,53.34,53.29,53.32
201901250155,53.32,53.38,53.28,53.3
201901250156,53.3,53.32,53.25,53.26
201901250157,53.26,53.27,53.21,53.25
201901250158,53.25,53.27,53.22,53.24
201901250159,53.24,53.24,53.19,53.2
201901250200,53.21,53.22,53.17,53.17
201901250201,53.17,53.23,53.16,53.23
201901250202,53.23,53.23,53.19,53.21
201901250203,53.19,53.25,53.18,53.24
201901250204,53.24,53.27,53.23,53.27
201901250205,53.27,53.27,53.22,53.25
201901250206,53.25,53.26,53.19,53.21
201901250207,53.21,53.23,53.2,53.23
201901250208,53.23,53.25,53.21,53.23
201901250209,53.23,53.27,53.17,53.18
201901250210,53.18,53.21,53.16,53.2
201901250211,53.2,53.23,53.2,53.21
201901250212,53.21,53.24,53.2,53.23
201901250213,53.23,53.26,53.23,53.26
201901250214,53.26,53.26,53.22,53.24
201901250215,53.24,53.3,53.23,53.28
201901250216,53.28,53.3,53.25,53.27
201901250217,53.27,53.28,53.21,53.22
201901250218,53.22,53.23,53.21,53.22
201901250219,53.22,53.23,53.17,53.17
201901250220,53.17,53.19,53.13,53.16
201901250221,53.16,53.17,53.1,53.12
201901250222,53.12,53.15,53.12,53.12
201901250223,53.12,53.14,53.12,53.14
201901250224,53.14,53.16,53.13,53.14
201901250225,53.14,53.17,53.14,53.17
201901250226,53.17,53.19,53.16,53.18
201901250227,53.18,53.19,53.16,53.16
201901250228,53.16,53.18,53.16,53.17
201901250229,53.17,53.19,53.14,53.15
201901250230,53.15,53.24,53.15,53.23
201901250231,53.23,53.24,53.22,53.23
201901250232,53.23,53.29,53.23,53.25
201901250233,53.25,53.28,53.21,53.22
201901250234,53.22,53.25,53.19,53.19
201901250235,53.19,53.19,53.15,53.15
201901250236,53.15,53.17,53.12,53.12
201901250237,53.12,53.16,53.11,53.12
201901250238,53.12,53.13,53.11,53.11
201901250239,53.11,53.12,53.09,53.11
201901250240,53.11,53.14,53.09,53.12
201901250241,53.12,53.13,53.09,53.12
201901250242,53.12,53.13,53.1,53.11
201901250243,53.11,53.18,53.1,53.18
201901250244,53.18,53.18,53.15,53.16
201901250245,53.16,53.18,53.14,53.16
201901250246,53.16,53.18,53.15,53.17
201901250247,53.17,53.18,53.16,53.17
201901250248,53.17,53.18,53.14,53.15
201901250249,53.15,53.16,53.14,53.14
201901250250,53.14,53.17,53.12,53.16
201901250251,53.16,53.18,53.14,53.14
201901250252,53.14,53.14,53.09,53.1
201901250253,53.1,53.14,53.1,53.11
201901250254,53.11,53.11,53.09,53.1
201901250255,53.1,53.12,53.1,53.12
201901250256,53.12,53.12,53.08,53.11
201901250257,53.11,53.12,53.1,53.1
201901250258,53.09,53.1,53.07,53.08
201901250259,53.08,53.11,53.07,53.11
201901250300,53.11,53.15,53.1,53.15
201901250301,53.15,53.16,53.14,53.14
201901250302,53.14,53.15,53.12,53.13
201901250303,53.13,53.13,53.1,53.11
201901250304,53.11,53.11,53.05,53.09
201901250305,53.09,53.11,53.08,53.1
201901250306,53.1,53.12,53.09,53.11
201901250307,53.1,53.11,53.08,53.1
201901250308,53.1,53.11,53.08,53.1
201901250309,53.11,53.14,53.1,53.14
201901250310,53.14,53.15,53.1,53.13
201901250311,53.13,53.21,53.13,53.14
201901250312,53.14,53.17,53.14,53.14
201901250313,53.14,53.16,53.14,53.15
201901250314,53.15,53.17,53.14,53.15
201901250315,53.15,53.18,53.14,53.17
201901250316,53.17,53.2,53.17,53.19
201901250317,53.19,53.2,53.17,53.2
201901250318,53.2,53.21,53.18,53.2
201901250319,53.2,53.2,53.19,53.19
201901250320,53.19,53.22,53.19,53.22
201901250321,53.22,53.27,53.22,53.24
201901250322,53.24,53.24,53.15,53.17
201901250323,53.16,53.16,53.14,53.14
201901250324,53.14,53.15,53.12,53.13
201901250325,53.13,53.13,53.1,53.11
201901250326,53.11,53.13,53.1,53.11
201901250327,53.11,53.16,53.11,53.15
201901250328,53.15,53.2,53.13,53.18
201901250329,53.17,53.24,53.17,53.2
201901250330,53.2,53.23,53.19,53.22
201901250331,53.22,53.22,53.16,53.17
201901250332,53.17,53.2,53.17,53.18
201901250333,53.18,53.26,53.18,53.25
201901250334,53.25,53.34,53.25,53.33
201901250335,53.33,53.37,53.32,53.35
201901250336,53.35,53.42,53.35,53.4
201901250337,53.4,53.45,53.39,53.39
201901250338,53.39,53.41,53.33,53.36
201901250339,53.36,53.38,53.33,53.38
201901250340,53.38,53.39,53.35,53.37
201901250341,53.37,53.38,53.35,53.36
201901250342,53.36,53.37,53.35,53.37
201901250343,53.37,53.37,53.32,53.32
201901250344,53.32,53.33,53.29,53.29
201901250345,53.29,53.3,53.25,53.25
201901250346,53.25,53.27,53.22,53.24
201901250347,53.24,53.27,53.22,53.24
201901250348,53.24,53.25,53.22,53.23
201901250349,53.23,53.24,53.22,53.22
201901250350,53.22,53.24,53.19,53.19
201901250351,53.19,53.21,53.17,53.21
201901250352,53.21,53.23,53.21,53.22
201901250353,53.22,53.23,53.19,53.21
201901250354,53.21,53.24,53.2,53.2
201901250355,53.2,53.21,53.16,53.19
201901250356,53.19,53.2,53.17,53.18
201901250357,53.18,53.22,53.17,53.22
201901250358,53.22,53.23,53.21,53.23
201901250359,53.23,53.23,53.21,53.22
201901250400,53.22,53.22,53.18,53.19
201901250401,53.19,53.19,53.13,53.14
201901250402,53.14,53.19,53.14,53.15
201901250403,53.15,53.16,53.12,53.14
201901250404,53.14,53.21,53.14,53.18
201901250405,53.18,53.25,53.18,53.22
201901250406,53.22,53.23,53.18,53.18
201901250407,53.18,53.19,53.14,53.17
201901250408,53.17,53.21,53.17,53.19
201901250409,53.19,53.2,53.16,53.18
201901250410,53.18,53.24,53.15,53.17
201901250411,53.17,53.17,53.1,53.11
201901250412,53.11,53.14,53.11,53.12
201901250413,53.12,53.12,53.09,53.12
201901250414,53.12,53.15,53.11,53.12
201901250415,53.12,53.16,53.11,53.12
201901250416,53.12,53.15,53.12,53.13
201901250417,53.13,53.15,53.12,53.13
201901250418,53.13,53.15,53.12,53.14
201901250419,53.14,53.16,53.12,53.13
201901250420,53.13,53.17,53.09,53.17
201901250421,53.17,53.27,53.16,53.26
201901250422,53.26,53.27,53.23,53.24
201901250423,53.24,53.24,53.13,53.14
201901250424,53.15,53.15,53.1,53.13
201901250425,53.13,53.13,53.07,53.08
201901250426,53.08,53.13,53.08,53.11
201901250427,53.11,53.11,52.94,52.99
201901250428,52.99,53.22,52.94,53.14
201901250429,53.14,53.16,53.11,53.15
201901250430,53.15,53.15,53.09,53.12
201901250431,53.12,53.15,53.05,53.06
201901250432,53.06,53.11,53.06,53.11
201901250433,53.11,53.11,53.08,53.1
201901250434,53.1,53.11,53.08,53.1
201901250435,53.1,53.1,53.07,53.08
201901250436,53.08,53.11,53.08,53.1
201901250437,53.1,53.11,53.1,53.11
201901250438,53.11,53.12,53.1,53.1
201901250439,53.1,53.12,53.1,53.12
201901250440,53.12,53.14,53.12,53.14
201901250441,53.14,53.14,53.11,53.13
201901250442,53.13,53.14,53.12,53.14
201901250443,53.14,53.16,53.14,53.16
201901250444,53.16,53.19,53.15,53.19
201901250445,53.19,53.19,53.16,53.17
201901250446,53.17,53.19,53.17,53.17
201901250447,53.17,53.17,53.15,53.16
201901250448,53.16,53.17,53.15,53.16
201901250449,53.16,53.16,53.15,53.16
201901250450,53.16,53.17,53.16,53.16
201901250451,53.16,53.16,53.15,53.16
201901250452,53.16,53.17,53.16,53.16
201901250453,53.16,53.16,53.15,53.16
201901250454,53.16,53.17,53.15,53.16
201901250455,53.16,53.16,53.16,53.16
201901250456,53.16,53.16,53.15,53.16
201901250457,53.16,53.18,53.16,53.18
201901250458,53.18,53.19,53.18,53.18
201901250459,53.18,53.18,53.16,53.17
201901250500,53.17,53.17,53.16,53.16
201901250501,53.16,53.18,53.15,53.18
201901250502,53.18,53.19,53.17,53.19
201901250503,53.19,53.19,53.18,53.19
201901250504,53.19,53.2,53.19,53.19
201901250505,53.19,53.21,53.18,53.2
201901250506,53.2,53.22,53.2,53.21
201901250507,53.21,53.23,53.21,53.22
201901250508,53.22,53.23,53.22,53.22
201901250509,53.22,53.23,53.22,53.23
201901250510,53.23,53.23,53.22,53.23
201901250511,53.23,53.26,53.23,53.24
201901250512,53.24,53.26,53.24,53.26
201901250513,53.26,53.26,53.25,53.26
201901250514,53.26,53.26,53.24,53.25
201901250515,53.25,53.25,53.24,53.24
201901250516,53.24,53.24,53.23,53.23
201901250517,53.23,53.23,53.22,53.22
201901250518,53.22,53.23,53.21,53.23
201901250519,53.23,53.23,53.22,53.22
201901250520,53.22,53.23,53.21,53.21
201901250521,53.21,53.21,53.19,53.21
201901250522,53.21,53.21,53.2,53.2
201901250523,53.2,53.21,53.2,53.21
201901250524,53.21,53.22,53.21,53.22
201901250525,53.22,53.22,53.21,53.22
201901250526,53.22,53.22,53.21,53.22
201901250527,53.22,53.22,53.21,53.22
201901250528,53.22,53.22,53.21,53.21
201901250529,53.21,53.22,53.21,53.22
201901250530,53.22,53.23,53.22,53.23
201901250531,53.23,53.23,53.22,53.22
201901250532,53.22,53.22,53.22,53.22
201901250533,53.22,53.22,53.21,53.22
201901250534,53.22,53.22,53.22,53.22
201901250535,53.22,53.22,53.22,53.22
201901250536,53.22,53.22,53.22,53.22
201901250537,53.22,53.22,53.22,53.22
201901250538,53.22,53.22,53.22,53.22
201901250539,53.22,53.22,53.22,53.22
201901250540,53.22,53.22,53.2,53.21
201901250541,53.21,53.21,53.2,53.2
201901250542,53.2,53.2,53.2,53.2
201901250543,53.2,53.21,53.2,53.21
201901250544,53.21,53.21,53.21,53.21
201901250545,53.21,53.21,53.21,53.21
201901250546,53.21,53.22,53.16,53.19
201901250547,53.19,53.19,53.17,53.18
201901250548,53.18,53.18,53.18,53.18
201901250549,53.18,53.19,53.17,53.18
201901250550,53.18,53.18,53.15,53.15
201901250551,53.15,53.16,53.15,53.16
201901250552,53.16,53.16,53.13,53.13
201901250553,53.13,53.18,53.13,53.18
201901250554,53.18,53.19,53.18,53.18
201901250555,53.18,53.19,53.18,53.19
201901250556,53.19,53.19,53.19,53.19
201901250557,53.19,53.19,53.15,53.16
201901250558,53.16,53.17,53.16,53.16
201901250559,53.16,53.19,53.16,53.18
201901250600,53.18,53.19,53.17,53.18
201901250601,53.18,53.19,53.17,53.19
201901250602,53.19,53.19,53.17,53.17
201901250603,53.17,53.17,53.16,53.17
201901250604,53.17,53.17,53.14,53.15
201901250605,53.15,53.15,53.13,53.15
201901250606,53.15,53.15,53.15,53.15
201901250607,53.15,53.15,53.14,53.14
201901250608,53.14,53.14,53.14,53.14
201901250609,53.14,53.14,53.12,53.13
201901250610,53.13,53.13,53.1,53.11
201901250611,53.11,53.11,53.09,53.1
201901250612,53.1,53.1,53.09,53.1
201901250613,53.1,53.1,53.09,53.1
201901250614,53.1,53.11,53.09,53.1
201901250615,53.1,53.11,53.08,53.09
201901250616,53.09,53.1,53.08,53.1
201901250617,53.1,53.11,53.1,53.1
201901250618,53.1,53.11,53.1,53.1
201901250619,53.1,53.11,53.09,53.11
201901250620,53.11,53.11,53.1,53.11
201901250621,53.11,53.11,53.1,53.1
201901250622,53.1,53.12,53.1,53.1
201901250623,53.11,53.11,53.11,53.11
201901250624,53.11,53.14,53.1,53.13
201901250625,53.13,53.13,53.1,53.1
201901250626,53.1,53.1,53.1,53.1
201901250627,53.1,53.11,53.1,53.11
201901250628,53.11,53.12,53.11,53.12
201901250629,53.12,53.14,53.12,53.13
201901250630,53.13,53.15,53.12,53.12
201901250631,53.12,53.13,53.12,53.12
201901250632,53.12,53.13,53.12,53.13
201901250633,53.13,53.14,53.13,53.14
201901250634,53.14,53.14,53.14,53.14
201901250635,53.14,53.14,53.14,53.14
201901250636,53.14,53.14,53.13,53.14
201901250637,53.14,53.15,53.14,53.15
201901250638,53.15,53.15,53.15,53.15
201901250639,53.15,53.19,53.15,53.18
201901250640,53.18,53.19,53.18,53.19
201901250641,53.19,53.19,53.18,53.18
201901250642,53.18,53.18,53.18,53.18
201901250643,53.18,53.19,53.18,53.18
201901250644,53.18,53.19,53.18,53.19
201901250645,53.19,53.21,53.19,53.2
201901250646,53.2,53.2,53.19,53.19
201901250647,53.19,53.19,53.19,53.19
201901250648,53.19,53.19,53.18,53.19
201901250649,53.19,53.2,53.19,53.2
201901250650,53.2,53.25,53.2,53.24
201901250651,53.24,53.24,53.2,53.2
201901250652,53.2,53.2,53.19,53.2
201901250653,53.2,53.2,53.19,53.19
201901250654,53.19,53.2,53.19,53.2
201901250655,53.2,53.2,53.14,53.15
201901250656,53.15,53.16,53.14,53.15
201901250657,53.15,53.16,53.14,53.15
201901250658,53.15,53.15,53.14,53.15
201901250659,53.15,53.16,53.15,53.15
