日時,始値(BID),高値(BID),安値(BID),終値(BID)
201901170800,52.29,52.31,52.27,52.27
201901170801,52.27,52.27,52.24,52.24
201901170802,52.24,52.24,52.2,52.23
201901170803,52.23,52.24,52.22,52.22
201901170804,52.22,52.23,52.22,52.22
201901170805,52.22,52.22,52.21,52.21
201901170806,52.21,52.21,52.18,52.19
201901170807,52.19,52.22,52.19,52.21
201901170808,52.21,52.23,52.21,52.22
201901170809,52.22,52.23,52.21,52.23
201901170810,52.23,52.23,52.23,52.23
201901170811,52.23,52.24,52.23,52.24
201901170812,52.24,52.24,52.23,52.23
201901170813,52.23,52.25,52.23,52.25
201901170814,52.25,52.25,52.24,52.24
201901170815,52.24,52.25,52.24,52.25
201901170816,52.25,52.25,52.25,52.25
201901170817,52.25,52.25,52.24,52.24
201901170818,52.24,52.24,52.24,52.24
201901170819,52.24,52.24,52.24,52.24
201901170820,52.24,52.24,52.24,52.24
201901170821,52.24,52.24,52.23,52.23
201901170822,52.23,52.23,52.22,52.23
201901170823,52.23,52.23,52.23,52.23
201901170824,52.23,52.24,52.23,52.23
201901170825,52.23,52.23,52.23,52.23
201901170826,52.23,52.23,52.22,52.23
201901170827,52.23,52.23,52.19,52.21
201901170828,52.21,52.21,52.2,52.21
201901170829,52.21,52.22,52.21,52.21
201901170830,52.21,52.23,52.21,52.22
201901170831,52.22,52.23,52.22,52.23
201901170832,52.23,52.24,52.23,52.24
201901170833,52.24,52.25,52.24,52.25
201901170834,52.25,52.25,52.25,52.25
201901170835,52.25,52.25,52.25,52.25
201901170836,52.25,52.28,52.25,52.27
201901170837,52.27,52.27,52.24,52.24
201901170838,52.24,52.25,52.24,52.25
201901170839,52.25,52.25,52.24,52.24
201901170840,52.24,52.24,52.23,52.23
201901170841,52.23,52.24,52.23,52.24
201901170842,52.24,52.24,52.24,52.24
201901170843,52.24,52.25,52.24,52.25
201901170844,52.25,52.25,52.25,52.25
201901170845,52.25,52.27,52.25,52.26
201901170846,52.26,52.27,52.26,52.27
201901170847,52.27,52.27,52.26,52.27
201901170848,52.27,52.28,52.27,52.27
201901170849,52.27,52.27,52.25,52.25
201901170850,52.25,52.26,52.25,52.26
201901170851,52.26,52.26,52.26,52.26
201901170852,52.26,52.26,52.26,52.26
201901170853,52.26,52.26,52.25,52.25
201901170854,52.25,52.25,52.24,52.24
201901170855,52.24,52.24,52.24,52.24
201901170856,52.24,52.24,52.23,52.24
201901170857,52.24,52.25,52.24,52.24
201901170858,52.24,52.24,52.24,52.24
201901170859,52.24,52.24,52.23,52.23
201901170900,52.23,52.23,52.22,52.23
201901170901,52.23,52.23,52.23,52.23
201901170902,52.23,52.23,52.23,52.23
201901170903,52.23,52.23,52.23,52.23
201901170904,52.23,52.23,52.21,52.21
201901170905,52.21,52.21,52.2,52.2
201901170906,52.2,52.2,52.19,52.19
201901170907,52.19,52.19,52.18,52.18
201901170908,52.18,52.19,52.18,52.19
201901170909,52.19,52.19,52.19,52.19
201901170910,52.19,52.19,52.18,52.18
201901170911,52.18,52.18,52.14,52.15
201901170912,52.15,52.17,52.15,52.16
201901170913,52.16,52.16,52.14,52.15
201901170914,52.15,52.15,52.14,52.14
201901170915,52.14,52.15,52.14,52.15
201901170916,52.15,52.18,52.15,52.17
201901170917,52.17,52.18,52.17,52.17
201901170918,52.17,52.17,52.17,52.17
201901170919,52.17,52.17,52.17,52.17
201901170920,52.17,52.17,52.17,52.17
201901170921,52.17,52.18,52.17,52.18
201901170922,52.18,52.18,52.17,52.17
201901170923,52.17,52.18,52.17,52.18
201901170924,52.18,52.18,52.17,52.17
201901170925,52.17,52.17,52.16,52.17
201901170926,52.17,52.17,52.16,52.16
201901170927,52.16,52.16,52.16,52.16
201901170928,52.16,52.19,52.16,52.19
201901170929,52.19,52.2,52.16,52.16
201901170930,52.16,52.17,52.13,52.13
201901170931,52.13,52.13,52.11,52.11
201901170932,52.11,52.11,52.09,52.09
201901170933,52.09,52.09,52.05,52.05
201901170934,52.05,52.08,52.05,52.07
201901170935,52.07,52.08,52.07,52.08
201901170936,52.08,52.11,52.08,52.1
201901170937,52.1,52.11,52.1,52.11
201901170938,52.11,52.11,52.11,52.11
201901170939,52.11,52.11,52.1,52.1
201901170940,52.1,52.11,52.09,52.09
201901170941,52.09,52.1,52.09,52.1
201901170942,52.1,52.1,52.1,52.1
201901170943,52.1,52.12,52.1,52.12
201901170944,52.12,52.12,52.1,52.1
201901170945,52.1,52.1,52.09,52.1
201901170946,52.1,52.1,52.1,52.1
201901170947,52.1,52.11,52.1,52.1
201901170948,52.1,52.1,52.08,52.09
201901170949,52.09,52.09,52.08,52.08
201901170950,52.08,52.08,52.08,52.08
201901170951,52.08,52.09,52.08,52.09
201901170952,52.09,52.1,52.08,52.08
201901170953,52.08,52.09,52.08,52.09
201901170954,52.09,52.09,52.06,52.06
201901170955,52.06,52.07,52.06,52.07
201901170956,52.07,52.07,52.06,52.07
201901170957,52.07,52.08,52.07,52.08
201901170958,52.08,52.09,52.08,52.08
201901170959,52.08,52.09,52.08,52.09
201901171000,52.09,52.09,51.97,52
201901171001,52,52.03,52,52.01
201901171002,52.01,52.08,52,52.07
201901171003,52.07,52.09,52.06,52.07
201901171004,52.07,52.15,52.07,52.14
201901171005,52.14,52.15,52.13,52.13
201901171006,52.13,52.15,52.13,52.15
201901171007,52.15,52.15,52.13,52.14
201901171008,52.14,52.17,52.13,52.16
201901171009,52.16,52.17,52.14,52.14
201901171010,52.14,52.14,52.12,52.12
201901171011,52.12,52.12,52.08,52.08
201901171012,52.08,52.09,52.05,52.07
201901171013,52.07,52.08,52.07,52.08
201901171014,52.08,52.08,52.08,52.08
201901171015,52.08,52.08,52.04,52.05
201901171016,52.05,52.07,52.03,52.07
201901171017,52.07,52.12,52.07,52.12
201901171018,52.12,52.14,52.11,52.13
201901171019,52.13,52.14,52.11,52.11
201901171020,52.11,52.11,52.09,52.11
201901171021,52.11,52.12,52.1,52.12
201901171022,52.12,52.13,52.11,52.11
201901171023,52.11,52.13,52.11,52.13
201901171024,52.13,52.15,52.13,52.14
201901171025,52.14,52.14,52.09,52.09
201901171026,52.09,52.1,52.09,52.1
201901171027,52.1,52.11,52.09,52.1
201901171028,52.1,52.1,52.07,52.09
201901171029,52.09,52.09,52.07,52.07
201901171030,52.07,52.08,52.07,52.07
201901171031,52.07,52.07,52.05,52.06
201901171032,52.06,52.06,52.04,52.05
201901171033,52.05,52.05,52.04,52.04
201901171034,52.04,52.06,52.04,52.04
201901171035,52.04,52.04,52.01,52.03
201901171036,52.03,52.06,52.03,52.05
201901171037,52.05,52.05,52.03,52.04
201901171038,52.04,52.05,52.02,52.02
201901171039,52.02,52.04,52.01,52.01
201901171040,52.01,52.01,51.97,51.97
201901171041,51.97,51.97,51.94,51.97
201901171042,51.97,51.99,51.96,51.99
201901171043,51.99,52.02,51.99,52.01
201901171044,52.01,52.01,52,52.01
201901171045,52.01,52.01,51.97,51.97
201901171046,51.97,51.98,51.8,51.86
201901171047,51.86,51.87,51.82,51.84
201901171048,51.84,51.87,51.83,51.86
201901171049,51.86,51.87,51.85,51.86
201901171050,51.86,51.86,51.82,51.83
201901171051,51.83,51.83,51.82,51.82
201901171052,51.82,51.85,51.82,51.83
201901171053,51.83,51.86,51.83,51.85
201901171054,51.85,51.85,51.79,51.8
201901171055,51.8,51.82,51.8,51.81
201901171056,51.81,51.81,51.79,51.8
201901171057,51.8,51.81,51.79,51.81
201901171058,51.81,51.82,51.8,51.82
201901171059,51.82,51.87,51.82,51.86
201901171100,51.86,51.9,51.86,51.9
201901171101,51.9,51.92,51.88,51.91
201901171102,51.91,51.92,51.89,51.9
201901171103,51.9,51.91,51.89,51.9
201901171104,51.9,51.91,51.9,51.9
201901171105,51.9,51.93,51.9,51.93
201901171106,51.93,51.94,51.93,51.93
201901171107,51.93,51.94,51.91,51.92
201901171108,51.92,51.94,51.92,51.94
201901171109,51.94,51.94,51.92,51.92
201901171110,51.92,51.93,51.91,51.92
201901171111,51.92,51.92,51.89,51.89
201901171112,51.89,51.91,51.89,51.9
201901171113,51.9,51.91,51.9,51.91
201901171114,51.91,51.92,51.91,51.91
201901171115,51.91,51.94,51.91,51.94
201901171116,51.94,51.95,51.93,51.93
201901171117,51.93,51.94,51.93,51.94
201901171118,51.94,51.94,51.94,51.94
201901171119,51.94,51.95,51.94,51.94
201901171120,51.94,51.95,51.93,51.93
201901171121,51.93,51.95,51.93,51.95
201901171122,51.95,51.95,51.93,51.95
201901171123,51.95,51.97,51.94,51.96
201901171124,51.96,51.98,51.96,51.98
201901171125,51.98,51.98,51.97,51.97
201901171126,51.97,51.98,51.97,51.98
201901171127,51.98,51.98,51.98,51.98
201901171128,51.98,51.99,51.98,51.99
201901171129,51.99,51.99,51.98,51.98
201901171130,51.99,51.99,51.94,51.95
201901171131,51.95,51.97,51.95,51.95
201901171132,51.95,51.97,51.94,51.97
201901171133,51.97,51.99,51.97,51.97
201901171134,51.97,51.98,51.97,51.97
201901171135,51.97,52,51.96,51.99
201901171136,51.99,51.99,51.97,51.98
201901171137,51.98,51.99,51.97,51.98
201901171138,51.98,51.99,51.97,51.97
201901171139,51.97,52,51.97,51.99
201901171140,51.99,52,51.97,51.97
201901171141,51.97,51.99,51.97,51.99
201901171142,51.99,51.99,51.97,51.98
201901171143,51.98,51.98,51.97,51.97
201901171144,51.98,51.98,51.97,51.97
201901171145,51.97,51.97,51.96,51.96
201901171146,51.96,51.96,51.95,51.96
201901171147,51.96,52.01,51.96,52
201901171148,52,52.01,52,52.01
201901171149,52.01,52.01,51.99,51.99
201901171150,51.99,52.01,51.99,52
201901171151,52,52.02,52,52.01
201901171152,52.01,52.01,51.99,51.99
201901171153,51.99,52.01,51.99,52.01
201901171154,52.01,52.01,52,52.01
201901171155,52.01,52.01,52,52
201901171156,52,52.02,52,52.02
201901171157,52.02,52.03,52.01,52.01
201901171158,52.01,52.02,52.01,52.02
201901171159,52.02,52.02,52.01,52.02
201901171200,52.02,52.05,52.02,52.03
201901171201,52.03,52.03,52.02,52.03
201901171202,52.03,52.03,52.02,52.03
201901171203,52.03,52.04,52.02,52.04
201901171204,52.04,52.06,52.02,52.03
201901171205,52.03,52.04,52,52
201901171206,52,52.01,51.98,52
201901171207,52,52,52,52
201901171208,52,52.02,52,52.01
201901171209,52,52.03,52,52
201901171210,52,52.01,51.99,52
201901171211,52,52.02,52,52.02
201901171212,52.02,52.02,52.01,52.01
201901171213,52.01,52.02,52.01,52.02
201901171214,52.02,52.04,52.02,52.03
201901171215,52.03,52.07,52.03,52.06
201901171216,52.06,52.07,52.05,52.06
201901171217,52.06,52.07,52.06,52.06
201901171218,52.06,52.06,52.06,52.06
201901171219,52.06,52.06,52.05,52.05
201901171220,52.05,52.06,52.04,52.05
201901171221,52.05,52.06,52.05,52.06
201901171222,52.06,52.06,52.04,52.04
201901171223,52.04,52.04,52.03,52.03
201901171224,52.03,52.04,52.03,52.04
201901171225,52.04,52.04,52.03,52.04
201901171226,52.04,52.04,52.03,52.03
201901171227,52.03,52.03,52.02,52.02
201901171228,52.02,52.02,52.02,52.02
201901171229,52.02,52.04,52.02,52.03
201901171230,52.03,52.03,52,52.01
201901171231,52.01,52.03,52.01,52.02
201901171232,52.02,52.03,52.01,52.02
201901171233,52.02,52.05,52.01,52.04
201901171234,52.04,52.06,52.04,52.06
201901171235,52.06,52.06,52.05,52.05
201901171236,52.05,52.05,52.04,52.05
201901171237,52.05,52.05,52.04,52.04
201901171238,52.04,52.05,52.04,52.05
201901171239,52.05,52.05,52.03,52.03
201901171240,52.03,52.04,52.03,52.03
201901171241,52.03,52.05,52.03,52.03
201901171242,52.03,52.04,52.03,52.04
201901171243,52.04,52.04,52.04,52.04
201901171244,52.04,52.04,52.04,52.04
201901171245,52.04,52.04,52.02,52.02
201901171246,52.02,52.02,52,52.01
201901171247,52.01,52.01,52,52.01
201901171248,52.01,52.01,52.01,52.01
201901171249,52.01,52.02,52,52.02
201901171250,52.02,52.03,52.02,52.03
201901171251,52.03,52.03,52.02,52.02
201901171252,52.02,52.02,52.02,52.02
201901171253,52.02,52.02,52.01,52.01
201901171254,52.01,52.01,52,52.01
201901171255,52,52.01,52,52
201901171256,52,52.01,52,52
201901171257,52,52.01,52,52
201901171258,52,52,51.98,51.98
201901171259,51.98,51.98,51.97,51.98
201901171300,51.98,51.98,51.98,51.98
201901171301,51.98,51.98,51.96,51.98
201901171302,51.98,51.99,51.98,51.99
201901171303,51.99,51.99,51.99,51.99
201901171304,51.99,52.02,51.96,52.02
201901171305,52.02,52.02,52,52
201901171306,52,52.01,52,52.01
201901171307,52.01,52.01,52,52
201901171308,52,52.01,52,52.01
201901171309,52.01,52.02,52.01,52.01
201901171310,52.01,52.02,52.01,52.02
201901171311,52.02,52.02,52.02,52.02
201901171312,52.02,52.02,52.02,52.02
201901171313,52.02,52.03,52.02,52.03
201901171314,52.03,52.04,52.03,52.03
201901171315,52.03,52.03,52.02,52.02
201901171316,52.02,52.03,52.02,52.02
201901171317,52.02,52.02,52.01,52.01
201901171318,52.01,52.01,52.01,52.01
201901171319,52.01,52.01,52,52
201901171320,52,52,52,52
201901171321,52,52.01,52,52
201901171322,52,52,51.99,51.99
201901171323,51.99,51.99,51.97,51.97
201901171324,51.97,51.97,51.97,51.97
201901171325,51.97,51.97,51.96,51.97
201901171326,51.97,51.98,51.97,51.97
201901171327,51.97,51.98,51.97,51.98
201901171328,51.98,51.98,51.97,51.97
201901171329,51.97,51.97,51.96,51.96
201901171330,51.96,51.97,51.96,51.96
201901171331,51.96,51.96,51.96,51.96
201901171332,51.96,51.96,51.96,51.96
201901171333,51.96,51.97,51.96,51.97
201901171334,51.97,51.99,51.97,51.98
201901171335,51.98,51.99,51.98,51.98
201901171336,51.98,51.99,51.98,51.98
201901171337,51.98,51.98,51.98,51.98
201901171338,51.98,51.98,51.98,51.98
201901171339,51.98,51.98,51.98,51.98
201901171340,51.98,51.98,51.98,51.98
201901171341,51.98,51.98,51.98,51.98
201901171342,51.98,51.98,51.97,51.97
201901171343,51.97,51.98,51.94,51.95
201901171344,51.95,51.96,51.93,51.94
201901171345,51.94,51.97,51.93,51.96
201901171346,51.96,51.98,51.96,51.97
201901171347,51.97,52.01,51.97,52
201901171348,52,52,51.99,51.99
201901171349,52,52.01,52,52
201901171350,52,52,52,52
201901171351,52,52.02,52,52.02
201901171352,52.02,52.03,52.02,52.02
201901171353,52.02,52.03,52.02,52.02
201901171354,52.02,52.02,52,52
201901171355,52,52,51.99,52
201901171356,52,52,51.99,52
201901171357,52,52.01,52,52.01
201901171358,52.01,52.02,52.01,52.01
201901171359,52.01,52.02,52,52.01
201901171400,52.01,52.03,52,52.03
201901171401,52.02,52.03,52.02,52.02
201901171402,52.02,52.03,52.01,52.02
201901171403,52.02,52.02,52.02,52.02
201901171404,52.02,52.02,52.02,52.02
201901171405,52.02,52.02,51.99,51.99
201901171406,51.99,51.99,51.98,51.98
201901171407,51.98,51.98,51.98,51.98
201901171408,51.98,51.98,51.97,51.98
201901171409,51.99,51.99,51.98,51.98
201901171410,51.98,51.98,51.97,51.97
201901171411,51.97,51.99,51.97,51.99
201901171412,51.99,51.99,51.98,51.98
201901171413,51.98,51.99,51.98,51.99
201901171414,51.99,51.99,51.97,51.97
201901171415,51.97,51.97,51.97,51.97
201901171416,51.97,51.97,51.96,51.97
201901171417,51.97,51.97,51.96,51.97
201901171418,51.97,51.97,51.97,51.97
201901171419,51.97,51.97,51.96,51.96
201901171420,51.96,51.97,51.96,51.97
201901171421,51.97,51.97,51.97,51.97
201901171422,51.97,51.97,51.96,51.96
201901171423,51.96,51.96,51.96,51.96
201901171424,51.96,51.96,51.95,51.95
201901171425,51.95,51.95,51.95,51.95
201901171426,51.95,51.95,51.94,51.94
201901171427,51.94,51.95,51.94,51.94
201901171428,51.94,51.95,51.94,51.95
201901171429,51.95,51.96,51.95,51.96
201901171430,51.96,51.97,51.95,51.96
201901171431,51.96,51.96,51.96,51.96
201901171432,51.96,51.96,51.9,51.92
201901171433,51.92,51.94,51.91,51.94
201901171434,51.94,51.94,51.92,51.94
201901171435,51.94,51.94,51.92,51.92
201901171436,51.92,51.92,51.91,51.91
201901171437,51.91,51.91,51.9,51.91
201901171438,51.91,51.92,51.91,51.91
201901171439,51.91,51.92,51.9,51.91
201901171440,51.91,51.92,51.91,51.92
201901171441,51.92,51.92,51.91,51.91
201901171442,51.91,51.91,51.88,51.9
201901171443,51.9,51.9,51.89,51.9
201901171444,51.9,51.93,51.9,51.92
201901171445,51.93,51.95,51.92,51.94
201901171446,51.94,51.95,51.93,51.94
201901171447,51.94,51.95,51.94,51.94
201901171448,51.94,51.95,51.93,51.94
201901171449,51.94,51.94,51.91,51.93
201901171450,51.93,51.95,51.92,51.95
201901171451,51.95,51.96,51.95,51.95
201901171452,51.95,51.99,51.95,51.98
201901171453,51.98,51.99,51.97,51.98
201901171454,51.98,52.01,51.98,52.01
201901171455,52.01,52.01,51.98,51.99
201901171456,51.99,51.99,51.99,51.99
201901171457,51.99,51.99,51.98,51.98
201901171458,51.98,51.99,51.98,51.98
201901171459,51.98,51.99,51.98,51.98
201901171500,51.98,51.99,51.98,51.99
201901171501,51.99,51.99,51.97,51.97
201901171502,51.97,51.98,51.97,51.98
201901171503,51.98,52.02,51.98,52.01
201901171504,52.01,52.02,52,52
201901171505,52,52.01,52,52
201901171506,52,52,51.99,51.99
201901171507,51.99,51.99,51.99,51.99
201901171508,51.99,51.99,51.97,51.98
201901171509,51.98,51.98,51.98,51.98
201901171510,51.98,51.98,51.98,51.98
201901171511,51.98,51.98,51.97,51.97
201901171512,51.97,51.97,51.93,51.95
201901171513,51.95,51.97,51.95,51.96
201901171514,51.96,51.97,51.96,51.97
201901171515,51.97,51.97,51.96,51.96
201901171516,51.96,51.96,51.95,51.95
201901171517,51.95,51.96,51.94,51.94
201901171518,51.94,51.95,51.94,51.94
201901171519,51.94,51.94,51.92,51.92
201901171520,51.92,51.92,51.91,51.92
201901171521,51.92,51.92,51.91,51.92
201901171522,51.92,51.92,51.91,51.92
201901171523,51.92,51.95,51.91,51.94
201901171524,51.94,51.97,51.94,51.94
201901171525,51.94,51.96,51.93,51.96
201901171526,51.96,51.96,51.95,51.95
201901171527,51.95,51.95,51.93,51.93
201901171528,51.93,52,51.93,51.99
201901171529,51.99,52.05,51.99,52.03
201901171530,52.03,52.05,52.03,52.05
201901171531,52.05,52.05,52.03,52.03
201901171532,52.03,52.04,52.02,52.03
201901171533,52.03,52.05,52.03,52.03
201901171534,52.03,52.04,52.03,52.03
201901171535,52.03,52.04,52.02,52.02
201901171536,52.02,52.03,52.01,52.01
201901171537,52.01,52.03,52.01,52.02
201901171538,52.02,52.03,52.01,52.02
201901171539,52.02,52.03,52.02,52.02
201901171540,52.02,52.02,52.01,52.02
201901171541,52.02,52.05,52.02,52.03
201901171542,52.03,52.03,51.99,51.99
201901171543,51.99,52,51.96,51.97
201901171544,51.97,51.97,51.95,51.96
201901171545,51.96,51.97,51.95,51.96
201901171546,51.96,51.99,51.95,51.99
201901171547,51.99,52.01,51.98,52.01
201901171548,52.01,52.02,52,52
201901171549,52,52.02,51.99,52.02
201901171550,52.02,52.03,52.01,52.02
201901171551,52.02,52.03,52.02,52.03
201901171552,52.03,52.03,52,52.01
201901171553,52.01,52.01,52,52
201901171554,52,52.01,51.99,51.99
201901171555,51.99,51.99,51.99,51.99
201901171556,51.99,52,51.97,51.97
201901171557,51.97,51.99,51.97,51.98
201901171558,51.98,51.98,51.97,51.97
201901171559,51.97,51.98,51.97,51.98
201901171600,51.98,52.03,51.97,52
201901171601,52,52,51.98,51.99
201901171602,51.99,51.99,51.96,51.97
201901171603,51.97,51.99,51.97,51.99
201901171604,51.99,52.03,51.99,52.02
201901171605,52.02,52.02,51.99,52
201901171606,52,52.02,52,52.01
201901171607,52.01,52.01,52,52
201901171608,52,52.01,52,52
201901171609,52,52.01,51.99,52.01
201901171610,52.01,52.01,51.99,51.99
201901171611,51.99,52.01,51.99,52
201901171612,52,52,51.99,51.99
201901171613,51.99,52.01,51.99,52
201901171614,52,52,51.96,51.96
201901171615,51.96,51.99,51.96,51.98
201901171616,51.98,51.99,51.98,51.99
201901171617,51.99,51.99,51.94,51.94
201901171618,51.94,51.94,51.93,51.94
201901171619,51.94,51.97,51.94,51.96
201901171620,51.96,51.96,51.96,51.96
201901171621,51.96,51.96,51.93,51.94
201901171622,51.94,51.94,51.92,51.92
201901171623,51.92,51.92,51.86,51.9
201901171624,51.9,51.92,51.89,51.91
201901171625,51.91,51.92,51.91,51.91
201901171626,51.91,51.93,51.91,51.93
201901171627,51.92,51.94,51.92,51.93
201901171628,51.93,51.94,51.93,51.93
201901171629,51.93,51.94,51.92,51.93
201901171630,51.93,51.95,51.9,51.9
201901171631,51.9,51.92,51.89,51.91
201901171632,51.91,51.94,51.91,51.92
201901171633,51.92,51.93,51.91,51.93
201901171634,51.93,51.94,51.93,51.94
201901171635,51.94,51.94,51.91,51.92
201901171636,51.92,51.92,51.89,51.9
201901171637,51.9,51.9,51.87,51.9
201901171638,51.9,51.91,51.88,51.88
201901171639,51.87,51.9,51.86,51.9
201901171640,51.9,51.93,51.9,51.93
201901171641,51.93,51.93,51.89,51.9
201901171642,51.9,51.9,51.88,51.89
201901171643,51.89,51.89,51.86,51.86
201901171644,51.86,51.89,51.86,51.89
201901171645,51.89,51.89,51.86,51.87
201901171646,51.87,51.89,51.87,51.89
201901171647,51.89,51.9,51.88,51.89
201901171648,51.89,51.89,51.86,51.89
201901171649,51.89,51.92,51.89,51.91
201901171650,51.91,51.92,51.9,51.9
201901171651,51.9,51.91,51.9,51.91
201901171652,51.91,51.91,51.87,51.88
201901171653,51.88,51.93,51.88,51.93
201901171654,51.92,51.96,51.92,51.94
201901171655,51.94,51.95,51.89,51.9
201901171656,51.9,51.92,51.9,51.92
201901171657,51.92,51.93,51.9,51.91
201901171658,51.91,51.91,51.89,51.91
201901171659,51.91,51.94,51.9,51.92
201901171700,51.92,51.92,51.89,51.9
201901171701,51.9,51.95,51.9,51.92
201901171702,51.92,51.95,51.92,51.92
201901171703,51.92,51.96,51.91,51.95
201901171704,51.95,51.96,51.91,51.93
201901171705,51.93,51.93,51.89,51.89
201901171706,51.89,51.91,51.84,51.85
201901171707,51.85,51.86,51.83,51.85
201901171708,51.85,51.86,51.84,51.85
201901171709,51.85,51.9,51.84,51.9
201901171710,51.9,51.9,51.86,51.88
201901171711,51.88,51.88,51.85,51.85
201901171712,51.85,51.85,51.83,51.84
201901171713,51.84,51.87,51.84,51.86
201901171714,51.86,51.86,51.84,51.86
201901171715,51.86,51.86,51.84,51.84
201901171716,51.84,51.86,51.8,51.81
201901171717,51.81,51.82,51.8,51.82
201901171718,51.82,51.83,51.81,51.82
201901171719,51.82,51.87,51.81,51.87
201901171720,51.87,51.88,51.83,51.88
201901171721,51.88,51.88,51.83,51.84
201901171722,51.84,51.84,51.8,51.82
201901171723,51.82,51.85,51.81,51.82
201901171724,51.82,51.82,51.8,51.82
201901171725,51.82,51.82,51.8,51.81
201901171726,51.81,51.84,51.8,51.84
201901171727,51.84,51.89,51.83,51.85
201901171728,51.85,51.88,51.82,51.83
201901171729,51.83,51.87,51.82,51.85
201901171730,51.85,51.87,51.82,51.82
201901171731,51.82,51.83,51.82,51.82
201901171732,51.82,51.85,51.82,51.84
201901171733,51.84,51.86,51.83,51.86
201901171734,51.86,51.86,51.83,51.84
201901171735,51.84,51.87,51.84,51.85
201901171736,51.85,51.86,51.85,51.85
201901171737,51.85,51.86,51.84,51.84
201901171738,51.84,51.84,51.79,51.8
201901171739,51.8,51.8,51.76,51.77
201901171740,51.77,51.82,51.76,51.81
201901171741,51.81,51.89,51.81,51.88
201901171742,51.88,51.89,51.84,51.85
201901171743,51.86,51.91,51.86,51.9
201901171744,51.9,51.94,51.9,51.93
201901171745,51.93,51.94,51.91,51.93
201901171746,51.93,51.95,51.87,51.89
201901171747,51.89,51.91,51.88,51.9
201901171748,51.9,51.93,51.9,51.92
201901171749,51.92,51.93,51.91,51.93
201901171750,51.93,51.94,51.89,51.9
201901171751,51.9,51.93,51.9,51.91
201901171752,51.91,51.93,51.9,51.91
201901171753,51.91,51.93,51.9,51.92
201901171754,51.92,51.94,51.92,51.93
201901171755,51.93,51.96,51.93,51.95
201901171756,51.95,51.96,51.92,51.92
201901171757,51.92,51.93,51.91,51.92
201901171758,51.92,51.95,51.92,51.95
201901171759,51.95,51.95,51.93,51.95
201901171800,51.95,52,51.95,51.99
201901171801,51.99,52.01,51.98,51.99
201901171802,51.99,52.02,51.98,52.02
201901171803,52.02,52.02,52,52.02
201901171804,52.02,52.03,52.01,52.03
201901171805,52.03,52.04,52.01,52.03
201901171806,52.03,52.04,52.02,52.03
201901171807,52.03,52.03,52.01,52.01
201901171808,52.01,52.02,52,52
201901171809,52,52,51.99,51.99
201901171810,51.99,52.02,51.98,52
201901171811,52,52,51.94,51.95
201901171812,51.95,51.96,51.94,51.95
201901171813,51.95,51.96,51.92,51.92
201901171814,51.92,51.92,51.89,51.89
201901171815,51.89,51.9,51.87,51.87
201901171816,51.87,51.88,51.86,51.87
201901171817,51.87,51.88,51.86,51.86
201901171818,51.86,51.89,51.86,51.87
201901171819,51.87,51.88,51.86,51.86
201901171820,51.86,51.88,51.86,51.88
201901171821,51.88,51.91,51.88,51.9
201901171822,51.9,51.9,51.88,51.89
201901171823,51.89,51.89,51.87,51.88
201901171824,51.88,51.89,51.85,51.85
201901171825,51.85,51.88,51.85,51.86
201901171826,51.87,51.88,51.86,51.87
201901171827,51.87,51.97,51.87,51.97
201901171828,51.97,52.03,51.97,51.99
201901171829,51.99,51.99,51.95,51.95
201901171830,51.95,51.98,51.95,51.95
201901171831,51.95,51.98,51.94,51.97
201901171832,51.97,51.98,51.93,51.94
201901171833,51.94,51.95,51.94,51.94
201901171834,51.94,51.94,51.86,51.86
201901171835,51.86,51.91,51.86,51.9
201901171836,51.9,51.9,51.85,51.85
201901171837,51.85,51.87,51.84,51.84
201901171838,51.84,51.86,51.81,51.85
201901171839,51.85,51.86,51.84,51.85
201901171840,51.85,51.87,51.84,51.87
201901171841,51.87,51.88,51.59,51.61
201901171842,51.62,51.63,51.59,51.61
201901171843,51.61,51.7,51.61,51.69
201901171844,51.69,51.7,51.67,51.68
201901171845,51.68,51.71,51.67,51.71
201901171846,51.71,51.76,51.7,51.74
201901171847,51.74,51.74,51.73,51.74
201901171848,51.74,51.76,51.72,51.74
201901171849,51.74,51.75,51.72,51.73
201901171850,51.73,51.76,51.72,51.75
201901171851,51.75,51.75,51.71,51.75
201901171852,51.75,51.75,51.72,51.73
201901171853,51.73,51.74,51.72,51.72
201901171854,51.72,51.72,51.7,51.71
201901171855,51.71,51.73,51.71,51.72
201901171856,51.72,51.73,51.68,51.71
201901171857,51.71,51.74,51.71,51.73
201901171858,51.73,51.73,51.71,51.72
201901171859,51.72,51.74,51.71,51.72
201901171900,51.72,51.77,51.71,51.77
201901171901,51.77,51.8,51.76,51.79
201901171902,51.79,51.8,51.68,51.69
201901171903,51.69,51.77,51.69,51.77
201901171904,51.77,51.78,51.76,51.77
201901171905,51.77,51.79,51.76,51.79
201901171906,51.79,51.8,51.78,51.8
201901171907,51.8,51.8,51.78,51.78
201901171908,51.78,51.79,51.77,51.77
201901171909,51.77,51.78,51.75,51.77
201901171910,51.77,51.79,51.75,51.77
201901171911,51.77,51.79,51.76,51.78
201901171912,51.78,51.81,51.76,51.81
201901171913,51.81,51.82,51.8,51.8
201901171914,51.8,51.82,51.78,51.81
201901171915,51.81,51.82,51.8,51.81
201901171916,51.81,51.84,51.81,51.82
201901171917,51.82,51.83,51.82,51.83
201901171918,51.83,51.83,51.8,51.81
201901171919,51.81,51.83,51.81,51.83
201901171920,51.83,51.85,51.82,51.83
201901171921,51.83,51.84,51.81,51.82
201901171922,51.82,51.83,51.8,51.82
201901171923,51.82,51.85,51.82,51.85
201901171924,51.85,51.85,51.82,51.82
201901171925,51.82,51.84,51.81,51.84
201901171926,51.84,51.87,51.82,51.86
201901171927,51.86,51.87,51.82,51.83
201901171928,51.83,51.83,51.81,51.82
201901171929,51.82,51.82,51.8,51.8
201901171930,51.8,51.8,51.75,51.76
201901171931,51.76,51.77,51.73,51.75
201901171932,51.75,51.76,51.74,51.74
201901171933,51.74,51.75,51.73,51.75
201901171934,51.75,51.78,51.75,51.77
201901171935,51.77,51.83,51.77,51.79
201901171936,51.79,51.79,51.76,51.76
201901171937,51.76,51.76,51.73,51.74
201901171938,51.74,51.74,51.71,51.71
201901171939,51.71,51.72,51.68,51.7
201901171940,51.71,51.72,51.7,51.71
201901171941,51.71,51.72,51.68,51.68
201901171942,51.68,51.69,51.65,51.67
201901171943,51.66,51.68,51.66,51.66
201901171944,51.66,51.67,51.63,51.64
201901171945,51.64,51.69,51.63,51.69
201901171946,51.69,51.7,51.68,51.69
201901171947,51.69,51.7,51.68,51.68
201901171948,51.68,51.69,51.65,51.67
201901171949,51.67,51.69,51.64,51.65
201901171950,51.65,51.68,51.64,51.68
201901171951,51.68,51.71,51.68,51.71
201901171952,51.71,51.72,51.7,51.7
201901171953,51.7,51.7,51.67,51.68
201901171954,51.68,51.7,51.68,51.69
201901171955,51.69,51.7,51.67,51.69
201901171956,51.69,51.72,51.69,51.7
201901171957,51.7,51.7,51.66,51.66
201901171958,51.66,51.71,51.64,51.7
201901171959,51.7,51.71,51.69,51.7
201901172000,51.7,51.73,51.69,51.73
201901172001,51.73,51.75,51.71,51.72
201901172002,51.72,51.73,51.71,51.72
201901172003,51.72,51.74,51.72,51.72
201901172004,51.72,51.73,51.71,51.71
201901172005,51.71,51.72,51.7,51.71
201901172006,51.71,51.73,51.66,51.67
201901172007,51.67,51.68,51.63,51.67
201901172008,51.67,51.72,51.67,51.72
201901172009,51.72,51.76,51.71,51.74
201901172010,51.74,51.76,51.73,51.74
201901172011,51.74,51.77,51.74,51.75
201901172012,51.75,51.77,51.75,51.76
201901172013,51.76,51.78,51.75,51.76
201901172014,51.76,51.76,51.75,51.76
201901172015,51.75,51.75,51.72,51.73
201901172016,51.73,51.73,51.71,51.71
201901172017,51.7,51.76,51.7,51.76
201901172018,51.76,51.76,51.71,51.73
201901172019,51.73,51.73,51.71,51.73
201901172020,51.73,51.73,51.7,51.71
201901172021,51.71,51.72,51.67,51.69
201901172022,51.69,51.69,51.67,51.68
201901172023,51.68,51.69,51.65,51.67
201901172024,51.67,51.68,51.65,51.67
201901172025,51.67,51.67,51.64,51.65
201901172026,51.65,51.65,51.62,51.63
201901172027,51.63,51.64,51.62,51.63
201901172028,51.63,51.65,51.63,51.64
201901172029,51.64,51.65,51.63,51.64
201901172030,51.64,51.64,51.58,51.59
201901172031,51.59,51.63,51.59,51.63
201901172032,51.63,51.64,51.62,51.63
201901172033,51.63,51.63,51.61,51.61
201901172034,51.61,51.62,51.58,51.6
201901172035,51.6,51.62,51.59,51.61
201901172036,51.61,51.61,51.58,51.59
201901172037,51.59,51.61,51.55,51.56
201901172038,51.56,51.64,51.52,51.6
201901172039,51.6,51.6,51.57,51.59
201901172040,51.59,51.59,51.47,51.49
201901172041,51.49,51.56,51.48,51.56
201901172042,51.56,51.57,51.53,51.53
201901172043,51.53,51.55,51.52,51.55
201901172044,51.55,51.57,51.54,51.55
201901172045,51.55,51.57,51.53,51.53
201901172046,51.53,51.57,51.53,51.57
201901172047,51.57,51.58,51.54,51.56
201901172048,51.56,51.57,51.54,51.57
201901172049,51.57,51.57,51.54,51.56
201901172050,51.56,51.58,51.56,51.58
201901172051,51.58,51.6,51.55,51.55
201901172052,51.55,51.58,51.55,51.55
201901172053,51.55,51.56,51.54,51.54
201901172054,51.55,51.55,51.5,51.54
201901172055,51.54,51.54,51.5,51.5
201901172056,51.5,51.51,51.46,51.46
201901172057,51.46,51.51,51.46,51.5
201901172058,51.5,51.52,51.48,51.48
201901172059,51.48,51.51,51.48,51.5
201901172100,51.5,51.54,51.5,51.54
201901172101,51.54,51.55,51.5,51.52
201901172102,51.52,51.55,51.5,51.55
201901172103,51.55,51.55,51.51,51.52
201901172104,51.52,51.55,51.52,51.54
201901172105,51.54,51.54,51.52,51.53
201901172106,51.53,51.53,51.52,51.53
201901172107,51.53,51.54,51.51,51.51
201901172108,51.51,51.51,51.48,51.49
201901172109,51.49,51.5,51.47,51.49
201901172110,51.49,51.49,51.47,51.48
201901172111,51.48,51.49,51.46,51.47
201901172112,51.47,51.47,51.45,51.46
201901172113,51.46,51.53,51.46,51.51
201901172114,51.51,51.55,51.51,51.55
201901172115,51.55,51.55,51.45,51.46
201901172116,51.46,51.48,51.43,51.47
201901172117,51.47,51.47,51.45,51.47
201901172118,51.47,51.49,51.46,51.47
201901172119,51.47,51.48,51.45,51.47
201901172120,51.47,51.51,51.47,51.49
201901172121,51.49,51.51,51.49,51.5
201901172122,51.5,51.5,51.4,51.42
201901172123,51.42,51.43,51.37,51.4
201901172124,51.4,51.4,51.19,51.24
201901172125,51.24,51.28,51.23,51.26
201901172126,51.26,51.27,51.16,51.18
201901172127,51.18,51.24,51.17,51.24
201901172128,51.24,51.24,51.19,51.22
201901172129,51.22,51.23,51.2,51.21
201901172130,51.21,51.25,51.2,51.23
201901172131,51.23,51.28,51.22,51.28
201901172132,51.28,51.31,51.26,51.3
201901172133,51.3,51.31,51.26,51.26
201901172134,51.26,51.29,51.24,51.29
201901172135,51.29,51.29,51.24,51.28
201901172136,51.28,51.29,51.25,51.27
201901172137,51.27,51.29,51.26,51.29
201901172138,51.29,51.32,51.27,51.29
201901172139,51.29,51.3,51.28,51.29
201901172140,51.29,51.3,51.28,51.29
201901172141,51.29,51.3,51.28,51.28
201901172142,51.28,51.28,51.26,51.28
201901172143,51.28,51.29,51.25,51.26
201901172144,51.26,51.28,51.25,51.25
201901172145,51.25,51.27,51.24,51.24
201901172146,51.24,51.26,51.24,51.25
201901172147,51.25,51.31,51.25,51.26
201901172148,51.26,51.27,51.23,51.23
201901172149,51.23,51.24,51.18,51.2
201901172150,51.2,51.25,51.2,51.24
201901172151,51.24,51.24,51.2,51.22
201901172152,51.22,51.23,51.17,51.19
201901172153,51.19,51.19,51.12,51.18
201901172154,51.18,51.23,51.17,51.2
201901172155,51.2,51.2,51.13,51.15
201901172156,51.15,51.19,51.15,51.18
201901172157,51.18,51.2,51.16,51.2
201901172158,51.2,51.2,51.15,51.19
201901172159,51.19,51.19,51.17,51.18
201901172200,51.18,51.18,51.11,51.13
201901172201,51.13,51.14,51.05,51.08
201901172202,51.08,51.12,51.04,51.09
201901172203,51.09,51.15,51.09,51.12
201901172204,51.12,51.14,51.09,51.14
201901172205,51.14,51.2,51.14,51.18
201901172206,51.18,51.24,51.17,51.24
201901172207,51.24,51.24,51.21,51.23
201901172208,51.23,51.24,51.2,51.23
201901172209,51.23,51.23,51.18,51.19
201901172210,51.19,51.22,51.17,51.22
201901172211,51.22,51.25,51.21,51.23
201901172212,51.23,51.23,51.2,51.22
201901172213,51.22,51.24,51.21,51.22
201901172214,51.22,51.23,51.21,51.23
201901172215,51.23,51.24,51.21,51.21
201901172216,51.21,51.21,51.15,51.16
201901172217,51.16,51.16,51.1,51.14
201901172218,51.14,51.16,51.13,51.16
201901172219,51.16,51.16,51.11,51.15
201901172220,51.15,51.16,51.12,51.15
201901172221,51.15,51.17,51.14,51.15
201901172222,51.15,51.18,51.11,51.18
201901172223,51.18,51.19,51.17,51.18
201901172224,51.18,51.18,51.14,51.15
201901172225,51.15,51.2,51.15,51.19
201901172226,51.19,51.21,51.15,51.17
201901172227,51.17,51.19,51.13,51.18
201901172228,51.18,51.2,51.16,51.2
201901172229,51.2,51.32,51.19,51.28
201901172230,51.28,51.29,51.25,51.26
201901172231,51.26,51.32,51.24,51.3
201901172232,51.3,51.32,51.26,51.3
201901172233,51.3,51.3,51.24,51.29
201901172234,51.29,51.29,51.27,51.28
201901172235,51.28,51.31,51.25,51.3
201901172236,51.31,51.34,51.3,51.34
201901172237,51.34,51.34,51.3,51.3
201901172238,51.3,51.3,51.27,51.27
201901172239,51.27,51.28,51.26,51.27
201901172240,51.27,51.33,51.24,51.29
201901172241,51.29,51.31,51.27,51.31
201901172242,51.31,51.36,51.29,51.34
201901172243,51.34,51.34,51.32,51.33
201901172244,51.33,51.34,51.3,51.31
201901172245,51.31,51.33,51.3,51.32
201901172246,51.33,51.33,51.3,51.31
201901172247,51.31,51.32,51.3,51.31
201901172248,51.31,51.32,51.3,51.31
201901172249,51.31,51.4,51.27,51.37
201901172250,51.37,51.41,51.35,51.4
201901172251,51.4,51.4,51.38,51.4
201901172252,51.4,51.4,51.39,51.39
201901172253,51.39,51.45,51.39,51.43
201901172254,51.43,51.45,51.42,51.44
201901172255,51.44,51.45,51.43,51.43
201901172256,51.43,51.43,51.39,51.41
201901172257,51.41,51.47,51.41,51.45
201901172258,51.45,51.45,51.37,51.39
201901172259,51.39,51.4,51.37,51.38
201901172300,51.38,51.42,51.33,51.35
201901172301,51.35,51.47,51.34,51.39
201901172302,51.39,51.43,51.38,51.39
201901172303,51.39,51.4,51.34,51.34
201901172304,51.34,51.36,51.3,51.36
201901172305,51.35,51.36,51.32,51.35
201901172306,51.34,51.46,51.34,51.45
201901172307,51.45,51.46,51.42,51.43
201901172308,51.43,51.47,51.43,51.44
201901172309,51.44,51.46,51.43,51.45
201901172310,51.45,51.47,51.45,51.45
201901172311,51.45,51.45,51.4,51.41
201901172312,51.41,51.45,51.41,51.44
201901172313,51.44,51.45,51.41,51.45
201901172314,51.45,51.45,51.41,51.42
201901172315,51.42,51.46,51.41,51.45
201901172316,51.45,51.54,51.45,51.53
201901172317,51.53,51.56,51.5,51.55
201901172318,51.55,51.57,51.52,51.55
201901172319,51.55,51.57,51.53,51.53
201901172320,51.53,51.57,51.53,51.55
201901172321,51.55,51.56,51.54,51.55
201901172322,51.55,51.6,51.55,51.56
201901172323,51.56,51.56,51.53,51.53
201901172324,51.53,51.53,51.47,51.5
201901172325,51.5,51.6,51.49,51.57
201901172326,51.57,51.57,51.55,51.56
201901172327,51.56,51.57,51.54,51.56
201901172328,51.56,51.57,51.51,51.52
201901172329,51.52,51.55,51.52,51.53
201901172330,51.52,51.56,51.5,51.51
201901172331,51.51,51.59,51.51,51.52
201901172332,51.52,51.57,51.5,51.52
201901172333,51.52,51.67,51.52,51.67
201901172334,51.66,51.67,51.58,51.59
201901172335,51.59,51.63,51.58,51.61
201901172336,51.61,51.67,51.61,51.66
201901172337,51.67,51.72,51.63,51.64
201901172338,51.64,51.7,51.63,51.66
201901172339,51.66,51.66,51.59,51.6
201901172340,51.6,51.63,51.6,51.62
201901172341,51.62,51.63,51.59,51.6
201901172342,51.6,51.64,51.6,51.62
201901172343,51.62,51.62,51.57,51.61
201901172344,51.61,51.61,51.56,51.59
201901172345,51.59,51.62,51.57,51.62
201901172346,51.62,51.63,51.62,51.62
201901172347,51.62,51.62,51.59,51.6
201901172348,51.6,51.65,51.6,51.65
201901172349,51.65,51.73,51.65,51.73
201901172350,51.73,51.76,51.72,51.74
201901172351,51.74,51.75,51.67,51.69
201901172352,51.69,51.78,51.69,51.78
201901172353,51.78,51.79,51.76,51.79
201901172354,51.8,51.8,51.74,51.76
201901172355,51.76,51.79,51.75,51.78
201901172356,51.78,51.79,51.75,51.75
201901172357,51.76,51.76,51.68,51.69
201901172358,51.69,51.71,51.67,51.71
201901172359,51.71,51.73,51.69,51.71
201901180000,51.71,51.71,51.5,51.54
201901180001,51.54,51.63,51.48,51.62
201901180002,51.62,51.62,51.51,51.52
201901180003,51.51,51.53,51.48,51.49
201901180004,51.49,51.49,51.44,51.44
201901180005,51.44,51.45,51.39,51.39
201901180006,51.39,51.39,51.35,51.36
201901180007,51.36,51.36,51.28,51.31
201901180008,51.31,51.31,51.22,51.23
201901180009,51.23,51.26,51.21,51.21
201901180010,51.22,51.3,51.18,51.28
201901180011,51.28,51.28,51.25,51.25
201901180012,51.25,51.32,51.22,51.32
201901180013,51.32,51.34,51.31,51.33
201901180014,51.33,51.34,51.28,51.34
201901180015,51.34,51.37,51.32,51.36
201901180016,51.36,51.36,51.29,51.35
201901180017,51.35,51.4,51.35,51.35
201901180018,51.35,51.36,51.3,51.33
201901180019,51.33,51.39,51.33,51.39
201901180020,51.39,51.4,51.31,51.31
201901180021,51.31,51.37,51.29,51.37
201901180022,51.37,51.39,51.34,51.39
201901180023,51.39,51.44,51.36,51.43
201901180024,51.43,51.49,51.41,51.48
201901180025,51.48,51.53,51.47,51.49
201901180026,51.49,51.54,51.49,51.53
201901180027,51.53,51.58,51.52,51.57
201901180028,51.57,51.57,51.5,51.51
201901180029,51.51,51.53,51.51,51.53
201901180030,51.53,51.6,51.52,51.58
201901180031,51.58,51.61,51.57,51.6
201901180032,51.6,51.61,51.58,51.59
201901180033,51.59,51.6,51.56,51.6
201901180034,51.6,51.65,51.55,51.6
201901180035,51.6,51.65,51.56,51.57
201901180036,51.57,51.6,51.51,51.53
201901180037,51.52,51.56,51.46,51.48
201901180038,51.48,51.5,51.42,51.43
201901180039,51.43,51.45,51.33,51.33
201901180040,51.34,51.34,51.28,51.3
201901180041,51.3,51.3,51.21,51.22
201901180042,51.22,51.22,51.06,51.06
201901180043,51.06,51.15,51.06,51.09
201901180044,51.09,51.19,51.06,51.15
201901180045,51.15,51.16,51.09,51.13
201901180046,51.13,51.2,51.12,51.18
201901180047,51.18,51.25,51.17,51.22
201901180048,51.22,51.26,51.18,51.25
201901180049,51.24,51.28,51.19,51.24
201901180050,51.24,51.26,51.21,51.23
201901180051,51.23,51.24,51.19,51.23
201901180052,51.23,51.29,51.22,51.28
201901180053,51.28,51.3,51.26,51.29
201901180054,51.29,51.29,51.27,51.27
201901180055,51.26,51.32,51.25,51.29
201901180056,51.29,51.29,51.23,51.26
201901180057,51.26,51.26,51.18,51.19
201901180058,51.19,51.23,51.15,51.2
201901180059,51.2,51.21,51.16,51.18
201901180100,51.18,51.24,51.17,51.19
201901180101,51.18,51.22,51.15,51.21
201901180102,51.21,51.21,51.07,51.12
201901180103,51.12,51.12,51,51
201901180104,51.01,51.08,50.97,51.04
201901180105,51.04,51.11,51.02,51.09
201901180106,51.09,51.24,51.09,51.23
201901180107,51.23,51.27,51.19,51.24
201901180108,51.24,51.39,51.24,51.35
201901180109,51.35,51.41,51.32,51.39
201901180110,51.4,51.47,51.38,51.46
201901180111,51.46,51.47,51.42,51.45
201901180112,51.45,51.48,51.44,51.47
201901180113,51.47,51.5,51.44,51.47
201901180114,51.47,51.53,51.44,51.49
201901180115,51.49,51.57,51.49,51.56
201901180116,51.56,51.59,51.54,51.55
201901180117,51.55,51.61,51.55,51.6
201901180118,51.6,51.6,51.47,51.48
201901180119,51.48,51.54,51.42,51.52
201901180120,51.52,51.61,51.52,51.56
201901180121,51.56,51.6,51.52,51.53
201901180122,51.54,51.6,51.54,51.55
201901180123,51.55,51.57,51.51,51.52
201901180124,51.52,51.55,51.48,51.49
201901180125,51.49,51.63,51.49,51.61
201901180126,51.61,51.62,51.53,51.55
201901180127,51.55,51.63,51.55,51.57
201901180128,51.57,51.61,51.53,51.59
201901180129,51.59,51.67,51.59,51.61
201901180130,51.58,51.62,51.51,51.54
201901180131,51.54,51.57,51.51,51.55
201901180132,51.55,51.64,51.55,51.63
201901180133,51.63,51.64,51.59,51.61
201901180134,51.61,51.66,51.6,51.66
201901180135,51.66,51.73,51.66,51.72
201901180136,51.72,51.75,51.68,51.7
201901180137,51.7,51.7,51.65,51.66
201901180138,51.66,51.66,51.61,51.62
201901180139,51.62,51.63,51.56,51.58
201901180140,51.58,51.58,51.53,51.54
201901180141,51.54,51.55,51.51,51.51
201901180142,51.51,51.53,51.5,51.53
201901180143,51.53,51.53,51.48,51.51
201901180144,51.51,51.6,51.51,51.56
201901180145,51.56,51.63,51.56,51.6
201901180146,51.6,51.63,51.58,51.6
201901180147,51.59,51.6,51.58,51.6
201901180148,51.6,51.6,51.57,51.57
201901180149,51.57,51.58,51.53,51.55
201901180150,51.55,51.55,51.51,51.53
201901180151,51.53,51.57,51.53,51.56
201901180152,51.56,51.61,51.56,51.6
201901180153,51.6,51.64,51.6,51.6
201901180154,51.6,51.64,51.6,51.61
201901180155,51.61,51.66,51.61,51.64
201901180156,51.64,51.68,51.61,51.68
201901180157,51.68,51.69,51.65,51.65
201901180158,51.65,51.68,51.65,51.67
201901180159,51.67,51.69,51.67,51.68
201901180200,51.68,51.72,51.67,51.69
201901180201,51.69,51.7,51.63,51.67
201901180202,51.68,51.69,51.64,51.66
201901180203,51.66,51.71,51.65,51.69
201901180204,51.69,51.7,51.68,51.69
201901180205,51.69,51.7,51.67,51.68
201901180206,51.68,51.71,51.68,51.7
201901180207,51.7,51.7,51.67,51.68
201901180208,51.68,51.69,51.67,51.67
201901180209,51.67,51.7,51.66,51.68
201901180210,51.68,51.7,51.65,51.65
201901180211,51.65,51.67,51.63,51.67
201901180212,51.67,51.82,51.67,51.77
201901180213,51.77,51.99,51.75,51.99
201901180214,51.99,51.99,51.92,51.92
201901180215,51.92,52,51.92,51.98
201901180216,51.98,52,51.95,51.98
201901180217,51.98,51.98,51.88,51.89
201901180218,51.89,51.92,51.87,51.91
201901180219,51.91,51.91,51.87,51.87
201901180220,51.87,51.87,51.81,51.85
201901180221,51.85,51.87,51.84,51.87
201901180222,51.87,51.87,51.85,51.86
201901180223,51.86,51.88,51.83,51.86
201901180224,51.86,51.86,51.82,51.82
201901180225,51.82,51.84,51.81,51.83
201901180226,51.83,51.83,51.78,51.79
201901180227,51.79,51.83,51.79,51.82
201901180228,51.82,51.82,51.79,51.8
201901180229,51.8,51.82,51.8,51.81
201901180230,51.81,51.85,51.81,51.82
201901180231,51.82,51.82,51.78,51.82
201901180232,51.82,51.83,51.8,51.81
201901180233,51.81,51.83,51.79,51.83
201901180234,51.83,51.84,51.8,51.83
201901180235,51.83,51.85,51.82,51.84
201901180236,51.84,51.86,51.84,51.85
201901180237,51.85,51.92,51.85,51.92
201901180238,51.92,52.02,51.92,51.94
201901180239,51.94,52.07,51.93,52.07
201901180240,52.07,52.08,51.98,51.98
201901180241,51.98,51.99,51.95,51.95
201901180242,51.95,51.95,51.88,51.89
201901180243,51.89,51.89,51.86,51.88
201901180244,51.88,51.89,51.88,51.88
201901180245,51.88,51.91,51.88,51.88
201901180246,51.88,51.88,51.83,51.83
201901180247,51.83,51.83,51.79,51.81
201901180248,51.81,51.83,51.78,51.8
201901180249,51.8,51.83,51.79,51.83
201901180250,51.83,51.83,51.75,51.77
201901180251,51.77,51.78,51.77,51.78
201901180252,51.78,51.81,51.77,51.81
201901180253,51.81,51.83,51.78,51.78
201901180254,51.78,51.79,51.77,51.78
201901180255,51.78,51.82,51.78,51.79
201901180256,51.79,51.79,51.78,51.79
201901180257,51.79,51.79,51.71,51.72
201901180258,51.72,51.73,51.63,51.65
201901180259,51.65,51.68,51.65,51.67
201901180300,51.67,51.77,51.66,51.74
201901180301,51.74,51.78,51.74,51.75
201901180302,51.75,51.78,51.75,51.76
201901180303,51.76,51.8,51.76,51.78
201901180304,51.78,51.82,51.78,51.81
201901180305,51.81,51.83,51.8,51.81
201901180306,51.81,51.84,51.81,51.84
201901180307,51.84,51.85,51.82,51.82
201901180308,51.82,51.84,51.81,51.83
201901180309,51.83,51.84,51.82,51.82
201901180310,51.82,51.84,51.79,51.84
201901180311,51.84,51.91,51.84,51.9
201901180312,51.9,51.9,51.87,51.88
201901180313,51.88,51.9,51.88,51.9
201901180314,51.9,51.92,51.89,51.9
201901180315,51.9,51.92,51.9,51.9
201901180316,51.9,51.94,51.9,51.92
201901180317,51.92,51.96,51.92,51.93
201901180318,51.93,51.95,51.92,51.94
201901180319,51.94,51.97,51.9,51.91
201901180320,51.91,51.92,51.9,51.91
201901180321,51.91,51.96,51.91,51.95
201901180322,51.95,52.03,51.95,51.97
201901180323,51.97,52.03,51.97,52.02
201901180324,52.02,52.02,51.97,51.98
201901180325,51.99,52.06,51.99,52.06
201901180326,52.06,52.07,52.01,52.06
201901180327,52.06,52.07,51.99,51.99
201901180328,52,52.07,52,52.04
201901180329,52.04,52.09,51.99,52.02
201901180330,52.02,52.02,51.97,51.99
201901180331,51.99,52,51.91,51.94
201901180332,51.94,51.96,51.94,51.95
201901180333,51.95,52,51.95,51.98
201901180334,51.98,52.02,51.98,52.01
201901180335,52.01,52.02,51.98,52.01
201901180336,52.01,52.02,51.99,52.02
201901180337,52.02,52.04,52.01,52.04
201901180338,52.04,52.05,52.02,52.03
201901180339,52.03,52.08,52.03,52.05
201901180340,52.05,52.05,52.03,52.04
201901180341,52.04,52.05,51.96,51.97
201901180342,51.97,52,51.92,51.92
201901180343,51.92,51.95,51.89,51.9
201901180344,51.9,51.93,51.9,51.93
201901180345,51.93,51.95,51.92,51.94
201901180346,51.93,51.95,51.93,51.95
201901180347,51.95,51.97,51.94,51.97
201901180348,51.97,52.02,51.95,51.99
201901180349,51.99,52.03,51.98,52.02
201901180350,52.02,52.02,51.99,51.99
201901180351,51.99,52,51.94,51.95
201901180352,51.94,51.95,51.91,51.91
201901180353,51.91,51.96,51.91,51.95
201901180354,51.95,51.98,51.93,51.98
201901180355,51.98,52,51.97,51.98
201901180356,51.98,52.01,51.96,51.97
201901180357,51.97,52,51.97,52
201901180358,52,52.02,51.99,52
201901180359,52,52.01,51.99,52.01
201901180400,52.01,52.02,51.99,52.01
201901180401,52.01,52.03,52.01,52.02
201901180402,52.02,52.02,52,52
201901180403,52,52.01,51.98,52.01
201901180404,52.01,52.01,51.93,51.97
201901180405,51.97,52.03,51.97,52.01
201901180406,52.01,52.06,52,52.03
201901180407,52.03,52.08,52.02,52.06
201901180408,52.06,52.12,52.06,52.09
201901180409,52.09,52.09,52.06,52.06
201901180410,52.06,52.09,52.05,52.06
201901180411,52.06,52.09,52.04,52.05
201901180412,52.05,52.06,52,52.01
201901180413,52.01,52.02,51.99,52
201901180414,52,52.01,51.99,52
201901180415,52,52.02,51.96,51.98
201901180416,51.98,52.01,51.98,52
201901180417,52,52.02,51.98,52.02
201901180418,52.02,52.1,52.02,52.1
201901180419,52.1,52.1,52.03,52.06
201901180420,52.06,52.07,52.04,52.06
201901180421,52.06,52.09,52.01,52.03
201901180422,52.03,52.05,51.97,52.05
201901180423,52.05,52.1,52.04,52.08
201901180424,52.08,52.13,52.08,52.12
201901180425,52.12,52.12,52.02,52.04
201901180426,52.04,52.05,51.97,52.01
201901180427,52.01,52.13,51.98,52.08
201901180428,52.08,52.11,52.03,52.05
201901180429,52.05,52.06,52.02,52.02
201901180430,52.02,52.09,51.98,51.99
201901180431,51.99,52.04,51.99,52.03
201901180432,52.02,52.05,52.01,52.04
201901180433,52.04,52.04,52.03,52.04
201901180434,52.04,52.06,52.03,52.03
201901180435,52.03,52.04,52.02,52.02
201901180436,52.02,52.03,52.01,52.02
201901180437,52.02,52.02,51.97,51.99
201901180438,51.99,52.08,51.98,52.07
201901180439,52.07,52.16,52.07,52.14
201901180440,52.14,52.23,52.13,52.22
201901180441,52.23,52.34,52.23,52.31
201901180442,52.31,52.36,52.3,52.35
201901180443,52.35,52.37,52.33,52.35
201901180444,52.35,52.5,52.35,52.48
201901180445,52.48,52.57,52.48,52.54
201901180446,52.53,52.56,52.47,52.49
201901180447,52.49,52.55,52.49,52.53
201901180448,52.53,52.53,52.46,52.46
201901180449,52.46,52.48,52.44,52.47
201901180450,52.47,52.52,52.47,52.52
201901180451,52.52,52.54,52.49,52.51
201901180452,52.51,52.51,52.43,52.43
201901180453,52.43,52.46,52.42,52.44
201901180454,52.44,52.45,52.42,52.43
201901180455,52.43,52.44,52.24,52.35
201901180456,52.33,52.36,52.28,52.31
201901180457,52.31,52.34,52.3,52.32
201901180458,52.32,52.37,52.3,52.37
201901180459,52.37,52.4,52.36,52.37
201901180500,52.37,52.41,52.35,52.37
201901180501,52.37,52.38,52.34,52.36
201901180502,52.36,52.37,52.32,52.33
201901180503,52.33,52.37,52.31,52.33
201901180504,52.33,52.33,52.29,52.31
201901180505,52.31,52.32,52.28,52.29
201901180506,52.29,52.32,52.28,52.3
201901180507,52.3,52.37,52.3,52.34
201901180508,52.34,52.35,52.32,52.33
201901180509,52.33,52.34,52.32,52.33
201901180510,52.33,52.33,52.31,52.32
201901180511,52.32,52.37,52.32,52.37
201901180512,52.37,52.38,52.35,52.36
201901180513,52.36,52.36,52.34,52.35
201901180514,52.35,52.36,52.34,52.34
201901180515,52.34,52.34,52.33,52.33
201901180516,52.33,52.35,52.33,52.34
201901180517,52.34,52.36,52.33,52.36
201901180518,52.36,52.36,52.35,52.36
201901180519,52.36,52.38,52.36,52.38
201901180520,52.38,52.38,52.36,52.38
201901180521,52.38,52.4,52.38,52.39
201901180522,52.39,52.4,52.39,52.4
201901180523,52.4,52.4,52.38,52.38
201901180524,52.38,52.4,52.38,52.38
201901180525,52.38,52.38,52.35,52.36
201901180526,52.36,52.38,52.36,52.38
201901180527,52.38,52.38,52.37,52.38
201901180528,52.38,52.4,52.38,52.4
201901180529,52.4,52.45,52.4,52.44
201901180530,52.44,52.45,52.41,52.43
201901180531,52.43,52.45,52.43,52.44
201901180532,52.44,52.45,52.43,52.43
201901180533,52.44,52.44,52.43,52.44
201901180534,52.44,52.44,52.43,52.43
201901180535,52.43,52.43,52.35,52.36
201901180536,52.36,52.36,52.33,52.33
201901180537,52.33,52.34,52.3,52.31
201901180538,52.31,52.32,52.31,52.32
201901180539,52.32,52.34,52.32,52.34
201901180540,52.34,52.37,52.34,52.35
201901180541,52.35,52.35,52.34,52.34
201901180542,52.35,52.36,52.32,52.32
201901180543,52.32,52.33,52.28,52.28
201901180544,52.28,52.29,52.27,52.27
201901180545,52.27,52.29,52.26,52.26
201901180546,52.26,52.31,52.26,52.3
201901180547,52.3,52.34,52.3,52.33
201901180548,52.33,52.35,52.32,52.32
201901180549,52.32,52.32,52.29,52.3
201901180550,52.3,52.31,52.28,52.29
201901180551,52.28,52.28,52.26,52.28
201901180552,52.28,52.3,52.25,52.27
201901180553,52.27,52.29,52.25,52.25
201901180554,52.25,52.27,52.25,52.25
201901180555,52.25,52.25,52.24,52.24
201901180556,52.24,52.25,52.23,52.23
201901180557,52.23,52.25,52.23,52.25
201901180558,52.25,52.25,52.22,52.23
201901180559,52.23,52.23,52.22,52.22
201901180600,52.22,52.25,52.21,52.25
201901180601,52.25,52.25,52.23,52.24
201901180602,52.24,52.25,52.22,52.25
201901180603,52.25,52.25,52.23,52.23
201901180604,52.23,52.23,52.22,52.23
201901180605,52.23,52.23,52.23,52.23
201901180606,52.23,52.23,52.22,52.22
201901180607,52.22,52.23,52.21,52.21
201901180608,52.21,52.21,52.2,52.21
201901180609,52.21,52.21,52.2,52.2
201901180610,52.2,52.21,52.2,52.21
201901180611,52.21,52.21,52.2,52.21
201901180612,52.21,52.21,52.21,52.21
201901180613,52.21,52.21,52.2,52.2
201901180614,52.2,52.21,52.2,52.21
201901180615,52.21,52.22,52.2,52.22
201901180616,52.22,52.22,52.21,52.22
201901180617,52.22,52.23,52.22,52.23
201901180618,52.23,52.23,52.23,52.23
201901180619,52.23,52.24,52.23,52.23
201901180620,52.23,52.23,52.23,52.23
201901180621,52.23,52.23,52.23,52.23
201901180622,52.23,52.23,52.21,52.22
201901180623,52.22,52.22,52.22,52.22
201901180624,52.22,52.23,52.21,52.23
201901180625,52.23,52.24,52.23,52.24
201901180626,52.24,52.24,52.23,52.23
201901180627,52.23,52.24,52.22,52.22
201901180628,52.22,52.23,52.22,52.22
201901180629,52.22,52.23,52.21,52.22
201901180630,52.22,52.24,52.22,52.23
201901180631,52.23,52.23,52.22,52.23
201901180632,52.23,52.23,52.23,52.23
201901180633,52.23,52.23,52.21,52.21
201901180634,52.21,52.22,52.21,52.22
201901180635,52.22,52.22,52.21,52.22
201901180636,52.22,52.22,52.21,52.22
201901180637,52.22,52.23,52.22,52.22
201901180638,52.22,52.22,52.22,52.22
201901180639,52.22,52.22,52.19,52.21
201901180640,52.21,52.22,52.21,52.22
201901180641,52.22,52.22,52.2,52.2
201901180642,52.2,52.21,52.2,52.21
201901180643,52.21,52.27,52.21,52.27
201901180644,52.27,52.27,52.18,52.21
201901180645,52.21,52.22,52.21,52.22
201901180646,52.22,52.24,52.22,52.24
201901180647,52.24,52.25,52.24,52.24
201901180648,52.24,52.25,52.24,52.25
201901180649,52.25,52.26,52.25,52.26
201901180650,52.26,52.29,52.26,52.29
201901180651,52.29,52.29,52.27,52.27
201901180652,52.27,52.28,52.27,52.27
201901180653,52.27,52.27,52.26,52.26
201901180654,52.26,52.27,52.24,52.24
201901180655,52.24,52.24,52.2,52.2
201901180656,52.2,52.2,52.18,52.18
201901180657,52.18,52.18,52.18,52.18
201901180658,52.18,52.19,52.18,52.19
201901180659,52.19,52.2,52.19,52.19
