日時,始値(BID),高値(BID),安値(BID),終値(BID)
201905150830,21153,21153,21145,21146
201905150831,21146,21146,21136,21136
201905150832,21136,21138,21135,21137
201905150833,21137,21137,21137,21137
201905150834,21137,21137,21136,21137
201905150835,21137,21137,21136,21137
201905150836,21137,21137,21136,21137
201905150837,21137,21137,21130,21131
201905150838,21131,21131,21126,21126
201905150839,21126,21127,21126,21126
201905150840,21126,21126,21121,21122
201905150841,21122,21127,21122,21125
201905150842,21125,21125,21122,21122
201905150843,21122,21127,21121,21121
201905150844,21121,21132,21121,21126
201905150845,21126,21126,21113,21121
201905150846,21121,21122,21116,21121
201905150847,21121,21122,21116,21117
201905150848,21117,21120,21116,21117
201905150849,21117,21117,21116,21117
201905150850,21117,21117,21111,21111
201905150851,21111,21112,21106,21107
201905150852,21107,21107,21107,21107
201905150853,21107,21107,21105,21106
201905150854,21106,21110,21106,21106
201905150855,21106,21107,21101,21102
201905150856,21102,21102,21102,21102
201905150857,21102,21102,21091,21097
201905150858,21097,21105,21096,21103
201905150859,21103,21122,21103,21122
201905150900,21122,21122,21086,21091
201905150901,21093,21093,21065,21068
201905150902,21069,21069,21051,21057
201905150903,21057,21080,21052,21069
201905150904,21067,21067,21051,21052
201905150905,21052,21061,21046,21054
201905150906,21054,21054,21035,21041
201905150907,21040,21063,21036,21052
201905150908,21052,21064,21051,21060
201905150909,21061,21061,21032,21051
201905150910,21051,21051,21031,21033
201905150911,21031,21036,21022,21026
201905150912,21026,21026,21021,21022
201905150913,21022,21027,21016,21022
201905150914,21024,21035,21021,21032
201905150915,21032,21032,21011,21012
201905150916,21012,21022,21006,21017
201905150917,21017,21022,21016,21021
201905150918,21021,21021,21011,21012
201905150919,21012,21012,21002,21005
201905150920,21005,21005,20982,20995
201905150921,20995,20997,20989,20992
201905150922,20992,20992,20976,20976
201905150923,20976,20976,20967,20975
201905150924,20975,20975,20967,20969
201905150925,20970,20972,20966,20972
201905150926,20972,20979,20971,20973
201905150927,20973,20978,20971,20977
201905150928,20977,20978,20966,20969
201905150929,20969,20970,20959,20964
201905150930,20964,20977,20963,20977
201905150931,20977,20981,20972,20981
201905150932,20981,20982,20972,20977
201905150933,20977,20985,20976,20985
201905150934,20985,20991,20981,20982
201905150935,20982,20982,20971,20972
201905150936,20972,20975,20961,20962
201905150937,20962,20966,20961,20962
201905150938,20961,20974,20961,20972
201905150939,20972,20992,20971,20982
201905150940,20982,20982,20978,20982
201905150941,20982,20992,20981,20987
201905150942,20987,20987,20981,20983
201905150943,20984,20990,20981,20987
201905150944,20987,20992,20981,20985
201905150945,20985,20986,20981,20981
201905150946,20981,20982,20971,20974
201905150947,20974,20975,20971,20972
201905150948,20972,20985,20971,20984
201905150949,20985,20985,20982,20985
201905150950,20985,20987,20984,20987
201905150951,20987,20987,20982,20982
201905150952,20982,20987,20981,20986
201905150953,20984,20987,20983,20986
201905150954,20986,20988,20986,20987
201905150955,20987,20987,20981,20984
201905150956,20984,20985,20981,20982
201905150957,20982,20987,20982,20987
201905150958,20987,20992,20986,20987
201905150959,20987,21011,20987,21006
201905151000,21006,21010,21002,21007
201905151001,21007,21010,21005,21007
201905151002,21007,21009,21002,21007
201905151003,21007,21007,20995,20997
201905151004,20996,20998,20991,20992
201905151005,20992,20996,20991,20994
201905151006,20995,20995,20991,20992
201905151007,20992,20992,20991,20992
201905151008,20992,20992,20968,20968
201905151009,20968,20974,20967,20971
201905151010,20971,20972,20966,20971
201905151011,20971,20972,20971,20972
201905151012,20972,20979,20971,20979
201905151013,20979,20997,20979,20982
201905151014,20982,20991,20982,20985
201905151015,20984,21004,20984,20997
201905151016,20997,21002,20993,20995
201905151017,20996,21019,20996,21019
201905151018,21016,21017,21005,21007
201905151019,21007,21012,21005,21012
201905151020,21012,21015,21005,21012
201905151021,21012,21015,21011,21011
201905151022,21011,21014,21011,21012
201905151023,21012,21024,21011,21024
201905151024,21023,21028,21021,21027
201905151025,21027,21032,21025,21026
201905151026,21026,21037,21024,21037
201905151027,21037,21041,21036,21037
201905151028,21037,21045,21037,21042
201905151029,21042,21042,21036,21037
201905151030,21037,21040,21016,21021
201905151031,21021,21033,21018,21032
201905151032,21032,21043,21028,21042
201905151033,21042,21048,21021,21023
201905151034,21021,21040,21021,21037
201905151035,21037,21039,21031,21037
201905151036,21037,21044,21037,21043
201905151037,21042,21048,21041,21045
201905151038,21045,21049,21043,21047
201905151039,21047,21048,21046,21047
201905151040,21047,21057,21046,21057
201905151041,21057,21057,21051,21052
201905151042,21052,21055,21046,21047
201905151043,21047,21051,21046,21050
201905151044,21050,21061,21049,21055
201905151045,21055,21067,21054,21067
201905151046,21067,21067,21066,21067
201905151047,21067,21082,21067,21075
201905151048,21075,21076,21067,21072
201905151049,21072,21082,21072,21081
201905151050,21081,21097,21081,21096
201905151051,21096,21097,21091,21093
201905151052,21093,21107,21093,21107
201905151053,21107,21112,21101,21102
201905151054,21102,21104,21094,21097
201905151055,21097,21107,21096,21100
201905151056,21100,21100,21087,21088
201905151057,21088,21096,21088,21092
201905151058,21092,21092,21083,21083
201905151059,21083,21084,21076,21077
201905151100,21077,21077,21031,21031
201905151101,21032,21057,21026,21051
201905151102,21056,21088,21055,21076
201905151103,21076,21082,21062,21065
201905151104,21066,21082,21066,21072
201905151105,21073,21075,21057,21057
201905151106,21057,21058,21031,21045
201905151107,21045,21057,21045,21056
201905151108,21056,21062,21051,21053
201905151109,21053,21067,21053,21067
201905151110,21067,21074,21061,21066
201905151111,21066,21068,21051,21055
201905151112,21055,21064,21051,21064
201905151113,21064,21069,21061,21067
201905151114,21068,21075,21066,21074
201905151115,21074,21079,21073,21075
201905151116,21075,21077,21066,21067
201905151117,21068,21069,21061,21067
201905151118,21067,21072,21067,21070
201905151119,21070,21070,21051,21062
201905151120,21061,21061,21051,21052
201905151121,21052,21054,21044,21051
201905151122,21051,21052,21032,21032
201905151123,21032,21041,21022,21032
201905151124,21032,21039,21026,21029
201905151125,21029,21032,21021,21022
201905151126,21022,21032,21018,21027
201905151127,21027,21027,21024,21027
201905151128,21027,21035,21023,21035
201905151129,21035,21038,21035,21036
201905151130,21036,21036,21021,21031
201905151131,21032,21032,21021,21026
201905151132,21026,21033,21021,21025
201905151133,21026,21035,21025,21035
201905151134,21035,21044,21032,21044
201905151135,21043,21051,21043,21050
201905151136,21051,21057,21049,21054
201905151137,21053,21060,21052,21055
201905151138,21055,21057,21049,21051
201905151139,21051,21051,21031,21033
201905151140,21033,21044,21033,21044
201905151141,21044,21045,21041,21043
201905151142,21043,21052,21041,21050
201905151143,21050,21055,21044,21054
201905151144,21054,21062,21052,21062
201905151145,21062,21076,21062,21071
201905151146,21072,21080,21071,21074
201905151147,21074,21076,21051,21062
201905151148,21062,21067,21061,21065
201905151149,21065,21067,21061,21062
201905151150,21062,21072,21061,21072
201905151151,21072,21072,21066,21072
201905151152,21072,21074,21071,21072
201905151153,21072,21072,21063,21064
201905151154,21064,21070,21062,21065
201905151155,21065,21067,21065,21067
201905151156,21067,21067,21066,21067
201905151157,21067,21067,21066,21067
201905151158,21067,21067,21056,21056
201905151159,21056,21060,21054,21060
201905151200,21060,21070,21056,21059
201905151201,21059,21067,21058,21064
201905151202,21064,21065,21061,21065
201905151203,21065,21065,21061,21062
201905151204,21062,21066,21061,21065
201905151205,21066,21080,21065,21080
201905151206,21080,21082,21066,21070
201905151207,21069,21072,21066,21068
201905151208,21068,21072,21066,21066
201905151209,21066,21067,21057,21061
201905151210,21061,21061,21051,21052
201905151211,21052,21056,21051,21052
201905151212,21052,21055,21046,21052
201905151213,21052,21052,21051,21051
201905151214,21051,21055,21051,21054
201905151215,21054,21064,21054,21064
201905151216,21064,21076,21064,21072
201905151217,21072,21072,21062,21071
201905151218,21071,21072,21061,21062
201905151219,21062,21074,21062,21067
201905151220,21067,21074,21066,21072
201905151221,21072,21075,21072,21073
201905151222,21073,21074,21071,21074
201905151223,21074,21081,21073,21081
201905151224,21082,21082,21071,21082
201905151225,21082,21082,21071,21075
201905151226,21075,21077,21074,21077
201905151227,21077,21079,21075,21079
201905151228,21079,21080,21074,21079
201905151229,21079,21082,21079,21082
201905151230,21082,21089,21081,21085
201905151231,21085,21087,21085,21087
201905151232,21087,21096,21087,21096
201905151233,21096,21102,21091,21096
201905151234,21096,21096,21088,21092
201905151235,21092,21092,21086,21087
201905151236,21087,21087,21086,21087
201905151237,21087,21087,21086,21087
201905151238,21087,21087,21081,21082
201905151239,21082,21087,21081,21087
201905151240,21087,21087,21086,21087
201905151241,21087,21091,21086,21091
201905151242,21091,21092,21086,21092
201905151243,21092,21092,21091,21092
201905151244,21092,21096,21092,21095
201905151245,21095,21102,21091,21093
201905151246,21093,21097,21091,21096
201905151247,21096,21097,21091,21092
201905151248,21092,21092,21091,21092
201905151249,21092,21092,21085,21086
201905151250,21086,21087,21082,21087
201905151251,21087,21087,21087,21087
201905151252,21087,21087,21082,21084
201905151253,21085,21087,21084,21087
201905151254,21087,21087,21081,21085
201905151255,21085,21090,21085,21086
201905151256,21086,21096,21086,21094
201905151257,21094,21094,21091,21092
201905151258,21092,21094,21091,21092
201905151259,21092,21094,21091,21091
201905151300,21091,21093,21091,21091
201905151301,21091,21093,21091,21092
201905151302,21092,21092,21087,21092
201905151303,21092,21092,21091,21091
201905151304,21091,21092,21086,21092
201905151305,21092,21097,21092,21096
201905151306,21097,21107,21096,21107
201905151307,21107,21107,21096,21097
201905151308,21097,21097,21095,21096
201905151309,21096,21097,21096,21097
201905151310,21097,21097,21091,21092
201905151311,21092,21092,21092,21092
201905151312,21092,21092,21086,21086
201905151313,21086,21087,21082,21087
201905151314,21087,21087,21083,21085
201905151315,21085,21087,21085,21085
201905151316,21085,21097,21085,21092
201905151317,21092,21097,21091,21092
201905151318,21092,21093,21085,21089
201905151319,21089,21092,21089,21092
201905151320,21093,21100,21093,21100
201905151321,21100,21100,21091,21091
201905151322,21091,21095,21091,21095
201905151323,21095,21095,21092,21095
201905151324,21095,21096,21094,21096
201905151325,21096,21097,21095,21097
201905151326,21096,21097,21096,21097
201905151327,21097,21105,21097,21101
201905151328,21101,21102,21097,21100
201905151329,21101,21104,21097,21101
201905151330,21102,21102,21096,21097
201905151331,21097,21102,21092,21101
201905151332,21101,21102,21096,21102
201905151333,21102,21104,21102,21104
201905151334,21104,21112,21104,21112
201905151335,21112,21115,21112,21112
201905151336,21112,21112,21112,21112
201905151337,21112,21112,21102,21102
201905151338,21102,21108,21102,21107
201905151339,21107,21107,21101,21102
201905151340,21102,21102,21101,21102
201905151341,21102,21102,21097,21101
201905151342,21101,21102,21100,21102
201905151343,21102,21109,21101,21109
201905151344,21109,21114,21109,21112
201905151345,21112,21112,21111,21111
201905151346,21111,21117,21111,21112
201905151347,21112,21113,21111,21112
201905151348,21112,21112,21111,21112
201905151349,21112,21112,21112,21112
201905151350,21112,21124,21112,21122
201905151351,21122,21123,21116,21117
201905151352,21117,21120,21116,21117
201905151353,21117,21119,21116,21117
201905151354,21117,21120,21116,21117
201905151355,21117,21117,21116,21117
201905151356,21117,21117,21116,21116
201905151357,21116,21118,21116,21117
201905151358,21117,21117,21117,21117
201905151359,21117,21117,21117,21117
201905151400,21117,21122,21116,21117
201905151401,21117,21124,21116,21123
201905151402,21123,21124,21121,21122
201905151403,21122,21122,21121,21122
201905151404,21122,21124,21121,21122
201905151405,21122,21124,21121,21121
201905151406,21121,21132,21121,21132
201905151407,21133,21138,21131,21137
201905151408,21137,21139,21132,21132
201905151409,21132,21132,21121,21121
201905151410,21121,21132,21121,21132
201905151411,21132,21137,21131,21137
201905151412,21137,21137,21134,21136
201905151413,21136,21137,21133,21137
201905151414,21137,21140,21136,21137
201905151415,21137,21137,21130,21130
201905151416,21130,21131,21123,21126
201905151417,21126,21127,21123,21126
201905151418,21126,21127,21126,21127
201905151419,21127,21132,21127,21132
201905151420,21132,21141,21132,21140
201905151421,21140,21142,21136,21137
201905151422,21137,21137,21137,21137
201905151423,21137,21141,21136,21140
201905151424,21140,21144,21139,21142
201905151425,21142,21165,21142,21162
201905151426,21162,21162,21153,21156
201905151427,21156,21158,21152,21155
201905151428,21155,21160,21152,21158
201905151429,21158,21159,21155,21156
201905151430,21157,21159,21148,21152
201905151431,21152,21154,21148,21152
201905151432,21152,21152,21147,21152
201905151433,21152,21158,21152,21157
201905151434,21157,21157,21151,21152
201905151435,21152,21156,21151,21152
201905151436,21152,21155,21151,21155
201905151437,21155,21156,21151,21152
201905151438,21152,21152,21152,21152
201905151439,21152,21152,21148,21149
201905151440,21149,21159,21149,21158
201905151441,21159,21173,21156,21167
201905151442,21167,21168,21165,21167
201905151443,21167,21167,21161,21166
201905151444,21166,21167,21166,21167
201905151445,21167,21168,21161,21166
201905151446,21166,21182,21166,21176
201905151447,21176,21178,21176,21177
201905151448,21177,21180,21176,21176
201905151449,21177,21179,21176,21179
201905151450,21179,21182,21176,21177
201905151451,21177,21177,21171,21172
201905151452,21172,21174,21165,21169
201905151453,21169,21171,21166,21169
201905151454,21169,21169,21166,21167
201905151455,21167,21170,21167,21170
201905151456,21170,21174,21170,21172
201905151457,21172,21175,21172,21175
201905151458,21174,21181,21174,21177
201905151459,21177,21177,21166,21167
201905151500,21170,21170,21156,21162
201905151501,21162,21167,21161,21166
201905151502,21166,21166,21161,21161
201905151503,21161,21166,21161,21162
201905151504,21162,21164,21151,21152
201905151505,21152,21160,21152,21159
201905151506,21159,21170,21159,21169
201905151507,21169,21176,21169,21172
201905151508,21172,21173,21161,21162
201905151509,21162,21167,21161,21167
201905151510,21167,21167,21155,21155
201905151511,21155,21157,21150,21156
201905151512,21156,21161,21154,21161
201905151513,21161,21161,21156,21161
201905151514,21161,21161,21160,21161
201905151515,21161,21167,21161,21166
201905151516,21166,21179,21166,21179
201905151517,21179,21180,21168,21168
201905151518,21165,21177,21165,21177
201905151519,21177,21177,21172,21174
201905151520,21174,21177,21174,21177
201905151521,21177,21177,21171,21171
201905151522,21171,21176,21170,21175
201905151523,21175,21176,21173,21175
201905151524,21175,21177,21173,21173
201905151525,21176,21176,21175,21176
201905151526,21176,21176,21173,21174
201905151527,21175,21182,21175,21181
201905151528,21181,21182,21180,21182
201905151529,21182,21182,21181,21182
201905151530,21182,21182,21172,21180
201905151531,21180,21182,21174,21176
201905151532,21176,21177,21172,21177
201905151533,21178,21182,21178,21180
201905151534,21180,21182,21175,21175
201905151535,21175,21176,21173,21173
201905151536,21173,21173,21172,21173
201905151537,21172,21181,21172,21180
201905151538,21180,21181,21180,21180
201905151539,21180,21183,21179,21183
201905151540,21183,21183,21177,21178
201905151541,21178,21184,21178,21184
201905151542,21182,21182,21180,21181
201905151543,21181,21181,21180,21181
201905151544,21181,21181,21175,21175
201905151545,21175,21176,21171,21172
201905151546,21172,21172,21172,21172
201905151547,21172,21173,21171,21172
201905151548,21172,21172,21171,21171
201905151549,21171,21171,21167,21171
201905151550,21171,21172,21160,21163
201905151551,21163,21167,21163,21166
201905151552,21166,21167,21161,21161
201905151553,21161,21164,21160,21162
201905151554,21162,21165,21160,21163
201905151555,21169,21169,21160,21166
201905151556,21166,21167,21165,21167
201905151557,21167,21170,21165,21169
201905151558,21169,21170,21166,21167
201905151559,21167,21171,21167,21171
201905151600,21171,21171,21162,21164
201905151601,21164,21166,21155,21156
201905151602,21156,21158,21150,21155
201905151603,21155,21155,21145,21151
201905151604,21151,21152,21144,21149
201905151605,21149,21149,21145,21146
201905151606,21146,21146,21140,21140
201905151607,21140,21142,21135,21141
201905151608,21141,21141,21135,21138
201905151609,21138,21141,21136,21139
201905151610,21139,21140,21131,21133
201905151611,21132,21137,21131,21137
201905151612,21137,21137,21130,21132
201905151613,21132,21136,21130,21135
201905151614,21135,21136,21124,21127
201905151615,21127,21127,21115,21118
201905151616,21117,21117,21114,21117
201905151617,21117,21117,21103,21106
201905151618,21106,21112,21105,21111
201905151619,21111,21111,21100,21100
201905151620,21100,21103,21095,21103
201905151621,21103,21117,21102,21115
201905151622,21115,21118,21110,21116
201905151623,21115,21118,21115,21116
201905151624,21116,21117,21110,21111
201905151625,21111,21112,21099,21102
201905151626,21102,21102,21096,21102
201905151627,21102,21102,21101,21101
201905151628,21101,21102,21095,21102
201905151629,21102,21102,21096,21096
201905151630,21097,21103,21092,21094
201905151631,21093,21094,21086,21092
201905151632,21091,21106,21091,21100
201905151633,21100,21101,21096,21098
201905151634,21098,21100,21094,21096
201905151635,21096,21096,21082,21082
201905151636,21082,21084,21077,21081
201905151637,21081,21081,21076,21077
201905151638,21077,21082,21076,21077
201905151639,21077,21081,21076,21077
201905151640,21077,21079,21076,21077
201905151641,21077,21082,21077,21082
201905151642,21082,21082,21076,21077
201905151643,21077,21078,21071,21076
201905151644,21076,21076,21067,21071
201905151645,21071,21072,21054,21057
201905151646,21057,21062,21051,21055
201905151647,21055,21057,21051,21052
201905151648,21053,21053,21051,21053
201905151649,21053,21054,21046,21047
201905151650,21047,21052,21046,21052
201905151651,21052,21052,21047,21047
201905151652,21047,21047,21040,21041
201905151653,21041,21045,21040,21042
201905151654,21042,21042,21041,21041
201905151655,21041,21041,21040,21041
201905151656,21041,21047,21041,21047
201905151657,21047,21052,21046,21052
201905151658,21052,21052,21051,21052
201905151659,21052,21057,21051,21057
201905151700,21057,21057,21051,21056
201905151701,21056,21057,21056,21057
201905151702,21057,21067,21057,21067
201905151703,21067,21071,21066,21067
201905151704,21067,21067,21056,21056
201905151705,21056,21057,21046,21046
201905151706,21046,21046,21036,21040
201905151707,21040,21049,21040,21049
201905151708,21048,21051,21046,21047
201905151709,21047,21052,21046,21052
201905151710,21052,21056,21051,21055
201905151711,21056,21063,21056,21063
201905151712,21063,21068,21057,21067
201905151713,21067,21071,21066,21069
201905151714,21069,21072,21066,21071
201905151715,21071,21072,21066,21072
201905151716,21072,21072,21071,21072
201905151717,21072,21073,21071,21072
201905151718,21072,21072,21068,21069
201905151719,21069,21070,21062,21065
201905151720,21063,21070,21063,21067
201905151721,21067,21067,21066,21067
201905151722,21067,21068,21066,21066
201905151723,21066,21068,21066,21067
201905151724,21067,21067,21067,21067
201905151725,21067,21071,21066,21067
201905151726,21067,21068,21066,21066
201905151727,21066,21072,21066,21071
201905151728,21071,21072,21071,21072
201905151729,21072,21074,21071,21071
201905151730,21071,21076,21071,21076
201905151731,21076,21081,21076,21080
201905151732,21080,21080,21069,21072
201905151733,21072,21075,21071,21075
201905151734,21075,21077,21073,21077
201905151735,21076,21077,21076,21076
201905151736,21076,21081,21076,21080
201905151737,21080,21081,21077,21080
201905151738,21080,21081,21076,21076
201905151739,21076,21077,21072,21072
201905151740,21072,21074,21071,21071
201905151741,21071,21072,21071,21072
201905151742,21071,21072,21071,21072
201905151743,21072,21076,21072,21076
201905151744,21076,21076,21072,21072
201905151745,21072,21072,21066,21067
201905151746,21067,21067,21061,21062
201905151747,21062,21066,21062,21065
201905151748,21065,21065,21055,21061
201905151749,21061,21075,21061,21073
201905151750,21073,21074,21071,21072
201905151751,21072,21072,21071,21072
201905151752,21072,21075,21071,21075
201905151753,21075,21077,21075,21076
201905151754,21076,21076,21071,21071
201905151755,21071,21074,21071,21072
201905151756,21072,21072,21066,21069
201905151757,21069,21070,21066,21067
201905151758,21067,21067,21051,21053
201905151759,21052,21054,21051,21052
201905151800,21052,21056,21051,21056
201905151801,21056,21062,21054,21058
201905151802,21058,21058,21056,21056
201905151803,21059,21066,21059,21066
201905151804,21066,21067,21065,21067
201905151805,21067,21068,21066,21067
201905151806,21067,21069,21066,21066
201905151807,21066,21067,21066,21067
201905151808,21067,21069,21066,21067
201905151809,21067,21067,21061,21062
201905151810,21062,21071,21061,21067
201905151811,21067,21071,21066,21071
201905151812,21071,21076,21068,21076
201905151813,21076,21076,21073,21075
201905151814,21075,21077,21074,21076
201905151815,21076,21081,21076,21077
201905151816,21077,21077,21076,21077
201905151817,21077,21079,21076,21077
201905151818,21077,21078,21076,21076
201905151819,21076,21076,21072,21072
201905151820,21072,21074,21066,21074
201905151821,21073,21079,21071,21078
201905151822,21078,21078,21073,21074
201905151823,21074,21076,21071,21074
201905151824,21074,21080,21074,21076
201905151825,21076,21077,21068,21068
201905151826,21068,21076,21066,21075
201905151827,21075,21076,21073,21074
201905151828,21074,21075,21064,21065
201905151829,21065,21067,21061,21065
201905151830,21065,21065,21061,21062
201905151831,21062,21062,21061,21062
201905151832,21062,21062,21052,21056
201905151833,21056,21057,21051,21052
201905151834,21052,21052,21041,21042
201905151835,21042,21042,21035,21035
201905151836,21035,21035,21031,21031
201905151837,21031,21032,21016,21022
201905151838,21022,21023,21014,21015
201905151839,21014,21016,21012,21012
201905151840,21012,21012,21011,21011
201905151841,21011,21014,21011,21012
201905151842,21012,21012,21007,21007
201905151843,21007,21007,20992,21002
201905151844,21001,21002,20996,21002
201905151845,21002,21002,20996,20997
201905151846,20997,21002,20995,20995
201905151847,20995,20999,20991,20996
201905151848,20996,20998,20993,20994
201905151849,20994,21002,20992,21000
201905151850,21000,21002,20998,21002
201905151851,21002,21004,21001,21003
201905151852,21003,21003,20996,21002
201905151853,21002,21004,21001,21002
201905151854,21002,21002,20992,20992
201905151855,20992,20996,20991,20994
201905151856,20994,20995,20992,20993
201905151857,20993,21002,20991,21002
201905151858,21002,21002,20996,20998
201905151859,20998,21001,20997,20999
201905151900,20999,21002,20998,21002
201905151901,21002,21005,21001,21004
201905151902,21005,21006,21003,21006
201905151903,21006,21012,21006,21012
201905151904,21012,21012,21012,21012
201905151905,21012,21012,21011,21012
201905151906,21012,21016,21012,21016
201905151907,21016,21018,21015,21016
201905151908,21016,21017,21016,21016
201905151909,21016,21016,21015,21015
201905151910,21015,21016,21015,21016
201905151911,21016,21016,21011,21013
201905151912,21014,21015,21012,21014
201905151913,21015,21016,21013,21015
201905151914,21015,21015,21015,21015
201905151915,21015,21016,21015,21016
201905151916,21016,21021,21016,21021
201905151917,21021,21021,21016,21017
201905151918,21017,21017,21012,21013
201905151919,21014,21014,21012,21013
201905151920,21013,21016,21011,21011
201905151921,21011,21017,21011,21012
201905151922,21012,21012,21002,21002
201905151923,21002,21002,20996,20997
201905151924,20997,20997,20991,20992
201905151925,20991,20993,20979,20979
201905151926,20980,20982,20978,20980
201905151927,20980,20980,20971,20972
201905151928,20972,20972,20966,20966
201905151929,20966,20972,20966,20971
201905151930,20971,20971,20967,20971
201905151931,20971,20971,20966,20970
201905151932,20970,20970,20966,20966
201905151933,20966,20972,20966,20972
201905151934,20972,20972,20966,20967
201905151935,20967,20973,20966,20973
201905151936,20973,20976,20971,20976
201905151937,20976,20977,20974,20977
201905151938,20977,20982,20977,20982
201905151939,20982,20982,20976,20977
201905151940,20977,20979,20972,20979
201905151941,20979,20981,20978,20981
201905151942,20981,20982,20978,20981
201905151943,20981,20996,20981,20996
201905151944,20995,20996,20993,20994
201905151945,20994,20994,20991,20992
201905151946,20992,20996,20991,20996
201905151947,20996,20997,20996,20996
201905151948,20996,20997,20996,20997
201905151949,20996,20997,20996,20997
201905151950,20997,21007,20997,21001
201905151951,21001,21005,21001,21002
201905151952,21002,21004,21001,21003
201905151953,21003,21004,21001,21002
201905151954,21002,21002,20996,20996
201905151955,20996,20997,20996,20997
201905151956,20997,21002,20997,21002
201905151957,21002,21002,20996,20999
201905151958,20999,21002,20997,20997
201905151959,20996,21001,20996,21001
201905152000,21001,21004,20998,21002
201905152001,21002,21005,21001,21002
201905152002,21002,21004,21001,21001
201905152003,21001,21002,21001,21002
201905152004,21002,21011,21001,21011
201905152005,21011,21012,21006,21008
201905152006,21008,21009,21004,21006
201905152007,21006,21011,21005,21011
201905152008,21011,21011,21006,21006
201905152009,21006,21009,21001,21002
201905152010,21002,21008,21002,21007
201905152011,21007,21014,21006,21014
201905152012,21014,21014,21011,21012
201905152013,21012,21012,21011,21012
201905152014,21012,21016,21011,21013
201905152015,21011,21012,21011,21011
201905152016,21011,21017,21011,21016
201905152017,21016,21016,21011,21013
201905152018,21011,21013,21011,21012
201905152019,21012,21014,21011,21012
201905152020,21012,21019,21012,21017
201905152021,21017,21019,21016,21017
201905152022,21017,21019,21016,21017
201905152023,21017,21022,21016,21021
201905152024,21022,21022,21022,21022
201905152025,21022,21022,21022,21022
201905152026,21022,21022,21022,21022
201905152027,21022,21022,21022,21022
201905152028,21022,21022,21015,21015
201905152029,21016,21016,21011,21012
201905152030,21012,21012,21001,21002
201905152031,21002,21007,21001,21002
201905152032,21002,21006,21000,21002
201905152033,21002,21004,21001,21004
201905152034,21004,21004,20996,20996
201905152035,20996,20998,20996,20997
201905152036,20997,21006,20997,21006
201905152037,21006,21006,21001,21001
201905152038,21001,21007,21001,21006
201905152039,21006,21007,20996,20999
201905152040,20998,21000,20996,20997
201905152041,20997,20997,20993,20996
201905152042,20996,20997,20991,20992
201905152043,20992,20992,20991,20991
201905152044,20991,20991,20986,20987
201905152045,20987,20987,20981,20981
201905152046,20981,20983,20978,20980
201905152047,20980,20982,20979,20981
201905152048,20981,20985,20981,20983
201905152049,20983,20987,20983,20986
201905152050,20986,20987,20983,20986
201905152051,20986,20987,20983,20984
201905152052,20984,20984,20976,20978
201905152053,20978,20979,20976,20977
201905152054,20977,20978,20977,20977
201905152055,20977,20977,20972,20972
201905152056,20972,20977,20972,20977
201905152057,20977,20977,20971,20973
201905152058,20973,20977,20973,20976
201905152059,20976,20977,20975,20976
201905152100,20976,20978,20966,20967
201905152101,20967,20967,20965,20966
201905152102,20966,20972,20962,20972
201905152103,20972,20972,20966,20967
201905152104,20967,20968,20966,20967
201905152105,20967,20970,20962,20964
201905152106,20964,20964,20961,20962
201905152107,20962,20964,20962,20962
201905152108,20962,20966,20961,20961
201905152109,20962,20963,20961,20962
201905152110,20962,20964,20962,20962
201905152111,20962,20962,20954,20956
201905152112,20956,20956,20941,20943
201905152113,20943,20952,20943,20947
201905152114,20947,20954,20946,20951
201905152115,20952,20957,20951,20952
201905152116,20952,20953,20951,20952
201905152117,20952,20952,20946,20947
201905152118,20947,20947,20937,20937
201905152119,20937,20941,20936,20937
201905152120,20937,20941,20936,20941
201905152121,20941,20946,20941,20946
201905152122,20946,20946,20941,20942
201905152123,20942,20945,20941,20943
201905152124,20943,20945,20941,20945
201905152125,20945,20952,20945,20952
201905152126,20952,20956,20952,20955
201905152127,20955,20958,20955,20957
201905152128,20956,20958,20956,20957
201905152129,20957,20957,20951,20951
201905152130,20951,20951,20926,20931
201905152131,20931,20935,20926,20926
201905152132,20926,20934,20921,20926
201905152133,20926,20932,20917,20917
201905152134,20920,20924,20916,20918
201905152135,20917,20924,20916,20923
201905152136,20923,20932,20922,20927
201905152137,20927,20933,20926,20931
201905152138,20931,20936,20926,20927
201905152139,20927,20927,20916,20917
201905152140,20917,20919,20912,20912
201905152141,20912,20915,20902,20902
201905152142,20902,20905,20888,20888
201905152143,20888,20889,20885,20887
201905152144,20887,20887,20876,20877
201905152145,20877,20892,20875,20891
201905152146,20891,20892,20886,20887
201905152147,20887,20891,20886,20888
201905152148,20887,20892,20881,20892
201905152149,20892,20902,20891,20897
201905152150,20897,20897,20891,20892
201905152151,20892,20897,20891,20893
201905152152,20894,20896,20892,20895
201905152153,20895,20902,20895,20902
201905152154,20901,20902,20887,20892
201905152155,20892,20897,20891,20896
201905152156,20896,20902,20896,20902
201905152157,20901,20916,20901,20911
201905152158,20912,20914,20906,20913
201905152159,20914,20922,20913,20916
201905152200,20916,20918,20911,20915
201905152201,20915,20917,20913,20913
201905152202,20913,20915,20906,20910
201905152203,20910,20922,20908,20921
201905152204,20921,20932,20921,20928
201905152205,20928,20934,20927,20932
201905152206,20932,20936,20931,20936
201905152207,20936,20937,20931,20932
201905152208,20932,20941,20932,20937
201905152209,20937,20939,20928,20929
201905152210,20928,20932,20926,20931
201905152211,20931,20931,20923,20924
201905152212,20924,20924,20916,20917
201905152213,20917,20921,20912,20912
201905152214,20912,20912,20905,20908
201905152215,20908,20911,20896,20905
201905152216,20905,20907,20884,20887
201905152217,20887,20888,20880,20886
201905152218,20886,20891,20886,20891
201905152219,20891,20892,20883,20883
201905152220,20884,20885,20876,20878
201905152221,20879,20887,20876,20877
201905152222,20877,20886,20876,20886
201905152223,20886,20888,20886,20887
201905152224,20889,20896,20886,20891
201905152225,20891,20892,20886,20888
201905152226,20889,20890,20886,20887
201905152227,20887,20888,20886,20886
201905152228,20886,20892,20886,20890
201905152229,20891,20902,20890,20897
201905152230,20898,20907,20890,20891
201905152231,20891,20912,20891,20899
201905152232,20899,20899,20881,20882
201905152233,20882,20895,20881,20886
201905152234,20886,20917,20886,20916
201905152235,20916,20921,20904,20909
201905152236,20907,20930,20902,20925
201905152237,20925,20942,20925,20942
201905152238,20942,20942,20931,20931
201905152239,20931,20936,20931,20931
201905152240,20931,20941,20925,20926
201905152241,20926,20926,20916,20917
201905152242,20917,20921,20901,20904
201905152243,20903,20920,20898,20919
201905152244,20919,20924,20911,20916
201905152245,20915,20932,20912,20925
201905152246,20926,20927,20920,20927
201905152247,20927,20959,20926,20957
201905152248,20957,20958,20940,20941
201905152249,20941,20944,20941,20942
201905152250,20942,20955,20942,20947
201905152251,20947,20947,20932,20936
201905152252,20936,20937,20926,20932
201905152253,20931,20966,20926,20956
201905152254,20956,20961,20941,20946
201905152255,20947,20960,20946,20956
201905152256,20956,20964,20951,20953
201905152257,20953,20961,20951,20961
201905152258,20961,20961,20956,20957
201905152259,20956,20960,20951,20951
201905152300,20951,20965,20951,20956
201905152301,20956,20959,20942,20947
201905152302,20947,20950,20936,20946
201905152303,20946,20952,20941,20951
201905152304,20951,20971,20951,20953
201905152305,20953,20963,20951,20956
201905152306,20956,20957,20941,20944
201905152307,20943,20949,20936,20949
201905152308,20946,20954,20946,20952
201905152309,20951,20954,20951,20953
201905152310,20952,20962,20947,20953
201905152311,20951,20958,20941,20942
201905152312,20943,20953,20941,20942
201905152313,20942,21044,20937,21011
201905152314,21010,21084,21010,21084
201905152315,21084,21089,21045,21055
201905152316,21051,21065,20997,21015
201905152317,21015,21039,21005,21030
201905152318,21030,21039,21020,21036
201905152319,21038,21038,21022,21022
201905152320,21023,21046,21021,21028
201905152321,21029,21032,21022,21030
201905152322,21028,21037,21027,21027
201905152323,21028,21030,21006,21016
201905152324,21016,21044,21016,21039
201905152325,21041,21067,21040,21062
201905152326,21061,21067,21061,21065
201905152327,21065,21075,21056,21073
201905152328,21074,21079,21071,21079
201905152329,21079,21098,21078,21098
201905152330,21098,21118,21097,21115
201905152331,21115,21116,21101,21101
201905152332,21101,21109,21079,21080
201905152333,21080,21090,21078,21085
201905152334,21085,21104,21083,21097
201905152335,21100,21103,21092,21095
201905152336,21095,21104,21094,21098
201905152337,21098,21102,21091,21100
201905152338,21100,21100,21081,21083
201905152339,21082,21089,21076,21084
201905152340,21083,21095,21082,21091
201905152341,21091,21094,21083,21083
201905152342,21083,21106,21083,21105
201905152343,21105,21105,21089,21091
201905152344,21092,21105,21090,21096
201905152345,21096,21101,21086,21086
201905152346,21086,21097,21081,21095
201905152347,21096,21100,21086,21087
201905152348,21088,21096,21086,21095
201905152349,21095,21104,21094,21104
201905152350,21103,21109,21102,21107
201905152351,21107,21114,21106,21113
201905152352,21113,21126,21111,21123
201905152353,21124,21125,21107,21108
201905152354,21108,21113,21103,21109
201905152355,21109,21122,21107,21117
201905152356,21116,21116,21098,21100
201905152357,21100,21106,21096,21097
201905152358,21097,21102,21091,21097
201905152359,21097,21103,21096,21099
201905160000,21099,21105,21091,21091
201905160001,21091,21092,21078,21080
201905160002,21080,21092,21079,21086
201905160003,21086,21086,21073,21077
201905160004,21077,21091,21077,21086
201905160005,21086,21088,21074,21081
201905160006,21081,21086,21078,21086
201905160007,21086,21089,21076,21083
201905160008,21083,21088,21081,21086
201905160009,21087,21090,21086,21089
201905160010,21089,21095,21086,21095
201905160011,21095,21101,21094,21096
201905160012,21096,21096,21086,21092
201905160013,21092,21095,21090,21093
201905160014,21094,21095,21087,21087
201905160015,21087,21094,21086,21086
201905160016,21086,21088,21086,21087
201905160017,21086,21092,21083,21085
201905160018,21085,21091,21083,21089
201905160019,21089,21099,21089,21097
201905160020,21097,21100,21092,21099
201905160021,21100,21104,21097,21102
201905160022,21102,21102,21098,21100
201905160023,21100,21106,21100,21102
201905160024,21102,21106,21097,21106
201905160025,21106,21125,21106,21124
201905160026,21124,21127,21121,21126
201905160027,21126,21128,21121,21126
201905160028,21125,21130,21125,21128
201905160029,21128,21134,21126,21132
201905160030,21132,21140,21132,21139
201905160031,21139,21140,21126,21126
201905160032,21126,21132,21121,21132
201905160033,21132,21140,21131,21138
201905160034,21138,21140,21135,21139
201905160035,21139,21141,21132,21137
201905160036,21137,21140,21134,21137
201905160037,21137,21139,21136,21136
201905160038,21137,21139,21131,21132
201905160039,21131,21135,21126,21129
201905160040,21129,21134,21126,21127
201905160041,21128,21130,21125,21127
201905160042,21127,21134,21126,21131
201905160043,21131,21134,21131,21133
201905160044,21134,21144,21134,21142
201905160045,21142,21145,21131,21134
201905160046,21133,21139,21131,21138
201905160047,21138,21144,21136,21138
201905160048,21138,21145,21136,21145
201905160049,21145,21148,21136,21139
201905160050,21139,21144,21137,21137
201905160051,21137,21141,21136,21138
201905160052,21138,21145,21137,21145
201905160053,21145,21156,21143,21151
201905160054,21151,21162,21146,21148
201905160055,21148,21152,21146,21152
201905160056,21152,21157,21151,21154
201905160057,21154,21156,21151,21154
201905160058,21154,21163,21153,21162
201905160059,21161,21163,21155,21157
201905160100,21157,21163,21156,21161
201905160101,21161,21165,21160,21161
201905160102,21161,21163,21156,21163
201905160103,21162,21164,21159,21163
201905160104,21163,21164,21160,21162
201905160105,21162,21169,21161,21167
201905160106,21166,21170,21163,21163
201905160107,21164,21166,21162,21163
201905160108,21163,21163,21156,21162
201905160109,21162,21165,21161,21164
201905160110,21164,21165,21151,21151
201905160111,21152,21152,21142,21146
201905160112,21147,21147,21141,21143
201905160113,21143,21151,21141,21146
201905160114,21146,21151,21143,21151
201905160115,21151,21151,21141,21142
201905160116,21142,21142,21136,21141
201905160117,21141,21145,21137,21145
201905160118,21145,21145,21136,21140
201905160119,21140,21141,21131,21132
201905160120,21132,21134,21130,21133
201905160121,21134,21137,21131,21135
201905160122,21135,21139,21135,21137
201905160123,21137,21139,21131,21131
201905160124,21132,21132,21120,21121
201905160125,21121,21125,21118,21123
201905160126,21124,21126,21119,21121
201905160127,21121,21124,21116,21122
201905160128,21122,21127,21121,21126
201905160129,21126,21127,21122,21125
201905160130,21125,21130,21121,21122
201905160131,21122,21129,21121,21128
201905160132,21128,21132,21126,21132
201905160133,21132,21132,21126,21131
201905160134,21131,21137,21131,21132
201905160135,21132,21133,21126,21127
201905160136,21127,21127,21116,21117
201905160137,21117,21124,21117,21122
201905160138,21122,21126,21121,21126
201905160139,21126,21129,21124,21128
201905160140,21128,21131,21126,21126
201905160141,21126,21132,21126,21127
201905160142,21127,21134,21127,21133
201905160143,21133,21136,21126,21131
201905160144,21131,21136,21129,21136
201905160145,21136,21145,21136,21145
201905160146,21145,21145,21136,21136
201905160147,21136,21140,21135,21137
201905160148,21137,21142,21137,21138
201905160149,21138,21144,21138,21142
201905160150,21142,21142,21139,21140
201905160151,21140,21142,21136,21137
201905160152,21137,21137,21129,21133
201905160153,21133,21136,21126,21131
201905160154,21131,21132,21126,21126
201905160155,21126,21127,21120,21121
201905160156,21121,21125,21105,21106
201905160157,21106,21117,21106,21116
201905160158,21116,21118,21111,21111
201905160159,21110,21121,21109,21121
201905160200,21121,21126,21115,21121
201905160201,21120,21122,21117,21122
201905160202,21122,21125,21115,21125
201905160203,21121,21125,21115,21121
201905160204,21121,21126,21120,21122
201905160205,21122,21127,21120,21127
201905160206,21127,21127,21120,21121
201905160207,21121,21127,21120,21123
201905160208,21122,21127,21121,21127
201905160209,21127,21127,21115,21122
201905160210,21122,21127,21120,21127
201905160211,21127,21129,21125,21127
201905160212,21127,21127,21121,21127
201905160213,21127,21129,21123,21127
201905160214,21127,21127,21120,21121
201905160215,21121,21127,21120,21124
201905160216,21124,21127,21115,21116
201905160217,21116,21117,21113,21116
201905160218,21116,21117,21111,21117
201905160219,21117,21117,21110,21111
201905160220,21111,21117,21110,21116
201905160221,21117,21117,21115,21116
201905160222,21116,21117,21110,21117
201905160223,21117,21120,21115,21116
201905160224,21116,21121,21110,21112
201905160225,21117,21121,21113,21121
201905160226,21121,21122,21114,21117
201905160227,21117,21117,21114,21116
201905160228,21116,21122,21116,21120
201905160229,21120,21122,21119,21121
201905160230,21121,21125,21120,21121
201905160231,21121,21132,21120,21131
201905160232,21131,21132,21125,21132
201905160233,21132,21132,21130,21131
201905160234,21131,21137,21130,21135
201905160235,21135,21142,21131,21134
201905160236,21134,21137,21133,21134
201905160237,21134,21137,21131,21136
201905160238,21136,21137,21131,21131
201905160239,21131,21142,21131,21142
201905160240,21142,21142,21135,21141
201905160241,21141,21141,21135,21136
201905160242,21136,21142,21135,21142
201905160243,21142,21142,21135,21137
201905160244,21137,21137,21130,21133
201905160245,21134,21137,21131,21134
201905160246,21134,21142,21133,21142
201905160247,21141,21142,21136,21142
201905160248,21142,21147,21139,21147
201905160249,21147,21149,21145,21146
201905160250,21146,21148,21141,21146
201905160251,21146,21149,21145,21149
201905160252,21149,21149,21141,21144
201905160253,21144,21147,21141,21144
201905160254,21144,21147,21141,21145
201905160255,21145,21151,21145,21151
201905160256,21151,21155,21150,21151
201905160257,21151,21152,21150,21152
201905160258,21152,21154,21150,21150
201905160259,21150,21152,21146,21148
201905160300,21148,21157,21146,21157
201905160301,21157,21160,21155,21156
201905160302,21156,21157,21155,21157
201905160303,21157,21157,21155,21156
201905160304,21156,21159,21155,21156
201905160305,21156,21162,21155,21162
201905160306,21162,21162,21151,21157
201905160307,21157,21160,21155,21157
201905160308,21157,21157,21151,21156
201905160309,21156,21156,21152,21155
201905160310,21155,21160,21155,21160
201905160311,21160,21162,21157,21161
201905160312,21161,21162,21155,21162
201905160313,21162,21162,21160,21160
201905160314,21160,21162,21160,21162
201905160315,21162,21162,21155,21162
201905160316,21162,21162,21155,21162
201905160317,21162,21162,21156,21157
201905160318,21157,21162,21155,21157
201905160319,21157,21157,21156,21157
201905160320,21157,21165,21157,21162
201905160321,21162,21166,21160,21162
201905160322,21162,21164,21160,21160
201905160323,21160,21164,21160,21164
201905160324,21164,21167,21161,21166
201905160325,21166,21167,21160,21162
201905160326,21162,21164,21160,21163
201905160327,21162,21164,21156,21157
201905160328,21157,21157,21151,21152
201905160329,21152,21157,21150,21157
201905160330,21157,21162,21155,21157
201905160331,21157,21157,21155,21155
201905160332,21155,21160,21155,21158
201905160333,21158,21162,21156,21157
201905160334,21157,21157,21154,21156
201905160335,21156,21157,21154,21157
201905160336,21157,21157,21150,21152
201905160337,21152,21154,21150,21150
201905160338,21150,21154,21150,21152
201905160339,21152,21157,21152,21157
201905160340,21157,21157,21153,21154
201905160341,21154,21157,21151,21151
201905160342,21151,21157,21150,21156
201905160343,21156,21156,21151,21152
201905160344,21152,21152,21150,21151
201905160345,21151,21158,21151,21156
201905160346,21156,21157,21154,21155
201905160347,21155,21162,21155,21161
201905160348,21161,21162,21160,21161
201905160349,21161,21162,21161,21161
201905160350,21161,21164,21160,21162
201905160351,21162,21164,21160,21164
201905160352,21164,21165,21151,21153
201905160353,21153,21153,21150,21151
201905160354,21151,21152,21141,21144
201905160355,21144,21146,21140,21141
201905160356,21141,21142,21141,21141
201905160357,21141,21147,21140,21140
201905160358,21140,21146,21140,21144
201905160359,21144,21149,21141,21146
201905160400,21146,21149,21145,21146
201905160401,21146,21152,21140,21152
201905160402,21152,21157,21151,21157
201905160403,21157,21157,21148,21152
201905160404,21152,21152,21146,21148
201905160405,21147,21157,21145,21157
201905160406,21157,21157,21152,21157
201905160407,21157,21157,21151,21152
201905160408,21152,21157,21150,21151
201905160409,21151,21157,21150,21157
201905160410,21157,21164,21155,21161
201905160411,21161,21162,21150,21157
201905160412,21156,21160,21155,21156
201905160413,21156,21159,21155,21155
201905160414,21155,21157,21155,21157
201905160415,21157,21157,21150,21152
201905160416,21152,21157,21151,21157
201905160417,21157,21159,21155,21156
201905160418,21156,21159,21155,21156
201905160419,21156,21157,21155,21156
201905160420,21156,21160,21155,21160
201905160421,21160,21162,21160,21161
201905160422,21161,21164,21160,21161
201905160423,21161,21162,21160,21161
201905160424,21161,21172,21161,21172
201905160425,21172,21172,21172,21172
201905160426,21172,21172,21165,21165
201905160427,21165,21169,21164,21164
201905160428,21164,21170,21160,21167
201905160429,21167,21169,21166,21167
201905160430,21167,21170,21165,21170
201905160431,21170,21170,21161,21162
201905160432,21162,21167,21160,21162
201905160433,21162,21162,21160,21161
201905160434,21161,21167,21160,21167
201905160435,21167,21167,21164,21165
201905160436,21165,21167,21161,21162
201905160437,21162,21163,21160,21161
201905160438,21161,21162,21152,21156
201905160439,21156,21162,21156,21161
201905160440,21161,21162,21155,21156
201905160441,21156,21162,21155,21158
201905160442,21158,21162,21155,21161
201905160443,21161,21162,21155,21160
201905160444,21160,21162,21157,21161
201905160445,21161,21161,21155,21157
201905160446,21156,21161,21156,21158
201905160447,21158,21161,21155,21160
201905160448,21160,21161,21155,21157
201905160449,21157,21160,21155,21157
201905160450,21157,21162,21156,21160
201905160451,21160,21162,21155,21157
201905160452,21157,21162,21154,21162
201905160453,21162,21164,21161,21161
201905160454,21161,21162,21160,21161
201905160455,21160,21161,21150,21157
201905160456,21157,21157,21148,21149
201905160457,21149,21157,21148,21151
201905160458,21151,21152,21148,21152
201905160459,21152,21152,21145,21147
201905160500,21147,21154,21146,21146
201905160501,21146,21147,21145,21145
201905160502,21145,21152,21145,21152
201905160503,21152,21157,21150,21157
201905160504,21157,21157,21154,21157
201905160505,21157,21159,21155,21156
201905160506,21156,21156,21155,21156
201905160507,21156,21162,21156,21161
201905160508,21161,21161,21150,21156
201905160509,21156,21157,21156,21156
201905160510,21156,21157,21156,21157
201905160511,21157,21157,21157,21157
201905160512,21157,21157,21156,21157
201905160513,21157,21159,21156,21159
201905160514,21159,21159,21154,21156
201905160515,21156,21157,21154,21156
201905160516,21156,21156,21152,21152
201905160517,21152,21152,21152,21152
201905160518,21152,21161,21151,21161
201905160519,21161,21161,21160,21161
201905160520,21161,21162,21161,21162
201905160521,21162,21162,21161,21162
201905160522,21162,21162,21161,21161
201905160523,21161,21170,21161,21167
201905160524,21167,21168,21165,21168
201905160525,21168,21168,21168,21168
201905160526,21168,21172,21168,21172
201905160527,21172,21172,21171,21171
201905160528,21171,21174,21170,21174
201905160529,21174,21176,21173,21175
201905160530,21175,21180,21174,21180
201905160531,21180,21183,21178,21183
201905160532,21183,21187,21183,21186
201905160533,21186,21186,21184,21185
201905160534,21185,21185,21185,21185
201905160535,21185,21186,21185,21186
201905160536,21186,21186,21185,21186
201905160537,21186,21187,21185,21186
201905160538,21186,21186,21182,21182
201905160539,21182,21187,21182,21185
201905160540,21185,21186,21185,21186
201905160541,21186,21186,21184,21186
201905160542,21186,21186,21185,21186
201905160543,21186,21186,21185,21185
201905160544,21185,21186,21185,21185
201905160545,21185,21187,21183,21187
201905160546,21187,21187,21181,21181
201905160547,21181,21181,21180,21181
201905160548,21181,21181,21180,21181
201905160549,21181,21182,21181,21182
201905160550,21182,21182,21180,21181
201905160551,21181,21182,21180,21181
201905160552,21181,21181,21180,21181
201905160553,21181,21181,21181,21181
201905160554,21181,21181,21180,21181
201905160555,21181,21183,21181,21182
201905160556,21182,21183,21180,21182
201905160557,21182,21182,21182,21182
201905160558,21182,21182,21180,21181
201905160559,21181,21182,21180,21182
