日時,始値(BID),高値(BID),安値(BID),終値(BID)
201905010830,22406,22412,22403,22403
201905010831,22403,22407,22403,22405
201905010832,22405,22405,22396,22396
201905010833,22396,22396,22390,22390
201905010834,22390,22393,22390,22390
201905010835,22390,22390,22390,22390
201905010836,22390,22391,22388,22388
201905010837,22388,22388,22384,22385
201905010838,22385,22386,22385,22385
201905010839,22385,22385,22385,22385
201905010840,22385,22385,22385,22385
201905010841,22385,22385,22385,22385
201905010842,22385,22386,22385,22385
201905010843,22385,22391,22385,22388
201905010844,22388,22388,22388,22388
201905010845,22388,22388,22385,22385
201905010846,22385,22386,22383,22385
201905010847,22385,22387,22385,22387
201905010848,22387,22387,22386,22386
201905010849,22386,22386,22385,22386
201905010850,22386,22386,22386,22386
201905010851,22386,22412,22386,22412
201905010852,22412,22412,22400,22400
201905010853,22400,22401,22398,22398
201905010854,22398,22401,22398,22400
201905010855,22400,22401,22400,22400
201905010856,22400,22400,22400,22400
201905010857,22401,22401,22400,22400
201905010858,22400,22406,22400,22406
201905010859,22406,22406,22405,22406
201905010900,22406,22411,22405,22406
201905010901,22406,22406,22381,22382
201905010902,22382,22390,22379,22390
201905010903,22386,22405,22386,22405
201905010904,22405,22406,22405,22406
201905010905,22406,22406,22404,22405
201905010906,22405,22406,22390,22391
201905010907,22391,22391,22385,22385
201905010908,22385,22386,22383,22385
201905010909,22385,22395,22385,22393
201905010910,22393,22395,22393,22395
201905010911,22395,22396,22395,22395
201905010912,22395,22395,22390,22391
201905010913,22391,22391,22390,22390
201905010914,22390,22402,22390,22402
201905010915,22402,22402,22400,22401
201905010916,22401,22402,22401,22401
201905010917,22401,22401,22401,22401
201905010918,22401,22401,22396,22396
201905010919,22396,22397,22396,22396
201905010920,22396,22397,22395,22396
201905010921,22396,22396,22386,22386
201905010922,22386,22387,22386,22387
201905010923,22387,22387,22387,22387
201905010924,22387,22387,22386,22387
201905010925,22387,22387,22386,22387
201905010926,22387,22387,22384,22386
201905010927,22386,22386,22385,22385
201905010928,22385,22392,22385,22391
201905010929,22391,22391,22386,22386
201905010930,22385,22386,22385,22385
201905010931,22385,22385,22385,22385
201905010932,22385,22386,22385,22385
201905010933,22385,22385,22385,22385
201905010934,22385,22385,22385,22385
201905010935,22385,22386,22385,22386
201905010936,22386,22386,22385,22385
201905010937,22385,22385,22385,22385
201905010938,22385,22385,22385,22385
201905010939,22385,22385,22385,22385
201905010940,22385,22385,22385,22385
201905010941,22385,22385,22385,22385
201905010942,22385,22390,22385,22390
201905010943,22390,22391,22389,22390
201905010944,22390,22391,22390,22390
201905010945,22390,22391,22389,22390
201905010946,22390,22390,22390,22390
201905010947,22390,22392,22390,22391
201905010948,22391,22391,22390,22391
201905010949,22391,22393,22390,22392
201905010950,22392,22392,22391,22391
201905010951,22391,22391,22391,22391
201905010952,22391,22391,22391,22391
201905010953,22391,22391,22391,22391
201905010954,22391,22391,22391,22391
201905010955,22391,22391,22389,22391
201905010956,22391,22392,22391,22392
201905010957,22392,22397,22391,22396
201905010958,22396,22405,22396,22405
201905010959,22405,22416,22405,22416
201905011000,22416,22416,22410,22412
201905011001,22412,22421,22412,22421
201905011002,22421,22424,22420,22424
201905011003,22424,22424,22416,22417
201905011004,22417,22417,22405,22405
201905011005,22405,22405,22397,22402
201905011006,22402,22402,22398,22400
201905011007,22400,22403,22400,22403
201905011008,22403,22403,22402,22403
201905011009,22403,22405,22403,22405
201905011010,22405,22406,22405,22405
201905011011,22405,22416,22405,22415
201905011012,22415,22415,22415,22415
201905011013,22415,22416,22410,22416
201905011014,22416,22416,22410,22410
201905011015,22410,22415,22410,22415
201905011016,22415,22417,22415,22416
201905011017,22416,22416,22415,22416
201905011018,22416,22416,22415,22416
201905011019,22416,22417,22415,22417
201905011020,22417,22417,22415,22415
201905011021,22415,22416,22415,22416
201905011022,22416,22416,22415,22415
201905011023,22415,22416,22415,22416
201905011024,22416,22416,22415,22416
201905011025,22416,22418,22416,22416
201905011026,22415,22415,22415,22415
201905011027,22415,22417,22415,22417
201905011028,22417,22417,22416,22417
201905011029,22417,22417,22417,22417
201905011030,22417,22417,22417,22417
201905011031,22417,22417,22409,22410
201905011032,22410,22410,22410,22410
201905011033,22410,22416,22407,22410
201905011034,22410,22415,22409,22415
201905011035,22415,22416,22415,22416
201905011036,22416,22416,22415,22416
201905011037,22416,22424,22415,22421
201905011038,22421,22421,22421,22421
201905011039,22421,22422,22417,22419
201905011040,22419,22422,22419,22419
201905011041,22419,22419,22419,22419
201905011042,22419,22420,22419,22420
201905011043,22420,22421,22420,22421
201905011044,22421,22421,22420,22421
201905011045,22421,22423,22421,22423
201905011046,22423,22426,22423,22426
201905011047,22426,22426,22424,22425
201905011048,22425,22425,22424,22424
201905011049,22424,22424,22423,22424
201905011050,22424,22424,22422,22422
201905011051,22422,22422,22416,22420
201905011052,22420,22421,22417,22421
201905011053,22421,22421,22420,22420
201905011054,22420,22422,22420,22422
201905011055,22423,22425,22423,22425
201905011056,22425,22426,22425,22426
201905011057,22426,22426,22426,22426
201905011058,22426,22432,22426,22432
201905011059,22431,22431,22430,22430
201905011100,22430,22431,22430,22430
201905011101,22430,22430,22430,22430
201905011102,22430,22431,22430,22430
201905011103,22430,22431,22430,22431
201905011104,22431,22433,22430,22430
201905011105,22430,22431,22430,22430
201905011106,22430,22433,22430,22430
201905011107,22430,22436,22430,22436
201905011108,22436,22436,22435,22435
201905011109,22435,22435,22435,22435
201905011110,22435,22437,22432,22432
201905011111,22432,22439,22432,22435
201905011112,22435,22436,22435,22435
201905011113,22435,22436,22435,22435
201905011114,22435,22435,22432,22435
201905011115,22435,22437,22435,22436
201905011116,22436,22436,22436,22436
201905011117,22436,22438,22435,22438
201905011118,22438,22439,22438,22439
201905011119,22439,22439,22439,22439
201905011120,22439,22439,22439,22439
201905011121,22439,22439,22438,22438
201905011122,22438,22439,22438,22439
201905011123,22439,22439,22439,22439
201905011124,22439,22439,22431,22431
201905011125,22431,22438,22430,22438
201905011126,22438,22439,22438,22439
201905011127,22439,22439,22439,22439
201905011128,22439,22439,22439,22439
201905011129,22439,22439,22432,22432
201905011130,22432,22437,22432,22437
201905011131,22437,22437,22436,22436
201905011132,22436,22436,22435,22435
201905011133,22435,22439,22435,22439
201905011134,22439,22448,22439,22445
201905011135,22445,22449,22444,22445
201905011136,22445,22446,22445,22446
201905011137,22446,22446,22446,22446
201905011138,22446,22446,22445,22445
201905011139,22445,22446,22445,22446
201905011140,22446,22447,22445,22447
201905011141,22447,22447,22445,22445
201905011142,22445,22445,22445,22445
201905011143,22445,22445,22445,22445
201905011144,22445,22446,22445,22445
201905011145,22445,22446,22445,22446
201905011146,22446,22451,22446,22451
201905011147,22451,22451,22451,22451
201905011148,22451,22451,22451,22451
201905011149,22451,22451,22451,22451
201905011150,22451,22451,22451,22451
201905011151,22451,22457,22450,22454
201905011152,22454,22457,22450,22457
201905011153,22458,22458,22457,22457
201905011154,22457,22461,22457,22461
201905011155,22461,22461,22460,22460
201905011156,22460,22461,22459,22461
201905011157,22461,22467,22461,22467
201905011158,22467,22467,22460,22460
201905011159,22460,22462,22460,22461
201905011200,22461,22466,22458,22465
201905011201,22465,22465,22464,22464
201905011202,22464,22466,22464,22466
201905011203,22466,22467,22466,22467
201905011204,22467,22467,22467,22467
201905011205,22467,22467,22467,22467
201905011206,22467,22467,22465,22465
201905011207,22465,22467,22462,22464
201905011208,22464,22464,22464,22464
201905011209,22464,22464,22464,22464
201905011210,22464,22464,22464,22464
201905011211,22464,22464,22464,22464
201905011212,22464,22464,22464,22464
201905011213,22464,22464,22464,22464
201905011214,22464,22464,22464,22464
201905011215,22464,22464,22461,22464
201905011216,22464,22464,22464,22464
201905011217,22464,22464,22464,22464
201905011218,22464,22464,22464,22464
201905011219,22464,22464,22464,22464
201905011220,22464,22464,22463,22463
201905011221,22463,22464,22463,22463
201905011222,22463,22464,22459,22459
201905011223,22459,22459,22459,22459
201905011224,22459,22459,22459,22459
201905011225,22459,22461,22459,22459
201905011226,22459,22459,22458,22459
201905011227,22459,22459,22452,22453
201905011228,22453,22454,22449,22449
201905011229,22449,22453,22449,22450
201905011230,22450,22450,22445,22445
201905011231,22445,22445,22445,22445
201905011232,22445,22445,22441,22443
201905011233,22443,22446,22443,22446
201905011234,22446,22446,22445,22446
201905011235,22446,22446,22445,22446
201905011236,22446,22447,22446,22446
201905011237,22446,22446,22446,22446
201905011238,22446,22451,22446,22451
201905011239,22451,22451,22451,22451
201905011240,22451,22451,22449,22449
201905011241,22449,22449,22446,22446
201905011242,22446,22446,22446,22446
201905011243,22446,22446,22446,22446
201905011244,22446,22446,22446,22446
201905011245,22446,22447,22446,22447
201905011246,22447,22447,22446,22446
201905011247,22446,22446,22446,22446
201905011248,22446,22447,22446,22447
201905011249,22447,22447,22447,22447
201905011250,22447,22447,22447,22447
201905011251,22447,22447,22447,22447
201905011252,22447,22447,22447,22447
201905011253,22447,22447,22446,22446
201905011254,22446,22446,22446,22446
201905011255,22446,22446,22446,22446
201905011256,22446,22447,22445,22445
201905011257,22445,22446,22445,22446
201905011258,22446,22446,22446,22446
201905011259,22446,22446,22445,22446
201905011300,22446,22447,22445,22447
201905011301,22447,22447,22447,22447
201905011302,22447,22447,22447,22447
201905011303,22447,22447,22446,22446
201905011304,22446,22446,22446,22446
201905011305,22446,22446,22446,22446
201905011306,22446,22446,22446,22446
201905011307,22446,22447,22446,22446
201905011308,22446,22447,22446,22447
201905011309,22447,22447,22447,22447
201905011310,22447,22447,22436,22436
201905011311,22436,22440,22435,22438
201905011312,22438,22439,22438,22439
201905011313,22439,22439,22439,22439
201905011314,22439,22439,22439,22439
201905011315,22439,22442,22439,22441
201905011316,22441,22441,22440,22441
201905011317,22441,22441,22441,22441
201905011318,22441,22446,22440,22446
201905011319,22446,22446,22445,22446
201905011320,22446,22446,22445,22445
201905011321,22445,22445,22445,22445
201905011322,22445,22445,22445,22445
201905011323,22445,22445,22445,22445
201905011324,22445,22445,22444,22444
201905011325,22444,22446,22444,22446
201905011326,22446,22446,22446,22446
201905011327,22446,22446,22446,22446
201905011328,22446,22447,22446,22447
201905011329,22447,22447,22446,22447
201905011330,22447,22447,22446,22446
201905011331,22446,22447,22446,22447
201905011332,22447,22447,22446,22446
201905011333,22446,22446,22446,22446
201905011334,22446,22446,22446,22446
201905011335,22446,22447,22446,22446
201905011336,22446,22447,22445,22445
201905011337,22445,22446,22445,22446
201905011338,22446,22446,22446,22446
201905011339,22446,22446,22446,22446
201905011340,22446,22447,22446,22447
201905011341,22447,22447,22445,22446
201905011342,22446,22449,22446,22449
201905011343,22449,22450,22449,22450
201905011344,22450,22450,22450,22450
201905011345,22450,22450,22448,22450
201905011346,22450,22450,22450,22450
201905011347,22450,22450,22450,22450
201905011348,22450,22450,22450,22450
201905011349,22450,22451,22450,22451
201905011350,22451,22451,22450,22450
201905011351,22450,22450,22450,22450
201905011352,22450,22450,22445,22445
201905011353,22446,22446,22444,22444
201905011354,22444,22444,22444,22444
201905011355,22444,22445,22443,22443
201905011356,22443,22444,22443,22444
201905011357,22444,22444,22444,22444
201905011358,22444,22444,22443,22443
201905011359,22443,22443,22443,22443
201905011400,22443,22451,22443,22451
201905011401,22451,22457,22451,22456
201905011402,22456,22462,22456,22462
201905011403,22462,22462,22462,22462
201905011404,22462,22462,22462,22462
201905011405,22462,22462,22462,22462
201905011406,22462,22462,22462,22462
201905011407,22462,22462,22462,22462
201905011408,22462,22462,22462,22462
201905011409,22462,22462,22462,22462
201905011410,22462,22462,22462,22462
201905011411,22462,22462,22462,22462
201905011412,22462,22462,22462,22462
201905011413,22462,22462,22462,22462
201905011414,22462,22462,22462,22462
201905011415,22462,22462,22462,22462
201905011416,22462,22462,22462,22462
201905011417,22462,22462,22462,22462
201905011418,22462,22462,22462,22462
201905011419,22462,22462,22462,22462
201905011420,22462,22462,22462,22462
201905011421,22462,22462,22462,22462
201905011422,22462,22462,22462,22462
201905011423,22462,22462,22462,22462
201905011424,22462,22462,22462,22462
201905011425,22462,22462,22455,22456
201905011426,22456,22456,22452,22452
201905011427,22452,22452,22452,22452
201905011428,22452,22452,22452,22452
201905011429,22452,22452,22450,22451
201905011430,22451,22452,22450,22452
201905011431,22452,22452,22452,22452
201905011432,22452,22452,22452,22452
201905011433,22452,22452,22452,22452
201905011434,22452,22452,22452,22452
201905011435,22452,22452,22452,22452
201905011436,22452,22452,22452,22452
201905011437,22452,22452,22452,22452
201905011438,22452,22452,22452,22452
201905011439,22452,22452,22451,22452
201905011440,22452,22452,22452,22452
201905011441,22452,22457,22452,22457
201905011442,22457,22457,22457,22457
201905011443,22457,22457,22457,22457
201905011444,22457,22457,22457,22457
201905011445,22457,22461,22457,22461
201905011446,22461,22462,22461,22462
201905011447,22462,22462,22461,22461
201905011448,22461,22461,22460,22461
201905011449,22461,22461,22455,22457
201905011450,22457,22457,22457,22457
201905011451,22457,22457,22457,22457
201905011452,22457,22457,22457,22457
201905011453,22457,22457,22450,22451
201905011454,22451,22451,22450,22451
201905011455,22451,22456,22451,22456
201905011456,22456,22457,22456,22456
201905011457,22456,22457,22456,22456
201905011458,22456,22462,22456,22462
201905011459,22462,22467,22460,22467
201905011500,22467,22474,22465,22466
201905011501,22466,22467,22465,22465
201905011502,22465,22471,22465,22468
201905011503,22468,22470,22466,22467
201905011504,22467,22467,22457,22464
201905011505,22464,22466,22461,22462
201905011506,22463,22465,22463,22465
201905011507,22465,22466,22465,22466
201905011508,22466,22466,22465,22465
201905011509,22465,22466,22465,22466
201905011510,22466,22472,22466,22471
201905011511,22471,22472,22470,22471
201905011512,22471,22472,22469,22470
201905011513,22470,22470,22463,22466
201905011514,22466,22466,22463,22466
201905011515,22466,22466,22461,22464
201905011516,22464,22466,22461,22466
201905011517,22466,22466,22463,22466
201905011518,22466,22466,22466,22466
201905011519,22466,22466,22460,22460
201905011520,22460,22466,22460,22466
201905011521,22466,22466,22466,22466
201905011522,22466,22466,22466,22466
201905011523,22466,22466,22465,22466
201905011524,22466,22466,22465,22465
201905011525,22466,22466,22465,22465
201905011526,22465,22466,22464,22466
201905011527,22466,22467,22464,22466
201905011528,22466,22467,22465,22465
201905011529,22465,22466,22465,22465
201905011530,22465,22467,22465,22466
201905011531,22466,22466,22460,22461
201905011532,22461,22461,22461,22461
201905011533,22461,22461,22461,22461
201905011534,22461,22462,22456,22457
201905011535,22457,22457,22457,22457
201905011536,22457,22459,22457,22459
201905011537,22459,22459,22457,22457
201905011538,22457,22457,22457,22457
201905011539,22457,22457,22457,22457
201905011540,22457,22457,22457,22457
201905011541,22457,22457,22457,22457
201905011542,22457,22459,22457,22459
201905011543,22459,22459,22456,22456
201905011544,22456,22460,22456,22457
201905011545,22457,22458,22457,22458
201905011546,22458,22458,22458,22458
201905011547,22458,22458,22457,22457
201905011548,22457,22461,22457,22458
201905011549,22458,22458,22457,22457
201905011550,22457,22457,22457,22457
201905011551,22457,22457,22456,22456
201905011552,22456,22458,22456,22457
201905011553,22457,22460,22457,22460
201905011554,22460,22461,22460,22461
201905011555,22453,22460,22453,22460
201905011556,22460,22460,22457,22460
201905011557,22460,22461,22460,22460
201905011558,22460,22461,22460,22460
201905011559,22460,22460,22458,22460
201905011600,22460,22460,22455,22455
201905011601,22455,22456,22455,22455
201905011602,22455,22456,22454,22455
201905011603,22455,22456,22455,22455
201905011604,22455,22456,22455,22455
201905011605,22455,22456,22451,22452
201905011606,22452,22453,22450,22450
201905011607,22450,22450,22445,22446
201905011608,22446,22446,22445,22445
201905011609,22445,22446,22445,22446
201905011610,22446,22451,22445,22450
201905011611,22450,22451,22448,22450
201905011612,22450,22450,22450,22450
201905011613,22450,22450,22449,22449
201905011614,22449,22450,22449,22450
201905011615,22450,22454,22450,22454
201905011616,22454,22454,22452,22454
201905011617,22454,22461,22454,22461
201905011618,22461,22461,22458,22458
201905011619,22458,22460,22456,22456
201905011620,22456,22462,22456,22462
201905011621,22462,22463,22460,22462
201905011622,22462,22467,22460,22460
201905011623,22460,22462,22460,22462
201905011624,22462,22466,22462,22466
201905011625,22466,22466,22465,22466
201905011626,22466,22466,22465,22465
201905011627,22465,22465,22465,22465
201905011628,22465,22465,22465,22465
201905011629,22465,22467,22465,22466
201905011630,22466,22466,22463,22463
201905011631,22463,22463,22460,22460
201905011632,22460,22461,22460,22461
201905011633,22461,22466,22461,22466
201905011634,22466,22467,22466,22466
201905011635,22466,22467,22466,22466
201905011636,22466,22467,22466,22466
201905011637,22466,22466,22466,22466
201905011638,22466,22467,22463,22466
201905011639,22466,22466,22460,22461
201905011640,22461,22462,22456,22462
201905011641,22462,22462,22462,22462
201905011642,22462,22462,22461,22462
201905011643,22462,22462,22462,22462
201905011644,22462,22462,22462,22462
201905011645,22462,22467,22462,22467
201905011646,22467,22467,22466,22466
201905011647,22466,22467,22466,22466
201905011648,22466,22466,22461,22461
201905011649,22461,22465,22461,22465
201905011650,22465,22467,22461,22467
201905011651,22467,22467,22462,22464
201905011652,22464,22466,22462,22465
201905011653,22465,22465,22465,22465
201905011654,22465,22465,22463,22463
201905011655,22463,22465,22463,22464
201905011656,22464,22464,22462,22462
201905011657,22462,22463,22462,22463
201905011658,22463,22463,22462,22463
201905011659,22463,22466,22463,22466
201905011700,22466,22466,22465,22465
201905011701,22465,22467,22465,22466
201905011702,22466,22466,22466,22466
201905011703,22466,22466,22466,22466
201905011704,22466,22466,22466,22466
201905011705,22466,22466,22465,22465
201905011706,22465,22465,22465,22465
201905011707,22465,22466,22465,22465
201905011708,22465,22466,22465,22465
201905011709,22465,22466,22465,22465
201905011710,22465,22465,22465,22465
201905011711,22465,22466,22464,22465
201905011712,22465,22465,22465,22465
201905011713,22465,22465,22460,22462
201905011714,22462,22462,22461,22462
201905011715,22462,22463,22461,22463
201905011716,22463,22465,22462,22465
201905011717,22465,22465,22462,22465
201905011718,22465,22465,22463,22463
201905011719,22463,22465,22462,22462
201905011720,22462,22462,22460,22461
201905011721,22461,22461,22461,22461
201905011722,22461,22461,22460,22461
201905011723,22461,22461,22461,22461
201905011724,22461,22462,22461,22462
201905011725,22462,22462,22457,22458
201905011726,22458,22461,22457,22457
201905011727,22457,22459,22454,22454
201905011728,22454,22455,22450,22451
201905011729,22451,22451,22450,22451
201905011730,22451,22456,22451,22456
201905011731,22456,22457,22456,22456
201905011732,22456,22456,22456,22456
201905011733,22456,22456,22451,22454
201905011734,22454,22455,22451,22452
201905011735,22452,22453,22452,22453
201905011736,22453,22455,22451,22451
201905011737,22451,22452,22451,22451
201905011738,22451,22452,22451,22451
201905011739,22451,22452,22451,22452
201905011740,22452,22452,22452,22452
201905011741,22452,22452,22452,22452
201905011742,22452,22452,22450,22450
201905011743,22450,22452,22443,22443
201905011744,22443,22446,22443,22445
201905011745,22445,22447,22443,22446
201905011746,22446,22451,22446,22451
201905011747,22451,22451,22451,22451
201905011748,22451,22452,22451,22452
201905011749,22452,22452,22451,22452
201905011750,22452,22452,22450,22450
201905011751,22450,22451,22450,22450
201905011752,22450,22451,22446,22446
201905011753,22446,22446,22446,22446
201905011754,22446,22446,22446,22446
201905011755,22446,22446,22446,22446
201905011756,22446,22447,22446,22447
201905011757,22447,22447,22445,22445
201905011758,22445,22446,22445,22446
201905011759,22446,22446,22446,22446
201905011800,22446,22446,22446,22446
201905011801,22446,22446,22446,22446
201905011802,22446,22447,22445,22445
201905011803,22445,22445,22440,22441
201905011804,22442,22442,22442,22442
201905011805,22442,22442,22439,22440
201905011806,22440,22440,22437,22440
201905011807,22440,22442,22440,22442
201905011808,22442,22442,22441,22442
201905011809,22442,22442,22436,22436
201905011810,22436,22440,22435,22438
201905011811,22438,22440,22438,22440
201905011812,22440,22441,22440,22441
201905011813,22441,22442,22441,22441
201905011814,22441,22441,22437,22437
201905011815,22437,22442,22437,22442
201905011816,22442,22442,22435,22437
201905011817,22437,22437,22432,22432
201905011818,22432,22433,22432,22432
201905011819,22432,22437,22431,22437
201905011820,22437,22441,22437,22441
201905011821,22441,22441,22440,22440
201905011822,22440,22440,22435,22437
201905011823,22437,22437,22437,22437
201905011824,22437,22437,22437,22437
201905011825,22437,22437,22437,22437
201905011826,22437,22442,22437,22440
201905011827,22440,22442,22440,22442
201905011828,22442,22443,22440,22441
201905011829,22441,22441,22440,22440
201905011830,22440,22441,22440,22440
201905011831,22440,22442,22440,22441
201905011832,22441,22442,22436,22436
201905011833,22436,22436,22436,22436
201905011834,22436,22436,22436,22436
201905011835,22436,22437,22435,22435
201905011836,22435,22436,22427,22427
201905011837,22427,22427,22426,22426
201905011838,22426,22431,22425,22431
201905011839,22431,22431,22426,22426
201905011840,22426,22427,22425,22427
201905011841,22427,22427,22426,22426
201905011842,22426,22427,22426,22426
201905011843,22426,22427,22425,22425
201905011844,22425,22425,22420,22421
201905011845,22421,22421,22421,22421
201905011846,22421,22421,22421,22421
201905011847,22421,22421,22417,22418
201905011848,22418,22422,22418,22421
201905011849,22421,22422,22420,22422
201905011850,22422,22422,22417,22421
201905011851,22421,22421,22415,22415
201905011852,22415,22420,22415,22420
201905011853,22420,22421,22415,22420
201905011854,22420,22421,22416,22416
201905011855,22416,22416,22416,22416
201905011856,22416,22417,22416,22417
201905011857,22417,22417,22417,22417
201905011858,22417,22417,22417,22417
201905011859,22417,22417,22416,22416
201905011900,22416,22417,22416,22416
201905011901,22416,22417,22416,22416
201905011902,22416,22416,22416,22416
201905011903,22416,22416,22416,22416
201905011904,22416,22417,22416,22417
201905011905,22417,22417,22416,22416
201905011906,22416,22416,22416,22416
201905011907,22416,22417,22410,22415
201905011908,22415,22416,22415,22416
201905011909,22416,22417,22416,22417
201905011910,22417,22417,22411,22411
201905011911,22411,22412,22409,22409
201905011912,22409,22412,22408,22411
201905011913,22411,22412,22407,22411
201905011914,22411,22412,22408,22412
201905011915,22412,22412,22411,22412
201905011916,22412,22412,22412,22412
201905011917,22412,22412,22412,22412
201905011918,22412,22412,22412,22412
201905011919,22412,22412,22412,22412
201905011920,22412,22412,22411,22411
201905011921,22411,22411,22410,22410
201905011922,22410,22412,22410,22411
201905011923,22411,22412,22411,22411
201905011924,22411,22414,22411,22414
201905011925,22414,22414,22414,22414
201905011926,22414,22414,22414,22414
201905011927,22414,22422,22414,22422
201905011928,22422,22422,22422,22422
201905011929,22422,22427,22422,22427
201905011930,22427,22427,22426,22426
201905011931,22426,22427,22425,22425
201905011932,22425,22426,22425,22425
201905011933,22425,22434,22425,22434
201905011934,22434,22434,22431,22431
201905011935,22431,22432,22431,22432
201905011936,22432,22432,22432,22432
201905011937,22432,22432,22426,22427
201905011938,22427,22427,22427,22427
201905011939,22427,22427,22426,22426
201905011940,22426,22427,22426,22427
201905011941,22427,22427,22427,22427
201905011942,22427,22427,22418,22418
201905011943,22418,22418,22411,22412
201905011944,22412,22412,22406,22407
201905011945,22407,22407,22407,22407
201905011946,22407,22407,22406,22407
201905011947,22407,22407,22391,22391
201905011948,22391,22391,22390,22391
201905011949,22391,22392,22391,22392
201905011950,22392,22396,22391,22396
201905011951,22396,22401,22396,22400
201905011952,22400,22400,22399,22399
201905011953,22399,22399,22395,22395
201905011954,22395,22397,22395,22397
201905011955,22397,22397,22396,22397
201905011956,22397,22397,22391,22391
201905011957,22391,22397,22391,22397
201905011958,22397,22397,22394,22395
201905011959,22395,22396,22395,22395
201905012000,22395,22396,22395,22395
201905012001,22395,22395,22393,22393
201905012002,22393,22395,22390,22392
201905012003,22392,22392,22386,22387
201905012004,22387,22393,22387,22392
201905012005,22392,22392,22390,22391
201905012006,22391,22392,22391,22392
201905012007,22392,22396,22392,22396
201905012008,22396,22397,22396,22397
201905012009,22397,22407,22397,22406
201905012010,22406,22411,22406,22411
201905012011,22411,22412,22410,22411
201905012012,22411,22412,22411,22412
201905012013,22412,22412,22412,22412
201905012014,22412,22417,22412,22417
201905012015,22417,22417,22416,22417
201905012016,22417,22417,22417,22417
201905012017,22417,22417,22417,22417
201905012018,22417,22417,22416,22417
201905012019,22417,22417,22415,22416
201905012020,22416,22417,22413,22413
201905012021,22413,22416,22411,22412
201905012022,22412,22412,22412,22412
201905012023,22412,22412,22411,22412
201905012024,22412,22412,22412,22412
201905012025,22412,22412,22406,22412
201905012026,22412,22412,22411,22412
201905012027,22412,22412,22410,22411
201905012028,22411,22411,22410,22411
201905012029,22411,22411,22411,22411
201905012030,22411,22412,22411,22412
201905012031,22412,22412,22411,22412
201905012032,22412,22412,22412,22412
201905012033,22412,22412,22411,22411
201905012034,22411,22412,22411,22412
201905012035,22412,22412,22412,22412
201905012036,22412,22412,22412,22412
201905012037,22412,22412,22412,22412
201905012038,22412,22412,22412,22412
201905012039,22412,22412,22412,22412
201905012040,22412,22412,22412,22412
201905012041,22412,22412,22412,22412
201905012042,22412,22412,22412,22412
201905012043,22412,22412,22412,22412
201905012044,22412,22412,22412,22412
201905012045,22412,22412,22412,22412
201905012046,22412,22412,22412,22412
201905012047,22412,22412,22412,22412
201905012048,22412,22412,22412,22412
201905012049,22412,22412,22412,22412
201905012050,22412,22412,22412,22412
201905012051,22412,22412,22412,22412
201905012052,22412,22412,22412,22412
201905012053,22412,22412,22412,22412
201905012054,22412,22412,22412,22412
201905012055,22412,22412,22412,22412
201905012056,22412,22412,22412,22412
201905012057,22412,22412,22411,22411
201905012058,22411,22412,22411,22412
201905012059,22412,22412,22411,22412
201905012100,22412,22412,22406,22406
201905012101,22406,22417,22406,22417
201905012102,22417,22417,22415,22417
201905012103,22417,22417,22413,22415
201905012104,22415,22415,22412,22412
201905012105,22412,22412,22411,22412
201905012106,22412,22412,22411,22411
201905012107,22411,22411,22411,22411
201905012108,22411,22411,22410,22411
201905012109,22411,22411,22406,22406
201905012110,22406,22406,22397,22397
201905012111,22397,22397,22396,22396
201905012112,22396,22402,22395,22396
201905012113,22396,22396,22395,22395
201905012114,22395,22399,22395,22398
201905012115,22398,22416,22398,22415
201905012116,22415,22415,22405,22410
201905012117,22410,22411,22410,22411
201905012118,22411,22412,22410,22412
201905012119,22412,22417,22411,22417
201905012120,22417,22417,22416,22417
201905012121,22417,22417,22416,22417
201905012122,22417,22417,22416,22417
201905012123,22417,22417,22416,22416
201905012124,22416,22416,22416,22416
201905012125,22416,22422,22416,22419
201905012126,22419,22420,22416,22416
201905012127,22416,22417,22416,22417
201905012128,22417,22417,22414,22414
201905012129,22414,22415,22404,22404
201905012130,22403,22407,22400,22405
201905012131,22405,22412,22405,22410
201905012132,22410,22417,22410,22417
201905012133,22417,22417,22416,22417
201905012134,22417,22417,22412,22412
201905012135,22412,22412,22406,22406
201905012136,22406,22407,22401,22402
201905012137,22402,22402,22402,22402
201905012138,22402,22402,22390,22391
201905012139,22391,22397,22391,22396
201905012140,22396,22402,22396,22400
201905012141,22400,22402,22400,22401
201905012142,22401,22402,22401,22401
201905012143,22401,22402,22401,22401
201905012144,22401,22402,22401,22401
201905012145,22401,22402,22401,22401
201905012146,22401,22401,22401,22401
201905012147,22401,22401,22401,22401
201905012148,22401,22401,22400,22401
201905012149,22401,22401,22401,22401
201905012150,22401,22401,22386,22386
201905012151,22386,22391,22385,22390
201905012152,22390,22390,22386,22387
201905012153,22387,22387,22382,22383
201905012154,22383,22386,22382,22384
201905012155,22384,22385,22380,22385
201905012156,22385,22386,22380,22384
201905012157,22384,22384,22376,22377
201905012158,22377,22382,22375,22382
201905012159,22382,22392,22381,22392
201905012200,22392,22392,22386,22392
201905012201,22392,22394,22390,22391
201905012202,22391,22392,22391,22392
201905012203,22392,22392,22382,22382
201905012204,22386,22386,22380,22382
201905012205,22382,22382,22377,22377
201905012206,22377,22377,22377,22377
201905012207,22377,22381,22375,22376
201905012208,22376,22380,22375,22377
201905012209,22377,22382,22375,22382
201905012210,22382,22387,22381,22382
201905012211,22382,22382,22382,22382
201905012212,22382,22382,22382,22382
201905012213,22382,22382,22382,22382
201905012214,22382,22382,22376,22376
201905012215,22376,22377,22373,22377
201905012216,22377,22377,22376,22377
201905012217,22377,22382,22377,22382
201905012218,22382,22382,22382,22382
201905012219,22382,22382,22376,22377
201905012220,22377,22380,22375,22380
201905012221,22380,22380,22376,22380
201905012222,22380,22380,22376,22377
201905012223,22377,22382,22377,22382
201905012224,22382,22387,22381,22387
201905012225,22387,22387,22382,22384
201905012226,22384,22386,22380,22382
201905012227,22382,22382,22375,22376
201905012228,22376,22377,22371,22372
201905012229,22372,22372,22370,22370
201905012230,22370,22372,22366,22367
201905012231,22367,22367,22356,22362
201905012232,22362,22362,22361,22362
201905012233,22362,22367,22360,22362
201905012234,22362,22367,22360,22367
201905012235,22367,22367,22361,22362
201905012236,22362,22362,22355,22357
201905012237,22357,22365,22356,22364
201905012238,22364,22377,22360,22375
201905012239,22375,22377,22370,22375
201905012240,22375,22376,22360,22363
201905012241,22363,22366,22355,22366
201905012242,22366,22367,22356,22367
201905012243,22367,22373,22360,22360
201905012244,22360,22362,22350,22356
201905012245,22356,22356,22345,22351
201905012246,22351,22357,22345,22346
201905012247,22345,22347,22343,22346
201905012248,22346,22347,22340,22342
201905012249,22342,22347,22340,22342
201905012250,22342,22342,22340,22341
201905012251,22341,22347,22340,22347
201905012252,22347,22351,22346,22348
201905012253,22350,22357,22350,22357
201905012254,22357,22357,22351,22357
201905012255,22357,22357,22345,22346
201905012256,22346,22366,22345,22366
201905012257,22366,22366,22360,22362
201905012258,22362,22367,22360,22366
201905012259,22366,22370,22363,22370
201905012300,22370,22370,22316,22330
201905012301,22330,22346,22322,22346
201905012302,22346,22355,22346,22346
201905012303,22346,22346,22316,22316
201905012304,22316,22332,22305,22332
201905012305,22332,22332,22324,22331
201905012306,22331,22337,22331,22334
201905012307,22334,22347,22334,22341
201905012308,22340,22356,22340,22351
201905012309,22351,22352,22338,22341
201905012310,22341,22342,22338,22340
201905012311,22341,22352,22340,22351
201905012312,22351,22352,22346,22352
201905012313,22352,22354,22350,22352
201905012314,22352,22356,22350,22352
201905012315,22352,22352,22345,22350
201905012316,22350,22350,22340,22342
201905012317,22342,22347,22332,22332
201905012318,22332,22336,22327,22331
201905012319,22331,22332,22326,22331
201905012320,22332,22339,22330,22338
201905012321,22338,22350,22338,22347
201905012322,22347,22362,22347,22361
201905012323,22361,22367,22360,22361
201905012324,22361,22362,22347,22347
201905012325,22347,22347,22332,22332
201905012326,22332,22332,22331,22331
201905012327,22331,22332,22331,22331
201905012328,22331,22331,22322,22323
201905012329,22323,22323,22311,22311
201905012330,22311,22312,22305,22306
201905012331,22306,22317,22305,22317
201905012332,22317,22317,22314,22317
201905012333,22317,22327,22315,22326
201905012334,22326,22328,22325,22326
201905012335,22326,22336,22326,22334
201905012336,22334,22341,22334,22341
201905012337,22341,22342,22335,22337
201905012338,22337,22341,22332,22341
201905012339,22341,22342,22334,22334
201905012340,22334,22336,22334,22335
201905012341,22335,22335,22329,22332
201905012342,22332,22332,22325,22327
201905012343,22327,22327,22315,22317
201905012344,22317,22317,22316,22317
201905012345,22317,22324,22316,22322
201905012346,22322,22326,22321,22326
201905012347,22326,22331,22326,22331
201905012348,22331,22332,22327,22332
201905012349,22332,22332,22330,22332
201905012350,22332,22333,22330,22331
201905012351,22331,22334,22331,22331
201905012352,22331,22335,22330,22335
201905012353,22335,22335,22331,22331
201905012354,22331,22331,22327,22330
201905012355,22330,22331,22328,22329
201905012356,22329,22331,22325,22327
201905012357,22327,22330,22327,22330
201905012358,22330,22330,22328,22330
201905012359,22330,22337,22330,22336
201905020000,22335,22337,22333,22335
201905020001,22335,22335,22327,22327
201905020002,22327,22336,22325,22336
201905020003,22336,22347,22335,22347
201905020004,22347,22356,22346,22355
201905020005,22355,22355,22350,22351
201905020006,22351,22352,22350,22350
201905020007,22350,22357,22350,22357
201905020008,22357,22357,22351,22352
201905020009,22352,22352,22350,22351
201905020010,22351,22357,22351,22357
201905020011,22357,22357,22355,22356
201905020012,22356,22361,22356,22361
201905020013,22361,22362,22361,22362
201905020014,22362,22367,22362,22367
201905020015,22367,22367,22366,22367
201905020016,22367,22367,22366,22367
201905020017,22367,22367,22361,22362
201905020018,22362,22362,22362,22362
201905020019,22362,22362,22356,22356
201905020020,22356,22356,22346,22346
201905020021,22346,22347,22345,22346
201905020022,22346,22347,22344,22347
201905020023,22347,22347,22346,22347
201905020024,22347,22357,22345,22356
201905020025,22356,22360,22356,22360
201905020026,22360,22362,22360,22362
201905020027,22362,22362,22361,22361
201905020028,22361,22362,22356,22360
201905020029,22360,22361,22356,22359
201905020030,22359,22361,22357,22360
201905020031,22360,22361,22359,22360
201905020032,22360,22362,22359,22362
201905020033,22362,22362,22361,22362
201905020034,22362,22362,22361,22362
201905020035,22362,22366,22361,22366
201905020036,22366,22367,22366,22366
201905020037,22366,22369,22365,22367
201905020038,22367,22372,22365,22370
201905020039,22370,22370,22365,22366
201905020040,22366,22370,22366,22366
201905020041,22366,22376,22366,22373
201905020042,22373,22373,22370,22372
201905020043,22372,22375,22370,22374
201905020044,22373,22377,22370,22377
201905020045,22377,22377,22371,22371
201905020046,22372,22372,22371,22372
201905020047,22372,22372,22366,22367
201905020048,22367,22367,22357,22357
201905020049,22357,22357,22344,22347
201905020050,22347,22347,22345,22346
201905020051,22346,22347,22345,22347
201905020052,22347,22347,22346,22346
201905020053,22346,22347,22345,22347
201905020054,22347,22347,22346,22346
201905020055,22346,22352,22346,22352
201905020056,22352,22357,22352,22355
201905020057,22355,22356,22353,22355
201905020058,22355,22357,22355,22357
201905020059,22357,22357,22354,22355
201905020100,22355,22356,22351,22351
201905020101,22351,22352,22350,22351
201905020102,22351,22352,22349,22351
201905020103,22351,22351,22344,22344
201905020104,22344,22344,22342,22342
201905020105,22342,22342,22335,22335
201905020106,22335,22335,22326,22327
201905020107,22327,22327,22327,22327
201905020108,22327,22327,22321,22322
201905020109,22322,22323,22320,22323
201905020110,22323,22323,22321,22321
201905020111,22321,22322,22321,22322
201905020112,22322,22323,22322,22322
201905020113,22322,22322,22321,22322
201905020114,22322,22327,22320,22327
201905020115,22327,22327,22320,22325
201905020116,22325,22325,22317,22319
201905020117,22320,22322,22319,22322
201905020118,22322,22322,22316,22317
201905020119,22317,22317,22311,22312
201905020120,22312,22312,22309,22309
201905020121,22309,22312,22306,22312
201905020122,22312,22312,22305,22311
201905020123,22311,22311,22306,22307
201905020124,22307,22307,22298,22298
201905020125,22298,22298,22291,22294
201905020126,22294,22294,22291,22294
201905020127,22294,22297,22293,22297
201905020128,22297,22302,22295,22302
201905020129,22302,22307,22301,22305
201905020130,22305,22307,22302,22304
201905020131,22304,22305,22301,22301
201905020132,22302,22303,22297,22297
201905020133,22297,22297,22292,22295
201905020134,22295,22307,22294,22307
201905020135,22307,22314,22305,22310
201905020136,22310,22312,22306,22310
201905020137,22310,22314,22307,22310
201905020138,22310,22315,22310,22311
201905020139,22311,22312,22301,22301
201905020140,22301,22302,22296,22296
201905020141,22296,22297,22287,22291
201905020142,22291,22292,22281,22282
201905020143,22282,22282,22278,22282
201905020144,22282,22288,22280,22288
201905020145,22289,22292,22289,22291
201905020146,22291,22292,22286,22286
201905020147,22286,22287,22281,22281
201905020148,22281,22285,22279,22282
201905020149,22282,22282,22282,22282
201905020150,22282,22287,22281,22282
201905020151,22282,22286,22281,22282
201905020152,22282,22284,22280,22282
201905020153,22282,22285,22280,22285
201905020154,22285,22287,22284,22287
201905020155,22287,22288,22285,22288
201905020156,22288,22293,22288,22293
201905020157,22293,22293,22291,22293
201905020158,22293,22295,22293,22294
201905020159,22294,22296,22294,22294
201905020200,22294,22321,22294,22311
201905020201,22311,22312,22307,22311
201905020202,22311,22322,22310,22322
201905020203,22322,22322,22315,22321
201905020204,22322,22322,22311,22312
201905020205,22312,22312,22302,22302
201905020206,22302,22302,22291,22294
201905020207,22294,22294,22286,22291
201905020208,22291,22291,22287,22291
201905020209,22291,22292,22287,22291
201905020210,22291,22291,22282,22282
201905020211,22282,22286,22280,22286
201905020212,22286,22286,22285,22285
201905020213,22285,22287,22281,22283
201905020214,22283,22300,22283,22300
201905020215,22300,22300,22295,22296
201905020216,22296,22297,22291,22292
201905020217,22292,22294,22292,22294
201905020218,22294,22297,22292,22292
201905020219,22292,22302,22292,22302
201905020220,22302,22307,22299,22307
201905020221,22306,22307,22305,22305
201905020222,22305,22307,22305,22306
201905020223,22306,22307,22304,22304
201905020224,22304,22304,22297,22297
201905020225,22297,22297,22286,22287
201905020226,22287,22287,22282,22282
201905020227,22282,22284,22280,22284
201905020228,22284,22292,22283,22291
201905020229,22291,22291,22285,22285
201905020230,22286,22288,22285,22287
201905020231,22287,22292,22286,22292
201905020232,22292,22296,22290,22292
201905020233,22292,22295,22291,22292
201905020234,22292,22292,22286,22287
201905020235,22287,22287,22283,22287
201905020236,22287,22294,22286,22294
201905020237,22294,22302,22291,22301
201905020238,22301,22302,22300,22302
201905020239,22302,22302,22292,22295
201905020240,22295,22296,22292,22295
201905020241,22295,22295,22286,22287
201905020242,22287,22292,22285,22290
201905020243,22290,22294,22287,22293
201905020244,22294,22302,22292,22302
201905020245,22302,22307,22300,22307
201905020246,22307,22307,22303,22305
201905020247,22305,22305,22301,22302
201905020248,22302,22302,22292,22296
201905020249,22296,22296,22292,22295
201905020250,22295,22296,22295,22296
201905020251,22296,22297,22292,22292
201905020252,22292,22297,22292,22292
201905020253,22292,22297,22292,22293
201905020254,22293,22294,22293,22293
201905020255,22293,22293,22290,22293
201905020256,22293,22297,22292,22297
201905020257,22297,22307,22296,22307
201905020258,22307,22315,22305,22314
201905020259,22314,22317,22307,22307
201905020300,22307,22322,22299,22313
201905020301,22313,22325,22310,22315
201905020302,22315,22320,22310,22316
201905020303,22319,22325,22317,22325
201905020304,22325,22342,22325,22342
201905020305,22342,22347,22341,22345
201905020306,22345,22346,22342,22345
201905020307,22345,22356,22343,22356
201905020308,22356,22357,22349,22354
201905020309,22354,22355,22353,22353
201905020310,22353,22359,22340,22359
201905020311,22359,22362,22355,22356
201905020312,22356,22372,22355,22371
201905020313,22371,22371,22362,22367
201905020314,22367,22370,22360,22362
201905020315,22362,22372,22362,22372
201905020316,22372,22372,22365,22366
201905020317,22366,22377,22360,22372
201905020318,22372,22372,22356,22357
201905020319,22357,22367,22355,22363
201905020320,22363,22367,22360,22361
201905020321,22361,22361,22355,22355
201905020322,22354,22371,22350,22371
201905020323,22371,22377,22370,22372
201905020324,22372,22377,22370,22375
201905020325,22375,22379,22370,22371
201905020326,22371,22373,22370,22372
201905020327,22372,22377,22367,22369
201905020328,22369,22369,22357,22357
201905020329,22357,22357,22353,22353
201905020330,22353,22358,22351,22358
201905020331,22358,22377,22358,22371
201905020332,22371,22371,22338,22342
201905020333,22342,22342,22326,22331
201905020334,22331,22367,22331,22365
201905020335,22365,22366,22348,22351
201905020336,22351,22372,22348,22369
201905020337,22369,22369,22345,22352
201905020338,22352,22362,22327,22331
201905020339,22331,22337,22307,22307
201905020340,22307,22309,22286,22292
201905020341,22292,22315,22285,22313
201905020342,22313,22327,22310,22327
201905020343,22327,22363,22321,22356
201905020344,22356,22371,22349,22370
201905020345,22370,22372,22365,22370
201905020346,22370,22370,22356,22366
201905020347,22366,22366,22355,22361
201905020348,22361,22361,22344,22347
201905020349,22347,22347,22325,22330
201905020350,22330,22370,22317,22370
201905020351,22370,22373,22321,22330
201905020352,22330,22356,22326,22355
201905020353,22355,22376,22355,22373
201905020354,22373,22374,22366,22366
201905020355,22366,22373,22362,22362
201905020356,22362,22371,22347,22370
201905020357,22370,22377,22366,22375
201905020358,22375,22375,22366,22374
201905020359,22374,22374,22361,22366
201905020400,22366,22372,22359,22367
201905020401,22367,22371,22355,22356
201905020402,22356,22360,22346,22350
201905020403,22350,22351,22325,22327
201905020404,22327,22352,22327,22352
201905020405,22352,22363,22351,22359
201905020406,22359,22361,22322,22326
201905020407,22326,22345,22325,22344
201905020408,22342,22362,22342,22356
201905020409,22356,22357,22351,22353
201905020410,22353,22357,22345,22352
201905020411,22352,22352,22346,22351
201905020412,22351,22361,22349,22352
201905020413,22352,22356,22351,22352
201905020414,22352,22361,22348,22361
201905020415,22361,22361,22355,22360
201905020416,22360,22366,22359,22366
201905020417,22366,22366,22351,22351
201905020418,22351,22360,22347,22360
201905020419,22360,22361,22356,22358
201905020420,22358,22366,22350,22352
201905020421,22352,22352,22342,22348
201905020422,22348,22353,22346,22351
201905020423,22351,22352,22345,22346
201905020424,22346,22347,22326,22328
201905020425,22328,22328,22306,22307
201905020426,22307,22326,22305,22326
201905020427,22326,22337,22326,22337
201905020428,22337,22338,22331,22337
201905020429,22337,22337,22317,22317
201905020430,22317,22320,22292,22301
201905020431,22301,22302,22286,22289
201905020432,22290,22293,22284,22284
201905020433,22284,22295,22276,22295
201905020434,22295,22308,22286,22286
201905020435,22288,22302,22287,22302
201905020436,22302,22312,22294,22294
201905020437,22294,22301,22290,22301
201905020438,22301,22305,22285,22285
201905020439,22285,22286,22270,22278
201905020440,22278,22278,22269,22277
201905020441,22277,22285,22277,22281
201905020442,22281,22287,22281,22282
201905020443,22282,22291,22281,22287
201905020444,22287,22302,22287,22291
201905020445,22291,22291,22270,22270
201905020446,22270,22274,22265,22271
201905020447,22271,22272,22265,22267
201905020448,22267,22269,22265,22266
201905020449,22266,22272,22265,22266
201905020450,22266,22267,22256,22256
201905020451,22256,22260,22250,22252
201905020452,22252,22254,22247,22247
201905020453,22247,22260,22242,22242
201905020454,22242,22251,22240,22242
201905020455,22242,22250,22241,22247
201905020456,22247,22255,22243,22245
201905020457,22245,22251,22240,22244
201905020458,22244,22247,22241,22241
201905020459,22241,22252,22241,22246
201905020500,22246,22253,22235,22235
201905020501,22235,22237,22226,22226
201905020502,22226,22226,22216,22216
201905020503,22216,22217,22211,22211
201905020504,22211,22216,22211,22216
201905020505,22216,22221,22212,22216
201905020506,22216,22217,22215,22217
201905020507,22217,22217,22212,22213
201905020508,22213,22213,22210,22212
201905020509,22212,22212,22206,22206
201905020510,22206,22208,22205,22207
201905020511,22207,22207,22207,22207
201905020512,22207,22207,22193,22194
201905020513,22194,22207,22190,22207
201905020514,22207,22207,22195,22195
201905020515,22195,22206,22195,22206
201905020516,22206,22226,22206,22226
201905020517,22226,22227,22225,22227
201905020518,22227,22229,22226,22226
201905020519,22226,22230,22226,22230
201905020520,22230,22233,22225,22230
201905020521,22230,22231,22230,22231
201905020522,22231,22231,22230,22230
201905020523,22230,22230,22225,22225
201905020524,22225,22225,22223,22223
201905020525,22223,22227,22223,22224
201905020526,22224,22224,22223,22224
201905020527,22224,22224,22224,22224
201905020528,22224,22224,22223,22223
201905020529,22223,22225,22221,22221
201905020530,22221,22223,22221,22221
201905020531,22221,22222,22220,22220
201905020532,22220,22220,22218,22218
201905020533,22218,22218,22203,22205
201905020534,22205,22205,22200,22203
201905020535,22203,22203,22195,22197
201905020536,22197,22197,22192,22193
201905020537,22193,22194,22191,22193
201905020538,22194,22194,22181,22183
201905020539,22183,22187,22175,22178
201905020540,22178,22181,22175,22175
201905020541,22175,22178,22175,22177
201905020542,22177,22177,22176,22176
201905020543,22176,22176,22165,22166
201905020544,22166,22168,22166,22167
201905020545,22167,22172,22167,22171
201905020546,22171,22171,22171,22171
201905020547,22171,22171,22169,22171
201905020548,22171,22171,22170,22170
201905020549,22170,22170,22167,22168
201905020550,22168,22169,22168,22168
201905020551,22168,22172,22168,22170
201905020552,22170,22171,22166,22166
201905020553,22166,22169,22166,22169
201905020554,22166,22171,22166,22171
201905020555,22171,22171,22171,22171
201905020556,22171,22174,22171,22173
201905020557,22173,22175,22173,22173
201905020558,22173,22173,22171,22171
201905020559,22171,22171,22169,22169
