日時,始値(BID),高値(BID),安値(BID),終値(BID)
201904230830,22250,22250,22241,22241
201904230831,22241,22241,22234,22236
201904230832,22236,22237,22230,22231
201904230833,22231,22237,22225,22237
201904230834,22237,22241,22236,22240
201904230835,22240,22242,22240,22242
201904230836,22242,22247,22242,22246
201904230837,22246,22247,22246,22247
201904230838,22247,22247,22247,22247
201904230839,22247,22247,22242,22246
201904230840,22246,22246,22245,22246
201904230841,22246,22251,22246,22250
201904230842,22250,22250,22246,22247
201904230843,22247,22247,22245,22246
201904230844,22246,22246,22241,22242
201904230845,22242,22245,22240,22242
201904230846,22242,22247,22239,22247
201904230847,22246,22246,22238,22241
201904230848,22242,22247,22241,22247
201904230849,22247,22250,22246,22247
201904230850,22247,22247,22245,22246
201904230851,22246,22247,22241,22247
201904230852,22247,22247,22241,22242
201904230853,22242,22242,22242,22242
201904230854,22242,22246,22242,22245
201904230855,22245,22245,22241,22242
201904230856,22242,22249,22242,22247
201904230857,22247,22247,22242,22246
201904230858,22246,22246,22241,22244
201904230859,22244,22244,22241,22242
201904230900,22242,22243,22226,22236
201904230901,22236,22266,22236,22262
201904230902,22262,22264,22256,22256
201904230903,22256,22264,22246,22261
201904230904,22261,22262,22246,22246
201904230905,22246,22250,22241,22250
201904230906,22249,22254,22248,22253
201904230907,22253,22260,22251,22257
201904230908,22258,22259,22251,22255
201904230909,22255,22255,22251,22251
201904230910,22251,22254,22248,22252
201904230911,22252,22256,22250,22251
201904230912,22251,22252,22247,22247
201904230913,22247,22247,22241,22247
201904230914,22247,22247,22243,22246
201904230915,22246,22248,22233,22233
201904230916,22233,22247,22233,22244
201904230917,22245,22250,22243,22246
201904230918,22246,22250,22244,22250
201904230919,22250,22250,22246,22249
201904230920,22249,22249,22246,22249
201904230921,22249,22254,22249,22251
201904230922,22251,22252,22250,22251
201904230923,22251,22252,22250,22252
201904230924,22251,22251,22239,22240
201904230925,22240,22244,22238,22242
201904230926,22242,22245,22241,22245
201904230927,22245,22246,22244,22244
201904230928,22244,22244,22233,22233
201904230929,22232,22237,22232,22232
201904230930,22232,22236,22231,22232
201904230931,22232,22232,22228,22230
201904230932,22230,22231,22230,22230
201904230933,22230,22230,22222,22222
201904230934,22222,22222,22192,22201
201904230935,22201,22215,22197,22212
201904230936,22212,22214,22208,22212
201904230937,22212,22212,22209,22210
201904230938,22210,22211,22202,22207
201904230939,22207,22208,22182,22189
201904230940,22189,22195,22186,22190
201904230941,22190,22192,22182,22184
201904230942,22184,22186,22172,22172
201904230943,22172,22182,22171,22177
201904230944,22177,22177,22176,22177
201904230945,22177,22178,22176,22177
201904230946,22177,22187,22177,22186
201904230947,22186,22187,22186,22186
201904230948,22186,22187,22186,22186
201904230949,22186,22190,22186,22187
201904230950,22187,22187,22182,22182
201904230951,22181,22181,22172,22172
201904230952,22172,22177,22172,22172
201904230953,22172,22175,22169,22172
201904230954,22172,22172,22164,22167
201904230955,22167,22175,22167,22171
201904230956,22172,22172,22170,22170
201904230957,22170,22172,22170,22172
201904230958,22172,22172,22163,22165
201904230959,22165,22165,22143,22144
201904231000,22144,22156,22142,22152
201904231001,22152,22157,22152,22157
201904231002,22157,22157,22152,22155
201904231003,22155,22155,22147,22152
201904231004,22152,22152,22143,22147
201904231005,22147,22147,22143,22145
201904231006,22146,22147,22142,22146
201904231007,22146,22146,22145,22146
201904231008,22146,22147,22146,22147
201904231009,22147,22147,22131,22132
201904231010,22132,22132,22121,22122
201904231011,22122,22131,22122,22127
201904231012,22126,22127,22126,22127
201904231013,22127,22130,22127,22129
201904231014,22129,22132,22127,22132
201904231015,22132,22138,22127,22137
201904231016,22137,22137,22134,22135
201904231017,22135,22137,22132,22135
201904231018,22135,22135,22121,22122
201904231019,22122,22123,22113,22116
201904231020,22116,22121,22116,22120
201904231021,22120,22126,22119,22126
201904231022,22126,22127,22122,22125
201904231023,22125,22127,22125,22126
201904231024,22126,22137,22126,22132
201904231025,22132,22137,22131,22136
201904231026,22136,22145,22134,22141
201904231027,22142,22142,22128,22141
201904231028,22141,22146,22141,22146
201904231029,22146,22147,22141,22144
201904231030,22144,22151,22144,22146
201904231031,22146,22147,22141,22142
201904231032,22142,22145,22141,22144
201904231033,22144,22145,22144,22145
201904231034,22145,22154,22145,22152
201904231035,22152,22155,22152,22152
201904231036,22152,22159,22152,22157
201904231037,22157,22157,22157,22157
201904231038,22157,22157,22152,22155
201904231039,22155,22157,22155,22156
201904231040,22156,22164,22156,22157
201904231041,22157,22159,22156,22159
201904231042,22159,22159,22154,22157
201904231043,22157,22160,22157,22157
201904231044,22157,22165,22157,22165
201904231045,22165,22166,22161,22163
201904231046,22162,22164,22161,22162
201904231047,22162,22164,22162,22162
201904231048,22162,22164,22162,22162
201904231049,22162,22162,22149,22150
201904231050,22150,22152,22144,22144
201904231051,22144,22146,22139,22146
201904231052,22146,22154,22146,22153
201904231053,22152,22157,22151,22157
201904231054,22157,22165,22157,22164
201904231055,22164,22165,22162,22162
201904231056,22162,22165,22161,22164
201904231057,22164,22165,22164,22165
201904231058,22165,22165,22164,22164
201904231059,22164,22173,22164,22172
201904231100,22172,22177,22172,22177
201904231101,22177,22177,22172,22172
201904231102,22172,22172,22171,22172
201904231103,22172,22172,22167,22167
201904231104,22167,22167,22162,22162
201904231105,22162,22166,22162,22164
201904231106,22164,22165,22156,22156
201904231107,22156,22157,22153,22155
201904231108,22155,22155,22151,22152
201904231109,22152,22156,22151,22156
201904231110,22156,22156,22152,22152
201904231111,22152,22155,22151,22151
201904231112,22151,22152,22151,22152
201904231113,22152,22155,22152,22155
201904231114,22155,22155,22151,22152
201904231115,22152,22161,22152,22161
201904231116,22161,22161,22155,22160
201904231117,22160,22165,22160,22164
201904231118,22164,22170,22163,22166
201904231119,22166,22168,22161,22167
201904231120,22167,22168,22166,22167
201904231121,22167,22167,22163,22165
201904231122,22165,22166,22165,22166
201904231123,22166,22167,22166,22166
201904231124,22166,22169,22165,22167
201904231125,22167,22167,22156,22159
201904231126,22157,22157,22153,22155
201904231127,22155,22155,22151,22154
201904231128,22154,22156,22153,22155
201904231129,22155,22156,22153,22154
201904231130,22155,22158,22154,22157
201904231131,22157,22157,22156,22156
201904231132,22156,22157,22156,22157
201904231133,22157,22162,22156,22161
201904231134,22161,22162,22152,22152
201904231135,22152,22154,22152,22152
201904231136,22152,22154,22151,22152
201904231137,22152,22154,22152,22154
201904231138,22154,22154,22153,22154
201904231139,22154,22155,22153,22154
201904231140,22154,22157,22152,22152
201904231141,22152,22156,22152,22155
201904231142,22155,22155,22151,22152
201904231143,22152,22155,22151,22152
201904231144,22152,22152,22152,22152
201904231145,22152,22156,22152,22155
201904231146,22155,22155,22151,22154
201904231147,22154,22155,22151,22152
201904231148,22152,22157,22152,22156
201904231149,22156,22157,22153,22154
201904231150,22154,22159,22154,22157
201904231151,22157,22157,22157,22157
201904231152,22157,22157,22157,22157
201904231153,22157,22157,22153,22155
201904231154,22155,22155,22151,22152
201904231155,22152,22152,22142,22145
201904231156,22145,22155,22145,22154
201904231157,22154,22154,22152,22154
201904231158,22154,22154,22154,22154
201904231159,22154,22154,22152,22154
201904231200,22154,22157,22153,22157
201904231201,22157,22157,22146,22152
201904231202,22152,22156,22151,22154
201904231203,22154,22155,22154,22154
201904231204,22154,22161,22154,22161
201904231205,22161,22161,22156,22160
201904231206,22160,22162,22160,22162
201904231207,22162,22164,22161,22161
201904231208,22161,22164,22161,22164
201904231209,22164,22171,22162,22170
201904231210,22171,22179,22171,22171
201904231211,22171,22172,22166,22172
201904231212,22172,22172,22171,22172
201904231213,22172,22172,22171,22172
201904231214,22172,22172,22171,22172
201904231215,22172,22174,22171,22172
201904231216,22172,22177,22171,22177
201904231217,22177,22177,22177,22177
201904231218,22177,22177,22176,22176
201904231219,22176,22176,22176,22176
201904231220,22176,22180,22176,22180
201904231221,22180,22181,22179,22180
201904231222,22180,22184,22180,22182
201904231223,22182,22191,22182,22191
201904231224,22191,22191,22187,22190
201904231225,22190,22190,22187,22190
201904231226,22190,22190,22186,22186
201904231227,22186,22187,22186,22187
201904231228,22187,22190,22186,22187
201904231229,22187,22189,22186,22189
201904231230,22189,22190,22186,22189
201904231231,22189,22193,22189,22192
201904231232,22192,22192,22187,22187
201904231233,22187,22191,22187,22191
201904231234,22191,22191,22190,22190
201904231235,22190,22194,22190,22191
201904231236,22191,22191,22191,22191
201904231237,22191,22191,22191,22191
201904231238,22191,22203,22190,22202
201904231239,22202,22204,22201,22202
201904231240,22202,22209,22202,22205
201904231241,22205,22206,22201,22206
201904231242,22206,22206,22201,22202
201904231243,22202,22204,22201,22204
201904231244,22204,22205,22201,22202
201904231245,22202,22204,22201,22204
201904231246,22204,22208,22204,22207
201904231247,22206,22210,22206,22210
201904231248,22210,22210,22209,22210
201904231249,22210,22213,22210,22212
201904231250,22212,22213,22211,22212
201904231251,22212,22212,22206,22207
201904231252,22207,22207,22204,22205
201904231253,22202,22203,22201,22202
201904231254,22202,22203,22197,22201
201904231255,22201,22203,22201,22202
201904231256,22202,22202,22202,22202
201904231257,22202,22202,22202,22202
201904231258,22202,22204,22201,22202
201904231259,22202,22204,22201,22204
201904231300,22204,22206,22204,22206
201904231301,22206,22206,22205,22206
201904231302,22205,22206,22205,22206
201904231303,22206,22206,22205,22205
201904231304,22205,22205,22205,22205
201904231305,22205,22206,22205,22205
201904231306,22206,22207,22205,22207
201904231307,22207,22207,22206,22206
201904231308,22206,22206,22203,22205
201904231309,22205,22206,22204,22204
201904231310,22205,22205,22205,22205
201904231311,22205,22206,22205,22206
201904231312,22206,22206,22205,22205
201904231313,22205,22205,22202,22202
201904231314,22202,22202,22202,22202
201904231315,22202,22202,22200,22200
201904231316,22200,22201,22200,22201
201904231317,22201,22201,22200,22200
201904231318,22200,22201,22200,22201
201904231319,22201,22201,22201,22201
201904231320,22201,22202,22201,22201
201904231321,22201,22202,22201,22202
201904231322,22202,22202,22201,22202
201904231323,22202,22202,22202,22202
201904231324,22202,22202,22202,22202
201904231325,22202,22205,22202,22205
201904231326,22205,22207,22205,22206
201904231327,22206,22206,22205,22205
201904231328,22206,22206,22206,22206
201904231329,22206,22207,22206,22207
201904231330,22207,22207,22206,22206
201904231331,22206,22207,22206,22207
201904231332,22207,22207,22206,22207
201904231333,22207,22207,22206,22206
201904231334,22206,22207,22206,22207
201904231335,22207,22207,22206,22207
201904231336,22207,22207,22206,22206
201904231337,22206,22207,22206,22207
201904231338,22207,22207,22206,22207
201904231339,22207,22207,22207,22207
201904231340,22207,22207,22207,22207
201904231341,22207,22207,22206,22206
201904231342,22206,22207,22206,22207
201904231343,22207,22207,22207,22207
201904231344,22207,22211,22207,22211
201904231345,22210,22211,22210,22211
201904231346,22211,22211,22211,22211
201904231347,22211,22216,22211,22216
201904231348,22216,22216,22212,22212
201904231349,22212,22215,22212,22214
201904231350,22213,22215,22213,22214
201904231351,22214,22217,22214,22216
201904231352,22216,22216,22215,22216
201904231353,22216,22217,22216,22217
201904231354,22217,22217,22216,22216
201904231355,22216,22217,22215,22215
201904231356,22215,22216,22214,22214
201904231357,22214,22215,22214,22215
201904231358,22215,22215,22212,22215
201904231359,22215,22216,22215,22216
201904231400,22216,22217,22216,22216
201904231401,22216,22216,22215,22215
201904231402,22215,22215,22211,22211
201904231403,22211,22212,22207,22212
201904231404,22212,22212,22208,22210
201904231405,22210,22211,22209,22211
201904231406,22211,22211,22209,22210
201904231407,22210,22210,22209,22210
201904231408,22210,22211,22207,22210
201904231409,22210,22211,22210,22210
201904231410,22210,22212,22210,22212
201904231411,22212,22212,22207,22210
201904231412,22211,22215,22211,22214
201904231413,22214,22215,22211,22212
201904231414,22212,22214,22211,22212
201904231415,22212,22213,22207,22209
201904231416,22208,22211,22207,22211
201904231417,22211,22214,22211,22212
201904231418,22212,22215,22212,22214
201904231419,22214,22215,22214,22214
201904231420,22214,22215,22214,22215
201904231421,22215,22215,22214,22214
201904231422,22215,22215,22212,22212
201904231423,22212,22214,22212,22212
201904231424,22212,22214,22211,22214
201904231425,22214,22215,22214,22215
201904231426,22215,22218,22215,22217
201904231427,22217,22221,22216,22217
201904231428,22217,22221,22217,22220
201904231429,22220,22221,22218,22219
201904231430,22219,22226,22219,22226
201904231431,22226,22226,22222,22222
201904231432,22222,22222,22219,22221
201904231433,22221,22221,22219,22220
201904231434,22220,22221,22220,22220
201904231435,22220,22221,22220,22221
201904231436,22221,22226,22221,22225
201904231437,22225,22227,22225,22226
201904231438,22226,22231,22226,22229
201904231439,22229,22235,22229,22235
201904231440,22235,22235,22231,22234
201904231441,22234,22245,22234,22245
201904231442,22244,22247,22241,22245
201904231443,22244,22246,22241,22246
201904231444,22246,22252,22246,22252
201904231445,22252,22252,22251,22251
201904231446,22251,22251,22247,22247
201904231447,22247,22247,22247,22247
201904231448,22247,22247,22241,22244
201904231449,22244,22245,22241,22242
201904231450,22242,22242,22242,22242
201904231451,22242,22244,22242,22244
201904231452,22244,22245,22244,22244
201904231453,22245,22245,22242,22242
201904231454,22242,22243,22242,22243
201904231455,22243,22247,22243,22245
201904231456,22245,22247,22245,22246
201904231457,22246,22247,22246,22247
201904231458,22247,22247,22246,22247
201904231459,22247,22247,22242,22247
201904231500,22247,22257,22247,22251
201904231501,22251,22254,22251,22252
201904231502,22252,22255,22252,22254
201904231503,22254,22257,22254,22257
201904231504,22257,22263,22257,22262
201904231505,22262,22262,22255,22255
201904231506,22255,22257,22255,22257
201904231507,22257,22257,22253,22254
201904231508,22252,22255,22252,22255
201904231509,22254,22255,22246,22252
201904231510,22252,22256,22251,22251
201904231511,22251,22252,22246,22246
201904231512,22246,22252,22244,22252
201904231513,22251,22252,22251,22251
201904231514,22251,22252,22245,22251
201904231515,22251,22251,22241,22247
201904231516,22247,22247,22240,22246
201904231517,22246,22247,22240,22243
201904231518,22243,22243,22236,22241
201904231519,22241,22241,22226,22232
201904231520,22232,22241,22232,22240
201904231521,22240,22241,22240,22241
201904231522,22241,22242,22241,22242
201904231523,22242,22242,22238,22238
201904231524,22238,22245,22238,22244
201904231525,22244,22248,22244,22247
201904231526,22247,22250,22245,22250
201904231527,22250,22252,22250,22251
201904231528,22251,22251,22251,22251
201904231529,22251,22252,22251,22252
201904231530,22252,22252,22251,22251
201904231531,22251,22253,22251,22252
201904231532,22252,22252,22251,22252
201904231533,22252,22252,22252,22252
201904231534,22252,22252,22242,22243
201904231535,22243,22244,22242,22244
201904231536,22244,22244,22241,22241
201904231537,22241,22242,22241,22241
201904231538,22241,22247,22240,22247
201904231539,22247,22247,22244,22246
201904231540,22246,22247,22246,22247
201904231541,22247,22247,22244,22247
201904231542,22247,22247,22245,22246
201904231543,22246,22247,22244,22246
201904231544,22246,22247,22244,22246
201904231545,22246,22246,22246,22246
201904231546,22246,22246,22245,22245
201904231547,22245,22246,22245,22246
201904231548,22246,22247,22245,22246
201904231549,22246,22246,22246,22246
201904231550,22246,22246,22245,22245
201904231551,22245,22246,22245,22246
201904231552,22246,22247,22246,22247
201904231553,22247,22252,22247,22248
201904231554,22248,22249,22248,22248
201904231555,22250,22250,22246,22246
201904231556,22246,22246,22246,22246
201904231557,22246,22246,22240,22241
201904231558,22241,22244,22241,22242
201904231559,22242,22243,22241,22242
201904231600,22242,22245,22237,22240
201904231601,22240,22241,22235,22237
201904231602,22237,22240,22235,22237
201904231603,22237,22237,22232,22234
201904231604,22234,22235,22232,22233
201904231605,22233,22233,22230,22231
201904231606,22231,22236,22230,22236
201904231607,22236,22236,22230,22230
201904231608,22230,22232,22228,22229
201904231609,22229,22230,22226,22227
201904231610,22227,22231,22226,22230
201904231611,22230,22232,22225,22225
201904231612,22225,22226,22220,22220
201904231613,22220,22221,22210,22216
201904231614,22215,22216,22207,22211
201904231615,22211,22213,22211,22212
201904231616,22212,22212,22201,22205
201904231617,22206,22215,22206,22215
201904231618,22215,22216,22215,22215
201904231619,22215,22216,22215,22216
201904231620,22216,22221,22215,22221
201904231621,22221,22221,22218,22219
201904231622,22219,22222,22215,22217
201904231623,22217,22218,22215,22218
201904231624,22218,22222,22215,22215
201904231625,22215,22217,22215,22216
201904231626,22216,22221,22216,22219
201904231627,22219,22222,22218,22221
201904231628,22221,22223,22220,22221
201904231629,22221,22222,22221,22221
201904231630,22225,22233,22222,22231
201904231631,22231,22234,22231,22232
201904231632,22232,22232,22226,22227
201904231633,22227,22227,22225,22227
201904231634,22227,22227,22223,22224
201904231635,22224,22224,22220,22221
201904231636,22221,22222,22221,22221
201904231637,22221,22222,22221,22222
201904231638,22222,22226,22222,22226
201904231639,22226,22226,22224,22226
201904231640,22226,22229,22225,22227
201904231641,22227,22227,22225,22225
201904231642,22225,22226,22225,22226
201904231643,22226,22226,22225,22226
201904231644,22226,22229,22223,22229
201904231645,22229,22231,22228,22231
201904231646,22231,22231,22227,22227
201904231647,22227,22228,22226,22227
201904231648,22227,22227,22227,22227
201904231649,22227,22227,22221,22225
201904231650,22225,22227,22225,22227
201904231651,22227,22232,22227,22232
201904231652,22232,22234,22226,22227
201904231653,22227,22227,22222,22225
201904231654,22225,22227,22225,22226
201904231655,22226,22230,22226,22227
201904231656,22227,22228,22222,22222
201904231657,22222,22225,22221,22222
201904231658,22222,22222,22222,22222
201904231659,22222,22222,22222,22222
201904231700,22222,22222,22222,22222
201904231701,22222,22226,22222,22226
201904231702,22227,22228,22226,22227
201904231703,22227,22227,22226,22227
201904231704,22227,22227,22226,22227
201904231705,22227,22227,22227,22227
201904231706,22227,22227,22225,22227
201904231707,22227,22236,22227,22236
201904231708,22236,22237,22236,22237
201904231709,22237,22237,22236,22237
201904231710,22237,22240,22237,22239
201904231711,22239,22240,22239,22240
201904231712,22240,22241,22240,22240
201904231713,22240,22242,22240,22242
201904231714,22242,22246,22241,22242
201904231715,22242,22242,22236,22240
201904231716,22240,22241,22240,22240
201904231717,22240,22240,22239,22240
201904231718,22240,22242,22240,22242
201904231719,22241,22244,22241,22242
201904231720,22242,22242,22238,22239
201904231721,22239,22242,22238,22242
201904231722,22242,22242,22241,22241
201904231723,22241,22241,22236,22236
201904231724,22236,22238,22236,22237
201904231725,22237,22237,22237,22237
201904231726,22237,22237,22237,22237
201904231727,22237,22237,22237,22237
201904231728,22237,22237,22237,22237
201904231729,22237,22237,22232,22232
201904231730,22232,22235,22231,22234
201904231731,22234,22236,22233,22236
201904231732,22236,22237,22236,22237
201904231733,22237,22237,22236,22237
201904231734,22237,22238,22235,22238
201904231735,22238,22238,22236,22237
201904231736,22237,22237,22237,22237
201904231737,22237,22237,22237,22237
201904231738,22237,22237,22237,22237
201904231739,22237,22237,22236,22237
201904231740,22237,22237,22236,22236
201904231741,22236,22236,22235,22236
201904231742,22236,22236,22235,22235
201904231743,22235,22236,22235,22236
201904231744,22236,22236,22234,22234
201904231745,22235,22236,22234,22235
201904231746,22235,22236,22235,22235
201904231747,22235,22236,22235,22235
201904231748,22235,22236,22235,22236
201904231749,22236,22241,22236,22241
201904231750,22241,22245,22241,22242
201904231751,22242,22242,22237,22240
201904231752,22240,22240,22236,22236
201904231753,22236,22237,22235,22236
201904231754,22236,22236,22230,22230
201904231755,22230,22235,22226,22227
201904231756,22227,22232,22226,22232
201904231757,22232,22232,22231,22231
201904231758,22232,22232,22232,22232
201904231759,22231,22232,22231,22232
201904231800,22232,22232,22226,22230
201904231801,22230,22230,22228,22229
201904231802,22229,22230,22227,22229
201904231803,22229,22231,22229,22230
201904231804,22230,22231,22230,22230
201904231805,22230,22230,22230,22230
201904231806,22230,22231,22230,22230
201904231807,22230,22230,22230,22230
201904231808,22230,22231,22230,22230
201904231809,22230,22230,22226,22227
201904231810,22227,22230,22226,22229
201904231811,22229,22230,22229,22230
201904231812,22230,22230,22227,22227
201904231813,22227,22227,22227,22227
201904231814,22227,22227,22227,22227
201904231815,22227,22227,22222,22226
201904231816,22226,22226,22226,22226
201904231817,22226,22226,22226,22226
201904231818,22226,22226,22226,22226
201904231819,22226,22229,22226,22227
201904231820,22227,22227,22226,22226
201904231821,22226,22230,22226,22230
201904231822,22230,22230,22230,22230
201904231823,22230,22230,22226,22226
201904231824,22226,22226,22224,22226
201904231825,22226,22226,22226,22226
201904231826,22226,22226,22223,22225
201904231827,22225,22226,22222,22222
201904231828,22222,22224,22222,22222
201904231829,22222,22222,22222,22222
201904231830,22222,22222,22217,22217
201904231831,22216,22216,22213,22216
201904231832,22216,22217,22216,22217
201904231833,22217,22221,22217,22220
201904231834,22220,22222,22220,22222
201904231835,22222,22222,22222,22222
201904231836,22222,22225,22221,22225
201904231837,22225,22226,22222,22222
201904231838,22222,22222,22222,22222
201904231839,22222,22222,22222,22222
201904231840,22222,22224,22222,22222
201904231841,22222,22222,22222,22222
201904231842,22222,22222,22222,22222
201904231843,22222,22222,22222,22222
201904231844,22222,22222,22217,22221
201904231845,22221,22222,22221,22222
201904231846,22222,22222,22222,22222
201904231847,22222,22225,22222,22224
201904231848,22224,22226,22223,22224
201904231849,22224,22224,22221,22222
201904231850,22222,22223,22221,22222
201904231851,22222,22223,22221,22222
201904231852,22222,22222,22222,22222
201904231853,22222,22222,22222,22222
201904231854,22222,22222,22222,22222
201904231855,22222,22222,22216,22219
201904231856,22220,22221,22219,22221
201904231857,22221,22221,22220,22220
201904231858,22220,22220,22220,22220
201904231859,22220,22224,22220,22222
201904231900,22222,22223,22221,22222
201904231901,22222,22225,22222,22225
201904231902,22225,22226,22223,22225
201904231903,22225,22225,22225,22225
201904231904,22225,22226,22225,22225
201904231905,22225,22226,22225,22225
201904231906,22225,22226,22225,22226
201904231907,22226,22226,22225,22226
201904231908,22226,22226,22221,22222
201904231909,22222,22223,22221,22222
201904231910,22222,22222,22222,22222
201904231911,22222,22222,22222,22222
201904231912,22222,22225,22222,22224
201904231913,22224,22226,22221,22226
201904231914,22226,22226,22221,22222
201904231915,22222,22222,22222,22222
201904231916,22222,22223,22222,22222
201904231917,22222,22224,22221,22222
201904231918,22222,22222,22222,22222
201904231919,22222,22222,22222,22222
201904231920,22222,22224,22221,22222
201904231921,22222,22222,22222,22222
201904231922,22222,22222,22222,22222
201904231923,22222,22222,22222,22222
201904231924,22222,22222,22220,22220
201904231925,22220,22222,22220,22222
201904231926,22222,22222,22222,22222
201904231927,22222,22228,22222,22227
201904231928,22227,22229,22226,22227
201904231929,22227,22227,22227,22227
201904231930,22227,22227,22222,22222
201904231931,22222,22222,22222,22222
201904231932,22222,22222,22217,22217
201904231933,22217,22220,22216,22220
201904231934,22220,22221,22219,22221
201904231935,22221,22221,22219,22221
201904231936,22221,22221,22216,22219
201904231937,22219,22221,22219,22220
201904231938,22220,22221,22220,22221
201904231939,22221,22222,22218,22222
201904231940,22222,22222,22221,22222
201904231941,22222,22224,22221,22223
201904231942,22224,22224,22221,22222
201904231943,22222,22222,22222,22222
201904231944,22222,22222,22218,22220
201904231945,22220,22221,22219,22221
201904231946,22221,22222,22220,22222
201904231947,22222,22222,22222,22222
201904231948,22222,22222,22222,22222
201904231949,22222,22222,22222,22222
201904231950,22222,22222,22222,22222
201904231951,22222,22225,22221,22224
201904231952,22224,22225,22221,22223
201904231953,22223,22224,22221,22224
201904231954,22224,22225,22224,22225
201904231955,22225,22228,22225,22227
201904231956,22227,22227,22226,22227
201904231957,22227,22227,22227,22227
201904231958,22227,22227,22227,22227
201904231959,22227,22229,22226,22227
201904232000,22227,22232,22227,22232
201904232001,22232,22232,22231,22232
201904232002,22232,22232,22230,22231
201904232003,22231,22233,22231,22232
201904232004,22232,22235,22231,22233
201904232005,22234,22235,22233,22235
201904232006,22235,22236,22234,22235
201904232007,22235,22235,22232,22235
201904232008,22235,22235,22234,22235
201904232009,22235,22243,22235,22242
201904232010,22242,22245,22242,22242
201904232011,22242,22245,22242,22242
201904232012,22242,22242,22242,22242
201904232013,22242,22246,22242,22246
201904232014,22246,22246,22241,22242
201904232015,22242,22244,22242,22243
201904232016,22243,22243,22241,22242
201904232017,22242,22242,22242,22242
201904232018,22242,22245,22242,22245
201904232019,22245,22245,22244,22245
201904232020,22245,22246,22245,22246
201904232021,22246,22247,22246,22246
201904232022,22246,22246,22242,22242
201904232023,22242,22243,22242,22242
201904232024,22242,22243,22242,22242
201904232025,22242,22242,22242,22242
201904232026,22242,22244,22242,22243
201904232027,22243,22243,22241,22242
201904232028,22242,22244,22241,22243
201904232029,22243,22244,22243,22244
201904232030,22244,22244,22243,22244
201904232031,22244,22245,22244,22244
201904232032,22244,22245,22244,22245
201904232033,22245,22246,22245,22246
201904232034,22246,22246,22246,22246
201904232035,22246,22249,22246,22246
201904232036,22246,22252,22246,22252
201904232037,22252,22252,22252,22252
201904232038,22252,22252,22252,22252
201904232039,22252,22254,22251,22253
201904232040,22253,22255,22251,22255
201904232041,22255,22255,22254,22255
201904232042,22254,22255,22254,22255
201904232043,22255,22257,22255,22257
201904232044,22257,22258,22256,22257
201904232045,22257,22261,22257,22259
201904232046,22259,22262,22258,22262
201904232047,22262,22266,22262,22266
201904232048,22266,22266,22266,22266
201904232049,22266,22266,22266,22266
201904232050,22266,22273,22266,22271
201904232051,22271,22272,22271,22272
201904232052,22272,22272,22272,22272
201904232053,22272,22272,22266,22267
201904232054,22267,22267,22267,22267
201904232055,22267,22267,22267,22267
201904232056,22267,22268,22266,22267
201904232057,22267,22267,22267,22267
201904232058,22267,22267,22267,22267
201904232059,22267,22267,22267,22267
201904232100,22267,22272,22267,22272
201904232101,22272,22272,22272,22272
201904232102,22272,22272,22267,22267
201904232103,22267,22269,22267,22269
201904232104,22268,22270,22266,22266
201904232105,22266,22273,22266,22271
201904232106,22272,22274,22272,22274
201904232107,22274,22274,22271,22274
201904232108,22274,22282,22274,22281
201904232109,22281,22282,22278,22282
201904232110,22282,22282,22277,22277
201904232111,22277,22277,22277,22277
201904232112,22277,22277,22277,22277
201904232113,22277,22277,22276,22276
201904232114,22276,22276,22271,22274
201904232115,22275,22275,22274,22275
201904232116,22275,22275,22272,22273
201904232117,22273,22274,22271,22274
201904232118,22274,22275,22271,22271
201904232119,22274,22275,22271,22274
201904232120,22274,22275,22271,22272
201904232121,22272,22272,22272,22272
201904232122,22272,22272,22272,22272
201904232123,22272,22272,22267,22267
201904232124,22267,22267,22267,22267
201904232125,22267,22267,22267,22267
201904232126,22267,22267,22262,22262
201904232127,22262,22267,22262,22267
201904232128,22267,22270,22267,22270
201904232129,22270,22272,22270,22272
201904232130,22272,22272,22266,22271
201904232131,22271,22271,22269,22271
201904232132,22271,22271,22267,22267
201904232133,22267,22267,22265,22266
201904232134,22266,22267,22264,22265
201904232135,22265,22266,22265,22265
201904232136,22265,22265,22263,22265
201904232137,22265,22265,22263,22265
201904232138,22265,22266,22265,22266
201904232139,22266,22266,22265,22266
201904232140,22266,22266,22266,22266
201904232141,22266,22266,22266,22266
201904232142,22266,22266,22266,22266
201904232143,22266,22266,22266,22266
201904232144,22266,22266,22265,22266
201904232145,22266,22266,22262,22262
201904232146,22262,22262,22262,22262
201904232147,22262,22262,22262,22262
201904232148,22262,22262,22256,22256
201904232149,22256,22261,22256,22260
201904232150,22260,22264,22260,22264
201904232151,22264,22265,22261,22262
201904232152,22262,22265,22262,22265
201904232153,22265,22265,22264,22265
201904232154,22265,22272,22265,22271
201904232155,22271,22271,22270,22271
201904232156,22271,22271,22270,22271
201904232157,22271,22274,22270,22272
201904232158,22272,22274,22272,22272
201904232159,22272,22272,22272,22272
201904232200,22272,22272,22272,22272
201904232201,22272,22272,22272,22272
201904232202,22272,22272,22266,22269
201904232203,22268,22268,22266,22267
201904232204,22267,22268,22266,22267
201904232205,22267,22268,22266,22267
201904232206,22267,22267,22263,22265
201904232207,22265,22267,22265,22267
201904232208,22267,22267,22266,22266
201904232209,22266,22267,22263,22265
201904232210,22265,22267,22265,22267
201904232211,22267,22269,22267,22269
201904232212,22269,22270,22269,22270
201904232213,22269,22270,22269,22270
201904232214,22270,22271,22270,22271
201904232215,22271,22275,22270,22274
201904232216,22274,22275,22271,22274
201904232217,22274,22275,22273,22275
201904232218,22275,22275,22275,22275
201904232219,22275,22275,22271,22272
201904232220,22272,22272,22272,22272
201904232221,22272,22274,22272,22274
201904232222,22274,22275,22271,22275
201904232223,22275,22275,22275,22275
201904232224,22275,22276,22275,22275
201904232225,22275,22275,22271,22272
201904232226,22272,22273,22272,22272
201904232227,22272,22273,22271,22272
201904232228,22272,22272,22272,22272
201904232229,22272,22273,22271,22272
201904232230,22272,22273,22267,22267
201904232231,22267,22267,22261,22262
201904232232,22262,22265,22262,22262
201904232233,22262,22262,22257,22261
201904232234,22261,22262,22256,22261
201904232235,22261,22262,22256,22257
201904232236,22257,22262,22257,22262
201904232237,22262,22265,22259,22265
201904232238,22265,22271,22261,22271
201904232239,22271,22275,22271,22275
201904232240,22275,22275,22271,22273
201904232241,22273,22274,22270,22271
201904232242,22271,22274,22271,22273
201904232243,22274,22275,22271,22274
201904232244,22274,22275,22274,22274
201904232245,22274,22275,22271,22274
201904232246,22273,22274,22271,22271
201904232247,22271,22271,22271,22271
201904232248,22271,22271,22271,22271
201904232249,22271,22271,22271,22271
201904232250,22271,22274,22267,22270
201904232251,22270,22271,22266,22270
201904232252,22270,22273,22270,22272
201904232253,22272,22274,22271,22272
201904232254,22272,22272,22266,22268
201904232255,22268,22270,22266,22267
201904232256,22267,22267,22267,22267
201904232257,22267,22273,22267,22271
201904232258,22271,22274,22271,22271
201904232259,22271,22274,22271,22271
201904232300,22272,22275,22272,22275
201904232301,22275,22275,22274,22275
201904232302,22275,22286,22275,22286
201904232303,22285,22294,22285,22294
201904232304,22294,22299,22294,22296
201904232305,22296,22297,22291,22291
201904232306,22291,22291,22286,22287
201904232307,22287,22287,22282,22282
201904232308,22282,22285,22282,22282
201904232309,22282,22282,22282,22282
201904232310,22282,22282,22282,22282
201904232311,22282,22286,22281,22283
201904232312,22283,22289,22282,22289
201904232313,22289,22292,22286,22291
201904232314,22291,22294,22291,22292
201904232315,22292,22294,22287,22287
201904232316,22287,22287,22287,22287
201904232317,22287,22287,22287,22287
201904232318,22287,22287,22282,22282
201904232319,22282,22282,22277,22277
201904232320,22277,22277,22272,22272
201904232321,22272,22276,22271,22276
201904232322,22276,22279,22276,22277
201904232323,22277,22279,22276,22277
201904232324,22277,22284,22277,22284
201904232325,22284,22285,22282,22282
201904232326,22282,22284,22281,22284
201904232327,22284,22289,22284,22288
201904232328,22288,22289,22286,22287
201904232329,22287,22287,22281,22287
201904232330,22287,22289,22281,22282
201904232331,22282,22282,22281,22282
201904232332,22282,22282,22281,22281
201904232333,22281,22281,22277,22277
201904232334,22277,22277,22272,22275
201904232335,22275,22277,22271,22275
201904232336,22275,22279,22275,22277
201904232337,22277,22281,22276,22277
201904232338,22277,22279,22272,22272
201904232339,22272,22279,22272,22279
201904232340,22279,22282,22279,22282
201904232341,22282,22282,22280,22281
201904232342,22281,22285,22281,22285
201904232343,22285,22291,22285,22291
201904232344,22291,22295,22291,22295
201904232345,22295,22295,22292,22292
201904232346,22292,22292,22286,22286
201904232347,22286,22286,22282,22284
201904232348,22284,22287,22282,22282
201904232349,22282,22285,22281,22282
201904232350,22282,22284,22277,22280
201904232351,22280,22286,22279,22285
201904232352,22285,22286,22283,22285
201904232353,22284,22285,22284,22285
201904232354,22285,22286,22284,22285
201904232355,22285,22286,22285,22286
201904232356,22286,22286,22286,22286
201904232357,22286,22286,22284,22286
201904232358,22286,22291,22286,22287
201904232359,22287,22289,22286,22289
201904240000,22289,22289,22286,22287
201904240001,22287,22291,22287,22291
201904240002,22291,22291,22286,22289
201904240003,22289,22289,22289,22289
201904240004,22289,22289,22287,22289
201904240005,22289,22289,22289,22289
201904240006,22289,22289,22287,22287
201904240007,22287,22289,22287,22289
201904240008,22289,22289,22287,22289
201904240009,22289,22290,22289,22290
201904240010,22290,22297,22290,22297
201904240011,22297,22304,22297,22304
201904240012,22303,22311,22303,22311
201904240013,22311,22312,22311,22311
201904240014,22311,22315,22311,22315
201904240015,22315,22317,22315,22316
201904240016,22316,22318,22316,22317
201904240017,22317,22317,22312,22312
201904240018,22312,22312,22312,22312
201904240019,22312,22316,22312,22316
201904240020,22316,22316,22312,22312
201904240021,22312,22314,22311,22312
201904240022,22312,22312,22311,22312
201904240023,22312,22312,22311,22312
201904240024,22312,22317,22312,22317
201904240025,22317,22320,22316,22316
201904240026,22316,22320,22316,22320
201904240027,22320,22321,22316,22320
201904240028,22321,22326,22320,22322
201904240029,22322,22325,22321,22323
201904240030,22321,22324,22321,22322
201904240031,22322,22323,22319,22323
201904240032,22323,22324,22321,22322
201904240033,22322,22323,22321,22323
201904240034,22324,22325,22321,22321
201904240035,22321,22322,22316,22317
201904240036,22317,22324,22316,22320
201904240037,22320,22320,22317,22317
201904240038,22317,22322,22317,22321
201904240039,22321,22321,22320,22320
201904240040,22320,22320,22315,22316
201904240041,22316,22316,22311,22314
201904240042,22315,22317,22312,22313
201904240043,22313,22316,22311,22313
201904240044,22312,22316,22312,22313
201904240045,22313,22317,22313,22317
201904240046,22317,22317,22316,22316
201904240047,22316,22317,22316,22317
201904240048,22317,22321,22317,22321
201904240049,22321,22324,22321,22322
201904240050,22322,22324,22321,22324
201904240051,22324,22325,22321,22321
201904240052,22321,22324,22321,22324
201904240053,22324,22325,22322,22322
201904240054,22322,22324,22321,22324
201904240055,22324,22325,22321,22322
201904240056,22322,22323,22321,22322
201904240057,22322,22324,22320,22320
201904240058,22320,22321,22316,22320
201904240059,22320,22321,22317,22317
201904240100,22317,22320,22317,22319
201904240101,22319,22322,22319,22322
201904240102,22322,22325,22321,22322
201904240103,22322,22325,22321,22325
201904240104,22325,22326,22325,22325
201904240105,22325,22332,22325,22332
201904240106,22331,22331,22326,22330
201904240107,22330,22334,22330,22333
201904240108,22333,22336,22331,22336
201904240109,22336,22336,22332,22334
201904240110,22334,22335,22330,22331
201904240111,22331,22332,22327,22327
201904240112,22327,22331,22326,22327
201904240113,22327,22327,22327,22327
201904240114,22327,22332,22327,22331
201904240115,22331,22332,22331,22331
201904240116,22331,22332,22329,22332
201904240117,22332,22334,22327,22327
201904240118,22327,22327,22327,22327
201904240119,22327,22327,22326,22327
201904240120,22327,22327,22322,22322
201904240121,22322,22322,22317,22321
201904240122,22321,22321,22317,22317
201904240123,22317,22318,22316,22317
201904240124,22317,22317,22317,22317
201904240125,22317,22320,22317,22317
201904240126,22317,22317,22317,22317
201904240127,22317,22317,22317,22317
201904240128,22317,22317,22317,22317
201904240129,22312,22317,22312,22317
201904240130,22317,22317,22315,22315
201904240131,22315,22315,22311,22315
201904240132,22315,22315,22307,22310
201904240133,22310,22312,22307,22312
201904240134,22312,22312,22311,22312
201904240135,22312,22314,22311,22312
201904240136,22312,22315,22311,22315
201904240137,22315,22315,22311,22312
201904240138,22313,22317,22311,22311
201904240139,22312,22319,22312,22319
201904240140,22319,22319,22317,22317
201904240141,22317,22317,22317,22317
201904240142,22317,22317,22317,22317
201904240143,22317,22317,22317,22317
201904240144,22317,22317,22317,22317
201904240145,22317,22317,22317,22317
201904240146,22317,22317,22316,22317
201904240147,22317,22317,22316,22317
201904240148,22317,22317,22316,22317
201904240149,22317,22317,22311,22311
201904240150,22311,22312,22307,22308
201904240151,22308,22309,22307,22307
201904240152,22307,22307,22307,22307
201904240153,22307,22307,22307,22307
201904240154,22307,22310,22307,22309
201904240155,22309,22310,22306,22309
201904240156,22309,22310,22308,22310
201904240157,22310,22313,22310,22311
201904240158,22311,22317,22311,22317
201904240159,22317,22321,22316,22316
201904240200,22317,22319,22315,22319
201904240201,22319,22320,22319,22319
201904240202,22319,22322,22318,22322
201904240203,22322,22322,22321,22322
201904240204,22322,22322,22321,22322
201904240205,22322,22322,22316,22316
201904240206,22316,22317,22314,22316
201904240207,22316,22317,22316,22317
201904240208,22317,22317,22316,22317
201904240209,22317,22322,22316,22322
201904240210,22322,22322,22322,22322
201904240211,22322,22322,22322,22322
201904240212,22322,22324,22319,22322
201904240213,22322,22322,22322,22322
201904240214,22322,22322,22322,22322
201904240215,22322,22322,22320,22321
201904240216,22321,22322,22321,22322
201904240217,22322,22322,22315,22315
201904240218,22315,22317,22315,22317
201904240219,22317,22322,22315,22322
201904240220,22322,22322,22322,22322
201904240221,22322,22322,22322,22322
201904240222,22322,22322,22321,22322
201904240223,22322,22322,22317,22317
201904240224,22317,22320,22315,22317
201904240225,22317,22317,22315,22317
201904240226,22317,22317,22317,22317
201904240227,22317,22317,22316,22317
201904240228,22317,22317,22315,22317
201904240229,22317,22317,22316,22316
201904240230,22316,22317,22316,22317
201904240231,22317,22317,22310,22312
201904240232,22312,22316,22311,22314
201904240233,22314,22314,22311,22314
201904240234,22314,22316,22314,22316
201904240235,22316,22316,22314,22316
201904240236,22316,22316,22315,22316
201904240237,22316,22316,22315,22315
201904240238,22315,22316,22310,22312
201904240239,22312,22312,22310,22311
201904240240,22311,22312,22311,22312
201904240241,22312,22312,22311,22312
201904240242,22312,22312,22311,22311
201904240243,22311,22316,22311,22315
201904240244,22315,22315,22314,22315
201904240245,22315,22316,22315,22316
201904240246,22316,22317,22315,22317
201904240247,22317,22317,22310,22315
201904240248,22315,22317,22310,22317
201904240249,22317,22317,22316,22317
201904240250,22317,22317,22317,22317
201904240251,22317,22317,22316,22316
201904240252,22316,22317,22312,22312
201904240253,22312,22312,22311,22312
201904240254,22312,22312,22312,22312
201904240255,22312,22312,22312,22312
201904240256,22312,22312,22312,22312
201904240257,22312,22312,22312,22312
201904240258,22312,22312,22312,22312
201904240259,22312,22312,22312,22312
201904240300,22312,22312,22311,22311
201904240301,22311,22311,22306,22307
201904240302,22307,22312,22306,22312
201904240303,22312,22312,22310,22312
201904240304,22312,22312,22310,22312
201904240305,22312,22314,22310,22314
201904240306,22314,22317,22311,22317
201904240307,22317,22317,22317,22317
201904240308,22317,22317,22316,22317
201904240309,22317,22317,22317,22317
201904240310,22317,22317,22317,22317
201904240311,22317,22317,22317,22317
201904240312,22317,22317,22311,22312
201904240313,22312,22313,22311,22312
201904240314,22312,22312,22311,22312
201904240315,22312,22315,22312,22313
201904240316,22313,22314,22311,22314
201904240317,22314,22317,22314,22317
201904240318,22317,22317,22317,22317
201904240319,22317,22317,22317,22317
201904240320,22317,22317,22317,22317
201904240321,22317,22317,22317,22317
201904240322,22317,22317,22317,22317
201904240323,22317,22317,22311,22314
201904240324,22314,22314,22312,22313
201904240325,22313,22317,22310,22316
201904240326,22316,22317,22316,22317
201904240327,22317,22317,22316,22317
201904240328,22317,22317,22316,22317
201904240329,22317,22317,22316,22317
201904240330,22317,22317,22315,22317
201904240331,22317,22317,22317,22317
201904240332,22317,22317,22317,22317
201904240333,22317,22317,22317,22317
201904240334,22317,22317,22316,22317
201904240335,22317,22318,22316,22317
201904240336,22317,22317,22316,22317
201904240337,22317,22319,22317,22319
201904240338,22319,22319,22315,22316
201904240339,22316,22317,22315,22317
201904240340,22317,22317,22315,22316
201904240341,22316,22319,22315,22317
201904240342,22317,22322,22316,22321
201904240343,22321,22322,22320,22322
201904240344,22322,22322,22322,22322
201904240345,22322,22324,22320,22324
201904240346,22324,22327,22324,22326
201904240347,22326,22326,22320,22322
201904240348,22322,22322,22321,22322
201904240349,22322,22322,22321,22322
201904240350,22322,22322,22321,22322
201904240351,22322,22322,22322,22322
201904240352,22322,22322,22321,22322
201904240353,22322,22322,22322,22322
201904240354,22322,22322,22322,22322
201904240355,22322,22326,22321,22325
201904240356,22325,22326,22323,22325
201904240357,22325,22327,22323,22325
201904240358,22325,22327,22325,22327
201904240359,22327,22327,22326,22326
201904240400,22326,22326,22316,22317
201904240401,22317,22322,22315,22322
201904240402,22322,22322,22322,22322
201904240403,22322,22322,22322,22322
201904240404,22322,22322,22320,22322
201904240405,22322,22322,22320,22322
201904240406,22322,22327,22321,22327
201904240407,22327,22327,22327,22327
201904240408,22327,22327,22326,22327
201904240409,22327,22327,22321,22326
201904240410,22326,22326,22320,22323
201904240411,22323,22324,22320,22324
201904240412,22324,22324,22321,22323
201904240413,22323,22324,22320,22322
201904240414,22322,22322,22320,22322
201904240415,22322,22322,22321,22322
201904240416,22322,22322,22320,22321
201904240417,22321,22324,22321,22322
201904240418,22322,22324,22322,22324
201904240419,22324,22327,22324,22327
201904240420,22327,22327,22325,22327
201904240421,22327,22327,22321,22324
201904240422,22324,22324,22323,22323
201904240423,22323,22325,22321,22324
201904240424,22324,22325,22324,22324
201904240425,22324,22325,22324,22324
201904240426,22324,22325,22320,22324
201904240427,22324,22324,22320,22324
201904240428,22324,22325,22324,22324
201904240429,22324,22325,22324,22325
201904240430,22325,22325,22323,22324
201904240431,22324,22325,22321,22325
201904240432,22325,22325,22324,22325
201904240433,22325,22325,22323,22325
201904240434,22325,22325,22324,22324
201904240435,22324,22325,22320,22322
201904240436,22322,22324,22322,22324
201904240437,22324,22327,22324,22327
201904240438,22327,22327,22324,22325
201904240439,22325,22325,22324,22325
201904240440,22325,22325,22323,22324
201904240441,22324,22325,22323,22324
201904240442,22324,22326,22322,22326
201904240443,22326,22327,22325,22327
201904240444,22327,22327,22325,22325
201904240445,22325,22325,22321,22325
201904240446,22325,22327,22324,22325
201904240447,22325,22326,22324,22324
201904240448,22324,22325,22322,22325
201904240449,22324,22327,22324,22326
201904240450,22326,22327,22326,22327
201904240451,22327,22330,22327,22330
201904240452,22330,22334,22330,22334
201904240453,22334,22335,22330,22331
201904240454,22331,22336,22331,22336
201904240455,22336,22337,22336,22337
201904240456,22337,22337,22330,22332
201904240457,22332,22332,22331,22331
201904240458,22331,22332,22330,22332
201904240459,22332,22337,22331,22337
201904240500,22337,22337,22335,22337
201904240501,22337,22337,22335,22337
201904240502,22337,22337,22337,22337
201904240503,22337,22337,22337,22337
201904240504,22337,22337,22330,22337
201904240505,22337,22337,22337,22337
201904240506,22337,22337,22337,22337
201904240507,22337,22337,22337,22337
201904240508,22337,22337,22337,22337
201904240509,22337,22337,22337,22337
201904240510,22337,22337,22337,22337
201904240511,22337,22337,22337,22337
201904240512,22337,22337,22337,22337
201904240513,22337,22337,22337,22337
201904240514,22337,22337,22336,22336
201904240515,22336,22337,22335,22335
201904240516,22335,22335,22335,22335
201904240517,22335,22335,22335,22335
201904240518,22335,22335,22331,22332
201904240519,22332,22333,22332,22333
201904240520,22333,22333,22331,22331
201904240521,22331,22334,22331,22334
201904240522,22334,22336,22333,22335
201904240523,22335,22336,22335,22335
201904240524,22335,22337,22330,22336
201904240525,22336,22336,22335,22336
201904240526,22336,22342,22335,22339
201904240527,22339,22342,22337,22342
201904240528,22342,22342,22342,22342
201904240529,22342,22347,22342,22345
201904240530,22345,22352,22345,22351
201904240531,22351,22351,22350,22351
201904240532,22351,22351,22350,22350
201904240533,22350,22351,22350,22350
201904240534,22350,22350,22350,22350
201904240535,22350,22351,22350,22350
201904240536,22350,22350,22350,22350
201904240537,22350,22350,22348,22350
201904240538,22350,22350,22349,22349
201904240539,22349,22351,22347,22347
201904240540,22347,22348,22346,22348
201904240541,22348,22348,22347,22347
201904240542,22347,22347,22347,22347
201904240543,22347,22348,22347,22348
201904240544,22348,22352,22345,22352
201904240545,22352,22352,22349,22350
201904240546,22350,22350,22347,22349
201904240547,22349,22349,22346,22348
201904240548,22348,22348,22348,22348
201904240549,22348,22348,22346,22346
201904240550,22346,22346,22345,22346
201904240551,22346,22346,22345,22346
201904240552,22346,22346,22345,22346
201904240553,22346,22348,22346,22346
201904240554,22346,22348,22346,22346
201904240555,22346,22346,22346,22346
201904240556,22346,22346,22346,22346
201904240557,22346,22347,22346,22347
201904240558,22347,22347,22346,22346
201904240559,22346,22348,22345,22348
