日時,始値(BID),高値(BID),安値(BID),終値(BID)
201904150830,22081,22092,22080,22092
201904150831,22092,22097,22091,22097
201904150832,22097,22097,22090,22090
201904150833,22090,22092,22090,22091
201904150834,22091,22097,22091,22093
201904150835,22093,22107,22092,22107
201904150836,22107,22107,22090,22092
201904150837,22092,22100,22091,22096
201904150838,22096,22096,22091,22096
201904150839,22096,22097,22095,22097
201904150840,22097,22097,22096,22096
201904150841,22096,22096,22091,22096
201904150842,22096,22097,22092,22096
201904150843,22096,22097,22091,22095
201904150844,22095,22097,22095,22097
201904150845,22100,22100,22086,22094
201904150846,22094,22095,22086,22093
201904150847,22094,22095,22086,22090
201904150848,22090,22096,22086,22091
201904150849,22091,22091,22086,22090
201904150850,22090,22091,22086,22091
201904150851,22091,22091,22086,22088
201904150852,22088,22088,22086,22087
201904150853,22087,22094,22087,22092
201904150854,22092,22094,22091,22094
201904150855,22094,22099,22091,22097
201904150856,22097,22101,22095,22101
201904150857,22101,22110,22101,22104
201904150858,22104,22106,22101,22104
201904150859,22104,22105,22086,22091
201904150900,22091,22101,22076,22100
201904150901,22099,22127,22098,22126
201904150902,22126,22137,22116,22117
201904150903,22117,22134,22116,22134
201904150904,22134,22137,22122,22126
201904150905,22126,22147,22126,22145
201904150906,22146,22157,22141,22141
201904150907,22140,22144,22126,22127
201904150908,22127,22127,22111,22111
201904150909,22111,22125,22111,22116
201904150910,22116,22125,22116,22124
201904150911,22124,22125,22121,22124
201904150912,22124,22124,22121,22122
201904150913,22122,22122,22104,22105
201904150914,22105,22117,22104,22117
201904150915,22117,22122,22106,22116
201904150916,22117,22117,22111,22117
201904150917,22117,22117,22111,22112
201904150918,22112,22115,22111,22111
201904150919,22111,22117,22107,22107
201904150920,22107,22117,22101,22112
201904150921,22112,22117,22107,22117
201904150922,22117,22126,22116,22122
201904150923,22122,22127,22121,22127
201904150924,22127,22132,22122,22125
201904150925,22125,22132,22125,22131
201904150926,22131,22150,22131,22147
201904150927,22147,22147,22137,22143
201904150928,22143,22156,22143,22152
201904150929,22152,22152,22141,22147
201904150930,22147,22156,22147,22150
201904150931,22151,22157,22151,22156
201904150932,22156,22156,22147,22151
201904150933,22151,22155,22149,22150
201904150934,22148,22152,22125,22126
201904150935,22127,22127,22113,22125
201904150936,22126,22128,22121,22128
201904150937,22127,22128,22104,22107
201904150938,22107,22107,22101,22102
201904150939,22102,22107,22101,22107
201904150940,22107,22117,22107,22111
201904150941,22112,22119,22111,22119
201904150942,22119,22129,22116,22129
201904150943,22129,22135,22126,22132
201904150944,22132,22134,22128,22132
201904150945,22132,22147,22131,22146
201904150946,22146,22147,22143,22146
201904150947,22145,22146,22140,22145
201904150948,22145,22152,22145,22147
201904150949,22147,22150,22143,22143
201904150950,22144,22147,22141,22142
201904150951,22142,22144,22138,22142
201904150952,22142,22146,22141,22141
201904150953,22141,22142,22140,22142
201904150954,22142,22149,22136,22140
201904150955,22140,22142,22137,22137
201904150956,22137,22137,22126,22129
201904150957,22130,22130,22121,22125
201904150958,22124,22125,22120,22122
201904150959,22122,22126,22120,22123
201904151000,22121,22127,22121,22127
201904151001,22127,22132,22126,22126
201904151002,22126,22127,22121,22124
201904151003,22124,22124,22121,22122
201904151004,22122,22125,22111,22112
201904151005,22113,22120,22112,22119
201904151006,22119,22120,22106,22112
201904151007,22111,22124,22111,22122
201904151008,22124,22139,22123,22137
201904151009,22137,22140,22134,22137
201904151010,22137,22137,22131,22132
201904151011,22132,22132,22121,22122
201904151012,22121,22124,22120,22122
201904151013,22122,22125,22121,22121
201904151014,22121,22124,22106,22106
201904151015,22106,22114,22103,22110
201904151016,22111,22114,22101,22102
201904151017,22102,22110,22102,22110
201904151018,22111,22115,22111,22115
201904151019,22115,22115,22109,22111
201904151020,22114,22114,22106,22108
201904151021,22108,22117,22106,22116
201904151022,22116,22125,22113,22122
201904151023,22122,22125,22121,22124
201904151024,22123,22125,22123,22125
201904151025,22125,22129,22121,22125
201904151026,22125,22132,22124,22129
201904151027,22130,22135,22130,22133
201904151028,22133,22134,22128,22129
201904151029,22129,22131,22121,22131
201904151030,22131,22134,22131,22132
201904151031,22132,22135,22129,22134
201904151032,22133,22134,22130,22132
201904151033,22132,22137,22131,22137
201904151034,22137,22151,22135,22150
201904151035,22151,22155,22151,22152
201904151036,22153,22155,22149,22154
201904151037,22154,22162,22154,22159
201904151038,22160,22169,22160,22166
201904151039,22166,22167,22161,22164
201904151040,22164,22167,22161,22162
201904151041,22162,22162,22148,22152
201904151042,22152,22157,22151,22156
201904151043,22156,22157,22155,22156
201904151044,22156,22157,22156,22157
201904151045,22157,22165,22157,22162
201904151046,22162,22162,22156,22160
201904151047,22160,22165,22160,22165
201904151048,22165,22167,22163,22165
201904151049,22165,22165,22161,22164
201904151050,22164,22166,22161,22165
201904151051,22165,22166,22156,22156
201904151052,22156,22166,22156,22164
201904151053,22164,22165,22161,22164
201904151054,22164,22164,22161,22162
201904151055,22163,22174,22162,22172
201904151056,22172,22176,22170,22175
201904151057,22175,22175,22171,22172
201904151058,22172,22172,22170,22172
201904151059,22172,22172,22170,22172
201904151100,22172,22174,22171,22172
201904151101,22172,22172,22171,22171
201904151102,22171,22172,22163,22169
201904151103,22168,22171,22166,22170
201904151104,22170,22171,22166,22167
201904151105,22167,22173,22167,22172
201904151106,22172,22174,22170,22174
201904151107,22174,22176,22171,22171
201904151108,22171,22174,22170,22174
201904151109,22174,22174,22171,22172
201904151110,22172,22174,22171,22172
201904151111,22172,22172,22171,22172
201904151112,22172,22172,22161,22162
201904151113,22162,22165,22161,22164
201904151114,22164,22170,22164,22170
201904151115,22170,22179,22170,22179
201904151116,22179,22180,22174,22177
201904151117,22177,22179,22171,22179
201904151118,22179,22179,22176,22179
201904151119,22179,22183,22179,22182
201904151120,22182,22183,22181,22181
201904151121,22181,22182,22177,22180
201904151122,22180,22182,22180,22182
201904151123,22182,22182,22181,22182
201904151124,22182,22182,22181,22181
201904151125,22181,22181,22180,22181
201904151126,22181,22183,22181,22182
201904151127,22181,22184,22181,22181
201904151128,22182,22184,22181,22183
201904151129,22182,22189,22182,22189
201904151130,22188,22194,22183,22191
201904151131,22191,22194,22189,22194
201904151132,22194,22194,22192,22192
201904151133,22192,22192,22187,22192
201904151134,22192,22193,22192,22192
201904151135,22192,22192,22188,22191
201904151136,22191,22193,22191,22192
201904151137,22192,22194,22191,22194
201904151138,22194,22194,22194,22194
201904151139,22194,22194,22191,22191
201904151140,22191,22192,22191,22192
201904151141,22192,22194,22191,22193
201904151142,22193,22194,22189,22194
201904151143,22194,22194,22192,22194
201904151144,22194,22194,22194,22194
201904151145,22194,22194,22194,22194
201904151146,22194,22202,22194,22202
201904151147,22202,22203,22201,22202
201904151148,22202,22203,22201,22202
201904151149,22202,22205,22201,22202
201904151150,22202,22206,22202,22206
201904151151,22206,22211,22206,22211
201904151152,22211,22212,22211,22212
201904151153,22212,22212,22211,22212
201904151154,22212,22212,22211,22212
201904151155,22212,22217,22212,22212
201904151156,22212,22212,22212,22212
201904151157,22212,22212,22212,22212
201904151158,22212,22213,22211,22213
201904151159,22214,22218,22214,22217
201904151200,22217,22217,22212,22212
201904151201,22212,22214,22211,22214
201904151202,22214,22220,22214,22220
201904151203,22220,22221,22216,22218
201904151204,22218,22219,22216,22218
201904151205,22218,22220,22218,22220
201904151206,22220,22220,22220,22220
201904151207,22220,22220,22216,22217
201904151208,22217,22218,22216,22217
201904151209,22217,22217,22217,22217
201904151210,22217,22221,22217,22219
201904151211,22219,22222,22216,22219
201904151212,22218,22219,22216,22217
201904151213,22217,22218,22216,22217
201904151214,22217,22217,22211,22213
201904151215,22211,22215,22211,22215
201904151216,22215,22215,22211,22212
201904151217,22212,22212,22211,22211
201904151218,22211,22211,22206,22209
201904151219,22209,22209,22201,22202
201904151220,22202,22207,22202,22207
201904151221,22207,22207,22206,22206
201904151222,22207,22207,22201,22202
201904151223,22202,22206,22201,22202
201904151224,22202,22204,22201,22202
201904151225,22202,22202,22202,22202
201904151226,22202,22206,22201,22205
201904151227,22205,22205,22201,22202
201904151228,22202,22202,22199,22200
201904151229,22200,22200,22191,22194
201904151230,22194,22197,22192,22192
201904151231,22192,22192,22181,22184
201904151232,22184,22189,22182,22185
201904151233,22185,22185,22181,22182
201904151234,22182,22184,22179,22182
201904151235,22182,22183,22180,22183
201904151236,22182,22191,22181,22186
201904151237,22186,22186,22183,22186
201904151238,22186,22187,22181,22184
201904151239,22184,22184,22171,22174
201904151240,22176,22176,22167,22170
201904151241,22170,22172,22168,22170
201904151242,22170,22171,22170,22171
201904151243,22171,22172,22171,22172
201904151244,22172,22177,22172,22177
201904151245,22177,22182,22177,22182
201904151246,22182,22187,22181,22182
201904151247,22182,22182,22172,22176
201904151248,22176,22182,22176,22182
201904151249,22182,22184,22180,22181
201904151250,22181,22185,22181,22182
201904151251,22181,22185,22177,22177
201904151252,22177,22184,22177,22182
201904151253,22182,22182,22181,22182
201904151254,22182,22182,22168,22175
201904151255,22175,22175,22171,22172
201904151256,22172,22176,22171,22175
201904151257,22175,22176,22175,22176
201904151258,22176,22176,22175,22175
201904151259,22175,22176,22175,22175
201904151300,22175,22175,22172,22174
201904151301,22174,22176,22174,22175
201904151302,22175,22177,22175,22177
201904151303,22177,22186,22177,22186
201904151304,22186,22187,22181,22186
201904151305,22187,22187,22182,22182
201904151306,22182,22188,22182,22187
201904151307,22187,22187,22183,22184
201904151308,22183,22185,22182,22182
201904151309,22182,22184,22181,22182
201904151310,22182,22183,22181,22182
201904151311,22182,22183,22177,22179
201904151312,22179,22179,22171,22171
201904151313,22171,22178,22171,22177
201904151314,22177,22177,22175,22175
201904151315,22175,22181,22172,22172
201904151316,22172,22172,22171,22172
201904151317,22172,22176,22171,22176
201904151318,22176,22180,22175,22180
201904151319,22180,22183,22180,22182
201904151320,22182,22183,22181,22182
201904151321,22182,22185,22182,22184
201904151322,22185,22185,22185,22185
201904151323,22185,22185,22184,22185
201904151324,22185,22185,22185,22185
201904151325,22185,22185,22182,22182
201904151326,22182,22182,22181,22181
201904151327,22181,22183,22181,22182
201904151328,22182,22182,22181,22182
201904151329,22182,22182,22182,22182
201904151330,22182,22182,22182,22182
201904151331,22182,22185,22182,22185
201904151332,22185,22186,22184,22184
201904151333,22185,22185,22184,22185
201904151334,22185,22185,22184,22184
201904151335,22184,22185,22184,22185
201904151336,22185,22185,22182,22182
201904151337,22182,22182,22182,22182
201904151338,22182,22187,22182,22187
201904151339,22187,22187,22187,22187
201904151340,22187,22187,22187,22187
201904151341,22187,22187,22187,22187
201904151342,22186,22187,22183,22185
201904151343,22185,22185,22181,22182
201904151344,22182,22183,22182,22182
201904151345,22182,22184,22182,22184
201904151346,22184,22185,22184,22185
201904151347,22185,22186,22181,22182
201904151348,22182,22184,22181,22184
201904151349,22184,22184,22181,22182
201904151350,22182,22184,22182,22184
201904151351,22184,22185,22181,22182
201904151352,22182,22182,22177,22177
201904151353,22177,22177,22177,22177
201904151354,22177,22177,22172,22172
201904151355,22172,22172,22172,22172
201904151356,22172,22172,22171,22171
201904151357,22171,22177,22169,22177
201904151358,22177,22177,22177,22177
201904151359,22177,22177,22171,22174
201904151400,22174,22177,22172,22173
201904151401,22173,22174,22171,22172
201904151402,22172,22172,22171,22172
201904151403,22172,22172,22171,22172
201904151404,22172,22175,22169,22175
201904151405,22175,22178,22175,22177
201904151406,22177,22184,22177,22182
201904151407,22182,22183,22181,22182
201904151408,22182,22184,22181,22182
201904151409,22181,22181,22177,22177
201904151410,22177,22177,22177,22177
201904151411,22177,22177,22171,22172
201904151412,22172,22175,22171,22175
201904151413,22175,22175,22171,22172
201904151414,22172,22174,22172,22172
201904151415,22172,22173,22169,22172
201904151416,22172,22175,22172,22173
201904151417,22173,22174,22171,22174
201904151418,22174,22176,22174,22175
201904151419,22175,22176,22175,22175
201904151420,22175,22179,22175,22179
201904151421,22178,22180,22178,22180
201904151422,22180,22181,22180,22181
201904151423,22181,22184,22181,22184
201904151424,22184,22184,22181,22182
201904151425,22182,22182,22182,22182
201904151426,22182,22182,22180,22181
201904151427,22181,22181,22175,22179
201904151428,22179,22179,22175,22179
201904151429,22179,22182,22179,22182
201904151430,22182,22183,22181,22183
201904151431,22183,22183,22181,22182
201904151432,22182,22183,22177,22177
201904151433,22177,22177,22177,22177
201904151434,22177,22177,22172,22172
201904151435,22172,22172,22171,22172
201904151436,22172,22172,22172,22172
201904151437,22172,22172,22172,22172
201904151438,22172,22172,22172,22172
201904151439,22172,22172,22172,22172
201904151440,22172,22172,22171,22172
201904151441,22172,22172,22171,22171
201904151442,22171,22172,22171,22172
201904151443,22172,22172,22172,22172
201904151444,22172,22172,22171,22171
201904151445,22171,22172,22171,22171
201904151446,22171,22171,22170,22171
201904151447,22171,22171,22167,22167
201904151448,22167,22167,22166,22166
201904151449,22166,22166,22165,22165
201904151450,22165,22165,22162,22164
201904151451,22164,22166,22163,22164
201904151452,22164,22167,22164,22165
201904151453,22165,22167,22163,22167
201904151454,22167,22167,22162,22162
201904151455,22162,22162,22162,22162
201904151456,22162,22169,22162,22167
201904151457,22167,22167,22162,22165
201904151458,22164,22167,22164,22167
201904151459,22167,22170,22162,22164
201904151500,22163,22166,22160,22166
201904151501,22165,22169,22165,22167
201904151502,22167,22168,22165,22168
201904151503,22168,22171,22166,22171
201904151504,22171,22171,22167,22171
201904151505,22170,22179,22170,22179
201904151506,22179,22179,22173,22176
201904151507,22176,22177,22174,22175
201904151508,22175,22178,22174,22174
201904151509,22174,22174,22171,22172
201904151510,22172,22177,22170,22172
201904151511,22172,22177,22165,22165
201904151512,22166,22166,22156,22157
201904151513,22157,22157,22151,22152
201904151514,22152,22176,22152,22171
201904151515,22171,22176,22164,22166
201904151516,22167,22168,22162,22162
201904151517,22162,22164,22160,22162
201904151518,22162,22162,22157,22161
201904151519,22161,22162,22160,22162
201904151520,22162,22167,22161,22166
201904151521,22166,22166,22165,22166
201904151522,22166,22167,22164,22166
201904151523,22166,22169,22164,22167
201904151524,22167,22171,22164,22170
201904151525,22168,22168,22167,22167
201904151526,22167,22172,22167,22172
201904151527,22172,22172,22171,22171
201904151528,22171,22172,22171,22172
201904151529,22172,22172,22171,22171
201904151530,22171,22172,22171,22172
201904151531,22172,22172,22166,22168
201904151532,22168,22168,22166,22168
201904151533,22169,22169,22166,22167
201904151534,22167,22168,22166,22166
201904151535,22166,22167,22165,22167
201904151536,22167,22169,22165,22167
201904151537,22167,22167,22167,22167
201904151538,22167,22167,22161,22167
201904151539,22167,22168,22166,22168
201904151540,22168,22170,22166,22167
201904151541,22167,22167,22167,22167
201904151542,22167,22167,22166,22166
201904151543,22166,22167,22166,22167
201904151544,22167,22167,22161,22162
201904151545,22162,22162,22160,22161
201904151546,22161,22162,22160,22160
201904151547,22160,22161,22157,22157
201904151548,22157,22157,22157,22157
201904151549,22157,22158,22155,22157
201904151550,22157,22161,22157,22161
201904151551,22161,22161,22151,22152
201904151552,22152,22156,22145,22156
201904151553,22156,22157,22150,22150
201904151554,22150,22152,22150,22151
201904151555,22148,22159,22148,22159
201904151556,22159,22162,22159,22161
201904151557,22161,22164,22161,22162
201904151558,22162,22162,22155,22155
201904151559,22155,22156,22153,22153
201904151600,22153,22162,22151,22161
201904151601,22161,22166,22161,22163
201904151602,22163,22168,22161,22162
201904151603,22162,22166,22160,22161
201904151604,22161,22162,22160,22160
201904151605,22160,22162,22160,22161
201904151606,22161,22167,22161,22167
201904151607,22167,22167,22161,22161
201904151608,22161,22167,22160,22167
201904151609,22167,22172,22165,22172
201904151610,22172,22172,22162,22164
201904151611,22164,22164,22160,22162
201904151612,22161,22162,22160,22161
201904151613,22161,22167,22160,22167
201904151614,22167,22172,22165,22167
201904151615,22167,22172,22165,22167
201904151616,22167,22172,22167,22170
201904151617,22170,22170,22170,22170
201904151618,22170,22171,22170,22170
201904151619,22170,22173,22170,22170
201904151620,22170,22172,22170,22171
201904151621,22171,22172,22166,22167
201904151622,22167,22167,22165,22166
201904151623,22166,22167,22161,22161
201904151624,22161,22162,22161,22162
201904151625,22163,22167,22160,22162
201904151626,22162,22162,22161,22161
201904151627,22161,22167,22161,22166
201904151628,22166,22166,22157,22160
201904151629,22160,22162,22160,22161
201904151630,22165,22165,22158,22161
201904151631,22161,22163,22161,22162
201904151632,22162,22165,22161,22162
201904151633,22162,22164,22162,22163
201904151634,22163,22164,22161,22163
201904151635,22163,22163,22162,22162
201904151636,22162,22162,22162,22162
201904151637,22162,22162,22162,22162
201904151638,22162,22162,22156,22161
201904151639,22161,22161,22156,22157
201904151640,22157,22159,22156,22157
201904151641,22157,22159,22157,22158
201904151642,22158,22160,22156,22157
201904151643,22157,22164,22157,22164
201904151644,22164,22165,22164,22165
201904151645,22164,22166,22164,22166
201904151646,22166,22166,22161,22162
201904151647,22162,22162,22161,22161
201904151648,22161,22162,22157,22157
201904151649,22157,22157,22157,22157
201904151650,22157,22157,22153,22156
201904151651,22156,22156,22151,22154
201904151652,22154,22154,22151,22152
201904151653,22152,22156,22151,22155
201904151654,22155,22156,22153,22154
201904151655,22154,22155,22154,22155
201904151656,22155,22156,22155,22155
201904151657,22155,22155,22151,22154
201904151658,22154,22156,22154,22156
201904151659,22156,22156,22146,22147
201904151700,22146,22147,22146,22147
201904151701,22147,22152,22147,22149
201904151702,22149,22150,22147,22147
201904151703,22147,22147,22146,22146
201904151704,22146,22147,22146,22147
201904151705,22147,22151,22147,22147
201904151706,22147,22147,22141,22142
201904151707,22142,22143,22141,22141
201904151708,22141,22144,22141,22143
201904151709,22143,22144,22141,22142
201904151710,22142,22144,22127,22129
201904151711,22128,22130,22126,22127
201904151712,22127,22131,22127,22130
201904151713,22130,22132,22130,22132
201904151714,22132,22137,22132,22137
201904151715,22137,22141,22137,22141
201904151716,22141,22142,22141,22142
201904151717,22142,22147,22137,22137
201904151718,22137,22137,22135,22137
201904151719,22137,22137,22136,22137
201904151720,22137,22137,22132,22132
201904151721,22132,22132,22132,22132
201904151722,22132,22136,22132,22133
201904151723,22133,22136,22131,22133
201904151724,22133,22136,22133,22136
201904151725,22136,22136,22135,22135
201904151726,22135,22137,22132,22132
201904151727,22132,22134,22131,22132
201904151728,22132,22135,22132,22134
201904151729,22134,22136,22132,22135
201904151730,22135,22136,22135,22136
201904151731,22136,22136,22136,22136
201904151732,22136,22142,22136,22142
201904151733,22142,22145,22141,22145
201904151734,22145,22147,22145,22145
201904151735,22145,22147,22145,22146
201904151736,22146,22147,22146,22146
201904151737,22146,22147,22146,22147
201904151738,22147,22150,22147,22150
201904151739,22150,22152,22150,22152
201904151740,22152,22156,22152,22152
201904151741,22152,22154,22151,22154
201904151742,22154,22154,22152,22152
201904151743,22152,22152,22152,22152
201904151744,22152,22152,22151,22152
201904151745,22152,22152,22152,22152
201904151746,22152,22152,22152,22152
201904151747,22152,22152,22142,22144
201904151748,22144,22144,22141,22143
201904151749,22143,22146,22143,22146
201904151750,22145,22145,22144,22145
201904151751,22145,22145,22143,22145
201904151752,22145,22146,22145,22145
201904151753,22145,22146,22145,22146
201904151754,22146,22150,22146,22150
201904151755,22150,22151,22148,22151
201904151756,22151,22151,22151,22151
201904151757,22151,22151,22151,22151
201904151758,22151,22151,22146,22146
201904151759,22148,22150,22148,22150
201904151800,22149,22150,22149,22150
201904151801,22150,22150,22146,22147
201904151802,22147,22148,22146,22147
201904151803,22147,22147,22147,22147
201904151804,22147,22150,22146,22148
201904151805,22148,22150,22148,22150
201904151806,22150,22151,22150,22150
201904151807,22150,22150,22146,22147
201904151808,22147,22148,22146,22147
201904151809,22147,22147,22147,22147
201904151810,22147,22147,22146,22147
201904151811,22147,22151,22147,22150
201904151812,22150,22151,22150,22151
201904151813,22151,22151,22147,22147
201904151814,22147,22147,22147,22147
201904151815,22147,22150,22146,22147
201904151816,22147,22149,22146,22149
201904151817,22149,22150,22146,22148
201904151818,22147,22149,22146,22148
201904151819,22148,22150,22146,22147
201904151820,22147,22148,22146,22147
201904151821,22147,22147,22147,22147
201904151822,22147,22147,22142,22142
201904151823,22142,22146,22142,22146
201904151824,22146,22148,22146,22147
201904151825,22147,22151,22147,22151
201904151826,22151,22151,22151,22151
201904151827,22151,22152,22151,22152
201904151828,22152,22155,22152,22155
201904151829,22155,22156,22155,22155
201904151830,22155,22156,22155,22156
201904151831,22156,22159,22156,22157
201904151832,22157,22157,22150,22152
201904151833,22152,22153,22151,22152
201904151834,22152,22158,22151,22158
201904151835,22158,22160,22155,22160
201904151836,22160,22161,22160,22161
201904151837,22161,22165,22158,22165
201904151838,22165,22167,22162,22167
201904151839,22167,22168,22166,22167
201904151840,22167,22167,22161,22164
201904151841,22164,22172,22162,22171
201904151842,22171,22171,22170,22171
201904151843,22171,22173,22171,22172
201904151844,22172,22172,22172,22172
201904151845,22172,22172,22162,22162
201904151846,22162,22173,22162,22171
201904151847,22171,22172,22171,22171
201904151848,22171,22171,22171,22171
201904151849,22171,22174,22171,22174
201904151850,22174,22175,22171,22175
201904151851,22175,22175,22174,22175
201904151852,22175,22175,22172,22172
201904151853,22172,22174,22172,22174
201904151854,22174,22174,22174,22174
201904151855,22174,22174,22172,22172
201904151856,22172,22174,22172,22172
201904151857,22172,22172,22172,22172
201904151858,22172,22172,22166,22167
201904151859,22167,22167,22166,22166
201904151900,22166,22171,22162,22171
201904151901,22171,22171,22166,22167
201904151902,22167,22167,22167,22167
201904151903,22167,22170,22167,22167
201904151904,22167,22167,22167,22167
201904151905,22167,22167,22161,22162
201904151906,22162,22166,22161,22166
201904151907,22166,22166,22165,22165
201904151908,22165,22166,22163,22163
201904151909,22164,22164,22162,22162
201904151910,22162,22162,22161,22162
201904151911,22162,22164,22161,22163
201904151912,22163,22164,22163,22164
201904151913,22164,22164,22162,22162
201904151914,22162,22162,22156,22156
201904151915,22156,22157,22156,22157
201904151916,22157,22157,22151,22152
201904151917,22152,22152,22151,22152
201904151918,22152,22152,22151,22152
201904151919,22152,22152,22151,22151
201904151920,22151,22156,22151,22156
201904151921,22156,22156,22156,22156
201904151922,22156,22157,22155,22156
201904151923,22156,22156,22151,22152
201904151924,22152,22154,22151,22151
201904151925,22151,22153,22151,22152
201904151926,22152,22156,22152,22156
201904151927,22156,22162,22156,22162
201904151928,22162,22165,22161,22162
201904151929,22163,22164,22161,22162
201904151930,22162,22164,22161,22161
201904151931,22162,22165,22161,22162
201904151932,22162,22162,22161,22162
201904151933,22162,22162,22161,22162
201904151934,22162,22162,22161,22161
201904151935,22161,22162,22158,22158
201904151936,22158,22162,22156,22161
201904151937,22161,22164,22161,22161
201904151938,22161,22162,22161,22162
201904151939,22162,22162,22161,22162
201904151940,22162,22162,22162,22162
201904151941,22162,22162,22162,22162
201904151942,22162,22162,22161,22161
201904151943,22161,22162,22161,22161
201904151944,22161,22162,22161,22162
201904151945,22162,22162,22161,22161
201904151946,22161,22164,22161,22162
201904151947,22162,22162,22161,22162
201904151948,22162,22162,22160,22160
201904151949,22160,22160,22157,22157
201904151950,22157,22157,22157,22157
201904151951,22157,22157,22157,22157
201904151952,22157,22157,22157,22157
201904151953,22157,22158,22156,22157
201904151954,22157,22157,22157,22157
201904151955,22157,22157,22157,22157
201904151956,22157,22157,22156,22156
201904151957,22156,22156,22152,22152
201904151958,22152,22153,22151,22152
201904151959,22152,22152,22152,22152
201904152000,22152,22154,22151,22152
201904152001,22152,22152,22152,22152
201904152002,22152,22157,22152,22156
201904152003,22156,22156,22155,22156
201904152004,22156,22156,22155,22156
201904152005,22156,22156,22156,22156
201904152006,22156,22156,22155,22156
201904152007,22156,22156,22155,22155
201904152008,22155,22156,22151,22152
201904152009,22152,22152,22152,22152
201904152010,22152,22152,22149,22151
201904152011,22151,22152,22151,22151
201904152012,22151,22154,22151,22152
201904152013,22152,22155,22152,22154
201904152014,22154,22154,22152,22152
201904152015,22152,22153,22151,22152
201904152016,22152,22153,22151,22152
201904152017,22152,22155,22151,22155
201904152018,22155,22155,22151,22154
201904152019,22154,22154,22151,22154
201904152020,22154,22156,22153,22156
201904152021,22156,22158,22156,22157
201904152022,22157,22159,22156,22157
201904152023,22157,22159,22156,22158
201904152024,22158,22158,22156,22157
201904152025,22157,22164,22156,22161
201904152026,22162,22165,22161,22163
201904152027,22163,22164,22161,22162
201904152028,22162,22162,22158,22160
201904152029,22160,22164,22159,22164
201904152030,22164,22164,22163,22164
201904152031,22164,22164,22161,22164
201904152032,22164,22164,22161,22164
201904152033,22164,22164,22161,22164
201904152034,22164,22164,22164,22164
201904152035,22164,22165,22164,22165
201904152036,22165,22165,22162,22165
201904152037,22165,22165,22165,22165
201904152038,22165,22165,22165,22165
201904152039,22165,22166,22165,22166
201904152040,22166,22166,22165,22166
201904152041,22166,22166,22162,22163
201904152042,22163,22164,22159,22160
201904152043,22160,22160,22159,22160
201904152044,22160,22161,22160,22161
201904152045,22161,22163,22161,22163
201904152046,22163,22164,22161,22162
201904152047,22162,22162,22161,22161
201904152048,22161,22161,22156,22157
201904152049,22157,22157,22156,22157
201904152050,22157,22161,22157,22161
201904152051,22161,22161,22160,22161
201904152052,22161,22161,22157,22157
201904152053,22157,22162,22156,22162
201904152054,22162,22164,22161,22162
201904152055,22162,22162,22157,22157
201904152056,22157,22157,22147,22147
201904152057,22147,22147,22147,22147
201904152058,22147,22149,22146,22149
201904152059,22149,22150,22146,22147
201904152100,22147,22149,22146,22146
201904152101,22148,22148,22146,22147
201904152102,22148,22149,22146,22147
201904152103,22147,22147,22147,22147
201904152104,22147,22147,22147,22147
201904152105,22147,22147,22147,22147
201904152106,22147,22147,22146,22147
201904152107,22147,22149,22146,22148
201904152108,22148,22148,22146,22147
201904152109,22147,22147,22147,22147
201904152110,22147,22149,22146,22147
201904152111,22147,22147,22147,22147
201904152112,22147,22147,22147,22147
201904152113,22147,22147,22142,22144
201904152114,22144,22147,22143,22147
201904152115,22147,22149,22146,22149
201904152116,22149,22149,22146,22148
201904152117,22148,22148,22147,22147
201904152118,22147,22149,22147,22147
201904152119,22147,22149,22147,22147
201904152120,22147,22147,22137,22137
201904152121,22137,22138,22137,22137
201904152122,22137,22137,22137,22137
201904152123,22137,22141,22137,22140
201904152124,22140,22141,22137,22137
201904152125,22137,22139,22137,22137
201904152126,22137,22140,22136,22140
201904152127,22140,22141,22137,22137
201904152128,22137,22137,22137,22137
201904152129,22137,22137,22137,22137
201904152130,22137,22147,22137,22146
201904152131,22146,22146,22141,22144
201904152132,22145,22148,22141,22146
201904152133,22147,22147,22146,22147
201904152134,22147,22147,22146,22146
201904152135,22146,22146,22142,22146
201904152136,22146,22151,22146,22151
201904152137,22151,22156,22151,22156
201904152138,22155,22156,22153,22156
201904152139,22156,22156,22155,22156
201904152140,22156,22161,22156,22159
201904152141,22159,22161,22158,22160
201904152142,22160,22160,22157,22157
201904152143,22157,22157,22152,22152
201904152144,22152,22152,22151,22152
201904152145,22152,22155,22151,22153
201904152146,22153,22155,22152,22152
201904152147,22152,22152,22152,22152
201904152148,22152,22152,22146,22148
201904152149,22148,22154,22148,22154
201904152150,22154,22157,22154,22155
201904152151,22155,22155,22152,22155
201904152152,22155,22156,22155,22156
201904152153,22156,22156,22154,22154
201904152154,22154,22155,22154,22154
201904152155,22154,22157,22153,22157
201904152156,22157,22157,22155,22155
201904152157,22155,22156,22153,22154
201904152158,22154,22157,22153,22153
201904152159,22153,22154,22152,22153
201904152200,22153,22159,22153,22158
201904152201,22158,22159,22158,22159
201904152202,22159,22159,22156,22157
201904152203,22156,22159,22156,22159
201904152204,22159,22160,22159,22160
201904152205,22160,22160,22156,22157
201904152206,22157,22159,22156,22158
201904152207,22158,22158,22155,22157
201904152208,22157,22157,22156,22157
201904152209,22157,22157,22157,22157
201904152210,22157,22157,22151,22154
201904152211,22154,22154,22151,22152
201904152212,22152,22154,22151,22152
201904152213,22152,22154,22151,22153
201904152214,22153,22155,22153,22155
201904152215,22155,22155,22151,22155
201904152216,22155,22159,22155,22158
201904152217,22158,22159,22157,22157
201904152218,22157,22157,22156,22156
201904152219,22156,22157,22156,22157
201904152220,22157,22157,22156,22156
201904152221,22156,22159,22156,22158
201904152222,22158,22159,22156,22157
201904152223,22157,22157,22157,22157
201904152224,22157,22159,22156,22156
201904152225,22156,22157,22156,22157
201904152226,22157,22157,22157,22157
201904152227,22157,22157,22157,22157
201904152228,22157,22158,22153,22157
201904152229,22157,22157,22155,22156
201904152230,22156,22159,22155,22157
201904152231,22157,22159,22151,22154
201904152232,22153,22157,22153,22157
201904152233,22157,22157,22156,22157
201904152234,22156,22157,22152,22153
201904152235,22153,22156,22151,22152
201904152236,22152,22152,22147,22147
201904152237,22147,22147,22141,22142
201904152238,22142,22143,22141,22142
201904152239,22142,22142,22142,22142
201904152240,22142,22144,22142,22144
201904152241,22143,22144,22141,22144
201904152242,22144,22144,22141,22144
201904152243,22144,22145,22141,22145
201904152244,22145,22147,22145,22145
201904152245,22145,22145,22142,22142
201904152246,22142,22145,22141,22144
201904152247,22144,22144,22142,22142
201904152248,22142,22142,22142,22142
201904152249,22142,22142,22141,22141
201904152250,22141,22141,22136,22136
201904152251,22136,22136,22135,22136
201904152252,22136,22136,22136,22136
201904152253,22136,22136,22132,22132
201904152254,22132,22132,22131,22131
201904152255,22131,22140,22131,22140
201904152256,22141,22147,22141,22147
201904152257,22147,22147,22145,22145
201904152258,22146,22147,22145,22145
201904152259,22146,22146,22140,22141
201904152300,22141,22141,22140,22141
201904152301,22141,22144,22141,22142
201904152302,22142,22145,22141,22145
201904152303,22145,22149,22143,22147
201904152304,22147,22150,22146,22149
201904152305,22150,22155,22147,22154
201904152306,22155,22156,22155,22155
201904152307,22155,22156,22155,22156
201904152308,22156,22156,22154,22154
201904152309,22154,22154,22151,22151
201904152310,22151,22151,22146,22150
201904152311,22150,22151,22146,22147
201904152312,22147,22151,22146,22150
201904152313,22150,22151,22146,22147
201904152314,22147,22151,22146,22147
201904152315,22147,22151,22146,22150
201904152316,22150,22150,22148,22149
201904152317,22150,22150,22145,22146
201904152318,22146,22146,22141,22142
201904152319,22142,22146,22141,22142
201904152320,22142,22145,22142,22144
201904152321,22143,22143,22141,22142
201904152322,22142,22146,22142,22145
201904152323,22145,22147,22145,22145
201904152324,22145,22146,22144,22146
201904152325,22145,22145,22136,22140
201904152326,22140,22142,22137,22138
201904152327,22138,22142,22138,22139
201904152328,22139,22139,22132,22135
201904152329,22135,22136,22127,22127
201904152330,22127,22127,22122,22122
201904152331,22122,22122,22120,22121
201904152332,22121,22127,22121,22126
201904152333,22126,22127,22122,22127
201904152334,22128,22131,22127,22127
201904152335,22127,22127,22125,22127
201904152336,22127,22129,22126,22127
201904152337,22129,22129,22121,22122
201904152338,22122,22122,22122,22122
201904152339,22122,22122,22117,22122
201904152340,22122,22125,22121,22122
201904152341,22122,22125,22121,22122
201904152342,22122,22124,22121,22122
201904152343,22122,22122,22111,22115
201904152344,22115,22115,22111,22112
201904152345,22112,22116,22108,22116
201904152346,22116,22116,22111,22116
201904152347,22116,22117,22113,22117
201904152348,22117,22125,22117,22123
201904152349,22123,22128,22121,22127
201904152350,22126,22132,22126,22130
201904152351,22130,22131,22126,22131
201904152352,22130,22130,22126,22130
201904152353,22130,22131,22126,22130
201904152354,22130,22136,22129,22134
201904152355,22135,22135,22128,22130
201904152356,22130,22130,22129,22130
201904152357,22130,22130,22128,22129
201904152358,22129,22131,22127,22130
201904152359,22130,22134,22130,22134
201904160000,22134,22136,22131,22134
201904160001,22133,22136,22133,22134
201904160002,22134,22135,22131,22132
201904160003,22132,22132,22127,22131
201904160004,22131,22132,22131,22131
201904160005,22131,22132,22127,22128
201904160006,22129,22129,22121,22121
201904160007,22121,22128,22121,22126
201904160008,22126,22135,22126,22132
201904160009,22132,22134,22131,22132
201904160010,22132,22136,22132,22136
201904160011,22136,22136,22131,22131
201904160012,22131,22135,22131,22135
201904160013,22135,22138,22135,22137
201904160014,22137,22141,22137,22140
201904160015,22140,22142,22140,22141
201904160016,22141,22143,22140,22141
201904160017,22141,22142,22141,22142
201904160018,22142,22142,22136,22140
201904160019,22140,22140,22136,22137
201904160020,22136,22141,22136,22140
201904160021,22140,22140,22132,22136
201904160022,22136,22138,22133,22138
201904160023,22138,22139,22136,22137
201904160024,22137,22137,22137,22137
201904160025,22137,22137,22131,22132
201904160026,22132,22135,22131,22132
201904160027,22132,22137,22131,22137
201904160028,22136,22139,22136,22137
201904160029,22137,22139,22135,22136
201904160030,22136,22136,22131,22132
201904160031,22132,22135,22131,22133
201904160032,22133,22135,22131,22135
201904160033,22135,22137,22135,22136
201904160034,22136,22137,22135,22137
201904160035,22137,22137,22132,22134
201904160036,22134,22135,22131,22132
201904160037,22132,22132,22132,22132
201904160038,22132,22132,22132,22132
201904160039,22132,22132,22126,22127
201904160040,22127,22127,22126,22126
201904160041,22126,22132,22126,22131
201904160042,22131,22132,22126,22127
201904160043,22127,22127,22121,22122
201904160044,22122,22122,22122,22122
201904160045,22122,22126,22121,22126
201904160046,22126,22126,22121,22122
201904160047,22122,22126,22122,22126
201904160048,22125,22127,22125,22126
201904160049,22126,22126,22123,22125
201904160050,22125,22132,22125,22131
201904160051,22131,22131,22126,22127
201904160052,22127,22129,22126,22127
201904160053,22127,22127,22126,22127
201904160054,22127,22127,22126,22127
201904160055,22127,22129,22126,22128
201904160056,22128,22131,22126,22128
201904160057,22128,22131,22127,22129
201904160058,22129,22129,22126,22127
201904160059,22127,22127,22126,22127
201904160100,22127,22127,22126,22127
201904160101,22127,22127,22121,22124
201904160102,22123,22125,22116,22117
201904160103,22117,22122,22116,22122
201904160104,22122,22122,22118,22121
201904160105,22121,22122,22116,22122
201904160106,22122,22124,22121,22122
201904160107,22122,22122,22121,22121
201904160108,22122,22126,22121,22121
201904160109,22121,22121,22116,22117
201904160110,22117,22117,22117,22117
201904160111,22117,22117,22116,22117
201904160112,22117,22117,22116,22117
201904160113,22117,22117,22117,22117
201904160114,22117,22121,22116,22121
201904160115,22121,22122,22121,22122
201904160116,22122,22122,22121,22122
201904160117,22122,22125,22121,22123
201904160118,22123,22124,22121,22122
201904160119,22122,22127,22121,22127
201904160120,22127,22129,22126,22127
201904160121,22127,22127,22127,22127
201904160122,22127,22127,22126,22127
201904160123,22127,22127,22126,22127
201904160124,22127,22127,22127,22127
201904160125,22127,22127,22126,22127
201904160126,22127,22127,22126,22126
201904160127,22126,22126,22122,22122
201904160128,22122,22126,22121,22122
201904160129,22122,22122,22116,22117
201904160130,22117,22117,22116,22117
201904160131,22117,22120,22116,22118
201904160132,22119,22122,22119,22122
201904160133,22122,22122,22121,22122
201904160134,22122,22122,22116,22117
201904160135,22117,22122,22116,22122
201904160136,22122,22126,22121,22126
201904160137,22126,22131,22123,22131
201904160138,22131,22131,22130,22131
201904160139,22131,22132,22131,22132
201904160140,22132,22132,22131,22131
201904160141,22131,22131,22131,22131
201904160142,22131,22131,22126,22131
201904160143,22131,22131,22131,22131
201904160144,22131,22131,22128,22128
201904160145,22128,22131,22128,22131
201904160146,22131,22131,22130,22131
201904160147,22131,22131,22130,22130
201904160148,22130,22131,22130,22130
201904160149,22130,22130,22128,22128
201904160150,22128,22130,22128,22129
201904160151,22128,22131,22127,22131
201904160152,22130,22131,22130,22131
201904160153,22131,22131,22131,22131
201904160154,22131,22131,22130,22131
201904160155,22131,22131,22130,22131
201904160156,22131,22131,22130,22130
201904160157,22130,22131,22129,22131
201904160158,22131,22131,22130,22130
201904160159,22130,22131,22129,22130
201904160200,22132,22132,22130,22131
201904160201,22131,22132,22131,22132
201904160202,22132,22132,22131,22132
201904160203,22132,22132,22131,22132
201904160204,22132,22137,22130,22131
201904160205,22131,22155,22130,22155
201904160206,22155,22155,22150,22150
201904160207,22150,22152,22149,22152
201904160208,22152,22152,22151,22152
201904160209,22152,22152,22152,22152
201904160210,22152,22152,22152,22152
201904160211,22152,22152,22151,22152
201904160212,22152,22152,22152,22152
201904160213,22152,22152,22151,22152
201904160214,22152,22152,22152,22152
201904160215,22152,22152,22151,22151
201904160216,22151,22152,22151,22152
201904160217,22152,22152,22152,22152
201904160218,22152,22152,22151,22152
201904160219,22152,22152,22152,22152
201904160220,22152,22152,22152,22152
201904160221,22152,22152,22152,22152
201904160222,22152,22152,22146,22151
201904160223,22151,22151,22146,22148
201904160224,22148,22148,22147,22147
201904160225,22147,22148,22145,22148
201904160226,22148,22148,22145,22147
201904160227,22147,22152,22146,22151
201904160228,22151,22151,22148,22149
201904160229,22149,22152,22146,22152
201904160230,22152,22154,22150,22152
201904160231,22152,22152,22150,22151
201904160232,22152,22154,22150,22152
201904160233,22152,22152,22152,22152
201904160234,22152,22152,22151,22152
201904160235,22152,22152,22152,22152
201904160236,22152,22152,22151,22152
201904160237,22152,22152,22152,22152
201904160238,22152,22152,22152,22152
201904160239,22152,22152,22152,22152
201904160240,22152,22155,22150,22152
201904160241,22152,22152,22152,22152
201904160242,22152,22152,22152,22152
201904160243,22152,22152,22152,22152
201904160244,22152,22152,22152,22152
201904160245,22152,22152,22152,22152
201904160246,22152,22152,22152,22152
201904160247,22152,22152,22151,22152
201904160248,22152,22152,22151,22152
201904160249,22152,22152,22152,22152
201904160250,22152,22152,22152,22152
201904160251,22152,22152,22150,22152
201904160252,22152,22152,22150,22152
201904160253,22152,22152,22150,22152
201904160254,22152,22152,22152,22152
201904160255,22152,22152,22151,22152
201904160256,22152,22152,22152,22152
201904160257,22152,22152,22152,22152
201904160258,22152,22152,22152,22152
201904160259,22152,22152,22152,22152
201904160300,22152,22152,22152,22152
201904160301,22152,22152,22150,22150
201904160302,22150,22151,22150,22151
201904160303,22151,22152,22146,22147
201904160304,22147,22152,22146,22151
201904160305,22151,22152,22151,22152
201904160306,22152,22152,22152,22152
201904160307,22152,22152,22150,22152
201904160308,22152,22152,22151,22152
201904160309,22152,22152,22152,22152
201904160310,22152,22152,22151,22152
201904160311,22152,22152,22150,22151
201904160312,22151,22152,22151,22152
201904160313,22152,22152,22151,22152
201904160314,22152,22152,22151,22152
201904160315,22152,22156,22151,22156
201904160316,22156,22156,22150,22154
201904160317,22154,22154,22150,22152
201904160318,22152,22156,22151,22153
201904160319,22153,22154,22150,22152
201904160320,22152,22152,22151,22152
201904160321,22152,22152,22152,22152
201904160322,22152,22154,22151,22152
201904160323,22152,22152,22151,22152
201904160324,22152,22152,22152,22152
201904160325,22152,22154,22150,22153
201904160326,22153,22156,22152,22155
201904160327,22155,22156,22150,22152
201904160328,22152,22155,22151,22152
201904160329,22152,22156,22151,22155
201904160330,22155,22157,22155,22156
201904160331,22156,22156,22151,22153
201904160332,22153,22155,22150,22152
201904160333,22152,22152,22152,22152
201904160334,22152,22152,22151,22151
201904160335,22151,22152,22149,22151
201904160336,22151,22152,22148,22148
201904160337,22148,22151,22146,22149
201904160338,22149,22149,22145,22149
201904160339,22149,22151,22145,22148
201904160340,22148,22152,22147,22152
201904160341,22152,22152,22152,22152
201904160342,22152,22152,22152,22152
201904160343,22152,22152,22152,22152
201904160344,22152,22152,22150,22152
201904160345,22152,22152,22152,22152
201904160346,22152,22152,22151,22152
201904160347,22152,22152,22150,22151
201904160348,22151,22151,22145,22149
201904160349,22149,22149,22145,22147
201904160350,22147,22147,22146,22147
201904160351,22147,22149,22146,22149
201904160352,22149,22152,22149,22152
201904160353,22152,22155,22152,22152
201904160354,22152,22155,22151,22155
201904160355,22155,22155,22151,22152
201904160356,22152,22152,22151,22151
201904160357,22151,22152,22151,22152
201904160358,22152,22152,22152,22152
201904160359,22152,22152,22151,22152
201904160400,22152,22155,22150,22152
201904160401,22152,22152,22152,22152
201904160402,22152,22152,22152,22152
201904160403,22152,22152,22151,22152
201904160404,22152,22152,22150,22150
201904160405,22150,22152,22150,22152
201904160406,22152,22152,22145,22147
201904160407,22147,22152,22146,22152
201904160408,22152,22152,22152,22152
201904160409,22152,22152,22152,22152
201904160410,22152,22152,22151,22152
201904160411,22152,22152,22147,22147
201904160412,22147,22147,22146,22147
201904160413,22147,22147,22144,22146
201904160414,22146,22147,22145,22146
201904160415,22146,22147,22146,22146
201904160416,22146,22151,22146,22149
201904160417,22149,22149,22146,22147
201904160418,22147,22147,22146,22147
201904160419,22147,22147,22146,22147
201904160420,22147,22147,22147,22147
201904160421,22147,22147,22146,22147
201904160422,22147,22147,22146,22147
201904160423,22147,22147,22142,22142
201904160424,22142,22142,22140,22140
201904160425,22140,22141,22136,22136
201904160426,22136,22137,22136,22137
201904160427,22137,22137,22135,22136
201904160428,22136,22137,22135,22136
201904160429,22136,22137,22136,22137
201904160430,22137,22137,22135,22137
201904160431,22137,22137,22136,22137
201904160432,22137,22137,22136,22136
201904160433,22136,22136,22130,22132
201904160434,22132,22132,22132,22132
201904160435,22132,22132,22132,22132
201904160436,22132,22132,22132,22132
201904160437,22132,22132,22132,22132
201904160438,22132,22132,22132,22132
201904160439,22132,22132,22132,22132
201904160440,22132,22132,22132,22132
201904160441,22132,22132,22132,22132
201904160442,22132,22132,22131,22132
201904160443,22131,22131,22127,22127
201904160444,22127,22131,22127,22131
201904160445,22131,22132,22131,22132
201904160446,22132,22135,22130,22133
201904160447,22133,22136,22133,22135
201904160448,22135,22135,22131,22132
201904160449,22131,22132,22129,22129
201904160450,22129,22132,22129,22131
201904160451,22131,22132,22126,22127
201904160452,22127,22130,22126,22127
201904160453,22127,22136,22126,22130
201904160454,22130,22132,22126,22132
201904160455,22132,22134,22131,22133
201904160456,22133,22133,22131,22132
201904160457,22132,22132,22130,22132
201904160458,22132,22132,22126,22129
201904160459,22129,22137,22127,22135
201904160500,22135,22137,22133,22136
201904160501,22136,22137,22135,22137
201904160502,22137,22137,22136,22137
201904160503,22137,22137,22135,22137
201904160504,22137,22140,22136,22140
201904160505,22140,22142,22140,22142
201904160506,22142,22142,22141,22142
201904160507,22142,22142,22141,22141
201904160508,22141,22142,22141,22141
201904160509,22141,22141,22141,22141
201904160510,22141,22142,22140,22141
201904160511,22141,22141,22141,22141
201904160512,22141,22141,22140,22141
201904160513,22141,22142,22140,22142
201904160514,22142,22142,22140,22142
201904160515,22142,22146,22141,22143
201904160516,22143,22143,22142,22143
201904160517,22143,22143,22140,22140
201904160518,22140,22141,22140,22140
201904160519,22140,22140,22140,22140
201904160520,22140,22146,22140,22146
201904160521,22146,22152,22146,22149
201904160522,22149,22150,22148,22148
201904160523,22148,22148,22146,22147
201904160524,22147,22148,22146,22146
201904160525,22146,22150,22146,22148
201904160526,22148,22150,22147,22150
201904160527,22150,22152,22150,22152
201904160528,22151,22152,22142,22142
201904160529,22142,22142,22139,22139
201904160530,22139,22142,22139,22142
201904160531,22142,22142,22140,22140
201904160532,22141,22141,22141,22141
201904160533,22141,22141,22141,22141
201904160534,22141,22141,22141,22141
201904160535,22141,22141,22141,22141
201904160536,22141,22142,22141,22142
201904160537,22142,22142,22141,22141
201904160538,22141,22141,22139,22139
201904160539,22139,22141,22139,22139
201904160540,22139,22140,22139,22140
201904160541,22140,22140,22140,22140
201904160542,22140,22141,22140,22141
201904160543,22141,22142,22140,22141
201904160544,22141,22141,22141,22141
201904160545,22141,22145,22140,22145
201904160546,22145,22145,22141,22141
201904160547,22141,22141,22141,22141
201904160548,22141,22141,22141,22141
201904160549,22141,22141,22141,22141
201904160550,22141,22141,22140,22141
201904160551,22141,22143,22140,22141
201904160552,22141,22145,22140,22145
201904160553,22145,22145,22143,22144
201904160554,22144,22145,22144,22145
201904160555,22145,22145,22145,22145
201904160556,22145,22145,22144,22145
201904160557,22145,22145,22142,22142
201904160558,22142,22143,22142,22143
201904160559,22143,22143,22140,22140
