日時,始値(BID),高値(BID),安値(BID),終値(BID)
201904050830,21767,21772,21765,21765
201904050831,21765,21766,21764,21766
201904050832,21766,21766,21761,21761
201904050833,21761,21761,21759,21760
201904050834,21760,21760,21755,21760
201904050835,21760,21760,21760,21760
201904050836,21760,21766,21758,21761
201904050837,21761,21762,21761,21761
201904050838,21761,21762,21760,21760
201904050839,21760,21762,21760,21760
201904050840,21760,21760,21754,21754
201904050841,21754,21755,21751,21755
201904050842,21755,21757,21755,21756
201904050843,21756,21759,21756,21759
201904050844,21759,21762,21755,21760
201904050845,21765,21773,21764,21771
201904050846,21771,21772,21766,21767
201904050847,21767,21767,21767,21767
201904050848,21767,21767,21759,21761
201904050849,21761,21762,21761,21761
201904050850,21761,21761,21758,21759
201904050851,21759,21760,21751,21752
201904050852,21752,21752,21750,21751
201904050853,21751,21757,21742,21742
201904050854,21742,21747,21741,21742
201904050855,21742,21742,21731,21736
201904050856,21736,21742,21736,21742
201904050857,21742,21742,21731,21731
201904050858,21731,21742,21731,21741
201904050859,21742,21746,21736,21736
201904050900,21731,21741,21721,21741
201904050901,21741,21746,21731,21744
201904050902,21744,21746,21741,21744
201904050903,21744,21779,21744,21777
201904050904,21777,21817,21777,21811
201904050905,21811,21824,21811,21815
201904050906,21811,21824,21791,21796
201904050907,21796,21802,21764,21775
201904050908,21775,21775,21757,21763
201904050909,21763,21763,21726,21731
201904050910,21732,21754,21727,21751
201904050911,21751,21755,21746,21751
201904050912,21751,21754,21741,21751
201904050913,21751,21753,21746,21750
201904050914,21750,21759,21741,21750
201904050915,21749,21763,21746,21762
201904050916,21762,21772,21761,21771
201904050917,21771,21776,21764,21772
201904050918,21772,21772,21761,21765
201904050919,21765,21765,21754,21760
201904050920,21760,21760,21741,21742
201904050921,21742,21742,21726,21736
201904050922,21736,21746,21736,21745
201904050923,21745,21762,21743,21756
201904050924,21756,21760,21751,21756
201904050925,21756,21757,21751,21751
201904050926,21751,21752,21751,21752
201904050927,21752,21762,21751,21757
201904050928,21757,21767,21756,21758
201904050929,21759,21764,21756,21762
201904050930,21762,21763,21756,21762
201904050931,21762,21770,21761,21765
201904050932,21765,21769,21764,21767
201904050933,21767,21774,21766,21771
201904050934,21771,21781,21771,21777
201904050935,21777,21777,21771,21772
201904050936,21772,21777,21766,21768
201904050937,21769,21774,21768,21774
201904050938,21774,21777,21771,21776
201904050939,21776,21776,21762,21762
201904050940,21762,21765,21762,21765
201904050941,21765,21769,21761,21766
201904050942,21766,21772,21766,21767
201904050943,21767,21767,21762,21762
201904050944,21762,21764,21754,21763
201904050945,21763,21772,21761,21771
201904050946,21771,21772,21766,21766
201904050947,21766,21767,21760,21760
201904050948,21760,21762,21751,21756
201904050949,21756,21756,21747,21749
201904050950,21749,21750,21742,21745
201904050951,21745,21757,21743,21755
201904050952,21755,21770,21754,21767
201904050953,21767,21768,21761,21762
201904050954,21762,21764,21756,21761
201904050955,21761,21762,21756,21760
201904050956,21760,21765,21760,21765
201904050957,21765,21768,21765,21767
201904050958,21767,21767,21755,21757
201904050959,21757,21762,21756,21758
201904051000,21758,21774,21758,21774
201904051001,21774,21780,21771,21776
201904051002,21776,21776,21771,21771
201904051003,21771,21774,21768,21774
201904051004,21773,21775,21771,21771
201904051005,21771,21774,21768,21768
201904051006,21768,21772,21768,21770
201904051007,21770,21771,21766,21766
201904051008,21766,21770,21762,21766
201904051009,21766,21767,21762,21762
201904051010,21762,21766,21761,21766
201904051011,21765,21770,21756,21757
201904051012,21757,21760,21748,21748
201904051013,21749,21754,21748,21752
201904051014,21752,21752,21751,21751
201904051015,21751,21762,21751,21762
201904051016,21762,21762,21761,21762
201904051017,21762,21764,21761,21763
201904051018,21763,21763,21761,21762
201904051019,21762,21764,21761,21764
201904051020,21764,21764,21761,21761
201904051021,21764,21777,21764,21767
201904051022,21767,21775,21761,21761
201904051023,21761,21766,21761,21763
201904051024,21762,21765,21761,21762
201904051025,21762,21764,21761,21762
201904051026,21762,21763,21756,21761
201904051027,21761,21764,21758,21758
201904051028,21759,21760,21753,21754
201904051029,21754,21755,21753,21754
201904051030,21754,21760,21751,21760
201904051031,21760,21761,21756,21759
201904051032,21759,21765,21756,21764
201904051033,21765,21765,21761,21761
201904051034,21761,21764,21761,21764
201904051035,21764,21767,21764,21767
201904051036,21767,21770,21766,21770
201904051037,21770,21770,21766,21766
201904051038,21766,21767,21763,21763
201904051039,21764,21770,21764,21770
201904051040,21770,21775,21770,21775
201904051041,21775,21775,21771,21772
201904051042,21772,21774,21771,21772
201904051043,21772,21774,21771,21774
201904051044,21774,21780,21773,21780
201904051045,21780,21781,21776,21777
201904051046,21777,21777,21771,21772
201904051047,21772,21772,21766,21770
201904051048,21770,21773,21766,21772
201904051049,21772,21777,21772,21776
201904051050,21776,21777,21776,21776
201904051051,21776,21777,21776,21776
201904051052,21776,21776,21775,21776
201904051053,21776,21781,21775,21780
201904051054,21780,21785,21780,21782
201904051055,21782,21782,21781,21782
201904051056,21782,21782,21781,21781
201904051057,21781,21782,21781,21781
201904051058,21781,21782,21781,21782
201904051059,21782,21782,21782,21782
201904051100,21782,21784,21781,21782
201904051101,21782,21782,21781,21782
201904051102,21782,21782,21781,21782
201904051103,21782,21782,21776,21777
201904051104,21777,21777,21771,21776
201904051105,21776,21781,21776,21781
201904051106,21781,21781,21777,21777
201904051107,21777,21777,21777,21777
201904051108,21777,21781,21776,21780
201904051109,21780,21781,21776,21780
201904051110,21780,21781,21776,21777
201904051111,21777,21777,21777,21777
201904051112,21777,21777,21776,21777
201904051113,21777,21779,21776,21777
201904051114,21777,21777,21766,21771
201904051115,21771,21775,21771,21772
201904051116,21772,21775,21771,21771
201904051117,21771,21775,21771,21771
201904051118,21771,21774,21771,21772
201904051119,21772,21772,21770,21770
201904051120,21770,21775,21770,21775
201904051121,21775,21775,21771,21772
201904051122,21772,21775,21771,21772
201904051123,21772,21774,21769,21772
201904051124,21772,21772,21768,21771
201904051125,21771,21777,21771,21773
201904051126,21774,21775,21771,21772
201904051127,21772,21774,21771,21771
201904051128,21771,21778,21771,21777
201904051129,21777,21780,21776,21778
201904051130,21780,21786,21780,21785
201904051131,21785,21791,21785,21791
201904051132,21791,21791,21786,21788
201904051133,21788,21789,21786,21789
201904051134,21789,21793,21789,21793
201904051135,21793,21794,21792,21792
201904051136,21792,21792,21791,21792
201904051137,21792,21792,21792,21792
201904051138,21792,21794,21791,21792
201904051139,21792,21795,21791,21795
201904051140,21795,21796,21795,21796
201904051141,21796,21796,21791,21794
201904051142,21794,21795,21793,21795
201904051143,21795,21797,21792,21797
201904051144,21797,21803,21796,21803
201904051145,21803,21805,21801,21803
201904051146,21803,21804,21801,21801
201904051147,21801,21803,21801,21802
201904051148,21802,21802,21797,21797
201904051149,21797,21802,21796,21802
201904051150,21802,21804,21801,21804
201904051151,21804,21804,21801,21802
201904051152,21802,21804,21801,21801
201904051153,21802,21804,21801,21804
201904051154,21804,21804,21801,21802
201904051155,21802,21804,21800,21804
201904051156,21804,21804,21801,21802
201904051157,21802,21802,21796,21801
201904051158,21801,21803,21796,21801
201904051159,21801,21803,21801,21802
201904051200,21802,21804,21799,21801
201904051201,21802,21802,21796,21798
201904051202,21798,21800,21798,21800
201904051203,21800,21800,21798,21799
201904051204,21799,21800,21796,21797
201904051205,21797,21801,21797,21801
201904051206,21801,21801,21801,21801
201904051207,21801,21804,21801,21802
201904051208,21802,21802,21802,21802
201904051209,21802,21802,21802,21802
201904051210,21802,21802,21802,21802
201904051211,21802,21802,21802,21802
201904051212,21802,21802,21802,21802
201904051213,21802,21802,21801,21802
201904051214,21802,21802,21797,21799
201904051215,21799,21801,21799,21800
201904051216,21800,21802,21800,21802
201904051217,21802,21804,21801,21802
201904051218,21802,21804,21801,21802
201904051219,21802,21802,21801,21802
201904051220,21802,21802,21801,21802
201904051221,21802,21802,21802,21802
201904051222,21802,21802,21796,21797
201904051223,21797,21797,21797,21797
201904051224,21797,21797,21791,21792
201904051225,21792,21792,21792,21792
201904051226,21792,21792,21791,21791
201904051227,21791,21792,21791,21792
201904051228,21792,21792,21791,21792
201904051229,21792,21792,21788,21789
201904051230,21789,21792,21786,21787
201904051231,21787,21791,21785,21789
201904051232,21788,21790,21786,21789
201904051233,21789,21792,21788,21792
201904051234,21792,21799,21792,21797
201904051235,21797,21799,21796,21797
201904051236,21797,21805,21797,21805
201904051237,21805,21808,21801,21802
201904051238,21802,21803,21802,21802
201904051239,21802,21806,21801,21806
201904051240,21806,21807,21801,21801
201904051241,21801,21802,21801,21802
201904051242,21802,21804,21801,21802
201904051243,21802,21802,21801,21802
201904051244,21802,21804,21801,21801
201904051245,21802,21802,21802,21802
201904051246,21802,21802,21802,21802
201904051247,21802,21805,21801,21805
201904051248,21805,21805,21801,21802
201904051249,21802,21804,21801,21803
201904051250,21803,21804,21803,21804
201904051251,21804,21807,21804,21807
201904051252,21807,21807,21805,21805
201904051253,21805,21806,21805,21805
201904051254,21805,21806,21805,21806
201904051255,21806,21806,21806,21806
201904051256,21806,21807,21806,21806
201904051257,21806,21807,21806,21807
201904051258,21807,21807,21806,21806
201904051259,21806,21807,21806,21806
201904051300,21806,21807,21806,21806
201904051301,21806,21806,21802,21802
201904051302,21802,21802,21800,21802
201904051303,21802,21802,21802,21802
201904051304,21802,21802,21802,21802
201904051305,21802,21802,21801,21802
201904051306,21802,21802,21801,21802
201904051307,21802,21802,21801,21801
201904051308,21801,21802,21801,21801
201904051309,21801,21802,21801,21802
201904051310,21802,21802,21801,21802
201904051311,21802,21802,21802,21802
201904051312,21802,21802,21801,21802
201904051313,21802,21803,21801,21802
201904051314,21802,21802,21801,21802
201904051315,21802,21802,21802,21802
201904051316,21802,21802,21802,21802
201904051317,21802,21802,21802,21802
201904051318,21802,21802,21802,21802
201904051319,21802,21802,21802,21802
201904051320,21802,21804,21802,21804
201904051321,21804,21805,21804,21805
201904051322,21805,21807,21804,21806
201904051323,21807,21807,21806,21807
201904051324,21807,21807,21806,21807
201904051325,21807,21813,21807,21812
201904051326,21812,21812,21812,21812
201904051327,21812,21812,21812,21812
201904051328,21812,21812,21812,21812
201904051329,21812,21812,21812,21812
201904051330,21812,21812,21812,21812
201904051331,21812,21812,21812,21812
201904051332,21812,21812,21811,21812
201904051333,21812,21812,21812,21812
201904051334,21812,21812,21812,21812
201904051335,21812,21812,21812,21812
201904051336,21812,21812,21811,21812
201904051337,21812,21812,21810,21810
201904051338,21810,21810,21807,21807
201904051339,21807,21807,21802,21802
201904051340,21802,21802,21802,21802
201904051341,21802,21802,21801,21801
201904051342,21801,21802,21801,21801
201904051343,21801,21802,21801,21801
201904051344,21801,21802,21801,21802
201904051345,21802,21802,21801,21802
201904051346,21802,21802,21802,21802
201904051347,21802,21802,21802,21802
201904051348,21802,21802,21802,21802
201904051349,21802,21802,21801,21801
201904051350,21801,21801,21792,21792
201904051351,21792,21792,21789,21789
201904051352,21789,21790,21784,21784
201904051353,21784,21785,21782,21785
201904051354,21785,21786,21781,21783
201904051355,21784,21786,21781,21782
201904051356,21782,21782,21779,21781
201904051357,21781,21782,21781,21782
201904051358,21782,21782,21781,21781
201904051359,21781,21782,21781,21781
201904051400,21781,21786,21781,21785
201904051401,21786,21786,21786,21786
201904051402,21786,21786,21786,21786
201904051403,21786,21786,21786,21786
201904051404,21786,21787,21786,21787
201904051405,21787,21792,21787,21791
201904051406,21791,21791,21788,21790
201904051407,21790,21790,21787,21787
201904051408,21787,21787,21783,21787
201904051409,21787,21789,21786,21787
201904051410,21787,21787,21786,21787
201904051411,21787,21787,21785,21785
201904051412,21785,21787,21785,21786
201904051413,21786,21786,21786,21786
201904051414,21786,21786,21762,21766
201904051415,21766,21770,21765,21765
201904051416,21765,21765,21761,21764
201904051417,21764,21767,21764,21767
201904051418,21767,21771,21767,21771
201904051419,21771,21774,21771,21771
201904051420,21771,21781,21771,21781
201904051421,21781,21781,21776,21777
201904051422,21777,21777,21776,21776
201904051423,21776,21777,21775,21776
201904051424,21776,21776,21771,21774
201904051425,21774,21777,21773,21777
201904051426,21777,21777,21776,21777
201904051427,21777,21777,21776,21777
201904051428,21777,21777,21777,21777
201904051429,21777,21777,21776,21776
201904051430,21776,21777,21771,21777
201904051431,21777,21778,21776,21777
201904051432,21777,21777,21776,21777
201904051433,21777,21777,21774,21777
201904051434,21777,21781,21777,21781
201904051435,21781,21781,21781,21781
201904051436,21781,21781,21781,21781
201904051437,21781,21782,21781,21782
201904051438,21782,21782,21781,21782
201904051439,21782,21782,21782,21782
201904051440,21782,21782,21781,21782
201904051441,21782,21785,21782,21785
201904051442,21785,21785,21780,21781
201904051443,21781,21781,21780,21780
201904051444,21780,21780,21778,21779
201904051445,21780,21789,21778,21788
201904051446,21788,21788,21776,21777
201904051447,21777,21782,21776,21781
201904051448,21781,21786,21781,21786
201904051449,21786,21786,21784,21785
201904051450,21785,21787,21785,21786
201904051451,21786,21791,21786,21791
201904051452,21791,21791,21786,21786
201904051453,21786,21789,21786,21788
201904051454,21788,21790,21786,21790
201904051455,21790,21795,21788,21795
201904051456,21795,21796,21794,21796
201904051457,21796,21797,21792,21792
201904051458,21792,21796,21792,21794
201904051459,21794,21801,21792,21801
201904051500,21801,21801,21792,21796
201904051501,21796,21797,21796,21797
201904051502,21797,21801,21795,21796
201904051503,21795,21797,21792,21796
201904051504,21796,21797,21795,21796
201904051505,21796,21796,21792,21792
201904051506,21792,21793,21791,21792
201904051507,21792,21796,21791,21791
201904051508,21792,21792,21792,21792
201904051509,21792,21794,21792,21792
201904051510,21792,21796,21791,21796
201904051511,21796,21800,21791,21792
201904051512,21792,21792,21790,21791
201904051513,21791,21791,21785,21787
201904051514,21787,21799,21787,21796
201904051515,21796,21797,21790,21797
201904051516,21797,21797,21795,21795
201904051517,21795,21795,21794,21795
201904051518,21795,21801,21795,21800
201904051519,21800,21800,21796,21796
201904051520,21796,21802,21794,21801
201904051521,21801,21801,21795,21797
201904051522,21797,21797,21796,21796
201904051523,21796,21800,21796,21800
201904051524,21800,21802,21799,21801
201904051525,21799,21800,21799,21800
201904051526,21800,21800,21799,21799
201904051527,21799,21800,21799,21800
201904051528,21800,21800,21799,21799
201904051529,21799,21800,21798,21798
201904051530,21798,21800,21797,21797
201904051531,21797,21797,21797,21797
201904051532,21797,21797,21797,21797
201904051533,21797,21797,21797,21797
201904051534,21797,21798,21796,21797
201904051535,21797,21797,21795,21795
201904051536,21795,21796,21795,21796
201904051537,21796,21796,21795,21796
201904051538,21796,21796,21791,21791
201904051539,21791,21796,21791,21795
201904051540,21795,21795,21793,21793
201904051541,21793,21794,21791,21792
201904051542,21792,21794,21792,21793
201904051543,21793,21795,21793,21793
201904051544,21793,21796,21793,21796
201904051545,21796,21796,21795,21795
201904051546,21795,21795,21795,21795
201904051547,21795,21795,21794,21794
201904051548,21794,21795,21794,21795
201904051549,21795,21795,21794,21795
201904051550,21795,21796,21795,21796
201904051551,21796,21796,21795,21795
201904051552,21795,21795,21795,21795
201904051553,21795,21797,21794,21796
201904051554,21796,21797,21795,21796
201904051555,21794,21800,21794,21800
201904051556,21800,21800,21795,21798
201904051557,21798,21802,21795,21797
201904051558,21797,21802,21797,21800
201904051559,21800,21806,21800,21801
201904051600,21801,21807,21800,21801
201904051601,21801,21802,21790,21791
201904051602,21791,21792,21783,21784
201904051603,21784,21786,21784,21786
201904051604,21786,21792,21785,21789
201904051605,21789,21792,21787,21788
201904051606,21788,21791,21788,21789
201904051607,21789,21796,21789,21790
201904051608,21790,21792,21788,21789
201904051609,21789,21790,21787,21788
201904051610,21788,21790,21786,21786
201904051611,21786,21786,21786,21786
201904051612,21786,21786,21784,21784
201904051613,21784,21785,21783,21783
201904051614,21783,21783,21780,21782
201904051615,21782,21786,21782,21784
201904051616,21784,21787,21780,21781
201904051617,21781,21782,21781,21782
201904051618,21782,21787,21781,21787
201904051619,21786,21787,21786,21786
201904051620,21786,21787,21785,21787
201904051621,21787,21787,21787,21787
201904051622,21787,21787,21787,21787
201904051623,21787,21787,21785,21787
201904051624,21787,21787,21780,21781
201904051625,21781,21782,21780,21781
201904051626,21781,21786,21780,21785
201904051627,21785,21788,21785,21786
201904051628,21786,21792,21785,21792
201904051629,21792,21792,21790,21791
201904051630,21795,21795,21789,21792
201904051631,21792,21795,21791,21792
201904051632,21792,21794,21791,21794
201904051633,21793,21794,21790,21792
201904051634,21792,21792,21792,21792
201904051635,21792,21795,21792,21795
201904051636,21795,21799,21795,21798
201904051637,21799,21799,21796,21797
201904051638,21797,21797,21797,21797
201904051639,21797,21797,21796,21797
201904051640,21797,21797,21791,21792
201904051641,21792,21792,21785,21786
201904051642,21786,21787,21785,21786
201904051643,21786,21786,21781,21785
201904051644,21785,21787,21785,21787
201904051645,21787,21791,21786,21791
201904051646,21791,21791,21790,21791
201904051647,21791,21791,21787,21787
201904051648,21787,21787,21783,21785
201904051649,21785,21786,21785,21786
201904051650,21786,21786,21785,21785
201904051651,21786,21786,21786,21786
201904051652,21786,21786,21781,21782
201904051653,21782,21785,21781,21783
201904051654,21783,21785,21783,21784
201904051655,21784,21784,21781,21782
201904051656,21782,21784,21781,21784
201904051657,21784,21785,21784,21785
201904051658,21785,21786,21785,21786
201904051659,21786,21786,21783,21784
201904051700,21784,21785,21781,21785
201904051701,21785,21789,21784,21789
201904051702,21789,21790,21787,21787
201904051703,21787,21787,21787,21787
201904051704,21787,21787,21787,21787
201904051705,21787,21790,21786,21787
201904051706,21787,21790,21786,21790
201904051707,21790,21790,21790,21790
201904051708,21790,21795,21790,21795
201904051709,21794,21794,21788,21790
201904051710,21790,21791,21790,21791
201904051711,21791,21791,21788,21789
201904051712,21789,21790,21786,21789
201904051713,21789,21790,21786,21787
201904051714,21787,21787,21786,21787
201904051715,21787,21787,21787,21787
201904051716,21787,21787,21781,21782
201904051717,21782,21783,21782,21783
201904051718,21783,21786,21783,21786
201904051719,21786,21787,21786,21786
201904051720,21786,21787,21786,21786
201904051721,21786,21788,21786,21786
201904051722,21787,21790,21786,21787
201904051723,21787,21787,21784,21786
201904051724,21786,21786,21782,21782
201904051725,21782,21782,21781,21782
201904051726,21782,21785,21781,21782
201904051727,21782,21783,21781,21782
201904051728,21782,21786,21782,21783
201904051729,21783,21783,21782,21782
201904051730,21782,21782,21776,21778
201904051731,21778,21780,21776,21777
201904051732,21777,21778,21776,21777
201904051733,21777,21777,21776,21777
201904051734,21777,21778,21776,21777
201904051735,21777,21780,21777,21780
201904051736,21780,21781,21780,21781
201904051737,21781,21781,21780,21781
201904051738,21781,21781,21776,21777
201904051739,21777,21777,21777,21777
201904051740,21777,21778,21776,21776
201904051741,21776,21779,21776,21776
201904051742,21776,21780,21776,21779
201904051743,21779,21779,21776,21778
201904051744,21777,21777,21776,21777
201904051745,21777,21777,21777,21777
201904051746,21777,21778,21777,21777
201904051747,21777,21777,21777,21777
201904051748,21777,21777,21773,21774
201904051749,21774,21775,21773,21775
201904051750,21775,21777,21775,21776
201904051751,21778,21779,21776,21777
201904051752,21777,21780,21776,21780
201904051753,21780,21780,21777,21780
201904051754,21780,21780,21780,21780
201904051755,21780,21780,21780,21780
201904051756,21780,21780,21776,21778
201904051757,21778,21779,21776,21778
201904051758,21778,21779,21776,21777
201904051759,21777,21777,21776,21777
201904051800,21777,21777,21776,21777
201904051801,21777,21777,21777,21777
201904051802,21777,21779,21776,21779
201904051803,21779,21780,21779,21780
201904051804,21780,21780,21779,21780
201904051805,21780,21780,21779,21779
201904051806,21780,21780,21779,21780
201904051807,21780,21780,21780,21780
201904051808,21780,21780,21776,21778
201904051809,21778,21780,21776,21777
201904051810,21777,21777,21776,21777
201904051811,21777,21777,21777,21777
201904051812,21777,21777,21777,21777
201904051813,21777,21777,21777,21777
201904051814,21777,21777,21777,21777
201904051815,21777,21777,21773,21776
201904051816,21776,21776,21776,21776
201904051817,21776,21777,21776,21777
201904051818,21777,21777,21776,21776
201904051819,21776,21776,21776,21776
201904051820,21776,21776,21776,21776
201904051821,21776,21777,21776,21776
201904051822,21776,21776,21776,21776
201904051823,21776,21777,21776,21777
201904051824,21777,21777,21777,21777
201904051825,21777,21777,21776,21777
201904051826,21777,21777,21777,21777
201904051827,21777,21777,21777,21777
201904051828,21777,21777,21777,21777
201904051829,21777,21777,21777,21777
201904051830,21777,21777,21777,21777
201904051831,21777,21777,21777,21777
201904051832,21777,21777,21776,21777
201904051833,21777,21777,21772,21772
201904051834,21772,21772,21772,21772
201904051835,21772,21772,21772,21772
201904051836,21772,21777,21772,21777
201904051837,21776,21777,21776,21777
201904051838,21777,21777,21776,21777
201904051839,21777,21781,21777,21781
201904051840,21781,21781,21776,21777
201904051841,21777,21780,21776,21779
201904051842,21780,21781,21780,21780
201904051843,21780,21781,21780,21780
201904051844,21780,21780,21780,21780
201904051845,21780,21786,21780,21786
201904051846,21786,21786,21786,21786
201904051847,21786,21786,21786,21786
201904051848,21786,21786,21785,21786
201904051849,21786,21786,21785,21786
201904051850,21786,21792,21786,21792
201904051851,21793,21793,21791,21792
201904051852,21792,21792,21786,21786
201904051853,21786,21790,21786,21789
201904051854,21789,21790,21788,21788
201904051855,21789,21801,21788,21801
201904051856,21801,21806,21801,21802
201904051857,21802,21802,21802,21802
201904051858,21802,21802,21802,21802
201904051859,21802,21802,21801,21802
201904051900,21802,21802,21796,21796
201904051901,21797,21797,21797,21797
201904051902,21797,21800,21797,21800
201904051903,21800,21801,21795,21796
201904051904,21796,21796,21792,21792
201904051905,21792,21792,21791,21792
201904051906,21792,21795,21791,21795
201904051907,21795,21795,21794,21795
201904051908,21795,21795,21793,21794
201904051909,21794,21795,21791,21795
201904051910,21795,21795,21793,21795
201904051911,21795,21795,21791,21792
201904051912,21793,21796,21792,21796
201904051913,21796,21796,21796,21796
201904051914,21796,21796,21796,21796
201904051915,21796,21796,21796,21796
201904051916,21796,21796,21796,21796
201904051917,21796,21796,21796,21796
201904051918,21796,21796,21796,21796
201904051919,21796,21796,21796,21796
201904051920,21796,21796,21796,21796
201904051921,21796,21796,21796,21796
201904051922,21796,21796,21796,21796
201904051923,21796,21796,21791,21792
201904051924,21792,21795,21791,21795
201904051925,21795,21795,21795,21795
201904051926,21795,21795,21792,21793
201904051927,21793,21795,21791,21795
201904051928,21795,21795,21794,21795
201904051929,21795,21795,21795,21795
201904051930,21795,21795,21795,21795
201904051931,21795,21795,21795,21795
201904051932,21795,21795,21795,21795
201904051933,21795,21800,21795,21799
201904051934,21799,21799,21798,21799
201904051935,21799,21800,21799,21800
201904051936,21800,21800,21800,21800
201904051937,21800,21800,21797,21797
201904051938,21797,21799,21796,21796
201904051939,21796,21796,21796,21796
201904051940,21796,21796,21794,21794
201904051941,21794,21795,21791,21795
201904051942,21795,21795,21794,21795
201904051943,21795,21795,21795,21795
201904051944,21795,21795,21795,21795
201904051945,21795,21795,21795,21795
201904051946,21795,21795,21795,21795
201904051947,21795,21795,21795,21795
201904051948,21795,21795,21794,21794
201904051949,21794,21795,21794,21795
201904051950,21795,21795,21792,21792
201904051951,21792,21794,21792,21794
201904051952,21794,21795,21794,21795
201904051953,21795,21795,21794,21794
201904051954,21794,21794,21794,21794
201904051955,21794,21796,21794,21796
201904051956,21796,21796,21796,21796
201904051957,21796,21796,21794,21795
201904051958,21795,21795,21793,21794
201904051959,21794,21794,21793,21794
201904052000,21794,21794,21793,21794
201904052001,21794,21794,21794,21794
201904052002,21794,21794,21794,21794
201904052003,21794,21795,21794,21795
201904052004,21795,21795,21795,21795
201904052005,21795,21801,21795,21801
201904052006,21801,21801,21794,21796
201904052007,21796,21796,21795,21796
201904052008,21796,21796,21795,21796
201904052009,21796,21796,21795,21796
201904052010,21796,21796,21795,21795
201904052011,21795,21796,21795,21795
201904052012,21795,21795,21795,21795
201904052013,21795,21796,21795,21795
201904052014,21795,21796,21795,21796
201904052015,21796,21796,21795,21796
201904052016,21796,21799,21796,21799
201904052017,21799,21800,21799,21799
201904052018,21799,21799,21796,21797
201904052019,21797,21797,21797,21797
201904052020,21797,21797,21797,21797
201904052021,21797,21797,21797,21797
201904052022,21797,21797,21797,21797
201904052023,21797,21797,21797,21797
201904052024,21797,21797,21797,21797
201904052025,21797,21797,21797,21797
201904052026,21797,21797,21797,21797
201904052027,21797,21797,21796,21796
201904052028,21796,21796,21795,21796
201904052029,21796,21796,21796,21796
201904052030,21796,21796,21796,21796
201904052031,21796,21796,21791,21792
201904052032,21792,21792,21788,21790
201904052033,21790,21791,21790,21790
201904052034,21790,21790,21790,21790
201904052035,21790,21790,21790,21790
201904052036,21790,21790,21788,21790
201904052037,21790,21790,21789,21790
201904052038,21790,21790,21788,21790
201904052039,21790,21790,21790,21790
201904052040,21790,21790,21790,21790
201904052041,21790,21795,21790,21793
201904052042,21793,21793,21791,21791
201904052043,21791,21794,21791,21792
201904052044,21792,21797,21791,21797
201904052045,21797,21797,21796,21796
201904052046,21796,21796,21794,21796
201904052047,21795,21796,21791,21791
201904052048,21791,21795,21791,21795
201904052049,21795,21795,21791,21792
201904052050,21792,21792,21791,21792
201904052051,21792,21795,21792,21795
201904052052,21795,21795,21794,21795
201904052053,21795,21795,21791,21793
201904052054,21793,21793,21791,21792
201904052055,21792,21792,21792,21792
201904052056,21792,21794,21792,21794
201904052057,21794,21795,21794,21794
201904052058,21794,21795,21794,21795
201904052059,21795,21795,21795,21795
201904052100,21795,21799,21795,21797
201904052101,21797,21799,21797,21799
201904052102,21799,21799,21799,21799
201904052103,21799,21800,21799,21799
201904052104,21799,21800,21799,21800
201904052105,21800,21800,21797,21798
201904052106,21798,21799,21797,21797
201904052107,21797,21797,21792,21792
201904052108,21792,21795,21791,21795
201904052109,21795,21796,21795,21796
201904052110,21796,21796,21795,21796
201904052111,21796,21796,21794,21796
201904052112,21795,21796,21795,21796
201904052113,21796,21796,21796,21796
201904052114,21796,21796,21796,21796
201904052115,21796,21796,21795,21796
201904052116,21796,21796,21796,21796
201904052117,21796,21799,21796,21798
201904052118,21798,21799,21795,21798
201904052119,21798,21799,21795,21797
201904052120,21797,21797,21797,21797
201904052121,21797,21797,21791,21796
201904052122,21796,21796,21792,21792
201904052123,21792,21795,21791,21795
201904052124,21795,21796,21795,21796
201904052125,21796,21799,21794,21799
201904052126,21799,21800,21799,21800
201904052127,21800,21800,21793,21798
201904052128,21798,21799,21797,21798
201904052129,21798,21798,21791,21795
201904052130,21795,21837,21795,21819
201904052131,21819,21820,21805,21810
201904052132,21810,21815,21806,21807
201904052133,21807,21807,21796,21802
201904052134,21801,21806,21799,21806
201904052135,21806,21813,21806,21811
201904052136,21811,21821,21811,21818
201904052137,21819,21822,21816,21822
201904052138,21822,21827,21819,21826
201904052139,21826,21830,21826,21827
201904052140,21827,21827,21821,21825
201904052141,21825,21830,21825,21830
201904052142,21830,21831,21826,21830
201904052143,21830,21844,21830,21844
201904052144,21844,21846,21841,21842
201904052145,21842,21844,21827,21830
201904052146,21830,21832,21826,21832
201904052147,21832,21835,21827,21827
201904052148,21826,21827,21826,21826
201904052149,21826,21832,21826,21827
201904052150,21827,21827,21818,21820
201904052151,21820,21823,21817,21817
201904052152,21817,21820,21812,21812
201904052153,21812,21812,21811,21812
201904052154,21812,21817,21811,21812
201904052155,21812,21815,21807,21810
201904052156,21809,21812,21806,21808
201904052157,21810,21814,21810,21812
201904052158,21812,21812,21806,21807
201904052159,21807,21811,21806,21807
201904052200,21807,21812,21806,21812
201904052201,21812,21815,21811,21813
201904052202,21813,21816,21811,21816
201904052203,21816,21816,21811,21812
201904052204,21812,21812,21812,21812
201904052205,21812,21814,21812,21812
201904052206,21812,21814,21811,21813
201904052207,21812,21814,21806,21807
201904052208,21807,21807,21807,21807
201904052209,21807,21807,21802,21802
201904052210,21802,21802,21795,21795
201904052211,21794,21794,21789,21789
201904052212,21789,21792,21786,21792
201904052213,21792,21797,21791,21795
201904052214,21795,21796,21791,21792
201904052215,21792,21794,21791,21793
201904052216,21791,21795,21791,21792
201904052217,21792,21792,21792,21792
201904052218,21792,21792,21792,21792
201904052219,21792,21794,21791,21793
201904052220,21793,21796,21791,21796
201904052221,21796,21809,21796,21807
201904052222,21807,21807,21801,21804
201904052223,21804,21804,21801,21802
201904052224,21802,21806,21801,21802
201904052225,21802,21802,21802,21802
201904052226,21802,21802,21802,21802
201904052227,21802,21802,21801,21802
201904052228,21802,21806,21802,21806
201904052229,21806,21810,21806,21807
201904052230,21807,21812,21802,21810
201904052231,21808,21815,21806,21813
201904052232,21813,21817,21811,21812
201904052233,21811,21814,21797,21797
201904052234,21797,21802,21796,21796
201904052235,21796,21806,21791,21801
201904052236,21801,21806,21799,21801
201904052237,21801,21801,21791,21792
201904052238,21792,21793,21786,21791
201904052239,21791,21792,21786,21791
201904052240,21791,21795,21786,21795
201904052241,21795,21802,21795,21800
201904052242,21801,21801,21796,21796
201904052243,21796,21800,21791,21800
201904052244,21800,21801,21796,21801
201904052245,21801,21804,21801,21802
201904052246,21802,21815,21801,21814
201904052247,21814,21815,21806,21808
201904052248,21808,21811,21806,21806
201904052249,21806,21807,21801,21802
201904052250,21802,21807,21802,21807
201904052251,21807,21810,21806,21807
201904052252,21807,21807,21801,21807
201904052253,21806,21814,21806,21808
201904052254,21808,21815,21808,21814
201904052255,21814,21815,21809,21812
201904052256,21812,21814,21807,21808
201904052257,21809,21814,21806,21812
201904052258,21812,21812,21806,21808
201904052259,21808,21808,21806,21807
201904052300,21807,21811,21806,21810
201904052301,21810,21811,21808,21810
201904052302,21810,21814,21810,21813
201904052303,21813,21814,21810,21813
201904052304,21813,21821,21813,21817
201904052305,21817,21820,21816,21819
201904052306,21818,21820,21816,21819
201904052307,21819,21819,21816,21819
201904052308,21819,21821,21815,21817
201904052309,21817,21820,21816,21818
201904052310,21819,21820,21816,21816
201904052311,21818,21820,21816,21820
201904052312,21820,21825,21820,21824
201904052313,21824,21825,21823,21825
201904052314,21825,21828,21825,21827
201904052315,21827,21827,21826,21827
201904052316,21827,21830,21826,21827
201904052317,21827,21828,21826,21827
201904052318,21827,21827,21822,21824
201904052319,21825,21825,21821,21822
201904052320,21822,21824,21821,21824
201904052321,21824,21824,21821,21821
201904052322,21823,21829,21821,21827
201904052323,21827,21827,21821,21826
201904052324,21826,21827,21822,21825
201904052325,21825,21826,21821,21822
201904052326,21822,21823,21816,21817
201904052327,21820,21820,21816,21816
201904052328,21816,21817,21811,21811
201904052329,21811,21812,21807,21810
201904052330,21810,21817,21810,21816
201904052331,21816,21824,21816,21824
201904052332,21824,21825,21823,21825
201904052333,21825,21825,21820,21823
201904052334,21823,21824,21823,21824
201904052335,21823,21824,21821,21823
201904052336,21823,21823,21816,21817
201904052337,21817,21818,21816,21817
201904052338,21817,21817,21806,21808
201904052339,21806,21816,21806,21816
201904052340,21816,21819,21815,21816
201904052341,21816,21816,21815,21816
201904052342,21816,21817,21811,21812
201904052343,21812,21812,21806,21812
201904052344,21812,21817,21811,21812
201904052345,21812,21816,21811,21816
201904052346,21816,21816,21816,21816
201904052347,21816,21822,21816,21822
201904052348,21822,21822,21822,21822
201904052349,21822,21822,21816,21817
201904052350,21817,21820,21817,21819
201904052351,21819,21825,21818,21825
201904052352,21825,21826,21825,21825
201904052353,21826,21826,21825,21825
201904052354,21826,21832,21826,21832
201904052355,21832,21832,21832,21832
201904052356,21832,21834,21826,21829
201904052357,21829,21830,21826,21826
201904052358,21826,21827,21826,21826
201904052359,21826,21829,21821,21824
201904060000,21824,21828,21821,21822
201904060001,21822,21826,21821,21825
201904060002,21825,21830,21825,21829
201904060003,21829,21831,21826,21829
201904060004,21829,21829,21827,21827
201904060005,21827,21829,21826,21828
201904060006,21829,21830,21828,21830
201904060007,21830,21830,21826,21829
201904060008,21829,21830,21826,21827
201904060009,21827,21831,21826,21828
201904060010,21828,21831,21826,21831
201904060011,21831,21835,21831,21835
201904060012,21835,21835,21834,21835
201904060013,21835,21837,21835,21836
201904060014,21836,21837,21836,21836
201904060015,21836,21837,21836,21837
201904060016,21837,21837,21837,21837
201904060017,21837,21837,21837,21837
201904060018,21837,21837,21831,21831
201904060019,21831,21833,21826,21826
201904060020,21826,21829,21826,21827
201904060021,21827,21831,21826,21830
201904060022,21830,21831,21826,21827
201904060023,21827,21827,21827,21827
201904060024,21827,21830,21826,21828
201904060025,21828,21829,21821,21823
201904060026,21821,21825,21821,21825
201904060027,21825,21825,21821,21824
201904060028,21824,21828,21824,21827
201904060029,21827,21830,21826,21827
201904060030,21827,21829,21826,21827
201904060031,21826,21827,21821,21824
201904060032,21824,21825,21821,21824
201904060033,21824,21824,21816,21817
201904060034,21817,21820,21812,21818
201904060035,21818,21818,21816,21816
201904060036,21816,21817,21816,21816
201904060037,21816,21816,21811,21812
201904060038,21812,21816,21811,21816
201904060039,21816,21816,21815,21816
201904060040,21816,21821,21816,21816
201904060041,21817,21820,21816,21818
201904060042,21818,21821,21816,21816
201904060043,21816,21819,21816,21817
201904060044,21817,21821,21816,21820
201904060045,21820,21824,21820,21822
201904060046,21822,21822,21816,21820
201904060047,21820,21822,21816,21817
201904060048,21817,21817,21811,21816
201904060049,21816,21819,21816,21817
201904060050,21817,21817,21811,21816
201904060051,21816,21817,21816,21817
201904060052,21817,21822,21817,21822
201904060053,21822,21822,21821,21822
201904060054,21822,21825,21821,21824
201904060055,21824,21824,21821,21822
201904060056,21822,21825,21821,21822
201904060057,21822,21824,21821,21822
201904060058,21822,21822,21821,21822
201904060059,21822,21822,21816,21817
201904060100,21816,21820,21816,21816
201904060101,21816,21821,21816,21821
201904060102,21821,21822,21821,21821
201904060103,21821,21821,21816,21817
201904060104,21816,21821,21816,21820
201904060105,21819,21821,21818,21821
201904060106,21821,21825,21821,21825
201904060107,21825,21832,21825,21832
201904060108,21832,21832,21827,21827
201904060109,21828,21830,21825,21829
201904060110,21829,21830,21828,21828
201904060111,21828,21830,21828,21829
201904060112,21829,21829,21828,21829
201904060113,21829,21830,21826,21829
201904060114,21829,21829,21825,21829
201904060115,21829,21830,21829,21830
201904060116,21830,21830,21830,21830
201904060117,21830,21835,21830,21834
201904060118,21834,21834,21830,21831
201904060119,21831,21832,21831,21832
201904060120,21832,21834,21831,21832
201904060121,21832,21833,21832,21832
201904060122,21832,21832,21830,21831
201904060123,21831,21831,21826,21830
201904060124,21830,21832,21830,21832
201904060125,21832,21832,21831,21831
201904060126,21831,21831,21831,21831
201904060127,21831,21832,21830,21831
201904060128,21831,21831,21830,21830
201904060129,21830,21832,21830,21831
201904060130,21831,21831,21830,21831
201904060131,21831,21832,21826,21827
201904060132,21827,21828,21826,21827
201904060133,21827,21827,21827,21827
201904060134,21827,21827,21827,21827
201904060135,21827,21827,21821,21823
201904060136,21823,21823,21816,21817
201904060137,21817,21817,21816,21816
201904060138,21816,21817,21816,21817
201904060139,21817,21817,21812,21812
201904060140,21812,21812,21812,21812
201904060141,21812,21816,21811,21813
201904060142,21813,21813,21811,21812
201904060143,21812,21813,21812,21812
201904060144,21812,21814,21812,21814
201904060145,21814,21816,21813,21816
201904060146,21816,21817,21816,21816
201904060147,21816,21817,21816,21817
201904060148,21817,21817,21817,21817
201904060149,21817,21819,21816,21819
201904060150,21819,21821,21819,21820
201904060151,21820,21820,21816,21816
201904060152,21816,21817,21816,21817
201904060153,21817,21817,21817,21817
201904060154,21817,21817,21817,21817
201904060155,21817,21817,21816,21816
201904060156,21816,21817,21816,21817
201904060157,21817,21817,21817,21817
201904060158,21817,21817,21817,21817
201904060159,21817,21820,21816,21820
201904060200,21821,21822,21821,21822
201904060201,21822,21822,21822,21822
201904060202,21822,21822,21821,21822
201904060203,21822,21826,21822,21824
201904060204,21824,21826,21824,21824
201904060205,21824,21824,21821,21822
201904060206,21822,21822,21820,21822
201904060207,21822,21822,21820,21821
201904060208,21821,21826,21820,21826
201904060209,21826,21827,21826,21827
201904060210,21827,21827,21827,21827
201904060211,21827,21827,21820,21826
201904060212,21826,21827,21826,21827
201904060213,21827,21827,21826,21827
201904060214,21827,21827,21827,21827
201904060215,21827,21827,21826,21827
201904060216,21827,21827,21826,21827
201904060217,21827,21827,21824,21825
201904060218,21825,21827,21824,21827
201904060219,21827,21827,21827,21827
201904060220,21827,21827,21824,21827
201904060221,21827,21827,21827,21827
201904060222,21827,21827,21826,21827
201904060223,21827,21827,21827,21827
201904060224,21827,21827,21827,21827
201904060225,21827,21827,21826,21827
201904060226,21827,21827,21826,21827
201904060227,21827,21827,21826,21826
201904060228,21826,21826,21820,21821
201904060229,21821,21822,21821,21822
201904060230,21822,21822,21822,21822
201904060231,21822,21822,21822,21822
201904060232,21822,21822,21822,21822
201904060233,21822,21822,21822,21822
201904060234,21822,21822,21822,21822
201904060235,21822,21827,21821,21824
201904060236,21824,21826,21822,21826
201904060237,21826,21826,21821,21826
201904060238,21826,21826,21820,21825
201904060239,21825,21827,21825,21826
201904060240,21826,21826,21820,21825
201904060241,21825,21827,21825,21827
201904060242,21827,21827,21821,21827
201904060243,21827,21827,21826,21827
201904060244,21827,21827,21826,21826
201904060245,21826,21826,21821,21821
201904060246,21821,21826,21820,21826
201904060247,21826,21827,21826,21827
201904060248,21827,21827,21827,21827
201904060249,21827,21827,21827,21827
201904060250,21827,21827,21827,21827
201904060251,21827,21827,21826,21827
201904060252,21827,21827,21827,21827
201904060253,21827,21827,21827,21827
201904060254,21827,21827,21827,21827
201904060255,21827,21827,21825,21826
201904060256,21826,21827,21826,21827
201904060257,21827,21827,21826,21827
201904060258,21827,21827,21827,21827
201904060259,21827,21830,21826,21827
201904060300,21827,21829,21825,21827
201904060301,21826,21829,21826,21826
201904060302,21826,21827,21826,21827
201904060303,21827,21832,21826,21831
201904060304,21831,21832,21830,21832
201904060305,21832,21832,21829,21832
201904060306,21832,21832,21831,21832
201904060307,21832,21832,21831,21831
201904060308,21831,21832,21830,21831
201904060309,21831,21832,21830,21832
201904060310,21832,21832,21832,21832
201904060311,21832,21832,21832,21832
201904060312,21832,21832,21825,21828
201904060313,21831,21832,21831,21832
201904060314,21832,21832,21830,21831
201904060315,21831,21832,21825,21826
201904060316,21826,21831,21825,21826
201904060317,21826,21831,21825,21827
201904060318,21827,21831,21825,21827
201904060319,21827,21827,21826,21827
201904060320,21827,21827,21825,21827
201904060321,21827,21827,21824,21827
201904060322,21827,21827,21825,21825
201904060323,21825,21830,21825,21830
201904060324,21830,21831,21826,21827
201904060325,21827,21827,21824,21826
201904060326,21826,21827,21826,21827
201904060327,21827,21830,21826,21827
201904060328,21827,21829,21825,21829
201904060329,21829,21829,21824,21826
201904060330,21826,21827,21825,21825
201904060331,21825,21831,21825,21831
201904060332,21831,21831,21826,21827
201904060333,21827,21828,21825,21826
201904060334,21826,21829,21826,21829
201904060335,21829,21830,21826,21829
201904060336,21829,21830,21829,21830
201904060337,21830,21830,21829,21829
201904060338,21829,21832,21829,21832
201904060339,21832,21832,21832,21832
201904060340,21832,21832,21832,21832
201904060341,21832,21835,21831,21832
201904060342,21832,21835,21832,21834
201904060343,21834,21834,21831,21832
201904060344,21832,21832,21831,21832
201904060345,21832,21836,21829,21836
201904060346,21836,21836,21829,21832
201904060347,21832,21835,21831,21835
201904060348,21835,21836,21831,21835
201904060349,21835,21836,21833,21836
201904060350,21836,21836,21830,21832
201904060351,21832,21834,21831,21831
201904060352,21831,21835,21831,21835
201904060353,21835,21836,21835,21836
201904060354,21836,21836,21835,21835
201904060355,21835,21836,21835,21836
201904060356,21836,21837,21836,21836
201904060357,21836,21837,21836,21836
201904060358,21836,21837,21836,21836
201904060359,21836,21837,21833,21836
201904060400,21836,21837,21835,21837
201904060401,21837,21837,21836,21837
201904060402,21837,21837,21835,21837
201904060403,21837,21839,21834,21837
201904060404,21837,21839,21835,21836
201904060405,21836,21836,21835,21836
201904060406,21836,21837,21836,21837
201904060407,21837,21837,21837,21837
201904060408,21837,21837,21837,21837
201904060409,21837,21837,21830,21837
201904060410,21837,21837,21826,21831
201904060411,21831,21831,21826,21831
201904060412,21831,21832,21831,21831
201904060413,21831,21832,21831,21831
201904060414,21831,21832,21827,21832
201904060415,21832,21832,21826,21827
201904060416,21827,21831,21825,21827
201904060417,21828,21828,21825,21827
201904060418,21827,21832,21826,21831
201904060419,21831,21832,21831,21832
201904060420,21832,21832,21831,21832
201904060421,21832,21832,21831,21831
201904060422,21831,21837,21831,21837
201904060423,21837,21838,21835,21836
201904060424,21836,21837,21836,21837
201904060425,21837,21842,21836,21842
201904060426,21842,21842,21837,21842
201904060427,21842,21842,21842,21842
201904060428,21842,21842,21841,21841
201904060429,21841,21841,21838,21840
201904060430,21840,21842,21839,21842
201904060431,21842,21842,21840,21842
201904060432,21842,21842,21839,21842
201904060433,21842,21843,21840,21840
201904060434,21840,21844,21840,21842
201904060435,21842,21844,21841,21842
201904060436,21842,21842,21840,21842
201904060437,21842,21842,21839,21842
201904060438,21842,21842,21841,21842
201904060439,21842,21842,21842,21842
201904060440,21842,21842,21835,21837
201904060441,21837,21841,21835,21837
201904060442,21838,21838,21835,21837
201904060443,21837,21839,21836,21838
201904060444,21838,21840,21837,21840
201904060445,21840,21840,21833,21834
201904060446,21834,21837,21831,21831
201904060447,21831,21837,21831,21836
201904060448,21836,21837,21834,21836
201904060449,21836,21837,21835,21837
201904060450,21837,21837,21830,21834
201904060451,21834,21837,21830,21831
201904060452,21831,21833,21831,21831
201904060453,21831,21832,21827,21832
201904060454,21832,21835,21830,21835
201904060455,21835,21837,21835,21837
201904060456,21837,21838,21836,21837
201904060457,21837,21842,21835,21842
201904060458,21842,21842,21839,21840
201904060459,21840,21847,21837,21843
201904060500,21844,21847,21843,21846
201904060501,21846,21847,21846,21846
201904060502,21846,21847,21846,21847
201904060503,21847,21847,21847,21847
201904060504,21847,21847,21845,21846
201904060505,21846,21847,21846,21847
201904060506,21847,21847,21845,21845
201904060507,21845,21849,21845,21847
201904060508,21847,21852,21845,21851
201904060509,21851,21852,21851,21852
201904060510,21852,21852,21852,21852
201904060511,21852,21852,21851,21852
201904060512,21852,21852,21851,21851
201904060513,21851,21852,21851,21852
201904060514,21852,21852,21845,21849
201904060515,21849,21850,21849,21850
201904060516,21850,21850,21840,21850
201904060517,21850,21850,21850,21850
201904060518,21850,21850,21850,21850
201904060519,21850,21853,21849,21853
201904060520,21853,21853,21852,21852
201904060521,21852,21852,21850,21850
201904060522,21850,21851,21849,21850
201904060523,21850,21855,21847,21853
201904060524,21853,21854,21851,21854
201904060525,21854,21862,21852,21861
201904060526,21861,21865,21860,21865
201904060527,21865,21867,21865,21867
201904060528,21867,21867,21867,21867
201904060529,21867,21867,21867,21867
201904060530,21867,21867,21851,21857
201904060531,21857,21858,21856,21856
201904060532,21856,21856,21855,21856
201904060533,21856,21856,21855,21856
201904060534,21856,21857,21855,21855
201904060535,21855,21856,21855,21856
201904060536,21856,21857,21855,21857
201904060537,21857,21857,21856,21857
201904060538,21857,21857,21856,21857
201904060539,21857,21857,21851,21855
201904060540,21855,21858,21855,21858
201904060541,21858,21858,21858,21858
201904060542,21858,21858,21858,21858
201904060543,21858,21858,21857,21857
201904060544,21857,21857,21857,21857
201904060545,21857,21859,21857,21859
201904060546,21859,21860,21859,21859
201904060547,21859,21859,21858,21858
201904060548,21858,21858,21858,21858
201904060549,21858,21859,21858,21859
201904060550,21859,21860,21859,21860
201904060551,21860,21862,21860,21862
201904060552,21862,21862,21862,21862
201904060553,21862,21863,21862,21863
201904060554,21863,21863,21862,21862
201904060555,21862,21862,21862,21862
201904060556,21862,21862,21862,21862
201904060557,21862,21862,21860,21860
201904060558,21860,21860,21856,21856
201904060559,21856,21857,21853,21854
