日時,始値(BID),高値(BID),安値(BID),終値(BID)
201910300700,55.52,55.52,55.44,55.47
201910300701,55.47,55.48,55.46,55.47
201910300702,55.47,55.47,55.45,55.45
201910300703,55.45,55.47,55.45,55.47
201910300704,55.47,55.49,55.47,55.49
201910300705,55.49,55.52,55.49,55.51
201910300706,55.51,55.52,55.5,55.51
201910300707,55.51,55.52,55.51,55.52
201910300708,55.52,55.52,55.51,55.52
201910300709,55.52,55.52,55.5,55.51
201910300710,55.51,55.51,55.51,55.51
201910300711,55.51,55.52,55.51,55.51
201910300712,55.51,55.51,55.5,55.5
201910300713,55.5,55.5,55.5,55.5
201910300714,55.5,55.51,55.5,55.51
201910300715,55.51,55.51,55.5,55.5
201910300716,55.5,55.5,55.5,55.5
201910300717,55.5,55.5,55.5,55.5
201910300718,55.5,55.51,55.5,55.5
201910300719,55.5,55.5,55.5,55.5
201910300720,55.5,55.51,55.5,55.51
201910300721,55.51,55.51,55.51,55.51
201910300722,55.51,55.51,55.51,55.51
201910300723,55.51,55.51,55.51,55.51
201910300724,55.51,55.51,55.49,55.49
201910300725,55.49,55.49,55.48,55.49
201910300726,55.49,55.49,55.49,55.49
201910300727,55.49,55.51,55.48,55.49
201910300728,55.49,55.49,55.48,55.49
201910300729,55.49,55.5,55.49,55.5
201910300730,55.5,55.5,55.48,55.48
201910300731,55.48,55.48,55.47,55.47
201910300732,55.47,55.48,55.47,55.47
201910300733,55.47,55.49,55.47,55.49
201910300734,55.49,55.49,55.47,55.48
201910300735,55.48,55.48,55.48,55.48
201910300736,55.48,55.49,55.48,55.48
201910300737,55.48,55.48,55.48,55.48
201910300738,55.48,55.48,55.48,55.48
201910300739,55.48,55.49,55.48,55.48
201910300740,55.48,55.48,55.47,55.47
201910300741,55.47,55.48,55.47,55.48
201910300742,55.48,55.49,55.48,55.49
201910300743,55.49,55.52,55.49,55.52
201910300744,55.52,55.52,55.51,55.51
201910300745,55.51,55.51,55.51,55.51
201910300746,55.51,55.51,55.51,55.51
201910300747,55.51,55.54,55.5,55.52
201910300748,55.52,55.52,55.51,55.51
201910300749,55.51,55.51,55.51,55.51
201910300750,55.51,55.51,55.49,55.5
201910300751,55.5,55.51,55.5,55.5
201910300752,55.5,55.5,55.5,55.5
201910300753,55.5,55.51,55.5,55.5
201910300754,55.5,55.5,55.5,55.5
201910300755,55.5,55.5,55.5,55.5
201910300756,55.5,55.5,55.49,55.49
201910300757,55.49,55.5,55.49,55.5
201910300758,55.5,55.5,55.48,55.49
201910300759,55.49,55.5,55.49,55.5
201910300800,55.5,55.5,55.49,55.5
201910300801,55.5,55.51,55.5,55.51
201910300802,55.51,55.51,55.5,55.5
201910300803,55.5,55.51,55.5,55.51
201910300804,55.51,55.51,55.51,55.51
201910300805,55.51,55.51,55.51,55.51
201910300806,55.51,55.51,55.5,55.51
201910300807,55.51,55.51,55.51,55.51
201910300808,55.51,55.54,55.51,55.53
201910300809,55.53,55.53,55.52,55.52
201910300810,55.52,55.52,55.52,55.52
201910300811,55.52,55.52,55.51,55.51
201910300812,55.51,55.51,55.51,55.51
201910300813,55.51,55.51,55.51,55.51
201910300814,55.51,55.51,55.51,55.51
201910300815,55.51,55.51,55.51,55.51
201910300816,55.51,55.51,55.51,55.51
201910300817,55.51,55.51,55.5,55.5
201910300818,55.5,55.5,55.5,55.5
201910300819,55.5,55.5,55.49,55.49
201910300820,55.49,55.49,55.49,55.49
201910300821,55.49,55.49,55.49,55.49
201910300822,55.49,55.49,55.47,55.48
201910300823,55.48,55.48,55.48,55.48
201910300824,55.48,55.48,55.48,55.48
201910300825,55.48,55.48,55.48,55.48
201910300826,55.48,55.48,55.47,55.47
201910300827,55.47,55.47,55.47,55.47
201910300828,55.47,55.47,55.47,55.47
201910300829,55.47,55.47,55.47,55.47
201910300830,55.47,55.47,55.47,55.47
201910300831,55.47,55.47,55.46,55.47
201910300832,55.47,55.47,55.47,55.47
201910300833,55.47,55.47,55.46,55.47
201910300834,55.47,55.47,55.47,55.47
201910300835,55.47,55.48,55.47,55.48
201910300836,55.48,55.48,55.48,55.48
201910300837,55.48,55.49,55.48,55.48
201910300838,55.48,55.49,55.48,55.48
201910300839,55.48,55.48,55.48,55.48
201910300840,55.48,55.49,55.48,55.49
201910300841,55.49,55.49,55.49,55.49
201910300842,55.49,55.49,55.49,55.49
201910300843,55.49,55.49,55.49,55.49
201910300844,55.49,55.49,55.48,55.48
201910300845,55.48,55.48,55.48,55.48
201910300846,55.48,55.48,55.47,55.48
201910300847,55.48,55.48,55.48,55.48
201910300848,55.48,55.49,55.47,55.47
201910300849,55.47,55.47,55.47,55.47
201910300850,55.47,55.47,55.47,55.47
201910300851,55.47,55.47,55.47,55.47
201910300852,55.47,55.47,55.46,55.47
201910300853,55.47,55.47,55.47,55.47
201910300854,55.47,55.47,55.46,55.47
201910300855,55.47,55.48,55.47,55.47
201910300856,55.47,55.47,55.47,55.47
201910300857,55.47,55.47,55.47,55.47
201910300858,55.47,55.47,55.47,55.47
201910300859,55.47,55.47,55.47,55.47
201910300900,55.47,55.55,55.47,55.52
201910300901,55.52,55.52,55.5,55.5
201910300902,55.5,55.51,55.5,55.5
201910300903,55.5,55.5,55.48,55.49
201910300904,55.49,55.51,55.48,55.48
201910300905,55.48,55.49,55.48,55.48
201910300906,55.48,55.48,55.47,55.47
201910300907,55.47,55.47,55.45,55.46
201910300908,55.46,55.47,55.45,55.45
201910300909,55.45,55.46,55.45,55.45
201910300910,55.45,55.46,55.44,55.45
201910300911,55.45,55.45,55.43,55.44
201910300912,55.44,55.44,55.43,55.43
201910300913,55.43,55.43,55.42,55.42
201910300914,55.42,55.42,55.42,55.42
201910300915,55.42,55.43,55.42,55.42
201910300916,55.42,55.43,55.41,55.42
201910300917,55.42,55.43,55.42,55.42
201910300918,55.42,55.42,55.42,55.42
201910300919,55.42,55.43,55.42,55.43
201910300920,55.43,55.43,55.43,55.43
201910300921,55.43,55.43,55.43,55.43
201910300922,55.43,55.44,55.42,55.43
201910300923,55.43,55.43,55.41,55.41
201910300924,55.41,55.42,55.4,55.42
201910300925,55.42,55.42,55.41,55.41
201910300926,55.41,55.41,55.4,55.41
201910300927,55.41,55.41,55.41,55.41
201910300928,55.41,55.42,55.41,55.42
201910300929,55.42,55.43,55.42,55.43
201910300930,55.43,55.43,55.42,55.42
201910300931,55.42,55.43,55.42,55.43
201910300932,55.43,55.43,55.43,55.43
201910300933,55.43,55.43,55.43,55.43
201910300934,55.43,55.43,55.43,55.43
201910300935,55.43,55.43,55.41,55.42
201910300936,55.42,55.43,55.41,55.43
201910300937,55.43,55.43,55.41,55.41
201910300938,55.41,55.41,55.4,55.4
201910300939,55.4,55.4,55.37,55.37
201910300940,55.37,55.37,55.35,55.35
201910300941,55.35,55.37,55.35,55.36
201910300942,55.36,55.36,55.35,55.35
201910300943,55.35,55.35,55.34,55.34
201910300944,55.34,55.34,55.33,55.33
201910300945,55.33,55.34,55.33,55.34
201910300946,55.34,55.34,55.33,55.34
201910300947,55.34,55.34,55.34,55.34
201910300948,55.34,55.34,55.34,55.34
201910300949,55.34,55.36,55.34,55.36
201910300950,55.36,55.36,55.35,55.36
201910300951,55.36,55.37,55.36,55.37
201910300952,55.37,55.37,55.37,55.37
201910300953,55.37,55.37,55.36,55.37
201910300954,55.37,55.37,55.36,55.37
201910300955,55.37,55.37,55.36,55.36
201910300956,55.36,55.36,55.35,55.36
201910300957,55.36,55.37,55.36,55.37
201910300958,55.37,55.38,55.37,55.37
201910300959,55.37,55.38,55.37,55.38
201910301000,55.38,55.39,55.37,55.38
201910301001,55.38,55.38,55.37,55.38
201910301002,55.38,55.38,55.35,55.36
201910301003,55.36,55.36,55.34,55.34
201910301004,55.34,55.34,55.33,55.33
201910301005,55.33,55.34,55.33,55.33
201910301006,55.33,55.35,55.33,55.35
201910301007,55.35,55.35,55.33,55.33
201910301008,55.33,55.34,55.32,55.34
201910301009,55.34,55.36,55.34,55.36
201910301010,55.36,55.36,55.35,55.36
201910301011,55.36,55.36,55.35,55.36
201910301012,55.36,55.36,55.35,55.36
201910301013,55.36,55.36,55.35,55.35
201910301014,55.35,55.35,55.33,55.33
201910301015,55.33,55.34,55.33,55.34
201910301016,55.34,55.34,55.33,55.33
201910301017,55.33,55.34,55.33,55.34
201910301018,55.34,55.35,55.34,55.35
201910301019,55.35,55.36,55.29,55.31
201910301020,55.31,55.32,55.3,55.31
201910301021,55.31,55.31,55.3,55.3
201910301022,55.3,55.31,55.3,55.3
201910301023,55.3,55.31,55.3,55.3
201910301024,55.3,55.3,55.3,55.3
201910301025,55.3,55.3,55.29,55.3
201910301026,55.3,55.31,55.3,55.31
201910301027,55.31,55.31,55.3,55.3
201910301028,55.3,55.3,55.3,55.3
201910301029,55.3,55.3,55.29,55.29
201910301030,55.29,55.3,55.29,55.3
201910301031,55.3,55.31,55.3,55.31
201910301032,55.31,55.31,55.29,55.3
201910301033,55.3,55.31,55.3,55.31
201910301034,55.3,55.31,55.3,55.3
201910301035,55.3,55.32,55.3,55.31
201910301036,55.31,55.31,55.29,55.29
201910301037,55.29,55.29,55.29,55.29
201910301038,55.29,55.29,55.28,55.29
201910301039,55.29,55.29,55.28,55.28
201910301040,55.28,55.29,55.28,55.28
201910301041,55.28,55.29,55.28,55.29
201910301042,55.29,55.3,55.29,55.29
201910301043,55.29,55.3,55.29,55.3
201910301044,55.3,55.3,55.29,55.3
201910301045,55.3,55.31,55.3,55.31
201910301046,55.31,55.31,55.3,55.31
201910301047,55.31,55.31,55.3,55.3
201910301048,55.3,55.3,55.3,55.3
201910301049,55.3,55.3,55.29,55.29
201910301050,55.29,55.29,55.29,55.29
201910301051,55.29,55.3,55.29,55.3
201910301052,55.3,55.3,55.3,55.3
201910301053,55.3,55.3,55.3,55.3
201910301054,55.3,55.3,55.29,55.3
201910301055,55.3,55.31,55.3,55.31
201910301056,55.31,55.32,55.31,55.32
201910301057,55.32,55.32,55.32,55.32
201910301058,55.32,55.32,55.32,55.32
201910301059,55.32,55.32,55.31,55.32
201910301100,55.32,55.32,55.28,55.28
201910301101,55.28,55.29,55.28,55.29
201910301102,55.29,55.29,55.28,55.29
201910301103,55.29,55.29,55.28,55.28
201910301104,55.28,55.29,55.25,55.26
201910301105,55.26,55.26,55.23,55.24
201910301106,55.25,55.25,55.25,55.25
201910301107,55.25,55.25,55.23,55.25
201910301108,55.25,55.25,55.23,55.23
201910301109,55.23,55.24,55.23,55.23
201910301110,55.23,55.23,55.22,55.23
201910301111,55.23,55.24,55.23,55.24
201910301112,55.24,55.24,55.23,55.23
201910301113,55.23,55.23,55.22,55.22
201910301114,55.22,55.22,55.2,55.21
201910301115,55.21,55.23,55.21,55.22
201910301116,55.22,55.23,55.22,55.22
201910301117,55.22,55.23,55.22,55.22
201910301118,55.22,55.23,55.21,55.22
201910301119,55.22,55.23,55.22,55.22
201910301120,55.22,55.23,55.21,55.22
201910301121,55.22,55.23,55.22,55.23
201910301122,55.23,55.24,55.22,55.24
201910301123,55.24,55.24,55.23,55.24
201910301124,55.24,55.24,55.23,55.23
201910301125,55.23,55.24,55.23,55.23
201910301126,55.23,55.24,55.23,55.23
201910301127,55.23,55.23,55.23,55.23
201910301128,55.23,55.24,55.23,55.24
201910301129,55.24,55.24,55.24,55.24
201910301130,55.24,55.24,55.24,55.24
201910301131,55.24,55.24,55.24,55.24
201910301132,55.24,55.24,55.24,55.24
201910301133,55.24,55.25,55.24,55.25
201910301134,55.25,55.25,55.25,55.25
201910301135,55.25,55.26,55.25,55.26
201910301136,55.26,55.28,55.26,55.27
201910301137,55.27,55.28,55.27,55.27
201910301138,55.27,55.28,55.27,55.27
201910301139,55.27,55.27,55.26,55.27
201910301140,55.27,55.27,55.26,55.27
201910301141,55.27,55.27,55.27,55.27
201910301142,55.27,55.27,55.26,55.26
201910301143,55.26,55.27,55.26,55.26
201910301144,55.26,55.26,55.26,55.26
201910301145,55.26,55.27,55.26,55.27
201910301146,55.27,55.27,55.26,55.26
201910301147,55.26,55.26,55.25,55.25
201910301148,55.25,55.25,55.23,55.24
201910301149,55.24,55.24,55.23,55.24
201910301150,55.24,55.25,55.24,55.24
201910301151,55.24,55.24,55.23,55.23
201910301152,55.23,55.24,55.23,55.23
201910301153,55.23,55.23,55.21,55.22
201910301154,55.22,55.23,55.22,55.23
201910301155,55.23,55.24,55.23,55.23
201910301156,55.23,55.23,55.23,55.23
201910301157,55.23,55.23,55.23,55.23
201910301158,55.23,55.24,55.23,55.23
201910301159,55.23,55.23,55.23,55.23
201910301200,55.23,55.23,55.23,55.23
201910301201,55.23,55.24,55.23,55.24
201910301202,55.24,55.25,55.24,55.24
201910301203,55.24,55.24,55.24,55.24
201910301204,55.24,55.25,55.24,55.25
201910301205,55.25,55.25,55.24,55.24
201910301206,55.24,55.25,55.24,55.25
201910301207,55.25,55.25,55.24,55.25
201910301208,55.25,55.25,55.25,55.25
201910301209,55.25,55.25,55.25,55.25
201910301210,55.25,55.25,55.25,55.25
201910301211,55.25,55.25,55.25,55.25
201910301212,55.25,55.26,55.25,55.26
201910301213,55.26,55.26,55.24,55.25
201910301214,55.25,55.25,55.24,55.24
201910301215,55.24,55.24,55.24,55.24
201910301216,55.24,55.24,55.24,55.24
201910301217,55.24,55.25,55.24,55.24
201910301218,55.24,55.24,55.23,55.23
201910301219,55.23,55.23,55.23,55.23
201910301220,55.23,55.23,55.23,55.23
201910301221,55.23,55.23,55.23,55.23
201910301222,55.23,55.23,55.23,55.23
201910301223,55.23,55.23,55.2,55.21
201910301224,55.21,55.22,55.21,55.21
201910301225,55.21,55.21,55.2,55.2
201910301226,55.2,55.22,55.2,55.22
201910301227,55.22,55.22,55.21,55.22
201910301228,55.22,55.22,55.22,55.22
201910301229,55.22,55.23,55.22,55.23
201910301230,55.23,55.25,55.23,55.24
201910301231,55.24,55.25,55.24,55.25
201910301232,55.25,55.25,55.24,55.25
201910301233,55.25,55.25,55.25,55.25
201910301234,55.25,55.25,55.24,55.25
201910301235,55.25,55.25,55.25,55.25
201910301236,55.25,55.25,55.25,55.25
201910301237,55.25,55.25,55.25,55.25
201910301238,55.25,55.25,55.24,55.24
201910301239,55.24,55.24,55.24,55.24
201910301240,55.24,55.24,55.24,55.24
201910301241,55.24,55.25,55.24,55.25
201910301242,55.25,55.25,55.24,55.25
201910301243,55.25,55.26,55.25,55.26
201910301244,55.26,55.27,55.26,55.27
201910301245,55.27,55.27,55.26,55.27
201910301246,55.27,55.27,55.27,55.27
201910301247,55.27,55.28,55.27,55.28
201910301248,55.28,55.28,55.28,55.28
201910301249,55.28,55.28,55.27,55.28
201910301250,55.28,55.28,55.28,55.28
201910301251,55.28,55.28,55.28,55.28
201910301252,55.28,55.28,55.27,55.28
201910301253,55.28,55.28,55.27,55.27
201910301254,55.27,55.27,55.27,55.27
201910301255,55.27,55.28,55.27,55.27
201910301256,55.27,55.28,55.27,55.28
201910301257,55.28,55.28,55.28,55.28
201910301258,55.28,55.28,55.27,55.27
201910301259,55.27,55.27,55.27,55.27
201910301300,55.27,55.27,55.26,55.27
201910301301,55.27,55.27,55.27,55.27
201910301302,55.27,55.27,55.27,55.27
201910301303,55.27,55.27,55.27,55.27
201910301304,55.27,55.27,55.26,55.26
201910301305,55.26,55.26,55.25,55.25
201910301306,55.25,55.25,55.24,55.24
201910301307,55.24,55.24,55.24,55.24
201910301308,55.24,55.25,55.22,55.22
201910301309,55.22,55.22,55.21,55.22
201910301310,55.22,55.22,55.22,55.22
201910301311,55.22,55.23,55.22,55.23
201910301312,55.23,55.23,55.22,55.23
201910301313,55.23,55.23,55.23,55.23
201910301314,55.23,55.23,55.23,55.23
201910301315,55.23,55.23,55.23,55.23
201910301316,55.23,55.23,55.23,55.23
201910301317,55.23,55.23,55.23,55.23
201910301318,55.23,55.24,55.23,55.23
201910301319,55.23,55.23,55.23,55.23
201910301320,55.23,55.23,55.23,55.23
201910301321,55.23,55.23,55.23,55.23
201910301322,55.23,55.23,55.23,55.23
201910301323,55.23,55.23,55.23,55.23
201910301324,55.23,55.24,55.23,55.24
201910301325,55.24,55.24,55.23,55.24
201910301326,55.24,55.24,55.23,55.23
201910301327,55.23,55.23,55.22,55.23
201910301328,55.23,55.23,55.23,55.23
201910301329,55.23,55.24,55.23,55.24
201910301330,55.24,55.24,55.23,55.23
201910301331,55.23,55.26,55.23,55.26
201910301332,55.26,55.27,55.26,55.27
201910301333,55.27,55.27,55.26,55.26
201910301334,55.26,55.26,55.26,55.26
201910301335,55.26,55.26,55.25,55.26
201910301336,55.26,55.26,55.25,55.26
201910301337,55.26,55.26,55.26,55.26
201910301338,55.26,55.26,55.25,55.25
201910301339,55.25,55.26,55.25,55.25
201910301340,55.25,55.26,55.25,55.25
201910301341,55.25,55.26,55.25,55.26
201910301342,55.26,55.26,55.26,55.26
201910301343,55.26,55.26,55.26,55.26
201910301344,55.26,55.26,55.26,55.26
201910301345,55.26,55.26,55.26,55.26
201910301346,55.26,55.26,55.25,55.26
201910301347,55.26,55.26,55.26,55.26
201910301348,55.26,55.26,55.25,55.26
201910301349,55.26,55.26,55.26,55.26
201910301350,55.26,55.26,55.26,55.26
201910301351,55.26,55.26,55.26,55.26
201910301352,55.26,55.26,55.26,55.26
201910301353,55.26,55.26,55.25,55.25
201910301354,55.25,55.26,55.25,55.25
201910301355,55.25,55.25,55.25,55.25
201910301356,55.25,55.25,55.25,55.25
201910301357,55.25,55.25,55.25,55.25
201910301358,55.25,55.25,55.25,55.25
201910301359,55.25,55.26,55.25,55.25
201910301400,55.25,55.25,55.24,55.24
201910301401,55.24,55.25,55.23,55.25
201910301402,55.25,55.25,55.25,55.25
201910301403,55.25,55.26,55.25,55.26
201910301404,55.26,55.26,55.25,55.25
201910301405,55.25,55.25,55.25,55.25
201910301406,55.25,55.25,55.25,55.25
201910301407,55.25,55.25,55.24,55.25
201910301408,55.25,55.26,55.25,55.26
201910301409,55.26,55.27,55.26,55.27
201910301410,55.27,55.27,55.27,55.27
201910301411,55.27,55.27,55.26,55.27
201910301412,55.27,55.27,55.27,55.27
201910301413,55.27,55.28,55.26,55.27
201910301414,55.27,55.28,55.27,55.27
201910301415,55.27,55.27,55.26,55.26
201910301416,55.26,55.26,55.25,55.26
201910301417,55.26,55.26,55.26,55.26
201910301418,55.26,55.26,55.26,55.26
201910301419,55.26,55.26,55.26,55.26
201910301420,55.26,55.26,55.26,55.26
201910301421,55.26,55.26,55.25,55.26
201910301422,55.26,55.26,55.25,55.26
201910301423,55.26,55.26,55.26,55.26
201910301424,55.26,55.27,55.26,55.27
201910301425,55.27,55.28,55.27,55.28
201910301426,55.28,55.28,55.27,55.27
201910301427,55.27,55.28,55.27,55.28
201910301428,55.28,55.29,55.28,55.29
201910301429,55.29,55.29,55.29,55.29
201910301430,55.29,55.29,55.27,55.27
201910301431,55.27,55.28,55.27,55.28
201910301432,55.28,55.28,55.27,55.27
201910301433,55.27,55.27,55.27,55.27
201910301434,55.27,55.28,55.27,55.28
201910301435,55.28,55.28,55.27,55.27
201910301436,55.27,55.28,55.27,55.27
201910301437,55.27,55.27,55.27,55.27
201910301438,55.27,55.27,55.25,55.25
201910301439,55.25,55.26,55.25,55.26
201910301440,55.26,55.26,55.25,55.25
201910301441,55.25,55.25,55.25,55.25
201910301442,55.25,55.26,55.24,55.25
201910301443,55.25,55.25,55.24,55.25
201910301444,55.25,55.25,55.25,55.25
201910301445,55.25,55.25,55.25,55.25
201910301446,55.25,55.26,55.25,55.26
201910301447,55.26,55.26,55.24,55.24
201910301448,55.24,55.24,55.24,55.24
201910301449,55.24,55.25,55.23,55.23
201910301450,55.23,55.23,55.23,55.23
201910301451,55.23,55.23,55.23,55.23
201910301452,55.23,55.23,55.23,55.23
201910301453,55.23,55.23,55.23,55.23
201910301454,55.23,55.24,55.23,55.23
201910301455,55.23,55.24,55.23,55.23
201910301456,55.23,55.23,55.23,55.23
201910301457,55.23,55.24,55.23,55.24
201910301458,55.24,55.25,55.24,55.24
201910301459,55.24,55.24,55.24,55.24
201910301500,55.24,55.24,55.21,55.21
201910301501,55.21,55.22,55.21,55.21
201910301502,55.21,55.22,55.21,55.21
201910301503,55.21,55.21,55.2,55.21
201910301504,55.21,55.22,55.21,55.21
201910301505,55.21,55.21,55.21,55.21
201910301506,55.21,55.21,55.21,55.21
201910301507,55.21,55.21,55.18,55.19
201910301508,55.19,55.19,55.18,55.19
201910301509,55.19,55.19,55.18,55.18
201910301510,55.18,55.18,55.16,55.17
201910301511,55.17,55.18,55.17,55.18
201910301512,55.18,55.19,55.18,55.18
201910301513,55.18,55.19,55.18,55.18
201910301514,55.18,55.18,55.17,55.17
201910301515,55.17,55.18,55.17,55.18
201910301516,55.18,55.18,55.18,55.18
201910301517,55.18,55.18,55.18,55.18
201910301518,55.18,55.18,55.17,55.17
201910301519,55.17,55.18,55.17,55.17
201910301520,55.17,55.18,55.17,55.18
201910301521,55.18,55.2,55.18,55.2
201910301522,55.2,55.2,55.2,55.2
201910301523,55.2,55.21,55.2,55.2
201910301524,55.2,55.21,55.2,55.21
201910301525,55.21,55.21,55.2,55.2
201910301526,55.2,55.21,55.2,55.2
201910301527,55.2,55.2,55.2,55.2
201910301528,55.2,55.2,55.19,55.19
201910301529,55.19,55.2,55.19,55.2
201910301530,55.2,55.21,55.2,55.2
201910301531,55.2,55.21,55.2,55.2
201910301532,55.2,55.21,55.2,55.21
201910301533,55.21,55.23,55.21,55.23
201910301534,55.23,55.23,55.22,55.23
201910301535,55.23,55.23,55.22,55.23
201910301536,55.23,55.26,55.23,55.25
201910301537,55.25,55.25,55.25,55.25
201910301538,55.25,55.25,55.24,55.25
201910301539,55.25,55.25,55.25,55.25
201910301540,55.25,55.25,55.25,55.25
201910301541,55.25,55.25,55.24,55.24
201910301542,55.24,55.24,55.21,55.22
201910301543,55.22,55.22,55.2,55.21
201910301544,55.21,55.22,55.21,55.21
201910301545,55.21,55.21,55.2,55.21
201910301546,55.21,55.21,55.2,55.21
201910301547,55.21,55.22,55.2,55.22
201910301548,55.22,55.24,55.22,55.24
201910301549,55.24,55.25,55.24,55.25
201910301550,55.24,55.25,55.24,55.24
201910301551,55.24,55.25,55.24,55.25
201910301552,55.25,55.25,55.24,55.24
201910301553,55.24,55.24,55.22,55.23
201910301554,55.23,55.23,55.23,55.23
201910301555,55.23,55.24,55.22,55.24
201910301556,55.24,55.25,55.24,55.24
201910301557,55.24,55.24,55.23,55.24
201910301558,55.24,55.24,55.24,55.24
201910301559,55.24,55.24,55.22,55.23
201910301600,55.23,55.28,55.23,55.27
201910301601,55.27,55.29,55.26,55.28
201910301602,55.28,55.29,55.28,55.29
201910301603,55.29,55.29,55.28,55.29
201910301604,55.29,55.29,55.28,55.28
201910301605,55.28,55.28,55.26,55.28
201910301606,55.28,55.28,55.26,55.27
201910301607,55.27,55.27,55.26,55.27
201910301608,55.27,55.27,55.26,55.26
201910301609,55.26,55.27,55.25,55.27
201910301610,55.27,55.28,55.27,55.28
201910301611,55.28,55.28,55.27,55.28
201910301612,55.28,55.28,55.27,55.28
201910301613,55.28,55.28,55.27,55.27
201910301614,55.27,55.28,55.27,55.28
201910301615,55.28,55.29,55.27,55.29
201910301616,55.29,55.3,55.29,55.29
201910301617,55.29,55.31,55.29,55.3
201910301618,55.3,55.3,55.29,55.29
201910301619,55.29,55.29,55.29,55.29
201910301620,55.29,55.3,55.29,55.3
201910301621,55.3,55.31,55.3,55.31
201910301622,55.31,55.32,55.31,55.32
201910301623,55.32,55.32,55.31,55.32
201910301624,55.32,55.33,55.3,55.32
201910301625,55.32,55.33,55.32,55.33
201910301626,55.33,55.35,55.32,55.34
201910301627,55.34,55.35,55.32,55.32
201910301628,55.32,55.34,55.32,55.34
201910301629,55.34,55.34,55.33,55.33
201910301630,55.33,55.36,55.33,55.36
201910301631,55.36,55.36,55.35,55.35
201910301632,55.35,55.38,55.35,55.38
201910301633,55.38,55.4,55.36,55.37
201910301634,55.37,55.37,55.36,55.36
201910301635,55.36,55.37,55.36,55.37
201910301636,55.37,55.38,55.36,55.37
201910301637,55.37,55.39,55.37,55.39
201910301638,55.39,55.39,55.36,55.37
201910301639,55.37,55.37,55.35,55.35
201910301640,55.35,55.35,55.34,55.35
201910301641,55.35,55.35,55.33,55.33
201910301642,55.33,55.33,55.32,55.32
201910301643,55.32,55.34,55.32,55.33
201910301644,55.33,55.34,55.33,55.34
201910301645,55.34,55.34,55.33,55.33
201910301646,55.33,55.34,55.33,55.33
201910301647,55.33,55.34,55.32,55.33
201910301648,55.33,55.33,55.32,55.32
201910301649,55.34,55.37,55.34,55.36
201910301650,55.36,55.36,55.35,55.35
201910301651,55.35,55.36,55.34,55.36
201910301652,55.36,55.36,55.35,55.35
201910301653,55.35,55.35,55.34,55.34
201910301654,55.34,55.34,55.33,55.34
201910301655,55.34,55.37,55.34,55.37
201910301656,55.37,55.37,55.37,55.37
201910301657,55.37,55.39,55.37,55.38
201910301658,55.38,55.41,55.37,55.37
201910301659,55.37,55.39,55.36,55.39
201910301700,55.39,55.41,55.39,55.39
201910301701,55.39,55.4,55.35,55.36
201910301702,55.36,55.36,55.3,55.31
201910301703,55.31,55.33,55.29,55.3
201910301704,55.3,55.31,55.29,55.3
201910301705,55.3,55.31,55.29,55.3
201910301706,55.3,55.32,55.29,55.32
201910301707,55.32,55.33,55.31,55.33
201910301708,55.33,55.34,55.33,55.34
201910301709,55.34,55.37,55.34,55.36
201910301710,55.36,55.37,55.33,55.33
201910301711,55.33,55.34,55.32,55.34
201910301712,55.34,55.34,55.32,55.34
201910301713,55.34,55.34,55.32,55.34
201910301714,55.34,55.34,55.31,55.32
201910301715,55.32,55.32,55.3,55.3
201910301716,55.3,55.31,55.27,55.31
201910301717,55.32,55.32,55.3,55.32
201910301718,55.32,55.35,55.31,55.35
201910301719,55.35,55.35,55.33,55.33
201910301720,55.33,55.33,55.3,55.31
201910301721,55.31,55.31,55.3,55.3
201910301722,55.3,55.33,55.3,55.33
201910301723,55.33,55.34,55.32,55.34
201910301724,55.34,55.35,55.33,55.34
201910301725,55.34,55.35,55.31,55.34
201910301726,55.34,55.35,55.3,55.3
201910301727,55.3,55.34,55.3,55.34
201910301728,55.34,55.34,55.31,55.33
201910301729,55.33,55.36,55.33,55.35
201910301730,55.35,55.42,55.35,55.39
201910301731,55.39,55.41,55.35,55.36
201910301732,55.36,55.36,55.31,55.31
201910301733,55.31,55.34,55.3,55.31
201910301734,55.31,55.33,55.3,55.32
201910301735,55.32,55.34,55.31,55.32
201910301736,55.32,55.36,55.32,55.34
201910301737,55.34,55.34,55.32,55.32
201910301738,55.32,55.34,55.3,55.33
201910301739,55.33,55.34,55.33,55.34
201910301740,55.34,55.34,55.33,55.33
201910301741,55.33,55.41,55.33,55.4
201910301742,55.4,55.45,55.4,55.45
201910301743,55.45,55.45,55.41,55.42
201910301744,55.42,55.43,55.41,55.41
201910301745,55.41,55.43,55.41,55.43
201910301746,55.43,55.48,55.42,55.47
201910301747,55.47,55.5,55.47,55.48
201910301748,55.48,55.49,55.46,55.47
201910301749,55.47,55.48,55.45,55.45
201910301750,55.45,55.47,55.43,55.45
201910301751,55.45,55.47,55.43,55.43
201910301752,55.43,55.45,55.43,55.44
201910301753,55.44,55.44,55.43,55.44
201910301754,55.44,55.45,55.42,55.45
201910301755,55.45,55.45,55.44,55.45
201910301756,55.45,55.47,55.44,55.44
201910301757,55.44,55.45,55.43,55.43
201910301758,55.43,55.45,55.43,55.45
201910301759,55.45,55.46,55.45,55.45
201910301800,55.45,55.45,55.4,55.42
201910301801,55.42,55.44,55.4,55.44
201910301802,55.44,55.45,55.43,55.45
201910301803,55.45,55.48,55.45,55.48
201910301804,55.48,55.49,55.47,55.47
201910301805,55.47,55.48,55.46,55.48
201910301806,55.48,55.51,55.48,55.5
201910301807,55.5,55.51,55.49,55.51
201910301808,55.51,55.51,55.45,55.46
201910301809,55.46,55.49,55.46,55.47
201910301810,55.47,55.47,55.46,55.47
201910301811,55.47,55.48,55.47,55.48
201910301812,55.48,55.49,55.47,55.49
201910301813,55.49,55.49,55.46,55.46
201910301814,55.46,55.49,55.46,55.48
201910301815,55.48,55.48,55.47,55.48
201910301816,55.48,55.49,55.47,55.47
201910301817,55.47,55.49,55.45,55.45
201910301818,55.45,55.49,55.44,55.49
201910301819,55.49,55.5,55.48,55.48
201910301820,55.48,55.49,55.48,55.48
201910301821,55.48,55.48,55.44,55.45
201910301822,55.45,55.48,55.45,55.47
201910301823,55.47,55.49,55.47,55.47
201910301824,55.47,55.47,55.47,55.47
201910301825,55.47,55.47,55.46,55.46
201910301826,55.46,55.47,55.45,55.46
201910301827,55.46,55.48,55.46,55.48
201910301828,55.48,55.48,55.47,55.47
201910301829,55.47,55.48,55.46,55.48
201910301830,55.49,55.49,55.47,55.48
201910301831,55.48,55.49,55.47,55.48
201910301832,55.48,55.5,55.47,55.47
201910301833,55.47,55.48,55.46,55.47
201910301834,55.47,55.48,55.45,55.47
201910301835,55.47,55.48,55.47,55.47
201910301836,55.47,55.48,55.47,55.47
201910301837,55.47,55.48,55.47,55.47
201910301838,55.47,55.47,55.46,55.47
201910301839,55.47,55.47,55.47,55.47
201910301840,55.47,55.54,55.47,55.5
201910301841,55.5,55.53,55.5,55.52
201910301842,55.52,55.53,55.51,55.51
201910301843,55.51,55.53,55.5,55.51
201910301844,55.51,55.52,55.5,55.5
201910301845,55.5,55.54,55.5,55.53
201910301846,55.53,55.54,55.51,55.52
201910301847,55.52,55.54,55.52,55.52
201910301848,55.52,55.53,55.51,55.51
201910301849,55.51,55.51,55.49,55.5
201910301850,55.5,55.51,55.46,55.47
201910301851,55.47,55.48,55.47,55.47
201910301852,55.47,55.47,55.44,55.46
201910301853,55.46,55.46,55.44,55.45
201910301854,55.45,55.46,55.44,55.44
201910301855,55.44,55.44,55.42,55.42
201910301856,55.42,55.44,55.42,55.43
201910301857,55.43,55.43,55.42,55.42
201910301858,55.42,55.42,55.41,55.41
201910301859,55.41,55.44,55.41,55.41
201910301900,55.41,55.41,55.4,55.4
201910301901,55.4,55.45,55.4,55.45
201910301902,55.45,55.45,55.44,55.45
201910301903,55.45,55.46,55.44,55.44
201910301904,55.44,55.45,55.42,55.43
201910301905,55.43,55.44,55.43,55.44
201910301906,55.44,55.46,55.44,55.45
201910301907,55.45,55.46,55.44,55.45
201910301908,55.45,55.46,55.44,55.46
201910301909,55.46,55.46,55.45,55.45
201910301910,55.45,55.46,55.45,55.46
201910301911,55.46,55.49,55.46,55.48
201910301912,55.48,55.48,55.45,55.48
201910301913,55.48,55.49,55.46,55.49
201910301914,55.49,55.5,55.48,55.49
201910301915,55.49,55.51,55.49,55.5
201910301916,55.5,55.53,55.5,55.53
201910301917,55.53,55.54,55.52,55.53
201910301918,55.53,55.55,55.52,55.54
201910301919,55.54,55.54,55.52,55.53
201910301920,55.53,55.53,55.52,55.53
201910301921,55.53,55.53,55.51,55.52
201910301922,55.52,55.52,55.5,55.51
201910301923,55.51,55.51,55.5,55.5
201910301924,55.5,55.5,55.49,55.49
201910301925,55.49,55.5,55.48,55.48
201910301926,55.48,55.49,55.47,55.49
201910301927,55.49,55.5,55.48,55.5
201910301928,55.5,55.5,55.48,55.5
201910301929,55.5,55.51,55.5,55.5
201910301930,55.5,55.5,55.49,55.5
201910301931,55.5,55.51,55.49,55.51
201910301932,55.51,55.53,55.51,55.52
201910301933,55.52,55.52,55.51,55.51
201910301934,55.51,55.52,55.51,55.51
201910301935,55.51,55.51,55.51,55.51
201910301936,55.51,55.51,55.51,55.51
201910301937,55.51,55.53,55.5,55.52
201910301938,55.52,55.52,55.5,55.5
201910301939,55.5,55.51,55.5,55.5
201910301940,55.5,55.51,55.47,55.47
201910301941,55.47,55.49,55.47,55.49
201910301942,55.49,55.51,55.49,55.51
201910301943,55.51,55.51,55.51,55.51
201910301944,55.51,55.51,55.5,55.5
201910301945,55.5,55.52,55.5,55.52
201910301946,55.52,55.53,55.52,55.52
201910301947,55.52,55.53,55.52,55.53
201910301948,55.53,55.53,55.5,55.52
201910301949,55.52,55.53,55.52,55.53
201910301950,55.53,55.53,55.51,55.51
201910301951,55.51,55.52,55.48,55.49
201910301952,55.49,55.49,55.45,55.46
201910301953,55.46,55.47,55.45,55.46
201910301954,55.46,55.46,55.45,55.45
201910301955,55.45,55.47,55.45,55.47
201910301956,55.47,55.48,55.46,55.46
201910301957,55.46,55.49,55.46,55.48
201910301958,55.48,55.49,55.48,55.49
201910301959,55.49,55.5,55.49,55.49
201910302000,55.49,55.51,55.49,55.51
201910302001,55.51,55.52,55.5,55.52
201910302002,55.52,55.53,55.51,55.53
201910302003,55.53,55.54,55.52,55.52
201910302004,55.52,55.52,55.51,55.51
201910302005,55.51,55.51,55.5,55.5
201910302006,55.5,55.52,55.5,55.52
201910302007,55.52,55.53,55.52,55.52
201910302008,55.52,55.52,55.49,55.51
201910302009,55.51,55.51,55.49,55.5
201910302010,55.5,55.5,55.35,55.35
201910302011,55.35,55.38,55.35,55.38
201910302012,55.38,55.38,55.37,55.38
201910302013,55.38,55.39,55.37,55.39
201910302014,55.39,55.39,55.37,55.38
201910302015,55.38,55.39,55.38,55.39
201910302016,55.39,55.39,55.37,55.37
201910302017,55.37,55.37,55.35,55.36
201910302018,55.36,55.36,55.35,55.36
201910302019,55.36,55.36,55.31,55.31
201910302020,55.31,55.33,55.29,55.33
201910302021,55.33,55.35,55.33,55.34
201910302022,55.34,55.35,55.32,55.34
201910302023,55.34,55.35,55.34,55.35
201910302024,55.35,55.35,55.35,55.35
201910302025,55.35,55.36,55.34,55.35
201910302026,55.35,55.38,55.35,55.38
201910302027,55.38,55.38,55.37,55.37
201910302028,55.37,55.39,55.37,55.38
201910302029,55.38,55.38,55.36,55.37
201910302030,55.37,55.38,55.36,55.37
201910302031,55.37,55.4,55.37,55.39
201910302032,55.39,55.41,55.38,55.39
201910302033,55.39,55.4,55.39,55.39
201910302034,55.39,55.39,55.38,55.38
201910302035,55.38,55.39,55.38,55.39
201910302036,55.39,55.39,55.37,55.38
201910302037,55.38,55.39,55.38,55.39
201910302038,55.39,55.39,55.38,55.38
201910302039,55.38,55.44,55.38,55.39
201910302040,55.39,55.4,55.38,55.39
201910302041,55.39,55.4,55.38,55.39
201910302042,55.39,55.41,55.39,55.39
201910302043,55.39,55.39,55.36,55.37
201910302044,55.37,55.38,55.35,55.36
201910302045,55.36,55.36,55.33,55.33
201910302046,55.33,55.62,55.33,55.6
201910302047,55.6,55.7,55.6,55.69
201910302048,55.69,55.72,55.63,55.67
201910302049,55.67,55.67,55.6,55.62
201910302050,55.62,55.62,55.59,55.6
201910302051,55.6,55.62,55.6,55.61
201910302052,55.61,55.61,55.58,55.59
201910302053,55.59,55.6,55.57,55.57
201910302054,55.57,55.57,55.56,55.57
201910302055,55.57,55.57,55.55,55.57
201910302056,55.57,55.58,55.54,55.55
201910302057,55.55,55.58,55.55,55.57
201910302058,55.57,55.58,55.56,55.58
201910302059,55.58,55.6,55.58,55.59
201910302100,55.59,55.61,55.58,55.59
201910302101,55.59,55.61,55.57,55.59
201910302102,55.59,55.59,55.57,55.59
201910302103,55.59,55.64,55.56,55.57
201910302104,55.57,55.58,55.56,55.57
201910302105,55.57,55.57,55.55,55.55
201910302106,55.55,55.56,55.53,55.54
201910302107,55.54,55.57,55.53,55.55
201910302108,55.55,55.56,55.54,55.54
201910302109,55.54,55.55,55.52,55.53
201910302110,55.53,55.56,55.52,55.56
201910302111,55.56,55.56,55.55,55.55
201910302112,55.55,55.56,55.54,55.54
201910302113,55.54,55.55,55.52,55.52
201910302114,55.52,55.52,55.49,55.5
201910302115,55.5,55.51,55.49,55.51
201910302116,55.51,55.51,55.21,55.23
201910302117,55.21,55.22,55.11,55.17
201910302118,55.17,55.23,55.17,55.23
201910302119,55.23,55.26,55.23,55.26
201910302120,55.26,55.26,55.21,55.22
201910302121,55.22,55.23,55.2,55.22
201910302122,55.22,55.27,55.21,55.26
201910302123,55.26,55.28,55.26,55.27
201910302124,55.27,55.27,55.25,55.26
201910302125,55.26,55.28,55.25,55.27
201910302126,55.27,55.28,55.26,55.28
201910302127,55.28,55.28,55.26,55.28
201910302128,55.28,55.28,55.27,55.27
201910302129,55.27,55.29,55.26,55.26
201910302130,55.26,55.27,55.23,55.27
201910302131,55.27,55.29,55.25,55.28
201910302132,55.28,55.31,55.28,55.3
201910302133,55.3,55.31,55.29,55.29
201910302134,55.29,55.3,55.28,55.3
201910302135,55.3,55.31,55.29,55.3
201910302136,55.3,55.35,55.28,55.34
201910302137,55.34,55.35,55.32,55.33
201910302138,55.33,55.34,55.3,55.32
201910302139,55.32,55.32,55.31,55.32
201910302140,55.32,55.38,55.32,55.36
201910302141,55.37,55.37,55.36,55.37
201910302142,55.37,55.37,55.34,55.36
201910302143,55.36,55.4,55.36,55.36
201910302144,55.36,55.37,55.35,55.36
201910302145,55.35,55.35,55.32,55.33
201910302146,55.33,55.34,55.3,55.33
201910302147,55.34,55.37,55.33,55.35
201910302148,55.35,55.4,55.35,55.38
201910302149,55.38,55.38,55.34,55.35
201910302150,55.35,55.38,55.34,55.37
201910302151,55.37,55.38,55.34,55.34
201910302152,55.34,55.35,55.32,55.32
201910302153,55.32,55.32,55.28,55.29
201910302154,55.29,55.32,55.28,55.29
201910302155,55.29,55.32,55.29,55.32
201910302156,55.32,55.36,55.31,55.36
201910302157,55.36,55.38,55.34,55.38
201910302158,55.38,55.38,55.35,55.36
201910302159,55.36,55.36,55.31,55.31
201910302200,55.3,55.38,55.3,55.31
201910302201,55.31,55.32,55.28,55.3
201910302202,55.3,55.43,55.3,55.43
201910302203,55.43,55.53,55.43,55.48
201910302204,55.48,55.48,55.42,55.44
201910302205,55.44,55.45,55.41,55.43
201910302206,55.43,55.47,55.43,55.47
201910302207,55.47,55.48,55.42,55.43
201910302208,55.43,55.46,55.41,55.41
201910302209,55.41,55.42,55.39,55.4
201910302210,55.4,55.48,55.4,55.47
201910302211,55.47,55.48,55.43,55.47
201910302212,55.47,55.47,55.44,55.47
201910302213,55.47,55.52,55.45,55.51
201910302214,55.51,55.53,55.5,55.52
201910302215,55.52,55.54,55.46,55.48
201910302216,55.48,55.49,55.46,55.47
201910302217,55.47,55.51,55.47,55.47
201910302218,55.47,55.47,55.44,55.45
201910302219,55.45,55.46,55.42,55.42
201910302220,55.42,55.45,55.42,55.42
201910302221,55.42,55.44,55.41,55.44
201910302222,55.44,55.47,55.43,55.45
201910302223,55.45,55.47,55.45,55.46
201910302224,55.46,55.46,55.4,55.4
201910302225,55.4,55.42,55.39,55.42
201910302226,55.42,55.42,55.37,55.41
201910302227,55.41,55.43,55.41,55.41
201910302228,55.41,55.41,55.39,55.4
201910302229,55.4,55.42,55.38,55.39
201910302230,55.39,55.39,55.28,55.32
201910302231,55.32,55.38,55.32,55.36
201910302232,55.36,55.41,55.35,55.41
201910302233,55.41,55.41,55.38,55.39
201910302234,55.39,55.39,55.31,55.32
201910302235,55.32,55.34,55.3,55.34
201910302236,55.34,55.36,55.32,55.34
201910302237,55.35,55.37,55.34,55.36
201910302238,55.36,55.42,55.35,55.41
201910302239,55.41,55.41,55.35,55.38
201910302240,55.38,55.38,55.32,55.34
201910302241,55.34,55.35,55.22,55.25
201910302242,55.25,55.27,55.23,55.25
201910302243,55.25,55.33,55.25,55.32
201910302244,55.32,55.36,55.29,55.29
201910302245,55.29,55.3,55.26,55.28
201910302246,55.28,55.28,55.25,55.28
201910302247,55.28,55.28,55.26,55.26
201910302248,55.26,55.27,55.22,55.26
201910302249,55.26,55.29,55.25,55.25
201910302250,55.25,55.31,55.22,55.22
201910302251,55.22,55.24,55.2,55.23
201910302252,55.23,55.25,55.21,55.21
201910302253,55.21,55.25,55.2,55.22
201910302254,55.22,55.24,55.21,55.22
201910302255,55.22,55.25,55.2,55.22
201910302256,55.22,55.24,55.21,55.23
201910302257,55.23,55.25,55.21,55.22
201910302258,55.22,55.26,55.21,55.25
201910302259,55.25,55.25,55.21,55.23
201910302300,55.23,55.28,55.2,55.26
201910302301,55.26,55.26,55.21,55.22
201910302302,55.22,55.23,55.19,55.23
201910302303,55.23,55.24,55.06,55.06
201910302304,55.03,55.18,54.89,55.18
201910302305,55.18,55.28,55.16,55.26
201910302306,55.26,55.31,55.23,55.29
201910302307,55.29,55.35,55.28,55.33
201910302308,55.33,55.34,55.29,55.33
201910302309,55.33,55.36,55.3,55.33
201910302310,55.33,55.36,55.28,55.28
201910302311,55.28,55.29,55.25,55.28
201910302312,55.28,55.28,55.22,55.25
201910302313,55.25,55.27,55.17,55.17
201910302314,55.17,55.18,55.14,55.18
201910302315,55.18,55.19,55.09,55.09
201910302316,55.09,55.17,55.09,55.16
201910302317,55.16,55.23,55.15,55.22
201910302318,55.22,55.25,55.21,55.23
201910302319,55.23,55.25,55.2,55.21
201910302320,55.21,55.26,55.21,55.24
201910302321,55.22,55.23,55.16,55.17
201910302322,55.17,55.18,55.14,55.17
201910302323,55.17,55.2,55.15,55.15
201910302324,55.15,55.18,55.12,55.15
201910302325,55.15,55.17,55.14,55.15
201910302326,55.15,55.17,55.13,55.16
201910302327,55.16,55.17,55.13,55.15
201910302328,55.15,55.18,55.14,55.15
201910302329,55.15,55.16,55.11,55.14
201910302330,55.14,55.3,54.75,54.91
201910302331,54.91,55.03,54.89,54.99
201910302332,54.99,55,54.91,55
201910302333,55,55.03,54.97,55
201910302334,55,55.01,54.93,54.99
201910302335,54.99,55.1,54.99,55.08
201910302336,55.08,55.13,55.05,55.1
201910302337,55.1,55.11,55.02,55.02
201910302338,55.02,55.02,54.93,54.99
201910302339,54.99,55,54.96,55
201910302340,55,55.04,54.97,55.02
201910302341,55.02,55.05,55.01,55.03
201910302342,55.03,55.06,55,55
201910302343,55.01,55.07,55.01,55.06
201910302344,55.06,55.09,55.05,55.05
201910302345,55.05,55.08,55.01,55.04
201910302346,55.04,55.16,55.04,55.15
201910302347,55.15,55.17,55.13,55.14
201910302348,55.14,55.16,55.12,55.12
201910302349,55.12,55.12,55.06,55.06
201910302350,55.06,55.09,55.05,55.06
201910302351,55.06,55.09,55.06,55.09
201910302352,55.09,55.13,55.08,55.13
201910302353,55.13,55.15,55.12,55.13
201910302354,55.13,55.17,55.12,55.17
201910302355,55.17,55.2,55.11,55.11
201910302356,55.11,55.12,55.09,55.11
201910302357,55.11,55.11,54.99,55.01
201910302358,55.01,55.06,55,55
201910302359,55,55.02,54.96,54.98
201910310000,54.98,54.99,54.86,54.86
201910310001,54.86,54.86,54.79,54.82
201910310002,54.82,54.91,54.76,54.91
201910310003,54.91,54.97,54.88,54.88
201910310004,54.88,54.88,54.8,54.82
201910310005,54.82,54.83,54.69,54.81
201910310006,54.81,54.83,54.74,54.74
201910310007,54.74,54.76,54.67,54.76
201910310008,54.76,54.8,54.74,54.75
201910310009,54.75,54.76,54.71,54.75
201910310010,54.75,54.86,54.72,54.84
201910310011,54.84,54.89,54.83,54.85
201910310012,54.85,54.9,54.84,54.89
201910310013,54.89,54.92,54.88,54.9
201910310014,54.9,54.91,54.87,54.88
201910310015,54.88,54.88,54.81,54.84
201910310016,54.84,54.87,54.83,54.86
201910310017,54.86,54.88,54.85,54.87
201910310018,54.87,54.9,54.84,54.84
201910310019,54.84,54.88,54.83,54.87
201910310020,54.87,54.88,54.81,54.81
201910310021,54.81,54.85,54.81,54.83
201910310022,54.83,54.83,54.8,54.8
201910310023,54.8,54.83,54.79,54.79
201910310024,54.79,54.81,54.76,54.78
201910310025,54.78,54.83,54.76,54.82
201910310026,54.82,54.83,54.8,54.82
201910310027,54.82,54.82,54.72,54.74
201910310028,54.74,54.81,54.74,54.81
201910310029,54.81,54.86,54.79,54.85
201910310030,54.85,54.87,54.81,54.86
201910310031,54.86,54.89,54.86,54.89
201910310032,54.89,54.9,54.88,54.89
201910310033,54.89,54.89,54.82,54.82
201910310034,54.82,54.84,54.81,54.84
201910310035,54.84,54.86,54.8,54.81
201910310036,54.81,54.81,54.76,54.76
201910310037,54.76,54.77,54.73,54.74
201910310038,54.74,54.77,54.74,54.74
201910310039,54.74,54.8,54.74,54.77
201910310040,54.77,54.79,54.56,54.63
201910310041,54.63,54.69,54.59,54.69
201910310042,54.69,54.75,54.66,54.69
201910310043,54.69,54.71,54.63,54.65
201910310044,54.65,54.67,54.61,54.61
201910310045,54.61,54.68,54.59,54.6
201910310046,54.6,54.6,54.48,54.51
201910310047,54.51,54.56,54.49,54.52
201910310048,54.53,54.55,54.5,54.5
201910310049,54.5,54.55,54.5,54.54
201910310050,54.54,54.58,54.53,54.58
201910310051,54.58,54.59,54.55,54.57
201910310052,54.57,54.6,54.56,54.57
201910310053,54.57,54.59,54.56,54.58
201910310054,54.59,54.65,54.59,54.64
201910310055,54.64,54.65,54.59,54.6
201910310056,54.6,54.61,54.58,54.58
201910310057,54.58,54.63,54.56,54.62
201910310058,54.62,54.65,54.61,54.65
201910310059,54.65,54.65,54.61,54.63
201910310100,54.63,54.68,54.61,54.66
201910310101,54.66,54.7,54.66,54.68
201910310102,54.68,54.68,54.64,54.68
201910310103,54.68,54.7,54.63,54.65
201910310104,54.65,54.66,54.62,54.64
201910310105,54.64,54.69,54.64,54.69
201910310106,54.69,54.71,54.66,54.7
201910310107,54.7,54.73,54.67,54.72
201910310108,54.72,54.72,54.69,54.7
201910310109,54.71,54.72,54.67,54.68
201910310110,54.68,54.71,54.68,54.68
201910310111,54.68,54.72,54.68,54.71
201910310112,54.71,54.71,54.67,54.69
201910310113,54.69,54.7,54.67,54.69
201910310114,54.69,54.69,54.67,54.68
201910310115,54.68,54.69,54.62,54.63
201910310116,54.63,54.64,54.61,54.61
201910310117,54.61,54.64,54.61,54.62
201910310118,54.62,54.65,54.62,54.62
201910310119,54.62,54.64,54.59,54.62
201910310120,54.62,54.63,54.6,54.6
201910310121,54.6,54.63,54.6,54.63
201910310122,54.63,54.66,54.63,54.65
201910310123,54.65,54.66,54.63,54.65
201910310124,54.65,54.67,54.53,54.53
201910310125,54.53,54.6,54.51,54.56
201910310126,54.56,54.57,54.54,54.54
201910310127,54.54,54.54,54.48,54.49
201910310128,54.49,54.52,54.45,54.45
201910310129,54.45,54.55,54.43,54.5
201910310130,54.5,54.51,54.42,54.47
201910310131,54.46,54.52,54.43,54.51
201910310132,54.51,54.54,54.51,54.53
201910310133,54.53,54.53,54.5,54.52
201910310134,54.52,54.56,54.52,54.56
201910310135,54.56,54.56,54.54,54.54
201910310136,54.54,54.55,54.52,54.54
201910310137,54.54,54.54,54.53,54.54
201910310138,54.54,54.55,54.53,54.55
201910310139,54.55,54.58,54.54,54.56
201910310140,54.55,54.57,54.54,54.56
201910310141,54.56,54.57,54.54,54.54
201910310142,54.54,54.56,54.53,54.55
201910310143,54.55,54.57,54.54,54.55
201910310144,54.55,54.55,54.49,54.5
201910310145,54.5,54.55,54.49,54.55
201910310146,54.55,54.58,54.53,54.58
201910310147,54.58,54.61,54.58,54.6
201910310148,54.6,54.62,54.58,54.58
201910310149,54.58,54.58,54.54,54.56
201910310150,54.56,54.63,54.56,54.61
201910310151,54.61,54.68,54.6,54.67
201910310152,54.67,54.7,54.67,54.69
201910310153,54.69,54.7,54.67,54.7
201910310154,54.7,54.71,54.68,54.69
201910310155,54.69,54.73,54.69,54.73
201910310156,54.73,54.74,54.71,54.73
201910310157,54.73,54.78,54.72,54.76
201910310158,54.76,54.79,54.76,54.77
201910310159,54.77,54.8,54.76,54.79
201910310200,54.79,54.82,54.78,54.81
201910310201,54.81,54.86,54.81,54.85
201910310202,54.85,54.87,54.83,54.87
201910310203,54.87,54.89,54.87,54.88
201910310204,54.88,54.89,54.87,54.89
201910310205,54.89,54.9,54.84,54.9
201910310206,54.9,54.9,54.84,54.86
201910310207,54.86,54.93,54.85,54.9
201910310208,54.9,54.91,54.85,54.85
201910310209,54.85,54.87,54.83,54.87
201910310210,54.87,54.87,54.83,54.83
201910310211,54.83,54.84,54.81,54.83
201910310212,54.83,54.87,54.83,54.85
201910310213,54.85,54.85,54.79,54.8
201910310214,54.8,54.81,54.78,54.78
201910310215,54.78,54.78,54.75,54.76
201910310216,54.76,54.77,54.75,54.76
201910310217,54.76,54.77,54.72,54.74
201910310218,54.74,54.77,54.73,54.77
201910310219,54.77,54.77,54.72,54.73
201910310220,54.73,54.76,54.73,54.73
201910310221,54.73,54.77,54.73,54.77
201910310222,54.77,54.81,54.77,54.8
201910310223,54.8,54.82,54.79,54.8
201910310224,54.8,54.8,54.76,54.76
201910310225,54.76,54.77,54.55,54.61
201910310226,54.61,54.63,54.55,54.61
201910310227,54.61,54.62,54.58,54.59
201910310228,54.59,54.69,54.58,54.68
201910310229,54.67,54.7,54.66,54.68
201910310230,54.68,54.69,54.61,54.66
201910310231,54.66,54.69,54.64,54.65
201910310232,54.65,54.67,54.61,54.62
201910310233,54.62,54.63,54.59,54.61
201910310234,54.61,54.64,54.58,54.63
201910310235,54.63,54.64,54.58,54.58
201910310236,54.58,54.58,54.53,54.55
201910310237,54.55,54.55,54.46,54.52
201910310238,54.52,54.52,54.47,54.49
201910310239,54.49,54.6,54.48,54.6
201910310240,54.6,54.61,54.55,54.56
201910310241,54.56,54.56,54.54,54.56
201910310242,54.56,54.56,54.53,54.55
201910310243,54.55,54.58,54.54,54.58
201910310244,54.58,54.6,54.56,54.59
201910310245,54.59,54.59,54.55,54.55
201910310246,54.55,54.61,54.55,54.61
201910310247,54.61,54.65,54.56,54.57
201910310248,54.57,54.57,54.54,54.56
201910310249,54.56,54.59,54.55,54.59
201910310250,54.59,54.62,54.59,54.6
201910310251,54.6,54.65,54.6,54.63
201910310252,54.63,54.64,54.62,54.63
201910310253,54.63,54.63,54.61,54.62
201910310254,54.62,54.63,54.61,54.62
201910310255,54.62,54.66,54.62,54.65
201910310256,54.65,54.69,54.65,54.67
201910310257,54.67,54.69,54.66,54.67
201910310258,54.67,54.7,54.67,54.69
201910310259,54.69,54.7,54.67,54.68
201910310300,54.68,54.7,54.65,54.68
201910310301,54.68,54.79,54.68,54.79
201910310302,54.79,54.79,54.71,54.74
201910310303,54.73,54.74,54.6,54.64
201910310304,54.64,54.68,54.62,54.67
201910310305,54.67,54.69,54.64,54.64
201910310306,54.64,54.71,54.63,54.69
201910310307,54.69,54.69,54.61,54.61
201910310308,54.61,54.62,54.57,54.62
201910310309,54.61,54.72,54.58,54.72
201910310310,54.72,54.84,54.71,54.83
201910310311,54.82,54.87,54.82,54.83
201910310312,54.83,54.88,54.82,54.83
201910310313,54.83,54.86,54.82,54.82
201910310314,54.82,54.83,54.81,54.83
201910310315,54.83,54.86,54.81,54.86
201910310316,54.86,54.9,54.85,54.85
201910310317,54.85,54.88,54.83,54.86
201910310318,54.86,54.87,54.79,54.8
201910310319,54.8,54.85,54.8,54.85
201910310320,54.85,54.99,54.85,54.98
201910310321,54.99,55.06,54.97,54.97
201910310322,54.97,55.02,54.97,54.98
201910310323,54.98,55.07,54.97,55.07
201910310324,55.07,55.12,55.06,55.11
201910310325,55.11,55.17,55.11,55.12
201910310326,55.12,55.16,55.02,55.08
201910310327,55.07,55.07,55,55.06
201910310328,55.06,55.09,55.01,55.03
201910310329,55.03,55.09,55.02,55.06
201910310330,55.06,55.08,55.01,55.04
201910310331,55.04,55.12,55.03,55.11
201910310332,55.11,55.12,55.08,55.08
201910310333,55.08,55.08,55.05,55.05
201910310334,55.05,55.06,55.03,55.03
201910310335,55.03,55.06,55.03,55.05
201910310336,55.05,55.07,55.04,55.07
201910310337,55.07,55.07,55.03,55.03
201910310338,55.03,55.03,54.98,54.99
201910310339,54.99,54.99,54.97,54.97
201910310340,54.97,54.97,54.91,54.92
201910310341,54.92,54.93,54.9,54.91
201910310342,54.92,54.92,54.89,54.9
201910310343,54.9,54.98,54.9,54.97
201910310344,54.97,55.01,54.96,54.97
201910310345,54.97,54.97,54.95,54.95
201910310346,54.95,54.96,54.92,54.92
201910310347,54.92,54.92,54.89,54.91
201910310348,54.91,54.91,54.85,54.89
201910310349,54.89,54.9,54.85,54.89
201910310350,54.89,54.92,54.88,54.9
201910310351,54.9,54.91,54.89,54.9
201910310352,54.9,54.9,54.87,54.87
201910310353,54.87,54.87,54.84,54.85
201910310354,54.85,54.85,54.83,54.83
201910310355,54.83,54.86,54.81,54.82
201910310356,54.82,54.82,54.76,54.78
201910310357,54.78,54.84,54.78,54.84
201910310358,54.84,54.88,54.83,54.83
201910310359,54.83,54.89,54.83,54.87
201910310400,54.87,54.91,54.86,54.9
201910310401,54.9,54.91,54.89,54.9
201910310402,54.9,54.92,54.85,54.86
201910310403,54.86,54.86,54.82,54.83
201910310404,54.83,54.84,54.83,54.83
201910310405,54.83,54.85,54.8,54.81
201910310406,54.81,54.82,54.81,54.81
201910310407,54.81,54.82,54.8,54.81
201910310408,54.81,54.82,54.77,54.78
201910310409,54.78,54.79,54.77,54.77
201910310410,54.77,54.8,54.77,54.77
201910310411,54.77,54.77,54.72,54.74
201910310412,54.74,54.77,54.73,54.76
201910310413,54.76,54.77,54.73,54.73
201910310414,54.73,54.75,54.73,54.75
201910310415,54.75,54.75,54.74,54.75
201910310416,54.76,54.77,54.75,54.76
201910310417,54.76,54.77,54.75,54.75
201910310418,54.75,54.76,54.75,54.76
201910310419,54.76,54.77,54.76,54.77
201910310420,54.77,54.77,54.75,54.76
201910310421,54.76,54.79,54.73,54.78
201910310422,54.78,54.82,54.78,54.81
201910310423,54.81,54.83,54.81,54.83
201910310424,54.83,54.85,54.8,54.8
201910310425,54.8,54.82,54.78,54.78
201910310426,54.78,54.8,54.78,54.8
201910310427,54.8,54.85,54.8,54.85
201910310428,54.85,54.85,54.83,54.84
201910310429,54.84,54.87,54.84,54.86
201910310430,54.86,54.88,54.86,54.87
201910310431,54.87,54.87,54.87,54.87
201910310432,54.87,54.88,54.87,54.87
201910310433,54.87,54.89,54.86,54.87
201910310434,54.87,54.89,54.87,54.88
201910310435,54.88,54.89,54.88,54.89
201910310436,54.89,54.89,54.87,54.87
201910310437,54.87,54.89,54.87,54.88
201910310438,54.88,54.88,54.87,54.88
201910310439,54.88,54.88,54.86,54.86
201910310440,54.86,54.86,54.85,54.86
201910310441,54.86,54.9,54.86,54.88
201910310442,54.88,54.89,54.87,54.88
201910310443,54.88,54.88,54.86,54.87
201910310444,54.87,54.89,54.85,54.88
201910310445,54.88,54.88,54.87,54.87
201910310446,54.87,54.88,54.86,54.87
201910310447,54.87,54.89,54.87,54.87
201910310448,54.87,54.88,54.87,54.87
201910310449,54.87,54.87,54.86,54.87
201910310450,54.87,54.88,54.86,54.86
201910310451,54.86,54.88,54.86,54.88
201910310452,54.88,54.88,54.87,54.87
201910310453,54.87,54.89,54.87,54.89
201910310454,54.89,54.89,54.88,54.89
201910310455,54.89,54.89,54.87,54.89
201910310456,54.89,54.89,54.88,54.88
201910310457,54.88,54.89,54.88,54.89
201910310458,54.89,54.89,54.89,54.89
201910310459,54.89,54.91,54.89,54.89
201910310500,54.89,54.9,54.88,54.88
201910310501,54.88,54.89,54.88,54.88
201910310502,54.88,54.89,54.88,54.89
201910310503,54.89,54.9,54.89,54.9
201910310504,54.9,54.92,54.9,54.91
201910310505,54.91,54.93,54.9,54.91
201910310506,54.91,54.92,54.91,54.92
201910310507,54.92,54.92,54.91,54.92
201910310508,54.92,54.94,54.91,54.94
201910310509,54.94,54.94,54.92,54.93
201910310510,54.92,54.94,54.92,54.94
201910310511,54.94,54.95,54.93,54.93
201910310512,54.93,54.95,54.93,54.94
201910310513,54.94,54.94,54.91,54.91
201910310514,54.91,54.91,54.86,54.87
201910310515,54.87,54.88,54.86,54.87
201910310516,54.87,54.88,54.87,54.88
201910310517,54.88,54.9,54.87,54.9
201910310518,54.9,54.9,54.89,54.9
201910310519,54.9,54.9,54.89,54.89
201910310520,54.89,54.9,54.89,54.9
201910310521,54.9,54.9,54.89,54.89
201910310522,54.89,54.89,54.89,54.89
201910310523,54.89,54.9,54.89,54.89
201910310524,54.89,54.89,54.88,54.88
201910310525,54.88,54.9,54.88,54.89
201910310526,54.89,54.89,54.88,54.89
201910310527,54.89,54.89,54.88,54.89
201910310528,54.89,54.89,54.88,54.88
201910310529,54.88,54.88,54.87,54.88
201910310530,54.88,54.89,54.86,54.89
201910310531,54.89,54.9,54.88,54.89
201910310532,54.89,54.89,54.88,54.88
201910310533,54.88,54.88,54.87,54.88
201910310534,54.88,54.89,54.88,54.88
201910310535,54.88,54.89,54.88,54.89
201910310536,54.89,54.89,54.89,54.89
201910310537,54.89,54.89,54.88,54.88
201910310538,54.88,54.89,54.88,54.89
201910310539,54.89,54.9,54.89,54.9
201910310540,54.9,54.9,54.89,54.89
201910310541,54.89,54.89,54.87,54.87
201910310542,54.87,54.87,54.85,54.86
201910310543,54.86,54.88,54.86,54.88
201910310544,54.87,54.88,54.87,54.87
201910310545,54.87,54.89,54.87,54.88
201910310546,54.88,54.88,54.86,54.87
201910310547,54.87,54.87,54.84,54.85
201910310548,54.85,54.86,54.85,54.86
201910310549,54.86,54.86,54.85,54.85
201910310550,54.85,54.85,54.82,54.84
201910310551,54.84,54.84,54.83,54.84
201910310552,54.84,54.86,54.84,54.86
201910310553,54.86,54.87,54.86,54.86
201910310554,54.86,54.86,54.86,54.86
201910310555,54.86,54.87,54.86,54.87
201910310556,54.87,54.9,54.87,54.9
201910310557,54.9,54.91,54.89,54.9
201910310558,54.9,54.9,54.89,54.89
201910310559,54.89,54.89,54.89,54.89
