日時,始値(BID),高値(BID),安値(BID),終値(BID)
201910030700,52.46,52.52,52.44,52.49
201910030701,52.49,52.49,52.45,52.47
201910030702,52.47,52.47,52.47,52.47
201910030703,52.47,52.47,52.47,52.47
201910030704,52.47,52.48,52.47,52.48
201910030705,52.48,52.49,52.48,52.49
201910030706,52.49,52.49,52.49,52.49
201910030707,52.49,52.49,52.48,52.48
201910030708,52.48,52.48,52.48,52.48
201910030709,52.48,52.49,52.48,52.49
201910030710,52.49,52.49,52.49,52.49
201910030711,52.49,52.51,52.49,52.51
201910030712,52.51,52.52,52.51,52.52
201910030713,52.52,52.53,52.52,52.53
201910030714,52.53,52.53,52.53,52.53
201910030715,52.53,52.53,52.52,52.53
201910030716,52.53,52.53,52.53,52.53
201910030717,52.53,52.55,52.53,52.53
201910030718,52.53,52.54,52.53,52.54
201910030719,52.54,52.54,52.54,52.54
201910030720,52.54,52.54,52.53,52.53
201910030721,52.53,52.53,52.51,52.51
201910030722,52.51,52.51,52.51,52.51
201910030723,52.51,52.51,52.49,52.5
201910030724,52.5,52.5,52.49,52.5
201910030725,52.5,52.5,52.49,52.49
201910030726,52.49,52.49,52.49,52.49
201910030727,52.49,52.5,52.49,52.5
201910030728,52.5,52.5,52.5,52.5
201910030729,52.5,52.51,52.49,52.49
201910030730,52.49,52.5,52.48,52.5
201910030731,52.5,52.51,52.5,52.51
201910030732,52.51,52.53,52.51,52.52
201910030733,52.52,52.55,52.52,52.53
201910030734,52.53,52.54,52.53,52.54
201910030735,52.54,52.54,52.53,52.53
201910030736,52.53,52.54,52.52,52.53
201910030737,52.53,52.54,52.53,52.53
201910030738,52.53,52.54,52.53,52.54
201910030739,52.54,52.54,52.53,52.53
201910030740,52.53,52.54,52.53,52.54
201910030741,52.54,52.54,52.54,52.54
201910030742,52.54,52.54,52.54,52.54
201910030743,52.54,52.54,52.54,52.54
201910030744,52.54,52.54,52.54,52.54
201910030745,52.54,52.55,52.54,52.54
201910030746,52.54,52.54,52.52,52.52
201910030747,52.52,52.52,52.5,52.51
201910030748,52.51,52.52,52.51,52.52
201910030749,52.52,52.53,52.52,52.53
201910030750,52.53,52.54,52.53,52.54
201910030751,52.54,52.55,52.53,52.55
201910030752,52.55,52.57,52.54,52.57
201910030753,52.57,52.57,52.56,52.56
201910030754,52.56,52.59,52.55,52.58
201910030755,52.58,52.58,52.56,52.56
201910030756,52.56,52.58,52.56,52.58
201910030757,52.58,52.58,52.57,52.58
201910030758,52.58,52.59,52.58,52.58
201910030759,52.58,52.58,52.57,52.57
201910030800,52.57,52.58,52.57,52.58
201910030801,52.58,52.58,52.55,52.56
201910030802,52.56,52.56,52.55,52.55
201910030803,52.55,52.56,52.54,52.56
201910030804,52.56,52.56,52.55,52.56
201910030805,52.55,52.56,52.55,52.56
201910030806,52.56,52.56,52.55,52.56
201910030807,52.56,52.56,52.56,52.56
201910030808,52.56,52.56,52.56,52.56
201910030809,52.56,52.58,52.56,52.58
201910030810,52.58,52.58,52.57,52.57
201910030811,52.57,52.59,52.57,52.58
201910030812,52.58,52.59,52.58,52.58
201910030813,52.58,52.58,52.56,52.57
201910030814,52.57,52.57,52.56,52.56
201910030815,52.56,52.56,52.55,52.55
201910030816,52.55,52.56,52.55,52.56
201910030817,52.56,52.57,52.56,52.57
201910030818,52.57,52.57,52.56,52.56
201910030819,52.56,52.56,52.56,52.56
201910030820,52.56,52.56,52.56,52.56
201910030821,52.56,52.56,52.54,52.54
201910030822,52.54,52.54,52.54,52.54
201910030823,52.54,52.55,52.53,52.54
201910030824,52.54,52.56,52.54,52.56
201910030825,52.56,52.56,52.56,52.56
201910030826,52.56,52.57,52.56,52.57
201910030827,52.57,52.57,52.56,52.56
201910030828,52.56,52.56,52.56,52.56
201910030829,52.56,52.56,52.56,52.56
201910030830,52.56,52.56,52.54,52.54
201910030831,52.54,52.54,52.51,52.52
201910030832,52.52,52.52,52.51,52.51
201910030833,52.51,52.53,52.51,52.52
201910030834,52.52,52.53,52.52,52.53
201910030835,52.53,52.53,52.52,52.52
201910030836,52.52,52.52,52.52,52.52
201910030837,52.52,52.52,52.51,52.52
201910030838,52.52,52.52,52.52,52.52
201910030839,52.52,52.52,52.51,52.51
201910030840,52.51,52.52,52.51,52.52
201910030841,52.52,52.52,52.51,52.51
201910030842,52.51,52.51,52.51,52.51
201910030843,52.51,52.51,52.51,52.51
201910030844,52.51,52.51,52.5,52.5
201910030845,52.5,52.51,52.5,52.51
201910030846,52.51,52.51,52.49,52.5
201910030847,52.5,52.5,52.5,52.5
201910030848,52.5,52.51,52.5,52.51
201910030849,52.51,52.52,52.5,52.52
201910030850,52.52,52.52,52.5,52.51
201910030851,52.51,52.51,52.49,52.5
201910030852,52.5,52.5,52.49,52.49
201910030853,52.49,52.5,52.49,52.49
201910030854,52.49,52.49,52.47,52.47
201910030855,52.47,52.49,52.47,52.48
201910030856,52.48,52.48,52.46,52.48
201910030857,52.48,52.49,52.47,52.49
201910030858,52.49,52.5,52.49,52.49
201910030859,52.49,52.49,52.48,52.49
201910030900,52.49,52.49,52.41,52.46
201910030901,52.46,52.46,52.44,52.44
201910030902,52.44,52.45,52.4,52.42
201910030903,52.42,52.47,52.42,52.46
201910030904,52.46,52.48,52.45,52.45
201910030905,52.45,52.47,52.43,52.46
201910030906,52.46,52.47,52.45,52.46
201910030907,52.46,52.46,52.43,52.44
201910030908,52.44,52.46,52.44,52.45
201910030909,52.45,52.47,52.45,52.47
201910030910,52.47,52.47,52.45,52.47
201910030911,52.47,52.49,52.46,52.47
201910030912,52.47,52.48,52.44,52.44
201910030913,52.44,52.47,52.43,52.46
201910030914,52.46,52.48,52.46,52.48
201910030915,52.48,52.49,52.48,52.49
201910030916,52.49,52.49,52.46,52.47
201910030917,52.47,52.48,52.46,52.47
201910030918,52.47,52.47,52.46,52.47
201910030919,52.47,52.48,52.47,52.47
201910030920,52.47,52.5,52.46,52.49
201910030921,52.49,52.5,52.47,52.47
201910030922,52.47,52.48,52.47,52.47
201910030923,52.47,52.49,52.47,52.49
201910030924,52.49,52.49,52.47,52.48
201910030925,52.48,52.49,52.46,52.49
201910030926,52.49,52.49,52.48,52.48
201910030927,52.48,52.5,52.48,52.5
201910030928,52.5,52.51,52.49,52.5
201910030929,52.5,52.5,52.49,52.49
201910030930,52.49,52.5,52.49,52.49
201910030931,52.49,52.5,52.49,52.49
201910030932,52.49,52.49,52.47,52.48
201910030933,52.48,52.49,52.48,52.49
201910030934,52.49,52.5,52.49,52.49
201910030935,52.49,52.49,52.48,52.49
201910030936,52.49,52.49,52.48,52.48
201910030937,52.48,52.48,52.46,52.46
201910030938,52.46,52.46,52.43,52.44
201910030939,52.44,52.44,52.41,52.42
201910030940,52.42,52.43,52.4,52.41
201910030941,52.41,52.45,52.41,52.45
201910030942,52.45,52.45,52.43,52.43
201910030943,52.43,52.44,52.42,52.43
201910030944,52.43,52.44,52.43,52.44
201910030945,52.44,52.44,52.42,52.44
201910030946,52.44,52.45,52.43,52.45
201910030947,52.45,52.47,52.45,52.47
201910030948,52.47,52.48,52.47,52.48
201910030949,52.48,52.51,52.48,52.51
201910030950,52.51,52.52,52.49,52.51
201910030951,52.51,52.54,52.51,52.54
201910030952,52.54,52.55,52.54,52.55
201910030953,52.55,52.58,52.55,52.57
201910030954,52.57,52.58,52.57,52.58
201910030955,52.58,52.58,52.56,52.56
201910030956,52.56,52.58,52.56,52.58
201910030957,52.58,52.62,52.57,52.62
201910030958,52.62,52.65,52.61,52.65
201910030959,52.65,52.67,52.65,52.67
201910031000,52.67,52.73,52.67,52.72
201910031001,52.73,52.75,52.71,52.74
201910031002,52.74,52.75,52.71,52.73
201910031003,52.73,52.74,52.72,52.73
201910031004,52.73,52.76,52.72,52.76
201910031005,52.76,52.76,52.73,52.74
201910031006,52.74,52.78,52.74,52.77
201910031007,52.77,52.79,52.75,52.76
201910031008,52.76,52.77,52.76,52.76
201910031009,52.76,52.79,52.76,52.78
201910031010,52.78,52.79,52.76,52.78
201910031011,52.78,52.81,52.78,52.79
201910031012,52.79,52.8,52.78,52.78
201910031013,52.78,52.78,52.77,52.77
201910031014,52.77,52.78,52.76,52.77
201910031015,52.77,52.78,52.76,52.77
201910031016,52.77,52.77,52.76,52.77
201910031017,52.77,52.78,52.77,52.77
201910031018,52.77,52.77,52.76,52.76
201910031019,52.76,52.76,52.76,52.76
201910031020,52.76,52.79,52.76,52.79
201910031021,52.79,52.82,52.79,52.82
201910031022,52.82,52.83,52.8,52.83
201910031023,52.83,52.83,52.81,52.83
201910031024,52.83,52.86,52.83,52.85
201910031025,52.85,52.86,52.83,52.86
201910031026,52.86,52.87,52.85,52.87
201910031027,52.87,52.87,52.87,52.87
201910031028,52.87,52.88,52.86,52.86
201910031029,52.86,52.86,52.84,52.84
201910031030,52.84,52.84,52.83,52.83
201910031031,52.83,52.85,52.83,52.84
201910031032,52.84,52.88,52.84,52.87
201910031033,52.87,52.9,52.87,52.89
201910031034,52.89,52.9,52.83,52.83
201910031035,52.83,52.85,52.83,52.83
201910031036,52.83,52.84,52.81,52.83
201910031037,52.83,52.83,52.82,52.82
201910031038,52.82,52.84,52.82,52.82
201910031039,52.82,52.83,52.82,52.82
201910031040,52.82,52.82,52.81,52.81
201910031041,52.81,52.82,52.8,52.8
201910031042,52.8,52.81,52.79,52.8
201910031043,52.8,52.81,52.8,52.81
201910031044,52.81,52.81,52.79,52.81
201910031045,52.81,52.81,52.8,52.8
201910031046,52.8,52.8,52.79,52.79
201910031047,52.79,52.82,52.79,52.82
201910031048,52.82,52.82,52.79,52.8
201910031049,52.8,52.81,52.8,52.8
201910031050,52.8,52.8,52.79,52.8
201910031051,52.8,52.8,52.79,52.8
201910031052,52.8,52.81,52.8,52.8
201910031053,52.8,52.82,52.8,52.81
201910031054,52.81,52.82,52.77,52.77
201910031055,52.77,52.79,52.77,52.79
201910031056,52.79,52.8,52.79,52.8
201910031057,52.8,52.8,52.79,52.8
201910031058,52.8,52.82,52.8,52.8
201910031059,52.8,52.81,52.8,52.8
201910031100,52.8,52.8,52.77,52.77
201910031101,52.77,52.8,52.76,52.79
201910031102,52.79,52.83,52.78,52.82
201910031103,52.82,52.84,52.82,52.82
201910031104,52.82,52.83,52.81,52.82
201910031105,52.82,52.83,52.81,52.82
201910031106,52.82,52.83,52.82,52.82
201910031107,52.82,52.84,52.82,52.84
201910031108,52.84,52.85,52.84,52.85
201910031109,52.84,52.86,52.84,52.85
201910031110,52.85,52.86,52.84,52.85
201910031111,52.85,52.88,52.85,52.87
201910031112,52.87,52.87,52.84,52.85
201910031113,52.85,52.85,52.83,52.84
201910031114,52.84,52.84,52.83,52.84
201910031115,52.84,52.85,52.83,52.84
201910031116,52.84,52.84,52.82,52.82
201910031117,52.82,52.82,52.81,52.82
201910031118,52.82,52.83,52.82,52.82
201910031119,52.82,52.82,52.8,52.81
201910031120,52.81,52.83,52.8,52.82
201910031121,52.82,52.83,52.82,52.82
201910031122,52.82,52.82,52.81,52.82
201910031123,52.82,52.83,52.82,52.83
201910031124,52.83,52.84,52.83,52.84
201910031125,52.84,52.84,52.83,52.83
201910031126,52.83,52.85,52.83,52.85
201910031127,52.85,52.85,52.83,52.85
201910031128,52.85,52.85,52.84,52.84
201910031129,52.84,52.86,52.84,52.86
201910031130,52.86,52.87,52.85,52.85
201910031131,52.85,52.85,52.85,52.85
201910031132,52.85,52.87,52.85,52.86
201910031133,52.86,52.86,52.85,52.86
201910031134,52.86,52.87,52.86,52.86
201910031135,52.86,52.86,52.81,52.83
201910031136,52.83,52.83,52.81,52.81
201910031137,52.81,52.82,52.81,52.81
201910031138,52.81,52.82,52.8,52.81
201910031139,52.81,52.81,52.81,52.81
201910031140,52.81,52.81,52.81,52.81
201910031141,52.81,52.81,52.8,52.8
201910031142,52.8,52.81,52.8,52.81
201910031143,52.81,52.81,52.8,52.8
201910031144,52.8,52.81,52.8,52.8
201910031145,52.8,52.81,52.79,52.8
201910031146,52.8,52.81,52.79,52.8
201910031147,52.8,52.8,52.78,52.78
201910031148,52.78,52.78,52.77,52.77
201910031149,52.77,52.78,52.76,52.77
201910031150,52.77,52.78,52.77,52.78
201910031151,52.78,52.78,52.75,52.76
201910031152,52.76,52.77,52.76,52.77
201910031153,52.77,52.77,52.76,52.76
201910031154,52.76,52.77,52.76,52.77
201910031155,52.77,52.77,52.77,52.77
201910031156,52.77,52.77,52.75,52.75
201910031157,52.75,52.76,52.75,52.75
201910031158,52.75,52.76,52.74,52.75
201910031159,52.75,52.75,52.74,52.74
201910031200,52.74,52.76,52.74,52.75
201910031201,52.76,52.77,52.75,52.76
201910031202,52.76,52.77,52.76,52.76
201910031203,52.76,52.78,52.76,52.77
201910031204,52.77,52.79,52.77,52.78
201910031205,52.78,52.78,52.78,52.78
201910031206,52.78,52.78,52.77,52.78
201910031207,52.78,52.81,52.77,52.81
201910031208,52.81,52.81,52.79,52.8
201910031209,52.8,52.81,52.79,52.8
201910031210,52.8,52.8,52.79,52.79
201910031211,52.79,52.79,52.78,52.79
201910031212,52.79,52.8,52.79,52.8
201910031213,52.8,52.8,52.79,52.8
201910031214,52.8,52.81,52.8,52.81
201910031215,52.81,52.81,52.8,52.81
201910031216,52.81,52.82,52.8,52.81
201910031217,52.81,52.82,52.79,52.8
201910031218,52.8,52.81,52.8,52.8
201910031219,52.8,52.81,52.79,52.8
201910031220,52.8,52.8,52.79,52.79
201910031221,52.79,52.79,52.78,52.78
201910031222,52.78,52.79,52.78,52.78
201910031223,52.78,52.78,52.78,52.78
201910031224,52.78,52.8,52.78,52.8
201910031225,52.8,52.8,52.79,52.79
201910031226,52.79,52.81,52.79,52.8
201910031227,52.8,52.81,52.8,52.81
201910031228,52.81,52.81,52.81,52.81
201910031229,52.81,52.81,52.8,52.8
201910031230,52.8,52.8,52.8,52.8
201910031231,52.8,52.81,52.8,52.8
201910031232,52.8,52.81,52.8,52.81
201910031233,52.81,52.81,52.8,52.81
201910031234,52.81,52.82,52.8,52.82
201910031235,52.82,52.82,52.81,52.82
201910031236,52.82,52.82,52.79,52.8
201910031237,52.8,52.81,52.79,52.81
201910031238,52.8,52.81,52.79,52.79
201910031239,52.79,52.8,52.79,52.79
201910031240,52.79,52.81,52.79,52.81
201910031241,52.81,52.81,52.8,52.8
201910031242,52.8,52.8,52.8,52.8
201910031243,52.8,52.8,52.79,52.8
201910031244,52.8,52.8,52.79,52.8
201910031245,52.8,52.81,52.79,52.79
201910031246,52.79,52.8,52.79,52.8
201910031247,52.79,52.79,52.79,52.79
201910031248,52.79,52.8,52.79,52.79
201910031249,52.79,52.8,52.79,52.8
201910031250,52.8,52.81,52.8,52.81
201910031251,52.81,52.81,52.8,52.81
201910031252,52.81,52.81,52.8,52.81
201910031253,52.81,52.81,52.8,52.81
201910031254,52.81,52.82,52.81,52.82
201910031255,52.82,52.82,52.81,52.81
201910031256,52.81,52.82,52.81,52.82
201910031257,52.82,52.82,52.82,52.82
201910031258,52.82,52.82,52.82,52.82
201910031259,52.82,52.83,52.82,52.82
201910031300,52.82,52.83,52.82,52.82
201910031301,52.82,52.82,52.82,52.82
201910031302,52.82,52.82,52.81,52.81
201910031303,52.81,52.81,52.79,52.79
201910031304,52.79,52.79,52.78,52.78
201910031305,52.78,52.81,52.78,52.79
201910031306,52.79,52.8,52.79,52.79
201910031307,52.79,52.79,52.77,52.78
201910031308,52.78,52.79,52.78,52.78
201910031309,52.78,52.78,52.77,52.78
201910031310,52.78,52.78,52.78,52.78
201910031311,52.78,52.79,52.78,52.79
201910031312,52.79,52.8,52.79,52.79
201910031313,52.79,52.8,52.79,52.8
201910031314,52.8,52.8,52.79,52.8
201910031315,52.8,52.8,52.79,52.79
201910031316,52.79,52.8,52.78,52.78
201910031317,52.78,52.79,52.78,52.78
201910031318,52.78,52.79,52.78,52.78
201910031319,52.78,52.8,52.78,52.8
201910031320,52.8,52.81,52.8,52.81
201910031321,52.81,52.81,52.81,52.81
201910031322,52.81,52.82,52.81,52.82
201910031323,52.82,52.82,52.82,52.82
201910031324,52.82,52.82,52.82,52.82
201910031325,52.82,52.83,52.82,52.82
201910031326,52.82,52.83,52.82,52.82
201910031327,52.82,52.83,52.82,52.82
201910031328,52.82,52.82,52.82,52.82
201910031329,52.82,52.82,52.81,52.82
201910031330,52.82,52.82,52.82,52.82
201910031331,52.82,52.83,52.81,52.81
201910031332,52.81,52.82,52.81,52.82
201910031333,52.82,52.82,52.82,52.82
201910031334,52.82,52.83,52.82,52.82
201910031335,52.82,52.82,52.81,52.81
201910031336,52.81,52.82,52.81,52.82
201910031337,52.82,52.82,52.82,52.82
201910031338,52.82,52.83,52.82,52.83
201910031339,52.83,52.83,52.82,52.83
201910031340,52.83,52.83,52.83,52.83
201910031341,52.83,52.83,52.82,52.82
201910031342,52.82,52.83,52.82,52.82
201910031343,52.82,52.82,52.82,52.82
201910031344,52.82,52.82,52.81,52.81
201910031345,52.81,52.81,52.8,52.8
201910031346,52.8,52.8,52.8,52.8
201910031347,52.8,52.81,52.8,52.81
201910031348,52.81,52.81,52.81,52.81
201910031349,52.81,52.81,52.81,52.81
201910031350,52.81,52.81,52.8,52.8
201910031351,52.8,52.8,52.8,52.8
201910031352,52.8,52.8,52.8,52.8
201910031353,52.8,52.81,52.8,52.81
201910031354,52.81,52.81,52.81,52.81
201910031355,52.81,52.82,52.81,52.82
201910031356,52.82,52.82,52.81,52.81
201910031357,52.81,52.82,52.81,52.82
201910031358,52.82,52.82,52.81,52.82
201910031359,52.82,52.82,52.81,52.82
201910031400,52.82,52.84,52.82,52.84
201910031401,52.84,52.84,52.83,52.84
201910031402,52.84,52.84,52.83,52.84
201910031403,52.84,52.84,52.83,52.83
201910031404,52.83,52.83,52.82,52.82
201910031405,52.82,52.82,52.82,52.82
201910031406,52.82,52.83,52.82,52.83
201910031407,52.83,52.84,52.82,52.83
201910031408,52.83,52.83,52.83,52.83
201910031409,52.83,52.84,52.83,52.83
201910031410,52.83,52.83,52.82,52.82
201910031411,52.82,52.82,52.82,52.82
201910031412,52.82,52.82,52.81,52.81
201910031413,52.81,52.81,52.8,52.81
201910031414,52.81,52.82,52.81,52.81
201910031415,52.81,52.82,52.81,52.81
201910031416,52.81,52.81,52.81,52.81
201910031417,52.81,52.81,52.81,52.81
201910031418,52.81,52.81,52.81,52.81
201910031419,52.81,52.81,52.79,52.79
201910031420,52.79,52.79,52.79,52.79
201910031421,52.79,52.79,52.79,52.79
201910031422,52.79,52.79,52.78,52.79
201910031423,52.79,52.79,52.78,52.79
201910031424,52.79,52.8,52.79,52.79
201910031425,52.79,52.79,52.79,52.79
201910031426,52.79,52.8,52.79,52.8
201910031427,52.8,52.8,52.8,52.8
201910031428,52.8,52.8,52.78,52.78
201910031429,52.78,52.78,52.76,52.76
201910031430,52.76,52.78,52.76,52.77
201910031431,52.77,52.77,52.76,52.77
201910031432,52.77,52.77,52.77,52.77
201910031433,52.77,52.77,52.76,52.76
201910031434,52.76,52.77,52.76,52.77
201910031435,52.77,52.77,52.77,52.77
201910031436,52.77,52.78,52.76,52.77
201910031437,52.77,52.78,52.77,52.77
201910031438,52.77,52.78,52.76,52.76
201910031439,52.76,52.76,52.75,52.75
201910031440,52.75,52.75,52.73,52.74
201910031441,52.74,52.74,52.73,52.73
201910031442,52.73,52.73,52.7,52.7
201910031443,52.7,52.7,52.68,52.69
201910031444,52.69,52.7,52.66,52.67
201910031445,52.67,52.68,52.67,52.68
201910031446,52.68,52.68,52.67,52.67
201910031447,52.67,52.67,52.65,52.65
201910031448,52.65,52.65,52.65,52.65
201910031449,52.65,52.66,52.65,52.66
201910031450,52.66,52.66,52.65,52.65
201910031451,52.65,52.65,52.64,52.64
201910031452,52.64,52.64,52.62,52.62
201910031453,52.62,52.65,52.62,52.65
201910031454,52.65,52.66,52.64,52.66
201910031455,52.66,52.66,52.65,52.66
201910031456,52.66,52.66,52.65,52.65
201910031457,52.65,52.66,52.65,52.66
201910031458,52.66,52.67,52.66,52.66
201910031459,52.66,52.67,52.66,52.66
201910031500,52.66,52.66,52.64,52.65
201910031501,52.65,52.65,52.61,52.62
201910031502,52.62,52.65,52.62,52.65
201910031503,52.65,52.65,52.62,52.62
201910031504,52.62,52.63,52.59,52.59
201910031505,52.58,52.58,52.56,52.56
201910031506,52.56,52.56,52.55,52.55
201910031507,52.55,52.56,52.51,52.51
201910031508,52.51,52.56,52.51,52.54
201910031509,52.54,52.56,52.54,52.55
201910031510,52.55,52.57,52.55,52.56
201910031511,52.56,52.58,52.56,52.57
201910031512,52.57,52.57,52.54,52.55
201910031513,52.55,52.56,52.55,52.55
201910031514,52.55,52.56,52.54,52.55
201910031515,52.55,52.56,52.52,52.54
201910031516,52.54,52.54,52.51,52.52
201910031517,52.52,52.53,52.51,52.52
201910031518,52.52,52.54,52.52,52.53
201910031519,52.53,52.54,52.53,52.54
201910031520,52.54,52.56,52.52,52.56
201910031521,52.56,52.56,52.54,52.55
201910031522,52.55,52.56,52.54,52.55
201910031523,52.55,52.56,52.54,52.55
201910031524,52.55,52.56,52.53,52.54
201910031525,52.54,52.55,52.53,52.54
201910031526,52.55,52.58,52.54,52.58
201910031527,52.58,52.58,52.57,52.58
201910031528,52.58,52.58,52.55,52.57
201910031529,52.57,52.59,52.57,52.59
201910031530,52.59,52.6,52.59,52.59
201910031531,52.59,52.61,52.59,52.61
201910031532,52.61,52.62,52.59,52.61
201910031533,52.61,52.65,52.61,52.64
201910031534,52.64,52.65,52.63,52.64
201910031535,52.64,52.65,52.63,52.65
201910031536,52.65,52.67,52.65,52.67
201910031537,52.67,52.67,52.66,52.66
201910031538,52.66,52.68,52.66,52.68
201910031539,52.68,52.69,52.67,52.68
201910031540,52.68,52.69,52.67,52.68
201910031541,52.68,52.68,52.67,52.67
201910031542,52.67,52.7,52.67,52.69
201910031543,52.69,52.69,52.68,52.68
201910031544,52.68,52.71,52.68,52.69
201910031545,52.69,52.69,52.68,52.69
201910031546,52.69,52.69,52.68,52.69
201910031547,52.69,52.7,52.68,52.69
201910031548,52.69,52.7,52.68,52.69
201910031549,52.69,52.7,52.69,52.69
201910031550,52.69,52.71,52.69,52.7
201910031551,52.7,52.72,52.7,52.71
201910031552,52.71,52.72,52.7,52.72
201910031553,52.72,52.76,52.72,52.74
201910031554,52.74,52.76,52.74,52.74
201910031555,52.74,52.74,52.73,52.74
201910031556,52.74,52.76,52.74,52.74
201910031557,52.74,52.75,52.69,52.69
201910031558,52.69,52.72,52.67,52.72
201910031559,52.72,52.72,52.7,52.7
201910031600,52.7,52.7,52.61,52.69
201910031601,52.69,52.7,52.65,52.66
201910031602,52.66,52.68,52.65,52.66
201910031603,52.66,52.66,52.63,52.64
201910031604,52.64,52.67,52.63,52.64
201910031605,52.64,52.64,52.59,52.6
201910031606,52.6,52.62,52.56,52.6
201910031607,52.6,52.62,52.59,52.62
201910031608,52.62,52.64,52.61,52.63
201910031609,52.64,52.64,52.61,52.62
201910031610,52.61,52.63,52.61,52.61
201910031611,52.61,52.64,52.61,52.64
201910031612,52.64,52.65,52.59,52.59
201910031613,52.59,52.61,52.58,52.59
201910031614,52.59,52.62,52.59,52.61
201910031615,52.61,52.61,52.57,52.6
201910031616,52.59,52.62,52.59,52.61
201910031617,52.61,52.61,52.59,52.6
201910031618,52.6,52.6,52.59,52.59
201910031619,52.59,52.63,52.59,52.63
201910031620,52.63,52.63,52.6,52.61
201910031621,52.61,52.61,52.55,52.56
201910031622,52.56,52.56,52.52,52.53
201910031623,52.53,52.55,52.52,52.55
201910031624,52.55,52.57,52.54,52.56
201910031625,52.56,52.56,52.52,52.52
201910031626,52.52,52.55,52.52,52.54
201910031627,52.54,52.55,52.53,52.53
201910031628,52.53,52.55,52.53,52.55
201910031629,52.55,52.56,52.53,52.55
201910031630,52.55,52.55,52.5,52.54
201910031631,52.54,52.55,52.53,52.53
201910031632,52.53,52.54,52.52,52.53
201910031633,52.53,52.55,52.53,52.54
201910031634,52.54,52.55,52.53,52.54
201910031635,52.54,52.56,52.54,52.54
201910031636,52.54,52.56,52.53,52.54
201910031637,52.54,52.56,52.53,52.54
201910031638,52.54,52.56,52.54,52.56
201910031639,52.56,52.57,52.54,52.56
201910031640,52.56,52.59,52.56,52.58
201910031641,52.58,52.61,52.58,52.6
201910031642,52.6,52.61,52.57,52.58
201910031643,52.58,52.58,52.55,52.56
201910031644,52.56,52.57,52.54,52.56
201910031645,52.56,52.56,52.54,52.55
201910031646,52.55,52.58,52.55,52.58
201910031647,52.58,52.58,52.56,52.57
201910031648,52.57,52.6,52.57,52.58
201910031649,52.58,52.62,52.57,52.61
201910031650,52.61,52.66,52.61,52.66
201910031651,52.66,52.66,52.64,52.64
201910031652,52.64,52.66,52.63,52.64
201910031653,52.64,52.68,52.63,52.65
201910031654,52.65,52.66,52.64,52.64
201910031655,52.64,52.64,52.6,52.61
201910031656,52.61,52.63,52.6,52.61
201910031657,52.61,52.62,52.6,52.6
201910031658,52.6,52.61,52.58,52.6
201910031659,52.6,52.65,52.59,52.65
201910031700,52.65,52.65,52.52,52.53
201910031701,52.53,52.57,52.52,52.55
201910031702,52.55,52.57,52.53,52.56
201910031703,52.56,52.56,52.53,52.54
201910031704,52.54,52.55,52.51,52.55
201910031705,52.55,52.55,52.48,52.49
201910031706,52.49,52.52,52.46,52.46
201910031707,52.46,52.47,52.44,52.46
201910031708,52.46,52.5,52.44,52.5
201910031709,52.5,52.52,52.49,52.51
201910031710,52.51,52.51,52.49,52.51
201910031711,52.51,52.51,52.49,52.51
201910031712,52.51,52.59,52.51,52.58
201910031713,52.58,52.61,52.57,52.59
201910031714,52.59,52.62,52.57,52.58
201910031715,52.58,52.59,52.57,52.57
201910031716,52.57,52.6,52.56,52.59
201910031717,52.59,52.64,52.59,52.63
201910031718,52.63,52.66,52.62,52.65
201910031719,52.65,52.65,52.62,52.62
201910031720,52.63,52.63,52.59,52.61
201910031721,52.61,52.62,52.58,52.62
201910031722,52.62,52.64,52.61,52.62
201910031723,52.62,52.62,52.59,52.61
201910031724,52.61,52.62,52.59,52.6
201910031725,52.6,52.68,52.6,52.68
201910031726,52.69,52.7,52.66,52.66
201910031727,52.66,52.7,52.66,52.7
201910031728,52.7,52.71,52.66,52.7
201910031729,52.7,52.75,52.67,52.74
201910031730,52.74,52.76,52.66,52.74
201910031731,52.74,52.75,52.71,52.74
201910031732,52.74,52.74,52.72,52.73
201910031733,52.73,52.76,52.73,52.76
201910031734,52.76,52.79,52.75,52.77
201910031735,52.77,52.81,52.76,52.79
201910031736,52.79,52.82,52.79,52.8
201910031737,52.8,52.81,52.77,52.77
201910031738,52.77,52.81,52.77,52.8
201910031739,52.81,52.81,52.79,52.79
201910031740,52.79,52.8,52.76,52.77
201910031741,52.77,52.8,52.76,52.8
201910031742,52.79,52.83,52.79,52.82
201910031743,52.82,52.84,52.81,52.82
201910031744,52.82,52.85,52.82,52.85
201910031745,52.85,52.85,52.81,52.81
201910031746,52.81,52.84,52.78,52.84
201910031747,52.84,52.84,52.81,52.83
201910031748,52.83,52.83,52.8,52.81
201910031749,52.81,52.81,52.75,52.75
201910031750,52.75,52.76,52.71,52.71
201910031751,52.71,52.78,52.69,52.75
201910031752,52.75,52.78,52.74,52.77
201910031753,52.77,52.77,52.74,52.76
201910031754,52.76,52.76,52.73,52.74
201910031755,52.74,52.75,52.7,52.71
201910031756,52.71,52.72,52.7,52.71
201910031757,52.71,52.71,52.69,52.7
201910031758,52.7,52.72,52.69,52.69
201910031759,52.69,52.7,52.66,52.68
201910031800,52.68,52.68,52.64,52.64
201910031801,52.64,52.64,52.6,52.63
201910031802,52.63,52.65,52.62,52.62
201910031803,52.62,52.62,52.59,52.62
201910031804,52.62,52.62,52.57,52.58
201910031805,52.58,52.58,52.54,52.55
201910031806,52.56,52.57,52.5,52.5
201910031807,52.5,52.51,52.41,52.42
201910031808,52.42,52.44,52.41,52.42
201910031809,52.42,52.42,52.23,52.34
201910031810,52.34,52.43,52.33,52.42
201910031811,52.42,52.48,52.41,52.45
201910031812,52.45,52.46,52.4,52.43
201910031813,52.43,52.43,52.4,52.4
201910031814,52.4,52.41,52.37,52.41
201910031815,52.41,52.41,52.36,52.37
201910031816,52.37,52.42,52.37,52.39
201910031817,52.39,52.41,52.36,52.38
201910031818,52.38,52.43,52.38,52.43
201910031819,52.42,52.45,52.41,52.41
201910031820,52.41,52.43,52.41,52.41
201910031821,52.41,52.41,52.39,52.4
201910031822,52.4,52.42,52.39,52.42
201910031823,52.42,52.42,52.37,52.37
201910031824,52.37,52.41,52.37,52.39
201910031825,52.39,52.39,52.36,52.38
201910031826,52.38,52.43,52.38,52.41
201910031827,52.41,52.41,52.37,52.38
201910031828,52.38,52.38,52.34,52.36
201910031829,52.36,52.36,52.32,52.34
201910031830,52.34,52.37,52.31,52.35
201910031831,52.35,52.36,52.33,52.34
201910031832,52.34,52.37,52.33,52.36
201910031833,52.36,52.37,52.35,52.36
201910031834,52.36,52.38,52.35,52.37
201910031835,52.37,52.43,52.37,52.43
201910031836,52.43,52.44,52.42,52.42
201910031837,52.42,52.43,52.41,52.42
201910031838,52.42,52.43,52.39,52.4
201910031839,52.4,52.45,52.4,52.44
201910031840,52.44,52.49,52.43,52.49
201910031841,52.49,52.52,52.47,52.47
201910031842,52.47,52.49,52.45,52.48
201910031843,52.48,52.49,52.47,52.49
201910031844,52.49,52.51,52.49,52.5
201910031845,52.5,52.53,52.5,52.52
201910031846,52.52,52.55,52.51,52.52
201910031847,52.52,52.58,52.51,52.56
201910031848,52.56,52.56,52.52,52.55
201910031849,52.55,52.55,52.52,52.53
201910031850,52.53,52.54,52.5,52.5
201910031851,52.5,52.52,52.5,52.52
201910031852,52.52,52.54,52.51,52.53
201910031853,52.53,52.56,52.52,52.55
201910031854,52.55,52.56,52.54,52.54
201910031855,52.54,52.54,52.53,52.53
201910031856,52.53,52.56,52.53,52.55
201910031857,52.55,52.55,52.5,52.51
201910031858,52.51,52.54,52.51,52.53
201910031859,52.53,52.54,52.52,52.53
201910031900,52.53,52.53,52.5,52.52
201910031901,52.52,52.54,52.52,52.53
201910031902,52.53,52.53,52.49,52.5
201910031903,52.5,52.5,52.49,52.5
201910031904,52.5,52.5,52.46,52.47
201910031905,52.47,52.47,52.43,52.44
201910031906,52.44,52.47,52.44,52.44
201910031907,52.44,52.47,52.44,52.47
201910031908,52.47,52.5,52.45,52.46
201910031909,52.46,52.46,52.43,52.45
201910031910,52.45,52.48,52.45,52.46
201910031911,52.46,52.46,52.43,52.44
201910031912,52.44,52.45,52.43,52.43
201910031913,52.43,52.46,52.43,52.45
201910031914,52.45,52.48,52.45,52.47
201910031915,52.47,52.5,52.47,52.5
201910031916,52.5,52.53,52.5,52.53
201910031917,52.53,52.58,52.53,52.58
201910031918,52.58,52.58,52.55,52.56
201910031919,52.56,52.56,52.52,52.52
201910031920,52.52,52.53,52.51,52.52
201910031921,52.52,52.54,52.51,52.53
201910031922,52.53,52.6,52.53,52.56
201910031923,52.56,52.56,52.53,52.54
201910031924,52.54,52.55,52.53,52.54
201910031925,52.54,52.55,52.52,52.52
201910031926,52.52,52.53,52.51,52.51
201910031927,52.51,52.52,52.49,52.51
201910031928,52.51,52.53,52.51,52.52
201910031929,52.52,52.52,52.51,52.52
201910031930,52.52,52.52,52.48,52.48
201910031931,52.48,52.49,52.47,52.47
201910031932,52.48,52.48,52.45,52.45
201910031933,52.45,52.51,52.45,52.47
201910031934,52.47,52.48,52.45,52.47
201910031935,52.47,52.48,52.46,52.47
201910031936,52.47,52.47,52.43,52.43
201910031937,52.43,52.45,52.43,52.43
201910031938,52.43,52.46,52.43,52.45
201910031939,52.45,52.46,52.42,52.42
201910031940,52.42,52.43,52.37,52.42
201910031941,52.42,52.43,52.4,52.4
201910031942,52.4,52.4,52.38,52.4
201910031943,52.4,52.43,52.4,52.43
201910031944,52.43,52.45,52.42,52.43
201910031945,52.43,52.45,52.42,52.44
201910031946,52.44,52.5,52.44,52.49
201910031947,52.49,52.49,52.45,52.46
201910031948,52.46,52.49,52.45,52.49
201910031949,52.49,52.54,52.49,52.54
201910031950,52.54,52.58,52.54,52.58
201910031951,52.58,52.64,52.57,52.61
201910031952,52.61,52.66,52.6,52.61
201910031953,52.61,52.61,52.58,52.59
201910031954,52.58,52.59,52.55,52.55
201910031955,52.55,52.56,52.54,52.55
201910031956,52.55,52.56,52.53,52.55
201910031957,52.55,52.55,52.51,52.51
201910031958,52.51,52.51,52.47,52.48
201910031959,52.48,52.49,52.46,52.47
201910032000,52.48,52.55,52.48,52.54
201910032001,52.54,52.55,52.51,52.52
201910032002,52.52,52.54,52.49,52.5
201910032003,52.5,52.51,52.45,52.45
201910032004,52.45,52.51,52.44,52.51
201910032005,52.51,52.53,52.46,52.46
201910032006,52.46,52.49,52.46,52.48
201910032007,52.48,52.48,52.47,52.48
201910032008,52.48,52.5,52.48,52.49
201910032009,52.49,52.55,52.48,52.55
201910032010,52.55,52.65,52.54,52.64
201910032011,52.64,52.68,52.62,52.67
201910032012,52.67,52.69,52.65,52.67
201910032013,52.67,52.67,52.62,52.64
201910032014,52.64,52.65,52.62,52.65
201910032015,52.64,52.67,52.64,52.65
201910032016,52.65,52.66,52.62,52.62
201910032017,52.62,52.65,52.62,52.65
201910032018,52.65,52.65,52.63,52.65
201910032019,52.65,52.67,52.63,52.63
201910032020,52.63,52.64,52.62,52.64
201910032021,52.64,52.64,52.62,52.63
201910032022,52.63,52.66,52.63,52.64
201910032023,52.64,52.66,52.63,52.65
201910032024,52.65,52.66,52.63,52.63
201910032025,52.63,52.64,52.61,52.63
201910032026,52.63,52.63,52.61,52.63
201910032027,52.63,52.63,52.61,52.62
201910032028,52.62,52.63,52.62,52.63
201910032029,52.63,52.64,52.62,52.64
201910032030,52.64,52.65,52.64,52.64
201910032031,52.64,52.64,52.62,52.63
201910032032,52.63,52.64,52.61,52.62
201910032033,52.62,52.65,52.61,52.64
201910032034,52.64,52.66,52.64,52.65
201910032035,52.65,52.72,52.64,52.72
201910032036,52.72,52.73,52.68,52.71
201910032037,52.71,52.73,52.69,52.7
201910032038,52.7,52.71,52.69,52.69
201910032039,52.69,52.7,52.67,52.7
201910032040,52.7,52.71,52.68,52.69
201910032041,52.69,52.69,52.65,52.69
201910032042,52.69,52.69,52.66,52.67
201910032043,52.67,52.68,52.65,52.65
201910032044,52.65,52.65,52.62,52.62
201910032045,52.62,52.63,52.59,52.59
201910032046,52.59,52.6,52.57,52.59
201910032047,52.59,52.59,52.55,52.56
201910032048,52.56,52.57,52.48,52.49
201910032049,52.49,52.5,52.46,52.46
201910032050,52.46,52.46,52.43,52.44
201910032051,52.44,52.49,52.43,52.47
201910032052,52.47,52.47,52.41,52.43
201910032053,52.43,52.44,52.4,52.41
201910032054,52.41,52.42,52.33,52.35
201910032055,52.35,52.38,52.34,52.35
201910032056,52.35,52.43,52.35,52.42
201910032057,52.42,52.46,52.42,52.46
201910032058,52.46,52.48,52.44,52.47
201910032059,52.47,52.48,52.47,52.47
201910032100,52.47,52.47,52.43,52.45
201910032101,52.45,52.48,52.45,52.46
201910032102,52.46,52.47,52.44,52.44
201910032103,52.44,52.48,52.44,52.47
201910032104,52.47,52.48,52.46,52.47
201910032105,52.47,52.48,52.45,52.46
201910032106,52.46,52.46,52.4,52.44
201910032107,52.44,52.46,52.43,52.46
201910032108,52.46,52.47,52.45,52.46
201910032109,52.46,52.47,52.43,52.43
201910032110,52.43,52.45,52.39,52.39
201910032111,52.4,52.4,52.35,52.36
201910032112,52.36,52.38,52.36,52.36
201910032113,52.36,52.41,52.36,52.41
201910032114,52.4,52.41,52.35,52.35
201910032115,52.35,52.37,52.34,52.34
201910032116,52.34,52.35,52.31,52.31
201910032117,52.3,52.32,52.29,52.31
201910032118,52.31,52.38,52.31,52.37
201910032119,52.37,52.39,52.36,52.37
201910032120,52.37,52.44,52.37,52.43
201910032121,52.43,52.46,52.42,52.46
201910032122,52.46,52.47,52.44,52.44
201910032123,52.44,52.45,52.43,52.45
201910032124,52.45,52.45,52.42,52.43
201910032125,52.43,52.44,52.4,52.41
201910032126,52.41,52.42,52.4,52.41
201910032127,52.41,52.44,52.4,52.43
201910032128,52.43,52.44,52.41,52.41
201910032129,52.41,52.44,52.41,52.44
201910032130,52.44,52.44,52.41,52.42
201910032131,52.42,52.43,52.41,52.42
201910032132,52.42,52.46,52.41,52.45
201910032133,52.45,52.51,52.45,52.47
201910032134,52.47,52.49,52.46,52.47
201910032135,52.47,52.47,52.44,52.46
201910032136,52.46,52.49,52.46,52.48
201910032137,52.48,52.49,52.46,52.49
201910032138,52.49,52.54,52.49,52.54
201910032139,52.54,52.55,52.5,52.51
201910032140,52.51,52.53,52.5,52.52
201910032141,52.52,52.52,52.49,52.5
201910032142,52.5,52.5,52.46,52.46
201910032143,52.46,52.48,52.46,52.47
201910032144,52.47,52.48,52.46,52.47
201910032145,52.51,52.52,52.47,52.49
201910032146,52.49,52.54,52.49,52.52
201910032147,52.52,52.52,52.48,52.5
201910032148,52.5,52.51,52.47,52.47
201910032149,52.47,52.48,52.45,52.45
201910032150,52.45,52.46,52.41,52.42
201910032151,52.42,52.42,52.39,52.41
201910032152,52.41,52.43,52.41,52.43
201910032153,52.43,52.44,52.42,52.43
201910032154,52.43,52.43,52.4,52.4
201910032155,52.4,52.41,52.36,52.4
201910032156,52.4,52.41,52.39,52.39
201910032157,52.39,52.4,52.38,52.39
201910032158,52.39,52.4,52.35,52.38
201910032159,52.38,52.4,52.36,52.38
201910032200,52.37,52.37,52.13,52.15
201910032201,52.15,52.15,52.01,52.03
201910032202,52.03,52.05,51.97,51.97
201910032203,51.97,52.04,51.96,52.03
201910032204,52.03,52.03,51.9,51.94
201910032205,51.94,51.97,51.87,51.87
201910032206,51.87,51.92,51.87,51.88
201910032207,51.88,52.03,51.88,52.01
201910032208,52.01,52.09,52.01,52.08
201910032209,52.08,52.09,52.03,52.05
201910032210,52.05,52.07,52.01,52.03
201910032211,52.03,52.04,52.01,52.03
201910032212,52.03,52.04,51.93,51.95
201910032213,51.94,51.98,51.89,51.9
201910032214,51.9,51.93,51.87,51.88
201910032215,51.88,51.92,51.79,51.82
201910032216,51.82,51.96,51.81,51.95
201910032217,51.95,51.95,51.87,51.88
201910032218,51.88,51.9,51.85,51.86
201910032219,51.86,51.92,51.83,51.85
201910032220,51.85,51.88,51.82,51.83
201910032221,51.83,51.88,51.82,51.87
201910032222,51.87,51.87,51.82,51.83
201910032223,51.83,51.84,51.79,51.8
201910032224,51.8,51.83,51.8,51.82
201910032225,51.82,51.87,51.82,51.83
201910032226,51.83,51.86,51.78,51.82
201910032227,51.82,51.85,51.79,51.81
201910032228,51.81,51.87,51.81,51.85
201910032229,51.85,51.88,51.81,51.88
201910032230,51.88,51.91,51.82,51.83
201910032231,51.83,51.91,51.81,51.88
201910032232,51.88,51.97,51.88,51.94
201910032233,51.94,52.01,51.92,51.92
201910032234,51.93,51.96,51.89,51.91
201910032235,51.91,51.91,51.89,51.9
201910032236,51.9,51.9,51.82,51.82
201910032237,51.82,51.82,51.65,51.65
201910032238,51.65,51.73,51.64,51.7
201910032239,51.7,51.73,51.68,51.72
201910032240,51.72,51.77,51.66,51.75
201910032241,51.75,51.78,51.69,51.7
201910032242,51.7,51.78,51.7,51.77
201910032243,51.78,51.79,51.73,51.73
201910032244,51.73,51.8,51.73,51.8
201910032245,51.8,51.85,51.75,51.85
201910032246,51.85,51.93,51.85,51.9
201910032247,51.9,51.92,51.86,51.89
201910032248,51.89,51.93,51.83,51.87
201910032249,51.87,51.92,51.86,51.9
201910032250,51.9,51.92,51.88,51.9
201910032251,51.9,51.9,51.86,51.86
201910032252,51.86,51.89,51.81,51.82
201910032253,51.82,51.82,51.79,51.81
201910032254,51.81,51.84,51.76,51.77
201910032255,51.77,51.82,51.75,51.81
201910032256,51.81,51.81,51.75,51.77
201910032257,51.77,51.78,51.74,51.76
201910032258,51.76,51.77,51.74,51.77
201910032259,51.77,51.77,51.75,51.76
201910032300,51.76,51.76,51.55,51.67
201910032301,51.68,51.76,51.58,51.59
201910032302,51.59,51.67,51.57,51.64
201910032303,51.64,51.65,51.47,51.5
201910032304,51.5,51.5,51.35,51.35
201910032305,51.32,51.32,51.15,51.15
201910032306,51.15,51.16,51.06,51.08
201910032307,51.08,51.1,50.98,51.05
201910032308,51.05,51.05,50.99,51.04
201910032309,51.04,51.17,51.03,51.14
201910032310,51.14,51.22,51.1,51.21
201910032311,51.21,51.25,51.15,51.18
201910032312,51.19,51.24,51.17,51.21
201910032313,51.21,51.29,51.17,51.27
201910032314,51.27,51.34,51.27,51.3
201910032315,51.3,51.34,51.26,51.27
201910032316,51.27,51.33,51.24,51.32
201910032317,51.32,51.38,51.31,51.33
201910032318,51.33,51.38,51.31,51.37
201910032319,51.37,51.44,51.37,51.41
201910032320,51.4,51.42,51.33,51.38
201910032321,51.37,51.38,51.34,51.36
201910032322,51.36,51.4,51.28,51.39
201910032323,51.39,51.43,51.38,51.41
201910032324,51.41,51.42,51.33,51.34
201910032325,51.34,51.4,51.33,51.38
201910032326,51.38,51.49,51.37,51.45
201910032327,51.45,51.47,51.41,51.41
201910032328,51.41,51.46,51.4,51.42
201910032329,51.42,51.51,51.41,51.44
201910032330,51.44,51.45,51.36,51.39
201910032331,51.39,51.47,51.39,51.44
201910032332,51.44,51.45,51.41,51.41
201910032333,51.41,51.5,51.41,51.48
201910032334,51.48,51.58,51.46,51.58
201910032335,51.58,51.58,51.51,51.57
201910032336,51.57,51.66,51.55,51.59
201910032337,51.59,51.61,51.56,51.57
201910032338,51.57,51.65,51.57,51.62
201910032339,51.62,51.62,51.58,51.58
201910032340,51.58,51.58,51.51,51.53
201910032341,51.53,51.57,51.52,51.54
201910032342,51.54,51.61,51.54,51.58
201910032343,51.58,51.63,51.58,51.62
201910032344,51.62,51.63,51.58,51.58
201910032345,51.58,51.64,51.54,51.57
201910032346,51.57,51.62,51.57,51.58
201910032347,51.58,51.58,51.53,51.55
201910032348,51.55,51.55,51.51,51.54
201910032349,51.54,51.55,51.51,51.52
201910032350,51.52,51.6,51.52,51.58
201910032351,51.58,51.62,51.58,51.58
201910032352,51.58,51.58,51.49,51.49
201910032353,51.49,51.5,51.4,51.41
201910032354,51.41,51.49,51.4,51.4
201910032355,51.4,51.47,51.4,51.46
201910032356,51.46,51.52,51.45,51.48
201910032357,51.48,51.55,51.48,51.53
201910032358,51.53,51.57,51.52,51.54
201910032359,51.54,51.66,51.54,51.62
201910040000,51.62,51.62,51.53,51.54
201910040001,51.54,51.58,51.51,51.57
201910040002,51.57,51.69,51.57,51.68
201910040003,51.68,51.77,51.68,51.74
201910040004,51.74,51.91,51.74,51.88
201910040005,51.88,51.91,51.85,51.88
201910040006,51.88,51.99,51.86,51.88
201910040007,51.88,51.98,51.88,51.95
201910040008,51.95,52.01,51.91,51.96
201910040009,51.96,51.96,51.89,51.95
201910040010,51.95,51.96,51.91,51.95
201910040011,51.96,52.02,51.95,51.96
201910040012,51.96,51.99,51.91,51.93
201910040013,51.93,51.98,51.92,51.97
201910040014,51.97,52.04,51.96,52.03
201910040015,52.03,52.13,52,52.12
201910040016,52.12,52.12,52.06,52.07
201910040017,52.07,52.09,52.05,52.06
201910040018,52.06,52.09,52.05,52.09
201910040019,52.09,52.15,52.09,52.15
201910040020,52.15,52.16,52.1,52.11
201910040021,52.11,52.12,52.05,52.05
201910040022,52.06,52.12,52.05,52.12
201910040023,52.12,52.17,52.12,52.14
201910040024,52.14,52.17,52.06,52.08
201910040025,52.08,52.13,52.05,52.07
201910040026,52.07,52.13,52.03,52.05
201910040027,52.05,52.07,51.98,51.98
201910040028,51.98,52.03,51.95,52
201910040029,52,52.05,51.97,52.01
201910040030,52.01,52.07,52,52.06
201910040031,52.06,52.11,52.04,52.09
201910040032,52.09,52.09,51.99,51.99
201910040033,51.99,52,51.94,51.94
201910040034,51.94,51.97,51.91,51.92
201910040035,51.92,51.93,51.88,51.9
201910040036,51.9,51.9,51.84,51.87
201910040037,51.87,51.89,51.82,51.84
201910040038,51.84,51.85,51.82,51.82
201910040039,51.82,51.83,51.78,51.81
201910040040,51.81,51.9,51.81,51.87
201910040041,51.87,51.92,51.86,51.9
201910040042,51.9,51.91,51.85,51.88
201910040043,51.88,51.93,51.87,51.92
201910040044,51.92,51.93,51.9,51.91
201910040045,51.91,51.94,51.87,51.88
201910040046,51.88,51.88,51.77,51.79
201910040047,51.79,51.81,51.75,51.8
201910040048,51.8,51.81,51.77,51.78
201910040049,51.78,51.85,51.78,51.85
201910040050,51.85,51.86,51.81,51.85
201910040051,51.85,51.88,51.85,51.86
201910040052,51.86,51.88,51.86,51.88
201910040053,51.88,51.88,51.83,51.85
201910040054,51.85,51.88,51.85,51.86
201910040055,51.86,51.95,51.86,51.94
201910040056,51.94,51.94,51.89,51.89
201910040057,51.89,51.9,51.84,51.86
201910040058,51.86,51.86,51.83,51.86
201910040059,51.86,51.91,51.85,51.9
201910040100,51.9,51.95,51.88,51.94
201910040101,51.94,52,51.93,51.98
201910040102,51.98,52,51.97,51.98
201910040103,51.98,52.01,51.97,52
201910040104,52,52.05,52,52.05
201910040105,52.05,52.08,52.04,52.06
201910040106,52.06,52.07,52.04,52.06
201910040107,52.06,52.09,52.03,52.09
201910040108,52.09,52.14,52.08,52.13
201910040109,52.13,52.14,52.11,52.12
201910040110,52.12,52.13,52.07,52.08
201910040111,52.08,52.12,52.08,52.1
201910040112,52.1,52.1,52.06,52.06
201910040113,52.07,52.11,52.07,52.11
201910040114,52.11,52.2,52.11,52.13
201910040115,52.13,52.21,52.13,52.14
201910040116,52.14,52.14,52.11,52.13
201910040117,52.13,52.15,52.09,52.09
201910040118,52.09,52.1,52,52
201910040119,52,52.01,51.98,51.99
201910040120,51.99,52,51.95,51.99
201910040121,51.99,52.02,51.99,52
201910040122,52,52.01,51.97,51.98
201910040123,51.98,52.01,51.97,52
201910040124,52,52.02,51.99,52
201910040125,52,52.06,51.99,52.04
201910040126,52.04,52.07,52.04,52.06
201910040127,52.06,52.06,52.04,52.06
201910040128,52.06,52.09,52.06,52.09
201910040129,52.08,52.1,52.08,52.08
201910040130,52.08,52.11,52.06,52.08
201910040131,52.08,52.11,52.07,52.07
201910040132,52.07,52.13,52.07,52.13
201910040133,52.13,52.13,52.07,52.08
201910040134,52.08,52.08,52.03,52.05
201910040135,52.05,52.09,52.04,52.08
201910040136,52.08,52.1,52.06,52.09
201910040137,52.09,52.09,52.07,52.08
201910040138,52.08,52.11,52.08,52.11
201910040139,52.11,52.11,52.08,52.09
201910040140,52.09,52.1,52.08,52.08
201910040141,52.08,52.14,52.08,52.11
201910040142,52.11,52.12,52.1,52.1
201910040143,52.1,52.1,52.06,52.06
201910040144,52.06,52.07,52.04,52.05
201910040145,52.05,52.07,52.04,52.07
201910040146,52.07,52.13,52.05,52.11
201910040147,52.11,52.14,52.09,52.13
201910040148,52.13,52.14,52.1,52.13
201910040149,52.13,52.13,52.09,52.1
201910040150,52.1,52.14,52.1,52.11
201910040151,52.11,52.12,52.05,52.05
201910040152,52.05,52.06,52.04,52.04
201910040153,52.04,52.07,52.04,52.07
201910040154,52.07,52.07,52.03,52.04
201910040155,52.04,52.07,52.04,52.06
201910040156,52.06,52.08,52.06,52.07
201910040157,52.07,52.08,52.05,52.06
201910040158,52.06,52.09,52.06,52.07
201910040159,52.07,52.08,52.07,52.07
201910040200,52.07,52.12,52.07,52.12
201910040201,52.12,52.13,52.06,52.06
201910040202,52.06,52.06,51.93,51.95
201910040203,51.95,51.96,51.91,51.93
201910040204,51.93,51.95,51.92,51.93
201910040205,51.93,51.95,51.86,51.86
201910040206,51.86,51.89,51.84,51.85
201910040207,51.85,51.91,51.85,51.9
201910040208,51.9,51.93,51.9,51.93
201910040209,51.93,51.93,51.92,51.92
201910040210,51.92,51.95,51.92,51.94
201910040211,51.94,51.96,51.93,51.95
201910040212,51.95,51.96,51.95,51.96
201910040213,51.96,51.96,51.9,51.93
201910040214,51.93,51.94,51.92,51.92
201910040215,51.92,51.92,51.86,51.86
201910040216,51.86,51.91,51.86,51.9
201910040217,51.9,51.91,51.89,51.91
201910040218,51.91,51.94,51.91,51.93
201910040219,51.93,51.96,51.91,51.92
201910040220,51.92,51.93,51.87,51.9
201910040221,51.9,51.91,51.86,51.86
201910040222,51.86,51.88,51.86,51.87
201910040223,51.87,51.89,51.84,51.84
201910040224,51.84,51.9,51.83,51.9
201910040225,51.9,52.03,51.9,52.03
201910040226,52.02,52.03,51.99,52.02
201910040227,52.02,52.04,52.01,52.01
201910040228,52.01,52.05,51.99,52.05
201910040229,52.05,52.14,52.04,52.13
201910040230,52.13,52.21,52.13,52.21
201910040231,52.21,52.22,52.14,52.14
201910040232,52.14,52.14,52.11,52.12
201910040233,52.12,52.16,52.1,52.15
201910040234,52.15,52.16,52.12,52.12
201910040235,52.12,52.12,52.1,52.12
201910040236,52.12,52.14,52.12,52.12
201910040237,52.12,52.15,52.11,52.12
201910040238,52.12,52.13,52.12,52.12
201910040239,52.12,52.13,52.09,52.13
201910040240,52.13,52.2,52.13,52.19
201910040241,52.19,52.5,52.18,52.45
201910040242,52.44,52.48,52.38,52.38
201910040243,52.38,52.47,52.38,52.45
201910040244,52.45,52.51,52.42,52.42
201910040245,52.42,52.46,52.4,52.43
201910040246,52.43,52.44,52.4,52.4
201910040247,52.4,52.44,52.39,52.4
201910040248,52.4,52.41,52.37,52.37
201910040249,52.37,52.38,52.34,52.37
201910040250,52.37,52.41,52.37,52.41
201910040251,52.4,52.42,52.36,52.37
201910040252,52.37,52.38,52.36,52.37
201910040253,52.36,52.36,52.32,52.33
201910040254,52.33,52.34,52.3,52.33
201910040255,52.33,52.38,52.33,52.37
201910040256,52.37,52.37,52.32,52.34
201910040257,52.34,52.36,52.34,52.35
201910040258,52.35,52.36,52.35,52.35
201910040259,52.35,52.37,52.33,52.37
201910040300,52.37,52.37,52.34,52.35
201910040301,52.35,52.41,52.35,52.39
201910040302,52.39,52.39,52.33,52.33
201910040303,52.33,52.36,52.32,52.32
201910040304,52.32,52.33,52.31,52.31
201910040305,52.31,52.35,52.31,52.35
201910040306,52.35,52.37,52.33,52.36
201910040307,52.36,52.36,52.34,52.35
201910040308,52.35,52.35,52.32,52.34
201910040309,52.34,52.35,52.32,52.34
201910040310,52.34,52.38,52.34,52.35
201910040311,52.35,52.38,52.33,52.37
201910040312,52.37,52.37,52.31,52.32
201910040313,52.32,52.38,52.31,52.38
201910040314,52.38,52.38,52.33,52.37
201910040315,52.37,52.42,52.31,52.34
201910040316,52.34,52.35,52.31,52.34
201910040317,52.34,52.38,52.33,52.36
201910040318,52.36,52.39,52.35,52.38
201910040319,52.38,52.44,52.37,52.43
201910040320,52.43,52.5,52.41,52.44
201910040321,52.45,52.53,52.45,52.5
201910040322,52.5,52.53,52.49,52.5
201910040323,52.5,52.51,52.48,52.5
201910040324,52.49,52.54,52.49,52.54
201910040325,52.54,52.58,52.52,52.57
201910040326,52.56,52.58,52.48,52.5
201910040327,52.49,52.53,52.42,52.53
201910040328,52.53,52.53,52.38,52.42
201910040329,52.42,52.48,52.39,52.47
201910040330,52.48,52.57,52.48,52.56
201910040331,52.56,52.61,52.55,52.56
201910040332,52.56,52.57,52.47,52.47
201910040333,52.47,52.48,52.44,52.48
201910040334,52.48,52.48,52.44,52.45
201910040335,52.45,52.46,52.44,52.45
201910040336,52.45,52.47,52.42,52.44
201910040337,52.44,52.48,52.42,52.48
201910040338,52.48,52.48,52.46,52.47
201910040339,52.47,52.48,52.46,52.47
201910040340,52.47,52.48,52.45,52.46
201910040341,52.46,52.46,52.45,52.46
201910040342,52.46,52.46,52.45,52.46
201910040343,52.46,52.46,52.45,52.46
201910040344,52.46,52.47,52.44,52.47
201910040345,52.47,52.51,52.46,52.5
201910040346,52.5,52.51,52.44,52.44
201910040347,52.44,52.45,52.43,52.44
201910040348,52.44,52.44,52.43,52.44
201910040349,52.44,52.45,52.41,52.43
201910040350,52.43,52.48,52.43,52.48
201910040351,52.48,52.48,52.46,52.46
201910040352,52.46,52.47,52.44,52.44
201910040353,52.44,52.46,52.44,52.45
201910040354,52.45,52.45,52.37,52.41
201910040355,52.41,52.45,52.4,52.44
201910040356,52.44,52.44,52.43,52.43
201910040357,52.43,52.45,52.43,52.44
201910040358,52.44,52.45,52.42,52.44
201910040359,52.44,52.44,52.43,52.44
201910040400,52.44,52.45,52.4,52.41
201910040401,52.4,52.4,52.38,52.39
201910040402,52.39,52.4,52.37,52.37
201910040403,52.37,52.41,52.34,52.38
201910040404,52.38,52.39,52.32,52.33
201910040405,52.33,52.35,52.32,52.33
201910040406,52.33,52.33,52.33,52.33
201910040407,52.33,52.33,52.32,52.33
201910040408,52.33,52.36,52.33,52.33
201910040409,52.33,52.34,52.32,52.34
201910040410,52.34,52.34,52.33,52.34
201910040411,52.34,52.35,52.33,52.33
201910040412,52.33,52.33,52.31,52.32
201910040413,52.32,52.33,52.32,52.33
201910040414,52.33,52.33,52.31,52.32
201910040415,52.32,52.33,52.32,52.32
201910040416,52.32,52.32,52.32,52.32
201910040417,52.32,52.32,52.27,52.27
201910040418,52.27,52.31,52.27,52.29
201910040419,52.29,52.29,52.25,52.25
201910040420,52.25,52.28,52.25,52.27
201910040421,52.27,52.29,52.27,52.28
201910040422,52.28,52.28,52.27,52.28
201910040423,52.28,52.3,52.27,52.27
201910040424,52.27,52.27,52.24,52.25
201910040425,52.25,52.28,52.24,52.26
201910040426,52.26,52.26,52.25,52.25
201910040427,52.25,52.25,52.23,52.24
201910040428,52.24,52.24,52.23,52.24
201910040429,52.24,52.26,52.23,52.25
201910040430,52.25,52.26,52.24,52.25
201910040431,52.25,52.28,52.23,52.27
201910040432,52.27,52.27,52.27,52.27
201910040433,52.27,52.27,52.25,52.26
201910040434,52.26,52.26,52.24,52.24
201910040435,52.24,52.25,52.24,52.25
201910040436,52.25,52.25,52.24,52.24
201910040437,52.24,52.25,52.23,52.25
201910040438,52.25,52.28,52.25,52.27
201910040439,52.27,52.28,52.27,52.28
201910040440,52.28,52.29,52.27,52.29
201910040441,52.29,52.31,52.29,52.29
201910040442,52.29,52.31,52.29,52.29
201910040443,52.29,52.29,52.27,52.28
201910040444,52.28,52.28,52.25,52.25
201910040445,52.25,52.28,52.25,52.27
201910040446,52.27,52.28,52.25,52.25
201910040447,52.25,52.26,52.25,52.26
201910040448,52.26,52.26,52.25,52.25
201910040449,52.25,52.25,52.21,52.22
201910040450,52.22,52.23,52.19,52.23
201910040451,52.23,52.23,52.21,52.22
201910040452,52.22,52.23,52.19,52.2
201910040453,52.2,52.23,52.2,52.22
201910040454,52.22,52.23,52.2,52.2
201910040455,52.2,52.27,52.2,52.26
201910040456,52.26,52.27,52.25,52.26
201910040457,52.26,52.26,52.24,52.26
201910040458,52.26,52.29,52.25,52.28
201910040459,52.28,52.32,52.28,52.32
201910040500,52.32,52.33,52.3,52.3
201910040501,52.3,52.33,52.3,52.3
201910040502,52.3,52.31,52.3,52.31
201910040503,52.31,52.31,52.3,52.31
201910040504,52.31,52.31,52.3,52.3
201910040505,52.3,52.31,52.3,52.31
201910040506,52.31,52.31,52.28,52.3
201910040507,52.3,52.33,52.3,52.33
201910040508,52.33,52.33,52.28,52.28
201910040509,52.28,52.29,52.27,52.28
201910040510,52.28,52.31,52.26,52.31
201910040511,52.31,52.31,52.29,52.3
201910040512,52.3,52.3,52.3,52.3
201910040513,52.3,52.3,52.29,52.29
201910040514,52.29,52.3,52.29,52.3
201910040515,52.3,52.3,52.29,52.29
201910040516,52.29,52.3,52.29,52.29
201910040517,52.29,52.29,52.28,52.29
201910040518,52.29,52.29,52.28,52.29
201910040519,52.29,52.31,52.29,52.3
201910040520,52.3,52.3,52.26,52.27
201910040521,52.27,52.28,52.27,52.27
201910040522,52.27,52.27,52.27,52.27
201910040523,52.27,52.28,52.26,52.28
201910040524,52.28,52.28,52.28,52.28
201910040525,52.28,52.28,52.28,52.28
201910040526,52.28,52.3,52.27,52.3
201910040527,52.3,52.31,52.29,52.3
201910040528,52.3,52.31,52.29,52.29
201910040529,52.29,52.29,52.29,52.29
201910040530,52.29,52.31,52.29,52.3
201910040531,52.3,52.31,52.3,52.3
201910040532,52.3,52.31,52.3,52.31
201910040533,52.31,52.31,52.29,52.3
201910040534,52.3,52.31,52.3,52.3
201910040535,52.3,52.33,52.3,52.31
201910040536,52.31,52.32,52.29,52.3
201910040537,52.3,52.31,52.29,52.31
201910040538,52.31,52.31,52.3,52.3
201910040539,52.3,52.31,52.29,52.29
201910040540,52.29,52.3,52.28,52.28
201910040541,52.28,52.28,52.28,52.28
201910040542,52.28,52.31,52.28,52.3
201910040543,52.3,52.3,52.3,52.3
201910040544,52.3,52.3,52.28,52.29
201910040545,52.29,52.31,52.29,52.29
201910040546,52.29,52.31,52.29,52.3
201910040547,52.3,52.3,52.3,52.3
201910040548,52.3,52.3,52.29,52.29
201910040549,52.29,52.3,52.28,52.3
201910040550,52.3,52.31,52.29,52.31
201910040551,52.31,52.31,52.26,52.26
201910040552,52.26,52.27,52.26,52.27
201910040553,52.27,52.28,52.25,52.28
201910040554,52.28,52.28,52.25,52.26
201910040555,52.26,52.28,52.26,52.27
201910040556,52.27,52.28,52.25,52.27
201910040557,52.26,52.27,52.26,52.27
201910040558,52.27,52.28,52.26,52.26
201910040559,52.26,52.3,52.26,52.29
