日時,始値(BID),高値(BID),安値(BID),終値(BID)
201910150700,26748,26759,26748,26752
201910150701,26752,26763,26752,26756
201910150702,26756,26764,26756,26758
201910150703,26759,26761,26758,26761
201910150704,26761,26763,26760,26763
201910150705,26762,26768,26762,26767
201910150706,26767,26769,26766,26766
201910150707,26767,26768,26766,26766
201910150708,26766,26767,26765,26765
201910150709,26765,26766,26763,26765
201910150710,26765,26767,26763,26763
201910150711,26763,26764,26762,26764
201910150712,26764,26764,26764,26764
201910150713,26764,26765,26762,26765
201910150714,26765,26765,26764,26764
201910150715,26764,26766,26764,26764
201910150716,26764,26766,26764,26765
201910150717,26765,26766,26765,26765
201910150718,26765,26766,26765,26766
201910150719,26766,26766,26763,26764
201910150720,26764,26765,26764,26765
201910150721,26765,26765,26760,26762
201910150722,26762,26764,26762,26763
201910150723,26763,26766,26763,26766
201910150724,26766,26766,26763,26764
201910150725,26764,26767,26764,26767
201910150726,26767,26767,26765,26766
201910150727,26766,26768,26765,26768
201910150728,26768,26768,26768,26768
201910150729,26767,26769,26766,26766
201910150730,26766,26772,26766,26771
201910150731,26771,26773,26769,26771
201910150732,26771,26772,26770,26772
201910150733,26772,26772,26771,26771
201910150734,26771,26773,26771,26772
201910150735,26772,26772,26771,26772
201910150736,26772,26774,26771,26771
201910150737,26771,26772,26770,26772
201910150738,26772,26772,26771,26771
201910150739,26771,26774,26771,26772
201910150740,26772,26773,26765,26765
201910150741,26766,26766,26762,26762
201910150742,26762,26763,26760,26763
201910150743,26763,26770,26763,26770
201910150744,26770,26770,26767,26767
201910150745,26767,26768,26766,26768
201910150746,26768,26771,26768,26770
201910150747,26770,26772,26770,26771
201910150748,26772,26775,26772,26775
201910150749,26775,26775,26774,26774
201910150750,26774,26778,26772,26772
201910150751,26772,26775,26772,26773
201910150752,26773,26775,26773,26775
201910150753,26775,26775,26774,26775
201910150754,26775,26776,26772,26774
201910150755,26774,26775,26772,26774
201910150756,26774,26774,26772,26773
201910150757,26773,26773,26773,26773
201910150758,26773,26774,26773,26773
201910150759,26773,26773,26773,26773
201910150800,26773,26777,26773,26777
201910150801,26777,26778,26775,26776
201910150802,26776,26777,26776,26777
201910150803,26777,26777,26777,26777
201910150804,26777,26778,26777,26777
201910150805,26777,26777,26776,26777
201910150806,26777,26780,26777,26779
201910150807,26779,26779,26778,26778
201910150808,26778,26780,26778,26779
201910150809,26779,26781,26776,26777
201910150810,26777,26778,26777,26778
201910150811,26778,26779,26775,26776
201910150812,26776,26776,26772,26772
201910150813,26772,26773,26772,26773
201910150814,26773,26774,26772,26773
201910150815,26773,26775,26773,26775
201910150816,26774,26776,26772,26772
201910150817,26772,26775,26772,26774
201910150818,26774,26778,26773,26778
201910150819,26778,26778,26775,26775
201910150820,26775,26776,26775,26776
201910150821,26776,26779,26776,26779
201910150822,26779,26779,26776,26777
201910150823,26777,26778,26777,26778
201910150824,26778,26779,26777,26779
201910150825,26779,26780,26779,26780
201910150826,26780,26780,26780,26780
201910150827,26779,26780,26779,26780
201910150828,26780,26781,26778,26780
201910150829,26780,26780,26778,26778
201910150830,26778,26786,26778,26783
201910150831,26783,26788,26782,26785
201910150832,26785,26792,26785,26791
201910150833,26791,26792,26789,26790
201910150834,26790,26793,26790,26791
201910150835,26791,26796,26790,26794
201910150836,26794,26800,26794,26799
201910150837,26799,26799,26793,26794
201910150838,26793,26795,26792,26792
201910150839,26792,26793,26791,26792
201910150840,26792,26795,26790,26791
201910150841,26791,26796,26791,26796
201910150842,26797,26803,26796,26800
201910150843,26800,26805,26799,26804
201910150844,26804,26805,26799,26800
201910150845,26800,26803,26799,26801
201910150846,26801,26804,26798,26800
201910150847,26800,26804,26800,26804
201910150848,26804,26811,26804,26810
201910150849,26810,26811,26805,26806
201910150850,26806,26806,26801,26802
201910150851,26802,26809,26802,26807
201910150852,26807,26808,26806,26807
201910150853,26807,26808,26805,26806
201910150854,26806,26808,26806,26808
201910150855,26808,26808,26798,26802
201910150856,26801,26803,26799,26802
201910150857,26803,26807,26802,26802
201910150858,26802,26804,26802,26803
201910150859,26803,26805,26803,26804
201910150900,26804,26804,26798,26801
201910150901,26802,26803,26797,26799
201910150902,26799,26800,26795,26796
201910150903,26796,26797,26792,26792
201910150904,26793,26795,26791,26793
201910150905,26793,26800,26793,26798
201910150906,26798,26803,26797,26800
201910150907,26800,26802,26793,26798
201910150908,26798,26799,26792,26793
201910150909,26793,26797,26792,26797
201910150910,26796,26797,26793,26794
201910150911,26794,26796,26790,26790
201910150912,26790,26792,26790,26791
201910150913,26791,26793,26790,26793
201910150914,26793,26794,26793,26793
201910150915,26793,26794,26788,26788
201910150916,26789,26790,26786,26787
201910150917,26786,26793,26786,26791
201910150918,26791,26793,26791,26792
201910150919,26791,26794,26790,26793
201910150920,26792,26797,26792,26793
201910150921,26793,26795,26790,26791
201910150922,26791,26792,26789,26790
201910150923,26790,26790,26786,26786
201910150924,26786,26786,26783,26784
201910150925,26783,26786,26783,26784
201910150926,26784,26788,26784,26786
201910150927,26787,26788,26785,26787
201910150928,26786,26787,26785,26787
201910150929,26786,26791,26786,26790
201910150930,26790,26792,26790,26790
201910150931,26789,26791,26788,26788
201910150932,26788,26789,26784,26784
201910150933,26784,26784,26772,26772
201910150934,26771,26775,26770,26772
201910150935,26772,26773,26763,26763
201910150936,26763,26766,26760,26762
201910150937,26762,26769,26762,26766
201910150938,26766,26767,26763,26766
201910150939,26766,26768,26766,26766
201910150940,26766,26769,26766,26766
201910150941,26766,26768,26765,26766
201910150942,26766,26769,26766,26769
201910150943,26769,26773,26769,26773
201910150944,26773,26773,26771,26771
201910150945,26771,26774,26771,26773
201910150946,26773,26774,26772,26772
201910150947,26772,26777,26772,26776
201910150948,26777,26778,26775,26777
201910150949,26777,26778,26775,26778
201910150950,26777,26781,26777,26780
201910150951,26780,26783,26779,26783
201910150952,26783,26785,26781,26781
201910150953,26781,26784,26781,26783
201910150954,26783,26785,26782,26783
201910150955,26783,26784,26781,26782
201910150956,26782,26784,26782,26782
201910150957,26782,26782,26778,26778
201910150958,26778,26779,26777,26778
201910150959,26778,26780,26777,26778
201910151000,26779,26781,26777,26780
201910151001,26780,26780,26771,26773
201910151002,26773,26783,26773,26783
201910151003,26783,26787,26782,26787
201910151004,26787,26787,26785,26786
201910151005,26786,26787,26782,26783
201910151006,26783,26787,26783,26787
201910151007,26787,26790,26785,26789
201910151008,26789,26790,26788,26789
201910151009,26789,26790,26787,26789
201910151010,26789,26793,26789,26791
201910151011,26792,26792,26788,26789
201910151012,26789,26790,26787,26788
201910151013,26788,26788,26787,26787
201910151014,26787,26790,26787,26790
201910151015,26790,26793,26786,26787
201910151016,26786,26789,26785,26788
201910151017,26788,26794,26786,26793
201910151018,26793,26797,26792,26794
201910151019,26794,26798,26794,26797
201910151020,26798,26798,26793,26793
201910151021,26794,26798,26794,26795
201910151022,26795,26796,26795,26795
201910151023,26795,26797,26794,26794
201910151024,26794,26796,26793,26795
201910151025,26795,26795,26789,26789
201910151026,26788,26789,26786,26788
201910151027,26788,26791,26787,26790
201910151028,26790,26792,26789,26792
201910151029,26791,26793,26791,26793
201910151030,26793,26794,26789,26793
201910151031,26793,26800,26793,26796
201910151032,26796,26799,26795,26795
201910151033,26795,26796,26789,26790
201910151034,26790,26791,26786,26786
201910151035,26786,26792,26786,26788
201910151036,26788,26793,26787,26793
201910151037,26793,26799,26793,26799
201910151038,26799,26803,26797,26801
201910151039,26801,26806,26800,26803
201910151040,26803,26809,26802,26806
201910151041,26806,26807,26803,26803
201910151042,26803,26804,26796,26800
201910151043,26800,26801,26795,26797
201910151044,26797,26801,26797,26798
201910151045,26798,26799,26792,26795
201910151046,26794,26797,26793,26795
201910151047,26795,26797,26791,26792
201910151048,26792,26794,26785,26785
201910151049,26785,26785,26779,26781
201910151050,26781,26783,26778,26783
201910151051,26783,26783,26779,26781
201910151052,26781,26786,26781,26782
201910151053,26782,26787,26781,26785
201910151054,26785,26787,26784,26784
201910151055,26784,26791,26784,26790
201910151056,26790,26792,26789,26790
201910151057,26790,26792,26790,26792
201910151058,26792,26792,26789,26790
201910151059,26791,26792,26790,26790
201910151100,26790,26795,26790,26793
201910151101,26793,26794,26791,26792
201910151102,26791,26794,26791,26792
201910151103,26792,26793,26792,26792
201910151104,26792,26793,26790,26790
201910151105,26790,26793,26790,26792
201910151106,26792,26796,26792,26796
201910151107,26796,26800,26796,26799
201910151108,26799,26801,26798,26798
201910151109,26798,26800,26797,26798
201910151110,26798,26798,26794,26795
201910151111,26796,26800,26796,26799
201910151112,26798,26800,26797,26799
201910151113,26799,26799,26798,26799
201910151114,26799,26799,26794,26794
201910151115,26793,26798,26793,26796
201910151116,26796,26796,26794,26794
201910151117,26794,26795,26792,26794
201910151118,26794,26795,26793,26794
201910151119,26793,26797,26793,26795
201910151120,26795,26799,26795,26797
201910151121,26797,26797,26790,26792
201910151122,26792,26792,26787,26789
201910151123,26789,26791,26787,26791
201910151124,26790,26792,26789,26792
201910151125,26792,26793,26791,26791
201910151126,26791,26793,26791,26792
201910151127,26792,26795,26792,26793
201910151128,26794,26795,26793,26795
201910151129,26795,26796,26794,26795
201910151130,26795,26798,26795,26798
201910151131,26798,26801,26798,26799
201910151132,26799,26801,26796,26798
201910151133,26798,26803,26798,26800
201910151134,26800,26800,26797,26799
201910151135,26799,26800,26798,26800
201910151136,26800,26801,26798,26799
201910151137,26799,26799,26793,26794
201910151138,26794,26797,26794,26797
201910151139,26796,26798,26794,26798
201910151140,26798,26798,26793,26795
201910151141,26795,26797,26794,26797
201910151142,26798,26798,26796,26797
201910151143,26798,26798,26796,26798
201910151144,26798,26798,26798,26798
201910151145,26798,26798,26795,26795
201910151146,26796,26797,26796,26797
201910151147,26796,26798,26796,26798
201910151148,26798,26798,26796,26796
201910151149,26796,26796,26794,26795
201910151150,26795,26795,26792,26795
201910151151,26795,26797,26794,26796
201910151152,26797,26799,26797,26797
201910151153,26797,26798,26797,26797
201910151154,26798,26798,26796,26797
201910151155,26797,26798,26796,26797
201910151156,26797,26798,26796,26797
201910151157,26797,26798,26797,26798
201910151158,26797,26797,26796,26797
201910151159,26797,26797,26796,26796
201910151200,26796,26798,26795,26797
201910151201,26797,26800,26797,26800
201910151202,26800,26801,26799,26801
201910151203,26800,26801,26797,26799
201910151204,26799,26799,26797,26799
201910151205,26798,26799,26798,26798
201910151206,26798,26798,26795,26795
201910151207,26795,26795,26790,26791
201910151208,26791,26791,26789,26791
201910151209,26791,26791,26789,26789
201910151210,26790,26790,26788,26790
201910151211,26790,26791,26790,26791
201910151212,26791,26792,26790,26792
201910151213,26792,26792,26791,26792
201910151214,26792,26793,26792,26792
201910151215,26792,26792,26790,26790
201910151216,26790,26790,26790,26790
201910151217,26790,26790,26787,26788
201910151218,26787,26788,26785,26787
201910151219,26786,26787,26785,26786
201910151220,26786,26786,26783,26786
201910151221,26786,26787,26784,26787
201910151222,26788,26788,26785,26786
201910151223,26786,26787,26785,26786
201910151224,26785,26787,26784,26784
201910151225,26784,26785,26780,26784
201910151226,26784,26784,26777,26779
201910151227,26780,26780,26778,26780
201910151228,26780,26781,26778,26779
201910151229,26779,26782,26778,26782
201910151230,26782,26782,26780,26782
201910151231,26782,26784,26782,26783
201910151232,26783,26786,26783,26786
201910151233,26786,26786,26785,26786
201910151234,26786,26788,26785,26787
201910151235,26787,26789,26787,26788
201910151236,26788,26791,26788,26791
201910151237,26791,26792,26790,26791
201910151238,26791,26792,26791,26792
201910151239,26791,26792,26790,26791
201910151240,26791,26791,26788,26789
201910151241,26789,26791,26789,26789
201910151242,26789,26790,26789,26790
201910151243,26791,26791,26790,26790
201910151244,26790,26792,26790,26792
201910151245,26792,26792,26790,26790
201910151246,26791,26791,26789,26791
201910151247,26791,26793,26790,26791
201910151248,26792,26792,26790,26791
201910151249,26791,26792,26791,26791
201910151250,26791,26792,26790,26792
201910151251,26792,26793,26791,26792
201910151252,26792,26794,26792,26794
201910151253,26793,26795,26793,26794
201910151254,26794,26794,26793,26794
201910151255,26794,26795,26793,26794
201910151256,26795,26796,26793,26794
201910151257,26794,26796,26794,26795
201910151258,26795,26795,26794,26794
201910151259,26794,26795,26793,26794
201910151300,26794,26798,26794,26795
201910151301,26795,26798,26795,26798
201910151302,26798,26799,26797,26798
201910151303,26798,26799,26798,26799
201910151304,26799,26800,26797,26800
201910151305,26800,26800,26799,26800
201910151306,26800,26802,26800,26802
201910151307,26802,26803,26802,26802
201910151308,26803,26803,26802,26802
201910151309,26802,26802,26801,26801
201910151310,26801,26801,26800,26800
201910151311,26799,26799,26796,26797
201910151312,26796,26797,26795,26797
201910151313,26796,26797,26794,26795
201910151314,26795,26798,26794,26798
201910151315,26798,26798,26796,26796
201910151316,26795,26797,26795,26796
201910151317,26796,26796,26793,26794
201910151318,26794,26795,26793,26795
201910151319,26795,26795,26793,26794
201910151320,26794,26795,26793,26794
201910151321,26794,26794,26792,26792
201910151322,26792,26794,26792,26794
201910151323,26794,26795,26793,26793
201910151324,26793,26794,26793,26794
201910151325,26794,26795,26794,26795
201910151326,26795,26796,26794,26794
201910151327,26795,26795,26794,26795
201910151328,26795,26797,26795,26796
201910151329,26796,26800,26796,26799
201910151330,26799,26799,26799,26799
201910151331,26799,26799,26798,26798
201910151332,26799,26799,26798,26798
201910151333,26798,26798,26795,26796
201910151334,26796,26798,26796,26798
201910151335,26798,26799,26796,26797
201910151336,26797,26798,26797,26798
201910151337,26798,26801,26797,26800
201910151338,26800,26800,26798,26798
201910151339,26798,26800,26798,26800
201910151340,26800,26800,26799,26799
201910151341,26800,26800,26799,26800
201910151342,26800,26800,26798,26800
201910151343,26801,26801,26800,26800
201910151344,26800,26802,26800,26800
201910151345,26800,26804,26800,26804
201910151346,26803,26804,26803,26804
201910151347,26804,26806,26804,26805
201910151348,26806,26806,26804,26805
201910151349,26806,26807,26806,26807
201910151350,26807,26810,26806,26809
201910151351,26809,26809,26808,26808
201910151352,26808,26808,26806,26806
201910151353,26807,26807,26806,26806
201910151354,26807,26807,26803,26803
201910151355,26803,26804,26802,26804
201910151356,26804,26805,26803,26804
201910151357,26804,26806,26804,26805
201910151358,26805,26805,26804,26805
201910151359,26805,26806,26804,26804
201910151400,26804,26804,26802,26804
201910151401,26804,26807,26804,26806
201910151402,26806,26806,26803,26803
201910151403,26803,26803,26801,26802
201910151404,26802,26802,26799,26800
201910151405,26800,26800,26797,26798
201910151406,26798,26798,26797,26797
201910151407,26797,26801,26796,26801
201910151408,26801,26801,26799,26801
201910151409,26801,26801,26800,26801
201910151410,26801,26803,26801,26802
201910151411,26802,26802,26797,26797
201910151412,26797,26797,26796,26796
201910151413,26796,26798,26796,26798
201910151414,26798,26799,26797,26798
201910151415,26798,26800,26797,26799
201910151416,26799,26802,26799,26802
201910151417,26802,26802,26797,26799
201910151418,26799,26800,26799,26800
201910151419,26800,26801,26799,26799
201910151420,26799,26802,26799,26801
201910151421,26801,26802,26800,26801
201910151422,26801,26802,26799,26799
201910151423,26799,26800,26797,26800
201910151424,26800,26800,26799,26799
201910151425,26799,26800,26798,26798
201910151426,26798,26798,26796,26797
201910151427,26797,26798,26797,26797
201910151428,26797,26797,26796,26797
201910151429,26796,26799,26796,26799
201910151430,26799,26800,26799,26799
201910151431,26799,26799,26796,26796
201910151432,26796,26797,26796,26796
201910151433,26797,26798,26796,26797
201910151434,26797,26797,26796,26797
201910151435,26797,26797,26796,26797
201910151436,26797,26797,26796,26796
201910151437,26796,26797,26796,26797
201910151438,26797,26797,26795,26796
201910151439,26796,26797,26795,26795
201910151440,26796,26798,26795,26798
201910151441,26798,26798,26797,26798
201910151442,26798,26801,26797,26800
201910151443,26800,26802,26800,26802
201910151444,26802,26803,26801,26802
201910151445,26802,26802,26801,26801
201910151446,26801,26803,26801,26803
201910151447,26802,26805,26802,26805
201910151448,26805,26805,26801,26803
201910151449,26803,26804,26802,26802
201910151450,26802,26805,26802,26804
201910151451,26805,26808,26805,26808
201910151452,26808,26821,26808,26816
201910151453,26818,26819,26816,26817
201910151454,26817,26827,26815,26826
201910151455,26826,26833,26826,26831
201910151456,26831,26832,26826,26827
201910151457,26827,26828,26825,26826
201910151458,26825,26825,26823,26823
201910151459,26823,26824,26822,26822
201910151500,26822,26827,26822,26826
201910151501,26826,26832,26826,26832
201910151502,26831,26836,26828,26835
201910151503,26835,26837,26830,26833
201910151504,26833,26837,26833,26837
201910151505,26837,26841,26835,26835
201910151506,26835,26837,26831,26832
201910151507,26832,26835,26832,26834
201910151508,26835,26838,26835,26835
201910151509,26835,26835,26832,26834
201910151510,26834,26836,26833,26834
201910151511,26834,26838,26834,26838
201910151512,26838,26841,26831,26831
201910151513,26832,26835,26830,26834
201910151514,26833,26836,26833,26835
201910151515,26835,26836,26831,26831
201910151516,26831,26833,26831,26833
201910151517,26833,26835,26832,26833
201910151518,26833,26836,26832,26836
201910151519,26835,26836,26830,26832
201910151520,26832,26833,26829,26830
201910151521,26830,26832,26829,26832
201910151522,26831,26832,26830,26831
201910151523,26831,26831,26825,26828
201910151524,26828,26831,26824,26831
201910151525,26831,26834,26828,26834
201910151526,26834,26834,26831,26832
201910151527,26833,26835,26832,26833
201910151528,26833,26851,26833,26849
201910151529,26849,26857,26848,26854
201910151530,26854,26855,26850,26853
201910151531,26853,26858,26853,26858
201910151532,26858,26870,26857,26866
201910151533,26866,26866,26859,26860
201910151534,26860,26861,26859,26860
201910151535,26860,26865,26858,26860
201910151536,26859,26860,26854,26856
201910151537,26856,26862,26855,26860
201910151538,26860,26866,26860,26864
201910151539,26863,26863,26858,26862
201910151540,26862,26862,26858,26860
201910151541,26860,26861,26859,26861
201910151542,26861,26862,26858,26861
201910151543,26861,26862,26859,26860
201910151544,26860,26863,26860,26863
201910151545,26863,26866,26862,26865
201910151546,26865,26867,26864,26867
201910151547,26867,26873,26866,26870
201910151548,26870,26876,26870,26874
201910151549,26874,26878,26873,26877
201910151550,26877,26883,26875,26876
201910151551,26876,26877,26873,26875
201910151552,26874,26877,26874,26876
201910151553,26876,26877,26875,26876
201910151554,26876,26877,26875,26876
201910151555,26876,26878,26876,26877
201910151556,26877,26878,26875,26877
201910151557,26877,26877,26870,26871
201910151558,26871,26871,26870,26871
201910151559,26871,26873,26870,26871
201910151600,26871,26879,26869,26876
201910151601,26876,26883,26876,26877
201910151602,26877,26880,26873,26873
201910151603,26873,26880,26873,26880
201910151604,26880,26881,26872,26873
201910151605,26873,26879,26872,26878
201910151606,26879,26879,26873,26874
201910151607,26875,26875,26870,26871
201910151608,26871,26872,26865,26866
201910151609,26866,26866,26858,26858
201910151610,26858,26862,26856,26862
201910151611,26862,26868,26862,26865
201910151612,26865,26870,26864,26869
201910151613,26869,26874,26869,26871
201910151614,26871,26871,26866,26867
201910151615,26867,26879,26867,26875
201910151616,26875,26879,26874,26874
201910151617,26874,26878,26874,26877
201910151618,26877,26877,26869,26869
201910151619,26869,26871,26868,26869
201910151620,26869,26873,26866,26873
201910151621,26873,26875,26870,26873
201910151622,26874,26878,26873,26877
201910151623,26878,26878,26872,26876
201910151624,26877,26877,26871,26872
201910151625,26872,26875,26868,26868
201910151626,26868,26872,26866,26869
201910151627,26869,26875,26869,26874
201910151628,26874,26876,26872,26876
201910151629,26875,26879,26874,26879
201910151630,26879,26888,26879,26881
201910151631,26880,26886,26879,26882
201910151632,26882,26883,26878,26878
201910151633,26878,26879,26869,26873
201910151634,26873,26877,26872,26873
201910151635,26873,26875,26871,26873
201910151636,26873,26876,26873,26875
201910151637,26875,26876,26869,26870
201910151638,26871,26872,26867,26870
201910151639,26870,26874,26868,26873
201910151640,26873,26873,26870,26872
201910151641,26871,26872,26868,26871
201910151642,26871,26873,26868,26872
201910151643,26872,26874,26870,26872
201910151644,26872,26875,26868,26869
201910151645,26869,26876,26867,26875
201910151646,26875,26875,26871,26873
201910151647,26872,26873,26870,26872
201910151648,26872,26875,26872,26873
201910151649,26873,26874,26872,26873
201910151650,26872,26874,26871,26872
201910151651,26872,26873,26866,26869
201910151652,26869,26869,26864,26865
201910151653,26865,26865,26861,26862
201910151654,26862,26862,26856,26857
201910151655,26857,26860,26857,26858
201910151656,26858,26860,26857,26857
201910151657,26857,26861,26857,26859
201910151658,26859,26861,26857,26859
201910151659,26859,26860,26855,26855
201910151700,26855,26857,26843,26844
201910151701,26844,26848,26842,26845
201910151702,26847,26848,26844,26847
201910151703,26847,26849,26846,26847
201910151704,26847,26848,26845,26845
201910151705,26845,26846,26842,26844
201910151706,26844,26849,26844,26848
201910151707,26848,26851,26847,26848
201910151708,26848,26850,26847,26850
201910151709,26849,26849,26842,26843
201910151710,26843,26846,26842,26843
201910151711,26843,26846,26843,26846
201910151712,26846,26852,26846,26852
201910151713,26852,26864,26851,26861
201910151714,26861,26861,26855,26855
201910151715,26855,26858,26853,26857
201910151716,26857,26858,26855,26857
201910151717,26857,26857,26855,26856
201910151718,26856,26856,26850,26850
201910151719,26850,26862,26850,26862
201910151720,26863,26863,26856,26856
201910151721,26855,26855,26850,26855
201910151722,26855,26855,26848,26850
201910151723,26850,26853,26849,26851
201910151724,26851,26851,26846,26847
201910151725,26847,26854,26846,26853
201910151726,26853,26853,26844,26845
201910151727,26845,26846,26843,26844
201910151728,26843,26845,26843,26844
201910151729,26844,26850,26843,26850
201910151730,26849,26853,26847,26853
201910151731,26853,26877,26851,26869
201910151732,26869,26870,26864,26867
201910151733,26867,26874,26866,26873
201910151734,26872,26875,26870,26871
201910151735,26871,26871,26862,26862
201910151736,26862,26862,26856,26857
201910151737,26857,26858,26854,26856
201910151738,26856,26858,26853,26855
201910151739,26856,26857,26853,26854
201910151740,26854,26854,26844,26844
201910151741,26844,26849,26844,26849
201910151742,26848,26850,26847,26849
201910151743,26849,26849,26845,26846
201910151744,26846,26853,26846,26852
201910151745,26852,26855,26852,26855
201910151746,26855,26858,26852,26852
201910151747,26852,26855,26851,26855
201910151748,26855,26855,26845,26847
201910151749,26848,26848,26839,26841
201910151750,26842,26845,26838,26838
201910151751,26838,26841,26838,26838
201910151752,26839,26839,26827,26828
201910151753,26828,26834,26825,26833
201910151754,26833,26833,26826,26827
201910151755,26827,26829,26824,26827
201910151756,26827,26829,26822,26827
201910151757,26827,26829,26824,26825
201910151758,26824,26825,26819,26821
201910151759,26821,26831,26821,26831
201910151800,26831,26833,26825,26825
201910151801,26825,26831,26825,26829
201910151802,26829,26829,26822,26824
201910151803,26824,26827,26821,26826
201910151804,26826,26827,26823,26823
201910151805,26823,26827,26820,26821
201910151806,26820,26825,26820,26823
201910151807,26822,26830,26822,26829
201910151808,26829,26833,26828,26831
201910151809,26831,26837,26819,26822
201910151810,26820,26839,26817,26837
201910151811,26837,26842,26834,26836
201910151812,26836,26837,26832,26832
201910151813,26832,26836,26830,26835
201910151814,26834,26835,26833,26835
201910151815,26835,26835,26834,26835
201910151816,26835,26837,26832,26837
201910151817,26837,26842,26835,26841
201910151818,26841,26842,26839,26842
201910151819,26842,26842,26834,26836
201910151820,26835,26839,26834,26834
201910151821,26834,26837,26834,26834
201910151822,26835,26840,26834,26839
201910151823,26839,26841,26838,26839
201910151824,26839,26839,26833,26833
201910151825,26833,26838,26830,26830
201910151826,26830,26833,26828,26828
201910151827,26828,26831,26826,26831
201910151828,26831,26837,26830,26837
201910151829,26837,26837,26831,26833
201910151830,26833,26838,26832,26837
201910151831,26838,26838,26833,26834
201910151832,26834,26834,26829,26829
201910151833,26830,26832,26829,26831
201910151834,26831,26839,26830,26835
201910151835,26835,26838,26834,26835
201910151836,26835,26841,26835,26840
201910151837,26840,26842,26837,26837
201910151838,26838,26839,26836,26836
201910151839,26836,26842,26836,26838
201910151840,26839,26840,26836,26836
201910151841,26835,26836,26833,26834
201910151842,26834,26838,26834,26838
201910151843,26837,26839,26834,26835
201910151844,26834,26838,26833,26838
201910151845,26838,26838,26832,26835
201910151846,26835,26837,26831,26832
201910151847,26833,26833,26828,26832
201910151848,26832,26833,26832,26833
201910151849,26833,26837,26833,26835
201910151850,26835,26838,26835,26836
201910151851,26836,26837,26835,26836
201910151852,26836,26841,26835,26840
201910151853,26840,26841,26835,26837
201910151854,26838,26841,26836,26839
201910151855,26839,26859,26839,26859
201910151856,26859,26859,26848,26857
201910151857,26857,26860,26855,26860
201910151858,26860,26866,26859,26861
201910151859,26861,26863,26857,26860
201910151900,26860,26862,26857,26857
201910151901,26857,26861,26856,26859
201910151902,26860,26871,26859,26870
201910151903,26870,26871,26865,26870
201910151904,26870,26871,26867,26869
201910151905,26869,26869,26863,26864
201910151906,26864,26865,26862,26865
201910151907,26865,26868,26862,26866
201910151908,26866,26866,26865,26866
201910151909,26866,26866,26864,26865
201910151910,26865,26865,26862,26862
201910151911,26862,26863,26860,26861
201910151912,26859,26863,26859,26862
201910151913,26862,26866,26862,26863
201910151914,26863,26866,26863,26866
201910151915,26866,26869,26865,26869
201910151916,26869,26869,26865,26868
201910151917,26868,26870,26867,26868
201910151918,26868,26875,26857,26863
201910151919,26863,26867,26844,26846
201910151920,26846,26852,26846,26851
201910151921,26851,26851,26827,26831
201910151922,26831,26835,26815,26817
201910151923,26817,26817,26800,26801
201910151924,26800,26815,26800,26811
201910151925,26811,26811,26803,26807
201910151926,26807,26809,26802,26807
201910151927,26807,26811,26806,26811
201910151928,26811,26813,26809,26809
201910151929,26808,26813,26807,26811
201910151930,26812,26812,26807,26807
201910151931,26807,26815,26806,26815
201910151932,26815,26816,26812,26813
201910151933,26813,26815,26811,26813
201910151934,26813,26817,26813,26816
201910151935,26816,26816,26810,26811
201910151936,26811,26814,26810,26812
201910151937,26813,26814,26806,26806
201910151938,26806,26810,26806,26806
201910151939,26806,26810,26804,26808
201910151940,26808,26828,26808,26823
201910151941,26823,26824,26820,26824
201910151942,26825,26831,26824,26828
201910151943,26828,26828,26823,26825
201910151944,26826,26829,26824,26827
201910151945,26827,26829,26825,26827
201910151946,26827,26832,26827,26832
201910151947,26832,26832,26830,26831
201910151948,26831,26836,26831,26835
201910151949,26835,26837,26833,26833
201910151950,26834,26849,26831,26843
201910151951,26842,26855,26841,26844
201910151952,26844,26844,26830,26833
201910151953,26833,26838,26833,26838
201910151954,26838,26844,26837,26841
201910151955,26841,26842,26837,26840
201910151956,26840,26851,26840,26848
201910151957,26848,26856,26846,26853
201910151958,26853,26854,26848,26848
201910151959,26848,26848,26841,26841
201910152000,26840,26849,26838,26847
201910152001,26847,26852,26845,26852
201910152002,26851,26857,26848,26856
201910152003,26856,26864,26855,26863
201910152004,26863,26876,26863,26868
201910152005,26868,26868,26861,26862
201910152006,26862,26866,26858,26860
201910152007,26859,26861,26857,26859
201910152008,26859,26862,26858,26859
201910152009,26858,26858,26855,26858
201910152010,26858,26858,26849,26852
201910152011,26852,26858,26852,26856
201910152012,26856,26856,26851,26853
201910152013,26852,26853,26844,26849
201910152014,26849,26851,26848,26848
201910152015,26847,26850,26846,26849
201910152016,26849,26852,26849,26850
201910152017,26850,26852,26850,26851
201910152018,26851,26857,26849,26851
201910152019,26851,26852,26848,26848
201910152020,26848,26848,26846,26847
201910152021,26847,26850,26846,26849
201910152022,26849,26850,26847,26847
201910152023,26847,26850,26837,26838
201910152024,26838,26841,26833,26836
201910152025,26836,26837,26832,26835
201910152026,26835,26838,26834,26835
201910152027,26835,26843,26835,26843
201910152028,26843,26844,26838,26840
201910152029,26840,26843,26840,26842
201910152030,26842,26844,26837,26837
201910152031,26837,26837,26828,26829
201910152032,26828,26830,26823,26829
201910152033,26829,26830,26826,26826
201910152034,26826,26828,26826,26827
201910152035,26827,26828,26826,26828
201910152036,26828,26831,26826,26827
201910152037,26827,26838,26827,26837
201910152038,26837,26837,26829,26830
201910152039,26830,26834,26829,26830
201910152040,26830,26832,26830,26830
201910152041,26830,26834,26828,26834
201910152042,26834,26834,26829,26832
201910152043,26832,26832,26823,26826
201910152044,26826,26827,26822,26825
201910152045,26825,26827,26823,26823
201910152046,26823,26825,26820,26822
201910152047,26822,26825,26822,26825
201910152048,26824,26825,26822,26823
201910152049,26823,26823,26813,26815
201910152050,26815,26818,26810,26810
201910152051,26810,26812,26810,26810
201910152052,26810,26815,26808,26815
201910152053,26815,26821,26813,26820
201910152054,26820,26858,26816,26840
201910152055,26840,26844,26811,26821
201910152056,26821,26829,26818,26824
201910152057,26824,26824,26817,26824
201910152058,26824,26829,26823,26823
201910152059,26824,26828,26824,26827
201910152100,26827,26828,26816,26817
201910152101,26817,26819,26810,26812
201910152102,26812,26812,26805,26806
201910152103,26806,26816,26806,26813
201910152104,26813,26815,26812,26813
201910152105,26813,26820,26813,26817
201910152106,26817,26818,26815,26816
201910152107,26816,26817,26814,26815
201910152108,26815,26818,26812,26818
201910152109,26818,26820,26814,26815
201910152110,26815,26817,26808,26817
201910152111,26817,26818,26815,26817
201910152112,26817,26819,26815,26818
201910152113,26818,26820,26816,26818
201910152114,26818,26819,26817,26819
201910152115,26818,26822,26817,26821
201910152116,26822,26827,26821,26826
201910152117,26826,26830,26826,26830
201910152118,26830,26831,26826,26829
201910152119,26829,26830,26828,26829
201910152120,26829,26832,26827,26829
201910152121,26829,26831,26826,26828
201910152122,26829,26829,26825,26825
201910152123,26825,26829,26824,26829
201910152124,26829,26830,26826,26826
201910152125,26826,26830,26826,26827
201910152126,26827,26830,26827,26830
201910152127,26830,26831,26829,26830
201910152128,26830,26830,26828,26829
201910152129,26828,26829,26825,26825
201910152130,26825,26837,26824,26827
201910152131,26827,26828,26825,26825
201910152132,26825,26828,26822,26825
201910152133,26825,26826,26824,26826
201910152134,26826,26826,26824,26825
201910152135,26825,26825,26823,26824
201910152136,26824,26825,26822,26824
201910152137,26824,26826,26822,26826
201910152138,26826,26826,26821,26822
201910152139,26822,26824,26822,26822
201910152140,26822,26822,26820,26821
201910152141,26821,26824,26820,26823
201910152142,26823,26827,26822,26827
201910152143,26827,26827,26823,26823
201910152144,26824,26824,26821,26822
201910152145,26822,26825,26821,26825
201910152146,26826,26826,26822,26825
201910152147,26824,26825,26823,26824
201910152148,26823,26823,26818,26822
201910152149,26821,26824,26820,26824
201910152150,26824,26825,26823,26825
201910152151,26826,26832,26826,26830
201910152152,26830,26830,26826,26826
201910152153,26827,26828,26825,26828
201910152154,26828,26830,26827,26828
201910152155,26828,26829,26826,26827
201910152156,26827,26827,26824,26825
201910152157,26826,26827,26825,26826
201910152158,26826,26828,26825,26827
201910152159,26826,26832,26826,26832
201910152200,26832,26832,26825,26830
201910152201,26830,26833,26830,26832
201910152202,26832,26834,26829,26831
201910152203,26830,26833,26830,26833
201910152204,26833,26835,26832,26835
201910152205,26836,26844,26835,26844
201910152206,26844,26845,26838,26839
201910152207,26839,26839,26835,26837
201910152208,26837,26840,26835,26838
201910152209,26838,26850,26838,26850
201910152210,26849,26853,26849,26852
201910152211,26852,26857,26852,26857
201910152212,26857,26868,26857,26866
201910152213,26866,26867,26858,26860
201910152214,26860,26864,26860,26863
201910152215,26863,26864,26860,26863
201910152216,26863,26865,26863,26864
201910152217,26863,26864,26861,26861
201910152218,26861,26863,26860,26861
201910152219,26861,26863,26858,26858
201910152220,26858,26859,26855,26855
201910152221,26855,26858,26854,26858
201910152222,26857,26861,26856,26861
201910152223,26861,26862,26859,26862
201910152224,26862,26865,26861,26861
201910152225,26861,26870,26859,26867
201910152226,26867,26880,26867,26876
201910152227,26875,26879,26868,26871
201910152228,26871,26881,26864,26878
201910152229,26877,26879,26867,26871
201910152230,26871,26877,26854,26877
201910152231,26877,26887,26873,26876
201910152232,26876,26883,26864,26869
201910152233,26869,26873,26863,26866
201910152234,26866,26870,26853,26857
201910152235,26858,26867,26851,26854
201910152236,26854,26856,26843,26855
201910152237,26855,26858,26848,26858
201910152238,26858,26861,26846,26846
201910152239,26846,26863,26846,26862
201910152240,26860,26866,26856,26861
201910152241,26861,26866,26859,26865
201910152242,26865,26870,26857,26867
201910152243,26867,26883,26867,26877
201910152244,26877,26881,26872,26875
201910152245,26875,26878,26867,26871
201910152246,26870,26874,26868,26869
201910152247,26869,26883,26867,26880
201910152248,26880,26895,26880,26890
201910152249,26889,26891,26886,26889
201910152250,26888,26891,26880,26882
201910152251,26883,26886,26877,26878
201910152252,26878,26880,26871,26871
201910152253,26871,26879,26871,26878
201910152254,26878,26881,26872,26872
201910152255,26872,26873,26865,26866
201910152256,26867,26870,26861,26868
201910152257,26869,26879,26869,26873
201910152258,26873,26882,26873,26879
201910152259,26879,26884,26879,26880
201910152300,26880,26882,26877,26882
201910152301,26882,26885,26876,26876
201910152302,26876,26890,26876,26882
201910152303,26882,26888,26881,26885
201910152304,26885,26891,26883,26891
201910152305,26891,26893,26882,26885
201910152306,26885,26889,26883,26886
201910152307,26886,26891,26885,26888
201910152308,26888,26889,26886,26888
201910152309,26888,26895,26886,26895
201910152310,26895,26909,26892,26909
201910152311,26908,26918,26906,26917
201910152312,26918,26923,26916,26916
201910152313,26916,26926,26915,26925
201910152314,26925,26931,26925,26928
201910152315,26928,26941,26928,26940
201910152316,26940,26948,26940,26943
201910152317,26942,26942,26935,26940
201910152318,26940,26946,26940,26942
201910152319,26942,26949,26942,26947
201910152320,26947,26956,26947,26950
201910152321,26950,26950,26943,26946
201910152322,26945,26946,26942,26942
201910152323,26943,26944,26936,26936
201910152324,26936,26937,26932,26935
201910152325,26935,26939,26933,26939
201910152326,26940,26948,26938,26948
201910152327,26948,26971,26946,26967
201910152328,26968,26984,26968,26980
201910152329,26980,26988,26972,26973
201910152330,26973,26984,26967,26973
201910152331,26972,26981,26972,26978
201910152332,26978,26992,26978,26982
201910152333,26982,26985,26977,26977
201910152334,26977,26980,26974,26980
201910152335,26980,27000,26980,27000
201910152336,27001,27007,26990,26992
201910152337,26992,27003,26990,27002
201910152338,27004,27009,27000,27006
201910152339,27006,27014,27004,27010
201910152340,27010,27031,27010,27028
201910152341,27028,27031,27012,27014
201910152342,27014,27016,27001,27006
201910152343,27005,27013,27005,27013
201910152344,27012,27024,27012,27018
201910152345,27018,27022,27014,27018
201910152346,27017,27024,27015,27019
201910152347,27019,27024,27017,27021
201910152348,27021,27022,27017,27017
201910152349,27017,27020,27017,27017
201910152350,27017,27024,27017,27023
201910152351,27023,27025,27010,27010
201910152352,27010,27030,27010,27029
201910152353,27030,27033,27026,27030
201910152354,27030,27045,27030,27037
201910152355,27037,27041,27032,27038
201910152356,27038,27040,27034,27039
201910152357,27039,27051,27037,27049
201910152358,27048,27059,27046,27052
201910152359,27051,27065,27051,27065
201910160000,27064,27068,27055,27063
201910160001,27062,27077,27062,27075
201910160002,27075,27077,27064,27074
201910160003,27074,27074,27065,27067
201910160004,27067,27068,27057,27057
201910160005,27058,27059,27048,27050
201910160006,27051,27060,27046,27060
201910160007,27060,27064,27058,27061
201910160008,27061,27061,27057,27057
201910160009,27057,27057,27041,27042
201910160010,27042,27042,27030,27031
201910160011,27030,27033,27026,27026
201910160012,27026,27026,27015,27016
201910160013,27016,27017,27012,27014
201910160014,27015,27016,27008,27014
201910160015,27014,27018,27008,27009
201910160016,27009,27013,27008,27010
201910160017,27010,27010,26994,26996
201910160018,26996,27004,26995,26997
201910160019,26997,26998,26992,26997
201910160020,26997,27003,26995,27003
201910160021,27004,27004,26986,26986
201910160022,26986,26991,26983,26991
201910160023,26990,26993,26987,26988
201910160024,26988,26996,26986,26994
201910160025,26994,27010,26993,27009
201910160026,27009,27012,27008,27009
201910160027,27009,27011,27006,27007
201910160028,27007,27017,27005,27012
201910160029,27012,27031,27012,27028
201910160030,27028,27028,27018,27020
201910160031,27020,27024,27020,27023
201910160032,27022,27023,27018,27021
201910160033,27021,27023,27017,27017
201910160034,27017,27020,27006,27007
201910160035,27007,27015,27000,27001
201910160036,27001,27002,26995,26995
201910160037,26995,26997,26988,26989
201910160038,26989,26995,26989,26993
201910160039,26993,26998,26991,26997
201910160040,26997,27010,26996,27010
201910160041,27010,27014,27009,27011
201910160042,27011,27015,27010,27014
201910160043,27014,27015,27010,27010
201910160044,27011,27015,27008,27013
201910160045,27012,27014,27006,27006
201910160046,27006,27006,26992,26993
201910160047,26993,26998,26992,26997
201910160048,26997,26999,26994,26996
201910160049,26996,27007,26996,27006
201910160050,27007,27013,27006,27010
201910160051,27010,27011,27008,27008
201910160052,27008,27011,27007,27009
201910160053,27009,27015,27009,27012
201910160054,27011,27011,27004,27004
201910160055,27004,27004,26997,27004
201910160056,27004,27013,27004,27011
201910160057,27012,27013,27005,27005
201910160058,27005,27007,27004,27006
201910160059,27006,27007,27004,27007
201910160100,27007,27011,27007,27009
201910160101,27009,27009,27004,27007
201910160102,27007,27014,27006,27013
201910160103,27014,27015,27010,27011
201910160104,27011,27012,27007,27009
201910160105,27009,27009,27006,27009
201910160106,27009,27012,27008,27011
201910160107,27012,27013,27008,27010
201910160108,27009,27009,27002,27002
201910160109,27002,27004,26999,26999
201910160110,26999,27003,26998,27002
201910160111,27002,27002,26998,27002
201910160112,27001,27003,26999,27001
201910160113,27001,27001,26998,26999
201910160114,26999,27004,26999,27002
201910160115,27003,27006,27000,27006
201910160116,27005,27005,27000,27002
201910160117,27002,27005,27000,27000
201910160118,27000,27000,26991,26991
201910160119,26991,26996,26990,26993
201910160120,26993,26998,26992,26998
201910160121,26998,27000,26989,26989
201910160122,26989,26992,26986,26989
201910160123,26989,26991,26986,26986
201910160124,26986,26987,26982,26984
201910160125,26985,26990,26982,26985
201910160126,26985,26987,26978,26979
201910160127,26978,26986,26978,26985
201910160128,26985,26988,26981,26982
201910160129,26982,26988,26981,26987
201910160130,26987,26990,26985,26988
201910160131,26989,26990,26985,26986
201910160132,26986,26994,26985,26990
201910160133,26990,26992,26989,26991
201910160134,26991,26991,26986,26987
201910160135,26987,26989,26986,26988
201910160136,26988,26991,26986,26990
201910160137,26990,26995,26989,26995
201910160138,26995,26997,26993,26997
201910160139,26997,27001,26994,27000
201910160140,27000,27003,27000,27000
201910160141,27000,27002,26993,26996
201910160142,26996,27004,26995,27003
201910160143,27003,27004,27000,27004
201910160144,27004,27004,26998,26999
201910160145,26999,27002,26997,26998
201910160146,26997,26997,26991,26993
201910160147,26993,26996,26992,26995
201910160148,26994,26995,26993,26994
201910160149,26994,26997,26993,26996
201910160150,26996,27001,26993,26993
201910160151,26993,26996,26993,26995
201910160152,26995,26999,26993,26997
201910160153,26997,27001,26995,27001
201910160154,27001,27003,27000,27003
201910160155,27004,27014,27004,27009
201910160156,27009,27013,27006,27013
201910160157,27013,27016,27011,27016
201910160158,27016,27016,27012,27014
201910160159,27013,27019,27013,27019
201910160200,27020,27024,27020,27021
201910160201,27021,27021,27016,27019
201910160202,27019,27021,27014,27015
201910160203,27015,27017,27013,27013
201910160204,27013,27016,27013,27014
201910160205,27014,27020,27013,27019
201910160206,27018,27021,27017,27018
201910160207,27018,27018,27011,27013
201910160208,27012,27013,27006,27006
201910160209,27005,27008,27002,27005
201910160210,27005,27010,27004,27009
201910160211,27009,27015,27009,27012
201910160212,27012,27016,27012,27016
201910160213,27016,27016,27013,27013
201910160214,27013,27014,27008,27009
201910160215,27009,27012,27007,27010
201910160216,27009,27013,27009,27012
201910160217,27013,27016,27012,27016
201910160218,27017,27018,27014,27016
201910160219,27016,27017,27014,27017
201910160220,27018,27019,27015,27016
201910160221,27016,27018,27014,27017
201910160222,27018,27018,27014,27014
201910160223,27014,27016,27011,27014
201910160224,27013,27013,26998,26998
201910160225,26997,27005,26996,27005
201910160226,27005,27010,27004,27010
201910160227,27010,27011,27005,27005
201910160228,27005,27006,27003,27005
201910160229,27004,27006,27003,27006
201910160230,27006,27013,27005,27013
201910160231,27013,27013,27011,27012
201910160232,27012,27012,27007,27007
201910160233,27007,27011,27006,27011
201910160234,27011,27016,27011,27012
201910160235,27012,27017,27011,27017
201910160236,27017,27018,27012,27012
201910160237,27012,27015,27012,27014
201910160238,27014,27015,27012,27014
201910160239,27015,27017,27012,27017
201910160240,27017,27019,27014,27014
201910160241,27013,27014,27011,27012
201910160242,27012,27015,27010,27014
201910160243,27014,27014,27011,27011
201910160244,27011,27014,27011,27014
201910160245,27014,27024,27012,27021
201910160246,27021,27023,27018,27023
201910160247,27022,27022,27020,27021
201910160248,27021,27023,27021,27021
201910160249,27021,27022,27020,27022
201910160250,27021,27028,27021,27028
201910160251,27029,27032,27026,27026
201910160252,27026,27026,27020,27026
201910160253,27026,27031,27026,27029
201910160254,27029,27033,27028,27031
201910160255,27031,27034,27029,27033
201910160256,27034,27039,27032,27034
201910160257,27034,27035,27026,27026
201910160258,27026,27029,27025,27029
201910160259,27029,27029,27024,27024
201910160300,27024,27032,27023,27031
201910160301,27031,27033,27028,27032
201910160302,27032,27032,27027,27031
201910160303,27031,27032,27029,27029
201910160304,27029,27033,27029,27033
201910160305,27034,27034,27017,27018
201910160306,27018,27025,27018,27022
201910160307,27022,27025,27021,27022
201910160308,27022,27024,27022,27024
201910160309,27024,27032,27024,27030
201910160310,27030,27041,27030,27039
201910160311,27039,27039,27034,27035
201910160312,27035,27038,27032,27037
201910160313,27037,27038,27033,27034
201910160314,27034,27036,27032,27035
201910160315,27035,27038,27035,27036
201910160316,27036,27038,27036,27037
201910160317,27037,27039,27036,27039
201910160318,27039,27042,27039,27041
201910160319,27041,27043,27039,27039
201910160320,27039,27045,27037,27044
201910160321,27044,27045,27042,27043
201910160322,27043,27049,27043,27048
201910160323,27048,27053,27048,27051
201910160324,27051,27054,27049,27053
201910160325,27053,27054,27052,27053
201910160326,27053,27055,27046,27048
201910160327,27049,27051,27047,27049
201910160328,27049,27052,27048,27051
201910160329,27051,27051,27042,27042
201910160330,27042,27042,27036,27038
201910160331,27038,27043,27037,27043
201910160332,27043,27043,27032,27032
201910160333,27032,27033,27030,27031
201910160334,27031,27034,27029,27029
201910160335,27029,27033,27029,27032
201910160336,27032,27035,27032,27032
201910160337,27032,27034,27030,27032
201910160338,27032,27033,27031,27031
201910160339,27031,27031,27025,27028
201910160340,27028,27034,27027,27034
201910160341,27034,27040,27032,27039
201910160342,27040,27040,27034,27034
201910160343,27034,27037,27034,27036
201910160344,27036,27040,27036,27039
201910160345,27040,27044,27037,27039
201910160346,27039,27039,27034,27037
201910160347,27037,27040,27035,27036
201910160348,27036,27036,27033,27033
201910160349,27033,27033,27026,27030
201910160350,27030,27034,27027,27032
201910160351,27032,27034,27031,27032
201910160352,27032,27033,27029,27029
201910160353,27029,27034,27028,27034
201910160354,27033,27036,27030,27031
201910160355,27031,27036,27031,27034
201910160356,27034,27034,27029,27030
201910160357,27031,27031,27023,27025
201910160358,27024,27024,27017,27018
201910160359,27018,27025,27016,27024
201910160400,27024,27024,27019,27021
201910160401,27021,27022,27018,27022
201910160402,27021,27021,27015,27015
201910160403,27015,27016,27011,27014
201910160404,27014,27018,27011,27017
201910160405,27017,27019,27016,27017
201910160406,27017,27022,27017,27020
201910160407,27020,27022,27019,27019
201910160408,27018,27019,27012,27014
201910160409,27014,27014,27009,27013
201910160410,27013,27013,27008,27008
201910160411,27008,27010,27006,27008
201910160412,27007,27007,27002,27003
201910160413,27003,27006,27002,27003
201910160414,27003,27006,27003,27005
201910160415,27005,27005,26997,27003
201910160416,27002,27005,27002,27004
201910160417,27004,27012,27003,27012
201910160418,27012,27014,27012,27012
201910160419,27011,27011,27004,27005
201910160420,27005,27012,27005,27011
201910160421,27011,27011,27004,27004
201910160422,27005,27010,27004,27010
201910160423,27009,27012,27007,27012
201910160424,27012,27016,27011,27016
201910160425,27016,27018,27010,27018
201910160426,27018,27023,27015,27015
201910160427,27015,27019,27015,27018
201910160428,27018,27020,27016,27017
201910160429,27017,27025,27016,27024
201910160430,27025,27028,27019,27019
201910160431,27019,27026,27018,27023
201910160432,27022,27023,27011,27012
201910160433,27012,27014,27000,27002
201910160434,27002,27013,27002,27010
201910160435,27010,27015,27010,27013
201910160436,27014,27016,27008,27009
201910160437,27009,27010,27003,27003
201910160438,27003,27004,27001,27004
201910160439,27004,27009,27001,27001
201910160440,27001,27002,26999,27002
201910160441,27003,27003,26998,27002
201910160442,27003,27004,26993,26996
201910160443,26996,26997,26995,26997
201910160444,26996,26997,26993,26993
201910160445,26993,26998,26988,26997
201910160446,26997,27001,26996,27000
201910160447,26999,26999,26986,26986
201910160448,26986,26994,26986,26988
201910160449,26989,26989,26980,26985
201910160450,26985,26997,26982,26994
201910160451,26994,26999,26994,26998
201910160452,26997,26997,26989,26994
201910160453,26994,26994,26985,26986
201910160454,26986,26991,26982,26986
201910160455,26986,27005,26985,26995
201910160456,26995,26995,26986,26987
201910160457,26987,26990,26983,26989
201910160458,26989,27001,26984,26996
201910160459,26997,26997,26981,26982
201910160500,26981,26992,26980,26988
201910160501,26988,27001,26988,27000
201910160502,27000,27002,26997,26997
201910160503,26998,26998,26994,26998
201910160504,26998,26999,26995,26996
201910160505,26996,26996,26985,26993
201910160506,26993,26996,26986,26994
201910160507,26994,26997,26993,26997
201910160508,26997,26998,26995,26996
201910160509,26996,26996,26988,26994
201910160510,26994,26994,26989,26989
201910160511,26989,26991,26988,26989
201910160512,26989,26993,26989,26991
201910160513,26992,26995,26988,26992
201910160514,26992,27004,26990,27002
