日時,始値(BID),高値(BID),安値(BID),終値(BID)
201910160700,26999,27004,26984,26991
201910160701,26992,26999,26991,26996
201910160702,26996,26996,26993,26993
201910160703,26993,26994,26989,26993
201910160704,26993,26994,26990,26991
201910160705,26991,26992,26987,26987
201910160706,26987,26989,26987,26987
201910160707,26987,26988,26983,26983
201910160708,26983,26986,26983,26984
201910160709,26984,26987,26982,26982
201910160710,26982,26985,26980,26984
201910160711,26984,26990,26983,26986
201910160712,26986,26989,26985,26988
201910160713,26988,26991,26988,26990
201910160714,26990,26991,26989,26989
201910160715,26989,26992,26988,26989
201910160716,26989,26989,26989,26989
201910160717,26989,26993,26989,26993
201910160718,26993,26994,26991,26991
201910160719,26991,26994,26990,26991
201910160720,26991,26996,26991,26994
201910160721,26994,26994,26994,26994
201910160722,26994,26995,26993,26993
201910160723,26993,26993,26990,26991
201910160724,26991,26992,26989,26989
201910160725,26989,26989,26989,26989
201910160726,26989,26990,26989,26990
201910160727,26990,26993,26990,26993
201910160728,26993,26993,26993,26993
201910160729,26993,26994,26992,26993
201910160730,26993,26995,26993,26993
201910160731,26993,26995,26991,26995
201910160732,26996,26996,26995,26995
201910160733,26995,26999,26995,26997
201910160734,26997,27002,26995,27002
201910160735,27002,27002,26995,26998
201910160736,26998,26999,26998,26998
201910160737,26998,26999,26997,26997
201910160738,26998,26998,26990,26990
201910160739,26990,26991,26986,26986
201910160740,26986,26989,26986,26988
201910160741,26989,26989,26989,26989
201910160742,26989,26991,26989,26989
201910160743,26989,26989,26987,26987
201910160744,26987,26989,26987,26989
201910160745,26989,26989,26986,26987
201910160746,26988,26988,26986,26987
201910160747,26987,26990,26987,26988
201910160748,26988,26989,26984,26987
201910160749,26986,26990,26986,26990
201910160750,26988,26988,26987,26988
201910160751,26988,26989,26987,26988
201910160752,26988,26990,26987,26989
201910160753,26989,26989,26987,26988
201910160754,26988,26989,26987,26987
201910160755,26987,26988,26985,26986
201910160756,26987,26987,26983,26984
201910160757,26984,26985,26983,26985
201910160758,26985,26986,26985,26986
201910160759,26986,26988,26983,26983
201910160800,26983,26985,26983,26984
201910160801,26984,26984,26982,26982
201910160802,26982,26983,26977,26980
201910160803,26980,26982,26979,26980
201910160804,26980,26981,26977,26981
201910160805,26981,26982,26981,26982
201910160806,26983,26983,26980,26983
201910160807,26983,26983,26980,26982
201910160808,26982,26982,26982,26982
201910160809,26982,26983,26981,26983
201910160810,26983,26985,26980,26982
201910160811,26982,26984,26981,26983
201910160812,26983,26983,26980,26981
201910160813,26981,26983,26978,26978
201910160814,26978,26978,26966,26968
201910160815,26967,26970,26966,26967
201910160816,26967,26968,26965,26968
201910160817,26968,26968,26966,26967
201910160818,26968,26968,26966,26967
201910160819,26967,26968,26966,26966
201910160820,26967,26968,26966,26967
201910160821,26967,26968,26963,26963
201910160822,26963,26966,26963,26965
201910160823,26965,26966,26965,26966
201910160824,26966,26968,26966,26967
201910160825,26967,26968,26966,26967
201910160826,26967,26971,26966,26970
201910160827,26970,26972,26970,26971
201910160828,26970,26973,26970,26972
201910160829,26972,26973,26971,26973
201910160830,26973,26976,26970,26970
201910160831,26970,26971,26970,26971
201910160832,26971,26976,26970,26976
201910160833,26976,26978,26975,26976
201910160834,26976,26979,26976,26976
201910160835,26976,26978,26976,26978
201910160836,26978,26979,26977,26977
201910160837,26977,26977,26977,26977
201910160838,26977,26980,26977,26980
201910160839,26980,26982,26979,26982
201910160840,26981,26981,26978,26978
201910160841,26978,26980,26978,26978
201910160842,26978,26978,26975,26976
201910160843,26976,26976,26974,26975
201910160844,26975,26975,26973,26973
201910160845,26973,26973,26966,26968
201910160846,26968,26971,26967,26971
201910160847,26971,26972,26970,26971
201910160848,26971,26971,26969,26970
201910160849,26970,26970,26967,26970
201910160850,26970,26970,26968,26969
201910160851,26969,26972,26969,26970
201910160852,26970,26974,26970,26973
201910160853,26973,26977,26973,26976
201910160854,26976,26977,26974,26975
201910160855,26975,26976,26975,26975
201910160856,26974,26974,26973,26973
201910160857,26973,26975,26972,26974
201910160858,26974,26980,26974,26975
201910160859,26975,26978,26975,26978
201910160900,26978,26978,26972,26974
201910160901,26974,26975,26970,26973
201910160902,26974,26979,26972,26977
201910160903,26978,26978,26968,26974
201910160904,26974,26977,26974,26976
201910160905,26976,26990,26976,26989
201910160906,26989,26996,26983,26983
201910160907,26984,26986,26982,26983
201910160908,26983,26984,26977,26980
201910160909,26980,26981,26977,26979
201910160910,26979,26979,26973,26977
201910160911,26977,26978,26975,26977
201910160912,26977,26978,26974,26975
201910160913,26975,26977,26975,26975
201910160914,26975,26978,26975,26976
201910160915,26977,26982,26976,26981
201910160916,26981,26987,26981,26987
201910160917,26987,26988,26982,26983
201910160918,26983,26985,26981,26981
201910160919,26981,26984,26981,26982
201910160920,26981,26982,26980,26980
201910160921,26980,26981,26976,26976
201910160922,26975,26975,26970,26971
201910160923,26971,26971,26970,26971
201910160924,26971,26974,26970,26974
201910160925,26974,26977,26972,26976
201910160926,26976,26977,26974,26974
201910160927,26974,26977,26974,26975
201910160928,26976,26977,26972,26972
201910160929,26972,26975,26972,26973
201910160930,26972,26974,26970,26970
201910160931,26971,26971,26969,26971
201910160932,26971,26971,26968,26968
201910160933,26968,26971,26968,26971
201910160934,26970,26971,26970,26971
201910160935,26971,26971,26968,26969
201910160936,26969,26969,26943,26955
201910160937,26955,26955,26946,26950
201910160938,26951,26951,26931,26943
201910160939,26943,26947,26934,26940
201910160940,26940,26945,26939,26942
201910160941,26942,26943,26929,26930
201910160942,26931,26936,26927,26931
201910160943,26932,26933,26927,26931
201910160944,26932,26935,26931,26934
201910160945,26934,26941,26932,26941
201910160946,26941,26947,26939,26942
201910160947,26942,26945,26939,26939
201910160948,26939,26940,26938,26939
201910160949,26939,26942,26938,26942
201910160950,26942,26948,26941,26948
201910160951,26947,26951,26946,26951
201910160952,26951,26952,26948,26948
201910160953,26948,26950,26945,26947
201910160954,26947,26948,26946,26948
201910160955,26948,26950,26948,26949
201910160956,26950,26959,26950,26954
201910160957,26954,26956,26952,26953
201910160958,26952,26955,26950,26952
201910160959,26952,26952,26948,26950
201910161000,26950,26957,26950,26951
201910161001,26951,26953,26946,26948
201910161002,26948,26950,26944,26944
201910161003,26944,26945,26942,26944
201910161004,26944,26944,26940,26942
201910161005,26942,26948,26942,26944
201910161006,26944,26947,26941,26941
201910161007,26941,26946,26940,26945
201910161008,26945,26947,26944,26946
201910161009,26946,26947,26943,26945
201910161010,26945,26945,26941,26941
201910161011,26941,26941,26937,26939
201910161012,26939,26952,26939,26951
201910161013,26951,26952,26948,26950
201910161014,26950,26952,26949,26950
201910161015,26950,26954,26945,26949
201910161016,26949,26951,26947,26949
201910161017,26949,26950,26946,26947
201910161018,26947,26948,26941,26945
201910161019,26945,26945,26934,26941
201910161020,26941,26942,26936,26936
201910161021,26936,26936,26927,26932
201910161022,26932,26934,26930,26933
201910161023,26934,26938,26932,26935
201910161024,26935,26937,26932,26934
201910161025,26934,26936,26932,26934
201910161026,26934,26938,26934,26936
201910161027,26936,26938,26935,26936
201910161028,26936,26937,26934,26934
201910161029,26935,26937,26934,26935
201910161030,26935,26939,26930,26937
201910161031,26937,26946,26936,26945
201910161032,26945,26949,26944,26948
201910161033,26948,26954,26948,26953
201910161034,26953,26954,26951,26954
201910161035,26953,26953,26948,26950
201910161036,26950,26950,26946,26947
201910161037,26947,26951,26947,26950
201910161038,26950,26957,26949,26956
201910161039,26957,26959,26953,26955
201910161040,26956,26956,26953,26954
201910161041,26954,26957,26953,26957
201910161042,26957,26960,26957,26959
201910161043,26959,26960,26957,26958
201910161044,26956,26959,26956,26958
201910161045,26958,26961,26955,26955
201910161046,26955,26958,26954,26958
201910161047,26958,26959,26957,26958
201910161048,26958,26961,26958,26961
201910161049,26961,26964,26960,26961
201910161050,26961,26963,26957,26958
201910161051,26958,26960,26957,26959
201910161052,26960,26962,26960,26961
201910161053,26961,26962,26960,26960
201910161054,26961,26963,26960,26963
201910161055,26963,26965,26961,26962
201910161056,26962,26963,26960,26960
201910161057,26960,26962,26960,26960
201910161058,26960,26961,26958,26959
201910161059,26959,26961,26958,26961
201910161100,26961,26966,26961,26962
201910161101,26962,26963,26957,26957
201910161102,26957,26957,26956,26957
201910161103,26957,26957,26951,26953
201910161104,26953,26955,26951,26954
201910161105,26954,26954,26950,26951
201910161106,26951,26956,26950,26956
201910161107,26955,26956,26953,26956
201910161108,26956,26959,26953,26959
201910161109,26959,26959,26955,26955
201910161110,26955,26956,26954,26954
201910161111,26954,26957,26953,26955
201910161112,26955,26957,26954,26954
201910161113,26954,26954,26948,26950
201910161114,26950,26950,26945,26947
201910161115,26947,26950,26946,26949
201910161116,26949,26951,26949,26949
201910161117,26949,26951,26946,26946
201910161118,26947,26947,26945,26946
201910161119,26945,26947,26945,26946
201910161120,26946,26951,26946,26948
201910161121,26948,26951,26948,26950
201910161122,26950,26952,26946,26946
201910161123,26946,26951,26946,26950
201910161124,26950,26950,26945,26945
201910161125,26945,26947,26945,26946
201910161126,26946,26947,26945,26947
201910161127,26947,26949,26947,26947
201910161128,26948,26950,26947,26950
201910161129,26950,26952,26946,26946
201910161130,26946,26948,26946,26947
201910161131,26947,26948,26946,26948
201910161132,26948,26948,26946,26947
201910161133,26947,26953,26947,26953
201910161134,26953,26957,26952,26956
201910161135,26956,26962,26956,26962
201910161136,26962,26963,26961,26962
201910161137,26962,26962,26958,26961
201910161138,26961,26962,26959,26962
201910161139,26962,26963,26960,26960
201910161140,26961,26964,26961,26963
201910161141,26963,26963,26960,26961
201910161142,26961,26961,26959,26960
201910161143,26960,26961,26958,26961
201910161144,26962,26962,26958,26960
201910161145,26959,26966,26959,26965
201910161146,26965,26965,26962,26965
201910161147,26965,26967,26960,26961
201910161148,26960,26962,26960,26960
201910161149,26960,26961,26958,26958
201910161150,26958,26962,26957,26961
201910161151,26961,26961,26958,26960
201910161152,26960,26961,26958,26959
201910161153,26959,26959,26956,26956
201910161154,26956,26956,26952,26952
201910161155,26952,26955,26952,26955
201910161156,26955,26956,26955,26955
201910161157,26955,26956,26952,26952
201910161158,26952,26954,26952,26952
201910161159,26952,26954,26952,26953
201910161200,26953,26954,26952,26953
201910161201,26954,26955,26954,26955
201910161202,26955,26956,26955,26955
201910161203,26955,26956,26955,26955
201910161204,26955,26955,26950,26951
201910161205,26951,26952,26951,26951
201910161206,26952,26954,26951,26954
201910161207,26954,26954,26952,26953
201910161208,26953,26953,26952,26953
201910161209,26953,26953,26952,26952
201910161210,26952,26954,26951,26951
201910161211,26951,26952,26951,26951
201910161212,26951,26952,26951,26952
201910161213,26952,26952,26951,26952
201910161214,26951,26954,26951,26954
201910161215,26954,26954,26947,26947
201910161216,26947,26949,26947,26949
201910161217,26949,26949,26947,26948
201910161218,26948,26949,26934,26934
201910161219,26934,26935,26927,26929
201910161220,26929,26929,26917,26926
201910161221,26926,26927,26920,26920
201910161222,26920,26927,26920,26926
201910161223,26925,26927,26925,26926
201910161224,26926,26927,26922,26922
201910161225,26921,26933,26921,26933
201910161226,26933,26936,26930,26935
201910161227,26935,26935,26930,26932
201910161228,26932,26933,26930,26931
201910161229,26932,26936,26930,26935
201910161230,26935,26937,26930,26933
201910161231,26933,26933,26927,26930
201910161232,26930,26933,26929,26930
201910161233,26930,26935,26928,26934
201910161234,26934,26940,26934,26940
201910161235,26940,26940,26937,26937
201910161236,26938,26938,26933,26935
201910161237,26935,26936,26934,26936
201910161238,26935,26940,26935,26940
201910161239,26939,26940,26938,26940
201910161240,26940,26940,26935,26936
201910161241,26936,26936,26934,26935
201910161242,26935,26938,26935,26936
201910161243,26935,26937,26935,26935
201910161244,26935,26936,26932,26932
201910161245,26932,26933,26928,26928
201910161246,26928,26928,26923,26924
201910161247,26925,26929,26925,26928
201910161248,26928,26930,26926,26926
201910161249,26926,26928,26921,26922
201910161250,26922,26924,26921,26924
201910161251,26924,26924,26920,26921
201910161252,26921,26923,26920,26920
201910161253,26920,26922,26919,26921
201910161254,26922,26922,26920,26920
201910161255,26920,26923,26920,26921
201910161256,26921,26921,26919,26919
201910161257,26919,26919,26916,26919
201910161258,26918,26920,26916,26920
201910161259,26920,26922,26919,26922
201910161300,26923,26924,26922,26923
201910161301,26923,26923,26921,26922
201910161302,26923,26923,26921,26923
201910161303,26924,26929,26924,26929
201910161304,26929,26929,26926,26926
201910161305,26927,26927,26926,26926
201910161306,26926,26929,26925,26928
201910161307,26927,26928,26925,26925
201910161308,26925,26925,26925,26925
201910161309,26925,26925,26918,26918
201910161310,26918,26921,26918,26919
201910161311,26919,26920,26914,26915
201910161312,26915,26917,26915,26916
201910161313,26916,26916,26914,26914
201910161314,26914,26916,26913,26915
201910161315,26915,26915,26913,26913
201910161316,26913,26916,26913,26913
201910161317,26913,26913,26911,26913
201910161318,26913,26913,26911,26912
201910161319,26912,26917,26912,26917
201910161320,26917,26917,26913,26915
201910161321,26915,26918,26914,26918
201910161322,26918,26919,26917,26918
201910161323,26918,26918,26917,26918
201910161324,26918,26920,26917,26919
201910161325,26919,26920,26919,26919
201910161326,26920,26925,26920,26925
201910161327,26925,26926,26924,26926
201910161328,26926,26926,26925,26926
201910161329,26926,26926,26924,26925
201910161330,26926,26927,26924,26925
201910161331,26925,26926,26922,26923
201910161332,26923,26923,26920,26922
201910161333,26922,26924,26921,26924
201910161334,26924,26930,26922,26930
201910161335,26930,26930,26927,26927
201910161336,26927,26930,26927,26930
201910161337,26930,26932,26928,26932
201910161338,26931,26932,26931,26931
201910161339,26931,26931,26928,26928
201910161340,26928,26931,26927,26930
201910161341,26931,26931,26929,26929
201910161342,26929,26929,26928,26929
201910161343,26929,26929,26927,26927
201910161344,26927,26929,26927,26927
201910161345,26927,26930,26927,26928
201910161346,26928,26928,26927,26928
201910161347,26928,26928,26922,26923
201910161348,26923,26925,26923,26925
201910161349,26925,26927,26924,26927
201910161350,26927,26928,26926,26928
201910161351,26928,26928,26926,26927
201910161352,26927,26928,26927,26927
201910161353,26927,26930,26927,26928
201910161354,26929,26932,26929,26932
201910161355,26932,26933,26930,26930
201910161356,26930,26931,26930,26931
201910161357,26932,26933,26931,26933
201910161358,26933,26933,26930,26931
201910161359,26931,26932,26931,26932
201910161400,26931,26937,26931,26937
201910161401,26936,26938,26935,26935
201910161402,26936,26940,26934,26939
201910161403,26939,26943,26938,26942
201910161404,26943,26946,26941,26943
201910161405,26943,26945,26942,26942
201910161406,26941,26942,26936,26937
201910161407,26937,26939,26936,26938
201910161408,26938,26941,26937,26940
201910161409,26940,26943,26940,26943
201910161410,26943,26944,26941,26941
201910161411,26941,26942,26940,26940
201910161412,26940,26941,26940,26940
201910161413,26940,26941,26940,26940
201910161414,26940,26944,26940,26942
201910161415,26942,26942,26940,26940
201910161416,26940,26943,26940,26940
201910161417,26940,26940,26936,26937
201910161418,26937,26937,26935,26936
201910161419,26936,26940,26936,26938
201910161420,26939,26939,26938,26938
201910161421,26938,26939,26932,26932
201910161422,26932,26933,26932,26932
201910161423,26932,26934,26931,26932
201910161424,26932,26934,26932,26932
201910161425,26932,26932,26928,26929
201910161426,26929,26930,26928,26929
201910161427,26929,26929,26926,26926
201910161428,26926,26926,26922,26922
201910161429,26923,26925,26923,26925
201910161430,26925,26925,26920,26920
201910161431,26920,26924,26920,26924
201910161432,26924,26924,26921,26922
201910161433,26922,26924,26920,26922
201910161434,26923,26925,26922,26924
201910161435,26925,26927,26925,26927
201910161436,26927,26928,26927,26928
201910161437,26928,26928,26924,26925
201910161438,26925,26927,26925,26927
201910161439,26927,26929,26925,26926
201910161440,26927,26927,26922,26925
201910161441,26925,26926,26924,26925
201910161442,26925,26926,26925,26926
201910161443,26926,26926,26925,26925
201910161444,26925,26926,26924,26925
201910161445,26925,26925,26922,26922
201910161446,26922,26923,26921,26922
201910161447,26922,26928,26921,26928
201910161448,26928,26930,26927,26928
201910161449,26929,26931,26928,26931
201910161450,26932,26933,26930,26930
201910161451,26931,26932,26929,26932
201910161452,26932,26933,26931,26933
201910161453,26934,26935,26933,26934
201910161454,26935,26936,26934,26934
201910161455,26934,26936,26934,26934
201910161456,26934,26937,26933,26936
201910161457,26936,26937,26935,26936
201910161458,26937,26937,26933,26933
201910161459,26933,26935,26932,26933
201910161500,26934,26940,26934,26936
201910161501,26936,26937,26931,26931
201910161502,26930,26938,26930,26937
201910161503,26937,26944,26937,26942
201910161504,26943,26944,26940,26943
201910161505,26943,26957,26943,26952
201910161506,26951,26953,26950,26950
201910161507,26950,26954,26950,26953
201910161508,26954,26956,26953,26953
201910161509,26952,26954,26950,26954
201910161510,26954,26955,26951,26955
201910161511,26955,26958,26954,26957
201910161512,26957,26958,26955,26956
201910161513,26956,26957,26955,26955
201910161514,26955,26961,26955,26959
201910161515,26959,26985,26957,26985
201910161516,26985,26990,26984,26986
201910161517,26986,26989,26978,26978
201910161518,26978,26979,26976,26976
201910161519,26976,26976,26970,26970
201910161520,26970,26972,26965,26965
201910161521,26965,26967,26962,26965
201910161522,26965,26967,26963,26963
201910161523,26963,26965,26961,26961
201910161524,26961,26973,26961,26972
201910161525,26972,26972,26970,26972
201910161526,26972,26972,26968,26968
201910161527,26969,26970,26966,26970
201910161528,26970,26970,26966,26966
201910161529,26966,26967,26963,26967
201910161530,26968,26969,26961,26966
201910161531,26966,26970,26964,26964
201910161532,26965,26968,26962,26967
201910161533,26967,26972,26967,26971
201910161534,26971,26975,26971,26974
201910161535,26973,26975,26964,26964
201910161536,26964,26968,26964,26967
201910161537,26967,26969,26964,26964
201910161538,26964,26964,26960,26964
201910161539,26964,26966,26964,26965
201910161540,26965,26965,26961,26961
201910161541,26960,26960,26955,26955
201910161542,26955,26959,26954,26957
201910161543,26958,26959,26957,26959
201910161544,26960,26960,26955,26956
201910161545,26956,26961,26956,26961
201910161546,26962,26968,26961,26968
201910161547,26967,26970,26966,26968
201910161548,26968,26971,26967,26969
201910161549,26969,26969,26957,26957
201910161550,26957,26964,26956,26962
201910161551,26960,26964,26958,26959
201910161552,26958,26959,26956,26958
201910161553,26958,26958,26956,26958
201910161554,26958,26958,26955,26956
201910161555,26956,26959,26956,26958
201910161556,26958,26964,26958,26961
201910161557,26961,26964,26955,26955
201910161558,26955,26957,26955,26957
201910161559,26958,26958,26951,26951
201910161600,26951,26971,26951,26971
201910161601,26971,26972,26959,26960
201910161602,26960,26963,26953,26963
201910161603,26963,26963,26955,26961
201910161604,26961,26966,26957,26966
201910161605,26966,26966,26949,26953
201910161606,26953,26958,26947,26949
201910161607,26949,26949,26945,26948
201910161608,26948,26951,26946,26948
201910161609,26949,26949,26943,26944
201910161610,26944,26944,26935,26943
201910161611,26943,26943,26937,26942
201910161612,26942,26947,26939,26945
201910161613,26945,26947,26943,26945
201910161614,26945,26947,26934,26940
201910161615,26939,26942,26936,26940
201910161616,26940,26941,26937,26941
201910161617,26941,26941,26935,26937
201910161618,26938,26945,26937,26943
201910161619,26943,26945,26940,26943
201910161620,26943,26945,26939,26943
201910161621,26943,26950,26943,26949
201910161622,26949,26953,26948,26950
201910161623,26950,26957,26950,26956
201910161624,26956,26963,26956,26962
201910161625,26962,26964,26946,26946
201910161626,26946,26954,26926,26926
201910161627,26925,26935,26914,26918
201910161628,26918,26929,26914,26920
201910161629,26920,26926,26914,26918
201910161630,26918,26928,26916,26928
201910161631,26928,26931,26924,26926
201910161632,26926,26928,26918,26922
201910161633,26922,26930,26921,26926
201910161634,26926,26931,26916,26919
201910161635,26918,26927,26917,26925
201910161636,26925,26931,26923,26929
201910161637,26929,26937,26929,26931
201910161638,26931,26935,26929,26933
201910161639,26933,26933,26926,26927
201910161640,26927,26930,26923,26928
201910161641,26929,26930,26923,26928
201910161642,26928,26932,26926,26931
201910161643,26931,26935,26928,26931
201910161644,26931,26934,26928,26931
201910161645,26931,26936,26925,26935
201910161646,26935,26936,26929,26932
201910161647,26932,26934,26930,26930
201910161648,26930,26938,26930,26935
201910161649,26935,26943,26935,26941
201910161650,26941,26941,26936,26938
201910161651,26938,26943,26937,26943
201910161652,26942,26946,26942,26944
201910161653,26944,26946,26940,26940
201910161654,26941,26941,26937,26939
201910161655,26939,26939,26934,26939
201910161656,26939,26943,26937,26941
201910161657,26940,26940,26935,26938
201910161658,26938,26941,26935,26941
201910161659,26940,26942,26937,26941
201910161700,26941,26945,26934,26936
201910161701,26936,26936,26921,26926
201910161702,26926,26931,26920,26928
201910161703,26928,26936,26928,26932
201910161704,26932,26936,26931,26932
201910161705,26932,26936,26931,26933
201910161706,26933,26934,26929,26930
201910161707,26930,26931,26924,26925
201910161708,26925,26927,26922,26922
201910161709,26922,26925,26920,26922
201910161710,26922,26923,26905,26910
201910161711,26910,26911,26902,26907
201910161712,26907,26908,26903,26908
201910161713,26909,26912,26907,26909
201910161714,26909,26913,26909,26910
201910161715,26910,26912,26908,26912
201910161716,26912,26913,26908,26910
201910161717,26912,26917,26912,26913
201910161718,26913,26914,26910,26913
201910161719,26913,26918,26913,26916
201910161720,26916,26916,26909,26911
201910161721,26911,26916,26911,26915
201910161722,26915,26918,26914,26916
201910161723,26917,26918,26915,26918
201910161724,26917,26920,26914,26914
201910161725,26914,26920,26914,26917
201910161726,26917,26917,26912,26914
201910161727,26914,26920,26914,26917
201910161728,26917,26918,26916,26916
201910161729,26916,26920,26913,26918
201910161730,26918,26918,26912,26915
201910161731,26915,26916,26912,26913
201910161732,26913,26913,26907,26911
201910161733,26910,26913,26907,26913
201910161734,26913,26913,26908,26910
201910161735,26910,26914,26910,26913
201910161736,26913,26913,26907,26910
201910161737,26910,26911,26909,26910
201910161738,26910,26913,26908,26913
201910161739,26912,26914,26910,26912
201910161740,26912,26915,26910,26914
201910161741,26914,26917,26912,26912
201910161742,26912,26914,26909,26910
201910161743,26910,26912,26909,26912
201910161744,26912,26913,26910,26913
201910161745,26913,26918,26913,26914
201910161746,26914,26916,26910,26914
201910161747,26913,26914,26911,26913
201910161748,26913,26913,26911,26912
201910161749,26913,26917,26913,26914
201910161750,26914,26918,26913,26918
201910161751,26918,26918,26916,26916
201910161752,26916,26922,26916,26920
201910161753,26920,26931,26920,26927
201910161754,26928,26932,26927,26932
201910161755,26932,26932,26925,26928
201910161756,26928,26929,26926,26927
201910161757,26927,26930,26926,26926
201910161758,26926,26930,26926,26930
201910161759,26930,26930,26929,26930
201910161800,26930,26934,26930,26931
201910161801,26931,26932,26895,26899
201910161802,26900,26904,26892,26895
201910161803,26895,26902,26891,26901
201910161804,26901,26909,26899,26909
201910161805,26909,26913,26905,26908
201910161806,26908,26910,26904,26904
201910161807,26904,26908,26904,26906
201910161808,26906,26910,26906,26908
201910161809,26908,26913,26907,26910
201910161810,26910,26913,26908,26909
201910161811,26909,26911,26906,26910
201910161812,26910,26913,26908,26913
201910161813,26913,26918,26912,26915
201910161814,26915,26918,26915,26915
201910161815,26915,26917,26913,26915
201910161816,26915,26916,26913,26916
201910161817,26917,26920,26903,26904
201910161818,26904,26911,26904,26910
201910161819,26910,26917,26910,26916
201910161820,26916,26916,26911,26911
201910161821,26911,26917,26911,26912
201910161822,26912,26917,26912,26914
201910161823,26914,26915,26910,26912
201910161824,26912,26912,26909,26910
201910161825,26910,26913,26907,26912
201910161826,26912,26912,26904,26905
201910161827,26905,26909,26904,26909
201910161828,26909,26913,26907,26911
201910161829,26911,26914,26909,26912
201910161830,26912,26913,26910,26912
201910161831,26912,26912,26911,26912
201910161832,26912,26913,26907,26912
201910161833,26912,26916,26910,26916
201910161834,26916,26918,26915,26918
201910161835,26918,26922,26917,26921
201910161836,26921,26922,26915,26921
201910161837,26921,26924,26914,26917
201910161838,26917,26918,26914,26916
201910161839,26916,26918,26916,26917
201910161840,26916,26920,26915,26919
201910161841,26919,26920,26916,26916
201910161842,26916,26918,26912,26914
201910161843,26914,26915,26912,26912
201910161844,26912,26914,26910,26911
201910161845,26912,26916,26910,26915
201910161846,26915,26918,26915,26916
201910161847,26916,26917,26913,26915
201910161848,26915,26915,26913,26913
201910161849,26913,26917,26912,26916
201910161850,26916,26918,26915,26916
201910161851,26916,26916,26912,26912
201910161852,26912,26912,26910,26911
201910161853,26911,26911,26907,26908
201910161854,26908,26911,26905,26910
201910161855,26910,26910,26904,26904
201910161856,26904,26915,26904,26914
201910161857,26914,26927,26909,26925
201910161858,26925,26934,26924,26925
201910161859,26925,26930,26920,26925
201910161900,26926,26940,26926,26938
201910161901,26938,26940,26935,26939
201910161902,26939,26940,26935,26937
201910161903,26937,26942,26935,26939
201910161904,26939,26942,26937,26941
201910161905,26942,26944,26939,26939
201910161906,26939,26945,26938,26944
201910161907,26943,26947,26943,26947
201910161908,26947,26954,26946,26952
201910161909,26952,26952,26943,26946
201910161910,26947,26951,26946,26950
201910161911,26950,26954,26949,26953
201910161912,26952,26952,26946,26946
201910161913,26946,26948,26944,26945
201910161914,26945,26945,26939,26942
201910161915,26942,26942,26938,26940
201910161916,26939,26940,26936,26939
201910161917,26939,26939,26933,26936
201910161918,26936,26938,26932,26932
201910161919,26932,26937,26932,26932
201910161920,26932,26936,26931,26935
201910161921,26935,26938,26934,26938
201910161922,26938,26939,26935,26936
201910161923,26936,26944,26934,26943
201910161924,26942,26944,26941,26943
201910161925,26943,26945,26941,26942
201910161926,26941,26943,26941,26943
201910161927,26943,26943,26940,26941
201910161928,26941,26942,26939,26941
201910161929,26941,26942,26937,26941
201910161930,26941,26941,26938,26939
201910161931,26939,26943,26939,26942
201910161932,26942,26942,26939,26939
201910161933,26939,26939,26935,26938
201910161934,26938,26939,26923,26931
201910161935,26931,26939,26931,26934
201910161936,26934,26934,26930,26932
201910161937,26932,26932,26927,26927
201910161938,26927,26927,26922,26924
201910161939,26924,26926,26923,26925
201910161940,26925,26926,26924,26926
201910161941,26926,26927,26925,26925
201910161942,26924,26926,26924,26924
201910161943,26924,26925,26923,26924
201910161944,26924,26926,26922,26923
201910161945,26923,26924,26920,26924
201910161946,26924,26924,26922,26922
201910161947,26923,26925,26922,26925
201910161948,26924,26926,26924,26925
201910161949,26925,26925,26922,26924
201910161950,26924,26925,26923,26924
201910161951,26924,26932,26924,26931
201910161952,26931,26932,26928,26931
201910161953,26932,26933,26932,26932
201910161954,26932,26937,26932,26935
201910161955,26935,26938,26935,26937
201910161956,26938,26939,26935,26937
201910161957,26937,26940,26936,26940
201910161958,26940,26942,26939,26940
201910161959,26940,26941,26938,26939
201910162000,26939,26940,26933,26934
201910162001,26934,26934,26930,26932
201910162002,26932,26934,26930,26933
201910162003,26933,26934,26932,26932
201910162004,26932,26933,26931,26932
201910162005,26932,26949,26926,26930
201910162006,26930,26937,26924,26935
201910162007,26935,26935,26930,26934
201910162008,26934,26938,26932,26937
201910162009,26937,26941,26937,26940
201910162010,26940,26942,26938,26938
201910162011,26938,26941,26936,26936
201910162012,26936,26936,26931,26934
201910162013,26934,26937,26930,26936
201910162014,26936,26941,26934,26941
201910162015,26940,26945,26938,26943
201910162016,26943,26944,26942,26943
201910162017,26943,26946,26942,26946
201910162018,26946,26949,26943,26948
201910162019,26948,26949,26947,26949
201910162020,26949,26949,26942,26944
201910162021,26944,26952,26944,26949
201910162022,26949,26951,26943,26943
201910162023,26943,26944,26939,26942
201910162024,26943,26945,26943,26945
201910162025,26945,26947,26943,26943
201910162026,26943,26949,26943,26949
201910162027,26949,26949,26944,26946
201910162028,26946,26948,26945,26948
201910162029,26948,26949,26946,26947
201910162030,26947,26947,26945,26945
201910162031,26945,26949,26944,26945
201910162032,26945,26948,26942,26945
201910162033,26945,26947,26944,26945
201910162034,26946,26946,26938,26942
201910162035,26942,26945,26941,26943
201910162036,26943,26944,26941,26944
201910162037,26944,26945,26940,26942
201910162038,26942,26948,26941,26948
201910162039,26948,26953,26948,26950
201910162040,26951,26952,26949,26952
201910162041,26952,26952,26947,26952
201910162042,26952,26961,26952,26960
201910162043,26960,26963,26957,26962
201910162044,26962,26962,26957,26960
201910162045,26960,26966,26957,26966
201910162046,26966,26967,26963,26965
201910162047,26965,26967,26964,26966
201910162048,26966,26966,26963,26966
201910162049,26966,26966,26961,26961
201910162050,26961,26962,26959,26961
201910162051,26961,26961,26955,26959
201910162052,26958,26959,26955,26957
201910162053,26957,26958,26956,26958
201910162054,26958,26960,26957,26959
201910162055,26959,26961,26958,26961
201910162056,26961,26961,26960,26960
201910162057,26960,26960,26954,26954
201910162058,26954,26954,26952,26954
201910162059,26954,26955,26953,26953
201910162100,26953,26953,26943,26952
201910162101,26952,26954,26950,26952
201910162102,26952,26956,26952,26954
201910162103,26954,26957,26952,26952
201910162104,26952,26958,26952,26955
201910162105,26955,26956,26951,26954
201910162106,26954,26956,26952,26954
201910162107,26954,26956,26953,26954
201910162108,26954,26955,26952,26952
201910162109,26951,26954,26951,26952
201910162110,26952,26955,26951,26954
201910162111,26954,26957,26953,26954
201910162112,26954,26958,26952,26957
201910162113,26956,26961,26956,26961
201910162114,26961,26963,26960,26963
201910162115,26963,26963,26961,26961
201910162116,26961,26963,26961,26961
201910162117,26961,26962,26960,26962
201910162118,26962,26963,26961,26962
201910162119,26962,26964,26962,26962
201910162120,26963,26966,26962,26963
201910162121,26963,26977,26963,26976
201910162122,26976,27002,26976,27000
201910162123,27000,27000,26986,26992
201910162124,26992,26997,26988,26994
201910162125,26994,27000,26990,26999
201910162126,26991,26995,26987,26988
201910162127,26988,26989,26985,26985
201910162128,26985,26988,26983,26985
201910162129,26985,26987,26962,26979
201910162130,26979,26979,26937,26954
201910162131,26954,26962,26950,26960
201910162132,26960,26962,26952,26956
201910162133,26956,26962,26955,26962
201910162134,26962,26974,26962,26964
201910162135,26963,26965,26954,26954
201910162136,26954,26956,26943,26949
201910162137,26949,26951,26947,26948
201910162138,26947,26953,26947,26951
201910162139,26951,26957,26951,26952
201910162140,26953,26961,26952,26961
201910162141,26962,26967,26959,26961
201910162142,26961,26964,26961,26961
201910162143,26961,26965,26959,26963
201910162144,26963,26963,26952,26953
201910162145,26953,26955,26950,26950
201910162146,26951,26951,26947,26948
201910162147,26948,26950,26945,26948
201910162148,26948,26950,26944,26948
201910162149,26948,26950,26946,26949
201910162150,26950,26951,26947,26948
201910162151,26948,26955,26948,26953
201910162152,26953,26956,26952,26954
201910162153,26954,26958,26952,26956
201910162154,26956,26957,26955,26956
201910162155,26955,26956,26952,26953
201910162156,26952,26955,26951,26954
201910162157,26955,26957,26953,26955
201910162158,26955,26959,26954,26958
201910162159,26958,26962,26957,26959
201910162200,26959,26962,26958,26961
201910162201,26961,26964,26958,26961
201910162202,26962,26962,26955,26957
201910162203,26956,26957,26952,26952
201910162204,26952,26955,26952,26953
201910162205,26953,26953,26951,26951
201910162206,26951,26953,26951,26953
201910162207,26952,26954,26952,26954
201910162208,26954,26954,26947,26949
201910162209,26949,26951,26948,26950
201910162210,26950,26952,26950,26950
201910162211,26950,26952,26947,26952
201910162212,26952,26954,26950,26954
201910162213,26954,26954,26950,26950
201910162214,26950,26952,26949,26950
201910162215,26951,26952,26949,26951
201910162216,26951,26954,26948,26948
201910162217,26948,26951,26947,26951
201910162218,26951,26951,26949,26949
201910162219,26949,26950,26944,26946
201910162220,26947,26947,26938,26943
201910162221,26943,26943,26940,26943
201910162222,26943,26943,26937,26937
201910162223,26937,26938,26937,26937
201910162224,26937,26937,26928,26932
201910162225,26933,26940,26932,26937
201910162226,26937,26937,26930,26935
201910162227,26935,26938,26934,26938
201910162228,26938,26938,26929,26931
201910162229,26931,26936,26931,26935
201910162230,26932,26936,26923,26936
201910162231,26936,26936,26922,26922
201910162232,26922,26934,26913,26916
201910162233,26916,26931,26908,26929
201910162234,26929,26936,26924,26936
201910162235,26936,26940,26921,26922
201910162236,26922,26940,26920,26940
201910162237,26940,26957,26940,26955
201910162238,26955,26969,26955,26957
201910162239,26957,26966,26957,26959
201910162240,26959,26966,26954,26966
201910162241,26966,26977,26966,26969
201910162242,26969,26969,26958,26965
201910162243,26965,26968,26959,26961
201910162244,26962,26967,26958,26959
201910162245,26959,26960,26952,26957
201910162246,26957,26957,26945,26952
201910162247,26952,26960,26951,26959
201910162248,26959,26969,26958,26962
201910162249,26962,26967,26960,26960
201910162250,26960,26961,26946,26955
201910162251,26954,26954,26941,26943
201910162252,26943,26946,26938,26944
201910162253,26944,26946,26939,26946
201910162254,26946,26949,26943,26947
201910162255,26947,26953,26945,26945
201910162256,26945,26945,26932,26933
201910162257,26933,26933,26923,26924
201910162258,26925,26930,26918,26926
201910162259,26926,26926,26921,26924
201910162300,26924,26928,26915,26917
201910162301,26917,26932,26915,26928
201910162302,26928,26929,26916,26918
201910162303,26917,26924,26915,26918
201910162304,26918,26921,26913,26918
201910162305,26918,26918,26902,26905
201910162306,26903,26906,26898,26901
201910162307,26901,26913,26901,26911
201910162308,26911,26917,26911,26913
201910162309,26913,26916,26909,26912
201910162310,26912,26920,26910,26914
201910162311,26915,26915,26910,26912
201910162312,26911,26915,26908,26908
201910162313,26908,26909,26905,26907
201910162314,26907,26911,26904,26905
201910162315,26905,26916,26903,26916
201910162316,26916,26923,26916,26919
201910162317,26919,26924,26918,26923
201910162318,26923,26931,26921,26929
201910162319,26929,26936,26929,26935
201910162320,26935,26942,26933,26935
201910162321,26935,26936,26932,26933
201910162322,26932,26933,26925,26927
201910162323,26926,26934,26925,26931
201910162324,26931,26939,26931,26939
201910162325,26939,26942,26934,26941
201910162326,26941,26954,26940,26952
201910162327,26952,26958,26952,26956
201910162328,26957,26959,26953,26956
201910162329,26956,26962,26954,26960
201910162330,26960,26965,26954,26957
201910162331,26958,26961,26956,26960
201910162332,26960,26966,26957,26958
201910162333,26958,26961,26946,26946
201910162334,26946,26949,26944,26946
201910162335,26946,26955,26945,26955
201910162336,26956,26959,26952,26957
201910162337,26957,26959,26954,26954
201910162338,26954,26956,26948,26951
201910162339,26950,26954,26947,26947
201910162340,26947,26950,26942,26947
201910162341,26947,26948,26944,26946
201910162342,26946,26948,26944,26945
201910162343,26945,26946,26942,26944
201910162344,26945,26948,26941,26941
201910162345,26942,26952,26942,26948
201910162346,26948,26955,26948,26950
201910162347,26951,26955,26948,26950
201910162348,26950,26950,26941,26944
201910162349,26944,26949,26934,26947
201910162350,26947,26955,26946,26952
201910162351,26952,26963,26952,26961
201910162352,26961,26972,26961,26967
201910162353,26967,26973,26961,26973
201910162354,26973,26973,26966,26966
201910162355,26966,26968,26963,26965
201910162356,26965,26970,26961,26970
201910162357,26970,26973,26966,26969
201910162358,26969,26971,26967,26968
201910162359,26969,26973,26965,26971
201910170000,26971,26972,26967,26972
201910170001,26973,26982,26973,26980
201910170002,26980,26981,26970,26975
201910170003,26975,26980,26975,26979
201910170004,26979,26984,26978,26978
201910170005,26978,26985,26978,26984
201910170006,26984,26988,26983,26983
201910170007,26983,26983,26977,26978
201910170008,26978,26979,26975,26975
201910170009,26975,26976,26968,26968
201910170010,26968,26975,26968,26968
201910170011,26968,26973,26968,26972
201910170012,26972,26977,26970,26976
201910170013,26976,26977,26973,26975
201910170014,26975,26978,26974,26978
201910170015,26978,26978,26966,26970
201910170016,26970,26976,26970,26973
201910170017,26973,26973,26965,26965
201910170018,26965,26966,26959,26963
201910170019,26963,26965,26959,26961
201910170020,26961,26967,26961,26963
201910170021,26963,26965,26961,26963
201910170022,26963,26967,26961,26963
201910170023,26964,26969,26962,26968
201910170024,26968,26973,26966,26968
201910170025,26967,26974,26965,26974
201910170026,26974,26975,26971,26975
201910170027,26976,26979,26974,26977
201910170028,26977,26980,26976,26978
201910170029,26978,26978,26975,26976
201910170030,26976,26980,26973,26973
201910170031,26973,26977,26972,26974
201910170032,26974,26975,26969,26969
201910170033,26968,26968,26953,26962
201910170034,26961,26963,26950,26950
201910170035,26951,26956,26951,26955
201910170036,26955,26963,26954,26963
201910170037,26963,26972,26961,26969
201910170038,26969,26972,26968,26972
201910170039,26973,26974,26968,26970
201910170040,26970,26974,26970,26974
201910170041,26975,26979,26972,26973
201910170042,26973,26979,26972,26979
201910170043,26979,26980,26977,26978
201910170044,26978,26987,26978,26987
201910170045,26987,26995,26985,26993
201910170046,26993,26993,26990,26992
201910170047,26992,26995,26991,26995
201910170048,26995,26999,26994,26999
201910170049,26999,27016,26996,27011
201910170050,27011,27014,26996,26996
201910170051,26997,26999,26987,26991
201910170052,26991,26999,26991,26996
201910170053,26996,27000,26994,26999
201910170054,26999,27000,26994,26994
201910170055,26994,26995,26989,26990
201910170056,26991,26992,26988,26991
201910170057,26991,26995,26991,26992
201910170058,26992,26995,26991,26992
201910170059,26991,26992,26988,26989
201910170100,26989,27000,26989,26996
201910170101,26996,26998,26992,26997
201910170102,26997,27001,26995,27001
201910170103,27001,27004,26997,26997
201910170104,26997,27001,26997,26998
201910170105,26998,27005,26998,27004
201910170106,27004,27005,27003,27005
201910170107,27005,27006,27003,27003
201910170108,27003,27004,27000,27000
201910170109,27000,27001,26996,26998
201910170110,26997,26998,26994,26995
201910170111,26995,26996,26987,26989
201910170112,26989,26989,26985,26985
201910170113,26985,26987,26983,26985
201910170114,26985,26986,26979,26979
201910170115,26979,26982,26977,26978
201910170116,26978,26982,26976,26979
201910170117,26979,26987,26979,26984
201910170118,26984,26984,26977,26979
201910170119,26979,26981,26976,26977
201910170120,26977,26983,26975,26982
201910170121,26983,26984,26979,26984
201910170122,26985,26986,26983,26984
201910170123,26984,26985,26978,26978
201910170124,26978,26980,26975,26978
201910170125,26978,26979,26975,26979
201910170126,26979,26981,26977,26977
201910170127,26977,26980,26977,26978
201910170128,26978,26980,26973,26973
201910170129,26973,26981,26973,26981
201910170130,26981,26986,26981,26985
201910170131,26985,26985,26975,26976
201910170132,26977,26982,26977,26982
201910170133,26982,26982,26973,26975
201910170134,26975,26977,26972,26975
201910170135,26976,26977,26975,26977
201910170136,26977,26981,26975,26981
201910170137,26981,26982,26976,26979
201910170138,26979,26981,26978,26981
201910170139,26981,26982,26975,26976
201910170140,26976,26980,26972,26978
201910170141,26978,26983,26978,26983
201910170142,26983,26983,26973,26973
201910170143,26973,26974,26963,26965
201910170144,26966,26972,26965,26972
201910170145,26972,26976,26970,26974
201910170146,26974,26979,26974,26978
201910170147,26978,26978,26973,26973
201910170148,26973,26974,26970,26972
201910170149,26972,26972,26968,26971
201910170150,26971,26971,26957,26958
201910170151,26958,26960,26958,26959
201910170152,26960,26962,26958,26961
201910170153,26961,26963,26960,26963
201910170154,26963,26967,26963,26963
201910170155,26963,26967,26961,26967
201910170156,26967,26967,26964,26964
201910170157,26964,26965,26962,26963
201910170158,26962,26964,26961,26963
201910170159,26963,26965,26961,26961
201910170200,26961,26966,26960,26962
201910170201,26962,26968,26961,26967
201910170202,26967,26974,26967,26973
201910170203,26973,26973,26969,26973
201910170204,26973,26973,26969,26972
201910170205,26971,26973,26969,26970
201910170206,26969,26973,26969,26971
201910170207,26971,26972,26964,26965
201910170208,26966,26967,26964,26966
201910170209,26966,26966,26959,26964
201910170210,26965,26967,26963,26966
201910170211,26966,26968,26965,26968
201910170212,26969,26970,26966,26967
201910170213,26967,26968,26964,26966
201910170214,26965,26965,26959,26965
201910170215,26964,26964,26958,26960
201910170216,26960,26962,26956,26956
201910170217,26956,26958,26954,26958
201910170218,26959,26960,26955,26957
201910170219,26957,26957,26955,26955
201910170220,26955,26963,26955,26962
201910170221,26962,26963,26957,26958
201910170222,26957,26958,26953,26954
201910170223,26954,26955,26950,26950
201910170224,26951,26952,26950,26950
201910170225,26950,26954,26950,26952
201910170226,26952,26953,26951,26953
201910170227,26952,26952,26947,26948
201910170228,26948,26949,26947,26949
201910170229,26949,26953,26948,26953
201910170230,26953,26957,26952,26957
201910170231,26957,26963,26957,26959
201910170232,26959,26959,26955,26958
201910170233,26958,26964,26958,26964
201910170234,26964,26966,26962,26966
201910170235,26966,26969,26965,26965
201910170236,26965,26969,26965,26968
201910170237,26969,26971,26968,26970
201910170238,26971,26971,26966,26967
201910170239,26967,26968,26965,26967
201910170240,26967,26969,26965,26965
201910170241,26965,26967,26963,26967
201910170242,26968,26974,26968,26974
201910170243,26974,26976,26943,26961
201910170244,26961,26971,26961,26971
201910170245,26971,26972,26964,26966
201910170246,26966,26972,26957,26964
201910170247,26964,26969,26964,26967
201910170248,26968,26970,26967,26967
201910170249,26967,26973,26967,26969
201910170250,26969,26972,26968,26969
201910170251,26969,26971,26966,26969
201910170252,26968,26970,26967,26967
201910170253,26967,26967,26963,26964
201910170254,26964,26965,26960,26961
201910170255,26961,26963,26957,26959
201910170256,26959,26962,26948,26951
201910170257,26951,26955,26950,26955
201910170258,26955,26955,26952,26952
201910170259,26952,26953,26950,26953
201910170300,26953,26959,26948,26950
201910170301,26950,26955,26950,26955
201910170302,26955,26960,26955,26960
201910170303,26960,26961,26956,26961
201910170304,26961,26961,26957,26958
201910170305,26958,26958,26953,26955
201910170306,26955,26960,26954,26960
201910170307,26960,26961,26958,26959
201910170308,26959,26961,26958,26959
201910170309,26959,26962,26957,26962
201910170310,26962,26965,26961,26965
201910170311,26965,26967,26964,26967
201910170312,26968,26968,26965,26967
201910170313,26967,26973,26967,26968
201910170314,26968,26971,26968,26970
201910170315,26970,26974,26970,26972
201910170316,26972,26973,26970,26971
201910170317,26971,26974,26971,26971
201910170318,26971,26974,26971,26972
201910170319,26972,26973,26969,26972
201910170320,26972,26975,26970,26974
201910170321,26974,26975,26971,26975
201910170322,26975,26976,26974,26975
201910170323,26975,26976,26973,26975
201910170324,26975,26975,26970,26972
201910170325,26972,26978,26972,26977
201910170326,26977,26979,26974,26979
201910170327,26979,26980,26977,26977
201910170328,26977,26979,26977,26978
201910170329,26978,26978,26975,26975
201910170330,26975,26977,26975,26977
201910170331,26977,26984,26977,26983
201910170332,26983,26985,26982,26984
201910170333,26984,26993,26984,26992
201910170334,26992,26993,26988,26992
201910170335,26992,26996,26992,26996
201910170336,26996,26998,26995,26998
201910170337,26998,27000,26992,26994
201910170338,26995,26995,26993,26994
201910170339,26994,27001,26991,27000
201910170340,27000,27007,27000,27000
201910170341,27000,27004,26999,27002
201910170342,27002,27006,27002,27006
201910170343,27006,27007,27002,27003
201910170344,27003,27003,26998,26998
201910170345,26998,27001,26997,26998
201910170346,26998,27000,26995,26995
201910170347,26995,26995,26992,26993
201910170348,26993,26995,26993,26993
201910170349,26993,26994,26991,26994
201910170350,26994,26997,26993,26996
201910170351,26997,27000,26995,26999
201910170352,26999,26999,26991,26991
201910170353,26991,26998,26991,26997
201910170354,26997,26997,26992,26994
201910170355,26994,26995,26989,26990
201910170356,26990,26994,26989,26992
201910170357,26991,26992,26988,26988
201910170358,26987,26991,26986,26988
201910170359,26989,26990,26984,26984
201910170400,26985,26986,26983,26983
201910170401,26983,26986,26982,26985
201910170402,26985,26987,26983,26987
201910170403,26986,26987,26981,26981
201910170404,26981,26981,26976,26976
201910170405,26977,26977,26972,26974
201910170406,26974,26980,26974,26977
201910170407,26977,26980,26977,26977
201910170408,26977,26977,26973,26975
201910170409,26975,26978,26969,26973
201910170410,26973,26973,26970,26970
201910170411,26970,26970,26964,26966
201910170412,26966,26967,26965,26966
201910170413,26966,26966,26954,26954
201910170414,26954,26960,26952,26956
201910170415,26956,26956,26949,26950
201910170416,26950,26950,26943,26944
201910170417,26944,26945,26941,26944
201910170418,26944,26954,26943,26952
201910170419,26953,26959,26952,26952
201910170420,26952,26952,26949,26951
201910170421,26952,26956,26952,26954
201910170422,26954,26954,26950,26950
201910170423,26950,26954,26950,26952
201910170424,26952,26955,26951,26954
201910170425,26953,26957,26953,26956
201910170426,26956,26957,26954,26955
201910170427,26956,26957,26954,26957
201910170428,26958,26960,26957,26960
201910170429,26960,26960,26956,26960
201910170430,26960,26967,26960,26967
201910170431,26967,26975,26967,26969
201910170432,26969,26971,26968,26970
201910170433,26970,26971,26966,26966
201910170434,26965,26970,26965,26969
201910170435,26969,26970,26966,26967
201910170436,26967,26973,26967,26973
201910170437,26973,26975,26972,26975
201910170438,26975,26975,26972,26973
201910170439,26973,26973,26969,26969
201910170440,26969,26969,26965,26966
201910170441,26967,26970,26967,26970
201910170442,26970,26972,26968,26970
201910170443,26970,26972,26965,26965
201910170444,26964,26965,26951,26951
201910170445,26951,26959,26951,26959
201910170446,26959,26963,26956,26961
201910170447,26961,26966,26961,26964
201910170448,26964,26968,26963,26967
201910170449,26967,26970,26960,26961
201910170450,26961,26969,26960,26965
201910170451,26965,26968,26965,26967
201910170452,26967,26971,26959,26971
201910170453,26971,26972,26967,26970
201910170454,26970,26972,26966,26971
201910170455,26972,26972,26959,26959
201910170456,26959,26964,26959,26960
201910170457,26960,26964,26955,26963
201910170458,26964,26968,26962,26965
201910170459,26965,26967,26956,26963
201910170500,26964,26981,26963,26980
201910170501,26979,26980,26972,26974
201910170502,26974,26974,26967,26967
201910170503,26967,26971,26965,26969
201910170504,26969,26974,26969,26973
201910170505,26973,26975,26964,26965
201910170506,26965,26969,26961,26966
201910170507,26966,26972,26966,26970
201910170508,26970,26971,26967,26969
201910170509,26969,26969,26943,26953
201910170510,26952,26963,26948,26949
201910170511,26949,26953,26946,26953
201910170512,26953,26953,26948,26949
201910170513,26949,26954,26949,26950
201910170514,26950,26951,26933,26934
