日時,始値(BID),高値(BID),安値(BID),終値(BID)
201902040800,1317.9,1319,1317.6,1319
201902040801,1319,1319,1318.4,1318.4
201902040802,1318.4,1318.6,1318.3,1318.4
201902040803,1318.4,1318.4,1318,1318
201902040804,1318,1318,1317.6,1317.6
201902040805,1317.6,1317.8,1317.6,1317.8
201902040806,1317.8,1317.8,1317.7,1317.7
201902040807,1317.7,1317.7,1317.4,1317.4
201902040808,1317.4,1317.5,1317.4,1317.5
201902040809,1317.5,1317.5,1317.5,1317.5
201902040810,1317.5,1317.6,1317.4,1317.5
201902040811,1317.5,1317.5,1317.3,1317.3
201902040812,1317.3,1317.4,1317.3,1317.3
201902040813,1317.3,1317.3,1317.1,1317.3
201902040814,1317.3,1317.3,1317.2,1317.2
201902040815,1317.2,1317.2,1317.2,1317.2
201902040816,1317.2,1317.2,1317.1,1317.1
201902040817,1317.1,1317.2,1317.1,1317.1
201902040818,1317.1,1317.1,1317.1,1317.1
201902040819,1317.1,1317.1,1317.1,1317.1
201902040820,1317.1,1317.2,1317.1,1317.2
201902040821,1317.2,1317.2,1317.1,1317.1
201902040822,1317.1,1317.2,1317.1,1317.1
201902040823,1317.1,1317.4,1317.1,1317.3
201902040824,1317.3,1317.3,1317.2,1317.2
201902040825,1317.2,1317.2,1317.1,1317.1
201902040826,1317.1,1317.1,1317,1317
201902040827,1317,1317,1316.9,1316.9
201902040828,1316.9,1316.9,1316.8,1316.8
201902040829,1316.8,1316.9,1316.8,1316.9
201902040830,1316.9,1316.9,1316.7,1316.7
201902040831,1316.7,1316.7,1316.6,1316.7
201902040832,1316.6,1316.6,1316.4,1316.4
201902040833,1316.4,1316.8,1316.4,1316.7
201902040834,1316.7,1316.8,1316.7,1316.8
201902040835,1316.8,1317,1316.8,1316.9
201902040836,1316.9,1317,1316.9,1317
201902040837,1317,1317,1317,1317
201902040838,1317,1317.1,1317,1317.1
201902040839,1317.1,1317.1,1317.1,1317.1
201902040840,1317.1,1317.1,1317,1317
201902040841,1317,1317.1,1317,1317
201902040842,1317,1317.1,1317,1317
201902040843,1317,1317,1317,1317
201902040844,1317,1317.1,1317,1317.1
201902040845,1317.1,1317.3,1317.1,1317.3
201902040846,1317.3,1317.3,1317.3,1317.3
201902040847,1317.3,1317.3,1317.3,1317.3
201902040848,1317.3,1317.4,1317.3,1317.4
201902040849,1317.4,1317.4,1317.4,1317.4
201902040850,1317.4,1317.4,1317.3,1317.4
201902040851,1317.4,1317.4,1317.3,1317.4
201902040852,1317.4,1317.4,1317.4,1317.4
201902040853,1317.4,1317.4,1317.3,1317.4
201902040854,1317.4,1317.4,1317.3,1317.3
201902040855,1317.3,1317.3,1317.2,1317.3
201902040856,1317.3,1317.3,1317.3,1317.3
201902040857,1317.3,1317.3,1317.3,1317.3
201902040858,1317.3,1317.3,1317.1,1317.1
201902040859,1317.1,1317.1,1317,1317.1
201902040900,1317.1,1317.1,1316.7,1316.7
201902040901,1316.7,1316.9,1316.7,1316.8
201902040902,1316.8,1316.8,1316.3,1316.4
201902040903,1316.4,1316.4,1316.2,1316.3
201902040904,1316.3,1316.3,1316.1,1316.1
201902040905,1316.1,1316.5,1316.1,1316.4
201902040906,1316.4,1316.4,1316.3,1316.3
201902040907,1316.3,1316.6,1316.3,1316.6
201902040908,1316.6,1316.6,1316.4,1316.6
201902040909,1316.6,1316.8,1316.6,1316.8
201902040910,1316.8,1317,1316.8,1317
201902040911,1317,1317,1316.8,1316.8
201902040912,1316.8,1316.9,1316.8,1316.8
201902040913,1316.8,1317.2,1316.7,1317.2
201902040914,1317.2,1317.4,1317.2,1317.4
201902040915,1317.4,1317.4,1317.3,1317.4
201902040916,1317.4,1317.4,1316.9,1317
201902040917,1317,1317,1316.8,1316.8
201902040918,1316.8,1316.9,1316.7,1316.8
201902040919,1316.8,1316.9,1316.8,1316.9
201902040920,1316.9,1316.9,1316.8,1316.8
201902040921,1316.8,1316.9,1316.8,1316.9
201902040922,1316.9,1317,1316.9,1317
201902040923,1317,1317.1,1317,1317
201902040924,1317,1317.4,1317,1317.4
201902040925,1317.3,1317.4,1317.3,1317.4
201902040926,1317.4,1317.4,1317.4,1317.4
201902040927,1317.4,1317.4,1317.3,1317.3
201902040928,1317.3,1317.4,1317.3,1317.3
201902040929,1317.3,1317.4,1317.3,1317.3
201902040930,1317.3,1317.3,1317,1317.1
201902040931,1317.1,1317.1,1317,1317
201902040932,1317,1317.1,1317,1317
201902040933,1317,1317.1,1317,1317.1
201902040934,1317.1,1317.1,1317.1,1317.1
201902040935,1317.1,1317.1,1317,1317
201902040936,1317,1317,1316.8,1316.9
201902040937,1316.9,1316.9,1316.8,1316.9
201902040938,1316.9,1316.9,1316.7,1316.7
201902040939,1316.7,1316.7,1316.7,1316.7
201902040940,1316.7,1316.8,1316.7,1316.7
201902040941,1316.7,1316.8,1316.7,1316.7
201902040942,1316.7,1316.7,1316.6,1316.6
201902040943,1316.6,1316.6,1316.5,1316.5
201902040944,1316.6,1316.6,1316.5,1316.6
201902040945,1316.6,1316.8,1316.6,1316.8
201902040946,1316.8,1316.8,1316.7,1316.7
201902040947,1316.7,1316.7,1316.7,1316.7
201902040948,1316.7,1316.8,1316.7,1316.8
201902040949,1316.8,1316.9,1316.8,1316.8
201902040950,1316.8,1316.9,1316.8,1316.8
201902040951,1316.8,1316.8,1316.8,1316.8
201902040952,1316.8,1316.8,1316.7,1316.8
201902040953,1316.8,1316.8,1316.7,1316.7
201902040954,1316.7,1316.8,1316.6,1316.6
201902040955,1316.6,1316.6,1316.5,1316.5
201902040956,1316.5,1316.5,1315.7,1315.7
201902040957,1315.7,1315.7,1315.3,1315.4
201902040958,1315.3,1315.7,1315.3,1315.4
201902040959,1315.4,1315.6,1315.4,1315.5
201902041000,1315.5,1315.5,1315.2,1315.3
201902041001,1315.3,1315.5,1315.2,1315.3
201902041002,1315.3,1315.3,1315,1315.2
201902041003,1315.2,1315.2,1315.2,1315.2
201902041004,1315.2,1315.4,1315.2,1315.4
201902041005,1315.4,1315.6,1315.4,1315.5
201902041006,1315.5,1315.7,1315.5,1315.6
201902041007,1315.6,1315.6,1315.5,1315.5
201902041008,1315.5,1315.5,1315.5,1315.5
201902041009,1315.5,1315.5,1315.5,1315.5
201902041010,1315.5,1315.6,1315.4,1315.5
201902041011,1315.5,1315.5,1315.5,1315.5
201902041012,1315.5,1315.6,1315.5,1315.6
201902041013,1315.6,1315.6,1315.5,1315.5
201902041014,1315.5,1315.5,1315.4,1315.4
201902041015,1315.4,1315.4,1315.3,1315.4
201902041016,1315.4,1315.4,1315.1,1315.1
201902041017,1315.1,1315.2,1314.8,1314.9
201902041018,1314.9,1315.2,1314.9,1315.2
201902041019,1315.2,1315.3,1315.1,1315.2
201902041020,1315.2,1315.2,1315.1,1315.2
201902041021,1315.2,1315.3,1315.2,1315.3
201902041022,1315.3,1315.4,1315,1315
201902041023,1315,1315,1315,1315
201902041024,1315,1315.2,1315,1315.2
201902041025,1315.2,1315.3,1315.1,1315.2
201902041026,1315.2,1315.2,1315,1315
201902041027,1315,1315,1315,1315
201902041028,1315,1315,1314.9,1314.9
201902041029,1314.9,1314.9,1314.7,1314.7
201902041030,1314.7,1315,1314.7,1315
201902041031,1315,1315,1314.7,1314.7
201902041032,1314.7,1315,1314.7,1315
201902041033,1315,1315.1,1314.9,1315
201902041034,1315.1,1315.2,1315,1315.2
201902041035,1315.1,1315.3,1315.1,1315.2
201902041036,1315.2,1315.3,1315.1,1315.2
201902041037,1315.2,1315.2,1315.1,1315.2
201902041038,1315.2,1315.2,1315.1,1315.2
201902041039,1315.2,1315.2,1315.2,1315.2
201902041040,1315.2,1315.3,1315.1,1315.3
201902041041,1315.3,1315.3,1315.2,1315.2
201902041042,1315.2,1315.2,1315.1,1315.1
201902041043,1315.1,1315.1,1315,1315.1
201902041044,1315.1,1315.2,1315.1,1315.1
201902041045,1315.1,1315.1,1315.1,1315.1
201902041046,1315.1,1315.1,1315,1315
201902041047,1315,1315.1,1314.8,1314.8
201902041048,1314.8,1314.8,1314.7,1314.8
201902041049,1314.8,1314.8,1314.7,1314.7
201902041050,1314.7,1314.8,1314.6,1314.7
201902041051,1314.7,1314.9,1314.7,1314.9
201902041052,1314.9,1314.9,1314.8,1314.9
201902041053,1314.9,1315,1314.9,1314.9
201902041054,1314.9,1315,1314.8,1314.9
201902041055,1314.9,1315,1314.9,1315
201902041056,1315,1315.1,1315,1315
201902041057,1315,1315.2,1315,1315.1
201902041058,1315.1,1315.2,1315.1,1315.1
201902041059,1315.1,1315.1,1314.9,1314.9
201902041100,1314.9,1314.9,1314.9,1314.9
201902041101,1314.9,1314.9,1314.9,1314.9
201902041102,1314.9,1314.9,1314.8,1314.9
201902041103,1314.9,1315,1314.9,1315
201902041104,1315,1315,1314.9,1315
201902041105,1315,1315.1,1315,1315
201902041106,1315,1315,1315,1315
201902041107,1315,1315,1315,1315
201902041108,1315,1315.1,1315,1315
201902041109,1315,1315,1314.9,1314.9
201902041110,1314.9,1315,1314.9,1314.9
201902041111,1314.9,1315.2,1314.9,1315.1
201902041112,1315.1,1315.2,1315.1,1315.2
201902041113,1315.2,1315.2,1315.2,1315.2
201902041114,1315.2,1315.3,1315.2,1315.2
201902041115,1315.2,1315.3,1315.2,1315.3
201902041116,1315.3,1315.3,1315.3,1315.3
201902041117,1315.3,1315.3,1315.3,1315.3
201902041118,1315.3,1315.4,1315.3,1315.4
201902041119,1315.4,1315.4,1315.4,1315.4
201902041120,1315.4,1315.4,1315.4,1315.4
201902041121,1315.4,1315.4,1315.4,1315.4
201902041122,1315.4,1315.4,1315.4,1315.4
201902041123,1315.4,1315.5,1315.4,1315.5
201902041124,1315.5,1315.5,1315.4,1315.4
201902041125,1315.4,1315.4,1315.3,1315.3
201902041126,1315.3,1315.4,1315.3,1315.3
201902041127,1315.3,1315.3,1315.1,1315.1
201902041128,1315.1,1315.2,1315.1,1315.2
201902041129,1315.2,1315.2,1315.1,1315.1
201902041130,1315.1,1315.1,1315.1,1315.1
201902041131,1315.1,1315.1,1315.1,1315.1
201902041132,1315.1,1315.1,1315,1315
201902041133,1315,1315.1,1315,1315
201902041134,1315,1315.1,1315,1315.1
201902041135,1315.1,1315.1,1315,1315.1
201902041136,1315.1,1315.1,1315.1,1315.1
201902041137,1315.1,1315.1,1315,1315
201902041138,1315,1315.2,1315,1315.2
201902041139,1315.2,1315.2,1315.1,1315.2
201902041140,1315.2,1315.2,1315.2,1315.2
201902041141,1315.2,1315.2,1315.2,1315.2
201902041142,1315.2,1315.2,1315.2,1315.2
201902041143,1315.2,1315.3,1315,1315.1
201902041144,1315.1,1315.1,1315,1315
201902041145,1315,1315.1,1315,1315.1
201902041146,1315.1,1315.1,1315,1315
201902041147,1315,1315.2,1315,1315.1
201902041148,1315.1,1315.1,1315,1315
201902041149,1315,1315,1315,1315
201902041150,1315,1315,1314.8,1314.8
201902041151,1314.8,1314.8,1314.8,1314.8
201902041152,1314.8,1314.8,1314.7,1314.8
201902041153,1314.8,1314.8,1314.8,1314.8
201902041154,1314.8,1314.9,1314.8,1314.8
201902041155,1314.8,1314.9,1314.8,1314.9
201902041156,1314.9,1315,1314.9,1315
201902041157,1315,1315.1,1315,1315.1
201902041158,1315.1,1315.2,1315.1,1315.2
201902041159,1315.2,1315.2,1315.2,1315.2
201902041200,1315.2,1315.2,1315.1,1315.1
201902041201,1315.1,1315.1,1315.1,1315.1
201902041202,1315.1,1315.1,1314.9,1314.9
201902041203,1314.9,1314.9,1314.9,1314.9
201902041204,1314.9,1315,1314.9,1315
201902041205,1315,1315.1,1315,1315.1
201902041206,1315.1,1315.1,1315,1315
201902041207,1315,1315,1315,1315
201902041208,1315,1315,1314.8,1314.9
201902041209,1314.9,1314.9,1314.8,1314.8
201902041210,1314.8,1314.8,1314.7,1314.7
201902041211,1314.7,1314.8,1314.7,1314.8
201902041212,1314.8,1314.8,1314.6,1314.6
201902041213,1314.6,1314.6,1314.1,1314.2
201902041214,1314.2,1314.3,1314.2,1314.3
201902041215,1314.3,1314.3,1313.9,1313.9
201902041216,1313.9,1314.1,1313.9,1314.1
201902041217,1314.1,1314.3,1313.8,1314
201902041218,1314,1314,1313.8,1313.9
201902041219,1313.9,1313.9,1313.8,1313.8
201902041220,1313.8,1314,1313.8,1313.9
201902041221,1313.9,1314,1313.9,1314
201902041222,1314,1314,1313.9,1313.9
201902041223,1313.9,1314,1313.9,1313.9
201902041224,1313.9,1313.9,1313.7,1313.7
201902041225,1313.7,1313.8,1313.7,1313.7
201902041226,1313.7,1313.7,1313.6,1313.6
201902041227,1313.6,1313.7,1313.6,1313.7
201902041228,1313.7,1313.7,1313.7,1313.7
201902041229,1313.7,1313.7,1313.4,1313.5
201902041230,1313.5,1313.8,1313.5,1313.6
201902041231,1313.6,1313.9,1313.6,1313.8
201902041232,1313.8,1313.8,1313.8,1313.8
201902041233,1313.8,1313.8,1313.6,1313.6
201902041234,1313.6,1313.8,1313.6,1313.8
201902041235,1313.8,1313.8,1313.7,1313.7
201902041236,1313.7,1313.8,1313.6,1313.8
201902041237,1313.8,1313.8,1313.6,1313.7
201902041238,1313.7,1313.7,1313.5,1313.6
201902041239,1313.6,1313.7,1313.6,1313.7
201902041240,1313.7,1313.7,1313.6,1313.7
201902041241,1313.7,1313.7,1313.7,1313.7
201902041242,1313.7,1313.7,1313.6,1313.7
201902041243,1313.7,1313.7,1313.7,1313.7
201902041244,1313.7,1313.7,1313.6,1313.7
201902041245,1313.7,1313.7,1313.6,1313.7
201902041246,1313.7,1313.7,1313.6,1313.6
201902041247,1313.6,1313.6,1313.6,1313.6
201902041248,1313.6,1313.7,1313.3,1313.6
201902041249,1313.6,1313.6,1313.5,1313.5
201902041250,1313.5,1313.5,1313.4,1313.4
201902041251,1313.4,1313.4,1313.3,1313.4
201902041252,1313.4,1313.5,1313.4,1313.5
201902041253,1313.5,1313.5,1313.4,1313.5
201902041254,1313.5,1313.6,1313.5,1313.6
201902041255,1313.7,1313.7,1313.7,1313.7
201902041256,1313.7,1313.9,1313.7,1313.9
201902041257,1313.9,1314,1313.8,1313.9
201902041258,1313.9,1313.9,1313.8,1313.9
201902041259,1313.9,1313.9,1313.9,1313.9
201902041300,1313.9,1313.9,1313.7,1313.7
201902041301,1313.7,1313.9,1313.7,1313.9
201902041302,1313.9,1314,1313.8,1313.8
201902041303,1313.8,1313.9,1313.8,1313.9
201902041304,1313.9,1313.9,1313.8,1313.8
201902041305,1313.8,1313.9,1313.8,1313.8
201902041306,1313.8,1313.8,1313.8,1313.8
201902041307,1313.8,1313.8,1313.8,1313.8
201902041308,1313.8,1313.8,1313.8,1313.8
201902041309,1313.8,1313.8,1313.8,1313.8
201902041310,1313.8,1313.8,1313.8,1313.8
201902041311,1313.8,1313.9,1313.8,1313.9
201902041312,1313.9,1313.9,1313.8,1313.8
201902041313,1313.8,1313.8,1313.7,1313.7
201902041314,1313.7,1313.7,1313.6,1313.6
201902041315,1313.6,1313.6,1313.6,1313.6
201902041316,1313.6,1313.7,1313.5,1313.5
201902041317,1313.5,1313.5,1313.3,1313.3
201902041318,1313.3,1313.4,1313.2,1313.3
201902041319,1313.3,1313.3,1313.1,1313.1
201902041320,1313.1,1313.2,1313,1313.2
201902041321,1313.2,1313.2,1313.1,1313.1
201902041322,1313.1,1313.1,1312.9,1313
201902041323,1313,1313,1312.9,1312.9
201902041324,1312.9,1313,1312.8,1313
201902041325,1313,1313,1312.8,1312.8
201902041326,1312.8,1312.8,1312.6,1312.7
201902041327,1312.7,1312.7,1312.6,1312.6
201902041328,1312.6,1312.7,1312.6,1312.6
201902041329,1312.6,1312.6,1312.5,1312.6
201902041330,1312.6,1312.6,1312.5,1312.5
201902041331,1312.5,1312.6,1312.5,1312.5
201902041332,1312.5,1312.5,1312.4,1312.5
201902041333,1312.5,1312.5,1312.5,1312.5
201902041334,1312.5,1312.7,1312.5,1312.7
201902041335,1312.6,1312.7,1312.6,1312.7
201902041336,1312.7,1312.8,1312.6,1312.6
201902041337,1312.6,1312.6,1312.6,1312.6
201902041338,1312.6,1312.7,1312.6,1312.7
201902041339,1312.7,1312.7,1312.7,1312.7
201902041340,1312.7,1312.7,1312.6,1312.7
201902041341,1312.7,1312.8,1312.7,1312.8
201902041342,1312.8,1312.8,1312.5,1312.5
201902041343,1312.5,1312.7,1312.5,1312.7
201902041344,1312.7,1312.7,1312.6,1312.6
201902041345,1312.6,1312.6,1312.5,1312.6
201902041346,1312.6,1312.6,1312.4,1312.5
201902041347,1312.5,1312.5,1312.2,1312.3
201902041348,1312.3,1312.3,1312.2,1312.2
201902041349,1312.2,1312.4,1312.2,1312.4
201902041350,1312.4,1312.6,1312.3,1312.6
201902041351,1312.6,1312.6,1312.5,1312.5
201902041352,1312.5,1312.5,1312.4,1312.4
201902041353,1312.4,1312.4,1312.2,1312.3
201902041354,1312.3,1312.4,1312.3,1312.4
201902041355,1312.4,1312.5,1312.4,1312.5
201902041356,1312.5,1312.6,1312.4,1312.5
201902041357,1312.4,1312.4,1312.4,1312.4
201902041358,1312.4,1312.4,1312.3,1312.4
201902041359,1312.4,1312.5,1312.4,1312.5
201902041400,1312.5,1312.5,1312.4,1312.4
201902041401,1312.4,1312.5,1312.4,1312.5
201902041402,1312.4,1312.5,1312.4,1312.5
201902041403,1312.5,1312.5,1312.4,1312.4
201902041404,1312.4,1312.5,1312.4,1312.5
201902041405,1312.5,1312.6,1312.5,1312.6
201902041406,1312.6,1312.6,1312.6,1312.6
201902041407,1312.6,1312.6,1312.6,1312.6
201902041408,1312.6,1312.7,1312.6,1312.7
201902041409,1312.7,1312.8,1312.6,1312.6
201902041410,1312.6,1312.7,1312.6,1312.7
201902041411,1312.7,1312.7,1312.7,1312.7
201902041412,1312.7,1312.9,1312.7,1312.9
201902041413,1312.9,1313,1312.9,1313
201902041414,1313,1313,1312.9,1312.9
201902041415,1312.9,1313,1312.9,1313
201902041416,1313,1313,1312.9,1313
201902041417,1313,1313,1312.9,1312.9
201902041418,1312.9,1313,1312.9,1313
201902041419,1313,1313,1312.9,1312.9
201902041420,1312.9,1312.9,1312.9,1312.9
201902041421,1312.9,1312.9,1312.9,1312.9
201902041422,1312.9,1312.9,1312.8,1312.8
201902041423,1312.8,1312.8,1312.7,1312.7
201902041424,1312.7,1312.7,1312.5,1312.5
201902041425,1312.5,1312.6,1312.5,1312.6
201902041426,1312.6,1312.6,1312.6,1312.6
201902041427,1312.6,1312.6,1312.5,1312.5
201902041428,1312.5,1312.5,1312.5,1312.5
201902041429,1312.5,1312.5,1312.5,1312.5
201902041430,1312.5,1312.5,1312.5,1312.5
201902041431,1312.5,1312.6,1312.5,1312.6
201902041432,1312.6,1312.8,1312.5,1312.8
201902041433,1312.8,1312.8,1312.7,1312.8
201902041434,1312.7,1312.8,1312.7,1312.8
201902041435,1312.8,1312.8,1312.8,1312.8
201902041436,1312.8,1312.9,1312.7,1312.9
201902041437,1312.9,1312.9,1312.8,1312.8
201902041438,1312.8,1313,1312.8,1312.9
201902041439,1312.9,1313,1312.9,1313
201902041440,1313,1313,1313,1313
201902041441,1313,1313.1,1313,1313
201902041442,1313,1313,1312.9,1312.9
201902041443,1312.9,1313,1312.9,1313
201902041444,1313,1313,1312.9,1312.9
201902041445,1312.9,1312.9,1312.9,1312.9
201902041446,1312.9,1313.2,1312.9,1313.1
201902041447,1313.1,1313.2,1313,1313
201902041448,1313,1313.1,1313,1313
201902041449,1313,1313.1,1313,1313.1
201902041450,1313.1,1313.2,1313.1,1313.2
201902041451,1313.1,1313.2,1313.1,1313.1
201902041452,1313.1,1313.2,1313.1,1313.1
201902041453,1313.1,1313.1,1313.1,1313.1
201902041454,1313.1,1313.1,1313,1313
201902041455,1313,1313,1313,1313
201902041456,1313,1313,1312.8,1312.8
201902041457,1312.8,1312.8,1312.7,1312.7
201902041458,1312.7,1312.7,1312.7,1312.7
201902041459,1312.7,1312.7,1312.6,1312.6
201902041500,1312.7,1312.8,1312.7,1312.7
201902041501,1312.7,1312.7,1312.6,1312.6
201902041502,1312.6,1312.7,1312.6,1312.6
201902041503,1312.6,1312.7,1312.6,1312.6
201902041504,1312.6,1312.6,1312.6,1312.6
201902041505,1312.6,1312.6,1312.4,1312.4
201902041506,1312.4,1312.4,1312.3,1312.3
201902041507,1312.3,1312.7,1312.3,1312.6
201902041508,1312.6,1312.7,1312.6,1312.7
201902041509,1312.7,1312.7,1312.5,1312.5
201902041510,1312.5,1312.5,1312.4,1312.4
201902041511,1312.5,1312.5,1312.4,1312.5
201902041512,1312.5,1312.5,1312.4,1312.5
201902041513,1312.5,1312.5,1312.4,1312.4
201902041514,1312.4,1312.5,1312.4,1312.5
201902041515,1312.5,1312.5,1312.3,1312.5
201902041516,1312.5,1312.5,1312.4,1312.4
201902041517,1312.4,1312.5,1312.4,1312.5
201902041518,1312.5,1312.5,1312.4,1312.5
201902041519,1312.5,1312.5,1312.3,1312.5
201902041520,1312.5,1312.6,1312.5,1312.6
201902041521,1312.6,1312.7,1312.5,1312.6
201902041522,1312.6,1312.7,1312.6,1312.7
201902041523,1312.8,1312.8,1312.6,1312.6
201902041524,1312.6,1312.7,1312.5,1312.6
201902041525,1312.5,1312.5,1312.4,1312.4
201902041526,1312.5,1312.5,1312.4,1312.5
201902041527,1312.4,1312.5,1312.4,1312.4
201902041528,1312.4,1312.5,1312.4,1312.5
201902041529,1312.5,1312.5,1312.4,1312.4
201902041530,1312.4,1312.4,1312.3,1312.3
201902041531,1312.3,1312.3,1311.8,1311.8
201902041532,1311.8,1311.9,1311.8,1311.8
201902041533,1311.8,1311.9,1311.8,1311.9
201902041534,1311.9,1312,1311.9,1312
201902041535,1312,1312,1311.8,1311.8
201902041536,1311.8,1311.9,1311.8,1311.9
201902041537,1311.9,1312,1311.9,1312
201902041538,1312.1,1312.2,1312.1,1312.2
201902041539,1312.2,1312.4,1312.1,1312.4
201902041540,1312.4,1312.5,1312.4,1312.4
201902041541,1312.4,1312.4,1312.4,1312.4
201902041542,1312.4,1312.4,1312.3,1312.3
201902041543,1312.3,1312.3,1312.2,1312.2
201902041544,1312.2,1312.2,1312.2,1312.2
201902041545,1312.2,1312.2,1312.1,1312.1
201902041546,1312.1,1312.2,1312,1312.2
201902041547,1312.2,1312.3,1312.1,1312.3
201902041548,1312.3,1312.3,1312.1,1312.1
201902041549,1312.1,1312.2,1312.1,1312.2
201902041550,1312.2,1312.2,1312.2,1312.2
201902041551,1312.2,1312.2,1312.2,1312.2
201902041552,1312.2,1312.3,1312.2,1312.3
201902041553,1312.3,1312.4,1312.3,1312.4
201902041554,1312.4,1312.6,1312.4,1312.6
201902041555,1312.7,1312.8,1312.6,1312.7
201902041556,1312.7,1312.9,1312.7,1312.9
201902041557,1312.9,1312.9,1312.7,1312.7
201902041558,1312.7,1312.8,1312.7,1312.8
201902041559,1312.8,1312.8,1312.8,1312.8
201902041600,1312.8,1312.8,1312.6,1312.6
201902041601,1312.6,1312.6,1312.5,1312.5
201902041602,1312.5,1312.6,1312.3,1312.3
201902041603,1312.3,1312.3,1312.2,1312.3
201902041604,1312.3,1312.4,1312.2,1312.4
201902041605,1312.4,1312.4,1312.4,1312.4
201902041606,1312.4,1312.4,1312.3,1312.3
201902041607,1312.3,1312.3,1312.2,1312.3
201902041608,1312.3,1312.4,1312.3,1312.4
201902041609,1312.4,1312.6,1312.4,1312.6
201902041610,1312.6,1312.9,1312.6,1312.9
201902041611,1312.9,1313.1,1312.8,1313.1
201902041612,1313.1,1313.2,1313.1,1313.1
201902041613,1313.1,1313.1,1312.8,1312.8
201902041614,1312.8,1312.9,1312.8,1312.9
201902041615,1312.9,1312.9,1312.9,1312.9
201902041616,1312.9,1313,1312.9,1313
201902041617,1313,1313.1,1313,1313
201902041618,1313,1313.1,1313,1313.1
201902041619,1313.1,1313.5,1313.1,1313.4
201902041620,1313.4,1313.4,1312.9,1313
201902041621,1313,1313.1,1312.9,1312.9
201902041622,1312.9,1313.1,1312.9,1313
201902041623,1313,1313,1313,1313
201902041624,1313,1313,1312.8,1312.8
201902041625,1312.8,1312.9,1312.7,1312.7
201902041626,1312.7,1312.9,1312.7,1312.9
201902041627,1312.9,1313,1312.9,1312.9
201902041628,1312.9,1313.2,1312.9,1313.2
201902041629,1313.2,1313.3,1313.2,1313.2
201902041630,1313.2,1313.2,1313,1313.1
201902041631,1313.1,1313.2,1313,1313
201902041632,1313,1313,1312.9,1312.9
201902041633,1312.9,1313.1,1312.9,1313
201902041634,1313,1313,1312.9,1313
201902041635,1313,1313.1,1313,1313.1
201902041636,1313.1,1313.1,1313,1313
201902041637,1313,1313,1312.8,1312.9
201902041638,1312.9,1313.1,1312.9,1312.9
201902041639,1312.9,1312.9,1312.8,1312.9
201902041640,1312.8,1312.8,1312.4,1312.5
201902041641,1312.5,1312.7,1312.4,1312.7
201902041642,1312.7,1313,1312.7,1313
201902041643,1313,1313,1312.8,1312.8
201902041644,1312.8,1312.9,1312.7,1312.9
201902041645,1312.9,1313,1312.8,1312.8
201902041646,1312.8,1312.9,1312.8,1312.9
201902041647,1312.9,1312.9,1312.7,1312.7
201902041648,1312.7,1312.9,1312.7,1312.9
201902041649,1312.9,1313.1,1312.8,1313.1
201902041650,1313.1,1313.1,1313,1313
201902041651,1313,1313.4,1313,1313.3
201902041652,1313.3,1313.5,1313.3,1313.4
201902041653,1313.4,1313.5,1313.2,1313.2
201902041654,1313.2,1313.3,1313.1,1313.3
201902041655,1313.3,1313.4,1313.2,1313.4
201902041656,1313.4,1313.5,1313.3,1313.3
201902041657,1313.3,1313.4,1313.3,1313.4
201902041658,1313.5,1313.5,1313.4,1313.4
201902041659,1313.4,1313.5,1313.4,1313.5
201902041700,1313.5,1313.5,1313.2,1313.2
201902041701,1313.2,1313.2,1313,1313
201902041702,1313,1313.2,1313,1313.1
201902041703,1313.1,1313.2,1313.1,1313.2
201902041704,1313.2,1313.2,1313,1313
201902041705,1313,1313.2,1313,1313.1
201902041706,1313.1,1313.2,1312.9,1313.1
201902041707,1313.1,1313.2,1313,1313.1
201902041708,1313.1,1313.2,1313.1,1313.1
201902041709,1313.1,1313.4,1313.1,1313.4
201902041710,1313.4,1313.5,1313.3,1313.5
201902041711,1313.5,1313.5,1313.4,1313.5
201902041712,1313.5,1313.6,1313.4,1313.5
201902041713,1313.5,1313.5,1313.4,1313.5
201902041714,1313.5,1313.5,1313.4,1313.4
201902041715,1313.4,1313.4,1313.2,1313.3
201902041716,1313.3,1313.3,1313.2,1313.2
201902041717,1313.2,1313.3,1313.2,1313.2
201902041718,1313.2,1313.2,1313,1313.1
201902041719,1313.1,1313.1,1312.7,1312.7
201902041720,1312.7,1312.7,1312.3,1312.3
201902041721,1312.3,1312.4,1312.3,1312.3
201902041722,1312.3,1312.3,1312.1,1312.1
201902041723,1312.1,1312.2,1311.9,1311.9
201902041724,1311.9,1311.9,1311.3,1311.5
201902041725,1311.5,1311.5,1311.3,1311.4
201902041726,1311.4,1311.4,1311.2,1311.2
201902041727,1311.2,1311.2,1310.9,1310.9
201902041728,1310.9,1311.2,1310.9,1311
201902041729,1311,1311.1,1310.8,1311
201902041730,1311,1311.3,1310.9,1311.3
201902041731,1311.3,1311.4,1311.3,1311.3
201902041732,1311.3,1311.4,1311.3,1311.3
201902041733,1311.3,1311.4,1311.3,1311.4
201902041734,1311.4,1311.6,1311.4,1311.6
201902041735,1311.6,1311.8,1311.5,1311.6
201902041736,1311.6,1311.7,1311.5,1311.7
201902041737,1311.8,1311.8,1311.7,1311.8
201902041738,1311.8,1311.9,1311.7,1311.8
201902041739,1311.8,1312,1311.8,1311.9
201902041740,1311.9,1312,1311.9,1311.9
201902041741,1311.9,1311.9,1311.8,1311.8
201902041742,1311.8,1311.8,1311.7,1311.7
201902041743,1311.7,1311.7,1311.6,1311.6
201902041744,1311.6,1311.9,1311.6,1311.8
201902041745,1311.8,1311.9,1311.8,1311.8
201902041746,1311.8,1311.9,1311.8,1311.8
201902041747,1311.8,1311.9,1311.7,1311.7
201902041748,1311.7,1311.8,1311.7,1311.8
201902041749,1311.8,1311.8,1311.6,1311.8
201902041750,1311.8,1311.8,1311.7,1311.7
201902041751,1311.7,1311.9,1311.7,1311.8
201902041752,1311.8,1311.9,1311.8,1311.8
201902041753,1311.8,1312,1311.8,1312
201902041754,1312,1312,1311.9,1312
201902041755,1312,1312.2,1312,1312.2
201902041756,1312.2,1312.2,1311.7,1311.8
201902041757,1311.8,1312,1311.7,1312
201902041758,1312,1312.1,1311.9,1312
201902041759,1312,1312,1311.9,1311.9
201902041800,1311.9,1312,1311.7,1311.9
201902041801,1311.9,1312,1311.9,1312
201902041802,1312,1312,1311.7,1311.7
201902041803,1311.7,1311.8,1311.7,1311.7
201902041804,1311.7,1311.9,1311.6,1311.9
201902041805,1311.9,1311.9,1311.7,1311.7
201902041806,1311.7,1311.7,1311.4,1311.6
201902041807,1311.6,1311.6,1311.5,1311.6
201902041808,1311.6,1311.9,1311.6,1311.8
201902041809,1311.8,1311.9,1311.8,1311.9
201902041810,1311.9,1312,1311.9,1311.9
201902041811,1311.9,1312,1311.7,1311.8
201902041812,1311.8,1311.8,1311.7,1311.7
201902041813,1311.7,1311.7,1311.6,1311.7
201902041814,1311.7,1311.7,1311.3,1311.3
201902041815,1311.3,1311.4,1311.1,1311.2
201902041816,1311.2,1311.2,1311.2,1311.2
201902041817,1311.2,1311.2,1311.1,1311.1
201902041818,1311.1,1311.1,1311,1311.1
201902041819,1311.1,1311.1,1311,1311.1
201902041820,1311.1,1311.3,1311,1311.3
201902041821,1311.3,1311.4,1311.3,1311.3
201902041822,1311.3,1311.4,1311.2,1311.4
201902041823,1311.4,1311.4,1311.3,1311.4
201902041824,1311.4,1311.5,1311.4,1311.4
201902041825,1311.4,1311.5,1311.4,1311.4
201902041826,1311.4,1311.5,1311.3,1311.3
201902041827,1311.3,1311.3,1311.1,1311.2
201902041828,1311.2,1311.2,1311,1311.1
201902041829,1311.1,1311.1,1310.5,1310.5
201902041830,1310.5,1310.7,1310.5,1310.5
201902041831,1310.5,1310.8,1310.5,1310.7
201902041832,1310.7,1311,1310.7,1310.9
201902041833,1310.9,1311.1,1310.8,1311
201902041834,1311,1311,1310.9,1310.9
201902041835,1310.9,1311,1310.9,1310.9
201902041836,1310.9,1311.1,1310.9,1311
201902041837,1311.1,1311.1,1311,1311.1
201902041838,1311.1,1311.2,1311.1,1311.1
201902041839,1311.1,1311.2,1311.1,1311.1
201902041840,1311.1,1311.1,1311,1311
201902041841,1311,1311,1310.9,1310.9
201902041842,1310.9,1310.9,1310.8,1310.9
201902041843,1311,1311,1310.9,1310.9
201902041844,1310.9,1310.9,1310.8,1310.9
201902041845,1310.8,1310.9,1310.8,1310.9
201902041846,1310.9,1310.9,1310.8,1310.8
201902041847,1310.8,1310.8,1310.5,1310.6
201902041848,1310.6,1310.8,1310.6,1310.8
201902041849,1310.7,1310.7,1310.5,1310.5
201902041850,1310.5,1310.5,1310.3,1310.5
201902041851,1310.5,1310.6,1310.4,1310.6
201902041852,1310.6,1310.6,1310.4,1310.6
201902041853,1310.6,1310.6,1310.5,1310.6
201902041854,1310.6,1310.6,1310.4,1310.5
201902041855,1310.5,1310.5,1310.4,1310.4
201902041856,1310.4,1310.5,1310.4,1310.5
201902041857,1310.5,1310.6,1310.5,1310.6
201902041858,1310.6,1310.9,1310.6,1310.9
201902041859,1310.9,1311,1310.8,1311
201902041900,1311,1311,1310.9,1310.9
201902041901,1310.9,1311,1310.9,1311
201902041902,1311,1311,1310.8,1310.9
201902041903,1310.9,1310.9,1310.8,1310.9
201902041904,1310.9,1311,1310.8,1311
201902041905,1311,1311.2,1311,1311.2
201902041906,1311.2,1311.4,1311.2,1311.4
201902041907,1311.4,1311.4,1311.1,1311.1
201902041908,1311.1,1311.2,1311.1,1311.2
201902041909,1311.2,1311.2,1311.1,1311.2
201902041910,1311.2,1311.3,1311.2,1311.3
201902041911,1311.3,1311.3,1311.3,1311.3
201902041912,1311.3,1311.3,1311.1,1311.1
201902041913,1311.1,1311.1,1311,1311
201902041914,1311,1311.1,1311,1311
201902041915,1311,1311.3,1311,1311.2
201902041916,1311.2,1311.3,1311.2,1311.2
201902041917,1311.2,1311.2,1311,1311.1
201902041918,1311.1,1311.1,1311,1311
201902041919,1311,1311.1,1311,1311
201902041920,1311,1311.1,1311,1311
201902041921,1311.1,1311.1,1311,1311.1
201902041922,1311.1,1311.2,1311.1,1311.2
201902041923,1311.2,1311.3,1311.1,1311.2
201902041924,1311.2,1311.4,1311.2,1311.4
201902041925,1311.4,1311.5,1311.4,1311.5
201902041926,1311.5,1311.5,1311.3,1311.3
201902041927,1311.3,1311.4,1311.2,1311.2
201902041928,1311.2,1311.3,1311.1,1311.1
201902041929,1311.1,1311.4,1311.1,1311.2
201902041930,1311.2,1311.5,1311,1311.1
201902041931,1311.1,1311.1,1310.7,1310.9
201902041932,1310.8,1311.1,1310.8,1311.1
201902041933,1311.1,1311.3,1311,1311
201902041934,1311,1311,1310.8,1310.9
201902041935,1310.9,1311.1,1310.9,1311.1
201902041936,1311.1,1311.1,1311,1311
201902041937,1311,1311.1,1311,1311
201902041938,1311,1311,1310.8,1310.8
201902041939,1310.8,1311.1,1310.8,1311.1
201902041940,1311.1,1311.1,1310.9,1310.9
201902041941,1310.9,1311,1310.8,1310.8
201902041942,1310.8,1310.9,1310.8,1310.9
201902041943,1310.9,1311,1310.8,1310.9
201902041944,1310.9,1311,1310.9,1310.9
201902041945,1310.9,1310.9,1310.6,1310.6
201902041946,1310.7,1310.8,1310.6,1310.7
201902041947,1310.8,1310.8,1310.7,1310.8
201902041948,1310.8,1310.9,1310.7,1310.9
201902041949,1310.9,1311,1310.8,1311
201902041950,1311,1311,1310.9,1311
201902041951,1311,1311.1,1311,1311
201902041952,1311,1311.1,1311,1311
201902041953,1311,1311.2,1310.9,1311.1
201902041954,1311.1,1311.2,1311,1311
201902041955,1311,1311,1310.9,1310.9
201902041956,1310.9,1310.9,1310.6,1310.7
201902041957,1310.7,1310.7,1310.6,1310.7
201902041958,1310.7,1310.7,1310.6,1310.7
201902041959,1310.7,1310.7,1310.6,1310.6
201902042000,1310.6,1310.7,1310.6,1310.7
201902042001,1310.7,1310.8,1310.6,1310.7
201902042002,1310.7,1310.7,1310.6,1310.6
201902042003,1310.6,1310.6,1310.6,1310.6
201902042004,1310.6,1311.1,1310.6,1311
201902042005,1311,1311,1310.7,1310.7
201902042006,1310.7,1310.7,1310.4,1310.4
201902042007,1310.4,1310.5,1310.4,1310.4
201902042008,1310.4,1310.6,1310.4,1310.6
201902042009,1310.6,1310.6,1310.4,1310.4
201902042010,1310.4,1310.7,1310.4,1310.7
201902042011,1310.7,1310.7,1310.5,1310.6
201902042012,1310.6,1310.6,1310.4,1310.4
201902042013,1310.4,1310.4,1310.3,1310.3
201902042014,1310.3,1310.3,1310.3,1310.3
201902042015,1310.3,1310.4,1310.3,1310.4
201902042016,1310.4,1310.5,1310.4,1310.5
201902042017,1310.5,1310.5,1310.5,1310.5
201902042018,1310.5,1310.7,1310.5,1310.6
201902042019,1310.6,1310.7,1310.6,1310.6
201902042020,1310.6,1310.7,1310.5,1310.7
201902042021,1310.7,1310.8,1310.7,1310.7
201902042022,1310.7,1311.2,1310.7,1311
201902042023,1311,1311.1,1310.9,1311
201902042024,1311,1311,1311,1311
201902042025,1311,1311.1,1311,1311.1
201902042026,1311.1,1311.1,1311,1311
201902042027,1311,1311.1,1311,1311
201902042028,1311,1311,1310.9,1311
201902042029,1311,1311,1310.9,1310.9
201902042030,1310.9,1310.9,1310.7,1310.8
201902042031,1310.8,1310.9,1310.7,1310.7
201902042032,1310.7,1310.8,1310.7,1310.7
201902042033,1310.7,1310.7,1310.6,1310.7
201902042034,1310.7,1310.8,1310.6,1310.7
201902042035,1310.7,1310.7,1310.6,1310.7
201902042036,1310.7,1310.8,1310.6,1310.7
201902042037,1310.7,1310.7,1310.6,1310.7
201902042038,1310.7,1310.9,1310.6,1310.9
201902042039,1310.9,1311,1310.7,1310.8
201902042040,1310.7,1311,1310.7,1310.8
201902042041,1310.8,1310.8,1310.6,1310.7
201902042042,1310.7,1310.7,1310.6,1310.7
201902042043,1310.7,1310.8,1310.7,1310.8
201902042044,1310.8,1310.8,1310.6,1310.7
201902042045,1310.7,1310.7,1310.7,1310.7
201902042046,1310.7,1310.7,1310.6,1310.6
201902042047,1310.6,1310.7,1310.6,1310.6
201902042048,1310.6,1310.6,1310.5,1310.5
201902042049,1310.5,1310.6,1310.5,1310.6
201902042050,1310.6,1310.6,1310.5,1310.6
201902042051,1310.6,1310.6,1310.6,1310.6
201902042052,1310.6,1310.7,1310.6,1310.7
201902042053,1310.7,1310.9,1310.7,1310.8
201902042054,1310.8,1310.9,1310.8,1310.9
201902042055,1310.9,1311,1310.8,1310.9
201902042056,1310.9,1310.9,1310.8,1310.9
201902042057,1310.9,1310.9,1310.8,1310.9
201902042058,1310.9,1310.9,1310.7,1310.8
201902042059,1310.8,1310.8,1310.7,1310.7
201902042100,1310.7,1310.8,1310.7,1310.8
201902042101,1310.8,1310.8,1310.7,1310.8
201902042102,1310.8,1310.8,1310.7,1310.8
201902042103,1310.8,1310.8,1310.7,1310.8
201902042104,1310.8,1310.8,1310.7,1310.8
201902042105,1310.8,1310.8,1310.8,1310.8
201902042106,1310.8,1310.9,1310.7,1310.9
201902042107,1310.9,1311,1310.9,1310.9
201902042108,1310.9,1310.9,1310.7,1310.7
201902042109,1310.7,1310.8,1310.7,1310.7
201902042110,1310.7,1310.7,1310.6,1310.7
201902042111,1310.7,1310.9,1310.7,1310.8
201902042112,1310.8,1310.9,1310.8,1310.8
201902042113,1310.8,1310.8,1310.7,1310.7
201902042114,1310.7,1310.7,1310.5,1310.6
201902042115,1310.6,1310.6,1310.5,1310.6
201902042116,1310.6,1310.7,1310.6,1310.6
201902042117,1310.6,1310.7,1310.6,1310.7
201902042118,1310.7,1310.8,1310.7,1310.8
201902042119,1310.8,1310.8,1310.7,1310.7
201902042120,1310.7,1310.8,1310.7,1310.8
201902042121,1310.8,1310.8,1310.7,1310.8
201902042122,1310.8,1310.8,1310.7,1310.8
201902042123,1310.8,1310.8,1310.7,1310.8
201902042124,1310.8,1310.8,1310.8,1310.8
201902042125,1310.8,1310.8,1310.8,1310.8
201902042126,1310.8,1310.9,1310.7,1310.7
201902042127,1310.7,1310.7,1310.3,1310.3
201902042128,1310.3,1310.4,1309.8,1309.9
201902042129,1309.9,1310.1,1309.9,1310.1
201902042130,1310.1,1310.3,1310,1310.3
201902042131,1310.2,1310.7,1310.2,1310.7
201902042132,1310.7,1310.8,1310.6,1310.7
201902042133,1310.7,1310.8,1310.7,1310.7
201902042134,1310.7,1310.8,1310.7,1310.8
201902042135,1310.8,1310.8,1310.6,1310.8
201902042136,1310.8,1310.9,1310.6,1310.6
201902042137,1310.6,1310.7,1310.6,1310.6
201902042138,1310.6,1310.6,1310.6,1310.6
201902042139,1310.6,1310.7,1310.6,1310.7
201902042140,1310.7,1310.7,1310.4,1310.4
201902042141,1310.4,1310.5,1310.4,1310.4
201902042142,1310.4,1310.4,1310.3,1310.4
201902042143,1310.4,1310.4,1310.3,1310.3
201902042144,1310.3,1310.3,1310.3,1310.3
201902042145,1310.3,1310.4,1310.3,1310.4
201902042146,1310.4,1310.5,1310.4,1310.5
201902042147,1310.5,1310.5,1310.4,1310.4
201902042148,1310.4,1310.4,1310.3,1310.3
201902042149,1310.3,1310.3,1310.3,1310.3
201902042150,1310.3,1310.4,1310.3,1310.4
201902042151,1310.4,1310.4,1310.3,1310.4
201902042152,1310.4,1310.4,1310.3,1310.3
201902042153,1310.3,1310.4,1310.3,1310.3
201902042154,1310.3,1310.3,1310.3,1310.3
201902042155,1310.3,1310.7,1310.3,1310.7
201902042156,1310.7,1310.8,1310.7,1310.8
201902042157,1310.8,1310.9,1310.7,1310.9
201902042158,1310.9,1311,1310.9,1311
201902042159,1311,1311.1,1310.9,1311
201902042200,1311.1,1311.1,1310.9,1311.1
201902042201,1311.1,1311.1,1311,1311
201902042202,1311,1311.1,1311,1311
201902042203,1311,1311,1310.8,1310.8
201902042204,1310.8,1311,1310.8,1311
201902042205,1311,1311.1,1310.9,1310.9
201902042206,1310.9,1311,1310.9,1311
201902042207,1311,1311.1,1311,1311.1
201902042208,1311.1,1311.4,1311.1,1311.3
201902042209,1311.3,1311.3,1311,1311
201902042210,1311,1311,1310.7,1310.7
201902042211,1310.7,1310.8,1310.6,1310.8
201902042212,1310.8,1310.8,1310.7,1310.7
201902042213,1310.7,1310.8,1310.6,1310.7
201902042214,1310.7,1310.9,1310.7,1310.9
201902042215,1310.9,1311,1310.8,1310.9
201902042216,1310.9,1311,1310.9,1310.9
201902042217,1310.9,1311.1,1310.9,1311.1
201902042218,1311.1,1311.1,1311,1311.1
201902042219,1311.1,1311.1,1311,1311.1
201902042220,1311,1311.2,1311,1311.1
201902042221,1311.1,1311.2,1311.1,1311.1
201902042222,1311.1,1311.2,1311.1,1311.1
201902042223,1311.1,1311.5,1311.1,1311.5
201902042224,1311.5,1311.6,1311.4,1311.6
201902042225,1311.6,1311.6,1311.4,1311.5
201902042226,1311.5,1311.6,1311.5,1311.6
201902042227,1311.6,1311.8,1311.6,1311.7
201902042228,1311.7,1311.7,1311.6,1311.6
201902042229,1311.6,1311.8,1311.6,1311.8
201902042230,1311.8,1311.9,1311.6,1311.6
201902042231,1311.6,1311.7,1311.5,1311.5
201902042232,1311.5,1311.6,1311.3,1311.4
201902042233,1311.4,1311.4,1311.3,1311.4
201902042234,1311.4,1311.4,1311.2,1311.3
201902042235,1311.3,1311.5,1311.2,1311.5
201902042236,1311.5,1311.6,1311.5,1311.6
201902042237,1311.6,1311.9,1311.6,1311.8
201902042238,1311.8,1311.8,1311.7,1311.8
201902042239,1311.8,1312.1,1311.8,1312
201902042240,1312,1312,1311.9,1312
201902042241,1312,1312,1311.9,1311.9
201902042242,1311.9,1312,1311.8,1312
201902042243,1312,1312.2,1312,1312.1
201902042244,1312.1,1312.1,1311.9,1312.1
201902042245,1312.1,1312.1,1312.1,1312.1
201902042246,1312.1,1312.3,1311.9,1312
201902042247,1312,1312,1311.5,1311.5
201902042248,1311.5,1311.5,1311.1,1311.1
201902042249,1311.1,1311.3,1311.1,1311.3
201902042250,1311.3,1311.4,1311.3,1311.3
201902042251,1311.3,1311.4,1311.3,1311.3
201902042252,1311.3,1311.4,1311.3,1311.4
201902042253,1311.4,1311.4,1311.3,1311.4
201902042254,1311.4,1311.5,1311.4,1311.4
201902042255,1311.4,1311.4,1311.1,1311.1
201902042256,1311.1,1311.3,1311.1,1311.2
201902042257,1311.2,1311.4,1311.2,1311.3
201902042258,1311.3,1311.8,1311.3,1311.7
201902042259,1311.7,1311.7,1311.6,1311.7
201902042300,1311.7,1311.8,1311.7,1311.8
201902042301,1311.8,1311.9,1311.8,1311.8
201902042302,1311.8,1312,1311.8,1311.9
201902042303,1311.9,1311.9,1311.6,1311.6
201902042304,1311.6,1311.7,1311.1,1311.1
201902042305,1311.1,1311.3,1311.1,1311.1
201902042306,1311.1,1311.1,1309.9,1309.9
201902042307,1309.9,1310.1,1309.1,1309.4
201902042308,1309.4,1309.6,1309.1,1309.6
201902042309,1309.6,1309.7,1308.7,1308.8
201902042310,1308.8,1309.1,1308.5,1309.1
201902042311,1309.1,1309.4,1309,1309.4
201902042312,1309.4,1309.8,1309.3,1309.7
201902042313,1309.7,1310.2,1309.6,1310.1
201902042314,1310.1,1310.4,1310,1310.3
201902042315,1310.3,1310.7,1310.2,1310.6
201902042316,1310.6,1310.8,1310.4,1310.5
201902042317,1310.5,1310.9,1310.5,1310.9
201902042318,1310.9,1311.3,1310.9,1311.2
201902042319,1311.2,1311.4,1311.1,1311.4
201902042320,1311.4,1311.6,1311.2,1311.5
201902042321,1311.5,1311.7,1311.5,1311.6
201902042322,1311.6,1311.7,1311.4,1311.5
201902042323,1311.5,1311.6,1311.4,1311.4
201902042324,1311.4,1311.7,1311.4,1311.6
201902042325,1311.6,1311.7,1311.6,1311.6
201902042326,1311.6,1311.8,1311.5,1311.8
201902042327,1311.8,1312.2,1311.8,1312.1
201902042328,1312.1,1312.1,1311.9,1312
201902042329,1312,1312.1,1311.9,1312
201902042330,1312,1312.2,1312,1312.1
201902042331,1312.1,1312.2,1311.8,1311.8
201902042332,1311.8,1312.7,1311.8,1312.7
201902042333,1312.7,1312.8,1312.6,1312.8
201902042334,1312.8,1312.9,1312.5,1312.5
201902042335,1312.5,1312.6,1312.3,1312.3
201902042336,1312.3,1312.6,1312.2,1312.6
201902042337,1312.6,1312.6,1312.2,1312.3
201902042338,1312.3,1312.5,1312.2,1312.5
201902042339,1312.5,1312.8,1312.3,1312.3
201902042340,1312.3,1312.4,1312.3,1312.4
201902042341,1312.4,1312.6,1312.4,1312.6
201902042342,1312.6,1312.7,1312.6,1312.6
201902042343,1312.6,1312.6,1312.4,1312.5
201902042344,1312.5,1312.7,1312.4,1312.5
201902042345,1312.5,1312.6,1312.4,1312.4
201902042346,1312.4,1312.5,1312.2,1312.5
201902042347,1312.5,1312.6,1312.3,1312.3
201902042348,1312.3,1312.4,1312.2,1312.2
201902042349,1312.2,1312.2,1312.1,1312.2
201902042350,1312.2,1312.3,1311.8,1311.8
201902042351,1311.8,1311.8,1311.1,1311.2
201902042352,1311.3,1311.5,1311.2,1311.5
201902042353,1311.5,1311.5,1311.1,1311.1
201902042354,1311.1,1311.2,1311,1311.1
201902042355,1311.1,1311.2,1311,1311
201902042356,1311,1311.1,1311,1311
201902042357,1311,1311,1310.5,1310.6
201902042358,1310.5,1310.6,1310.4,1310.4
201902042359,1310.4,1310.6,1310.3,1310.6
201902050000,1310.6,1311.9,1310.6,1311.9
201902050001,1311.9,1312.2,1311.7,1312.2
201902050002,1312.2,1312.2,1311.9,1312
201902050003,1312,1312.1,1311.6,1311.8
201902050004,1311.8,1312.1,1311.7,1312.1
201902050005,1312.1,1312.4,1312,1312.3
201902050006,1312.4,1312.5,1312.1,1312.3
201902050007,1312.4,1312.4,1312.2,1312.3
201902050008,1312.3,1312.5,1312.2,1312.2
201902050009,1312.3,1312.6,1312.2,1312.6
201902050010,1312.6,1312.8,1312.3,1312.3
201902050011,1312.2,1312.3,1312,1312.3
201902050012,1312.3,1312.3,1312.1,1312.2
201902050013,1312.2,1312.6,1312.2,1312.6
201902050014,1312.5,1312.7,1312.5,1312.6
201902050015,1312.6,1312.7,1312.5,1312.6
201902050016,1312.6,1312.6,1312.4,1312.6
201902050017,1312.7,1312.7,1312.2,1312.3
201902050018,1312.3,1312.5,1312.2,1312.5
201902050019,1312.5,1312.7,1312.4,1312.7
201902050020,1312.7,1313,1312.7,1312.8
201902050021,1312.8,1313,1312.8,1313
201902050022,1313,1313.3,1313,1313
201902050023,1313,1313.5,1313,1313.4
201902050024,1313.4,1313.5,1313.3,1313.4
201902050025,1313.4,1313.8,1313.4,1313.8
201902050026,1313.8,1313.9,1313.4,1313.4
201902050027,1313.4,1313.5,1313.3,1313.5
201902050028,1313.5,1313.5,1313.4,1313.5
201902050029,1313.5,1313.7,1313.4,1313.7
201902050030,1313.7,1313.8,1313.7,1313.7
201902050031,1313.7,1313.9,1313.7,1313.8
201902050032,1313.8,1313.9,1313.8,1313.9
201902050033,1313.9,1314.4,1313.8,1314
201902050034,1314,1314.2,1314,1314.1
201902050035,1314.1,1314.1,1313.6,1313.7
201902050036,1313.7,1313.7,1313.4,1313.4
201902050037,1313.4,1313.7,1313.3,1313.5
201902050038,1313.5,1313.8,1313.5,1313.7
201902050039,1313.7,1313.9,1313.5,1313.9
201902050040,1313.9,1314.4,1313.9,1314.4
201902050041,1314.4,1314.5,1314.3,1314.5
201902050042,1314.5,1314.5,1314.2,1314.3
201902050043,1314.3,1314.4,1314,1314
201902050044,1314,1314.4,1314,1314.3
201902050045,1314.3,1314.4,1313.9,1313.9
201902050046,1313.9,1313.9,1313.7,1313.8
201902050047,1313.8,1313.9,1313.6,1313.7
201902050048,1313.6,1313.9,1313.6,1313.7
201902050049,1313.7,1314,1313.7,1314
201902050050,1314,1314.1,1313.7,1314.1
201902050051,1314,1314.2,1314,1314.2
201902050052,1314.2,1314.3,1314.1,1314.3
201902050053,1314.3,1314.4,1314.1,1314.1
201902050054,1314.1,1314.2,1314,1314.1
201902050055,1314.1,1314.1,1313.8,1313.9
201902050056,1313.9,1314,1313.8,1313.9
201902050057,1313.9,1314,1313.8,1313.8
201902050058,1313.8,1314,1313.7,1313.9
201902050059,1313.9,1313.9,1313.7,1313.8
201902050100,1313.8,1313.8,1313.5,1313.6
201902050101,1313.6,1313.6,1313.3,1313.3
201902050102,1313.3,1313.4,1313.3,1313.4
201902050103,1313.4,1313.4,1313.1,1313.1
201902050104,1313.1,1313.1,1313,1313
201902050105,1313,1313.3,1313,1313.2
201902050106,1313.2,1313.4,1313.2,1313.4
201902050107,1313.4,1313.7,1313.3,1313.6
201902050108,1313.6,1313.9,1313.6,1313.8
201902050109,1313.8,1314,1313.7,1313.9
201902050110,1313.9,1313.9,1313.7,1313.8
201902050111,1313.8,1314.3,1313.8,1314.3
201902050112,1314.3,1314.4,1314.3,1314.3
201902050113,1314.3,1314.3,1314.1,1314.3
201902050114,1314.3,1314.5,1314.3,1314.4
201902050115,1314.4,1314.5,1314.3,1314.5
201902050116,1314.5,1314.6,1314.4,1314.6
201902050117,1314.6,1314.6,1314.3,1314.4
201902050118,1314.4,1314.4,1314.3,1314.4
201902050119,1314.4,1314.4,1314.3,1314.3
201902050120,1314.3,1314.5,1314.3,1314.5
201902050121,1314.5,1314.5,1314.4,1314.5
201902050122,1314.5,1314.7,1314.3,1314.4
201902050123,1314.4,1314.4,1314,1314.1
201902050124,1314.1,1314.1,1314,1314
201902050125,1314,1314.2,1314,1314.1
201902050126,1314.1,1314.1,1313.7,1313.8
201902050127,1313.8,1314.1,1313.8,1314.1
201902050128,1314.1,1314.2,1314.1,1314.2
201902050129,1314.2,1314.3,1314.2,1314.2
201902050130,1314.2,1314.3,1314.2,1314.3
201902050131,1314.3,1314.4,1314.2,1314.4
201902050132,1314.4,1314.6,1314.4,1314.4
201902050133,1314.4,1314.4,1314.2,1314.2
201902050134,1314.2,1314.2,1314.1,1314.1
201902050135,1314.1,1314.6,1314.1,1314.6
201902050136,1314.6,1314.6,1314.1,1314.1
201902050137,1314.1,1314.2,1314.1,1314.2
201902050138,1314.2,1314.3,1314.2,1314.2
201902050139,1314.2,1314.3,1314.1,1314.3
201902050140,1314.3,1314.5,1314.2,1314.5
201902050141,1314.5,1314.6,1314.5,1314.6
201902050142,1314.6,1314.6,1314.6,1314.6
201902050143,1314.6,1314.6,1314.5,1314.5
201902050144,1314.5,1314.5,1314.1,1314.2
201902050145,1314.2,1314.2,1314,1314.1
201902050146,1314.1,1314.3,1314.1,1314.3
201902050147,1314.3,1314.7,1314.3,1314.6
201902050148,1314.6,1314.7,1314.5,1314.6
201902050149,1314.6,1314.8,1314.6,1314.8
201902050150,1314.8,1314.9,1314.6,1314.7
201902050151,1314.7,1314.8,1314.6,1314.8
201902050152,1314.8,1314.8,1314.4,1314.4
201902050153,1314.3,1314.4,1314.2,1314.3
201902050154,1314.3,1314.5,1314.3,1314.4
201902050155,1314.4,1314.6,1314.3,1314.5
201902050156,1314.5,1314.7,1314.5,1314.7
201902050157,1314.7,1314.8,1314.7,1314.7
201902050158,1314.7,1314.8,1314.6,1314.6
201902050159,1314.6,1314.7,1314.5,1314.7
201902050200,1314.6,1314.7,1314.4,1314.7
201902050201,1314.7,1314.9,1314.7,1314.8
201902050202,1314.8,1314.9,1314.7,1314.9
201902050203,1314.9,1314.9,1314.7,1314.9
201902050204,1314.9,1315,1314.9,1315
201902050205,1315,1315,1314.8,1314.9
201902050206,1314.9,1315,1314.9,1315
201902050207,1315,1315,1314.7,1314.8
201902050208,1314.8,1314.8,1314.7,1314.8
201902050209,1314.8,1314.8,1314.8,1314.8
201902050210,1314.8,1314.8,1314.6,1314.7
201902050211,1314.6,1314.8,1314.6,1314.7
201902050212,1314.7,1314.7,1314.3,1314.4
201902050213,1314.4,1314.4,1314.2,1314.2
201902050214,1314.2,1314.3,1314.1,1314.1
201902050215,1314.1,1314.2,1314,1314
201902050216,1314,1314.1,1313.8,1313.8
201902050217,1313.8,1314,1313.8,1314
201902050218,1314,1314.1,1313.9,1313.9
201902050219,1313.9,1314,1313.8,1313.8
201902050220,1313.8,1313.8,1313.5,1313.6
201902050221,1313.6,1313.8,1313.6,1313.8
201902050222,1313.8,1313.8,1313.7,1313.7
201902050223,1313.7,1313.7,1313.6,1313.7
201902050224,1313.6,1313.8,1313.6,1313.8
201902050225,1313.8,1313.8,1313.5,1313.6
201902050226,1313.6,1313.6,1313.6,1313.6
201902050227,1313.6,1313.6,1313.4,1313.6
201902050228,1313.6,1313.8,1313.6,1313.8
201902050229,1313.8,1313.9,1313.8,1313.8
201902050230,1313.8,1313.8,1313.7,1313.7
201902050231,1313.7,1313.7,1313.6,1313.7
201902050232,1313.7,1313.8,1313.7,1313.7
201902050233,1313.7,1313.9,1313.7,1313.8
201902050234,1313.8,1314.1,1313.8,1314.1
201902050235,1314.1,1314.4,1313.9,1314.3
201902050236,1314.3,1314.4,1314.2,1314.3
201902050237,1314.3,1314.3,1314,1314.1
201902050238,1314.1,1314.1,1314,1314.1
201902050239,1314.1,1314.2,1314.1,1314.2
201902050240,1314.2,1314.2,1314.1,1314.2
201902050241,1314.2,1314.3,1314.2,1314.2
201902050242,1314.2,1314.2,1314.1,1314.2
201902050243,1314.2,1314.2,1314,1314.1
201902050244,1314.1,1314.6,1314.1,1314.6
201902050245,1314.6,1314.6,1314.4,1314.6
201902050246,1314.5,1314.7,1314.5,1314.7
201902050247,1314.7,1314.7,1314.4,1314.4
201902050248,1314.4,1314.6,1314.4,1314.6
201902050249,1314.6,1314.6,1314.5,1314.6
201902050250,1314.6,1314.6,1314.3,1314.3
201902050251,1314.4,1314.4,1314.3,1314.3
201902050252,1314.3,1314.3,1314.2,1314.2
201902050253,1314.2,1314.3,1314.1,1314.2
201902050254,1314.2,1314.2,1314,1314.1
201902050255,1314,1314.2,1314,1314.2
201902050256,1314.2,1314.3,1314,1314
201902050257,1314,1314.2,1314,1314.2
201902050258,1314.2,1314.4,1314.2,1314.4
201902050259,1314.4,1314.5,1314.3,1314.3
201902050300,1314.3,1314.4,1314.1,1314.2
201902050301,1314.2,1314.4,1314.1,1314.3
201902050302,1314.3,1314.6,1314.3,1314.5
201902050303,1314.5,1314.7,1314.5,1314.7
201902050304,1314.7,1314.8,1314.6,1314.7
201902050305,1314.7,1314.8,1314.6,1314.7
201902050306,1314.7,1314.8,1314.7,1314.8
201902050307,1314.8,1314.9,1314.7,1314.7
201902050308,1314.7,1314.8,1314.6,1314.7
201902050309,1314.7,1314.8,1314.6,1314.6
201902050310,1314.6,1314.6,1314.5,1314.5
201902050311,1314.5,1314.6,1314.5,1314.6
201902050312,1314.6,1314.7,1314.6,1314.7
201902050313,1314.7,1314.7,1314.6,1314.6
201902050314,1314.6,1314.7,1314.6,1314.7
201902050315,1314.7,1314.8,1314.7,1314.8
201902050316,1314.8,1314.8,1314.7,1314.8
201902050317,1314.8,1314.9,1314.8,1314.9
201902050318,1314.9,1315.1,1314.9,1315
201902050319,1315,1315.1,1314.9,1314.9
201902050320,1315,1315,1314.9,1314.9
201902050321,1314.9,1315,1314.8,1314.9
201902050322,1314.9,1315,1314.7,1314.7
201902050323,1314.7,1314.9,1314.7,1314.9
201902050324,1314.9,1315,1314.7,1314.8
201902050325,1314.8,1315,1314.8,1315
201902050326,1315,1315.1,1315,1315
201902050327,1315,1315.1,1315,1315
201902050328,1315,1315,1314.9,1315
201902050329,1315,1315.1,1314.6,1314.7
201902050330,1314.6,1314.7,1314.3,1314.5
201902050331,1314.5,1314.6,1314.3,1314.3
201902050332,1314.4,1314.5,1314.1,1314.1
201902050333,1314.1,1314.2,1313.9,1313.9
201902050334,1314,1314,1313.9,1314
201902050335,1314,1314.1,1313.9,1313.9
201902050336,1313.9,1314,1313.7,1313.8
201902050337,1313.7,1313.9,1313.7,1313.9
201902050338,1313.9,1313.9,1313.8,1313.9
201902050339,1313.9,1313.9,1313.6,1313.6
201902050340,1313.6,1313.6,1313.5,1313.5
201902050341,1313.5,1313.5,1313.4,1313.5
201902050342,1313.5,1313.5,1313.4,1313.4
201902050343,1313.3,1313.5,1313,1313.4
201902050344,1313.4,1313.5,1313.2,1313.4
201902050345,1313.4,1313.4,1313.2,1313.4
201902050346,1313.3,1313.5,1313.1,1313.2
201902050347,1313.2,1313.3,1313.2,1313.2
201902050348,1313.2,1313.4,1313.2,1313.4
201902050349,1313.4,1313.4,1313,1313.3
201902050350,1313.3,1313.4,1313.2,1313.3
201902050351,1313.3,1313.4,1313.1,1313.3
201902050352,1313.3,1313.5,1313.3,1313.5
201902050353,1313.5,1313.5,1313.3,1313.3
201902050354,1313.3,1313.4,1313.3,1313.4
201902050355,1313.4,1313.4,1313.3,1313.3
201902050356,1313.3,1313.4,1313.2,1313.2
201902050357,1313.2,1313.2,1313.2,1313.2
201902050358,1313.2,1313.3,1313.2,1313.3
201902050359,1313.3,1313.5,1313.3,1313.5
201902050400,1313.5,1313.5,1313.4,1313.4
201902050401,1313.4,1313.6,1313.3,1313.3
201902050402,1313.3,1313.3,1313.3,1313.3
201902050403,1313.3,1313.5,1313.3,1313.5
201902050404,1313.5,1314,1313.5,1314
201902050405,1314,1314.1,1314,1314.1
201902050406,1314.1,1314.1,1313.8,1314
201902050407,1314,1314,1313.9,1314
201902050408,1314,1314,1313.9,1313.9
201902050409,1314,1314,1313.9,1313.9
201902050410,1313.9,1313.9,1313.8,1313.8
201902050411,1313.8,1314.1,1313.8,1314.1
201902050412,1314.1,1314.1,1314,1314
201902050413,1314.1,1314.1,1313.9,1314
201902050414,1314,1314.1,1313.9,1314
201902050415,1314.1,1314.1,1313.9,1313.9
201902050416,1313.9,1313.9,1313.9,1313.9
201902050417,1313.9,1314,1313.9,1314
201902050418,1314,1314.1,1314,1314.1
201902050419,1314.1,1314.1,1313.9,1314
201902050420,1314,1314,1313.8,1313.8
201902050421,1313.8,1313.9,1313.8,1313.8
201902050422,1313.8,1313.9,1313.8,1313.9
201902050423,1313.9,1313.9,1313.9,1313.9
201902050424,1313.9,1314,1313.9,1313.9
201902050425,1313.9,1314,1313.9,1313.9
201902050426,1313.9,1313.9,1313.8,1313.9
201902050427,1313.9,1314,1313.8,1313.9
201902050428,1313.9,1313.9,1313.8,1313.8
201902050429,1313.8,1313.9,1313.8,1313.9
201902050430,1313.9,1313.9,1313.9,1313.9
201902050431,1313.9,1314.1,1313.8,1314
201902050432,1314,1314.1,1314,1314.1
201902050433,1314.1,1314.1,1314,1314.1
201902050434,1314.1,1314.1,1314,1314
201902050435,1314,1314.1,1314,1314
201902050436,1314,1314.1,1314,1314
201902050437,1314,1314.1,1314,1314
201902050438,1314,1314.1,1313.9,1313.9
201902050439,1313.9,1313.9,1313.8,1313.8
201902050440,1313.8,1313.9,1313.6,1313.6
201902050441,1313.6,1313.7,1313.6,1313.7
201902050442,1313.7,1313.7,1313.7,1313.7
201902050443,1313.7,1313.8,1313.7,1313.8
201902050444,1313.8,1313.8,1313.6,1313.6
201902050445,1313.6,1313.8,1313.6,1313.7
201902050446,1313.7,1313.8,1313.7,1313.8
201902050447,1313.8,1313.9,1313.8,1313.9
201902050448,1313.9,1313.9,1313.8,1313.9
201902050449,1313.9,1313.9,1313.8,1313.8
201902050450,1313.8,1314,1313.8,1314
201902050451,1314,1314.1,1313.9,1314
201902050452,1314,1314,1313.8,1313.8
201902050453,1313.8,1313.8,1313.8,1313.8
201902050454,1313.8,1313.8,1313.7,1313.8
201902050455,1313.8,1313.8,1313.7,1313.7
201902050456,1313.7,1313.7,1313.7,1313.7
201902050457,1313.7,1313.7,1313.5,1313.5
201902050458,1313.5,1313.5,1313.5,1313.5
201902050459,1313.5,1313.6,1313.4,1313.4
201902050500,1313.4,1313.4,1313.3,1313.3
201902050501,1313.3,1313.5,1313.3,1313.4
201902050502,1313.4,1313.4,1313.4,1313.4
201902050503,1313.4,1313.4,1313.3,1313.3
201902050504,1313.3,1313.3,1313.3,1313.3
201902050505,1313.3,1313.5,1313.3,1313.5
201902050506,1313.5,1313.5,1313.4,1313.4
201902050507,1313.4,1313.4,1313.3,1313.3
201902050508,1313.3,1313.3,1313.3,1313.3
201902050509,1313.3,1313.3,1313.3,1313.3
201902050510,1313.3,1313.3,1313.1,1313.1
201902050511,1313.1,1313.2,1313.1,1313.2
201902050512,1313.2,1313.2,1313.2,1313.2
201902050513,1313.2,1313.2,1313.2,1313.2
201902050514,1313.2,1313.3,1313.1,1313.3
201902050515,1313.3,1313.3,1313.3,1313.3
201902050516,1313.3,1313.3,1313.2,1313.2
201902050517,1313.2,1313.2,1313.2,1313.2
201902050518,1313.2,1313.2,1313.1,1313.2
201902050519,1313.2,1313.3,1313.2,1313.2
201902050520,1313.2,1313.2,1313.1,1313.1
201902050521,1313.1,1313.2,1313,1313
201902050522,1313,1313.1,1313,1313.1
201902050523,1313,1313.2,1313,1313.1
201902050524,1313.1,1313.2,1313,1313
201902050525,1313.1,1313.1,1313,1313
201902050526,1313,1313.2,1312.9,1313
201902050527,1313,1313,1312.9,1312.9
201902050528,1312.9,1313.1,1312.9,1313
201902050529,1313,1313,1312.9,1313
201902050530,1313,1313,1312.9,1313
201902050531,1313,1313.2,1313,1313.1
201902050532,1313.1,1313.2,1313.1,1313.1
201902050533,1313.1,1313.2,1313.1,1313.1
201902050534,1313.1,1313.3,1313.1,1313.2
201902050535,1313.2,1313.4,1313.2,1313.2
201902050536,1313.3,1313.3,1313.2,1313.2
201902050537,1313.2,1313.2,1313.2,1313.2
201902050538,1313.2,1313.2,1313.2,1313.2
201902050539,1313.2,1313.4,1313.2,1313.3
201902050540,1313.3,1313.4,1313.3,1313.4
201902050541,1313.4,1313.4,1313.3,1313.3
201902050542,1313.3,1313.4,1313.3,1313.3
201902050543,1313.3,1313.4,1313.3,1313.4
201902050544,1313.4,1313.4,1313.4,1313.4
201902050545,1313.4,1313.6,1313.4,1313.5
201902050546,1313.6,1313.6,1313.3,1313.3
201902050547,1313.3,1313.3,1313.3,1313.3
201902050548,1313.3,1313.4,1313.3,1313.3
201902050549,1313.3,1313.4,1313.2,1313.4
201902050550,1313.4,1313.4,1313.2,1313.2
201902050551,1313.2,1313.2,1313.1,1313.2
201902050552,1313.2,1313.2,1312.9,1312.9
201902050553,1312.9,1313,1312.9,1312.9
201902050554,1312.9,1312.9,1312.7,1312.7
201902050555,1312.7,1312.7,1312.4,1312.4
201902050556,1312.4,1312.5,1312.4,1312.4
201902050557,1312.4,1312.4,1312.3,1312.3
201902050558,1312.3,1312.4,1312.2,1312.3
201902050559,1312.3,1312.3,1311.8,1311.8
201902050600,1311.8,1312.3,1311.8,1312.1
201902050601,1312.1,1312.2,1311.9,1312
201902050602,1312,1312.1,1311.9,1311.9
201902050603,1311.9,1312,1311.9,1311.9
201902050604,1311.9,1311.9,1311.8,1311.8
201902050605,1311.8,1311.9,1311.8,1311.9
201902050606,1311.9,1311.9,1311.8,1311.9
201902050607,1311.9,1312,1311.8,1311.8
201902050608,1311.8,1312,1311.8,1311.9
201902050609,1311.9,1312.1,1311.9,1312
201902050610,1312,1312,1312,1312
201902050611,1312,1312,1312,1312
201902050612,1312,1312.1,1312,1312.1
201902050613,1312.1,1312.1,1312,1312.1
201902050614,1312.1,1312.1,1312.1,1312.1
201902050615,1312.2,1312.3,1312.2,1312.3
201902050616,1312.3,1312.3,1312.2,1312.3
201902050617,1312.3,1312.3,1312.2,1312.3
201902050618,1312.3,1312.3,1312.3,1312.3
201902050619,1312.3,1312.3,1312.3,1312.3
201902050620,1312.3,1312.3,1312.3,1312.3
201902050621,1312.3,1312.3,1312.2,1312.2
201902050622,1312.2,1312.2,1312.2,1312.2
201902050623,1312.2,1312.2,1312,1312
201902050624,1312,1312.1,1311.9,1312
201902050625,1312,1312.1,1312,1312
201902050626,1312,1312,1312,1312
201902050627,1312,1312,1311.9,1312
201902050628,1312,1312,1312,1312
201902050629,1312,1312,1311.9,1311.9
201902050630,1312,1312,1311.9,1311.9
201902050631,1311.9,1311.9,1311.8,1311.8
201902050632,1311.8,1311.8,1311.8,1311.8
201902050633,1311.8,1311.8,1311.8,1311.8
201902050634,1311.8,1311.8,1311.8,1311.8
201902050635,1311.8,1311.8,1311.8,1311.8
201902050636,1311.8,1311.9,1311.8,1311.9
201902050637,1311.9,1311.9,1311.9,1311.9
201902050638,1311.9,1311.9,1311.9,1311.9
201902050639,1311.9,1311.9,1311.6,1311.6
201902050640,1311.6,1311.6,1311.4,1311.6
201902050641,1311.6,1311.6,1311.5,1311.5
201902050642,1311.5,1311.5,1311.5,1311.5
201902050643,1311.5,1311.5,1311.5,1311.5
201902050644,1311.5,1311.6,1311.5,1311.6
201902050645,1311.6,1311.7,1311.5,1311.6
201902050646,1311.6,1311.7,1311.6,1311.7
201902050647,1311.7,1311.7,1311.6,1311.6
201902050648,1311.6,1311.8,1311.6,1311.6
201902050649,1311.6,1311.7,1311.6,1311.6
201902050650,1311.6,1311.6,1311.6,1311.6
201902050651,1311.6,1311.6,1311.6,1311.6
201902050652,1311.6,1311.6,1311.6,1311.6
201902050653,1311.6,1311.7,1311.6,1311.7
201902050654,1311.7,1312,1311.7,1312
201902050655,1312,1312,1311.8,1311.8
201902050656,1311.8,1311.9,1311.8,1311.9
201902050657,1311.9,1312.1,1311.8,1312.1
201902050658,1312.1,1312.1,1312,1312
201902050659,1312,1312,1311.6,1311.6
