日時,始値(BID),高値(BID),安値(BID),終値(BID)
201902210800,1338.6,1338.9,1338.5,1338.9
201902210801,1338.9,1338.9,1338.7,1338.7
201902210802,1338.7,1338.9,1338.7,1338.8
201902210803,1338.8,1338.8,1338.6,1338.8
201902210804,1338.9,1339,1338.9,1339
201902210805,1339,1339,1338.8,1338.9
201902210806,1338.9,1339,1338.9,1339
201902210807,1339,1339.1,1338.9,1339.1
201902210808,1339.1,1339.1,1339.1,1339.1
201902210809,1339.1,1339.2,1339.1,1339.1
201902210810,1339.1,1339.4,1339.1,1339.4
201902210811,1339.4,1339.4,1339.3,1339.3
201902210812,1339.4,1339.4,1339.3,1339.4
201902210813,1339.5,1339.5,1339.5,1339.5
201902210814,1339.5,1339.6,1339.4,1339.6
201902210815,1339.6,1339.6,1339.5,1339.6
201902210816,1339.6,1339.6,1339.5,1339.6
201902210817,1339.6,1339.7,1339.6,1339.6
201902210818,1339.6,1339.6,1339.6,1339.6
201902210819,1339.6,1339.6,1339.6,1339.6
201902210820,1339.6,1339.6,1339.6,1339.6
201902210821,1339.6,1339.8,1339.6,1339.7
201902210822,1339.7,1339.8,1339.7,1339.8
201902210823,1339.8,1339.8,1339.8,1339.8
201902210824,1339.8,1339.8,1339.6,1339.6
201902210825,1339.6,1339.6,1339.6,1339.6
201902210826,1339.6,1339.7,1339.6,1339.6
201902210827,1339.6,1339.6,1339.6,1339.6
201902210828,1339.6,1339.7,1339.6,1339.6
201902210829,1339.6,1339.6,1339.6,1339.6
201902210830,1339.6,1339.6,1339.5,1339.5
201902210831,1339.5,1339.5,1339.5,1339.5
201902210832,1339.5,1339.5,1339.5,1339.5
201902210833,1339.5,1339.7,1339.5,1339.7
201902210834,1339.7,1339.7,1339.6,1339.6
201902210835,1339.6,1339.7,1339.6,1339.7
201902210836,1339.7,1339.7,1339.7,1339.7
201902210837,1339.7,1339.9,1339.7,1339.9
201902210838,1339.9,1339.9,1339.9,1339.9
201902210839,1339.9,1339.9,1339.9,1339.9
201902210840,1339.9,1340,1339.9,1340
201902210841,1340,1340,1339.8,1339.9
201902210842,1339.9,1340,1339.8,1340
201902210843,1340,1340.1,1340,1340.1
201902210844,1340.1,1340.1,1340.1,1340.1
201902210845,1340.1,1340.3,1340.1,1340.2
201902210846,1340.2,1340.3,1340.2,1340.3
201902210847,1340.3,1340.3,1340.3,1340.3
201902210848,1340.3,1340.3,1340.3,1340.3
201902210849,1340.3,1340.3,1340.2,1340.3
201902210850,1340.3,1340.3,1340.2,1340.2
201902210851,1340.2,1340.2,1340.1,1340.2
201902210852,1340.2,1340.2,1340.2,1340.2
201902210853,1340.2,1340.2,1340.2,1340.2
201902210854,1340.2,1340.3,1340.2,1340.3
201902210855,1340.3,1340.3,1340.3,1340.3
201902210856,1340.3,1340.4,1340.3,1340.4
201902210857,1340.4,1340.4,1340.3,1340.3
201902210858,1340.3,1340.4,1340.3,1340.3
201902210859,1340.3,1340.5,1340.3,1340.5
201902210900,1340.5,1340.5,1340.3,1340.3
201902210901,1340.3,1340.3,1340.3,1340.3
201902210902,1340.4,1340.4,1340.2,1340.3
201902210903,1340.3,1340.3,1340.2,1340.3
201902210904,1340.3,1340.4,1340.2,1340.4
201902210905,1340.4,1340.4,1340.2,1340.3
201902210906,1340.3,1340.3,1340.2,1340.2
201902210907,1340.2,1340.3,1340.2,1340.3
201902210908,1340.3,1340.4,1340.3,1340.4
201902210909,1340.4,1340.5,1340.3,1340.4
201902210910,1340.4,1340.8,1340.4,1340.8
201902210911,1340.8,1340.9,1340.8,1340.8
201902210912,1340.8,1340.8,1340.7,1340.8
201902210913,1340.8,1340.8,1340.6,1340.6
201902210914,1340.6,1340.7,1340.6,1340.7
201902210915,1340.7,1340.8,1340.7,1340.7
201902210916,1340.7,1340.7,1340.7,1340.7
201902210917,1340.7,1340.7,1340.7,1340.7
201902210918,1340.7,1340.7,1340.5,1340.5
201902210919,1340.5,1340.6,1340.5,1340.5
201902210920,1340.5,1340.6,1340.5,1340.5
201902210921,1340.5,1340.5,1340.4,1340.4
201902210922,1340.4,1340.4,1340.3,1340.4
201902210923,1340.4,1340.5,1340.3,1340.3
201902210924,1340.3,1340.3,1340.2,1340.2
201902210925,1340.2,1340.2,1340.2,1340.2
201902210926,1340.2,1340.2,1340.2,1340.2
201902210927,1340.2,1340.3,1340.2,1340.3
201902210928,1340.3,1340.5,1340.3,1340.5
201902210929,1340.5,1340.5,1340.4,1340.5
201902210930,1340.5,1340.7,1340.3,1340.3
201902210931,1340.3,1340.3,1340.2,1340.3
201902210932,1340.3,1340.3,1340.1,1340.3
201902210933,1340.3,1340.4,1340.3,1340.3
201902210934,1340.3,1340.3,1340.2,1340.3
201902210935,1340.3,1340.3,1340.1,1340.1
201902210936,1340.1,1340.2,1340.1,1340.1
201902210937,1340.1,1340.1,1340,1340
201902210938,1340,1340,1340,1340
201902210939,1340,1340,1339.8,1339.8
201902210940,1339.8,1339.8,1339.7,1339.7
201902210941,1339.7,1339.7,1339.7,1339.7
201902210942,1339.7,1339.7,1339.7,1339.7
201902210943,1339.7,1339.8,1339.7,1339.7
201902210944,1339.7,1340,1339.7,1339.9
201902210945,1339.9,1339.9,1339.8,1339.8
201902210946,1339.8,1339.8,1339.7,1339.8
201902210947,1339.8,1339.8,1339.7,1339.7
201902210948,1339.7,1339.8,1339.7,1339.8
201902210949,1339.8,1339.8,1339.7,1339.7
201902210950,1339.7,1339.8,1339.7,1339.7
201902210951,1339.7,1339.9,1339.7,1339.9
201902210952,1339.9,1340.1,1339.9,1340
201902210953,1340,1340,1339.9,1339.9
201902210954,1339.9,1339.9,1339.7,1339.7
201902210955,1339.7,1340.1,1339.7,1340.1
201902210956,1340.1,1340.1,1340,1340
201902210957,1340,1340.1,1340,1340
201902210958,1340,1340.1,1340,1340.1
201902210959,1340.1,1340.3,1340.1,1340.3
201902211000,1340.3,1340.5,1340.3,1340.4
201902211001,1340.4,1341.4,1340.4,1341
201902211002,1341,1341,1340.9,1341
201902211003,1341,1341,1340.9,1340.9
201902211004,1340.9,1341,1340.9,1341
201902211005,1341,1341,1340.7,1340.7
201902211006,1340.7,1340.7,1340.4,1340.4
201902211007,1340.4,1340.8,1340.4,1340.6
201902211008,1340.6,1340.6,1340.3,1340.5
201902211009,1340.5,1340.5,1340.4,1340.4
201902211010,1340.4,1340.4,1340.2,1340.4
201902211011,1340.4,1340.4,1340.2,1340.2
201902211012,1340.2,1340.3,1339.5,1339.6
201902211013,1339.6,1339.8,1339.3,1339.3
201902211014,1339.3,1339.4,1339.1,1339.3
201902211015,1339.3,1339.5,1339.3,1339.5
201902211016,1339.5,1339.5,1339.1,1339.1
201902211017,1339.1,1339.1,1338.7,1338.8
201902211018,1338.8,1339,1338.7,1338.9
201902211019,1338.9,1339.1,1338.8,1339.1
201902211020,1339.1,1339.1,1338.8,1338.9
201902211021,1338.9,1338.9,1338.7,1338.7
201902211022,1338.7,1338.8,1338.5,1338.6
201902211023,1338.6,1338.8,1338.6,1338.6
201902211024,1338.6,1338.7,1338.5,1338.6
201902211025,1338.5,1338.6,1338.2,1338.3
201902211026,1338.3,1338.3,1338.2,1338.3
201902211027,1338.3,1338.3,1338.2,1338.2
201902211028,1338.3,1338.3,1338.2,1338.3
201902211029,1338.3,1338.6,1338.3,1338.6
201902211030,1338.6,1338.6,1338.4,1338.5
201902211031,1338.5,1338.5,1338.3,1338.3
201902211032,1338.3,1338.3,1338.1,1338.3
201902211033,1338.3,1338.6,1338.3,1338.3
201902211034,1338.3,1338.4,1338.1,1338.2
201902211035,1338.1,1338.3,1337.8,1337.8
201902211036,1337.9,1338.1,1337.9,1338.1
201902211037,1338.1,1338.3,1338,1338.3
201902211038,1338.3,1338.3,1338.1,1338.1
201902211039,1338.1,1338.3,1338.1,1338.2
201902211040,1338.2,1338.3,1338.2,1338.2
201902211041,1338.2,1338.2,1338,1338.1
201902211042,1338.1,1338.2,1337.9,1338
201902211043,1338,1338,1337.9,1337.9
201902211044,1337.9,1337.9,1337.8,1337.8
201902211045,1337.8,1338,1337.8,1338
201902211046,1338,1338.1,1338,1338
201902211047,1338,1338.1,1338,1338
201902211048,1338,1338,1337.9,1338
201902211049,1338,1338,1338,1338
201902211050,1338,1338.1,1338,1338
201902211051,1338,1338,1337.7,1337.7
201902211052,1337.7,1337.7,1337.5,1337.6
201902211053,1337.6,1337.6,1337.4,1337.4
201902211054,1337.4,1337.5,1337.4,1337.4
201902211055,1337.4,1337.4,1337.3,1337.3
201902211056,1337.3,1337.7,1337.3,1337.7
201902211057,1337.7,1337.8,1337.7,1337.7
201902211058,1337.7,1337.8,1337.6,1337.6
201902211059,1337.6,1337.6,1337.4,1337.4
201902211100,1337.4,1337.6,1337.4,1337.5
201902211101,1337.5,1337.5,1337.4,1337.5
201902211102,1337.5,1337.7,1337.4,1337.6
201902211103,1337.6,1337.8,1337.4,1337.5
201902211104,1337.5,1337.7,1337.5,1337.6
201902211105,1337.6,1337.7,1337.6,1337.6
201902211106,1337.6,1337.7,1337.6,1337.7
201902211107,1337.7,1337.7,1337.6,1337.7
201902211108,1337.7,1337.7,1337.6,1337.6
201902211109,1337.6,1338,1337.6,1338
201902211110,1338,1338,1338,1338
201902211111,1338,1338.1,1338,1338.1
201902211112,1338.1,1338.2,1338.1,1338.2
201902211113,1338.2,1338.3,1338.1,1338.2
201902211114,1338.2,1338.2,1338.1,1338.1
201902211115,1338.1,1338.1,1338,1338
201902211116,1338,1338.1,1337.9,1338.1
201902211117,1338.1,1338.1,1338,1338.1
201902211118,1338.1,1338.2,1338.1,1338.2
201902211119,1338.2,1338.2,1338.1,1338.2
201902211120,1338.2,1338.2,1338.1,1338.1
201902211121,1338.1,1338.2,1338,1338.2
201902211122,1338.2,1338.2,1338.1,1338.1
201902211123,1338.1,1338.2,1338.1,1338.1
201902211124,1338.1,1338.2,1338.1,1338.1
201902211125,1338.1,1338.3,1338.1,1338.3
201902211126,1338.3,1338.3,1338.2,1338.3
201902211127,1338.3,1338.5,1338.3,1338.5
201902211128,1338.5,1338.5,1338.4,1338.4
201902211129,1338.4,1338.5,1338.3,1338.4
201902211130,1338.4,1338.4,1338.3,1338.3
201902211131,1338.3,1338.3,1338.1,1338.2
201902211132,1338.2,1338.2,1338,1338
201902211133,1338,1338.1,1338,1338.1
201902211134,1338.1,1338.1,1338.1,1338.1
201902211135,1338.1,1338.2,1338,1338
201902211136,1338,1338.2,1338,1338.2
201902211137,1338.2,1338.2,1338.1,1338.1
201902211138,1338.1,1338.2,1338.1,1338.1
201902211139,1338.1,1338.2,1338.1,1338.2
201902211140,1338.2,1338.4,1338.2,1338.3
201902211141,1338.3,1338.3,1338.3,1338.3
201902211142,1338.3,1338.5,1338.3,1338.5
201902211143,1338.5,1338.5,1338.5,1338.5
201902211144,1338.5,1338.6,1338.5,1338.5
201902211145,1338.5,1338.6,1338.5,1338.6
201902211146,1338.6,1338.6,1338.5,1338.6
201902211147,1338.6,1339.3,1338.6,1339.3
201902211148,1339.3,1339.3,1339.2,1339.2
201902211149,1339.2,1339.6,1339.2,1339.5
201902211150,1339.5,1339.5,1339.3,1339.4
201902211151,1339.5,1339.5,1339.4,1339.4
201902211152,1339.4,1339.4,1339.4,1339.4
201902211153,1339.4,1339.5,1339.3,1339.4
201902211154,1339.4,1339.5,1339.3,1339.3
201902211155,1339.3,1339.3,1339.2,1339.2
201902211156,1339.2,1339.3,1339.1,1339.3
201902211157,1339.3,1339.3,1339.1,1339.1
201902211158,1339.1,1339.1,1338.9,1339
201902211159,1339,1339,1338.8,1338.9
201902211200,1338.9,1339,1338.8,1339
201902211201,1339,1339,1338.9,1339
201902211202,1339,1339.1,1338.9,1338.9
201902211203,1338.9,1339.1,1338.9,1339.1
201902211204,1339.2,1339.2,1339.1,1339.1
201902211205,1339.1,1339.1,1339.1,1339.1
201902211206,1339.1,1339.1,1338.8,1338.9
201902211207,1338.9,1338.9,1338.7,1338.8
201902211208,1338.8,1338.9,1338.8,1338.8
201902211209,1338.8,1338.8,1338.8,1338.8
201902211210,1338.8,1338.8,1338.7,1338.8
201902211211,1338.8,1338.8,1338.6,1338.7
201902211212,1338.7,1338.8,1338.7,1338.8
201902211213,1338.8,1339.1,1338.8,1339.1
201902211214,1339.1,1339.3,1339.1,1339.3
201902211215,1339.3,1339.3,1339.2,1339.3
201902211216,1339.3,1339.3,1338.9,1339
201902211217,1339,1339.2,1339,1339.1
201902211218,1339.2,1339.2,1339.1,1339.2
201902211219,1339.2,1339.3,1339.2,1339.2
201902211220,1339.2,1339.5,1339.2,1339.5
201902211221,1339.5,1339.5,1339.5,1339.5
201902211222,1339.5,1339.8,1339.5,1339.8
201902211223,1339.8,1339.8,1339.7,1339.7
201902211224,1339.7,1339.8,1339.7,1339.8
201902211225,1339.8,1339.8,1339.6,1339.6
201902211226,1339.6,1339.8,1339.6,1339.7
201902211227,1339.7,1339.7,1339.5,1339.5
201902211228,1339.5,1339.5,1339.4,1339.5
201902211229,1339.5,1339.5,1339.4,1339.4
201902211230,1339.4,1339.4,1339.3,1339.4
201902211231,1339.4,1339.5,1339.4,1339.4
201902211232,1339.4,1339.5,1339.4,1339.4
201902211233,1339.4,1339.4,1339.4,1339.4
201902211234,1339.4,1339.7,1339.4,1339.7
201902211235,1339.7,1339.7,1339.4,1339.4
201902211236,1339.4,1339.4,1339.3,1339.3
201902211237,1339.3,1339.5,1339.2,1339.2
201902211238,1339.2,1339.4,1339.2,1339.4
201902211239,1339.4,1339.5,1339.3,1339.3
201902211240,1339.3,1339.4,1339.3,1339.4
201902211241,1339.4,1339.7,1339.4,1339.7
201902211242,1339.7,1339.8,1339.7,1339.7
201902211243,1339.7,1339.7,1339.6,1339.7
201902211244,1339.7,1339.7,1339.7,1339.7
201902211245,1339.7,1339.8,1339.7,1339.7
201902211246,1339.7,1339.7,1339.6,1339.7
201902211247,1339.7,1339.7,1339.6,1339.7
201902211248,1339.7,1339.7,1339.7,1339.7
201902211249,1339.7,1339.9,1339.7,1339.9
201902211250,1339.9,1339.9,1339.9,1339.9
201902211251,1339.9,1340,1339.9,1340
201902211252,1340,1340,1339.9,1339.9
201902211253,1339.9,1340,1339.8,1340
201902211254,1340,1340,1339.9,1340
201902211255,1340,1340,1339.9,1340
201902211256,1340,1340,1339.8,1339.8
201902211257,1339.8,1339.8,1339.7,1339.7
201902211258,1339.7,1339.8,1339.7,1339.7
201902211259,1339.7,1339.8,1339.7,1339.8
201902211300,1339.8,1339.8,1339.7,1339.8
201902211301,1339.8,1340,1339.8,1340
201902211302,1340,1340.1,1340,1340.1
201902211303,1340.1,1340.1,1339.9,1340
201902211304,1340,1340.1,1340,1340
201902211305,1340,1340.1,1340,1340
201902211306,1340,1340.2,1340,1340.1
201902211307,1340.1,1340.2,1340.1,1340.1
201902211308,1340.1,1340.2,1340.1,1340.1
201902211309,1340.1,1340.1,1340,1340.1
201902211310,1340.1,1340.1,1340,1340.1
201902211311,1340.1,1340.2,1340.1,1340.2
201902211312,1340.2,1340.2,1340.1,1340.1
201902211313,1340.1,1340.2,1340.1,1340.1
201902211314,1340.1,1340.1,1340.1,1340.1
201902211315,1340.1,1340.2,1340.1,1340.1
201902211316,1340.1,1340.2,1340.1,1340.2
201902211317,1340.2,1340.2,1340.2,1340.2
201902211318,1340.2,1340.2,1340.1,1340.2
201902211319,1340.2,1340.3,1340.2,1340.2
201902211320,1340.2,1340.2,1340.1,1340.1
201902211321,1340.1,1340.2,1340.1,1340.2
201902211322,1340.2,1340.2,1340.1,1340.1
201902211323,1340.1,1340.2,1340.1,1340.2
201902211324,1340.2,1340.2,1340.1,1340.1
201902211325,1340.1,1340.1,1339.9,1339.9
201902211326,1339.9,1339.9,1339.9,1339.9
201902211327,1339.9,1339.9,1339.9,1339.9
201902211328,1339.9,1339.9,1339.9,1339.9
201902211329,1339.9,1340,1339.8,1339.9
201902211330,1339.9,1339.9,1339.9,1339.9
201902211331,1339.9,1339.9,1339.8,1339.9
201902211332,1339.9,1340,1339.9,1340
201902211333,1340,1340,1339.9,1339.9
201902211334,1339.9,1339.9,1339.8,1339.9
201902211335,1339.9,1339.9,1339.6,1339.7
201902211336,1339.7,1339.7,1339.6,1339.7
201902211337,1339.7,1339.7,1339.6,1339.7
201902211338,1339.7,1339.7,1339.7,1339.7
201902211339,1339.7,1339.7,1339.7,1339.7
201902211340,1339.7,1339.7,1339.7,1339.7
201902211341,1339.7,1339.8,1339.7,1339.7
201902211342,1339.7,1339.8,1339.7,1339.8
201902211343,1339.8,1339.8,1339.8,1339.8
201902211344,1339.8,1339.8,1339.8,1339.8
201902211345,1339.8,1339.9,1339.8,1339.9
201902211346,1339.9,1339.9,1339.8,1339.8
201902211347,1339.8,1339.9,1339.8,1339.8
201902211348,1339.8,1339.9,1339.8,1339.9
201902211349,1339.9,1340,1339.9,1340
201902211350,1340,1340,1339.9,1339.9
201902211351,1339.9,1340,1339.9,1340
201902211352,1340,1340,1340,1340
201902211353,1340,1340,1339.9,1339.9
201902211354,1339.9,1340,1339.9,1340
201902211355,1340,1340,1339.9,1339.9
201902211356,1339.9,1339.9,1339.9,1339.9
201902211357,1339.9,1340.1,1339.9,1340.1
201902211358,1340.1,1340.1,1340.1,1340.1
201902211359,1340.1,1340.2,1340,1340
201902211400,1340,1340.1,1340,1340.1
201902211401,1340.1,1340.1,1340.1,1340.1
201902211402,1340.1,1340.3,1340.1,1340.3
201902211403,1340.3,1340.6,1340.3,1340.6
201902211404,1340.6,1340.7,1340.5,1340.6
201902211405,1340.6,1340.7,1340.5,1340.5
201902211406,1340.5,1340.6,1340.5,1340.5
201902211407,1340.5,1340.6,1340.5,1340.5
201902211408,1340.5,1340.5,1340.4,1340.5
201902211409,1340.5,1340.5,1340.3,1340.3
201902211410,1340.3,1340.4,1340.3,1340.4
201902211411,1340.4,1340.4,1340.3,1340.4
201902211412,1340.4,1340.5,1340.3,1340.3
201902211413,1340.3,1340.4,1340.3,1340.4
201902211414,1340.4,1340.5,1340.3,1340.3
201902211415,1340.3,1340.4,1340.3,1340.3
201902211416,1340.3,1340.4,1340.3,1340.4
201902211417,1340.4,1340.4,1340.3,1340.3
201902211418,1340.3,1340.4,1340.3,1340.4
201902211419,1340.4,1340.6,1340.4,1340.5
201902211420,1340.5,1340.6,1340.4,1340.5
201902211421,1340.5,1340.6,1340.5,1340.5
201902211422,1340.5,1340.6,1340.5,1340.6
201902211423,1340.6,1340.6,1340.5,1340.5
201902211424,1340.5,1340.5,1340.5,1340.5
201902211425,1340.5,1340.5,1340.5,1340.5
201902211426,1340.5,1340.5,1340.3,1340.4
201902211427,1340.4,1340.5,1340.2,1340.2
201902211428,1340.2,1340.3,1339.8,1339.9
201902211429,1339.9,1340,1339.6,1339.6
201902211430,1339.6,1340.1,1339.5,1340
201902211431,1340,1340.1,1339.9,1339.9
201902211432,1340,1340.1,1339.9,1339.9
201902211433,1339.9,1340,1339.6,1339.7
201902211434,1339.7,1339.8,1339.7,1339.7
201902211435,1339.7,1339.8,1339.6,1339.7
201902211436,1339.7,1339.8,1339.7,1339.7
201902211437,1339.7,1340.1,1339.7,1340.1
201902211438,1340,1340,1339.8,1339.9
201902211439,1339.9,1339.9,1339.7,1339.8
201902211440,1339.8,1339.9,1339.8,1339.8
201902211441,1339.8,1339.8,1339.6,1339.8
201902211442,1339.8,1340,1339.8,1339.9
201902211443,1339.9,1339.9,1339.6,1339.7
201902211444,1339.7,1340,1339.6,1339.9
201902211445,1339.9,1339.9,1339.8,1339.8
201902211446,1339.8,1339.8,1339.6,1339.7
201902211447,1339.7,1339.7,1339.5,1339.6
201902211448,1339.6,1339.6,1339.5,1339.5
201902211449,1339.5,1339.5,1339.5,1339.5
201902211450,1339.5,1339.6,1339.5,1339.6
201902211451,1339.6,1339.6,1339.3,1339.4
201902211452,1339.4,1339.4,1339.2,1339.2
201902211453,1339.2,1339.2,1339,1339
201902211454,1339,1339.1,1339,1339.1
201902211455,1339.1,1339.3,1339.1,1339.1
201902211456,1339.1,1339.1,1339,1339
201902211457,1339,1339,1338.7,1338.7
201902211458,1338.8,1338.8,1338.7,1338.7
201902211459,1338.7,1338.8,1338.6,1338.8
201902211500,1338.8,1338.8,1338.4,1338.4
201902211501,1338.4,1338.5,1338.2,1338.3
201902211502,1338.2,1338.3,1338.1,1338.3
201902211503,1338.4,1338.5,1338.3,1338.5
201902211504,1338.5,1338.7,1338.3,1338.7
201902211505,1338.7,1338.7,1338.3,1338.4
201902211506,1338.4,1338.6,1338.4,1338.6
201902211507,1338.6,1338.6,1338.4,1338.4
201902211508,1338.4,1338.6,1338.4,1338.5
201902211509,1338.5,1338.6,1338.4,1338.6
201902211510,1338.6,1338.6,1338.4,1338.5
201902211511,1338.5,1338.5,1338.4,1338.4
201902211512,1338.5,1338.5,1338.2,1338.2
201902211513,1338.2,1338.3,1338.2,1338.2
201902211514,1338.2,1338.5,1338.2,1338.5
201902211515,1338.5,1338.5,1338.2,1338.4
201902211516,1338.4,1338.6,1338.4,1338.5
201902211517,1338.5,1338.6,1338.5,1338.5
201902211518,1338.5,1338.5,1338.2,1338.2
201902211519,1338.2,1338.3,1338,1338.3
201902211520,1338.3,1338.6,1338.2,1338.6
201902211521,1338.6,1338.7,1338.6,1338.6
201902211522,1338.6,1338.8,1338.6,1338.8
201902211523,1338.8,1338.9,1338.8,1338.8
201902211524,1338.8,1338.8,1338.8,1338.8
201902211525,1338.8,1338.8,1338.7,1338.8
201902211526,1338.8,1338.8,1338.7,1338.7
201902211527,1338.7,1338.8,1338.7,1338.8
201902211528,1338.8,1338.9,1338.8,1338.9
201902211529,1338.9,1339,1338.9,1339
201902211530,1339,1339,1338.9,1339
201902211531,1339,1339,1339,1339
201902211532,1339,1339.3,1339,1339.3
201902211533,1339.3,1339.3,1339.2,1339.2
201902211534,1339.2,1339.2,1338.8,1338.8
201902211535,1338.8,1338.8,1338.3,1338.4
201902211536,1338.4,1338.7,1338.4,1338.5
201902211537,1338.5,1338.5,1338.4,1338.4
201902211538,1338.4,1338.6,1338.4,1338.5
201902211539,1338.5,1338.5,1338.2,1338.3
201902211540,1338.3,1338.4,1338.2,1338.3
201902211541,1338.3,1338.5,1338.3,1338.3
201902211542,1338.3,1338.4,1338.3,1338.4
201902211543,1338.4,1338.5,1338.3,1338.5
201902211544,1338.5,1338.5,1338.2,1338.2
201902211545,1338.2,1338.2,1338.1,1338.1
201902211546,1338.1,1338.3,1338.1,1338.3
201902211547,1338.3,1338.3,1338.2,1338.3
201902211548,1338.3,1338.3,1338.1,1338.1
201902211549,1338.1,1338.1,1337.9,1338.1
201902211550,1338,1338.2,1338,1338.1
201902211551,1338.1,1338.2,1338,1338
201902211552,1338,1338,1337.8,1337.9
201902211553,1337.8,1337.9,1337.8,1337.9
201902211554,1337.9,1338.1,1337.8,1338
201902211555,1338,1338,1337.7,1337.8
201902211556,1337.8,1337.9,1337.7,1337.7
201902211557,1337.7,1337.7,1337.6,1337.6
201902211558,1337.6,1337.6,1337.4,1337.4
201902211559,1337.5,1337.5,1337.3,1337.4
201902211600,1337.4,1338,1337.4,1337.9
201902211601,1337.9,1338.3,1337.9,1338.3
201902211602,1338.3,1338.4,1338.3,1338.3
201902211603,1338.3,1338.4,1338.2,1338.2
201902211604,1338.2,1338.4,1338.1,1338.3
201902211605,1338.3,1338.4,1338.1,1338.1
201902211606,1338.1,1338.1,1337.8,1337.9
201902211607,1337.9,1338,1337.9,1338
201902211608,1338,1338,1337.9,1337.9
201902211609,1337.9,1338.1,1337.9,1338.1
201902211610,1338.1,1338.1,1337.9,1337.9
201902211611,1337.9,1338,1337.8,1337.9
201902211612,1337.9,1338.1,1337.9,1338.1
201902211613,1338.1,1338.1,1337.6,1338
201902211614,1338,1338.5,1338,1338.4
201902211615,1338.4,1338.4,1338.1,1338.2
201902211616,1338.2,1338.4,1338.2,1338.3
201902211617,1338.3,1338.5,1338.3,1338.5
201902211618,1338.5,1338.5,1338.3,1338.5
201902211619,1338.4,1338.5,1338.4,1338.5
201902211620,1338.5,1338.5,1338.3,1338.4
201902211621,1338.4,1338.4,1338.2,1338.2
201902211622,1338.2,1338.4,1338.2,1338.3
201902211623,1338.3,1338.4,1338.3,1338.4
201902211624,1338.4,1338.5,1338.3,1338.3
201902211625,1338.3,1338.4,1338.1,1338.2
201902211626,1338.2,1338.4,1338,1338.2
201902211627,1338.2,1338.9,1338.2,1338.5
201902211628,1338.5,1338.6,1338.3,1338.4
201902211629,1338.3,1338.6,1338.3,1338.4
201902211630,1338.4,1338.6,1338.3,1338.5
201902211631,1338.5,1338.6,1338.2,1338.4
201902211632,1338.4,1338.7,1338.4,1338.6
201902211633,1338.7,1338.8,1338.6,1338.6
201902211634,1338.6,1338.9,1338.6,1338.8
201902211635,1338.8,1339,1338.7,1339
201902211636,1339,1339.2,1339,1339.1
201902211637,1339.1,1339.2,1338.9,1338.9
201902211638,1338.9,1338.9,1338.6,1338.7
201902211639,1338.7,1338.7,1338.5,1338.6
201902211640,1338.6,1338.7,1338.6,1338.7
201902211641,1338.7,1338.7,1338.6,1338.7
201902211642,1338.7,1338.8,1338.6,1338.8
201902211643,1338.8,1338.9,1338.7,1338.7
201902211644,1338.7,1338.8,1338.6,1338.6
201902211645,1338.6,1338.6,1338.5,1338.6
201902211646,1338.6,1338.6,1338.5,1338.5
201902211647,1338.5,1338.6,1338.5,1338.6
201902211648,1338.6,1338.6,1338.5,1338.6
201902211649,1338.6,1338.6,1338.5,1338.6
201902211650,1338.6,1338.8,1338.6,1338.7
201902211651,1338.7,1338.8,1338.6,1338.8
201902211652,1338.8,1339,1338.8,1338.9
201902211653,1338.9,1339,1338.8,1338.9
201902211654,1338.9,1338.9,1338.8,1338.8
201902211655,1338.8,1338.8,1338.6,1338.7
201902211656,1338.7,1338.7,1338.5,1338.6
201902211657,1338.7,1338.7,1338.5,1338.7
201902211658,1338.7,1338.9,1338.7,1338.8
201902211659,1338.8,1338.9,1338.8,1338.9
201902211700,1338.9,1339.6,1338.9,1339.5
201902211701,1339.5,1339.5,1339.1,1339.1
201902211702,1339.1,1339.2,1339,1339.1
201902211703,1339.1,1339.1,1338.9,1338.9
201902211704,1338.9,1339.1,1338.8,1339.1
201902211705,1339.1,1339.6,1339.1,1339.6
201902211706,1339.6,1339.7,1339.4,1339.6
201902211707,1339.6,1339.9,1339.6,1339.8
201902211708,1339.8,1339.9,1339.7,1339.8
201902211709,1339.8,1339.8,1339.7,1339.8
201902211710,1339.7,1339.8,1339.6,1339.7
201902211711,1339.8,1339.8,1339.6,1339.7
201902211712,1339.7,1339.8,1339.5,1339.7
201902211713,1339.7,1339.7,1339.5,1339.6
201902211714,1339.6,1339.8,1339.6,1339.8
201902211715,1339.8,1340.2,1339.7,1339.8
201902211716,1339.8,1339.9,1339.7,1339.8
201902211717,1339.8,1339.8,1339.5,1339.6
201902211718,1339.6,1339.7,1339.3,1339.5
201902211719,1339.5,1339.5,1338.9,1338.9
201902211720,1338.9,1339.1,1338.9,1339.1
201902211721,1339.1,1339.1,1338.7,1338.8
201902211722,1338.8,1338.9,1338.8,1338.8
201902211723,1338.8,1338.9,1338.7,1338.8
201902211724,1338.8,1339.1,1338.8,1338.9
201902211725,1338.9,1339,1338.8,1338.9
201902211726,1338.9,1338.9,1338.7,1338.8
201902211727,1338.8,1338.8,1338,1338.1
201902211728,1338.1,1338.2,1337.9,1338
201902211729,1338,1338.2,1337.7,1337.7
201902211730,1337.7,1337.7,1337,1337.3
201902211731,1337.3,1337.8,1337,1337
201902211732,1337,1337.1,1336.8,1336.8
201902211733,1336.8,1336.9,1335.4,1335.7
201902211734,1335.7,1336.3,1335.7,1336.1
201902211735,1336.1,1336.2,1336.1,1336.2
201902211736,1336.2,1336.2,1335.4,1335.4
201902211737,1335.4,1335.8,1335.4,1335.7
201902211738,1335.7,1336.2,1335.7,1336
201902211739,1336,1336.6,1336,1336.6
201902211740,1336.6,1336.7,1336.4,1336.5
201902211741,1336.4,1336.4,1336,1336
201902211742,1336,1336.4,1336,1336.3
201902211743,1336.3,1336.4,1336.3,1336.4
201902211744,1336.4,1336.5,1336.3,1336.5
201902211745,1336.5,1336.7,1336.5,1336.7
201902211746,1336.7,1336.8,1336.6,1336.6
201902211747,1336.6,1336.7,1336.4,1336.4
201902211748,1336.4,1336.4,1336.2,1336.2
201902211749,1336.2,1336.5,1336.2,1336.5
201902211750,1336.5,1336.5,1336.3,1336.4
201902211751,1336.4,1336.6,1336.4,1336.5
201902211752,1336.5,1336.5,1336,1336
201902211753,1336,1336.3,1335.9,1335.9
201902211754,1335.8,1336.1,1335.8,1336.1
201902211755,1336.1,1336.1,1335.7,1336
201902211756,1336,1336,1335.9,1335.9
201902211757,1335.9,1336.2,1335.9,1336.1
201902211758,1336.1,1336.2,1336.1,1336.2
201902211759,1336.2,1336.2,1335.9,1335.9
201902211800,1335.9,1335.9,1335.6,1335.7
201902211801,1335.7,1335.7,1335.5,1335.6
201902211802,1335.5,1335.5,1335.2,1335.4
201902211803,1335.4,1335.5,1335.4,1335.5
201902211804,1335.5,1335.5,1335.4,1335.4
201902211805,1335.4,1335.4,1335.2,1335.2
201902211806,1335.2,1335.2,1334.9,1335
201902211807,1335,1335.1,1334.9,1334.9
201902211808,1334.9,1335,1334.7,1334.7
201902211809,1334.7,1334.7,1334.3,1334.5
201902211810,1334.5,1334.6,1333.9,1334.3
201902211811,1334.3,1334.3,1333.9,1334
201902211812,1334,1334,1333.5,1333.6
201902211813,1333.6,1334.1,1333.6,1334.1
201902211814,1334.1,1334.4,1333.9,1334.2
201902211815,1334.2,1334.2,1333.4,1333.4
201902211816,1333.4,1333.8,1333.4,1333.8
201902211817,1333.8,1333.9,1333.4,1333.4
201902211818,1333.4,1333.5,1333.3,1333.4
201902211819,1333.5,1333.7,1333.4,1333.6
201902211820,1333.6,1333.9,1333.6,1333.9
201902211821,1333.9,1333.9,1333.3,1333.3
201902211822,1333.3,1333.6,1333,1333.5
201902211823,1333.5,1333.5,1333,1333
201902211824,1333,1333.1,1332.7,1332.7
201902211825,1332.7,1333.5,1332.7,1333.4
201902211826,1333.4,1333.7,1333.4,1333.7
201902211827,1333.7,1333.8,1333.6,1333.6
201902211828,1333.6,1333.6,1333.3,1333.5
201902211829,1333.5,1333.6,1333.5,1333.6
201902211830,1333.6,1333.6,1332.9,1333.1
201902211831,1333.1,1333.5,1333.1,1333.5
201902211832,1333.5,1333.6,1333.2,1333.4
201902211833,1333.4,1333.7,1333.3,1333.6
201902211834,1333.6,1333.6,1333.3,1333.4
201902211835,1333.4,1333.6,1333.4,1333.5
201902211836,1333.5,1333.6,1333.2,1333.2
201902211837,1333.2,1333.3,1333.2,1333.3
201902211838,1333.3,1333.7,1333.3,1333.7
201902211839,1333.8,1333.8,1333.5,1333.5
201902211840,1333.5,1333.6,1333.3,1333.4
201902211841,1333.4,1333.4,1333.3,1333.3
201902211842,1333.3,1333.5,1333.3,1333.3
201902211843,1333.3,1333.4,1333.1,1333.3
201902211844,1333.3,1333.4,1333.3,1333.3
201902211845,1333.3,1333.6,1333.2,1333.6
201902211846,1333.6,1333.6,1333.4,1333.5
201902211847,1333.5,1333.5,1333.1,1333.2
201902211848,1333.2,1333.2,1333,1333.2
201902211849,1333.2,1333.4,1333,1333
201902211850,1333,1333,1332,1332
201902211851,1332,1332.2,1331.9,1332.2
201902211852,1332.3,1332.6,1332.2,1332.5
201902211853,1332.5,1333.1,1332.5,1333.1
201902211854,1333,1333.1,1332.9,1333.1
201902211855,1333.1,1333.1,1332.7,1332.8
201902211856,1332.8,1333.1,1332.8,1333.1
201902211857,1333.1,1333.1,1333,1333
201902211858,1333,1333.2,1333,1333.2
201902211859,1333.2,1333.2,1333.1,1333.2
201902211900,1333.2,1333.2,1333,1333.1
201902211901,1333.1,1333.2,1333,1333.1
201902211902,1333.1,1333.4,1333.1,1333.3
201902211903,1333.3,1333.4,1333.1,1333.4
201902211904,1333.4,1333.6,1333.4,1333.6
201902211905,1333.6,1333.7,1333.6,1333.7
201902211906,1333.7,1333.7,1333.5,1333.5
201902211907,1333.5,1333.6,1333.5,1333.6
201902211908,1333.6,1333.6,1333.5,1333.5
201902211909,1333.5,1333.7,1333.5,1333.7
201902211910,1333.7,1333.8,1333.6,1333.8
201902211911,1333.8,1334,1333.8,1334
201902211912,1334,1334,1333.6,1333.6
201902211913,1333.6,1333.9,1333.6,1333.9
201902211914,1333.9,1333.9,1333.6,1333.8
201902211915,1333.8,1333.9,1333.7,1333.7
201902211916,1333.7,1333.9,1333.6,1333.8
201902211917,1333.8,1333.9,1333.6,1333.8
201902211918,1333.8,1333.9,1333.6,1333.9
201902211919,1333.9,1334.3,1333.9,1334.2
201902211920,1334.2,1334.4,1334.1,1334.4
201902211921,1334.4,1334.4,1334.3,1334.3
201902211922,1334.3,1334.3,1334.2,1334.2
201902211923,1334.2,1334.2,1334.1,1334.2
201902211924,1334.2,1334.2,1334,1334
201902211925,1334,1334,1333.8,1333.8
201902211926,1333.8,1334,1333.7,1334
201902211927,1334,1334.2,1333.9,1333.9
201902211928,1333.9,1334,1333.6,1333.9
201902211929,1333.9,1334,1333.9,1333.9
201902211930,1333.9,1334.2,1333.9,1334.2
201902211931,1334.2,1334.5,1334.2,1334.5
201902211932,1334.5,1334.9,1334.5,1334.8
201902211933,1334.8,1335,1334.8,1335
201902211934,1335,1335.2,1334.9,1335
201902211935,1335,1335.1,1335,1335
201902211936,1335,1335.1,1335,1335.1
201902211937,1335.1,1335.2,1335,1335.1
201902211938,1335.1,1335.1,1335,1335
201902211939,1335,1335.3,1335,1335.1
201902211940,1335.1,1335.1,1335,1335.1
201902211941,1335.1,1335.1,1335,1335.1
201902211942,1335.1,1335.1,1335,1335.1
201902211943,1335.1,1335.3,1335,1335.2
201902211944,1335.2,1335.3,1335.1,1335.2
201902211945,1335.3,1335.3,1335.1,1335.1
201902211946,1335.1,1335.3,1335.1,1335.2
201902211947,1335.2,1335.4,1335.2,1335.4
201902211948,1335.4,1335.6,1335.3,1335.5
201902211949,1335.5,1335.6,1335.4,1335.5
201902211950,1335.5,1335.8,1335.5,1335.8
201902211951,1335.8,1335.8,1335.6,1335.7
201902211952,1335.7,1335.7,1335.6,1335.6
201902211953,1335.6,1335.8,1335.6,1335.6
201902211954,1335.6,1335.6,1335.5,1335.6
201902211955,1335.6,1335.8,1335.6,1335.7
201902211956,1335.7,1335.7,1335.5,1335.6
201902211957,1335.6,1335.7,1335.5,1335.7
201902211958,1335.7,1335.8,1335.6,1335.7
201902211959,1335.7,1335.8,1335.6,1335.7
201902212000,1335.7,1335.7,1335.6,1335.6
201902212001,1335.6,1335.6,1335.2,1335.3
201902212002,1335.3,1335.5,1335.1,1335.1
201902212003,1335.1,1335.1,1335.1,1335.1
201902212004,1335.1,1335.2,1335.1,1335.2
201902212005,1335.2,1335.6,1335.2,1335.6
201902212006,1335.6,1335.7,1335.5,1335.6
201902212007,1335.6,1335.7,1335.5,1335.5
201902212008,1335.5,1335.5,1335.3,1335.3
201902212009,1335.3,1335.4,1335.3,1335.3
201902212010,1335.3,1335.5,1335.3,1335.4
201902212011,1335.4,1335.5,1335.2,1335.5
201902212012,1335.5,1335.6,1335.4,1335.4
201902212013,1335.4,1335.4,1335.3,1335.4
201902212014,1335.4,1335.4,1335.1,1335.2
201902212015,1335.2,1335.2,1334.9,1335
201902212016,1335,1335,1334.9,1335
201902212017,1335,1335,1334.9,1334.9
201902212018,1334.9,1335,1334.9,1334.9
201902212019,1334.9,1334.9,1334.9,1334.9
201902212020,1334.9,1335,1334.9,1335
201902212021,1335,1335.1,1335,1335.1
201902212022,1335.1,1335.3,1335,1335.2
201902212023,1335.2,1335.3,1335.2,1335.2
201902212024,1335.2,1335.2,1335.1,1335.1
201902212025,1335.1,1335.3,1334.9,1335.2
201902212026,1335.2,1335.2,1335,1335.1
201902212027,1335.1,1335.1,1334.8,1334.8
201902212028,1334.8,1335.1,1334.8,1335
201902212029,1335,1335.1,1334.8,1334.8
201902212030,1334.8,1334.9,1334.8,1334.9
201902212031,1334.9,1334.9,1334.8,1334.9
201902212032,1334.9,1334.9,1334.7,1334.9
201902212033,1334.9,1335.1,1334.9,1335
201902212034,1335,1335,1334.8,1334.8
201902212035,1334.8,1335,1334.8,1335
201902212036,1335,1335,1334.9,1335
201902212037,1335,1335,1335,1335
201902212038,1335,1335,1334.8,1334.8
201902212039,1334.8,1335,1334.8,1334.9
201902212040,1334.9,1335,1334.7,1334.8
201902212041,1334.8,1335.3,1334.8,1334.9
201902212042,1334.9,1335,1334.9,1334.9
201902212043,1334.9,1335,1334.9,1335
201902212044,1335,1335,1334.9,1334.9
201902212045,1334.9,1334.9,1334.7,1334.7
201902212046,1334.7,1334.7,1334.5,1334.5
201902212047,1334.5,1334.6,1334.5,1334.6
201902212048,1334.6,1334.6,1334.3,1334.3
201902212049,1334.3,1334.3,1334.1,1334.2
201902212050,1334.2,1334.2,1334.1,1334.1
201902212051,1334.2,1334.2,1333.7,1333.8
201902212052,1333.8,1333.8,1333.6,1333.7
201902212053,1333.7,1333.9,1333.7,1333.9
201902212054,1333.9,1334.2,1333.9,1334.1
201902212055,1334.1,1334.4,1334.1,1334.4
201902212056,1334.4,1334.6,1334.1,1334.1
201902212057,1334.1,1334.1,1333.8,1333.9
201902212058,1333.9,1334,1333.8,1333.8
201902212059,1333.8,1333.9,1333.7,1333.8
201902212100,1333.8,1334.3,1333.8,1334.1
201902212101,1334.1,1334.3,1334,1334.3
201902212102,1334.3,1334.6,1334.3,1334.5
201902212103,1334.5,1334.8,1334.5,1334.7
201902212104,1334.7,1334.8,1334.6,1334.7
201902212105,1334.7,1334.8,1334.7,1334.8
201902212106,1334.8,1334.9,1334.7,1334.8
201902212107,1334.8,1335,1334.8,1334.9
201902212108,1334.9,1335,1334.8,1334.9
201902212109,1334.9,1334.9,1334.7,1334.7
201902212110,1334.7,1335,1334.7,1334.9
201902212111,1334.9,1335.1,1334.9,1335
201902212112,1335,1335.1,1335,1335.1
201902212113,1335.1,1335.1,1334.9,1335
201902212114,1335,1335.2,1334.9,1335
201902212115,1335,1335.1,1334.9,1334.9
201902212116,1334.9,1335.1,1334.9,1335
201902212117,1335,1335.3,1335,1335.3
201902212118,1335.3,1335.5,1335.3,1335.4
201902212119,1335.4,1335.6,1335.4,1335.5
201902212120,1335.5,1335.6,1335.5,1335.5
201902212121,1335.5,1335.5,1335.4,1335.4
201902212122,1335.4,1335.6,1335.4,1335.6
201902212123,1335.6,1335.6,1335.5,1335.6
201902212124,1335.6,1335.7,1335.5,1335.7
201902212125,1335.7,1335.7,1335.6,1335.7
201902212126,1335.7,1335.8,1335.7,1335.7
201902212127,1335.7,1335.7,1335.7,1335.7
201902212128,1335.7,1335.7,1335.5,1335.5
201902212129,1335.5,1335.5,1335.3,1335.4
201902212130,1335.4,1335.6,1335.3,1335.4
201902212131,1335.4,1335.7,1335.4,1335.7
201902212132,1335.7,1336.3,1335.7,1336.3
201902212133,1336.3,1336.4,1336.1,1336.2
201902212134,1336.2,1336.2,1335.8,1335.8
201902212135,1335.8,1335.9,1335.7,1335.8
201902212136,1335.8,1335.9,1335.8,1335.9
201902212137,1335.9,1336.1,1335.9,1336
201902212138,1336,1336,1335.8,1335.8
201902212139,1335.8,1335.8,1335.5,1335.6
201902212140,1335.6,1335.6,1335.2,1335.2
201902212141,1335.1,1335.5,1335.1,1335.5
201902212142,1335.5,1335.6,1335.4,1335.5
201902212143,1335.5,1335.5,1335.5,1335.5
201902212144,1335.4,1335.4,1335.2,1335.2
201902212145,1335.3,1335.3,1335.1,1335.1
201902212146,1335.1,1335.1,1334.9,1335
201902212147,1335,1335.1,1334.9,1335
201902212148,1335,1335.2,1334.8,1335.2
201902212149,1335.2,1335.4,1335.2,1335.3
201902212150,1335.3,1335.6,1335.2,1335.3
201902212151,1335.3,1335.5,1335.3,1335.4
201902212152,1335.4,1335.6,1335.4,1335.5
201902212153,1335.5,1335.5,1335.2,1335.3
201902212154,1335.3,1335.4,1335.2,1335.4
201902212155,1335.4,1335.4,1334.9,1334.9
201902212156,1334.9,1335.1,1334.9,1335.1
201902212157,1335.1,1335.2,1334.8,1334.9
201902212158,1334.9,1335,1334.9,1335
201902212159,1335,1335,1334.9,1334.9
201902212200,1334.9,1334.9,1334.3,1334.7
201902212201,1334.7,1335.2,1334.7,1335.1
201902212202,1335.1,1335.6,1335,1335.6
201902212203,1335.6,1335.7,1335,1335.1
201902212204,1335.1,1335.3,1334.9,1335.1
201902212205,1335.1,1335.5,1335.1,1335.4
201902212206,1335.4,1335.4,1335.3,1335.3
201902212207,1335.3,1335.3,1335.1,1335.1
201902212208,1335.1,1335.1,1334.9,1334.9
201902212209,1334.9,1335,1334.9,1335
201902212210,1335,1335.2,1335,1335.1
201902212211,1335.1,1335.2,1335.1,1335.2
201902212212,1335.2,1335.3,1335.1,1335.3
201902212213,1335.3,1335.6,1335.3,1335.6
201902212214,1335.6,1335.7,1335.3,1335.3
201902212215,1335.3,1335.6,1335.3,1335.5
201902212216,1335.5,1335.7,1335.5,1335.6
201902212217,1335.6,1335.7,1335.4,1335.4
201902212218,1335.4,1335.4,1335.1,1335.1
201902212219,1335.1,1335.3,1334.9,1335.3
201902212220,1335.3,1336.1,1335.3,1336
201902212221,1336,1336.1,1335.9,1336
201902212222,1336.1,1336.1,1335.8,1336
201902212223,1336,1336.1,1335.8,1335.8
201902212224,1335.8,1335.8,1335.5,1335.6
201902212225,1335.6,1335.7,1335.5,1335.7
201902212226,1335.7,1335.9,1335.7,1335.9
201902212227,1335.9,1335.9,1335.8,1335.9
201902212228,1335.9,1336.1,1335.9,1335.9
201902212229,1335.9,1335.9,1335.7,1335.9
201902212230,1335.9,1337.2,1335.8,1336.7
201902212231,1336.7,1336.8,1336.1,1336.4
201902212232,1336.4,1336.5,1336.1,1336.2
201902212233,1336.2,1336.8,1336.2,1336.7
201902212234,1336.7,1336.8,1336.2,1336.4
201902212235,1336.3,1336.5,1336.2,1336.3
201902212236,1336.4,1336.5,1336.2,1336.4
201902212237,1336.4,1336.5,1335.8,1335.8
201902212238,1335.8,1336.1,1335.6,1336
201902212239,1336,1336.1,1335.8,1336
201902212240,1336,1336.4,1335.7,1336.2
201902212241,1336.2,1336.2,1336,1336.1
201902212242,1336.1,1336.4,1336,1336.4
201902212243,1336.4,1336.6,1336.3,1336.4
201902212244,1336.4,1336.4,1336.1,1336.2
201902212245,1336.2,1336.4,1336.1,1336.1
201902212246,1336.1,1336.2,1335.8,1336
201902212247,1336,1336.1,1335.8,1335.9
201902212248,1335.9,1336.1,1335.8,1336.1
201902212249,1336.1,1336.1,1335.7,1335.7
201902212250,1335.7,1335.9,1335.7,1335.7
201902212251,1335.7,1335.7,1335,1335.1
201902212252,1335.1,1335.4,1335.1,1335.4
201902212253,1335.4,1335.9,1335.4,1335.9
201902212254,1335.9,1335.9,1335.4,1335.5
201902212255,1335.5,1335.6,1334.7,1335
201902212256,1335,1335.3,1335,1335.2
201902212257,1335.2,1335.2,1335,1335
201902212258,1335,1335.2,1334.9,1335.2
201902212259,1335.2,1335.4,1335.2,1335.2
201902212300,1335.2,1335.3,1334.7,1334.8
201902212301,1334.8,1334.9,1334.7,1334.7
201902212302,1334.7,1334.9,1334.7,1334.8
201902212303,1334.8,1335.2,1334.8,1335.1
201902212304,1335.1,1335.1,1334.9,1335
201902212305,1335,1335.3,1334.8,1335.3
201902212306,1335.3,1335.3,1334.4,1334.4
201902212307,1334.5,1334.5,1333.3,1333.4
201902212308,1333.4,1333.9,1333.3,1333.7
201902212309,1333.7,1334.2,1333.7,1334
201902212310,1334,1334.1,1333.8,1334
201902212311,1334,1334.4,1334,1334.4
201902212312,1334.4,1334.5,1334.1,1334.1
201902212313,1334.1,1334.1,1333.7,1333.9
201902212314,1333.9,1334.2,1333.9,1334.2
201902212315,1334.2,1334.2,1333.9,1333.9
201902212316,1333.9,1334.1,1333.9,1333.9
201902212317,1333.9,1334,1333.7,1333.8
201902212318,1333.8,1334.4,1333.8,1334.2
201902212319,1334.2,1334.5,1334,1334.1
201902212320,1334.1,1334.3,1334.1,1334.2
201902212321,1334.2,1334.2,1334,1334
201902212322,1334,1334.3,1334,1334.2
201902212323,1334.1,1334.3,1334,1334.1
201902212324,1334.1,1334.3,1333.9,1334.1
201902212325,1334.1,1334.3,1334.1,1334.3
201902212326,1334.3,1334.5,1334.3,1334.5
201902212327,1334.5,1334.6,1334.4,1334.6
201902212328,1334.6,1334.9,1334.5,1334.8
201902212329,1334.8,1335,1334.8,1334.9
201902212330,1334.9,1334.9,1334.4,1334.5
201902212331,1334.5,1334.6,1334.2,1334.6
201902212332,1334.6,1334.8,1334.5,1334.5
201902212333,1334.5,1335.1,1334.5,1335.1
201902212334,1335.2,1335.2,1334.8,1334.8
201902212335,1334.8,1335.3,1334.8,1335.3
201902212336,1335.3,1335.9,1335.3,1335.4
201902212337,1335.4,1335.4,1334.8,1335
201902212338,1335,1335.1,1334.9,1334.9
201902212339,1334.9,1335,1334.8,1334.9
201902212340,1334.9,1334.9,1334.5,1334.6
201902212341,1334.6,1334.7,1334.5,1334.7
201902212342,1334.7,1334.7,1334.1,1334.1
201902212343,1334.1,1334.1,1334,1334.1
201902212344,1334.1,1334.3,1334,1334.1
201902212345,1334.1,1334.8,1334.1,1334.5
201902212346,1334.5,1334.5,1332.7,1332.7
201902212347,1332.7,1333.3,1332.7,1333.1
201902212348,1333.1,1333.2,1332.9,1333.1
201902212349,1333.1,1333.2,1332.6,1332.7
201902212350,1332.7,1333.2,1332.6,1333
201902212351,1333,1333.3,1333,1333.1
201902212352,1333.1,1333.3,1333,1333.3
201902212353,1333.3,1333.4,1332.9,1333
201902212354,1333,1333.1,1332.9,1332.9
201902212355,1332.9,1333,1332.7,1332.9
201902212356,1332.9,1332.9,1330.5,1330.8
201902212357,1330.8,1331.2,1330.8,1331.2
201902212358,1331.2,1331.3,1330.9,1331.3
201902212359,1331.3,1331.4,1331.2,1331.3
201902220000,1331.3,1331.4,1330.6,1330.7
201902220001,1330.7,1331.1,1330.7,1331
201902220002,1331,1331.3,1330.8,1331.2
201902220003,1331.2,1331.2,1330.6,1330.8
201902220004,1330.8,1331,1330.8,1330.8
201902220005,1330.8,1330.9,1330.1,1330.3
201902220006,1330.3,1330.3,1330.1,1330.3
201902220007,1330.3,1330.3,1329.9,1330.1
201902220008,1330.1,1330.5,1330,1330.4
201902220009,1330.3,1330.6,1330.2,1330.2
201902220010,1330.2,1330.6,1330.1,1330.6
201902220011,1330.6,1331.3,1330.5,1331.2
201902220012,1331.3,1331.8,1331.1,1331.7
201902220013,1331.7,1331.9,1331.4,1331.9
201902220014,1331.9,1331.9,1331.4,1331.8
201902220015,1331.8,1332.1,1331.8,1332
201902220016,1332,1332.4,1331.9,1332.3
201902220017,1332.3,1332.4,1332,1332.1
201902220018,1332.1,1332.2,1332,1332.1
201902220019,1332.1,1332.3,1332,1332.1
201902220020,1332.1,1332.2,1332,1332.1
201902220021,1332.1,1332.3,1332.1,1332.1
201902220022,1332.1,1332.4,1332,1332.1
201902220023,1332.1,1332.2,1331.9,1332
201902220024,1332,1332.2,1332,1332.1
201902220025,1332.1,1332.4,1332.1,1332.2
201902220026,1332.2,1332.3,1332.1,1332.2
201902220027,1332.2,1332.5,1332.2,1332.4
201902220028,1332.4,1332.6,1332.4,1332.6
201902220029,1332.6,1332.8,1332.6,1332.8
201902220030,1332.8,1332.8,1332.4,1332.5
201902220031,1332.5,1332.5,1332.3,1332.4
201902220032,1332.4,1332.5,1332.1,1332.3
201902220033,1332.3,1332.4,1332.1,1332.2
201902220034,1332.2,1332.5,1332.1,1332.4
201902220035,1332.4,1332.4,1332.1,1332.2
201902220036,1332.2,1332.3,1332,1332.1
201902220037,1332.1,1332.4,1332.1,1332.4
201902220038,1332.3,1332.6,1332.3,1332.4
201902220039,1332.4,1332.5,1332.3,1332.5
201902220040,1332.5,1332.8,1332.4,1332.7
201902220041,1332.7,1332.7,1332.3,1332.3
201902220042,1332.3,1332.5,1332.2,1332.3
201902220043,1332.2,1332.5,1332.2,1332.4
201902220044,1332.4,1332.6,1332.2,1332.2
201902220045,1332.2,1332.2,1332.1,1332.1
201902220046,1332.1,1332.1,1331.7,1331.8
201902220047,1331.8,1331.8,1331.3,1331.6
201902220048,1331.6,1331.8,1331.5,1331.7
201902220049,1331.6,1331.7,1331.6,1331.7
201902220050,1331.7,1331.7,1331.5,1331.6
201902220051,1331.6,1331.6,1331.4,1331.5
201902220052,1331.5,1331.5,1331.2,1331.3
201902220053,1331.3,1331.5,1331.2,1331.4
201902220054,1331.4,1331.7,1331.4,1331.6
201902220055,1331.6,1331.7,1331.5,1331.6
201902220056,1331.6,1331.7,1331.5,1331.6
201902220057,1331.6,1332.1,1331.6,1331.9
201902220058,1332,1332,1331.8,1331.8
201902220059,1331.8,1332,1331.6,1332
201902220100,1332,1332,1331.7,1331.9
201902220101,1331.9,1332,1331.5,1331.7
201902220102,1331.6,1331.8,1331.5,1331.5
201902220103,1331.5,1331.6,1331.2,1331.2
201902220104,1331.2,1331.2,1330.9,1331
201902220105,1331,1331.3,1330.9,1331.2
201902220106,1331.2,1331.2,1330.9,1330.9
201902220107,1330.9,1331.1,1330.7,1331
201902220108,1331,1331.1,1330.8,1330.9
201902220109,1330.9,1331.1,1330.8,1331.1
201902220110,1331.1,1331.1,1331.1,1331.1
201902220111,1331.1,1331.1,1330.9,1331
201902220112,1331,1331,1330.9,1330.9
201902220113,1330.9,1331.3,1330.9,1331
201902220114,1331,1331.1,1330.9,1331.1
201902220115,1331.1,1331.1,1330.7,1330.7
201902220116,1330.7,1331.2,1330.7,1331.2
201902220117,1331.2,1331.2,1330.9,1331.1
201902220118,1331.1,1331.3,1331,1331.1
201902220119,1331.1,1331.2,1331,1331
201902220120,1331,1331.3,1330.9,1331.3
201902220121,1331.3,1331.4,1331.1,1331.1
201902220122,1331.1,1331.3,1331,1331.2
201902220123,1331.2,1331.3,1331.2,1331.3
201902220124,1331.3,1331.4,1331.1,1331.2
201902220125,1331.1,1331.5,1331.1,1331.4
201902220126,1331.4,1331.7,1331.3,1331.6
201902220127,1331.6,1331.6,1331.4,1331.4
201902220128,1331.4,1331.8,1331.4,1331.8
201902220129,1331.8,1331.8,1331.4,1331.5
201902220130,1331.5,1331.5,1331.3,1331.3
201902220131,1331.3,1331.3,1331.2,1331.3
201902220132,1331.3,1331.3,1331.1,1331.2
201902220133,1331.2,1331.4,1331.2,1331.3
201902220134,1331.4,1331.4,1331.1,1331.2
201902220135,1331.2,1331.3,1331.1,1331.3
201902220136,1331.3,1331.3,1331.1,1331.3
201902220137,1331.3,1331.4,1331.3,1331.4
201902220138,1331.4,1331.7,1331.3,1331.3
201902220139,1331.3,1331.4,1331.2,1331.3
201902220140,1331.3,1331.4,1331.1,1331.1
201902220141,1331.1,1331.2,1330.9,1331.1
201902220142,1331.2,1331.3,1331,1331.1
201902220143,1331.1,1331.1,1331,1331
201902220144,1331,1331.1,1330.5,1330.6
201902220145,1330.6,1330.8,1330.6,1330.8
201902220146,1330.7,1330.8,1330.6,1330.6
201902220147,1330.6,1330.9,1330.6,1330.8
201902220148,1330.8,1331,1330.8,1330.9
201902220149,1330.9,1331,1330.8,1331
201902220150,1331,1331.1,1331,1331.1
201902220151,1331.1,1331.1,1330.9,1331
201902220152,1331,1331,1330.6,1330.6
201902220153,1330.6,1330.7,1330.5,1330.6
201902220154,1330.6,1330.7,1330.4,1330.4
201902220155,1330.4,1330.7,1330.4,1330.5
201902220156,1330.5,1330.7,1330.4,1330.7
201902220157,1330.7,1330.7,1330.5,1330.6
201902220158,1330.6,1330.7,1330.4,1330.7
201902220159,1330.7,1330.8,1330.5,1330.7
201902220200,1330.7,1330.8,1330.7,1330.8
201902220201,1330.8,1331,1330.8,1331
201902220202,1331,1331,1330.7,1330.8
201902220203,1330.8,1330.8,1330.5,1330.7
201902220204,1330.7,1330.8,1330.5,1330.6
201902220205,1330.6,1330.7,1330.2,1330.2
201902220206,1330.2,1330.3,1329.9,1329.9
201902220207,1329.9,1330,1329.8,1329.9
201902220208,1329.9,1330,1329.8,1329.8
201902220209,1329.8,1329.9,1329.7,1329.8
201902220210,1329.7,1330.1,1329.7,1330
201902220211,1330,1330,1329.9,1329.9
201902220212,1329.8,1329.9,1329.6,1329.8
201902220213,1329.8,1329.8,1329.5,1329.7
201902220214,1329.7,1329.8,1329.5,1329.7
201902220215,1329.7,1329.7,1329.1,1329.1
201902220216,1329.1,1329.4,1329.1,1329.2
201902220217,1329.3,1329.4,1329,1329.2
201902220218,1329.2,1329.2,1328.9,1329.1
201902220219,1329.1,1329.1,1328.8,1328.9
201902220220,1328.9,1329.1,1328.8,1328.9
201902220221,1328.9,1329.1,1328.9,1329
201902220222,1329,1329.4,1329,1329.3
201902220223,1329.3,1329.3,1329.1,1329.2
201902220224,1329.2,1329.3,1329,1329.1
201902220225,1329.1,1329.2,1328.7,1328.8
201902220226,1328.8,1329,1328.8,1328.8
201902220227,1328.8,1328.8,1328.5,1328.6
201902220228,1328.6,1328.7,1328.5,1328.5
201902220229,1328.6,1328.9,1328.5,1328.9
201902220230,1328.9,1328.9,1328.7,1328.7
201902220231,1328.7,1328.8,1328.6,1328.7
201902220232,1328.7,1328.7,1328.6,1328.7
201902220233,1328.7,1328.7,1328.5,1328.5
201902220234,1328.3,1328.3,1327.9,1328
201902220235,1328,1328,1327.8,1327.8
201902220236,1327.8,1328,1327.8,1328
201902220237,1328,1328,1327.1,1327.3
201902220238,1327.3,1327.5,1327.3,1327.3
201902220239,1327.3,1327.5,1327.3,1327.5
201902220240,1327.5,1327.9,1327.5,1327.7
201902220241,1327.7,1328.2,1327.5,1328.2
201902220242,1328.2,1328.3,1328,1328.2
201902220243,1328.2,1328.2,1328,1328
201902220244,1328,1328,1327.7,1327.9
201902220245,1327.9,1328,1327.8,1328
201902220246,1328,1328,1327.8,1327.9
201902220247,1327.9,1328,1327.8,1328
201902220248,1328,1328,1327.6,1327.6
201902220249,1327.7,1327.7,1327.5,1327.6
201902220250,1327.6,1327.6,1327.5,1327.5
201902220251,1327.5,1327.9,1327.5,1327.8
201902220252,1327.8,1328,1327.7,1328
201902220253,1328,1328,1327.9,1328
201902220254,1328,1328,1327.5,1327.6
201902220255,1327.6,1327.9,1327.6,1327.9
201902220256,1327.9,1328,1327.7,1327.7
201902220257,1327.7,1327.8,1327.6,1327.8
201902220258,1327.8,1327.8,1327.4,1327.4
201902220259,1327.4,1327.5,1327.1,1327.4
201902220300,1327.4,1327.5,1327,1327
201902220301,1327,1327.2,1326.9,1327.2
201902220302,1327.3,1327.3,1327.1,1327.2
201902220303,1327.2,1327.2,1326.9,1326.9
201902220304,1326.9,1327,1326.6,1326.6
201902220305,1326.6,1327.1,1326.5,1327.1
201902220306,1327.1,1327.1,1326.6,1326.7
201902220307,1326.7,1326.9,1326.6,1326.9
201902220308,1326.9,1327,1326.6,1326.6
201902220309,1326.6,1326.8,1326.6,1326.7
201902220310,1326.7,1326.9,1326.6,1326.8
201902220311,1326.8,1326.8,1326.5,1326.7
201902220312,1326.8,1326.9,1325.7,1325.7
201902220313,1325.7,1326,1325.6,1325.9
201902220314,1325.9,1326.2,1325.8,1325.9
201902220315,1325.9,1326.1,1325.8,1326.1
201902220316,1326.1,1326.1,1325.8,1325.9
201902220317,1325.9,1326,1325.5,1325.7
201902220318,1325.7,1325.7,1325.6,1325.6
201902220319,1325.6,1325.6,1325.3,1325.5
201902220320,1325.6,1325.7,1325.5,1325.7
201902220321,1325.7,1325.9,1325.6,1325.9
201902220322,1325.9,1326.4,1325.9,1326.4
201902220323,1326.3,1326.4,1326.2,1326.2
201902220324,1326.2,1326.4,1326.1,1326.1
201902220325,1326.1,1326.2,1325.7,1325.7
201902220326,1325.7,1325.7,1325.4,1325.6
201902220327,1325.6,1325.8,1325.6,1325.7
201902220328,1325.7,1325.7,1325.4,1325.4
201902220329,1325.4,1325.5,1324.9,1325.5
201902220330,1325.6,1326.2,1325.6,1326.1
201902220331,1326.1,1326.2,1325.8,1326.2
201902220332,1326.1,1326.1,1325.6,1326
201902220333,1326,1326,1325.9,1326
201902220334,1326,1326.2,1326,1326.1
201902220335,1326.1,1326.2,1325.9,1325.9
201902220336,1325.9,1326,1325.8,1325.8
201902220337,1325.8,1325.9,1325.8,1325.8
201902220338,1325.8,1325.8,1325.6,1325.7
201902220339,1325.7,1325.8,1325.5,1325.7
201902220340,1325.7,1325.8,1325.6,1325.6
201902220341,1325.6,1325.8,1325.5,1325.7
201902220342,1325.7,1326,1325.7,1326
201902220343,1326,1326,1325.8,1326
201902220344,1326,1326,1325.6,1325.6
201902220345,1325.6,1325.6,1325.4,1325.5
201902220346,1325.5,1325.6,1325.3,1325.3
201902220347,1325.3,1325.5,1325.2,1325.4
201902220348,1325.4,1325.4,1325.3,1325.4
201902220349,1325.4,1325.4,1325,1325.1
201902220350,1325.1,1325.2,1325,1325.2
201902220351,1325.2,1325.2,1325,1325
201902220352,1325,1325.3,1324.8,1325.3
201902220353,1325.3,1325.3,1324.9,1325.2
201902220354,1325.2,1325.2,1324.7,1324.7
201902220355,1324.7,1324.8,1324.4,1324.8
201902220356,1324.9,1324.9,1324.5,1324.8
201902220357,1324.8,1325.1,1324.7,1325.1
201902220358,1325.1,1325.1,1324.9,1325.1
201902220359,1325.1,1325.2,1324.8,1324.8
201902220400,1324.8,1324.8,1324.4,1324.5
201902220401,1324.5,1324.5,1324.1,1324.2
201902220402,1324.2,1324.5,1324.2,1324.3
201902220403,1324.3,1324.5,1324.3,1324.3
201902220404,1324.3,1324.3,1324,1324.2
201902220405,1324.2,1324.4,1324.2,1324.3
201902220406,1324.3,1324.4,1324.2,1324.3
201902220407,1324.3,1324.3,1324.2,1324.3
201902220408,1324.3,1324.5,1324.3,1324.4
201902220409,1324.5,1324.5,1324.3,1324.4
201902220410,1324.4,1324.4,1324.2,1324.4
201902220411,1324.3,1324.4,1324.3,1324.3
201902220412,1324.3,1324.4,1324.3,1324.3
201902220413,1324.4,1324.5,1324.3,1324.5
201902220414,1324.5,1324.7,1324.5,1324.6
201902220415,1324.6,1324.9,1324.6,1324.7
201902220416,1324.7,1325.1,1324.6,1325.1
201902220417,1325.1,1325.1,1325,1325.1
201902220418,1325.1,1325.4,1325,1325.4
201902220419,1325.4,1325.5,1325.2,1325.5
201902220420,1325.5,1325.6,1325.4,1325.6
201902220421,1325.6,1325.9,1325.6,1325.7
201902220422,1325.7,1325.8,1325.7,1325.8
201902220423,1325.8,1326,1325.7,1326
201902220424,1326,1326.1,1325.9,1326
201902220425,1326,1326.2,1326,1326.1
201902220426,1326.1,1326.4,1326.1,1326.4
201902220427,1326.4,1326.4,1326.2,1326.3
201902220428,1326.3,1326.4,1326.3,1326.4
201902220429,1326.4,1326.8,1326.4,1326.5
201902220430,1326.5,1326.6,1326.3,1326.3
201902220431,1326.3,1326.5,1326.3,1326.4
201902220432,1326.4,1326.5,1326.3,1326.4
201902220433,1326.4,1326.6,1326.4,1326.5
201902220434,1326.5,1326.6,1326.4,1326.6
201902220435,1326.6,1326.9,1326.6,1326.7
201902220436,1326.7,1326.7,1326.5,1326.6
201902220437,1326.6,1326.8,1326.6,1326.8
201902220438,1326.8,1326.8,1326.6,1326.8
201902220439,1326.8,1327,1326.8,1326.9
201902220440,1326.9,1327.1,1326.8,1327
201902220441,1327,1327.1,1326.6,1326.6
201902220442,1326.6,1326.9,1326.6,1326.8
201902220443,1326.8,1326.9,1326.8,1326.8
201902220444,1326.8,1326.8,1326.5,1326.5
201902220445,1326.5,1326.7,1326.5,1326.6
201902220446,1326.6,1326.8,1326.6,1326.8
201902220447,1326.8,1327,1326.7,1326.9
201902220448,1326.9,1327,1326.9,1326.9
201902220449,1326.9,1327,1326.8,1326.9
201902220450,1326.9,1327,1326.9,1327
201902220451,1327,1327,1326.8,1326.9
201902220452,1326.9,1327,1326.9,1326.9
201902220453,1326.9,1326.9,1326.7,1326.7
201902220454,1326.7,1326.7,1326.7,1326.7
201902220455,1326.7,1326.7,1326.4,1326.4
201902220456,1326.4,1326.4,1326.2,1326.2
201902220457,1326.2,1326.4,1326.2,1326.4
201902220458,1326.4,1326.4,1326.3,1326.3
201902220459,1326.3,1326.5,1326.3,1326.4
201902220500,1326.4,1326.4,1326.3,1326.3
201902220501,1326.3,1326.3,1326,1326.1
201902220502,1326.1,1326.2,1326.1,1326.1
201902220503,1326.1,1326.1,1326,1326.1
201902220504,1326.1,1326.2,1326.1,1326.2
201902220505,1326.2,1326.2,1326.1,1326.1
201902220506,1326.1,1326.1,1325.9,1325.9
201902220507,1325.9,1325.9,1325.8,1325.9
201902220508,1325.9,1325.9,1325.8,1325.8
201902220509,1325.8,1325.8,1325.8,1325.8
201902220510,1325.8,1325.8,1325.8,1325.8
201902220511,1325.8,1325.9,1325.7,1325.9
201902220512,1325.9,1325.9,1325.8,1325.8
201902220513,1325.8,1325.9,1325.8,1325.8
201902220514,1325.8,1325.8,1325.7,1325.8
201902220515,1325.8,1325.8,1325.7,1325.8
201902220516,1325.8,1325.8,1325.7,1325.7
201902220517,1325.7,1325.7,1325.7,1325.7
201902220518,1325.7,1325.7,1325.7,1325.7
201902220519,1325.7,1325.7,1325.7,1325.7
201902220520,1325.7,1325.8,1325.7,1325.7
201902220521,1325.7,1325.9,1325.7,1325.8
201902220522,1325.8,1325.9,1325.7,1325.7
201902220523,1325.7,1325.8,1325.7,1325.7
201902220524,1325.7,1325.7,1325.5,1325.5
201902220525,1325.5,1325.5,1325.4,1325.4
201902220526,1325.4,1325.6,1325.4,1325.5
201902220527,1325.5,1325.5,1325.5,1325.5
201902220528,1325.5,1325.6,1325.5,1325.5
201902220529,1325.5,1325.6,1325.5,1325.6
201902220530,1325.6,1325.8,1325.6,1325.8
201902220531,1325.8,1325.8,1325.8,1325.8
201902220532,1325.8,1325.8,1325.7,1325.7
201902220533,1325.7,1325.7,1325.7,1325.7
201902220534,1325.7,1325.8,1325.6,1325.6
201902220535,1325.6,1325.7,1325.6,1325.7
201902220536,1325.7,1325.8,1325.4,1325.4
201902220537,1325.4,1325.4,1325.2,1325.3
201902220538,1325.3,1325.3,1325.2,1325.2
201902220539,1325.2,1325.2,1324.9,1325
201902220540,1325,1325,1324.8,1325
201902220541,1325,1325.3,1324.9,1325.1
201902220542,1325.1,1325.5,1324.9,1325.5
201902220543,1325.5,1325.5,1325.1,1325.1
201902220544,1325.1,1325.1,1324.9,1325.1
201902220545,1325.1,1325.3,1325.1,1325.3
201902220546,1325.3,1325.3,1324.1,1324.2
201902220547,1324.2,1324.2,1324,1324
201902220548,1324,1324.2,1324,1324.2
201902220549,1324.2,1324.2,1324.1,1324.2
201902220550,1324.2,1324.3,1324.1,1324.3
201902220551,1324.3,1324.4,1324.3,1324.3
201902220552,1324.3,1324.3,1324.2,1324.2
201902220553,1324.2,1324.2,1323.6,1323.6
201902220554,1323.6,1323.6,1323.5,1323.5
201902220555,1323.6,1323.8,1323.5,1323.8
201902220556,1323.8,1323.8,1323.7,1323.8
201902220557,1323.8,1323.8,1323.7,1323.7
201902220558,1323.7,1324.2,1323.7,1324.1
201902220559,1324.1,1324.1,1323.5,1323.5
201902220600,1323.5,1323.6,1323.3,1323.3
201902220601,1323.3,1323.3,1323,1323
201902220602,1323,1323,1322.7,1322.7
201902220603,1322.7,1322.9,1322.7,1322.9
201902220604,1323,1323.1,1323,1323
201902220605,1323,1323,1322.8,1322.9
201902220606,1322.9,1322.9,1322.6,1322.7
201902220607,1322.7,1322.9,1322.6,1322.6
201902220608,1322.6,1322.8,1322.6,1322.8
201902220609,1322.8,1322.8,1322.6,1322.6
201902220610,1322.6,1322.6,1322.5,1322.6
201902220611,1322.6,1322.8,1322.6,1322.8
201902220612,1322.8,1322.8,1322.8,1322.8
201902220613,1322.8,1322.9,1322.8,1322.9
201902220614,1322.9,1322.9,1322.9,1322.9
201902220615,1322.9,1323,1322.9,1322.9
201902220616,1322.9,1322.9,1322.8,1322.9
201902220617,1322.9,1323,1322.8,1322.9
201902220618,1322.9,1323,1322.9,1322.9
201902220619,1322.9,1322.9,1322.9,1322.9
201902220620,1322.9,1322.9,1322.8,1322.8
201902220621,1322.9,1322.9,1322.9,1322.9
201902220622,1322.9,1322.9,1322.8,1322.8
201902220623,1322.8,1322.8,1322.8,1322.8
201902220624,1322.8,1322.8,1322.8,1322.8
201902220625,1322.8,1322.8,1322.8,1322.8
201902220626,1322.8,1322.8,1322.8,1322.8
201902220627,1322.8,1322.9,1322.8,1322.8
201902220628,1322.8,1322.9,1322.8,1322.8
201902220629,1322.8,1322.9,1322.8,1322.8
201902220630,1322.9,1322.9,1322.8,1322.8
201902220631,1322.8,1322.8,1322.8,1322.8
201902220632,1322.8,1322.9,1322.8,1322.9
201902220633,1322.9,1322.9,1322.9,1322.9
201902220634,1322.9,1322.9,1321,1322.2
201902220635,1322.2,1322.6,1322.1,1322.5
201902220636,1322.5,1322.7,1322.5,1322.6
201902220637,1322.6,1322.7,1322.5,1322.6
201902220638,1322.6,1322.8,1322.6,1322.8
201902220639,1322.8,1323,1322.6,1322.7
201902220640,1322.8,1322.9,1322.7,1322.9
201902220641,1322.9,1322.9,1322.8,1322.8
201902220642,1322.8,1323,1322.8,1323
201902220643,1323,1323,1323,1323
201902220644,1323,1323.1,1323,1323.1
201902220645,1323.1,1323.1,1323,1323.1
201902220646,1323.1,1323.1,1323.1,1323.1
201902220647,1323.1,1323.2,1323.1,1323.2
201902220648,1323.2,1323.3,1323.2,1323.2
201902220649,1323.2,1323.4,1323.2,1323.3
201902220650,1323.3,1323.3,1322.9,1323.1
201902220651,1323.1,1323.3,1323.1,1323.2
201902220652,1323.2,1323.4,1323.2,1323.3
201902220653,1323.3,1323.4,1323.3,1323.4
201902220654,1323.4,1323.4,1323.3,1323.3
201902220655,1323.3,1323.3,1323.2,1323.3
201902220656,1323.2,1323.3,1323.2,1323.3
201902220657,1323.3,1323.3,1323.2,1323.2
201902220658,1323.2,1323.4,1323.2,1323.2
201902220659,1323.2,1323.6,1323.2,1323.4
