日時,始値(BID),高値(BID),安値(BID),終値(BID)
201902210800,7071.6,7072,7068.9,7069.9
201902210801,7069.9,7070,7068.1,7068.3
201902210802,7068.3,7068.6,7067.4,7068.6
201902210803,7068.6,7068.8,7068,7068
201902210804,7067.9,7068.2,7067.8,7068.1
201902210805,7068.1,7068.5,7067.8,7067.9
201902210806,7067.9,7068.5,7067.9,7068.1
201902210807,7068,7070.3,7068,7070
201902210808,7070,7071.7,7070,7070.9
201902210809,7070.9,7070.9,7069.2,7070
201902210810,7069.9,7071.1,7069.9,7069.9
201902210811,7069.9,7070.4,7069.2,7069.2
201902210812,7069.2,7069.6,7068.6,7068.6
201902210813,7068.6,7068.6,7067.6,7067.7
201902210814,7067.7,7068.9,7067.7,7068.9
201902210815,7068.8,7068.8,7068.2,7068.3
201902210816,7068.3,7068.3,7066.7,7066.9
201902210817,7066.7,7067.3,7066.4,7066.4
201902210818,7066.5,7066.6,7066,7066.4
201902210819,7066.4,7066.9,7066.4,7066.5
201902210820,7066.5,7066.5,7065.3,7065.4
201902210821,7065.3,7066.7,7064.8,7066.6
201902210822,7066.6,7066.6,7065.7,7065.9
201902210823,7065.8,7066.4,7065.3,7066.4
201902210824,7066.4,7067,7066.3,7067
201902210825,7067,7067.2,7066.9,7066.9
201902210826,7067,7067,7066.4,7066.7
201902210827,7066.5,7066.6,7066.3,7066.6
201902210828,7066.6,7066.7,7066.4,7066.7
201902210829,7066.6,7067.3,7066.6,7066.7
201902210830,7066.8,7068.9,7066.8,7068
201902210831,7068,7068.3,7067.1,7067.1
201902210832,7067.1,7070.2,7067.1,7070
201902210833,7070,7070.3,7068.8,7069
201902210834,7068.9,7069.3,7068.9,7069.3
201902210835,7069.3,7069.3,7067,7067.5
201902210836,7067.5,7069.3,7067.5,7069.3
201902210837,7069.3,7069.5,7068.1,7068.4
201902210838,7068.4,7069.1,7068.4,7068.8
201902210839,7068.7,7069,7068.5,7068.5
201902210840,7068.6,7069.4,7068.6,7068.6
201902210841,7068.6,7068.9,7068.3,7068.3
201902210842,7068.3,7069.1,7068.3,7069.1
201902210843,7069.1,7069.1,7068.2,7068.3
201902210844,7068.3,7068.7,7068,7068.7
201902210845,7068.7,7069,7068.3,7069
201902210846,7069,7070.1,7068.8,7069
201902210847,7068.9,7069.3,7068.6,7069.3
201902210848,7069.3,7069.3,7068,7068
201902210849,7068,7068.3,7067.9,7068.2
201902210850,7068.2,7068.4,7067.9,7068.4
201902210851,7068.4,7069.1,7068,7068.1
201902210852,7068.1,7068.1,7067.8,7068.1
201902210853,7068,7069.5,7068,7069.1
201902210854,7069.1,7069.8,7069.1,7069.8
201902210855,7069.8,7069.9,7069.2,7069.6
201902210856,7069.6,7069.7,7068.5,7068.7
201902210857,7068.7,7069.2,7068.7,7069.2
201902210858,7069.2,7069.6,7068.9,7069.3
201902210859,7069.3,7069.3,7068.6,7068.8
201902210900,7068.8,7073,7068.8,7072
201902210901,7072,7074,7071.2,7073.7
201902210902,7073.7,7073.8,7073.1,7073.4
201902210903,7073.4,7073.6,7072.2,7072.9
201902210904,7072.9,7073.5,7072.6,7073.5
201902210905,7073.5,7073.5,7071.9,7071.9
201902210906,7071.8,7071.8,7069.3,7069.6
201902210907,7069.5,7069.5,7067.1,7068.1
201902210908,7068.1,7068.5,7067,7068.1
201902210909,7068.1,7068.8,7067.2,7067.2
201902210910,7067.1,7067.2,7065.9,7066.5
201902210911,7066.5,7066.5,7064.7,7065.9
201902210912,7065.9,7066.5,7065.3,7066.4
201902210913,7066.4,7067.3,7065.7,7065.8
201902210914,7065.8,7066.2,7065.5,7065.9
201902210915,7065.9,7065.9,7065.2,7065.8
201902210916,7065.8,7066,7065.3,7065.9
201902210917,7065.9,7067.4,7065.3,7067
201902210918,7067.1,7067.1,7065.4,7065.8
201902210919,7065.8,7066.2,7065.3,7065.4
201902210920,7065.4,7066,7065.2,7065.8
201902210921,7065.8,7065.8,7065.2,7065.3
201902210922,7065.3,7065.3,7063.9,7063.9
201902210923,7063.9,7064.3,7062.3,7062.8
201902210924,7062.8,7064.5,7062.8,7064.4
201902210925,7064.4,7064.4,7063.7,7063.9
201902210926,7063.8,7064.3,7063.1,7063.2
201902210927,7063.2,7063.2,7062,7062.8
201902210928,7062.9,7063.3,7062.5,7062.9
201902210929,7062.9,7064.7,7062.9,7064.7
201902210930,7064.5,7067,7064.5,7067
201902210931,7067,7067,7065.6,7065.7
201902210932,7065.7,7066.1,7064.2,7064.2
201902210933,7064.1,7065.7,7064.1,7065.6
201902210934,7065.8,7066.2,7065.4,7065.7
201902210935,7065.7,7066.1,7064.7,7064.9
201902210936,7064.9,7066.3,7064.9,7066.3
201902210937,7066.4,7066.5,7065.2,7065.2
201902210938,7065.2,7066.3,7065.2,7066
201902210939,7066,7066.8,7065.2,7066.8
201902210940,7066.8,7067.2,7066.2,7066.2
201902210941,7066.2,7066.3,7065.8,7066
201902210942,7066,7066,7065.3,7065.4
201902210943,7065.4,7065.8,7065.1,7065.6
201902210944,7065.6,7065.6,7063.8,7063.9
201902210945,7063.9,7064.7,7063.7,7064.5
201902210946,7064.5,7066.3,7063.7,7065.7
201902210947,7065.7,7066.3,7064.9,7064.9
201902210948,7064.8,7066,7064.8,7065.8
201902210949,7065.8,7066.2,7065.4,7065.8
201902210950,7065.8,7066.3,7064.9,7064.9
201902210951,7064.8,7064.8,7063.7,7064.2
201902210952,7064.1,7065.1,7063.9,7064.7
201902210953,7064.7,7064.7,7062.6,7063.4
201902210954,7063.4,7064.3,7063.4,7063.8
201902210955,7063.8,7065.6,7063.4,7065.3
201902210956,7065.4,7065.4,7064.8,7065
201902210957,7065,7065.4,7064.4,7064.4
201902210958,7064.4,7064.7,7063.9,7064.2
201902210959,7064.2,7065,7064.1,7064.9
201902211000,7064.9,7065.8,7064.7,7065.1
201902211001,7065.1,7066.1,7064.1,7066.1
201902211002,7066.1,7066.1,7065.3,7065.4
201902211003,7065.4,7066.3,7065.4,7066.1
201902211004,7066.1,7066.4,7065.6,7066.1
201902211005,7066,7066,7063.9,7064.4
201902211006,7064.4,7064.4,7062.3,7063.2
201902211007,7063.1,7063.5,7062,7062.9
201902211008,7062.9,7064.3,7062.9,7064.3
201902211009,7064.3,7064.4,7063.9,7063.9
201902211010,7063.9,7063.9,7062.9,7063.6
201902211011,7063.6,7064.8,7063.5,7064.1
201902211012,7064.1,7064.7,7063.8,7064.4
201902211013,7064.4,7064.4,7062.9,7063
201902211014,7063,7063.9,7063,7063.4
201902211015,7063.4,7063.8,7062.2,7062.3
201902211016,7062.3,7062.5,7060.2,7060.9
201902211017,7060.6,7062,7059.6,7061.2
201902211018,7061.2,7061.4,7060.2,7060.8
201902211019,7060.8,7061.6,7060,7061.6
201902211020,7061.5,7061.5,7060.2,7061.4
201902211021,7061.4,7061.5,7059.9,7060.6
201902211022,7060.6,7061.8,7060.2,7061.5
201902211023,7061.6,7061.8,7060.6,7060.6
201902211024,7060.6,7060.6,7059.1,7060.2
201902211025,7060,7061.2,7059.7,7060.6
201902211026,7060.6,7060.8,7058.9,7059.3
201902211027,7059.4,7061,7059.4,7060.6
201902211028,7060.6,7060.8,7059.7,7060.6
201902211029,7060.4,7061.2,7060.4,7060.6
201902211030,7060.6,7060.6,7058.6,7059.6
201902211031,7059.6,7060.5,7058.7,7059.8
201902211032,7059.7,7059.8,7056.8,7058.8
201902211033,7058.7,7058.7,7056.4,7057.7
201902211034,7057.7,7058.6,7057.2,7058.4
201902211035,7058.4,7060,7057.4,7059.8
201902211036,7059.9,7060.1,7058.9,7059.3
201902211037,7059.3,7061.6,7059.2,7061.6
201902211038,7061.5,7063.7,7061.3,7062.7
201902211039,7062.7,7062.7,7060.8,7062.2
201902211040,7062.2,7062.3,7060.6,7060.6
201902211041,7060.7,7062.3,7060.2,7062.3
201902211042,7062.2,7063,7061.7,7062.7
201902211043,7062.5,7063.2,7061.6,7062.8
201902211044,7062.8,7064.2,7062.7,7063.9
201902211045,7063.9,7064.2,7062.7,7063.7
201902211046,7063.7,7064.3,7063.3,7063.9
201902211047,7063.9,7064.8,7063.9,7064.7
201902211048,7064.7,7065.1,7063.9,7064.5
201902211049,7064.6,7064.8,7063.3,7064
201902211050,7064,7065,7063.8,7064.4
201902211051,7064.4,7064.9,7063.4,7064.8
201902211052,7064.8,7065,7064,7064.6
201902211053,7064.7,7065.3,7064.4,7064.7
201902211054,7064.7,7065.5,7064.3,7064.4
201902211055,7064.4,7066,7063.9,7064.9
201902211056,7064.9,7065.3,7064.2,7064.3
201902211057,7064.3,7064.9,7063.9,7064.6
201902211058,7064.6,7064.6,7063.9,7064.5
201902211059,7064.5,7065.9,7064.5,7064.9
201902211100,7065,7065.5,7063.6,7064.1
201902211101,7064.1,7065.9,7064,7065.2
201902211102,7065.2,7065.8,7064.9,7065.2
201902211103,7065.2,7066.3,7065.2,7065.8
201902211104,7065.8,7067.8,7065.8,7066.9
201902211105,7066.9,7067.2,7065.1,7065.4
201902211106,7065.4,7066.7,7065.2,7066.7
201902211107,7066.7,7067.3,7066.6,7066.6
201902211108,7066.6,7067.1,7066.2,7066.4
201902211109,7066.4,7067.8,7066.4,7067.2
201902211110,7067.2,7068.4,7067.2,7067.4
201902211111,7067.3,7067.3,7066.4,7066.5
201902211112,7066.5,7067.7,7066.5,7067.4
201902211113,7067.4,7068.1,7066.7,7067
201902211114,7067.1,7067.6,7066.7,7066.8
201902211115,7066.9,7067.5,7066.5,7066.5
201902211116,7066.5,7066.6,7065.2,7065.3
201902211117,7065.4,7066.1,7064.9,7065
201902211118,7065,7065.8,7064.9,7065
201902211119,7065,7065.6,7064.8,7065.3
201902211120,7065.3,7065.9,7065,7065.1
201902211121,7065.1,7066.8,7065,7066.6
201902211122,7066.6,7066.8,7065.5,7065.8
201902211123,7065.8,7067,7065.6,7065.7
201902211124,7065.7,7066.7,7065.7,7066.7
201902211125,7066.9,7068.5,7066.6,7068.1
201902211126,7068.1,7069,7068.1,7068.9
201902211127,7068.9,7070.1,7068.7,7069.6
201902211128,7069.6,7070,7069.6,7069.7
201902211129,7069.7,7070,7069.1,7069.8
201902211130,7069.9,7071.1,7069.7,7071.1
201902211131,7071.1,7071.4,7070.5,7070.7
201902211132,7070.6,7071.1,7070.1,7070.4
201902211133,7070.3,7071.3,7069.7,7069.8
201902211134,7069.9,7070.1,7069.6,7069.9
201902211135,7069.9,7070,7068.9,7069.3
201902211136,7069.4,7069.8,7069.1,7069.6
201902211137,7069.5,7069.9,7069.2,7069.7
201902211138,7069.7,7069.7,7069.1,7069.4
201902211139,7069.4,7070.1,7069.4,7069.4
201902211140,7069.4,7069.4,7068.5,7068.6
201902211141,7068.6,7070,7068.4,7069.4
201902211142,7069.4,7070.1,7069.3,7069.4
201902211143,7069.4,7070.1,7068.9,7069.9
201902211144,7069.9,7070,7068.2,7069
201902211145,7069,7070.3,7068.9,7069.6
201902211146,7069.6,7069.7,7069,7069
201902211147,7069.1,7070.1,7068.4,7068.9
201902211148,7068.9,7069.4,7068.7,7069.4
201902211149,7069.4,7074.3,7069.4,7074
201902211150,7074,7077.2,7073.7,7076.8
201902211151,7076.8,7078,7076.4,7076.5
201902211152,7076.5,7077.5,7076.4,7077
201902211153,7077,7084.1,7076.9,7083.5
201902211154,7083.5,7086.1,7083.3,7085.4
201902211155,7085.4,7090.4,7085.4,7089
201902211156,7089,7089.8,7086.6,7086.6
201902211157,7086.6,7089.4,7086.4,7088.2
201902211158,7088.2,7091.3,7088.1,7089.3
201902211159,7089.3,7092.8,7088.8,7092.7
201902211200,7092.7,7093.9,7089.2,7089.2
201902211201,7089.3,7090.1,7089,7089.2
201902211202,7089,7092.1,7088.6,7091.6
201902211203,7091.6,7092,7088.7,7089.1
201902211204,7089.1,7089.4,7087.8,7088.4
201902211205,7088.4,7089,7086.6,7088.1
201902211206,7088.1,7088.8,7087.6,7088
201902211207,7088,7088.8,7086.9,7088.8
201902211208,7088.8,7089.4,7088.2,7088.4
201902211209,7088.3,7089.6,7087.9,7088.5
201902211210,7088.6,7089.5,7087.9,7089.4
201902211211,7089.4,7090.5,7088.9,7090.3
201902211212,7090.3,7090.9,7089.5,7090.4
201902211213,7090.4,7091.6,7090.2,7091.5
201902211214,7091.5,7092.1,7091.3,7091.6
201902211215,7091.6,7092.2,7091.5,7091.9
201902211216,7091.9,7094.1,7091.9,7093.7
201902211217,7093.6,7094.1,7090.7,7090.9
201902211218,7090.8,7092.3,7090.5,7091.2
201902211219,7091.1,7093.8,7091.1,7093.8
201902211220,7093.5,7094.3,7093.2,7093.9
201902211221,7093.9,7097,7093.7,7094.3
201902211222,7094.3,7094.9,7093.7,7094.3
201902211223,7094.3,7095,7092.2,7092.4
201902211224,7092.3,7092.8,7091.6,7092.5
201902211225,7092.5,7092.9,7092.2,7092.7
201902211226,7092.5,7092.9,7092.3,7092.8
201902211227,7092.9,7092.9,7092.1,7092.3
201902211228,7092.3,7092.4,7092,7092.3
201902211229,7092.3,7092.3,7091.5,7091.6
201902211230,7091.5,7093.5,7091.5,7092.5
201902211231,7092.3,7093.5,7092.3,7092.8
201902211232,7092.8,7094.7,7092.7,7093.9
201902211233,7093.9,7096.1,7093.9,7095.7
201902211234,7095.6,7096.4,7094.9,7095.3
201902211235,7095.3,7096.8,7094.3,7096.6
201902211236,7096.5,7097.5,7096.4,7096.9
201902211237,7096.9,7097.6,7096.9,7096.9
201902211238,7097.1,7103.6,7097,7101.6
201902211239,7101.7,7108.7,7100,7108.7
201902211240,7108.7,7113,7107.1,7111.9
201902211241,7111.8,7112.6,7111.4,7111.4
201902211242,7111.3,7111.3,7107.9,7108.8
201902211243,7108.8,7109.3,7107.9,7108.3
201902211244,7108.3,7108.3,7106.9,7107.9
201902211245,7107.9,7108,7106.4,7107.1
201902211246,7107,7107,7106.1,7106.6
201902211247,7106.6,7106.7,7105.7,7105.7
201902211248,7105.7,7106.3,7105.3,7105.9
201902211249,7105.9,7108.3,7105.2,7107.4
201902211250,7107.4,7107.5,7106.1,7106.5
201902211251,7106.5,7107.3,7105.4,7105.4
201902211252,7105.4,7106,7105.4,7105.7
201902211253,7105.9,7106,7104.7,7104.7
201902211254,7104.7,7105.1,7104.1,7104.6
201902211255,7104.6,7105.7,7104.5,7105.3
201902211256,7105.3,7105.4,7104.7,7105
201902211257,7105,7105.3,7104.5,7105.2
201902211258,7105.2,7105.5,7104.5,7104.9
201902211259,7104.9,7105.6,7104.7,7105
201902211300,7105,7105.3,7104,7104.5
201902211301,7104.5,7105.3,7104.4,7104.7
201902211302,7104.6,7105.1,7104.6,7105.1
201902211303,7105.1,7105.1,7103.9,7104.1
201902211304,7104.1,7104.1,7103.2,7103.5
201902211305,7103.5,7104.3,7103.4,7104.2
201902211306,7104.1,7104.1,7103.1,7103.6
201902211307,7103.6,7104.4,7103.6,7104.3
201902211308,7104.4,7105.2,7104.4,7105.1
201902211309,7105.1,7105.1,7103.1,7104
201902211310,7104,7104.3,7103.7,7103.8
201902211311,7103.8,7104,7103.4,7103.5
201902211312,7103.5,7103.6,7102.2,7102.2
201902211313,7102.2,7102.5,7102,7102.1
201902211314,7102.1,7102.1,7101.7,7102.1
201902211315,7102.1,7104.2,7102.1,7103.9
201902211316,7103.9,7104.2,7103.1,7103.3
201902211317,7103.3,7103.6,7103,7103.2
201902211318,7103.1,7103.3,7102.4,7102.6
201902211319,7102.6,7102.6,7102.3,7102.3
201902211320,7102.4,7102.8,7101.8,7102.4
201902211321,7102.2,7102.5,7101.7,7102.5
201902211322,7102.6,7102.8,7102,7102.7
201902211323,7102.7,7103.8,7102.4,7103.8
201902211324,7103.8,7104.2,7103.6,7103.8
201902211325,7103.9,7104.3,7103.6,7103.7
201902211326,7103.7,7103.7,7102.9,7102.9
201902211327,7102.9,7103.1,7102.4,7102.9
201902211328,7102.9,7103.4,7102.8,7102.9
201902211329,7102.9,7103.3,7102.8,7102.9
201902211330,7102.9,7104.2,7102.9,7103.9
201902211331,7103.9,7104.4,7103.9,7104.3
201902211332,7104.3,7105,7103.7,7104.9
201902211333,7104.8,7105.6,7104.6,7105.6
201902211334,7105.6,7107.1,7105.6,7106.3
201902211335,7106.3,7107.1,7105.9,7107.1
201902211336,7107.1,7107.8,7106.4,7107.8
201902211337,7107.8,7108.5,7107.8,7107.9
201902211338,7107.9,7108.8,7107.9,7108.5
201902211339,7108.5,7109.3,7108.3,7108.9
201902211340,7108.9,7108.9,7106.4,7106.5
201902211341,7106.6,7106.6,7105.3,7106.2
201902211342,7106,7106,7105.7,7105.7
201902211343,7105.6,7105.7,7105.2,7105.2
201902211344,7105.2,7105.6,7103.9,7105.6
201902211345,7105.6,7105.6,7104.9,7105
201902211346,7105,7105,7103.9,7104.6
201902211347,7104.6,7104.6,7103.1,7103.2
201902211348,7103.1,7103.3,7102.7,7102.9
201902211349,7102.9,7103.6,7102.8,7103.4
201902211350,7103.4,7103.6,7103.4,7103.6
201902211351,7103.5,7103.5,7102,7102
201902211352,7101.9,7102.3,7101.2,7102
201902211353,7102.1,7102.3,7101.2,7101.2
201902211354,7101.2,7101.5,7100.9,7100.9
201902211355,7100.9,7101.6,7100.6,7101.1
201902211356,7101.1,7102.3,7100.9,7102.3
201902211357,7102.3,7102.5,7102,7102.3
201902211358,7102.3,7102.3,7102,7102.2
201902211359,7102.2,7104.3,7102,7103.8
201902211400,7103.8,7104.5,7102.4,7102.4
201902211401,7102.2,7102.7,7101.2,7102.7
201902211402,7102.7,7102.7,7101.4,7101.4
201902211403,7101.4,7101.6,7100.2,7100.2
201902211404,7100.2,7102.6,7100.2,7102.2
201902211405,7102.2,7102.9,7102.2,7102.6
201902211406,7102.6,7102.8,7101.4,7101.8
201902211407,7101.8,7102.5,7101.6,7102.1
201902211408,7102,7102.5,7101.6,7101.8
201902211409,7101.9,7102.4,7101.5,7101.8
201902211410,7101.8,7103,7101.8,7102.1
201902211411,7102.1,7103.9,7102,7103.9
201902211412,7103.9,7106,7103.9,7105.1
201902211413,7105,7105.4,7104.6,7105.3
201902211414,7105.3,7105.3,7104.6,7104.9
201902211415,7104.9,7106,7104.5,7104.9
201902211416,7104.9,7105,7103.1,7105
201902211417,7105,7106.6,7104.7,7106.5
201902211418,7106.7,7106.7,7105.2,7105.3
201902211419,7105.4,7105.6,7105.2,7105.6
201902211420,7105.6,7106.1,7105.2,7106.1
201902211421,7106,7106.3,7104.7,7104.7
201902211422,7104.7,7104.8,7103.9,7104.3
201902211423,7104.2,7104.4,7103.6,7104.1
201902211424,7104.1,7104.8,7103.8,7104.5
201902211425,7104.5,7104.7,7103.4,7103.4
201902211426,7103.4,7103.5,7101.9,7101.9
201902211427,7101.9,7103.2,7100.9,7101.5
201902211428,7101.5,7101.5,7099.1,7099.5
201902211429,7099.5,7100.1,7098.1,7099.1
201902211430,7099.1,7102,7099.1,7101.1
201902211431,7101.1,7102.1,7101.1,7101.7
201902211432,7102,7102.8,7100.7,7101.3
201902211433,7101.3,7102.5,7100.9,7102.5
201902211434,7102.5,7103.4,7101.9,7103
201902211435,7103,7106.4,7102.8,7106.3
201902211436,7106.3,7106.3,7105.2,7105.5
201902211437,7105.5,7107.5,7105.3,7106.4
201902211438,7106.4,7106.4,7105.3,7106.1
201902211439,7106.1,7106.3,7104.3,7104.3
201902211440,7104.3,7104.4,7102.9,7103.1
201902211441,7103,7104,7103,7103.3
201902211442,7103.3,7104,7103.3,7103.9
201902211443,7103.9,7104,7101.9,7102.8
201902211444,7102.9,7103.3,7102.2,7102.8
201902211445,7102.9,7107.5,7102.4,7104.8
201902211446,7104.8,7105,7103.1,7103.1
201902211447,7103.1,7103.3,7101.2,7101.2
201902211448,7101.2,7101.8,7101.2,7101.4
201902211449,7101.4,7102,7100.6,7101.9
201902211450,7101.8,7101.8,7101.1,7101.1
201902211451,7101.1,7101.8,7100.9,7101.8
201902211452,7101.8,7102.2,7101.4,7102
201902211453,7102,7102.3,7101.7,7102.1
201902211454,7102.2,7102.2,7100.4,7100.9
201902211455,7100.9,7101.3,7099.6,7099.6
201902211456,7099.7,7099.8,7097.3,7097.7
201902211457,7097.7,7099.1,7097,7098.2
201902211458,7098.2,7098.7,7097,7097
201902211459,7097.2,7098.1,7096,7096
201902211500,7096.1,7096.8,7093.4,7093.6
201902211501,7093.6,7093.6,7091.9,7092.3
201902211502,7092.6,7094.9,7092.4,7094.6
201902211503,7094.6,7094.9,7093,7093.1
201902211504,7093.2,7094.1,7092.5,7093.8
201902211505,7093.8,7094.8,7093.6,7094.7
201902211506,7094.6,7095.3,7094.1,7095.1
201902211507,7095.1,7095.5,7094.4,7094.8
201902211508,7094.9,7095.3,7094.7,7095.1
201902211509,7095.1,7095.5,7094.3,7095.1
201902211510,7095.1,7095.4,7094.5,7094.9
201902211511,7094.9,7095.4,7094.3,7094.3
201902211512,7094.3,7094.6,7093.8,7094.6
201902211513,7094.6,7094.6,7092.4,7092.8
201902211514,7092.8,7093.4,7092.5,7092.9
201902211515,7092.9,7093.5,7092.2,7093.5
201902211516,7093.5,7094.8,7092.9,7094.8
201902211517,7094.8,7094.8,7092.1,7092.1
201902211518,7092.3,7092.3,7090.8,7090.8
201902211519,7090.8,7092.1,7090.4,7091.4
201902211520,7091.3,7091.3,7090.2,7090.9
201902211521,7091.2,7091.9,7090.5,7091.8
201902211522,7091.8,7091.8,7090.9,7091.1
201902211523,7091.1,7091.2,7089.6,7089.9
201902211524,7089.9,7089.9,7088.7,7089.1
201902211525,7089.1,7090.9,7089.1,7090.9
201902211526,7090.9,7092,7090.6,7092
201902211527,7092,7093.1,7092,7093.1
201902211528,7093,7093.3,7092.7,7092.9
201902211529,7092.8,7093.2,7092.7,7092.7
201902211530,7092.7,7092.7,7091.3,7091.3
201902211531,7091.3,7092.2,7091.3,7091.9
201902211532,7091.9,7091.9,7090.1,7090.1
201902211533,7090,7090.6,7089.1,7090.6
201902211534,7090.6,7091.1,7090.3,7090.8
201902211535,7090.8,7091.2,7090.2,7091
201902211536,7091,7091.1,7089.9,7090.4
201902211537,7090.4,7091.3,7090,7090.5
201902211538,7090.5,7091.3,7089.8,7091
201902211539,7091,7091.6,7091,7091
201902211540,7091,7091.3,7090.4,7091
201902211541,7091,7091.1,7090.6,7090.8
201902211542,7090.8,7091.1,7090.4,7090.6
201902211543,7090.7,7090.7,7089.6,7090
201902211544,7090.1,7090.2,7089.1,7089.3
201902211545,7089.3,7089.4,7088,7088.3
201902211546,7088.4,7090.4,7088.4,7090.1
201902211547,7090.1,7091.5,7089.9,7091.3
201902211548,7091.3,7092.1,7090.9,7091.3
201902211549,7091.3,7093,7091.3,7093
201902211550,7093.2,7093.3,7092.4,7093.2
201902211551,7093.2,7093.3,7091.8,7092.3
201902211552,7092.2,7092.6,7091.9,7092.4
201902211553,7092.4,7093,7092.4,7092.9
201902211554,7092.9,7092.9,7091.6,7091.6
201902211555,7091.6,7092.1,7091.4,7091.9
201902211556,7091.8,7091.8,7090.4,7090.6
201902211557,7090.6,7091.9,7090.6,7091.2
201902211558,7091.2,7091.5,7090.8,7091.3
201902211559,7091.3,7093.6,7091.3,7093.6
201902211600,7093.7,7093.9,7091.3,7091.3
201902211601,7091.2,7093.4,7090.6,7091.1
201902211602,7091.1,7091.1,7085.3,7085.3
201902211603,7085.3,7086,7083.9,7084.6
201902211604,7084.6,7085.5,7082.6,7085.5
201902211605,7085.5,7086.3,7084.6,7085.2
201902211606,7085.2,7086.3,7084.8,7084.9
201902211607,7084.9,7086.9,7084.9,7086.9
201902211608,7086.9,7088.3,7086.7,7087.4
201902211609,7087.4,7088.3,7087.1,7087.5
201902211610,7087.5,7088.1,7087.3,7087.7
201902211611,7087.7,7088.1,7087.1,7087.6
201902211612,7087.6,7087.6,7087.2,7087.3
201902211613,7087.3,7087.8,7086.7,7087.8
201902211614,7087.8,7087.8,7086.7,7087
201902211615,7087,7087,7085.6,7085.6
201902211616,7085.8,7087.6,7085.8,7087.1
201902211617,7087.1,7088,7086.5,7087.8
201902211618,7087.8,7090.8,7087.6,7090.8
201902211619,7090.8,7091.4,7090,7090.8
201902211620,7090.8,7091.6,7090.3,7090.5
201902211621,7090.5,7091.6,7090.2,7090.2
201902211622,7090.2,7091.5,7090.2,7091.2
201902211623,7091.2,7091.4,7091,7091.4
201902211624,7091.4,7091.9,7089.6,7091.6
201902211625,7091.6,7092.8,7091.6,7092.8
201902211626,7092.8,7093,7090.9,7090.9
201902211627,7090.9,7096.4,7090.9,7095.4
201902211628,7095.4,7096.1,7094.1,7094.4
201902211629,7094.4,7095.5,7094.2,7094.8
201902211630,7094.9,7094.9,7092.8,7093.1
201902211631,7093.1,7093.5,7092,7093.1
201902211632,7093,7094,7092.5,7093.7
201902211633,7093.6,7093.6,7091.9,7092.6
201902211634,7092.4,7093.3,7091.1,7091.1
201902211635,7091.1,7091.9,7090.8,7091.3
201902211636,7091.3,7094.6,7091.3,7094.6
201902211637,7094.6,7095.6,7094.3,7094.8
201902211638,7094.8,7094.9,7092.6,7093
201902211639,7093,7094,7092.9,7092.9
201902211640,7092.9,7094.1,7092.8,7093.7
201902211641,7093.7,7094.1,7093.6,7093.9
201902211642,7093.9,7093.9,7092.4,7092.4
201902211643,7092.5,7096.5,7092.5,7094.9
201902211644,7094.9,7095.1,7093.6,7094.1
201902211645,7094.1,7094.5,7093.2,7093.9
201902211646,7093.9,7093.9,7092.4,7092.7
201902211647,7092.7,7092.8,7092.2,7092.4
201902211648,7092.4,7093.8,7092.4,7093.6
201902211649,7093.6,7094.7,7093.6,7093.6
201902211650,7093.6,7094.9,7093.6,7094.2
201902211651,7094.2,7094.8,7092.4,7092.5
201902211652,7092.6,7093.5,7092.3,7092.9
201902211653,7092.9,7093.8,7092.8,7093.4
201902211654,7093.4,7094.3,7093.4,7093.6
201902211655,7093.6,7093.8,7092.2,7092.9
201902211656,7092.6,7093.1,7091.9,7092.6
201902211657,7092.7,7092.9,7090.3,7090.6
201902211658,7090.6,7091.1,7088.3,7089.1
201902211659,7089.1,7089.9,7087.8,7087.9
201902211700,7087.9,7089,7086.9,7088.4
201902211701,7088.4,7089.4,7087.2,7088.4
201902211702,7088.4,7089.9,7087.4,7088.6
201902211703,7088.6,7089,7086.7,7088
201902211704,7088,7089.2,7087.5,7089.2
201902211705,7089.1,7089.5,7087.3,7088.4
201902211706,7088.4,7089.5,7086,7087
201902211707,7087,7088.9,7086.6,7086.9
201902211708,7086.9,7087.5,7085.4,7087.1
201902211709,7087.1,7087.7,7085.8,7086.9
201902211710,7086.9,7088.3,7086.5,7087.8
201902211711,7087.8,7088.6,7087.4,7088.6
201902211712,7088.6,7090.4,7088.4,7089.2
201902211713,7089.2,7090.4,7089,7089.3
201902211714,7089.3,7089.3,7087.2,7088.4
201902211715,7088.4,7090.3,7088.3,7088.6
201902211716,7088.6,7091.3,7088.4,7088.9
201902211717,7088.9,7089.1,7087.7,7088
201902211718,7088.1,7089.4,7087.1,7088.9
201902211719,7088.9,7090.5,7088.5,7090.5
201902211720,7090.5,7090.5,7088.5,7088.8
201902211721,7088.9,7090.5,7088.6,7089.8
201902211722,7089.8,7090.4,7089.2,7090.3
201902211723,7090.3,7090.6,7089.1,7090.6
201902211724,7090.6,7092.8,7090.2,7091.3
201902211725,7091.3,7092.4,7090.4,7090.5
201902211726,7090.5,7090.5,7088.8,7089.1
201902211727,7089.1,7090.3,7089,7089.9
201902211728,7089.9,7091.4,7089.9,7090.8
201902211729,7090.9,7091.5,7089.8,7089.8
201902211730,7089.8,7090.4,7087.6,7089.4
201902211731,7089.4,7090.3,7089,7089.2
201902211732,7089.2,7089.4,7087.9,7088.9
201902211733,7088.9,7089.4,7088,7088
201902211734,7088,7088.3,7087.1,7087.2
201902211735,7087.1,7088.2,7086.9,7087.5
201902211736,7087.5,7087.5,7085.9,7086.2
201902211737,7086.2,7087.8,7085.6,7087.3
201902211738,7087.3,7088.1,7086.9,7087.8
201902211739,7088.1,7088.8,7086.4,7086.7
201902211740,7086.7,7087.8,7086.1,7087.3
201902211741,7087.3,7087.8,7085.5,7086.3
201902211742,7086,7086.8,7085.4,7085.9
201902211743,7085.8,7086.5,7084.3,7084.4
201902211744,7084.4,7084.4,7083.6,7083.6
201902211745,7083.6,7084,7082.7,7082.9
201902211746,7082.8,7083.3,7082.1,7082.9
201902211747,7082.9,7083.4,7082.6,7082.8
201902211748,7082.8,7084,7082.7,7083.7
201902211749,7083.7,7084.3,7082.3,7082.6
201902211750,7082.6,7083.8,7082,7082.9
201902211751,7082.9,7084.2,7082.9,7083.4
201902211752,7083.4,7083.9,7083.2,7083.9
201902211753,7083.9,7084.9,7082,7082.3
201902211754,7082.2,7082.9,7082,7082.7
201902211755,7082.7,7083.2,7081.9,7082.1
201902211756,7082.2,7082.5,7081.5,7082.5
201902211757,7082.5,7084,7081.7,7083.6
201902211758,7083.7,7084.3,7083.3,7084.3
201902211759,7084.3,7085.3,7084.3,7085.2
201902211800,7085.2,7085.3,7083.3,7083.3
201902211801,7083.3,7084,7082.9,7083.8
201902211802,7083.8,7084.1,7082.8,7082.8
201902211803,7082.8,7083.9,7081.9,7083.4
201902211804,7083.4,7083.4,7082.7,7082.9
201902211805,7082.9,7082.9,7081.4,7081.4
201902211806,7081.4,7081.5,7080.4,7080.5
201902211807,7080.6,7082.3,7080.4,7082.2
201902211808,7082.2,7082.6,7081.9,7082.1
201902211809,7082.1,7082.1,7080.3,7080.9
201902211810,7080.8,7081,7076.6,7077.4
201902211811,7077.4,7078.9,7077.4,7078.8
201902211812,7078.8,7080.5,7078.8,7080.2
201902211813,7080.1,7081.4,7080.1,7080.1
201902211814,7080.1,7081.5,7080.1,7081.3
201902211815,7081.3,7081.3,7080.1,7080.1
201902211816,7080.1,7081.5,7080.1,7081.5
201902211817,7081.5,7082.7,7081.3,7081.9
201902211818,7081.9,7083,7081.4,7082.8
201902211819,7082.8,7083.8,7082.8,7083
201902211820,7083,7084.6,7082.9,7084.1
201902211821,7084.2,7084.3,7083.2,7083.3
201902211822,7083.3,7084.3,7082.9,7083.7
201902211823,7083.7,7085.1,7083.6,7085.1
201902211824,7085.1,7086.3,7084.9,7085.2
201902211825,7085.3,7085.7,7084.1,7084.2
201902211826,7084.2,7084.5,7082.9,7083.5
201902211827,7083.6,7084.8,7083.1,7084.8
201902211828,7084.8,7085.9,7084.5,7084.9
201902211829,7084.9,7086.1,7084.9,7086
201902211830,7086,7086.8,7084.7,7086.8
201902211831,7086.8,7086.9,7086.1,7086.9
201902211832,7086.9,7087,7084.9,7085.2
201902211833,7085.2,7085.3,7084.6,7085.3
201902211834,7085.3,7085.3,7084.2,7084.6
201902211835,7084.6,7084.8,7083.7,7084.4
201902211836,7084.4,7086.3,7084.4,7085.9
201902211837,7085.9,7086.3,7084.6,7085.1
201902211838,7085.1,7086,7085.1,7085.8
201902211839,7085.8,7086.5,7084.9,7084.9
201902211840,7084.9,7085.7,7084.6,7085.4
201902211841,7085.4,7086.7,7085,7085.7
201902211842,7085.7,7086.9,7085.7,7086.2
201902211843,7086.2,7087.1,7085.6,7086.1
201902211844,7086.1,7086.2,7085,7085
201902211845,7085,7085.5,7084.9,7085
201902211846,7085,7085.4,7083.7,7084.4
201902211847,7084.5,7085,7083.9,7084.3
201902211848,7084.4,7084.4,7083.1,7084.1
201902211849,7084.1,7084.3,7083,7083.4
201902211850,7083.4,7084.1,7082.8,7083.3
201902211851,7083.3,7084,7083.3,7083.8
201902211852,7083.8,7086,7083.8,7085.6
201902211853,7085.6,7086.5,7085.3,7085.3
201902211854,7085.3,7085.3,7081.7,7082.9
201902211855,7082.9,7084.4,7082.9,7084.3
201902211856,7084.3,7084.9,7084.1,7084.9
201902211857,7084.9,7085.5,7084.3,7084.3
201902211858,7084.3,7085.3,7083.3,7085
201902211859,7085,7085.7,7084.6,7085.3
201902211900,7085.3,7086.5,7085.1,7086.2
201902211901,7086.2,7086.9,7085.9,7086.6
201902211902,7086.6,7087.8,7086.5,7087.8
201902211903,7087.8,7088.7,7087.1,7088.4
201902211904,7088.4,7089.3,7088.2,7089.1
201902211905,7089.3,7090.8,7088.9,7090.6
201902211906,7090.7,7091.3,7089.4,7089.4
201902211907,7089.4,7090,7088.8,7088.9
201902211908,7089,7089.3,7088,7088.8
201902211909,7088.9,7089,7087.6,7088.4
201902211910,7088.4,7088.8,7088.4,7088.6
201902211911,7088.5,7088.6,7087.9,7087.9
201902211912,7087.9,7089.5,7087.9,7089.3
201902211913,7089.3,7089.5,7088.9,7089.3
201902211914,7089.3,7089.5,7088.4,7088.6
201902211915,7088.5,7088.5,7087.6,7088.5
201902211916,7088.6,7090.7,7088.5,7090.5
201902211917,7090.5,7090.5,7086.9,7087.2
201902211918,7087.1,7088.3,7086.2,7086.9
201902211919,7086.9,7086.9,7085.2,7085.9
201902211920,7085.8,7086,7084.9,7085.3
201902211921,7085.2,7086.4,7085,7085.9
201902211922,7085.9,7086.8,7085.8,7086.3
201902211923,7086.4,7087.2,7086.4,7087.1
201902211924,7087.1,7087.3,7086.4,7086.4
201902211925,7086.4,7086.8,7085.8,7086.8
201902211926,7086.8,7086.9,7085.4,7085.4
201902211927,7085.4,7085.6,7084.2,7084.4
201902211928,7084.4,7084.7,7082.9,7083.3
201902211929,7083.3,7084.1,7082.9,7082.9
201902211930,7082.9,7083.3,7082.5,7082.5
201902211931,7082.7,7083.4,7082.6,7082.9
201902211932,7082.9,7084,7082.7,7083.1
201902211933,7083.1,7083.7,7083.1,7083.6
201902211934,7083.7,7084.3,7083,7083
201902211935,7083,7084.8,7082.9,7084.3
201902211936,7084.4,7085,7083.8,7084.2
201902211937,7084.2,7084.3,7083,7083.9
201902211938,7083.9,7084.7,7083.8,7084.7
201902211939,7084.7,7084.9,7082.7,7082.8
201902211940,7082.8,7083.7,7082.4,7083.1
201902211941,7083.1,7083.5,7082.4,7083.4
201902211942,7083.4,7084.5,7083.3,7084.1
201902211943,7084.1,7085.1,7084.1,7085.1
201902211944,7085.1,7085.8,7084.9,7085.4
201902211945,7085.4,7085.5,7084.6,7084.8
201902211946,7084.8,7085.3,7084,7084.2
201902211947,7084.2,7084.4,7082.8,7083.7
201902211948,7083.7,7084.7,7083.2,7084.6
201902211949,7084.6,7084.7,7083.7,7084.6
201902211950,7084.6,7086.1,7084.6,7085.8
201902211951,7085.8,7086,7084.7,7084.8
201902211952,7084.8,7084.8,7084.1,7084.2
201902211953,7084.2,7086.1,7084.2,7085.6
201902211954,7085.6,7087,7085.4,7086.7
201902211955,7086.7,7087.8,7086.2,7087.8
201902211956,7087.8,7088,7086.9,7087.4
201902211957,7087.4,7088.5,7087.2,7088.5
201902211958,7088.6,7089,7088,7088.7
201902211959,7088.7,7089.9,7088.7,7089.1
201902212000,7089.1,7089.8,7088.3,7088.6
201902212001,7088.5,7088.6,7087.8,7087.8
201902212002,7087.8,7087.9,7087.2,7087.6
201902212003,7087.6,7088.8,7087.6,7088
201902212004,7088,7089.5,7088,7089.5
201902212005,7089.6,7092.3,7089.6,7092.1
201902212006,7092.1,7093.7,7091.8,7093.4
201902212007,7093.4,7093.4,7092.2,7092.8
201902212008,7092.8,7094,7092.8,7093.4
201902212009,7093.4,7093.4,7091,7092.2
201902212010,7092.1,7092.3,7091.2,7092.2
201902212011,7092.2,7092.5,7091.7,7091.9
201902212012,7091.9,7092.3,7091.5,7091.9
201902212013,7091.9,7092.6,7091.4,7092
201902212014,7092,7092.3,7091,7091.3
201902212015,7091.3,7091.7,7090.6,7091.1
201902212016,7091.1,7091.1,7090.1,7090.9
201902212017,7090.9,7092.1,7090.9,7091.6
201902212018,7091.6,7091.8,7091.1,7091.3
201902212019,7091.3,7092.9,7091.3,7092.3
201902212020,7092.3,7092.9,7091.8,7091.9
201902212021,7091.9,7092.2,7091.4,7091.5
201902212022,7091.5,7091.7,7091,7091
201902212023,7091,7092.2,7090.9,7092
201902212024,7092.2,7092.8,7091.9,7092.3
201902212025,7092.4,7092.4,7090.6,7090.6
201902212026,7090.6,7092.2,7090.6,7092.2
201902212027,7092.2,7092.5,7091.1,7091.2
201902212028,7091.2,7092.1,7090.8,7090.8
201902212029,7090.9,7091.8,7090.9,7090.9
201902212030,7090.9,7092.1,7090.6,7090.6
201902212031,7090.7,7090.8,7088.9,7089.1
201902212032,7089.1,7089.3,7086,7086.9
201902212033,7086.9,7088.1,7086.9,7087.2
201902212034,7087.2,7087.8,7087,7087.7
201902212035,7087.7,7088.7,7087.6,7088.6
201902212036,7088.6,7088.8,7087.2,7087.2
201902212037,7087.3,7089.3,7087.3,7088.7
201902212038,7088.7,7089.4,7088.7,7088.9
201902212039,7088.9,7089.5,7088.1,7088.3
201902212040,7088.3,7088.6,7087.2,7087.4
201902212041,7087.4,7088,7087.2,7087.4
201902212042,7087.4,7087.8,7087.2,7087.4
201902212043,7087.3,7088.3,7086.6,7088.3
201902212044,7088.3,7088.8,7087.5,7087.5
201902212045,7087.5,7087.9,7086,7086.3
201902212046,7086.3,7086.4,7085.4,7085.4
201902212047,7085.4,7085.7,7083.4,7083.9
201902212048,7083.8,7085.4,7083.8,7085.2
201902212049,7084.9,7085.1,7083.7,7083.9
201902212050,7083.8,7084.4,7083.4,7084.2
201902212051,7084,7085.2,7084,7085.2
201902212052,7085.2,7085.5,7084.7,7085.3
201902212053,7085.4,7085.8,7084.4,7084.6
201902212054,7084.7,7085.2,7084.4,7084.6
201902212055,7084.6,7085.4,7084.4,7084.6
201902212056,7084.4,7084.4,7083.6,7083.9
201902212057,7083.9,7084.6,7083.8,7084.6
201902212058,7084.6,7085.6,7084.6,7085.3
201902212059,7085.3,7085.8,7084.7,7085
201902212100,7085.2,7085.3,7084.6,7085.3
201902212101,7085.3,7085.8,7083.9,7084.1
201902212102,7084.1,7084.7,7084.1,7084.2
201902212103,7084.1,7085.8,7084.1,7085.4
201902212104,7085.3,7086.1,7084.9,7085.7
201902212105,7085.7,7086.5,7085.2,7085.9
201902212106,7085.9,7087,7085.7,7086.9
201902212107,7086.8,7088.1,7086.8,7088.1
201902212108,7088.2,7088.4,7087,7087
201902212109,7087,7087.2,7086.7,7086.7
201902212110,7086.6,7086.6,7084.2,7084.6
201902212111,7084.6,7084.6,7083.1,7083.2
201902212112,7083.2,7083.3,7080.6,7080.6
201902212113,7080.4,7080.4,7072.4,7072.4
201902212114,7072.2,7072.2,7069.7,7070.6
201902212115,7070.6,7072,7067.1,7072
201902212116,7072.1,7074.8,7072.1,7074.8
201902212117,7074.6,7075.1,7073.8,7074
201902212118,7073.9,7074.6,7073.4,7073.9
201902212119,7073.8,7074.6,7073.1,7073.8
201902212120,7073.8,7074.4,7072.9,7073.1
201902212121,7073.1,7074.6,7072.4,7073.9
201902212122,7073.9,7074.3,7073.4,7073.6
201902212123,7073.6,7074.2,7072.3,7072.3
201902212124,7072.3,7073.1,7071.4,7072.1
201902212125,7072.1,7072.8,7071.5,7072.7
201902212126,7072.7,7072.7,7068.7,7069.3
201902212127,7069.2,7071.3,7067.8,7068.4
201902212128,7068.4,7070.3,7068.4,7070
201902212129,7070.1,7071.9,7069.7,7071.4
201902212130,7071.4,7071.4,7068.5,7068.5
201902212131,7068.5,7069,7064.2,7064.2
201902212132,7064.2,7064.8,7060.1,7060.4
201902212133,7060.4,7065.5,7060.4,7064.3
201902212134,7064.3,7065,7058.3,7061.3
201902212135,7061.4,7061.8,7060,7061.4
201902212136,7061.4,7063.2,7061.4,7062.6
201902212137,7062.5,7064,7061.7,7063.8
201902212138,7063.9,7065.1,7063.7,7064.5
201902212139,7064.5,7065.4,7063.2,7065
201902212140,7065.1,7066.3,7063.6,7066.2
201902212141,7066.2,7067.5,7064.9,7065.9
201902212142,7065.9,7068,7064.3,7067.9
201902212143,7067.9,7070.3,7067.4,7067.4
201902212144,7067.4,7067.6,7064.9,7065
201902212145,7065.1,7066.9,7063,7066.6
201902212146,7066.6,7067.4,7066.3,7066.9
201902212147,7066.9,7067.5,7066.4,7066.8
201902212148,7066.8,7067.8,7066.2,7067.3
201902212149,7067.3,7067.8,7066.7,7067.2
201902212150,7067.2,7068.3,7066.4,7066.7
201902212151,7066.6,7067.5,7064.7,7066.9
201902212152,7066.9,7067.8,7066.4,7067.2
201902212153,7067.2,7067.5,7066.3,7067.3
201902212154,7067.3,7068.5,7067.1,7068.1
201902212155,7068.1,7068.7,7066.3,7067.2
201902212156,7067.2,7068.9,7066.9,7068.4
201902212157,7068.4,7068.9,7065.9,7066.9
201902212158,7066.9,7066.9,7065.8,7066.4
201902212159,7066.4,7067.5,7066.4,7067
201902212200,7067.1,7067.3,7062.4,7064.9
201902212201,7064.9,7065.7,7064.2,7065.3
201902212202,7065.3,7067,7065.3,7065.6
201902212203,7065.6,7065.8,7062.8,7063.7
201902212204,7063.7,7066.6,7063.7,7066.3
201902212205,7066.3,7066.5,7063.1,7064.9
201902212206,7064.9,7065.1,7063.8,7063.9
201902212207,7063.8,7065.1,7063.4,7065.1
201902212208,7065.1,7066.9,7064.8,7066.9
201902212209,7066.9,7069.3,7066.9,7068.8
201902212210,7069.2,7071.2,7069,7070.8
201902212211,7070.8,7071.5,7070.4,7071
201902212212,7071,7071.4,7068.9,7069.1
201902212213,7069,7070.1,7068.9,7069.5
201902212214,7069.5,7070.3,7069.3,7070
201902212215,7070,7070.3,7068.7,7070
201902212216,7070,7070,7067.4,7068.4
201902212217,7068.4,7068.8,7066.7,7067
201902212218,7066.9,7067.3,7065.2,7065.6
201902212219,7065.6,7066.5,7063.6,7063.9
201902212220,7063.9,7068.8,7063.9,7068.6
201902212221,7068.6,7069.5,7067.9,7069.2
201902212222,7069.2,7069.8,7067.3,7067.5
201902212223,7067.5,7067.5,7065,7065.4
201902212224,7065.4,7067.1,7064.9,7066.4
201902212225,7066.4,7067,7065.9,7065.9
201902212226,7065.9,7066.1,7065.6,7065.9
201902212227,7065.9,7065.9,7064.7,7065.3
201902212228,7065.4,7066.2,7065.3,7065.8
201902212229,7065.8,7066.1,7064.8,7064.8
201902212230,7064.8,7066.8,7051,7055.6
201902212231,7055.9,7059.1,7054.3,7055.8
201902212232,7055.8,7059.1,7055.7,7058.4
201902212233,7058.4,7058.6,7053.9,7054.5
201902212234,7054.5,7056.3,7053.9,7055.4
201902212235,7055.4,7059,7055.4,7058.9
201902212236,7058.9,7058.9,7056.9,7058.9
201902212237,7058.8,7060.1,7058.4,7059.4
201902212238,7059.4,7060.9,7058.9,7059.4
201902212239,7059.4,7060.4,7058.9,7059.3
201902212240,7059.2,7060,7058.7,7059.9
201902212241,7059.9,7060,7058.9,7058.9
201902212242,7058.9,7060.8,7058.1,7059.7
201902212243,7059.7,7060.3,7058.2,7059.4
201902212244,7059.5,7060.3,7059.2,7059.2
201902212245,7059.2,7061.2,7058.3,7061.1
201902212246,7061.1,7063.5,7061.1,7063.1
201902212247,7063.1,7063.3,7061.9,7062.5
201902212248,7062.5,7063,7061.7,7062.8
201902212249,7062.9,7062.9,7061,7061.6
201902212250,7061.6,7063.1,7061.4,7062.6
201902212251,7062.6,7063.6,7061.9,7063.6
201902212252,7063.6,7063.6,7061.9,7062.9
201902212253,7062.8,7062.8,7061.7,7062
201902212254,7062,7062,7060,7060.1
201902212255,7060.1,7064.5,7060.1,7064.5
201902212256,7064.5,7064.6,7060.6,7060.9
201902212257,7060.9,7062.4,7060.9,7061.3
201902212258,7061.4,7062.4,7061,7061
201902212259,7060.9,7061.8,7060.1,7060.9
201902212300,7060.9,7062,7060,7060
201902212301,7060,7061.9,7057.5,7061.8
201902212302,7061.8,7065,7061.3,7064.4
201902212303,7064.4,7065.6,7061.1,7061.6
201902212304,7061.5,7061.5,7060.6,7061
201902212305,7061.1,7061.1,7058.2,7059
201902212306,7059,7060.6,7057.6,7059.7
201902212307,7059.7,7059.8,7057.4,7057.4
201902212308,7057.4,7057.8,7055.5,7055.6
201902212309,7055.6,7055.6,7053.4,7054.3
201902212310,7054.3,7054.3,7053,7053.2
201902212311,7053.2,7054.5,7052.6,7052.6
201902212312,7052.7,7056.3,7052.7,7055.4
201902212313,7055.4,7056.5,7054.7,7055.3
201902212314,7055.3,7056.5,7054.9,7056
201902212315,7056,7057.3,7054.7,7054.7
201902212316,7054.7,7055.5,7054.5,7054.6
201902212317,7054.6,7056.5,7054.4,7055.9
201902212318,7055.9,7056.1,7053.9,7055.5
201902212319,7055.5,7057,7055.5,7056.8
201902212320,7056.5,7059.3,7056.3,7056.6
201902212321,7056.6,7056.6,7054.3,7055.8
201902212322,7055.8,7056.1,7054.9,7055.1
201902212323,7055.1,7056.5,7054.1,7056.3
201902212324,7056.3,7056.5,7055.4,7055.4
201902212325,7055.3,7055.3,7054.4,7054.7
201902212326,7054.7,7055,7053.3,7054.2
201902212327,7054.2,7054.5,7053.6,7054.1
201902212328,7054.1,7054.8,7051.2,7054.7
201902212329,7054.8,7054.8,7046.4,7049.3
201902212330,7049,7052.8,7047.7,7050.5
201902212331,7050.5,7059.3,7050.5,7056
201902212332,7055.9,7060.3,7055.2,7058.6
201902212333,7058.3,7065.7,7057.9,7059.9
201902212334,7059.8,7062.6,7053.9,7054.4
201902212335,7054.6,7054.6,7042.4,7051.4
201902212336,7051.4,7054.8,7048.2,7054.6
201902212337,7054.6,7055.1,7042.6,7043.3
201902212338,7043.4,7050.4,7042.4,7044.9
201902212339,7045,7048,7044,7046.6
201902212340,7046.6,7054.2,7046.4,7052.4
201902212341,7052.3,7052.5,7039.2,7043
201902212342,7043,7045.3,7037.5,7038.1
201902212343,7038.1,7042.8,7036.7,7039.1
201902212344,7039,7039.1,7033.9,7035.4
201902212345,7035.3,7036.2,7026.4,7033.9
201902212346,7033.9,7034,7028.9,7030.8
201902212347,7030.8,7031.8,7024.3,7026.7
201902212348,7026.3,7026.3,7017.1,7020.3
201902212349,7020.3,7020.4,7015.6,7018.1
201902212350,7018.2,7023.4,7017.2,7020.6
201902212351,7020.9,7021.6,7017.6,7021.6
201902212352,7021.6,7023.9,7018.8,7021.9
201902212353,7021.9,7023,7019.4,7021.2
201902212354,7021.2,7021.5,7016.7,7016.9
201902212355,7016.9,7020.3,7012.7,7013.2
201902212356,7013.2,7023.2,7013.1,7022.3
201902212357,7022.3,7025.9,7021.3,7023.9
201902212358,7023.9,7025.2,7022.9,7023.6
201902212359,7023.6,7024.3,7020.6,7023.2
201902220000,7023,7023,7015,7019
201902220001,7019,7019.6,7011.1,7014.1
201902220002,7014.1,7019.2,7009.7,7019.2
201902220003,7019.1,7019.1,7014.9,7017.3
201902220004,7017.3,7021.5,7014.9,7020.7
201902220005,7020.7,7024,7020.3,7023.5
201902220006,7024.3,7024.3,7018.7,7018.8
201902220007,7018.8,7020.3,7015,7015
201902220008,7014.9,7015.3,7010.7,7014
201902220009,7014,7018,7011.3,7018
201902220010,7018,7020.4,7015.9,7019
201902220011,7019,7019.8,7015.2,7015.3
201902220012,7015.4,7015.4,7005.4,7007.8
201902220013,7007.2,7009.1,7005.4,7005.9
201902220014,7005.9,7011.4,7004.9,7010
201902220015,7009.9,7013.3,7005.6,7012.5
201902220016,7012.6,7017.5,7012.6,7017.5
201902220017,7017.5,7021.1,7016.9,7020.2
201902220018,7020.1,7020.2,7016.8,7018.3
201902220019,7017.9,7018.3,7015.1,7017.3
201902220020,7017.3,7020.5,7015.2,7015.4
201902220021,7015.4,7017.8,7014.2,7015
201902220022,7015.2,7016.9,7010.7,7016.6
201902220023,7016.6,7022,7015.8,7015.8
201902220024,7015.9,7017.8,7012.4,7017.8
201902220025,7017.9,7019.2,7014.9,7016.2
201902220026,7016,7019.5,7014.4,7016.9
201902220027,7016.9,7016.9,7012,7012.2
201902220028,7011.4,7016.1,7011,7012.1
201902220029,7012.1,7013.6,7010.1,7011.9
201902220030,7011.9,7016,7011.9,7014.9
201902220031,7014.7,7019.2,7014.7,7016.4
201902220032,7016.4,7020,7015.9,7019.5
201902220033,7019.5,7020.7,7016.2,7019.1
201902220034,7019.1,7021,7017.3,7018.6
201902220035,7018.6,7019.1,7014.1,7015.7
201902220036,7015.7,7017.3,7014.4,7017.3
201902220037,7017,7018.3,7014.7,7015.5
201902220038,7015.5,7017,7015,7016.2
201902220039,7016.2,7020.9,7016.2,7019.7
201902220040,7019.7,7019.7,7015,7016.7
201902220041,7016.8,7018.6,7016.3,7018.3
201902220042,7018.3,7023.7,7017.7,7023.1
201902220043,7023.1,7026.3,7021.6,7024.7
201902220044,7024.7,7024.7,7021.7,7023.6
201902220045,7023.6,7028.2,7023.4,7026.1
201902220046,7026.1,7026.5,7021.4,7021.4
201902220047,7021.4,7021.8,7019.3,7020.2
201902220048,7020.2,7020.3,7016.9,7018.4
201902220049,7018.6,7022.7,7018.1,7020.8
201902220050,7020.8,7020.8,7015.4,7018.6
201902220051,7018.6,7023.1,7017.9,7022.2
201902220052,7022.1,7023.6,7020.7,7022
201902220053,7022,7023.5,7020,7023
201902220054,7023,7026.2,7021.9,7024.8
201902220055,7024.6,7029.3,7024.6,7027.1
201902220056,7027.1,7027.1,7025.9,7026.5
201902220057,7026.5,7028.5,7023.4,7023.5
201902220058,7023.7,7025.6,7023,7025.6
201902220059,7025.6,7025.7,7021.6,7023.4
201902220100,7023.4,7026.6,7020.6,7021.6
201902220101,7021.5,7021.8,7017.5,7020.5
201902220102,7020.3,7023.2,7020.3,7021.2
201902220103,7021.2,7026.1,7020.3,7024.5
201902220104,7024.4,7034.8,7024.1,7033.8
201902220105,7033.5,7041.2,7033.5,7037.2
201902220106,7037.3,7038.5,7034.8,7035.4
201902220107,7035.3,7036.3,7034.3,7034.9
201902220108,7034.9,7036.9,7033.1,7035.1
201902220109,7035.2,7039,7035.2,7036.9
201902220110,7036.9,7038.1,7035.5,7037.4
201902220111,7037.4,7038.3,7036.1,7037.4
201902220112,7037.2,7038.7,7035,7038.6
201902220113,7038.6,7044.1,7036.7,7044.1
201902220114,7044.1,7044.3,7040.1,7040.1
201902220115,7040.1,7043.8,7039.9,7040
201902220116,7040,7040.5,7038.8,7039
201902220117,7038.9,7039.1,7037.4,7038.7
201902220118,7038.7,7040.3,7037.2,7037.4
201902220119,7037.4,7040,7037.3,7038.2
201902220120,7038,7039.4,7036.1,7036.1
201902220121,7036.2,7037.5,7035.7,7036.4
201902220122,7036.4,7037.5,7034.2,7036.6
201902220123,7036.7,7037.6,7035.6,7037.2
201902220124,7037.2,7039.8,7035.9,7038.9
201902220125,7038.9,7039.4,7035,7035
201902220126,7034.9,7038.9,7034.3,7038.6
201902220127,7038.6,7039.6,7037.9,7038.1
201902220128,7038.1,7038.1,7035.1,7035.1
201902220129,7035.2,7035.2,7032.2,7034
201902220130,7034,7036,7031.7,7034.9
201902220131,7034.9,7036.2,7034.5,7036
201902220132,7035.9,7037.7,7035.2,7036.8
201902220133,7036.8,7041,7036,7040.4
201902220134,7040.4,7041.2,7038.3,7041.2
201902220135,7041.6,7041.6,7039.4,7040.4
201902220136,7040.4,7041.6,7039.7,7040.3
201902220137,7040.3,7041.4,7039.3,7040.4
201902220138,7040.4,7041.3,7040.2,7040.7
201902220139,7040.7,7041.5,7038.3,7038.6
201902220140,7038.7,7042.7,7038.7,7041.9
201902220141,7042.1,7043.7,7041.1,7041.3
201902220142,7041.3,7042.4,7040.2,7042.2
201902220143,7042.2,7042.4,7040.8,7041.8
201902220144,7041.9,7042,7040.4,7040.5
201902220145,7040.5,7041,7038.2,7038.7
201902220146,7038.7,7039,7036.9,7036.9
201902220147,7036.9,7037.8,7036.1,7036.4
201902220148,7036.4,7036.9,7035.4,7035.7
201902220149,7035.6,7038.1,7035.4,7037.5
201902220150,7037.7,7038.2,7035.9,7036.5
201902220151,7036.5,7036.7,7035.4,7035.8
201902220152,7035.9,7038.4,7035.9,7037.6
201902220153,7037.6,7048.1,7037.6,7044.1
201902220154,7044.1,7045.8,7043.4,7045.8
201902220155,7045.9,7045.9,7043.3,7044
201902220156,7043.9,7050.6,7043.9,7049
201902220157,7049,7054.5,7048.1,7054.5
201902220158,7054.5,7058,7053.4,7053.6
201902220159,7053.6,7053.9,7052.3,7053.2
201902220200,7053.3,7058,7053,7057.9
201902220201,7057.9,7059.6,7057,7057.2
201902220202,7057,7058.1,7054.7,7055.2
201902220203,7055.2,7055.4,7053.4,7055.2
201902220204,7055.2,7056.9,7054.8,7055
201902220205,7055,7056.9,7054.5,7054.9
201902220206,7054.9,7056.8,7054.5,7056.5
201902220207,7056.5,7058,7055.2,7055.2
201902220208,7055.3,7055.5,7054.2,7054.7
201902220209,7054.6,7054.8,7053.9,7054.2
201902220210,7054.2,7055.8,7053.7,7054.4
201902220211,7054.4,7055.2,7053.7,7053.7
201902220212,7053.9,7056.5,7051.7,7053.4
201902220213,7053.4,7055.9,7053.1,7055
201902220214,7055,7055.5,7053.1,7053.3
201902220215,7053.1,7053.6,7051.4,7053.4
201902220216,7053.4,7053.5,7051.8,7053.4
201902220217,7053.4,7056.3,7053.4,7055
201902220218,7055.2,7056.6,7054.7,7056.3
201902220219,7056.4,7056.7,7055,7055.2
201902220220,7055.2,7056.1,7054.5,7055.3
201902220221,7055.2,7061.5,7055.2,7060.8
201902220222,7060.8,7062.5,7059.7,7061.8
201902220223,7061.9,7061.9,7058.2,7058.6
201902220224,7058.7,7060.1,7058.7,7059.7
201902220225,7059.7,7060.8,7059.2,7059.8
201902220226,7059.8,7061.4,7059.7,7061.2
201902220227,7061.2,7062.2,7060.4,7061.3
201902220228,7061.3,7061.7,7060.3,7061.2
201902220229,7061.2,7061.8,7060.5,7061.2
201902220230,7061.1,7063.7,7061.1,7063.4
201902220231,7063.4,7063.4,7062.4,7063.3
201902220232,7063.3,7065.3,7062.8,7065.2
201902220233,7065.2,7069,7065.1,7066.1
201902220234,7066.1,7066.1,7062.1,7062.3
201902220235,7062.3,7063.5,7062.2,7062.2
201902220236,7062.2,7063.3,7061.1,7061.1
201902220237,7061.4,7062.2,7061.1,7061.5
201902220238,7061.5,7065.1,7061.3,7064.9
201902220239,7064.9,7066,7060.5,7061.7
201902220240,7061.9,7068,7061.9,7065.9
201902220241,7065.9,7065.9,7063.4,7064.5
201902220242,7064.5,7065.2,7062.7,7063.7
201902220243,7063.9,7064.8,7062.9,7063.5
201902220244,7063.6,7063.9,7062.5,7063
201902220245,7063,7063.5,7061.5,7063.3
201902220246,7063.7,7064,7061.9,7061.9
201902220247,7061.9,7063.5,7061.5,7062.9
201902220248,7062.9,7063.8,7060.9,7060.9
201902220249,7060.9,7062.3,7059.3,7062.3
201902220250,7062.3,7063.4,7061.4,7063.3
201902220251,7063.2,7065.4,7063.2,7064.9
201902220252,7064.9,7065.5,7063.2,7064.6
201902220253,7064.6,7065.5,7063.8,7064.2
201902220254,7064.2,7066.5,7064.2,7066.4
201902220255,7066.4,7066.7,7064.9,7065.6
201902220256,7065.5,7066.2,7064.9,7065.4
201902220257,7065.4,7067.2,7065.4,7066.8
201902220258,7066.8,7066.9,7065.9,7066.3
201902220259,7066.4,7067.7,7066,7067.5
201902220300,7067.7,7068.3,7064,7064.6
201902220301,7064.6,7065.3,7063.7,7063.9
201902220302,7063.8,7065.7,7063.8,7065.3
201902220303,7065.3,7066.4,7064.5,7064.5
201902220304,7064.5,7066,7064.5,7065.4
201902220305,7065.4,7065.8,7064.2,7065.3
201902220306,7065.4,7066.5,7065.4,7065.7
201902220307,7066,7066.6,7064.7,7065
201902220308,7065,7066.9,7064.5,7066.5
201902220309,7066.5,7067.1,7066.1,7066.2
201902220310,7066.2,7066.4,7064.4,7065.2
201902220311,7065.2,7066.3,7065,7065.2
201902220312,7065.2,7066.9,7064.2,7066.5
201902220313,7066.6,7066.9,7065.2,7066.9
201902220314,7066.9,7066.9,7064.9,7065
201902220315,7065,7065.6,7063.5,7064
201902220316,7064,7064.2,7062.2,7063.1
201902220317,7063.1,7064.5,7063,7063.6
201902220318,7063.6,7064.1,7062.6,7063
201902220319,7063,7063.7,7062.7,7062.9
201902220320,7062.9,7064.9,7062.9,7064.4
201902220321,7064.4,7064.9,7062.6,7063
201902220322,7063,7063.2,7062.5,7063.2
201902220323,7063,7063.5,7062.1,7063.1
201902220324,7063.1,7064,7062.4,7063.8
201902220325,7063.8,7063.9,7060.2,7061.7
201902220326,7061.7,7061.7,7056.7,7057.1
201902220327,7057.1,7058.3,7056.4,7058.3
201902220328,7058.2,7058.5,7057.2,7057.7
201902220329,7057.7,7059.2,7057.3,7059.1
201902220330,7059.1,7059.4,7057.9,7057.9
201902220331,7057.9,7058.3,7055.9,7057.3
201902220332,7057.3,7057.4,7054.3,7054.8
201902220333,7054.8,7056.9,7054.7,7056.5
201902220334,7056.5,7056.6,7055.4,7056.1
201902220335,7056.2,7057.5,7055.8,7055.9
201902220336,7055.8,7056.1,7053.6,7054.9
201902220337,7054.9,7055.2,7054.1,7054.5
201902220338,7054.8,7054.8,7052.9,7053.7
201902220339,7053.7,7054.2,7052.9,7053
201902220340,7053,7055.3,7052.7,7054.8
201902220341,7054.8,7056.2,7054.5,7056.2
201902220342,7056.2,7057.2,7055.5,7055.5
201902220343,7055.5,7055.9,7054.2,7055
201902220344,7055.2,7055.7,7053.9,7054.1
201902220345,7054.1,7054.8,7052.9,7054.4
201902220346,7054.4,7055.8,7054.4,7055.5
201902220347,7055.5,7057,7055.5,7056.5
201902220348,7056.5,7057.7,7056.2,7056.6
201902220349,7056.7,7057,7055.9,7056.9
201902220350,7057,7057.6,7056.4,7056.7
201902220351,7056.7,7057.2,7055.7,7056.6
201902220352,7056.6,7057.4,7054.4,7054.4
201902220353,7054.7,7056.8,7054.5,7056.8
201902220354,7056.9,7058.7,7055.9,7057.9
201902220355,7057.9,7057.9,7056.1,7057.2
201902220356,7057.2,7059.4,7056.9,7059.2
201902220357,7059.3,7059.6,7057.6,7058.2
201902220358,7058.2,7058.5,7057.5,7057.7
201902220359,7057.7,7058.4,7057.2,7057.5
201902220400,7057.5,7058.9,7057.4,7058.6
201902220401,7058.6,7059,7058.2,7059
201902220402,7059,7060.3,7058.6,7059.5
201902220403,7059.5,7059.6,7057.9,7057.9
201902220404,7057.9,7058.1,7055.4,7055.6
201902220405,7055.6,7055.6,7054.4,7055.1
201902220406,7055.1,7055.6,7053.9,7054.9
201902220407,7054.9,7056.7,7054.7,7056.2
201902220408,7056.2,7056.6,7055,7055
201902220409,7055,7055.4,7052.8,7053.6
201902220410,7053.6,7054,7051.7,7053
201902220411,7053,7054.4,7052.7,7053.7
201902220412,7053.6,7053.8,7049.7,7050.8
201902220413,7050.8,7050.8,7048.5,7049
201902220414,7049,7049.5,7048,7048.4
201902220415,7048.4,7048.4,7045.5,7046.2
201902220416,7046.3,7046.5,7043.6,7044.3
201902220417,7044.3,7044.7,7042.9,7044
201902220418,7044,7044.4,7042.9,7044.4
201902220419,7044.4,7045.2,7041.2,7042.2
201902220420,7042.2,7043.7,7042.1,7043.1
201902220421,7043.1,7043.7,7042.6,7042.6
201902220422,7042.6,7043.2,7041,7042.3
201902220423,7042.2,7042.3,7038.7,7039
201902220424,7039,7039.3,7034.2,7034.5
201902220425,7034.5,7034.5,7029.2,7030.1
201902220426,7030.2,7033.5,7027.6,7033.1
201902220427,7033.1,7035.1,7032.2,7035.1
201902220428,7035.1,7035.1,7032.3,7032.8
201902220429,7032.8,7034.4,7032.4,7034.3
201902220430,7034.4,7036.6,7034,7034.8
201902220431,7034.8,7036.4,7034.8,7036.1
201902220432,7036.1,7036.2,7035.2,7035.2
201902220433,7035.1,7035.1,7032.2,7032.2
201902220434,7032.2,7034.6,7031.9,7034.5
201902220435,7034.5,7034.7,7032,7032.5
201902220436,7032.4,7035,7032.4,7034.3
201902220437,7034.3,7034.5,7033.7,7034.2
201902220438,7034.2,7034.5,7031.2,7032.9
201902220439,7032.9,7033.4,7031.2,7032
201902220440,7032,7033.1,7030.4,7032.5
201902220441,7032.5,7036.5,7032.4,7036.4
201902220442,7036.4,7036.5,7032.9,7032.9
201902220443,7032.9,7032.9,7031.7,7032.9
201902220444,7032.9,7034.7,7032.9,7034.3
201902220445,7034.3,7034.3,7032.4,7033.2
201902220446,7033.3,7034.6,7031.2,7031.2
201902220447,7031.2,7031.2,7023.2,7024.2
201902220448,7024.2,7024.2,7020.7,7020.9
201902220449,7020.4,7022.2,7020,7022.2
201902220450,7022.2,7022.2,7019.9,7020.4
201902220451,7020.4,7020.4,7017.6,7018.1
201902220452,7018.2,7018.2,7015.2,7016.2
201902220453,7016.2,7018.2,7015.5,7016.3
201902220454,7016.3,7018.9,7015.2,7017.8
201902220455,7017.8,7019.5,7017,7019.5
201902220456,7019.5,7020.4,7018.7,7020.4
201902220457,7020.4,7021.1,7019.4,7019.4
201902220458,7019.4,7021.7,7019.1,7020.1
201902220459,7020.1,7020.8,7019.5,7020.7
201902220500,7020.7,7023.5,7017.7,7023.2
201902220501,7023.2,7024,7022.4,7023
201902220502,7023,7025,7022.4,7023.1
201902220503,7023.1,7024.3,7022.5,7023.9
201902220504,7023.9,7025,7022.7,7023.4
201902220505,7023.3,7024.5,7023.2,7024.2
201902220506,7024.2,7026.5,7024,7026.4
201902220507,7026.4,7027.5,7024.9,7027.5
201902220508,7027.5,7030.9,7027.3,7030
201902220509,7030,7030.7,7028.7,7028.7
201902220510,7028.6,7029.7,7028.2,7029.2
201902220511,7029.1,7029.1,7025.9,7026.1
201902220512,7026.1,7026.5,7025.4,7025.4
201902220513,7025.4,7028.8,7024.8,7028.2
201902220514,7028.2,7028.3,7025.4,7025.8
201902220515,7025.8,7029.3,7025.7,7027.5
201902220516,7027.5,7027.9,7026.6,7027.1
201902220517,7027.1,7028.7,7026.6,7027.8
201902220518,7027.8,7027.8,7023.6,7024.7
201902220519,7024.7,7026.6,7024.5,7024.9
201902220520,7024.9,7027,7024.6,7027
201902220521,7027,7027.9,7026.1,7027.3
201902220522,7026.9,7028,7025.7,7026.1
201902220523,7026,7026,7023.6,7023.9
201902220524,7023.7,7026.2,7023.4,7026.2
201902220525,7026,7027.7,7024.6,7024.9
201902220526,7024.9,7025.2,7022.9,7025
201902220527,7025,7025.2,7024.4,7024.6
201902220528,7024.6,7025.1,7023,7024.9
201902220529,7024.9,7026,7024.2,7024.2
201902220530,7024.2,7026.2,7021.1,7021.7
201902220531,7021.6,7022.1,7015.4,7015.7
201902220532,7015.7,7016.9,7013.3,7014.5
201902220533,7014.4,7018.5,7014.4,7018.3
201902220534,7018.3,7022.2,7017.7,7018.2
201902220535,7017.8,7018.5,7016.4,7017.2
201902220536,7017.2,7017.8,7016.7,7017.8
201902220537,7017.5,7020,7017.5,7019
201902220538,7019.1,7019.5,7017.7,7019
201902220539,7019,7022.5,7018.7,7021.2
201902220540,7021.2,7022.6,7018.6,7019.5
201902220541,7019.5,7024.1,7018.7,7022.2
201902220542,7022.2,7022.7,7020.2,7020.9
201902220543,7020.9,7021.5,7018.8,7018.9
201902220544,7018.9,7022.5,7018.7,7022.5
201902220545,7022.5,7028.4,7022.5,7027.9
201902220546,7027.9,7029.5,7026,7026.2
201902220547,7026.2,7030.7,7026,7028.8
201902220548,7028.7,7030,7028.1,7028.2
201902220549,7028.2,7030.8,7028,7029.9
201902220550,7029.8,7031.7,7029.7,7030.3
201902220551,7030.3,7031.2,7028,7028.3
201902220552,7028.4,7029,7028,7028.3
201902220553,7028.2,7028.5,7027.4,7028.3
201902220554,7028.4,7031.9,7028.4,7029.7
201902220555,7029.7,7038.7,7029.7,7036.7
201902220556,7036.5,7037,7034.5,7035.5
201902220557,7035.5,7037.9,7035.5,7037.6
201902220558,7037.7,7039,7037.5,7038.1
201902220559,7038.1,7041.2,7038.1,7041.2
201902220600,7042.3,7044.5,7040.2,7043.8
201902220601,7043.8,7044.5,7041.8,7041.9
201902220602,7041.9,7042.7,7040.9,7041.5
201902220603,7041.5,7042.8,7041,7042.3
201902220604,7042.3,7042.5,7040.1,7042.1
201902220605,7041.9,7042.6,7041.4,7041.6
201902220606,7041.6,7041.9,7040.9,7041.1
201902220607,7041.1,7041.1,7039.4,7039.5
201902220608,7039.5,7039.7,7039.1,7039.4
201902220609,7039.4,7041,7039.4,7040.9
201902220610,7040.9,7041.3,7040.8,7041.1
201902220611,7041.2,7041.2,7040.4,7040.9
201902220612,7040.9,7041.1,7039.9,7040.1
201902220613,7040.1,7040.1,7037.1,7037.1
201902220614,7037.1,7037.1,7033.4,7035.1
