日時,始値(BID),高値(BID),安値(BID),終値(BID)
201902120800,6908,6909.4,6905.9,6906.9
201902120801,6906.9,6906.9,6904.9,6906.1
201902120802,6905.9,6907.3,6905,6906.8
201902120803,6906.8,6907.6,6906.6,6907.1
201902120804,6907.1,6907.9,6907.1,6907.8
201902120805,6907.8,6908.3,6907.6,6907.6
201902120806,6907.6,6907.8,6906.6,6906.8
201902120807,6906.8,6907.3,6906.4,6907.1
201902120808,6907.1,6907.4,6907.1,6907.2
201902120809,6907.2,6907.2,6906.7,6906.9
201902120810,6906.9,6906.9,6906.5,6906.5
201902120811,6906.5,6906.7,6906.2,6906.6
201902120812,6906.5,6906.9,6906.3,6906.7
201902120813,6906.7,6906.9,6906.7,6906.7
201902120814,6906.7,6906.7,6905.5,6905.8
201902120815,6905.8,6905.8,6905.4,6905.4
201902120816,6905.4,6905.4,6904,6904.5
201902120817,6904.4,6904.7,6904.3,6904.3
201902120818,6904.3,6904.6,6904,6904.4
201902120819,6904.3,6905.7,6904.1,6905.7
201902120820,6905.7,6906.4,6905.7,6906
201902120821,6906,6906.3,6905.9,6906
201902120822,6905.9,6906,6905.9,6905.9
201902120823,6906.1,6907.3,6906.1,6907.3
201902120824,6907.2,6907.3,6906.8,6906.8
201902120825,6906.8,6906.8,6906.3,6906.4
201902120826,6906.3,6906.8,6906.3,6906.6
201902120827,6906.6,6906.8,6906.5,6906.5
201902120828,6906.7,6906.7,6906.6,6906.6
201902120829,6906.6,6906.7,6906.6,6906.7
201902120830,6906.7,6907.3,6906.6,6906.6
201902120831,6906.6,6906.8,6905.6,6905.9
201902120832,6905.8,6905.8,6905.4,6905.5
201902120833,6905.5,6907.3,6905.5,6907.3
201902120834,6907.3,6907.3,6906.8,6906.8
201902120835,6906.8,6908.5,6906.8,6908.5
201902120836,6908.5,6910.1,6908.5,6909.5
201902120837,6909.5,6909.6,6909.4,6909.4
201902120838,6909.4,6909.8,6908.8,6909.1
201902120839,6909.1,6909.1,6908,6908.9
201902120840,6908.9,6909.4,6908.8,6909.3
201902120841,6909.3,6909.9,6909.3,6909.7
201902120842,6909.7,6911.6,6909.7,6911.4
201902120843,6911.4,6911.6,6910.3,6910.8
201902120844,6910.9,6911.4,6910.4,6911
201902120845,6911,6912.3,6911,6911.8
201902120846,6911.8,6911.8,6910.8,6910.9
201902120847,6910.9,6911.7,6910.5,6911.4
201902120848,6911.5,6912.2,6911.4,6911.7
201902120849,6911.7,6912.1,6911.6,6912.1
201902120850,6912.1,6912.8,6911.9,6912.6
201902120851,6912.6,6913,6912.4,6912.6
201902120852,6912.6,6912.9,6912.4,6912.9
201902120853,6912.8,6912.8,6911.6,6911.9
201902120854,6911.9,6912.4,6911.4,6911.4
201902120855,6911.3,6911.5,6910.4,6910.5
201902120856,6910.5,6912.5,6910.5,6912.3
201902120857,6912.3,6912.9,6912.3,6912.3
201902120858,6912.3,6915.4,6912.3,6913.8
201902120859,6913.8,6914.2,6912.8,6914.2
201902120900,6914.2,6914.3,6911.8,6911.8
201902120901,6911.5,6915.5,6911.5,6914.3
201902120902,6914.3,6916.3,6914.3,6915.3
201902120903,6915.3,6915.3,6913.5,6914.1
201902120904,6914.1,6914.8,6913.9,6914.2
201902120905,6914.2,6916.1,6914.2,6915.6
201902120906,6915.6,6917,6915.6,6915.8
201902120907,6915.7,6917,6915.7,6916.4
201902120908,6916.4,6919.1,6916.2,6917.8
201902120909,6917.8,6919.4,6917.7,6919.3
201902120910,6919.3,6921,6918,6918
201902120911,6918,6918.7,6917.8,6918.3
201902120912,6918.4,6920.6,6918.4,6920.1
201902120913,6920.1,6920.9,6919.4,6920.1
201902120914,6920.1,6921.2,6919.9,6919.9
201902120915,6919.8,6920.4,6919.6,6919.8
201902120916,6919.8,6919.8,6918.9,6919.2
201902120917,6919.2,6919.6,6917.7,6918.6
201902120918,6918.6,6918.6,6917.7,6917.8
201902120919,6917.9,6919.1,6917.9,6918.8
201902120920,6918.7,6919.5,6918.7,6919.4
201902120921,6919.3,6919.3,6918.4,6918.8
201902120922,6919,6919.6,6918.8,6919.6
201902120923,6919.6,6920.3,6919.6,6919.8
201902120924,6919.8,6920.7,6919.7,6920.7
201902120925,6920.7,6922.1,6920.7,6921.3
201902120926,6921.3,6922.3,6921.3,6922.1
201902120927,6922.1,6923.6,6922,6923.1
201902120928,6923.1,6924.3,6922.8,6923.6
201902120929,6923.6,6923.8,6922.4,6922.6
201902120930,6922.6,6924.5,6922.6,6923.6
201902120931,6923.6,6928.3,6923.4,6927
201902120932,6927,6929.1,6926.4,6928.8
201902120933,6928.8,6932.6,6927.7,6931.8
201902120934,6931.9,6933.2,6930.3,6930.5
201902120935,6930.5,6932.6,6930.5,6932.6
201902120936,6932.6,6932.6,6930.6,6930.8
201902120937,6930.8,6932.5,6929.9,6931.2
201902120938,6931.2,6932.5,6931.2,6932
201902120939,6932,6932.1,6931.4,6931.4
201902120940,6931.1,6932.3,6930.9,6931.4
201902120941,6931.4,6931.6,6930.7,6930.7
201902120942,6930.7,6931.5,6930.2,6931.4
201902120943,6931.3,6931.3,6930.6,6931.3
201902120944,6931.3,6932.6,6931.3,6932.3
201902120945,6932.3,6935.8,6932.3,6935
201902120946,6935,6935.5,6933.9,6934.3
201902120947,6934.3,6934.6,6933.5,6933.5
201902120948,6933.5,6934.2,6933.3,6933.8
201902120949,6933.8,6934.6,6933.4,6933.4
201902120950,6933.4,6933.9,6933.1,6933.7
201902120951,6933.6,6933.6,6932.3,6932.6
201902120952,6932.7,6932.7,6930.1,6930.8
201902120953,6930.9,6932,6930.4,6930.4
201902120954,6930.4,6931.2,6928.9,6929.5
201902120955,6929.5,6930.4,6929.1,6929.2
201902120956,6929.2,6930.8,6929.2,6929.8
201902120957,6929.8,6929.9,6929,6929.2
201902120958,6929.1,6929.6,6929.1,6929.3
201902120959,6929.3,6930.4,6928.4,6928.4
201902121000,6928.4,6929.3,6927.1,6927.8
201902121001,6927.9,6928.1,6925.7,6926.5
201902121002,6926.4,6926.5,6925.5,6925.5
201902121003,6925.5,6925.8,6924.7,6925.4
201902121004,6925.4,6926.3,6925,6926.3
201902121005,6926.3,6928,6926.3,6927.7
201902121006,6927.7,6928,6926.9,6927.8
201902121007,6927.8,6928.1,6926.8,6927
201902121008,6927,6927.9,6926.4,6926.4
201902121009,6926.4,6927.6,6926.4,6927.6
201902121010,6927.6,6930.1,6927.4,6929.4
201902121011,6929.5,6929.9,6925.6,6925.6
201902121012,6925.6,6925.8,6924,6925.1
201902121013,6925.1,6926.3,6925.1,6926.1
201902121014,6926.1,6926.8,6926.1,6926.3
201902121015,6926.4,6927.4,6926.1,6926.5
201902121016,6926.5,6926.8,6925.1,6925.1
201902121017,6925.1,6925.1,6923,6923.7
201902121018,6923.7,6924.6,6923.5,6924
201902121019,6923.9,6925.3,6923.9,6924.9
201902121020,6924.9,6924.9,6922.3,6923.2
201902121021,6923.2,6924.2,6922.9,6923.7
201902121022,6923.6,6925,6923.6,6925
201902121023,6925,6926.3,6924.9,6925.9
201902121024,6925.8,6926.6,6925.6,6926.3
201902121025,6926.3,6926.4,6925.3,6926.1
201902121026,6926.1,6927.5,6926.1,6926.7
201902121027,6926.7,6927.1,6926.4,6926.4
201902121028,6926.4,6931.1,6926.3,6931.1
201902121029,6931.1,6932.8,6930.6,6931.7
201902121030,6931.7,6933.3,6929,6933.3
201902121031,6933.3,6939.8,6932.6,6938.9
201902121032,6938.8,6939.9,6936.3,6936.3
201902121033,6936.3,6942.5,6934.8,6942.5
201902121034,6942.5,6943.3,6941.4,6942.2
201902121035,6942.2,6942.8,6939.3,6939.8
201902121036,6939.9,6941.5,6939.9,6940.9
201902121037,6940.9,6941.3,6939.2,6939.2
201902121038,6939.2,6939.8,6938.1,6939.1
201902121039,6939.1,6940,6938.2,6938.7
201902121040,6938.7,6938.8,6937.7,6938.2
201902121041,6938.1,6938.5,6937.3,6937.8
201902121042,6937.8,6938.6,6936.9,6937.1
201902121043,6937.2,6937.5,6936.1,6937.5
201902121044,6937.5,6937.9,6936.8,6937.8
201902121045,6937.8,6937.8,6933.4,6933.8
201902121046,6933.8,6934.3,6931.8,6931.8
201902121047,6931.5,6934.6,6930.6,6933.3
201902121048,6933.3,6933.9,6932.6,6933.5
201902121049,6933.6,6934.4,6933.4,6933.9
201902121050,6933.9,6935,6933.4,6934.9
201902121051,6935.1,6936.3,6934.7,6935.9
201902121052,6935.9,6937.1,6935.3,6936.9
201902121053,6936.9,6937,6935.5,6936
201902121054,6936.1,6938.3,6935.8,6938.3
201902121055,6938.4,6938.4,6936.8,6937.1
201902121056,6937.1,6938.1,6937.1,6937.6
201902121057,6937.6,6937.8,6937.2,6937.3
201902121058,6937.3,6939.1,6937.2,6939.1
201902121059,6939.1,6943.2,6938.5,6942.8
201902121100,6942.8,6943.1,6939.9,6940.8
201902121101,6940.8,6941.1,6940.1,6940.4
201902121102,6940.4,6941.5,6939,6939.1
201902121103,6939.2,6940.5,6939.2,6939.8
201902121104,6939.8,6940.3,6938.9,6940
201902121105,6940,6942,6939.6,6940.7
201902121106,6940.6,6941.3,6940.2,6940.8
201902121107,6940.8,6940.8,6938,6938.7
201902121108,6938.7,6939.7,6938.6,6938.8
201902121109,6938.8,6939.9,6938.8,6939
201902121110,6939,6939,6936.9,6937.7
201902121111,6937.8,6939.9,6937.8,6939.8
201902121112,6939.8,6940.2,6938.7,6940.2
201902121113,6940.2,6940.2,6939.1,6939.5
201902121114,6939.5,6941.4,6939.3,6941.2
201902121115,6941.1,6941.1,6939.4,6939.7
201902121116,6939.6,6940.1,6939.2,6939.5
201902121117,6939.5,6939.5,6937.4,6938.3
201902121118,6938.3,6938.9,6937.9,6937.9
201902121119,6937.9,6938.3,6937.1,6937.6
201902121120,6937.6,6938.5,6937.6,6938.4
201902121121,6938.3,6940.3,6937.6,6939.8
201902121122,6939.8,6939.9,6939,6939.5
201902121123,6939.5,6939.8,6938.6,6939.1
201902121124,6939.1,6939.4,6938.4,6939
201902121125,6938.8,6940.8,6938.6,6940.4
201902121126,6940.4,6941.9,6939.6,6939.9
201902121127,6939.7,6939.7,6938.7,6938.9
201902121128,6939,6940.3,6938.9,6939.9
201902121129,6939.9,6940.3,6939.6,6939.9
201902121130,6939.9,6940.5,6939.5,6939.5
201902121131,6939.4,6939.4,6938,6938
201902121132,6938,6938.3,6936.7,6937.5
201902121133,6937.5,6938.5,6937.4,6938.4
201902121134,6938.4,6940.1,6938.1,6939.9
201902121135,6939.9,6941.9,6939.8,6941.7
201902121136,6941.6,6943.4,6940.9,6943.4
201902121137,6943.2,6947,6943.2,6946.4
201902121138,6946.4,6950.8,6946.4,6950.8
201902121139,6950.8,6956.3,6950.4,6955.9
201902121140,6955.8,6958.3,6955.2,6957
201902121141,6957,6957,6953.9,6955.1
201902121142,6955.1,6955.1,6953.3,6954.5
201902121143,6954.6,6955.1,6953.9,6953.9
201902121144,6953.9,6956.9,6953.9,6955
201902121145,6955,6957.3,6954.6,6957.3
201902121146,6956.9,6957.2,6954.5,6954.5
201902121147,6954.5,6955.4,6953.9,6955
201902121148,6955,6956.1,6954,6954.1
201902121149,6954.2,6954.3,6953.3,6954
201902121150,6954.1,6955.2,6953.7,6953.9
201902121151,6953.8,6955.6,6953.8,6954.8
201902121152,6954.8,6954.8,6953.9,6954.2
201902121153,6954.2,6956,6954,6954.9
201902121154,6954.9,6956.3,6954.7,6956.3
201902121155,6956.3,6956.9,6954.8,6955
201902121156,6955,6956.7,6955,6956.7
201902121157,6956.7,6956.7,6955.4,6955.4
201902121158,6955.4,6955.6,6954.6,6955
201902121159,6955,6956.1,6955,6956.1
201902121200,6956.1,6957.3,6954.2,6954.3
201902121201,6954.3,6955.1,6954.1,6954.2
201902121202,6954.2,6954.7,6953.2,6954.4
201902121203,6954.4,6954.4,6952.4,6953.8
201902121204,6953.5,6954,6952,6952.8
201902121205,6952.8,6953.8,6952.7,6953.5
201902121206,6953.5,6954.9,6953.1,6954.9
201902121207,6955.1,6957.3,6954.8,6957.1
201902121208,6957.1,6957.3,6956.6,6956.6
201902121209,6956.5,6957.3,6956.4,6956.7
201902121210,6956.8,6959.4,6956.8,6959.1
201902121211,6959.1,6959.1,6956.9,6957.3
201902121212,6957.3,6958.3,6957.3,6957.9
201902121213,6957.9,6958.1,6955.2,6955.3
201902121214,6955.3,6956.4,6955.2,6956.1
201902121215,6956.2,6956.8,6955.3,6955.6
201902121216,6955.6,6956.3,6955.3,6955.3
201902121217,6955.4,6955.8,6955,6955
201902121218,6955.1,6955.1,6954,6954.1
201902121219,6954.2,6955,6954,6954.9
201902121220,6954.9,6955.2,6954.6,6955.1
201902121221,6955.1,6956.7,6955.1,6956.3
201902121222,6956.3,6957.3,6956.1,6956.6
201902121223,6956.6,6956.9,6955.9,6956.1
201902121224,6956.1,6957.1,6956.1,6957.1
201902121225,6957,6958.2,6956.7,6958.2
201902121226,6958.2,6959.5,6958.2,6958.8
201902121227,6958.9,6959.5,6958.4,6958.8
201902121228,6958.8,6958.9,6957.7,6957.7
201902121229,6957.7,6957.7,6956.7,6956.7
201902121230,6956.7,6958.3,6956.7,6957.7
201902121231,6957.7,6958.6,6957.4,6958.4
201902121232,6958.4,6958.5,6957.7,6958.2
201902121233,6958.2,6958.3,6957.8,6957.9
201902121234,6957.9,6958.7,6957.3,6958.7
201902121235,6958.7,6958.8,6957.4,6958.4
201902121236,6958.4,6958.8,6957.7,6958.6
201902121237,6958.6,6958.6,6957.8,6957.8
201902121238,6957.8,6958.5,6957.7,6958.4
201902121239,6958.4,6958.5,6957.9,6958.3
201902121240,6958.3,6959.3,6957.7,6958
201902121241,6958,6958.9,6957.8,6958.8
201902121242,6958.8,6960.9,6958.8,6959.4
201902121243,6959.4,6959.4,6958.5,6959.3
201902121244,6959.4,6959.5,6958.9,6959.2
201902121245,6959.1,6959.2,6958.3,6958.3
201902121246,6958.3,6958.4,6957.6,6958.1
201902121247,6958,6959.1,6958,6958.9
201902121248,6958.9,6959.9,6958.3,6959.7
201902121249,6959.7,6959.7,6959.1,6959.4
201902121250,6959.2,6959.2,6958.6,6958.7
201902121251,6958.7,6958.8,6957.9,6958.2
201902121252,6958.2,6958.3,6957.9,6957.9
201902121253,6957.9,6958.1,6957.4,6958
201902121254,6958,6960.5,6958,6960.3
201902121255,6960.3,6961,6959.9,6960.6
201902121256,6960.6,6961.6,6960.1,6961.4
201902121257,6961.3,6962.2,6960.5,6961.7
201902121258,6961.7,6962.6,6960.8,6960.8
201902121259,6960.8,6961.4,6960.8,6961.3
201902121300,6961.2,6961.8,6961.1,6961.7
201902121301,6961.7,6961.7,6960.8,6961.4
201902121302,6961.4,6961.5,6961,6961.2
201902121303,6961.2,6961.6,6960.4,6961.5
201902121304,6961.5,6962.7,6961.1,6962.4
201902121305,6962.4,6963.2,6961.2,6961.2
201902121306,6961.2,6961.5,6961,6961.2
201902121307,6961.1,6961.2,6960.6,6960.8
201902121308,6960.8,6960.8,6958.7,6959
201902121309,6959,6959.3,6958.5,6958.5
201902121310,6958.6,6959.3,6958.4,6959.3
201902121311,6959.3,6959.3,6958.4,6958.4
201902121312,6958.3,6958.4,6957.4,6958.2
201902121313,6958.2,6958.3,6956.9,6957.3
201902121314,6957.3,6957.9,6956.9,6957.5
201902121315,6957.4,6958,6957.4,6957.6
201902121316,6957.7,6958,6957.1,6957.1
201902121317,6957.1,6957.5,6957,6957.4
201902121318,6957.4,6958,6957.3,6957.8
201902121319,6957.8,6958.3,6957.6,6957.6
201902121320,6957.7,6957.9,6957.1,6957.1
201902121321,6957.1,6957.2,6956.3,6956.8
201902121322,6956.8,6957.2,6956.4,6956.7
201902121323,6956.7,6957.3,6956.5,6957
201902121324,6957.3,6957.3,6956.5,6956.6
201902121325,6956.7,6957,6956.2,6956.3
201902121326,6956.3,6956.3,6954.9,6955.5
201902121327,6955.5,6955.5,6954.9,6955.3
201902121328,6955.3,6955.6,6955.2,6955.4
201902121329,6955.4,6955.5,6954.9,6955.5
201902121330,6955.5,6958,6955.5,6957.4
201902121331,6957.4,6957.4,6956.1,6956.1
201902121332,6956.1,6956.4,6955.9,6956.2
201902121333,6956.2,6956.2,6955.7,6955.8
201902121334,6955.8,6956.8,6955.8,6956.8
201902121335,6956.8,6956.8,6955.7,6956.2
201902121336,6956.2,6956.3,6955.9,6956.3
201902121337,6956.3,6956.8,6956.3,6956.3
201902121338,6956.3,6956.5,6955.8,6955.9
201902121339,6955.9,6956.4,6955.7,6956.1
201902121340,6956.1,6956.1,6955.1,6955.7
201902121341,6955.6,6955.8,6955.4,6955.6
201902121342,6955.6,6955.7,6955.3,6955.6
201902121343,6955.6,6955.6,6954.4,6954.7
201902121344,6954.7,6955.1,6954.4,6954.9
201902121345,6954.8,6955,6954.3,6954.8
201902121346,6954.9,6955.5,6954.8,6954.8
201902121347,6954.8,6954.8,6954.2,6954.2
201902121348,6954.2,6954.6,6954.2,6954.3
201902121349,6954.4,6956.1,6954.1,6955.9
201902121350,6955.9,6956.2,6955,6955
201902121351,6954.9,6954.9,6954.4,6954.9
201902121352,6954.9,6955,6953.8,6953.8
201902121353,6953.8,6954.5,6953.8,6954.4
201902121354,6954.4,6954.8,6954.3,6954.4
201902121355,6954.4,6954.4,6953.9,6954
201902121356,6954,6955,6953.8,6954.8
201902121357,6954.8,6955.1,6954.7,6954.9
201902121358,6954.9,6955.2,6954.8,6955.2
201902121359,6955.2,6955.5,6955,6955.1
201902121400,6955.1,6955.1,6954.4,6954.6
201902121401,6954.6,6955,6954.1,6954.9
201902121402,6954.9,6955.1,6953.4,6953.6
201902121403,6953.7,6954.8,6953.5,6954.3
201902121404,6954.3,6954.3,6953.6,6953.8
201902121405,6953.8,6953.8,6953.2,6953.4
201902121406,6953.4,6953.6,6953.1,6953.2
201902121407,6953.2,6953.3,6952.6,6953.1
201902121408,6953,6953.1,6952.3,6952.7
201902121409,6952.7,6953.4,6952.4,6953.4
201902121410,6953.4,6953.6,6952.4,6952.7
201902121411,6952.7,6952.9,6952.3,6952.9
201902121412,6952.9,6953.4,6952.6,6953.3
201902121413,6953.3,6953.3,6952.9,6953
201902121414,6953,6953.3,6952.9,6953.3
201902121415,6953.3,6953.6,6952.9,6953
201902121416,6953,6953.5,6952.9,6953
201902121417,6953,6953.1,6952.1,6952.3
201902121418,6952.3,6953.1,6952.3,6953.1
201902121419,6953.1,6953.1,6952.6,6953.1
201902121420,6953.1,6953.6,6952.9,6953.3
201902121421,6953.4,6953.8,6953.3,6953.3
201902121422,6953.5,6954.6,6953.4,6954.6
201902121423,6954.6,6954.9,6954.1,6954.3
201902121424,6954.3,6954.3,6953.9,6953.9
201902121425,6953.9,6954,6953.3,6953.4
201902121426,6953.4,6953.4,6952.9,6952.9
201902121427,6952.9,6953,6952.3,6952.9
201902121428,6952.9,6952.9,6952.1,6952.7
201902121429,6952.7,6953.4,6952.4,6953.4
201902121430,6953.4,6954.5,6953.4,6953.8
201902121431,6953.8,6953.8,6953.1,6953.3
201902121432,6953.3,6954.5,6953.3,6954.4
201902121433,6954.4,6954.4,6952.8,6953.4
201902121434,6953.4,6953.6,6952.9,6952.9
201902121435,6952.9,6952.9,6952.5,6952.6
201902121436,6952.6,6953,6952.6,6952.7
201902121437,6952.7,6953.4,6952.6,6953.2
201902121438,6953,6953.2,6952.9,6953.1
201902121439,6953.1,6953.3,6952.7,6952.8
201902121440,6952.8,6952.8,6952.2,6952.4
201902121441,6952.4,6952.4,6950.9,6951
201902121442,6951,6952.1,6950.9,6951.9
201902121443,6951.9,6952.2,6951.7,6952.2
201902121444,6952.2,6952.9,6952.1,6952.9
201902121445,6952.9,6952.9,6952.2,6952.6
201902121446,6952.6,6952.9,6952.3,6952.5
201902121447,6952.4,6952.4,6952.3,6952.4
201902121448,6952.4,6952.4,6952.2,6952.3
201902121449,6952.3,6952.3,6951.9,6951.9
201902121450,6951.9,6952.1,6951.4,6951.4
201902121451,6951.3,6951.4,6950.9,6951.3
201902121452,6951.3,6951.4,6951.1,6951.4
201902121453,6951.4,6951.7,6951.1,6951.6
201902121454,6951.6,6951.9,6951.1,6951.9
201902121455,6951.9,6953.5,6951.9,6953.4
201902121456,6953.4,6953.4,6952.8,6952.9
201902121457,6952.9,6953.5,6952.8,6953.3
201902121458,6953.4,6955.1,6953.4,6954.8
201902121459,6954.7,6954.9,6953.7,6954
201902121500,6954,6955.3,6953.1,6955
201902121501,6955,6957.3,6955,6956.5
201902121502,6956.5,6957.6,6956.3,6957.6
201902121503,6957.5,6958.3,6957.1,6958
201902121504,6958,6958.5,6957.5,6958.5
201902121505,6958.6,6959.2,6958.4,6959.2
201902121506,6959.2,6960.8,6959.1,6959.5
201902121507,6959.4,6961.1,6959.4,6960.3
201902121508,6960.4,6961.1,6959.9,6960.9
201902121509,6960.9,6961.4,6960.7,6961.2
201902121510,6961.2,6961.2,6960.2,6960.3
201902121511,6960.3,6961,6960.2,6960.6
201902121512,6960.6,6960.8,6960.1,6960.3
201902121513,6960.3,6960.4,6960,6960.3
201902121514,6960.3,6961.1,6960.1,6960.9
201902121515,6960.9,6962,6960.9,6961.7
201902121516,6961.7,6962.2,6961.2,6961.5
201902121517,6961.5,6961.5,6960.9,6961.2
201902121518,6961.2,6961.4,6960.5,6960.7
201902121519,6960.8,6961.4,6960.7,6961
201902121520,6961,6961.4,6960.8,6960.9
201902121521,6960.9,6961.6,6960.6,6960.8
201902121522,6960.8,6960.8,6959.9,6959.9
201902121523,6959.9,6960,6959.3,6959.8
201902121524,6959.8,6960.1,6959.1,6959.4
201902121525,6959.4,6959.5,6958.9,6959.1
201902121526,6959.2,6959.9,6959.1,6959.5
201902121527,6959.5,6959.9,6959.3,6959.6
201902121528,6959.6,6959.6,6958.9,6958.9
201902121529,6958.9,6958.9,6958,6958.3
201902121530,6958.2,6958.5,6957.6,6957.6
201902121531,6957.7,6959.1,6957.7,6957.9
201902121532,6957.9,6958.4,6957.3,6957.8
201902121533,6957.8,6958.6,6957.6,6958.4
201902121534,6958.4,6958.8,6958.3,6958.8
201902121535,6958.8,6959.1,6957,6957.1
201902121536,6957.1,6957.6,6957.1,6957.6
201902121537,6957.6,6958.3,6957.5,6958.3
201902121538,6958.3,6958.7,6957.5,6957.5
201902121539,6957.6,6958.9,6957.6,6958.9
201902121540,6958.9,6959.3,6958.8,6959.3
201902121541,6959.3,6959.3,6958,6958.8
201902121542,6958.8,6959.3,6958.4,6958.4
201902121543,6958.4,6958.4,6957.9,6958
201902121544,6958.1,6959.2,6958.1,6959.2
201902121545,6959.2,6960.4,6959.1,6959.5
201902121546,6959.5,6960,6959.2,6959.8
201902121547,6959.8,6960.3,6959.8,6959.9
201902121548,6959.9,6959.9,6959.1,6959.9
201902121549,6959.8,6959.9,6959.7,6959.9
201902121550,6959.8,6960.1,6958.4,6958.6
201902121551,6958.8,6959.3,6958.1,6958.3
201902121552,6958.3,6960.3,6958.3,6959.6
201902121553,6959.7,6959.7,6958.6,6958.9
201902121554,6958.9,6960.3,6958.9,6959.8
201902121555,6959.8,6959.8,6958.8,6958.8
201902121556,6958.8,6959.3,6958.5,6958.6
201902121557,6958.7,6958.9,6958.2,6958.4
201902121558,6958.4,6959,6958.4,6958.8
201902121559,6958.8,6958.8,6958.2,6958.6
201902121600,6958.6,6960.9,6958.6,6960.1
201902121601,6960.1,6960.7,6959.6,6960.5
201902121602,6960.5,6960.8,6957.1,6957.1
201902121603,6957.1,6958.4,6957,6957.3
201902121604,6957.3,6958.1,6956.9,6957.1
201902121605,6957.5,6957.8,6957.1,6957.2
201902121606,6957.1,6959.1,6957.1,6958.4
201902121607,6958.4,6959.3,6958.4,6958.6
201902121608,6958.6,6958.9,6958.3,6958.9
201902121609,6958.9,6960.3,6958.8,6959.1
201902121610,6959.1,6959.3,6957.9,6958.3
201902121611,6958.3,6959.8,6958.3,6959.6
201902121612,6959.6,6960.5,6959.4,6960.2
201902121613,6960.2,6961.3,6960.2,6960.7
201902121614,6960.7,6961.8,6960.7,6961.6
201902121615,6961.6,6961.7,6959.6,6959.6
201902121616,6959.6,6960.1,6958.8,6958.8
201902121617,6958.9,6959,6957.3,6957.7
201902121618,6957.8,6958.1,6957.2,6957.5
201902121619,6957.5,6958.4,6957.2,6957.4
201902121620,6957.3,6958.5,6957.1,6958.3
201902121621,6958.3,6958.6,6957.4,6957.6
201902121622,6957.6,6958.4,6957.6,6957.7
201902121623,6957.7,6958,6956.4,6957
201902121624,6957.1,6957.9,6956.6,6957.8
201902121625,6957.9,6958,6957.2,6957.3
201902121626,6957.4,6958.9,6957.3,6958.2
201902121627,6958.2,6959.1,6958.2,6958.5
201902121628,6958.6,6959.5,6958.3,6959.2
201902121629,6959.2,6959.7,6958.2,6958.6
201902121630,6958.6,6959.6,6958.4,6959.2
201902121631,6958.9,6960.5,6958.9,6960.4
201902121632,6960.4,6962,6960.4,6961.1
201902121633,6961.1,6961.8,6961,6961.4
201902121634,6961.4,6961.5,6959.2,6960.1
201902121635,6960,6961.8,6959.8,6959.8
201902121636,6959.8,6961.6,6959.7,6961.6
201902121637,6961.6,6962.3,6960.9,6961.2
201902121638,6961.1,6962,6960.9,6961.6
201902121639,6961.7,6961.9,6961.3,6961.9
201902121640,6961.9,6962,6960.8,6961.7
201902121641,6961.7,6961.7,6960.3,6961.2
201902121642,6961.2,6961.9,6960.7,6960.7
201902121643,6960.7,6961,6960.3,6960.6
201902121644,6960.6,6960.6,6960,6960.2
201902121645,6960.2,6961.1,6959.4,6960.4
201902121646,6960.4,6960.7,6960,6960.1
201902121647,6960.1,6961.1,6960.1,6961.1
201902121648,6961.1,6961.2,6960.1,6960.2
201902121649,6960.2,6961,6959.9,6961
201902121650,6961,6961.5,6960.4,6961.3
201902121651,6961.4,6962.5,6961.1,6961.9
201902121652,6961.9,6964.5,6961.8,6963.7
201902121653,6963.7,6966.5,6963.6,6966.3
201902121654,6966.3,6966.8,6965.5,6965.6
201902121655,6965.6,6967.3,6965.1,6967.3
201902121656,6967.3,6968.3,6966.3,6966.3
201902121657,6966.3,6967.8,6966.3,6967.7
201902121658,6967.7,6968.1,6967.4,6967.9
201902121659,6967.9,6967.9,6966.9,6967.1
201902121700,6967.1,6971.9,6967.1,6970.5
201902121701,6970.5,6971.8,6969.8,6970.4
201902121702,6970.5,6971.5,6970.5,6971
201902121703,6971,6971.3,6967.9,6968.5
201902121704,6968.5,6970.4,6967.9,6968.8
201902121705,6968.4,6970.7,6968.1,6968.9
201902121706,6968.9,6971,6966.7,6967.7
201902121707,6967.7,6969.1,6966.9,6967.9
201902121708,6967.8,6969.4,6967.4,6967.9
201902121709,6967.9,6969.2,6967.3,6969.2
201902121710,6969.2,6969.3,6966.4,6966.9
201902121711,6966.9,6967.4,6966.1,6966.3
201902121712,6966.3,6966.8,6965.7,6966.1
201902121713,6966.1,6967,6965.7,6966.9
201902121714,6966.9,6969,6966.8,6967.8
201902121715,6967.8,6969.7,6967.3,6969.3
201902121716,6969.4,6970,6967.1,6967.4
201902121717,6967.4,6968.1,6965.9,6966.1
201902121718,6966,6967.2,6966,6967
201902121719,6967,6967.1,6966,6966.3
201902121720,6966.3,6967.4,6966.2,6967.1
201902121721,6967.1,6967.8,6966.3,6966.8
201902121722,6966.8,6968,6966.6,6967.5
201902121723,6967.5,6967.7,6966,6966.4
201902121724,6966.4,6966.9,6966.1,6966.5
201902121725,6966.5,6966.8,6965.9,6966.6
201902121726,6966.6,6967.3,6966.3,6966.4
201902121727,6966.4,6967.3,6966.2,6966.3
201902121728,6966.3,6967,6965,6965.4
201902121729,6965.4,6966.8,6965,6965.2
201902121730,6965.2,6965.5,6964.2,6965.5
201902121731,6965.5,6965.5,6963.7,6963.8
201902121732,6963.9,6965.3,6963.6,6964.3
201902121733,6964.3,6966.4,6964.2,6965.6
201902121734,6965.6,6966.2,6964.4,6964.7
201902121735,6964.7,6965.1,6963.9,6964.1
201902121736,6964,6965,6963.2,6964.6
201902121737,6964.6,6964.9,6963.6,6963.8
201902121738,6963.8,6965.5,6963.7,6965.4
201902121739,6965.4,6965.7,6964.5,6965.2
201902121740,6965.1,6966.5,6964.7,6965.4
201902121741,6965.4,6966,6964.6,6965.3
201902121742,6965.4,6966.3,6965.2,6965.5
201902121743,6965.5,6966.7,6965.5,6966.3
201902121744,6966.3,6967.8,6966.1,6966.8
201902121745,6966.8,6967.5,6966.6,6967.1
201902121746,6967.1,6967.3,6964.2,6964.4
201902121747,6964.3,6965.3,6963.2,6963.8
201902121748,6963.9,6964.9,6963.1,6963.1
201902121749,6963.1,6963.8,6962.3,6963.1
201902121750,6963.1,6965,6963.1,6963.9
201902121751,6963.9,6965,6963.6,6964.6
201902121752,6964.6,6965.8,6964.6,6965.8
201902121753,6965.8,6966.2,6964.6,6964.6
201902121754,6964.6,6965.5,6964.3,6964.4
201902121755,6964.4,6966.2,6964.2,6966.2
201902121756,6966.2,6967.8,6966.2,6967.7
201902121757,6967.7,6967.8,6966.3,6966.3
201902121758,6966.3,6966.7,6966,6966.4
201902121759,6966.4,6967.4,6966.2,6967
201902121800,6967,6967.8,6966.6,6966.8
201902121801,6966.7,6966.9,6965.9,6965.9
201902121802,6965.9,6968.1,6965.8,6966.2
201902121803,6966.1,6967.5,6966.1,6966.9
201902121804,6966.9,6967.9,6966.7,6966.9
201902121805,6966.8,6966.8,6965.3,6965.8
201902121806,6965.8,6966.2,6964.9,6965.2
201902121807,6964.8,6965.4,6963.6,6963.6
201902121808,6963.6,6963.7,6963,6963.2
201902121809,6963.2,6964.1,6963.2,6963.4
201902121810,6963.5,6964.3,6963.3,6963.7
201902121811,6963.7,6963.7,6961.8,6962
201902121812,6962,6962.9,6961.7,6962.8
201902121813,6962.8,6962.9,6961.6,6961.6
201902121814,6961.6,6962.1,6960.4,6962.1
201902121815,6962.2,6962.8,6961.6,6962.4
201902121816,6962.3,6963.7,6962.2,6962.7
201902121817,6962.7,6963.7,6962.7,6963.7
201902121818,6963.7,6964.8,6963.5,6964.6
201902121819,6964.6,6964.6,6962.7,6962.9
201902121820,6962.9,6962.9,6961.1,6961.8
201902121821,6961.6,6961.6,6960.3,6960.8
201902121822,6960.8,6961.7,6960.7,6960.9
201902121823,6960.9,6960.9,6960,6960.5
201902121824,6960.5,6961.1,6960,6960
201902121825,6960,6961.1,6960,6961.1
201902121826,6961.1,6961.5,6960,6960.2
201902121827,6960.1,6960.4,6958.4,6958.7
201902121828,6958.8,6959.8,6958,6958.7
201902121829,6958.7,6960.3,6958.7,6959.4
201902121830,6959.4,6959.8,6958.8,6958.9
201902121831,6958.9,6959.6,6957.9,6958.6
201902121832,6958.6,6959.8,6958.3,6958.4
201902121833,6958.3,6959.1,6958.1,6959.1
201902121834,6959.3,6959.3,6958.2,6959
201902121835,6959,6959.2,6958.4,6959.2
201902121836,6959.1,6960,6958.7,6960
201902121837,6960,6960,6959,6959.8
201902121838,6959.9,6960.8,6959.8,6960.3
201902121839,6960.4,6960.8,6959.6,6960
201902121840,6960.2,6961.6,6959.9,6960.8
201902121841,6960.8,6961.3,6960.3,6960.6
201902121842,6960.6,6961,6958.9,6960.5
201902121843,6960.5,6961.3,6960.2,6960.5
201902121844,6960.5,6961.1,6959.8,6960.4
201902121845,6960.4,6962.1,6960.4,6962
201902121846,6962,6962.4,6961.8,6962.1
201902121847,6962.1,6963.5,6961.4,6961.9
201902121848,6961.9,6963.2,6961.9,6962.6
201902121849,6962.6,6963.3,6962.3,6962.9
201902121850,6962.9,6963.3,6961.8,6961.8
201902121851,6961.9,6962.2,6961.4,6961.8
201902121852,6961.8,6963.2,6961.8,6962.9
201902121853,6962.9,6962.9,6961.8,6962.3
201902121854,6962.4,6963,6961.7,6961.9
201902121855,6961.9,6962.3,6960.3,6960.9
201902121856,6960.9,6960.9,6959.2,6959.3
201902121857,6959.4,6960,6958.6,6959.9
201902121858,6959.9,6960.8,6959.4,6960.8
201902121859,6960.8,6962.3,6960.6,6961.4
201902121900,6961.4,6962.8,6961.3,6962.8
201902121901,6962.8,6965.9,6962.8,6964.8
201902121902,6964.8,6966.2,6964.6,6965.2
201902121903,6965.1,6965.4,6964.1,6964.5
201902121904,6964.7,6967.2,6964.5,6966.4
201902121905,6966.6,6966.9,6965.3,6965.6
201902121906,6965.6,6965.8,6964.7,6965.7
201902121907,6965.7,6965.9,6965.3,6965.5
201902121908,6965.8,6966.7,6965.8,6965.9
201902121909,6965.9,6965.9,6964.7,6964.7
201902121910,6964.7,6965.5,6964.1,6964.4
201902121911,6964.4,6965.2,6964.4,6964.5
201902121912,6964.6,6964.9,6964,6964.2
201902121913,6964.1,6964.8,6964.1,6964.8
201902121914,6964.9,6965.2,6964,6964.6
201902121915,6964.6,6964.6,6962.5,6963.2
201902121916,6963.1,6963.4,6962,6962.8
201902121917,6962.6,6964.5,6962.5,6964.4
201902121918,6964.4,6965.5,6964.2,6965.3
201902121919,6965.3,6965.5,6964.4,6964.4
201902121920,6964.4,6966.3,6964.4,6966.2
201902121921,6966.2,6967.5,6965.4,6967.5
201902121922,6967.5,6968.7,6966.9,6968.6
201902121923,6968.6,6968.7,6967.9,6968.2
201902121924,6968.2,6968.8,6967.9,6968.7
201902121925,6968.7,6970.8,6968.7,6970.4
201902121926,6970.4,6971.5,6970.2,6971.5
201902121927,6971.7,6971.8,6970.2,6971
201902121928,6971.1,6972,6970.8,6971.4
201902121929,6971.3,6971.3,6969.9,6970.2
201902121930,6970.2,6970.2,6968.5,6968.8
201902121931,6968.8,6969.1,6967.4,6968.8
201902121932,6968.8,6969.4,6968.5,6969.4
201902121933,6969.4,6969.5,6968.9,6969.3
201902121934,6969.3,6970.5,6969,6969
201902121935,6969.2,6970.6,6968.3,6968.3
201902121936,6968.3,6969.2,6968,6968.7
201902121937,6968.6,6970.4,6968.4,6969.4
201902121938,6969.4,6969.6,6968.4,6968.6
201902121939,6968.7,6968.9,6966.7,6966.8
201902121940,6966.8,6967.4,6966.7,6966.8
201902121941,6966.9,6967.7,6966.9,6967.4
201902121942,6967.4,6967.4,6965.2,6966.3
201902121943,6966.4,6967.3,6965.5,6966.9
201902121944,6966.9,6967.2,6965.6,6966.7
201902121945,6966.7,6968.6,6966.6,6967.3
201902121946,6967.3,6968.3,6967.3,6967.5
201902121947,6967.5,6968.8,6967,6968.4
201902121948,6968.4,6968.6,6967.7,6968.3
201902121949,6968.4,6969.6,6968.4,6969.4
201902121950,6969.4,6970.2,6969.4,6969.6
201902121951,6969.6,6969.9,6969,6969.8
201902121952,6969.9,6970.8,6969.4,6970.7
201902121953,6970.7,6974.4,6970.6,6973.1
201902121954,6972.9,6973,6972.3,6972.7
201902121955,6972.7,6972.8,6971.8,6971.9
201902121956,6971.9,6972.3,6970.9,6971.8
201902121957,6971.8,6971.9,6970.5,6970.8
201902121958,6970.8,6971.4,6969.9,6971.3
201902121959,6971.3,6971.8,6970.6,6971.4
201902122000,6971.4,6971.5,6970.2,6971.1
201902122001,6971,6972.7,6970.2,6972.6
201902122002,6972.6,6972.8,6971.4,6971.5
201902122003,6971.7,6971.9,6971.2,6971.2
201902122004,6971.5,6972.5,6971.5,6971.9
201902122005,6971.9,6973,6971.8,6972.2
201902122006,6971.8,6971.8,6970.4,6970.7
201902122007,6970.7,6972.1,6970.4,6971.4
201902122008,6971.4,6972,6971.2,6971.4
201902122009,6971.4,6971.5,6970.6,6970.9
201902122010,6970.9,6970.9,6969.8,6969.9
201902122011,6969.9,6970.1,6969.4,6969.5
201902122012,6969.5,6969.8,6968.9,6969.2
201902122013,6969.1,6970.1,6968.9,6969.8
201902122014,6969.8,6970.6,6969.1,6970
201902122015,6970,6970.3,6969.4,6969.9
201902122016,6969.9,6971.5,6969.5,6970.7
201902122017,6970.6,6971,6969.8,6970.4
201902122018,6970.4,6970.4,6968.4,6969.4
201902122019,6969.7,6970.8,6969.3,6969.9
201902122020,6969.8,6970.2,6968.9,6968.9
201902122021,6968.9,6969.8,6968.7,6969.8
201902122022,6969.8,6971.3,6969.4,6970.9
201902122023,6970.9,6972.2,6970.9,6971.8
201902122024,6971.8,6971.9,6970.7,6970.8
201902122025,6970.8,6970.9,6970.1,6970.6
201902122026,6970.6,6972.5,6970.6,6972.1
201902122027,6972.1,6973.4,6971.3,6972.3
201902122028,6972.1,6972.8,6972,6972.4
201902122029,6972.4,6973.3,6972.4,6973.1
201902122030,6973.2,6973.2,6971.8,6972.4
201902122031,6972.5,6972.5,6970.6,6971.1
201902122032,6971,6971.1,6970.2,6970.3
201902122033,6970.3,6971.1,6970.2,6971.1
201902122034,6970.8,6972.8,6970.6,6972
201902122035,6972,6972.4,6971.4,6971.5
201902122036,6971.5,6971.8,6970.9,6971.6
201902122037,6971.6,6972.5,6971.6,6972.4
201902122038,6972.4,6972.8,6970.7,6970.8
201902122039,6970.8,6971.1,6969.9,6970.2
201902122040,6970.1,6971.4,6969.9,6971.3
201902122041,6971.3,6971.8,6970.4,6970.4
201902122042,6970.3,6971.9,6969.9,6971.6
201902122043,6971.6,6972.3,6971.5,6972.3
201902122044,6972.3,6972.6,6970.7,6971.7
201902122045,6971.8,6973.6,6971.7,6971.9
201902122046,6971.9,6973.3,6971.9,6973.1
201902122047,6973.1,6975.5,6973,6974.1
201902122048,6974.1,6975.1,6974.1,6975
201902122049,6975,6975.4,6974.7,6975.2
201902122050,6975.2,6975.4,6974.2,6974.7
201902122051,6974.7,6974.9,6974.1,6974.2
201902122052,6974.1,6974.1,6973.4,6973.8
201902122053,6973.8,6974,6973.1,6973.8
201902122054,6973.8,6974.4,6973.3,6974.3
201902122055,6974.3,6974.3,6973.1,6973.6
201902122056,6973.6,6973.8,6973.1,6973.3
201902122057,6973.4,6973.4,6972.5,6972.8
201902122058,6972.8,6974.5,6972.5,6974.5
201902122059,6974.5,6975.6,6973.9,6974.7
201902122100,6974.7,6974.8,6972.9,6973.3
201902122101,6973.3,6974.5,6973.3,6974.5
201902122102,6974.5,6974.5,6972.6,6972.6
201902122103,6972.6,6972.6,6971.2,6971.2
201902122104,6971.2,6971.8,6970.5,6971.7
201902122105,6971.7,6972.5,6971.4,6971.5
201902122106,6971.5,6971.8,6971.2,6971.4
201902122107,6971.4,6972.5,6971.3,6971.7
201902122108,6971.7,6973.3,6971.5,6973.2
201902122109,6973.2,6973.3,6972.3,6972.8
201902122110,6972.8,6973,6972.2,6972.7
201902122111,6972.5,6973.1,6972.1,6972.1
201902122112,6972.2,6972.5,6972,6972.5
201902122113,6972.6,6973.3,6972.4,6972.8
201902122114,6972.9,6973.6,6972.5,6972.5
201902122115,6972.5,6973,6971.9,6973
201902122116,6973,6973.4,6972.7,6973.2
201902122117,6973.2,6973.3,6972.2,6972.2
201902122118,6972.2,6972.5,6971.4,6971.5
201902122119,6971.5,6971.7,6971.2,6971.2
201902122120,6971.2,6971.9,6971,6971.2
201902122121,6971.1,6971.4,6970.4,6970.8
201902122122,6970.8,6970.9,6970.1,6970.7
201902122123,6970.7,6972.2,6970.7,6972.2
201902122124,6972.3,6973.8,6972.2,6973.7
201902122125,6973.7,6974.5,6973.7,6974.2
201902122126,6974.2,6975.2,6972.7,6973.4
201902122127,6973.4,6973.7,6971.9,6972.1
201902122128,6972.1,6973.1,6971.9,6973.1
201902122129,6973.1,6973.1,6971.4,6971.6
201902122130,6971.6,6973,6971.1,6972.9
201902122131,6972.9,6973.2,6971.9,6971.9
201902122132,6971.9,6973.6,6971.9,6972.9
201902122133,6972.9,6974.3,6972.9,6974.3
201902122134,6974.4,6976.5,6974.4,6975.8
201902122135,6975.8,6978.2,6975.8,6978.2
201902122136,6978.2,6978.2,6976.8,6976.9
201902122137,6976.8,6978.6,6976.8,6978.6
201902122138,6978.6,6978.6,6978.1,6978.3
201902122139,6978.4,6979.2,6977.9,6977.9
201902122140,6977.9,6978.5,6977.4,6978.3
201902122141,6978.3,6978.8,6977.8,6978.7
201902122142,6978.4,6978.7,6976.9,6977
201902122143,6977.1,6977.3,6976.1,6976.1
201902122144,6976.1,6977.2,6975.7,6976.8
201902122145,6976.9,6977.6,6976.3,6976.3
201902122146,6976.3,6976.3,6973.4,6973.4
201902122147,6973.4,6975.2,6973.4,6974.2
201902122148,6974.2,6974.3,6973.4,6973.9
201902122149,6973.9,6974.3,6973.1,6974
201902122150,6974,6974,6972.9,6973.9
201902122151,6973.9,6974.3,6973.1,6973.1
201902122152,6973.1,6973.5,6972,6973.3
201902122153,6973.3,6973.6,6972.7,6972.9
201902122154,6972.9,6972.9,6971.3,6972.2
201902122155,6972.2,6973.1,6972.1,6973.1
201902122156,6973,6973.6,6972.1,6972.2
201902122157,6972.2,6972.3,6970.9,6971.9
201902122158,6971.9,6972.6,6971.6,6971.8
201902122159,6971.8,6971.8,6970,6970.1
201902122200,6970,6970.5,6968.9,6969.5
201902122201,6969.5,6970.4,6968,6969.9
201902122202,6969.8,6970.6,6969.7,6970.4
201902122203,6970.4,6971.6,6970.4,6970.7
201902122204,6970.7,6972.2,6970.1,6971.9
201902122205,6971.9,6972.1,6970.4,6970.8
201902122206,6970.8,6971,6970,6970.8
201902122207,6970.8,6971.2,6970.1,6970.1
201902122208,6970.1,6970.9,6970.1,6970.7
201902122209,6970.7,6971.6,6970.7,6971.3
201902122210,6971.3,6971.7,6970.8,6970.9
201902122211,6970.9,6971.4,6970.4,6971.4
201902122212,6971.4,6971.4,6966.1,6966.5
201902122213,6966.4,6967.6,6966,6966
201902122214,6966,6967.3,6966,6967.2
201902122215,6967.2,6967.2,6965.6,6965.9
201902122216,6965.9,6967.4,6965.8,6967.4
201902122217,6967.4,6968.4,6967.3,6967.9
201902122218,6967.9,6968.1,6967.3,6967.6
201902122219,6967.6,6968,6967.6,6967.8
201902122220,6967.8,6968.6,6967.6,6967.6
201902122221,6967.6,6967.8,6966.6,6967.3
201902122222,6967.4,6967.8,6966.9,6967.7
201902122223,6967.7,6969.4,6967.7,6969.4
201902122224,6969.4,6969.8,6967.9,6967.9
201902122225,6967.8,6968.4,6967.8,6968.3
201902122226,6968.3,6969.8,6968.2,6969.4
201902122227,6969.4,6969.6,6968.4,6968.5
201902122228,6968.6,6969.1,6968.3,6968.3
201902122229,6968.3,6970.1,6968.3,6969.7
201902122230,6969.7,6970.6,6969.3,6970.2
201902122231,6970,6970,6967.9,6968
201902122232,6968,6969.4,6968,6969.3
201902122233,6969.3,6969.7,6968.6,6969.5
201902122234,6969.5,6970.4,6967.6,6968.4
201902122235,6968.4,6968.9,6967.6,6967.6
201902122236,6967.6,6968.5,6966.2,6968.4
201902122237,6968.2,6968.2,6967,6967
201902122238,6967.1,6968.4,6966.7,6967.2
201902122239,6967.2,6967.5,6966.2,6967.5
201902122240,6967.7,6968.1,6967.3,6967.7
201902122241,6967.7,6967.8,6966.4,6966.9
201902122242,6966.9,6967.9,6966.9,6967.7
201902122243,6967.8,6968.4,6967.8,6967.9
201902122244,6967.9,6967.9,6966.7,6967
201902122245,6967,6967.6,6967,6967.4
201902122246,6967.4,6968.6,6967.2,6968.4
201902122247,6968.7,6969.5,6968.4,6969.4
201902122248,6969.3,6971.3,6969.3,6970.7
201902122249,6970.7,6971,6970.2,6970.9
201902122250,6970.9,6971.3,6970,6970.4
201902122251,6970.3,6970.5,6969.8,6969.8
201902122252,6969.8,6969.8,6968.9,6969.5
201902122253,6969.5,6969.8,6968.9,6969.4
201902122254,6969.3,6969.6,6969,6969.4
201902122255,6969.4,6969.4,6968.7,6969.1
201902122256,6969.2,6969.3,6966.3,6966.3
201902122257,6966.3,6966.5,6965.3,6965.4
201902122258,6965.4,6965.5,6965.1,6965.2
201902122259,6965.2,6965.2,6962.7,6963.3
201902122300,6963.4,6965.3,6963.1,6964
201902122301,6964,6965.8,6964,6965.7
201902122302,6965.5,6966.3,6965,6965.7
201902122303,6965.7,6967.1,6965.4,6966.7
201902122304,6966.7,6968.1,6966.5,6967.6
201902122305,6967.6,6967.8,6965.1,6965.2
201902122306,6965.2,6965.7,6965,6965.6
201902122307,6965.6,6966.4,6964.4,6966.4
201902122308,6966.4,6966.6,6965.6,6965.9
201902122309,6965.9,6966.3,6965,6965
201902122310,6965,6966,6964.7,6964.7
201902122311,6964.7,6964.8,6963.2,6963.4
201902122312,6963.4,6963.5,6962.1,6962.5
201902122313,6962.5,6963.8,6962.2,6963.4
201902122314,6963.3,6964.3,6963.3,6963.4
201902122315,6963.4,6968.8,6963.3,6968.7
201902122316,6968.7,6972.4,6968.7,6972.4
201902122317,6972.3,6972.3,6969.9,6970.3
201902122318,6970.3,6970.3,6968.6,6968.6
201902122319,6968.6,6969,6968.4,6968.8
201902122320,6968.9,6969.3,6967.3,6967.5
201902122321,6967.5,6968.3,6967.4,6968.2
201902122322,6968.2,6968.9,6967.8,6968.3
201902122323,6968.3,6968.8,6967.4,6967.8
201902122324,6967.7,6968.9,6967.7,6968.8
201902122325,6968.8,6968.8,6967.1,6967.2
201902122326,6967.2,6967.6,6966.3,6966.8
201902122327,6966.8,6968.4,6966.7,6967.7
201902122328,6967.7,6967.7,6963.4,6963.9
201902122329,6963.9,6964.5,6963.2,6963.2
201902122330,6963.2,6968.6,6961.8,6962.5
201902122331,6962.5,6962.5,6953.8,6955.6
201902122332,6955.2,6961.5,6954.9,6961.2
201902122333,6961,6964.9,6958.9,6958.9
201902122334,6958.9,6966.4,6958.9,6963.2
201902122335,6963.3,6967.8,6963.3,6963.9
201902122336,6963.9,6971.6,6963.9,6970.3
201902122337,6970.3,6975.6,6969.1,6970.3
201902122338,6970.5,6974,6970.1,6973.1
201902122339,6973,6973.7,6969.2,6971.2
201902122340,6971.2,6976,6971.2,6975.8
201902122341,6975.9,6979.4,6974.9,6978
201902122342,6978,6982.6,6976.5,6982.6
201902122343,6982.6,6983,6979.4,6980.4
201902122344,6980,6982.5,6980,6981.2
201902122345,6981.4,6987.9,6981.4,6987.4
201902122346,6987.2,6987.5,6983.7,6984.7
201902122347,6984.6,6985.9,6983.4,6985.3
201902122348,6985,6986.5,6983.5,6985.1
201902122349,6985.1,6986.1,6982.9,6983.4
201902122350,6983.4,6986.6,6983.4,6984.3
201902122351,6984.3,6985.2,6981.2,6982.2
201902122352,6982.2,6985.3,6981.6,6983.2
201902122353,6983.4,6985.1,6981.1,6983.2
201902122354,6983.2,6986.5,6983.2,6985.5
201902122355,6985.5,6986.3,6983.1,6984.9
201902122356,6984.9,6985.6,6983.7,6984.7
201902122357,6984.5,6985.8,6983.9,6983.9
201902122358,6983.9,6987.2,6981.8,6981.8
201902122359,6981.8,6983.2,6979.3,6982.3
201902130000,6982.5,6985.8,6982.5,6984.9
201902130001,6984.9,6992.5,6984.9,6991.4
201902130002,6991.4,6994.2,6991.1,6992.1
201902130003,6992.1,6993.3,6989.3,6989.4
201902130004,6989.4,6992.4,6989.4,6990.8
201902130005,6990.8,6992.9,6989.4,6989.5
201902130006,6989.7,6991.3,6988.3,6989.1
201902130007,6989.1,6992.6,6989.1,6992.5
201902130008,6992.5,6995.9,6991.4,6994.7
201902130009,6994.7,6996.2,6992.9,6993.5
201902130010,6993.5,6996.9,6993.5,6996.4
201902130011,6996.4,6998.5,6995.2,6996.9
201902130012,6996.9,6996.9,6994.4,6994.7
201902130013,6994.7,6995.1,6990.4,6991.2
201902130014,6991.2,6991.2,6988.6,6988.6
201902130015,6988.6,6992,6988.6,6991.9
201902130016,6991.9,6993.4,6991.2,6991.9
201902130017,6991.9,6993.7,6991.4,6993
201902130018,6993,6995.4,6993,6994.1
201902130019,6994,6994.4,6992.4,6993.5
201902130020,6993.5,6995.5,6991.9,6993.2
201902130021,6993.2,6993.7,6990.5,6990.8
201902130022,6990.9,6992.6,6990.4,6990.7
201902130023,6990.7,6991.9,6989.7,6991.3
201902130024,6991.4,6993.5,6991,6993.4
201902130025,6993.4,6994.4,6993,6994.4
201902130026,6994.4,6994.4,6993.2,6993.9
201902130027,6993.9,6994.9,6992.9,6994.4
201902130028,6994.4,6996.1,6993.2,6993.3
201902130029,6993.2,6993.3,6986.9,6991.3
201902130030,6991.4,6994.2,6989.6,6990.1
201902130031,6990.1,6991.4,6987.9,6990.8
201902130032,6990.8,6991.3,6988.9,6989.6
201902130033,6989.7,6991.9,6989.7,6991.4
201902130034,6991.4,6992,6989.4,6991.6
201902130035,6991.6,6991.6,6989.4,6990.4
201902130036,6990.4,6991.8,6990.2,6990.7
201902130037,6990.7,6993.4,6990.7,6992.3
201902130038,6992.4,6993.7,6992.4,6992.4
201902130039,6992.6,6993.7,6991.1,6991.6
201902130040,6991.6,6993.2,6990.6,6992.2
201902130041,6992.2,6993.5,6991.6,6991.9
201902130042,6991.8,6991.8,6990,6990.3
201902130043,6990.1,6990.5,6985.7,6987
201902130044,6987,6987.1,6982.2,6983.4
201902130045,6983.4,6986.8,6982.6,6986.5
201902130046,6986.7,6987.9,6985.9,6987.4
201902130047,6987.4,6988.6,6985,6986.3
201902130048,6985.9,6987.3,6985.9,6986.9
201902130049,6986.9,6987.5,6985.8,6986.6
201902130050,6986.5,6990.6,6986.5,6990.3
201902130051,6990.3,6991.8,6989.6,6991.7
201902130052,6991.6,6997.3,6991.2,6996.4
201902130053,6996.4,6996.9,6995.5,6996.9
201902130054,6996.9,6998,6995.9,6997.2
201902130055,6997.2,7004.2,6997.2,7003.4
201902130056,7003.4,7006.4,7002.9,7006.3
201902130057,7006.3,7008,7004.9,7005
201902130058,7004.9,7012.4,7004.1,7011.7
201902130059,7011.7,7012,7009.6,7010.7
201902130100,7010.7,7016.5,7010.7,7015.5
201902130101,7015.4,7017.5,7015,7015.4
201902130102,7015.4,7017.1,7015,7015.2
201902130103,7015.2,7015.4,7013.4,7013.5
201902130104,7013.4,7013.4,7010.1,7010.2
201902130105,7010.2,7011,7008.5,7010.7
201902130106,7010.7,7011.7,7009.2,7009.2
201902130107,7008.7,7011.7,7008.7,7010.6
201902130108,7010.6,7011.5,7009.8,7010.5
201902130109,7010.7,7011.7,7009,7010.1
201902130110,7010,7013.3,7010,7011.2
201902130111,7011.2,7013.7,7010.7,7012.6
201902130112,7012.6,7016,7011.2,7014.5
201902130113,7014.2,7015.6,7013.5,7015.2
201902130114,7015.2,7016.3,7014,7014.9
201902130115,7014.9,7015.7,7012.2,7012.4
201902130116,7012.4,7013.8,7011.4,7013
201902130117,7013,7014,7011.9,7014
201902130118,7014,7015,7013.5,7014.4
201902130119,7014.2,7014.4,7012,7012.5
201902130120,7012.5,7014,7011.6,7011.9
201902130121,7011.9,7012.7,7010.9,7012.7
201902130122,7012.4,7012.9,7008.2,7009
201902130123,7009,7009,7006.2,7007.4
201902130124,7007.4,7008.3,7006.7,7006.8
201902130125,7006.8,7008.7,7006.4,7008.4
201902130126,7008.4,7009.6,7008.1,7008.2
201902130127,7008.2,7009.8,7007.4,7009.3
201902130128,7009.3,7011.3,7007.9,7011.2
201902130129,7011.2,7012.4,7010.2,7011.2
201902130130,7011.2,7011.6,7007.3,7008.3
201902130131,7008.4,7009.7,7007.4,7008.2
201902130132,7008.2,7009.9,7007.9,7008.9
201902130133,7008.8,7010.5,7008.2,7010.1
201902130134,7010.1,7010.6,7008.9,7009.5
201902130135,7009.7,7010.1,7008.3,7008.4
201902130136,7008.4,7009.1,7007.4,7008.8
201902130137,7008.8,7010.7,7008.6,7010.6
201902130138,7010.6,7011.3,7009.6,7010
201902130139,7010,7011.5,7009.2,7009.5
201902130140,7009.1,7010.8,7009.1,7010.7
201902130141,7010.7,7012.6,7010.7,7011.8
201902130142,7011.8,7013.5,7011.8,7013.1
201902130143,7013,7013.4,7012,7012.5
201902130144,7012.5,7012.9,7010.2,7010.2
201902130145,7010.2,7010.7,7008.8,7009.7
201902130146,7009.6,7010.2,7007.2,7008.6
201902130147,7008.6,7009.3,7007.2,7007.2
201902130148,7007.2,7008.6,7007,7008
201902130149,7008.2,7009.8,7007.6,7009.8
201902130150,7009.7,7010,7008.2,7010
201902130151,7009.9,7011.5,7009.5,7010.8
201902130152,7011,7012.1,7010.9,7011.5
201902130153,7011.5,7013.9,7010.4,7013.7
201902130154,7013.7,7015,7012.7,7014.5
201902130155,7014.5,7015.1,7013.3,7014
201902130156,7014,7014.7,7013.3,7014.2
201902130157,7014.2,7015.1,7013.4,7014.5
201902130158,7014.3,7015.3,7013.5,7014.4
201902130159,7014.2,7014.7,7012.7,7013.3
201902130200,7013.3,7014.7,7013.3,7014.3
201902130201,7014.3,7016.5,7013.9,7015.7
201902130202,7015.5,7017.3,7014.7,7015.2
201902130203,7015.2,7015.6,7013.9,7015.1
201902130204,7015.1,7015.8,7014.4,7014.6
201902130205,7014.7,7014.8,7010.7,7010.9
201902130206,7010.9,7012.7,7010.7,7012.7
201902130207,7012.7,7012.7,7010.5,7010.9
201902130208,7010.9,7012,7009.5,7010.9
201902130209,7010.9,7011.1,7009.7,7010.3
201902130210,7010.3,7011.6,7009.6,7011.6
201902130211,7011.6,7011.6,7009.7,7009.7
201902130212,7009.7,7011.3,7009.6,7010.5
201902130213,7010.5,7013,7010.4,7012.3
201902130214,7012.4,7014.2,7010.1,7010.1
201902130215,7010.1,7013.2,7009.7,7012
201902130216,7012,7012,7008,7009.9
201902130217,7009.9,7010.3,7007.5,7007.7
201902130218,7007.7,7007.8,7005.3,7005.3
201902130219,7005.3,7005.9,7003.7,7005.1
201902130220,7005.2,7009,7005.2,7007.8
201902130221,7007.8,7008.5,7006.5,7008.2
201902130222,7008.3,7008.6,7007.2,7008.5
201902130223,7008.5,7008.8,7006.3,7006.9
201902130224,7006.9,7008.2,7005.6,7007.9
201902130225,7007.9,7009.4,7006.7,7008.9
201902130226,7008.9,7009.6,7008.2,7008.9
201902130227,7008.9,7009.5,7007.4,7008.6
201902130228,7008.6,7008.9,7007.3,7008.2
201902130229,7008,7008,7005.9,7005.9
201902130230,7006,7008.6,7006,7008.4
201902130231,7008.4,7008.6,7007.2,7007.7
201902130232,7007.7,7010.7,7007.3,7009.9
201902130233,7009.9,7010.4,7008.6,7009
201902130234,7009,7010.5,7008.1,7009.9
201902130235,7009.8,7012.3,7009.8,7011.5
201902130236,7011.5,7012.7,7010.9,7011.9
201902130237,7011.9,7014,7011.7,7013.6
201902130238,7013.7,7014.1,7012.6,7013.5
201902130239,7013.5,7013.5,7012.2,7012.9
201902130240,7012.9,7013.2,7011.1,7011.9
201902130241,7011.8,7012,7010.1,7010.2
201902130242,7010.2,7010.7,7009.4,7010.3
201902130243,7010.3,7010.5,7009.2,7010.4
201902130244,7010.4,7010.4,7008.5,7008.5
201902130245,7008.4,7009,7007.5,7008.2
201902130246,7008.2,7010.4,7008.1,7010.4
201902130247,7010.4,7010.4,7008.2,7008.2
201902130248,7008.4,7008.8,7005.9,7006.5
201902130249,7006.5,7006.5,7004.1,7005.2
201902130250,7005.2,7006.8,7005.2,7006.8
201902130251,7006.8,7007.9,7006.7,7007.4
201902130252,7007.4,7009.2,7007.4,7009.1
201902130253,7009.2,7009.4,7006,7006.5
201902130254,7006.5,7007,7005.2,7006.6
201902130255,7006.6,7007.2,7006.4,7007.1
201902130256,7007.1,7009.8,7007.1,7008.3
201902130257,7008.3,7009.7,7008.1,7008.6
201902130258,7008.6,7009.6,7008.4,7009.4
201902130259,7009.4,7010,7008,7008.6
201902130300,7008.6,7010.3,7008.6,7009.1
201902130301,7009.1,7009.2,7007.7,7008.1
201902130302,7008.2,7009.1,7007.4,7007.4
201902130303,7007.3,7008.3,7006.6,7008.3
201902130304,7008.4,7009.1,7007.2,7008.2
201902130305,7008.2,7008.8,7007.2,7007.3
201902130306,7007.4,7007.5,7006.2,7006.2
201902130307,7006.2,7008.5,7006.2,7008.2
201902130308,7008.2,7009.1,7007.3,7009.1
201902130309,7009.1,7010.4,7008.6,7009.5
201902130310,7009.7,7010.2,7008.9,7009
201902130311,7009,7010,7008.4,7009.7
201902130312,7009.7,7010.1,7009.1,7009.5
201902130313,7009.5,7010.3,7008.3,7009.5
201902130314,7009.7,7010.5,7007.8,7008.4
201902130315,7008.3,7008.6,7007.9,7008.1
201902130316,7008.1,7008.6,7007.3,7008.6
201902130317,7008.6,7009.9,7008.6,7009.5
201902130318,7009.5,7009.7,7007.7,7009.5
201902130319,7009.5,7009.5,7008,7008.4
201902130320,7008.4,7008.6,7007.3,7008
201902130321,7008,7009.5,7007.6,7009.2
201902130322,7009.2,7009.6,7009,7009.4
201902130323,7009.4,7009.9,7008.7,7009.7
201902130324,7009.8,7010.6,7009.4,7010.3
201902130325,7010.3,7011.6,7010.2,7011.5
201902130326,7011.5,7012.8,7011.5,7012.7
201902130327,7012.7,7012.9,7011.5,7012.3
201902130328,7012.3,7013,7012,7012.3
201902130329,7012.3,7012.3,7011.1,7011.6
201902130330,7011.6,7012.8,7011.6,7012.2
201902130331,7012.2,7013.3,7011.3,7012.5
201902130332,7012.5,7014.4,7012.4,7014
201902130333,7014,7014.9,7013.7,7014.9
201902130334,7014.8,7016.2,7014.3,7015.5
201902130335,7015.5,7017,7015.5,7016.3
201902130336,7016.3,7018.8,7016.1,7016.3
201902130337,7016.2,7016.2,7014.6,7016.1
201902130338,7016.1,7016.5,7015,7015.4
201902130339,7015.4,7015.5,7014.2,7015
201902130340,7015,7015.7,7014.6,7015.4
201902130341,7015.4,7016,7014.3,7014.7
201902130342,7014.8,7017.1,7013.9,7015.9
201902130343,7015.9,7016.9,7015.4,7015.4
201902130344,7015.4,7016.6,7015,7015.9
201902130345,7015.9,7016.5,7013.5,7013.5
201902130346,7013.6,7015.7,7013.6,7015.7
201902130347,7015.7,7016.4,7015.4,7015.9
201902130348,7015.9,7016.4,7015.2,7015.7
201902130349,7015.7,7017.1,7015.2,7017.1
201902130350,7017.1,7019.1,7017.1,7018.4
201902130351,7018.4,7021.6,7018.4,7021.5
201902130352,7021.7,7021.7,7020.2,7020.8
201902130353,7020.9,7021.9,7020.9,7021.3
201902130354,7021.3,7022.7,7021.2,7022.5
201902130355,7022.2,7022.3,7019.7,7021.1
201902130356,7021.1,7021.2,7020.2,7020.8
201902130357,7020.8,7021.2,7019.2,7019.3
201902130358,7019.3,7020.4,7018.7,7019
201902130359,7019,7021.7,7018.9,7021.4
201902130400,7021.4,7021.4,7018.5,7019.3
201902130401,7019.3,7019.7,7017.9,7019
201902130402,7019,7019.2,7017.5,7017.7
201902130403,7017.7,7019.2,7017.7,7018.5
201902130404,7018.5,7019.1,7018.4,7018.6
201902130405,7018.6,7019,7017.5,7019
201902130406,7019,7019.9,7018.6,7019.1
201902130407,7019.1,7020,7017.9,7018.9
201902130408,7018.9,7019.2,7018.2,7018.5
201902130409,7018.5,7019.6,7017.9,7019.3
201902130410,7019.4,7020.1,7018.4,7018.4
201902130411,7018.4,7020.1,7018.4,7019.4
201902130412,7019.4,7019.4,7018.5,7018.9
201902130413,7018.9,7020.3,7018.9,7019
201902130414,7019.1,7019.8,7018.2,7018.5
201902130415,7018.5,7019.6,7018.2,7019.1
201902130416,7019.1,7019.8,7018.2,7019.1
201902130417,7019.1,7020.2,7019.1,7019.2
201902130418,7019.2,7020,7018.7,7019.9
201902130419,7020,7021.2,7019.9,7021.1
201902130420,7021,7023.4,7021,7023.2
201902130421,7023.4,7024.1,7022.6,7023.9
201902130422,7023.9,7023.9,7021.9,7022.2
201902130423,7022.2,7023.4,7021.9,7023.1
201902130424,7023.1,7025.5,7022.3,7025.4
201902130425,7025.4,7025.5,7022.7,7023
201902130426,7023,7023.9,7022.6,7022.7
201902130427,7022.7,7022.7,7021.2,7022.1
201902130428,7022.1,7023.1,7021.2,7021.4
201902130429,7021.4,7022,7020.5,7021.7
201902130430,7021.7,7021.9,7019.9,7019.9
201902130431,7019.9,7021.4,7019.7,7021.3
201902130432,7021.4,7021.5,7019.7,7020.3
201902130433,7020.3,7020.4,7019.7,7020
201902130434,7020,7021.4,7019.8,7020.4
201902130435,7020.4,7020.8,7019.4,7019.4
201902130436,7019.4,7020.4,7019.3,7020.4
201902130437,7020.4,7022.2,7020.1,7022.2
201902130438,7022,7022.2,7020.9,7022
201902130439,7022,7023,7021.2,7021.5
201902130440,7021.5,7023.3,7021.1,7023.3
201902130441,7023.3,7023.3,7021.4,7022.1
201902130442,7022.1,7022.2,7021.1,7021.8
201902130443,7021.8,7023.2,7020.9,7021.2
201902130444,7021.2,7024,7021.2,7024
201902130445,7024,7024.6,7023.5,7023.8
201902130446,7023.8,7025.1,7023.7,7024.1
201902130447,7024,7025.8,7023.8,7025.5
201902130448,7025.5,7025.7,7024,7025
201902130449,7025,7025,7023.4,7023.7
201902130450,7023.7,7024.1,7023.4,7023.7
201902130451,7023.7,7025,7022.7,7024.2
201902130452,7024.2,7024.6,7021.8,7021.8
201902130453,7022.2,7022.5,7019.9,7020.5
201902130454,7020.5,7021.6,7019.1,7019.5
201902130455,7019.5,7020.7,7018.7,7019.6
201902130456,7019.6,7022,7018.5,7021.9
201902130457,7021.6,7022.4,7019.2,7020.1
201902130458,7020,7020,7018.1,7018.2
201902130459,7018.2,7018.2,7013.2,7014.2
201902130500,7014.2,7016.9,7012.8,7016.9
201902130501,7016.9,7018.1,7015.5,7017.7
201902130502,7017.7,7018.6,7017,7018.2
201902130503,7018.2,7018.3,7016.4,7017.5
201902130504,7017.6,7017.6,7014.5,7016.1
201902130505,7016.2,7018.9,7015.4,7018.2
201902130506,7018.3,7019.1,7017.9,7018.2
201902130507,7018.2,7019.1,7017.1,7018.7
201902130508,7018.8,7019.2,7017.7,7018.4
201902130509,7018.4,7019,7016.9,7017.3
201902130510,7017.3,7017.4,7016.4,7016.6
201902130511,7016.6,7018.9,7016.4,7018.9
201902130512,7018.9,7019,7016.5,7017.2
201902130513,7017.2,7018.9,7015.4,7018.4
201902130514,7018.3,7020.9,7018.2,7019.9
201902130515,7019.9,7021.6,7019.7,7021.2
201902130516,7021.2,7021.9,7020.7,7021.2
201902130517,7021.2,7021.3,7020.8,7021
201902130518,7021,7021.5,7020.5,7021.1
201902130519,7021.1,7021.7,7019.5,7020.3
201902130520,7020.3,7021,7019.5,7020
201902130521,7020,7023.5,7019.9,7023
201902130522,7023,7024.8,7022.5,7024.6
201902130523,7024.7,7025.8,7024.4,7025.1
201902130524,7025,7026,7024.7,7025
201902130525,7025,7025.2,7023.9,7025.2
201902130526,7025.2,7026.2,7024.5,7026.2
201902130527,7026.2,7027.6,7025.9,7027.2
201902130528,7027.2,7028,7026.8,7026.9
201902130529,7027.1,7027.1,7026.2,7026.5
201902130530,7026.5,7026.9,7026,7026.3
201902130531,7026.3,7026.8,7025,7025.4
201902130532,7025.4,7026.7,7024.7,7024.9
201902130533,7024.8,7025,7024.2,7024.3
201902130534,7024.3,7024.7,7023.2,7023.3
201902130535,7023.3,7024.2,7022.2,7023.6
201902130536,7023.6,7024.3,7020.4,7021.6
201902130537,7021.6,7021.6,7020.2,7020.5
201902130538,7020.5,7021.5,7020.4,7020.7
201902130539,7020.7,7021.2,7019.7,7021
201902130540,7020.9,7021.6,7020.7,7021
201902130541,7021,7022.4,7020.9,7022.4
201902130542,7022.5,7023.3,7022.4,7022.8
201902130543,7022.8,7023,7021.7,7021.7
201902130544,7021.7,7021.7,7017,7018.6
201902130545,7018.7,7019.5,7016.4,7016.6
201902130546,7016.6,7017.5,7015.9,7016.9
201902130547,7016.9,7017,7015.7,7016.9
201902130548,7017,7017.3,7015.3,7015.7
201902130549,7015.7,7016.7,7014.9,7016.5
201902130550,7016.4,7016.4,7015.1,7016.2
201902130551,7016.2,7019,7015.7,7018.2
201902130552,7018.2,7019.1,7018,7018.8
201902130553,7018.8,7019,7017.2,7017.2
201902130554,7017.2,7020.1,7017.2,7018.9
201902130555,7018.9,7023.8,7018.9,7021.9
201902130556,7021.9,7021.9,7019.7,7020.6
201902130557,7020.6,7021,7018.9,7019.2
201902130558,7019.2,7019.2,7018.1,7018.5
201902130559,7018.5,7021.8,7016.4,7017.5
201902130600,7018.2,7018.6,7013,7013.5
201902130601,7013.5,7014.3,7012,7012.4
201902130602,7012.4,7016.4,7012.4,7016.1
201902130603,7016.2,7017.7,7015.6,7017.7
201902130604,7017.7,7019.2,7017.7,7019.2
201902130605,7019.2,7019.4,7016.5,7016.9
201902130606,7016.9,7018.6,7015.9,7018.6
201902130607,7018.7,7018.7,7017.9,7018
201902130608,7018,7018.2,7016.9,7017.4
201902130609,7017.4,7017.9,7015.2,7017.9
201902130610,7017.9,7018.6,7015.7,7015.8
201902130611,7015.9,7016.6,7015.6,7016.4
201902130612,7016.4,7018.8,7016.1,7018
201902130613,7018,7019.7,7017.4,7019.3
201902130614,7019.3,7019.8,7016.7,7019
