日時,始値(BID),高値(BID),安値(BID),終値(BID)
201907220700,7828.5,7835,7828.5,7832.2
201907220701,7832.2,7833.6,7828.8,7828.8
201907220702,7828.8,7832.6,7826.9,7831.2
201907220703,7831.2,7833.4,7830.6,7830.7
201907220704,7831.2,7834.3,7831,7834.3
201907220705,7834.3,7836.2,7834,7835.7
201907220706,7835.8,7837.7,7835.8,7837.7
201907220707,7837.7,7837.7,7833.6,7835.1
201907220708,7835.1,7836.1,7833.9,7834.4
201907220709,7834.4,7834.4,7831.6,7832.1
201907220710,7832.1,7835.4,7832.1,7835.4
201907220711,7835.6,7836.6,7834.8,7834.8
201907220712,7834.8,7836.1,7834.8,7835.3
201907220713,7835.3,7837.4,7835.3,7836.8
201907220714,7836.7,7839.3,7836.7,7838.6
201907220715,7838.6,7839.1,7838.1,7838.4
201907220716,7838.7,7839.3,7838.4,7839.3
201907220717,7839.3,7840.1,7839.1,7839.8
201907220718,7839.8,7840.1,7839.7,7839.7
201907220719,7839.7,7840.2,7838.5,7839.6
201907220720,7839.6,7840.8,7838.2,7838.4
201907220721,7838.4,7839.6,7838.4,7839.1
201907220722,7839.1,7839.1,7837.6,7837.7
201907220723,7837.7,7840.3,7837.7,7839.5
201907220724,7839.6,7839.6,7837.8,7838.7
201907220725,7838.7,7840.2,7838.7,7839.8
201907220726,7839.8,7840.7,7839.7,7840.6
201907220727,7840.6,7841.1,7840.1,7840.1
201907220728,7840.1,7840.1,7837.1,7837.1
201907220729,7837.2,7838.2,7837.2,7838.1
201907220730,7838.1,7841.2,7838.1,7841.2
201907220731,7841.2,7841.9,7840.8,7841.4
201907220732,7841.4,7842.2,7841.4,7842.2
201907220733,7842.3,7843.1,7841.4,7842.9
201907220734,7843,7844.5,7841.3,7841.4
201907220735,7841.4,7842.8,7841.4,7842.6
201907220736,7842.7,7843.5,7842.7,7843.4
201907220737,7843.4,7844.4,7843.4,7843.8
201907220738,7843.8,7844.6,7843.7,7844.5
201907220739,7844.6,7844.8,7843.1,7844.6
201907220740,7844.6,7845.5,7844.2,7845
201907220741,7845,7845.1,7842,7842.7
201907220742,7842.4,7843,7841.9,7842.1
201907220743,7842.1,7842.4,7840.8,7840.9
201907220744,7840.9,7841.4,7840.6,7841.1
201907220745,7841.1,7842.5,7841.1,7842.2
201907220746,7842.4,7843.3,7842.4,7842.4
201907220747,7842.4,7842.7,7842,7842.1
201907220748,7842.1,7843.1,7842.1,7842.9
201907220749,7843,7844,7842.7,7843.8
201907220750,7843.8,7844.7,7843.8,7844.6
201907220751,7844.6,7844.8,7844.2,7844.2
201907220752,7844.2,7846.5,7844.2,7845.8
201907220753,7845.8,7846,7844.2,7844.4
201907220754,7844.4,7846.2,7844.4,7845.7
201907220755,7845.7,7846.7,7845.6,7846.7
201907220756,7846.7,7846.8,7845.2,7845.7
201907220757,7845.7,7847.1,7845.7,7846.5
201907220758,7846.4,7846.5,7845.7,7846.2
201907220759,7846.5,7846.5,7845.2,7845.5
201907220800,7845.4,7846.6,7845.4,7846.6
201907220801,7846.4,7847.2,7846,7847
201907220802,7847,7847.5,7846.8,7847.3
201907220803,7847.3,7847.3,7846.6,7846.9
201907220804,7847.1,7848.7,7847,7848.4
201907220805,7848.5,7848.9,7847.5,7847.9
201907220806,7847.9,7848.4,7847.7,7847.9
201907220807,7847.8,7848.3,7847.6,7848
201907220808,7848.1,7848.8,7848.1,7848.8
201907220809,7848.8,7850.6,7848.7,7850.2
201907220810,7850.2,7850.3,7849.5,7849.8
201907220811,7849.8,7849.9,7849.1,7849.2
201907220812,7849.1,7849.1,7847.2,7848.2
201907220813,7848.2,7848.2,7847.2,7847.4
201907220814,7847.4,7848.3,7847.3,7847.3
201907220815,7847.3,7848.1,7847.2,7847.6
201907220816,7847.6,7847.7,7846.4,7846.5
201907220817,7846.5,7847.3,7846.4,7847.2
201907220818,7847.2,7848.1,7846.7,7847.2
201907220819,7847.2,7848.1,7847,7848.1
201907220820,7848.1,7848.4,7847.4,7848
201907220821,7848,7848.4,7846.7,7847.9
201907220822,7847.9,7848,7845.7,7845.9
201907220823,7845.9,7845.9,7844.8,7845
201907220824,7845,7846.2,7844.8,7846.1
201907220825,7846.3,7848.7,7846.1,7847.8
201907220826,7847.8,7847.8,7846.9,7846.9
201907220827,7846.8,7847.4,7846.5,7847.2
201907220828,7847.2,7847.3,7846.5,7846.7
201907220829,7846.7,7848.1,7846.7,7847.6
201907220830,7847.6,7847.6,7845.2,7846.3
201907220831,7846.3,7846.3,7845.7,7846.1
201907220832,7846.1,7846.3,7845.9,7846
201907220833,7846,7847.5,7846,7847.3
201907220834,7847.3,7848.1,7847.3,7848.1
201907220835,7848.1,7848.4,7847.5,7847.9
201907220836,7847.9,7849.7,7847.8,7849.3
201907220837,7849.4,7849.8,7849.2,7849.7
201907220838,7849.7,7850.8,7849.7,7850.8
201907220839,7850.7,7850.7,7849.6,7849.9
201907220840,7849.9,7850.7,7849.9,7850.2
201907220841,7850.1,7850.2,7849.5,7850.2
201907220842,7850.2,7850.2,7849.9,7850.2
201907220843,7850.1,7850.1,7849.4,7849.7
201907220844,7849.7,7849.7,7849.2,7849.3
201907220845,7849.3,7852.2,7849.3,7852
201907220846,7852,7853.8,7850.1,7850.1
201907220847,7850.1,7851.6,7849.8,7851.6
201907220848,7851.6,7852.1,7851.3,7851.9
201907220849,7851.9,7852.3,7850.9,7851
201907220850,7851.2,7851.7,7850.5,7850.5
201907220851,7850.5,7851,7850.4,7850.9
201907220852,7850.9,7852.5,7850.9,7852.5
201907220853,7852.6,7853.8,7852.5,7852.5
201907220854,7852.5,7853.3,7852.1,7853.3
201907220855,7853.4,7853.6,7850.9,7851.2
201907220856,7851.2,7851.8,7850.9,7851.6
201907220857,7851.6,7851.9,7851.1,7851.8
201907220858,7851.8,7852.1,7850.2,7850.8
201907220859,7850.6,7851.1,7849.5,7850.4
201907220900,7850.4,7851.8,7849,7850.9
201907220901,7850.9,7853.1,7850.2,7850.8
201907220902,7850.5,7850.8,7849.2,7849.2
201907220903,7849.2,7849.8,7848.5,7848.8
201907220904,7848.9,7849.6,7848,7848.3
201907220905,7848.4,7849.2,7847.5,7847.7
201907220906,7847.7,7847.7,7846,7846.4
201907220907,7846.4,7847.7,7843.2,7843.7
201907220908,7843.5,7843.8,7841.2,7841.3
201907220909,7841.3,7841.6,7840.9,7841.1
201907220910,7841.1,7843.4,7840.6,7843.4
201907220911,7843.4,7844.2,7843,7843.3
201907220912,7843.3,7843.8,7842.4,7842.8
201907220913,7842.8,7843.9,7842.7,7843.8
201907220914,7843.8,7846,7843.8,7845.9
201907220915,7845.6,7846.3,7844.4,7845.9
201907220916,7845.9,7847,7845.9,7846.5
201907220917,7846.5,7847.5,7844.8,7844.9
201907220918,7844.9,7847,7844.6,7846.7
201907220919,7846.7,7846.8,7846,7846.7
201907220920,7846.5,7847.4,7846.5,7846.8
201907220921,7846.8,7847,7846.2,7846.9
201907220922,7846.9,7848,7846.9,7847.9
201907220923,7847.9,7848,7846.9,7847.4
201907220924,7847.4,7848,7845.7,7846.4
201907220925,7846.4,7846.8,7846,7846
201907220926,7846,7847.1,7846,7846.5
201907220927,7846.8,7848.6,7846.7,7848.6
201907220928,7848.6,7849.3,7848.3,7848.6
201907220929,7848.6,7849.8,7848.4,7849.1
201907220930,7849.1,7849.6,7847.7,7849.6
201907220931,7849.5,7849.8,7848.7,7848.7
201907220932,7848.7,7848.7,7846.2,7846.3
201907220933,7846.4,7848.1,7846.1,7847.6
201907220934,7847.6,7847.7,7846.5,7846.6
201907220935,7846.6,7847.4,7844.9,7845.7
201907220936,7845.6,7845.6,7841.7,7841.9
201907220937,7841.9,7842.8,7839.9,7839.9
201907220938,7839.9,7840,7837.4,7837.9
201907220939,7837.9,7839.1,7836.9,7839.1
201907220940,7839.1,7841.3,7839.1,7840.9
201907220941,7840.9,7841.8,7839.3,7840.2
201907220942,7840.2,7840.3,7838.8,7839.1
201907220943,7839.1,7840,7838.7,7839.7
201907220944,7839.7,7840,7839.3,7839.4
201907220945,7839.4,7839.6,7838.7,7838.8
201907220946,7838.8,7840.5,7838.8,7840.2
201907220947,7840,7840.3,7839.5,7839.9
201907220948,7839.9,7840.5,7839.4,7840.1
201907220949,7840.2,7841,7839.1,7839.1
201907220950,7839.1,7840.4,7839.1,7839.4
201907220951,7839.4,7841.2,7839.4,7841
201907220952,7841,7842,7840.4,7842
201907220953,7842,7842.2,7840.8,7841.6
201907220954,7841.7,7842,7840.8,7841.4
201907220955,7841.4,7841.4,7839.1,7839.5
201907220956,7839.5,7840.4,7838.8,7839
201907220957,7839.1,7839.1,7837.7,7837.9
201907220958,7837.9,7840.6,7837.9,7840.4
201907220959,7840.4,7841,7839.2,7839.8
201907221000,7839.8,7842.8,7839.8,7842.7
201907221001,7842.9,7844.6,7842.6,7844.2
201907221002,7844.2,7844.8,7844,7844.3
201907221003,7844.3,7845.3,7842.9,7844.7
201907221004,7844.4,7844.6,7843.6,7844.1
201907221005,7844.1,7845.8,7844.1,7844.6
201907221006,7844.6,7845.6,7844.6,7845.3
201907221007,7845.3,7845.5,7844.6,7845.2
201907221008,7845.1,7845.3,7843.4,7843.4
201907221009,7843.4,7843.8,7842.8,7842.8
201907221010,7842.9,7844.2,7842.2,7844.2
201907221011,7844.2,7845.1,7844.2,7845
201907221012,7845,7845.2,7843.6,7843.8
201907221013,7843.8,7843.8,7841.2,7841.3
201907221014,7841.4,7843.3,7841,7843.2
201907221015,7843.2,7845.1,7842.1,7844.5
201907221016,7844.5,7845.1,7842.4,7843.4
201907221017,7843.3,7844.6,7842.4,7843.8
201907221018,7843.8,7843.8,7841.8,7842.3
201907221019,7842.3,7842.3,7840.6,7840.8
201907221020,7840.8,7842.2,7839.1,7839.2
201907221021,7839.2,7840.5,7839,7839
201907221022,7839,7839.4,7837.6,7838.5
201907221023,7838.5,7839.1,7838.1,7838.6
201907221024,7838.6,7840.3,7838.6,7840.3
201907221025,7840.3,7841.8,7840.3,7841
201907221026,7841,7843.5,7841,7843.4
201907221027,7843.4,7843.4,7841.7,7843.1
201907221028,7843,7844.8,7843,7844
201907221029,7844,7844.2,7841.7,7842.3
201907221030,7842.3,7844.5,7841.4,7841.8
201907221031,7841.8,7843.3,7841.2,7842.8
201907221032,7842.8,7843.4,7839.6,7839.7
201907221033,7839.7,7839.7,7835.6,7836.7
201907221034,7836.7,7841.4,7836.7,7841.2
201907221035,7841.2,7844,7841.2,7843.7
201907221036,7843.7,7844.5,7843.2,7843.6
201907221037,7843.8,7844.5,7842.3,7843
201907221038,7843,7844.4,7842.1,7844.2
201907221039,7844.2,7844.7,7842.2,7842.9
201907221040,7842.9,7843.8,7841.9,7842.1
201907221041,7842.1,7842.8,7841.1,7841.7
201907221042,7841.5,7842.3,7840.7,7840.7
201907221043,7840.8,7842.4,7839.9,7840
201907221044,7839.9,7839.9,7838.4,7838.4
201907221045,7838.4,7839.3,7837.2,7838.9
201907221046,7838.8,7840.8,7838.4,7838.8
201907221047,7838.8,7840,7838.3,7838.3
201907221048,7838.3,7838.3,7836.4,7836.4
201907221049,7836.4,7838.3,7836.4,7837.2
201907221050,7837.2,7841.4,7836.8,7840.5
201907221051,7840.5,7841,7839.1,7840.1
201907221052,7840.1,7840.3,7837.9,7838
201907221053,7838,7838.6,7836.7,7836.7
201907221054,7836.7,7836.9,7833.4,7834.4
201907221055,7834.4,7835.5,7833.1,7833.6
201907221056,7833.6,7834.9,7833.1,7834.2
201907221057,7834.2,7836.5,7834.2,7836.4
201907221058,7836.4,7837.5,7835.8,7837.1
201907221059,7837.1,7837.5,7836.2,7836.7
201907221100,7836.7,7838,7836.7,7836.7
201907221101,7836.7,7836.8,7835.5,7836.8
201907221102,7836.7,7836.9,7835,7836.9
201907221103,7836.9,7837,7834.6,7834.9
201907221104,7834.9,7838.8,7834.7,7838.8
201907221105,7838.8,7839.9,7837.9,7839.8
201907221106,7839.8,7840.8,7839.6,7840.8
201907221107,7840.8,7841.4,7840.4,7840.5
201907221108,7840.5,7841.3,7840.2,7840.4
201907221109,7840.4,7841.9,7840.4,7841.6
201907221110,7841.7,7842.6,7839.9,7840.3
201907221111,7840.3,7841.5,7840.3,7840.3
201907221112,7840.3,7840.4,7838.9,7839.8
201907221113,7839.8,7842,7839.8,7840.8
201907221114,7840.7,7841.6,7840,7840.1
201907221115,7840.2,7840.9,7839.9,7840.9
201907221116,7840.9,7841.7,7840.6,7840.8
201907221117,7840.8,7842.4,7840.8,7841.6
201907221118,7841.7,7841.7,7839.6,7839.7
201907221119,7839.5,7840.7,7839.5,7840.4
201907221120,7840.3,7842,7840.3,7841.5
201907221121,7841.5,7842.4,7839.8,7840.1
201907221122,7840.1,7840.6,7839.6,7840
201907221123,7839.9,7839.9,7839.2,7839.2
201907221124,7839.2,7839.2,7838,7838.3
201907221125,7838.3,7839.3,7837.4,7838.2
201907221126,7838.2,7838.4,7836.9,7838.4
201907221127,7838.3,7838.5,7837.6,7837.6
201907221128,7837.6,7838,7836.9,7837.3
201907221129,7837.3,7837.5,7836.7,7837.3
201907221130,7837.3,7837.3,7835.7,7835.7
201907221131,7835.7,7836.5,7835.6,7836.4
201907221132,7836.4,7838.1,7836.3,7838.1
201907221133,7838.1,7838.4,7837.1,7838.3
201907221134,7838.3,7838.3,7837.1,7837.5
201907221135,7837.2,7838.5,7837.1,7838.4
201907221136,7838.4,7840.4,7838.4,7840.2
201907221137,7840.2,7840.9,7839.1,7840.3
201907221138,7840.3,7841.1,7840.1,7840.7
201907221139,7840.7,7841.8,7840.4,7841.4
201907221140,7841.4,7842,7840.9,7841.2
201907221141,7841.2,7841.2,7839.9,7840.1
201907221142,7840.1,7840.7,7839.6,7840.5
201907221143,7840.5,7840.5,7838.8,7839.2
201907221144,7839.2,7839.2,7837.8,7837.9
201907221145,7837.9,7839.1,7837.9,7839
201907221146,7839,7839.3,7838.2,7839.2
201907221147,7839.2,7839.2,7838.9,7839.1
201907221148,7839.1,7839.4,7838.3,7838.3
201907221149,7838.3,7839.1,7837.9,7838.5
201907221150,7838.5,7839.8,7838.2,7839.6
201907221151,7839.6,7840.4,7839.4,7840.3
201907221152,7840.3,7840.3,7839.6,7839.8
201907221153,7839.8,7840.4,7839.2,7839.3
201907221154,7839.3,7839.3,7838.3,7838.8
201907221155,7838.9,7840.2,7838.2,7839.9
201907221156,7839.9,7839.9,7838.6,7838.6
201907221157,7838.6,7839.1,7838,7838.1
201907221158,7838.1,7838.9,7838.1,7838.9
201907221159,7838.9,7839,7838.2,7838.6
201907221200,7838.6,7838.6,7837.4,7837.5
201907221201,7837.5,7838.1,7837.4,7838.1
201907221202,7838.1,7838.4,7837.8,7838.2
201907221203,7838.2,7838.2,7837.6,7837.8
201907221204,7837.8,7837.9,7837.2,7837.7
201907221205,7837.7,7838.4,7837.6,7837.9
201907221206,7837.9,7838.3,7837.5,7837.5
201907221207,7837.6,7838,7837.5,7837.9
201907221208,7837.9,7838,7837.5,7837.8
201907221209,7837.8,7838.4,7837.8,7837.9
201907221210,7837.8,7839,7837.8,7838.7
201907221211,7838.7,7838.9,7838.3,7838.7
201907221212,7838.7,7839.5,7838.7,7839.5
201907221213,7839.5,7839.8,7839.1,7839.1
201907221214,7839.1,7840.8,7839.1,7840.6
201907221215,7840.6,7841.3,7840.5,7840.7
201907221216,7840.7,7840.8,7839.2,7839.2
201907221217,7839.4,7839.8,7839.2,7839.2
201907221218,7839.2,7839.2,7838.2,7838.2
201907221219,7838.2,7839,7838.2,7838.3
201907221220,7838.3,7839.4,7838.3,7839.3
201907221221,7839.3,7840.4,7839.3,7839.8
201907221222,7839.9,7839.9,7838.2,7838.9
201907221223,7838.9,7838.9,7837.8,7838
201907221224,7838,7838,7836.9,7837.1
201907221225,7837.1,7839.6,7837.1,7838.7
201907221226,7838.7,7839.8,7838.6,7839.8
201907221227,7839.8,7840.6,7839.8,7840.3
201907221228,7840.3,7840.6,7839.2,7839.4
201907221229,7839.4,7839.4,7837.9,7838.6
201907221230,7838.6,7839.8,7838.6,7839.4
201907221231,7839.3,7839.4,7838.7,7838.8
201907221232,7838.8,7839.1,7838.4,7839.1
201907221233,7839,7839.1,7838,7838
201907221234,7838.1,7838.2,7837.4,7838
201907221235,7838,7838.6,7837.6,7838.2
201907221236,7838.2,7838.8,7838.1,7838.3
201907221237,7838.3,7838.7,7837.8,7838.7
201907221238,7838.9,7839,7838.6,7838.7
201907221239,7838.7,7838.7,7838.2,7838.5
201907221240,7838.5,7838.9,7838.5,7838.9
201907221241,7838.9,7839,7838.2,7838.3
201907221242,7838.3,7839,7838.3,7839
201907221243,7839,7839,7838.4,7838.8
201907221244,7838.8,7838.8,7838.6,7838.6
201907221245,7838.6,7838.8,7838.3,7838.7
201907221246,7838.7,7839.3,7838.2,7839.1
201907221247,7839.1,7839.1,7838.3,7838.5
201907221248,7838.6,7838.7,7838.5,7838.7
201907221249,7838.7,7838.9,7838.2,7838.2
201907221250,7838.2,7838.9,7838,7838.9
201907221251,7838.9,7839,7838.4,7838.4
201907221252,7838.3,7838.5,7838.1,7838.4
201907221253,7838.4,7838.4,7838.1,7838.3
201907221254,7838.3,7840.2,7838.3,7840.2
201907221255,7840.2,7840.7,7839.4,7839.4
201907221256,7839.4,7839.8,7839.3,7839.7
201907221257,7839.5,7839.5,7838.4,7838.7
201907221258,7838.7,7838.7,7838.2,7838.4
201907221259,7838.4,7838.7,7838.3,7838.6
201907221300,7838.7,7840.5,7838.7,7840.1
201907221301,7840.1,7841,7840.1,7840.3
201907221302,7840.3,7840.7,7840.3,7840.4
201907221303,7840.4,7840.7,7840.1,7840.3
201907221304,7840.3,7840.3,7840.1,7840.1
201907221305,7840.1,7840.7,7839.9,7839.9
201907221306,7839.9,7839.9,7839.1,7839.4
201907221307,7839.4,7839.8,7839.1,7839.2
201907221308,7839.1,7840,7839,7839.4
201907221309,7839.4,7839.5,7839.2,7839.2
201907221310,7839.2,7840.5,7839.2,7840.4
201907221311,7840.4,7840.6,7839.1,7839.1
201907221312,7839.1,7839.4,7839.1,7839.3
201907221313,7839.3,7840.2,7839.2,7839.7
201907221314,7839.7,7840.1,7839.3,7839.4
201907221315,7839.4,7839.8,7839.1,7839.6
201907221316,7839.6,7840.1,7839.4,7840.1
201907221317,7840.1,7840.1,7839.9,7839.9
201907221318,7839.8,7839.9,7839.7,7839.8
201907221319,7839.8,7839.8,7838.4,7839
201907221320,7839,7839.6,7838.9,7839
201907221321,7839.1,7839.4,7838.9,7839.3
201907221322,7839.3,7839.5,7839.2,7839.2
201907221323,7839.2,7839.7,7839.1,7839.1
201907221324,7839.2,7839.2,7838.4,7838.4
201907221325,7838.4,7839,7838.4,7839
201907221326,7839,7839.8,7838.8,7839.8
201907221327,7839.9,7840,7839.4,7839.4
201907221328,7839.4,7840,7839.4,7840
201907221329,7840.2,7840.2,7839.5,7839.5
201907221330,7839.5,7840.6,7839.5,7840.5
201907221331,7840.6,7840.8,7840.2,7840.7
201907221332,7840.7,7840.7,7840.1,7840.7
201907221333,7840.6,7841,7840.4,7841
201907221334,7841,7841.1,7840.8,7841.1
201907221335,7841.2,7842,7841.2,7841.6
201907221336,7841.6,7841.8,7841.6,7841.8
201907221337,7841.8,7841.9,7841.6,7841.8
201907221338,7841.8,7842.1,7841.3,7841.7
201907221339,7841.7,7842.2,7841.6,7842.2
201907221340,7842.1,7842.1,7841.9,7841.9
201907221341,7841.9,7841.9,7840.9,7841
201907221342,7841,7841.1,7840.6,7840.9
201907221343,7840.9,7841.8,7840.9,7841.6
201907221344,7841.5,7841.8,7841.3,7841.5
201907221345,7841.6,7842.5,7841.6,7841.8
201907221346,7841.8,7842.3,7841.8,7842
201907221347,7842,7842.1,7841.6,7842.1
201907221348,7842,7842.5,7842,7842.5
201907221349,7842.5,7842.5,7842.3,7842.3
201907221350,7842.3,7842.6,7842.1,7842.5
201907221351,7842.5,7843,7842.5,7842.7
201907221352,7842.7,7843.7,7842.5,7843.7
201907221353,7843.5,7843.6,7843.3,7843.6
201907221354,7843.5,7843.7,7843.4,7843.6
201907221355,7843.6,7843.9,7843.6,7843.9
201907221356,7843.9,7844.3,7843.6,7844.2
201907221357,7844.2,7844.2,7844,7844.1
201907221358,7844,7844.1,7843.7,7843.9
201907221359,7843.9,7844,7843.4,7843.4
201907221400,7843.4,7844.1,7842.7,7842.7
201907221401,7842.7,7843.4,7842.5,7843.4
201907221402,7843.4,7844.2,7843.4,7844.2
201907221403,7844.2,7844.3,7841.9,7842
201907221404,7842,7842,7840.3,7840.9
201907221405,7840.9,7842.1,7840.8,7842.1
201907221406,7842.1,7844.2,7841.8,7844.2
201907221407,7844.1,7844.9,7843.9,7844.9
201907221408,7844.9,7845.3,7844.1,7844.1
201907221409,7844.1,7845.3,7844.1,7845.3
201907221410,7845.3,7846.3,7845.3,7846.3
201907221411,7846.4,7847.1,7846.3,7846.8
201907221412,7846.8,7847.5,7846.8,7847.4
201907221413,7847.4,7847.6,7847.2,7847.5
201907221414,7847.5,7847.6,7846.7,7846.9
201907221415,7846.8,7847.5,7846.4,7846.8
201907221416,7846.8,7847.3,7846.4,7846.6
201907221417,7846.6,7846.6,7846.1,7846.2
201907221418,7846.2,7846.4,7845.5,7846.2
201907221419,7846.1,7846.8,7846,7846.3
201907221420,7846.4,7846.6,7846.1,7846.4
201907221421,7846.4,7847.3,7846.4,7847
201907221422,7847,7847,7846,7846.9
201907221423,7846.8,7846.8,7845.8,7845.8
201907221424,7845.8,7845.9,7845.4,7845.9
201907221425,7845.9,7846,7845.4,7845.8
201907221426,7845.9,7846.2,7845.4,7846.1
201907221427,7846.2,7846.4,7845.6,7845.9
201907221428,7845.9,7846.8,7845.6,7846.8
201907221429,7846.8,7847.2,7846.7,7846.9
201907221430,7846.9,7848.4,7846.8,7848.4
201907221431,7848.4,7851.5,7848.1,7850.9
201907221432,7850.9,7851.6,7850,7850
201907221433,7850,7851.6,7850,7851.6
201907221434,7851.6,7852,7851.2,7852
201907221435,7852,7856.8,7852,7856
201907221436,7856.1,7861.3,7855.7,7859.8
201907221437,7859.8,7862.1,7859.2,7861.9
201907221438,7861.8,7867.7,7861.7,7867.7
201907221439,7867.8,7868.3,7862.9,7863.7
201907221440,7863.7,7863.7,7859.5,7859.5
201907221441,7859.6,7861.9,7859.4,7861.7
201907221442,7861.7,7861.9,7859.1,7859.3
201907221443,7859.4,7859.9,7858.4,7858.4
201907221444,7858.4,7858.5,7857.7,7858.3
201907221445,7858.3,7858.5,7857.7,7858.3
201907221446,7858.3,7858.6,7857.8,7858.3
201907221447,7858.3,7858.5,7857.9,7857.9
201907221448,7857.9,7858.2,7857.4,7857.4
201907221449,7857.3,7857.6,7856.3,7856.3
201907221450,7856.3,7856.5,7854.1,7854.5
201907221451,7854.5,7854.9,7853.6,7853.8
201907221452,7853.8,7853.8,7853.2,7853.4
201907221453,7853.4,7854.9,7853.4,7854.8
201907221454,7854.8,7854.8,7853.8,7854.2
201907221455,7854.2,7855.5,7854.2,7854.5
201907221456,7854.5,7854.6,7851.9,7851.9
201907221457,7851.9,7852.6,7851.8,7852.6
201907221458,7852.6,7852.7,7851.4,7851.4
201907221459,7851.4,7852.4,7850,7852.3
201907221500,7852.3,7855.3,7851.9,7855.2
201907221501,7855.3,7856.5,7855.2,7856.2
201907221502,7856.2,7856.8,7856.1,7856.8
201907221503,7856.9,7858,7855.6,7855.6
201907221504,7855.5,7855.5,7854.6,7855.1
201907221505,7855.1,7857,7855.1,7856.6
201907221506,7856.6,7858.7,7856.6,7858.7
201907221507,7858.7,7858.8,7857.6,7858.3
201907221508,7858.3,7858.3,7857.7,7858.1
201907221509,7858,7858,7856.5,7857
201907221510,7857.3,7857.5,7855.5,7857.2
201907221511,7857.2,7857.2,7856.6,7856.8
201907221512,7856.8,7857.4,7856.4,7857.4
201907221513,7857.4,7858,7857.4,7857.7
201907221514,7857.7,7857.7,7856.6,7856.8
201907221515,7856.8,7857.5,7855.8,7855.8
201907221516,7855.8,7856.1,7854.7,7855.8
201907221517,7855.8,7855.9,7855.4,7855.6
201907221518,7855.7,7857,7855.4,7856.8
201907221519,7856.9,7857,7854.9,7855.6
201907221520,7855.6,7856.3,7854.7,7855.5
201907221521,7855.6,7856.8,7855.3,7856.8
201907221522,7856.9,7856.9,7855.5,7856.3
201907221523,7856.3,7857.4,7855.6,7855.6
201907221524,7855.6,7857.3,7854.9,7855.6
201907221525,7855.6,7856,7855.2,7855.7
201907221526,7855.7,7856,7855.2,7855.7
201907221527,7855.7,7856.7,7855.1,7855.2
201907221528,7855.2,7856,7854.9,7856
201907221529,7856,7856.1,7855.1,7855.1
201907221530,7855,7856,7854.9,7855.9
201907221531,7855.9,7856.1,7855.4,7855.8
201907221532,7855.8,7857.1,7855.7,7857.1
201907221533,7857.1,7859,7856.7,7858.9
201907221534,7858.9,7860.9,7858.6,7860.5
201907221535,7860.5,7863,7860.2,7862.8
201907221536,7862.8,7864.1,7862.4,7863.3
201907221537,7863.5,7865.6,7863.3,7865.6
201907221538,7865.5,7865.5,7863.7,7863.9
201907221539,7863.9,7865.3,7863.6,7864.8
201907221540,7864.8,7864.8,7863.7,7863.8
201907221541,7863.8,7866.2,7863.3,7866.2
201907221542,7866.2,7866.9,7864.9,7866.3
201907221543,7866.3,7867.3,7865.7,7865.9
201907221544,7865.9,7866,7863.7,7863.7
201907221545,7863.5,7863.5,7860.7,7860.8
201907221546,7860.8,7862.4,7859.9,7862.4
201907221547,7862.3,7862.8,7861.6,7861.6
201907221548,7861.6,7861.9,7860.7,7860.7
201907221549,7860.7,7861,7859.4,7859.4
201907221550,7859.7,7860.1,7859.3,7859.4
201907221551,7859.4,7859.4,7859.2,7859.2
201907221552,7859,7860,7858,7858
201907221553,7858.1,7859.8,7857.7,7859.6
201907221554,7859.6,7860.8,7859.6,7860.1
201907221555,7860.1,7860.3,7858.1,7858.2
201907221556,7858.2,7860,7857.8,7860
201907221557,7860,7860,7858.5,7859.4
201907221558,7859.4,7860.1,7858.5,7859.3
201907221559,7859.3,7861.8,7858.8,7860.6
201907221600,7860.6,7861.9,7858.4,7861.4
201907221601,7861.4,7861.4,7857.9,7857.9
201907221602,7858.3,7859.5,7857.4,7858.3
201907221603,7858.3,7858.3,7855,7855.4
201907221604,7855.4,7856.1,7854.9,7855.9
201907221605,7855.9,7859.8,7855.9,7859.1
201907221606,7859.1,7860,7855.8,7859.6
201907221607,7859.6,7863,7859.4,7862.6
201907221608,7862.6,7865.3,7862.6,7863.9
201907221609,7863.9,7865.3,7863.6,7864.8
201907221610,7864.8,7865.8,7863.1,7863.1
201907221611,7863.1,7863.4,7861.4,7861.9
201907221612,7861.9,7862.3,7861.3,7861.9
201907221613,7861.9,7863.4,7861.3,7863.1
201907221614,7863.1,7865.3,7862.6,7864.1
201907221615,7864.1,7864.1,7861.8,7862.9
201907221616,7862.8,7863.6,7860.7,7860.8
201907221617,7860.8,7863.6,7860.8,7861.7
201907221618,7861.7,7864,7861.1,7862.7
201907221619,7862.7,7864.8,7862.1,7863.3
201907221620,7863.3,7864.5,7861.7,7862.3
201907221621,7862.3,7865.3,7862.2,7865.3
201907221622,7865.3,7865.4,7863.7,7863.9
201907221623,7863.9,7864.6,7863.7,7863.7
201907221624,7863.5,7863.5,7861.9,7862
201907221625,7862,7862.9,7860.7,7860.7
201907221626,7860.7,7861.3,7860.2,7860.2
201907221627,7860.2,7861,7859.9,7860.6
201907221628,7860.6,7862.4,7860.6,7861.5
201907221629,7861.5,7862.8,7861.4,7862.3
201907221630,7862.3,7862.9,7856.9,7857.7
201907221631,7857.7,7860.2,7857.7,7859.1
201907221632,7859,7859.3,7855.9,7857.5
201907221633,7857.5,7858.5,7857.2,7858.1
201907221634,7858.1,7860,7856.5,7857.1
201907221635,7857.1,7858.7,7856.9,7858.7
201907221636,7858.5,7859.9,7857.6,7857.6
201907221637,7857.6,7859,7856.9,7857.3
201907221638,7857.3,7858,7856.4,7857
201907221639,7857,7858.1,7856.8,7857.8
201907221640,7857.9,7860.5,7857,7860.4
201907221641,7860.4,7860.9,7859.9,7860.2
201907221642,7860.1,7861,7858.8,7858.9
201907221643,7858.9,7859.5,7856.3,7857.4
201907221644,7857.4,7857.4,7854.9,7855.9
201907221645,7855.8,7856,7852.7,7855.4
201907221646,7855.4,7856.8,7855.3,7855.9
201907221647,7855.8,7856.6,7854.8,7855.2
201907221648,7855.4,7855.7,7854.8,7855.6
201907221649,7855.6,7856.3,7853.3,7853.7
201907221650,7853.7,7853.7,7851.6,7852.8
201907221651,7852.8,7853.1,7852.1,7852.9
201907221652,7852.9,7854.1,7851.8,7853.5
201907221653,7853.6,7854.6,7853.1,7853.9
201907221654,7853.9,7855,7853.7,7854.8
201907221655,7854.9,7854.9,7852.6,7854
201907221656,7854,7854,7851.9,7853.8
201907221657,7853.8,7854,7851.7,7852.9
201907221658,7852.9,7854.5,7852.4,7854.4
201907221659,7854.4,7855.1,7853.6,7854.1
201907221700,7854.1,7856.4,7854,7856.2
201907221701,7856.2,7856.9,7855.4,7856.6
201907221702,7856.6,7858.1,7856.6,7858.1
201907221703,7858.4,7860.5,7858,7860.3
201907221704,7860.2,7860.5,7859.2,7860.1
201907221705,7860.1,7861.1,7860.1,7860.9
201907221706,7860.8,7861.5,7859.7,7860
201907221707,7860,7860.3,7858.7,7858.7
201907221708,7858.7,7860.1,7858.7,7860.1
201907221709,7860.1,7860.4,7858.5,7859.6
201907221710,7859.6,7860.1,7859.1,7859.5
201907221711,7859.6,7860.8,7859.3,7860.2
201907221712,7860.2,7862.6,7860.2,7861.7
201907221713,7861.7,7862.6,7861.4,7862.4
201907221714,7862.3,7862.6,7861.4,7861.5
201907221715,7861.5,7861.8,7859.6,7860.9
201907221716,7860.9,7861.8,7860.9,7861.8
201907221717,7861.8,7865,7861.8,7864.9
201907221718,7864.9,7867.1,7864.7,7866.6
201907221719,7866.6,7869.4,7866.1,7869.1
201907221720,7869,7869.1,7867.7,7867.7
201907221721,7867.7,7871.3,7867.7,7870.4
201907221722,7870.5,7870.8,7869.4,7870.2
201907221723,7870.2,7871.1,7870,7870
201907221724,7870,7871.8,7869.8,7869.8
201907221725,7869.8,7871.3,7869,7869
201907221726,7868.9,7869.3,7867.8,7868.7
201907221727,7868.7,7869.1,7868.1,7868.4
201907221728,7868.4,7869.3,7867.7,7868.4
201907221729,7868.4,7869.3,7868.3,7868.6
201907221730,7868.7,7869.5,7868.3,7868.7
201907221731,7868.7,7869.1,7868.4,7868.4
201907221732,7868.4,7869.1,7868.4,7868.6
201907221733,7868.6,7869.5,7868.5,7869.4
201907221734,7869.4,7870.3,7868.5,7870.1
201907221735,7870.1,7870.9,7870.1,7870.7
201907221736,7870.7,7871,7868.7,7869
201907221737,7869,7869.8,7869,7869.8
201907221738,7869.8,7870,7868.2,7868.7
201907221739,7868.7,7869.3,7868.7,7869.1
201907221740,7869.1,7871.1,7867.9,7868.2
201907221741,7868.1,7868.5,7867.5,7867.8
201907221742,7867.8,7869.9,7867.8,7869.9
201907221743,7869.9,7871.6,7868.8,7870.9
201907221744,7871.2,7873,7871.2,7871.2
201907221745,7871.2,7871.8,7870.9,7871.7
201907221746,7871.6,7872.2,7869.6,7869.7
201907221747,7869.7,7870.3,7869.6,7870
201907221748,7870,7871.3,7870,7871.2
201907221749,7871.2,7872.2,7870.7,7871.1
201907221750,7871,7872,7871,7871.3
201907221751,7871.3,7872,7870.5,7871.4
201907221752,7871.4,7871.5,7871.1,7871.5
201907221753,7871.5,7872.3,7869.9,7870
201907221754,7870,7870.1,7868.1,7868.4
201907221755,7868.4,7868.6,7867.6,7868
201907221756,7868,7871.8,7867.7,7870.7
201907221757,7870.7,7871,7870.1,7870.4
201907221758,7870.4,7870.8,7870.1,7870.5
201907221759,7870.5,7871.7,7870.5,7871.4
201907221800,7871.4,7872.8,7870.4,7872.8
201907221801,7872.8,7873.2,7871.7,7871.7
201907221802,7871.7,7872.4,7870.9,7871.3
201907221803,7871.3,7872.4,7870.9,7872
201907221804,7872,7872.6,7871.8,7872
201907221805,7872,7874,7871.7,7871.7
201907221806,7871.7,7872,7870.8,7870.9
201907221807,7870.9,7870.9,7870,7870.7
201907221808,7870.7,7871.8,7870.4,7871.4
201907221809,7871.4,7871.8,7868.9,7868.9
201907221810,7868.9,7869.4,7868.4,7869.1
201907221811,7869.1,7869.9,7869.1,7869.6
201907221812,7869.7,7870.7,7869.7,7870.2
201907221813,7870,7870.3,7869.9,7870.1
201907221814,7870.1,7870.1,7868.4,7868.8
201907221815,7868.8,7869.4,7868.4,7868.4
201907221816,7868.4,7868.8,7868.2,7868.8
201907221817,7868.8,7869.3,7868.6,7869
201907221818,7869,7870.4,7869,7870
201907221819,7870.1,7870.1,7868.9,7869.1
201907221820,7869.1,7869.6,7868.5,7868.6
201907221821,7868.6,7869.3,7867.7,7868.6
201907221822,7868.6,7869.3,7868.4,7868.5
201907221823,7868.5,7869.1,7868.3,7869.1
201907221824,7869.1,7870.3,7868.5,7869.5
201907221825,7869.5,7869.9,7869.3,7869.7
201907221826,7869.8,7870.5,7869.5,7870.4
201907221827,7870.4,7870.7,7868.4,7868.9
201907221828,7868.9,7869.5,7868.2,7868.2
201907221829,7868.2,7869.1,7868.1,7869.1
201907221830,7869.1,7869.3,7868.7,7869.2
201907221831,7869.2,7869.2,7868.7,7869.1
201907221832,7869.1,7870.9,7869.1,7870.9
201907221833,7870.9,7871.4,7870.5,7871.2
201907221834,7871.2,7871.5,7869.4,7869.8
201907221835,7869.8,7870.6,7869.8,7870.5
201907221836,7870.5,7872.2,7870.4,7871.8
201907221837,7871.8,7873.9,7871.8,7872.9
201907221838,7872.9,7875.2,7872.9,7873.9
201907221839,7873.9,7873.9,7872.9,7873.2
201907221840,7873.2,7873.4,7872.4,7872.9
201907221841,7872.8,7873,7872.6,7872.7
201907221842,7872.8,7872.9,7870.6,7871.1
201907221843,7871.1,7871.1,7870.2,7870.2
201907221844,7870.2,7870.3,7868.3,7868.4
201907221845,7868.2,7868.8,7867.9,7868.1
201907221846,7868.1,7868.1,7866.2,7866.5
201907221847,7866.5,7866.7,7865.9,7866.4
201907221848,7866.4,7867.5,7866.4,7867.4
201907221849,7867.3,7869.2,7867.1,7868.7
201907221850,7868.6,7869,7867.9,7868.7
201907221851,7868.7,7869.1,7868.6,7868.9
201907221852,7868.9,7869.1,7867.8,7868
201907221853,7868,7868.5,7867.7,7868.4
201907221854,7868.4,7869.4,7867.8,7868.6
201907221855,7868.6,7869.3,7868.3,7869.1
201907221856,7869.1,7870.3,7868.8,7870.3
201907221857,7870.4,7871.2,7870.2,7870.4
201907221858,7870.4,7871.5,7870.2,7871.1
201907221859,7871.1,7871.3,7869.7,7869.9
201907221900,7869.8,7870.7,7869.1,7869.1
201907221901,7869.1,7869.5,7868.5,7868.5
201907221902,7868.5,7868.7,7867.2,7867.4
201907221903,7867.4,7867.9,7866.4,7866.4
201907221904,7866.4,7867.5,7866.1,7867.4
201907221905,7867.4,7869.7,7867.4,7869.1
201907221906,7869.2,7869.8,7869.1,7869.1
201907221907,7869.1,7869.1,7868.7,7869.1
201907221908,7869.1,7869.1,7867.8,7868.1
201907221909,7868.1,7868.5,7867.9,7868.5
201907221910,7868.6,7868.7,7868,7868.4
201907221911,7868.4,7868.4,7867.5,7868
201907221912,7868.1,7868.1,7866.6,7866.8
201907221913,7866.8,7868.8,7866.7,7868.8
201907221914,7868.8,7869.4,7868.6,7869.1
201907221915,7869.1,7871.3,7868.8,7870.8
201907221916,7870.5,7871.6,7869.9,7871.3
201907221917,7871.4,7871.5,7870.6,7870.9
201907221918,7870.9,7872,7870.9,7871.6
201907221919,7871.6,7872.3,7870.8,7872.2
201907221920,7872.2,7873.3,7871.9,7872
201907221921,7872,7872.2,7870.7,7870.7
201907221922,7870.7,7871.8,7870.5,7871.6
201907221923,7871.7,7871.7,7870.1,7870.2
201907221924,7870.3,7870.8,7869.9,7869.9
201907221925,7869.9,7870.7,7869.9,7870.7
201907221926,7870.6,7870.6,7869.8,7870.2
201907221927,7870.2,7870.6,7869,7869.2
201907221928,7869.2,7871.3,7869.2,7871.3
201907221929,7871.3,7871.6,7870.4,7870.5
201907221930,7870.5,7871.8,7870.2,7871.2
201907221931,7871.2,7873.7,7871,7873.7
201907221932,7873.7,7877.5,7873.7,7877.5
201907221933,7877.5,7883.3,7876.7,7882.9
201907221934,7882.6,7883.1,7880.1,7881.5
201907221935,7881.5,7882,7880.2,7880.3
201907221936,7880.3,7881,7878.5,7878.9
201907221937,7878.9,7881,7878.9,7879.5
201907221938,7879.5,7880.3,7878.7,7879.1
201907221939,7879.1,7880.4,7879.1,7879.9
201907221940,7879.8,7880.3,7879.3,7879.9
201907221941,7879.9,7880,7878.9,7879.3
201907221942,7879.3,7879.3,7877.8,7878.2
201907221943,7878.2,7879.4,7877.5,7879.4
201907221944,7879.4,7879.9,7878.4,7879.9
201907221945,7879.8,7879.8,7877.8,7877.9
201907221946,7877.8,7878.6,7877.6,7878.1
201907221947,7878.1,7879.1,7878.1,7879
201907221948,7879,7879.9,7879,7879.3
201907221949,7879.3,7879.5,7878.8,7879.5
201907221950,7879.5,7880,7879.4,7880
201907221951,7880.1,7880.8,7880,7880.1
201907221952,7880.2,7880.8,7880,7880.4
201907221953,7880.4,7880.8,7879.1,7879.1
201907221954,7879.1,7879.3,7878.9,7879
201907221955,7879,7879.9,7879,7879.8
201907221956,7879.9,7880.3,7879.5,7879.7
201907221957,7879.7,7880.3,7879.4,7879.6
201907221958,7879.6,7880.5,7879.6,7880.2
201907221959,7880.3,7880.4,7879.5,7880.3
201907222000,7880.3,7881.1,7879.1,7879.9
201907222001,7879.8,7880.3,7878.1,7878.1
201907222002,7878.1,7879.3,7877.9,7878.9
201907222003,7878.9,7879.3,7878.1,7879.1
201907222004,7879.1,7880.3,7879.1,7880.2
201907222005,7880.2,7880.5,7880,7880.5
201907222006,7880.5,7881.4,7878.1,7878.3
201907222007,7878.4,7879,7878.4,7878.9
201907222008,7879.1,7879.1,7878.1,7878.5
201907222009,7878.5,7879.6,7878.5,7879.4
201907222010,7879.4,7880.4,7879.4,7880.2
201907222011,7880.2,7880.5,7878.7,7878.7
201907222012,7878.7,7880.6,7878.7,7880.3
201907222013,7880.3,7880.7,7880.1,7880.7
201907222014,7880.6,7880.6,7879.3,7879.7
201907222015,7879.5,7881,7879.3,7880.4
201907222016,7880.4,7880.7,7879.9,7880.3
201907222017,7880.9,7880.9,7878.6,7878.8
201907222018,7878.8,7878.8,7877.9,7878.1
201907222019,7878.2,7878.5,7877,7877
201907222020,7877,7877.5,7876.4,7877.5
201907222021,7877.5,7878.5,7877.3,7877.6
201907222022,7877.7,7877.7,7875.2,7876.2
201907222023,7876.2,7876.7,7875.4,7875.7
201907222024,7875.6,7875.6,7874.7,7874.8
201907222025,7874.8,7876.1,7874.7,7875.9
201907222026,7875.8,7876.3,7875.3,7875.3
201907222027,7875.3,7875.9,7875.3,7875.6
201907222028,7875.6,7876,7875.6,7876
201907222029,7876,7876.3,7875.4,7875.9
201907222030,7875.8,7877.1,7875.2,7876.9
201907222031,7876.9,7877.7,7876.8,7877.3
201907222032,7877.3,7877.8,7876.4,7876.4
201907222033,7876.4,7876.5,7875.5,7876.1
201907222034,7876.1,7876.1,7874.4,7875
201907222035,7875,7876.8,7874.9,7876.4
201907222036,7876.4,7876.5,7875.7,7875.7
201907222037,7875.5,7875.5,7874.6,7874.8
201907222038,7874.9,7875.4,7874.6,7875.1
201907222039,7875.1,7875.1,7873.6,7874.4
201907222040,7874.4,7874.8,7873.4,7874.5
201907222041,7874.5,7874.5,7873.1,7873.1
201907222042,7873.1,7875.2,7873.1,7873.5
201907222043,7873.5,7874.3,7873.1,7874.3
201907222044,7874.3,7874.3,7873.4,7873.9
201907222045,7873.9,7875,7873.8,7874.9
201907222046,7874.8,7875,7874.4,7874.8
201907222047,7874.8,7874.8,7874.4,7874.4
201907222048,7874.4,7875.1,7873.9,7874.3
201907222049,7874.3,7875.4,7874.1,7875.4
201907222050,7875.3,7876,7874.3,7875.1
201907222051,7875.1,7875.1,7873.9,7874.5
201907222052,7874.5,7874.8,7874.1,7874.1
201907222053,7874.1,7874.7,7873.9,7874.2
201907222054,7874.2,7875.5,7873.4,7875.4
201907222055,7875.4,7875.8,7874.4,7874.8
201907222056,7874.9,7875.2,7873.6,7873.9
201907222057,7873.9,7873.9,7873.1,7873.8
201907222058,7873.8,7874,7873.1,7873.2
201907222059,7873.2,7873.3,7872.3,7873.2
201907222100,7873.2,7873.3,7872.6,7872.8
201907222101,7872.8,7873.8,7872.5,7872.6
201907222102,7872.6,7874,7872.6,7873.8
201907222103,7873.8,7876.1,7873.8,7874.2
201907222104,7874,7875.1,7874,7874.3
201907222105,7874.4,7875.4,7874.4,7875.4
201907222106,7875.3,7875.4,7874.1,7874.2
201907222107,7874.2,7880.6,7874.2,7874.5
201907222108,7874.6,7874.7,7868.7,7870.4
201907222109,7870.4,7870.9,7868.9,7870.1
201907222110,7870.1,7870.3,7868.6,7868.8
201907222111,7868.8,7869.3,7864.9,7865.3
201907222112,7865.3,7867,7865.3,7866.1
201907222113,7866.2,7866.4,7863.7,7865.5
201907222114,7865.5,7865.5,7862.7,7864
201907222115,7864,7869.3,7863.9,7867.4
201907222116,7867.4,7868.1,7865.6,7865.6
201907222117,7865.6,7875.4,7865.4,7875.3
201907222118,7875.3,7879.1,7875.1,7878.6
201907222119,7878.6,7883.5,7878.5,7882.7
201907222120,7882.7,7887,7882.3,7883.1
201907222121,7883.1,7883.4,7877.4,7877.6
201907222122,7877.4,7880.8,7877.2,7880
201907222123,7880,7882.8,7879.8,7879.8
201907222124,7879.8,7881.3,7879.7,7879.9
201907222125,7879.9,7880.8,7879.5,7879.7
201907222126,7879.7,7880.1,7876.5,7877
201907222127,7877.1,7878.5,7873.9,7874.4
201907222128,7874.4,7875.8,7873.9,7875.5
201907222129,7875.5,7878.7,7874.5,7878.1
201907222130,7878,7881.3,7877.8,7879.6
201907222131,7879.2,7881.9,7879.1,7880.2
201907222132,7880.2,7882.3,7879.5,7879.8
201907222133,7879.8,7880.1,7876.2,7878.1
201907222134,7878.1,7882,7878.1,7880.6
201907222135,7880.5,7881.4,7878.8,7878.8
201907222136,7878.9,7881.8,7878.9,7881.6
201907222137,7881.6,7884.3,7878.6,7878.6
201907222138,7878.6,7880.1,7878.3,7878.5
201907222139,7878.6,7879.5,7878.2,7878.8
201907222140,7878.8,7880.1,7878.8,7879.6
201907222141,7879.6,7879.9,7878.9,7879.3
201907222142,7879.3,7880.3,7878.1,7878.8
201907222143,7878.8,7879.3,7877.9,7878.7
201907222144,7878.6,7880.5,7878.4,7879.8
201907222145,7879.8,7880.8,7879.1,7879.4
201907222146,7879.3,7881.3,7879.3,7879.7
201907222147,7879.9,7880.5,7878.3,7878.6
201907222148,7878.6,7879.1,7877.5,7878.9
201907222149,7878.8,7879.6,7878.6,7879.1
201907222150,7879.1,7879.2,7877.9,7878.8
201907222151,7878.8,7879.5,7878.3,7879.1
201907222152,7879.1,7879.6,7878.2,7879.2
201907222153,7879.2,7879.2,7877.4,7878.1
201907222154,7878,7878.8,7877.6,7878.3
201907222155,7878.3,7878.9,7877.2,7877.7
201907222156,7877.7,7878.6,7877.3,7877.3
201907222157,7877.3,7877.5,7876.5,7877.4
201907222158,7877.4,7878.5,7876.9,7877
201907222159,7876.9,7877,7875.5,7875.9
201907222200,7875.9,7876,7874.4,7874.4
201907222201,7874.4,7877.7,7874.4,7877.3
201907222202,7877.3,7879.1,7877.3,7878.8
201907222203,7878.8,7879.3,7878.5,7878.5
201907222204,7878.5,7879.3,7877.1,7879.2
201907222205,7879.2,7879.8,7878.6,7878.9
201907222206,7878.9,7878.9,7876,7876.2
201907222207,7876.2,7876.2,7875.1,7875.1
201907222208,7875.1,7875.8,7874.5,7874.5
201907222209,7874.6,7875.3,7874.6,7874.8
201907222210,7874.9,7875.4,7874.2,7875
201907222211,7875.1,7876.1,7874.2,7874.4
201907222212,7874.3,7874.6,7874.1,7874.5
201907222213,7874.6,7874.6,7874.2,7874.6
201907222214,7874.6,7874.6,7872.9,7872.9
201907222215,7872.8,7873.8,7872.8,7873.5
201907222216,7873.5,7873.9,7872.7,7873.4
201907222217,7873.4,7873.4,7872.2,7872.2
201907222218,7872.2,7873.5,7872.2,7873.5
201907222219,7873.5,7873.9,7873.3,7873.4
201907222220,7873.3,7873.9,7873.2,7873.4
201907222221,7873.5,7874.2,7873.4,7874.2
201907222222,7874.2,7874.6,7874.2,7874.4
201907222223,7874.4,7874.4,7870.2,7870.3
201907222224,7870.3,7871.4,7868.4,7871.2
201907222225,7871.2,7873.1,7870.4,7873.1
201907222226,7873.2,7873.7,7872.7,7873.5
201907222227,7873.5,7874.5,7872.9,7873.6
201907222228,7873.6,7878.2,7873.6,7877.2
201907222229,7877.3,7878.6,7876.2,7877.4
201907222230,7877.4,7886.5,7875.2,7879.6
201907222231,7879.6,7885.9,7878.5,7885.3
201907222232,7885.6,7889.2,7881.9,7882.5
201907222233,7882.4,7886.4,7880.4,7885.1
201907222234,7885,7887,7881,7882.9
201907222235,7883,7886.9,7880.6,7884.6
201907222236,7884.3,7886.9,7877.9,7885.9
201907222237,7885.9,7888.9,7882.4,7883.2
201907222238,7883,7888.3,7882.1,7887.7
201907222239,7887.7,7890.3,7885.3,7888
201907222240,7888,7893.8,7887.9,7893
201907222241,7893,7899,7891.8,7898.2
201907222242,7898.2,7900.3,7895.3,7899.7
201907222243,7899.7,7900.2,7896.7,7897.6
201907222244,7897.7,7898.3,7895.4,7897
201907222245,7897,7899.5,7895.4,7895.4
201907222246,7895.4,7899.2,7894.4,7897.2
201907222247,7897.4,7903,7897.4,7901
201907222248,7900.9,7904.2,7899,7904.1
201907222249,7904.1,7904.2,7902,7902.9
201907222250,7903.1,7907.7,7903.1,7906.8
201907222251,7907,7908,7905.9,7906
201907222252,7906,7906.5,7904.1,7904.8
201907222253,7904.7,7906.8,7904.2,7905.4
201907222254,7905.4,7912.4,7905.4,7912.4
201907222255,7912.4,7913.3,7911.9,7913
201907222256,7913,7916,7913,7914
201907222257,7914,7914,7910,7911
201907222258,7910.8,7913.6,7910.8,7912.6
201907222259,7912.8,7914.5,7912.5,7913.9
201907222300,7913.9,7919.3,7913.9,7915.1
201907222301,7915.1,7917.1,7915.1,7915.9
201907222302,7915.8,7917.5,7913.2,7916.4
201907222303,7916,7918.9,7913.5,7914
201907222304,7914,7916.1,7912.7,7912.7
201907222305,7912.7,7914.8,7911,7911.2
201907222306,7911.2,7912.5,7908.2,7908.7
201907222307,7908.7,7909.6,7907.2,7907.5
201907222308,7907.6,7910.3,7907.2,7910.3
201907222309,7910.3,7911.5,7906.2,7909.3
201907222310,7909.3,7909.3,7905.7,7906.1
201907222311,7906.1,7908.2,7905.3,7905.6
201907222312,7905.7,7906.9,7904.7,7904.9
201907222313,7904.8,7906,7903.7,7904.2
201907222314,7903.9,7904.7,7901.4,7903.2
201907222315,7903.2,7907.2,7903.2,7905.9
201907222316,7905.9,7905.9,7899.9,7900.1
201907222317,7900.1,7900.1,7896.6,7898.9
201907222318,7899,7902,7898.4,7900.9
201907222319,7900.9,7901.7,7897.5,7898.2
201907222320,7898.2,7900.4,7896.7,7898.7
201907222321,7898.6,7900.3,7896.6,7898.9
201907222322,7898.9,7899,7894.4,7894.6
201907222323,7894.7,7897.4,7893,7896.6
201907222324,7896.6,7896.9,7893.5,7895
201907222325,7895,7899.9,7894.2,7899.7
201907222326,7899.7,7902.4,7899.6,7900.5
201907222327,7900.5,7904.3,7900.2,7903.5
201907222328,7903.5,7903.8,7900.7,7902.2
201907222329,7902.2,7903.8,7902.2,7902.5
201907222330,7902.6,7905.6,7901.9,7904.7
201907222331,7904.7,7905.4,7902.7,7903.6
201907222332,7903.6,7905.4,7903.6,7904.2
201907222333,7904.2,7906,7903,7903.3
201907222334,7903.3,7903.3,7897,7897.7
201907222335,7897.8,7902.9,7896.7,7901.6
201907222336,7902.4,7906.7,7902.4,7905.9
201907222337,7905.9,7907.9,7905.7,7907.3
201907222338,7907.3,7909.2,7906.4,7907.7
201907222339,7907.7,7910.6,7907.4,7910.4
201907222340,7910.7,7911.4,7909.2,7909.7
201907222341,7909.7,7909.7,7906.3,7906.5
201907222342,7906.5,7906.8,7900.4,7900.9
201907222343,7900.8,7902.9,7899.4,7901
201907222344,7901,7901,7893.6,7895.6
201907222345,7895.8,7896.4,7891.4,7894.7
201907222346,7894.9,7897.4,7893.1,7893.1
201907222347,7893.1,7897.3,7892.4,7895.9
201907222348,7895.9,7896.2,7893.1,7894.7
201907222349,7894.7,7897.7,7894.4,7897.4
201907222350,7897.4,7897.4,7894.4,7895.4
201907222351,7895.4,7896.9,7893.5,7893.5
201907222352,7893.5,7893.5,7890.2,7891.4
201907222353,7891.3,7892.2,7889,7891.4
201907222354,7891.5,7892.8,7890.9,7891.4
201907222355,7891.4,7893.9,7891.4,7893.9
201907222356,7894.2,7896.7,7893.7,7896.7
201907222357,7896.5,7898.7,7895.5,7895.6
201907222358,7895.6,7897,7894.2,7896.1
201907222359,7896.2,7897,7895,7896.5
201907230000,7896.4,7899.4,7895.6,7899.3
201907230001,7899.4,7901.2,7896.3,7896.4
201907230002,7896.4,7897.1,7892.7,7893.5
201907230003,7893.4,7893.9,7891.5,7893.3
201907230004,7893.2,7894.8,7892.4,7893.1
201907230005,7893.1,7897.1,7893.1,7896.7
201907230006,7896.8,7902.8,7896.4,7901.7
201907230007,7901.7,7902.6,7897.1,7899.7
201907230008,7899.7,7901.1,7898.5,7900.4
201907230009,7900.4,7900.4,7896.4,7898.7
201907230010,7898.7,7899.2,7896,7897.4
201907230011,7897.4,7898.4,7895.4,7895.4
201907230012,7895.4,7896.4,7893.8,7894.8
201907230013,7894.8,7897.2,7894.5,7895.8
201907230014,7895.8,7898.2,7894.9,7896.7
201907230015,7896.9,7898.2,7890.7,7892.8
201907230016,7892.8,7893.5,7891.2,7893.1
201907230017,7893.1,7894,7891.9,7892.4
201907230018,7892.4,7892.4,7888.5,7891.8
201907230019,7891.8,7893.9,7891.6,7892.7
201907230020,7892.7,7893.6,7887.9,7890.9
201907230021,7891,7891.1,7888.2,7889.5
201907230022,7889.6,7892,7889.4,7891.2
201907230023,7891.2,7891.5,7889.6,7891.1
201907230024,7891.1,7894,7891.1,7893.4
201907230025,7893.4,7897.1,7893.2,7896.7
201907230026,7896.7,7898.8,7896.7,7898.1
201907230027,7898.1,7898.7,7895.6,7895.6
201907230028,7895.6,7898.1,7893.3,7897.7
201907230029,7897.7,7898.5,7896,7897.5
201907230030,7897.5,7901,7896.9,7899.9
201907230031,7899.9,7902.2,7899.7,7901
201907230032,7901,7901.4,7897.5,7898.5
201907230033,7898.5,7898.8,7894.2,7896.2
201907230034,7896.2,7898.5,7895.6,7898.2
201907230035,7898.2,7901.7,7898.1,7900.4
201907230036,7900.4,7902,7898.8,7901.6
201907230037,7901.6,7902.2,7900.9,7901.8
201907230038,7901.8,7906.7,7901.4,7906
201907230039,7906.4,7907.2,7904.4,7904.4
201907230040,7904.4,7906.6,7902.4,7903
201907230041,7903.2,7904.3,7902.2,7903.8
201907230042,7903.8,7904.9,7902.5,7903.7
201907230043,7903.7,7904.7,7902.7,7902.7
201907230044,7902.7,7904,7902.7,7903.9
201907230045,7903.2,7904.6,7902.4,7904.5
201907230046,7904.5,7906.6,7903.5,7903.8
201907230047,7903.9,7905,7903.6,7903.8
201907230048,7903.8,7904.3,7903.2,7903.5
201907230049,7903.5,7905.2,7903.5,7904.9
201907230050,7905,7905.2,7903.2,7903.2
201907230051,7903.2,7905,7902,7904.7
201907230052,7904.5,7904.8,7903.5,7904.2
201907230053,7904.2,7908.6,7904.2,7908.6
201907230054,7908.6,7910.1,7907.9,7908.9
201907230055,7908.9,7909.9,7908.4,7909.2
201907230056,7909.2,7909.2,7905.1,7905.3
201907230057,7905.4,7905.7,7903.5,7903.9
201907230058,7903.9,7906.1,7903.6,7906.1
201907230059,7906.1,7907,7904.8,7905.7
201907230100,7905.7,7908.4,7905.7,7906.1
201907230101,7906.1,7906.4,7904.4,7904.7
201907230102,7904.7,7905.3,7900.5,7900.5
201907230103,7900.5,7900.5,7893.9,7895.2
201907230104,7895.4,7898.7,7894.8,7898.2
201907230105,7898.3,7899.4,7896.6,7897.8
201907230106,7897.9,7899,7897.4,7897.6
201907230107,7897.7,7898.2,7895.5,7897
201907230108,7897,7897.8,7894,7894
201907230109,7894,7896.5,7893.9,7896.5
201907230110,7896.5,7897.6,7895.8,7897.6
201907230111,7897.7,7899.9,7897.7,7899.6
201907230112,7899.7,7900,7898.4,7899
201907230113,7899.2,7901.7,7899.1,7901.7
201907230114,7901.7,7902.3,7901.1,7901.4
201907230115,7901.4,7901.6,7899.7,7900.2
201907230116,7900.2,7902.7,7900.1,7902.1
201907230117,7902.1,7903.2,7901.2,7902.3
201907230118,7902.2,7906.4,7902,7905.9
201907230119,7905.9,7908.8,7905.8,7906.2
201907230120,7906,7907.3,7903.4,7906.9
201907230121,7906.9,7907,7905.5,7906.4
201907230122,7906.3,7907.4,7906.2,7907.2
201907230123,7907,7908,7906.9,7907.9
201907230124,7907.9,7910,7907.2,7908.7
201907230125,7908.7,7909.5,7908.2,7908.2
201907230126,7908.2,7909.7,7907.5,7909
201907230127,7909,7909.5,7907.8,7908.5
201907230128,7908.5,7908.7,7906.6,7906.7
201907230129,7906.7,7907.4,7906,7906.4
201907230130,7906.4,7907.6,7905.2,7907
201907230131,7907,7907,7905,7905
201907230132,7905,7905.4,7903.8,7904.3
201907230133,7904.3,7904.9,7902.8,7904.7
201907230134,7904.5,7904.5,7903.4,7904
201907230135,7904,7906.4,7903.9,7905.2
201907230136,7905.4,7908,7905.3,7905.7
201907230137,7905.7,7908.9,7905.4,7908.9
201907230138,7908.9,7911.4,7906.9,7911.2
201907230139,7911.2,7911.6,7907.4,7907.5
201907230140,7907.5,7909.1,7906.2,7908.6
201907230141,7908.6,7910.2,7908.4,7909.2
201907230142,7909.2,7909.5,7908,7908.9
201907230143,7908.9,7911.4,7908.9,7910.9
201907230144,7910.8,7912.9,7910.7,7912
201907230145,7912,7912.3,7910.7,7911.3
201907230146,7911.3,7913.7,7911.3,7912.2
201907230147,7912.2,7912.2,7910.4,7910.4
201907230148,7910.4,7910.7,7909.7,7910.5
201907230149,7910.5,7911.5,7910.2,7910.4
201907230150,7910.4,7911.6,7910,7910
201907230151,7910,7910.9,7908.9,7910.9
201907230152,7910.9,7911.9,7910.5,7910.8
201907230153,7910.8,7911.5,7909.7,7911.5
201907230154,7911.5,7912,7911.4,7911.6
201907230155,7911.6,7911.6,7909.1,7910.2
201907230156,7910.2,7912.7,7910.2,7911.2
201907230157,7911.2,7911.8,7909.2,7909.9
201907230158,7909.9,7915.4,7909.6,7914.9
201907230159,7914.9,7915.1,7912.7,7914.1
201907230200,7914.1,7914.9,7911.6,7911.6
201907230201,7911.6,7911.6,7910.4,7910.4
201907230202,7910.4,7910.5,7907.7,7907.7
201907230203,7907.7,7907.7,7904.5,7905.9
201907230204,7905.9,7906.5,7904.9,7905
201907230205,7905,7906.5,7904.5,7905.8
201907230206,7905.8,7906.2,7904.7,7905
201907230207,7905,7906,7904.8,7905.2
201907230208,7905.2,7906.5,7905.1,7905.7
201907230209,7905.4,7905.9,7905.1,7905.8
201907230210,7905.7,7907.4,7905,7906.3
201907230211,7906.4,7908.9,7906.1,7907.8
201907230212,7907.8,7908.3,7906.2,7907
201907230213,7907.1,7909.1,7907.1,7908.6
201907230214,7908.6,7909,7908.1,7908.8
201907230215,7908.8,7910.2,7908.7,7909.2
201907230216,7909.2,7909.8,7908.2,7909.2
201907230217,7909.2,7909.7,7908.5,7909.2
201907230218,7909.2,7909.3,7908.2,7908.2
201907230219,7908.2,7908.7,7907.9,7908.5
201907230220,7908.5,7908.7,7906.1,7908.4
201907230221,7908.4,7909.5,7908.4,7909.3
201907230222,7909.3,7909.3,7907.7,7908.5
201907230223,7908.5,7908.9,7906.9,7907.1
201907230224,7907.2,7908,7906.7,7907.3
201907230225,7907.3,7910.1,7906.6,7910.1
201907230226,7910.1,7910.5,7909.5,7909.7
201907230227,7909.7,7910.2,7909,7909.7
201907230228,7909.7,7909.7,7907,7907
201907230229,7907,7908,7906.4,7907.7
201907230230,7907.6,7909,7906.9,7908.7
201907230231,7908.7,7910.9,7908.6,7910.5
201907230232,7910.5,7911.2,7909.8,7910.7
201907230233,7910.6,7911.3,7910.4,7911
201907230234,7911,7911,7909.4,7909.7
201907230235,7909.6,7910.7,7909.6,7910.5
201907230236,7910.5,7911.1,7910.2,7910.7
201907230237,7910.7,7911.3,7910.4,7911.1
201907230238,7911.1,7912.9,7911.1,7912.6
201907230239,7912.5,7913.7,7912.2,7913.1
201907230240,7913.1,7914.4,7912.4,7912.4
201907230241,7912.4,7913.2,7911.7,7913.2
201907230242,7913,7914.4,7912.9,7914.3
201907230243,7914.3,7915,7913.7,7914.5
201907230244,7914.5,7915.1,7914.3,7914.4
201907230245,7914.4,7915.5,7914.4,7915.4
201907230246,7915.4,7916.1,7914.7,7914.7
201907230247,7914.7,7915.4,7912.9,7913.4
201907230248,7913.3,7914.2,7912.4,7914
201907230249,7914,7914.4,7912.7,7912.8
201907230250,7912.8,7915.1,7912.2,7912.7
201907230251,7912.7,7913.5,7912,7912.2
201907230252,7912.2,7913.4,7912.2,7913.3
201907230253,7913.3,7913.9,7913.1,7913.5
201907230254,7913.7,7915.5,7913.7,7914
201907230255,7914.2,7916.2,7914.1,7915.5
201907230256,7915.4,7916.2,7915.2,7916.1
201907230257,7916.1,7917,7915.8,7916.6
201907230258,7916.7,7917,7916,7916.1
201907230259,7916.1,7917.7,7915.9,7916.9
201907230300,7916.9,7918,7916.9,7917.9
201907230301,7917.9,7918.8,7917.7,7917.9
201907230302,7917.9,7917.9,7915.9,7916.9
201907230303,7916.9,7918,7916.7,7917
201907230304,7917.2,7917.2,7916,7916.7
201907230305,7916.7,7920.8,7916.6,7920
201907230306,7920.1,7921.4,7920.1,7920.4
201907230307,7920.5,7921.5,7919.7,7919.9
201907230308,7919.9,7920.8,7918.7,7918.9
201907230309,7918.9,7918.9,7917.1,7917.3
201907230310,7917.5,7917.9,7914.9,7915.4
201907230311,7915.3,7916,7913.5,7915.6
201907230312,7915.6,7917.5,7915.4,7916.9
201907230313,7916.9,7918.2,7916.9,7917.1
201907230314,7917.1,7917.3,7916.4,7916.6
201907230315,7916.6,7917.4,7914.7,7917
201907230316,7917.1,7918.7,7917.1,7918.5
201907230317,7918.5,7918.6,7916.9,7917.4
201907230318,7917.4,7917.6,7916.2,7916.4
201907230319,7916.4,7916.4,7915.4,7915.5
201907230320,7915.5,7915.5,7914.4,7915.1
201907230321,7915.1,7915.8,7914.6,7915.4
201907230322,7915.4,7916,7914.7,7915
201907230323,7915.2,7915.8,7914.8,7915.1
201907230324,7915.1,7915.6,7914.4,7914.9
201907230325,7914.9,7914.9,7913.5,7914.2
201907230326,7914.2,7914.7,7913.5,7913.6
201907230327,7913.6,7913.8,7912.9,7913.2
201907230328,7913.2,7913.3,7912.8,7913.3
201907230329,7913.2,7914.7,7913.1,7913.2
201907230330,7913.2,7913.4,7912.7,7913.3
201907230331,7913.3,7914.5,7913.3,7914.2
201907230332,7914.2,7914.4,7912.9,7913.1
201907230333,7913.1,7913.5,7911.8,7913.4
201907230334,7913.8,7916.8,7913.7,7915.2
201907230335,7915.2,7915.2,7912.6,7913.8
201907230336,7913.8,7914.7,7911.2,7912.6
201907230337,7912.6,7913,7909.2,7909.3
201907230338,7909.2,7910.3,7909.1,7909.4
201907230339,7909.4,7909.6,7908.2,7908.6
201907230340,7908.6,7910.3,7908.6,7909.6
201907230341,7909.6,7909.7,7908.4,7909.1
201907230342,7909.1,7910,7908.7,7909.3
201907230343,7909.3,7910.9,7909.3,7909.4
201907230344,7909.4,7909.9,7908.5,7908.8
201907230345,7908.8,7909.1,7908,7908.8
201907230346,7908.9,7909.6,7908.5,7909.1
201907230347,7909.1,7909.9,7908.6,7909
201907230348,7909,7912.4,7908.7,7911.7
201907230349,7911.7,7912.4,7910.2,7912.4
201907230350,7912.5,7915.5,7912.4,7915.2
201907230351,7915.2,7915.2,7914.1,7915.2
201907230352,7915.2,7915.4,7914.7,7915.3
201907230353,7915.3,7915.9,7913.7,7914.2
201907230354,7914.2,7916.2,7914.2,7916.1
201907230355,7916.2,7916.9,7916.2,7916.8
201907230356,7916.5,7917,7915.7,7916.8
201907230357,7916.8,7917.6,7916.5,7917.4
201907230358,7917.4,7918.7,7916.7,7918.6
201907230359,7918.6,7920.3,7916.9,7919.6
201907230400,7919.5,7921.3,7918.6,7921.2
201907230401,7921.1,7923.7,7921.1,7923.7
201907230402,7923.7,7928.4,7923.2,7926.8
201907230403,7926.8,7934.8,7926.8,7934.2
201907230404,7934.2,7935.7,7929.9,7930.6
201907230405,7930.7,7934.6,7930.7,7932.2
201907230406,7932.2,7932.6,7929.3,7929.4
201907230407,7929.4,7930.1,7928.5,7928.6
201907230408,7928.6,7929.3,7927.5,7927.6
201907230409,7927.6,7928.7,7927.1,7927.6
201907230410,7927.6,7927.6,7926.2,7926.3
201907230411,7926.4,7926.4,7925,7925
201907230412,7925,7925.5,7923.9,7924.4
201907230413,7924.4,7924.6,7923,7923.1
201907230414,7923.1,7923.6,7922.2,7922.8
201907230415,7922.8,7925.2,7922.2,7924.6
201907230416,7924.6,7926.7,7924.4,7926.4
201907230417,7926.4,7927,7925,7925
201907230418,7925,7925.2,7921.4,7921.7
201907230419,7921.7,7923.7,7921.4,7923.7
201907230420,7923.6,7924.3,7923.1,7923.9
201907230421,7923.9,7923.9,7919.4,7919.4
201907230422,7919.4,7920,7915.9,7916.1
201907230423,7915.9,7917,7914.9,7914.9
201907230424,7914.9,7917.7,7914.9,7917.4
201907230425,7917.4,7920.2,7917.4,7919.1
201907230426,7919.1,7920.6,7917.7,7919
201907230427,7919,7920.3,7918.7,7919.6
201907230428,7919.5,7921.8,7919.4,7921.7
201907230429,7921.8,7921.8,7919.9,7920.5
201907230430,7920.5,7921,7917.6,7918.2
201907230431,7918.2,7918.4,7912.5,7912.9
201907230432,7912.8,7915.2,7911.7,7913.6
201907230433,7913.5,7916.5,7912.8,7915.5
201907230434,7915.5,7915.6,7911.7,7911.9
201907230435,7911.9,7914.8,7911.2,7913.5
201907230436,7913.5,7914.7,7912.2,7914.5
201907230437,7914.5,7914.5,7912.9,7913.7
201907230438,7913.7,7914.2,7912.1,7912.9
201907230439,7912.9,7913.2,7911.7,7912.3
201907230440,7912.3,7913.5,7912,7912.8
201907230441,7912.8,7914.6,7912.1,7914.1
201907230442,7914.1,7916,7912.7,7913.7
201907230443,7913.5,7916,7913.2,7915.7
201907230444,7915.7,7916.2,7915.1,7915.6
201907230445,7915.5,7917.1,7914.7,7915.7
201907230446,7915.7,7917.1,7915,7916.4
201907230447,7916.4,7917.4,7915.9,7917
201907230448,7917.3,7917.3,7914.6,7916.7
201907230449,7916.7,7919.5,7916.4,7918.2
201907230450,7918.7,7919.9,7917,7917
201907230451,7917,7917.7,7916.3,7917.2
201907230452,7917.2,7917.2,7915.4,7915.5
201907230453,7915.5,7916.7,7914.2,7916.7
201907230454,7916.7,7919.1,7916.7,7917.4
201907230455,7917.4,7921.4,7917.4,7920.5
201907230456,7920.5,7921.2,7919.4,7920.4
201907230457,7920.3,7922,7918.5,7921.7
201907230458,7921.7,7922.5,7920.4,7922.4
201907230459,7922.4,7922.8,7920.2,7921
201907230500,7921,7921,7916.9,7917.6
201907230501,7917.6,7918.9,7916.5,7916.9
201907230502,7916.9,7918,7916.7,7917.6
201907230503,7917.5,7917.6,7916.9,7917.1
201907230504,7917.1,7918.8,7916.8,7918.8
201907230505,7918.8,7918.8,7917.2,7917.8
201907230506,7917.8,7918.3,7917.2,7918.2
201907230507,7918.2,7919.5,7918.2,7919.3
201907230508,7919.3,7920.7,7919.2,7920.4
201907230509,7920.6,7924.1,7920.2,7924.1
201907230510,7924.1,7927.9,7924.1,7927.4
201907230511,7927.4,7928.6,7927.4,7928.2
201907230512,7928.2,7929.2,7928,7928.9
201907230513,7928.9,7930.1,7928.9,7929.6
201907230514,7929.6,7929.6,7922.4,7927
