日時,始値(BID),高値(BID),安値(BID),終値(BID)
201907260700,7990,7997,7990,7994.5
201907260701,7994.2,7996.7,7993,7996.3
201907260702,7996.3,7996.4,7995.5,7995.9
201907260703,7995.9,7998.1,7995.9,7996.4
201907260704,7996.4,7996.4,7995.1,7995.5
201907260705,7995.3,7996.4,7995.1,7996
201907260706,7996,7996.5,7995.3,7995.3
201907260707,7995.3,7997,7995.3,7996.6
201907260708,7996.5,7997,7996.2,7996.4
201907260709,7996.4,7997,7996.4,7996.4
201907260710,7996.4,7996.6,7995.7,7995.7
201907260711,7995.7,7995.8,7994.9,7994.9
201907260712,7994.9,7995.7,7994.9,7995.4
201907260713,7995.4,7996.1,7995.1,7996
201907260714,7996,7997.3,7996,7996.6
201907260715,7996.7,7996.9,7995.7,7995.8
201907260716,7995.8,7997.6,7995.7,7996.2
201907260717,7996.2,7996.9,7995.9,7996.9
201907260718,7996.9,7997.3,7996.2,7997.3
201907260719,7997.3,7997.3,7996.4,7996.4
201907260720,7996.4,7997.5,7996.4,7997
201907260721,7997.1,7997.3,7996,7996
201907260722,7996,7996,7995.4,7995.4
201907260723,7995.4,7995.9,7995.1,7995.1
201907260724,7995.1,7995.3,7994.9,7995.2
201907260725,7995.2,7995.3,7995.1,7995.3
201907260726,7995.2,7995.6,7994.7,7994.7
201907260727,7994.7,7994.9,7994.3,7994.3
201907260728,7994.3,7994.5,7993.2,7993.2
201907260729,7993.2,7993.5,7992.9,7993.4
201907260730,7993.4,7994.3,7992.1,7992.1
201907260731,7992.1,7992.5,7991.9,7992.5
201907260732,7992.5,7992.6,7992.2,7992.4
201907260733,7992.5,7992.8,7992.4,7992.6
201907260734,7992.6,7993.3,7992.6,7993.3
201907260735,7993.3,7993.5,7992.9,7993.3
201907260736,7993.3,7993.5,7992.5,7992.5
201907260737,7992.5,7992.8,7992.4,7992.4
201907260738,7992.4,7992.4,7990.4,7990.5
201907260739,7990.5,7990.5,7990,7990.2
201907260740,7990.2,7990.2,7989.3,7989.3
201907260741,7989.3,7990.2,7989.2,7990.2
201907260742,7990.2,7991,7990.2,7990.9
201907260743,7990.9,7991,7990,7990.2
201907260744,7990.2,7990.7,7990,7990.1
201907260745,7990.1,7990.1,7989.1,7990.1
201907260746,7990,7990.3,7989.6,7989.9
201907260747,7989.9,7989.9,7989.2,7989.2
201907260748,7989.2,7989.8,7989.2,7989.7
201907260749,7989.7,7989.9,7989.4,7989.4
201907260750,7989.4,7989.6,7989,7989.2
201907260751,7989.1,7989.3,7988.4,7988.5
201907260752,7988.5,7988.5,7988.2,7988.3
201907260753,7988.3,7989,7988.3,7988.8
201907260754,7988.8,7989,7988.8,7988.9
201907260755,7988.8,7988.8,7988.5,7988.8
201907260756,7988.9,7989.2,7988.7,7989.1
201907260757,7989.1,7989.2,7989.1,7989.1
201907260758,7989.2,7989.7,7989.1,7989.7
201907260759,7989.7,7989.7,7989.4,7989.4
201907260800,7989.4,7989.8,7989.2,7989.6
201907260801,7989.7,7990,7989.3,7989.3
201907260802,7989.3,7990.1,7989.3,7989.7
201907260803,7989.7,7990.8,7989.7,7990.8
201907260804,7990.9,7990.9,7989.8,7989.9
201907260805,7989.9,7990,7989.6,7989.9
201907260806,7989.9,7990.3,7989.8,7990
201907260807,7990,7990.5,7990,7990.4
201907260808,7990.4,7990.4,7990,7990.2
201907260809,7990.2,7990.3,7990,7990.3
201907260810,7990.3,7990.7,7989.9,7990.4
201907260811,7990.4,7990.5,7989.1,7989.1
201907260812,7989.1,7989.3,7989.1,7989.2
201907260813,7989.1,7989.2,7989,7989.1
201907260814,7989.1,7989.2,7989.1,7989.2
201907260815,7989.2,7989.2,7988.7,7988.7
201907260816,7988.7,7988.7,7987.7,7987.7
201907260817,7987.7,7988.4,7987.7,7988.4
201907260818,7988.4,7988.5,7987.7,7987.8
201907260819,7987.8,7988.2,7987.7,7987.8
201907260820,7987.8,7987.9,7987.7,7987.8
201907260821,7987.7,7987.9,7987.5,7987.9
201907260822,7987.9,7987.9,7987.5,7987.7
201907260823,7987.7,7988.7,7987.7,7988.5
201907260824,7988.4,7989.1,7988.4,7989.1
201907260825,7989.1,7989.5,7989,7989.3
201907260826,7989.3,7989.5,7988.9,7988.9
201907260827,7988.9,7989,7987.9,7988.2
201907260828,7988.3,7988.8,7988.1,7988.5
201907260829,7988.5,7988.5,7988.4,7988.5
201907260830,7988.5,7989.1,7988.5,7988.9
201907260831,7988.9,7989.1,7988.9,7988.9
201907260832,7988.9,7989.9,7988.9,7989.9
201907260833,7989.9,7990,7989.7,7990
201907260834,7990,7990.8,7990,7990.7
201907260835,7990.7,7991.3,7990.4,7990.4
201907260836,7990.4,7990.5,7990.1,7990.4
201907260837,7990.4,7990.4,7990.2,7990.2
201907260838,7990.2,7990.2,7989.7,7989.7
201907260839,7989.7,7989.8,7989.7,7989.7
201907260840,7989.7,7991.1,7989.7,7990.9
201907260841,7990.9,7991.1,7990.7,7991
201907260842,7991.3,7991.3,7991.2,7991.3
201907260843,7991.3,7992.4,7991.2,7992
201907260844,7992,7992,7991.2,7991.7
201907260845,7991.5,7992.6,7991.4,7992.2
201907260846,7992.2,7992.6,7991.1,7991.4
201907260847,7991.4,7991.4,7991,7991.3
201907260848,7991.3,7992,7991.1,7991.8
201907260849,7991.8,7992.4,7991.2,7992.4
201907260850,7992.4,7992.4,7991.5,7992.1
201907260851,7992.2,7992.3,7991.9,7992
201907260852,7992.1,7992.4,7991.9,7992.3
201907260853,7992.3,7992.3,7991.9,7992.1
201907260854,7992,7992.2,7991.5,7992
201907260855,7992,7993.2,7992,7993
201907260856,7993,7993.3,7992.7,7992.7
201907260857,7992.7,7992.7,7991.9,7992
201907260858,7992,7992.5,7992,7992.5
201907260859,7992.7,7993,7992.3,7992.8
201907260900,7992.8,7994.8,7991.9,7992.4
201907260901,7992.4,7992.8,7991.9,7992.3
201907260902,7992.4,7994.4,7992.4,7993.4
201907260903,7993.4,7994.4,7991.4,7992
201907260904,7992,7992.3,7991.3,7992.3
201907260905,7992.3,7992.3,7990.9,7991.2
201907260906,7991.2,7991.7,7990.9,7991.2
201907260907,7991.1,7991.8,7990.6,7990.9
201907260908,7990.9,7991.8,7990.4,7991.5
201907260909,7991.5,7991.6,7990.1,7990.5
201907260910,7990.5,7992.5,7990.4,7992.4
201907260911,7992.3,7993,7992.3,7992.8
201907260912,7992.8,7993.6,7992.7,7993.4
201907260913,7993.4,7993.8,7993.2,7993.6
201907260914,7993.6,7993.8,7992.9,7993.2
201907260915,7993.2,7994.3,7992.9,7994
201907260916,7994,7994.3,7993.8,7993.9
201907260917,7993.9,7994.3,7993.5,7993.7
201907260918,7993.7,7993.9,7993,7993.9
201907260919,7993.9,7994,7993.4,7993.6
201907260920,7993.6,7996,7993.5,7996
201907260921,7996,7996.7,7995.4,7996.6
201907260922,7996.6,7997.3,7996.4,7997.2
201907260923,7997.2,7999.2,7997.2,7998.7
201907260924,7998.6,7999.5,7998.2,7999.3
201907260925,7999.3,7999.5,7997.1,7997.5
201907260926,7997.5,7997.6,7996.9,7996.9
201907260927,7996.9,7997.1,7996.4,7996.4
201907260928,7996.3,7996.9,7996.3,7996.7
201907260929,7996.8,7998.2,7996.7,7997.7
201907260930,7997.7,7997.7,7996.8,7997.3
201907260931,7997.3,7997.6,7997.3,7997.4
201907260932,7997.4,7998.5,7996.7,7998.5
201907260933,7998.5,7998.5,7997.2,7997.7
201907260934,7997.7,7998.1,7996.8,7996.8
201907260935,7996.8,7998.4,7996.8,7998.4
201907260936,7998.3,7998.3,7997.6,7998.1
201907260937,7998.1,7998.5,7998.1,7998.5
201907260938,7998.5,7998.7,7997.6,7998
201907260939,7998,7998.5,7998,7998.3
201907260940,7998.3,7999,7998.2,7999
201907260941,7999,7999,7998.1,7998.2
201907260942,7998.1,7999.5,7998,7999.4
201907260943,7999.4,7999.5,7998.1,7998.2
201907260944,7998.3,7999.3,7998.2,7999
201907260945,7999.1,7999.1,7998.4,7998.4
201907260946,7998.4,7998.5,7998,7998.5
201907260947,7998.5,7998.5,7997.7,7997.8
201907260948,7997.9,7998,7996.6,7997.4
201907260949,7997.4,7997.9,7997.3,7997.4
201907260950,7997.4,7997.5,7996.6,7996.6
201907260951,7996.6,7997.8,7996.6,7997.4
201907260952,7997.4,7998,7997.3,7997.8
201907260953,7997.9,7997.9,7996.5,7996.5
201907260954,7996.5,7997,7996.4,7997
201907260955,7997,7997.5,7996.9,7997.3
201907260956,7997.3,7998.5,7997,7997.8
201907260957,7997.8,7998.1,7997.5,7997.5
201907260958,7997.5,7997.5,7996.4,7996.7
201907260959,7996.6,7996.6,7996.3,7996.4
201907261000,7996.4,7997,7996.4,7997
201907261001,7997,7997.3,7996.6,7997.3
201907261002,7997.3,7999.5,7997.3,7999.4
201907261003,7999.4,7999.6,7998.7,7998.9
201907261004,7998.9,7999.4,7998.6,7999.4
201907261005,7999.4,7999.4,7997.4,7997.6
201907261006,7997.6,7999.1,7997.6,7999
201907261007,7999.1,7999.1,7998.6,7998.8
201907261008,7998.8,7999.8,7998.7,7999.3
201907261009,7999.3,7999.6,7998.4,7998.4
201907261010,7998.4,7999,7997.7,7998.5
201907261011,7998.4,7998.5,7997.9,7998.3
201907261012,7998.4,7998.6,7998.3,7998.6
201907261013,7998.6,7999.1,7998.6,7998.9
201907261014,7998.9,7999.5,7998.9,7999
201907261015,7999,8000.6,7998.6,8000.5
201907261016,8000.5,8000.8,7998.4,7998.8
201907261017,7998.8,7998.8,7997.7,7997.8
201907261018,7997.8,7999.4,7997.4,7999.4
201907261019,7999.3,7999.3,7997.6,7998.1
201907261020,7998.1,7998.1,7997.1,7997.3
201907261021,7997.3,7997.5,7997.1,7997.3
201907261022,7997.3,7998.1,7996.5,7997.8
201907261023,7997.8,7998.8,7997.8,7998.3
201907261024,7998.3,7998.3,7997.6,7997.6
201907261025,7997.6,7999,7997.4,7998.9
201907261026,7998.9,7999,7998,7998.6
201907261027,7998.6,7998.6,7997.7,7997.7
201907261028,7997.6,7997.8,7996.9,7997.4
201907261029,7997.4,7998,7997.4,7997.4
201907261030,7997.4,7999.1,7997.4,7998.5
201907261031,7998.5,7999,7997.4,7998.5
201907261032,7998.5,8000,7998.2,7999.9
201907261033,7999.9,8001.3,7999.6,8001.1
201907261034,8001.1,8003.5,8000.6,8003.4
201907261035,8003.4,8004.9,8002.8,8003.4
201907261036,8003.4,8005.8,8002.9,8005.7
201907261037,8005.7,8005.7,8003.4,8005.4
201907261038,8005.3,8005.9,8004.6,8005.8
201907261039,8005.9,8006.6,8005.6,8006.1
201907261040,8006.1,8006.1,8004.8,8005.4
201907261041,8005.4,8005.4,8004.4,8004.9
201907261042,8004.8,8005,8004.1,8005
201907261043,8005,8005,8003.6,8004.8
201907261044,8004.8,8005.7,8004,8005.3
201907261045,8005.4,8005.5,8004,8004.2
201907261046,8004.2,8004.4,8003.5,8004
201907261047,8004,8004,8002.4,8002.6
201907261048,8002.6,8003.3,8002,8002.7
201907261049,8002.7,8003,8001.9,8002.6
201907261050,8002.7,8002.7,8001.7,8002.5
201907261051,8002.5,8003.8,8002.5,8003.5
201907261052,8003.7,8003.8,8003.2,8003.5
201907261053,8003.5,8004.1,8003.4,8004.1
201907261054,8004.1,8004.9,8004.1,8004.9
201907261055,8004.8,8006.3,8004.8,8006.3
201907261056,8006.3,8009,8006.2,8009
201907261057,8009.1,8012.2,8009.1,8011.4
201907261058,8011.3,8011.6,8010.6,8010.6
201907261059,8010.6,8011.1,8009.7,8009.8
201907261100,8009.8,8010.1,8009.2,8009.4
201907261101,8009.4,8009.5,8008.7,8009.1
201907261102,8009.1,8011.2,8009.1,8010.9
201907261103,8010.9,8011.9,8010.8,8011.8
201907261104,8011.8,8011.8,8010.9,8011.6
201907261105,8011.6,8011.8,8011.2,8011.3
201907261106,8011.3,8011.6,8011.1,8011.4
201907261107,8011.4,8012,8011.1,8011.8
201907261108,8011.8,8012.1,8011.2,8011.3
201907261109,8011.3,8011.5,8010.4,8010.6
201907261110,8010.6,8013,8010.6,8012.9
201907261111,8012.9,8013,8012.6,8012.6
201907261112,8012.6,8013.1,8012.6,8013.1
201907261113,8013.1,8013.4,8012.8,8012.8
201907261114,8012.8,8013.8,8012.2,8013.4
201907261115,8013.3,8013.6,8012.8,8013.6
201907261116,8013.6,8014.1,8013.6,8013.8
201907261117,8013.9,8014,8013.7,8013.7
201907261118,8013.7,8013.9,8013.5,8013.5
201907261119,8013.7,8013.8,8011.5,8011.6
201907261120,8011.6,8013.6,8011.3,8013.6
201907261121,8013.7,8013.8,8011.9,8012.2
201907261122,8012.1,8013,8011.9,8012
201907261123,8012.2,8012.8,8011.8,8011.9
201907261124,8011.9,8013.4,8011.6,8013.4
201907261125,8013.4,8015.3,8013.3,8014.1
201907261126,8014,8015,8014,8014.4
201907261127,8014.4,8014.9,8013.8,8013.9
201907261128,8013.9,8014.3,8013.7,8013.8
201907261129,8013.8,8014.7,8013.8,8014.2
201907261130,8014.2,8015,8014.1,8014.9
201907261131,8014.9,8016.2,8014.4,8016.2
201907261132,8016.2,8018,8016.2,8016.2
201907261133,8016.2,8016.4,8015.9,8016
201907261134,8016.1,8016.2,8015.7,8016.1
201907261135,8016.1,8016.5,8016,8016.4
201907261136,8016.4,8016.7,8015.4,8016.4
201907261137,8016.4,8017.9,8016,8017.9
201907261138,8017.9,8018.4,8015.9,8016.5
201907261139,8016.6,8016.9,8016,8016.6
201907261140,8016.6,8016.9,8015.8,8016.8
201907261141,8016.9,8017.1,8016.6,8016.6
201907261142,8016.6,8016.9,8016.4,8016.6
201907261143,8016.6,8016.8,8016.4,8016.7
201907261144,8016.7,8016.7,8015.7,8015.9
201907261145,8015.8,8017.4,8015.8,8017
201907261146,8017,8017,8015.9,8016.2
201907261147,8016,8016.2,8016,8016.1
201907261148,8016.2,8016.8,8016.2,8016.6
201907261149,8016.6,8017.3,8016.6,8017.3
201907261150,8017.3,8017.7,8016.7,8016.7
201907261151,8016.5,8016.7,8015.8,8016
201907261152,8016,8016.8,8015.8,8016.4
201907261153,8016.4,8016.7,8016.3,8016.6
201907261154,8016.6,8016.9,8016.6,8016.6
201907261155,8016.6,8017.6,8016.6,8017.4
201907261156,8017.4,8017.4,8016.2,8016.4
201907261157,8016.4,8016.9,8016.4,8016.5
201907261158,8016.5,8017.5,8016.1,8017.4
201907261159,8017.4,8017.4,8016.9,8017.1
201907261200,8017.1,8017.5,8017.1,8017.2
201907261201,8017.2,8017.2,8015.9,8016.1
201907261202,8016.1,8016.1,8015.9,8015.9
201907261203,8015.8,8016.3,8015.7,8016.3
201907261204,8016.3,8016.3,8015.7,8015.7
201907261205,8015.7,8015.8,8015.4,8015.4
201907261206,8015.4,8015.9,8015.4,8015.8
201907261207,8015.9,8016.1,8015.2,8015.3
201907261208,8015.3,8015.5,8014.6,8014.7
201907261209,8014.7,8014.8,8014.5,8014.5
201907261210,8014.5,8014.7,8013.4,8013.4
201907261211,8013.4,8013.5,8013.1,8013.4
201907261212,8013.4,8013.6,8012.9,8013.4
201907261213,8013.4,8013.5,8013.1,8013.5
201907261214,8013.5,8013.7,8013.2,8013.7
201907261215,8013.7,8014.7,8013.7,8014.4
201907261216,8014.4,8014.5,8013.7,8013.8
201907261217,8013.8,8014.7,8013.7,8014.7
201907261218,8014.7,8014.9,8014.2,8014.2
201907261219,8014.2,8015.6,8013.8,8015.6
201907261220,8015.6,8015.9,8015.4,8015.8
201907261221,8015.8,8016.6,8015.8,8016.1
201907261222,8016.1,8016.2,8014.4,8014.4
201907261223,8014.4,8014.5,8013.9,8014.1
201907261224,8014.1,8014.1,8013.1,8013.1
201907261225,8013.1,8013.8,8013.1,8013.8
201907261226,8013.8,8014.1,8013.6,8013.8
201907261227,8013.8,8013.8,8013.4,8013.4
201907261228,8013.3,8013.6,8013.3,8013.4
201907261229,8013.4,8014.8,8013.2,8014.7
201907261230,8014.7,8014.7,8013.2,8013.8
201907261231,8013.8,8014.1,8013.7,8013.9
201907261232,8013.9,8014.3,8013.9,8014.1
201907261233,8014.1,8014.7,8014.1,8014.5
201907261234,8014.6,8014.9,8014.1,8014.1
201907261235,8014.1,8014.1,8013.6,8013.9
201907261236,8013.9,8014.1,8013.5,8013.5
201907261237,8013.6,8014.7,8013.6,8014.7
201907261238,8014.7,8015.6,8014.7,8015.5
201907261239,8015.4,8015.4,8014.7,8014.7
201907261240,8014.7,8015.3,8014.1,8014.3
201907261241,8014.3,8015,8014,8015
201907261242,8014.9,8015.1,8014.8,8015.1
201907261243,8015.1,8015.1,8014.7,8015
201907261244,8015,8015.8,8015,8015.6
201907261245,8015.6,8016.3,8015.6,8016
201907261246,8016.1,8016.2,8015.9,8016.1
201907261247,8016.1,8016.4,8016.1,8016.3
201907261248,8016.3,8017,8016.2,8016.7
201907261249,8016.7,8016.8,8016.4,8016.7
201907261250,8016.6,8016.7,8015.8,8016.3
201907261251,8016.3,8016.6,8016.2,8016.4
201907261252,8016.4,8016.9,8016.1,8016.8
201907261253,8016.9,8017.1,8016.8,8017.1
201907261254,8017.2,8017.4,8017.1,8017.2
201907261255,8017.2,8017.5,8017,8017
201907261256,8017,8017.1,8016.9,8017
201907261257,8017,8017.5,8017,8017.3
201907261258,8017.3,8017.7,8016.9,8017.5
201907261259,8017.5,8017.6,8016.9,8016.9
201907261300,8016.9,8018.2,8016.9,8018.2
201907261301,8018.2,8021,8018,8019.8
201907261302,8019.8,8020.4,8019.4,8019.4
201907261303,8019.4,8019.4,8019.1,8019.1
201907261304,8019.1,8019.3,8018.9,8018.9
201907261305,8018.9,8019.1,8018.7,8018.7
201907261306,8018.7,8018.8,8018.3,8018.5
201907261307,8018.5,8018.5,8018.2,8018.3
201907261308,8018.3,8018.5,8018.2,8018.4
201907261309,8018.4,8018.4,8018.2,8018.2
201907261310,8018.2,8018.3,8018.2,8018.3
201907261311,8018.3,8018.9,8018.2,8018.5
201907261312,8018.3,8018.6,8018.3,8018.6
201907261313,8018.6,8019.1,8018.6,8019
201907261314,8019,8019.4,8019,8019.2
201907261315,8019.2,8019.3,8018.9,8018.9
201907261316,8018.9,8018.9,8018.7,8018.7
201907261317,8018.8,8019.1,8018.7,8019
201907261318,8019,8019.1,8018.9,8018.9
201907261319,8018.9,8018.9,8018.8,8018.8
201907261320,8018.8,8018.8,8018.7,8018.7
201907261321,8018.7,8018.7,8018.2,8018.2
201907261322,8018.2,8018.2,8016.9,8017.3
201907261323,8017.3,8017.3,8017,8017.3
201907261324,8017.3,8017.3,8016.9,8017.3
201907261325,8017.2,8017.2,8016.9,8016.9
201907261326,8016.9,8016.9,8016,8016.4
201907261327,8016.4,8017,8016.3,8016.4
201907261328,8016.4,8016.6,8016.4,8016.6
201907261329,8016.6,8016.6,8016.4,8016.6
201907261330,8016.7,8017,8015.6,8015.6
201907261331,8015.5,8015.9,8015.5,8015.9
201907261332,8015.9,8016.7,8015.9,8016.1
201907261333,8016,8016.3,8016,8016.1
201907261334,8016.1,8016.3,8016.1,8016.3
201907261335,8016.4,8016.4,8015.9,8015.9
201907261336,8015.9,8016.3,8015.3,8016.2
201907261337,8016.1,8016.7,8016.1,8016.7
201907261338,8016.7,8016.7,8016.3,8016.5
201907261339,8016.5,8017.6,8016.5,8017.2
201907261340,8017.1,8017.2,8016.4,8016.4
201907261341,8016.4,8016.5,8016.2,8016.4
201907261342,8016.4,8016.5,8016.4,8016.5
201907261343,8016.5,8016.5,8016.2,8016.3
201907261344,8016.3,8016.3,8016.2,8016.2
201907261345,8016.2,8016.2,8015.2,8015.4
201907261346,8015.4,8015.5,8014,8014
201907261347,8014,8014.2,8014,8014.2
201907261348,8014.1,8014.2,8013.7,8013.7
201907261349,8013.7,8013.9,8013.7,8013.9
201907261350,8013.9,8014.2,8013.7,8013.9
201907261351,8013.9,8014,8013.9,8014
201907261352,8014.1,8014.4,8014,8014.2
201907261353,8014.2,8015,8014,8014.8
201907261354,8014.8,8014.8,8013.9,8014
201907261355,8014.1,8014.5,8014,8014.1
201907261356,8014.1,8014.1,8013.5,8013.5
201907261357,8013.5,8013.5,8013.2,8013.2
201907261358,8013.2,8013.6,8013.2,8013.4
201907261359,8013.3,8013.3,8013.2,8013.2
201907261400,8013.2,8014.2,8013.2,8013.5
201907261401,8013.4,8013.5,8013.1,8013.4
201907261402,8013.2,8013.3,8012.2,8012.3
201907261403,8012.3,8012.9,8012.1,8012.7
201907261404,8012.6,8012.9,8012.4,8012.9
201907261405,8012.9,8013.6,8012.7,8013.6
201907261406,8013.6,8014.5,8013.6,8014.4
201907261407,8014.3,8014.9,8014.1,8014.9
201907261408,8014.9,8015.1,8014.7,8015.1
201907261409,8015.1,8015.5,8013.9,8013.9
201907261410,8013.9,8014.7,8013.8,8014.7
201907261411,8014.7,8015.5,8014.7,8015.4
201907261412,8015.3,8015.3,8014.8,8015.2
201907261413,8015,8015.5,8014.9,8015.3
201907261414,8015.3,8015.3,8014.8,8014.9
201907261415,8014.9,8015.2,8014.5,8014.5
201907261416,8014.6,8015.1,8014.5,8014.7
201907261417,8014.7,8015,8014.5,8014.6
201907261418,8014.5,8015.3,8014.5,8015.3
201907261419,8015.3,8015.7,8015.3,8015.7
201907261420,8015.7,8015.9,8015.4,8015.5
201907261421,8015.5,8016.3,8015,8015
201907261422,8015,8015.4,8014.8,8015.4
201907261423,8015.4,8015.4,8014.6,8014.6
201907261424,8014.6,8014.9,8014.1,8014.9
201907261425,8014.9,8015.1,8014.6,8014.6
201907261426,8014.5,8015,8014.4,8014.9
201907261427,8014.9,8014.9,8014.5,8014.5
201907261428,8014.5,8014.8,8014.5,8014.8
201907261429,8014.8,8015.6,8014.7,8014.9
201907261430,8014.9,8015.1,8014.4,8015
201907261431,8015,8016,8015,8015.5
201907261432,8015.6,8016,8015.5,8015.8
201907261433,8015.9,8016.1,8015.8,8016
201907261434,8016.1,8016.4,8016,8016.1
201907261435,8016.1,8016.2,8015.9,8016.1
201907261436,8016.1,8017.1,8016.1,8017.1
201907261437,8017.1,8017.1,8016.6,8017.1
201907261438,8017,8017.2,8016.4,8016.5
201907261439,8016.5,8016.9,8016.5,8016.7
201907261440,8016.8,8017.5,8016.8,8017.3
201907261441,8017.3,8017.3,8016.7,8016.9
201907261442,8016.9,8017.4,8016.9,8017.1
201907261443,8017,8017.5,8017,8017.3
201907261444,8017.3,8017.5,8017.1,8017.1
201907261445,8017.1,8017.4,8017.1,8017.3
201907261446,8017.3,8017.3,8016.9,8016.9
201907261447,8016.9,8017.2,8016.9,8017
201907261448,8017,8017.8,8017,8017.8
201907261449,8017.8,8018.4,8017.8,8018.4
201907261450,8018.4,8018.8,8018.4,8018.7
201907261451,8018.7,8018.8,8017.7,8017.7
201907261452,8017.7,8017.8,8017.3,8017.3
201907261453,8017.3,8017.3,8016,8016
201907261454,8016,8016.3,8016,8016
201907261455,8016,8016.9,8016,8016.5
201907261456,8016.5,8016.8,8016.5,8016.6
201907261457,8016.6,8017.2,8016.2,8017.2
201907261458,8017.2,8018,8017.2,8017.9
201907261459,8017.9,8019,8017.9,8019
201907261500,8019,8019.5,8017.4,8018.8
201907261501,8018.8,8019,8017.5,8017.6
201907261502,8017.6,8018.3,8016.9,8017.1
201907261503,8017.1,8018,8016.9,8016.9
201907261504,8016.9,8017.3,8016,8016.6
201907261505,8016.6,8016.8,8016.4,8016.4
201907261506,8016.4,8016.8,8016.2,8016.4
201907261507,8016.4,8016.8,8015.3,8015.3
201907261508,8015.3,8016.1,8015,8015.8
201907261509,8015.8,8016,8015.4,8015.4
201907261510,8015.4,8016,8014.9,8015
201907261511,8015,8015.1,8013.9,8014
201907261512,8014,8014.7,8013.9,8014.2
201907261513,8014.4,8015.1,8014.3,8014.9
201907261514,8014.9,8015.1,8014.4,8014.4
201907261515,8014.4,8015,8014.4,8014.6
201907261516,8014.6,8015.5,8014.5,8015.4
201907261517,8015.4,8016,8015.4,8015.8
201907261518,8015.8,8016.1,8015.6,8015.8
201907261519,8015.8,8015.8,8014.7,8014.8
201907261520,8014.8,8015.3,8014.7,8014.7
201907261521,8014.7,8015.2,8014.2,8015.2
201907261522,8015.2,8015.6,8014.8,8014.9
201907261523,8014.9,8015.8,8014.9,8015.3
201907261524,8015.3,8015.9,8015.3,8015.4
201907261525,8015.3,8016.3,8015.3,8015.5
201907261526,8015.6,8016.4,8015.6,8016.1
201907261527,8016.1,8016.3,8016.1,8016.1
201907261528,8016.1,8016.2,8015.4,8015.6
201907261529,8015.5,8015.5,8014.9,8014.9
201907261530,8014.9,8015.5,8014.8,8015.5
201907261531,8015.6,8016.2,8015.4,8016.1
201907261532,8016.1,8017.4,8016.1,8017.3
201907261533,8017.3,8018,8017.3,8017.9
201907261534,8017.8,8018.2,8017.8,8017.8
201907261535,8017.8,8018.1,8017.1,8017.3
201907261536,8017.3,8018.4,8017.3,8018.4
201907261537,8018.4,8018.6,8018.1,8018.5
201907261538,8018.6,8019,8018.6,8018.8
201907261539,8018.8,8019.3,8018.7,8019.3
201907261540,8019.3,8019.4,8017.4,8017.4
201907261541,8017.4,8017.4,8016.7,8016.8
201907261542,8016.8,8017,8016.4,8016.4
201907261543,8016.4,8017.2,8016,8017.1
201907261544,8017.1,8017.3,8016.3,8016.5
201907261545,8016.5,8016.5,8015.1,8015.4
201907261546,8015.4,8015.5,8015.1,8015.5
201907261547,8015.5,8015.6,8014.2,8014.5
201907261548,8014.6,8015.4,8014.6,8015
201907261549,8015,8015.7,8014.7,8015
201907261550,8015,8015.4,8014.6,8014.7
201907261551,8014.7,8014.8,8014.6,8014.6
201907261552,8014.6,8015.3,8014.6,8015.2
201907261553,8015.2,8015.3,8014.5,8014.6
201907261554,8014.6,8014.6,8013.9,8014.1
201907261555,8014.1,8014.4,8012.6,8012.7
201907261556,8012.7,8012.8,8011.2,8011.5
201907261557,8011.5,8011.5,8010.9,8010.9
201907261558,8010.9,8012.1,8010.8,8012
201907261559,8012,8013,8011.7,8012.9
201907261600,8012.9,8015,8012.6,8012.9
201907261601,8012.8,8012.9,8009.9,8009.9
201907261602,8009.9,8011,8009.7,8010.7
201907261603,8010.7,8011.1,8009.5,8010
201907261604,8010.1,8010.1,8007.4,8008
201907261605,8008.1,8010.8,8007.5,8010.1
201907261606,8010.1,8011.3,8010,8011
201907261607,8011.2,8013.5,8011.2,8013.1
201907261608,8013.2,8014,8012.4,8012.6
201907261609,8012.5,8013.9,8012.4,8013.7
201907261610,8013.7,8014.5,8012.4,8012.9
201907261611,8012.9,8013.5,8011.2,8011.9
201907261612,8011.9,8012.6,8011.2,8012.3
201907261613,8012.3,8013.3,8011.3,8012.5
201907261614,8012.6,8013.5,8011.4,8011.4
201907261615,8011.4,8012.3,8009.2,8009.2
201907261616,8009.2,8010.9,8008.7,8009.2
201907261617,8009.2,8011.8,8009.2,8011.4
201907261618,8011.4,8013.7,8011.4,8012.8
201907261619,8012.8,8013.2,8011.9,8013.1
201907261620,8013.1,8013.1,8011.4,8011.4
201907261621,8011.4,8011.6,8009.9,8010.1
201907261622,8010.1,8011,8009.9,8010.7
201907261623,8010.9,8012,8010.3,8010.4
201907261624,8010.4,8011,8009.7,8009.8
201907261625,8010,8010.6,8008.8,8008.8
201907261626,8008.9,8010.3,8008.9,8009.8
201907261627,8009.8,8011.6,8009.8,8010.2
201907261628,8010.2,8011.8,8010.2,8010.9
201907261629,8010.9,8011.9,8010.8,8011.9
201907261630,8011.8,8011.8,8009.9,8010.4
201907261631,8010.3,8010.7,8009.9,8010.4
201907261632,8010.2,8010.5,8009.5,8009.9
201907261633,8009.8,8011.4,8009.4,8010.7
201907261634,8010.7,8011.1,8009.1,8009.2
201907261635,8009.2,8009.7,8009.2,8009.5
201907261636,8009.5,8009.5,8007.6,8009.4
201907261637,8009.5,8009.6,8008.6,8009.2
201907261638,8008.8,8008.8,8006.2,8006.6
201907261639,8006.5,8007.2,8006.3,8006.8
201907261640,8006.8,8006.8,8005.4,8005.9
201907261641,8005.8,8006,8005.3,8005.9
201907261642,8005.9,8007.8,8005.6,8006.6
201907261643,8006.6,8006.7,8005.6,8005.8
201907261644,8005.8,8006.5,8005.4,8005.7
201907261645,8005.7,8005.8,8003.5,8003.9
201907261646,8003.9,8004.3,8003.4,8004
201907261647,8004.2,8004.6,8003.4,8004.3
201907261648,8004.3,8004.5,8003.5,8004.2
201907261649,8004.2,8005.6,8004,8004.7
201907261650,8004.7,8005.5,8004.2,8005.4
201907261651,8005.3,8006.8,8005.3,8006.4
201907261652,8006.3,8006.5,8005.2,8005.6
201907261653,8005.6,8006.3,8005.4,8005.4
201907261654,8005.4,8006.6,8005.2,8006.5
201907261655,8006.5,8008,8006.4,8007.7
201907261656,8007.7,8008.8,8007.7,8008.8
201907261657,8008.7,8008.7,8007.8,8007.8
201907261658,8007.8,8008.1,8007.4,8007.8
201907261659,8007.8,8008.3,8007.3,8008
201907261700,8008,8008,8005.9,8006.1
201907261701,8006.1,8007.4,8006.1,8007.4
201907261702,8007.4,8007.9,8007,8007.6
201907261703,8007.6,8008.2,8007.3,8007.6
201907261704,8007.5,8009.8,8007.5,8008.6
201907261705,8008.6,8008.7,8007.7,8008.1
201907261706,8008.1,8008.3,8007.1,8007.1
201907261707,8007.1,8007.3,8004.2,8004.2
201907261708,8004.1,8004.8,8004.1,8004.3
201907261709,8004.4,8004.9,8003.6,8003.7
201907261710,8003.7,8005.8,8003.7,8005.8
201907261711,8005.8,8005.8,8004.5,8004.8
201907261712,8004.8,8004.8,8004.4,8004.8
201907261713,8004.8,8004.8,8003.4,8003.4
201907261714,8003.4,8005,8003.4,8004.7
201907261715,8004.7,8004.8,8003.7,8003.9
201907261716,8003.9,8004.1,8002.4,8003.3
201907261717,8003.3,8008.2,8003.3,8008
201907261718,8008,8009.3,8007.8,8008.6
201907261719,8008.6,8008.8,8007.8,8007.9
201907261720,8007.9,8007.9,8007.2,8007.8
201907261721,8007.9,8007.9,8006.4,8006.8
201907261722,8006.9,8006.9,8005.8,8005.8
201907261723,8005.7,8005.9,8003.2,8003.2
201907261724,8002.8,8004.9,8002.4,8004.7
201907261725,8004.7,8005.6,8003.8,8004.9
201907261726,8004.7,8005.3,8004.4,8004.4
201907261727,8004.6,8005,8003.5,8004
201907261728,8004,8004.6,8003.8,8004.2
201907261729,8004.2,8005.5,8004.2,8005.1
201907261730,8005.1,8005.5,8004.2,8005.1
201907261731,8005,8006.5,8005,8006.2
201907261732,8006.1,8006.3,8004.4,8004.7
201907261733,8004.7,8006,8004.7,8005.5
201907261734,8005.5,8005.7,8004.9,8005.6
201907261735,8005.5,8005.5,8002.9,8002.9
201907261736,8002.9,8003,8000.9,8002.7
201907261737,8002.5,8002.7,8002,8002.3
201907261738,8002.3,8003.1,8001.9,8002
201907261739,8002,8004,8001.7,8002.9
201907261740,8002.9,8003.5,8002.2,8003.3
201907261741,8003.3,8003.8,8002.9,8003.8
201907261742,8003.8,8004.5,8003.2,8004.2
201907261743,8004.2,8004.8,8003.1,8003.5
201907261744,8003.5,8004.6,8003.2,8003.4
201907261745,8003.4,8005.3,8003.4,8004.8
201907261746,8004.8,8005.4,8004.1,8005.2
201907261747,8005.1,8006,8005.1,8006
201907261748,8006.1,8006.7,8005.9,8006.2
201907261749,8006,8007.1,8005.8,8006.5
201907261750,8006.5,8006.9,8005.9,8006.2
201907261751,8006.2,8006.9,8006.2,8006.8
201907261752,8006.8,8007.3,8005.9,8006
201907261753,8006.1,8006.6,8005.5,8005.7
201907261754,8005.8,8007.1,8005.5,8006.9
201907261755,8006.9,8007.1,8006.3,8006.8
201907261756,8006.8,8007.3,8005.6,8006.3
201907261757,8006.3,8006.5,8005.8,8006.2
201907261758,8006.2,8006.8,8005.8,8006.8
201907261759,8006.8,8007.1,8005.9,8006.3
201907261800,8006.3,8007.3,8005.5,8006.3
201907261801,8006.3,8006.5,8004.6,8005.4
201907261802,8005.4,8005.4,8004.6,8004.8
201907261803,8004.8,8005.1,8004.7,8005.1
201907261804,8005,8005.6,8003.9,8004
201907261805,8004,8005,8004,8004.8
201907261806,8004.8,8005.1,8003.9,8004
201907261807,8004,8005,8004,8004.8
201907261808,8004.9,8006,8004.9,8005.3
201907261809,8005.3,8005.9,8004.7,8004.7
201907261810,8004.7,8006.6,8004.6,8006.3
201907261811,8006.3,8007.5,8005.9,8006.7
201907261812,8006.7,8006.8,8005.9,8005.9
201907261813,8005.8,8006.5,8005.7,8006.5
201907261814,8006.6,8007.3,8006.4,8006.9
201907261815,8006.9,8009,8006.9,8009
201907261816,8009,8009.1,8008.2,8008.4
201907261817,8008.4,8009.5,8007.7,8007.8
201907261818,8007.8,8009,8007.8,8008.9
201907261819,8008.8,8009.5,8008.3,8008.4
201907261820,8008.4,8010.2,8008.4,8009.9
201907261821,8010,8010.5,8010,8010
201907261822,8010,8010.3,8009.6,8009.7
201907261823,8009.7,8010.4,8008,8008
201907261824,8008,8009.2,8007.9,8008.9
201907261825,8008.9,8009.4,8008.9,8009.1
201907261826,8009.1,8009.7,8009,8009.7
201907261827,8009.7,8011.2,8009.3,8010.7
201907261828,8010.6,8012.5,8010.6,8012.5
201907261829,8012.7,8012.9,8011.6,8012.3
201907261830,8012.3,8013.7,8012.1,8013.5
201907261831,8013.6,8015,8013.6,8014.9
201907261832,8014.8,8015.4,8014.7,8014.8
201907261833,8014.8,8014.8,8013.7,8013.9
201907261834,8013.9,8015,8013.9,8014.6
201907261835,8014.5,8015.1,8014,8014.5
201907261836,8014.5,8014.8,8014.4,8014.5
201907261837,8014.5,8014.8,8014.2,8014.2
201907261838,8014.2,8014.3,8013.6,8013.8
201907261839,8013.8,8015.3,8013.8,8015.3
201907261840,8015.3,8017.5,8015.1,8016.3
201907261841,8016.3,8017.5,8016.2,8017.2
201907261842,8017.1,8017.3,8016.7,8016.9
201907261843,8016.9,8017.5,8016.4,8017.1
201907261844,8017.1,8017.2,8016.3,8016.3
201907261845,8016.3,8017.1,8016.1,8017
201907261846,8017,8017.5,8016.7,8017.2
201907261847,8017.2,8017.3,8016.4,8016.6
201907261848,8016.7,8016.9,8015.8,8016.2
201907261849,8016.2,8016.5,8015.7,8015.8
201907261850,8015.8,8016,8015.1,8015.4
201907261851,8015.3,8016,8014.9,8015.6
201907261852,8015.6,8015.6,8014.4,8014.8
201907261853,8014.8,8015.5,8014.8,8015.2
201907261854,8015.2,8015.6,8014.7,8015.5
201907261855,8015.5,8016,8015,8015.7
201907261856,8015.5,8015.5,8014.5,8015.4
201907261857,8015.4,8016.3,8015.4,8016.1
201907261858,8016.1,8016.6,8015.4,8016.6
201907261859,8016.6,8016.8,8015.9,8016.2
201907261900,8016.2,8017,8016.1,8017
201907261901,8017,8017.4,8016.9,8016.9
201907261902,8016.8,8018.2,8016.8,8017.7
201907261903,8017.7,8018.3,8016.8,8017.3
201907261904,8017.3,8017.9,8016.2,8016.9
201907261905,8016.9,8017.8,8016.7,8017.5
201907261906,8017.6,8018.5,8017.3,8018
201907261907,8018,8018.1,8016.9,8016.9
201907261908,8016.8,8017.5,8016.4,8017.3
201907261909,8017.3,8018.6,8017.1,8018.3
201907261910,8018.3,8019.2,8018.1,8018.8
201907261911,8018.8,8018.8,8018.4,8018.5
201907261912,8018.5,8018.7,8017.6,8017.6
201907261913,8017.7,8018,8017.4,8017.8
201907261914,8017.8,8018.7,8017.8,8018.4
201907261915,8018.4,8018.6,8018.2,8018.5
201907261916,8018.5,8019.3,8018.4,8018.9
201907261917,8018.9,8019.2,8018.9,8019
201907261918,8019,8019.7,8018.1,8018.3
201907261919,8018.3,8018.6,8016.8,8016.8
201907261920,8016.8,8017.9,8016.8,8017.8
201907261921,8017.8,8019.6,8017.8,8019.3
201907261922,8019.4,8019.4,8017.6,8017.6
201907261923,8017.6,8017.7,8016.5,8016.6
201907261924,8016.6,8017.2,8016.6,8016.8
201907261925,8016.9,8019.3,8016.9,8018.5
201907261926,8018.5,8018.5,8018.1,8018.4
201907261927,8018.3,8018.6,8018.3,8018.4
201907261928,8018.3,8019.5,8018,8019.4
201907261929,8019.4,8019.5,8019.1,8019.2
201907261930,8019.2,8019.9,8019.1,8019.7
201907261931,8019.7,8021.4,8019.7,8021.2
201907261932,8021.2,8021.3,8020.1,8020.3
201907261933,8020.4,8021.1,8018.4,8018.4
201907261934,8018.4,8019.4,8018.4,8018.9
201907261935,8018.9,8019.5,8018.8,8019.2
201907261936,8019.2,8021.4,8019.1,8020.9
201907261937,8020.9,8021.3,8020.1,8020.1
201907261938,8020.1,8020.1,8019.4,8019.6
201907261939,8019.6,8019.6,8018.9,8019.3
201907261940,8019.4,8019.8,8019.2,8019.2
201907261941,8019.1,8019.4,8017.2,8017.2
201907261942,8017.2,8017.2,8016,8016
201907261943,8016,8017.5,8016,8017.4
201907261944,8017.4,8017.5,8016.8,8017
201907261945,8017,8018.1,8016.7,8018.1
201907261946,8018.1,8018.5,8018,8018
201907261947,8018,8018,8017.2,8017.5
201907261948,8017.5,8017.5,8017.1,8017.5
201907261949,8017.6,8018.3,8017.4,8017.4
201907261950,8017.4,8017.9,8017.3,8017.8
201907261951,8017.8,8018.1,8017.4,8017.4
201907261952,8017.3,8017.3,8015.6,8015.6
201907261953,8015.6,8016.3,8015,8015.8
201907261954,8015.8,8015.9,8014.9,8015.3
201907261955,8015.3,8016.1,8015.3,8015.7
201907261956,8015.7,8015.8,8014.4,8014.7
201907261957,8014.7,8014.8,8014.4,8014.4
201907261958,8014.4,8014.6,8014.3,8014.6
201907261959,8014.6,8014.6,8013.2,8013.8
201907262000,8013.8,8013.8,8012.7,8013.3
201907262001,8013.2,8014.3,8012.4,8013.8
201907262002,8013.9,8015.2,8013.9,8014.4
201907262003,8014.4,8014.4,8013.1,8013.4
201907262004,8013.4,8014.2,8013.4,8013.8
201907262005,8013.9,8014.3,8012.2,8012.4
201907262006,8012.3,8012.4,8011.4,8011.5
201907262007,8011.5,8012.1,8011,8011.9
201907262008,8011.9,8012.6,8011.7,8012.5
201907262009,8012.5,8013.5,8012.5,8013.1
201907262010,8012.9,8013.1,8011.1,8011.4
201907262011,8011.4,8012.3,8011.2,8012.1
201907262012,8012.1,8012.4,8012.1,8012.4
201907262013,8012.3,8012.9,8012.1,8012.9
201907262014,8012.9,8013.4,8012.4,8012.4
201907262015,8012.4,8012.6,8012.4,8012.4
201907262016,8012.4,8013.5,8012.4,8012.6
201907262017,8012.6,8013,8011.9,8011.9
201907262018,8011.9,8012.4,8011.9,8012
201907262019,8011.9,8012.6,8011.9,8012.5
201907262020,8012.5,8013,8012.3,8012.8
201907262021,8012.9,8013.1,8012.3,8012.6
201907262022,8012.6,8014.5,8012.6,8014.1
201907262023,8014.1,8015.2,8014.1,8015.2
201907262024,8015.2,8015.5,8014.9,8015.3
201907262025,8015.2,8015.3,8014.6,8014.8
201907262026,8014.8,8014.8,8013.3,8013.4
201907262027,8013.3,8013.3,8012.3,8012.8
201907262028,8012.8,8013.1,8012.4,8013.1
201907262029,8013.1,8013.5,8013.1,8013.1
201907262030,8013.1,8013.9,8013,8013.7
201907262031,8013.7,8013.8,8013.2,8013.6
201907262032,8013.6,8015,8013.6,8015
201907262033,8014.8,8014.8,8013.7,8013.7
201907262034,8013.7,8013.7,8012.4,8012.8
201907262035,8012.8,8014,8012.8,8013.8
201907262036,8013.8,8014,8013.6,8013.6
201907262037,8013.6,8013.8,8012.1,8012.3
201907262038,8012.4,8013.2,8012.1,8012.9
201907262039,8012.9,8013.6,8011.7,8012
201907262040,8012,8013.3,8012,8012.9
201907262041,8012.9,8013.1,8012,8012
201907262042,8011.9,8012.3,8011.9,8012.1
201907262043,8012,8012.1,8011.4,8011.7
201907262044,8011.6,8011.9,8009.6,8010.9
201907262045,8010.9,8013,8010.3,8012.4
201907262046,8012.3,8013.6,8012.3,8013.6
201907262047,8013.7,8014,8013.2,8013.2
201907262048,8013.2,8014.8,8013.2,8014.4
201907262049,8014.4,8014.4,8013,8013
201907262050,8013,8013.1,8012.2,8012.8
201907262051,8012.8,8012.8,8012,8012
201907262052,8012,8013,8011.6,8012.6
201907262053,8012.6,8013.1,8012.4,8012.6
201907262054,8012.5,8012.8,8012,8012.2
201907262055,8012.2,8012.9,8012.1,8012.9
201907262056,8012.9,8012.9,8011,8012
201907262057,8012,8012.4,8011.8,8011.9
201907262058,8011.8,8012.8,8011.7,8012.3
201907262059,8012.4,8013,8012.1,8012.9
201907262100,8012.9,8015,8012.1,8015
201907262101,8015,8015.1,8014.1,8014.1
201907262102,8014.1,8014.9,8013.4,8013.4
201907262103,8013.4,8013.4,8012.2,8012.5
201907262104,8012.5,8013.1,8011.7,8013
201907262105,8013.1,8015,8011.7,8014.9
201907262106,8014.9,8014.9,8012.9,8013.2
201907262107,8013.2,8014,8011.7,8011.7
201907262108,8011.7,8011.8,8009.1,8009.1
201907262109,8008.9,8009.4,8007.5,8007.6
201907262110,8007.6,8008.9,8007.4,8007.8
201907262111,8007.8,8007.8,8005.2,8005.4
201907262112,8005.5,8006.5,8004.9,8005.3
201907262113,8005.3,8005.3,8003.9,8004
201907262114,8004,8004.5,8003.3,8003.4
201907262115,8003.4,8004.6,8003.2,8004.5
201907262116,8004.5,8005,8002.7,8003.5
201907262117,8003.6,8004.5,8003.3,8003.7
201907262118,8003.7,8004.2,8003.3,8003.9
201907262119,8003.9,8003.9,8003.3,8003.3
201907262120,8003.3,8003.3,8001.9,8002.5
201907262121,8002.5,8002.6,8002.2,8002.2
201907262122,8002.1,8002.1,8001.3,8001.8
201907262123,8001.8,8001.8,8000,8000.1
201907262124,8000.1,8000.1,7996.1,7997.4
201907262125,7997.4,7999,7996.2,7998.8
201907262126,7998.8,7999.6,7998.6,7999.5
201907262127,7999.5,8000.7,7999.2,7999.7
201907262128,7999.7,8001.4,7999.7,8001
201907262129,8001,8001.5,7998.5,7998.8
201907262130,7998.9,8002.4,7991.3,7992.8
201907262131,7992.8,7999.6,7991.9,7999.6
201907262132,7999.6,7999.6,7995.9,7996.5
201907262133,7996.6,7997.1,7993.5,7996.2
201907262134,7996.2,7996.9,7994.9,7995.3
201907262135,7995.3,8000.8,7995,8000.8
201907262136,8000.8,8004.2,8000.3,8004.1
201907262137,8004.1,8005.8,8002.6,8004.8
201907262138,8004.8,8004.9,8003.2,8003.7
201907262139,8003.9,8004,8003,8003.3
201907262140,8003.3,8004.5,8003.1,8003.4
201907262141,8003.3,8003.3,8002,8002.9
201907262142,8002.9,8006,8002.9,8006
201907262143,8006,8006.5,8004.1,8004.8
201907262144,8004.8,8005.7,8004.1,8005.1
201907262145,8005.1,8005.6,8003.3,8004.5
201907262146,8004.4,8004.9,8003.8,8004.9
201907262147,8004.9,8005.4,8003.5,8003.5
201907262148,8003.5,8004.3,8002.2,8003.5
201907262149,8003.4,8005.3,8002.6,8002.6
201907262150,8002.5,8002.5,8001.4,8001.5
201907262151,8001.5,8005.3,8001.2,8005.3
201907262152,8005.3,8006,8004.4,8005
201907262153,8005,8005.5,8004.1,8004.8
201907262154,8005.1,8005.8,8004.8,8005.1
201907262155,8005.1,8005.3,8003.2,8003.2
201907262156,8003.2,8004.7,8003.2,8004.1
201907262157,8004.2,8005.1,8004,8004.4
201907262158,8004.4,8004.5,8001.4,8002.6
201907262159,8002.6,8004.1,8001.9,8003.1
201907262200,8003,8004.5,8002.3,8003.4
201907262201,8003.4,8004.9,8003.4,8004.6
201907262202,8004.6,8005.5,8003.6,8005.3
201907262203,8005.3,8007.1,8005.2,8006.6
201907262204,8006.5,8006.5,8004.9,8005
201907262205,8005,8008.2,8005,8005.3
201907262206,8005.3,8007,8005.3,8006.1
201907262207,8006.1,8008,8006.1,8007.7
201907262208,8007.7,8007.7,8003.9,8005.3
201907262209,8005.3,8005.5,8004.2,8004.9
201907262210,8004.9,8005.5,8003.7,8003.7
201907262211,8003.7,8004.5,8000.5,8001.8
201907262212,8001.8,8002.5,8000.7,8002.5
201907262213,8002,8004.1,8001.9,8004
201907262214,8004,8004.3,8003.1,8004.3
201907262215,8004.3,8004.3,8001.9,8001.9
201907262216,8001.9,8004.3,8001.9,8004
201907262217,8004.1,8005.5,8003.4,8004.9
201907262218,8004.9,8005.9,8004.4,8005.5
201907262219,8005.5,8006.3,8005.2,8005.8
201907262220,8005.8,8005.8,8004.1,8004.3
201907262221,8004.3,8005,8004.3,8004.4
201907262222,8004.4,8004.8,8002.5,8003.7
201907262223,8003.7,8004.5,8002.5,8003.8
201907262224,8003.8,8004.4,8003.2,8004.1
201907262225,8004.1,8004.3,8002.2,8002.2
201907262226,8002.3,8003.4,8002.3,8003.1
201907262227,8003.1,8003.1,8001.7,8002.1
201907262228,8002.2,8002.2,7999.3,8001.5
201907262229,8001.6,8003,7998.4,7998.4
201907262230,7998.4,8007,7995.6,8003.9
201907262231,8004,8004.5,7998.8,8004.4
201907262232,8004.1,8010.3,8003.1,8010.3
201907262233,8010.3,8016.8,8010.3,8016.3
201907262234,8016.3,8022.4,8015.7,8018.8
201907262235,8018.1,8031.3,8018.1,8028.8
201907262236,8028.8,8033.1,8027.7,8027.7
201907262237,8027.7,8032.3,8027.6,8027.8
201907262238,8027.8,8028.5,8019.4,8022.1
201907262239,8022,8023.9,8019.4,8023.3
201907262240,8022.9,8027.5,8022,8022.6
201907262241,8022.8,8024,8017,8017.5
201907262242,8017,8024.7,8016.3,8024.3
201907262243,8024.3,8024.7,8020.2,8021.3
201907262244,8021.5,8025.3,8021.4,8025.2
201907262245,8025.4,8028.6,8025.4,8027
201907262246,8027,8027,8020.5,8024.4
201907262247,8024.4,8026.5,8022.5,8024.7
201907262248,8024.7,8026.5,8022,8023.7
201907262249,8023.7,8023.7,8020.1,8023
201907262250,8023.8,8027.2,8021.1,8026
201907262251,8026,8028.6,8023,8023.6
201907262252,8023.6,8025.1,8020.4,8024.6
201907262253,8024.4,8026.5,8023.9,8024
201907262254,8024,8027.6,8023.3,8026.2
201907262255,8026.2,8030.8,8026.2,8029.9
201907262256,8030.1,8030.2,8027,8030.2
201907262257,8030.2,8031.5,8027.4,8027.9
201907262258,8027.9,8029.5,8025.9,8026.8
201907262259,8027.2,8028.6,8025.2,8026
201907262300,8026,8026.5,8019.4,8019.4
201907262301,8019.8,8025.4,8019.7,8024.5
201907262302,8024.8,8025.5,8020.2,8021.9
201907262303,8021.9,8027,8021.4,8026.6
201907262304,8026.6,8029.2,8026.6,8029.2
201907262305,8029.2,8030.2,8026.6,8027.1
201907262306,8027.1,8028.8,8025.7,8026.7
201907262307,8026.7,8027.2,8025.1,8025.3
201907262308,8025.4,8026.3,8018.5,8018.9
201907262309,8018.9,8020.2,8017.1,8018
201907262310,8018,8018.6,8013.4,8018
201907262311,8018.2,8019.4,8013.8,8014
201907262312,8014,8018.3,8011.6,8017.4
201907262313,8017.4,8017.8,8013.6,8016.9
201907262314,8016.8,8017.2,8013.4,8016.6
201907262315,8016.6,8019.4,8016.2,8017.6
201907262316,8017.6,8022.4,8016.4,8022.4
201907262317,8022.1,8022.5,8020.9,8022.2
201907262318,8022.2,8022.5,8019.7,8021.9
201907262319,8021.8,8023,8019.2,8019.2
201907262320,8019,8019,8013.5,8015.1
201907262321,8015.1,8016.7,8012.4,8015.2
201907262322,8015.2,8016.8,8014.5,8015.5
201907262323,8015.2,8016.3,8014.3,8015
201907262324,8015,8016.5,8013.7,8015.1
201907262325,8015.1,8018,8014.2,8015.9
201907262326,8016,8016,8012.2,8013.2
201907262327,8013.2,8014.6,8010.1,8010.2
201907262328,8010.2,8012.1,8009.6,8010.2
201907262329,8010.4,8013.2,8010.4,8011.6
201907262330,8011.4,8012.3,8007.1,8007.4
201907262331,8007.3,8007.7,8004.6,8006.2
201907262332,8006.2,8009.2,8005.9,8009.2
201907262333,8009.2,8009.4,8006.9,8007.5
201907262334,8007.5,8008,8006.4,8006.6
201907262335,8006.6,8007.2,8003.9,8004.1
201907262336,8004.1,8005.6,8001.7,8003.9
201907262337,8003.9,8005.5,8002.9,8005.3
201907262338,8005.3,8008.2,8004.9,8007.7
201907262339,8007.9,8008.1,8006,8007.9
201907262340,8007.9,8009,8006.2,8007.7
201907262341,8007.5,8007.5,8003.1,8004.1
201907262342,8003.9,8004.4,8002,8003.8
201907262343,8003.8,8004.5,8000.4,8002.6
201907262344,8002.6,8004.3,8000.2,8001.3
201907262345,8001.3,8004.1,7999.5,8002.6
201907262346,8002.6,8008.1,8002.4,8007.7
201907262347,8007.7,8009.8,8007.2,8009.6
201907262348,8009.6,8010.7,8004.9,8004.9
201907262349,8004.9,8006.6,8003,8003.6
201907262350,8003.6,8006.8,8002.9,8005.8
201907262351,8005.9,8007.2,8005.2,8007.2
201907262352,8007.2,8010.1,8007.2,8008.9
201907262353,8008.9,8010,8007.1,8008.1
201907262354,8008.1,8009.2,8008.1,8008.9
201907262355,8008.9,8009.9,8007.8,8008.1
201907262356,8008.1,8010.7,8006.7,8010
201907262357,8010.3,8011.9,8009,8010
201907262358,8009.8,8011,8009.1,8009.1
201907262359,8009.1,8010.7,8007.1,8008
201907270000,8008,8009.3,8005.2,8006.4
201907270001,8006.4,8009.3,8005.9,8008.8
201907270002,8008.7,8010.9,8008.4,8010.7
201907270003,8010.8,8011.4,8009.9,8010.4
201907270004,8010.3,8011.5,8009.1,8011
201907270005,8011,8014.6,8010.7,8013.1
201907270006,8013.1,8013.5,8010.9,8013.5
201907270007,8013.4,8013.7,8012.3,8012.3
201907270008,8012.3,8012.4,8007.9,8008.3
201907270009,8008.3,8009.2,8007.1,8008.2
201907270010,8008.3,8009.9,8006.4,8007.6
201907270011,8007.6,8008.4,8005.9,8006.8
201907270012,8006.8,8007.4,8004.9,8006.4
201907270013,8006.5,8007.8,8005.9,8006
201907270014,8006,8006.7,8002.9,8004
201907270015,8004,8009.1,8003.4,8008.4
201907270016,8008.4,8012.6,8007.9,8011.4
201907270017,8011.4,8016.2,8011.2,8014.4
201907270018,8014.4,8015.6,8012.6,8013
201907270019,8013,8013.5,8010.4,8010.4
201907270020,8010.4,8014,8010.4,8013.9
201907270021,8013.7,8017,8013.5,8017
201907270022,8017.1,8018,8015.8,8016.2
201907270023,8016.2,8016.9,8015.5,8015.7
201907270024,8015.7,8016.9,8014,8016.4
201907270025,8016.4,8017.6,8015.6,8015.7
201907270026,8015.7,8019,8015.7,8016.6
201907270027,8016.6,8020.5,8016.6,8019.4
201907270028,8019.4,8020.2,8018.4,8018.6
201907270029,8018.6,8020.6,8018.4,8019.5
201907270030,8019.5,8020.7,8019,8020.4
201907270031,8020.2,8021,8019.6,8020
201907270032,8020,8022.9,8020,8022.2
201907270033,8022,8022.5,8020.4,8022.4
201907270034,8022.5,8024.3,8022.5,8023.8
201907270035,8023.8,8025.7,8023,8025.7
201907270036,8025.6,8025.7,8023.5,8024.5
201907270037,8024.5,8026.3,8024.5,8025.3
201907270038,8025.4,8026.5,8025.2,8026.2
201907270039,8026.2,8026.8,8025.7,8026.6
201907270040,8026.7,8027.8,8025.5,8026
201907270041,8026,8027.1,8025.7,8027.1
201907270042,8027.1,8027.9,8024.5,8024.5
201907270043,8024.6,8025.8,8024.4,8025
201907270044,8025,8025.7,8024.2,8025.3
201907270045,8025.4,8028.6,8025.4,8028.5
201907270046,8028.4,8029,8026.2,8026.6
201907270047,8026.5,8026.6,8025,8026.1
201907270048,8026.1,8026.1,8024.7,8025
201907270049,8025,8026.8,8024.5,8025.8
201907270050,8025.7,8026.4,8025.4,8025.5
201907270051,8025.5,8026.1,8023.8,8026
201907270052,8026,8028.1,8025,8027.7
201907270053,8027.8,8029,8027.2,8028.2
201907270054,8028.2,8029.2,8027.7,8028.5
201907270055,8028.5,8029.7,8028.3,8029.2
201907270056,8029.2,8030.1,8028.3,8030.1
201907270057,8030.1,8030.9,8029.6,8030.1
201907270058,8030.1,8031,8029.1,8030.9
201907270059,8030.8,8032.2,8030.6,8031
201907270100,8031,8032.1,8028.3,8028.4
201907270101,8028.4,8028.6,8026.9,8027.2
201907270102,8027.2,8029,8026.9,8028.5
201907270103,8028.5,8029,8028.4,8028.5
201907270104,8028.5,8028.9,8027.9,8028.2
201907270105,8028.2,8028.9,8027.7,8028.9
201907270106,8028.9,8029.5,8028.4,8028.7
201907270107,8028.8,8029.1,8027.9,8028
201907270108,8027.9,8029.2,8027.8,8029.2
201907270109,8029.2,8030.9,8029.1,8030.4
201907270110,8030.4,8031.2,8029,8029.2
201907270111,8029,8030.6,8028.9,8030
201907270112,8030,8031.9,8030,8031.9
201907270113,8031.9,8032.9,8030.8,8031.7
201907270114,8031.7,8031.9,8030.1,8031.5
201907270115,8031.5,8032.2,8031,8031.7
201907270116,8031.7,8032.2,8028.3,8028.4
201907270117,8028.4,8028.4,8025.6,8026.7
201907270118,8026.7,8027.1,8025.4,8025.6
201907270119,8025.6,8026.8,8024.7,8025.4
201907270120,8025.4,8027,8025.1,8026.4
201907270121,8026.4,8026.9,8026,8026.6
201907270122,8026.6,8028,8026.4,8027.9
201907270123,8027.9,8028.6,8026.9,8027.2
201907270124,8027.2,8027.7,8026.6,8026.7
201907270125,8026.7,8028.1,8026,8027
201907270126,8027,8028.1,8026.7,8026.8
201907270127,8026.8,8027.8,8026.6,8027.4
201907270128,8027.4,8028.6,8027.3,8028
201907270129,8028,8028.8,8027.7,8028.6
201907270130,8028.6,8029.6,8028.2,8029
201907270131,8029,8029.5,8028.4,8028.8
201907270132,8028.8,8028.8,8026.4,8026.4
201907270133,8026.4,8026.7,8024.7,8026.3
201907270134,8026.3,8026.7,8023.3,8025.1
201907270135,8025,8025.5,8024.6,8025
201907270136,8025,8025.1,8023.5,8023.8
201907270137,8023.8,8024,8022.9,8024
201907270138,8024,8024.5,8023.3,8023.9
201907270139,8023.7,8024,8022.2,8022.7
201907270140,8022.7,8022.9,8021,8022.1
201907270141,8022,8023.9,8021.9,8023.9
201907270142,8023.9,8024.1,8022.5,8023.2
201907270143,8023.1,8023.7,8022.6,8023.7
201907270144,8023.6,8023.6,8022.5,8023.1
201907270145,8023.1,8024.2,8022.3,8024.2
201907270146,8024.2,8024.2,8023.2,8023.2
201907270147,8023.2,8023.9,8022.5,8023.1
201907270148,8023.1,8023.6,8022.6,8023.1
201907270149,8023.1,8023.9,8022.7,8023.4
201907270150,8023.4,8024,8022.6,8023.1
201907270151,8023,8023.9,8022.6,8022.6
201907270152,8022.6,8024.5,8022.5,8024.4
201907270153,8024.4,8026.9,8023.9,8026.7
201907270154,8026.5,8027.9,8026.1,8027.5
201907270155,8027.5,8028.1,8027.2,8027.2
201907270156,8027.3,8027.9,8026.8,8027.5
201907270157,8027.4,8027.7,8026.7,8027.1
201907270158,8027.1,8027.7,8026.4,8027.5
201907270159,8027.5,8027.7,8026.7,8026.9
201907270200,8026.9,8027.9,8026.9,8027.8
201907270201,8027.9,8028.4,8027.9,8028.2
201907270202,8028.2,8028.2,8025.7,8027.3
201907270203,8027.3,8027.3,8025.4,8025.9
201907270204,8025.9,8025.9,8023.1,8024.7
201907270205,8024.6,8026.7,8024.5,8026.5
201907270206,8026.6,8026.8,8025.7,8026.7
201907270207,8026.7,8026.7,8024.4,8024.9
201907270208,8024.8,8025.4,8023.9,8024.3
201907270209,8024.3,8025.3,8024,8025
201907270210,8025.1,8027,8025,8026.4
201907270211,8026.4,8029.1,8026.4,8028.2
201907270212,8028.2,8030.1,8028.2,8029.3
201907270213,8029.4,8031.1,8029.4,8030.5
201907270214,8030.5,8031.5,8029.9,8031.4
201907270215,8031.4,8034.3,8031.4,8033.4
201907270216,8033.2,8033.7,8032.6,8033.3
201907270217,8033.3,8033.3,8030,8031.1
201907270218,8031,8031,8029.2,8030.2
201907270219,8030.2,8030.3,8029.4,8030.1
201907270220,8030.1,8031.6,8030,8031.6
201907270221,8031.6,8035.3,8031.6,8033.6
201907270222,8033.6,8034.4,8032.9,8034.4
201907270223,8034.4,8034.8,8033.6,8033.9
201907270224,8033.9,8035,8033.6,8033.8
201907270225,8033.7,8034.9,8031.5,8031.5
201907270226,8031.4,8032.7,8031.4,8032
201907270227,8032,8032.7,8031.7,8032.3
201907270228,8032.2,8032.4,8030.4,8030.4
201907270229,8030.4,8031.4,8030.2,8030.5
201907270230,8030.7,8031,8029.3,8029.7
201907270231,8029.7,8032,8029.7,8031.8
201907270232,8031.7,8033.2,8031.4,8031.7
201907270233,8031.6,8031.8,8030.5,8031.4
201907270234,8031.4,8031.8,8030.9,8031.2
201907270235,8031.2,8032.6,8031.2,8032.1
201907270236,8032.1,8032.1,8030.9,8030.9
201907270237,8030.8,8033,8030.4,8033
201907270238,8033,8033.6,8031.8,8033.3
201907270239,8033.3,8033.3,8031.3,8031.7
201907270240,8031.7,8032.6,8030.7,8032.1
201907270241,8032.1,8033.2,8030.9,8031
201907270242,8031,8031.9,8030.5,8031.1
201907270243,8031.1,8031.2,8029.9,8029.9
201907270244,8029.6,8030.3,8028.9,8029.3
201907270245,8029.3,8030.7,8028.9,8029
201907270246,8029.2,8029.2,8027.7,8027.7
201907270247,8027.7,8028,8026.8,8027.5
201907270248,8027.5,8027.9,8026.3,8026.3
201907270249,8026.4,8027.1,8025.4,8026.8
201907270250,8026.8,8026.8,8025.8,8026.4
201907270251,8026.5,8027.6,8026.2,8027.4
201907270252,8027.4,8028.4,8027.2,8028.4
201907270253,8028.4,8028.8,8027.7,8028.3
201907270254,8028.3,8028.4,8027.1,8027.8
201907270255,8027.9,8030.4,8027.7,8030.2
201907270256,8030.2,8031.4,8029.4,8031.2
201907270257,8031.2,8032,8030.9,8031.6
201907270258,8031.6,8032.3,8031.5,8032
201907270259,8032,8032.6,8031.6,8032.4
201907270300,8032.3,8032.8,8031.5,8031.6
201907270301,8031.6,8033.1,8031.4,8032.8
201907270302,8032.8,8032.9,8030.9,8031.1
201907270303,8031.1,8031.8,8029.7,8030.1
201907270304,8030.1,8030.3,8028.9,8029.1
201907270305,8029.1,8029.5,8028.4,8028.6
201907270306,8028.6,8028.9,8027,8027
201907270307,8027.1,8028.2,8026.9,8027.4
201907270308,8027.3,8029.5,8027.1,8028.9
201907270309,8028.9,8030.2,8028.9,8029.7
201907270310,8029.7,8030.6,8029.5,8030.6
201907270311,8030.5,8031.6,8030.4,8031
201907270312,8031,8031.9,8029.9,8030.5
201907270313,8030.5,8031.2,8030.4,8031.2
201907270314,8031.2,8032.1,8031.2,8031.2
201907270315,8031.2,8032.2,8031,8031.9
201907270316,8031.8,8032,8031.1,8032
201907270317,8032,8032.2,8031.1,8031.8
201907270318,8031.8,8032.1,8030.9,8031.9
201907270319,8031.9,8032.3,8031.2,8031.5
201907270320,8031.5,8031.9,8030.8,8031.1
201907270321,8031.1,8032.3,8030.9,8032.2
201907270322,8032.2,8032.6,8031.9,8032
201907270323,8032.1,8032.4,8030.9,8031.1
201907270324,8031.2,8031.4,8029.2,8029.2
201907270325,8029.2,8030.5,8029,8029.4
201907270326,8029.4,8030.4,8028.9,8029.7
201907270327,8029.7,8029.9,8028.2,8029
201907270328,8029,8029.6,8028.7,8029
201907270329,8029.2,8029.4,8028.4,8028.8
201907270330,8028.8,8030.4,8028.1,8030.4
201907270331,8030.4,8030.6,8028.9,8029.8
201907270332,8029.8,8031.2,8029.8,8030.8
201907270333,8030.8,8031,8030.4,8030.6
201907270334,8030.6,8030.9,8030.1,8030.7
201907270335,8030.7,8030.9,8029.9,8030.1
201907270336,8030.1,8031.3,8030.1,8030.9
201907270337,8030.9,8032.9,8030.9,8032.2
201907270338,8032.2,8033.4,8030.9,8031.3
201907270339,8031.3,8032.2,8030.6,8030.6
201907270340,8030.7,8031.4,8030.7,8030.9
201907270341,8030.9,8032,8030.9,8031.2
201907270342,8031.2,8031.5,8030,8030.6
201907270343,8030.6,8031,8029.7,8030.1
201907270344,8030.1,8030.7,8029.4,8030.6
201907270345,8030.6,8031,8028.6,8028.6
201907270346,8028.6,8029.5,8026,8029.5
201907270347,8029.5,8033.3,8029.5,8032.9
201907270348,8032.9,8033.6,8031,8031.8
201907270349,8031.8,8032.8,8031.7,8032.2
201907270350,8032,8032.6,8030.9,8032.6
201907270351,8032.6,8033.1,8032.2,8032.2
201907270352,8032.3,8033,8031.7,8032.6
201907270353,8032.7,8033.1,8032.2,8032.9
201907270354,8032.8,8033.7,8032,8033.4
201907270355,8033.4,8034.5,8033,8033.9
201907270356,8033.9,8034.5,8033.7,8033.9
201907270357,8033.9,8035.1,8033.5,8034.9
201907270358,8035,8035.5,8034.2,8034.7
201907270359,8034.7,8035.9,8034.5,8035.5
201907270400,8035.6,8035.9,8032.7,8032.7
201907270401,8032.7,8032.7,8031,8032.2
201907270402,8032.2,8034.1,8032.1,8033.2
201907270403,8033.2,8034.5,8033.2,8034
201907270404,8034,8036.4,8034,8036.3
201907270405,8036.3,8037.2,8035.5,8037.2
201907270406,8037.1,8037.7,8036.8,8037.4
201907270407,8037.4,8037.4,8036.1,8036.4
201907270408,8036.4,8036.5,8035,8035.5
201907270409,8035.4,8035.5,8034,8034
201907270410,8034,8035.1,8033.9,8034.4
201907270411,8034.4,8034.4,8033,8033.6
201907270412,8033.6,8034.3,8033.2,8033.9
201907270413,8033.9,8036.8,8033.5,8036
201907270414,8036,8036.1,8035,8036.1
201907270415,8036.1,8037.3,8035.6,8037.1
201907270416,8037.1,8037.9,8036.2,8037.9
201907270417,8037.9,8037.9,8036.4,8036.5
201907270418,8036.5,8037.6,8036.4,8036.4
201907270419,8036.4,8037.5,8036.4,8037.2
201907270420,8037.2,8037.8,8036.4,8037.8
201907270421,8037.7,8038.5,8037.7,8037.7
201907270422,8037.7,8039.6,8037.2,8039.2
201907270423,8039.2,8040.2,8038.9,8039.7
201907270424,8039.8,8040.2,8038.7,8039
201907270425,8039,8039.1,8037,8037.6
201907270426,8037.6,8037.6,8036,8036.1
201907270427,8036.1,8036.6,8035.4,8035.4
201907270428,8035.3,8036.1,8035,8035.1
201907270429,8035.1,8036.1,8035.1,8036
201907270430,8036.1,8038.4,8035,8038.4
201907270431,8038.4,8039.2,8037.7,8038.2
201907270432,8038.2,8038.3,8036.7,8037.4
201907270433,8037.4,8038.3,8037.2,8038.2
201907270434,8038.2,8039.3,8038,8038.5
201907270435,8038.5,8039.2,8038.3,8038.3
201907270436,8038.3,8039.6,8037.4,8038.9
201907270437,8038.9,8039.1,8037.4,8038.3
201907270438,8038.3,8039.3,8038.3,8038.8
201907270439,8038.8,8039.5,8038.6,8039.4
201907270440,8039.4,8039.9,8038.5,8038.5
201907270441,8038.5,8038.6,8036,8036.9
201907270442,8036.9,8038,8036.7,8038
201907270443,8038,8038.7,8037.2,8038.6
201907270444,8038.6,8038.6,8036.9,8036.9
201907270445,8036.9,8036.9,8035.2,8036.1
201907270446,8036.1,8036.1,8034.6,8034.9
201907270447,8034.8,8035.4,8033.8,8035.2
201907270448,8035.2,8035.9,8034.2,8035.7
201907270449,8035.7,8036.1,8034.5,8035.4
201907270450,8035.4,8036.5,8034.5,8035.5
201907270451,8035.5,8036,8034.1,8035.3
201907270452,8035.3,8036.2,8035.2,8036.2
201907270453,8036.2,8036.5,8035.3,8036.5
201907270454,8036.5,8036.5,8034.4,8034.9
201907270455,8034.9,8036.8,8032.5,8032.6
201907270456,8032.6,8032.8,8030.9,8031.6
201907270457,8031.6,8032.9,8031.1,8032.2
201907270458,8032.2,8035.2,8031.7,8034.7
201907270459,8034.8,8034.9,8029.2,8029.2
201907270500,8029.6,8029.6,8025.2,8026.5
201907270501,8026.7,8027.5,8024.5,8024.9
201907270502,8024.9,8026.6,8024.9,8025.6
201907270503,8025.6,8025.7,8024.6,8024.9
201907270504,8024.9,8025.4,8023.9,8023.9
201907270505,8023.9,8023.9,8022.6,8023.4
201907270506,8023.4,8023.8,8021.5,8021.5
201907270507,8021.5,8023.5,8021.5,8022.9
201907270508,8022.9,8023.1,8021.1,8022
201907270509,8022,8022,8018.9,8019.1
201907270510,8019.1,8022.3,8018.9,8022.3
201907270511,8022.4,8022.6,8021.3,8022
201907270512,8022,8022.2,8020.1,8020.9
201907270513,8020.8,8021.8,8019.5,8020.7
201907270514,8020.7,8021.9,8018.1,8018.1
