日時,始値(BID),高値(BID),安値(BID),終値(BID)
201907100700,7848,7848,7844.1,7846.1
201907100701,7846.4,7849.6,7846.4,7847.6
201907100702,7847.6,7849.6,7847.4,7849.2
201907100703,7849.2,7849.2,7847.9,7848.3
201907100704,7848.3,7848.8,7848.1,7848.5
201907100705,7848.4,7848.9,7847.8,7848.9
201907100706,7849,7849,7848.3,7848.3
201907100707,7848.4,7849.1,7848.4,7848.9
201907100708,7848.8,7849.1,7848.2,7848.2
201907100709,7848.2,7848.3,7847.6,7848.2
201907100710,7848.1,7848.2,7848,7848
201907100711,7848,7848.5,7848,7848.4
201907100712,7848.4,7848.4,7847.6,7847.8
201907100713,7847.8,7848.9,7847.5,7848.9
201907100714,7848.7,7848.8,7848.3,7848.5
201907100715,7848.4,7849.3,7848.4,7849.1
201907100716,7849,7850.7,7849,7849.4
201907100717,7849.4,7849.5,7848.9,7849
201907100718,7849.2,7850.1,7849.1,7850.1
201907100719,7850.1,7850.5,7849.9,7850.3
201907100720,7850.4,7851,7850.4,7850.4
201907100721,7850.4,7850.4,7848.6,7848.6
201907100722,7848.6,7848.6,7847.9,7847.9
201907100723,7847.9,7848.6,7847.9,7848.2
201907100724,7848.2,7848.5,7848.2,7848.5
201907100725,7848.5,7848.9,7848.3,7848.7
201907100726,7848.8,7849.2,7848.7,7849.2
201907100727,7849.2,7849.7,7849.2,7849.6
201907100728,7849.6,7849.6,7848.7,7848.8
201907100729,7848.8,7848.8,7848.4,7848.5
201907100730,7848.4,7848.6,7848.4,7848.6
201907100731,7848.6,7849.2,7848.6,7848.9
201907100732,7848.9,7848.9,7848.4,7848.6
201907100733,7848.6,7848.8,7848.4,7848.7
201907100734,7848.7,7848.8,7848.4,7848.4
201907100735,7848.3,7848.3,7847.9,7848
201907100736,7848,7848,7847.5,7847.7
201907100737,7847.8,7848.2,7847.7,7848
201907100738,7848,7848,7846.7,7846.9
201907100739,7846.9,7847.2,7846.7,7847.2
201907100740,7847.2,7847.6,7847.2,7847.4
201907100741,7847.4,7847.4,7846.8,7846.9
201907100742,7846.8,7847,7845.4,7846.9
201907100743,7846.9,7847.4,7846.7,7847.4
201907100744,7847.4,7847.6,7846.5,7846.5
201907100745,7846.5,7846.5,7846,7846.1
201907100746,7846.1,7846.1,7845,7845.3
201907100747,7845.3,7845.4,7845.1,7845.3
201907100748,7845.4,7845.8,7845,7845.4
201907100749,7845.4,7846.4,7845.4,7846.4
201907100750,7846.4,7846.4,7846.1,7846.1
201907100751,7846.1,7846.1,7845.7,7845.9
201907100752,7845.9,7846.5,7845.2,7846.3
201907100753,7846.3,7847.3,7846.3,7847.3
201907100754,7847.3,7848.4,7847.1,7847.2
201907100755,7847.2,7847.7,7847.2,7847.2
201907100756,7847.2,7847.4,7847.2,7847.3
201907100757,7847.2,7847.4,7847.1,7847.1
201907100758,7847.1,7847.3,7846.7,7846.8
201907100759,7846.8,7846.9,7846.7,7846.9
201907100800,7846.9,7847.1,7846.9,7847.1
201907100801,7847.1,7847.2,7847.1,7847.2
201907100802,7847.2,7847.2,7845.9,7846.1
201907100803,7846.1,7846.4,7845.8,7845.8
201907100804,7845.8,7846.1,7845.4,7845.9
201907100805,7846,7846.1,7845,7845
201907100806,7845,7845,7844.4,7844.5
201907100807,7844.5,7844.7,7844.5,7844.7
201907100808,7844.7,7845.1,7844.4,7845
201907100809,7845.1,7845.1,7844.9,7845.1
201907100810,7845.1,7845.1,7844.4,7844.5
201907100811,7844.6,7845,7844.6,7845
201907100812,7845,7845.1,7844.9,7845
201907100813,7845,7845.2,7845,7845
201907100814,7845,7845.9,7845,7845.7
201907100815,7845.7,7845.8,7844.6,7844.6
201907100816,7844.6,7844.6,7844.4,7844.5
201907100817,7844.5,7844.6,7844.2,7844.5
201907100818,7844.6,7845.3,7844.6,7845.2
201907100819,7845.2,7846,7845.2,7845.5
201907100820,7845.5,7845.7,7845.4,7845.7
201907100821,7845.8,7845.8,7844.9,7844.9
201907100822,7844.9,7844.9,7844.4,7844.7
201907100823,7844.6,7844.8,7844.6,7844.6
201907100824,7844.6,7844.7,7844.4,7844.5
201907100825,7844.5,7844.6,7844.1,7844.3
201907100826,7844.3,7844.3,7844,7844
201907100827,7844,7844.4,7844,7844.4
201907100828,7844.4,7845.3,7844.4,7845.1
201907100829,7845.1,7845.5,7845,7845.3
201907100830,7845.3,7845.7,7845.3,7845.5
201907100831,7845.5,7845.8,7844.9,7845.2
201907100832,7845.2,7845.6,7845.2,7845.6
201907100833,7845.6,7846.5,7845.5,7846.5
201907100834,7846.6,7847.6,7846.6,7846.8
201907100835,7846.9,7847,7846.7,7846.7
201907100836,7846.7,7846.7,7844.9,7844.9
201907100837,7844.9,7845.3,7844.9,7845.1
201907100838,7845.1,7846.2,7845,7846
201907100839,7846,7846.7,7846,7846.4
201907100840,7846.5,7846.6,7846,7846.1
201907100841,7846.1,7846.4,7846.1,7846.3
201907100842,7846.3,7846.5,7846.2,7846.3
201907100843,7846.3,7846.3,7845.5,7845.5
201907100844,7845.5,7845.9,7845.5,7845.9
201907100845,7845.8,7845.8,7844.1,7844.2
201907100846,7844.2,7844.2,7841.9,7842.6
201907100847,7842.6,7843.4,7842,7842
201907100848,7842,7842.1,7840.7,7841.3
201907100849,7841.3,7842.8,7841,7842.8
201907100850,7842.8,7842.9,7841.8,7842.9
201907100851,7842.9,7843.2,7842.2,7842.2
201907100852,7842.2,7842.4,7842,7842
201907100853,7842.1,7843.2,7841.8,7843.2
201907100854,7843.2,7844.3,7842.7,7844.2
201907100855,7844.4,7844.5,7843.9,7844.2
201907100856,7844.2,7844.9,7843.9,7844.8
201907100857,7844.8,7847.1,7844.8,7847.1
201907100858,7847.1,7847.8,7846.1,7846.3
201907100859,7846.3,7846.6,7845.7,7846.6
201907100900,7846.5,7846.8,7844.6,7846.3
201907100901,7846.3,7853.3,7845.8,7851.1
201907100902,7851.1,7854.2,7850.9,7852.5
201907100903,7852.5,7853.3,7852,7852.1
201907100904,7852.1,7855.5,7851.9,7854.9
201907100905,7854.9,7855.9,7854.3,7855.7
201907100906,7855.7,7856.8,7855.4,7856.1
201907100907,7856.1,7857.3,7854.4,7854.4
201907100908,7854.4,7855.4,7854.4,7854.9
201907100909,7854.8,7856.4,7854.8,7855.4
201907100910,7855.4,7856,7854.4,7855.4
201907100911,7855.4,7855.7,7853.9,7854.3
201907100912,7854.3,7854.8,7853.4,7853.6
201907100913,7853.6,7854.7,7853.5,7854.4
201907100914,7854.4,7856,7854.3,7856
201907100915,7856,7856.5,7854.1,7854.2
201907100916,7854.2,7855.4,7854.2,7855.4
201907100917,7855.4,7855.4,7853.9,7853.9
201907100918,7853.8,7855.3,7853.8,7855.1
201907100919,7855,7855.7,7854.9,7854.9
201907100920,7854.9,7855.6,7854.6,7855.1
201907100921,7855.2,7857.2,7855.2,7857.1
201907100922,7857.1,7860.2,7857.1,7859.8
201907100923,7859.8,7859.8,7858.4,7858.4
201907100924,7858.4,7859.2,7858.2,7858.8
201907100925,7858.6,7858.9,7858.1,7858.4
201907100926,7858.6,7860,7858.4,7859.9
201907100927,7859.9,7862.2,7859.9,7860.1
201907100928,7860.1,7860.4,7859.9,7859.9
201907100929,7859.9,7860.3,7858.1,7858.2
201907100930,7858.2,7860.4,7858.2,7858.7
201907100931,7858.7,7858.7,7857.6,7857.9
201907100932,7857.9,7858.8,7857,7857.5
201907100933,7857.5,7857.8,7857,7857.1
201907100934,7857.2,7857.7,7857.1,7857.3
201907100935,7857.3,7858.5,7857.3,7858.1
201907100936,7858.1,7858.3,7857.6,7858.2
201907100937,7858.2,7859,7858.1,7858.9
201907100938,7858.9,7859.5,7858,7858.9
201907100939,7858.9,7859.9,7858.7,7859.7
201907100940,7859.7,7859.8,7858.8,7858.8
201907100941,7858.8,7859.1,7858.6,7858.8
201907100942,7858.8,7858.9,7857.1,7857.5
201907100943,7857.5,7858.8,7857.5,7858.3
201907100944,7858.3,7858.6,7857.8,7857.9
201907100945,7857.8,7858.6,7857.4,7858.2
201907100946,7858.2,7859.3,7858.2,7859.1
201907100947,7859.2,7862.4,7859.2,7862.2
201907100948,7862.2,7862.3,7861.3,7862.1
201907100949,7862.1,7862.2,7861.5,7861.6
201907100950,7861.7,7862.5,7861.6,7861.9
201907100951,7861.9,7862.4,7861.3,7862.1
201907100952,7862.1,7863.8,7862,7862.7
201907100953,7862.7,7866.1,7862.7,7864.6
201907100954,7864.6,7868,7864.6,7866.9
201907100955,7866.9,7867,7865.9,7866.2
201907100956,7866.2,7866.4,7865.9,7865.9
201907100957,7865.9,7867.4,7865.8,7866.2
201907100958,7866.2,7866.3,7865.2,7865.4
201907100959,7865.4,7865.6,7865,7865.3
201907101000,7865.3,7866.2,7864.9,7864.9
201907101001,7864.9,7866.1,7864.6,7865
201907101002,7865,7865,7863.9,7864.5
201907101003,7864.5,7864.9,7864.4,7864.4
201907101004,7864.4,7865.9,7864.4,7865.9
201907101005,7865.9,7867.5,7865.4,7865.7
201907101006,7865.7,7866.4,7865.7,7866
201907101007,7866.1,7867.3,7864.3,7864.7
201907101008,7864.7,7865.4,7864.7,7865.4
201907101009,7865.4,7866.1,7865,7865.1
201907101010,7865.1,7866.3,7865,7866.2
201907101011,7866.2,7866.5,7864.9,7865
201907101012,7865.1,7865.2,7863.6,7863.7
201907101013,7863.5,7864.4,7863.4,7863.5
201907101014,7863.5,7864.3,7863.1,7864
201907101015,7864,7866.4,7864,7865.7
201907101016,7865.7,7865.9,7864.1,7864.2
201907101017,7864.2,7866.4,7864.2,7866
201907101018,7866.1,7866.3,7865.2,7866.3
201907101019,7866.4,7866.7,7864.6,7864.6
201907101020,7864.6,7865.3,7864.4,7864.4
201907101021,7864.4,7864.8,7863.9,7864
201907101022,7864,7864.5,7863.3,7863.3
201907101023,7863.2,7863.5,7862.6,7862.8
201907101024,7862.8,7862.8,7860.9,7861.1
201907101025,7861.1,7862.3,7861,7862.3
201907101026,7862.3,7863,7862,7862.2
201907101027,7862.2,7862.7,7862.1,7862.1
201907101028,7862.1,7863.2,7862.1,7862.9
201907101029,7863,7864,7862.7,7863.5
201907101030,7863.5,7863.6,7862.1,7863.2
201907101031,7863.2,7863.9,7861.7,7861.8
201907101032,7861.9,7862.8,7861.7,7862.8
201907101033,7862.8,7862.8,7860.4,7861.9
201907101034,7861.9,7861.9,7860.3,7860.6
201907101035,7860.6,7860.9,7860.3,7860.3
201907101036,7860.1,7860.5,7859.9,7860.5
201907101037,7860.6,7861,7860,7860.3
201907101038,7860.3,7860.6,7859.9,7860.2
201907101039,7860.2,7860.4,7859.7,7859.7
201907101040,7859.7,7861.3,7859.1,7860.8
201907101041,7860.7,7861.4,7860.7,7861.2
201907101042,7861.1,7861.5,7860.6,7861
201907101043,7861,7861.9,7860.9,7861.1
201907101044,7861.1,7861.6,7860.4,7860.4
201907101045,7860.4,7860.4,7859,7860.1
201907101046,7860.1,7860.4,7859.6,7860.3
201907101047,7860.3,7860.3,7858.6,7859.2
201907101048,7859.3,7860.8,7859.1,7859.9
201907101049,7859.9,7860.8,7858.8,7858.8
201907101050,7858.8,7859.1,7857.6,7857.7
201907101051,7857.8,7858.4,7857.1,7857.1
201907101052,7857.1,7857.3,7856.4,7856.8
201907101053,7856.9,7856.9,7855.6,7855.6
201907101054,7855.6,7856.3,7853.9,7853.9
201907101055,7853.8,7854.4,7853.6,7854.2
201907101056,7854.2,7855,7853.7,7853.9
201907101057,7853.8,7853.9,7853.2,7853.6
201907101058,7853.6,7854.8,7853.4,7853.8
201907101059,7853.9,7854.8,7853.6,7854
201907101100,7854,7854.4,7853.6,7853.6
201907101101,7853.6,7853.6,7851.6,7852.2
201907101102,7852.2,7853.3,7851.9,7851.9
201907101103,7851.9,7853.1,7851.5,7853
201907101104,7853,7854.2,7852.7,7853.7
201907101105,7853.7,7854.9,7853.7,7854.9
201907101106,7854.8,7854.8,7854.1,7854.4
201907101107,7854.4,7856.1,7854.4,7856.1
201907101108,7856.1,7857,7855.6,7856.5
201907101109,7856.5,7856.5,7855.2,7855.4
201907101110,7855.4,7855.8,7854.6,7855.2
201907101111,7855.1,7856.1,7855.1,7856.1
201907101112,7856.1,7856.1,7855.3,7855.4
201907101113,7855.4,7855.6,7853.9,7854.1
201907101114,7854.1,7854.1,7852.6,7852.7
201907101115,7852.5,7852.8,7852.1,7852.1
201907101116,7852.1,7852.1,7850.3,7850.8
201907101117,7850.8,7850.8,7848.9,7849.4
201907101118,7849.4,7851.3,7848.4,7851.2
201907101119,7851.1,7851.1,7850.1,7850.4
201907101120,7850.4,7851.9,7850.1,7851.8
201907101121,7851.9,7852,7849.9,7850.1
201907101122,7850.1,7851.3,7849.9,7851.1
201907101123,7851.2,7852.3,7851,7852
201907101124,7851.9,7852,7851.3,7851.3
201907101125,7851.4,7852.1,7851.2,7851.5
201907101126,7851.5,7852.3,7851.5,7851.9
201907101127,7851.9,7852.8,7851.9,7852.6
201907101128,7852.5,7853.6,7852.4,7852.8
201907101129,7852.9,7853.3,7852.8,7853.3
201907101130,7853.3,7853.3,7852.2,7853.1
201907101131,7853.1,7854,7852.9,7853.8
201907101132,7853.8,7854.5,7853.8,7854.4
201907101133,7854.4,7854.5,7853.4,7853.6
201907101134,7853.6,7854.3,7853.2,7854.2
201907101135,7854.1,7854.9,7853.8,7854.7
201907101136,7854.7,7854.9,7852.9,7852.9
201907101137,7852.9,7853.2,7851.3,7851.3
201907101138,7851.3,7853.8,7851,7851.3
201907101139,7851.3,7852.1,7850.6,7851.9
201907101140,7851.8,7852.8,7851.5,7852.4
201907101141,7852.4,7853.7,7852.4,7853.4
201907101142,7853.4,7854.3,7853.2,7854.3
201907101143,7854.3,7855.3,7854.3,7855.3
201907101144,7855.3,7855.5,7854.5,7854.9
201907101145,7854.9,7855.6,7854.8,7855.5
201907101146,7855.6,7856.5,7855.6,7856
201907101147,7856,7856.6,7855.5,7856.3
201907101148,7856.4,7856.7,7855.1,7855.1
201907101149,7855.1,7855.9,7854.7,7855.7
201907101150,7855.7,7856.8,7855.7,7856.4
201907101151,7856.4,7856.5,7855.6,7855.9
201907101152,7855.9,7856.1,7854.7,7854.7
201907101153,7854.7,7855.1,7854,7854.7
201907101154,7854.7,7855.6,7854.4,7854.7
201907101155,7854.7,7855.7,7854.7,7855.4
201907101156,7855.4,7855.5,7854.3,7854.3
201907101157,7854.3,7854.6,7853.6,7853.6
201907101158,7853.7,7854.1,7853.1,7854.1
201907101159,7854,7855.2,7854,7854.6
201907101200,7854.6,7854.8,7853.5,7853.5
201907101201,7853.5,7853.7,7852.4,7852.4
201907101202,7852.5,7854.1,7852.5,7854.1
201907101203,7854.1,7854.1,7852.9,7853.6
201907101204,7853.6,7854.4,7852.7,7852.9
201907101205,7852.8,7853.8,7852.8,7853.7
201907101206,7853.7,7854,7853.6,7854
201907101207,7854.1,7854.5,7853.2,7853.2
201907101208,7853.2,7854.1,7853.2,7854
201907101209,7854,7854.1,7853.3,7854
201907101210,7854,7854.6,7854,7854.1
201907101211,7854,7854.7,7853.8,7854
201907101212,7854,7854.6,7854,7854.2
201907101213,7854.2,7854.6,7854.1,7854.4
201907101214,7854.4,7854.8,7853.3,7853.6
201907101215,7853.6,7853.8,7852.1,7852.3
201907101216,7852.4,7853.1,7852.4,7853.1
201907101217,7853,7853.3,7852.7,7853.3
201907101218,7853.3,7854,7853.3,7853.7
201907101219,7853.7,7854.3,7853.5,7854.3
201907101220,7854.3,7854.4,7853.5,7853.8
201907101221,7853.9,7853.9,7853.1,7853.8
201907101222,7853.8,7853.8,7852.9,7853.2
201907101223,7853.2,7853.2,7852,7852.3
201907101224,7852.3,7852.5,7851.9,7851.9
201907101225,7851.9,7852.6,7851.7,7852.5
201907101226,7852.6,7852.6,7851.7,7851.9
201907101227,7851.9,7852.3,7851.9,7852.3
201907101228,7852.3,7853,7852.1,7853
201907101229,7853.1,7853.7,7853.1,7853.5
201907101230,7853.6,7853.6,7852.1,7853
201907101231,7853,7854.3,7853,7853.9
201907101232,7853.9,7854.3,7853.8,7854.1
201907101233,7854.1,7854.5,7854.1,7854.2
201907101234,7854.2,7854.7,7854.1,7854.7
201907101235,7854.7,7855.6,7854.6,7855.6
201907101236,7855.6,7855.6,7854.7,7854.8
201907101237,7854.8,7854.9,7854,7854
201907101238,7853.9,7854,7852.9,7853
201907101239,7853.1,7853.4,7852.5,7852.9
201907101240,7852.9,7853.5,7852.9,7853.2
201907101241,7853.2,7853.4,7852.9,7852.9
201907101242,7852.9,7853.1,7852.3,7852.4
201907101243,7852.4,7852.5,7851.5,7851.5
201907101244,7851.5,7851.6,7850.9,7851
201907101245,7851,7851,7850,7850.5
201907101246,7850.7,7851,7850.4,7850.4
201907101247,7850.4,7850.4,7849.4,7850
201907101248,7849.9,7850.4,7849.7,7850.3
201907101249,7850.3,7850.9,7849.7,7849.9
201907101250,7849.8,7850.1,7849.6,7849.7
201907101251,7849.7,7850,7849.6,7850
201907101252,7850,7850.5,7849.9,7850.4
201907101253,7850.4,7850.8,7850.4,7850.7
201907101254,7850.6,7850.9,7850.6,7850.8
201907101255,7850.9,7851.3,7850.6,7850.6
201907101256,7850.6,7850.8,7850.4,7850.6
201907101257,7850.6,7850.7,7849.4,7850
201907101258,7850,7850.1,7849.8,7850
201907101259,7850,7850.1,7849.8,7849.9
201907101300,7849.9,7850.3,7849.4,7849.4
201907101301,7849.4,7849.8,7849.4,7849.6
201907101302,7849.6,7849.9,7849.6,7849.8
201907101303,7849.8,7849.8,7849.6,7849.7
201907101304,7849.7,7849.8,7849,7849.2
201907101305,7849.2,7849.8,7849.2,7849.7
201907101306,7849.8,7849.8,7849,7849
201907101307,7849,7849.1,7848.9,7849
201907101308,7849,7849.3,7849,7849.1
201907101309,7849.1,7849.1,7847.7,7848
201907101310,7848.1,7848.6,7847.5,7848.1
201907101311,7848,7848.1,7847.7,7847.9
201907101312,7847.9,7848.4,7847.7,7848
201907101313,7848,7848.6,7848,7848.5
201907101314,7848.5,7848.9,7848.3,7848.3
201907101315,7848.3,7848.4,7848.1,7848.2
201907101316,7848.2,7848.4,7847.6,7847.6
201907101317,7847.6,7848.3,7847.5,7848.3
201907101318,7848.4,7848.9,7848.3,7848.4
201907101319,7848.4,7848.6,7848.3,7848.4
201907101320,7848.3,7848.7,7848.3,7848.7
201907101321,7848.7,7849.1,7848.7,7849.1
201907101322,7849.1,7849.6,7849.1,7849.1
201907101323,7849.1,7849.5,7849,7849.3
201907101324,7849.3,7849.7,7849.3,7849.4
201907101325,7849.4,7849.5,7849.4,7849.4
201907101326,7849.5,7849.5,7848.9,7848.9
201907101327,7848.8,7849.1,7848.7,7849.1
201907101328,7849.1,7849.7,7849.1,7849.7
201907101329,7849.7,7849.8,7849.4,7849.4
201907101330,7849.3,7849.5,7849.2,7849.3
201907101331,7849.3,7849.7,7848,7848.2
201907101332,7848.2,7848.3,7846.4,7846.8
201907101333,7846.8,7847.1,7846.5,7846.7
201907101334,7846.7,7848.9,7846.6,7848.8
201907101335,7848.9,7849.3,7848.7,7849.2
201907101336,7849.1,7849.1,7848.8,7848.9
201907101337,7849,7849.3,7849,7849.2
201907101338,7849.1,7849.3,7848.9,7848.9
201907101339,7848.9,7849.3,7848.9,7849.2
201907101340,7849.2,7849.5,7848.9,7849
201907101341,7849,7849.3,7848.9,7849.3
201907101342,7849.3,7849.3,7848.9,7849.1
201907101343,7849.1,7849.1,7848.8,7849
201907101344,7849,7849.1,7848.8,7848.9
201907101345,7848.9,7849.3,7848.4,7849.3
201907101346,7849.4,7849.4,7848.8,7849.2
201907101347,7849.3,7849.4,7848.6,7848.6
201907101348,7848.6,7849.2,7848.6,7849.2
201907101349,7849.2,7849.2,7848.5,7848.5
201907101350,7848.5,7848.5,7847.9,7848.1
201907101351,7848.1,7848.1,7847.4,7847.6
201907101352,7847.6,7847.7,7847.1,7847.2
201907101353,7847.2,7847.3,7846.7,7847
201907101354,7847,7847.1,7846.6,7846.9
201907101355,7847.1,7847.1,7845.6,7846
201907101356,7846,7846.6,7843.7,7843.7
201907101357,7843.7,7844,7843.7,7843.9
201907101358,7843.9,7844.4,7843.7,7844.2
201907101359,7844.2,7844.5,7843.6,7844.3
201907101400,7844.3,7845.6,7844.3,7845
201907101401,7845.1,7845.7,7845.1,7845.1
201907101402,7845.1,7845.9,7845.1,7845.6
201907101403,7845.6,7846,7845.3,7845.4
201907101404,7845.5,7846.1,7845.1,7845.7
201907101405,7845.7,7845.7,7844.4,7844.4
201907101406,7844.4,7844.5,7842.2,7842.6
201907101407,7842.6,7843.6,7842.3,7843.3
201907101408,7843.3,7843.7,7842.9,7843.7
201907101409,7843.7,7846,7843.7,7845.9
201907101410,7845.9,7846.3,7845.5,7846.3
201907101411,7846.3,7847,7846.1,7846.4
201907101412,7846.4,7846.8,7846.3,7846.4
201907101413,7846.3,7847.3,7846.3,7847.3
201907101414,7847.3,7847.5,7846.6,7846.9
201907101415,7846.9,7847.7,7846.9,7847.4
201907101416,7847.4,7847.4,7846.6,7847
201907101417,7846.9,7847.8,7846.9,7847.8
201907101418,7847.8,7848.5,7847.7,7848.5
201907101419,7848.5,7849.3,7848.3,7848.6
201907101420,7848.6,7849.3,7848.4,7848.9
201907101421,7848.9,7850.4,7848.9,7849.9
201907101422,7849.9,7850,7848.6,7848.8
201907101423,7848.8,7849.3,7847.9,7847.9
201907101424,7847.9,7849.1,7847.9,7848.7
201907101425,7848.7,7849.1,7847.2,7847.3
201907101426,7847.2,7847.9,7847.2,7847.9
201907101427,7847.8,7848.2,7847.4,7848.1
201907101428,7848.1,7848.6,7848.1,7848.5
201907101429,7848.5,7849.1,7847.9,7847.9
201907101430,7847.9,7848.7,7847.1,7848.6
201907101431,7848.7,7848.9,7847.3,7847.5
201907101432,7847.5,7847.8,7847.5,7847.6
201907101433,7847.6,7848.3,7847.6,7848.1
201907101434,7848.1,7848.4,7847.6,7848
201907101435,7848,7848,7847.2,7847.2
201907101436,7847.2,7847.2,7846.6,7846.7
201907101437,7846.7,7847.3,7846.3,7847.2
201907101438,7847.2,7847.4,7847,7847.1
201907101439,7847.2,7847.3,7846.8,7847
201907101440,7847.1,7847.1,7845.9,7847.1
201907101441,7847.1,7847.1,7846.4,7846.4
201907101442,7846.3,7846.6,7845.6,7845.9
201907101443,7845.9,7846,7845.3,7845.5
201907101444,7845.4,7846.3,7845.3,7845.6
201907101445,7845.6,7845.9,7844.5,7845.6
201907101446,7845.6,7845.6,7844.7,7844.9
201907101447,7844.8,7846.4,7844.8,7846.1
201907101448,7846.1,7846.3,7845.1,7845.3
201907101449,7845.3,7846.3,7845,7846.2
201907101450,7846.2,7846.2,7843.4,7843.4
201907101451,7843.4,7843.8,7843,7843.8
201907101452,7843.9,7844,7842.1,7842.1
201907101453,7842.1,7843.4,7841.8,7842.7
201907101454,7842.7,7843.9,7842.7,7843.6
201907101455,7843.7,7844.5,7843.4,7844.4
201907101456,7844.4,7844.6,7843.8,7844.6
201907101457,7844.7,7845.3,7844.4,7844.6
201907101458,7844.6,7844.8,7843.6,7843.6
201907101459,7843.6,7844.8,7843.5,7843.8
201907101500,7843.8,7843.8,7840.6,7840.7
201907101501,7840.7,7840.9,7838.9,7838.9
201907101502,7838.9,7838.9,7837.6,7837.8
201907101503,7837.8,7839.3,7837.8,7838.3
201907101504,7838,7838.7,7837.4,7838.6
201907101505,7838.6,7839.2,7837.7,7839.2
201907101506,7839.2,7839.2,7836,7836.1
201907101507,7836.1,7836.4,7835,7835.1
201907101508,7835.1,7836.4,7835.1,7836.4
201907101509,7836.4,7837.4,7835.9,7836.9
201907101510,7836.8,7836.9,7835.9,7836.1
201907101511,7836.1,7837.2,7836,7836.2
201907101512,7836.3,7836.3,7835.1,7835.4
201907101513,7835.4,7835.7,7833.7,7833.9
201907101514,7833.9,7834.8,7833.4,7833.4
201907101515,7833.3,7834.7,7832.7,7834.6
201907101516,7834.6,7835.7,7834.2,7834.4
201907101517,7834.4,7835.2,7832.7,7832.8
201907101518,7832.9,7832.9,7831.9,7832.3
201907101519,7832.3,7832.6,7831.7,7831.7
201907101520,7831.7,7831.7,7830.5,7831.6
201907101521,7831.8,7832,7830.6,7830.8
201907101522,7830.8,7831.1,7830.1,7830.5
201907101523,7830.5,7831,7830.4,7830.5
201907101524,7830.5,7831.1,7830.5,7831
201907101525,7831,7831.1,7830.9,7831.1
201907101526,7831.1,7831.2,7830.4,7830.8
201907101527,7830.8,7831,7828.4,7828.4
201907101528,7828.4,7830.5,7828.4,7829.7
201907101529,7829.6,7830.7,7829.4,7830.6
201907101530,7830.6,7831,7830.3,7830.7
201907101531,7830.7,7830.7,7828.2,7828.5
201907101532,7828.5,7829.2,7826.1,7826.3
201907101533,7826.3,7827,7826,7826.9
201907101534,7826.8,7827.2,7826.1,7826.1
201907101535,7826.1,7826.1,7824,7824
201907101536,7824,7825.8,7824,7825.7
201907101537,7825.7,7825.7,7823.9,7824.2
201907101538,7824.2,7825.2,7824,7824.4
201907101539,7824.4,7825.9,7824.4,7825.4
201907101540,7825.4,7826.2,7824.9,7825.3
201907101541,7825.3,7826.7,7825,7825.9
201907101542,7825.8,7826.5,7825.4,7826.2
201907101543,7826.3,7826.3,7822.3,7822.5
201907101544,7822.6,7822.9,7821.4,7822.5
201907101545,7822.5,7823.6,7822.4,7823.4
201907101546,7823.4,7826.4,7823.4,7826.4
201907101547,7826.4,7826.5,7824.3,7825.4
201907101548,7825.4,7825.6,7824.6,7825.5
201907101549,7825.5,7826.3,7825.3,7825.9
201907101550,7825.9,7826.9,7825.6,7826.8
201907101551,7826.8,7827.8,7826.6,7827.5
201907101552,7827.6,7828.8,7827.3,7828.8
201907101553,7828.8,7828.8,7827.9,7828.4
201907101554,7828.4,7829.5,7828,7828.8
201907101555,7828.8,7830.6,7828.8,7830.4
201907101556,7830.4,7831.4,7830.1,7831.1
201907101557,7831.1,7831.5,7828.8,7829.6
201907101558,7829.6,7829.6,7826.5,7826.5
201907101559,7826.5,7827.2,7825.9,7826.1
201907101600,7826.1,7826.1,7820.5,7823.6
201907101601,7823.3,7824.1,7820.8,7824.1
201907101602,7824,7825.3,7823,7823.8
201907101603,7823.8,7823.8,7820,7820
201907101604,7820.1,7823.3,7820,7822.8
201907101605,7822.8,7823.3,7820.5,7822.4
201907101606,7822.4,7824.5,7822.4,7823.4
201907101607,7823.4,7824,7822.6,7823.9
201907101608,7823.9,7824.1,7821.9,7821.9
201907101609,7821.8,7822.3,7820.5,7822
201907101610,7822,7824.1,7821.5,7823.6
201907101611,7823.6,7823.8,7822.4,7822.8
201907101612,7822.8,7823.9,7822.5,7823.9
201907101613,7823.9,7826.6,7823.8,7825.4
201907101614,7825.4,7825.8,7823.5,7823.8
201907101615,7823.8,7824.3,7823.1,7824.1
201907101616,7824.1,7826.4,7824.1,7825.4
201907101617,7825.4,7826.3,7824.9,7825
201907101618,7825,7825.8,7824.1,7824.7
201907101619,7824.7,7825.1,7824.2,7824.5
201907101620,7824.7,7825.6,7823.1,7825.4
201907101621,7825.4,7827.6,7825.4,7826.9
201907101622,7826.9,7828.4,7826.4,7826.6
201907101623,7826.5,7826.5,7824.9,7825.1
201907101624,7825.1,7826.1,7824.9,7825.6
201907101625,7825.6,7825.6,7823.9,7825
201907101626,7825.1,7826.1,7824.2,7824.8
201907101627,7824.8,7825.3,7822.9,7823.1
201907101628,7823.1,7825.1,7822.9,7824.8
201907101629,7824.8,7825.1,7823.2,7823.4
201907101630,7823.3,7824,7822,7822.5
201907101631,7822.6,7826.8,7822.6,7825.4
201907101632,7825.6,7826.5,7825.3,7826
201907101633,7826,7828.8,7825.9,7828.7
201907101634,7828.7,7829.5,7828,7828.6
201907101635,7829.3,7829.8,7827.5,7829.3
201907101636,7829.3,7830.3,7829.3,7830.2
201907101637,7830.2,7830.2,7828.4,7829.2
201907101638,7829.3,7831.4,7828.9,7830.8
201907101639,7830.8,7832.8,7830.3,7832.3
201907101640,7832.3,7833.5,7831.9,7832.3
201907101641,7832.3,7833.1,7831.4,7832.8
201907101642,7832.8,7832.8,7831.4,7831.5
201907101643,7831.5,7833.2,7831.4,7832.2
201907101644,7832.2,7832.6,7831.7,7832.3
201907101645,7832.3,7832.3,7830.6,7830.6
201907101646,7830.5,7830.6,7828.9,7828.9
201907101647,7828.8,7831.4,7828.1,7831.4
201907101648,7831.4,7831.4,7829.9,7831
201907101649,7831,7831.9,7830.6,7831.4
201907101650,7831.4,7833.1,7831.4,7831.9
201907101651,7831.9,7832.1,7830.4,7830.4
201907101652,7830.4,7830.4,7829.7,7829.8
201907101653,7829.8,7830.7,7829.6,7830.4
201907101654,7830.4,7830.4,7829.7,7829.7
201907101655,7829.7,7831.9,7829.2,7831.6
201907101656,7831.6,7832.2,7830.6,7830.6
201907101657,7830.6,7831.6,7829.9,7831
201907101658,7831,7831.6,7830.3,7830.7
201907101659,7830.8,7831.6,7830.8,7831.3
201907101700,7831.3,7835.8,7831.3,7835.8
201907101701,7835.9,7838.5,7835.1,7838.4
201907101702,7838.5,7838.5,7837.2,7837.8
201907101703,7837.8,7839.8,7837.8,7838.4
201907101704,7838.3,7838.5,7836.1,7837.1
201907101705,7837.1,7837.5,7836.6,7837.5
201907101706,7837.5,7838.6,7837.3,7838.4
201907101707,7838.3,7838.8,7836.5,7837.4
201907101708,7837.4,7839.5,7837.1,7838.8
201907101709,7838.8,7839.7,7838.2,7838.3
201907101710,7838.3,7838.4,7837.5,7838.1
201907101711,7838.1,7838.1,7835.9,7836.3
201907101712,7836.3,7837.2,7835.7,7836.4
201907101713,7836.4,7837.1,7836,7836.4
201907101714,7836.3,7837.3,7835.9,7837.1
201907101715,7837.1,7837.5,7836.1,7836.9
201907101716,7836.9,7837.2,7835.6,7836.1
201907101717,7836.1,7837.5,7836.1,7836.9
201907101718,7836.7,7837.6,7836.5,7837.5
201907101719,7837.5,7837.9,7836.5,7836.5
201907101720,7836.5,7837.2,7836.3,7836.6
201907101721,7836.6,7838.1,7836.5,7838.1
201907101722,7838.1,7838.1,7835.1,7835.1
201907101723,7835.1,7836,7834.4,7834.7
201907101724,7834.7,7834.8,7833.7,7834.1
201907101725,7834.1,7835.9,7833.4,7835.4
201907101726,7835.3,7835.3,7834,7834.6
201907101727,7834.6,7834.6,7833.4,7834
201907101728,7834.1,7835.8,7834.1,7835.7
201907101729,7835.7,7835.9,7834.5,7835.4
201907101730,7835.4,7836,7835,7835.3
201907101731,7835.3,7836.2,7834.3,7834.3
201907101732,7834.3,7834.3,7832.4,7833
201907101733,7833,7833.3,7832.4,7832.5
201907101734,7832.6,7833.6,7830.4,7830.4
201907101735,7830.4,7831.8,7829.4,7829.5
201907101736,7829.5,7830.4,7828.7,7829.9
201907101737,7829.9,7830.9,7829.4,7829.6
201907101738,7829.7,7830,7828,7828
201907101739,7828,7828,7826.6,7827.6
201907101740,7827.6,7828.7,7826.8,7827.7
201907101741,7827.7,7828.3,7827.4,7828.2
201907101742,7828.2,7828.8,7827.4,7827.5
201907101743,7827.5,7827.7,7826.8,7827.7
201907101744,7827.7,7828.3,7827.1,7827.1
201907101745,7827.1,7828.4,7826.9,7828.4
201907101746,7828.3,7830.3,7827.8,7829.8
201907101747,7829.8,7829.8,7828.4,7828.8
201907101748,7828.8,7830.1,7828.5,7830.1
201907101749,7830,7830.3,7829.6,7830.1
201907101750,7830.1,7830.1,7828.4,7829
201907101751,7829.1,7830.8,7828.6,7830.8
201907101752,7830.8,7832.1,7830.6,7831.3
201907101753,7831.3,7831.8,7830.3,7830.7
201907101754,7830.7,7832.2,7830.4,7831.9
201907101755,7831.5,7833.5,7830.8,7833.4
201907101756,7833.4,7834.5,7832.4,7834.3
201907101757,7834.3,7836.1,7834.3,7835.9
201907101758,7835.9,7835.9,7833.7,7834.4
201907101759,7834.4,7834.5,7833.1,7833.1
201907101800,7833.1,7834,7832.7,7832.8
201907101801,7832.9,7834.5,7832.6,7832.6
201907101802,7832.6,7832.8,7831.1,7831.4
201907101803,7831.4,7831.4,7829.4,7829.8
201907101804,7829.5,7829.8,7828.2,7829.1
201907101805,7829.1,7829.7,7828,7829.6
201907101806,7829.6,7831.2,7828.5,7829.7
201907101807,7829.7,7829.7,7828.7,7828.9
201907101808,7828.9,7828.9,7827.9,7828.9
201907101809,7828.9,7829.1,7828.1,7828.6
201907101810,7828.6,7830.1,7828,7829.5
201907101811,7829.5,7829.5,7828.5,7829.2
201907101812,7829.2,7829.3,7828.9,7829.2
201907101813,7829.2,7830.2,7828.9,7829.9
201907101814,7829.9,7831,7829.9,7831
201907101815,7831.1,7831.1,7828.5,7829.1
201907101816,7829.1,7831.5,7829,7831.3
201907101817,7831.3,7831.8,7830.3,7831.8
201907101818,7831.8,7836.6,7831.8,7836.4
201907101819,7836.4,7839.3,7836.2,7838.8
201907101820,7838.9,7839.5,7836.3,7836.9
201907101821,7836.9,7838.1,7836.7,7838
201907101822,7838,7838,7837.1,7837.3
201907101823,7837.4,7837.4,7836.1,7836.8
201907101824,7836.8,7836.9,7836,7836.3
201907101825,7836.4,7836.4,7834.4,7834.8
201907101826,7834.8,7835.9,7834.7,7835.9
201907101827,7835.9,7836.8,7835.5,7836.5
201907101828,7836.5,7837.4,7836.4,7836.4
201907101829,7836.4,7836.8,7835.2,7835.6
201907101830,7835.6,7837.1,7835.2,7835.8
201907101831,7835.8,7836,7834.5,7835.6
201907101832,7835.6,7835.9,7835.1,7835.8
201907101833,7835.8,7836,7834.9,7835.3
201907101834,7835.3,7836.3,7834.9,7834.9
201907101835,7834.8,7835.2,7834.2,7835.2
201907101836,7835.2,7836,7834.9,7836
201907101837,7836.1,7836.1,7835.4,7835.4
201907101838,7835.3,7835.7,7834.6,7834.9
201907101839,7834.8,7835,7834.2,7834.5
201907101840,7834.5,7834.6,7832.6,7832.9
201907101841,7832.9,7833.3,7831.9,7832.1
201907101842,7832.1,7832.1,7828.2,7828.5
201907101843,7828.5,7828.5,7823.4,7823.8
201907101844,7823.5,7823.9,7822.4,7823.6
201907101845,7823.6,7823.6,7818,7819.1
201907101846,7819.1,7821.7,7817.7,7821.6
201907101847,7821.1,7822.5,7820.8,7820.9
201907101848,7820.9,7823.1,7820.7,7823.1
201907101849,7823.1,7824.5,7822.8,7824.3
201907101850,7824.5,7824.5,7822.9,7823.6
201907101851,7823.6,7823.6,7821.7,7823.4
201907101852,7823.4,7823.8,7821.6,7823.5
201907101853,7823.6,7824.5,7823.4,7824.2
201907101854,7824.2,7824.8,7823.1,7824.1
201907101855,7824.1,7825.5,7824,7824.9
201907101856,7824.9,7824.9,7823.7,7824.2
201907101857,7824.2,7824.6,7823.9,7824
201907101858,7824,7825,7823.1,7823.7
201907101859,7823.6,7823.9,7823.2,7823.8
201907101900,7823.8,7823.8,7816.9,7818
201907101901,7818,7818,7813.1,7813.6
201907101902,7813.6,7813.6,7811.2,7813.5
201907101903,7813.7,7816.1,7813.4,7814.9
201907101904,7814.9,7816.6,7814.6,7816.4
201907101905,7816.4,7818.2,7816.2,7818.1
201907101906,7818.1,7818.1,7817.2,7817.6
201907101907,7817.6,7818.5,7817.4,7818.3
201907101908,7818.3,7818.8,7817.6,7818.6
201907101909,7818.6,7818.9,7816.9,7816.9
201907101910,7816.9,7819.8,7816.9,7819.3
201907101911,7819.3,7819.3,7817.2,7818.8
201907101912,7818.8,7818.8,7816,7816.6
201907101913,7816.5,7817.6,7815.7,7817.5
201907101914,7817.7,7818.5,7817.4,7817.6
201907101915,7817.5,7818.9,7817.3,7818.8
201907101916,7818.8,7818.9,7816.5,7816.5
201907101917,7816.4,7818.3,7816,7817.9
201907101918,7817.9,7818.3,7817,7817.1
201907101919,7817.1,7817.4,7816.4,7816.7
201907101920,7816.7,7817.3,7816.1,7816.7
201907101921,7816.8,7817.7,7816.4,7816.6
201907101922,7816.6,7817.8,7816.1,7816.3
201907101923,7816.3,7817.8,7816.3,7817.6
201907101924,7817.6,7817.6,7816.8,7816.9
201907101925,7816.8,7817.3,7816.4,7817.3
201907101926,7817.3,7817.5,7816.2,7817.4
201907101927,7817.4,7817.7,7816.9,7817.7
201907101928,7817.7,7817.7,7816.5,7816.6
201907101929,7816.6,7818.1,7816.6,7817.6
201907101930,7817.6,7817.7,7815.9,7816.2
201907101931,7816.2,7817.3,7816.2,7817.1
201907101932,7817.1,7817.8,7817,7817.3
201907101933,7817.1,7817.2,7816.6,7816.6
201907101934,7816.6,7817.5,7816.6,7816.9
201907101935,7816.8,7817.1,7816.7,7816.8
201907101936,7816.8,7817.3,7815.9,7817.1
201907101937,7817.3,7817.3,7815.4,7815.7
201907101938,7815.7,7816,7813.6,7814.1
201907101939,7814.1,7815.8,7814.1,7815.4
201907101940,7815.3,7815.9,7814.3,7815.8
201907101941,7815.8,7815.9,7814.9,7815
201907101942,7815,7816,7814.9,7815.8
201907101943,7815.8,7816.4,7814,7816.4
201907101944,7816.4,7817.2,7816.1,7816.1
201907101945,7816.1,7816.9,7815.7,7816.9
201907101946,7816.9,7819.1,7816.7,7819.1
201907101947,7819.1,7819.5,7818.5,7819.1
201907101948,7819.1,7819.2,7818.4,7819
201907101949,7819.1,7820.4,7819.1,7820.3
201907101950,7820.4,7821.2,7819.9,7821.2
201907101951,7821.2,7821.4,7819.8,7821.1
201907101952,7821.2,7821.9,7820.4,7820.5
201907101953,7820.7,7821.5,7820.4,7821.3
201907101954,7821.3,7821.6,7820.3,7820.3
201907101955,7820.4,7820.8,7820.1,7820.1
201907101956,7820,7823,7819.5,7822.4
201907101957,7822.4,7822.9,7822.2,7822.8
201907101958,7822.6,7823,7821.8,7822.9
201907101959,7822.9,7822.9,7822.1,7822.1
201907102000,7822.1,7825.5,7822.1,7825.5
201907102001,7825.5,7825.8,7824.2,7824.3
201907102002,7824.3,7824.9,7824,7824
201907102003,7823.9,7824.9,7823.7,7823.8
201907102004,7823.7,7824,7822.8,7823.1
201907102005,7823.1,7824.1,7823.1,7823.3
201907102006,7823.4,7824.3,7822.8,7823.9
201907102007,7823.9,7824.6,7823.7,7824.4
201907102008,7824.4,7825.5,7824.2,7825.2
201907102009,7825.1,7826.3,7824.8,7826.2
201907102010,7826.2,7829,7826.2,7827.3
201907102011,7827.3,7829,7826.5,7826.5
201907102012,7826.5,7827.4,7826.5,7827.1
201907102013,7827.1,7827.6,7826.5,7827.2
201907102014,7827.2,7827.4,7826.1,7826.6
201907102015,7826.6,7827.1,7825.8,7826.1
201907102016,7826.1,7827.5,7825.6,7827.2
201907102017,7827.2,7827.5,7826.7,7827.1
201907102018,7827.1,7827.1,7825.9,7825.9
201907102019,7825.9,7826.3,7825,7825.6
201907102020,7825.6,7826.5,7825.4,7825.9
201907102021,7825.9,7827.7,7825.9,7827.7
201907102022,7827.7,7827.8,7826.2,7826.2
201907102023,7826.2,7828.8,7826.2,7828.3
201907102024,7828.3,7828.3,7827.4,7827.6
201907102025,7827.6,7827.9,7826.4,7826.6
201907102026,7826.4,7828,7826.1,7827.7
201907102027,7827.6,7828,7827,7827.3
201907102028,7827.3,7828.6,7827.2,7828.6
201907102029,7828.6,7829.5,7828.5,7829.5
201907102030,7829.5,7831.2,7829.3,7829.8
201907102031,7829.8,7830,7828.6,7829.1
201907102032,7829.1,7829.8,7828.9,7829.1
201907102033,7829.2,7829.6,7829,7829.2
201907102034,7829.2,7829.2,7827.3,7827.6
201907102035,7827.6,7829,7827.3,7829
201907102036,7829,7829,7827.7,7828.1
201907102037,7828.1,7829.1,7827.9,7828.7
201907102038,7828.7,7829,7827.5,7828.7
201907102039,7828.7,7829.3,7827.8,7828.1
201907102040,7828.1,7829.4,7827.7,7829.4
201907102041,7829.3,7829.5,7828.3,7829.3
201907102042,7829.3,7829.3,7828.3,7828.5
201907102043,7828.6,7828.6,7825,7825
201907102044,7825.1,7826,7824.4,7825.1
201907102045,7825.1,7827.4,7825.1,7826.6
201907102046,7826.6,7827.2,7826.4,7827.2
201907102047,7827.2,7829.3,7827.2,7829.3
201907102048,7829.3,7831.8,7829.3,7831.7
201907102049,7831.7,7832.7,7830.8,7831.8
201907102050,7831.8,7831.9,7830.2,7831.1
201907102051,7831.2,7831.6,7830.4,7831.6
201907102052,7831.6,7831.9,7831.6,7831.6
201907102053,7831.6,7832.3,7831.5,7831.8
201907102054,7831.6,7831.6,7831.1,7831.5
201907102055,7831.5,7832.8,7830.9,7832.2
201907102056,7832.2,7832.3,7831.2,7831.7
201907102057,7831.7,7831.9,7830.2,7830.2
201907102058,7830.1,7830.6,7829.2,7829.5
201907102059,7829.5,7829.7,7828.4,7828.7
201907102100,7828.6,7830.2,7828.3,7829.5
201907102101,7829.6,7831.1,7829.6,7830.8
201907102102,7830.9,7831.2,7829.8,7830.9
201907102103,7830.9,7832.2,7830.6,7832.1
201907102104,7832.1,7832.1,7830.8,7831.3
201907102105,7831.3,7831.6,7828.9,7830
201907102106,7830.1,7830.7,7829.6,7829.6
201907102107,7829.6,7829.6,7827.2,7827.4
201907102108,7827.4,7828.4,7827.2,7827.4
201907102109,7827.4,7827.8,7826.9,7827.8
201907102110,7827.9,7828.8,7826.9,7828.3
201907102111,7828.4,7828.6,7827.6,7828.1
201907102112,7828.1,7830.9,7827.3,7830.7
201907102113,7830.7,7831.8,7830.7,7831.4
201907102114,7831.4,7831.5,7830.7,7831.1
201907102115,7831.1,7833,7830.7,7832.9
201907102116,7832.9,7835,7832.6,7834.9
201907102117,7834.9,7836.2,7834.6,7835.1
201907102118,7835.2,7836.3,7834.4,7835.9
201907102119,7835.9,7836.1,7835.7,7836.1
201907102120,7836.1,7836.1,7835.4,7835.6
201907102121,7835.5,7835.5,7833.4,7833.7
201907102122,7833.7,7834.9,7833.7,7834.6
201907102123,7834.5,7834.8,7833,7833
201907102124,7833,7835.5,7832.9,7833.9
201907102125,7833.9,7833.9,7832.2,7832.3
201907102126,7832.3,7832.3,7830.5,7831.6
201907102127,7831.7,7833.3,7830.4,7833.1
201907102128,7833.1,7834.9,7832.9,7834.7
201907102129,7834.6,7837.6,7833.8,7835
201907102130,7834.9,7859,7834.6,7853.9
201907102131,7853.9,7867.5,7853.9,7862.7
201907102132,7862.5,7871.2,7862.5,7870.2
201907102133,7870.2,7880.3,7868.7,7879.7
201907102134,7879.7,7884.8,7876.8,7877.9
201907102135,7877.9,7887.5,7877.9,7886.6
201907102136,7886.6,7891.3,7883.4,7883.4
201907102137,7883.3,7885.9,7879.4,7879.7
201907102138,7879.7,7881,7878.3,7879.3
201907102139,7879.1,7880.1,7877.7,7878.7
201907102140,7879.1,7886.2,7878.4,7886.2
201907102141,7886.2,7887.4,7884,7884.6
201907102142,7884.6,7885.1,7882.6,7884.9
201907102143,7884.7,7887.1,7883.7,7884.9
201907102144,7884.9,7886.8,7884.1,7884.4
201907102145,7884.2,7886.8,7884.1,7885.9
201907102146,7885.9,7887.8,7884.3,7887.5
201907102147,7887.5,7890.8,7887.5,7890.5
201907102148,7890.6,7891.6,7888,7891.3
201907102149,7891.2,7896.9,7889.9,7893.9
201907102150,7893.9,7907.3,7893.9,7903.9
201907102151,7903.9,7905.4,7899.2,7900.3
201907102152,7900,7906.5,7899.4,7906.2
201907102153,7906.2,7911,7906.2,7908.6
201907102154,7908.6,7908.8,7905.1,7906.1
201907102155,7906.1,7906.9,7902.6,7904.9
201907102156,7904.9,7907.3,7901.2,7901.3
201907102157,7901.3,7903.9,7900.4,7900.8
201907102158,7900.8,7901.1,7897.2,7900.9
201907102159,7900.9,7903.3,7900.7,7901.8
201907102200,7901.8,7904.7,7901.8,7902.9
201907102201,7903.1,7904.3,7896.9,7896.9
201907102202,7896.9,7899.2,7894.2,7899.2
201907102203,7899.2,7900,7897.1,7898.6
201907102204,7898.5,7901.1,7898.5,7900
201907102205,7900,7901.5,7898.1,7898.3
201907102206,7898.3,7899.5,7896,7899.3
201907102207,7899.3,7899.5,7897.4,7897.4
201907102208,7897.4,7899.6,7897.4,7898.1
201907102209,7898.1,7900.3,7898,7900
201907102210,7900,7901,7899.2,7899.6
201907102211,7899.6,7904.3,7899.6,7903.8
201907102212,7903.8,7905.5,7901.9,7905.3
201907102213,7905.3,7905.5,7904.3,7904.6
201907102214,7904.6,7905.1,7902.6,7902.8
201907102215,7902.8,7903.3,7900.4,7902.3
201907102216,7902.1,7902.7,7900.1,7902.3
201907102217,7902.3,7902.7,7899.9,7899.9
201907102218,7899.8,7903.7,7899.5,7903.6
201907102219,7903.8,7904,7902.4,7903.9
201907102220,7903.8,7903.8,7901.6,7901.8
201907102221,7901.9,7903.8,7901.9,7903
201907102222,7903,7903.7,7902.1,7902.5
201907102223,7902.5,7902.6,7901.4,7901.5
201907102224,7901.5,7903.5,7901.4,7902.6
201907102225,7902.6,7902.6,7900.4,7901.8
201907102226,7901.8,7902.9,7900.3,7900.3
201907102227,7900.4,7901.8,7899.6,7899.6
201907102228,7899.6,7899.6,7894.5,7895.8
201907102229,7895.8,7896.3,7893.8,7893.8
201907102230,7893.8,7901.2,7887.7,7901.1
201907102231,7901.4,7909.7,7901.4,7906.1
201907102232,7906.1,7913.9,7906.1,7911.6
201907102233,7911.6,7917.3,7910.5,7916.7
201907102234,7916.8,7917.4,7906.4,7910.9
201907102235,7910,7921.3,7909.6,7920.2
201907102236,7920.2,7925.3,7919.7,7922.4
201907102237,7922.4,7929.3,7920.9,7927.3
201907102238,7926.9,7930.6,7920.3,7922.5
201907102239,7922.5,7924.2,7919.7,7921.4
201907102240,7921.4,7928.1,7918.2,7918.2
201907102241,7918.2,7924.4,7916.4,7922.9
201907102242,7922.9,7927.1,7922.3,7927
201907102243,7927.4,7928.6,7922.6,7922.6
201907102244,7922.7,7925.3,7920.7,7921.3
201907102245,7921.3,7926.2,7921.3,7924.9
201907102246,7924.9,7924.9,7920.2,7924.4
201907102247,7924.4,7930.2,7924.3,7930.2
201907102248,7930.2,7943.8,7930.2,7942.3
201907102249,7942.4,7942.4,7938,7940.3
201907102250,7940.3,7945.8,7938.8,7943.6
201907102251,7943.6,7946,7942,7943.6
201907102252,7943.1,7947.5,7942.1,7946.2
201907102253,7946.4,7948.3,7943.3,7947
201907102254,7947,7949.1,7945.2,7946
201907102255,7945.7,7946.5,7943.7,7944.4
201907102256,7944.6,7945.7,7941.9,7942.9
201907102257,7942.9,7945,7939.2,7939.4
201907102258,7939.3,7943.5,7938.3,7940.9
201907102259,7940.8,7945.9,7940.7,7944.3
201907102300,7944.3,7948.6,7942.6,7942.8
201907102301,7942.9,7947.4,7942.9,7945.4
201907102302,7945.2,7945.7,7941.4,7942.2
201907102303,7942.2,7943.2,7938.6,7939.7
201907102304,7939.9,7943,7939.4,7940
201907102305,7939.8,7940.5,7938.1,7938.5
201907102306,7938.5,7938.7,7933.4,7934.7
201907102307,7934.7,7936.1,7933.4,7935.7
201907102308,7935.7,7936.7,7933.7,7935.2
201907102309,7935.2,7936.5,7933.2,7934.2
201907102310,7934.1,7934.7,7932,7932.4
201907102311,7932.3,7934.6,7931.7,7932.5
201907102312,7932.5,7933.4,7930.6,7933.1
201907102313,7933,7933.7,7931.2,7931.8
201907102314,7931.9,7932.6,7929.7,7932.6
201907102315,7932.5,7934.7,7931.4,7932.5
201907102316,7932.3,7934.4,7929.9,7929.9
201907102317,7930,7931,7926.8,7929
201907102318,7929.1,7930.5,7927.6,7930.5
201907102319,7930.5,7932.7,7929.2,7932.7
201907102320,7932.7,7932.8,7930.7,7932.3
201907102321,7932.3,7932.7,7930.7,7931.9
201907102322,7931.8,7931.8,7925.3,7925.4
201907102323,7925.4,7926.4,7922.5,7923.1
201907102324,7923.1,7923.3,7918.9,7919.6
201907102325,7919.8,7923,7918.9,7919.9
201907102326,7919.9,7920.9,7918.1,7919.5
201907102327,7919.5,7919.5,7913.4,7914.6
201907102328,7914.6,7915.3,7910.6,7911.9
201907102329,7912,7912.5,7908.5,7910.9
201907102330,7910.9,7916.4,7908.9,7915.9
201907102331,7916,7917.1,7914.1,7914.2
201907102332,7914.2,7915.5,7912.7,7914.3
201907102333,7914.3,7917.9,7914,7917.4
201907102334,7917.4,7918.5,7915.2,7915.9
201907102335,7916.1,7918.2,7914,7914
201907102336,7914,7915.2,7912.2,7914.4
201907102337,7914.5,7915,7908.5,7911.4
201907102338,7911.4,7914,7909.5,7912.1
201907102339,7912.1,7922,7912.1,7920.7
201907102340,7920.7,7920.7,7913.6,7916.2
201907102341,7916.2,7918.4,7913.4,7918.3
201907102342,7918.3,7918.7,7914.4,7915.9
201907102343,7915.9,7919.7,7914.9,7919.6
201907102344,7919.6,7924.2,7919.2,7923.5
201907102345,7923.5,7925.7,7921,7925.6
201907102346,7925.5,7928.7,7924.7,7928.7
201907102347,7928.7,7929.3,7927.2,7928.8
201907102348,7928.7,7929.6,7925.5,7925.5
201907102349,7925.5,7926.3,7923,7923.2
201907102350,7923.3,7923.3,7917.2,7919.4
201907102351,7919.4,7919.4,7916.2,7917.7
201907102352,7917.7,7921,7916.9,7920.2
201907102353,7920.2,7920.8,7915,7915.1
201907102354,7915.1,7915.2,7908.2,7909.3
201907102355,7909,7912,7907.9,7912
201907102356,7912,7913.8,7911.2,7911.9
201907102357,7911.9,7915.1,7911.9,7914.4
201907102358,7914.3,7914.3,7911.8,7912.7
201907102359,7912.7,7912.7,7898,7899.4
201907110000,7899.4,7904.4,7896.2,7904.4
201907110001,7903.7,7905,7900.6,7901.1
201907110002,7901.2,7904.5,7900.9,7901
201907110003,7901,7904.3,7899.7,7903.5
201907110004,7903.5,7905,7901.6,7904.5
201907110005,7904.5,7904.5,7901.3,7902.5
201907110006,7902.5,7903.1,7900,7902.6
201907110007,7902.7,7903.3,7900.8,7902.6
201907110008,7902.6,7902.6,7899.4,7899.5
201907110009,7899.5,7899.7,7892.2,7893.3
201907110010,7893.4,7896.1,7890.8,7894.7
201907110011,7894.6,7895.4,7891.6,7894.2
201907110012,7894.2,7897.4,7893.7,7895.5
201907110013,7895.5,7896.5,7892.6,7894.2
201907110014,7894.2,7896.6,7891.3,7896
201907110015,7896,7897,7894.4,7896.8
201907110016,7896.5,7896.8,7894.4,7895.7
201907110017,7895.6,7895.7,7888.2,7888.8
201907110018,7888.7,7889.9,7883.6,7884.5
201907110019,7884.5,7885,7881.9,7884.1
201907110020,7884.4,7886.1,7882.1,7884.9
201907110021,7884.5,7887.7,7882.4,7887.7
201907110022,7887.7,7889.5,7885.6,7889.4
201907110023,7889.4,7893.2,7888.7,7892.7
201907110024,7892.7,7893.1,7886.9,7887.8
201907110025,7887.8,7889.4,7884.2,7889.4
201907110026,7889.4,7895.5,7888.7,7893.6
201907110027,7893.6,7895.7,7893.5,7894.9
201907110028,7894.4,7895.4,7891.6,7891.7
201907110029,7891.6,7893.8,7890.9,7893
201907110030,7893.2,7898.9,7891.2,7898
201907110031,7898,7898,7896.3,7897
201907110032,7897.2,7900.4,7896.2,7899.8
201907110033,7899.8,7901.5,7897.7,7901.5
201907110034,7901.5,7902.2,7899.6,7901.5
201907110035,7901.4,7903.1,7898.3,7898.3
201907110036,7898.3,7900,7897.6,7898.3
201907110037,7898.3,7901.3,7898.2,7899.1
201907110038,7899.1,7902.8,7899.1,7902.7
201907110039,7902.6,7904.8,7900.4,7900.7
201907110040,7900.7,7903,7900.3,7902.4
201907110041,7902.4,7902.8,7900.9,7902.3
201907110042,7902.3,7903,7901.8,7901.9
201907110043,7901.9,7903.1,7899.9,7902.9
201907110044,7902.8,7902.8,7899.2,7902.3
201907110045,7902.2,7906.9,7902.2,7903.3
201907110046,7903.3,7904.7,7902.2,7904.4
201907110047,7904.2,7909.9,7904.2,7909.9
201907110048,7909.9,7913.2,7909.9,7911
201907110049,7911.2,7912.6,7910.7,7911.2
201907110050,7911,7915.3,7911,7913.9
201907110051,7913.9,7915.8,7913.9,7914.8
201907110052,7914.8,7915.5,7912.4,7913.5
201907110053,7913.4,7916.4,7913.4,7915.5
201907110054,7915.5,7918.1,7915.2,7916.2
201907110055,7916,7916.9,7913.9,7915.4
201907110056,7915.4,7918.2,7915.3,7917.5
201907110057,7917.5,7918.9,7916.7,7918
201907110058,7918,7919.9,7917,7919.7
201907110059,7919.7,7920.3,7917.1,7917.5
201907110100,7917.5,7919.1,7916.1,7917.3
201907110101,7917.3,7917.9,7915.6,7916.5
201907110102,7916.5,7918.2,7916,7918.2
201907110103,7919,7919.6,7916.9,7916.9
201907110104,7916.9,7917.7,7915.9,7915.9
201907110105,7915.9,7918.3,7915.9,7917.1
201907110106,7917,7918.6,7916.7,7917.4
201907110107,7917.4,7923,7917.4,7921.8
201907110108,7921.7,7922.5,7920.1,7921.2
201907110109,7921.2,7922.9,7919.9,7919.9
201907110110,7919.5,7920,7916,7916.6
201907110111,7916.7,7917.7,7915.2,7915.9
201907110112,7916,7917,7915.1,7916.6
201907110113,7916.5,7918,7915.9,7916
201907110114,7916,7916.7,7914.2,7914.3
201907110115,7914.3,7914.6,7913.2,7913.2
201907110116,7913.4,7916.4,7913.2,7915.4
201907110117,7915,7916,7913.7,7915.9
201907110118,7916,7918,7915.4,7916.9
201907110119,7917,7917.4,7914.5,7914.5
201907110120,7914.5,7915.7,7912,7912.9
201907110121,7913,7914.7,7912.7,7914.4
201907110122,7914.4,7914.4,7911.2,7911.4
201907110123,7911.3,7912.3,7910.2,7910.9
201907110124,7910.9,7911.5,7908.9,7908.9
201907110125,7908.9,7910.7,7908.6,7908.7
201907110126,7908.7,7909.2,7907.4,7908
201907110127,7908.2,7911.4,7908.1,7911.2
201907110128,7911.1,7911.5,7909,7909.2
201907110129,7909.2,7911.5,7908.9,7911.3
201907110130,7911.3,7913.4,7911.2,7912.2
201907110131,7912.2,7913.5,7911.9,7912.7
201907110132,7912.9,7915.2,7912.7,7914.9
201907110133,7915,7917.5,7914.4,7917.1
201907110134,7917.1,7919.7,7917.1,7918.9
201907110135,7918.9,7919.1,7917,7917
201907110136,7917,7918,7915.6,7917
201907110137,7917,7917.1,7914.9,7915.9
201907110138,7915.9,7917.4,7915.4,7916.4
201907110139,7916.4,7917,7915,7915.9
201907110140,7915.9,7917,7915.1,7916.8
201907110141,7916.7,7917.5,7915.2,7917
201907110142,7917,7917.5,7916,7916.7
201907110143,7916.7,7916.9,7915.2,7916
201907110144,7916,7919.4,7916,7919.1
201907110145,7919,7919,7915.5,7915.6
201907110146,7915.6,7918.5,7913.7,7913.7
201907110147,7913.7,7917.6,7913.5,7917.1
201907110148,7917,7918.5,7917,7917.9
201907110149,7917.9,7917.9,7916.4,7916.9
201907110150,7916.9,7919.2,7916.9,7918.9
201907110151,7918.9,7919.5,7917.1,7917.4
201907110152,7917.4,7918,7915.4,7915.8
201907110153,7915.9,7915.9,7913.9,7914.9
201907110154,7915,7915.8,7913.5,7914.4
201907110155,7914.4,7914.4,7911.6,7911.8
201907110156,7911.9,7914.5,7911.8,7914.5
201907110157,7914.8,7917,7914.8,7916.3
201907110158,7916.3,7918,7915.8,7917.9
201907110159,7917.9,7918.4,7916.8,7918.2
201907110200,7918.2,7922.4,7918.2,7920.4
201907110201,7920.3,7921.6,7919.7,7921
201907110202,7921,7921.2,7920.1,7920.7
201907110203,7920.5,7921.3,7919.7,7920.4
201907110204,7920.6,7920.9,7918.3,7918.7
201907110205,7918.7,7918.7,7916.4,7918.4
201907110206,7918.4,7919.5,7918.4,7919.2
201907110207,7919.2,7919.8,7917,7917.7
201907110208,7917.7,7918.5,7916.2,7917.6
201907110209,7917.6,7918.8,7916.9,7918
201907110210,7918,7918.5,7917.3,7918.3
201907110211,7918.3,7919.5,7917.4,7918.8
201907110212,7918.9,7919.3,7918,7918.6
201907110213,7918.7,7919.9,7918.4,7919.3
201907110214,7919.3,7920.2,7918.5,7920.2
201907110215,7920.2,7920.2,7918.9,7919.6
201907110216,7919.5,7920,7918.6,7919.9
201907110217,7919.9,7920.7,7918.9,7918.9
201907110218,7918.9,7919.5,7917.5,7918.3
201907110219,7918.3,7921.8,7918.3,7921.7
201907110220,7921.7,7925.3,7921.1,7924.8
201907110221,7924.8,7925.5,7923.9,7924.5
201907110222,7924.5,7926.3,7924.4,7925.5
201907110223,7925.4,7926.3,7924.5,7925.4
201907110224,7925.5,7926.1,7925,7925.9
201907110225,7925.9,7925.9,7924.4,7925
201907110226,7925.1,7925.7,7924.5,7924.7
201907110227,7924.7,7925.8,7924.4,7924.9
201907110228,7924.9,7925.5,7924,7924.5
201907110229,7924.6,7924.6,7923.7,7923.9
201907110230,7923.9,7926.3,7923.2,7926.3
201907110231,7926.3,7928.2,7926.2,7928.2
201907110232,7928.2,7928.5,7926.9,7927.5
201907110233,7927.7,7929.1,7927.6,7928.2
201907110234,7928.2,7928.7,7927.2,7928.2
201907110235,7928.2,7929.6,7927.9,7928.4
201907110236,7928.4,7930.3,7928,7930.3
201907110237,7929.9,7930.5,7929,7929
201907110238,7929,7929.8,7928.9,7929.8
201907110239,7929.8,7930.8,7929.5,7930.2
201907110240,7930.2,7931.2,7929.9,7931
201907110241,7931,7932.2,7931,7931
201907110242,7931,7931.5,7930.7,7931.4
201907110243,7931.5,7932.7,7931.5,7931.7
201907110244,7931.7,7933.7,7931.5,7933.5
201907110245,7933.5,7934.6,7933.4,7934.1
201907110246,7934.1,7934.4,7932.4,7933.2
201907110247,7933.2,7933.5,7931.2,7931.9
201907110248,7931.9,7931.9,7930,7930.6
201907110249,7930.6,7932.2,7930.5,7932.2
201907110250,7932,7932.7,7930.7,7931.1
201907110251,7931.1,7933,7930.9,7931.7
201907110252,7931.7,7932.6,7931.7,7932.4
201907110253,7932.4,7933.2,7931.9,7933.2
201907110254,7933.2,7933.3,7932.2,7932.9
201907110255,7932.9,7933,7931.4,7932.3
201907110256,7932.3,7932.3,7930.9,7931
201907110257,7931,7931.8,7930.4,7930.7
201907110258,7930.4,7930.9,7929.5,7930
201907110259,7930,7930.2,7928.3,7928.5
201907110300,7928.5,7937,7928.5,7933.8
201907110301,7933.8,7935.4,7931.5,7934
201907110302,7934,7934.2,7926.4,7927.7
201907110303,7927.6,7930.8,7926.4,7930.6
201907110304,7930.6,7931.4,7927.9,7927.9
201907110305,7927.9,7929.6,7926.4,7926.4
201907110306,7926.4,7927.8,7924.5,7924.9
201907110307,7924.9,7926.3,7923.6,7923.8
201907110308,7924,7924.3,7920.9,7921.3
201907110309,7921.3,7921.9,7918.7,7920.9
201907110310,7921.2,7921.8,7919,7920.7
201907110311,7920.7,7925,7920.7,7924.4
201907110312,7924.9,7925.7,7923,7923
201907110313,7923,7923.4,7919.4,7920.8
201907110314,7920.8,7920.8,7916.2,7916.5
201907110315,7916.5,7916.7,7913.2,7913.9
201907110316,7913.9,7914.5,7912.9,7913.9
201907110317,7913.9,7916.3,7912.8,7915.8
201907110318,7915.8,7916.5,7912.3,7912.3
201907110319,7912.4,7913.4,7909.5,7910.7
201907110320,7910.7,7913.4,7909.4,7912.9
201907110321,7913.2,7915.3,7913.2,7914.1
201907110322,7914.1,7914.1,7911.3,7911.4
201907110323,7911.4,7911.6,7910.4,7910.9
201907110324,7910.9,7910.9,7909,7909.9
201907110325,7909.9,7909.9,7907.6,7907.6
201907110326,7907.6,7911.1,7906.6,7910.5
201907110327,7910.5,7911.3,7908.5,7911
201907110328,7911,7912,7905.8,7907.9
201907110329,7907.9,7911,7905.9,7906.6
201907110330,7906.4,7908.2,7904.6,7908.2
201907110331,7908.2,7910.6,7907.9,7910.1
201907110332,7910,7911.3,7909.7,7910.4
201907110333,7910.7,7912.2,7910.2,7912
201907110334,7912,7912.8,7909.9,7910.7
201907110335,7910.5,7912.7,7909.6,7912.1
201907110336,7912,7913.9,7911.7,7913.3
201907110337,7913.3,7913.6,7910.7,7910.7
201907110338,7910.7,7911.7,7909.2,7909.5
201907110339,7909.5,7912,7909.5,7909.7
201907110340,7909.7,7912.6,7909.4,7912.6
201907110341,7912.6,7913.3,7910,7912.6
201907110342,7912.6,7912.6,7910,7910.4
201907110343,7910.4,7912.4,7910.4,7911.9
201907110344,7911.9,7912.4,7911,7911.8
201907110345,7911.8,7911.8,7908.1,7909.7
201907110346,7909.7,7910.9,7909.6,7910.3
201907110347,7910.3,7911,7907.3,7908.1
201907110348,7908.2,7908.4,7907.3,7907.5
201907110349,7907.5,7907.6,7903.5,7905
201907110350,7905,7908.2,7904.2,7908
201907110351,7907.9,7908.7,7905.7,7906.3
201907110352,7906.2,7909.9,7905.9,7909.8
201907110353,7909.8,7910.9,7907.2,7908.1
201907110354,7908.1,7913,7907.9,7912.3
201907110355,7912.7,7914.6,7911.3,7912.3
201907110356,7912.3,7913.7,7911.6,7913.3
201907110357,7913.3,7915.8,7912.7,7914.9
201907110358,7914.8,7915.7,7913.9,7915.3
201907110359,7915.3,7916.1,7914.7,7915.1
201907110400,7915.1,7918.4,7913.2,7916
201907110401,7916.2,7916.6,7911.7,7911.9
201907110402,7911.9,7912.4,7910.2,7912.2
201907110403,7912.2,7913.4,7910.7,7911.4
201907110404,7911.4,7912.9,7911.4,7911.8
201907110405,7911.9,7912.9,7909.3,7910
201907110406,7910,7911.9,7909.2,7911.9
201907110407,7911.9,7914.6,7911.6,7913.4
201907110408,7913.4,7916,7912.2,7914.9
201907110409,7914.9,7915.3,7913.8,7913.8
201907110410,7913.8,7917.3,7913.8,7917.3
201907110411,7917.3,7917.5,7916.2,7917.1
201907110412,7917.1,7918.4,7916.9,7918.1
201907110413,7918,7919.1,7917.4,7918.5
201907110414,7918.5,7918.9,7917.5,7917.7
201907110415,7917.7,7918.9,7916.4,7917.4
201907110416,7917.4,7919.7,7917.2,7919.4
201907110417,7919.4,7920,7916.6,7918.4
201907110418,7918.4,7919.3,7914.6,7914.7
201907110419,7914.6,7914.6,7912.6,7913.7
201907110420,7913.7,7915.2,7912.8,7914.8
201907110421,7914.8,7916.6,7913.8,7916.4
201907110422,7916.1,7916.5,7915,7915.7
201907110423,7915.8,7916.2,7912.4,7914.6
201907110424,7914.7,7914.7,7912.3,7914.6
201907110425,7914.7,7919,7914.2,7918.7
201907110426,7918.7,7919.5,7917.2,7917.8
201907110427,7917.8,7919,7915.2,7915.6
201907110428,7915.7,7917,7914,7916.9
201907110429,7916.8,7917,7915.2,7916.7
201907110430,7916.7,7918.9,7916.2,7918.5
201907110431,7918.5,7919.6,7917.1,7918.7
201907110432,7918.7,7920.9,7917.7,7920.2
201907110433,7920.3,7922.9,7920.3,7921.6
201907110434,7921.6,7925,7921.2,7924.9
201907110435,7924.9,7924.9,7921.4,7922.3
201907110436,7922.3,7922.9,7920.9,7921.5
201907110437,7921.6,7922.4,7918.9,7921.7
201907110438,7922,7923.7,7920.4,7920.5
201907110439,7920.5,7920.5,7919,7920
201907110440,7920,7923.3,7919.9,7922.9
201907110441,7922.7,7922.8,7921,7921.7
201907110442,7921.6,7922.5,7919.5,7920.5
201907110443,7920.5,7923.9,7920.5,7923.4
201907110444,7923.7,7924.5,7922.9,7924.4
201907110445,7924.4,7924.4,7921.9,7922.3
201907110446,7922.1,7923.5,7920.7,7920.9
201907110447,7920.7,7921.7,7920,7921.2
201907110448,7921.2,7924.2,7921,7924
201907110449,7924.2,7924.9,7921.5,7922.1
201907110450,7922.2,7925.4,7920.6,7925
201907110451,7925,7925,7922.9,7924.5
201907110452,7924.5,7927.3,7924.5,7927
201907110453,7927,7928.3,7926.2,7927
201907110454,7927.2,7929,7925.9,7927.7
201907110455,7927.6,7932.7,7926.4,7926.5
201907110456,7926.5,7927.1,7925.4,7927
201907110457,7927,7927.5,7923,7923.5
201907110458,7923.5,7924.3,7922.9,7924.1
201907110459,7924.3,7927.2,7922.5,7926.7
201907110500,7927.5,7930.6,7926.7,7928.5
201907110501,7928.5,7928.5,7926.8,7927.6
201907110502,7927.6,7929.3,7927.6,7929
201907110503,7929,7930.2,7928.7,7929.4
201907110504,7929.4,7929.4,7928.1,7928.3
201907110505,7928.3,7928.5,7927.5,7927.7
201907110506,7927.7,7927.9,7927.5,7927.5
201907110507,7927.5,7928.5,7927.5,7928.4
201907110508,7928.4,7928.5,7928,7928.1
201907110509,7928.1,7928.1,7926.9,7927
201907110510,7927,7927.2,7924.9,7924.9
201907110511,7924.9,7925.9,7924.7,7925.4
201907110512,7925.4,7925.4,7924.7,7924.7
201907110513,7924.8,7928.5,7924.8,7928.5
201907110514,7928.5,7928.8,7927.8,7928.1
