日時,始値(BID),高値(BID),安値(BID),終値(BID)
201907190700,7950.7,7957.9,7950.7,7957.7
201907190701,7957.7,7960.8,7956.9,7960.6
201907190702,7960.6,7961.3,7959.5,7959.7
201907190703,7959.7,7963.8,7959.2,7963.6
201907190704,7963.1,7963.3,7961.8,7962.8
201907190705,7962.8,7968.9,7962.8,7968.9
201907190706,7968.9,7969.5,7967.1,7969.1
201907190707,7969.3,7969.3,7967.7,7967.7
201907190708,7967.9,7971.1,7967.7,7969.8
201907190709,7969.8,7970.9,7969.3,7970.2
201907190710,7970.3,7970.7,7968.3,7969.3
201907190711,7969.3,7970.2,7968.4,7969.6
201907190712,7969.6,7973.1,7969.6,7972.2
201907190713,7972.2,7973.2,7972.2,7972.7
201907190714,7972.7,7972.7,7970.9,7971.8
201907190715,7971.8,7973,7971.5,7972.6
201907190716,7972.7,7974.4,7972.6,7974.4
201907190717,7974.4,7974.4,7971.7,7972.3
201907190718,7972.3,7972.3,7970.3,7970.6
201907190719,7970.6,7970.6,7968.2,7968.2
201907190720,7968.2,7968.2,7965.4,7965.9
201907190721,7965.9,7966.6,7958.5,7960.5
201907190722,7960.5,7963.4,7960.5,7963.2
201907190723,7963.2,7963.2,7956.3,7957.4
201907190724,7957.4,7957.4,7947.6,7955.4
201907190725,7955.4,7956.9,7952.9,7953.1
201907190726,7953.1,7953.2,7948.8,7952
201907190727,7952,7952.8,7940.3,7940.3
201907190728,7940.3,7947.8,7940.1,7947.1
201907190729,7947.1,7948.4,7941.3,7942.9
201907190730,7942.9,7948.8,7942.9,7946.4
201907190731,7946.2,7946.2,7942.6,7943.9
201907190732,7943.9,7946.7,7943.9,7944.8
201907190733,7944.8,7949.3,7944.8,7949.3
201907190734,7949.3,7949.6,7946.4,7949.5
201907190735,7949.4,7949.6,7948.3,7948.7
201907190736,7948.7,7951,7947.4,7947.4
201907190737,7947.4,7948.8,7945.8,7947.4
201907190738,7947.4,7948.4,7947.3,7947.7
201907190739,7947.7,7949.2,7944.9,7944.9
201907190740,7944.9,7948.1,7944.2,7947.2
201907190741,7947.2,7949,7947.2,7947.5
201907190742,7947.5,7948.4,7943.9,7943.9
201907190743,7943.9,7944.8,7938.7,7940.4
201907190744,7940.6,7943.6,7940.2,7942.8
201907190745,7942.8,7942.8,7940.7,7941
201907190746,7941,7942.2,7940.8,7942.2
201907190747,7942.2,7943.2,7941.4,7942.8
201907190748,7942.9,7943.3,7940.5,7940.5
201907190749,7940.5,7941.4,7940,7941.2
201907190750,7941.2,7941.4,7940.3,7941.2
201907190751,7941.2,7942.3,7940.8,7942.1
201907190752,7942.1,7942.1,7938.9,7939.2
201907190753,7939.4,7939.4,7938.2,7938.7
201907190754,7938.7,7939.1,7937.9,7938.1
201907190755,7938,7939,7937.9,7938.9
201907190756,7938.9,7939.8,7937.6,7937.7
201907190757,7937.7,7938,7937.3,7937.3
201907190758,7937.3,7939.3,7937.1,7938
201907190759,7938,7938.5,7937.6,7937.7
201907190800,7937.5,7939.8,7936.2,7937.7
201907190801,7937.6,7939.5,7937.6,7939.2
201907190802,7939.2,7939.5,7938.8,7939.2
201907190803,7939.2,7939.2,7938.8,7938.9
201907190804,7938.9,7938.9,7937.9,7937.9
201907190805,7937.9,7938.9,7937.9,7938.8
201907190806,7938.8,7941.3,7938.7,7941.3
201907190807,7941.3,7942,7940.7,7941.9
201907190808,7942,7944.8,7942,7943.9
201907190809,7943.7,7946.2,7943.7,7945.4
201907190810,7945.4,7948.8,7945.4,7948.4
201907190811,7948.4,7950,7947.3,7948.8
201907190812,7948.8,7949.1,7947.6,7947.6
201907190813,7947.6,7948.1,7946.3,7946.7
201907190814,7946.7,7947.2,7945.9,7946
201907190815,7945.9,7946.3,7944.1,7945
201907190816,7945,7945.6,7944.4,7945
201907190817,7945,7945,7943.9,7944
201907190818,7944,7944,7942.1,7942.5
201907190819,7942.6,7944.1,7942.6,7943.9
201907190820,7943.9,7944.8,7943.9,7943.9
201907190821,7943.8,7943.8,7941.7,7942.9
201907190822,7942.9,7943.8,7941.8,7942.1
201907190823,7942.1,7943.6,7942.1,7943.3
201907190824,7943.3,7943.9,7942.9,7943.9
201907190825,7943.9,7945.5,7943.8,7945
201907190826,7945,7945,7943.7,7943.7
201907190827,7943.7,7944.1,7943.5,7943.5
201907190828,7943.4,7943.5,7942.7,7943.3
201907190829,7943.3,7944.6,7943.3,7943.4
201907190830,7943.4,7944.8,7942.5,7944.6
201907190831,7944.7,7946.3,7944.6,7946
201907190832,7945.8,7946.3,7945.8,7945.8
201907190833,7945.8,7946.2,7945.5,7945.7
201907190834,7945.8,7946.2,7945.4,7946.2
201907190835,7946.2,7948,7946.2,7947.9
201907190836,7947.9,7948.3,7947.4,7948
201907190837,7948.1,7948.8,7947.6,7948.8
201907190838,7948.8,7951.2,7948.4,7951.2
201907190839,7951.2,7954.1,7951.2,7953.7
201907190840,7953.7,7953.7,7952.8,7953.2
201907190841,7953.2,7953.2,7951,7951.4
201907190842,7951.3,7954.1,7951.2,7952.7
201907190843,7952.6,7952.8,7952.2,7952.2
201907190844,7952.3,7952.8,7952.3,7952.3
201907190845,7952.3,7952.4,7951.7,7952.4
201907190846,7952.4,7952.4,7950.8,7951.2
201907190847,7951.2,7951.7,7950.5,7950.5
201907190848,7950.5,7950.5,7949.4,7949.6
201907190849,7949.6,7949.6,7949.1,7949.3
201907190850,7949.3,7950.9,7949.2,7950.8
201907190851,7950.8,7951.1,7950.4,7950.5
201907190852,7950.5,7950.7,7950.2,7950.4
201907190853,7950.4,7950.6,7950.2,7950.2
201907190854,7950.2,7950.2,7947,7947
201907190855,7946.8,7949.1,7946.3,7946.3
201907190856,7946.3,7947.1,7944.5,7944.7
201907190857,7944.7,7946.6,7943.2,7943.3
201907190858,7943.2,7945.5,7943.2,7945.1
201907190859,7945.1,7946.6,7944.6,7945.3
201907190900,7945.3,7950.1,7945,7949.5
201907190901,7949.5,7950.5,7944.9,7945.5
201907190902,7945.5,7949.3,7944.9,7947.6
201907190903,7947.6,7948.9,7946.1,7947.9
201907190904,7948.2,7949.3,7947.4,7949.2
201907190905,7949.2,7949.5,7947.2,7947.6
201907190906,7947.6,7947.6,7945.6,7945.6
201907190907,7945.6,7947.4,7945.5,7946.8
201907190908,7947,7948.9,7947,7948.8
201907190909,7948.8,7949.6,7947.4,7949.2
201907190910,7949.2,7952.5,7948.9,7951.5
201907190911,7951.5,7951.5,7949.9,7950.8
201907190912,7950.8,7952,7950.4,7951.9
201907190913,7951.9,7952.8,7950.9,7951.8
201907190914,7951.8,7951.8,7949.9,7950.6
201907190915,7950.6,7952.9,7950.6,7952.6
201907190916,7952.6,7952.7,7951.7,7952.4
201907190917,7952.4,7953.8,7952.2,7952.3
201907190918,7952.3,7952.3,7951.2,7951.8
201907190919,7951.8,7952.7,7951.4,7951.5
201907190920,7951.3,7952.3,7951,7951.5
201907190921,7951.5,7956.1,7951.5,7956.1
201907190922,7956.1,7956.1,7954.3,7954.3
201907190923,7954.4,7957.2,7954.2,7956.4
201907190924,7956.4,7956.8,7954.3,7954.3
201907190925,7954.3,7956.7,7954.2,7956.2
201907190926,7956.1,7956.1,7953.7,7953.9
201907190927,7953.9,7954.6,7953.5,7953.7
201907190928,7953.5,7954.7,7952.8,7954.4
201907190929,7954.5,7956.8,7954.3,7956.2
201907190930,7956.2,7957.8,7956.1,7957.4
201907190931,7957.4,7959.2,7957.4,7958.3
201907190932,7958.3,7958.3,7957.2,7957.4
201907190933,7957.3,7958.5,7957.3,7958.4
201907190934,7958.4,7959,7958.4,7958.6
201907190935,7958.6,7958.6,7956.9,7957.3
201907190936,7957.3,7958.8,7957,7958.8
201907190937,7958.8,7958.9,7957.8,7958.9
201907190938,7958.9,7959,7958.7,7958.7
201907190939,7958.7,7961.1,7958.7,7961
201907190940,7961,7961.3,7958.9,7959.2
201907190941,7959.2,7959.5,7958.3,7958.8
201907190942,7958.8,7959.8,7958.8,7959.4
201907190943,7959.4,7960.9,7959.4,7960.7
201907190944,7960.8,7960.8,7956.5,7956.8
201907190945,7956.8,7959,7956.8,7958.6
201907190946,7958.6,7959.1,7957.7,7958.8
201907190947,7958.8,7959.6,7958.6,7959.4
201907190948,7959.3,7960.8,7959.3,7960.3
201907190949,7960.3,7962.7,7960.2,7962.7
201907190950,7962.7,7963,7961.2,7961.5
201907190951,7961.3,7962,7960.9,7961.9
201907190952,7961.9,7964,7961.9,7963.2
201907190953,7963.2,7964,7962.8,7963.3
201907190954,7963.3,7963.6,7962.8,7963.6
201907190955,7963.6,7964.1,7962.5,7962.5
201907190956,7962.5,7962.6,7961.8,7961.9
201907190957,7961.9,7961.9,7959.9,7960.6
201907190958,7960.6,7962.4,7960.5,7962.2
201907190959,7962.2,7963.2,7962,7963.2
201907191000,7963.3,7964.1,7962.1,7962.2
201907191001,7962.1,7962.1,7960.4,7961.1
201907191002,7961.1,7961.2,7960.2,7960.8
201907191003,7960.7,7962,7960.7,7961.6
201907191004,7961.7,7963,7961.1,7962.7
201907191005,7962.7,7963.4,7962.2,7963.2
201907191006,7963.3,7963.7,7962.2,7963.7
201907191007,7963.7,7963.8,7959.9,7960
201907191008,7960,7960.8,7959.9,7960.6
201907191009,7960.6,7963.2,7960.5,7963
201907191010,7963,7964.8,7962.9,7964.7
201907191011,7964.7,7966.5,7964.6,7966.5
201907191012,7966.5,7966.7,7965.1,7965.1
201907191013,7965.1,7965.5,7964.5,7965.2
201907191014,7965.2,7965.3,7964.2,7964.6
201907191015,7964.6,7966.8,7964.5,7966.4
201907191016,7966.4,7966.6,7965,7965
201907191017,7965,7966.4,7964.9,7966.1
201907191018,7966.1,7967.3,7966,7966.7
201907191019,7966.7,7967.1,7965.6,7966.2
201907191020,7966.2,7966.5,7965.7,7966.2
201907191021,7966.2,7967,7964.6,7965.3
201907191022,7965.3,7965.3,7964.1,7964.1
201907191023,7964.1,7964.3,7963,7964.2
201907191024,7964.2,7965.3,7964.2,7964.7
201907191025,7964.7,7964.7,7962.9,7963.2
201907191026,7963.2,7964.2,7963.2,7964.2
201907191027,7964.2,7964.7,7963.2,7964.7
201907191028,7964.7,7965.4,7964.6,7965.2
201907191029,7965.2,7966.7,7965,7966.7
201907191030,7966.5,7967.4,7965.1,7966.4
201907191031,7966.4,7967.5,7965.9,7965.9
201907191032,7965.9,7971,7965.9,7970.1
201907191033,7969.8,7970.2,7968.9,7969.3
201907191034,7969.3,7969.3,7967.4,7968.5
201907191035,7968.5,7970.8,7968,7970.4
201907191036,7970.4,7971,7968.7,7968.8
201907191037,7968.8,7969.2,7966.8,7967.3
201907191038,7967.3,7968.6,7967.2,7967.2
201907191039,7967.3,7968.5,7967.2,7968.4
201907191040,7968.4,7970.4,7968,7968
201907191041,7968,7970.4,7968,7969.4
201907191042,7969.2,7970.4,7968.9,7970.3
201907191043,7970.3,7972.9,7970.3,7971.2
201907191044,7971.2,7971.9,7970.3,7970.3
201907191045,7970.3,7971,7969.4,7969.4
201907191046,7969.4,7972,7969.4,7971.8
201907191047,7971.8,7972.6,7971.4,7972.6
201907191048,7972.6,7972.8,7971.9,7972.4
201907191049,7972.3,7972.3,7971.1,7971.4
201907191050,7971.4,7972,7970.8,7970.8
201907191051,7970.8,7971.7,7970.4,7970.5
201907191052,7970.5,7970.5,7970,7970.1
201907191053,7970.1,7971.9,7970.1,7971.9
201907191054,7971.9,7972.8,7971.9,7972.5
201907191055,7972.5,7972.9,7972,7972.2
201907191056,7972.2,7972.4,7971.9,7971.9
201907191057,7971.9,7972.3,7970.7,7970.7
201907191058,7970.7,7970.8,7969.8,7970
201907191059,7970,7970.5,7969.5,7970.2
201907191100,7970.2,7973.5,7970.1,7973.2
201907191101,7973.3,7973.6,7972.9,7973.3
201907191102,7973.3,7973.8,7972.9,7973.4
201907191103,7973.4,7973.7,7970.7,7971.3
201907191104,7971.2,7971.6,7970.2,7970.4
201907191105,7970.4,7971.9,7970.4,7971.4
201907191106,7971.4,7971.6,7970.2,7970.3
201907191107,7970.3,7970.8,7969.3,7969.6
201907191108,7969.6,7970.1,7969.4,7970.1
201907191109,7970.1,7970.6,7970.1,7970.6
201907191110,7970.6,7971.8,7970.5,7970.8
201907191111,7970.8,7970.9,7970.1,7970.4
201907191112,7970.4,7972.4,7970.4,7972.2
201907191113,7972,7972.2,7971,7971
201907191114,7971,7971.4,7970,7970.4
201907191115,7970.4,7972.5,7970.2,7970.2
201907191116,7970.2,7970.9,7969.5,7970.5
201907191117,7970.5,7971.2,7969.8,7970.4
201907191118,7970.4,7971,7969.3,7969.4
201907191119,7969.4,7969.6,7969.2,7969.5
201907191120,7969.5,7970.7,7969.3,7970.3
201907191121,7970.3,7971,7970.2,7971
201907191122,7971,7971.3,7970.2,7971
201907191123,7970.9,7970.9,7969.5,7969.9
201907191124,7969.9,7969.9,7969,7969.4
201907191125,7969.4,7970,7968.8,7969.8
201907191126,7969.9,7970,7968.9,7969.4
201907191127,7969.4,7969.4,7968.4,7968.4
201907191128,7968.4,7968.4,7967.1,7967.3
201907191129,7967.4,7968,7967.4,7968
201907191130,7968,7968.9,7967.9,7968.3
201907191131,7968.2,7968.3,7967.5,7967.8
201907191132,7967.8,7968.1,7967.7,7967.8
201907191133,7967.7,7967.8,7967.2,7967.3
201907191134,7967.3,7967.3,7966.6,7967
201907191135,7967,7967.4,7966.8,7967.2
201907191136,7967.2,7967.3,7967,7967.2
201907191137,7967.2,7967.5,7966.9,7967.4
201907191138,7967.4,7968.4,7967.4,7968.4
201907191139,7968.4,7969.5,7968.2,7969
201907191140,7969,7969.7,7968.3,7969.4
201907191141,7969.4,7969.7,7968.6,7968.8
201907191142,7968.8,7969.8,7968.7,7969.3
201907191143,7969.3,7969.8,7969.3,7969.7
201907191144,7969.7,7970,7969.4,7970
201907191145,7970.1,7971.8,7969.9,7970.3
201907191146,7970.3,7971.8,7969.9,7971.3
201907191147,7971.3,7971.7,7970.6,7971.1
201907191148,7971.2,7971.9,7969.9,7969.9
201907191149,7969.9,7970,7968.3,7968.6
201907191150,7968.6,7968.8,7968,7968.5
201907191151,7968.5,7968.9,7968.3,7968.7
201907191152,7968.7,7969.2,7968.7,7969
201907191153,7969.2,7969.2,7968,7968.8
201907191154,7968.8,7969.2,7968.7,7968.8
201907191155,7968.8,7969.1,7968.6,7968.9
201907191156,7969,7970.1,7968.9,7969.7
201907191157,7969.7,7970.4,7969.4,7970.2
201907191158,7970.2,7970.4,7969.5,7969.5
201907191159,7969.5,7970.4,7969.5,7970.4
201907191200,7970.4,7970.7,7970.2,7970.6
201907191201,7970.6,7971.4,7970.4,7971.2
201907191202,7971.2,7971.5,7970.9,7971.2
201907191203,7971.1,7971.1,7969.3,7969.5
201907191204,7969.5,7969.7,7968,7968
201907191205,7968,7968.3,7966.9,7967
201907191206,7967,7967.6,7967,7967.3
201907191207,7967.3,7968.2,7966.9,7968.2
201907191208,7968.2,7969.3,7968.2,7968.7
201907191209,7968.7,7969.2,7967.7,7967.7
201907191210,7967.5,7967.9,7967.2,7967.6
201907191211,7967.6,7969.2,7967.6,7969.2
201907191212,7969.2,7969.5,7968.4,7969.4
201907191213,7969.4,7969.4,7968.8,7969.2
201907191214,7969.2,7970.3,7969,7970.3
201907191215,7970.3,7971.2,7970.3,7970.9
201907191216,7970.9,7971.2,7970.2,7970.2
201907191217,7970.2,7970.7,7970,7970.3
201907191218,7970.3,7971.4,7970.3,7970.7
201907191219,7970.7,7970.8,7969.5,7969.5
201907191220,7969.5,7970.2,7968.9,7969.1
201907191221,7969.1,7969.3,7968.9,7969.3
201907191222,7969.3,7969.8,7969.3,7969.7
201907191223,7969.7,7969.7,7969,7969.1
201907191224,7969.2,7969.4,7969,7969
201907191225,7969,7969.2,7968.3,7968.9
201907191226,7968.9,7970.2,7968.9,7969.9
201907191227,7970,7971.1,7970,7970.8
201907191228,7970.8,7971.6,7970.2,7971
201907191229,7971,7971.1,7969.6,7969.6
201907191230,7969.7,7971.4,7969.7,7970.2
201907191231,7970.2,7970.2,7969.5,7969.6
201907191232,7969.6,7969.9,7969.5,7969.8
201907191233,7969.9,7970.8,7969.6,7969.8
201907191234,7969.8,7969.8,7968.3,7968.8
201907191235,7968.8,7969.5,7968.8,7969.3
201907191236,7969.3,7969.6,7967.9,7967.9
201907191237,7967.9,7969.3,7967.4,7968.5
201907191238,7968.5,7968.5,7967.5,7967.9
201907191239,7967.9,7968.1,7967.2,7967.4
201907191240,7967.4,7967.9,7966.9,7967.2
201907191241,7967.2,7967.2,7965.9,7966.4
201907191242,7966.4,7966.6,7966.1,7966.4
201907191243,7966.4,7966.4,7965.9,7966.1
201907191244,7966.1,7966.2,7965.8,7965.9
201907191245,7965.9,7966.6,7965.5,7965.6
201907191246,7965.5,7966.2,7965.4,7966.2
201907191247,7966.2,7966.3,7964.2,7964.3
201907191248,7964.3,7964.3,7963.9,7964.1
201907191249,7964,7964.4,7963.5,7963.6
201907191250,7963.6,7963.6,7963.2,7963.2
201907191251,7963.2,7963.2,7962.5,7962.9
201907191252,7962.9,7964.7,7962.9,7964.7
201907191253,7964.7,7965,7963.7,7964
201907191254,7964,7964,7962.9,7963
201907191255,7963,7963.5,7962.6,7963.3
201907191256,7963.3,7963.5,7962.7,7962.7
201907191257,7962.7,7962.9,7961.9,7962
201907191258,7962.2,7962.4,7962,7962.2
201907191259,7962.2,7963.1,7962,7962.8
201907191300,7962.8,7963,7962.6,7962.9
201907191301,7962.9,7964.1,7962.9,7963.6
201907191302,7963.6,7963.9,7963.2,7963.3
201907191303,7963.3,7963.9,7963.3,7963.7
201907191304,7963.7,7963.9,7962.9,7963
201907191305,7963,7963.2,7962.3,7963
201907191306,7963,7963.3,7962.8,7962.9
201907191307,7962.9,7963,7962.4,7962.9
201907191308,7962.9,7963.3,7962.6,7962.7
201907191309,7962.7,7962.8,7961.9,7962.3
201907191310,7962.3,7963,7962.1,7962.9
201907191311,7962.9,7962.9,7962.6,7962.6
201907191312,7962.6,7963.4,7962.6,7963.4
201907191313,7963.4,7963.6,7963.4,7963.5
201907191314,7963.5,7963.6,7963.4,7963.6
201907191315,7963.6,7963.8,7963.4,7963.7
201907191316,7963.7,7964.8,7963.7,7964.6
201907191317,7964.6,7964.8,7964.3,7964.8
201907191318,7964.8,7965.5,7964.6,7965.4
201907191319,7965.4,7966.1,7965.1,7965.7
201907191320,7965.6,7966.1,7963.7,7964.1
201907191321,7964.1,7964.3,7964.1,7964.2
201907191322,7964.2,7964.2,7962.5,7963
201907191323,7963,7963,7962.1,7962.4
201907191324,7962.4,7963,7962.3,7962.7
201907191325,7962.7,7963.5,7962.7,7963.4
201907191326,7963.3,7963.6,7963.2,7963.3
201907191327,7963.4,7963.4,7962.6,7962.8
201907191328,7962.8,7963,7962.6,7962.7
201907191329,7962.8,7962.9,7962.7,7962.8
201907191330,7962.8,7963,7962.4,7962.4
201907191331,7962.4,7962.4,7960.2,7960.2
201907191332,7960.2,7961,7960.1,7960.8
201907191333,7960.8,7961,7960,7960
201907191334,7960,7960.6,7960,7960.5
201907191335,7960.5,7960.5,7959.5,7959.5
201907191336,7959.5,7959.5,7958.2,7958.9
201907191337,7958.9,7961,7958.9,7960.9
201907191338,7960.9,7962.6,7960.9,7962.2
201907191339,7962.2,7962.8,7962.1,7962.7
201907191340,7962.7,7963.3,7962.7,7963.2
201907191341,7963.2,7964.2,7963.2,7964.2
201907191342,7964.2,7965,7964.1,7964.4
201907191343,7964.4,7965.3,7964.4,7965
201907191344,7965,7965.3,7964.4,7965.2
201907191345,7965.2,7965.3,7964.4,7964.4
201907191346,7964.4,7964.4,7963.5,7963.6
201907191347,7963.7,7964.2,7963.4,7964.1
201907191348,7964.1,7964.9,7963.9,7964.9
201907191349,7964.9,7965.2,7964.9,7964.9
201907191350,7965,7966.1,7964.9,7965.8
201907191351,7965.8,7966.1,7965.6,7965.9
201907191352,7965.9,7966,7965.6,7965.7
201907191353,7965.8,7967.3,7965.8,7966.9
201907191354,7966.9,7967.3,7966,7966.5
201907191355,7966.5,7966.9,7966.1,7966.4
201907191356,7966.4,7966.4,7966,7966
201907191357,7966,7966.1,7965.4,7966.1
201907191358,7966.1,7966.3,7966.1,7966.3
201907191359,7966.3,7966.3,7966,7966.1
201907191400,7966.1,7968.3,7966.1,7967.9
201907191401,7967.9,7968.8,7967.4,7968.8
201907191402,7968.8,7969,7968.1,7968.2
201907191403,7968,7968.3,7967.3,7967.7
201907191404,7967.7,7968.6,7967.7,7968.3
201907191405,7968.3,7969.4,7968.2,7968.5
201907191406,7968.4,7968.4,7967.7,7967.9
201907191407,7967.9,7967.9,7967.5,7967.5
201907191408,7967.5,7967.5,7966.4,7966.6
201907191409,7966.3,7966.4,7965.6,7966.4
201907191410,7966.4,7966.7,7965.7,7965.7
201907191411,7965.7,7966.8,7965.7,7966.8
201907191412,7967.4,7967.9,7967.4,7967.9
201907191413,7967.9,7968.1,7967.1,7967.2
201907191414,7967.2,7967.3,7966.4,7966.7
201907191415,7966.5,7967.1,7966.2,7966.3
201907191416,7966.3,7966.9,7965.9,7966.6
201907191417,7966.6,7966.9,7966.2,7966.5
201907191418,7966.5,7966.7,7965.8,7965.9
201907191419,7965.9,7966.1,7965.4,7965.5
201907191420,7965.5,7966.5,7965.5,7966.1
201907191421,7966.1,7966.3,7965.7,7965.8
201907191422,7965.8,7965.9,7965.4,7965.7
201907191423,7965.7,7966.5,7965.4,7966.5
201907191424,7966.5,7967.3,7966.2,7967.3
201907191425,7967.3,7967.9,7966.7,7967.6
201907191426,7967.6,7967.7,7967.3,7967.4
201907191427,7967.3,7967.3,7966.7,7967.2
201907191428,7967.1,7967.1,7965.8,7965.8
201907191429,7965.8,7965.8,7965.2,7965.2
201907191430,7965.2,7965.4,7963.9,7964.4
201907191431,7964.4,7965.5,7964.1,7965.4
201907191432,7965.4,7965.9,7965,7965.9
201907191433,7965.9,7966.2,7965,7965.7
201907191434,7965.7,7965.7,7963.7,7963.8
201907191435,7963.9,7964,7963.2,7963.5
201907191436,7963.5,7963.5,7962.6,7962.9
201907191437,7962.9,7963.6,7962.7,7963.1
201907191438,7963.1,7963.7,7963.1,7963.7
201907191439,7963.7,7963.7,7962.9,7963.1
201907191440,7963.1,7963.3,7962.8,7962.9
201907191441,7962.9,7964.2,7962.9,7964.2
201907191442,7964.2,7964.9,7964,7964.8
201907191443,7964.6,7965.1,7964.4,7964.9
201907191444,7964.9,7965.2,7964.2,7965
201907191445,7965,7965.1,7964.2,7964.4
201907191446,7964.4,7964.4,7963.8,7963.9
201907191447,7963.9,7964.2,7963.4,7963.7
201907191448,7963.7,7964,7962.7,7962.9
201907191449,7962.8,7964.1,7962.8,7963.4
201907191450,7963.4,7963.4,7961.3,7961.4
201907191451,7961.4,7962,7961.2,7961.9
201907191452,7961.9,7962.8,7961.9,7962.8
201907191453,7962.8,7963.3,7961.9,7963.2
201907191454,7963.1,7963.2,7962.5,7962.9
201907191455,7962.9,7963.1,7962.4,7962.9
201907191456,7962.9,7963.8,7962.4,7963.6
201907191457,7963.6,7964.2,7963.3,7964.2
201907191458,7964.2,7964.5,7963.4,7963.5
201907191459,7963.5,7963.5,7961.7,7961.8
201907191500,7961.9,7962.1,7960.1,7961.9
201907191501,7961.8,7963.1,7961.8,7963.1
201907191502,7963.1,7964,7962.8,7963.8
201907191503,7963.8,7964,7962.4,7963.3
201907191504,7963.3,7963.3,7962.9,7963.2
201907191505,7963.2,7963.2,7962.4,7963
201907191506,7963,7963,7961.9,7961.9
201907191507,7961.9,7962.8,7961.9,7962.1
201907191508,7962.1,7962.9,7962.1,7962.4
201907191509,7962.4,7963.1,7961.9,7963.1
201907191510,7963.2,7964.8,7962.7,7964.6
201907191511,7964.6,7965,7963.7,7963.9
201907191512,7963.9,7963.9,7960,7960.3
201907191513,7960.5,7962.8,7960.5,7962.8
201907191514,7962.8,7962.9,7960,7960.2
201907191515,7960.2,7960.4,7959.5,7960.1
201907191516,7960.1,7960.5,7959.9,7960.5
201907191517,7960.5,7961,7960.1,7960.6
201907191518,7960.6,7960.8,7960.4,7960.4
201907191519,7960.4,7960.7,7960,7960.1
201907191520,7960.1,7960.1,7958.7,7959.8
201907191521,7959.8,7960.1,7959.5,7960.1
201907191522,7960,7960,7959.2,7959.3
201907191523,7959.3,7959.8,7959.2,7959.8
201907191524,7959.8,7961.9,7959.3,7961.8
201907191525,7961.8,7962.3,7961.3,7962.3
201907191526,7962.3,7962.3,7961.7,7962.1
201907191527,7962.1,7962.9,7962,7962.2
201907191528,7962.2,7963.6,7962.2,7963.1
201907191529,7963.1,7963.1,7961.9,7961.9
201907191530,7961.9,7962.1,7960.7,7960.9
201907191531,7960.9,7961,7960.3,7960.5
201907191532,7960.6,7961,7960.2,7960.2
201907191533,7960.2,7960.5,7960.1,7960.3
201907191534,7960.3,7960.9,7960,7960.4
201907191535,7960.3,7960.3,7958.3,7958.3
201907191536,7958.3,7958.4,7957.7,7957.8
201907191537,7957.8,7958.6,7957.2,7957.3
201907191538,7957.3,7957.5,7957,7957.3
201907191539,7957.3,7957.6,7957.1,7957.5
201907191540,7957.5,7957.5,7956.4,7956.9
201907191541,7956.9,7957.3,7956.7,7956.7
201907191542,7956.7,7956.7,7955.9,7955.9
201907191543,7955.9,7956.8,7955.9,7956.3
201907191544,7956.3,7956.7,7955.7,7956.7
201907191545,7956.5,7957.1,7956,7957.1
201907191546,7957.1,7958.7,7957,7957
201907191547,7957,7957,7955.1,7955.2
201907191548,7955.2,7955.2,7954.1,7955
201907191549,7955,7955.3,7954.2,7954.3
201907191550,7954.5,7956.4,7954.5,7955.9
201907191551,7955.8,7957.1,7955.8,7957.1
201907191552,7957.1,7958.1,7956.9,7958.1
201907191553,7958.1,7958.5,7957.7,7958.1
201907191554,7958.1,7959.5,7957.9,7959.1
201907191555,7959.2,7959.6,7958.6,7958.6
201907191556,7958.3,7958.5,7957.1,7957.1
201907191557,7957.1,7957.7,7956.7,7956.7
201907191558,7956.7,7956.7,7956,7956.2
201907191559,7956.2,7956.3,7955.2,7955.3
201907191600,7955.3,7955.6,7953.5,7953.9
201907191601,7953.9,7955.3,7953,7955.3
201907191602,7955.3,7956.9,7955.1,7956.1
201907191603,7956,7956.8,7954.9,7956.3
201907191604,7956.3,7958.8,7956.3,7958.2
201907191605,7958.2,7961.5,7957.5,7960.9
201907191606,7960.9,7962.5,7960.9,7961.3
201907191607,7961.4,7961.5,7960.4,7961.3
201907191608,7961.1,7962.5,7961.1,7961.8
201907191609,7961.8,7961.8,7959.8,7960.1
201907191610,7960.1,7961,7959.7,7960.8
201907191611,7960.9,7962.8,7960.9,7962.1
201907191612,7962.1,7962.3,7960.9,7960.9
201907191613,7960.9,7961.3,7958.9,7959.2
201907191614,7959,7959.2,7956.8,7958.5
201907191615,7958.8,7960.9,7958.4,7960.9
201907191616,7960.9,7961.6,7960.4,7961.3
201907191617,7961.3,7961.8,7960.4,7960.4
201907191618,7960.4,7960.8,7960.2,7960.4
201907191619,7960.4,7960.4,7959.3,7959.5
201907191620,7959.5,7960.5,7959,7960.5
201907191621,7960.5,7961.5,7959.9,7961
201907191622,7961,7962.5,7961,7962.4
201907191623,7962.4,7963.8,7962.3,7963.6
201907191624,7963.6,7963.7,7962.5,7963
201907191625,7963,7964.2,7962.6,7963.2
201907191626,7963.2,7963.3,7960.9,7961.3
201907191627,7961.3,7962.7,7960.9,7961.6
201907191628,7961.6,7962.2,7961.3,7962.1
201907191629,7962.1,7962.8,7962.1,7962.2
201907191630,7962.3,7962.4,7961.3,7962.1
201907191631,7962.1,7965.2,7962.1,7964.8
201907191632,7964.8,7964.8,7963.2,7963.8
201907191633,7963.8,7964.9,7963.7,7964.4
201907191634,7964.4,7965.2,7964.4,7964.4
201907191635,7964.4,7965,7963.9,7964.4
201907191636,7964.4,7965.2,7964.3,7965
201907191637,7965,7965,7963.7,7963.9
201907191638,7963.8,7964.5,7963.3,7964.4
201907191639,7964.4,7965,7964.2,7964.7
201907191640,7964.7,7965.5,7963.8,7963.9
201907191641,7963.9,7964,7962.8,7963.7
201907191642,7963.5,7963.7,7962.9,7963.1
201907191643,7963.1,7964.1,7963.1,7963.9
201907191644,7963.9,7964,7962.4,7962.7
201907191645,7962.7,7963.1,7961.6,7963.1
201907191646,7963,7963.3,7962.7,7963.2
201907191647,7963.2,7963.4,7962.7,7962.9
201907191648,7962.9,7963.8,7962.4,7963.8
201907191649,7963.9,7966.8,7963.9,7966.5
201907191650,7966.5,7969.8,7966.4,7968
201907191651,7968,7970.3,7967.3,7970
201907191652,7970,7970,7967.7,7967.8
201907191653,7967.8,7968.3,7966.8,7968.3
201907191654,7968.3,7968.7,7967.6,7968
201907191655,7968,7968.2,7966.9,7966.9
201907191656,7966.9,7967.3,7966.4,7967.3
201907191657,7967.3,7968.1,7965.6,7966.4
201907191658,7966.4,7966.4,7965.4,7965.9
201907191659,7965.9,7965.9,7965.3,7965.6
201907191700,7965.5,7965.9,7964.9,7965.9
201907191701,7965.9,7966.6,7965.8,7966.2
201907191702,7966.1,7966.1,7964.3,7964.3
201907191703,7964.3,7965.8,7963.8,7965.8
201907191704,7965.9,7966.3,7965.4,7966.1
201907191705,7966.2,7967.5,7965.8,7967.4
201907191706,7967.4,7967.7,7966.6,7967.2
201907191707,7967.2,7968.6,7967.2,7968
201907191708,7968,7968.4,7966.7,7967.8
201907191709,7967.9,7968.8,7967.3,7968.8
201907191710,7968.6,7971.5,7968.4,7971.3
201907191711,7971.3,7972,7970.9,7971.6
201907191712,7971.6,7971.6,7969.3,7969.8
201907191713,7969.9,7970.9,7969.5,7970.7
201907191714,7970.7,7971.3,7969.4,7969.6
201907191715,7969.6,7971.5,7969.4,7971.4
201907191716,7971.4,7971.6,7970,7970.3
201907191717,7970.3,7970.3,7969.9,7969.9
201907191718,7969.9,7971.3,7969.7,7971.3
201907191719,7971.1,7971.1,7970.6,7970.7
201907191720,7970.5,7970.9,7970.1,7970.6
201907191721,7970.6,7971,7970,7970.8
201907191722,7970.7,7971,7969.8,7970
201907191723,7970,7970.3,7969.6,7969.8
201907191724,7969.8,7969.8,7969.2,7969.8
201907191725,7969.8,7969.8,7969,7969.8
201907191726,7969.8,7970.1,7969.3,7970.1
201907191727,7970.1,7970.2,7969,7969.4
201907191728,7969.4,7971,7969.4,7970.3
201907191729,7970.3,7971.3,7970.3,7971.2
201907191730,7971.2,7971.3,7969.7,7970.5
201907191731,7970.5,7970.5,7969.4,7969.6
201907191732,7969.5,7970.8,7969.3,7970.6
201907191733,7970.6,7971.1,7970.1,7970.1
201907191734,7970.1,7970.3,7969.5,7969.7
201907191735,7969.7,7969.8,7968.2,7968.8
201907191736,7968.8,7968.8,7967.3,7968.3
201907191737,7968.3,7968.4,7967.2,7968.1
201907191738,7968.1,7969,7967.9,7968
201907191739,7968,7968.4,7967.7,7967.7
201907191740,7967.6,7968.7,7967.6,7968.7
201907191741,7968.8,7969.9,7968.8,7969.5
201907191742,7969.5,7970.3,7968.4,7968.5
201907191743,7968.5,7969.3,7968,7968.5
201907191744,7968.5,7968.7,7966,7966
201907191745,7966.2,7967.8,7966.1,7966.5
201907191746,7966.4,7966.5,7964.4,7964.4
201907191747,7964.4,7965,7963.9,7964.4
201907191748,7964.4,7965.8,7963.4,7965.8
201907191749,7965.8,7966.1,7965.3,7965.5
201907191750,7965.6,7966.8,7965.4,7966.4
201907191751,7966.4,7968.8,7966.2,7968.5
201907191752,7968.5,7969.3,7967.8,7968.6
201907191753,7968.6,7970,7968.6,7969.2
201907191754,7969.1,7969.3,7968.4,7969.2
201907191755,7969.2,7969.3,7968.1,7968.9
201907191756,7968.9,7969,7968.2,7968.9
201907191757,7968.9,7969.1,7968.1,7968.3
201907191758,7968.3,7968.3,7967.7,7968.1
201907191759,7968.1,7968.4,7967.6,7968.1
201907191800,7968.1,7968.2,7965.6,7965.6
201907191801,7965.6,7965.7,7963.6,7964.2
201907191802,7964.3,7964.6,7963.7,7964
201907191803,7964.1,7964.3,7962.7,7962.8
201907191804,7962.8,7964.3,7962.8,7964.3
201907191805,7964.3,7964.8,7964,7964.5
201907191806,7964.5,7964.7,7964.2,7964.3
201907191807,7964.4,7966.1,7964.3,7965.8
201907191808,7965.8,7966.5,7965.7,7965.7
201907191809,7965.7,7966.3,7965.2,7965.8
201907191810,7965.9,7965.9,7963.9,7964.7
201907191811,7964.6,7964.8,7962.7,7963.8
201907191812,7963.9,7964.8,7963.6,7964.8
201907191813,7964.8,7964.8,7963.6,7964.1
201907191814,7964.2,7964.3,7963.4,7963.4
201907191815,7963.4,7963.4,7962.3,7963.3
201907191816,7963.3,7964.1,7963.3,7964
201907191817,7963.9,7963.9,7962.7,7963
201907191818,7963,7964.5,7962.7,7963.6
201907191819,7963.6,7964.8,7963.6,7964.7
201907191820,7964.7,7964.7,7963.9,7964.4
201907191821,7964.4,7965.6,7964.3,7965.2
201907191822,7965.2,7965.8,7965,7965.4
201907191823,7965.2,7965.3,7964.3,7964.7
201907191824,7964.7,7965.1,7964.1,7965.1
201907191825,7965.1,7965.1,7962.3,7962.3
201907191826,7962.5,7962.5,7959.9,7959.9
201907191827,7959.9,7961,7959.3,7960.3
201907191828,7960.3,7961.5,7959.8,7961.4
201907191829,7961.4,7962.6,7961.3,7962.6
201907191830,7962.6,7963.1,7961.4,7962.9
201907191831,7962.9,7963.8,7962.9,7963.4
201907191832,7963.4,7964.3,7961.3,7964.2
201907191833,7964.2,7964.3,7963.3,7964.3
201907191834,7964.3,7964.3,7962.8,7962.8
201907191835,7962.8,7963,7961.1,7961.6
201907191836,7961.6,7961.6,7960.7,7960.7
201907191837,7960.7,7961.2,7960,7960.4
201907191838,7960.4,7960.6,7958.9,7959.8
201907191839,7959.8,7961.1,7959.2,7960.4
201907191840,7960.4,7961.2,7959.4,7961.2
201907191841,7961.2,7961.4,7960.4,7960.6
201907191842,7960.6,7961.2,7959.8,7960.1
201907191843,7960.1,7961.5,7959.2,7961.3
201907191844,7961.3,7961.7,7960.9,7961.2
201907191845,7961.2,7962.4,7961.2,7961.8
201907191846,7961.8,7962.2,7960,7960.7
201907191847,7960.7,7961.6,7960.1,7961.4
201907191848,7961.4,7961.8,7961.3,7961.8
201907191849,7961.9,7965,7961.6,7964.8
201907191850,7964.8,7964.8,7960.9,7961.2
201907191851,7961.7,7961.7,7953.9,7954.5
201907191852,7954.5,7956.4,7954.2,7954.6
201907191853,7954.6,7954.6,7953.1,7953.3
201907191854,7953.3,7955.8,7952.2,7955
201907191855,7955,7955.9,7954.4,7955.7
201907191856,7955.7,7955.7,7953.9,7955.6
201907191857,7955.7,7955.8,7954.6,7955.8
201907191858,7955.8,7956.6,7954.9,7956.6
201907191859,7956.6,7956.6,7954.6,7954.9
201907191900,7954.6,7956.6,7954.6,7956.2
201907191901,7956.1,7956.3,7954.6,7955.2
201907191902,7955.2,7957,7955.1,7956.9
201907191903,7956.8,7956.8,7955.4,7956.3
201907191904,7956.3,7956.5,7956,7956.4
201907191905,7956.3,7956.7,7955.9,7956.4
201907191906,7956.4,7957.8,7956.1,7956.5
201907191907,7956.6,7957.1,7956.2,7956.9
201907191908,7956.9,7956.9,7950.7,7951.2
201907191909,7951,7951,7946.4,7949
201907191910,7949,7949.6,7947.9,7949.5
201907191911,7949.5,7950.4,7948.9,7950.1
201907191912,7950.1,7950.5,7949.1,7949.1
201907191913,7949.1,7949.4,7947.9,7949.1
201907191914,7949.2,7949.2,7946.5,7948.1
201907191915,7948,7948.3,7946,7947.8
201907191916,7947.9,7949.1,7947.6,7948.8
201907191917,7948.8,7949.5,7948.4,7949.3
201907191918,7949.3,7950,7948.3,7949.7
201907191919,7949.7,7951,7949.4,7950.8
201907191920,7950.9,7951.4,7949.7,7949.8
201907191921,7949.8,7952,7949.8,7951.9
201907191922,7951.9,7953.7,7951.9,7953.1
201907191923,7953.1,7953.4,7952.4,7953.1
201907191924,7953.1,7954.4,7952,7954.1
201907191925,7954.1,7955.3,7953.6,7955.1
201907191926,7955.1,7955.2,7953.9,7954.9
201907191927,7954.9,7955.1,7954.2,7954.2
201907191928,7954.2,7954.2,7951.9,7952.4
201907191929,7952.4,7953.5,7952.4,7952.9
201907191930,7952.9,7953.3,7951.5,7952.7
201907191931,7952.7,7952.7,7950.7,7950.8
201907191932,7950.8,7952.4,7950.7,7951.4
201907191933,7951.4,7951.4,7949.9,7950.3
201907191934,7950.3,7950.6,7948.9,7949.4
201907191935,7949.4,7952,7949.4,7950.9
201907191936,7950.9,7950.9,7949.7,7950.4
201907191937,7950.1,7950.8,7949.9,7950.6
201907191938,7950.6,7954.1,7950.6,7953.8
201907191939,7953.7,7954.9,7953.7,7954.7
201907191940,7954.6,7954.6,7952.8,7953.4
201907191941,7953.3,7953.3,7950.8,7951.1
201907191942,7951.1,7951.5,7949.3,7951.3
201907191943,7951.3,7951.3,7949.2,7949.8
201907191944,7949.8,7950.6,7949.2,7949.2
201907191945,7949.2,7950.9,7948.8,7949.4
201907191946,7949.4,7950.3,7948.2,7948.2
201907191947,7948.2,7948.4,7946.4,7947.1
201907191948,7947.1,7947.9,7945.8,7945.8
201907191949,7945.8,7946.4,7945,7945.4
201907191950,7945.4,7946,7942.7,7942.8
201907191951,7942.8,7945.1,7942.6,7944.8
201907191952,7944.8,7945.8,7944.6,7945.6
201907191953,7945.6,7945.6,7944.2,7944.2
201907191954,7944.1,7944.6,7942.7,7944.1
201907191955,7944.1,7947.3,7944.1,7947.3
201907191956,7947.3,7947.3,7944.9,7945.3
201907191957,7945.3,7947.3,7945.3,7947.3
201907191958,7947.3,7947.3,7941,7941.4
201907191959,7942.8,7943.3,7941.8,7943.1
201907192000,7943.2,7944.5,7941.1,7943.4
201907192001,7943.4,7945.6,7943.2,7945.6
201907192002,7945.6,7945.7,7944.6,7945.6
201907192003,7945.6,7945.6,7943.4,7943.9
201907192004,7943.8,7943.8,7941.4,7941.4
201907192005,7941.4,7942.3,7939.4,7939.4
201907192006,7939.4,7939.7,7938.7,7939.6
201907192007,7939.7,7942.9,7939.3,7942.8
201907192008,7942.8,7944.6,7937.8,7939.1
201907192009,7939.1,7941.6,7937.6,7940.7
201907192010,7940.7,7942,7940.1,7940.8
201907192011,7940.6,7941.3,7940.1,7941.3
201907192012,7941.3,7942.3,7941,7941.4
201907192013,7941.4,7942.6,7941.4,7942.1
201907192014,7942.1,7942.2,7940.7,7941.1
201907192015,7941.1,7941.5,7939,7940.3
201907192016,7940.3,7942.9,7940.1,7942.6
201907192017,7942.6,7943,7940.9,7941.1
201907192018,7941.1,7942.8,7940.9,7942.6
201907192019,7942.7,7944.6,7942.4,7944.6
201907192020,7944.5,7945.7,7944.1,7944.3
201907192021,7944.3,7944.8,7943.2,7944.1
201907192022,7944.2,7944.3,7942.8,7943.7
201907192023,7943.6,7945.1,7943.5,7944.3
201907192024,7944.3,7944.9,7943.9,7944
201907192025,7944,7945,7943.4,7944.9
201907192026,7944.9,7946.5,7944.5,7946.1
201907192027,7946.1,7947.8,7946,7947.6
201907192028,7947.6,7948.8,7947.6,7948.4
201907192029,7948.4,7950.5,7948,7949.2
201907192030,7949.3,7949.3,7948.4,7948.4
201907192031,7948.4,7948.8,7944.4,7946.4
201907192032,7946.3,7947.1,7945.8,7946.9
201907192033,7947,7947.4,7946.6,7946.7
201907192034,7946.7,7946.8,7946,7946
201907192035,7946,7947.9,7946,7947.9
201907192036,7947.9,7949.5,7947.6,7949
201907192037,7949,7949.3,7948.2,7948.3
201907192038,7948.3,7950.5,7948.3,7950.1
201907192039,7950.2,7950.8,7949.9,7950.3
201907192040,7950.3,7951,7949.4,7950.9
201907192041,7950.9,7951.1,7950.3,7950.3
201907192042,7950.3,7951.3,7949.9,7951.3
201907192043,7951.3,7952.1,7951.3,7951.6
201907192044,7951.6,7953.2,7951.6,7952.7
201907192045,7952.4,7952.6,7951.7,7952.4
201907192046,7952.3,7952.3,7951.4,7951.5
201907192047,7951.7,7952.3,7951.1,7951.6
201907192048,7951.5,7951.7,7950.6,7951.1
201907192049,7951.1,7952.5,7950.8,7952.3
201907192050,7952.3,7953.4,7951.5,7952.4
201907192051,7952.4,7953.5,7952.4,7953
201907192052,7953,7953.1,7952.8,7952.9
201907192053,7952.9,7953.4,7952.7,7953.2
201907192054,7953,7953.3,7952.5,7952.8
201907192055,7952.8,7952.8,7952.3,7952.6
201907192056,7952.6,7952.8,7951.2,7951.4
201907192057,7951.4,7951.8,7950.9,7951.3
201907192058,7951.3,7951.3,7950.2,7950.5
201907192059,7950.5,7951,7950.2,7950.2
201907192100,7950.2,7950.4,7949.2,7950
201907192101,7950.1,7951.3,7950.1,7950.9
201907192102,7950.9,7951.5,7950.4,7951.1
201907192103,7951.1,7951.2,7950.2,7950.3
201907192104,7950.4,7951.3,7950.2,7951.1
201907192105,7951.1,7951.5,7950.4,7950.4
201907192106,7950.3,7950.4,7948.3,7948.3
201907192107,7948.4,7949.8,7948.4,7949.6
201907192108,7949.7,7950.5,7949.4,7950
201907192109,7950.1,7951.7,7950,7951
201907192110,7951.1,7951.1,7949.3,7949.6
201907192111,7949.5,7950.6,7949.2,7950.6
201907192112,7950.6,7950.7,7948.8,7949.4
201907192113,7949.4,7950.2,7949.4,7949.6
201907192114,7949.6,7951.2,7949.2,7951.2
201907192115,7951.2,7953.3,7951.2,7952.2
201907192116,7952.1,7954.8,7952.1,7954.6
201907192117,7954.6,7955,7954.2,7954.8
201907192118,7954.9,7955.8,7954.6,7955.4
201907192119,7955.3,7956.7,7954.7,7956
201907192120,7956,7957,7955.1,7956.5
201907192121,7956.5,7956.5,7954.3,7955.1
201907192122,7955.1,7955.3,7953.4,7954.8
201907192123,7954.9,7955.1,7954.3,7954.7
201907192124,7954.7,7956,7954.4,7956
201907192125,7956,7956,7954.4,7955.3
201907192126,7955.3,7956.3,7954.5,7956.3
201907192127,7956.4,7956.4,7955.4,7955.4
201907192128,7955.4,7956.5,7955.4,7956.5
201907192129,7956.5,7959.4,7956.4,7959
201907192130,7959,7959,7956.7,7957.9
201907192131,7957.9,7960.4,7957.2,7957.8
201907192132,7957.8,7958.3,7956.3,7956.3
201907192133,7956.3,7956.3,7954.9,7955.1
201907192134,7955.1,7956.1,7954.7,7954.7
201907192135,7954.7,7955.4,7953.7,7953.8
201907192136,7953.8,7955.7,7953.4,7953.6
201907192137,7953.7,7954.1,7952.2,7952.4
201907192138,7952.4,7954.9,7952.4,7954.9
201907192139,7954.9,7955.5,7953.7,7953.7
201907192140,7953.7,7954.1,7952,7952.5
201907192141,7952.5,7953.8,7951.4,7951.6
201907192142,7951.6,7953.1,7950.9,7952.5
201907192143,7952.5,7953.1,7951.5,7953.1
201907192144,7953.1,7953.1,7951.9,7952.8
201907192145,7952.8,7955.3,7952.8,7954.5
201907192146,7954.5,7955.6,7954.5,7955.6
201907192147,7955.5,7955.9,7953.9,7955.3
201907192148,7955.4,7956.3,7954.6,7956
201907192149,7956,7957.2,7955.4,7956.6
201907192150,7956.6,7958.5,7956.4,7957.9
201907192151,7957.9,7958.5,7956.8,7957.6
201907192152,7957.6,7959.6,7957.6,7959.3
201907192153,7959.6,7960,7958,7958.2
201907192154,7958.2,7959.5,7958.1,7959.3
201907192155,7959.3,7959.3,7957.3,7958.7
201907192156,7958.7,7959.5,7958.4,7959.2
201907192157,7959.2,7961.3,7958.9,7961.3
201907192158,7961.3,7964.4,7961.3,7964.1
201907192159,7964.1,7965.9,7964.1,7965.2
201907192200,7965.2,7966.3,7963.2,7966.1
201907192201,7966.1,7966.9,7964.8,7964.9
201907192202,7964.8,7965.3,7963.6,7964.5
201907192203,7964.5,7964.5,7963.2,7964.2
201907192204,7964.1,7964.3,7962.4,7963.6
201907192205,7963.4,7963.9,7963,7963.6
201907192206,7963.7,7965.3,7963.7,7964.9
201907192207,7964.8,7965,7963,7963.1
201907192208,7963.1,7964.8,7962.9,7964.6
201907192209,7964.6,7965,7963.2,7964.6
201907192210,7964.6,7964.6,7963.4,7964.2
201907192211,7964.2,7965.1,7963.9,7965.1
201907192212,7965.1,7965.1,7962.8,7963.8
201907192213,7963.8,7964.5,7962.9,7963
201907192214,7963,7964.8,7962.9,7964
201907192215,7964,7964.1,7962.1,7962.4
201907192216,7962.4,7964.7,7962.4,7964.5
201907192217,7964.6,7964.8,7963.7,7964.2
201907192218,7964.2,7964.2,7962.8,7963.1
201907192219,7963.1,7964.1,7962.5,7963.4
201907192220,7962.8,7964.5,7962.4,7963.6
201907192221,7963.6,7963.8,7961.4,7962.4
201907192222,7962.3,7964.9,7962.1,7964.6
201907192223,7964.6,7968.3,7963.5,7967.4
201907192224,7967.3,7967.3,7965,7965
201907192225,7965,7965.9,7964.1,7965.2
201907192226,7965.2,7966.4,7964.9,7965.8
201907192227,7965.8,7967.8,7965.1,7967.8
201907192228,7967.8,7980.1,7967.8,7973.8
201907192229,7973.6,7977.5,7973.2,7975.1
201907192230,7975.1,7975.1,7962.3,7965.8
201907192231,7965.8,7967.2,7960.5,7961.3
201907192232,7961.4,7962.8,7955,7959
201907192233,7959,7961,7957.1,7959.9
201907192234,7959.3,7959.9,7956.3,7959.7
201907192235,7959.3,7961.7,7957.3,7958.3
201907192236,7958.3,7961.6,7957.1,7957.6
201907192237,7957.6,7960,7953.7,7954.8
201907192238,7954.5,7956.2,7951.6,7954.3
201907192239,7954.4,7956.8,7951.3,7954.4
201907192240,7954.4,7955,7951.5,7953.5
201907192241,7953.7,7957.5,7951.2,7957.2
201907192242,7956.9,7959.2,7956.1,7957.9
201907192243,7957.9,7958.3,7954.1,7955.7
201907192244,7955.4,7955.9,7949.2,7950.9
201907192245,7950.9,7952.8,7948.1,7952.1
201907192246,7952.1,7956.6,7951.2,7953.7
201907192247,7953.7,7955.3,7952.2,7953.8
201907192248,7953.8,7954.2,7948.9,7949.7
201907192249,7949.7,7952,7947.4,7950.8
201907192250,7951,7953.4,7948.5,7949.5
201907192251,7949.4,7951,7947,7948.7
201907192252,7948.7,7949.8,7944,7944.1
201907192253,7943.9,7947,7943.2,7943.4
201907192254,7943.4,7946,7943.2,7944.8
201907192255,7944.9,7946.6,7941.4,7942.8
201907192256,7942.3,7944.6,7942.3,7943.6
201907192257,7943.6,7944.4,7942.1,7942.1
201907192258,7942.1,7948.2,7941.5,7947.9
201907192259,7947.9,7950.3,7947.5,7949.6
201907192300,7949.6,7953.2,7948.9,7952.1
201907192301,7952.2,7954.1,7950.1,7950.4
201907192302,7950.4,7952.2,7948.7,7949.2
201907192303,7949.4,7950.6,7947.5,7949.5
201907192304,7949.5,7953.6,7949.5,7953.1
201907192305,7953.2,7953.5,7949.7,7949.8
201907192306,7949.6,7950.2,7944,7944.5
201907192307,7944.5,7944.7,7938.5,7940.4
201907192308,7940.4,7941.8,7935.5,7936.5
201907192309,7936.4,7937.2,7932.5,7932.9
201907192310,7932.9,7937.1,7930.4,7936.4
201907192311,7936.4,7938.5,7934.6,7938.1
201907192312,7938,7938.5,7934.4,7936.2
201907192313,7936.1,7938.4,7935.7,7937.7
201907192314,7937.7,7938.8,7934.9,7936.2
201907192315,7936.2,7939.5,7935.5,7939.4
201907192316,7939.4,7941.2,7938.4,7939.6
201907192317,7939.7,7942.7,7938.9,7942.4
201907192318,7942.2,7949.9,7942.2,7948.9
201907192319,7948.9,7949.2,7946.1,7946.1
201907192320,7946.1,7949.5,7946,7946.7
201907192321,7946.7,7946.7,7941,7941.8
201907192322,7941.8,7943.5,7939,7943.2
201907192323,7943,7943.7,7940.9,7942.4
201907192324,7942.3,7943.9,7942,7942.9
201907192325,7942.9,7945.6,7941.9,7945.6
201907192326,7945.5,7947.1,7942.1,7942.2
201907192327,7942,7942.5,7935.4,7935.4
201907192328,7935.4,7935.4,7930.1,7934.6
201907192329,7934.6,7938.6,7933.7,7937.9
201907192330,7937.9,7940.1,7936,7939.9
201907192331,7940.3,7941.9,7938.2,7939.1
201907192332,7939.1,7941.3,7938.3,7940.5
201907192333,7940.5,7940.5,7934.7,7935.1
201907192334,7935.1,7935.3,7932.2,7932.4
201907192335,7932.4,7934.8,7930.9,7932.9
201907192336,7932.9,7936.5,7932.2,7934.9
201907192337,7935.3,7935.8,7931.9,7932.1
201907192338,7932.1,7932.9,7928.3,7930.5
201907192339,7930.4,7935,7930.4,7931.9
201907192340,7931.9,7933.2,7930,7930.4
201907192341,7930.4,7932.9,7929.3,7932.4
201907192342,7932.4,7936.2,7931.1,7935.7
201907192343,7935.7,7935.9,7930.3,7930.4
201907192344,7930.5,7935.3,7930,7933.4
201907192345,7933.3,7934.5,7930.1,7930.2
201907192346,7930.2,7930.2,7924.4,7925.7
201907192347,7925.7,7927.6,7924.9,7927.5
201907192348,7927.5,7927.5,7924.6,7924.8
201907192349,7924.8,7925,7919.9,7920.6
201907192350,7920.6,7923.4,7919.7,7920.6
201907192351,7920.4,7920.4,7917.9,7918.3
201907192352,7918.3,7921.5,7918.3,7920.9
201907192353,7920.9,7922.9,7919.2,7921.7
201907192354,7921.7,7921.9,7919.6,7921.1
201907192355,7921.1,7921.1,7917,7918.2
201907192356,7918.2,7922,7917.9,7921.4
201907192357,7921.4,7925.1,7921.4,7925
201907192358,7925.4,7932.3,7925.4,7932.2
201907192359,7932.2,7932.5,7927.5,7927.6
201907200000,7927.6,7928.2,7922.9,7926.4
201907200001,7926.5,7930,7926.5,7929.9
201907200002,7929.8,7931.2,7928.1,7928.7
201907200003,7928.6,7931,7928.2,7928.3
201907200004,7928.2,7931.9,7928.2,7930.6
201907200005,7930.6,7930.8,7926.4,7928.5
201907200006,7928.4,7934.4,7928.4,7934.3
201907200007,7934.3,7936.9,7933.4,7936.7
201907200008,7936.7,7937.8,7936.2,7937.2
201907200009,7937.2,7937.9,7935.3,7936.9
201907200010,7936.9,7938,7934,7936.3
201907200011,7936.3,7938.1,7936.2,7937.4
201907200012,7937.4,7940.1,7937.1,7938.1
201907200013,7938.1,7942.1,7937.9,7941.8
201907200014,7941.8,7944.3,7940.2,7940.9
201907200015,7940.8,7941.2,7938.7,7940.3
201907200016,7940.2,7941,7938.8,7940.4
201907200017,7940.4,7943.6,7940.3,7941.7
201907200018,7941.7,7943.9,7940.6,7941.3
201907200019,7941.3,7942.1,7940.2,7941.6
201907200020,7941.6,7943.2,7940.3,7940.3
201907200021,7940.3,7940.4,7938.5,7938.5
201907200022,7938.4,7938.5,7934.7,7937.2
201907200023,7937.2,7939.6,7935.7,7939.3
201907200024,7939.3,7940.5,7938.7,7938.9
201907200025,7938.8,7939.4,7936.9,7937
201907200026,7937,7937.3,7935.2,7935.9
201907200027,7935.9,7936.2,7932.9,7933.6
201907200028,7933.6,7934.3,7930.5,7931
201907200029,7931,7932.8,7930,7931.3
201907200030,7931.3,7934.7,7931.1,7932.4
201907200031,7932.4,7932.6,7929.1,7931.4
201907200032,7931.4,7931.9,7929.1,7931.2
201907200033,7931.2,7932.9,7930.1,7932.9
201907200034,7933,7933,7930.2,7931.2
201907200035,7931.2,7931.9,7928.9,7929.1
201907200036,7929.1,7929.2,7924.7,7925.1
201907200037,7925,7927.1,7924,7924.9
201907200038,7924.9,7926.5,7922.8,7922.8
201907200039,7922.9,7922.9,7916.2,7916.9
201907200040,7916.9,7917,7904.1,7906
201907200041,7906,7909.8,7905,7909.4
201907200042,7909.4,7910.8,7905,7907.6
201907200043,7907.5,7908.8,7906.2,7907
201907200044,7906.9,7907.6,7904.5,7905.2
201907200045,7905.2,7905.5,7902.3,7902.5
201907200046,7902.4,7904.4,7902.1,7902.1
201907200047,7902.1,7905.5,7900.5,7901.1
201907200048,7901.1,7902.8,7900,7902
201907200049,7901.8,7905.3,7900.4,7905.3
201907200050,7905.4,7908.6,7905,7906.9
201907200051,7906.9,7906.9,7903.1,7904.3
201907200052,7904.6,7907.1,7902.6,7903.7
201907200053,7903.7,7904.5,7902.8,7904.2
201907200054,7904.2,7907.3,7904.2,7907.2
201907200055,7907.3,7907.9,7904.5,7906.9
201907200056,7906.9,7908.8,7906.4,7908.7
201907200057,7908.7,7910.5,7908.4,7909.4
201907200058,7909.4,7912.3,7909,7911.9
201907200059,7912,7912.5,7910.4,7912.1
201907200100,7912.1,7913.9,7911.3,7913.3
201907200101,7913.3,7916.4,7912.9,7916.2
201907200102,7916.2,7917,7915,7917
201907200103,7917,7918.9,7915.9,7918.7
201907200104,7918.7,7919.4,7918,7918.9
201907200105,7919,7919.4,7916.4,7918.3
201907200106,7918.4,7918.5,7917,7917.2
201907200107,7917.4,7918.3,7916.1,7918
201907200108,7918,7921.8,7917.7,7919.9
201907200109,7919.9,7920.9,7918.7,7919.9
201907200110,7920,7921.7,7920,7921.1
201907200111,7920.9,7921.5,7918.8,7919.2
201907200112,7919.4,7920.7,7919.2,7920.4
201907200113,7920.4,7924.2,7920.4,7924
201907200114,7924,7925.1,7923.2,7924.9
201907200115,7924.9,7925.6,7923.2,7924.8
201907200116,7924.8,7924.8,7922.4,7923
201907200117,7923.2,7924.9,7922.2,7922.4
201907200118,7922.4,7923,7921.6,7922.3
201907200119,7922.4,7924.4,7922.4,7923.1
201907200120,7923.1,7923.9,7921.7,7921.9
201907200121,7921.9,7922.4,7920.3,7920.3
201907200122,7920.3,7921.4,7919.3,7920.2
201907200123,7920.4,7920.7,7919,7919
201907200124,7919.2,7919.2,7916.4,7917
201907200125,7917,7923.2,7916.9,7923.1
201907200126,7923.1,7927.7,7922.4,7926.4
201907200127,7926.4,7928.6,7926.4,7927.7
201907200128,7927.7,7928.4,7926.4,7927.6
201907200129,7927.6,7929.1,7927.2,7928.4
201907200130,7928.4,7929.3,7928,7929.2
201907200131,7929.2,7929.9,7928.2,7928.4
201907200132,7928.4,7931.4,7928.4,7931.2
201907200133,7931.3,7931.8,7930.2,7930.7
201907200134,7930.7,7930.8,7929.4,7930.2
201907200135,7930.2,7930.2,7928.1,7929.2
201907200136,7929.2,7930.5,7929.2,7929.4
201907200137,7929.4,7930.7,7929.1,7930.1
201907200138,7930.1,7932.2,7928.9,7928.9
201907200139,7928.9,7929.9,7928.9,7929.5
201907200140,7929.5,7930.7,7926,7926.4
201907200141,7926.4,7928.4,7926.2,7928.1
201907200142,7928.1,7931.5,7927.7,7930.6
201907200143,7930.6,7933.9,7930.6,7931.4
201907200144,7931.4,7932.2,7929.3,7929.8
201907200145,7929.6,7930.1,7927.5,7929.8
201907200146,7929.8,7930.2,7927.6,7928.3
201907200147,7928.3,7929,7927.9,7928.9
201907200148,7928.5,7930.3,7928.5,7930.3
201907200149,7930.3,7933.6,7930.3,7932.4
201907200150,7932.4,7933.9,7931.6,7932.7
201907200151,7932.9,7936.5,7932.7,7936
201907200152,7936,7936.3,7934.5,7934.7
201907200153,7934.7,7935.4,7933.5,7933.9
201907200154,7933.9,7934.4,7932.9,7933
201907200155,7933,7933.4,7931.9,7932.5
201907200156,7932.5,7933,7928.9,7928.9
201907200157,7928.9,7931.1,7928.7,7930.5
201907200158,7930.5,7931.1,7929.7,7930.4
201907200159,7930.4,7930.6,7928.1,7929.8
201907200200,7929.8,7930.5,7927.8,7928.7
201907200201,7928.7,7928.8,7924.2,7925.6
201907200202,7925.7,7926.8,7924.9,7925.9
201907200203,7925.7,7926.2,7924.3,7924.6
201907200204,7924.6,7925.3,7920.6,7920.7
201907200205,7920.7,7923.5,7920.5,7923.3
201907200206,7923.3,7925,7923.3,7924.1
201907200207,7924.3,7924.8,7921.4,7922.2
201907200208,7922.2,7922.2,7918.6,7919.2
201907200209,7919.2,7920.7,7917.5,7920.4
201907200210,7920.4,7921.4,7920.2,7920.7
201907200211,7920.7,7921.8,7919.9,7921.2
201907200212,7921.3,7921.5,7920.2,7920.8
201907200213,7920.6,7921,7919.7,7920.4
201907200214,7920.4,7921.3,7920.1,7921
201907200215,7921,7921,7918.7,7919.9
201907200216,7919.9,7922,7919,7922
201907200217,7922,7923,7921.6,7922
201907200218,7922,7922.6,7919.9,7920.7
201907200219,7920.9,7921,7918.1,7919.1
201907200220,7919.1,7919.5,7917.1,7919.1
201907200221,7919.1,7920.4,7918.9,7920
201907200222,7919.9,7919.9,7918.3,7918.5
201907200223,7918.6,7918.7,7917.4,7918.2
201907200224,7918.2,7918.6,7915.6,7916
201907200225,7916.1,7919.7,7916.1,7919.7
201907200226,7919.7,7919.9,7918.1,7918.4
201907200227,7918.4,7920.2,7918.4,7919.4
201907200228,7919.2,7920.6,7918.9,7920.2
201907200229,7920.2,7920.7,7919.4,7919.5
201907200230,7919.6,7919.7,7918.3,7918.3
201907200231,7918.3,7918.3,7915.6,7916.3
201907200232,7916.4,7920.2,7914.6,7920.2
201907200233,7920.2,7920.7,7917.3,7917.3
201907200234,7917.3,7917.8,7916.3,7916.3
201907200235,7916.3,7916.3,7913.9,7914.3
201907200236,7914.3,7915.5,7912.5,7913.9
201907200237,7913.9,7914.1,7912.2,7912.8
201907200238,7912.7,7913.6,7910.2,7910.9
201907200239,7910.8,7911.3,7909.1,7910.2
201907200240,7910.2,7911.2,7908.6,7909.2
201907200241,7909.2,7911.2,7907.3,7910.7
201907200242,7910.6,7911.4,7909.4,7911.1
201907200243,7911.1,7912.1,7910.6,7911.5
201907200244,7911.5,7913,7911.3,7911.7
201907200245,7911.7,7915,7911.7,7914.1
201907200246,7914.3,7914.8,7912.7,7913.9
201907200247,7913.9,7915.4,7913.9,7915
201907200248,7915,7917,7915,7916.5
201907200249,7916.4,7918.9,7916.2,7917.9
201907200250,7917.9,7918.1,7917,7917.4
201907200251,7917.4,7921.6,7916.9,7920.4
201907200252,7920.2,7922,7918.4,7919.3
201907200253,7919.3,7921.3,7918.7,7919.3
201907200254,7919.4,7921,7919.2,7919.2
201907200255,7919.4,7919.8,7914.2,7914.2
201907200256,7914.3,7916.2,7910.4,7912.4
201907200257,7912.3,7912.9,7911.1,7912
201907200258,7912.2,7913.7,7909.4,7913.3
201907200259,7913.4,7918,7913.2,7918
201907200300,7918.1,7920.8,7916.7,7920.4
201907200301,7920.4,7921.8,7919.2,7921.6
201907200302,7921.6,7924.8,7919.8,7924.7
201907200303,7924.7,7925.4,7922.7,7923.2
201907200304,7923.2,7923.2,7919.2,7919.9
201907200305,7920,7921,7917.7,7917.9
201907200306,7917.9,7919.2,7916.6,7918.3
201907200307,7917.9,7917.9,7915.2,7917.1
201907200308,7916.9,7917.8,7914.4,7914.5
201907200309,7914.7,7915,7903.5,7904.2
201907200310,7904.2,7904.8,7896.8,7897.3
201907200311,7896.5,7905.3,7896.3,7905.3
201907200312,7905.3,7906.8,7903,7906.8
201907200313,7906.2,7906.2,7899.4,7899.4
201907200314,7899.6,7900.7,7896.4,7900.6
201907200315,7900.7,7902.5,7894.3,7896.6
201907200316,7896.6,7898.6,7892.3,7896.2
201907200317,7896.3,7899.2,7895.4,7895.8
201907200318,7895.8,7896.7,7892.2,7896.6
201907200319,7896.7,7897.3,7892.9,7892.9
201907200320,7892.8,7898.4,7892.2,7897.4
201907200321,7897.4,7902.4,7896.6,7901.5
201907200322,7901.5,7902.3,7899.1,7899.8
201907200323,7899.7,7899.8,7891.4,7894.8
201907200324,7894.9,7894.9,7888.8,7890.8
201907200325,7890.8,7894.9,7889,7889.3
201907200326,7889.3,7891.8,7888,7890
201907200327,7890,7890,7883.2,7883.2
201907200328,7883.2,7884.9,7881.4,7883.3
201907200329,7884,7885.8,7881.7,7882
201907200330,7882,7889.4,7882,7886.9
201907200331,7886.5,7891.3,7886.2,7888.5
201907200332,7888.5,7889.3,7880.6,7880.6
201907200333,7880.7,7882.9,7878.7,7879.3
201907200334,7879.3,7882.3,7879,7881.4
201907200335,7881.4,7883.9,7879.8,7883.4
201907200336,7883.4,7883.4,7876.1,7876.5
201907200337,7876.5,7879.9,7876.4,7877.8
201907200338,7877.8,7878.3,7875.7,7876.1
201907200339,7876.1,7883.1,7874.3,7881.7
201907200340,7881.7,7885.5,7880.9,7885
201907200341,7885,7885.4,7883,7884.9
201907200342,7884.9,7886.8,7884.2,7885.4
201907200343,7885.4,7886.2,7883.5,7884.6
201907200344,7884.7,7886.3,7880.2,7883.1
201907200345,7883,7883,7879.9,7881.4
201907200346,7881.3,7883,7879.9,7881
201907200347,7881.6,7885.9,7880.4,7885.9
201907200348,7885.9,7886.1,7883.3,7883.8
201907200349,7883.8,7886.6,7882.9,7886.6
201907200350,7886.6,7888,7882.9,7888
201907200351,7888.3,7890.5,7887.8,7889
201907200352,7889,7890.4,7887.8,7887.9
201907200353,7887.9,7888.9,7887.1,7888.2
201907200354,7888.2,7888.9,7884.8,7885.4
201907200355,7885.4,7886.4,7885.4,7886.1
201907200356,7886.1,7887,7880.4,7881.8
201907200357,7882.4,7886.3,7881.7,7884.1
201907200358,7884.1,7886,7883.8,7884
201907200359,7884,7888.8,7883.9,7885.5
201907200400,7885.5,7885.5,7878.2,7883.7
201907200401,7883.5,7883.6,7876.4,7876.4
201907200402,7876.3,7877.9,7873.9,7877.9
201907200403,7877.7,7882.8,7877.3,7878.1
201907200404,7878.1,7878.1,7870.6,7871.3
201907200405,7871.3,7876.1,7868.9,7875.4
201907200406,7875.4,7876.6,7873.9,7873.9
201907200407,7873.8,7875.7,7872.5,7874.8
201907200408,7874.8,7876.4,7874,7876.3
201907200409,7876.3,7876.6,7873.5,7873.6
201907200410,7873.7,7876.5,7872.3,7872.3
201907200411,7872.3,7873.5,7870,7871.3
201907200412,7871.3,7873,7867.7,7873
201907200413,7873,7873.3,7868.3,7871.5
201907200414,7871.3,7873,7869.8,7871.9
201907200415,7871.9,7874.8,7870.3,7872.8
201907200416,7872.8,7873.1,7869,7869.7
201907200417,7869.6,7870,7866.5,7867.1
201907200418,7867.1,7868.7,7865.1,7866.7
201907200419,7866.7,7867.4,7864.4,7867.4
201907200420,7867.3,7867.3,7862,7862.1
201907200421,7862.1,7864.3,7858.5,7863.6
201907200422,7863.6,7864.2,7856.2,7861.6
201907200423,7861.6,7868.3,7861,7868.3
201907200424,7868.3,7868.3,7865,7867.7
201907200425,7867.7,7870.8,7867.7,7870
201907200426,7870.2,7871.8,7869.4,7870
201907200427,7870,7873,7868,7872.1
201907200428,7872.2,7873.6,7871.7,7871.7
201907200429,7871.6,7872.9,7871.4,7872.4
201907200430,7872.4,7879,7872.4,7878.1
201907200431,7878,7878,7871.4,7871.4
201907200432,7871.4,7871.6,7868.2,7870.4
201907200433,7870.4,7876.5,7870.4,7874.3
201907200434,7874.1,7874.1,7870.2,7870.9
201907200435,7870.9,7873,7870.4,7870.9
201907200436,7870.9,7871.2,7868,7870.1
201907200437,7870.1,7871.6,7868.5,7869.5
201907200438,7869.7,7869.7,7867.1,7869
201907200439,7869,7871.5,7868.4,7871.4
201907200440,7871.3,7871.9,7869.4,7870.9
201907200441,7870.9,7878.3,7870.9,7876.9
201907200442,7876.9,7877.3,7873,7873.2
201907200443,7873.3,7874.5,7872.2,7874.3
201907200444,7874.4,7879,7874.4,7878.7
201907200445,7878.7,7878.7,7871.9,7871.9
201907200446,7871.8,7872.7,7868.2,7868.3
201907200447,7868.3,7868.9,7863.2,7863.4
201907200448,7863.4,7864.4,7861.9,7862.7
201907200449,7862.9,7862.9,7858.8,7860.4
201907200450,7860.4,7861.5,7858.5,7858.9
201907200451,7858.8,7862.9,7858.4,7862.1
201907200452,7862.1,7863.8,7860.8,7863.5
201907200453,7863.6,7865,7862.4,7863.7
201907200454,7863.7,7864.1,7862,7863.9
201907200455,7863.8,7863.8,7852.2,7854.8
201907200456,7854.8,7857,7852,7852
201907200457,7852.2,7854.4,7851.7,7852.9
201907200458,7853,7856.9,7851.9,7853.5
201907200459,7853.5,7855.5,7848.8,7854
201907200500,7853.9,7856.1,7849.3,7852.5
201907200501,7852,7853,7847.9,7849.8
201907200502,7849.8,7852.3,7848.7,7851.2
201907200503,7851.2,7852.3,7849.9,7850.9
201907200504,7850.8,7852.7,7850.4,7852.4
201907200505,7852.5,7852.5,7851.1,7851.4
201907200506,7851.4,7851.5,7847.5,7847.5
201907200507,7847.5,7848.4,7844.1,7844.9
201907200508,7844.9,7847.2,7843.6,7844.6
201907200509,7844.6,7846.3,7844.6,7846.2
201907200510,7846.2,7846.5,7843.4,7843.6
201907200511,7843.5,7843.5,7841.7,7841.9
201907200512,7841.9,7843.1,7841.1,7841.1
201907200513,7841.1,7843.4,7841.1,7843.4
201907200514,7843.4,7843.6,7841.2,7842.7
