日時,始値(BID),高値(BID),安値(BID),終値(BID)
201907050700,7901.5,7903.3,7898.4,7902.3
201907050701,7902.3,7904.4,7901.9,7903.8
201907050702,7903.8,7907.3,7903.8,7907.3
201907050703,7907.3,7907.7,7903.5,7903.9
201907050704,7903.9,7905.4,7903.9,7904.4
201907050705,7904.3,7905.5,7904.3,7905
201907050706,7905,7905,7903.6,7904.2
201907050707,7904,7904.3,7903.5,7903.5
201907050708,7903.6,7905.3,7903.5,7905.2
201907050709,7905.3,7905.8,7904.9,7905
201907050710,7905,7906.1,7904.9,7905.7
201907050711,7905.7,7906.4,7905.7,7906.2
201907050712,7906.2,7906.5,7905.9,7906.5
201907050713,7906.5,7906.7,7905.8,7906.7
201907050714,7906.7,7907.1,7906.4,7906.6
201907050715,7906.6,7907.3,7906.6,7907.3
201907050716,7907.3,7907.5,7907.2,7907.3
201907050717,7907.3,7907.4,7907.1,7907.4
201907050718,7907.4,7907.5,7907.4,7907.4
201907050719,7907.4,7907.6,7907.1,7907.6
201907050720,7907.6,7907.8,7907.4,7907.4
201907050721,7907.4,7907.5,7907.2,7907.3
201907050722,7907.2,7907.4,7907.1,7907.4
201907050723,7907.4,7907.8,7907.2,7907.8
201907050724,7907.9,7907.9,7907.1,7907.2
201907050725,7907.2,7907.4,7907.2,7907.3
201907050726,7907.3,7907.5,7907.2,7907.2
201907050727,7907.1,7907.6,7907.1,7907.6
201907050728,7907.6,7907.6,7907.2,7907.3
201907050729,7907.3,7907.4,7906.8,7906.8
201907050730,7906.8,7906.9,7905.7,7905.7
201907050731,7905.8,7905.8,7904.3,7905
201907050732,7905,7905.2,7904.5,7904.5
201907050733,7904.4,7904.5,7904.1,7904.5
201907050734,7904.6,7904.6,7904.3,7904.4
201907050735,7904.4,7905.1,7904.4,7905.1
201907050736,7904.9,7905.1,7904.7,7904.7
201907050737,7904.7,7904.7,7904.5,7904.5
201907050738,7904.5,7905,7904.4,7905
201907050739,7905,7906.9,7905,7906.9
201907050740,7906.9,7907.2,7905.6,7905.6
201907050741,7905.6,7905.8,7904.8,7905.5
201907050742,7905.5,7906.4,7905.5,7906.3
201907050743,7906.3,7906.3,7904.8,7904.8
201907050744,7904.9,7905.9,7904.8,7905.8
201907050745,7905.8,7905.9,7905.2,7905.2
201907050746,7905.3,7905.5,7905.2,7905.5
201907050747,7905.5,7905.5,7905.1,7905.2
201907050748,7905.2,7906.1,7905.2,7906.1
201907050749,7906.1,7907,7906.1,7906.2
201907050750,7906.1,7906.4,7905.6,7905.7
201907050751,7905.7,7906.3,7905.6,7905.6
201907050752,7905.6,7906.1,7905.6,7906
201907050753,7906,7906.2,7905.7,7905.7
201907050754,7905.7,7905.8,7905.5,7905.5
201907050755,7905.4,7905.9,7905.4,7905.4
201907050756,7905.4,7905.5,7905.3,7905.5
201907050757,7905.5,7905.5,7904.9,7904.9
201907050758,7904.9,7905,7904.2,7904.2
201907050759,7904.2,7904.8,7904.2,7904.6
201907050800,7904.6,7904.9,7904.6,7904.8
201907050801,7904.7,7905.6,7904.7,7904.8
201907050802,7904.8,7904.9,7904.5,7904.6
201907050803,7904.5,7905.3,7904.5,7905.1
201907050804,7905.1,7905.4,7904.8,7904.8
201907050805,7904.8,7905.1,7904.6,7904.7
201907050806,7904.7,7905.1,7904.6,7904.7
201907050807,7904.7,7905,7904.7,7904.7
201907050808,7904.7,7905.2,7904.7,7904.7
201907050809,7904.7,7905.1,7904.6,7904.6
201907050810,7904.6,7904.9,7903.7,7903.8
201907050811,7903.8,7904.5,7903.8,7904.5
201907050812,7904.6,7905.1,7904.6,7905.1
201907050813,7905.1,7905.1,7904.5,7904.6
201907050814,7904.6,7905,7904.6,7905
201907050815,7905.1,7905.8,7905.1,7905.3
201907050816,7905.3,7905.6,7904.9,7904.9
201907050817,7904.9,7905,7904.3,7904.4
201907050818,7904.4,7904.7,7904.4,7904.7
201907050819,7904.7,7905.2,7904.7,7905.2
201907050820,7905.2,7905.7,7905.2,7905.7
201907050821,7905.7,7905.9,7905.6,7905.8
201907050822,7905.8,7905.9,7905.6,7905.6
201907050823,7905.6,7906.5,7905.6,7906.3
201907050824,7906.3,7906.4,7905.7,7906
201907050825,7906,7906,7905.9,7905.9
201907050826,7905.9,7906.2,7905.5,7906.1
201907050827,7906.1,7906.1,7904.8,7905.1
201907050828,7905.1,7905.1,7904.8,7904.8
201907050829,7904.8,7905.4,7904.8,7905.4
201907050830,7905.4,7906.8,7905.4,7906.5
201907050831,7906.5,7906.7,7906.1,7906.5
201907050832,7906.5,7906.5,7906,7906.1
201907050833,7906.1,7906.3,7905.9,7905.9
201907050834,7905.9,7906.1,7905.3,7905.9
201907050835,7905.9,7906.6,7905.9,7906.1
201907050836,7906.1,7906.6,7906,7906.6
201907050837,7906.6,7907,7906.4,7906.6
201907050838,7906.5,7906.5,7906.4,7906.4
201907050839,7906.4,7906.4,7906.1,7906.2
201907050840,7906.2,7906.8,7906.2,7906.2
201907050841,7906.2,7906.3,7906.1,7906.1
201907050842,7906.1,7906.1,7905.2,7905.2
201907050843,7905.2,7905.2,7904.6,7904.7
201907050844,7904.7,7904.8,7904.4,7904.7
201907050845,7904.8,7905.1,7904.8,7904.9
201907050846,7904.8,7904.8,7904.1,7904.1
201907050847,7904.1,7904.1,7903.7,7903.9
201907050848,7903.9,7904.2,7903.9,7904.2
201907050849,7904.2,7904.4,7904.1,7904.1
201907050850,7904.1,7904.1,7903.1,7903.1
201907050851,7903.1,7903.8,7903,7903
201907050852,7903,7903.2,7902.9,7903
201907050853,7903,7903.3,7902.9,7903.3
201907050854,7903.3,7903.4,7903.1,7903.3
201907050855,7903.3,7904.4,7903.3,7903.9
201907050856,7903.8,7903.9,7903.6,7903.8
201907050857,7903.9,7904.6,7903.7,7903.8
201907050858,7903.8,7904.1,7903.8,7904
201907050859,7904,7904,7903.5,7903.6
201907050900,7903.6,7905.3,7903,7903.2
201907050901,7903.2,7903.3,7901.6,7901.8
201907050902,7901.8,7902.4,7901.3,7902.1
201907050903,7902.1,7902.1,7900.7,7900.8
201907050904,7900.8,7903.5,7900.7,7903.5
201907050905,7903.5,7903.6,7901.8,7902
201907050906,7902,7902.4,7901.7,7902.4
201907050907,7902.4,7903.5,7901.8,7903.4
201907050908,7903.4,7903.7,7902.6,7902.7
201907050909,7902.7,7903.1,7901.9,7901.9
201907050910,7901.9,7902.2,7901.3,7901.7
201907050911,7901.5,7902.8,7901.3,7901.6
201907050912,7901.6,7902.1,7901.3,7901.9
201907050913,7901.9,7902.1,7901.5,7901.5
201907050914,7901.6,7901.7,7901.1,7901.4
201907050915,7901.3,7902.5,7901.3,7902.2
201907050916,7902.2,7903,7902,7902.9
201907050917,7902.8,7902.9,7902.3,7902.3
201907050918,7902.3,7902.5,7901.6,7901.7
201907050919,7901.7,7901.9,7900.3,7900.4
201907050920,7900.4,7901.7,7900.4,7901.6
201907050921,7901.6,7901.6,7900.6,7900.6
201907050922,7900.6,7900.7,7899.7,7900.3
201907050923,7900.2,7900.3,7899,7899.6
201907050924,7899.6,7900.4,7899.3,7900.1
201907050925,7900.1,7900.3,7899.3,7899.8
201907050926,7899.8,7899.8,7898.7,7899.6
201907050927,7899.6,7899.9,7899.4,7899.9
201907050928,7899.8,7900,7899.4,7899.5
201907050929,7899.5,7899.5,7898.9,7899.3
201907050930,7899.3,7899.8,7898.2,7898.9
201907050931,7898.9,7898.9,7898.2,7898.6
201907050932,7898.7,7898.9,7898.2,7898.7
201907050933,7898.6,7899.5,7898.6,7899.5
201907050934,7899.5,7899.9,7899.4,7899.9
201907050935,7899.9,7900.7,7899.9,7900.2
201907050936,7900.3,7900.3,7899.6,7899.7
201907050937,7899.6,7899.6,7898.7,7898.9
201907050938,7898.9,7899.6,7898.9,7899.3
201907050939,7899.4,7899.4,7898.9,7899.3
201907050940,7899.3,7899.4,7899,7899.4
201907050941,7899.4,7900.6,7899.4,7900.6
201907050942,7900.7,7900.8,7899.9,7900.5
201907050943,7900.5,7900.7,7900.1,7900.1
201907050944,7900.1,7900.6,7900.1,7900.3
201907050945,7900.3,7900.9,7900.3,7900.4
201907050946,7900.4,7901.3,7900.4,7900.4
201907050947,7900.3,7901,7900.1,7901
201907050948,7901,7901.4,7901,7901.4
201907050949,7901.3,7902.4,7901.3,7901.9
201907050950,7901.9,7902.4,7901.9,7902
201907050951,7902,7902.1,7901.3,7901.7
201907050952,7901.5,7901.6,7901.5,7901.6
201907050953,7901.6,7901.6,7900.9,7901.2
201907050954,7901.2,7901.3,7900.8,7900.9
201907050955,7900.9,7901.6,7900,7900
201907050956,7900,7900.9,7900,7900.9
201907050957,7900.9,7901.3,7900.8,7901.1
201907050958,7901,7901.3,7900.8,7901
201907050959,7901,7901.3,7900.8,7900.8
201907051000,7900.8,7901.9,7900.8,7901.4
201907051001,7901.4,7902.3,7901.4,7902.3
201907051002,7902.3,7902.5,7901.3,7901.6
201907051003,7901.6,7902.5,7901.6,7902.1
201907051004,7902.2,7902.4,7901.8,7901.9
201907051005,7901.9,7902.8,7901.9,7902.1
201907051006,7902.1,7902.1,7901.7,7901.7
201907051007,7901.7,7901.8,7899.9,7899.9
201907051008,7899.8,7900.3,7899.8,7900
201907051009,7900,7900.3,7899.8,7900.2
201907051010,7900.1,7900.2,7899.9,7900
201907051011,7900,7901.6,7899.9,7901.4
201907051012,7901.4,7902.1,7901.4,7902
201907051013,7902,7902.8,7902,7902.3
201907051014,7902.4,7902.9,7902.3,7902.6
201907051015,7902.7,7903.5,7902.2,7902.9
201907051016,7902.9,7903.2,7902.3,7902.7
201907051017,7902.7,7902.7,7901.9,7902
201907051018,7902,7902,7901.4,7901.4
201907051019,7901.4,7901.8,7900.8,7901.6
201907051020,7901.7,7902.2,7901.2,7901.7
201907051021,7901.7,7901.7,7900.5,7900.8
201907051022,7900.8,7900.8,7899.8,7900.7
201907051023,7900.6,7901.6,7900.4,7901.3
201907051024,7901.3,7902.2,7900.9,7901.8
201907051025,7901.8,7902.1,7901.3,7901.7
201907051026,7901.7,7902,7901.4,7901.4
201907051027,7901.4,7901.6,7901.2,7901.3
201907051028,7901.3,7901.6,7899.9,7900.4
201907051029,7900.4,7901.1,7900.2,7900.9
201907051030,7900.9,7902.8,7900.2,7901.4
201907051031,7901.4,7901.4,7898.9,7899.7
201907051032,7899.7,7901.3,7899.6,7900.9
201907051033,7900.9,7902.4,7900.7,7901
201907051034,7900.9,7900.9,7900,7900.1
201907051035,7900.1,7901.2,7899.7,7899.7
201907051036,7899.7,7899.7,7898.8,7899
201907051037,7899,7899,7898.3,7898.3
201907051038,7898.4,7899.3,7898.4,7898.5
201907051039,7898.6,7900.3,7898.6,7899.7
201907051040,7899.7,7899.8,7898.7,7898.8
201907051041,7898.8,7898.8,7898.5,7898.5
201907051042,7898.5,7898.8,7897.7,7897.7
201907051043,7897.7,7898.3,7897.7,7897.7
201907051044,7897.7,7898,7897.4,7898
201907051045,7898,7899.7,7897.9,7899.5
201907051046,7899.5,7900.1,7899.4,7900.1
201907051047,7900.1,7900.1,7898.3,7898.3
201907051048,7898.3,7898.4,7897.3,7897.3
201907051049,7897.3,7897.3,7895.9,7896.8
201907051050,7896.8,7897.3,7896.5,7896.5
201907051051,7896.5,7897.3,7895.7,7896.8
201907051052,7896.8,7897.7,7896.7,7897.6
201907051053,7897.6,7897.7,7896.6,7897.1
201907051054,7897.1,7897.9,7896.8,7897.9
201907051055,7897.8,7898.3,7896.8,7898.3
201907051056,7898.2,7898.2,7897.4,7897.4
201907051057,7897.3,7897.3,7895.8,7895.9
201907051058,7895.9,7896.3,7895,7895.9
201907051059,7895.9,7896.1,7895.1,7895.6
201907051100,7895.6,7897.2,7895.4,7896.6
201907051101,7896.6,7896.8,7896.1,7896.8
201907051102,7896.9,7897.1,7896.6,7897.1
201907051103,7897.1,7897.3,7896.9,7897.3
201907051104,7897.3,7897.3,7896.5,7897
201907051105,7897.1,7897.3,7896.6,7896.6
201907051106,7896.6,7897.4,7896.6,7896.9
201907051107,7896.9,7897.4,7896.6,7897.2
201907051108,7897.2,7897.5,7896.9,7897.3
201907051109,7897.3,7898.6,7897.3,7898.2
201907051110,7898.4,7898.7,7897.4,7897.5
201907051111,7897.5,7898.5,7897.4,7898.4
201907051112,7898.4,7899.2,7898.3,7899
201907051113,7899,7900,7898.9,7899.8
201907051114,7899.9,7900.3,7899.5,7899.5
201907051115,7899.5,7900.4,7899.5,7900.4
201907051116,7900.3,7900.9,7900.3,7900.7
201907051117,7900.7,7901.3,7900.7,7900.9
201907051118,7900.9,7901.8,7900.9,7901.8
201907051119,7901.8,7901.9,7901,7901.1
201907051120,7901.1,7901.2,7900.9,7901
201907051121,7901,7901.1,7900.6,7900.7
201907051122,7900.7,7901.4,7900.7,7901.4
201907051123,7901.4,7902.1,7900.9,7901.1
201907051124,7901,7901.6,7900.9,7901.4
201907051125,7901.4,7902,7901.4,7901.7
201907051126,7901.7,7901.7,7901.3,7901.4
201907051127,7901.5,7902.1,7901.3,7901.4
201907051128,7901.4,7901.9,7901.4,7901.9
201907051129,7901.9,7902,7901.6,7901.8
201907051130,7901.8,7902.8,7901.7,7901.8
201907051131,7901.9,7903.2,7901.9,7903.2
201907051132,7903.3,7903.8,7902.8,7902.8
201907051133,7902.9,7903.1,7902.3,7902.4
201907051134,7902.4,7902.4,7901.5,7901.8
201907051135,7901.8,7903.4,7901.8,7903.2
201907051136,7903.1,7904.5,7903.1,7904.3
201907051137,7904.3,7905,7903.9,7905
201907051138,7905.1,7905.1,7904.6,7904.9
201907051139,7904.9,7905.1,7904.6,7904.9
201907051140,7904.9,7906.1,7904.5,7904.5
201907051141,7904.5,7905.1,7904.4,7904.8
201907051142,7904.7,7904.8,7903.9,7904
201907051143,7904,7904.6,7903.9,7904.1
201907051144,7904.1,7904.6,7903.9,7904.6
201907051145,7904.6,7905,7904.1,7904.2
201907051146,7904.2,7904.6,7903.9,7904.4
201907051147,7904.4,7904.4,7903.8,7903.9
201907051148,7903.8,7903.8,7902.7,7903.7
201907051149,7903.7,7903.7,7903.2,7903.4
201907051150,7903.4,7903.7,7903.3,7903.3
201907051151,7903.4,7904,7903.1,7903.9
201907051152,7903.9,7904.4,7903.9,7904.4
201907051153,7904.4,7905.9,7904.4,7905.4
201907051154,7905.5,7905.6,7903.9,7904.1
201907051155,7904.1,7904.2,7903.4,7904
201907051156,7904,7904,7903.6,7903.6
201907051157,7903.6,7903.6,7903.1,7903.5
201907051158,7903.4,7904,7903.2,7903.7
201907051159,7903.7,7904,7903.5,7904
201907051200,7903.9,7903.9,7903.2,7903.4
201907051201,7903.4,7903.8,7903.1,7903.4
201907051202,7903.3,7904,7903.3,7903.4
201907051203,7903.4,7903.7,7903.2,7903.7
201907051204,7903.6,7904.4,7903.6,7904.4
201907051205,7904.4,7904.8,7903.9,7904.6
201907051206,7904.6,7904.9,7904.1,7904.4
201907051207,7904.4,7904.4,7904,7904.1
201907051208,7904.1,7904.2,7903.8,7904
201907051209,7904.1,7904.1,7903.8,7903.9
201907051210,7903.8,7903.8,7902.9,7902.9
201907051211,7902.9,7902.9,7901.9,7902.2
201907051212,7902.2,7903.4,7902,7903.4
201907051213,7903.3,7903.6,7903.1,7903.3
201907051214,7903.3,7903.5,7903.1,7903.4
201907051215,7903.4,7903.5,7902.9,7902.9
201907051216,7902.9,7903.3,7902.4,7902.5
201907051217,7902.6,7903,7902.4,7902.9
201907051218,7902.9,7903.4,7902.4,7903.1
201907051219,7903.1,7903.2,7902.5,7902.9
201907051220,7902.9,7903.1,7902.4,7903.1
201907051221,7903.1,7903.7,7902.8,7903.5
201907051222,7903.5,7904.1,7903.5,7903.7
201907051223,7903.7,7904.3,7903.6,7904.2
201907051224,7904.2,7904.2,7903.6,7903.9
201907051225,7903.9,7903.9,7903.1,7903.3
201907051226,7903.3,7903.3,7902.9,7903.3
201907051227,7903.3,7903.5,7903.2,7903.3
201907051228,7903.4,7903.8,7903.3,7903.7
201907051229,7903.7,7904,7903.4,7903.9
201907051230,7903.9,7904.5,7903.9,7904.4
201907051231,7904.3,7905,7904.3,7904.4
201907051232,7904.4,7904.4,7903.6,7903.8
201907051233,7903.8,7904.1,7903.7,7903.7
201907051234,7903.6,7904.5,7903.6,7904.5
201907051235,7904.6,7905,7904.5,7904.5
201907051236,7904.6,7905.1,7904.6,7904.8
201907051237,7904.8,7904.8,7904,7904.2
201907051238,7904.2,7904.3,7902.4,7902.7
201907051239,7902.7,7903.2,7902.5,7903
201907051240,7902.9,7903.3,7902.9,7903.3
201907051241,7903.3,7903.6,7903.1,7903.2
201907051242,7903.1,7903.3,7902.8,7903.2
201907051243,7903.2,7903.2,7902.8,7902.8
201907051244,7902.8,7903,7902.7,7902.9
201907051245,7902.9,7903.1,7902,7902
201907051246,7901.9,7902.3,7901.9,7902.1
201907051247,7902,7902.5,7901.7,7902.4
201907051248,7902.4,7902.7,7902,7902
201907051249,7902.1,7902.2,7901.9,7902.2
201907051250,7902.1,7902.3,7901.9,7902.2
201907051251,7902.2,7902.4,7902.1,7902.1
201907051252,7902.1,7902.3,7901.9,7902.2
201907051253,7902.2,7902.8,7902.2,7902.8
201907051254,7902.8,7902.8,7902.1,7902.1
201907051255,7902.1,7902.1,7901.6,7901.9
201907051256,7901.9,7902,7901.8,7902
201907051257,7902.2,7902.5,7902,7902.3
201907051258,7902.3,7902.4,7902.1,7902.1
201907051259,7902.2,7902.4,7902,7902.3
201907051300,7902.3,7902.7,7902.1,7902.7
201907051301,7902.7,7903,7902.3,7902.7
201907051302,7902.7,7903.2,7902.7,7903.1
201907051303,7903.1,7903.1,7903,7903.1
201907051304,7903,7903,7902.7,7902.7
201907051305,7902.7,7902.7,7901.9,7902.4
201907051306,7902.4,7902.5,7901.9,7901.9
201907051307,7901.9,7902.3,7901.8,7902.3
201907051308,7902.3,7902.9,7902.2,7902.9
201907051309,7902.8,7902.8,7902.7,7902.8
201907051310,7902.8,7903.3,7902.7,7903
201907051311,7903,7903.3,7903,7903.3
201907051312,7903.4,7904,7903.4,7903.9
201907051313,7903.9,7904,7903.5,7904
201907051314,7904,7904.3,7903.5,7903.9
201907051315,7903.9,7904.3,7903.9,7904.2
201907051316,7904.3,7904.3,7903.6,7903.6
201907051317,7903.6,7904,7903.6,7903.9
201907051318,7903.9,7903.9,7903.6,7903.6
201907051319,7903.6,7903.6,7903.1,7903.5
201907051320,7903.5,7903.6,7903.4,7903.6
201907051321,7903.6,7903.8,7903.6,7903.6
201907051322,7903.6,7903.8,7903.4,7903.4
201907051323,7903.4,7903.6,7903.1,7903.4
201907051324,7903.4,7903.8,7903.2,7903.8
201907051325,7903.8,7903.8,7903.4,7903.5
201907051326,7903.6,7904.2,7903.6,7903.6
201907051327,7903.6,7903.7,7903.5,7903.6
201907051328,7903.5,7903.6,7903.4,7903.4
201907051329,7903.4,7904,7903.4,7904
201907051330,7904,7904.3,7903.9,7904
201907051331,7904,7904.1,7903.9,7904.1
201907051332,7904.1,7904.7,7904.1,7904.3
201907051333,7904.3,7904.6,7904.3,7904.6
201907051334,7904.6,7904.6,7904.3,7904.4
201907051335,7904.3,7904.3,7903.7,7903.9
201907051336,7903.8,7903.8,7903.4,7903.4
201907051337,7903.4,7903.4,7902.9,7903.2
201907051338,7903.2,7903.3,7902.8,7902.8
201907051339,7902.9,7902.9,7902.8,7902.8
201907051340,7902.9,7902.9,7902.5,7902.7
201907051341,7902.7,7902.7,7902.6,7902.6
201907051342,7902.6,7902.8,7902.4,7902.7
201907051343,7902.7,7903.3,7902.6,7903.2
201907051344,7903.2,7903.2,7902.8,7902.8
201907051345,7902.8,7902.8,7902.4,7902.7
201907051346,7902.7,7902.7,7902.6,7902.6
201907051347,7902.6,7903,7902.6,7903
201907051348,7903,7903.3,7903,7903.2
201907051349,7903.1,7903.5,7903,7903.4
201907051350,7903.4,7903.5,7903.1,7903.5
201907051351,7903.5,7904.4,7903.3,7904.3
201907051352,7904.3,7905.1,7903.7,7905.1
201907051353,7905.1,7905.1,7904.4,7904.8
201907051354,7904.9,7904.9,7904.7,7904.7
201907051355,7904.5,7904.7,7904.3,7904.7
201907051356,7904.7,7904.8,7904.4,7904.4
201907051357,7904.3,7904.4,7904.1,7904.4
201907051358,7904.4,7904.8,7904.4,7904.8
201907051359,7904.8,7904.8,7904.4,7904.5
201907051400,7904.3,7904.7,7904.2,7904.6
201907051401,7904.6,7905.3,7904.6,7905.1
201907051402,7905.1,7905.3,7904.7,7904.8
201907051403,7904.7,7904.8,7904.7,7904.7
201907051404,7904.7,7905,7904.4,7904.4
201907051405,7904.4,7904.8,7904.4,7904.5
201907051406,7904.6,7904.8,7904.4,7904.7
201907051407,7904.7,7904.7,7904,7904
201907051408,7904,7904.1,7903.7,7903.8
201907051409,7903.8,7904.3,7903.4,7904.1
201907051410,7904.2,7904.8,7904.1,7904.8
201907051411,7904.8,7904.8,7904.4,7904.5
201907051412,7904.5,7904.6,7904.1,7904.6
201907051413,7904.7,7904.7,7904.3,7904.4
201907051414,7904.4,7904.4,7903.4,7903.8
201907051415,7904,7904.8,7903.9,7904.6
201907051416,7904.6,7905.3,7904.6,7905
201907051417,7905,7905.8,7905,7905.8
201907051418,7905.8,7905.9,7904.6,7905
201907051419,7905.1,7905.4,7905.1,7905.3
201907051420,7905.3,7905.9,7905.1,7905.8
201907051421,7905.8,7906.8,7905.7,7906.6
201907051422,7906.6,7906.9,7906.2,7906.4
201907051423,7906.4,7907.1,7906.4,7906.9
201907051424,7906.9,7906.9,7906.4,7906.6
201907051425,7906.6,7907.5,7906.6,7907.5
201907051426,7907.5,7907.6,7907.2,7907.6
201907051427,7907.6,7907.7,7907.2,7907.3
201907051428,7907.3,7907.5,7907.2,7907.2
201907051429,7907.2,7907.3,7907,7907.1
201907051430,7907,7907.2,7906.4,7906.9
201907051431,7906.8,7907.3,7906.8,7907.2
201907051432,7907.2,7907.6,7907.2,7907.4
201907051433,7907.4,7907.7,7907.4,7907.4
201907051434,7907.4,7907.4,7907,7907.2
201907051435,7907.1,7907.4,7906.6,7907.4
201907051436,7907.4,7907.7,7907.1,7907.3
201907051437,7907.3,7907.5,7906.4,7906.4
201907051438,7906.4,7906.4,7906.1,7906.3
201907051439,7906.3,7906.8,7906.2,7906.7
201907051440,7906.7,7906.9,7906.2,7906.8
201907051441,7906.8,7907.2,7906.8,7907.2
201907051442,7907.2,7907.7,7906.9,7906.9
201907051443,7906.9,7906.9,7906.2,7906.5
201907051444,7906.5,7907.2,7906.5,7907.2
201907051445,7907.2,7907.3,7907.1,7907.2
201907051446,7907.2,7907.4,7907,7907.2
201907051447,7907.2,7907.4,7907.1,7907.2
201907051448,7907.1,7907.5,7907.1,7907.1
201907051449,7907.1,7907.3,7906.7,7906.9
201907051450,7906.8,7906.8,7906.2,7906.2
201907051451,7906.1,7906.2,7905.9,7906.1
201907051452,7906.1,7906.5,7906.1,7906.4
201907051453,7906.4,7906.8,7906.3,7906.3
201907051454,7906.4,7906.5,7905.8,7906.3
201907051455,7906.3,7906.9,7906.3,7906.9
201907051456,7906.8,7906.8,7906.4,7906.7
201907051457,7906.6,7906.9,7906.4,7906.8
201907051458,7906.9,7907.2,7906.8,7907.2
201907051459,7907.2,7907.8,7907.2,7907.4
201907051500,7907.4,7907.4,7906.5,7907.2
201907051501,7907.2,7907.2,7906.3,7906.4
201907051502,7906.5,7906.8,7905.9,7906
201907051503,7906.1,7906.2,7905.7,7906.2
201907051504,7906.1,7906.7,7906,7906.5
201907051505,7906.4,7907.3,7906.2,7907
201907051506,7907.1,7907.2,7906.8,7906.9
201907051507,7906.9,7907.1,7906.7,7906.9
201907051508,7906.9,7906.9,7906.4,7906.4
201907051509,7906.5,7907.1,7906.4,7906.9
201907051510,7907,7908,7907,7907.9
201907051511,7907.9,7908.1,7907.2,7907.4
201907051512,7907.4,7907.4,7906.9,7906.9
201907051513,7906.9,7907.4,7906.3,7907.1
201907051514,7906.9,7907,7906.6,7907
201907051515,7907,7907,7905.2,7905.2
201907051516,7905.2,7905.5,7904.9,7905
201907051517,7905,7905,7904.4,7904.4
201907051518,7904.3,7905,7904.3,7904.7
201907051519,7904.7,7904.8,7904.3,7904.6
201907051520,7904.6,7904.6,7903.3,7903.5
201907051521,7903.5,7904.3,7903,7904.2
201907051522,7904.2,7904.2,7903.2,7903.3
201907051523,7903.4,7904.1,7903.4,7903.8
201907051524,7903.8,7903.9,7903.6,7903.8
201907051525,7903.8,7903.8,7903.4,7903.4
201907051526,7903.4,7904,7903.4,7903.8
201907051527,7903.8,7903.9,7903.7,7903.8
201907051528,7903.9,7904.4,7903.6,7904.4
201907051529,7904.4,7904.4,7903.6,7903.7
201907051530,7903.7,7904,7903.4,7903.7
201907051531,7903.7,7903.8,7903.4,7903.6
201907051532,7903.6,7903.8,7902.8,7902.8
201907051533,7902.8,7902.8,7902.3,7902.5
201907051534,7902.5,7903,7902.5,7902.7
201907051535,7902.8,7902.8,7901.4,7902
201907051536,7902.1,7902.1,7901.5,7901.9
201907051537,7901.9,7902.8,7901.7,7902.8
201907051538,7902.8,7903,7901.8,7901.9
201907051539,7901.9,7902,7901.6,7901.7
201907051540,7901.7,7902.1,7901.7,7902.1
201907051541,7902,7902.4,7901.8,7902.3
201907051542,7902.4,7902.5,7900.9,7901.3
201907051543,7901.3,7901.5,7900.6,7901.5
201907051544,7901.5,7901.5,7899.9,7900
201907051545,7900,7900.5,7899.4,7900.4
201907051546,7900.4,7900.9,7900.3,7900.4
201907051547,7900.4,7900.8,7900.4,7900.4
201907051548,7900.3,7900.8,7900.3,7900.6
201907051549,7900.7,7900.7,7900.2,7900.3
201907051550,7900.3,7900.8,7900.3,7900.4
201907051551,7900.4,7900.8,7900.4,7900.8
201907051552,7900.8,7901.3,7900.6,7901
201907051553,7901,7901,7900.9,7900.9
201907051554,7900.9,7900.9,7900.5,7900.5
201907051555,7900.6,7900.6,7900.3,7900.5
201907051556,7900.5,7900.7,7900.4,7900.4
201907051557,7900.4,7900.5,7900,7900
201907051558,7900,7900.3,7899.9,7900.3
201907051559,7900.4,7901,7900,7900.7
201907051600,7900.7,7900.8,7899.1,7899.8
201907051601,7899.8,7900,7898.1,7898.5
201907051602,7898.6,7898.8,7897.9,7897.9
201907051603,7897.9,7898.6,7897.8,7898.1
201907051604,7898.1,7898.2,7896.7,7897.1
201907051605,7897.1,7897.3,7893,7893.3
201907051606,7893.4,7894.8,7893.4,7894.3
201907051607,7894.3,7895.3,7894,7894
201907051608,7894,7896.1,7892.7,7895.3
201907051609,7895.3,7896.4,7894.9,7896.4
201907051610,7896.4,7896.9,7895.8,7895.9
201907051611,7895.9,7896.6,7895.6,7896
201907051612,7896,7896,7894.9,7895.3
201907051613,7895.4,7896.6,7895,7895.8
201907051614,7895.8,7897.4,7895.4,7897.4
201907051615,7897.4,7897.4,7894.1,7894.1
201907051616,7893.9,7895,7892.7,7892.7
201907051617,7892.7,7893.6,7892.7,7892.9
201907051618,7892.8,7892.9,7891.9,7892.8
201907051619,7892.8,7893.3,7892.5,7893
201907051620,7893,7894.4,7892.8,7894.2
201907051621,7894.2,7894.3,7893.2,7893.8
201907051622,7893.9,7894.2,7893.3,7893.6
201907051623,7893.6,7893.6,7892,7892.4
201907051624,7892.3,7892.8,7890.6,7890.8
201907051625,7890.8,7892.1,7890.2,7890.4
201907051626,7890.4,7891.7,7890.4,7891.7
201907051627,7891.7,7892.1,7891.4,7891.9
201907051628,7891.9,7891.9,7890.7,7891.4
201907051629,7891.4,7892.3,7891.4,7891.9
201907051630,7891.9,7892.5,7891.5,7891.8
201907051631,7891.8,7892.3,7891.7,7891.8
201907051632,7891.8,7891.8,7890.7,7890.8
201907051633,7890.8,7892.7,7890.8,7892.6
201907051634,7892.8,7892.8,7891.6,7892.1
201907051635,7892.1,7892.5,7891.2,7891.6
201907051636,7891.6,7892,7891.4,7891.6
201907051637,7891.7,7891.9,7891.6,7891.6
201907051638,7891.6,7891.6,7890.4,7891.1
201907051639,7891.1,7891.1,7890.1,7890.3
201907051640,7890.3,7890.5,7889.1,7889.6
201907051641,7889.6,7890.3,7889.6,7890
201907051642,7890,7891,7889.7,7891
201907051643,7891,7891.5,7890.7,7891
201907051644,7891.1,7891.8,7890.9,7891.6
201907051645,7891.6,7892.2,7891.3,7892
201907051646,7892,7892,7891,7891.8
201907051647,7891.9,7891.9,7891.1,7891.5
201907051648,7891.5,7891.6,7891.4,7891.4
201907051649,7891.4,7891.7,7887.6,7888.2
201907051650,7888.2,7889.3,7887.3,7889.2
201907051651,7889.2,7889.2,7887.7,7889.1
201907051652,7889.1,7889.1,7888.5,7888.7
201907051653,7888.6,7889.6,7888.4,7889.6
201907051654,7889.6,7889.8,7888.4,7888.8
201907051655,7888.8,7889.7,7888.5,7889.7
201907051656,7889.6,7890.4,7889.6,7889.9
201907051657,7889.9,7891.2,7889.9,7891.2
201907051658,7891.2,7893.5,7890.8,7893
201907051659,7893,7893.3,7890.1,7890.5
201907051700,7890.5,7891.4,7887.6,7887.8
201907051701,7887.7,7889.3,7887.7,7889.1
201907051702,7889.1,7889.7,7888.4,7889.4
201907051703,7889.4,7889.4,7887,7887
201907051704,7887.2,7888.1,7887.2,7887.4
201907051705,7887.4,7887.6,7886,7887.2
201907051706,7887.2,7888.2,7887.2,7887.4
201907051707,7887.4,7887.9,7885.3,7885.5
201907051708,7885.3,7885.3,7883.6,7884.4
201907051709,7884.4,7884.4,7881.9,7882.9
201907051710,7882.9,7883.5,7882.5,7883.2
201907051711,7883.3,7883.5,7882.6,7883.3
201907051712,7883.3,7883.8,7883.1,7883.2
201907051713,7883.2,7883.5,7882.5,7882.6
201907051714,7882.6,7883.9,7882.6,7883.4
201907051715,7883.4,7883.4,7880.4,7881.4
201907051716,7881.4,7882.6,7881.1,7882.5
201907051717,7882.5,7882.5,7881.7,7882
201907051718,7882,7883.5,7881.1,7883.1
201907051719,7883.1,7883.5,7882.9,7882.9
201907051720,7882.8,7882.8,7881.4,7881.7
201907051721,7881.6,7881.8,7880.4,7881.4
201907051722,7881.4,7881.6,7880.9,7881.4
201907051723,7881.4,7881.7,7880.3,7880.7
201907051724,7880.7,7881.5,7879.3,7879.3
201907051725,7879.3,7880.4,7879.2,7880.2
201907051726,7880.2,7880.2,7879.2,7879.6
201907051727,7879.6,7880,7879.3,7879.8
201907051728,7879.8,7880.1,7879.6,7879.6
201907051729,7879.6,7879.9,7878.7,7879.1
201907051730,7879.1,7881.1,7879.1,7881.1
201907051731,7881.1,7882.1,7880.3,7880.5
201907051732,7880.5,7882.7,7880.5,7882.6
201907051733,7882.6,7884.2,7882.6,7884.1
201907051734,7884.1,7884.2,7882.7,7883.1
201907051735,7883.1,7883.3,7881.6,7882.1
201907051736,7882.1,7882.7,7880.6,7880.7
201907051737,7880.6,7881.1,7878.9,7878.9
201907051738,7878.9,7878.9,7875.9,7876.6
201907051739,7876.7,7880.6,7876.7,7879.5
201907051740,7879.5,7879.8,7877.1,7877.2
201907051741,7877.2,7877.5,7876.6,7877.3
201907051742,7877.3,7877.5,7876,7877.2
201907051743,7877.2,7878.9,7877.2,7878.4
201907051744,7878.4,7879.4,7878.3,7878.7
201907051745,7878.7,7879.3,7878.2,7878.2
201907051746,7878.2,7878.3,7877.1,7877.6
201907051747,7877.6,7878.5,7877.3,7878.5
201907051748,7878.5,7878.5,7877.1,7877.9
201907051749,7877.9,7878.8,7877.9,7878.5
201907051750,7878.5,7878.5,7876.2,7876.8
201907051751,7876.8,7877.2,7876.4,7876.7
201907051752,7876.7,7877.1,7876,7876.8
201907051753,7876.8,7876.9,7874.9,7875.5
201907051754,7875.4,7875.6,7874.7,7875.3
201907051755,7875.3,7876.1,7875.1,7876.1
201907051756,7876.1,7877.3,7875.6,7876.8
201907051757,7876.8,7876.8,7873.5,7874.3
201907051758,7874.3,7874.8,7873.4,7873.4
201907051759,7873.4,7873.6,7872.1,7872.8
201907051800,7872.8,7873.4,7872.3,7872.7
201907051801,7872.7,7873.5,7872.6,7873.1
201907051802,7873.1,7874.3,7873.1,7873.8
201907051803,7873.8,7876.4,7873.8,7874.4
201907051804,7874.4,7875.5,7874.1,7875.2
201907051805,7875.2,7875.3,7874,7874.4
201907051806,7874.4,7875,7873.7,7875
201907051807,7875,7876.4,7875,7875.9
201907051808,7875.9,7877.4,7875.8,7876.7
201907051809,7876.7,7877.1,7875.9,7876.1
201907051810,7876.1,7876.4,7874.9,7876.4
201907051811,7876.4,7876.7,7875.4,7876
201907051812,7876,7876.1,7875,7875
201907051813,7875,7875.3,7874.4,7874.4
201907051814,7874.4,7875.8,7874.4,7875.7
201907051815,7875.7,7875.7,7873.8,7875.1
201907051816,7875.1,7875.1,7874.1,7874.2
201907051817,7874.2,7875.5,7874.1,7875.2
201907051818,7875.2,7875.9,7874.6,7875.6
201907051819,7875.6,7876.2,7875.3,7875.8
201907051820,7875.8,7878.3,7875.8,7877.3
201907051821,7877.3,7877.3,7875.7,7876.7
201907051822,7876.7,7877.4,7876.4,7876.9
201907051823,7876.9,7878.5,7876.6,7877.9
201907051824,7877.9,7878.1,7876.9,7877.3
201907051825,7877.4,7877.8,7876.6,7876.6
201907051826,7876.6,7877.3,7876.4,7876.9
201907051827,7876.9,7876.9,7875.1,7876.3
201907051828,7876.3,7876.3,7875.6,7876
201907051829,7876,7877.2,7876,7876.8
201907051830,7876.8,7877.9,7876.2,7877.8
201907051831,7877.8,7878.2,7877.6,7877.6
201907051832,7877.6,7878,7877.6,7877.8
201907051833,7877.8,7878.1,7877.1,7877.3
201907051834,7877.2,7878.1,7877.2,7877.7
201907051835,7877.7,7878.4,7876.8,7876.8
201907051836,7876.8,7876.8,7875.2,7875.6
201907051837,7875.6,7875.9,7875.2,7875.9
201907051838,7875.9,7876.9,7875.8,7876.6
201907051839,7876.6,7876.9,7875.8,7875.9
201907051840,7875.8,7877.4,7875.7,7877.1
201907051841,7877.1,7877.1,7876.1,7876.8
201907051842,7876.8,7876.8,7876,7876.6
201907051843,7876.6,7876.8,7876.5,7876.6
201907051844,7876.6,7877.9,7876.6,7877.9
201907051845,7877.9,7877.9,7875.3,7875.8
201907051846,7875.8,7876.5,7875.4,7875.4
201907051847,7875.3,7875.3,7873.2,7873.2
201907051848,7873.2,7873.2,7872.2,7873
201907051849,7873,7874,7872.3,7874
201907051850,7874,7874.5,7873.4,7874.1
201907051851,7874,7874.5,7873.5,7873.9
201907051852,7873.9,7874.1,7872.2,7872.3
201907051853,7872.4,7872.9,7872.2,7872.2
201907051854,7872.2,7872.3,7871.2,7871.8
201907051855,7871.9,7872.7,7869.1,7869.5
201907051856,7869.5,7870.3,7868.7,7869.3
201907051857,7869.3,7869.5,7868.2,7868.2
201907051858,7867.9,7867.9,7866.4,7867.2
201907051859,7867.1,7868.3,7866.9,7867.9
201907051900,7867.8,7869.3,7867.2,7869.1
201907051901,7869,7869.3,7868,7868.3
201907051902,7868.3,7870.3,7868.3,7869.9
201907051903,7869.9,7870.3,7869.3,7870.3
201907051904,7870.3,7870.4,7869.9,7870.4
201907051905,7870.4,7870.5,7869.7,7870.4
201907051906,7870.4,7871.2,7870.3,7870.3
201907051907,7870.3,7870.8,7869.4,7870.8
201907051908,7870.8,7870.8,7870.1,7870.6
201907051909,7870.6,7871,7870.2,7870.7
201907051910,7870.7,7871.5,7870.7,7871.4
201907051911,7871.4,7871.8,7871.1,7871.6
201907051912,7871.6,7872.6,7871.4,7872.5
201907051913,7872.5,7872.7,7871.6,7871.9
201907051914,7871.9,7873.8,7871.7,7873.6
201907051915,7873.6,7873.8,7872.2,7872.7
201907051916,7872.7,7873.3,7871.9,7873.1
201907051917,7873.1,7873.1,7871.9,7872.1
201907051918,7872.1,7872.7,7871.9,7872.6
201907051919,7872.5,7874.3,7872,7874.3
201907051920,7874.3,7875.3,7874.3,7874.8
201907051921,7874.8,7875.6,7874.5,7874.9
201907051922,7874.9,7875.4,7874.5,7874.6
201907051923,7874.6,7874.6,7873.5,7874
201907051924,7874,7874.9,7873.8,7874.3
201907051925,7874.3,7874.3,7872.9,7873.3
201907051926,7873.4,7873.6,7872.4,7873.4
201907051927,7873.3,7874.1,7873.1,7873.9
201907051928,7873.9,7874.6,7873.9,7874.4
201907051929,7874.4,7874.6,7873.9,7874.1
201907051930,7874.1,7874.3,7874.1,7874.2
201907051931,7874.1,7874.1,7871.9,7872
201907051932,7872.1,7872.7,7871.9,7872.1
201907051933,7872.1,7872.9,7871.9,7872.2
201907051934,7872.2,7872.5,7870.8,7871
201907051935,7871,7871.4,7870.9,7871.4
201907051936,7871.4,7871.8,7870.9,7870.9
201907051937,7870.9,7871,7870.6,7870.6
201907051938,7870.6,7872.1,7870.1,7872.1
201907051939,7872.1,7872.3,7871.3,7872.1
201907051940,7872.1,7872.9,7871.9,7872.6
201907051941,7872.5,7873.3,7872.3,7872.8
201907051942,7872.9,7872.9,7871.2,7871.5
201907051943,7871.5,7871.5,7869.9,7870
201907051944,7870.1,7870.8,7870.1,7870.4
201907051945,7870.4,7871.1,7870.4,7870.5
201907051946,7870.6,7870.6,7870.2,7870.3
201907051947,7870.4,7870.4,7870.1,7870.3
201907051948,7870.3,7870.4,7870.2,7870.3
201907051949,7870.3,7870.6,7870.1,7870.3
201907051950,7870.3,7870.6,7870.3,7870.5
201907051951,7870.5,7872,7870.4,7872
201907051952,7872,7872.8,7871.9,7872.7
201907051953,7872.6,7873,7871.8,7871.9
201907051954,7871.9,7872,7871.6,7871.9
201907051955,7871.9,7872.3,7871.9,7872.3
201907051956,7872.3,7872.7,7872,7872.6
201907051957,7872.7,7874.8,7872.7,7874.6
201907051958,7874.5,7874.5,7873.5,7874.1
201907051959,7874,7874.8,7873.9,7874.6
201907052000,7874.6,7875.2,7874.4,7875
201907052001,7874.9,7874.9,7874.3,7874.6
201907052002,7874.6,7875.4,7874.4,7875.2
201907052003,7875.2,7875.2,7873.5,7874.3
201907052004,7874.3,7875.2,7874,7875.1
201907052005,7875.1,7876,7874.5,7875.7
201907052006,7875.8,7876.6,7875.1,7876.6
201907052007,7876.6,7876.6,7876,7876.2
201907052008,7876.2,7877,7875.9,7876
201907052009,7876,7876.5,7875.7,7876.1
201907052010,7876.1,7877.5,7876,7877.5
201907052011,7877.5,7877.5,7876.9,7877.2
201907052012,7877.1,7878,7877.1,7877.9
201907052013,7877.9,7877.9,7875.9,7875.9
201907052014,7875.9,7876.5,7875.6,7876.5
201907052015,7876.5,7877.3,7876.3,7876.7
201907052016,7876.7,7876.7,7876.1,7876.4
201907052017,7876.3,7876.4,7875.7,7875.9
201907052018,7875.9,7876.3,7875.8,7876
201907052019,7876,7876.1,7873.2,7873.3
201907052020,7873.3,7874.1,7872.6,7873
201907052021,7873,7873.1,7872.1,7872.6
201907052022,7872.6,7872.9,7872.4,7872.5
201907052023,7872.6,7872.9,7870.9,7872.1
201907052024,7872.1,7872.2,7871.5,7871.7
201907052025,7871.7,7872.2,7871.4,7871.6
201907052026,7871.6,7872.1,7871.5,7871.7
201907052027,7871.7,7872.1,7871.5,7871.8
201907052028,7871.8,7872.1,7871.2,7871.4
201907052029,7871.4,7871.9,7870.9,7870.9
201907052030,7870.9,7871.4,7867.7,7868.1
201907052031,7868.1,7869.3,7868.1,7868.4
201907052032,7868.4,7870.3,7868.4,7870.3
201907052033,7870.3,7870.5,7869.8,7870.1
201907052034,7870.1,7870.6,7869.2,7869.5
201907052035,7869.5,7870.3,7869.5,7870
201907052036,7870.1,7871.5,7870.1,7871.4
201907052037,7871.4,7872.1,7871,7871.1
201907052038,7871.1,7872,7871.1,7872
201907052039,7872,7872,7870.6,7870.6
201907052040,7870.4,7871.9,7870.4,7871.4
201907052041,7871.4,7871.5,7871.4,7871.4
201907052042,7871.4,7872,7871.3,7871.6
201907052043,7871.5,7872.5,7870.9,7870.9
201907052044,7870.9,7872.3,7870.7,7872.3
201907052045,7872.3,7872.3,7871.3,7871.4
201907052046,7871.4,7871.8,7871.1,7871.2
201907052047,7871.2,7871.3,7870.9,7870.9
201907052048,7870.9,7871.3,7870.9,7871
201907052049,7871,7871.4,7870.9,7871.3
201907052050,7871.3,7872.5,7871,7871.5
201907052051,7871.5,7871.5,7870.9,7871.3
201907052052,7871.3,7871.7,7870.9,7871.3
201907052053,7871.3,7871.8,7870.2,7870.4
201907052054,7870.4,7871.4,7870.4,7870.4
201907052055,7870.5,7871.1,7870.2,7870.9
201907052056,7870.9,7871.8,7870.7,7871.3
201907052057,7871.4,7871.5,7871.2,7871.4
201907052058,7871.4,7871.5,7870.9,7871.4
201907052059,7871.3,7871.3,7868.6,7869.1
201907052100,7869.1,7870,7868.3,7868.3
201907052101,7868.3,7868.3,7865.1,7865.8
201907052102,7865.8,7866.5,7864.9,7866.4
201907052103,7866.4,7868,7866.4,7867.3
201907052104,7867.3,7867.3,7866.6,7867
201907052105,7866.9,7866.9,7864.8,7864.8
201907052106,7864.8,7866.9,7864.8,7866.8
201907052107,7866.8,7868.8,7866.6,7868.8
201907052108,7868.8,7868.8,7867.4,7867.9
201907052109,7867.8,7868.4,7867.6,7868.4
201907052110,7868.4,7869,7867.3,7867.9
201907052111,7867.9,7868.1,7866.9,7867.8
201907052112,7867.8,7868.6,7867.2,7867.4
201907052113,7867.4,7868.3,7867.3,7867.8
201907052114,7867.9,7868.1,7867.2,7867.5
201907052115,7867.5,7867.5,7865.6,7866.3
201907052116,7866.3,7866.5,7864.9,7865.3
201907052117,7865.3,7866.8,7865.3,7866.7
201907052118,7866.6,7866.6,7864.9,7866
201907052119,7866,7866.7,7864.1,7864.4
201907052120,7864.4,7865.1,7863,7864.5
201907052121,7864.5,7864.5,7863,7863.2
201907052122,7863.2,7864.5,7863.2,7863.9
201907052123,7863.9,7865.4,7863.9,7865
201907052124,7865,7866.5,7864.9,7865.6
201907052125,7865.6,7867,7865.6,7866.9
201907052126,7866.9,7867.8,7866,7866.9
201907052127,7866.9,7867.5,7866.3,7867.5
201907052128,7867.5,7867.7,7865.8,7867.5
201907052129,7867.5,7870.2,7865.9,7870.2
201907052130,7870.2,7870.2,7855.8,7857.8
201907052131,7857.8,7877.8,7857.8,7874.8
201907052132,7874.8,7876.4,7861.5,7861.5
201907052133,7861.5,7861.5,7851.9,7852.2
201907052134,7852.2,7857.4,7851.9,7855.9
201907052135,7855.9,7860.1,7854.6,7859.8
201907052136,7859.9,7861.2,7859.1,7860.4
201907052137,7860.4,7860.5,7854.7,7854.9
201907052138,7854.8,7854.8,7848.3,7849.3
201907052139,7849.3,7852.4,7848.5,7849.6
201907052140,7849.6,7851.6,7847.3,7849.4
201907052141,7849.3,7849.3,7844.4,7845.2
201907052142,7845.2,7845.3,7835.1,7836.8
201907052143,7836.8,7837.6,7833.8,7833.8
201907052144,7833.8,7833.8,7827.7,7828.5
201907052145,7828.5,7834.7,7827.9,7833.2
201907052146,7833.2,7839,7832.5,7838.2
201907052147,7838.3,7841.7,7837.7,7839.8
201907052148,7839.8,7844,7839.2,7844
201907052149,7844,7844,7839.9,7841.6
201907052150,7841.7,7844.1,7841,7843.6
201907052151,7843.6,7844,7837.4,7837.4
201907052152,7837.4,7839.9,7831.8,7831.8
201907052153,7831.8,7834.8,7831.4,7832
201907052154,7832.1,7832.6,7828.9,7829.5
201907052155,7829.5,7830,7827.4,7829.5
201907052156,7829.5,7836.6,7829.1,7835.6
201907052157,7835.8,7836.8,7833.8,7836.8
201907052158,7836.8,7840.3,7833.4,7839.6
201907052159,7839.6,7841.8,7839.6,7840.3
201907052200,7840.2,7840.2,7835.7,7838.1
201907052201,7838.1,7839.8,7836.9,7838.1
201907052202,7838.1,7838.3,7834.1,7834.1
201907052203,7834.4,7834.6,7831.7,7833.4
201907052204,7833.4,7834.6,7831.4,7832.8
201907052205,7832.9,7833.6,7831.4,7831.9
201907052206,7831.9,7833.8,7831.4,7832.9
201907052207,7832.9,7833,7831.6,7831.8
201907052208,7831.8,7831.8,7827.1,7827.1
201907052209,7827.1,7829.4,7826.7,7826.7
201907052210,7826.7,7826.7,7820.4,7820.4
201907052211,7820.4,7828.8,7818.8,7828.3
201907052212,7828.3,7828.3,7824.6,7826.1
201907052213,7826.1,7826.3,7821.7,7823.3
201907052214,7823.3,7826.8,7823.3,7824.6
201907052215,7824.6,7826.2,7823.4,7825.7
201907052216,7825.7,7830.1,7825.6,7829.7
201907052217,7829.7,7829.7,7827.6,7827.9
201907052218,7827.7,7830.1,7826.9,7830.1
201907052219,7830.1,7831.6,7829.1,7831.6
201907052220,7831.7,7832.1,7828.5,7828.6
201907052221,7828.6,7829.8,7825.1,7825.9
201907052222,7825.9,7826,7822.2,7825.5
201907052223,7825.5,7827.5,7824.8,7826.3
201907052224,7826.3,7828.6,7826.1,7827
201907052225,7827,7828.6,7826.2,7827.8
201907052226,7827.8,7829.6,7827.4,7829.3
201907052227,7829.6,7831.4,7828.1,7831.4
201907052228,7831.4,7831.4,7828.1,7828.9
201907052229,7828.9,7830.1,7828.3,7829.5
201907052230,7828.9,7835.9,7826.6,7835.9
201907052231,7835.9,7840.9,7835.3,7837.3
201907052232,7837.3,7839.9,7831,7833.6
201907052233,7833.8,7840.5,7832.8,7837.8
201907052234,7837.8,7838.5,7826.6,7831.2
201907052235,7831.1,7831.1,7824.4,7829.6
201907052236,7829.6,7832,7825.8,7827.8
201907052237,7827.8,7831.2,7824.6,7830
201907052238,7830.1,7833.3,7828.8,7832.6
201907052239,7832.3,7835.1,7829.4,7833.9
201907052240,7833.9,7834.5,7828.9,7834.3
201907052241,7834.4,7836.9,7833.1,7834.1
201907052242,7834.1,7836,7829.4,7830.6
201907052243,7830.6,7833.5,7828.4,7830.2
201907052244,7830.8,7830.8,7827.1,7828.4
201907052245,7828.2,7832.2,7823.1,7831.9
201907052246,7831.9,7835,7831.9,7832.8
201907052247,7832.7,7833.9,7829.6,7833.4
201907052248,7833.3,7836.7,7832,7835.3
201907052249,7835.3,7836.5,7834.5,7834.5
201907052250,7834.5,7834.8,7831.4,7832.5
201907052251,7832.7,7832.7,7828.5,7829.4
201907052252,7829.4,7830,7825.2,7828.7
201907052253,7828.6,7829.5,7826.3,7828.6
201907052254,7829.3,7829.3,7826.2,7826.2
201907052255,7826.2,7826.3,7821.1,7822.4
201907052256,7822.4,7822.4,7815.4,7817.3
201907052257,7817.3,7819,7814,7817.7
201907052258,7817.7,7818.1,7814.7,7815.4
201907052259,7815.4,7815.5,7807.2,7808.4
201907052300,7808.5,7811.8,7806.6,7807.1
201907052301,7807.1,7810.8,7806.4,7807.4
201907052302,7807.4,7809.9,7806.7,7807.4
201907052303,7807.4,7811.5,7805.6,7811.5
201907052304,7811.7,7814.7,7810.7,7814.2
201907052305,7814.2,7816.2,7811.7,7815.2
201907052306,7815.2,7820.1,7814.1,7820.1
201907052307,7820.1,7822.2,7819.1,7822.2
201907052308,7822.2,7825.2,7820.9,7824.4
201907052309,7824.4,7824.5,7821.9,7823.7
201907052310,7823.6,7823.6,7819.2,7822.1
201907052311,7822.1,7822.1,7818,7818
201907052312,7818,7818.9,7816.3,7818.4
201907052313,7818.4,7819.3,7815.4,7817.7
201907052314,7818.1,7819.5,7816.4,7818.3
201907052315,7818,7820.6,7815.7,7819.4
201907052316,7819.4,7819.5,7812.1,7814.4
201907052317,7814.4,7815,7810.4,7812.2
201907052318,7812.3,7812.3,7810,7811.5
201907052319,7811.5,7818.2,7811.2,7817.7
201907052320,7817.7,7819.1,7813.1,7813.2
201907052321,7813.2,7813.2,7810,7810.9
201907052322,7810.9,7811.2,7808.2,7808.9
201907052323,7808.9,7809.8,7806.1,7808.4
201907052324,7808.4,7810,7806.2,7809.5
201907052325,7809.3,7813,7807.7,7812.2
201907052326,7812.2,7812.2,7803.9,7807.6
201907052327,7807.9,7813.4,7807.6,7811.8
201907052328,7811.8,7812,7809,7809.4
201907052329,7809.4,7810.9,7807,7807.7
201907052330,7807.7,7808.7,7802.4,7803
201907052331,7803.4,7806.9,7803.4,7806.3
201907052332,7806.3,7806.8,7803.8,7804.8
201907052333,7804.7,7806,7803.6,7804.9
201907052334,7804.9,7805.5,7801.1,7801.8
201907052335,7801.8,7802.4,7798.6,7798.6
201907052336,7798.7,7801.8,7797.5,7800.9
201907052337,7800.8,7803.5,7799.3,7802.6
201907052338,7802.6,7804.2,7801.4,7804.2
201907052339,7804.2,7805,7800.6,7801
201907052340,7801,7804.3,7799.3,7801.5
201907052341,7801.5,7802.2,7799.6,7801.3
201907052342,7801.3,7802.5,7799.6,7802.3
201907052343,7802.4,7804.3,7800.4,7800.9
201907052344,7800.8,7801,7798.1,7798.7
201907052345,7798.6,7800.9,7798,7798.4
201907052346,7798.3,7801.4,7797.2,7800.9
201907052347,7800.9,7806.6,7800.9,7806.3
201907052348,7806.4,7808.5,7806.2,7807.3
201907052349,7807.2,7807.3,7805.2,7805.8
201907052350,7805.8,7810.3,7805.4,7810.3
201907052351,7810.3,7811.9,7809.5,7810.3
201907052352,7810.3,7812.8,7809.7,7811.7
201907052353,7811.8,7811.8,7810,7811.2
201907052354,7811.2,7811.2,7809.5,7810
201907052355,7810.1,7810.1,7806.5,7806.5
201907052356,7806.5,7807,7801.9,7801.9
201907052357,7801.9,7802.4,7798,7802.4
201907052358,7802.4,7806.6,7800.2,7806.6
201907052359,7806.5,7810.7,7805.9,7809.4
201907060000,7809.4,7812.1,7807,7807.4
201907060001,7807.4,7807.5,7803,7804.3
201907060002,7804,7808.2,7804,7807.6
201907060003,7808.3,7809.5,7807,7807.5
201907060004,7807.5,7809.5,7807.4,7808.9
201907060005,7808.9,7810.9,7808.4,7810.4
201907060006,7810.4,7811.2,7806.1,7807.2
201907060007,7807.2,7812,7806.8,7810.1
201907060008,7810.1,7812,7809.9,7812
201907060009,7812,7816.5,7812,7814.9
201907060010,7814.8,7816.6,7814.3,7815.1
201907060011,7815.1,7815.5,7813,7813.4
201907060012,7813.4,7815.5,7813.2,7813.9
201907060013,7813.9,7819.2,7813.9,7818.7
201907060014,7818.7,7819.1,7817,7817.8
201907060015,7817.8,7819.2,7816.9,7818.3
201907060016,7818,7821.8,7817.9,7819.8
201907060017,7819.6,7821.8,7819.5,7821.4
201907060018,7821.4,7821.7,7818.1,7819.3
201907060019,7819.4,7824.1,7819.2,7823.1
201907060020,7823.1,7823.8,7820.5,7821.8
201907060021,7821.8,7825.3,7821.7,7822.8
201907060022,7822.8,7822.8,7819.2,7821.2
201907060023,7820.8,7822.8,7820.5,7820.9
201907060024,7820.9,7821.3,7819.5,7819.9
201907060025,7819.8,7823.3,7819.8,7821.1
201907060026,7821.1,7823.5,7820.9,7822.4
201907060027,7822.4,7824,7819.6,7819.8
201907060028,7819.8,7823.5,7819.6,7823.5
201907060029,7823.5,7828.2,7823.5,7825.2
201907060030,7825.2,7827.4,7823.7,7826.7
201907060031,7826.3,7828.6,7825.9,7827.9
201907060032,7828.2,7828.5,7824.8,7826.4
201907060033,7826.6,7828.9,7826,7828.5
201907060034,7828.5,7829.2,7827.5,7828.6
201907060035,7828.4,7829.4,7825.9,7828.7
201907060036,7828.7,7829.6,7826.8,7828.2
201907060037,7828,7828.3,7826.4,7826.7
201907060038,7826.8,7827,7825.2,7825.4
201907060039,7825.4,7829,7825.3,7829
201907060040,7829,7829.1,7825,7825.3
201907060041,7825.1,7826.4,7824.2,7824.2
201907060042,7824.2,7826.1,7824.1,7825.4
201907060043,7825.4,7825.4,7823.4,7823.7
201907060044,7823.6,7825,7822.2,7822.4
201907060045,7822.4,7823,7817.7,7817.8
201907060046,7817.8,7819.4,7817.4,7817.6
201907060047,7817.6,7817.6,7814.2,7815.8
201907060048,7815.7,7819.3,7815.4,7819.3
201907060049,7819.3,7821.5,7818,7820.7
201907060050,7820.7,7824.1,7819.3,7824.1
201907060051,7824.1,7824.1,7822.1,7823.5
201907060052,7823.5,7823.8,7821.7,7821.8
201907060053,7821.9,7822.1,7819.8,7821.2
201907060054,7821.2,7822.5,7820.4,7821.6
201907060055,7821.6,7822.1,7819.9,7821.3
201907060056,7821.1,7823.4,7820.1,7823.3
201907060057,7823.3,7826.6,7822.2,7826.3
201907060058,7826.3,7826.9,7825.4,7826.2
201907060059,7826.3,7827.4,7825.1,7827.4
201907060100,7827.3,7828.4,7825.7,7827.6
201907060101,7827.6,7829.3,7824.5,7824.9
201907060102,7824.9,7826.8,7824.5,7824.7
201907060103,7824.7,7825.4,7823.7,7824.1
201907060104,7824.1,7824.8,7822.6,7823.6
201907060105,7823.3,7823.3,7821.2,7821.2
201907060106,7821.2,7821.7,7819.1,7820.5
201907060107,7820.5,7821.8,7819.9,7821.5
201907060108,7821.5,7825.3,7820.6,7825
201907060109,7825,7825.7,7824.2,7825.1
201907060110,7825.1,7826.8,7823.4,7826.4
201907060111,7826.4,7828.4,7826,7827.9
201907060112,7827.9,7829,7827.4,7827.9
201907060113,7827.9,7827.9,7826.6,7826.9
201907060114,7826.9,7829.1,7826.9,7828.3
201907060115,7828.3,7833.2,7828.3,7830.9
201907060116,7830.9,7835,7830.9,7832.5
201907060117,7832.5,7836.1,7832.4,7835.6
201907060118,7835.7,7836,7834,7834.7
201907060119,7834.7,7836.5,7834.6,7836.2
201907060120,7836.2,7837.9,7832.7,7833.6
201907060121,7833.5,7836,7833.4,7835.9
201907060122,7835.9,7837.4,7835.6,7836.6
201907060123,7836.6,7839.9,7836.6,7838.4
201907060124,7838.5,7840.5,7837.1,7840
201907060125,7840,7841.3,7839.6,7841.3
201907060126,7841.3,7841.3,7838,7838
201907060127,7838,7838.1,7836.9,7837
201907060128,7837,7837.9,7836.2,7836.9
201907060129,7836.9,7837.9,7836.2,7837.6
201907060130,7837.6,7840.2,7836.9,7838.7
201907060131,7838.7,7839.9,7838.2,7839.6
201907060132,7839.6,7840,7838,7838.9
201907060133,7838.9,7839.2,7837.9,7838.7
201907060134,7838.7,7840,7838.4,7839.8
201907060135,7839.8,7841.7,7839.6,7840.4
201907060136,7840.4,7845,7840.2,7844.9
201907060137,7844.9,7845.9,7843.4,7843.7
201907060138,7843.7,7844.2,7843,7843.7
201907060139,7844,7846.7,7844,7846.2
201907060140,7846.2,7846.9,7845.6,7846.3
201907060141,7846.3,7847.1,7845.7,7845.7
201907060142,7845.7,7847.4,7845.2,7847
201907060143,7847.3,7847.9,7846.6,7846.8
201907060144,7846.8,7847.3,7845.4,7845.9
201907060145,7845.9,7847.3,7845.7,7846.9
201907060146,7846.8,7847.3,7846,7846
201907060147,7846,7846.1,7844.7,7844.8
201907060148,7844.8,7845.4,7843.4,7844.3
201907060149,7844.3,7845,7843.4,7843.7
201907060150,7843.7,7846.3,7843.5,7845.4
201907060151,7845.3,7845.5,7844.6,7845.5
201907060152,7845.5,7849.1,7845.3,7848.7
201907060153,7848.7,7849.2,7846.7,7847.7
201907060154,7847.7,7848.2,7847,7847.6
201907060155,7847.6,7847.9,7847.2,7847.7
201907060156,7847.7,7848.5,7846,7846.7
201907060157,7846.7,7847.2,7845.9,7846.4
201907060158,7846.4,7846.5,7844,7844.4
201907060159,7844.4,7844.8,7843.9,7844
201907060200,7844,7846.5,7843.9,7844.7
201907060201,7844.9,7846.6,7844.6,7845.2
201907060202,7845.2,7845.5,7842.4,7842.6
201907060203,7842.6,7842.8,7839.9,7840.5
201907060204,7840.3,7843.2,7840,7843.2
201907060205,7843.2,7847.7,7843.2,7847.2
201907060206,7847.2,7847.7,7845,7845.6
201907060207,7845.8,7847.5,7845.2,7847.4
201907060208,7847.4,7848.2,7846.4,7848.1
201907060209,7848.1,7848.2,7845.2,7845.3
201907060210,7845.3,7848.4,7845.2,7847.9
201907060211,7847.9,7849.5,7847.7,7847.9
201907060212,7847.9,7848.5,7846.8,7847.2
201907060213,7847.1,7847.9,7846.9,7847.3
201907060214,7847.3,7848.4,7846.9,7848.1
201907060215,7848.1,7848.8,7847.1,7847.5
201907060216,7847.5,7850.1,7847.5,7849.6
201907060217,7849.6,7849.6,7847,7848.4
201907060218,7848.3,7849.5,7848.3,7849.5
201907060219,7849.5,7849.6,7848.7,7849.3
201907060220,7849.4,7849.8,7848.6,7849.4
201907060221,7849.4,7852.3,7849.4,7851.4
201907060222,7851.4,7856.9,7850.9,7856.7
201907060223,7856.7,7857.9,7853.6,7857.4
201907060224,7857.4,7858.5,7856.4,7858.2
201907060225,7858.2,7858.8,7858.1,7858.8
201907060226,7858.9,7858.9,7858,7858.4
201907060227,7858.4,7859.3,7857.6,7859
201907060228,7859,7859.9,7858.2,7858.4
201907060229,7858.6,7861.2,7858.6,7861.2
201907060230,7861.3,7862.3,7861,7862
201907060231,7862,7862.2,7860.8,7861.6
201907060232,7861.6,7862.8,7861.3,7862.6
201907060233,7862.6,7863,7859.2,7859.2
201907060234,7859.2,7859.4,7856.7,7859
201907060235,7859.1,7860.3,7858,7858.7
201907060236,7858.7,7859.1,7858.4,7858.4
201907060237,7858.3,7859.5,7857.9,7858.8
201907060238,7858.8,7861.9,7858.8,7861.8
201907060239,7861.8,7861.8,7860.7,7861.2
201907060240,7861.3,7861.3,7859.5,7860.4
201907060241,7860.2,7863,7859.9,7861.7
201907060242,7861.7,7863.8,7861.7,7863.4
201907060243,7863.4,7864,7861.7,7863
201907060244,7863,7865.9,7863,7865.5
201907060245,7865.5,7865.5,7862.5,7862.5
201907060246,7862.5,7862.9,7861.8,7862.4
201907060247,7862.4,7863.9,7862.4,7862.6
201907060248,7862.6,7862.9,7861.2,7861.3
201907060249,7861.3,7862.5,7861,7862.4
201907060250,7862.3,7863.4,7861.9,7861.9
201907060251,7862,7863.8,7862,7863.5
201907060252,7863.4,7863.4,7860.2,7861.9
201907060253,7861.9,7863.8,7861,7861
201907060254,7861,7861.6,7860.2,7860.6
201907060255,7860.6,7862,7860.6,7862
201907060256,7862,7862,7859.7,7860.8
201907060257,7860.8,7861.1,7858.5,7859.8
201907060258,7859.8,7860.3,7859.2,7860.3
201907060259,7860.1,7861.4,7859.9,7860.5
201907060300,7860.6,7863.1,7860.5,7863.1
201907060301,7863.1,7864.4,7862.7,7864
201907060302,7864,7864.3,7862.4,7863.1
201907060303,7863.1,7863.3,7862.3,7862.9
201907060304,7862.9,7862.9,7861.7,7862
201907060305,7862,7862.1,7859.8,7859.8
201907060306,7859.8,7859.8,7857.5,7858.4
201907060307,7858.3,7858.7,7856.6,7856.8
201907060308,7856.8,7857.5,7855.5,7856.9
201907060309,7856.9,7857.6,7856.2,7857.1
201907060310,7857.1,7860.5,7857.1,7859.5
201907060311,7859.5,7859.5,7857.3,7857.5
201907060312,7857.7,7857.8,7856.4,7857.4
201907060313,7857.4,7858.7,7857,7858.5
201907060314,7858.4,7859.5,7857,7857.5
201907060315,7857.5,7858.1,7856.2,7856.3
201907060316,7856.3,7857.9,7856.2,7856.7
201907060317,7856.5,7859.1,7856.5,7858
201907060318,7858,7860.9,7858,7860.7
201907060319,7860.7,7860.9,7860,7860.7
201907060320,7860.5,7861.5,7860.3,7861.3
201907060321,7861.3,7861.3,7859.9,7859.9
201907060322,7860,7860.4,7859,7860.2
201907060323,7860.4,7862.5,7860.4,7861.7
201907060324,7861.7,7862,7860.9,7861.3
201907060325,7861.3,7861.6,7859.8,7860.4
201907060326,7860.4,7860.8,7859.9,7860.1
201907060327,7860.1,7860.2,7858.7,7859.8
201907060328,7859.8,7860.3,7859.1,7860.3
201907060329,7860.7,7861,7859.3,7860.5
201907060330,7860.5,7863.8,7859.7,7862.4
201907060331,7862.4,7864.8,7861.9,7864.3
201907060332,7864.3,7868.1,7864.3,7867.4
201907060333,7867.4,7867.4,7865.2,7866.9
201907060334,7866.9,7867,7865.9,7866.5
201907060335,7866.5,7866.5,7865,7865.2
201907060336,7865.1,7865.1,7863.8,7864.9
201907060337,7864.9,7868.5,7864.1,7867.7
201907060338,7867.7,7870.9,7867.2,7869.5
201907060339,7869.5,7869.6,7867.9,7868.2
201907060340,7868.2,7870.2,7867,7870.2
201907060341,7870.2,7870.4,7867.8,7868.6
201907060342,7868.6,7868.8,7867.8,7868.4
201907060343,7868.4,7869,7867.7,7868.8
201907060344,7868.8,7871.6,7868.7,7871
201907060345,7871,7871,7869.2,7870.3
201907060346,7870.3,7871.7,7870.2,7871.4
201907060347,7871.4,7871.8,7870.1,7871.4
201907060348,7871.4,7875.3,7871.4,7874.9
201907060349,7874.9,7875.5,7873.4,7875.1
201907060350,7875.1,7875.7,7873.3,7873.9
201907060351,7873.7,7874.3,7872.6,7873.6
201907060352,7873.6,7875.2,7873.6,7875.1
201907060353,7875.1,7876.5,7874.7,7875.8
201907060354,7875.8,7876.3,7875,7875.4
201907060355,7875.4,7876.5,7875.4,7875.7
201907060356,7875.5,7875.8,7874.4,7874.8
201907060357,7874.7,7878.4,7874.7,7877.7
201907060358,7877.7,7880.2,7877.4,7879.2
201907060359,7879.2,7879.6,7878.2,7878.6
201907060400,7878.6,7879.5,7878,7878.3
201907060401,7878.2,7878.3,7875.1,7875.1
201907060402,7875.1,7875.9,7873.4,7874.2
201907060403,7874.2,7874.8,7872.5,7873.2
201907060404,7873.2,7874.4,7871.1,7871.7
201907060405,7871.7,7871.7,7870.4,7871.2
201907060406,7871.2,7871.5,7869,7869.3
201907060407,7869.3,7870.7,7868.4,7870.7
201907060408,7870.7,7870.7,7868.3,7868.6
201907060409,7868.6,7870,7868.6,7869.4
201907060410,7869.4,7870.7,7867.9,7868
201907060411,7868,7871,7868,7868.5
201907060412,7868.3,7868.4,7864.4,7864.4
201907060413,7864.2,7866.8,7862.9,7866.5
201907060414,7866.5,7867.3,7864.9,7867.1
201907060415,7867.2,7869.1,7866,7866
201907060416,7866.1,7866.1,7863.7,7864.1
201907060417,7864.1,7864.4,7862.9,7863.2
201907060418,7863.1,7863.9,7862.6,7863.7
201907060419,7863.8,7864.9,7863.7,7864.4
201907060420,7864.4,7867,7863.7,7867
201907060421,7867.2,7867.6,7866.7,7867
201907060422,7867.1,7867.9,7866.8,7867.3
201907060423,7867.3,7869.8,7867.2,7869.4
201907060424,7869.4,7871,7868.2,7870.1
201907060425,7870.1,7870.3,7868.5,7869
201907060426,7869.1,7869.3,7867.7,7867.7
201907060427,7867.5,7868.3,7866.1,7866.7
201907060428,7866.9,7868.7,7866.9,7867.6
201907060429,7867.6,7870.9,7867.5,7870.5
201907060430,7870.5,7873.7,7870.3,7873.2
201907060431,7873.3,7873.3,7867,7868.4
201907060432,7868.4,7869.3,7866.9,7868
201907060433,7868.2,7869.7,7867.2,7869.4
201907060434,7869.4,7870.3,7867.9,7868.6
201907060435,7868.6,7870.7,7868.2,7870.5
201907060436,7870.5,7871.2,7868,7868.1
201907060437,7868.1,7870.2,7867.1,7868.8
201907060438,7868.9,7868.9,7865.4,7867.9
201907060439,7867.9,7867.9,7865.2,7865.4
201907060440,7865.4,7866.3,7864.2,7864.6
201907060441,7864.6,7866.8,7864.6,7866.1
201907060442,7866.1,7867.3,7865.7,7867
201907060443,7867,7867.2,7864.9,7865.9
201907060444,7865.9,7866.4,7865,7865
201907060445,7865,7865.9,7864,7865.7
201907060446,7865.7,7866.9,7865.2,7866.2
201907060447,7866.2,7868.1,7865.2,7865.4
201907060448,7865.4,7866.2,7864.7,7865.6
201907060449,7865.6,7866.4,7865,7865.2
201907060450,7865.2,7865.9,7863.2,7863.2
201907060451,7863.2,7863.5,7861.4,7862.3
201907060452,7862.4,7862.8,7861.1,7862.4
201907060453,7862.2,7864.7,7862.2,7864.2
201907060454,7864.2,7866.5,7857.7,7860.5
201907060455,7860.5,7860.5,7852.3,7853.5
201907060456,7853.7,7853.9,7851,7852.3
201907060457,7852.3,7855.3,7851.8,7854.1
201907060458,7854.1,7856.3,7853.2,7856.3
201907060459,7856.3,7868.5,7855.8,7868.5
201907060500,7868,7868.7,7862.6,7866.4
201907060501,7866.4,7866.6,7863.2,7863.2
201907060502,7863.2,7864.3,7861.9,7862.5
201907060503,7862.5,7862.8,7858.6,7859
201907060504,7859,7860.2,7857.7,7859.1
201907060505,7859.1,7860.4,7859.1,7859.5
201907060506,7859.5,7860.3,7859.3,7859.5
201907060507,7859.6,7859.6,7858.1,7858.3
201907060508,7858.3,7860.1,7858.3,7859.3
201907060509,7859.3,7860.1,7859,7859.7
201907060510,7859.7,7860.1,7858.8,7859.1
201907060511,7859.1,7859.2,7858.1,7858.1
201907060512,7858.1,7858.2,7855.4,7855.4
201907060513,7855.4,7856.4,7852.8,7852.8
201907060514,7852.9,7853.3,7850.4,7850.9
