日時,始値(BID),高値(BID),安値(BID),終値(BID)
201901080800,15.655,15.657,15.648,15.657
201901080801,15.66,15.66,15.659,15.66
201901080802,15.66,15.661,15.657,15.661
201901080803,15.661,15.662,15.66,15.662
201901080804,15.662,15.662,15.661,15.661
201901080805,15.661,15.664,15.661,15.663
201901080806,15.663,15.664,15.663,15.664
201901080807,15.664,15.664,15.664,15.664
201901080808,15.663,15.664,15.663,15.663
201901080809,15.663,15.664,15.661,15.661
201901080810,15.661,15.662,15.659,15.662
201901080811,15.662,15.662,15.661,15.661
201901080812,15.661,15.662,15.66,15.661
201901080813,15.661,15.662,15.661,15.662
201901080814,15.662,15.662,15.662,15.662
201901080815,15.662,15.662,15.661,15.662
201901080816,15.662,15.662,15.661,15.661
201901080817,15.661,15.662,15.661,15.661
201901080818,15.661,15.662,15.661,15.662
201901080819,15.662,15.662,15.661,15.661
201901080820,15.662,15.662,15.661,15.661
201901080821,15.661,15.662,15.661,15.661
201901080822,15.661,15.661,15.66,15.661
201901080823,15.661,15.661,15.66,15.66
201901080824,15.66,15.662,15.66,15.662
201901080825,15.662,15.662,15.661,15.662
201901080826,15.662,15.665,15.66,15.661
201901080827,15.66,15.661,15.66,15.661
201901080828,15.661,15.661,15.66,15.66
201901080829,15.66,15.665,15.66,15.665
201901080830,15.666,15.666,15.661,15.661
201901080831,15.661,15.664,15.661,15.664
201901080832,15.664,15.665,15.664,15.664
201901080833,15.664,15.664,15.663,15.663
201901080834,15.663,15.663,15.663,15.663
201901080835,15.663,15.665,15.663,15.663
201901080836,15.663,15.665,15.663,15.665
201901080837,15.665,15.665,15.663,15.663
201901080838,15.663,15.663,15.661,15.661
201901080839,15.661,15.661,15.66,15.661
201901080840,15.661,15.661,15.661,15.661
201901080841,15.661,15.661,15.66,15.661
201901080842,15.661,15.661,15.66,15.66
201901080843,15.66,15.66,15.66,15.66
201901080844,15.66,15.66,15.66,15.66
201901080845,15.661,15.661,15.659,15.659
201901080846,15.659,15.66,15.659,15.659
201901080847,15.659,15.659,15.659,15.659
201901080848,15.659,15.659,15.656,15.656
201901080849,15.656,15.659,15.656,15.656
201901080850,15.656,15.656,15.655,15.656
201901080851,15.656,15.656,15.656,15.656
201901080852,15.656,15.656,15.656,15.656
201901080853,15.656,15.656,15.656,15.656
201901080854,15.656,15.656,15.655,15.655
201901080855,15.655,15.656,15.655,15.656
201901080856,15.656,15.656,15.655,15.655
201901080857,15.655,15.655,15.655,15.655
201901080858,15.655,15.656,15.655,15.655
201901080859,15.655,15.655,15.655,15.655
201901080900,15.655,15.655,15.655,15.655
201901080901,15.655,15.655,15.655,15.655
201901080902,15.655,15.655,15.655,15.655
201901080903,15.655,15.655,15.655,15.655
201901080904,15.655,15.655,15.655,15.655
201901080905,15.655,15.655,15.655,15.655
201901080906,15.655,15.655,15.65,15.653
201901080907,15.652,15.652,15.649,15.65
201901080908,15.65,15.651,15.65,15.651
201901080909,15.651,15.654,15.651,15.651
201901080910,15.651,15.655,15.65,15.654
201901080911,15.654,15.654,15.65,15.65
201901080912,15.65,15.651,15.647,15.647
201901080913,15.647,15.647,15.645,15.645
201901080914,15.645,15.646,15.645,15.646
201901080915,15.646,15.65,15.646,15.649
201901080916,15.649,15.65,15.649,15.649
201901080917,15.649,15.65,15.649,15.65
201901080918,15.65,15.65,15.65,15.65
201901080919,15.65,15.65,15.649,15.65
201901080920,15.65,15.65,15.65,15.65
201901080921,15.65,15.651,15.65,15.651
201901080922,15.651,15.651,15.65,15.65
201901080923,15.65,15.65,15.65,15.65
201901080924,15.65,15.656,15.65,15.656
201901080925,15.656,15.66,15.655,15.657
201901080926,15.657,15.657,15.65,15.65
201901080927,15.65,15.651,15.65,15.65
201901080928,15.65,15.65,15.647,15.647
201901080929,15.647,15.65,15.646,15.648
201901080930,15.646,15.649,15.645,15.645
201901080931,15.645,15.645,15.645,15.645
201901080932,15.645,15.645,15.644,15.644
201901080933,15.645,15.645,15.645,15.645
201901080934,15.645,15.645,15.645,15.645
201901080935,15.645,15.645,15.645,15.645
201901080936,15.645,15.645,15.644,15.645
201901080937,15.645,15.645,15.645,15.645
201901080938,15.645,15.645,15.644,15.644
201901080939,15.644,15.645,15.644,15.645
201901080940,15.645,15.645,15.645,15.645
201901080941,15.645,15.649,15.644,15.645
201901080942,15.645,15.645,15.644,15.644
201901080943,15.644,15.645,15.644,15.645
201901080944,15.645,15.645,15.644,15.645
201901080945,15.645,15.649,15.645,15.649
201901080946,15.649,15.65,15.649,15.65
201901080947,15.65,15.654,15.65,15.654
201901080948,15.654,15.655,15.654,15.654
201901080949,15.654,15.655,15.654,15.654
201901080950,15.652,15.654,15.651,15.654
201901080951,15.654,15.655,15.654,15.655
201901080952,15.656,15.659,15.654,15.659
201901080953,15.659,15.661,15.659,15.66
201901080954,15.66,15.66,15.659,15.66
201901080955,15.66,15.661,15.659,15.661
201901080956,15.66,15.664,15.66,15.664
201901080957,15.664,15.665,15.66,15.665
201901080958,15.668,15.668,15.664,15.666
201901080959,15.666,15.668,15.666,15.666
201901081000,15.666,15.673,15.666,15.673
201901081001,15.673,15.674,15.669,15.67
201901081002,15.67,15.674,15.669,15.67
201901081003,15.67,15.67,15.666,15.666
201901081004,15.666,15.669,15.665,15.668
201901081005,15.668,15.671,15.668,15.671
201901081006,15.671,15.675,15.671,15.675
201901081007,15.676,15.68,15.675,15.678
201901081008,15.678,15.68,15.675,15.675
201901081009,15.675,15.675,15.671,15.671
201901081010,15.671,15.674,15.67,15.671
201901081011,15.671,15.674,15.67,15.67
201901081012,15.67,15.671,15.667,15.669
201901081013,15.669,15.67,15.666,15.669
201901081014,15.669,15.671,15.667,15.67
201901081015,15.67,15.672,15.669,15.671
201901081016,15.671,15.674,15.671,15.672
201901081017,15.672,15.676,15.671,15.676
201901081018,15.676,15.684,15.676,15.681
201901081019,15.681,15.681,15.666,15.668
201901081020,15.666,15.667,15.664,15.667
201901081021,15.667,15.672,15.667,15.671
201901081022,15.671,15.671,15.666,15.666
201901081023,15.668,15.67,15.666,15.666
201901081024,15.667,15.667,15.664,15.666
201901081025,15.666,15.668,15.665,15.668
201901081026,15.668,15.668,15.665,15.665
201901081027,15.665,15.666,15.664,15.665
201901081028,15.663,15.663,15.66,15.66
201901081029,15.66,15.66,15.649,15.649
201901081030,15.649,15.65,15.645,15.645
201901081031,15.646,15.646,15.639,15.642
201901081032,15.64,15.645,15.636,15.645
201901081033,15.645,15.645,15.64,15.644
201901081034,15.644,15.645,15.631,15.631
201901081035,15.63,15.63,15.624,15.624
201901081036,15.624,15.629,15.623,15.629
201901081037,15.628,15.629,15.626,15.628
201901081038,15.628,15.629,15.62,15.62
201901081039,15.62,15.62,15.615,15.615
201901081040,15.615,15.62,15.615,15.618
201901081041,15.619,15.619,15.614,15.615
201901081042,15.614,15.615,15.61,15.61
201901081043,15.61,15.614,15.609,15.614
201901081044,15.614,15.615,15.611,15.611
201901081045,15.611,15.614,15.611,15.611
201901081046,15.611,15.613,15.611,15.613
201901081047,15.613,15.613,15.611,15.612
201901081048,15.612,15.617,15.612,15.617
201901081049,15.618,15.621,15.618,15.62
201901081050,15.62,15.62,15.619,15.619
201901081051,15.619,15.62,15.618,15.619
201901081052,15.618,15.62,15.618,15.62
201901081053,15.62,15.62,15.619,15.62
201901081054,15.62,15.621,15.62,15.62
201901081055,15.62,15.62,15.617,15.618
201901081056,15.617,15.618,15.61,15.61
201901081057,15.61,15.615,15.609,15.615
201901081058,15.615,15.615,15.612,15.612
201901081059,15.612,15.612,15.609,15.611
201901081100,15.613,15.614,15.611,15.611
201901081101,15.611,15.611,15.606,15.609
201901081102,15.609,15.609,15.604,15.604
201901081103,15.604,15.606,15.601,15.606
201901081104,15.608,15.609,15.606,15.606
201901081105,15.606,15.607,15.603,15.604
201901081106,15.605,15.614,15.605,15.614
201901081107,15.614,15.615,15.614,15.614
201901081108,15.614,15.615,15.611,15.613
201901081109,15.613,15.613,15.608,15.609
201901081110,15.609,15.609,15.608,15.609
201901081111,15.61,15.611,15.61,15.61
201901081112,15.611,15.611,15.609,15.611
201901081113,15.61,15.611,15.61,15.611
201901081114,15.61,15.611,15.609,15.61
201901081115,15.61,15.611,15.61,15.61
201901081116,15.61,15.613,15.61,15.613
201901081117,15.613,15.615,15.613,15.613
201901081118,15.613,15.615,15.613,15.614
201901081119,15.615,15.615,15.613,15.615
201901081120,15.615,15.618,15.615,15.618
201901081121,15.618,15.619,15.617,15.619
201901081122,15.619,15.62,15.619,15.62
201901081123,15.619,15.62,15.618,15.618
201901081124,15.619,15.62,15.619,15.62
201901081125,15.619,15.619,15.617,15.617
201901081126,15.617,15.619,15.617,15.619
201901081127,15.619,15.621,15.619,15.621
201901081128,15.62,15.621,15.62,15.62
201901081129,15.62,15.622,15.62,15.621
201901081130,15.62,15.624,15.619,15.622
201901081131,15.622,15.625,15.622,15.624
201901081132,15.624,15.626,15.624,15.626
201901081133,15.626,15.628,15.625,15.625
201901081134,15.625,15.626,15.625,15.625
201901081135,15.625,15.626,15.625,15.625
201901081136,15.625,15.625,15.624,15.624
201901081137,15.624,15.624,15.622,15.622
201901081138,15.624,15.624,15.619,15.62
201901081139,15.62,15.624,15.619,15.623
201901081140,15.623,15.623,15.619,15.619
201901081141,15.619,15.62,15.613,15.615
201901081142,15.615,15.616,15.614,15.614
201901081143,15.614,15.618,15.614,15.616
201901081144,15.617,15.62,15.617,15.619
201901081145,15.619,15.62,15.619,15.62
201901081146,15.62,15.62,15.616,15.616
201901081147,15.616,15.616,15.615,15.615
201901081148,15.615,15.616,15.612,15.612
201901081149,15.614,15.614,15.609,15.609
201901081150,15.609,15.609,15.594,15.595
201901081151,15.597,15.598,15.594,15.595
201901081152,15.595,15.595,15.593,15.595
201901081153,15.595,15.595,15.587,15.587
201901081154,15.579,15.579,15.566,15.568
201901081155,15.568,15.57,15.566,15.57
201901081156,15.57,15.57,15.569,15.569
201901081157,15.569,15.573,15.569,15.573
201901081158,15.574,15.574,15.57,15.571
201901081159,15.571,15.571,15.569,15.569
201901081200,15.57,15.57,15.566,15.567
201901081201,15.567,15.569,15.566,15.569
201901081202,15.569,15.57,15.565,15.565
201901081203,15.565,15.566,15.565,15.565
201901081204,15.565,15.567,15.565,15.567
201901081205,15.566,15.566,15.558,15.559
201901081206,15.559,15.559,15.554,15.554
201901081207,15.554,15.56,15.554,15.559
201901081208,15.559,15.559,15.554,15.557
201901081209,15.557,15.562,15.557,15.56
201901081210,15.56,15.562,15.56,15.561
201901081211,15.562,15.564,15.561,15.564
201901081212,15.564,15.565,15.564,15.564
201901081213,15.563,15.565,15.559,15.559
201901081214,15.559,15.559,15.55,15.552
201901081215,15.552,15.553,15.549,15.552
201901081216,15.552,15.559,15.552,15.559
201901081217,15.562,15.562,15.557,15.557
201901081218,15.557,15.557,15.556,15.556
201901081219,15.556,15.557,15.553,15.554
201901081220,15.554,15.554,15.553,15.553
201901081221,15.554,15.554,15.552,15.552
201901081222,15.552,15.555,15.552,15.554
201901081223,15.554,15.554,15.551,15.552
201901081224,15.552,15.553,15.552,15.552
201901081225,15.552,15.552,15.548,15.549
201901081226,15.549,15.549,15.548,15.549
201901081227,15.549,15.55,15.544,15.547
201901081228,15.545,15.545,15.542,15.543
201901081229,15.543,15.546,15.543,15.544
201901081230,15.543,15.546,15.543,15.544
201901081231,15.544,15.545,15.544,15.545
201901081232,15.545,15.546,15.544,15.544
201901081233,15.544,15.544,15.538,15.539
201901081234,15.539,15.54,15.538,15.539
201901081235,15.539,15.54,15.539,15.54
201901081236,15.54,15.546,15.54,15.546
201901081237,15.546,15.546,15.544,15.544
201901081238,15.545,15.545,15.544,15.545
201901081239,15.545,15.549,15.543,15.543
201901081240,15.543,15.545,15.543,15.544
201901081241,15.543,15.545,15.543,15.544
201901081242,15.544,15.545,15.54,15.54
201901081243,15.54,15.541,15.539,15.539
201901081244,15.539,15.54,15.539,15.539
201901081245,15.539,15.541,15.539,15.541
201901081246,15.541,15.543,15.538,15.543
201901081247,15.543,15.543,15.539,15.539
201901081248,15.539,15.539,15.537,15.537
201901081249,15.537,15.539,15.537,15.537
201901081250,15.538,15.539,15.538,15.538
201901081251,15.538,15.539,15.537,15.537
201901081252,15.538,15.541,15.537,15.541
201901081253,15.541,15.541,15.538,15.538
201901081254,15.538,15.538,15.535,15.536
201901081255,15.536,15.536,15.525,15.525
201901081256,15.524,15.525,15.523,15.524
201901081257,15.524,15.527,15.522,15.527
201901081258,15.527,15.529,15.527,15.527
201901081259,15.528,15.53,15.526,15.529
201901081300,15.529,15.529,15.528,15.528
201901081301,15.526,15.528,15.526,15.528
201901081302,15.528,15.531,15.528,15.531
201901081303,15.531,15.531,15.521,15.522
201901081304,15.522,15.523,15.52,15.522
201901081305,15.522,15.524,15.521,15.522
201901081306,15.523,15.526,15.523,15.524
201901081307,15.524,15.526,15.524,15.526
201901081308,15.526,15.532,15.526,15.531
201901081309,15.531,15.533,15.531,15.533
201901081310,15.533,15.533,15.531,15.531
201901081311,15.531,15.538,15.531,15.538
201901081312,15.538,15.54,15.537,15.54
201901081313,15.54,15.54,15.537,15.538
201901081314,15.538,15.538,15.536,15.538
201901081315,15.538,15.539,15.538,15.539
201901081316,15.539,15.539,15.536,15.537
201901081317,15.537,15.537,15.535,15.536
201901081318,15.535,15.537,15.534,15.537
201901081319,15.537,15.537,15.535,15.536
201901081320,15.537,15.538,15.536,15.537
201901081321,15.537,15.538,15.537,15.537
201901081322,15.537,15.542,15.537,15.542
201901081323,15.542,15.544,15.541,15.543
201901081324,15.543,15.543,15.541,15.542
201901081325,15.542,15.547,15.542,15.547
201901081326,15.546,15.549,15.546,15.549
201901081327,15.549,15.553,15.549,15.553
201901081328,15.553,15.555,15.553,15.553
201901081329,15.553,15.554,15.55,15.55
201901081330,15.55,15.553,15.549,15.553
201901081331,15.553,15.555,15.553,15.554
201901081332,15.554,15.554,15.552,15.552
201901081333,15.552,15.552,15.551,15.551
201901081334,15.551,15.552,15.55,15.552
201901081335,15.552,15.553,15.548,15.548
201901081336,15.548,15.55,15.547,15.55
201901081337,15.552,15.552,15.55,15.552
201901081338,15.552,15.552,15.551,15.551
201901081339,15.551,15.552,15.551,15.551
201901081340,15.551,15.553,15.551,15.551
201901081341,15.551,15.553,15.551,15.553
201901081342,15.553,15.553,15.55,15.55
201901081343,15.55,15.55,15.546,15.546
201901081344,15.546,15.546,15.546,15.546
201901081345,15.546,15.546,15.546,15.546
201901081346,15.546,15.55,15.546,15.549
201901081347,15.549,15.55,15.546,15.546
201901081348,15.547,15.547,15.545,15.545
201901081349,15.545,15.546,15.545,15.545
201901081350,15.545,15.545,15.545,15.545
201901081351,15.545,15.546,15.545,15.545
201901081352,15.545,15.546,15.545,15.545
201901081353,15.545,15.545,15.541,15.541
201901081354,15.541,15.544,15.541,15.543
201901081355,15.543,15.543,15.541,15.541
201901081356,15.541,15.541,15.54,15.541
201901081357,15.541,15.541,15.54,15.54
201901081358,15.54,15.541,15.54,15.541
201901081359,15.541,15.541,15.54,15.54
201901081400,15.54,15.541,15.54,15.541
201901081401,15.541,15.541,15.54,15.541
201901081402,15.541,15.541,15.541,15.541
201901081403,15.541,15.541,15.541,15.541
201901081404,15.541,15.541,15.54,15.54
201901081405,15.54,15.541,15.54,15.541
201901081406,15.541,15.543,15.54,15.541
201901081407,15.542,15.546,15.542,15.545
201901081408,15.545,15.546,15.544,15.544
201901081409,15.544,15.544,15.542,15.542
201901081410,15.542,15.543,15.54,15.54
201901081411,15.54,15.541,15.539,15.539
201901081412,15.539,15.539,15.538,15.539
201901081413,15.539,15.539,15.539,15.539
201901081414,15.539,15.539,15.539,15.539
201901081415,15.539,15.539,15.534,15.534
201901081416,15.534,15.536,15.534,15.535
201901081417,15.535,15.535,15.534,15.535
201901081418,15.535,15.535,15.533,15.534
201901081419,15.534,15.534,15.529,15.529
201901081420,15.529,15.531,15.529,15.529
201901081421,15.529,15.53,15.529,15.53
201901081422,15.529,15.531,15.529,15.529
201901081423,15.529,15.534,15.529,15.534
201901081424,15.534,15.534,15.533,15.534
201901081425,15.534,15.535,15.534,15.534
201901081426,15.534,15.535,15.534,15.534
201901081427,15.534,15.535,15.533,15.534
201901081428,15.534,15.534,15.53,15.531
201901081429,15.531,15.531,15.528,15.531
201901081430,15.531,15.531,15.528,15.528
201901081431,15.528,15.532,15.528,15.53
201901081432,15.53,15.53,15.524,15.525
201901081433,15.525,15.525,15.52,15.52
201901081434,15.52,15.521,15.52,15.521
201901081435,15.521,15.521,15.509,15.512
201901081436,15.509,15.51,15.505,15.505
201901081437,15.505,15.506,15.502,15.502
201901081438,15.502,15.502,15.497,15.498
201901081439,15.498,15.502,15.498,15.502
201901081440,15.502,15.507,15.501,15.507
201901081441,15.507,15.508,15.506,15.508
201901081442,15.508,15.508,15.506,15.507
201901081443,15.507,15.515,15.507,15.515
201901081444,15.515,15.52,15.515,15.52
201901081445,15.521,15.522,15.521,15.522
201901081446,15.522,15.528,15.522,15.527
201901081447,15.527,15.529,15.526,15.526
201901081448,15.526,15.526,15.525,15.525
201901081449,15.525,15.525,15.52,15.52
201901081450,15.52,15.521,15.52,15.521
201901081451,15.52,15.521,15.519,15.521
201901081452,15.52,15.522,15.52,15.52
201901081453,15.52,15.52,15.516,15.517
201901081454,15.517,15.517,15.511,15.512
201901081455,15.512,15.512,15.511,15.512
201901081456,15.51,15.511,15.509,15.511
201901081457,15.511,15.512,15.511,15.511
201901081458,15.511,15.516,15.509,15.516
201901081459,15.516,15.53,15.515,15.53
201901081500,15.529,15.541,15.529,15.538
201901081501,15.538,15.538,15.537,15.537
201901081502,15.538,15.547,15.537,15.546
201901081503,15.546,15.546,15.538,15.538
201901081504,15.538,15.544,15.538,15.544
201901081505,15.544,15.545,15.543,15.545
201901081506,15.545,15.551,15.545,15.55
201901081507,15.55,15.554,15.55,15.554
201901081508,15.553,15.553,15.544,15.544
201901081509,15.544,15.544,15.541,15.542
201901081510,15.543,15.543,15.539,15.54
201901081511,15.54,15.54,15.537,15.538
201901081512,15.538,15.539,15.538,15.539
201901081513,15.537,15.543,15.537,15.542
201901081514,15.542,15.544,15.541,15.543
201901081515,15.542,15.547,15.541,15.547
201901081516,15.547,15.548,15.546,15.548
201901081517,15.548,15.551,15.546,15.547
201901081518,15.548,15.55,15.548,15.55
201901081519,15.55,15.551,15.55,15.551
201901081520,15.551,15.551,15.55,15.55
201901081521,15.551,15.551,15.551,15.551
201901081522,15.551,15.56,15.551,15.559
201901081523,15.559,15.559,15.559,15.559
201901081524,15.56,15.56,15.557,15.559
201901081525,15.559,15.559,15.558,15.559
201901081526,15.559,15.561,15.558,15.558
201901081527,15.558,15.558,15.555,15.557
201901081528,15.557,15.558,15.551,15.551
201901081529,15.551,15.553,15.551,15.552
201901081530,15.553,15.555,15.552,15.553
201901081531,15.554,15.554,15.552,15.554
201901081532,15.553,15.554,15.553,15.553
201901081533,15.553,15.554,15.553,15.554
201901081534,15.554,15.561,15.554,15.561
201901081535,15.561,15.561,15.557,15.558
201901081536,15.558,15.558,15.556,15.556
201901081537,15.556,15.558,15.555,15.555
201901081538,15.555,15.558,15.555,15.558
201901081539,15.558,15.558,15.555,15.558
201901081540,15.558,15.558,15.553,15.554
201901081541,15.552,15.556,15.552,15.555
201901081542,15.555,15.555,15.552,15.553
201901081543,15.553,15.554,15.553,15.554
201901081544,15.554,15.554,15.55,15.55
201901081545,15.55,15.55,15.544,15.545
201901081546,15.545,15.546,15.544,15.544
201901081547,15.544,15.545,15.544,15.544
201901081548,15.544,15.551,15.544,15.549
201901081549,15.549,15.549,15.547,15.549
201901081550,15.55,15.551,15.549,15.55
201901081551,15.551,15.552,15.551,15.551
201901081552,15.551,15.552,15.55,15.551
201901081553,15.551,15.555,15.551,15.555
201901081554,15.555,15.56,15.555,15.56
201901081555,15.56,15.56,15.555,15.557
201901081556,15.557,15.56,15.557,15.56
201901081557,15.56,15.56,15.558,15.558
201901081558,15.558,15.56,15.555,15.56
201901081559,15.56,15.56,15.556,15.557
201901081600,15.557,15.557,15.549,15.549
201901081601,15.549,15.55,15.544,15.544
201901081602,15.544,15.549,15.544,15.547
201901081603,15.546,15.547,15.544,15.547
201901081604,15.547,15.55,15.547,15.55
201901081605,15.55,15.55,15.548,15.549
201901081606,15.549,15.55,15.549,15.549
201901081607,15.549,15.55,15.549,15.55
201901081608,15.55,15.554,15.55,15.554
201901081609,15.554,15.556,15.554,15.555
201901081610,15.555,15.56,15.555,15.559
201901081611,15.559,15.56,15.559,15.56
201901081612,15.56,15.56,15.552,15.552
201901081613,15.552,15.556,15.552,15.555
201901081614,15.555,15.555,15.554,15.554
201901081615,15.55,15.56,15.55,15.559
201901081616,15.56,15.56,15.547,15.548
201901081617,15.546,15.549,15.546,15.548
201901081618,15.549,15.55,15.548,15.55
201901081619,15.55,15.55,15.549,15.55
201901081620,15.549,15.553,15.549,15.552
201901081621,15.551,15.551,15.545,15.545
201901081622,15.545,15.545,15.542,15.543
201901081623,15.543,15.544,15.54,15.542
201901081624,15.542,15.544,15.54,15.54
201901081625,15.54,15.543,15.54,15.542
201901081626,15.542,15.546,15.542,15.544
201901081627,15.544,15.546,15.544,15.546
201901081628,15.545,15.545,15.544,15.544
201901081629,15.544,15.545,15.544,15.545
201901081630,15.545,15.549,15.544,15.549
201901081631,15.548,15.549,15.548,15.549
201901081632,15.549,15.549,15.544,15.546
201901081633,15.546,15.546,15.544,15.545
201901081634,15.545,15.546,15.544,15.546
201901081635,15.546,15.546,15.545,15.545
201901081636,15.545,15.549,15.545,15.549
201901081637,15.549,15.549,15.545,15.545
201901081638,15.545,15.55,15.545,15.55
201901081639,15.549,15.549,15.545,15.549
201901081640,15.549,15.549,15.54,15.543
201901081641,15.543,15.544,15.542,15.543
201901081642,15.542,15.544,15.54,15.544
201901081643,15.544,15.55,15.544,15.549
201901081644,15.549,15.549,15.546,15.549
201901081645,15.549,15.549,15.545,15.545
201901081646,15.544,15.547,15.541,15.547
201901081647,15.546,15.546,15.54,15.541
201901081648,15.541,15.541,15.539,15.54
201901081649,15.54,15.543,15.539,15.543
201901081650,15.543,15.549,15.542,15.547
201901081651,15.548,15.552,15.547,15.547
201901081652,15.548,15.55,15.548,15.548
201901081653,15.548,15.554,15.548,15.554
201901081654,15.554,15.557,15.55,15.555
201901081655,15.554,15.554,15.549,15.549
201901081656,15.549,15.549,15.541,15.542
201901081657,15.542,15.545,15.541,15.543
201901081658,15.543,15.546,15.542,15.543
201901081659,15.544,15.547,15.542,15.542
201901081700,15.543,15.562,15.543,15.559
201901081701,15.559,15.562,15.552,15.562
201901081702,15.562,15.573,15.562,15.573
201901081703,15.573,15.577,15.572,15.577
201901081704,15.577,15.577,15.574,15.574
201901081705,15.573,15.573,15.572,15.573
201901081706,15.573,15.576,15.572,15.576
201901081707,15.575,15.576,15.572,15.576
201901081708,15.575,15.578,15.574,15.578
201901081709,15.578,15.578,15.575,15.578
201901081710,15.577,15.578,15.572,15.572
201901081711,15.572,15.575,15.57,15.57
201901081712,15.571,15.574,15.567,15.567
201901081713,15.567,15.567,15.562,15.565
201901081714,15.565,15.566,15.561,15.561
201901081715,15.56,15.561,15.56,15.56
201901081716,15.561,15.565,15.561,15.561
201901081717,15.561,15.564,15.555,15.555
201901081718,15.555,15.558,15.555,15.556
201901081719,15.556,15.556,15.547,15.553
201901081720,15.552,15.565,15.552,15.565
201901081721,15.565,15.565,15.562,15.563
201901081722,15.563,15.566,15.562,15.566
201901081723,15.566,15.566,15.561,15.562
201901081724,15.563,15.566,15.56,15.566
201901081725,15.566,15.566,15.56,15.56
201901081726,15.56,15.562,15.56,15.561
201901081727,15.562,15.565,15.561,15.561
201901081728,15.561,15.562,15.557,15.557
201901081729,15.557,15.563,15.557,15.56
201901081730,15.56,15.565,15.558,15.561
201901081731,15.561,15.562,15.56,15.56
201901081732,15.56,15.562,15.56,15.56
201901081733,15.56,15.565,15.56,15.565
201901081734,15.565,15.565,15.564,15.565
201901081735,15.565,15.571,15.565,15.571
201901081736,15.571,15.571,15.57,15.571
201901081737,15.571,15.572,15.57,15.572
201901081738,15.572,15.573,15.568,15.568
201901081739,15.571,15.571,15.568,15.571
201901081740,15.57,15.571,15.568,15.571
201901081741,15.572,15.572,15.568,15.57
201901081742,15.571,15.572,15.57,15.571
201901081743,15.571,15.573,15.571,15.573
201901081744,15.575,15.582,15.575,15.58
201901081745,15.58,15.587,15.58,15.587
201901081746,15.587,15.59,15.585,15.585
201901081747,15.586,15.59,15.586,15.587
201901081748,15.587,15.591,15.587,15.591
201901081749,15.591,15.591,15.59,15.591
201901081750,15.591,15.591,15.591,15.591
201901081751,15.591,15.591,15.591,15.591
201901081752,15.591,15.591,15.588,15.588
201901081753,15.589,15.591,15.589,15.591
201901081754,15.591,15.591,15.588,15.588
201901081755,15.588,15.588,15.583,15.583
201901081756,15.583,15.583,15.582,15.582
201901081757,15.582,15.587,15.582,15.587
201901081758,15.587,15.587,15.586,15.587
201901081759,15.587,15.592,15.586,15.59
201901081800,15.589,15.593,15.589,15.593
201901081801,15.596,15.598,15.595,15.597
201901081802,15.597,15.598,15.591,15.598
201901081803,15.599,15.603,15.592,15.592
201901081804,15.595,15.596,15.592,15.592
201901081805,15.592,15.602,15.592,15.602
201901081806,15.6,15.602,15.6,15.6
201901081807,15.6,15.603,15.6,15.601
201901081808,15.602,15.605,15.601,15.602
201901081809,15.602,15.604,15.596,15.596
201901081810,15.596,15.601,15.596,15.598
201901081811,15.598,15.598,15.593,15.594
201901081812,15.596,15.597,15.593,15.593
201901081813,15.593,15.597,15.592,15.597
201901081814,15.598,15.598,15.597,15.598
201901081815,15.597,15.598,15.597,15.597
201901081816,15.597,15.598,15.597,15.597
201901081817,15.597,15.597,15.587,15.587
201901081818,15.587,15.588,15.586,15.587
201901081819,15.587,15.588,15.585,15.586
201901081820,15.586,15.587,15.586,15.586
201901081821,15.586,15.586,15.581,15.581
201901081822,15.581,15.588,15.581,15.588
201901081823,15.586,15.588,15.585,15.587
201901081824,15.587,15.589,15.585,15.585
201901081825,15.585,15.592,15.585,15.592
201901081826,15.593,15.594,15.593,15.594
201901081827,15.594,15.595,15.591,15.592
201901081828,15.592,15.595,15.592,15.594
201901081829,15.594,15.595,15.593,15.594
201901081830,15.594,15.599,15.594,15.598
201901081831,15.598,15.599,15.596,15.596
201901081832,15.596,15.596,15.594,15.594
201901081833,15.594,15.602,15.591,15.599
201901081834,15.599,15.599,15.597,15.597
201901081835,15.597,15.599,15.597,15.598
201901081836,15.597,15.602,15.597,15.602
201901081837,15.602,15.602,15.597,15.597
201901081838,15.598,15.599,15.597,15.599
201901081839,15.599,15.6,15.598,15.599
201901081840,15.599,15.602,15.599,15.602
201901081841,15.602,15.603,15.602,15.602
201901081842,15.602,15.602,15.602,15.602
201901081843,15.602,15.605,15.602,15.604
201901081844,15.606,15.608,15.606,15.608
201901081845,15.607,15.608,15.605,15.608
201901081846,15.608,15.608,15.607,15.608
201901081847,15.608,15.609,15.606,15.606
201901081848,15.606,15.607,15.606,15.606
201901081849,15.606,15.606,15.605,15.606
201901081850,15.606,15.607,15.605,15.606
201901081851,15.607,15.607,15.606,15.606
201901081852,15.606,15.607,15.605,15.605
201901081853,15.605,15.607,15.605,15.606
201901081854,15.606,15.607,15.606,15.606
201901081855,15.606,15.606,15.6,15.601
201901081856,15.601,15.602,15.6,15.6
201901081857,15.6,15.601,15.6,15.601
201901081858,15.6,15.602,15.597,15.597
201901081859,15.597,15.597,15.596,15.597
201901081900,15.597,15.597,15.59,15.591
201901081901,15.591,15.591,15.585,15.586
201901081902,15.586,15.591,15.584,15.591
201901081903,15.592,15.592,15.587,15.591
201901081904,15.591,15.596,15.588,15.588
201901081905,15.587,15.587,15.579,15.58
201901081906,15.58,15.582,15.579,15.582
201901081907,15.581,15.581,15.571,15.571
201901081908,15.571,15.571,15.562,15.562
201901081909,15.562,15.564,15.56,15.56
201901081910,15.56,15.561,15.556,15.561
201901081911,15.56,15.56,15.555,15.555
201901081912,15.555,15.561,15.555,15.561
201901081913,15.561,15.567,15.56,15.565
201901081914,15.565,15.567,15.565,15.566
201901081915,15.566,15.57,15.566,15.57
201901081916,15.57,15.57,15.565,15.565
201901081917,15.565,15.565,15.565,15.565
201901081918,15.565,15.566,15.56,15.56
201901081919,15.56,15.565,15.56,15.564
201901081920,15.564,15.565,15.564,15.565
201901081921,15.565,15.565,15.56,15.565
201901081922,15.565,15.565,15.561,15.565
201901081923,15.565,15.565,15.56,15.56
201901081924,15.56,15.565,15.56,15.565
201901081925,15.565,15.566,15.565,15.565
201901081926,15.565,15.57,15.565,15.57
201901081927,15.57,15.57,15.566,15.57
201901081928,15.57,15.579,15.57,15.579
201901081929,15.579,15.581,15.575,15.575
201901081930,15.575,15.581,15.575,15.579
201901081931,15.579,15.58,15.575,15.575
201901081932,15.576,15.581,15.576,15.581
201901081933,15.581,15.583,15.581,15.582
201901081934,15.582,15.586,15.581,15.583
201901081935,15.583,15.585,15.581,15.583
201901081936,15.583,15.586,15.581,15.582
201901081937,15.581,15.585,15.58,15.581
201901081938,15.581,15.586,15.581,15.586
201901081939,15.586,15.591,15.585,15.586
201901081940,15.587,15.587,15.585,15.587
201901081941,15.587,15.587,15.582,15.582
201901081942,15.582,15.587,15.582,15.586
201901081943,15.586,15.586,15.585,15.586
201901081944,15.586,15.586,15.581,15.581
201901081945,15.581,15.582,15.581,15.581
201901081946,15.581,15.581,15.576,15.576
201901081947,15.576,15.576,15.571,15.572
201901081948,15.572,15.576,15.571,15.572
201901081949,15.574,15.576,15.572,15.576
201901081950,15.576,15.579,15.572,15.576
201901081951,15.576,15.58,15.575,15.58
201901081952,15.58,15.59,15.58,15.585
201901081953,15.585,15.59,15.585,15.59
201901081954,15.59,15.591,15.59,15.591
201901081955,15.595,15.597,15.592,15.597
201901081956,15.596,15.6,15.596,15.6
201901081957,15.6,15.6,15.6,15.6
201901081958,15.6,15.601,15.599,15.6
201901081959,15.6,15.6,15.599,15.6
201901082000,15.6,15.6,15.6,15.6
201901082001,15.6,15.6,15.595,15.595
201901082002,15.595,15.595,15.595,15.595
201901082003,15.595,15.595,15.589,15.59
201901082004,15.59,15.59,15.59,15.59
201901082005,15.59,15.591,15.59,15.591
201901082006,15.591,15.591,15.59,15.59
201901082007,15.59,15.59,15.586,15.586
201901082008,15.587,15.587,15.58,15.58
201901082009,15.58,15.58,15.576,15.576
201901082010,15.576,15.576,15.576,15.576
201901082011,15.576,15.576,15.576,15.576
201901082012,15.576,15.576,15.576,15.576
201901082013,15.576,15.576,15.576,15.576
201901082014,15.576,15.576,15.576,15.576
201901082015,15.576,15.58,15.576,15.577
201901082016,15.58,15.594,15.577,15.594
201901082017,15.595,15.595,15.591,15.595
201901082018,15.595,15.595,15.59,15.59
201901082019,15.59,15.591,15.59,15.59
201901082020,15.59,15.591,15.59,15.591
201901082021,15.591,15.595,15.591,15.595
201901082022,15.595,15.597,15.595,15.596
201901082023,15.596,15.597,15.594,15.597
201901082024,15.597,15.6,15.596,15.6
201901082025,15.6,15.6,15.599,15.6
201901082026,15.6,15.6,15.599,15.6
201901082027,15.6,15.6,15.599,15.6
201901082028,15.6,15.6,15.596,15.596
201901082029,15.596,15.596,15.595,15.595
201901082030,15.595,15.596,15.595,15.595
201901082031,15.595,15.596,15.591,15.595
201901082032,15.595,15.595,15.591,15.595
201901082033,15.595,15.597,15.594,15.597
201901082034,15.597,15.597,15.595,15.597
201901082035,15.597,15.6,15.595,15.6
201901082036,15.6,15.6,15.596,15.597
201901082037,15.597,15.6,15.595,15.596
201901082038,15.596,15.597,15.595,15.597
201901082039,15.597,15.597,15.596,15.596
201901082040,15.595,15.597,15.594,15.595
201901082041,15.595,15.597,15.595,15.597
201901082042,15.597,15.6,15.595,15.6
201901082043,15.6,15.601,15.597,15.6
201901082044,15.6,15.602,15.6,15.602
201901082045,15.602,15.606,15.6,15.605
201901082046,15.605,15.611,15.605,15.611
201901082047,15.611,15.616,15.611,15.615
201901082048,15.615,15.616,15.614,15.615
201901082049,15.615,15.615,15.611,15.611
201901082050,15.611,15.612,15.611,15.611
201901082051,15.611,15.615,15.611,15.612
201901082052,15.612,15.616,15.611,15.613
201901082053,15.617,15.618,15.617,15.618
201901082054,15.618,15.619,15.617,15.618
201901082055,15.618,15.623,15.618,15.622
201901082056,15.622,15.623,15.619,15.619
201901082057,15.619,15.619,15.613,15.616
201901082058,15.616,15.619,15.616,15.618
201901082059,15.616,15.617,15.612,15.614
201901082100,15.614,15.627,15.613,15.627
201901082101,15.626,15.631,15.626,15.626
201901082102,15.628,15.628,15.625,15.625
201901082103,15.626,15.632,15.626,15.632
201901082104,15.632,15.632,15.625,15.627
201901082105,15.627,15.629,15.627,15.627
201901082106,15.627,15.627,15.623,15.627
201901082107,15.627,15.628,15.624,15.624
201901082108,15.624,15.63,15.624,15.629
201901082109,15.629,15.635,15.628,15.635
201901082110,15.634,15.639,15.633,15.639
201901082111,15.639,15.641,15.637,15.638
201901082112,15.638,15.639,15.634,15.634
201901082113,15.635,15.635,15.629,15.632
201901082114,15.632,15.632,15.628,15.628
201901082115,15.628,15.629,15.625,15.629
201901082116,15.629,15.631,15.628,15.628
201901082117,15.629,15.629,15.629,15.629
201901082118,15.629,15.629,15.627,15.629
201901082119,15.629,15.629,15.627,15.627
201901082120,15.627,15.631,15.626,15.631
201901082121,15.63,15.631,15.628,15.63
201901082122,15.63,15.631,15.629,15.631
201901082123,15.631,15.631,15.631,15.631
201901082124,15.631,15.632,15.631,15.632
201901082125,15.631,15.636,15.631,15.636
201901082126,15.636,15.637,15.634,15.634
201901082127,15.634,15.635,15.632,15.632
201901082128,15.632,15.632,15.629,15.632
201901082129,15.632,15.634,15.632,15.632
201901082130,15.632,15.634,15.632,15.632
201901082131,15.633,15.634,15.633,15.634
201901082132,15.634,15.637,15.634,15.634
201901082133,15.633,15.634,15.632,15.633
201901082134,15.632,15.634,15.631,15.632
201901082135,15.632,15.632,15.632,15.632
201901082136,15.632,15.632,15.627,15.628
201901082137,15.628,15.628,15.624,15.624
201901082138,15.624,15.627,15.624,15.624
201901082139,15.624,15.624,15.616,15.617
201901082140,15.618,15.618,15.608,15.608
201901082141,15.608,15.609,15.603,15.603
201901082142,15.603,15.604,15.596,15.597
201901082143,15.597,15.599,15.595,15.599
201901082144,15.598,15.602,15.598,15.598
201901082145,15.598,15.608,15.598,15.605
201901082146,15.605,15.605,15.599,15.599
201901082147,15.599,15.604,15.598,15.599
201901082148,15.599,15.601,15.596,15.597
201901082149,15.597,15.597,15.587,15.587
201901082150,15.586,15.589,15.583,15.589
201901082151,15.589,15.589,15.582,15.584
201901082152,15.584,15.588,15.584,15.588
201901082153,15.588,15.589,15.581,15.587
201901082154,15.588,15.588,15.586,15.587
201901082155,15.588,15.588,15.586,15.586
201901082156,15.586,15.586,15.581,15.583
201901082157,15.588,15.592,15.587,15.592
201901082158,15.592,15.595,15.592,15.595
201901082159,15.595,15.596,15.589,15.59
201901082200,15.589,15.589,15.579,15.579
201901082201,15.579,15.579,15.576,15.579
201901082202,15.579,15.584,15.578,15.584
201901082203,15.584,15.595,15.584,15.594
201901082204,15.594,15.606,15.594,15.603
201901082205,15.604,15.604,15.599,15.599
201901082206,15.599,15.602,15.597,15.6
201901082207,15.6,15.6,15.598,15.599
201901082208,15.599,15.6,15.595,15.595
201901082209,15.595,15.595,15.59,15.593
201901082210,15.593,15.595,15.587,15.59
201901082211,15.592,15.592,15.57,15.57
201901082212,15.57,15.578,15.57,15.577
201901082213,15.577,15.578,15.573,15.573
201901082214,15.573,15.573,15.568,15.569
201901082215,15.569,15.569,15.559,15.559
201901082216,15.562,15.57,15.557,15.567
201901082217,15.567,15.578,15.565,15.573
201901082218,15.573,15.578,15.573,15.578
201901082219,15.578,15.578,15.558,15.558
201901082220,15.562,15.564,15.562,15.563
201901082221,15.565,15.568,15.563,15.565
201901082222,15.561,15.564,15.555,15.564
201901082223,15.564,15.57,15.56,15.57
201901082224,15.571,15.571,15.56,15.56
201901082225,15.56,15.573,15.56,15.568
201901082226,15.569,15.581,15.569,15.58
201901082227,15.58,15.584,15.579,15.584
201901082228,15.584,15.597,15.581,15.597
201901082229,15.596,15.596,15.59,15.591
201901082230,15.59,15.595,15.588,15.595
201901082231,15.595,15.604,15.594,15.595
201901082232,15.595,15.604,15.594,15.604
201901082233,15.604,15.604,15.597,15.601
201901082234,15.602,15.607,15.599,15.599
201901082235,15.599,15.602,15.596,15.6
201901082236,15.6,15.607,15.596,15.596
201901082237,15.596,15.596,15.593,15.593
201901082238,15.593,15.594,15.587,15.592
201901082239,15.594,15.597,15.592,15.596
201901082240,15.595,15.603,15.592,15.599
201901082241,15.599,15.601,15.594,15.6
201901082242,15.599,15.603,15.599,15.603
201901082243,15.602,15.606,15.598,15.605
201901082244,15.605,15.605,15.597,15.597
201901082245,15.597,15.601,15.595,15.596
201901082246,15.596,15.596,15.593,15.594
201901082247,15.594,15.594,15.59,15.591
201901082248,15.591,15.596,15.591,15.596
201901082249,15.596,15.604,15.596,15.601
201901082250,15.601,15.602,15.596,15.599
201901082251,15.599,15.601,15.591,15.591
201901082252,15.591,15.596,15.589,15.596
201901082253,15.595,15.595,15.59,15.591
201901082254,15.591,15.596,15.59,15.596
201901082255,15.596,15.602,15.595,15.601
201901082256,15.601,15.609,15.601,15.608
201901082257,15.606,15.612,15.606,15.611
201901082258,15.611,15.611,15.601,15.604
201901082259,15.604,15.606,15.586,15.59
201901082300,15.588,15.59,15.584,15.585
201901082301,15.586,15.595,15.586,15.595
201901082302,15.597,15.607,15.597,15.607
201901082303,15.607,15.607,15.603,15.607
201901082304,15.607,15.608,15.606,15.606
201901082305,15.606,15.625,15.606,15.625
201901082306,15.625,15.625,15.621,15.622
201901082307,15.624,15.625,15.619,15.619
201901082308,15.619,15.62,15.612,15.612
201901082309,15.612,15.612,15.607,15.609
201901082310,15.609,15.619,15.609,15.619
201901082311,15.619,15.629,15.618,15.629
201901082312,15.629,15.629,15.622,15.622
201901082313,15.622,15.623,15.618,15.621
201901082314,15.621,15.626,15.621,15.626
201901082315,15.626,15.629,15.626,15.626
201901082316,15.626,15.628,15.624,15.626
201901082317,15.626,15.629,15.625,15.625
201901082318,15.625,15.627,15.624,15.626
201901082319,15.626,15.627,15.624,15.624
201901082320,15.624,15.628,15.624,15.625
201901082321,15.625,15.628,15.625,15.626
201901082322,15.626,15.628,15.625,15.625
201901082323,15.625,15.626,15.625,15.625
201901082324,15.625,15.626,15.623,15.625
201901082325,15.625,15.625,15.619,15.62
201901082326,15.62,15.62,15.615,15.616
201901082327,15.616,15.619,15.616,15.616
201901082328,15.616,15.616,15.612,15.614
201901082329,15.613,15.616,15.611,15.614
201901082330,15.615,15.618,15.615,15.618
201901082331,15.616,15.625,15.616,15.625
201901082332,15.626,15.626,15.626,15.626
201901082333,15.626,15.626,15.625,15.625
201901082334,15.625,15.625,15.613,15.613
201901082335,15.618,15.626,15.618,15.626
201901082336,15.621,15.621,15.618,15.619
201901082337,15.616,15.62,15.614,15.614
201901082338,15.617,15.618,15.616,15.617
201901082339,15.619,15.619,15.619,15.619
201901082340,15.616,15.616,15.614,15.614
201901082341,15.617,15.626,15.617,15.626
201901082342,15.623,15.623,15.623,15.623
201901082343,15.625,15.626,15.624,15.625
201901082344,15.623,15.623,15.617,15.617
201901082345,15.611,15.611,15.611,15.611
201901082346,15.608,15.608,15.607,15.607
201901082347,15.608,15.608,15.608,15.608
201901082348,15.616,15.617,15.616,15.616
201901082349,15.623,15.623,15.622,15.622
201901082350,15.625,15.631,15.625,15.631
201901082351,15.64,15.642,15.64,15.642
201901082352,15.638,15.638,15.632,15.637
201901082353,15.635,15.635,15.635,15.635
201901082354,15.652,15.66,15.652,15.66
201901082355,15.666,15.675,15.666,15.673
201901082356,15.671,15.676,15.668,15.676
201901082357,15.672,15.674,15.666,15.666
201901082358,15.666,15.666,15.652,15.652
201901082359,15.655,15.657,15.655,15.656
201901090000,15.66,15.676,15.66,15.675
201901090001,15.671,15.671,15.662,15.662
201901090002,15.661,15.662,15.659,15.661
201901090003,15.658,15.658,15.658,15.658
201901090004,15.662,15.662,15.657,15.657
201901090005,15.657,15.66,15.657,15.66
201901090006,15.658,15.658,15.647,15.647
201901090007,15.647,15.647,15.647,15.647
201901090008,15.643,15.646,15.642,15.643
201901090009,15.641,15.641,15.636,15.636
201901090010,15.634,15.638,15.632,15.635
201901090011,15.631,15.631,15.622,15.626
201901090012,15.624,15.624,15.614,15.616
201901090013,15.614,15.616,15.596,15.596
201901090014,15.599,15.612,15.599,15.612
201901090015,15.605,15.612,15.605,15.612
201901090016,15.61,15.612,15.61,15.612
201901090017,15.611,15.612,15.608,15.612
201901090018,15.615,15.622,15.615,15.618
201901090019,15.617,15.617,15.616,15.616
201901090020,15.615,15.615,15.615,15.615
201901090021,15.622,15.622,15.622,15.622
201901090022,15.621,15.621,15.621,15.621
201901090023,15.624,15.624,15.618,15.618
201901090024,15.618,15.621,15.618,15.621
201901090025,15.618,15.63,15.618,15.63
201901090026,15.626,15.631,15.626,15.63
201901090027,15.628,15.63,15.626,15.63
201901090028,15.626,15.63,15.626,15.63
201901090029,15.631,15.631,15.629,15.629
201901090030,15.629,15.629,15.629,15.629
201901090031,15.631,15.631,15.631,15.631
201901090032,15.626,15.626,15.626,15.626
201901090033,15.622,15.622,15.621,15.621
201901090034,15.62,15.62,15.617,15.617
201901090035,15.625,15.627,15.625,15.627
201901090036,15.632,15.632,15.627,15.627
201901090037,15.627,15.632,15.627,15.632
201901090038,15.628,15.628,15.626,15.626
201901090039,15.633,15.637,15.633,15.637
201901090040,15.634,15.636,15.634,15.636
201901090041,15.632,15.637,15.632,15.637
201901090042,15.635,15.636,15.632,15.632
201901090043,15.637,15.637,15.636,15.636
201901090044,15.637,15.644,15.637,15.644
201901090045,15.645,15.645,15.638,15.638
201901090046,15.637,15.637,15.632,15.632
201901090047,15.634,15.636,15.632,15.632
201901090048,15.633,15.633,15.632,15.632
201901090049,15.631,15.631,15.618,15.618
201901090050,15.619,15.621,15.618,15.621
201901090051,15.619,15.62,15.615,15.62
201901090052,15.62,15.62,15.618,15.619
201901090053,15.614,15.618,15.614,15.618
201901090054,15.617,15.618,15.617,15.617
201901090055,15.617,15.617,15.617,15.617
201901090056,15.617,15.617,15.614,15.614
201901090057,15.608,15.608,15.608,15.608
201901090058,15.614,15.616,15.614,15.616
201901090059,15.617,15.621,15.617,15.619
201901090100,15.618,15.623,15.618,15.623
201901090101,15.619,15.623,15.619,15.623
201901090102,15.629,15.629,15.627,15.627
201901090103,15.626,15.627,15.626,15.627
201901090104,15.621,15.621,15.617,15.617
201901090105,15.621,15.621,15.618,15.618
201901090106,15.617,15.621,15.617,15.621
201901090107,15.617,15.617,15.614,15.614
201901090108,15.614,15.618,15.613,15.617
201901090109,15.618,15.618,15.615,15.615
201901090110,15.613,15.613,15.61,15.61
201901090111,15.609,15.623,15.609,15.623
201901090112,15.623,15.623,15.621,15.621
201901090113,15.62,15.623,15.62,15.62
201901090114,15.617,15.624,15.617,15.623
201901090115,15.623,15.624,15.618,15.618
201901090116,15.62,15.62,15.62,15.62
201901090117,15.623,15.623,15.618,15.618
201901090118,15.618,15.621,15.618,15.621
201901090119,15.62,15.624,15.62,15.624
201901090120,15.62,15.624,15.62,15.623
201901090121,15.625,15.625,15.622,15.622
201901090122,15.623,15.623,15.623,15.623
201901090123,15.623,15.623,15.62,15.62
201901090124,15.619,15.621,15.619,15.621
201901090125,15.619,15.62,15.619,15.62
201901090126,15.619,15.62,15.619,15.62
201901090127,15.622,15.622,15.622,15.622
201901090128,15.623,15.623,15.623,15.623
201901090129,15.618,15.618,15.618,15.618
201901090130,15.613,15.613,15.613,15.613
201901090131,15.613,15.622,15.613,15.622
201901090133,15.614,15.614,15.614,15.614
201901090134,15.613,15.613,15.611,15.611
201901090135,15.613,15.613,15.611,15.611
201901090136,15.611,15.611,15.61,15.61
201901090137,15.61,15.612,15.608,15.608
201901090138,15.608,15.608,15.603,15.603
201901090139,15.611,15.611,15.611,15.611
201901090140,15.609,15.609,15.606,15.608
201901090141,15.609,15.61,15.609,15.61
201901090142,15.61,15.611,15.61,15.61
201901090143,15.608,15.609,15.603,15.606
201901090144,15.608,15.608,15.608,15.608
201901090145,15.607,15.607,15.603,15.603
201901090146,15.603,15.604,15.6,15.601
201901090147,15.603,15.603,15.603,15.603
201901090148,15.6,15.601,15.6,15.601
201901090149,15.604,15.604,15.604,15.604
201901090150,15.604,15.604,15.601,15.601
201901090151,15.604,15.608,15.604,15.608
201901090153,15.608,15.61,15.608,15.61
201901090154,15.609,15.609,15.609,15.609
201901090155,15.609,15.609,15.608,15.608
201901090156,15.609,15.609,15.609,15.609
201901090157,15.609,15.609,15.603,15.603
201901090158,15.604,15.604,15.604,15.604
201901090159,15.609,15.61,15.609,15.61
201901090200,15.614,15.62,15.614,15.618
201901090201,15.619,15.62,15.619,15.62
201901090202,15.62,15.62,15.62,15.62
201901090203,15.618,15.62,15.618,15.62
201901090204,15.629,15.629,15.629,15.629
201901090205,15.63,15.63,15.629,15.63
201901090206,15.633,15.633,15.633,15.633
201901090207,15.63,15.63,15.625,15.625
201901090208,15.617,15.617,15.613,15.615
201901090209,15.615,15.616,15.615,15.616
201901090210,15.616,15.619,15.616,15.618
201901090211,15.619,15.619,15.619,15.619
201901090212,15.619,15.624,15.619,15.624
201901090213,15.625,15.625,15.619,15.619
201901090214,15.619,15.619,15.619,15.619
201901090215,15.62,15.621,15.619,15.621
201901090216,15.621,15.621,15.62,15.62
201901090217,15.616,15.616,15.616,15.616
201901090218,15.62,15.62,15.62,15.62
201901090219,15.617,15.617,15.617,15.617
201901090220,15.617,15.62,15.617,15.62
201901090221,15.62,15.621,15.62,15.621
201901090222,15.62,15.629,15.62,15.629
201901090223,15.63,15.63,15.63,15.63
201901090224,15.63,15.63,15.629,15.629
201901090225,15.629,15.629,15.629,15.629
201901090226,15.63,15.63,15.63,15.63
201901090227,15.63,15.63,15.629,15.629
201901090228,15.629,15.629,15.629,15.629
201901090229,15.631,15.632,15.631,15.632
201901090230,15.631,15.634,15.631,15.634
201901090231,15.641,15.642,15.641,15.642
201901090232,15.645,15.645,15.645,15.645
201901090233,15.645,15.647,15.645,15.647
201901090234,15.646,15.647,15.646,15.647
201901090235,15.645,15.65,15.645,15.649
201901090236,15.655,15.656,15.655,15.656
201901090237,15.655,15.655,15.651,15.651
201901090238,15.652,15.652,15.649,15.649
201901090239,15.645,15.646,15.645,15.646
201901090240,15.647,15.65,15.647,15.65
201901090241,15.65,15.654,15.65,15.65
201901090242,15.65,15.653,15.65,15.65
201901090243,15.654,15.66,15.654,15.66
201901090244,15.66,15.66,15.66,15.66
201901090245,15.665,15.665,15.664,15.665
201901090246,15.66,15.66,15.659,15.66
201901090247,15.66,15.66,15.66,15.66
201901090248,15.66,15.66,15.66,15.66
201901090250,15.655,15.66,15.655,15.66
201901090251,15.662,15.662,15.657,15.657
201901090252,15.657,15.66,15.657,15.66
201901090253,15.662,15.662,15.66,15.66
201901090254,15.656,15.656,15.656,15.656
201901090255,15.655,15.655,15.652,15.652
201901090256,15.653,15.657,15.653,15.657
201901090257,15.657,15.659,15.657,15.659
201901090258,15.661,15.663,15.661,15.663
201901090259,15.666,15.666,15.663,15.663
201901090300,15.666,15.666,15.666,15.666
201901090301,15.666,15.666,15.661,15.661
201901090302,15.662,15.662,15.658,15.659
201901090303,15.663,15.663,15.66,15.66
201901090304,15.662,15.663,15.662,15.663
201901090305,15.663,15.671,15.663,15.665
201901090306,15.662,15.666,15.662,15.666
201901090307,15.664,15.664,15.661,15.661
201901090308,15.664,15.664,15.662,15.664
201901090309,15.664,15.664,15.661,15.662
201901090310,15.662,15.667,15.662,15.667
201901090311,15.667,15.667,15.662,15.663
201901090312,15.667,15.667,15.664,15.666
201901090313,15.663,15.663,15.663,15.663
201901090314,15.664,15.665,15.664,15.665
201901090315,15.665,15.666,15.664,15.664
201901090316,15.663,15.666,15.662,15.666
201901090317,15.667,15.667,15.666,15.666
201901090318,15.665,15.666,15.664,15.664
201901090319,15.662,15.662,15.66,15.66
201901090320,15.659,15.659,15.658,15.658
201901090321,15.659,15.659,15.656,15.656
201901090322,15.656,15.656,15.646,15.646
201901090323,15.646,15.654,15.646,15.651
201901090324,15.647,15.666,15.646,15.666
201901090325,15.665,15.665,15.661,15.661
201901090326,15.661,15.661,15.657,15.657
201901090327,15.656,15.657,15.656,15.657
201901090328,15.656,15.662,15.656,15.662
201901090329,15.655,15.658,15.655,15.656
201901090330,15.654,15.654,15.651,15.653
201901090331,15.652,15.653,15.652,15.653
201901090332,15.654,15.656,15.653,15.654
201901090333,15.654,15.658,15.654,15.658
201901090334,15.661,15.661,15.66,15.66
201901090335,15.66,15.66,15.653,15.653
201901090336,15.653,15.656,15.652,15.656
201901090337,15.656,15.66,15.656,15.659
201901090338,15.654,15.654,15.653,15.653
201901090339,15.657,15.657,15.656,15.656
201901090340,15.656,15.658,15.656,15.656
201901090341,15.658,15.658,15.656,15.658
201901090342,15.657,15.657,15.656,15.657
201901090343,15.655,15.658,15.655,15.657
201901090344,15.658,15.659,15.657,15.659
201901090345,15.661,15.663,15.661,15.662
201901090346,15.662,15.662,15.661,15.661
201901090347,15.662,15.663,15.661,15.663
201901090348,15.663,15.663,15.662,15.662
201901090349,15.663,15.663,15.662,15.662
201901090350,15.663,15.666,15.663,15.666
201901090351,15.665,15.665,15.659,15.659
201901090352,15.658,15.658,15.658,15.658
201901090353,15.657,15.661,15.657,15.661
201901090354,15.658,15.658,15.658,15.658
201901090355,15.656,15.656,15.656,15.656
201901090356,15.657,15.668,15.657,15.668
201901090357,15.671,15.674,15.669,15.674
201901090358,15.668,15.668,15.665,15.666
201901090359,15.666,15.666,15.665,15.666
201901090400,15.666,15.666,15.663,15.663
201901090401,15.664,15.664,15.664,15.664
201901090402,15.662,15.662,15.658,15.66
201901090403,15.658,15.658,15.658,15.658
201901090404,15.661,15.661,15.661,15.661
201901090405,15.663,15.663,15.663,15.663
201901090406,15.662,15.662,15.66,15.66
201901090407,15.661,15.661,15.661,15.661
201901090408,15.662,15.663,15.662,15.663
201901090409,15.661,15.662,15.661,15.662
201901090410,15.662,15.662,15.66,15.661
201901090411,15.657,15.657,15.657,15.657
201901090412,15.657,15.658,15.657,15.658
201901090413,15.657,15.658,15.657,15.658
201901090414,15.656,15.657,15.656,15.657
201901090415,15.656,15.656,15.655,15.655
201901090416,15.656,15.656,15.656,15.656
201901090417,15.656,15.656,15.656,15.656
201901090418,15.653,15.653,15.651,15.651
201901090419,15.652,15.652,15.652,15.652
201901090420,15.651,15.651,15.651,15.651
201901090421,15.651,15.651,15.651,15.651
201901090422,15.654,15.654,15.653,15.653
201901090423,15.655,15.655,15.652,15.652
201901090424,15.652,15.652,15.652,15.652
201901090425,15.652,15.652,15.652,15.652
201901090426,15.651,15.651,15.651,15.651
201901090427,15.65,15.65,15.65,15.65
201901090428,15.648,15.648,15.648,15.648
201901090430,15.648,15.648,15.648,15.648
201901090431,15.651,15.651,15.651,15.651
201901090432,15.651,15.652,15.651,15.652
201901090433,15.653,15.653,15.653,15.653
201901090434,15.652,15.652,15.651,15.651
201901090436,15.655,15.656,15.655,15.656
201901090437,15.658,15.658,15.658,15.658
201901090438,15.658,15.658,15.658,15.658
201901090439,15.658,15.658,15.657,15.657
201901090440,15.656,15.656,15.655,15.655
201901090441,15.657,15.658,15.657,15.658
201901090442,15.658,15.658,15.656,15.656
201901090443,15.658,15.658,15.658,15.658
201901090444,15.658,15.658,15.658,15.658
201901090445,15.657,15.657,15.657,15.657
201901090446,15.658,15.658,15.657,15.657
201901090447,15.657,15.657,15.657,15.657
201901090448,15.656,15.656,15.653,15.653
201901090449,15.65,15.653,15.65,15.651
201901090450,15.651,15.651,15.648,15.648
201901090451,15.648,15.648,15.648,15.648
201901090452,15.648,15.648,15.647,15.647
201901090453,15.648,15.648,15.647,15.647
201901090454,15.646,15.646,15.646,15.646
201901090455,15.648,15.649,15.648,15.649
201901090456,15.651,15.651,15.651,15.651
201901090457,15.651,15.652,15.651,15.652
201901090458,15.65,15.652,15.65,15.652
201901090459,15.65,15.652,15.65,15.652
201901090500,15.652,15.652,15.651,15.651
201901090501,15.652,15.652,15.652,15.652
201901090502,15.651,15.651,15.651,15.651
201901090503,15.653,15.653,15.65,15.65
201901090504,15.65,15.651,15.65,15.651
201901090505,15.651,15.652,15.651,15.651
201901090506,15.65,15.65,15.648,15.648
201901090507,15.648,15.651,15.648,15.65
201901090508,15.65,15.65,15.648,15.648
201901090509,15.648,15.648,15.648,15.648
201901090510,15.647,15.648,15.647,15.648
201901090511,15.645,15.646,15.645,15.646
201901090512,15.645,15.645,15.645,15.645
201901090513,15.645,15.645,15.643,15.643
201901090514,15.642,15.642,15.642,15.642
201901090515,15.642,15.642,15.642,15.642
201901090516,15.641,15.641,15.641,15.641
201901090517,15.642,15.642,15.641,15.642
201901090518,15.641,15.642,15.641,15.641
201901090519,15.642,15.645,15.642,15.645
201901090520,15.643,15.644,15.643,15.644
201901090521,15.642,15.642,15.642,15.642
201901090522,15.643,15.644,15.643,15.644
201901090523,15.644,15.644,15.644,15.644
201901090524,15.644,15.644,15.644,15.644
201901090525,15.644,15.644,15.644,15.644
201901090526,15.644,15.644,15.644,15.644
201901090527,15.645,15.648,15.645,15.648
201901090528,15.647,15.647,15.646,15.646
201901090529,15.646,15.646,15.646,15.646
201901090530,15.646,15.647,15.646,15.647
201901090531,15.653,15.653,15.653,15.653
201901090532,15.653,15.653,15.653,15.653
201901090533,15.651,15.651,15.65,15.65
201901090534,15.65,15.65,15.65,15.65
201901090535,15.65,15.65,15.65,15.65
201901090537,15.653,15.653,15.652,15.652
201901090538,15.652,15.653,15.652,15.653
201901090539,15.653,15.653,15.65,15.65
201901090540,15.65,15.654,15.65,15.654
201901090541,15.653,15.653,15.653,15.653
201901090542,15.654,15.654,15.654,15.654
201901090543,15.655,15.655,15.653,15.654
201901090544,15.655,15.655,15.647,15.647
201901090545,15.647,15.647,15.647,15.647
201901090546,15.647,15.647,15.646,15.647
201901090547,15.646,15.648,15.646,15.647
201901090548,15.646,15.647,15.646,15.647
201901090550,15.646,15.647,15.646,15.647
201901090551,15.646,15.647,15.646,15.647
201901090552,15.647,15.647,15.647,15.647
201901090553,15.65,15.65,15.65,15.65
201901090554,15.649,15.651,15.649,15.65
201901090555,15.648,15.648,15.648,15.648
201901090556,15.648,15.648,15.648,15.648
201901090557,15.651,15.651,15.651,15.651
201901090558,15.652,15.652,15.652,15.652
201901090600,15.654,15.654,15.652,15.652
201901090601,15.652,15.652,15.651,15.651
201901090602,15.651,15.653,15.649,15.649
201901090603,15.649,15.65,15.649,15.65
201901090604,15.65,15.65,15.646,15.646
201901090605,15.646,15.646,15.646,15.646
201901090606,15.647,15.647,15.646,15.646
201901090607,15.646,15.647,15.646,15.647
201901090608,15.647,15.647,15.647,15.647
201901090609,15.647,15.648,15.647,15.647
201901090610,15.647,15.648,15.647,15.648
201901090611,15.648,15.648,15.647,15.648
201901090612,15.648,15.649,15.648,15.649
201901090613,15.65,15.65,15.649,15.649
201901090614,15.649,15.649,15.649,15.649
201901090615,15.649,15.649,15.647,15.647
201901090616,15.647,15.647,15.645,15.647
201901090617,15.646,15.646,15.646,15.646
201901090618,15.646,15.646,15.646,15.646
201901090619,15.646,15.646,15.646,15.646
201901090620,15.646,15.647,15.646,15.646
201901090621,15.646,15.647,15.646,15.646
201901090622,15.646,15.646,15.646,15.646
201901090623,15.646,15.646,15.646,15.646
201901090624,15.646,15.647,15.646,15.647
201901090625,15.647,15.647,15.646,15.646
201901090626,15.646,15.646,15.646,15.646
201901090627,15.646,15.647,15.646,15.646
201901090628,15.646,15.647,15.646,15.647
201901090629,15.647,15.647,15.646,15.646
201901090630,15.646,15.648,15.646,15.646
201901090631,15.646,15.646,15.646,15.646
201901090632,15.646,15.646,15.646,15.646
201901090633,15.646,15.648,15.645,15.648
201901090634,15.648,15.648,15.647,15.648
201901090635,15.648,15.648,15.647,15.647
201901090636,15.647,15.647,15.647,15.647
201901090637,15.647,15.648,15.645,15.645
201901090638,15.645,15.645,15.643,15.643
201901090639,15.643,15.643,15.643,15.643
201901090640,15.643,15.646,15.643,15.646
201901090641,15.646,15.646,15.645,15.646
201901090642,15.646,15.646,15.646,15.646
201901090643,15.646,15.646,15.646,15.646
201901090644,15.646,15.646,15.646,15.646
201901090645,15.646,15.646,15.646,15.646
201901090646,15.646,15.647,15.646,15.647
201901090647,15.647,15.647,15.646,15.647
201901090648,15.647,15.647,15.646,15.646
201901090649,15.646,15.647,15.646,15.647
201901090650,15.647,15.647,15.646,15.646
201901090651,15.646,15.646,15.646,15.646
201901090652,15.646,15.646,15.646,15.646
201901090653,15.646,15.646,15.646,15.646
201901090654,15.646,15.646,15.646,15.646
201901090655,15.646,15.647,15.646,15.647
201901090656,15.647,15.647,15.647,15.647
201901090657,15.647,15.648,15.647,15.648
201901090658,15.648,15.648,15.646,15.647
201901090659,15.647,15.652,15.632,15.632
