日時,始値(BID),高値(BID),安値(BID),終値(BID)
201905130700,1287.3,1287.6,1286.5,1286.7
201905130701,1286.7,1287.5,1286.7,1287.4
201905130702,1287.4,1287.6,1287.4,1287.5
201905130703,1287.5,1287.5,1287.1,1287.3
201905130704,1287.3,1287.3,1287.1,1287.2
201905130705,1287.2,1287.2,1286.8,1286.8
201905130706,1286.8,1287.1,1286.8,1287
201905130707,1287,1287.3,1287,1287.2
201905130708,1287.2,1287.3,1287.2,1287.2
201905130709,1287.2,1287.2,1287.1,1287.1
201905130710,1287.1,1287.2,1287,1287
201905130711,1287,1287.3,1287,1287.3
201905130712,1287.1,1287.3,1287.1,1287.3
201905130713,1287.3,1287.4,1287.3,1287.3
201905130714,1287.3,1287.4,1287.3,1287.3
201905130715,1287.3,1287.3,1287.2,1287.2
201905130716,1287.2,1287.4,1287.2,1287.4
201905130717,1287.4,1287.5,1287.3,1287.3
201905130718,1287.3,1287.5,1287.3,1287.5
201905130719,1287.5,1287.5,1287.4,1287.4
201905130720,1287.4,1287.4,1287.4,1287.4
201905130721,1287.4,1287.5,1287.4,1287.5
201905130722,1287.5,1287.8,1287.5,1287.7
201905130723,1287.7,1287.8,1287.7,1287.7
201905130724,1287.7,1287.7,1287.6,1287.6
201905130725,1287.6,1287.7,1287.6,1287.7
201905130726,1287.7,1287.7,1287.6,1287.6
201905130727,1287.6,1287.7,1287.6,1287.7
201905130728,1287.7,1287.8,1287.7,1287.8
201905130729,1287.8,1287.8,1287.7,1287.8
201905130730,1287.8,1287.8,1287.8,1287.8
201905130731,1287.8,1287.8,1287.7,1287.7
201905130732,1287.7,1287.7,1287.6,1287.7
201905130733,1287.7,1287.7,1287.6,1287.6
201905130734,1287.6,1287.6,1287.5,1287.5
201905130735,1287.5,1287.5,1287.5,1287.5
201905130736,1287.5,1287.6,1287.5,1287.6
201905130737,1287.6,1287.7,1287.5,1287.7
201905130738,1287.7,1287.7,1287.7,1287.7
201905130739,1287.7,1287.9,1287.7,1287.9
201905130740,1287.9,1287.9,1287.8,1287.8
201905130741,1287.8,1287.8,1287.8,1287.8
201905130742,1287.8,1287.8,1287.7,1287.7
201905130743,1287.7,1287.7,1287.7,1287.7
201905130744,1287.7,1287.7,1287.6,1287.6
201905130745,1287.6,1287.7,1287.5,1287.7
201905130746,1287.7,1287.7,1287.6,1287.6
201905130747,1287.6,1287.6,1287.6,1287.6
201905130748,1287.6,1287.6,1287.5,1287.5
201905130749,1287.5,1287.5,1287.4,1287.4
201905130750,1287.4,1287.4,1287.4,1287.4
201905130751,1287.4,1287.4,1287.4,1287.4
201905130752,1287.4,1287.4,1287.3,1287.3
201905130753,1287.3,1287.3,1287.3,1287.3
201905130754,1287.3,1287.3,1287.3,1287.3
201905130755,1287.3,1287.4,1287.3,1287.4
201905130756,1287.4,1287.4,1287.3,1287.3
201905130757,1287.3,1287.3,1287.3,1287.3
201905130758,1287.3,1287.3,1287.3,1287.3
201905130759,1287.3,1287.4,1287.3,1287.4
201905130800,1287.4,1287.5,1287.4,1287.5
201905130801,1287.5,1287.5,1287.4,1287.4
201905130802,1287.4,1287.5,1287.4,1287.4
201905130803,1287.4,1287.4,1287.4,1287.4
201905130804,1287.4,1287.4,1287.3,1287.4
201905130805,1287.4,1287.4,1287.4,1287.4
201905130806,1287.4,1287.5,1287.4,1287.5
201905130807,1287.5,1287.5,1287.4,1287.5
201905130808,1287.5,1287.5,1287.4,1287.4
201905130809,1287.4,1287.5,1287.4,1287.4
201905130810,1287.4,1287.4,1287.3,1287.4
201905130811,1287.4,1287.5,1287.4,1287.5
201905130812,1287.5,1287.7,1287.4,1287.7
201905130813,1287.7,1287.9,1287.7,1287.8
201905130814,1287.8,1287.9,1287.8,1287.8
201905130815,1287.8,1287.8,1287.6,1287.6
201905130816,1287.6,1287.6,1287.6,1287.6
201905130817,1287.6,1287.6,1287.6,1287.6
201905130818,1287.6,1287.6,1287.6,1287.6
201905130819,1287.6,1287.6,1287.4,1287.4
201905130820,1287.4,1287.6,1287.4,1287.6
201905130821,1287.6,1287.6,1287.5,1287.5
201905130822,1287.5,1287.6,1287.5,1287.5
201905130823,1287.5,1287.6,1287.5,1287.6
201905130824,1287.6,1287.6,1287.5,1287.5
201905130825,1287.5,1287.6,1287.5,1287.5
201905130826,1287.5,1287.5,1287.5,1287.5
201905130827,1287.5,1287.5,1287.5,1287.5
201905130828,1287.5,1287.5,1287.4,1287.4
201905130829,1287.4,1287.4,1287.3,1287.3
201905130830,1287.3,1287.4,1287.3,1287.3
201905130831,1287.3,1287.3,1287.3,1287.3
201905130832,1287.3,1287.3,1287.3,1287.3
201905130833,1287.3,1287.3,1287.2,1287.3
201905130834,1287.3,1287.3,1287.3,1287.3
201905130835,1287.3,1287.4,1287.3,1287.4
201905130836,1287.4,1287.7,1287.4,1287.7
201905130837,1287.7,1287.7,1287.5,1287.5
201905130838,1287.5,1287.5,1287.5,1287.5
201905130839,1287.5,1287.7,1287.5,1287.7
201905130840,1287.7,1287.9,1287.7,1287.9
201905130841,1287.9,1287.9,1287.8,1287.8
201905130842,1287.8,1287.9,1287.8,1287.9
201905130843,1287.9,1288,1287.9,1287.9
201905130844,1287.9,1287.9,1287.8,1287.8
201905130845,1287.8,1287.8,1287.6,1287.6
201905130846,1287.6,1287.7,1287.5,1287.7
201905130847,1287.7,1287.7,1287.6,1287.6
201905130848,1287.6,1287.7,1287.5,1287.6
201905130849,1287.6,1287.6,1287.4,1287.4
201905130850,1287.4,1287.4,1287.3,1287.3
201905130851,1287.3,1287.3,1287.3,1287.3
201905130852,1287.3,1287.5,1287.3,1287.4
201905130853,1287.4,1287.4,1287.3,1287.3
201905130854,1287.3,1287.5,1287.2,1287.5
201905130855,1287.5,1287.5,1287.3,1287.3
201905130856,1287.3,1287.3,1287.2,1287.3
201905130857,1287.3,1287.3,1287.2,1287.2
201905130858,1287.2,1287.2,1287.1,1287.2
201905130859,1287.2,1287.2,1287,1287.1
201905130900,1287.1,1287.5,1287.1,1287.4
201905130901,1287.5,1287.6,1287.4,1287.6
201905130902,1287.6,1287.8,1287.6,1287.7
201905130903,1287.7,1287.9,1287.7,1287.8
201905130904,1287.8,1287.9,1287.6,1287.9
201905130905,1287.9,1287.9,1287.7,1287.8
201905130906,1287.8,1287.8,1287.5,1287.8
201905130907,1287.8,1287.8,1287.5,1287.6
201905130908,1287.6,1287.8,1287.6,1287.8
201905130909,1287.8,1287.8,1287.5,1287.6
201905130910,1287.6,1287.6,1287.4,1287.4
201905130911,1287.4,1287.5,1287.3,1287.3
201905130912,1287.3,1287.6,1287.3,1287.5
201905130913,1287.5,1287.7,1287.5,1287.6
201905130914,1287.6,1287.6,1287.5,1287.5
201905130915,1287.5,1287.9,1287.5,1287.8
201905130916,1287.8,1287.8,1287.5,1287.7
201905130917,1287.7,1287.8,1287.4,1287.4
201905130918,1287.4,1287.6,1287.2,1287.2
201905130919,1287.2,1287.7,1287.2,1287.7
201905130920,1287.7,1287.7,1287.6,1287.7
201905130921,1287.7,1287.8,1287.6,1287.7
201905130922,1287.7,1287.8,1287.7,1287.8
201905130923,1287.8,1288.2,1287.7,1288.1
201905130924,1288.1,1288.1,1287.9,1288
201905130925,1288,1288,1287.9,1288
201905130926,1288,1288,1287.9,1288
201905130927,1288,1288,1287.9,1287.9
201905130928,1287.9,1288,1287.8,1288
201905130929,1288,1288.1,1288,1288
201905130930,1288,1288.1,1288,1288.1
201905130931,1288.1,1288.1,1288.1,1288.1
201905130932,1288.1,1288.4,1288.1,1288.4
201905130933,1288.4,1288.4,1288.1,1288.2
201905130934,1288.2,1288.2,1288.2,1288.2
201905130935,1288.2,1288.2,1288.1,1288.1
201905130936,1288.1,1288.2,1288.1,1288.1
201905130937,1288.1,1288.2,1287.9,1288
201905130938,1288,1288,1287.9,1287.9
201905130939,1287.9,1288,1287.8,1287.9
201905130940,1287.9,1287.9,1287.9,1287.9
201905130941,1287.9,1288,1287.9,1287.9
201905130942,1287.9,1287.9,1287.8,1287.9
201905130943,1287.9,1287.9,1287.7,1287.8
201905130944,1287.8,1287.8,1287.8,1287.8
201905130945,1287.8,1287.9,1287.8,1287.9
201905130946,1287.9,1287.9,1287.9,1287.9
201905130947,1287.9,1288,1287.9,1288
201905130948,1288,1288.1,1288,1288.1
201905130949,1288.1,1288.2,1288,1288.2
201905130950,1288.2,1288.2,1288.1,1288.2
201905130951,1288.2,1288.3,1288.2,1288.3
201905130952,1288.3,1288.4,1288.3,1288.4
201905130953,1288.4,1288.4,1288.3,1288.3
201905130954,1288.3,1288.3,1288,1288
201905130955,1288,1288.1,1288,1288
201905130956,1288,1288,1287.9,1287.9
201905130957,1287.9,1287.9,1287.9,1287.9
201905130958,1287.9,1287.9,1287.5,1287.6
201905130959,1287.6,1287.6,1287.4,1287.4
201905131000,1287.4,1287.5,1287.2,1287.2
201905131001,1287.3,1287.3,1286.9,1287.2
201905131002,1287.2,1287.2,1286.9,1286.9
201905131003,1286.9,1286.9,1286.7,1286.9
201905131004,1286.9,1287,1286.8,1287
201905131005,1287,1287.1,1286.9,1287
201905131006,1287,1287.1,1286.9,1287
201905131007,1287,1287,1286.8,1286.8
201905131008,1286.8,1286.9,1286.7,1286.8
201905131009,1286.8,1286.8,1286.6,1286.7
201905131010,1286.7,1286.7,1286.6,1286.6
201905131011,1286.6,1286.8,1286.6,1286.7
201905131012,1286.7,1286.7,1286.6,1286.7
201905131013,1286.7,1286.7,1286.5,1286.6
201905131014,1286.6,1286.7,1286.6,1286.6
201905131015,1286.6,1286.7,1286.6,1286.7
201905131016,1286.7,1286.7,1286.5,1286.6
201905131017,1286.6,1286.6,1286.5,1286.5
201905131018,1286.5,1286.5,1286.3,1286.4
201905131019,1286.4,1286.6,1286.4,1286.5
201905131020,1286.6,1286.6,1286.5,1286.6
201905131021,1286.6,1286.6,1286.2,1286.3
201905131022,1286.3,1286.4,1286.3,1286.3
201905131023,1286.3,1286.4,1286.3,1286.4
201905131024,1286.4,1286.5,1286.3,1286.4
201905131025,1286.4,1286.4,1286.3,1286.3
201905131026,1286.3,1286.5,1286.2,1286.4
201905131027,1286.4,1286.5,1286.4,1286.5
201905131028,1286.5,1286.6,1286.5,1286.6
201905131029,1286.6,1286.7,1286.6,1286.6
201905131030,1286.6,1286.6,1286.6,1286.6
201905131031,1286.6,1286.6,1286.5,1286.5
201905131032,1286.5,1286.6,1286.4,1286.5
201905131033,1286.5,1286.6,1286.5,1286.5
201905131034,1286.5,1286.5,1286.4,1286.4
201905131035,1286.4,1286.5,1286.2,1286.3
201905131036,1286.3,1286.3,1286.2,1286.3
201905131037,1286.3,1286.3,1286.2,1286.2
201905131038,1286.2,1286.2,1286,1286
201905131039,1286,1286.1,1286,1286.1
201905131040,1286.1,1286.1,1285.9,1285.9
201905131041,1285.9,1286,1285.9,1286
201905131042,1286,1286,1285.9,1286
201905131043,1286,1286,1285.9,1286
201905131044,1286,1286.1,1285.9,1285.9
201905131045,1285.9,1285.9,1285.8,1285.8
201905131046,1285.8,1285.8,1285.6,1285.7
201905131047,1285.7,1285.9,1285.7,1285.8
201905131048,1285.8,1285.8,1285.7,1285.7
201905131049,1285.7,1285.8,1285.7,1285.8
201905131050,1285.8,1285.9,1285.7,1285.9
201905131051,1285.9,1285.9,1285.7,1285.8
201905131052,1285.8,1285.9,1285.8,1285.8
201905131053,1285.8,1285.9,1285.5,1285.5
201905131054,1285.5,1285.9,1285.4,1285.5
201905131055,1285.5,1285.5,1285.4,1285.5
201905131056,1285.5,1285.5,1285.4,1285.4
201905131057,1285.4,1285.4,1285.2,1285.2
201905131058,1285.2,1285.2,1285,1285.1
201905131059,1285.1,1285.1,1284.8,1284.9
201905131100,1284.9,1285,1284.7,1284.8
201905131101,1284.8,1284.9,1284.8,1284.8
201905131102,1284.8,1284.9,1284.8,1284.9
201905131103,1284.9,1285,1284.8,1284.9
201905131104,1284.9,1285,1284.9,1284.9
201905131105,1284.9,1285.1,1284.9,1285
201905131106,1285,1285.1,1284.9,1284.9
201905131107,1284.9,1284.9,1284.9,1284.9
201905131108,1284.9,1285.1,1284.9,1285.1
201905131109,1285.1,1285.1,1284.6,1284.6
201905131110,1284.6,1284.7,1284,1284.2
201905131111,1284.2,1284.2,1284,1284.1
201905131112,1284.1,1284.1,1284,1284
201905131113,1284,1284.2,1284,1284.2
201905131114,1284.2,1284.2,1284,1284
201905131115,1284,1284,1283.8,1283.8
201905131116,1283.8,1284,1283.7,1284
201905131117,1284,1284.3,1284,1284.3
201905131118,1284.3,1284.5,1284.3,1284.3
201905131119,1284.3,1284.3,1284,1284.1
201905131120,1284.1,1284.2,1284.1,1284.2
201905131121,1284.2,1284.3,1283.8,1283.8
201905131122,1283.8,1284.1,1283.7,1284
201905131123,1284,1284.1,1283.9,1284.1
201905131124,1284.1,1284.2,1284.1,1284.2
201905131125,1284.2,1284.3,1284.2,1284.2
201905131126,1284.2,1284.3,1284.2,1284.2
201905131127,1284.2,1284.3,1284.2,1284.3
201905131128,1284.3,1284.4,1284.3,1284.3
201905131129,1284.3,1284.4,1284.3,1284.4
201905131130,1284.4,1284.4,1284.3,1284.3
201905131131,1284.3,1284.3,1284.1,1284.2
201905131132,1284.2,1284.2,1284.1,1284.2
201905131133,1284.2,1284.2,1284,1284
201905131134,1284,1284,1283.8,1283.8
201905131135,1283.8,1283.9,1283.8,1283.9
201905131136,1283.9,1284.2,1283.9,1284.2
201905131137,1284.2,1284.2,1284.2,1284.2
201905131138,1284.2,1284.2,1284.1,1284.1
201905131139,1284.1,1284.2,1284.1,1284.2
201905131140,1284.2,1284.2,1284.1,1284.2
201905131141,1284.2,1284.2,1284.1,1284.2
201905131142,1284.2,1284.2,1284.1,1284.2
201905131143,1284.2,1284.3,1284.2,1284.3
201905131144,1284.3,1284.5,1284.3,1284.5
201905131145,1284.5,1284.5,1284.4,1284.5
201905131146,1284.5,1284.7,1284.5,1284.7
201905131147,1284.7,1284.8,1284.7,1284.7
201905131148,1284.7,1284.7,1284.6,1284.6
201905131149,1284.6,1284.7,1284.5,1284.7
201905131150,1284.7,1284.8,1284.7,1284.8
201905131151,1284.8,1284.8,1284.8,1284.8
201905131152,1284.8,1284.8,1284.7,1284.7
201905131153,1284.7,1284.7,1284.7,1284.7
201905131154,1284.7,1284.7,1284.6,1284.6
201905131155,1284.6,1284.8,1284.6,1284.7
201905131156,1284.7,1284.7,1284.4,1284.4
201905131157,1284.4,1284.5,1284.3,1284.4
201905131158,1284.4,1284.4,1284.3,1284.3
201905131159,1284.3,1284.4,1284.3,1284.4
201905131200,1284.4,1284.4,1284.3,1284.4
201905131201,1284.4,1284.4,1284.3,1284.3
201905131202,1284.3,1284.4,1284.3,1284.3
201905131203,1284.3,1284.4,1284.3,1284.3
201905131204,1284.3,1284.3,1284.3,1284.3
201905131205,1284.3,1284.3,1284.2,1284.3
201905131206,1284.3,1284.3,1284.2,1284.2
201905131207,1284.2,1284.2,1284.1,1284.1
201905131208,1284.1,1284.1,1284.1,1284.1
201905131209,1284.1,1284.1,1284,1284
201905131210,1284,1284,1284,1284
201905131211,1284,1284.1,1284,1284.1
201905131212,1284,1284.1,1284,1284.1
201905131213,1284.1,1284.1,1283.9,1283.9
201905131214,1283.9,1284,1283.9,1284
201905131215,1284,1284,1283.9,1283.9
201905131216,1283.9,1284,1283.9,1283.9
201905131217,1283.9,1283.9,1283.8,1283.9
201905131218,1283.9,1283.9,1283.7,1283.7
201905131219,1283.7,1283.8,1283.6,1283.6
201905131220,1283.6,1283.7,1283.4,1283.5
201905131221,1283.5,1283.6,1283.4,1283.6
201905131222,1283.6,1283.6,1283.5,1283.6
201905131223,1283.6,1283.6,1283.4,1283.6
201905131224,1283.6,1283.7,1283.6,1283.6
201905131225,1283.6,1283.7,1283.6,1283.7
201905131226,1283.7,1283.7,1283.7,1283.7
201905131227,1283.7,1283.7,1283.6,1283.7
201905131228,1283.7,1283.7,1283.6,1283.6
201905131229,1283.6,1283.6,1283.5,1283.6
201905131230,1283.6,1283.7,1283.6,1283.7
201905131231,1283.7,1283.7,1283.5,1283.6
201905131232,1283.6,1283.7,1283.6,1283.7
201905131233,1283.7,1283.7,1283.6,1283.6
201905131234,1283.6,1283.7,1283.6,1283.7
201905131235,1283.6,1283.7,1283.5,1283.6
201905131236,1283.6,1283.6,1283.5,1283.5
201905131237,1283.5,1283.6,1283.5,1283.5
201905131238,1283.5,1283.6,1283.5,1283.6
201905131239,1283.6,1283.6,1283.6,1283.6
201905131240,1283.6,1283.6,1283.6,1283.6
201905131241,1283.6,1283.7,1283.6,1283.7
201905131242,1283.7,1283.7,1283.6,1283.6
201905131243,1283.6,1283.7,1283.6,1283.6
201905131244,1283.6,1283.7,1283.6,1283.7
201905131245,1283.7,1283.8,1283.7,1283.7
201905131246,1283.7,1283.7,1283.7,1283.7
201905131247,1283.7,1283.7,1283.7,1283.7
201905131248,1283.7,1283.7,1283.6,1283.7
201905131249,1283.7,1283.7,1283.6,1283.7
201905131250,1283.7,1283.7,1283.6,1283.7
201905131251,1283.7,1283.7,1283.7,1283.7
201905131252,1283.7,1283.7,1283.7,1283.7
201905131253,1283.7,1283.8,1283.7,1283.7
201905131254,1283.7,1283.7,1283.7,1283.7
201905131255,1283.7,1283.7,1283.4,1283.4
201905131256,1283.4,1283.5,1283.4,1283.5
201905131257,1283.5,1283.6,1283.5,1283.6
201905131258,1283.6,1283.6,1283.6,1283.6
201905131259,1283.6,1283.6,1283.6,1283.6
201905131300,1283.6,1283.6,1283.5,1283.6
201905131301,1283.6,1283.6,1283.6,1283.6
201905131302,1283.6,1283.6,1283.6,1283.6
201905131303,1283.6,1283.6,1283.6,1283.6
201905131304,1283.5,1283.6,1283.5,1283.5
201905131305,1283.5,1283.5,1283.5,1283.5
201905131306,1283.5,1283.6,1283.5,1283.6
201905131307,1283.6,1283.6,1283.6,1283.6
201905131308,1283.6,1283.6,1283.5,1283.5
201905131309,1283.5,1283.5,1283.5,1283.5
201905131310,1283.5,1283.6,1283.5,1283.6
201905131311,1283.6,1283.6,1283.5,1283.5
201905131312,1283.5,1283.5,1283.4,1283.4
201905131313,1283.4,1283.5,1283.4,1283.4
201905131314,1283.4,1283.4,1282.8,1282.9
201905131315,1282.9,1283,1282.8,1283
201905131316,1283,1283,1282.8,1282.9
201905131317,1282.9,1283,1282.8,1283
201905131318,1283,1283,1283,1283
201905131319,1283,1283.1,1283,1283
201905131320,1283,1283.2,1283,1283.2
201905131321,1283.2,1283.3,1283.2,1283.2
201905131322,1283.2,1283.3,1283.2,1283.3
201905131323,1283.3,1283.4,1283.3,1283.4
201905131324,1283.4,1283.4,1283.4,1283.4
201905131325,1283.4,1283.4,1283.4,1283.4
201905131326,1283.4,1283.4,1283.2,1283.2
201905131327,1283.2,1283.3,1283.2,1283.2
201905131328,1283.2,1283.4,1283.2,1283.4
201905131329,1283.4,1283.4,1283.4,1283.4
201905131330,1283.4,1283.4,1283.4,1283.4
201905131331,1283.4,1283.4,1283.4,1283.4
201905131332,1283.4,1283.6,1283.4,1283.6
201905131333,1283.6,1283.6,1283.5,1283.5
201905131334,1283.5,1283.5,1283.5,1283.5
201905131335,1283.5,1283.6,1283.5,1283.6
201905131336,1283.6,1283.7,1283.5,1283.7
201905131337,1283.7,1283.7,1283.7,1283.7
201905131338,1283.7,1283.8,1283.7,1283.7
201905131339,1283.7,1283.9,1283.7,1283.9
201905131340,1283.9,1283.9,1283.8,1283.9
201905131341,1283.9,1284,1283.9,1284
201905131342,1283.9,1284,1283.9,1283.9
201905131343,1284,1284,1283.9,1283.9
201905131344,1283.9,1283.9,1283.8,1283.8
201905131345,1283.8,1283.9,1283.8,1283.8
201905131346,1283.8,1283.8,1283.7,1283.7
201905131347,1283.7,1283.7,1283.6,1283.6
201905131348,1283.6,1283.6,1283.6,1283.6
201905131349,1283.6,1283.6,1283.5,1283.6
201905131350,1283.6,1283.6,1283.6,1283.6
201905131351,1283.6,1283.7,1283.6,1283.7
201905131352,1283.7,1283.7,1283.7,1283.7
201905131353,1283.7,1283.8,1283.7,1283.8
201905131354,1283.8,1283.8,1283.8,1283.8
201905131355,1283.8,1283.8,1283.8,1283.8
201905131356,1283.8,1283.8,1283.8,1283.8
201905131357,1283.8,1283.9,1283.8,1283.9
201905131358,1283.9,1283.9,1283.9,1283.9
201905131359,1283.8,1283.9,1283.8,1283.9
201905131400,1283.9,1283.9,1283.8,1283.8
201905131401,1283.8,1283.8,1283.7,1283.7
201905131402,1283.7,1283.7,1283.7,1283.7
201905131403,1283.7,1283.7,1283.7,1283.7
201905131404,1283.7,1283.7,1283.7,1283.7
201905131405,1283.7,1283.7,1283.7,1283.7
201905131406,1283.7,1283.8,1283.7,1283.8
201905131407,1283.8,1283.8,1283.8,1283.8
201905131408,1283.8,1283.8,1283.7,1283.7
201905131409,1283.7,1283.8,1283.7,1283.8
201905131410,1283.8,1283.8,1283.7,1283.7
201905131411,1283.7,1283.8,1283.6,1283.7
201905131412,1283.7,1283.7,1283.4,1283.6
201905131413,1283.6,1283.9,1283.6,1283.8
201905131414,1283.8,1283.9,1283.7,1283.7
201905131415,1283.7,1283.9,1283.7,1283.9
201905131416,1283.9,1284.1,1283.9,1284.1
201905131417,1284.1,1284.2,1284.1,1284.1
201905131418,1284.1,1284.1,1284,1284.1
201905131419,1284.1,1284.1,1284.1,1284.1
201905131420,1284.1,1284.1,1284,1284
201905131421,1284.1,1284.1,1283.9,1284
201905131422,1284,1284,1284,1284
201905131423,1284,1284.1,1284,1284.1
201905131424,1284.1,1284.2,1284.1,1284.2
201905131425,1284.2,1284.3,1284.1,1284.3
201905131426,1284.3,1284.3,1284.2,1284.2
201905131427,1284.2,1284.3,1284.2,1284.3
201905131428,1284.3,1284.3,1284.2,1284.3
201905131429,1284.3,1284.3,1284.3,1284.3
201905131430,1284.3,1284.5,1284.3,1284.5
201905131431,1284.5,1284.5,1284.4,1284.5
201905131432,1284.5,1284.5,1284.3,1284.3
201905131433,1284.3,1284.4,1284.1,1284.1
201905131434,1284.1,1284.1,1284,1284
201905131435,1284.1,1284.3,1284,1284.2
201905131436,1284.2,1284.3,1284.1,1284.3
201905131437,1284.4,1284.5,1284.3,1284.4
201905131438,1284.4,1284.6,1284.4,1284.6
201905131439,1284.6,1284.7,1284.6,1284.7
201905131440,1284.7,1284.7,1284.7,1284.7
201905131441,1284.7,1284.7,1284.5,1284.5
201905131442,1284.5,1284.6,1284.5,1284.5
201905131443,1284.5,1284.5,1284.5,1284.5
201905131444,1284.5,1284.7,1284.5,1284.7
201905131445,1284.7,1284.7,1284.7,1284.7
201905131446,1284.7,1284.8,1284.7,1284.7
201905131447,1284.7,1284.8,1284.7,1284.8
201905131448,1284.8,1284.9,1284.8,1284.9
201905131449,1284.9,1284.9,1284.8,1284.9
201905131450,1284.9,1284.9,1284.8,1284.8
201905131451,1284.8,1284.8,1284.6,1284.6
201905131452,1284.6,1284.6,1284.5,1284.5
201905131453,1284.5,1284.5,1284.4,1284.4
201905131454,1284.4,1284.5,1284.4,1284.4
201905131455,1284.4,1284.4,1284.4,1284.4
201905131456,1284.4,1284.4,1284.3,1284.4
201905131457,1284.4,1284.4,1284.4,1284.4
201905131458,1284.4,1284.5,1284.3,1284.4
201905131459,1284.4,1284.5,1284.3,1284.3
201905131500,1284.3,1284.3,1284,1284
201905131501,1284,1284.1,1283.9,1283.9
201905131502,1283.9,1284,1283.8,1283.8
201905131503,1283.8,1283.8,1283.6,1283.6
201905131504,1283.6,1283.7,1283.6,1283.7
201905131505,1283.7,1283.7,1283.6,1283.7
201905131506,1283.7,1283.8,1283.7,1283.8
201905131507,1283.8,1283.8,1283.8,1283.8
201905131508,1283.8,1283.9,1283.8,1283.9
201905131509,1283.9,1284,1283.8,1284
201905131510,1284,1284,1283.8,1283.9
201905131511,1283.9,1283.9,1283.9,1283.9
201905131512,1283.9,1283.9,1283.8,1283.9
201905131513,1283.9,1283.9,1283.7,1283.7
201905131514,1283.7,1283.8,1283.7,1283.8
201905131515,1283.8,1283.9,1283.6,1283.6
201905131516,1283.6,1283.7,1283.6,1283.6
201905131517,1283.6,1283.7,1283.6,1283.6
201905131518,1283.6,1283.6,1283.5,1283.6
201905131519,1283.6,1283.7,1283.6,1283.6
201905131520,1283.6,1283.6,1283.5,1283.5
201905131521,1283.5,1283.5,1283.2,1283.5
201905131522,1283.5,1283.5,1283.3,1283.3
201905131523,1283.3,1283.3,1283,1283.2
201905131524,1283.2,1283.3,1283.2,1283.3
201905131525,1283.3,1283.5,1283.3,1283.5
201905131526,1283.5,1283.5,1283.4,1283.5
201905131527,1283.5,1283.5,1283.4,1283.5
201905131528,1283.5,1283.5,1283.4,1283.5
201905131529,1283.5,1283.5,1283.4,1283.4
201905131530,1283.4,1283.4,1283.1,1283.1
201905131531,1283.1,1283.1,1283,1283
201905131532,1283,1283,1282.8,1282.8
201905131533,1282.8,1283,1282.7,1283
201905131534,1283,1283,1282.9,1282.9
201905131535,1282.9,1282.9,1282.8,1282.8
201905131536,1282.8,1282.9,1282.8,1282.9
201905131537,1282.9,1283,1282.9,1283
201905131538,1283,1283,1283,1283
201905131539,1283,1283,1282.8,1282.9
201905131540,1282.9,1282.9,1282.9,1282.9
201905131541,1282.9,1282.9,1282.8,1282.8
201905131542,1282.9,1282.9,1282.8,1282.8
201905131543,1282.8,1282.9,1282.8,1282.9
201905131544,1282.9,1283,1282.9,1282.9
201905131545,1282.9,1283.1,1282.9,1283
201905131546,1283,1283,1282.9,1282.9
201905131547,1282.9,1283,1282.8,1283
201905131548,1283,1283,1282.9,1283
201905131549,1283,1283.1,1283,1283.1
201905131550,1283.1,1283.1,1282.9,1283.1
201905131551,1283.1,1283.2,1283.1,1283.2
201905131552,1283.2,1283.3,1283.2,1283.2
201905131553,1283.2,1283.3,1283.1,1283.1
201905131554,1283.1,1283.1,1282.8,1282.8
201905131555,1282.8,1282.8,1282.7,1282.8
201905131556,1282.8,1282.8,1282.7,1282.8
201905131557,1282.8,1282.9,1282.7,1282.8
201905131558,1282.8,1282.8,1282.6,1282.7
201905131559,1282.7,1282.9,1282.4,1282.4
201905131600,1282.4,1282.4,1282,1282
201905131601,1282,1282.3,1281.9,1282.2
201905131602,1282.2,1282.4,1282.1,1282.3
201905131603,1282.3,1282.5,1282.2,1282.4
201905131604,1282.4,1282.5,1282.3,1282.4
201905131605,1282.4,1282.5,1282.4,1282.4
201905131606,1282.4,1282.5,1282.4,1282.5
201905131607,1282.5,1282.7,1282.5,1282.7
201905131608,1282.7,1282.8,1282.5,1282.5
201905131609,1282.5,1282.6,1282.4,1282.5
201905131610,1282.5,1282.5,1282.2,1282.2
201905131611,1282.2,1282.2,1282,1282.1
201905131612,1282.1,1282.1,1282,1282.1
201905131613,1282.1,1282.5,1282,1282.5
201905131614,1282.5,1282.8,1282.5,1282.7
201905131615,1282.7,1282.8,1282.5,1282.8
201905131616,1282.8,1282.9,1282.8,1282.8
201905131617,1282.8,1282.9,1282.8,1282.8
201905131618,1282.8,1282.8,1282.7,1282.8
201905131619,1282.8,1283,1282.7,1282.8
201905131620,1282.8,1282.9,1282.8,1282.9
201905131621,1282.9,1282.9,1282.6,1282.6
201905131622,1282.6,1282.9,1282.6,1282.9
201905131623,1282.9,1283,1282.9,1283
201905131624,1283,1283,1282.9,1282.9
201905131625,1282.9,1282.9,1282.8,1282.8
201905131626,1282.8,1283,1282.8,1283
201905131627,1283,1283.2,1283,1283.1
201905131628,1283.1,1283.2,1283,1283
201905131629,1283,1283,1282.7,1282.7
201905131630,1282.7,1282.8,1282.5,1282.7
201905131631,1282.7,1282.9,1282.7,1282.8
201905131632,1282.8,1282.8,1282.7,1282.8
201905131633,1282.8,1282.8,1282.8,1282.8
201905131634,1282.8,1283.2,1282.8,1283.2
201905131635,1283.2,1283.2,1283,1283.1
201905131636,1283.1,1283.2,1282.9,1283
201905131637,1283,1283.3,1283,1283.2
201905131638,1283.2,1283.2,1283.1,1283.1
201905131639,1283.1,1283.4,1283.1,1283.4
201905131640,1283.4,1283.4,1283.3,1283.3
201905131641,1283.3,1283.4,1283.3,1283.4
201905131642,1283.4,1283.4,1283.3,1283.3
201905131643,1283.3,1283.4,1283.3,1283.4
201905131644,1283.4,1283.7,1283.4,1283.6
201905131645,1283.6,1283.6,1283.5,1283.5
201905131646,1283.5,1283.6,1283.5,1283.6
201905131647,1283.5,1283.7,1283.5,1283.5
201905131648,1283.5,1283.6,1283.4,1283.5
201905131649,1283.5,1283.5,1283.3,1283.4
201905131650,1283.4,1283.4,1283.3,1283.3
201905131651,1283.3,1283.5,1283.3,1283.5
201905131652,1283.5,1283.5,1283.4,1283.5
201905131653,1283.5,1283.6,1283.5,1283.6
201905131654,1283.6,1283.7,1283.6,1283.7
201905131655,1283.7,1283.7,1283.5,1283.5
201905131656,1283.5,1283.6,1283.4,1283.5
201905131657,1283.6,1283.7,1283.6,1283.7
201905131658,1283.7,1283.7,1283.6,1283.6
201905131659,1283.6,1283.7,1283.5,1283.7
201905131700,1283.7,1283.8,1283.7,1283.7
201905131701,1283.7,1283.7,1283.7,1283.7
201905131702,1283.7,1283.7,1283.6,1283.6
201905131703,1283.6,1283.8,1283.6,1283.7
201905131704,1283.7,1283.8,1283.6,1283.8
201905131705,1283.8,1283.8,1283.7,1283.7
201905131706,1283.7,1283.7,1283.5,1283.6
201905131707,1283.6,1283.6,1283.5,1283.5
201905131708,1283.5,1283.5,1283.2,1283.3
201905131709,1283.3,1283.4,1283.2,1283.4
201905131710,1283.4,1283.6,1283.3,1283.4
201905131711,1283.4,1283.6,1283.4,1283.6
201905131712,1283.6,1283.6,1283.4,1283.4
201905131713,1283.4,1283.6,1283.4,1283.6
201905131714,1283.6,1283.7,1283.5,1283.5
201905131715,1283.5,1283.6,1283.4,1283.5
201905131716,1283.5,1283.5,1283.4,1283.5
201905131717,1283.5,1283.6,1283.5,1283.5
201905131718,1283.5,1283.6,1283.5,1283.5
201905131719,1283.5,1283.5,1283.3,1283.3
201905131720,1283.3,1283.3,1283.1,1283.1
201905131721,1283.1,1283.2,1283.1,1283.1
201905131722,1283.1,1283.1,1283,1283
201905131723,1283,1283,1282.8,1282.8
201905131724,1282.8,1282.8,1282.7,1282.8
201905131725,1282.8,1282.9,1282.7,1282.9
201905131726,1282.9,1283.1,1282.8,1283
201905131727,1283,1283.1,1283,1283.1
201905131728,1283.1,1283.1,1283,1283.1
201905131729,1283.1,1283.1,1283,1283
201905131730,1283,1283,1282.6,1282.8
201905131731,1282.8,1283.1,1282.7,1283.1
201905131732,1283.1,1283.2,1283.1,1283.2
201905131733,1283.2,1283.3,1283.2,1283.2
201905131734,1283.2,1283.3,1283.1,1283.2
201905131735,1283.2,1283.3,1283.1,1283.3
201905131736,1283.3,1283.4,1283.1,1283.1
201905131737,1283.1,1283.5,1283.1,1283.3
201905131738,1283.3,1283.4,1283.3,1283.3
201905131739,1283.4,1283.5,1283.4,1283.4
201905131740,1283.4,1283.6,1283.3,1283.6
201905131741,1283.6,1283.6,1283.1,1283.2
201905131742,1283.2,1283.3,1282.9,1283.1
201905131743,1283.1,1283.1,1283.1,1283.1
201905131744,1283.1,1283.2,1283.1,1283.2
201905131745,1283.2,1283.2,1283.1,1283.2
201905131746,1283.2,1283.4,1283.2,1283.4
201905131747,1283.4,1283.5,1283.4,1283.5
201905131748,1283.5,1283.5,1283.4,1283.5
201905131749,1283.5,1283.6,1283.5,1283.6
201905131750,1283.6,1283.7,1283.5,1283.6
201905131751,1283.6,1283.6,1283.5,1283.6
201905131752,1283.6,1283.6,1283.4,1283.6
201905131753,1283.6,1283.8,1283.6,1283.7
201905131754,1283.7,1283.7,1283.5,1283.5
201905131755,1283.5,1283.8,1283.4,1283.8
201905131756,1283.8,1283.8,1283.6,1283.7
201905131757,1283.7,1283.7,1283.6,1283.7
201905131758,1283.7,1283.7,1283.4,1283.4
201905131759,1283.4,1283.5,1283.4,1283.4
201905131800,1283.4,1283.6,1283.4,1283.5
201905131801,1283.5,1284,1283.5,1283.8
201905131802,1283.8,1283.9,1283.7,1283.7
201905131803,1283.7,1283.8,1283.6,1283.8
201905131804,1283.8,1283.8,1283.6,1283.6
201905131805,1283.6,1283.6,1283.2,1283.3
201905131806,1283.3,1283.3,1283.2,1283.3
201905131807,1283.3,1283.3,1283.1,1283.2
201905131808,1283.2,1283.2,1283,1283
201905131809,1283.1,1283.1,1282.9,1283
201905131810,1283,1283.1,1283,1283
201905131811,1283,1283.1,1283,1283
201905131812,1283,1283,1282.8,1282.8
201905131813,1282.8,1282.8,1282.7,1282.8
201905131814,1282.8,1282.8,1282.7,1282.8
201905131815,1282.8,1283,1282.7,1282.8
201905131816,1282.8,1282.8,1282.7,1282.7
201905131817,1282.7,1282.8,1282.7,1282.8
201905131818,1282.8,1282.8,1282.8,1282.8
201905131819,1282.8,1282.8,1282.6,1282.7
201905131820,1282.7,1282.7,1282.6,1282.6
201905131821,1282.6,1282.8,1282.6,1282.7
201905131822,1282.7,1282.8,1282.7,1282.7
201905131823,1282.7,1282.7,1282.6,1282.6
201905131824,1282.6,1282.7,1282.6,1282.7
201905131825,1282.7,1282.8,1282.7,1282.8
201905131826,1282.8,1282.8,1282.8,1282.8
201905131827,1282.8,1282.8,1282.8,1282.8
201905131828,1282.8,1283,1282.8,1282.9
201905131829,1282.9,1282.9,1282.6,1282.7
201905131830,1282.7,1282.8,1282.7,1282.7
201905131831,1282.7,1282.8,1282.7,1282.8
201905131832,1282.8,1282.8,1282.7,1282.8
201905131833,1282.8,1282.9,1282.8,1282.9
201905131834,1282.9,1283,1282.9,1282.9
201905131835,1282.9,1283.1,1282.9,1282.9
201905131836,1282.9,1282.9,1282.8,1282.9
201905131837,1282.9,1283,1282.9,1282.9
201905131838,1282.9,1283.1,1282.9,1283.1
201905131839,1283,1283.1,1282.9,1283
201905131840,1283,1283,1282.9,1282.9
201905131841,1282.9,1282.9,1282.9,1282.9
201905131842,1282.9,1282.9,1282.9,1282.9
201905131843,1282.9,1283,1282.9,1283
201905131844,1283,1283,1283,1283
201905131845,1283,1283,1282.9,1283
201905131846,1283,1283.1,1282.9,1283.1
201905131847,1283.1,1283.1,1283,1283
201905131848,1283,1283.1,1282.9,1283.1
201905131849,1283.1,1283.2,1283.1,1283.2
201905131850,1283.2,1283.5,1283.1,1283.5
201905131851,1283.5,1283.5,1283.3,1283.3
201905131852,1283.3,1283.4,1283.3,1283.3
201905131853,1283.3,1283.4,1283.3,1283.4
201905131854,1283.4,1283.4,1283.3,1283.3
201905131855,1283.3,1283.5,1283.3,1283.4
201905131856,1283.4,1283.4,1283.4,1283.4
201905131857,1283.4,1283.6,1283.3,1283.6
201905131858,1283.6,1283.7,1283.5,1283.7
201905131859,1283.7,1283.7,1283.4,1283.4
201905131900,1283.4,1283.5,1283.4,1283.5
201905131901,1283.5,1283.6,1283.5,1283.5
201905131902,1283.5,1283.5,1283.4,1283.5
201905131903,1283.5,1283.5,1283.5,1283.5
201905131904,1283.5,1283.6,1283.4,1283.4
201905131905,1283.4,1283.4,1283.4,1283.4
201905131906,1283.4,1283.4,1283.2,1283.2
201905131907,1283.2,1283.3,1283.2,1283.3
201905131908,1283.3,1283.3,1283.2,1283.3
201905131909,1283.3,1283.3,1283.2,1283.2
201905131910,1283.2,1283.2,1283.2,1283.2
201905131911,1283.2,1283.4,1283.2,1283.4
201905131912,1283.4,1283.4,1283.2,1283.2
201905131913,1283.2,1283.3,1283.2,1283.2
201905131914,1283.2,1283.3,1283.2,1283.3
201905131915,1283.3,1283.3,1283.2,1283.2
201905131916,1283.2,1283.3,1283.2,1283.3
201905131917,1283.3,1283.3,1283.2,1283.3
201905131918,1283.3,1283.3,1283.3,1283.3
201905131919,1283.3,1283.5,1283.3,1283.5
201905131920,1283.5,1283.5,1283.3,1283.4
201905131921,1283.4,1283.4,1283.4,1283.4
201905131922,1283.4,1283.5,1283.4,1283.5
201905131923,1283.5,1283.6,1283.5,1283.6
201905131924,1283.6,1283.6,1283.6,1283.6
201905131925,1283.6,1283.7,1283.6,1283.7
201905131926,1283.7,1283.7,1283.6,1283.6
201905131927,1283.7,1283.7,1283.6,1283.6
201905131928,1283.6,1283.6,1283.6,1283.6
201905131929,1283.6,1283.7,1283.5,1283.7
201905131930,1283.6,1283.6,1283.5,1283.5
201905131931,1283.5,1283.5,1283.5,1283.5
201905131932,1283.5,1283.6,1283.5,1283.6
201905131933,1283.6,1283.7,1283.5,1283.7
201905131934,1283.7,1283.7,1283.6,1283.6
201905131935,1283.6,1283.7,1283.5,1283.5
201905131936,1283.5,1283.5,1283.4,1283.4
201905131937,1283.4,1283.4,1283.3,1283.4
201905131938,1283.4,1283.4,1283.3,1283.3
201905131939,1283.3,1283.3,1283.3,1283.3
201905131940,1283.3,1283.5,1283.3,1283.4
201905131941,1283.5,1283.5,1283.3,1283.5
201905131942,1283.5,1283.5,1283.5,1283.5
201905131943,1283.5,1283.5,1283.4,1283.4
201905131944,1283.4,1283.5,1283.4,1283.5
201905131945,1283.5,1283.6,1283.4,1283.4
201905131946,1283.4,1283.5,1283.4,1283.5
201905131947,1283.5,1283.5,1283.4,1283.5
201905131948,1283.5,1283.6,1283.4,1283.5
201905131949,1283.5,1283.6,1283.5,1283.5
201905131950,1283.5,1283.5,1283.4,1283.5
201905131951,1283.5,1283.5,1283.4,1283.4
201905131952,1283.4,1283.4,1283.4,1283.4
201905131953,1283.4,1283.4,1283.2,1283.2
201905131954,1283.2,1283.3,1283.1,1283.3
201905131955,1283.2,1283.3,1283.1,1283.1
201905131956,1283.1,1283.3,1283.1,1283.2
201905131957,1283.2,1283.2,1283.2,1283.2
201905131958,1283.2,1283.2,1283.1,1283.1
201905131959,1283.1,1283.4,1283.1,1283.4
201905132000,1283.4,1283.5,1283.2,1283.5
201905132001,1283.5,1283.5,1283.3,1283.5
201905132002,1283.5,1283.6,1283.4,1283.4
201905132003,1283.4,1283.6,1283.4,1283.6
201905132004,1283.6,1283.7,1283.6,1283.7
201905132005,1283.7,1283.7,1283.6,1283.6
201905132006,1283.6,1283.6,1283.5,1283.5
201905132007,1283.5,1283.5,1283.4,1283.4
201905132008,1283.4,1283.6,1283.4,1283.6
201905132009,1283.6,1283.6,1283.5,1283.5
201905132010,1283.5,1283.6,1283.5,1283.6
201905132011,1283.6,1283.6,1283.5,1283.5
201905132012,1283.5,1283.6,1283.5,1283.5
201905132013,1283.5,1283.5,1283.5,1283.5
201905132014,1283.5,1283.6,1283.5,1283.5
201905132015,1283.5,1283.5,1283.4,1283.4
201905132016,1283.4,1283.5,1283.3,1283.5
201905132017,1283.5,1283.5,1283.4,1283.4
201905132018,1283.4,1283.5,1283.3,1283.4
201905132019,1283.4,1284,1283.4,1283.8
201905132020,1283.8,1283.8,1283.5,1283.5
201905132021,1283.5,1283.5,1283.4,1283.4
201905132022,1283.4,1283.4,1283.3,1283.3
201905132023,1283.3,1283.5,1283.3,1283.4
201905132024,1283.4,1283.4,1283.2,1283.3
201905132025,1283.3,1283.3,1283.1,1283.1
201905132026,1283.1,1283.2,1283.1,1283.2
201905132027,1283.2,1283.2,1283.1,1283.2
201905132028,1283.2,1283.2,1283.1,1283.1
201905132029,1283.1,1283.1,1283,1283
201905132030,1283,1283.2,1283,1283.1
201905132031,1283.1,1283.2,1283,1283.2
201905132032,1283.2,1283.4,1283.2,1283.4
201905132033,1283.4,1283.5,1283.4,1283.5
201905132034,1283.5,1283.7,1283.5,1283.5
201905132035,1283.5,1283.6,1283.5,1283.5
201905132036,1283.5,1283.5,1283.4,1283.5
201905132037,1283.5,1283.5,1283.4,1283.5
201905132038,1283.5,1283.6,1283.5,1283.6
201905132039,1283.6,1283.6,1283.4,1283.4
201905132040,1283.4,1283.4,1283.3,1283.4
201905132041,1283.4,1283.5,1283.4,1283.5
201905132042,1283.5,1283.5,1283.4,1283.5
201905132043,1283.5,1283.5,1283.5,1283.5
201905132044,1283.5,1283.6,1283.4,1283.5
201905132045,1283.5,1283.6,1283.5,1283.6
201905132046,1283.6,1283.6,1283.5,1283.5
201905132047,1283.5,1283.6,1283.4,1283.6
201905132048,1283.6,1283.7,1283.6,1283.7
201905132049,1283.7,1284,1283.6,1283.8
201905132050,1283.8,1284,1283.8,1284
201905132051,1284,1284.2,1284,1284.1
201905132052,1284.1,1284.2,1284.1,1284.2
201905132053,1284.2,1284.2,1284.1,1284.2
201905132054,1284.2,1284.2,1284,1284.2
201905132055,1284.2,1284.2,1283.9,1283.9
201905132056,1283.9,1284,1283.9,1283.9
201905132057,1283.9,1284,1283.9,1284
201905132058,1284,1284,1283.8,1283.9
201905132059,1283.9,1284.2,1283.9,1284.1
201905132100,1284.1,1284.1,1283.7,1283.7
201905132101,1283.7,1283.8,1283.4,1283.4
201905132102,1283.4,1283.5,1282.9,1283
201905132103,1283,1283.3,1283,1283.2
201905132104,1283.2,1283.3,1283.2,1283.2
201905132105,1283.2,1283.3,1283,1283
201905132106,1283,1283.3,1283,1283.3
201905132107,1283.3,1283.9,1283.2,1283.7
201905132108,1283.7,1285.9,1283.7,1285.9
201905132109,1285.9,1285.9,1284.7,1285.1
201905132110,1285.1,1285.6,1284.8,1284.8
201905132111,1284.8,1285.1,1284.7,1284.8
201905132112,1284.8,1284.9,1284.4,1284.8
201905132113,1284.8,1285.1,1284.7,1285.1
201905132114,1285.1,1286.3,1285.1,1285.8
201905132115,1285.9,1287.1,1285.9,1286.9
201905132116,1286.9,1287,1286.4,1286.4
201905132117,1286.4,1287.2,1286.4,1287.1
201905132118,1287.1,1287.3,1286.5,1286.7
201905132119,1286.6,1286.8,1286.5,1286.8
201905132120,1286.7,1286.9,1286.3,1286.3
201905132121,1286.3,1286.6,1286.2,1286.3
201905132122,1286.3,1286.5,1286.1,1286.5
201905132123,1286.5,1286.8,1286.5,1286.8
201905132124,1286.8,1287,1286.5,1286.7
201905132125,1286.7,1286.9,1286.6,1286.6
201905132126,1286.6,1286.8,1286.2,1286.2
201905132127,1286.2,1286.5,1286.1,1286.5
201905132128,1286.5,1286.7,1286.4,1286.6
201905132129,1286.6,1286.8,1286.6,1286.8
201905132130,1286.8,1287.3,1286.8,1287.3
201905132131,1287.3,1287.6,1287.2,1287.4
201905132132,1287.4,1287.6,1287.4,1287.5
201905132133,1287.5,1287.8,1287.4,1287.6
201905132134,1287.6,1287.6,1287.4,1287.4
201905132135,1287.4,1287.5,1287.3,1287.3
201905132136,1287.3,1287.8,1287.3,1287.7
201905132137,1287.7,1288.1,1287.7,1287.8
201905132138,1287.8,1287.8,1287.6,1287.7
201905132139,1287.7,1288.4,1287.7,1288.4
201905132140,1288.4,1289.9,1288.4,1289.9
201905132141,1289.9,1289.9,1289.4,1289.4
201905132142,1289.4,1289.6,1289.2,1289.4
201905132143,1289.4,1289.6,1289,1289.4
201905132144,1289.4,1289.4,1288.7,1288.8
201905132145,1288.8,1289.4,1288.8,1289.1
201905132146,1289.1,1289.4,1289.1,1289.3
201905132147,1289.3,1289.4,1289,1289.2
201905132148,1289.1,1289.4,1289.1,1289.4
201905132149,1289.4,1290.1,1289.4,1289.6
201905132150,1289.6,1290,1289.6,1289.9
201905132151,1289.9,1290,1289.7,1289.7
201905132152,1289.7,1290.3,1289.7,1290.3
201905132153,1290.3,1290.5,1290.3,1290.5
201905132154,1290.5,1290.6,1290.5,1290.5
201905132155,1290.5,1290.6,1290.2,1290.2
201905132156,1290.2,1290.6,1290.2,1290.3
201905132157,1290.3,1290.6,1290.2,1290.3
201905132158,1290.3,1290.7,1290.3,1290.7
201905132159,1290.7,1291.6,1290.7,1291.4
201905132200,1291.4,1291.5,1291.2,1291.3
201905132201,1291.3,1292.9,1291.3,1292.9
201905132202,1292.9,1293.6,1292.6,1293.4
201905132203,1293.4,1294,1293,1293.8
201905132204,1293.8,1296,1293.8,1296
201905132205,1296.1,1296.3,1295.7,1295.8
201905132206,1295.8,1295.9,1294.7,1295.1
201905132207,1295.1,1295.2,1294.6,1294.8
201905132208,1294.8,1294.9,1294.5,1294.5
201905132209,1294.5,1294.8,1294.4,1294.8
201905132210,1294.8,1295,1294.6,1294.8
201905132211,1294.8,1295.3,1294.8,1295.3
201905132212,1295.3,1295.8,1295.3,1295.7
201905132213,1295.7,1296,1295.7,1295.9
201905132214,1295.9,1296.2,1295.8,1296.1
201905132215,1296.1,1296.6,1296.1,1296.6
201905132216,1296.6,1296.8,1296.5,1296.5
201905132217,1296.5,1296.9,1296.5,1296.9
201905132218,1296.9,1297.2,1296.8,1297.1
201905132219,1297.1,1297.7,1297.1,1297.6
201905132220,1297.6,1298.3,1297.6,1298.2
201905132221,1298.2,1298.4,1298,1298.3
201905132222,1298.3,1298.6,1298,1298.1
201905132223,1298.1,1298.3,1298,1298.1
201905132224,1298.1,1298.3,1297.7,1297.8
201905132225,1297.8,1298.4,1297.7,1298.3
201905132226,1298.3,1298.9,1298.3,1298.7
201905132227,1298.7,1299.2,1298.7,1299.2
201905132228,1299.3,1299.3,1298.8,1298.9
201905132229,1298.9,1299.2,1298.5,1298.6
201905132230,1298.6,1298.9,1298.6,1298.7
201905132231,1298.7,1299.1,1298.5,1299
201905132232,1298.9,1299.1,1298.6,1299
201905132233,1299,1299.4,1298.8,1299.4
201905132234,1299.3,1299.5,1298.5,1298.6
201905132235,1298.6,1299.2,1298.4,1298.5
201905132236,1298.5,1298.8,1298.3,1298.4
201905132237,1298.4,1298.6,1297.5,1297.6
201905132238,1297.6,1298.2,1297.6,1297.8
201905132239,1297.9,1298.3,1297.8,1298
201905132240,1298,1298.3,1297.7,1297.8
201905132241,1297.8,1298,1297.6,1297.7
201905132242,1297.7,1298.2,1297.7,1298.2
201905132243,1298.2,1298.4,1298,1298.1
201905132244,1298.1,1298.3,1298,1298.3
201905132245,1298.4,1298.5,1297.9,1297.9
201905132246,1297.9,1298,1297.6,1297.6
201905132247,1297.6,1297.9,1297.6,1297.7
201905132248,1297.7,1297.7,1297.2,1297.4
201905132249,1297.4,1297.5,1297,1297.4
201905132250,1297.4,1297.9,1297.4,1297.8
201905132251,1297.8,1298.1,1297.8,1298
201905132252,1298,1298.5,1297.9,1298.4
201905132253,1298.4,1298.8,1298.4,1298.8
201905132254,1298.8,1298.8,1297.9,1298
201905132255,1298,1298.3,1297.9,1298
201905132256,1298,1298,1296.9,1297.2
201905132257,1297.2,1297.3,1296.9,1296.9
201905132258,1296.9,1297.3,1296.5,1297.3
201905132259,1297.3,1297.6,1297.2,1297.3
201905132300,1297.3,1297.6,1296.7,1296.7
201905132301,1296.7,1297,1296.6,1296.7
201905132302,1296.7,1296.7,1296.1,1296.6
201905132303,1296.6,1296.7,1296.4,1296.6
201905132304,1296.7,1297.5,1296.7,1297.3
201905132305,1297.3,1297.9,1296.5,1296.5
201905132306,1296.5,1296.7,1296.3,1296.6
201905132307,1296.6,1296.6,1296.3,1296.3
201905132308,1296.3,1296.7,1296.3,1296.3
201905132309,1296.3,1296.3,1295.7,1295.9
201905132310,1295.9,1296,1295.6,1295.6
201905132311,1295.6,1296.5,1295.6,1296.4
201905132312,1296.3,1296.7,1296.3,1296.7
201905132313,1296.7,1297.2,1296.5,1297.1
201905132314,1297.1,1297.1,1296.6,1296.7
201905132315,1296.7,1297,1296.7,1296.9
201905132316,1296.9,1296.9,1296.7,1296.8
201905132317,1296.8,1296.9,1295.7,1295.7
201905132318,1295.7,1296.1,1295.6,1295.7
201905132319,1295.7,1295.9,1295.7,1295.9
201905132320,1295.9,1296.4,1295.8,1296.4
201905132321,1296.4,1296.4,1296.1,1296.2
201905132322,1296.2,1296.3,1296.1,1296.3
201905132323,1296.3,1296.8,1296.3,1296.8
201905132324,1296.8,1296.8,1296.4,1296.6
201905132325,1296.6,1297,1296.6,1297
201905132326,1297,1297.2,1296.9,1297.2
201905132327,1297.2,1297.4,1297.1,1297.4
201905132328,1297.4,1297.4,1297,1297
201905132329,1297,1297,1296.7,1296.8
201905132330,1296.8,1297.4,1296.8,1297.4
201905132331,1297.4,1298.3,1297.2,1297.2
201905132332,1297.2,1297.5,1297,1297.5
201905132333,1297.4,1297.4,1296.7,1296.8
201905132334,1296.7,1296.9,1296.5,1296.8
201905132335,1296.8,1296.8,1296.4,1296.7
201905132336,1296.7,1297.2,1296.6,1297.2
201905132337,1297.2,1297.5,1297.2,1297.5
201905132338,1297.5,1297.5,1297.2,1297.2
201905132339,1297.2,1297.5,1297.2,1297.5
201905132340,1297.5,1297.5,1297.1,1297.3
201905132341,1297.3,1297.4,1297.1,1297.1
201905132342,1297.1,1297.3,1297,1297.1
201905132343,1297.1,1297.3,1296.9,1297.3
201905132344,1297.3,1297.3,1297,1297.2
201905132345,1297.2,1297.5,1297.1,1297.5
201905132346,1297.5,1297.9,1297.4,1297.7
201905132347,1297.8,1298.1,1297.6,1298.1
201905132348,1298.1,1298.2,1297.9,1298.1
201905132349,1298.1,1298.4,1298,1298.1
201905132350,1298.1,1298.3,1298,1298.2
201905132351,1298.2,1298.3,1298.1,1298.2
201905132352,1298.2,1298.4,1298.1,1298.1
201905132353,1298.1,1298.6,1298.1,1298.4
201905132354,1298.4,1298.5,1298.2,1298.3
201905132355,1298.3,1298.3,1298,1298.2
201905132356,1298.2,1298.2,1298.1,1298.2
201905132357,1298.2,1298.6,1298.2,1298.2
201905132358,1298.2,1298.2,1297.6,1297.7
201905132359,1297.7,1298.1,1297.7,1297.8
201905140000,1297.8,1297.8,1297.2,1297.2
201905140001,1297.2,1297.4,1297.1,1297.2
201905140002,1297.2,1297.5,1297,1297.5
201905140003,1297.5,1297.6,1297.2,1297.2
201905140004,1297.3,1297.4,1297.2,1297.4
201905140005,1297.4,1297.4,1297.2,1297.4
201905140006,1297.4,1297.5,1297.4,1297.4
201905140007,1297.4,1297.4,1296.8,1296.8
201905140008,1296.8,1297.2,1296.8,1297.2
201905140009,1297.2,1297.4,1297.1,1297.3
201905140010,1297.3,1298,1297.3,1298
201905140011,1298,1298,1297.7,1297.9
201905140012,1297.9,1297.9,1297.7,1297.8
201905140013,1297.8,1297.9,1297.5,1297.5
201905140014,1297.5,1297.5,1297,1297.1
201905140015,1297.1,1297.3,1297,1297.2
201905140016,1297.2,1297.7,1297.2,1297.6
201905140017,1297.6,1297.6,1297.4,1297.6
201905140018,1297.6,1297.8,1297.6,1297.8
201905140019,1297.8,1298,1297.7,1297.9
201905140020,1297.9,1298.1,1297.7,1298.1
201905140021,1298.1,1298.2,1297.9,1297.9
201905140022,1297.9,1298.2,1297.9,1298.1
201905140023,1298.1,1298.3,1298.1,1298.3
201905140024,1298.3,1298.4,1298.2,1298.2
201905140025,1298.2,1298.3,1298.1,1298.1
201905140026,1298.1,1298.4,1298.1,1298.3
201905140027,1298.2,1298.5,1298.2,1298.5
201905140028,1298.5,1298.6,1298.4,1298.6
201905140029,1298.6,1298.8,1298.6,1298.8
201905140030,1298.8,1298.8,1298.6,1298.7
201905140031,1298.7,1298.9,1298.5,1298.5
201905140032,1298.5,1298.5,1297.6,1297.7
201905140033,1297.7,1298,1297.7,1297.7
201905140034,1297.7,1297.8,1297.3,1297.5
201905140035,1297.5,1297.5,1297.3,1297.3
201905140036,1297.3,1297.4,1297.2,1297.4
201905140037,1297.4,1297.6,1297.2,1297.4
201905140038,1297.4,1297.5,1297.2,1297.4
201905140039,1297.5,1297.6,1297.4,1297.4
201905140040,1297.4,1297.5,1297.4,1297.5
201905140041,1297.5,1297.5,1297.3,1297.3
201905140042,1297.3,1297.6,1297.2,1297.6
201905140043,1297.6,1298,1297.6,1298
201905140044,1298,1298.2,1297.9,1298.1
201905140045,1298.1,1298.3,1298,1298.2
201905140046,1298.2,1298.5,1298.2,1298.3
201905140047,1298.3,1298.5,1298.3,1298.5
201905140048,1298.5,1298.6,1298.4,1298.6
201905140049,1298.6,1298.6,1298.4,1298.4
201905140050,1298.4,1298.4,1298,1298.1
201905140051,1298.1,1298.1,1297.9,1298
201905140052,1298,1298.1,1297.9,1298.1
201905140053,1298.1,1298.3,1298.1,1298.1
201905140054,1298.1,1298.2,1298.1,1298.2
201905140055,1298.2,1298.2,1297.8,1297.8
201905140056,1297.8,1297.9,1297.4,1297.4
201905140057,1297.4,1297.7,1297.4,1297.6
201905140058,1297.6,1297.6,1297.4,1297.6
201905140059,1297.6,1297.8,1297.6,1297.8
201905140100,1297.7,1297.8,1297.6,1297.7
201905140101,1297.7,1297.9,1297.7,1297.8
201905140102,1297.8,1298.3,1297.7,1298.1
201905140103,1298.2,1298.4,1298.1,1298.3
201905140104,1298.3,1298.4,1298.3,1298.3
201905140105,1298.3,1298.5,1298.3,1298.4
201905140106,1298.4,1298.5,1298.3,1298.4
201905140107,1298.4,1298.6,1298.3,1298.6
201905140108,1298.6,1298.6,1298.5,1298.5
201905140109,1298.5,1298.7,1298.5,1298.7
201905140110,1298.7,1298.9,1298.7,1298.7
201905140111,1298.7,1298.9,1298.7,1298.8
201905140112,1298.8,1299.2,1298.8,1299.2
201905140113,1299.2,1299.3,1299.1,1299.3
201905140114,1299.4,1299.7,1299.3,1299.6
201905140115,1299.6,1299.9,1299.6,1299.8
201905140116,1299.8,1300.1,1299.8,1300
201905140117,1300,1300.2,1300,1300.1
201905140118,1300.1,1300.2,1300,1300.1
201905140119,1300.1,1300.3,1299.9,1299.9
201905140120,1299.9,1300.1,1299.6,1299.7
201905140121,1299.7,1299.7,1299.5,1299.5
201905140122,1299.5,1299.8,1299.3,1299.5
201905140123,1299.5,1299.5,1299.3,1299.4
201905140124,1299.4,1299.5,1299.4,1299.4
201905140125,1299.4,1299.6,1299.3,1299.4
201905140126,1299.4,1299.6,1299.1,1299.2
201905140127,1299.2,1299.3,1299.1,1299.3
201905140128,1299.3,1299.3,1299.1,1299.1
201905140129,1299.1,1299.3,1299.1,1299.2
201905140130,1299.2,1299.4,1299.2,1299.3
201905140131,1299.3,1299.7,1299.3,1299.6
201905140132,1299.6,1299.7,1299.5,1299.7
201905140133,1299.7,1299.7,1299.6,1299.7
201905140134,1299.7,1299.8,1299.6,1299.8
201905140135,1299.8,1299.8,1299.5,1299.5
201905140136,1299.5,1299.6,1299.5,1299.5
201905140137,1299.5,1299.6,1299.4,1299.6
201905140138,1299.6,1299.6,1299.5,1299.5
201905140139,1299.5,1299.6,1299.5,1299.6
201905140140,1299.6,1299.7,1299.6,1299.7
201905140141,1299.7,1299.8,1299.5,1299.6
201905140142,1299.6,1299.9,1299.6,1299.9
201905140143,1299.9,1300,1299.8,1299.9
201905140144,1299.9,1300.1,1299.9,1300.1
201905140145,1300.1,1300.1,1299.9,1300
201905140146,1300,1300,1299.8,1299.9
201905140147,1299.9,1299.9,1299.7,1299.7
201905140148,1299.7,1299.8,1299.7,1299.7
201905140149,1299.7,1300.2,1299.7,1300.2
201905140150,1300.2,1300.5,1300.1,1300.4
201905140151,1300.4,1300.5,1300.4,1300.4
201905140152,1300.4,1300.4,1300.3,1300.3
201905140153,1300.3,1300.5,1300.2,1300.2
201905140154,1300.2,1300.3,1300.1,1300.2
201905140155,1300.2,1300.3,1300.1,1300.2
201905140156,1300.2,1300.3,1300.2,1300.2
201905140157,1300.2,1300.2,1299.9,1299.9
201905140158,1299.9,1300.2,1299.9,1300.2
201905140159,1300.2,1300.2,1300.1,1300.2
201905140200,1300.2,1300.4,1300.2,1300.2
201905140201,1300.2,1300.4,1300.1,1300.3
201905140202,1300.3,1300.3,1300.2,1300.2
201905140203,1300.2,1300.3,1300,1300
201905140204,1300,1300,1299.7,1299.7
201905140205,1299.7,1299.7,1299.6,1299.6
201905140206,1299.6,1299.6,1299,1299
201905140207,1298.9,1299,1298.7,1299
201905140208,1299,1299.1,1298.9,1299
201905140209,1299,1299.2,1299,1299.2
201905140210,1299.2,1299.3,1299.1,1299.2
201905140211,1299.2,1299.3,1299.1,1299.2
201905140212,1299.2,1299.4,1299.1,1299.3
201905140213,1299.3,1299.8,1299.3,1299.8
201905140214,1299.8,1299.9,1299.8,1299.9
201905140215,1299.9,1300.2,1299.9,1300.1
201905140216,1300.1,1300.1,1300,1300.1
201905140217,1300.1,1300.2,1300.1,1300.1
201905140218,1300.1,1300.1,1299.8,1300.1
201905140219,1300.1,1300.4,1300.1,1300.2
201905140220,1300.2,1300.3,1300.1,1300.1
201905140221,1300.1,1301,1300.1,1301
201905140222,1301,1301,1300.7,1300.8
201905140223,1300.8,1301,1300.8,1301
201905140224,1301,1301,1300.7,1300.7
201905140225,1300.7,1300.8,1300.6,1300.7
201905140226,1300.7,1300.7,1300.6,1300.6
201905140227,1300.6,1301.1,1300.5,1301
201905140228,1301,1301.1,1300.6,1300.9
201905140229,1300.9,1301.1,1300.6,1300.7
201905140230,1300.9,1300.9,1300.6,1300.6
201905140231,1300.6,1300.6,1300.3,1300.4
201905140232,1300.4,1300.7,1300.4,1300.5
201905140233,1300.5,1301,1300.5,1300.8
201905140234,1300.8,1300.9,1300.7,1300.8
201905140235,1300.8,1300.8,1300.5,1300.6
201905140236,1300.6,1300.7,1300.5,1300.6
201905140237,1300.6,1300.6,1300,1300
201905140238,1300,1300.1,1298.9,1299.2
201905140239,1299.2,1299.4,1298.9,1299.3
201905140240,1299.3,1299.3,1299,1299
201905140241,1299,1299.2,1298.8,1299.2
201905140242,1299.2,1299.3,1299,1299.2
201905140243,1299.2,1299.6,1299.2,1299.5
201905140244,1299.5,1299.7,1299.5,1299.7
201905140245,1299.7,1299.8,1299.6,1299.8
201905140246,1299.8,1299.8,1299.4,1299.4
201905140247,1299.5,1299.6,1299.4,1299.6
201905140248,1299.6,1299.6,1299.4,1299.4
201905140249,1299.4,1299.5,1299.4,1299.4
201905140250,1299.4,1299.6,1299.3,1299.5
201905140251,1299.5,1299.6,1299.5,1299.6
201905140252,1299.5,1299.5,1299.5,1299.5
201905140253,1299.5,1299.5,1299.4,1299.4
201905140254,1299.4,1299.4,1299.1,1299.1
201905140255,1299.1,1299.3,1299.1,1299.3
201905140256,1299.3,1299.4,1299.2,1299.2
201905140257,1299.2,1299.4,1299.2,1299.3
201905140258,1299.3,1299.4,1299.2,1299.4
201905140259,1299.4,1299.4,1299.2,1299.3
201905140300,1299.3,1299.4,1299.2,1299.2
201905140301,1299.2,1299.2,1299.1,1299.1
201905140302,1299.1,1299.4,1299.1,1299.3
201905140303,1299.4,1299.5,1299.3,1299.4
201905140304,1299.4,1299.6,1299.4,1299.5
201905140305,1299.5,1299.5,1299.3,1299.3
201905140306,1299.3,1299.5,1299.2,1299.4
201905140307,1299.4,1299.5,1299,1299.2
201905140308,1299.2,1299.4,1299.1,1299.2
201905140309,1299.2,1299.4,1299,1299
201905140310,1299,1299.1,1298.9,1299.1
201905140311,1299.1,1299.2,1299,1299.2
201905140312,1299.2,1299.2,1299,1299.1
201905140313,1299.1,1299.2,1299,1299.1
201905140314,1299.1,1299.3,1299.1,1299.3
201905140315,1299.3,1299.4,1299.2,1299.4
201905140316,1299.4,1299.4,1299.3,1299.3
201905140317,1299.3,1299.5,1299.3,1299.4
201905140318,1299.4,1299.6,1299.4,1299.6
201905140319,1299.6,1299.8,1299.5,1299.7
201905140320,1299.7,1299.7,1299.1,1299.5
201905140321,1299.5,1299.5,1299.2,1299.2
201905140322,1299.2,1299.5,1299.2,1299.4
201905140323,1299.4,1299.5,1299.3,1299.5
201905140324,1299.5,1299.6,1299.3,1299.4
201905140325,1299.4,1299.4,1298.6,1298.9
201905140326,1298.9,1299.2,1298.7,1298.8
201905140327,1298.8,1299.2,1298.8,1299.1
201905140328,1299.1,1299.3,1299,1299.1
201905140329,1299.2,1299.4,1299.1,1299.3
201905140330,1299.3,1299.6,1299.3,1299.5
201905140331,1299.5,1299.6,1299.4,1299.6
201905140332,1299.6,1299.6,1299.4,1299.5
201905140333,1299.5,1299.8,1299.5,1299.8
201905140334,1299.8,1299.8,1299.6,1299.8
201905140335,1299.8,1300.1,1299.8,1300
201905140336,1300,1300.1,1300,1300.1
201905140337,1300.1,1300.1,1299.9,1299.9
201905140338,1299.9,1300.1,1299.9,1300.1
201905140339,1300.1,1300.2,1299.9,1300.2
201905140340,1300.2,1300.2,1300.1,1300.1
201905140341,1300.1,1300.1,1299.7,1299.9
201905140342,1299.9,1299.9,1299.7,1299.9
201905140343,1299.9,1300.2,1299.9,1300.1
201905140344,1300.1,1300.2,1300.1,1300.1
201905140345,1300.1,1300.1,1300,1300
201905140346,1300,1300,1299.8,1299.9
201905140347,1299.9,1299.9,1299.5,1299.8
201905140348,1299.7,1299.8,1299.6,1299.7
201905140349,1299.6,1299.8,1299.6,1299.8
201905140350,1299.8,1299.8,1299.3,1299.4
201905140351,1299.4,1299.8,1299.4,1299.7
201905140352,1299.7,1299.8,1299.5,1299.5
201905140353,1299.5,1299.5,1299.1,1299.2
201905140354,1299.2,1299.3,1299.2,1299.3
201905140355,1299.3,1299.3,1299.3,1299.3
201905140356,1299.3,1299.4,1299.2,1299.2
201905140357,1299.2,1299.3,1299.2,1299.2
201905140358,1299.2,1299.3,1299.2,1299.2
201905140359,1299.2,1299.5,1299.2,1299.5
201905140400,1299.5,1299.5,1299.1,1299.3
201905140401,1299.3,1299.4,1299.3,1299.4
201905140402,1299.4,1299.5,1299.3,1299.5
201905140403,1299.5,1299.6,1299.4,1299.5
201905140404,1299.5,1299.6,1299.4,1299.5
201905140405,1299.4,1299.4,1299.3,1299.4
201905140406,1299.4,1299.4,1299.3,1299.4
201905140407,1299.4,1299.4,1299.4,1299.4
201905140408,1299.4,1299.4,1299.2,1299.3
201905140409,1299.3,1299.5,1299.3,1299.5
201905140410,1299.5,1299.5,1299.3,1299.4
201905140411,1299.4,1299.5,1299.4,1299.5
201905140412,1299.5,1299.5,1299.4,1299.4
201905140413,1299.4,1299.6,1299.3,1299.4
201905140414,1299.4,1299.4,1299.2,1299.3
201905140415,1299.3,1299.3,1299,1299.2
201905140416,1299.2,1299.2,1299.1,1299.1
201905140417,1299.1,1299.2,1299,1299
201905140418,1299,1299.1,1298.9,1299.1
201905140419,1299.1,1299.2,1299.1,1299.2
201905140420,1299.2,1299.3,1299.1,1299.2
201905140421,1299.2,1299.3,1299.2,1299.3
201905140422,1299.3,1299.4,1299.3,1299.4
201905140423,1299.4,1299.4,1299.3,1299.3
201905140424,1299.3,1299.6,1299.3,1299.6
201905140425,1299.6,1299.6,1299.4,1299.6
201905140426,1299.6,1299.7,1299.6,1299.6
201905140427,1299.6,1299.6,1299.5,1299.5
201905140428,1299.5,1299.6,1299.5,1299.6
201905140429,1299.6,1299.6,1299.4,1299.5
201905140430,1299.5,1299.7,1299.5,1299.7
201905140431,1299.7,1299.8,1299.7,1299.7
201905140432,1299.7,1299.8,1299.6,1299.6
201905140433,1299.6,1299.8,1299.6,1299.8
201905140434,1299.8,1299.8,1299.7,1299.8
201905140435,1299.8,1299.8,1299.7,1299.7
201905140436,1299.7,1299.7,1299.5,1299.6
201905140437,1299.6,1299.6,1299.4,1299.5
201905140438,1299.5,1299.6,1299.4,1299.5
201905140439,1299.5,1299.6,1299.5,1299.5
201905140440,1299.5,1299.7,1299.4,1299.6
201905140441,1299.6,1299.7,1299.3,1299.3
201905140442,1299.3,1299.4,1299.3,1299.3
201905140443,1299.3,1299.3,1299.2,1299.2
201905140444,1299.2,1299.4,1299.2,1299.3
201905140445,1299.3,1299.3,1299.1,1299.2
201905140446,1299.2,1299.2,1299.1,1299.1
201905140447,1299.1,1299.2,1299.1,1299.1
201905140448,1299.1,1299.1,1299.1,1299.1
201905140449,1299.1,1299.2,1299.1,1299.1
201905140450,1299.1,1299.2,1299.1,1299.2
201905140451,1299.2,1299.2,1299.2,1299.2
201905140452,1299.2,1299.3,1299.2,1299.3
201905140453,1299.3,1299.3,1299.1,1299.2
201905140454,1299.2,1299.2,1299.2,1299.2
201905140455,1299.2,1299.2,1299.1,1299.1
201905140456,1299.1,1299.1,1299.1,1299.1
201905140457,1299.1,1299.2,1299.1,1299.1
201905140458,1299.2,1299.2,1299.1,1299.1
201905140459,1299.1,1299.3,1299.1,1299.3
201905140500,1299.3,1299.3,1299.2,1299.3
201905140501,1299.3,1299.4,1299.3,1299.3
201905140502,1299.3,1299.3,1299.3,1299.3
201905140503,1299.3,1299.3,1299.2,1299.3
201905140504,1299.3,1299.4,1299.3,1299.4
201905140505,1299.4,1299.5,1299.4,1299.5
201905140506,1299.5,1299.7,1299.4,1299.7
201905140507,1299.7,1299.7,1299.7,1299.7
201905140508,1299.7,1299.7,1299.6,1299.7
201905140509,1299.7,1299.7,1299.7,1299.7
201905140510,1299.7,1299.7,1299.7,1299.7
201905140511,1299.7,1299.7,1299.6,1299.7
201905140512,1299.7,1299.7,1299.7,1299.7
201905140513,1299.7,1299.7,1299.6,1299.6
201905140514,1299.6,1299.7,1299.6,1299.6
201905140515,1299.6,1299.6,1299.6,1299.6
201905140516,1299.6,1299.6,1299.6,1299.6
201905140517,1299.6,1299.6,1299.5,1299.5
201905140518,1299.5,1299.6,1299.5,1299.6
201905140519,1299.6,1299.6,1299.5,1299.5
201905140520,1299.5,1299.5,1299.5,1299.5
201905140521,1299.5,1299.5,1299.5,1299.5
201905140522,1299.5,1299.5,1299.4,1299.4
201905140523,1299.4,1299.4,1299.4,1299.4
201905140524,1299.4,1299.4,1299.4,1299.4
201905140525,1299.4,1299.4,1299.4,1299.4
201905140526,1299.4,1299.4,1299.4,1299.4
201905140527,1299.4,1299.5,1299.4,1299.5
201905140528,1299.5,1299.5,1299.5,1299.5
201905140529,1299.5,1299.5,1299.5,1299.5
201905140530,1299.5,1299.6,1299.5,1299.6
201905140531,1299.6,1299.6,1299.6,1299.6
201905140532,1299.6,1299.6,1299.6,1299.6
201905140533,1299.6,1299.6,1299.5,1299.5
201905140534,1299.5,1299.5,1299.5,1299.5
201905140535,1299.5,1299.5,1299.5,1299.5
201905140536,1299.5,1299.6,1299.5,1299.5
201905140537,1299.5,1299.5,1299.5,1299.5
201905140538,1299.5,1299.6,1299.5,1299.5
201905140539,1299.5,1299.5,1299.5,1299.5
201905140540,1299.5,1299.5,1299.5,1299.5
201905140541,1299.5,1299.6,1299.5,1299.5
201905140542,1299.5,1299.5,1299.5,1299.5
201905140543,1299.5,1299.5,1299.5,1299.5
201905140544,1299.5,1299.5,1299.5,1299.5
201905140545,1299.5,1299.6,1299.5,1299.5
201905140546,1299.5,1299.5,1299.5,1299.5
201905140547,1299.5,1299.5,1299.4,1299.4
201905140548,1299.4,1299.4,1299.4,1299.4
201905140549,1299.4,1299.5,1299.4,1299.5
201905140550,1299.5,1299.6,1299.4,1299.5
201905140551,1299.5,1299.6,1299.5,1299.6
201905140552,1299.6,1299.8,1299.6,1299.7
201905140553,1299.7,1299.7,1299.7,1299.7
201905140554,1299.7,1299.7,1299.7,1299.7
201905140555,1299.7,1299.7,1299.6,1299.6
201905140556,1299.6,1299.6,1299.6,1299.6
201905140557,1299.6,1299.7,1299.5,1299.6
201905140558,1299.6,1299.8,1299.5,1299.8
201905140559,1299.8,1299.8,1299.6,1299.6
