日時,始値(BID),高値(BID),安値(BID),終値(BID)
201905240700,1280.1,1283.3,1280.1,1283.1
201905240701,1283.1,1283.4,1283.1,1283.4
201905240702,1283.4,1283.4,1283.3,1283.3
201905240703,1283.3,1283.4,1283.3,1283.3
201905240704,1283.3,1283.4,1283.3,1283.4
201905240705,1283.4,1283.5,1283.3,1283.4
201905240706,1283.4,1283.4,1283.3,1283.3
201905240707,1283.4,1283.4,1283.3,1283.3
201905240708,1283.3,1283.3,1283.3,1283.3
201905240709,1283.3,1283.3,1283.2,1283.3
201905240710,1283.3,1283.3,1283.2,1283.2
201905240711,1283.2,1283.2,1283.2,1283.2
201905240712,1283.2,1283.2,1283.2,1283.2
201905240713,1283.2,1283.2,1283.1,1283.1
201905240714,1283.1,1283.1,1283.1,1283.1
201905240715,1283.1,1283.1,1283,1283.1
201905240716,1283.1,1283.2,1283.1,1283.1
201905240717,1283.1,1283.2,1283.1,1283.2
201905240718,1283.2,1283.2,1283.2,1283.2
201905240719,1283.2,1283.2,1283.2,1283.2
201905240720,1283.2,1283.2,1283.2,1283.2
201905240721,1283.2,1283.2,1283.2,1283.2
201905240722,1283.2,1283.3,1283.2,1283.3
201905240723,1283.3,1283.3,1283.2,1283.2
201905240724,1283.2,1283.3,1283.2,1283.3
201905240725,1283.3,1283.4,1283.2,1283.3
201905240726,1283.3,1283.4,1283.3,1283.4
201905240727,1283.4,1283.4,1283.3,1283.4
201905240728,1283.4,1283.4,1283.4,1283.4
201905240729,1283.4,1283.5,1283.4,1283.5
201905240730,1283.5,1283.5,1283.3,1283.4
201905240731,1283.4,1283.4,1283.4,1283.4
201905240732,1283.4,1283.4,1283.3,1283.4
201905240733,1283.4,1283.4,1283.4,1283.4
201905240734,1283.3,1283.4,1283.3,1283.4
201905240735,1283.4,1283.4,1283.3,1283.3
201905240736,1283.3,1283.4,1283.3,1283.4
201905240737,1283.4,1283.5,1283.4,1283.5
201905240738,1283.4,1283.5,1283.4,1283.5
201905240739,1283.5,1283.5,1283.5,1283.5
201905240740,1283.5,1283.5,1283.4,1283.4
201905240741,1283.4,1283.4,1283.4,1283.4
201905240742,1283.4,1283.5,1283.4,1283.5
201905240743,1283.5,1283.5,1283.4,1283.4
201905240744,1283.4,1283.5,1283.4,1283.4
201905240745,1283.4,1283.4,1283.4,1283.4
201905240746,1283.5,1283.5,1283.4,1283.4
201905240747,1283.4,1283.5,1283.4,1283.5
201905240748,1283.5,1283.7,1283.5,1283.7
201905240749,1283.7,1283.7,1283.7,1283.7
201905240750,1283.7,1284,1283.7,1284
201905240751,1284,1284,1283.9,1284
201905240752,1284,1284.1,1283.9,1284
201905240753,1284,1284,1284,1284
201905240754,1284,1284,1283.9,1284
201905240755,1284,1284.1,1284,1284
201905240756,1284,1284,1283.9,1283.9
201905240757,1283.9,1284,1283.9,1284
201905240758,1284,1284,1283.9,1283.9
201905240759,1283.9,1283.9,1283.9,1283.9
201905240800,1283.9,1283.9,1283.9,1283.9
201905240801,1283.9,1283.9,1283.9,1283.9
201905240802,1283.9,1283.9,1283.8,1283.9
201905240803,1283.9,1283.9,1283.8,1283.9
201905240804,1283.9,1283.9,1283.8,1283.9
201905240805,1283.9,1283.9,1283.8,1283.8
201905240806,1283.8,1283.8,1283.8,1283.8
201905240807,1283.8,1283.9,1283.8,1283.9
201905240808,1283.9,1283.9,1283.9,1283.9
201905240809,1283.9,1283.9,1283.8,1283.8
201905240810,1283.9,1283.9,1283.7,1283.7
201905240811,1283.7,1283.8,1283.7,1283.8
201905240812,1283.8,1283.8,1283.7,1283.8
201905240813,1283.8,1283.8,1283.7,1283.8
201905240814,1283.8,1283.9,1283.8,1283.9
201905240815,1283.9,1283.9,1283.9,1283.9
201905240816,1283.9,1283.9,1283.8,1283.8
201905240817,1283.8,1283.9,1283.7,1283.9
201905240818,1283.9,1283.9,1283.9,1283.9
201905240819,1283.9,1284,1283.9,1284
201905240820,1284,1284,1284,1284
201905240821,1284,1284.2,1284,1284.2
201905240822,1284.2,1284.2,1284.1,1284.2
201905240823,1284.2,1284.2,1283.9,1283.9
201905240824,1283.9,1284.1,1283.9,1284.1
201905240825,1284.1,1284.1,1284.1,1284.1
201905240826,1284.1,1284.1,1284,1284.1
201905240827,1284.1,1284.2,1284,1284.2
201905240828,1284.2,1284.2,1284.2,1284.2
201905240829,1284.2,1284.2,1284,1284
201905240830,1284,1284.1,1284,1284.1
201905240831,1284.1,1284.1,1284.1,1284.1
201905240832,1284.1,1284.1,1284.1,1284.1
201905240833,1284.1,1284.1,1284.1,1284.1
201905240834,1284.1,1284.1,1284.1,1284.1
201905240835,1284.1,1284.1,1284.1,1284.1
201905240836,1284.1,1284.1,1284.1,1284.1
201905240837,1284.1,1284.2,1284.1,1284.1
201905240838,1284.2,1284.2,1284.1,1284.1
201905240839,1284.1,1284.2,1284.1,1284.1
201905240840,1284.1,1284.1,1284.1,1284.1
201905240841,1284.1,1284.2,1284.1,1284.2
201905240842,1284.2,1284.2,1284.2,1284.2
201905240843,1284.2,1284.2,1284.1,1284.1
201905240844,1284.1,1284.1,1284,1284
201905240845,1284,1284,1283.8,1283.8
201905240846,1283.8,1283.8,1283.7,1283.8
201905240847,1283.8,1283.9,1283.6,1283.9
201905240848,1283.9,1283.9,1283.7,1283.7
201905240849,1283.7,1283.8,1283.7,1283.8
201905240850,1283.8,1283.9,1283.8,1283.9
201905240851,1283.9,1283.9,1283.8,1283.9
201905240852,1283.9,1284,1283.9,1284
201905240853,1284,1284,1283.9,1283.9
201905240854,1283.9,1284,1283.9,1283.9
201905240855,1283.9,1283.9,1283.9,1283.9
201905240856,1283.9,1284,1283.9,1284
201905240857,1283.9,1283.9,1283.8,1283.8
201905240858,1283.8,1283.9,1283.8,1283.9
201905240859,1283.9,1284.1,1283.9,1284
201905240900,1284,1284,1283.9,1284
201905240901,1284,1284,1283.4,1283.5
201905240902,1283.5,1283.7,1283.5,1283.7
201905240903,1283.7,1283.8,1283.6,1283.6
201905240904,1283.6,1283.7,1283.6,1283.7
201905240905,1283.7,1283.7,1283.5,1283.6
201905240906,1283.6,1283.6,1283.5,1283.5
201905240907,1283.5,1283.5,1283.4,1283.5
201905240908,1283.4,1283.6,1283.4,1283.4
201905240909,1283.4,1283.7,1283.4,1283.6
201905240910,1283.6,1283.7,1283.6,1283.7
201905240911,1283.7,1283.9,1283.7,1283.7
201905240912,1283.7,1283.8,1283.7,1283.8
201905240913,1283.8,1283.9,1283.7,1283.8
201905240914,1283.8,1283.8,1283.8,1283.8
201905240915,1283.8,1283.8,1283.5,1283.5
201905240916,1283.5,1283.6,1283.4,1283.4
201905240917,1283.4,1283.5,1283.3,1283.4
201905240918,1283.4,1283.4,1283.3,1283.4
201905240919,1283.4,1283.4,1283.3,1283.4
201905240920,1283.4,1283.4,1283.3,1283.3
201905240921,1283.3,1283.4,1283.3,1283.4
201905240922,1283.4,1283.4,1283.4,1283.4
201905240923,1283.4,1283.4,1283.3,1283.3
201905240924,1283.3,1283.4,1283.3,1283.3
201905240925,1283.3,1283.3,1283.3,1283.3
201905240926,1283.4,1283.4,1283.3,1283.3
201905240927,1283.3,1283.4,1283.3,1283.4
201905240928,1283.4,1283.6,1283.4,1283.5
201905240929,1283.5,1283.6,1283.5,1283.6
201905240930,1283.6,1283.6,1283.5,1283.6
201905240931,1283.6,1283.6,1283.4,1283.4
201905240932,1283.4,1283.6,1283.3,1283.5
201905240933,1283.5,1283.6,1283.4,1283.5
201905240934,1283.5,1283.6,1283.4,1283.4
201905240935,1283.4,1283.4,1283.3,1283.3
201905240936,1283.3,1283.3,1283.3,1283.3
201905240937,1283.3,1283.3,1283.3,1283.3
201905240938,1283.3,1283.3,1283.3,1283.3
201905240939,1283.3,1283.4,1283.3,1283.4
201905240940,1283.4,1283.4,1283.3,1283.4
201905240941,1283.4,1283.4,1283.4,1283.4
201905240942,1283.4,1283.4,1283.1,1283.2
201905240943,1283.2,1283.2,1283.1,1283.1
201905240944,1283.1,1283.1,1282.9,1282.9
201905240945,1282.9,1283,1282.8,1282.8
201905240946,1282.8,1282.9,1282.8,1282.8
201905240947,1282.8,1282.8,1282.7,1282.8
201905240948,1282.8,1282.8,1282.7,1282.8
201905240949,1282.8,1282.9,1282.8,1282.9
201905240950,1282.9,1283.1,1282.9,1283
201905240951,1283,1283,1282.9,1283
201905240952,1283,1283,1282.8,1282.9
201905240953,1282.9,1282.9,1282.9,1282.9
201905240954,1282.9,1283,1282.9,1282.9
201905240955,1283,1283.1,1283,1283
201905240956,1283,1283.2,1283,1283.2
201905240957,1283.2,1283.2,1283.1,1283.2
201905240958,1283.2,1283.4,1283.2,1283.4
201905240959,1283.4,1283.5,1283.4,1283.4
201905241000,1283.4,1283.6,1283.4,1283.5
201905241001,1283.5,1283.7,1283.5,1283.5
201905241002,1283.5,1283.6,1283.5,1283.6
201905241003,1283.6,1283.7,1283.6,1283.6
201905241004,1283.6,1283.7,1283.5,1283.7
201905241005,1283.7,1283.8,1283.7,1283.8
201905241006,1283.8,1283.9,1283.8,1283.9
201905241007,1283.9,1283.9,1283.7,1283.7
201905241008,1283.7,1283.8,1283.6,1283.6
201905241009,1283.6,1283.9,1283.6,1283.8
201905241010,1283.8,1283.8,1283.8,1283.8
201905241011,1283.8,1283.9,1283.7,1283.8
201905241012,1283.8,1283.8,1283.7,1283.8
201905241013,1283.8,1283.9,1283.6,1283.8
201905241014,1283.8,1283.8,1283.7,1283.8
201905241015,1283.8,1283.8,1283.6,1283.6
201905241016,1283.6,1283.6,1283.1,1283.2
201905241017,1283.2,1283.2,1283,1283
201905241018,1283,1283.1,1283,1283.1
201905241019,1283.1,1283.1,1283,1283
201905241020,1283,1283.1,1283,1283.1
201905241021,1283.1,1283.1,1282.9,1283.1
201905241022,1283.1,1283.1,1282.9,1282.9
201905241023,1282.9,1282.9,1282.7,1282.8
201905241024,1282.8,1282.9,1282.8,1282.8
201905241025,1282.8,1282.8,1282.8,1282.8
201905241026,1282.8,1282.8,1282.8,1282.8
201905241027,1282.8,1283,1282.8,1283
201905241028,1283,1283,1283,1283
201905241029,1283,1283.1,1283,1283.1
201905241030,1283.1,1283.1,1282.9,1283
201905241031,1283,1283,1282.9,1283
201905241032,1282.9,1283.1,1282.9,1283
201905241033,1283,1283.1,1282.9,1282.9
201905241034,1282.9,1283.1,1282.9,1283
201905241035,1283,1283.2,1282.9,1283.2
201905241036,1283.2,1283.2,1283,1283.1
201905241037,1283.1,1283.1,1283,1283.1
201905241038,1283.1,1283.1,1282.8,1282.8
201905241039,1282.8,1283,1282.7,1283
201905241040,1282.9,1283,1282.8,1282.8
201905241041,1282.8,1282.9,1282.7,1282.7
201905241042,1282.7,1282.9,1282.7,1282.9
201905241043,1282.9,1283.1,1282.9,1283.1
201905241044,1283.1,1283.2,1283,1283
201905241045,1283,1283.2,1283,1283.1
201905241046,1283.1,1283.1,1283,1283.1
201905241047,1283.1,1283.1,1282.8,1282.8
201905241048,1282.8,1282.8,1282.6,1282.6
201905241049,1282.6,1282.7,1282.6,1282.6
201905241050,1282.6,1282.7,1282.6,1282.6
201905241051,1282.7,1282.7,1282.6,1282.7
201905241052,1282.7,1282.7,1282.7,1282.7
201905241053,1282.7,1282.7,1282.6,1282.7
201905241054,1282.7,1282.7,1282.7,1282.7
201905241055,1282.7,1282.8,1282.6,1282.7
201905241056,1282.7,1282.7,1282.7,1282.7
201905241057,1282.7,1282.8,1282.6,1282.6
201905241058,1282.6,1282.7,1282.6,1282.6
201905241059,1282.6,1282.6,1282.5,1282.5
201905241100,1282.5,1282.7,1282.5,1282.7
201905241101,1282.7,1282.7,1282.5,1282.5
201905241102,1282.5,1282.7,1282.5,1282.6
201905241103,1282.6,1282.6,1282.6,1282.6
201905241104,1282.6,1282.6,1282.6,1282.6
201905241105,1282.6,1282.6,1282.5,1282.5
201905241106,1282.5,1282.5,1282.5,1282.5
201905241107,1282.5,1282.7,1282.5,1282.6
201905241108,1282.6,1282.6,1282.6,1282.6
201905241109,1282.6,1282.6,1282.5,1282.6
201905241110,1282.6,1282.8,1282.6,1282.7
201905241111,1282.7,1282.8,1282.7,1282.8
201905241112,1282.8,1282.8,1282.8,1282.8
201905241113,1282.8,1282.8,1282.5,1282.6
201905241114,1282.6,1282.7,1282.6,1282.6
201905241115,1282.6,1282.7,1282.6,1282.6
201905241116,1282.6,1282.6,1282.6,1282.6
201905241117,1282.6,1282.6,1282.4,1282.5
201905241118,1282.5,1282.7,1282.5,1282.7
201905241119,1282.7,1282.8,1282.7,1282.7
201905241120,1282.7,1282.8,1282.7,1282.8
201905241121,1282.8,1282.8,1282.8,1282.8
201905241122,1282.8,1282.8,1282.4,1282.4
201905241123,1282.4,1282.5,1282.4,1282.5
201905241124,1282.5,1282.6,1282.4,1282.5
201905241125,1282.6,1282.7,1282.6,1282.6
201905241126,1282.6,1282.6,1282.6,1282.6
201905241127,1282.6,1282.6,1282.5,1282.5
201905241128,1282.5,1282.7,1282.5,1282.7
201905241129,1282.7,1282.8,1282.6,1282.8
201905241130,1282.8,1282.8,1282.8,1282.8
201905241131,1282.8,1282.8,1282.6,1282.7
201905241132,1282.7,1282.8,1282.7,1282.7
201905241133,1282.7,1282.8,1282.7,1282.8
201905241134,1282.8,1282.8,1282.8,1282.8
201905241135,1282.8,1282.9,1282.8,1282.9
201905241136,1282.9,1282.9,1282.6,1282.8
201905241137,1282.8,1283.2,1282.6,1283.2
201905241138,1283.2,1283.2,1283.1,1283.1
201905241139,1283.1,1283.2,1283,1283.1
201905241140,1283.1,1283.2,1283.1,1283.2
201905241141,1283.2,1283.5,1283.2,1283.5
201905241142,1283.5,1283.5,1283.4,1283.5
201905241143,1283.5,1283.6,1283.4,1283.6
201905241144,1283.5,1283.7,1283.5,1283.7
201905241145,1283.6,1283.7,1283.5,1283.6
201905241146,1283.6,1283.6,1283.5,1283.6
201905241147,1283.6,1283.7,1283.5,1283.7
201905241148,1283.7,1283.8,1283.5,1283.5
201905241149,1283.5,1283.6,1283.5,1283.6
201905241150,1283.6,1283.6,1283.6,1283.6
201905241151,1283.6,1283.6,1283.5,1283.6
201905241152,1283.6,1283.6,1283.6,1283.6
201905241153,1283.6,1283.6,1283.6,1283.6
201905241154,1283.6,1283.6,1283.6,1283.6
201905241155,1283.6,1283.6,1283.5,1283.5
201905241156,1283.5,1283.5,1283.4,1283.5
201905241157,1283.5,1283.5,1283.5,1283.5
201905241158,1283.5,1283.7,1283.5,1283.7
201905241159,1283.7,1283.7,1283.7,1283.7
201905241200,1283.7,1283.7,1283.6,1283.6
201905241201,1283.6,1283.6,1283.5,1283.5
201905241202,1283.6,1283.7,1283.5,1283.6
201905241203,1283.6,1283.6,1283.5,1283.5
201905241204,1283.5,1283.6,1283.5,1283.6
201905241205,1283.7,1283.8,1283.7,1283.7
201905241206,1283.7,1283.8,1283.7,1283.7
201905241207,1283.7,1283.8,1283.7,1283.8
201905241208,1283.8,1283.9,1283.8,1283.8
201905241209,1283.8,1284.1,1283.8,1284.1
201905241210,1284.1,1284.1,1283.9,1283.9
201905241211,1283.9,1284,1283.9,1283.9
201905241212,1284,1284,1284,1284
201905241213,1284,1284.1,1284,1284
201905241214,1284.1,1284.1,1284,1284
201905241215,1284,1284.2,1284,1284.1
201905241216,1284,1284.2,1284,1284.2
201905241217,1284.2,1284.3,1284.2,1284.2
201905241218,1284.2,1284.3,1284.2,1284.2
201905241219,1284.2,1284.3,1284.2,1284.2
201905241220,1284.2,1284.2,1284.1,1284.2
201905241221,1284.2,1284.3,1284.2,1284.3
201905241222,1284.3,1284.4,1284.3,1284.3
201905241223,1284.3,1284.4,1284.2,1284.4
201905241224,1284.4,1284.4,1284.2,1284.2
201905241225,1284.2,1284.4,1284.2,1284.3
201905241226,1284.3,1284.4,1284.3,1284.3
201905241227,1284.3,1284.3,1284.2,1284.2
201905241228,1284.2,1284.3,1284.1,1284.3
201905241229,1284.3,1284.3,1284.1,1284.1
201905241230,1284.1,1284.2,1284.1,1284.2
201905241231,1284.2,1284.3,1284.2,1284.3
201905241232,1284.3,1284.3,1284.3,1284.3
201905241233,1284.3,1284.3,1284.2,1284.2
201905241234,1284.2,1284.2,1284.2,1284.2
201905241235,1284.2,1284.2,1284.1,1284.1
201905241236,1284.1,1284.1,1284.1,1284.1
201905241237,1284.1,1284.1,1283.9,1283.9
201905241238,1283.9,1284,1283.9,1283.9
201905241239,1283.9,1283.9,1283.8,1283.8
201905241240,1283.8,1283.9,1283.8,1283.9
201905241241,1283.9,1284,1283.9,1283.9
201905241242,1283.9,1283.9,1283.8,1283.8
201905241243,1283.8,1283.8,1283.7,1283.7
201905241244,1283.7,1283.8,1283.7,1283.8
201905241245,1283.8,1283.8,1283.7,1283.7
201905241246,1283.7,1283.8,1283.7,1283.8
201905241247,1283.8,1283.8,1283.7,1283.7
201905241248,1283.7,1283.7,1283.6,1283.7
201905241249,1283.7,1283.7,1283.6,1283.7
201905241250,1283.7,1283.7,1283.6,1283.6
201905241251,1283.6,1283.7,1283.6,1283.7
201905241252,1283.7,1283.7,1283.6,1283.6
201905241253,1283.6,1283.6,1283.6,1283.6
201905241254,1283.6,1283.6,1283.6,1283.6
201905241255,1283.6,1283.7,1283.6,1283.7
201905241256,1283.7,1283.7,1283.6,1283.6
201905241257,1283.6,1283.7,1283.6,1283.7
201905241258,1283.7,1283.7,1283.7,1283.7
201905241259,1283.7,1283.8,1283.7,1283.8
201905241300,1283.8,1283.9,1283.7,1283.7
201905241301,1283.7,1283.7,1283.6,1283.6
201905241302,1283.6,1283.6,1283.6,1283.6
201905241303,1283.6,1283.7,1283.6,1283.7
201905241304,1283.7,1283.7,1283.6,1283.6
201905241305,1283.6,1283.6,1283.4,1283.5
201905241306,1283.5,1283.5,1283.4,1283.5
201905241307,1283.5,1283.5,1283.4,1283.4
201905241308,1283.4,1283.4,1283.4,1283.4
201905241309,1283.4,1283.4,1283.4,1283.4
201905241310,1283.4,1283.4,1283.4,1283.4
201905241311,1283.4,1283.5,1283.4,1283.5
201905241312,1283.5,1283.5,1283.5,1283.5
201905241313,1283.5,1283.5,1283.5,1283.5
201905241314,1283.5,1283.5,1283.5,1283.5
201905241315,1283.5,1283.6,1283.5,1283.5
201905241316,1283.5,1283.6,1283.5,1283.5
201905241317,1283.5,1283.5,1283.4,1283.4
201905241318,1283.4,1283.4,1283.4,1283.4
201905241319,1283.4,1283.4,1283.3,1283.3
201905241320,1283.3,1283.4,1283.3,1283.4
201905241321,1283.4,1283.4,1283.3,1283.4
201905241322,1283.4,1283.4,1283.3,1283.4
201905241323,1283.4,1283.4,1283.3,1283.4
201905241324,1283.4,1283.6,1283.4,1283.6
201905241325,1283.6,1283.6,1283.5,1283.6
201905241326,1283.6,1283.7,1283.5,1283.6
201905241327,1283.6,1283.6,1283.6,1283.6
201905241328,1283.6,1283.6,1283.6,1283.6
201905241329,1283.6,1283.6,1283.4,1283.5
201905241330,1283.5,1283.5,1283.5,1283.5
201905241331,1283.5,1283.5,1283.4,1283.4
201905241332,1283.4,1283.4,1283.3,1283.3
201905241333,1283.3,1283.3,1283.2,1283.2
201905241334,1283.2,1283.2,1283.1,1283.1
201905241335,1283.1,1283.2,1283.1,1283.2
201905241336,1283.2,1283.3,1283.2,1283.2
201905241337,1283.2,1283.2,1283.1,1283.2
201905241338,1283.2,1283.3,1283.2,1283.2
201905241339,1283.2,1283.3,1283.2,1283.2
201905241340,1283.2,1283.2,1283.1,1283.1
201905241341,1283.1,1283.2,1283.1,1283.2
201905241342,1283.2,1283.2,1283.2,1283.2
201905241343,1283.2,1283.4,1283.2,1283.3
201905241344,1283.3,1283.3,1283.3,1283.3
201905241345,1283.3,1283.3,1283.3,1283.3
201905241346,1283.3,1283.3,1283.3,1283.3
201905241347,1283.3,1283.4,1283.3,1283.4
201905241348,1283.4,1283.4,1283.4,1283.4
201905241349,1283.4,1283.4,1283.3,1283.4
201905241350,1283.4,1283.5,1283.3,1283.3
201905241351,1283.3,1283.3,1283.3,1283.3
201905241352,1283.3,1283.3,1283.2,1283.3
201905241353,1283.3,1283.4,1283.3,1283.4
201905241354,1283.4,1283.6,1283.4,1283.5
201905241355,1283.5,1283.5,1283.5,1283.5
201905241356,1283.5,1283.5,1283.4,1283.5
201905241357,1283.5,1283.6,1283.5,1283.6
201905241358,1283.6,1283.7,1283.6,1283.6
201905241359,1283.6,1283.7,1283.6,1283.7
201905241400,1283.7,1283.7,1283.6,1283.6
201905241401,1283.6,1283.7,1283.6,1283.7
201905241402,1283.7,1283.7,1283.6,1283.6
201905241403,1283.6,1283.6,1283.3,1283.3
201905241404,1283.3,1283.3,1283.3,1283.3
201905241405,1283.3,1283.3,1283.2,1283.2
201905241406,1283.2,1283.2,1283.2,1283.2
201905241407,1283.2,1283.4,1283.2,1283.4
201905241408,1283.4,1283.6,1283.3,1283.6
201905241409,1283.6,1283.7,1283.5,1283.7
201905241410,1283.7,1283.8,1283.7,1283.8
201905241411,1283.8,1283.8,1283.8,1283.8
201905241412,1283.8,1283.8,1283.8,1283.8
201905241413,1283.8,1283.8,1283.7,1283.7
201905241414,1283.7,1283.7,1283.7,1283.7
201905241415,1283.7,1283.7,1283.7,1283.7
201905241416,1283.7,1283.8,1283.7,1283.8
201905241417,1283.8,1283.9,1283.7,1283.8
201905241418,1283.8,1283.8,1283.8,1283.8
201905241419,1283.8,1283.9,1283.8,1283.8
201905241420,1283.8,1283.8,1283.7,1283.7
201905241421,1283.6,1283.7,1283.6,1283.6
201905241422,1283.6,1283.6,1283.5,1283.5
201905241423,1283.5,1283.5,1283.4,1283.4
201905241424,1283.4,1283.5,1283.4,1283.4
201905241425,1283.4,1283.5,1283.4,1283.4
201905241426,1283.4,1283.5,1283.4,1283.5
201905241427,1283.5,1283.5,1283.5,1283.5
201905241428,1283.5,1283.5,1283.5,1283.5
201905241429,1283.5,1283.6,1283.5,1283.5
201905241430,1283.5,1283.6,1283.5,1283.6
201905241431,1283.6,1283.7,1283.6,1283.6
201905241432,1283.6,1283.6,1283.5,1283.6
201905241433,1283.6,1283.8,1283.6,1283.8
201905241434,1283.8,1283.8,1283.8,1283.8
201905241435,1283.7,1283.8,1283.7,1283.8
201905241436,1283.8,1283.8,1283.6,1283.7
201905241437,1283.7,1283.7,1283.6,1283.6
201905241438,1283.6,1283.8,1283.6,1283.8
201905241439,1283.8,1283.8,1283.7,1283.8
201905241440,1283.8,1283.8,1283.8,1283.8
201905241441,1283.8,1284,1283.8,1284
201905241442,1284,1284,1283.8,1283.8
201905241443,1283.8,1283.8,1283.8,1283.8
201905241444,1283.8,1283.9,1283.8,1283.9
201905241445,1283.9,1283.9,1283.9,1283.9
201905241446,1283.9,1283.9,1283.8,1283.8
201905241447,1283.8,1283.8,1283.7,1283.7
201905241448,1283.7,1283.9,1283.7,1283.8
201905241449,1283.8,1283.9,1283.8,1283.9
201905241450,1283.9,1284,1283.9,1284
201905241451,1284,1284,1283.7,1283.8
201905241452,1283.8,1284,1283.7,1283.8
201905241453,1283.7,1283.7,1283.4,1283.4
201905241454,1283.4,1283.4,1283.4,1283.4
201905241455,1283.4,1283.6,1283.4,1283.5
201905241456,1283.5,1283.6,1283.4,1283.5
201905241457,1283.5,1283.5,1283.4,1283.5
201905241458,1283.5,1283.5,1283.3,1283.3
201905241459,1283.3,1283.3,1283.1,1283.1
201905241500,1283.1,1283.2,1283.1,1283.1
201905241501,1283.1,1283.2,1283.1,1283.1
201905241502,1283.1,1283.2,1282.9,1282.9
201905241503,1282.9,1282.9,1282.8,1282.8
201905241504,1282.8,1283,1282.8,1282.9
201905241505,1282.9,1283.2,1282.9,1283.2
201905241506,1283.2,1283.3,1282.9,1283.1
201905241507,1283.1,1283.2,1283.1,1283.1
201905241508,1283.1,1283.3,1283,1283.3
201905241509,1283.3,1283.4,1283.2,1283.3
201905241510,1283.3,1283.3,1283.2,1283.2
201905241511,1283.3,1283.8,1283.3,1283.7
201905241512,1283.7,1283.8,1283.7,1283.7
201905241513,1283.7,1284,1283.7,1284
201905241514,1284,1284.2,1283.9,1284.2
201905241515,1284.2,1284.4,1284.2,1284.3
201905241516,1284.3,1284.3,1284.2,1284.3
201905241517,1284.3,1284.7,1284.3,1284.7
201905241518,1284.7,1284.9,1284.6,1284.9
201905241519,1284.9,1284.9,1284.8,1284.9
201905241520,1284.9,1285,1284.8,1285
201905241521,1285,1285,1284.8,1285
201905241522,1285,1285,1284.9,1284.9
201905241523,1284.9,1284.9,1284.7,1284.8
201905241524,1284.8,1284.9,1284.8,1284.9
201905241525,1284.9,1284.9,1284.7,1284.8
201905241526,1284.8,1285,1284.6,1284.9
201905241527,1284.9,1285,1284.8,1284.9
201905241528,1284.9,1284.9,1284.7,1284.7
201905241529,1284.7,1284.8,1284.7,1284.7
201905241530,1284.7,1284.7,1284.7,1284.7
201905241531,1284.7,1284.9,1284.6,1284.8
201905241532,1284.8,1284.9,1284.8,1284.9
201905241533,1284.9,1284.9,1284.8,1284.8
201905241534,1284.8,1284.9,1284.8,1284.8
201905241535,1284.8,1284.9,1284.8,1284.9
201905241536,1284.9,1284.9,1284.8,1284.9
201905241537,1284.9,1285.1,1284.8,1285
201905241538,1285,1285,1284.8,1284.8
201905241539,1284.8,1284.9,1284.4,1284.4
201905241540,1284.4,1284.5,1284.4,1284.4
201905241541,1284.4,1284.5,1284.1,1284.1
201905241542,1284.1,1284.1,1283.9,1283.9
201905241543,1283.9,1283.9,1283.5,1283.5
201905241544,1283.5,1283.7,1283.4,1283.7
201905241545,1283.7,1283.7,1283.6,1283.6
201905241546,1283.6,1283.6,1283.4,1283.4
201905241547,1283.4,1283.7,1283.4,1283.6
201905241548,1283.6,1283.7,1283.4,1283.5
201905241549,1283.5,1283.7,1283.5,1283.7
201905241550,1283.7,1283.9,1283.6,1283.9
201905241551,1283.8,1284,1283.8,1284
201905241552,1284,1284,1283.3,1283.5
201905241553,1283.5,1283.5,1283.4,1283.5
201905241554,1283.5,1283.5,1283.2,1283.3
201905241555,1283.3,1283.3,1283.1,1283.2
201905241556,1283.2,1283.2,1282.9,1282.9
201905241557,1282.9,1283.2,1282.9,1283.2
201905241558,1283.2,1283.2,1283.1,1283.1
201905241559,1283.1,1283.2,1283,1283
201905241600,1283,1283,1282.9,1282.9
201905241601,1282.9,1283,1282.8,1282.8
201905241602,1282.8,1282.9,1282.6,1282.9
201905241603,1282.9,1283,1282.8,1282.9
201905241604,1282.9,1283,1282.8,1283
201905241605,1283,1283.1,1283,1283
201905241606,1283,1283.2,1282.9,1282.9
201905241607,1282.9,1283.3,1282.9,1283.3
201905241608,1283.3,1283.4,1283.2,1283.2
201905241609,1283.2,1283.4,1283.2,1283.4
201905241610,1283.4,1283.4,1283.2,1283.4
201905241611,1283.4,1283.5,1283.3,1283.4
201905241612,1283.4,1283.8,1283.4,1283.7
201905241613,1283.7,1284.2,1283.7,1284.1
201905241614,1284.1,1284.3,1284.1,1284.3
201905241615,1284.3,1284.5,1284.2,1284.5
201905241616,1284.5,1284.5,1284.3,1284.3
201905241617,1284.3,1284.4,1284.3,1284.3
201905241618,1284.3,1284.4,1284.1,1284.2
201905241619,1284.2,1284.2,1284,1284
201905241620,1284,1284,1283.8,1283.8
201905241621,1283.8,1284,1283.8,1284
201905241622,1284,1284,1283.9,1284
201905241623,1284,1284,1283.8,1283.9
201905241624,1283.9,1283.9,1283.6,1283.7
201905241625,1283.7,1283.7,1283.6,1283.7
201905241626,1283.7,1283.7,1283.4,1283.5
201905241627,1283.5,1283.8,1283.5,1283.6
201905241628,1283.6,1283.7,1283.6,1283.7
201905241629,1283.7,1283.8,1283.6,1283.8
201905241630,1283.8,1283.9,1283.8,1283.8
201905241631,1283.8,1283.9,1283.6,1283.6
201905241632,1283.6,1283.7,1283.5,1283.6
201905241633,1283.6,1283.7,1283.1,1283.1
201905241634,1283.1,1283.1,1282.8,1283.1
201905241635,1283.1,1283.1,1282.9,1282.9
201905241636,1282.9,1282.9,1282.8,1282.9
201905241637,1282.9,1283.2,1282.9,1283.2
201905241638,1283.2,1283.2,1283,1283
201905241639,1283,1283.1,1283,1283
201905241640,1283,1283.2,1283,1283.1
201905241641,1283.1,1283.1,1283,1283
201905241642,1283,1283.1,1282.9,1283.1
201905241643,1283.1,1283.1,1283,1283
201905241644,1283,1283.3,1283,1283.3
201905241645,1283.3,1283.3,1283,1283.1
201905241646,1283.1,1283.3,1283.1,1283.2
201905241647,1283.2,1283.2,1283,1283
201905241648,1283,1283.2,1282.9,1282.9
201905241649,1282.9,1282.9,1282.8,1282.8
201905241650,1282.8,1282.9,1282.8,1282.9
201905241651,1282.9,1283,1282.9,1283
201905241652,1283,1283.1,1282.9,1283
201905241653,1283,1283.1,1282.9,1283
201905241654,1283,1283,1283,1283
201905241655,1283,1283.1,1283,1283.1
201905241656,1283.1,1283.1,1283,1283.1
201905241657,1283.1,1283.3,1283.1,1283.1
201905241658,1283.1,1283.1,1282.9,1283
201905241659,1283,1283.2,1283,1283.1
201905241700,1283.1,1283.2,1283,1283.1
201905241701,1283.1,1283.1,1283,1283.1
201905241702,1283.1,1283.2,1283,1283.1
201905241703,1283.1,1283.2,1282.8,1282.8
201905241704,1282.8,1282.9,1282.7,1282.7
201905241705,1282.7,1282.8,1282.5,1282.6
201905241706,1282.6,1282.6,1282.5,1282.5
201905241707,1282.5,1282.5,1282.4,1282.5
201905241708,1282.5,1282.6,1282.4,1282.4
201905241709,1282.4,1282.5,1282.3,1282.4
201905241710,1282.4,1282.5,1282.4,1282.5
201905241711,1282.5,1282.5,1282.4,1282.5
201905241712,1282.5,1282.5,1282.3,1282.4
201905241713,1282.4,1282.4,1282.3,1282.4
201905241714,1282.4,1282.4,1282.2,1282.3
201905241715,1282.3,1282.4,1282.2,1282.4
201905241716,1282.4,1282.4,1282.3,1282.4
201905241717,1282.4,1282.4,1282.3,1282.3
201905241718,1282.3,1282.3,1282.3,1282.3
201905241719,1282.3,1282.4,1282.3,1282.3
201905241720,1282.3,1282.3,1282.1,1282.2
201905241721,1282.2,1282.2,1282.1,1282.2
201905241722,1282.2,1282.3,1282.2,1282.3
201905241723,1282.3,1282.5,1282.2,1282.2
201905241724,1282.2,1282.3,1282.2,1282.2
201905241725,1282.2,1282.3,1282.2,1282.3
201905241726,1282.3,1282.4,1282.3,1282.4
201905241727,1282.4,1282.4,1282.3,1282.4
201905241728,1282.4,1282.6,1282.4,1282.6
201905241729,1282.6,1282.6,1282.5,1282.5
201905241730,1282.5,1282.6,1282.4,1282.6
201905241731,1282.6,1282.6,1282.5,1282.6
201905241732,1282.6,1282.6,1282.5,1282.6
201905241733,1282.6,1282.6,1282.5,1282.5
201905241734,1282.5,1282.5,1282.3,1282.4
201905241735,1282.4,1282.7,1282.4,1282.6
201905241736,1282.6,1282.6,1282.4,1282.4
201905241737,1282.4,1282.5,1282.4,1282.4
201905241738,1282.4,1282.4,1282.1,1282.4
201905241739,1282.4,1282.4,1282.1,1282.1
201905241740,1282.1,1282.2,1281.8,1281.9
201905241741,1281.9,1281.9,1281.8,1281.8
201905241742,1281.8,1282.1,1281.8,1282
201905241743,1282,1282,1281.8,1282
201905241744,1282,1282,1281.7,1281.8
201905241745,1281.8,1281.8,1281.6,1281.6
201905241746,1281.6,1281.7,1281.6,1281.7
201905241747,1281.7,1281.7,1281.6,1281.7
201905241748,1281.7,1281.8,1281.6,1281.8
201905241749,1281.8,1281.8,1281.7,1281.7
201905241750,1281.7,1281.7,1281.6,1281.7
201905241751,1281.7,1281.9,1281.7,1281.9
201905241752,1281.9,1281.9,1281.8,1281.9
201905241753,1281.9,1281.9,1281.8,1281.9
201905241754,1281.9,1281.9,1281.9,1281.9
201905241755,1281.9,1282,1281.9,1282
201905241756,1282,1282,1281.8,1281.9
201905241757,1281.9,1281.9,1281.8,1281.8
201905241758,1281.8,1282,1281.8,1281.9
201905241759,1281.9,1282,1281.9,1282
201905241800,1282,1282,1282,1282
201905241801,1282,1282,1281.9,1282
201905241802,1282,1282.2,1282,1282.1
201905241803,1282.1,1282.1,1282,1282.1
201905241804,1282.1,1282.3,1282.1,1282.2
201905241805,1282.2,1282.2,1282.2,1282.2
201905241806,1282.2,1282.4,1282.1,1282.1
201905241807,1282.1,1282.3,1282.1,1282.1
201905241808,1282.1,1282.2,1282,1282.1
201905241809,1282.1,1282.1,1281.7,1281.7
201905241810,1281.7,1281.7,1281.4,1281.4
201905241811,1281.4,1281.5,1281.4,1281.4
201905241812,1281.4,1281.5,1281.4,1281.5
201905241813,1281.5,1281.5,1281.3,1281.5
201905241814,1281.5,1281.7,1281.5,1281.6
201905241815,1281.6,1281.6,1281.5,1281.5
201905241816,1281.5,1281.5,1281.3,1281.4
201905241817,1281.4,1281.5,1281.3,1281.4
201905241818,1281.4,1281.4,1281.3,1281.3
201905241819,1281.3,1281.4,1281.1,1281.3
201905241820,1281.3,1281.5,1281.2,1281.4
201905241821,1281.4,1281.5,1281.4,1281.5
201905241822,1281.5,1281.6,1281.4,1281.6
201905241823,1281.6,1281.6,1281.4,1281.4
201905241824,1281.4,1281.5,1281.3,1281.5
201905241825,1281.5,1281.5,1281.3,1281.3
201905241826,1281.3,1281.5,1281.3,1281.5
201905241827,1281.5,1281.5,1281.4,1281.5
201905241828,1281.5,1281.7,1281.4,1281.6
201905241829,1281.6,1281.7,1281.5,1281.6
201905241830,1281.6,1281.6,1281.2,1281.3
201905241831,1281.3,1281.5,1281.3,1281.5
201905241832,1281.5,1281.6,1281.5,1281.5
201905241833,1281.5,1281.5,1281.5,1281.5
201905241834,1281.5,1281.5,1281.4,1281.5
201905241835,1281.5,1281.5,1281.4,1281.5
201905241836,1281.5,1281.5,1281.3,1281.4
201905241837,1281.4,1281.5,1281.4,1281.4
201905241838,1281.4,1281.5,1281.4,1281.4
201905241839,1281.4,1281.5,1281.4,1281.4
201905241840,1281.4,1281.6,1281.4,1281.6
201905241841,1281.6,1281.7,1281.6,1281.7
201905241842,1281.7,1281.8,1281.6,1281.7
201905241843,1281.7,1281.7,1281.6,1281.7
201905241844,1281.7,1281.7,1281.7,1281.7
201905241845,1281.7,1281.8,1281.7,1281.7
201905241846,1281.7,1281.8,1281.6,1281.8
201905241847,1281.8,1281.8,1281.7,1281.7
201905241848,1281.7,1281.8,1281.7,1281.8
201905241849,1281.8,1281.8,1281.7,1281.8
201905241850,1281.8,1281.8,1281.7,1281.8
201905241851,1281.8,1281.8,1281.7,1281.8
201905241852,1281.8,1281.9,1281.7,1281.9
201905241853,1281.9,1282,1281.9,1282
201905241854,1282,1282.1,1281.9,1282
201905241855,1282,1282,1281.9,1281.9
201905241856,1281.9,1281.9,1281.8,1281.9
201905241857,1281.9,1282,1281.9,1281.9
201905241858,1281.9,1281.9,1281.8,1281.9
201905241859,1281.9,1281.9,1281.5,1281.5
201905241900,1281.5,1281.5,1281.3,1281.3
201905241901,1281.3,1281.3,1281.2,1281.2
201905241902,1281.2,1281.2,1281,1281.2
201905241903,1281.2,1281.4,1281.1,1281.2
201905241904,1281.2,1281.4,1281.2,1281.3
201905241905,1281.3,1281.3,1281.1,1281.2
201905241906,1281.2,1281.2,1281.2,1281.2
201905241907,1281.2,1281.3,1281.1,1281.2
201905241908,1281.2,1281.2,1281.2,1281.2
201905241909,1281.2,1281.4,1281.2,1281.3
201905241910,1281.3,1281.3,1281.2,1281.3
201905241911,1281.3,1281.4,1281.2,1281.3
201905241912,1281.3,1281.3,1281.1,1281.2
201905241913,1281.2,1281.2,1281.1,1281.2
201905241914,1281.2,1281.3,1281.2,1281.3
201905241915,1281.3,1281.4,1281.2,1281.3
201905241916,1281.3,1281.3,1281.2,1281.3
201905241917,1281.3,1281.3,1281.2,1281.3
201905241918,1281.3,1281.3,1281.2,1281.2
201905241919,1281.2,1281.2,1281.1,1281.1
201905241920,1281.1,1281.2,1281.1,1281.1
201905241921,1281.1,1281.2,1281.1,1281.2
201905241922,1281.2,1281.2,1281,1281.1
201905241923,1281.1,1281.2,1281,1281.2
201905241924,1281.2,1281.2,1280.9,1280.9
201905241925,1280.9,1281,1280.9,1280.9
201905241926,1280.9,1281,1280.8,1281
201905241927,1281,1281,1280.9,1281
201905241928,1281,1281,1281,1281
201905241929,1281,1281.3,1280.8,1280.8
201905241930,1280.8,1281,1280.8,1281
201905241931,1281,1281.1,1280.9,1281
201905241932,1281,1281.2,1281,1281.2
201905241933,1281.2,1281.2,1281.1,1281.2
201905241934,1281.2,1281.2,1281,1281.1
201905241935,1281.1,1281.3,1281,1281.2
201905241936,1281.2,1281.3,1281.2,1281.3
201905241937,1281.3,1281.3,1281.3,1281.3
201905241938,1281.3,1281.4,1281.3,1281.3
201905241939,1281.3,1281.3,1281.2,1281.2
201905241940,1281.2,1281.3,1281.1,1281.1
201905241941,1281.1,1281.3,1281.1,1281.3
201905241942,1281.3,1281.3,1281.3,1281.3
201905241943,1281.3,1281.3,1281.2,1281.2
201905241944,1281.2,1281.2,1281.2,1281.2
201905241945,1281.2,1281.2,1281.2,1281.2
201905241946,1281.2,1281.2,1281.2,1281.2
201905241947,1281.2,1281.3,1281.2,1281.2
201905241948,1281.2,1281.3,1281.2,1281.3
201905241949,1281.3,1281.5,1281.3,1281.4
201905241950,1281.4,1281.5,1281.4,1281.4
201905241951,1281.4,1281.4,1281.2,1281.3
201905241952,1281.3,1281.3,1281.3,1281.3
201905241953,1281.3,1281.4,1281.3,1281.4
201905241954,1281.4,1281.4,1281.3,1281.4
201905241955,1281.4,1281.5,1281.4,1281.5
201905241956,1281.5,1281.5,1281.4,1281.5
201905241957,1281.5,1281.6,1281.4,1281.5
201905241958,1281.5,1281.6,1281.5,1281.6
201905241959,1281.6,1281.6,1281.5,1281.5
201905242000,1281.5,1281.5,1281.4,1281.5
201905242001,1281.5,1281.7,1281.5,1281.7
201905242002,1281.7,1281.7,1281.6,1281.7
201905242003,1281.7,1281.7,1281.5,1281.5
201905242004,1281.5,1281.6,1281.4,1281.5
201905242005,1281.5,1281.7,1281.5,1281.6
201905242006,1281.6,1281.7,1281.5,1281.6
201905242007,1281.6,1281.6,1281.6,1281.6
201905242008,1281.6,1281.7,1281.6,1281.7
201905242009,1281.7,1281.7,1281.5,1281.5
201905242010,1281.5,1281.6,1281.5,1281.5
201905242011,1281.5,1281.6,1281.4,1281.4
201905242012,1281.4,1281.6,1281.4,1281.6
201905242013,1281.6,1281.6,1281.5,1281.6
201905242014,1281.6,1281.6,1281.6,1281.6
201905242015,1281.6,1281.6,1281.4,1281.4
201905242016,1281.4,1281.4,1281.2,1281.4
201905242017,1281.4,1281.4,1281.3,1281.3
201905242018,1281.3,1281.4,1281.3,1281.4
201905242019,1281.4,1281.4,1281.2,1281.3
201905242020,1281.3,1281.4,1281.2,1281.3
201905242021,1281.3,1281.4,1281.3,1281.4
201905242022,1281.4,1281.4,1281.3,1281.3
201905242023,1281.3,1281.4,1281.3,1281.4
201905242024,1281.4,1281.4,1281.3,1281.4
201905242025,1281.4,1281.4,1281.3,1281.4
201905242026,1281.4,1281.4,1281.3,1281.4
201905242027,1281.4,1281.4,1281.4,1281.4
201905242028,1281.5,1281.5,1281.3,1281.3
201905242029,1281.3,1281.4,1281.2,1281.3
201905242030,1281.3,1281.4,1281.3,1281.3
201905242031,1281.3,1281.5,1281.3,1281.5
201905242032,1281.5,1281.5,1281.2,1281.3
201905242033,1281.3,1281.3,1281.2,1281.2
201905242034,1281.2,1281.3,1281.2,1281.2
201905242035,1281.2,1281.3,1281.1,1281.1
201905242036,1281.1,1281.2,1281.1,1281.2
201905242037,1281.2,1281.2,1281.1,1281.2
201905242038,1281.2,1281.3,1281.2,1281.3
201905242039,1281.3,1281.7,1281.2,1281.7
201905242040,1281.7,1282.5,1281.7,1282.5
201905242041,1282.5,1282.6,1282.4,1282.5
201905242042,1282.5,1282.6,1282.5,1282.6
201905242043,1282.6,1282.8,1282.6,1282.7
201905242044,1282.7,1282.7,1282.6,1282.6
201905242045,1282.6,1282.8,1282.6,1282.6
201905242046,1282.6,1282.6,1282.5,1282.5
201905242047,1282.5,1282.5,1282.5,1282.5
201905242048,1282.5,1282.5,1282.4,1282.4
201905242049,1282.4,1282.4,1282.3,1282.4
201905242050,1282.4,1282.5,1282.4,1282.4
201905242051,1282.4,1282.5,1282.4,1282.4
201905242052,1282.4,1282.4,1282.3,1282.4
201905242053,1282.4,1282.4,1282.3,1282.4
201905242054,1282.4,1282.5,1282.4,1282.5
201905242055,1282.5,1282.5,1282.4,1282.4
201905242056,1282.4,1282.4,1282.3,1282.3
201905242057,1282.3,1282.3,1282.2,1282.2
201905242058,1282.2,1282.2,1282.1,1282.1
201905242059,1282.1,1282.2,1281.9,1282
201905242100,1282,1282,1282,1282
201905242101,1282,1282.4,1282,1282.3
201905242102,1282.3,1282.3,1282.1,1282.2
201905242103,1282.2,1282.4,1282.2,1282.4
201905242104,1282.4,1282.6,1282.2,1282.5
201905242105,1282.5,1282.6,1282.4,1282.5
201905242106,1282.5,1282.9,1282.4,1282.5
201905242107,1282.5,1282.5,1282,1282
201905242108,1282,1282.4,1282,1282.2
201905242109,1282.2,1282.3,1282.1,1282.3
201905242110,1282.3,1282.3,1282.2,1282.2
201905242111,1282.2,1282.3,1282.2,1282.3
201905242112,1282.3,1282.5,1282.2,1282.5
201905242113,1282.5,1282.5,1282.4,1282.5
201905242114,1282.5,1282.9,1282.4,1282.9
201905242115,1282.9,1283.1,1282.8,1283
201905242116,1283,1283.1,1283,1283.1
201905242117,1283.1,1283.3,1283.1,1283.3
201905242118,1283.3,1283.6,1283.2,1283.6
201905242119,1283.5,1283.7,1283.5,1283.6
201905242120,1283.6,1283.7,1282.5,1282.8
201905242121,1282.8,1282.9,1282.4,1282.6
201905242122,1282.6,1283,1282.5,1282.9
201905242123,1282.9,1283.1,1282.7,1283
201905242124,1283,1283,1282.7,1283
201905242125,1283,1283.2,1282.7,1283
201905242126,1283,1283.2,1283,1283.1
201905242127,1283.1,1283.1,1282.9,1283
201905242128,1283,1283,1282.6,1282.7
201905242129,1282.7,1282.8,1282.6,1282.6
201905242130,1282.7,1283.5,1282.7,1283.5
201905242131,1283.5,1283.6,1283.4,1283.5
201905242132,1283.5,1283.8,1283.5,1283.8
201905242133,1283.7,1283.9,1283.6,1283.9
201905242134,1283.9,1284.4,1283.9,1284.3
201905242135,1284.3,1284.3,1284,1284
201905242136,1284,1284.2,1283.8,1284.1
201905242137,1284.1,1284.3,1284.1,1284.3
201905242138,1284.2,1284.3,1284.2,1284.2
201905242139,1284.2,1284.3,1283.6,1283.7
201905242140,1283.7,1284,1283.6,1283.8
201905242141,1283.8,1283.8,1283.3,1283.3
201905242142,1283.3,1283.3,1283.1,1283.3
201905242143,1283.3,1283.6,1283.2,1283.6
201905242144,1283.6,1283.7,1283.5,1283.6
201905242145,1283.6,1283.6,1283.5,1283.6
201905242146,1283.6,1283.7,1283.3,1283.5
201905242147,1283.5,1283.5,1283.3,1283.4
201905242148,1283.4,1283.4,1283.3,1283.4
201905242149,1283.4,1283.8,1283.4,1283.7
201905242150,1283.7,1283.8,1283.6,1283.6
201905242151,1283.7,1283.7,1283.6,1283.6
201905242152,1283.6,1283.9,1283.5,1283.7
201905242153,1283.7,1283.7,1283.5,1283.6
201905242154,1283.6,1283.7,1283.4,1283.7
201905242155,1283.7,1284.1,1283.7,1284.1
201905242156,1284.1,1284.1,1283.8,1283.8
201905242157,1283.8,1283.8,1283.5,1283.5
201905242158,1283.5,1283.6,1283.5,1283.6
201905242159,1283.6,1283.6,1283,1283.1
201905242200,1283.2,1283.7,1283.1,1283.4
201905242201,1283.3,1283.6,1283.2,1283.5
201905242202,1283.5,1283.5,1282.9,1283
201905242203,1283,1283.3,1282.9,1283.2
201905242204,1283.2,1283.4,1283.1,1283.4
201905242205,1283.4,1283.4,1283.3,1283.4
201905242206,1283.4,1283.4,1283.2,1283.2
201905242207,1283.2,1283.4,1282.9,1282.9
201905242208,1282.9,1283.3,1282.8,1283.2
201905242209,1283.3,1283.7,1283.3,1283.6
201905242210,1283.6,1283.7,1283,1283
201905242211,1283,1283.2,1282.7,1283
201905242212,1283,1283.1,1282.9,1283
201905242213,1283,1283.4,1283,1283.3
201905242214,1283.3,1283.4,1283.2,1283.3
201905242215,1283.3,1283.4,1283.1,1283.2
201905242216,1283.2,1283.5,1283.2,1283.5
201905242217,1283.5,1283.9,1283.5,1283.8
201905242218,1283.8,1283.9,1283.7,1283.9
201905242219,1283.9,1284,1283.8,1283.9
201905242220,1283.9,1284.2,1283.9,1284.1
201905242221,1284.1,1284.3,1284.1,1284.2
201905242222,1284.2,1284.2,1283.9,1284
201905242223,1284,1284.1,1284,1284.1
201905242224,1284.1,1284.2,1283.9,1283.9
201905242225,1283.9,1284.1,1283.9,1284.1
201905242226,1284.1,1284.1,1283.9,1283.9
201905242227,1283.9,1284.1,1283.9,1284
201905242228,1284,1284.1,1283.3,1283.5
201905242229,1283.5,1283.5,1283.1,1283.4
201905242230,1283.4,1283.4,1282.3,1282.5
201905242231,1282.5,1282.8,1282.3,1282.4
201905242232,1282.4,1282.5,1282.1,1282.2
201905242233,1282.2,1282.4,1281.9,1282.1
201905242234,1282.1,1282.3,1281.7,1281.8
201905242235,1281.8,1281.8,1281.3,1281.7
201905242236,1281.8,1281.8,1281.5,1281.5
201905242237,1281.5,1282.1,1281.5,1282
201905242238,1282,1282.2,1281.8,1281.9
201905242239,1281.9,1282,1281.7,1281.8
201905242240,1281.8,1281.8,1281.6,1281.6
201905242241,1281.6,1281.8,1281.4,1281.4
201905242242,1281.4,1281.4,1280.7,1280.9
201905242243,1280.9,1280.9,1280.7,1280.7
201905242244,1280.7,1281.1,1280.7,1280.8
201905242245,1280.8,1281.4,1280.8,1281.3
201905242246,1281.3,1281.4,1281.3,1281.3
201905242247,1281.4,1281.4,1281,1281.3
201905242248,1281.3,1281.3,1281,1281.3
201905242249,1281.3,1281.5,1281.2,1281.4
201905242250,1281.4,1281.5,1281.2,1281.4
201905242251,1281.4,1281.6,1281.4,1281.6
201905242252,1281.6,1281.6,1281.2,1281.3
201905242253,1281.3,1281.5,1281.3,1281.5
201905242254,1281.5,1281.7,1281.5,1281.6
201905242255,1281.6,1281.8,1281.6,1281.7
201905242256,1281.7,1282.1,1281.7,1281.9
201905242257,1281.9,1282,1281.8,1281.9
201905242258,1281.8,1281.8,1281.4,1281.5
201905242259,1281.5,1281.9,1281.5,1281.9
201905242300,1281.9,1282.1,1281.8,1282.1
201905242301,1282.1,1282.4,1282.1,1282.2
201905242302,1282.2,1282.4,1282.2,1282.3
201905242303,1282.3,1282.3,1282.1,1282.1
201905242304,1282.1,1282.3,1282,1282
201905242305,1282,1282.2,1282,1282.1
201905242306,1282.1,1282.2,1282,1282
201905242307,1282,1282.1,1281.8,1282.1
201905242308,1282.1,1282.2,1282,1282.1
201905242309,1282.1,1282.1,1281.7,1282
201905242310,1282,1282.4,1281.9,1281.9
201905242311,1281.9,1282,1281.8,1281.9
201905242312,1281.9,1282,1281.8,1282
201905242313,1282,1282.1,1282,1282.1
201905242314,1282.1,1282.2,1282,1282.2
201905242315,1282.2,1282.3,1282.1,1282.3
201905242316,1282.3,1282.4,1282.2,1282.3
201905242317,1282.3,1282.4,1282.3,1282.4
201905242318,1282.4,1282.6,1282.4,1282.5
201905242319,1282.5,1282.6,1282.2,1282.6
201905242320,1282.6,1282.6,1282.4,1282.6
201905242321,1282.6,1282.8,1282.6,1282.7
201905242322,1282.7,1283,1282.7,1283
201905242323,1283,1283.2,1283,1283.2
201905242324,1283.2,1283.2,1282.5,1282.5
201905242325,1282.5,1282.8,1282.5,1282.6
201905242326,1282.6,1282.9,1282.6,1282.8
201905242327,1282.8,1282.9,1282.7,1282.9
201905242328,1282.9,1283.1,1282.8,1282.9
201905242329,1282.9,1283.1,1282.7,1283
201905242330,1283,1283.3,1283,1283.3
201905242331,1283.3,1283.3,1283,1283.1
201905242332,1283.1,1283.5,1283.1,1283.3
201905242333,1283.3,1283.7,1283.3,1283.7
201905242334,1283.7,1283.8,1283.6,1283.7
201905242335,1283.8,1283.9,1283.7,1283.7
201905242336,1283.6,1283.9,1283.3,1283.4
201905242337,1283.4,1283.4,1283.1,1283.3
201905242338,1283.3,1283.3,1283.2,1283.2
201905242339,1283.2,1283.2,1283,1283
201905242340,1283,1283.2,1283,1283.1
201905242341,1283.2,1283.3,1283,1283.1
201905242342,1283.1,1283.3,1283,1283.3
201905242343,1283.3,1283.3,1283.1,1283.3
201905242344,1283.3,1283.3,1283,1283.1
201905242345,1283.1,1283.1,1283,1283
201905242346,1283,1283.2,1283,1283.2
201905242347,1283.2,1283.4,1283.1,1283.4
201905242348,1283.4,1283.6,1283.4,1283.5
201905242349,1283.5,1283.7,1283.3,1283.3
201905242350,1283.3,1283.4,1283.1,1283.1
201905242351,1283.1,1283.6,1283.1,1283.6
201905242352,1283.6,1283.7,1283.5,1283.6
201905242353,1283.6,1283.8,1283.6,1283.7
201905242354,1283.7,1283.9,1283.5,1283.7
201905242355,1283.7,1284,1283.6,1283.9
201905242356,1283.9,1283.9,1283.7,1283.8
201905242357,1283.8,1283.8,1283.7,1283.7
201905242358,1283.7,1283.9,1283.7,1283.8
201905242359,1283.8,1283.9,1283.7,1283.9
201905250000,1283.9,1284,1283.8,1283.9
201905250001,1283.9,1283.9,1283.7,1283.9
201905250002,1283.8,1283.8,1283.4,1283.5
201905250003,1283.5,1283.6,1283.4,1283.4
201905250004,1283.4,1283.4,1283.3,1283.3
201905250005,1283.3,1283.5,1283.3,1283.3
201905250006,1283.3,1283.4,1283.2,1283.3
201905250007,1283.3,1283.5,1283.2,1283.5
201905250008,1283.5,1283.6,1283.5,1283.6
201905250009,1283.6,1283.8,1283.6,1283.7
201905250010,1283.7,1283.8,1283.6,1283.7
201905250011,1283.7,1283.8,1283.5,1283.7
201905250012,1283.7,1283.8,1283.7,1283.7
201905250013,1283.7,1283.7,1283.5,1283.5
201905250014,1283.5,1283.6,1283.5,1283.6
201905250015,1283.6,1283.7,1283.5,1283.5
201905250016,1283.5,1283.8,1283.5,1283.8
201905250017,1283.8,1284,1283.8,1284
201905250018,1284,1284.3,1284,1284
201905250019,1284,1284.1,1283.8,1284.1
201905250020,1284.1,1284.1,1283.8,1284
201905250021,1284,1284,1283.9,1283.9
201905250022,1283.9,1284.2,1283.9,1284
201905250023,1284,1284.1,1283.9,1284
201905250024,1284,1284.1,1284,1284
201905250025,1284,1284.1,1283.9,1284.1
201905250026,1284.1,1284.2,1284,1284.2
201905250027,1284.2,1284.3,1284.1,1284.1
201905250028,1284.1,1284.2,1284,1284.2
201905250029,1284.2,1284.3,1284.1,1284.3
201905250030,1284.3,1284.5,1284.2,1284.2
201905250031,1284.2,1284.2,1283.8,1284
201905250032,1284,1284.2,1284,1284.1
201905250033,1284.2,1284.3,1284,1284.1
201905250034,1284.1,1284.3,1284.1,1284.2
201905250035,1284.2,1284.3,1284.1,1284.2
201905250036,1284.2,1284.2,1283.9,1284
201905250037,1284,1284,1283.7,1283.7
201905250038,1283.7,1283.7,1283.6,1283.7
201905250039,1283.7,1283.7,1283.5,1283.6
201905250040,1283.6,1283.8,1283.5,1283.7
201905250041,1283.7,1283.8,1283.7,1283.8
201905250042,1283.8,1283.9,1283.8,1283.9
201905250043,1283.9,1284,1283.9,1284
201905250044,1284,1284,1283.9,1283.9
201905250045,1283.9,1283.9,1283.7,1283.7
201905250046,1283.7,1283.8,1283.6,1283.7
201905250047,1283.7,1283.7,1283.6,1283.6
201905250048,1283.6,1283.7,1283.5,1283.6
201905250049,1283.6,1283.6,1283.5,1283.5
201905250050,1283.5,1283.5,1283.3,1283.5
201905250051,1283.5,1283.5,1283.3,1283.3
201905250052,1283.3,1283.4,1283.3,1283.4
201905250053,1283.4,1283.5,1283.4,1283.5
201905250054,1283.5,1283.6,1283.4,1283.5
201905250055,1283.5,1283.5,1283.3,1283.5
201905250056,1283.5,1283.9,1283.5,1283.8
201905250057,1283.8,1283.8,1283.6,1283.7
201905250058,1283.7,1283.7,1283.5,1283.6
201905250059,1283.6,1283.8,1283.6,1283.7
201905250100,1283.7,1283.8,1283.7,1283.8
201905250101,1283.8,1283.9,1283.6,1283.6
201905250102,1283.6,1283.6,1283.5,1283.6
201905250103,1283.6,1283.7,1283.6,1283.6
201905250104,1283.6,1283.7,1283.6,1283.7
201905250105,1283.7,1283.7,1283.6,1283.7
201905250106,1283.7,1283.8,1283.7,1283.7
201905250107,1283.7,1283.7,1283.7,1283.7
201905250108,1283.7,1283.8,1283.7,1283.7
201905250109,1283.7,1283.7,1283.7,1283.7
201905250110,1283.7,1283.8,1283.7,1283.8
201905250111,1283.8,1284.1,1283.8,1284.1
201905250112,1284.1,1284.1,1283.9,1284
201905250113,1284,1284,1283.9,1284
201905250114,1284,1284.2,1283.9,1284.2
201905250115,1284.2,1284.3,1284.2,1284.2
201905250116,1284.2,1284.2,1284.2,1284.2
201905250117,1284.2,1284.4,1284.2,1284.3
201905250118,1284.3,1284.3,1284.2,1284.3
201905250119,1284.3,1284.3,1284.1,1284.1
201905250120,1284.1,1284.2,1284.1,1284.1
201905250121,1284.1,1284.2,1284.1,1284.2
201905250122,1284.2,1284.2,1284.2,1284.2
201905250123,1284.2,1284.2,1284.1,1284.2
201905250124,1284.2,1284.2,1284.1,1284.2
201905250125,1284.2,1284.2,1284.1,1284.1
201905250126,1284.1,1284.2,1284.1,1284.2
201905250127,1284.2,1284.3,1284.2,1284.3
201905250128,1284.3,1284.3,1284.2,1284.2
201905250129,1284.2,1284.3,1284.1,1284.3
201905250130,1284.3,1284.3,1284.2,1284.3
201905250131,1284.3,1284.3,1284.1,1284.1
201905250132,1284.1,1284.3,1284.1,1284.2
201905250133,1284.2,1284.2,1284.2,1284.2
201905250134,1284.2,1284.2,1284.2,1284.2
201905250135,1284.2,1284.2,1284.1,1284.2
201905250136,1284.2,1284.2,1284.1,1284.2
201905250137,1284.2,1284.4,1284.1,1284.4
201905250138,1284.4,1284.7,1284.4,1284.7
201905250139,1284.7,1284.8,1284.7,1284.8
201905250140,1284.8,1284.9,1284.8,1284.8
201905250141,1284.8,1284.8,1284.2,1284.2
201905250142,1284.2,1284.2,1284.1,1284.2
201905250143,1284.2,1284.2,1284.2,1284.2
201905250144,1284.2,1284.3,1284.2,1284.3
201905250145,1284.3,1284.3,1284.1,1284.2
201905250146,1284.2,1284.3,1284.1,1284.2
201905250147,1284.2,1284.2,1284.2,1284.2
201905250148,1284.2,1284.2,1284,1284
201905250149,1284,1284.3,1284,1284.2
201905250150,1284.2,1284.4,1284.2,1284.4
201905250151,1284.4,1284.5,1284.4,1284.5
201905250152,1284.5,1284.5,1284.2,1284.3
201905250153,1284.3,1284.4,1284.2,1284.2
201905250154,1284.2,1284.5,1284.2,1284.3
201905250155,1284.3,1284.4,1284.3,1284.4
201905250156,1284.4,1284.4,1284.2,1284.2
201905250157,1284.2,1284.4,1284.2,1284.4
201905250158,1284.4,1284.4,1284.4,1284.4
201905250159,1284.4,1284.4,1284.4,1284.4
201905250200,1284.4,1284.4,1284.4,1284.4
201905250201,1284.4,1284.4,1284.4,1284.4
201905250202,1284.4,1284.8,1284.4,1284.7
201905250203,1284.7,1284.7,1284.5,1284.6
201905250204,1284.6,1284.6,1284.4,1284.4
201905250205,1284.4,1284.6,1284.4,1284.6
201905250206,1284.6,1284.7,1284.6,1284.6
201905250207,1284.6,1284.8,1284.6,1284.7
201905250208,1284.7,1284.7,1284.5,1284.5
201905250209,1284.5,1284.5,1284.3,1284.3
201905250210,1284.3,1284.5,1284.3,1284.4
201905250211,1284.5,1284.6,1284.4,1284.5
201905250212,1284.5,1284.6,1284.5,1284.6
201905250213,1284.6,1284.7,1284.5,1284.5
201905250214,1284.5,1284.6,1284.4,1284.6
201905250215,1284.6,1284.6,1284.5,1284.6
201905250216,1284.6,1284.9,1284.6,1284.8
201905250217,1284.8,1284.9,1284.8,1284.8
201905250218,1284.8,1284.9,1284.8,1284.9
201905250219,1284.9,1284.9,1284.7,1284.7
201905250220,1284.7,1284.8,1284.7,1284.7
201905250221,1284.7,1284.7,1284.4,1284.5
201905250222,1284.5,1284.5,1284.4,1284.5
201905250223,1284.5,1284.6,1284.4,1284.6
201905250224,1284.6,1284.6,1284.2,1284.3
201905250225,1284.3,1284.3,1284.1,1284.1
201905250226,1284.1,1284.2,1283.9,1284.1
201905250227,1284.1,1284.1,1284,1284.1
201905250228,1284.1,1284.3,1284.1,1284.2
201905250229,1284.2,1284.2,1284,1284
201905250230,1284,1284.2,1284,1284.1
201905250231,1284.1,1284.3,1284.1,1284.3
201905250232,1284.3,1284.3,1284,1284
201905250233,1284.1,1284.2,1284,1284.2
201905250234,1284.2,1284.3,1284.2,1284.3
201905250235,1284.3,1284.3,1284.2,1284.2
201905250236,1284.2,1284.2,1284.1,1284.1
201905250237,1284.1,1284.2,1284.1,1284.2
201905250238,1284.1,1284.2,1284.1,1284.1
201905250239,1284.1,1284.1,1284.1,1284.1
201905250240,1284.1,1284.2,1284,1284.1
201905250241,1284.1,1284.2,1284.1,1284.2
201905250242,1284.1,1284.2,1284.1,1284.1
201905250243,1284.1,1284.2,1284.1,1284.1
201905250244,1284.1,1284.1,1284.1,1284.1
201905250245,1284.1,1284.2,1284.1,1284.1
201905250246,1284.1,1284.2,1284,1284
201905250247,1284,1284.1,1284,1284
201905250248,1284,1284,1284,1284
201905250249,1284,1284.1,1283.9,1284.1
201905250250,1284.1,1284.1,1284,1284.1
201905250251,1284.1,1284.1,1284.1,1284.1
201905250252,1284.1,1284.1,1284.1,1284.1
201905250253,1284.1,1284.1,1284.1,1284.1
201905250254,1284.1,1284.3,1284.1,1284.3
201905250255,1284.2,1284.3,1284.2,1284.2
201905250256,1284.2,1284.2,1284.2,1284.2
201905250257,1284.2,1284.3,1284.2,1284.3
201905250258,1284.3,1284.3,1284.2,1284.3
201905250259,1284.3,1284.4,1284.3,1284.4
201905250300,1284.4,1284.4,1284.3,1284.3
201905250301,1284.3,1284.4,1284.3,1284.4
201905250302,1284.4,1284.6,1284.4,1284.6
201905250303,1284.6,1284.6,1284.5,1284.5
201905250304,1284.5,1284.5,1284.4,1284.4
201905250305,1284.4,1284.5,1284.4,1284.4
201905250306,1284.4,1284.5,1284.4,1284.5
201905250307,1284.5,1284.5,1284.3,1284.4
201905250308,1284.5,1284.5,1284.3,1284.3
201905250309,1284.3,1284.3,1284.1,1284.1
201905250310,1284.1,1284.1,1284.1,1284.1
201905250311,1284.1,1284.1,1284.1,1284.1
201905250312,1284.1,1284.1,1284.1,1284.1
201905250313,1284.1,1284.1,1284.1,1284.1
201905250314,1284.2,1284.2,1284.1,1284.2
201905250315,1284.2,1284.2,1284.1,1284.1
201905250316,1284.1,1284.2,1284.1,1284.1
201905250317,1284.1,1284.2,1284.1,1284.2
201905250318,1284.2,1284.2,1284.2,1284.2
201905250319,1284.2,1284.2,1284.1,1284.1
201905250320,1284.1,1284.3,1284.1,1284.3
201905250321,1284.3,1284.3,1284.3,1284.3
201905250322,1284.3,1284.4,1284.3,1284.4
201905250323,1284.4,1284.4,1284.3,1284.3
201905250324,1284.3,1284.3,1284.3,1284.3
201905250325,1284.3,1284.4,1284.3,1284.4
201905250326,1284.4,1284.4,1284.3,1284.3
201905250327,1284.3,1284.3,1284.3,1284.3
201905250328,1284.3,1284.4,1284.2,1284.2
201905250329,1284.2,1284.2,1284.1,1284.2
201905250330,1284.2,1284.2,1284.2,1284.2
201905250331,1284.2,1284.2,1284,1284.1
201905250332,1284.1,1284.1,1284,1284.1
201905250333,1284.1,1284.2,1284,1284.2
201905250334,1284.2,1284.2,1284.1,1284.1
201905250335,1284.1,1284.1,1284.1,1284.1
201905250336,1284.1,1284.1,1284,1284.1
201905250337,1284.1,1284.1,1284,1284
201905250338,1284,1284.1,1284,1284.1
201905250339,1284.1,1284.1,1284,1284
201905250340,1284,1284,1284,1284
201905250341,1284,1284,1284,1284
201905250342,1284,1284.1,1284,1284.1
201905250343,1284.1,1284.1,1284.1,1284.1
201905250344,1284.1,1284.2,1284.1,1284.2
201905250345,1284.2,1284.2,1284.1,1284.1
201905250346,1284.1,1284.1,1284.1,1284.1
201905250347,1284.1,1284.2,1284.1,1284.2
201905250348,1284.2,1284.2,1284.1,1284.1
201905250349,1284.1,1284.2,1284.1,1284.2
201905250350,1284.2,1284.2,1284.1,1284.2
201905250351,1284.2,1284.2,1284.1,1284.2
201905250352,1284.2,1284.3,1284.2,1284.2
201905250353,1284.2,1284.3,1284.2,1284.2
201905250354,1284.2,1284.3,1284.2,1284.2
201905250355,1284.2,1284.3,1284.2,1284.2
201905250356,1284.2,1284.3,1284.2,1284.3
201905250357,1284.3,1284.3,1284.2,1284.2
201905250358,1284.2,1284.4,1284.2,1284.4
201905250359,1284.4,1284.4,1284.2,1284.2
201905250400,1284.2,1284.2,1284.1,1284.2
201905250401,1284.2,1284.2,1284.1,1284.2
201905250402,1284.2,1284.2,1284.1,1284.1
201905250403,1284.1,1284.2,1284.1,1284.2
201905250404,1284.2,1284.2,1284.1,1284.1
201905250405,1284.1,1284.2,1284.1,1284.1
201905250406,1284.1,1284.2,1284.1,1284.2
201905250407,1284.2,1284.2,1284.2,1284.2
201905250408,1284.2,1284.2,1284.1,1284.2
201905250409,1284.2,1284.2,1284.2,1284.2
201905250410,1284.2,1284.2,1284.2,1284.2
201905250411,1284.2,1284.2,1284.2,1284.2
201905250412,1284.2,1284.3,1284.2,1284.3
201905250413,1284.3,1284.3,1284.3,1284.3
201905250414,1284.3,1284.3,1284.2,1284.3
201905250415,1284.3,1284.4,1284.3,1284.3
201905250416,1284.4,1284.4,1284.3,1284.3
201905250417,1284.3,1284.4,1284.3,1284.3
201905250418,1284.3,1284.4,1284.3,1284.3
201905250419,1284.3,1284.4,1284.3,1284.3
201905250420,1284.3,1284.4,1284.3,1284.4
201905250421,1284.4,1284.5,1284.3,1284.4
201905250422,1284.4,1284.5,1284.4,1284.4
201905250423,1284.4,1284.4,1284.3,1284.3
201905250424,1284.3,1284.4,1284.3,1284.4
201905250425,1284.4,1284.4,1284.3,1284.4
201905250426,1284.4,1284.4,1284.4,1284.4
201905250427,1284.4,1284.4,1284.3,1284.3
201905250428,1284.3,1284.4,1284.3,1284.4
201905250429,1284.4,1284.4,1284.4,1284.4
201905250430,1284.5,1284.5,1284.5,1284.5
201905250431,1284.5,1284.5,1284.5,1284.5
201905250432,1284.5,1284.5,1284.5,1284.5
201905250433,1284.5,1284.5,1284.4,1284.4
201905250434,1284.4,1284.5,1284.4,1284.5
201905250435,1284.4,1284.5,1284.4,1284.4
201905250436,1284.4,1284.4,1284.2,1284.3
201905250437,1284.3,1284.3,1284.3,1284.3
201905250438,1284.3,1284.3,1284.3,1284.3
201905250439,1284.3,1284.3,1284.3,1284.3
201905250440,1284.3,1284.3,1284.3,1284.3
201905250441,1284.3,1284.4,1284.3,1284.4
201905250442,1284.4,1284.4,1284.4,1284.4
201905250443,1284.4,1284.4,1284.4,1284.4
201905250444,1284.4,1284.5,1284.4,1284.4
201905250445,1284.4,1284.6,1284.4,1284.6
201905250446,1284.6,1284.6,1284.5,1284.5
201905250447,1284.5,1284.6,1284.4,1284.5
201905250448,1284.5,1284.6,1284.5,1284.6
201905250449,1284.6,1284.6,1284.6,1284.6
201905250450,1284.6,1284.6,1284.4,1284.5
201905250451,1284.5,1284.5,1284.4,1284.4
201905250452,1284.4,1284.5,1284.4,1284.5
201905250453,1284.5,1284.6,1284.5,1284.5
201905250454,1284.5,1284.6,1284.5,1284.6
201905250455,1284.6,1284.7,1284.5,1284.6
201905250456,1284.6,1284.7,1284.6,1284.7
201905250457,1284.7,1284.7,1284.6,1284.6
201905250458,1284.6,1284.7,1284.6,1284.6
201905250459,1284.6,1284.7,1284.6,1284.7
201905250500,1284.6,1284.6,1284.5,1284.6
201905250501,1284.6,1284.7,1284.6,1284.7
201905250502,1284.7,1284.8,1284.7,1284.8
201905250503,1284.8,1284.8,1284.8,1284.8
201905250504,1284.8,1284.8,1284.8,1284.8
201905250505,1284.8,1284.8,1284.8,1284.8
201905250506,1284.8,1284.9,1284.8,1284.9
201905250507,1284.9,1284.9,1284.6,1284.6
201905250508,1284.6,1284.7,1284.6,1284.6
201905250509,1284.6,1284.6,1284.6,1284.6
201905250510,1284.6,1284.6,1284.5,1284.5
201905250511,1284.5,1284.6,1284.5,1284.5
201905250512,1284.5,1284.6,1284.5,1284.6
201905250513,1284.6,1284.6,1284.5,1284.5
201905250514,1284.5,1284.5,1284.5,1284.5
201905250515,1284.5,1284.6,1284.5,1284.6
201905250516,1284.6,1284.6,1284.5,1284.5
201905250517,1284.5,1284.6,1284.5,1284.5
201905250518,1284.5,1284.5,1284.5,1284.5
201905250519,1284.5,1284.5,1284.5,1284.5
201905250520,1284.5,1284.5,1284.5,1284.5
201905250521,1284.5,1284.5,1284.5,1284.5
201905250522,1284.5,1284.5,1284.5,1284.5
201905250523,1284.5,1284.5,1284.5,1284.5
201905250524,1284.5,1284.5,1284.5,1284.5
201905250525,1284.5,1284.5,1284.5,1284.5
201905250526,1284.5,1284.6,1284.5,1284.6
201905250527,1284.6,1284.6,1284.6,1284.6
201905250528,1284.6,1284.6,1284.5,1284.5
201905250529,1284.5,1284.5,1284.5,1284.5
201905250530,1284.5,1284.5,1284.4,1284.5
201905250531,1284.5,1284.5,1284.5,1284.5
201905250532,1284.5,1284.5,1284.5,1284.5
201905250533,1284.5,1284.5,1284.5,1284.5
201905250534,1284.5,1284.5,1284.5,1284.5
201905250535,1284.5,1284.5,1284.5,1284.5
201905250536,1284.5,1284.5,1284.5,1284.5
201905250537,1284.5,1284.5,1284.5,1284.5
201905250538,1284.5,1284.6,1284.5,1284.6
201905250539,1284.6,1284.6,1284.6,1284.6
201905250540,1284.6,1284.6,1284.5,1284.6
201905250541,1284.6,1284.6,1284.6,1284.6
201905250542,1284.6,1284.6,1284.6,1284.6
201905250543,1284.6,1284.6,1284.6,1284.6
201905250544,1284.6,1284.7,1284.6,1284.7
201905250545,1284.7,1284.7,1284.6,1284.7
201905250546,1284.7,1284.7,1284.7,1284.7
201905250547,1284.7,1284.8,1284.7,1284.7
201905250548,1284.7,1284.7,1284.7,1284.7
201905250549,1284.7,1284.8,1284.7,1284.7
201905250550,1284.7,1284.8,1284.7,1284.8
201905250551,1284.8,1284.8,1284.8,1284.8
201905250552,1284.8,1284.8,1284.8,1284.8
201905250553,1284.8,1284.8,1284.8,1284.8
201905250554,1284.8,1284.8,1284.8,1284.8
201905250555,1284.8,1284.8,1284.6,1284.7
201905250556,1284.7,1284.7,1284.6,1284.7
201905250557,1284.7,1284.8,1284.7,1284.7
201905250558,1284.7,1284.7,1284.7,1284.7
201905250559,1284.7,1284.7,1284.6,1284.6
