日時,始値(BID),高値(BID),安値(BID),終値(BID)
201903290830,21236,21251,21236,21250
201903290831,21250,21267,21247,21267
201903290832,21267,21267,21251,21256
201903290833,21256,21256,21251,21251
201903290834,21251,21261,21251,21257
201903290835,21257,21257,21241,21241
201903290836,21241,21247,21240,21247
201903290837,21247,21251,21246,21247
201903290838,21247,21247,21247,21247
201903290839,21247,21248,21247,21247
201903290840,21247,21247,21235,21237
201903290841,21237,21240,21232,21238
201903290842,21237,21242,21237,21241
201903290843,21241,21247,21241,21242
201903290844,21241,21251,21237,21247
201903290845,21245,21247,21240,21246
201903290846,21246,21257,21246,21251
201903290847,21251,21252,21246,21247
201903290848,21247,21252,21246,21252
201903290849,21252,21252,21252,21252
201903290850,21252,21252,21252,21252
201903290851,21252,21252,21246,21250
201903290852,21250,21251,21246,21247
201903290853,21247,21247,21241,21242
201903290854,21242,21242,21236,21237
201903290855,21237,21237,21230,21236
201903290856,21236,21241,21236,21241
201903290857,21241,21247,21241,21245
201903290858,21245,21246,21241,21245
201903290859,21245,21251,21236,21237
201903290900,21237,21266,21236,21265
201903290901,21264,21274,21246,21252
201903290902,21252,21262,21241,21255
201903290903,21255,21256,21246,21250
201903290904,21251,21255,21241,21241
201903290905,21241,21247,21241,21247
201903290906,21247,21247,21221,21224
201903290907,21224,21226,21215,21216
201903290908,21216,21227,21212,21222
201903290909,21221,21235,21218,21227
201903290910,21226,21232,21222,21231
201903290911,21231,21232,21216,21217
201903290912,21218,21231,21218,21226
201903290913,21226,21236,21221,21236
201903290914,21236,21240,21236,21237
201903290915,21237,21237,21216,21222
201903290916,21221,21224,21219,21221
201903290917,21221,21232,21221,21221
201903290918,21221,21227,21221,21223
201903290919,21223,21227,21221,21222
201903290920,21222,21222,21207,21209
201903290921,21208,21216,21208,21212
201903290922,21211,21212,21206,21212
201903290923,21212,21214,21207,21207
201903290924,21207,21208,21201,21203
201903290925,21203,21204,21193,21202
201903290926,21202,21202,21196,21200
201903290927,21200,21200,21192,21196
201903290928,21196,21196,21191,21191
201903290929,21191,21195,21191,21192
201903290930,21192,21195,21191,21192
201903290931,21192,21205,21192,21203
201903290932,21203,21205,21201,21202
201903290933,21202,21205,21201,21205
201903290934,21205,21206,21201,21204
201903290935,21204,21206,21201,21201
201903290936,21201,21202,21181,21181
201903290937,21182,21188,21181,21185
201903290938,21185,21191,21181,21187
201903290939,21187,21188,21179,21180
201903290940,21180,21181,21167,21171
201903290941,21171,21186,21171,21181
201903290942,21181,21185,21181,21185
201903290943,21185,21187,21181,21187
201903290944,21187,21188,21186,21188
201903290945,21188,21212,21187,21212
201903290946,21212,21216,21207,21207
201903290947,21207,21207,21201,21202
201903290948,21202,21202,21196,21196
201903290949,21196,21197,21190,21197
201903290950,21197,21208,21196,21206
201903290951,21206,21206,21201,21203
201903290952,21203,21217,21201,21212
201903290953,21211,21212,21206,21211
201903290954,21211,21221,21211,21216
201903290955,21214,21215,21196,21197
201903290956,21197,21206,21196,21197
201903290957,21197,21198,21196,21198
201903290958,21198,21199,21191,21193
201903290959,21193,21197,21191,21197
201903291000,21197,21202,21191,21202
201903291001,21202,21202,21186,21187
201903291002,21187,21187,21182,21185
201903291003,21185,21187,21176,21176
201903291004,21176,21181,21168,21171
201903291005,21171,21171,21159,21159
201903291006,21160,21167,21158,21160
201903291007,21161,21162,21160,21162
201903291008,21162,21164,21158,21161
201903291009,21161,21164,21161,21162
201903291010,21162,21163,21158,21162
201903291011,21162,21162,21156,21157
201903291012,21157,21157,21146,21151
201903291013,21151,21151,21142,21142
201903291014,21145,21146,21141,21143
201903291015,21144,21145,21138,21144
201903291016,21145,21147,21143,21146
201903291017,21146,21155,21145,21155
201903291018,21155,21157,21146,21154
201903291019,21154,21157,21151,21154
201903291020,21154,21157,21151,21156
201903291021,21156,21157,21152,21157
201903291022,21157,21157,21151,21152
201903291023,21152,21158,21151,21158
201903291024,21158,21162,21156,21162
201903291025,21162,21167,21162,21164
201903291026,21164,21172,21161,21171
201903291027,21171,21172,21163,21164
201903291028,21164,21164,21156,21157
201903291029,21157,21171,21157,21171
201903291030,21171,21171,21156,21156
201903291031,21156,21165,21151,21162
201903291032,21162,21162,21153,21156
201903291033,21156,21165,21156,21161
201903291034,21161,21169,21161,21169
201903291035,21170,21172,21170,21172
201903291036,21172,21181,21171,21181
201903291037,21181,21192,21181,21182
201903291038,21182,21182,21177,21181
201903291039,21181,21192,21181,21190
201903291040,21190,21202,21189,21200
201903291041,21200,21201,21196,21197
201903291042,21197,21197,21181,21182
201903291043,21182,21182,21167,21175
201903291044,21174,21175,21167,21171
201903291045,21171,21175,21166,21174
201903291046,21176,21185,21176,21182
201903291047,21182,21182,21176,21176
201903291048,21177,21177,21171,21171
201903291049,21172,21184,21171,21183
201903291050,21183,21184,21177,21180
201903291051,21180,21191,21180,21189
201903291052,21189,21190,21186,21188
201903291053,21186,21189,21186,21189
201903291054,21189,21190,21181,21186
201903291055,21186,21190,21181,21182
201903291056,21182,21182,21176,21177
201903291057,21177,21177,21171,21172
201903291058,21172,21176,21171,21171
201903291059,21171,21172,21166,21167
201903291100,21167,21167,21151,21151
201903291101,21151,21161,21151,21161
201903291102,21161,21162,21160,21161
201903291103,21161,21161,21151,21156
201903291104,21156,21162,21156,21160
201903291105,21160,21162,21156,21162
201903291106,21162,21162,21156,21159
201903291107,21159,21170,21159,21169
201903291108,21169,21169,21161,21162
201903291109,21162,21165,21162,21165
201903291110,21165,21173,21165,21172
201903291111,21172,21176,21171,21176
201903291112,21176,21177,21176,21177
201903291113,21177,21182,21176,21178
201903291114,21180,21182,21176,21181
201903291115,21181,21185,21178,21185
201903291116,21185,21186,21177,21178
201903291117,21178,21185,21177,21185
201903291118,21183,21192,21183,21191
201903291119,21191,21206,21190,21205
201903291120,21205,21212,21205,21207
201903291121,21207,21209,21206,21207
201903291122,21207,21214,21206,21214
201903291123,21213,21214,21206,21206
201903291124,21206,21212,21206,21212
201903291125,21212,21227,21211,21227
201903291126,21227,21227,21221,21221
201903291127,21221,21227,21221,21227
201903291128,21227,21236,21226,21236
201903291129,21236,21236,21226,21226
201903291130,21226,21234,21226,21232
201903291131,21232,21232,21231,21231
201903291132,21231,21235,21231,21235
201903291133,21234,21235,21225,21227
201903291134,21227,21230,21226,21226
201903291135,21226,21227,21226,21226
201903291136,21226,21231,21226,21230
201903291137,21230,21231,21226,21231
201903291138,21231,21231,21229,21231
201903291139,21231,21234,21231,21234
201903291140,21234,21234,21231,21232
201903291141,21232,21232,21221,21222
201903291142,21222,21225,21221,21222
201903291143,21222,21225,21221,21225
201903291144,21225,21232,21225,21232
201903291145,21232,21234,21226,21227
201903291146,21228,21230,21226,21226
201903291147,21224,21229,21222,21227
201903291148,21227,21227,21224,21225
201903291149,21225,21225,21221,21222
201903291150,21222,21227,21221,21226
201903291151,21226,21227,21226,21226
201903291152,21226,21227,21221,21221
201903291153,21221,21225,21221,21225
201903291154,21224,21225,21221,21223
201903291155,21223,21225,21221,21224
201903291156,21223,21224,21221,21223
201903291157,21224,21225,21221,21223
201903291158,21223,21224,21221,21222
201903291159,21222,21224,21221,21224
201903291200,21224,21225,21221,21222
201903291201,21222,21225,21221,21225
201903291202,21225,21225,21224,21225
201903291203,21225,21225,21221,21222
201903291204,21222,21222,21222,21222
201903291205,21222,21225,21221,21223
201903291206,21224,21225,21221,21223
201903291207,21223,21226,21223,21225
201903291208,21225,21226,21225,21226
201903291209,21226,21231,21226,21231
201903291210,21231,21234,21231,21232
201903291211,21232,21234,21232,21233
201903291212,21233,21234,21232,21232
201903291213,21232,21234,21231,21231
201903291214,21231,21232,21231,21231
201903291215,21231,21234,21231,21232
201903291216,21232,21232,21227,21227
201903291217,21227,21227,21226,21227
201903291218,21227,21227,21222,21222
201903291219,21222,21222,21222,21222
201903291220,21222,21226,21222,21226
201903291221,21226,21226,21211,21212
201903291222,21212,21217,21212,21215
201903291223,21215,21216,21215,21215
201903291224,21215,21219,21215,21216
201903291225,21216,21217,21214,21216
201903291226,21216,21217,21216,21217
201903291227,21217,21220,21216,21220
201903291228,21220,21221,21219,21221
201903291229,21221,21231,21221,21230
201903291230,21230,21230,21216,21222
201903291231,21222,21226,21221,21222
201903291232,21222,21222,21222,21222
201903291233,21222,21222,21221,21222
201903291234,21222,21222,21221,21222
201903291235,21222,21222,21222,21222
201903291236,21222,21222,21217,21217
201903291237,21217,21217,21215,21216
201903291238,21216,21221,21216,21217
201903291239,21217,21217,21211,21211
201903291240,21211,21211,21206,21207
201903291241,21207,21212,21207,21212
201903291242,21212,21212,21212,21212
201903291243,21212,21215,21211,21214
201903291244,21214,21214,21212,21212
201903291245,21212,21212,21206,21207
201903291246,21207,21209,21206,21207
201903291247,21207,21212,21206,21206
201903291248,21206,21208,21206,21207
201903291249,21207,21210,21206,21208
201903291250,21209,21211,21206,21210
201903291251,21210,21211,21201,21202
201903291252,21202,21206,21192,21192
201903291253,21192,21195,21185,21185
201903291254,21185,21185,21180,21180
201903291255,21180,21181,21174,21180
201903291256,21180,21180,21176,21178
201903291257,21178,21181,21178,21181
201903291258,21181,21183,21181,21182
201903291259,21182,21187,21179,21187
201903291300,21187,21187,21171,21172
201903291301,21172,21177,21172,21177
201903291302,21177,21177,21176,21177
201903291303,21177,21178,21176,21177
201903291304,21177,21177,21171,21175
201903291305,21176,21176,21175,21176
201903291306,21176,21176,21175,21176
201903291307,21176,21176,21175,21175
201903291308,21175,21176,21169,21170
201903291309,21170,21171,21168,21171
201903291310,21171,21178,21171,21177
201903291311,21177,21178,21176,21176
201903291312,21177,21177,21176,21177
201903291313,21177,21177,21177,21177
201903291314,21177,21177,21177,21177
201903291315,21177,21182,21176,21182
201903291316,21182,21182,21182,21182
201903291317,21182,21182,21182,21182
201903291318,21182,21182,21182,21182
201903291319,21182,21187,21182,21187
201903291320,21187,21187,21187,21187
201903291321,21187,21187,21187,21187
201903291322,21187,21187,21187,21187
201903291323,21187,21187,21177,21177
201903291324,21176,21176,21176,21176
201903291325,21176,21177,21176,21176
201903291326,21176,21182,21176,21181
201903291327,21181,21185,21181,21184
201903291328,21184,21185,21184,21185
201903291329,21185,21185,21181,21182
201903291330,21182,21186,21181,21185
201903291331,21185,21187,21185,21186
201903291332,21186,21191,21186,21190
201903291333,21190,21194,21190,21191
201903291334,21191,21195,21191,21191
201903291335,21191,21192,21182,21184
201903291336,21184,21184,21176,21176
201903291337,21176,21180,21176,21180
201903291338,21180,21180,21176,21179
201903291339,21179,21180,21177,21179
201903291340,21179,21181,21179,21181
201903291341,21181,21189,21181,21186
201903291342,21186,21190,21186,21189
201903291343,21189,21190,21188,21190
201903291344,21190,21194,21188,21194
201903291345,21194,21194,21191,21193
201903291346,21193,21201,21193,21201
201903291347,21201,21202,21201,21202
201903291348,21202,21204,21201,21201
201903291349,21201,21202,21196,21197
201903291350,21197,21197,21197,21197
201903291351,21197,21197,21196,21196
201903291352,21196,21197,21196,21197
201903291353,21197,21197,21197,21197
201903291354,21197,21197,21197,21197
201903291355,21197,21206,21196,21197
201903291356,21197,21197,21181,21187
201903291357,21187,21187,21186,21186
201903291358,21186,21187,21186,21186
201903291359,21186,21187,21181,21186
201903291400,21186,21190,21185,21190
201903291401,21190,21190,21186,21187
201903291402,21187,21187,21186,21186
201903291403,21186,21191,21186,21188
201903291404,21188,21190,21186,21188
201903291405,21188,21190,21188,21189
201903291406,21190,21196,21189,21196
201903291407,21196,21196,21191,21194
201903291408,21194,21194,21186,21188
201903291409,21188,21188,21186,21187
201903291410,21187,21187,21181,21181
201903291411,21181,21190,21181,21189
201903291412,21189,21190,21186,21190
201903291413,21190,21191,21186,21186
201903291414,21186,21189,21186,21186
201903291415,21186,21191,21186,21191
201903291416,21191,21194,21187,21191
201903291417,21191,21194,21189,21191
201903291418,21191,21191,21188,21190
201903291419,21190,21194,21190,21194
201903291420,21194,21194,21191,21194
201903291421,21194,21195,21191,21194
201903291422,21194,21195,21193,21194
201903291423,21194,21195,21194,21195
201903291424,21195,21195,21191,21193
201903291425,21193,21195,21191,21194
201903291426,21194,21195,21194,21195
201903291427,21195,21196,21191,21193
201903291428,21193,21194,21191,21194
201903291429,21194,21195,21193,21194
201903291430,21194,21196,21194,21195
201903291431,21195,21196,21195,21195
201903291432,21195,21196,21195,21196
201903291433,21196,21197,21195,21196
201903291434,21196,21197,21196,21197
201903291435,21197,21197,21196,21197
201903291436,21197,21198,21196,21196
201903291437,21197,21205,21196,21204
201903291438,21205,21206,21204,21205
201903291439,21205,21205,21205,21205
201903291440,21205,21206,21204,21206
201903291441,21206,21207,21205,21206
201903291442,21207,21207,21206,21207
201903291443,21207,21212,21206,21210
201903291444,21210,21210,21206,21209
201903291445,21208,21212,21206,21212
201903291446,21212,21212,21201,21201
201903291447,21201,21204,21201,21204
201903291448,21204,21205,21198,21198
201903291449,21197,21200,21196,21197
201903291450,21197,21197,21192,21195
201903291451,21195,21195,21192,21192
201903291452,21192,21192,21192,21192
201903291453,21192,21192,21184,21184
201903291454,21184,21184,21175,21175
201903291455,21175,21177,21172,21172
201903291456,21172,21176,21172,21176
201903291457,21176,21177,21172,21176
201903291458,21177,21181,21171,21172
201903291459,21172,21187,21172,21181
201903291500,21180,21202,21180,21194
201903291501,21193,21193,21188,21192
201903291502,21192,21217,21191,21217
201903291503,21217,21219,21201,21202
201903291504,21202,21205,21196,21201
201903291505,21201,21203,21201,21202
201903291506,21202,21202,21197,21202
201903291507,21202,21206,21201,21202
201903291508,21202,21203,21201,21202
201903291509,21202,21202,21191,21191
201903291510,21187,21189,21181,21181
201903291511,21181,21187,21180,21187
201903291512,21187,21187,21187,21187
201903291513,21187,21187,21180,21187
201903291514,21187,21192,21185,21189
201903291515,21189,21191,21186,21191
201903291516,21191,21191,21185,21187
201903291517,21187,21187,21185,21187
201903291518,21187,21189,21185,21188
201903291519,21188,21192,21188,21192
201903291520,21192,21197,21192,21197
201903291521,21197,21200,21194,21200
201903291522,21200,21207,21199,21204
201903291523,21204,21207,21204,21207
201903291524,21207,21208,21204,21205
201903291525,21204,21206,21202,21205
201903291526,21205,21206,21205,21206
201903291527,21206,21206,21201,21201
201903291528,21201,21201,21195,21201
201903291529,21201,21206,21200,21206
201903291530,21206,21208,21203,21203
201903291531,21203,21205,21203,21205
201903291532,21205,21206,21203,21204
201903291533,21204,21205,21200,21200
201903291534,21200,21200,21198,21200
201903291535,21200,21200,21199,21200
201903291536,21200,21200,21199,21200
201903291537,21200,21200,21196,21198
201903291538,21198,21200,21196,21198
201903291539,21198,21198,21197,21198
201903291540,21198,21198,21197,21197
201903291541,21197,21198,21197,21197
201903291542,21197,21198,21191,21193
201903291543,21193,21195,21191,21191
201903291544,21191,21191,21190,21190
201903291545,21190,21193,21190,21193
201903291546,21193,21195,21193,21195
201903291547,21195,21197,21195,21197
201903291548,21197,21198,21196,21196
201903291549,21196,21196,21193,21193
201903291550,21193,21197,21190,21197
201903291551,21197,21197,21191,21196
201903291552,21196,21198,21195,21195
201903291553,21195,21195,21194,21195
201903291554,21195,21196,21193,21195
201903291555,21203,21203,21194,21196
201903291556,21195,21197,21195,21196
201903291557,21195,21197,21195,21197
201903291558,21197,21198,21193,21197
201903291559,21197,21197,21194,21194
201903291600,21194,21194,21185,21186
201903291601,21186,21188,21185,21185
201903291602,21185,21189,21185,21189
201903291603,21189,21189,21185,21186
201903291604,21186,21186,21185,21185
201903291605,21185,21188,21185,21188
201903291606,21188,21189,21186,21189
201903291607,21189,21191,21189,21191
201903291608,21191,21205,21190,21205
201903291609,21205,21206,21203,21205
201903291610,21205,21211,21205,21211
201903291611,21211,21211,21208,21210
201903291612,21210,21211,21210,21210
201903291613,21210,21216,21210,21215
201903291614,21215,21215,21210,21210
201903291615,21210,21210,21205,21206
201903291616,21206,21209,21205,21207
201903291617,21207,21207,21205,21206
201903291618,21206,21207,21200,21200
201903291619,21200,21203,21200,21202
201903291620,21202,21202,21201,21201
201903291621,21201,21204,21200,21201
201903291622,21201,21202,21192,21196
201903291623,21196,21200,21196,21196
201903291624,21196,21201,21195,21195
201903291625,21195,21197,21195,21196
201903291626,21196,21199,21195,21198
201903291627,21198,21200,21195,21196
201903291628,21196,21202,21195,21201
201903291629,21201,21202,21197,21201
201903291630,21201,21201,21196,21200
201903291631,21200,21200,21196,21197
201903291632,21197,21197,21197,21197
201903291633,21197,21204,21196,21196
201903291634,21196,21197,21196,21197
201903291635,21197,21197,21192,21196
201903291636,21196,21198,21195,21196
201903291637,21196,21197,21192,21196
201903291638,21196,21197,21196,21197
201903291639,21197,21197,21196,21197
201903291640,21197,21197,21195,21196
201903291641,21196,21197,21192,21197
201903291642,21197,21197,21193,21196
201903291643,21196,21197,21191,21191
201903291644,21191,21195,21191,21195
201903291645,21195,21196,21188,21195
201903291646,21195,21201,21195,21200
201903291647,21200,21202,21196,21196
201903291648,21196,21202,21196,21202
201903291649,21202,21202,21201,21202
201903291650,21202,21204,21201,21202
201903291651,21202,21204,21201,21203
201903291652,21203,21204,21201,21204
201903291653,21204,21212,21204,21212
201903291654,21212,21212,21206,21211
201903291655,21211,21214,21210,21212
201903291656,21212,21212,21210,21211
201903291657,21211,21213,21211,21212
201903291658,21212,21212,21211,21212
201903291659,21212,21214,21206,21206
201903291700,21206,21214,21206,21211
201903291701,21211,21232,21211,21231
201903291702,21231,21237,21231,21232
201903291703,21232,21232,21222,21222
201903291704,21221,21225,21220,21223
201903291705,21223,21223,21217,21218
201903291706,21218,21222,21216,21220
201903291707,21220,21221,21216,21221
201903291708,21221,21227,21221,21227
201903291709,21227,21232,21227,21230
201903291710,21230,21230,21226,21227
201903291711,21226,21228,21221,21222
201903291712,21222,21223,21221,21222
201903291713,21222,21226,21221,21226
201903291714,21225,21227,21225,21227
201903291715,21227,21227,21211,21217
201903291716,21217,21219,21211,21212
201903291717,21212,21212,21208,21209
201903291718,21208,21216,21208,21216
201903291719,21216,21216,21211,21216
201903291720,21216,21221,21212,21221
201903291721,21221,21224,21221,21222
201903291722,21222,21226,21221,21224
201903291723,21224,21226,21221,21226
201903291724,21225,21231,21225,21226
201903291725,21226,21230,21226,21230
201903291726,21230,21230,21226,21227
201903291727,21227,21227,21227,21227
201903291728,21227,21227,21225,21227
201903291729,21227,21229,21221,21222
201903291730,21222,21230,21222,21226
201903291731,21226,21227,21226,21227
201903291732,21227,21230,21226,21230
201903291733,21230,21231,21226,21227
201903291734,21226,21230,21226,21227
201903291735,21227,21229,21226,21227
201903291736,21227,21230,21226,21228
201903291737,21228,21232,21228,21231
201903291738,21231,21233,21226,21228
201903291739,21226,21228,21221,21222
201903291740,21222,21222,21216,21222
201903291741,21222,21226,21221,21226
201903291742,21226,21226,21221,21222
201903291743,21222,21222,21221,21222
201903291744,21222,21226,21221,21224
201903291745,21224,21226,21221,21222
201903291746,21222,21223,21221,21222
201903291747,21222,21227,21221,21226
201903291748,21226,21227,21226,21226
201903291749,21226,21231,21226,21231
201903291750,21231,21234,21229,21231
201903291751,21231,21232,21227,21229
201903291752,21229,21230,21226,21229
201903291753,21229,21230,21226,21228
201903291754,21228,21228,21227,21227
201903291755,21227,21227,21221,21226
201903291756,21227,21227,21216,21217
201903291757,21217,21218,21212,21218
201903291758,21218,21218,21211,21213
201903291759,21213,21213,21206,21207
201903291800,21207,21215,21207,21212
201903291801,21212,21213,21211,21212
201903291802,21212,21216,21212,21216
201903291803,21216,21222,21214,21220
201903291804,21220,21220,21216,21218
201903291805,21218,21222,21216,21222
201903291806,21222,21222,21216,21217
201903291807,21217,21217,21211,21217
201903291808,21216,21216,21211,21214
201903291809,21214,21215,21210,21211
201903291810,21211,21212,21196,21197
201903291811,21197,21205,21197,21204
201903291812,21204,21204,21201,21201
201903291813,21201,21204,21201,21202
201903291814,21202,21202,21197,21197
201903291815,21197,21197,21196,21197
201903291816,21197,21197,21196,21197
201903291817,21197,21199,21196,21197
201903291818,21197,21201,21196,21197
201903291819,21197,21204,21196,21202
201903291820,21202,21203,21201,21202
201903291821,21202,21212,21201,21208
201903291822,21208,21210,21206,21207
201903291823,21207,21210,21206,21210
201903291824,21210,21213,21208,21212
201903291825,21212,21212,21206,21206
201903291826,21206,21206,21202,21202
201903291827,21201,21206,21201,21206
201903291828,21206,21206,21205,21206
201903291829,21206,21210,21206,21208
201903291830,21208,21208,21206,21207
201903291831,21207,21208,21206,21206
201903291832,21207,21207,21202,21205
201903291833,21205,21207,21201,21207
201903291834,21207,21216,21207,21214
201903291835,21214,21215,21206,21207
201903291836,21207,21211,21206,21211
201903291837,21211,21215,21208,21214
201903291838,21214,21216,21212,21214
201903291839,21214,21216,21211,21211
201903291840,21211,21213,21201,21203
201903291841,21201,21208,21201,21206
201903291842,21208,21210,21206,21210
201903291843,21210,21212,21210,21211
201903291844,21211,21212,21206,21207
201903291845,21207,21210,21206,21207
201903291846,21207,21212,21206,21211
201903291847,21211,21214,21210,21214
201903291848,21214,21222,21213,21221
201903291849,21221,21221,21221,21221
201903291850,21221,21221,21218,21220
201903291851,21220,21222,21220,21221
201903291852,21221,21225,21221,21222
201903291853,21222,21224,21221,21221
201903291854,21221,21222,21216,21221
201903291855,21221,21221,21216,21217
201903291856,21217,21217,21211,21212
201903291857,21212,21217,21211,21217
201903291858,21217,21217,21211,21211
201903291859,21212,21215,21211,21212
201903291900,21212,21213,21209,21212
201903291901,21212,21213,21212,21213
201903291902,21213,21214,21206,21210
201903291903,21210,21212,21208,21212
201903291904,21212,21212,21211,21212
201903291905,21212,21215,21211,21212
201903291906,21212,21212,21208,21208
201903291907,21208,21210,21196,21200
201903291908,21200,21205,21196,21199
201903291909,21200,21202,21196,21197
201903291910,21197,21197,21182,21184
201903291911,21184,21190,21181,21187
201903291912,21187,21190,21186,21187
201903291913,21187,21190,21186,21188
201903291914,21188,21189,21185,21187
201903291915,21187,21187,21182,21183
201903291916,21184,21186,21181,21182
201903291917,21182,21182,21177,21180
201903291918,21181,21181,21166,21166
201903291919,21166,21166,21162,21165
201903291920,21165,21172,21163,21166
201903291921,21166,21167,21161,21167
201903291922,21167,21167,21156,21157
201903291923,21157,21161,21156,21161
201903291924,21161,21161,21156,21160
201903291925,21160,21161,21158,21161
201903291926,21161,21161,21156,21160
201903291927,21160,21162,21158,21162
201903291928,21162,21164,21158,21160
201903291929,21160,21162,21156,21162
201903291930,21162,21163,21161,21162
201903291931,21162,21166,21161,21162
201903291932,21162,21163,21161,21162
201903291933,21162,21162,21158,21162
201903291934,21162,21162,21161,21161
201903291935,21161,21162,21161,21161
201903291936,21161,21162,21161,21162
201903291937,21162,21164,21161,21163
201903291938,21163,21167,21163,21167
201903291939,21167,21172,21167,21172
201903291940,21171,21173,21171,21172
201903291941,21172,21172,21171,21172
201903291942,21172,21177,21171,21177
201903291943,21177,21177,21176,21177
201903291944,21177,21177,21176,21177
201903291945,21177,21177,21171,21171
201903291946,21171,21172,21171,21172
201903291947,21172,21172,21171,21172
201903291948,21172,21185,21172,21185
201903291949,21185,21196,21185,21193
201903291950,21193,21195,21191,21192
201903291951,21192,21192,21187,21190
201903291952,21190,21192,21188,21191
201903291953,21191,21191,21187,21191
201903291954,21191,21191,21190,21191
201903291955,21191,21192,21190,21192
201903291956,21192,21192,21191,21192
201903291957,21192,21192,21190,21190
201903291958,21190,21190,21190,21190
201903291959,21190,21191,21190,21190
201903292000,21191,21195,21191,21192
201903292001,21192,21195,21191,21195
201903292002,21195,21197,21195,21197
201903292003,21197,21201,21197,21201
201903292004,21201,21207,21200,21202
201903292005,21202,21204,21198,21201
201903292006,21201,21202,21201,21202
201903292007,21201,21205,21201,21203
201903292008,21203,21209,21203,21209
201903292009,21208,21211,21206,21207
201903292010,21207,21219,21206,21217
201903292011,21217,21218,21216,21216
201903292012,21216,21219,21216,21218
201903292013,21218,21219,21216,21217
201903292014,21217,21224,21216,21224
201903292015,21224,21225,21223,21225
201903292016,21225,21229,21225,21227
201903292017,21227,21230,21226,21227
201903292018,21227,21234,21227,21233
201903292019,21233,21237,21231,21233
201903292020,21233,21236,21226,21229
201903292021,21229,21230,21226,21227
201903292022,21227,21231,21225,21228
201903292023,21230,21232,21229,21231
201903292024,21231,21234,21228,21233
201903292025,21234,21234,21231,21234
201903292026,21234,21234,21231,21232
201903292027,21232,21232,21231,21232
201903292028,21232,21232,21224,21226
201903292029,21226,21226,21220,21224
201903292030,21224,21225,21221,21224
201903292031,21225,21225,21223,21225
201903292032,21225,21226,21225,21226
201903292033,21226,21226,21221,21222
201903292034,21222,21222,21220,21220
201903292035,21220,21221,21216,21216
201903292036,21217,21221,21216,21221
201903292037,21221,21225,21221,21225
201903292038,21225,21226,21221,21224
201903292039,21224,21225,21221,21222
201903292040,21222,21222,21218,21219
201903292041,21219,21221,21216,21220
201903292042,21220,21222,21220,21221
201903292043,21221,21221,21216,21217
201903292044,21217,21219,21216,21219
201903292045,21219,21219,21216,21218
201903292046,21218,21220,21216,21220
201903292047,21220,21221,21220,21221
201903292048,21221,21221,21220,21220
201903292049,21220,21220,21219,21220
201903292050,21220,21226,21220,21226
201903292051,21226,21226,21220,21220
201903292052,21220,21222,21218,21221
201903292053,21221,21222,21221,21222
201903292054,21222,21225,21219,21225
201903292055,21225,21226,21223,21224
201903292056,21224,21224,21221,21222
201903292057,21222,21222,21213,21216
201903292058,21216,21220,21215,21220
201903292059,21220,21225,21220,21221
201903292100,21222,21224,21221,21223
201903292101,21223,21226,21221,21226
201903292102,21226,21226,21226,21226
201903292103,21226,21226,21223,21224
201903292104,21224,21230,21224,21230
201903292105,21230,21232,21230,21231
201903292106,21231,21231,21228,21228
201903292107,21228,21230,21226,21228
201903292108,21228,21228,21226,21227
201903292109,21227,21227,21227,21227
201903292110,21227,21227,21227,21227
201903292111,21227,21227,21226,21226
201903292112,21226,21227,21226,21226
201903292113,21226,21226,21221,21223
201903292114,21223,21224,21216,21217
201903292115,21216,21218,21216,21216
201903292116,21216,21216,21215,21215
201903292117,21215,21216,21211,21212
201903292118,21212,21212,21212,21212
201903292119,21212,21216,21211,21212
201903292120,21212,21216,21211,21212
201903292121,21211,21212,21211,21212
201903292122,21212,21215,21212,21215
201903292123,21215,21216,21213,21216
201903292124,21216,21217,21216,21216
201903292125,21216,21218,21216,21217
201903292126,21217,21218,21216,21216
201903292127,21216,21218,21216,21216
201903292128,21216,21221,21216,21217
201903292129,21217,21221,21216,21217
201903292130,21217,21218,21207,21209
201903292131,21209,21209,21201,21202
201903292132,21202,21211,21201,21206
201903292133,21206,21212,21206,21212
201903292134,21212,21221,21211,21221
201903292135,21221,21222,21221,21221
201903292136,21221,21226,21221,21222
201903292137,21222,21224,21221,21222
201903292138,21221,21226,21221,21226
201903292139,21226,21226,21221,21225
201903292140,21225,21225,21221,21222
201903292141,21222,21225,21222,21225
201903292142,21225,21229,21225,21227
201903292143,21227,21229,21225,21227
201903292144,21227,21227,21227,21227
201903292145,21227,21230,21226,21230
201903292146,21230,21234,21229,21232
201903292147,21232,21233,21231,21232
201903292148,21232,21232,21232,21232
201903292149,21232,21235,21231,21232
201903292150,21232,21232,21232,21232
201903292151,21232,21232,21232,21232
201903292152,21232,21234,21226,21234
201903292153,21234,21235,21230,21234
201903292154,21234,21234,21223,21226
201903292155,21226,21230,21226,21230
201903292156,21230,21232,21226,21232
201903292157,21232,21232,21231,21231
201903292158,21231,21233,21231,21232
201903292159,21232,21232,21232,21232
201903292200,21232,21234,21230,21231
201903292201,21231,21240,21231,21237
201903292202,21238,21246,21237,21242
201903292203,21242,21245,21241,21245
201903292204,21245,21246,21245,21246
201903292205,21246,21246,21241,21244
201903292206,21244,21244,21241,21242
201903292207,21242,21242,21231,21234
201903292208,21233,21236,21233,21236
201903292209,21236,21241,21236,21241
201903292210,21241,21242,21241,21242
201903292211,21242,21242,21237,21237
201903292212,21237,21239,21236,21237
201903292213,21237,21242,21236,21241
201903292214,21241,21242,21238,21240
201903292215,21240,21241,21240,21241
201903292216,21241,21245,21241,21245
201903292217,21245,21250,21245,21249
201903292218,21249,21251,21249,21251
201903292219,21251,21254,21251,21252
201903292220,21252,21255,21251,21255
201903292221,21254,21254,21251,21252
201903292222,21252,21254,21251,21252
201903292223,21252,21252,21252,21252
201903292224,21252,21254,21251,21251
201903292225,21251,21252,21247,21247
201903292226,21247,21252,21247,21252
201903292227,21252,21254,21251,21252
201903292228,21252,21252,21251,21252
201903292229,21252,21255,21251,21252
201903292230,21252,21258,21241,21247
201903292231,21246,21252,21246,21247
201903292232,21247,21249,21241,21243
201903292233,21244,21246,21236,21239
201903292234,21238,21238,21232,21237
201903292235,21237,21238,21231,21232
201903292236,21232,21238,21232,21236
201903292237,21236,21237,21236,21237
201903292238,21237,21237,21236,21237
201903292239,21237,21237,21227,21227
201903292240,21227,21232,21226,21228
201903292241,21228,21233,21228,21228
201903292242,21228,21233,21226,21231
201903292243,21231,21237,21231,21236
201903292244,21236,21236,21227,21231
201903292245,21231,21240,21230,21237
201903292246,21237,21242,21221,21222
201903292247,21223,21228,21221,21222
201903292248,21222,21230,21221,21229
201903292249,21229,21232,21221,21222
201903292250,21221,21222,21216,21219
201903292251,21220,21226,21218,21225
201903292252,21225,21225,21218,21221
201903292253,21221,21229,21221,21229
201903292254,21229,21235,21229,21234
201903292255,21235,21235,21234,21235
201903292256,21235,21245,21232,21244
201903292257,21244,21244,21226,21227
201903292258,21228,21234,21226,21231
201903292259,21231,21236,21231,21232
201903292300,21232,21245,21232,21240
201903292301,21240,21244,21238,21240
201903292302,21240,21251,21236,21251
201903292303,21251,21255,21243,21251
201903292304,21251,21255,21251,21253
201903292305,21253,21254,21251,21254
201903292306,21254,21254,21236,21239
201903292307,21238,21248,21238,21248
201903292308,21250,21253,21246,21247
201903292309,21247,21255,21247,21255
201903292310,21255,21255,21250,21252
201903292311,21252,21252,21244,21247
201903292312,21246,21251,21242,21250
201903292313,21250,21251,21246,21249
201903292314,21249,21250,21246,21248
201903292315,21248,21250,21241,21242
201903292316,21243,21248,21242,21248
201903292317,21247,21253,21246,21249
201903292318,21248,21251,21246,21247
201903292319,21247,21254,21247,21252
201903292320,21252,21254,21246,21246
201903292321,21246,21248,21242,21243
201903292322,21243,21244,21236,21236
201903292323,21236,21241,21231,21232
201903292324,21232,21238,21231,21237
201903292325,21237,21246,21236,21246
201903292326,21246,21251,21241,21241
201903292327,21241,21249,21241,21249
201903292328,21249,21254,21246,21247
201903292329,21247,21252,21246,21252
201903292330,21252,21254,21246,21247
201903292331,21247,21254,21247,21253
201903292332,21253,21254,21246,21247
201903292333,21247,21250,21243,21250
201903292334,21250,21254,21246,21247
201903292335,21247,21249,21243,21248
201903292336,21248,21249,21236,21237
201903292337,21237,21239,21232,21238
201903292338,21238,21245,21238,21244
201903292339,21244,21247,21238,21240
201903292340,21240,21247,21237,21242
201903292341,21242,21242,21227,21227
201903292342,21227,21233,21221,21228
201903292343,21227,21235,21226,21226
201903292344,21226,21228,21206,21207
201903292345,21207,21221,21202,21216
201903292346,21217,21220,21212,21220
201903292347,21219,21221,21216,21221
201903292348,21221,21221,21216,21218
201903292349,21220,21220,21208,21211
201903292350,21212,21212,21203,21205
201903292351,21206,21214,21205,21213
201903292352,21212,21213,21204,21206
201903292353,21206,21208,21201,21204
201903292354,21203,21204,21197,21201
201903292355,21201,21211,21198,21211
201903292356,21211,21214,21208,21208
201903292357,21209,21210,21206,21209
201903292358,21209,21217,21206,21216
201903292359,21216,21223,21216,21221
201903300000,21222,21232,21221,21229
201903300001,21229,21233,21226,21232
201903300002,21232,21235,21228,21231
201903300003,21231,21244,21231,21244
201903300004,21244,21244,21236,21237
201903300005,21237,21238,21233,21236
201903300006,21236,21238,21236,21236
201903300007,21236,21244,21236,21244
201903300008,21244,21245,21241,21242
201903300009,21242,21244,21237,21242
201903300010,21242,21242,21237,21237
201903300011,21238,21244,21236,21242
201903300012,21242,21243,21237,21239
201903300013,21238,21238,21236,21237
201903300014,21237,21239,21236,21236
201903300015,21236,21240,21236,21240
201903300016,21240,21244,21236,21243
201903300017,21244,21251,21244,21246
201903300018,21246,21248,21241,21244
201903300019,21243,21247,21243,21245
201903300020,21245,21245,21236,21237
201903300021,21237,21242,21236,21242
201903300022,21242,21245,21241,21242
201903300023,21242,21244,21241,21243
201903300024,21243,21249,21242,21246
201903300025,21246,21249,21246,21247
201903300026,21247,21254,21246,21254
201903300027,21254,21254,21246,21247
201903300028,21247,21251,21246,21250
201903300029,21250,21254,21250,21254
201903300030,21254,21255,21251,21253
201903300031,21254,21260,21251,21252
201903300032,21252,21256,21251,21256
201903300033,21256,21257,21251,21255
201903300034,21254,21259,21254,21259
201903300035,21259,21260,21251,21253
201903300036,21253,21256,21253,21254
201903300037,21254,21262,21253,21262
201903300038,21262,21265,21261,21262
201903300039,21262,21262,21256,21258
201903300040,21259,21261,21255,21255
201903300041,21255,21256,21251,21252
201903300042,21252,21254,21247,21252
201903300043,21252,21256,21251,21251
201903300044,21251,21252,21247,21250
201903300045,21250,21250,21248,21250
201903300046,21250,21250,21243,21244
201903300047,21244,21254,21244,21254
201903300048,21253,21255,21251,21255
201903300049,21255,21256,21251,21251
201903300050,21251,21254,21246,21246
201903300051,21246,21254,21246,21253
201903300052,21253,21254,21251,21254
201903300053,21253,21254,21247,21248
201903300054,21248,21248,21246,21246
201903300055,21246,21247,21243,21244
201903300056,21244,21247,21242,21242
201903300057,21242,21242,21237,21240
201903300058,21240,21241,21236,21237
201903300059,21237,21237,21231,21234
201903300100,21234,21236,21226,21227
201903300101,21227,21227,21221,21223
201903300102,21223,21227,21221,21227
201903300103,21227,21233,21227,21231
201903300104,21231,21232,21226,21227
201903300105,21227,21232,21226,21230
201903300106,21228,21231,21226,21231
201903300107,21231,21232,21226,21226
201903300108,21226,21229,21223,21223
201903300109,21223,21231,21222,21227
201903300110,21226,21228,21225,21228
201903300111,21228,21232,21226,21227
201903300112,21228,21228,21226,21227
201903300113,21227,21232,21226,21232
201903300114,21232,21234,21221,21223
201903300115,21223,21227,21221,21226
201903300116,21226,21230,21226,21229
201903300117,21229,21232,21225,21226
201903300118,21226,21231,21226,21231
201903300119,21231,21234,21230,21232
201903300120,21233,21236,21233,21236
201903300121,21236,21237,21231,21236
201903300122,21236,21239,21236,21238
201903300123,21238,21239,21236,21236
201903300124,21236,21238,21236,21237
201903300125,21237,21239,21236,21237
201903300126,21237,21238,21235,21237
201903300127,21238,21239,21236,21236
201903300128,21236,21239,21236,21238
201903300129,21238,21241,21233,21233
201903300130,21233,21237,21231,21234
201903300131,21234,21239,21231,21239
201903300132,21239,21242,21238,21242
201903300133,21242,21245,21242,21245
201903300134,21244,21245,21240,21244
201903300135,21244,21245,21240,21245
201903300136,21245,21250,21244,21249
201903300137,21249,21254,21248,21254
201903300138,21254,21254,21251,21252
201903300139,21252,21252,21246,21248
201903300140,21248,21250,21241,21241
201903300141,21243,21243,21237,21238
201903300142,21238,21239,21236,21239
201903300143,21239,21241,21236,21237
201903300144,21237,21237,21235,21237
201903300145,21237,21242,21236,21238
201903300146,21238,21240,21236,21237
201903300147,21237,21238,21236,21236
201903300148,21238,21242,21237,21241
201903300149,21241,21242,21240,21241
201903300150,21241,21245,21236,21236
201903300151,21237,21238,21236,21237
201903300152,21237,21237,21231,21236
201903300153,21236,21242,21236,21239
201903300154,21239,21241,21238,21241
201903300155,21241,21244,21237,21243
201903300156,21243,21244,21241,21243
201903300157,21242,21244,21241,21244
201903300158,21243,21250,21243,21249
201903300159,21249,21250,21246,21250
201903300200,21252,21254,21249,21252
201903300201,21252,21252,21245,21252
201903300202,21252,21254,21250,21252
201903300203,21252,21252,21250,21252
201903300204,21252,21253,21246,21251
201903300205,21251,21252,21246,21252
201903300206,21252,21252,21245,21247
201903300207,21245,21251,21245,21245
201903300208,21245,21250,21245,21247
201903300209,21247,21247,21245,21246
201903300210,21246,21247,21245,21247
201903300211,21247,21247,21241,21246
201903300212,21246,21252,21245,21250
201903300213,21250,21252,21247,21252
201903300214,21252,21252,21245,21247
201903300215,21247,21247,21240,21241
201903300216,21241,21242,21240,21241
201903300217,21241,21244,21240,21242
201903300218,21242,21246,21241,21246
201903300219,21246,21247,21240,21242
201903300220,21242,21242,21234,21234
201903300221,21231,21245,21231,21242
201903300222,21242,21247,21242,21247
201903300223,21247,21247,21242,21247
201903300224,21247,21247,21241,21241
201903300225,21241,21242,21240,21240
201903300226,21240,21245,21240,21242
201903300227,21242,21242,21240,21241
201903300228,21241,21242,21236,21240
201903300229,21240,21244,21240,21241
201903300230,21241,21242,21239,21242
201903300231,21242,21242,21237,21237
201903300232,21237,21239,21233,21234
201903300233,21234,21237,21231,21232
201903300234,21232,21237,21231,21232
201903300235,21232,21237,21231,21231
201903300236,21231,21232,21230,21232
201903300237,21232,21232,21226,21227
201903300238,21227,21227,21225,21226
201903300239,21226,21232,21225,21232
201903300240,21232,21232,21226,21232
201903300241,21232,21235,21231,21234
201903300242,21234,21237,21234,21236
201903300243,21236,21237,21235,21236
201903300244,21237,21242,21236,21242
201903300245,21242,21242,21235,21237
201903300246,21237,21237,21225,21232
201903300247,21232,21232,21227,21227
201903300248,21227,21231,21226,21227
201903300249,21227,21232,21225,21231
201903300250,21231,21232,21226,21226
201903300251,21226,21231,21225,21225
201903300252,21225,21232,21225,21229
201903300253,21229,21232,21229,21231
201903300254,21231,21232,21231,21231
201903300255,21231,21232,21226,21227
201903300256,21227,21227,21225,21225
201903300257,21225,21227,21225,21227
201903300258,21227,21227,21227,21227
201903300259,21227,21227,21226,21227
201903300300,21227,21229,21223,21226
201903300301,21226,21231,21225,21231
201903300302,21231,21232,21226,21231
201903300303,21231,21232,21230,21231
201903300304,21231,21236,21231,21235
201903300305,21235,21236,21233,21234
201903300306,21234,21236,21233,21236
201903300307,21236,21236,21230,21235
201903300308,21235,21237,21233,21233
201903300309,21233,21235,21233,21234
201903300310,21234,21237,21230,21232
201903300311,21232,21237,21232,21236
201903300312,21236,21236,21236,21236
201903300313,21236,21237,21233,21236
201903300314,21236,21242,21235,21241
201903300315,21241,21242,21241,21242
201903300316,21242,21242,21235,21235
201903300317,21235,21237,21235,21237
201903300318,21237,21237,21235,21237
201903300319,21237,21237,21231,21231
201903300320,21231,21237,21231,21233
201903300321,21233,21236,21230,21236
201903300322,21236,21237,21230,21233
201903300323,21233,21237,21230,21236
201903300324,21236,21237,21235,21237
201903300325,21237,21237,21235,21237
201903300326,21237,21239,21235,21237
201903300327,21237,21237,21235,21237
201903300328,21237,21242,21235,21242
201903300329,21242,21242,21239,21239
201903300330,21239,21242,21235,21242
201903300331,21242,21242,21241,21242
201903300332,21242,21242,21242,21242
201903300333,21242,21242,21241,21242
201903300334,21242,21242,21237,21237
201903300335,21237,21239,21235,21237
201903300336,21237,21237,21237,21237
201903300337,21237,21237,21237,21237
201903300338,21237,21237,21237,21237
201903300339,21237,21237,21234,21237
201903300340,21236,21237,21231,21231
201903300341,21231,21232,21220,21230
201903300342,21230,21232,21226,21227
201903300343,21227,21232,21226,21232
201903300344,21232,21232,21225,21226
201903300345,21226,21231,21225,21228
201903300346,21228,21228,21226,21227
201903300347,21227,21232,21227,21231
201903300348,21231,21232,21230,21231
201903300349,21231,21237,21231,21237
201903300350,21237,21237,21233,21233
201903300351,21233,21242,21233,21242
201903300352,21242,21247,21242,21245
201903300353,21245,21255,21244,21254
201903300354,21254,21257,21251,21257
201903300355,21257,21257,21251,21252
201903300356,21252,21252,21249,21249
201903300357,21249,21249,21244,21244
201903300358,21244,21247,21243,21247
201903300359,21247,21247,21244,21247
201903300400,21247,21252,21246,21252
201903300401,21252,21257,21250,21256
201903300402,21256,21257,21251,21252
201903300403,21252,21252,21251,21251
201903300404,21251,21252,21245,21246
201903300405,21246,21247,21240,21241
201903300406,21241,21241,21236,21237
201903300407,21237,21242,21235,21240
201903300408,21240,21242,21240,21242
201903300409,21242,21242,21236,21240
201903300410,21240,21242,21240,21242
201903300411,21242,21242,21235,21236
201903300412,21236,21237,21230,21230
201903300413,21230,21231,21229,21229
201903300414,21229,21230,21225,21227
201903300415,21227,21227,21224,21226
201903300416,21226,21232,21225,21232
201903300417,21232,21237,21230,21236
201903300418,21237,21237,21231,21232
201903300419,21232,21232,21229,21231
201903300420,21231,21231,21225,21226
201903300421,21226,21231,21226,21228
201903300422,21228,21232,21226,21227
201903300423,21227,21227,21225,21227
201903300424,21227,21227,21226,21226
201903300425,21226,21226,21220,21220
201903300426,21220,21227,21220,21225
201903300427,21225,21227,21224,21227
201903300428,21227,21227,21220,21226
201903300429,21226,21226,21220,21225
201903300430,21225,21227,21216,21217
201903300431,21217,21225,21216,21225
201903300432,21225,21225,21215,21221
201903300433,21221,21222,21215,21221
201903300434,21221,21227,21220,21227
201903300435,21227,21227,21224,21224
201903300436,21224,21227,21218,21219
201903300437,21219,21222,21216,21222
201903300438,21222,21222,21220,21221
201903300439,21221,21227,21220,21227
201903300440,21227,21227,21225,21227
201903300441,21227,21227,21224,21225
201903300442,21225,21227,21220,21221
201903300443,21221,21224,21220,21221
201903300444,21221,21222,21217,21220
201903300445,21220,21227,21220,21227
201903300446,21227,21228,21225,21227
201903300447,21227,21230,21226,21226
201903300448,21226,21226,21216,21221
201903300449,21221,21227,21220,21222
201903300450,21222,21222,21218,21222
201903300451,21222,21231,21222,21231
201903300452,21231,21237,21230,21236
201903300453,21236,21241,21230,21241
201903300454,21241,21242,21225,21235
201903300455,21235,21242,21235,21239
201903300456,21239,21244,21238,21244
201903300457,21244,21267,21244,21267
201903300458,21267,21275,21261,21265
201903300459,21265,21272,21265,21272
201903300500,21271,21271,21262,21266
201903300501,21266,21272,21265,21267
201903300502,21267,21267,21266,21267
201903300503,21267,21267,21266,21267
201903300504,21267,21267,21265,21267
201903300505,21267,21267,21264,21265
201903300506,21265,21267,21265,21267
201903300507,21267,21267,21264,21265
201903300508,21265,21266,21265,21266
201903300509,21265,21267,21265,21265
201903300510,21265,21267,21260,21261
201903300511,21261,21261,21255,21256
201903300512,21256,21264,21255,21260
201903300513,21260,21261,21255,21258
201903300514,21258,21266,21256,21261
201903300515,21261,21262,21260,21260
201903300516,21260,21271,21260,21271
201903300517,21271,21271,21271,21271
201903300518,21271,21276,21270,21276
201903300519,21276,21276,21275,21276
201903300520,21276,21277,21276,21277
201903300521,21277,21279,21277,21277
201903300522,21277,21278,21276,21278
201903300523,21278,21285,21278,21285
201903300524,21285,21288,21283,21283
201903300525,21283,21289,21276,21280
201903300526,21280,21285,21280,21285
201903300527,21285,21289,21285,21288
201903300528,21288,21288,21288,21288
201903300529,21288,21296,21288,21296
201903300530,21296,21296,21292,21295
201903300531,21295,21296,21292,21296
201903300532,21296,21296,21295,21295
201903300533,21295,21295,21295,21295
201903300534,21295,21296,21295,21295
201903300535,21295,21295,21295,21295
201903300536,21295,21297,21290,21290
201903300537,21290,21290,21290,21290
201903300538,21290,21290,21290,21290
201903300539,21290,21292,21290,21292
201903300540,21292,21292,21292,21292
201903300541,21292,21292,21292,21292
201903300542,21292,21293,21292,21293
201903300543,21293,21293,21293,21293
201903300544,21293,21297,21293,21296
201903300545,21296,21296,21294,21294
201903300546,21294,21294,21294,21294
201903300547,21294,21294,21294,21294
201903300548,21294,21294,21294,21294
201903300549,21294,21295,21294,21295
201903300550,21295,21295,21295,21295
201903300551,21295,21295,21295,21295
201903300552,21295,21295,21295,21295
201903300553,21295,21295,21295,21295
201903300554,21295,21295,21294,21295
201903300555,21295,21295,21294,21294
201903300556,21294,21295,21292,21292
201903300557,21292,21295,21292,21295
201903300558,21295,21300,21295,21295
201903300559,21296,21300,21295,21295
