日時,始値(BID),高値(BID),安値(BID),終値(BID)
201903250830,20985,21002,20983,20994
201903250831,20994,21007,20994,21001
201903250832,21001,21017,21001,21016
201903250833,21016,21026,21016,21026
201903250834,21026,21042,21025,21042
201903250835,21042,21044,21038,21044
201903250836,21044,21044,21022,21022
201903250837,21022,21025,21014,21017
201903250838,21017,21023,21015,21022
201903250839,21022,21028,21006,21007
201903250840,21007,21017,21007,21016
201903250841,21016,21025,21016,21025
201903250842,21025,21025,21005,21005
201903250843,21006,21006,20991,20992
201903250844,20992,20998,20990,20990
201903250845,20995,20995,20986,20988
201903250846,20987,20992,20987,20991
201903250847,20991,20992,20985,20990
201903250848,20990,20992,20986,20987
201903250849,20987,20991,20986,20991
201903250850,20991,20991,20981,20981
201903250851,20981,20982,20981,20982
201903250852,20982,20994,20982,20994
201903250853,20994,20995,20991,20995
201903250854,20995,20995,20991,20992
201903250855,20992,20994,20991,20994
201903250856,20994,20994,20991,20991
201903250857,20991,20994,20991,20993
201903250858,20993,20995,20986,20987
201903250859,20987,21007,20986,20991
201903250900,20989,21017,20987,21012
201903250901,21012,21012,20962,20965
201903250902,20965,20965,20940,20955
201903250903,20955,20955,20930,20930
201903250904,20931,20942,20930,20936
201903250905,20936,20937,20901,20904
201903250906,20904,20905,20891,20891
201903250907,20891,20892,20878,20882
201903250908,20882,20887,20881,20887
201903250909,20887,20887,20860,20872
201903250910,20872,20875,20866,20875
201903250911,20875,20877,20872,20876
201903250912,20876,20877,20871,20876
201903250913,20876,20882,20871,20875
201903250914,20875,20877,20861,20867
201903250915,20866,20871,20859,20866
201903250916,20866,20867,20849,20865
201903250917,20864,20875,20863,20866
201903250918,20866,20867,20856,20856
201903250919,20856,20866,20853,20861
201903250920,20861,20876,20861,20866
201903250921,20866,20866,20856,20857
201903250922,20857,20865,20856,20856
201903250923,20856,20862,20854,20856
201903250924,20856,20856,20846,20846
201903250925,20846,20847,20839,20845
201903250926,20845,20845,20838,20845
201903250927,20844,20847,20841,20846
201903250928,20847,20847,20841,20845
201903250929,20845,20852,20841,20842
201903250930,20842,20852,20837,20851
201903250931,20851,20852,20837,20837
201903250932,20837,20837,20832,20832
201903250933,20831,20831,20827,20830
201903250934,20830,20842,20830,20840
201903250935,20840,20840,20831,20831
201903250936,20830,20834,20830,20832
201903250937,20832,20836,20812,20812
201903250938,20812,20821,20811,20812
201903250939,20812,20815,20802,20806
201903250940,20806,20826,20806,20825
201903250941,20825,20827,20811,20811
201903250942,20811,20822,20811,20816
201903250943,20816,20821,20802,20802
201903250944,20802,20815,20800,20815
201903250945,20815,20815,20801,20803
201903250946,20805,20806,20791,20806
201903250947,20806,20807,20801,20801
201903250948,20801,20812,20801,20812
201903250949,20812,20812,20793,20796
201903250950,20796,20797,20786,20790
201903250951,20789,20807,20789,20801
201903250952,20803,20811,20791,20796
201903250953,20796,20797,20782,20787
201903250954,20787,20800,20787,20797
201903250955,20796,20797,20786,20786
201903250956,20787,20792,20776,20777
201903250957,20772,20792,20772,20780
201903250958,20780,20781,20761,20763
201903250959,20761,20767,20746,20750
201903251000,20750,20757,20746,20752
201903251001,20752,20755,20742,20743
201903251002,20743,20745,20736,20744
201903251003,20745,20756,20741,20752
201903251004,20752,20755,20743,20755
201903251005,20754,20756,20751,20755
201903251006,20755,20756,20748,20755
201903251007,20755,20757,20751,20756
201903251008,20755,20759,20755,20757
201903251009,20757,20760,20751,20753
201903251010,20753,20758,20753,20756
201903251011,20757,20757,20751,20755
201903251012,20756,20760,20754,20757
201903251013,20757,20757,20751,20756
201903251014,20756,20760,20754,20756
201903251015,20756,20762,20751,20762
201903251016,20762,20762,20751,20756
201903251017,20756,20761,20753,20760
201903251018,20760,20761,20756,20757
201903251019,20757,20757,20756,20757
201903251020,20757,20758,20751,20755
201903251021,20754,20754,20740,20741
201903251022,20741,20747,20740,20744
201903251023,20744,20762,20743,20762
201903251024,20762,20766,20751,20757
201903251025,20757,20762,20751,20762
201903251026,20762,20770,20760,20762
201903251027,20762,20763,20751,20757
201903251028,20757,20757,20751,20757
201903251029,20757,20759,20752,20756
201903251030,20756,20763,20751,20753
201903251031,20754,20767,20754,20766
201903251032,20766,20766,20751,20756
201903251033,20756,20756,20739,20746
201903251034,20746,20754,20741,20751
201903251035,20751,20752,20741,20747
201903251036,20747,20754,20746,20747
201903251037,20747,20747,20730,20732
201903251038,20732,20741,20727,20738
201903251039,20738,20739,20722,20724
201903251040,20724,20735,20723,20730
201903251041,20730,20735,20726,20734
201903251042,20734,20746,20731,20744
201903251043,20745,20755,20743,20752
201903251044,20752,20760,20751,20760
201903251045,20760,20761,20736,20737
201903251046,20737,20744,20733,20741
201903251047,20742,20744,20740,20743
201903251048,20743,20752,20741,20752
201903251049,20752,20752,20741,20741
201903251050,20741,20748,20741,20744
201903251051,20744,20749,20741,20743
201903251052,20743,20745,20741,20741
201903251053,20741,20744,20737,20742
201903251054,20742,20745,20741,20742
201903251055,20742,20752,20741,20752
201903251056,20752,20758,20751,20756
201903251057,20756,20762,20746,20751
201903251058,20751,20757,20746,20757
201903251059,20756,20758,20752,20756
201903251100,20756,20771,20756,20771
201903251101,20771,20781,20766,20767
201903251102,20767,20771,20761,20762
201903251103,20762,20764,20756,20762
201903251104,20762,20762,20756,20762
201903251105,20762,20763,20759,20761
201903251106,20761,20765,20761,20762
201903251107,20762,20766,20761,20762
201903251108,20762,20764,20741,20745
201903251109,20745,20756,20741,20746
201903251110,20747,20747,20731,20731
201903251111,20731,20734,20726,20727
201903251112,20727,20728,20717,20722
201903251113,20722,20722,20711,20717
201903251114,20717,20717,20706,20715
201903251115,20715,20717,20711,20716
201903251116,20716,20721,20716,20717
201903251117,20717,20725,20717,20722
201903251118,20722,20726,20721,20726
201903251119,20726,20726,20721,20722
201903251120,20722,20724,20713,20717
201903251121,20717,20718,20711,20715
201903251122,20715,20717,20711,20716
201903251123,20716,20717,20714,20716
201903251124,20716,20722,20716,20722
201903251125,20722,20722,20716,20717
201903251126,20717,20717,20716,20717
201903251127,20717,20722,20717,20722
201903251128,20722,20726,20715,20725
201903251129,20725,20726,20721,20725
201903251130,20724,20724,20715,20717
201903251131,20717,20718,20716,20717
201903251132,20717,20723,20716,20717
201903251133,20717,20726,20716,20724
201903251134,20724,20725,20721,20725
201903251135,20726,20726,20721,20724
201903251136,20724,20725,20721,20722
201903251137,20722,20725,20721,20721
201903251138,20721,20725,20721,20722
201903251139,20722,20726,20721,20722
201903251140,20722,20726,20722,20725
201903251141,20725,20726,20721,20724
201903251142,20724,20724,20716,20717
201903251143,20717,20717,20711,20716
201903251144,20716,20717,20716,20717
201903251145,20717,20726,20714,20726
201903251146,20725,20726,20721,20722
201903251147,20722,20722,20712,20712
201903251148,20712,20717,20712,20714
201903251149,20714,20715,20711,20712
201903251150,20712,20712,20712,20712
201903251151,20712,20712,20707,20711
201903251152,20711,20711,20706,20707
201903251153,20707,20711,20707,20710
201903251154,20710,20712,20706,20710
201903251155,20710,20714,20710,20714
201903251156,20715,20716,20707,20708
201903251157,20708,20711,20706,20711
201903251158,20711,20714,20711,20712
201903251159,20712,20712,20706,20706
201903251200,20706,20708,20702,20707
201903251201,20707,20707,20701,20703
201903251202,20703,20707,20703,20707
201903251203,20707,20707,20707,20707
201903251204,20707,20707,20706,20706
201903251205,20706,20707,20690,20691
201903251206,20691,20692,20682,20682
201903251207,20682,20691,20677,20691
201903251208,20691,20706,20691,20705
201903251209,20705,20705,20701,20702
201903251210,20702,20702,20692,20693
201903251211,20693,20701,20691,20696
201903251212,20696,20697,20691,20694
201903251213,20694,20696,20693,20696
201903251214,20696,20697,20695,20695
201903251215,20695,20696,20686,20686
201903251216,20686,20691,20686,20691
201903251217,20691,20692,20686,20692
201903251218,20692,20692,20688,20690
201903251219,20691,20697,20691,20696
201903251220,20696,20697,20693,20697
201903251221,20696,20700,20692,20698
201903251222,20699,20702,20693,20702
201903251223,20702,20707,20702,20707
201903251224,20707,20707,20705,20706
201903251225,20706,20706,20701,20702
201903251226,20702,20706,20702,20706
201903251227,20706,20706,20701,20702
201903251228,20702,20706,20701,20705
201903251229,20705,20717,20705,20716
201903251230,20717,20725,20716,20721
201903251231,20721,20726,20721,20726
201903251232,20726,20732,20726,20732
201903251233,20732,20745,20727,20728
201903251234,20728,20744,20727,20744
201903251235,20744,20744,20731,20735
201903251236,20735,20736,20726,20730
201903251237,20730,20732,20726,20732
201903251238,20732,20735,20732,20735
201903251239,20735,20736,20732,20732
201903251240,20732,20733,20731,20732
201903251241,20732,20741,20731,20731
201903251242,20731,20736,20731,20732
201903251243,20732,20736,20731,20734
201903251244,20733,20736,20731,20733
201903251245,20733,20733,20727,20727
201903251246,20727,20727,20722,20726
201903251247,20726,20740,20726,20737
201903251248,20737,20742,20736,20738
201903251249,20737,20740,20736,20737
201903251250,20737,20737,20733,20736
201903251251,20736,20736,20721,20726
201903251252,20726,20727,20726,20726
201903251253,20726,20727,20726,20727
201903251254,20727,20731,20726,20731
201903251255,20731,20735,20730,20734
201903251256,20734,20735,20731,20732
201903251257,20732,20732,20728,20729
201903251258,20729,20729,20726,20729
201903251259,20729,20732,20729,20731
201903251300,20730,20731,20730,20731
201903251301,20731,20734,20730,20732
201903251302,20732,20734,20732,20734
201903251303,20734,20734,20733,20734
201903251304,20734,20743,20731,20742
201903251305,20742,20742,20731,20732
201903251306,20732,20736,20731,20735
201903251307,20735,20735,20731,20731
201903251308,20731,20732,20721,20725
201903251309,20726,20727,20725,20727
201903251310,20727,20727,20723,20725
201903251311,20725,20725,20717,20717
201903251312,20717,20717,20707,20707
201903251313,20707,20710,20706,20710
201903251314,20710,20712,20706,20712
201903251315,20712,20712,20711,20712
201903251316,20712,20712,20710,20711
201903251317,20711,20712,20711,20712
201903251318,20712,20712,20711,20712
201903251319,20712,20712,20707,20707
201903251320,20707,20707,20707,20707
201903251321,20707,20707,20706,20707
201903251322,20707,20707,20706,20707
201903251323,20707,20707,20702,20702
201903251324,20702,20707,20702,20707
201903251325,20707,20707,20706,20707
201903251326,20707,20707,20707,20707
201903251327,20707,20707,20707,20707
201903251328,20707,20707,20701,20702
201903251329,20702,20704,20702,20702
201903251330,20702,20707,20702,20707
201903251331,20707,20707,20707,20707
201903251332,20707,20707,20707,20707
201903251333,20707,20707,20705,20706
201903251334,20706,20707,20703,20703
201903251335,20703,20703,20690,20695
201903251336,20696,20700,20695,20700
201903251337,20700,20702,20700,20702
201903251338,20702,20705,20701,20705
201903251339,20705,20708,20703,20707
201903251340,20707,20707,20697,20697
201903251341,20697,20697,20692,20696
201903251342,20695,20696,20695,20696
201903251343,20696,20706,20696,20703
201903251344,20704,20710,20703,20710
201903251345,20710,20710,20706,20707
201903251346,20706,20710,20706,20706
201903251347,20707,20710,20706,20707
201903251348,20707,20717,20707,20717
201903251349,20717,20737,20716,20737
201903251350,20737,20737,20726,20727
201903251351,20727,20727,20727,20727
201903251352,20727,20731,20726,20731
201903251353,20731,20731,20726,20727
201903251354,20727,20734,20726,20734
201903251355,20735,20741,20731,20734
201903251356,20732,20735,20726,20726
201903251357,20728,20735,20728,20735
201903251358,20735,20742,20733,20741
201903251359,20741,20747,20736,20746
201903251400,20746,20748,20746,20747
201903251401,20747,20749,20741,20741
201903251402,20741,20745,20741,20742
201903251403,20742,20742,20735,20737
201903251404,20736,20742,20736,20737
201903251405,20737,20740,20737,20739
201903251406,20739,20740,20736,20739
201903251407,20738,20738,20736,20737
201903251408,20737,20737,20737,20737
201903251409,20737,20737,20732,20732
201903251410,20732,20732,20732,20732
201903251411,20732,20732,20727,20729
201903251412,20730,20731,20726,20731
201903251413,20731,20736,20731,20734
201903251414,20734,20734,20728,20730
201903251415,20730,20736,20728,20736
201903251416,20736,20736,20730,20732
201903251417,20732,20744,20731,20742
201903251418,20742,20745,20741,20744
201903251419,20744,20746,20741,20741
201903251420,20741,20747,20741,20746
201903251421,20746,20746,20741,20745
201903251422,20745,20746,20744,20745
201903251423,20745,20747,20745,20746
201903251424,20746,20757,20746,20757
201903251425,20757,20765,20757,20762
201903251426,20762,20766,20751,20752
201903251427,20752,20752,20752,20752
201903251428,20752,20762,20751,20762
201903251429,20762,20762,20751,20752
201903251430,20752,20762,20751,20757
201903251431,20757,20757,20751,20756
201903251432,20757,20757,20741,20743
201903251433,20743,20747,20741,20742
201903251434,20742,20746,20741,20744
201903251435,20745,20745,20729,20732
201903251436,20732,20732,20723,20725
201903251437,20725,20727,20722,20726
201903251438,20726,20730,20726,20727
201903251439,20727,20727,20721,20726
201903251440,20726,20732,20726,20732
201903251441,20732,20732,20732,20732
201903251442,20732,20736,20722,20725
201903251443,20725,20729,20724,20727
201903251444,20727,20732,20726,20732
201903251445,20732,20735,20731,20731
201903251446,20731,20736,20731,20735
201903251447,20735,20754,20735,20745
201903251448,20746,20750,20746,20750
201903251449,20750,20756,20750,20755
201903251450,20756,20762,20756,20762
201903251451,20762,20765,20761,20762
201903251452,20762,20762,20743,20751
201903251453,20752,20753,20741,20745
201903251454,20745,20746,20737,20737
201903251455,20737,20737,20731,20737
201903251456,20737,20747,20737,20742
201903251457,20742,20747,20741,20747
201903251458,20747,20751,20746,20751
201903251459,20751,20757,20751,20751
201903251500,20752,20757,20744,20752
201903251501,20752,20756,20747,20755
201903251502,20755,20755,20740,20742
201903251503,20742,20747,20741,20742
201903251504,20742,20742,20736,20741
201903251505,20741,20741,20734,20740
201903251506,20740,20741,20732,20732
201903251507,20732,20732,20707,20707
201903251508,20710,20721,20708,20718
201903251509,20717,20721,20714,20718
201903251510,20718,20732,20715,20727
201903251511,20727,20732,20727,20729
201903251512,20729,20730,20719,20721
201903251513,20721,20727,20719,20720
201903251514,20720,20731,20717,20717
201903251515,20717,20732,20716,20732
201903251516,20732,20732,20721,20730
201903251517,20730,20732,20730,20730
201903251518,20730,20732,20725,20732
201903251519,20732,20737,20731,20734
201903251520,20734,20739,20734,20736
201903251521,20736,20736,20735,20736
201903251522,20736,20739,20735,20737
201903251523,20737,20737,20737,20737
201903251524,20737,20742,20735,20742
201903251525,20738,20739,20738,20739
201903251526,20739,20739,20738,20739
201903251527,20739,20740,20739,20739
201903251528,20739,20745,20739,20740
201903251529,20740,20742,20740,20741
201903251530,20741,20742,20741,20741
201903251531,20741,20741,20728,20729
201903251532,20729,20731,20729,20730
201903251533,20730,20730,20727,20727
201903251534,20727,20730,20725,20725
201903251535,20724,20728,20722,20726
201903251536,20726,20727,20726,20726
201903251537,20726,20727,20726,20727
201903251538,20727,20731,20727,20728
201903251539,20728,20730,20728,20729
201903251540,20729,20729,20726,20727
201903251541,20727,20727,20723,20723
201903251542,20723,20723,20717,20717
201903251543,20717,20720,20715,20717
201903251544,20717,20717,20704,20707
201903251545,20707,20707,20704,20706
201903251546,20706,20713,20704,20713
201903251547,20713,20718,20711,20718
201903251548,20718,20721,20717,20721
201903251549,20721,20721,20710,20710
201903251550,20710,20721,20710,20720
201903251551,20720,20720,20712,20718
201903251552,20718,20722,20718,20722
201903251553,20722,20723,20715,20716
201903251554,20716,20716,20702,20711
201903251555,20714,20722,20707,20722
201903251556,20722,20727,20721,20726
201903251557,20726,20727,20726,20727
201903251558,20727,20727,20726,20726
201903251559,20726,20730,20725,20726
201903251600,20726,20762,20726,20751
201903251601,20751,20753,20750,20750
201903251602,20750,20751,20744,20745
201903251603,20745,20751,20745,20751
201903251604,20751,20752,20745,20750
201903251605,20750,20762,20750,20762
201903251606,20762,20762,20760,20761
201903251607,20760,20777,20760,20777
201903251608,20777,20787,20765,20766
201903251609,20766,20770,20765,20765
201903251610,20765,20766,20761,20766
201903251611,20766,20771,20763,20771
201903251612,20771,20771,20765,20765
201903251613,20765,20765,20760,20761
201903251614,20761,20763,20760,20763
201903251615,20763,20765,20760,20761
201903251616,20761,20762,20759,20759
201903251617,20759,20761,20750,20756
201903251618,20756,20757,20751,20756
201903251619,20756,20757,20755,20755
201903251620,20755,20767,20755,20767
201903251621,20767,20772,20765,20772
201903251622,20772,20772,20771,20772
201903251623,20772,20772,20765,20767
201903251624,20767,20769,20766,20766
201903251625,20766,20767,20765,20767
201903251626,20767,20767,20766,20767
201903251627,20767,20767,20766,20766
201903251628,20766,20766,20760,20761
201903251629,20761,20766,20755,20760
201903251630,20765,20766,20758,20761
201903251631,20761,20763,20757,20760
201903251632,20761,20766,20757,20761
201903251633,20761,20762,20754,20755
201903251634,20754,20757,20751,20755
201903251635,20755,20761,20754,20759
201903251636,20759,20759,20756,20757
201903251637,20757,20759,20756,20759
201903251638,20759,20766,20756,20766
201903251639,20766,20767,20766,20767
201903251640,20767,20772,20766,20772
201903251641,20772,20772,20768,20770
201903251642,20770,20772,20770,20772
201903251643,20772,20787,20771,20787
201903251644,20787,20791,20786,20787
201903251645,20787,20789,20786,20788
201903251646,20789,20789,20786,20787
201903251647,20787,20787,20787,20787
201903251648,20787,20787,20782,20782
201903251649,20782,20785,20781,20785
201903251650,20785,20791,20785,20789
201903251651,20789,20790,20787,20790
201903251652,20790,20795,20786,20787
201903251653,20787,20790,20786,20790
201903251654,20790,20792,20789,20791
201903251655,20791,20792,20786,20787
201903251656,20787,20790,20781,20789
201903251657,20789,20792,20788,20792
201903251658,20792,20792,20790,20791
201903251659,20791,20797,20790,20792
201903251700,20792,20796,20791,20795
201903251701,20795,20795,20791,20792
201903251702,20792,20807,20791,20805
201903251703,20805,20805,20801,20803
201903251704,20803,20817,20801,20817
201903251705,20817,20817,20810,20817
201903251706,20817,20817,20815,20817
201903251707,20817,20817,20803,20805
201903251708,20805,20807,20796,20796
201903251709,20796,20809,20795,20807
201903251710,20807,20807,20805,20806
201903251711,20806,20807,20801,20804
201903251712,20803,20822,20801,20821
201903251713,20821,20822,20815,20819
201903251714,20819,20819,20813,20817
201903251715,20816,20816,20791,20791
201903251716,20791,20797,20785,20797
201903251717,20796,20797,20791,20797
201903251718,20797,20804,20794,20802
201903251719,20802,20802,20796,20796
201903251720,20796,20802,20796,20797
201903251721,20797,20800,20794,20795
201903251722,20795,20802,20791,20797
201903251723,20797,20798,20787,20787
201903251724,20787,20789,20786,20787
201903251725,20787,20793,20786,20786
201903251726,20786,20787,20781,20782
201903251727,20782,20791,20782,20788
201903251728,20788,20794,20786,20793
201903251729,20791,20794,20791,20792
201903251730,20792,20794,20791,20791
201903251731,20790,20790,20782,20782
201903251732,20782,20787,20781,20783
201903251733,20783,20788,20781,20786
201903251734,20786,20791,20784,20791
201903251735,20791,20813,20791,20809
201903251736,20809,20834,20809,20830
201903251737,20830,20837,20826,20829
201903251738,20829,20836,20828,20832
201903251739,20832,20832,20828,20832
201903251740,20832,20835,20831,20834
201903251741,20834,20840,20834,20837
201903251742,20837,20842,20837,20841
201903251743,20841,20842,20831,20835
201903251744,20835,20836,20828,20830
201903251745,20830,20832,20826,20826
201903251746,20827,20828,20821,20822
201903251747,20822,20822,20817,20817
201903251748,20817,20821,20816,20816
201903251749,20816,20829,20816,20826
201903251750,20826,20827,20823,20826
201903251751,20826,20827,20811,20811
201903251752,20811,20814,20801,20807
201903251753,20807,20816,20806,20808
201903251754,20808,20809,20806,20807
201903251755,20807,20815,20807,20811
201903251756,20811,20813,20806,20812
201903251757,20812,20812,20806,20807
201903251758,20807,20807,20801,20806
201903251759,20806,20806,20801,20805
201903251800,20805,20852,20804,20852
201903251801,20852,20868,20849,20862
201903251802,20862,20864,20851,20851
201903251803,20851,20857,20851,20852
201903251804,20852,20862,20851,20853
201903251805,20852,20857,20851,20852
201903251806,20852,20859,20851,20856
201903251807,20856,20862,20856,20857
201903251808,20857,20874,20856,20868
201903251809,20868,20870,20856,20857
201903251810,20857,20864,20856,20856
201903251811,20857,20857,20851,20856
201903251812,20856,20856,20846,20846
201903251813,20846,20847,20836,20839
201903251814,20839,20847,20838,20842
201903251815,20842,20842,20836,20841
201903251816,20841,20842,20833,20836
201903251817,20836,20839,20831,20832
201903251818,20832,20842,20831,20837
201903251819,20837,20838,20828,20829
201903251820,20828,20834,20828,20833
201903251821,20833,20835,20828,20831
201903251822,20831,20838,20831,20837
201903251823,20837,20837,20831,20831
201903251824,20831,20832,20828,20831
201903251825,20831,20838,20831,20836
201903251826,20836,20838,20833,20837
201903251827,20837,20847,20837,20843
201903251828,20843,20847,20842,20846
201903251829,20846,20847,20841,20842
201903251830,20842,20846,20841,20845
201903251831,20845,20847,20844,20846
201903251832,20846,20850,20845,20845
201903251833,20846,20847,20841,20841
201903251834,20841,20852,20841,20852
201903251835,20852,20856,20850,20852
201903251836,20852,20853,20848,20849
201903251837,20848,20851,20846,20847
201903251838,20847,20847,20841,20844
201903251839,20843,20847,20841,20842
201903251840,20842,20842,20836,20841
201903251841,20840,20841,20836,20841
201903251842,20841,20861,20840,20861
201903251843,20864,20864,20853,20854
201903251844,20854,20864,20854,20864
201903251845,20864,20872,20861,20862
201903251846,20862,20862,20846,20846
201903251847,20846,20851,20846,20848
201903251848,20848,20861,20848,20860
201903251849,20860,20866,20860,20861
201903251850,20861,20866,20861,20865
201903251851,20865,20871,20865,20870
201903251852,20870,20875,20867,20872
201903251853,20872,20874,20868,20869
201903251854,20869,20876,20866,20872
201903251855,20872,20874,20871,20871
201903251856,20871,20874,20871,20871
201903251857,20871,20871,20861,20862
201903251858,20862,20867,20861,20866
201903251859,20866,20867,20861,20863
201903251900,20864,20866,20856,20856
201903251901,20856,20862,20856,20862
201903251902,20862,20864,20861,20862
201903251903,20862,20867,20861,20866
201903251904,20866,20867,20858,20861
201903251905,20861,20861,20855,20856
201903251906,20856,20857,20851,20854
201903251907,20854,20856,20853,20856
201903251908,20856,20857,20855,20857
201903251909,20857,20857,20851,20852
201903251910,20852,20852,20838,20842
201903251911,20842,20845,20838,20842
201903251912,20842,20846,20842,20845
201903251913,20845,20845,20841,20842
201903251914,20842,20845,20842,20845
201903251915,20845,20852,20843,20845
201903251916,20845,20851,20840,20846
201903251917,20846,20856,20846,20852
201903251918,20852,20852,20848,20852
201903251919,20852,20855,20850,20853
201903251920,20853,20853,20851,20852
201903251921,20851,20853,20849,20851
201903251922,20851,20860,20851,20858
201903251923,20859,20860,20856,20858
201903251924,20858,20866,20856,20866
201903251925,20866,20871,20862,20870
201903251926,20870,20870,20863,20866
201903251927,20866,20867,20866,20867
201903251928,20867,20870,20866,20868
201903251929,20868,20868,20863,20865
201903251930,20865,20865,20861,20861
201903251931,20861,20868,20861,20867
201903251932,20867,20867,20860,20861
201903251933,20861,20862,20857,20859
201903251934,20860,20862,20858,20861
201903251935,20861,20862,20861,20861
201903251936,20861,20866,20861,20865
201903251937,20865,20870,20861,20870
201903251938,20870,20870,20867,20867
201903251939,20867,20870,20866,20868
201903251940,20868,20876,20866,20876
201903251941,20876,20876,20872,20872
201903251942,20872,20872,20868,20871
201903251943,20871,20874,20871,20874
201903251944,20874,20879,20871,20877
201903251945,20877,20881,20876,20878
201903251946,20878,20885,20878,20885
201903251947,20885,20885,20881,20882
201903251948,20882,20882,20878,20882
201903251949,20882,20884,20881,20884
201903251950,20883,20885,20883,20885
201903251951,20885,20885,20880,20882
201903251952,20882,20882,20870,20871
201903251953,20871,20871,20862,20867
201903251954,20867,20868,20861,20863
201903251955,20863,20866,20861,20864
201903251956,20864,20866,20861,20862
201903251957,20861,20866,20861,20864
201903251958,20864,20866,20861,20862
201903251959,20862,20865,20861,20862
201903252000,20862,20864,20861,20862
201903252001,20862,20862,20856,20856
201903252002,20857,20857,20857,20857
201903252003,20857,20860,20856,20859
201903252004,20858,20861,20856,20860
201903252005,20860,20863,20860,20861
201903252006,20861,20865,20861,20862
201903252007,20862,20862,20856,20859
201903252008,20859,20863,20857,20861
201903252009,20861,20862,20858,20860
201903252010,20860,20862,20857,20857
201903252011,20858,20863,20857,20862
201903252012,20862,20863,20861,20862
201903252013,20862,20862,20861,20862
201903252014,20862,20865,20861,20863
201903252015,20863,20864,20861,20862
201903252016,20862,20862,20858,20861
201903252017,20861,20864,20856,20862
201903252018,20862,20862,20858,20861
201903252019,20861,20861,20856,20858
201903252020,20858,20861,20856,20858
201903252021,20858,20858,20852,20852
201903252022,20852,20862,20852,20861
201903252023,20861,20865,20860,20862
201903252024,20863,20863,20861,20862
201903252025,20862,20862,20858,20859
201903252026,20859,20860,20857,20857
201903252027,20857,20861,20852,20860
201903252028,20860,20861,20856,20856
201903252029,20856,20858,20856,20857
201903252030,20857,20861,20856,20860
201903252031,20861,20866,20861,20866
201903252032,20866,20866,20861,20862
201903252033,20862,20862,20857,20857
201903252034,20857,20860,20851,20852
201903252035,20852,20859,20851,20859
201903252036,20859,20859,20856,20856
201903252037,20857,20857,20856,20857
201903252038,20857,20857,20851,20852
201903252039,20852,20855,20851,20851
201903252040,20851,20853,20846,20851
201903252041,20851,20852,20851,20852
201903252042,20852,20858,20852,20857
201903252043,20857,20857,20857,20857
201903252044,20857,20864,20856,20864
201903252045,20865,20866,20864,20866
201903252046,20866,20866,20856,20856
201903252047,20857,20857,20857,20857
201903252048,20857,20862,20857,20862
201903252049,20862,20862,20861,20862
201903252050,20861,20861,20856,20857
201903252051,20857,20857,20851,20851
201903252052,20851,20851,20846,20849
201903252053,20849,20852,20848,20851
201903252054,20851,20852,20850,20852
201903252055,20852,20858,20851,20853
201903252056,20852,20856,20852,20852
201903252057,20852,20853,20847,20848
201903252058,20848,20848,20846,20847
201903252059,20847,20847,20841,20847
201903252100,20847,20847,20841,20844
201903252101,20845,20850,20841,20850
201903252102,20850,20855,20847,20851
201903252103,20851,20852,20851,20851
201903252104,20851,20855,20851,20855
201903252105,20855,20859,20851,20857
201903252106,20857,20859,20856,20858
201903252107,20858,20865,20858,20864
201903252108,20864,20865,20863,20865
201903252109,20865,20865,20863,20863
201903252110,20863,20864,20861,20862
201903252111,20862,20865,20861,20864
201903252112,20864,20865,20863,20864
201903252113,20864,20864,20861,20862
201903252114,20862,20865,20862,20865
201903252115,20866,20872,20866,20866
201903252116,20866,20868,20857,20861
201903252117,20861,20866,20861,20866
201903252118,20866,20871,20866,20870
201903252119,20870,20871,20868,20870
201903252120,20870,20875,20870,20875
201903252121,20875,20875,20871,20875
201903252122,20875,20875,20868,20871
201903252123,20871,20871,20866,20867
201903252124,20867,20869,20866,20868
201903252125,20868,20869,20866,20867
201903252126,20867,20867,20861,20862
201903252127,20862,20867,20861,20867
201903252128,20867,20870,20866,20868
201903252129,20868,20871,20866,20866
201903252130,20867,20869,20866,20866
201903252131,20866,20870,20862,20870
201903252132,20870,20875,20868,20874
201903252133,20874,20874,20871,20871
201903252134,20871,20874,20870,20874
201903252135,20874,20875,20872,20872
201903252136,20872,20872,20871,20872
201903252137,20872,20872,20871,20872
201903252138,20872,20873,20871,20872
201903252139,20873,20874,20871,20873
201903252140,20873,20873,20866,20867
201903252141,20867,20867,20861,20863
201903252142,20863,20863,20856,20856
201903252143,20857,20858,20856,20857
201903252144,20857,20859,20851,20855
201903252145,20855,20857,20851,20855
201903252146,20856,20857,20852,20856
201903252147,20856,20859,20856,20857
201903252148,20857,20860,20856,20860
201903252149,20860,20865,20860,20862
201903252150,20862,20862,20862,20862
201903252151,20862,20871,20862,20866
201903252152,20866,20871,20866,20871
201903252153,20871,20871,20868,20868
201903252154,20868,20869,20866,20867
201903252155,20867,20874,20866,20873
201903252156,20871,20876,20870,20875
201903252157,20875,20875,20871,20873
201903252158,20873,20875,20873,20874
201903252159,20875,20875,20871,20874
201903252200,20874,20875,20873,20875
201903252201,20875,20875,20872,20872
201903252202,20872,20872,20872,20872
201903252203,20872,20872,20871,20872
201903252204,20872,20874,20866,20867
201903252205,20867,20871,20866,20871
201903252206,20871,20873,20866,20867
201903252207,20867,20871,20866,20871
201903252208,20871,20872,20866,20867
201903252209,20867,20867,20867,20867
201903252210,20867,20867,20866,20866
201903252211,20866,20867,20866,20867
201903252212,20867,20867,20866,20866
201903252213,20866,20872,20866,20871
201903252214,20871,20872,20866,20872
201903252215,20872,20873,20870,20871
201903252216,20871,20871,20866,20867
201903252217,20867,20867,20861,20862
201903252218,20862,20866,20861,20862
201903252219,20862,20862,20858,20861
201903252220,20861,20862,20857,20862
201903252221,20862,20862,20855,20855
201903252222,20856,20859,20856,20857
201903252223,20857,20857,20851,20853
201903252224,20853,20854,20851,20853
201903252225,20853,20853,20851,20852
201903252226,20852,20852,20843,20846
201903252227,20846,20852,20845,20845
201903252228,20845,20845,20841,20844
201903252229,20844,20847,20841,20843
201903252230,20843,20850,20835,20847
201903252231,20847,20857,20845,20845
201903252232,20845,20854,20840,20851
201903252233,20852,20854,20841,20853
201903252234,20853,20864,20846,20864
201903252235,20865,20874,20864,20873
201903252236,20872,20887,20870,20887
201903252237,20887,20907,20887,20902
201903252238,20902,20907,20896,20902
201903252239,20902,20906,20896,20901
201903252240,20903,20903,20881,20886
201903252241,20886,20888,20876,20878
201903252242,20878,20881,20866,20867
201903252243,20867,20867,20843,20853
201903252244,20854,20856,20831,20831
201903252245,20832,20832,20803,20827
201903252246,20826,20827,20806,20808
201903252247,20810,20816,20801,20804
201903252248,20804,20807,20784,20788
201903252249,20791,20797,20782,20782
201903252250,20782,20802,20781,20801
201903252251,20800,20806,20791,20802
201903252252,20802,20816,20801,20812
201903252253,20812,20812,20791,20792
201903252254,20792,20798,20791,20793
201903252255,20793,20795,20781,20790
201903252256,20790,20806,20789,20797
201903252257,20797,20800,20782,20791
201903252258,20791,20797,20786,20786
201903252259,20786,20792,20781,20783
201903252300,20784,20801,20782,20791
201903252301,20791,20805,20791,20802
201903252302,20802,20806,20787,20787
201903252303,20787,20787,20771,20776
201903252304,20776,20781,20771,20778
201903252305,20776,20795,20776,20794
201903252306,20794,20811,20793,20807
201903252307,20807,20807,20787,20790
201903252308,20790,20795,20786,20786
201903252309,20786,20794,20786,20787
201903252310,20787,20792,20781,20792
201903252311,20792,20794,20781,20781
201903252312,20781,20790,20776,20784
201903252313,20783,20784,20767,20770
201903252314,20770,20770,20756,20758
201903252315,20758,20768,20756,20762
201903252316,20763,20772,20762,20766
201903252317,20766,20770,20756,20763
201903252318,20763,20781,20763,20777
201903252319,20777,20778,20767,20771
201903252320,20772,20777,20766,20772
201903252321,20772,20776,20766,20767
201903252322,20766,20772,20766,20767
201903252323,20767,20767,20757,20758
201903252324,20758,20770,20756,20768
201903252325,20767,20780,20766,20779
201903252326,20779,20792,20778,20792
201903252327,20792,20801,20786,20798
201903252328,20797,20811,20797,20800
201903252329,20800,20800,20796,20797
201903252330,20797,20804,20795,20804
201903252331,20804,20812,20800,20812
201903252332,20812,20824,20805,20822
201903252333,20822,20826,20811,20813
201903252334,20813,20813,20806,20807
201903252335,20807,20807,20801,20803
201903252336,20803,20817,20801,20817
201903252337,20817,20826,20811,20821
201903252338,20821,20822,20806,20806
201903252339,20806,20816,20803,20806
201903252340,20804,20809,20801,20802
201903252341,20802,20809,20801,20809
201903252342,20809,20816,20806,20806
201903252343,20807,20807,20801,20802
201903252344,20802,20816,20801,20813
201903252345,20812,20831,20811,20828
201903252346,20828,20829,20816,20817
201903252347,20817,20817,20801,20807
201903252348,20806,20826,20806,20826
201903252349,20826,20837,20821,20837
201903252350,20837,20868,20837,20865
201903252351,20865,20882,20861,20877
201903252352,20878,20882,20876,20882
201903252353,20881,20882,20869,20874
201903252354,20874,20876,20866,20866
201903252355,20866,20882,20866,20882
201903252356,20882,20886,20876,20877
201903252357,20877,20880,20874,20874
201903252358,20874,20875,20866,20867
201903252359,20868,20872,20861,20872
201903260000,20870,20872,20862,20867
201903260001,20867,20876,20866,20867
201903260002,20867,20869,20861,20861
201903260003,20861,20866,20856,20860
201903260004,20860,20865,20856,20862
201903260005,20862,20874,20861,20873
201903260006,20873,20874,20865,20867
201903260007,20867,20879,20867,20872
201903260008,20872,20881,20871,20872
201903260009,20872,20872,20866,20868
201903260010,20867,20874,20862,20864
201903260011,20865,20865,20853,20853
201903260012,20854,20867,20852,20867
201903260013,20867,20872,20859,20871
201903260014,20871,20879,20870,20876
201903260015,20876,20894,20873,20886
201903260016,20886,20903,20886,20903
201903260017,20904,20904,20891,20896
201903260018,20896,20904,20891,20896
201903260019,20896,20901,20891,20899
201903260020,20899,20904,20897,20901
201903260021,20901,20909,20896,20897
201903260022,20897,20899,20891,20894
201903260023,20894,20902,20894,20902
201903260024,20902,20906,20896,20897
201903260025,20896,20905,20896,20903
201903260026,20903,20907,20903,20906
201903260027,20906,20909,20901,20908
201903260028,20905,20925,20905,20925
201903260029,20925,20927,20921,20922
201903260030,20922,20922,20912,20916
201903260031,20916,20923,20916,20917
201903260032,20917,20918,20912,20912
201903260033,20912,20912,20898,20901
201903260034,20902,20906,20896,20899
201903260035,20899,20900,20886,20890
201903260036,20890,20896,20886,20896
201903260037,20896,20897,20891,20892
201903260038,20892,20894,20891,20891
201903260039,20891,20897,20891,20897
201903260040,20897,20902,20892,20892
201903260041,20892,20893,20886,20887
201903260042,20887,20894,20886,20892
201903260043,20891,20894,20881,20882
201903260044,20882,20882,20876,20876
201903260045,20876,20886,20876,20885
201903260046,20885,20885,20876,20881
201903260047,20881,20882,20877,20877
201903260048,20877,20877,20871,20872
201903260049,20872,20872,20866,20867
201903260050,20867,20872,20866,20872
201903260051,20872,20875,20866,20875
201903260052,20874,20877,20871,20871
201903260053,20871,20881,20871,20874
201903260054,20873,20878,20873,20877
201903260055,20877,20878,20866,20877
201903260056,20877,20884,20876,20883
201903260057,20883,20884,20871,20872
201903260058,20872,20872,20866,20871
201903260059,20871,20872,20862,20866
201903260100,20866,20872,20861,20867
201903260101,20867,20872,20865,20868
201903260102,20868,20869,20861,20863
201903260103,20863,20874,20863,20872
201903260104,20872,20882,20870,20881
201903260105,20883,20885,20880,20884
201903260106,20884,20892,20884,20891
201903260107,20891,20892,20883,20886
201903260108,20886,20887,20881,20881
201903260109,20882,20886,20881,20882
201903260110,20882,20884,20874,20884
201903260111,20884,20894,20883,20893
201903260112,20893,20895,20887,20889
201903260113,20889,20891,20876,20877
201903260114,20876,20887,20876,20881
201903260115,20881,20889,20876,20887
201903260116,20888,20889,20881,20882
201903260117,20881,20886,20876,20881
201903260118,20881,20885,20878,20884
201903260119,20883,20892,20881,20888
201903260120,20888,20901,20888,20897
201903260121,20897,20899,20891,20896
201903260122,20896,20905,20894,20903
201903260123,20903,20907,20896,20898
201903260124,20899,20906,20898,20906
201903260125,20906,20909,20901,20907
201903260126,20907,20907,20898,20903
201903260127,20903,20907,20894,20894
201903260128,20896,20896,20891,20891
201903260129,20891,20896,20888,20891
201903260130,20891,20892,20886,20891
201903260131,20891,20895,20886,20886
201903260132,20886,20886,20876,20878
201903260133,20878,20878,20871,20872
201903260134,20872,20873,20867,20872
201903260135,20872,20872,20861,20861
201903260136,20861,20862,20856,20861
201903260137,20858,20861,20856,20857
201903260138,20857,20858,20851,20858
201903260139,20858,20859,20851,20854
201903260140,20853,20857,20851,20853
201903260141,20853,20854,20847,20852
201903260142,20852,20852,20846,20848
201903260143,20848,20848,20841,20841
201903260144,20841,20847,20841,20846
201903260145,20846,20847,20841,20846
201903260146,20846,20851,20839,20842
201903260147,20842,20852,20841,20849
201903260148,20851,20856,20850,20855
201903260149,20855,20855,20851,20851
201903260150,20851,20862,20851,20862
201903260151,20862,20864,20859,20861
201903260152,20861,20864,20859,20861
201903260153,20861,20862,20856,20859
201903260154,20858,20864,20858,20864
201903260155,20864,20865,20861,20864
201903260156,20864,20865,20864,20865
201903260157,20865,20872,20865,20871
201903260158,20871,20882,20871,20871
201903260159,20872,20882,20868,20882
201903260200,20882,20882,20871,20871
201903260201,20871,20877,20870,20872
201903260202,20872,20872,20869,20870
201903260203,20870,20870,20857,20857
201903260204,20856,20863,20855,20862
201903260205,20862,20865,20855,20862
201903260206,20862,20872,20861,20871
201903260207,20871,20872,20861,20867
201903260208,20867,20872,20861,20867
201903260209,20867,20871,20863,20867
201903260210,20867,20875,20865,20872
201903260211,20872,20875,20870,20871
201903260212,20871,20887,20870,20887
201903260213,20887,20897,20886,20892
201903260214,20894,20894,20885,20887
201903260215,20887,20887,20884,20884
201903260216,20884,20885,20879,20881
201903260217,20881,20881,20870,20874
201903260218,20874,20876,20870,20874
201903260219,20874,20880,20874,20876
201903260220,20876,20879,20872,20872
201903260221,20872,20882,20871,20877
201903260222,20877,20882,20874,20874
201903260223,20874,20877,20860,20863
201903260224,20863,20872,20863,20872
201903260225,20872,20877,20867,20872
201903260226,20872,20872,20856,20858
201903260227,20858,20862,20855,20857
201903260228,20857,20862,20855,20857
201903260229,20857,20865,20856,20861
201903260230,20861,20863,20855,20859
201903260231,20859,20862,20850,20851
201903260232,20851,20857,20848,20857
201903260233,20857,20857,20851,20857
201903260234,20857,20867,20856,20867
201903260235,20867,20872,20864,20867
201903260236,20866,20877,20865,20876
201903260237,20876,20877,20871,20875
201903260238,20875,20877,20870,20877
201903260239,20877,20882,20871,20872
201903260240,20872,20877,20870,20876
201903260241,20876,20877,20870,20872
201903260242,20872,20872,20864,20867
201903260243,20867,20867,20857,20862
201903260244,20862,20862,20856,20859
201903260245,20859,20867,20854,20867
201903260246,20867,20867,20855,20860
201903260247,20860,20861,20855,20857
201903260248,20857,20857,20844,20844
201903260249,20844,20852,20840,20846
201903260250,20846,20852,20845,20849
201903260251,20849,20852,20839,20847
201903260252,20847,20852,20840,20850
201903260253,20850,20850,20835,20837
201903260254,20837,20837,20830,20831
201903260255,20831,20832,20825,20832
201903260256,20832,20837,20826,20826
201903260257,20826,20832,20826,20831
201903260258,20831,20837,20825,20831
201903260259,20831,20832,20825,20829
201903260300,20830,20839,20825,20836
201903260301,20836,20847,20835,20839
201903260302,20839,20842,20835,20836
201903260303,20836,20843,20835,20841
201903260304,20841,20842,20830,20830
201903260305,20830,20832,20812,20812
201903260306,20817,20821,20810,20821
201903260307,20821,20827,20820,20822
201903260308,20822,20822,20815,20817
201903260309,20817,20817,20815,20816
201903260310,20816,20817,20810,20814
201903260311,20814,20817,20806,20807
201903260312,20807,20819,20805,20810
201903260313,20810,20817,20806,20815
201903260314,20815,20817,20814,20817
201903260315,20817,20826,20816,20823
201903260316,20823,20823,20812,20814
201903260317,20814,20815,20807,20808
201903260318,20810,20812,20805,20807
201903260319,20807,20812,20805,20810
201903260320,20810,20817,20810,20812
201903260321,20812,20816,20811,20815
201903260322,20815,20817,20805,20807
201903260323,20807,20807,20796,20806
201903260324,20806,20807,20801,20804
201903260325,20804,20808,20800,20806
201903260326,20806,20812,20802,20812
201903260327,20812,20812,20798,20809
201903260328,20809,20812,20806,20807
201903260329,20807,20815,20806,20811
201903260330,20812,20822,20810,20819
201903260331,20819,20825,20818,20820
201903260332,20820,20827,20820,20826
201903260333,20826,20832,20826,20831
201903260334,20831,20832,20824,20832
201903260335,20832,20837,20825,20835
201903260336,20841,20841,20835,20836
201903260337,20836,20836,20828,20832
201903260338,20832,20832,20825,20830
201903260339,20830,20832,20826,20831
201903260340,20831,20832,20825,20832
201903260341,20832,20837,20826,20832
201903260342,20831,20847,20831,20847
201903260343,20847,20852,20845,20851
201903260344,20851,20852,20848,20850
201903260345,20850,20852,20842,20845
201903260346,20845,20847,20841,20845
201903260347,20845,20852,20845,20851
201903260348,20851,20852,20846,20847
201903260349,20847,20847,20842,20847
201903260350,20847,20852,20842,20842
201903260351,20842,20847,20841,20847
201903260352,20847,20855,20844,20855
201903260353,20855,20855,20847,20847
201903260354,20847,20852,20845,20852
201903260355,20852,20862,20850,20856
201903260356,20856,20867,20855,20865
201903260357,20865,20877,20863,20877
201903260358,20877,20877,20866,20872
201903260359,20872,20877,20870,20877
201903260400,20877,20887,20875,20887
201903260401,20887,20887,20879,20884
201903260402,20884,20887,20876,20876
201903260403,20876,20880,20871,20873
201903260404,20873,20875,20867,20872
201903260405,20872,20877,20872,20877
201903260406,20877,20882,20871,20871
201903260407,20871,20882,20871,20882
201903260408,20882,20887,20880,20881
201903260409,20881,20887,20880,20881
201903260410,20881,20892,20881,20887
201903260411,20887,20892,20885,20891
201903260412,20891,20897,20890,20896
201903260413,20896,20909,20896,20905
201903260414,20905,20911,20905,20908
201903260415,20908,20916,20905,20915
201903260416,20915,20917,20910,20912
201903260417,20912,20912,20899,20901
201903260418,20901,20903,20897,20897
201903260419,20897,20902,20890,20894
201903260420,20894,20895,20890,20895
201903260421,20895,20902,20894,20899
201903260422,20897,20907,20896,20907
201903260423,20907,20917,20905,20917
201903260424,20917,20917,20910,20910
201903260425,20910,20911,20902,20906
201903260426,20906,20924,20905,20922
201903260427,20922,20923,20919,20923
201903260428,20923,20923,20916,20917
201903260429,20917,20922,20915,20921
201903260430,20921,20929,20915,20917
201903260431,20917,20917,20911,20917
201903260432,20917,20919,20910,20914
201903260433,20917,20922,20916,20921
201903260434,20921,20922,20916,20919
201903260435,20919,20921,20916,20919
201903260436,20919,20922,20915,20922
201903260437,20922,20927,20919,20925
201903260438,20925,20925,20915,20917
201903260439,20917,20917,20910,20911
201903260440,20911,20919,20911,20911
201903260441,20911,20916,20911,20913
201903260442,20913,20917,20913,20917
201903260443,20917,20922,20916,20922
201903260444,20922,20927,20921,20923
201903260445,20923,20929,20921,20926
201903260446,20926,20930,20922,20926
201903260447,20927,20927,20918,20922
201903260448,20922,20922,20910,20914
201903260449,20914,20915,20906,20906
201903260450,20906,20917,20904,20917
201903260451,20917,20917,20909,20912
201903260452,20911,20917,20909,20917
201903260453,20917,20921,20913,20921
201903260454,20921,20922,20913,20916
201903260455,20916,20916,20904,20907
201903260456,20907,20917,20906,20916
201903260457,20916,20926,20916,20920
201903260458,20920,20922,20916,20917
201903260459,20917,20922,20914,20922
201903260500,20922,20922,20915,20917
201903260501,20917,20922,20915,20922
201903260502,20922,20922,20911,20912
201903260503,20912,20918,20910,20918
201903260504,20918,20919,20916,20918
201903260505,20918,20922,20917,20921
201903260506,20921,20922,20920,20921
201903260507,20921,20922,20919,20922
201903260508,20922,20922,20920,20920
201903260509,20920,20922,20920,20921
201903260510,20921,20930,20921,20929
201903260511,20929,20930,20926,20929
201903260512,20929,20931,20929,20931
201903260513,20932,20932,20930,20932
201903260514,20932,20935,20925,20935
201903260515,20935,20941,20934,20941
201903260516,20941,20941,20940,20940
201903260517,20940,20942,20940,20940
201903260518,20940,20947,20940,20947
201903260519,20947,20947,20947,20947
201903260520,20947,20947,20947,20947
201903260521,20947,20947,20947,20947
201903260522,20947,20947,20947,20947
201903260523,20947,20948,20946,20948
201903260524,20948,20948,20946,20948
201903260525,20948,20954,20946,20954
201903260526,20954,20955,20954,20954
201903260527,20954,20954,20948,20954
201903260528,20954,20956,20954,20956
201903260529,20956,20961,20951,20961
201903260530,20961,20967,20952,20952
201903260531,20952,20952,20950,20950
201903260532,20950,20950,20950,20950
201903260533,20950,20956,20950,20955
201903260534,20955,20955,20955,20955
201903260535,20955,20956,20954,20955
201903260536,20955,20956,20946,20946
201903260537,20946,20946,20945,20945
201903260538,20945,20950,20945,20950
201903260539,20950,20950,20949,20950
201903260540,20950,20950,20949,20950
201903260541,20950,20950,20949,20949
201903260542,20949,20949,20949,20949
201903260543,20949,20949,20949,20949
201903260544,20949,20949,20945,20949
201903260545,20949,20950,20948,20948
201903260546,20948,20948,20948,20948
201903260547,20948,20948,20948,20948
201903260548,20948,20949,20948,20948
201903260549,20948,20948,20948,20948
201903260550,20948,20948,20946,20946
201903260551,20946,20946,20945,20945
201903260552,20945,20945,20945,20945
201903260553,20945,20945,20945,20945
201903260554,20945,20945,20945,20945
201903260555,20945,20945,20945,20945
201903260556,20945,20945,20942,20942
201903260557,20941,20947,20941,20946
201903260558,20946,20946,20946,20946
201903260559,20946,20947,20945,20947
