日時,始値(BID),高値(BID),安値(BID),終値(BID)
201903190830,21411,21415,21408,21410
201903190831,21410,21418,21410,21417
201903190832,21417,21418,21416,21417
201903190833,21417,21422,21417,21422
201903190834,21422,21427,21416,21427
201903190835,21427,21429,21425,21426
201903190836,21426,21432,21425,21432
201903190837,21432,21432,21432,21432
201903190838,21432,21432,21432,21432
201903190839,21432,21432,21432,21432
201903190840,21432,21439,21422,21427
201903190841,21427,21427,21418,21421
201903190842,21421,21427,21416,21427
201903190843,21427,21427,21415,21415
201903190844,21415,21417,21410,21417
201903190845,21410,21412,21406,21406
201903190846,21406,21406,21394,21394
201903190847,21394,21395,21388,21391
201903190848,21391,21397,21389,21396
201903190849,21396,21405,21396,21404
201903190850,21404,21406,21403,21404
201903190851,21403,21404,21397,21401
201903190852,21401,21405,21401,21403
201903190853,21403,21403,21396,21399
201903190854,21399,21400,21396,21396
201903190855,21396,21397,21396,21397
201903190856,21397,21397,21397,21397
201903190857,21397,21401,21396,21397
201903190858,21397,21397,21390,21391
201903190859,21391,21396,21391,21392
201903190900,21392,21392,21367,21376
201903190901,21376,21378,21322,21322
201903190902,21322,21322,21295,21316
201903190903,21316,21322,21296,21321
201903190904,21321,21326,21311,21323
201903190905,21323,21324,21289,21297
201903190906,21297,21297,21284,21296
201903190907,21296,21297,21276,21277
201903190908,21277,21282,21269,21277
201903190909,21277,21277,21258,21267
201903190910,21267,21280,21261,21276
201903190911,21276,21281,21271,21271
201903190912,21271,21277,21271,21272
201903190913,21272,21272,21256,21264
201903190914,21264,21267,21261,21266
201903190915,21266,21268,21245,21246
201903190916,21245,21264,21243,21261
201903190917,21261,21284,21261,21281
201903190918,21281,21289,21281,21284
201903190919,21284,21291,21281,21287
201903190920,21287,21287,21281,21282
201903190921,21282,21282,21278,21279
201903190922,21280,21281,21274,21276
201903190923,21276,21284,21276,21281
201903190924,21281,21290,21279,21287
201903190925,21287,21292,21278,21290
201903190926,21290,21291,21288,21288
201903190927,21290,21295,21290,21292
201903190928,21292,21295,21291,21295
201903190929,21295,21296,21291,21294
201903190930,21294,21294,21281,21282
201903190931,21286,21286,21280,21281
201903190932,21281,21294,21279,21288
201903190933,21289,21295,21286,21291
201903190934,21291,21294,21291,21292
201903190935,21292,21293,21291,21292
201903190936,21292,21292,21291,21292
201903190937,21292,21292,21281,21282
201903190938,21282,21291,21276,21285
201903190939,21285,21291,21285,21291
201903190940,21291,21296,21290,21291
201903190941,21291,21301,21291,21297
201903190942,21297,21312,21296,21306
201903190943,21306,21312,21306,21307
201903190944,21307,21307,21304,21306
201903190945,21306,21310,21293,21310
201903190946,21310,21315,21306,21311
201903190947,21311,21311,21306,21311
201903190948,21311,21312,21308,21312
201903190949,21312,21316,21311,21315
201903190950,21315,21322,21313,21322
201903190951,21322,21332,21321,21332
201903190952,21332,21332,21330,21331
201903190953,21331,21331,21326,21329
201903190954,21329,21330,21325,21328
201903190955,21328,21331,21326,21330
201903190956,21331,21332,21330,21331
201903190957,21331,21333,21331,21332
201903190958,21332,21332,21321,21322
201903190959,21322,21327,21322,21327
201903191000,21327,21327,21311,21312
201903191001,21312,21321,21312,21318
201903191002,21319,21327,21316,21322
201903191003,21322,21330,21321,21330
201903191004,21330,21336,21330,21331
201903191005,21331,21337,21331,21336
201903191006,21336,21338,21336,21336
201903191007,21336,21361,21336,21357
201903191008,21356,21357,21346,21351
201903191009,21351,21356,21350,21352
201903191010,21352,21352,21351,21352
201903191011,21352,21357,21348,21349
201903191012,21349,21351,21347,21350
201903191013,21351,21355,21351,21354
201903191014,21354,21357,21352,21352
201903191015,21352,21362,21348,21356
201903191016,21356,21363,21356,21361
201903191017,21361,21367,21361,21367
201903191018,21367,21368,21356,21362
201903191019,21362,21366,21361,21365
201903191020,21365,21365,21356,21357
201903191021,21357,21357,21351,21352
201903191022,21352,21352,21352,21352
201903191023,21352,21352,21352,21352
201903191024,21352,21354,21352,21352
201903191025,21352,21354,21352,21352
201903191026,21352,21361,21352,21360
201903191027,21360,21361,21356,21360
201903191028,21360,21360,21356,21357
201903191029,21357,21362,21356,21362
201903191030,21362,21362,21351,21352
201903191031,21352,21364,21352,21362
201903191032,21362,21372,21354,21372
201903191033,21372,21387,21371,21386
201903191034,21386,21387,21381,21384
201903191035,21384,21387,21381,21386
201903191036,21386,21398,21386,21396
201903191037,21396,21397,21391,21394
201903191038,21394,21402,21391,21392
201903191039,21392,21396,21391,21392
201903191040,21392,21392,21376,21382
201903191041,21382,21386,21381,21382
201903191042,21382,21386,21381,21382
201903191043,21382,21382,21381,21382
201903191044,21382,21382,21376,21376
201903191045,21378,21381,21372,21377
201903191046,21377,21379,21371,21379
201903191047,21379,21380,21376,21377
201903191048,21377,21377,21371,21371
201903191049,21371,21371,21352,21355
201903191050,21355,21356,21352,21352
201903191051,21352,21353,21352,21352
201903191052,21352,21357,21352,21357
201903191053,21357,21357,21348,21352
201903191054,21352,21352,21342,21342
201903191055,21342,21346,21338,21345
201903191056,21345,21351,21341,21350
201903191057,21350,21350,21346,21347
201903191058,21347,21347,21343,21346
201903191059,21346,21347,21341,21344
201903191100,21344,21344,21337,21342
201903191101,21342,21351,21341,21351
201903191102,21351,21355,21351,21353
201903191103,21353,21355,21351,21354
201903191104,21354,21354,21351,21352
201903191105,21352,21360,21351,21359
201903191106,21359,21359,21346,21347
201903191107,21347,21352,21346,21351
201903191108,21351,21357,21350,21357
201903191109,21357,21360,21346,21348
201903191110,21349,21357,21347,21355
201903191111,21356,21358,21346,21347
201903191112,21347,21347,21336,21341
201903191113,21341,21345,21341,21341
201903191114,21341,21344,21341,21342
201903191115,21342,21342,21333,21334
201903191116,21333,21333,21317,21322
201903191117,21322,21326,21316,21322
201903191118,21322,21330,21321,21327
201903191119,21328,21335,21327,21332
201903191120,21332,21337,21331,21337
201903191121,21337,21337,21331,21333
201903191122,21333,21334,21331,21331
201903191123,21331,21334,21331,21334
201903191124,21334,21342,21333,21341
201903191125,21341,21342,21337,21341
201903191126,21341,21342,21338,21342
201903191127,21342,21347,21341,21342
201903191128,21342,21342,21339,21341
201903191129,21341,21347,21336,21347
201903191130,21347,21350,21344,21347
201903191131,21347,21347,21341,21345
201903191132,21345,21345,21341,21344
201903191133,21345,21345,21341,21341
201903191134,21341,21344,21341,21341
201903191135,21341,21345,21341,21345
201903191136,21345,21347,21341,21345
201903191137,21345,21345,21336,21337
201903191138,21337,21337,21336,21337
201903191139,21337,21337,21326,21326
201903191140,21326,21327,21322,21326
201903191141,21325,21330,21323,21327
201903191142,21326,21327,21326,21326
201903191143,21327,21333,21326,21332
201903191144,21332,21335,21331,21331
201903191145,21331,21332,21329,21329
201903191146,21329,21329,21321,21322
201903191147,21322,21322,21318,21321
201903191148,21321,21329,21321,21329
201903191149,21328,21339,21328,21339
201903191150,21339,21342,21336,21342
201903191151,21342,21343,21341,21342
201903191152,21342,21342,21341,21341
201903191153,21341,21342,21340,21340
201903191154,21340,21342,21340,21342
201903191155,21342,21342,21341,21341
201903191156,21341,21342,21341,21342
201903191157,21342,21342,21341,21342
201903191158,21342,21342,21341,21342
201903191159,21342,21342,21341,21342
201903191200,21342,21346,21341,21341
201903191201,21344,21344,21341,21343
201903191202,21343,21344,21341,21342
201903191203,21342,21343,21341,21341
201903191204,21341,21346,21341,21345
201903191205,21345,21362,21345,21352
201903191206,21352,21354,21351,21354
201903191207,21354,21355,21351,21352
201903191208,21352,21355,21351,21354
201903191209,21354,21354,21351,21352
201903191210,21352,21354,21351,21351
201903191211,21351,21354,21351,21351
201903191212,21351,21355,21351,21354
201903191213,21354,21355,21351,21352
201903191214,21352,21354,21351,21354
201903191215,21354,21354,21353,21353
201903191216,21353,21355,21353,21354
201903191217,21354,21362,21354,21362
201903191218,21362,21362,21361,21361
201903191219,21361,21361,21357,21357
201903191220,21357,21362,21357,21361
201903191221,21361,21362,21360,21361
201903191222,21361,21361,21351,21356
201903191223,21356,21357,21353,21356
201903191224,21356,21357,21356,21356
201903191225,21356,21361,21356,21359
201903191226,21359,21361,21358,21361
201903191227,21361,21362,21359,21360
201903191228,21360,21360,21358,21360
201903191229,21360,21360,21358,21359
201903191230,21360,21362,21358,21361
201903191231,21361,21371,21361,21371
201903191232,21371,21372,21371,21372
201903191233,21372,21372,21361,21361
201903191234,21361,21363,21361,21362
201903191235,21362,21366,21358,21361
201903191236,21361,21362,21356,21360
201903191237,21360,21361,21356,21357
201903191238,21357,21363,21357,21362
201903191239,21362,21362,21361,21362
201903191240,21362,21367,21361,21362
201903191241,21362,21362,21356,21357
201903191242,21357,21359,21356,21357
201903191243,21357,21357,21353,21354
201903191244,21354,21357,21351,21357
201903191245,21357,21359,21356,21357
201903191246,21357,21357,21356,21357
201903191247,21357,21357,21356,21357
201903191248,21357,21357,21351,21356
201903191249,21356,21357,21356,21357
201903191250,21357,21357,21351,21357
201903191251,21357,21357,21353,21354
201903191252,21354,21356,21353,21356
201903191253,21356,21357,21353,21355
201903191254,21355,21355,21351,21352
201903191255,21352,21352,21352,21352
201903191256,21352,21352,21352,21352
201903191257,21352,21352,21345,21346
201903191258,21346,21347,21341,21347
201903191259,21347,21347,21345,21346
201903191300,21346,21346,21345,21345
201903191301,21345,21346,21345,21346
201903191302,21345,21346,21345,21346
201903191303,21346,21354,21346,21351
201903191304,21352,21352,21349,21349
201903191305,21349,21352,21346,21352
201903191306,21352,21357,21351,21357
201903191307,21357,21357,21356,21356
201903191308,21356,21356,21355,21356
201903191309,21356,21356,21355,21356
201903191310,21356,21357,21356,21356
201903191311,21356,21357,21353,21355
201903191312,21355,21355,21351,21352
201903191313,21352,21352,21351,21352
201903191314,21352,21352,21350,21352
201903191315,21352,21352,21351,21352
201903191316,21352,21352,21351,21352
201903191317,21352,21352,21351,21352
201903191318,21352,21356,21351,21355
201903191319,21356,21365,21355,21365
201903191320,21365,21373,21365,21372
201903191321,21372,21372,21371,21372
201903191322,21372,21372,21372,21372
201903191323,21372,21372,21371,21372
201903191324,21372,21372,21366,21369
201903191325,21369,21369,21366,21367
201903191326,21367,21367,21365,21366
201903191327,21366,21367,21366,21366
201903191328,21366,21367,21366,21367
201903191329,21367,21367,21367,21367
201903191330,21367,21367,21363,21365
201903191331,21365,21366,21361,21362
201903191332,21362,21362,21360,21362
201903191333,21362,21367,21362,21367
201903191334,21367,21372,21367,21371
201903191335,21371,21372,21371,21372
201903191336,21372,21372,21371,21372
201903191337,21372,21372,21371,21372
201903191338,21372,21372,21371,21372
201903191339,21372,21372,21371,21372
201903191340,21372,21372,21371,21371
201903191341,21371,21372,21371,21372
201903191342,21372,21377,21372,21375
201903191343,21375,21376,21375,21376
201903191344,21376,21376,21376,21376
201903191345,21376,21376,21375,21375
201903191346,21375,21376,21375,21375
201903191347,21375,21376,21375,21375
201903191348,21375,21382,21375,21382
201903191349,21382,21386,21382,21386
201903191350,21386,21386,21382,21382
201903191351,21382,21384,21382,21382
201903191352,21382,21384,21382,21382
201903191353,21382,21382,21377,21380
201903191354,21380,21384,21380,21383
201903191355,21383,21383,21381,21381
201903191356,21381,21381,21380,21380
201903191357,21380,21380,21376,21377
201903191358,21377,21377,21377,21377
201903191359,21377,21381,21377,21380
201903191400,21381,21381,21376,21381
201903191401,21381,21381,21380,21381
201903191402,21381,21382,21381,21381
201903191403,21381,21382,21379,21380
201903191404,21380,21381,21380,21381
201903191405,21381,21381,21373,21376
201903191406,21376,21379,21376,21377
201903191407,21377,21377,21371,21371
201903191408,21371,21372,21366,21372
201903191409,21372,21375,21371,21374
201903191410,21373,21381,21373,21381
201903191411,21381,21381,21376,21377
201903191412,21377,21380,21376,21380
201903191413,21380,21380,21379,21380
201903191414,21380,21381,21380,21380
201903191415,21380,21381,21380,21381
201903191416,21381,21381,21381,21381
201903191417,21381,21381,21381,21381
201903191418,21381,21381,21381,21381
201903191419,21381,21381,21380,21380
201903191420,21380,21381,21380,21381
201903191421,21381,21381,21380,21381
201903191422,21381,21383,21381,21382
201903191423,21382,21382,21382,21382
201903191424,21382,21382,21380,21382
201903191425,21382,21382,21381,21381
201903191426,21381,21384,21381,21384
201903191427,21384,21385,21384,21384
201903191428,21384,21384,21384,21384
201903191429,21384,21385,21384,21384
201903191430,21385,21386,21385,21385
201903191431,21385,21385,21381,21381
201903191432,21381,21382,21381,21382
201903191433,21382,21385,21381,21382
201903191434,21382,21383,21382,21382
201903191435,21382,21382,21378,21380
201903191436,21380,21383,21380,21381
201903191437,21382,21384,21381,21382
201903191438,21382,21383,21381,21382
201903191439,21382,21382,21378,21378
201903191440,21379,21380,21376,21379
201903191441,21379,21380,21378,21380
201903191442,21380,21381,21376,21377
201903191443,21377,21379,21376,21379
201903191444,21379,21383,21378,21382
201903191445,21382,21382,21382,21382
201903191446,21382,21382,21376,21377
201903191447,21377,21377,21370,21371
201903191448,21371,21372,21370,21372
201903191449,21372,21372,21368,21370
201903191450,21370,21372,21370,21371
201903191451,21371,21372,21371,21371
201903191452,21371,21371,21367,21371
201903191453,21371,21372,21366,21367
201903191454,21367,21371,21366,21371
201903191455,21371,21371,21366,21369
201903191456,21369,21370,21366,21367
201903191457,21367,21370,21366,21368
201903191458,21368,21372,21366,21371
201903191459,21370,21372,21367,21370
201903191500,21371,21383,21371,21377
201903191501,21377,21377,21376,21377
201903191502,21377,21377,21371,21372
201903191503,21372,21372,21362,21362
201903191504,21362,21362,21350,21351
201903191505,21351,21362,21351,21362
201903191506,21362,21362,21356,21359
201903191507,21360,21361,21351,21352
201903191508,21351,21362,21351,21360
201903191509,21360,21363,21358,21361
201903191510,21359,21362,21359,21362
201903191511,21362,21372,21356,21366
201903191512,21366,21367,21365,21367
201903191513,21367,21372,21366,21367
201903191514,21367,21371,21365,21370
201903191515,21370,21372,21363,21365
201903191516,21365,21374,21365,21374
201903191517,21374,21374,21366,21371
201903191518,21371,21371,21366,21370
201903191519,21370,21371,21369,21371
201903191520,21371,21374,21370,21374
201903191521,21374,21374,21370,21374
201903191522,21374,21374,21374,21374
201903191523,21374,21374,21374,21374
201903191524,21374,21376,21372,21375
201903191525,21375,21375,21373,21374
201903191526,21374,21377,21371,21375
201903191527,21375,21376,21372,21376
201903191528,21376,21376,21373,21375
201903191529,21375,21376,21375,21375
201903191530,21375,21376,21370,21372
201903191531,21373,21373,21373,21373
201903191532,21373,21380,21373,21378
201903191533,21378,21379,21378,21379
201903191534,21379,21382,21379,21382
201903191535,21382,21389,21381,21389
201903191536,21389,21389,21384,21385
201903191537,21385,21385,21385,21385
201903191538,21385,21385,21385,21385
201903191539,21385,21387,21385,21386
201903191540,21386,21388,21386,21386
201903191541,21386,21390,21386,21389
201903191542,21389,21390,21386,21387
201903191543,21387,21389,21387,21388
201903191544,21388,21389,21388,21388
201903191545,21388,21388,21388,21388
201903191546,21388,21391,21388,21388
201903191547,21388,21388,21387,21388
201903191548,21388,21389,21388,21388
201903191549,21388,21390,21388,21388
201903191550,21388,21390,21387,21388
201903191551,21388,21389,21387,21389
201903191552,21389,21389,21388,21388
201903191553,21388,21388,21387,21388
201903191554,21388,21388,21385,21385
201903191555,21384,21392,21384,21391
201903191556,21391,21395,21389,21395
201903191557,21395,21396,21395,21395
201903191558,21395,21395,21391,21391
201903191559,21391,21396,21391,21391
201903191600,21391,21391,21384,21387
201903191601,21387,21391,21382,21391
201903191602,21391,21391,21390,21390
201903191603,21390,21392,21389,21390
201903191604,21390,21393,21390,21392
201903191605,21392,21392,21390,21391
201903191606,21391,21395,21390,21390
201903191607,21390,21390,21390,21390
201903191608,21390,21391,21389,21391
201903191609,21391,21393,21391,21393
201903191610,21392,21392,21387,21392
201903191611,21392,21394,21392,21393
201903191612,21393,21393,21389,21392
201903191613,21392,21392,21390,21392
201903191614,21392,21395,21392,21393
201903191615,21393,21394,21390,21391
201903191616,21391,21392,21384,21387
201903191617,21387,21388,21385,21388
201903191618,21388,21389,21388,21389
201903191619,21389,21389,21389,21389
201903191620,21389,21389,21387,21389
201903191621,21389,21389,21387,21387
201903191622,21387,21387,21387,21387
201903191623,21387,21387,21387,21387
201903191624,21387,21387,21383,21383
201903191625,21383,21387,21383,21387
201903191626,21387,21388,21383,21387
201903191627,21387,21387,21385,21386
201903191628,21386,21387,21380,21385
201903191629,21385,21386,21380,21386
201903191630,21390,21390,21382,21382
201903191631,21383,21384,21381,21381
201903191632,21381,21383,21381,21382
201903191633,21382,21382,21382,21382
201903191634,21382,21382,21382,21382
201903191635,21382,21382,21382,21382
201903191636,21382,21382,21378,21381
201903191637,21381,21381,21381,21381
201903191638,21381,21381,21381,21381
201903191639,21381,21381,21381,21381
201903191640,21381,21381,21381,21381
201903191641,21381,21382,21381,21381
201903191642,21381,21382,21381,21381
201903191643,21381,21382,21381,21381
201903191644,21381,21381,21377,21377
201903191645,21377,21377,21376,21376
201903191646,21376,21376,21375,21375
201903191647,21375,21376,21375,21376
201903191648,21375,21375,21375,21375
201903191649,21375,21375,21375,21375
201903191650,21375,21375,21375,21375
201903191651,21375,21380,21375,21380
201903191652,21380,21381,21376,21377
201903191653,21377,21380,21377,21379
201903191654,21379,21380,21379,21380
201903191655,21380,21386,21380,21385
201903191656,21386,21386,21385,21385
201903191657,21385,21385,21381,21382
201903191658,21382,21382,21381,21382
201903191659,21382,21382,21377,21377
201903191700,21377,21385,21377,21385
201903191701,21385,21387,21383,21386
201903191702,21386,21390,21386,21390
201903191703,21390,21392,21388,21392
201903191704,21392,21392,21386,21388
201903191705,21387,21388,21385,21385
201903191706,21385,21386,21376,21377
201903191707,21377,21377,21371,21372
201903191708,21372,21379,21371,21377
201903191709,21377,21377,21376,21376
201903191710,21376,21381,21375,21380
201903191711,21380,21385,21377,21384
201903191712,21383,21385,21381,21382
201903191713,21382,21382,21381,21382
201903191714,21382,21382,21376,21376
201903191715,21376,21381,21376,21381
201903191716,21380,21384,21380,21383
201903191717,21383,21387,21381,21386
201903191718,21386,21386,21383,21385
201903191719,21385,21386,21383,21385
201903191720,21385,21387,21383,21387
201903191721,21387,21387,21383,21387
201903191722,21387,21394,21385,21392
201903191723,21393,21394,21391,21393
201903191724,21393,21394,21391,21392
201903191725,21392,21392,21392,21392
201903191726,21392,21392,21392,21392
201903191727,21392,21392,21392,21392
201903191728,21392,21392,21392,21392
201903191729,21392,21392,21392,21392
201903191730,21392,21392,21392,21392
201903191731,21392,21402,21392,21402
201903191732,21402,21415,21402,21415
201903191733,21415,21417,21411,21412
201903191734,21412,21413,21411,21412
201903191735,21412,21417,21411,21417
201903191736,21417,21417,21411,21412
201903191737,21412,21412,21407,21407
201903191738,21407,21408,21406,21407
201903191739,21407,21407,21407,21407
201903191740,21407,21412,21407,21412
201903191741,21412,21412,21406,21410
201903191742,21410,21411,21410,21411
201903191743,21411,21411,21410,21411
201903191744,21411,21414,21411,21412
201903191745,21412,21416,21411,21415
201903191746,21415,21416,21411,21413
201903191747,21413,21415,21413,21414
201903191748,21414,21417,21413,21416
201903191749,21416,21417,21416,21416
201903191750,21416,21417,21411,21415
201903191751,21415,21415,21411,21414
201903191752,21414,21426,21412,21426
201903191753,21426,21426,21421,21422
201903191754,21422,21424,21421,21421
201903191755,21421,21424,21421,21422
201903191756,21422,21422,21421,21422
201903191757,21422,21424,21421,21422
201903191758,21422,21422,21422,21422
201903191759,21422,21424,21422,21424
201903191800,21424,21426,21424,21425
201903191801,21425,21425,21425,21425
201903191802,21425,21426,21425,21426
201903191803,21426,21426,21425,21426
201903191804,21426,21426,21425,21425
201903191805,21426,21429,21426,21427
201903191806,21427,21427,21427,21427
201903191807,21427,21427,21427,21427
201903191808,21426,21430,21426,21427
201903191809,21427,21427,21427,21427
201903191810,21427,21427,21427,21427
201903191811,21427,21427,21423,21425
201903191812,21425,21426,21424,21425
201903191813,21425,21425,21422,21422
201903191814,21422,21424,21421,21423
201903191815,21423,21424,21421,21423
201903191816,21423,21429,21421,21427
201903191817,21427,21427,21426,21427
201903191818,21427,21427,21426,21426
201903191819,21426,21426,21425,21426
201903191820,21426,21427,21421,21422
201903191821,21422,21422,21422,21422
201903191822,21422,21422,21422,21422
201903191823,21422,21422,21421,21422
201903191824,21422,21425,21421,21425
201903191825,21421,21422,21421,21422
201903191826,21422,21422,21422,21422
201903191827,21422,21422,21422,21422
201903191828,21422,21423,21421,21423
201903191829,21423,21426,21423,21426
201903191830,21426,21426,21422,21425
201903191831,21425,21430,21425,21430
201903191832,21430,21432,21427,21431
201903191833,21432,21432,21431,21431
201903191834,21431,21437,21431,21437
201903191835,21436,21437,21436,21436
201903191836,21436,21438,21436,21437
201903191837,21437,21440,21437,21440
201903191838,21440,21440,21437,21437
201903191839,21437,21437,21436,21437
201903191840,21437,21437,21437,21437
201903191841,21437,21437,21437,21437
201903191842,21437,21437,21437,21437
201903191843,21437,21437,21437,21437
201903191844,21437,21437,21432,21432
201903191845,21432,21433,21432,21433
201903191846,21433,21434,21431,21431
201903191847,21431,21436,21431,21435
201903191848,21435,21435,21431,21432
201903191849,21432,21432,21432,21432
201903191850,21432,21432,21431,21432
201903191851,21432,21432,21427,21429
201903191852,21430,21431,21430,21431
201903191853,21431,21431,21427,21427
201903191854,21427,21430,21427,21430
201903191855,21429,21429,21427,21427
201903191856,21427,21427,21427,21427
201903191857,21427,21427,21427,21427
201903191858,21427,21427,21427,21427
201903191859,21427,21427,21423,21423
201903191900,21423,21424,21421,21422
201903191901,21422,21425,21421,21424
201903191902,21424,21424,21417,21418
201903191903,21418,21421,21417,21421
201903191904,21421,21424,21421,21422
201903191905,21422,21422,21421,21422
201903191906,21422,21422,21422,21422
201903191907,21422,21422,21422,21422
201903191908,21422,21422,21422,21422
201903191909,21422,21422,21422,21422
201903191910,21422,21422,21418,21421
201903191911,21421,21421,21420,21421
201903191912,21421,21421,21418,21420
201903191913,21420,21420,21411,21415
201903191914,21415,21417,21413,21417
201903191915,21417,21417,21416,21416
201903191916,21416,21417,21416,21417
201903191917,21417,21417,21416,21417
201903191918,21417,21420,21416,21420
201903191919,21420,21421,21420,21421
201903191920,21421,21421,21420,21421
201903191921,21421,21421,21421,21421
201903191922,21421,21421,21421,21421
201903191923,21421,21421,21421,21421
201903191924,21421,21421,21421,21421
201903191925,21421,21425,21421,21425
201903191926,21425,21426,21425,21426
201903191927,21426,21426,21421,21422
201903191928,21422,21422,21422,21422
201903191929,21422,21422,21422,21422
201903191930,21422,21422,21422,21422
201903191931,21422,21422,21421,21421
201903191932,21421,21425,21421,21424
201903191933,21424,21427,21424,21427
201903191934,21427,21427,21426,21426
201903191935,21426,21427,21426,21427
201903191936,21427,21427,21426,21426
201903191937,21426,21426,21426,21426
201903191938,21426,21426,21422,21422
201903191939,21422,21422,21422,21422
201903191940,21422,21424,21422,21424
201903191941,21425,21426,21423,21426
201903191942,21426,21426,21426,21426
201903191943,21427,21431,21427,21431
201903191944,21431,21431,21431,21431
201903191945,21431,21432,21430,21431
201903191946,21431,21431,21431,21431
201903191947,21431,21431,21431,21431
201903191948,21431,21432,21431,21432
201903191949,21432,21437,21431,21435
201903191950,21435,21435,21431,21434
201903191951,21435,21439,21435,21439
201903191952,21439,21440,21439,21440
201903191953,21440,21440,21440,21440
201903191954,21440,21441,21440,21440
201903191955,21440,21444,21440,21444
201903191956,21444,21445,21444,21445
201903191957,21445,21445,21445,21445
201903191958,21445,21445,21445,21445
201903191959,21445,21445,21445,21445
201903192000,21445,21445,21440,21441
201903192001,21441,21441,21440,21440
201903192002,21440,21441,21440,21441
201903192003,21440,21441,21440,21441
201903192004,21441,21444,21441,21443
201903192005,21443,21445,21443,21445
201903192006,21445,21445,21442,21442
201903192007,21442,21442,21436,21440
201903192008,21440,21441,21436,21437
201903192009,21437,21440,21437,21440
201903192010,21440,21440,21436,21437
201903192011,21437,21439,21436,21438
201903192012,21438,21439,21437,21437
201903192013,21437,21440,21437,21438
201903192014,21439,21441,21439,21441
201903192015,21441,21441,21441,21441
201903192016,21441,21441,21441,21441
201903192017,21441,21443,21441,21441
201903192018,21441,21444,21441,21444
201903192019,21444,21446,21444,21446
201903192020,21446,21452,21446,21452
201903192021,21452,21452,21452,21452
201903192022,21452,21452,21441,21442
201903192023,21441,21442,21437,21437
201903192024,21437,21441,21437,21437
201903192025,21437,21438,21436,21437
201903192026,21437,21441,21436,21441
201903192027,21441,21441,21439,21441
201903192028,21441,21441,21441,21441
201903192029,21441,21441,21441,21441
201903192030,21441,21441,21440,21441
201903192031,21441,21442,21441,21442
201903192032,21442,21442,21441,21441
201903192033,21441,21441,21440,21440
201903192034,21441,21441,21440,21441
201903192035,21441,21441,21441,21441
201903192036,21441,21441,21437,21438
201903192037,21436,21438,21436,21437
201903192038,21437,21437,21437,21437
201903192039,21437,21441,21437,21441
201903192040,21441,21441,21436,21439
201903192041,21439,21440,21436,21437
201903192042,21437,21438,21437,21437
201903192043,21437,21440,21436,21440
201903192044,21440,21441,21440,21441
201903192045,21441,21441,21441,21441
201903192046,21441,21441,21440,21441
201903192047,21441,21442,21441,21441
201903192048,21441,21441,21440,21441
201903192049,21441,21441,21440,21441
201903192050,21441,21441,21437,21437
201903192051,21437,21437,21437,21437
201903192052,21437,21437,21437,21437
201903192053,21437,21437,21437,21437
201903192054,21437,21437,21437,21437
201903192055,21437,21441,21437,21441
201903192056,21441,21441,21440,21440
201903192057,21440,21440,21436,21436
201903192058,21436,21440,21436,21440
201903192059,21440,21440,21440,21440
201903192100,21440,21441,21440,21441
201903192101,21441,21451,21441,21450
201903192102,21450,21453,21448,21452
201903192103,21452,21452,21447,21447
201903192104,21447,21452,21447,21452
201903192105,21452,21452,21451,21452
201903192106,21452,21452,21451,21452
201903192107,21452,21452,21451,21451
201903192108,21451,21451,21450,21451
201903192109,21451,21451,21451,21451
201903192110,21451,21452,21451,21451
201903192111,21451,21452,21450,21450
201903192112,21450,21450,21446,21450
201903192113,21450,21451,21450,21451
201903192114,21451,21451,21450,21450
201903192115,21450,21451,21450,21450
201903192116,21450,21452,21450,21452
201903192117,21451,21454,21451,21452
201903192118,21452,21452,21452,21452
201903192119,21452,21452,21452,21452
201903192120,21452,21456,21451,21453
201903192121,21453,21454,21451,21452
201903192122,21452,21452,21452,21452
201903192123,21452,21452,21452,21452
201903192124,21452,21466,21452,21465
201903192125,21464,21467,21461,21461
201903192126,21461,21465,21452,21456
201903192127,21456,21456,21452,21452
201903192128,21452,21452,21451,21452
201903192129,21452,21455,21451,21452
201903192130,21452,21454,21452,21452
201903192131,21452,21454,21452,21454
201903192132,21454,21457,21454,21457
201903192133,21457,21460,21457,21459
201903192134,21459,21461,21458,21460
201903192135,21460,21464,21459,21462
201903192136,21462,21464,21461,21461
201903192137,21461,21462,21461,21462
201903192138,21462,21462,21462,21462
201903192139,21462,21462,21456,21460
201903192140,21460,21460,21456,21457
201903192141,21457,21461,21456,21457
201903192142,21457,21458,21456,21457
201903192143,21457,21462,21457,21462
201903192144,21463,21463,21461,21461
201903192145,21461,21464,21461,21462
201903192146,21462,21462,21462,21462
201903192147,21462,21462,21462,21462
201903192148,21462,21462,21462,21462
201903192149,21462,21462,21462,21462
201903192150,21462,21467,21462,21466
201903192151,21466,21467,21466,21467
201903192152,21467,21472,21467,21472
201903192153,21472,21475,21471,21472
201903192154,21472,21474,21471,21472
201903192155,21472,21472,21472,21472
201903192156,21472,21475,21472,21472
201903192157,21472,21472,21472,21472
201903192158,21472,21472,21472,21472
201903192159,21472,21476,21472,21476
201903192200,21476,21477,21475,21477
201903192201,21477,21477,21476,21477
201903192202,21477,21478,21476,21477
201903192203,21477,21483,21477,21482
201903192204,21482,21484,21477,21477
201903192205,21477,21477,21476,21477
201903192206,21477,21481,21476,21481
201903192207,21481,21481,21476,21477
201903192208,21477,21477,21476,21477
201903192209,21477,21477,21477,21477
201903192210,21477,21477,21477,21477
201903192211,21477,21477,21477,21477
201903192212,21477,21477,21476,21477
201903192213,21477,21477,21475,21476
201903192214,21476,21476,21475,21476
201903192215,21476,21476,21472,21472
201903192216,21472,21472,21472,21472
201903192217,21472,21475,21472,21474
201903192218,21475,21475,21472,21472
201903192219,21472,21472,21472,21472
201903192220,21472,21476,21471,21475
201903192221,21475,21475,21471,21472
201903192222,21472,21472,21472,21472
201903192223,21472,21472,21466,21470
201903192224,21470,21471,21462,21463
201903192225,21463,21469,21461,21468
201903192226,21469,21469,21466,21468
201903192227,21468,21471,21468,21471
201903192228,21471,21471,21470,21471
201903192229,21471,21472,21471,21471
201903192230,21471,21473,21467,21472
201903192231,21472,21477,21471,21475
201903192232,21475,21479,21474,21479
201903192233,21479,21480,21477,21479
201903192234,21479,21479,21471,21471
201903192235,21472,21476,21470,21476
201903192236,21476,21483,21476,21482
201903192237,21482,21482,21476,21480
201903192238,21480,21480,21472,21475
201903192239,21475,21476,21473,21474
201903192240,21474,21475,21466,21471
201903192241,21471,21472,21462,21465
201903192242,21466,21468,21457,21457
201903192243,21457,21461,21456,21461
201903192244,21461,21462,21458,21461
201903192245,21461,21470,21461,21467
201903192246,21467,21467,21465,21467
201903192247,21467,21467,21461,21466
201903192248,21466,21472,21465,21468
201903192249,21468,21470,21461,21462
201903192250,21462,21462,21457,21458
201903192251,21460,21461,21457,21457
201903192252,21457,21458,21457,21457
201903192253,21457,21462,21457,21462
201903192254,21462,21463,21461,21462
201903192255,21462,21462,21462,21462
201903192256,21462,21467,21461,21465
201903192257,21465,21466,21457,21457
201903192258,21457,21459,21451,21452
201903192259,21452,21456,21451,21451
201903192300,21452,21461,21451,21461
201903192301,21461,21463,21460,21462
201903192302,21462,21468,21462,21467
201903192303,21467,21468,21462,21462
201903192304,21462,21462,21460,21461
201903192305,21461,21467,21461,21463
201903192306,21464,21466,21456,21462
201903192307,21462,21466,21461,21462
201903192308,21462,21462,21456,21460
201903192309,21461,21468,21461,21468
201903192310,21468,21472,21466,21472
201903192311,21472,21475,21471,21473
201903192312,21474,21476,21472,21472
201903192313,21472,21475,21471,21471
201903192314,21471,21473,21471,21472
201903192315,21472,21472,21471,21472
201903192316,21472,21475,21471,21475
201903192317,21475,21476,21475,21475
201903192318,21475,21479,21475,21477
201903192319,21477,21481,21476,21480
201903192320,21480,21480,21473,21475
201903192321,21475,21477,21475,21475
201903192322,21475,21476,21472,21472
201903192323,21472,21476,21472,21476
201903192324,21476,21477,21472,21472
201903192325,21472,21476,21471,21472
201903192326,21472,21472,21466,21467
201903192327,21467,21467,21465,21465
201903192328,21466,21466,21455,21455
201903192329,21455,21456,21454,21455
201903192330,21455,21462,21455,21462
201903192331,21462,21464,21461,21464
201903192332,21464,21466,21461,21466
201903192333,21466,21467,21466,21467
201903192334,21467,21472,21467,21471
201903192335,21471,21472,21471,21472
201903192336,21472,21474,21471,21472
201903192337,21472,21474,21471,21472
201903192338,21472,21473,21471,21472
201903192339,21472,21472,21471,21471
201903192340,21471,21471,21466,21467
201903192341,21467,21467,21466,21467
201903192342,21467,21467,21462,21462
201903192343,21462,21462,21455,21455
201903192344,21455,21461,21455,21457
201903192345,21457,21457,21452,21457
201903192346,21457,21462,21456,21461
201903192347,21461,21462,21456,21461
201903192348,21461,21461,21459,21459
201903192349,21458,21462,21458,21461
201903192350,21461,21461,21456,21459
201903192351,21459,21460,21456,21459
201903192352,21460,21461,21460,21461
201903192353,21461,21465,21461,21464
201903192354,21464,21464,21456,21457
201903192355,21457,21457,21457,21457
201903192356,21457,21457,21452,21452
201903192357,21452,21452,21442,21442
201903192358,21442,21442,21433,21436
201903192359,21436,21436,21430,21432
201903200000,21431,21438,21431,21437
201903200001,21437,21437,21431,21436
201903200002,21436,21437,21435,21436
201903200003,21436,21442,21436,21441
201903200004,21441,21444,21441,21441
201903200005,21442,21442,21440,21441
201903200006,21441,21442,21441,21441
201903200007,21441,21442,21440,21441
201903200008,21441,21442,21436,21437
201903200009,21437,21444,21437,21444
201903200010,21444,21444,21437,21437
201903200011,21437,21442,21437,21442
201903200012,21442,21447,21441,21446
201903200013,21446,21447,21446,21447
201903200014,21447,21452,21447,21452
201903200015,21452,21452,21446,21447
201903200016,21447,21448,21446,21447
201903200017,21447,21451,21446,21451
201903200018,21451,21451,21446,21446
201903200019,21446,21452,21446,21451
201903200020,21451,21456,21451,21455
201903200021,21455,21456,21455,21456
201903200022,21456,21457,21455,21457
201903200023,21457,21457,21457,21457
201903200024,21457,21457,21456,21457
201903200025,21457,21460,21457,21458
201903200026,21459,21460,21458,21458
201903200027,21459,21459,21458,21459
201903200028,21459,21459,21457,21457
201903200029,21457,21457,21453,21454
201903200030,21453,21453,21446,21447
201903200031,21447,21452,21447,21450
201903200032,21451,21453,21450,21452
201903200033,21452,21453,21451,21453
201903200034,21453,21459,21453,21457
201903200035,21457,21459,21457,21459
201903200036,21459,21459,21456,21457
201903200037,21457,21462,21457,21462
201903200038,21462,21465,21461,21465
201903200039,21465,21467,21463,21464
201903200040,21464,21465,21463,21465
201903200041,21465,21465,21464,21465
201903200042,21465,21466,21465,21465
201903200043,21465,21465,21465,21465
201903200044,21465,21465,21461,21464
201903200045,21464,21464,21461,21464
201903200046,21464,21470,21464,21470
201903200047,21470,21470,21470,21470
201903200048,21470,21472,21470,21472
201903200049,21472,21481,21472,21481
201903200050,21481,21486,21481,21486
201903200051,21485,21486,21481,21483
201903200052,21484,21484,21482,21482
201903200053,21482,21482,21480,21481
201903200054,21481,21481,21479,21479
201903200055,21479,21481,21479,21480
201903200056,21480,21484,21479,21482
201903200057,21482,21489,21481,21488
201903200058,21489,21489,21485,21487
201903200059,21487,21489,21486,21487
201903200100,21487,21487,21482,21487
201903200101,21487,21487,21486,21487
201903200102,21487,21490,21486,21487
201903200103,21487,21489,21486,21486
201903200104,21486,21486,21481,21483
201903200105,21483,21486,21483,21485
201903200106,21485,21490,21485,21489
201903200107,21489,21489,21485,21485
201903200108,21485,21486,21481,21482
201903200109,21482,21483,21482,21482
201903200110,21482,21484,21481,21484
201903200111,21484,21484,21483,21484
201903200112,21484,21486,21481,21486
201903200113,21486,21486,21483,21485
201903200114,21485,21486,21483,21486
201903200115,21485,21485,21477,21477
201903200116,21477,21477,21466,21467
201903200117,21467,21467,21463,21467
201903200118,21467,21467,21461,21462
201903200119,21462,21462,21462,21462
201903200120,21462,21462,21462,21462
201903200121,21462,21462,21456,21457
201903200122,21457,21462,21456,21462
201903200123,21462,21462,21462,21462
201903200124,21462,21467,21461,21466
201903200125,21466,21472,21461,21466
201903200126,21466,21467,21466,21466
201903200127,21466,21467,21466,21466
201903200128,21466,21470,21466,21470
201903200129,21470,21470,21466,21469
201903200130,21468,21471,21467,21471
201903200131,21471,21471,21461,21467
201903200132,21466,21471,21466,21471
201903200133,21471,21471,21466,21468
201903200134,21468,21469,21466,21467
201903200135,21467,21467,21461,21461
201903200136,21461,21466,21461,21465
201903200137,21465,21466,21462,21465
201903200138,21465,21472,21465,21472
201903200139,21472,21472,21466,21467
201903200140,21467,21474,21466,21473
201903200141,21473,21475,21471,21475
201903200142,21475,21475,21471,21472
201903200143,21472,21472,21471,21472
201903200144,21472,21472,21470,21472
201903200145,21472,21472,21472,21472
201903200146,21472,21472,21436,21436
201903200147,21437,21442,21422,21441
201903200148,21438,21438,21423,21423
201903200149,21423,21423,21390,21393
201903200150,21392,21420,21386,21417
201903200151,21419,21427,21416,21427
201903200152,21426,21426,21413,21420
201903200153,21420,21422,21413,21421
201903200154,21421,21421,21413,21416
201903200155,21417,21422,21412,21421
201903200156,21421,21423,21419,21422
201903200157,21421,21432,21421,21428
201903200158,21428,21434,21428,21430
201903200159,21430,21450,21426,21450
201903200200,21446,21451,21436,21446
201903200201,21446,21446,21435,21437
201903200202,21437,21441,21435,21435
201903200203,21435,21446,21435,21440
201903200204,21440,21450,21440,21450
201903200205,21450,21452,21445,21451
201903200206,21451,21452,21445,21447
201903200207,21447,21447,21441,21446
201903200208,21446,21447,21441,21443
201903200209,21443,21447,21440,21442
201903200210,21442,21442,21440,21441
201903200211,21441,21446,21435,21440
201903200212,21440,21448,21440,21447
201903200213,21447,21452,21445,21451
201903200214,21451,21457,21451,21457
201903200215,21457,21457,21454,21454
201903200216,21454,21457,21450,21450
201903200217,21450,21457,21450,21455
201903200218,21455,21457,21450,21452
201903200219,21452,21452,21450,21452
201903200220,21452,21457,21452,21457
201903200221,21457,21457,21450,21450
201903200222,21450,21455,21450,21450
201903200223,21450,21455,21450,21451
201903200224,21451,21452,21445,21446
201903200225,21446,21447,21445,21445
201903200226,21445,21447,21445,21447
201903200227,21447,21452,21445,21452
201903200228,21452,21452,21446,21447
201903200229,21447,21451,21446,21446
201903200230,21446,21447,21444,21447
201903200231,21447,21447,21441,21446
201903200232,21446,21447,21440,21445
201903200233,21447,21447,21440,21441
201903200234,21442,21447,21440,21447
201903200235,21447,21450,21444,21450
201903200236,21450,21452,21446,21446
201903200237,21446,21452,21446,21452
201903200238,21452,21452,21449,21451
201903200239,21451,21452,21443,21445
201903200240,21445,21447,21442,21445
201903200241,21444,21446,21439,21439
201903200242,21439,21442,21438,21440
201903200243,21440,21442,21437,21442
201903200244,21442,21442,21437,21441
201903200245,21441,21442,21436,21437
201903200246,21437,21437,21430,21436
201903200247,21436,21437,21431,21435
201903200248,21435,21437,21432,21432
201903200249,21432,21437,21431,21436
201903200250,21436,21442,21436,21437
201903200251,21437,21441,21435,21437
201903200252,21437,21437,21431,21434
201903200253,21434,21437,21430,21430
201903200254,21430,21437,21430,21437
201903200255,21437,21437,21433,21436
201903200256,21436,21436,21426,21429
201903200257,21429,21432,21427,21431
201903200258,21431,21437,21430,21432
201903200259,21432,21432,21430,21431
201903200300,21431,21432,21427,21431
201903200301,21431,21437,21430,21433
201903200302,21433,21436,21430,21431
201903200303,21431,21432,21430,21432
201903200304,21432,21437,21430,21437
201903200305,21437,21437,21435,21437
201903200306,21437,21437,21435,21435
201903200307,21435,21437,21431,21432
201903200308,21432,21437,21427,21428
201903200309,21428,21432,21425,21432
201903200310,21432,21432,21422,21422
201903200311,21422,21426,21417,21417
201903200312,21417,21420,21415,21419
201903200313,21419,21422,21418,21420
201903200314,21420,21422,21419,21421
201903200315,21421,21422,21417,21417
201903200316,21417,21419,21414,21416
201903200317,21416,21422,21416,21422
201903200318,21422,21422,21417,21421
201903200319,21421,21427,21421,21426
201903200320,21426,21430,21426,21430
201903200321,21430,21431,21428,21428
201903200322,21428,21428,21425,21426
201903200323,21426,21429,21425,21429
201903200324,21429,21431,21426,21428
201903200325,21428,21434,21428,21434
201903200326,21434,21437,21434,21435
201903200327,21435,21437,21430,21432
201903200328,21432,21437,21431,21437
201903200329,21436,21437,21432,21437
201903200330,21437,21438,21434,21436
201903200331,21436,21437,21434,21436
201903200332,21436,21437,21435,21436
201903200333,21436,21437,21435,21437
201903200334,21437,21437,21436,21437
201903200335,21437,21437,21436,21436
201903200336,21436,21442,21436,21441
201903200337,21441,21442,21440,21442
201903200338,21442,21442,21441,21442
201903200339,21442,21442,21436,21436
201903200340,21436,21436,21435,21436
201903200341,21436,21442,21436,21441
201903200342,21441,21442,21436,21441
201903200343,21441,21444,21440,21440
201903200344,21440,21447,21440,21447
201903200345,21447,21447,21446,21447
201903200346,21447,21447,21441,21446
201903200347,21446,21446,21441,21442
201903200348,21442,21447,21441,21447
201903200349,21447,21447,21441,21441
201903200350,21441,21441,21436,21437
201903200351,21437,21437,21432,21437
201903200352,21437,21437,21432,21436
201903200353,21436,21437,21431,21436
201903200354,21436,21441,21433,21441
201903200355,21441,21442,21439,21441
201903200356,21441,21442,21433,21437
201903200357,21437,21442,21436,21442
201903200358,21442,21442,21430,21431
201903200359,21431,21437,21429,21431
201903200400,21431,21434,21430,21432
201903200401,21432,21432,21422,21426
201903200402,21426,21427,21417,21420
201903200403,21420,21422,21417,21417
201903200404,21417,21427,21417,21427
201903200405,21427,21432,21426,21427
201903200406,21427,21427,21422,21426
201903200407,21426,21427,21425,21427
201903200408,21427,21427,21420,21422
201903200409,21422,21425,21420,21420
201903200410,21420,21422,21418,21421
201903200411,21421,21425,21420,21421
201903200412,21421,21422,21417,21422
201903200413,21422,21422,21410,21410
201903200414,21410,21412,21408,21410
201903200415,21410,21412,21405,21411
201903200416,21411,21412,21406,21407
201903200417,21407,21412,21402,21412
201903200418,21412,21412,21406,21407
201903200419,21407,21407,21396,21398
201903200420,21398,21401,21392,21397
201903200421,21397,21402,21396,21399
201903200422,21399,21399,21395,21397
201903200423,21397,21397,21390,21393
201903200424,21392,21392,21390,21392
201903200425,21392,21392,21382,21391
201903200426,21391,21392,21386,21392
201903200427,21391,21392,21385,21390
201903200428,21390,21392,21385,21391
201903200429,21391,21391,21384,21384
201903200430,21384,21385,21378,21384
201903200431,21384,21384,21376,21384
201903200432,21384,21392,21380,21392
201903200433,21392,21392,21390,21390
201903200434,21390,21392,21390,21392
201903200435,21392,21392,21378,21379
201903200436,21379,21387,21378,21382
201903200437,21382,21385,21379,21381
201903200438,21381,21387,21380,21387
201903200439,21387,21387,21381,21381
201903200440,21381,21381,21369,21370
201903200441,21370,21372,21368,21371
201903200442,21371,21372,21366,21372
201903200443,21372,21372,21364,21364
201903200444,21366,21367,21361,21367
201903200445,21366,21377,21365,21376
201903200446,21376,21380,21375,21380
201903200447,21380,21387,21380,21384
201903200448,21384,21387,21383,21387
201903200449,21387,21392,21385,21392
201903200450,21392,21397,21390,21396
201903200451,21395,21397,21390,21394
201903200452,21394,21394,21382,21385
201903200453,21385,21387,21383,21386
201903200454,21386,21392,21386,21386
201903200455,21386,21392,21386,21392
201903200456,21392,21397,21386,21397
201903200457,21397,21397,21395,21397
201903200458,21397,21402,21395,21402
201903200459,21402,21412,21400,21410
201903200500,21410,21411,21401,21405
201903200501,21405,21405,21404,21405
201903200502,21405,21405,21400,21402
201903200503,21402,21403,21396,21396
201903200504,21396,21401,21396,21397
201903200505,21397,21401,21397,21401
201903200506,21401,21402,21400,21401
201903200507,21401,21402,21396,21398
201903200508,21398,21399,21392,21395
201903200509,21395,21396,21392,21396
201903200510,21396,21397,21396,21396
201903200511,21396,21396,21395,21396
201903200512,21396,21397,21395,21397
201903200513,21397,21397,21395,21397
201903200514,21397,21397,21386,21391
201903200515,21391,21393,21391,21392
201903200516,21392,21394,21392,21392
201903200517,21392,21396,21392,21395
201903200518,21395,21395,21392,21392
201903200519,21392,21392,21392,21392
201903200520,21392,21393,21392,21393
201903200521,21393,21393,21392,21393
201903200522,21393,21394,21392,21394
201903200523,21394,21399,21394,21399
201903200524,21399,21401,21395,21395
201903200525,21395,21395,21391,21393
201903200526,21393,21395,21393,21394
201903200527,21394,21396,21394,21395
201903200528,21395,21395,21395,21395
201903200529,21395,21401,21395,21401
201903200530,21401,21401,21390,21391
201903200531,21391,21392,21390,21390
201903200532,21390,21395,21388,21395
201903200533,21395,21395,21392,21395
201903200534,21395,21395,21390,21390
201903200535,21390,21390,21390,21390
201903200536,21390,21390,21390,21390
201903200537,21390,21390,21390,21390
201903200538,21390,21390,21390,21390
201903200539,21390,21390,21390,21390
201903200540,21390,21390,21390,21390
201903200541,21390,21390,21390,21390
201903200542,21390,21390,21389,21389
201903200543,21389,21390,21389,21389
201903200544,21388,21390,21386,21390
201903200545,21390,21390,21385,21386
201903200546,21386,21390,21386,21390
201903200547,21390,21390,21389,21390
201903200548,21390,21390,21390,21390
201903200549,21390,21391,21390,21390
201903200550,21390,21391,21390,21390
201903200551,21390,21391,21390,21391
201903200552,21391,21391,21390,21391
201903200553,21391,21392,21390,21391
201903200554,21391,21391,21390,21391
201903200555,21391,21391,21390,21391
201903200556,21391,21391,21391,21391
201903200557,21391,21391,21389,21389
201903200558,21389,21391,21389,21389
201903200559,21389,21391,21386,21386
