日時,始値(BID),高値(BID),安値(BID),終値(BID)
201901250800,6684,6684.8,6681.2,6684.2
201901250801,6684.2,6684.6,6682.5,6682.5
201901250802,6682.5,6682.8,6681.1,6681.3
201901250803,6681.3,6682.5,6681.2,6682.1
201901250804,6682,6683.3,6682,6683.1
201901250805,6683.1,6683.3,6679.7,6679.7
201901250806,6679.7,6682.4,6679.1,6682.4
201901250807,6682.4,6682.4,6680.1,6681
201901250808,6681,6681,6679.9,6680.1
201901250809,6680.1,6681.5,6680,6681.5
201901250810,6681.5,6681.9,6681,6681.1
201901250811,6681,6681.5,6680.8,6681.1
201901250812,6681.1,6681.6,6680.7,6681.3
201901250813,6681.4,6681.9,6680.4,6680.4
201901250814,6680.4,6681.6,6680.4,6681.5
201901250815,6681.5,6681.6,6681.3,6681.3
201901250816,6681.4,6681.9,6681.4,6681.9
201901250817,6681.9,6682.5,6681.8,6682.5
201901250818,6682.5,6683.2,6681.8,6681.9
201901250819,6681.9,6681.9,6681.2,6681.2
201901250820,6681.4,6682.1,6681.4,6682
201901250821,6681.8,6682.4,6681.8,6682.1
201901250822,6682.1,6682.1,6681.4,6681.4
201901250823,6681.4,6681.9,6680.9,6681.1
201901250824,6681.2,6681.2,6680.4,6680.4
201901250825,6680.4,6680.6,6680.3,6680.3
201901250826,6680.3,6680.3,6677.3,6677.3
201901250827,6677.3,6678.7,6677.3,6678.4
201901250828,6678.5,6679.1,6678.4,6679.1
201901250829,6679.1,6679.4,6678.6,6679.1
201901250830,6679.1,6680.8,6678.7,6680.8
201901250831,6680.8,6681.3,6679.6,6679.6
201901250832,6679.7,6679.9,6678.4,6678.5
201901250833,6678.6,6678.6,6677.6,6678.3
201901250834,6678.3,6678.3,6676.7,6678
201901250835,6678,6678.1,6676.7,6678.1
201901250836,6678.1,6679.3,6677.9,6679
201901250837,6679,6679.1,6678.8,6679.1
201901250838,6679.1,6681.1,6678.6,6680.2
201901250839,6680.2,6680.3,6679.3,6679.3
201901250840,6679.3,6679.3,6678.9,6678.9
201901250841,6678.8,6680.3,6678.8,6680.2
201901250842,6680.1,6681,6680.1,6680.4
201901250843,6680.2,6681.3,6680.2,6680.9
201901250844,6680.9,6681.1,6680.7,6680.7
201901250845,6680.7,6680.9,6680.1,6680.6
201901250846,6680.7,6680.7,6679.2,6679.2
201901250847,6679.2,6680.8,6679,6680.8
201901250848,6680.6,6681.5,6679.2,6679.5
201901250849,6679.5,6680.2,6679.2,6680
201901250850,6680,6680.2,6679,6679.1
201901250851,6679.1,6679.5,6678.1,6678.2
201901250852,6678.2,6678.2,6677.2,6677.5
201901250853,6677.5,6678.5,6677.5,6678.4
201901250854,6678.4,6679,6678.4,6679
201901250855,6679,6681.1,6678.6,6680.8
201901250856,6680.8,6681.9,6680.8,6681.7
201901250857,6681.7,6686.9,6681.7,6684.7
201901250858,6684.7,6686.8,6684.7,6684.8
201901250859,6684.8,6686.6,6684.7,6686.3
201901250900,6686.3,6688,6685.4,6686.4
201901250901,6686.4,6686.4,6684,6685.4
201901250902,6685.4,6689.1,6684.9,6688.8
201901250903,6688.9,6689.8,6687.7,6689.8
201901250904,6689.8,6692.1,6689.8,6692.1
201901250905,6692.1,6693.4,6690.7,6691.1
201901250906,6691.1,6691.5,6689.9,6691.1
201901250907,6691.1,6691.8,6690.3,6691
201901250908,6691,6692.3,6690.4,6690.9
201901250909,6691,6692.8,6690.7,6692.5
201901250910,6692.5,6692.6,6690.7,6690.7
201901250911,6690.7,6691.2,6690,6690.1
201901250912,6690.1,6691.8,6690,6691.3
201901250913,6691.3,6692.5,6690.9,6691.2
201901250914,6691.3,6692,6691.2,6691.2
201901250915,6691.2,6692.9,6690.3,6692.8
201901250916,6692.8,6697,6692.8,6696.3
201901250917,6696.3,6696.4,6694.4,6694.4
201901250918,6694.3,6694.8,6693,6693.4
201901250919,6693.3,6694.5,6692.6,6692.7
201901250920,6692.6,6693.6,6692.5,6692.7
201901250921,6692.9,6693.8,6692.6,6692.6
201901250922,6692.6,6693.8,6692.2,6693.7
201901250923,6693.7,6694.2,6692.9,6693.5
201901250924,6693.5,6693.6,6692.9,6693
201901250925,6693,6693.2,6692.4,6692.4
201901250926,6692.4,6692.9,6691.2,6691.2
201901250927,6691.3,6691.3,6688.9,6689.1
201901250928,6689.1,6689.1,6687.2,6687.7
201901250929,6687.7,6689.3,6687.1,6689.2
201901250930,6689.2,6689.8,6687.6,6689.2
201901250931,6689.2,6689.2,6687.7,6688.8
201901250932,6688.8,6689.6,6687.9,6689.6
201901250933,6689.6,6689.8,6688.4,6689.1
201901250934,6689.3,6689.6,6689.2,6689.2
201901250935,6689.3,6689.3,6688.1,6688.7
201901250936,6688.6,6689.1,6687.9,6688
201901250937,6688,6689.3,6688,6689.1
201901250938,6689,6689.5,6689,6689.4
201901250939,6689.4,6689.4,6688.7,6689.3
201901250940,6689.3,6689.8,6688.9,6689.2
201901250941,6689.2,6689.5,6688.4,6688.8
201901250942,6688.8,6689.1,6688,6688.5
201901250943,6688.5,6688.8,6688.4,6688.5
201901250944,6688.5,6688.9,6688.5,6688.9
201901250945,6688.9,6688.9,6688,6688.9
201901250946,6688.9,6689.7,6688.4,6689.7
201901250947,6689.7,6689.9,6688.9,6688.9
201901250948,6688.9,6689.1,6688.6,6688.6
201901250949,6688.7,6690.5,6688.6,6689.9
201901250950,6689.9,6691.4,6689.6,6691.4
201901250951,6691.4,6692.3,6690.3,6691.7
201901250952,6691.7,6691.7,6690.4,6690.7
201901250953,6690.7,6690.9,6690,6690.3
201901250954,6690.4,6692.3,6690.4,6692
201901250955,6692,6693,6691.6,6692.3
201901250956,6692.4,6692.9,6692.4,6692.7
201901250957,6692.6,6693.2,6692.4,6693.2
201901250958,6692.9,6693.2,6692.1,6692.6
201901250959,6692.5,6693.4,6692.5,6692.8
201901251000,6692.8,6693.9,6691.4,6691.4
201901251001,6691.4,6691.6,6690.9,6691.3
201901251002,6691.3,6691.6,6690.5,6690.5
201901251003,6690.5,6691.1,6690,6690.6
201901251004,6690.6,6691.1,6689.6,6689.7
201901251005,6689.7,6689.8,6688.6,6688.6
201901251006,6688.6,6688.7,6687.8,6688.5
201901251007,6688.5,6690.3,6688.2,6690.3
201901251008,6690.3,6690.3,6689.3,6690
201901251009,6690,6690.5,6689.6,6690.4
201901251010,6690.4,6690.9,6690.2,6690.6
201901251011,6690.6,6690.8,6690.1,6690.4
201901251012,6690.4,6690.4,6689.4,6689.7
201901251013,6689.5,6689.8,6686.4,6686.6
201901251014,6686.5,6687.2,6685.7,6687
201901251015,6687,6687.5,6684,6684
201901251016,6684,6684.9,6683.6,6684.6
201901251017,6684.6,6684.9,6682.8,6683.9
201901251018,6683.9,6685,6683.5,6683.8
201901251019,6683.8,6685.3,6683.7,6684.2
201901251020,6684.2,6684.3,6682,6682.5
201901251021,6682.5,6684.4,6682.2,6684.1
201901251022,6684.4,6685.8,6684.4,6685
201901251023,6684.9,6684.9,6683.4,6684.5
201901251024,6684.5,6685.6,6683.6,6684.3
201901251025,6684.3,6684.3,6682.7,6683.9
201901251026,6683.9,6683.9,6682.5,6683.1
201901251027,6683.1,6684.3,6682.4,6684
201901251028,6684,6684.5,6683.7,6683.7
201901251029,6683.6,6684.8,6683.1,6684.7
201901251030,6684.7,6685.4,6682.7,6684.5
201901251031,6684.5,6687.5,6684.5,6687.3
201901251032,6687.3,6688.3,6686.3,6688.2
201901251033,6688.2,6689.1,6686.8,6687.4
201901251034,6687.4,6688.1,6686.9,6687.1
201901251035,6687.1,6689.8,6687.1,6689.8
201901251036,6689.8,6690.1,6687.8,6688.1
201901251037,6688.1,6688.4,6684.9,6685.4
201901251038,6685.6,6687.1,6685.1,6686.6
201901251039,6686.6,6688.9,6686.1,6687
201901251040,6687,6688.3,6687,6687.8
201901251041,6687.8,6689.4,6686.9,6688.8
201901251042,6688.8,6689.5,6688.3,6688.5
201901251043,6688.5,6690.5,6688.4,6690.1
201901251044,6690.1,6694,6689.9,6693.6
201901251045,6693.6,6698.3,6693.1,6698.2
201901251046,6698.2,6700.5,6697.7,6699.2
201901251047,6699,6700.5,6698,6698.9
201901251048,6698.9,6701.3,6698.8,6699.6
201901251049,6699.6,6700.8,6699.6,6699.8
201901251050,6699.8,6700.9,6699.2,6700.2
201901251051,6700.2,6702.3,6700,6701.6
201901251052,6701.5,6702.1,6697.7,6698.4
201901251053,6698.4,6699.3,6698.3,6698.4
201901251054,6698.5,6698.9,6697.6,6698.9
201901251055,6698.9,6699.4,6698.1,6698.1
201901251056,6698.1,6698.4,6696,6696
201901251057,6696,6697.8,6696,6696.6
201901251058,6696.6,6697.5,6696.3,6696.4
201901251059,6696.4,6696.4,6694.1,6694.6
201901251100,6694.6,6697.3,6694.4,6696.3
201901251101,6696.3,6698.5,6696.3,6697.6
201901251102,6697.4,6700.8,6696.9,6700.4
201901251103,6700.5,6701.1,6699.4,6699.4
201901251104,6699.4,6700,6698.9,6699.6
201901251105,6699.6,6701.8,6699.6,6699.7
201901251106,6699.7,6699.7,6695.9,6696.5
201901251107,6696.5,6698.6,6696,6698.4
201901251108,6698.4,6699.3,6696.8,6698.7
201901251109,6698.6,6699,6697.9,6697.9
201901251110,6697.9,6700.4,6697.9,6699.2
201901251111,6699.2,6700.5,6698.8,6700.3
201901251112,6700.3,6700.3,6698.7,6698.9
201901251113,6698.9,6700.1,6698.2,6698.2
201901251114,6698.2,6699.9,6697.8,6699.9
201901251115,6699.9,6700,6698.6,6699.3
201901251116,6699.3,6700.1,6698.9,6698.9
201901251117,6698.8,6699.3,6698.4,6698.9
201901251118,6698.9,6700.3,6698.9,6699.6
201901251119,6699.7,6700.4,6699.4,6700.3
201901251120,6700.4,6702.5,6700.4,6700.8
201901251121,6700.8,6701.1,6700.1,6700.8
201901251122,6700.7,6704,6700.7,6704
201901251123,6704,6704,6702.1,6702.3
201901251124,6702.3,6703.9,6702.1,6703.7
201901251125,6703.7,6706.5,6703.7,6704.9
201901251126,6704.9,6704.9,6703.2,6704.4
201901251127,6704.4,6705.4,6704.4,6704.8
201901251128,6704.8,6705.3,6704,6705.1
201901251129,6705.1,6706.2,6704.8,6706.1
201901251130,6706.1,6706.5,6704.7,6706.5
201901251131,6706.5,6707.4,6706.3,6706.6
201901251132,6706.5,6706.9,6706,6706.4
201901251133,6706.4,6707.5,6706.4,6707.1
201901251134,6707.1,6708.4,6707.1,6708.3
201901251135,6708.3,6708.4,6707.2,6707.7
201901251136,6707.6,6709.5,6707.6,6709.3
201901251137,6709.3,6709.3,6707.7,6708.3
201901251138,6708.3,6708.4,6707,6708.4
201901251139,6708.5,6709.4,6706.7,6706.9
201901251140,6706.9,6707,6705.9,6706.3
201901251141,6706.3,6707.8,6705.9,6707.1
201901251142,6707.1,6707.4,6706.6,6706.6
201901251143,6706.6,6708.4,6706.1,6706.2
201901251144,6706.1,6707.6,6706.1,6707.5
201901251145,6707.5,6709.3,6707.5,6708.8
201901251146,6708.8,6709.5,6708.1,6709.2
201901251147,6709.2,6710.5,6708.1,6708.3
201901251148,6708.2,6708.8,6707.8,6708
201901251149,6708,6709.1,6707.9,6708.7
201901251150,6708.7,6709,6708,6708.8
201901251151,6708.4,6708.8,6707,6707.8
201901251152,6707.9,6708.3,6707.4,6708.2
201901251153,6708.2,6708.2,6705.7,6706.1
201901251154,6706.1,6706.6,6705.2,6705.3
201901251155,6705.3,6705.6,6704.9,6705.3
201901251156,6705.3,6705.8,6705,6705.3
201901251157,6705.3,6705.4,6704,6704.7
201901251158,6704.7,6705.5,6704.7,6705
201901251159,6705,6705.7,6704.9,6705.6
201901251200,6705.6,6705.8,6704.8,6705.1
201901251201,6705,6705.1,6704,6704.8
201901251202,6704.9,6705.7,6704.4,6705.7
201901251203,6705.7,6706,6704.4,6704.6
201901251204,6704.6,6705.5,6704.6,6705.4
201901251205,6705.4,6705.8,6705.3,6705.8
201901251206,6705.8,6705.8,6704.7,6704.7
201901251207,6704.5,6706.8,6704.2,6706.3
201901251208,6706.3,6706.8,6706,6706
201901251209,6706.2,6707.4,6705.9,6706
201901251210,6706,6707.1,6705.7,6706.2
201901251211,6706.2,6706.6,6705.7,6706.1
201901251212,6706.1,6707.3,6706.1,6707.2
201901251213,6707.2,6708.2,6706.7,6708.1
201901251214,6708.1,6708.6,6707.8,6708.3
201901251215,6708.3,6709,6707.5,6709
201901251216,6709,6711.8,6708.7,6711
201901251217,6711,6711.1,6709.4,6710.2
201901251218,6710.1,6711.9,6709.8,6711.9
201901251219,6711.9,6713.6,6710.9,6712.4
201901251220,6712.4,6712.6,6710.4,6710.4
201901251221,6710.4,6711.7,6709.8,6711.7
201901251222,6711.7,6711.7,6710.1,6710.4
201901251223,6710.3,6710.3,6709.1,6709.6
201901251224,6709.6,6710,6708.7,6708.9
201901251225,6708.9,6710.3,6708.9,6709.9
201901251226,6709.9,6711.3,6709.9,6710.9
201901251227,6710.9,6711.3,6710.4,6711.1
201901251228,6711.1,6711.6,6710.6,6711.5
201901251229,6711.5,6711.9,6711.4,6711.5
201901251230,6711.4,6712.1,6711.4,6711.7
201901251231,6711.6,6711.8,6710.7,6711.6
201901251232,6711.6,6712,6711.3,6711.9
201901251233,6711.8,6713.1,6711.6,6712.6
201901251234,6712.6,6713,6712.4,6712.5
201901251235,6712.5,6714.1,6711.9,6712.1
201901251236,6712.1,6712.4,6712,6712.4
201901251237,6712.4,6713,6712.1,6712.8
201901251238,6712.8,6713.2,6712.7,6713.1
201901251239,6713.1,6713.4,6712.9,6713.4
201901251240,6713.4,6749.5,6713.2,6738.6
201901251241,6738.6,6740.2,6734.1,6737
201901251242,6737,6737.5,6733.8,6733.8
201901251243,6733.8,6734.4,6730,6733.6
201901251244,6733.6,6736,6732.1,6735.2
201901251245,6735.2,6740.1,6734.7,6738.8
201901251246,6738.4,6739.5,6736.1,6736.2
201901251247,6736,6736.1,6732.8,6735.5
201901251248,6735.5,6736.5,6734.8,6734.8
201901251249,6734.8,6736.7,6733.9,6736.7
201901251250,6736.7,6736.8,6733.8,6735.3
201901251251,6735.3,6735.5,6733.4,6734.1
201901251252,6733.8,6734.2,6733.1,6733.9
201901251253,6733.9,6734,6732.9,6733.1
201901251254,6733.1,6736.5,6733.1,6736.5
201901251255,6736.2,6737.3,6736,6736.2
201901251256,6736.1,6736.2,6734.5,6735.6
201901251257,6735.6,6736.3,6735.4,6735.8
201901251258,6735.8,6735.8,6732.6,6733.1
201901251259,6733.2,6733.8,6732.1,6732.6
201901251300,6732.6,6733.3,6732.4,6733.1
201901251301,6733.1,6734.3,6733.1,6733.8
201901251302,6733.4,6735.4,6733.1,6735.4
201901251303,6735.4,6735.4,6734.1,6734.1
201901251304,6734,6734.1,6731.9,6732.9
201901251305,6732.9,6733.4,6732.6,6732.6
201901251306,6732.6,6733.4,6732.4,6733
201901251307,6733,6733,6731.9,6732.8
201901251308,6732.8,6732.9,6732,6732.4
201901251309,6732.4,6733.4,6732,6732.1
201901251310,6732.1,6732.3,6731.9,6732.3
201901251311,6732.3,6732.3,6731.9,6731.9
201901251312,6731.9,6732.4,6731.6,6732.4
201901251313,6732.4,6732.9,6732,6732.9
201901251314,6732.9,6734.8,6732.8,6734.3
201901251315,6734.3,6734.8,6733.3,6733.6
201901251316,6733.6,6733.6,6733.1,6733.3
201901251317,6733.3,6733.8,6733.2,6733.6
201901251318,6733.7,6734,6733.2,6734
201901251319,6734,6734,6732.3,6732.3
201901251320,6732.3,6732.7,6732,6732.4
201901251321,6732.4,6732.5,6731.5,6731.6
201901251322,6731.6,6731.6,6730,6730.8
201901251323,6730.9,6730.9,6730.3,6730.4
201901251324,6730.5,6731.3,6730.3,6730.3
201901251325,6730.3,6731.8,6730.3,6731.7
201901251326,6731.7,6732.4,6731.6,6732.4
201901251327,6732.4,6734.7,6732.2,6734.4
201901251328,6734.4,6735.6,6734.3,6734.7
201901251329,6734.7,6734.8,6733.8,6733.8
201901251330,6733.7,6735.3,6733.7,6735.1
201901251331,6735.1,6735.2,6734.1,6734.2
201901251332,6734.2,6734.8,6734.1,6734.5
201901251333,6734.6,6734.8,6734.2,6734.2
201901251334,6734.2,6734.6,6734,6734.1
201901251335,6734.1,6734.4,6733.3,6733.3
201901251336,6733.4,6733.7,6733.2,6733.4
201901251337,6733.4,6733.4,6732.8,6732.9
201901251338,6732.9,6733.7,6732.3,6732.7
201901251339,6732.7,6733,6732.1,6732.8
201901251340,6732.8,6733.2,6732.6,6732.6
201901251341,6732.6,6732.7,6732.1,6732.1
201901251342,6732.2,6732.2,6731.7,6731.7
201901251343,6731.7,6731.7,6731.3,6731.6
201901251344,6731.6,6731.9,6731.4,6731.7
201901251345,6731.7,6732.3,6731.2,6732
201901251346,6732,6732.4,6732,6732.2
201901251347,6732.2,6732.2,6730,6730.6
201901251348,6730.6,6731.5,6730.3,6731
201901251349,6731,6731.2,6728.6,6728.8
201901251350,6728.8,6729.6,6728,6728.8
201901251351,6728.8,6729.9,6728,6729.6
201901251352,6729.6,6731.7,6729.6,6731.1
201901251353,6731,6731.8,6731,6731.3
201901251354,6731.3,6732,6730.5,6730.5
201901251355,6730.6,6731.7,6730.6,6731
201901251356,6731.1,6731.7,6730.7,6731.6
201901251357,6731.6,6732.2,6731.2,6731.5
201901251358,6731.5,6732.3,6731.2,6731.8
201901251359,6731.8,6732.3,6731.2,6731.2
201901251400,6731.4,6731.4,6730.1,6730.4
201901251401,6730.4,6731.6,6730.1,6731
201901251402,6731,6731.1,6730.5,6731.1
201901251403,6731.2,6731.9,6730.8,6731.4
201901251404,6731.3,6732.1,6730.9,6731.7
201901251405,6731.7,6731.7,6729.1,6729.6
201901251406,6729.6,6729.7,6728.7,6728.8
201901251407,6728.8,6729.6,6728.6,6728.9
201901251408,6728.9,6729.1,6727.9,6727.9
201901251409,6727.9,6728.7,6726.9,6727
201901251410,6727,6729.3,6726.9,6728
201901251411,6727.9,6727.9,6726.2,6726.6
201901251412,6726.8,6727.8,6726.6,6726.8
201901251413,6726.8,6728.3,6726.5,6728.3
201901251414,6728.3,6728.9,6728,6728.6
201901251415,6728.6,6729.5,6728.6,6729.5
201901251416,6729.5,6729.6,6728.8,6729.1
201901251417,6729.1,6729.3,6728.1,6728.1
201901251418,6728.1,6729.9,6728,6729.8
201901251419,6729.8,6730.6,6728.1,6729.4
201901251420,6729.4,6730.4,6728,6729.2
201901251421,6729.2,6732.8,6728.3,6732.4
201901251422,6732.4,6732.8,6730.5,6731.2
201901251423,6731.2,6734.5,6731.1,6734.3
201901251424,6734.3,6735.2,6733.3,6733.8
201901251425,6733.8,6733.8,6731.6,6732.4
201901251426,6732.4,6738.4,6732.3,6737.9
201901251427,6738.1,6738.3,6735.5,6736.4
201901251428,6736.4,6736.9,6735.3,6736.5
201901251429,6736.5,6736.6,6735.9,6736.3
201901251430,6736.3,6736.8,6735.9,6736.1
201901251431,6736.1,6736.4,6735.9,6735.9
201901251432,6735.9,6736.4,6735.4,6736.3
201901251433,6736.4,6736.4,6735.5,6735.6
201901251434,6735.5,6735.8,6734.9,6735.1
201901251435,6735.1,6735.1,6734.4,6734.4
201901251436,6734.4,6734.4,6733.5,6734.4
201901251437,6734.4,6734.4,6732.6,6732.6
201901251438,6732.6,6733.4,6732.6,6732.8
201901251439,6732.8,6733.4,6732.4,6733
201901251440,6733.1,6734.2,6732.9,6734.2
201901251441,6734.2,6735.8,6733.6,6735
201901251442,6735,6735.7,6734.9,6735.3
201901251443,6735.4,6736,6735,6735.1
201901251444,6735.1,6735.5,6734.5,6734.9
201901251445,6734.9,6734.9,6734.2,6734.6
201901251446,6734.5,6735.1,6734.2,6735
201901251447,6735,6735.6,6734.1,6734.2
201901251448,6734.2,6734.3,6733.8,6734.1
201901251449,6734.1,6734.3,6733.6,6733.9
201901251450,6733.9,6734.4,6733.6,6734.4
201901251451,6734.4,6735.1,6733.9,6734.9
201901251452,6734.9,6735.1,6734,6734.2
201901251453,6734.2,6734.4,6733.8,6734.4
201901251454,6734.4,6734.4,6733,6733
201901251455,6733,6733.5,6732.6,6733.1
201901251456,6733,6733.1,6732.2,6732.9
201901251457,6732.9,6733.1,6732.4,6732.9
201901251458,6732.9,6732.9,6731.9,6731.9
201901251459,6731.9,6732.3,6731.2,6731.2
201901251500,6731.3,6731.8,6730.4,6730.4
201901251501,6730.4,6731.6,6730,6731
201901251502,6731,6731.6,6730.9,6731.4
201901251503,6731.4,6731.9,6731.2,6731.6
201901251504,6731.6,6732.6,6731.6,6732.2
201901251505,6732.1,6732.6,6731.5,6731.6
201901251506,6731.6,6731.6,6730.9,6731.2
201901251507,6731.1,6731.5,6730.6,6731.4
201901251508,6731.4,6732.5,6731.3,6732.5
201901251509,6732.6,6733.5,6732.4,6733.4
201901251510,6733.4,6733.4,6731.3,6731.3
201901251511,6731.3,6731.3,6730.4,6730.7
201901251512,6730.7,6732.1,6730.7,6732.1
201901251513,6732.1,6732.1,6731.6,6731.9
201901251514,6731.9,6732.3,6731.7,6731.8
201901251515,6731.8,6732.8,6731.8,6732.3
201901251516,6732.3,6732.4,6731.6,6731.7
201901251517,6731.6,6731.8,6731.1,6731.6
201901251518,6731.6,6732.3,6731.6,6731.8
201901251519,6731.8,6732.6,6731.7,6732.4
201901251520,6732.5,6732.8,6732.2,6732.7
201901251521,6732.7,6734.3,6732.4,6734.3
201901251522,6734.4,6734.4,6733.9,6734
201901251523,6734,6734.6,6733.6,6734.5
201901251524,6734.6,6734.6,6733.8,6733.9
201901251525,6733.9,6734.3,6733.7,6733.7
201901251526,6733.7,6734.4,6733.1,6733.1
201901251527,6733.1,6733.5,6732.5,6733
201901251528,6733,6733,6731.8,6731.8
201901251529,6731.8,6731.9,6728.2,6730
201901251530,6730,6731.3,6730,6730.1
201901251531,6730.1,6730.7,6729.8,6729.9
201901251532,6729.9,6731.2,6729.8,6731.1
201901251533,6731.1,6731.2,6730.2,6730.2
201901251534,6730.3,6731.6,6730,6730.5
201901251535,6730.5,6730.5,6728.9,6729
201901251536,6729.1,6731.2,6728.4,6730.9
201901251537,6730.9,6731.1,6730,6731
201901251538,6731,6731.1,6730.5,6731
201901251539,6731,6732,6730.9,6731.7
201901251540,6731.7,6732.2,6730.1,6730.2
201901251541,6730.2,6730.2,6727.3,6727.7
201901251542,6727.7,6728.4,6725.1,6728.4
201901251543,6728.4,6728.9,6727.9,6728.1
201901251544,6728.1,6729.5,6728,6729.1
201901251545,6729.1,6729.3,6728,6728.8
201901251546,6728.8,6729.2,6728.2,6729.2
201901251547,6729.2,6729.7,6729,6729.2
201901251548,6729.2,6729.3,6728.3,6728.6
201901251549,6728.6,6729.2,6728.6,6729.1
201901251550,6729.1,6729.6,6728.8,6729.1
201901251551,6729.1,6729.8,6729,6729
201901251552,6729,6729,6727.9,6727.9
201901251553,6727.9,6727.9,6726.1,6726.5
201901251554,6726.5,6726.7,6725.6,6725.9
201901251555,6725.9,6726.5,6724.9,6726.1
201901251556,6726.1,6726.8,6725.3,6726.8
201901251557,6726.8,6727.2,6726.1,6726.9
201901251558,6726.9,6728.1,6726.8,6728.1
201901251559,6728.1,6728.3,6727.6,6727.7
201901251600,6727.8,6729.5,6727.6,6727.7
201901251601,6727.7,6727.8,6725.8,6726
201901251602,6726.1,6727.1,6725.6,6726.6
201901251603,6726.6,6726.9,6726.2,6726.3
201901251604,6726.3,6727.1,6726.2,6727
201901251605,6727,6727.3,6726.2,6727.2
201901251606,6727.2,6731.1,6727.2,6729.1
201901251607,6729.1,6730.1,6728.8,6730.1
201901251608,6730.1,6731.8,6730.1,6730.6
201901251609,6730.6,6731.3,6730.1,6731
201901251610,6731,6731.8,6730.7,6731.7
201901251611,6731.7,6731.9,6730.1,6730.1
201901251612,6730.1,6731.8,6730.1,6730.3
201901251613,6730.3,6730.5,6728.9,6729.4
201901251614,6729.4,6729.9,6728.9,6729.4
201901251615,6729.4,6729.6,6728.3,6729.6
201901251616,6729.6,6730.4,6729.5,6730.3
201901251617,6730.3,6731.7,6729.8,6731.5
201901251618,6731.5,6732,6730.6,6731.1
201901251619,6731.1,6733.5,6730.9,6732.2
201901251620,6732.2,6732.6,6730.4,6730.9
201901251621,6731.4,6733.3,6731.2,6733.3
201901251622,6733.3,6733.3,6732.1,6732.9
201901251623,6732.9,6732.9,6731.6,6732.1
201901251624,6732.1,6732.8,6731.7,6732.3
201901251625,6732.3,6732.3,6729.2,6729.6
201901251626,6729.6,6729.6,6728.3,6729.6
201901251627,6729.6,6729.6,6728.3,6728.3
201901251628,6728.3,6728.9,6727.1,6727.8
201901251629,6727.8,6728.5,6727.6,6728.2
201901251630,6728.2,6729.6,6727.8,6727.9
201901251631,6727.9,6729,6727.2,6728.6
201901251632,6728.6,6728.8,6728,6728.7
201901251633,6728.7,6728.7,6726.9,6726.9
201901251634,6726.9,6728.3,6726.9,6728.1
201901251635,6728.1,6728.3,6727,6727.1
201901251636,6727.1,6727.4,6725,6725
201901251637,6725,6725,6724,6724.7
201901251638,6724.7,6725,6723.2,6723.6
201901251639,6723.6,6724.5,6723.4,6724.4
201901251640,6724.4,6724.8,6723.9,6724.8
201901251641,6724.8,6727.6,6724.6,6726.9
201901251642,6726.9,6727.4,6726.4,6726.9
201901251643,6726.9,6727.3,6725.8,6726.4
201901251644,6726.4,6727.3,6726.3,6727.3
201901251645,6727.3,6728.1,6726.8,6727.2
201901251646,6727.2,6728.4,6726.8,6727.4
201901251647,6727.4,6728,6727,6727.9
201901251648,6727.9,6728.6,6727.2,6727.2
201901251649,6727.1,6727.4,6725.7,6725.9
201901251650,6725.9,6727.3,6724.7,6725.6
201901251651,6725.6,6727.3,6725.6,6727.2
201901251652,6727.2,6729,6727.2,6727.7
201901251653,6727.7,6728.3,6726.9,6728.2
201901251654,6728.2,6729.3,6728.2,6729.3
201901251655,6729.3,6730.5,6729,6729.6
201901251656,6729.6,6730.2,6728.1,6728.4
201901251657,6728.4,6729.3,6728.2,6729.1
201901251658,6728.4,6729.3,6728.4,6728.9
201901251659,6728.9,6730.3,6728.4,6730.3
201901251700,6730.3,6730.3,6724.2,6728.8
201901251701,6728.9,6731.3,6728.1,6728.3
201901251702,6728.3,6729.4,6727.1,6727.8
201901251703,6727.8,6727.8,6723.3,6725.4
201901251704,6725.4,6727.3,6724.4,6727.3
201901251705,6727.3,6727.3,6723.3,6723.3
201901251706,6723.3,6724.2,6722,6722.8
201901251707,6722.8,6723.3,6722.1,6722.9
201901251708,6722.9,6723.5,6722,6722.9
201901251709,6722.9,6723.8,6722.2,6723.3
201901251710,6723.3,6723.6,6721.9,6722.3
201901251711,6722.4,6722.8,6721,6722
201901251712,6722,6722.3,6720.7,6721.3
201901251713,6721.3,6722,6721.3,6722
201901251714,6722,6722.7,6717.2,6717.3
201901251715,6717.4,6719.2,6715.9,6715.9
201901251716,6715.9,6719.4,6715.9,6719.4
201901251717,6719.3,6721.1,6719,6719.9
201901251718,6719.9,6721.3,6719.1,6721.3
201901251719,6721.5,6722.2,6720.9,6721.8
201901251720,6721.8,6723.9,6721.8,6723.3
201901251721,6723.3,6724.9,6723.3,6724.7
201901251722,6724.7,6725.8,6724.4,6725.8
201901251723,6725.9,6728.2,6725.3,6727.8
201901251724,6727.9,6728.8,6727.7,6727.8
201901251725,6727.8,6727.9,6725.9,6726.4
201901251726,6726.4,6726.6,6724.4,6725.1
201901251727,6725.1,6726.8,6725.1,6725.6
201901251728,6725.6,6727.5,6725,6727.5
201901251729,6727.5,6733.3,6727.1,6732.6
201901251730,6732.6,6732.8,6728.9,6729.1
201901251731,6729.2,6729.6,6728.2,6729.3
201901251732,6729.3,6729.4,6728,6728.4
201901251733,6728.3,6728.3,6726.9,6727.4
201901251734,6727.4,6727.8,6724.6,6724.6
201901251735,6724.7,6725.6,6722.4,6722.4
201901251736,6722.4,6725.3,6722,6724.9
201901251737,6724.9,6725.5,6723.6,6724.4
201901251738,6724.4,6726.3,6723.2,6725.6
201901251739,6725.6,6726.5,6725.3,6726
201901251740,6726.1,6727.4,6725.6,6725.6
201901251741,6725.6,6728.6,6725.6,6728.6
201901251742,6728.6,6729.6,6727.9,6729.2
201901251743,6729.2,6729.2,6727.3,6727.9
201901251744,6727.8,6729.6,6727.8,6728.9
201901251745,6728.9,6729.2,6727.3,6728.1
201901251746,6728,6730.6,6727.9,6730.2
201901251747,6730.6,6732.9,6730.1,6732.3
201901251748,6732.3,6732.3,6730.7,6732
201901251749,6732.1,6733.4,6730.5,6733.4
201901251750,6733.3,6734.5,6732.2,6734.5
201901251751,6734.5,6735.1,6732.8,6732.9
201901251752,6732.8,6734.3,6732.2,6733.9
201901251753,6733.9,6735,6732.7,6735
201901251754,6735,6738.2,6734.3,6738.1
201901251755,6738.1,6739.1,6735.5,6736.9
201901251756,6736.9,6741.1,6736.8,6740.7
201901251757,6740.7,6743.9,6738.5,6742.9
201901251758,6742.9,6743.3,6740.3,6740.4
201901251759,6740.4,6740.9,6739,6739.5
201901251800,6739.5,6739.6,6736.6,6736.9
201901251801,6736.9,6739.4,6735.4,6737.8
201901251802,6737.9,6741.3,6737.7,6739.9
201901251803,6739.9,6741.2,6739.9,6740.3
201901251804,6740.3,6740.3,6737.3,6739.1
201901251805,6739.1,6739.4,6735.7,6736
201901251806,6736,6737.8,6735.8,6736.1
201901251807,6736.1,6739,6735.9,6737.9
201901251808,6737.9,6738.4,6736.7,6737.3
201901251809,6737.3,6738.9,6736.1,6738.9
201901251810,6738.9,6740.2,6738.1,6739.3
201901251811,6739.3,6739.9,6738,6738.1
201901251812,6738.1,6738.1,6735.1,6735.4
201901251813,6735.4,6735.5,6734.4,6734.4
201901251814,6734.4,6736.9,6734.1,6736.4
201901251815,6736.4,6737.3,6735.1,6736.1
201901251816,6736.1,6736.6,6734.5,6736.5
201901251817,6736.6,6736.9,6734.9,6735.9
201901251818,6735.6,6738.3,6735.6,6737.8
201901251819,6737.8,6739.8,6736.6,6737.9
201901251820,6737.9,6737.9,6734,6734.9
201901251821,6734.9,6735.8,6733.7,6734.8
201901251822,6734.8,6736.3,6734.6,6734.8
201901251823,6734.8,6736.9,6733.8,6736.3
201901251824,6736.4,6736.8,6735.4,6735.8
201901251825,6735.8,6735.8,6734.1,6734.4
201901251826,6734.4,6734.6,6733.2,6734
201901251827,6734.2,6737.9,6734.2,6737.9
201901251828,6737.9,6738.5,6735.9,6736.1
201901251829,6736.1,6737.8,6735.9,6737.7
201901251830,6737.7,6738.2,6735.4,6736.4
201901251831,6736.4,6737.9,6735.2,6736.7
201901251832,6736.7,6736.7,6734.1,6734.1
201901251833,6734.1,6737,6734,6736.7
201901251834,6736.7,6737.8,6735.5,6737.6
201901251835,6737.6,6739.5,6737.3,6737.8
201901251836,6738.4,6738.5,6736.4,6736.4
201901251837,6736.4,6737.7,6736.4,6737.3
201901251838,6737.3,6738.6,6737.3,6738.1
201901251839,6738,6739.7,6738,6739.5
201901251840,6739.5,6739.7,6736.1,6736.8
201901251841,6736.8,6737.3,6735.4,6736.6
201901251842,6736.6,6737.3,6735.8,6736.5
201901251843,6736.5,6737,6735.7,6736
201901251844,6735.9,6736.8,6735.4,6736.4
201901251845,6736.4,6737,6735.2,6735.6
201901251846,6735.7,6735.9,6734.4,6735.4
201901251847,6735.4,6735.4,6734.4,6734.4
201901251848,6734.4,6737.4,6734.4,6737
201901251849,6736.9,6737.3,6734.9,6734.9
201901251850,6734.9,6735.1,6732.1,6732.4
201901251851,6732.4,6732.6,6729,6729.7
201901251852,6729.6,6731,6728.9,6730.6
201901251853,6730.7,6732.5,6730.7,6732.1
201901251854,6732.1,6732.1,6728.1,6729.8
201901251855,6729.7,6732.3,6729.4,6731.9
201901251856,6731.9,6732.3,6729.8,6729.8
201901251857,6729.8,6729.8,6727.6,6728.1
201901251858,6728.1,6730.1,6727.9,6729.1
201901251859,6729.1,6729.1,6726.4,6728.4
201901251900,6728.4,6729.3,6727.2,6727.3
201901251901,6727.3,6729.1,6727.1,6728.7
201901251902,6728.6,6729.5,6728.4,6729.3
201901251903,6729.3,6730.3,6728.6,6729.4
201901251904,6729.4,6731.3,6729.4,6729.9
201901251905,6729.8,6732.2,6729.6,6732.2
201901251906,6732.2,6733,6731.1,6731.7
201901251907,6731.4,6732.4,6730.2,6730.7
201901251908,6730.7,6732.1,6730.4,6732.1
201901251909,6732.1,6732.4,6731.3,6731.3
201901251910,6731.3,6731.3,6729.2,6730.8
201901251911,6730.8,6731.2,6729.2,6729.3
201901251912,6729.4,6730.3,6728.8,6729.4
201901251913,6729.4,6730.8,6729.4,6730.4
201901251914,6730.4,6730.6,6729.5,6730.1
201901251915,6730.1,6730.2,6726.1,6726.3
201901251916,6726.3,6727.9,6725.2,6727.9
201901251917,6727.9,6730.3,6727.8,6730
201901251918,6730,6731.3,6729.9,6731.1
201901251919,6731.1,6732.1,6729.9,6731.8
201901251920,6731.8,6732.6,6731.6,6732.6
201901251921,6732.6,6735.3,6732.4,6734.8
201901251922,6734.8,6736.6,6734,6736.4
201901251923,6736.7,6736.8,6735.6,6736.2
201901251924,6736.2,6736.5,6733.7,6733.8
201901251925,6733.8,6735.7,6733.6,6735.7
201901251926,6735.7,6736.5,6734.3,6734.3
201901251927,6734.3,6736.1,6734.1,6735.6
201901251928,6735.6,6736.5,6735.1,6735.4
201901251929,6735.3,6736.5,6735.1,6736.1
201901251930,6736.1,6739.4,6735.8,6739.4
201901251931,6739.4,6739.4,6737,6737
201901251932,6737,6738.8,6736.9,6738.3
201901251933,6738.3,6738.8,6737.1,6737.8
201901251934,6737.8,6738.8,6737.2,6738.4
201901251935,6738.4,6739.8,6737.7,6738.7
201901251936,6738.7,6738.8,6735.5,6736.3
201901251937,6736.3,6741.4,6736.3,6737.8
201901251938,6737.8,6738.5,6737.2,6737.9
201901251939,6737.9,6739.1,6737.4,6739.1
201901251940,6739.1,6739.4,6737.9,6738.9
201901251941,6738.9,6741.1,6738.6,6741.1
201901251942,6741.1,6741.4,6739.1,6739.6
201901251943,6739.5,6740.9,6738.9,6739.2
201901251944,6739.2,6740.3,6738.4,6740.1
201901251945,6740.1,6740.8,6739.1,6740.2
201901251946,6740.2,6744.3,6739.9,6740.6
201901251947,6740.6,6741.8,6739.9,6741.8
201901251948,6741.8,6742.3,6738.4,6738.4
201901251949,6738.4,6739.5,6738.4,6738.8
201901251950,6738.8,6741.1,6738.8,6740.6
201901251951,6740.6,6742,6740.6,6742
201901251952,6742,6742,6740.4,6740.9
201901251953,6740.9,6741.7,6740,6741.6
201901251954,6741.6,6741.9,6740.1,6740.1
201901251955,6740.2,6742.8,6740,6741.4
201901251956,6741.4,6741.6,6738.7,6738.9
201901251957,6738.9,6741.6,6738.8,6740.9
201901251958,6740.9,6741.1,6740,6740
201901251959,6740.3,6741,6740.1,6740.7
201901252000,6740.7,6742,6739.9,6741.9
201901252001,6741.9,6743.5,6741.5,6742.1
201901252002,6742.1,6742.9,6741.6,6742.5
201901252003,6742.6,6744.5,6742.1,6743.9
201901252004,6743.9,6744.1,6742.8,6743.4
201901252005,6743.3,6744.3,6742.5,6744.3
201901252006,6744.3,6745.4,6742.8,6745.1
201901252007,6745.1,6745.5,6743.9,6744.4
201901252008,6744.4,6744.8,6743.6,6743.6
201901252009,6743.6,6743.7,6742.2,6742.5
201901252010,6742.5,6742.8,6741.9,6742.3
201901252011,6742.3,6743.8,6741.8,6743.6
201901252012,6743.6,6744.4,6742.4,6744.3
201901252013,6744.3,6745.8,6744.1,6745.2
201901252014,6745.2,6746.3,6745.1,6745.6
201901252015,6745.6,6745.8,6743.4,6743.4
201901252016,6743.4,6745.6,6743.1,6745.6
201901252017,6745.6,6749.2,6745.6,6747.4
201901252018,6747.4,6747.5,6746.1,6746.8
201901252019,6746.8,6748.3,6745.9,6748.2
201901252020,6748.2,6749.1,6747.6,6749.1
201901252021,6749,6749,6745.9,6746
201901252022,6746,6748.8,6745.9,6748.4
201901252023,6748.4,6748.8,6747.7,6748.2
201901252024,6748.2,6749.6,6747.4,6749.3
201901252025,6749.3,6750.3,6747.7,6748.1
201901252026,6748.1,6748.4,6747.5,6747.5
201901252027,6747.5,6747.9,6745.9,6746.1
201901252028,6746.1,6746.5,6744.7,6745.1
201901252029,6745.1,6746.3,6744.6,6745.6
201901252030,6745.6,6746.4,6744.7,6744.7
201901252031,6744.7,6745.8,6744.3,6745.8
201901252032,6745.8,6745.8,6744,6745.1
201901252033,6745.1,6745.6,6744.7,6745.1
201901252034,6745.1,6745.4,6743.6,6743.8
201901252035,6743.8,6743.9,6741.8,6742.4
201901252036,6742.4,6742.7,6741.1,6741.1
201901252037,6741.1,6741.1,6738,6738.1
201901252038,6738.1,6739.3,6738.1,6739
201901252039,6739,6741.2,6739,6740.1
201901252040,6740.1,6740.5,6738.2,6738.4
201901252041,6738.4,6738.9,6738,6738.5
201901252042,6738.6,6740.1,6738.6,6739.9
201901252043,6739.9,6741.6,6739.9,6740.7
201901252044,6740.6,6740.6,6739.8,6739.9
201901252045,6740,6740,6738.5,6739.5
201901252046,6739.5,6739.5,6738.6,6739.4
201901252047,6739.4,6740.6,6738.6,6740.6
201901252048,6740.6,6742.8,6740.6,6741.8
201901252049,6741.8,6742.9,6741.3,6742.7
201901252050,6742.7,6743.2,6741.4,6742.6
201901252051,6742.7,6744.2,6742.6,6743.5
201901252052,6743.5,6743.9,6742.1,6742.5
201901252053,6742.5,6744.3,6742.4,6744.3
201901252054,6744.3,6747.3,6744.1,6744.9
201901252055,6744.9,6745.7,6741.8,6742.2
201901252056,6742.2,6743.8,6741.6,6741.6
201901252057,6741.6,6742.2,6740.9,6740.9
201901252058,6740.9,6741.4,6740,6740
201901252059,6740,6740.3,6738.9,6739.6
201901252100,6739.6,6740.8,6738,6740.3
201901252101,6740.3,6740.4,6737.4,6737.4
201901252102,6737.4,6739.1,6737.4,6738.7
201901252103,6738.7,6739.8,6738.4,6738.8
201901252104,6738.7,6738.7,6736.3,6736.8
201901252105,6736.8,6737.5,6736.3,6736.3
201901252106,6736.3,6736.4,6734.8,6734.8
201901252107,6734.8,6734.9,6733.1,6733.4
201901252108,6733.4,6736.2,6732.7,6735.3
201901252109,6735.4,6736.8,6735.1,6736.5
201901252110,6736.5,6738.8,6735.8,6737.9
201901252111,6737.9,6740.3,6737.9,6740.3
201901252112,6740.3,6742.2,6740,6741.9
201901252113,6741.9,6742.3,6740,6740.8
201901252114,6740.8,6741.1,6739.6,6740.6
201901252115,6740.6,6740.8,6738,6738
201901252116,6738,6739.6,6736.4,6739.4
201901252117,6739.4,6740.6,6738.2,6740.1
201901252118,6740.1,6741.3,6740.1,6740.7
201901252119,6740.7,6741,6738.3,6739.9
201901252120,6739.9,6741.6,6739.9,6741.4
201901252121,6741,6742,6740.6,6742
201901252122,6742,6742,6739.6,6740.8
201901252123,6740.3,6741.6,6739.6,6741.5
201901252124,6741.6,6741.6,6739.7,6739.8
201901252125,6739.8,6739.8,6738.4,6738.7
201901252126,6738.6,6739.3,6737,6737.3
201901252127,6737.3,6738.6,6736.8,6737.7
201901252128,6737.7,6737.7,6735.5,6736.4
201901252129,6736.3,6738.1,6736.3,6738.1
201901252130,6738.1,6738.1,6735.8,6736.4
201901252131,6736.4,6738.5,6736,6738.1
201901252132,6738.1,6738.1,6736.2,6737.3
201901252133,6737.3,6737.8,6736.8,6737.7
201901252134,6737.7,6738.1,6735.6,6735.6
201901252135,6735.9,6737.1,6735.1,6737
201901252136,6737,6738.1,6736.9,6737.1
201901252137,6737.1,6738.1,6736,6736.4
201901252138,6736.4,6736.4,6734.4,6734.4
201901252139,6734.4,6735.1,6733.8,6734.6
201901252140,6734.6,6734.6,6733.4,6733.5
201901252141,6733.5,6734.4,6732.6,6733.9
201901252142,6734,6735.3,6733.6,6734.8
201901252143,6734.8,6736.5,6734.8,6736
201901252144,6736,6736.4,6733.7,6734.2
201901252145,6734.2,6736,6734.2,6734.2
201901252146,6734.2,6734.2,6732.2,6733.4
201901252147,6733.4,6735.3,6733.1,6734.4
201901252148,6734.4,6735.1,6733.9,6734
201901252149,6734,6735.9,6733.8,6735.9
201901252150,6735.9,6736.4,6735.6,6735.8
201901252151,6735.9,6736.8,6735.1,6736.6
201901252152,6736.6,6738.1,6736.2,6738.1
201901252153,6738.1,6738.5,6737.7,6737.9
201901252154,6737.9,6739.3,6737.9,6739.3
201901252155,6739.3,6739.6,6737.9,6738.1
201901252156,6738,6739.2,6737.9,6738.9
201901252157,6738.9,6740.7,6738.9,6740.7
201901252158,6740.5,6741.7,6740.4,6741.3
201901252159,6741.4,6742,6741.2,6742
201901252200,6742,6742.4,6741.5,6741.8
201901252201,6741.8,6741.9,6740.9,6741.3
201901252202,6741.3,6743.1,6741.1,6742.7
201901252203,6742.7,6743.5,6741.7,6742.1
201901252204,6742.1,6743.4,6741.9,6742.7
201901252205,6742.5,6744.5,6742.3,6743.7
201901252206,6743.7,6744.8,6743.7,6744.5
201901252207,6744.5,6745.4,6744.3,6744.9
201901252208,6744.9,6746,6744.9,6745.9
201901252209,6745.9,6745.9,6744.8,6745.7
201901252210,6745.7,6746,6744.7,6744.9
201901252211,6744.9,6746.1,6744.7,6745.5
201901252212,6745.5,6746.5,6745.2,6745.3
201901252213,6745.3,6746.8,6745.1,6745.2
201901252214,6745.2,6747.3,6744.9,6747.3
201901252215,6747.3,6748,6746.7,6747.4
201901252216,6747.4,6749,6747.2,6748.9
201901252217,6748.9,6748.9,6747.5,6747.9
201901252218,6747.9,6747.9,6746.9,6746.9
201901252219,6746.8,6746.8,6745.4,6746.4
201901252220,6746.4,6746.9,6745.9,6746.4
201901252221,6746.4,6746.8,6746.1,6746.4
201901252222,6746.4,6746.6,6745.6,6745.9
201901252223,6745.9,6746.3,6745.6,6745.9
201901252224,6745.9,6746,6745,6745.8
201901252225,6745.8,6748.4,6745.8,6748.4
201901252226,6748.4,6748.5,6747.1,6747.9
201901252227,6747.9,6748.9,6747.7,6748.1
201901252228,6748.1,6748.1,6746.1,6746.3
201901252229,6746.3,6746.3,6744.2,6744.5
201901252230,6744.5,6745.5,6743.9,6744.5
201901252231,6744.5,6747.8,6744.4,6747.8
201901252232,6747.8,6749.8,6747.1,6749.2
201901252233,6749.2,6753.8,6748.6,6752.9
201901252234,6752.9,6752.9,6749.9,6750.6
201901252235,6750.6,6752.7,6750.6,6752.3
201901252236,6752.9,6754.2,6752.4,6753.8
201901252237,6753.8,6754.5,6753.1,6753.5
201901252238,6753.6,6753.6,6750.4,6750.5
201901252239,6750.4,6751.1,6750.4,6750.6
201901252240,6750.5,6751,6748.5,6748.6
201901252241,6748.6,6749,6747.8,6748.1
201901252242,6748.2,6749.5,6748.2,6749.2
201901252243,6749,6749.2,6746,6746.8
201901252244,6746.8,6747.6,6746.2,6746.4
201901252245,6746.3,6746.8,6744.8,6746.3
201901252246,6746.3,6749.4,6746.1,6749.4
201901252247,6749.4,6750.8,6748.9,6750.6
201901252248,6750.6,6750.8,6748.2,6750.1
201901252249,6750,6751.3,6750,6750.8
201901252250,6750.9,6753.3,6750.9,6752.4
201901252251,6752.3,6753.7,6752.1,6753.6
201901252252,6753.6,6761,6753.5,6760.1
201901252253,6760.1,6760.7,6757,6757.9
201901252254,6757.9,6767.8,6757.9,6767.2
201901252255,6767.2,6767.3,6763.9,6763.9
201901252256,6763.9,6764.5,6762.9,6764
201901252257,6764,6764,6762.4,6762.8
201901252258,6762.8,6764,6761.6,6763.2
201901252259,6763.1,6763.6,6761.1,6761.4
201901252300,6761.3,6762.7,6759.3,6760.1
201901252301,6760.2,6760.3,6757.9,6759.2
201901252302,6759.1,6760.8,6758,6760.6
201901252303,6760.6,6762.2,6760.4,6761.9
201901252304,6761.9,6764.5,6761.9,6762.5
201901252305,6762.5,6763.3,6761.4,6762.3
201901252306,6762.3,6764.6,6761.9,6762.3
201901252307,6762.3,6763.8,6761.9,6763.8
201901252308,6763.8,6765.3,6763.6,6763.7
201901252309,6763.6,6763.6,6761.4,6762.3
201901252310,6762.2,6762.2,6760.2,6760.2
201901252311,6760.2,6761.2,6758.5,6759
201901252312,6759,6760.8,6758.1,6760.5
201901252313,6760.6,6761.5,6759.7,6760.3
201901252314,6760.3,6760.5,6758.2,6758.2
201901252315,6758.2,6759.8,6758.2,6758.9
201901252316,6758.8,6759.5,6758.8,6759.5
201901252317,6759.5,6760.5,6759.3,6759.3
201901252318,6759.3,6759.3,6757.9,6758.1
201901252319,6758.2,6759.5,6756.4,6758.1
201901252320,6758.1,6759.4,6757.8,6758.7
201901252321,6758.5,6759.5,6757.3,6758.2
201901252322,6758.1,6760,6757.9,6759.4
201901252323,6759.9,6762.8,6759.8,6762.4
201901252324,6762.4,6764.1,6762.4,6764
201901252325,6764,6764.8,6760.8,6760.9
201901252326,6760.9,6762.5,6760.9,6762.5
201901252327,6762.6,6762.7,6761.2,6761.8
201901252328,6761.8,6761.8,6759.2,6761.5
201901252329,6761.7,6764.3,6758.9,6760.8
201901252330,6760.8,6762.9,6755.1,6756.4
201901252331,6756.3,6756.3,6743.2,6743.2
201901252332,6743,6748.1,6739.3,6739.4
201901252333,6739.4,6747.5,6739.4,6743.7
201901252334,6743.7,6746,6741.2,6744.9
201901252335,6744.6,6746.6,6740.9,6745
201901252336,6745.2,6749,6743.4,6748.1
201901252337,6748.1,6750.1,6744.4,6745.4
201901252338,6745.7,6749.2,6742.3,6746.2
201901252339,6746.2,6749.7,6744.3,6749.7
201901252340,6749.7,6752.8,6748.2,6752.2
201901252341,6751.9,6753,6746.1,6751.9
201901252342,6751.9,6751.9,6743.4,6745.6
201901252343,6745.6,6748.5,6741.9,6747.9
201901252344,6748,6749.3,6744.3,6745.9
201901252345,6745.8,6749.7,6743.7,6748.4
201901252346,6748.4,6751.9,6745.8,6750.8
201901252347,6751.1,6756.1,6750.2,6754
201901252348,6754,6758.2,6753.4,6755.2
201901252349,6754.9,6756.8,6752.9,6754.7
201901252350,6754.5,6759.5,6753,6758.2
201901252351,6758.2,6758.6,6755.7,6756.3
201901252352,6756.3,6760.1,6754.9,6759.3
201901252353,6759.7,6763.5,6757.6,6758.4
201901252354,6758.4,6759.3,6755.8,6756.3
201901252355,6756.3,6757.3,6750.7,6752.1
201901252356,6752.2,6755.4,6751.5,6753.9
201901252357,6753.9,6759.5,6753.9,6758.2
201901252358,6758.2,6763,6758.2,6762
201901252359,6761.8,6769.1,6761.8,6767.9
201901260000,6767.9,6771,6766.9,6769.5
201901260001,6769.5,6773.3,6769.2,6773
201901260002,6773.3,6774,6769.6,6773.4
201901260003,6773.4,6773.6,6769.4,6772.1
201901260004,6772.1,6775.2,6771.9,6775
201901260005,6775.1,6776.6,6773.5,6774.9
201901260006,6774.9,6779.9,6774.4,6779
201901260007,6779,6779,6775.5,6778.1
201901260008,6777.7,6779,6776.9,6778.2
201901260009,6778.2,6781.7,6778,6780.1
201901260010,6780,6780.3,6776.5,6777.9
201901260011,6777.9,6778.3,6774.2,6777.9
201901260012,6777.9,6783.6,6777.9,6782.2
201901260013,6782.2,6782.5,6779.5,6781.7
201901260014,6781.7,6782.4,6778,6780.8
201901260015,6780.9,6782.1,6778,6780
201901260016,6780,6780.3,6778,6779.1
201901260017,6779.1,6779.5,6778.1,6778.6
201901260018,6778.6,6779.1,6774.9,6775.1
201901260019,6775.1,6776.3,6772.3,6772.3
201901260020,6772.4,6774.4,6770.4,6771
201901260021,6771,6772.5,6768.1,6768.2
201901260022,6768.3,6770.7,6768.3,6768.5
201901260023,6768.7,6771.8,6768.7,6771.8
201901260024,6771.8,6772.8,6770.3,6771.7
201901260025,6771.4,6775.7,6771.4,6774.4
201901260026,6774.4,6779.9,6774.4,6778.7
201901260027,6778.7,6779.6,6775.9,6775.9
201901260028,6775.9,6778.6,6774.9,6777.9
201901260029,6777.9,6780.8,6777.2,6777.8
201901260030,6777.8,6781,6777.8,6780.4
201901260031,6780.4,6785.9,6779.5,6782.8
201901260032,6782.7,6782.7,6777.5,6779.1
201901260033,6779.1,6779.5,6769.8,6773.7
201901260034,6773.7,6778.3,6773.7,6777.7
201901260035,6777.4,6779.5,6777,6777.7
201901260036,6777.7,6781.4,6777.4,6781.2
201901260037,6781.2,6781.7,6779.4,6781.5
201901260038,6781.5,6785.6,6781.5,6784.8
201901260039,6785,6785.7,6782,6782.1
201901260040,6782.1,6783.5,6780.4,6780.6
201901260041,6781,6784.6,6780.7,6782.2
201901260042,6781.7,6783.6,6780.7,6783.6
201901260043,6783.6,6784.5,6781.4,6781.4
201901260044,6781.4,6788.5,6781.4,6788.5
201901260045,6788.5,6790.1,6787.2,6787.2
201901260046,6787.2,6787.9,6784.4,6784.4
201901260047,6784.4,6786.8,6784.4,6786.7
201901260048,6786.9,6789.5,6786.8,6789.4
201901260049,6789.4,6789.4,6786.9,6787.4
201901260050,6787,6788.3,6785.9,6787.3
201901260051,6787.3,6787.7,6782.4,6783
201901260052,6783,6785.4,6782.9,6784.7
201901260053,6784.7,6785.7,6781.9,6782.6
201901260054,6782.6,6784.8,6782.6,6784.2
201901260055,6784.2,6784.5,6781.7,6782.9
201901260056,6782.9,6783.2,6781.6,6783.1
201901260057,6783.1,6786.3,6783,6784.7
201901260058,6784.7,6786.4,6783.9,6785.2
201901260059,6785.2,6787.4,6784.9,6786.1
201901260100,6786.1,6790,6786,6788.9
201901260101,6788.9,6788.9,6782.9,6783.3
201901260102,6783.4,6785.2,6782.8,6783.5
201901260103,6783.4,6787.1,6782.3,6786.7
201901260104,6786.7,6789,6786.7,6787.1
201901260105,6787,6788.8,6785.7,6788.1
201901260106,6787.7,6789.6,6787.4,6789.1
201901260107,6789.1,6791.6,6788.9,6789.1
201901260108,6789.1,6793.3,6788.1,6791.7
201901260109,6791.5,6792,6788.9,6789.4
201901260110,6789.4,6791,6789.1,6790.8
201901260111,6790.8,6791.3,6789.7,6789.9
201901260112,6790.2,6790.5,6787.2,6788.6
201901260113,6788.5,6789,6785.6,6785.7
201901260114,6785.7,6786.7,6784.4,6786
201901260115,6785.6,6785.6,6781.4,6784.4
201901260116,6784.3,6785.5,6783.6,6784.8
201901260117,6784.8,6787.3,6784.7,6786.9
201901260118,6786.9,6787.1,6784.9,6784.9
201901260119,6784.8,6785.8,6783.7,6784.8
201901260120,6784.8,6785.9,6784.5,6785.6
201901260121,6785.6,6785.6,6780.9,6781.9
201901260122,6781.9,6783,6781.2,6782.3
201901260123,6782.3,6782.6,6778.7,6778.7
201901260124,6778.9,6781.8,6776.6,6781.1
201901260125,6781.1,6782.3,6780.1,6781.9
201901260126,6781.9,6782.2,6780.7,6780.8
201901260127,6780.6,6780.6,6777.4,6777.9
201901260128,6777.9,6779.8,6777.9,6778.9
201901260129,6778.9,6781.6,6778.9,6780.2
201901260130,6780.2,6784.4,6780,6783.2
201901260131,6783.1,6783.7,6781.6,6783
201901260132,6783,6784.6,6782.7,6783.2
201901260133,6783.2,6783.5,6781.5,6782.2
201901260134,6782.2,6783.8,6781.4,6781.9
201901260135,6781.9,6783.3,6780.5,6782.7
201901260136,6782.7,6783.9,6781.9,6783.2
201901260137,6783.2,6786.5,6783.2,6786.4
201901260138,6786.3,6786.8,6785.1,6785.5
201901260139,6785.5,6786.8,6783.6,6784.4
201901260140,6784.7,6786.7,6784.7,6784.7
201901260141,6784.7,6787.1,6784.7,6786.3
201901260142,6786.3,6789.7,6786.1,6789.7
201901260143,6789.8,6793.1,6789.8,6792.4
201901260144,6792.4,6796,6792.1,6794.6
201901260145,6794.6,6795.6,6793.3,6793.4
201901260146,6793.6,6793.6,6791.9,6792.8
201901260147,6792.8,6793.7,6792.1,6793.1
201901260148,6793.1,6794.5,6791.5,6794.2
201901260149,6794.2,6795,6793.7,6794.4
201901260150,6794.4,6795.2,6792.4,6795.2
201901260151,6795.2,6797.8,6795.2,6797.1
201901260152,6797.1,6799.5,6795.7,6799
201901260153,6799,6800.7,6798,6799.2
201901260154,6799.1,6800.7,6799.1,6800.4
201901260155,6800.4,6801.2,6799.5,6800.1
201901260156,6800.1,6801,6799.7,6800.1
201901260157,6800.1,6800.2,6798.1,6798.6
201901260158,6798.7,6802.2,6798.4,6801.7
201901260159,6801.7,6802.2,6799.7,6801.4
201901260200,6801.4,6802.3,6796.4,6796.9
201901260201,6796.9,6797.8,6794.7,6795.4
201901260202,6795.4,6797.3,6794.6,6796.1
201901260203,6796.1,6797.7,6795.7,6796.1
201901260204,6796.1,6797.3,6794.8,6794.8
201901260205,6794.7,6796.1,6793.9,6794.8
201901260206,6794.9,6798.1,6794.7,6797.5
201901260207,6797.2,6798.9,6795,6795.7
201901260208,6795.9,6796.7,6795.5,6795.6
201901260209,6795.7,6795.9,6792.4,6794.4
201901260210,6794.3,6796.2,6793.6,6794.6
201901260211,6794.6,6795.8,6792.9,6793.1
201901260212,6793.1,6794.2,6792.3,6793.6
201901260213,6793.6,6793.7,6790.5,6791.3
201901260214,6791.4,6793.9,6790.1,6793
201901260215,6793,6794.8,6792.9,6794.1
201901260216,6794.1,6795.5,6793.9,6794.3
201901260217,6794.4,6795,6792.5,6792.6
201901260218,6792.7,6793.4,6791.7,6792.2
201901260219,6792.2,6795,6792,6794.2
201901260220,6794.2,6797.2,6793.3,6794.2
201901260221,6794.2,6795.6,6793.9,6795.5
201901260222,6795.5,6795.9,6794,6795.2
201901260223,6795.2,6796,6794.2,6795.9
201901260224,6795.9,6799.5,6794.4,6798.8
201901260225,6798.8,6802.8,6798.8,6802.4
201901260226,6802.4,6804.3,6802,6804.3
201901260227,6804.3,6804.5,6803.2,6803.5
201901260228,6803.5,6803.8,6802,6803.3
201901260229,6803.3,6805.4,6801.7,6801.7
201901260230,6801.7,6802.4,6799,6801.9
201901260231,6801.9,6802.6,6799.9,6800.2
201901260232,6800.2,6801.3,6797.4,6799.5
201901260233,6799.5,6801.5,6799,6801.4
201901260234,6801.4,6802.8,6800.4,6800.9
201901260235,6801,6802,6799.9,6801.9
201901260236,6801.9,6804,6801.7,6802.9
201901260237,6802.9,6803.9,6801.2,6801.9
201901260238,6801.9,6803.5,6801.1,6803.5
201901260239,6803.4,6808.6,6802.8,6808.5
201901260240,6808.5,6809.7,6803.9,6803.9
201901260241,6802.9,6803.8,6801.9,6803.6
201901260242,6803.1,6803.5,6800.9,6802.3
201901260243,6802.3,6802.8,6800.6,6802.5
201901260244,6802.4,6803.3,6797.3,6798.7
201901260245,6799.3,6799.8,6797.4,6797.9
201901260246,6797.9,6798.4,6784.8,6788.3
201901260247,6788.2,6790.3,6786.7,6789.5
201901260248,6789.8,6791.2,6786.2,6788.4
201901260249,6788.4,6790.2,6787.7,6790.1
201901260250,6790.2,6791.5,6789,6789.1
201901260251,6789.1,6789.5,6781.4,6782.6
201901260252,6782.7,6786.8,6781.7,6786.1
201901260253,6786,6786.5,6784.9,6785.8
201901260254,6785.8,6787.6,6785.8,6786.8
201901260255,6786.8,6788.5,6785.1,6788.5
201901260256,6789,6790,6787.7,6788.6
201901260257,6788.1,6789.8,6787.6,6789.5
201901260258,6789.5,6792.2,6789.3,6792.1
201901260259,6792.1,6794.9,6792.1,6794.1
201901260300,6794,6797,6793.7,6795
201901260301,6795,6797.3,6794.9,6795.3
201901260302,6795.4,6797.3,6795.4,6796
201901260303,6796.1,6799.1,6795.5,6795.6
201901260304,6795.6,6795.8,6793.2,6793.4
201901260305,6793.4,6794.3,6791.9,6792.4
201901260306,6792.4,6792.8,6790.3,6791.9
201901260307,6791.9,6794.3,6791.5,6794.3
201901260308,6794.3,6796.5,6793.4,6794.4
201901260309,6794.4,6796.5,6794.4,6794.9
201901260310,6794.9,6794.9,6789.7,6789.8
201901260311,6789.9,6789.9,6785.5,6787.9
201901260312,6787.9,6791,6787.9,6789.7
201901260313,6789.7,6792,6789.7,6790.8
201901260314,6790.8,6791.8,6789.9,6790.6
201901260315,6790.6,6791.8,6789,6789.8
201901260316,6789.8,6789.8,6788.2,6789.4
201901260317,6789.3,6791.5,6789.2,6790.2
201901260318,6790.2,6792.6,6788.9,6788.9
201901260319,6788.9,6788.9,6786.8,6787.7
201901260320,6787.7,6790.3,6786.7,6790.3
201901260321,6790.3,6791.1,6789.4,6790.7
201901260322,6790.7,6791.3,6787.9,6788.8
201901260323,6788.8,6791.3,6788.2,6791.1
201901260324,6791,6797.8,6790.8,6797
201901260325,6797,6800.5,6796.4,6799
201901260326,6799,6799,6796.4,6798.1
201901260327,6798.1,6798.7,6795.3,6797.5
201901260328,6797.7,6799.5,6797.6,6799.3
201901260329,6799.3,6800.7,6798.4,6798.8
201901260330,6798.8,6800.2,6797.6,6799.1
201901260331,6799.1,6800.3,6798.4,6799.2
201901260332,6799.2,6801,6798,6798.8
201901260333,6798.8,6798.8,6796.6,6797
201901260334,6797.2,6797.7,6795.4,6795.9
201901260335,6795.9,6800,6795.9,6797
201901260336,6796.9,6797.3,6793.2,6797.1
201901260337,6797.1,6797.1,6794.6,6794.9
201901260338,6794.9,6795.6,6792.4,6795.2
201901260339,6795.2,6797.5,6795.2,6797
201901260340,6797,6799.1,6797,6798.3
201901260341,6798.4,6799.3,6795.2,6796.3
201901260342,6796.3,6798,6795.7,6797.8
201901260343,6797.9,6799.4,6796.9,6799.4
201901260344,6799.4,6800.7,6798.9,6799.6
201901260345,6799.7,6800.8,6799.2,6800.3
201901260346,6799.7,6802.8,6799.7,6802.4
201901260347,6802.4,6803.1,6801.7,6802.8
201901260348,6802.8,6803.1,6801.2,6801.9
201901260349,6801.9,6803.5,6801.7,6803.2
201901260350,6803.2,6803.7,6799.6,6801.4
201901260351,6801.4,6801.7,6800.6,6801.6
201901260352,6801.6,6801.9,6799.9,6800.8
201901260353,6800.9,6802.4,6800.4,6802.3
201901260354,6802.3,6802.7,6801.6,6801.9
201901260355,6802.1,6802.7,6800.9,6801.2
201901260356,6801.2,6802.2,6800.7,6800.7
201901260357,6800.7,6802,6800.6,6801.2
201901260358,6801.2,6802.3,6800.8,6801.8
201901260359,6801.7,6803,6800.4,6801.5
201901260400,6801.5,6802.2,6801,6801.2
201901260401,6801.2,6801.2,6796.6,6796.6
201901260402,6796.6,6799.2,6796.6,6797.4
201901260403,6797.4,6800.8,6797.2,6800.7
201901260404,6800.5,6801.6,6800.1,6801.6
201901260405,6801.6,6802.8,6801.2,6802.4
201901260406,6802.4,6803.9,6802.2,6803.9
201901260407,6803.2,6805.7,6803.1,6805.6
201901260408,6805.6,6805.7,6804.4,6804.6
201901260409,6804.6,6805.5,6804,6804.9
201901260410,6805.1,6805.1,6802.8,6803
201901260411,6803,6803.4,6800.3,6800.7
201901260412,6800.7,6801.2,6798.9,6799.8
201901260413,6799.7,6802.8,6799.7,6802.2
201901260414,6802.1,6803,6801.9,6802
201901260415,6802,6802.1,6801,6801.8
201901260416,6801.8,6803.4,6801.8,6803.2
201901260417,6803.2,6806.4,6793.9,6794.1
201901260418,6794.1,6800.1,6794.1,6799.2
201901260419,6799.5,6799.8,6797.9,6799
201901260420,6799,6800,6795.2,6795.2
201901260421,6795.2,6796.9,6788.1,6790.2
201901260422,6790.4,6792.3,6788.1,6789.1
201901260423,6789.1,6792,6788.7,6791.3
201901260424,6791.3,6792.5,6790.2,6792.1
201901260425,6792.3,6792.8,6791.2,6791.3
201901260426,6791.3,6791.3,6789.2,6789.3
201901260427,6789.3,6789.5,6781.4,6782.6
201901260428,6782.6,6784.1,6777.6,6779.8
201901260429,6779.8,6783.4,6778.7,6782.8
201901260430,6782.8,6788.1,6782.4,6784.4
201901260431,6784.4,6785.6,6783.4,6783.4
201901260432,6783.4,6784.1,6782.6,6783.7
201901260433,6783.5,6783.9,6780.7,6781.4
201901260434,6781.4,6785.4,6781.3,6784
201901260435,6784,6785.8,6780.3,6785.4
201901260436,6785.4,6786.8,6784.9,6786.4
201901260437,6786.5,6787.7,6785.9,6786.4
201901260438,6786.4,6787.2,6784.8,6786.5
201901260439,6786.5,6789,6785.9,6788.7
201901260440,6788.9,6790.6,6788,6788.3
201901260441,6788.3,6791.3,6787.9,6790.5
201901260442,6790.5,6790.5,6788.2,6788.9
201901260443,6789,6792.6,6788.4,6792.3
201901260444,6792.4,6796,6791.7,6793.2
201901260445,6793.2,6793.9,6792.7,6793.3
201901260446,6793.4,6794.4,6792.3,6792.7
201901260447,6792.7,6794,6792,6793.3
201901260448,6793.4,6793.4,6791.1,6792.4
201901260449,6792.4,6792.6,6789.8,6790
201901260450,6790,6790.4,6787.6,6788.8
201901260451,6788.8,6788.8,6787.4,6787.7
201901260452,6787.7,6789.8,6786.4,6789.1
201901260453,6789,6791.1,6789,6789.9
201901260454,6789.9,6795,6789.2,6792.5
201901260455,6792.6,6797,6791.9,6794.8
201901260456,6794.8,6794.9,6791.3,6792.1
201901260457,6792.2,6792.5,6790.1,6790.1
201901260458,6790.2,6791.1,6787.5,6789.9
201901260459,6789.8,6791.8,6789.2,6791.1
201901260500,6791,6791.9,6786.2,6787
201901260501,6787.1,6789.8,6787.1,6789.5
201901260502,6789.5,6791.5,6789.2,6791.4
201901260503,6791.4,6793.3,6789.7,6789.7
201901260504,6789.7,6791.5,6789.4,6790.6
201901260505,6790.6,6792.3,6790.4,6791.4
201901260506,6791.4,6792,6787.2,6787.2
201901260507,6787.4,6790.4,6787.4,6789.7
201901260508,6789.7,6790,6787.3,6787.6
201901260509,6787.5,6787.6,6784.9,6786.3
201901260510,6786.4,6791,6786.4,6789
201901260511,6789,6789.1,6787.2,6788.1
201901260512,6788.1,6790,6788.1,6788.5
201901260513,6788.2,6789.3,6787.1,6788
201901260514,6788.1,6790.4,6787.6,6789.2
201901260515,6789.2,6791.8,6788.9,6791
201901260516,6791.1,6792,6790.4,6791.6
201901260517,6791.7,6795.2,6791.7,6794.3
201901260518,6794.3,6794.8,6793.6,6794.6
201901260519,6794.6,6795.9,6794.4,6794.9
201901260520,6794.7,6795.1,6793.2,6794.1
201901260521,6794.1,6794.6,6792.9,6792.9
201901260522,6792.8,6795.6,6792.7,6795.4
201901260523,6795.4,6795.8,6791.9,6792.6
201901260524,6792.6,6792.9,6790.6,6791.5
201901260525,6791.6,6792.8,6791.4,6792.8
201901260526,6792.8,6794.5,6791.9,6791.9
201901260527,6791.9,6791.9,6789.1,6789.3
201901260528,6789.3,6790.1,6787,6787.4
201901260529,6787.5,6787.6,6784.4,6786.9
201901260530,6786.9,6788.6,6779.2,6781.9
201901260531,6781.9,6781.9,6778.1,6780.7
201901260532,6780.7,6781.5,6778.4,6778.9
201901260533,6778.9,6782.7,6778.7,6781.2
201901260534,6781.2,6783,6779.4,6782.3
201901260535,6782.3,6782.3,6776.4,6778.4
201901260536,6778.5,6782.8,6778.5,6782.5
201901260537,6782.5,6784.7,6782.4,6784
201901260538,6784.2,6786,6783.4,6785.6
201901260539,6785.6,6789,6785.5,6788.4
201901260540,6788.4,6789.4,6785.9,6789.4
201901260541,6789.6,6792.6,6789,6791.1
201901260542,6791,6791,6786.9,6790.3
201901260543,6790.3,6790.5,6788.5,6790.4
201901260544,6790.4,6793.1,6788.9,6789.5
201901260545,6789.5,6792.4,6789.5,6790.5
201901260546,6790.5,6791.2,6786.7,6789.7
201901260547,6790,6790,6788.7,6789.2
201901260548,6789.2,6790.5,6788.2,6790.1
201901260549,6790.1,6790.8,6788.9,6790
201901260550,6790,6791.2,6789.1,6789.7
201901260551,6789.7,6790.2,6785.9,6786.1
201901260552,6786.1,6788.2,6784.9,6785.8
201901260553,6785.9,6786.9,6783.4,6783.7
201901260554,6783.7,6784.6,6782.2,6783.6
201901260555,6783.6,6792.9,6783.6,6788.1
201901260556,6788.1,6789.9,6787.2,6789.2
201901260557,6789.3,6790,6787.7,6789.2
201901260558,6789.1,6789.5,6786.6,6786.7
201901260559,6786.9,6792.7,6783.9,6792.2
201901260600,6792.3,6793,6784.6,6791.4
201901260601,6791.4,6791.8,6790,6790.6
201901260602,6790.6,6791.4,6789.4,6790.8
201901260603,6790.8,6792.1,6790.2,6791
201901260604,6791,6791,6789.4,6789.5
201901260605,6789.5,6790.1,6788,6789.9
201901260606,6789.9,6789.9,6788.4,6788.8
201901260607,6788.8,6789.5,6787.1,6787.1
201901260608,6787.5,6788.7,6787.1,6788.7
201901260609,6788.7,6788.7,6787.4,6787.4
201901260610,6787.4,6787.5,6785.9,6786.1
201901260611,6786.1,6787.7,6786.1,6787.6
201901260612,6787.7,6789,6787.4,6789
201901260613,6789,6789.1,6788.4,6788.8
201901260614,6788.8,6791.5,6788.8,6790
