日時,始値(BID),高値(BID),安値(BID),終値(BID)
201910140830,22095,22099,22084,22086
201910140831,22086,22106,22084,22096
201910140832,22096,22096,22084,22086
201910140833,22086,22087,22075,22084
201910140834,22084,22092,22083,22091
201910140835,22091,22091,22090,22091
201910140836,22091,22091,22075,22075
201910140837,22075,22079,22072,22075
201910140838,22075,22076,22070,22075
201910140839,22075,22077,22075,22076
201910140840,22076,22081,22075,22080
201910140841,22080,22080,22076,22080
201910140842,22080,22080,22075,22075
201910140843,22075,22081,22075,22076
201910140844,22076,22076,22075,22075
201910140845,22075,22077,22075,22076
201910140846,22076,22076,22075,22076
201910140847,22076,22082,22071,22072
201910140848,22072,22076,22069,22070
201910140849,22070,22073,22070,22073
201910140850,22073,22082,22073,22082
201910140851,22082,22082,22079,22080
201910140852,22080,22082,22075,22075
201910140853,22076,22077,22070,22070
201910140854,22070,22071,22065,22070
201910140855,22070,22077,22067,22068
201910140856,22068,22073,22068,22071
201910140857,22071,22077,22071,22076
201910140858,22076,22082,22075,22082
201910140859,22082,22092,22082,22092
201910140900,22092,22102,22081,22086
201910140901,22086,22107,22083,22101
201910140902,22101,22103,22095,22096
201910140903,22096,22096,22080,22081
201910140904,22081,22092,22075,22087
201910140905,22087,22092,22080,22081
201910140906,22081,22082,22075,22082
201910140907,22082,22082,22070,22071
201910140908,22071,22071,22055,22056
201910140909,22056,22066,22055,22056
201910140910,22056,22056,22035,22041
201910140911,22041,22041,22020,22029
201910140912,22029,22042,22029,22032
201910140913,22032,22034,22030,22031
201910140914,22031,22042,22026,22041
201910140915,22041,22047,22040,22046
201910140916,22046,22051,22040,22051
201910140917,22051,22057,22050,22056
201910140918,22056,22058,22055,22055
201910140919,22055,22062,22055,22060
201910140920,22060,22062,22055,22055
201910140921,22055,22056,22051,22056
201910140922,22056,22057,22046,22046
201910140923,22046,22046,22032,22035
201910140924,22035,22042,22030,22037
201910140925,22037,22037,22030,22031
201910140926,22031,22040,22027,22036
201910140927,22036,22043,22035,22040
201910140928,22040,22041,22023,22031
201910140929,22031,22037,22030,22036
201910140930,22036,22037,22035,22037
201910140931,22037,22037,22021,22030
201910140932,22030,22038,22030,22035
201910140933,22035,22038,22027,22032
201910140934,22032,22041,22029,22041
201910140935,22041,22046,22040,22040
201910140936,22040,22041,22035,22037
201910140937,22037,22037,22025,22030
201910140938,22030,22031,22026,22026
201910140939,22026,22031,22020,22031
201910140940,22031,22036,22031,22032
201910140941,22032,22037,22032,22036
201910140942,22036,22042,22036,22041
201910140943,22041,22042,22041,22041
201910140944,22041,22042,22041,22042
201910140945,22042,22046,22040,22041
201910140946,22041,22042,22035,22036
201910140947,22036,22047,22036,22042
201910140948,22042,22044,22040,22041
201910140949,22041,22047,22040,22040
201910140950,22040,22042,22037,22039
201910140951,22036,22036,22030,22033
201910140952,22033,22035,22033,22034
201910140953,22034,22037,22025,22025
201910140954,22025,22027,22025,22025
201910140955,22025,22030,22025,22030
201910140956,22030,22033,22029,22030
201910140957,22030,22031,22030,22030
201910140958,22030,22034,22030,22031
201910140959,22031,22036,22028,22028
201910141000,22028,22031,22021,22031
201910141001,22031,22037,22031,22035
201910141002,22035,22036,22030,22030
201910141003,22030,22037,22028,22035
201910141004,22035,22046,22035,22046
201910141005,22046,22052,22040,22040
201910141006,22040,22041,22035,22037
201910141007,22037,22040,22035,22036
201910141008,22036,22036,22025,22025
201910141009,22025,22026,22019,22026
201910141010,22026,22031,22020,22027
201910141011,22027,22029,22025,22028
201910141012,22027,22027,22015,22016
201910141013,22016,22017,22011,22011
201910141014,22011,22011,22005,22006
201910141015,22006,22011,21990,21992
201910141016,21992,21992,21980,21982
201910141017,21982,21986,21974,21974
201910141018,21974,21976,21969,21976
201910141019,21976,21982,21972,21976
201910141020,21976,21992,21976,21991
201910141021,21990,21997,21990,21996
201910141022,21996,21997,21991,21992
201910141023,21992,21993,21990,21992
201910141024,21992,21995,21981,21983
201910141025,21983,21993,21983,21986
201910141026,21986,21992,21986,21991
201910141027,21991,21997,21991,21995
201910141028,21995,21997,21992,21994
201910141029,21994,22007,21994,22001
201910141030,22001,22006,22000,22001
201910141031,22001,22002,21990,21990
201910141032,21990,22011,21990,22005
201910141033,22005,22006,21999,22000
201910141034,22000,22006,21997,22000
201910141035,22000,22001,21995,21998
201910141036,21998,22007,21995,21997
201910141037,21997,22001,21995,22001
201910141038,22001,22001,21990,21996
201910141039,21996,21997,21983,21983
201910141040,21983,21988,21982,21983
201910141041,21983,21987,21980,21981
201910141042,21981,21985,21975,21981
201910141043,21981,21992,21977,21992
201910141044,21992,21997,21992,21997
201910141045,21997,22007,21995,21999
201910141046,21999,22006,21995,22004
201910141047,22004,22012,22004,22010
201910141048,22010,22011,22005,22006
201910141049,22006,22011,22005,22011
201910141050,22011,22017,22005,22010
201910141051,22010,22017,22010,22014
201910141052,22014,22026,22014,22020
201910141053,22020,22022,22014,22014
201910141054,22014,22026,22014,22026
201910141055,22026,22027,22021,22022
201910141056,22022,22032,22022,22026
201910141057,22026,22026,22020,22020
201910141058,22020,22027,22020,22024
201910141059,22024,22033,22024,22030
201910141100,22030,22032,22020,22024
201910141101,22024,22026,22015,22015
201910141102,22015,22029,22015,22027
201910141103,22027,22032,22026,22027
201910141104,22027,22031,22026,22031
201910141105,22031,22039,22030,22039
201910141106,22039,22046,22037,22045
201910141107,22045,22052,22040,22052
201910141108,22052,22052,22043,22043
201910141109,22043,22055,22043,22052
201910141110,22052,22056,22049,22049
201910141111,22049,22052,22045,22047
201910141112,22047,22051,22045,22045
201910141113,22045,22051,22041,22045
201910141114,22045,22049,22040,22045
201910141115,22045,22047,22045,22046
201910141116,22046,22046,22040,22042
201910141117,22042,22042,22037,22037
201910141118,22037,22041,22036,22040
201910141119,22040,22043,22035,22036
201910141120,22036,22036,22023,22027
201910141121,22027,22029,22026,22029
201910141122,22029,22036,22028,22036
201910141123,22036,22036,22031,22035
201910141124,22035,22042,22035,22039
201910141125,22039,22042,22039,22041
201910141126,22041,22046,22035,22036
201910141127,22036,22037,22032,22036
201910141128,22036,22041,22031,22041
201910141129,22041,22046,22039,22046
201910141130,22046,22051,22041,22050
201910141131,22050,22056,22050,22056
201910141132,22056,22056,22045,22046
201910141133,22046,22059,22046,22056
201910141134,22056,22063,22052,22063
201910141135,22063,22063,22055,22062
201910141136,22062,22062,22052,22056
201910141137,22056,22057,22050,22051
201910141138,22051,22051,22035,22042
201910141139,22042,22045,22040,22040
201910141140,22040,22047,22040,22047
201910141141,22047,22051,22046,22051
201910141142,22051,22051,22045,22045
201910141143,22045,22046,22040,22045
201910141144,22045,22050,22045,22046
201910141145,22046,22051,22045,22050
201910141146,22050,22054,22050,22054
201910141147,22054,22054,22047,22050
201910141148,22050,22050,22050,22050
201910141149,22050,22052,22046,22047
201910141150,22047,22052,22047,22051
201910141151,22051,22057,22050,22056
201910141152,22056,22056,22051,22051
201910141153,22051,22051,22050,22050
201910141154,22050,22052,22045,22049
201910141155,22049,22051,22045,22049
201910141156,22049,22052,22045,22046
201910141157,22046,22047,22040,22045
201910141158,22045,22046,22040,22041
201910141159,22041,22042,22040,22041
201910141200,22041,22042,22035,22036
201910141201,22036,22042,22035,22041
201910141202,22041,22041,22039,22041
201910141203,22041,22042,22040,22042
201910141204,22042,22047,22042,22046
201910141205,22046,22046,22045,22045
201910141206,22045,22045,22045,22045
201910141207,22045,22051,22045,22048
201910141208,22048,22051,22048,22051
201910141209,22051,22052,22049,22051
201910141210,22051,22051,22045,22046
201910141211,22046,22051,22046,22051
201910141212,22051,22052,22048,22050
201910141213,22050,22051,22050,22051
201910141214,22050,22050,22045,22047
201910141215,22047,22051,22045,22046
201910141216,22046,22046,22040,22041
201910141217,22041,22042,22040,22040
201910141218,22041,22041,22041,22041
201910141219,22041,22046,22040,22046
201910141220,22046,22047,22040,22045
201910141221,22045,22045,22040,22041
201910141222,22041,22042,22035,22040
201910141223,22040,22042,22037,22041
201910141224,22041,22041,22037,22040
201910141225,22040,22042,22035,22042
201910141226,22042,22042,22035,22041
201910141227,22041,22041,22040,22041
201910141228,22041,22042,22040,22041
201910141229,22041,22046,22040,22045
201910141230,22045,22046,22045,22046
201910141231,22046,22046,22046,22046
201910141232,22046,22051,22045,22049
201910141233,22049,22052,22045,22046
201910141234,22045,22047,22045,22046
201910141235,22046,22047,22041,22044
201910141236,22044,22046,22041,22042
201910141237,22042,22045,22042,22045
201910141238,22045,22047,22045,22046
201910141239,22046,22046,22040,22041
201910141240,22040,22043,22040,22041
201910141241,22041,22041,22040,22040
201910141242,22040,22041,22040,22041
201910141243,22041,22041,22040,22040
201910141244,22040,22040,22040,22040
201910141245,22040,22046,22040,22046
201910141246,22046,22046,22040,22041
201910141247,22041,22046,22040,22045
201910141248,22045,22052,22045,22051
201910141249,22051,22052,22049,22050
201910141250,22050,22052,22049,22049
201910141251,22049,22051,22049,22050
201910141252,22050,22052,22050,22052
201910141253,22052,22059,22052,22055
201910141254,22055,22056,22054,22054
201910141255,22054,22054,22050,22050
201910141256,22050,22051,22050,22050
201910141257,22050,22052,22050,22052
201910141258,22052,22052,22052,22052
201910141259,22052,22052,22051,22052
201910141300,22052,22052,22051,22051
201910141301,22051,22051,22051,22051
201910141302,22051,22052,22051,22052
201910141303,22052,22055,22051,22055
201910141304,22055,22057,22055,22056
201910141305,22056,22056,22055,22055
201910141306,22055,22056,22055,22055
201910141307,22055,22055,22055,22055
201910141308,22055,22056,22055,22055
201910141309,22055,22056,22055,22055
201910141310,22055,22056,22055,22056
201910141311,22056,22057,22054,22056
201910141312,22056,22056,22055,22056
201910141313,22056,22056,22055,22056
201910141314,22056,22056,22056,22056
201910141315,22056,22061,22056,22060
201910141316,22060,22061,22060,22061
201910141317,22061,22067,22061,22067
201910141318,22067,22073,22066,22070
201910141319,22070,22077,22070,22075
201910141320,22075,22077,22075,22076
201910141321,22076,22077,22070,22071
201910141322,22071,22072,22065,22065
201910141323,22065,22066,22065,22066
201910141324,22066,22066,22066,22066
201910141325,22066,22067,22066,22066
201910141326,22066,22067,22066,22066
201910141327,22066,22066,22064,22064
201910141328,22064,22067,22060,22061
201910141329,22061,22061,22061,22061
201910141330,22061,22067,22060,22064
201910141331,22064,22065,22056,22056
201910141332,22056,22060,22055,22056
201910141333,22056,22056,22052,22055
201910141334,22055,22056,22055,22055
201910141335,22055,22055,22055,22055
201910141336,22055,22055,22052,22052
201910141337,22052,22052,22046,22049
201910141338,22049,22050,22049,22050
201910141339,22050,22050,22050,22050
201910141340,22050,22052,22050,22052
201910141341,22052,22053,22052,22052
201910141342,22052,22056,22052,22056
201910141343,22056,22057,22054,22056
201910141344,22056,22057,22055,22056
201910141345,22056,22056,22050,22051
201910141346,22051,22056,22051,22056
201910141347,22056,22056,22052,22054
201910141348,22054,22055,22054,22054
201910141349,22054,22057,22054,22057
201910141350,22057,22058,22056,22057
201910141351,22057,22059,22054,22059
201910141352,22059,22061,22057,22061
201910141353,22061,22061,22055,22059
201910141354,22059,22059,22055,22055
201910141355,22055,22056,22055,22056
201910141356,22056,22057,22055,22055
201910141357,22055,22056,22055,22056
201910141358,22056,22056,22055,22055
201910141359,22055,22057,22047,22047
201910141400,22047,22049,22040,22045
201910141401,22045,22051,22042,22050
201910141402,22050,22056,22050,22054
201910141403,22054,22057,22054,22055
201910141404,22055,22058,22055,22055
201910141405,22055,22057,22055,22056
201910141406,22056,22057,22055,22056
201910141407,22056,22057,22052,22052
201910141408,22052,22052,22045,22051
201910141409,22051,22052,22042,22050
201910141410,22050,22052,22045,22046
201910141411,22046,22047,22040,22041
201910141412,22041,22048,22040,22048
201910141413,22048,22052,22048,22050
201910141414,22050,22052,22050,22051
201910141415,22051,22052,22045,22051
201910141416,22051,22052,22045,22046
201910141417,22046,22047,22045,22047
201910141418,22047,22047,22040,22041
201910141419,22041,22041,22040,22040
201910141420,22040,22042,22040,22040
201910141421,22040,22041,22040,22040
201910141422,22040,22041,22040,22040
201910141423,22040,22040,22035,22036
201910141424,22036,22037,22035,22036
201910141425,22036,22037,22031,22032
201910141426,22032,22035,22032,22035
201910141427,22035,22041,22035,22041
201910141428,22041,22042,22036,22037
201910141429,22037,22042,22036,22038
201910141430,22038,22042,22035,22036
201910141431,22036,22037,22030,22030
201910141432,22030,22043,22030,22043
201910141433,22043,22043,22038,22040
201910141434,22043,22043,22039,22042
201910141435,22042,22047,22042,22047
201910141436,22047,22047,22042,22043
201910141437,22043,22047,22041,22043
201910141438,22043,22047,22042,22046
201910141439,22046,22047,22045,22046
201910141440,22046,22047,22045,22046
201910141441,22046,22047,22045,22046
201910141442,22046,22052,22046,22052
201910141443,22052,22052,22052,22052
201910141444,22052,22052,22045,22047
201910141445,22047,22050,22040,22041
201910141446,22041,22042,22037,22037
201910141447,22037,22037,22033,22033
201910141448,22033,22033,22028,22031
201910141449,22031,22032,22029,22031
201910141450,22031,22037,22030,22037
201910141451,22037,22042,22036,22042
201910141452,22042,22042,22042,22042
201910141453,22042,22045,22036,22044
201910141454,22044,22047,22044,22045
201910141455,22044,22049,22044,22047
201910141456,22047,22047,22040,22041
201910141457,22041,22042,22039,22042
201910141458,22042,22046,22042,22046
201910141459,22046,22047,22043,22043
201910141500,22043,22065,22043,22049
201910141501,22049,22052,22036,22037
201910141502,22037,22041,22037,22041
201910141503,22041,22047,22036,22042
201910141504,22042,22047,22038,22045
201910141505,22045,22045,22030,22032
201910141506,22032,22032,22026,22031
201910141507,22031,22031,22026,22027
201910141508,22027,22035,22027,22032
201910141509,22032,22032,22020,22021
201910141510,22021,22022,22015,22020
201910141511,22020,22023,22018,22023
201910141512,22023,22030,22020,22029
201910141513,22029,22035,22025,22035
201910141514,22035,22037,22035,22035
201910141515,22035,22036,22030,22033
201910141516,22033,22035,22030,22031
201910141517,22031,22042,22031,22036
201910141518,22036,22038,22035,22035
201910141519,22035,22036,22035,22035
201910141520,22035,22036,22025,22028
201910141521,22028,22030,22025,22025
201910141522,22025,22026,22021,22021
201910141523,22021,22021,22017,22021
201910141524,22021,22029,22021,22028
201910141525,22026,22026,22022,22023
201910141526,22022,22026,22021,22025
201910141527,22025,22030,22025,22025
201910141528,22025,22026,22017,22017
201910141529,22018,22021,22015,22017
201910141530,22017,22021,22015,22020
201910141531,22020,22021,22018,22018
201910141532,22018,22018,22011,22015
201910141533,22015,22016,22012,22013
201910141534,22013,22020,22013,22020
201910141535,22020,22021,22020,22020
201910141536,22020,22021,22010,22016
201910141537,22016,22022,22015,22021
201910141538,22021,22025,22020,22021
201910141539,22021,22025,22021,22021
201910141540,22021,22023,22018,22018
201910141541,22018,22020,22014,22014
201910141542,22014,22017,22009,22017
201910141543,22017,22022,22017,22022
201910141544,22021,22026,22021,22025
201910141545,22025,22026,22018,22022
201910141546,22022,22030,22018,22025
201910141547,22025,22031,22025,22031
201910141548,22031,22031,22020,22021
201910141549,22021,22030,22021,22030
201910141550,22030,22031,22023,22023
201910141551,22023,22025,22017,22021
201910141552,22021,22022,22018,22019
201910141553,22019,22020,22016,22020
201910141554,22020,22020,22006,22012
201910141555,22028,22028,22006,22014
201910141556,22014,22014,22008,22009
201910141557,22009,22010,22006,22008
201910141558,22008,22020,22008,22013
201910141559,22013,22019,22010,22017
201910141600,22017,22020,22007,22014
201910141601,22014,22020,22008,22020
201910141602,22020,22020,22007,22015
201910141603,22015,22020,22006,22008
201910141604,22008,22015,22005,22005
201910141605,22005,22010,22000,22010
201910141606,22010,22010,22000,22001
201910141607,22001,22002,21990,21990
201910141608,21990,21994,21985,21994
201910141609,21995,22002,21990,21996
201910141610,21996,22005,21992,22000
201910141611,22000,22000,21984,21984
201910141612,21984,21989,21982,21984
201910141613,21984,21987,21982,21984
201910141614,21984,21985,21970,21977
201910141615,21977,21977,21968,21973
201910141616,21973,21985,21971,21985
201910141617,21985,21994,21985,21988
201910141618,21988,21999,21988,21994
201910141619,21995,21999,21989,21989
201910141620,21989,21993,21986,21987
201910141621,21987,21987,21980,21986
201910141622,21986,22002,21986,22002
201910141623,22002,22007,21999,22001
201910141624,22001,22005,22000,22004
201910141625,22004,22007,22002,22003
201910141626,22003,22003,21997,21997
201910141627,21997,21999,21991,21992
201910141628,21992,21995,21987,21987
201910141629,21987,21988,21985,21986
201910141630,21986,21991,21983,21989
201910141631,21989,21991,21978,21979
201910141632,21979,21986,21976,21985
201910141633,21985,21991,21985,21991
201910141634,21991,21992,21987,21992
201910141635,21992,21992,21980,21981
201910141636,21981,21982,21970,21975
201910141637,21975,21976,21974,21975
201910141638,21975,21976,21970,21971
201910141639,21971,21976,21965,21970
201910141640,21970,21971,21965,21967
201910141641,21967,21967,21960,21961
201910141642,21961,21966,21960,21961
201910141643,21961,21965,21961,21963
201910141644,21963,21966,21960,21961
201910141645,21961,21971,21960,21971
201910141646,21971,21981,21969,21980
201910141647,21980,21982,21975,21981
201910141648,21981,21981,21971,21972
201910141649,21972,21976,21970,21975
201910141650,21975,21977,21973,21976
201910141651,21976,21985,21976,21985
201910141652,21985,21987,21982,21984
201910141653,21984,21984,21970,21972
201910141654,21972,21972,21966,21967
201910141655,21967,21968,21966,21966
201910141656,21966,21971,21966,21971
201910141657,21971,21972,21967,21969
201910141658,21969,21972,21965,21967
201910141659,21967,21968,21966,21968
201910141700,21968,21972,21967,21967
201910141701,21967,21967,21959,21962
201910141702,21962,21962,21955,21961
201910141703,21961,21962,21960,21961
201910141704,21961,21962,21951,21955
201910141705,21955,21962,21950,21962
201910141706,21962,21972,21960,21960
201910141707,21960,21962,21956,21960
201910141708,21960,21967,21959,21963
201910141709,21963,21963,21960,21962
201910141710,21962,21967,21960,21963
201910141711,21963,21967,21963,21966
201910141712,21966,21967,21966,21967
201910141713,21972,21972,21965,21965
201910141714,21965,21967,21960,21965
201910141715,21965,21970,21965,21967
201910141716,21967,21968,21960,21961
201910141717,21961,21967,21960,21963
201910141718,21963,21964,21960,21963
201910141719,21963,21965,21960,21965
201910141720,21965,21968,21964,21965
201910141721,21965,21971,21965,21966
201910141722,21966,21971,21965,21968
201910141723,21968,21971,21965,21970
201910141724,21970,21976,21965,21975
201910141725,21975,21987,21975,21987
201910141726,21987,21987,21978,21980
201910141727,21980,21987,21980,21986
201910141728,21986,21987,21985,21985
201910141729,21985,21991,21985,21990
201910141730,21990,21991,21990,21991
201910141731,21991,21991,21985,21986
201910141732,21986,21987,21986,21987
201910141733,21987,21987,21980,21984
201910141734,21984,21984,21975,21976
201910141735,21976,21982,21976,21981
201910141736,21981,21983,21980,21980
201910141737,21980,21992,21980,21992
201910141738,21992,21993,21990,21992
201910141739,21992,21996,21992,21995
201910141740,21995,21996,21989,21993
201910141741,21994,22001,21993,21998
201910141742,21998,22001,21998,22001
201910141743,22001,22006,22001,22004
201910141744,22004,22004,22000,22001
201910141745,22001,22011,21996,22008
201910141746,22007,22012,22007,22012
201910141747,22012,22012,22010,22010
201910141748,22010,22010,22005,22006
201910141749,22006,22006,22002,22002
201910141750,22001,22002,22001,22001
201910141751,22001,22001,21995,21995
201910141752,21995,21998,21995,21998
201910141753,21998,22000,21998,21998
201910141754,21998,22002,21998,22001
201910141755,22001,22001,21998,22000
201910141756,22000,22002,22000,22002
201910141757,22002,22005,22002,22005
201910141758,22005,22006,22002,22003
201910141759,22003,22003,22000,22000
201910141800,22000,22002,21998,21998
201910141801,21998,22002,21998,22001
201910141802,22001,22002,21998,22000
201910141803,22000,22002,22000,22002
201910141804,22002,22002,21996,21996
201910141805,21996,22004,21996,22000
201910141806,22000,22002,22000,22000
201910141807,22000,22002,22000,22002
201910141808,22002,22003,22001,22003
201910141809,22003,22003,21998,22000
201910141810,22000,22001,21995,21996
201910141811,21996,22001,21995,22000
201910141812,22000,22001,22000,22000
201910141813,22000,22002,21995,21996
201910141814,21996,22001,21996,21998
201910141815,21998,21998,21991,21992
201910141816,21992,21997,21992,21996
201910141817,21996,22002,21995,22002
201910141818,22002,22002,21995,21996
201910141819,21996,21997,21964,21965
201910141820,21965,21971,21938,21947
201910141821,21945,21945,21922,21922
201910141822,21922,21922,21899,21913
201910141823,21914,21929,21913,21927
201910141824,21927,21935,21920,21920
201910141825,21920,21926,21915,21923
201910141826,21923,21928,21914,21916
201910141827,21916,21920,21910,21910
201910141828,21910,21910,21901,21909
201910141829,21909,21914,21905,21914
201910141830,21914,21922,21907,21922
201910141831,21922,21922,21904,21919
201910141832,21919,21933,21919,21933
201910141833,21934,21934,21925,21931
201910141834,21931,21931,21921,21926
201910141835,21925,21927,21914,21915
201910141836,21915,21915,21903,21906
201910141837,21906,21917,21906,21917
201910141838,21917,21923,21916,21923
201910141839,21923,21923,21915,21919
201910141840,21919,21919,21900,21900
201910141841,21900,21902,21895,21896
201910141842,21896,21897,21895,21895
201910141843,21895,21897,21887,21887
201910141844,21887,21888,21876,21877
201910141845,21877,21884,21875,21882
201910141846,21882,21889,21880,21889
201910141847,21889,21893,21889,21892
201910141848,21892,21897,21892,21892
201910141849,21892,21897,21892,21896
201910141850,21896,21898,21893,21895
201910141851,21895,21897,21891,21895
201910141852,21895,21902,21893,21902
201910141853,21902,21911,21900,21905
201910141854,21905,21906,21900,21901
201910141855,21901,21902,21888,21890
201910141856,21890,21906,21890,21900
201910141857,21900,21911,21899,21902
201910141858,21905,21908,21903,21906
201910141859,21906,21906,21891,21900
201910141900,21900,21912,21898,21912
201910141901,21912,21912,21896,21897
201910141902,21897,21902,21896,21899
201910141903,21899,21907,21899,21906
201910141904,21906,21906,21900,21903
201910141905,21903,21912,21902,21908
201910141906,21908,21911,21907,21908
201910141907,21908,21908,21900,21905
201910141908,21905,21907,21903,21905
201910141909,21905,21906,21903,21906
201910141910,21906,21907,21902,21903
201910141911,21903,21903,21899,21901
201910141912,21900,21900,21890,21891
201910141913,21891,21896,21890,21892
201910141914,21892,21893,21888,21891
201910141915,21891,21897,21891,21895
201910141916,21895,21898,21894,21897
201910141917,21897,21903,21897,21903
201910141918,21903,21911,21903,21908
201910141919,21908,21908,21905,21907
201910141920,21907,21915,21907,21914
201910141921,21914,21915,21910,21910
201910141922,21910,21913,21910,21913
201910141923,21913,21918,21911,21911
201910141924,21911,21913,21909,21911
201910141925,21911,21916,21910,21910
201910141926,21910,21911,21908,21911
201910141927,21911,21915,21911,21914
201910141928,21914,21915,21910,21911
201910141929,21912,21913,21901,21906
201910141930,21906,21911,21904,21905
201910141931,21906,21907,21898,21902
201910141932,21902,21905,21900,21902
201910141933,21902,21911,21902,21910
201910141934,21910,21910,21906,21908
201910141935,21908,21912,21908,21912
201910141936,21912,21921,21911,21921
201910141937,21921,21921,21915,21916
201910141938,21916,21921,21916,21920
201910141939,21920,21921,21917,21919
201910141940,21919,21923,21919,21920
201910141941,21920,21922,21918,21920
201910141942,21920,21921,21915,21915
201910141943,21915,21921,21915,21915
201910141944,21915,21918,21910,21916
201910141945,21916,21922,21916,21921
201910141946,21920,21922,21920,21920
201910141947,21920,21920,21913,21917
201910141948,21917,21920,21915,21917
201910141949,21917,21920,21913,21916
201910141950,21915,21928,21915,21928
201910141951,21928,21928,21924,21925
201910141952,21925,21926,21925,21925
201910141953,21925,21926,21925,21926
201910141954,21926,21936,21926,21936
201910141955,21936,21946,21933,21936
201910141956,21936,21936,21929,21930
201910141957,21930,21931,21927,21931
201910141958,21931,21933,21930,21930
201910141959,21930,21936,21930,21936
201910142000,21936,21937,21931,21933
201910142001,21933,21933,21929,21930
201910142002,21930,21933,21930,21933
201910142003,21933,21933,21929,21930
201910142004,21930,21933,21929,21931
201910142005,21931,21933,21929,21931
201910142006,21931,21931,21924,21930
201910142007,21929,21930,21929,21930
201910142008,21930,21930,21924,21926
201910142009,21926,21928,21925,21928
201910142010,21928,21932,21928,21930
201910142011,21930,21930,21925,21929
201910142012,21929,21930,21928,21929
201910142013,21930,21933,21930,21933
201910142014,21933,21936,21932,21936
201910142015,21936,21937,21930,21930
201910142016,21930,21931,21928,21931
201910142017,21931,21931,21925,21925
201910142018,21925,21927,21925,21925
201910142019,21925,21927,21925,21926
201910142020,21926,21930,21926,21930
201910142021,21930,21935,21928,21935
201910142022,21935,21940,21929,21935
201910142023,21935,21935,21933,21934
201910142024,21933,21935,21931,21935
201910142025,21935,21935,21928,21934
201910142026,21935,21935,21931,21935
201910142027,21935,21940,21933,21934
201910142028,21934,21938,21934,21938
201910142029,21938,21938,21931,21938
201910142030,21938,21938,21936,21938
201910142031,21938,21938,21935,21936
201910142032,21936,21941,21936,21939
201910142033,21939,21946,21939,21945
201910142034,21945,21946,21937,21938
201910142035,21938,21939,21935,21939
201910142036,21939,21940,21935,21935
201910142037,21935,21938,21935,21935
201910142038,21935,21940,21935,21938
201910142039,21938,21942,21938,21941
201910142040,21941,21941,21940,21941
201910142041,21941,21941,21938,21941
201910142042,21941,21941,21937,21938
201910142043,21938,21941,21938,21938
201910142044,21938,21942,21938,21940
201910142045,21940,21943,21938,21940
201910142046,21940,21940,21933,21936
201910142047,21936,21940,21935,21936
201910142048,21936,21936,21933,21935
201910142049,21935,21936,21933,21935
201910142050,21935,21937,21935,21936
201910142051,21936,21938,21936,21938
201910142052,21938,21943,21938,21943
201910142053,21943,21946,21943,21945
201910142054,21945,21946,21943,21945
201910142055,21945,21952,21945,21952
201910142056,21952,21952,21949,21949
201910142057,21949,21950,21948,21950
201910142058,21950,21952,21946,21950
201910142059,21950,21951,21946,21951
201910142100,21951,21954,21948,21948
201910142101,21948,21949,21948,21948
201910142102,21948,21972,21948,21955
201910142103,21956,21956,21945,21948
201910142104,21950,21951,21948,21950
201910142105,21950,21951,21945,21945
201910142106,21945,21945,21938,21940
201910142107,21940,21944,21939,21940
201910142108,21940,21943,21938,21938
201910142109,21938,21938,21935,21935
201910142110,21935,21935,21933,21934
201910142111,21934,21939,21934,21935
201910142112,21935,21945,21935,21943
201910142113,21945,21948,21943,21945
201910142114,21945,21946,21940,21940
201910142115,21940,21941,21940,21940
201910142116,21940,21944,21940,21944
201910142117,21943,21943,21935,21935
201910142118,21935,21936,21935,21935
201910142119,21935,21941,21935,21940
201910142120,21940,21949,21940,21945
201910142121,21945,21945,21940,21942
201910142122,21942,21944,21940,21942
201910142123,21942,21943,21940,21940
201910142124,21940,21943,21940,21943
201910142125,21942,21944,21942,21944
201910142126,21944,21944,21943,21944
201910142127,21944,21944,21939,21942
201910142128,21942,21943,21940,21942
201910142129,21942,21942,21938,21940
201910142130,21940,21941,21935,21936
201910142131,21936,21938,21935,21935
201910142132,21935,21936,21935,21936
201910142133,21936,21936,21935,21935
201910142134,21935,21940,21935,21939
201910142135,21939,21940,21936,21940
201910142136,21940,21949,21940,21949
201910142137,21949,21951,21948,21951
201910142138,21951,21951,21948,21949
201910142139,21949,21951,21948,21950
201910142140,21950,21951,21949,21949
201910142141,21949,21950,21944,21945
201910142142,21945,21946,21942,21945
201910142143,21945,21947,21944,21947
201910142144,21947,21950,21945,21946
201910142145,21945,21947,21940,21941
201910142146,21941,21941,21935,21937
201910142147,21938,21938,21932,21937
201910142148,21937,21941,21937,21938
201910142149,21938,21938,21932,21935
201910142150,21935,21936,21935,21935
201910142151,21935,21936,21933,21934
201910142152,21934,21939,21934,21937
201910142153,21938,21938,21935,21935
201910142154,21935,21940,21932,21939
201910142155,21939,21939,21935,21935
201910142156,21935,21936,21931,21935
201910142157,21935,21946,21935,21946
201910142158,21946,21947,21944,21946
201910142159,21946,21952,21940,21943
201910142200,21943,21944,21940,21942
201910142201,21942,21945,21939,21940
201910142202,21940,21948,21939,21948
201910142203,21948,21953,21946,21953
201910142204,21953,21953,21950,21950
201910142205,21950,21952,21947,21950
201910142206,21950,21955,21950,21953
201910142207,21953,21955,21950,21950
201910142208,21950,21950,21950,21950
201910142209,21950,21956,21950,21950
201910142210,21950,21954,21950,21954
201910142211,21954,21960,21952,21955
201910142212,21955,21956,21948,21956
201910142213,21956,21956,21954,21955
201910142214,21955,21955,21955,21955
201910142215,21955,21955,21945,21948
201910142216,21948,21951,21946,21948
201910142217,21948,21952,21946,21952
201910142218,21952,21952,21946,21947
201910142219,21947,21947,21943,21946
201910142220,21946,21946,21944,21946
201910142221,21946,21949,21945,21945
201910142222,21945,21946,21945,21945
201910142223,21945,21946,21941,21943
201910142224,21943,21944,21940,21943
201910142225,21943,21943,21940,21940
201910142226,21940,21946,21940,21942
201910142227,21942,21962,21942,21959
201910142228,21959,21971,21958,21964
201910142229,21964,21970,21959,21960
201910142230,21960,21973,21960,21968
201910142231,21968,21986,21968,21980
201910142232,21980,21981,21960,21960
201910142233,21960,21968,21960,21967
201910142234,21967,21967,21960,21961
201910142235,21961,21967,21961,21965
201910142236,21965,21969,21954,21956
201910142237,21956,21956,21946,21950
201910142238,21950,21954,21941,21947
201910142239,21947,21955,21947,21950
201910142240,21950,21955,21942,21942
201910142241,21942,21954,21942,21954
201910142242,21954,21960,21950,21960
201910142243,21960,21972,21959,21960
201910142244,21960,21961,21953,21956
201910142245,21956,21966,21950,21962
201910142246,21962,21974,21956,21973
201910142247,21973,21973,21967,21971
201910142248,21971,21977,21970,21976
201910142249,21976,21986,21976,21984
201910142250,21984,21986,21980,21982
201910142251,21982,21982,21967,21972
201910142252,21973,21973,21965,21969
201910142253,21969,21974,21965,21973
201910142254,21972,21981,21971,21980
201910142255,21980,21985,21973,21981
201910142256,21981,21991,21980,21990
201910142257,21990,21995,21990,21995
201910142258,21995,21996,21990,21991
201910142259,21991,21992,21986,21991
201910142300,21991,21992,21987,21990
201910142301,21990,21997,21990,21991
201910142302,21991,21995,21985,21993
201910142303,21993,21997,21991,21992
201910142304,21992,21992,21986,21986
201910142305,21986,21992,21985,21990
201910142306,21990,21991,21983,21988
201910142307,21988,21997,21988,21997
201910142308,21997,22002,21995,22000
201910142309,21999,22007,21999,22006
201910142310,22006,22007,22000,22006
201910142311,22006,22006,22000,22001
201910142312,22001,22004,21999,22002
201910142313,22002,22003,22002,22003
201910142314,22003,22004,21991,21991
201910142315,21991,21996,21991,21992
201910142316,21992,21996,21990,21996
201910142317,21996,21997,21990,21990
201910142318,21990,21992,21988,21990
201910142319,21990,21990,21982,21986
201910142320,21986,21991,21980,21984
201910142321,21984,21987,21981,21987
201910142322,21987,21989,21982,21984
201910142323,21984,21987,21984,21987
201910142324,21987,21987,21978,21978
201910142325,21978,21984,21976,21979
201910142326,21979,21981,21972,21976
201910142327,21976,21982,21976,21980
201910142328,21980,21981,21979,21979
201910142329,21979,21981,21975,21975
201910142330,21975,21986,21975,21986
201910142331,21986,21991,21986,21991
201910142332,21991,21996,21987,21991
201910142333,21991,21997,21990,21991
201910142334,21991,21996,21985,21985
201910142335,21985,21993,21985,21991
201910142336,21991,21991,21985,21987
201910142337,21987,21988,21984,21985
201910142338,21985,21991,21982,21991
201910142339,21991,21995,21990,21992
201910142340,21992,21997,21990,21996
201910142341,21996,21996,21994,21995
201910142342,21995,22001,21995,22000
201910142343,22000,22001,21998,21999
201910142344,21999,22006,21999,22004
201910142345,22004,22006,21999,22000
201910142346,22000,22001,21990,21990
201910142347,21990,21991,21986,21991
201910142348,21991,21994,21990,21994
201910142349,21994,21997,21992,21997
201910142350,21997,22001,21996,22000
201910142351,22000,22002,21999,22000
201910142352,22000,22006,21999,22000
201910142353,22000,22006,22000,22000
201910142354,22000,22000,22000,22000
201910142355,22000,22001,21997,22000
201910142356,22000,22001,21996,21996
201910142357,21996,21996,21992,21995
201910142358,21995,22011,21995,22008
201910142359,22008,22012,22008,22010
201910150000,22010,22015,22004,22007
201910150001,22007,22009,22005,22007
201910150002,22007,22007,22001,22001
201910150003,22001,22007,21998,21998
201910150004,21998,22001,21990,21997
201910150005,21997,21999,21992,21992
201910150006,21992,22007,21990,22006
201910150007,22006,22007,22005,22006
201910150008,22006,22009,22006,22009
201910150009,22009,22016,22009,22009
201910150010,22009,22012,22005,22008
201910150011,22008,22008,21996,22000
201910150012,22000,22001,21995,22001
201910150013,22001,22007,22001,22006
201910150014,22006,22017,22000,22012
201910150015,22012,22012,22007,22010
201910150016,22010,22012,22005,22006
201910150017,22006,22012,22005,22011
201910150018,22011,22012,22009,22010
201910150019,22010,22017,22009,22017
201910150020,22017,22017,22011,22017
201910150021,22017,22017,22007,22011
201910150022,22011,22012,22008,22012
201910150023,22012,22014,22010,22012
201910150024,22012,22015,22007,22012
201910150025,22012,22012,22007,22007
201910150026,22007,22007,21995,21997
201910150027,21997,22002,21995,22002
201910150028,22002,22002,21996,21997
201910150029,21997,22002,21996,22001
201910150030,22001,22011,21997,22010
201910150031,22010,22019,22010,22019
201910150032,22019,22021,22018,22020
201910150033,22020,22023,22017,22017
201910150034,22017,22017,22009,22014
201910150035,22014,22022,22014,22022
201910150036,22022,22024,22020,22024
201910150037,22024,22027,22024,22026
201910150038,22026,22030,22024,22030
201910150039,22030,22032,22029,22032
201910150040,22032,22037,22025,22026
201910150041,22026,22037,22025,22037
201910150042,22037,22037,22034,22035
201910150043,22035,22035,22023,22023
201910150044,22023,22023,22020,22020
201910150045,22020,22022,22020,22021
201910150046,22021,22021,22020,22020
201910150047,22020,22023,22015,22023
201910150048,22023,22027,22019,22020
201910150049,22020,22021,22020,22021
201910150050,22021,22022,22021,22022
201910150051,22022,22022,22021,22021
201910150052,22021,22022,22019,22022
201910150053,22022,22027,22022,22027
201910150054,22027,22028,22025,22025
201910150055,22025,22032,22020,22023
201910150056,22023,22023,22020,22021
201910150057,22021,22027,22020,22026
201910150058,22026,22027,22020,22022
201910150059,22022,22022,22015,22016
201910150100,22016,22017,22010,22016
201910150101,22016,22017,22010,22012
201910150102,22012,22017,22011,22017
201910150103,22017,22017,22010,22011
201910150104,22011,22012,22006,22007
201910150105,22007,22011,22005,22011
201910150106,22011,22017,22010,22016
201910150107,22016,22020,22015,22020
201910150108,22020,22020,22015,22015
201910150109,22015,22019,22015,22016
201910150110,22016,22017,22015,22017
201910150111,22017,22017,22006,22010
201910150112,22010,22012,22009,22010
201910150113,22010,22012,22010,22011
201910150114,22011,22012,22010,22012
201910150115,22012,22012,22011,22012
201910150116,22012,22012,22010,22010
201910150117,22010,22017,22010,22016
201910150118,22016,22017,22011,22012
201910150119,22012,22014,22010,22012
201910150120,22012,22015,22001,22003
201910150121,22003,22006,21997,22006
201910150122,22006,22008,22003,22008
201910150123,22008,22014,22007,22014
201910150124,22014,22014,22010,22010
201910150125,22010,22012,22002,22002
201910150126,22002,22007,22000,22006
201910150127,22006,22006,22001,22002
201910150128,22002,22007,22001,22006
201910150129,22006,22007,22001,22001
201910150130,22001,22002,22000,22001
201910150131,22001,22007,22001,22006
201910150132,22006,22007,22004,22007
201910150133,22007,22007,22005,22006
201910150134,22006,22007,22006,22006
201910150135,22006,22007,22005,22005
201910150136,22005,22012,22005,22010
201910150137,22010,22012,22009,22011
201910150138,22011,22011,22010,22011
201910150139,22011,22012,22010,22012
201910150140,22012,22012,22005,22006
201910150141,22006,22007,22001,22006
201910150142,22006,22007,22005,22007
201910150143,22007,22007,22005,22007
201910150144,22007,22007,22002,22002
201910150145,22002,22007,22000,22006
201910150146,22006,22006,22005,22006
201910150147,22006,22008,22005,22008
201910150148,22008,22008,22005,22005
201910150149,22005,22007,22000,22001
201910150150,22001,22007,22000,22001
201910150151,22001,22007,22000,22001
201910150152,22001,22002,21998,22002
201910150153,22002,22002,22000,22002
201910150154,22002,22002,21995,22001
201910150155,22001,22004,21999,21999
201910150156,22000,22001,22000,22000
201910150157,22000,22000,21997,21998
201910150158,21998,22000,21997,21997
201910150159,21997,22001,21995,22001
201910150200,22001,22001,21996,21998
201910150201,21998,22002,21998,22001
201910150202,22000,22003,22000,22001
201910150203,22001,22002,22001,22001
201910150204,22001,22004,22000,22003
201910150205,22003,22012,22002,22011
201910150206,22011,22012,22010,22011
201910150207,22011,22020,22010,22018
201910150208,22018,22019,22014,22015
201910150209,22015,22017,22012,22012
201910150210,22012,22013,22010,22012
201910150211,22012,22012,22006,22009
201910150212,22009,22011,22007,22008
201910150213,22008,22011,22007,22009
201910150214,22009,22010,22007,22007
201910150215,22007,22012,22007,22011
201910150216,22011,22012,22010,22011
201910150217,22011,22012,22007,22007
201910150218,22007,22007,22005,22005
201910150219,22005,22007,22002,22006
201910150220,22006,22008,22005,22007
201910150221,22007,22007,22004,22006
201910150222,22006,22006,22000,22001
201910150223,22000,22000,21996,21998
201910150224,21997,22001,21996,22001
201910150225,22001,22002,22000,22001
201910150226,22001,22001,21999,22000
201910150227,22000,22003,21998,22002
201910150228,22002,22004,22001,22004
201910150229,22004,22004,22001,22004
201910150230,22004,22004,22001,22001
201910150231,22001,22001,22000,22001
201910150232,22001,22001,21999,22001
201910150233,22002,22002,22001,22002
201910150234,22002,22002,22000,22002
201910150235,22002,22002,21997,21998
201910150236,21998,22002,21995,21996
201910150237,21996,21998,21995,21996
201910150238,21996,22001,21995,21995
201910150239,21996,21999,21995,21999
201910150240,21999,22002,21999,22001
201910150241,22001,22005,21998,22005
201910150242,22005,22008,22004,22008
201910150243,22008,22012,22008,22011
201910150244,22011,22011,22010,22011
201910150245,22011,22012,22008,22009
201910150246,22009,22009,22006,22006
201910150247,22006,22006,22006,22006
201910150248,22006,22006,22005,22006
201910150249,22006,22007,22004,22007
201910150250,22007,22008,22006,22006
201910150251,22006,22006,21991,21995
201910150252,21995,21997,21993,21994
201910150253,21992,22002,21990,22001
201910150254,22001,22010,22001,22005
201910150255,22006,22007,22002,22004
201910150256,22004,22010,22004,22010
201910150257,22010,22011,22007,22007
201910150258,22007,22010,22007,22008
201910150259,22008,22011,22007,22010
201910150300,22010,22021,22010,22011
201910150301,22011,22011,22005,22006
201910150302,22006,22011,22005,22008
201910150303,22008,22011,22005,22009
201910150304,22009,22011,22006,22006
201910150305,22006,22011,22005,22008
201910150306,22008,22012,22008,22011
201910150307,22011,22012,22008,22011
201910150308,22011,22012,22008,22008
201910150309,22008,22010,22008,22010
201910150310,22010,22012,22009,22012
201910150311,22012,22012,22011,22011
201910150312,22011,22012,22010,22010
201910150313,22010,22017,22010,22017
201910150314,22017,22017,22014,22014
201910150315,22014,22017,22014,22016
201910150316,22016,22017,22013,22013
201910150317,22013,22013,22010,22012
201910150318,22012,22017,22012,22016
201910150319,22016,22017,22015,22016
201910150320,22016,22016,22016,22016
201910150321,22016,22016,22014,22014
201910150322,22014,22015,22010,22011
201910150323,22011,22016,22010,22016
201910150324,22016,22017,22012,22014
201910150325,22014,22014,22011,22011
201910150326,22011,22011,22010,22011
201910150327,22011,22011,22011,22011
201910150328,22011,22014,22011,22011
201910150329,22011,22012,22010,22010
201910150330,22010,22011,22010,22011
201910150331,22011,22012,22007,22008
201910150332,22008,22009,22005,22007
201910150333,22007,22009,22005,22009
201910150334,22009,22009,22005,22008
201910150335,22008,22008,22005,22005
201910150336,22005,22007,22001,22002
201910150337,22002,22007,22002,22006
201910150338,22006,22007,22004,22006
201910150339,22006,22007,22001,22002
201910150340,22002,22003,22001,22003
201910150341,22003,22003,22001,22001
201910150342,22001,22003,22000,22001
201910150343,22001,22007,22001,22004
201910150344,22004,22004,22001,22003
201910150345,22003,22004,22001,22003
201910150346,22003,22003,22000,22001
201910150347,22001,22002,22000,22001
201910150348,22001,22001,22000,22000
201910150349,22002,22002,22002,22002
201910150350,22002,22006,22002,22002
201910150351,22002,22002,22001,22001
201910150352,22001,22002,22000,22001
201910150353,22001,22002,21997,21997
201910150354,21997,21998,21996,21997
201910150355,21997,21998,21996,21997
201910150356,21997,22002,21997,22000
201910150357,22000,22001,21997,22001
201910150358,22001,22001,21998,22000
201910150359,22000,22001,21995,21996
201910150400,21996,22000,21996,21998
201910150401,21998,21998,21994,21996
201910150402,21996,21997,21990,21991
201910150403,21991,21992,21986,21991
201910150404,21991,21992,21986,21986
201910150405,21986,21987,21986,21987
201910150406,21987,21987,21986,21987
201910150407,21987,21987,21985,21987
201910150408,21987,21987,21987,21987
201910150409,21987,21987,21987,21987
201910150410,21987,21987,21987,21987
201910150411,21987,21987,21986,21986
201910150412,21986,21987,21985,21987
201910150413,21987,21987,21986,21987
201910150414,21987,21987,21980,21981
201910150415,21981,21983,21981,21983
201910150416,21983,21984,21982,21983
201910150417,21983,21986,21983,21985
201910150418,21985,21992,21985,21992
201910150419,21992,21992,21991,21992
201910150420,21992,21992,21989,21989
201910150421,21989,21992,21987,21991
201910150422,21991,21994,21991,21994
201910150423,21994,21995,21990,21991
201910150424,21990,21995,21990,21992
201910150425,21992,21995,21990,21995
201910150426,21995,21995,21993,21994
201910150427,21993,21997,21993,21996
201910150428,21996,21997,21995,21996
201910150429,21996,21997,21993,21995
201910150430,21995,21996,21990,21991
201910150431,21991,21992,21990,21990
201910150432,21990,21990,21980,21983
201910150433,21983,21986,21980,21986
201910150434,21986,21986,21980,21982
201910150435,21982,21986,21981,21986
201910150436,21986,21986,21983,21986
201910150437,21986,21989,21985,21987
201910150438,21987,21989,21986,21989
201910150439,21989,21993,21986,21987
201910150440,21987,21987,21985,21985
201910150441,21985,21987,21980,21982
201910150442,21982,21984,21980,21982
201910150443,21982,21982,21981,21982
201910150444,21982,21986,21981,21986
201910150445,21986,21987,21981,21981
201910150446,21981,21987,21980,21987
201910150447,21987,21987,21983,21983
201910150448,21983,21987,21983,21985
201910150449,21985,21987,21983,21986
201910150450,21987,21992,21980,21990
201910150451,21990,21992,21985,21985
201910150452,21986,21989,21985,21989
201910150453,21989,21997,21989,21997
201910150454,21997,22001,21994,22000
201910150455,22000,22000,21989,21990
201910150456,21990,21991,21986,21987
201910150457,21987,21991,21984,21989
201910150458,21989,21991,21986,21987
201910150459,21987,21992,21985,21985
201910150500,21985,21991,21985,21986
201910150501,21986,21987,21975,21975
201910150502,21975,21977,21970,21971
201910150503,21971,21977,21971,21977
201910150504,21977,21981,21975,21980
201910150505,21980,21982,21980,21982
201910150506,21982,21992,21982,21992
201910150507,21992,21992,21987,21990
201910150508,21990,21990,21990,21990
201910150509,21990,21991,21990,21990
201910150510,21990,21991,21990,21990
201910150511,21990,21992,21988,21990
201910150512,21990,21991,21988,21991
201910150513,21991,21998,21989,21996
201910150514,21996,21996,21985,21987
201910150515,21987,21987,21986,21987
201910150516,21988,21990,21987,21989
201910150517,21989,21991,21988,21988
201910150518,21988,21988,21988,21988
201910150519,21988,21989,21988,21988
201910150520,21988,21990,21988,21990
201910150521,21990,21990,21990,21990
201910150522,21990,21990,21988,21990
201910150523,21990,21990,21990,21990
201910150524,21991,21991,21991,21991
201910150525,21991,21991,21989,21989
201910150526,21989,21989,21989,21989
201910150527,21989,21991,21989,21991
201910150528,21991,21991,21991,21991
201910150529,21991,21991,21987,21987
201910150530,21987,21992,21986,21990
201910150531,21990,21991,21989,21991
201910150532,21991,21992,21991,21991
201910150533,21991,21992,21989,21989
201910150534,21989,21990,21989,21989
201910150535,21989,21990,21989,21990
201910150536,21990,21991,21986,21988
201910150537,21988,21990,21988,21990
201910150538,21990,21990,21990,21990
201910150539,21990,21992,21989,21992
201910150540,21992,21992,21989,21991
201910150541,21991,21991,21990,21990
201910150542,21990,21991,21989,21991
201910150543,21991,21991,21988,21988
201910150544,21988,21991,21986,21991
201910150545,21991,21991,21985,21985
201910150546,21985,21991,21985,21991
201910150547,21991,21991,21990,21990
201910150548,21990,21990,21990,21990
201910150549,21990,21990,21989,21989
201910150550,21990,21990,21990,21990
201910150551,21990,21991,21990,21991
201910150552,21991,21991,21991,21991
201910150553,21991,21991,21991,21991
201910150554,21991,21993,21990,21993
201910150555,21993,21993,21993,21993
201910150556,21993,21993,21993,21993
201910150557,21993,21995,21993,21993
201910150558,21993,21994,21993,21994
201910150559,21994,21994,21986,21991
