日時,始値(BID),高値(BID),安値(BID),終値(BID)
201904030700,1292.4,1292.4,1292.1,1292.1
201904030701,1292.1,1292.2,1292.1,1292.2
201904030702,1292.2,1292.2,1292.2,1292.2
201904030703,1292.2,1292.2,1292.1,1292.1
201904030704,1292.1,1292.2,1292.1,1292.1
201904030705,1292.1,1292.1,1292.1,1292.1
201904030706,1292.1,1292.1,1292.1,1292.1
201904030707,1292.1,1292.2,1292.1,1292.2
201904030708,1292.2,1292.3,1292.1,1292.1
201904030709,1292.1,1292.1,1292.1,1292.1
201904030710,1292.1,1292.1,1292,1292.1
201904030711,1292.1,1292.1,1292,1292.1
201904030712,1292.1,1292.1,1292,1292
201904030713,1292,1292.2,1292,1292.2
201904030714,1292.2,1292.4,1292.2,1292.3
201904030715,1292.3,1292.4,1292.3,1292.4
201904030716,1292.4,1292.4,1292.2,1292.2
201904030717,1292.2,1292.2,1292.1,1292.2
201904030718,1292.2,1292.2,1292.2,1292.2
201904030719,1292.2,1292.2,1292.1,1292.1
201904030720,1292.1,1292.2,1292.1,1292.2
201904030721,1292.2,1292.2,1292.2,1292.2
201904030722,1292.2,1292.2,1292.1,1292.2
201904030723,1292.2,1292.2,1292.2,1292.2
201904030724,1292.2,1292.2,1292.2,1292.2
201904030725,1292.2,1292.2,1292.2,1292.2
201904030726,1292.2,1292.2,1292.1,1292.2
201904030727,1292.2,1292.2,1292.2,1292.2
201904030728,1292.2,1292.3,1292.2,1292.3
201904030729,1292.3,1292.3,1292.3,1292.3
201904030730,1292.3,1292.3,1292.3,1292.3
201904030731,1292.3,1292.3,1292.3,1292.3
201904030732,1292.3,1292.3,1292.2,1292.3
201904030733,1292.3,1292.3,1292.3,1292.3
201904030734,1292.3,1292.3,1292.3,1292.3
201904030735,1292.3,1292.6,1292.3,1292.5
201904030736,1292.5,1292.6,1292.5,1292.6
201904030737,1292.6,1292.6,1292.5,1292.5
201904030738,1292.5,1292.7,1292.5,1292.6
201904030739,1292.6,1292.7,1292.6,1292.7
201904030740,1292.6,1292.7,1292.6,1292.7
201904030741,1292.7,1292.7,1292.6,1292.7
201904030742,1292.7,1292.7,1292.6,1292.6
201904030743,1292.6,1292.7,1292.3,1292.4
201904030744,1292.4,1292.5,1292.4,1292.5
201904030745,1292.5,1292.5,1292.5,1292.5
201904030746,1292.5,1292.5,1292.5,1292.5
201904030747,1292.5,1292.5,1292.5,1292.5
201904030748,1292.5,1292.5,1292.5,1292.5
201904030749,1292.5,1292.5,1292.4,1292.4
201904030750,1292.4,1292.4,1292.2,1292.3
201904030751,1292.3,1292.3,1292.2,1292.2
201904030752,1292.2,1292.2,1292.2,1292.2
201904030753,1292.2,1292.2,1292.1,1292.2
201904030754,1292.2,1292.2,1292.1,1292.1
201904030755,1292.1,1292.1,1292.1,1292.1
201904030756,1292.1,1292.1,1292.1,1292.1
201904030757,1292.1,1292.1,1292.1,1292.1
201904030758,1292.1,1292.1,1292.1,1292.1
201904030759,1292.1,1292.1,1292.1,1292.1
201904030800,1292.1,1292.1,1292.1,1292.1
201904030801,1292.1,1292.1,1292,1292
201904030802,1292,1292.1,1292,1292.1
201904030803,1292.1,1292.1,1292.1,1292.1
201904030804,1292.1,1292.1,1292,1292.1
201904030805,1292.1,1292.1,1292,1292
201904030806,1292,1292,1291.9,1292
201904030807,1292,1292,1291.8,1291.8
201904030808,1291.8,1291.8,1291.7,1291.8
201904030809,1291.8,1291.8,1291.8,1291.8
201904030810,1291.8,1291.8,1291.6,1291.6
201904030811,1291.6,1291.6,1291.6,1291.6
201904030812,1291.6,1291.6,1291.6,1291.6
201904030813,1291.6,1291.6,1291.6,1291.6
201904030814,1291.6,1291.8,1291.6,1291.8
201904030815,1291.8,1291.8,1291.8,1291.8
201904030816,1291.8,1291.8,1291.8,1291.8
201904030817,1291.8,1291.8,1291.7,1291.7
201904030818,1291.7,1291.8,1291.7,1291.8
201904030819,1291.8,1291.8,1291.8,1291.8
201904030820,1291.8,1291.8,1291.8,1291.8
201904030821,1291.8,1291.8,1291.8,1291.8
201904030822,1291.8,1291.8,1291.8,1291.8
201904030823,1291.8,1291.8,1291.8,1291.8
201904030824,1291.8,1291.8,1291.7,1291.7
201904030825,1291.7,1291.7,1291.7,1291.7
201904030826,1291.7,1291.8,1291.7,1291.8
201904030827,1291.8,1291.8,1291.8,1291.8
201904030828,1291.8,1291.8,1291.8,1291.8
201904030829,1291.8,1291.8,1291.8,1291.8
201904030830,1291.8,1291.8,1291.8,1291.8
201904030831,1291.8,1292,1291.8,1291.9
201904030832,1291.9,1292,1291.9,1292
201904030833,1292,1292,1292,1292
201904030834,1292,1292,1291.9,1291.9
201904030835,1291.9,1291.9,1291.9,1291.9
201904030836,1291.9,1291.9,1291.9,1291.9
201904030837,1291.9,1291.9,1291.7,1291.7
201904030838,1291.8,1291.8,1291.7,1291.7
201904030839,1291.7,1291.7,1291.7,1291.7
201904030840,1291.7,1291.7,1291.7,1291.7
201904030841,1291.7,1291.8,1291.7,1291.8
201904030842,1291.8,1291.9,1291.8,1291.9
201904030843,1291.9,1292.1,1291.9,1292
201904030844,1292,1292.2,1292,1292.2
201904030845,1292.2,1292.3,1292.1,1292.2
201904030846,1292.2,1292.2,1292.1,1292.2
201904030847,1292.2,1292.2,1292,1292
201904030848,1292,1292,1291.9,1291.9
201904030849,1291.9,1291.9,1291.8,1291.8
201904030850,1291.8,1291.9,1291.8,1291.8
201904030851,1291.8,1291.8,1291.8,1291.8
201904030852,1291.8,1291.8,1291.7,1291.8
201904030853,1291.8,1291.8,1291.7,1291.8
201904030854,1291.8,1291.8,1291.7,1291.7
201904030855,1291.7,1291.7,1291.6,1291.7
201904030856,1291.7,1291.7,1291.6,1291.7
201904030857,1291.7,1291.7,1291.7,1291.7
201904030858,1291.7,1291.7,1291.7,1291.7
201904030859,1291.7,1291.7,1291.6,1291.7
201904030900,1291.7,1291.7,1291.5,1291.5
201904030901,1291.5,1291.6,1291.5,1291.5
201904030902,1291.5,1291.5,1291.4,1291.4
201904030903,1291.4,1291.4,1291.2,1291.3
201904030904,1291.3,1291.4,1291.3,1291.4
201904030905,1291.4,1291.4,1291.3,1291.3
201904030906,1291.3,1291.3,1291.2,1291.2
201904030907,1291.2,1291.4,1291.2,1291.2
201904030908,1291.2,1291.2,1291.1,1291.1
201904030909,1291.1,1291.1,1291.1,1291.1
201904030910,1291.1,1291.3,1291.1,1291.3
201904030911,1291.3,1291.3,1291.2,1291.2
201904030912,1291.2,1291.5,1291.2,1291.5
201904030913,1291.5,1291.5,1291.4,1291.4
201904030914,1291.4,1291.5,1291.4,1291.5
201904030915,1291.5,1291.7,1291.5,1291.5
201904030916,1291.5,1291.6,1291.5,1291.5
201904030917,1291.5,1291.6,1291.5,1291.5
201904030918,1291.5,1291.6,1291.5,1291.5
201904030919,1291.5,1291.5,1291.5,1291.5
201904030920,1291.5,1291.6,1291.5,1291.6
201904030921,1291.6,1291.6,1291.5,1291.5
201904030922,1291.5,1291.5,1291.5,1291.5
201904030923,1291.5,1291.5,1291.5,1291.5
201904030924,1291.5,1291.5,1291.5,1291.5
201904030925,1291.5,1291.5,1291.5,1291.5
201904030926,1291.5,1291.5,1291.5,1291.5
201904030927,1291.5,1291.5,1291.5,1291.5
201904030928,1291.5,1291.5,1291.5,1291.5
201904030929,1291.5,1291.5,1291.2,1291.2
201904030930,1291.2,1291.6,1291.2,1291.5
201904030931,1291.5,1291.9,1291.5,1291.9
201904030932,1291.9,1292,1291.8,1292
201904030933,1292,1292,1291.9,1291.9
201904030934,1291.9,1291.9,1291.6,1291.7
201904030935,1291.7,1291.7,1291.6,1291.6
201904030936,1291.6,1291.8,1291.6,1291.8
201904030937,1291.8,1291.9,1291.8,1291.9
201904030938,1291.9,1291.9,1291.7,1291.7
201904030939,1291.7,1291.8,1291.7,1291.8
201904030940,1291.8,1292,1291.8,1292
201904030941,1292,1292.1,1291.9,1291.9
201904030942,1291.9,1291.9,1291.2,1291.2
201904030943,1291.2,1291.2,1290.7,1290.8
201904030944,1290.7,1290.8,1290.7,1290.8
201904030945,1290.8,1291,1290.7,1290.7
201904030946,1290.7,1290.7,1290.3,1290.3
201904030947,1290.2,1290.3,1290.1,1290.2
201904030948,1290.2,1290.3,1290.1,1290.1
201904030949,1290.1,1290.3,1290.1,1290.3
201904030950,1290.3,1290.4,1290.3,1290.3
201904030951,1290.3,1290.6,1290.3,1290.3
201904030952,1290.3,1290.7,1290.3,1290.6
201904030953,1290.6,1290.8,1290.5,1290.7
201904030954,1290.7,1290.9,1290.6,1290.8
201904030955,1290.8,1291.2,1290.8,1291.1
201904030956,1291.1,1291.2,1291,1291
201904030957,1291.1,1291.3,1291,1291.2
201904030958,1291.2,1291.2,1291,1291.1
201904030959,1291.2,1291.3,1291.1,1291.3
201904031000,1291.3,1291.3,1290.9,1291.1
201904031001,1291.1,1291.5,1291,1291.5
201904031002,1291.5,1291.5,1291.3,1291.3
201904031003,1291.4,1291.8,1291.4,1291.8
201904031004,1291.8,1291.8,1291.8,1291.8
201904031005,1291.8,1291.9,1291.6,1291.6
201904031006,1291.6,1291.7,1291.6,1291.7
201904031007,1291.7,1291.7,1291.4,1291.4
201904031008,1291.4,1291.8,1291.4,1291.8
201904031009,1291.8,1291.8,1291.7,1291.8
201904031010,1291.8,1291.9,1291.8,1291.9
201904031011,1291.9,1291.9,1291.8,1291.8
201904031012,1291.8,1291.9,1291.8,1291.9
201904031013,1291.9,1292.2,1291.9,1292.2
201904031014,1292.2,1292.2,1292,1292
201904031015,1292,1292.1,1292,1292
201904031016,1292,1292.3,1291.9,1292.3
201904031017,1292.3,1292.3,1292,1292
201904031018,1292,1292.1,1292,1292
201904031019,1292,1292,1291.9,1291.9
201904031020,1291.9,1292.1,1291.9,1292.1
201904031021,1292.1,1292.3,1292.1,1292.2
201904031022,1292.2,1292.2,1292.1,1292.1
201904031023,1292.1,1292.2,1292.1,1292.1
201904031024,1292.1,1292.3,1292,1292.3
201904031025,1292.3,1292.3,1292.2,1292.3
201904031026,1292.3,1292.3,1292.2,1292.2
201904031027,1292.2,1292.3,1292,1292
201904031028,1292,1292.1,1292,1292.1
201904031029,1292.1,1292.2,1292.1,1292.1
201904031030,1292.1,1292.2,1292.1,1292.2
201904031031,1292.2,1292.5,1292.2,1292.5
201904031032,1292.5,1292.5,1292.3,1292.4
201904031033,1292.4,1292.5,1292.4,1292.4
201904031034,1292.4,1292.4,1292.1,1292.2
201904031035,1292.2,1292.2,1292.1,1292.1
201904031036,1292.1,1292.1,1291.9,1292.1
201904031037,1292,1292.2,1292,1292.2
201904031038,1292.2,1292.2,1292,1292
201904031039,1292,1292.1,1292,1292
201904031040,1292,1292,1291.9,1291.9
201904031041,1291.9,1292.1,1291.9,1292
201904031042,1291.9,1292.1,1291.8,1291.8
201904031043,1291.8,1291.9,1291.8,1291.8
201904031044,1291.8,1291.9,1291.7,1291.7
201904031045,1291.7,1292,1291.7,1291.9
201904031046,1291.9,1292,1291.9,1292
201904031047,1292,1292,1292,1292
201904031048,1292,1292.3,1292,1292.2
201904031049,1292.3,1292.6,1292.2,1292.6
201904031050,1292.6,1292.6,1292.5,1292.5
201904031051,1292.5,1292.9,1292.5,1292.8
201904031052,1292.8,1293.1,1292.8,1292.9
201904031053,1292.9,1292.9,1292.8,1292.8
201904031054,1292.8,1292.9,1292.7,1292.8
201904031055,1292.8,1292.8,1292.7,1292.8
201904031056,1292.8,1292.8,1292.7,1292.7
201904031057,1292.9,1293.1,1292.9,1293.1
201904031058,1293.1,1293.2,1293.1,1293.1
201904031059,1293.1,1293.1,1292.9,1292.9
201904031100,1292.9,1292.9,1292.7,1292.7
201904031101,1292.7,1292.8,1292.6,1292.7
201904031102,1292.6,1292.6,1292.6,1292.6
201904031103,1292.6,1292.6,1292.6,1292.6
201904031104,1292.6,1292.7,1292.6,1292.7
201904031105,1292.7,1292.8,1292.6,1292.8
201904031106,1292.8,1292.9,1292.8,1292.9
201904031107,1292.9,1292.9,1292.8,1292.9
201904031108,1292.9,1292.9,1292.7,1292.7
201904031109,1292.8,1292.8,1292.7,1292.8
201904031110,1292.8,1292.8,1292.6,1292.6
201904031111,1292.6,1292.6,1292.4,1292.5
201904031112,1292.5,1292.6,1292.4,1292.4
201904031113,1292.4,1292.4,1292.1,1292.2
201904031114,1292.2,1292.3,1292.2,1292.3
201904031115,1292.3,1292.7,1292.3,1292.7
201904031116,1292.7,1292.8,1292.7,1292.7
201904031117,1292.7,1292.7,1292.6,1292.6
201904031118,1292.6,1292.6,1292.5,1292.5
201904031119,1292.5,1292.5,1292.5,1292.5
201904031120,1292.5,1292.5,1292.4,1292.4
201904031121,1292.4,1292.4,1292.4,1292.4
201904031122,1292.4,1292.4,1292.2,1292.2
201904031123,1292.2,1292.2,1292,1292.1
201904031124,1292.1,1292.1,1292.1,1292.1
201904031125,1292.1,1292.1,1292.1,1292.1
201904031126,1292.1,1292.1,1292.1,1292.1
201904031127,1292,1292.1,1292,1292
201904031128,1292,1292.1,1291.9,1291.9
201904031129,1291.9,1292,1291.9,1291.9
201904031130,1291.9,1292,1291.9,1292
201904031131,1292,1292,1291.9,1291.9
201904031132,1291.9,1292,1291.9,1291.9
201904031133,1291.9,1291.9,1291.8,1291.8
201904031134,1291.8,1291.8,1291.7,1291.7
201904031135,1291.7,1291.7,1291.7,1291.7
201904031136,1291.7,1291.7,1291.6,1291.6
201904031137,1291.6,1291.7,1291.6,1291.7
201904031138,1291.7,1291.9,1291.7,1291.9
201904031139,1291.9,1292,1291.9,1291.9
201904031140,1291.9,1292,1291.8,1291.8
201904031141,1291.8,1291.9,1291.8,1291.9
201904031142,1291.9,1291.9,1291.9,1291.9
201904031143,1291.9,1291.9,1291.9,1291.9
201904031144,1291.9,1291.9,1291.8,1291.8
201904031145,1291.8,1291.8,1291.8,1291.8
201904031146,1291.8,1291.8,1291.8,1291.8
201904031147,1291.8,1292,1291.8,1292
201904031148,1292,1292.1,1292,1292
201904031149,1292,1292.1,1292,1292
201904031150,1292,1292.1,1292,1292.1
201904031151,1292.1,1292.1,1292,1292
201904031152,1292,1292.1,1292,1292.1
201904031153,1292.1,1292.1,1292.1,1292.1
201904031154,1292.1,1292.2,1292.1,1292.2
201904031155,1292.2,1292.3,1292,1292
201904031156,1292,1292.1,1292,1292.1
201904031157,1292.1,1292.1,1292,1292.1
201904031158,1292.1,1292.2,1292.1,1292.2
201904031159,1292.2,1292.3,1292.2,1292.3
201904031200,1292.3,1292.4,1292.3,1292.3
201904031201,1292.3,1292.3,1292.3,1292.3
201904031202,1292.3,1292.3,1292.3,1292.3
201904031203,1292.3,1292.3,1292.3,1292.3
201904031204,1292.3,1292.3,1292.3,1292.3
201904031205,1292.3,1292.4,1292.3,1292.3
201904031206,1292.3,1292.3,1292.3,1292.3
201904031207,1292.3,1292.3,1292.2,1292.2
201904031208,1292.2,1292.3,1292.1,1292.1
201904031209,1292.1,1292.3,1292.1,1292.3
201904031210,1292.3,1292.4,1292.3,1292.3
201904031211,1292.3,1292.5,1292.3,1292.5
201904031212,1292.5,1292.6,1292.5,1292.6
201904031213,1292.6,1292.6,1292.5,1292.5
201904031214,1292.5,1292.5,1292.5,1292.5
201904031215,1292.5,1292.6,1292.5,1292.6
201904031216,1292.6,1292.7,1292.5,1292.7
201904031217,1292.7,1292.7,1292.6,1292.6
201904031218,1292.6,1292.6,1292.6,1292.6
201904031219,1292.6,1292.6,1292.6,1292.6
201904031220,1292.6,1292.6,1292.6,1292.6
201904031221,1292.6,1292.6,1292.6,1292.6
201904031222,1292.6,1292.6,1292.6,1292.6
201904031223,1292.6,1292.7,1292.6,1292.7
201904031224,1292.7,1292.7,1292.7,1292.7
201904031225,1292.7,1292.8,1292.7,1292.8
201904031226,1292.8,1292.8,1292.7,1292.8
201904031227,1292.8,1292.8,1292.8,1292.8
201904031228,1292.8,1292.8,1292.8,1292.8
201904031229,1292.8,1292.8,1292.8,1292.8
201904031230,1292.8,1292.9,1292.8,1292.9
201904031231,1292.9,1292.9,1292.9,1292.9
201904031232,1292.9,1292.9,1292.8,1292.8
201904031233,1292.8,1292.8,1292.7,1292.7
201904031234,1292.7,1292.7,1292.6,1292.6
201904031235,1292.6,1292.6,1292.6,1292.6
201904031236,1292.6,1292.6,1292.5,1292.5
201904031237,1292.5,1292.5,1292.3,1292.4
201904031238,1292.4,1292.5,1292.3,1292.4
201904031239,1292.4,1292.4,1292.4,1292.4
201904031240,1292.4,1292.6,1292.4,1292.6
201904031241,1292.6,1292.6,1292.6,1292.6
201904031242,1292.6,1292.6,1292.4,1292.5
201904031243,1292.5,1292.5,1292.4,1292.4
201904031244,1292.4,1292.4,1292.3,1292.3
201904031245,1292.3,1292.3,1292.3,1292.3
201904031246,1292.3,1292.3,1292.3,1292.3
201904031247,1292.3,1292.3,1292.3,1292.3
201904031248,1292.3,1292.3,1292.3,1292.3
201904031249,1292.3,1292.3,1292.3,1292.3
201904031250,1292.3,1292.4,1292.3,1292.4
201904031251,1292.4,1292.4,1292.4,1292.4
201904031252,1292.4,1292.4,1292.4,1292.4
201904031253,1292.4,1292.4,1292.4,1292.4
201904031254,1292.4,1292.4,1292.4,1292.4
201904031255,1292.4,1292.5,1292.4,1292.5
201904031256,1292.5,1292.5,1292.4,1292.5
201904031257,1292.5,1292.5,1292.5,1292.5
201904031258,1292.5,1292.5,1292.5,1292.5
201904031259,1292.5,1292.5,1292.5,1292.5
201904031300,1292.5,1292.5,1292.4,1292.4
201904031301,1292.4,1292.4,1292.4,1292.4
201904031302,1292.4,1292.4,1292.4,1292.4
201904031303,1292.4,1292.4,1292.4,1292.4
201904031304,1292.4,1292.4,1292.4,1292.4
201904031305,1292.4,1292.4,1292.4,1292.4
201904031306,1292.4,1292.4,1292.3,1292.3
201904031307,1292.3,1292.3,1292.3,1292.3
201904031308,1292.3,1292.3,1292.2,1292.2
201904031309,1292.2,1292.2,1292.2,1292.2
201904031310,1292.2,1292.2,1292.2,1292.2
201904031311,1292.2,1292.2,1292.2,1292.2
201904031312,1292.2,1292.2,1292.2,1292.2
201904031313,1292.2,1292.3,1292.2,1292.3
201904031314,1292.3,1292.3,1292.2,1292.2
201904031315,1292.2,1292.3,1292.2,1292.2
201904031316,1292.2,1292.2,1292.2,1292.2
201904031317,1292.2,1292.3,1292.2,1292.3
201904031318,1292.3,1292.4,1292.3,1292.4
201904031319,1292.4,1292.4,1292.3,1292.3
201904031320,1292.3,1292.3,1292.3,1292.3
201904031321,1292.3,1292.3,1292.3,1292.3
201904031322,1292.3,1292.3,1292.2,1292.2
201904031323,1292.2,1292.2,1292.1,1292.1
201904031324,1292.1,1292.1,1292,1292.1
201904031325,1292.1,1292.3,1292.1,1292.3
201904031326,1292.3,1292.3,1292.3,1292.3
201904031327,1292.3,1292.4,1292.3,1292.4
201904031328,1292.4,1292.5,1292.4,1292.5
201904031329,1292.5,1292.5,1292.3,1292.3
201904031330,1292.3,1292.3,1292.2,1292.2
201904031331,1292.2,1292.3,1292.2,1292.3
201904031332,1292.3,1292.3,1292.3,1292.3
201904031333,1292.3,1292.4,1292.3,1292.4
201904031334,1292.4,1292.4,1292.4,1292.4
201904031335,1292.4,1292.6,1292.4,1292.6
201904031336,1292.6,1292.7,1292.6,1292.7
201904031337,1292.7,1292.8,1292.7,1292.8
201904031338,1292.8,1292.9,1292.8,1292.8
201904031339,1292.8,1292.8,1292.8,1292.8
201904031340,1292.8,1292.8,1292.8,1292.8
201904031341,1292.8,1292.8,1292.7,1292.8
201904031342,1292.8,1292.8,1292.8,1292.8
201904031343,1292.8,1292.8,1292.7,1292.7
201904031344,1292.7,1292.7,1292.7,1292.7
201904031345,1292.7,1292.9,1292.7,1292.8
201904031346,1292.9,1292.9,1292.8,1292.8
201904031347,1292.8,1292.8,1292.8,1292.8
201904031348,1292.8,1292.8,1292.8,1292.8
201904031349,1292.8,1292.8,1292.8,1292.8
201904031350,1292.8,1292.9,1292.8,1292.9
201904031351,1292.9,1293,1292.9,1293
201904031352,1293,1293,1293,1293
201904031353,1293,1293,1293,1293
201904031354,1293,1293,1292.9,1292.9
201904031355,1292.9,1292.9,1292.8,1292.8
201904031356,1292.8,1292.9,1292.8,1292.8
201904031357,1292.8,1292.9,1292.8,1292.8
201904031358,1292.8,1292.9,1292.8,1292.9
201904031359,1292.9,1293,1292.9,1293
201904031400,1293,1293,1292.9,1292.9
201904031401,1292.9,1293,1292.9,1292.9
201904031402,1292.9,1292.9,1292.9,1292.9
201904031403,1292.9,1292.9,1292.8,1292.9
201904031404,1292.9,1292.9,1292.8,1292.8
201904031405,1292.8,1292.9,1292.8,1292.9
201904031406,1292.9,1292.9,1292.8,1292.9
201904031407,1292.9,1292.9,1292.9,1292.9
201904031408,1292.9,1292.9,1292.9,1292.9
201904031409,1292.9,1293,1292.9,1293
201904031410,1293,1293,1293,1293
201904031411,1293,1293.1,1293,1293
201904031412,1293,1293,1293,1293
201904031413,1293,1293,1293,1293
201904031414,1293,1293,1293,1293
201904031415,1293,1293,1292.9,1292.9
201904031416,1292.9,1292.9,1292.9,1292.9
201904031417,1292.9,1292.9,1292.8,1292.8
201904031418,1292.8,1292.9,1292.8,1292.9
201904031419,1292.9,1292.9,1292.8,1292.8
201904031420,1292.8,1292.9,1292.8,1292.9
201904031421,1292.9,1292.9,1292.9,1292.9
201904031422,1292.9,1293,1292.9,1293
201904031423,1293,1293,1293,1293
201904031424,1293,1293.1,1293,1293.1
201904031425,1293.1,1293.1,1293,1293.1
201904031426,1293.1,1293.1,1293.1,1293.1
201904031427,1293.1,1293.1,1293.1,1293.1
201904031428,1293.1,1293.2,1293.1,1293.2
201904031429,1293.2,1293.4,1293.2,1293.4
201904031430,1293.4,1293.4,1293.3,1293.4
201904031431,1293.4,1293.6,1293.4,1293.6
201904031432,1293.6,1293.6,1293.5,1293.5
201904031433,1293.5,1293.5,1293.4,1293.4
201904031434,1293.4,1293.4,1293.2,1293.3
201904031435,1293.3,1293.4,1293.2,1293.3
201904031436,1293.3,1293.4,1293.3,1293.4
201904031437,1293.4,1293.4,1293.3,1293.3
201904031438,1293.3,1293.3,1293.2,1293.3
201904031439,1293.3,1293.3,1293.3,1293.3
201904031440,1293.3,1293.3,1293.3,1293.3
201904031441,1293.3,1293.4,1293.3,1293.4
201904031442,1293.4,1293.4,1293.2,1293.2
201904031443,1293.2,1293.3,1293.2,1293.3
201904031444,1293.3,1293.4,1293.3,1293.3
201904031445,1293.3,1293.3,1293.2,1293.3
201904031446,1293.2,1293.2,1293.1,1293.1
201904031447,1293.1,1293.1,1293.1,1293.1
201904031448,1293.1,1293.3,1293.1,1293.3
201904031449,1293.3,1293.3,1293.2,1293.2
201904031450,1293.2,1293.3,1293.1,1293.1
201904031451,1293.1,1293.2,1293.1,1293.1
201904031452,1293.1,1293.1,1292.9,1293
201904031453,1293,1293,1292.9,1293
201904031454,1293,1293,1292.8,1292.9
201904031455,1292.9,1292.9,1292.7,1292.7
201904031456,1292.7,1292.8,1292.7,1292.8
201904031457,1292.8,1292.9,1292.8,1292.8
201904031458,1292.8,1293,1292.8,1293
201904031459,1293,1293.1,1293,1293.1
201904031500,1293.1,1293.1,1292.8,1293.1
201904031501,1293.1,1293.2,1293.1,1293.2
201904031502,1293.2,1293.4,1293.2,1293.4
201904031503,1293.4,1293.4,1293.2,1293.4
201904031504,1293.4,1293.5,1293.3,1293.3
201904031505,1293.4,1293.4,1293.3,1293.3
201904031506,1293.3,1293.3,1293.1,1293.1
201904031507,1293.1,1293.1,1292.8,1292.8
201904031508,1292.8,1292.9,1292.8,1292.8
201904031509,1292.8,1292.9,1292.8,1292.8
201904031510,1292.8,1292.9,1292.8,1292.9
201904031511,1292.9,1293.1,1292.9,1292.9
201904031512,1292.9,1293,1292.9,1293
201904031513,1293,1293,1292.9,1293
201904031514,1293,1293.1,1293,1293
201904031515,1293,1293.1,1292.9,1292.9
201904031516,1292.9,1293.1,1292.8,1293.1
201904031517,1293.1,1293.1,1292.8,1292.9
201904031518,1292.9,1292.9,1292.7,1292.8
201904031519,1292.8,1292.8,1292.7,1292.7
201904031520,1292.7,1292.8,1292.7,1292.8
201904031521,1292.8,1292.9,1292.5,1292.5
201904031522,1292.5,1292.6,1292.5,1292.6
201904031523,1292.6,1292.6,1292.4,1292.4
201904031524,1292.4,1292.5,1292.3,1292.4
201904031525,1292.4,1292.7,1292.4,1292.7
201904031526,1292.7,1292.7,1292.6,1292.7
201904031527,1292.7,1292.7,1292.6,1292.6
201904031528,1292.6,1292.6,1292.3,1292.3
201904031529,1292.3,1292.4,1292.2,1292.3
201904031530,1292.3,1292.5,1292.2,1292.3
201904031531,1292.3,1292.4,1292.3,1292.4
201904031532,1292.4,1292.5,1292.4,1292.5
201904031533,1292.5,1292.6,1292.4,1292.4
201904031534,1292.4,1292.5,1292.4,1292.5
201904031535,1292.5,1292.7,1292.5,1292.7
201904031536,1292.7,1293.1,1292.7,1293.1
201904031537,1293.1,1293.2,1293,1293.1
201904031538,1293.1,1293.1,1293,1293.1
201904031539,1293.1,1293.2,1293.1,1293.2
201904031540,1293.2,1293.3,1293.2,1293.2
201904031541,1293.2,1293.2,1293,1293
201904031542,1293,1293.1,1292.9,1293.1
201904031543,1293.1,1293.3,1293.1,1293.3
201904031544,1293.3,1293.4,1293.1,1293.1
201904031545,1293.1,1293.3,1293.1,1293.2
201904031546,1293.2,1293.3,1293.2,1293.3
201904031547,1293.3,1293.3,1293.2,1293.2
201904031548,1293.2,1293.2,1293,1293.1
201904031549,1293,1293,1292.8,1292.8
201904031550,1292.8,1292.9,1292.8,1292.8
201904031551,1292.8,1292.9,1292.7,1292.8
201904031552,1292.9,1293,1292.6,1292.6
201904031553,1292.6,1292.7,1292.6,1292.6
201904031554,1292.6,1292.7,1292.4,1292.5
201904031555,1292.5,1292.5,1292.2,1292.3
201904031556,1292.3,1292.3,1291.8,1291.9
201904031557,1291.9,1292,1291.8,1292
201904031558,1292,1292.2,1292,1292
201904031559,1292,1292.4,1292,1292.3
201904031600,1292.3,1292.3,1291.9,1292.2
201904031601,1292.2,1292.6,1292.2,1292.5
201904031602,1292.5,1292.5,1292.1,1292.1
201904031603,1292.1,1292.1,1291.5,1291.6
201904031604,1291.6,1291.9,1291.6,1291.9
201904031605,1291.9,1291.9,1291.6,1291.6
201904031606,1291.6,1291.6,1291.3,1291.4
201904031607,1291.4,1291.4,1291.2,1291.2
201904031608,1291.2,1291.3,1291.2,1291.3
201904031609,1291.3,1291.7,1291.3,1291.6
201904031610,1291.6,1291.6,1291.5,1291.5
201904031611,1291.5,1291.6,1291.4,1291.4
201904031612,1291.4,1291.5,1291.1,1291.1
201904031613,1291.1,1291.2,1291,1291
201904031614,1291,1291,1290.7,1290.8
201904031615,1290.8,1290.8,1290.4,1290.7
201904031616,1290.7,1290.9,1290.7,1290.9
201904031617,1290.9,1291,1290.9,1290.9
201904031618,1290.9,1291,1290.7,1290.8
201904031619,1290.8,1291,1290.8,1291
201904031620,1291,1291.2,1290.9,1291.1
201904031621,1291.1,1291.3,1291.1,1291.3
201904031622,1291.3,1291.5,1291.3,1291.4
201904031623,1291.4,1291.4,1291,1291
201904031624,1291,1291.2,1290.9,1291.1
201904031625,1291.1,1291.2,1290.9,1291.1
201904031626,1291.1,1291.1,1291,1291.1
201904031627,1291.1,1291.1,1290.9,1291
201904031628,1291,1291.1,1290.9,1291.1
201904031629,1291.1,1291.1,1290.8,1290.9
201904031630,1290.9,1290.9,1290.7,1290.7
201904031631,1290.7,1291.2,1290.7,1291.1
201904031632,1291.1,1291.1,1290.9,1291
201904031633,1291,1291.1,1290.9,1291.1
201904031634,1291.1,1291.1,1291,1291.1
201904031635,1291.1,1291.1,1290.7,1290.8
201904031636,1290.8,1290.8,1290.6,1290.6
201904031637,1290.6,1290.6,1290.6,1290.6
201904031638,1290.6,1291,1290.6,1290.9
201904031639,1290.9,1291.1,1290.9,1291
201904031640,1291,1291.4,1291,1291.4
201904031641,1291.4,1291.4,1291.1,1291.2
201904031642,1291.2,1291.2,1291,1291.1
201904031643,1291.1,1291.1,1291,1291
201904031644,1291,1291.2,1290.9,1291.2
201904031645,1291.2,1291.2,1290.8,1290.8
201904031646,1290.8,1291.1,1290.8,1291.1
201904031647,1291.1,1291.3,1291.1,1291.3
201904031648,1291.3,1291.4,1291.1,1291.4
201904031649,1291.4,1291.4,1291.3,1291.3
201904031650,1291.3,1291.4,1291.1,1291.2
201904031651,1291.2,1291.2,1291,1291.1
201904031652,1291.1,1291.1,1291,1291
201904031653,1291,1291.1,1290.9,1290.9
201904031654,1290.9,1290.9,1290.7,1290.8
201904031655,1290.8,1291.2,1290.8,1291.1
201904031656,1291.1,1291.2,1291.1,1291.2
201904031657,1291.2,1291.2,1291.1,1291.2
201904031658,1291.2,1291.2,1291.1,1291.1
201904031659,1291.1,1291.4,1291.1,1291.4
201904031700,1291.4,1291.4,1291.3,1291.3
201904031701,1291.3,1291.4,1291.2,1291.2
201904031702,1291.2,1291.9,1291.2,1291.8
201904031703,1291.8,1291.9,1291.7,1291.8
201904031704,1291.8,1291.8,1291.7,1291.8
201904031705,1291.8,1291.9,1291.7,1291.7
201904031706,1291.7,1291.7,1291.4,1291.5
201904031707,1291.5,1291.8,1291.5,1291.8
201904031708,1291.8,1291.8,1291.5,1291.5
201904031709,1291.5,1291.6,1291.3,1291.4
201904031710,1291.4,1291.4,1291.1,1291.3
201904031711,1291.3,1291.3,1291.2,1291.3
201904031712,1291.3,1291.5,1291.3,1291.5
201904031713,1291.5,1291.5,1291.4,1291.4
201904031714,1291.4,1291.6,1291.4,1291.5
201904031715,1291.5,1291.6,1291.5,1291.6
201904031716,1291.6,1292,1291.6,1292
201904031717,1292,1292,1291.9,1291.9
201904031718,1291.9,1292,1291.8,1291.9
201904031719,1292,1292,1291.9,1292
201904031720,1292,1292,1292,1292
201904031721,1292,1292.1,1292,1292
201904031722,1292,1292,1291.8,1291.8
201904031723,1291.8,1291.8,1291.6,1291.7
201904031724,1291.7,1291.8,1291.6,1291.8
201904031725,1291.8,1291.8,1291.7,1291.7
201904031726,1291.7,1291.7,1291.6,1291.6
201904031727,1291.6,1291.7,1291.6,1291.7
201904031728,1291.7,1291.7,1291.6,1291.6
201904031729,1291.6,1291.6,1291.4,1291.5
201904031730,1291.5,1291.6,1291.5,1291.6
201904031731,1291.6,1291.6,1291.1,1291.3
201904031732,1291.3,1291.4,1291.3,1291.4
201904031733,1291.4,1291.6,1291.4,1291.6
201904031734,1291.6,1291.6,1291.5,1291.5
201904031735,1291.5,1291.5,1291.5,1291.5
201904031736,1291.5,1291.6,1291.5,1291.6
201904031737,1291.6,1291.8,1291.5,1291.8
201904031738,1291.8,1291.9,1291.8,1291.9
201904031739,1291.9,1291.9,1291.8,1291.9
201904031740,1291.9,1291.9,1291.7,1291.8
201904031741,1291.8,1291.8,1291.7,1291.8
201904031742,1291.8,1291.8,1291.7,1291.8
201904031743,1291.8,1291.8,1291.8,1291.8
201904031744,1291.8,1291.9,1291.8,1291.9
201904031745,1291.9,1292,1291.7,1291.9
201904031746,1291.9,1292,1291.8,1292
201904031747,1292,1292.1,1292,1292.1
201904031748,1292.2,1292.4,1292.2,1292.4
201904031749,1292.4,1292.4,1292.2,1292.2
201904031750,1292.2,1292.2,1292,1292.1
201904031751,1292.1,1292.1,1292.1,1292.1
201904031752,1292.1,1292.3,1292.1,1292.3
201904031753,1292.3,1292.3,1292.3,1292.3
201904031754,1292.3,1292.3,1292.2,1292.2
201904031755,1292.2,1292.2,1292.1,1292.2
201904031756,1292.2,1292.2,1292.1,1292.1
201904031757,1292.1,1292.2,1292.1,1292.2
201904031758,1292.2,1292.3,1292.1,1292.3
201904031759,1292.3,1292.3,1292.2,1292.3
201904031800,1292.3,1292.5,1292.3,1292.4
201904031801,1292.4,1292.6,1292.4,1292.6
201904031802,1292.6,1292.7,1292.4,1292.4
201904031803,1292.4,1292.4,1292.1,1292.4
201904031804,1292.4,1292.4,1292.3,1292.3
201904031805,1292.3,1292.3,1292.2,1292.2
201904031806,1292.2,1292.2,1292.1,1292.1
201904031807,1292.1,1292.2,1292.1,1292.2
201904031808,1292.2,1292.2,1292,1292
201904031809,1292,1292.1,1291.9,1292.1
201904031810,1292.1,1292.2,1292.1,1292.1
201904031811,1292.1,1292.2,1292.1,1292.1
201904031812,1292.1,1292.2,1292.1,1292.2
201904031813,1292.2,1292.4,1292.1,1292.3
201904031814,1292.3,1292.4,1292.3,1292.4
201904031815,1292.4,1292.4,1292.3,1292.3
201904031816,1292.3,1292.3,1292.1,1292.2
201904031817,1292.2,1292.2,1292.1,1292.2
201904031818,1292.2,1292.4,1292.1,1292.4
201904031819,1292.4,1292.4,1292.2,1292.2
201904031820,1292.2,1292.2,1292.1,1292.2
201904031821,1292.2,1292.4,1292.1,1292.4
201904031822,1292.4,1292.4,1292.3,1292.3
201904031823,1292.3,1292.4,1292.3,1292.3
201904031824,1292.3,1292.3,1292.2,1292.2
201904031825,1292.2,1292.4,1292.2,1292.3
201904031826,1292.3,1292.4,1292.3,1292.3
201904031827,1292.3,1292.3,1292.3,1292.3
201904031828,1292.3,1292.3,1292,1292.1
201904031829,1292.1,1292.2,1292.1,1292.1
201904031830,1292.1,1292.1,1291.6,1291.8
201904031831,1291.8,1292,1291.8,1291.9
201904031832,1291.9,1291.9,1291.8,1291.9
201904031833,1291.9,1292.1,1291.8,1292
201904031834,1292,1292.1,1292,1292
201904031835,1292,1292.1,1292,1292.1
201904031836,1292.1,1292.1,1292,1292.1
201904031837,1292.1,1292.2,1292.1,1292.2
201904031838,1292.2,1292.3,1292.2,1292.2
201904031839,1292.2,1292.3,1292.2,1292.2
201904031840,1292.2,1292.3,1292.2,1292.3
201904031841,1292.3,1292.3,1292.2,1292.2
201904031842,1292.2,1292.3,1292.1,1292.1
201904031843,1292.1,1292.1,1292,1292.1
201904031844,1292.1,1292.2,1292,1292.1
201904031845,1292.1,1292.2,1292.1,1292.1
201904031846,1292.1,1292.2,1292.1,1292.2
201904031847,1292.2,1292.3,1292.2,1292.2
201904031848,1292.2,1292.3,1292.2,1292.2
201904031849,1292.2,1292.4,1292.2,1292.3
201904031850,1292.3,1292.3,1292.1,1292.1
201904031851,1292.1,1292.2,1292,1292
201904031852,1292,1292.4,1292,1292.2
201904031853,1292.2,1292.2,1292.1,1292.2
201904031854,1292.2,1292.2,1292.1,1292.1
201904031855,1292.1,1292.1,1291.9,1291.9
201904031856,1291.9,1291.9,1291.6,1291.6
201904031857,1291.6,1291.8,1291.6,1291.7
201904031858,1291.7,1291.8,1291.7,1291.8
201904031859,1291.8,1291.8,1291.7,1291.8
201904031900,1291.8,1291.8,1291.7,1291.8
201904031901,1291.8,1291.8,1291.7,1291.7
201904031902,1291.7,1291.8,1291.7,1291.8
201904031903,1291.8,1292,1291.8,1292
201904031904,1292,1292.1,1291.9,1292
201904031905,1292.1,1292.1,1291.8,1291.8
201904031906,1291.8,1291.8,1291.7,1291.7
201904031907,1291.7,1291.8,1291.7,1291.8
201904031908,1291.8,1291.8,1291.7,1291.7
201904031909,1291.7,1291.7,1291.7,1291.7
201904031910,1291.7,1291.7,1291.5,1291.5
201904031911,1291.5,1291.5,1291.5,1291.5
201904031912,1291.5,1291.8,1291.5,1291.8
201904031913,1291.8,1291.8,1291.7,1291.7
201904031914,1291.7,1291.8,1291.7,1291.8
201904031915,1291.8,1291.9,1291.7,1291.8
201904031916,1291.8,1291.9,1291.8,1291.9
201904031917,1291.8,1292.3,1291.8,1292.3
201904031918,1292.3,1292.3,1292.2,1292.2
201904031919,1292.2,1292.3,1292.2,1292.2
201904031920,1292.2,1292.3,1292.2,1292.2
201904031921,1292.2,1292.3,1292.2,1292.2
201904031922,1292.2,1292.3,1292.1,1292.2
201904031923,1292.2,1292.3,1292.2,1292.3
201904031924,1292.3,1292.3,1292.2,1292.3
201904031925,1292.3,1292.4,1292.3,1292.3
201904031926,1292.3,1292.4,1292.3,1292.4
201904031927,1292.4,1292.4,1292.4,1292.4
201904031928,1292.4,1292.5,1292.4,1292.5
201904031929,1292.5,1292.7,1292.5,1292.7
201904031930,1292.7,1292.9,1292.7,1292.8
201904031931,1292.8,1292.8,1292.8,1292.8
201904031932,1292.8,1293,1292.8,1293
201904031933,1293,1293,1292.9,1292.9
201904031934,1292.9,1293,1292.8,1292.8
201904031935,1292.8,1292.8,1292.7,1292.8
201904031936,1292.8,1292.9,1292.8,1292.8
201904031937,1292.8,1292.8,1292.8,1292.8
201904031938,1292.8,1292.9,1292.8,1292.8
201904031939,1292.8,1292.8,1292.7,1292.8
201904031940,1292.7,1292.7,1292.6,1292.6
201904031941,1292.6,1292.6,1292.6,1292.6
201904031942,1292.6,1292.6,1292.5,1292.6
201904031943,1292.6,1292.6,1292.5,1292.6
201904031944,1292.6,1292.6,1292.5,1292.6
201904031945,1292.6,1292.9,1292.6,1292.9
201904031946,1292.9,1292.9,1292.8,1292.9
201904031947,1292.9,1292.9,1292.8,1292.8
201904031948,1292.8,1292.9,1292.8,1292.9
201904031949,1292.9,1292.9,1292.8,1292.8
201904031950,1292.8,1292.9,1292.8,1292.8
201904031951,1292.8,1292.9,1292.7,1292.7
201904031952,1292.7,1292.7,1292.5,1292.5
201904031953,1292.5,1292.8,1292.5,1292.8
201904031954,1292.8,1292.8,1292.8,1292.8
201904031955,1292.8,1292.8,1292.7,1292.8
201904031956,1292.8,1292.8,1292.7,1292.8
201904031957,1292.8,1292.8,1292.8,1292.8
201904031958,1292.8,1292.9,1292.7,1292.9
201904031959,1292.9,1292.9,1292.8,1292.8
201904032000,1292.8,1292.9,1292.8,1292.9
201904032001,1292.9,1293.5,1292.9,1293.4
201904032002,1293.3,1293.4,1293.3,1293.4
201904032003,1293.4,1293.5,1293.3,1293.4
201904032004,1293.4,1293.4,1293,1293.2
201904032005,1293.2,1293.3,1293.2,1293.2
201904032006,1293.3,1293.3,1293.1,1293.2
201904032007,1293.2,1293.4,1293.2,1293.3
201904032008,1293.3,1293.5,1293.3,1293.5
201904032009,1293.4,1293.5,1293.2,1293.3
201904032010,1293.3,1293.5,1293.3,1293.4
201904032011,1293.4,1293.9,1293.4,1293.8
201904032012,1293.8,1294.2,1293.8,1293.8
201904032013,1293.8,1293.8,1293.7,1293.7
201904032014,1293.7,1293.8,1293.6,1293.6
201904032015,1293.6,1293.8,1293.6,1293.8
201904032016,1293.8,1293.8,1293.6,1293.6
201904032017,1293.6,1293.8,1293.6,1293.8
201904032018,1293.8,1293.9,1293.7,1293.9
201904032019,1293.9,1293.9,1293.7,1293.7
201904032020,1293.7,1293.7,1293.6,1293.7
201904032021,1293.7,1293.7,1293.6,1293.7
201904032022,1293.7,1293.9,1293.7,1293.9
201904032023,1293.9,1294,1293.9,1294
201904032024,1294,1294.1,1293.8,1294
201904032025,1294,1294.4,1293.9,1294.2
201904032026,1294.3,1294.3,1294.1,1294.1
201904032027,1294.1,1294.1,1293.9,1293.9
201904032028,1293.9,1293.9,1293.5,1293.5
201904032029,1293.5,1293.5,1293.3,1293.4
201904032030,1293.4,1293.6,1293.3,1293.4
201904032031,1293.4,1293.4,1293.3,1293.4
201904032032,1293.4,1293.4,1293.2,1293.3
201904032033,1293.3,1293.4,1293.2,1293.3
201904032034,1293.3,1293.6,1293.3,1293.6
201904032035,1293.6,1293.6,1293.5,1293.6
201904032036,1293.6,1293.7,1293.6,1293.7
201904032037,1293.7,1293.7,1293.4,1293.6
201904032038,1293.6,1293.7,1293.5,1293.5
201904032039,1293.5,1293.6,1293.3,1293.3
201904032040,1293.3,1293.3,1293.2,1293.2
201904032041,1293.2,1293.3,1293.2,1293.3
201904032042,1293.3,1293.4,1293.3,1293.4
201904032043,1293.4,1293.4,1293.1,1293.2
201904032044,1293.2,1293.2,1292.9,1293
201904032045,1293,1293,1292.9,1293
201904032046,1292.9,1292.9,1292.8,1292.9
201904032047,1292.9,1292.9,1292.9,1292.9
201904032048,1292.9,1293,1292.9,1292.9
201904032049,1292.9,1293.3,1292.9,1293.2
201904032050,1293.2,1293.2,1293,1293
201904032051,1293,1293.1,1293,1293
201904032052,1293.1,1293.1,1293,1293.1
201904032053,1293.1,1293.1,1292.8,1292.9
201904032054,1292.9,1292.9,1292.6,1292.7
201904032055,1292.7,1292.8,1292.6,1292.8
201904032056,1292.8,1293,1292.8,1292.8
201904032057,1292.8,1292.8,1292.8,1292.8
201904032058,1292.8,1293.2,1292.8,1293.1
201904032059,1293.1,1293.1,1292.9,1292.9
201904032100,1292.9,1293.1,1292.8,1293
201904032101,1293,1293,1292.4,1292.5
201904032102,1292.6,1292.7,1292.5,1292.6
201904032103,1292.6,1292.6,1292.2,1292.3
201904032104,1292.3,1292.3,1291.9,1291.9
201904032105,1291.9,1291.9,1291.3,1291.5
201904032106,1291.5,1291.6,1291,1291.2
201904032107,1291.2,1291.3,1290.8,1291.2
201904032108,1291.2,1291.4,1291.1,1291.4
201904032109,1291.4,1291.4,1291.3,1291.3
201904032110,1291.3,1291.9,1291.3,1291.7
201904032111,1291.7,1291.9,1291.7,1291.9
201904032112,1291.9,1292,1291.9,1291.9
201904032113,1291.9,1291.9,1291.6,1291.6
201904032114,1291.6,1292,1291.1,1291.9
201904032115,1291.9,1294.2,1291.9,1293.5
201904032116,1293.4,1293.5,1293,1293.4
201904032117,1293.4,1293.4,1292.9,1293.2
201904032118,1293.2,1293.2,1292.8,1292.8
201904032119,1292.8,1293.2,1292.5,1292.9
201904032120,1292.9,1293.5,1292.7,1292.9
201904032121,1292.9,1292.9,1292.6,1292.9
201904032122,1292.9,1293,1292.2,1292.5
201904032123,1292.5,1292.5,1292.2,1292.3
201904032124,1292.2,1292.6,1292.2,1292.5
201904032125,1292.5,1292.5,1292.1,1292.5
201904032126,1292.5,1292.5,1292.2,1292.5
201904032127,1292.5,1292.8,1292.3,1292.8
201904032128,1292.8,1293,1292.7,1292.8
201904032129,1292.8,1292.8,1292.7,1292.7
201904032130,1292.7,1292.9,1292.4,1292.9
201904032131,1292.9,1293,1292.8,1292.9
201904032132,1292.9,1293.3,1292.9,1293.2
201904032133,1293.2,1293.6,1292.9,1293
201904032134,1293,1293.4,1293,1293.3
201904032135,1293.3,1293.4,1293.1,1293.3
201904032136,1293.3,1293.5,1293.1,1293.1
201904032137,1293.1,1293.3,1293.1,1293.1
201904032138,1293.1,1293.1,1292.5,1292.6
201904032139,1292.6,1293.3,1292.6,1293.3
201904032140,1293.3,1293.3,1293,1293
201904032141,1293,1293,1292.8,1292.9
201904032142,1292.9,1292.9,1292.7,1292.8
201904032143,1292.7,1292.8,1292.7,1292.7
201904032144,1292.7,1292.7,1292.4,1292.6
201904032145,1292.6,1292.9,1292.6,1292.9
201904032146,1292.9,1293.1,1292.8,1292.9
201904032147,1292.9,1292.9,1291.5,1291.8
201904032148,1291.8,1292.1,1291.8,1292.1
201904032149,1292.1,1292.2,1292,1292.2
201904032150,1292.2,1292.2,1291.9,1292
201904032151,1292,1292.1,1291.8,1291.9
201904032152,1291.9,1291.9,1291.6,1291.8
201904032153,1291.8,1292,1291.6,1291.6
201904032154,1291.6,1291.6,1291.4,1291.4
201904032155,1291.4,1291.8,1291.2,1291.8
201904032156,1291.8,1291.8,1291.6,1291.8
201904032157,1291.8,1291.8,1291.5,1291.6
201904032158,1291.6,1291.7,1291.4,1291.5
201904032159,1291.5,1291.6,1291.3,1291.5
201904032200,1291.5,1291.5,1291.1,1291.2
201904032201,1291.2,1291.2,1289.5,1289.5
201904032202,1289.5,1290.4,1289.4,1290.2
201904032203,1290.2,1290.2,1289.7,1289.8
201904032204,1289.8,1289.9,1289.5,1289.5
201904032205,1289.5,1290.1,1289.3,1289.4
201904032206,1289.4,1289.9,1289.4,1289.7
201904032207,1289.7,1289.7,1289.2,1289.3
201904032208,1289.3,1289.3,1288.6,1289
201904032209,1289,1289,1288.7,1288.8
201904032210,1288.8,1289.2,1288.6,1289
201904032211,1289,1289.7,1289,1289.5
201904032212,1289.5,1289.7,1289.5,1289.6
201904032213,1289.6,1289.8,1289.5,1289.7
201904032214,1289.7,1289.7,1289.3,1289.4
201904032215,1289.4,1289.9,1289.4,1289.8
201904032216,1289.8,1289.8,1289.2,1289.4
201904032217,1289.4,1289.9,1289.1,1289.5
201904032218,1289.5,1289.5,1289.2,1289.4
201904032219,1289.3,1289.5,1289.2,1289.3
201904032220,1289.3,1289.3,1288.9,1288.9
201904032221,1288.9,1289,1288.8,1288.9
201904032222,1288.9,1289.2,1288.9,1289
201904032223,1289,1289,1288.7,1288.7
201904032224,1288.7,1289.1,1288.7,1288.9
201904032225,1288.9,1288.9,1288.3,1288.6
201904032226,1288.6,1288.7,1288.3,1288.5
201904032227,1288.5,1288.9,1288.5,1288.5
201904032228,1288.5,1288.8,1288.5,1288.8
201904032229,1288.8,1289.1,1288.8,1288.9
201904032230,1289,1289.2,1288.8,1288.9
201904032231,1288.9,1289.1,1288.8,1289
201904032232,1289,1289.2,1288.9,1289
201904032233,1289,1289.4,1288.7,1289.4
201904032234,1289.4,1289.7,1289.3,1289.4
201904032235,1289.4,1289.6,1289.3,1289.4
201904032236,1289.4,1289.5,1288.9,1288.9
201904032237,1288.9,1289.1,1288.9,1289.1
201904032238,1289.1,1289.4,1289.1,1289.3
201904032239,1289.3,1289.5,1289.3,1289.3
201904032240,1289.3,1289.5,1289.3,1289.4
201904032241,1289.4,1289.5,1289.3,1289.4
201904032242,1289.4,1289.4,1288.6,1288.6
201904032243,1288.6,1288.8,1288.6,1288.8
201904032244,1288.8,1288.9,1288.6,1288.7
201904032245,1288.7,1288.8,1288.4,1288.7
201904032246,1288.7,1288.7,1288.5,1288.6
201904032247,1288.7,1289.1,1288.6,1289
201904032248,1289,1289.2,1289,1289.1
201904032249,1289.1,1289.1,1288.8,1288.8
201904032250,1288.8,1288.9,1288.7,1288.9
201904032251,1289,1289.3,1289,1289.1
201904032252,1289.1,1289.5,1289.1,1289.5
201904032253,1289.5,1289.6,1289.3,1289.4
201904032254,1289.4,1289.5,1289.3,1289.4
201904032255,1289.4,1289.5,1289.4,1289.5
201904032256,1289.5,1289.5,1289.4,1289.4
201904032257,1289.4,1289.4,1289.1,1289.2
201904032258,1289.2,1289.3,1289.2,1289.3
201904032259,1289.3,1289.3,1289.2,1289.3
201904032300,1289.3,1290.9,1289.2,1290.7
201904032301,1290.7,1290.9,1290.1,1290.1
201904032302,1290.1,1290.6,1290,1290.5
201904032303,1290.5,1290.5,1290,1290.1
201904032304,1290.2,1290.3,1289.8,1290.3
201904032305,1290.3,1290.6,1290.2,1290.6
201904032306,1290.6,1290.9,1290.4,1290.8
201904032307,1290.8,1290.9,1290.5,1290.5
201904032308,1290.5,1290.6,1290,1290.4
201904032309,1290.4,1290.4,1290,1290
201904032310,1290,1290.1,1289.2,1289.7
201904032311,1289.7,1289.7,1289.1,1289.2
201904032312,1289.2,1290,1289.2,1289.9
201904032313,1289.9,1289.9,1289.4,1289.4
201904032314,1289.4,1289.5,1289.2,1289.4
201904032315,1289.4,1289.6,1289.2,1289.5
201904032316,1289.5,1289.8,1289.3,1289.4
201904032317,1289.4,1289.4,1289.1,1289.1
201904032318,1289.1,1289.4,1289,1289
201904032319,1289,1289.4,1289,1289.3
201904032320,1289.3,1289.5,1289.2,1289.3
201904032321,1289.3,1289.5,1289,1289
201904032322,1289,1289.1,1288.7,1289
201904032323,1289,1289.1,1288.9,1289
201904032324,1289,1289.1,1288.5,1288.6
201904032325,1288.6,1288.8,1288.3,1288.5
201904032326,1288.5,1288.7,1288.4,1288.6
201904032327,1288.6,1288.8,1288.5,1288.7
201904032328,1288.7,1288.9,1288.7,1288.8
201904032329,1288.8,1289.1,1288.7,1289
201904032330,1289,1289.5,1288.9,1289.5
201904032331,1289.5,1289.7,1289.4,1289.5
201904032332,1289.6,1289.9,1289.5,1289.8
201904032333,1289.8,1289.9,1289.7,1289.9
201904032334,1289.9,1290.1,1289.6,1289.6
201904032335,1289.6,1290.2,1289.6,1290.2
201904032336,1290.2,1290.2,1289.9,1290
201904032337,1289.9,1290,1289.8,1289.8
201904032338,1289.8,1289.8,1289.5,1289.5
201904032339,1289.5,1289.6,1289.3,1289.3
201904032340,1289.3,1289.6,1289.3,1289.6
201904032341,1289.6,1289.7,1289.4,1289.6
201904032342,1289.6,1290,1289.5,1290
201904032343,1290,1290.1,1289.9,1290.1
201904032344,1290.1,1290.1,1289.7,1289.7
201904032345,1289.6,1289.8,1289.5,1289.8
201904032346,1289.8,1290.2,1289.8,1290.1
201904032347,1290.1,1290.1,1289.9,1289.9
201904032348,1289.9,1290.9,1289.9,1290.7
201904032349,1290.7,1290.8,1290.5,1290.6
201904032350,1290.6,1290.8,1290.4,1290.5
201904032351,1290.5,1290.6,1290.2,1290.2
201904032352,1290.2,1290.3,1289.8,1289.9
201904032353,1289.9,1290.2,1289.9,1290.1
201904032354,1290.1,1290.1,1290,1290
201904032355,1290,1290.2,1289.8,1289.9
201904032356,1289.9,1290,1289.7,1289.9
201904032357,1289.9,1290.2,1289.9,1290.1
201904032358,1290.1,1290.4,1290,1290.2
201904032359,1290.2,1290.3,1290.2,1290.3
201904040000,1290.3,1290.4,1290.3,1290.4
201904040001,1290.4,1290.4,1289.6,1289.6
201904040002,1289.6,1289.8,1289.5,1289.7
201904040003,1289.7,1289.8,1289.6,1289.6
201904040004,1289.6,1289.8,1289.4,1289.7
201904040005,1289.7,1290.3,1289.7,1290.1
201904040006,1290.1,1290.2,1290,1290.1
201904040007,1290.1,1290.2,1290.1,1290.2
201904040008,1290.2,1290.6,1290.2,1290.5
201904040009,1290.5,1290.9,1290.5,1290.7
201904040010,1290.6,1291.2,1290.6,1290.8
201904040011,1290.8,1290.9,1290.6,1290.6
201904040012,1290.6,1291.2,1290.6,1291.2
201904040013,1291.2,1291.2,1290.8,1290.8
201904040014,1290.8,1291,1290.8,1291
201904040015,1291,1291,1290.6,1290.7
201904040016,1290.7,1290.8,1290.4,1290.5
201904040017,1290.5,1290.8,1290.5,1290.7
201904040018,1290.8,1290.8,1290.5,1290.6
201904040019,1290.6,1290.6,1290.3,1290.3
201904040020,1290.3,1290.4,1290.1,1290.1
201904040021,1290.1,1290.3,1289.9,1289.9
201904040022,1289.9,1290.3,1289.9,1290.3
201904040023,1290.3,1290.6,1290.3,1290.3
201904040024,1290.3,1290.3,1290.1,1290.1
201904040025,1290.1,1290.3,1290,1290.3
201904040026,1290.3,1290.6,1290.3,1290.5
201904040027,1290.5,1290.6,1290.3,1290.4
201904040028,1290.4,1290.5,1290,1290.2
201904040029,1290.2,1290.4,1290,1290.4
201904040030,1290.4,1290.4,1289.9,1289.9
201904040031,1289.9,1290.1,1289.7,1290.1
201904040032,1290,1290,1289.9,1290
201904040033,1290,1290,1289.6,1289.7
201904040034,1289.7,1289.7,1289.5,1289.6
201904040035,1289.6,1289.7,1289.3,1289.6
201904040036,1289.7,1289.7,1289.4,1289.6
201904040037,1289.6,1289.7,1289.6,1289.6
201904040038,1289.6,1289.7,1289.6,1289.6
201904040039,1289.6,1289.7,1289.6,1289.7
201904040040,1289.7,1289.8,1289.6,1289.7
201904040041,1289.7,1289.7,1289.6,1289.7
201904040042,1289.7,1289.9,1289.7,1289.9
201904040043,1289.9,1290,1289.9,1289.9
201904040044,1289.9,1290.1,1289.9,1290.1
201904040045,1290.1,1290.2,1290,1290.2
201904040046,1290.2,1290.3,1290.2,1290.3
201904040047,1290.3,1290.3,1290.2,1290.2
201904040048,1290.2,1290.2,1290.1,1290.1
201904040049,1290.1,1290.1,1290,1290
201904040050,1290,1290,1289.9,1289.9
201904040051,1289.9,1290,1289.9,1290
201904040052,1290,1290.2,1290,1290
201904040053,1290,1290.1,1289.8,1289.8
201904040054,1289.9,1290,1289.7,1289.8
201904040055,1289.8,1289.8,1289.7,1289.7
201904040056,1289.8,1289.8,1289.7,1289.7
201904040057,1289.7,1290.1,1289.7,1290.1
201904040058,1290.1,1290.1,1290,1290.1
201904040059,1290.1,1290.2,1289.9,1290.2
201904040100,1290.2,1290.3,1290,1290.1
201904040101,1290.1,1290.4,1290.1,1290.2
201904040102,1290.2,1290.2,1290,1290
201904040103,1290,1290,1289.9,1290
201904040104,1290,1290.1,1289.8,1289.8
201904040105,1289.8,1289.9,1289.7,1289.9
201904040106,1289.9,1290,1289.9,1289.9
201904040107,1289.9,1290,1289.9,1289.9
201904040108,1289.8,1290,1289.8,1289.9
201904040109,1290,1290.1,1290,1290.1
201904040110,1290.1,1290.1,1290,1290
201904040111,1290,1290,1289.9,1289.9
201904040112,1289.9,1290,1289.9,1290
201904040113,1290,1290.2,1290,1290.2
201904040114,1290.2,1290.3,1290.2,1290.3
201904040115,1290.3,1290.4,1290.3,1290.3
201904040116,1290.3,1290.5,1290.3,1290.4
201904040117,1290.4,1290.7,1290.3,1290.7
201904040118,1290.7,1290.8,1290.6,1290.6
201904040119,1290.6,1290.8,1290.6,1290.7
201904040120,1290.7,1291.1,1290.7,1291.1
201904040121,1291.1,1291.1,1290.7,1290.9
201904040122,1290.9,1291.3,1290.9,1291.2
201904040123,1291.3,1291.3,1291.1,1291.2
201904040124,1291.2,1291.2,1291.1,1291.1
201904040125,1291.1,1291.1,1291,1291
201904040126,1291,1291,1290.9,1290.9
201904040127,1290.9,1291.1,1290.9,1291.1
201904040128,1291.1,1291.3,1291,1291.3
201904040129,1291.3,1291.3,1291.1,1291.2
201904040130,1291.2,1291.7,1291.1,1291.6
201904040131,1291.6,1291.8,1291.5,1291.7
201904040132,1291.7,1291.8,1291.6,1291.6
201904040133,1291.6,1291.7,1291.4,1291.4
201904040134,1291.4,1291.4,1291.2,1291.4
201904040135,1291.4,1291.7,1291.4,1291.6
201904040136,1291.7,1291.8,1291.6,1291.7
201904040137,1291.7,1291.7,1291.5,1291.5
201904040138,1291.5,1291.5,1291.3,1291.4
201904040139,1291.4,1291.4,1291.1,1291.1
201904040140,1291.1,1291.1,1291.1,1291.1
201904040141,1291.1,1291.1,1291.1,1291.1
201904040142,1291.1,1291.1,1291.1,1291.1
201904040143,1291.1,1291.3,1291,1291.1
201904040144,1291.1,1291.1,1290.9,1291
201904040145,1291,1291.1,1290.9,1291
201904040146,1291,1291,1290.9,1291
201904040147,1291,1291.1,1290.8,1291
201904040148,1291.1,1291.1,1290.9,1291
201904040149,1291,1291,1290.8,1290.8
201904040150,1290.8,1291,1290.8,1290.9
201904040151,1290.9,1291.1,1290.9,1291
201904040152,1291.1,1291.1,1290.8,1290.8
201904040153,1290.8,1291,1290.8,1291
201904040154,1291,1291,1291,1291
201904040155,1291,1291.1,1291,1291.1
201904040156,1291.1,1291.1,1290.9,1290.9
201904040157,1290.9,1290.9,1290.8,1290.9
201904040158,1290.9,1290.9,1290.8,1290.9
201904040159,1290.9,1290.9,1290.7,1290.7
201904040200,1290.7,1291.1,1290.7,1290.9
201904040201,1290.9,1291,1290.8,1290.9
201904040202,1290.9,1291.1,1290.9,1290.9
201904040203,1290.9,1291.1,1290.9,1291
201904040204,1291,1291.1,1291,1291
201904040205,1291,1291.1,1290.9,1290.9
201904040206,1290.9,1290.9,1290.8,1290.9
201904040207,1290.9,1290.9,1290.9,1290.9
201904040208,1290.9,1290.9,1290.9,1290.9
201904040209,1290.9,1291.1,1290.9,1291
201904040210,1291,1291,1290.8,1290.9
201904040211,1290.9,1290.9,1290.7,1290.7
201904040212,1290.7,1290.8,1290.7,1290.8
201904040213,1290.8,1290.9,1290.7,1290.8
201904040214,1290.8,1290.9,1290.8,1290.8
201904040215,1290.8,1290.8,1290.7,1290.8
201904040216,1290.8,1290.9,1290.8,1290.9
201904040217,1290.9,1290.9,1290.8,1290.9
201904040218,1290.9,1290.9,1290.8,1290.9
201904040219,1290.9,1291.1,1290.9,1291.1
201904040220,1291.1,1291.3,1291.1,1291.1
201904040221,1291.1,1291.3,1291.1,1291.1
201904040222,1291.1,1291.2,1291.1,1291.2
201904040223,1291.2,1291.2,1291.1,1291.1
201904040224,1291.1,1291.2,1291,1291.1
201904040225,1291.1,1291.1,1291,1291.1
201904040226,1291.1,1291.1,1290.9,1290.9
201904040227,1290.9,1290.9,1290.7,1290.7
201904040228,1290.7,1290.8,1290.7,1290.8
201904040229,1290.7,1290.8,1290.6,1290.7
201904040230,1290.7,1290.8,1290.6,1290.6
201904040231,1290.6,1290.6,1290.5,1290.6
201904040232,1290.6,1290.6,1290.5,1290.5
201904040233,1290.5,1290.5,1290.4,1290.4
201904040234,1290.4,1290.5,1290.3,1290.3
201904040235,1290.3,1290.4,1290.3,1290.4
201904040236,1290.4,1290.4,1290.4,1290.4
201904040237,1290.4,1290.4,1290.2,1290.3
201904040238,1290.3,1290.4,1290.1,1290.4
201904040239,1290.4,1290.5,1290.4,1290.5
201904040240,1290.5,1290.6,1290.5,1290.5
201904040241,1290.5,1290.6,1290.5,1290.6
201904040242,1290.6,1290.6,1290.6,1290.6
201904040243,1290.6,1290.7,1290.6,1290.7
201904040244,1290.7,1290.7,1290.6,1290.7
201904040245,1290.7,1290.7,1290.6,1290.6
201904040246,1290.6,1290.7,1290.6,1290.7
201904040247,1290.7,1290.7,1290.6,1290.7
201904040248,1290.7,1290.9,1290.7,1290.9
201904040249,1290.9,1290.9,1290.8,1290.9
201904040250,1290.9,1290.9,1290.7,1290.7
201904040251,1290.7,1290.8,1290.7,1290.8
201904040252,1290.8,1291,1290.8,1291
201904040253,1291,1291,1291,1291
201904040254,1291,1291,1290.8,1290.8
201904040255,1290.8,1290.8,1290.7,1290.7
201904040256,1290.7,1290.7,1290.7,1290.7
201904040257,1290.7,1290.7,1290.7,1290.7
201904040258,1290.7,1290.8,1290.7,1290.8
201904040259,1290.8,1290.8,1290.6,1290.6
201904040300,1290.6,1290.8,1290.6,1290.8
201904040301,1290.8,1290.8,1290.7,1290.7
201904040302,1290.7,1290.7,1290.5,1290.5
201904040303,1290.5,1290.6,1290.3,1290.3
201904040304,1290.3,1290.5,1290.3,1290.5
201904040305,1290.5,1290.7,1290.5,1290.6
201904040306,1290.6,1290.6,1290.5,1290.5
201904040307,1290.5,1290.5,1290.4,1290.4
201904040308,1290.4,1290.4,1290.3,1290.3
201904040309,1290.3,1290.3,1290.2,1290.2
201904040310,1290.2,1290.2,1290.1,1290.2
201904040311,1290.2,1290.2,1290.1,1290.1
201904040312,1290.1,1290.1,1290,1290
201904040313,1290,1290.2,1290,1290.2
201904040314,1290.2,1290.2,1290.1,1290.1
201904040315,1290.1,1290.1,1290.1,1290.1
201904040316,1290.1,1290.1,1290.1,1290.1
201904040317,1290.1,1290.2,1290,1290
201904040318,1290,1290.1,1290,1290.1
201904040319,1290.1,1290.1,1290,1290
201904040320,1290,1290.1,1290,1290.1
201904040321,1290.1,1290.2,1289.9,1289.9
201904040322,1289.9,1290.1,1289.9,1290.1
201904040323,1290.1,1290.1,1290,1290
201904040324,1290,1290.1,1290,1290
201904040325,1290,1290.1,1290,1290.1
201904040326,1290.1,1290.2,1290.1,1290.2
201904040327,1290.2,1290.2,1290.1,1290.1
201904040328,1290.1,1290.1,1290,1290
201904040329,1290,1290.2,1290,1290.2
201904040330,1290.1,1290.6,1290.1,1290.5
201904040331,1290.5,1290.5,1290.3,1290.3
201904040332,1290.3,1290.4,1290.3,1290.3
201904040333,1290.3,1290.4,1290.3,1290.3
201904040334,1290.4,1290.4,1290.3,1290.3
201904040335,1290.3,1290.4,1290.2,1290.4
201904040336,1290.4,1290.4,1290.2,1290.2
201904040337,1290.2,1290.2,1290.1,1290.2
201904040338,1290.2,1290.2,1290.1,1290.1
201904040339,1290.1,1290.2,1290.1,1290.1
201904040340,1290.1,1290.2,1290,1290.2
201904040341,1290.1,1290.1,1290,1290.1
201904040342,1290.1,1290.4,1290.1,1290.4
201904040343,1290.4,1290.6,1290.4,1290.6
201904040344,1290.6,1290.8,1290.6,1290.7
201904040345,1290.7,1290.7,1290.5,1290.7
201904040346,1290.7,1290.7,1290.5,1290.5
201904040347,1290.5,1290.5,1290.4,1290.5
201904040348,1290.5,1290.5,1290.4,1290.4
201904040349,1290.4,1290.6,1290.4,1290.5
201904040350,1290.5,1290.5,1290.4,1290.4
201904040351,1290.4,1290.4,1290.2,1290.3
201904040352,1290.3,1290.6,1290.3,1290.6
201904040353,1290.6,1290.7,1290.5,1290.7
201904040354,1290.7,1290.8,1290.4,1290.4
201904040355,1290.4,1290.4,1290.2,1290.3
201904040356,1290.3,1290.3,1290.2,1290.2
201904040357,1290.2,1290.2,1290.1,1290.2
201904040358,1290.2,1290.3,1290.1,1290.3
201904040359,1290.3,1290.3,1290.2,1290.2
201904040400,1290.2,1290.3,1290,1290.3
201904040401,1290.3,1290.4,1290.3,1290.4
201904040402,1290.3,1290.4,1290.3,1290.4
201904040403,1290.4,1290.5,1290.4,1290.5
201904040404,1290.5,1290.5,1290.2,1290.2
201904040405,1290.2,1290.3,1290.2,1290.3
201904040406,1290.3,1290.4,1290.2,1290.3
201904040407,1290.3,1290.3,1290.2,1290.3
201904040408,1290.3,1290.3,1290.1,1290.1
201904040409,1290.1,1290.2,1290.1,1290.2
201904040410,1290.2,1290.4,1290.2,1290.4
201904040411,1290.4,1290.4,1290.3,1290.4
201904040412,1290.4,1290.4,1290.3,1290.4
201904040413,1290.4,1290.5,1290.3,1290.3
201904040414,1290.3,1290.3,1290.1,1290.2
201904040415,1290.2,1290.3,1290.2,1290.3
201904040416,1290.3,1290.4,1290.3,1290.4
201904040417,1290.4,1290.6,1290.4,1290.6
201904040418,1290.6,1290.7,1290.5,1290.6
201904040419,1290.6,1290.6,1290.6,1290.6
201904040420,1290.5,1290.6,1290.4,1290.5
201904040421,1290.5,1290.6,1290.3,1290.6
201904040422,1290.6,1290.7,1290.3,1290.3
201904040423,1290.4,1290.4,1290.3,1290.3
201904040424,1290.3,1290.4,1290.3,1290.4
201904040425,1290.3,1290.4,1290.2,1290.2
201904040426,1290.2,1290.3,1290.2,1290.2
201904040427,1290.2,1290.3,1290.2,1290.3
201904040428,1290.3,1290.3,1290,1290.1
201904040429,1290.1,1290.2,1290.1,1290.2
201904040430,1290.2,1290.2,1290,1290
201904040431,1290.1,1290.4,1290.1,1290.4
201904040432,1290.4,1290.4,1290.3,1290.4
201904040433,1290.4,1290.5,1290.4,1290.5
201904040434,1290.5,1290.5,1290.5,1290.5
201904040435,1290.5,1290.5,1290.4,1290.4
201904040436,1290.4,1290.4,1290.2,1290.2
201904040437,1290.2,1290.3,1290.2,1290.2
201904040438,1290.2,1290.3,1290.2,1290.2
201904040439,1290.2,1290.3,1290.2,1290.3
201904040440,1290.3,1290.4,1290.2,1290.4
201904040441,1290.4,1290.5,1290.4,1290.4
201904040442,1290.4,1290.4,1290.4,1290.4
201904040443,1290.4,1290.4,1290.3,1290.3
201904040444,1290.3,1290.6,1290.3,1290.5
201904040445,1290.5,1290.6,1290.5,1290.6
201904040446,1290.6,1290.6,1290.5,1290.6
201904040447,1290.6,1290.6,1290.5,1290.5
201904040448,1290.5,1290.6,1290.5,1290.6
201904040449,1290.6,1290.6,1290.5,1290.6
201904040450,1290.6,1290.6,1290.6,1290.6
201904040451,1290.6,1290.6,1290.6,1290.6
201904040452,1290.6,1290.6,1290.4,1290.4
201904040453,1290.4,1290.4,1290.3,1290.3
201904040454,1290.3,1290.3,1290.3,1290.3
201904040455,1290.3,1290.3,1290.1,1290.1
201904040456,1290.1,1290.1,1290.1,1290.1
201904040457,1290.1,1290.2,1290.1,1290.1
201904040458,1290.1,1290.1,1290,1290
201904040459,1290,1290,1289.7,1289.9
201904040500,1289.9,1290,1289.7,1289.8
201904040501,1289.8,1289.8,1289.7,1289.8
201904040502,1289.8,1289.9,1289.8,1289.9
201904040503,1289.9,1290,1289.9,1290
201904040504,1290,1290,1289.9,1289.9
201904040505,1289.9,1289.9,1289.8,1289.8
201904040506,1289.8,1289.9,1289.8,1289.9
201904040507,1289.9,1290.1,1289.9,1290.1
201904040508,1290.1,1290.1,1290.1,1290.1
201904040509,1290.1,1290.1,1290.1,1290.1
201904040510,1290.1,1290.1,1289.9,1289.9
201904040511,1289.9,1290.1,1289.9,1290.1
201904040512,1290.1,1290.1,1290.1,1290.1
201904040513,1290.1,1290.1,1290,1290
201904040514,1290,1290.1,1290,1290
201904040515,1290,1290.2,1290,1290.2
201904040516,1290.2,1290.2,1290.1,1290.2
201904040517,1290.2,1290.2,1290.1,1290.2
201904040518,1290.2,1290.2,1290.2,1290.2
201904040519,1290.2,1290.2,1290.2,1290.2
201904040520,1290.2,1290.2,1290.1,1290.1
201904040521,1290.1,1290.1,1290,1290.1
201904040522,1290.1,1290.2,1290,1290.2
201904040523,1290.2,1290.4,1290.1,1290.2
201904040524,1290.2,1290.2,1290.1,1290.1
201904040525,1290.1,1290.2,1290,1290.2
201904040526,1290.1,1290.1,1290.1,1290.1
201904040527,1290.1,1290.1,1290.1,1290.1
201904040528,1290.1,1290.1,1290.1,1290.1
201904040529,1290.1,1290.1,1290.1,1290.1
201904040530,1290.1,1290.1,1290,1290
201904040531,1290,1290,1290,1290
201904040532,1290,1290.1,1290,1290
201904040533,1290,1290,1289.9,1289.9
201904040534,1289.9,1290,1289.9,1289.9
201904040535,1289.9,1289.9,1289.9,1289.9
201904040536,1289.9,1289.9,1289.9,1289.9
201904040537,1289.9,1289.9,1289.9,1289.9
201904040538,1289.9,1289.9,1289.9,1289.9
201904040539,1289.9,1289.9,1289.9,1289.9
201904040540,1289.9,1290,1289.8,1290
201904040541,1290,1290.2,1290,1290.1
201904040542,1290,1290,1289.5,1289.6
201904040543,1289.6,1289.7,1289.6,1289.7
201904040544,1289.7,1289.7,1289.7,1289.7
201904040545,1289.7,1289.7,1289.6,1289.6
201904040546,1289.6,1289.6,1289.6,1289.6
201904040547,1289.6,1289.6,1289.6,1289.6
201904040548,1289.6,1289.7,1289.6,1289.6
201904040549,1289.6,1289.6,1289.5,1289.6
201904040550,1289.5,1289.7,1289.5,1289.6
201904040551,1289.6,1289.6,1289.5,1289.5
201904040552,1289.6,1289.7,1289.6,1289.7
201904040553,1289.7,1289.7,1289.6,1289.7
201904040554,1289.7,1289.7,1289.6,1289.6
201904040555,1289.6,1289.7,1289.6,1289.7
201904040556,1289.7,1289.7,1289.6,1289.7
201904040557,1289.7,1289.7,1289.5,1289.5
201904040558,1289.5,1289.7,1289.5,1289.7
201904040559,1289.7,1289.7,1289.6,1289.7
