日時,始値(BID),高値(BID),安値(BID),終値(BID)
201904180700,1273.3,1274.2,1273.3,1274.1
201904180701,1274.1,1274.2,1274,1274.1
201904180702,1274.1,1274.2,1274.1,1274.2
201904180703,1274.2,1274.2,1274.1,1274.1
201904180704,1274.1,1274.2,1274.1,1274.2
201904180705,1274.2,1274.2,1274.2,1274.2
201904180706,1274.2,1274.2,1274.2,1274.2
201904180707,1274.2,1274.2,1274.2,1274.2
201904180708,1274.2,1274.2,1274.2,1274.2
201904180709,1274.2,1274.2,1274.2,1274.2
201904180710,1274.2,1274.2,1274.2,1274.2
201904180711,1274.2,1274.2,1274.2,1274.2
201904180712,1274.2,1274.2,1274.2,1274.2
201904180713,1274.2,1274.2,1274.2,1274.2
201904180714,1274.2,1274.2,1274.2,1274.2
201904180715,1274.2,1274.3,1274.2,1274.3
201904180716,1274.3,1274.3,1274.3,1274.3
201904180717,1274.3,1274.4,1274.3,1274.3
201904180718,1274.3,1274.3,1274.3,1274.3
201904180719,1274.3,1274.4,1274.3,1274.3
201904180720,1274.3,1274.3,1274.3,1274.3
201904180721,1274.3,1274.3,1274.2,1274.2
201904180722,1274.2,1274.3,1274.2,1274.2
201904180723,1274.2,1274.3,1274.2,1274.3
201904180724,1274.3,1274.3,1274.3,1274.3
201904180725,1274.3,1274.3,1274.2,1274.3
201904180726,1274.3,1274.4,1274.3,1274.4
201904180727,1274.4,1274.4,1274.4,1274.4
201904180728,1274.4,1274.4,1274.4,1274.4
201904180729,1274.4,1274.4,1274.4,1274.4
201904180730,1274.4,1274.4,1274.3,1274.3
201904180731,1274.3,1274.3,1274.2,1274.2
201904180732,1274.2,1274.3,1274.2,1274.2
201904180733,1274.2,1274.3,1274.2,1274.2
201904180734,1274.2,1274.3,1274.2,1274.2
201904180735,1274.2,1274.3,1274.1,1274.1
201904180736,1274.1,1274.2,1274.1,1274.1
201904180737,1274.1,1274.1,1274.1,1274.1
201904180738,1274.1,1274.3,1274.1,1274.1
201904180739,1274.1,1274.1,1274,1274.1
201904180740,1274.1,1274.1,1274.1,1274.1
201904180741,1274.1,1274.1,1274,1274
201904180742,1274,1274.1,1274,1274.1
201904180743,1274.1,1274.2,1274,1274.2
201904180744,1274.2,1274.2,1274.1,1274.1
201904180745,1274.1,1274.1,1274.1,1274.1
201904180746,1274.1,1274.2,1274.1,1274.2
201904180747,1274.2,1274.2,1274.1,1274.2
201904180748,1274.2,1274.2,1274.1,1274.1
201904180749,1274.1,1274.1,1274.1,1274.1
201904180750,1274.1,1274.3,1274.1,1274.3
201904180751,1274.3,1274.3,1274.3,1274.3
201904180752,1274.3,1274.3,1274.3,1274.3
201904180753,1274.3,1274.3,1274.3,1274.3
201904180754,1274.3,1274.3,1274.2,1274.2
201904180755,1274.2,1274.3,1274.2,1274.3
201904180756,1274.3,1274.3,1274.2,1274.3
201904180757,1274.2,1274.3,1274.2,1274.3
201904180758,1274.3,1274.3,1274.3,1274.3
201904180759,1274.3,1274.3,1274,1274.1
201904180800,1274.1,1274.2,1274.1,1274.2
201904180801,1274.2,1274.2,1274.1,1274.2
201904180802,1274.2,1274.2,1274.1,1274.1
201904180803,1274.1,1274.3,1273.9,1273.9
201904180804,1273.9,1274.4,1273.9,1274.2
201904180805,1274.2,1274.3,1274.2,1274.2
201904180806,1274.2,1274.3,1274.1,1274.3
201904180807,1274.3,1274.3,1274.3,1274.3
201904180808,1274.3,1274.4,1274.3,1274.4
201904180809,1274.4,1274.4,1274.3,1274.4
201904180810,1274.4,1274.4,1274.4,1274.4
201904180811,1274.4,1274.4,1274.4,1274.4
201904180812,1274.4,1274.4,1274.4,1274.4
201904180813,1274.4,1274.4,1274.3,1274.4
201904180814,1274.4,1274.4,1274.3,1274.3
201904180815,1274.3,1274.3,1274,1274
201904180816,1274,1274.1,1274,1274.1
201904180817,1274.1,1274.1,1274.1,1274.1
201904180818,1274.1,1274.1,1274,1274.1
201904180819,1274.1,1274.1,1273.8,1273.9
201904180820,1273.9,1273.9,1273.8,1273.9
201904180821,1273.9,1273.9,1273.8,1273.8
201904180822,1273.8,1273.8,1273.8,1273.8
201904180823,1273.8,1273.8,1273.8,1273.8
201904180824,1273.8,1273.8,1273.8,1273.8
201904180825,1273.8,1273.9,1273.8,1273.8
201904180826,1273.8,1273.8,1273.8,1273.8
201904180827,1273.8,1273.8,1273.7,1273.7
201904180828,1273.7,1273.7,1273.6,1273.6
201904180829,1273.6,1273.7,1273.6,1273.7
201904180830,1273.7,1273.7,1273.7,1273.7
201904180831,1273.7,1273.7,1273.7,1273.7
201904180832,1273.7,1273.8,1273.7,1273.8
201904180833,1273.8,1273.8,1273.8,1273.8
201904180834,1273.8,1273.8,1273.7,1273.7
201904180835,1273.7,1273.7,1273.7,1273.7
201904180836,1273.7,1273.7,1273.6,1273.6
201904180837,1273.6,1273.7,1273.6,1273.7
201904180838,1273.7,1273.7,1273.7,1273.7
201904180839,1273.7,1273.7,1273.6,1273.7
201904180840,1273.7,1273.7,1273.7,1273.7
201904180841,1273.7,1273.9,1273.7,1273.9
201904180842,1273.9,1273.9,1273.8,1273.9
201904180843,1273.9,1273.9,1273.9,1273.9
201904180844,1273.9,1273.9,1273.8,1273.8
201904180845,1273.8,1273.9,1273.8,1273.8
201904180846,1273.8,1273.8,1273.8,1273.8
201904180847,1273.8,1273.8,1273.7,1273.8
201904180848,1273.8,1273.8,1273.8,1273.8
201904180849,1273.8,1274,1273.7,1274
201904180850,1274,1274,1273.8,1273.9
201904180851,1273.9,1273.9,1273.7,1273.7
201904180852,1273.7,1273.7,1273.7,1273.7
201904180853,1273.7,1273.8,1273.7,1273.8
201904180854,1273.8,1274.2,1273.8,1274.1
201904180855,1274.1,1274.1,1274,1274.1
201904180856,1274.1,1274.1,1274,1274
201904180857,1274,1274.1,1274,1274.1
201904180858,1274.1,1274.2,1274.1,1274.2
201904180859,1274.2,1274.2,1274.1,1274.1
201904180900,1274.1,1274.5,1274.1,1274.3
201904180901,1274.3,1274.4,1274.3,1274.4
201904180902,1274.4,1274.4,1274.4,1274.4
201904180903,1274.4,1274.4,1274.4,1274.4
201904180904,1274.4,1274.4,1274.1,1274.1
201904180905,1274.1,1274.2,1274.1,1274.2
201904180906,1274.2,1274.5,1274.2,1274.4
201904180907,1274.4,1274.4,1274.3,1274.3
201904180908,1274.3,1274.4,1274.2,1274.4
201904180909,1274.4,1274.6,1274.4,1274.5
201904180910,1274.5,1274.5,1274.3,1274.4
201904180911,1274.4,1274.4,1274.3,1274.3
201904180912,1274.3,1274.5,1274.3,1274.5
201904180913,1274.5,1274.5,1274.3,1274.3
201904180914,1274.3,1274.4,1274.3,1274.3
201904180915,1274.3,1274.3,1274.2,1274.2
201904180916,1274.2,1274.3,1274.1,1274.3
201904180917,1274.2,1274.3,1274.2,1274.3
201904180918,1274.3,1274.3,1274.1,1274.1
201904180919,1274.1,1274.1,1274,1274
201904180920,1274,1274.1,1274,1274.1
201904180921,1274.1,1274.1,1274,1274
201904180922,1274,1274,1274,1274
201904180923,1274,1274.2,1274,1274.1
201904180924,1274.1,1274.1,1274,1274.1
201904180925,1274.1,1274.1,1273.9,1274
201904180926,1274,1274.2,1274,1274.1
201904180927,1274.1,1274.2,1274.1,1274.1
201904180928,1274.1,1274.2,1274.1,1274.2
201904180929,1274.2,1274.3,1274.2,1274.2
201904180930,1274.2,1274.2,1274.2,1274.2
201904180931,1274.2,1274.4,1274.1,1274.4
201904180932,1274.4,1274.5,1274.3,1274.4
201904180933,1274.4,1274.4,1274.3,1274.4
201904180934,1274.4,1274.4,1274.3,1274.4
201904180935,1274.4,1274.4,1274.1,1274.2
201904180936,1274.2,1274.2,1274.2,1274.2
201904180937,1274.2,1274.2,1274.1,1274.1
201904180938,1274.1,1274.3,1274.1,1274.3
201904180939,1274.3,1274.3,1274.2,1274.3
201904180940,1274.3,1274.3,1274.2,1274.3
201904180941,1274.3,1274.4,1274.2,1274.3
201904180942,1274.3,1274.4,1274.3,1274.4
201904180943,1274.4,1274.6,1274.4,1274.6
201904180944,1274.6,1274.7,1274.6,1274.6
201904180945,1274.6,1274.6,1274.6,1274.6
201904180946,1274.6,1274.6,1274.5,1274.5
201904180947,1274.5,1274.5,1274.3,1274.3
201904180948,1274.3,1274.4,1274.3,1274.3
201904180949,1274.3,1274.4,1274.2,1274.3
201904180950,1274.3,1274.4,1274.3,1274.4
201904180951,1274.4,1274.5,1274.4,1274.5
201904180952,1274.5,1274.5,1274.4,1274.5
201904180953,1274.5,1274.5,1274.3,1274.4
201904180954,1274.4,1274.4,1274.2,1274.3
201904180955,1274.3,1274.4,1274.3,1274.3
201904180956,1274.3,1274.3,1274.2,1274.2
201904180957,1274.2,1274.2,1274.2,1274.2
201904180958,1274.2,1274.2,1274,1274.1
201904180959,1274.1,1274.3,1274.1,1274.3
201904181000,1274.3,1274.3,1273.8,1273.9
201904181001,1273.9,1273.9,1273.8,1273.8
201904181002,1273.8,1273.9,1273.8,1273.8
201904181003,1273.8,1273.8,1273.6,1273.6
201904181004,1273.6,1273.6,1273.5,1273.5
201904181005,1273.5,1273.5,1273.3,1273.3
201904181006,1273.3,1273.4,1273.2,1273.3
201904181007,1273.3,1273.4,1273.1,1273.2
201904181008,1273.3,1273.5,1273.3,1273.4
201904181009,1273.4,1273.5,1273.4,1273.5
201904181010,1273.4,1273.5,1273.4,1273.4
201904181011,1273.4,1273.5,1273.4,1273.5
201904181012,1273.5,1273.5,1273.5,1273.5
201904181013,1273.5,1273.5,1273.4,1273.5
201904181014,1273.5,1273.8,1273.5,1273.7
201904181015,1273.7,1273.7,1273.6,1273.7
201904181016,1273.7,1273.7,1273.6,1273.6
201904181017,1273.6,1273.6,1273.4,1273.4
201904181018,1273.4,1273.4,1273.3,1273.4
201904181019,1273.4,1273.6,1273.4,1273.6
201904181020,1273.6,1273.8,1273.6,1273.8
201904181021,1273.8,1273.8,1273.6,1273.7
201904181022,1273.7,1273.8,1273.6,1273.6
201904181023,1273.6,1273.6,1273.5,1273.5
201904181024,1273.5,1273.5,1273.4,1273.4
201904181025,1273.4,1273.4,1273.4,1273.4
201904181026,1273.4,1273.4,1273.3,1273.4
201904181027,1273.4,1273.5,1273.4,1273.4
201904181028,1273.4,1273.5,1273.3,1273.4
201904181029,1273.4,1273.6,1273.1,1273.1
201904181030,1273.1,1273.8,1273.1,1273.8
201904181031,1273.8,1273.9,1273.8,1273.9
201904181032,1273.9,1274.1,1273.8,1273.9
201904181033,1273.9,1274,1273.7,1273.7
201904181034,1273.7,1273.7,1273.6,1273.7
201904181035,1273.7,1273.7,1273.4,1273.4
201904181036,1273.4,1273.4,1273.1,1273.2
201904181037,1273.2,1273.3,1273.1,1273.1
201904181038,1273.1,1273.1,1273,1273.1
201904181039,1273.1,1273.1,1273,1273.1
201904181040,1273.1,1273.1,1271.8,1271.8
201904181041,1271.8,1272.4,1271.8,1272.4
201904181042,1272.4,1272.5,1272.1,1272.2
201904181043,1272.2,1272.6,1272.2,1272.6
201904181044,1272.6,1272.6,1272.4,1272.4
201904181045,1272.4,1272.4,1272.3,1272.3
201904181046,1272.3,1272.3,1272.1,1272.1
201904181047,1272.1,1272.3,1272.1,1272.3
201904181048,1272.3,1272.5,1272.3,1272.3
201904181049,1272.3,1272.3,1272.1,1272.2
201904181050,1272.2,1272.3,1272.2,1272.3
201904181051,1272.3,1272.3,1272.2,1272.3
201904181052,1272.3,1272.5,1272.3,1272.4
201904181053,1272.4,1272.6,1272.4,1272.4
201904181054,1272.4,1272.5,1272.3,1272.3
201904181055,1272.3,1272.5,1272.3,1272.4
201904181056,1272.4,1272.4,1272.1,1272.1
201904181057,1272.1,1272.1,1272,1272.1
201904181058,1272.1,1272.1,1272.1,1272.1
201904181059,1272.1,1272.2,1272.1,1272.1
201904181100,1272.1,1272.2,1272,1272.2
201904181101,1272.2,1272.3,1272.2,1272.2
201904181102,1272.2,1272.2,1272.1,1272.1
201904181103,1272.1,1272.1,1272,1272.1
201904181104,1272.1,1272.1,1272.1,1272.1
201904181105,1272.1,1272.2,1271.8,1271.9
201904181106,1271.9,1271.9,1271.8,1271.8
201904181107,1271.8,1271.8,1271.6,1271.6
201904181108,1271.6,1271.7,1271.5,1271.7
201904181109,1271.7,1271.7,1271.6,1271.6
201904181110,1271.6,1271.7,1271.5,1271.6
201904181111,1271.6,1271.7,1271.5,1271.7
201904181112,1271.7,1271.9,1271.7,1271.8
201904181113,1271.8,1271.9,1271.8,1271.8
201904181114,1271.8,1271.8,1271.7,1271.7
201904181115,1271.7,1271.8,1271.7,1271.7
201904181116,1271.7,1271.7,1271.6,1271.6
201904181117,1271.6,1271.8,1271.6,1271.8
201904181118,1271.8,1272.1,1271.8,1272
201904181119,1272,1272.1,1272,1272.1
201904181120,1272.1,1272.1,1272,1272
201904181121,1272,1272,1272,1272
201904181122,1272,1272.1,1272,1272.1
201904181123,1272.1,1272.1,1272.1,1272.1
201904181124,1272.1,1272.1,1272,1272
201904181125,1272,1272.1,1272,1272
201904181126,1272,1272.1,1272,1272
201904181127,1272,1272,1272,1272
201904181128,1272,1272.1,1272,1272.1
201904181129,1272.1,1272.2,1272,1272.2
201904181130,1272.2,1272.2,1272,1272
201904181131,1272,1272,1271.9,1271.9
201904181132,1271.9,1272,1271.9,1272
201904181133,1272,1272.1,1272,1272
201904181134,1272,1272.1,1271.9,1271.9
201904181135,1271.9,1271.9,1271.9,1271.9
201904181136,1271.9,1271.9,1271.8,1271.8
201904181137,1271.8,1271.8,1271.8,1271.8
201904181138,1271.8,1271.8,1271.7,1271.8
201904181139,1271.8,1271.9,1271.7,1271.8
201904181140,1271.9,1272,1271.8,1271.9
201904181141,1271.9,1272,1271.9,1272
201904181142,1272,1272,1271.9,1271.9
201904181143,1272,1272,1271.9,1271.9
201904181144,1271.9,1271.9,1271.8,1271.8
201904181145,1271.8,1271.9,1271.8,1271.8
201904181146,1271.8,1271.9,1271.8,1271.8
201904181147,1271.8,1271.8,1271.7,1271.7
201904181148,1271.7,1271.9,1271.7,1271.8
201904181149,1271.8,1271.9,1271.8,1271.8
201904181150,1271.8,1271.9,1271.8,1271.9
201904181151,1271.9,1272,1271.9,1271.9
201904181152,1271.9,1272,1271.9,1272
201904181153,1272,1272.1,1271.9,1272.1
201904181154,1272.1,1272.1,1272,1272.1
201904181155,1272.1,1272.2,1272.1,1272.1
201904181156,1272.1,1272.2,1272.1,1272.2
201904181157,1272.2,1272.2,1272.2,1272.2
201904181158,1272.2,1272.2,1272.2,1272.2
201904181159,1272.2,1272.2,1272.2,1272.2
201904181200,1272.2,1272.3,1272.2,1272.3
201904181201,1272.3,1272.3,1272.3,1272.3
201904181202,1272.3,1272.3,1272.2,1272.2
201904181203,1272.2,1272.2,1272.1,1272.2
201904181204,1272.2,1272.3,1272.1,1272.2
201904181205,1272.2,1272.2,1272.1,1272.1
201904181206,1272.1,1272.1,1272.1,1272.1
201904181207,1272.1,1272.1,1272,1272.1
201904181208,1272.1,1272.3,1272.1,1272.3
201904181209,1272.3,1272.3,1272.2,1272.2
201904181210,1272.2,1272.3,1272.2,1272.2
201904181211,1272.2,1272.3,1272.1,1272.2
201904181212,1272.2,1272.2,1272.1,1272.2
201904181213,1272.2,1272.2,1272.1,1272.1
201904181214,1272.2,1272.2,1272.2,1272.2
201904181215,1272.2,1272.2,1272.1,1272.1
201904181216,1272.1,1272.2,1272.1,1272.1
201904181217,1272.1,1272.2,1272.1,1272.1
201904181218,1272.1,1272.2,1272.1,1272.1
201904181219,1272.1,1272.3,1272.1,1272.3
201904181220,1272.3,1272.3,1272.2,1272.2
201904181221,1272.2,1272.2,1272.2,1272.2
201904181222,1272.2,1272.2,1272.1,1272.1
201904181223,1272.1,1272.1,1272,1272.1
201904181224,1272.1,1272.2,1272.1,1272.2
201904181225,1272.2,1272.2,1272.1,1272.1
201904181226,1272.1,1272.1,1272,1272.1
201904181227,1272.1,1272.1,1272.1,1272.1
201904181228,1272.1,1272.1,1272.1,1272.1
201904181229,1272.1,1272.1,1271.8,1271.8
201904181230,1271.8,1272.3,1271.8,1272.2
201904181231,1272.2,1272.2,1272.1,1272.2
201904181232,1272.2,1272.2,1272,1272.1
201904181233,1272.1,1272.1,1272.1,1272.1
201904181234,1272.1,1272.2,1272.1,1272.2
201904181235,1272.2,1272.2,1272.1,1272.1
201904181236,1272.1,1272.2,1272.1,1272.2
201904181237,1272.2,1272.2,1272.1,1272.2
201904181238,1272.2,1272.2,1272.1,1272.1
201904181239,1272.1,1272.3,1272.1,1272.3
201904181240,1272.3,1272.3,1272.2,1272.3
201904181241,1272.3,1272.3,1272.3,1272.3
201904181242,1272.3,1272.4,1272.3,1272.3
201904181243,1272.3,1272.4,1272,1272.1
201904181244,1272.1,1272.1,1272,1272
201904181245,1272,1272.2,1272,1272.2
201904181246,1272.2,1272.4,1272.2,1272.3
201904181247,1272.3,1272.3,1272.2,1272.2
201904181248,1272.2,1272.2,1272.1,1272.2
201904181249,1272.2,1272.2,1272.2,1272.2
201904181250,1272.2,1272.2,1272.1,1272.2
201904181251,1272.2,1272.2,1272.1,1272.1
201904181252,1272.1,1272.3,1272.1,1272.3
201904181253,1272.3,1272.3,1272.3,1272.3
201904181254,1272.3,1272.3,1272.3,1272.3
201904181255,1272.3,1272.3,1272.3,1272.3
201904181256,1272.3,1272.3,1272.3,1272.3
201904181257,1272.3,1272.3,1272.3,1272.3
201904181258,1272.3,1272.4,1272.3,1272.4
201904181259,1272.4,1272.5,1272.3,1272.5
201904181300,1272.5,1272.5,1272.3,1272.3
201904181301,1272.3,1272.4,1272.3,1272.4
201904181302,1272.4,1272.4,1272.4,1272.4
201904181303,1272.4,1272.4,1272.3,1272.4
201904181304,1272.4,1272.4,1272.2,1272.3
201904181305,1272.3,1272.3,1272.3,1272.3
201904181306,1272.3,1272.5,1272.3,1272.4
201904181307,1272.4,1272.4,1272.3,1272.4
201904181308,1272.4,1272.4,1272.3,1272.4
201904181309,1272.4,1272.4,1272.3,1272.4
201904181310,1272.4,1272.4,1272.3,1272.3
201904181311,1272.3,1272.4,1272.3,1272.3
201904181312,1272.3,1272.3,1272.3,1272.3
201904181313,1272.3,1272.3,1272.2,1272.2
201904181314,1272.2,1272.2,1272.2,1272.2
201904181315,1272.2,1272.2,1272.2,1272.2
201904181316,1272.2,1272.2,1272.2,1272.2
201904181317,1272.2,1272.2,1271.9,1271.9
201904181318,1271.9,1271.9,1271.8,1271.9
201904181319,1271.9,1271.9,1271.8,1271.8
201904181320,1271.8,1271.9,1271.8,1271.9
201904181321,1271.9,1272,1271.9,1272
201904181322,1272,1272,1272,1272
201904181323,1272,1272,1272,1272
201904181324,1272,1272,1272,1272
201904181325,1272,1272,1272,1272
201904181326,1272,1272,1272,1272
201904181327,1272,1272,1271.9,1271.9
201904181328,1271.9,1271.9,1271.9,1271.9
201904181329,1271.9,1272,1271.9,1271.9
201904181330,1271.9,1271.9,1271.8,1271.8
201904181331,1271.8,1271.9,1271.8,1271.9
201904181332,1271.9,1271.9,1271.8,1271.8
201904181333,1271.8,1271.8,1271.8,1271.8
201904181334,1271.8,1271.8,1271.6,1271.6
201904181335,1271.6,1271.8,1271.5,1271.8
201904181336,1271.8,1271.8,1271.7,1271.7
201904181337,1271.7,1271.8,1271.7,1271.7
201904181338,1271.7,1271.7,1271.7,1271.7
201904181339,1271.7,1271.8,1271.7,1271.8
201904181340,1271.8,1271.8,1271.8,1271.8
201904181341,1271.8,1271.8,1271.7,1271.7
201904181342,1271.7,1271.7,1271.7,1271.7
201904181343,1271.7,1271.7,1271.7,1271.7
201904181344,1271.7,1271.8,1271.7,1271.8
201904181345,1271.7,1271.7,1271.6,1271.6
201904181346,1271.6,1271.6,1271.6,1271.6
201904181347,1271.6,1271.6,1271.6,1271.6
201904181348,1271.6,1271.7,1271.5,1271.7
201904181349,1271.7,1271.7,1271.6,1271.6
201904181350,1271.6,1271.7,1271.6,1271.7
201904181351,1271.7,1271.8,1271.7,1271.8
201904181352,1271.8,1272,1271.8,1272
201904181353,1272,1272,1271.9,1271.9
201904181354,1271.9,1271.9,1271.9,1271.9
201904181355,1271.9,1272,1271.9,1272
201904181356,1272,1272,1272,1272
201904181357,1272,1272.1,1272,1272.1
201904181358,1272.1,1272.1,1272,1272
201904181359,1272,1272,1272,1272
201904181400,1272,1272.1,1272,1272.1
201904181401,1272.1,1272.2,1272,1272
201904181402,1272,1272.2,1272,1272.2
201904181403,1272.2,1272.2,1272.1,1272.1
201904181404,1272.1,1272.2,1272.1,1272.1
201904181405,1272.1,1272.2,1272.1,1272.2
201904181406,1272.2,1272.2,1272.2,1272.2
201904181407,1272.2,1272.2,1272.1,1272.2
201904181408,1272.2,1272.2,1272.2,1272.2
201904181409,1272.2,1272.2,1272.2,1272.2
201904181410,1272.2,1272.2,1272.2,1272.2
201904181411,1272.2,1272.2,1272.2,1272.2
201904181412,1272.2,1272.2,1272.1,1272.1
201904181413,1272.1,1272.1,1272,1272
201904181414,1272,1272.2,1272,1272.2
201904181415,1272.2,1272.2,1272.1,1272.1
201904181416,1272.1,1272.2,1272.1,1272.1
201904181417,1272.1,1272.2,1272.1,1272.2
201904181418,1272.1,1272.2,1272.1,1272.1
201904181419,1272.1,1272.2,1272.1,1272.2
201904181420,1272.2,1272.2,1272,1272
201904181421,1272,1272,1271.9,1272
201904181422,1272,1272,1271.9,1271.9
201904181423,1271.9,1271.9,1271.8,1271.8
201904181424,1271.9,1271.9,1271.8,1271.8
201904181425,1271.8,1271.8,1271.7,1271.8
201904181426,1271.8,1271.8,1271.7,1271.7
201904181427,1271.7,1271.7,1271.6,1271.7
201904181428,1271.7,1271.7,1271.7,1271.7
201904181429,1271.7,1271.7,1271.7,1271.7
201904181430,1271.7,1271.9,1271.7,1271.9
201904181431,1271.9,1272.1,1271.8,1272.1
201904181432,1272.1,1272.1,1272,1272
201904181433,1272,1272.2,1272,1272.2
201904181434,1272.2,1272.3,1272.2,1272.3
201904181435,1272.3,1272.3,1272.2,1272.2
201904181436,1272.2,1272.2,1272.1,1272.2
201904181437,1272.2,1272.2,1272.1,1272.1
201904181438,1272.1,1272.2,1272.1,1272.2
201904181439,1272.2,1272.3,1272.2,1272.2
201904181440,1272.2,1272.2,1272.1,1272.1
201904181441,1272.1,1272.2,1272.1,1272.1
201904181442,1272.1,1272.2,1272.1,1272.1
201904181443,1272.1,1272.3,1272,1272.3
201904181444,1272.3,1272.3,1272.2,1272.2
201904181445,1272.2,1272.2,1272.2,1272.2
201904181446,1272.2,1272.3,1272.2,1272.3
201904181447,1272.3,1272.4,1272.3,1272.4
201904181448,1272.4,1272.4,1272.3,1272.3
201904181449,1272.3,1272.4,1272.2,1272.2
201904181450,1272.2,1272.3,1272.2,1272.3
201904181451,1272.3,1272.3,1272.2,1272.3
201904181452,1272.3,1272.4,1272.3,1272.4
201904181453,1272.4,1272.4,1272.4,1272.4
201904181454,1272.4,1272.4,1272.4,1272.4
201904181455,1272.4,1272.4,1272.4,1272.4
201904181456,1272.4,1272.4,1272.3,1272.4
201904181457,1272.4,1272.4,1272.2,1272.2
201904181458,1272.2,1272.3,1272.1,1272.2
201904181459,1272.2,1272.2,1272.2,1272.2
201904181500,1272.2,1272.2,1271.7,1271.7
201904181501,1271.7,1271.9,1271.7,1271.9
201904181502,1271.9,1271.9,1271.8,1271.8
201904181503,1271.8,1271.8,1271.8,1271.8
201904181504,1271.8,1271.9,1271.7,1271.8
201904181505,1271.8,1272,1271.8,1272
201904181506,1272,1272,1271.9,1271.9
201904181507,1271.9,1271.9,1271.8,1271.9
201904181508,1271.9,1272,1271.8,1272
201904181509,1272,1272,1271.9,1272
201904181510,1272,1272,1271.8,1271.8
201904181511,1271.8,1271.9,1271.8,1271.9
201904181512,1271.9,1272.2,1271.9,1272.1
201904181513,1272.1,1272.3,1272.1,1272.3
201904181514,1272.3,1272.3,1272.3,1272.3
201904181515,1272.3,1272.3,1272.2,1272.3
201904181516,1272.3,1272.3,1272.1,1272.1
201904181517,1272.2,1272.4,1271.6,1271.7
201904181518,1271.7,1271.9,1271.6,1271.7
201904181519,1271.7,1271.9,1271.7,1271.8
201904181520,1271.8,1272,1271.7,1272
201904181521,1272,1272.1,1271.8,1272.1
201904181522,1272.1,1272.2,1272,1272.1
201904181523,1272.1,1272.4,1272.1,1272.3
201904181524,1272.3,1272.3,1272.2,1272.3
201904181525,1272.3,1272.4,1272.2,1272.2
201904181526,1272.2,1272.2,1272.2,1272.2
201904181527,1272.2,1272.2,1272.1,1272.1
201904181528,1272.1,1272.1,1271.9,1271.9
201904181529,1271.9,1272.1,1271.9,1272
201904181530,1272,1272,1271.7,1271.9
201904181531,1271.9,1271.9,1271.8,1271.9
201904181532,1271.9,1271.9,1271.9,1271.9
201904181533,1271.9,1271.9,1271.8,1271.9
201904181534,1271.9,1272.1,1271.8,1272.1
201904181535,1272.1,1272.1,1272,1272.1
201904181536,1272.1,1272.1,1271.9,1271.9
201904181537,1271.9,1272.1,1271.8,1271.8
201904181538,1271.8,1272,1271.8,1271.9
201904181539,1271.9,1271.9,1271.7,1271.8
201904181540,1271.8,1271.8,1271.4,1271.6
201904181541,1271.6,1271.6,1271.5,1271.5
201904181542,1271.5,1271.5,1271.2,1271.2
201904181543,1271.2,1271.3,1271.2,1271.2
201904181544,1271.2,1271.3,1271,1271.2
201904181545,1271.2,1271.4,1271.2,1271.4
201904181546,1271.4,1271.4,1271.2,1271.4
201904181547,1271.4,1271.5,1271.3,1271.5
201904181548,1271.5,1271.6,1271.4,1271.5
201904181549,1271.5,1271.6,1271.5,1271.5
201904181550,1271.5,1271.6,1271.5,1271.6
201904181551,1271.6,1271.6,1271.6,1271.6
201904181552,1271.6,1271.6,1271.5,1271.5
201904181553,1271.5,1271.6,1271.5,1271.6
201904181554,1271.6,1271.6,1271.3,1271.4
201904181555,1271.4,1271.7,1271.4,1271.7
201904181556,1271.7,1271.8,1271.7,1271.8
201904181557,1271.8,1271.9,1271.7,1271.8
201904181558,1271.8,1271.8,1271.6,1271.6
201904181559,1271.6,1271.7,1271.6,1271.7
201904181600,1271.7,1271.7,1271.4,1271.5
201904181601,1271.5,1271.6,1271.2,1271.4
201904181602,1271.4,1271.7,1271.4,1271.7
201904181603,1271.7,1271.7,1271.6,1271.7
201904181604,1271.7,1271.8,1271.7,1271.8
201904181605,1271.8,1272,1271.7,1271.9
201904181606,1271.9,1272.1,1271.9,1272
201904181607,1272,1272.1,1272,1272.1
201904181608,1272.1,1272.3,1272,1272.2
201904181609,1272.3,1272.7,1272.3,1272.5
201904181610,1272.5,1272.7,1272.4,1272.7
201904181611,1272.7,1272.8,1272.6,1272.7
201904181612,1272.7,1272.8,1272.5,1272.7
201904181613,1272.7,1272.7,1272.6,1272.7
201904181614,1272.7,1272.7,1272.5,1272.6
201904181615,1272.6,1273.1,1272.6,1273.1
201904181616,1273.1,1273.2,1273,1273.2
201904181617,1273.2,1273.5,1273.1,1273.3
201904181618,1273.3,1273.5,1273.3,1273.3
201904181619,1273.3,1273.6,1273.3,1273.6
201904181620,1273.6,1274,1273.6,1273.8
201904181621,1273.7,1273.7,1273.5,1273.5
201904181622,1273.5,1273.7,1273.5,1273.7
201904181623,1273.7,1273.7,1273.6,1273.6
201904181624,1273.6,1273.8,1273.6,1273.7
201904181625,1273.7,1273.8,1273.7,1273.8
201904181626,1273.8,1274.2,1273.7,1274.1
201904181627,1274.2,1274.2,1274,1274.1
201904181628,1274.1,1274.1,1273.8,1273.9
201904181629,1273.9,1274.1,1273.9,1274
201904181630,1274,1274.2,1273.5,1274.2
201904181631,1274.2,1274.3,1274,1274.3
201904181632,1274.3,1274.6,1274.2,1274.5
201904181633,1274.5,1274.5,1273.9,1274
201904181634,1274,1274.5,1274,1274.3
201904181635,1274.3,1274.4,1274.2,1274.3
201904181636,1274.3,1274.3,1274.1,1274.2
201904181637,1274.2,1274.3,1274.2,1274.2
201904181638,1274.2,1274.3,1273.9,1274.2
201904181639,1274.2,1274.2,1273.8,1273.8
201904181640,1273.8,1274,1273.8,1273.9
201904181641,1273.9,1274.1,1273.7,1274.1
201904181642,1274.1,1274.1,1274,1274
201904181643,1274,1274.2,1274,1274.1
201904181644,1274.1,1274.2,1274.1,1274.2
201904181645,1274.2,1274.2,1274,1274.1
201904181646,1274.1,1274.3,1274.1,1274.3
201904181647,1274.3,1274.5,1274.3,1274.4
201904181648,1274.4,1274.5,1274.3,1274.3
201904181649,1274.3,1274.3,1274.1,1274.1
201904181650,1274.1,1274.3,1274.1,1274.3
201904181651,1274.3,1274.3,1274.3,1274.3
201904181652,1274.3,1274.4,1274.3,1274.3
201904181653,1274.3,1274.5,1274.3,1274.3
201904181654,1274.3,1274.5,1274.2,1274.4
201904181655,1274.4,1274.8,1274.4,1274.7
201904181656,1274.7,1274.7,1274.5,1274.6
201904181657,1274.6,1274.8,1274.6,1274.8
201904181658,1274.8,1276,1274.7,1275.6
201904181659,1275.6,1275.9,1275.1,1275.1
201904181700,1275.1,1275.2,1274.6,1274.8
201904181701,1274.8,1275.1,1274.8,1275.1
201904181702,1275.1,1275.2,1274.9,1275.2
201904181703,1275.2,1275.4,1275.2,1275.2
201904181704,1275.2,1275.2,1275.1,1275.1
201904181705,1275.1,1275.3,1275.1,1275.1
201904181706,1275.1,1275.4,1275.1,1275.2
201904181707,1275.2,1275.2,1274.7,1274.7
201904181708,1274.7,1274.9,1274.6,1274.9
201904181709,1274.9,1275.1,1274.9,1275
201904181710,1275,1275,1274.8,1274.8
201904181711,1274.8,1275,1274.7,1274.9
201904181712,1274.9,1275,1274.6,1274.6
201904181713,1274.6,1274.6,1274.4,1274.6
201904181714,1274.6,1274.8,1274.6,1274.7
201904181715,1274.7,1275,1274.5,1274.7
201904181716,1274.8,1274.8,1274.6,1274.8
201904181717,1274.8,1274.8,1274.6,1274.7
201904181718,1274.7,1274.9,1274.5,1274.6
201904181719,1274.6,1274.7,1274.6,1274.6
201904181720,1274.6,1274.7,1274.5,1274.7
201904181721,1274.7,1274.8,1274.7,1274.8
201904181722,1274.8,1274.9,1274.7,1274.8
201904181723,1274.8,1274.9,1274.8,1274.9
201904181724,1274.9,1275,1274.6,1274.6
201904181725,1274.6,1274.9,1274.6,1274.8
201904181726,1274.8,1274.8,1274.6,1274.8
201904181727,1274.8,1274.8,1274.7,1274.7
201904181728,1274.7,1274.9,1274.7,1274.8
201904181729,1274.8,1274.8,1274.6,1274.7
201904181730,1274.7,1274.7,1274.6,1274.6
201904181731,1274.6,1274.7,1274.6,1274.7
201904181732,1274.7,1274.8,1274.7,1274.8
201904181733,1274.8,1275.1,1274.8,1275
201904181734,1275.1,1275.1,1274.9,1274.9
201904181735,1274.9,1275.2,1274.9,1275.2
201904181736,1275.2,1275.2,1275,1275
201904181737,1275,1275.3,1275,1275.2
201904181738,1275.3,1275.3,1275.1,1275.2
201904181739,1275.2,1275.2,1275.1,1275.2
201904181740,1275.2,1275.6,1275.1,1275.5
201904181741,1275.5,1275.6,1275.4,1275.5
201904181742,1275.5,1275.5,1275.5,1275.5
201904181743,1275.5,1275.8,1275.5,1275.6
201904181744,1275.6,1275.8,1275.6,1275.7
201904181745,1275.7,1275.7,1275.5,1275.5
201904181746,1275.5,1275.5,1275.3,1275.4
201904181747,1275.4,1275.5,1275.3,1275.3
201904181748,1275.3,1275.6,1275.3,1275.6
201904181749,1275.6,1275.6,1275.4,1275.4
201904181750,1275.4,1275.4,1275.2,1275.4
201904181751,1275.4,1275.4,1275.4,1275.4
201904181752,1275.4,1275.5,1275.2,1275.5
201904181753,1275.5,1275.8,1275.5,1275.7
201904181754,1275.7,1275.7,1275.6,1275.6
201904181755,1275.6,1275.9,1275.6,1275.8
201904181756,1275.8,1275.9,1275.7,1275.8
201904181757,1275.8,1275.9,1275.7,1275.9
201904181758,1275.9,1275.9,1275.8,1275.9
201904181759,1275.9,1276,1275.8,1275.8
201904181800,1275.8,1275.8,1275.5,1275.5
201904181801,1275.5,1275.6,1275.5,1275.6
201904181802,1275.6,1276,1275.6,1276
201904181803,1276,1276.2,1275.9,1276.1
201904181804,1276.1,1276.2,1276,1276.2
201904181805,1276.2,1276.8,1276.2,1276.7
201904181806,1276.7,1276.7,1276.4,1276.6
201904181807,1276.6,1276.6,1276.5,1276.5
201904181808,1276.5,1276.6,1276.5,1276.5
201904181809,1276.5,1276.5,1276.4,1276.5
201904181810,1276.5,1276.6,1276.5,1276.6
201904181811,1276.6,1276.8,1276.6,1276.8
201904181812,1276.8,1277.3,1276.8,1277.3
201904181813,1277.3,1277.3,1277.1,1277.2
201904181814,1277.2,1277.5,1277.2,1277.4
201904181815,1277.4,1277.5,1277.4,1277.5
201904181816,1277.5,1277.5,1277.4,1277.4
201904181817,1277.4,1277.4,1277.3,1277.3
201904181818,1277.3,1277.3,1277,1277
201904181819,1277,1277.1,1277,1277.1
201904181820,1277.1,1277.2,1276.9,1276.9
201904181821,1276.9,1276.9,1276.7,1276.8
201904181822,1276.8,1276.8,1276.6,1276.6
201904181823,1276.6,1276.7,1276.6,1276.6
201904181824,1276.6,1276.6,1276.4,1276.5
201904181825,1276.5,1276.5,1276.1,1276.1
201904181826,1276.1,1276.4,1276.1,1276.3
201904181827,1276.3,1276.3,1276.2,1276.2
201904181828,1276.2,1276.3,1276.2,1276.3
201904181829,1276.3,1276.4,1276.2,1276.3
201904181830,1276.3,1276.4,1276.1,1276.1
201904181831,1276.1,1276.3,1276.1,1276.3
201904181832,1276.3,1276.3,1276,1276.1
201904181833,1276.1,1276.1,1275.9,1276
201904181834,1276,1276.2,1276,1276.2
201904181835,1276.2,1276.2,1276.1,1276.1
201904181836,1276.1,1276.2,1276,1276.2
201904181837,1276.2,1276.2,1276.1,1276.1
201904181838,1276.1,1276.2,1276.1,1276.1
201904181839,1276.1,1276.2,1275.9,1276.1
201904181840,1276.1,1276.4,1276.1,1276.2
201904181841,1276.2,1276.2,1275.9,1275.9
201904181842,1275.9,1276,1275.9,1275.9
201904181843,1275.9,1276.1,1275.8,1276.1
201904181844,1276.1,1276.1,1276,1276
201904181845,1276,1276,1275.9,1276
201904181846,1276,1276,1275.9,1276
201904181847,1276,1276,1275.8,1275.8
201904181848,1275.8,1275.8,1275.4,1275.5
201904181849,1275.5,1275.7,1275.5,1275.7
201904181850,1275.7,1275.7,1275.4,1275.5
201904181851,1275.5,1275.6,1275.2,1275.2
201904181852,1275.2,1275.3,1275,1275.1
201904181853,1275.1,1275.3,1275.1,1275.3
201904181854,1275.3,1275.5,1275.3,1275.5
201904181855,1275.5,1275.5,1275.4,1275.5
201904181856,1275.5,1275.5,1275.3,1275.5
201904181857,1275.5,1275.6,1275.3,1275.6
201904181858,1275.6,1275.6,1275.5,1275.6
201904181859,1275.5,1275.6,1275.4,1275.5
201904181900,1275.5,1275.5,1275.3,1275.3
201904181901,1275.3,1275.5,1275.3,1275.4
201904181902,1275.4,1275.4,1275.2,1275.2
201904181903,1275.2,1275.3,1275.1,1275.2
201904181904,1275.2,1275.2,1274.5,1274.6
201904181905,1274.6,1275,1274.6,1275
201904181906,1275,1275.3,1274.9,1275.1
201904181907,1275.2,1275.6,1275.1,1275.6
201904181908,1275.6,1275.8,1275.6,1275.6
201904181909,1275.6,1275.8,1275.6,1275.7
201904181910,1275.7,1275.7,1275.3,1275.4
201904181911,1275.4,1275.6,1275.4,1275.6
201904181912,1275.6,1275.6,1275.5,1275.6
201904181913,1275.6,1275.7,1275.6,1275.6
201904181914,1275.6,1275.6,1275.4,1275.4
201904181915,1275.4,1275.4,1275.4,1275.4
201904181916,1275.4,1275.4,1275.3,1275.4
201904181917,1275.4,1275.4,1275.3,1275.4
201904181918,1275.4,1275.4,1275.2,1275.2
201904181919,1275.2,1275.2,1275.1,1275.1
201904181920,1275.1,1275.1,1275.1,1275.1
201904181921,1275.1,1275.2,1275.1,1275.2
201904181922,1275.2,1275.4,1275.2,1275.4
201904181923,1275.3,1275.5,1275.3,1275.4
201904181924,1275.4,1275.4,1275.1,1275.2
201904181925,1275.2,1275.3,1275.2,1275.3
201904181926,1275.3,1275.4,1275.3,1275.4
201904181927,1275.4,1275.4,1275.3,1275.3
201904181928,1275.3,1275.3,1275.3,1275.3
201904181929,1275.3,1275.4,1275.2,1275.4
201904181930,1275.4,1275.5,1275.4,1275.4
201904181931,1275.4,1275.6,1275.4,1275.5
201904181932,1275.5,1275.5,1275.4,1275.4
201904181933,1275.4,1275.4,1275.3,1275.3
201904181934,1275.3,1275.3,1275.1,1275.1
201904181935,1275.1,1275.1,1274.9,1274.9
201904181936,1274.9,1275.1,1274.8,1275
201904181937,1275,1275.1,1274.7,1274.8
201904181938,1274.8,1274.9,1274.8,1274.9
201904181939,1274.9,1275.1,1274.7,1274.7
201904181940,1274.7,1274.7,1274.6,1274.7
201904181941,1274.7,1274.9,1274.6,1274.8
201904181942,1274.8,1274.9,1274.8,1274.9
201904181943,1274.9,1275,1274.9,1275
201904181944,1275,1275,1274.7,1274.7
201904181945,1274.7,1274.9,1274.7,1274.9
201904181946,1274.9,1275.2,1274.9,1275.2
201904181947,1275.2,1275.3,1275.2,1275.2
201904181948,1275.2,1275.3,1275.2,1275.3
201904181949,1275.3,1275.3,1275.1,1275.3
201904181950,1275.3,1275.5,1275.3,1275.5
201904181951,1275.5,1275.5,1275.3,1275.4
201904181952,1275.4,1275.4,1275.2,1275.2
201904181953,1275.2,1275.3,1275.1,1275.1
201904181954,1275.1,1275.3,1275.1,1275.2
201904181955,1275.2,1275.2,1275.1,1275.1
201904181956,1275.1,1275.2,1275,1275
201904181957,1275,1275.2,1275,1275
201904181958,1275,1275.3,1275,1275.3
201904181959,1275.3,1275.4,1275.2,1275.4
201904182000,1275.4,1275.4,1275.1,1275.1
201904182001,1275.1,1275.3,1275.1,1275.3
201904182002,1275.3,1275.3,1275.3,1275.3
201904182003,1275.3,1275.3,1275.3,1275.3
201904182004,1275.3,1275.4,1275.2,1275.2
201904182005,1275.2,1275.2,1275.2,1275.2
201904182006,1275.2,1275.2,1275.1,1275.1
201904182007,1275.1,1275.2,1275.1,1275.1
201904182008,1275.1,1275.1,1275,1275.1
201904182009,1275.1,1275.2,1275.1,1275.2
201904182010,1275.2,1275.2,1275.2,1275.2
201904182011,1275.2,1275.3,1275.2,1275.2
201904182012,1275.2,1275.2,1275.1,1275.1
201904182013,1275.1,1275.1,1274.9,1275
201904182014,1275,1275,1274.8,1274.9
201904182015,1274.9,1275.4,1274.9,1275.4
201904182016,1275.4,1275.4,1275.3,1275.3
201904182017,1275.3,1275.3,1275.3,1275.3
201904182018,1275.3,1275.3,1275.3,1275.3
201904182019,1275.3,1275.3,1275.2,1275.3
201904182020,1275.3,1275.3,1275.3,1275.3
201904182021,1275.3,1275.4,1275.1,1275.1
201904182022,1275.1,1275.2,1275.1,1275.2
201904182023,1275.2,1275.2,1275.1,1275.1
201904182024,1275.1,1275.1,1275,1275
201904182025,1275,1275.1,1275,1275
201904182026,1275,1275.1,1275,1275.1
201904182027,1275.1,1275.2,1275.1,1275.1
201904182028,1275,1275.3,1275,1275
201904182029,1275,1275.1,1274.9,1275.1
201904182030,1275.1,1275.1,1275,1275.1
201904182031,1275.1,1275.2,1275.1,1275.2
201904182032,1275.2,1275.2,1275.2,1275.2
201904182033,1275.2,1275.5,1275.2,1275.5
201904182034,1275.5,1275.7,1275.5,1275.7
201904182035,1275.7,1275.8,1275.7,1275.8
201904182036,1275.8,1275.9,1275.8,1275.8
201904182037,1275.8,1275.8,1275.7,1275.7
201904182038,1275.7,1275.9,1275.7,1275.8
201904182039,1275.8,1275.8,1275.7,1275.8
201904182040,1275.8,1276.1,1275.8,1276.1
201904182041,1276.1,1276.3,1276.1,1276.3
201904182042,1276.3,1276.4,1276.3,1276.3
201904182043,1276.3,1276.3,1276.2,1276.2
201904182044,1276.2,1276.4,1276.2,1276.4
201904182045,1276.4,1276.6,1276.4,1276.5
201904182046,1276.5,1276.6,1276.5,1276.5
201904182047,1276.5,1276.8,1276.4,1276.8
201904182048,1276.8,1276.8,1276.7,1276.8
201904182049,1276.8,1276.8,1276.4,1276.4
201904182050,1276.4,1276.5,1276.1,1276.1
201904182051,1276.1,1276.4,1276,1276.2
201904182052,1276.2,1276.3,1276,1276.3
201904182053,1276.3,1276.5,1276.2,1276.5
201904182054,1276.5,1276.5,1276.3,1276.3
201904182055,1276.3,1276.3,1276,1276.1
201904182056,1276,1276.2,1276,1276
201904182057,1276,1276,1275.9,1276
201904182058,1276,1276.1,1275.9,1276.1
201904182059,1276.1,1276.3,1276.1,1276.2
201904182100,1276.2,1276.2,1276.1,1276.1
201904182101,1276.1,1276.3,1276,1276.1
201904182102,1276.1,1276.4,1276,1276.4
201904182103,1276.4,1276.4,1276.4,1276.4
201904182104,1276.4,1276.5,1276.2,1276.4
201904182105,1276.4,1276.4,1276.1,1276.2
201904182106,1276.2,1276.2,1275.9,1276
201904182107,1276,1276,1275.9,1276
201904182108,1276,1276.3,1276,1276
201904182109,1276,1276.2,1276,1276.1
201904182110,1276.1,1276.1,1276,1276.1
201904182111,1276.1,1276.3,1276.1,1276.2
201904182112,1276.2,1276.4,1276.1,1276.4
201904182113,1276.4,1276.4,1276.2,1276.3
201904182114,1276.3,1276.8,1276.3,1276.7
201904182115,1276.7,1276.7,1276.3,1276.5
201904182116,1276.5,1276.7,1276.5,1276.6
201904182117,1276.7,1276.8,1276.4,1276.4
201904182118,1276.4,1276.4,1276.1,1276.1
201904182119,1276.1,1276.1,1275.8,1275.8
201904182120,1275.8,1275.8,1275.5,1275.7
201904182121,1275.7,1276.1,1275.7,1275.9
201904182122,1275.9,1276.2,1275.9,1276.2
201904182123,1276.2,1276.6,1276.2,1276.5
201904182124,1276.5,1276.5,1276.1,1276.1
201904182125,1276.1,1276.3,1275.9,1276.2
201904182126,1276.2,1276.2,1276,1276
201904182127,1276.1,1276.1,1275.9,1275.9
201904182128,1275.9,1276,1275.9,1275.9
201904182129,1275.9,1275.9,1275.6,1275.9
201904182130,1275.9,1275.9,1273.2,1273.6
201904182131,1273.6,1273.7,1273.1,1273.5
201904182132,1273.5,1273.7,1273.1,1273.3
201904182133,1273.3,1273.5,1272.6,1273.5
201904182134,1273.5,1274.3,1273.4,1274.1
201904182135,1274.1,1274.2,1273.7,1274.2
201904182136,1274.2,1274.7,1274.1,1274.6
201904182137,1274.6,1274.6,1273.9,1274.2
201904182138,1274.2,1274.9,1274.2,1274.8
201904182139,1274.7,1274.8,1274.5,1274.6
201904182140,1274.6,1274.7,1274.1,1274.3
201904182141,1274.3,1274.6,1274.3,1274.3
201904182142,1274.3,1275,1274.3,1274.9
201904182143,1274.9,1274.9,1274.5,1274.6
201904182144,1274.6,1274.6,1274.2,1274.3
201904182145,1274.3,1274.5,1273.9,1274.1
201904182146,1274.1,1274.4,1273.9,1274.2
201904182147,1274.2,1274.2,1273.8,1274
201904182148,1274,1274.5,1273.9,1274.4
201904182149,1274.4,1274.4,1274.1,1274.1
201904182150,1274.1,1274.2,1273.9,1274
201904182151,1274,1274.2,1273.8,1274.2
201904182152,1274.2,1274.2,1273.9,1274
201904182153,1274,1274.4,1273.9,1274.2
201904182154,1274.2,1274.3,1274.2,1274.2
201904182155,1274.2,1274.3,1273.9,1273.9
201904182156,1273.9,1274.1,1273.8,1273.8
201904182157,1273.8,1273.9,1273.6,1273.8
201904182158,1273.8,1274.2,1273.6,1273.6
201904182159,1273.6,1273.8,1273.6,1273.6
201904182200,1273.6,1273.7,1273,1273
201904182201,1272.9,1273.3,1272.8,1273.1
201904182202,1273.1,1273.7,1273.1,1273.6
201904182203,1273.6,1273.8,1273.2,1273.3
201904182204,1273.3,1273.7,1273.2,1273.7
201904182205,1273.7,1273.9,1273.5,1273.6
201904182206,1273.6,1273.6,1273.5,1273.5
201904182207,1273.5,1273.6,1273.4,1273.4
201904182208,1273.4,1273.5,1273.2,1273.4
201904182209,1273.4,1273.7,1273.4,1273.4
201904182210,1273.4,1273.5,1273.3,1273.3
201904182211,1273.3,1273.3,1272.8,1272.9
201904182212,1272.9,1273.2,1272.8,1273.2
201904182213,1273.2,1273.6,1273,1273.6
201904182214,1273.6,1273.8,1273.2,1273.4
201904182215,1273.4,1273.5,1273.3,1273.3
201904182216,1273.3,1273.3,1273,1273
201904182217,1273,1273.2,1273,1273.1
201904182218,1273.1,1273.4,1273.1,1273.4
201904182219,1273.4,1274.1,1273.4,1274.1
201904182220,1274.1,1274.6,1274.1,1274.6
201904182221,1274.5,1274.5,1274.2,1274.3
201904182222,1274.3,1274.3,1274.2,1274.2
201904182223,1274.2,1274.3,1274.2,1274.2
201904182224,1274.2,1274.3,1274.1,1274.3
201904182225,1274.3,1274.3,1273.4,1273.4
201904182226,1273.4,1273.4,1273.1,1273.3
201904182227,1273.3,1273.3,1272.9,1272.9
201904182228,1272.9,1273.3,1272.8,1273.3
201904182229,1273.3,1273.5,1273.2,1273.4
201904182230,1273.4,1273.6,1273.2,1273.3
201904182231,1273.3,1273.6,1273.3,1273.4
201904182232,1273.4,1274.2,1273.4,1274.2
201904182233,1274.2,1274.2,1273.9,1274
201904182234,1274,1274.2,1273.9,1274
201904182235,1274.1,1274.1,1273.9,1274
201904182236,1274,1274.3,1273.9,1274.3
201904182237,1274.3,1274.4,1273.9,1274.1
201904182238,1274.1,1274.3,1274,1274.2
201904182239,1274.2,1274.4,1274.2,1274.3
201904182240,1274.2,1274.5,1274.1,1274.4
201904182241,1274.4,1274.6,1274.3,1274.5
201904182242,1274.5,1274.8,1274.5,1274.7
201904182243,1274.7,1274.7,1274.3,1274.3
201904182244,1274.3,1274.4,1274.2,1274.3
201904182245,1274.3,1275.6,1274.3,1275.1
201904182246,1275.1,1275.3,1274.9,1275.2
201904182247,1275.2,1275.3,1275.1,1275.3
201904182248,1275.3,1275.4,1275.1,1275.3
201904182249,1275.3,1275.7,1275.3,1275.7
201904182250,1275.7,1276.4,1275.7,1276.2
201904182251,1276.2,1276.3,1276.1,1276.1
201904182252,1276.1,1276.5,1276.1,1276.1
201904182253,1276.1,1276.2,1275.8,1276.2
201904182254,1276.2,1276.5,1276.2,1276.4
201904182255,1276.4,1276.5,1275.9,1275.9
201904182256,1275.9,1276,1275.7,1275.9
201904182257,1276,1276,1275.7,1275.7
201904182258,1275.7,1275.7,1275.5,1275.5
201904182259,1275.5,1275.8,1275.5,1275.6
201904182300,1275.5,1276,1275.4,1275.5
201904182301,1275.5,1275.6,1275.4,1275.4
201904182302,1275.4,1275.9,1275.4,1275.9
201904182303,1275.9,1275.9,1275.6,1275.7
201904182304,1275.7,1275.8,1275.6,1275.6
201904182305,1275.6,1275.8,1275.6,1275.6
201904182306,1275.6,1275.6,1275.3,1275.4
201904182307,1275.4,1275.5,1275,1275.1
201904182308,1275.1,1275.6,1275.1,1275.5
201904182309,1275.5,1275.6,1275.5,1275.6
201904182310,1275.6,1275.6,1275.4,1275.5
201904182311,1275.5,1275.7,1275.5,1275.7
201904182312,1275.7,1275.8,1275.6,1275.6
201904182313,1275.6,1275.6,1275.4,1275.4
201904182314,1275.4,1275.6,1275.4,1275.5
201904182315,1275.5,1275.6,1275.4,1275.6
201904182316,1275.6,1275.8,1275.6,1275.7
201904182317,1275.7,1275.7,1275.5,1275.5
201904182318,1275.5,1275.5,1275.4,1275.4
201904182319,1275.4,1275.6,1275.4,1275.6
201904182320,1275.6,1275.6,1275.2,1275.2
201904182321,1275.2,1275.3,1275.1,1275.2
201904182322,1275.2,1275.3,1275.1,1275.3
201904182323,1275.3,1275.4,1275.1,1275.2
201904182324,1275.2,1275.2,1275,1275
201904182325,1275,1275.1,1274.8,1274.9
201904182326,1274.9,1275,1274.8,1275
201904182327,1275,1275.3,1275,1275.2
201904182328,1275.2,1275.3,1275.1,1275.2
201904182329,1275.2,1275.5,1275.2,1275.4
201904182330,1275.4,1275.4,1275.3,1275.4
201904182331,1275.4,1275.7,1275.4,1275.6
201904182332,1275.6,1275.7,1275.5,1275.6
201904182333,1275.6,1275.8,1275.4,1275.8
201904182334,1275.8,1276,1275.6,1276
201904182335,1276,1276,1275.6,1275.6
201904182336,1275.6,1275.6,1275.1,1275.1
201904182337,1275.1,1275.1,1275,1275
201904182338,1275,1275.2,1275,1275.2
201904182339,1275.2,1275.2,1275.1,1275.1
201904182340,1275.1,1275.3,1275.1,1275.3
201904182341,1275.3,1275.5,1275.2,1275.5
201904182342,1275.5,1275.5,1275.2,1275.3
201904182343,1275.3,1275.5,1275.2,1275.4
201904182344,1275.4,1275.5,1275.3,1275.5
201904182345,1275.5,1275.5,1275.2,1275.2
201904182346,1275.2,1275.3,1274.9,1275
201904182347,1275,1275,1274.7,1274.9
201904182348,1274.9,1275,1274.6,1274.7
201904182349,1274.7,1274.8,1274.6,1274.6
201904182350,1274.6,1274.8,1274.6,1274.6
201904182351,1274.6,1274.6,1274.4,1274.4
201904182352,1274.4,1274.8,1274.4,1274.7
201904182353,1274.7,1274.8,1274.6,1274.8
201904182354,1274.8,1274.9,1274.7,1274.9
201904182355,1274.9,1275.4,1274.9,1275.3
201904182356,1275.3,1275.4,1275.2,1275.3
201904182357,1275.3,1275.6,1275.3,1275.6
201904182358,1275.6,1275.8,1275.6,1275.6
201904182359,1275.6,1275.7,1275.5,1275.6
201904190000,1275.6,1275.6,1275.4,1275.4
201904190001,1275.4,1275.5,1275.3,1275.4
201904190002,1275.4,1275.4,1275.2,1275.2
201904190003,1275.2,1275.3,1275.1,1275.2
201904190004,1275.2,1275.4,1275.2,1275.4
201904190005,1275.4,1275.5,1275.3,1275.4
201904190006,1275.4,1275.5,1275.4,1275.5
201904190007,1275.5,1275.5,1275.2,1275.2
201904190008,1275.2,1275.7,1275.2,1275.7
201904190009,1275.7,1275.8,1275.5,1275.8
201904190010,1275.8,1275.8,1275.4,1275.5
201904190011,1275.5,1275.5,1275.4,1275.4
201904190012,1275.5,1275.5,1275,1275.2
201904190013,1275.3,1275.3,1275.1,1275.1
201904190014,1275.1,1275.2,1275.1,1275.1
201904190015,1275.1,1275.2,1274.9,1275.2
201904190016,1275.2,1275.3,1274.9,1274.9
201904190017,1274.9,1275,1274.8,1275
201904190018,1275,1275.1,1275,1275.1
201904190019,1275.1,1275.2,1275,1275
201904190020,1275.1,1275.2,1275,1275.1
201904190021,1275.1,1275.3,1275.1,1275.1
201904190022,1275.1,1275.2,1275,1275.1
201904190023,1275.1,1275.1,1275,1275.1
201904190024,1275.1,1275.1,1274.9,1274.9
201904190025,1274.9,1275,1274.8,1274.8
201904190026,1274.8,1274.9,1274.7,1274.8
201904190027,1274.8,1274.9,1274.8,1274.9
201904190028,1274.9,1275,1274.8,1274.9
201904190029,1274.9,1274.9,1274.8,1274.9
201904190030,1274.9,1274.9,1274.8,1274.8
201904190031,1274.8,1274.9,1274.8,1274.8
201904190032,1274.8,1274.8,1274.5,1274.5
201904190033,1274.5,1274.7,1274.4,1274.4
201904190034,1274.4,1274.5,1274.4,1274.5
201904190035,1274.4,1274.5,1274.2,1274.2
201904190036,1274.2,1274.2,1274,1274.1
201904190037,1274.1,1274.3,1274.1,1274.1
201904190038,1274.1,1274.2,1273.9,1274
201904190039,1274,1274,1273.8,1273.9
201904190040,1273.9,1273.9,1273.7,1273.7
201904190041,1273.7,1273.7,1273.6,1273.6
201904190042,1273.6,1273.9,1273.5,1273.6
201904190043,1273.6,1273.8,1273.6,1273.7
201904190044,1273.7,1273.9,1273.6,1273.9
201904190045,1273.9,1273.9,1273.8,1273.8
201904190046,1273.8,1274,1273.8,1274
201904190047,1274,1274,1273.7,1273.8
201904190048,1273.8,1273.9,1273.7,1273.9
201904190049,1273.9,1274.1,1273.9,1274
201904190050,1274,1274.1,1273.9,1274
201904190051,1274,1274.2,1274,1274.2
201904190052,1274.2,1274.2,1273.9,1273.9
201904190053,1273.9,1273.9,1273.8,1273.9
201904190054,1273.9,1274,1273.7,1273.7
201904190055,1273.7,1273.8,1273.6,1273.6
201904190056,1273.6,1273.7,1273.6,1273.7
201904190057,1273.7,1273.8,1273.5,1273.6
201904190058,1273.6,1273.6,1273.4,1273.4
201904190059,1273.4,1273.7,1273.4,1273.7
201904190100,1273.7,1273.7,1273.6,1273.7
201904190101,1273.7,1273.7,1273.3,1273.5
201904190102,1273.5,1273.7,1273.5,1273.7
201904190103,1273.7,1273.8,1273.6,1273.8
201904190104,1273.8,1273.9,1273.7,1273.7
201904190105,1273.7,1273.8,1273.7,1273.7
201904190106,1273.7,1273.7,1273.5,1273.6
201904190107,1273.6,1273.8,1273.6,1273.6
201904190108,1273.6,1273.7,1273.5,1273.5
201904190109,1273.5,1273.6,1273.5,1273.6
201904190110,1273.6,1273.7,1273.5,1273.5
201904190111,1273.5,1273.6,1273.5,1273.5
201904190112,1273.5,1273.5,1273.2,1273.2
201904190113,1273.2,1273.4,1273.1,1273.2
201904190114,1273.2,1273.2,1273,1273
201904190115,1273.1,1273.3,1273,1273.3
201904190116,1273.3,1273.3,1273.2,1273.3
201904190117,1273.3,1273.3,1273.1,1273.1
201904190118,1273.1,1273.5,1273.1,1273.3
201904190119,1273.3,1273.3,1273.1,1273.2
201904190120,1273.2,1273.3,1273.2,1273.3
201904190121,1273.2,1273.2,1273.1,1273.1
201904190122,1273.1,1273.1,1272.7,1272.7
201904190123,1272.7,1272.9,1272.6,1272.6
201904190124,1272.7,1272.8,1272.7,1272.8
201904190125,1272.8,1272.8,1272.6,1272.6
201904190126,1272.6,1272.7,1272.4,1272.5
201904190127,1272.5,1272.7,1272.5,1272.6
201904190128,1272.6,1272.7,1272.5,1272.6
201904190129,1272.6,1272.9,1272.6,1272.7
201904190130,1272.7,1273,1272.7,1273
201904190131,1273,1273.1,1273,1273.1
201904190132,1273.1,1273.1,1272.9,1272.9
201904190133,1272.9,1273,1272.8,1273
201904190134,1273,1273,1272.9,1272.9
201904190135,1272.9,1273,1272.9,1272.9
201904190136,1272.9,1272.9,1272.8,1272.8
201904190137,1272.8,1272.9,1272.8,1272.9
201904190138,1272.9,1273,1272.9,1272.9
201904190139,1272.9,1272.9,1272.7,1272.9
201904190140,1272.9,1272.9,1272.9,1272.9
201904190141,1272.9,1272.9,1272.7,1272.8
201904190142,1272.8,1272.9,1272.7,1272.8
201904190143,1272.8,1272.9,1272.8,1272.8
201904190144,1272.9,1273.1,1272.8,1272.9
201904190145,1272.9,1273,1272.9,1272.9
201904190146,1272.9,1273,1272.8,1272.9
201904190147,1272.9,1273,1272.9,1273
201904190148,1273,1273.3,1273,1273.2
201904190149,1273.2,1273.4,1273.2,1273.2
201904190150,1273.2,1273.2,1273.1,1273.1
201904190151,1273.1,1273.3,1273.1,1273.3
201904190152,1273.3,1273.4,1273.2,1273.3
201904190153,1273.3,1273.5,1273.3,1273.4
201904190154,1273.4,1273.5,1273.3,1273.4
201904190155,1273.4,1273.5,1273.3,1273.4
201904190156,1273.4,1273.4,1273.2,1273.3
201904190157,1273.3,1273.5,1273.3,1273.5
201904190158,1273.5,1273.5,1273.2,1273.3
201904190159,1273.3,1273.4,1273.2,1273.4
201904190200,1273.4,1273.5,1273.3,1273.4
201904190201,1273.4,1273.5,1273.4,1273.4
201904190202,1273.4,1273.4,1273.1,1273.2
201904190203,1273.2,1273.4,1273.2,1273.3
201904190204,1273.3,1273.3,1273.1,1273.2
201904190205,1273.2,1273.2,1273,1273.1
201904190206,1273.1,1273.1,1273,1273
201904190207,1273,1273,1272.8,1272.8
201904190208,1272.8,1272.9,1272.8,1272.8
201904190209,1272.8,1273.1,1272.8,1273
201904190210,1273,1273.2,1273,1273.1
201904190211,1273.1,1273.2,1273,1273
201904190212,1273,1273.1,1272.8,1272.8
201904190213,1272.8,1273,1272.8,1272.9
201904190214,1272.9,1273,1272.8,1272.9
201904190215,1272.9,1273.1,1272.8,1273
201904190216,1273,1273.1,1273,1273.1
201904190217,1273.1,1273.2,1273.1,1273.1
201904190218,1273.1,1273.2,1273,1273.1
201904190219,1273.1,1273.1,1273,1273
201904190220,1273,1273.6,1273,1273.5
201904190221,1273.6,1273.7,1273.4,1273.5
201904190222,1273.5,1273.9,1273.5,1273.8
201904190223,1273.8,1273.9,1273.7,1273.8
201904190224,1273.8,1273.9,1273.8,1273.9
201904190225,1273.9,1274,1273.8,1273.8
201904190226,1273.8,1273.8,1273.6,1273.6
201904190227,1273.6,1273.9,1273.5,1273.6
201904190228,1273.6,1273.8,1273.5,1273.8
201904190229,1273.8,1274,1273.8,1273.9
201904190230,1273.8,1273.8,1273.7,1273.8
201904190231,1273.8,1274,1273.8,1274
201904190232,1274,1274,1273.9,1274
201904190233,1274,1274.1,1273.9,1274.1
201904190234,1274.1,1274.1,1274,1274.1
201904190235,1274.1,1274.1,1273.9,1274
201904190236,1274,1274,1273.9,1273.9
201904190237,1273.9,1274,1273.9,1273.9
201904190238,1273.9,1274,1273.9,1273.9
201904190239,1273.9,1274.1,1273.9,1274.1
201904190240,1274.1,1274.1,1274,1274
201904190241,1274,1274.2,1274,1274.1
201904190242,1274.1,1274.1,1274,1274.1
201904190243,1274.1,1274.2,1274,1274.2
201904190244,1274.2,1274.3,1274.1,1274.3
201904190245,1274.3,1274.3,1274.2,1274.2
201904190246,1274.2,1274.2,1274.1,1274.1
201904190247,1274.1,1274.3,1274.1,1274.2
201904190248,1274.2,1274.2,1274,1274
201904190249,1274,1274,1273.8,1273.9
201904190250,1273.9,1274,1273.9,1273.9
201904190251,1273.9,1274,1273.9,1274
201904190252,1274,1274.1,1274,1274
201904190253,1274,1274.2,1274,1274.2
201904190254,1274.2,1274.3,1274.2,1274.3
201904190255,1274.3,1274.5,1274.3,1274.4
201904190256,1274.4,1274.5,1274.4,1274.4
201904190257,1274.4,1274.5,1274.4,1274.4
201904190258,1274.4,1274.5,1274.4,1274.5
201904190259,1274.5,1274.5,1274.4,1274.4
201904190300,1274.4,1274.4,1274.3,1274.3
201904190301,1274.3,1274.3,1274.3,1274.3
201904190302,1274.3,1274.4,1274.2,1274.2
201904190303,1274.2,1274.2,1274.1,1274.1
201904190304,1274.1,1274.2,1274.1,1274.1
201904190305,1274.1,1274.1,1274,1274
201904190306,1274,1274,1273.9,1273.9
201904190307,1273.9,1274.1,1273.9,1274
201904190308,1274,1274,1274,1274
201904190309,1274,1274,1273.9,1273.9
201904190310,1273.9,1273.9,1273.9,1273.9
201904190311,1273.9,1273.9,1273.8,1273.8
201904190312,1273.8,1273.8,1273.8,1273.8
201904190313,1273.8,1273.9,1273.8,1273.9
201904190314,1273.9,1274,1273.9,1273.9
201904190315,1273.9,1274.1,1273.9,1274
201904190316,1274,1274.1,1274,1274
201904190317,1274,1274.1,1274,1274.1
201904190318,1274.1,1274.1,1274.1,1274.1
201904190319,1274.1,1274.1,1274.1,1274.1
201904190320,1274.1,1274.2,1274.1,1274.2
201904190321,1274.2,1274.2,1274,1274.2
201904190322,1274.2,1274.2,1274.1,1274.1
201904190323,1274.1,1274.1,1274,1274
201904190324,1274,1274,1273.8,1273.8
201904190325,1273.8,1273.9,1273.8,1273.8
201904190326,1273.8,1273.8,1273.7,1273.8
201904190327,1273.8,1273.9,1273.8,1273.8
201904190328,1273.8,1273.8,1273.8,1273.8
201904190329,1273.8,1273.9,1273.8,1273.8
201904190330,1273.8,1273.9,1273.8,1273.9
201904190331,1273.9,1273.9,1273.8,1273.8
201904190332,1273.9,1273.9,1273.8,1273.9
201904190333,1273.9,1274,1273.9,1273.9
201904190334,1273.9,1274,1273.8,1273.8
201904190335,1273.8,1273.9,1273.8,1273.9
201904190336,1273.9,1274,1273.9,1273.9
201904190337,1273.9,1273.9,1273.9,1273.9
201904190338,1273.9,1273.9,1273.9,1273.9
201904190339,1273.9,1273.9,1273.8,1273.8
201904190340,1273.8,1273.8,1273.8,1273.8
201904190341,1273.8,1274,1273.8,1274
201904190342,1274,1274.1,1274,1274.1
201904190343,1274.1,1274.2,1274.1,1274.2
201904190344,1274.2,1274.2,1274.2,1274.2
201904190345,1274.2,1274.2,1274,1274.1
201904190346,1274.1,1274.1,1274,1274
201904190347,1274,1274.1,1274,1274
201904190348,1274,1274,1273.9,1273.9
201904190349,1273.9,1273.9,1273.9,1273.9
201904190350,1273.9,1273.9,1273.9,1273.9
201904190351,1273.9,1273.9,1273.8,1273.9
201904190352,1273.9,1274,1273.9,1274
201904190353,1274,1274,1273.9,1273.9
201904190354,1273.9,1273.9,1273.9,1273.9
201904190355,1273.9,1273.9,1273.8,1273.8
201904190356,1273.8,1273.8,1273.8,1273.8
201904190357,1273.8,1273.9,1273.8,1273.9
201904190358,1273.9,1273.9,1273.8,1273.8
201904190359,1273.8,1273.9,1273.8,1273.9
201904190400,1273.9,1274,1273.9,1273.9
201904190401,1273.9,1274,1273.8,1274
201904190402,1274,1274,1273.9,1273.9
201904190403,1273.9,1274,1273.9,1274
201904190404,1274,1274,1273.9,1273.9
201904190405,1273.9,1274.2,1273.9,1274.1
201904190406,1274.1,1274.1,1274,1274
201904190407,1274,1274,1273.9,1274
201904190408,1274,1274,1273.9,1273.9
201904190409,1273.9,1274,1273.9,1273.9
201904190410,1273.9,1273.9,1273.9,1273.9
201904190411,1273.9,1273.9,1273.9,1273.9
201904190412,1273.9,1274,1273.8,1273.8
201904190413,1273.8,1274.1,1273.8,1274
201904190414,1274,1274.1,1274,1274
201904190415,1274,1274.1,1274,1274.1
201904190416,1274.1,1274.1,1274,1274
201904190417,1274,1274.1,1274,1274.1
201904190418,1274.1,1274.1,1274.1,1274.1
201904190419,1274.1,1274.2,1274.1,1274.2
201904190420,1274.2,1274.4,1274.2,1274.4
201904190421,1274.4,1274.4,1274.4,1274.4
201904190422,1274.4,1274.4,1274.3,1274.3
201904190423,1274.3,1274.4,1274.2,1274.2
201904190424,1274.2,1274.3,1274.2,1274.2
201904190425,1274.2,1274.5,1274.2,1274.5
201904190426,1274.5,1274.5,1274.5,1274.5
201904190427,1274.5,1274.5,1274.4,1274.5
201904190428,1274.5,1274.5,1274.4,1274.5
201904190429,1274.5,1274.6,1274.5,1274.6
201904190430,1274.6,1274.7,1274.6,1274.7
201904190431,1274.7,1274.7,1274.6,1274.7
201904190432,1274.7,1274.7,1274.6,1274.7
201904190433,1274.7,1274.7,1274.6,1274.6
201904190434,1274.6,1274.7,1274.6,1274.7
201904190435,1274.7,1274.7,1274.6,1274.6
201904190436,1274.6,1274.6,1274.6,1274.6
201904190437,1274.6,1274.6,1274.5,1274.6
201904190438,1274.6,1274.6,1274.5,1274.5
201904190439,1274.5,1274.6,1274.4,1274.4
201904190440,1274.4,1274.4,1274.4,1274.4
201904190441,1274.4,1274.4,1274.4,1274.4
201904190442,1274.4,1274.5,1274.4,1274.4
201904190443,1274.4,1274.5,1274.4,1274.5
201904190444,1274.5,1274.5,1274.4,1274.4
201904190445,1274.4,1274.5,1274.4,1274.4
201904190446,1274.4,1274.5,1274.4,1274.5
201904190447,1274.5,1274.5,1274.4,1274.4
201904190448,1274.4,1274.5,1274.4,1274.5
201904190449,1274.5,1274.7,1274.4,1274.6
201904190450,1274.6,1274.7,1274.6,1274.7
201904190451,1274.7,1274.7,1274.6,1274.7
201904190452,1274.7,1274.7,1274.6,1274.6
201904190453,1274.6,1274.6,1274.6,1274.6
201904190454,1274.6,1274.8,1274.6,1274.8
201904190455,1274.8,1274.9,1274.6,1274.6
201904190456,1274.6,1274.7,1274.6,1274.6
201904190457,1274.7,1274.7,1274.6,1274.6
201904190458,1274.6,1274.9,1274.6,1274.9
201904190459,1274.9,1275,1274.9,1275
201904190500,1275,1275.4,1275,1275.2
201904190501,1275.1,1275.1,1274.8,1274.9
201904190502,1274.9,1274.9,1274.7,1274.7
201904190503,1274.7,1275.1,1274.7,1275
201904190504,1275,1275,1274.9,1274.9
201904190505,1274.9,1275,1274.9,1274.9
201904190506,1274.9,1275,1274.9,1275
201904190507,1275,1275,1275,1275
201904190508,1275,1275.1,1275,1275.1
201904190509,1275.1,1275.1,1275,1275.1
201904190510,1275.1,1275.2,1275.1,1275.1
201904190511,1275.1,1275.2,1275.1,1275.1
201904190512,1275.1,1275.2,1275.1,1275.1
201904190513,1275.1,1275.2,1275.1,1275.1
201904190514,1275.1,1275.2,1275.1,1275.1
201904190515,1275.1,1275.1,1275.1,1275.1
201904190516,1275.1,1275.1,1275.1,1275.1
201904190517,1275.1,1275.1,1275.1,1275.1
201904190518,1275.1,1275.1,1275.1,1275.1
201904190519,1275.1,1275.1,1275.1,1275.1
201904190520,1275.1,1275.1,1275,1275
201904190521,1275,1275.1,1275,1275.1
201904190522,1275.1,1275.1,1275,1275.1
201904190523,1275.1,1275.1,1275.1,1275.1
201904190524,1275.1,1275.1,1275.1,1275.1
201904190525,1275.1,1275.2,1275.1,1275.2
201904190526,1275.2,1275.2,1275.2,1275.2
201904190527,1275.2,1275.3,1275.2,1275.3
201904190528,1275.3,1275.3,1275.2,1275.3
201904190529,1275.3,1275.3,1275.2,1275.3
201904190530,1275.3,1275.4,1275.3,1275.4
201904190531,1275.4,1275.4,1275.3,1275.3
201904190532,1275.3,1275.4,1275.2,1275.2
201904190533,1275.2,1275.4,1275.2,1275.4
201904190534,1275.4,1275.5,1275.4,1275.5
201904190535,1275.5,1275.5,1275.4,1275.5
201904190536,1275.5,1275.5,1275.4,1275.5
201904190537,1275.5,1275.5,1275.5,1275.5
201904190538,1275.5,1275.5,1275.4,1275.4
201904190539,1275.4,1275.5,1275.4,1275.5
201904190540,1275.5,1275.5,1275.4,1275.4
201904190541,1275.4,1275.4,1275.4,1275.4
201904190542,1275.4,1275.4,1275.3,1275.4
201904190543,1275.4,1275.4,1275.4,1275.4
201904190544,1275.4,1275.4,1275.4,1275.4
201904190545,1275.4,1275.5,1275.4,1275.5
201904190546,1275.5,1275.5,1275.3,1275.4
201904190547,1275.4,1275.4,1275.4,1275.4
201904190548,1275.4,1275.4,1275.3,1275.4
201904190549,1275.4,1275.4,1275.3,1275.3
201904190550,1275.3,1275.4,1275.3,1275.4
201904190551,1275.4,1275.4,1275.3,1275.4
201904190552,1275.4,1275.4,1275.4,1275.4
201904190553,1275.4,1275.4,1275.3,1275.4
201904190554,1275.4,1275.4,1275.4,1275.4
201904190555,1275.4,1275.5,1275.4,1275.4
201904190556,1275.4,1275.5,1275.4,1275.4
201904190557,1275.4,1275.6,1275.4,1275.5
201904190558,1275.5,1275.6,1275.4,1275.4
201904190559,1275.4,1275.6,1275.4,1275.5
