日時,始値(BID),高値(BID),安値(BID),終値(BID)
201904160700,1287.9,1287.9,1287.7,1287.9
201904160701,1287.9,1287.9,1287.8,1287.8
201904160702,1287.8,1287.9,1287.8,1287.9
201904160703,1287.9,1287.9,1287.9,1287.9
201904160704,1287.9,1287.9,1287.8,1287.8
201904160705,1287.8,1287.9,1287.8,1287.9
201904160706,1287.9,1287.9,1287.8,1287.8
201904160707,1287.8,1287.8,1287.8,1287.8
201904160708,1287.8,1287.9,1287.7,1287.9
201904160709,1287.9,1287.9,1287.9,1287.9
201904160710,1287.9,1287.9,1287.9,1287.9
201904160711,1287.9,1287.9,1287.9,1287.9
201904160712,1287.9,1287.9,1287.9,1287.9
201904160713,1287.9,1287.9,1287.9,1287.9
201904160714,1287.9,1287.9,1287.9,1287.9
201904160715,1287.9,1287.9,1287.9,1287.9
201904160716,1287.9,1287.9,1287.9,1287.9
201904160717,1287.9,1287.9,1287.9,1287.9
201904160718,1287.9,1287.9,1287.9,1287.9
201904160719,1287.9,1287.9,1287.9,1287.9
201904160720,1287.9,1287.9,1287.8,1287.8
201904160721,1287.8,1287.9,1287.8,1287.9
201904160722,1287.9,1287.9,1287.9,1287.9
201904160723,1287.9,1287.9,1287.9,1287.9
201904160724,1287.9,1287.9,1287.9,1287.9
201904160725,1287.9,1287.9,1287.8,1287.8
201904160726,1287.8,1287.8,1287.8,1287.8
201904160727,1287.8,1287.8,1287.8,1287.8
201904160728,1287.8,1287.8,1287.8,1287.8
201904160729,1287.8,1287.8,1287.8,1287.8
201904160730,1287.8,1287.8,1287.8,1287.8
201904160731,1287.8,1287.8,1287.8,1287.8
201904160732,1287.8,1287.8,1287.8,1287.8
201904160733,1287.8,1287.8,1287.8,1287.8
201904160734,1287.8,1287.8,1287.8,1287.8
201904160735,1287.8,1287.9,1287.8,1287.9
201904160736,1287.9,1287.9,1287.9,1287.9
201904160737,1287.9,1287.9,1287.9,1287.9
201904160738,1287.9,1288,1287.9,1287.9
201904160739,1287.9,1288.1,1287.9,1288.1
201904160740,1288.1,1288.1,1288.1,1288.1
201904160741,1288.1,1288.1,1287.9,1288.1
201904160742,1288.1,1288.1,1288.1,1288.1
201904160743,1288.1,1288.1,1288,1288
201904160744,1288,1288.1,1288,1288.1
201904160745,1288.1,1288.1,1288.1,1288.1
201904160746,1288.1,1288.1,1288.1,1288.1
201904160747,1288.1,1288.1,1288.1,1288.1
201904160748,1288.1,1288.1,1288,1288.1
201904160749,1288.1,1288.1,1288,1288
201904160750,1288,1288,1288,1288
201904160751,1288,1288,1288,1288
201904160752,1288,1288,1288,1288
201904160753,1288,1288,1288,1288
201904160754,1288,1288,1288,1288
201904160755,1288,1288,1288,1288
201904160756,1288,1288,1288,1288
201904160757,1288,1288,1287.9,1288
201904160758,1288,1288,1287.9,1287.9
201904160759,1287.9,1287.9,1287.8,1287.8
201904160800,1287.8,1287.9,1287.8,1287.9
201904160801,1287.9,1287.9,1287.8,1287.8
201904160802,1287.8,1287.8,1287.8,1287.8
201904160803,1287.8,1287.8,1287.7,1287.8
201904160804,1287.8,1287.8,1287.8,1287.8
201904160805,1287.8,1287.9,1287.8,1287.9
201904160806,1287.9,1287.9,1287.9,1287.9
201904160807,1287.9,1287.9,1287.9,1287.9
201904160808,1287.9,1287.9,1287.9,1287.9
201904160809,1287.9,1288.1,1287.9,1288.1
201904160810,1288.1,1288.1,1288,1288.1
201904160811,1288.1,1288.2,1288.1,1288.2
201904160812,1288.2,1288.3,1288.2,1288.3
201904160813,1288.3,1288.4,1288.3,1288.3
201904160814,1288.3,1288.3,1288.2,1288.2
201904160815,1288.3,1288.4,1288.2,1288.3
201904160816,1288.3,1288.3,1288.3,1288.3
201904160817,1288.3,1288.4,1288.3,1288.3
201904160818,1288.3,1288.3,1288.3,1288.3
201904160819,1288.3,1288.3,1288.2,1288.2
201904160820,1288.2,1288.2,1288.1,1288.2
201904160821,1288.2,1288.3,1288.2,1288.3
201904160822,1288.3,1288.3,1288.2,1288.2
201904160823,1288.2,1288.2,1288.1,1288.2
201904160824,1288.2,1288.2,1288.1,1288.1
201904160825,1288.1,1288.1,1288.1,1288.1
201904160826,1288.1,1288.1,1288.1,1288.1
201904160827,1288.1,1288.1,1287.9,1287.9
201904160828,1287.9,1288.3,1287.8,1288.2
201904160829,1288.2,1288.4,1288.2,1288.2
201904160830,1288.2,1288.2,1288.1,1288.1
201904160831,1288.1,1288.3,1288.1,1288.1
201904160832,1288.1,1288.1,1288.1,1288.1
201904160833,1288.1,1288.4,1288.1,1288.4
201904160834,1288.4,1288.4,1288.2,1288.2
201904160835,1288.2,1288.3,1288.2,1288.3
201904160836,1288.3,1288.3,1288.2,1288.3
201904160837,1288.3,1288.5,1288.3,1288.4
201904160838,1288.5,1288.5,1288.5,1288.5
201904160839,1288.5,1288.6,1288.5,1288.5
201904160840,1288.5,1288.5,1288.5,1288.5
201904160841,1288.5,1288.5,1288.3,1288.4
201904160842,1288.4,1288.4,1288.2,1288.3
201904160843,1288.3,1288.3,1288.2,1288.2
201904160844,1288.2,1288.4,1288.2,1288.4
201904160845,1288.4,1288.5,1288.2,1288.2
201904160846,1288.2,1288.5,1288,1288.4
201904160847,1288.4,1288.4,1288.4,1288.4
201904160848,1288.4,1288.4,1288.3,1288.3
201904160849,1288.3,1288.3,1288.3,1288.3
201904160850,1288.3,1288.3,1288,1288.2
201904160851,1288.2,1288.4,1288.1,1288.4
201904160852,1288.4,1288.4,1288.2,1288.4
201904160853,1288.4,1288.5,1288.4,1288.4
201904160854,1288.4,1288.5,1288.2,1288.4
201904160855,1288.4,1288.5,1288.3,1288.3
201904160856,1288.3,1288.3,1288.3,1288.3
201904160857,1288.3,1288.3,1288.2,1288.2
201904160858,1288.2,1288.3,1288.2,1288.3
201904160859,1288.3,1288.3,1288.2,1288.3
201904160900,1288.3,1288.3,1288.2,1288.2
201904160901,1288.2,1288.2,1287.9,1287.9
201904160902,1287.9,1288,1287.8,1287.8
201904160903,1287.8,1287.8,1287.6,1287.6
201904160904,1287.6,1287.6,1287.5,1287.5
201904160905,1287.5,1287.5,1287.3,1287.3
201904160906,1287.3,1287.4,1287,1287.2
201904160907,1287.2,1287.4,1287.2,1287.4
201904160908,1287.4,1287.4,1287.3,1287.3
201904160909,1287.3,1287.4,1287.3,1287.4
201904160910,1287.4,1287.4,1287.4,1287.4
201904160911,1287.4,1287.5,1287.4,1287.4
201904160912,1287.4,1287.4,1287,1287
201904160913,1287,1287,1286.9,1286.9
201904160914,1286.9,1287.4,1286.9,1287.3
201904160915,1287.2,1287.5,1287.2,1287.4
201904160916,1287.4,1287.5,1287.1,1287.5
201904160917,1287.5,1287.5,1287.2,1287.2
201904160918,1287.2,1287.5,1287.2,1287.5
201904160919,1287.5,1287.6,1287.4,1287.5
201904160920,1287.5,1287.5,1287.4,1287.4
201904160921,1287.4,1287.4,1287.2,1287.3
201904160922,1287.2,1287.4,1287.2,1287.3
201904160923,1287.3,1287.6,1287.3,1287.6
201904160924,1287.6,1287.7,1287.4,1287.6
201904160925,1287.6,1287.6,1287.2,1287.3
201904160926,1287.3,1287.3,1287,1287
201904160927,1287,1287.2,1287,1287
201904160928,1287,1287.1,1286.9,1287
201904160929,1287,1287,1286.9,1287
201904160930,1287,1287,1287,1287
201904160931,1287,1287,1287,1287
201904160932,1287,1287,1286.9,1286.9
201904160933,1286.9,1287,1286.9,1287
201904160934,1287,1287,1286.8,1286.8
201904160935,1286.9,1287.1,1286.8,1286.8
201904160936,1286.8,1287,1286.8,1287
201904160937,1287,1287.1,1287,1287.1
201904160938,1287.1,1287.1,1287.1,1287.1
201904160939,1287.1,1287.2,1287.1,1287.1
201904160940,1287.1,1287.1,1286.8,1286.8
201904160941,1286.8,1286.8,1286.7,1286.7
201904160942,1286.7,1286.9,1286.7,1286.9
201904160943,1286.9,1286.9,1286.6,1286.6
201904160944,1286.6,1286.6,1286.6,1286.6
201904160945,1286.6,1286.6,1286.4,1286.5
201904160946,1286.5,1286.7,1286.5,1286.6
201904160947,1286.6,1286.9,1286.6,1286.9
201904160948,1286.9,1287,1286.9,1286.9
201904160949,1286.9,1286.9,1286.8,1286.9
201904160950,1286.9,1287.1,1286.8,1287
201904160951,1287,1287.2,1287,1287.2
201904160952,1287.2,1287.2,1287.1,1287.2
201904160953,1287.2,1287.3,1287.2,1287.3
201904160954,1287.3,1287.4,1287.2,1287.2
201904160955,1287.3,1287.3,1287.2,1287.2
201904160956,1287.3,1287.3,1287.2,1287.3
201904160957,1287.3,1287.3,1287.2,1287.2
201904160958,1287.2,1287.2,1287.1,1287.1
201904160959,1287.1,1287.2,1287.1,1287.2
201904161000,1287.2,1287.2,1286.9,1287.1
201904161001,1287.1,1287.1,1286.8,1286.8
201904161002,1286.8,1286.9,1286.5,1286.5
201904161003,1286.5,1286.8,1286.5,1286.7
201904161004,1286.7,1286.8,1286.6,1286.6
201904161005,1286.6,1286.8,1286.6,1286.7
201904161006,1286.7,1286.7,1286.5,1286.5
201904161007,1286.5,1286.7,1286.5,1286.5
201904161008,1286.5,1286.8,1286.5,1286.8
201904161009,1286.8,1286.9,1286.7,1286.7
201904161010,1286.7,1286.7,1286.5,1286.7
201904161011,1286.7,1286.7,1286.5,1286.5
201904161012,1286.5,1286.6,1286.5,1286.5
201904161013,1286.5,1286.6,1286.5,1286.6
201904161014,1286.6,1286.6,1286.4,1286.4
201904161015,1286.4,1286.4,1286.4,1286.4
201904161016,1286.4,1286.4,1286,1286.1
201904161017,1286.1,1286.3,1286.1,1286.3
201904161018,1286.3,1286.4,1286.3,1286.3
201904161019,1286.3,1286.5,1286.1,1286.3
201904161020,1286.3,1286.3,1286,1286.1
201904161021,1286.1,1286.2,1286,1286
201904161022,1286,1286,1285.8,1286
201904161023,1286,1286,1285.7,1285.8
201904161024,1285.8,1285.9,1285.6,1285.7
201904161025,1285.7,1285.7,1285.7,1285.7
201904161026,1285.7,1285.9,1285.7,1285.8
201904161027,1285.8,1286,1285.8,1286
201904161028,1286,1286,1285.9,1285.9
201904161029,1285.9,1285.9,1285.9,1285.9
201904161030,1285.9,1286.2,1285.9,1286.2
201904161031,1286.2,1286.8,1286.1,1286.7
201904161032,1286.7,1286.7,1286.5,1286.5
201904161033,1286.5,1286.5,1286.2,1286.2
201904161034,1286.2,1286.6,1286.2,1286.2
201904161035,1286.2,1286.3,1286.1,1286.1
201904161036,1286.1,1286.3,1286.1,1286.3
201904161037,1286.3,1286.6,1286.3,1286.5
201904161038,1286.5,1286.6,1286.3,1286.4
201904161039,1286.4,1286.5,1286.1,1286.2
201904161040,1286.2,1286.5,1286.2,1286.5
201904161041,1286.4,1286.4,1286.1,1286.1
201904161042,1286.1,1286.4,1286.1,1286.4
201904161043,1286.4,1286.4,1286.3,1286.3
201904161044,1286.3,1286.3,1286,1286
201904161045,1286,1286.1,1285.9,1285.9
201904161046,1285.9,1285.9,1285.8,1285.8
201904161047,1285.8,1285.8,1285.5,1285.7
201904161048,1285.7,1285.7,1285.6,1285.7
201904161049,1285.7,1285.9,1285.6,1285.8
201904161050,1285.8,1285.9,1285.7,1285.9
201904161051,1285.9,1286.1,1285.9,1286.1
201904161052,1286,1286,1286,1286
201904161053,1286,1286.1,1286,1286
201904161054,1286,1286,1285.8,1285.8
201904161055,1285.8,1285.8,1285.6,1285.7
201904161056,1285.7,1285.7,1285.6,1285.6
201904161057,1285.6,1285.7,1285.6,1285.6
201904161058,1285.6,1285.6,1285.5,1285.5
201904161059,1285.5,1285.5,1285.4,1285.5
201904161100,1285.5,1285.5,1285.4,1285.4
201904161101,1285.4,1285.4,1285.2,1285.3
201904161102,1285.3,1285.6,1285.2,1285.6
201904161103,1285.6,1285.8,1285.5,1285.7
201904161104,1285.7,1285.8,1285.7,1285.7
201904161105,1285.7,1285.7,1285.6,1285.7
201904161106,1285.7,1285.8,1285.5,1285.5
201904161107,1285.5,1285.7,1285.5,1285.6
201904161108,1285.6,1286,1285.6,1286
201904161109,1286,1286,1285.9,1286
201904161110,1286,1286,1285.9,1285.9
201904161111,1285.9,1285.9,1285.8,1285.9
201904161112,1285.9,1286.1,1285.8,1286.1
201904161113,1286.1,1286.1,1286.1,1286.1
201904161114,1286.1,1286.3,1286.1,1286.2
201904161115,1286.2,1286.2,1286,1286.1
201904161116,1286.1,1286.1,1286,1286.1
201904161117,1286.1,1286.1,1286,1286
201904161118,1286,1286.1,1285.9,1286
201904161119,1286,1286.2,1286,1286.2
201904161120,1286.2,1286.4,1286.2,1286.4
201904161121,1286.4,1286.4,1286.4,1286.4
201904161122,1286.4,1286.4,1286.2,1286.2
201904161123,1286.2,1286.4,1286.2,1286.4
201904161124,1286.4,1286.4,1286.1,1286.1
201904161125,1286.1,1286.1,1286,1286
201904161126,1286,1286,1285.9,1285.9
201904161127,1285.9,1285.9,1285.8,1285.8
201904161128,1285.8,1286.1,1285.8,1286.1
201904161129,1286.1,1286.1,1286,1286
201904161130,1286,1286.1,1285.9,1286.1
201904161131,1286.1,1286.1,1286.1,1286.1
201904161132,1286.1,1286.1,1286,1286
201904161133,1286,1286.1,1285.9,1286
201904161134,1286,1286,1285.9,1285.9
201904161135,1285.9,1285.9,1285.8,1285.8
201904161136,1285.8,1285.8,1285.8,1285.8
201904161137,1285.8,1285.8,1285.7,1285.7
201904161138,1285.7,1285.7,1285.7,1285.7
201904161139,1285.7,1285.7,1285.5,1285.6
201904161140,1285.6,1285.8,1285.6,1285.8
201904161141,1285.8,1285.8,1285.5,1285.7
201904161142,1285.7,1285.8,1285.6,1285.8
201904161143,1285.8,1286,1285.8,1286
201904161144,1286,1286.1,1285.9,1285.9
201904161145,1285.9,1286.1,1285.9,1286
201904161146,1286.1,1286.1,1285.7,1285.7
201904161147,1285.7,1285.8,1285.4,1285.4
201904161148,1285.4,1285.5,1285.3,1285.5
201904161149,1285.5,1285.5,1285.4,1285.5
201904161150,1285.5,1285.5,1285.4,1285.5
201904161151,1285.5,1285.5,1285.3,1285.3
201904161152,1285.3,1285.4,1285.3,1285.3
201904161153,1285.3,1285.4,1285.3,1285.3
201904161154,1285.3,1285.3,1285.2,1285.3
201904161155,1285.3,1285.3,1285.2,1285.2
201904161156,1285.2,1285.2,1285.2,1285.2
201904161157,1285.2,1285.2,1285.2,1285.2
201904161158,1285.2,1285.4,1285.2,1285.3
201904161159,1285.3,1285.3,1285.3,1285.3
201904161200,1285.3,1285.4,1285.2,1285.4
201904161201,1285.4,1285.4,1285.4,1285.4
201904161202,1285.4,1285.4,1285.3,1285.4
201904161203,1285.4,1285.5,1285.4,1285.5
201904161204,1285.5,1285.5,1285.2,1285.2
201904161205,1285.1,1285.3,1285.1,1285.1
201904161206,1285.1,1285.2,1285,1285
201904161207,1285,1285,1284.9,1284.9
201904161208,1284.9,1284.9,1284.8,1284.9
201904161209,1284.9,1285,1284.9,1284.9
201904161210,1284.9,1285.1,1284.9,1285.1
201904161211,1285.1,1285.1,1285,1285.1
201904161212,1285,1285.1,1284.9,1284.9
201904161213,1284.9,1285,1284.9,1285
201904161214,1285,1285.2,1285,1285.1
201904161215,1285.1,1285.2,1285,1285.2
201904161216,1285.2,1285.3,1285.2,1285.3
201904161217,1285.3,1285.3,1285.3,1285.3
201904161218,1285.3,1285.3,1285.3,1285.3
201904161219,1285.3,1285.4,1285.1,1285.3
201904161220,1285.3,1285.3,1285.2,1285.2
201904161221,1285.2,1285.2,1285.2,1285.2
201904161222,1285.2,1285.2,1285.1,1285.1
201904161223,1285.1,1285.1,1284.9,1285
201904161224,1284.9,1284.9,1284.9,1284.9
201904161225,1284.9,1285,1284.7,1284.8
201904161226,1284.8,1284.9,1284.8,1284.8
201904161227,1284.8,1285,1284.6,1284.7
201904161228,1284.7,1284.8,1284.7,1284.8
201904161229,1284.8,1284.8,1284.7,1284.8
201904161230,1284.8,1284.9,1284.8,1284.9
201904161231,1284.9,1284.9,1284.8,1284.9
201904161232,1284.9,1284.9,1284.7,1284.7
201904161233,1284.7,1284.9,1284.7,1284.9
201904161234,1284.9,1285,1284.9,1284.9
201904161235,1285,1285.1,1285,1285
201904161236,1285,1285.1,1285,1285
201904161237,1285,1285,1285,1285
201904161238,1285,1285.1,1285,1285.1
201904161239,1285.1,1285.1,1285,1285
201904161240,1285,1285,1284.9,1285
201904161241,1284.9,1284.9,1284.9,1284.9
201904161242,1284.9,1285,1284.9,1285
201904161243,1285,1285.4,1285,1285.3
201904161244,1285.3,1285.4,1285.3,1285.3
201904161245,1285.3,1285.3,1285.2,1285.2
201904161246,1285.2,1285.3,1285.2,1285.3
201904161247,1285.3,1285.3,1285.2,1285.2
201904161248,1285.2,1285.2,1285.2,1285.2
201904161249,1285.2,1285.2,1285.1,1285.1
201904161250,1285.1,1285.2,1285,1285
201904161251,1285,1285.1,1285,1285.1
201904161252,1285.1,1285.1,1285.1,1285.1
201904161253,1285.1,1285.2,1285.1,1285.2
201904161254,1285.2,1285.4,1285.2,1285.3
201904161255,1285.2,1285.3,1285.2,1285.2
201904161256,1285.2,1285.2,1285,1285.1
201904161257,1285.1,1285.3,1285.1,1285.3
201904161258,1285.3,1285.3,1285,1285
201904161259,1285,1285.1,1285,1285.1
201904161300,1285.1,1285.2,1285.1,1285.2
201904161301,1285.2,1285.2,1285.2,1285.2
201904161302,1285.2,1285.3,1285.2,1285.3
201904161303,1285.3,1285.4,1285.2,1285.3
201904161304,1285.3,1285.3,1285.2,1285.3
201904161305,1285.3,1285.3,1285.3,1285.3
201904161306,1285.3,1285.3,1285.1,1285.1
201904161307,1285.1,1285.3,1285.1,1285.3
201904161308,1285.3,1285.3,1285.2,1285.2
201904161309,1285.2,1285.3,1285.2,1285.2
201904161310,1285.2,1285.3,1285.2,1285.2
201904161311,1285.1,1285.3,1285.1,1285.3
201904161312,1285.3,1285.3,1285.2,1285.2
201904161313,1285.2,1285.2,1285.2,1285.2
201904161314,1285.2,1285.4,1285.2,1285.3
201904161315,1285.3,1285.4,1285.2,1285.2
201904161316,1285.2,1285.3,1285.2,1285.3
201904161317,1285.3,1285.3,1285.1,1285.1
201904161318,1285.1,1285.2,1285.1,1285.1
201904161319,1285.1,1285.2,1285.1,1285.2
201904161320,1285.2,1285.2,1285.2,1285.2
201904161321,1285.2,1285.3,1285.2,1285.3
201904161322,1285.3,1285.3,1285.3,1285.3
201904161323,1285.3,1285.3,1285.2,1285.2
201904161324,1285.2,1285.2,1285.1,1285.1
201904161325,1285.1,1285.2,1285.1,1285.1
201904161326,1285.1,1285.2,1285.1,1285.1
201904161327,1285.1,1285.2,1285.1,1285.2
201904161328,1285.2,1285.2,1285.2,1285.2
201904161329,1285.2,1285.2,1285.2,1285.2
201904161330,1285.2,1285.2,1285.2,1285.2
201904161331,1285.2,1285.3,1285.2,1285.3
201904161332,1285.3,1285.4,1285.3,1285.4
201904161333,1285.4,1285.4,1285.3,1285.4
201904161334,1285.4,1285.4,1285.4,1285.4
201904161335,1285.4,1285.5,1285.2,1285.3
201904161336,1285.3,1285.4,1285.3,1285.3
201904161337,1285.3,1285.3,1285.2,1285.2
201904161338,1285.2,1285.3,1285.2,1285.3
201904161339,1285.3,1285.4,1285.2,1285.2
201904161340,1285.2,1285.4,1285.2,1285.3
201904161341,1285.3,1285.4,1285.1,1285.2
201904161342,1285.2,1285.4,1285.2,1285.4
201904161343,1285.4,1285.4,1285.4,1285.4
201904161344,1285.4,1285.4,1285.2,1285.2
201904161345,1285.2,1285.3,1285.2,1285.2
201904161346,1285.2,1285.2,1285.1,1285.1
201904161347,1285.1,1285.1,1285.1,1285.1
201904161348,1285.1,1285.1,1285.1,1285.1
201904161349,1285.1,1285.1,1285.1,1285.1
201904161350,1285.1,1285.2,1285.1,1285.1
201904161351,1285.1,1285.1,1285.1,1285.1
201904161352,1285.1,1285.2,1285.1,1285.2
201904161353,1285.2,1285.3,1285.2,1285.2
201904161354,1285.2,1285.2,1285.1,1285.1
201904161355,1285.1,1285.1,1284.9,1284.9
201904161356,1284.9,1284.9,1284.8,1284.8
201904161357,1284.8,1284.8,1284.8,1284.8
201904161358,1284.8,1284.8,1284.8,1284.8
201904161359,1284.8,1284.8,1284.8,1284.8
201904161400,1284.8,1284.8,1284.7,1284.7
201904161401,1284.7,1284.7,1284.7,1284.7
201904161402,1284.7,1284.8,1284.7,1284.8
201904161403,1284.8,1284.8,1284.6,1284.7
201904161404,1284.7,1284.8,1284.5,1284.7
201904161405,1284.7,1284.8,1284.7,1284.7
201904161406,1284.7,1284.7,1284.7,1284.7
201904161407,1284.7,1284.7,1284.7,1284.7
201904161408,1284.7,1284.8,1284.6,1284.8
201904161409,1284.8,1284.9,1284.8,1284.9
201904161410,1284.9,1284.9,1284.8,1284.8
201904161411,1284.8,1284.8,1284.7,1284.8
201904161412,1284.8,1284.8,1284.7,1284.8
201904161413,1284.8,1284.8,1284.7,1284.7
201904161414,1284.7,1284.7,1284.6,1284.6
201904161415,1284.6,1284.6,1284.6,1284.6
201904161416,1284.6,1284.7,1284.6,1284.7
201904161417,1284.7,1284.8,1284.7,1284.7
201904161418,1284.7,1284.7,1284.6,1284.7
201904161419,1284.7,1284.7,1284.7,1284.7
201904161420,1284.7,1284.7,1284.7,1284.7
201904161421,1284.7,1284.7,1284.7,1284.7
201904161422,1284.7,1284.7,1284.7,1284.7
201904161423,1284.7,1284.7,1284.7,1284.7
201904161424,1284.7,1284.8,1284.7,1284.7
201904161425,1284.7,1284.8,1284.7,1284.8
201904161426,1284.8,1284.8,1284.7,1284.7
201904161427,1284.7,1284.7,1284.4,1284.5
201904161428,1284.5,1284.5,1284.5,1284.5
201904161429,1284.5,1284.7,1284.5,1284.7
201904161430,1284.7,1284.8,1284.7,1284.8
201904161431,1284.8,1285,1284.8,1284.9
201904161432,1284.9,1285.3,1284.9,1285.3
201904161433,1285.3,1285.3,1285.2,1285.2
201904161434,1285.2,1285.2,1285,1285.1
201904161435,1285.1,1285.2,1285.1,1285.1
201904161436,1285.1,1285.1,1285,1285
201904161437,1285,1285.1,1285,1285
201904161438,1285,1285,1284.4,1284.5
201904161439,1284.5,1284.6,1284.4,1284.5
201904161440,1284.5,1284.6,1284.4,1284.4
201904161441,1284.4,1284.7,1284.4,1284.6
201904161442,1284.6,1284.7,1284.5,1284.7
201904161443,1284.7,1284.7,1284.6,1284.6
201904161444,1284.6,1284.6,1284.3,1284.3
201904161445,1284.3,1284.4,1284.2,1284.3
201904161446,1284.3,1284.4,1284.2,1284.2
201904161447,1284.2,1284.3,1284.1,1284.1
201904161448,1284.1,1284.4,1284.1,1284.3
201904161449,1284.3,1284.4,1284.3,1284.3
201904161450,1284.3,1284.3,1283.9,1284
201904161451,1284,1284,1283.7,1283.8
201904161452,1283.8,1283.8,1283.6,1283.6
201904161453,1283.6,1284.1,1283.6,1284
201904161454,1284,1284.2,1283.9,1284
201904161455,1284,1284,1283.9,1284
201904161456,1284,1284.3,1284,1284.2
201904161457,1284.2,1284.3,1284.1,1284.1
201904161458,1284.1,1284.1,1283.9,1283.9
201904161459,1283.9,1284.4,1283.9,1284.3
201904161500,1284.3,1284.3,1284,1284.2
201904161501,1284.2,1284.3,1284.1,1284.3
201904161502,1284.4,1284.6,1284.3,1284.5
201904161503,1284.5,1284.5,1284.3,1284.3
201904161504,1284.3,1284.4,1284.2,1284.2
201904161505,1284.2,1284.3,1284.2,1284.2
201904161506,1284.2,1284.5,1284.2,1284.5
201904161507,1284.5,1284.5,1284.4,1284.5
201904161508,1284.5,1284.6,1284.5,1284.6
201904161509,1284.6,1284.7,1284.6,1284.7
201904161510,1284.7,1284.7,1284.3,1284.3
201904161511,1284.3,1284.9,1284.3,1284.9
201904161512,1284.9,1284.9,1284.8,1284.8
201904161513,1284.8,1284.8,1284.6,1284.7
201904161514,1284.7,1284.7,1284.6,1284.6
201904161515,1284.6,1284.7,1284.5,1284.6
201904161516,1284.6,1284.7,1284.5,1284.6
201904161517,1284.6,1284.7,1284.5,1284.7
201904161518,1284.7,1284.9,1284.7,1284.9
201904161519,1284.9,1284.9,1284.6,1284.8
201904161520,1284.8,1284.8,1284.5,1284.6
201904161521,1284.6,1284.6,1284.4,1284.5
201904161522,1284.5,1284.6,1284.4,1284.5
201904161523,1284.5,1284.6,1284.5,1284.6
201904161524,1284.6,1284.7,1284.6,1284.7
201904161525,1284.7,1284.8,1284.6,1284.7
201904161526,1284.7,1284.7,1284.6,1284.7
201904161527,1284.7,1284.9,1284.7,1284.9
201904161528,1284.9,1284.9,1284.8,1284.9
201904161529,1284.9,1284.9,1284.9,1284.9
201904161530,1284.9,1285.3,1284.9,1285.3
201904161531,1285.3,1285.3,1285.1,1285.3
201904161532,1285.3,1285.3,1285.2,1285.3
201904161533,1285.3,1285.5,1285.2,1285.3
201904161534,1285.3,1285.4,1285.3,1285.4
201904161535,1285.4,1285.5,1285.3,1285.4
201904161536,1285.4,1285.5,1285.3,1285.5
201904161537,1285.5,1285.7,1285.5,1285.7
201904161538,1285.7,1285.7,1285.5,1285.6
201904161539,1285.5,1285.8,1285.5,1285.7
201904161540,1285.7,1285.8,1285.7,1285.7
201904161541,1285.7,1286.3,1285.7,1286.3
201904161542,1286.3,1286.4,1286.1,1286.1
201904161543,1286.1,1286.6,1286.1,1286.6
201904161544,1286.6,1286.8,1286.5,1286.5
201904161545,1286.5,1286.7,1286.5,1286.5
201904161546,1286.5,1286.6,1286.4,1286.4
201904161547,1286.4,1286.6,1286.4,1286.5
201904161548,1286.5,1286.6,1286.4,1286.4
201904161549,1286.4,1286.4,1286.2,1286.2
201904161550,1286.2,1286.5,1286.1,1286.5
201904161551,1286.5,1286.5,1286,1286.3
201904161552,1286.3,1286.4,1286.1,1286.1
201904161553,1286.2,1286.3,1286.1,1286.3
201904161554,1286.3,1286.3,1286.1,1286.1
201904161555,1286.1,1286.3,1286.1,1286.2
201904161556,1286.2,1286.4,1286.2,1286.3
201904161557,1286.3,1286.3,1286.1,1286.3
201904161558,1286.3,1286.5,1286.2,1286.3
201904161559,1286.3,1286.5,1286.2,1286.5
201904161600,1286.5,1286.5,1286.4,1286.4
201904161601,1286.4,1287,1286.4,1287
201904161602,1287,1287.3,1287,1287.1
201904161603,1287.1,1287.1,1286.9,1286.9
201904161604,1286.9,1287.2,1286.7,1286.8
201904161605,1286.8,1286.9,1286.8,1286.8
201904161606,1286.8,1286.8,1286.6,1286.7
201904161607,1286.7,1286.9,1286.7,1286.8
201904161608,1286.8,1286.8,1286.7,1286.8
201904161609,1286.8,1286.8,1286.6,1286.6
201904161610,1286.6,1286.8,1286.5,1286.5
201904161611,1286.5,1286.5,1286.1,1286.1
201904161612,1286.2,1286.2,1286.1,1286.2
201904161613,1286.2,1286.2,1285.9,1285.9
201904161614,1285.9,1286.1,1285.7,1286
201904161615,1286,1286.1,1285.9,1286
201904161616,1286,1286.1,1286,1286
201904161617,1286.1,1286.1,1285.6,1285.7
201904161618,1285.7,1285.8,1285.4,1285.6
201904161619,1285.6,1285.6,1285.2,1285.3
201904161620,1285.3,1285.6,1285.3,1285.6
201904161621,1285.6,1285.6,1285.5,1285.6
201904161622,1285.6,1285.7,1285.6,1285.6
201904161623,1285.6,1285.7,1285.6,1285.6
201904161624,1285.6,1285.7,1285.6,1285.6
201904161625,1285.6,1285.6,1285.2,1285.2
201904161626,1285.2,1285.4,1285.1,1285.2
201904161627,1285.2,1285.2,1284.9,1285.1
201904161628,1285.1,1285.2,1285,1285.1
201904161629,1285.1,1285.1,1285,1285.1
201904161630,1285.1,1285.3,1285,1285.2
201904161631,1285.2,1285.5,1285.2,1285.4
201904161632,1285.4,1285.4,1285.2,1285.4
201904161633,1285.4,1285.7,1285.4,1285.7
201904161634,1285.7,1285.7,1285.3,1285.3
201904161635,1285.4,1285.4,1285,1285
201904161636,1285,1285.1,1285,1285.1
201904161637,1285.1,1285.2,1285.1,1285.2
201904161638,1285.1,1285.3,1284.9,1285
201904161639,1285,1285.2,1284.7,1285.2
201904161640,1285.2,1285.8,1285.2,1285.8
201904161641,1285.8,1285.8,1285.7,1285.7
201904161642,1285.7,1285.8,1285.6,1285.7
201904161643,1285.7,1285.8,1285.7,1285.7
201904161644,1285.7,1285.7,1285.7,1285.7
201904161645,1285.7,1285.8,1285.6,1285.7
201904161646,1285.7,1285.8,1285.7,1285.7
201904161647,1285.7,1285.8,1285.7,1285.8
201904161648,1285.8,1285.8,1285.7,1285.7
201904161649,1285.7,1285.7,1285.5,1285.5
201904161650,1285.5,1285.7,1285.5,1285.6
201904161651,1285.6,1285.7,1285.6,1285.7
201904161652,1285.7,1285.7,1285.6,1285.6
201904161653,1285.6,1285.6,1285.6,1285.6
201904161654,1285.6,1285.8,1285.6,1285.6
201904161655,1285.6,1285.6,1285.4,1285.5
201904161656,1285.5,1285.6,1285.4,1285.4
201904161657,1285.4,1285.4,1284.8,1284.8
201904161658,1284.8,1285,1284.8,1284.8
201904161659,1284.8,1284.8,1284.6,1284.8
201904161700,1284.8,1284.9,1284.7,1284.9
201904161701,1284.9,1285,1284.8,1284.8
201904161702,1284.8,1284.9,1284.7,1284.8
201904161703,1284.8,1285,1284.8,1284.9
201904161704,1284.9,1284.9,1284.7,1284.7
201904161705,1284.7,1284.8,1284.7,1284.8
201904161706,1284.8,1285,1284.8,1284.9
201904161707,1284.9,1285,1284.9,1285
201904161708,1285,1285.1,1285,1285
201904161709,1285,1285.3,1284.9,1285.3
201904161710,1285.3,1285.3,1285.1,1285.2
201904161711,1285.2,1285.2,1285.1,1285.2
201904161712,1285.2,1285.2,1285,1285.1
201904161713,1285.1,1285.1,1285,1285.1
201904161714,1285.1,1285.2,1285,1285
201904161715,1285,1285.1,1285,1285
201904161716,1285,1285.1,1284.9,1284.9
201904161717,1284.9,1284.9,1284.8,1284.8
201904161718,1284.8,1284.9,1284.8,1284.9
201904161719,1284.9,1284.9,1284.8,1284.8
201904161720,1284.8,1284.9,1284.8,1284.9
201904161721,1284.9,1284.9,1284.7,1284.7
201904161722,1284.7,1284.8,1284.7,1284.8
201904161723,1284.8,1284.8,1284.8,1284.8
201904161724,1284.8,1284.8,1284.6,1284.6
201904161725,1284.6,1284.6,1284.4,1284.5
201904161726,1284.5,1284.7,1284.4,1284.6
201904161727,1284.6,1284.6,1284.5,1284.5
201904161728,1284.5,1284.7,1284.3,1284.3
201904161729,1284.3,1284.5,1284.3,1284.4
201904161730,1284.4,1284.5,1284.3,1284.5
201904161731,1284.5,1284.6,1284.5,1284.5
201904161732,1284.5,1284.5,1284.4,1284.4
201904161733,1284.4,1284.5,1284.3,1284.3
201904161734,1284.3,1284.4,1284.3,1284.3
201904161735,1284.3,1284.5,1284.2,1284.5
201904161736,1284.5,1284.8,1284.5,1284.8
201904161737,1284.8,1284.8,1284.6,1284.7
201904161738,1284.7,1284.8,1284.7,1284.7
201904161739,1284.7,1284.7,1284.5,1284.5
201904161740,1284.5,1284.8,1284.5,1284.7
201904161741,1284.7,1284.9,1284.7,1284.8
201904161742,1284.8,1284.9,1284.8,1284.9
201904161743,1284.9,1285,1284.7,1284.8
201904161744,1284.8,1284.8,1284.7,1284.7
201904161745,1284.7,1284.8,1284.6,1284.8
201904161746,1284.8,1284.8,1284.7,1284.7
201904161747,1284.7,1284.7,1284.6,1284.6
201904161748,1284.6,1284.9,1284.6,1284.8
201904161749,1284.8,1284.8,1284.6,1284.6
201904161750,1284.6,1284.6,1284.4,1284.4
201904161751,1284.4,1284.4,1284.1,1284.2
201904161752,1284.2,1284.2,1284.2,1284.2
201904161753,1284.2,1284.3,1284.2,1284.3
201904161754,1284.3,1284.4,1284.3,1284.4
201904161755,1284.3,1284.3,1284.2,1284.3
201904161756,1284.3,1284.5,1284.3,1284.4
201904161757,1284.4,1284.5,1284.3,1284.4
201904161758,1284.4,1284.4,1284.3,1284.3
201904161759,1284.3,1284.4,1284.3,1284.3
201904161800,1284.3,1284.6,1284.2,1284.5
201904161801,1284.5,1284.5,1284.2,1284.2
201904161802,1284.2,1284.2,1283.8,1283.8
201904161803,1283.8,1283.9,1283.5,1283.6
201904161804,1283.6,1283.8,1283.3,1283.4
201904161805,1283.4,1283.9,1283.3,1283.9
201904161806,1283.9,1283.9,1283.5,1283.6
201904161807,1283.6,1283.6,1283.5,1283.6
201904161808,1283.6,1283.6,1283.5,1283.6
201904161809,1283.6,1283.6,1283.5,1283.6
201904161810,1283.6,1283.6,1283.5,1283.6
201904161811,1283.7,1283.7,1283.5,1283.5
201904161812,1283.5,1283.8,1283.4,1283.7
201904161813,1283.7,1283.7,1283.3,1283.3
201904161814,1283.3,1283.5,1283.2,1283.3
201904161815,1283.3,1283.6,1283.2,1283.5
201904161816,1283.5,1283.5,1283.2,1283.4
201904161817,1283.4,1283.6,1283.4,1283.4
201904161818,1283.4,1283.5,1283.3,1283.5
201904161819,1283.5,1283.5,1283.3,1283.4
201904161820,1283.4,1283.4,1283.3,1283.4
201904161821,1283.4,1283.6,1283.4,1283.5
201904161822,1283.5,1283.6,1283.4,1283.5
201904161823,1283.5,1283.5,1283.5,1283.5
201904161824,1283.5,1283.7,1283.5,1283.7
201904161825,1283.7,1283.8,1283.7,1283.7
201904161826,1283.7,1283.8,1283.7,1283.7
201904161827,1283.7,1283.7,1283.3,1283.4
201904161828,1283.4,1283.7,1283.4,1283.7
201904161829,1283.7,1283.8,1283.7,1283.8
201904161830,1283.8,1284,1283.7,1283.8
201904161831,1283.8,1283.8,1283.4,1283.4
201904161832,1283.4,1283.6,1283.3,1283.3
201904161833,1283.3,1283.4,1283.2,1283.4
201904161834,1283.4,1283.4,1282.6,1282.7
201904161835,1282.7,1282.9,1282.6,1282.6
201904161836,1282.6,1282.9,1282.3,1282.8
201904161837,1282.8,1282.9,1282.6,1282.9
201904161838,1282.9,1283.1,1282.9,1283.1
201904161839,1283.1,1283.1,1282.7,1282.7
201904161840,1282.7,1282.7,1282.5,1282.6
201904161841,1282.6,1282.7,1282.5,1282.5
201904161842,1282.5,1282.9,1282.5,1282.9
201904161843,1282.9,1283.1,1282.8,1283
201904161844,1283,1283,1282.8,1282.9
201904161845,1282.9,1283.1,1282.9,1283.1
201904161846,1283.1,1283.3,1283,1283.2
201904161847,1283.2,1283.2,1283.1,1283.1
201904161848,1283.1,1283.2,1283.1,1283.2
201904161849,1283.2,1283.4,1283.2,1283.3
201904161850,1283.3,1283.3,1283.2,1283.2
201904161851,1283.2,1283.3,1283.1,1283.3
201904161852,1283.3,1283.3,1283.2,1283.3
201904161853,1283.3,1283.3,1283.2,1283.2
201904161854,1283.2,1283.3,1283.2,1283.2
201904161855,1283.2,1283.2,1283.1,1283.1
201904161856,1283.1,1283.3,1283.1,1283.2
201904161857,1283.2,1283.4,1283.2,1283.3
201904161858,1283.3,1283.5,1283.3,1283.5
201904161859,1283.5,1283.6,1283.4,1283.4
201904161900,1283.5,1283.5,1283.4,1283.5
201904161901,1283.5,1283.6,1283.5,1283.5
201904161902,1283.5,1283.7,1283.5,1283.6
201904161903,1283.6,1283.7,1283.4,1283.6
201904161904,1283.6,1283.7,1283.5,1283.6
201904161905,1283.6,1283.6,1283.5,1283.6
201904161906,1283.7,1283.8,1283.6,1283.8
201904161907,1283.8,1283.8,1283.6,1283.7
201904161908,1283.7,1283.7,1283.6,1283.7
201904161909,1283.7,1283.8,1283.7,1283.7
201904161910,1283.7,1283.7,1283.6,1283.6
201904161911,1283.6,1283.7,1283.6,1283.7
201904161912,1283.7,1283.7,1283.6,1283.7
201904161913,1283.7,1283.7,1283.6,1283.6
201904161914,1283.6,1283.7,1283.6,1283.7
201904161915,1283.7,1283.7,1283.7,1283.7
201904161916,1283.7,1283.7,1283.6,1283.7
201904161917,1283.7,1283.7,1283.6,1283.6
201904161918,1283.6,1283.6,1283.3,1283.3
201904161919,1283.3,1283.4,1283.3,1283.3
201904161920,1283.3,1283.3,1283.2,1283.2
201904161921,1283.2,1283.2,1283,1283.1
201904161922,1283.1,1283.2,1283,1283.1
201904161923,1283.1,1283.3,1283.1,1283.2
201904161924,1283.2,1283.2,1283.1,1283.1
201904161925,1283.1,1283.1,1283,1283.1
201904161926,1283.1,1283.2,1283,1283.1
201904161927,1283.1,1283.1,1283.1,1283.1
201904161928,1283.1,1283.1,1282.9,1283
201904161929,1283,1283,1282.9,1283
201904161930,1283,1283,1283,1283
201904161931,1283,1283.1,1283,1283.1
201904161932,1283.1,1283.2,1283.1,1283.2
201904161933,1283.2,1283.2,1283,1283.2
201904161934,1283.2,1283.2,1283,1283.1
201904161935,1283.1,1283.1,1283,1283
201904161936,1283,1283.1,1283,1283
201904161937,1283,1283.1,1283,1283.1
201904161938,1283.1,1283.1,1283,1283
201904161939,1283.1,1283.3,1283.1,1283.1
201904161940,1283.1,1283.3,1283.1,1283.2
201904161941,1283.2,1283.3,1283.2,1283.3
201904161942,1283.3,1283.4,1283.3,1283.4
201904161943,1283.4,1283.5,1283.4,1283.4
201904161944,1283.4,1283.5,1283.4,1283.4
201904161945,1283.4,1283.5,1283.3,1283.4
201904161946,1283.4,1283.6,1283.4,1283.6
201904161947,1283.6,1283.8,1283.6,1283.7
201904161948,1283.7,1283.7,1283.6,1283.7
201904161949,1283.7,1283.7,1283.6,1283.6
201904161950,1283.6,1283.7,1283.6,1283.7
201904161951,1283.7,1283.7,1283.7,1283.7
201904161952,1283.7,1283.8,1283.7,1283.7
201904161953,1283.7,1283.8,1283.7,1283.8
201904161954,1283.8,1283.8,1283.8,1283.8
201904161955,1283.8,1283.8,1283.7,1283.8
201904161956,1283.8,1283.8,1283.7,1283.7
201904161957,1283.7,1283.9,1283.7,1283.9
201904161958,1283.8,1283.8,1283.6,1283.7
201904161959,1283.7,1283.8,1283.7,1283.8
201904162000,1283.8,1283.8,1283.7,1283.7
201904162001,1283.7,1283.8,1283.7,1283.7
201904162002,1283.7,1283.9,1283.7,1283.8
201904162003,1283.9,1284.1,1283.9,1283.9
201904162004,1283.9,1283.9,1283.9,1283.9
201904162005,1283.9,1284,1283.9,1284
201904162006,1284,1284.1,1284,1284.1
201904162007,1284.1,1284.2,1284.1,1284.2
201904162008,1284.2,1284.4,1284.2,1284.2
201904162009,1284.2,1284.3,1284.2,1284.3
201904162010,1284.3,1284.5,1284.3,1284.5
201904162011,1284.5,1284.6,1284.5,1284.6
201904162012,1284.6,1284.9,1284.6,1284.9
201904162013,1284.9,1284.9,1284.5,1284.5
201904162014,1284.5,1284.5,1284.3,1284.3
201904162015,1284.3,1284.3,1284,1284.1
201904162016,1284.1,1284.1,1283.9,1284
201904162017,1284,1284.1,1283.9,1283.9
201904162018,1283.9,1284,1283.7,1283.7
201904162019,1283.7,1283.8,1283.6,1283.7
201904162020,1283.7,1283.9,1283.7,1283.9
201904162021,1283.9,1284.2,1283.9,1284.2
201904162022,1284.2,1284.2,1284.1,1284.1
201904162023,1284.1,1284.1,1283.9,1283.9
201904162024,1283.9,1283.9,1283.8,1283.8
201904162025,1283.8,1283.8,1283.5,1283.6
201904162026,1283.5,1283.7,1283.5,1283.7
201904162027,1283.6,1283.8,1283.6,1283.8
201904162028,1283.8,1283.8,1283.6,1283.7
201904162029,1283.7,1283.7,1283.4,1283.4
201904162030,1283.4,1283.7,1283.4,1283.7
201904162031,1283.7,1283.9,1283.7,1283.8
201904162032,1283.8,1284,1283.8,1283.9
201904162033,1283.9,1283.9,1283.9,1283.9
201904162034,1283.9,1283.9,1283.7,1283.8
201904162035,1283.8,1283.8,1283.7,1283.8
201904162036,1283.8,1284,1283.8,1283.9
201904162037,1283.9,1283.9,1283.7,1283.8
201904162038,1283.8,1283.8,1283.5,1283.6
201904162039,1283.6,1283.6,1283.5,1283.6
201904162040,1283.6,1283.7,1283.6,1283.6
201904162041,1283.6,1283.6,1283.4,1283.4
201904162042,1283.4,1283.5,1283.4,1283.5
201904162043,1283.5,1283.6,1283.5,1283.5
201904162044,1283.6,1283.6,1283.5,1283.5
201904162045,1283.5,1283.6,1283.5,1283.6
201904162046,1283.6,1283.6,1283.5,1283.5
201904162047,1283.5,1283.5,1283.3,1283.3
201904162048,1283.2,1283.2,1282.7,1282.8
201904162049,1282.8,1283.1,1282.8,1283
201904162050,1283,1283.2,1283,1283.2
201904162051,1283.2,1283.3,1283.2,1283.3
201904162052,1283.3,1283.7,1283.3,1283.7
201904162053,1283.7,1283.8,1283.7,1283.8
201904162054,1283.8,1283.9,1283.8,1283.9
201904162055,1283.9,1283.9,1283.8,1283.8
201904162056,1283.8,1283.9,1283.8,1283.8
201904162057,1283.8,1284.3,1283.8,1284.2
201904162058,1284.2,1284.3,1284.2,1284.3
201904162059,1284.3,1284.8,1284.3,1284.5
201904162100,1284.5,1284.5,1284.1,1284.1
201904162101,1284.1,1284.3,1284,1284.2
201904162102,1284.2,1284.2,1283.7,1283.7
201904162103,1283.7,1283.8,1283.5,1283.8
201904162104,1283.7,1283.8,1283.6,1283.7
201904162105,1283.7,1283.8,1283.6,1283.7
201904162106,1283.7,1283.8,1283.6,1283.6
201904162107,1283.6,1283.7,1283.6,1283.6
201904162108,1283.6,1283.8,1283.6,1283.8
201904162109,1283.8,1284.1,1283.7,1284
201904162110,1284,1284.2,1284,1284.2
201904162111,1284.2,1284.2,1284.1,1284.2
201904162112,1284.2,1284.3,1284.1,1284.3
201904162113,1284.3,1284.5,1284.2,1284.5
201904162114,1284.5,1284.5,1284.4,1284.5
201904162115,1284.5,1284.6,1284.4,1284.4
201904162116,1284.4,1284.6,1284.4,1284.4
201904162117,1284.4,1284.4,1284.3,1284.3
201904162118,1284.3,1284.4,1284.1,1284.4
201904162119,1284.4,1284.7,1284.4,1284.7
201904162120,1284.7,1284.7,1284.2,1284.2
201904162121,1284.2,1284.3,1284.1,1284.2
201904162122,1284.2,1284.3,1284.2,1284.3
201904162123,1284.3,1284.3,1284.2,1284.3
201904162124,1284.3,1284.3,1284.1,1284.1
201904162125,1284.2,1284.2,1284.1,1284.1
201904162126,1284.1,1284.1,1283.3,1283.4
201904162127,1283.4,1283.5,1283,1283.1
201904162128,1283.1,1283.1,1280.9,1280.9
201904162129,1280.9,1281.3,1280.6,1281.2
201904162130,1281.2,1281.2,1279.9,1279.9
201904162131,1280,1280,1279.6,1279.8
201904162132,1279.8,1279.8,1278.9,1279
201904162133,1279,1279.3,1278.8,1278.8
201904162134,1278.8,1279,1278.6,1278.7
201904162135,1278.7,1278.7,1278.2,1278.4
201904162136,1278.3,1278.7,1278.3,1278.6
201904162137,1278.6,1279.2,1278.4,1279.2
201904162138,1279.1,1279.6,1279,1279.3
201904162139,1279.3,1279.6,1279.3,1279.5
201904162140,1279.5,1279.6,1279.3,1279.4
201904162141,1279.4,1279.7,1279.3,1279.7
201904162142,1279.7,1279.8,1279.6,1279.6
201904162143,1279.6,1279.7,1279.4,1279.6
201904162144,1279.6,1280,1279.5,1279.6
201904162145,1279.6,1279.7,1279.5,1279.7
201904162146,1279.7,1280.1,1279.6,1280
201904162147,1280,1280.2,1279.8,1280.2
201904162148,1280.2,1280.6,1280.2,1280.5
201904162149,1280.5,1280.6,1280.2,1280.2
201904162150,1280.2,1280.6,1280.1,1280.2
201904162151,1280.2,1280.4,1279.9,1280
201904162152,1279.9,1280,1279.7,1279.8
201904162153,1279.8,1280.1,1279.8,1279.9
201904162154,1279.9,1279.9,1279.7,1279.8
201904162155,1279.8,1279.9,1279.6,1279.9
201904162156,1279.9,1280,1279.7,1279.7
201904162157,1279.7,1279.7,1279.5,1279.6
201904162158,1279.6,1279.6,1278.7,1278.7
201904162159,1278.7,1279,1278.5,1279
201904162200,1279,1279.5,1279,1279.3
201904162201,1279.3,1279.3,1278.7,1279
201904162202,1279,1279.5,1279,1279.2
201904162203,1279.2,1279.4,1278.9,1279.1
201904162204,1279.1,1279.4,1279,1279.3
201904162205,1279.3,1279.4,1278.8,1278.9
201904162206,1278.9,1279,1278.5,1278.7
201904162207,1278.7,1278.7,1277.5,1278.3
201904162208,1278.3,1278.8,1278.3,1278.8
201904162209,1278.8,1279,1278.5,1278.7
201904162210,1278.8,1278.8,1278.5,1278.5
201904162211,1278.5,1278.5,1276.5,1277.1
201904162212,1277.1,1277.1,1276.7,1276.7
201904162213,1276.7,1276.8,1275.9,1276.2
201904162214,1276.2,1276.2,1275.9,1276
201904162215,1276,1277,1275.9,1276.8
201904162216,1276.8,1276.8,1276.2,1276.3
201904162217,1276.3,1276.3,1275.5,1275.8
201904162218,1275.8,1276,1275.3,1275.6
201904162219,1275.6,1275.6,1275,1275.2
201904162220,1275.2,1275.6,1275.2,1275.6
201904162221,1275.6,1275.6,1275.3,1275.4
201904162222,1275.4,1275.4,1275.1,1275.3
201904162223,1275.3,1275.5,1275,1275.1
201904162224,1275.1,1275.6,1275,1275.6
201904162225,1275.7,1276,1275.6,1275.8
201904162226,1275.8,1275.9,1275.6,1275.6
201904162227,1275.6,1275.7,1275.3,1275.3
201904162228,1275.3,1275.4,1274.9,1275.3
201904162229,1275.3,1275.4,1274.3,1274.7
201904162230,1274.7,1274.7,1273.9,1274.2
201904162231,1274.1,1275.2,1273.9,1275.1
201904162232,1275.1,1275.5,1274.9,1274.9
201904162233,1274.9,1275.2,1274.8,1274.9
201904162234,1274.9,1274.9,1273.6,1273.6
201904162235,1273.6,1273.6,1273.2,1273.5
201904162236,1273.6,1274.4,1273.6,1274.4
201904162237,1274.4,1275,1274,1274.9
201904162238,1274.9,1275.4,1274.6,1274.8
201904162239,1274.8,1275.1,1274.5,1274.5
201904162240,1274.5,1274.6,1274,1274.5
201904162241,1274.5,1274.9,1274.4,1274.7
201904162242,1274.7,1275.3,1274.6,1275.3
201904162243,1275.3,1275.3,1274.9,1274.9
201904162244,1274.9,1275.2,1274.7,1274.7
201904162245,1274.7,1274.7,1274.4,1274.6
201904162246,1274.6,1275,1274.5,1275
201904162247,1275,1275.3,1275,1275.2
201904162248,1275.2,1275.2,1274.9,1274.9
201904162249,1274.9,1275.1,1274.6,1274.6
201904162250,1274.6,1274.7,1274.4,1274.5
201904162251,1274.5,1274.8,1274.4,1274.6
201904162252,1274.6,1274.8,1274.6,1274.6
201904162253,1274.6,1275,1274.6,1274.9
201904162254,1274.9,1275.3,1274.9,1275.2
201904162255,1275.2,1275.6,1275.2,1275.2
201904162256,1275.2,1275.4,1275.2,1275.3
201904162257,1275.3,1275.6,1275.3,1275.6
201904162258,1275.6,1275.6,1275.4,1275.4
201904162259,1275.4,1276.2,1275.4,1276.2
201904162300,1276.2,1276.5,1276.1,1276.3
201904162301,1276.3,1276.4,1275.7,1275.7
201904162302,1275.7,1276,1275.7,1275.7
201904162303,1275.6,1276.1,1275.6,1275.9
201904162304,1275.8,1276,1275.7,1275.9
201904162305,1275.9,1276,1275.7,1275.8
201904162306,1275.8,1275.8,1275.3,1275.4
201904162307,1275.4,1275.4,1274.7,1274.9
201904162308,1275,1275,1274.4,1274.4
201904162309,1274.4,1274.5,1273.9,1273.9
201904162310,1274,1275.2,1274,1275
201904162311,1275,1275.3,1275,1275.2
201904162312,1275.2,1275.4,1275.2,1275.4
201904162313,1275.4,1275.4,1274.9,1274.9
201904162314,1274.9,1274.9,1274.7,1274.7
201904162315,1274.7,1274.8,1274.4,1274.5
201904162316,1274.5,1274.6,1274.4,1274.4
201904162317,1274.4,1274.6,1274.3,1274.4
201904162318,1274.4,1274.7,1274.3,1274.5
201904162319,1274.5,1274.8,1274.4,1274.6
201904162320,1274.6,1274.7,1274.3,1274.4
201904162321,1274.4,1274.4,1273.8,1274
201904162322,1274,1274.2,1274,1274.1
201904162323,1274.1,1274.2,1274,1274.1
201904162324,1274.1,1274.2,1274.1,1274.1
201904162325,1274.1,1274.2,1274.1,1274.1
201904162326,1274.1,1274.2,1274.1,1274.1
201904162327,1274.1,1274.1,1274.1,1274.1
201904162328,1274.1,1274.4,1274.1,1274.4
201904162329,1274.3,1274.6,1274.3,1274.6
201904162330,1274.6,1274.9,1274.6,1274.7
201904162331,1274.7,1274.7,1274.4,1274.5
201904162332,1274.5,1274.7,1274.5,1274.6
201904162333,1274.6,1275.2,1274.6,1275.1
201904162334,1275.1,1275.7,1275,1275.5
201904162335,1275.5,1275.7,1275.3,1275.4
201904162336,1275.4,1275.6,1275.2,1275.6
201904162337,1275.6,1275.8,1275.3,1275.5
201904162338,1275.6,1275.6,1275.3,1275.5
201904162339,1275.5,1276.2,1275.5,1276.1
201904162340,1276.1,1276.1,1275.6,1275.7
201904162341,1275.6,1275.8,1275.5,1275.5
201904162342,1275.5,1275.8,1275.5,1275.7
201904162343,1275.7,1275.8,1275.3,1275.4
201904162344,1275.4,1275.5,1275.2,1275.2
201904162345,1275.2,1275.6,1275.1,1275.4
201904162346,1275.4,1275.8,1275.4,1275.7
201904162347,1275.7,1276,1275.7,1275.9
201904162348,1275.9,1275.9,1275.7,1275.9
201904162349,1275.9,1276,1275.8,1275.8
201904162350,1275.8,1275.9,1275.6,1275.7
201904162351,1275.7,1275.7,1275.4,1275.4
201904162352,1275.4,1275.7,1275.4,1275.7
201904162353,1275.7,1276.1,1275.7,1276.1
201904162354,1276.2,1276.2,1275.9,1275.9
201904162355,1275.9,1276.4,1275.9,1276.3
201904162356,1276.3,1276.3,1276,1276.1
201904162357,1276.1,1276.3,1276,1276.2
201904162358,1276.2,1276.3,1276,1276.2
201904162359,1276.2,1276.7,1276.1,1276.5
201904170000,1276.5,1276.9,1276.5,1276.9
201904170001,1276.9,1277.6,1276.9,1277.3
201904170002,1277.4,1277.4,1276.9,1276.9
201904170003,1277,1277.3,1276.8,1277
201904170004,1277,1277.1,1276.8,1276.8
201904170005,1276.8,1277.2,1276.8,1277
201904170006,1277,1277,1276.7,1276.8
201904170007,1276.8,1276.9,1276.5,1276.7
201904170008,1276.7,1277,1276.7,1276.8
201904170009,1276.8,1276.8,1276.4,1276.5
201904170010,1276.5,1276.6,1276.4,1276.5
201904170011,1276.5,1276.5,1276.4,1276.4
201904170012,1276.4,1276.6,1276.1,1276.1
201904170013,1276.1,1276.2,1275.9,1276
201904170014,1276,1276.1,1276,1276
201904170015,1276,1276.1,1275.7,1275.9
201904170016,1275.8,1276,1275.7,1276
201904170017,1276,1276,1275.7,1275.8
201904170018,1275.7,1275.9,1275.7,1275.8
201904170019,1275.7,1275.7,1275.5,1275.6
201904170020,1275.6,1275.6,1275.3,1275.3
201904170021,1275.3,1275.4,1275.2,1275.2
201904170022,1275.2,1275.3,1275,1275.1
201904170023,1275.1,1275.1,1274.8,1274.9
201904170024,1274.9,1275.1,1274.9,1275.1
201904170025,1275.1,1275.1,1274.8,1274.8
201904170026,1274.8,1275,1274.7,1274.8
201904170027,1274.7,1274.9,1274.7,1274.9
201904170028,1274.9,1275,1274.8,1274.8
201904170029,1274.7,1274.8,1274.5,1274.6
201904170030,1274.6,1274.7,1274.4,1274.5
201904170031,1274.5,1274.5,1274.2,1274.3
201904170032,1274.3,1274.4,1274.2,1274.4
201904170033,1274.4,1274.5,1274.3,1274.4
201904170034,1274.4,1274.7,1274.4,1274.7
201904170035,1274.7,1274.8,1274.7,1274.7
201904170036,1274.7,1274.7,1274.5,1274.5
201904170037,1274.5,1274.6,1274.5,1274.6
201904170038,1274.6,1274.9,1274.6,1274.9
201904170039,1274.9,1274.9,1274.8,1274.8
201904170040,1274.8,1275,1274.8,1275
201904170041,1275,1275.1,1274.8,1274.9
201904170042,1274.9,1275.1,1274.9,1275
201904170043,1275,1275,1274.9,1274.9
201904170044,1274.9,1275.1,1274.9,1274.9
201904170045,1274.9,1274.9,1274.8,1274.9
201904170046,1274.9,1275.1,1274.9,1275
201904170047,1275,1275.1,1274.9,1274.9
201904170048,1274.9,1275.2,1274.8,1275.1
201904170049,1275.1,1275.3,1275.1,1275.2
201904170050,1275.2,1275.3,1275.1,1275.2
201904170051,1275.2,1275.3,1275.1,1275.1
201904170052,1275.1,1275.1,1274.9,1275.1
201904170053,1275.1,1275.2,1275,1275.1
201904170054,1275.1,1275.2,1275,1275.1
201904170055,1275.1,1275.1,1274.9,1274.9
201904170056,1274.9,1274.9,1274.9,1274.9
201904170057,1274.9,1275.2,1274.9,1275.2
201904170058,1275.2,1275.3,1275.1,1275.2
201904170059,1275.2,1275.7,1275.2,1275.6
201904170100,1275.6,1275.6,1275.4,1275.5
201904170101,1275.5,1275.5,1275.2,1275.3
201904170102,1275.3,1275.4,1275.1,1275.2
201904170103,1275.2,1275.3,1275,1275.1
201904170104,1275.1,1275.3,1275.1,1275.2
201904170105,1275.3,1275.3,1275,1275
201904170106,1275,1275,1274.9,1274.9
201904170107,1274.9,1274.9,1274.6,1274.7
201904170108,1274.7,1274.7,1274.4,1274.4
201904170109,1274.4,1274.6,1274.4,1274.6
201904170110,1274.6,1274.6,1274.4,1274.5
201904170111,1274.5,1274.5,1274.5,1274.5
201904170112,1274.5,1274.5,1274.1,1274.3
201904170113,1274.3,1274.4,1274,1274
201904170114,1274,1274.4,1274,1274.4
201904170115,1274.4,1274.4,1274.1,1274.1
201904170116,1274.2,1274.2,1273.9,1273.9
201904170117,1273.9,1274,1273.9,1273.9
201904170118,1273.9,1273.9,1273.8,1273.8
201904170119,1273.8,1273.9,1273.8,1273.9
201904170120,1273.9,1274,1273.9,1274
201904170121,1274,1274,1273.9,1273.9
201904170122,1273.9,1274,1273.9,1274
201904170123,1274,1274.1,1274,1274
201904170124,1274,1274.1,1273.8,1274.1
201904170125,1274.1,1274.1,1273.9,1274
201904170126,1274,1274.3,1274,1274.3
201904170127,1274.3,1274.5,1274.2,1274.2
201904170128,1274.2,1274.2,1274.2,1274.2
201904170129,1274.2,1274.2,1274,1274
201904170130,1274,1274.2,1273.8,1273.8
201904170131,1273.8,1273.9,1273.8,1273.9
201904170132,1273.9,1274,1273.8,1274
201904170133,1274,1274,1273.9,1274
201904170134,1273.9,1274,1273.8,1273.9
201904170135,1273.9,1273.9,1273.8,1273.9
201904170136,1273.9,1273.9,1273.8,1273.9
201904170137,1273.9,1274.1,1273.9,1274.1
201904170138,1274.1,1274.1,1274,1274
201904170139,1274,1274.1,1273.9,1273.9
201904170140,1273.9,1274,1273.8,1273.9
201904170141,1273.9,1274.1,1273.8,1274.1
201904170142,1274.1,1274.1,1274.1,1274.1
201904170143,1274.1,1274.2,1274.1,1274.2
201904170144,1274.3,1274.3,1274,1274
201904170145,1274,1274.1,1273.8,1273.8
201904170146,1273.8,1273.8,1273.7,1273.7
201904170147,1273.7,1273.8,1273.5,1273.6
201904170148,1273.6,1273.6,1273.3,1273.3
201904170149,1273.3,1273.5,1272.9,1273
201904170150,1273,1273.7,1272.8,1273.6
201904170151,1273.6,1273.8,1273.6,1273.8
201904170152,1273.8,1274.3,1273.7,1274
201904170153,1274,1274.3,1274,1274
201904170154,1274,1274,1273.9,1273.9
201904170155,1273.9,1273.9,1273.7,1273.8
201904170156,1273.8,1273.9,1273.8,1273.9
201904170157,1273.9,1274,1273.9,1274
201904170158,1274,1274.1,1273.9,1273.9
201904170159,1273.9,1274.1,1273.9,1273.9
201904170200,1273.9,1274.4,1273.9,1274.4
201904170201,1274.4,1274.8,1274.4,1274.6
201904170202,1274.6,1274.7,1274.6,1274.6
201904170203,1274.6,1274.6,1274.5,1274.5
201904170204,1274.5,1274.6,1274.5,1274.5
201904170205,1274.5,1274.6,1274.4,1274.5
201904170206,1274.5,1274.6,1274.3,1274.5
201904170207,1274.5,1274.7,1274.5,1274.6
201904170208,1274.6,1274.7,1274.5,1274.5
201904170209,1274.5,1274.5,1274.4,1274.5
201904170210,1274.5,1274.5,1274.4,1274.5
201904170211,1274.5,1274.6,1274.5,1274.6
201904170212,1274.6,1274.6,1274.3,1274.3
201904170213,1274.3,1274.4,1274.3,1274.4
201904170214,1274.4,1274.4,1274.3,1274.3
201904170215,1274.3,1274.3,1274.2,1274.3
201904170216,1274.3,1274.5,1274.3,1274.5
201904170217,1274.5,1274.7,1274.5,1274.6
201904170218,1274.6,1274.8,1274.6,1274.8
201904170219,1274.8,1274.8,1274.8,1274.8
201904170220,1274.8,1274.8,1274.7,1274.7
201904170221,1274.7,1274.8,1274.6,1274.8
201904170222,1274.8,1275,1274.7,1274.7
201904170223,1274.7,1274.7,1273.9,1274
201904170224,1274,1274,1273.8,1274
201904170225,1274,1274,1273.8,1273.8
201904170226,1273.8,1273.9,1273.7,1273.9
201904170227,1274,1274.2,1274,1274.1
201904170228,1274.1,1274.4,1274,1274
201904170229,1274,1274.6,1274,1274.6
201904170230,1274.6,1275.2,1274.6,1275.1
201904170231,1275.1,1275.1,1274.7,1274.7
201904170232,1274.7,1274.9,1274.7,1274.8
201904170233,1274.8,1274.8,1274.5,1274.6
201904170234,1274.6,1274.7,1274.5,1274.7
201904170235,1274.7,1274.7,1274.6,1274.6
201904170236,1274.6,1274.6,1274.5,1274.6
201904170237,1274.5,1274.7,1274.5,1274.6
201904170238,1274.6,1274.6,1274.4,1274.5
201904170239,1274.5,1274.5,1274.3,1274.5
201904170240,1274.5,1274.5,1274.3,1274.3
201904170241,1274.4,1274.4,1274.2,1274.2
201904170242,1274.2,1274.2,1274.1,1274.1
201904170243,1274.1,1274.2,1274,1274
201904170244,1274,1274.2,1274,1274.1
201904170245,1274.1,1274.2,1274.1,1274.1
201904170246,1274.1,1274.2,1274.1,1274.2
201904170247,1274.2,1274.3,1274.2,1274.3
201904170248,1274.3,1274.5,1274.2,1274.5
201904170249,1274.5,1274.6,1274.4,1274.5
201904170250,1274.5,1274.6,1274.5,1274.6
201904170251,1274.6,1274.6,1274.5,1274.5
201904170252,1274.5,1274.7,1274.5,1274.7
201904170253,1274.7,1275,1274.7,1274.9
201904170254,1274.9,1274.9,1274.8,1274.8
201904170255,1274.8,1275,1274.8,1274.9
201904170256,1274.9,1275,1274.9,1275
201904170257,1275,1275,1274.8,1274.9
201904170258,1274.9,1274.9,1274.9,1274.9
201904170259,1274.9,1275.2,1274.9,1275
201904170300,1275,1275.1,1274.9,1275
201904170301,1275,1275.1,1274.9,1275
201904170302,1275,1275.1,1275,1275.1
201904170303,1275.1,1275.3,1275.1,1275.3
201904170304,1275.3,1275.5,1275.3,1275.5
201904170305,1275.5,1275.6,1275.5,1275.6
201904170306,1275.6,1275.7,1275.5,1275.6
201904170307,1275.6,1275.8,1275.6,1275.7
201904170308,1275.7,1275.7,1275.4,1275.4
201904170309,1275.4,1275.5,1275.3,1275.4
201904170310,1275.4,1275.4,1275.2,1275.3
201904170311,1275.3,1275.4,1275.3,1275.4
201904170312,1275.4,1275.5,1275.3,1275.4
201904170313,1275.5,1275.6,1275.4,1275.5
201904170314,1275.5,1275.5,1275.3,1275.4
201904170315,1275.4,1275.4,1275.3,1275.3
201904170316,1275.3,1275.4,1275.2,1275.4
201904170317,1275.4,1275.4,1275.3,1275.3
201904170318,1275.3,1275.3,1275.2,1275.2
201904170319,1275.2,1275.3,1275.2,1275.2
201904170320,1275.2,1275.4,1275.2,1275.3
201904170321,1275.3,1275.4,1275.3,1275.3
201904170322,1275.3,1275.3,1275.2,1275.3
201904170323,1275.3,1275.3,1275.1,1275.2
201904170324,1275.2,1275.2,1275.1,1275.2
201904170325,1275.2,1275.3,1275.2,1275.3
201904170326,1275.3,1275.5,1275.3,1275.4
201904170327,1275.4,1275.5,1275.4,1275.5
201904170328,1275.5,1275.6,1275.5,1275.6
201904170329,1275.6,1275.6,1275.4,1275.5
201904170330,1275.5,1275.6,1275.5,1275.6
201904170331,1275.5,1275.6,1275.5,1275.6
201904170332,1275.6,1275.8,1275.6,1275.7
201904170333,1275.7,1275.9,1275.7,1275.8
201904170334,1275.8,1275.9,1275.8,1275.8
201904170335,1275.8,1275.9,1275.8,1275.9
201904170336,1275.9,1275.9,1275.9,1275.9
201904170337,1275.9,1276.2,1275.9,1276.2
201904170338,1276.2,1276.3,1276.1,1276.3
201904170339,1276.3,1276.3,1276.2,1276.2
201904170340,1276.2,1276.3,1276.2,1276.3
201904170341,1276.3,1276.4,1276.2,1276.3
201904170342,1276.3,1276.3,1276.2,1276.2
201904170343,1276.2,1276.3,1276.2,1276.3
201904170344,1276.3,1276.4,1276.3,1276.3
201904170345,1276.3,1276.4,1276.3,1276.4
201904170346,1276.3,1276.4,1276.3,1276.4
201904170347,1276.4,1276.4,1276.2,1276.3
201904170348,1276.3,1276.4,1276.3,1276.4
201904170349,1276.4,1276.5,1276.4,1276.4
201904170350,1276.4,1276.4,1276.3,1276.4
201904170351,1276.4,1276.4,1276.2,1276.3
201904170352,1276.3,1276.3,1276.2,1276.2
201904170353,1276.2,1276.2,1276.1,1276.1
201904170354,1276.1,1276.2,1276.1,1276.2
201904170355,1276.2,1276.2,1276.1,1276.2
201904170356,1276.2,1276.3,1276.2,1276.3
201904170357,1276.3,1276.3,1276.2,1276.3
201904170358,1276.3,1276.3,1276.3,1276.3
201904170359,1276.3,1276.3,1276.1,1276.1
201904170400,1276.1,1276.3,1276.1,1276.3
201904170401,1276.3,1276.4,1276.3,1276.4
201904170402,1276.4,1276.4,1276.4,1276.4
201904170403,1276.4,1276.4,1276.2,1276.3
201904170404,1276.3,1276.3,1276.2,1276.3
201904170405,1276.2,1276.2,1276.2,1276.2
201904170406,1276.2,1276.3,1276.1,1276.1
201904170407,1276.1,1276.1,1275.7,1275.7
201904170408,1275.7,1275.9,1275.7,1275.9
201904170409,1275.9,1275.9,1275.9,1275.9
201904170410,1275.9,1276,1275.9,1276
201904170411,1276,1276,1275.9,1276
201904170412,1276,1276,1275.9,1275.9
201904170413,1275.9,1275.9,1275.8,1275.9
201904170414,1275.9,1276.2,1275.9,1276.2
201904170415,1276.2,1276.2,1276,1276.1
201904170416,1276.1,1276.2,1276,1276.2
201904170417,1276.2,1276.2,1276.1,1276.2
201904170418,1276.2,1276.2,1276,1276.1
201904170419,1276.1,1276.2,1276,1276.2
201904170420,1276.2,1276.3,1276.1,1276.3
201904170421,1276.3,1276.3,1276.3,1276.3
201904170422,1276.3,1276.3,1276.2,1276.2
201904170423,1276.2,1276.2,1276.1,1276.2
201904170424,1276.2,1276.2,1276.1,1276.2
201904170425,1276.2,1276.2,1276.1,1276.2
201904170426,1276.2,1276.2,1276.1,1276.1
201904170427,1276.1,1276.2,1276.1,1276.1
201904170428,1276.1,1276.3,1276.1,1276.2
201904170429,1276.2,1276.2,1276.1,1276.1
201904170430,1276.1,1276.3,1276.1,1276.2
201904170431,1276.2,1276.3,1276.2,1276.2
201904170432,1276.2,1276.2,1276.2,1276.2
201904170433,1276.2,1276.4,1276.2,1276.4
201904170434,1276.4,1276.4,1276.2,1276.2
201904170435,1276.2,1276.3,1276.2,1276.2
201904170436,1276.2,1276.3,1276.2,1276.3
201904170437,1276.3,1276.4,1276.3,1276.3
201904170438,1276.3,1276.3,1276.3,1276.3
201904170439,1276.3,1276.4,1276.3,1276.4
201904170440,1276.4,1276.4,1276.1,1276.1
201904170441,1276.1,1276.2,1276.1,1276.2
201904170442,1276.2,1276.2,1276.2,1276.2
201904170443,1276.2,1276.2,1276.1,1276.2
201904170444,1276.2,1276.4,1276.2,1276.3
201904170445,1276.3,1276.4,1276.2,1276.4
201904170446,1276.4,1276.6,1276.3,1276.5
201904170447,1276.5,1276.6,1276.4,1276.6
201904170448,1276.6,1276.6,1276.6,1276.6
201904170449,1276.6,1276.8,1276.6,1276.8
201904170450,1276.8,1276.8,1276.6,1276.6
201904170451,1276.6,1276.6,1276.5,1276.5
201904170452,1276.5,1276.6,1276.5,1276.5
201904170453,1276.5,1276.5,1276.5,1276.5
201904170454,1276.4,1276.6,1276.4,1276.6
201904170455,1276.6,1276.7,1276.6,1276.7
201904170456,1276.7,1276.8,1276.7,1276.7
201904170457,1276.7,1276.7,1276.5,1276.6
201904170458,1276.6,1276.6,1276.3,1276.4
201904170459,1276.4,1276.4,1276,1276.2
201904170500,1276.3,1276.4,1276,1276
201904170501,1276,1276,1275.8,1276
201904170502,1276,1276,1276,1276
201904170503,1276,1276,1276,1276
201904170504,1276,1276,1275.9,1275.9
201904170505,1275.9,1275.9,1275.9,1275.9
201904170506,1275.9,1276.2,1275.9,1276.2
201904170507,1276.2,1276.4,1276.1,1276.1
201904170508,1276.1,1276.1,1276.1,1276.1
201904170509,1276.1,1276.2,1276.1,1276.2
201904170510,1276.2,1276.2,1276.2,1276.2
201904170511,1276.2,1276.3,1276.2,1276.3
201904170512,1276.3,1276.3,1276.2,1276.3
201904170513,1276.2,1276.4,1276.2,1276.3
201904170514,1276.3,1276.4,1276.3,1276.3
201904170515,1276.3,1276.6,1276.3,1276.5
201904170516,1276.5,1276.6,1276.2,1276.3
201904170517,1276.3,1276.6,1276.2,1276.5
201904170518,1276.5,1276.5,1276.4,1276.4
201904170519,1276.4,1276.4,1276.3,1276.3
201904170520,1276.3,1276.3,1276.3,1276.3
201904170521,1276.3,1276.3,1276.2,1276.2
201904170522,1276.2,1276.2,1276.2,1276.2
201904170523,1276.2,1276.3,1276.2,1276.3
201904170524,1276.3,1276.4,1276.3,1276.3
201904170525,1276.3,1276.4,1276.2,1276.4
201904170526,1276.4,1276.5,1276.3,1276.4
201904170527,1276.4,1276.4,1276.4,1276.4
201904170528,1276.4,1276.4,1276.4,1276.4
201904170529,1276.4,1276.5,1276.4,1276.4
201904170530,1276.4,1276.5,1276.4,1276.4
201904170531,1276.4,1276.4,1276.3,1276.3
201904170532,1276.3,1276.3,1276.2,1276.2
201904170533,1276.2,1276.6,1276.2,1276.6
201904170534,1276.6,1276.6,1276.6,1276.6
201904170535,1276.6,1276.8,1276.6,1276.7
201904170536,1276.7,1276.7,1276.5,1276.6
201904170537,1276.6,1276.6,1276.6,1276.6
201904170538,1276.6,1276.7,1276.6,1276.7
201904170539,1276.7,1276.8,1276.6,1276.8
201904170540,1276.8,1276.8,1276.7,1276.8
201904170541,1276.8,1276.9,1276.8,1276.8
201904170542,1276.8,1276.8,1276.8,1276.8
201904170543,1276.8,1276.8,1276.8,1276.8
201904170544,1276.8,1276.8,1276.7,1276.8
201904170545,1276.8,1276.9,1276.8,1276.9
201904170546,1276.9,1276.9,1276.8,1276.8
201904170547,1276.8,1276.8,1276.8,1276.8
201904170548,1276.8,1276.8,1276.8,1276.8
201904170549,1276.8,1276.8,1276.7,1276.7
201904170550,1276.7,1276.7,1276.6,1276.7
201904170551,1276.7,1276.7,1276.7,1276.7
201904170552,1276.7,1276.7,1276.6,1276.6
201904170553,1276.6,1276.7,1276.6,1276.6
201904170554,1276.6,1276.6,1276.6,1276.6
201904170555,1276.6,1276.7,1276.6,1276.6
201904170556,1276.6,1276.7,1276.6,1276.6
201904170557,1276.6,1276.6,1276.5,1276.6
201904170558,1276.6,1276.7,1276.5,1276.7
201904170559,1276.7,1276.7,1276.6,1276.7
