日時,始値(BID),高値(BID),安値(BID),終値(BID)
201904100700,1300.9,1304.1,1300.9,1304
201904100701,1304,1304.3,1304,1304.3
201904100702,1304.3,1304.5,1304.3,1304.3
201904100703,1304.3,1304.4,1304.3,1304.4
201904100704,1304.4,1304.5,1304.3,1304.3
201904100705,1304.3,1304.4,1304.3,1304.4
201904100706,1304.4,1304.4,1304.3,1304.3
201904100707,1304.3,1304.3,1304.2,1304.2
201904100708,1304.2,1304.2,1304.2,1304.2
201904100709,1304.2,1304.2,1304.2,1304.2
201904100710,1304.2,1304.2,1304.2,1304.2
201904100711,1304.2,1304.2,1304.1,1304.1
201904100712,1304.1,1304.1,1304.1,1304.1
201904100713,1304.1,1304.1,1304,1304
201904100714,1304,1304.1,1304,1304.1
201904100715,1304.1,1304.1,1304.1,1304.1
201904100716,1304.1,1304.1,1304.1,1304.1
201904100717,1304.1,1304.1,1304,1304.1
201904100718,1304.1,1304.1,1304,1304.1
201904100719,1304.1,1304.1,1304.1,1304.1
201904100720,1304.1,1304.2,1304.1,1304.2
201904100721,1304.2,1304.2,1304.1,1304.2
201904100722,1304.2,1304.2,1304.1,1304.1
201904100723,1304.1,1304.2,1304.1,1304.1
201904100724,1304.1,1304.2,1304.1,1304.2
201904100725,1304.2,1304.2,1304.1,1304.2
201904100726,1304.2,1304.2,1304.2,1304.2
201904100727,1304.2,1304.2,1304.2,1304.2
201904100728,1304.2,1304.3,1304.2,1304.3
201904100729,1304.3,1304.3,1304.2,1304.2
201904100730,1304.2,1304.2,1304.2,1304.2
201904100731,1304.2,1304.4,1304.2,1304.3
201904100732,1304.3,1304.3,1304.2,1304.3
201904100733,1304.3,1304.5,1304.3,1304.5
201904100734,1304.5,1304.5,1304.4,1304.4
201904100735,1304.4,1304.4,1304.4,1304.4
201904100736,1304.4,1304.4,1304.4,1304.4
201904100737,1304.4,1304.4,1304.4,1304.4
201904100738,1304.4,1304.4,1304.3,1304.3
201904100739,1304.3,1304.4,1304.3,1304.4
201904100740,1304.4,1304.4,1304.4,1304.4
201904100741,1304.4,1304.4,1304.4,1304.4
201904100742,1304.4,1304.4,1304.4,1304.4
201904100743,1304.4,1304.4,1304.3,1304.3
201904100744,1304.3,1304.3,1304.3,1304.3
201904100745,1304.3,1304.3,1304.2,1304.3
201904100746,1304.3,1304.3,1304.3,1304.3
201904100747,1304.3,1304.3,1304.3,1304.3
201904100748,1304.3,1304.3,1304.2,1304.2
201904100749,1304.2,1304.3,1304.2,1304.3
201904100750,1304.3,1304.3,1304.2,1304.3
201904100751,1304.3,1304.3,1304.3,1304.3
201904100752,1304.3,1304.4,1304.3,1304.4
201904100753,1304.4,1304.4,1304.2,1304.3
201904100754,1304.3,1304.3,1304.2,1304.3
201904100755,1304.3,1304.3,1304.3,1304.3
201904100756,1304.3,1304.3,1304.3,1304.3
201904100757,1304.3,1304.4,1304.3,1304.4
201904100758,1304.4,1304.4,1304.4,1304.4
201904100759,1304.4,1304.4,1304.4,1304.4
201904100800,1304.4,1304.5,1304.3,1304.4
201904100801,1304.4,1304.4,1304.4,1304.4
201904100802,1304.4,1304.4,1304.3,1304.3
201904100803,1304.3,1304.3,1304.3,1304.3
201904100804,1304.3,1304.4,1304.3,1304.4
201904100805,1304.4,1304.4,1304.3,1304.4
201904100806,1304.4,1304.4,1304.3,1304.3
201904100807,1304.3,1304.3,1304.3,1304.3
201904100808,1304.3,1304.4,1304.3,1304.3
201904100809,1304.3,1304.4,1304.3,1304.3
201904100810,1304.3,1304.3,1304.1,1304.1
201904100811,1304.1,1304.1,1304,1304
201904100812,1304,1304,1303.9,1303.9
201904100813,1303.9,1303.9,1303.8,1303.8
201904100814,1303.8,1304,1303.8,1304
201904100815,1304,1304.1,1304,1304.1
201904100816,1304.1,1304.2,1304.1,1304.2
201904100817,1304.2,1304.3,1304.2,1304.2
201904100818,1304.2,1304.3,1304.2,1304.3
201904100819,1304.3,1304.3,1304.3,1304.3
201904100820,1304.3,1304.4,1304.3,1304.4
201904100821,1304.4,1304.4,1304.4,1304.4
201904100822,1304.4,1304.4,1304.4,1304.4
201904100823,1304.4,1304.5,1304.4,1304.4
201904100824,1304.4,1304.5,1304.4,1304.5
201904100825,1304.5,1304.5,1304.5,1304.5
201904100826,1304.5,1304.5,1304.5,1304.5
201904100827,1304.5,1304.6,1304.5,1304.6
201904100828,1304.6,1304.7,1304.6,1304.6
201904100829,1304.6,1304.7,1304.6,1304.7
201904100830,1304.7,1304.8,1304.7,1304.8
201904100831,1304.8,1304.8,1304.7,1304.8
201904100832,1304.8,1304.8,1304.7,1304.7
201904100833,1304.7,1304.8,1304.7,1304.8
201904100834,1304.8,1304.8,1304.8,1304.8
201904100835,1304.8,1304.8,1304.7,1304.7
201904100836,1304.7,1304.8,1304.7,1304.8
201904100837,1304.8,1304.8,1304.7,1304.8
201904100838,1304.8,1304.9,1304.8,1304.9
201904100839,1304.9,1305,1304.8,1304.8
201904100840,1304.8,1305,1304.8,1304.9
201904100841,1304.9,1305,1304.9,1305
201904100842,1305,1305,1304.9,1304.9
201904100843,1304.9,1304.9,1304.8,1304.8
201904100844,1304.8,1304.8,1304.8,1304.8
201904100845,1304.8,1304.8,1304.8,1304.8
201904100846,1304.8,1304.9,1304.7,1304.9
201904100847,1304.9,1304.9,1304.9,1304.9
201904100848,1304.9,1304.9,1304.7,1304.7
201904100849,1304.7,1304.7,1304.5,1304.5
201904100850,1304.5,1304.5,1304.4,1304.5
201904100851,1304.5,1304.5,1304.4,1304.5
201904100852,1304.5,1304.5,1304.4,1304.4
201904100853,1304.4,1304.5,1304.4,1304.5
201904100854,1304.5,1304.5,1304.4,1304.4
201904100855,1304.4,1304.4,1304.3,1304.3
201904100856,1304.3,1304.3,1304.3,1304.3
201904100857,1304.3,1304.3,1304.2,1304.2
201904100858,1304.2,1304.5,1304.2,1304.5
201904100859,1304.5,1304.5,1304.5,1304.5
201904100900,1304.5,1304.5,1304.4,1304.4
201904100901,1304.4,1304.5,1304.3,1304.4
201904100902,1304.5,1304.7,1304.5,1304.5
201904100903,1304.5,1304.5,1304.3,1304.3
201904100904,1304.3,1304.3,1304.2,1304.2
201904100905,1304.2,1304.3,1304.2,1304.2
201904100906,1304.2,1304.2,1304.2,1304.2
201904100907,1304.2,1304.2,1304.2,1304.2
201904100908,1304.2,1304.2,1304.1,1304.1
201904100909,1304.1,1304.1,1304,1304
201904100910,1304,1304,1304,1304
201904100911,1304,1304,1303.8,1303.8
201904100912,1303.8,1303.9,1303.8,1303.9
201904100913,1303.8,1304.1,1303.8,1304
201904100914,1304,1304,1303.8,1303.8
201904100915,1303.8,1303.9,1303.8,1303.9
201904100916,1303.9,1303.9,1303.8,1303.9
201904100917,1303.9,1304.2,1303.9,1304.2
201904100918,1304.2,1304.3,1304.2,1304.3
201904100919,1304.3,1304.3,1304.3,1304.3
201904100920,1304.3,1304.6,1304.3,1304.4
201904100921,1304.4,1304.4,1304.3,1304.4
201904100922,1304.4,1304.5,1304.3,1304.5
201904100923,1304.5,1304.7,1304.5,1304.6
201904100924,1304.6,1304.6,1304.5,1304.5
201904100925,1304.5,1304.5,1304.3,1304.3
201904100926,1304.3,1304.3,1304.2,1304.2
201904100927,1304.2,1304.2,1304.1,1304.2
201904100928,1304.2,1304.2,1304.1,1304.1
201904100929,1304.1,1304.1,1303.8,1303.9
201904100930,1303.9,1303.9,1303.6,1303.6
201904100931,1303.6,1303.7,1303.5,1303.7
201904100932,1303.7,1304,1303.7,1304
201904100933,1304,1304.1,1304,1304.1
201904100934,1304.1,1304.1,1303.8,1303.8
201904100935,1303.8,1303.8,1303.7,1303.8
201904100936,1303.8,1303.8,1303.8,1303.8
201904100937,1303.8,1303.8,1303.7,1303.8
201904100938,1303.8,1303.8,1303.6,1303.7
201904100939,1303.7,1303.7,1303.6,1303.7
201904100940,1303.7,1303.7,1303.6,1303.6
201904100941,1303.6,1303.7,1303.5,1303.6
201904100942,1303.6,1303.6,1303.6,1303.6
201904100943,1303.7,1303.7,1303.7,1303.7
201904100944,1303.7,1303.8,1303.7,1303.7
201904100945,1303.7,1303.7,1303.7,1303.7
201904100946,1303.7,1303.7,1303.6,1303.7
201904100947,1303.7,1303.8,1303.7,1303.7
201904100948,1303.7,1303.7,1303.6,1303.6
201904100949,1303.6,1303.7,1303.6,1303.7
201904100950,1303.7,1303.8,1303.6,1303.7
201904100951,1303.7,1303.9,1303.7,1303.8
201904100952,1303.8,1304.2,1303.8,1304.1
201904100953,1304.1,1304.1,1303.9,1304.1
201904100954,1304.1,1304.2,1304,1304.1
201904100955,1304.1,1304.1,1303.9,1303.9
201904100956,1303.9,1304,1303.7,1303.8
201904100957,1303.8,1303.8,1303.7,1303.7
201904100958,1303.7,1303.7,1303.4,1303.5
201904100959,1303.5,1303.5,1303.4,1303.4
201904101000,1303.4,1303.5,1303.2,1303.3
201904101001,1303.3,1303.3,1302.8,1302.9
201904101002,1302.9,1302.9,1302.4,1302.5
201904101003,1302.5,1302.5,1302.1,1302.4
201904101004,1302.5,1302.7,1302.4,1302.7
201904101005,1302.7,1302.8,1302.6,1302.8
201904101006,1302.8,1303.1,1302.8,1303
201904101007,1303,1303.1,1303,1303
201904101008,1303,1303.1,1303,1303
201904101009,1303,1303.1,1303,1303.1
201904101010,1303.1,1303.1,1303,1303.1
201904101011,1303.1,1303.1,1303.1,1303.1
201904101012,1303.1,1303.1,1303.1,1303.1
201904101013,1303.1,1303.1,1302.9,1302.9
201904101014,1302.9,1303,1302.8,1302.8
201904101015,1302.8,1302.8,1302.8,1302.8
201904101016,1302.8,1302.9,1302.7,1302.7
201904101017,1302.7,1302.7,1302.3,1302.5
201904101018,1302.5,1303.1,1302.5,1303.1
201904101019,1303.1,1303.1,1302.8,1303
201904101020,1303,1303.2,1303,1303.1
201904101021,1303.1,1303.2,1303.1,1303.1
201904101022,1303.1,1303.2,1303,1303.2
201904101023,1303.2,1303.3,1303.1,1303.3
201904101024,1303.3,1303.3,1302.9,1303.1
201904101025,1303.1,1303.3,1303,1303.2
201904101026,1303.2,1303.2,1303,1303
201904101027,1303,1303,1302.9,1302.9
201904101028,1302.9,1303,1302.8,1302.8
201904101029,1302.8,1303,1302.8,1302.9
201904101030,1302.9,1302.9,1302.8,1302.9
201904101031,1302.9,1303.1,1302.9,1303.1
201904101032,1303.1,1303.1,1303,1303.1
201904101033,1303.1,1303.1,1302.9,1303
201904101034,1303,1303.1,1302.9,1302.9
201904101035,1302.9,1302.9,1302.9,1302.9
201904101036,1302.9,1302.9,1302.8,1302.8
201904101037,1302.8,1302.8,1302.7,1302.7
201904101038,1302.7,1302.7,1302.5,1302.5
201904101039,1302.5,1302.5,1302.3,1302.3
201904101040,1302.3,1302.6,1302.3,1302.5
201904101041,1302.5,1302.5,1302.3,1302.4
201904101042,1302.4,1302.5,1302.4,1302.4
201904101043,1302.4,1302.4,1302.2,1302.2
201904101044,1302.2,1302.2,1302.1,1302.2
201904101045,1302.2,1302.5,1302.2,1302.5
201904101046,1302.5,1302.7,1302.5,1302.6
201904101047,1302.6,1302.7,1302.5,1302.6
201904101048,1302.6,1302.7,1302.6,1302.6
201904101049,1302.6,1302.6,1302.4,1302.5
201904101050,1302.5,1302.6,1302.4,1302.6
201904101051,1302.6,1302.6,1302.6,1302.6
201904101052,1302.6,1302.6,1302.6,1302.6
201904101053,1302.6,1302.7,1302.6,1302.7
201904101054,1302.7,1302.7,1302.6,1302.7
201904101055,1302.7,1302.8,1302.7,1302.7
201904101056,1302.7,1302.7,1302.3,1302.3
201904101057,1302.3,1302.5,1302.3,1302.4
201904101058,1302.4,1302.6,1302.4,1302.5
201904101059,1302.5,1302.5,1302.4,1302.4
201904101100,1302.4,1302.4,1302.4,1302.4
201904101101,1302.4,1302.5,1302.3,1302.4
201904101102,1302.4,1302.6,1302.4,1302.6
201904101103,1302.6,1302.6,1302.3,1302.3
201904101104,1302.3,1302.4,1302.3,1302.3
201904101105,1302.3,1302.3,1302.1,1302.1
201904101106,1302.1,1302.2,1302.1,1302.1
201904101107,1302.2,1302.2,1302.1,1302.1
201904101108,1302.1,1302.2,1302,1302
201904101109,1302,1302.2,1302,1302.1
201904101110,1302.1,1302.1,1302,1302
201904101111,1302,1302,1301.8,1301.8
201904101112,1301.8,1301.9,1301.7,1301.8
201904101113,1301.8,1301.9,1301.7,1301.9
201904101114,1301.9,1301.9,1301.8,1301.8
201904101115,1301.8,1301.8,1301.8,1301.8
201904101116,1301.8,1301.8,1301.8,1301.8
201904101117,1301.8,1301.8,1301.8,1301.8
201904101118,1301.8,1302,1301.8,1301.9
201904101119,1301.9,1301.9,1301.8,1301.9
201904101120,1301.9,1302,1301.9,1301.9
201904101121,1301.9,1301.9,1301.8,1301.9
201904101122,1301.9,1301.9,1301.7,1301.7
201904101123,1301.7,1301.7,1301.6,1301.7
201904101124,1301.7,1301.8,1301.7,1301.8
201904101125,1301.8,1301.8,1301.6,1301.6
201904101126,1301.6,1301.6,1301.5,1301.6
201904101127,1301.6,1301.7,1301.6,1301.7
201904101128,1301.7,1301.7,1301.6,1301.6
201904101129,1301.6,1301.6,1301.5,1301.5
201904101130,1301.5,1301.5,1301.3,1301.4
201904101131,1301.5,1301.7,1301.5,1301.7
201904101132,1301.7,1301.7,1301.5,1301.5
201904101133,1301.5,1301.5,1301.4,1301.5
201904101134,1301.5,1301.5,1301.4,1301.4
201904101135,1301.4,1301.4,1301.1,1301.3
201904101136,1301.3,1301.4,1301.3,1301.4
201904101137,1301.4,1301.4,1301.3,1301.4
201904101138,1301.4,1301.5,1301.4,1301.5
201904101139,1301.5,1301.5,1301.4,1301.5
201904101140,1301.5,1301.5,1301.5,1301.5
201904101141,1301.5,1301.7,1301.5,1301.7
201904101142,1301.7,1301.7,1301.2,1301.3
201904101143,1301.3,1301.3,1301.2,1301.3
201904101144,1301.3,1301.4,1301.3,1301.3
201904101145,1301.3,1301.5,1301.3,1301.4
201904101146,1301.4,1301.4,1301.4,1301.4
201904101147,1301.4,1301.4,1301.4,1301.4
201904101148,1301.4,1301.5,1301.4,1301.5
201904101149,1301.5,1301.8,1301.5,1301.7
201904101150,1301.7,1301.8,1301.6,1301.8
201904101151,1301.8,1302,1301.8,1301.8
201904101152,1301.8,1301.9,1301.8,1301.8
201904101153,1301.8,1301.9,1301.7,1301.7
201904101154,1301.7,1301.9,1301.7,1301.9
201904101155,1301.9,1302.1,1301.9,1302.1
201904101156,1302.1,1302.1,1301.9,1302
201904101157,1302,1302,1301.9,1302
201904101158,1302,1302.1,1301.9,1302.1
201904101159,1302.1,1302.2,1302,1302.1
201904101200,1302.1,1302.1,1301.9,1302
201904101201,1301.9,1302,1301.9,1302
201904101202,1302,1302.1,1302,1302
201904101203,1302,1302,1301.9,1302
201904101204,1302,1302,1301.9,1301.9
201904101205,1301.9,1301.9,1301.8,1301.9
201904101206,1301.9,1302,1301.8,1301.9
201904101207,1301.9,1301.9,1301.8,1301.8
201904101208,1301.8,1301.8,1301.7,1301.7
201904101209,1301.7,1301.7,1301.6,1301.7
201904101210,1301.7,1301.7,1301.5,1301.6
201904101211,1301.6,1301.8,1301.6,1301.8
201904101212,1301.8,1301.9,1301.7,1301.9
201904101213,1301.9,1301.9,1301.8,1301.9
201904101214,1301.9,1301.9,1301.8,1301.9
201904101215,1301.9,1301.9,1301.9,1301.9
201904101216,1301.9,1302.1,1301.9,1302.1
201904101217,1302.1,1302.1,1301.8,1301.9
201904101218,1301.9,1301.9,1301.6,1301.7
201904101219,1301.7,1301.8,1301.7,1301.7
201904101220,1301.8,1301.8,1301.7,1301.7
201904101221,1301.7,1301.8,1301.7,1301.8
201904101222,1301.8,1301.9,1301.8,1301.9
201904101223,1301.9,1302,1301.8,1302
201904101224,1302,1302,1302,1302
201904101225,1302,1302,1302,1302
201904101226,1302,1302,1301.9,1301.9
201904101227,1301.9,1301.9,1301.9,1301.9
201904101228,1301.9,1302,1301.9,1302
201904101229,1302,1302.1,1302,1302
201904101230,1302,1302.1,1302,1302
201904101231,1302.1,1302.3,1302,1302.2
201904101232,1302.2,1302.3,1302.2,1302.3
201904101233,1302.3,1302.4,1302.3,1302.4
201904101234,1302.4,1302.4,1302.2,1302.3
201904101235,1302.3,1302.3,1302.2,1302.3
201904101236,1302.3,1302.5,1302.3,1302.4
201904101237,1302.4,1302.5,1302.4,1302.4
201904101238,1302.4,1302.6,1302.4,1302.5
201904101239,1302.5,1302.6,1302.5,1302.6
201904101240,1302.6,1302.6,1302.5,1302.6
201904101241,1302.6,1302.7,1302.6,1302.7
201904101242,1302.7,1302.7,1302.7,1302.7
201904101243,1302.7,1302.7,1302.6,1302.7
201904101244,1302.7,1302.7,1302.5,1302.5
201904101245,1302.5,1302.7,1302.5,1302.7
201904101246,1302.7,1302.7,1302.6,1302.6
201904101247,1302.6,1302.6,1302.5,1302.5
201904101248,1302.5,1302.6,1302.5,1302.6
201904101249,1302.6,1302.6,1302.5,1302.5
201904101250,1302.5,1302.6,1302.5,1302.6
201904101251,1302.6,1302.7,1302.6,1302.6
201904101252,1302.6,1302.6,1302.6,1302.6
201904101253,1302.6,1302.6,1302.6,1302.6
201904101254,1302.6,1302.6,1302.5,1302.5
201904101255,1302.5,1302.6,1302.5,1302.6
201904101256,1302.6,1302.6,1302.6,1302.6
201904101257,1302.6,1302.6,1302.5,1302.6
201904101258,1302.5,1302.5,1302.5,1302.5
201904101259,1302.5,1302.5,1302.4,1302.5
201904101300,1302.5,1302.6,1302.5,1302.5
201904101301,1302.5,1302.6,1302.5,1302.6
201904101302,1302.6,1302.6,1302.6,1302.6
201904101303,1302.6,1302.6,1302.6,1302.6
201904101304,1302.6,1302.6,1302.5,1302.5
201904101305,1302.5,1302.6,1302.5,1302.6
201904101306,1302.6,1302.6,1302.5,1302.6
201904101307,1302.6,1302.6,1302.5,1302.5
201904101308,1302.5,1302.5,1302.5,1302.5
201904101309,1302.5,1302.6,1302.5,1302.6
201904101310,1302.6,1302.6,1302.5,1302.6
201904101311,1302.6,1302.6,1302.6,1302.6
201904101312,1302.6,1302.7,1302.6,1302.7
201904101313,1302.7,1302.7,1302.6,1302.6
201904101314,1302.6,1302.6,1302.6,1302.6
201904101315,1302.6,1302.7,1302.5,1302.6
201904101316,1302.6,1302.6,1302.5,1302.5
201904101317,1302.5,1302.5,1302.3,1302.3
201904101318,1302.3,1302.4,1302.3,1302.4
201904101319,1302.4,1302.5,1302.4,1302.5
201904101320,1302.5,1302.8,1302.5,1302.8
201904101321,1302.8,1302.8,1302.7,1302.7
201904101322,1302.7,1302.8,1302.7,1302.8
201904101323,1302.8,1302.8,1302.7,1302.8
201904101324,1302.8,1302.8,1302.7,1302.7
201904101325,1302.7,1302.7,1302.7,1302.7
201904101326,1302.7,1302.7,1302.7,1302.7
201904101327,1302.7,1302.8,1302.6,1302.7
201904101328,1302.7,1302.8,1302.6,1302.6
201904101329,1302.6,1302.6,1302.6,1302.6
201904101330,1302.6,1302.6,1302.6,1302.6
201904101331,1302.6,1302.6,1302.6,1302.6
201904101332,1302.6,1302.6,1302.4,1302.5
201904101333,1302.5,1302.5,1302.3,1302.4
201904101334,1302.4,1302.4,1302.3,1302.3
201904101335,1302.3,1302.4,1302.3,1302.4
201904101336,1302.3,1302.4,1302.3,1302.4
201904101337,1302.4,1302.4,1302.4,1302.4
201904101338,1302.4,1302.5,1302.4,1302.5
201904101339,1302.5,1302.5,1302.5,1302.5
201904101340,1302.5,1302.5,1302.2,1302.4
201904101341,1302.4,1302.4,1302.4,1302.4
201904101342,1302.4,1302.4,1302.3,1302.3
201904101343,1302.3,1302.3,1302.1,1302.1
201904101344,1302.1,1302.1,1302,1302
201904101345,1302,1302.1,1302,1302
201904101346,1302,1302.1,1302,1302
201904101347,1302,1302.1,1302,1302.1
201904101348,1302.1,1302.2,1302.1,1302.2
201904101349,1302.2,1302.2,1302.1,1302.2
201904101350,1302.2,1302.5,1302.2,1302.4
201904101351,1302.4,1302.4,1302.4,1302.4
201904101352,1302.4,1302.4,1302.4,1302.4
201904101353,1302.4,1302.4,1302.3,1302.4
201904101354,1302.4,1302.4,1302.2,1302.2
201904101355,1302.2,1302.4,1302.2,1302.4
201904101356,1302.4,1302.6,1302.4,1302.5
201904101357,1302.5,1302.5,1302.4,1302.4
201904101358,1302.4,1302.4,1302.4,1302.4
201904101359,1302.4,1302.4,1302.3,1302.4
201904101400,1302.4,1302.4,1302.2,1302.2
201904101401,1302.2,1302.2,1302.1,1302.1
201904101402,1302.1,1302.1,1302.1,1302.1
201904101403,1302.1,1302.1,1302,1302
201904101404,1302,1302.1,1302,1302
201904101405,1302,1302,1302,1302
201904101406,1302,1302,1301.9,1302
201904101407,1302,1302,1302,1302
201904101408,1302,1302,1302,1302
201904101409,1302,1302.1,1301.9,1302.1
201904101410,1302.1,1302.1,1302.1,1302.1
201904101411,1302.1,1302.1,1302,1302
201904101412,1302,1302.1,1302,1302.1
201904101413,1302.1,1302.2,1302.1,1302.2
201904101414,1302.2,1302.2,1302.2,1302.2
201904101415,1302.2,1302.3,1302.2,1302.3
201904101416,1302.3,1302.4,1302.3,1302.4
201904101417,1302.4,1302.4,1302.3,1302.3
201904101418,1302.3,1302.3,1302.3,1302.3
201904101419,1302.3,1302.3,1302.2,1302.2
201904101420,1302.2,1302.3,1302.1,1302.3
201904101421,1302.3,1302.5,1302.3,1302.3
201904101422,1302.3,1302.3,1302.3,1302.3
201904101423,1302.3,1302.3,1302.3,1302.3
201904101424,1302.3,1302.5,1302.3,1302.5
201904101425,1302.5,1302.5,1302.4,1302.4
201904101426,1302.4,1302.5,1302.4,1302.5
201904101427,1302.5,1302.5,1302.5,1302.5
201904101428,1302.5,1302.7,1302.5,1302.7
201904101429,1302.7,1302.7,1302.6,1302.6
201904101430,1302.6,1302.6,1302.5,1302.6
201904101431,1302.6,1302.6,1302.6,1302.6
201904101432,1302.6,1302.8,1302.6,1302.8
201904101433,1302.8,1302.9,1302.8,1302.8
201904101434,1302.8,1302.9,1302.8,1302.9
201904101435,1302.9,1302.9,1302.9,1302.9
201904101436,1302.9,1302.9,1302.7,1302.8
201904101437,1302.8,1302.8,1302.8,1302.8
201904101438,1302.8,1302.8,1302.8,1302.8
201904101439,1302.8,1302.8,1302.6,1302.6
201904101440,1302.6,1302.6,1302.5,1302.6
201904101441,1302.6,1302.8,1302.6,1302.8
201904101442,1302.8,1303,1302.6,1303
201904101443,1303,1303.2,1303,1303.2
201904101444,1303.2,1303.2,1303.1,1303.1
201904101445,1303.1,1303.2,1303,1303.1
201904101446,1303.1,1303.2,1303,1303.2
201904101447,1303.2,1303.3,1303.2,1303.2
201904101448,1303.2,1303.2,1303.1,1303.1
201904101449,1303.2,1303.2,1303.1,1303.1
201904101450,1303.1,1303.2,1302.8,1302.8
201904101451,1302.8,1302.8,1302.6,1302.7
201904101452,1302.7,1302.7,1302.5,1302.5
201904101453,1302.5,1302.5,1302.4,1302.5
201904101454,1302.5,1302.7,1302.5,1302.6
201904101455,1302.6,1302.7,1302.5,1302.6
201904101456,1302.6,1303.1,1302.6,1303.1
201904101457,1303.1,1303.1,1302.9,1302.9
201904101458,1302.9,1302.9,1302.6,1302.6
201904101459,1302.6,1302.7,1302.6,1302.7
201904101500,1302.7,1302.8,1302.4,1302.7
201904101501,1302.7,1302.7,1302.4,1302.6
201904101502,1302.6,1302.9,1302.6,1302.7
201904101503,1302.7,1302.8,1302.6,1302.8
201904101504,1302.8,1303,1302.7,1302.8
201904101505,1302.8,1303.1,1302.8,1303
201904101506,1303,1303.1,1302.7,1302.8
201904101507,1302.8,1303,1302.8,1303
201904101508,1303,1303,1302.8,1302.9
201904101509,1302.9,1302.9,1302.7,1302.8
201904101510,1302.8,1302.9,1302.8,1302.9
201904101511,1302.9,1303,1302.9,1303
201904101512,1303,1303,1302.8,1302.9
201904101513,1302.9,1303.2,1302.9,1303.2
201904101514,1303.2,1303.5,1303.2,1303.5
201904101515,1303.5,1303.5,1303.2,1303.4
201904101516,1303.4,1303.5,1303.4,1303.4
201904101517,1303.4,1304.2,1303.4,1304.1
201904101518,1304.2,1304.2,1304,1304.1
201904101519,1304.1,1304.3,1304,1304
201904101520,1304,1304.3,1304,1304.3
201904101521,1304.3,1304.3,1304.1,1304.1
201904101522,1304.1,1304.1,1303.9,1304
201904101523,1304,1304.1,1303.9,1304
201904101524,1304,1304.1,1303.9,1304
201904101525,1304,1304,1303.8,1303.8
201904101526,1303.8,1304.1,1303.8,1304.1
201904101527,1304.1,1304.4,1304,1304.4
201904101528,1304.4,1304.4,1304.1,1304.2
201904101529,1304.2,1304.2,1304.1,1304.2
201904101530,1304.2,1304.2,1304,1304.1
201904101531,1304.1,1304.4,1304.1,1304.3
201904101532,1304.3,1304.6,1304.2,1304.5
201904101533,1304.5,1304.5,1304.4,1304.4
201904101534,1304.4,1304.7,1304.4,1304.5
201904101535,1304.5,1304.5,1304.4,1304.4
201904101536,1304.4,1304.5,1304.1,1304.1
201904101537,1304.1,1304.2,1304.1,1304.2
201904101538,1304.2,1304.4,1304.2,1304.4
201904101539,1304.4,1304.4,1304.3,1304.4
201904101540,1304.4,1304.4,1304.2,1304.2
201904101541,1304.2,1304.2,1304.1,1304.1
201904101542,1304.1,1304.2,1304.1,1304.1
201904101543,1304.1,1304.2,1304.1,1304.2
201904101544,1304.2,1304.2,1304.1,1304.2
201904101545,1304.2,1304.3,1304.1,1304.3
201904101546,1304.3,1304.3,1304.2,1304.3
201904101547,1304.3,1304.3,1304.2,1304.3
201904101548,1304.2,1304.3,1304.1,1304.3
201904101549,1304.3,1304.3,1304.3,1304.3
201904101550,1304.3,1304.5,1304.3,1304.4
201904101551,1304.4,1304.5,1304.4,1304.5
201904101552,1304.5,1304.7,1304.4,1304.7
201904101553,1304.7,1304.7,1304.6,1304.6
201904101554,1304.6,1305.1,1304.6,1304.9
201904101555,1304.9,1305,1304.8,1304.9
201904101556,1304.9,1305,1304.9,1305
201904101557,1305,1305.2,1305,1305
201904101558,1305,1305.1,1305,1305
201904101559,1305,1305.2,1305,1305
201904101600,1305,1305,1304.7,1304.8
201904101601,1304.8,1305.2,1304.6,1304.7
201904101602,1304.7,1304.7,1304.5,1304.6
201904101603,1304.6,1304.6,1304.4,1304.5
201904101604,1304.5,1304.5,1304.4,1304.4
201904101605,1304.4,1304.6,1304.3,1304.6
201904101606,1304.6,1304.6,1304.3,1304.3
201904101607,1304.3,1304.3,1304.2,1304.2
201904101608,1304.2,1304.2,1304.1,1304.2
201904101609,1304.2,1304.2,1304,1304
201904101610,1304,1304.3,1304,1304.2
201904101611,1304.2,1304.5,1304.1,1304.5
201904101612,1304.5,1304.5,1304.5,1304.5
201904101613,1304.5,1304.5,1304.3,1304.4
201904101614,1304.4,1304.5,1304.3,1304.5
201904101615,1304.5,1304.5,1304.3,1304.4
201904101616,1304.4,1304.5,1304.3,1304.5
201904101617,1304.5,1304.5,1304.4,1304.4
201904101618,1304.4,1304.5,1304.3,1304.4
201904101619,1304.4,1304.4,1304.3,1304.4
201904101620,1304.4,1304.4,1304.3,1304.3
201904101621,1304.3,1304.5,1304.3,1304.5
201904101622,1304.5,1304.5,1304.4,1304.5
201904101623,1304.5,1304.5,1304.4,1304.4
201904101624,1304.4,1304.5,1304.3,1304.5
201904101625,1304.5,1304.5,1304.3,1304.4
201904101626,1304.4,1304.5,1304.3,1304.3
201904101627,1304.3,1304.4,1304.3,1304.3
201904101628,1304.3,1304.3,1304.3,1304.3
201904101629,1304.3,1304.3,1303.8,1303.8
201904101630,1303.8,1303.9,1303.4,1303.5
201904101631,1303.5,1303.5,1303.2,1303.5
201904101632,1303.5,1303.7,1303.4,1303.7
201904101633,1303.7,1303.9,1303.7,1303.9
201904101634,1303.9,1303.9,1303.8,1303.9
201904101635,1303.9,1304.1,1303.9,1304.1
201904101636,1304.1,1304.1,1304.1,1304.1
201904101637,1304.1,1304.1,1303.7,1303.8
201904101638,1303.8,1303.8,1303.5,1303.5
201904101639,1303.5,1303.5,1303.4,1303.5
201904101640,1303.5,1303.6,1303.5,1303.6
201904101641,1303.6,1303.6,1303.5,1303.6
201904101642,1303.6,1303.6,1303.5,1303.6
201904101643,1303.6,1303.6,1303.3,1303.3
201904101644,1303.3,1303.3,1303,1303.1
201904101645,1303.1,1303.1,1303,1303
201904101646,1303,1303.1,1303,1303
201904101647,1303,1303,1302.7,1302.8
201904101648,1302.8,1302.8,1302.5,1302.5
201904101649,1302.5,1302.9,1302.4,1302.9
201904101650,1302.9,1302.9,1302.8,1302.8
201904101651,1302.8,1302.9,1302.8,1302.9
201904101652,1302.9,1303,1302.8,1303
201904101653,1303,1303,1303,1303
201904101654,1303,1303,1302.9,1303
201904101655,1303,1303.1,1303,1303.1
201904101656,1303.1,1303.2,1303,1303.1
201904101657,1303.2,1303.2,1303.1,1303.1
201904101658,1303.1,1303.1,1303.1,1303.1
201904101659,1303.1,1303.3,1303.1,1303.2
201904101700,1303.2,1303.2,1303.1,1303.1
201904101701,1303.1,1303.2,1303.1,1303.2
201904101702,1303.2,1303.3,1303.1,1303.1
201904101703,1303.1,1303.2,1303.1,1303.2
201904101704,1303.2,1303.2,1303,1303.1
201904101705,1303.1,1303.4,1303.1,1303.4
201904101706,1303.4,1303.4,1303.1,1303.1
201904101707,1303.1,1303.2,1303.1,1303.1
201904101708,1303.1,1303.1,1303,1303.1
201904101709,1303.1,1303.1,1302.7,1302.8
201904101710,1302.8,1302.8,1302.7,1302.7
201904101711,1302.7,1302.8,1302.7,1302.8
201904101712,1302.8,1302.9,1302.8,1302.9
201904101713,1302.9,1303.1,1302.8,1303.1
201904101714,1303.1,1303.7,1303.1,1303.7
201904101715,1303.7,1304,1303.7,1303.9
201904101716,1303.9,1304,1303.9,1303.9
201904101717,1303.9,1303.9,1303.9,1303.9
201904101718,1303.9,1303.9,1303.8,1303.9
201904101719,1303.9,1303.9,1303.6,1303.7
201904101720,1303.7,1303.9,1303.7,1303.9
201904101721,1303.9,1303.9,1303.8,1303.9
201904101722,1303.9,1303.9,1303.7,1303.8
201904101723,1303.8,1303.8,1303.7,1303.7
201904101724,1303.7,1303.7,1303.6,1303.7
201904101725,1303.7,1303.9,1303.7,1303.9
201904101726,1303.9,1303.9,1303.9,1303.9
201904101727,1303.9,1303.9,1303.8,1303.9
201904101728,1303.9,1304.1,1303.9,1304.1
201904101729,1304.1,1304.3,1304.1,1304.2
201904101730,1304.2,1304.3,1304.1,1304.2
201904101731,1304.2,1304.2,1304.1,1304.2
201904101732,1304.2,1304.2,1304,1304
201904101733,1304,1304.1,1304,1304.1
201904101734,1304.1,1304.4,1304.1,1304.3
201904101735,1304.3,1304.3,1304.3,1304.3
201904101736,1304.3,1304.3,1304.3,1304.3
201904101737,1304.3,1304.3,1304.2,1304.3
201904101738,1304.3,1304.6,1304.3,1304.5
201904101739,1304.5,1304.8,1304.5,1304.7
201904101740,1304.7,1304.7,1304.6,1304.7
201904101741,1304.7,1304.7,1304.6,1304.7
201904101742,1304.7,1304.7,1304.6,1304.7
201904101743,1304.7,1304.7,1304.6,1304.6
201904101744,1304.6,1304.6,1304.4,1304.4
201904101745,1304.4,1304.5,1303.7,1303.8
201904101746,1303.8,1304.1,1303.8,1304
201904101747,1304,1304,1303.9,1303.9
201904101748,1303.9,1303.9,1303.9,1303.9
201904101749,1303.9,1303.9,1303.9,1303.9
201904101750,1303.9,1304.1,1303.9,1304.1
201904101751,1304.1,1304.1,1304.1,1304.1
201904101752,1304.1,1304.1,1304.1,1304.1
201904101753,1304.1,1304.1,1304,1304.1
201904101754,1304.1,1304.1,1303.9,1303.9
201904101755,1303.9,1304.1,1303.9,1304.1
201904101756,1304.1,1304.1,1304.1,1304.1
201904101757,1304.1,1304.3,1304.1,1304.3
201904101758,1304.3,1304.3,1304.2,1304.3
201904101759,1304.3,1304.4,1304.2,1304.2
201904101800,1304.2,1304.3,1304.2,1304.2
201904101801,1304.2,1304.3,1304.2,1304.3
201904101802,1304.3,1304.3,1304.2,1304.3
201904101803,1304.3,1304.3,1304.2,1304.2
201904101804,1304.2,1304.2,1304,1304
201904101805,1304,1304,1304,1304
201904101806,1304,1304,1304,1304
201904101807,1304,1304,1303.9,1303.9
201904101808,1303.9,1304.3,1303.9,1304.3
201904101809,1304.3,1304.3,1304.3,1304.3
201904101810,1304.3,1304.3,1304.3,1304.3
201904101811,1304.3,1304.4,1304.3,1304.4
201904101812,1304.4,1304.4,1304.4,1304.4
201904101813,1304.4,1304.5,1304.4,1304.4
201904101814,1304.4,1304.5,1304.4,1304.5
201904101815,1304.5,1304.5,1304.3,1304.4
201904101816,1304.4,1304.4,1304.3,1304.3
201904101817,1304.3,1304.4,1304.3,1304.3
201904101818,1304.3,1304.3,1304.2,1304.2
201904101819,1304.2,1304.3,1304.2,1304.3
201904101820,1304.3,1304.4,1304.2,1304.3
201904101821,1304.3,1304.3,1304.2,1304.2
201904101822,1304.2,1304.2,1304.2,1304.2
201904101823,1304.2,1304.4,1304.2,1304.4
201904101824,1304.4,1304.4,1304.3,1304.4
201904101825,1304.4,1304.4,1304.4,1304.4
201904101826,1304.4,1304.4,1304.4,1304.4
201904101827,1304.4,1304.5,1304.4,1304.5
201904101828,1304.5,1304.5,1304.4,1304.4
201904101829,1304.4,1304.5,1304.4,1304.5
201904101830,1304.5,1304.8,1304.4,1304.6
201904101831,1304.6,1304.6,1304.3,1304.4
201904101832,1304.4,1304.7,1304.4,1304.7
201904101833,1304.7,1304.7,1304.6,1304.7
201904101834,1304.7,1304.7,1304.6,1304.6
201904101835,1304.6,1304.6,1304.6,1304.6
201904101836,1304.6,1304.6,1304.5,1304.5
201904101837,1304.5,1304.7,1304.5,1304.6
201904101838,1304.5,1304.7,1304.5,1304.7
201904101839,1304.7,1304.7,1304.6,1304.6
201904101840,1304.6,1304.6,1304.6,1304.6
201904101841,1304.6,1304.6,1304.5,1304.5
201904101842,1304.5,1304.5,1304.4,1304.4
201904101843,1304.5,1304.6,1304.4,1304.6
201904101844,1304.6,1304.7,1304.6,1304.7
201904101845,1304.7,1304.7,1304.6,1304.6
201904101846,1304.6,1304.8,1304.6,1304.8
201904101847,1304.8,1304.8,1304.5,1304.6
201904101848,1304.6,1304.7,1304.5,1304.5
201904101849,1304.5,1304.5,1304.4,1304.5
201904101850,1304.5,1304.5,1304.3,1304.3
201904101851,1304.3,1304.3,1304.3,1304.3
201904101852,1304.3,1304.4,1304.2,1304.4
201904101853,1304.4,1304.5,1304.4,1304.4
201904101854,1304.4,1304.4,1304.3,1304.3
201904101855,1304.3,1304.4,1304.3,1304.4
201904101856,1304.4,1304.4,1304.3,1304.3
201904101857,1304.3,1304.5,1304.3,1304.4
201904101858,1304.4,1304.4,1304.4,1304.4
201904101859,1304.4,1304.4,1304.4,1304.4
201904101900,1304.4,1304.4,1304.4,1304.4
201904101901,1304.4,1304.5,1304.4,1304.4
201904101902,1304.4,1304.5,1304.3,1304.5
201904101903,1304.5,1304.7,1304.5,1304.6
201904101904,1304.6,1304.7,1304.5,1304.5
201904101905,1304.5,1304.6,1304.4,1304.4
201904101906,1304.4,1304.4,1304.2,1304.2
201904101907,1304.2,1304.3,1304.2,1304.2
201904101908,1304.2,1304.2,1304.1,1304.2
201904101909,1304.2,1304.3,1304.2,1304.3
201904101910,1304.3,1304.6,1304.3,1304.6
201904101911,1304.6,1304.6,1304.5,1304.5
201904101912,1304.6,1304.6,1304.6,1304.6
201904101913,1304.6,1304.6,1304.5,1304.5
201904101914,1304.5,1304.5,1304.2,1304.3
201904101915,1304.3,1304.3,1304.3,1304.3
201904101916,1304.3,1304.4,1304.3,1304.4
201904101917,1304.4,1304.4,1304.4,1304.4
201904101918,1304.4,1304.4,1304.1,1304.1
201904101919,1304.1,1304.1,1304,1304
201904101920,1304,1304,1303.9,1304
201904101921,1304,1304,1303.9,1303.9
201904101922,1303.9,1304,1303.9,1304
201904101923,1304,1304.2,1304,1304.2
201904101924,1304.2,1304.2,1303.9,1304
201904101925,1304,1304,1303.9,1304
201904101926,1304,1304,1304,1304
201904101927,1304,1304,1303.9,1304
201904101928,1304,1304,1303.9,1303.9
201904101929,1303.9,1304,1303.9,1304
201904101930,1304,1304,1303.9,1303.9
201904101931,1303.9,1303.9,1303.8,1303.8
201904101932,1303.8,1303.9,1303.8,1303.9
201904101933,1303.9,1304,1303.9,1304
201904101934,1304,1304,1304,1304
201904101935,1304,1304,1304,1304
201904101936,1304,1304,1303.7,1303.7
201904101937,1303.7,1303.9,1303.7,1303.7
201904101938,1303.7,1303.7,1303.6,1303.7
201904101939,1303.7,1303.7,1303.6,1303.7
201904101940,1303.7,1303.7,1303.5,1303.5
201904101941,1303.5,1303.6,1303.3,1303.6
201904101942,1303.6,1303.7,1303.5,1303.6
201904101943,1303.6,1303.7,1303.5,1303.5
201904101944,1303.5,1303.6,1303.5,1303.6
201904101945,1303.6,1303.7,1303.5,1303.6
201904101946,1303.6,1303.6,1303.5,1303.5
201904101947,1303.5,1303.6,1303.5,1303.6
201904101948,1303.6,1303.7,1303.6,1303.7
201904101949,1303.7,1303.7,1303.7,1303.7
201904101950,1303.7,1303.7,1303.7,1303.7
201904101951,1303.7,1303.7,1303.7,1303.7
201904101952,1303.7,1303.7,1303.7,1303.7
201904101953,1303.7,1303.7,1303.6,1303.6
201904101954,1303.6,1303.7,1303.5,1303.5
201904101955,1303.5,1303.5,1303.4,1303.4
201904101956,1303.4,1303.5,1303.4,1303.5
201904101957,1303.5,1303.5,1303.4,1303.5
201904101958,1303.5,1303.5,1303.4,1303.4
201904101959,1303.4,1303.4,1303.3,1303.3
201904102000,1303.3,1303.4,1303.3,1303.4
201904102001,1303.4,1303.4,1303.3,1303.3
201904102002,1303.3,1303.6,1303.3,1303.6
201904102003,1303.6,1303.6,1303.5,1303.6
201904102004,1303.6,1303.6,1303.6,1303.6
201904102005,1303.6,1303.6,1303.5,1303.5
201904102006,1303.5,1303.5,1303.5,1303.5
201904102007,1303.5,1303.5,1303.3,1303.3
201904102008,1303.3,1303.3,1303.1,1303.1
201904102009,1303.2,1303.3,1303.1,1303.1
201904102010,1303.1,1303.1,1302.9,1302.9
201904102011,1302.9,1302.9,1302.6,1302.7
201904102012,1302.7,1302.7,1302.6,1302.6
201904102013,1302.6,1302.7,1302.6,1302.7
201904102014,1302.7,1302.8,1302.7,1302.8
201904102015,1302.8,1303,1302.8,1303
201904102016,1303,1303,1302.9,1303
201904102017,1303,1303,1302.8,1302.8
201904102018,1302.8,1302.9,1302.8,1302.9
201904102019,1302.9,1302.9,1302.8,1302.9
201904102020,1302.9,1303,1302.9,1303
201904102021,1303,1303,1303,1303
201904102022,1303,1303.3,1303,1303.3
201904102023,1303.3,1303.3,1303.2,1303.2
201904102024,1303.2,1303.2,1303.2,1303.2
201904102025,1303.2,1303.4,1303.2,1303.4
201904102026,1303.4,1303.4,1303.1,1303.1
201904102027,1303.1,1303.5,1302.8,1303.4
201904102028,1303.4,1303.9,1303.4,1303.8
201904102029,1303.8,1303.9,1303.8,1303.8
201904102030,1303.8,1303.8,1303.5,1303.5
201904102031,1303.5,1303.7,1303.5,1303.7
201904102032,1303.7,1303.8,1303.7,1303.7
201904102033,1303.7,1303.8,1303.7,1303.8
201904102034,1303.8,1303.8,1303.7,1303.7
201904102035,1303.7,1303.7,1303.5,1303.6
201904102036,1303.6,1303.7,1303.5,1303.7
201904102037,1303.7,1303.7,1303.7,1303.7
201904102038,1303.7,1303.8,1303.7,1303.7
201904102039,1303.7,1303.9,1303.7,1303.9
201904102040,1303.9,1304.2,1303.9,1304.2
201904102041,1304.2,1304.3,1304.1,1304.1
201904102042,1304.1,1304.1,1303.8,1303.8
201904102043,1303.8,1304,1303.8,1304
201904102044,1304,1304,1303.7,1303.7
201904102045,1303.8,1303.8,1303.7,1303.7
201904102046,1303.7,1303.9,1303.7,1303.9
201904102047,1303.9,1303.9,1303.8,1303.8
201904102048,1303.8,1303.9,1303.7,1303.7
201904102049,1303.7,1303.9,1303.7,1303.9
201904102050,1303.9,1304,1303.8,1303.9
201904102051,1303.9,1303.9,1303.7,1303.7
201904102052,1303.7,1303.8,1303.6,1303.7
201904102053,1303.8,1303.9,1303.7,1303.8
201904102054,1303.8,1303.8,1303.7,1303.8
201904102055,1303.8,1303.8,1303.6,1303.7
201904102056,1303.7,1303.7,1303.2,1303.2
201904102057,1303.2,1303.4,1303.2,1303.4
201904102058,1303.3,1303.8,1303.3,1303.6
201904102059,1303.6,1303.7,1303.5,1303.5
201904102100,1303.5,1303.8,1303.5,1303.7
201904102101,1303.7,1303.8,1303.6,1303.6
201904102102,1303.6,1303.6,1303.3,1303.3
201904102103,1303.3,1303.6,1303.3,1303.5
201904102104,1303.6,1303.7,1303.5,1303.6
201904102105,1303.6,1303.6,1303.5,1303.5
201904102106,1303.5,1303.6,1303.5,1303.5
201904102107,1303.5,1303.6,1303.5,1303.5
201904102108,1303.5,1303.7,1303.5,1303.6
201904102109,1303.6,1304,1303.6,1304
201904102110,1304,1304,1303.8,1303.8
201904102111,1303.8,1303.8,1303.5,1303.6
201904102112,1303.6,1303.7,1303.3,1303.3
201904102113,1303.3,1303.5,1303.3,1303.4
201904102114,1303.4,1304,1303.4,1304
201904102115,1304,1304,1303.6,1303.7
201904102116,1303.7,1303.7,1303.6,1303.6
201904102117,1303.6,1303.7,1303.1,1303.1
201904102118,1303.1,1303.3,1303.1,1303.1
201904102119,1303.1,1303.3,1303,1303
201904102120,1303,1303,1301.9,1302.4
201904102121,1302.4,1302.5,1301.7,1302.5
201904102122,1302.5,1302.8,1302.4,1302.8
201904102123,1302.8,1303,1302.6,1302.8
201904102124,1302.8,1303,1302.6,1302.9
201904102125,1302.9,1302.9,1302.6,1302.7
201904102126,1302.6,1302.8,1302.6,1302.8
201904102127,1302.8,1302.8,1302.6,1302.7
201904102128,1302.7,1302.8,1302.7,1302.7
201904102129,1302.7,1303,1302.6,1302.9
201904102130,1302.9,1304.8,1302.9,1303.9
201904102131,1304,1304.1,1303.2,1303.3
201904102132,1303.3,1303.3,1302.1,1302.3
201904102133,1302.3,1302.5,1301.7,1301.7
201904102134,1301.7,1301.8,1300.9,1301.7
201904102135,1301.7,1301.7,1300.8,1301.6
201904102136,1301.6,1302.3,1301.4,1302.3
201904102137,1302.3,1302.6,1302.1,1302.6
201904102138,1302.6,1303.1,1302.5,1302.7
201904102139,1302.8,1303,1302.5,1302.5
201904102140,1302.5,1302.7,1302.1,1302.3
201904102141,1302.3,1302.6,1302.3,1302.4
201904102142,1302.4,1303.1,1302.3,1303.1
201904102143,1303.1,1303.1,1302.6,1302.7
201904102144,1302.7,1302.7,1302.3,1302.6
201904102145,1302.6,1303,1302.4,1302.9
201904102146,1302.9,1303,1302.7,1303
201904102147,1303,1303.4,1303,1303
201904102148,1303,1303,1302.8,1302.8
201904102149,1302.8,1303.1,1302.7,1303.1
201904102150,1303.1,1303.1,1302.4,1302.7
201904102151,1302.7,1303.1,1302.7,1302.9
201904102152,1303,1303.1,1302.9,1302.9
201904102153,1302.9,1303.2,1302.8,1302.9
201904102154,1302.9,1303,1302.6,1303
201904102155,1302.9,1303.2,1302.8,1303.1
201904102156,1303.1,1303.2,1303,1303.2
201904102157,1303.1,1303.1,1302.9,1303.1
201904102158,1303.1,1303.2,1303,1303
201904102159,1303,1303,1302.3,1302.4
201904102200,1302.4,1303,1302.2,1303
201904102201,1303,1303.1,1302.7,1302.9
201904102202,1302.9,1303.1,1302.8,1302.8
201904102203,1302.8,1303.3,1302.6,1303.1
201904102204,1303.1,1303.2,1302.3,1302.4
201904102205,1302.4,1302.8,1302.3,1302.7
201904102206,1302.7,1302.8,1302.3,1302.4
201904102207,1302.4,1302.6,1302.3,1302.4
201904102208,1302.4,1302.5,1301.9,1302
201904102209,1302.1,1302.3,1301.9,1302.2
201904102210,1302.2,1302.7,1302.1,1302.4
201904102211,1302.4,1302.7,1302.2,1302.5
201904102212,1302.5,1302.6,1302.3,1302.3
201904102213,1302.4,1302.6,1302.2,1302.4
201904102214,1302.4,1302.6,1302.3,1302.4
201904102215,1302.4,1302.4,1302.1,1302.2
201904102216,1302.2,1302.7,1302.2,1302.6
201904102217,1302.6,1302.8,1302.5,1302.7
201904102218,1302.7,1302.7,1302.5,1302.6
201904102219,1302.6,1303,1302.6,1302.8
201904102220,1302.8,1303,1302.7,1303
201904102221,1303,1303.3,1302.9,1303.2
201904102222,1303.2,1303.3,1303.1,1303.3
201904102223,1303.3,1303.7,1303.2,1303.6
201904102224,1303.6,1304.5,1303.6,1304.3
201904102225,1304.3,1304.4,1304,1304.1
201904102226,1304.1,1304.3,1303.9,1304.2
201904102227,1304.2,1304.6,1304.2,1304.6
201904102228,1304.6,1304.6,1304.3,1304.4
201904102229,1304.4,1304.7,1304.4,1304.6
201904102230,1304.6,1305.6,1304.6,1305.1
201904102231,1305.1,1305.5,1304.6,1305
201904102232,1304.9,1305.1,1304.8,1304.8
201904102233,1304.8,1304.8,1304.4,1304.6
201904102234,1304.6,1304.9,1304.6,1304.9
201904102235,1304.9,1305.6,1304.8,1305.5
201904102236,1305.5,1305.7,1305.4,1305.6
201904102237,1305.6,1305.8,1305.6,1305.6
201904102238,1305.6,1306.7,1305.5,1306.6
201904102239,1306.6,1306.6,1305.9,1306.3
201904102240,1306.2,1306.3,1306.1,1306.2
201904102241,1306.2,1306.2,1305.9,1305.9
201904102242,1305.9,1306.2,1305.7,1305.7
201904102243,1305.7,1305.8,1305.5,1305.5
201904102244,1305.5,1305.8,1305.5,1305.5
201904102245,1305.5,1306.3,1305.5,1306
201904102246,1306,1306,1305.6,1305.6
201904102247,1305.7,1305.9,1305.5,1305.8
201904102248,1305.8,1306.1,1305.8,1305.8
201904102249,1305.8,1306,1305.8,1305.9
201904102250,1305.9,1305.9,1305.5,1305.7
201904102251,1305.7,1305.9,1305.7,1305.8
201904102252,1305.8,1305.9,1305.3,1305.4
201904102253,1305.4,1305.8,1305.2,1305.8
201904102254,1305.8,1305.8,1305.4,1305.5
201904102255,1305.5,1305.7,1305.5,1305.5
201904102256,1305.5,1305.5,1305.3,1305.4
201904102257,1305.4,1305.5,1305.2,1305.3
201904102258,1305.3,1305.7,1305.3,1305.5
201904102259,1305.5,1305.9,1305.3,1305.6
201904102300,1305.6,1305.8,1305.5,1305.6
201904102301,1305.6,1305.8,1305.3,1305.3
201904102302,1305.3,1305.4,1305.1,1305.3
201904102303,1305.3,1305.4,1305.1,1305.4
201904102304,1305.4,1305.6,1305.4,1305.6
201904102305,1305.6,1305.9,1305.5,1305.8
201904102306,1305.8,1306.2,1305.7,1306.2
201904102307,1306.3,1306.8,1306.2,1306.6
201904102308,1306.6,1306.6,1306.1,1306.3
201904102309,1306.3,1306.4,1306.2,1306.2
201904102310,1306.2,1306.5,1306.2,1306.4
201904102311,1306.4,1306.5,1306.3,1306.5
201904102312,1306.5,1306.8,1306.5,1306.8
201904102313,1306.8,1306.8,1306.6,1306.6
201904102314,1306.6,1306.6,1306.2,1306.2
201904102315,1306.2,1306.4,1306.1,1306.2
201904102316,1306.2,1306.2,1306,1306.2
201904102317,1306.2,1306.4,1306.2,1306.3
201904102318,1306.3,1306.6,1306.3,1306.4
201904102319,1306.4,1306.7,1306.3,1306.7
201904102320,1306.7,1306.8,1306.6,1306.7
201904102321,1306.7,1306.7,1306.5,1306.5
201904102322,1306.5,1306.9,1306.4,1306.7
201904102323,1306.7,1306.7,1306.5,1306.6
201904102324,1306.6,1306.6,1306.3,1306.4
201904102325,1306.4,1306.7,1306.4,1306.5
201904102326,1306.5,1306.8,1306.5,1306.6
201904102327,1306.6,1306.7,1306.5,1306.7
201904102328,1306.7,1306.8,1306.6,1306.8
201904102329,1306.8,1306.9,1306.7,1306.7
201904102330,1306.7,1307.1,1306.7,1306.9
201904102331,1306.9,1307.1,1306.9,1307.1
201904102332,1307,1307.1,1306.8,1306.8
201904102333,1306.8,1306.9,1306.7,1306.7
201904102334,1306.7,1306.8,1306.5,1306.6
201904102335,1306.6,1306.6,1306.2,1306.2
201904102336,1306.1,1306.4,1306.1,1306.1
201904102337,1306.1,1306.3,1306.1,1306.2
201904102338,1306.2,1306.3,1306.1,1306.3
201904102339,1306.3,1306.3,1306.1,1306.1
201904102340,1306.1,1306.1,1305.9,1306
201904102341,1306,1306.1,1305.9,1306
201904102342,1306,1306.1,1305.9,1305.9
201904102343,1305.9,1305.9,1305.7,1305.8
201904102344,1305.8,1305.9,1305.7,1305.8
201904102345,1305.8,1306.2,1305.8,1306.2
201904102346,1306.2,1306.2,1306,1306.2
201904102347,1306.2,1306.3,1306.1,1306.1
201904102348,1306.1,1306.2,1306,1306
201904102349,1306,1306,1305.9,1305.9
201904102350,1305.9,1306,1305.8,1306
201904102351,1306,1306.3,1306,1306.2
201904102352,1306.2,1306.3,1306.1,1306.3
201904102353,1306.3,1306.4,1306.1,1306.2
201904102354,1306.2,1306.5,1306.2,1306.4
201904102355,1306.4,1306.4,1306.2,1306.3
201904102356,1306.3,1306.7,1306.3,1306.7
201904102357,1306.7,1306.7,1306.5,1306.7
201904102358,1306.7,1306.9,1306.5,1306.9
201904102359,1306.9,1306.9,1306.5,1306.8
201904110000,1306.8,1307.1,1306.8,1307
201904110001,1307,1307.4,1307,1307.4
201904110002,1307.4,1307.4,1306.9,1306.9
201904110003,1306.9,1307,1306.7,1306.7
201904110004,1306.7,1306.9,1306.7,1306.8
201904110005,1306.8,1306.9,1306.6,1306.7
201904110006,1306.7,1306.9,1306.7,1306.8
201904110007,1306.8,1307.1,1306.8,1307.1
201904110008,1307.1,1307.2,1307,1307.1
201904110009,1307.1,1307.3,1307,1307.2
201904110010,1307.2,1307.2,1307,1307.1
201904110011,1307.1,1307.2,1307.1,1307.1
201904110012,1307.1,1307.5,1307,1307.5
201904110013,1307.5,1307.6,1307.4,1307.5
201904110014,1307.5,1307.9,1307.4,1307.8
201904110015,1307.8,1307.9,1307.6,1307.7
201904110016,1307.7,1307.8,1307.5,1307.5
201904110017,1307.5,1307.6,1307.4,1307.5
201904110018,1307.4,1307.6,1307.4,1307.6
201904110019,1307.6,1307.7,1307.5,1307.7
201904110020,1307.7,1307.7,1307.5,1307.5
201904110021,1307.6,1307.8,1307.6,1307.8
201904110022,1307.8,1308,1307.7,1307.7
201904110023,1307.8,1307.9,1307.8,1307.8
201904110024,1307.8,1308,1307.8,1307.9
201904110025,1307.9,1307.9,1307.8,1307.8
201904110026,1307.8,1307.9,1307.7,1307.8
201904110027,1307.8,1307.8,1307.7,1307.8
201904110028,1307.8,1308.4,1307.8,1308.3
201904110029,1308.3,1308.5,1308.2,1308.5
201904110030,1308.5,1308.6,1308.3,1308.6
201904110031,1308.6,1308.7,1308.5,1308.7
201904110032,1308.7,1308.9,1308.5,1308.6
201904110033,1308.6,1308.7,1308.3,1308.4
201904110034,1308.4,1308.5,1308.3,1308.3
201904110035,1308.3,1308.4,1308.2,1308.3
201904110036,1308.3,1308.5,1308.2,1308.3
201904110037,1308.3,1308.4,1308.2,1308.2
201904110038,1308.2,1308.6,1308.2,1308.6
201904110039,1308.6,1308.6,1308.4,1308.5
201904110040,1308.5,1308.6,1308.4,1308.4
201904110041,1308.4,1308.6,1308.4,1308.4
201904110042,1308.4,1308.5,1308.1,1308.3
201904110043,1308.3,1308.3,1308.1,1308.2
201904110044,1308.2,1308.3,1308.2,1308.2
201904110045,1308.2,1308.4,1308.2,1308.3
201904110046,1308.3,1308.4,1308.3,1308.4
201904110047,1308.4,1308.4,1308.4,1308.4
201904110048,1308.4,1308.4,1308.2,1308.2
201904110049,1308.2,1308.2,1308.1,1308.1
201904110050,1308.1,1308.3,1308.1,1308.2
201904110051,1308.2,1308.3,1308.1,1308.3
201904110052,1308.3,1308.3,1308.3,1308.3
201904110053,1308.3,1308.4,1308.3,1308.4
201904110054,1308.4,1308.6,1308.4,1308.5
201904110055,1308.5,1308.5,1308.1,1308.3
201904110056,1308.3,1308.3,1308.1,1308.3
201904110057,1308.3,1308.3,1308.2,1308.2
201904110058,1308.2,1308.2,1308.1,1308.2
201904110059,1308.2,1308.2,1308,1308.1
201904110100,1308.1,1308.1,1307.6,1307.9
201904110101,1307.9,1308,1307.8,1308
201904110102,1308,1308.1,1308,1308
201904110103,1308,1308,1308,1308
201904110104,1308,1308.1,1308,1308.1
201904110105,1308.1,1308.2,1308,1308.2
201904110106,1308.2,1308.5,1308.2,1308.4
201904110107,1308.4,1308.6,1308.4,1308.6
201904110108,1308.6,1308.6,1308.5,1308.6
201904110109,1308.6,1308.6,1308.5,1308.5
201904110110,1308.5,1308.6,1308.5,1308.6
201904110111,1308.6,1308.7,1308.6,1308.7
201904110112,1308.6,1308.7,1308.4,1308.4
201904110113,1308.4,1308.5,1308.4,1308.5
201904110114,1308.5,1308.5,1308.1,1308.1
201904110115,1308.1,1308.3,1308.1,1308.2
201904110116,1308.2,1308.3,1308.1,1308.3
201904110117,1308.3,1308.5,1308.2,1308.4
201904110118,1308.4,1308.7,1308.3,1308.6
201904110119,1308.6,1308.8,1308.6,1308.7
201904110120,1308.7,1308.7,1308.6,1308.6
201904110121,1308.6,1308.7,1308.5,1308.7
201904110122,1308.7,1308.7,1308.4,1308.5
201904110123,1308.5,1308.7,1308.5,1308.7
201904110124,1308.7,1308.7,1308.5,1308.6
201904110125,1308.6,1308.8,1308.5,1308.8
201904110126,1308.8,1308.8,1308.6,1308.7
201904110127,1308.7,1308.8,1308.7,1308.7
201904110128,1308.7,1308.9,1308.7,1308.9
201904110129,1308.9,1309,1308.8,1308.8
201904110130,1308.8,1309.1,1308.8,1309
201904110131,1309,1309.3,1309,1309.2
201904110132,1309.2,1309.4,1309.2,1309.4
201904110133,1309.4,1309.5,1309.1,1309.2
201904110134,1309.2,1309.5,1309.2,1309.4
201904110135,1309.4,1309.4,1309.2,1309.3
201904110136,1309.3,1309.5,1309.3,1309.5
201904110137,1309.5,1309.5,1309.3,1309.4
201904110138,1309.4,1309.5,1309.3,1309.4
201904110139,1309.4,1309.4,1309.3,1309.4
201904110140,1309.4,1309.5,1309.4,1309.4
201904110141,1309.4,1309.6,1309.4,1309.6
201904110142,1309.6,1309.7,1309.5,1309.6
201904110143,1309.6,1309.7,1309.5,1309.5
201904110144,1309.5,1309.7,1309.5,1309.5
201904110145,1309.5,1309.6,1309.4,1309.5
201904110146,1309.5,1309.8,1309.5,1309.8
201904110147,1309.8,1309.9,1309.7,1309.9
201904110148,1309.9,1310,1309.8,1309.8
201904110149,1309.8,1309.9,1309.5,1309.5
201904110150,1309.5,1309.7,1309.5,1309.5
201904110151,1309.5,1309.6,1309.5,1309.5
201904110152,1309.5,1309.6,1309.5,1309.5
201904110153,1309.5,1309.6,1309.5,1309.6
201904110154,1309.6,1309.6,1309.3,1309.3
201904110155,1309.3,1309.7,1309.3,1309.7
201904110156,1309.7,1309.7,1309.6,1309.6
201904110157,1309.6,1309.8,1309.6,1309.8
201904110158,1309.7,1310,1309.7,1309.8
201904110159,1309.8,1309.8,1309.7,1309.8
201904110200,1309.8,1309.9,1309.7,1309.8
201904110201,1309.8,1310.1,1309.7,1310
201904110202,1310,1310,1309.8,1309.8
201904110203,1309.8,1310,1309.7,1310
201904110204,1309.9,1310.2,1309.9,1310.1
201904110205,1310.1,1310.4,1310.1,1310.2
201904110206,1310.2,1310.3,1310.2,1310.3
201904110207,1310.3,1310.4,1310.2,1310.4
201904110208,1310.4,1310.4,1310.2,1310.3
201904110209,1310.3,1310.3,1310.1,1310.2
201904110210,1310.2,1310.2,1310.1,1310.2
201904110211,1310.2,1310.2,1310,1310
201904110212,1310,1310,1309.9,1310
201904110213,1309.9,1310.1,1309.9,1310.1
201904110214,1310.1,1310.1,1309.9,1309.9
201904110215,1310,1310.1,1309.9,1310.1
201904110216,1310.2,1310.3,1310.2,1310.3
201904110217,1310.3,1310.5,1310.3,1310.4
201904110218,1310.4,1310.5,1310.3,1310.4
201904110219,1310.4,1310.4,1310.2,1310.2
201904110220,1310.2,1310.3,1310.2,1310.2
201904110221,1310.2,1310.2,1310,1310
201904110222,1310,1310,1309.8,1309.9
201904110223,1309.9,1310,1309.6,1309.7
201904110224,1309.7,1309.7,1309.3,1309.3
201904110225,1309.3,1309.5,1309.3,1309.4
201904110226,1309.4,1309.7,1309.4,1309.7
201904110227,1309.7,1309.8,1309.6,1309.6
201904110228,1309.6,1310,1309.6,1309.8
201904110229,1309.8,1310,1309.5,1309.6
201904110230,1309.5,1309.5,1309.1,1309.2
201904110231,1309.2,1309.3,1309,1309
201904110232,1309,1309,1308.9,1309
201904110233,1309,1309,1308.9,1308.9
201904110234,1308.9,1309.1,1308.9,1309.1
201904110235,1309.1,1309.2,1308.9,1308.9
201904110236,1308.9,1309,1308.7,1308.8
201904110237,1308.8,1308.9,1308.7,1308.8
201904110238,1308.8,1308.9,1308.8,1308.9
201904110239,1308.9,1308.9,1308.8,1308.9
201904110240,1308.9,1308.9,1308.8,1308.8
201904110241,1308.8,1308.8,1308.8,1308.8
201904110242,1308.8,1309,1308.8,1309
201904110243,1309,1309.2,1309,1309.2
201904110244,1309.2,1309.2,1309.2,1309.2
201904110245,1309.2,1309.5,1309.2,1309.5
201904110246,1309.5,1309.5,1309.4,1309.5
201904110247,1309.5,1309.5,1309.4,1309.4
201904110248,1309.4,1309.5,1309.4,1309.5
201904110249,1309.5,1309.5,1309.4,1309.5
201904110250,1309.5,1309.6,1309.5,1309.6
201904110251,1309.6,1309.7,1309.6,1309.6
201904110252,1309.6,1309.7,1309.5,1309.5
201904110253,1309.5,1309.5,1309.4,1309.4
201904110254,1309.4,1309.5,1309.4,1309.5
201904110255,1309.5,1309.5,1309.4,1309.4
201904110256,1309.4,1309.4,1309.3,1309.3
201904110257,1309.3,1309.3,1309.3,1309.3
201904110258,1309.2,1309.3,1309.1,1309.3
201904110259,1309.3,1309.3,1309,1309.1
201904110300,1309.1,1309.3,1307.7,1307.7
201904110301,1307.7,1308.5,1307.6,1308.3
201904110302,1308.3,1308.9,1308.1,1308.6
201904110303,1308.6,1308.9,1308.6,1308.7
201904110304,1308.7,1308.7,1307.9,1307.9
201904110305,1307.9,1307.9,1306.9,1306.9
201904110306,1306.9,1307.4,1306.9,1307.2
201904110307,1307.2,1307.3,1307,1307
201904110308,1307,1307.7,1306.9,1307.7
201904110309,1307.7,1307.8,1307.5,1307.8
201904110310,1307.8,1307.9,1307.8,1307.8
201904110311,1307.8,1307.9,1307.5,1307.5
201904110312,1307.5,1307.8,1307.4,1307.5
201904110313,1307.5,1307.6,1307.2,1307.2
201904110314,1307.2,1307.5,1307.2,1307.4
201904110315,1307.5,1307.8,1307.4,1307.7
201904110316,1307.7,1308.1,1307.7,1308.1
201904110317,1308.1,1308.4,1308.1,1308.2
201904110318,1308.2,1308.4,1308.1,1308.3
201904110319,1308.3,1308.6,1308.3,1308.5
201904110320,1308.5,1308.6,1308.5,1308.5
201904110321,1308.5,1308.6,1308.5,1308.6
201904110322,1308.6,1308.6,1308.4,1308.5
201904110323,1308.5,1308.5,1308.4,1308.4
201904110324,1308.4,1308.4,1308,1308.1
201904110325,1308.1,1308.2,1308,1308
201904110326,1308,1308.1,1307.9,1308.1
201904110327,1308.1,1308.1,1307.9,1307.9
201904110328,1307.9,1307.9,1307.6,1307.6
201904110329,1307.6,1307.7,1307.3,1307.3
201904110330,1307.3,1307.6,1307.2,1307.6
201904110331,1307.6,1307.7,1307.4,1307.4
201904110332,1307.4,1307.6,1307.3,1307.6
201904110333,1307.6,1307.8,1307.6,1307.7
201904110334,1307.7,1308.1,1307.7,1308.1
201904110335,1308.1,1308.3,1308.1,1308.3
201904110336,1308.3,1308.3,1308.1,1308.2
201904110337,1308.2,1308.2,1308,1308.1
201904110338,1308.1,1308.2,1308.1,1308.1
201904110339,1308.1,1308.1,1307.9,1307.9
201904110340,1307.9,1308.1,1307.9,1308
201904110341,1308,1308,1307.9,1307.9
201904110342,1307.9,1308,1307.8,1308
201904110343,1308,1308.1,1308,1308
201904110344,1308,1308.1,1308,1308.1
201904110345,1308.1,1308.2,1308.1,1308.1
201904110346,1308.1,1308.1,1307.9,1308
201904110347,1308,1308.1,1308,1308.1
201904110348,1308.1,1308.1,1307.9,1307.9
201904110349,1307.9,1308.1,1307.9,1308.1
201904110350,1308.1,1308.1,1307.9,1307.9
201904110351,1307.9,1307.9,1307.7,1307.8
201904110352,1307.8,1307.9,1307.7,1307.9
201904110353,1307.9,1307.9,1307.9,1307.9
201904110354,1307.9,1307.9,1307.7,1307.8
201904110355,1307.8,1307.9,1307.7,1307.9
201904110356,1307.9,1307.9,1307.7,1307.7
201904110357,1307.7,1307.7,1307.5,1307.5
201904110358,1307.5,1307.6,1307.4,1307.6
201904110359,1307.6,1307.8,1307.4,1307.7
201904110400,1307.7,1307.9,1307.6,1307.6
201904110401,1307.6,1307.8,1307.6,1307.8
201904110402,1307.8,1307.8,1307.7,1307.8
201904110403,1307.8,1307.8,1307.6,1307.6
201904110404,1307.6,1307.7,1307.6,1307.7
201904110405,1307.7,1307.8,1307.7,1307.8
201904110406,1307.8,1307.9,1307.8,1307.9
201904110407,1307.9,1308.1,1307.9,1308.1
201904110408,1308.1,1308.3,1308.1,1308.1
201904110409,1308.1,1308.4,1308.1,1308.3
201904110410,1308.3,1308.3,1308,1308.1
201904110411,1308.1,1308.2,1308.1,1308.1
201904110412,1308.1,1308.2,1308.1,1308.1
201904110413,1308.1,1308.2,1308.1,1308.2
201904110414,1308.2,1308.2,1308.1,1308.2
201904110415,1308.2,1308.5,1308.2,1308.5
201904110416,1308.5,1308.5,1308.4,1308.4
201904110417,1308.4,1308.4,1308.2,1308.4
201904110418,1308.4,1308.4,1308.4,1308.4
201904110419,1308.4,1308.4,1308.3,1308.4
201904110420,1308.4,1308.5,1308.4,1308.5
201904110421,1308.4,1308.6,1308.4,1308.5
201904110422,1308.5,1308.5,1308.4,1308.4
201904110423,1308.4,1308.6,1308.3,1308.3
201904110424,1308.3,1308.6,1308.3,1308.6
201904110425,1308.6,1308.7,1308.6,1308.6
201904110426,1308.6,1308.6,1308.5,1308.5
201904110427,1308.5,1308.5,1308.5,1308.5
201904110428,1308.5,1308.6,1308.5,1308.6
201904110429,1308.6,1308.6,1308.6,1308.6
201904110430,1308.6,1308.6,1308.5,1308.6
201904110431,1308.6,1308.8,1308.5,1308.8
201904110432,1308.8,1308.9,1308.7,1308.8
201904110433,1308.8,1308.9,1308.7,1308.7
201904110434,1308.7,1308.8,1308.6,1308.6
201904110435,1308.6,1308.8,1308.6,1308.8
201904110436,1308.8,1308.9,1308.8,1308.9
201904110437,1308.9,1308.9,1308.8,1308.8
201904110438,1308.8,1308.9,1308.7,1308.7
201904110439,1308.7,1308.8,1308.6,1308.7
201904110440,1308.7,1308.7,1308.6,1308.7
201904110441,1308.7,1308.8,1308.6,1308.7
201904110442,1308.7,1308.7,1308.1,1308.2
201904110443,1308.2,1308.6,1308.2,1308.5
201904110444,1308.5,1308.5,1308.4,1308.5
201904110445,1308.5,1308.5,1308.3,1308.3
201904110446,1308.3,1308.3,1308.2,1308.2
201904110447,1308.2,1308.2,1308,1308
201904110448,1308,1308.2,1307.9,1307.9
201904110449,1307.9,1308.1,1307.9,1308.1
201904110450,1308.1,1308.1,1307.9,1308
201904110451,1308,1308.2,1308,1308.1
201904110452,1308.1,1308.2,1308,1308.1
201904110453,1308.1,1308.2,1308.1,1308.2
201904110454,1308.2,1308.2,1308,1308.1
201904110455,1308.1,1308.1,1308,1308
201904110456,1308,1308.2,1308,1308.1
201904110457,1308.1,1308.1,1307.9,1308
201904110458,1308,1308.1,1307.8,1307.8
201904110459,1307.8,1308,1307.8,1308
201904110500,1307.9,1308,1307.9,1308
201904110501,1308,1308.1,1308,1308.1
201904110502,1308.1,1308.1,1307.9,1307.9
201904110503,1307.9,1308.2,1307.9,1308.2
201904110504,1308.2,1308.2,1308.1,1308.1
201904110505,1308.1,1308.3,1308.1,1308.3
201904110506,1308.3,1308.3,1308.3,1308.3
201904110507,1308.3,1308.3,1308,1308.2
201904110508,1308.2,1308.3,1308.2,1308.2
201904110509,1308.2,1308.2,1308.1,1308.1
201904110510,1308.1,1308.2,1307.9,1308
201904110511,1308.1,1308.1,1308,1308
201904110512,1308,1308.1,1307.9,1308
201904110513,1308,1308,1308,1308
201904110514,1308,1308,1307.9,1308
201904110515,1308,1308,1308,1308
201904110516,1308,1308,1308,1308
201904110517,1308,1308,1307.9,1308
201904110518,1308,1308.1,1308,1308
201904110519,1308,1308.1,1308,1308
201904110520,1308,1308.1,1308,1308
201904110521,1308,1308,1307.9,1307.9
201904110522,1307.9,1308.1,1307.8,1308.1
201904110523,1308.1,1308.3,1307.9,1307.9
201904110524,1307.9,1308.1,1307.8,1308
201904110525,1308,1308.1,1308,1308.1
201904110526,1308.1,1308.1,1307.9,1307.9
201904110527,1307.9,1308,1307.9,1308
201904110528,1307.9,1307.9,1307.9,1307.9
201904110529,1307.9,1307.9,1307.9,1307.9
201904110530,1307.9,1308,1307.7,1307.8
201904110531,1307.8,1308,1307.8,1308
201904110532,1308,1308,1308,1308
201904110533,1308,1308,1307.9,1307.9
201904110534,1307.9,1307.9,1307.8,1307.9
201904110535,1307.9,1307.9,1307.9,1307.9
201904110536,1307.9,1307.9,1307.9,1307.9
201904110537,1307.9,1307.9,1307.8,1307.8
201904110538,1307.8,1307.9,1307.8,1307.9
201904110539,1307.9,1307.9,1307.8,1307.8
201904110540,1307.8,1307.8,1307.8,1307.8
201904110541,1307.8,1307.8,1307.8,1307.8
201904110542,1307.8,1307.8,1307.7,1307.8
201904110543,1307.8,1307.9,1307.8,1307.9
201904110544,1307.9,1307.9,1307.9,1307.9
201904110545,1307.9,1307.9,1307.8,1307.9
201904110546,1307.9,1307.9,1307.9,1307.9
201904110547,1307.9,1307.9,1307.8,1307.8
201904110548,1307.8,1307.8,1307.7,1307.7
201904110549,1307.7,1307.8,1307.6,1307.6
201904110550,1307.6,1307.8,1307.6,1307.8
201904110551,1307.8,1307.8,1307.7,1307.8
201904110552,1307.8,1307.8,1307.7,1307.8
201904110553,1307.8,1307.9,1307.7,1307.9
201904110554,1307.9,1307.9,1307.9,1307.9
201904110555,1307.9,1307.9,1307.8,1307.8
201904110556,1307.8,1307.8,1307.8,1307.8
201904110557,1307.8,1307.9,1307.8,1307.8
201904110558,1307.8,1307.9,1307.8,1307.9
201904110559,1307.9,1307.9,1307.8,1307.8
