日時,始値(BID),高値(BID),安値(BID),終値(BID)
201908120700,26263,26298,26263,26285
201908120701,26285,26305,26285,26303
201908120702,26303,26307,26294,26304
201908120703,26305,26317,26305,26316
201908120704,26316,26322,26307,26308
201908120705,26308,26317,26306,26309
201908120706,26309,26311,26301,26302
201908120707,26302,26308,26300,26305
201908120708,26305,26305,26299,26303
201908120709,26302,26304,26296,26303
201908120710,26303,26307,26299,26299
201908120711,26299,26300,26291,26296
201908120712,26295,26296,26293,26295
201908120713,26295,26297,26288,26288
201908120714,26288,26290,26286,26288
201908120715,26288,26290,26288,26288
201908120716,26288,26288,26280,26284
201908120717,26283,26288,26281,26286
201908120718,26285,26286,26281,26286
201908120719,26286,26286,26282,26283
201908120720,26283,26289,26283,26286
201908120721,26286,26286,26269,26269
201908120722,26268,26273,26268,26271
201908120723,26270,26271,26267,26268
201908120724,26268,26276,26268,26273
201908120725,26273,26273,26267,26268
201908120726,26268,26268,26266,26268
201908120727,26268,26271,26266,26271
201908120728,26271,26273,26266,26267
201908120729,26267,26270,26267,26270
201908120730,26270,26274,26270,26273
201908120731,26272,26273,26271,26273
201908120732,26273,26273,26270,26270
201908120733,26270,26270,26262,26269
201908120734,26270,26272,26267,26267
201908120735,26267,26269,26265,26268
201908120736,26268,26274,26268,26273
201908120737,26273,26277,26271,26277
201908120738,26277,26281,26277,26280
201908120739,26280,26280,26278,26280
201908120740,26279,26280,26276,26278
201908120741,26278,26280,26278,26280
201908120742,26280,26282,26280,26282
201908120743,26282,26285,26282,26284
201908120744,26284,26292,26282,26292
201908120745,26292,26293,26284,26285
201908120746,26285,26287,26284,26284
201908120747,26284,26287,26284,26285
201908120748,26285,26285,26283,26283
201908120749,26283,26285,26280,26280
201908120750,26280,26283,26280,26280
201908120751,26280,26281,26279,26281
201908120752,26281,26281,26277,26277
201908120753,26277,26279,26276,26276
201908120754,26276,26276,26275,26276
201908120755,26276,26276,26265,26265
201908120756,26265,26265,26261,26262
201908120757,26262,26268,26262,26267
201908120758,26268,26268,26264,26265
201908120759,26265,26270,26265,26268
201908120800,26268,26271,26266,26268
201908120801,26268,26271,26268,26271
201908120802,26271,26279,26269,26275
201908120803,26275,26278,26273,26275
201908120804,26276,26276,26272,26275
201908120805,26275,26275,26273,26274
201908120806,26274,26277,26273,26276
201908120807,26276,26278,26276,26278
201908120808,26278,26278,26278,26278
201908120809,26278,26280,26275,26278
201908120810,26277,26279,26277,26279
201908120811,26279,26281,26279,26281
201908120812,26281,26281,26279,26280
201908120813,26280,26280,26277,26277
201908120814,26277,26278,26274,26274
201908120815,26274,26276,26274,26275
201908120816,26275,26276,26274,26274
201908120817,26274,26275,26272,26273
201908120818,26273,26280,26273,26280
201908120819,26280,26282,26280,26281
201908120820,26281,26282,26280,26281
201908120821,26280,26282,26278,26281
201908120822,26281,26281,26279,26279
201908120823,26279,26280,26278,26278
201908120824,26278,26280,26278,26278
201908120825,26278,26280,26278,26280
201908120826,26280,26280,26275,26275
201908120827,26275,26276,26274,26274
201908120828,26274,26274,26264,26265
201908120829,26265,26268,26261,26263
201908120830,26263,26269,26263,26264
201908120831,26264,26265,26260,26262
201908120832,26262,26262,26245,26251
201908120833,26251,26253,26239,26240
201908120834,26240,26240,26213,26218
201908120835,26217,26219,26211,26213
201908120836,26213,26218,26211,26212
201908120837,26212,26220,26211,26218
201908120838,26218,26220,26215,26218
201908120839,26218,26226,26218,26223
201908120840,26223,26229,26223,26226
201908120841,26226,26230,26226,26226
201908120842,26227,26228,26222,26223
201908120843,26223,26226,26223,26225
201908120844,26225,26226,26217,26220
201908120845,26220,26224,26220,26222
201908120846,26222,26227,26222,26226
201908120847,26226,26228,26222,26227
201908120848,26227,26235,26225,26225
201908120849,26224,26227,26218,26221
201908120850,26222,26223,26196,26200
201908120851,26201,26211,26201,26210
201908120852,26210,26218,26208,26213
201908120853,26213,26213,26207,26207
201908120854,26207,26217,26205,26211
201908120855,26211,26213,26209,26210
201908120856,26210,26214,26203,26203
201908120857,26203,26208,26201,26206
201908120858,26206,26211,26206,26211
201908120859,26211,26211,26206,26211
201908120900,26211,26219,26211,26212
201908120901,26212,26218,26202,26202
201908120902,26203,26214,26203,26214
201908120903,26214,26230,26211,26224
201908120904,26224,26234,26220,26234
201908120905,26233,26239,26225,26236
201908120906,26236,26241,26232,26237
201908120907,26237,26237,26222,26229
201908120908,26229,26234,26225,26226
201908120909,26226,26228,26219,26219
201908120910,26218,26234,26218,26223
201908120911,26222,26228,26218,26227
201908120912,26228,26228,26221,26227
201908120913,26227,26228,26219,26220
201908120914,26220,26228,26219,26221
201908120915,26221,26221,26212,26213
201908120916,26213,26215,26209,26215
201908120917,26215,26216,26211,26214
201908120918,26214,26227,26214,26225
201908120919,26225,26227,26221,26222
201908120920,26222,26228,26222,26228
201908120921,26227,26238,26227,26232
201908120922,26231,26237,26231,26232
201908120923,26232,26232,26224,26225
201908120924,26224,26238,26224,26234
201908120925,26234,26236,26226,26229
201908120926,26229,26231,26222,26225
201908120927,26225,26233,26224,26233
201908120928,26233,26233,26223,26226
201908120929,26226,26234,26225,26234
201908120930,26234,26237,26231,26233
201908120931,26233,26237,26233,26234
201908120932,26233,26238,26230,26238
201908120933,26238,26238,26232,26236
201908120934,26237,26237,26232,26232
201908120935,26232,26237,26232,26233
201908120936,26233,26237,26233,26236
201908120937,26236,26239,26236,26238
201908120938,26239,26239,26237,26238
201908120939,26238,26244,26237,26242
201908120940,26242,26244,26241,26242
201908120941,26242,26253,26241,26250
201908120942,26250,26256,26245,26251
201908120943,26251,26257,26249,26255
201908120944,26255,26258,26251,26256
201908120945,26256,26263,26254,26257
201908120946,26257,26258,26248,26252
201908120947,26252,26253,26248,26253
201908120948,26253,26253,26248,26249
201908120949,26250,26250,26247,26247
201908120950,26247,26256,26247,26249
201908120951,26249,26250,26247,26248
201908120952,26248,26252,26248,26251
201908120953,26251,26251,26247,26248
201908120954,26248,26252,26247,26249
201908120955,26249,26253,26249,26250
201908120956,26250,26258,26250,26256
201908120957,26256,26256,26254,26256
201908120958,26255,26256,26248,26251
201908120959,26251,26258,26250,26256
201908121000,26256,26260,26253,26258
201908121001,26259,26271,26257,26270
201908121002,26269,26275,26268,26270
201908121003,26270,26270,26265,26268
201908121004,26268,26268,26260,26260
201908121005,26260,26265,26260,26263
201908121006,26263,26263,26260,26261
201908121007,26262,26262,26254,26255
201908121008,26254,26261,26254,26254
201908121009,26253,26253,26246,26250
201908121010,26250,26259,26250,26253
201908121011,26253,26255,26246,26251
201908121012,26251,26255,26250,26255
201908121013,26255,26256,26251,26252
201908121014,26253,26254,26250,26254
201908121015,26253,26266,26246,26262
201908121016,26262,26269,26258,26258
201908121017,26258,26268,26258,26267
201908121018,26267,26270,26259,26263
201908121019,26263,26263,26259,26261
201908121020,26260,26263,26253,26255
201908121021,26255,26267,26255,26265
201908121022,26265,26270,26264,26266
201908121023,26266,26267,26258,26265
201908121024,26265,26271,26265,26268
201908121025,26269,26289,26268,26289
201908121026,26288,26288,26280,26282
201908121027,26282,26286,26282,26284
201908121028,26283,26286,26282,26284
201908121029,26284,26295,26284,26292
201908121030,26292,26297,26286,26293
201908121031,26293,26298,26292,26297
201908121032,26297,26300,26295,26295
201908121033,26295,26310,26295,26308
201908121034,26308,26320,26305,26314
201908121035,26314,26318,26310,26313
201908121036,26313,26315,26307,26308
201908121037,26308,26312,26307,26312
201908121038,26312,26314,26310,26310
201908121039,26310,26310,26304,26306
201908121040,26305,26307,26301,26302
201908121041,26301,26307,26299,26304
201908121042,26304,26308,26303,26303
201908121043,26303,26304,26295,26296
201908121044,26296,26297,26289,26289
201908121045,26289,26302,26289,26301
201908121046,26301,26305,26296,26300
201908121047,26299,26300,26292,26298
201908121048,26298,26301,26294,26294
201908121049,26294,26298,26292,26294
201908121050,26295,26296,26289,26293
201908121051,26293,26297,26292,26293
201908121052,26293,26294,26291,26292
201908121053,26292,26295,26292,26292
201908121054,26292,26298,26292,26298
201908121055,26298,26302,26297,26300
201908121056,26300,26301,26296,26297
201908121057,26297,26303,26294,26302
201908121058,26302,26305,26300,26301
201908121059,26301,26301,26294,26294
201908121100,26294,26305,26294,26300
201908121101,26300,26300,26295,26299
201908121102,26299,26301,26298,26300
201908121103,26300,26302,26297,26301
201908121104,26301,26303,26300,26301
201908121105,26300,26302,26297,26298
201908121106,26298,26299,26292,26293
201908121107,26293,26295,26287,26294
201908121108,26294,26295,26292,26295
201908121109,26295,26295,26293,26295
201908121110,26295,26303,26295,26302
201908121111,26303,26305,26301,26304
201908121112,26304,26307,26304,26305
201908121113,26305,26308,26305,26307
201908121114,26307,26309,26307,26307
201908121115,26307,26324,26306,26317
201908121116,26317,26317,26312,26314
201908121117,26314,26316,26313,26313
201908121118,26313,26315,26303,26303
201908121119,26302,26310,26302,26310
201908121120,26310,26317,26310,26311
201908121121,26311,26311,26305,26306
201908121122,26306,26313,26305,26313
201908121123,26312,26315,26311,26313
201908121124,26314,26315,26313,26314
201908121125,26315,26325,26315,26320
201908121126,26321,26322,26316,26318
201908121127,26318,26323,26318,26322
201908121128,26322,26322,26313,26314
201908121129,26314,26320,26313,26320
201908121130,26320,26327,26318,26319
201908121131,26318,26319,26312,26314
201908121132,26314,26316,26311,26314
201908121133,26313,26314,26307,26307
201908121134,26308,26309,26305,26305
201908121135,26306,26309,26306,26308
201908121136,26308,26309,26306,26306
201908121137,26306,26310,26306,26310
201908121138,26310,26310,26307,26308
201908121139,26308,26308,26305,26306
201908121140,26306,26308,26301,26307
201908121141,26307,26308,26303,26305
201908121142,26305,26306,26304,26304
201908121143,26303,26304,26302,26304
201908121144,26304,26311,26302,26307
201908121145,26307,26308,26301,26304
201908121146,26304,26305,26297,26298
201908121147,26298,26303,26297,26297
201908121148,26297,26304,26297,26303
201908121149,26304,26305,26302,26305
201908121150,26305,26305,26301,26301
201908121151,26302,26303,26300,26302
201908121152,26302,26307,26301,26304
201908121153,26304,26307,26303,26304
201908121154,26304,26310,26304,26307
201908121155,26307,26312,26307,26311
201908121156,26311,26313,26308,26311
201908121157,26311,26311,26307,26311
201908121158,26311,26311,26309,26311
201908121159,26311,26311,26308,26310
201908121200,26309,26314,26309,26313
201908121201,26313,26315,26309,26313
201908121202,26313,26319,26311,26319
201908121203,26319,26320,26315,26319
201908121204,26319,26322,26319,26320
201908121205,26320,26324,26318,26323
201908121206,26323,26324,26321,26322
201908121207,26322,26322,26320,26320
201908121208,26319,26320,26318,26319
201908121209,26319,26319,26317,26318
201908121210,26317,26318,26312,26314
201908121211,26314,26315,26313,26313
201908121212,26314,26314,26312,26312
201908121213,26312,26314,26309,26310
201908121214,26310,26315,26310,26312
201908121215,26312,26315,26312,26313
201908121216,26314,26315,26310,26310
201908121217,26310,26314,26310,26311
201908121218,26311,26312,26311,26311
201908121219,26311,26311,26307,26307
201908121220,26307,26311,26307,26311
201908121221,26311,26311,26309,26309
201908121222,26309,26310,26308,26308
201908121223,26308,26310,26307,26307
201908121224,26307,26310,26307,26307
201908121225,26307,26310,26307,26310
201908121226,26311,26314,26310,26314
201908121227,26314,26315,26313,26314
201908121228,26314,26314,26312,26312
201908121229,26313,26314,26311,26312
201908121230,26312,26313,26309,26310
201908121231,26310,26310,26306,26307
201908121232,26307,26309,26307,26308
201908121233,26308,26308,26305,26307
201908121234,26307,26308,26305,26308
201908121235,26308,26308,26304,26308
201908121236,26308,26308,26307,26307
201908121237,26307,26312,26306,26312
201908121238,26312,26314,26305,26305
201908121239,26305,26309,26305,26309
201908121240,26309,26310,26308,26310
201908121241,26309,26310,26308,26308
201908121242,26309,26311,26308,26309
201908121243,26309,26310,26308,26308
201908121244,26308,26310,26307,26307
201908121245,26307,26309,26307,26307
201908121246,26307,26307,26303,26304
201908121247,26304,26306,26295,26296
201908121248,26296,26297,26293,26297
201908121249,26297,26299,26297,26297
201908121250,26298,26300,26297,26300
201908121251,26300,26301,26299,26301
201908121252,26301,26301,26299,26300
201908121253,26300,26300,26298,26299
201908121254,26299,26303,26299,26302
201908121255,26302,26304,26302,26303
201908121256,26303,26303,26301,26301
201908121257,26301,26301,26298,26298
201908121258,26298,26300,26298,26299
201908121259,26299,26300,26298,26298
201908121300,26298,26304,26298,26302
201908121301,26302,26302,26298,26298
201908121302,26298,26299,26298,26299
201908121303,26299,26299,26298,26299
201908121304,26299,26299,26298,26298
201908121305,26299,26300,26298,26300
201908121306,26300,26300,26298,26298
201908121307,26298,26298,26295,26297
201908121308,26297,26297,26287,26290
201908121309,26290,26291,26290,26291
201908121310,26291,26295,26291,26294
201908121311,26294,26294,26286,26286
201908121312,26286,26288,26285,26287
201908121313,26287,26291,26287,26291
201908121314,26291,26291,26289,26289
201908121315,26289,26290,26289,26289
201908121316,26289,26290,26284,26287
201908121317,26287,26287,26285,26285
201908121318,26284,26284,26283,26284
201908121319,26284,26286,26283,26286
201908121320,26286,26286,26282,26282
201908121321,26282,26287,26282,26287
201908121322,26287,26289,26286,26289
201908121323,26289,26290,26288,26290
201908121324,26290,26290,26289,26290
201908121325,26290,26292,26290,26291
201908121326,26291,26291,26291,26291
201908121327,26290,26293,26290,26293
201908121328,26293,26293,26290,26290
201908121329,26290,26291,26289,26290
201908121330,26291,26295,26291,26295
201908121331,26295,26296,26293,26293
201908121332,26293,26296,26293,26295
201908121333,26295,26298,26295,26297
201908121334,26296,26297,26295,26297
201908121335,26297,26301,26297,26301
201908121336,26301,26301,26297,26299
201908121337,26299,26301,26299,26299
201908121338,26300,26300,26299,26299
201908121339,26299,26300,26299,26299
201908121340,26300,26300,26300,26300
201908121341,26300,26300,26295,26295
201908121342,26295,26297,26294,26297
201908121343,26297,26297,26297,26297
201908121344,26297,26297,26296,26296
201908121345,26296,26297,26295,26295
201908121346,26295,26298,26294,26298
201908121347,26298,26299,26298,26298
201908121348,26298,26299,26276,26276
201908121349,26276,26287,26275,26287
201908121350,26287,26287,26277,26283
201908121351,26283,26283,26282,26283
201908121352,26283,26283,26281,26283
201908121353,26283,26283,26279,26281
201908121354,26281,26282,26280,26280
201908121355,26280,26285,26280,26284
201908121356,26283,26283,26281,26282
201908121357,26282,26283,26281,26282
201908121358,26282,26282,26277,26279
201908121359,26279,26280,26275,26280
201908121400,26280,26281,26277,26278
201908121401,26278,26282,26277,26280
201908121402,26280,26282,26280,26281
201908121403,26281,26281,26271,26272
201908121404,26272,26272,26270,26271
201908121405,26271,26273,26271,26273
201908121406,26273,26275,26270,26274
201908121407,26274,26276,26273,26274
201908121408,26274,26277,26273,26275
201908121409,26275,26276,26274,26275
201908121410,26275,26282,26274,26281
201908121411,26281,26285,26280,26281
201908121412,26281,26281,26274,26275
201908121413,26275,26280,26275,26278
201908121414,26278,26279,26277,26278
201908121415,26278,26283,26277,26281
201908121416,26280,26282,26280,26282
201908121417,26282,26287,26281,26287
201908121418,26287,26289,26285,26288
201908121419,26288,26291,26287,26289
201908121420,26289,26290,26287,26289
201908121421,26289,26290,26285,26285
201908121422,26285,26290,26284,26289
201908121423,26289,26292,26288,26292
201908121424,26292,26293,26291,26293
201908121425,26293,26299,26293,26295
201908121426,26295,26296,26293,26293
201908121427,26293,26294,26292,26292
201908121428,26292,26293,26290,26290
201908121429,26290,26291,26290,26291
201908121430,26291,26295,26288,26295
201908121431,26295,26295,26288,26288
201908121432,26288,26290,26286,26289
201908121433,26289,26293,26289,26292
201908121434,26291,26294,26291,26294
201908121435,26294,26298,26293,26298
201908121436,26297,26300,26295,26295
201908121437,26296,26297,26293,26293
201908121438,26293,26297,26293,26297
201908121439,26297,26300,26295,26299
201908121440,26298,26305,26298,26302
201908121441,26304,26304,26301,26301
201908121442,26301,26301,26296,26296
201908121443,26296,26297,26293,26297
201908121444,26297,26297,26293,26294
201908121445,26294,26299,26293,26299
201908121446,26299,26299,26297,26298
201908121447,26299,26300,26298,26300
201908121448,26300,26301,26296,26298
201908121449,26298,26299,26297,26297
201908121450,26297,26298,26295,26297
201908121451,26298,26299,26297,26298
201908121452,26299,26302,26298,26301
201908121453,26301,26302,26297,26298
201908121454,26298,26304,26297,26303
201908121455,26303,26306,26303,26304
201908121456,26304,26306,26304,26306
201908121457,26306,26307,26302,26303
201908121458,26303,26304,26301,26302
201908121459,26302,26304,26301,26304
201908121500,26304,26306,26297,26299
201908121501,26299,26303,26297,26300
201908121502,26300,26301,26298,26299
201908121503,26300,26306,26299,26305
201908121504,26305,26305,26302,26304
201908121505,26304,26311,26304,26311
201908121506,26311,26312,26302,26304
201908121507,26304,26307,26304,26304
201908121508,26304,26308,26303,26307
201908121509,26307,26309,26307,26309
201908121510,26309,26309,26302,26304
201908121511,26304,26308,26304,26308
201908121512,26308,26310,26308,26308
201908121513,26308,26312,26306,26307
201908121514,26307,26312,26307,26311
201908121515,26311,26318,26310,26316
201908121516,26317,26319,26314,26314
201908121517,26314,26316,26310,26310
201908121518,26310,26311,26304,26310
201908121519,26310,26311,26307,26310
201908121520,26310,26313,26308,26311
201908121521,26312,26312,26309,26312
201908121522,26312,26312,26308,26309
201908121523,26309,26312,26309,26310
201908121524,26310,26311,26309,26310
201908121525,26310,26312,26310,26310
201908121526,26310,26310,26307,26308
201908121527,26309,26314,26307,26313
201908121528,26313,26314,26311,26312
201908121529,26312,26316,26312,26316
201908121530,26316,26316,26311,26313
201908121531,26312,26312,26307,26307
201908121532,26307,26309,26305,26309
201908121533,26309,26310,26308,26309
201908121534,26308,26311,26308,26308
201908121535,26308,26312,26306,26312
201908121536,26311,26315,26311,26314
201908121537,26314,26316,26312,26312
201908121538,26311,26320,26311,26318
201908121539,26320,26321,26319,26319
201908121540,26319,26324,26319,26322
201908121541,26322,26324,26318,26320
201908121542,26319,26320,26314,26314
201908121543,26314,26316,26313,26315
201908121544,26315,26315,26312,26312
201908121545,26313,26314,26312,26313
201908121546,26313,26317,26311,26317
201908121547,26317,26319,26314,26318
201908121548,26318,26320,26308,26310
201908121549,26310,26311,26309,26310
201908121550,26310,26312,26307,26310
201908121551,26309,26312,26309,26311
201908121552,26311,26311,26305,26307
201908121553,26307,26307,26305,26305
201908121554,26305,26305,26304,26304
201908121555,26304,26307,26304,26305
201908121556,26305,26305,26299,26299
201908121557,26299,26299,26293,26298
201908121558,26298,26299,26296,26297
201908121559,26297,26300,26296,26296
201908121600,26295,26331,26295,26329
201908121601,26329,26339,26328,26334
201908121602,26334,26338,26334,26336
201908121603,26336,26341,26331,26331
201908121604,26331,26336,26331,26335
201908121605,26334,26342,26334,26339
201908121606,26339,26342,26335,26340
201908121607,26340,26344,26337,26338
201908121608,26338,26345,26338,26339
201908121609,26339,26340,26336,26336
201908121610,26336,26338,26330,26333
201908121611,26333,26336,26330,26330
201908121612,26331,26333,26329,26332
201908121613,26332,26334,26329,26332
201908121614,26332,26335,26329,26330
201908121615,26330,26340,26330,26339
201908121616,26339,26340,26337,26337
201908121617,26337,26339,26334,26338
201908121618,26337,26342,26335,26342
201908121619,26342,26344,26340,26343
201908121620,26342,26343,26340,26343
201908121621,26343,26346,26342,26345
201908121622,26344,26350,26344,26347
201908121623,26347,26347,26343,26346
201908121624,26346,26352,26343,26350
201908121625,26350,26351,26346,26346
201908121626,26347,26349,26342,26342
201908121627,26342,26342,26337,26341
201908121628,26341,26344,26336,26338
201908121629,26339,26340,26336,26339
201908121630,26339,26339,26331,26332
201908121631,26332,26335,26328,26332
201908121632,26332,26333,26330,26332
201908121633,26331,26333,26330,26332
201908121634,26332,26333,26328,26329
201908121635,26329,26331,26328,26330
201908121636,26330,26332,26328,26329
201908121637,26329,26335,26329,26334
201908121638,26334,26336,26332,26335
201908121639,26336,26337,26332,26334
201908121640,26334,26334,26331,26332
201908121641,26331,26331,26328,26331
201908121642,26331,26333,26330,26332
201908121643,26332,26337,26331,26334
201908121644,26335,26335,26332,26334
201908121645,26334,26335,26332,26335
201908121646,26335,26342,26335,26340
201908121647,26340,26340,26328,26328
201908121648,26328,26331,26322,26325
201908121649,26324,26326,26322,26322
201908121650,26323,26323,26314,26322
201908121651,26322,26323,26316,26318
201908121652,26318,26322,26316,26316
201908121653,26316,26320,26314,26316
201908121654,26316,26317,26310,26312
201908121655,26312,26315,26307,26314
201908121656,26314,26318,26313,26315
201908121657,26315,26318,26314,26317
201908121658,26317,26317,26314,26314
201908121659,26314,26316,26312,26313
201908121700,26313,26314,26295,26303
201908121701,26303,26304,26300,26303
201908121702,26303,26304,26295,26296
201908121703,26296,26296,26280,26280
201908121704,26280,26283,26270,26283
201908121705,26283,26285,26279,26282
201908121706,26282,26282,26265,26265
201908121707,26265,26271,26261,26261
201908121708,26261,26261,26236,26240
201908121709,26240,26243,26230,26238
201908121710,26239,26239,26227,26231
201908121711,26231,26240,26229,26236
201908121712,26237,26238,26228,26234
201908121713,26235,26241,26234,26237
201908121714,26237,26240,26234,26237
201908121715,26237,26237,26230,26235
201908121716,26235,26243,26233,26241
201908121717,26241,26243,26221,26222
201908121718,26223,26227,26211,26215
201908121719,26215,26217,26209,26214
201908121720,26213,26219,26208,26219
201908121721,26219,26220,26204,26205
201908121722,26205,26212,26205,26206
201908121723,26206,26216,26201,26216
201908121724,26216,26216,26205,26212
201908121725,26212,26212,26194,26197
201908121726,26197,26209,26195,26206
201908121727,26206,26207,26196,26198
201908121728,26198,26207,26198,26205
201908121729,26205,26212,26205,26208
201908121730,26208,26211,26203,26205
201908121731,26205,26210,26202,26203
201908121732,26203,26203,26178,26178
201908121733,26178,26187,26173,26187
201908121734,26187,26188,26176,26185
201908121735,26185,26197,26182,26197
201908121736,26197,26201,26192,26199
201908121737,26199,26199,26186,26189
201908121738,26189,26194,26188,26193
201908121739,26193,26196,26190,26193
201908121740,26194,26195,26189,26190
201908121741,26190,26194,26185,26187
201908121742,26187,26189,26176,26176
201908121743,26176,26182,26158,26159
201908121744,26159,26173,26158,26160
201908121745,26161,26172,26159,26169
201908121746,26169,26172,26165,26170
201908121747,26170,26174,26168,26170
201908121748,26170,26171,26162,26164
201908121749,26164,26166,26153,26153
201908121750,26153,26157,26148,26154
201908121751,26154,26157,26143,26143
201908121752,26143,26146,26133,26138
201908121753,26138,26143,26130,26134
201908121754,26134,26148,26133,26147
201908121755,26147,26150,26143,26147
201908121756,26147,26150,26146,26149
201908121757,26149,26162,26147,26160
201908121758,26160,26164,26155,26156
201908121759,26155,26156,26152,26155
201908121800,26155,26165,26152,26155
201908121801,26155,26155,26126,26134
201908121802,26134,26145,26134,26141
201908121803,26141,26141,26135,26137
201908121804,26137,26148,26137,26146
201908121805,26146,26155,26144,26149
201908121806,26149,26154,26148,26149
201908121807,26150,26155,26149,26154
201908121808,26154,26156,26150,26154
201908121809,26154,26158,26148,26149
201908121810,26149,26154,26147,26150
201908121811,26150,26153,26147,26148
201908121812,26148,26150,26145,26149
201908121813,26149,26150,26139,26145
201908121814,26144,26147,26144,26145
201908121815,26145,26151,26144,26147
201908121816,26147,26151,26143,26146
201908121817,26146,26152,26144,26152
201908121818,26151,26157,26148,26157
201908121819,26157,26158,26143,26144
201908121820,26144,26152,26143,26149
201908121821,26149,26155,26149,26152
201908121822,26152,26152,26148,26151
201908121823,26151,26152,26146,26146
201908121824,26146,26150,26145,26148
201908121825,26148,26148,26143,26146
201908121826,26146,26153,26145,26153
201908121827,26153,26153,26141,26145
201908121828,26145,26157,26145,26157
201908121829,26157,26159,26154,26158
201908121830,26158,26158,26153,26157
201908121831,26158,26166,26158,26164
201908121832,26164,26169,26164,26166
201908121833,26166,26168,26162,26162
201908121834,26162,26163,26156,26156
201908121835,26156,26167,26156,26163
201908121836,26163,26164,26160,26160
201908121837,26161,26164,26160,26160
201908121838,26160,26168,26160,26168
201908121839,26168,26169,26166,26167
201908121840,26166,26168,26163,26163
201908121841,26163,26165,26161,26162
201908121842,26162,26164,26161,26161
201908121843,26161,26161,26155,26158
201908121844,26158,26161,26156,26157
201908121845,26157,26158,26148,26149
201908121846,26150,26159,26150,26156
201908121847,26156,26157,26152,26153
201908121848,26152,26153,26131,26138
201908121849,26138,26142,26131,26131
201908121850,26131,26132,26116,26122
201908121851,26122,26126,26122,26122
201908121852,26123,26126,26119,26124
201908121853,26124,26132,26124,26131
201908121854,26131,26135,26126,26127
201908121855,26127,26141,26125,26141
201908121856,26141,26145,26136,26143
201908121857,26143,26143,26138,26139
201908121858,26139,26143,26135,26141
201908121859,26141,26141,26133,26136
201908121900,26136,26143,26133,26142
201908121901,26142,26143,26132,26134
201908121902,26134,26135,26126,26127
201908121903,26127,26130,26125,26127
201908121904,26127,26127,26100,26103
201908121905,26103,26115,26103,26115
201908121906,26115,26122,26110,26121
201908121907,26121,26122,26117,26117
201908121908,26117,26125,26117,26121
201908121909,26121,26121,26110,26110
201908121910,26110,26120,26101,26120
201908121911,26120,26124,26119,26124
201908121912,26124,26130,26120,26129
201908121913,26129,26138,26126,26135
201908121914,26135,26138,26134,26137
201908121915,26137,26138,26132,26135
201908121916,26135,26140,26133,26138
201908121917,26139,26142,26138,26141
201908121918,26141,26141,26136,26140
201908121919,26140,26142,26137,26137
201908121920,26138,26142,26135,26135
201908121921,26135,26138,26127,26129
201908121922,26129,26133,26128,26133
201908121923,26133,26133,26126,26128
201908121924,26128,26137,26127,26137
201908121925,26137,26139,26134,26134
201908121926,26134,26135,26117,26118
201908121927,26119,26120,26106,26107
201908121928,26107,26111,26106,26110
201908121929,26110,26116,26109,26111
201908121930,26111,26111,26086,26087
201908121931,26087,26088,26070,26079
201908121932,26078,26087,26064,26069
201908121933,26069,26079,26068,26074
201908121934,26074,26085,26073,26083
201908121935,26083,26096,26080,26095
201908121936,26096,26097,26086,26086
201908121937,26086,26088,26074,26075
201908121938,26075,26088,26070,26087
201908121939,26087,26087,26074,26075
201908121940,26075,26078,26069,26076
201908121941,26076,26079,26071,26073
201908121942,26073,26073,26064,26071
201908121943,26071,26071,26051,26055
201908121944,26055,26059,26052,26055
201908121945,26056,26070,26056,26069
201908121946,26070,26076,26068,26069
201908121947,26069,26072,26066,26069
201908121948,26069,26073,26066,26071
201908121949,26071,26076,26069,26076
201908121950,26075,26079,26074,26078
201908121951,26079,26092,26078,26085
201908121952,26085,26092,26085,26089
201908121953,26089,26100,26089,26098
201908121954,26100,26100,26093,26093
201908121955,26094,26106,26094,26103
201908121956,26103,26109,26103,26107
201908121957,26107,26109,26105,26106
201908121958,26105,26106,26100,26101
201908121959,26101,26108,26101,26107
201908122000,26107,26116,26107,26116
201908122001,26116,26126,26112,26121
201908122002,26121,26125,26119,26120
201908122003,26120,26123,26120,26121
201908122004,26121,26122,26118,26120
201908122005,26120,26129,26120,26125
201908122006,26125,26126,26121,26121
201908122007,26121,26122,26119,26121
201908122008,26121,26122,26115,26117
201908122009,26117,26117,26109,26112
201908122010,26112,26120,26112,26116
201908122011,26116,26116,26109,26109
201908122012,26109,26116,26103,26105
201908122013,26103,26108,26103,26106
201908122014,26105,26105,26098,26101
201908122015,26101,26101,26093,26094
201908122016,26094,26094,26085,26089
201908122017,26089,26089,26073,26073
201908122018,26074,26074,26063,26069
201908122019,26069,26069,26065,26067
201908122020,26066,26073,26066,26067
201908122021,26067,26069,26065,26065
201908122022,26065,26065,26056,26056
201908122023,26056,26062,26053,26057
201908122024,26057,26057,26037,26040
201908122025,26040,26040,26029,26038
201908122026,26038,26044,26036,26041
201908122027,26040,26054,26039,26052
201908122028,26052,26063,26052,26061
201908122029,26061,26065,26058,26062
201908122030,26062,26062,26055,26059
201908122031,26059,26061,26056,26058
201908122032,26058,26072,26058,26065
201908122033,26065,26070,26060,26062
201908122034,26062,26072,26061,26072
201908122035,26072,26077,26068,26077
201908122036,26077,26079,26069,26070
201908122037,26070,26083,26069,26080
201908122038,26080,26095,26078,26091
201908122039,26091,26104,26088,26100
201908122040,26100,26104,26096,26103
201908122041,26103,26103,26093,26098
201908122042,26098,26101,26095,26097
201908122043,26097,26097,26084,26086
201908122044,26085,26096,26082,26093
201908122045,26093,26093,26085,26085
201908122046,26085,26090,26084,26087
201908122047,26087,26090,26081,26082
201908122048,26082,26088,26082,26088
201908122049,26088,26108,26085,26108
201908122050,26108,26108,26093,26093
201908122051,26093,26100,26092,26098
201908122052,26099,26099,26095,26097
201908122053,26097,26099,26094,26098
201908122054,26097,26100,26088,26097
201908122055,26097,26097,26074,26075
201908122056,26075,26089,26072,26082
201908122057,26081,26086,26081,26082
201908122058,26082,26086,26082,26083
201908122059,26083,26088,26082,26088
201908122100,26088,26090,26073,26090
201908122101,26089,26108,26086,26103
201908122102,26103,26108,26100,26103
201908122103,26102,26104,26100,26100
201908122104,26100,26115,26100,26114
201908122105,26114,26121,26111,26121
201908122106,26120,26133,26117,26130
201908122107,26131,26133,26127,26129
201908122108,26129,26131,26122,26126
201908122109,26126,26132,26122,26122
201908122110,26122,26122,26116,26120
201908122111,26120,26120,26112,26113
201908122112,26113,26115,26109,26112
201908122113,26113,26116,26108,26110
201908122114,26110,26113,26110,26111
201908122115,26111,26112,26102,26105
201908122116,26105,26123,26102,26122
201908122117,26122,26124,26116,26123
201908122118,26123,26127,26123,26126
201908122119,26126,26128,26122,26122
201908122120,26122,26128,26120,26124
201908122121,26124,26131,26124,26126
201908122122,26125,26127,26115,26117
201908122123,26118,26121,26118,26119
201908122124,26119,26122,26116,26121
201908122125,26121,26133,26120,26132
201908122126,26132,26135,26128,26130
201908122127,26130,26131,26124,26124
201908122128,26123,26128,26122,26123
201908122129,26123,26126,26109,26113
201908122130,26112,26129,26112,26128
201908122131,26128,26131,26126,26129
201908122132,26128,26133,26121,26124
201908122133,26124,26132,26121,26130
201908122134,26130,26130,26125,26128
201908122135,26128,26132,26123,26131
201908122136,26131,26133,26128,26130
201908122137,26130,26133,26127,26129
201908122138,26129,26130,26124,26124
201908122139,26124,26125,26106,26107
201908122140,26107,26108,26074,26093
201908122141,26092,26103,26089,26102
201908122142,26102,26113,26101,26108
201908122143,26108,26113,26093,26101
201908122144,26101,26106,26090,26092
201908122145,26092,26098,26087,26094
201908122146,26094,26105,26094,26099
201908122147,26099,26104,26097,26102
201908122148,26102,26112,26102,26109
201908122149,26108,26117,26103,26115
201908122150,26115,26125,26112,26122
201908122151,26122,26127,26121,26121
201908122152,26121,26141,26118,26136
201908122153,26136,26149,26136,26148
201908122154,26148,26148,26136,26136
201908122155,26136,26137,26130,26132
201908122156,26132,26135,26130,26131
201908122157,26131,26143,26131,26141
201908122158,26142,26142,26127,26129
201908122159,26129,26132,26124,26130
201908122200,26129,26147,26129,26142
201908122201,26142,26151,26139,26140
201908122202,26140,26142,26130,26133
201908122203,26133,26144,26126,26127
201908122204,26127,26129,26111,26115
201908122205,26115,26122,26111,26122
201908122206,26120,26131,26120,26125
201908122207,26125,26142,26124,26137
201908122208,26136,26136,26122,26126
201908122209,26126,26132,26124,26125
201908122210,26125,26130,26116,26123
201908122211,26123,26132,26120,26128
201908122212,26128,26137,26126,26128
201908122213,26128,26131,26124,26126
201908122214,26126,26128,26115,26116
201908122215,26116,26125,26112,26116
201908122216,26116,26118,26115,26118
201908122217,26118,26119,26114,26119
201908122218,26119,26122,26116,26120
201908122219,26120,26129,26119,26123
201908122220,26123,26127,26115,26115
201908122221,26115,26115,26107,26111
201908122222,26111,26115,26109,26112
201908122223,26112,26113,26105,26105
201908122224,26106,26114,26101,26110
201908122225,26110,26114,26106,26111
201908122226,26112,26115,26112,26112
201908122227,26112,26115,26105,26109
201908122228,26109,26109,26095,26096
201908122229,26096,26096,26088,26091
201908122230,26098,26117,26087,26105
201908122231,26105,26122,26072,26083
201908122232,26083,26087,26057,26061
201908122233,26061,26079,26054,26076
201908122234,26076,26080,26057,26059
201908122235,26059,26064,26033,26054
201908122236,26055,26065,26040,26065
201908122237,26064,26083,26059,26069
201908122238,26068,26083,26053,26075
201908122239,26075,26099,26071,26073
201908122240,26073,26082,26053,26057
201908122241,26055,26071,26051,26071
201908122242,26072,26072,26059,26065
201908122243,26065,26073,26057,26064
201908122244,26064,26070,26059,26062
201908122245,26063,26097,26054,26086
201908122246,26086,26104,26082,26093
201908122247,26089,26095,26074,26076
201908122248,26074,26076,26059,26076
201908122249,26076,26081,26067,26071
201908122250,26072,26073,26061,26064
201908122251,26066,26079,26064,26079
201908122252,26079,26086,26074,26077
201908122253,26077,26077,26062,26063
201908122254,26063,26063,26054,26059
201908122255,26059,26071,26052,26070
201908122256,26070,26070,26063,26070
201908122257,26070,26090,26070,26079
201908122258,26079,26079,26068,26071
201908122259,26071,26083,26069,26082
201908122300,26082,26101,26076,26088
201908122301,26088,26118,26088,26113
201908122302,26112,26112,26094,26095
201908122303,26096,26096,26083,26084
201908122304,26084,26095,26083,26085
201908122305,26085,26085,26063,26067
201908122306,26067,26072,26060,26069
201908122307,26069,26069,26055,26060
201908122308,26060,26063,26053,26054
201908122309,26054,26058,26050,26054
201908122310,26055,26063,26049,26057
201908122311,26058,26078,26053,26063
201908122312,26063,26067,26047,26051
201908122313,26051,26063,26051,26056
201908122314,26056,26077,26051,26077
201908122315,26076,26086,26064,26067
201908122316,26067,26092,26065,26090
201908122317,26090,26095,26083,26092
201908122318,26091,26103,26080,26080
201908122319,26080,26091,26077,26087
201908122320,26087,26102,26087,26093
201908122321,26091,26098,26089,26096
201908122322,26096,26107,26095,26104
201908122323,26104,26139,26102,26134
201908122324,26133,26137,26128,26136
201908122325,26136,26158,26136,26157
201908122326,26157,26165,26140,26141
201908122327,26140,26144,26131,26136
201908122328,26136,26142,26134,26135
201908122329,26135,26141,26128,26130
201908122330,26130,26148,26129,26142
201908122331,26142,26153,26140,26153
201908122332,26153,26157,26140,26140
201908122333,26140,26142,26132,26133
201908122334,26133,26140,26122,26125
201908122335,26125,26130,26109,26109
201908122336,26108,26116,26105,26112
201908122337,26112,26114,26102,26109
201908122338,26109,26114,26104,26109
201908122339,26109,26116,26105,26116
201908122340,26116,26129,26115,26121
201908122341,26121,26123,26104,26112
201908122342,26111,26111,26080,26081
201908122343,26082,26091,26080,26090
201908122344,26089,26089,26080,26085
201908122345,26086,26091,26069,26070
201908122346,26071,26073,26058,26069
201908122347,26069,26071,26056,26057
201908122348,26055,26059,26050,26055
201908122349,26055,26066,26053,26062
201908122350,26062,26062,26051,26058
201908122351,26058,26066,26056,26064
201908122352,26064,26072,26064,26067
201908122353,26068,26075,26067,26072
201908122354,26072,26081,26072,26081
201908122355,26081,26081,26072,26074
201908122356,26075,26080,26075,26078
201908122357,26078,26092,26077,26088
201908122358,26088,26098,26088,26094
201908122359,26093,26093,26081,26083
201908130000,26083,26083,26067,26067
201908130001,26067,26071,26051,26058
201908130002,26059,26072,26055,26055
201908130003,26052,26058,26041,26045
201908130004,26045,26049,26041,26045
201908130005,26046,26046,26028,26037
201908130006,26038,26051,26032,26048
201908130007,26047,26053,26046,26048
201908130008,26049,26050,26037,26038
201908130009,26038,26039,26026,26027
201908130010,26026,26026,25990,25995
201908130011,25995,25995,25980,25985
201908130012,25985,25991,25972,25974
201908130013,25974,25980,25970,25972
201908130014,25972,25984,25972,25976
201908130015,25976,25993,25974,25989
201908130016,25990,25990,25984,25988
201908130017,25988,25997,25988,25989
201908130018,25987,25987,25976,25982
201908130019,25983,25992,25981,25991
201908130020,25991,25995,25987,25991
201908130021,25991,26001,25989,26000
201908130022,26000,26005,25999,26001
201908130023,26001,26004,25999,26004
201908130024,26004,26015,26004,26010
201908130025,26011,26021,26007,26017
201908130026,26017,26017,26008,26011
201908130027,26011,26011,25994,25996
201908130028,25996,26010,25996,26007
201908130029,26007,26011,26003,26005
201908130030,26005,26023,26000,26021
201908130031,26021,26025,26018,26021
201908130032,26021,26021,26004,26007
201908130033,26007,26009,25978,25978
201908130034,25978,25980,25966,25973
201908130035,25973,25989,25967,25989
201908130036,25988,25994,25981,25994
201908130037,25994,25996,25980,25983
201908130038,25983,25995,25983,25995
201908130039,25995,25996,25986,25986
201908130040,25986,25997,25981,25985
201908130041,25985,25994,25984,25992
201908130042,25992,25997,25986,25993
201908130043,25993,26006,25987,26006
201908130044,26006,26018,26003,26017
201908130045,26018,26024,26014,26016
201908130046,26016,26038,26015,26038
201908130047,26039,26043,26033,26041
201908130048,26040,26044,26031,26031
201908130049,26030,26038,26029,26038
201908130050,26038,26040,26032,26033
201908130051,26033,26043,26032,26038
201908130052,26037,26052,26036,26052
201908130053,26052,26054,26043,26046
201908130054,26046,26052,26045,26049
201908130055,26049,26052,26042,26044
201908130056,26044,26053,26042,26051
201908130057,26051,26051,26043,26044
201908130058,26044,26050,26043,26045
201908130059,26045,26046,26038,26039
201908130100,26039,26039,26025,26026
201908130101,26026,26027,26018,26021
201908130102,26021,26024,26004,26005
201908130103,26008,26017,26007,26010
201908130104,26010,26010,25998,26006
201908130105,26006,26010,25998,25998
201908130106,25998,26008,25997,26006
201908130107,26007,26009,26001,26006
201908130108,26006,26010,26005,26009
201908130109,26009,26022,26007,26019
201908130110,26019,26046,26019,26046
201908130111,26046,26047,26028,26029
201908130112,26029,26037,26029,26031
201908130113,26030,26035,26027,26034
201908130114,26034,26038,26029,26034
201908130115,26032,26036,26021,26022
201908130116,26022,26029,26020,26029
201908130117,26028,26030,26019,26021
201908130118,26022,26035,26019,26035
201908130119,26035,26046,26034,26046
201908130120,26046,26049,26042,26047
201908130121,26047,26053,26042,26051
201908130122,26050,26064,26050,26059
201908130123,26059,26059,26052,26053
201908130124,26053,26057,26046,26046
201908130125,26044,26048,26041,26044
201908130126,26044,26046,26031,26033
201908130127,26033,26042,26033,26041
201908130128,26040,26050,26037,26049
201908130129,26049,26059,26049,26054
201908130130,26056,26061,26050,26058
201908130131,26058,26071,26057,26071
201908130132,26071,26071,26052,26053
201908130133,26053,26060,26052,26052
201908130134,26052,26054,26037,26037
201908130135,26038,26040,26033,26038
201908130136,26039,26049,26037,26048
201908130137,26048,26048,26035,26035
201908130138,26035,26039,26034,26038
201908130139,26038,26041,26036,26039
201908130140,26039,26043,26003,26016
201908130141,26016,26020,25991,26002
201908130142,26002,26011,26001,26010
201908130143,26010,26017,26004,26014
201908130144,26015,26018,26006,26007
201908130145,26007,26009,25996,26007
201908130146,26007,26011,26005,26005
201908130147,26005,26009,26001,26002
201908130148,26002,26009,26001,26007
201908130149,26008,26008,25996,26007
201908130150,26007,26013,26004,26006
201908130151,26006,26007,25982,25982
201908130152,25982,25992,25982,25989
201908130153,25989,25990,25983,25987
201908130154,25987,25989,25980,25984
201908130155,25985,25990,25980,25988
201908130156,25988,26003,25987,26001
201908130157,26001,26006,26000,26006
201908130158,26005,26016,26005,26005
201908130159,26005,26008,25996,25997
201908130200,25997,26001,25992,25993
201908130201,25992,25995,25987,25995
201908130202,25995,25995,25987,25988
201908130203,25988,25994,25985,25991
201908130204,25991,25997,25988,25991
201908130205,25991,25999,25991,25998
201908130206,25998,25998,25988,25992
201908130207,25992,26001,25990,26000
201908130208,26000,26012,25999,26002
201908130209,26002,26002,25990,25991
201908130210,25992,26000,25989,25997
201908130211,25998,26001,25993,26001
201908130212,26000,26000,25992,25995
201908130213,25995,26007,25994,26006
201908130214,26007,26013,26006,26009
201908130215,26009,26016,26006,26006
201908130216,26005,26007,26000,26005
201908130217,26004,26008,26003,26005
201908130218,26005,26005,25976,25978
201908130219,25978,25987,25977,25987
201908130220,25988,25997,25987,25997
201908130221,25998,25998,25993,25994
201908130222,25993,26005,25992,26004
201908130223,26004,26007,26001,26001
201908130224,26001,26003,25992,25993
201908130225,25993,26000,25993,25997
201908130226,25998,26004,25994,26004
201908130227,26004,26006,26001,26004
201908130228,26005,26005,26002,26004
201908130229,26003,26004,25993,25997
201908130230,25997,26001,25991,25991
201908130231,25991,25993,25982,25989
201908130232,25990,26002,25990,26001
201908130233,26000,26005,26000,26005
201908130234,26005,26005,26001,26003
201908130235,26003,26003,25993,25995
201908130236,25996,25996,25987,25992
201908130237,25992,25992,25984,25985
201908130238,25985,25985,25975,25976
201908130239,25976,25978,25967,25971
201908130240,25971,25972,25954,25961
201908130241,25961,25980,25961,25977
201908130242,25977,25978,25966,25966
201908130243,25965,25966,25957,25966
201908130244,25966,25970,25953,25958
201908130245,25958,25964,25954,25961
201908130246,25961,25961,25945,25946
201908130247,25946,25953,25946,25948
201908130248,25948,25962,25948,25961
201908130249,25961,25964,25957,25959
201908130250,25958,25960,25949,25949
201908130251,25949,25953,25946,25949
201908130252,25949,25951,25942,25950
201908130253,25951,25951,25946,25951
201908130254,25951,25967,25951,25962
201908130255,25962,25968,25956,25960
201908130256,25960,25966,25951,25951
201908130257,25951,25960,25951,25953
201908130258,25953,25954,25951,25953
201908130259,25953,25961,25952,25955
201908130300,25955,25955,25944,25944
201908130301,25944,25949,25944,25945
201908130302,25945,25962,25944,25956
201908130303,25956,25964,25954,25960
201908130304,25960,25968,25958,25962
201908130305,25963,25963,25953,25960
201908130306,25960,25962,25951,25962
201908130307,25962,25964,25955,25959
201908130308,25959,25961,25956,25961
201908130309,25961,25963,25956,25961
201908130310,25959,25960,25949,25956
201908130311,25956,25976,25956,25973
201908130312,25973,25976,25968,25969
201908130313,25969,25972,25961,25963
201908130314,25963,25965,25961,25964
201908130315,25964,25970,25957,25957
201908130316,25957,25959,25954,25957
201908130317,25957,25964,25954,25956
201908130318,25956,25956,25950,25952
201908130319,25952,25952,25942,25942
201908130320,25942,25946,25936,25939
201908130321,25939,25942,25938,25940
201908130322,25941,25942,25931,25931
201908130323,25930,25930,25925,25925
201908130324,25926,25934,25924,25932
201908130325,25932,25934,25928,25929
201908130326,25929,25931,25924,25925
201908130327,25924,25925,25919,25921
201908130328,25921,25921,25914,25915
201908130329,25915,25915,25901,25905
201908130330,25905,25914,25900,25911
201908130331,25911,25916,25910,25915
201908130332,25915,25920,25915,25917
201908130333,25917,25920,25899,25900
201908130334,25900,25904,25896,25901
201908130335,25901,25904,25897,25900
201908130336,25899,25899,25887,25890
201908130337,25890,25901,25890,25899
201908130338,25899,25900,25890,25890
201908130339,25890,25891,25884,25885
201908130340,25885,25887,25870,25870
201908130341,25870,25870,25852,25857
201908130342,25855,25855,25837,25837
201908130343,25837,25838,25806,25806
201908130344,25806,25831,25805,25827
201908130345,25827,25835,25822,25835
201908130346,25834,25843,25823,25827
201908130347,25827,25843,25825,25843
201908130348,25843,25846,25841,25845
201908130349,25845,25845,25822,25823
201908130350,25824,25838,25824,25834
201908130351,25834,25845,25828,25845
201908130352,25845,25857,25837,25853
201908130353,25853,25853,25834,25834
201908130354,25834,25838,25827,25834
201908130355,25833,25839,25820,25836
201908130356,25836,25845,25829,25843
201908130357,25843,25848,25828,25831
201908130358,25831,25831,25820,25821
201908130359,25821,25835,25803,25833
201908130400,25834,25861,25826,25861
201908130401,25861,25870,25856,25870
201908130402,25870,25875,25865,25865
201908130403,25866,25867,25843,25865
201908130404,25865,25871,25861,25869
201908130405,25869,25871,25853,25862
201908130406,25863,25870,25859,25870
201908130407,25869,25869,25851,25851
201908130408,25851,25885,25851,25876
201908130409,25879,25879,25862,25864
201908130410,25864,25873,25858,25871
201908130411,25871,25874,25865,25871
201908130412,25871,25873,25868,25871
201908130413,25871,25872,25862,25864
201908130414,25864,25872,25864,25868
201908130415,25868,25874,25864,25868
201908130416,25868,25868,25860,25862
201908130417,25862,25865,25859,25862
201908130418,25862,25871,25858,25871
201908130419,25871,25876,25863,25869
201908130420,25870,25870,25861,25863
201908130421,25863,25874,25857,25866
201908130422,25866,25866,25849,25852
201908130423,25852,25857,25850,25855
201908130424,25855,25868,25855,25861
201908130425,25861,25863,25850,25854
201908130426,25854,25856,25844,25848
201908130427,25848,25862,25848,25862
201908130428,25862,25874,25862,25874
201908130429,25874,25875,25871,25873
201908130430,25873,25877,25872,25873
201908130431,25872,25888,25870,25885
201908130432,25885,25886,25878,25882
201908130433,25882,25884,25872,25872
201908130434,25872,25874,25864,25868
201908130435,25868,25879,25852,25853
201908130436,25853,25872,25853,25871
201908130437,25871,25877,25869,25877
201908130438,25877,25878,25869,25873
201908130439,25873,25885,25873,25884
201908130440,25884,25887,25873,25875
201908130441,25875,25880,25874,25878
201908130442,25879,25885,25878,25879
201908130443,25879,25892,25879,25888
201908130444,25887,25887,25878,25881
201908130445,25881,25891,25881,25890
201908130446,25889,25889,25880,25881
201908130447,25881,25884,25869,25869
201908130448,25869,25874,25867,25869
201908130449,25870,25872,25868,25872
201908130450,25872,25879,25870,25876
201908130451,25876,25881,25873,25881
201908130452,25881,25881,25873,25880
201908130453,25880,25888,25879,25884
201908130454,25884,25887,25876,25881
201908130455,25881,25887,25873,25885
201908130456,25885,25892,25885,25889
201908130457,25889,25894,25888,25892
201908130458,25893,25902,25892,25897
201908130459,25896,25897,25885,25886
201908130500,25887,25900,25883,25885
201908130501,25884,25885,25877,25879
201908130502,25879,25882,25878,25879
201908130503,25879,25882,25875,25882
201908130504,25882,25882,25858,25869
201908130505,25869,25872,25866,25867
201908130506,25866,25874,25866,25874
201908130507,25874,25874,25868,25871
201908130508,25871,25873,25868,25873
201908130509,25873,25873,25867,25872
201908130510,25872,25873,25868,25869
201908130511,25870,25870,25866,25868
201908130512,25868,25868,25863,25866
201908130513,25866,25876,25866,25875
201908130514,25875,25878,25860,25863
