日時,始値(BID),高値(BID),安値(BID),終値(BID)
201908150700,25387,25414,25387,25409
201908150701,25409,25409,25387,25394
201908150702,25394,25394,25382,25390
201908150703,25390,25401,25390,25399
201908150704,25399,25412,25399,25409
201908150705,25408,25408,25395,25395
201908150706,25395,25399,25392,25395
201908150707,25395,25403,25395,25401
201908150708,25401,25406,25400,25406
201908150709,25406,25409,25391,25396
201908150710,25396,25402,25396,25399
201908150711,25399,25400,25391,25392
201908150712,25392,25392,25381,25385
201908150713,25385,25389,25385,25386
201908150714,25386,25389,25382,25389
201908150715,25389,25390,25384,25387
201908150716,25388,25393,25388,25393
201908150717,25393,25400,25393,25400
201908150718,25400,25400,25393,25395
201908150719,25395,25397,25392,25392
201908150720,25392,25396,25391,25396
201908150721,25396,25400,25393,25399
201908150722,25398,25399,25387,25388
201908150723,25388,25397,25388,25396
201908150724,25395,25396,25393,25395
201908150725,25395,25402,25391,25400
201908150726,25401,25411,25400,25409
201908150727,25409,25410,25407,25409
201908150728,25409,25413,25407,25412
201908150729,25412,25421,25412,25421
201908150730,25421,25428,25413,25418
201908150731,25418,25421,25414,25419
201908150732,25419,25421,25414,25415
201908150733,25416,25418,25413,25417
201908150734,25417,25423,25413,25420
201908150735,25419,25420,25417,25418
201908150736,25419,25420,25413,25415
201908150737,25415,25422,25415,25415
201908150738,25416,25430,25416,25427
201908150739,25427,25439,25426,25428
201908150740,25428,25438,25428,25436
201908150741,25436,25437,25428,25430
201908150742,25430,25442,25430,25435
201908150743,25435,25436,25432,25434
201908150744,25435,25448,25435,25440
201908150745,25440,25442,25428,25430
201908150746,25430,25436,25430,25433
201908150747,25433,25441,25427,25427
201908150748,25427,25431,25427,25428
201908150749,25428,25430,25420,25428
201908150750,25428,25441,25428,25434
201908150751,25434,25434,25428,25429
201908150752,25429,25433,25425,25425
201908150753,25425,25428,25422,25427
201908150754,25427,25431,25426,25427
201908150755,25426,25434,25424,25425
201908150756,25426,25431,25426,25431
201908150757,25431,25432,25419,25423
201908150758,25423,25426,25421,25421
201908150759,25421,25421,25404,25404
201908150800,25405,25418,25403,25405
201908150801,25405,25416,25405,25410
201908150802,25411,25418,25411,25415
201908150803,25415,25415,25407,25413
201908150804,25413,25424,25413,25420
201908150805,25420,25420,25413,25414
201908150806,25414,25424,25414,25424
201908150807,25424,25435,25424,25432
201908150808,25432,25436,25430,25431
201908150809,25431,25435,25429,25435
201908150810,25435,25440,25433,25438
201908150811,25437,25444,25437,25440
201908150812,25440,25440,25433,25435
201908150813,25435,25436,25429,25436
201908150814,25436,25437,25431,25431
201908150815,25431,25439,25431,25439
201908150816,25440,25442,25440,25442
201908150817,25442,25444,25440,25444
201908150818,25445,25445,25442,25445
201908150819,25445,25447,25442,25442
201908150820,25442,25444,25439,25440
201908150821,25440,25442,25438,25439
201908150822,25439,25448,25439,25448
201908150823,25448,25450,25442,25442
201908150824,25442,25447,25442,25444
201908150825,25444,25444,25440,25440
201908150826,25440,25442,25435,25438
201908150827,25439,25444,25439,25442
201908150828,25442,25444,25442,25442
201908150829,25442,25443,25438,25442
201908150830,25442,25450,25441,25450
201908150831,25451,25456,25450,25454
201908150832,25454,25456,25445,25446
201908150833,25446,25457,25446,25457
201908150834,25457,25469,25457,25467
201908150835,25467,25471,25467,25470
201908150836,25470,25470,25465,25465
201908150837,25465,25465,25461,25464
201908150838,25465,25476,25464,25473
201908150839,25473,25474,25468,25471
201908150840,25471,25471,25467,25470
201908150841,25470,25471,25466,25468
201908150842,25468,25477,25468,25477
201908150843,25477,25477,25473,25475
201908150844,25476,25480,25476,25479
201908150845,25479,25482,25474,25477
201908150846,25477,25479,25475,25479
201908150847,25479,25489,25479,25482
201908150848,25482,25486,25479,25486
201908150849,25485,25491,25481,25481
201908150850,25481,25492,25480,25492
201908150851,25492,25495,25484,25493
201908150852,25492,25494,25485,25486
201908150853,25486,25490,25484,25490
201908150854,25490,25491,25488,25490
201908150855,25490,25496,25489,25494
201908150856,25494,25501,25493,25501
201908150857,25501,25504,25495,25496
201908150858,25496,25504,25495,25504
201908150859,25504,25505,25501,25503
201908150900,25503,25511,25503,25510
201908150901,25510,25510,25503,25508
201908150902,25508,25510,25506,25510
201908150903,25509,25510,25503,25503
201908150904,25502,25519,25502,25519
201908150905,25519,25532,25511,25520
201908150906,25520,25525,25515,25520
201908150907,25517,25519,25514,25515
201908150908,25515,25520,25513,25516
201908150909,25516,25521,25514,25518
201908150910,25519,25522,25506,25509
201908150911,25509,25514,25508,25509
201908150912,25510,25512,25505,25509
201908150913,25509,25516,25506,25510
201908150914,25510,25514,25507,25508
201908150915,25508,25513,25508,25511
201908150916,25511,25517,25506,25514
201908150917,25514,25518,25514,25517
201908150918,25517,25521,25516,25521
201908150919,25521,25525,25520,25525
201908150920,25525,25525,25511,25513
201908150921,25513,25520,25511,25520
201908150922,25520,25521,25512,25518
201908150923,25518,25520,25515,25516
201908150924,25516,25519,25514,25514
201908150925,25514,25516,25512,25513
201908150926,25513,25513,25500,25501
201908150927,25502,25504,25500,25503
201908150928,25503,25503,25498,25502
201908150929,25502,25502,25498,25498
201908150930,25498,25505,25495,25499
201908150931,25499,25499,25492,25494
201908150932,25494,25494,25484,25485
201908150933,25485,25493,25485,25485
201908150934,25485,25495,25484,25491
201908150935,25491,25492,25489,25492
201908150936,25492,25493,25490,25491
201908150937,25491,25498,25491,25495
201908150938,25495,25496,25489,25491
201908150939,25491,25491,25487,25491
201908150940,25491,25505,25491,25500
201908150941,25500,25502,25496,25498
201908150942,25498,25500,25494,25495
201908150943,25496,25500,25494,25498
201908150944,25498,25503,25498,25500
201908150945,25500,25508,25500,25506
201908150946,25506,25512,25505,25512
201908150947,25512,25514,25508,25511
201908150948,25511,25516,25511,25512
201908150949,25512,25518,25512,25513
201908150950,25514,25516,25510,25511
201908150951,25511,25513,25508,25508
201908150952,25508,25514,25508,25510
201908150953,25510,25518,25510,25517
201908150954,25518,25519,25512,25518
201908150955,25518,25519,25512,25514
201908150956,25514,25518,25502,25504
201908150957,25504,25515,25501,25514
201908150958,25514,25514,25503,25507
201908150959,25507,25507,25501,25503
201908151000,25505,25511,25500,25501
201908151001,25501,25501,25494,25495
201908151002,25495,25495,25488,25490
201908151003,25490,25494,25488,25494
201908151004,25494,25502,25494,25502
201908151005,25502,25513,25502,25512
201908151006,25512,25521,25509,25520
201908151007,25520,25532,25519,25528
201908151008,25528,25528,25518,25520
201908151009,25520,25520,25506,25507
201908151010,25507,25515,25507,25510
201908151011,25510,25517,25510,25517
201908151012,25517,25517,25504,25506
201908151013,25506,25510,25504,25506
201908151014,25506,25513,25506,25510
201908151015,25510,25524,25508,25510
201908151016,25510,25518,25505,25515
201908151017,25515,25520,25513,25518
201908151018,25518,25525,25517,25519
201908151019,25519,25523,25518,25523
201908151020,25523,25543,25518,25528
201908151021,25529,25538,25525,25526
201908151022,25526,25529,25522,25524
201908151023,25524,25525,25513,25513
201908151024,25513,25519,25512,25513
201908151025,25513,25514,25510,25512
201908151026,25512,25514,25506,25507
201908151027,25508,25512,25505,25508
201908151028,25508,25510,25505,25507
201908151029,25508,25510,25506,25508
201908151030,25508,25514,25496,25498
201908151031,25497,25504,25492,25503
201908151032,25503,25510,25502,25508
201908151033,25508,25519,25506,25515
201908151034,25515,25515,25502,25503
201908151035,25503,25517,25503,25513
201908151036,25513,25516,25500,25506
201908151037,25506,25522,25506,25522
201908151038,25522,25532,25520,25532
201908151039,25532,25533,25525,25532
201908151040,25532,25533,25526,25532
201908151041,25532,25536,25529,25535
201908151042,25535,25539,25531,25539
201908151043,25539,25548,25538,25547
201908151044,25547,25560,25545,25559
201908151045,25559,25559,25548,25552
201908151046,25552,25555,25548,25550
201908151047,25550,25556,25547,25553
201908151048,25553,25558,25548,25549
201908151049,25549,25555,25546,25553
201908151050,25553,25554,25550,25553
201908151051,25553,25554,25550,25551
201908151052,25551,25563,25550,25563
201908151053,25563,25564,25557,25562
201908151054,25562,25567,25557,25560
201908151055,25560,25571,25560,25569
201908151056,25569,25572,25566,25567
201908151057,25567,25573,25566,25566
201908151058,25566,25569,25566,25568
201908151059,25568,25575,25568,25573
201908151100,25573,25575,25566,25566
201908151101,25566,25566,25557,25558
201908151102,25558,25559,25554,25556
201908151103,25556,25559,25554,25558
201908151104,25559,25565,25558,25564
201908151105,25564,25568,25563,25568
201908151106,25568,25572,25566,25568
201908151107,25568,25571,25566,25567
201908151108,25567,25570,25563,25564
201908151109,25564,25564,25560,25560
201908151110,25560,25560,25555,25556
201908151111,25556,25556,25547,25549
201908151112,25549,25550,25540,25540
201908151113,25540,25543,25537,25541
201908151114,25541,25544,25539,25541
201908151115,25540,25553,25539,25553
201908151116,25552,25552,25548,25549
201908151117,25549,25552,25547,25551
201908151118,25551,25556,25550,25555
201908151119,25555,25562,25555,25560
201908151120,25560,25563,25557,25562
201908151121,25562,25568,25557,25568
201908151122,25568,25568,25563,25564
201908151123,25564,25569,25563,25566
201908151124,25567,25570,25565,25565
201908151125,25565,25567,25560,25561
201908151126,25561,25567,25560,25561
201908151127,25561,25570,25558,25566
201908151128,25566,25569,25563,25569
201908151129,25568,25573,25564,25572
201908151130,25572,25574,25558,25563
201908151131,25564,25565,25559,25559
201908151132,25559,25562,25555,25557
201908151133,25557,25562,25557,25560
201908151134,25560,25567,25560,25567
201908151135,25567,25571,25564,25566
201908151136,25566,25568,25563,25568
201908151137,25568,25571,25567,25570
201908151138,25570,25572,25570,25572
201908151139,25573,25575,25567,25574
201908151140,25574,25575,25567,25569
201908151141,25569,25576,25569,25576
201908151142,25576,25576,25567,25567
201908151143,25568,25574,25568,25573
201908151144,25573,25580,25572,25576
201908151145,25576,25579,25574,25576
201908151146,25576,25578,25575,25575
201908151147,25575,25577,25574,25576
201908151148,25576,25579,25576,25577
201908151149,25577,25578,25575,25577
201908151150,25577,25583,25576,25580
201908151151,25580,25580,25570,25572
201908151152,25572,25577,25572,25577
201908151153,25577,25579,25576,25576
201908151154,25576,25582,25576,25578
201908151155,25578,25582,25572,25572
201908151156,25572,25577,25571,25572
201908151157,25572,25573,25569,25569
201908151158,25569,25569,25565,25566
201908151159,25566,25566,25557,25557
201908151200,25558,25567,25558,25559
201908151201,25559,25561,25558,25558
201908151202,25559,25563,25556,25560
201908151203,25560,25560,25556,25557
201908151204,25557,25560,25555,25559
201908151205,25560,25560,25557,25558
201908151206,25558,25559,25552,25559
201908151207,25558,25560,25557,25559
201908151208,25559,25563,25558,25563
201908151209,25563,25567,25562,25567
201908151210,25567,25569,25563,25564
201908151211,25564,25568,25562,25563
201908151212,25563,25567,25562,25567
201908151213,25567,25569,25567,25567
201908151214,25567,25568,25565,25567
201908151215,25567,25571,25565,25566
201908151216,25566,25569,25564,25569
201908151217,25569,25570,25566,25566
201908151218,25566,25569,25566,25566
201908151219,25567,25567,25561,25566
201908151220,25566,25569,25566,25568
201908151221,25568,25571,25567,25570
201908151222,25569,25570,25567,25570
201908151223,25570,25570,25568,25569
201908151224,25569,25571,25568,25569
201908151225,25569,25569,25567,25567
201908151226,25567,25571,25567,25570
201908151227,25570,25571,25566,25570
201908151228,25570,25573,25569,25572
201908151229,25572,25572,25569,25569
201908151230,25569,25572,25564,25571
201908151231,25571,25573,25569,25570
201908151232,25570,25572,25569,25572
201908151233,25571,25572,25570,25570
201908151234,25570,25571,25560,25561
201908151235,25561,25563,25558,25558
201908151236,25559,25560,25555,25555
201908151237,25555,25558,25555,25557
201908151238,25557,25557,25548,25549
201908151239,25549,25551,25548,25550
201908151240,25550,25550,25546,25546
201908151241,25547,25547,25544,25547
201908151242,25547,25552,25546,25551
201908151243,25550,25551,25542,25542
201908151244,25542,25547,25542,25543
201908151245,25543,25543,25534,25535
201908151246,25535,25541,25532,25539
201908151247,25538,25539,25533,25533
201908151248,25532,25533,25521,25526
201908151249,25526,25529,25523,25527
201908151250,25526,25529,25522,25524
201908151251,25524,25528,25521,25521
201908151252,25522,25522,25515,25517
201908151253,25517,25518,25507,25509
201908151254,25508,25510,25508,25508
201908151255,25508,25509,25496,25496
201908151256,25496,25502,25492,25496
201908151257,25496,25498,25492,25497
201908151258,25496,25496,25491,25495
201908151259,25495,25497,25489,25497
201908151300,25497,25497,25494,25494
201908151301,25494,25498,25494,25495
201908151302,25495,25496,25490,25495
201908151303,25496,25502,25495,25501
201908151304,25501,25505,25497,25504
201908151305,25505,25505,25495,25497
201908151306,25498,25501,25498,25500
201908151307,25500,25500,25495,25499
201908151308,25499,25501,25497,25500
201908151309,25500,25500,25492,25494
201908151310,25495,25496,25485,25485
201908151311,25485,25489,25481,25482
201908151312,25482,25483,25475,25478
201908151313,25477,25479,25469,25472
201908151314,25472,25475,25465,25467
201908151315,25467,25475,25464,25475
201908151316,25474,25479,25474,25478
201908151317,25478,25480,25475,25477
201908151318,25477,25477,25473,25475
201908151319,25476,25481,25473,25481
201908151320,25481,25481,25472,25474
201908151321,25474,25479,25474,25479
201908151322,25479,25479,25471,25474
201908151323,25474,25478,25473,25477
201908151324,25478,25481,25478,25479
201908151325,25479,25481,25479,25481
201908151326,25481,25483,25479,25482
201908151327,25483,25484,25481,25481
201908151328,25481,25487,25480,25484
201908151329,25484,25497,25484,25497
201908151330,25497,25497,25486,25488
201908151331,25488,25494,25487,25493
201908151332,25493,25495,25491,25491
201908151333,25491,25494,25490,25491
201908151334,25491,25491,25489,25490
201908151335,25490,25491,25486,25488
201908151336,25488,25491,25488,25490
201908151337,25491,25491,25485,25489
201908151338,25489,25492,25489,25491
201908151339,25490,25491,25488,25489
201908151340,25489,25490,25484,25484
201908151341,25484,25485,25482,25482
201908151342,25483,25489,25482,25487
201908151343,25487,25492,25487,25489
201908151344,25489,25492,25489,25492
201908151345,25493,25494,25490,25491
201908151346,25491,25492,25489,25492
201908151347,25492,25494,25491,25494
201908151348,25495,25499,25494,25496
201908151349,25496,25497,25494,25496
201908151350,25496,25497,25495,25496
201908151351,25495,25505,25494,25504
201908151352,25504,25522,25503,25517
201908151353,25517,25519,25510,25512
201908151354,25513,25526,25513,25521
201908151355,25521,25525,25520,25525
201908151356,25525,25525,25521,25523
201908151357,25522,25524,25521,25524
201908151358,25524,25528,25524,25524
201908151359,25524,25526,25520,25521
201908151400,25521,25524,25517,25522
201908151401,25523,25524,25522,25522
201908151402,25523,25528,25523,25524
201908151403,25524,25531,25523,25526
201908151404,25526,25529,25522,25522
201908151405,25523,25524,25519,25521
201908151406,25521,25522,25515,25516
201908151407,25516,25527,25516,25525
201908151408,25525,25534,25524,25532
201908151409,25532,25550,25532,25550
201908151410,25550,25550,25545,25546
201908151411,25546,25555,25546,25552
201908151412,25552,25557,25548,25548
201908151413,25548,25551,25548,25548
201908151414,25548,25551,25548,25550
201908151415,25550,25550,25545,25546
201908151416,25546,25550,25546,25550
201908151417,25550,25550,25545,25547
201908151418,25547,25548,25545,25547
201908151419,25547,25555,25547,25555
201908151420,25555,25571,25555,25571
201908151421,25571,25571,25560,25564
201908151422,25564,25566,25564,25565
201908151423,25565,25567,25561,25561
201908151424,25561,25565,25560,25565
201908151425,25565,25565,25562,25562
201908151426,25562,25564,25560,25563
201908151427,25563,25563,25561,25561
201908151428,25561,25563,25560,25561
201908151429,25561,25561,25557,25558
201908151430,25558,25568,25558,25566
201908151431,25566,25566,25563,25564
201908151432,25565,25565,25563,25563
201908151433,25563,25566,25563,25563
201908151434,25563,25565,25563,25563
201908151435,25563,25565,25561,25561
201908151436,25561,25563,25560,25560
201908151437,25560,25560,25549,25549
201908151438,25549,25554,25549,25551
201908151439,25551,25561,25551,25561
201908151440,25561,25562,25557,25557
201908151441,25557,25558,25555,25557
201908151442,25557,25557,25554,25555
201908151443,25555,25555,25552,25554
201908151444,25553,25554,25548,25550
201908151445,25550,25554,25549,25554
201908151446,25555,25555,25545,25545
201908151447,25545,25551,25545,25546
201908151448,25546,25547,25539,25541
201908151449,25542,25545,25536,25537
201908151450,25537,25540,25532,25536
201908151451,25536,25543,25534,25538
201908151452,25537,25541,25537,25540
201908151453,25540,25546,25540,25544
201908151454,25543,25546,25540,25545
201908151455,25545,25552,25542,25552
201908151456,25552,25559,25548,25557
201908151457,25557,25558,25555,25557
201908151458,25558,25561,25555,25557
201908151459,25557,25561,25554,25555
201908151500,25555,25565,25555,25558
201908151501,25558,25567,25558,25562
201908151502,25562,25573,25561,25573
201908151503,25573,25573,25565,25565
201908151504,25565,25566,25560,25560
201908151505,25560,25560,25554,25558
201908151506,25558,25565,25557,25561
201908151507,25561,25566,25560,25562
201908151508,25562,25575,25562,25569
201908151509,25569,25579,25569,25579
201908151510,25579,25586,25574,25585
201908151511,25585,25587,25580,25581
201908151512,25581,25586,25579,25586
201908151513,25586,25586,25582,25585
201908151514,25585,25585,25581,25583
201908151515,25583,25592,25582,25592
201908151516,25592,25592,25584,25591
201908151517,25591,25592,25587,25589
201908151518,25589,25591,25586,25591
201908151519,25592,25592,25586,25590
201908151520,25590,25591,25587,25590
201908151521,25591,25595,25591,25592
201908151522,25592,25596,25592,25595
201908151523,25595,25597,25593,25596
201908151524,25596,25596,25590,25590
201908151525,25590,25591,25587,25591
201908151526,25591,25591,25588,25590
201908151527,25590,25594,25590,25592
201908151528,25592,25594,25590,25593
201908151529,25592,25594,25590,25592
201908151530,25593,25593,25586,25588
201908151531,25587,25594,25587,25593
201908151532,25593,25596,25593,25595
201908151533,25595,25596,25593,25594
201908151534,25594,25606,25593,25606
201908151535,25606,25608,25602,25603
201908151536,25604,25614,25603,25614
201908151537,25614,25616,25610,25611
201908151538,25611,25628,25609,25628
201908151539,25628,25649,25628,25648
201908151540,25646,25648,25633,25635
201908151541,25635,25637,25631,25632
201908151542,25632,25635,25629,25633
201908151543,25633,25634,25631,25632
201908151544,25632,25632,25628,25628
201908151545,25628,25630,25626,25628
201908151546,25628,25628,25614,25614
201908151547,25613,25618,25613,25617
201908151548,25617,25617,25611,25611
201908151549,25611,25611,25602,25606
201908151550,25607,25608,25600,25608
201908151551,25609,25617,25607,25611
201908151552,25611,25617,25611,25615
201908151553,25615,25627,25611,25627
201908151554,25627,25635,25624,25634
201908151555,25634,25647,25634,25638
201908151556,25638,25642,25633,25635
201908151557,25635,25643,25635,25641
201908151558,25641,25641,25631,25631
201908151559,25631,25636,25628,25633
201908151600,25633,25642,25622,25632
201908151601,25632,25642,25630,25630
201908151602,25630,25639,25626,25634
201908151603,25633,25634,25626,25627
201908151604,25627,25629,25623,25624
201908151605,25624,25628,25621,25623
201908151606,25623,25624,25608,25608
201908151607,25610,25618,25610,25615
201908151608,25615,25618,25611,25618
201908151609,25618,25621,25614,25618
201908151610,25617,25618,25605,25609
201908151611,25609,25612,25603,25606
201908151612,25606,25606,25586,25587
201908151613,25587,25591,25556,25557
201908151614,25557,25563,25529,25535
201908151615,25535,25551,25533,25548
201908151616,25549,25563,25547,25562
201908151617,25562,25578,25562,25570
201908151618,25570,25587,25570,25586
201908151619,25585,25596,25585,25594
201908151620,25594,25594,25580,25581
201908151621,25581,25585,25579,25582
201908151622,25582,25594,25581,25590
201908151623,25590,25607,25590,25601
201908151624,25600,25611,25600,25602
201908151625,25602,25602,25593,25593
201908151626,25594,25596,25584,25586
201908151627,25586,25590,25582,25583
201908151628,25583,25585,25578,25582
201908151629,25582,25584,25571,25574
201908151630,25574,25592,25572,25587
201908151631,25587,25596,25584,25585
201908151632,25585,25590,25583,25589
201908151633,25589,25590,25580,25580
201908151634,25580,25582,25567,25571
201908151635,25571,25577,25564,25567
201908151636,25567,25573,25564,25572
201908151637,25572,25575,25569,25573
201908151638,25572,25585,25572,25585
201908151639,25585,25592,25580,25584
201908151640,25584,25587,25577,25582
201908151641,25582,25587,25578,25581
201908151642,25581,25588,25580,25582
201908151643,25582,25591,25581,25583
201908151644,25583,25597,25582,25592
201908151645,25592,25602,25589,25598
201908151646,25597,25610,25597,25605
201908151647,25605,25605,25600,25602
201908151648,25602,25603,25593,25595
201908151649,25595,25599,25592,25596
201908151650,25596,25597,25588,25588
201908151651,25588,25593,25588,25590
201908151652,25590,25593,25584,25584
201908151653,25584,25585,25581,25584
201908151654,25584,25591,25578,25578
201908151655,25578,25587,25578,25586
201908151656,25585,25598,25585,25594
201908151657,25594,25596,25588,25595
201908151658,25595,25601,25594,25599
201908151659,25599,25599,25587,25588
201908151700,25589,25590,25565,25565
201908151701,25565,25568,25562,25563
201908151702,25563,25571,25560,25570
201908151703,25570,25573,25566,25572
201908151704,25573,25575,25567,25567
201908151705,25567,25577,25564,25577
201908151706,25577,25583,25574,25581
201908151707,25581,25583,25579,25581
201908151708,25581,25582,25576,25579
201908151709,25579,25597,25578,25594
201908151710,25594,25601,25590,25599
201908151711,25599,25608,25595,25604
201908151712,25604,25605,25597,25598
201908151713,25598,25602,25596,25596
201908151714,25596,25598,25590,25590
201908151715,25590,25595,25590,25591
201908151716,25591,25608,25591,25606
201908151717,25606,25607,25602,25606
201908151718,25606,25620,25606,25614
201908151719,25614,25618,25609,25611
201908151720,25611,25612,25607,25609
201908151721,25609,25609,25591,25594
201908151722,25594,25595,25584,25584
201908151723,25584,25598,25581,25594
201908151724,25594,25597,25592,25593
201908151725,25593,25600,25591,25597
201908151726,25597,25615,25597,25613
201908151727,25613,25615,25605,25608
201908151728,25608,25617,25606,25614
201908151729,25614,25614,25606,25612
201908151730,25610,25613,25603,25607
201908151731,25607,25608,25601,25605
201908151732,25604,25606,25599,25602
201908151733,25602,25607,25596,25596
201908151734,25596,25616,25593,25615
201908151735,25615,25637,25615,25626
201908151736,25627,25631,25621,25623
201908151737,25624,25624,25614,25619
201908151738,25619,25628,25618,25627
201908151739,25627,25629,25619,25623
201908151740,25623,25630,25620,25627
201908151741,25627,25630,25622,25626
201908151742,25626,25628,25615,25626
201908151743,25626,25629,25620,25629
201908151744,25629,25630,25619,25624
201908151745,25624,25633,25624,25631
201908151746,25631,25634,25628,25633
201908151747,25633,25634,25627,25627
201908151748,25627,25633,25626,25626
201908151749,25627,25630,25624,25627
201908151750,25627,25628,25616,25616
201908151751,25617,25619,25614,25618
201908151752,25618,25622,25609,25610
201908151753,25610,25614,25607,25611
201908151754,25611,25613,25606,25609
201908151755,25610,25614,25605,25612
201908151756,25612,25612,25607,25609
201908151757,25610,25610,25597,25599
201908151758,25600,25603,25596,25598
201908151759,25597,25598,25590,25590
201908151800,25590,25592,25587,25591
201908151801,25591,25600,25556,25563
201908151802,25562,25569,25535,25541
201908151803,25541,25541,25471,25471
201908151804,25472,25502,25444,25501
201908151805,25501,25503,25479,25492
201908151806,25492,25492,25452,25453
201908151807,25455,25479,25444,25471
201908151808,25471,25475,25440,25447
201908151809,25447,25465,25443,25464
201908151810,25463,25471,25459,25461
201908151811,25461,25473,25457,25472
201908151812,25472,25472,25460,25463
201908151813,25463,25480,25460,25480
201908151814,25480,25480,25465,25468
201908151815,25468,25479,25457,25479
201908151816,25479,25486,25475,25484
201908151817,25484,25492,25482,25487
201908151818,25487,25489,25482,25483
201908151819,25484,25484,25473,25473
201908151820,25473,25477,25467,25475
201908151821,25475,25478,25467,25468
201908151822,25468,25486,25468,25484
201908151823,25484,25486,25477,25480
201908151824,25480,25488,25477,25483
201908151825,25483,25487,25475,25485
201908151826,25484,25493,25482,25492
201908151827,25492,25492,25480,25482
201908151828,25482,25486,25473,25474
201908151829,25474,25479,25472,25472
201908151830,25472,25474,25461,25463
201908151831,25463,25464,25446,25459
201908151832,25459,25461,25450,25454
201908151833,25454,25460,25443,25449
201908151834,25449,25460,25447,25459
201908151835,25459,25468,25455,25468
201908151836,25468,25471,25452,25455
201908151837,25455,25461,25452,25453
201908151838,25453,25457,25450,25454
201908151839,25454,25454,25441,25443
201908151840,25443,25446,25432,25433
201908151841,25433,25436,25425,25429
201908151842,25429,25435,25426,25431
201908151843,25431,25436,25400,25401
201908151844,25401,25404,25389,25401
201908151845,25401,25401,25381,25381
201908151846,25381,25381,25355,25361
201908151847,25361,25386,25360,25376
201908151848,25377,25378,25365,25365
201908151849,25365,25367,25353,25355
201908151850,25356,25364,25352,25363
201908151851,25363,25396,25363,25395
201908151852,25395,25411,25395,25399
201908151853,25398,25404,25395,25401
201908151854,25400,25401,25388,25390
201908151855,25390,25398,25387,25388
201908151856,25388,25394,25387,25393
201908151857,25393,25408,25389,25408
201908151858,25408,25408,25400,25404
201908151859,25404,25414,25403,25414
201908151900,25414,25414,25405,25410
201908151901,25410,25410,25402,25406
201908151902,25406,25408,25401,25405
201908151903,25405,25413,25405,25406
201908151904,25406,25406,25388,25394
201908151905,25394,25403,25386,25387
201908151906,25387,25388,25371,25371
201908151907,25371,25376,25360,25367
201908151908,25367,25367,25353,25362
201908151909,25362,25368,25359,25365
201908151910,25365,25385,25365,25382
201908151911,25381,25381,25357,25357
201908151912,25357,25370,25356,25361
201908151913,25361,25370,25351,25364
201908151914,25364,25364,25349,25357
201908151915,25357,25374,25353,25353
201908151916,25353,25353,25338,25341
201908151917,25342,25350,25335,25336
201908151918,25336,25345,25328,25328
201908151919,25328,25331,25322,25328
201908151920,25326,25344,25323,25325
201908151921,25325,25325,25305,25306
201908151922,25306,25311,25295,25296
201908151923,25296,25314,25292,25309
201908151924,25309,25312,25300,25301
201908151925,25301,25318,25298,25316
201908151926,25316,25327,25312,25316
201908151927,25316,25326,25312,25324
201908151928,25324,25325,25306,25310
201908151929,25309,25316,25297,25300
201908151930,25300,25320,25299,25317
201908151931,25317,25325,25314,25318
201908151932,25317,25319,25310,25310
201908151933,25310,25316,25309,25315
201908151934,25315,25317,25287,25288
201908151935,25289,25296,25286,25286
201908151936,25286,25290,25264,25265
201908151937,25265,25275,25263,25263
201908151938,25264,25264,25245,25249
201908151939,25249,25251,25229,25232
201908151940,25232,25259,25226,25259
201908151941,25259,25265,25248,25263
201908151942,25263,25284,25263,25269
201908151943,25268,25274,25258,25258
201908151944,25258,25264,25257,25260
201908151945,25262,25270,25259,25267
201908151946,25267,25270,25258,25268
201908151947,25268,25271,25262,25264
201908151948,25263,25268,25262,25265
201908151949,25265,25268,25258,25258
201908151950,25258,25259,25240,25256
201908151951,25255,25277,25255,25269
201908151952,25269,25269,25255,25260
201908151953,25260,25260,25243,25245
201908151954,25246,25265,25246,25265
201908151955,25265,25274,25261,25272
201908151956,25272,25295,25271,25292
201908151957,25293,25315,25292,25306
201908151958,25306,25307,25298,25299
201908151959,25300,25315,25296,25312
201908152000,25312,25322,25307,25322
201908152001,25322,25335,25321,25325
201908152002,25325,25335,25318,25334
201908152003,25333,25338,25328,25333
201908152004,25333,25334,25322,25330
201908152005,25330,25331,25324,25330
201908152006,25330,25364,25329,25362
201908152007,25363,25376,25355,25372
201908152008,25372,25423,25372,25418
201908152009,25423,25426,25409,25412
201908152010,25412,25415,25400,25401
201908152011,25401,25415,25401,25412
201908152012,25412,25426,25412,25422
201908152013,25423,25433,25395,25395
201908152014,25395,25402,25379,25385
201908152015,25385,25405,25385,25395
201908152016,25395,25397,25386,25397
201908152017,25397,25404,25393,25398
201908152018,25399,25416,25397,25414
201908152019,25414,25423,25409,25416
201908152020,25416,25418,25410,25410
201908152021,25410,25412,25405,25410
201908152022,25410,25426,25410,25425
201908152023,25426,25427,25409,25410
201908152024,25411,25423,25411,25416
201908152025,25416,25420,25413,25413
201908152026,25412,25412,25404,25406
201908152027,25406,25407,25392,25392
201908152028,25393,25407,25379,25396
201908152029,25396,25591,25396,25591
201908152030,25594,25668,25547,25547
201908152031,25547,25555,25509,25523
201908152032,25523,25569,25500,25568
201908152033,25569,25572,25528,25532
201908152034,25532,25532,25514,25514
201908152035,25514,25519,25468,25472
201908152036,25472,25530,25472,25528
201908152037,25528,25529,25510,25521
201908152038,25521,25521,25493,25493
201908152039,25493,25515,25485,25509
201908152040,25510,25565,25509,25554
201908152041,25554,25554,25528,25536
201908152042,25536,25538,25510,25513
201908152043,25514,25541,25509,25524
201908152044,25524,25533,25521,25529
201908152045,25529,25571,25521,25557
201908152046,25557,25560,25536,25558
201908152047,25558,25567,25553,25562
201908152048,25562,25599,25558,25592
201908152049,25597,25597,25580,25580
201908152050,25580,25588,25531,25555
201908152051,25555,25593,25549,25575
201908152052,25569,25595,25554,25580
201908152053,25580,25580,25562,25562
201908152054,25562,25579,25562,25579
201908152055,25579,25582,25566,25582
201908152056,25582,25582,25572,25579
201908152057,25579,25584,25574,25578
201908152058,25578,25579,25563,25568
201908152059,25568,25588,25562,25588
201908152100,25588,25596,25580,25595
201908152101,25595,25611,25595,25611
201908152102,25611,25705,25611,25683
201908152103,25683,25696,25655,25662
201908152104,25662,25676,25604,25629
201908152105,25629,25630,25590,25600
201908152106,25600,25607,25588,25607
201908152107,25607,25617,25603,25603
201908152108,25603,25622,25601,25612
201908152109,25612,25612,25579,25589
201908152110,25589,25600,25569,25584
201908152111,25584,25590,25564,25571
201908152112,25571,25575,25557,25558
201908152113,25560,25583,25560,25578
201908152114,25578,25585,25568,25576
201908152115,25576,25594,25576,25586
201908152116,25586,25608,25586,25607
201908152117,25607,25607,25575,25575
201908152118,25575,25579,25568,25574
201908152119,25574,25579,25568,25577
201908152120,25577,25586,25563,25575
201908152121,25575,25577,25566,25567
201908152122,25566,25570,25534,25535
201908152123,25535,25542,25530,25533
201908152124,25533,25543,25530,25540
201908152125,25540,25545,25536,25541
201908152126,25541,25572,25540,25561
201908152127,25561,25569,25555,25557
201908152128,25557,25557,25544,25552
201908152129,25552,25556,25537,25540
201908152130,25540,25603,25540,25595
201908152131,25594,25603,25585,25592
201908152132,25592,25609,25590,25602
201908152133,25602,25609,25584,25592
201908152134,25592,25592,25545,25555
201908152135,25555,25566,25531,25533
201908152136,25533,25560,25533,25556
201908152137,25556,25559,25542,25552
201908152138,25549,25580,25549,25572
201908152139,25572,25579,25567,25570
201908152140,25570,25586,25566,25566
201908152141,25566,25571,25554,25567
201908152142,25567,25575,25564,25564
201908152143,25564,25570,25559,25566
201908152144,25565,25578,25564,25568
201908152145,25568,25585,25568,25581
201908152146,25581,25594,25579,25586
201908152147,25586,25597,25583,25593
201908152148,25593,25600,25584,25584
201908152149,25584,25589,25576,25579
201908152150,25579,25584,25571,25579
201908152151,25579,25591,25572,25573
201908152152,25573,25578,25570,25573
201908152153,25573,25573,25563,25571
201908152154,25571,25602,25571,25601
201908152155,25601,25608,25585,25603
201908152156,25606,25614,25594,25608
201908152157,25608,25628,25606,25621
201908152158,25621,25632,25608,25612
201908152159,25612,25615,25605,25609
201908152200,25609,25609,25585,25600
201908152201,25600,25616,25591,25612
201908152202,25610,25625,25589,25595
201908152203,25594,25604,25583,25583
201908152204,25583,25609,25581,25609
201908152205,25609,25618,25599,25613
201908152206,25613,25622,25608,25612
201908152207,25612,25627,25611,25617
201908152208,25617,25626,25615,25623
201908152209,25623,25637,25623,25637
201908152210,25636,25636,25615,25630
201908152211,25630,25637,25625,25634
201908152212,25635,25635,25621,25623
201908152213,25623,25630,25619,25620
201908152214,25620,25626,25618,25622
201908152215,25622,25622,25602,25603
201908152216,25603,25617,25597,25600
201908152217,25599,25608,25587,25607
201908152218,25607,25616,25600,25616
201908152219,25615,25623,25610,25613
201908152220,25613,25626,25570,25581
201908152221,25581,25582,25559,25565
201908152222,25565,25573,25552,25561
201908152223,25561,25568,25550,25563
201908152224,25563,25574,25560,25571
201908152225,25571,25571,25532,25540
201908152226,25540,25545,25515,25521
201908152227,25523,25523,25507,25516
201908152228,25516,25538,25513,25534
201908152229,25534,25561,25528,25553
201908152230,25552,25578,25487,25578
201908152231,25578,25592,25556,25556
201908152232,25553,25577,25542,25549
201908152233,25548,25568,25524,25568
201908152234,25567,25594,25556,25556
201908152235,25557,25565,25505,25522
201908152236,25522,25554,25498,25500
201908152237,25500,25500,25475,25479
201908152238,25477,25496,25473,25488
201908152239,25488,25498,25463,25465
201908152240,25468,25468,25426,25435
201908152241,25431,25463,25421,25462
201908152242,25462,25484,25435,25484
201908152243,25481,25506,25466,25499
201908152244,25498,25508,25473,25489
201908152245,25487,25519,25473,25508
201908152246,25508,25519,25482,25492
201908152247,25492,25515,25482,25515
201908152248,25515,25545,25515,25540
201908152249,25537,25544,25511,25516
201908152250,25514,25521,25496,25500
201908152251,25500,25503,25479,25494
201908152252,25494,25529,25494,25524
201908152253,25523,25535,25514,25516
201908152254,25516,25558,25509,25553
201908152255,25555,25568,25539,25555
201908152256,25555,25561,25531,25560
201908152257,25560,25570,25541,25541
201908152258,25544,25552,25529,25544
201908152259,25545,25574,25527,25550
201908152300,25550,25575,25542,25561
201908152301,25559,25584,25559,25563
201908152302,25563,25563,25538,25546
201908152303,25546,25549,25525,25541
201908152304,25540,25567,25529,25547
201908152305,25547,25547,25527,25536
201908152306,25536,25536,25503,25511
201908152307,25511,25537,25503,25524
201908152308,25525,25541,25511,25535
201908152309,25535,25540,25520,25530
201908152310,25530,25542,25517,25529
201908152311,25528,25560,25524,25546
201908152312,25545,25570,25545,25561
201908152313,25561,25561,25547,25553
201908152314,25553,25561,25539,25541
201908152315,25540,25560,25534,25549
201908152316,25549,25551,25508,25519
201908152317,25521,25523,25505,25511
201908152318,25510,25510,25486,25503
201908152319,25503,25526,25503,25508
201908152320,25509,25512,25494,25494
201908152321,25495,25505,25483,25503
201908152322,25503,25509,25490,25503
201908152323,25504,25532,25504,25516
201908152324,25516,25535,25512,25524
201908152325,25523,25538,25516,25528
201908152326,25527,25548,25527,25534
201908152327,25534,25534,25508,25522
201908152328,25522,25529,25508,25511
201908152329,25512,25517,25471,25471
201908152330,25471,25471,25431,25448
201908152331,25448,25465,25444,25456
201908152332,25462,25478,25461,25478
201908152333,25478,25489,25468,25485
201908152334,25485,25496,25471,25496
201908152335,25493,25500,25484,25497
201908152336,25497,25516,25493,25514
201908152337,25514,25517,25497,25498
201908152338,25497,25514,25494,25498
201908152339,25498,25502,25474,25477
201908152340,25477,25485,25463,25482
201908152341,25482,25495,25479,25482
201908152342,25482,25501,25473,25499
201908152343,25499,25502,25480,25490
201908152344,25491,25513,25491,25509
201908152345,25509,25537,25509,25512
201908152346,25512,25525,25509,25518
201908152347,25518,25535,25513,25524
201908152348,25524,25524,25482,25499
201908152349,25499,25509,25488,25495
201908152350,25492,25502,25485,25501
201908152351,25501,25527,25501,25525
201908152352,25525,25540,25511,25538
201908152353,25538,25547,25530,25536
201908152354,25535,25540,25528,25535
201908152355,25535,25537,25521,25525
201908152356,25522,25528,25512,25520
201908152357,25517,25525,25506,25510
201908152358,25509,25511,25500,25506
201908152359,25506,25508,25490,25492
201908160000,25492,25493,25479,25490
201908160001,25490,25493,25477,25477
201908160002,25477,25491,25476,25488
201908160003,25488,25491,25470,25470
201908160004,25470,25470,25455,25468
201908160005,25468,25471,25462,25465
201908160006,25465,25477,25461,25466
201908160007,25466,25466,25452,25455
201908160008,25455,25456,25427,25431
201908160009,25431,25436,25422,25435
201908160010,25434,25434,25418,25427
201908160011,25427,25445,25424,25430
201908160012,25430,25448,25426,25447
201908160013,25447,25448,25441,25445
201908160014,25447,25451,25429,25444
201908160015,25444,25445,25432,25436
201908160016,25436,25454,25436,25444
201908160017,25446,25446,25427,25446
201908160018,25446,25451,25436,25436
201908160019,25436,25448,25435,25435
201908160020,25435,25435,25404,25407
201908160021,25407,25429,25406,25421
201908160022,25421,25433,25411,25429
201908160023,25429,25435,25424,25426
201908160024,25426,25468,25420,25457
201908160025,25457,25472,25449,25467
201908160026,25467,25469,25453,25454
201908160027,25454,25481,25454,25477
201908160028,25477,25495,25477,25485
201908160029,25485,25502,25483,25500
201908160030,25500,25506,25490,25501
201908160031,25501,25506,25491,25495
201908160032,25496,25516,25496,25507
201908160033,25507,25517,25502,25513
201908160034,25513,25517,25500,25500
201908160035,25502,25517,25502,25514
201908160036,25514,25515,25500,25500
201908160037,25500,25512,25500,25507
201908160038,25509,25516,25505,25516
201908160039,25516,25524,25510,25523
201908160040,25523,25524,25514,25522
201908160041,25522,25526,25520,25524
201908160042,25524,25526,25503,25507
201908160043,25507,25510,25499,25510
201908160044,25510,25517,25501,25511
201908160045,25511,25515,25503,25505
201908160046,25505,25521,25505,25515
201908160047,25514,25530,25514,25526
201908160048,25526,25528,25502,25504
201908160049,25504,25506,25490,25494
201908160050,25494,25514,25494,25512
201908160051,25512,25512,25494,25502
201908160052,25502,25508,25494,25497
201908160053,25498,25499,25482,25494
201908160054,25494,25500,25491,25493
201908160055,25493,25515,25484,25513
201908160056,25513,25522,25513,25518
201908160057,25518,25532,25506,25530
201908160058,25529,25539,25523,25533
201908160059,25533,25541,25533,25541
201908160100,25541,25545,25535,25542
201908160101,25542,25549,25531,25534
201908160102,25534,25537,25528,25537
201908160103,25538,25547,25530,25542
201908160104,25542,25567,25540,25562
201908160105,25562,25597,25559,25589
201908160106,25589,25601,25586,25600
201908160107,25600,25601,25589,25596
201908160108,25596,25600,25590,25593
201908160109,25593,25596,25583,25588
201908160110,25588,25590,25576,25587
201908160111,25586,25592,25583,25586
201908160112,25586,25595,25581,25583
201908160113,25582,25586,25575,25580
201908160114,25581,25590,25577,25577
201908160115,25578,25595,25577,25595
201908160116,25595,25595,25575,25577
201908160117,25577,25580,25569,25579
201908160118,25579,25588,25579,25585
201908160119,25585,25596,25583,25589
201908160120,25588,25593,25580,25584
201908160121,25585,25597,25583,25586
201908160122,25586,25596,25575,25581
201908160123,25580,25584,25563,25569
201908160124,25569,25569,25555,25559
201908160125,25560,25568,25557,25563
201908160126,25563,25563,25552,25558
201908160127,25558,25569,25558,25567
201908160128,25567,25569,25556,25557
201908160129,25557,25558,25540,25541
201908160130,25541,25557,25541,25549
201908160131,25549,25553,25543,25549
201908160132,25549,25563,25549,25563
201908160133,25563,25565,25559,25563
201908160134,25563,25571,25554,25563
201908160135,25563,25579,25563,25573
201908160136,25573,25583,25567,25567
201908160137,25566,25569,25550,25552
201908160138,25552,25552,25541,25550
201908160139,25549,25552,25541,25548
201908160140,25548,25548,25536,25545
201908160141,25545,25547,25534,25534
201908160142,25534,25547,25531,25546
201908160143,25546,25550,25540,25549
201908160144,25549,25551,25536,25544
201908160145,25544,25545,25533,25542
201908160146,25542,25545,25532,25532
201908160147,25533,25543,25530,25538
201908160148,25540,25542,25530,25534
201908160149,25534,25539,25520,25529
201908160150,25528,25538,25528,25537
201908160151,25537,25545,25534,25535
201908160152,25535,25535,25515,25519
201908160153,25519,25529,25514,25517
201908160154,25517,25524,25513,25523
201908160155,25522,25531,25513,25529
201908160156,25529,25540,25529,25535
201908160157,25536,25548,25535,25539
201908160158,25539,25544,25528,25532
201908160159,25532,25537,25532,25534
201908160200,25532,25546,25527,25545
201908160201,25545,25561,25543,25556
201908160202,25556,25559,25544,25554
201908160203,25554,25554,25537,25543
201908160204,25544,25554,25539,25548
201908160205,25548,25550,25538,25540
201908160206,25541,25549,25540,25541
201908160207,25541,25555,25541,25555
201908160208,25555,25558,25547,25555
201908160209,25554,25569,25554,25555
201908160210,25555,25556,25542,25543
201908160211,25543,25547,25541,25541
201908160212,25540,25556,25538,25556
201908160213,25556,25556,25535,25535
201908160214,25535,25537,25527,25530
201908160215,25530,25550,25529,25547
201908160216,25547,25559,25547,25555
201908160217,25555,25555,25543,25553
201908160218,25552,25567,25552,25558
201908160219,25558,25568,25558,25568
201908160220,25567,25576,25566,25570
201908160221,25569,25573,25566,25573
201908160222,25573,25573,25549,25554
201908160223,25554,25558,25545,25553
201908160224,25553,25556,25546,25550
201908160225,25550,25550,25536,25543
201908160226,25543,25543,25525,25527
201908160227,25528,25528,25522,25523
201908160228,25523,25523,25506,25509
201908160229,25509,25518,25507,25514
201908160230,25514,25524,25507,25523
201908160231,25523,25524,25517,25519
201908160232,25519,25526,25515,25517
201908160233,25518,25526,25512,25526
201908160234,25526,25530,25523,25527
201908160235,25527,25527,25509,25509
201908160236,25509,25514,25475,25484
201908160237,25484,25490,25478,25484
201908160238,25484,25492,25480,25491
201908160239,25491,25491,25473,25483
201908160240,25482,25490,25471,25472
201908160241,25472,25474,25452,25462
201908160242,25462,25468,25452,25452
201908160243,25452,25456,25435,25448
201908160244,25448,25450,25439,25445
201908160245,25446,25446,25423,25429
201908160246,25429,25439,25418,25436
201908160247,25436,25438,25426,25426
201908160248,25426,25426,25403,25403
201908160249,25403,25409,25388,25408
201908160250,25408,25415,25383,25387
201908160251,25386,25394,25382,25393
201908160252,25393,25393,25370,25373
201908160253,25370,25378,25328,25328
201908160254,25328,25361,25328,25359
201908160255,25359,25363,25337,25352
201908160256,25352,25374,25352,25370
201908160257,25370,25370,25345,25349
201908160258,25349,25352,25338,25350
201908160259,25350,25358,25339,25352
201908160300,25353,25353,25328,25348
201908160301,25348,25371,25345,25371
201908160302,25371,25383,25358,25380
201908160303,25376,25379,25359,25366
201908160304,25366,25366,25335,25346
201908160305,25346,25376,25333,25374
201908160306,25373,25381,25368,25374
201908160307,25374,25383,25368,25380
201908160308,25380,25398,25380,25393
201908160309,25392,25395,25379,25386
201908160310,25386,25456,25386,25452
201908160311,25448,25451,25432,25433
201908160312,25431,25454,25428,25437
201908160313,25436,25448,25430,25440
201908160314,25440,25459,25435,25444
201908160315,25442,25461,25436,25441
201908160316,25441,25446,25432,25442
201908160317,25442,25466,25439,25448
201908160318,25446,25452,25435,25438
201908160319,25438,25446,25431,25437
201908160320,25437,25461,25434,25460
201908160321,25460,25483,25459,25475
201908160322,25475,25499,25475,25493
201908160323,25493,25493,25482,25484
201908160324,25485,25504,25482,25482
201908160325,25482,25502,25479,25499
201908160326,25496,25507,25496,25501
201908160327,25501,25503,25494,25494
201908160328,25494,25505,25487,25500
201908160329,25500,25503,25489,25496
201908160330,25495,25500,25453,25469
201908160331,25469,25493,25468,25480
201908160332,25480,25494,25480,25489
201908160333,25492,25493,25473,25474
201908160334,25475,25495,25475,25492
201908160335,25493,25497,25480,25480
201908160336,25480,25486,25468,25481
201908160337,25481,25492,25466,25470
201908160338,25470,25479,25459,25460
201908160339,25460,25485,25459,25477
201908160340,25477,25496,25477,25496
201908160341,25495,25496,25477,25492
201908160342,25493,25497,25481,25482
201908160343,25482,25503,25476,25503
201908160344,25503,25504,25482,25496
201908160345,25496,25501,25487,25500
201908160346,25500,25526,25498,25521
201908160347,25522,25522,25507,25512
201908160348,25512,25525,25512,25521
201908160349,25521,25533,25509,25514
201908160350,25514,25520,25481,25498
201908160351,25497,25515,25497,25512
201908160352,25511,25513,25470,25498
201908160353,25500,25516,25486,25514
201908160354,25515,25525,25508,25520
201908160355,25520,25526,25504,25513
201908160356,25513,25513,25500,25511
201908160357,25512,25525,25510,25519
201908160358,25519,25523,25509,25511
201908160359,25511,25530,25511,25515
201908160400,25514,25565,25514,25559
201908160401,25559,25563,25542,25544
201908160402,25544,25552,25544,25548
201908160403,25548,25586,25547,25583
201908160404,25583,25585,25571,25582
201908160405,25582,25597,25582,25589
201908160406,25588,25597,25573,25573
201908160407,25573,25581,25570,25573
201908160408,25573,25589,25572,25588
201908160409,25588,25590,25571,25584
201908160410,25584,25595,25580,25587
201908160411,25586,25586,25565,25574
201908160412,25574,25581,25568,25573
201908160413,25573,25578,25563,25574
201908160414,25574,25583,25570,25579
201908160415,25578,25579,25564,25568
201908160416,25568,25571,25553,25557
201908160417,25557,25570,25553,25554
201908160418,25554,25563,25548,25556
201908160419,25556,25562,25554,25562
201908160420,25560,25576,25553,25553
201908160421,25554,25565,25554,25562
201908160422,25561,25561,25543,25543
201908160423,25543,25549,25540,25544
201908160424,25542,25551,25539,25541
201908160425,25541,25553,25541,25549
201908160426,25549,25554,25544,25554
201908160427,25554,25556,25532,25535
201908160428,25535,25543,25528,25534
201908160429,25535,25538,25525,25532
201908160430,25532,25547,25520,25547
201908160431,25547,25552,25534,25552
201908160432,25552,25562,25543,25554
201908160433,25554,25558,25540,25550
201908160434,25550,25559,25538,25553
201908160435,25553,25561,25545,25549
201908160436,25549,25552,25540,25545
201908160437,25546,25564,25546,25561
201908160438,25561,25562,25543,25553
201908160439,25553,25560,25545,25559
201908160440,25559,25574,25556,25569
201908160441,25569,25569,25547,25547
201908160442,25548,25564,25544,25564
201908160443,25564,25579,25561,25575
201908160444,25575,25594,25575,25584
201908160445,25584,25594,25574,25590
201908160446,25590,25597,25584,25595
201908160447,25594,25614,25594,25611
201908160448,25612,25617,25599,25603
201908160449,25603,25614,25598,25605
201908160450,25605,25620,25597,25613
201908160451,25612,25612,25595,25596
201908160452,25596,25614,25596,25606
201908160453,25607,25629,25607,25621
201908160454,25621,25622,25610,25621
201908160455,25621,25622,25595,25605
201908160456,25607,25607,25584,25593
201908160457,25593,25597,25581,25592
201908160458,25593,25593,25578,25583
201908160459,25583,25583,25557,25570
201908160500,25569,25587,25563,25586
201908160501,25586,25591,25583,25583
201908160502,25584,25589,25576,25582
201908160503,25582,25593,25580,25588
201908160504,25588,25591,25578,25581
201908160505,25581,25591,25581,25583
201908160506,25583,25583,25576,25577
201908160507,25577,25581,25575,25575
201908160508,25575,25577,25570,25570
201908160509,25570,25577,25570,25571
201908160510,25571,25573,25562,25563
201908160511,25564,25568,25564,25568
201908160512,25567,25570,25563,25566
201908160513,25566,25567,25563,25567
201908160514,25567,25581,25563,25573
