日時,始値(BID),高値(BID),安値(BID),終値(BID)
201908190700,25914,25990,25914,25990
201908190701,25990,26034,25986,26022
201908190702,26022,26045,26005,26025
201908190703,26025,26053,26025,26035
201908190704,26031,26035,26025,26028
201908190705,26028,26029,26020,26029
201908190706,26029,26029,26014,26014
201908190707,26015,26017,26010,26017
201908190708,26017,26018,26012,26018
201908190709,26018,26025,26017,26021
201908190710,26021,26031,26018,26026
201908190711,26026,26026,26015,26024
201908190712,26024,26031,26024,26026
201908190713,26026,26026,26020,26020
201908190714,26019,26020,26017,26017
201908190715,26017,26032,26015,26025
201908190716,26025,26025,26014,26015
201908190717,26015,26017,26013,26016
201908190718,26016,26017,26014,26015
201908190719,26015,26020,26014,26019
201908190720,26019,26021,26015,26020
201908190721,26020,26021,26016,26017
201908190722,26017,26018,26016,26017
201908190723,26017,26024,26017,26023
201908190724,26023,26025,26021,26025
201908190725,26025,26025,26023,26024
201908190726,26024,26033,26022,26033
201908190727,26033,26038,26031,26038
201908190728,26038,26040,26035,26039
201908190729,26039,26039,26032,26034
201908190730,26034,26034,26029,26030
201908190731,26030,26032,26029,26030
201908190732,26030,26041,26030,26041
201908190733,26041,26051,26039,26046
201908190734,26046,26048,26040,26041
201908190735,26042,26042,26039,26041
201908190736,26041,26041,26034,26039
201908190737,26039,26045,26039,26044
201908190738,26044,26046,26042,26042
201908190739,26042,26043,26036,26036
201908190740,26037,26038,26034,26036
201908190741,26036,26037,26034,26034
201908190742,26034,26037,26034,26037
201908190743,26037,26038,26035,26035
201908190744,26035,26039,26035,26039
201908190745,26039,26040,26038,26038
201908190746,26038,26040,26038,26038
201908190747,26038,26038,26037,26038
201908190748,26038,26040,26037,26039
201908190749,26039,26042,26039,26042
201908190750,26042,26042,26038,26040
201908190751,26039,26039,26038,26038
201908190752,26038,26040,26038,26039
201908190753,26039,26039,26036,26036
201908190754,26036,26038,26035,26038
201908190755,26038,26038,26037,26038
201908190756,26039,26039,26037,26037
201908190757,26037,26038,26036,26036
201908190758,26036,26036,26034,26036
201908190759,26035,26036,26035,26036
201908190800,26035,26035,26025,26027
201908190801,26027,26033,26027,26032
201908190802,26032,26035,26032,26032
201908190803,26033,26034,26026,26029
201908190804,26028,26031,26028,26031
201908190805,26032,26033,26031,26032
201908190806,26032,26035,26032,26034
201908190807,26034,26034,26032,26033
201908190808,26033,26034,26033,26033
201908190809,26033,26042,26033,26035
201908190810,26035,26038,26033,26038
201908190811,26038,26040,26031,26032
201908190812,26032,26036,26032,26036
201908190813,26036,26036,26032,26032
201908190814,26032,26035,26031,26032
201908190815,26031,26032,26030,26030
201908190816,26030,26032,26022,26023
201908190817,26023,26024,26022,26023
201908190818,26023,26026,26023,26025
201908190819,26025,26028,26025,26025
201908190820,26026,26029,26022,26029
201908190821,26029,26029,26024,26027
201908190822,26027,26027,26025,26025
201908190823,26028,26031,26027,26028
201908190824,26027,26027,26024,26025
201908190825,26025,26030,26024,26029
201908190826,26029,26029,26028,26029
201908190827,26029,26029,26028,26028
201908190828,26028,26030,26028,26029
201908190829,26030,26032,26029,26032
201908190830,26032,26039,26018,26036
201908190831,26036,26036,26029,26032
201908190832,26032,26035,26030,26032
201908190833,26032,26032,26028,26028
201908190834,26028,26029,26023,26024
201908190835,26024,26027,26024,26026
201908190836,26026,26028,26023,26027
201908190837,26027,26027,26023,26025
201908190838,26025,26026,26024,26025
201908190839,26025,26025,26022,26023
201908190840,26023,26026,26023,26026
201908190841,26025,26026,26024,26025
201908190842,26025,26032,26025,26032
201908190843,26032,26036,26032,26032
201908190844,26032,26032,26028,26032
201908190845,26032,26032,26026,26030
201908190846,26030,26030,26023,26024
201908190847,26024,26026,26023,26025
201908190848,26025,26026,26025,26025
201908190849,26025,26030,26024,26029
201908190850,26029,26033,26025,26031
201908190851,26031,26038,26031,26037
201908190852,26037,26044,26037,26043
201908190853,26043,26046,26041,26045
201908190854,26045,26045,26041,26043
201908190855,26043,26058,26040,26053
201908190856,26053,26057,26051,26052
201908190857,26052,26054,26049,26052
201908190858,26052,26054,26051,26053
201908190859,26053,26053,26048,26048
201908190900,26048,26048,26030,26041
201908190901,26041,26044,26033,26037
201908190902,26037,26050,26037,26048
201908190903,26048,26056,26047,26053
201908190904,26053,26056,26051,26052
201908190905,26052,26053,26049,26050
201908190906,26050,26054,26035,26040
201908190907,26040,26040,26036,26037
201908190908,26037,26038,26031,26034
201908190909,26034,26035,26031,26034
201908190910,26034,26035,26032,26032
201908190911,26033,26037,26030,26036
201908190912,26036,26038,26033,26033
201908190913,26033,26033,26028,26031
201908190914,26031,26032,26029,26029
201908190915,26030,26031,26025,26026
201908190916,26026,26027,26020,26021
201908190917,26021,26022,26015,26016
201908190918,26016,26020,26014,26016
201908190919,26016,26021,26014,26021
201908190920,26020,26022,26016,26016
201908190921,26016,26020,26014,26018
201908190922,26018,26020,26015,26017
201908190923,26018,26020,26016,26018
201908190924,26017,26017,26007,26012
201908190925,26012,26015,26009,26010
201908190926,26010,26011,26005,26006
201908190927,26006,26011,26006,26009
201908190928,26009,26013,26009,26012
201908190929,26012,26014,26011,26012
201908190930,26012,26027,26011,26027
201908190931,26027,26032,26025,26030
201908190932,26031,26033,26025,26025
201908190933,26025,26026,26022,26022
201908190934,26023,26025,26022,26024
201908190935,26023,26023,26016,26018
201908190936,26018,26020,26017,26017
201908190937,26017,26020,26016,26016
201908190938,26016,26018,26015,26018
201908190939,26018,26021,26016,26020
201908190940,26020,26021,26016,26017
201908190941,26017,26025,26017,26025
201908190942,26025,26027,26019,26019
201908190943,26019,26022,26017,26021
201908190944,26021,26024,26020,26024
201908190945,26024,26025,26022,26023
201908190946,26023,26023,26017,26020
201908190947,26020,26020,26017,26019
201908190948,26019,26019,26016,26016
201908190949,26016,26016,26010,26010
201908190950,26010,26010,26001,26001
201908190951,26003,26012,26002,26012
201908190952,26012,26012,26010,26011
201908190953,26011,26020,26011,26020
201908190954,26020,26020,26017,26018
201908190955,26018,26019,26015,26017
201908190956,26017,26022,26017,26021
201908190957,26021,26021,26016,26018
201908190958,26018,26021,26017,26021
201908190959,26021,26022,26020,26020
201908191000,26021,26029,26020,26029
201908191001,26029,26030,26029,26030
201908191002,26030,26035,26030,26034
201908191003,26034,26035,26030,26032
201908191004,26032,26033,26029,26029
201908191005,26029,26032,26027,26031
201908191006,26031,26032,26029,26032
201908191007,26032,26032,26028,26028
201908191008,26028,26028,26024,26026
201908191009,26025,26027,26021,26022
201908191010,26022,26024,26022,26024
201908191011,26025,26025,26022,26023
201908191012,26024,26025,26023,26024
201908191013,26024,26027,26024,26027
201908191014,26027,26034,26027,26034
201908191015,26034,26042,26032,26039
201908191016,26039,26042,26037,26038
201908191017,26038,26041,26037,26037
201908191018,26037,26042,26037,26037
201908191019,26038,26040,26037,26037
201908191020,26037,26038,26035,26037
201908191021,26036,26039,26036,26036
201908191022,26036,26039,26035,26035
201908191023,26036,26036,26033,26033
201908191024,26033,26036,26033,26034
201908191025,26035,26035,26029,26031
201908191026,26031,26036,26031,26034
201908191027,26035,26045,26033,26044
201908191028,26044,26044,26041,26043
201908191029,26043,26043,26040,26040
201908191030,26040,26046,26040,26045
201908191031,26044,26045,26041,26045
201908191032,26045,26050,26043,26046
201908191033,26046,26047,26043,26043
201908191034,26043,26047,26043,26045
201908191035,26045,26047,26041,26041
201908191036,26041,26044,26040,26042
201908191037,26042,26049,26041,26046
201908191038,26046,26046,26042,26043
201908191039,26043,26052,26042,26050
201908191040,26050,26050,26048,26050
201908191041,26050,26050,26047,26048
201908191042,26048,26049,26043,26043
201908191043,26043,26043,26032,26032
201908191044,26033,26036,26032,26035
201908191045,26035,26036,26029,26030
201908191046,26030,26031,26028,26029
201908191047,26030,26030,26023,26025
201908191048,26025,26027,26023,26027
201908191049,26027,26027,26022,26022
201908191050,26022,26029,26022,26028
201908191051,26028,26032,26028,26029
201908191052,26029,26034,26029,26031
201908191053,26032,26034,26031,26033
201908191054,26033,26033,26030,26031
201908191055,26031,26033,26030,26033
201908191056,26033,26036,26033,26035
201908191057,26035,26035,26033,26033
201908191058,26032,26035,26031,26032
201908191059,26031,26034,26029,26030
201908191100,26030,26035,26030,26034
201908191101,26034,26035,26032,26033
201908191102,26033,26033,26022,26022
201908191103,26022,26025,26021,26023
201908191104,26023,26028,26022,26024
201908191105,26025,26027,26023,26025
201908191106,26025,26025,26022,26022
201908191107,26022,26025,26021,26021
201908191108,26022,26025,26022,26024
201908191109,26024,26026,26023,26026
201908191110,26025,26026,26025,26025
201908191111,26025,26029,26025,26027
201908191112,26027,26030,26027,26028
201908191113,26028,26032,26028,26032
201908191114,26032,26036,26032,26034
201908191115,26034,26036,26034,26034
201908191116,26035,26036,26032,26036
201908191117,26036,26036,26032,26033
201908191118,26032,26034,26032,26032
201908191119,26034,26035,26031,26031
201908191120,26031,26031,26029,26029
201908191121,26029,26029,26026,26027
201908191122,26026,26029,26026,26027
201908191123,26027,26027,26022,26023
201908191124,26023,26025,26020,26022
201908191125,26022,26026,26022,26026
201908191126,26026,26028,26022,26022
201908191127,26022,26022,26020,26022
201908191128,26022,26026,26021,26021
201908191129,26020,26023,26020,26023
201908191130,26023,26024,26021,26021
201908191131,26021,26024,26021,26021
201908191132,26021,26028,26021,26028
201908191133,26028,26029,26027,26029
201908191134,26030,26030,26029,26030
201908191135,26030,26030,26027,26028
201908191136,26028,26029,26028,26028
201908191137,26027,26031,26027,26031
201908191138,26031,26037,26031,26037
201908191139,26037,26041,26036,26041
201908191140,26040,26045,26040,26045
201908191141,26045,26048,26043,26048
201908191142,26048,26049,26047,26049
201908191143,26049,26050,26048,26048
201908191144,26048,26050,26048,26049
201908191145,26049,26055,26049,26054
201908191146,26054,26057,26054,26055
201908191147,26055,26057,26055,26056
201908191148,26056,26056,26053,26053
201908191149,26053,26054,26052,26053
201908191150,26054,26054,26051,26052
201908191151,26052,26053,26051,26051
201908191152,26051,26051,26050,26050
201908191153,26050,26050,26049,26049
201908191154,26049,26051,26049,26049
201908191155,26049,26049,26046,26046
201908191156,26046,26047,26046,26046
201908191157,26046,26047,26045,26046
201908191158,26045,26048,26045,26047
201908191159,26047,26050,26047,26049
201908191200,26049,26051,26049,26049
201908191201,26049,26051,26048,26048
201908191202,26048,26048,26047,26047
201908191203,26047,26047,26046,26047
201908191204,26047,26047,26041,26042
201908191205,26041,26043,26040,26041
201908191206,26041,26046,26041,26046
201908191207,26046,26047,26045,26045
201908191208,26045,26045,26040,26043
201908191209,26043,26044,26043,26043
201908191210,26042,26043,26040,26040
201908191211,26040,26042,26039,26042
201908191212,26042,26042,26040,26040
201908191213,26040,26042,26040,26041
201908191214,26042,26044,26041,26042
201908191215,26042,26042,26038,26038
201908191216,26038,26038,26036,26037
201908191217,26037,26039,26035,26037
201908191218,26038,26039,26037,26037
201908191219,26037,26038,26036,26037
201908191220,26038,26040,26037,26037
201908191221,26037,26037,26037,26037
201908191222,26038,26039,26036,26038
201908191223,26038,26042,26038,26041
201908191224,26041,26041,26040,26040
201908191225,26040,26041,26039,26039
201908191226,26039,26041,26039,26040
201908191227,26040,26040,26039,26039
201908191228,26039,26041,26038,26040
201908191229,26040,26045,26040,26042
201908191230,26042,26046,26041,26041
201908191231,26040,26042,26040,26042
201908191232,26041,26041,26040,26040
201908191233,26040,26041,26039,26040
201908191234,26040,26040,26037,26037
201908191235,26037,26040,26036,26040
201908191236,26040,26042,26039,26042
201908191237,26042,26042,26040,26040
201908191238,26040,26041,26040,26040
201908191239,26040,26042,26040,26042
201908191240,26042,26042,26041,26041
201908191241,26041,26041,26040,26040
201908191242,26040,26043,26037,26037
201908191243,26037,26041,26037,26040
201908191244,26040,26040,26039,26040
201908191245,26040,26040,26039,26040
201908191246,26040,26040,26038,26039
201908191247,26039,26041,26038,26041
201908191248,26041,26041,26038,26039
201908191249,26039,26040,26038,26038
201908191250,26039,26040,26038,26038
201908191251,26038,26039,26034,26034
201908191252,26034,26036,26034,26035
201908191253,26035,26036,26034,26036
201908191254,26036,26036,26035,26036
201908191255,26036,26038,26035,26038
201908191256,26038,26039,26038,26039
201908191257,26039,26042,26039,26040
201908191258,26040,26040,26038,26039
201908191259,26039,26039,26039,26039
201908191300,26039,26040,26039,26040
201908191301,26040,26040,26036,26036
201908191302,26036,26036,26035,26036
201908191303,26036,26036,26035,26036
201908191304,26036,26036,26035,26035
201908191305,26035,26035,26033,26034
201908191306,26034,26036,26034,26035
201908191307,26035,26037,26035,26035
201908191308,26035,26036,26035,26036
201908191309,26037,26039,26037,26037
201908191310,26037,26038,26037,26038
201908191311,26038,26038,26035,26036
201908191312,26036,26038,26033,26034
201908191313,26034,26035,26033,26033
201908191314,26034,26034,26033,26033
201908191315,26033,26034,26033,26033
201908191316,26033,26033,26031,26032
201908191317,26032,26032,26030,26031
201908191318,26031,26032,26031,26032
201908191319,26032,26032,26032,26032
201908191320,26032,26032,26032,26032
201908191321,26032,26033,26032,26033
201908191322,26034,26036,26034,26035
201908191323,26035,26037,26035,26036
201908191324,26036,26038,26036,26038
201908191325,26037,26038,26037,26037
201908191326,26038,26039,26038,26039
201908191327,26039,26039,26038,26038
201908191328,26038,26041,26038,26040
201908191329,26040,26040,26038,26040
201908191330,26040,26041,26038,26038
201908191331,26038,26039,26037,26037
201908191332,26037,26039,26037,26037
201908191333,26037,26037,26035,26036
201908191334,26037,26038,26036,26036
201908191335,26036,26037,26036,26037
201908191336,26037,26039,26036,26036
201908191337,26036,26038,26036,26036
201908191338,26036,26037,26035,26036
201908191339,26036,26037,26036,26037
201908191340,26037,26037,26036,26036
201908191341,26036,26037,26036,26037
201908191342,26036,26037,26036,26037
201908191343,26037,26037,26037,26037
201908191344,26037,26037,26034,26034
201908191345,26034,26034,26033,26033
201908191346,26033,26035,26033,26033
201908191347,26033,26033,26032,26032
201908191348,26032,26033,26032,26032
201908191349,26033,26034,26033,26033
201908191350,26033,26034,26033,26033
201908191351,26033,26034,26033,26034
201908191352,26034,26036,26034,26036
201908191353,26036,26040,26036,26040
201908191354,26039,26042,26039,26042
201908191355,26042,26043,26041,26041
201908191356,26041,26041,26040,26040
201908191357,26040,26041,26040,26040
201908191358,26040,26040,26040,26040
201908191359,26040,26041,26040,26041
201908191400,26041,26047,26041,26047
201908191401,26047,26047,26044,26045
201908191402,26045,26047,26044,26044
201908191403,26044,26046,26044,26045
201908191404,26045,26045,26044,26044
201908191405,26044,26045,26041,26041
201908191406,26042,26043,26040,26041
201908191407,26040,26041,26040,26041
201908191408,26040,26040,26040,26040
201908191409,26040,26042,26040,26041
201908191410,26041,26041,26040,26040
201908191411,26041,26042,26040,26040
201908191412,26040,26043,26040,26042
201908191413,26042,26044,26042,26043
201908191414,26043,26045,26043,26044
201908191415,26044,26046,26044,26045
201908191416,26046,26046,26045,26045
201908191417,26046,26046,26045,26046
201908191418,26046,26055,26046,26052
201908191419,26052,26054,26052,26053
201908191420,26052,26053,26051,26051
201908191421,26051,26052,26051,26051
201908191422,26051,26053,26051,26051
201908191423,26051,26055,26051,26054
201908191424,26054,26055,26050,26055
201908191425,26055,26055,26050,26050
201908191426,26050,26051,26048,26049
201908191427,26049,26056,26048,26053
201908191428,26053,26058,26050,26056
201908191429,26056,26064,26056,26061
201908191430,26061,26061,26057,26061
201908191431,26061,26062,26060,26062
201908191432,26062,26062,26056,26058
201908191433,26058,26059,26057,26058
201908191434,26058,26060,26058,26058
201908191435,26058,26058,26057,26057
201908191436,26057,26058,26055,26055
201908191437,26055,26055,26055,26055
201908191438,26055,26055,26055,26055
201908191439,26055,26058,26053,26058
201908191440,26058,26058,26054,26055
201908191441,26055,26056,26054,26056
201908191442,26055,26056,26054,26055
201908191443,26055,26057,26055,26055
201908191444,26055,26056,26055,26056
201908191445,26056,26057,26055,26056
201908191446,26056,26058,26056,26057
201908191447,26057,26060,26057,26060
201908191448,26060,26065,26060,26063
201908191449,26063,26067,26063,26064
201908191450,26063,26069,26063,26069
201908191451,26069,26070,26067,26067
201908191452,26067,26071,26064,26069
201908191453,26068,26068,26064,26065
201908191454,26065,26069,26065,26068
201908191455,26068,26069,26067,26067
201908191456,26067,26068,26065,26066
201908191457,26066,26066,26062,26063
201908191458,26063,26065,26062,26065
201908191459,26065,26065,26060,26061
201908191500,26061,26062,26059,26060
201908191501,26059,26064,26059,26062
201908191502,26062,26065,26058,26064
201908191503,26063,26064,26059,26059
201908191504,26059,26063,26059,26062
201908191505,26062,26070,26061,26070
201908191506,26070,26076,26070,26071
201908191507,26071,26075,26070,26075
201908191508,26075,26076,26072,26074
201908191509,26074,26075,26073,26073
201908191510,26073,26074,26071,26073
201908191511,26074,26076,26070,26073
201908191512,26073,26081,26072,26080
201908191513,26080,26080,26076,26079
201908191514,26079,26080,26079,26080
201908191515,26080,26082,26079,26081
201908191516,26081,26088,26081,26088
201908191517,26088,26095,26087,26090
201908191518,26089,26094,26086,26094
201908191519,26093,26093,26089,26089
201908191520,26089,26091,26081,26086
201908191521,26086,26088,26084,26088
201908191522,26088,26090,26084,26089
201908191523,26089,26092,26085,26086
201908191524,26086,26090,26085,26088
201908191525,26088,26088,26086,26088
201908191526,26088,26090,26088,26088
201908191527,26088,26091,26087,26091
201908191528,26091,26096,26089,26096
201908191529,26096,26100,26094,26096
201908191530,26096,26104,26096,26103
201908191531,26104,26110,26103,26109
201908191532,26109,26110,26107,26107
201908191533,26107,26108,26105,26105
201908191534,26106,26118,26105,26114
201908191535,26114,26117,26113,26114
201908191536,26114,26123,26114,26123
201908191537,26122,26122,26115,26116
201908191538,26116,26117,26110,26111
201908191539,26111,26113,26111,26112
201908191540,26112,26117,26112,26117
201908191541,26117,26119,26116,26118
201908191542,26118,26121,26118,26121
201908191543,26121,26122,26119,26120
201908191544,26120,26120,26115,26116
201908191545,26116,26119,26115,26119
201908191546,26119,26121,26118,26121
201908191547,26121,26121,26118,26120
201908191548,26120,26121,26118,26118
201908191549,26118,26121,26118,26121
201908191550,26120,26127,26120,26127
201908191551,26127,26131,26126,26128
201908191552,26128,26128,26124,26124
201908191553,26124,26128,26124,26125
201908191554,26126,26133,26126,26132
201908191555,26132,26134,26124,26130
201908191556,26130,26131,26127,26129
201908191557,26129,26135,26129,26134
201908191558,26135,26136,26132,26134
201908191559,26134,26142,26132,26141
201908191600,26140,26145,26125,26144
201908191601,26146,26153,26144,26148
201908191602,26149,26153,26144,26153
201908191603,26153,26157,26143,26143
201908191604,26143,26143,26135,26138
201908191605,26138,26144,26136,26141
201908191606,26142,26144,26139,26142
201908191607,26142,26145,26136,26140
201908191608,26140,26143,26136,26136
201908191609,26136,26142,26135,26137
201908191610,26138,26143,26135,26137
201908191611,26137,26146,26136,26143
201908191612,26143,26145,26139,26144
201908191613,26143,26146,26142,26145
201908191614,26145,26160,26144,26160
201908191615,26160,26167,26156,26157
201908191616,26156,26157,26145,26145
201908191617,26145,26151,26144,26148
201908191618,26147,26149,26145,26145
201908191619,26145,26145,26139,26139
201908191620,26139,26141,26127,26127
201908191621,26127,26138,26127,26134
201908191622,26134,26136,26132,26133
201908191623,26133,26135,26132,26133
201908191624,26133,26133,26126,26130
201908191625,26130,26131,26127,26128
201908191626,26129,26129,26121,26121
201908191627,26122,26126,26119,26122
201908191628,26123,26124,26120,26123
201908191629,26123,26127,26123,26127
201908191630,26126,26126,26121,26126
201908191631,26126,26131,26117,26122
201908191632,26122,26126,26121,26122
201908191633,26122,26122,26119,26120
201908191634,26120,26120,26111,26113
201908191635,26113,26120,26112,26112
201908191636,26112,26114,26108,26111
201908191637,26111,26112,26108,26110
201908191638,26110,26114,26110,26114
201908191639,26114,26120,26112,26117
201908191640,26117,26119,26115,26117
201908191641,26117,26119,26111,26113
201908191642,26113,26115,26111,26113
201908191643,26114,26114,26110,26112
201908191644,26112,26118,26111,26117
201908191645,26117,26118,26112,26112
201908191646,26112,26117,26112,26116
201908191647,26116,26123,26113,26123
201908191648,26123,26126,26117,26119
201908191649,26119,26121,26115,26116
201908191650,26116,26117,26111,26116
201908191651,26116,26122,26114,26122
201908191652,26122,26124,26118,26120
201908191653,26120,26120,26115,26118
201908191654,26118,26122,26117,26121
201908191655,26121,26124,26117,26121
201908191656,26121,26121,26117,26118
201908191657,26118,26120,26117,26117
201908191658,26118,26122,26118,26120
201908191659,26121,26121,26120,26120
201908191700,26120,26121,26117,26121
201908191701,26121,26121,26115,26117
201908191702,26116,26120,26111,26119
201908191703,26119,26124,26117,26124
201908191704,26124,26128,26123,26125
201908191705,26124,26134,26123,26131
201908191706,26131,26131,26128,26130
201908191707,26130,26131,26126,26127
201908191708,26126,26127,26121,26126
201908191709,26126,26127,26120,26120
201908191710,26120,26129,26120,26129
201908191711,26129,26129,26121,26126
201908191712,26126,26136,26125,26134
201908191713,26135,26135,26130,26132
201908191714,26132,26133,26123,26126
201908191715,26127,26133,26127,26131
201908191716,26131,26132,26122,26124
201908191717,26124,26133,26124,26133
201908191718,26131,26132,26125,26126
201908191719,26126,26127,26121,26123
201908191720,26123,26130,26123,26127
201908191721,26127,26127,26124,26127
201908191722,26127,26130,26124,26126
201908191723,26126,26128,26120,26121
201908191724,26121,26124,26115,26116
201908191725,26116,26116,26105,26106
201908191726,26106,26108,26103,26106
201908191727,26106,26110,26104,26109
201908191728,26109,26110,26102,26104
201908191729,26104,26104,26091,26098
201908191730,26098,26099,26089,26096
201908191731,26096,26102,26095,26102
201908191732,26102,26105,26100,26102
201908191733,26102,26104,26099,26101
201908191734,26101,26101,26096,26096
201908191735,26096,26098,26094,26096
201908191736,26096,26098,26092,26093
201908191737,26093,26096,26090,26095
201908191738,26095,26097,26092,26094
201908191739,26094,26094,26090,26090
201908191740,26090,26091,26085,26091
201908191741,26091,26095,26089,26095
201908191742,26095,26102,26094,26101
201908191743,26101,26101,26094,26095
201908191744,26095,26095,26087,26090
201908191745,26090,26092,26084,26089
201908191746,26089,26091,26085,26089
201908191747,26090,26093,26087,26091
201908191748,26091,26093,26090,26091
201908191749,26091,26098,26091,26097
201908191750,26097,26099,26096,26098
201908191751,26097,26098,26089,26089
201908191752,26089,26094,26088,26094
201908191753,26094,26094,26089,26090
201908191754,26090,26091,26086,26088
201908191755,26088,26091,26088,26088
201908191756,26088,26093,26088,26090
201908191757,26090,26092,26089,26090
201908191758,26090,26091,26087,26090
201908191759,26090,26092,26089,26090
201908191800,26090,26095,26088,26093
201908191801,26093,26100,26091,26098
201908191802,26097,26099,26096,26099
201908191803,26098,26100,26096,26098
201908191804,26098,26102,26097,26102
201908191805,26102,26102,26095,26098
201908191806,26099,26100,26096,26097
201908191807,26096,26099,26096,26099
201908191808,26099,26099,26092,26094
201908191809,26094,26102,26093,26102
201908191810,26102,26103,26099,26100
201908191811,26100,26100,26094,26097
201908191812,26097,26104,26095,26103
201908191813,26103,26111,26103,26111
201908191814,26110,26116,26110,26115
201908191815,26115,26116,26111,26112
201908191816,26112,26115,26111,26114
201908191817,26115,26118,26114,26118
201908191818,26118,26120,26115,26117
201908191819,26117,26118,26115,26115
201908191820,26115,26121,26115,26117
201908191821,26117,26119,26111,26113
201908191822,26113,26116,26113,26113
201908191823,26113,26114,26109,26109
201908191824,26109,26119,26108,26118
201908191825,26118,26118,26113,26113
201908191826,26113,26121,26113,26120
201908191827,26120,26121,26118,26118
201908191828,26118,26122,26118,26121
201908191829,26121,26121,26119,26121
201908191830,26121,26122,26115,26115
201908191831,26115,26120,26115,26119
201908191832,26119,26119,26113,26113
201908191833,26113,26115,26106,26110
201908191834,26111,26119,26111,26118
201908191835,26118,26123,26118,26123
201908191836,26123,26125,26121,26121
201908191837,26121,26121,26115,26118
201908191838,26118,26120,26116,26118
201908191839,26118,26120,26115,26117
201908191840,26117,26117,26112,26113
201908191841,26113,26115,26110,26112
201908191842,26112,26118,26112,26116
201908191843,26116,26118,26115,26118
201908191844,26118,26118,26114,26115
201908191845,26115,26118,26111,26118
201908191846,26119,26120,26116,26116
201908191847,26116,26121,26116,26121
201908191848,26121,26128,26120,26128
201908191849,26129,26132,26129,26132
201908191850,26132,26133,26130,26131
201908191851,26131,26133,26131,26131
201908191852,26131,26139,26131,26137
201908191853,26136,26136,26131,26134
201908191854,26133,26133,26126,26127
201908191855,26127,26132,26127,26131
201908191856,26131,26135,26130,26135
201908191857,26135,26135,26130,26133
201908191858,26133,26136,26133,26136
201908191859,26135,26138,26131,26137
201908191900,26137,26140,26131,26139
201908191901,26139,26144,26137,26140
201908191902,26140,26144,26140,26141
201908191903,26142,26142,26140,26140
201908191904,26140,26142,26137,26141
201908191905,26141,26142,26140,26141
201908191906,26141,26147,26141,26147
201908191907,26147,26157,26146,26157
201908191908,26157,26163,26155,26156
201908191909,26156,26157,26147,26148
201908191910,26148,26152,26146,26149
201908191911,26149,26153,26148,26152
201908191912,26152,26153,26146,26148
201908191913,26148,26153,26147,26152
201908191914,26152,26153,26150,26153
201908191915,26152,26153,26147,26148
201908191916,26148,26154,26146,26148
201908191917,26148,26148,26138,26138
201908191918,26138,26145,26138,26142
201908191919,26142,26146,26142,26143
201908191920,26143,26145,26143,26144
201908191921,26145,26146,26138,26138
201908191922,26138,26146,26138,26146
201908191923,26146,26149,26145,26145
201908191924,26146,26146,26140,26140
201908191925,26140,26145,26140,26145
201908191926,26145,26146,26141,26142
201908191927,26142,26147,26142,26145
201908191928,26145,26146,26131,26138
201908191929,26138,26139,26132,26132
201908191930,26132,26134,26123,26123
201908191931,26123,26125,26119,26120
201908191932,26120,26121,26113,26120
201908191933,26120,26128,26120,26128
201908191934,26128,26129,26126,26127
201908191935,26128,26138,26128,26137
201908191936,26136,26140,26133,26138
201908191937,26138,26138,26134,26135
201908191938,26135,26137,26135,26136
201908191939,26136,26136,26130,26131
201908191940,26131,26134,26130,26131
201908191941,26132,26135,26132,26134
201908191942,26134,26142,26133,26142
201908191943,26142,26150,26140,26149
201908191944,26150,26153,26149,26151
201908191945,26151,26161,26149,26161
201908191946,26161,26161,26156,26159
201908191947,26158,26160,26157,26159
201908191948,26158,26160,26157,26159
201908191949,26159,26160,26158,26158
201908191950,26158,26160,26158,26160
201908191951,26160,26160,26152,26152
201908191952,26152,26161,26152,26159
201908191953,26159,26160,26158,26160
201908191954,26159,26160,26155,26155
201908191955,26155,26157,26150,26154
201908191956,26154,26193,26149,26186
201908191957,26184,26185,26161,26166
201908191958,26165,26175,26163,26168
201908191959,26168,26174,26157,26159
201908192000,26159,26167,26156,26164
201908192001,26165,26165,26158,26159
201908192002,26160,26163,26159,26162
201908192003,26162,26170,26162,26162
201908192004,26162,26164,26152,26153
201908192005,26153,26157,26152,26152
201908192006,26153,26155,26145,26148
201908192007,26147,26155,26147,26154
201908192008,26154,26155,26151,26154
201908192009,26154,26161,26152,26161
201908192010,26160,26166,26159,26164
201908192011,26164,26164,26160,26164
201908192012,26164,26164,26157,26157
201908192013,26156,26158,26153,26153
201908192014,26153,26157,26151,26151
201908192015,26152,26163,26152,26162
201908192016,26162,26165,26158,26161
201908192017,26161,26167,26160,26163
201908192018,26163,26170,26162,26169
201908192019,26169,26171,26163,26163
201908192020,26163,26173,26163,26169
201908192021,26169,26169,26164,26166
201908192022,26166,26180,26166,26178
201908192023,26179,26185,26179,26182
201908192024,26182,26187,26181,26187
201908192025,26187,26188,26183,26185
201908192026,26185,26197,26185,26195
201908192027,26194,26200,26193,26199
201908192028,26199,26205,26196,26205
201908192029,26205,26205,26197,26197
201908192030,26197,26197,26194,26196
201908192031,26196,26203,26196,26202
201908192032,26202,26203,26191,26192
201908192033,26192,26198,26189,26198
201908192034,26198,26222,26197,26215
201908192035,26215,26223,26206,26206
201908192036,26206,26214,26206,26213
201908192037,26214,26236,26213,26227
201908192038,26227,26228,26206,26206
201908192039,26206,26216,26206,26216
201908192040,26216,26217,26206,26208
201908192041,26208,26213,26206,26213
201908192042,26213,26223,26211,26222
201908192043,26222,26222,26213,26214
201908192044,26214,26214,26203,26205
201908192045,26205,26205,26194,26194
201908192046,26193,26197,26190,26191
201908192047,26191,26193,26189,26190
201908192048,26190,26192,26190,26191
201908192049,26191,26195,26191,26194
201908192050,26194,26196,26190,26192
201908192051,26192,26193,26190,26191
201908192052,26191,26193,26188,26192
201908192053,26192,26194,26189,26191
201908192054,26191,26194,26189,26194
201908192055,26194,26199,26193,26196
201908192056,26196,26199,26194,26198
201908192057,26198,26198,26191,26193
201908192058,26193,26193,26188,26193
201908192059,26193,26194,26183,26187
201908192100,26188,26192,26184,26190
201908192101,26190,26190,26171,26171
201908192102,26171,26174,26170,26173
201908192103,26173,26183,26171,26182
201908192104,26182,26185,26180,26182
201908192105,26182,26183,26178,26178
201908192106,26178,26179,26176,26177
201908192107,26177,26177,26172,26174
201908192108,26174,26174,26172,26174
201908192109,26174,26179,26174,26179
201908192110,26178,26186,26177,26185
201908192111,26185,26187,26170,26177
201908192112,26177,26178,26173,26174
201908192113,26174,26180,26173,26178
201908192114,26179,26180,26174,26176
201908192115,26176,26180,26174,26177
201908192116,26177,26180,26176,26176
201908192117,26176,26176,26168,26168
201908192118,26168,26169,26165,26168
201908192119,26168,26171,26166,26167
201908192120,26167,26168,26164,26167
201908192121,26167,26175,26166,26175
201908192122,26175,26176,26169,26170
201908192123,26170,26172,26167,26167
201908192124,26167,26170,26165,26168
201908192125,26168,26173,26167,26169
201908192126,26172,26172,26159,26159
201908192127,26159,26161,26157,26158
201908192128,26159,26166,26154,26165
201908192129,26165,26167,26162,26167
201908192130,26167,26175,26166,26175
201908192131,26175,26177,26171,26175
201908192132,26175,26177,26169,26171
201908192133,26171,26179,26171,26179
201908192134,26179,26183,26178,26183
201908192135,26183,26183,26178,26183
201908192136,26183,26190,26180,26190
201908192137,26190,26192,26188,26191
201908192138,26190,26191,26184,26189
201908192139,26189,26192,26185,26187
201908192140,26187,26193,26187,26193
201908192141,26193,26193,26189,26191
201908192142,26191,26193,26189,26192
201908192143,26191,26191,26185,26186
201908192144,26186,26189,26185,26187
201908192145,26187,26193,26187,26193
201908192146,26192,26194,26189,26192
201908192147,26192,26201,26192,26197
201908192148,26197,26202,26196,26199
201908192149,26199,26202,26196,26201
201908192150,26201,26207,26201,26201
201908192151,26200,26201,26193,26195
201908192152,26195,26202,26195,26199
201908192153,26199,26202,26198,26199
201908192154,26198,26202,26195,26195
201908192155,26195,26201,26195,26197
201908192156,26196,26200,26195,26198
201908192157,26198,26199,26183,26185
201908192158,26185,26186,26179,26185
201908192159,26184,26193,26184,26193
201908192200,26193,26194,26183,26185
201908192201,26185,26189,26184,26185
201908192202,26185,26186,26182,26185
201908192203,26185,26187,26185,26187
201908192204,26187,26187,26183,26183
201908192205,26183,26188,26183,26184
201908192206,26184,26190,26184,26188
201908192207,26187,26188,26185,26185
201908192208,26185,26187,26183,26183
201908192209,26184,26184,26181,26181
201908192210,26181,26183,26179,26181
201908192211,26181,26187,26180,26181
201908192212,26182,26187,26181,26184
201908192213,26184,26187,26183,26185
201908192214,26185,26187,26182,26186
201908192215,26186,26191,26184,26190
201908192216,26190,26194,26187,26193
201908192217,26193,26196,26193,26196
201908192218,26196,26198,26194,26197
201908192219,26197,26201,26196,26199
201908192220,26199,26205,26197,26205
201908192221,26205,26211,26202,26211
201908192222,26210,26211,26206,26208
201908192223,26208,26214,26206,26212
201908192224,26212,26214,26209,26209
201908192225,26209,26218,26209,26216
201908192226,26216,26216,26211,26213
201908192227,26213,26213,26209,26212
201908192228,26211,26216,26211,26214
201908192229,26214,26218,26199,26199
201908192230,26199,26223,26199,26223
201908192231,26223,26226,26196,26196
201908192232,26196,26206,26178,26178
201908192233,26178,26185,26168,26175
201908192234,26175,26184,26171,26179
201908192235,26179,26199,26178,26194
201908192236,26194,26195,26183,26189
201908192237,26189,26198,26187,26197
201908192238,26197,26201,26189,26193
201908192239,26193,26193,26173,26174
201908192240,26173,26176,26161,26163
201908192241,26163,26174,26154,26154
201908192242,26154,26180,26154,26175
201908192243,26175,26178,26166,26171
201908192244,26171,26173,26161,26163
201908192245,26163,26176,26158,26174
201908192246,26174,26175,26168,26170
201908192247,26170,26174,26157,26157
201908192248,26157,26166,26154,26162
201908192249,26162,26164,26156,26157
201908192250,26158,26158,26140,26143
201908192251,26143,26148,26137,26147
201908192252,26147,26148,26137,26138
201908192253,26138,26145,26134,26135
201908192254,26135,26141,26124,26140
201908192255,26140,26146,26130,26130
201908192256,26131,26141,26130,26141
201908192257,26141,26147,26136,26147
201908192258,26148,26154,26147,26149
201908192259,26149,26153,26144,26148
201908192300,26148,26149,26138,26141
201908192301,26141,26144,26123,26123
201908192302,26123,26124,26114,26120
201908192303,26120,26133,26120,26133
201908192304,26132,26136,26130,26133
201908192305,26133,26142,26129,26140
201908192306,26140,26141,26136,26136
201908192307,26134,26134,26115,26116
201908192308,26116,26120,26112,26120
201908192309,26120,26124,26105,26106
201908192310,26106,26110,26093,26097
201908192311,26097,26097,26090,26094
201908192312,26095,26100,26089,26089
201908192313,26089,26092,26081,26082
201908192314,26082,26093,26080,26093
201908192315,26093,26093,26081,26087
201908192316,26087,26096,26086,26095
201908192317,26095,26105,26095,26104
201908192318,26103,26107,26098,26098
201908192319,26098,26107,26095,26105
201908192320,26105,26105,26096,26098
201908192321,26097,26099,26087,26089
201908192322,26089,26098,26088,26097
201908192323,26097,26097,26088,26095
201908192324,26095,26099,26092,26098
201908192325,26098,26110,26094,26100
201908192326,26100,26107,26098,26107
201908192327,26107,26118,26106,26114
201908192328,26113,26119,26112,26119
201908192329,26119,26121,26107,26107
201908192330,26107,26113,26103,26109
201908192331,26108,26125,26107,26125
201908192332,26121,26123,26110,26120
201908192333,26120,26128,26120,26125
201908192334,26125,26135,26123,26132
201908192335,26133,26135,26122,26132
201908192336,26132,26139,26130,26136
201908192337,26137,26144,26135,26137
201908192338,26136,26141,26135,26138
201908192339,26138,26144,26138,26144
201908192340,26144,26151,26144,26148
201908192341,26148,26148,26139,26143
201908192342,26143,26146,26136,26136
201908192343,26135,26139,26133,26136
201908192344,26136,26137,26127,26127
201908192345,26127,26131,26125,26128
201908192346,26128,26133,26124,26124
201908192347,26122,26122,26113,26122
201908192348,26123,26131,26123,26127
201908192349,26127,26140,26125,26136
201908192350,26135,26136,26125,26125
201908192351,26125,26136,26122,26136
201908192352,26136,26145,26134,26139
201908192353,26139,26145,26133,26145
201908192354,26145,26154,26144,26154
201908192355,26154,26154,26145,26146
201908192356,26145,26145,26139,26140
201908192357,26141,26151,26141,26148
201908192358,26148,26148,26141,26141
201908192359,26142,26145,26130,26132
201908200000,26131,26140,26130,26132
201908200001,26132,26144,26132,26138
201908200002,26138,26148,26135,26146
201908200003,26147,26150,26142,26144
201908200004,26144,26149,26144,26145
201908200005,26145,26150,26143,26147
201908200006,26147,26151,26142,26145
201908200007,26145,26150,26144,26147
201908200008,26147,26148,26137,26138
201908200009,26137,26140,26133,26138
201908200010,26138,26153,26137,26149
201908200011,26149,26149,26145,26147
201908200012,26147,26153,26144,26144
201908200013,26142,26147,26141,26147
201908200014,26147,26151,26146,26149
201908200015,26150,26150,26142,26142
201908200016,26142,26163,26142,26163
201908200017,26163,26175,26163,26169
201908200018,26169,26172,26165,26165
201908200019,26165,26167,26162,26163
201908200020,26163,26165,26157,26163
201908200021,26163,26167,26161,26164
201908200022,26164,26168,26161,26167
201908200023,26167,26168,26162,26163
201908200024,26163,26164,26157,26158
201908200025,26158,26165,26157,26158
201908200026,26158,26160,26153,26157
201908200027,26157,26164,26156,26162
201908200028,26162,26171,26161,26170
201908200029,26170,26171,26162,26165
201908200030,26165,26166,26155,26156
201908200031,26156,26162,26155,26162
201908200032,26162,26184,26162,26181
201908200033,26182,26186,26178,26183
201908200034,26183,26187,26179,26179
201908200035,26179,26182,26177,26179
201908200036,26179,26184,26178,26184
201908200037,26184,26188,26178,26186
201908200038,26186,26186,26182,26182
201908200039,26182,26186,26180,26182
201908200040,26182,26184,26173,26174
201908200041,26174,26175,26172,26174
201908200042,26174,26178,26171,26177
201908200043,26177,26177,26173,26176
201908200044,26176,26180,26176,26179
201908200045,26179,26180,26174,26174
201908200046,26174,26174,26166,26167
201908200047,26167,26169,26163,26163
201908200048,26163,26163,26156,26159
201908200049,26160,26164,26158,26160
201908200050,26160,26166,26160,26163
201908200051,26163,26164,26143,26145
201908200052,26145,26146,26136,26142
201908200053,26142,26147,26139,26143
201908200054,26144,26151,26144,26151
201908200055,26151,26157,26147,26151
201908200056,26151,26157,26150,26150
201908200057,26151,26151,26143,26148
201908200058,26148,26148,26138,26140
201908200059,26141,26145,26139,26141
201908200100,26141,26144,26127,26129
201908200101,26129,26139,26126,26135
201908200102,26135,26139,26129,26134
201908200103,26134,26136,26131,26133
201908200104,26133,26137,26132,26136
201908200105,26135,26137,26130,26135
201908200106,26135,26137,26132,26132
201908200107,26133,26144,26132,26144
201908200108,26144,26146,26141,26143
201908200109,26144,26144,26139,26143
201908200110,26143,26144,26139,26141
201908200111,26141,26145,26137,26145
201908200112,26145,26147,26140,26141
201908200113,26141,26147,26140,26142
201908200114,26142,26146,26141,26145
201908200115,26145,26150,26145,26147
201908200116,26146,26147,26143,26144
201908200117,26145,26147,26142,26144
201908200118,26143,26147,26143,26144
201908200119,26144,26151,26143,26149
201908200120,26149,26154,26147,26149
201908200121,26150,26151,26144,26146
201908200122,26146,26152,26145,26150
201908200123,26150,26153,26149,26151
201908200124,26150,26152,26147,26148
201908200125,26148,26152,26142,26142
201908200126,26143,26143,26134,26134
201908200127,26134,26141,26134,26140
201908200128,26140,26142,26137,26141
201908200129,26142,26145,26141,26143
201908200130,26143,26143,26134,26134
201908200131,26134,26135,26130,26131
201908200132,26131,26133,26131,26131
201908200133,26131,26133,26130,26130
201908200134,26129,26130,26127,26128
201908200135,26128,26130,26127,26128
201908200136,26128,26131,26127,26131
201908200137,26131,26138,26131,26138
201908200138,26138,26141,26135,26141
201908200139,26141,26144,26138,26143
201908200140,26143,26146,26139,26140
201908200141,26139,26143,26139,26140
201908200142,26140,26145,26138,26145
201908200143,26145,26149,26145,26147
201908200144,26147,26151,26145,26151
201908200145,26151,26162,26151,26157
201908200146,26157,26171,26157,26170
201908200147,26170,26181,26168,26180
201908200148,26180,26180,26173,26174
201908200149,26175,26180,26175,26180
201908200150,26179,26183,26176,26181
201908200151,26181,26183,26178,26179
201908200152,26178,26180,26172,26172
201908200153,26172,26176,26171,26176
201908200154,26176,26176,26174,26175
201908200155,26175,26177,26171,26175
201908200156,26175,26180,26175,26178
201908200157,26178,26180,26177,26178
201908200158,26178,26179,26171,26173
201908200159,26173,26177,26173,26175
201908200200,26175,26178,26174,26178
201908200201,26177,26181,26176,26180
201908200202,26180,26181,26175,26177
201908200203,26177,26178,26175,26175
201908200204,26175,26178,26175,26176
201908200205,26176,26178,26167,26167
201908200206,26168,26172,26168,26171
201908200207,26172,26173,26169,26173
201908200208,26173,26173,26170,26172
201908200209,26172,26181,26172,26180
201908200210,26180,26180,26177,26179
201908200211,26179,26180,26177,26180
201908200212,26181,26181,26176,26181
201908200213,26181,26182,26174,26174
201908200214,26174,26177,26174,26176
201908200215,26175,26177,26170,26172
201908200216,26172,26173,26168,26173
201908200217,26173,26173,26167,26171
201908200218,26171,26180,26170,26180
201908200219,26180,26181,26177,26181
201908200220,26181,26197,26181,26192
201908200221,26192,26192,26185,26187
201908200222,26187,26187,26182,26182
201908200223,26182,26182,26179,26181
201908200224,26181,26184,26176,26176
201908200225,26176,26180,26176,26178
201908200226,26177,26178,26173,26174
201908200227,26174,26175,26172,26173
201908200228,26173,26174,26169,26171
201908200229,26171,26177,26171,26174
201908200230,26174,26175,26169,26171
201908200231,26171,26173,26164,26165
201908200232,26165,26168,26163,26165
201908200233,26165,26166,26163,26165
201908200234,26165,26165,26163,26165
201908200235,26165,26169,26164,26166
201908200236,26166,26170,26166,26169
201908200237,26169,26171,26168,26169
201908200238,26169,26170,26169,26170
201908200239,26170,26173,26168,26170
201908200240,26170,26176,26169,26174
201908200241,26174,26176,26173,26173
201908200242,26173,26173,26168,26171
201908200243,26171,26171,26162,26162
201908200244,26162,26165,26156,26160
201908200245,26160,26161,26157,26160
201908200246,26161,26161,26159,26159
201908200247,26159,26159,26155,26155
201908200248,26155,26159,26155,26157
201908200249,26157,26166,26156,26165
201908200250,26165,26168,26161,26165
201908200251,26165,26167,26162,26162
201908200252,26162,26166,26162,26165
201908200253,26165,26166,26163,26166
201908200254,26166,26167,26159,26163
201908200255,26163,26163,26158,26158
201908200256,26158,26162,26157,26160
201908200257,26160,26162,26159,26160
201908200258,26160,26162,26155,26155
201908200259,26155,26161,26155,26160
201908200300,26160,26163,26153,26155
201908200301,26155,26158,26152,26158
201908200302,26158,26158,26150,26151
201908200303,26151,26155,26150,26153
201908200304,26153,26159,26151,26159
201908200305,26159,26160,26157,26160
201908200306,26160,26161,26158,26159
201908200307,26159,26161,26158,26161
201908200308,26161,26161,26155,26156
201908200309,26155,26158,26155,26157
201908200310,26157,26158,26155,26157
201908200311,26157,26160,26154,26154
201908200312,26153,26153,26147,26147
201908200313,26147,26150,26146,26146
201908200314,26146,26151,26144,26144
201908200315,26144,26154,26144,26147
201908200316,26147,26150,26146,26148
201908200317,26148,26150,26145,26146
201908200318,26146,26148,26142,26142
201908200319,26143,26148,26142,26144
201908200320,26144,26149,26141,26147
201908200321,26147,26149,26145,26148
201908200322,26148,26149,26145,26146
201908200323,26146,26149,26146,26148
201908200324,26148,26150,26145,26150
201908200325,26150,26150,26146,26150
201908200326,26150,26151,26146,26147
201908200327,26147,26147,26145,26145
201908200328,26145,26148,26142,26148
201908200329,26148,26163,26148,26161
201908200330,26161,26161,26153,26153
201908200331,26155,26159,26155,26158
201908200332,26159,26159,26148,26149
201908200333,26149,26151,26146,26146
201908200334,26145,26153,26145,26151
201908200335,26152,26155,26149,26154
201908200336,26154,26162,26153,26156
201908200337,26156,26157,26150,26153
201908200338,26153,26155,26152,26153
201908200339,26153,26154,26147,26148
201908200340,26148,26149,26144,26146
201908200341,26146,26156,26146,26156
201908200342,26156,26162,26156,26156
201908200343,26155,26166,26155,26165
201908200344,26165,26168,26162,26168
201908200345,26168,26169,26165,26165
201908200346,26165,26166,26161,26163
201908200347,26163,26166,26162,26166
201908200348,26166,26167,26163,26167
201908200349,26167,26170,26165,26167
201908200350,26167,26172,26167,26171
201908200351,26171,26175,26170,26173
201908200352,26173,26176,26173,26173
201908200353,26173,26186,26173,26185
201908200354,26185,26185,26179,26181
201908200355,26181,26182,26172,26172
201908200356,26172,26172,26167,26167
201908200357,26167,26173,26167,26170
201908200358,26170,26172,26167,26167
201908200359,26167,26168,26159,26161
201908200400,26162,26173,26160,26160
201908200401,26162,26163,26146,26162
201908200402,26162,26163,26158,26160
201908200403,26160,26161,26153,26155
201908200404,26155,26161,26153,26156
201908200405,26157,26157,26150,26154
201908200406,26154,26157,26153,26156
201908200407,26155,26163,26153,26163
201908200408,26163,26163,26158,26159
201908200409,26159,26159,26154,26156
201908200410,26156,26159,26149,26149
201908200411,26149,26150,26146,26149
201908200412,26149,26156,26149,26153
201908200413,26153,26160,26153,26158
201908200414,26158,26164,26157,26160
201908200415,26160,26162,26148,26150
201908200416,26150,26156,26146,26150
201908200417,26151,26158,26150,26150
201908200418,26150,26151,26147,26149
201908200419,26149,26150,26146,26149
201908200420,26149,26149,26144,26144
201908200421,26144,26147,26139,26141
201908200422,26141,26148,26141,26146
201908200423,26146,26154,26145,26154
201908200424,26154,26155,26148,26150
201908200425,26150,26157,26148,26152
201908200426,26152,26153,26147,26151
201908200427,26152,26160,26147,26159
201908200428,26158,26164,26158,26162
201908200429,26162,26163,26160,26162
201908200430,26163,26164,26158,26161
201908200431,26161,26166,26161,26164
201908200432,26164,26168,26162,26167
201908200433,26167,26169,26162,26169
201908200434,26169,26172,26166,26168
201908200435,26169,26172,26167,26171
201908200436,26171,26173,26167,26170
201908200437,26170,26176,26166,26166
201908200438,26166,26179,26166,26168
201908200439,26167,26173,26166,26170
201908200440,26170,26170,26158,26160
201908200441,26160,26161,26153,26159
201908200442,26160,26168,26160,26166
201908200443,26166,26169,26160,26160
201908200444,26161,26163,26160,26161
201908200445,26161,26161,26145,26150
201908200446,26150,26153,26148,26150
201908200447,26150,26152,26149,26150
201908200448,26150,26160,26150,26158
201908200449,26158,26158,26152,26157
201908200450,26158,26163,26157,26157
201908200451,26157,26162,26155,26155
201908200452,26155,26161,26155,26158
201908200453,26158,26159,26154,26158
201908200454,26158,26163,26156,26161
201908200455,26161,26172,26154,26155
201908200456,26155,26160,26151,26151
201908200457,26151,26153,26144,26145
201908200458,26145,26149,26141,26141
201908200459,26141,26148,26126,26131
201908200500,26132,26132,26122,26123
201908200501,26123,26124,26113,26114
201908200502,26114,26118,26112,26113
201908200503,26113,26115,26107,26110
201908200504,26110,26117,26110,26113
201908200505,26113,26115,26112,26112
201908200506,26112,26114,26109,26112
201908200507,26112,26116,26110,26114
201908200508,26116,26117,26111,26111
201908200509,26111,26113,26110,26111
201908200510,26111,26111,26103,26104
201908200511,26104,26107,26104,26107
201908200512,26107,26114,26106,26113
201908200513,26113,26117,26112,26115
201908200514,26115,26124,26107,26118
