日時,始値(BID),高値(BID),安値(BID),終値(BID)
201908230700,26238,26238,26205,26230
201908230701,26230,26233,26227,26233
201908230702,26232,26238,26232,26234
201908230703,26234,26237,26233,26236
201908230704,26236,26238,26232,26232
201908230705,26232,26235,26231,26232
201908230706,26231,26234,26227,26228
201908230707,26228,26231,26228,26231
201908230708,26231,26234,26230,26231
201908230709,26231,26234,26231,26233
201908230710,26233,26233,26228,26229
201908230711,26228,26229,26227,26229
201908230712,26229,26230,26227,26230
201908230713,26231,26232,26229,26229
201908230714,26229,26231,26229,26229
201908230715,26229,26238,26229,26236
201908230716,26236,26237,26235,26237
201908230717,26237,26237,26234,26235
201908230718,26235,26236,26235,26235
201908230719,26235,26236,26234,26234
201908230720,26234,26236,26234,26236
201908230721,26236,26236,26235,26235
201908230722,26235,26235,26234,26234
201908230723,26234,26236,26232,26233
201908230724,26233,26233,26233,26233
201908230725,26233,26233,26230,26230
201908230726,26229,26231,26228,26228
201908230727,26228,26228,26227,26227
201908230728,26227,26228,26226,26226
201908230729,26226,26227,26226,26226
201908230730,26226,26228,26226,26227
201908230731,26227,26227,26227,26227
201908230732,26227,26227,26226,26226
201908230733,26226,26228,26226,26228
201908230734,26228,26228,26226,26227
201908230735,26227,26228,26226,26227
201908230736,26227,26228,26227,26227
201908230737,26227,26228,26227,26228
201908230738,26228,26229,26228,26229
201908230739,26229,26229,26229,26229
201908230740,26229,26232,26229,26232
201908230741,26231,26231,26230,26230
201908230742,26230,26231,26229,26230
201908230743,26230,26232,26230,26232
201908230744,26232,26234,26231,26233
201908230745,26233,26233,26232,26232
201908230746,26233,26233,26232,26233
201908230747,26233,26233,26227,26229
201908230748,26229,26229,26226,26227
201908230749,26227,26227,26223,26223
201908230750,26223,26224,26221,26223
201908230751,26223,26227,26222,26226
201908230752,26226,26229,26225,26229
201908230753,26229,26229,26228,26228
201908230754,26228,26228,26227,26227
201908230755,26227,26227,26224,26224
201908230756,26224,26224,26219,26219
201908230757,26219,26221,26219,26220
201908230758,26221,26221,26214,26214
201908230759,26214,26217,26212,26213
201908230800,26213,26218,26213,26218
201908230801,26217,26218,26215,26218
201908230802,26218,26219,26216,26216
201908230803,26216,26222,26216,26219
201908230804,26219,26221,26219,26219
201908230805,26219,26219,26214,26214
201908230806,26214,26218,26214,26216
201908230807,26216,26220,26216,26220
201908230808,26220,26220,26218,26220
201908230809,26219,26220,26219,26220
201908230810,26220,26222,26220,26222
201908230811,26222,26222,26221,26221
201908230812,26221,26222,26218,26219
201908230813,26219,26222,26218,26222
201908230814,26222,26222,26219,26220
201908230815,26220,26226,26220,26226
201908230816,26227,26229,26226,26227
201908230817,26227,26229,26227,26229
201908230818,26229,26229,26225,26226
201908230819,26226,26226,26225,26225
201908230820,26225,26226,26225,26226
201908230821,26227,26227,26226,26226
201908230822,26225,26225,26223,26223
201908230823,26224,26224,26219,26219
201908230824,26219,26221,26215,26220
201908230825,26220,26220,26219,26219
201908230826,26219,26220,26218,26220
201908230827,26220,26223,26219,26222
201908230828,26222,26222,26220,26220
201908230829,26220,26220,26210,26212
201908230830,26212,26212,26195,26202
201908230831,26203,26205,26193,26193
201908230832,26193,26200,26193,26200
201908230833,26200,26202,26198,26199
201908230834,26199,26204,26199,26204
201908230835,26204,26210,26204,26208
201908230836,26209,26213,26209,26209
201908230837,26208,26224,26208,26224
201908230838,26224,26225,26217,26220
201908230839,26220,26220,26215,26216
201908230840,26216,26218,26214,26215
201908230841,26215,26217,26214,26216
201908230842,26216,26218,26214,26214
201908230843,26214,26218,26214,26217
201908230844,26217,26218,26214,26216
201908230845,26216,26232,26216,26229
201908230846,26229,26231,26227,26228
201908230847,26228,26231,26228,26229
201908230848,26229,26230,26227,26227
201908230849,26227,26230,26224,26230
201908230850,26230,26230,26227,26227
201908230851,26227,26228,26223,26226
201908230852,26226,26229,26225,26227
201908230853,26227,26229,26227,26229
201908230854,26229,26230,26228,26229
201908230855,26228,26231,26222,26226
201908230856,26226,26229,26226,26228
201908230857,26228,26229,26223,26223
201908230858,26223,26223,26219,26221
201908230859,26221,26224,26219,26224
201908230900,26224,26228,26211,26227
201908230901,26227,26227,26221,26225
201908230902,26225,26237,26225,26233
201908230903,26233,26241,26229,26230
201908230904,26230,26232,26224,26228
201908230905,26228,26233,26221,26233
201908230906,26233,26240,26233,26238
201908230907,26237,26242,26235,26241
201908230908,26241,26245,26240,26243
201908230909,26243,26244,26240,26242
201908230910,26242,26245,26240,26240
201908230911,26240,26241,26238,26239
201908230912,26239,26241,26235,26236
201908230913,26236,26237,26233,26234
201908230914,26234,26237,26231,26236
201908230915,26236,26246,26236,26245
201908230916,26245,26246,26240,26240
201908230917,26240,26253,26240,26249
201908230918,26249,26252,26244,26246
201908230919,26246,26248,26242,26244
201908230920,26244,26249,26244,26245
201908230921,26245,26246,26244,26245
201908230922,26244,26250,26244,26247
201908230923,26247,26249,26245,26245
201908230924,26245,26254,26245,26253
201908230925,26253,26262,26253,26260
201908230926,26260,26265,26260,26264
201908230927,26264,26265,26260,26261
201908230928,26261,26266,26260,26260
201908230929,26259,26261,26258,26260
201908230930,26260,26263,26260,26263
201908230931,26263,26264,26258,26258
201908230932,26258,26259,26256,26258
201908230933,26258,26263,26258,26259
201908230934,26259,26263,26259,26262
201908230935,26262,26263,26261,26262
201908230936,26262,26266,26259,26260
201908230937,26260,26265,26257,26262
201908230938,26262,26263,26261,26262
201908230939,26262,26263,26261,26262
201908230940,26262,26263,26261,26261
201908230941,26261,26264,26261,26262
201908230942,26262,26266,26260,26266
201908230943,26266,26266,26261,26263
201908230944,26263,26263,26261,26262
201908230945,26262,26265,26262,26264
201908230946,26264,26266,26264,26264
201908230947,26264,26264,26260,26260
201908230948,26260,26266,26260,26265
201908230949,26265,26265,26264,26265
201908230950,26265,26266,26265,26266
201908230951,26266,26266,26261,26265
201908230952,26265,26271,26265,26267
201908230953,26266,26268,26265,26267
201908230954,26267,26269,26267,26269
201908230955,26269,26272,26265,26265
201908230956,26265,26271,26265,26268
201908230957,26268,26270,26268,26269
201908230958,26269,26269,26267,26268
201908230959,26268,26269,26267,26268
201908231000,26268,26273,26264,26271
201908231001,26271,26271,26265,26265
201908231002,26265,26267,26263,26265
201908231003,26266,26267,26265,26265
201908231004,26264,26269,26264,26268
201908231005,26268,26276,26267,26275
201908231006,26276,26276,26271,26271
201908231007,26271,26278,26271,26278
201908231008,26279,26280,26275,26279
201908231009,26279,26283,26277,26278
201908231010,26278,26285,26278,26279
201908231011,26280,26284,26278,26281
201908231012,26281,26281,26278,26278
201908231013,26278,26278,26269,26269
201908231014,26269,26272,26267,26267
201908231015,26267,26285,26264,26280
201908231016,26280,26284,26279,26280
201908231017,26280,26280,26274,26276
201908231018,26276,26278,26272,26274
201908231019,26274,26280,26274,26277
201908231020,26277,26279,26275,26277
201908231021,26277,26278,26275,26277
201908231022,26277,26277,26273,26273
201908231023,26273,26274,26271,26271
201908231024,26271,26278,26271,26278
201908231025,26277,26278,26273,26275
201908231026,26275,26279,26274,26274
201908231027,26274,26274,26272,26273
201908231028,26272,26274,26270,26270
201908231029,26270,26273,26270,26273
201908231030,26273,26278,26273,26277
201908231031,26277,26280,26271,26272
201908231032,26272,26277,26268,26270
201908231033,26270,26272,26265,26265
201908231034,26265,26265,26253,26257
201908231035,26257,26259,26256,26258
201908231036,26258,26258,26252,26255
201908231037,26255,26269,26255,26266
201908231038,26267,26271,26265,26269
201908231039,26269,26287,26269,26286
201908231040,26287,26302,26287,26302
201908231041,26302,26302,26293,26294
201908231042,26294,26296,26292,26293
201908231043,26293,26293,26289,26291
201908231044,26290,26291,26285,26286
201908231045,26285,26289,26284,26285
201908231046,26285,26286,26280,26280
201908231047,26280,26285,26280,26285
201908231048,26285,26289,26285,26288
201908231049,26287,26294,26286,26293
201908231050,26293,26295,26290,26290
201908231051,26290,26300,26290,26300
201908231052,26300,26300,26296,26298
201908231053,26298,26301,26294,26301
201908231054,26301,26305,26300,26300
201908231055,26300,26311,26300,26308
201908231056,26308,26312,26301,26302
201908231057,26302,26303,26298,26301
201908231058,26301,26304,26297,26297
201908231059,26297,26302,26297,26298
201908231100,26298,26303,26295,26300
201908231101,26299,26299,26294,26295
201908231102,26295,26299,26293,26293
201908231103,26293,26295,26288,26289
201908231104,26289,26291,26288,26289
201908231105,26289,26294,26288,26294
201908231106,26294,26296,26292,26294
201908231107,26294,26294,26289,26289
201908231108,26290,26293,26290,26292
201908231109,26292,26293,26291,26292
201908231110,26292,26294,26290,26293
201908231111,26294,26295,26293,26293
201908231112,26293,26294,26290,26293
201908231113,26293,26294,26291,26292
201908231114,26290,26290,26288,26289
201908231115,26289,26291,26288,26289
201908231116,26289,26292,26289,26292
201908231117,26292,26293,26288,26289
201908231118,26289,26290,26284,26284
201908231119,26284,26286,26282,26282
201908231120,26282,26285,26282,26285
201908231121,26285,26285,26283,26284
201908231122,26283,26285,26282,26285
201908231123,26286,26288,26285,26288
201908231124,26288,26289,26286,26287
201908231125,26287,26288,26286,26286
201908231126,26286,26290,26286,26287
201908231127,26287,26291,26287,26289
201908231128,26289,26292,26289,26291
201908231129,26291,26293,26290,26292
201908231130,26292,26296,26292,26295
201908231131,26295,26295,26292,26292
201908231132,26292,26292,26289,26289
201908231133,26290,26290,26288,26290
201908231134,26290,26294,26290,26293
201908231135,26293,26301,26293,26299
201908231136,26299,26300,26297,26299
201908231137,26298,26300,26294,26294
201908231138,26295,26296,26294,26295
201908231139,26295,26301,26295,26301
201908231140,26301,26303,26299,26302
201908231141,26302,26303,26300,26302
201908231142,26302,26302,26299,26300
201908231143,26300,26301,26298,26301
201908231144,26301,26302,26299,26299
201908231145,26299,26303,26299,26302
201908231146,26301,26306,26301,26305
201908231147,26305,26306,26301,26301
201908231148,26302,26303,26300,26301
201908231149,26301,26302,26298,26299
201908231150,26299,26300,26298,26300
201908231151,26300,26300,26299,26299
201908231152,26299,26299,26295,26296
201908231153,26296,26298,26296,26296
201908231154,26296,26297,26294,26295
201908231155,26295,26300,26295,26298
201908231156,26298,26301,26298,26299
201908231157,26299,26306,26299,26304
201908231158,26304,26306,26303,26306
201908231159,26306,26307,26303,26303
201908231200,26303,26305,26303,26304
201908231201,26304,26307,26304,26306
201908231202,26307,26307,26305,26305
201908231203,26305,26307,26305,26306
201908231204,26306,26308,26306,26307
201908231205,26307,26310,26307,26309
201908231206,26309,26319,26308,26317
201908231207,26317,26318,26315,26316
201908231208,26316,26316,26314,26315
201908231209,26315,26316,26311,26311
201908231210,26311,26312,26310,26312
201908231211,26312,26312,26310,26310
201908231212,26310,26310,26307,26310
201908231213,26310,26312,26310,26311
201908231214,26311,26312,26311,26312
201908231215,26311,26315,26311,26314
201908231216,26314,26314,26313,26313
201908231217,26313,26313,26310,26310
201908231218,26311,26313,26308,26308
201908231219,26308,26313,26308,26313
201908231220,26313,26315,26311,26311
201908231221,26311,26313,26311,26311
201908231222,26311,26312,26310,26312
201908231223,26311,26312,26310,26310
201908231224,26309,26310,26306,26306
201908231225,26306,26310,26306,26308
201908231226,26309,26309,26308,26309
201908231227,26309,26309,26307,26307
201908231228,26307,26310,26307,26309
201908231229,26308,26309,26307,26307
201908231230,26307,26311,26307,26311
201908231231,26311,26311,26308,26309
201908231232,26309,26309,26305,26306
201908231233,26305,26306,26305,26306
201908231234,26306,26307,26304,26305
201908231235,26305,26306,26305,26305
201908231236,26305,26307,26303,26303
201908231237,26303,26305,26303,26304
201908231238,26305,26306,26304,26305
201908231239,26305,26305,26303,26304
201908231240,26304,26304,26301,26301
201908231241,26301,26302,26301,26301
201908231242,26301,26302,26299,26300
201908231243,26300,26301,26299,26300
201908231244,26300,26302,26300,26302
201908231245,26302,26306,26302,26305
201908231246,26305,26306,26305,26305
201908231247,26305,26306,26305,26305
201908231248,26305,26308,26303,26308
201908231249,26308,26308,26305,26305
201908231250,26305,26307,26304,26307
201908231251,26307,26307,26305,26307
201908231252,26307,26307,26306,26306
201908231253,26306,26309,26306,26309
201908231254,26309,26310,26308,26309
201908231255,26309,26310,26309,26309
201908231256,26309,26309,26306,26307
201908231257,26307,26307,26305,26305
201908231258,26305,26305,26302,26302
201908231259,26302,26305,26302,26304
201908231300,26303,26306,26303,26305
201908231301,26305,26306,26305,26306
201908231302,26306,26306,26304,26306
201908231303,26306,26306,26304,26305
201908231304,26305,26305,26303,26305
201908231305,26305,26306,26305,26306
201908231306,26307,26307,26306,26307
201908231307,26307,26308,26307,26307
201908231308,26307,26310,26307,26309
201908231309,26309,26309,26307,26308
201908231310,26308,26312,26308,26312
201908231311,26312,26312,26310,26312
201908231312,26312,26312,26310,26311
201908231313,26311,26311,26309,26310
201908231314,26310,26310,26309,26310
201908231315,26309,26310,26308,26309
201908231316,26309,26309,26307,26307
201908231317,26307,26308,26306,26306
201908231318,26307,26307,26307,26307
201908231319,26307,26307,26303,26303
201908231320,26303,26305,26303,26303
201908231321,26303,26304,26303,26304
201908231322,26304,26306,26304,26306
201908231323,26306,26309,26305,26305
201908231324,26305,26306,26305,26306
201908231325,26306,26306,26304,26304
201908231326,26304,26306,26304,26305
201908231327,26305,26305,26304,26304
201908231328,26304,26306,26304,26306
201908231329,26306,26306,26304,26304
201908231330,26305,26307,26304,26306
201908231331,26307,26307,26299,26299
201908231332,26299,26301,26296,26296
201908231333,26296,26297,26295,26295
201908231334,26295,26296,26293,26294
201908231335,26294,26296,26294,26295
201908231336,26296,26296,26295,26296
201908231337,26296,26298,26296,26297
201908231338,26297,26297,26297,26297
201908231339,26297,26297,26297,26297
201908231340,26297,26300,26297,26299
201908231341,26299,26299,26296,26296
201908231342,26296,26299,26296,26299
201908231343,26299,26299,26296,26296
201908231344,26296,26297,26296,26296
201908231345,26296,26297,26296,26297
201908231346,26296,26297,26296,26296
201908231347,26296,26296,26296,26296
201908231348,26296,26297,26296,26296
201908231349,26296,26296,26295,26295
201908231350,26295,26296,26294,26295
201908231351,26295,26298,26295,26296
201908231352,26296,26297,26296,26296
201908231353,26296,26297,26296,26297
201908231354,26297,26298,26296,26297
201908231355,26297,26300,26297,26299
201908231356,26299,26302,26299,26301
201908231357,26302,26302,26300,26300
201908231358,26300,26301,26300,26300
201908231359,26301,26302,26301,26302
201908231400,26302,26304,26301,26302
201908231401,26302,26306,26302,26305
201908231402,26305,26308,26305,26307
201908231403,26307,26307,26303,26303
201908231404,26303,26305,26302,26305
201908231405,26305,26306,26305,26306
201908231406,26306,26308,26305,26307
201908231407,26307,26308,26307,26307
201908231408,26307,26308,26307,26307
201908231409,26307,26309,26307,26309
201908231410,26310,26310,26305,26306
201908231411,26306,26307,26304,26305
201908231412,26305,26306,26304,26304
201908231413,26304,26304,26302,26303
201908231414,26303,26305,26302,26302
201908231415,26302,26303,26300,26300
201908231416,26300,26301,26300,26300
201908231417,26300,26300,26297,26297
201908231418,26297,26300,26297,26299
201908231419,26300,26301,26298,26299
201908231420,26299,26299,26298,26299
201908231421,26299,26300,26299,26300
201908231422,26300,26305,26300,26304
201908231423,26304,26305,26301,26302
201908231424,26303,26303,26301,26302
201908231425,26302,26303,26301,26303
201908231426,26303,26304,26302,26303
201908231427,26303,26306,26302,26304
201908231428,26303,26306,26302,26302
201908231429,26302,26303,26301,26302
201908231430,26303,26306,26303,26306
201908231431,26306,26307,26305,26306
201908231432,26306,26306,26302,26303
201908231433,26303,26306,26303,26305
201908231434,26305,26307,26305,26307
201908231435,26307,26311,26307,26308
201908231436,26308,26308,26305,26306
201908231437,26306,26309,26305,26308
201908231438,26308,26308,26302,26304
201908231439,26304,26308,26304,26308
201908231440,26308,26310,26307,26309
201908231441,26309,26315,26309,26313
201908231442,26313,26314,26311,26311
201908231443,26311,26313,26311,26313
201908231444,26314,26317,26313,26316
201908231445,26316,26316,26314,26314
201908231446,26314,26315,26311,26311
201908231447,26311,26314,26311,26311
201908231448,26311,26315,26311,26315
201908231449,26315,26316,26313,26315
201908231450,26315,26317,26314,26317
201908231451,26317,26323,26317,26322
201908231452,26322,26325,26321,26324
201908231453,26324,26325,26321,26321
201908231454,26321,26323,26321,26323
201908231455,26322,26322,26316,26316
201908231456,26316,26320,26315,26319
201908231457,26319,26322,26318,26322
201908231458,26322,26326,26321,26325
201908231459,26325,26330,26325,26330
201908231500,26330,26342,26330,26337
201908231501,26337,26344,26337,26343
201908231502,26343,26345,26339,26339
201908231503,26339,26345,26339,26343
201908231504,26343,26346,26343,26345
201908231505,26344,26346,26343,26343
201908231506,26343,26344,26343,26343
201908231507,26343,26343,26340,26343
201908231508,26343,26343,26340,26341
201908231509,26341,26341,26337,26338
201908231510,26337,26338,26333,26333
201908231511,26333,26339,26333,26338
201908231512,26338,26339,26337,26339
201908231513,26340,26340,26337,26339
201908231514,26339,26344,26339,26343
201908231515,26343,26344,26336,26337
201908231516,26337,26340,26337,26339
201908231517,26339,26340,26338,26339
201908231518,26339,26340,26335,26336
201908231519,26337,26339,26335,26339
201908231520,26338,26339,26337,26337
201908231521,26337,26339,26337,26337
201908231522,26338,26340,26337,26340
201908231523,26340,26342,26339,26340
201908231524,26340,26343,26340,26342
201908231525,26342,26342,26335,26335
201908231526,26336,26339,26335,26339
201908231527,26339,26341,26338,26341
201908231528,26341,26342,26337,26337
201908231529,26337,26340,26337,26337
201908231530,26338,26339,26333,26334
201908231531,26334,26338,26333,26337
201908231532,26337,26338,26336,26336
201908231533,26336,26337,26332,26333
201908231534,26333,26333,26331,26333
201908231535,26332,26333,26331,26331
201908231536,26331,26332,26328,26328
201908231537,26327,26328,26327,26327
201908231538,26327,26329,26327,26328
201908231539,26328,26329,26328,26329
201908231540,26329,26332,26328,26331
201908231541,26331,26334,26331,26331
201908231542,26331,26332,26329,26329
201908231543,26328,26330,26328,26330
201908231544,26330,26334,26330,26334
201908231545,26334,26335,26333,26333
201908231546,26333,26334,26331,26332
201908231547,26332,26333,26330,26331
201908231548,26331,26332,26330,26331
201908231549,26331,26332,26331,26331
201908231550,26331,26332,26331,26331
201908231551,26331,26331,26329,26329
201908231552,26329,26331,26329,26331
201908231553,26331,26331,26325,26326
201908231554,26326,26326,26325,26326
201908231555,26326,26327,26323,26325
201908231556,26325,26325,26320,26320
201908231557,26320,26322,26316,26317
201908231558,26318,26321,26316,26320
201908231559,26320,26321,26313,26314
201908231600,26314,26321,26312,26321
201908231601,26321,26321,26314,26314
201908231602,26314,26316,26311,26312
201908231603,26312,26316,26310,26310
201908231604,26310,26311,26304,26310
201908231605,26310,26316,26310,26313
201908231606,26313,26318,26312,26318
201908231607,26318,26320,26315,26319
201908231608,26319,26319,26316,26317
201908231609,26318,26319,26315,26318
201908231610,26318,26320,26317,26319
201908231611,26319,26322,26319,26319
201908231612,26318,26318,26314,26315
201908231613,26315,26324,26315,26322
201908231614,26322,26322,26318,26320
201908231615,26320,26336,26320,26330
201908231616,26330,26332,26328,26330
201908231617,26330,26332,26329,26331
201908231618,26331,26333,26328,26331
201908231619,26330,26334,26330,26331
201908231620,26331,26339,26331,26338
201908231621,26338,26340,26337,26337
201908231622,26337,26337,26331,26332
201908231623,26332,26335,26330,26332
201908231624,26332,26332,26329,26330
201908231625,26330,26335,26330,26332
201908231626,26332,26334,26332,26333
201908231627,26333,26333,26327,26328
201908231628,26328,26330,26327,26328
201908231629,26328,26330,26327,26329
201908231630,26329,26330,26312,26319
201908231631,26319,26322,26316,26321
201908231632,26320,26322,26318,26320
201908231633,26320,26321,26316,26317
201908231634,26317,26318,26312,26312
201908231635,26312,26315,26312,26315
201908231636,26315,26316,26313,26314
201908231637,26314,26315,26311,26311
201908231638,26311,26311,26301,26303
201908231639,26302,26308,26301,26308
201908231640,26308,26308,26301,26301
201908231641,26301,26302,26297,26302
201908231642,26302,26307,26299,26306
201908231643,26306,26306,26304,26306
201908231644,26306,26307,26303,26303
201908231645,26303,26303,26298,26298
201908231646,26298,26305,26298,26303
201908231647,26303,26306,26301,26301
201908231648,26301,26306,26301,26306
201908231649,26306,26313,26305,26310
201908231650,26310,26314,26309,26310
201908231651,26310,26314,26309,26313
201908231652,26313,26314,26311,26313
201908231653,26313,26313,26304,26305
201908231654,26304,26310,26304,26307
201908231655,26307,26309,26307,26309
201908231656,26309,26309,26305,26307
201908231657,26307,26308,26304,26307
201908231658,26307,26307,26303,26303
201908231659,26303,26303,26297,26302
201908231700,26302,26305,26294,26296
201908231701,26296,26297,26294,26295
201908231702,26295,26298,26292,26292
201908231703,26292,26301,26292,26301
201908231704,26301,26306,26299,26304
201908231705,26304,26315,26304,26312
201908231706,26312,26312,26304,26304
201908231707,26301,26306,26301,26303
201908231708,26304,26304,26296,26297
201908231709,26297,26299,26293,26295
201908231710,26295,26299,26294,26297
201908231711,26297,26303,26296,26302
201908231712,26302,26311,26301,26309
201908231713,26309,26312,26308,26309
201908231714,26309,26309,26304,26305
201908231715,26305,26306,26301,26303
201908231716,26302,26306,26302,26305
201908231717,26305,26305,26301,26302
201908231718,26302,26308,26302,26308
201908231719,26308,26314,26307,26314
201908231720,26313,26314,26311,26311
201908231721,26311,26312,26310,26311
201908231722,26310,26314,26309,26310
201908231723,26310,26311,26310,26310
201908231724,26310,26310,26308,26310
201908231725,26310,26310,26307,26308
201908231726,26308,26313,26308,26313
201908231727,26313,26313,26311,26312
201908231728,26311,26323,26311,26320
201908231729,26320,26322,26320,26320
201908231730,26320,26325,26320,26325
201908231731,26325,26327,26325,26325
201908231732,26325,26330,26325,26330
201908231733,26329,26329,26326,26326
201908231734,26326,26328,26323,26323
201908231735,26323,26327,26323,26325
201908231736,26325,26326,26324,26326
201908231737,26326,26327,26325,26326
201908231738,26327,26328,26325,26325
201908231739,26324,26326,26319,26319
201908231740,26319,26322,26318,26319
201908231741,26319,26324,26319,26323
201908231742,26324,26326,26322,26325
201908231743,26325,26327,26324,26325
201908231744,26325,26325,26322,26324
201908231745,26324,26326,26323,26325
201908231746,26325,26327,26325,26326
201908231747,26326,26327,26326,26326
201908231748,26326,26326,26325,26325
201908231749,26325,26326,26319,26319
201908231750,26319,26319,26311,26313
201908231751,26313,26315,26311,26314
201908231752,26314,26318,26314,26317
201908231753,26317,26317,26316,26317
201908231754,26317,26318,26317,26317
201908231755,26317,26322,26317,26321
201908231756,26321,26322,26314,26314
201908231757,26314,26316,26314,26316
201908231758,26316,26318,26315,26315
201908231759,26315,26317,26314,26314
201908231800,26314,26321,26314,26321
201908231801,26321,26326,26321,26326
201908231802,26326,26328,26326,26326
201908231803,26326,26326,26322,26322
201908231804,26322,26322,26316,26318
201908231805,26318,26319,26315,26317
201908231806,26318,26319,26316,26318
201908231807,26319,26322,26319,26320
201908231808,26320,26324,26318,26321
201908231809,26321,26323,26321,26322
201908231810,26321,26331,26321,26330
201908231811,26329,26329,26325,26327
201908231812,26327,26328,26324,26325
201908231813,26326,26326,26321,26323
201908231814,26323,26323,26315,26319
201908231815,26318,26321,26317,26320
201908231816,26319,26322,26319,26320
201908231817,26320,26321,26317,26317
201908231818,26316,26320,26316,26316
201908231819,26317,26319,26315,26319
201908231820,26320,26320,26318,26319
201908231821,26319,26320,26318,26319
201908231822,26319,26320,26316,26317
201908231823,26317,26318,26313,26315
201908231824,26315,26315,26307,26313
201908231825,26313,26316,26313,26314
201908231826,26314,26314,26311,26313
201908231827,26312,26313,26304,26304
201908231828,26304,26307,26303,26306
201908231829,26306,26307,26304,26306
201908231830,26306,26310,26306,26310
201908231831,26310,26310,26306,26308
201908231832,26308,26310,26307,26309
201908231833,26309,26314,26306,26312
201908231834,26311,26312,26309,26311
201908231835,26311,26318,26310,26310
201908231836,26310,26311,26308,26310
201908231837,26310,26313,26308,26313
201908231838,26313,26316,26312,26313
201908231839,26314,26314,26312,26313
201908231840,26313,26313,26310,26310
201908231841,26309,26314,26309,26314
201908231842,26314,26314,26307,26307
201908231843,26307,26309,26307,26308
201908231844,26309,26310,26307,26310
201908231845,26310,26312,26309,26309
201908231846,26309,26309,26301,26301
201908231847,26301,26304,26300,26301
201908231848,26302,26303,26300,26302
201908231849,26302,26304,26300,26304
201908231850,26303,26303,26295,26303
201908231851,26303,26307,26301,26306
201908231852,26306,26307,26304,26305
201908231853,26305,26310,26305,26309
201908231854,26309,26309,26302,26305
201908231855,26306,26321,26306,26320
201908231856,26320,26320,26315,26316
201908231857,26316,26316,26310,26311
201908231858,26311,26318,26311,26317
201908231859,26317,26318,26309,26309
201908231900,26309,26311,26306,26307
201908231901,26307,26315,26307,26315
201908231902,26314,26315,26309,26313
201908231903,26313,26313,26309,26310
201908231904,26310,26313,26308,26309
201908231905,26309,26311,26308,26310
201908231906,26311,26316,26309,26316
201908231907,26316,26317,26310,26310
201908231908,26311,26318,26310,26318
201908231909,26318,26318,26312,26315
201908231910,26315,26316,26309,26310
201908231911,26310,26312,26305,26305
201908231912,26305,26308,26303,26306
201908231913,26306,26309,26304,26306
201908231914,26306,26307,26302,26305
201908231915,26305,26306,26299,26302
201908231916,26302,26302,26297,26302
201908231917,26302,26306,26301,26304
201908231918,26305,26306,26297,26297
201908231919,26297,26301,26297,26300
201908231920,26300,26304,26299,26303
201908231921,26303,26303,26301,26301
201908231922,26301,26302,26300,26301
201908231923,26301,26302,26296,26296
201908231924,26296,26300,26295,26297
201908231925,26297,26299,26294,26297
201908231926,26297,26300,26295,26296
201908231927,26296,26297,26296,26297
201908231928,26297,26297,26294,26296
201908231929,26297,26301,26296,26301
201908231930,26301,26301,26297,26299
201908231931,26298,26299,26298,26298
201908231932,26298,26298,26295,26295
201908231933,26295,26296,26292,26292
201908231934,26293,26293,26287,26287
201908231935,26287,26287,26281,26282
201908231936,26283,26283,26263,26263
201908231937,26263,26271,26261,26270
201908231938,26270,26270,26257,26257
201908231939,26257,26269,26257,26269
201908231940,26269,26269,26260,26269
201908231941,26269,26271,26267,26268
201908231942,26268,26268,26264,26265
201908231943,26265,26268,26265,26266
201908231944,26266,26275,26266,26270
201908231945,26270,26271,26268,26269
201908231946,26269,26270,26264,26265
201908231947,26265,26268,26265,26267
201908231948,26267,26268,26265,26268
201908231949,26268,26269,26266,26267
201908231950,26267,26267,26259,26261
201908231951,26261,26263,26258,26258
201908231952,26258,26263,26257,26258
201908231953,26257,26264,26257,26263
201908231954,26263,26264,26262,26262
201908231955,26263,26263,26261,26262
201908231956,26262,26264,26259,26260
201908231957,26260,26260,26253,26254
201908231958,26254,26264,26254,26264
201908231959,26264,26270,26264,26270
201908232000,26270,26275,26270,26272
201908232001,26272,26286,26271,26286
201908232002,26286,26287,26280,26285
201908232003,26285,26285,26280,26281
201908232004,26281,26284,26278,26278
201908232005,26278,26280,26275,26277
201908232006,26277,26278,26276,26277
201908232007,26277,26281,26275,26277
201908232008,26278,26283,26277,26283
201908232009,26283,26286,26280,26286
201908232010,26286,26288,26284,26284
201908232011,26284,26286,26283,26283
201908232012,26283,26284,26283,26284
201908232013,26284,26284,26276,26279
201908232014,26277,26279,26275,26275
201908232015,26275,26283,26275,26283
201908232016,26284,26287,26284,26286
201908232017,26286,26288,26280,26280
201908232018,26280,26284,26280,26284
201908232019,26284,26286,26283,26284
201908232020,26284,26285,26280,26280
201908232021,26280,26282,26279,26281
201908232022,26281,26287,26281,26286
201908232023,26286,26286,26283,26284
201908232024,26285,26285,26282,26283
201908232025,26283,26289,26283,26288
201908232026,26288,26289,26287,26287
201908232027,26286,26289,26286,26287
201908232028,26287,26291,26287,26291
201908232029,26291,26292,26288,26288
201908232030,26290,26291,26288,26291
201908232031,26291,26291,26287,26288
201908232032,26288,26294,26287,26290
201908232033,26290,26293,26286,26287
201908232034,26287,26287,26283,26284
201908232035,26284,26294,26283,26294
201908232036,26295,26295,26294,26294
201908232037,26294,26294,26285,26285
201908232038,26285,26288,26284,26286
201908232039,26286,26289,26285,26286
201908232040,26286,26290,26284,26288
201908232041,26288,26308,26286,26308
201908232042,26309,26315,26306,26314
201908232043,26314,26325,26314,26316
201908232044,26316,26320,26312,26316
201908232045,26316,26319,26312,26312
201908232046,26312,26317,26310,26317
201908232047,26317,26318,26312,26313
201908232048,26313,26316,26313,26316
201908232049,26316,26316,26310,26310
201908232050,26310,26312,26309,26309
201908232051,26310,26312,26307,26307
201908232052,26307,26310,26305,26307
201908232053,26307,26310,26306,26307
201908232054,26307,26308,26304,26307
201908232055,26307,26309,26304,26308
201908232056,26308,26313,26306,26312
201908232057,26312,26312,26305,26308
201908232058,26308,26310,26307,26308
201908232059,26308,26310,26307,26309
201908232100,26309,26309,26202,26209
201908232101,26209,26245,26180,26192
201908232102,26192,26192,26156,26170
201908232103,26172,26172,26128,26133
201908232104,26135,26151,26102,26120
201908232105,26120,26130,26087,26130
201908232106,26126,26148,26098,26146
201908232107,26148,26180,26140,26180
201908232108,26180,26204,26161,26161
201908232109,26163,26169,26135,26145
201908232110,26145,26158,26130,26149
201908232111,26149,26173,26140,26148
201908232112,26148,26148,26121,26139
201908232113,26136,26144,26111,26111
201908232114,26111,26129,26111,26127
201908232115,26126,26131,26106,26124
201908232116,26124,26139,26122,26134
201908232117,26134,26134,26119,26119
201908232118,26119,26135,26113,26127
201908232119,26128,26133,26119,26120
201908232120,26120,26120,26104,26117
201908232121,26116,26125,26108,26121
201908232122,26121,26123,26109,26110
201908232123,26110,26119,26105,26109
201908232124,26109,26113,26098,26103
201908232125,26103,26103,26066,26066
201908232126,26066,26081,26044,26047
201908232127,26047,26073,26046,26049
201908232128,26049,26059,26048,26055
201908232129,26055,26079,26054,26076
201908232130,26075,26094,26075,26078
201908232131,26077,26087,26060,26082
201908232132,26082,26084,26064,26077
201908232133,26077,26090,26068,26074
201908232134,26074,26078,26064,26075
201908232135,26074,26077,26064,26073
201908232136,26073,26076,26067,26070
201908232137,26070,26080,26057,26075
201908232138,26075,26081,26068,26081
201908232139,26081,26094,26081,26085
201908232140,26085,26103,26085,26095
201908232141,26095,26099,26091,26093
201908232142,26093,26104,26090,26090
201908232143,26090,26094,26077,26079
201908232144,26079,26089,26077,26077
201908232145,26077,26093,26068,26068
201908232146,26068,26093,26067,26091
201908232147,26091,26094,26085,26092
201908232148,26092,26110,26091,26108
201908232149,26108,26110,26102,26107
201908232150,26108,26111,26090,26099
201908232151,26099,26110,26098,26109
201908232152,26109,26124,26102,26123
201908232153,26123,26123,26115,26117
201908232154,26117,26121,26104,26104
201908232155,26104,26144,26104,26134
201908232156,26134,26138,26124,26130
201908232157,26130,26132,26121,26123
201908232158,26123,26128,26118,26120
201908232159,26121,26128,26120,26124
201908232200,26124,26127,26110,26114
201908232201,26114,26117,26111,26112
201908232202,26112,26118,26106,26106
201908232203,26106,26110,26095,26098
201908232204,26098,26113,26094,26110
201908232205,26110,26119,26104,26111
201908232206,26111,26119,26107,26116
201908232207,26115,26118,26106,26108
201908232208,26108,26109,26098,26106
201908232209,26106,26111,26101,26104
201908232210,26104,26113,26098,26103
201908232211,26102,26106,26100,26105
201908232212,26105,26107,26094,26094
201908232213,26094,26103,26090,26091
201908232214,26091,26092,26081,26086
201908232215,26085,26100,26085,26096
201908232216,26096,26096,26082,26090
201908232217,26090,26095,26087,26093
201908232218,26093,26098,26084,26088
201908232219,26088,26092,26087,26090
201908232220,26090,26100,26090,26094
201908232221,26094,26108,26094,26107
201908232222,26107,26108,26099,26102
201908232223,26102,26113,26102,26112
201908232224,26112,26112,26097,26103
201908232225,26102,26109,26100,26109
201908232226,26109,26110,26102,26107
201908232227,26107,26118,26107,26112
201908232228,26112,26125,26110,26110
201908232229,26112,26114,26102,26109
201908232230,26112,26118,26093,26113
201908232231,26113,26123,26100,26102
201908232232,26104,26104,26083,26094
201908232233,26095,26143,26095,26129
201908232234,26129,26142,26113,26113
201908232235,26115,26130,26107,26114
201908232236,26116,26142,26112,26123
201908232237,26123,26133,26119,26129
201908232238,26129,26132,26118,26130
201908232239,26130,26136,26106,26116
201908232240,26116,26139,26116,26137
201908232241,26137,26146,26132,26145
201908232242,26145,26153,26142,26151
201908232243,26151,26156,26134,26143
201908232244,26143,26148,26139,26147
201908232245,26147,26151,26127,26132
201908232246,26132,26135,26128,26130
201908232247,26130,26136,26121,26127
201908232248,26127,26128,26106,26108
201908232249,26108,26111,26089,26091
201908232250,26091,26091,26057,26072
201908232251,26071,26095,26071,26095
201908232252,26094,26106,26088,26096
201908232253,26097,26108,26091,26104
201908232254,26105,26111,26102,26108
201908232255,26108,26113,26102,26108
201908232256,26108,26127,26106,26125
201908232257,26125,26133,26123,26132
201908232258,26132,26133,26124,26130
201908232259,26130,26146,26125,26140
201908232300,26140,26175,26098,26145
201908232301,26146,26171,26119,26164
201908232302,26164,26244,26164,26217
201908232303,26218,26229,26190,26194
201908232304,26190,26215,26180,26211
201908232305,26213,26253,26209,26246
201908232306,26246,26262,26238,26250
201908232307,26250,26253,26228,26236
201908232308,26240,26241,26215,26219
201908232309,26219,26231,26187,26187
201908232310,26187,26187,26120,26131
201908232311,26130,26150,26127,26140
201908232312,26144,26169,26144,26151
201908232313,26149,26193,26145,26179
201908232314,26179,26206,26176,26206
201908232315,26206,26212,26183,26186
201908232316,26186,26208,26180,26201
201908232317,26201,26222,26191,26220
201908232318,26221,26223,26208,26222
201908232319,26222,26226,26213,26214
201908232320,26214,26222,26203,26216
201908232321,26216,26218,26207,26208
201908232322,26208,26214,26198,26200
201908232323,26200,26216,26194,26216
201908232324,26216,26218,26193,26195
201908232325,26195,26200,26175,26199
201908232326,26198,26198,26182,26184
201908232327,26184,26192,26174,26180
201908232328,26180,26202,26180,26188
201908232329,26188,26198,26186,26194
201908232330,26193,26197,26181,26193
201908232331,26193,26214,26192,26202
201908232332,26203,26216,26202,26209
201908232333,26209,26223,26205,26220
201908232334,26220,26240,26217,26230
201908232335,26230,26251,26221,26251
201908232336,26251,26258,26241,26252
201908232337,26252,26277,26252,26271
201908232338,26271,26273,26262,26267
201908232339,26267,26288,26267,26285
201908232340,26285,26306,26285,26296
201908232341,26296,26301,26277,26281
201908232342,26284,26295,26278,26283
201908232343,26283,26284,26269,26276
201908232344,26276,26282,26263,26264
201908232345,26264,26277,26262,26269
201908232346,26268,26271,26257,26257
201908232347,26258,26264,26251,26252
201908232348,26252,26258,26239,26239
201908232349,26239,26243,26231,26233
201908232350,26233,26261,26233,26255
201908232351,26254,26261,26249,26253
201908232352,26253,26276,26253,26267
201908232353,26266,26286,26266,26282
201908232354,26283,26300,26283,26286
201908232355,26286,26292,26281,26285
201908232356,26284,26289,26276,26277
201908232357,26277,26287,26272,26276
201908232358,26276,26297,26275,26294
201908232359,26295,26302,26214,26223
201908240000,26223,26243,26116,26116
201908240001,26116,26147,26090,26090
201908240002,26089,26089,26001,26050
201908240003,26047,26095,26017,26052
201908240004,26052,26058,26012,26029
201908240005,26031,26049,25989,26010
201908240006,26015,26024,25992,26014
201908240007,26014,26014,25934,25941
201908240008,25941,25953,25896,25902
201908240009,25902,25916,25857,25860
201908240010,25860,25895,25817,25893
201908240011,25893,25942,25881,25935
201908240012,25935,25942,25892,25899
201908240013,25898,25930,25885,25930
201908240014,25929,25935,25902,25914
201908240015,25914,25950,25890,25935
201908240016,25935,25937,25914,25933
201908240017,25933,25936,25916,25921
201908240018,25919,25947,25915,25947
201908240019,25947,25955,25935,25936
201908240020,25937,25937,25907,25907
201908240021,25907,25918,25888,25895
201908240022,25897,25912,25886,25910
201908240023,25912,25933,25900,25910
201908240024,25909,25909,25885,25898
201908240025,25898,25898,25875,25875
201908240026,25875,25904,25872,25897
201908240027,25897,25914,25891,25902
201908240028,25902,25906,25877,25879
201908240029,25879,25930,25870,25889
201908240030,25889,25908,25876,25880
201908240031,25880,25888,25866,25869
201908240032,25867,25884,25859,25861
201908240033,25861,25864,25847,25852
201908240034,25852,25872,25848,25859
201908240035,25860,25878,25856,25860
201908240036,25858,25860,25833,25833
201908240037,25834,25858,25828,25843
201908240038,25839,25851,25830,25850
201908240039,25851,25852,25833,25833
201908240040,25834,25834,25815,25818
201908240041,25817,25819,25806,25809
201908240042,25811,25825,25795,25814
201908240043,25813,25836,25805,25809
201908240044,25811,25841,25809,25841
201908240045,25842,25844,25804,25815
201908240046,25815,25820,25797,25809
201908240047,25808,25811,25794,25801
201908240048,25802,25827,25792,25819
201908240049,25819,25819,25797,25802
201908240050,25804,25817,25799,25815
201908240051,25815,25815,25797,25807
201908240052,25808,25828,25805,25828
201908240053,25827,25827,25806,25812
201908240054,25809,25819,25805,25807
201908240055,25807,25820,25797,25808
201908240056,25804,25804,25775,25778
201908240057,25777,25781,25757,25757
201908240058,25757,25776,25757,25776
201908240059,25776,25777,25764,25764
201908240100,25764,25772,25739,25765
201908240101,25765,25768,25753,25762
201908240102,25766,25778,25757,25773
201908240103,25773,25796,25771,25788
201908240104,25788,25790,25777,25789
201908240105,25789,25789,25756,25762
201908240106,25762,25773,25755,25760
201908240107,25760,25765,25756,25759
201908240108,25759,25772,25758,25765
201908240109,25765,25788,25758,25784
201908240110,25784,25790,25772,25788
201908240111,25787,25787,25758,25761
201908240112,25761,25773,25756,25771
201908240113,25771,25806,25769,25806
201908240114,25807,25818,25796,25810
201908240115,25811,25829,25804,25824
201908240116,25824,25835,25811,25834
201908240117,25833,25834,25824,25834
201908240118,25832,25844,25825,25836
201908240119,25836,25842,25824,25826
201908240120,25826,25826,25794,25798
201908240121,25797,25806,25796,25804
201908240122,25804,25814,25795,25812
201908240123,25812,25821,25807,25809
201908240124,25808,25816,25795,25795
201908240125,25795,25805,25781,25782
201908240126,25782,25787,25777,25782
201908240127,25781,25787,25772,25773
201908240128,25773,25789,25772,25773
201908240129,25773,25783,25772,25774
201908240130,25774,25795,25771,25780
201908240131,25780,25804,25780,25794
201908240132,25797,25808,25794,25805
201908240133,25804,25815,25799,25813
201908240134,25813,25821,25804,25816
201908240135,25816,25826,25810,25824
201908240136,25824,25846,25823,25836
201908240137,25834,25839,25820,25826
201908240138,25826,25839,25824,25824
201908240139,25824,25828,25812,25819
201908240140,25815,25818,25804,25809
201908240141,25809,25817,25805,25810
201908240142,25810,25812,25802,25811
201908240143,25811,25814,25785,25794
201908240144,25794,25799,25792,25792
201908240145,25792,25792,25778,25784
201908240146,25783,25789,25778,25782
201908240147,25782,25787,25776,25782
201908240148,25782,25790,25777,25784
201908240149,25783,25787,25771,25771
201908240150,25771,25780,25770,25771
201908240151,25771,25782,25764,25772
201908240152,25772,25773,25762,25770
201908240153,25770,25778,25758,25760
201908240154,25759,25761,25749,25750
201908240155,25750,25771,25746,25758
201908240156,25757,25784,25755,25773
201908240157,25773,25773,25759,25765
201908240158,25765,25767,25758,25764
201908240159,25766,25768,25758,25761
201908240200,25761,25761,25733,25735
201908240201,25735,25735,25719,25733
201908240202,25733,25753,25728,25749
201908240203,25749,25756,25739,25749
201908240204,25749,25749,25739,25742
201908240205,25742,25742,25729,25740
201908240206,25740,25745,25731,25735
201908240207,25735,25738,25713,25716
201908240208,25714,25735,25704,25719
201908240209,25719,25720,25711,25716
201908240210,25714,25730,25707,25728
201908240211,25728,25746,25720,25726
201908240212,25726,25753,25726,25752
201908240213,25752,25776,25750,25765
201908240214,25765,25780,25764,25780
201908240215,25780,25780,25747,25749
201908240216,25750,25750,25738,25744
201908240217,25741,25741,25731,25737
201908240218,25737,25737,25714,25715
201908240219,25712,25721,25711,25717
201908240220,25717,25723,25706,25710
201908240221,25711,25716,25705,25706
201908240222,25707,25712,25698,25707
201908240223,25706,25709,25699,25699
201908240224,25699,25700,25696,25698
201908240225,25698,25706,25688,25706
201908240226,25706,25723,25706,25715
201908240227,25715,25715,25701,25714
201908240228,25714,25718,25702,25705
201908240229,25705,25715,25702,25706
201908240230,25706,25716,25698,25707
201908240231,25708,25718,25708,25718
201908240232,25718,25733,25714,25732
201908240233,25732,25732,25719,25730
201908240234,25730,25739,25728,25733
201908240235,25733,25739,25728,25738
201908240236,25738,25740,25723,25724
201908240237,25724,25735,25721,25722
201908240238,25722,25726,25715,25725
201908240239,25725,25756,25725,25747
201908240240,25748,25748,25722,25736
201908240241,25736,25747,25731,25745
201908240242,25745,25748,25740,25747
201908240243,25747,25747,25736,25745
201908240244,25744,25744,25731,25739
201908240245,25739,25746,25728,25732
201908240246,25731,25746,25729,25744
201908240247,25744,25784,25740,25777
201908240248,25777,25778,25760,25761
201908240249,25760,25766,25755,25757
201908240250,25757,25765,25753,25761
201908240251,25761,25776,25756,25774
201908240252,25774,25780,25755,25762
201908240253,25762,25777,25761,25776
201908240254,25776,25793,25776,25780
201908240255,25780,25780,25768,25771
201908240256,25768,25771,25758,25763
201908240257,25763,25776,25761,25764
201908240258,25764,25773,25763,25764
201908240259,25763,25770,25756,25770
201908240300,25770,25770,25748,25751
201908240301,25751,25758,25739,25742
201908240302,25742,25748,25732,25733
201908240303,25733,25743,25727,25736
201908240304,25736,25741,25732,25732
201908240305,25732,25741,25729,25738
201908240306,25739,25747,25735,25738
201908240307,25738,25748,25732,25742
201908240308,25742,25745,25732,25732
201908240309,25731,25733,25719,25726
201908240310,25726,25729,25718,25723
201908240311,25722,25727,25718,25720
201908240312,25720,25728,25718,25726
201908240313,25726,25736,25726,25733
201908240314,25733,25733,25721,25722
201908240315,25723,25735,25721,25721
201908240316,25722,25731,25721,25727
201908240317,25727,25737,25726,25736
201908240318,25736,25746,25732,25735
201908240319,25735,25742,25720,25731
201908240320,25731,25740,25719,25723
201908240321,25723,25738,25723,25729
201908240322,25728,25732,25723,25728
201908240323,25728,25739,25726,25732
201908240324,25731,25737,25728,25733
201908240325,25733,25740,25729,25733
201908240326,25732,25732,25724,25724
201908240327,25724,25727,25713,25715
201908240328,25715,25724,25714,25722
201908240329,25722,25731,25721,25726
201908240330,25726,25736,25725,25733
201908240331,25734,25750,25734,25738
201908240332,25738,25741,25729,25736
201908240333,25736,25742,25725,25728
201908240334,25727,25741,25726,25740
201908240335,25740,25740,25720,25726
201908240336,25727,25732,25723,25724
201908240337,25724,25735,25716,25717
201908240338,25719,25722,25707,25711
201908240339,25712,25715,25701,25704
201908240340,25704,25712,25700,25703
201908240341,25703,25709,25699,25708
201908240342,25708,25717,25702,25716
201908240343,25716,25720,25695,25695
201908240344,25695,25703,25684,25689
201908240345,25688,25695,25685,25690
201908240346,25690,25690,25664,25664
201908240347,25664,25666,25654,25661
201908240348,25661,25670,25660,25668
201908240349,25668,25684,25659,25662
201908240350,25662,25666,25652,25663
201908240351,25663,25671,25657,25669
201908240352,25669,25675,25664,25667
201908240353,25668,25673,25660,25664
201908240354,25664,25668,25654,25654
201908240355,25654,25663,25650,25660
201908240356,25660,25683,25656,25683
201908240357,25682,25687,25670,25687
201908240358,25687,25700,25686,25692
201908240359,25692,25700,25691,25695
201908240400,25694,25698,25680,25684
201908240401,25684,25695,25679,25689
201908240402,25689,25695,25679,25688
201908240403,25688,25697,25684,25694
201908240404,25694,25700,25684,25698
201908240405,25697,25715,25692,25714
201908240406,25714,25730,25710,25712
201908240407,25712,25717,25706,25711
201908240408,25711,25719,25704,25706
201908240409,25706,25707,25696,25702
201908240410,25702,25706,25677,25677
201908240411,25677,25679,25643,25659
201908240412,25659,25674,25647,25647
201908240413,25646,25665,25641,25660
201908240414,25660,25668,25658,25664
201908240415,25665,25674,25652,25673
201908240416,25672,25692,25672,25679
201908240417,25679,25683,25671,25675
201908240418,25676,25686,25676,25682
201908240419,25682,25683,25668,25680
201908240420,25680,25690,25674,25685
201908240421,25685,25686,25669,25674
201908240422,25674,25694,25670,25688
201908240423,25688,25689,25674,25679
201908240424,25677,25678,25670,25674
201908240425,25674,25682,25668,25671
201908240426,25671,25676,25658,25658
201908240427,25658,25664,25655,25657
201908240428,25656,25658,25641,25646
201908240429,25646,25656,25643,25650
201908240430,25650,25661,25636,25637
201908240431,25636,25643,25634,25636
201908240432,25636,25651,25636,25650
201908240433,25650,25657,25648,25655
201908240434,25656,25656,25640,25641
201908240435,25641,25646,25625,25626
201908240436,25626,25635,25622,25622
201908240437,25622,25632,25617,25624
201908240438,25624,25631,25615,25630
201908240439,25630,25633,25622,25631
201908240440,25631,25637,25620,25626
201908240441,25628,25633,25618,25625
201908240442,25625,25626,25616,25623
201908240443,25623,25629,25611,25611
201908240444,25611,25624,25609,25613
201908240445,25613,25633,25613,25629
201908240446,25629,25646,25629,25642
201908240447,25642,25644,25623,25623
201908240448,25624,25626,25610,25614
201908240449,25612,25615,25589,25589
201908240450,25591,25598,25574,25576
201908240451,25576,25581,25551,25551
201908240452,25553,25562,25542,25544
201908240453,25544,25551,25528,25532
201908240454,25532,25543,25511,25513
201908240455,25513,25537,25493,25505
201908240456,25505,25521,25491,25503
201908240457,25503,25520,25496,25520
201908240458,25518,25549,25518,25549
201908240459,25550,25626,25544,25617
201908240500,25617,25664,25617,25636
201908240501,25638,25682,25633,25672
201908240502,25672,25699,25660,25693
201908240503,25693,25708,25674,25707
201908240504,25707,25707,25682,25699
201908240505,25699,25699,25671,25681
201908240506,25681,25681,25659,25659
201908240507,25662,25672,25658,25672
201908240508,25672,25683,25666,25673
201908240509,25673,25691,25668,25675
201908240510,25677,25679,25667,25675
201908240511,25674,25674,25660,25660
201908240512,25660,25662,25653,25657
201908240513,25657,25665,25655,25655
201908240514,25655,25681,25655,25667
