日時,始値(BID),高値(BID),安値(BID),終値(BID)
201908290700,26000,26000,25981,25992
201908290701,25993,26001,25993,25994
201908290702,25994,26000,25990,26000
201908290703,26000,26002,25996,25997
201908290704,25997,26006,25993,26005
201908290705,26005,26007,26002,26007
201908290706,26006,26011,26005,26005
201908290707,26005,26008,26001,26004
201908290708,26004,26008,26004,26007
201908290709,26007,26015,26007,26014
201908290710,26014,26016,26014,26014
201908290711,26014,26014,26006,26009
201908290712,26009,26014,26008,26014
201908290713,26014,26017,26011,26011
201908290714,26011,26014,26010,26011
201908290715,26011,26012,26008,26010
201908290716,26011,26021,26011,26021
201908290717,26022,26022,26018,26018
201908290718,26018,26023,26018,26022
201908290719,26022,26024,26021,26021
201908290720,26021,26025,26017,26025
201908290721,26025,26025,26015,26016
201908290722,26016,26021,26016,26019
201908290723,26019,26021,26017,26021
201908290724,26021,26021,26015,26015
201908290725,26015,26018,26015,26016
201908290726,26016,26018,26014,26017
201908290727,26017,26020,26015,26020
201908290728,26020,26022,26018,26021
201908290729,26021,26023,26020,26023
201908290730,26023,26026,26022,26025
201908290731,26025,26026,26020,26021
201908290732,26021,26026,26021,26024
201908290733,26024,26032,26024,26028
201908290734,26027,26028,26025,26028
201908290735,26028,26028,26024,26025
201908290736,26025,26026,26017,26017
201908290737,26018,26018,26013,26015
201908290738,26015,26017,26015,26017
201908290739,26017,26017,26014,26014
201908290740,26014,26017,26014,26016
201908290741,26016,26016,26012,26012
201908290742,26013,26013,26010,26010
201908290743,26009,26010,26005,26007
201908290744,26007,26008,26006,26008
201908290745,26008,26015,26008,26013
201908290746,26013,26013,26008,26011
201908290747,26011,26012,26010,26010
201908290748,26010,26016,26010,26014
201908290749,26014,26020,26014,26019
201908290750,26018,26021,26017,26020
201908290751,26020,26020,26016,26016
201908290752,26016,26018,26016,26018
201908290753,26018,26018,26015,26015
201908290754,26015,26017,26015,26017
201908290755,26016,26017,26015,26017
201908290756,26016,26016,26013,26014
201908290757,26013,26014,26012,26014
201908290758,26014,26016,26012,26013
201908290759,26013,26013,26012,26012
201908290800,26012,26012,26007,26007
201908290801,26007,26009,26005,26007
201908290802,26007,26008,26005,26005
201908290803,26005,26009,26005,26009
201908290804,26009,26009,26003,26005
201908290805,26005,26008,26004,26006
201908290806,26005,26006,26000,26003
201908290807,26004,26005,26004,26004
201908290808,26004,26005,26004,26005
201908290809,26005,26008,26005,26006
201908290810,26006,26010,26005,26009
201908290811,26009,26009,26001,26002
201908290812,26002,26004,25996,25997
201908290813,25997,25997,25991,25992
201908290814,25992,25996,25992,25996
201908290815,25996,26003,25996,26003
201908290816,26003,26007,26002,26003
201908290817,26003,26004,26001,26002
201908290818,26002,26004,26000,26002
201908290819,26002,26007,26001,26001
201908290820,26001,26010,26001,26009
201908290821,26009,26010,26008,26008
201908290822,26008,26010,26007,26010
201908290823,26010,26013,26010,26010
201908290824,26010,26010,26008,26008
201908290825,26008,26008,26005,26005
201908290826,26005,26007,26005,26006
201908290827,26006,26006,26002,26002
201908290828,26002,26003,26001,26003
201908290829,26003,26005,26003,26004
201908290830,26005,26005,26003,26005
201908290831,26005,26008,26005,26005
201908290832,26006,26006,26003,26003
201908290833,26003,26011,26003,26011
201908290834,26011,26011,26008,26008
201908290835,26009,26009,26003,26003
201908290836,26003,26005,26002,26002
201908290837,26002,26002,26001,26001
201908290838,26001,26005,26001,26005
201908290839,26005,26005,26004,26005
201908290840,26005,26008,26004,26004
201908290841,26004,26006,26003,26004
201908290842,26004,26004,26000,26002
201908290843,26001,26001,25991,25991
201908290844,25991,25993,25989,25989
201908290845,25989,25997,25988,25996
201908290846,25995,25999,25994,25996
201908290847,25996,25997,25995,25995
201908290848,25995,25996,25991,25993
201908290849,25993,25995,25993,25995
201908290850,25995,25996,25990,25990
201908290851,25990,25992,25989,25989
201908290852,25989,25994,25989,25993
201908290853,25993,25994,25990,25992
201908290854,25992,25994,25990,25993
201908290855,25993,25995,25992,25993
201908290856,25993,25993,25989,25989
201908290857,25989,25991,25988,25990
201908290858,25989,25992,25988,25992
201908290859,25992,26000,25992,26000
201908290900,26000,26010,25999,26008
201908290901,26008,26013,26008,26010
201908290902,26010,26010,26005,26005
201908290903,26004,26007,26000,26003
201908290904,26003,26003,25999,26003
201908290905,26003,26010,26003,26007
201908290906,26008,26009,26001,26002
201908290907,26002,26004,25995,25998
201908290908,25997,26001,25997,25998
201908290909,25997,25999,25989,25991
201908290910,25991,25996,25991,25993
201908290911,25993,25995,25987,25988
201908290912,25988,25991,25987,25989
201908290913,25988,25990,25981,25981
201908290914,25982,25988,25980,25983
201908290915,25983,25985,25978,25979
201908290916,25979,25983,25974,25982
201908290917,25982,25986,25981,25985
201908290918,25985,25990,25984,25988
201908290919,25988,25991,25986,25986
201908290920,25985,25985,25978,25984
201908290921,25983,25987,25983,25986
201908290922,25986,25990,25985,25990
201908290923,25990,25990,25986,25986
201908290924,25987,25989,25984,25986
201908290925,25986,25990,25984,25984
201908290926,25985,25990,25985,25989
201908290927,25989,25992,25989,25992
201908290928,25992,25994,25990,25990
201908290929,25990,25993,25989,25990
201908290930,25990,25991,25989,25989
201908290931,25989,25989,25983,25986
201908290932,25987,25989,25986,25988
201908290933,25987,25989,25985,25987
201908290934,25987,25990,25987,25990
201908290935,25989,25990,25987,25988
201908290936,25988,25993,25988,25992
201908290937,25992,25992,25990,25990
201908290938,25990,25992,25990,25991
201908290939,25991,25993,25991,25993
201908290940,25993,25997,25993,25996
201908290941,25996,25999,25996,25998
201908290942,25998,25999,25995,25995
201908290943,25995,25996,25994,25995
201908290944,25995,25998,25995,25997
201908290945,25997,25998,25994,25994
201908290946,25994,25997,25993,25993
201908290947,25993,25994,25989,25994
201908290948,25994,25995,25989,25989
201908290949,25989,25991,25985,25986
201908290950,25985,25987,25985,25986
201908290951,25985,25985,25983,25985
201908290952,25986,25987,25985,25986
201908290953,25986,25986,25982,25982
201908290954,25982,25984,25982,25984
201908290955,25984,25986,25983,25985
201908290956,25985,25990,25983,25989
201908290957,25989,25993,25989,25992
201908290958,25992,25992,25988,25990
201908290959,25991,25992,25988,25988
201908291000,25988,25988,25981,25986
201908291001,25987,25987,25982,25983
201908291002,25983,25985,25983,25985
201908291003,25985,25985,25983,25984
201908291004,25983,25983,25976,25977
201908291005,25977,25982,25974,25975
201908291006,25974,25977,25974,25976
201908291007,25976,25984,25976,25983
201908291008,25983,25985,25982,25983
201908291009,25983,25983,25977,25977
201908291010,25977,25979,25968,25971
201908291011,25971,25972,25968,25969
201908291012,25969,25976,25969,25976
201908291013,25976,25976,25970,25971
201908291014,25971,25972,25966,25966
201908291015,25966,25979,25965,25968
201908291016,25968,25968,25960,25960
201908291017,25961,25962,25954,25959
201908291018,25959,25960,25955,25956
201908291019,25956,25960,25956,25959
201908291020,25959,25960,25951,25953
201908291021,25953,25959,25948,25957
201908291022,25957,25959,25954,25957
201908291023,25957,25961,25956,25960
201908291024,25960,25964,25960,25963
201908291025,25963,25963,25957,25960
201908291026,25960,25963,25960,25962
201908291027,25962,25963,25956,25956
201908291028,25956,25961,25956,25961
201908291029,25961,25961,25958,25959
201908291030,25959,25959,25951,25953
201908291031,25953,25954,25953,25953
201908291032,25953,25954,25939,25943
201908291033,25943,25945,25936,25944
201908291034,25944,25950,25942,25949
201908291035,25950,25950,25942,25944
201908291036,25944,25948,25939,25948
201908291037,25947,25947,25941,25941
201908291038,25941,25942,25935,25940
201908291039,25939,25942,25934,25936
201908291040,25936,25942,25934,25937
201908291041,25937,25939,25936,25936
201908291042,25936,25937,25932,25935
201908291043,25935,25936,25931,25931
201908291044,25931,25933,25929,25932
201908291045,25932,25932,25928,25932
201908291046,25933,25941,25931,25941
201908291047,25941,25944,25939,25943
201908291048,25944,25951,25942,25951
201908291049,25951,25951,25947,25950
201908291050,25950,25950,25943,25944
201908291051,25944,25946,25942,25944
201908291052,25944,25949,25944,25947
201908291053,25947,25949,25944,25947
201908291054,25947,25951,25945,25948
201908291055,25948,25949,25944,25945
201908291056,25945,25948,25945,25947
201908291057,25947,25947,25940,25942
201908291058,25942,25943,25940,25941
201908291059,25940,25942,25938,25939
201908291100,25939,25943,25938,25943
201908291101,25942,25947,25938,25947
201908291102,25947,25948,25945,25946
201908291103,25946,25951,25946,25951
201908291104,25951,25951,25946,25947
201908291105,25947,25947,25944,25947
201908291106,25946,25946,25939,25941
201908291107,25941,25942,25939,25939
201908291108,25939,25944,25939,25944
201908291109,25944,25945,25941,25944
201908291110,25944,25946,25941,25944
201908291111,25944,25948,25942,25948
201908291112,25948,25949,25946,25947
201908291113,25947,25948,25944,25946
201908291114,25946,25946,25943,25945
201908291115,25945,25945,25942,25943
201908291116,25943,25949,25943,25948
201908291117,25948,25951,25948,25950
201908291118,25951,25952,25950,25952
201908291119,25952,25954,25951,25953
201908291120,25954,25954,25950,25952
201908291121,25952,25952,25949,25949
201908291122,25949,25949,25947,25948
201908291123,25948,25950,25945,25950
201908291124,25950,25954,25949,25953
201908291125,25953,25953,25950,25953
201908291126,25953,25958,25953,25956
201908291127,25957,25959,25954,25958
201908291128,25958,25958,25956,25957
201908291129,25958,25959,25952,25952
201908291130,25952,25953,25947,25950
201908291131,25949,25950,25948,25950
201908291132,25950,25951,25948,25950
201908291133,25950,25959,25950,25959
201908291134,25958,25958,25956,25956
201908291135,25957,25966,25957,25966
201908291136,25966,25966,25962,25962
201908291137,25962,25966,25961,25966
201908291138,25965,25965,25963,25964
201908291139,25964,25965,25963,25964
201908291140,25964,25967,25964,25966
201908291141,25966,25968,25965,25965
201908291142,25965,25966,25962,25964
201908291143,25964,25964,25961,25962
201908291144,25962,25962,25959,25960
201908291145,25959,25961,25956,25957
201908291146,25957,25959,25955,25959
201908291147,25959,25959,25958,25958
201908291148,25958,25960,25957,25959
201908291149,25959,25961,25958,25960
201908291150,25960,25963,25960,25960
201908291151,25960,25962,25960,25961
201908291152,25961,25963,25961,25963
201908291153,25963,25964,25962,25964
201908291154,25965,25966,25964,25966
201908291155,25966,25969,25966,25969
201908291156,25970,25973,25970,25970
201908291157,25970,25974,25970,25973
201908291158,25973,25973,25970,25972
201908291159,25971,25974,25971,25972
201908291200,25972,25975,25970,25970
201908291201,25970,25970,25967,25968
201908291202,25968,25969,25965,25968
201908291203,25968,25969,25966,25967
201908291204,25968,25968,25967,25968
201908291205,25969,25970,25968,25968
201908291206,25968,25969,25968,25968
201908291207,25968,25969,25967,25968
201908291208,25968,25968,25962,25962
201908291209,25963,25964,25962,25964
201908291210,25964,25964,25958,25958
201908291211,25958,25958,25956,25957
201908291212,25957,25960,25957,25959
201908291213,25959,25962,25959,25962
201908291214,25962,25963,25960,25963
201908291215,25963,25965,25963,25965
201908291216,25965,25965,25963,25964
201908291217,25964,25964,25959,25960
201908291218,25960,25963,25958,25960
201908291219,25960,25962,25958,25961
201908291220,25961,25963,25961,25962
201908291221,25962,25963,25961,25963
201908291222,25963,25963,25960,25961
201908291223,25961,25962,25958,25960
201908291224,25959,25962,25959,25961
201908291225,25961,25961,25959,25959
201908291226,25959,25960,25959,25959
201908291227,25959,25966,25959,25966
201908291228,25966,25966,25962,25962
201908291229,25962,25965,25961,25963
201908291230,25963,25965,25961,25962
201908291231,25963,25967,25963,25967
201908291232,25966,25970,25966,25969
201908291233,25968,25970,25968,25968
201908291234,25968,25972,25968,25972
201908291235,25972,25973,25971,25972
201908291236,25972,25972,25968,25968
201908291237,25968,25968,25967,25968
201908291238,25968,25969,25967,25968
201908291239,25968,25968,25967,25967
201908291240,25967,25968,25966,25968
201908291241,25968,25969,25968,25968
201908291242,25968,25972,25968,25972
201908291243,25972,25975,25972,25974
201908291244,25974,25976,25974,25975
201908291245,25975,25975,25969,25970
201908291246,25971,25971,25968,25969
201908291247,25969,25970,25968,25970
201908291248,25970,25970,25968,25968
201908291249,25968,25970,25968,25969
201908291250,25970,25972,25970,25971
201908291251,25971,25972,25971,25972
201908291252,25972,25972,25970,25971
201908291253,25971,25971,25970,25971
201908291254,25971,25971,25969,25969
201908291255,25968,25969,25966,25966
201908291256,25966,25967,25965,25966
201908291257,25967,25969,25965,25966
201908291258,25966,25969,25965,25968
201908291259,25968,25972,25967,25971
201908291300,25971,25973,25971,25972
201908291301,25973,25976,25972,25973
201908291302,25973,25974,25972,25974
201908291303,25974,25975,25974,25975
201908291304,25975,25977,25974,25974
201908291305,25974,25975,25971,25972
201908291306,25972,25975,25972,25974
201908291307,25974,25975,25971,25972
201908291308,25972,25975,25972,25974
201908291309,25974,25974,25973,25973
201908291310,25973,25973,25971,25971
201908291311,25971,25972,25970,25971
201908291312,25971,25973,25970,25973
201908291313,25973,25973,25972,25973
201908291314,25973,25973,25971,25971
201908291315,25970,25972,25969,25971
201908291316,25972,25972,25970,25971
201908291317,25970,25973,25970,25973
201908291318,25973,25973,25972,25972
201908291319,25972,25972,25970,25971
201908291320,25971,25971,25969,25970
201908291321,25970,25970,25968,25969
201908291322,25969,25969,25968,25968
201908291323,25968,25969,25968,25968
201908291324,25968,25969,25968,25968
201908291325,25968,25974,25968,25974
201908291326,25974,25974,25972,25973
201908291327,25973,25973,25970,25971
201908291328,25972,25973,25968,25969
201908291329,25970,25972,25970,25971
201908291330,25972,25973,25971,25972
201908291331,25971,25973,25971,25971
201908291332,25971,25975,25971,25975
201908291333,25974,25974,25971,25973
201908291334,25973,25974,25972,25973
201908291335,25973,25974,25973,25974
201908291336,25975,25977,25974,25977
201908291337,25977,25980,25976,25976
201908291338,25977,25977,25976,25977
201908291339,25977,25978,25976,25977
201908291340,25976,25977,25976,25977
201908291341,25977,25981,25977,25978
201908291342,25978,25978,25976,25977
201908291343,25977,25979,25977,25977
201908291344,25977,25978,25977,25978
201908291345,25978,25981,25977,25981
201908291346,25981,25982,25980,25982
201908291347,25982,25982,25980,25982
201908291348,25982,25984,25981,25984
201908291349,25984,25985,25983,25984
201908291350,25984,25987,25984,25986
201908291351,25986,25986,25985,25985
201908291352,25985,25988,25984,25988
201908291353,25988,25989,25987,25988
201908291354,25987,25987,25984,25985
201908291355,25985,25986,25984,25985
201908291356,25984,25984,25982,25983
201908291357,25983,25985,25983,25985
201908291358,25985,25985,25983,25983
201908291359,25983,25984,25982,25983
201908291400,25983,25984,25982,25983
201908291401,25983,25983,25980,25981
201908291402,25980,25984,25980,25982
201908291403,25983,25984,25983,25983
201908291404,25983,25984,25981,25982
201908291405,25981,25986,25981,25982
201908291406,25981,25985,25981,25985
201908291407,25984,25989,25984,25989
201908291408,25989,25992,25987,25990
201908291409,25990,25991,25989,25990
201908291410,25991,25994,25990,25993
201908291411,25993,25994,25993,25994
201908291412,25994,26006,25994,26006
201908291413,26006,26006,26002,26004
201908291414,26004,26008,26004,26005
201908291415,26005,26005,26001,26002
201908291416,26002,26008,26002,26005
201908291417,26005,26015,26005,26013
201908291418,26013,26016,26013,26014
201908291419,26014,26018,26014,26018
201908291420,26018,26018,26015,26015
201908291421,26015,26015,26010,26010
201908291422,26010,26013,26010,26010
201908291423,26010,26011,26009,26009
201908291424,26009,26011,26009,26009
201908291425,26009,26010,26008,26010
201908291426,26010,26015,26010,26011
201908291427,26012,26014,26012,26012
201908291428,26012,26013,26010,26010
201908291429,26010,26014,26010,26013
201908291430,26013,26014,26009,26009
201908291431,26009,26013,26009,26012
201908291432,26012,26012,26009,26010
201908291433,26010,26011,26009,26011
201908291434,26010,26012,26008,26011
201908291435,26011,26011,26003,26005
201908291436,26005,26006,26001,26002
201908291437,26002,26003,26000,26000
201908291438,26000,26002,26000,26001
201908291439,26001,26002,25999,26000
201908291440,26000,26000,25991,25993
201908291441,25993,25994,25992,25992
201908291442,25991,25992,25989,25992
201908291443,25992,25993,25991,25992
201908291444,25992,25997,25991,25997
201908291445,25996,25997,25992,25994
201908291446,25994,25995,25993,25995
201908291447,25995,25995,25991,25991
201908291448,25991,25992,25990,25992
201908291449,25992,25992,25985,25985
201908291450,25986,25986,25977,25979
201908291451,25979,25981,25974,25980
201908291452,25980,25982,25977,25978
201908291453,25978,25980,25976,25980
201908291454,25981,25982,25975,25976
201908291455,25976,25980,25976,25979
201908291456,25979,25980,25975,25976
201908291457,25976,25979,25976,25978
201908291458,25979,25979,25977,25978
201908291459,25979,25979,25976,25978
201908291500,25978,25989,25978,25987
201908291501,25987,25993,25987,25990
201908291502,25990,25992,25987,25987
201908291503,25987,25994,25987,25994
201908291504,25994,25994,25986,25987
201908291505,25987,25989,25984,25985
201908291506,25985,25987,25983,25983
201908291507,25983,25984,25980,25982
201908291508,25982,25988,25982,25985
201908291509,25984,25987,25983,25986
201908291510,25986,25994,25983,25991
201908291511,25990,25998,25990,25995
201908291512,25995,25997,25988,25991
201908291513,25991,25992,25990,25992
201908291514,25992,25994,25988,25994
201908291515,25994,25996,25989,25989
201908291516,25989,25993,25989,25992
201908291517,25992,25994,25988,25990
201908291518,25990,25991,25983,25983
201908291519,25983,25987,25983,25986
201908291520,25986,25993,25986,25992
201908291521,25992,25997,25992,25997
201908291522,25997,26000,25993,25995
201908291523,25995,25997,25993,25993
201908291524,25993,25993,25990,25993
201908291525,25993,25996,25992,25994
201908291526,25994,25995,25990,25994
201908291527,25994,25995,25991,25992
201908291528,25992,25993,25981,25983
201908291529,25983,25988,25983,25985
201908291530,25985,25985,25979,25982
201908291531,25982,25985,25980,25983
201908291532,25983,25984,25982,25983
201908291533,25983,25985,25981,25981
201908291534,25981,25985,25981,25985
201908291535,25984,25987,25983,25983
201908291536,25983,25985,25982,25984
201908291537,25984,25986,25983,25983
201908291538,25984,25984,25983,25984
201908291539,25984,25988,25984,25986
201908291540,25986,25987,25986,25987
201908291541,25987,25990,25986,25987
201908291542,25988,25992,25988,25992
201908291543,25992,25996,25992,25992
201908291544,25992,25993,25990,25993
201908291545,25992,25994,25988,25988
201908291546,25988,25989,25983,25987
201908291547,25987,25989,25985,25986
201908291548,25986,25987,25985,25985
201908291549,25985,25987,25984,25985
201908291550,25985,25986,25984,25984
201908291551,25984,25984,25982,25984
201908291552,25985,25986,25984,25985
201908291553,25985,25985,25983,25984
201908291554,25984,25989,25983,25988
201908291555,25988,25990,25984,25984
201908291556,25985,25985,25983,25984
201908291557,25984,25988,25980,25987
201908291558,25987,25993,25983,25993
201908291559,25993,25996,25991,25992
201908291600,25993,26000,25984,25989
201908291601,25989,25990,25981,25982
201908291602,25982,25983,25968,25976
201908291603,25976,25981,25965,25976
201908291604,25976,25983,25971,25983
201908291605,25984,26012,25984,26010
201908291606,26009,26014,26006,26008
201908291607,26009,26026,26009,26020
201908291608,26019,26057,26016,26042
201908291609,26042,26046,26037,26043
201908291610,26043,26081,26041,26068
201908291611,26069,26079,26066,26067
201908291612,26067,26110,26066,26110
201908291613,26110,26192,26109,26184
201908291614,26192,26241,26179,26187
201908291615,26187,26206,26163,26164
201908291616,26164,26199,26163,26194
201908291617,26193,26214,26192,26196
201908291618,26196,26205,26190,26191
201908291619,26191,26201,26167,26174
201908291620,26174,26194,26174,26181
201908291621,26181,26187,26168,26178
201908291622,26178,26182,26169,26170
201908291623,26170,26183,26169,26172
201908291624,26172,26181,26171,26174
201908291625,26174,26177,26154,26154
201908291626,26158,26167,26148,26154
201908291627,26154,26164,26149,26157
201908291628,26157,26158,26150,26155
201908291629,26155,26155,26143,26147
201908291630,26147,26161,26144,26158
201908291631,26159,26179,26159,26174
201908291632,26174,26190,26172,26188
201908291633,26188,26188,26165,26165
201908291634,26165,26177,26165,26167
201908291635,26167,26183,26160,26175
201908291636,26175,26187,26175,26179
201908291637,26179,26183,26173,26177
201908291638,26177,26192,26177,26180
201908291639,26180,26189,26180,26180
201908291640,26180,26181,26173,26180
201908291641,26180,26195,26180,26191
201908291642,26190,26206,26190,26203
201908291643,26203,26205,26197,26200
201908291644,26200,26200,26190,26191
201908291645,26191,26208,26190,26208
201908291646,26208,26208,26195,26196
201908291647,26196,26203,26194,26202
201908291648,26201,26205,26201,26204
201908291649,26204,26223,26204,26220
201908291650,26220,26222,26214,26220
201908291651,26221,26222,26210,26210
201908291652,26210,26220,26210,26214
201908291653,26214,26221,26214,26217
201908291654,26217,26218,26209,26215
201908291655,26215,26220,26210,26211
201908291656,26211,26219,26210,26214
201908291657,26214,26220,26208,26215
201908291658,26215,26219,26212,26213
201908291659,26213,26215,26208,26215
201908291700,26215,26223,26213,26213
201908291701,26213,26213,26201,26201
201908291702,26201,26203,26194,26199
201908291703,26199,26203,26195,26196
201908291704,26196,26196,26188,26188
201908291705,26188,26195,26185,26193
201908291706,26194,26198,26192,26195
201908291707,26195,26197,26192,26195
201908291708,26194,26196,26192,26195
201908291709,26195,26199,26195,26197
201908291710,26197,26203,26193,26202
201908291711,26202,26207,26196,26196
201908291712,26196,26206,26192,26206
201908291713,26206,26210,26204,26205
201908291714,26205,26205,26196,26199
201908291715,26199,26209,26199,26207
201908291716,26207,26222,26207,26222
201908291717,26222,26223,26216,26222
201908291718,26222,26222,26214,26218
201908291719,26218,26224,26218,26222
201908291720,26222,26223,26217,26217
201908291721,26217,26221,26216,26216
201908291722,26216,26220,26212,26213
201908291723,26213,26215,26210,26214
201908291724,26214,26219,26211,26215
201908291725,26214,26218,26207,26209
201908291726,26209,26210,26204,26205
201908291727,26204,26207,26202,26205
201908291728,26205,26216,26205,26215
201908291729,26215,26217,26212,26213
201908291730,26213,26213,26202,26203
201908291731,26202,26207,26202,26203
201908291732,26203,26208,26200,26204
201908291733,26204,26211,26200,26211
201908291734,26210,26213,26207,26208
201908291735,26208,26211,26203,26210
201908291736,26210,26232,26210,26228
201908291737,26228,26228,26216,26221
201908291738,26221,26225,26219,26224
201908291739,26224,26225,26218,26218
201908291740,26218,26226,26218,26219
201908291741,26220,26221,26216,26221
201908291742,26221,26224,26219,26224
201908291743,26224,26235,26224,26234
201908291744,26235,26235,26221,26222
201908291745,26222,26224,26212,26213
201908291746,26213,26213,26202,26210
201908291747,26211,26215,26207,26212
201908291748,26212,26215,26210,26212
201908291749,26212,26215,26208,26213
201908291750,26213,26220,26211,26220
201908291751,26220,26229,26218,26229
201908291752,26228,26235,26226,26227
201908291753,26226,26226,26220,26223
201908291754,26223,26229,26223,26227
201908291755,26227,26228,26216,26218
201908291756,26218,26222,26216,26218
201908291757,26218,26218,26208,26208
201908291758,26209,26221,26209,26220
201908291759,26220,26225,26218,26224
201908291800,26224,26236,26224,26231
201908291801,26231,26235,26229,26234
201908291802,26234,26236,26231,26234
201908291803,26234,26263,26233,26261
201908291804,26261,26284,26260,26276
201908291805,26277,26282,26273,26277
201908291806,26277,26278,26269,26269
201908291807,26269,26274,26268,26269
201908291808,26269,26271,26265,26271
201908291809,26271,26272,26262,26267
201908291810,26267,26276,26267,26272
201908291811,26272,26278,26272,26275
201908291812,26275,26275,26269,26270
201908291813,26270,26276,26270,26275
201908291814,26275,26276,26267,26274
201908291815,26274,26277,26271,26273
201908291816,26273,26274,26264,26266
201908291817,26266,26273,26266,26269
201908291818,26269,26272,26267,26272
201908291819,26272,26272,26265,26265
201908291820,26266,26273,26258,26260
201908291821,26260,26261,26255,26260
201908291822,26261,26269,26260,26267
201908291823,26267,26270,26266,26270
201908291824,26270,26271,26265,26268
201908291825,26268,26275,26267,26273
201908291826,26273,26275,26267,26270
201908291827,26270,26272,26266,26266
201908291828,26266,26273,26266,26269
201908291829,26271,26274,26268,26273
201908291830,26273,26273,26261,26264
201908291831,26264,26271,26263,26268
201908291832,26268,26269,26265,26267
201908291833,26266,26269,26261,26262
201908291834,26262,26262,26260,26262
201908291835,26261,26271,26256,26267
201908291836,26268,26268,26258,26258
201908291837,26258,26263,26257,26261
201908291838,26261,26267,26261,26264
201908291839,26264,26268,26259,26261
201908291840,26261,26264,26257,26259
201908291841,26259,26270,26259,26269
201908291842,26269,26272,26266,26266
201908291843,26267,26270,26267,26268
201908291844,26268,26282,26265,26282
201908291845,26282,26297,26270,26279
201908291846,26279,26279,26271,26276
201908291847,26276,26278,26271,26272
201908291848,26272,26274,26265,26268
201908291849,26268,26276,26267,26276
201908291850,26276,26284,26275,26276
201908291851,26277,26278,26272,26272
201908291852,26272,26277,26272,26274
201908291853,26274,26277,26270,26274
201908291854,26275,26283,26275,26281
201908291855,26280,26283,26276,26282
201908291856,26281,26283,26278,26281
201908291857,26281,26283,26273,26279
201908291858,26279,26285,26275,26282
201908291859,26282,26282,26271,26273
201908291900,26273,26280,26271,26279
201908291901,26279,26285,26279,26279
201908291902,26279,26285,26279,26282
201908291903,26282,26282,26274,26277
201908291904,26277,26279,26275,26275
201908291905,26275,26275,26270,26275
201908291906,26275,26282,26273,26279
201908291907,26279,26291,26279,26289
201908291908,26289,26292,26283,26289
201908291909,26289,26298,26289,26296
201908291910,26297,26297,26287,26289
201908291911,26289,26291,26284,26287
201908291912,26286,26289,26285,26285
201908291913,26285,26291,26285,26289
201908291914,26289,26291,26288,26289
201908291915,26289,26294,26288,26294
201908291916,26294,26294,26284,26291
201908291917,26291,26296,26291,26293
201908291918,26293,26295,26290,26294
201908291919,26294,26295,26279,26279
201908291920,26279,26290,26279,26288
201908291921,26288,26294,26288,26290
201908291922,26290,26305,26290,26303
201908291923,26303,26307,26297,26307
201908291924,26307,26309,26298,26299
201908291925,26298,26306,26298,26302
201908291926,26302,26302,26293,26297
201908291927,26297,26300,26296,26299
201908291928,26299,26306,26298,26304
201908291929,26304,26305,26301,26304
201908291930,26304,26305,26299,26299
201908291931,26299,26302,26296,26296
201908291932,26296,26298,26287,26287
201908291933,26287,26294,26286,26293
201908291934,26293,26295,26290,26292
201908291935,26292,26294,26289,26290
201908291936,26290,26303,26290,26302
201908291937,26302,26302,26296,26300
201908291938,26300,26301,26298,26299
201908291939,26299,26302,26299,26301
201908291940,26301,26304,26298,26303
201908291941,26303,26303,26299,26301
201908291942,26301,26302,26299,26300
201908291943,26300,26303,26299,26303
201908291944,26302,26303,26293,26295
201908291945,26295,26303,26295,26300
201908291946,26300,26303,26298,26299
201908291947,26299,26304,26299,26301
201908291948,26301,26306,26300,26305
201908291949,26305,26310,26303,26304
201908291950,26304,26305,26299,26304
201908291951,26305,26308,26299,26304
201908291952,26304,26312,26301,26303
201908291953,26303,26306,26301,26302
201908291954,26301,26303,26299,26300
201908291955,26300,26306,26300,26305
201908291956,26305,26305,26302,26304
201908291957,26304,26306,26300,26301
201908291958,26301,26305,26297,26304
201908291959,26304,26308,26301,26308
201908292000,26308,26308,26300,26305
201908292001,26305,26307,26304,26305
201908292002,26305,26306,26302,26304
201908292003,26304,26305,26303,26303
201908292004,26303,26305,26302,26303
201908292005,26303,26306,26298,26298
201908292006,26298,26304,26297,26299
201908292007,26299,26301,26296,26296
201908292008,26296,26303,26295,26301
201908292009,26301,26304,26300,26300
201908292010,26300,26301,26295,26295
201908292011,26295,26296,26292,26292
201908292012,26292,26292,26288,26290
201908292013,26290,26291,26287,26290
201908292014,26290,26292,26285,26287
201908292015,26287,26292,26285,26290
201908292016,26290,26291,26286,26286
201908292017,26287,26289,26284,26285
201908292018,26285,26290,26284,26290
201908292019,26290,26292,26289,26289
201908292020,26289,26290,26285,26287
201908292021,26287,26292,26287,26290
201908292022,26290,26292,26290,26290
201908292023,26290,26294,26289,26291
201908292024,26291,26295,26291,26294
201908292025,26294,26296,26292,26292
201908292026,26292,26295,26288,26292
201908292027,26292,26293,26291,26291
201908292028,26291,26291,26285,26285
201908292029,26285,26291,26284,26291
201908292030,26291,26292,26288,26291
201908292031,26291,26292,26288,26288
201908292032,26288,26291,26284,26291
201908292033,26291,26292,26289,26289
201908292034,26289,26292,26271,26278
201908292035,26279,26292,26273,26289
201908292036,26289,26289,26282,26284
201908292037,26284,26287,26281,26281
201908292038,26281,26287,26280,26286
201908292039,26286,26287,26282,26282
201908292040,26282,26285,26282,26284
201908292041,26284,26287,26283,26286
201908292042,26286,26292,26285,26287
201908292043,26287,26291,26286,26289
201908292044,26289,26291,26288,26290
201908292045,26290,26292,26287,26291
201908292046,26290,26291,26289,26289
201908292047,26289,26293,26289,26293
201908292048,26293,26295,26291,26292
201908292049,26292,26297,26291,26297
201908292050,26297,26303,26295,26299
201908292051,26299,26305,26298,26304
201908292052,26304,26313,26303,26313
201908292053,26313,26313,26307,26307
201908292054,26307,26308,26305,26306
201908292055,26306,26306,26299,26303
201908292056,26303,26303,26298,26302
201908292057,26302,26306,26301,26303
201908292058,26303,26304,26299,26299
201908292059,26298,26302,26297,26302
201908292100,26302,26307,26290,26291
201908292101,26291,26302,26291,26301
201908292102,26301,26304,26298,26300
201908292103,26300,26305,26299,26304
201908292104,26304,26308,26301,26307
201908292105,26307,26311,26303,26307
201908292106,26307,26310,26304,26306
201908292107,26306,26306,26302,26302
201908292108,26302,26305,26302,26305
201908292109,26304,26311,26303,26307
201908292110,26307,26309,26303,26304
201908292111,26304,26306,26304,26305
201908292112,26306,26310,26305,26308
201908292113,26308,26311,26304,26305
201908292114,26305,26307,26303,26303
201908292115,26303,26304,26302,26302
201908292116,26302,26311,26302,26308
201908292117,26308,26319,26308,26313
201908292118,26313,26317,26311,26317
201908292119,26317,26317,26315,26317
201908292120,26317,26318,26313,26315
201908292121,26315,26318,26313,26315
201908292122,26315,26316,26313,26315
201908292123,26315,26320,26311,26320
201908292124,26320,26321,26312,26312
201908292125,26312,26314,26311,26314
201908292126,26314,26314,26309,26310
201908292127,26310,26313,26308,26311
201908292128,26311,26312,26308,26308
201908292129,26308,26313,26308,26313
201908292130,26313,26317,26313,26315
201908292131,26315,26315,26313,26314
201908292132,26314,26317,26313,26317
201908292133,26317,26318,26313,26313
201908292134,26313,26314,26308,26308
201908292135,26308,26311,26306,26307
201908292136,26307,26307,26303,26304
201908292137,26304,26304,26298,26299
201908292138,26300,26305,26299,26303
201908292139,26303,26306,26303,26304
201908292140,26304,26305,26300,26302
201908292141,26302,26302,26298,26299
201908292142,26299,26304,26299,26302
201908292143,26302,26303,26299,26302
201908292144,26301,26304,26299,26302
201908292145,26302,26303,26301,26303
201908292146,26303,26303,26297,26297
201908292147,26297,26302,26296,26300
201908292148,26300,26303,26295,26295
201908292149,26295,26296,26289,26291
201908292150,26291,26295,26290,26291
201908292151,26291,26294,26290,26291
201908292152,26290,26290,26288,26289
201908292153,26289,26293,26285,26291
201908292154,26291,26292,26287,26288
201908292155,26288,26288,26285,26286
201908292156,26286,26291,26286,26291
201908292157,26291,26293,26290,26292
201908292158,26292,26293,26290,26291
201908292159,26291,26292,26286,26288
201908292200,26288,26288,26277,26279
201908292201,26279,26279,26272,26275
201908292202,26275,26275,26270,26274
201908292203,26274,26276,26271,26272
201908292204,26272,26272,26267,26267
201908292205,26267,26271,26266,26271
201908292206,26270,26270,26266,26267
201908292207,26266,26271,26263,26271
201908292208,26271,26271,26267,26270
201908292209,26270,26271,26266,26267
201908292210,26267,26267,26264,26265
201908292211,26265,26265,26260,26263
201908292212,26263,26272,26263,26272
201908292213,26272,26281,26272,26276
201908292214,26276,26282,26276,26279
201908292215,26279,26280,26275,26278
201908292216,26278,26291,26278,26287
201908292217,26288,26289,26280,26280
201908292218,26279,26281,26278,26280
201908292219,26280,26281,26277,26278
201908292220,26278,26281,26278,26280
201908292221,26280,26284,26278,26281
201908292222,26281,26286,26280,26285
201908292223,26285,26287,26284,26286
201908292224,26286,26287,26282,26283
201908292225,26284,26286,26283,26283
201908292226,26284,26284,26281,26282
201908292227,26282,26288,26282,26285
201908292228,26285,26285,26278,26283
201908292229,26283,26287,26277,26279
201908292230,26279,26283,26271,26281
201908292231,26281,26314,26281,26314
201908292232,26314,26344,26314,26342
201908292233,26343,26345,26330,26333
201908292234,26333,26340,26330,26339
201908292235,26339,26349,26327,26331
201908292236,26331,26344,26318,26326
201908292237,26326,26339,26325,26334
201908292238,26333,26338,26329,26337
201908292239,26337,26343,26333,26335
201908292240,26335,26342,26319,26325
201908292241,26325,26337,26317,26318
201908292242,26318,26319,26293,26301
201908292243,26301,26323,26301,26313
201908292244,26313,26317,26301,26304
201908292245,26304,26326,26304,26320
201908292246,26322,26331,26319,26319
201908292247,26319,26321,26310,26314
201908292248,26314,26326,26314,26316
201908292249,26317,26318,26308,26318
201908292250,26319,26328,26311,26312
201908292251,26312,26325,26309,26323
201908292252,26323,26331,26319,26329
201908292253,26329,26331,26317,26328
201908292254,26328,26346,26327,26338
201908292255,26338,26339,26324,26324
201908292256,26324,26331,26324,26325
201908292257,26325,26332,26323,26329
201908292258,26330,26332,26326,26331
201908292259,26331,26339,26331,26337
201908292300,26337,26341,26326,26326
201908292301,26326,26327,26319,26321
201908292302,26322,26332,26317,26321
201908292303,26321,26326,26304,26304
201908292304,26305,26312,26304,26304
201908292305,26304,26310,26304,26304
201908292306,26304,26312,26304,26308
201908292307,26308,26310,26303,26307
201908292308,26308,26313,26306,26307
201908292309,26307,26315,26307,26311
201908292310,26311,26315,26305,26305
201908292311,26304,26305,26278,26283
201908292312,26284,26290,26276,26278
201908292313,26278,26288,26274,26285
201908292314,26284,26294,26282,26294
201908292315,26294,26302,26290,26290
201908292316,26290,26292,26276,26285
201908292317,26285,26288,26280,26280
201908292318,26280,26283,26278,26280
201908292319,26280,26281,26277,26278
201908292320,26279,26281,26269,26280
201908292321,26280,26280,26272,26279
201908292322,26278,26289,26278,26289
201908292323,26289,26302,26289,26300
201908292324,26300,26300,26291,26299
201908292325,26298,26303,26293,26302
201908292326,26302,26307,26291,26293
201908292327,26293,26299,26293,26298
201908292328,26297,26301,26295,26299
201908292329,26299,26301,26296,26297
201908292330,26297,26302,26286,26287
201908292331,26286,26292,26282,26285
201908292332,26286,26288,26278,26278
201908292333,26278,26285,26275,26282
201908292334,26282,26295,26282,26292
201908292335,26291,26297,26285,26285
201908292336,26285,26285,26256,26257
201908292337,26257,26257,26180,26193
201908292338,26190,26247,26181,26247
201908292339,26247,26251,26230,26230
201908292340,26235,26246,26229,26242
201908292341,26242,26273,26239,26263
201908292342,26263,26266,26253,26257
201908292343,26257,26260,26251,26255
201908292344,26255,26262,26244,26249
201908292345,26250,26253,26232,26238
201908292346,26238,26243,26219,26229
201908292347,26228,26232,26218,26231
201908292348,26232,26240,26220,26223
201908292349,26223,26237,26222,26235
201908292350,26235,26248,26232,26247
201908292351,26247,26251,26240,26247
201908292352,26247,26254,26244,26245
201908292353,26245,26251,26239,26250
201908292354,26250,26255,26246,26255
201908292355,26255,26255,26245,26249
201908292356,26249,26254,26246,26253
201908292357,26253,26260,26249,26260
201908292358,26260,26273,26260,26267
201908292359,26267,26280,26263,26277
201908300000,26277,26278,26264,26264
201908300001,26264,26270,26259,26265
201908300002,26264,26273,26264,26269
201908300003,26270,26275,26267,26270
201908300004,26270,26276,26266,26268
201908300005,26268,26284,26268,26283
201908300006,26283,26293,26281,26283
201908300007,26283,26288,26282,26288
201908300008,26288,26290,26281,26285
201908300009,26285,26290,26283,26286
201908300010,26286,26291,26284,26291
201908300011,26291,26298,26291,26295
201908300012,26295,26308,26295,26308
201908300013,26308,26320,26307,26317
201908300014,26317,26322,26314,26318
201908300015,26318,26319,26308,26311
201908300016,26311,26314,26306,26307
201908300017,26307,26309,26304,26307
201908300018,26307,26313,26304,26312
201908300019,26312,26316,26310,26314
201908300020,26314,26325,26314,26322
201908300021,26322,26326,26320,26321
201908300022,26322,26323,26316,26316
201908300023,26316,26321,26312,26321
201908300024,26320,26333,26320,26332
201908300025,26332,26337,26327,26328
201908300026,26329,26330,26326,26327
201908300027,26327,26328,26326,26328
201908300028,26328,26333,26328,26330
201908300029,26330,26332,26328,26330
201908300030,26330,26335,26326,26332
201908300031,26332,26336,26328,26336
201908300032,26337,26337,26328,26331
201908300033,26331,26342,26331,26342
201908300034,26342,26345,26339,26343
201908300035,26344,26356,26344,26353
201908300036,26354,26360,26353,26360
201908300037,26360,26365,26360,26362
201908300038,26363,26365,26360,26360
201908300039,26360,26363,26356,26357
201908300040,26357,26362,26353,26361
201908300041,26360,26364,26359,26362
201908300042,26362,26365,26361,26362
201908300043,26362,26366,26361,26362
201908300044,26362,26369,26361,26365
201908300045,26365,26371,26365,26371
201908300046,26371,26384,26371,26378
201908300047,26378,26386,26372,26383
201908300048,26383,26386,26380,26382
201908300049,26381,26385,26380,26385
201908300050,26386,26387,26383,26385
201908300051,26385,26385,26373,26374
201908300052,26374,26376,26370,26374
201908300053,26374,26381,26373,26377
201908300054,26377,26382,26375,26377
201908300055,26378,26380,26376,26378
201908300056,26378,26379,26366,26366
201908300057,26366,26367,26361,26367
201908300058,26368,26373,26367,26373
201908300059,26373,26375,26362,26362
201908300100,26363,26366,26350,26351
201908300101,26351,26357,26349,26356
201908300102,26356,26363,26356,26361
201908300103,26362,26367,26360,26360
201908300104,26360,26361,26356,26359
201908300105,26359,26366,26359,26364
201908300106,26363,26364,26357,26364
201908300107,26364,26365,26362,26364
201908300108,26364,26364,26358,26360
201908300109,26360,26361,26357,26360
201908300110,26361,26374,26361,26372
201908300111,26372,26375,26368,26372
201908300112,26372,26377,26369,26373
201908300113,26372,26373,26370,26371
201908300114,26371,26377,26369,26372
201908300115,26372,26374,26371,26373
201908300116,26373,26376,26373,26373
201908300117,26373,26373,26367,26371
201908300118,26371,26374,26370,26373
201908300119,26373,26376,26372,26376
201908300120,26376,26378,26373,26374
201908300121,26374,26374,26371,26372
201908300122,26372,26376,26372,26374
201908300123,26374,26376,26372,26375
201908300124,26376,26379,26374,26379
201908300125,26378,26378,26367,26368
201908300126,26368,26370,26367,26368
201908300127,26368,26371,26367,26368
201908300128,26368,26374,26368,26371
201908300129,26371,26371,26364,26364
201908300130,26364,26365,26360,26360
201908300131,26359,26368,26359,26366
201908300132,26366,26373,26366,26372
201908300133,26372,26378,26372,26377
201908300134,26377,26379,26375,26377
201908300135,26377,26378,26373,26378
201908300136,26377,26392,26377,26392
201908300137,26392,26393,26390,26393
201908300138,26392,26393,26391,26391
201908300139,26391,26391,26388,26389
201908300140,26389,26389,26386,26387
201908300141,26387,26389,26387,26388
201908300142,26389,26391,26386,26387
201908300143,26387,26388,26386,26388
201908300144,26388,26388,26383,26384
201908300145,26383,26387,26383,26387
201908300146,26387,26390,26386,26390
201908300147,26389,26390,26385,26386
201908300148,26386,26388,26381,26383
201908300149,26383,26388,26380,26382
201908300150,26382,26383,26372,26372
201908300151,26371,26378,26371,26375
201908300152,26375,26378,26373,26378
201908300153,26378,26382,26377,26381
201908300154,26381,26386,26380,26383
201908300155,26383,26385,26380,26382
201908300156,26382,26383,26380,26382
201908300157,26382,26386,26379,26381
201908300158,26381,26387,26381,26387
201908300159,26387,26387,26380,26380
201908300200,26380,26385,26378,26378
201908300201,26378,26382,26375,26378
201908300202,26377,26383,26372,26373
201908300203,26374,26383,26373,26383
201908300204,26383,26384,26380,26384
201908300205,26384,26385,26378,26380
201908300206,26379,26383,26378,26379
201908300207,26379,26381,26373,26377
201908300208,26376,26380,26376,26378
201908300209,26378,26381,26374,26375
201908300210,26375,26377,26373,26374
201908300211,26374,26377,26373,26377
201908300212,26377,26379,26370,26373
201908300213,26374,26377,26373,26376
201908300214,26376,26378,26374,26374
201908300215,26373,26374,26365,26369
201908300216,26369,26375,26368,26373
201908300217,26373,26376,26372,26374
201908300218,26373,26378,26373,26377
201908300219,26377,26378,26375,26377
201908300220,26377,26380,26377,26377
201908300221,26377,26381,26373,26379
201908300222,26379,26380,26374,26375
201908300223,26375,26377,26373,26373
201908300224,26373,26375,26371,26371
201908300225,26371,26371,26367,26370
201908300226,26371,26373,26368,26368
201908300227,26368,26369,26365,26368
201908300228,26368,26370,26366,26368
201908300229,26368,26369,26361,26362
201908300230,26362,26365,26361,26362
201908300231,26362,26363,26356,26358
201908300232,26358,26360,26358,26358
201908300233,26358,26359,26354,26355
201908300234,26355,26355,26349,26350
201908300235,26350,26356,26350,26356
201908300236,26356,26362,26354,26362
201908300237,26363,26383,26362,26381
201908300238,26381,26382,26377,26380
201908300239,26380,26384,26380,26383
201908300240,26383,26389,26382,26387
201908300241,26387,26389,26386,26387
201908300242,26387,26388,26383,26383
201908300243,26383,26385,26381,26381
201908300244,26381,26384,26380,26383
201908300245,26383,26386,26382,26383
201908300246,26383,26385,26382,26382
201908300247,26383,26387,26382,26387
201908300248,26387,26388,26383,26383
201908300249,26383,26386,26382,26385
201908300250,26385,26388,26385,26388
201908300251,26388,26392,26388,26389
201908300252,26388,26390,26386,26386
201908300253,26386,26389,26386,26388
201908300254,26388,26396,26388,26395
201908300255,26395,26400,26393,26393
201908300256,26393,26393,26382,26383
201908300257,26384,26385,26382,26385
201908300258,26384,26386,26383,26385
201908300259,26384,26386,26383,26384
201908300300,26385,26404,26385,26402
201908300301,26401,26401,26389,26389
201908300302,26389,26392,26389,26390
201908300303,26390,26395,26389,26393
201908300304,26393,26397,26393,26395
201908300305,26395,26401,26395,26397
201908300306,26397,26397,26389,26391
201908300307,26391,26394,26388,26394
201908300308,26394,26395,26391,26392
201908300309,26392,26400,26391,26399
201908300310,26398,26404,26398,26404
201908300311,26404,26404,26401,26402
201908300312,26402,26403,26400,26400
201908300313,26400,26403,26400,26402
201908300314,26402,26403,26401,26401
201908300315,26401,26401,26399,26401
201908300316,26401,26405,26395,26396
201908300317,26396,26396,26375,26376
201908300318,26376,26392,26371,26375
201908300319,26375,26377,26359,26367
201908300320,26367,26372,26361,26372
201908300321,26372,26377,26371,26376
201908300322,26376,26378,26374,26377
201908300323,26378,26380,26375,26379
201908300324,26379,26379,26374,26376
201908300325,26376,26379,26375,26376
201908300326,26377,26381,26376,26381
201908300327,26382,26393,26381,26389
201908300328,26390,26394,26387,26392
201908300329,26392,26393,26387,26392
201908300330,26392,26399,26390,26395
201908300331,26396,26399,26391,26398
201908300332,26398,26398,26393,26395
201908300333,26394,26395,26387,26393
201908300334,26393,26394,26387,26392
201908300335,26392,26392,26385,26385
201908300336,26385,26388,26382,26386
201908300337,26386,26388,26385,26386
201908300338,26386,26386,26381,26384
201908300339,26384,26390,26384,26386
201908300340,26387,26393,26386,26391
201908300341,26391,26396,26391,26392
201908300342,26392,26392,26379,26383
201908300343,26381,26387,26381,26385
201908300344,26385,26385,26379,26382
201908300345,26383,26385,26381,26384
201908300346,26384,26386,26374,26381
201908300347,26380,26382,26377,26382
201908300348,26382,26383,26380,26382
201908300349,26381,26383,26377,26383
201908300350,26383,26384,26374,26374
201908300351,26374,26377,26368,26377
201908300352,26377,26377,26371,26373
201908300353,26373,26378,26373,26376
201908300354,26376,26378,26373,26373
201908300355,26373,26375,26371,26374
201908300356,26374,26376,26371,26375
201908300357,26375,26376,26372,26375
201908300358,26375,26378,26372,26377
201908300359,26377,26377,26369,26374
201908300400,26374,26374,26365,26366
201908300401,26366,26366,26361,26365
201908300402,26365,26368,26361,26364
201908300403,26364,26366,26360,26365
201908300404,26365,26368,26362,26364
201908300405,26364,26371,26363,26368
201908300406,26368,26370,26366,26366
201908300407,26366,26366,26351,26352
201908300408,26353,26359,26348,26359
201908300409,26359,26359,26354,26355
201908300410,26354,26361,26354,26361
201908300411,26361,26363,26360,26363
201908300412,26362,26363,26358,26360
201908300413,26360,26362,26357,26358
201908300414,26358,26362,26356,26359
201908300415,26359,26361,26356,26356
201908300416,26356,26358,26353,26357
201908300417,26357,26364,26357,26364
201908300418,26364,26366,26361,26365
201908300419,26365,26365,26361,26365
201908300420,26365,26365,26354,26357
201908300421,26357,26357,26350,26350
201908300422,26350,26350,26341,26343
201908300423,26343,26350,26343,26348
201908300424,26348,26348,26342,26346
201908300425,26346,26351,26343,26344
201908300426,26344,26345,26340,26343
201908300427,26343,26343,26335,26337
201908300428,26337,26344,26334,26334
201908300429,26334,26339,26331,26336
201908300430,26337,26350,26336,26347
201908300431,26347,26353,26347,26348
201908300432,26348,26349,26341,26347
201908300433,26347,26347,26343,26345
201908300434,26345,26345,26342,26344
201908300435,26345,26345,26340,26345
201908300436,26345,26351,26341,26349
201908300437,26349,26357,26348,26357
201908300438,26357,26360,26356,26359
201908300439,26359,26361,26356,26361
201908300440,26361,26361,26357,26361
201908300441,26361,26361,26356,26360
201908300442,26360,26361,26358,26361
201908300443,26360,26361,26359,26361
201908300444,26361,26362,26355,26358
201908300445,26358,26358,26353,26355
201908300446,26355,26368,26355,26368
201908300447,26368,26371,26368,26370
201908300448,26370,26379,26366,26376
201908300449,26376,26378,26370,26371
201908300450,26371,26382,26369,26378
201908300451,26378,26378,26371,26371
201908300452,26372,26374,26368,26370
201908300453,26370,26370,26363,26366
201908300454,26366,26366,26354,26362
201908300455,26362,26370,26353,26356
201908300456,26356,26362,26350,26354
201908300457,26354,26354,26342,26344
201908300458,26344,26364,26338,26362
201908300459,26362,26365,26345,26354
201908300500,26357,26373,26357,26362
201908300501,26362,26375,26362,26369
201908300502,26369,26371,26365,26365
201908300503,26365,26371,26365,26371
201908300504,26371,26374,26364,26365
201908300505,26366,26366,26356,26363
201908300506,26363,26364,26357,26357
201908300507,26356,26361,26356,26358
201908300508,26358,26360,26357,26360
201908300509,26360,26360,26353,26360
201908300510,26359,26365,26359,26362
201908300511,26363,26367,26363,26367
201908300512,26368,26368,26363,26365
201908300513,26365,26368,26363,26368
201908300514,26368,26383,26367,26376
