日時,始値(BID),高値(BID),安値(BID),終値(BID)
201909270700,17.824,17.841,17.822,17.831
201909270701,17.829,17.841,17.825,17.831
201909270702,17.831,17.834,17.831,17.833
201909270703,17.831,17.835,17.827,17.827
201909270704,17.827,17.831,17.826,17.83
201909270705,17.83,17.831,17.827,17.831
201909270706,17.831,17.831,17.83,17.831
201909270707,17.831,17.831,17.827,17.827
201909270708,17.827,17.827,17.821,17.821
201909270709,17.821,17.821,17.815,17.815
201909270710,17.815,17.817,17.815,17.817
201909270711,17.817,17.819,17.812,17.817
201909270712,17.817,17.821,17.817,17.821
201909270713,17.821,17.822,17.818,17.818
201909270714,17.818,17.821,17.818,17.821
201909270715,17.821,17.824,17.82,17.82
201909270716,17.82,17.823,17.82,17.821
201909270717,17.821,17.822,17.821,17.821
201909270718,17.821,17.822,17.821,17.821
201909270719,17.821,17.821,17.819,17.819
201909270720,17.819,17.822,17.819,17.82
201909270721,17.82,17.822,17.818,17.82
201909270722,17.82,17.824,17.82,17.822
201909270723,17.822,17.824,17.82,17.822
201909270724,17.822,17.824,17.822,17.822
201909270725,17.822,17.823,17.822,17.822
201909270726,17.822,17.822,17.822,17.822
201909270727,17.822,17.823,17.821,17.822
201909270728,17.822,17.822,17.817,17.818
201909270729,17.818,17.818,17.817,17.818
201909270730,17.818,17.818,17.815,17.816
201909270731,17.817,17.817,17.815,17.815
201909270732,17.815,17.822,17.815,17.821
201909270733,17.821,17.821,17.819,17.82
201909270734,17.818,17.822,17.817,17.822
201909270735,17.822,17.822,17.817,17.817
201909270736,17.817,17.817,17.816,17.816
201909270737,17.816,17.817,17.816,17.817
201909270738,17.817,17.817,17.812,17.812
201909270739,17.812,17.813,17.812,17.812
201909270740,17.812,17.812,17.81,17.81
201909270741,17.81,17.816,17.81,17.816
201909270742,17.816,17.816,17.812,17.815
201909270743,17.816,17.816,17.815,17.816
201909270744,17.816,17.816,17.815,17.816
201909270745,17.816,17.816,17.815,17.815
201909270746,17.815,17.816,17.815,17.815
201909270747,17.816,17.816,17.815,17.816
201909270748,17.816,17.816,17.816,17.816
201909270749,17.816,17.816,17.815,17.816
201909270750,17.816,17.817,17.815,17.817
201909270751,17.817,17.821,17.816,17.821
201909270752,17.821,17.821,17.821,17.821
201909270753,17.821,17.821,17.82,17.821
201909270754,17.821,17.831,17.821,17.831
201909270755,17.831,17.831,17.831,17.831
201909270756,17.831,17.831,17.83,17.831
201909270757,17.831,17.831,17.83,17.83
201909270758,17.83,17.832,17.827,17.827
201909270759,17.827,17.836,17.827,17.836
201909270800,17.836,17.837,17.829,17.834
201909270801,17.834,17.84,17.834,17.839
201909270802,17.839,17.844,17.837,17.843
201909270803,17.843,17.844,17.837,17.839
201909270804,17.839,17.842,17.839,17.84
201909270805,17.84,17.843,17.838,17.843
201909270806,17.843,17.843,17.838,17.838
201909270807,17.838,17.838,17.838,17.838
201909270808,17.838,17.838,17.838,17.838
201909270809,17.838,17.839,17.838,17.838
201909270810,17.838,17.839,17.838,17.838
201909270811,17.838,17.839,17.833,17.833
201909270812,17.833,17.834,17.833,17.833
201909270813,17.833,17.833,17.831,17.833
201909270814,17.833,17.833,17.832,17.832
201909270815,17.832,17.833,17.829,17.833
201909270816,17.833,17.834,17.833,17.833
201909270817,17.833,17.835,17.833,17.833
201909270818,17.833,17.834,17.833,17.833
201909270819,17.833,17.833,17.828,17.833
201909270820,17.833,17.834,17.833,17.833
201909270821,17.833,17.834,17.832,17.832
201909270822,17.832,17.832,17.832,17.832
201909270823,17.832,17.839,17.832,17.839
201909270824,17.839,17.839,17.837,17.837
201909270825,17.837,17.838,17.837,17.838
201909270826,17.838,17.838,17.838,17.838
201909270827,17.838,17.838,17.832,17.833
201909270828,17.833,17.833,17.832,17.833
201909270829,17.833,17.833,17.833,17.833
201909270830,17.833,17.839,17.833,17.839
201909270831,17.839,17.839,17.838,17.839
201909270832,17.839,17.839,17.833,17.837
201909270833,17.837,17.838,17.837,17.838
201909270834,17.838,17.838,17.838,17.838
201909270835,17.838,17.838,17.837,17.837
201909270836,17.837,17.837,17.833,17.833
201909270837,17.833,17.839,17.833,17.838
201909270838,17.838,17.843,17.838,17.843
201909270839,17.843,17.843,17.841,17.843
201909270840,17.843,17.843,17.838,17.841
201909270841,17.841,17.843,17.838,17.843
201909270842,17.843,17.847,17.842,17.846
201909270843,17.846,17.847,17.845,17.846
201909270844,17.846,17.847,17.846,17.847
201909270845,17.847,17.847,17.843,17.843
201909270846,17.843,17.844,17.843,17.843
201909270847,17.843,17.852,17.843,17.852
201909270848,17.852,17.853,17.848,17.85
201909270849,17.852,17.856,17.852,17.856
201909270850,17.856,17.858,17.856,17.857
201909270851,17.858,17.858,17.858,17.858
201909270852,17.858,17.874,17.858,17.874
201909270853,17.874,17.874,17.867,17.868
201909270854,17.868,17.869,17.867,17.868
201909270855,17.868,17.871,17.867,17.87
201909270856,17.87,17.87,17.868,17.869
201909270857,17.868,17.869,17.867,17.868
201909270858,17.868,17.869,17.867,17.869
201909270859,17.869,17.869,17.868,17.868
201909270900,17.868,17.873,17.867,17.867
201909270901,17.867,17.867,17.863,17.864
201909270902,17.864,17.864,17.858,17.858
201909270903,17.858,17.858,17.857,17.858
201909270904,17.858,17.862,17.854,17.857
201909270905,17.857,17.857,17.854,17.855
201909270906,17.855,17.858,17.854,17.856
201909270907,17.856,17.856,17.853,17.853
201909270908,17.853,17.853,17.844,17.847
201909270909,17.847,17.849,17.847,17.848
201909270910,17.848,17.853,17.848,17.853
201909270911,17.853,17.858,17.853,17.858
201909270912,17.858,17.859,17.853,17.853
201909270913,17.854,17.859,17.854,17.859
201909270914,17.859,17.859,17.858,17.858
201909270915,17.858,17.862,17.858,17.862
201909270916,17.862,17.864,17.862,17.864
201909270917,17.864,17.864,17.862,17.863
201909270918,17.863,17.863,17.858,17.862
201909270919,17.862,17.862,17.858,17.862
201909270920,17.863,17.863,17.862,17.862
201909270921,17.862,17.864,17.862,17.864
201909270922,17.864,17.865,17.864,17.864
201909270923,17.864,17.868,17.863,17.868
201909270924,17.868,17.874,17.868,17.874
201909270925,17.874,17.878,17.873,17.878
201909270926,17.878,17.888,17.878,17.888
201909270927,17.888,17.888,17.874,17.877
201909270928,17.877,17.879,17.874,17.878
201909270929,17.878,17.879,17.874,17.874
201909270930,17.874,17.875,17.873,17.873
201909270931,17.87,17.873,17.869,17.873
201909270932,17.873,17.874,17.872,17.873
201909270933,17.873,17.873,17.87,17.872
201909270934,17.872,17.873,17.87,17.872
201909270935,17.872,17.872,17.868,17.868
201909270936,17.869,17.869,17.862,17.863
201909270937,17.863,17.864,17.855,17.863
201909270938,17.863,17.868,17.86,17.867
201909270939,17.867,17.874,17.867,17.873
201909270940,17.873,17.877,17.872,17.873
201909270941,17.874,17.874,17.872,17.873
201909270942,17.873,17.873,17.868,17.87
201909270943,17.871,17.871,17.867,17.868
201909270944,17.867,17.867,17.861,17.865
201909270945,17.866,17.867,17.859,17.86
201909270946,17.86,17.862,17.858,17.862
201909270947,17.862,17.866,17.861,17.865
201909270948,17.865,17.868,17.865,17.865
201909270949,17.865,17.865,17.855,17.855
201909270950,17.855,17.858,17.854,17.855
201909270951,17.855,17.855,17.853,17.854
201909270952,17.854,17.854,17.843,17.844
201909270953,17.844,17.848,17.843,17.844
201909270954,17.844,17.845,17.842,17.844
201909270955,17.844,17.848,17.844,17.848
201909270956,17.848,17.851,17.848,17.851
201909270957,17.85,17.85,17.844,17.846
201909270958,17.845,17.848,17.844,17.846
201909270959,17.846,17.849,17.844,17.849
201909271000,17.849,17.878,17.838,17.87
201909271001,17.87,17.87,17.863,17.868
201909271002,17.868,17.898,17.868,17.896
201909271003,17.895,17.897,17.883,17.884
201909271004,17.884,17.885,17.876,17.88
201909271005,17.88,17.88,17.864,17.864
201909271006,17.864,17.88,17.864,17.876
201909271007,17.877,17.879,17.874,17.874
201909271008,17.874,17.875,17.862,17.867
201909271009,17.867,17.875,17.863,17.875
201909271010,17.875,17.878,17.872,17.872
201909271011,17.872,17.874,17.857,17.857
201909271012,17.859,17.86,17.855,17.859
201909271013,17.86,17.86,17.854,17.855
201909271014,17.855,17.855,17.828,17.829
201909271015,17.829,17.846,17.828,17.844
201909271016,17.844,17.844,17.837,17.84
201909271017,17.84,17.847,17.838,17.847
201909271018,17.847,17.855,17.847,17.852
201909271019,17.852,17.854,17.843,17.843
201909271020,17.843,17.85,17.843,17.848
201909271021,17.848,17.855,17.848,17.852
201909271022,17.852,17.854,17.852,17.852
201909271023,17.852,17.858,17.849,17.853
201909271024,17.853,17.854,17.848,17.854
201909271025,17.854,17.857,17.852,17.857
201909271026,17.857,17.859,17.848,17.849
201909271027,17.849,17.849,17.843,17.849
201909271028,17.849,17.853,17.847,17.85
201909271029,17.85,17.853,17.847,17.849
201909271030,17.848,17.855,17.846,17.854
201909271031,17.854,17.866,17.853,17.862
201909271032,17.862,17.862,17.836,17.838
201909271033,17.837,17.843,17.836,17.837
201909271034,17.837,17.847,17.836,17.841
201909271035,17.841,17.841,17.83,17.831
201909271036,17.831,17.838,17.831,17.833
201909271037,17.833,17.833,17.827,17.833
201909271038,17.833,17.833,17.825,17.826
201909271039,17.828,17.83,17.824,17.828
201909271040,17.828,17.828,17.825,17.827
201909271041,17.827,17.827,17.816,17.818
201909271042,17.818,17.818,17.797,17.801
201909271043,17.802,17.813,17.801,17.813
201909271044,17.813,17.813,17.808,17.812
201909271045,17.812,17.816,17.809,17.812
201909271046,17.812,17.816,17.809,17.814
201909271047,17.814,17.818,17.812,17.817
201909271048,17.817,17.82,17.817,17.817
201909271049,17.817,17.822,17.817,17.822
201909271050,17.822,17.827,17.819,17.825
201909271051,17.825,17.827,17.823,17.824
201909271052,17.823,17.827,17.823,17.827
201909271053,17.827,17.837,17.827,17.832
201909271054,17.832,17.833,17.829,17.829
201909271055,17.829,17.837,17.828,17.834
201909271056,17.834,17.843,17.834,17.837
201909271057,17.837,17.837,17.83,17.837
201909271058,17.837,17.846,17.837,17.844
201909271059,17.844,17.846,17.842,17.842
201909271100,17.841,17.841,17.834,17.839
201909271101,17.839,17.839,17.837,17.838
201909271102,17.838,17.843,17.838,17.842
201909271103,17.842,17.849,17.84,17.847
201909271104,17.847,17.848,17.837,17.837
201909271105,17.837,17.838,17.837,17.837
201909271106,17.837,17.838,17.829,17.829
201909271107,17.829,17.833,17.827,17.828
201909271108,17.828,17.829,17.827,17.827
201909271109,17.827,17.828,17.823,17.825
201909271110,17.825,17.827,17.818,17.818
201909271111,17.818,17.818,17.808,17.808
201909271112,17.809,17.828,17.807,17.824
201909271113,17.824,17.824,17.815,17.822
201909271114,17.822,17.824,17.817,17.823
201909271115,17.823,17.827,17.823,17.825
201909271116,17.825,17.826,17.823,17.824
201909271117,17.824,17.827,17.824,17.824
201909271118,17.824,17.825,17.823,17.824
201909271119,17.824,17.825,17.823,17.823
201909271120,17.823,17.824,17.821,17.821
201909271121,17.821,17.824,17.819,17.823
201909271122,17.823,17.826,17.821,17.822
201909271123,17.822,17.824,17.819,17.822
201909271124,17.823,17.825,17.817,17.824
201909271125,17.824,17.826,17.823,17.824
201909271126,17.824,17.825,17.823,17.825
201909271127,17.825,17.825,17.823,17.823
201909271128,17.823,17.824,17.82,17.82
201909271129,17.82,17.82,17.819,17.82
201909271130,17.82,17.825,17.82,17.822
201909271131,17.822,17.822,17.815,17.815
201909271132,17.815,17.817,17.809,17.813
201909271133,17.813,17.82,17.813,17.817
201909271134,17.817,17.818,17.814,17.814
201909271135,17.814,17.814,17.805,17.812
201909271136,17.812,17.817,17.812,17.814
201909271137,17.815,17.817,17.811,17.817
201909271138,17.817,17.817,17.808,17.809
201909271139,17.809,17.812,17.803,17.812
201909271140,17.812,17.814,17.811,17.811
201909271141,17.811,17.814,17.811,17.813
201909271142,17.814,17.824,17.812,17.822
201909271143,17.822,17.826,17.818,17.82
201909271144,17.82,17.823,17.819,17.822
201909271145,17.822,17.829,17.821,17.828
201909271146,17.828,17.828,17.823,17.827
201909271147,17.827,17.831,17.827,17.831
201909271148,17.831,17.832,17.826,17.827
201909271149,17.827,17.833,17.827,17.833
201909271150,17.833,17.833,17.832,17.832
201909271151,17.832,17.832,17.828,17.832
201909271152,17.832,17.837,17.831,17.835
201909271153,17.835,17.837,17.833,17.834
201909271154,17.834,17.835,17.832,17.834
201909271155,17.834,17.834,17.83,17.83
201909271156,17.83,17.833,17.828,17.832
201909271157,17.832,17.84,17.832,17.838
201909271158,17.838,17.841,17.835,17.84
201909271159,17.84,17.843,17.839,17.843
201909271200,17.843,17.847,17.842,17.844
201909271201,17.844,17.844,17.838,17.839
201909271202,17.839,17.839,17.838,17.839
201909271203,17.839,17.847,17.838,17.847
201909271204,17.847,17.853,17.847,17.851
201909271205,17.852,17.856,17.852,17.853
201909271206,17.853,17.856,17.849,17.849
201909271207,17.849,17.853,17.848,17.848
201909271208,17.848,17.854,17.848,17.853
201909271209,17.853,17.853,17.845,17.848
201909271210,17.848,17.85,17.842,17.843
201909271211,17.843,17.843,17.836,17.836
201909271212,17.836,17.837,17.836,17.837
201909271213,17.837,17.838,17.833,17.837
201909271214,17.836,17.838,17.836,17.838
201909271215,17.838,17.838,17.831,17.836
201909271216,17.836,17.836,17.827,17.835
201909271217,17.834,17.836,17.831,17.836
201909271218,17.836,17.836,17.829,17.835
201909271219,17.835,17.839,17.834,17.835
201909271220,17.835,17.839,17.833,17.839
201909271221,17.839,17.839,17.836,17.839
201909271222,17.839,17.839,17.839,17.839
201909271223,17.839,17.843,17.838,17.842
201909271224,17.841,17.844,17.84,17.84
201909271225,17.84,17.844,17.839,17.844
201909271226,17.844,17.85,17.844,17.85
201909271227,17.85,17.85,17.846,17.847
201909271228,17.847,17.849,17.847,17.847
201909271229,17.847,17.847,17.842,17.842
201909271230,17.842,17.842,17.838,17.838
201909271231,17.838,17.84,17.838,17.839
201909271232,17.839,17.841,17.838,17.84
201909271233,17.84,17.842,17.839,17.841
201909271234,17.84,17.842,17.84,17.842
201909271235,17.842,17.842,17.842,17.842
201909271236,17.842,17.843,17.842,17.842
201909271237,17.842,17.852,17.842,17.852
201909271238,17.852,17.853,17.85,17.851
201909271239,17.85,17.852,17.85,17.852
201909271240,17.851,17.851,17.845,17.846
201909271241,17.846,17.847,17.846,17.847
201909271242,17.847,17.847,17.845,17.847
201909271243,17.847,17.849,17.845,17.846
201909271244,17.846,17.85,17.846,17.849
201909271245,17.849,17.853,17.848,17.853
201909271246,17.853,17.853,17.85,17.85
201909271247,17.85,17.85,17.846,17.846
201909271248,17.846,17.846,17.839,17.841
201909271249,17.841,17.842,17.838,17.84
201909271250,17.84,17.84,17.839,17.84
201909271251,17.84,17.845,17.84,17.845
201909271252,17.845,17.845,17.844,17.845
201909271253,17.845,17.845,17.841,17.842
201909271254,17.843,17.844,17.84,17.84
201909271255,17.84,17.844,17.84,17.843
201909271256,17.843,17.844,17.842,17.844
201909271257,17.844,17.845,17.844,17.845
201909271258,17.845,17.845,17.844,17.845
201909271259,17.845,17.845,17.844,17.845
201909271300,17.845,17.849,17.843,17.845
201909271301,17.845,17.845,17.843,17.845
201909271302,17.844,17.846,17.842,17.844
201909271303,17.841,17.844,17.841,17.844
201909271304,17.844,17.844,17.842,17.843
201909271305,17.844,17.844,17.841,17.844
201909271306,17.844,17.844,17.841,17.842
201909271307,17.842,17.842,17.837,17.838
201909271308,17.838,17.84,17.838,17.839
201909271309,17.839,17.84,17.838,17.839
201909271310,17.839,17.84,17.838,17.838
201909271311,17.838,17.844,17.838,17.843
201909271312,17.843,17.843,17.841,17.842
201909271313,17.842,17.844,17.842,17.843
201909271314,17.843,17.843,17.84,17.841
201909271315,17.841,17.846,17.84,17.846
201909271316,17.846,17.846,17.843,17.844
201909271317,17.844,17.844,17.843,17.844
201909271318,17.844,17.846,17.841,17.845
201909271319,17.844,17.845,17.842,17.844
201909271320,17.844,17.845,17.842,17.845
201909271321,17.845,17.845,17.842,17.842
201909271322,17.842,17.844,17.842,17.844
201909271323,17.844,17.844,17.841,17.841
201909271324,17.841,17.841,17.84,17.841
201909271325,17.841,17.841,17.839,17.839
201909271326,17.837,17.837,17.835,17.836
201909271327,17.836,17.836,17.831,17.836
201909271328,17.836,17.839,17.835,17.839
201909271329,17.839,17.839,17.837,17.839
201909271330,17.839,17.84,17.839,17.839
201909271331,17.839,17.839,17.836,17.836
201909271332,17.836,17.836,17.835,17.836
201909271333,17.836,17.836,17.833,17.836
201909271334,17.836,17.844,17.836,17.844
201909271335,17.844,17.846,17.844,17.844
201909271336,17.844,17.845,17.844,17.844
201909271337,17.844,17.845,17.839,17.842
201909271338,17.842,17.842,17.842,17.842
201909271339,17.841,17.843,17.84,17.841
201909271340,17.841,17.841,17.835,17.839
201909271341,17.84,17.84,17.837,17.837
201909271342,17.837,17.838,17.835,17.835
201909271343,17.835,17.838,17.835,17.838
201909271344,17.838,17.84,17.835,17.84
201909271345,17.84,17.843,17.84,17.843
201909271346,17.841,17.841,17.839,17.841
201909271347,17.841,17.843,17.841,17.841
201909271348,17.841,17.846,17.841,17.846
201909271349,17.846,17.847,17.845,17.846
201909271350,17.846,17.847,17.845,17.846
201909271351,17.846,17.846,17.846,17.846
201909271352,17.846,17.848,17.846,17.847
201909271353,17.847,17.849,17.846,17.849
201909271354,17.849,17.85,17.849,17.85
201909271355,17.85,17.853,17.85,17.851
201909271356,17.851,17.852,17.848,17.848
201909271357,17.848,17.85,17.848,17.849
201909271358,17.849,17.849,17.847,17.848
201909271359,17.848,17.849,17.848,17.848
201909271400,17.848,17.85,17.846,17.85
201909271401,17.85,17.853,17.85,17.851
201909271402,17.851,17.855,17.85,17.853
201909271403,17.853,17.855,17.853,17.855
201909271404,17.855,17.856,17.855,17.856
201909271405,17.856,17.857,17.855,17.856
201909271406,17.855,17.856,17.855,17.856
201909271407,17.856,17.856,17.855,17.855
201909271408,17.855,17.857,17.855,17.857
201909271409,17.857,17.857,17.855,17.856
201909271410,17.857,17.857,17.856,17.857
201909271411,17.857,17.857,17.852,17.852
201909271412,17.852,17.852,17.849,17.85
201909271413,17.85,17.85,17.849,17.85
201909271414,17.85,17.85,17.844,17.846
201909271415,17.846,17.846,17.843,17.845
201909271416,17.845,17.85,17.845,17.85
201909271417,17.85,17.853,17.849,17.851
201909271418,17.851,17.852,17.845,17.847
201909271419,17.846,17.85,17.846,17.847
201909271420,17.847,17.847,17.846,17.847
201909271421,17.847,17.848,17.845,17.846
201909271422,17.846,17.847,17.845,17.847
201909271423,17.847,17.847,17.845,17.845
201909271424,17.845,17.845,17.843,17.844
201909271425,17.844,17.844,17.842,17.843
201909271426,17.841,17.844,17.84,17.843
201909271427,17.843,17.847,17.843,17.845
201909271428,17.845,17.847,17.845,17.845
201909271429,17.845,17.845,17.829,17.832
201909271430,17.832,17.839,17.83,17.831
201909271431,17.829,17.833,17.827,17.828
201909271432,17.828,17.828,17.821,17.824
201909271433,17.824,17.824,17.817,17.818
201909271434,17.818,17.82,17.818,17.82
201909271435,17.82,17.82,17.81,17.813
201909271436,17.812,17.815,17.81,17.814
201909271437,17.814,17.816,17.813,17.814
201909271438,17.814,17.814,17.808,17.808
201909271439,17.808,17.812,17.808,17.81
201909271440,17.81,17.813,17.807,17.81
201909271441,17.81,17.81,17.801,17.801
201909271442,17.801,17.805,17.794,17.805
201909271443,17.805,17.809,17.805,17.808
201909271444,17.808,17.81,17.808,17.809
201909271445,17.81,17.81,17.806,17.806
201909271446,17.806,17.806,17.8,17.805
201909271447,17.805,17.817,17.805,17.816
201909271448,17.816,17.821,17.816,17.82
201909271449,17.821,17.821,17.806,17.806
201909271450,17.807,17.814,17.803,17.812
201909271451,17.812,17.812,17.806,17.808
201909271452,17.808,17.81,17.805,17.81
201909271453,17.81,17.81,17.801,17.802
201909271454,17.802,17.802,17.799,17.801
201909271455,17.801,17.801,17.787,17.788
201909271456,17.79,17.798,17.788,17.794
201909271457,17.794,17.796,17.793,17.795
201909271458,17.793,17.794,17.787,17.79
201909271459,17.79,17.79,17.779,17.781
201909271500,17.78,17.796,17.78,17.794
201909271501,17.794,17.795,17.786,17.79
201909271502,17.79,17.79,17.781,17.784
201909271503,17.784,17.785,17.779,17.781
201909271504,17.781,17.784,17.779,17.782
201909271505,17.782,17.784,17.78,17.784
201909271506,17.784,17.785,17.78,17.784
201909271507,17.784,17.786,17.779,17.779
201909271508,17.779,17.781,17.778,17.779
201909271509,17.779,17.779,17.759,17.759
201909271510,17.76,17.761,17.747,17.747
201909271511,17.747,17.754,17.744,17.746
201909271512,17.746,17.751,17.743,17.746
201909271513,17.745,17.746,17.73,17.74
201909271514,17.74,17.741,17.724,17.737
201909271515,17.737,17.744,17.731,17.742
201909271516,17.742,17.75,17.74,17.746
201909271517,17.746,17.754,17.744,17.753
201909271518,17.752,17.757,17.746,17.746
201909271519,17.746,17.747,17.729,17.73
201909271520,17.73,17.737,17.729,17.736
201909271521,17.736,17.736,17.718,17.724
201909271522,17.725,17.734,17.724,17.732
201909271523,17.732,17.742,17.732,17.741
201909271524,17.741,17.745,17.741,17.744
201909271525,17.744,17.744,17.736,17.736
201909271526,17.736,17.736,17.731,17.732
201909271527,17.732,17.737,17.731,17.731
201909271528,17.731,17.734,17.73,17.73
201909271529,17.73,17.731,17.721,17.723
201909271530,17.723,17.724,17.682,17.684
201909271531,17.683,17.692,17.672,17.672
201909271532,17.672,17.675,17.648,17.648
201909271533,17.648,17.654,17.621,17.621
201909271534,17.621,17.628,17.601,17.617
201909271535,17.617,17.617,17.579,17.604
201909271536,17.604,17.621,17.602,17.621
201909271537,17.621,17.629,17.601,17.621
201909271538,17.621,17.621,17.573,17.583
201909271539,17.584,17.595,17.574,17.574
201909271540,17.575,17.579,17.546,17.55
201909271541,17.553,17.557,17.526,17.533
201909271542,17.533,17.578,17.532,17.576
201909271543,17.577,17.578,17.545,17.546
201909271544,17.55,17.57,17.548,17.566
201909271545,17.566,17.587,17.564,17.58
201909271546,17.581,17.582,17.552,17.553
201909271547,17.549,17.557,17.531,17.541
201909271548,17.541,17.56,17.539,17.547
201909271549,17.547,17.548,17.487,17.495
201909271550,17.496,17.514,17.49,17.509
201909271551,17.506,17.524,17.484,17.49
201909271552,17.49,17.5,17.463,17.482
201909271553,17.479,17.479,17.444,17.446
201909271554,17.446,17.469,17.425,17.464
201909271555,17.472,17.48,17.455,17.47
201909271556,17.469,17.469,17.44,17.467
201909271557,17.465,17.516,17.46,17.51
201909271558,17.51,17.529,17.5,17.527
201909271559,17.525,17.542,17.52,17.524
201909271600,17.524,17.534,17.508,17.513
201909271601,17.513,17.514,17.493,17.511
201909271602,17.511,17.511,17.485,17.503
201909271603,17.503,17.517,17.497,17.504
201909271604,17.504,17.517,17.503,17.516
201909271605,17.516,17.517,17.506,17.511
201909271606,17.511,17.516,17.507,17.515
201909271607,17.515,17.515,17.49,17.49
201909271608,17.49,17.496,17.49,17.494
201909271609,17.494,17.506,17.494,17.506
201909271610,17.506,17.511,17.49,17.49
201909271611,17.487,17.493,17.481,17.493
201909271612,17.493,17.511,17.491,17.504
201909271613,17.504,17.51,17.49,17.494
201909271614,17.494,17.501,17.49,17.498
201909271615,17.498,17.512,17.496,17.504
201909271616,17.504,17.523,17.502,17.523
201909271617,17.523,17.536,17.522,17.532
201909271618,17.532,17.537,17.527,17.528
201909271619,17.529,17.542,17.529,17.541
201909271620,17.541,17.546,17.527,17.531
201909271621,17.533,17.533,17.522,17.525
201909271622,17.525,17.527,17.511,17.514
201909271623,17.514,17.52,17.508,17.508
201909271624,17.508,17.514,17.503,17.513
201909271625,17.513,17.516,17.505,17.515
201909271626,17.517,17.523,17.512,17.522
201909271627,17.522,17.528,17.52,17.521
201909271628,17.521,17.522,17.514,17.521
201909271629,17.521,17.521,17.516,17.521
201909271630,17.521,17.53,17.52,17.528
201909271631,17.528,17.544,17.528,17.543
201909271632,17.542,17.55,17.536,17.536
201909271633,17.536,17.543,17.529,17.543
201909271634,17.543,17.544,17.536,17.536
201909271635,17.536,17.543,17.533,17.543
201909271636,17.543,17.547,17.532,17.533
201909271637,17.533,17.551,17.533,17.543
201909271638,17.543,17.543,17.532,17.532
201909271639,17.532,17.54,17.527,17.537
201909271640,17.537,17.551,17.535,17.546
201909271641,17.546,17.558,17.545,17.557
201909271642,17.557,17.569,17.557,17.567
201909271643,17.567,17.568,17.556,17.566
201909271644,17.567,17.567,17.562,17.563
201909271645,17.563,17.572,17.561,17.572
201909271646,17.572,17.576,17.563,17.563
201909271647,17.563,17.563,17.557,17.562
201909271648,17.562,17.562,17.557,17.562
201909271649,17.562,17.563,17.558,17.56
201909271650,17.56,17.561,17.552,17.552
201909271651,17.552,17.57,17.552,17.57
201909271652,17.57,17.57,17.552,17.553
201909271653,17.553,17.553,17.545,17.553
201909271654,17.553,17.557,17.551,17.553
201909271655,17.554,17.556,17.55,17.555
201909271656,17.556,17.557,17.545,17.551
201909271657,17.551,17.552,17.547,17.552
201909271658,17.551,17.551,17.543,17.548
201909271659,17.547,17.555,17.546,17.551
201909271700,17.551,17.558,17.547,17.553
201909271701,17.553,17.568,17.553,17.567
201909271702,17.567,17.568,17.562,17.563
201909271703,17.563,17.563,17.556,17.557
201909271704,17.557,17.557,17.553,17.556
201909271705,17.556,17.557,17.546,17.548
201909271706,17.548,17.557,17.542,17.553
201909271707,17.553,17.563,17.552,17.558
201909271708,17.558,17.558,17.551,17.556
201909271709,17.556,17.557,17.551,17.552
201909271710,17.552,17.553,17.547,17.548
201909271711,17.548,17.557,17.543,17.556
201909271712,17.557,17.557,17.55,17.552
201909271713,17.552,17.555,17.546,17.547
201909271714,17.547,17.551,17.541,17.542
201909271715,17.542,17.546,17.541,17.541
201909271716,17.541,17.542,17.538,17.539
201909271717,17.539,17.543,17.539,17.539
201909271718,17.539,17.543,17.535,17.541
201909271719,17.541,17.545,17.537,17.537
201909271720,17.537,17.537,17.526,17.533
201909271721,17.533,17.538,17.532,17.533
201909271722,17.533,17.534,17.528,17.528
201909271723,17.528,17.528,17.526,17.527
201909271724,17.527,17.527,17.522,17.523
201909271725,17.522,17.527,17.522,17.523
201909271726,17.523,17.527,17.523,17.527
201909271727,17.527,17.527,17.52,17.526
201909271728,17.527,17.527,17.519,17.519
201909271729,17.518,17.518,17.503,17.503
201909271730,17.506,17.507,17.493,17.501
201909271731,17.501,17.512,17.495,17.511
201909271732,17.511,17.522,17.511,17.522
201909271733,17.522,17.531,17.522,17.53
201909271734,17.53,17.533,17.528,17.532
201909271735,17.532,17.532,17.527,17.527
201909271736,17.527,17.528,17.527,17.528
201909271737,17.528,17.528,17.527,17.527
201909271738,17.527,17.533,17.527,17.533
201909271739,17.533,17.543,17.533,17.538
201909271740,17.538,17.538,17.532,17.533
201909271741,17.533,17.533,17.528,17.533
201909271742,17.533,17.543,17.533,17.543
201909271743,17.543,17.548,17.543,17.545
201909271744,17.547,17.556,17.543,17.554
201909271745,17.554,17.554,17.543,17.544
201909271746,17.543,17.546,17.539,17.544
201909271747,17.544,17.555,17.544,17.553
201909271748,17.553,17.553,17.552,17.553
201909271749,17.553,17.553,17.547,17.548
201909271750,17.548,17.553,17.548,17.553
201909271751,17.553,17.553,17.548,17.549
201909271752,17.549,17.549,17.544,17.544
201909271753,17.544,17.544,17.527,17.527
201909271754,17.529,17.533,17.529,17.533
201909271755,17.533,17.533,17.529,17.531
201909271756,17.531,17.533,17.529,17.529
201909271757,17.529,17.532,17.526,17.526
201909271758,17.526,17.526,17.514,17.516
201909271759,17.516,17.521,17.515,17.521
201909271800,17.521,17.533,17.52,17.533
201909271801,17.533,17.538,17.532,17.532
201909271802,17.533,17.54,17.532,17.538
201909271803,17.538,17.542,17.537,17.542
201909271804,17.542,17.544,17.533,17.535
201909271805,17.535,17.535,17.527,17.531
201909271806,17.531,17.531,17.522,17.528
201909271807,17.528,17.532,17.527,17.527
201909271808,17.527,17.535,17.52,17.531
201909271809,17.531,17.538,17.53,17.538
201909271810,17.538,17.551,17.534,17.546
201909271811,17.547,17.547,17.536,17.538
201909271812,17.538,17.538,17.534,17.534
201909271813,17.534,17.541,17.534,17.539
201909271814,17.54,17.545,17.538,17.541
201909271815,17.541,17.548,17.541,17.548
201909271816,17.548,17.548,17.543,17.547
201909271817,17.546,17.549,17.543,17.543
201909271818,17.543,17.543,17.538,17.54
201909271819,17.54,17.541,17.534,17.534
201909271820,17.534,17.534,17.53,17.534
201909271821,17.535,17.543,17.535,17.541
201909271822,17.542,17.544,17.542,17.542
201909271823,17.542,17.546,17.54,17.542
201909271824,17.542,17.544,17.54,17.544
201909271825,17.544,17.544,17.538,17.539
201909271826,17.538,17.539,17.536,17.539
201909271827,17.539,17.539,17.528,17.528
201909271828,17.528,17.529,17.526,17.527
201909271829,17.528,17.53,17.524,17.524
201909271830,17.524,17.524,17.513,17.513
201909271831,17.513,17.519,17.512,17.518
201909271832,17.518,17.534,17.518,17.533
201909271833,17.532,17.534,17.525,17.53
201909271834,17.53,17.53,17.525,17.529
201909271835,17.529,17.539,17.529,17.534
201909271836,17.534,17.543,17.534,17.543
201909271837,17.543,17.544,17.538,17.543
201909271838,17.543,17.549,17.538,17.547
201909271839,17.547,17.555,17.547,17.554
201909271840,17.554,17.554,17.545,17.545
201909271841,17.545,17.552,17.545,17.552
201909271842,17.552,17.564,17.552,17.564
201909271843,17.564,17.567,17.563,17.564
201909271844,17.564,17.567,17.562,17.566
201909271845,17.566,17.566,17.555,17.555
201909271846,17.555,17.555,17.548,17.549
201909271847,17.549,17.549,17.539,17.539
201909271848,17.539,17.544,17.532,17.54
201909271849,17.538,17.543,17.538,17.539
201909271850,17.539,17.539,17.534,17.535
201909271851,17.535,17.535,17.527,17.529
201909271852,17.528,17.528,17.518,17.52
201909271853,17.52,17.523,17.518,17.519
201909271854,17.52,17.521,17.515,17.519
201909271855,17.519,17.523,17.515,17.519
201909271856,17.519,17.535,17.518,17.529
201909271857,17.528,17.529,17.502,17.509
201909271858,17.51,17.515,17.503,17.504
201909271859,17.504,17.509,17.503,17.506
201909271900,17.507,17.517,17.503,17.514
201909271901,17.514,17.514,17.504,17.504
201909271902,17.504,17.51,17.504,17.51
201909271903,17.51,17.519,17.51,17.519
201909271904,17.52,17.521,17.518,17.519
201909271905,17.519,17.526,17.509,17.509
201909271906,17.508,17.508,17.488,17.494
201909271907,17.494,17.5,17.489,17.495
201909271908,17.495,17.504,17.494,17.5
201909271909,17.5,17.511,17.5,17.509
201909271910,17.51,17.513,17.499,17.499
201909271911,17.499,17.499,17.48,17.485
201909271912,17.485,17.486,17.471,17.472
201909271913,17.472,17.491,17.471,17.481
201909271914,17.481,17.481,17.466,17.471
201909271915,17.471,17.472,17.459,17.461
201909271916,17.461,17.49,17.461,17.49
201909271917,17.49,17.49,17.476,17.477
201909271918,17.477,17.482,17.472,17.472
201909271919,17.471,17.482,17.47,17.482
201909271920,17.482,17.488,17.477,17.487
201909271921,17.487,17.489,17.486,17.487
201909271922,17.487,17.498,17.482,17.498
201909271923,17.498,17.499,17.492,17.497
201909271924,17.497,17.499,17.488,17.489
201909271925,17.489,17.497,17.489,17.497
201909271926,17.497,17.499,17.492,17.497
201909271927,17.492,17.492,17.487,17.489
201909271928,17.489,17.499,17.489,17.499
201909271929,17.499,17.5,17.487,17.487
201909271930,17.487,17.487,17.473,17.482
201909271931,17.482,17.482,17.473,17.478
201909271932,17.478,17.478,17.462,17.463
201909271933,17.464,17.464,17.457,17.464
201909271934,17.467,17.468,17.453,17.458
201909271935,17.458,17.463,17.456,17.462
201909271936,17.462,17.463,17.452,17.453
201909271937,17.453,17.455,17.437,17.454
201909271938,17.456,17.457,17.451,17.455
201909271939,17.456,17.457,17.452,17.453
201909271940,17.453,17.472,17.453,17.472
201909271941,17.472,17.489,17.472,17.489
201909271942,17.489,17.493,17.472,17.477
201909271943,17.477,17.487,17.477,17.482
201909271944,17.482,17.482,17.472,17.482
201909271945,17.482,17.489,17.473,17.488
201909271946,17.488,17.493,17.481,17.484
201909271947,17.484,17.492,17.482,17.492
201909271948,17.492,17.492,17.482,17.488
201909271949,17.489,17.489,17.483,17.488
201909271950,17.488,17.499,17.488,17.498
201909271951,17.498,17.503,17.497,17.499
201909271952,17.499,17.499,17.493,17.494
201909271953,17.493,17.494,17.489,17.493
201909271954,17.493,17.494,17.488,17.489
201909271955,17.488,17.499,17.484,17.499
201909271956,17.499,17.511,17.498,17.509
201909271957,17.509,17.513,17.507,17.513
201909271958,17.513,17.523,17.513,17.514
201909271959,17.514,17.518,17.512,17.513
201909272000,17.513,17.528,17.508,17.528
201909272001,17.528,17.531,17.522,17.522
201909272002,17.522,17.528,17.518,17.522
201909272003,17.522,17.522,17.508,17.508
201909272004,17.508,17.522,17.507,17.518
201909272005,17.518,17.522,17.512,17.513
201909272006,17.512,17.513,17.509,17.509
201909272007,17.509,17.51,17.509,17.51
201909272008,17.51,17.513,17.508,17.513
201909272009,17.513,17.513,17.509,17.512
201909272010,17.513,17.515,17.512,17.513
201909272011,17.513,17.513,17.508,17.509
201909272012,17.509,17.51,17.5,17.5
201909272013,17.5,17.505,17.499,17.503
201909272014,17.503,17.514,17.5,17.514
201909272015,17.514,17.523,17.513,17.519
201909272016,17.519,17.522,17.518,17.519
201909272017,17.519,17.544,17.518,17.543
201909272018,17.543,17.556,17.539,17.55
201909272019,17.551,17.56,17.549,17.56
201909272020,17.56,17.568,17.555,17.566
201909272021,17.566,17.566,17.56,17.565
201909272022,17.565,17.572,17.561,17.568
201909272023,17.568,17.573,17.565,17.573
201909272024,17.573,17.575,17.569,17.57
201909272025,17.57,17.572,17.569,17.57
201909272026,17.57,17.572,17.558,17.558
201909272027,17.558,17.569,17.553,17.567
201909272028,17.567,17.569,17.546,17.546
201909272029,17.546,17.546,17.529,17.533
201909272030,17.533,17.534,17.517,17.522
201909272031,17.522,17.523,17.512,17.522
201909272032,17.522,17.522,17.512,17.518
201909272033,17.518,17.521,17.508,17.517
201909272034,17.517,17.528,17.511,17.523
201909272035,17.523,17.533,17.518,17.533
201909272036,17.533,17.533,17.526,17.531
201909272037,17.528,17.528,17.517,17.524
201909272038,17.524,17.532,17.521,17.523
201909272039,17.523,17.523,17.517,17.522
201909272040,17.523,17.526,17.518,17.523
201909272041,17.524,17.527,17.522,17.523
201909272042,17.523,17.532,17.522,17.532
201909272043,17.532,17.532,17.523,17.523
201909272044,17.523,17.527,17.518,17.527
201909272045,17.527,17.529,17.527,17.528
201909272046,17.527,17.536,17.527,17.532
201909272047,17.532,17.552,17.532,17.552
201909272048,17.553,17.56,17.553,17.558
201909272049,17.558,17.558,17.552,17.553
201909272050,17.554,17.554,17.548,17.548
201909272051,17.548,17.557,17.547,17.554
201909272052,17.553,17.558,17.547,17.551
201909272053,17.551,17.551,17.541,17.542
201909272054,17.542,17.542,17.537,17.537
201909272055,17.537,17.556,17.536,17.549
201909272056,17.548,17.556,17.543,17.547
201909272057,17.547,17.552,17.541,17.55
201909272058,17.548,17.551,17.543,17.547
201909272059,17.547,17.551,17.545,17.547
201909272100,17.547,17.547,17.517,17.522
201909272101,17.522,17.524,17.517,17.522
201909272102,17.522,17.547,17.517,17.547
201909272103,17.548,17.552,17.543,17.546
201909272104,17.546,17.546,17.532,17.532
201909272105,17.532,17.532,17.517,17.518
201909272106,17.518,17.518,17.493,17.493
201909272107,17.493,17.494,17.479,17.486
201909272108,17.486,17.502,17.483,17.498
201909272109,17.497,17.497,17.466,17.482
201909272110,17.482,17.493,17.474,17.483
201909272111,17.483,17.493,17.465,17.469
201909272112,17.469,17.488,17.468,17.474
201909272113,17.474,17.488,17.473,17.482
201909272114,17.483,17.498,17.483,17.497
201909272115,17.497,17.509,17.493,17.504
201909272116,17.503,17.511,17.503,17.507
201909272117,17.508,17.513,17.505,17.505
201909272118,17.505,17.511,17.505,17.509
201909272119,17.51,17.515,17.505,17.512
201909272120,17.512,17.525,17.511,17.525
201909272121,17.525,17.525,17.514,17.517
201909272122,17.517,17.519,17.51,17.51
201909272123,17.51,17.517,17.505,17.517
201909272124,17.517,17.519,17.509,17.51
201909272125,17.51,17.519,17.497,17.502
201909272126,17.502,17.505,17.49,17.505
201909272127,17.505,17.532,17.505,17.531
201909272128,17.531,17.531,17.52,17.526
201909272129,17.526,17.54,17.522,17.536
201909272130,17.536,17.536,17.498,17.504
201909272131,17.504,17.527,17.502,17.523
201909272132,17.527,17.548,17.526,17.542
201909272133,17.542,17.568,17.534,17.568
201909272134,17.567,17.577,17.554,17.572
201909272135,17.572,17.577,17.558,17.57
201909272136,17.572,17.572,17.553,17.562
201909272137,17.563,17.574,17.559,17.572
201909272138,17.573,17.593,17.573,17.588
201909272139,17.588,17.59,17.582,17.584
201909272140,17.584,17.588,17.579,17.583
201909272141,17.583,17.592,17.579,17.588
201909272142,17.588,17.588,17.582,17.586
201909272143,17.586,17.592,17.56,17.572
201909272144,17.572,17.587,17.564,17.566
201909272145,17.566,17.58,17.562,17.577
201909272146,17.577,17.586,17.562,17.562
201909272147,17.562,17.572,17.562,17.564
201909272148,17.564,17.576,17.542,17.546
201909272149,17.544,17.551,17.538,17.546
201909272150,17.547,17.565,17.544,17.565
201909272151,17.565,17.568,17.553,17.56
201909272152,17.56,17.57,17.559,17.565
201909272153,17.565,17.57,17.561,17.565
201909272154,17.565,17.565,17.555,17.556
201909272155,17.556,17.556,17.545,17.547
201909272156,17.547,17.554,17.547,17.549
201909272157,17.549,17.555,17.545,17.554
201909272158,17.554,17.557,17.551,17.552
201909272159,17.551,17.564,17.551,17.561
201909272200,17.561,17.562,17.535,17.535
201909272201,17.535,17.535,17.517,17.526
201909272202,17.526,17.546,17.512,17.512
201909272203,17.51,17.541,17.51,17.538
201909272204,17.537,17.548,17.535,17.543
201909272205,17.542,17.552,17.535,17.544
201909272206,17.544,17.556,17.535,17.535
201909272207,17.534,17.538,17.504,17.515
201909272208,17.515,17.529,17.51,17.511
201909272209,17.511,17.525,17.506,17.512
201909272210,17.512,17.512,17.485,17.507
201909272211,17.507,17.517,17.496,17.514
201909272212,17.514,17.522,17.485,17.491
201909272213,17.491,17.497,17.474,17.485
201909272214,17.485,17.485,17.425,17.436
201909272215,17.437,17.451,17.421,17.435
201909272216,17.435,17.437,17.364,17.366
201909272217,17.366,17.38,17.302,17.33
201909272218,17.33,17.336,17.291,17.312
201909272219,17.311,17.345,17.306,17.336
201909272220,17.334,17.334,17.29,17.317
201909272221,17.317,17.331,17.313,17.331
201909272222,17.331,17.356,17.331,17.354
201909272223,17.354,17.368,17.349,17.349
201909272224,17.349,17.378,17.348,17.371
201909272225,17.371,17.377,17.352,17.354
201909272226,17.354,17.366,17.347,17.352
201909272227,17.352,17.367,17.351,17.361
201909272228,17.361,17.377,17.361,17.377
201909272229,17.377,17.387,17.362,17.367
201909272230,17.365,17.382,17.349,17.361
201909272231,17.361,17.361,17.327,17.358
201909272232,17.361,17.367,17.317,17.317
201909272233,17.317,17.336,17.306,17.316
201909272234,17.317,17.347,17.317,17.347
201909272235,17.347,17.351,17.332,17.346
201909272236,17.346,17.347,17.317,17.324
201909272237,17.323,17.337,17.319,17.319
201909272238,17.319,17.339,17.308,17.339
201909272239,17.338,17.354,17.337,17.337
201909272240,17.337,17.357,17.334,17.353
201909272241,17.353,17.385,17.353,17.383
201909272242,17.384,17.388,17.37,17.371
201909272243,17.369,17.376,17.358,17.358
201909272244,17.358,17.372,17.353,17.367
201909272245,17.367,17.381,17.357,17.38
201909272246,17.38,17.382,17.367,17.373
201909272247,17.373,17.373,17.353,17.358
201909272248,17.358,17.362,17.352,17.358
201909272249,17.358,17.358,17.337,17.348
201909272250,17.347,17.367,17.347,17.367
201909272251,17.367,17.387,17.366,17.383
201909272252,17.383,17.392,17.381,17.391
201909272253,17.391,17.401,17.378,17.378
201909272254,17.378,17.392,17.373,17.387
201909272255,17.387,17.411,17.385,17.401
201909272256,17.401,17.406,17.396,17.406
201909272257,17.404,17.423,17.397,17.417
201909272258,17.417,17.421,17.402,17.407
201909272259,17.407,17.409,17.398,17.406
201909272300,17.406,17.41,17.371,17.388
201909272301,17.387,17.397,17.382,17.397
201909272302,17.397,17.406,17.388,17.398
201909272303,17.398,17.419,17.398,17.419
201909272304,17.419,17.422,17.409,17.414
201909272305,17.414,17.46,17.408,17.454
201909272306,17.455,17.481,17.445,17.481
201909272307,17.48,17.48,17.463,17.463
201909272308,17.463,17.475,17.455,17.46
201909272309,17.46,17.468,17.454,17.455
201909272310,17.456,17.473,17.452,17.456
201909272311,17.456,17.47,17.452,17.47
201909272312,17.471,17.472,17.466,17.467
201909272313,17.467,17.493,17.452,17.49
201909272314,17.489,17.494,17.473,17.488
201909272315,17.488,17.504,17.488,17.504
201909272316,17.504,17.508,17.489,17.493
201909272317,17.493,17.493,17.478,17.483
201909272318,17.483,17.484,17.465,17.465
201909272319,17.465,17.474,17.462,17.462
201909272320,17.462,17.462,17.453,17.458
201909272321,17.458,17.463,17.453,17.463
201909272322,17.464,17.468,17.449,17.449
201909272323,17.449,17.449,17.433,17.433
201909272324,17.433,17.453,17.432,17.449
201909272325,17.449,17.459,17.449,17.454
201909272326,17.453,17.455,17.438,17.442
201909272327,17.442,17.447,17.437,17.447
201909272328,17.443,17.449,17.416,17.426
201909272329,17.426,17.438,17.423,17.433
201909272330,17.433,17.457,17.433,17.452
201909272331,17.452,17.453,17.442,17.442
201909272332,17.442,17.475,17.442,17.461
201909272333,17.462,17.467,17.456,17.464
201909272334,17.463,17.476,17.461,17.472
201909272335,17.472,17.472,17.447,17.447
201909272336,17.447,17.447,17.422,17.431
201909272337,17.431,17.432,17.426,17.427
201909272338,17.427,17.431,17.416,17.431
201909272339,17.431,17.431,17.41,17.411
201909272340,17.411,17.43,17.408,17.419
201909272341,17.417,17.421,17.411,17.411
201909272342,17.411,17.421,17.406,17.421
201909272343,17.421,17.441,17.419,17.441
201909272344,17.438,17.445,17.436,17.437
201909272345,17.437,17.438,17.425,17.427
201909272346,17.426,17.442,17.426,17.436
201909272347,17.44,17.452,17.437,17.446
201909272348,17.446,17.446,17.432,17.437
201909272349,17.437,17.441,17.436,17.437
201909272350,17.437,17.456,17.433,17.451
201909272351,17.451,17.462,17.451,17.457
201909272352,17.457,17.467,17.456,17.467
201909272353,17.467,17.467,17.461,17.465
201909272354,17.465,17.465,17.447,17.447
201909272355,17.446,17.449,17.443,17.446
201909272356,17.446,17.458,17.446,17.456
201909272357,17.456,17.462,17.449,17.462
201909272358,17.462,17.465,17.442,17.442
201909272359,17.441,17.446,17.436,17.446
201909280000,17.446,17.451,17.431,17.431
201909280001,17.431,17.436,17.427,17.435
201909280002,17.435,17.441,17.432,17.441
201909280003,17.441,17.441,17.427,17.427
201909280004,17.427,17.428,17.421,17.426
201909280005,17.426,17.444,17.426,17.444
201909280006,17.444,17.447,17.436,17.436
201909280007,17.436,17.437,17.426,17.43
201909280008,17.43,17.436,17.422,17.427
201909280009,17.426,17.432,17.425,17.427
201909280010,17.427,17.432,17.411,17.43
201909280011,17.43,17.435,17.426,17.43
201909280012,17.43,17.43,17.411,17.413
201909280013,17.413,17.417,17.41,17.416
201909280014,17.417,17.422,17.41,17.41
201909280015,17.407,17.427,17.406,17.427
201909280016,17.427,17.435,17.427,17.431
201909280017,17.431,17.442,17.43,17.434
201909280018,17.434,17.441,17.429,17.43
201909280019,17.431,17.436,17.425,17.433
201909280020,17.433,17.433,17.421,17.427
201909280021,17.427,17.427,17.406,17.408
201909280022,17.406,17.413,17.406,17.412
201909280023,17.413,17.413,17.394,17.4
201909280024,17.4,17.401,17.391,17.391
201909280025,17.391,17.399,17.382,17.386
201909280026,17.386,17.396,17.384,17.39
201909280027,17.39,17.397,17.381,17.397
201909280028,17.397,17.401,17.392,17.395
201909280029,17.395,17.398,17.39,17.392
201909280030,17.392,17.401,17.388,17.401
201909280031,17.401,17.405,17.394,17.397
201909280032,17.397,17.401,17.377,17.377
201909280033,17.377,17.386,17.372,17.386
201909280034,17.386,17.391,17.38,17.391
201909280035,17.391,17.393,17.378,17.383
201909280036,17.383,17.445,17.383,17.442
201909280037,17.441,17.47,17.436,17.461
201909280038,17.46,17.505,17.46,17.49
201909280039,17.494,17.523,17.491,17.494
201909280040,17.494,17.509,17.465,17.468
201909280041,17.468,17.489,17.454,17.481
201909280042,17.483,17.484,17.466,17.476
201909280043,17.476,17.482,17.462,17.468
201909280044,17.467,17.467,17.444,17.464
201909280045,17.458,17.472,17.448,17.452
201909280046,17.452,17.463,17.445,17.457
201909280047,17.457,17.457,17.447,17.454
201909280048,17.453,17.456,17.443,17.446
201909280049,17.446,17.455,17.441,17.455
201909280050,17.456,17.479,17.456,17.478
201909280051,17.478,17.478,17.463,17.473
201909280052,17.473,17.489,17.468,17.488
201909280053,17.489,17.493,17.483,17.49
201909280054,17.489,17.494,17.485,17.49
201909280055,17.49,17.493,17.457,17.462
201909280056,17.458,17.458,17.427,17.44
201909280057,17.439,17.465,17.439,17.458
201909280058,17.458,17.47,17.453,17.464
201909280059,17.467,17.467,17.445,17.445
201909280100,17.448,17.457,17.439,17.454
201909280101,17.454,17.467,17.453,17.463
201909280102,17.463,17.475,17.463,17.469
201909280103,17.469,17.479,17.466,17.479
201909280104,17.479,17.482,17.468,17.468
201909280105,17.469,17.48,17.464,17.479
201909280106,17.479,17.49,17.478,17.485
201909280107,17.485,17.509,17.485,17.509
201909280108,17.509,17.514,17.503,17.513
201909280109,17.512,17.513,17.504,17.509
201909280110,17.509,17.509,17.498,17.503
201909280111,17.503,17.503,17.489,17.493
201909280112,17.493,17.499,17.491,17.499
201909280113,17.499,17.529,17.498,17.514
201909280114,17.514,17.523,17.509,17.511
201909280115,17.509,17.528,17.509,17.519
201909280116,17.519,17.533,17.513,17.527
201909280117,17.528,17.529,17.515,17.527
201909280118,17.527,17.541,17.517,17.537
201909280119,17.538,17.57,17.536,17.568
201909280120,17.568,17.569,17.551,17.559
201909280121,17.559,17.559,17.552,17.556
201909280122,17.556,17.556,17.548,17.55
201909280123,17.55,17.553,17.539,17.539
201909280124,17.539,17.558,17.534,17.558
201909280125,17.558,17.561,17.553,17.554
201909280126,17.554,17.554,17.541,17.548
201909280127,17.548,17.558,17.547,17.554
201909280128,17.555,17.555,17.522,17.522
201909280129,17.523,17.539,17.512,17.536
201909280130,17.536,17.556,17.534,17.552
201909280131,17.553,17.553,17.543,17.547
201909280132,17.547,17.553,17.545,17.547
201909280133,17.547,17.548,17.536,17.541
201909280134,17.541,17.546,17.537,17.54
201909280135,17.54,17.556,17.54,17.546
201909280136,17.546,17.553,17.54,17.54
201909280137,17.541,17.544,17.532,17.537
201909280138,17.537,17.539,17.527,17.53
201909280139,17.53,17.536,17.53,17.531
201909280140,17.53,17.53,17.516,17.527
201909280141,17.527,17.535,17.521,17.531
201909280142,17.532,17.543,17.531,17.531
201909280143,17.531,17.542,17.53,17.542
201909280144,17.542,17.557,17.541,17.553
201909280145,17.553,17.562,17.551,17.556
201909280146,17.556,17.556,17.55,17.552
201909280147,17.552,17.562,17.551,17.559
201909280148,17.559,17.595,17.559,17.588
201909280149,17.589,17.593,17.582,17.593
201909280150,17.593,17.604,17.589,17.594
201909280151,17.594,17.594,17.583,17.589
201909280152,17.588,17.6,17.588,17.593
201909280153,17.593,17.594,17.58,17.585
201909280154,17.585,17.589,17.579,17.58
201909280155,17.58,17.581,17.568,17.57
201909280156,17.57,17.588,17.566,17.586
201909280157,17.587,17.589,17.578,17.587
201909280158,17.586,17.593,17.582,17.593
201909280159,17.593,17.608,17.59,17.605
201909280200,17.606,17.623,17.605,17.62
201909280201,17.62,17.623,17.6,17.6
201909280202,17.601,17.603,17.583,17.593
201909280203,17.593,17.597,17.585,17.59
201909280204,17.589,17.59,17.576,17.581
201909280205,17.58,17.591,17.58,17.587
201909280206,17.586,17.586,17.575,17.577
201909280207,17.577,17.592,17.574,17.583
201909280208,17.585,17.585,17.569,17.575
201909280209,17.575,17.578,17.57,17.578
201909280210,17.578,17.585,17.574,17.584
201909280211,17.585,17.59,17.584,17.585
201909280212,17.585,17.585,17.574,17.58
201909280213,17.58,17.583,17.579,17.58
201909280214,17.58,17.594,17.58,17.591
201909280215,17.591,17.595,17.588,17.595
201909280216,17.595,17.603,17.595,17.6
201909280217,17.6,17.608,17.595,17.603
201909280218,17.602,17.606,17.599,17.605
201909280219,17.605,17.606,17.602,17.605
201909280220,17.605,17.61,17.598,17.6
201909280221,17.6,17.606,17.6,17.606
201909280222,17.606,17.614,17.605,17.613
201909280223,17.613,17.614,17.604,17.605
201909280224,17.605,17.605,17.585,17.59
201909280225,17.59,17.595,17.579,17.583
201909280226,17.583,17.583,17.57,17.573
201909280227,17.573,17.573,17.56,17.569
201909280228,17.569,17.573,17.561,17.563
201909280229,17.562,17.562,17.527,17.536
201909280230,17.538,17.565,17.538,17.564
201909280231,17.564,17.58,17.564,17.58
201909280232,17.58,17.583,17.574,17.574
201909280233,17.574,17.583,17.574,17.576
201909280234,17.576,17.584,17.575,17.582
201909280235,17.582,17.591,17.579,17.584
201909280236,17.584,17.59,17.583,17.589
201909280237,17.589,17.59,17.58,17.58
201909280238,17.58,17.592,17.579,17.584
201909280239,17.584,17.586,17.574,17.575
201909280240,17.575,17.582,17.575,17.581
201909280241,17.581,17.583,17.569,17.57
201909280242,17.569,17.57,17.563,17.565
201909280243,17.565,17.574,17.565,17.569
201909280244,17.569,17.583,17.568,17.58
201909280245,17.58,17.587,17.58,17.583
201909280246,17.583,17.584,17.575,17.579
201909280247,17.579,17.584,17.57,17.576
201909280248,17.576,17.581,17.576,17.578
201909280249,17.578,17.583,17.574,17.577
201909280250,17.576,17.593,17.574,17.587
201909280251,17.588,17.589,17.583,17.584
201909280252,17.584,17.584,17.571,17.575
201909280253,17.575,17.578,17.564,17.569
201909280254,17.569,17.573,17.546,17.561
201909280255,17.561,17.563,17.557,17.558
201909280256,17.558,17.558,17.544,17.553
201909280257,17.553,17.564,17.553,17.564
201909280258,17.564,17.565,17.56,17.564
201909280259,17.564,17.569,17.56,17.56
201909280300,17.559,17.573,17.559,17.565
201909280301,17.564,17.565,17.559,17.559
201909280302,17.56,17.569,17.558,17.569
201909280303,17.569,17.572,17.564,17.564
201909280304,17.563,17.564,17.558,17.561
201909280305,17.56,17.57,17.56,17.569
201909280306,17.568,17.572,17.568,17.572
201909280307,17.572,17.572,17.564,17.569
201909280308,17.569,17.572,17.564,17.569
201909280309,17.57,17.572,17.569,17.569
201909280310,17.569,17.57,17.568,17.569
201909280311,17.569,17.569,17.568,17.568
201909280312,17.568,17.569,17.558,17.563
201909280313,17.56,17.565,17.56,17.56
201909280314,17.56,17.56,17.538,17.545
201909280315,17.545,17.548,17.538,17.539
201909280316,17.539,17.549,17.539,17.548
201909280317,17.548,17.554,17.54,17.54
201909280318,17.54,17.544,17.539,17.539
201909280319,17.539,17.541,17.535,17.539
201909280320,17.539,17.539,17.505,17.509
201909280321,17.507,17.515,17.503,17.503
201909280322,17.503,17.516,17.503,17.514
201909280323,17.514,17.526,17.514,17.519
201909280324,17.519,17.527,17.518,17.526
201909280325,17.527,17.533,17.525,17.529
201909280326,17.532,17.536,17.525,17.531
201909280327,17.531,17.534,17.523,17.525
201909280328,17.526,17.546,17.523,17.541
201909280329,17.541,17.549,17.536,17.545
201909280330,17.545,17.546,17.529,17.529
201909280331,17.529,17.532,17.528,17.531
201909280332,17.531,17.54,17.527,17.538
201909280333,17.538,17.541,17.535,17.54
201909280334,17.54,17.541,17.531,17.539
201909280335,17.54,17.542,17.536,17.54
201909280336,17.54,17.541,17.535,17.536
201909280337,17.536,17.545,17.535,17.539
201909280338,17.539,17.544,17.538,17.544
201909280339,17.541,17.546,17.538,17.543
201909280340,17.543,17.543,17.535,17.54
201909280341,17.54,17.544,17.535,17.538
201909280342,17.538,17.55,17.534,17.55
201909280343,17.55,17.551,17.548,17.548
201909280344,17.548,17.548,17.539,17.54
201909280345,17.541,17.549,17.534,17.546
201909280346,17.546,17.549,17.542,17.546
201909280347,17.546,17.549,17.544,17.545
201909280348,17.545,17.545,17.539,17.54
201909280349,17.54,17.554,17.539,17.554
201909280350,17.555,17.561,17.554,17.56
201909280351,17.562,17.562,17.549,17.55
201909280352,17.55,17.551,17.537,17.54
201909280353,17.54,17.545,17.539,17.54
201909280354,17.539,17.541,17.535,17.535
201909280355,17.535,17.54,17.535,17.538
201909280356,17.539,17.547,17.539,17.541
201909280357,17.541,17.543,17.537,17.54
201909280358,17.54,17.542,17.536,17.542
201909280359,17.544,17.559,17.544,17.557
201909280400,17.56,17.561,17.547,17.548
201909280401,17.549,17.55,17.546,17.549
201909280402,17.548,17.549,17.544,17.546
201909280403,17.545,17.551,17.545,17.548
201909280404,17.548,17.551,17.548,17.55
201909280405,17.549,17.552,17.549,17.551
201909280406,17.551,17.552,17.549,17.551
201909280407,17.551,17.551,17.549,17.551
201909280408,17.551,17.552,17.55,17.551
201909280409,17.551,17.552,17.545,17.545
201909280410,17.545,17.546,17.54,17.544
201909280411,17.544,17.546,17.539,17.544
201909280412,17.544,17.546,17.542,17.544
201909280413,17.545,17.545,17.539,17.54
201909280414,17.54,17.545,17.534,17.542
201909280415,17.541,17.544,17.536,17.536
201909280416,17.538,17.538,17.513,17.524
201909280417,17.524,17.527,17.518,17.521
201909280418,17.524,17.524,17.508,17.516
201909280419,17.516,17.517,17.51,17.51
201909280420,17.51,17.515,17.51,17.515
201909280421,17.514,17.516,17.513,17.516
201909280422,17.516,17.516,17.511,17.511
201909280423,17.511,17.514,17.506,17.508
201909280424,17.508,17.511,17.506,17.508
201909280425,17.508,17.515,17.506,17.515
201909280426,17.515,17.515,17.508,17.509
201909280427,17.509,17.511,17.508,17.509
201909280428,17.509,17.512,17.509,17.511
201909280429,17.511,17.511,17.506,17.509
201909280430,17.509,17.511,17.501,17.501
201909280431,17.501,17.504,17.488,17.504
201909280432,17.504,17.505,17.498,17.498
201909280433,17.498,17.498,17.489,17.49
201909280434,17.49,17.496,17.489,17.496
201909280435,17.496,17.501,17.494,17.498
201909280436,17.498,17.501,17.498,17.499
201909280437,17.499,17.506,17.498,17.504
201909280438,17.504,17.504,17.49,17.49
201909280439,17.49,17.491,17.484,17.485
201909280440,17.485,17.487,17.479,17.486
201909280441,17.483,17.487,17.483,17.484
201909280442,17.484,17.486,17.482,17.486
201909280443,17.486,17.492,17.486,17.492
201909280444,17.491,17.492,17.489,17.489
201909280445,17.489,17.49,17.484,17.487
201909280446,17.487,17.491,17.483,17.485
201909280447,17.484,17.485,17.477,17.477
201909280448,17.477,17.478,17.475,17.475
201909280449,17.475,17.477,17.471,17.472
201909280450,17.472,17.481,17.466,17.475
201909280451,17.475,17.477,17.47,17.477
201909280452,17.477,17.482,17.476,17.476
201909280453,17.477,17.48,17.477,17.477
201909280454,17.48,17.48,17.466,17.466
201909280455,17.467,17.481,17.467,17.481
201909280456,17.481,17.481,17.47,17.47
201909280457,17.469,17.475,17.466,17.473
201909280458,17.473,17.48,17.473,17.475
201909280459,17.475,17.478,17.471,17.478
201909280500,17.477,17.49,17.477,17.485
201909280501,17.486,17.486,17.481,17.481
201909280502,17.481,17.494,17.481,17.489
201909280503,17.489,17.494,17.489,17.492
201909280504,17.491,17.495,17.49,17.495
201909280505,17.495,17.504,17.495,17.5
201909280506,17.5,17.5,17.496,17.496
201909280507,17.496,17.499,17.496,17.496
201909280508,17.496,17.499,17.496,17.498
201909280509,17.498,17.5,17.497,17.497
201909280510,17.497,17.5,17.495,17.499
201909280511,17.498,17.498,17.493,17.494
201909280512,17.494,17.495,17.493,17.494
201909280513,17.494,17.5,17.494,17.498
201909280514,17.499,17.499,17.496,17.498
201909280515,17.498,17.502,17.498,17.5
201909280516,17.5,17.501,17.499,17.5
201909280517,17.5,17.5,17.496,17.496
201909280518,17.496,17.498,17.496,17.497
201909280519,17.497,17.502,17.497,17.5
201909280520,17.5,17.506,17.5,17.505
201909280521,17.505,17.505,17.5,17.501
201909280522,17.501,17.502,17.5,17.5
201909280523,17.5,17.506,17.499,17.505
201909280524,17.505,17.514,17.505,17.514
201909280525,17.514,17.52,17.514,17.515
201909280526,17.515,17.515,17.514,17.514
201909280527,17.514,17.515,17.511,17.511
201909280528,17.511,17.512,17.509,17.51
201909280529,17.51,17.511,17.51,17.51
201909280530,17.51,17.512,17.509,17.51
201909280531,17.51,17.514,17.51,17.514
201909280532,17.514,17.516,17.509,17.509
201909280533,17.509,17.511,17.509,17.509
201909280534,17.509,17.512,17.509,17.512
201909280535,17.512,17.515,17.51,17.51
201909280536,17.51,17.514,17.51,17.514
201909280537,17.514,17.524,17.514,17.524
201909280538,17.524,17.525,17.52,17.524
201909280539,17.524,17.524,17.52,17.524
201909280540,17.524,17.524,17.522,17.524
201909280541,17.524,17.525,17.515,17.515
201909280542,17.515,17.516,17.514,17.514
201909280543,17.514,17.515,17.514,17.514
201909280544,17.514,17.515,17.514,17.515
201909280545,17.515,17.519,17.515,17.519
201909280546,17.519,17.519,17.515,17.516
201909280547,17.516,17.516,17.514,17.514
201909280548,17.514,17.521,17.514,17.521
201909280549,17.521,17.522,17.519,17.52
201909280550,17.52,17.527,17.519,17.523
201909280551,17.523,17.527,17.523,17.524
201909280552,17.524,17.525,17.522,17.522
201909280553,17.522,17.522,17.519,17.522
201909280554,17.522,17.526,17.516,17.516
201909280555,17.525,17.526,17.52,17.524
201909280556,17.524,17.527,17.524,17.527
201909280557,17.527,17.527,17.516,17.522
201909280558,17.522,17.525,17.516,17.525
201909280559,17.525,17.527,17.524,17.526
