日時,始値(BID),高値(BID),安値(BID),終値(BID)
201909240700,18.594,18.614,18.59,18.607
201909240701,18.609,18.626,18.608,18.626
201909240702,18.627,18.63,18.617,18.617
201909240703,18.617,18.643,18.617,18.643
201909240704,18.642,18.657,18.642,18.653
201909240705,18.65,18.65,18.64,18.64
201909240706,18.64,18.644,18.64,18.644
201909240707,18.644,18.648,18.644,18.645
201909240708,18.645,18.646,18.643,18.645
201909240709,18.645,18.646,18.645,18.646
201909240710,18.646,18.647,18.645,18.646
201909240711,18.646,18.65,18.646,18.65
201909240712,18.65,18.655,18.65,18.651
201909240713,18.652,18.652,18.651,18.651
201909240714,18.651,18.652,18.651,18.651
201909240715,18.651,18.652,18.651,18.651
201909240716,18.651,18.651,18.647,18.647
201909240717,18.647,18.647,18.64,18.641
201909240718,18.641,18.641,18.637,18.641
201909240719,18.641,18.642,18.64,18.642
201909240720,18.642,18.642,18.641,18.641
201909240721,18.641,18.641,18.64,18.641
201909240722,18.641,18.641,18.641,18.641
201909240723,18.641,18.641,18.64,18.64
201909240724,18.64,18.646,18.64,18.646
201909240725,18.646,18.65,18.646,18.65
201909240726,18.65,18.65,18.65,18.65
201909240727,18.65,18.65,18.65,18.65
201909240728,18.65,18.65,18.646,18.646
201909240729,18.646,18.65,18.646,18.65
201909240730,18.65,18.65,18.647,18.647
201909240731,18.647,18.647,18.645,18.645
201909240732,18.645,18.646,18.645,18.646
201909240733,18.646,18.646,18.646,18.646
201909240734,18.646,18.646,18.646,18.646
201909240735,18.646,18.646,18.637,18.637
201909240736,18.637,18.637,18.636,18.636
201909240737,18.636,18.637,18.636,18.636
201909240738,18.633,18.637,18.632,18.636
201909240739,18.636,18.64,18.636,18.637
201909240740,18.636,18.637,18.631,18.631
201909240741,18.631,18.631,18.631,18.631
201909240742,18.631,18.632,18.63,18.631
201909240743,18.631,18.632,18.631,18.631
201909240744,18.631,18.635,18.631,18.631
201909240745,18.631,18.631,18.629,18.63
201909240746,18.63,18.63,18.629,18.63
201909240747,18.631,18.631,18.626,18.626
201909240748,18.626,18.626,18.626,18.626
201909240749,18.626,18.626,18.621,18.621
201909240750,18.621,18.621,18.62,18.621
201909240751,18.621,18.621,18.621,18.621
201909240752,18.621,18.63,18.621,18.63
201909240753,18.63,18.631,18.63,18.631
201909240754,18.631,18.631,18.631,18.631
201909240755,18.631,18.632,18.631,18.631
201909240756,18.631,18.631,18.63,18.631
201909240757,18.631,18.631,18.631,18.631
201909240758,18.631,18.631,18.63,18.63
201909240759,18.63,18.63,18.626,18.626
201909240800,18.626,18.63,18.621,18.621
201909240801,18.621,18.626,18.612,18.612
201909240802,18.612,18.62,18.611,18.616
201909240803,18.616,18.621,18.616,18.621
201909240804,18.621,18.621,18.62,18.62
201909240805,18.619,18.621,18.616,18.617
201909240806,18.619,18.621,18.619,18.62
201909240807,18.62,18.621,18.617,18.617
201909240808,18.617,18.621,18.617,18.62
201909240809,18.62,18.621,18.62,18.621
201909240810,18.621,18.621,18.616,18.621
201909240811,18.621,18.621,18.62,18.621
201909240812,18.621,18.621,18.62,18.62
201909240813,18.62,18.621,18.62,18.621
201909240814,18.621,18.621,18.621,18.621
201909240815,18.621,18.626,18.621,18.625
201909240816,18.625,18.63,18.625,18.63
201909240817,18.63,18.63,18.63,18.63
201909240818,18.63,18.63,18.63,18.63
201909240819,18.63,18.63,18.627,18.629
201909240820,18.629,18.629,18.625,18.625
201909240821,18.625,18.625,18.621,18.621
201909240822,18.621,18.621,18.619,18.62
201909240823,18.62,18.62,18.62,18.62
201909240824,18.62,18.621,18.62,18.621
201909240825,18.621,18.621,18.62,18.62
201909240826,18.62,18.62,18.617,18.617
201909240827,18.617,18.618,18.616,18.616
201909240828,18.616,18.616,18.616,18.616
201909240829,18.616,18.616,18.616,18.616
201909240830,18.616,18.621,18.616,18.62
201909240831,18.62,18.62,18.62,18.62
201909240832,18.62,18.621,18.62,18.621
201909240833,18.621,18.622,18.62,18.621
201909240834,18.621,18.626,18.62,18.622
201909240835,18.621,18.622,18.62,18.622
201909240836,18.621,18.628,18.621,18.628
201909240837,18.628,18.631,18.626,18.63
201909240838,18.63,18.63,18.626,18.63
201909240839,18.631,18.631,18.626,18.626
201909240840,18.626,18.627,18.626,18.627
201909240841,18.627,18.63,18.627,18.63
201909240842,18.63,18.63,18.627,18.627
201909240843,18.627,18.63,18.627,18.627
201909240844,18.627,18.627,18.626,18.626
201909240845,18.626,18.626,18.617,18.617
201909240846,18.617,18.617,18.611,18.617
201909240847,18.617,18.625,18.616,18.622
201909240848,18.621,18.622,18.62,18.621
201909240849,18.621,18.622,18.619,18.621
201909240850,18.618,18.618,18.615,18.616
201909240851,18.617,18.617,18.615,18.615
201909240852,18.615,18.616,18.612,18.616
201909240853,18.616,18.617,18.612,18.612
201909240854,18.612,18.613,18.612,18.612
201909240855,18.612,18.615,18.611,18.613
201909240856,18.614,18.616,18.614,18.616
201909240857,18.616,18.616,18.611,18.611
201909240858,18.611,18.616,18.611,18.616
201909240859,18.616,18.62,18.616,18.62
201909240900,18.62,18.62,18.615,18.615
201909240901,18.615,18.619,18.615,18.619
201909240902,18.619,18.62,18.615,18.62
201909240903,18.62,18.63,18.62,18.629
201909240904,18.629,18.64,18.627,18.64
201909240905,18.64,18.649,18.64,18.647
201909240906,18.647,18.65,18.646,18.648
201909240907,18.647,18.652,18.646,18.651
201909240908,18.651,18.657,18.65,18.651
201909240909,18.651,18.656,18.646,18.646
201909240910,18.646,18.651,18.642,18.651
201909240911,18.647,18.656,18.647,18.656
201909240912,18.656,18.661,18.656,18.661
201909240913,18.661,18.662,18.66,18.66
201909240914,18.66,18.667,18.66,18.666
201909240915,18.666,18.671,18.666,18.67
201909240916,18.67,18.692,18.67,18.687
201909240917,18.687,18.688,18.686,18.687
201909240918,18.687,18.696,18.686,18.686
201909240919,18.686,18.686,18.671,18.671
201909240920,18.671,18.69,18.671,18.687
201909240921,18.687,18.695,18.687,18.691
201909240922,18.69,18.69,18.678,18.683
201909240923,18.683,18.686,18.681,18.681
201909240924,18.681,18.682,18.669,18.673
201909240925,18.673,18.674,18.665,18.665
201909240926,18.665,18.67,18.661,18.667
201909240927,18.667,18.675,18.666,18.674
201909240928,18.674,18.676,18.671,18.676
201909240929,18.676,18.685,18.675,18.681
201909240930,18.681,18.681,18.677,18.677
201909240931,18.677,18.677,18.666,18.672
201909240932,18.672,18.673,18.671,18.673
201909240933,18.673,18.681,18.673,18.681
201909240934,18.681,18.683,18.681,18.682
201909240935,18.682,18.685,18.673,18.68
201909240936,18.68,18.683,18.679,18.683
201909240937,18.683,18.688,18.682,18.684
201909240938,18.684,18.687,18.683,18.687
201909240939,18.687,18.695,18.682,18.695
201909240940,18.695,18.732,18.692,18.731
201909240941,18.731,18.734,18.72,18.729
201909240942,18.729,18.733,18.717,18.728
201909240943,18.728,18.728,18.714,18.717
201909240944,18.714,18.718,18.713,18.714
201909240945,18.714,18.714,18.702,18.702
201909240946,18.702,18.703,18.698,18.703
201909240947,18.703,18.703,18.699,18.703
201909240948,18.703,18.712,18.698,18.712
201909240949,18.71,18.71,18.705,18.706
201909240950,18.706,18.706,18.694,18.694
201909240951,18.694,18.708,18.693,18.708
201909240952,18.709,18.715,18.709,18.714
201909240953,18.714,18.717,18.71,18.714
201909240954,18.714,18.715,18.709,18.713
201909240955,18.713,18.713,18.706,18.713
201909240956,18.713,18.713,18.708,18.709
201909240957,18.709,18.71,18.708,18.709
201909240958,18.709,18.71,18.709,18.71
201909240959,18.71,18.71,18.704,18.705
201909241000,18.705,18.714,18.675,18.68
201909241001,18.68,18.682,18.66,18.66
201909241002,18.661,18.664,18.626,18.641
201909241003,18.643,18.664,18.643,18.66
201909241004,18.658,18.664,18.649,18.655
201909241005,18.655,18.656,18.649,18.654
201909241006,18.654,18.654,18.64,18.644
201909241007,18.644,18.647,18.637,18.643
201909241008,18.639,18.641,18.618,18.619
201909241009,18.619,18.636,18.619,18.633
201909241010,18.633,18.637,18.624,18.627
201909241011,18.627,18.634,18.622,18.634
201909241012,18.631,18.632,18.616,18.619
201909241013,18.619,18.627,18.619,18.622
201909241014,18.622,18.628,18.619,18.628
201909241015,18.628,18.629,18.62,18.624
201909241016,18.624,18.624,18.593,18.598
201909241017,18.598,18.606,18.594,18.594
201909241018,18.593,18.597,18.591,18.593
201909241019,18.593,18.604,18.593,18.603
201909241020,18.603,18.604,18.599,18.601
201909241021,18.601,18.604,18.6,18.601
201909241022,18.601,18.602,18.599,18.601
201909241023,18.601,18.601,18.577,18.577
201909241024,18.577,18.579,18.562,18.563
201909241025,18.563,18.568,18.534,18.536
201909241026,18.536,18.545,18.532,18.542
201909241027,18.542,18.558,18.542,18.553
201909241028,18.553,18.554,18.544,18.551
201909241029,18.551,18.553,18.546,18.549
201909241030,18.549,18.563,18.549,18.563
201909241031,18.563,18.57,18.56,18.565
201909241032,18.565,18.573,18.564,18.57
201909241033,18.57,18.571,18.559,18.563
201909241034,18.563,18.573,18.563,18.572
201909241035,18.572,18.573,18.566,18.571
201909241036,18.57,18.572,18.563,18.565
201909241037,18.565,18.572,18.564,18.571
201909241038,18.573,18.573,18.567,18.568
201909241039,18.568,18.572,18.568,18.572
201909241040,18.572,18.583,18.572,18.575
201909241041,18.575,18.582,18.575,18.58
201909241042,18.58,18.589,18.579,18.585
201909241043,18.585,18.599,18.585,18.596
201909241044,18.596,18.596,18.591,18.591
201909241045,18.591,18.595,18.586,18.593
201909241046,18.593,18.594,18.576,18.579
201909241047,18.579,18.582,18.569,18.569
201909241048,18.569,18.574,18.569,18.574
201909241049,18.574,18.582,18.574,18.575
201909241050,18.575,18.575,18.569,18.569
201909241051,18.569,18.573,18.569,18.569
201909241052,18.569,18.572,18.569,18.572
201909241053,18.572,18.578,18.572,18.577
201909241054,18.577,18.594,18.577,18.594
201909241055,18.594,18.594,18.588,18.594
201909241056,18.593,18.594,18.588,18.59
201909241057,18.59,18.59,18.587,18.59
201909241058,18.59,18.598,18.588,18.591
201909241059,18.591,18.591,18.583,18.583
201909241100,18.583,18.602,18.583,18.602
201909241101,18.602,18.602,18.592,18.592
201909241102,18.593,18.593,18.587,18.588
201909241103,18.587,18.588,18.582,18.582
201909241104,18.582,18.583,18.582,18.582
201909241105,18.582,18.582,18.577,18.577
201909241106,18.577,18.582,18.572,18.573
201909241107,18.573,18.576,18.571,18.571
201909241108,18.568,18.569,18.567,18.567
201909241109,18.567,18.567,18.563,18.563
201909241110,18.563,18.566,18.562,18.566
201909241111,18.566,18.572,18.566,18.568
201909241112,18.568,18.569,18.563,18.563
201909241113,18.563,18.563,18.547,18.55
201909241114,18.55,18.562,18.55,18.559
201909241115,18.559,18.565,18.559,18.561
201909241116,18.561,18.566,18.56,18.561
201909241117,18.561,18.561,18.559,18.561
201909241118,18.561,18.566,18.561,18.565
201909241119,18.565,18.566,18.564,18.565
201909241120,18.565,18.565,18.563,18.563
201909241121,18.563,18.565,18.561,18.561
201909241122,18.561,18.565,18.561,18.563
201909241123,18.564,18.566,18.56,18.564
201909241124,18.565,18.567,18.564,18.566
201909241125,18.566,18.566,18.565,18.565
201909241126,18.565,18.568,18.565,18.567
201909241127,18.567,18.567,18.562,18.562
201909241128,18.562,18.563,18.551,18.556
201909241129,18.556,18.556,18.551,18.555
201909241130,18.555,18.557,18.551,18.553
201909241131,18.553,18.553,18.547,18.551
201909241132,18.551,18.56,18.551,18.556
201909241133,18.556,18.556,18.552,18.555
201909241134,18.555,18.568,18.554,18.568
201909241135,18.568,18.568,18.558,18.558
201909241136,18.558,18.565,18.557,18.563
201909241137,18.563,18.563,18.558,18.558
201909241138,18.558,18.559,18.558,18.559
201909241139,18.559,18.561,18.544,18.544
201909241140,18.545,18.552,18.544,18.549
201909241141,18.549,18.555,18.549,18.551
201909241142,18.55,18.562,18.55,18.562
201909241143,18.562,18.564,18.562,18.564
201909241144,18.564,18.567,18.561,18.567
201909241145,18.567,18.568,18.562,18.564
201909241146,18.564,18.567,18.561,18.562
201909241147,18.562,18.567,18.562,18.562
201909241148,18.562,18.566,18.562,18.565
201909241149,18.565,18.575,18.565,18.574
201909241150,18.574,18.577,18.571,18.576
201909241151,18.576,18.577,18.569,18.571
201909241152,18.571,18.574,18.571,18.573
201909241153,18.572,18.577,18.572,18.574
201909241154,18.574,18.575,18.572,18.575
201909241155,18.575,18.575,18.565,18.567
201909241156,18.567,18.57,18.565,18.567
201909241157,18.567,18.568,18.562,18.562
201909241158,18.563,18.566,18.562,18.563
201909241159,18.562,18.565,18.56,18.565
201909241200,18.565,18.571,18.565,18.569
201909241201,18.569,18.569,18.564,18.565
201909241202,18.565,18.565,18.562,18.562
201909241203,18.562,18.57,18.562,18.569
201909241204,18.569,18.571,18.566,18.569
201909241205,18.569,18.57,18.564,18.565
201909241206,18.565,18.571,18.565,18.569
201909241207,18.569,18.574,18.569,18.574
201909241208,18.574,18.577,18.574,18.575
201909241209,18.575,18.576,18.572,18.573
201909241210,18.573,18.577,18.571,18.577
201909241211,18.577,18.58,18.576,18.576
201909241212,18.576,18.579,18.576,18.578
201909241213,18.577,18.581,18.577,18.577
201909241214,18.577,18.581,18.577,18.579
201909241215,18.579,18.586,18.579,18.585
201909241216,18.585,18.586,18.581,18.581
201909241217,18.582,18.586,18.582,18.585
201909241218,18.585,18.585,18.579,18.58
201909241219,18.58,18.581,18.578,18.578
201909241220,18.578,18.578,18.567,18.568
201909241221,18.568,18.568,18.563,18.563
201909241222,18.563,18.568,18.563,18.568
201909241223,18.568,18.571,18.566,18.571
201909241224,18.571,18.576,18.57,18.576
201909241225,18.576,18.58,18.574,18.58
201909241226,18.58,18.583,18.579,18.582
201909241227,18.582,18.584,18.579,18.58
201909241228,18.58,18.582,18.574,18.575
201909241229,18.575,18.577,18.573,18.575
201909241230,18.575,18.578,18.575,18.578
201909241231,18.578,18.578,18.573,18.573
201909241232,18.573,18.573,18.568,18.568
201909241233,18.568,18.572,18.568,18.569
201909241234,18.569,18.569,18.564,18.564
201909241235,18.567,18.567,18.564,18.567
201909241236,18.567,18.569,18.567,18.568
201909241237,18.568,18.568,18.566,18.568
201909241238,18.568,18.568,18.564,18.564
201909241239,18.564,18.57,18.564,18.564
201909241240,18.564,18.569,18.564,18.567
201909241241,18.566,18.571,18.565,18.569
201909241242,18.569,18.571,18.568,18.569
201909241243,18.569,18.569,18.565,18.566
201909241244,18.566,18.57,18.565,18.568
201909241245,18.568,18.568,18.566,18.566
201909241246,18.566,18.568,18.566,18.568
201909241247,18.568,18.57,18.564,18.566
201909241248,18.566,18.566,18.564,18.566
201909241249,18.566,18.569,18.564,18.567
201909241250,18.567,18.567,18.566,18.567
201909241251,18.567,18.568,18.565,18.566
201909241252,18.566,18.568,18.56,18.561
201909241253,18.561,18.562,18.56,18.561
201909241254,18.561,18.561,18.56,18.561
201909241255,18.557,18.558,18.555,18.556
201909241256,18.556,18.559,18.555,18.556
201909241257,18.556,18.557,18.555,18.556
201909241258,18.556,18.557,18.555,18.556
201909241259,18.556,18.561,18.556,18.561
201909241300,18.561,18.561,18.555,18.56
201909241301,18.56,18.56,18.556,18.557
201909241302,18.557,18.561,18.556,18.556
201909241303,18.556,18.56,18.555,18.56
201909241304,18.56,18.561,18.559,18.56
201909241305,18.56,18.561,18.559,18.56
201909241306,18.56,18.561,18.559,18.56
201909241307,18.56,18.561,18.559,18.559
201909241308,18.559,18.56,18.555,18.555
201909241309,18.555,18.556,18.555,18.555
201909241310,18.555,18.559,18.555,18.558
201909241311,18.558,18.56,18.558,18.559
201909241312,18.559,18.561,18.559,18.559
201909241313,18.559,18.561,18.559,18.559
201909241314,18.559,18.56,18.559,18.559
201909241315,18.559,18.561,18.559,18.559
201909241316,18.559,18.561,18.558,18.559
201909241317,18.559,18.56,18.559,18.56
201909241318,18.56,18.562,18.559,18.562
201909241319,18.562,18.562,18.559,18.561
201909241320,18.561,18.565,18.56,18.565
201909241321,18.565,18.565,18.564,18.565
201909241322,18.565,18.57,18.564,18.569
201909241323,18.569,18.57,18.564,18.566
201909241324,18.566,18.566,18.564,18.566
201909241325,18.566,18.567,18.564,18.566
201909241326,18.566,18.566,18.564,18.566
201909241327,18.566,18.566,18.564,18.566
201909241328,18.566,18.566,18.563,18.563
201909241329,18.563,18.563,18.559,18.563
201909241330,18.563,18.563,18.559,18.563
201909241331,18.563,18.564,18.56,18.56
201909241332,18.56,18.561,18.559,18.56
201909241333,18.56,18.564,18.558,18.558
201909241334,18.558,18.565,18.558,18.563
201909241335,18.563,18.565,18.563,18.563
201909241336,18.563,18.564,18.56,18.56
201909241337,18.56,18.561,18.558,18.559
201909241338,18.559,18.559,18.558,18.558
201909241339,18.558,18.559,18.558,18.559
201909241340,18.559,18.56,18.559,18.559
201909241341,18.559,18.56,18.556,18.558
201909241342,18.558,18.559,18.556,18.556
201909241343,18.554,18.56,18.554,18.56
201909241344,18.56,18.561,18.559,18.56
201909241345,18.56,18.561,18.558,18.559
201909241346,18.56,18.56,18.559,18.56
201909241347,18.56,18.561,18.559,18.56
201909241348,18.56,18.564,18.56,18.56
201909241349,18.56,18.561,18.558,18.56
201909241350,18.558,18.559,18.55,18.555
201909241351,18.555,18.558,18.553,18.553
201909241352,18.553,18.554,18.549,18.549
201909241353,18.55,18.554,18.55,18.554
201909241354,18.554,18.556,18.553,18.553
201909241355,18.553,18.555,18.539,18.539
201909241356,18.539,18.54,18.533,18.538
201909241357,18.538,18.54,18.533,18.539
201909241358,18.539,18.542,18.539,18.539
201909241359,18.539,18.546,18.539,18.543
201909241400,18.544,18.547,18.543,18.546
201909241401,18.546,18.555,18.546,18.554
201909241402,18.554,18.554,18.544,18.544
201909241403,18.544,18.548,18.544,18.547
201909241404,18.547,18.548,18.544,18.545
201909241405,18.545,18.549,18.543,18.548
201909241406,18.549,18.549,18.541,18.543
201909241407,18.543,18.544,18.537,18.539
201909241408,18.539,18.54,18.538,18.538
201909241409,18.538,18.541,18.535,18.536
201909241410,18.536,18.539,18.535,18.538
201909241411,18.538,18.54,18.537,18.537
201909241412,18.537,18.539,18.534,18.536
201909241413,18.536,18.539,18.535,18.538
201909241414,18.537,18.539,18.537,18.538
201909241415,18.538,18.545,18.538,18.543
201909241416,18.543,18.543,18.539,18.539
201909241417,18.539,18.544,18.539,18.543
201909241418,18.543,18.544,18.543,18.543
201909241419,18.543,18.545,18.543,18.544
201909241420,18.544,18.545,18.543,18.543
201909241421,18.543,18.545,18.543,18.544
201909241422,18.544,18.546,18.543,18.544
201909241423,18.544,18.549,18.544,18.544
201909241424,18.544,18.549,18.541,18.543
201909241425,18.542,18.544,18.54,18.544
201909241426,18.544,18.544,18.543,18.544
201909241427,18.544,18.548,18.54,18.54
201909241428,18.54,18.544,18.54,18.543
201909241429,18.543,18.548,18.543,18.548
201909241430,18.548,18.565,18.548,18.565
201909241431,18.565,18.571,18.565,18.571
201909241432,18.569,18.575,18.568,18.575
201909241433,18.575,18.576,18.571,18.571
201909241434,18.571,18.571,18.567,18.567
201909241435,18.566,18.569,18.561,18.561
201909241436,18.561,18.576,18.561,18.574
201909241437,18.574,18.59,18.574,18.588
201909241438,18.588,18.594,18.585,18.593
201909241439,18.593,18.593,18.587,18.587
201909241440,18.587,18.595,18.585,18.592
201909241441,18.593,18.594,18.59,18.59
201909241442,18.59,18.59,18.586,18.59
201909241443,18.59,18.592,18.579,18.585
201909241444,18.585,18.587,18.58,18.581
201909241445,18.581,18.585,18.577,18.585
201909241446,18.585,18.586,18.575,18.577
201909241447,18.577,18.582,18.572,18.572
201909241448,18.572,18.58,18.572,18.576
201909241449,18.575,18.585,18.575,18.58
201909241450,18.58,18.584,18.578,18.578
201909241451,18.578,18.583,18.577,18.583
201909241452,18.583,18.586,18.582,18.586
201909241453,18.586,18.586,18.579,18.581
201909241454,18.581,18.581,18.574,18.575
201909241455,18.575,18.575,18.572,18.575
201909241456,18.575,18.579,18.56,18.56
201909241457,18.56,18.565,18.555,18.555
201909241458,18.555,18.559,18.555,18.558
201909241459,18.56,18.561,18.553,18.555
201909241500,18.555,18.571,18.555,18.569
201909241501,18.569,18.57,18.564,18.57
201909241502,18.57,18.57,18.565,18.565
201909241503,18.565,18.571,18.564,18.571
201909241504,18.569,18.57,18.531,18.531
201909241505,18.531,18.532,18.501,18.507
201909241506,18.507,18.52,18.507,18.518
201909241507,18.518,18.521,18.511,18.52
201909241508,18.52,18.52,18.48,18.48
201909241509,18.482,18.486,18.445,18.454
201909241510,18.454,18.467,18.439,18.445
201909241511,18.445,18.462,18.445,18.457
201909241512,18.457,18.49,18.457,18.485
201909241513,18.485,18.485,18.471,18.475
201909241514,18.475,18.493,18.475,18.484
201909241515,18.484,18.486,18.478,18.482
201909241516,18.484,18.501,18.482,18.501
201909241517,18.5,18.501,18.483,18.498
201909241518,18.498,18.499,18.487,18.491
201909241519,18.491,18.503,18.483,18.487
201909241520,18.487,18.496,18.481,18.491
201909241521,18.491,18.496,18.487,18.487
201909241522,18.487,18.497,18.486,18.496
201909241523,18.496,18.5,18.49,18.5
201909241524,18.5,18.505,18.491,18.491
201909241525,18.491,18.501,18.491,18.5
201909241526,18.5,18.5,18.481,18.486
201909241527,18.486,18.487,18.476,18.481
201909241528,18.481,18.501,18.481,18.5
201909241529,18.501,18.512,18.5,18.503
201909241530,18.503,18.507,18.498,18.5
201909241531,18.5,18.511,18.5,18.505
201909241532,18.505,18.51,18.501,18.51
201909241533,18.51,18.518,18.509,18.515
201909241534,18.515,18.52,18.51,18.52
201909241535,18.52,18.52,18.515,18.518
201909241536,18.518,18.521,18.517,18.521
201909241537,18.519,18.521,18.508,18.508
201909241538,18.508,18.513,18.506,18.512
201909241539,18.512,18.521,18.512,18.52
201909241540,18.52,18.522,18.519,18.521
201909241541,18.521,18.521,18.517,18.518
201909241542,18.518,18.518,18.512,18.513
201909241543,18.513,18.517,18.512,18.517
201909241544,18.516,18.518,18.515,18.516
201909241545,18.516,18.521,18.516,18.517
201909241546,18.518,18.518,18.506,18.507
201909241547,18.507,18.511,18.506,18.507
201909241548,18.507,18.512,18.506,18.507
201909241549,18.506,18.508,18.504,18.507
201909241550,18.507,18.507,18.502,18.502
201909241551,18.502,18.503,18.5,18.502
201909241552,18.502,18.506,18.502,18.505
201909241553,18.505,18.51,18.505,18.51
201909241554,18.51,18.521,18.51,18.521
201909241555,18.521,18.531,18.52,18.531
201909241556,18.53,18.551,18.53,18.551
201909241557,18.551,18.557,18.547,18.556
201909241558,18.558,18.558,18.552,18.558
201909241559,18.557,18.564,18.556,18.559
201909241600,18.557,18.557,18.537,18.537
201909241601,18.536,18.536,18.53,18.531
201909241602,18.531,18.535,18.516,18.52
201909241603,18.52,18.521,18.51,18.511
201909241604,18.511,18.526,18.51,18.522
201909241605,18.522,18.525,18.513,18.525
201909241606,18.525,18.526,18.521,18.526
201909241607,18.526,18.526,18.521,18.525
201909241608,18.525,18.539,18.521,18.538
201909241609,18.538,18.542,18.536,18.54
201909241610,18.54,18.542,18.539,18.54
201909241611,18.54,18.546,18.532,18.532
201909241612,18.532,18.534,18.519,18.526
201909241613,18.525,18.531,18.523,18.524
201909241614,18.524,18.525,18.512,18.513
201909241615,18.513,18.521,18.512,18.514
201909241616,18.514,18.516,18.502,18.516
201909241617,18.519,18.527,18.519,18.527
201909241618,18.527,18.539,18.527,18.537
201909241619,18.537,18.542,18.536,18.537
201909241620,18.537,18.538,18.53,18.535
201909241621,18.535,18.535,18.53,18.53
201909241622,18.53,18.532,18.526,18.527
201909241623,18.527,18.528,18.506,18.516
201909241624,18.516,18.517,18.51,18.51
201909241625,18.51,18.511,18.505,18.51
201909241626,18.51,18.517,18.506,18.506
201909241627,18.506,18.519,18.505,18.513
201909241628,18.513,18.523,18.513,18.517
201909241629,18.517,18.521,18.517,18.52
201909241630,18.52,18.536,18.52,18.53
201909241631,18.53,18.534,18.525,18.525
201909241632,18.524,18.531,18.524,18.53
201909241633,18.53,18.538,18.53,18.538
201909241634,18.538,18.538,18.529,18.529
201909241635,18.529,18.552,18.529,18.54
201909241636,18.54,18.544,18.535,18.54
201909241637,18.54,18.553,18.54,18.551
201909241638,18.551,18.556,18.55,18.556
201909241639,18.556,18.573,18.556,18.565
201909241640,18.566,18.576,18.563,18.576
201909241641,18.575,18.577,18.57,18.572
201909241642,18.573,18.578,18.567,18.576
201909241643,18.577,18.579,18.575,18.577
201909241644,18.577,18.583,18.574,18.583
201909241645,18.583,18.583,18.582,18.582
201909241646,18.582,18.582,18.578,18.578
201909241647,18.578,18.578,18.568,18.571
201909241648,18.572,18.572,18.561,18.563
201909241649,18.563,18.563,18.555,18.558
201909241650,18.558,18.561,18.556,18.561
201909241651,18.561,18.568,18.56,18.567
201909241652,18.567,18.571,18.567,18.569
201909241653,18.569,18.581,18.569,18.581
201909241654,18.581,18.582,18.573,18.574
201909241655,18.576,18.582,18.576,18.579
201909241656,18.579,18.582,18.577,18.577
201909241657,18.577,18.589,18.577,18.589
201909241658,18.589,18.589,18.58,18.582
201909241659,18.583,18.583,18.576,18.581
201909241700,18.581,18.584,18.571,18.575
201909241701,18.575,18.578,18.572,18.573
201909241702,18.574,18.58,18.571,18.58
201909241703,18.582,18.583,18.577,18.578
201909241704,18.578,18.588,18.576,18.588
201909241705,18.588,18.594,18.583,18.583
201909241706,18.583,18.587,18.581,18.587
201909241707,18.587,18.593,18.585,18.592
201909241708,18.592,18.593,18.584,18.592
201909241709,18.592,18.599,18.591,18.598
201909241710,18.598,18.598,18.591,18.594
201909241711,18.594,18.598,18.591,18.598
201909241712,18.598,18.61,18.595,18.609
201909241713,18.609,18.635,18.609,18.635
201909241714,18.636,18.654,18.632,18.634
201909241715,18.634,18.644,18.633,18.642
201909241716,18.644,18.652,18.632,18.632
201909241717,18.632,18.635,18.627,18.63
201909241718,18.63,18.641,18.628,18.641
201909241719,18.641,18.642,18.627,18.627
201909241720,18.627,18.629,18.618,18.618
201909241721,18.618,18.619,18.613,18.613
201909241722,18.613,18.618,18.61,18.61
201909241723,18.61,18.617,18.61,18.617
201909241724,18.617,18.623,18.609,18.611
201909241725,18.611,18.612,18.603,18.603
201909241726,18.603,18.624,18.602,18.62
201909241727,18.62,18.625,18.616,18.624
201909241728,18.624,18.629,18.623,18.628
201909241729,18.626,18.629,18.624,18.624
201909241730,18.624,18.625,18.617,18.623
201909241731,18.623,18.63,18.623,18.626
201909241732,18.626,18.628,18.618,18.619
201909241733,18.62,18.624,18.619,18.622
201909241734,18.622,18.629,18.622,18.628
201909241735,18.628,18.628,18.619,18.623
201909241736,18.623,18.624,18.621,18.623
201909241737,18.622,18.629,18.619,18.627
201909241738,18.627,18.632,18.625,18.631
201909241739,18.632,18.632,18.62,18.623
201909241740,18.625,18.625,18.622,18.623
201909241741,18.623,18.625,18.617,18.624
201909241742,18.624,18.625,18.618,18.625
201909241743,18.625,18.627,18.622,18.623
201909241744,18.623,18.625,18.618,18.619
201909241745,18.62,18.621,18.618,18.62
201909241746,18.621,18.624,18.619,18.623
201909241747,18.625,18.625,18.621,18.621
201909241748,18.621,18.621,18.608,18.61
201909241749,18.609,18.613,18.603,18.613
201909241750,18.613,18.614,18.607,18.609
201909241751,18.609,18.614,18.609,18.613
201909241752,18.613,18.617,18.613,18.615
201909241753,18.615,18.617,18.612,18.612
201909241754,18.612,18.613,18.611,18.612
201909241755,18.612,18.613,18.607,18.609
201909241756,18.609,18.613,18.608,18.613
201909241757,18.613,18.616,18.612,18.616
201909241758,18.616,18.618,18.613,18.618
201909241759,18.618,18.618,18.616,18.618
201909241800,18.618,18.618,18.616,18.618
201909241801,18.618,18.618,18.613,18.615
201909241802,18.615,18.617,18.613,18.615
201909241803,18.614,18.614,18.611,18.611
201909241804,18.611,18.611,18.601,18.601
201909241805,18.601,18.603,18.593,18.596
201909241806,18.596,18.597,18.588,18.591
201909241807,18.591,18.592,18.59,18.591
201909241808,18.591,18.593,18.589,18.59
201909241809,18.59,18.597,18.59,18.595
201909241810,18.595,18.598,18.592,18.595
201909241811,18.596,18.596,18.59,18.59
201909241812,18.589,18.591,18.583,18.586
201909241813,18.586,18.594,18.585,18.587
201909241814,18.587,18.588,18.586,18.586
201909241815,18.586,18.588,18.579,18.583
201909241816,18.583,18.589,18.582,18.589
201909241817,18.589,18.589,18.583,18.584
201909241818,18.584,18.584,18.583,18.584
201909241819,18.584,18.589,18.584,18.589
201909241820,18.588,18.59,18.583,18.588
201909241821,18.588,18.589,18.567,18.569
201909241822,18.569,18.579,18.569,18.578
201909241823,18.578,18.584,18.578,18.583
201909241824,18.584,18.585,18.582,18.583
201909241825,18.583,18.585,18.583,18.585
201909241826,18.588,18.589,18.586,18.589
201909241827,18.589,18.594,18.588,18.593
201909241828,18.593,18.595,18.59,18.593
201909241829,18.593,18.593,18.584,18.585
201909241830,18.585,18.585,18.58,18.584
201909241831,18.584,18.593,18.584,18.591
201909241832,18.589,18.594,18.588,18.593
201909241833,18.593,18.598,18.593,18.598
201909241834,18.599,18.599,18.592,18.594
201909241835,18.594,18.598,18.592,18.594
201909241836,18.594,18.594,18.587,18.591
201909241837,18.591,18.591,18.583,18.587
201909241838,18.587,18.592,18.585,18.589
201909241839,18.59,18.593,18.584,18.584
201909241840,18.584,18.584,18.579,18.579
201909241841,18.579,18.579,18.569,18.569
201909241842,18.569,18.575,18.569,18.57
201909241843,18.57,18.58,18.568,18.579
201909241844,18.579,18.586,18.578,18.585
201909241845,18.585,18.585,18.579,18.584
201909241846,18.584,18.585,18.583,18.583
201909241847,18.583,18.586,18.583,18.585
201909241848,18.585,18.587,18.583,18.585
201909241849,18.585,18.587,18.584,18.584
201909241850,18.584,18.584,18.582,18.584
201909241851,18.585,18.587,18.584,18.584
201909241852,18.584,18.588,18.582,18.588
201909241853,18.588,18.59,18.588,18.589
201909241854,18.589,18.59,18.586,18.589
201909241855,18.589,18.589,18.577,18.584
201909241856,18.584,18.584,18.578,18.578
201909241857,18.578,18.578,18.577,18.577
201909241858,18.577,18.578,18.577,18.577
201909241859,18.577,18.577,18.575,18.575
201909241900,18.575,18.575,18.57,18.573
201909241901,18.573,18.574,18.572,18.574
201909241902,18.574,18.577,18.573,18.576
201909241903,18.577,18.58,18.575,18.578
201909241904,18.578,18.583,18.577,18.582
201909241905,18.582,18.588,18.577,18.579
201909241906,18.579,18.579,18.573,18.578
201909241907,18.578,18.58,18.577,18.578
201909241908,18.578,18.584,18.577,18.584
201909241909,18.584,18.586,18.583,18.585
201909241910,18.585,18.585,18.577,18.579
201909241911,18.58,18.584,18.577,18.577
201909241912,18.577,18.58,18.576,18.579
201909241913,18.579,18.58,18.575,18.578
201909241914,18.579,18.579,18.571,18.573
201909241915,18.573,18.576,18.572,18.573
201909241916,18.573,18.576,18.572,18.576
201909241917,18.576,18.576,18.572,18.575
201909241918,18.575,18.575,18.573,18.574
201909241919,18.574,18.574,18.573,18.574
201909241920,18.574,18.575,18.573,18.574
201909241921,18.574,18.578,18.573,18.573
201909241922,18.573,18.581,18.573,18.575
201909241923,18.575,18.575,18.573,18.573
201909241924,18.573,18.574,18.572,18.573
201909241925,18.573,18.574,18.571,18.571
201909241926,18.571,18.573,18.57,18.57
201909241927,18.57,18.571,18.57,18.57
201909241928,18.57,18.574,18.57,18.574
201909241929,18.574,18.579,18.573,18.578
201909241930,18.579,18.579,18.57,18.571
201909241931,18.571,18.571,18.569,18.57
201909241932,18.57,18.57,18.569,18.57
201909241933,18.57,18.574,18.57,18.572
201909241934,18.572,18.574,18.572,18.574
201909241935,18.574,18.578,18.574,18.577
201909241936,18.577,18.578,18.576,18.578
201909241937,18.578,18.578,18.576,18.578
201909241938,18.578,18.579,18.578,18.579
201909241939,18.579,18.584,18.578,18.583
201909241940,18.583,18.584,18.579,18.583
201909241941,18.584,18.594,18.584,18.593
201909241942,18.592,18.597,18.589,18.589
201909241943,18.59,18.592,18.588,18.591
201909241944,18.591,18.592,18.579,18.579
201909241945,18.579,18.579,18.577,18.578
201909241946,18.578,18.578,18.572,18.573
201909241947,18.573,18.573,18.573,18.573
201909241948,18.573,18.576,18.571,18.574
201909241949,18.574,18.577,18.573,18.573
201909241950,18.573,18.573,18.567,18.568
201909241951,18.568,18.569,18.567,18.567
201909241952,18.567,18.572,18.557,18.558
201909241953,18.558,18.562,18.557,18.559
201909241954,18.559,18.56,18.548,18.549
201909241955,18.549,18.553,18.545,18.546
201909241956,18.546,18.548,18.54,18.54
201909241957,18.54,18.54,18.538,18.54
201909241958,18.539,18.569,18.539,18.559
201909241959,18.559,18.568,18.559,18.562
201909242000,18.562,18.563,18.554,18.557
201909242001,18.556,18.567,18.554,18.567
201909242002,18.567,18.567,18.554,18.554
201909242003,18.554,18.558,18.553,18.553
201909242004,18.553,18.556,18.553,18.553
201909242005,18.554,18.554,18.553,18.554
201909242006,18.554,18.554,18.553,18.553
201909242007,18.553,18.553,18.552,18.553
201909242008,18.553,18.554,18.543,18.544
201909242009,18.544,18.545,18.535,18.538
201909242010,18.538,18.54,18.533,18.534
201909242011,18.534,18.534,18.53,18.533
201909242012,18.533,18.538,18.533,18.538
201909242013,18.538,18.538,18.532,18.536
201909242014,18.536,18.536,18.526,18.531
201909242015,18.532,18.535,18.531,18.534
201909242016,18.534,18.539,18.534,18.538
201909242017,18.538,18.548,18.538,18.544
201909242018,18.544,18.548,18.543,18.544
201909242019,18.545,18.547,18.537,18.538
201909242020,18.538,18.539,18.535,18.538
201909242021,18.538,18.543,18.533,18.533
201909242022,18.533,18.539,18.533,18.538
201909242023,18.538,18.539,18.537,18.537
201909242024,18.536,18.538,18.534,18.534
201909242025,18.533,18.539,18.533,18.538
201909242026,18.538,18.538,18.528,18.528
201909242027,18.528,18.533,18.526,18.533
201909242028,18.534,18.536,18.534,18.534
201909242029,18.534,18.534,18.531,18.531
201909242030,18.531,18.538,18.531,18.538
201909242031,18.538,18.539,18.529,18.53
201909242032,18.53,18.53,18.524,18.525
201909242033,18.525,18.525,18.514,18.514
201909242034,18.514,18.516,18.508,18.509
201909242035,18.509,18.513,18.507,18.513
201909242036,18.513,18.515,18.509,18.509
201909242037,18.509,18.514,18.509,18.51
201909242038,18.51,18.513,18.509,18.51
201909242039,18.51,18.51,18.508,18.509
201909242040,18.509,18.51,18.502,18.509
201909242041,18.509,18.514,18.509,18.51
201909242042,18.51,18.521,18.51,18.519
201909242043,18.519,18.521,18.513,18.513
201909242044,18.513,18.514,18.503,18.503
201909242045,18.503,18.506,18.503,18.504
201909242046,18.504,18.514,18.504,18.511
201909242047,18.511,18.514,18.509,18.509
201909242048,18.509,18.514,18.509,18.512
201909242049,18.512,18.515,18.509,18.515
201909242050,18.517,18.517,18.509,18.509
201909242051,18.51,18.516,18.51,18.513
201909242052,18.513,18.535,18.513,18.534
201909242053,18.534,18.534,18.528,18.529
201909242054,18.533,18.538,18.528,18.538
201909242055,18.538,18.543,18.536,18.538
201909242056,18.539,18.539,18.528,18.529
201909242057,18.529,18.53,18.525,18.528
201909242058,18.528,18.529,18.523,18.525
201909242059,18.524,18.529,18.522,18.529
201909242100,18.529,18.536,18.525,18.526
201909242101,18.528,18.532,18.524,18.524
201909242102,18.528,18.543,18.528,18.542
201909242103,18.542,18.551,18.541,18.549
201909242104,18.549,18.555,18.549,18.552
201909242105,18.552,18.557,18.551,18.557
201909242106,18.557,18.56,18.547,18.548
201909242107,18.548,18.548,18.547,18.548
201909242108,18.548,18.548,18.538,18.538
201909242109,18.538,18.543,18.538,18.541
201909242110,18.542,18.549,18.538,18.546
201909242111,18.547,18.554,18.546,18.553
201909242112,18.553,18.553,18.548,18.551
201909242113,18.551,18.553,18.548,18.553
201909242114,18.553,18.553,18.548,18.548
201909242115,18.548,18.549,18.539,18.549
201909242116,18.549,18.552,18.539,18.539
201909242117,18.539,18.548,18.539,18.544
201909242118,18.544,18.548,18.544,18.548
201909242119,18.548,18.548,18.542,18.544
201909242120,18.544,18.553,18.542,18.548
201909242121,18.548,18.549,18.542,18.542
201909242122,18.539,18.543,18.534,18.537
201909242123,18.537,18.543,18.537,18.539
201909242124,18.539,18.543,18.525,18.526
201909242125,18.525,18.525,18.515,18.515
201909242126,18.515,18.523,18.514,18.519
201909242127,18.518,18.519,18.513,18.519
201909242128,18.519,18.525,18.518,18.52
201909242129,18.521,18.521,18.507,18.507
201909242130,18.507,18.513,18.497,18.511
201909242131,18.511,18.515,18.508,18.509
201909242132,18.509,18.515,18.508,18.514
201909242133,18.514,18.526,18.512,18.52
201909242134,18.52,18.52,18.511,18.518
201909242135,18.518,18.519,18.511,18.517
201909242136,18.516,18.519,18.512,18.519
201909242137,18.519,18.521,18.514,18.518
201909242138,18.518,18.518,18.507,18.509
201909242139,18.509,18.512,18.504,18.508
201909242140,18.508,18.513,18.505,18.513
201909242141,18.513,18.513,18.506,18.508
201909242142,18.508,18.513,18.502,18.512
201909242143,18.512,18.513,18.506,18.508
201909242144,18.508,18.509,18.502,18.508
201909242145,18.508,18.513,18.497,18.498
201909242146,18.498,18.503,18.496,18.503
201909242147,18.507,18.509,18.505,18.508
201909242148,18.508,18.513,18.498,18.498
201909242149,18.498,18.507,18.497,18.507
201909242150,18.507,18.513,18.505,18.507
201909242151,18.507,18.508,18.502,18.503
201909242152,18.503,18.513,18.503,18.511
201909242153,18.511,18.514,18.499,18.503
201909242154,18.502,18.509,18.501,18.508
201909242155,18.508,18.513,18.508,18.509
201909242156,18.509,18.513,18.506,18.51
201909242157,18.511,18.515,18.506,18.508
201909242158,18.508,18.509,18.503,18.504
201909242159,18.504,18.506,18.5,18.503
201909242200,18.502,18.535,18.502,18.53
201909242201,18.53,18.534,18.519,18.527
201909242202,18.528,18.537,18.524,18.532
201909242203,18.532,18.532,18.519,18.522
201909242204,18.522,18.523,18.505,18.507
201909242205,18.507,18.51,18.478,18.483
201909242206,18.483,18.492,18.479,18.491
201909242207,18.492,18.494,18.452,18.461
201909242208,18.461,18.466,18.448,18.457
201909242209,18.457,18.475,18.456,18.47
201909242210,18.47,18.478,18.462,18.473
201909242211,18.473,18.476,18.451,18.457
201909242212,18.457,18.468,18.457,18.461
201909242213,18.461,18.47,18.461,18.464
201909242214,18.463,18.464,18.38,18.381
201909242215,18.381,18.385,18.317,18.344
201909242216,18.343,18.379,18.338,18.343
201909242217,18.342,18.353,18.332,18.346
201909242218,18.349,18.356,18.322,18.34
201909242219,18.34,18.35,18.333,18.336
201909242220,18.339,18.343,18.322,18.341
201909242221,18.341,18.354,18.341,18.35
201909242222,18.35,18.361,18.35,18.361
201909242223,18.361,18.365,18.349,18.349
201909242224,18.35,18.361,18.346,18.36
201909242225,18.36,18.381,18.36,18.376
201909242226,18.376,18.395,18.372,18.393
201909242227,18.393,18.396,18.39,18.39
201909242228,18.386,18.386,18.374,18.381
201909242229,18.381,18.382,18.366,18.37
201909242230,18.371,18.383,18.368,18.371
201909242231,18.371,18.371,18.35,18.352
201909242232,18.352,18.362,18.343,18.358
201909242233,18.359,18.372,18.357,18.372
201909242234,18.372,18.373,18.361,18.361
201909242235,18.361,18.377,18.361,18.373
201909242236,18.375,18.393,18.372,18.387
201909242237,18.387,18.388,18.365,18.367
201909242238,18.368,18.374,18.36,18.361
201909242239,18.362,18.363,18.351,18.352
201909242240,18.352,18.353,18.345,18.351
201909242241,18.351,18.351,18.337,18.342
201909242242,18.342,18.344,18.254,18.286
201909242243,18.274,18.284,18.247,18.283
201909242244,18.283,18.3,18.281,18.29
201909242245,18.29,18.299,18.252,18.268
201909242246,18.268,18.295,18.268,18.295
201909242247,18.294,18.305,18.29,18.301
201909242248,18.301,18.306,18.296,18.305
201909242249,18.305,18.312,18.301,18.306
201909242250,18.306,18.307,18.291,18.296
201909242251,18.296,18.3,18.291,18.299
201909242252,18.299,18.315,18.299,18.315
201909242253,18.315,18.32,18.306,18.31
201909242254,18.31,18.329,18.309,18.321
201909242255,18.321,18.329,18.315,18.325
201909242256,18.325,18.343,18.322,18.34
201909242257,18.34,18.35,18.319,18.327
201909242258,18.328,18.329,18.317,18.324
201909242259,18.323,18.326,18.32,18.326
201909242300,18.325,18.389,18.324,18.382
201909242301,18.382,18.387,18.371,18.382
201909242302,18.383,18.386,18.371,18.385
201909242303,18.383,18.395,18.371,18.383
201909242304,18.383,18.391,18.363,18.366
201909242305,18.366,18.393,18.365,18.393
201909242306,18.392,18.395,18.379,18.382
201909242307,18.384,18.386,18.374,18.386
201909242308,18.388,18.402,18.388,18.391
201909242309,18.391,18.399,18.387,18.391
201909242310,18.391,18.405,18.39,18.399
201909242311,18.399,18.401,18.377,18.388
201909242312,18.389,18.393,18.367,18.375
201909242313,18.374,18.388,18.374,18.376
201909242314,18.376,18.384,18.366,18.366
201909242315,18.365,18.392,18.365,18.389
201909242316,18.389,18.422,18.389,18.415
201909242317,18.413,18.414,18.401,18.407
201909242318,18.407,18.407,18.389,18.396
201909242319,18.397,18.399,18.386,18.395
201909242320,18.395,18.406,18.379,18.384
201909242321,18.384,18.4,18.379,18.4
201909242322,18.4,18.416,18.398,18.405
201909242323,18.405,18.42,18.403,18.416
201909242324,18.416,18.432,18.413,18.431
201909242325,18.431,18.441,18.415,18.437
201909242326,18.438,18.44,18.427,18.431
201909242327,18.431,18.433,18.422,18.422
201909242328,18.422,18.435,18.42,18.427
201909242329,18.427,18.464,18.427,18.456
201909242330,18.456,18.464,18.445,18.445
201909242331,18.445,18.48,18.445,18.472
201909242332,18.472,18.486,18.471,18.476
201909242333,18.476,18.476,18.459,18.461
201909242334,18.461,18.466,18.45,18.46
201909242335,18.46,18.47,18.455,18.456
201909242336,18.456,18.487,18.456,18.48
201909242337,18.48,18.49,18.48,18.482
201909242338,18.48,18.481,18.47,18.472
201909242339,18.472,18.48,18.467,18.472
201909242340,18.472,18.488,18.471,18.478
201909242341,18.478,18.485,18.474,18.476
201909242342,18.477,18.477,18.454,18.456
201909242343,18.455,18.458,18.45,18.458
201909242344,18.457,18.458,18.435,18.442
201909242345,18.442,18.446,18.433,18.44
201909242346,18.44,18.446,18.432,18.434
201909242347,18.434,18.439,18.423,18.423
201909242348,18.423,18.437,18.419,18.437
201909242349,18.437,18.445,18.42,18.425
201909242350,18.427,18.429,18.406,18.409
201909242351,18.409,18.416,18.406,18.409
201909242352,18.41,18.413,18.395,18.411
201909242353,18.411,18.422,18.41,18.422
201909242354,18.422,18.431,18.42,18.431
201909242355,18.431,18.435,18.425,18.432
201909242356,18.432,18.443,18.432,18.442
201909242357,18.442,18.443,18.432,18.441
201909242358,18.441,18.446,18.437,18.442
201909242359,18.442,18.451,18.442,18.451
201909250000,18.451,18.463,18.449,18.462
201909250001,18.461,18.471,18.455,18.471
201909250002,18.471,18.471,18.46,18.464
201909250003,18.464,18.471,18.458,18.463
201909250004,18.463,18.467,18.461,18.467
201909250005,18.467,18.467,18.452,18.461
201909250006,18.461,18.463,18.456,18.456
201909250007,18.456,18.461,18.45,18.452
201909250008,18.453,18.462,18.451,18.462
201909250009,18.462,18.471,18.458,18.471
201909250010,18.472,18.473,18.464,18.465
201909250011,18.466,18.48,18.465,18.476
201909250012,18.476,18.479,18.472,18.477
201909250013,18.477,18.482,18.476,18.481
201909250014,18.48,18.515,18.48,18.508
201909250015,18.508,18.509,18.496,18.503
201909250016,18.503,18.506,18.498,18.499
201909250017,18.499,18.506,18.497,18.506
201909250018,18.506,18.525,18.506,18.52
201909250019,18.52,18.52,18.509,18.514
201909250020,18.515,18.516,18.499,18.511
201909250021,18.511,18.53,18.511,18.53
201909250022,18.529,18.549,18.524,18.545
201909250023,18.543,18.552,18.541,18.541
201909250024,18.541,18.549,18.536,18.548
201909250025,18.547,18.556,18.544,18.549
201909250026,18.549,18.55,18.54,18.541
201909250027,18.541,18.543,18.536,18.537
201909250028,18.537,18.545,18.536,18.544
201909250029,18.543,18.547,18.537,18.547
201909250030,18.547,18.548,18.533,18.539
201909250031,18.539,18.542,18.532,18.534
201909250032,18.534,18.55,18.531,18.542
201909250033,18.542,18.542,18.533,18.539
201909250034,18.539,18.542,18.536,18.54
201909250035,18.54,18.546,18.538,18.546
201909250036,18.547,18.565,18.546,18.562
201909250037,18.562,18.567,18.553,18.554
201909250038,18.554,18.562,18.554,18.561
201909250039,18.561,18.569,18.557,18.569
201909250040,18.569,18.569,18.559,18.562
201909250041,18.562,18.567,18.56,18.563
201909250042,18.563,18.572,18.559,18.568
201909250043,18.568,18.569,18.561,18.566
201909250044,18.566,18.587,18.566,18.58
201909250045,18.581,18.584,18.565,18.567
201909250046,18.568,18.574,18.56,18.566
201909250047,18.566,18.567,18.552,18.552
201909250048,18.551,18.551,18.529,18.536
201909250049,18.537,18.542,18.536,18.54
201909250050,18.54,18.549,18.538,18.544
201909250051,18.544,18.546,18.542,18.545
201909250052,18.545,18.554,18.545,18.552
201909250053,18.552,18.558,18.551,18.556
201909250054,18.556,18.557,18.549,18.55
201909250055,18.55,18.552,18.541,18.543
201909250056,18.545,18.546,18.536,18.543
201909250057,18.543,18.545,18.528,18.531
201909250058,18.53,18.535,18.508,18.515
201909250059,18.514,18.524,18.514,18.52
201909250100,18.52,18.534,18.52,18.532
201909250101,18.532,18.532,18.515,18.516
201909250102,18.517,18.519,18.499,18.501
201909250103,18.501,18.505,18.499,18.505
201909250104,18.503,18.511,18.5,18.509
201909250105,18.509,18.509,18.491,18.491
201909250106,18.491,18.492,18.464,18.474
201909250107,18.474,18.483,18.474,18.48
201909250108,18.48,18.481,18.468,18.475
201909250109,18.475,18.483,18.475,18.483
201909250110,18.483,18.494,18.479,18.491
201909250111,18.491,18.505,18.487,18.505
201909250112,18.505,18.506,18.496,18.504
201909250113,18.504,18.51,18.502,18.506
201909250114,18.506,18.521,18.504,18.521
201909250115,18.521,18.521,18.51,18.514
201909250116,18.514,18.514,18.502,18.51
201909250117,18.51,18.517,18.509,18.516
201909250118,18.516,18.528,18.513,18.528
201909250119,18.528,18.543,18.528,18.538
201909250120,18.537,18.542,18.529,18.529
201909250121,18.529,18.533,18.519,18.519
201909250122,18.519,18.535,18.519,18.534
201909250123,18.534,18.557,18.533,18.545
201909250124,18.544,18.554,18.54,18.543
201909250125,18.543,18.554,18.539,18.549
201909250126,18.548,18.565,18.548,18.565
201909250127,18.565,18.565,18.546,18.55
201909250128,18.551,18.569,18.55,18.555
201909250129,18.558,18.559,18.531,18.533
201909250130,18.533,18.55,18.532,18.55
201909250131,18.55,18.553,18.543,18.548
201909250132,18.548,18.567,18.544,18.567
201909250133,18.567,18.572,18.565,18.571
201909250134,18.571,18.577,18.568,18.572
201909250135,18.572,18.599,18.572,18.591
201909250136,18.591,18.591,18.573,18.578
201909250137,18.579,18.59,18.577,18.587
201909250138,18.586,18.588,18.576,18.586
201909250139,18.586,18.595,18.579,18.586
201909250140,18.586,18.607,18.585,18.605
201909250141,18.605,18.616,18.602,18.606
201909250142,18.606,18.615,18.597,18.597
201909250143,18.597,18.6,18.587,18.588
201909250144,18.588,18.59,18.57,18.574
201909250145,18.574,18.584,18.574,18.579
201909250146,18.579,18.581,18.57,18.57
201909250147,18.568,18.57,18.559,18.565
201909250148,18.565,18.577,18.564,18.571
201909250149,18.571,18.572,18.567,18.571
201909250150,18.571,18.592,18.569,18.589
201909250151,18.589,18.603,18.587,18.599
201909250152,18.599,18.612,18.599,18.605
201909250153,18.605,18.607,18.598,18.6
201909250154,18.6,18.611,18.599,18.61
201909250155,18.611,18.613,18.601,18.606
201909250156,18.606,18.608,18.597,18.6
201909250157,18.6,18.61,18.598,18.601
201909250158,18.601,18.601,18.589,18.593
201909250159,18.593,18.598,18.585,18.586
201909250200,18.586,18.604,18.586,18.595
201909250201,18.594,18.594,18.579,18.583
201909250202,18.583,18.6,18.579,18.6
201909250203,18.6,18.601,18.588,18.59
201909250204,18.59,18.593,18.576,18.576
201909250205,18.576,18.58,18.567,18.568
201909250206,18.569,18.574,18.568,18.573
201909250207,18.573,18.574,18.563,18.563
201909250208,18.564,18.567,18.557,18.562
201909250209,18.562,18.569,18.562,18.564
201909250210,18.563,18.574,18.563,18.572
201909250211,18.572,18.572,18.559,18.56
201909250212,18.559,18.572,18.552,18.572
201909250213,18.572,18.582,18.569,18.574
201909250214,18.574,18.575,18.568,18.572
201909250215,18.572,18.578,18.571,18.578
201909250216,18.578,18.588,18.578,18.584
201909250217,18.584,18.586,18.574,18.574
201909250218,18.574,18.574,18.562,18.563
201909250219,18.564,18.57,18.56,18.569
201909250220,18.569,18.575,18.567,18.571
201909250221,18.571,18.576,18.563,18.568
201909250222,18.568,18.59,18.568,18.589
201909250223,18.589,18.596,18.573,18.574
201909250224,18.574,18.574,18.554,18.559
201909250225,18.559,18.569,18.558,18.561
201909250226,18.561,18.565,18.558,18.561
201909250227,18.561,18.569,18.556,18.568
201909250228,18.568,18.568,18.563,18.567
201909250229,18.567,18.579,18.564,18.579
201909250230,18.58,18.582,18.561,18.565
201909250231,18.562,18.568,18.56,18.56
201909250232,18.56,18.561,18.519,18.52
201909250233,18.52,18.539,18.519,18.536
201909250234,18.536,18.541,18.531,18.531
201909250235,18.531,18.546,18.531,18.541
201909250236,18.541,18.545,18.537,18.539
201909250237,18.539,18.539,18.517,18.521
201909250238,18.521,18.53,18.52,18.52
201909250239,18.52,18.524,18.514,18.518
201909250240,18.519,18.519,18.489,18.495
201909250241,18.495,18.509,18.495,18.506
201909250242,18.506,18.516,18.505,18.512
201909250243,18.511,18.516,18.506,18.515
201909250244,18.515,18.52,18.51,18.518
201909250245,18.519,18.521,18.513,18.514
201909250246,18.514,18.53,18.514,18.529
201909250247,18.53,18.536,18.525,18.525
201909250248,18.525,18.529,18.52,18.52
201909250249,18.52,18.526,18.518,18.524
201909250250,18.523,18.526,18.514,18.515
201909250251,18.515,18.515,18.505,18.512
201909250252,18.512,18.514,18.509,18.509
201909250253,18.509,18.514,18.506,18.514
201909250254,18.514,18.52,18.513,18.518
201909250255,18.518,18.522,18.51,18.522
201909250256,18.522,18.522,18.516,18.52
201909250257,18.519,18.52,18.506,18.506
201909250258,18.506,18.517,18.505,18.515
201909250259,18.515,18.527,18.514,18.527
201909250300,18.527,18.53,18.525,18.529
201909250301,18.529,18.53,18.52,18.526
201909250302,18.526,18.528,18.522,18.526
201909250303,18.526,18.529,18.525,18.525
201909250304,18.525,18.526,18.521,18.525
201909250305,18.526,18.528,18.524,18.524
201909250306,18.524,18.53,18.524,18.53
201909250307,18.53,18.54,18.53,18.536
201909250308,18.536,18.548,18.536,18.543
201909250309,18.543,18.555,18.543,18.555
201909250310,18.555,18.559,18.553,18.559
201909250311,18.559,18.561,18.554,18.557
201909250312,18.556,18.556,18.476,18.476
201909250313,18.476,18.51,18.449,18.477
201909250314,18.48,18.504,18.46,18.48
201909250315,18.48,18.48,18.456,18.463
201909250316,18.463,18.465,18.447,18.451
201909250317,18.451,18.469,18.446,18.464
201909250318,18.464,18.474,18.455,18.469
201909250319,18.467,18.47,18.441,18.455
201909250320,18.46,18.469,18.451,18.469
201909250321,18.47,18.486,18.466,18.482
201909250322,18.482,18.491,18.477,18.491
201909250323,18.492,18.492,18.472,18.477
201909250324,18.477,18.496,18.477,18.49
201909250325,18.487,18.497,18.481,18.496
201909250326,18.496,18.5,18.492,18.5
201909250327,18.5,18.506,18.492,18.492
201909250328,18.492,18.496,18.48,18.48
201909250329,18.48,18.497,18.477,18.496
201909250330,18.496,18.505,18.493,18.498
201909250331,18.498,18.516,18.498,18.516
201909250332,18.516,18.523,18.516,18.521
201909250333,18.521,18.555,18.521,18.544
201909250334,18.545,18.55,18.54,18.544
201909250335,18.544,18.554,18.539,18.552
201909250336,18.552,18.562,18.546,18.56
201909250337,18.559,18.591,18.556,18.582
201909250338,18.581,18.581,18.546,18.574
201909250339,18.572,18.586,18.561,18.561
201909250340,18.56,18.579,18.56,18.574
201909250341,18.574,18.581,18.569,18.581
201909250342,18.581,18.585,18.571,18.582
201909250343,18.581,18.587,18.58,18.58
201909250344,18.581,18.581,18.571,18.581
201909250345,18.581,18.595,18.579,18.592
201909250346,18.592,18.592,18.578,18.578
201909250347,18.577,18.588,18.577,18.583
201909250348,18.582,18.582,18.571,18.574
201909250349,18.574,18.574,18.555,18.559
201909250350,18.558,18.568,18.558,18.564
201909250351,18.564,18.576,18.562,18.573
201909250352,18.572,18.575,18.567,18.571
201909250353,18.571,18.585,18.571,18.584
201909250354,18.584,18.584,18.571,18.574
201909250355,18.574,18.581,18.574,18.579
201909250356,18.58,18.586,18.578,18.586
201909250357,18.586,18.601,18.586,18.596
201909250358,18.596,18.61,18.596,18.606
201909250359,18.606,18.609,18.602,18.606
201909250400,18.606,18.624,18.604,18.621
201909250401,18.621,18.627,18.62,18.626
201909250402,18.626,18.627,18.608,18.613
201909250403,18.613,18.618,18.609,18.611
201909250404,18.611,18.612,18.604,18.605
201909250405,18.605,18.606,18.598,18.598
201909250406,18.599,18.601,18.594,18.599
201909250407,18.599,18.611,18.599,18.61
201909250408,18.61,18.61,18.605,18.607
201909250409,18.607,18.611,18.607,18.611
201909250410,18.61,18.61,18.599,18.605
201909250411,18.604,18.61,18.599,18.6
201909250412,18.597,18.597,18.586,18.59
201909250413,18.59,18.59,18.585,18.585
201909250414,18.585,18.588,18.579,18.579
201909250415,18.579,18.586,18.578,18.585
201909250416,18.585,18.593,18.584,18.593
201909250417,18.593,18.602,18.584,18.584
201909250418,18.584,18.585,18.574,18.575
201909250419,18.575,18.575,18.567,18.567
201909250420,18.566,18.578,18.566,18.578
201909250421,18.578,18.579,18.577,18.579
201909250422,18.578,18.597,18.578,18.597
201909250423,18.596,18.615,18.596,18.615
201909250424,18.615,18.626,18.613,18.613
201909250425,18.613,18.617,18.605,18.615
201909250426,18.616,18.621,18.61,18.62
201909250427,18.62,18.624,18.608,18.611
201909250428,18.611,18.613,18.607,18.612
201909250429,18.612,18.622,18.61,18.622
201909250430,18.622,18.627,18.618,18.623
201909250431,18.623,18.632,18.623,18.631
201909250432,18.631,18.632,18.623,18.631
201909250433,18.631,18.64,18.631,18.636
201909250434,18.637,18.651,18.635,18.647
201909250435,18.646,18.656,18.64,18.65
201909250436,18.65,18.651,18.645,18.646
201909250437,18.646,18.652,18.645,18.651
201909250438,18.651,18.652,18.638,18.638
201909250439,18.638,18.641,18.635,18.636
201909250440,18.636,18.646,18.635,18.639
201909250441,18.638,18.646,18.638,18.641
201909250442,18.641,18.644,18.638,18.641
201909250443,18.641,18.647,18.64,18.641
201909250444,18.641,18.647,18.641,18.647
201909250445,18.646,18.651,18.632,18.635
201909250446,18.633,18.642,18.633,18.636
201909250447,18.636,18.636,18.63,18.631
201909250448,18.631,18.631,18.617,18.622
201909250449,18.622,18.622,18.616,18.62
201909250450,18.62,18.627,18.62,18.622
201909250451,18.622,18.623,18.617,18.62
201909250452,18.62,18.634,18.619,18.63
201909250453,18.63,18.638,18.63,18.637
201909250454,18.636,18.636,18.629,18.631
201909250455,18.631,18.638,18.631,18.636
201909250456,18.635,18.638,18.629,18.633
201909250457,18.633,18.633,18.626,18.627
201909250458,18.628,18.632,18.628,18.632
201909250459,18.632,18.639,18.632,18.636
201909250500,18.636,18.637,18.625,18.628
201909250501,18.628,18.629,18.624,18.624
201909250502,18.624,18.627,18.622,18.622
201909250503,18.622,18.628,18.622,18.627
201909250504,18.627,18.627,18.622,18.622
201909250505,18.622,18.622,18.621,18.622
201909250506,18.622,18.625,18.616,18.617
201909250507,18.617,18.624,18.616,18.622
201909250508,18.622,18.624,18.621,18.622
201909250509,18.622,18.625,18.62,18.623
201909250510,18.623,18.625,18.621,18.621
201909250511,18.622,18.625,18.622,18.625
201909250512,18.624,18.625,18.624,18.625
201909250513,18.625,18.626,18.623,18.625
201909250514,18.625,18.626,18.625,18.626
201909250515,18.625,18.625,18.62,18.62
201909250516,18.62,18.62,18.616,18.616
201909250517,18.616,18.617,18.615,18.616
201909250518,18.616,18.616,18.616,18.616
201909250519,18.616,18.618,18.616,18.616
201909250520,18.616,18.62,18.616,18.619
201909250521,18.619,18.62,18.619,18.62
201909250522,18.62,18.621,18.618,18.62
201909250523,18.62,18.621,18.62,18.621
201909250524,18.621,18.621,18.616,18.616
201909250525,18.616,18.616,18.616,18.616
201909250526,18.616,18.619,18.615,18.615
201909250527,18.615,18.616,18.615,18.615
201909250528,18.615,18.615,18.591,18.595
201909250529,18.599,18.601,18.595,18.6
201909250530,18.6,18.605,18.592,18.595
201909250531,18.595,18.598,18.595,18.596
201909250532,18.596,18.599,18.596,18.599
201909250533,18.599,18.6,18.598,18.6
201909250534,18.6,18.6,18.596,18.596
201909250535,18.596,18.6,18.595,18.6
201909250536,18.6,18.6,18.595,18.599
201909250537,18.599,18.6,18.599,18.599
201909250538,18.599,18.606,18.599,18.606
201909250539,18.607,18.61,18.603,18.606
201909250540,18.606,18.61,18.605,18.61
201909250541,18.61,18.611,18.609,18.611
201909250542,18.611,18.615,18.611,18.615
201909250543,18.615,18.615,18.615,18.615
201909250544,18.615,18.619,18.611,18.612
201909250545,18.612,18.612,18.608,18.609
201909250546,18.609,18.609,18.594,18.594
201909250547,18.591,18.595,18.59,18.595
201909250548,18.595,18.601,18.595,18.596
201909250549,18.596,18.596,18.594,18.594
201909250550,18.592,18.598,18.587,18.593
201909250551,18.593,18.593,18.593,18.593
201909250552,18.593,18.6,18.593,18.598
201909250553,18.598,18.599,18.598,18.598
201909250554,18.598,18.6,18.598,18.6
201909250555,18.599,18.599,18.599,18.599
201909250556,18.599,18.599,18.594,18.597
201909250557,18.597,18.597,18.586,18.587
201909250558,18.589,18.597,18.589,18.595
201909250559,18.595,18.596,18.579,18.583
