日時,始値(BID),高値(BID),安値(BID),終値(BID)
201909170700,17.844,17.859,17.844,17.859
201909170701,17.856,17.857,17.84,17.84
201909170702,17.84,17.845,17.83,17.843
201909170703,17.843,17.844,17.835,17.836
201909170704,17.836,17.839,17.835,17.839
201909170705,17.839,17.839,17.833,17.836
201909170706,17.836,17.841,17.833,17.841
201909170707,17.841,17.858,17.841,17.849
201909170708,17.849,17.856,17.849,17.856
201909170709,17.856,17.862,17.856,17.862
201909170710,17.862,17.863,17.842,17.847
201909170711,17.847,17.847,17.832,17.842
201909170712,17.842,17.847,17.842,17.842
201909170713,17.842,17.842,17.839,17.839
201909170714,17.839,17.847,17.839,17.847
201909170715,17.847,17.847,17.842,17.842
201909170716,17.842,17.842,17.839,17.842
201909170717,17.842,17.847,17.842,17.847
201909170718,17.847,17.849,17.847,17.848
201909170719,17.848,17.852,17.848,17.852
201909170720,17.852,17.856,17.852,17.852
201909170721,17.852,17.852,17.851,17.851
201909170722,17.851,17.856,17.851,17.856
201909170723,17.856,17.86,17.856,17.86
201909170724,17.86,17.862,17.857,17.857
201909170725,17.857,17.857,17.854,17.857
201909170726,17.857,17.857,17.857,17.857
201909170727,17.857,17.857,17.856,17.857
201909170728,17.857,17.857,17.856,17.857
201909170729,17.857,17.858,17.857,17.858
201909170730,17.858,17.862,17.858,17.862
201909170731,17.862,17.862,17.862,17.862
201909170732,17.862,17.862,17.858,17.862
201909170733,17.862,17.862,17.862,17.862
201909170734,17.862,17.862,17.862,17.862
201909170735,17.862,17.862,17.862,17.862
201909170736,17.862,17.862,17.862,17.862
201909170737,17.862,17.862,17.857,17.857
201909170738,17.857,17.857,17.857,17.857
201909170739,17.857,17.857,17.857,17.857
201909170740,17.857,17.857,17.851,17.851
201909170741,17.851,17.852,17.847,17.847
201909170742,17.847,17.847,17.847,17.847
201909170743,17.847,17.847,17.847,17.847
201909170744,17.847,17.847,17.842,17.842
201909170745,17.842,17.842,17.842,17.842
201909170746,17.842,17.842,17.837,17.837
201909170747,17.837,17.842,17.837,17.842
201909170748,17.842,17.842,17.842,17.842
201909170749,17.842,17.842,17.842,17.842
201909170750,17.842,17.842,17.842,17.842
201909170751,17.842,17.842,17.842,17.842
201909170752,17.842,17.846,17.842,17.846
201909170753,17.846,17.847,17.846,17.847
201909170754,17.847,17.849,17.846,17.849
201909170755,17.849,17.851,17.847,17.847
201909170756,17.848,17.852,17.848,17.852
201909170757,17.852,17.861,17.848,17.852
201909170758,17.852,17.856,17.851,17.854
201909170759,17.854,17.854,17.852,17.852
201909170800,17.852,17.852,17.851,17.852
201909170801,17.852,17.857,17.852,17.857
201909170802,17.857,17.857,17.856,17.857
201909170803,17.857,17.857,17.857,17.857
201909170804,17.857,17.857,17.856,17.856
201909170805,17.856,17.857,17.856,17.857
201909170806,17.857,17.857,17.852,17.852
201909170807,17.852,17.856,17.852,17.856
201909170808,17.856,17.857,17.856,17.857
201909170809,17.857,17.857,17.856,17.857
201909170810,17.857,17.857,17.857,17.857
201909170811,17.857,17.857,17.856,17.857
201909170812,17.857,17.862,17.857,17.861
201909170813,17.861,17.861,17.86,17.861
201909170814,17.861,17.861,17.861,17.861
201909170815,17.861,17.861,17.857,17.857
201909170816,17.857,17.857,17.857,17.857
201909170817,17.857,17.857,17.857,17.857
201909170818,17.857,17.857,17.857,17.857
201909170819,17.857,17.857,17.857,17.857
201909170820,17.857,17.857,17.857,17.857
201909170821,17.857,17.857,17.857,17.857
201909170822,17.857,17.86,17.857,17.86
201909170823,17.861,17.861,17.857,17.861
201909170824,17.861,17.861,17.861,17.861
201909170825,17.861,17.861,17.857,17.857
201909170826,17.857,17.857,17.847,17.847
201909170827,17.847,17.847,17.845,17.847
201909170828,17.846,17.847,17.846,17.847
201909170829,17.847,17.847,17.845,17.847
201909170830,17.846,17.847,17.846,17.846
201909170831,17.846,17.846,17.841,17.842
201909170832,17.842,17.842,17.841,17.842
201909170833,17.842,17.842,17.842,17.842
201909170834,17.842,17.842,17.841,17.842
201909170835,17.842,17.842,17.837,17.837
201909170836,17.837,17.837,17.837,17.837
201909170837,17.837,17.837,17.837,17.837
201909170838,17.837,17.837,17.837,17.837
201909170839,17.837,17.84,17.837,17.837
201909170840,17.837,17.837,17.837,17.837
201909170841,17.837,17.837,17.837,17.837
201909170842,17.837,17.837,17.832,17.832
201909170843,17.831,17.831,17.816,17.816
201909170844,17.816,17.818,17.816,17.818
201909170845,17.818,17.824,17.817,17.824
201909170846,17.824,17.826,17.818,17.818
201909170847,17.818,17.818,17.817,17.817
201909170848,17.818,17.829,17.818,17.828
201909170849,17.828,17.829,17.823,17.823
201909170850,17.823,17.828,17.823,17.828
201909170851,17.828,17.828,17.826,17.827
201909170852,17.828,17.828,17.824,17.824
201909170853,17.824,17.827,17.823,17.823
201909170854,17.823,17.823,17.823,17.823
201909170855,17.823,17.823,17.819,17.819
201909170856,17.818,17.821,17.816,17.816
201909170857,17.816,17.817,17.816,17.817
201909170858,17.817,17.822,17.817,17.822
201909170859,17.821,17.822,17.818,17.822
201909170900,17.822,17.822,17.817,17.817
201909170901,17.817,17.822,17.817,17.821
201909170902,17.82,17.827,17.82,17.822
201909170903,17.822,17.822,17.807,17.807
201909170904,17.807,17.807,17.787,17.795
201909170905,17.795,17.795,17.786,17.787
201909170906,17.787,17.801,17.787,17.799
201909170907,17.799,17.805,17.799,17.802
201909170908,17.802,17.806,17.801,17.803
201909170909,17.804,17.812,17.804,17.811
201909170910,17.812,17.818,17.81,17.811
201909170911,17.811,17.816,17.811,17.816
201909170912,17.816,17.816,17.811,17.816
201909170913,17.816,17.821,17.816,17.82
201909170914,17.82,17.821,17.811,17.811
201909170915,17.811,17.811,17.806,17.807
201909170916,17.807,17.807,17.797,17.799
201909170917,17.8,17.8,17.779,17.78
201909170918,17.78,17.789,17.78,17.789
201909170919,17.788,17.79,17.781,17.782
201909170920,17.783,17.783,17.771,17.771
201909170921,17.771,17.781,17.771,17.781
201909170922,17.781,17.786,17.781,17.786
201909170923,17.787,17.795,17.787,17.791
201909170924,17.791,17.795,17.79,17.795
201909170925,17.795,17.801,17.795,17.796
201909170926,17.796,17.8,17.796,17.796
201909170927,17.796,17.805,17.796,17.805
201909170928,17.806,17.806,17.801,17.806
201909170929,17.806,17.814,17.806,17.812
201909170930,17.812,17.812,17.81,17.811
201909170931,17.81,17.811,17.806,17.807
201909170932,17.807,17.812,17.806,17.811
201909170933,17.81,17.811,17.807,17.811
201909170934,17.812,17.814,17.807,17.811
201909170935,17.81,17.81,17.799,17.806
201909170936,17.807,17.807,17.805,17.806
201909170937,17.805,17.816,17.802,17.816
201909170938,17.816,17.826,17.816,17.825
201909170939,17.825,17.827,17.824,17.827
201909170940,17.827,17.836,17.827,17.836
201909170941,17.836,17.836,17.832,17.832
201909170942,17.832,17.832,17.827,17.827
201909170943,17.827,17.828,17.827,17.828
201909170944,17.828,17.832,17.827,17.827
201909170945,17.827,17.827,17.822,17.822
201909170946,17.822,17.822,17.822,17.822
201909170947,17.822,17.822,17.81,17.815
201909170948,17.815,17.815,17.806,17.806
201909170949,17.806,17.806,17.8,17.804
201909170950,17.804,17.805,17.798,17.8
201909170951,17.8,17.802,17.796,17.801
201909170952,17.801,17.802,17.801,17.801
201909170953,17.801,17.805,17.8,17.804
201909170954,17.806,17.806,17.801,17.802
201909170955,17.802,17.807,17.802,17.807
201909170956,17.807,17.807,17.806,17.807
201909170957,17.807,17.812,17.796,17.796
201909170958,17.796,17.801,17.796,17.801
201909170959,17.801,17.801,17.796,17.797
201909171000,17.797,17.822,17.788,17.807
201909171001,17.807,17.825,17.803,17.813
201909171002,17.814,17.822,17.792,17.792
201909171003,17.792,17.817,17.788,17.814
201909171004,17.814,17.818,17.803,17.809
201909171005,17.81,17.81,17.799,17.804
201909171006,17.804,17.808,17.803,17.803
201909171007,17.803,17.803,17.794,17.803
201909171008,17.805,17.828,17.805,17.824
201909171009,17.824,17.845,17.824,17.84
201909171010,17.84,17.843,17.835,17.836
201909171011,17.836,17.839,17.833,17.835
201909171012,17.835,17.835,17.828,17.828
201909171013,17.828,17.838,17.82,17.835
201909171014,17.835,17.835,17.829,17.83
201909171015,17.83,17.83,17.815,17.815
201909171016,17.816,17.82,17.809,17.816
201909171017,17.817,17.818,17.81,17.811
201909171018,17.811,17.819,17.81,17.812
201909171019,17.812,17.818,17.812,17.815
201909171020,17.815,17.819,17.815,17.817
201909171021,17.817,17.817,17.805,17.806
201909171022,17.806,17.811,17.806,17.811
201909171023,17.814,17.82,17.814,17.819
201909171024,17.819,17.831,17.816,17.826
201909171025,17.826,17.829,17.825,17.826
201909171026,17.826,17.835,17.826,17.835
201909171027,17.835,17.845,17.835,17.841
201909171028,17.841,17.844,17.835,17.835
201909171029,17.835,17.835,17.832,17.834
201909171030,17.834,17.843,17.834,17.843
201909171031,17.843,17.847,17.839,17.839
201909171032,17.839,17.84,17.832,17.833
201909171033,17.833,17.834,17.827,17.829
201909171034,17.83,17.844,17.825,17.844
201909171035,17.844,17.853,17.843,17.845
201909171036,17.844,17.851,17.844,17.848
201909171037,17.848,17.848,17.836,17.836
201909171038,17.836,17.846,17.831,17.846
201909171039,17.846,17.846,17.842,17.844
201909171040,17.844,17.844,17.833,17.842
201909171041,17.842,17.853,17.842,17.849
201909171042,17.849,17.854,17.849,17.854
201909171043,17.854,17.858,17.848,17.848
201909171044,17.848,17.852,17.839,17.839
201909171045,17.842,17.846,17.839,17.843
201909171046,17.843,17.857,17.843,17.857
201909171047,17.857,17.857,17.847,17.848
201909171048,17.848,17.85,17.842,17.848
201909171049,17.85,17.85,17.841,17.844
201909171050,17.844,17.861,17.844,17.861
201909171051,17.861,17.881,17.857,17.877
201909171052,17.881,17.881,17.868,17.873
201909171053,17.873,17.887,17.873,17.882
201909171054,17.882,17.893,17.882,17.887
201909171055,17.887,17.89,17.875,17.879
201909171056,17.879,17.884,17.878,17.882
201909171057,17.882,17.885,17.881,17.881
201909171058,17.881,17.884,17.876,17.876
201909171059,17.877,17.888,17.876,17.887
201909171100,17.886,17.888,17.882,17.882
201909171101,17.882,17.882,17.873,17.878
201909171102,17.878,17.883,17.876,17.881
201909171103,17.881,17.884,17.88,17.881
201909171104,17.881,17.886,17.881,17.886
201909171105,17.886,17.886,17.867,17.867
201909171106,17.866,17.87,17.865,17.865
201909171107,17.865,17.865,17.862,17.864
201909171108,17.864,17.864,17.859,17.859
201909171109,17.859,17.864,17.857,17.862
201909171110,17.863,17.866,17.861,17.863
201909171111,17.865,17.867,17.861,17.862
201909171112,17.862,17.866,17.857,17.862
201909171113,17.862,17.866,17.861,17.862
201909171114,17.862,17.865,17.861,17.862
201909171115,17.862,17.885,17.862,17.881
201909171116,17.881,17.892,17.881,17.891
201909171117,17.891,17.892,17.886,17.892
201909171118,17.892,17.9,17.892,17.897
201909171119,17.897,17.902,17.894,17.894
201909171120,17.894,17.897,17.892,17.892
201909171121,17.892,17.908,17.892,17.902
201909171122,17.902,17.902,17.894,17.898
201909171123,17.898,17.902,17.897,17.897
201909171124,17.896,17.897,17.892,17.893
201909171125,17.893,17.902,17.892,17.9
201909171126,17.901,17.902,17.897,17.897
201909171127,17.897,17.897,17.895,17.897
201909171128,17.897,17.899,17.896,17.896
201909171129,17.896,17.896,17.892,17.896
201909171130,17.896,17.896,17.877,17.881
201909171131,17.881,17.881,17.87,17.876
201909171132,17.876,17.876,17.862,17.862
201909171133,17.862,17.864,17.856,17.856
201909171134,17.856,17.859,17.851,17.854
201909171135,17.855,17.861,17.853,17.855
201909171136,17.855,17.86,17.855,17.858
201909171137,17.858,17.859,17.856,17.859
201909171138,17.859,17.859,17.855,17.858
201909171139,17.858,17.865,17.856,17.861
201909171140,17.861,17.861,17.859,17.861
201909171141,17.861,17.861,17.858,17.859
201909171142,17.859,17.86,17.855,17.855
201909171143,17.855,17.859,17.855,17.855
201909171144,17.855,17.856,17.85,17.852
201909171145,17.852,17.854,17.846,17.846
201909171146,17.846,17.852,17.846,17.851
201909171147,17.851,17.851,17.846,17.849
201909171148,17.85,17.851,17.846,17.848
201909171149,17.846,17.85,17.844,17.847
201909171150,17.849,17.852,17.847,17.851
201909171151,17.851,17.851,17.846,17.847
201909171152,17.847,17.852,17.846,17.846
201909171153,17.846,17.86,17.846,17.857
201909171154,17.857,17.857,17.852,17.855
201909171155,17.854,17.856,17.852,17.854
201909171156,17.854,17.854,17.85,17.852
201909171157,17.852,17.852,17.848,17.849
201909171158,17.849,17.849,17.844,17.845
201909171159,17.844,17.844,17.837,17.839
201909171200,17.839,17.843,17.837,17.842
201909171201,17.842,17.843,17.842,17.843
201909171202,17.843,17.844,17.842,17.842
201909171203,17.842,17.847,17.842,17.847
201909171204,17.847,17.847,17.842,17.842
201909171205,17.842,17.846,17.842,17.843
201909171206,17.843,17.843,17.843,17.843
201909171207,17.843,17.847,17.839,17.839
201909171208,17.839,17.839,17.838,17.838
201909171209,17.838,17.848,17.838,17.84
201909171210,17.84,17.843,17.834,17.834
201909171211,17.834,17.841,17.831,17.841
201909171212,17.841,17.841,17.838,17.841
201909171213,17.841,17.853,17.839,17.852
201909171214,17.852,17.854,17.849,17.852
201909171215,17.852,17.857,17.852,17.856
201909171216,17.856,17.859,17.855,17.855
201909171217,17.855,17.856,17.852,17.854
201909171218,17.854,17.856,17.851,17.856
201909171219,17.855,17.856,17.854,17.855
201909171220,17.856,17.859,17.855,17.857
201909171221,17.857,17.862,17.856,17.857
201909171222,17.859,17.859,17.849,17.849
201909171223,17.849,17.856,17.849,17.855
201909171224,17.855,17.855,17.854,17.854
201909171225,17.854,17.855,17.85,17.855
201909171226,17.855,17.857,17.846,17.849
201909171227,17.849,17.849,17.844,17.844
201909171228,17.844,17.844,17.834,17.834
201909171229,17.834,17.838,17.834,17.835
201909171230,17.835,17.841,17.834,17.84
201909171231,17.84,17.841,17.839,17.841
201909171232,17.841,17.844,17.841,17.844
201909171233,17.844,17.844,17.843,17.844
201909171234,17.844,17.844,17.843,17.843
201909171235,17.843,17.844,17.843,17.844
201909171236,17.844,17.848,17.844,17.846
201909171237,17.846,17.846,17.842,17.842
201909171238,17.842,17.842,17.842,17.842
201909171239,17.842,17.843,17.842,17.843
201909171240,17.843,17.849,17.843,17.847
201909171241,17.847,17.847,17.846,17.847
201909171242,17.847,17.852,17.847,17.852
201909171243,17.852,17.853,17.848,17.848
201909171244,17.848,17.848,17.848,17.848
201909171245,17.848,17.848,17.845,17.845
201909171246,17.845,17.848,17.842,17.848
201909171247,17.848,17.848,17.845,17.846
201909171248,17.846,17.846,17.843,17.845
201909171249,17.845,17.846,17.845,17.846
201909171250,17.846,17.847,17.845,17.847
201909171251,17.847,17.847,17.845,17.845
201909171252,17.845,17.845,17.842,17.843
201909171253,17.843,17.843,17.837,17.837
201909171254,17.837,17.837,17.834,17.835
201909171255,17.835,17.836,17.833,17.836
201909171256,17.836,17.836,17.827,17.831
201909171257,17.831,17.831,17.831,17.831
201909171258,17.831,17.835,17.831,17.832
201909171259,17.831,17.836,17.831,17.835
201909171300,17.835,17.835,17.833,17.835
201909171301,17.835,17.836,17.834,17.836
201909171302,17.836,17.836,17.836,17.836
201909171303,17.836,17.84,17.836,17.84
201909171304,17.84,17.845,17.84,17.845
201909171305,17.845,17.845,17.841,17.841
201909171306,17.841,17.842,17.84,17.842
201909171307,17.842,17.845,17.842,17.845
201909171308,17.845,17.845,17.845,17.845
201909171309,17.845,17.845,17.845,17.845
201909171310,17.845,17.845,17.844,17.844
201909171311,17.844,17.844,17.841,17.841
201909171312,17.841,17.841,17.837,17.841
201909171313,17.841,17.841,17.84,17.841
201909171314,17.841,17.841,17.837,17.838
201909171315,17.838,17.84,17.838,17.84
201909171316,17.84,17.84,17.84,17.84
201909171317,17.84,17.84,17.836,17.837
201909171318,17.837,17.84,17.837,17.84
201909171319,17.84,17.84,17.839,17.84
201909171320,17.84,17.84,17.835,17.835
201909171321,17.835,17.836,17.835,17.836
201909171322,17.836,17.84,17.836,17.84
201909171323,17.84,17.84,17.839,17.84
201909171324,17.84,17.84,17.839,17.84
201909171325,17.84,17.84,17.836,17.836
201909171326,17.836,17.836,17.836,17.836
201909171327,17.836,17.84,17.836,17.837
201909171328,17.837,17.84,17.837,17.84
201909171329,17.84,17.841,17.84,17.841
201909171330,17.841,17.841,17.838,17.84
201909171331,17.84,17.845,17.84,17.841
201909171332,17.841,17.841,17.84,17.841
201909171333,17.84,17.841,17.84,17.841
201909171334,17.841,17.841,17.841,17.841
201909171335,17.84,17.84,17.839,17.84
201909171336,17.839,17.839,17.836,17.836
201909171337,17.837,17.842,17.837,17.841
201909171338,17.841,17.841,17.838,17.839
201909171339,17.839,17.839,17.837,17.837
201909171340,17.837,17.838,17.829,17.829
201909171341,17.829,17.83,17.828,17.829
201909171342,17.828,17.831,17.826,17.831
201909171343,17.831,17.832,17.831,17.832
201909171344,17.832,17.835,17.832,17.834
201909171345,17.834,17.834,17.825,17.826
201909171346,17.826,17.826,17.825,17.825
201909171347,17.825,17.826,17.825,17.825
201909171348,17.825,17.826,17.823,17.825
201909171349,17.825,17.827,17.825,17.826
201909171350,17.826,17.827,17.826,17.827
201909171351,17.827,17.827,17.818,17.818
201909171352,17.818,17.831,17.818,17.83
201909171353,17.83,17.832,17.829,17.832
201909171354,17.832,17.832,17.83,17.831
201909171355,17.831,17.832,17.829,17.831
201909171356,17.831,17.834,17.831,17.834
201909171357,17.834,17.834,17.832,17.832
201909171358,17.832,17.835,17.832,17.834
201909171359,17.834,17.841,17.832,17.84
201909171400,17.84,17.84,17.836,17.836
201909171401,17.837,17.837,17.832,17.833
201909171402,17.833,17.833,17.831,17.832
201909171403,17.832,17.832,17.831,17.832
201909171404,17.832,17.832,17.825,17.826
201909171405,17.826,17.826,17.82,17.822
201909171406,17.822,17.822,17.816,17.819
201909171407,17.822,17.822,17.815,17.821
201909171408,17.821,17.822,17.818,17.822
201909171409,17.821,17.822,17.821,17.821
201909171410,17.821,17.821,17.817,17.821
201909171411,17.821,17.821,17.82,17.82
201909171412,17.82,17.832,17.82,17.831
201909171413,17.831,17.836,17.831,17.835
201909171414,17.835,17.835,17.832,17.834
201909171415,17.832,17.834,17.831,17.831
201909171416,17.831,17.831,17.831,17.831
201909171417,17.831,17.831,17.831,17.831
201909171418,17.832,17.832,17.829,17.831
201909171419,17.831,17.836,17.83,17.836
201909171420,17.836,17.836,17.834,17.836
201909171421,17.836,17.836,17.836,17.836
201909171422,17.836,17.836,17.836,17.836
201909171423,17.836,17.836,17.836,17.836
201909171424,17.836,17.836,17.831,17.831
201909171425,17.831,17.844,17.831,17.844
201909171426,17.845,17.846,17.841,17.841
201909171427,17.841,17.842,17.841,17.841
201909171428,17.841,17.841,17.837,17.841
201909171429,17.841,17.841,17.837,17.841
201909171430,17.841,17.841,17.826,17.841
201909171431,17.841,17.846,17.839,17.841
201909171432,17.841,17.846,17.841,17.842
201909171433,17.841,17.841,17.834,17.836
201909171434,17.836,17.851,17.836,17.851
201909171435,17.851,17.852,17.846,17.846
201909171436,17.846,17.846,17.835,17.835
201909171437,17.835,17.84,17.833,17.835
201909171438,17.835,17.84,17.835,17.84
201909171439,17.84,17.84,17.835,17.837
201909171440,17.837,17.837,17.835,17.836
201909171441,17.836,17.837,17.828,17.83
201909171442,17.83,17.831,17.821,17.822
201909171443,17.822,17.826,17.821,17.825
201909171444,17.825,17.835,17.825,17.831
201909171445,17.831,17.832,17.827,17.83
201909171446,17.83,17.836,17.827,17.83
201909171447,17.83,17.833,17.827,17.827
201909171448,17.826,17.826,17.825,17.826
201909171449,17.825,17.826,17.823,17.823
201909171450,17.823,17.825,17.821,17.821
201909171451,17.821,17.821,17.811,17.815
201909171452,17.815,17.816,17.814,17.815
201909171453,17.815,17.818,17.804,17.807
201909171454,17.807,17.817,17.798,17.817
201909171455,17.817,17.826,17.816,17.82
201909171456,17.82,17.827,17.82,17.826
201909171457,17.826,17.827,17.821,17.821
201909171458,17.821,17.826,17.821,17.825
201909171459,17.826,17.826,17.818,17.824
201909171500,17.824,17.824,17.803,17.808
201909171501,17.807,17.808,17.799,17.802
201909171502,17.803,17.805,17.795,17.801
201909171503,17.801,17.803,17.798,17.803
201909171504,17.803,17.803,17.785,17.786
201909171505,17.786,17.802,17.786,17.802
201909171506,17.803,17.812,17.803,17.811
201909171507,17.809,17.809,17.794,17.795
201909171508,17.795,17.802,17.794,17.801
201909171509,17.801,17.811,17.801,17.805
201909171510,17.805,17.806,17.801,17.803
201909171511,17.803,17.805,17.8,17.8
201909171512,17.801,17.802,17.794,17.795
201909171513,17.795,17.8,17.793,17.8
201909171514,17.8,17.803,17.796,17.801
201909171515,17.801,17.811,17.801,17.808
201909171516,17.808,17.814,17.805,17.814
201909171517,17.814,17.814,17.808,17.81
201909171518,17.809,17.81,17.806,17.806
201909171519,17.806,17.806,17.803,17.804
201909171520,17.804,17.804,17.795,17.795
201909171521,17.793,17.796,17.786,17.786
201909171522,17.786,17.786,17.779,17.78
201909171523,17.78,17.793,17.776,17.784
201909171524,17.784,17.785,17.776,17.785
201909171525,17.785,17.793,17.785,17.79
201909171526,17.793,17.793,17.787,17.789
201909171527,17.79,17.795,17.789,17.79
201909171528,17.789,17.794,17.785,17.786
201909171529,17.786,17.789,17.785,17.786
201909171530,17.786,17.786,17.782,17.785
201909171531,17.786,17.79,17.785,17.79
201909171532,17.793,17.793,17.784,17.784
201909171533,17.784,17.789,17.781,17.786
201909171534,17.787,17.791,17.785,17.789
201909171535,17.789,17.79,17.785,17.785
201909171536,17.785,17.785,17.779,17.779
201909171537,17.779,17.786,17.779,17.786
201909171538,17.786,17.786,17.769,17.769
201909171539,17.769,17.771,17.761,17.762
201909171540,17.761,17.765,17.754,17.761
201909171541,17.761,17.766,17.761,17.766
201909171542,17.766,17.768,17.754,17.755
201909171543,17.755,17.756,17.749,17.754
201909171544,17.754,17.763,17.754,17.757
201909171545,17.757,17.766,17.757,17.766
201909171546,17.766,17.77,17.763,17.765
201909171547,17.765,17.766,17.764,17.765
201909171548,17.765,17.769,17.761,17.766
201909171549,17.766,17.77,17.765,17.77
201909171550,17.77,17.771,17.761,17.763
201909171551,17.764,17.766,17.761,17.766
201909171552,17.766,17.768,17.765,17.765
201909171553,17.766,17.77,17.765,17.77
201909171554,17.77,17.77,17.766,17.766
201909171555,17.766,17.766,17.759,17.765
201909171556,17.765,17.777,17.765,17.777
201909171557,17.777,17.78,17.775,17.777
201909171558,17.777,17.777,17.772,17.775
201909171559,17.775,17.779,17.774,17.775
201909171600,17.774,17.776,17.766,17.776
201909171601,17.776,17.782,17.774,17.781
201909171602,17.781,17.783,17.776,17.781
201909171603,17.778,17.786,17.777,17.785
201909171604,17.785,17.801,17.784,17.796
201909171605,17.793,17.8,17.791,17.796
201909171606,17.795,17.801,17.793,17.799
201909171607,17.798,17.8,17.787,17.789
201909171608,17.788,17.788,17.778,17.781
201909171609,17.781,17.786,17.778,17.781
201909171610,17.781,17.785,17.773,17.779
201909171611,17.779,17.784,17.777,17.784
201909171612,17.784,17.787,17.782,17.784
201909171613,17.783,17.783,17.774,17.781
201909171614,17.781,17.782,17.778,17.781
201909171615,17.782,17.785,17.782,17.785
201909171616,17.783,17.786,17.782,17.784
201909171617,17.784,17.79,17.784,17.786
201909171618,17.786,17.787,17.782,17.783
201909171619,17.784,17.791,17.782,17.791
201909171620,17.791,17.792,17.782,17.782
201909171621,17.782,17.787,17.782,17.787
201909171622,17.787,17.792,17.782,17.782
201909171623,17.782,17.783,17.782,17.782
201909171624,17.782,17.782,17.778,17.779
201909171625,17.78,17.782,17.777,17.782
201909171626,17.782,17.788,17.782,17.787
201909171627,17.787,17.787,17.783,17.784
201909171628,17.784,17.788,17.784,17.784
201909171629,17.784,17.787,17.782,17.782
201909171630,17.782,17.793,17.782,17.793
201909171631,17.793,17.802,17.793,17.8
201909171632,17.8,17.802,17.797,17.797
201909171633,17.797,17.806,17.794,17.802
201909171634,17.804,17.808,17.8,17.804
201909171635,17.804,17.807,17.798,17.801
201909171636,17.801,17.805,17.799,17.805
201909171637,17.805,17.807,17.799,17.802
201909171638,17.802,17.805,17.799,17.805
201909171639,17.805,17.805,17.802,17.802
201909171640,17.802,17.807,17.802,17.807
201909171641,17.807,17.812,17.807,17.812
201909171642,17.812,17.821,17.812,17.821
201909171643,17.821,17.825,17.818,17.823
201909171644,17.823,17.836,17.823,17.832
201909171645,17.832,17.838,17.832,17.838
201909171646,17.838,17.84,17.829,17.833
201909171647,17.833,17.834,17.832,17.834
201909171648,17.833,17.835,17.831,17.831
201909171649,17.831,17.835,17.83,17.833
201909171650,17.833,17.833,17.827,17.827
201909171651,17.827,17.827,17.823,17.824
201909171652,17.824,17.829,17.822,17.828
201909171653,17.828,17.831,17.827,17.829
201909171654,17.829,17.834,17.822,17.823
201909171655,17.826,17.826,17.814,17.814
201909171656,17.814,17.817,17.814,17.817
201909171657,17.817,17.817,17.813,17.814
201909171658,17.813,17.817,17.813,17.814
201909171659,17.814,17.815,17.812,17.812
201909171700,17.812,17.816,17.808,17.812
201909171701,17.811,17.815,17.808,17.808
201909171702,17.808,17.815,17.808,17.81
201909171703,17.81,17.817,17.807,17.817
201909171704,17.817,17.822,17.817,17.821
201909171705,17.821,17.821,17.818,17.821
201909171706,17.819,17.826,17.818,17.825
201909171707,17.825,17.827,17.823,17.827
201909171708,17.827,17.827,17.821,17.821
201909171709,17.821,17.821,17.817,17.817
201909171710,17.817,17.817,17.808,17.812
201909171711,17.812,17.814,17.811,17.814
201909171712,17.815,17.817,17.814,17.817
201909171713,17.814,17.819,17.814,17.817
201909171714,17.817,17.82,17.814,17.817
201909171715,17.817,17.819,17.811,17.811
201909171716,17.811,17.813,17.809,17.812
201909171717,17.812,17.816,17.812,17.815
201909171718,17.815,17.817,17.814,17.817
201909171719,17.817,17.817,17.813,17.813
201909171720,17.813,17.818,17.813,17.817
201909171721,17.817,17.817,17.813,17.813
201909171722,17.815,17.817,17.815,17.817
201909171723,17.817,17.818,17.814,17.817
201909171724,17.817,17.818,17.817,17.818
201909171725,17.818,17.822,17.817,17.819
201909171726,17.821,17.832,17.819,17.832
201909171727,17.832,17.837,17.832,17.837
201909171728,17.837,17.845,17.837,17.842
201909171729,17.842,17.844,17.842,17.842
201909171730,17.842,17.843,17.838,17.843
201909171731,17.843,17.847,17.843,17.844
201909171732,17.844,17.849,17.844,17.847
201909171733,17.847,17.847,17.847,17.847
201909171734,17.847,17.847,17.844,17.847
201909171735,17.847,17.847,17.847,17.847
201909171736,17.847,17.847,17.844,17.844
201909171737,17.844,17.847,17.842,17.842
201909171738,17.842,17.842,17.842,17.842
201909171739,17.842,17.842,17.839,17.839
201909171740,17.839,17.839,17.838,17.838
201909171741,17.838,17.843,17.836,17.843
201909171742,17.843,17.846,17.841,17.842
201909171743,17.842,17.842,17.842,17.842
201909171744,17.842,17.842,17.842,17.842
201909171745,17.842,17.842,17.841,17.841
201909171746,17.839,17.843,17.837,17.843
201909171747,17.843,17.846,17.843,17.843
201909171748,17.843,17.845,17.842,17.843
201909171749,17.847,17.847,17.842,17.847
201909171750,17.847,17.847,17.843,17.843
201909171751,17.843,17.843,17.838,17.842
201909171752,17.842,17.845,17.84,17.841
201909171753,17.841,17.846,17.837,17.844
201909171754,17.844,17.846,17.842,17.842
201909171755,17.842,17.845,17.842,17.842
201909171756,17.842,17.842,17.841,17.841
201909171757,17.842,17.842,17.837,17.841
201909171758,17.841,17.842,17.837,17.837
201909171759,17.837,17.842,17.836,17.837
201909171800,17.837,17.847,17.837,17.845
201909171801,17.844,17.846,17.843,17.845
201909171802,17.846,17.847,17.842,17.846
201909171803,17.846,17.847,17.843,17.844
201909171804,17.844,17.845,17.842,17.842
201909171805,17.842,17.842,17.838,17.842
201909171806,17.841,17.842,17.836,17.837
201909171807,17.837,17.837,17.833,17.833
201909171808,17.833,17.837,17.833,17.837
201909171809,17.837,17.841,17.832,17.84
201909171810,17.841,17.842,17.835,17.836
201909171811,17.836,17.837,17.832,17.833
201909171812,17.833,17.836,17.832,17.834
201909171813,17.833,17.837,17.832,17.836
201909171814,17.836,17.837,17.833,17.835
201909171815,17.835,17.835,17.832,17.834
201909171816,17.834,17.834,17.832,17.832
201909171817,17.832,17.832,17.832,17.832
201909171818,17.832,17.837,17.832,17.837
201909171819,17.837,17.842,17.837,17.842
201909171820,17.842,17.842,17.839,17.841
201909171821,17.838,17.841,17.838,17.841
201909171822,17.841,17.842,17.838,17.842
201909171823,17.842,17.852,17.842,17.852
201909171824,17.852,17.852,17.848,17.849
201909171825,17.849,17.861,17.847,17.861
201909171826,17.861,17.862,17.859,17.859
201909171827,17.862,17.868,17.856,17.868
201909171828,17.87,17.873,17.868,17.872
201909171829,17.872,17.877,17.872,17.872
201909171830,17.872,17.876,17.869,17.872
201909171831,17.873,17.887,17.869,17.869
201909171832,17.869,17.871,17.868,17.871
201909171833,17.871,17.871,17.865,17.867
201909171834,17.867,17.867,17.861,17.862
201909171835,17.862,17.863,17.861,17.862
201909171836,17.862,17.866,17.862,17.863
201909171837,17.863,17.866,17.862,17.866
201909171838,17.866,17.867,17.863,17.863
201909171839,17.863,17.867,17.862,17.862
201909171840,17.862,17.866,17.857,17.866
201909171841,17.866,17.866,17.863,17.866
201909171842,17.866,17.872,17.862,17.862
201909171843,17.862,17.865,17.862,17.862
201909171844,17.862,17.862,17.858,17.858
201909171845,17.858,17.863,17.858,17.862
201909171846,17.862,17.862,17.861,17.862
201909171847,17.862,17.862,17.857,17.857
201909171848,17.857,17.863,17.856,17.86
201909171849,17.86,17.861,17.852,17.852
201909171850,17.852,17.852,17.842,17.842
201909171851,17.842,17.842,17.832,17.835
201909171852,17.835,17.836,17.834,17.836
201909171853,17.836,17.836,17.834,17.836
201909171854,17.836,17.836,17.832,17.832
201909171855,17.832,17.837,17.827,17.837
201909171856,17.837,17.842,17.837,17.842
201909171857,17.842,17.842,17.834,17.837
201909171858,17.837,17.841,17.834,17.839
201909171859,17.839,17.839,17.833,17.834
201909171900,17.833,17.836,17.832,17.832
201909171901,17.832,17.837,17.832,17.837
201909171902,17.837,17.838,17.837,17.837
201909171903,17.837,17.837,17.836,17.837
201909171904,17.839,17.846,17.837,17.846
201909171905,17.846,17.848,17.846,17.847
201909171906,17.847,17.853,17.842,17.842
201909171907,17.842,17.843,17.833,17.837
201909171908,17.837,17.837,17.826,17.826
201909171909,17.826,17.83,17.823,17.826
201909171910,17.826,17.826,17.817,17.822
201909171911,17.822,17.833,17.822,17.83
201909171912,17.83,17.837,17.83,17.836
201909171913,17.836,17.839,17.836,17.839
201909171914,17.839,17.842,17.832,17.832
201909171915,17.832,17.838,17.832,17.837
201909171916,17.837,17.838,17.837,17.838
201909171917,17.838,17.841,17.838,17.841
201909171918,17.841,17.842,17.837,17.842
201909171919,17.842,17.842,17.842,17.842
201909171920,17.842,17.842,17.841,17.842
201909171921,17.842,17.842,17.842,17.842
201909171922,17.842,17.842,17.842,17.842
201909171923,17.842,17.842,17.842,17.842
201909171924,17.842,17.843,17.842,17.842
201909171925,17.842,17.843,17.842,17.843
201909171926,17.843,17.843,17.842,17.843
201909171927,17.843,17.847,17.843,17.847
201909171928,17.847,17.848,17.843,17.843
201909171929,17.843,17.846,17.842,17.842
201909171930,17.842,17.842,17.837,17.842
201909171931,17.842,17.844,17.84,17.843
201909171932,17.843,17.848,17.843,17.848
201909171933,17.848,17.848,17.847,17.847
201909171934,17.847,17.848,17.843,17.843
201909171935,17.844,17.845,17.833,17.84
201909171936,17.84,17.84,17.834,17.835
201909171937,17.835,17.835,17.833,17.834
201909171938,17.834,17.838,17.834,17.838
201909171939,17.838,17.838,17.836,17.836
201909171940,17.837,17.837,17.823,17.823
201909171941,17.823,17.823,17.821,17.821
201909171942,17.822,17.823,17.818,17.818
201909171943,17.818,17.823,17.814,17.822
201909171944,17.822,17.823,17.819,17.82
201909171945,17.82,17.821,17.816,17.817
201909171946,17.817,17.818,17.816,17.816
201909171947,17.816,17.816,17.813,17.816
201909171948,17.817,17.831,17.814,17.829
201909171949,17.829,17.834,17.829,17.832
201909171950,17.831,17.838,17.831,17.838
201909171951,17.839,17.848,17.838,17.843
201909171952,17.843,17.846,17.843,17.844
201909171953,17.844,17.844,17.843,17.843
201909171954,17.843,17.844,17.843,17.844
201909171955,17.844,17.844,17.833,17.838
201909171956,17.838,17.843,17.838,17.842
201909171957,17.838,17.846,17.838,17.846
201909171958,17.844,17.851,17.844,17.846
201909171959,17.848,17.849,17.839,17.842
201909172000,17.843,17.846,17.836,17.836
201909172001,17.837,17.838,17.831,17.832
201909172002,17.832,17.836,17.832,17.836
201909172003,17.836,17.836,17.833,17.836
201909172004,17.836,17.838,17.836,17.838
201909172005,17.838,17.841,17.836,17.836
201909172006,17.837,17.837,17.832,17.832
201909172007,17.832,17.832,17.827,17.831
201909172008,17.831,17.832,17.828,17.829
201909172009,17.828,17.831,17.828,17.831
201909172010,17.831,17.832,17.831,17.832
201909172011,17.832,17.832,17.831,17.831
201909172012,17.831,17.832,17.831,17.832
201909172013,17.835,17.837,17.833,17.837
201909172014,17.837,17.837,17.834,17.836
201909172015,17.836,17.836,17.833,17.834
201909172016,17.834,17.841,17.834,17.841
201909172017,17.841,17.842,17.841,17.842
201909172018,17.842,17.847,17.842,17.843
201909172019,17.843,17.846,17.843,17.844
201909172020,17.844,17.845,17.843,17.843
201909172021,17.843,17.847,17.842,17.847
201909172022,17.847,17.863,17.846,17.863
201909172023,17.863,17.864,17.859,17.863
201909172024,17.864,17.867,17.862,17.864
201909172025,17.864,17.864,17.862,17.862
201909172026,17.862,17.862,17.849,17.852
201909172027,17.852,17.863,17.852,17.859
201909172028,17.859,17.859,17.854,17.856
201909172029,17.856,17.861,17.853,17.859
201909172030,17.859,17.864,17.859,17.862
201909172031,17.861,17.863,17.857,17.858
201909172032,17.858,17.864,17.856,17.863
201909172033,17.863,17.868,17.862,17.868
201909172034,17.868,17.874,17.868,17.871
201909172035,17.871,17.871,17.862,17.863
201909172036,17.863,17.863,17.847,17.848
201909172037,17.847,17.848,17.842,17.842
201909172038,17.842,17.842,17.829,17.83
201909172039,17.83,17.843,17.827,17.836
201909172040,17.835,17.842,17.835,17.84
201909172041,17.84,17.842,17.84,17.842
201909172042,17.841,17.842,17.838,17.842
201909172043,17.842,17.849,17.842,17.848
201909172044,17.85,17.853,17.847,17.847
201909172045,17.85,17.851,17.845,17.847
201909172046,17.847,17.851,17.847,17.851
201909172047,17.851,17.852,17.847,17.848
201909172048,17.849,17.856,17.849,17.852
201909172049,17.851,17.852,17.838,17.841
201909172050,17.841,17.852,17.838,17.843
201909172051,17.843,17.848,17.843,17.845
201909172052,17.845,17.856,17.845,17.853
201909172053,17.853,17.87,17.852,17.87
201909172054,17.87,17.878,17.868,17.868
201909172055,17.868,17.868,17.863,17.863
201909172056,17.865,17.87,17.865,17.868
201909172057,17.868,17.868,17.856,17.858
201909172058,17.858,17.86,17.854,17.858
201909172059,17.858,17.862,17.857,17.857
201909172100,17.857,17.86,17.849,17.851
201909172101,17.85,17.866,17.84,17.856
201909172102,17.855,17.878,17.85,17.872
201909172103,17.872,17.887,17.872,17.88
201909172104,17.88,17.882,17.871,17.872
201909172105,17.872,17.872,17.85,17.851
201909172106,17.854,17.859,17.852,17.859
201909172107,17.859,17.86,17.842,17.844
201909172108,17.843,17.851,17.842,17.851
201909172109,17.85,17.859,17.848,17.859
201909172110,17.859,17.865,17.854,17.857
201909172111,17.856,17.87,17.841,17.855
201909172112,17.854,17.86,17.852,17.86
201909172113,17.861,17.861,17.846,17.852
201909172114,17.849,17.85,17.841,17.842
201909172115,17.843,17.848,17.841,17.843
201909172116,17.843,17.845,17.842,17.844
201909172117,17.843,17.847,17.842,17.847
201909172118,17.844,17.852,17.844,17.847
201909172119,17.847,17.851,17.843,17.847
201909172120,17.847,17.847,17.808,17.808
201909172121,17.804,17.817,17.797,17.817
201909172122,17.812,17.822,17.809,17.818
201909172123,17.818,17.832,17.818,17.832
201909172124,17.831,17.849,17.831,17.847
201909172125,17.847,17.857,17.839,17.847
201909172126,17.847,17.847,17.842,17.845
201909172127,17.846,17.849,17.837,17.847
201909172128,17.847,17.857,17.842,17.842
201909172129,17.842,17.852,17.842,17.843
201909172130,17.842,17.842,17.822,17.837
201909172131,17.837,17.848,17.832,17.833
201909172132,17.833,17.838,17.832,17.833
201909172133,17.833,17.836,17.823,17.828
201909172134,17.828,17.828,17.817,17.822
201909172135,17.822,17.822,17.814,17.818
201909172136,17.818,17.833,17.818,17.833
201909172137,17.833,17.851,17.833,17.842
201909172138,17.841,17.842,17.833,17.837
201909172139,17.837,17.837,17.817,17.822
201909172140,17.822,17.833,17.812,17.832
201909172141,17.833,17.842,17.832,17.842
201909172142,17.842,17.848,17.837,17.842
201909172143,17.842,17.848,17.842,17.846
201909172144,17.846,17.851,17.846,17.849
201909172145,17.849,17.862,17.848,17.861
201909172146,17.86,17.86,17.836,17.836
201909172147,17.836,17.851,17.836,17.842
201909172148,17.842,17.842,17.821,17.831
201909172149,17.83,17.836,17.83,17.836
201909172150,17.836,17.841,17.817,17.821
201909172151,17.821,17.829,17.819,17.829
201909172152,17.83,17.849,17.83,17.845
201909172153,17.845,17.854,17.842,17.853
201909172154,17.853,17.865,17.848,17.849
201909172155,17.849,17.85,17.834,17.847
201909172156,17.848,17.851,17.843,17.849
201909172157,17.849,17.854,17.841,17.844
201909172158,17.844,17.849,17.841,17.845
201909172159,17.845,17.845,17.838,17.841
201909172200,17.839,17.839,17.814,17.835
201909172201,17.833,17.837,17.822,17.835
201909172202,17.835,17.856,17.833,17.845
201909172203,17.845,17.868,17.845,17.867
201909172204,17.867,17.872,17.856,17.863
201909172205,17.864,17.866,17.849,17.85
201909172206,17.85,17.854,17.843,17.844
201909172207,17.844,17.858,17.843,17.857
201909172208,17.858,17.882,17.858,17.87
201909172209,17.87,17.883,17.869,17.879
201909172210,17.879,17.886,17.868,17.874
201909172211,17.874,17.886,17.869,17.874
201909172212,17.874,17.886,17.874,17.884
201909172213,17.884,17.894,17.882,17.894
201909172214,17.895,17.902,17.89,17.892
201909172215,17.892,17.892,17.85,17.855
201909172216,17.855,17.859,17.849,17.856
201909172217,17.856,17.889,17.849,17.887
201909172218,17.887,17.891,17.874,17.876
201909172219,17.878,17.882,17.869,17.876
201909172220,17.876,17.878,17.855,17.862
201909172221,17.862,17.868,17.859,17.863
201909172222,17.864,17.869,17.859,17.862
201909172223,17.862,17.864,17.855,17.856
201909172224,17.858,17.877,17.857,17.873
201909172225,17.874,17.874,17.864,17.869
201909172226,17.869,17.869,17.858,17.864
201909172227,17.864,17.871,17.862,17.869
201909172228,17.869,17.881,17.868,17.877
201909172229,17.877,17.888,17.873,17.883
201909172230,17.883,17.894,17.859,17.862
201909172231,17.862,17.866,17.848,17.851
201909172232,17.851,17.856,17.835,17.835
201909172233,17.835,17.854,17.833,17.849
201909172234,17.849,17.85,17.812,17.831
201909172235,17.83,17.847,17.828,17.843
201909172236,17.843,17.855,17.842,17.849
201909172237,17.849,17.866,17.849,17.861
201909172238,17.861,17.861,17.852,17.856
201909172239,17.855,17.862,17.841,17.85
201909172240,17.849,17.862,17.839,17.842
201909172241,17.843,17.845,17.799,17.824
201909172242,17.825,17.832,17.812,17.814
201909172243,17.814,17.838,17.814,17.836
201909172244,17.836,17.848,17.833,17.843
201909172245,17.843,17.859,17.843,17.853
201909172246,17.854,17.858,17.846,17.857
201909172247,17.858,17.865,17.848,17.85
201909172248,17.85,17.85,17.828,17.832
201909172249,17.832,17.839,17.817,17.817
201909172250,17.818,17.842,17.814,17.838
201909172251,17.838,17.858,17.829,17.854
201909172252,17.854,17.865,17.848,17.864
201909172253,17.865,17.877,17.864,17.876
201909172254,17.876,17.886,17.869,17.869
201909172255,17.868,17.879,17.865,17.873
201909172256,17.874,17.878,17.87,17.874
201909172257,17.874,17.878,17.864,17.869
201909172258,17.869,17.878,17.866,17.866
201909172259,17.866,17.877,17.866,17.876
201909172300,17.876,17.878,17.862,17.866
201909172301,17.866,17.889,17.866,17.889
201909172302,17.889,17.909,17.887,17.909
201909172303,17.91,17.929,17.897,17.919
201909172304,17.919,17.922,17.904,17.909
201909172305,17.909,17.919,17.896,17.899
201909172306,17.899,17.906,17.896,17.906
201909172307,17.906,17.917,17.906,17.916
201909172308,17.916,17.918,17.911,17.912
201909172309,17.912,17.934,17.91,17.933
201909172310,17.933,17.934,17.918,17.922
201909172311,17.922,17.924,17.906,17.91
201909172312,17.91,17.911,17.902,17.906
201909172313,17.906,17.922,17.906,17.912
201909172314,17.912,17.92,17.906,17.91
201909172315,17.911,17.916,17.89,17.89
201909172316,17.89,17.901,17.89,17.899
201909172317,17.896,17.905,17.89,17.89
201909172318,17.89,17.896,17.885,17.891
201909172319,17.891,17.905,17.891,17.904
201909172320,17.904,17.905,17.891,17.895
201909172321,17.895,17.904,17.894,17.903
201909172322,17.903,17.907,17.901,17.906
201909172323,17.906,17.925,17.906,17.919
201909172324,17.919,17.929,17.917,17.919
201909172325,17.918,17.923,17.906,17.907
201909172326,17.907,17.909,17.896,17.901
201909172327,17.901,17.912,17.9,17.912
201909172328,17.911,17.912,17.896,17.896
201909172329,17.897,17.903,17.891,17.893
201909172330,17.893,17.896,17.884,17.888
201909172331,17.888,17.898,17.888,17.896
201909172332,17.896,17.897,17.884,17.888
201909172333,17.888,17.889,17.873,17.884
201909172334,17.885,17.887,17.876,17.887
201909172335,17.887,17.893,17.882,17.883
201909172336,17.883,17.885,17.874,17.874
201909172337,17.874,17.884,17.873,17.874
201909172338,17.873,17.883,17.873,17.883
201909172339,17.882,17.884,17.877,17.879
201909172340,17.879,17.893,17.879,17.89
201909172341,17.89,17.895,17.89,17.895
201909172342,17.895,17.902,17.885,17.892
201909172343,17.892,17.902,17.892,17.902
201909172344,17.903,17.908,17.9,17.904
201909172345,17.903,17.914,17.903,17.907
201909172346,17.907,17.915,17.907,17.91
201909172347,17.908,17.908,17.9,17.902
201909172348,17.903,17.905,17.899,17.899
201909172349,17.899,17.911,17.899,17.907
201909172350,17.907,17.913,17.903,17.903
201909172351,17.903,17.908,17.901,17.907
201909172352,17.907,17.918,17.9,17.917
201909172353,17.917,17.923,17.913,17.919
201909172354,17.919,17.924,17.917,17.924
201909172355,17.924,17.928,17.918,17.924
201909172356,17.924,17.939,17.923,17.938
201909172357,17.938,17.944,17.934,17.934
201909172358,17.934,17.935,17.924,17.924
201909172359,17.924,17.934,17.924,17.934
201909180000,17.934,17.934,17.927,17.928
201909180001,17.927,17.931,17.921,17.924
201909180002,17.923,17.931,17.923,17.923
201909180003,17.923,17.923,17.912,17.914
201909180004,17.914,17.922,17.911,17.922
201909180005,17.923,17.928,17.919,17.925
201909180006,17.924,17.945,17.919,17.939
201909180007,17.943,17.963,17.939,17.962
201909180008,17.963,17.984,17.962,17.98
201909180009,17.978,17.978,17.963,17.967
201909180010,17.967,17.995,17.967,17.99
201909180011,17.99,18.028,17.99,18.014
201909180012,18.014,18.021,18.003,18.01
201909180013,18.01,18.012,17.99,17.996
201909180014,17.996,17.998,17.987,17.989
201909180015,17.989,17.992,17.977,17.982
201909180016,17.98,17.985,17.977,17.981
201909180017,17.98,17.982,17.965,17.968
201909180018,17.968,17.968,17.957,17.959
201909180019,17.959,17.969,17.958,17.966
201909180020,17.966,17.97,17.961,17.97
201909180021,17.968,17.97,17.961,17.967
201909180022,17.968,17.968,17.965,17.966
201909180023,17.966,17.967,17.944,17.946
201909180024,17.946,17.95,17.944,17.947
201909180025,17.947,17.951,17.94,17.951
201909180026,17.951,17.967,17.948,17.961
201909180027,17.961,17.964,17.957,17.961
201909180028,17.96,17.962,17.954,17.961
201909180029,17.962,17.963,17.956,17.958
201909180030,17.959,17.969,17.956,17.963
201909180031,17.963,17.977,17.963,17.97
201909180032,17.971,17.979,17.965,17.974
201909180033,17.974,17.974,17.965,17.968
201909180034,17.968,17.969,17.956,17.956
201909180035,17.956,17.964,17.954,17.963
201909180036,17.964,17.967,17.959,17.967
201909180037,17.967,17.98,17.967,17.979
201909180038,17.979,17.982,17.973,17.973
201909180039,17.973,17.983,17.973,17.983
201909180040,17.983,17.984,17.978,17.978
201909180041,17.978,17.984,17.976,17.978
201909180042,17.978,17.98,17.973,17.973
201909180043,17.973,17.977,17.972,17.972
201909180044,17.972,17.983,17.97,17.981
201909180045,17.981,17.995,17.981,17.989
201909180046,17.986,17.99,17.982,17.986
201909180047,17.986,17.995,17.983,17.986
201909180048,17.986,17.992,17.983,17.988
201909180049,17.988,17.996,17.987,17.995
201909180050,17.995,18,17.991,17.991
201909180051,17.99,17.99,17.977,17.979
201909180052,17.979,17.994,17.979,17.992
201909180053,17.992,17.993,17.986,17.988
201909180054,17.988,17.993,17.988,17.991
201909180055,17.991,17.998,17.987,17.994
201909180056,17.995,18.005,17.993,18.004
201909180057,18.003,18.01,18.003,18.01
201909180058,18.01,18.014,18.003,18.003
201909180059,18.004,18.007,17.999,18.007
201909180100,18.007,18.01,17.998,18.009
201909180101,18.009,18.01,17.998,17.999
201909180102,17.999,17.999,17.987,17.988
201909180103,17.988,17.998,17.988,17.996
201909180104,17.996,18.011,17.995,18.008
201909180105,18.008,18.01,17.999,17.999
201909180106,17.999,18,17.987,17.987
201909180107,17.985,17.989,17.971,17.977
201909180108,17.977,17.986,17.976,17.985
201909180109,17.985,17.985,17.976,17.982
201909180110,17.982,17.995,17.982,17.987
201909180111,17.987,17.987,17.979,17.98
201909180112,17.98,17.983,17.979,17.98
201909180113,17.98,17.99,17.98,17.986
201909180114,17.987,17.99,17.986,17.988
201909180115,17.988,17.993,17.986,17.986
201909180116,17.987,17.988,17.981,17.981
201909180117,17.981,17.988,17.979,17.981
201909180118,17.982,17.986,17.98,17.98
201909180119,17.98,17.983,17.979,17.983
201909180120,17.983,17.989,17.981,17.989
201909180121,17.99,18.012,17.987,18.008
201909180122,18.008,18.016,18.003,18.011
201909180123,18.011,18.011,17.999,18.003
201909180124,18.003,18.005,17.998,17.998
201909180125,17.998,18.004,17.996,18
201909180126,17.999,18.01,17.999,18.007
201909180127,18.008,18.008,18.001,18.001
201909180128,18.001,18.003,17.994,17.997
201909180129,17.996,17.996,17.988,17.989
201909180130,17.99,17.995,17.985,17.994
201909180131,17.994,18.003,17.994,18.003
201909180132,18.003,18.003,17.997,18.001
201909180133,18,18,17.995,17.996
201909180134,17.996,18,17.994,17.999
201909180135,17.999,18.005,17.999,18.003
201909180136,18.001,18.013,18.001,18.013
201909180137,18.013,18.014,18.007,18.012
201909180138,18.012,18.017,18.01,18.015
201909180139,18.015,18.015,18.01,18.013
201909180140,18.013,18.018,18.01,18.011
201909180141,18.011,18.015,18.01,18.015
201909180142,18.014,18.017,18.01,18.01
201909180143,18.01,18.021,18.01,18.02
201909180144,18.02,18.026,18.018,18.02
201909180145,18.02,18.026,18.02,18.025
201909180146,18.025,18.03,18.018,18.02
201909180147,18.02,18.028,18.018,18.027
201909180148,18.027,18.027,18.01,18.01
201909180149,18.011,18.014,18.008,18.008
201909180150,18.008,18.013,18.005,18.007
201909180151,18.008,18.013,18.007,18.013
201909180152,18.014,18.018,18.011,18.016
201909180153,18.016,18.02,18.012,18.015
201909180154,18.015,18.025,18.012,18.023
201909180155,18.023,18.026,18.021,18.023
201909180156,18.023,18.027,18.021,18.024
201909180157,18.024,18.028,18.023,18.023
201909180158,18.023,18.032,18.022,18.032
201909180159,18.031,18.033,18.028,18.029
201909180200,18.029,18.029,18.021,18.023
201909180201,18.023,18.035,18.023,18.035
201909180202,18.036,18.036,18.028,18.033
201909180203,18.033,18.034,18.029,18.031
201909180204,18.031,18.041,18.031,18.041
201909180205,18.041,18.068,18.041,18.067
201909180206,18.066,18.068,18.053,18.056
201909180207,18.055,18.063,18.055,18.059
201909180208,18.059,18.059,18.045,18.049
201909180209,18.049,18.059,18.049,18.05
201909180210,18.05,18.062,18.047,18.062
201909180211,18.062,18.065,18.061,18.062
201909180212,18.062,18.068,18.061,18.068
201909180213,18.067,18.072,18.066,18.066
201909180214,18.066,18.067,18.052,18.052
201909180215,18.052,18.06,18.051,18.06
201909180216,18.06,18.065,18.06,18.065
201909180217,18.065,18.066,18.053,18.053
201909180218,18.054,18.057,18.054,18.056
201909180219,18.056,18.06,18.056,18.059
201909180220,18.059,18.069,18.059,18.069
201909180221,18.069,18.07,18.057,18.064
201909180222,18.064,18.071,18.064,18.066
201909180223,18.066,18.084,18.065,18.081
201909180224,18.083,18.083,18.045,18.05
201909180225,18.05,18.07,18.05,18.066
201909180226,18.068,18.086,18.067,18.077
201909180227,18.077,18.082,18.074,18.08
201909180228,18.08,18.086,18.075,18.076
201909180229,18.076,18.076,18.062,18.071
201909180230,18.071,18.071,18.069,18.07
201909180231,18.07,18.086,18.07,18.08
201909180232,18.08,18.086,18.075,18.075
201909180233,18.075,18.076,18.065,18.07
201909180234,18.07,18.077,18.07,18.075
201909180235,18.075,18.076,18.064,18.075
201909180236,18.075,18.075,18.066,18.066
201909180237,18.066,18.07,18.06,18.063
201909180238,18.063,18.063,18.049,18.051
201909180239,18.051,18.053,18.044,18.044
201909180240,18.044,18.055,18.044,18.055
201909180241,18.055,18.056,18.05,18.051
201909180242,18.051,18.053,18.046,18.05
201909180243,18.05,18.055,18.049,18.055
201909180244,18.055,18.059,18.053,18.056
201909180245,18.056,18.066,18.054,18.065
201909180246,18.065,18.065,18.056,18.056
201909180247,18.056,18.056,18.04,18.041
201909180248,18.041,18.044,18.038,18.041
201909180249,18.041,18.041,18.038,18.041
201909180250,18.041,18.044,18.038,18.041
201909180251,18.041,18.041,18.035,18.035
201909180252,18.035,18.036,18.03,18.034
201909180253,18.034,18.039,18.032,18.039
201909180254,18.039,18.043,18.035,18.035
201909180255,18.035,18.044,18.034,18.043
201909180256,18.043,18.043,18.041,18.043
201909180257,18.043,18.046,18.033,18.034
201909180258,18.033,18.033,18.012,18.019
201909180259,18.019,18.022,18.003,18.003
201909180300,18.005,18.01,18.002,18.008
201909180301,18.008,18.02,18.007,18.016
201909180302,18.016,18.017,18.006,18.01
201909180303,18.01,18.013,18.004,18.005
201909180304,18.005,18.009,18.002,18.004
201909180305,18.004,18.008,18.004,18.005
201909180306,18.005,18.006,18.004,18.005
201909180307,18.004,18.012,18.003,18.008
201909180308,18.008,18.009,18.001,18.004
201909180309,18.003,18.004,18,18.003
201909180310,18.003,18.011,18.003,18.01
201909180311,18.01,18.016,18.01,18.015
201909180312,18.015,18.018,18.013,18.017
201909180313,18.017,18.019,18.013,18.014
201909180314,18.014,18.016,18.008,18.009
201909180315,18.009,18.01,17.999,17.999
201909180316,17.998,18.005,17.992,17.992
201909180317,17.994,17.995,17.991,17.993
201909180318,17.993,17.995,17.992,17.994
201909180319,17.993,17.996,17.993,17.995
201909180320,17.995,17.996,17.993,17.994
201909180321,17.994,17.996,17.978,17.985
201909180322,17.985,17.989,17.983,17.983
201909180323,17.983,17.988,17.983,17.988
201909180324,17.988,17.99,17.988,17.988
201909180325,17.988,17.991,17.984,17.99
201909180326,17.99,17.994,17.99,17.99
201909180327,17.99,17.991,17.989,17.99
201909180328,17.99,17.992,17.988,17.99
201909180329,17.99,17.99,17.987,17.989
201909180330,17.988,17.993,17.988,17.988
201909180331,17.989,18.015,17.988,18.014
201909180332,18.015,18.02,18.014,18.02
201909180333,18.02,18.024,18.018,18.023
201909180334,18.023,18.029,18.023,18.028
201909180335,18.029,18.036,18.028,18.035
201909180336,18.035,18.036,18.028,18.035
201909180337,18.035,18.04,18.033,18.039
201909180338,18.039,18.043,18.038,18.04
201909180339,18.04,18.04,18.028,18.029
201909180340,18.03,18.035,18.029,18.034
201909180341,18.034,18.04,18.033,18.038
201909180342,18.038,18.04,18.038,18.039
201909180343,18.039,18.043,18.038,18.043
201909180344,18.043,18.044,18.038,18.04
201909180345,18.04,18.042,18.037,18.037
201909180346,18.037,18.04,18.037,18.039
201909180347,18.039,18.04,18.033,18.033
201909180348,18.034,18.038,18.033,18.037
201909180349,18.037,18.039,18.035,18.036
201909180350,18.036,18.036,18.031,18.033
201909180351,18.033,18.033,18.027,18.027
201909180352,18.027,18.027,18.022,18.024
201909180353,18.024,18.024,18.016,18.016
201909180354,18.016,18.024,18.016,18.024
201909180355,18.024,18.025,18.021,18.024
201909180356,18.024,18.03,18.022,18.028
201909180357,18.028,18.03,18.027,18.029
201909180358,18.029,18.034,18.028,18.029
201909180359,18.029,18.032,18.027,18.029
201909180400,18.029,18.034,18.028,18.031
201909180401,18.032,18.034,18.029,18.032
201909180402,18.032,18.032,18.029,18.03
201909180403,18.032,18.032,18.028,18.029
201909180404,18.029,18.029,18.026,18.029
201909180405,18.029,18.031,18.028,18.029
201909180406,18.029,18.035,18.027,18.035
201909180407,18.035,18.035,18.032,18.032
201909180408,18.032,18.033,18.03,18.033
201909180409,18.033,18.037,18.033,18.037
201909180410,18.037,18.039,18.03,18.032
201909180411,18.032,18.034,18.03,18.034
201909180412,18.034,18.035,18.032,18.032
201909180413,18.032,18.033,18.031,18.032
201909180414,18.032,18.033,18.032,18.033
201909180415,18.033,18.038,18.032,18.032
201909180416,18.033,18.033,18.024,18.024
201909180417,18.024,18.029,18.024,18.027
201909180418,18.027,18.029,18.026,18.027
201909180419,18.027,18.028,18.027,18.027
201909180420,18.027,18.033,18.027,18.032
201909180421,18.032,18.033,18.029,18.031
201909180422,18.031,18.033,18.03,18.032
201909180423,18.032,18.032,18.03,18.032
201909180424,18.031,18.032,18.028,18.028
201909180425,18.028,18.029,18.026,18.026
201909180426,18.026,18.026,18.014,18.014
201909180427,18.015,18.015,18.011,18.011
201909180428,18.011,18.012,18.006,18.006
201909180429,18.006,18.009,18.001,18.001
201909180430,18.001,18.002,17.992,17.992
201909180431,17.992,17.993,17.982,17.982
201909180432,17.982,17.987,17.978,17.981
201909180433,17.981,17.989,17.98,17.989
201909180434,17.989,17.99,17.987,17.989
201909180435,17.989,17.993,17.988,17.992
201909180436,17.992,17.994,17.987,17.987
201909180437,17.987,17.987,17.981,17.984
201909180438,17.984,17.984,17.978,17.979
201909180439,17.979,17.98,17.975,17.975
201909180440,17.974,17.975,17.971,17.972
201909180441,17.974,17.979,17.972,17.979
201909180442,17.979,17.988,17.977,17.982
201909180443,17.981,17.981,17.975,17.979
201909180444,17.979,17.98,17.977,17.979
201909180445,17.979,17.979,17.974,17.978
201909180446,17.979,17.98,17.975,17.978
201909180447,17.978,17.988,17.976,17.985
201909180448,17.986,17.987,17.977,17.979
201909180449,17.979,17.98,17.977,17.98
201909180450,17.98,17.992,17.979,17.991
201909180451,17.99,17.99,17.987,17.987
201909180452,17.988,17.994,17.987,17.993
201909180453,17.993,18.009,17.992,18.008
201909180454,18.008,18.013,18.008,18.013
201909180455,18.013,18.02,18.012,18.015
201909180456,18.015,18.015,18.006,18.006
201909180457,18.006,18.006,18.002,18.002
201909180458,18.001,18.006,18.001,18.005
201909180459,18.005,18.021,18.003,18.021
201909180500,18.021,18.021,18.015,18.02
201909180501,18.02,18.021,18.016,18.017
201909180502,18.017,18.017,18.011,18.011
201909180503,18.011,18.012,18.01,18.011
201909180504,18.011,18.011,18.006,18.006
201909180505,18.006,18.006,17.995,17.995
201909180506,17.995,18.006,17.995,18.006
201909180507,18.006,18.009,18.003,18.006
201909180508,18.006,18.006,18.003,18.004
201909180509,18.004,18.006,17.995,17.996
201909180510,17.996,18.002,17.996,18.001
201909180511,17.998,17.998,17.987,17.987
201909180512,17.987,17.987,17.984,17.984
201909180513,17.984,17.984,17.978,17.981
201909180514,17.981,17.991,17.981,17.988
201909180515,17.988,17.989,17.983,17.989
201909180516,17.989,17.99,17.987,17.99
201909180517,17.991,17.992,17.986,17.99
201909180518,17.99,17.992,17.987,17.988
201909180519,17.988,18.001,17.988,17.995
201909180520,17.995,17.997,17.994,17.996
201909180521,17.996,17.997,17.991,17.991
201909180522,17.991,17.991,17.987,17.991
201909180523,17.991,17.991,17.986,17.989
201909180524,17.989,17.992,17.989,17.989
201909180525,17.989,17.991,17.989,17.991
201909180526,17.991,17.991,17.989,17.989
201909180527,17.989,17.991,17.989,17.991
201909180528,17.991,17.992,17.991,17.991
201909180529,17.992,18.001,17.991,17.999
201909180530,17.999,18.001,17.998,18.001
201909180531,18.001,18.002,18.001,18.002
201909180532,18.002,18.002,17.997,17.997
201909180533,17.997,18.008,17.997,18.007
201909180534,18.007,18.007,18.004,18.004
201909180535,18.004,18.004,18.001,18.002
201909180536,18.002,18.004,18.002,18.003
201909180537,18.003,18.003,18.002,18.002
201909180538,18.002,18.008,18.002,18.008
201909180539,18.008,18.01,18.006,18.007
201909180540,18.007,18.007,18.006,18.006
201909180541,18.006,18.006,18.006,18.006
201909180542,18.006,18.006,18.004,18.006
201909180543,18.006,18.006,18.005,18.005
201909180544,18.005,18.006,18.005,18.006
201909180545,18.006,18.007,18.006,18.007
201909180546,18.006,18.008,18.006,18.008
201909180547,18.008,18.011,18.008,18.011
201909180548,18.011,18.012,18.01,18.012
201909180549,18.012,18.012,18.011,18.012
201909180550,18.012,18.012,18.012,18.012
201909180551,18.012,18.012,18.012,18.012
201909180552,18.012,18.012,18.012,18.012
201909180553,18.012,18.012,18.012,18.012
201909180554,18.012,18.012,18.012,18.012
201909180555,18.012,18.013,18.012,18.013
201909180556,18.013,18.013,18.007,18.008
201909180557,18.008,18.008,18.002,18.004
201909180558,18.004,18.011,18.004,18.011
201909180559,18.011,18.014,18.002,18.002
