日時,始値(BID),高値(BID),安値(BID),終値(BID)
201909090700,18.128,18.129,18.103,18.105
201909090701,18.108,18.11,18.101,18.109
201909090702,18.109,18.113,18.098,18.101
201909090703,18.101,18.105,18.087,18.097
201909090704,18.097,18.097,18.075,18.076
201909090705,18.077,18.087,18.071,18.075
201909090706,18.075,18.089,18.07,18.085
201909090707,18.086,18.086,18.08,18.086
201909090708,18.086,18.089,18.078,18.08
201909090709,18.08,18.084,18.077,18.081
201909090710,18.081,18.082,18.074,18.074
201909090711,18.074,18.074,18.055,18.064
201909090712,18.064,18.079,18.064,18.079
201909090713,18.08,18.098,18.079,18.083
201909090714,18.084,18.102,18.084,18.102
201909090715,18.107,18.109,18.096,18.096
201909090716,18.095,18.103,18.093,18.103
201909090717,18.104,18.105,18.095,18.097
201909090718,18.097,18.1,18.095,18.095
201909090719,18.095,18.095,18.089,18.09
201909090720,18.09,18.09,18.079,18.08
201909090721,18.08,18.088,18.08,18.086
201909090722,18.088,18.09,18.084,18.085
201909090723,18.085,18.086,18.081,18.085
201909090724,18.085,18.086,18.085,18.086
201909090725,18.086,18.091,18.086,18.091
201909090726,18.091,18.094,18.09,18.094
201909090727,18.094,18.095,18.094,18.095
201909090728,18.095,18.095,18.09,18.093
201909090729,18.093,18.097,18.091,18.093
201909090730,18.093,18.093,18.092,18.093
201909090731,18.093,18.095,18.092,18.095
201909090732,18.095,18.098,18.095,18.097
201909090733,18.098,18.102,18.097,18.102
201909090734,18.103,18.109,18.102,18.109
201909090735,18.109,18.123,18.107,18.123
201909090736,18.123,18.124,18.122,18.123
201909090737,18.123,18.123,18.118,18.121
201909090738,18.121,18.126,18.12,18.125
201909090739,18.125,18.126,18.121,18.124
201909090740,18.124,18.138,18.124,18.136
201909090741,18.132,18.132,18.128,18.131
201909090742,18.131,18.131,18.128,18.131
201909090743,18.131,18.131,18.126,18.126
201909090744,18.126,18.128,18.125,18.126
201909090745,18.126,18.127,18.121,18.126
201909090746,18.122,18.122,18.118,18.12
201909090747,18.12,18.121,18.116,18.119
201909090748,18.119,18.12,18.116,18.119
201909090749,18.119,18.12,18.115,18.115
201909090750,18.115,18.126,18.115,18.123
201909090751,18.123,18.129,18.123,18.128
201909090752,18.13,18.13,18.125,18.129
201909090753,18.129,18.13,18.125,18.125
201909090754,18.125,18.126,18.124,18.125
201909090755,18.125,18.125,18.121,18.121
201909090756,18.121,18.123,18.121,18.123
201909090757,18.122,18.134,18.122,18.134
201909090758,18.134,18.135,18.133,18.135
201909090759,18.135,18.142,18.135,18.14
201909090800,18.14,18.145,18.14,18.141
201909090801,18.141,18.141,18.133,18.136
201909090802,18.136,18.136,18.129,18.129
201909090803,18.13,18.131,18.129,18.13
201909090804,18.13,18.13,18.125,18.126
201909090805,18.126,18.133,18.125,18.132
201909090806,18.132,18.141,18.132,18.141
201909090807,18.141,18.141,18.131,18.131
201909090808,18.131,18.131,18.13,18.131
201909090809,18.131,18.137,18.131,18.136
201909090810,18.136,18.145,18.135,18.145
201909090811,18.145,18.145,18.136,18.139
201909090812,18.139,18.142,18.136,18.141
201909090813,18.141,18.142,18.137,18.137
201909090814,18.137,18.147,18.137,18.143
201909090815,18.143,18.144,18.143,18.144
201909090816,18.144,18.146,18.144,18.145
201909090817,18.145,18.163,18.145,18.163
201909090818,18.163,18.167,18.162,18.164
201909090819,18.163,18.17,18.162,18.167
201909090820,18.167,18.173,18.167,18.173
201909090821,18.173,18.175,18.173,18.173
201909090822,18.173,18.178,18.173,18.174
201909090823,18.174,18.174,18.172,18.173
201909090824,18.173,18.177,18.173,18.173
201909090825,18.173,18.173,18.168,18.168
201909090826,18.168,18.169,18.162,18.166
201909090827,18.165,18.169,18.164,18.168
201909090828,18.168,18.171,18.167,18.171
201909090829,18.171,18.172,18.169,18.169
201909090830,18.169,18.169,18.167,18.167
201909090831,18.167,18.172,18.167,18.172
201909090832,18.172,18.173,18.171,18.172
201909090833,18.172,18.182,18.172,18.182
201909090834,18.182,18.184,18.178,18.184
201909090835,18.184,18.184,18.178,18.178
201909090836,18.178,18.183,18.178,18.178
201909090837,18.178,18.178,18.178,18.178
201909090838,18.178,18.187,18.178,18.185
201909090839,18.185,18.186,18.183,18.186
201909090840,18.186,18.192,18.185,18.188
201909090841,18.189,18.189,18.188,18.188
201909090842,18.188,18.188,18.182,18.184
201909090843,18.184,18.186,18.183,18.183
201909090844,18.183,18.183,18.18,18.182
201909090845,18.181,18.186,18.179,18.185
201909090846,18.185,18.185,18.174,18.175
201909090847,18.175,18.175,18.164,18.168
201909090848,18.168,18.168,18.164,18.166
201909090849,18.166,18.176,18.166,18.169
201909090850,18.169,18.169,18.163,18.165
201909090851,18.165,18.165,18.157,18.158
201909090852,18.158,18.166,18.158,18.164
201909090853,18.164,18.164,18.162,18.162
201909090854,18.162,18.162,18.159,18.162
201909090855,18.161,18.165,18.161,18.165
201909090856,18.165,18.168,18.164,18.168
201909090857,18.167,18.17,18.167,18.17
201909090858,18.17,18.171,18.17,18.171
201909090859,18.171,18.175,18.169,18.175
201909090900,18.175,18.176,18.172,18.172
201909090901,18.172,18.176,18.172,18.173
201909090902,18.173,18.179,18.173,18.177
201909090903,18.177,18.182,18.177,18.182
201909090904,18.182,18.185,18.182,18.183
201909090905,18.183,18.183,18.167,18.168
201909090906,18.168,18.168,18.163,18.164
201909090907,18.164,18.166,18.164,18.165
201909090908,18.165,18.171,18.163,18.171
201909090909,18.171,18.171,18.164,18.164
201909090910,18.164,18.164,18.158,18.159
201909090911,18.159,18.159,18.153,18.154
201909090912,18.154,18.158,18.154,18.157
201909090913,18.154,18.156,18.152,18.153
201909090914,18.153,18.153,18.149,18.149
201909090915,18.149,18.155,18.147,18.154
201909090916,18.154,18.154,18.149,18.15
201909090917,18.15,18.154,18.149,18.154
201909090918,18.154,18.157,18.149,18.157
201909090919,18.157,18.166,18.157,18.165
201909090920,18.166,18.182,18.166,18.178
201909090921,18.178,18.178,18.17,18.172
201909090922,18.173,18.185,18.172,18.184
201909090923,18.184,18.192,18.184,18.187
201909090924,18.19,18.19,18.183,18.183
201909090925,18.183,18.183,18.172,18.177
201909090926,18.177,18.177,18.174,18.175
201909090927,18.175,18.18,18.175,18.179
201909090928,18.179,18.181,18.179,18.179
201909090929,18.181,18.184,18.178,18.184
201909090930,18.185,18.188,18.182,18.188
201909090931,18.188,18.193,18.188,18.189
201909090932,18.188,18.196,18.188,18.194
201909090933,18.194,18.2,18.193,18.2
201909090934,18.2,18.202,18.197,18.199
201909090935,18.199,18.203,18.199,18.203
201909090936,18.203,18.204,18.199,18.199
201909090937,18.199,18.223,18.196,18.215
201909090938,18.215,18.228,18.211,18.228
201909090939,18.228,18.228,18.224,18.224
201909090940,18.224,18.233,18.224,18.233
201909090941,18.233,18.233,18.23,18.232
201909090942,18.232,18.232,18.214,18.218
201909090943,18.22,18.235,18.217,18.234
201909090944,18.235,18.236,18.23,18.236
201909090945,18.236,18.237,18.233,18.234
201909090946,18.234,18.234,18.228,18.228
201909090947,18.228,18.233,18.228,18.23
201909090948,18.23,18.23,18.22,18.221
201909090949,18.22,18.23,18.219,18.23
201909090950,18.23,18.25,18.228,18.249
201909090951,18.249,18.25,18.24,18.245
201909090952,18.245,18.245,18.234,18.235
201909090953,18.235,18.235,18.23,18.235
201909090954,18.235,18.235,18.228,18.23
201909090955,18.23,18.239,18.229,18.236
201909090956,18.235,18.235,18.23,18.231
201909090957,18.231,18.231,18.22,18.22
201909090958,18.221,18.221,18.214,18.214
201909090959,18.214,18.221,18.211,18.221
201909091000,18.221,18.285,18.191,18.273
201909091001,18.275,18.278,18.195,18.195
201909091002,18.192,18.242,18.191,18.225
201909091003,18.225,18.225,18.176,18.204
201909091004,18.204,18.215,18.173,18.192
201909091005,18.192,18.194,18.152,18.166
201909091006,18.167,18.178,18.152,18.178
201909091007,18.178,18.189,18.176,18.178
201909091008,18.178,18.203,18.17,18.2
201909091009,18.201,18.204,18.177,18.2
201909091010,18.197,18.241,18.189,18.222
201909091011,18.222,18.223,18.197,18.204
201909091012,18.203,18.228,18.203,18.223
201909091013,18.223,18.235,18.218,18.22
201909091014,18.222,18.238,18.211,18.235
201909091015,18.235,18.277,18.223,18.272
201909091016,18.272,18.281,18.253,18.268
201909091017,18.269,18.304,18.269,18.296
201909091018,18.296,18.3,18.269,18.278
201909091019,18.278,18.3,18.276,18.292
201909091020,18.291,18.291,18.246,18.258
201909091021,18.258,18.26,18.238,18.24
201909091022,18.24,18.241,18.216,18.217
201909091023,18.217,18.231,18.216,18.225
201909091024,18.225,18.225,18.205,18.205
201909091025,18.205,18.229,18.204,18.223
201909091026,18.222,18.239,18.21,18.239
201909091027,18.239,18.252,18.234,18.252
201909091028,18.252,18.252,18.224,18.228
201909091029,18.227,18.227,18.199,18.203
201909091030,18.203,18.214,18.203,18.213
201909091031,18.213,18.222,18.205,18.206
201909091032,18.205,18.214,18.192,18.192
201909091033,18.193,18.208,18.188,18.205
201909091034,18.205,18.213,18.203,18.204
201909091035,18.205,18.218,18.2,18.202
201909091036,18.197,18.199,18.171,18.171
201909091037,18.171,18.178,18.158,18.168
201909091038,18.168,18.179,18.165,18.178
201909091039,18.178,18.182,18.168,18.173
201909091040,18.173,18.191,18.169,18.191
201909091041,18.191,18.192,18.154,18.155
201909091042,18.155,18.163,18.149,18.15
201909091043,18.15,18.15,18.134,18.139
201909091044,18.139,18.139,18.093,18.112
201909091045,18.112,18.127,18.112,18.124
201909091046,18.127,18.151,18.127,18.148
201909091047,18.146,18.162,18.145,18.162
201909091048,18.161,18.173,18.155,18.155
201909091049,18.153,18.159,18.141,18.141
201909091050,18.141,18.163,18.141,18.154
201909091051,18.154,18.154,18.142,18.148
201909091052,18.147,18.151,18.132,18.148
201909091053,18.148,18.153,18.142,18.152
201909091054,18.152,18.176,18.148,18.169
201909091055,18.168,18.197,18.168,18.187
201909091056,18.187,18.189,18.173,18.18
201909091057,18.181,18.191,18.171,18.176
201909091058,18.176,18.177,18.165,18.171
201909091059,18.172,18.18,18.141,18.146
201909091100,18.146,18.15,18.139,18.14
201909091101,18.14,18.142,18.13,18.139
201909091102,18.14,18.15,18.135,18.142
201909091103,18.145,18.155,18.145,18.154
201909091104,18.154,18.17,18.154,18.166
201909091105,18.167,18.169,18.149,18.15
201909091106,18.15,18.15,18.129,18.132
201909091107,18.13,18.132,18.114,18.123
201909091108,18.123,18.124,18.107,18.114
201909091109,18.114,18.129,18.114,18.126
201909091110,18.126,18.127,18.118,18.125
201909091111,18.126,18.131,18.126,18.131
201909091112,18.131,18.146,18.131,18.145
201909091113,18.145,18.146,18.131,18.135
201909091114,18.135,18.141,18.129,18.13
201909091115,18.13,18.134,18.129,18.134
201909091116,18.134,18.135,18.126,18.129
201909091117,18.129,18.129,18.118,18.119
201909091118,18.119,18.127,18.118,18.126
201909091119,18.127,18.137,18.124,18.135
201909091120,18.134,18.136,18.107,18.117
201909091121,18.118,18.121,18.116,18.117
201909091122,18.117,18.121,18.115,18.121
201909091123,18.121,18.126,18.121,18.121
201909091124,18.121,18.124,18.118,18.124
201909091125,18.123,18.125,18.12,18.125
201909091126,18.125,18.125,18.107,18.109
201909091127,18.109,18.114,18.107,18.114
201909091128,18.114,18.115,18.111,18.113
201909091129,18.113,18.117,18.102,18.102
201909091130,18.102,18.107,18.087,18.088
201909091131,18.087,18.089,18.047,18.066
201909091132,18.067,18.075,18.05,18.05
201909091133,18.05,18.065,18.039,18.062
201909091134,18.061,18.082,18.061,18.076
201909091135,18.077,18.097,18.076,18.097
201909091136,18.097,18.097,18.075,18.077
201909091137,18.076,18.076,18.064,18.073
201909091138,18.073,18.074,18.061,18.063
201909091139,18.062,18.062,18.046,18.048
201909091140,18.048,18.049,18.036,18.036
201909091141,18.037,18.043,18.023,18.024
201909091142,18.025,18.026,17.98,17.995
201909091143,17.995,18.003,17.967,17.979
201909091144,17.979,17.985,17.97,17.982
201909091145,17.982,17.982,17.955,17.981
201909091146,17.98,17.991,17.965,17.978
201909091147,17.978,17.981,17.949,17.964
201909091148,17.964,17.964,17.924,17.947
201909091149,17.947,17.958,17.934,17.943
201909091150,17.943,17.99,17.94,17.99
201909091151,17.99,18.023,17.99,18.008
201909091152,18.008,18.011,17.987,17.995
201909091153,17.997,18.007,17.993,18.004
201909091154,18.004,18.008,17.999,18.007
201909091155,18.007,18.008,17.998,17.998
201909091156,17.998,18.011,17.997,18.011
201909091157,18.011,18.035,18.011,18.029
201909091158,18.03,18.038,18.025,18.03
201909091159,18.026,18.036,18.024,18.028
201909091200,18.028,18.033,18.013,18.018
201909091201,18.016,18.021,18.015,18.019
201909091202,18.019,18.031,18.019,18.031
201909091203,18.032,18.033,18.027,18.029
201909091204,18.029,18.03,18.022,18.028
201909091205,18.028,18.048,18.022,18.045
201909091206,18.045,18.049,18.043,18.046
201909091207,18.046,18.048,18.045,18.047
201909091208,18.047,18.047,18.044,18.045
201909091209,18.045,18.049,18.043,18.049
201909091210,18.049,18.072,18.049,18.066
201909091211,18.067,18.072,18.066,18.068
201909091212,18.069,18.069,18.056,18.056
201909091213,18.056,18.062,18.056,18.061
201909091214,18.061,18.08,18.06,18.076
201909091215,18.076,18.085,18.069,18.072
201909091216,18.072,18.076,18.068,18.075
201909091217,18.075,18.075,18.052,18.052
201909091218,18.051,18.058,18.046,18.046
201909091219,18.046,18.049,18.04,18.041
201909091220,18.04,18.051,18.04,18.05
201909091221,18.05,18.052,18.045,18.051
201909091222,18.051,18.068,18.051,18.067
201909091223,18.067,18.073,18.066,18.068
201909091224,18.068,18.068,18.053,18.055
201909091225,18.055,18.057,18.053,18.055
201909091226,18.054,18.06,18.053,18.055
201909091227,18.055,18.056,18.047,18.049
201909091228,18.05,18.05,18.035,18.035
201909091229,18.034,18.044,18.032,18.043
201909091230,18.043,18.051,18.042,18.051
201909091231,18.051,18.064,18.051,18.063
201909091232,18.063,18.072,18.062,18.072
201909091233,18.072,18.075,18.072,18.073
201909091234,18.073,18.075,18.068,18.072
201909091235,18.072,18.072,18.069,18.069
201909091236,18.069,18.069,18.052,18.053
201909091237,18.053,18.062,18.053,18.062
201909091238,18.063,18.071,18.063,18.071
201909091239,18.071,18.072,18.069,18.071
201909091240,18.071,18.071,18.063,18.069
201909091241,18.069,18.071,18.069,18.069
201909091242,18.069,18.073,18.064,18.072
201909091243,18.072,18.073,18.068,18.071
201909091244,18.069,18.069,18.062,18.062
201909091245,18.063,18.069,18.062,18.066
201909091246,18.066,18.066,18.046,18.047
201909091247,18.047,18.052,18.047,18.051
201909091248,18.051,18.057,18.051,18.057
201909091249,18.057,18.059,18.056,18.059
201909091250,18.059,18.062,18.059,18.062
201909091251,18.062,18.062,18.046,18.049
201909091252,18.049,18.049,18.047,18.049
201909091253,18.049,18.049,18.049,18.049
201909091254,18.049,18.049,18.045,18.045
201909091255,18.045,18.049,18.041,18.044
201909091256,18.044,18.048,18.044,18.048
201909091257,18.048,18.048,18.045,18.045
201909091258,18.045,18.049,18.045,18.047
201909091259,18.047,18.047,18.04,18.04
201909091300,18.04,18.043,18.04,18.041
201909091301,18.041,18.043,18.036,18.041
201909091302,18.041,18.044,18.041,18.042
201909091303,18.042,18.049,18.041,18.049
201909091304,18.049,18.05,18.046,18.05
201909091305,18.05,18.058,18.05,18.053
201909091306,18.053,18.055,18.052,18.055
201909091307,18.055,18.064,18.055,18.064
201909091308,18.064,18.065,18.061,18.062
201909091309,18.062,18.063,18.062,18.063
201909091310,18.063,18.067,18.062,18.067
201909091311,18.067,18.072,18.066,18.072
201909091312,18.072,18.08,18.072,18.08
201909091313,18.08,18.087,18.08,18.087
201909091314,18.087,18.087,18.076,18.076
201909091315,18.076,18.076,18.07,18.074
201909091316,18.074,18.075,18.07,18.07
201909091317,18.07,18.071,18.069,18.071
201909091318,18.07,18.071,18.066,18.069
201909091319,18.069,18.069,18.067,18.069
201909091320,18.069,18.07,18.068,18.07
201909091321,18.07,18.07,18.057,18.06
201909091322,18.06,18.06,18.055,18.055
201909091323,18.055,18.055,18.052,18.052
201909091324,18.052,18.055,18.052,18.055
201909091325,18.055,18.055,18.051,18.055
201909091326,18.055,18.056,18.053,18.055
201909091327,18.055,18.055,18.052,18.055
201909091328,18.055,18.055,18.054,18.055
201909091329,18.055,18.056,18.055,18.056
201909091330,18.056,18.067,18.056,18.066
201909091331,18.066,18.07,18.066,18.069
201909091332,18.069,18.07,18.063,18.065
201909091333,18.065,18.07,18.065,18.069
201909091334,18.069,18.069,18.068,18.069
201909091335,18.069,18.069,18.062,18.064
201909091336,18.064,18.066,18.064,18.066
201909091337,18.063,18.064,18.052,18.053
201909091338,18.053,18.057,18.053,18.056
201909091339,18.056,18.058,18.053,18.053
201909091340,18.053,18.056,18.052,18.056
201909091341,18.056,18.056,18.053,18.056
201909091342,18.056,18.056,18.052,18.054
201909091343,18.054,18.054,18.052,18.053
201909091344,18.053,18.06,18.053,18.057
201909091345,18.057,18.06,18.055,18.06
201909091346,18.06,18.067,18.06,18.067
201909091347,18.068,18.069,18.065,18.066
201909091348,18.066,18.066,18.065,18.066
201909091349,18.065,18.065,18.065,18.065
201909091350,18.065,18.065,18.06,18.065
201909091351,18.065,18.065,18.06,18.061
201909091352,18.061,18.066,18.059,18.06
201909091353,18.059,18.06,18.059,18.06
201909091354,18.06,18.06,18.049,18.049
201909091355,18.049,18.049,18.045,18.048
201909091356,18.048,18.048,18.039,18.039
201909091357,18.039,18.042,18.039,18.039
201909091358,18.039,18.04,18.038,18.038
201909091359,18.038,18.039,18.038,18.039
201909091400,18.039,18.04,18.036,18.036
201909091401,18.036,18.038,18.034,18.038
201909091402,18.039,18.04,18.036,18.036
201909091403,18.036,18.04,18.035,18.039
201909091404,18.039,18.044,18.039,18.044
201909091405,18.044,18.044,18.037,18.04
201909091406,18.04,18.041,18.037,18.037
201909091407,18.037,18.037,17.985,17.993
201909091408,17.994,17.995,17.986,17.993
201909091409,17.993,18,17.991,18
201909091410,18,18.005,18,18.004
201909091411,18.004,18.005,17.993,18.003
201909091412,18.003,18.01,17.999,18.002
201909091413,18,18.007,17.997,18.007
201909091414,18.007,18.027,18.007,18.027
201909091415,18.025,18.027,18.023,18.025
201909091416,18.025,18.033,18.025,18.033
201909091417,18.033,18.034,18.03,18.034
201909091418,18.034,18.041,18.033,18.036
201909091419,18.036,18.038,18.036,18.037
201909091420,18.037,18.038,18.033,18.037
201909091421,18.037,18.046,18.037,18.045
201909091422,18.045,18.047,18.041,18.042
201909091423,18.042,18.046,18.042,18.043
201909091424,18.043,18.053,18.043,18.052
201909091425,18.052,18.052,18.048,18.049
201909091426,18.049,18.049,18.048,18.049
201909091427,18.049,18.053,18.048,18.053
201909091428,18.053,18.053,18.051,18.051
201909091429,18.051,18.056,18.048,18.056
201909091430,18.056,18.075,18.056,18.075
201909091431,18.075,18.086,18.073,18.086
201909091432,18.086,18.104,18.083,18.099
201909091433,18.099,18.099,18.058,18.075
201909091434,18.075,18.081,18.074,18.079
201909091435,18.079,18.093,18.077,18.093
201909091436,18.092,18.095,18.061,18.063
201909091437,18.063,18.076,18.061,18.075
201909091438,18.075,18.09,18.072,18.09
201909091439,18.092,18.093,18.087,18.087
201909091440,18.087,18.089,18.075,18.08
201909091441,18.08,18.08,18.067,18.07
201909091442,18.07,18.081,18.068,18.076
201909091443,18.076,18.077,18.073,18.076
201909091444,18.076,18.076,18.07,18.074
201909091445,18.074,18.095,18.074,18.09
201909091446,18.09,18.094,18.079,18.079
201909091447,18.079,18.1,18.079,18.1
201909091448,18.1,18.104,18.096,18.098
201909091449,18.098,18.116,18.095,18.098
201909091450,18.098,18.103,18.096,18.096
201909091451,18.096,18.1,18.091,18.091
201909091452,18.091,18.091,18.08,18.084
201909091453,18.084,18.093,18.084,18.093
201909091454,18.093,18.123,18.093,18.118
201909091455,18.116,18.119,18.105,18.111
201909091456,18.111,18.112,18.104,18.106
201909091457,18.106,18.106,18.096,18.1
201909091458,18.099,18.101,18.084,18.084
201909091459,18.084,18.085,18.077,18.077
201909091500,18.077,18.079,18.057,18.069
201909091501,18.069,18.069,18.057,18.059
201909091502,18.059,18.074,18.056,18.071
201909091503,18.072,18.072,18.052,18.055
201909091504,18.055,18.065,18.053,18.062
201909091505,18.062,18.062,18.05,18.056
201909091506,18.056,18.066,18.056,18.06
201909091507,18.062,18.065,18.049,18.049
201909091508,18.045,18.045,18.012,18.034
201909091509,18.035,18.041,18.029,18.038
201909091510,18.039,18.04,18.032,18.035
201909091511,18.035,18.06,18.035,18.054
201909091512,18.055,18.055,18.036,18.047
201909091513,18.047,18.048,18.036,18.041
201909091514,18.041,18.046,18.034,18.046
201909091515,18.045,18.045,18.032,18.034
201909091516,18.034,18.036,18.011,18.021
201909091517,18.021,18.021,18.017,18.019
201909091518,18.018,18.036,18.018,18.032
201909091519,18.032,18.042,18.03,18.04
201909091520,18.04,18.04,18.029,18.04
201909091521,18.04,18.056,18.04,18.042
201909091522,18.042,18.046,18.033,18.046
201909091523,18.046,18.048,18.034,18.034
201909091524,18.037,18.038,18.013,18.013
201909091525,18.013,18.017,18.008,18.013
201909091526,18.013,18.025,18.011,18.012
201909091527,18.012,18.03,18.012,18.03
201909091528,18.03,18.031,18.022,18.028
201909091529,18.028,18.031,18.026,18.028
201909091530,18.028,18.028,18.01,18.013
201909091531,18.013,18.026,18.013,18.026
201909091532,18.023,18.026,18.01,18.01
201909091533,18.009,18.022,18.008,18.021
201909091534,18.021,18.021,18.004,18.007
201909091535,18.007,18.007,17.991,17.999
201909091536,18,18.007,17.991,17.991
201909091537,17.991,18.001,17.989,17.989
201909091538,17.989,17.996,17.981,17.996
201909091539,17.996,18.003,17.991,18.003
201909091540,18.002,18.02,18.002,18.006
201909091541,18.006,18.013,18.002,18.009
201909091542,18.008,18.01,18.001,18.002
201909091543,18.002,18.013,18.002,18.008
201909091544,18.008,18.008,17.995,18.006
201909091545,18.004,18.012,18.003,18.008
201909091546,18.008,18.019,18.008,18.016
201909091547,18.016,18.018,18.011,18.011
201909091548,18.011,18.017,18.011,18.016
201909091549,18.016,18.022,18.016,18.021
201909091550,18.021,18.022,18.016,18.022
201909091551,18.021,18.032,18.018,18.031
201909091552,18.031,18.045,18.031,18.042
201909091553,18.042,18.043,18.038,18.042
201909091554,18.042,18.045,18.031,18.037
201909091555,18.037,18.041,18.031,18.035
201909091556,18.035,18.041,18.035,18.04
201909091557,18.04,18.048,18.039,18.048
201909091558,18.048,18.064,18.048,18.059
201909091559,18.064,18.069,18.059,18.069
201909091600,18.072,18.086,18.063,18.063
201909091601,18.065,18.066,18.057,18.061
201909091602,18.062,18.064,18.055,18.057
201909091603,18.056,18.056,18.046,18.046
201909091604,18.046,18.055,18.044,18.054
201909091605,18.055,18.055,18.048,18.054
201909091606,18.055,18.063,18.054,18.061
201909091607,18.061,18.065,18.061,18.061
201909091608,18.061,18.065,18.06,18.062
201909091609,18.062,18.065,18.046,18.055
201909091610,18.056,18.074,18.056,18.072
201909091611,18.074,18.076,18.065,18.069
201909091612,18.069,18.069,18.042,18.045
201909091613,18.045,18.051,18.041,18.044
201909091614,18.044,18.061,18.042,18.061
201909091615,18.062,18.071,18.051,18.052
201909091616,18.052,18.052,18.034,18.045
201909091617,18.043,18.043,18.035,18.04
201909091618,18.04,18.05,18.038,18.049
201909091619,18.05,18.056,18.045,18.048
201909091620,18.049,18.05,18.035,18.047
201909091621,18.047,18.049,18.034,18.034
201909091622,18.034,18.035,18.026,18.033
201909091623,18.033,18.034,18.018,18.018
201909091624,18.019,18.023,18.014,18.019
201909091625,18.019,18.027,18.015,18.024
201909091626,18.024,18.031,18.024,18.029
201909091627,18.03,18.041,18.025,18.025
201909091628,18.027,18.027,18.008,18.015
201909091629,18.015,18.022,18.008,18.022
201909091630,18.022,18.023,18.005,18.01
201909091631,18.009,18.011,18.004,18.008
201909091632,18.008,18.008,17.995,17.998
201909091633,17.998,18.006,17.995,18.006
201909091634,18.006,18.01,18.001,18.003
201909091635,18.003,18.019,18.003,18.016
201909091636,18.016,18.021,18.006,18.01
201909091637,18.009,18.009,17.992,18.001
201909091638,18.001,18.011,17.995,18.008
201909091639,18.008,18.017,18.007,18.013
201909091640,18.013,18.027,18.007,18.026
201909091641,18.026,18.037,18.024,18.027
201909091642,18.027,18.034,18.027,18.031
201909091643,18.031,18.04,18.031,18.037
201909091644,18.037,18.043,18.027,18.037
201909091645,18.037,18.04,18.035,18.039
201909091646,18.039,18.049,18.036,18.048
201909091647,18.048,18.048,18.043,18.046
201909091648,18.046,18.047,18.043,18.046
201909091649,18.046,18.051,18.046,18.047
201909091650,18.047,18.047,18.032,18.036
201909091651,18.036,18.039,18.032,18.033
201909091652,18.033,18.036,18.028,18.036
201909091653,18.036,18.041,18.036,18.037
201909091654,18.037,18.042,18.035,18.042
201909091655,18.042,18.042,18.036,18.037
201909091656,18.037,18.037,18.032,18.032
201909091657,18.032,18.032,18.024,18.025
201909091658,18.025,18.025,18.01,18.015
201909091659,18.017,18.022,18.015,18.019
201909091700,18.019,18.026,18.014,18.023
201909091701,18.023,18.024,18.008,18.01
201909091702,18.01,18.023,18.01,18.022
201909091703,18.022,18.024,18.006,18.011
201909091704,18.011,18.016,18.01,18.013
201909091705,18.012,18.024,18.012,18.024
201909091706,18.024,18.032,18.022,18.032
201909091707,18.032,18.039,18.03,18.037
201909091708,18.037,18.052,18.037,18.05
201909091709,18.05,18.053,18.047,18.05
201909091710,18.05,18.052,18.042,18.051
201909091711,18.051,18.052,18.044,18.048
201909091712,18.049,18.049,18.039,18.042
201909091713,18.042,18.046,18.038,18.042
201909091714,18.042,18.051,18.042,18.051
201909091715,18.051,18.057,18.051,18.053
201909091716,18.053,18.058,18.053,18.057
201909091717,18.057,18.057,18.044,18.047
201909091718,18.046,18.057,18.046,18.052
201909091719,18.052,18.062,18.051,18.056
201909091720,18.057,18.057,18.045,18.048
201909091721,18.048,18.053,18.047,18.053
201909091722,18.053,18.057,18.053,18.053
201909091723,18.053,18.065,18.053,18.063
201909091724,18.063,18.066,18.062,18.064
201909091725,18.064,18.064,18.056,18.06
201909091726,18.06,18.066,18.059,18.065
201909091727,18.065,18.074,18.064,18.071
201909091728,18.071,18.071,18.06,18.063
201909091729,18.064,18.065,18.06,18.06
201909091730,18.06,18.061,18.05,18.055
201909091731,18.055,18.063,18.054,18.062
201909091732,18.063,18.071,18.061,18.066
201909091733,18.066,18.073,18.065,18.072
201909091734,18.071,18.071,18.066,18.069
201909091735,18.069,18.072,18.06,18.064
201909091736,18.064,18.069,18.064,18.069
201909091737,18.069,18.069,18.06,18.06
201909091738,18.06,18.061,18.056,18.059
201909091739,18.059,18.063,18.056,18.063
201909091740,18.063,18.071,18.063,18.069
201909091741,18.068,18.069,18.061,18.061
201909091742,18.061,18.068,18.061,18.068
201909091743,18.068,18.068,18.061,18.061
201909091744,18.061,18.063,18.056,18.059
201909091745,18.059,18.063,18.059,18.061
201909091746,18.061,18.062,18.06,18.061
201909091747,18.061,18.069,18.061,18.065
201909091748,18.065,18.065,18.062,18.063
201909091749,18.063,18.068,18.063,18.068
201909091750,18.068,18.074,18.067,18.074
201909091751,18.074,18.1,18.074,18.098
201909091752,18.099,18.112,18.099,18.107
201909091753,18.107,18.127,18.105,18.127
201909091754,18.127,18.13,18.121,18.123
201909091755,18.124,18.127,18.124,18.127
201909091756,18.127,18.146,18.127,18.138
201909091757,18.139,18.139,18.126,18.131
201909091758,18.131,18.131,18.123,18.124
201909091759,18.124,18.129,18.124,18.126
201909091800,18.126,18.126,18.118,18.122
201909091801,18.122,18.124,18.117,18.12
201909091802,18.12,18.127,18.118,18.126
201909091803,18.126,18.13,18.124,18.129
201909091804,18.129,18.134,18.124,18.125
201909091805,18.125,18.142,18.123,18.135
201909091806,18.135,18.137,18.13,18.131
201909091807,18.131,18.134,18.125,18.134
201909091808,18.134,18.136,18.133,18.135
201909091809,18.135,18.148,18.134,18.14
201909091810,18.14,18.144,18.125,18.125
201909091811,18.125,18.133,18.125,18.132
201909091812,18.132,18.132,18.13,18.131
201909091813,18.131,18.131,18.123,18.123
201909091814,18.123,18.129,18.117,18.129
201909091815,18.129,18.13,18.116,18.117
201909091816,18.117,18.133,18.117,18.133
201909091817,18.133,18.135,18.128,18.128
201909091818,18.128,18.128,18.123,18.124
201909091819,18.124,18.128,18.123,18.124
201909091820,18.124,18.124,18.122,18.123
201909091821,18.123,18.124,18.121,18.124
201909091822,18.123,18.127,18.123,18.126
201909091823,18.126,18.127,18.118,18.12
201909091824,18.119,18.135,18.119,18.135
201909091825,18.135,18.139,18.135,18.139
201909091826,18.14,18.14,18.137,18.137
201909091827,18.137,18.144,18.137,18.142
201909091828,18.142,18.169,18.137,18.167
201909091829,18.167,18.173,18.16,18.16
201909091830,18.16,18.173,18.155,18.169
201909091831,18.169,18.169,18.156,18.156
201909091832,18.156,18.16,18.152,18.159
201909091833,18.159,18.162,18.156,18.162
201909091834,18.161,18.163,18.161,18.162
201909091835,18.162,18.162,18.151,18.156
201909091836,18.157,18.162,18.153,18.159
201909091837,18.159,18.161,18.154,18.154
201909091838,18.154,18.156,18.15,18.154
201909091839,18.154,18.157,18.151,18.157
201909091840,18.157,18.158,18.149,18.151
201909091841,18.15,18.15,18.138,18.138
201909091842,18.138,18.167,18.138,18.167
201909091843,18.167,18.168,18.162,18.162
201909091844,18.162,18.162,18.156,18.156
201909091845,18.156,18.157,18.147,18.152
201909091846,18.152,18.159,18.152,18.159
201909091847,18.159,18.159,18.144,18.144
201909091848,18.144,18.146,18.142,18.143
201909091849,18.143,18.152,18.142,18.152
201909091850,18.152,18.157,18.147,18.153
201909091851,18.153,18.153,18.147,18.147
201909091852,18.147,18.147,18.141,18.142
201909091853,18.142,18.149,18.137,18.138
201909091854,18.138,18.139,18.132,18.135
201909091855,18.135,18.139,18.134,18.136
201909091856,18.136,18.141,18.135,18.136
201909091857,18.136,18.144,18.135,18.144
201909091858,18.145,18.145,18.14,18.141
201909091859,18.141,18.141,18.133,18.135
201909091900,18.135,18.135,18.129,18.135
201909091901,18.135,18.145,18.134,18.145
201909091902,18.145,18.153,18.139,18.153
201909091903,18.153,18.155,18.144,18.146
201909091904,18.145,18.145,18.142,18.142
201909091905,18.142,18.146,18.141,18.142
201909091906,18.142,18.164,18.142,18.164
201909091907,18.165,18.165,18.154,18.158
201909091908,18.158,18.159,18.153,18.153
201909091909,18.152,18.155,18.152,18.154
201909091910,18.154,18.158,18.153,18.158
201909091911,18.158,18.162,18.156,18.161
201909091912,18.161,18.17,18.161,18.164
201909091913,18.164,18.172,18.161,18.17
201909091914,18.17,18.17,18.168,18.169
201909091915,18.169,18.177,18.169,18.177
201909091916,18.177,18.193,18.175,18.193
201909091917,18.193,18.193,18.176,18.176
201909091918,18.177,18.179,18.176,18.179
201909091919,18.179,18.179,18.173,18.173
201909091920,18.173,18.173,18.17,18.17
201909091921,18.169,18.185,18.168,18.179
201909091922,18.179,18.188,18.179,18.187
201909091923,18.187,18.187,18.177,18.177
201909091924,18.177,18.179,18.176,18.178
201909091925,18.178,18.179,18.167,18.167
201909091926,18.166,18.167,18.161,18.162
201909091927,18.162,18.163,18.157,18.16
201909091928,18.161,18.172,18.161,18.17
201909091929,18.17,18.17,18.157,18.16
201909091930,18.16,18.173,18.155,18.173
201909091931,18.173,18.174,18.171,18.172
201909091932,18.171,18.171,18.164,18.168
201909091933,18.168,18.175,18.168,18.174
201909091934,18.174,18.174,18.172,18.173
201909091935,18.173,18.174,18.17,18.171
201909091936,18.171,18.175,18.171,18.173
201909091937,18.173,18.177,18.173,18.173
201909091938,18.173,18.173,18.168,18.168
201909091939,18.166,18.166,18.155,18.155
201909091940,18.155,18.16,18.153,18.16
201909091941,18.16,18.16,18.157,18.158
201909091942,18.158,18.158,18.154,18.158
201909091943,18.158,18.158,18.155,18.158
201909091944,18.158,18.158,18.148,18.15
201909091945,18.148,18.15,18.148,18.148
201909091946,18.148,18.148,18.139,18.143
201909091947,18.143,18.144,18.138,18.142
201909091948,18.142,18.145,18.139,18.14
201909091949,18.14,18.144,18.138,18.141
201909091950,18.142,18.143,18.138,18.143
201909091951,18.143,18.153,18.142,18.15
201909091952,18.15,18.154,18.149,18.154
201909091953,18.154,18.16,18.154,18.159
201909091954,18.159,18.159,18.152,18.153
201909091955,18.153,18.153,18.15,18.15
201909091956,18.151,18.154,18.151,18.152
201909091957,18.152,18.155,18.152,18.154
201909091958,18.154,18.158,18.154,18.158
201909091959,18.158,18.158,18.149,18.149
201909092000,18.149,18.166,18.148,18.166
201909092001,18.166,18.173,18.163,18.168
201909092002,18.168,18.17,18.167,18.167
201909092003,18.167,18.173,18.166,18.173
201909092004,18.173,18.176,18.168,18.176
201909092005,18.176,18.176,18.171,18.176
201909092006,18.177,18.182,18.177,18.178
201909092007,18.178,18.183,18.177,18.178
201909092008,18.178,18.178,18.173,18.173
201909092009,18.172,18.173,18.172,18.172
201909092010,18.172,18.172,18.169,18.172
201909092011,18.172,18.173,18.167,18.168
201909092012,18.168,18.182,18.164,18.181
201909092013,18.181,18.185,18.178,18.178
201909092014,18.179,18.182,18.178,18.182
201909092015,18.182,18.183,18.18,18.183
201909092016,18.182,18.184,18.178,18.181
201909092017,18.181,18.185,18.178,18.185
201909092018,18.185,18.186,18.183,18.185
201909092019,18.185,18.185,18.177,18.177
201909092020,18.177,18.178,18.169,18.172
201909092021,18.172,18.174,18.167,18.174
201909092022,18.174,18.174,18.171,18.174
201909092023,18.174,18.179,18.174,18.178
201909092024,18.178,18.183,18.177,18.177
201909092025,18.177,18.184,18.177,18.183
201909092026,18.183,18.198,18.183,18.192
201909092027,18.192,18.194,18.192,18.192
201909092028,18.192,18.197,18.192,18.197
201909092029,18.197,18.199,18.195,18.198
201909092030,18.198,18.203,18.197,18.198
201909092031,18.198,18.211,18.197,18.207
201909092032,18.207,18.209,18.203,18.205
201909092033,18.207,18.217,18.207,18.217
201909092034,18.217,18.233,18.217,18.217
201909092035,18.217,18.219,18.216,18.217
201909092036,18.216,18.224,18.213,18.22
201909092037,18.22,18.223,18.21,18.213
201909092038,18.213,18.224,18.212,18.224
201909092039,18.223,18.239,18.219,18.239
201909092040,18.239,18.239,18.231,18.237
201909092041,18.237,18.237,18.231,18.232
201909092042,18.232,18.232,18.219,18.224
201909092043,18.224,18.24,18.223,18.238
201909092044,18.238,18.246,18.232,18.241
201909092045,18.241,18.294,18.241,18.275
201909092046,18.275,18.279,18.247,18.248
201909092047,18.247,18.263,18.246,18.253
201909092048,18.253,18.253,18.241,18.25
201909092049,18.25,18.253,18.238,18.238
201909092050,18.237,18.243,18.23,18.238
201909092051,18.238,18.242,18.228,18.228
201909092052,18.228,18.228,18.223,18.224
201909092053,18.223,18.224,18.216,18.222
201909092054,18.222,18.228,18.219,18.22
201909092055,18.22,18.228,18.216,18.216
201909092056,18.217,18.217,18.21,18.212
201909092057,18.212,18.23,18.209,18.229
201909092058,18.229,18.229,18.219,18.225
201909092059,18.225,18.228,18.213,18.213
201909092100,18.212,18.228,18.208,18.215
201909092101,18.213,18.215,18.192,18.2
201909092102,18.2,18.2,18.182,18.187
201909092103,18.187,18.199,18.184,18.199
201909092104,18.199,18.209,18.195,18.195
201909092105,18.195,18.206,18.19,18.205
201909092106,18.205,18.205,18.187,18.189
201909092107,18.189,18.191,18.184,18.186
201909092108,18.186,18.188,18.184,18.185
201909092109,18.185,18.185,18.18,18.181
201909092110,18.181,18.187,18.18,18.181
201909092111,18.18,18.18,18.175,18.176
201909092112,18.176,18.19,18.176,18.181
201909092113,18.181,18.196,18.181,18.196
201909092114,18.197,18.207,18.195,18.203
201909092115,18.201,18.202,18.193,18.195
201909092116,18.195,18.195,18.166,18.167
201909092117,18.167,18.179,18.167,18.176
201909092118,18.177,18.189,18.177,18.182
201909092119,18.183,18.183,18.171,18.182
201909092120,18.182,18.182,18.168,18.17
201909092121,18.17,18.179,18.166,18.176
201909092122,18.176,18.183,18.175,18.18
201909092123,18.18,18.192,18.177,18.192
201909092124,18.192,18.205,18.192,18.204
201909092125,18.207,18.218,18.205,18.214
201909092126,18.214,18.224,18.213,18.222
201909092127,18.222,18.226,18.219,18.219
201909092128,18.219,18.223,18.214,18.214
201909092129,18.214,18.215,18.207,18.215
201909092130,18.217,18.224,18.211,18.211
201909092131,18.211,18.213,18.199,18.201
201909092132,18.201,18.212,18.192,18.21
201909092133,18.209,18.222,18.204,18.222
201909092134,18.222,18.227,18.22,18.22
201909092135,18.22,18.224,18.213,18.216
201909092136,18.216,18.232,18.205,18.231
201909092137,18.232,18.237,18.23,18.234
201909092138,18.233,18.237,18.227,18.228
201909092139,18.228,18.229,18.217,18.22
201909092140,18.22,18.239,18.217,18.238
201909092141,18.238,18.243,18.237,18.243
201909092142,18.243,18.246,18.225,18.225
201909092143,18.225,18.226,18.212,18.214
201909092144,18.213,18.214,18.191,18.191
201909092145,18.191,18.216,18.191,18.214
201909092146,18.215,18.215,18.204,18.209
201909092147,18.209,18.216,18.208,18.214
201909092148,18.212,18.218,18.206,18.209
201909092149,18.209,18.211,18.205,18.206
201909092150,18.208,18.219,18.204,18.218
201909092151,18.218,18.221,18.21,18.211
201909092152,18.211,18.213,18.204,18.204
201909092153,18.205,18.206,18.204,18.204
201909092154,18.204,18.204,18.198,18.199
201909092155,18.199,18.199,18.182,18.182
201909092156,18.182,18.185,18.176,18.177
201909092157,18.177,18.182,18.169,18.18
201909092158,18.18,18.182,18.175,18.179
201909092159,18.179,18.196,18.179,18.196
201909092200,18.197,18.224,18.182,18.196
201909092201,18.196,18.203,18.171,18.183
201909092202,18.182,18.191,18.164,18.166
201909092203,18.166,18.169,18.144,18.156
201909092204,18.156,18.162,18.149,18.15
201909092205,18.15,18.172,18.137,18.139
201909092206,18.139,18.146,18.129,18.146
201909092207,18.146,18.159,18.144,18.145
201909092208,18.144,18.155,18.144,18.147
201909092209,18.147,18.147,18.096,18.111
201909092210,18.112,18.127,18.098,18.118
201909092211,18.118,18.134,18.109,18.117
201909092212,18.117,18.128,18.109,18.121
201909092213,18.121,18.132,18.121,18.131
201909092214,18.131,18.143,18.122,18.122
201909092215,18.119,18.122,18.101,18.107
201909092216,18.107,18.121,18.105,18.117
201909092217,18.117,18.119,18.108,18.113
201909092218,18.114,18.13,18.113,18.126
201909092219,18.126,18.133,18.114,18.118
201909092220,18.118,18.122,18.107,18.109
201909092221,18.108,18.117,18.107,18.113
201909092222,18.113,18.128,18.113,18.127
201909092223,18.124,18.132,18.118,18.126
201909092224,18.126,18.145,18.125,18.14
201909092225,18.14,18.145,18.128,18.132
201909092226,18.132,18.138,18.132,18.137
201909092227,18.137,18.138,18.117,18.121
201909092228,18.12,18.121,18.103,18.116
201909092229,18.116,18.116,18.087,18.093
201909092230,18.091,18.091,18.037,18.044
201909092231,18.038,18.062,18.024,18.062
201909092232,18.061,18.062,18.045,18.058
201909092233,18.058,18.084,18.057,18.071
201909092234,18.072,18.084,18.068,18.082
201909092235,18.082,18.083,18.065,18.067
201909092236,18.067,18.069,18.049,18.06
201909092237,18.06,18.066,18.056,18.063
201909092238,18.063,18.07,18.058,18.061
201909092239,18.062,18.067,18.053,18.066
201909092240,18.066,18.066,18.053,18.054
201909092241,18.052,18.052,18.032,18.037
201909092242,18.036,18.051,18.013,18.023
201909092243,18.027,18.048,18.023,18.047
201909092244,18.047,18.061,18.047,18.053
201909092245,18.053,18.064,18.047,18.056
201909092246,18.056,18.057,18.043,18.049
201909092247,18.049,18.078,18.048,18.073
201909092248,18.073,18.077,18.068,18.075
201909092249,18.076,18.076,18.068,18.069
201909092250,18.069,18.073,18.062,18.063
201909092251,18.063,18.073,18.055,18.07
201909092252,18.07,18.078,18.066,18.068
201909092253,18.068,18.07,18.056,18.06
201909092254,18.06,18.064,18.057,18.064
201909092255,18.064,18.075,18.064,18.071
201909092256,18.071,18.079,18.07,18.077
201909092257,18.079,18.104,18.079,18.104
201909092258,18.104,18.13,18.104,18.126
201909092259,18.126,18.13,18.115,18.126
201909092300,18.126,18.126,18.098,18.101
201909092301,18.105,18.116,18.098,18.116
201909092302,18.116,18.126,18.116,18.122
201909092303,18.121,18.121,18.108,18.116
201909092304,18.116,18.13,18.116,18.125
201909092305,18.125,18.126,18.116,18.117
201909092306,18.117,18.131,18.116,18.127
201909092307,18.127,18.128,18.116,18.116
201909092308,18.116,18.116,18.085,18.095
201909092309,18.096,18.104,18.091,18.1
201909092310,18.099,18.105,18.088,18.09
201909092311,18.09,18.095,18.09,18.09
201909092312,18.09,18.093,18.074,18.074
201909092313,18.071,18.083,18.071,18.074
201909092314,18.074,18.086,18.073,18.083
201909092315,18.083,18.089,18.072,18.074
201909092316,18.074,18.078,18.067,18.067
201909092317,18.068,18.076,18.053,18.054
201909092318,18.054,18.072,18.053,18.07
201909092319,18.074,18.076,18.066,18.075
201909092320,18.072,18.08,18.069,18.075
201909092321,18.076,18.093,18.076,18.09
201909092322,18.09,18.09,18.078,18.081
201909092323,18.081,18.092,18.081,18.082
201909092324,18.082,18.085,18.062,18.072
201909092325,18.072,18.086,18.058,18.065
201909092326,18.065,18.066,18.049,18.053
201909092327,18.056,18.064,18.05,18.052
201909092328,18.055,18.06,18.05,18.056
201909092329,18.055,18.062,18.053,18.057
201909092330,18.057,18.057,18.036,18.045
201909092331,18.046,18.071,18.043,18.07
201909092332,18.068,18.076,18.067,18.072
201909092333,18.072,18.077,18.067,18.07
201909092334,18.071,18.076,18.067,18.072
201909092335,18.072,18.091,18.071,18.085
201909092336,18.085,18.09,18.084,18.09
201909092337,18.09,18.092,18.088,18.09
201909092338,18.088,18.091,18.081,18.084
201909092339,18.085,18.091,18.085,18.086
201909092340,18.086,18.092,18.081,18.081
201909092341,18.082,18.082,18.061,18.062
201909092342,18.062,18.067,18.058,18.061
201909092343,18.061,18.061,18.052,18.056
201909092344,18.056,18.062,18.053,18.062
201909092345,18.062,18.062,18.027,18.037
201909092346,18.038,18.04,18.022,18.022
201909092347,18.022,18.029,18.004,18.01
201909092348,18.01,18.04,18.01,18.025
201909092349,18.025,18.035,18.006,18.006
201909092350,18.006,18.025,18.004,18.01
201909092351,18.01,18.021,17.974,17.974
201909092352,17.974,17.991,17.962,17.99
201909092353,17.99,17.999,17.981,17.999
201909092354,17.999,18.015,17.998,18.003
201909092355,18.003,18.022,17.999,18.017
201909092356,18.017,18.018,18.002,18.002
201909092357,18.002,18.003,17.979,17.979
201909092358,17.98,17.992,17.978,17.978
201909092359,17.977,18.008,17.977,18.006
201909100000,18.006,18.013,17.963,17.974
201909100001,17.975,17.98,17.962,17.978
201909100002,17.978,17.998,17.974,17.997
201909100003,17.997,18.023,17.997,18.023
201909100004,18.023,18.023,18.004,18.012
201909100005,18.012,18.012,17.997,18.005
201909100006,18.005,18.019,17.999,18.019
201909100007,18.019,18.019,18.002,18.005
201909100008,18.005,18.011,17.99,18.01
201909100009,18.01,18.014,18.005,18.007
201909100010,18.007,18.023,18.007,18.018
201909100011,18.02,18.068,18.02,18.067
201909100012,18.067,18.067,18.045,18.051
201909100013,18.051,18.052,18.041,18.046
201909100014,18.046,18.05,18.033,18.05
201909100015,18.05,18.056,18.042,18.042
201909100016,18.041,18.051,18.03,18.03
201909100017,18.03,18.041,18.027,18.04
201909100018,18.04,18.04,18.03,18.04
201909100019,18.04,18.043,18.033,18.035
201909100020,18.035,18.057,18.035,18.053
201909100021,18.055,18.056,18.035,18.035
201909100022,18.035,18.036,18.027,18.029
201909100023,18.03,18.033,18.028,18.032
201909100024,18.032,18.043,18.029,18.029
201909100025,18.026,18.036,18.023,18.023
201909100026,18.024,18.028,18.023,18.025
201909100027,18.024,18.028,18.021,18.023
201909100028,18.023,18.024,18.01,18.014
201909100029,18.014,18.023,18.004,18.004
201909100030,18.005,18.014,17.999,18.005
201909100031,18.004,18.005,17.991,17.999
201909100032,17.999,18.019,17.997,18.014
201909100033,18.014,18.019,18.012,18.016
201909100034,18.015,18.028,18.015,18.021
201909100035,18.021,18.024,18.015,18.024
201909100036,18.024,18.026,18.011,18.02
201909100037,18.02,18.029,18.02,18.029
201909100038,18.029,18.031,18.02,18.025
201909100039,18.024,18.034,18.023,18.031
201909100040,18.032,18.04,18.03,18.04
201909100041,18.04,18.04,18.029,18.031
201909100042,18.03,18.035,18.027,18.033
201909100043,18.033,18.046,18.033,18.04
201909100044,18.04,18.056,18.04,18.056
201909100045,18.056,18.056,18.044,18.05
201909100046,18.05,18.051,18.041,18.042
201909100047,18.042,18.043,18.036,18.037
201909100048,18.037,18.038,18.03,18.031
201909100049,18.031,18.041,18.03,18.039
201909100050,18.04,18.04,18.019,18.024
201909100051,18.024,18.026,18.01,18.011
201909100052,18.011,18.011,17.997,18.001
201909100053,18.003,18.011,18,18.009
201909100054,18.009,18.023,18.006,18.02
201909100055,18.019,18.026,18.015,18.024
201909100056,18.024,18.024,18.015,18.015
201909100057,18.015,18.019,18.009,18.009
201909100058,18.009,18.01,18.006,18.007
201909100059,18.007,18.009,18.004,18.004
201909100100,18.003,18.005,17.993,18
201909100101,17.998,18.009,17.998,18.009
201909100102,18.009,18.009,18.004,18.007
201909100103,18.007,18.015,18.007,18.012
201909100104,18.012,18.012,17.99,17.99
201909100105,17.99,17.999,17.99,17.997
201909100106,17.996,18,17.99,17.992
201909100107,17.991,18,17.991,17.999
201909100108,17.999,18.013,17.999,18.013
201909100109,18.012,18.014,18.009,18.009
201909100110,18.009,18.014,18.004,18.009
201909100111,18.009,18.025,18.009,18.025
201909100112,18.025,18.029,18.021,18.024
201909100113,18.024,18.034,18.024,18.034
201909100114,18.034,18.049,18.034,18.044
201909100115,18.044,18.045,18.037,18.041
201909100116,18.041,18.045,18.036,18.044
201909100117,18.045,18.047,18.036,18.036
201909100118,18.036,18.049,18.029,18.029
201909100119,18.029,18.05,18.029,18.049
201909100120,18.05,18.059,18.046,18.059
201909100121,18.059,18.06,18.038,18.05
201909100122,18.05,18.057,18.049,18.054
201909100123,18.054,18.063,18.053,18.057
201909100124,18.057,18.069,18.057,18.069
201909100125,18.069,18.073,18.064,18.069
201909100126,18.069,18.074,18.064,18.069
201909100127,18.069,18.1,18.069,18.1
201909100128,18.1,18.114,18.09,18.112
201909100129,18.112,18.119,18.107,18.108
201909100130,18.108,18.118,18.107,18.118
201909100131,18.118,18.148,18.118,18.148
201909100132,18.147,18.16,18.141,18.16
201909100133,18.159,18.161,18.131,18.133
201909100134,18.133,18.142,18.125,18.126
201909100135,18.126,18.148,18.126,18.143
201909100136,18.143,18.18,18.142,18.176
201909100137,18.177,18.177,18.16,18.161
201909100138,18.161,18.176,18.157,18.174
201909100139,18.173,18.173,18.158,18.16
201909100140,18.161,18.161,18.141,18.141
201909100141,18.141,18.146,18.14,18.144
201909100142,18.145,18.152,18.143,18.148
201909100143,18.148,18.151,18.14,18.14
201909100144,18.14,18.14,18.129,18.13
201909100145,18.13,18.131,18.125,18.126
201909100146,18.126,18.145,18.125,18.141
201909100147,18.141,18.151,18.137,18.145
201909100148,18.145,18.145,18.138,18.145
201909100149,18.145,18.15,18.144,18.15
201909100150,18.15,18.151,18.142,18.15
201909100151,18.15,18.15,18.136,18.136
201909100152,18.136,18.139,18.131,18.132
201909100153,18.132,18.134,18.118,18.125
201909100154,18.125,18.125,18.115,18.115
201909100155,18.113,18.12,18.11,18.11
201909100156,18.11,18.115,18.104,18.115
201909100157,18.112,18.126,18.112,18.12
201909100158,18.118,18.12,18.112,18.113
201909100159,18.113,18.122,18.111,18.117
201909100200,18.117,18.124,18.074,18.08
201909100201,18.08,18.096,18.079,18.092
201909100202,18.092,18.097,18.081,18.096
201909100203,18.095,18.097,18.082,18.09
201909100204,18.09,18.094,18.072,18.075
201909100205,18.075,18.087,18.075,18.077
201909100206,18.077,18.086,18.072,18.081
201909100207,18.081,18.092,18.081,18.089
201909100208,18.089,18.09,18.084,18.087
201909100209,18.087,18.094,18.086,18.089
201909100210,18.089,18.089,18.075,18.078
201909100211,18.078,18.086,18.076,18.081
201909100212,18.082,18.089,18.076,18.085
201909100213,18.085,18.118,18.085,18.114
201909100214,18.114,18.114,18.105,18.107
201909100215,18.107,18.124,18.107,18.124
201909100216,18.124,18.125,18.111,18.117
201909100217,18.118,18.121,18.104,18.105
201909100218,18.106,18.106,18.092,18.092
201909100219,18.091,18.095,18.085,18.088
201909100220,18.088,18.097,18.088,18.096
201909100221,18.096,18.096,18.069,18.07
201909100222,18.068,18.074,18.057,18.073
201909100223,18.073,18.089,18.071,18.088
201909100224,18.088,18.089,18.057,18.057
201909100225,18.057,18.075,18.056,18.072
201909100226,18.071,18.08,18.071,18.076
201909100227,18.076,18.09,18.076,18.088
201909100228,18.088,18.097,18.087,18.096
201909100229,18.096,18.096,18.076,18.082
201909100230,18.084,18.088,18.073,18.074
201909100231,18.074,18.08,18.072,18.075
201909100232,18.075,18.085,18.075,18.085
201909100233,18.085,18.096,18.083,18.096
201909100234,18.096,18.1,18.09,18.09
201909100235,18.09,18.103,18.09,18.103
201909100236,18.102,18.102,18.092,18.095
201909100237,18.095,18.101,18.093,18.1
201909100238,18.101,18.102,18.093,18.095
201909100239,18.095,18.098,18.092,18.093
201909100240,18.093,18.096,18.092,18.096
201909100241,18.096,18.106,18.095,18.103
201909100242,18.101,18.111,18.1,18.106
201909100243,18.107,18.11,18.102,18.102
201909100244,18.102,18.106,18.102,18.106
201909100245,18.107,18.11,18.101,18.104
201909100246,18.105,18.105,18.092,18.092
201909100247,18.092,18.109,18.092,18.101
201909100248,18.101,18.112,18.101,18.107
201909100249,18.107,18.109,18.107,18.108
201909100250,18.108,18.128,18.107,18.125
201909100251,18.125,18.128,18.115,18.12
201909100252,18.12,18.13,18.12,18.125
201909100253,18.125,18.126,18.112,18.113
201909100254,18.115,18.122,18.113,18.122
201909100255,18.121,18.13,18.121,18.128
201909100256,18.127,18.137,18.124,18.136
201909100257,18.136,18.136,18.128,18.13
201909100258,18.13,18.131,18.121,18.126
201909100259,18.126,18.134,18.126,18.133
201909100300,18.133,18.136,18.12,18.123
201909100301,18.121,18.125,18.107,18.107
201909100302,18.107,18.107,18.1,18.105
201909100303,18.105,18.113,18.099,18.107
201909100304,18.107,18.115,18.105,18.112
201909100305,18.112,18.117,18.108,18.117
201909100306,18.117,18.122,18.116,18.118
201909100307,18.118,18.12,18.115,18.116
201909100308,18.116,18.122,18.116,18.12
201909100309,18.12,18.122,18.115,18.115
201909100310,18.115,18.12,18.115,18.116
201909100311,18.116,18.116,18.111,18.116
201909100312,18.116,18.118,18.115,18.116
201909100313,18.116,18.119,18.108,18.11
201909100314,18.11,18.11,18.108,18.108
201909100315,18.108,18.113,18.108,18.113
201909100316,18.113,18.113,18.107,18.107
201909100317,18.107,18.108,18.104,18.107
201909100318,18.108,18.109,18.106,18.109
201909100319,18.109,18.109,18.106,18.106
201909100320,18.106,18.113,18.106,18.113
201909100321,18.113,18.113,18.105,18.107
201909100322,18.108,18.11,18.106,18.108
201909100323,18.108,18.108,18.096,18.096
201909100324,18.096,18.1,18.093,18.093
201909100325,18.093,18.098,18.091,18.098
201909100326,18.099,18.101,18.097,18.1
201909100327,18.1,18.108,18.1,18.103
201909100328,18.103,18.103,18.098,18.103
201909100329,18.103,18.103,18.097,18.098
201909100330,18.098,18.099,18.091,18.091
201909100331,18.091,18.095,18.084,18.086
201909100332,18.086,18.086,18.081,18.084
201909100333,18.083,18.083,18.065,18.065
201909100334,18.065,18.066,18.027,18.027
201909100335,18.027,18.035,18.023,18.031
201909100336,18.031,18.042,18.031,18.032
201909100337,18.032,18.042,18.031,18.042
201909100338,18.042,18.047,18.037,18.041
201909100339,18.041,18.045,18.038,18.038
201909100340,18.038,18.042,18.036,18.037
201909100341,18.037,18.037,18.028,18.029
201909100342,18.029,18.029,18.026,18.027
201909100343,18.027,18.033,18.026,18.028
201909100344,18.028,18.03,18.022,18.028
201909100345,18.028,18.033,18.026,18.032
201909100346,18.032,18.032,18.026,18.027
201909100347,18.027,18.032,18.027,18.029
201909100348,18.029,18.032,18.029,18.032
201909100349,18.032,18.033,18.028,18.028
201909100350,18.03,18.036,18.028,18.035
201909100351,18.035,18.037,18.033,18.036
201909100352,18.036,18.036,18.029,18.029
201909100353,18.029,18.029,18.024,18.024
201909100354,18.024,18.032,18.024,18.031
201909100355,18.031,18.033,18.029,18.031
201909100356,18.031,18.032,18.018,18.022
201909100357,18.022,18.028,18.021,18.027
201909100358,18.027,18.036,18.027,18.033
201909100359,18.033,18.033,18.026,18.028
201909100400,18.029,18.029,18.023,18.023
201909100401,18.023,18.028,18.019,18.028
201909100402,18.028,18.031,18.021,18.022
201909100403,18.021,18.023,18.017,18.019
201909100404,18.018,18.018,18.016,18.018
201909100405,18.018,18.021,18.016,18.018
201909100406,18.017,18.017,18.003,18.003
201909100407,18.003,18.005,18.002,18.005
201909100408,18.005,18.005,18,18.002
201909100409,18.001,18.002,17.998,17.999
201909100410,17.999,18.003,17.992,18.002
201909100411,18.002,18.006,18,18.005
201909100412,18.005,18.007,18.003,18.003
201909100413,18.002,18.004,17.995,17.995
201909100414,17.995,18.004,17.995,17.995
201909100415,17.995,18,17.99,17.999
201909100416,17.999,17.999,17.988,17.996
201909100417,17.996,18.008,17.995,18.004
201909100418,18.004,18.007,18.003,18.005
201909100419,18.004,18.005,18.002,18.002
201909100420,18.002,18.008,18.002,18.008
201909100421,18.008,18.009,18.006,18.009
201909100422,18.009,18.013,18.009,18.013
201909100423,18.013,18.015,18.013,18.015
201909100424,18.015,18.015,18.014,18.014
201909100425,18.014,18.015,18.007,18.009
201909100426,18.009,18.009,18.008,18.009
201909100427,18.009,18.009,18.004,18.004
201909100428,18.004,18.009,18.004,18.009
201909100429,18.009,18.009,18.008,18.008
201909100430,18.008,18.009,18.008,18.009
201909100431,18.009,18.01,18.008,18.009
201909100432,18.009,18.01,18.009,18.01
201909100433,18.01,18.01,18.005,18.009
201909100434,18.009,18.009,18.007,18.007
201909100435,18.007,18.01,18.007,18.01
201909100436,18.01,18.016,18.01,18.014
201909100437,18.013,18.014,18.004,18.008
201909100438,18.008,18.015,18.008,18.012
201909100439,18.012,18.013,18.012,18.013
201909100440,18.013,18.018,18.013,18.018
201909100441,18.018,18.018,18.017,18.018
201909100442,18.018,18.022,18.018,18.022
201909100443,18.022,18.029,18.02,18.026
201909100444,18.026,18.026,18.022,18.025
201909100445,18.025,18.025,18.021,18.021
201909100446,18.021,18.026,18.011,18.013
201909100447,18.014,18.017,18.011,18.011
201909100448,18.011,18.015,18.009,18.011
201909100449,18.011,18.011,18.009,18.011
201909100450,18.011,18.011,18.008,18.01
201909100451,18.01,18.011,18.009,18.01
201909100452,18.01,18.01,18.009,18.01
201909100453,18.01,18.011,18.008,18.009
201909100454,18.009,18.011,18.009,18.011
201909100455,18.011,18.011,18.008,18.009
201909100456,18.009,18.013,18.009,18.01
201909100457,18.01,18.01,18.004,18.004
201909100458,18.004,18.005,18.004,18.005
201909100459,18.005,18.007,17.994,17.994
201909100500,17.994,18.005,17.994,18.003
201909100501,18.005,18.005,18.002,18.005
201909100502,18.003,18.003,18.001,18.001
201909100503,18.001,18.011,18.001,18.011
201909100504,18.011,18.013,18.011,18.011
201909100505,18.011,18.011,18.006,18.01
201909100506,18.01,18.01,18.006,18.008
201909100507,18.009,18.011,18.009,18.011
201909100508,18.011,18.013,18.011,18.013
201909100509,18.013,18.014,18.009,18.009
201909100510,18.009,18.009,18.006,18.006
201909100511,18.006,18.007,18.001,18.001
201909100512,18.001,18.004,18.001,18.004
201909100513,18.004,18.006,18.004,18.005
201909100514,18.005,18.007,18,18.003
201909100515,18.003,18.003,18.001,18.002
201909100516,18.003,18.003,18,18.001
201909100517,18.001,18.004,18.001,18.003
201909100518,18.003,18.008,18.003,18.008
201909100519,18.008,18.01,18.008,18.01
201909100520,18.009,18.01,18.007,18.007
201909100521,18.007,18.01,18.007,18.01
201909100522,18.01,18.01,18.01,18.01
201909100523,18.01,18.01,18.009,18.009
201909100524,18.009,18.009,18.006,18.007
201909100525,18.007,18.007,18.001,18.002
201909100526,18.002,18.005,18.002,18.005
201909100527,18.005,18.009,17.999,18.001
201909100528,18.001,18.005,18.001,18.005
201909100529,18.005,18.008,18.005,18.006
201909100530,18.004,18.005,17.998,17.999
201909100531,17.999,18.003,17.999,18.003
201909100532,18.003,18.004,18.003,18.003
201909100533,18.003,18.004,17.997,17.998
201909100534,17.998,17.998,17.994,17.995
201909100535,17.995,17.998,17.995,17.997
201909100536,17.997,17.998,17.997,17.998
201909100537,17.998,17.999,17.995,17.998
201909100538,17.998,17.998,17.994,17.995
201909100539,17.995,17.997,17.995,17.995
201909100540,17.995,17.995,17.992,17.992
201909100541,17.992,17.992,17.991,17.991
201909100542,17.991,17.991,17.986,17.986
201909100543,17.986,17.988,17.985,17.986
201909100544,17.986,17.986,17.986,17.986
201909100545,17.986,17.986,17.981,17.981
201909100546,17.981,17.983,17.981,17.981
201909100547,17.981,17.981,17.979,17.979
201909100548,17.979,17.985,17.979,17.98
201909100549,17.98,17.986,17.98,17.984
201909100550,17.984,17.984,17.981,17.982
201909100551,17.982,17.987,17.982,17.985
201909100552,17.985,17.988,17.985,17.988
201909100553,17.988,17.989,17.988,17.989
201909100554,17.989,17.99,17.989,17.99
201909100555,17.99,17.995,17.99,17.994
201909100556,17.994,17.995,17.994,17.995
201909100557,17.995,17.996,17.992,17.992
201909100558,17.993,17.996,17.993,17.993
201909100559,17.993,18.003,17.993,17.999
