日時,始値(BID),高値(BID),安値(BID),終値(BID)
201908220700,55.93,55.93,55.87,55.87
201908220701,55.87,55.89,55.86,55.87
201908220702,55.87,55.88,55.86,55.87
201908220703,55.87,55.88,55.86,55.88
201908220704,55.88,55.92,55.88,55.91
201908220705,55.91,55.94,55.91,55.92
201908220706,55.92,55.92,55.88,55.92
201908220707,55.92,55.92,55.91,55.92
201908220708,55.92,55.93,55.91,55.91
201908220709,55.91,55.93,55.91,55.93
201908220710,55.93,55.93,55.91,55.91
201908220711,55.91,55.92,55.9,55.9
201908220712,55.9,55.9,55.89,55.9
201908220713,55.9,55.9,55.89,55.89
201908220714,55.89,55.89,55.88,55.88
201908220715,55.88,55.92,55.88,55.92
201908220716,55.92,55.99,55.92,55.96
201908220717,55.96,55.99,55.96,55.99
201908220718,55.99,56,55.99,56
201908220719,56,56,55.99,55.99
201908220720,55.99,55.99,55.95,55.95
201908220721,55.95,55.96,55.94,55.96
201908220722,55.96,55.98,55.96,55.98
201908220723,55.98,55.98,55.96,55.96
201908220724,55.96,55.97,55.96,55.97
201908220725,55.97,55.98,55.97,55.98
201908220726,55.98,55.99,55.97,55.99
201908220727,55.99,55.99,55.98,55.98
201908220728,55.98,55.99,55.98,55.99
201908220729,55.99,56,55.99,56
201908220730,56,56.01,55.99,55.99
201908220731,55.99,56,55.99,55.99
201908220732,55.99,55.99,55.97,55.97
201908220733,55.97,55.99,55.97,55.99
201908220734,55.99,55.99,55.98,55.98
201908220735,55.98,55.98,55.95,55.95
201908220736,55.95,55.96,55.95,55.96
201908220737,55.96,55.97,55.96,55.97
201908220738,55.97,55.98,55.97,55.98
201908220739,55.98,55.98,55.96,55.96
201908220740,55.96,55.96,55.96,55.96
201908220741,55.96,55.96,55.96,55.96
201908220742,55.96,55.98,55.96,55.98
201908220743,55.98,55.98,55.97,55.97
201908220744,55.97,55.98,55.97,55.97
201908220745,55.97,55.97,55.97,55.97
201908220746,55.97,55.97,55.97,55.97
201908220747,55.97,55.97,55.96,55.97
201908220748,55.97,55.97,55.96,55.97
201908220749,55.97,55.97,55.96,55.96
201908220750,55.96,55.98,55.96,55.98
201908220751,55.98,56,55.98,55.99
201908220752,56,56,55.99,55.99
201908220753,55.99,56,55.99,55.99
201908220754,55.99,56,55.99,56
201908220755,56,56.02,56,56.02
201908220756,56.02,56.02,56,56.01
201908220757,56.01,56.01,56.01,56.01
201908220758,56.01,56.01,56.01,56.01
201908220759,56.01,56.03,56.01,56.03
201908220800,56.03,56.04,56.03,56.04
201908220801,56.04,56.04,56.02,56.03
201908220802,56.03,56.03,56.02,56.02
201908220803,56.02,56.03,56.02,56.03
201908220804,56.03,56.03,56.03,56.03
201908220805,56.03,56.03,56.02,56.02
201908220806,56.03,56.03,56.03,56.03
201908220807,56.03,56.03,56.02,56.02
201908220808,56.02,56.02,56.02,56.02
201908220809,56.02,56.03,56.02,56.02
201908220810,56.02,56.03,56,56
201908220811,56,56.01,55.99,55.99
201908220812,55.99,55.99,55.95,55.97
201908220813,55.97,56,55.97,56
201908220814,56,56,56,56
201908220815,56,56.01,56,56
201908220816,56,56,55.99,56
201908220817,56,56,55.99,56
201908220818,56,56,55.99,55.99
201908220819,55.99,55.99,55.99,55.99
201908220820,55.99,55.99,55.99,55.99
201908220821,55.99,55.99,55.98,55.98
201908220822,55.98,55.98,55.96,55.97
201908220823,55.97,55.98,55.97,55.97
201908220824,55.97,55.98,55.97,55.97
201908220825,55.97,55.97,55.96,55.96
201908220826,55.96,55.97,55.96,55.97
201908220827,55.97,55.97,55.96,55.96
201908220828,55.96,55.96,55.94,55.95
201908220829,55.95,55.96,55.95,55.96
201908220830,55.96,55.96,55.95,55.96
201908220831,55.96,55.96,55.95,55.95
201908220832,55.95,55.95,55.95,55.95
201908220833,55.95,55.95,55.95,55.95
201908220834,55.95,55.95,55.95,55.95
201908220835,55.95,55.95,55.95,55.95
201908220836,55.95,55.96,55.94,55.94
201908220837,55.94,55.94,55.93,55.93
201908220838,55.93,55.93,55.93,55.93
201908220839,55.93,55.94,55.93,55.94
201908220840,55.94,55.94,55.94,55.94
201908220841,55.94,55.94,55.94,55.94
201908220842,55.94,55.95,55.94,55.94
201908220843,55.94,55.96,55.94,55.96
201908220844,55.96,55.96,55.95,55.95
201908220845,55.95,55.95,55.95,55.95
201908220846,55.95,55.96,55.95,55.96
201908220847,55.96,55.96,55.95,55.95
201908220848,55.95,55.96,55.95,55.95
201908220849,55.95,55.95,55.95,55.95
201908220850,55.95,55.96,55.95,55.96
201908220851,55.96,55.96,55.95,55.95
201908220852,55.95,55.96,55.95,55.96
201908220853,55.96,55.96,55.96,55.96
201908220854,55.96,55.96,55.96,55.96
201908220855,55.96,55.97,55.96,55.97
201908220856,55.97,55.97,55.97,55.97
201908220857,55.97,55.97,55.97,55.97
201908220858,55.97,55.97,55.97,55.97
201908220859,55.97,55.97,55.96,55.97
201908220900,55.97,56.02,55.95,56
201908220901,56,56.03,56,56.01
201908220902,56.01,56.02,56,56.01
201908220903,56.01,56.01,55.99,55.99
201908220904,55.99,56.02,55.99,56.02
201908220905,56.02,56.03,56,56.01
201908220906,56.01,56.01,55.99,56
201908220907,56,56.01,55.99,56
201908220908,56,56.03,55.99,56.03
201908220909,56.03,56.03,56.02,56.02
201908220910,56.02,56.03,56,56.02
201908220911,56.02,56.02,56,56
201908220912,56,56.01,56,56.01
201908220913,56,56.01,56,56.01
201908220914,56.01,56.01,56,56.01
201908220915,56.01,56.01,55.99,55.99
201908220916,55.99,56,55.99,56
201908220917,56,56.01,56,56.01
201908220918,56.01,56.01,55.98,55.99
201908220919,55.99,55.99,55.98,55.99
201908220920,55.99,56,55.99,55.99
201908220921,55.99,56,55.99,55.99
201908220922,55.99,55.99,55.99,55.99
201908220923,55.99,56.01,55.99,56.01
201908220924,56.01,56.03,56.01,56.02
201908220925,56.02,56.02,56.01,56.02
201908220926,56.02,56.02,56.01,56.02
201908220927,56.02,56.02,56.01,56.01
201908220928,56.01,56.01,55.98,55.99
201908220929,55.99,55.99,55.97,55.97
201908220930,55.97,56,55.97,55.99
201908220931,55.99,56,55.99,55.99
201908220932,55.99,55.99,55.98,55.98
201908220933,55.98,56,55.98,56
201908220934,56,56,55.99,56
201908220935,56,56,55.99,55.99
201908220936,55.99,56,55.98,55.98
201908220937,55.98,55.99,55.97,55.98
201908220938,55.98,55.99,55.97,55.98
201908220939,55.98,56,55.98,56
201908220940,56,56.02,56,56.01
201908220941,56.01,56.01,56,56.01
201908220942,56.01,56.02,56.01,56.01
201908220943,56.01,56.01,56.01,56.01
201908220944,56.01,56.01,56.01,56.01
201908220945,56.01,56.01,56,56.01
201908220946,56.01,56.02,56.01,56.01
201908220947,56.01,56.01,56,56.01
201908220948,56.01,56.01,56.01,56.01
201908220949,56.01,56.03,56.01,56.02
201908220950,56.02,56.02,56.01,56.01
201908220951,56.01,56.02,56.01,56.01
201908220952,56.01,56.01,56.01,56.01
201908220953,56.01,56.02,56.01,56.01
201908220954,56.01,56.01,56.01,56.01
201908220955,56.01,56.02,56.01,56.01
201908220956,56.01,56.01,56.01,56.01
201908220957,56.01,56.01,56.01,56.01
201908220958,56.01,56.01,56.01,56.01
201908220959,56.01,56.01,56.01,56.01
201908221000,56.01,56.02,56.01,56.02
201908221001,56.02,56.02,56.02,56.02
201908221002,56.02,56.04,56.02,56.04
201908221003,56.04,56.04,56.03,56.03
201908221004,56.03,56.04,56.03,56.04
201908221005,56.04,56.06,56.04,56.06
201908221006,56.06,56.06,56.06,56.06
201908221007,56.06,56.07,56.06,56.06
201908221008,56.06,56.07,56.06,56.07
201908221009,56.07,56.09,56.07,56.08
201908221010,56.08,56.08,56.05,56.05
201908221011,56.05,56.06,56.05,56.05
201908221012,56.05,56.05,56.04,56.04
201908221013,56.04,56.05,56.03,56.04
201908221014,56.04,56.04,56.03,56.03
201908221015,56.03,56.03,56.01,56.01
201908221016,56.01,56.01,55.99,56
201908221017,56,56,55.99,56
201908221018,56,56.01,56,56
201908221019,56,56,55.98,55.98
201908221020,55.98,55.98,55.97,55.98
201908221021,55.97,55.99,55.97,55.98
201908221022,55.98,55.98,55.98,55.98
201908221023,55.98,55.98,55.98,55.98
201908221024,55.98,55.98,55.97,55.97
201908221025,55.97,55.98,55.96,55.98
201908221026,55.98,56,55.98,56
201908221027,56,56.02,56,56.02
201908221028,56.02,56.02,56,56
201908221029,56,56,56,56
201908221030,56,56,55.99,55.99
201908221031,55.99,55.99,55.98,55.98
201908221032,55.98,55.99,55.97,55.98
201908221033,55.98,55.99,55.98,55.99
201908221034,55.99,55.99,55.98,55.98
201908221035,55.98,55.98,55.93,55.94
201908221036,55.94,55.95,55.94,55.95
201908221037,55.95,55.95,55.93,55.95
201908221038,55.95,55.95,55.94,55.95
201908221039,55.95,55.95,55.94,55.94
201908221040,55.94,55.94,55.92,55.92
201908221041,55.92,55.93,55.91,55.92
201908221042,55.92,55.92,55.9,55.91
201908221043,55.91,55.91,55.89,55.9
201908221044,55.9,55.9,55.89,55.9
201908221045,55.9,55.9,55.86,55.86
201908221046,55.86,55.87,55.85,55.86
201908221047,55.86,55.87,55.86,55.86
201908221048,55.86,55.87,55.84,55.85
201908221049,55.85,55.85,55.81,55.83
201908221050,55.83,55.83,55.82,55.82
201908221051,55.82,55.83,55.79,55.83
201908221052,55.83,55.84,55.83,55.83
201908221053,55.83,55.84,55.82,55.83
201908221054,55.83,55.84,55.82,55.83
201908221055,55.83,55.83,55.79,55.82
201908221056,55.82,55.83,55.81,55.81
201908221057,55.81,55.82,55.79,55.8
201908221058,55.8,55.8,55.77,55.78
201908221059,55.78,55.81,55.78,55.8
201908221100,55.8,55.8,55.74,55.79
201908221101,55.79,55.79,55.77,55.78
201908221102,55.78,55.78,55.75,55.78
201908221103,55.78,55.78,55.75,55.76
201908221104,55.76,55.76,55.74,55.75
201908221105,55.75,55.78,55.75,55.78
201908221106,55.78,55.78,55.77,55.78
201908221107,55.78,55.78,55.76,55.77
201908221108,55.77,55.77,55.76,55.77
201908221109,55.77,55.78,55.77,55.77
201908221110,55.77,55.79,55.77,55.78
201908221111,55.78,55.79,55.77,55.78
201908221112,55.78,55.78,55.74,55.75
201908221113,55.75,55.76,55.75,55.75
201908221114,55.75,55.76,55.74,55.75
201908221115,55.75,55.77,55.75,55.77
201908221116,55.77,55.79,55.77,55.79
201908221117,55.79,55.79,55.78,55.79
201908221118,55.79,55.79,55.77,55.78
201908221119,55.78,55.78,55.78,55.78
201908221120,55.78,55.8,55.78,55.8
201908221121,55.8,55.81,55.79,55.81
201908221122,55.81,55.83,55.81,55.82
201908221123,55.82,55.83,55.81,55.82
201908221124,55.82,55.82,55.82,55.82
201908221125,55.82,55.82,55.8,55.8
201908221126,55.8,55.8,55.79,55.8
201908221127,55.8,55.81,55.8,55.81
201908221128,55.81,55.82,55.81,55.81
201908221129,55.81,55.81,55.81,55.81
201908221130,55.81,55.81,55.79,55.79
201908221131,55.79,55.8,55.77,55.77
201908221132,55.77,55.77,55.75,55.75
201908221133,55.75,55.76,55.75,55.76
201908221134,55.76,55.76,55.74,55.74
201908221135,55.74,55.75,55.74,55.74
201908221136,55.74,55.76,55.74,55.76
201908221137,55.76,55.78,55.75,55.76
201908221138,55.76,55.77,55.76,55.76
201908221139,55.76,55.76,55.75,55.76
201908221140,55.76,55.77,55.76,55.77
201908221141,55.77,55.78,55.77,55.77
201908221142,55.77,55.78,55.77,55.78
201908221143,55.78,55.78,55.77,55.78
201908221144,55.78,55.78,55.77,55.77
201908221145,55.77,55.78,55.77,55.77
201908221146,55.77,55.77,55.75,55.75
201908221147,55.75,55.75,55.72,55.73
201908221148,55.73,55.74,55.73,55.73
201908221149,55.73,55.73,55.7,55.7
201908221150,55.7,55.71,55.69,55.7
201908221151,55.7,55.71,55.7,55.7
201908221152,55.7,55.7,55.69,55.7
201908221153,55.7,55.7,55.69,55.69
201908221154,55.69,55.71,55.69,55.71
201908221155,55.71,55.71,55.69,55.69
201908221156,55.69,55.69,55.66,55.68
201908221157,55.68,55.69,55.68,55.69
201908221158,55.69,55.7,55.68,55.69
201908221159,55.69,55.7,55.69,55.69
201908221200,55.69,55.69,55.67,55.67
201908221201,55.67,55.68,55.66,55.67
201908221202,55.67,55.68,55.67,55.68
201908221203,55.68,55.7,55.68,55.69
201908221204,55.69,55.7,55.69,55.7
201908221205,55.7,55.7,55.69,55.7
201908221206,55.7,55.71,55.7,55.7
201908221207,55.7,55.7,55.69,55.7
201908221208,55.7,55.7,55.67,55.67
201908221209,55.67,55.69,55.67,55.69
201908221210,55.69,55.69,55.67,55.67
201908221211,55.67,55.67,55.65,55.65
201908221212,55.65,55.65,55.62,55.62
201908221213,55.62,55.63,55.61,55.62
201908221214,55.62,55.62,55.61,55.61
201908221215,55.61,55.62,55.61,55.61
201908221216,55.61,55.63,55.61,55.62
201908221217,55.62,55.63,55.6,55.61
201908221218,55.61,55.64,55.6,55.62
201908221219,55.62,55.65,55.62,55.64
201908221220,55.64,55.66,55.64,55.65
201908221221,55.65,55.65,55.63,55.64
201908221222,55.64,55.64,55.63,55.63
201908221223,55.63,55.66,55.63,55.65
201908221224,55.65,55.65,55.65,55.65
201908221225,55.65,55.66,55.65,55.65
201908221226,55.65,55.65,55.63,55.63
201908221227,55.63,55.65,55.63,55.64
201908221228,55.64,55.64,55.62,55.62
201908221229,55.62,55.64,55.62,55.64
201908221230,55.64,55.67,55.64,55.66
201908221231,55.66,55.67,55.65,55.66
201908221232,55.66,55.68,55.66,55.67
201908221233,55.67,55.67,55.67,55.67
201908221234,55.67,55.67,55.67,55.67
201908221235,55.67,55.67,55.66,55.66
201908221236,55.66,55.67,55.66,55.67
201908221237,55.67,55.67,55.67,55.67
201908221238,55.67,55.67,55.67,55.67
201908221239,55.67,55.68,55.67,55.67
201908221240,55.67,55.67,55.66,55.66
201908221241,55.66,55.67,55.66,55.66
201908221242,55.66,55.68,55.66,55.67
201908221243,55.67,55.67,55.67,55.67
201908221244,55.67,55.68,55.67,55.68
201908221245,55.68,55.69,55.68,55.68
201908221246,55.68,55.68,55.65,55.65
201908221247,55.65,55.66,55.65,55.65
201908221248,55.66,55.66,55.65,55.65
201908221249,55.65,55.66,55.65,55.65
201908221250,55.65,55.66,55.65,55.65
201908221251,55.65,55.66,55.65,55.66
201908221252,55.66,55.66,55.65,55.65
201908221253,55.65,55.65,55.65,55.65
201908221254,55.65,55.65,55.64,55.64
201908221255,55.64,55.67,55.64,55.66
201908221256,55.66,55.66,55.64,55.64
201908221257,55.64,55.64,55.63,55.63
201908221258,55.63,55.63,55.62,55.63
201908221259,55.63,55.63,55.63,55.63
201908221300,55.63,55.63,55.62,55.63
201908221301,55.63,55.64,55.63,55.64
201908221302,55.64,55.66,55.64,55.64
201908221303,55.64,55.65,55.64,55.65
201908221304,55.65,55.65,55.64,55.65
201908221305,55.65,55.66,55.64,55.66
201908221306,55.66,55.66,55.65,55.65
201908221307,55.65,55.66,55.65,55.66
201908221308,55.66,55.66,55.66,55.66
201908221309,55.66,55.66,55.65,55.65
201908221310,55.65,55.66,55.65,55.66
201908221311,55.66,55.68,55.66,55.67
201908221312,55.67,55.68,55.67,55.68
201908221313,55.68,55.68,55.68,55.68
201908221314,55.68,55.69,55.68,55.69
201908221315,55.69,55.7,55.69,55.7
201908221316,55.7,55.7,55.7,55.7
201908221317,55.7,55.71,55.7,55.71
201908221318,55.71,55.71,55.7,55.7
201908221319,55.7,55.7,55.69,55.69
201908221320,55.69,55.7,55.69,55.7
201908221321,55.7,55.71,55.7,55.71
201908221322,55.71,55.72,55.71,55.71
201908221323,55.71,55.73,55.71,55.73
201908221324,55.73,55.73,55.72,55.72
201908221325,55.72,55.72,55.72,55.72
201908221326,55.72,55.72,55.71,55.71
201908221327,55.71,55.71,55.7,55.7
201908221328,55.7,55.71,55.7,55.71
201908221329,55.71,55.72,55.7,55.71
201908221330,55.71,55.71,55.7,55.71
201908221331,55.71,55.72,55.71,55.71
201908221332,55.71,55.71,55.68,55.68
201908221333,55.68,55.69,55.68,55.68
201908221334,55.68,55.68,55.67,55.68
201908221335,55.68,55.68,55.68,55.68
201908221336,55.68,55.68,55.68,55.68
201908221337,55.68,55.68,55.68,55.68
201908221338,55.68,55.68,55.68,55.68
201908221339,55.68,55.68,55.65,55.65
201908221340,55.65,55.65,55.64,55.65
201908221341,55.65,55.65,55.65,55.65
201908221342,55.65,55.66,55.65,55.65
201908221343,55.65,55.66,55.65,55.66
201908221344,55.66,55.66,55.65,55.65
201908221345,55.65,55.66,55.65,55.66
201908221346,55.66,55.68,55.65,55.68
201908221347,55.68,55.69,55.68,55.68
201908221348,55.68,55.68,55.67,55.67
201908221349,55.67,55.67,55.67,55.67
201908221350,55.67,55.68,55.67,55.67
201908221351,55.67,55.68,55.67,55.67
201908221352,55.67,55.68,55.67,55.68
201908221353,55.68,55.68,55.67,55.68
201908221354,55.68,55.68,55.68,55.68
201908221355,55.68,55.68,55.67,55.67
201908221356,55.67,55.68,55.67,55.68
201908221357,55.68,55.69,55.68,55.69
201908221358,55.69,55.69,55.68,55.69
201908221359,55.69,55.69,55.69,55.69
201908221400,55.69,55.71,55.69,55.71
201908221401,55.71,55.72,55.71,55.72
201908221402,55.72,55.72,55.72,55.72
201908221403,55.72,55.72,55.71,55.72
201908221404,55.72,55.72,55.71,55.71
201908221405,55.71,55.71,55.68,55.69
201908221406,55.69,55.69,55.66,55.66
201908221407,55.66,55.66,55.65,55.66
201908221408,55.66,55.66,55.65,55.65
201908221409,55.65,55.65,55.65,55.65
201908221410,55.65,55.65,55.54,55.58
201908221411,55.58,55.58,55.54,55.55
201908221412,55.55,55.57,55.54,55.56
201908221413,55.56,55.57,55.56,55.57
201908221414,55.57,55.57,55.56,55.56
201908221415,55.56,55.56,55.46,55.5
201908221416,55.5,55.52,55.49,55.52
201908221417,55.52,55.52,55.5,55.5
201908221418,55.5,55.5,55.48,55.48
201908221419,55.48,55.51,55.48,55.5
201908221420,55.5,55.5,55.49,55.5
201908221421,55.5,55.52,55.49,55.51
201908221422,55.51,55.52,55.49,55.52
201908221423,55.52,55.52,55.5,55.51
201908221424,55.51,55.52,55.51,55.52
201908221425,55.52,55.52,55.5,55.51
201908221426,55.51,55.51,55.5,55.5
201908221427,55.5,55.5,55.48,55.49
201908221428,55.49,55.5,55.49,55.5
201908221429,55.5,55.5,55.49,55.5
201908221430,55.5,55.5,55.44,55.48
201908221431,55.48,55.48,55.45,55.45
201908221432,55.45,55.45,55.44,55.45
201908221433,55.45,55.45,55.43,55.45
201908221434,55.45,55.47,55.45,55.46
201908221435,55.46,55.49,55.45,55.48
201908221436,55.48,55.49,55.48,55.49
201908221437,55.49,55.5,55.46,55.47
201908221438,55.47,55.49,55.47,55.47
201908221439,55.47,55.47,55.43,55.44
201908221440,55.44,55.45,55.44,55.44
201908221441,55.44,55.45,55.43,55.44
201908221442,55.44,55.44,55.43,55.43
201908221443,55.43,55.45,55.43,55.43
201908221444,55.43,55.45,55.43,55.45
201908221445,55.45,55.45,55.43,55.43
201908221446,55.43,55.44,55.43,55.44
201908221447,55.44,55.44,55.43,55.44
201908221448,55.43,55.44,55.43,55.44
201908221449,55.44,55.45,55.44,55.44
201908221450,55.44,55.49,55.44,55.48
201908221451,55.48,55.51,55.48,55.49
201908221452,55.49,55.5,55.48,55.49
201908221453,55.49,55.49,55.48,55.48
201908221454,55.48,55.51,55.48,55.5
201908221455,55.5,55.51,55.49,55.5
201908221456,55.5,55.51,55.5,55.5
201908221457,55.5,55.51,55.5,55.51
201908221458,55.51,55.52,55.5,55.52
201908221459,55.52,55.56,55.52,55.56
201908221500,55.55,55.57,55.53,55.53
201908221501,55.53,55.56,55.53,55.54
201908221502,55.54,55.54,55.53,55.54
201908221503,55.54,55.56,55.53,55.54
201908221504,55.54,55.55,55.53,55.54
201908221505,55.54,55.54,55.53,55.54
201908221506,55.54,55.54,55.53,55.53
201908221507,55.53,55.53,55.52,55.53
201908221508,55.53,55.54,55.52,55.54
201908221509,55.54,55.55,55.53,55.55
201908221510,55.55,55.55,55.54,55.54
201908221511,55.54,55.54,55.53,55.53
201908221512,55.53,55.57,55.53,55.56
201908221513,55.56,55.59,55.56,55.58
201908221514,55.58,55.6,55.57,55.57
201908221515,55.57,55.57,55.55,55.55
201908221516,55.55,55.55,55.53,55.53
201908221517,55.53,55.53,55.52,55.52
201908221518,55.52,55.53,55.51,55.53
201908221519,55.53,55.53,55.51,55.51
201908221520,55.51,55.51,55.5,55.51
201908221521,55.51,55.51,55.48,55.49
201908221522,55.49,55.5,55.49,55.5
201908221523,55.5,55.53,55.5,55.51
201908221524,55.51,55.52,55.5,55.52
201908221525,55.52,55.53,55.51,55.53
201908221526,55.53,55.56,55.53,55.55
201908221527,55.55,55.55,55.52,55.52
201908221528,55.52,55.56,55.51,55.55
201908221529,55.55,55.55,55.54,55.55
201908221530,55.55,55.56,55.54,55.56
201908221531,55.56,55.57,55.56,55.56
201908221532,55.56,55.56,55.54,55.55
201908221533,55.55,55.57,55.55,55.57
201908221534,55.57,55.57,55.56,55.56
201908221535,55.56,55.56,55.54,55.55
201908221536,55.55,55.56,55.55,55.56
201908221537,55.56,55.57,55.56,55.57
201908221538,55.57,55.58,55.57,55.57
201908221539,55.57,55.57,55.55,55.56
201908221540,55.56,55.57,55.56,55.56
201908221541,55.56,55.61,55.56,55.6
201908221542,55.6,55.6,55.59,55.59
201908221543,55.59,55.6,55.59,55.6
201908221544,55.6,55.6,55.6,55.6
201908221545,55.6,55.62,55.6,55.61
201908221546,55.61,55.62,55.61,55.61
201908221547,55.61,55.61,55.59,55.6
201908221548,55.6,55.61,55.6,55.6
201908221549,55.6,55.62,55.6,55.62
201908221550,55.62,55.64,55.61,55.64
201908221551,55.64,55.64,55.6,55.61
201908221552,55.61,55.62,55.59,55.59
201908221553,55.59,55.61,55.59,55.61
201908221554,55.61,55.63,55.61,55.62
201908221555,55.62,55.63,55.61,55.63
201908221556,55.63,55.65,55.63,55.64
201908221557,55.64,55.66,55.64,55.65
201908221558,55.65,55.67,55.65,55.65
201908221559,55.65,55.67,55.65,55.66
201908221600,55.66,55.66,55.62,55.63
201908221601,55.63,55.63,55.56,55.6
201908221602,55.6,55.62,55.57,55.6
201908221603,55.6,55.6,55.53,55.54
201908221604,55.54,55.55,55.52,55.54
201908221605,55.54,55.56,55.52,55.54
201908221606,55.54,55.57,55.53,55.56
201908221607,55.56,55.57,55.55,55.56
201908221608,55.56,55.58,55.55,55.58
201908221609,55.58,55.58,55.56,55.57
201908221610,55.57,55.57,55.55,55.55
201908221611,55.55,55.56,55.54,55.55
201908221612,55.55,55.56,55.53,55.53
201908221613,55.53,55.54,55.52,55.53
201908221614,55.53,55.54,55.51,55.54
201908221615,55.54,55.65,55.54,55.63
201908221616,55.63,55.66,55.59,55.66
201908221617,55.65,55.71,55.63,55.71
201908221618,55.71,55.71,55.67,55.68
201908221619,55.68,55.72,55.67,55.72
201908221620,55.72,55.74,55.7,55.71
201908221621,55.71,55.72,55.68,55.69
201908221622,55.69,55.7,55.67,55.68
201908221623,55.68,55.69,55.66,55.66
201908221624,55.66,55.68,55.66,55.66
201908221625,55.66,55.67,55.63,55.64
201908221626,55.64,55.66,55.63,55.65
201908221627,55.65,55.65,55.62,55.65
201908221628,55.65,55.65,55.63,55.63
201908221629,55.63,55.64,55.61,55.64
201908221630,55.64,55.7,55.62,55.68
201908221631,55.68,55.81,55.66,55.8
201908221632,55.81,55.81,55.72,55.72
201908221633,55.72,55.77,55.72,55.77
201908221634,55.77,55.8,55.75,55.79
201908221635,55.79,55.79,55.76,55.78
201908221636,55.78,55.81,55.77,55.8
201908221637,55.8,55.83,55.79,55.81
201908221638,55.81,55.84,55.8,55.81
201908221639,55.81,55.84,55.81,55.83
201908221640,55.83,55.84,55.81,55.84
201908221641,55.84,55.84,55.79,55.81
201908221642,55.8,55.82,55.79,55.8
201908221643,55.8,55.81,55.78,55.79
201908221644,55.79,55.8,55.77,55.79
201908221645,55.79,55.81,55.78,55.79
201908221646,55.79,55.8,55.77,55.78
201908221647,55.78,55.79,55.76,55.77
201908221648,55.77,55.78,55.74,55.75
201908221649,55.75,55.79,55.75,55.77
201908221650,55.77,55.79,55.77,55.78
201908221651,55.78,55.79,55.76,55.79
201908221652,55.79,55.8,55.79,55.79
201908221653,55.79,55.83,55.78,55.82
201908221654,55.82,55.84,55.81,55.84
201908221655,55.84,55.84,55.8,55.8
201908221656,55.8,55.83,55.79,55.83
201908221657,55.83,55.85,55.82,55.85
201908221658,55.85,55.86,55.83,55.85
201908221659,55.85,55.86,55.84,55.85
201908221700,55.86,55.9,55.85,55.88
201908221701,55.88,55.88,55.84,55.85
201908221702,55.85,55.86,55.83,55.84
201908221703,55.83,55.85,55.83,55.85
201908221704,55.85,55.88,55.84,55.87
201908221705,55.87,55.89,55.86,55.88
201908221706,55.88,55.89,55.85,55.85
201908221707,55.85,55.86,55.84,55.85
201908221708,55.85,55.86,55.84,55.85
201908221709,55.85,55.89,55.85,55.87
201908221710,55.87,55.89,55.87,55.89
201908221711,55.89,55.89,55.88,55.88
201908221712,55.88,55.92,55.88,55.91
201908221713,55.91,55.91,55.88,55.88
201908221714,55.88,55.91,55.87,55.89
201908221715,55.89,55.89,55.86,55.86
201908221716,55.87,55.87,55.84,55.85
201908221717,55.85,55.87,55.84,55.84
201908221718,55.84,55.85,55.82,55.83
201908221719,55.83,55.9,55.83,55.89
201908221720,55.89,55.9,55.85,55.86
201908221721,55.86,55.87,55.83,55.85
201908221722,55.85,55.86,55.84,55.85
201908221723,55.85,55.85,55.84,55.85
201908221724,55.85,55.88,55.84,55.86
201908221725,55.86,55.88,55.85,55.87
201908221726,55.87,55.87,55.85,55.87
201908221727,55.87,55.92,55.85,55.91
201908221728,55.91,55.95,55.89,55.92
201908221729,55.92,55.96,55.87,55.96
201908221730,55.96,56.04,55.96,56
201908221731,56,56,55.9,55.92
201908221732,55.92,55.92,55.85,55.87
201908221733,55.87,55.87,55.83,55.84
201908221734,55.84,55.86,55.82,55.86
201908221735,55.86,55.87,55.84,55.85
201908221736,55.85,55.87,55.84,55.86
201908221737,55.86,55.89,55.85,55.88
201908221738,55.88,55.89,55.87,55.88
201908221739,55.88,55.89,55.88,55.88
201908221740,55.88,55.91,55.86,55.91
201908221741,55.91,55.91,55.89,55.9
201908221742,55.9,55.92,55.89,55.92
201908221743,55.92,55.92,55.9,55.92
201908221744,55.92,55.92,55.89,55.9
201908221745,55.9,55.95,55.9,55.92
201908221746,55.92,55.94,55.92,55.93
201908221747,55.93,55.97,55.92,55.96
201908221748,55.96,55.98,55.96,55.98
201908221749,55.98,55.98,55.94,55.94
201908221750,55.94,55.95,55.93,55.95
201908221751,55.95,55.95,55.89,55.9
201908221752,55.9,55.91,55.88,55.9
201908221753,55.9,55.91,55.89,55.9
201908221754,55.9,55.9,55.87,55.89
201908221755,55.89,55.9,55.88,55.89
201908221756,55.89,55.91,55.88,55.91
201908221757,55.91,55.92,55.9,55.91
201908221758,55.91,55.91,55.9,55.9
201908221759,55.9,55.92,55.9,55.91
201908221800,55.91,55.91,55.88,55.89
201908221801,55.89,55.95,55.89,55.95
201908221802,55.95,55.98,55.95,55.96
201908221803,55.96,55.96,55.93,55.95
201908221804,55.95,55.95,55.92,55.93
201908221805,55.93,55.94,55.92,55.92
201908221806,55.92,55.93,55.91,55.93
201908221807,55.93,55.93,55.89,55.9
201908221808,55.9,55.9,55.87,55.89
201908221809,55.89,55.9,55.88,55.89
201908221810,55.89,55.9,55.88,55.89
201908221811,55.89,55.89,55.86,55.87
201908221812,55.87,55.87,55.86,55.86
201908221813,55.86,55.86,55.84,55.85
201908221814,55.85,55.86,55.84,55.85
201908221815,55.85,55.87,55.84,55.87
201908221816,55.87,55.88,55.86,55.87
201908221817,55.87,55.87,55.86,55.87
201908221818,55.87,55.88,55.85,55.85
201908221819,55.85,55.85,55.84,55.84
201908221820,55.84,55.87,55.84,55.85
201908221821,55.85,55.86,55.82,55.82
201908221822,55.82,55.85,55.81,55.85
201908221823,55.85,55.92,55.84,55.89
201908221824,55.89,55.91,55.89,55.9
201908221825,55.9,55.91,55.88,55.88
201908221826,55.88,55.9,55.86,55.86
201908221827,55.86,55.87,55.84,55.85
201908221828,55.85,55.85,55.82,55.84
201908221829,55.84,55.84,55.81,55.84
201908221830,55.84,55.86,55.83,55.84
201908221831,55.84,55.85,55.82,55.83
201908221832,55.83,55.86,55.82,55.84
201908221833,55.84,55.88,55.84,55.87
201908221834,55.87,55.88,55.86,55.87
201908221835,55.87,55.87,55.82,55.84
201908221836,55.84,55.87,55.83,55.85
201908221837,55.85,55.87,55.84,55.85
201908221838,55.85,55.85,55.82,55.84
201908221839,55.84,55.88,55.83,55.88
201908221840,55.88,55.88,55.84,55.85
201908221841,55.85,55.87,55.85,55.86
201908221842,55.87,55.88,55.86,55.88
201908221843,55.88,55.89,55.87,55.88
201908221844,55.88,55.91,55.88,55.88
201908221845,55.88,55.88,55.82,55.87
201908221846,55.87,56.02,55.87,56.01
201908221847,56.01,56.08,56,56.05
201908221848,56.05,56.08,56.04,56.07
201908221849,56.07,56.07,56.04,56.05
201908221850,56.05,56.06,56.02,56.03
201908221851,56.03,56.03,56.01,56.01
201908221852,56.01,56.03,55.99,56.01
201908221853,56.01,56.05,56,56.05
201908221854,56.04,56.04,56.02,56.03
201908221855,56.03,56.04,56.01,56.03
201908221856,56.03,56.05,56.01,56.05
201908221857,56.05,56.06,56.03,56.05
201908221858,56.05,56.06,56.05,56.05
201908221859,56.05,56.07,56.05,56.06
201908221900,56.06,56.07,56.05,56.07
201908221901,56.07,56.08,56.06,56.08
201908221902,56.08,56.11,56.05,56.05
201908221903,56.05,56.06,56.04,56.05
201908221904,56.05,56.08,56.04,56.05
201908221905,56.05,56.05,56.04,56.04
201908221906,56.04,56.08,56.04,56.07
201908221907,56.07,56.09,56.07,56.08
201908221908,56.08,56.08,56.05,56.06
201908221909,56.06,56.09,56.06,56.08
201908221910,56.08,56.09,56.07,56.08
201908221911,56.08,56.09,56.08,56.09
201908221912,56.09,56.1,56.08,56.1
201908221913,56.1,56.15,56.09,56.13
201908221914,56.13,56.13,56.07,56.08
201908221915,56.08,56.1,56.06,56.07
201908221916,56.07,56.08,56.05,56.05
201908221917,56.05,56.09,56.04,56.07
201908221918,56.07,56.08,56.06,56.08
201908221919,56.08,56.09,56.05,56.05
201908221920,56.05,56.06,56.05,56.05
201908221921,56.05,56.05,56.03,56.04
201908221922,56.04,56.05,56.01,56.02
201908221923,56.02,56.04,56.02,56.03
201908221924,56.03,56.04,56.01,56.02
201908221925,56.01,56.03,56.01,56.03
201908221926,56.03,56.04,56,56.01
201908221927,56.01,56.03,56.01,56.02
201908221928,56.02,56.04,56.02,56.03
201908221929,56.03,56.05,56.03,56.04
201908221930,56.04,56.05,56.02,56.04
201908221931,56.04,56.06,56.04,56.06
201908221932,56.06,56.06,56.04,56.06
201908221933,56.06,56.06,56.04,56.04
201908221934,56.04,56.05,56.04,56.04
201908221935,56.04,56.06,56.03,56.06
201908221936,56.06,56.06,56.03,56.03
201908221937,56.02,56.03,55.98,56.03
201908221938,56.03,56.03,56.01,56.01
201908221939,56.01,56.02,55.99,56.01
201908221940,56.01,56.01,56,56.01
201908221941,56.01,56.03,56.01,56.02
201908221942,56.02,56.03,56.02,56.02
201908221943,56.02,56.03,55.99,55.99
201908221944,55.99,56.01,55.98,55.98
201908221945,55.98,56,55.98,55.99
201908221946,55.99,56.01,55.98,56.01
201908221947,56.01,56.03,55.99,56
201908221948,56,56.01,55.99,56.01
201908221949,56.01,56.04,56.01,56.02
201908221950,56.02,56.02,56,56
201908221951,56,56.03,56,56.01
201908221952,56.01,56.03,56,56.01
201908221953,56.01,56.02,55.99,55.99
201908221954,55.99,55.99,55.96,55.97
201908221955,55.97,55.97,55.95,55.96
201908221956,55.96,55.97,55.94,55.96
201908221957,55.96,55.98,55.94,55.97
201908221958,55.97,55.97,55.95,55.95
201908221959,55.95,55.96,55.94,55.96
201908222000,55.96,55.98,55.96,55.96
201908222001,55.96,55.98,55.96,55.98
201908222002,55.98,56.01,55.98,56
201908222003,56,56.01,55.98,55.99
201908222004,55.99,55.99,55.97,55.98
201908222005,55.98,56.01,55.98,56.01
201908222006,56.01,56.01,55.98,56.01
201908222007,56.01,56.05,56.01,56.04
201908222008,56.04,56.05,56.04,56.04
201908222009,56.04,56.04,56.02,56.02
201908222010,56.02,56.05,56.02,56.05
201908222011,56.05,56.05,56.04,56.04
201908222012,56.04,56.05,56.04,56.05
201908222013,56.05,56.06,56.04,56.05
201908222014,56.05,56.06,56.04,56.06
201908222015,56.06,56.08,56.05,56.08
201908222016,56.08,56.09,56.05,56.05
201908222017,56.05,56.07,56.04,56.07
201908222018,56.07,56.09,56.06,56.07
201908222019,56.07,56.14,56.07,56.12
201908222020,56.12,56.15,56.11,56.12
201908222021,56.12,56.13,56.11,56.12
201908222022,56.12,56.2,56.11,56.17
201908222023,56.17,56.2,56.17,56.2
201908222024,56.2,56.23,56.19,56.21
201908222025,56.21,56.24,56.2,56.23
201908222026,56.23,56.25,56.23,56.23
201908222027,56.23,56.23,56.2,56.21
201908222028,56.21,56.22,56.2,56.21
201908222029,56.21,56.21,56.2,56.21
201908222030,56.21,56.22,56.2,56.22
201908222031,56.22,56.23,56.2,56.21
201908222032,56.22,56.23,56.22,56.22
201908222033,56.22,56.25,56.2,56.21
201908222034,56.21,56.22,56.19,56.2
201908222035,56.2,56.22,56.19,56.22
201908222036,56.22,56.23,56.21,56.21
201908222037,56.21,56.22,56.2,56.2
201908222038,56.2,56.21,56.19,56.2
201908222039,56.2,56.21,56.19,56.2
201908222040,56.2,56.22,56.19,56.22
201908222041,56.22,56.23,56.21,56.22
201908222042,56.22,56.23,56.21,56.21
201908222043,56.21,56.24,56.2,56.23
201908222044,56.23,56.23,56.22,56.22
201908222045,56.22,56.24,56.2,56.21
201908222046,56.21,56.21,56.2,56.2
201908222047,56.2,56.21,56.18,56.19
201908222048,56.19,56.23,56.17,56.23
201908222049,56.23,56.24,56.21,56.22
201908222050,56.22,56.24,56.22,56.23
201908222051,56.23,56.24,56.22,56.23
201908222052,56.23,56.25,56.22,56.24
201908222053,56.24,56.25,56.15,56.16
201908222054,56.16,56.17,56.12,56.12
201908222055,56.12,56.15,56.12,56.13
201908222056,56.13,56.13,56.07,56.09
201908222057,56.09,56.1,56.07,56.08
201908222058,56.08,56.1,56.08,56.09
201908222059,56.09,56.12,56.09,56.1
201908222100,56.1,56.12,56.07,56.12
201908222101,56.12,56.14,56.11,56.14
201908222102,56.14,56.14,56.12,56.14
201908222103,56.14,56.17,56.14,56.16
201908222104,56.16,56.18,56.15,56.18
201908222105,56.18,56.2,56.17,56.18
201908222106,56.18,56.18,56.15,56.17
201908222107,56.17,56.18,56.17,56.18
201908222108,56.18,56.18,56.14,56.15
201908222109,56.15,56.15,56.09,56.11
201908222110,56.11,56.14,56.1,56.14
201908222111,56.14,56.14,56.09,56.1
201908222112,56.1,56.12,56.1,56.1
201908222113,56.1,56.11,56.05,56.05
201908222114,56.05,56.07,56.03,56.05
201908222115,56.05,56.1,56.04,56.1
201908222116,56.1,56.1,56.05,56.07
201908222117,56.07,56.09,56.06,56.09
201908222118,56.09,56.12,56.06,56.07
201908222119,56.07,56.09,56.06,56.07
201908222120,56.07,56.08,56.07,56.08
201908222121,56.08,56.09,56.06,56.07
201908222122,56.07,56.08,56.04,56.08
201908222123,56.08,56.09,56.07,56.08
201908222124,56.08,56.09,56.06,56.06
201908222125,56.06,56.09,56.05,56.08
201908222126,56.08,56.11,56.07,56.11
201908222127,56.11,56.11,56.11,56.11
201908222128,56.11,56.12,56.11,56.11
201908222129,56.11,56.11,56.08,56.11
201908222130,56.11,56.12,56.09,56.1
201908222131,56.1,56.11,56.06,56.08
201908222132,56.08,56.16,56.08,56.15
201908222133,56.15,56.16,56.14,56.16
201908222134,56.16,56.19,56.16,56.17
201908222135,56.17,56.22,56.17,56.2
201908222136,56.2,56.21,56.2,56.21
201908222137,56.2,56.2,56.15,56.2
201908222138,56.2,56.2,56.19,56.19
201908222139,56.19,56.19,56.17,56.18
201908222140,56.18,56.2,56.16,56.17
201908222141,56.17,56.19,56.17,56.19
201908222142,56.19,56.2,56.17,56.19
201908222143,56.19,56.19,56.16,56.17
201908222144,56.17,56.18,56.16,56.18
201908222145,56.18,56.19,56.16,56.19
201908222146,56.18,56.29,56.18,56.27
201908222147,56.27,56.31,56.26,56.27
201908222148,56.27,56.27,56.24,56.25
201908222149,56.25,56.25,56.23,56.25
201908222150,56.25,56.26,56.24,56.25
201908222151,56.25,56.27,56.25,56.25
201908222152,56.26,56.3,56.26,56.3
201908222153,56.3,56.33,56.3,56.33
201908222154,56.33,56.36,56.32,56.35
201908222155,56.35,56.36,56.32,56.34
201908222156,56.34,56.36,56.3,56.32
201908222157,56.32,56.32,56.3,56.31
201908222158,56.31,56.32,56.3,56.3
201908222159,56.3,56.33,56.3,56.33
201908222200,56.33,56.37,56.29,56.3
201908222201,56.3,56.33,56.24,56.27
201908222202,56.27,56.28,56.18,56.18
201908222203,56.18,56.34,56.18,56.34
201908222204,56.34,56.44,56.33,56.38
201908222205,56.38,56.41,56.3,56.3
201908222206,56.3,56.36,56.3,56.35
201908222207,56.34,56.35,56.32,56.32
201908222208,56.32,56.33,56.26,56.27
201908222209,56.27,56.32,56.27,56.3
201908222210,56.3,56.3,56.25,56.27
201908222211,56.27,56.27,56.24,56.25
201908222212,56.25,56.25,56.2,56.22
201908222213,56.22,56.24,56.19,56.2
201908222214,56.2,56.21,56.18,56.18
201908222215,56.18,56.24,56.17,56.23
201908222216,56.23,56.27,56.23,56.23
201908222217,56.23,56.24,56.17,56.19
201908222218,56.19,56.2,56.17,56.17
201908222219,56.17,56.18,56.13,56.14
201908222220,56.14,56.15,56.11,56.14
201908222221,56.14,56.15,56.12,56.15
201908222222,56.15,56.16,56.13,56.13
201908222223,56.13,56.13,56.11,56.11
201908222224,56.11,56.14,56.11,56.13
201908222225,56.13,56.14,56.12,56.14
201908222226,56.14,56.21,56.13,56.17
201908222227,56.17,56.17,56.07,56.08
201908222228,56.08,56.11,56.05,56.11
201908222229,56.11,56.12,56.09,56.1
201908222230,56.1,56.13,56.09,56.1
201908222231,56.1,56.18,56.09,56.16
201908222232,56.16,56.18,56.12,56.13
201908222233,56.13,56.16,56.08,56.14
201908222234,56.14,56.15,56.12,56.14
201908222235,56.14,56.16,56.12,56.14
201908222236,56.14,56.16,56.13,56.16
201908222237,56.16,56.23,56.15,56.21
201908222238,56.21,56.22,56.2,56.21
201908222239,56.2,56.24,56.19,56.21
201908222240,56.21,56.23,56.18,56.22
201908222241,56.22,56.23,56.19,56.2
201908222242,56.2,56.23,56.18,56.22
201908222243,56.22,56.26,56.21,56.22
201908222244,56.22,56.22,56.16,56.16
201908222245,56.16,56.16,55.96,55.97
201908222246,55.97,56.01,55.95,55.96
201908222247,55.96,55.99,55.86,55.88
201908222248,55.88,55.89,55.85,55.87
201908222249,55.87,55.92,55.87,55.89
201908222250,55.89,55.89,55.81,55.89
201908222251,55.89,55.89,55.82,55.84
201908222252,55.84,55.9,55.83,55.9
201908222253,55.9,55.9,55.84,55.85
201908222254,55.85,55.87,55.84,55.85
201908222255,55.85,55.86,55.72,55.74
201908222256,55.74,55.78,55.74,55.78
201908222257,55.78,55.86,55.75,55.86
201908222258,55.86,55.87,55.82,55.83
201908222259,55.83,55.84,55.79,55.82
201908222300,55.82,55.9,55.82,55.87
201908222301,55.87,55.9,55.86,55.88
201908222302,55.88,55.88,55.85,55.85
201908222303,55.85,55.91,55.85,55.89
201908222304,55.89,55.9,55.83,55.83
201908222305,55.83,55.83,55.76,55.79
201908222306,55.79,55.79,55.74,55.77
201908222307,55.77,55.78,55.75,55.77
201908222308,55.77,55.77,55.73,55.74
201908222309,55.74,55.76,55.72,55.76
201908222310,55.76,55.76,55.73,55.74
201908222311,55.74,55.74,55.68,55.71
201908222312,55.71,55.89,55.71,55.85
201908222313,55.85,55.9,55.82,55.88
201908222314,55.88,55.9,55.86,55.89
201908222315,55.89,55.94,55.88,55.88
201908222316,55.88,55.89,55.84,55.86
201908222317,55.86,55.87,55.81,55.82
201908222318,55.83,55.83,55.74,55.79
201908222319,55.79,55.79,55.65,55.67
201908222320,55.67,55.7,55.62,55.7
201908222321,55.7,55.7,55.56,55.68
201908222322,55.68,55.68,55.6,55.64
201908222323,55.64,55.64,55.56,55.58
201908222324,55.58,55.65,55.55,55.64
201908222325,55.64,55.64,55.46,55.46
201908222326,55.46,55.46,55.31,55.34
201908222327,55.33,55.41,55.32,55.34
201908222328,55.34,55.37,55.28,55.29
201908222329,55.29,55.38,55.26,55.34
201908222330,55.34,55.35,55.23,55.3
201908222331,55.3,55.3,55.24,55.28
201908222332,55.29,55.29,55.14,55.17
201908222333,55.17,55.17,55.12,55.14
201908222334,55.14,55.27,55.14,55.27
201908222335,55.27,55.27,55.16,55.16
201908222336,55.15,55.18,55.08,55.18
201908222337,55.17,55.26,55.17,55.26
201908222338,55.26,55.26,55.22,55.23
201908222339,55.23,55.24,55.19,55.2
201908222340,55.2,55.21,55.16,55.21
201908222341,55.21,55.3,55.2,55.29
201908222342,55.29,55.33,55.27,55.27
201908222343,55.27,55.3,55.24,55.25
201908222344,55.25,55.25,55.18,55.22
201908222345,55.23,55.25,55.17,55.18
201908222346,55.18,55.3,55.16,55.26
201908222347,55.26,55.27,55.18,55.19
201908222348,55.19,55.23,55.15,55.17
201908222349,55.17,55.24,55.12,55.24
201908222350,55.24,55.3,55.2,55.3
201908222351,55.3,55.3,55.25,55.28
201908222352,55.28,55.28,55.17,55.17
201908222353,55.17,55.25,55.14,55.22
201908222354,55.22,55.23,55.16,55.16
201908222355,55.16,55.19,55.12,55.19
201908222356,55.18,55.18,55.04,55.08
201908222357,55.07,55.17,55.06,55.16
201908222358,55.16,55.16,55.09,55.12
201908222359,55.12,55.12,55.04,55.09
201908230000,55.09,55.17,55.09,55.14
201908230001,55.14,55.16,55.04,55.04
201908230002,55.05,55.16,55.04,55.15
201908230003,55.15,55.16,55.11,55.13
201908230004,55.13,55.16,55.09,55.12
201908230005,55.11,55.21,55.09,55.19
201908230006,55.19,55.29,55.19,55.28
201908230007,55.28,55.31,55.26,55.3
201908230008,55.3,55.35,55.3,55.33
201908230009,55.33,55.42,55.31,55.36
201908230010,55.36,55.37,55.3,55.33
201908230011,55.33,55.37,55.31,55.32
201908230012,55.32,55.37,55.32,55.37
201908230013,55.37,55.38,55.33,55.34
201908230014,55.34,55.35,55.26,55.27
201908230015,55.27,55.29,55.24,55.28
201908230016,55.28,55.34,55.28,55.29
201908230017,55.29,55.34,55.29,55.31
201908230018,55.31,55.31,55.24,55.24
201908230019,55.24,55.25,55.18,55.2
201908230020,55.2,55.23,55.2,55.2
201908230021,55.2,55.25,55.2,55.23
201908230022,55.23,55.28,55.22,55.27
201908230023,55.27,55.34,55.27,55.34
201908230024,55.34,55.35,55.28,55.28
201908230025,55.28,55.3,55.22,55.22
201908230026,55.22,55.26,55.22,55.24
201908230027,55.24,55.25,55.16,55.19
201908230028,55.19,55.28,55.19,55.24
201908230029,55.24,55.26,55.2,55.2
201908230030,55.2,55.28,55.2,55.26
201908230031,55.26,55.27,55.23,55.25
201908230032,55.25,55.26,55.2,55.23
201908230033,55.23,55.24,55.2,55.2
201908230034,55.2,55.29,55.2,55.27
201908230035,55.27,55.33,55.27,55.31
201908230036,55.31,55.34,55.31,55.34
201908230037,55.34,55.4,55.34,55.39
201908230038,55.39,55.4,55.35,55.36
201908230039,55.36,55.39,55.35,55.36
201908230040,55.36,55.39,55.31,55.32
201908230041,55.32,55.33,55.3,55.3
201908230042,55.3,55.31,55.27,55.28
201908230043,55.28,55.28,55.26,55.27
201908230044,55.27,55.28,55.25,55.26
201908230045,55.27,55.27,55.2,55.2
201908230046,55.2,55.21,55.17,55.17
201908230047,55.17,55.18,55.14,55.16
201908230048,55.16,55.17,55.14,55.15
201908230049,55.15,55.2,55.13,55.19
201908230050,55.19,55.19,55.14,55.15
201908230051,55.15,55.15,55.11,55.11
201908230052,55.11,55.19,55.11,55.18
201908230053,55.18,55.18,55.15,55.16
201908230054,55.16,55.18,55.16,55.16
201908230055,55.16,55.18,55.14,55.16
201908230056,55.16,55.16,55.06,55.08
201908230057,55.08,55.08,54.84,54.9
201908230058,54.9,54.98,54.9,54.95
201908230059,54.94,54.99,54.91,54.94
201908230100,54.94,55.05,54.9,55.03
201908230101,55.03,55.07,55,55.07
201908230102,55.07,55.13,55.06,55.13
201908230103,55.13,55.15,55.1,55.14
201908230104,55.14,55.19,55.14,55.15
201908230105,55.15,55.18,55.15,55.15
201908230106,55.15,55.17,55.14,55.16
201908230107,55.16,55.23,55.16,55.21
201908230108,55.21,55.24,55.21,55.21
201908230109,55.21,55.23,55.2,55.21
201908230110,55.21,55.22,55.2,55.21
201908230111,55.2,55.22,55.18,55.21
201908230112,55.21,55.23,55.18,55.18
201908230113,55.18,55.21,55.17,55.2
201908230114,55.2,55.23,55.17,55.17
201908230115,55.17,55.25,55.17,55.25
201908230116,55.25,55.28,55.21,55.23
201908230117,55.23,55.3,55.22,55.29
201908230118,55.29,55.31,55.27,55.29
201908230119,55.3,55.35,55.29,55.29
201908230120,55.29,55.31,55.27,55.28
201908230121,55.28,55.31,55.26,55.27
201908230122,55.27,55.28,55.22,55.24
201908230123,55.24,55.27,55.23,55.27
201908230124,55.27,55.28,55.26,55.27
201908230125,55.27,55.29,55.26,55.27
201908230126,55.27,55.27,55.26,55.26
201908230127,55.26,55.26,55.24,55.24
201908230128,55.24,55.26,55.24,55.25
201908230129,55.25,55.31,55.24,55.3
201908230130,55.3,55.34,55.3,55.31
201908230131,55.31,55.31,55.26,55.26
201908230132,55.26,55.29,55.24,55.28
201908230133,55.28,55.28,55.24,55.25
201908230134,55.25,55.25,55.23,55.24
201908230135,55.24,55.24,55.21,55.22
201908230136,55.22,55.24,55.2,55.24
201908230137,55.24,55.24,55.22,55.23
201908230138,55.23,55.23,55.2,55.22
201908230139,55.22,55.22,55.18,55.19
201908230140,55.19,55.23,55.19,55.22
201908230141,55.22,55.27,55.22,55.24
201908230142,55.24,55.24,55.21,55.23
201908230143,55.23,55.24,55.2,55.21
201908230144,55.21,55.26,55.21,55.25
201908230145,55.25,55.26,55.2,55.21
201908230146,55.22,55.23,55.21,55.22
201908230147,55.22,55.25,55.21,55.22
201908230148,55.22,55.22,55.21,55.21
201908230149,55.21,55.24,55.2,55.23
201908230150,55.23,55.26,55.23,55.24
201908230151,55.24,55.27,55.24,55.26
201908230152,55.26,55.28,55.24,55.25
201908230153,55.25,55.28,55.25,55.28
201908230154,55.28,55.33,55.28,55.31
201908230155,55.31,55.35,55.3,55.34
201908230156,55.34,55.37,55.32,55.32
201908230157,55.32,55.32,55.27,55.28
201908230158,55.28,55.31,55.28,55.3
201908230159,55.3,55.31,55.29,55.3
201908230200,55.3,55.36,55.3,55.36
201908230201,55.36,55.46,55.34,55.41
201908230202,55.41,55.51,55.41,55.5
201908230203,55.5,55.55,55.5,55.53
201908230204,55.53,55.59,55.53,55.55
201908230205,55.56,55.62,55.51,55.53
201908230206,55.53,55.6,55.53,55.59
201908230207,55.59,55.66,55.59,55.66
201908230208,55.67,55.73,55.67,55.69
201908230209,55.7,55.71,55.65,55.69
201908230210,55.69,55.74,55.68,55.7
201908230211,55.7,55.72,55.68,55.68
201908230212,55.68,55.69,55.64,55.67
201908230213,55.67,55.68,55.65,55.66
201908230214,55.66,55.68,55.66,55.67
201908230215,55.67,55.69,55.64,55.64
201908230216,55.64,55.65,55.63,55.64
201908230217,55.64,55.68,55.64,55.68
201908230218,55.68,55.69,55.65,55.65
201908230219,55.65,55.68,55.65,55.65
201908230220,55.65,55.66,55.63,55.63
201908230221,55.63,55.68,55.62,55.63
201908230222,55.63,55.68,55.61,55.66
201908230223,55.66,55.7,55.66,55.69
201908230224,55.69,55.7,55.68,55.7
201908230225,55.7,55.83,55.69,55.81
201908230226,55.81,55.81,55.75,55.75
201908230227,55.75,55.75,55.72,55.73
201908230228,55.73,55.74,55.71,55.71
201908230229,55.71,55.71,55.62,55.63
201908230230,55.64,55.69,55.62,55.63
201908230231,55.63,55.64,55.61,55.62
201908230232,55.62,55.64,55.61,55.63
201908230233,55.63,55.64,55.62,55.62
201908230234,55.62,55.64,55.6,55.61
201908230235,55.61,55.64,55.61,55.63
201908230236,55.63,55.64,55.62,55.62
201908230237,55.62,55.7,55.62,55.7
201908230238,55.7,55.72,55.66,55.66
201908230239,55.66,55.71,55.66,55.71
201908230240,55.71,55.73,55.69,55.7
201908230241,55.7,55.72,55.7,55.72
201908230242,55.72,55.74,55.71,55.73
201908230243,55.73,55.74,55.69,55.7
201908230244,55.7,55.7,55.67,55.68
201908230245,55.68,55.7,55.68,55.68
201908230246,55.68,55.69,55.68,55.68
201908230247,55.68,55.68,55.63,55.63
201908230248,55.63,55.65,55.62,55.63
201908230249,55.63,55.65,55.63,55.65
201908230250,55.65,55.69,55.65,55.66
201908230251,55.66,55.66,55.62,55.62
201908230252,55.62,55.63,55.62,55.62
201908230253,55.62,55.64,55.62,55.64
201908230254,55.64,55.64,55.63,55.63
201908230255,55.63,55.66,55.63,55.65
201908230256,55.65,55.67,55.65,55.67
201908230257,55.67,55.7,55.67,55.7
201908230258,55.7,55.7,55.68,55.69
201908230259,55.69,55.75,55.69,55.72
201908230300,55.72,55.73,55.69,55.69
201908230301,55.69,55.7,55.69,55.7
201908230302,55.7,55.73,55.69,55.7
201908230303,55.7,55.72,55.69,55.72
201908230304,55.72,55.75,55.62,55.62
201908230305,55.62,55.66,55.6,55.66
201908230306,55.66,55.67,55.62,55.62
201908230307,55.62,55.64,55.56,55.57
201908230308,55.57,55.58,55.56,55.57
201908230309,55.57,55.59,55.55,55.59
201908230310,55.59,55.59,55.56,55.56
201908230311,55.56,55.59,55.54,55.58
201908230312,55.58,55.58,55.54,55.54
201908230313,55.54,55.58,55.53,55.56
201908230314,55.56,55.58,55.56,55.57
201908230315,55.57,55.59,55.55,55.58
201908230316,55.58,55.59,55.51,55.52
201908230317,55.52,55.56,55.52,55.52
201908230318,55.52,55.58,55.52,55.57
201908230319,55.57,55.59,55.55,55.59
201908230320,55.59,55.65,55.58,55.63
201908230321,55.63,55.64,55.63,55.64
201908230322,55.64,55.66,55.63,55.65
201908230323,55.65,55.65,55.6,55.6
201908230324,55.6,55.62,55.54,55.57
201908230325,55.57,55.57,55.42,55.45
201908230326,55.45,55.45,55.38,55.39
201908230327,55.39,55.47,55.38,55.44
201908230328,55.44,55.46,55.36,55.36
201908230329,55.36,55.36,55.26,55.27
201908230330,55.27,55.38,55.27,55.38
201908230331,55.38,55.38,55.34,55.35
201908230332,55.36,55.36,55.3,55.32
201908230333,55.32,55.34,55.31,55.34
201908230334,55.34,55.34,55.26,55.27
201908230335,55.27,55.28,55.24,55.24
201908230336,55.24,55.24,55.2,55.24
201908230337,55.24,55.28,55.24,55.27
201908230338,55.27,55.29,55.24,55.27
201908230339,55.27,55.27,55.26,55.27
201908230340,55.27,55.3,55.26,55.27
201908230341,55.27,55.28,55.26,55.28
201908230342,55.28,55.3,55.28,55.29
201908230343,55.29,55.31,55.28,55.29
201908230344,55.29,55.32,55.29,55.31
201908230345,55.31,55.34,55.29,55.3
201908230346,55.3,55.34,55.29,55.33
201908230347,55.33,55.34,55.32,55.34
201908230348,55.34,55.34,55.32,55.32
201908230349,55.32,55.32,55.3,55.32
201908230350,55.32,55.34,55.32,55.33
201908230351,55.33,55.4,55.33,55.38
201908230352,55.38,55.38,55.36,55.36
201908230353,55.36,55.37,55.36,55.37
201908230354,55.37,55.38,55.36,55.38
201908230355,55.38,55.38,55.35,55.36
201908230356,55.36,55.38,55.36,55.38
201908230357,55.38,55.39,55.38,55.38
201908230358,55.38,55.4,55.38,55.38
201908230359,55.38,55.4,55.37,55.39
201908230400,55.39,55.4,55.38,55.38
201908230401,55.38,55.38,55.31,55.31
201908230402,55.31,55.31,55.29,55.3
201908230403,55.3,55.34,55.29,55.32
201908230404,55.32,55.32,55.29,55.32
201908230405,55.32,55.33,55.31,55.31
201908230406,55.31,55.32,55.31,55.32
201908230407,55.32,55.32,55.31,55.32
201908230408,55.32,55.32,55.3,55.31
201908230409,55.31,55.31,55.28,55.28
201908230410,55.28,55.28,55.26,55.26
201908230411,55.26,55.26,55.22,55.22
201908230412,55.22,55.25,55.22,55.23
201908230413,55.23,55.26,55.23,55.24
201908230414,55.24,55.26,55.23,55.25
201908230415,55.25,55.26,55.24,55.24
201908230416,55.24,55.29,55.24,55.29
201908230417,55.29,55.3,55.24,55.25
201908230418,55.25,55.27,55.24,55.27
201908230419,55.27,55.27,55.25,55.27
201908230420,55.27,55.29,55.27,55.29
201908230421,55.29,55.3,55.28,55.3
201908230422,55.3,55.32,55.3,55.31
201908230423,55.31,55.32,55.31,55.31
201908230424,55.31,55.33,55.31,55.32
201908230425,55.32,55.34,55.32,55.32
201908230426,55.32,55.35,55.31,55.34
201908230427,55.34,55.35,55.34,55.34
201908230428,55.34,55.35,55.33,55.33
201908230429,55.33,55.35,55.33,55.34
201908230430,55.34,55.36,55.34,55.36
201908230431,55.37,55.37,55.35,55.35
201908230432,55.35,55.35,55.32,55.34
201908230433,55.34,55.35,55.33,55.35
201908230434,55.35,55.36,55.35,55.36
201908230435,55.36,55.38,55.35,55.37
201908230436,55.37,55.4,55.37,55.39
201908230437,55.39,55.4,55.38,55.38
201908230438,55.38,55.38,55.37,55.37
201908230439,55.37,55.38,55.35,55.35
201908230440,55.35,55.39,55.35,55.39
201908230441,55.4,55.4,55.37,55.37
201908230442,55.37,55.38,55.37,55.37
201908230443,55.37,55.39,55.37,55.37
201908230444,55.37,55.38,55.36,55.36
201908230445,55.36,55.37,55.35,55.35
201908230446,55.35,55.35,55.32,55.34
201908230447,55.34,55.36,55.34,55.36
201908230448,55.36,55.36,55.34,55.35
201908230449,55.35,55.37,55.35,55.35
201908230450,55.35,55.4,55.35,55.38
201908230451,55.38,55.4,55.38,55.4
201908230452,55.4,55.4,55.39,55.39
201908230453,55.39,55.42,55.39,55.42
201908230454,55.42,55.43,55.4,55.41
201908230455,55.41,55.41,55.36,55.37
201908230456,55.37,55.38,55.36,55.37
201908230457,55.37,55.37,55.35,55.35
201908230458,55.35,55.37,55.35,55.37
201908230459,55.37,55.37,55.34,55.35
201908230500,55.35,55.36,55.35,55.36
201908230501,55.36,55.36,55.35,55.36
201908230502,55.36,55.4,55.36,55.4
201908230503,55.4,55.44,55.4,55.42
201908230504,55.42,55.42,55.41,55.41
201908230505,55.41,55.43,55.41,55.42
201908230506,55.42,55.42,55.41,55.41
201908230507,55.41,55.41,55.37,55.38
201908230508,55.38,55.38,55.37,55.38
201908230509,55.38,55.4,55.38,55.39
201908230510,55.39,55.4,55.39,55.39
201908230511,55.39,55.39,55.38,55.39
201908230512,55.39,55.39,55.39,55.39
201908230513,55.39,55.39,55.38,55.39
201908230514,55.39,55.39,55.36,55.37
201908230515,55.37,55.37,55.35,55.36
201908230516,55.36,55.37,55.36,55.37
201908230517,55.37,55.37,55.37,55.37
201908230518,55.37,55.37,55.36,55.37
201908230519,55.37,55.37,55.36,55.36
201908230520,55.36,55.37,55.34,55.34
201908230521,55.34,55.35,55.34,55.35
201908230522,55.35,55.35,55.34,55.34
201908230523,55.34,55.34,55.33,55.33
201908230524,55.33,55.34,55.33,55.33
201908230525,55.33,55.35,55.33,55.34
201908230526,55.34,55.35,55.34,55.35
201908230527,55.35,55.36,55.35,55.36
201908230528,55.36,55.36,55.35,55.35
201908230529,55.35,55.37,55.35,55.36
201908230530,55.36,55.38,55.36,55.37
201908230531,55.37,55.37,55.35,55.36
201908230532,55.36,55.37,55.36,55.37
201908230533,55.37,55.37,55.34,55.35
201908230534,55.35,55.35,55.34,55.34
201908230535,55.34,55.35,55.33,55.33
201908230536,55.33,55.33,55.32,55.33
201908230537,55.33,55.33,55.31,55.31
201908230538,55.31,55.32,55.31,55.32
201908230539,55.32,55.32,55.29,55.29
201908230540,55.29,55.3,55.28,55.29
201908230541,55.29,55.29,55.27,55.27
201908230542,55.27,55.28,55.27,55.28
201908230543,55.28,55.28,55.28,55.28
201908230544,55.28,55.3,55.28,55.3
201908230545,55.3,55.32,55.3,55.32
201908230546,55.32,55.33,55.32,55.32
201908230547,55.32,55.32,55.32,55.32
201908230548,55.32,55.34,55.32,55.34
201908230549,55.34,55.35,55.33,55.35
201908230550,55.35,55.35,55.34,55.34
201908230551,55.34,55.34,55.28,55.31
201908230552,55.32,55.32,55.31,55.32
201908230553,55.32,55.33,55.32,55.33
201908230554,55.33,55.33,55.33,55.33
201908230555,55.33,55.35,55.33,55.34
201908230556,55.34,55.36,55.34,55.35
201908230557,55.35,55.35,55.35,55.35
201908230558,55.35,55.36,55.35,55.36
201908230559,55.36,55.39,55.35,55.37
