日時,始値(BID),高値(BID),安値(BID),終値(BID)
201911280800,58.12,58.12,58.08,58.09
201911280801,58.09,58.12,58.09,58.11
201911280802,58.11,58.11,58.06,58.07
201911280803,58.07,58.07,58.06,58.06
201911280804,58.06,58.07,58.06,58.06
201911280805,58.06,58.07,58.06,58.07
201911280806,58.07,58.07,58.06,58.06
201911280807,58.06,58.07,58.06,58.07
201911280808,58.07,58.07,58.06,58.06
201911280809,58.06,58.06,58.04,58.04
201911280810,58.04,58.05,58.04,58.05
201911280811,58.05,58.05,58.04,58.05
201911280812,58.05,58.05,58.02,58.03
201911280813,58.03,58.03,58.01,58.01
201911280814,58.01,58.02,58.01,58.01
201911280815,58.01,58.01,57.99,58
201911280816,58,58.01,58,58
201911280817,58,58.01,58,58.01
201911280818,58.01,58.02,58.01,58.02
201911280819,58.02,58.02,58.02,58.02
201911280820,58.02,58.02,58.01,58.01
201911280821,58.01,58.01,58.01,58.01
201911280822,58.01,58.01,58,58
201911280823,58,58.01,58,58
201911280824,58,58,58,58
201911280825,58,58.01,58,58.01
201911280826,58.01,58.02,58.01,58.01
201911280827,58.01,58.01,58,58
201911280828,58,58,57.99,57.99
201911280829,57.99,58,57.99,58
201911280830,58,58,58,58
201911280831,58,58.01,58,58
201911280832,58,58,58,58
201911280833,58,58,58,58
201911280834,58,58,58,58
201911280835,58,58,58,58
201911280836,58,58.01,58,58.01
201911280837,58.01,58.01,58,58
201911280838,58,58,58,58
201911280839,58,58,58,58
201911280840,58,58.01,58,58.01
201911280841,58.01,58.01,58,58.01
201911280842,58.01,58.02,58.01,58.02
201911280843,58.02,58.02,58.02,58.02
201911280844,58.02,58.02,58.02,58.02
201911280845,58.02,58.02,58.02,58.02
201911280846,58.02,58.02,58.01,58.01
201911280847,58.01,58.01,58.01,58.01
201911280848,58.01,58.01,58.01,58.01
201911280849,58.01,58.01,58.01,58.01
201911280850,58.01,58.01,58,58
201911280851,58,58,58,58
201911280852,58,58.01,58,58.01
201911280853,58.01,58.01,58,58
201911280854,58,58,58,58
201911280855,58,58,57.96,57.96
201911280856,57.96,57.96,57.96,57.96
201911280857,57.96,57.96,57.95,57.96
201911280858,57.96,57.96,57.96,57.96
201911280859,57.96,57.96,57.96,57.96
201911280900,57.96,57.96,57.94,57.94
201911280901,57.94,57.94,57.93,57.94
201911280902,57.94,57.95,57.94,57.94
201911280903,57.94,57.94,57.93,57.93
201911280904,57.93,57.93,57.91,57.91
201911280905,57.91,57.91,57.9,57.9
201911280906,57.9,57.91,57.9,57.91
201911280907,57.91,57.91,57.91,57.91
201911280908,57.91,57.92,57.91,57.92
201911280909,57.92,57.93,57.91,57.92
201911280910,57.92,57.92,57.91,57.92
201911280911,57.92,57.93,57.92,57.92
201911280912,57.92,57.92,57.92,57.92
201911280913,57.92,57.92,57.91,57.91
201911280914,57.91,57.91,57.9,57.9
201911280915,57.9,57.9,57.89,57.89
201911280916,57.89,57.89,57.88,57.89
201911280917,57.89,57.89,57.89,57.89
201911280918,57.89,57.9,57.89,57.9
201911280919,57.9,57.93,57.9,57.93
201911280920,57.93,57.93,57.92,57.93
201911280921,57.93,57.93,57.92,57.92
201911280922,57.92,57.93,57.92,57.93
201911280923,57.93,57.93,57.93,57.93
201911280924,57.93,57.93,57.93,57.93
201911280925,57.93,57.93,57.92,57.92
201911280926,57.92,57.92,57.92,57.92
201911280927,57.92,57.92,57.92,57.92
201911280928,57.92,57.92,57.89,57.89
201911280929,57.89,57.9,57.89,57.89
201911280930,57.89,57.89,57.89,57.89
201911280931,57.89,57.89,57.87,57.87
201911280932,57.87,57.87,57.86,57.86
201911280933,57.86,57.87,57.86,57.87
201911280934,57.87,57.87,57.86,57.86
201911280935,57.86,57.87,57.86,57.87
201911280936,57.87,57.87,57.87,57.87
201911280937,57.87,57.88,57.87,57.88
201911280938,57.88,57.89,57.88,57.89
201911280939,57.89,57.89,57.88,57.88
201911280940,57.88,57.88,57.88,57.88
201911280941,57.88,57.88,57.83,57.83
201911280942,57.83,57.83,57.82,57.82
201911280943,57.82,57.83,57.8,57.8
201911280944,57.8,57.81,57.8,57.81
201911280945,57.81,57.82,57.81,57.82
201911280946,57.82,57.82,57.82,57.82
201911280947,57.82,57.82,57.81,57.81
201911280948,57.81,57.81,57.81,57.81
201911280949,57.81,57.81,57.81,57.81
201911280950,57.81,57.83,57.81,57.83
201911280951,57.83,57.83,57.82,57.82
201911280952,57.82,57.83,57.82,57.83
201911280953,57.83,57.84,57.83,57.83
201911280954,57.83,57.83,57.83,57.83
201911280955,57.83,57.83,57.82,57.82
201911280956,57.82,57.82,57.82,57.82
201911280957,57.82,57.83,57.82,57.83
201911280958,57.83,57.83,57.83,57.83
201911280959,57.83,57.84,57.83,57.84
201911281000,57.84,57.85,57.82,57.82
201911281001,57.82,57.83,57.8,57.81
201911281002,57.81,57.81,57.8,57.81
201911281003,57.81,57.82,57.8,57.82
201911281004,57.82,57.83,57.82,57.83
201911281005,57.83,57.84,57.82,57.84
201911281006,57.84,57.87,57.84,57.86
201911281007,57.86,57.86,57.85,57.85
201911281008,57.85,57.85,57.82,57.82
201911281009,57.82,57.84,57.82,57.83
201911281010,57.83,57.84,57.82,57.82
201911281011,57.82,57.82,57.81,57.81
201911281012,57.81,57.82,57.81,57.82
201911281013,57.82,57.83,57.82,57.82
201911281014,57.82,57.83,57.82,57.83
201911281015,57.83,57.84,57.82,57.83
201911281016,57.83,57.83,57.8,57.81
201911281017,57.81,57.82,57.81,57.82
201911281018,57.82,57.82,57.8,57.81
201911281019,57.81,57.81,57.81,57.81
201911281020,57.81,57.81,57.8,57.81
201911281021,57.81,57.82,57.81,57.82
201911281022,57.82,57.82,57.8,57.82
201911281023,57.82,57.82,57.81,57.82
201911281024,57.82,57.83,57.81,57.83
201911281025,57.83,57.83,57.83,57.83
201911281026,57.83,57.84,57.83,57.83
201911281027,57.83,57.85,57.83,57.84
201911281028,57.84,57.84,57.83,57.84
201911281029,57.84,57.84,57.82,57.83
201911281030,57.83,57.84,57.82,57.84
201911281031,57.84,57.85,57.83,57.85
201911281032,57.85,57.87,57.85,57.87
201911281033,57.86,57.87,57.86,57.86
201911281034,57.86,57.87,57.86,57.87
201911281035,57.87,57.88,57.85,57.85
201911281036,57.85,57.85,57.84,57.85
201911281037,57.85,57.86,57.85,57.85
201911281038,57.85,57.89,57.85,57.87
201911281039,57.87,57.88,57.87,57.88
201911281040,57.88,57.89,57.87,57.88
201911281041,57.88,57.88,57.88,57.88
201911281042,57.88,57.9,57.88,57.9
201911281043,57.9,57.9,57.9,57.9
201911281044,57.9,57.9,57.89,57.9
201911281045,57.9,57.9,57.88,57.88
201911281046,57.88,57.88,57.87,57.87
201911281047,57.87,57.88,57.87,57.88
201911281048,57.88,57.88,57.88,57.88
201911281049,57.88,57.88,57.87,57.87
201911281050,57.87,57.88,57.87,57.88
201911281051,57.88,57.88,57.87,57.87
201911281052,57.87,57.88,57.87,57.87
201911281053,57.87,57.87,57.87,57.87
201911281054,57.87,57.88,57.87,57.88
201911281055,57.88,57.88,57.88,57.88
201911281056,57.88,57.88,57.88,57.88
201911281057,57.88,57.9,57.88,57.89
201911281058,57.89,57.9,57.89,57.9
201911281059,57.9,57.9,57.89,57.9
201911281100,57.9,57.9,57.89,57.89
201911281101,57.89,57.89,57.88,57.88
201911281102,57.88,57.88,57.86,57.86
201911281103,57.86,57.86,57.86,57.86
201911281104,57.86,57.86,57.86,57.86
201911281105,57.86,57.86,57.86,57.86
201911281106,57.86,57.86,57.86,57.86
201911281107,57.86,57.86,57.86,57.86
201911281108,57.86,57.86,57.86,57.86
201911281109,57.86,57.86,57.86,57.86
201911281110,57.86,57.86,57.84,57.84
201911281111,57.84,57.84,57.83,57.84
201911281112,57.84,57.86,57.84,57.86
201911281113,57.86,57.86,57.85,57.86
201911281114,57.86,57.87,57.86,57.86
201911281115,57.86,57.86,57.85,57.85
201911281116,57.85,57.85,57.85,57.85
201911281117,57.85,57.86,57.84,57.84
201911281118,57.84,57.84,57.83,57.83
201911281119,57.83,57.84,57.83,57.84
201911281120,57.84,57.84,57.84,57.84
201911281121,57.84,57.84,57.83,57.84
201911281122,57.84,57.84,57.84,57.84
201911281123,57.84,57.84,57.84,57.84
201911281124,57.84,57.84,57.84,57.84
201911281125,57.84,57.84,57.84,57.84
201911281126,57.84,57.84,57.84,57.84
201911281127,57.84,57.84,57.83,57.83
201911281128,57.83,57.83,57.83,57.83
201911281129,57.83,57.84,57.83,57.84
201911281130,57.84,57.84,57.84,57.84
201911281131,57.84,57.84,57.83,57.83
201911281132,57.83,57.83,57.83,57.83
201911281133,57.83,57.83,57.83,57.83
201911281134,57.83,57.83,57.82,57.82
201911281135,57.82,57.83,57.82,57.83
201911281136,57.83,57.84,57.83,57.84
201911281137,57.84,57.85,57.83,57.85
201911281138,57.85,57.85,57.85,57.85
201911281139,57.85,57.85,57.85,57.85
201911281140,57.85,57.86,57.85,57.85
201911281141,57.85,57.86,57.85,57.86
201911281142,57.86,57.87,57.86,57.87
201911281143,57.87,57.88,57.87,57.87
201911281144,57.87,57.87,57.87,57.87
201911281145,57.87,57.87,57.87,57.87
201911281146,57.87,57.87,57.86,57.87
201911281147,57.87,57.87,57.86,57.86
201911281148,57.86,57.86,57.85,57.85
201911281149,57.85,57.85,57.85,57.85
201911281150,57.85,57.86,57.85,57.86
201911281151,57.86,57.86,57.86,57.86
201911281152,57.86,57.86,57.86,57.86
201911281153,57.86,57.86,57.85,57.85
201911281154,57.85,57.85,57.85,57.85
201911281155,57.85,57.85,57.85,57.85
201911281156,57.85,57.85,57.85,57.85
201911281157,57.85,57.85,57.85,57.85
201911281158,57.85,57.85,57.85,57.85
201911281159,57.85,57.87,57.85,57.87
201911281200,57.87,57.87,57.87,57.87
201911281201,57.87,57.87,57.86,57.87
201911281202,57.87,57.87,57.87,57.87
201911281203,57.87,57.87,57.87,57.87
201911281204,57.87,57.87,57.86,57.86
201911281205,57.86,57.88,57.86,57.87
201911281206,57.87,57.87,57.87,57.87
201911281207,57.87,57.87,57.86,57.86
201911281208,57.86,57.86,57.86,57.86
201911281209,57.86,57.86,57.85,57.85
201911281210,57.85,57.85,57.85,57.85
201911281211,57.85,57.86,57.84,57.86
201911281212,57.86,57.86,57.86,57.86
201911281213,57.86,57.86,57.86,57.86
201911281214,57.86,57.86,57.86,57.86
201911281215,57.86,57.86,57.85,57.86
201911281216,57.86,57.87,57.85,57.86
201911281217,57.86,57.86,57.86,57.86
201911281218,57.86,57.86,57.86,57.86
201911281219,57.86,57.86,57.86,57.86
201911281220,57.86,57.86,57.86,57.86
201911281221,57.86,57.86,57.84,57.84
201911281222,57.84,57.84,57.84,57.84
201911281223,57.84,57.84,57.84,57.84
201911281224,57.84,57.84,57.82,57.82
201911281225,57.82,57.83,57.82,57.83
201911281226,57.83,57.83,57.82,57.83
201911281227,57.83,57.84,57.83,57.84
201911281228,57.84,57.84,57.83,57.84
201911281229,57.84,57.84,57.83,57.84
201911281230,57.84,57.84,57.82,57.84
201911281231,57.84,57.84,57.83,57.84
201911281232,57.84,57.84,57.84,57.84
201911281233,57.84,57.85,57.84,57.85
201911281234,57.85,57.86,57.85,57.86
201911281235,57.86,57.87,57.86,57.87
201911281236,57.87,57.87,57.86,57.86
201911281237,57.86,57.87,57.85,57.87
201911281238,57.87,57.87,57.86,57.86
201911281239,57.86,57.86,57.86,57.86
201911281240,57.86,57.86,57.85,57.85
201911281241,57.85,57.85,57.85,57.85
201911281242,57.85,57.85,57.85,57.85
201911281243,57.85,57.85,57.85,57.85
201911281244,57.85,57.85,57.85,57.85
201911281245,57.85,57.85,57.85,57.85
201911281246,57.85,57.85,57.85,57.85
201911281247,57.85,57.85,57.85,57.85
201911281248,57.85,57.85,57.85,57.85
201911281249,57.85,57.86,57.85,57.86
201911281250,57.86,57.86,57.84,57.84
201911281251,57.84,57.85,57.84,57.85
201911281252,57.85,57.85,57.85,57.85
201911281253,57.85,57.86,57.85,57.86
201911281254,57.86,57.88,57.86,57.88
201911281255,57.88,57.88,57.88,57.88
201911281256,57.88,57.88,57.88,57.88
201911281257,57.88,57.88,57.88,57.88
201911281258,57.88,57.88,57.87,57.87
201911281259,57.87,57.88,57.87,57.88
201911281300,57.88,57.88,57.88,57.88
201911281301,57.88,57.88,57.88,57.88
201911281302,57.88,57.88,57.88,57.88
201911281303,57.88,57.88,57.88,57.88
201911281304,57.88,57.88,57.88,57.88
201911281305,57.88,57.88,57.88,57.88
201911281306,57.88,57.88,57.88,57.88
201911281307,57.88,57.88,57.88,57.88
201911281308,57.88,57.88,57.88,57.88
201911281309,57.88,57.88,57.87,57.87
201911281310,57.87,57.88,57.87,57.88
201911281311,57.88,57.88,57.87,57.87
201911281312,57.87,57.87,57.87,57.87
201911281313,57.87,57.87,57.87,57.87
201911281314,57.87,57.87,57.87,57.87
201911281315,57.87,57.87,57.87,57.87
201911281316,57.87,57.87,57.87,57.87
201911281317,57.87,57.87,57.87,57.87
201911281318,57.87,57.87,57.87,57.87
201911281319,57.87,57.87,57.86,57.87
201911281320,57.87,57.87,57.87,57.87
201911281321,57.87,57.87,57.87,57.87
201911281322,57.87,57.87,57.87,57.87
201911281323,57.87,57.87,57.87,57.87
201911281324,57.87,57.87,57.85,57.85
201911281325,57.85,57.85,57.85,57.85
201911281326,57.85,57.85,57.85,57.85
201911281327,57.85,57.85,57.85,57.85
201911281328,57.85,57.85,57.85,57.85
201911281329,57.85,57.85,57.85,57.85
201911281330,57.85,57.85,57.84,57.84
201911281331,57.84,57.84,57.84,57.84
201911281332,57.84,57.84,57.84,57.84
201911281333,57.84,57.84,57.83,57.83
201911281334,57.83,57.83,57.83,57.83
201911281335,57.83,57.83,57.83,57.83
201911281336,57.83,57.83,57.83,57.83
201911281337,57.83,57.83,57.83,57.83
201911281338,57.83,57.84,57.83,57.84
201911281339,57.84,57.84,57.84,57.84
201911281340,57.84,57.86,57.84,57.86
201911281341,57.86,57.87,57.86,57.86
201911281342,57.86,57.86,57.86,57.86
201911281343,57.86,57.86,57.86,57.86
201911281344,57.86,57.86,57.86,57.86
201911281345,57.86,57.86,57.86,57.86
201911281346,57.86,57.86,57.86,57.86
201911281347,57.86,57.89,57.86,57.88
201911281348,57.88,57.88,57.88,57.88
201911281349,57.88,57.88,57.87,57.87
201911281350,57.87,57.87,57.86,57.86
201911281351,57.86,57.86,57.86,57.86
201911281352,57.86,57.86,57.86,57.86
201911281353,57.86,57.86,57.85,57.86
201911281354,57.86,57.86,57.86,57.86
201911281355,57.86,57.87,57.85,57.86
201911281356,57.86,57.86,57.86,57.86
201911281357,57.86,57.86,57.86,57.86
201911281358,57.86,57.87,57.86,57.87
201911281359,57.87,57.87,57.87,57.87
201911281400,57.87,57.87,57.86,57.86
201911281401,57.86,57.86,57.86,57.86
201911281402,57.86,57.86,57.86,57.86
201911281403,57.86,57.86,57.85,57.86
201911281404,57.86,57.86,57.86,57.86
201911281405,57.86,57.86,57.86,57.86
201911281406,57.86,57.86,57.85,57.85
201911281407,57.85,57.85,57.85,57.85
201911281408,57.85,57.85,57.85,57.85
201911281409,57.85,57.86,57.85,57.86
201911281410,57.86,57.86,57.85,57.85
201911281411,57.85,57.85,57.85,57.85
201911281412,57.85,57.85,57.84,57.85
201911281413,57.85,57.86,57.84,57.86
201911281414,57.86,57.86,57.85,57.85
201911281415,57.85,57.85,57.85,57.85
201911281416,57.85,57.85,57.85,57.85
201911281417,57.85,57.85,57.84,57.85
201911281418,57.85,57.85,57.85,57.85
201911281419,57.85,57.85,57.85,57.85
201911281420,57.85,57.85,57.85,57.85
201911281421,57.85,57.86,57.85,57.86
201911281422,57.86,57.86,57.86,57.86
201911281423,57.86,57.86,57.86,57.86
201911281424,57.86,57.87,57.86,57.86
201911281425,57.86,57.86,57.85,57.85
201911281426,57.85,57.85,57.85,57.85
201911281427,57.85,57.85,57.85,57.85
201911281428,57.85,57.85,57.85,57.85
201911281429,57.85,57.85,57.85,57.85
201911281430,57.85,57.85,57.85,57.85
201911281431,57.85,57.86,57.84,57.85
201911281432,57.85,57.85,57.84,57.84
201911281433,57.84,57.85,57.84,57.84
201911281434,57.84,57.84,57.83,57.83
201911281435,57.83,57.84,57.83,57.83
201911281436,57.83,57.84,57.83,57.83
201911281437,57.83,57.83,57.82,57.83
201911281438,57.83,57.83,57.82,57.83
201911281439,57.83,57.83,57.82,57.83
201911281440,57.83,57.84,57.83,57.84
201911281441,57.84,57.84,57.83,57.83
201911281442,57.83,57.84,57.83,57.84
201911281443,57.84,57.84,57.83,57.83
201911281444,57.83,57.83,57.83,57.83
201911281445,57.83,57.84,57.83,57.83
201911281446,57.83,57.83,57.83,57.83
201911281447,57.83,57.83,57.83,57.83
201911281448,57.83,57.83,57.83,57.83
201911281449,57.83,57.83,57.83,57.83
201911281450,57.83,57.83,57.83,57.83
201911281451,57.83,57.84,57.83,57.84
201911281452,57.84,57.84,57.84,57.84
201911281453,57.84,57.84,57.84,57.84
201911281454,57.84,57.84,57.82,57.82
201911281455,57.82,57.82,57.82,57.82
201911281456,57.82,57.82,57.82,57.82
201911281457,57.82,57.82,57.82,57.82
201911281458,57.82,57.83,57.82,57.82
201911281459,57.82,57.82,57.81,57.82
201911281500,57.82,57.82,57.82,57.82
201911281501,57.82,57.83,57.82,57.82
201911281502,57.82,57.82,57.82,57.82
201911281503,57.82,57.82,57.82,57.82
201911281504,57.82,57.82,57.81,57.81
201911281505,57.81,57.81,57.8,57.8
201911281506,57.8,57.8,57.8,57.8
201911281507,57.8,57.8,57.78,57.78
201911281508,57.78,57.78,57.77,57.78
201911281509,57.78,57.79,57.78,57.79
201911281510,57.79,57.8,57.79,57.8
201911281511,57.8,57.8,57.8,57.8
201911281512,57.8,57.82,57.8,57.82
201911281513,57.82,57.82,57.82,57.82
201911281514,57.82,57.82,57.81,57.81
201911281515,57.81,57.83,57.8,57.83
201911281516,57.83,57.83,57.82,57.83
201911281517,57.83,57.83,57.83,57.83
201911281518,57.83,57.83,57.83,57.83
201911281519,57.83,57.84,57.82,57.84
201911281520,57.84,57.84,57.83,57.83
201911281521,57.83,57.83,57.83,57.83
201911281522,57.83,57.83,57.82,57.82
201911281523,57.82,57.82,57.8,57.81
201911281524,57.81,57.81,57.8,57.8
201911281525,57.8,57.8,57.8,57.8
201911281526,57.8,57.8,57.8,57.8
201911281527,57.8,57.8,57.8,57.8
201911281528,57.8,57.81,57.8,57.8
201911281529,57.8,57.8,57.79,57.79
201911281530,57.79,57.79,57.78,57.78
201911281531,57.78,57.78,57.78,57.78
201911281532,57.78,57.79,57.77,57.77
201911281533,57.77,57.78,57.77,57.77
201911281534,57.77,57.77,57.77,57.77
201911281535,57.77,57.77,57.76,57.77
201911281536,57.77,57.77,57.77,57.77
201911281537,57.77,57.77,57.77,57.77
201911281538,57.77,57.77,57.77,57.77
201911281539,57.77,57.77,57.77,57.77
201911281540,57.77,57.77,57.77,57.77
201911281541,57.77,57.78,57.77,57.78
201911281542,57.78,57.79,57.78,57.79
201911281543,57.79,57.79,57.78,57.78
201911281544,57.78,57.78,57.77,57.77
201911281545,57.77,57.78,57.77,57.78
201911281546,57.78,57.78,57.78,57.78
201911281547,57.78,57.78,57.77,57.77
201911281548,57.77,57.77,57.77,57.77
201911281549,57.77,57.77,57.77,57.77
201911281550,57.77,57.77,57.77,57.77
201911281551,57.77,57.77,57.77,57.77
201911281552,57.77,57.8,57.77,57.79
201911281553,57.79,57.8,57.79,57.8
201911281554,57.8,57.81,57.8,57.81
201911281555,57.81,57.81,57.81,57.81
201911281556,57.81,57.81,57.8,57.81
201911281557,57.81,57.82,57.81,57.81
201911281558,57.81,57.81,57.81,57.81
201911281559,57.81,57.82,57.81,57.81
201911281600,57.81,57.82,57.81,57.82
201911281601,57.82,57.82,57.81,57.82
201911281602,57.82,57.83,57.81,57.83
201911281603,57.83,57.83,57.82,57.83
201911281604,57.83,57.83,57.82,57.82
201911281605,57.82,57.83,57.81,57.82
201911281606,57.82,57.83,57.82,57.82
201911281607,57.82,57.83,57.82,57.82
201911281608,57.82,57.83,57.82,57.83
201911281609,57.83,57.83,57.83,57.83
201911281610,57.83,57.86,57.83,57.86
201911281611,57.86,57.86,57.85,57.85
201911281612,57.85,57.87,57.84,57.86
201911281613,57.86,57.86,57.85,57.86
201911281614,57.86,57.88,57.86,57.87
201911281615,57.87,57.87,57.86,57.86
201911281616,57.86,57.86,57.85,57.85
201911281617,57.85,57.87,57.85,57.86
201911281618,57.86,57.86,57.84,57.85
201911281619,57.85,57.86,57.84,57.84
201911281620,57.84,57.84,57.82,57.83
201911281621,57.83,57.83,57.81,57.82
201911281622,57.82,57.83,57.81,57.82
201911281623,57.82,57.83,57.81,57.82
201911281624,57.82,57.83,57.81,57.81
201911281625,57.81,57.81,57.81,57.81
201911281626,57.81,57.83,57.81,57.82
201911281627,57.82,57.82,57.81,57.81
201911281628,57.81,57.81,57.79,57.79
201911281629,57.79,57.8,57.79,57.79
201911281630,57.79,57.79,57.78,57.79
201911281631,57.79,57.8,57.79,57.8
201911281632,57.8,57.81,57.8,57.8
201911281633,57.8,57.8,57.8,57.8
201911281634,57.8,57.8,57.8,57.8
201911281635,57.8,57.8,57.76,57.76
201911281636,57.76,57.78,57.76,57.77
201911281637,57.77,57.78,57.77,57.78
201911281638,57.78,57.78,57.77,57.77
201911281639,57.77,57.78,57.77,57.77
201911281640,57.77,57.78,57.76,57.77
201911281641,57.77,57.78,57.77,57.77
201911281642,57.77,57.79,57.77,57.78
201911281643,57.78,57.78,57.77,57.77
201911281644,57.77,57.77,57.77,57.77
201911281645,57.77,57.77,57.76,57.76
201911281646,57.76,57.76,57.76,57.76
201911281647,57.76,57.77,57.76,57.76
201911281648,57.76,57.76,57.76,57.76
201911281649,57.76,57.78,57.76,57.76
201911281650,57.76,57.76,57.75,57.75
201911281651,57.75,57.77,57.74,57.77
201911281652,57.77,57.78,57.77,57.78
201911281653,57.78,57.79,57.78,57.78
201911281654,57.78,57.8,57.78,57.79
201911281655,57.79,57.79,57.75,57.75
201911281656,57.75,57.75,57.72,57.73
201911281657,57.73,57.74,57.72,57.73
201911281658,57.73,57.73,57.72,57.72
201911281659,57.72,57.72,57.72,57.72
201911281700,57.72,57.73,57.72,57.73
201911281701,57.73,57.73,57.72,57.73
201911281702,57.73,57.76,57.72,57.75
201911281703,57.75,57.75,57.74,57.74
201911281704,57.74,57.74,57.73,57.73
201911281705,57.73,57.73,57.7,57.71
201911281706,57.71,57.72,57.71,57.71
201911281707,57.71,57.71,57.67,57.67
201911281708,57.67,57.69,57.66,57.67
201911281709,57.67,57.69,57.66,57.68
201911281710,57.68,57.68,57.66,57.67
201911281711,57.67,57.67,57.65,57.67
201911281712,57.67,57.69,57.67,57.69
201911281713,57.69,57.71,57.69,57.7
201911281714,57.7,57.71,57.7,57.7
201911281715,57.7,57.7,57.69,57.7
201911281716,57.7,57.74,57.7,57.73
201911281717,57.73,57.74,57.71,57.71
201911281718,57.71,57.73,57.71,57.72
201911281719,57.72,57.73,57.71,57.72
201911281720,57.72,57.73,57.72,57.72
201911281721,57.72,57.74,57.71,57.74
201911281722,57.74,57.75,57.73,57.75
201911281723,57.75,57.75,57.72,57.74
201911281724,57.74,57.75,57.72,57.72
201911281725,57.73,57.73,57.71,57.71
201911281726,57.71,57.73,57.7,57.7
201911281727,57.7,57.73,57.7,57.72
201911281728,57.72,57.76,57.72,57.76
201911281729,57.76,57.78,57.73,57.74
201911281730,57.74,57.77,57.72,57.76
201911281731,57.76,57.77,57.74,57.74
201911281732,57.74,57.78,57.73,57.77
201911281733,57.77,57.77,57.76,57.76
201911281734,57.76,57.78,57.76,57.77
201911281735,57.77,57.78,57.77,57.78
201911281736,57.78,57.79,57.77,57.78
201911281737,57.78,57.79,57.78,57.78
201911281738,57.78,57.79,57.78,57.78
201911281739,57.78,57.8,57.78,57.8
201911281740,57.8,57.81,57.78,57.78
201911281741,57.78,57.79,57.76,57.77
201911281742,57.77,57.77,57.77,57.77
201911281743,57.77,57.77,57.76,57.77
201911281744,57.77,57.79,57.76,57.79
201911281745,57.79,57.8,57.78,57.78
201911281746,57.78,57.79,57.78,57.78
201911281747,57.78,57.79,57.77,57.77
201911281748,57.77,57.77,57.76,57.76
201911281749,57.76,57.78,57.76,57.77
201911281750,57.77,57.78,57.77,57.77
201911281751,57.77,57.78,57.76,57.77
201911281752,57.77,57.77,57.77,57.77
201911281753,57.77,57.77,57.76,57.77
201911281754,57.77,57.77,57.75,57.76
201911281755,57.76,57.77,57.75,57.75
201911281756,57.75,57.76,57.75,57.75
201911281757,57.75,57.75,57.74,57.74
201911281758,57.74,57.75,57.73,57.75
201911281759,57.74,57.75,57.7,57.72
201911281800,57.72,57.73,57.71,57.72
201911281801,57.72,57.74,57.72,57.74
201911281802,57.74,57.75,57.74,57.75
201911281803,57.75,57.76,57.73,57.73
201911281804,57.73,57.74,57.73,57.73
201911281805,57.73,57.74,57.73,57.74
201911281806,57.74,57.74,57.73,57.73
201911281807,57.73,57.73,57.72,57.73
201911281808,57.73,57.73,57.72,57.73
201911281809,57.73,57.74,57.7,57.71
201911281810,57.71,57.73,57.71,57.73
201911281811,57.73,57.75,57.72,57.75
201911281812,57.75,57.75,57.73,57.73
201911281813,57.73,57.74,57.72,57.74
201911281814,57.74,57.74,57.73,57.73
201911281815,57.73,57.73,57.72,57.72
201911281816,57.72,57.72,57.71,57.72
201911281817,57.72,57.72,57.72,57.72
201911281818,57.72,57.72,57.72,57.72
201911281819,57.72,57.72,57.71,57.72
201911281820,57.72,57.72,57.7,57.71
201911281821,57.71,57.72,57.71,57.71
201911281822,57.71,57.71,57.71,57.71
201911281823,57.71,57.71,57.69,57.7
201911281824,57.7,57.72,57.69,57.71
201911281825,57.71,57.71,57.7,57.7
201911281826,57.7,57.7,57.69,57.69
201911281827,57.69,57.7,57.69,57.7
201911281828,57.7,57.71,57.69,57.7
201911281829,57.7,57.7,57.7,57.7
201911281830,57.71,57.71,57.68,57.69
201911281831,57.69,57.7,57.68,57.68
201911281832,57.68,57.69,57.67,57.69
201911281833,57.69,57.69,57.67,57.67
201911281834,57.67,57.68,57.65,57.67
201911281835,57.67,57.67,57.66,57.67
201911281836,57.67,57.68,57.67,57.67
201911281837,57.67,57.67,57.65,57.65
201911281838,57.65,57.67,57.65,57.66
201911281839,57.66,57.67,57.66,57.67
201911281840,57.67,57.69,57.67,57.67
201911281841,57.67,57.7,57.67,57.68
201911281842,57.68,57.69,57.67,57.68
201911281843,57.68,57.68,57.67,57.68
201911281844,57.68,57.69,57.67,57.68
201911281845,57.68,57.69,57.67,57.67
201911281846,57.67,57.68,57.67,57.68
201911281847,57.68,57.69,57.68,57.68
201911281848,57.68,57.69,57.68,57.69
201911281849,57.69,57.7,57.69,57.7
201911281850,57.7,57.7,57.69,57.7
201911281851,57.7,57.71,57.7,57.7
201911281852,57.7,57.73,57.7,57.72
201911281853,57.72,57.74,57.72,57.72
201911281854,57.72,57.72,57.7,57.71
201911281855,57.71,57.71,57.68,57.69
201911281856,57.69,57.69,57.68,57.69
201911281857,57.69,57.7,57.69,57.69
201911281858,57.69,57.7,57.69,57.7
201911281859,57.7,57.7,57.7,57.7
201911281900,57.7,57.71,57.69,57.69
201911281901,57.69,57.69,57.67,57.68
201911281902,57.68,57.68,57.67,57.67
201911281903,57.67,57.67,57.67,57.67
201911281904,57.67,57.68,57.66,57.66
201911281905,57.66,57.66,57.62,57.65
201911281906,57.65,57.66,57.65,57.66
201911281907,57.66,57.68,57.66,57.67
201911281908,57.67,57.68,57.67,57.67
201911281909,57.67,57.69,57.67,57.68
201911281910,57.68,57.68,57.66,57.66
201911281911,57.66,57.68,57.66,57.68
201911281912,57.68,57.69,57.68,57.68
201911281913,57.68,57.7,57.68,57.69
201911281914,57.69,57.71,57.67,57.68
201911281915,57.68,57.68,57.65,57.65
201911281916,57.65,57.66,57.65,57.65
201911281917,57.65,57.66,57.64,57.64
201911281918,57.64,57.68,57.64,57.67
201911281919,57.67,57.69,57.67,57.69
201911281920,57.69,57.69,57.67,57.68
201911281921,57.68,57.7,57.68,57.7
201911281922,57.69,57.73,57.69,57.72
201911281923,57.72,57.72,57.71,57.71
201911281924,57.71,57.72,57.7,57.71
201911281925,57.71,57.71,57.71,57.71
201911281926,57.71,57.72,57.71,57.72
201911281927,57.72,57.73,57.72,57.72
201911281928,57.72,57.72,57.71,57.71
201911281929,57.71,57.72,57.71,57.71
201911281930,57.71,57.73,57.71,57.73
201911281931,57.73,57.73,57.71,57.72
201911281932,57.72,57.74,57.72,57.73
201911281933,57.73,57.74,57.72,57.73
201911281934,57.73,57.74,57.73,57.74
201911281935,57.74,57.77,57.74,57.77
201911281936,57.77,57.81,57.77,57.81
201911281937,57.8,57.84,57.8,57.83
201911281938,57.83,57.84,57.82,57.82
201911281939,57.82,57.82,57.8,57.81
201911281940,57.81,57.82,57.8,57.8
201911281941,57.8,57.82,57.8,57.81
201911281942,57.81,57.82,57.81,57.82
201911281943,57.82,57.82,57.8,57.82
201911281944,57.82,57.83,57.81,57.82
201911281945,57.82,57.84,57.81,57.83
201911281946,57.83,57.86,57.83,57.85
201911281947,57.85,57.85,57.83,57.84
201911281948,57.84,57.84,57.83,57.84
201911281949,57.84,57.85,57.83,57.83
201911281950,57.82,57.84,57.82,57.83
201911281951,57.83,57.84,57.82,57.83
201911281952,57.83,57.84,57.82,57.83
201911281953,57.83,57.83,57.82,57.83
201911281954,57.83,57.84,57.83,57.83
201911281955,57.83,57.83,57.83,57.83
201911281956,57.83,57.83,57.82,57.82
201911281957,57.82,57.83,57.82,57.83
201911281958,57.83,57.83,57.82,57.83
201911281959,57.83,57.85,57.83,57.83
201911282000,57.83,57.87,57.83,57.86
201911282001,57.86,57.88,57.86,57.87
201911282002,57.87,57.88,57.87,57.88
201911282003,57.88,57.92,57.88,57.91
201911282004,57.91,57.93,57.91,57.93
201911282005,57.93,57.95,57.93,57.94
201911282006,57.94,57.95,57.94,57.94
201911282007,57.94,57.94,57.92,57.93
201911282008,57.93,57.94,57.93,57.94
201911282009,57.94,57.95,57.94,57.95
201911282010,57.95,57.98,57.95,57.96
201911282011,57.96,57.97,57.95,57.97
201911282012,57.97,57.98,57.95,57.97
201911282013,57.97,57.98,57.97,57.97
201911282014,57.97,57.97,57.96,57.96
201911282015,57.96,57.96,57.94,57.95
201911282016,57.95,57.95,57.93,57.93
201911282017,57.93,57.95,57.92,57.94
201911282018,57.94,57.96,57.94,57.94
201911282019,57.94,57.94,57.94,57.94
201911282020,57.94,57.95,57.93,57.93
201911282021,57.93,57.93,57.93,57.93
201911282022,57.93,57.93,57.93,57.93
201911282023,57.93,57.94,57.92,57.93
201911282024,57.93,57.93,57.91,57.92
201911282025,57.92,57.93,57.91,57.92
201911282026,57.92,57.93,57.92,57.92
201911282027,57.92,57.93,57.92,57.93
201911282028,57.93,57.94,57.93,57.93
201911282029,57.93,57.93,57.91,57.93
201911282030,57.93,57.95,57.93,57.95
201911282031,57.95,57.96,57.94,57.96
201911282032,57.96,57.96,57.93,57.93
201911282033,57.93,57.94,57.93,57.93
201911282034,57.93,57.94,57.92,57.93
201911282035,57.93,57.94,57.93,57.94
201911282036,57.94,57.95,57.93,57.95
201911282037,57.95,57.96,57.95,57.96
201911282038,57.96,58,57.96,57.99
201911282039,57.99,57.99,57.97,57.97
201911282040,57.97,57.98,57.97,57.98
201911282041,57.98,57.99,57.98,57.98
201911282042,57.98,57.99,57.98,57.99
201911282043,57.99,58.01,57.99,58
201911282044,58,58,57.98,57.98
201911282045,57.98,58,57.98,57.99
201911282046,57.99,58,57.98,57.98
201911282047,57.98,57.99,57.96,57.97
201911282048,57.97,57.99,57.97,57.98
201911282049,57.98,57.98,57.97,57.98
201911282050,57.98,57.98,57.97,57.97
201911282051,57.98,57.98,57.96,57.97
201911282052,57.97,57.98,57.96,57.96
201911282053,57.96,57.96,57.95,57.95
201911282054,57.95,57.95,57.94,57.94
201911282055,57.94,57.95,57.94,57.94
201911282056,57.94,57.95,57.93,57.95
201911282057,57.95,57.98,57.95,57.98
201911282058,57.98,57.98,57.97,57.97
201911282059,57.97,57.98,57.97,57.97
201911282100,57.97,57.99,57.97,57.97
201911282101,57.97,57.99,57.96,57.99
201911282102,57.99,58,57.99,57.99
201911282103,57.99,57.99,57.99,57.99
201911282104,57.99,57.99,57.97,57.97
201911282105,57.97,57.98,57.94,57.94
201911282106,57.94,57.94,57.86,57.87
201911282107,57.87,57.88,57.83,57.84
201911282108,57.84,57.84,57.82,57.84
201911282109,57.84,57.84,57.83,57.84
201911282110,57.84,57.85,57.83,57.84
201911282111,57.84,57.85,57.83,57.83
201911282112,57.83,57.83,57.82,57.83
201911282113,57.83,57.85,57.83,57.84
201911282114,57.84,57.85,57.83,57.85
201911282115,57.85,57.85,57.83,57.84
201911282116,57.84,57.85,57.84,57.85
201911282117,57.85,57.85,57.85,57.85
201911282118,57.85,57.85,57.83,57.83
201911282119,57.83,57.86,57.83,57.83
201911282120,57.83,57.85,57.83,57.85
201911282121,57.85,57.86,57.84,57.86
201911282122,57.86,57.87,57.86,57.86
201911282123,57.86,57.88,57.86,57.88
201911282124,57.88,57.89,57.86,57.86
201911282125,57.86,57.87,57.85,57.85
201911282126,57.85,57.87,57.85,57.86
201911282127,57.86,57.87,57.85,57.86
201911282128,57.86,57.87,57.86,57.87
201911282129,57.87,57.9,57.87,57.89
201911282130,57.89,57.9,57.88,57.88
201911282131,57.88,57.88,57.87,57.88
201911282132,57.88,57.89,57.88,57.89
201911282133,57.89,57.9,57.89,57.9
201911282134,57.9,57.9,57.89,57.89
201911282135,57.89,57.91,57.89,57.89
201911282136,57.89,57.89,57.86,57.88
201911282137,57.88,57.88,57.85,57.85
201911282138,57.85,57.86,57.85,57.85
201911282139,57.85,57.87,57.85,57.87
201911282140,57.87,57.87,57.87,57.87
201911282141,57.87,57.88,57.86,57.87
201911282142,57.87,57.88,57.86,57.87
201911282143,57.87,57.87,57.86,57.87
201911282144,57.87,57.87,57.86,57.87
201911282145,57.87,57.88,57.87,57.87
201911282146,57.87,57.87,57.85,57.87
201911282147,57.87,57.87,57.87,57.87
201911282148,57.87,57.88,57.87,57.88
201911282149,57.88,57.88,57.87,57.87
201911282150,57.87,57.88,57.85,57.86
201911282151,57.86,57.87,57.84,57.85
201911282152,57.85,57.85,57.83,57.84
201911282153,57.84,57.86,57.84,57.85
201911282154,57.85,57.85,57.84,57.84
201911282155,57.84,57.86,57.84,57.84
201911282156,57.84,57.85,57.84,57.85
201911282157,57.85,57.86,57.85,57.86
201911282158,57.86,57.87,57.86,57.86
201911282159,57.86,57.87,57.86,57.87
201911282200,57.87,57.89,57.86,57.88
201911282201,57.88,57.88,57.84,57.85
201911282202,57.85,57.85,57.83,57.84
201911282203,57.84,57.87,57.84,57.86
201911282204,57.86,57.86,57.85,57.85
201911282205,57.85,57.88,57.85,57.87
201911282206,57.87,57.88,57.87,57.88
201911282207,57.88,57.89,57.87,57.89
201911282208,57.89,57.89,57.87,57.87
201911282209,57.87,57.87,57.85,57.86
201911282210,57.86,57.89,57.86,57.89
201911282211,57.89,57.9,57.89,57.9
201911282212,57.9,57.93,57.89,57.92
201911282213,57.92,57.92,57.88,57.89
201911282214,57.89,57.9,57.88,57.89
201911282215,57.89,57.9,57.88,57.88
201911282216,57.88,57.89,57.87,57.89
201911282217,57.89,57.89,57.88,57.89
201911282218,57.89,57.89,57.88,57.88
201911282219,57.88,57.88,57.88,57.88
201911282220,57.88,57.89,57.88,57.89
201911282221,57.89,57.9,57.89,57.9
201911282222,57.9,57.9,57.89,57.9
201911282223,57.9,57.91,57.88,57.91
201911282224,57.91,57.92,57.91,57.91
201911282225,57.91,57.92,57.9,57.91
201911282226,57.91,57.92,57.91,57.91
201911282227,57.91,57.92,57.89,57.9
201911282228,57.9,57.9,57.89,57.9
201911282229,57.9,57.9,57.89,57.9
201911282230,57.9,57.92,57.9,57.92
201911282231,57.92,57.92,57.91,57.91
201911282232,57.91,57.92,57.91,57.92
201911282233,57.92,57.92,57.92,57.92
201911282234,57.92,57.93,57.92,57.93
201911282235,57.93,57.94,57.92,57.93
201911282236,57.93,57.94,57.93,57.93
201911282237,57.93,57.93,57.92,57.93
201911282238,57.93,57.94,57.93,57.93
201911282239,57.93,57.94,57.93,57.93
201911282240,57.93,57.94,57.92,57.92
201911282241,57.92,57.94,57.92,57.93
201911282242,57.93,57.93,57.92,57.93
201911282243,57.93,57.93,57.93,57.93
201911282244,57.93,57.93,57.9,57.9
201911282245,57.9,57.9,57.88,57.9
201911282246,57.9,57.9,57.88,57.88
201911282247,57.88,57.9,57.88,57.89
201911282248,57.89,57.9,57.89,57.89
201911282249,57.89,57.9,57.88,57.9
201911282250,57.9,57.92,57.89,57.9
201911282251,57.9,57.9,57.89,57.9
201911282252,57.9,57.91,57.89,57.9
201911282253,57.9,57.91,57.89,57.91
201911282254,57.91,57.94,57.9,57.94
201911282255,57.94,57.95,57.93,57.94
201911282256,57.94,57.96,57.93,57.95
201911282257,57.95,57.95,57.93,57.93
201911282258,57.93,57.93,57.88,57.89
201911282259,57.89,57.9,57.86,57.87
201911282300,57.87,57.88,57.87,57.88
201911282301,57.88,57.88,57.82,57.83
201911282302,57.83,57.83,57.78,57.78
201911282303,57.78,57.82,57.74,57.82
201911282304,57.82,57.83,57.8,57.81
201911282305,57.81,57.82,57.79,57.81
201911282306,57.81,57.83,57.81,57.82
201911282307,57.82,57.83,57.81,57.82
201911282308,57.82,57.83,57.81,57.81
201911282309,57.81,57.81,57.79,57.8
201911282310,57.8,57.8,57.79,57.8
201911282311,57.8,57.82,57.79,57.82
201911282312,57.82,57.82,57.81,57.82
201911282313,57.82,57.83,57.82,57.83
201911282314,57.83,57.85,57.83,57.83
201911282315,57.83,57.88,57.83,57.87
201911282316,57.87,57.88,57.87,57.88
201911282317,57.88,57.88,57.86,57.88
201911282318,57.88,57.89,57.88,57.89
201911282319,57.89,57.93,57.89,57.93
201911282320,57.93,57.93,57.91,57.92
201911282321,57.92,57.92,57.9,57.91
201911282322,57.91,57.91,57.9,57.9
201911282323,57.9,57.91,57.89,57.9
201911282324,57.9,57.91,57.9,57.91
201911282325,57.91,57.93,57.91,57.92
201911282326,57.92,57.93,57.92,57.93
201911282327,57.93,57.93,57.9,57.9
201911282328,57.9,57.91,57.9,57.91
201911282329,57.91,57.92,57.9,57.91
201911282330,57.91,57.92,57.91,57.92
201911282331,57.92,57.93,57.92,57.93
201911282332,57.93,57.93,57.92,57.92
201911282333,57.92,57.92,57.89,57.89
201911282334,57.89,57.89,57.89,57.89
201911282335,57.89,57.89,57.88,57.88
201911282336,57.88,57.89,57.87,57.87
201911282337,57.87,57.89,57.87,57.87
201911282338,57.87,57.88,57.87,57.88
201911282339,57.88,57.91,57.88,57.91
201911282340,57.91,57.94,57.91,57.93
201911282341,57.93,57.93,57.91,57.91
201911282342,57.91,57.92,57.89,57.89
201911282343,57.89,57.91,57.89,57.9
201911282344,57.9,57.91,57.89,57.9
201911282345,57.9,57.91,57.89,57.9
201911282346,57.9,57.9,57.89,57.89
201911282347,57.89,57.9,57.88,57.9
201911282348,57.9,57.9,57.89,57.89
201911282349,57.89,57.9,57.89,57.9
201911282350,57.9,57.92,57.9,57.92
201911282351,57.92,57.92,57.9,57.9
201911282352,57.9,57.92,57.9,57.92
201911282353,57.92,57.92,57.9,57.91
201911282354,57.91,57.91,57.9,57.91
201911282355,57.91,57.92,57.91,57.92
201911282356,57.92,57.92,57.91,57.91
201911282357,57.91,57.92,57.91,57.92
201911282358,57.92,57.93,57.91,57.93
201911282359,57.93,57.93,57.92,57.92
201911290000,57.92,57.92,57.91,57.92
201911290001,57.92,57.93,57.92,57.92
201911290002,57.92,57.94,57.92,57.93
201911290003,57.93,57.93,57.92,57.92
201911290004,57.92,57.94,57.92,57.93
201911290005,57.93,57.93,57.91,57.93
201911290006,57.93,57.93,57.92,57.92
201911290007,57.92,57.93,57.92,57.92
201911290008,57.92,57.93,57.92,57.92
201911290009,57.92,57.93,57.92,57.92
201911290010,57.92,57.92,57.92,57.92
201911290011,57.92,57.93,57.92,57.92
201911290012,57.92,57.93,57.91,57.91
201911290013,57.91,57.92,57.91,57.91
201911290014,57.91,57.93,57.91,57.93
201911290015,57.93,57.95,57.93,57.95
201911290016,57.95,57.99,57.94,57.99
201911290017,57.99,58.08,57.98,58.07
201911290018,58.07,58.08,58.03,58.03
201911290019,58.03,58.05,58.03,58.05
201911290020,58.05,58.06,58.03,58.03
201911290021,58.03,58.04,58.01,58.01
201911290022,58.01,58.03,57.99,57.99
201911290023,57.99,58,57.98,57.98
201911290024,57.98,58.01,57.98,58
201911290025,58,58,57.99,58
201911290026,58,58,57.99,57.99
201911290027,57.99,57.99,57.96,57.96
201911290028,57.96,57.96,57.89,57.9
201911290029,57.9,57.93,57.9,57.91
201911290030,57.91,57.93,57.91,57.91
201911290031,57.91,57.92,57.89,57.9
201911290032,57.9,57.9,57.85,57.86
201911290033,57.86,57.86,57.84,57.85
201911290034,57.85,57.86,57.83,57.84
201911290035,57.84,57.86,57.84,57.86
201911290036,57.86,57.86,57.84,57.86
201911290037,57.86,57.86,57.85,57.86
201911290038,57.86,57.9,57.86,57.9
201911290039,57.9,57.9,57.88,57.89
201911290040,57.89,57.9,57.88,57.9
201911290041,57.9,57.9,57.89,57.9
201911290042,57.9,57.9,57.86,57.87
201911290043,57.87,57.87,57.85,57.86
201911290044,57.86,57.87,57.79,57.8
201911290045,57.8,57.84,57.8,57.83
201911290046,57.83,57.84,57.8,57.82
201911290047,57.82,57.82,57.8,57.8
201911290048,57.8,57.81,57.77,57.8
201911290049,57.8,57.84,57.8,57.83
201911290050,57.83,57.83,57.8,57.83
201911290051,57.83,57.83,57.78,57.78
201911290052,57.78,57.79,57.77,57.79
201911290053,57.79,57.8,57.77,57.78
201911290054,57.78,57.8,57.77,57.78
201911290055,57.78,57.8,57.77,57.79
201911290056,57.79,57.81,57.79,57.81
201911290057,57.81,57.82,57.8,57.8
201911290058,57.8,57.81,57.8,57.8
201911290059,57.8,57.81,57.78,57.79
201911290100,57.79,57.81,57.78,57.8
201911290101,57.8,57.83,57.8,57.83
201911290102,57.83,57.83,57.8,57.82
201911290103,57.82,57.85,57.82,57.85
201911290104,57.85,57.86,57.83,57.84
201911290105,57.84,57.86,57.83,57.85
201911290106,57.85,57.86,57.84,57.86
201911290107,57.86,57.88,57.85,57.85
201911290108,57.85,57.86,57.81,57.83
201911290109,57.83,57.83,57.81,57.81
201911290110,57.81,57.81,57.78,57.79
201911290111,57.79,57.8,57.78,57.78
201911290112,57.78,57.78,57.75,57.76
201911290113,57.76,57.77,57.74,57.77
201911290114,57.77,57.77,57.74,57.77
201911290115,57.77,57.78,57.75,57.77
201911290116,57.77,57.78,57.76,57.76
201911290117,57.76,57.78,57.76,57.77
201911290118,57.77,57.79,57.77,57.79
201911290119,57.79,57.81,57.78,57.79
201911290120,57.79,57.8,57.78,57.8
201911290121,57.8,57.8,57.77,57.78
201911290122,57.78,57.78,57.77,57.78
201911290123,57.78,57.78,57.73,57.74
201911290124,57.74,57.74,57.72,57.73
201911290125,57.73,57.73,57.7,57.7
201911290126,57.7,57.72,57.69,57.7
201911290127,57.7,57.71,57.68,57.68
201911290128,57.68,57.72,57.67,57.72
201911290129,57.72,57.78,57.69,57.77
201911290130,57.77,57.83,57.74,57.81
201911290131,57.81,57.83,57.79,57.83
201911290132,57.83,57.84,57.82,57.82
201911290133,57.82,57.82,57.81,57.81
201911290134,57.81,57.82,57.8,57.82
201911290135,57.82,57.83,57.8,57.81
201911290136,57.81,57.82,57.81,57.82
201911290137,57.82,57.83,57.82,57.82
201911290138,57.82,57.85,57.82,57.84
201911290139,57.84,57.87,57.84,57.86
201911290140,57.86,57.87,57.84,57.86
201911290141,57.86,57.86,57.83,57.83
201911290142,57.83,57.83,57.82,57.83
201911290143,57.83,57.84,57.82,57.84
201911290144,57.84,57.84,57.83,57.84
201911290145,57.84,57.86,57.83,57.84
201911290146,57.84,57.84,57.84,57.84
201911290147,57.84,57.84,57.84,57.84
201911290148,57.84,57.85,57.84,57.85
201911290149,57.85,57.86,57.84,57.85
201911290150,57.85,57.85,57.84,57.85
201911290151,57.85,57.85,57.85,57.85
201911290152,57.85,57.86,57.85,57.85
201911290153,57.85,57.86,57.85,57.86
201911290154,57.86,57.87,57.86,57.86
201911290155,57.86,57.86,57.85,57.85
201911290156,57.85,57.86,57.84,57.84
201911290157,57.84,57.85,57.84,57.84
201911290158,57.84,57.86,57.84,57.84
201911290159,57.84,57.85,57.84,57.84
201911290200,57.84,57.85,57.84,57.85
201911290201,57.85,57.85,57.85,57.85
201911290202,57.85,57.86,57.85,57.86
201911290203,57.86,57.88,57.86,57.88
201911290204,57.88,57.9,57.88,57.9
201911290205,57.9,57.9,57.9,57.9
201911290206,57.9,57.9,57.89,57.9
201911290207,57.9,57.9,57.89,57.9
201911290208,57.9,57.9,57.89,57.9
201911290209,57.9,57.92,57.89,57.91
201911290210,57.91,57.92,57.91,57.91
201911290211,57.91,57.91,57.9,57.9
201911290212,57.9,57.92,57.9,57.91
201911290213,57.91,57.92,57.91,57.92
201911290214,57.92,57.93,57.91,57.92
201911290215,57.92,57.93,57.92,57.92
201911290216,57.92,57.92,57.91,57.92
201911290217,57.92,57.92,57.91,57.92
201911290218,57.92,57.99,57.92,57.99
201911290219,57.99,58.01,57.99,57.99
201911290220,57.99,58.01,57.99,58.01
201911290221,58.01,58.01,57.98,57.98
201911290222,57.98,57.99,57.96,57.97
201911290223,57.97,57.97,57.95,57.95
201911290224,57.95,57.95,57.93,57.93
201911290225,57.93,57.94,57.91,57.94
201911290226,57.94,57.96,57.94,57.96
201911290227,57.96,57.96,57.95,57.96
201911290228,57.96,57.96,57.95,57.96
201911290229,57.96,58.02,57.96,58.01
201911290230,58.01,58.04,58.01,58.02
201911290231,58.02,58.05,58.02,58.04
201911290232,58.04,58.04,58.02,58.03
201911290233,58.03,58.03,58.02,58.03
201911290234,58.03,58.05,58.02,58.03
201911290235,58.03,58.05,58.02,58.04
201911290236,58.04,58.04,58.03,58.03
201911290237,58.03,58.04,58.02,58.03
201911290238,58.03,58.04,58.02,58.03
201911290239,58.03,58.06,58.03,58.06
201911290240,58.06,58.06,58.03,58.03
201911290241,58.03,58.04,58.03,58.04
201911290242,58.04,58.05,58.04,58.04
201911290243,58.04,58.04,58.04,58.04
201911290244,58.04,58.05,58.04,58.04
201911290245,58.05,58.06,58.04,58.04
201911290246,58.04,58.08,58.04,58.07
201911290247,58.07,58.08,58.06,58.06
201911290248,58.06,58.07,58.06,58.07
201911290249,58.07,58.11,58.07,58.11
201911290250,58.11,58.18,58.11,58.17
201911290251,58.17,58.19,58.11,58.11
201911290252,58.11,58.12,58.11,58.12
201911290253,58.12,58.14,58.11,58.14
201911290254,58.14,58.16,58.13,58.16
201911290255,58.16,58.18,58.15,58.16
201911290256,58.16,58.16,58.14,58.14
201911290257,58.14,58.18,58.13,58.18
201911290258,58.18,58.23,58.18,58.22
201911290259,58.22,58.28,58.21,58.24
