日時,始値(BID),高値(BID),安値(BID),終値(BID)
201911150800,56.9,56.9,56.85,56.87
201911150801,56.87,56.87,56.85,56.86
201911150802,56.86,56.86,56.85,56.86
201911150803,56.86,56.86,56.85,56.86
201911150804,56.86,56.87,56.84,56.86
201911150805,56.86,56.87,56.86,56.86
201911150806,56.86,56.86,56.85,56.86
201911150807,56.86,56.86,56.86,56.86
201911150808,56.86,56.86,56.85,56.85
201911150809,56.85,56.85,56.85,56.85
201911150810,56.85,56.86,56.85,56.86
201911150811,56.86,56.86,56.85,56.86
201911150812,56.86,56.86,56.86,56.86
201911150813,56.86,56.87,56.86,56.86
201911150814,56.86,56.87,56.86,56.87
201911150815,56.87,56.87,56.85,56.86
201911150816,56.86,56.87,56.86,56.87
201911150817,56.87,56.87,56.87,56.87
201911150818,56.87,56.87,56.87,56.87
201911150819,56.87,56.87,56.87,56.87
201911150820,56.87,56.87,56.86,56.86
201911150821,56.86,56.88,56.86,56.87
201911150822,56.87,56.87,56.87,56.87
201911150823,56.87,56.87,56.87,56.87
201911150824,56.87,56.88,56.87,56.88
201911150825,56.88,56.88,56.87,56.87
201911150826,56.87,56.88,56.87,56.87
201911150827,56.87,56.88,56.87,56.88
201911150828,56.88,56.88,56.88,56.88
201911150829,56.88,56.88,56.87,56.87
201911150830,56.87,56.87,56.87,56.87
201911150831,56.87,56.88,56.87,56.87
201911150832,56.87,56.88,56.87,56.87
201911150833,56.87,56.88,56.87,56.88
201911150834,56.88,56.88,56.88,56.88
201911150835,56.88,56.88,56.88,56.88
201911150836,56.88,56.88,56.88,56.88
201911150837,56.88,56.88,56.87,56.87
201911150838,56.87,56.87,56.87,56.87
201911150839,56.87,56.87,56.87,56.87
201911150840,56.87,56.88,56.87,56.87
201911150841,56.87,56.87,56.87,56.87
201911150842,56.87,56.9,56.87,56.9
201911150843,56.9,56.9,56.9,56.9
201911150844,56.9,56.91,56.9,56.91
201911150845,56.91,56.92,56.91,56.91
201911150846,56.91,56.92,56.91,56.92
201911150847,56.92,56.92,56.92,56.92
201911150848,56.92,56.92,56.9,56.9
201911150849,56.9,56.91,56.9,56.91
201911150850,56.91,56.91,56.91,56.91
201911150851,56.91,56.91,56.91,56.91
201911150852,56.91,56.91,56.91,56.91
201911150853,56.91,56.92,56.91,56.92
201911150854,56.92,56.92,56.92,56.92
201911150855,56.92,56.95,56.92,56.95
201911150856,56.95,56.95,56.95,56.95
201911150857,56.95,56.96,56.95,56.96
201911150858,56.96,56.97,56.95,56.97
201911150859,56.97,56.97,56.97,56.97
201911150900,56.97,56.98,56.97,56.98
201911150901,56.98,56.98,56.98,56.98
201911150902,56.98,56.98,56.95,56.95
201911150903,56.95,56.95,56.93,56.93
201911150904,56.93,56.93,56.92,56.92
201911150905,56.92,56.94,56.92,56.93
201911150906,56.93,56.94,56.93,56.94
201911150907,56.94,56.94,56.93,56.94
201911150908,56.94,56.95,56.93,56.94
201911150909,56.94,56.95,56.94,56.95
201911150910,56.95,56.95,56.93,56.93
201911150911,56.93,56.93,56.91,56.92
201911150912,56.92,56.93,56.91,56.93
201911150913,56.93,56.93,56.93,56.93
201911150914,56.93,56.93,56.92,56.93
201911150915,56.93,56.93,56.92,56.93
201911150916,56.93,56.93,56.91,56.91
201911150917,56.91,56.91,56.91,56.91
201911150918,56.91,56.91,56.9,56.9
201911150919,56.9,56.9,56.88,56.88
201911150920,56.88,56.88,56.87,56.88
201911150921,56.88,56.88,56.86,56.87
201911150922,56.87,56.87,56.84,56.85
201911150923,56.85,56.85,56.83,56.84
201911150924,56.84,56.84,56.83,56.84
201911150925,56.84,56.85,56.84,56.85
201911150926,56.85,56.86,56.85,56.86
201911150927,56.86,56.86,56.86,56.86
201911150928,56.86,56.87,56.86,56.86
201911150929,56.86,56.86,56.85,56.85
201911150930,56.85,56.87,56.85,56.87
201911150931,56.87,56.87,56.87,56.87
201911150932,56.87,56.88,56.87,56.88
201911150933,56.88,56.88,56.88,56.88
201911150934,56.88,56.88,56.87,56.87
201911150935,56.87,56.87,56.87,56.87
201911150936,56.87,56.88,56.87,56.88
201911150937,56.88,56.94,56.88,56.93
201911150938,56.93,56.95,56.93,56.95
201911150939,56.95,56.97,56.95,56.96
201911150940,56.96,56.96,56.95,56.96
201911150941,56.96,56.96,56.95,56.95
201911150942,56.95,56.95,56.95,56.95
201911150943,56.95,56.96,56.95,56.96
201911150944,56.96,56.96,56.96,56.96
201911150945,56.96,56.96,56.96,56.96
201911150946,56.96,56.98,56.96,56.98
201911150947,56.98,57.02,56.98,57.02
201911150948,57.02,57.02,56.99,56.99
201911150949,56.99,57.01,56.99,57
201911150950,57,57.04,57,57.03
201911150951,57.03,57.04,57.02,57.03
201911150952,57.03,57.03,57.02,57.03
201911150953,57.03,57.03,57.02,57.02
201911150954,57.02,57.03,57.02,57.03
201911150955,57.03,57.03,57.02,57.02
201911150956,57.02,57.04,57.02,57.04
201911150957,57.04,57.04,57.02,57.03
201911150958,57.03,57.04,57.03,57.04
201911150959,57.04,57.04,57.03,57.03
201911151000,57.03,57.06,57.01,57.04
201911151001,57.04,57.04,57,57
201911151002,57,57.01,56.99,56.99
201911151003,56.99,57.01,56.99,57
201911151004,56.99,57,56.99,57
201911151005,57,57,56.99,57
201911151006,57,57.02,56.99,57
201911151007,57,57,56.97,56.99
201911151008,56.99,57.01,56.99,57.01
201911151009,57.01,57.01,57,57.01
201911151010,57.01,57.01,57,57.01
201911151011,57.01,57.01,56.99,57
201911151012,57,57.01,56.98,57.01
201911151013,57.01,57.01,57,57
201911151014,57,57.02,57,57.02
201911151015,57.02,57.03,57.01,57.01
201911151016,57.01,57.01,57,57
201911151017,57,57.01,56.99,57
201911151018,57,57.01,57,57
201911151019,57,57.02,57,57.01
201911151020,57.01,57.02,57.01,57.02
201911151021,57.02,57.03,57.01,57.02
201911151022,57.02,57.03,57.01,57.02
201911151023,57.02,57.03,57.02,57.03
201911151024,57.03,57.05,57.03,57.03
201911151025,57.03,57.05,57.03,57.04
201911151026,57.04,57.05,57.03,57.04
201911151027,57.04,57.04,57.03,57.04
201911151028,57.04,57.06,57.03,57.05
201911151029,57.05,57.06,57.04,57.04
201911151030,57.04,57.04,57.01,57.02
201911151031,57.02,57.03,57.01,57.02
201911151032,57.02,57.04,57.02,57.03
201911151033,57.03,57.04,57.02,57.04
201911151034,57.03,57.05,57.03,57.04
201911151035,57.04,57.05,57.02,57.03
201911151036,57.03,57.04,57.03,57.03
201911151037,57.03,57.04,57.03,57.03
201911151038,57.03,57.04,57.03,57.03
201911151039,57.03,57.05,57.03,57.04
201911151040,57.04,57.06,57.04,57.05
201911151041,57.05,57.07,57.05,57.06
201911151042,57.06,57.07,57.05,57.06
201911151043,57.06,57.06,57.04,57.05
201911151044,57.05,57.06,57.05,57.05
201911151045,57.05,57.05,57.05,57.05
201911151046,57.05,57.06,57.05,57.05
201911151047,57.05,57.06,57.05,57.05
201911151048,57.05,57.05,57.04,57.04
201911151049,57.04,57.04,57.03,57.04
201911151050,57.04,57.04,57.02,57.02
201911151051,57.02,57.02,57.02,57.02
201911151052,57.02,57.03,57.02,57.02
201911151053,57.02,57.02,57.01,57.02
201911151054,57.02,57.02,57,57
201911151055,57,57.01,57,57.01
201911151056,57.01,57.03,57,57.03
201911151057,57.03,57.04,57.02,57.03
201911151058,57.03,57.03,57.02,57.02
201911151059,57.02,57.02,57,57
201911151100,57,57.01,56.99,56.99
201911151101,56.99,57.01,56.99,57
201911151102,57,57.02,57,57.02
201911151103,57.02,57.02,57,57.01
201911151104,57.01,57.02,57.01,57.01
201911151105,57.01,57.01,57,57
201911151106,57,57.01,57,57
201911151107,57,57,57,57
201911151108,57,57.01,57,57.01
201911151109,57.01,57.03,57.01,57.03
201911151110,57.03,57.04,57.02,57.04
201911151111,57.04,57.05,57.04,57.05
201911151112,57.05,57.05,57.05,57.05
201911151113,57.05,57.05,57.04,57.04
201911151114,57.04,57.04,57.02,57.03
201911151115,57.03,57.03,57.02,57.02
201911151116,57.02,57.02,57.01,57.02
201911151117,57.02,57.02,57.02,57.02
201911151118,57.02,57.02,57.01,57.01
201911151119,57.01,57.03,57.01,57.03
201911151120,57.03,57.04,57.02,57.04
201911151121,57.04,57.04,57.03,57.04
201911151122,57.04,57.04,57.03,57.04
201911151123,57.04,57.05,57.04,57.05
201911151124,57.05,57.05,57.05,57.05
201911151125,57.05,57.06,57.05,57.06
201911151126,57.06,57.06,57.05,57.05
201911151127,57.05,57.05,57.04,57.05
201911151128,57.05,57.05,57.04,57.05
201911151129,57.05,57.05,57.04,57.05
201911151130,57.05,57.05,57.04,57.04
201911151131,57.04,57.05,57.03,57.05
201911151132,57.05,57.05,57.03,57.04
201911151133,57.04,57.05,57.04,57.04
201911151134,57.04,57.04,57.04,57.04
201911151135,57.04,57.05,57.04,57.05
201911151136,57.05,57.06,57.05,57.05
201911151137,57.05,57.05,57.04,57.05
201911151138,57.05,57.05,57.05,57.05
201911151139,57.05,57.05,57.05,57.05
201911151140,57.05,57.06,57.04,57.05
201911151141,57.05,57.06,57.05,57.05
201911151142,57.05,57.07,57.05,57.05
201911151143,57.05,57.05,57.05,57.05
201911151144,57.05,57.06,57.05,57.06
201911151145,57.06,57.07,57.06,57.06
201911151146,57.06,57.07,57.06,57.06
201911151147,57.06,57.06,57.04,57.04
201911151148,57.04,57.04,57.04,57.04
201911151149,57.04,57.05,57.04,57.04
201911151150,57.04,57.05,57.04,57.05
201911151151,57.05,57.05,57.04,57.04
201911151152,57.04,57.04,57.02,57.03
201911151153,57.03,57.04,57.02,57.04
201911151154,57.04,57.05,57.04,57.05
201911151155,57.05,57.05,57.05,57.05
201911151156,57.05,57.07,57.05,57.06
201911151157,57.06,57.06,57.06,57.06
201911151158,57.06,57.07,57.06,57.07
201911151159,57.07,57.08,57.07,57.07
201911151200,57.08,57.08,57.07,57.07
201911151201,57.07,57.08,57.07,57.08
201911151202,57.08,57.08,57.07,57.07
201911151203,57.07,57.07,57.07,57.07
201911151204,57.07,57.08,57.07,57.07
201911151205,57.07,57.08,57.07,57.07
201911151206,57.07,57.07,57.06,57.07
201911151207,57.07,57.07,57.07,57.07
201911151208,57.07,57.08,57.07,57.07
201911151209,57.07,57.07,57.06,57.06
201911151210,57.06,57.08,57.06,57.07
201911151211,57.07,57.08,57.07,57.08
201911151212,57.08,57.09,57.07,57.09
201911151213,57.09,57.1,57.09,57.1
201911151214,57.1,57.11,57.09,57.09
201911151215,57.09,57.1,57.09,57.09
201911151216,57.09,57.1,57.09,57.1
201911151217,57.1,57.1,57.09,57.1
201911151218,57.1,57.1,57.09,57.09
201911151219,57.09,57.09,57.08,57.08
201911151220,57.08,57.08,57.07,57.07
201911151221,57.07,57.07,57.07,57.07
201911151222,57.07,57.09,57.07,57.08
201911151223,57.08,57.08,57.08,57.08
201911151224,57.08,57.08,57.07,57.07
201911151225,57.07,57.08,57.07,57.07
201911151226,57.07,57.07,57.07,57.07
201911151227,57.07,57.07,57.07,57.07
201911151228,57.07,57.07,57.07,57.07
201911151229,57.07,57.07,57.06,57.07
201911151230,57.07,57.07,57.06,57.06
201911151231,57.06,57.06,57.05,57.05
201911151232,57.05,57.05,57.04,57.05
201911151233,57.05,57.05,57.05,57.05
201911151234,57.05,57.05,57.04,57.04
201911151235,57.04,57.05,57.04,57.05
201911151236,57.05,57.05,57.05,57.05
201911151237,57.05,57.05,57.04,57.04
201911151238,57.04,57.04,57.04,57.04
201911151239,57.04,57.04,57.03,57.03
201911151240,57.03,57.03,57.03,57.03
201911151241,57.03,57.03,57.03,57.03
201911151242,57.03,57.03,57.03,57.03
201911151243,57.03,57.04,57.03,57.04
201911151244,57.04,57.04,57.04,57.04
201911151245,57.04,57.04,57.04,57.04
201911151246,57.04,57.05,57.04,57.04
201911151247,57.04,57.05,57.04,57.04
201911151248,57.04,57.04,57.04,57.04
201911151249,57.04,57.04,57.03,57.04
201911151250,57.04,57.04,57.04,57.04
201911151251,57.04,57.05,57.03,57.03
201911151252,57.03,57.04,57.02,57.02
201911151253,57.02,57.02,57.02,57.02
201911151254,57.02,57.02,57.02,57.02
201911151255,57.02,57.03,57.02,57.03
201911151256,57.03,57.04,57.03,57.03
201911151257,57.03,57.04,57.03,57.04
201911151258,57.04,57.04,57.03,57.04
201911151259,57.04,57.04,57.03,57.03
201911151300,57.03,57.03,57.02,57.02
201911151301,57.02,57.02,57.02,57.02
201911151302,57.02,57.03,57.02,57.03
201911151303,57.03,57.03,57.03,57.03
201911151304,57.03,57.03,57.02,57.03
201911151305,57.03,57.03,57.03,57.03
201911151306,57.03,57.03,57.03,57.03
201911151307,57.03,57.03,57.02,57.02
201911151308,57.02,57.03,57.02,57.03
201911151309,57.03,57.03,57.02,57.03
201911151310,57.03,57.03,57.03,57.03
201911151311,57.03,57.03,57.03,57.03
201911151312,57.03,57.03,57.03,57.03
201911151313,57.03,57.03,57.02,57.02
201911151314,57.02,57.02,57.02,57.02
201911151315,57.02,57.02,57.02,57.02
201911151316,57.02,57.03,57.02,57.03
201911151317,57.03,57.03,57.02,57.03
201911151318,57.03,57.03,57.03,57.03
201911151319,57.03,57.03,57.03,57.03
201911151320,57.03,57.03,57.03,57.03
201911151321,57.03,57.03,57.02,57.03
201911151322,57.03,57.03,57.02,57.02
201911151323,57.02,57.02,57.02,57.02
201911151324,57.02,57.02,57.01,57.02
201911151325,57.02,57.02,57.02,57.02
201911151326,57.02,57.02,57.02,57.02
201911151327,57.02,57.02,57.02,57.02
201911151328,57.02,57.02,57.02,57.02
201911151329,57.02,57.02,57.02,57.02
201911151330,57.02,57.02,57.02,57.02
201911151331,57.02,57.02,57.02,57.02
201911151332,57.02,57.03,57.02,57.03
201911151333,57.03,57.03,57.03,57.03
201911151334,57.03,57.03,57.03,57.03
201911151335,57.03,57.03,57.03,57.03
201911151336,57.03,57.04,57.03,57.04
201911151337,57.04,57.04,57.04,57.04
201911151338,57.04,57.04,57.04,57.04
201911151339,57.04,57.04,57.04,57.04
201911151340,57.04,57.04,57.04,57.04
201911151341,57.04,57.04,57.04,57.04
201911151342,57.04,57.04,57.04,57.04
201911151343,57.04,57.04,57.04,57.04
201911151344,57.04,57.04,57.04,57.04
201911151345,57.04,57.04,57.04,57.04
201911151346,57.04,57.05,57.04,57.05
201911151347,57.05,57.06,57.05,57.05
201911151348,57.05,57.06,57.05,57.06
201911151349,57.06,57.06,57.05,57.06
201911151350,57.06,57.06,57.05,57.06
201911151351,57.06,57.06,57.06,57.06
201911151352,57.06,57.06,57.06,57.06
201911151353,57.06,57.06,57.05,57.05
201911151354,57.05,57.05,57.05,57.05
201911151355,57.05,57.05,57.05,57.05
201911151356,57.05,57.05,57.05,57.05
201911151357,57.05,57.05,57.05,57.05
201911151358,57.05,57.05,57.05,57.05
201911151359,57.05,57.05,57.05,57.05
201911151400,57.05,57.06,57.05,57.05
201911151401,57.05,57.06,57.05,57.06
201911151402,57.06,57.06,57.05,57.06
201911151403,57.06,57.06,57.06,57.06
201911151404,57.06,57.06,57.06,57.06
201911151405,57.06,57.06,57.05,57.06
201911151406,57.06,57.06,57.06,57.06
201911151407,57.06,57.06,57.05,57.05
201911151408,57.05,57.06,57.05,57.06
201911151409,57.06,57.06,57.06,57.06
201911151410,57.06,57.06,57.05,57.05
201911151411,57.05,57.07,57.05,57.07
201911151412,57.07,57.07,57.07,57.07
201911151413,57.07,57.07,57.07,57.07
201911151414,57.07,57.09,57.07,57.09
201911151415,57.09,57.1,57.09,57.1
201911151416,57.1,57.1,57.09,57.1
201911151417,57.1,57.1,57.09,57.1
201911151418,57.1,57.1,57.1,57.1
201911151419,57.1,57.1,57.1,57.1
201911151420,57.1,57.1,57.1,57.1
201911151421,57.1,57.1,57.09,57.09
201911151422,57.09,57.09,57.09,57.09
201911151423,57.09,57.09,57.09,57.09
201911151424,57.09,57.09,57.09,57.09
201911151425,57.09,57.09,57.09,57.09
201911151426,57.09,57.09,57.09,57.09
201911151427,57.09,57.09,57.08,57.09
201911151428,57.09,57.09,57.08,57.09
201911151429,57.09,57.09,57.09,57.09
201911151430,57.09,57.09,57.06,57.06
201911151431,57.06,57.07,57.04,57.04
201911151432,57.04,57.04,57.03,57.03
201911151433,57.03,57.03,57.03,57.03
201911151434,57.03,57.04,57.03,57.04
201911151435,57.04,57.04,57.03,57.04
201911151436,57.04,57.04,57.03,57.03
201911151437,57.03,57.03,57.03,57.03
201911151438,57.03,57.03,57.02,57.02
201911151439,57.02,57.02,57.02,57.02
201911151440,57.02,57.02,57,57.01
201911151441,57.01,57.01,57,57
201911151442,57,57.01,57,57.01
201911151443,57.01,57.01,57,57.01
201911151444,57.01,57.01,57,57.01
201911151445,57.01,57.01,57,57
201911151446,57,57,56.99,57
201911151447,57,57.01,57,57.01
201911151448,57.01,57.01,57,57
201911151449,56.99,56.99,56.96,56.98
201911151450,56.98,56.98,56.97,56.97
201911151451,56.97,56.99,56.97,56.99
201911151452,56.99,56.99,56.99,56.99
201911151453,56.99,56.99,56.99,56.99
201911151454,56.99,56.99,56.98,56.99
201911151455,56.99,56.99,56.99,56.99
201911151456,56.99,56.99,56.98,56.98
201911151457,56.98,56.99,56.98,56.98
201911151458,56.98,56.99,56.98,56.99
201911151459,56.99,57,56.98,56.99
201911151500,56.99,56.99,56.97,56.97
201911151501,56.97,56.97,56.95,56.96
201911151502,56.96,56.96,56.93,56.94
201911151503,56.94,56.94,56.92,56.94
201911151504,56.94,56.94,56.93,56.94
201911151505,56.94,56.95,56.93,56.95
201911151506,56.95,56.97,56.95,56.97
201911151507,56.97,56.97,56.97,56.97
201911151508,56.97,56.98,56.97,56.98
201911151509,56.98,57,56.98,57
201911151510,57,57,56.99,56.99
201911151511,56.99,57.01,56.99,57.01
201911151512,57.01,57.01,56.99,56.99
201911151513,56.99,56.99,56.97,56.97
201911151514,56.97,56.98,56.97,56.98
201911151515,56.98,56.98,56.97,56.97
201911151516,56.97,56.98,56.97,56.98
201911151517,56.98,56.99,56.98,56.99
201911151518,56.99,56.99,56.98,56.98
201911151519,56.98,56.99,56.98,56.99
201911151520,56.99,56.99,56.98,56.98
201911151521,56.98,56.98,56.98,56.98
201911151522,56.98,56.98,56.95,56.96
201911151523,56.96,56.97,56.96,56.97
201911151524,56.97,56.98,56.96,56.97
201911151525,56.97,56.98,56.97,56.98
201911151526,56.98,56.98,56.97,56.97
201911151527,56.97,56.97,56.97,56.97
201911151528,56.97,56.99,56.97,56.98
201911151529,56.98,56.99,56.98,56.98
201911151530,56.98,56.98,56.98,56.98
201911151531,56.98,56.98,56.98,56.98
201911151532,56.98,56.98,56.97,56.97
201911151533,56.97,56.97,56.95,56.96
201911151534,56.96,56.97,56.96,56.97
201911151535,56.97,56.97,56.97,56.97
201911151536,56.97,56.98,56.96,56.98
201911151537,56.98,56.98,56.97,56.98
201911151538,56.98,56.98,56.98,56.98
201911151539,56.98,56.99,56.97,56.97
201911151540,56.97,56.97,56.95,56.95
201911151541,56.95,56.97,56.95,56.97
201911151542,56.97,56.97,56.94,56.95
201911151543,56.95,56.95,56.94,56.94
201911151544,56.94,56.94,56.94,56.94
201911151545,56.94,56.95,56.94,56.94
201911151546,56.94,56.95,56.94,56.95
201911151547,56.94,56.96,56.94,56.95
201911151548,56.95,56.95,56.95,56.95
201911151549,56.95,56.95,56.93,56.94
201911151550,56.94,56.95,56.94,56.95
201911151551,56.95,56.95,56.94,56.94
201911151552,56.94,56.94,56.94,56.94
201911151553,56.94,56.94,56.92,56.92
201911151554,56.92,56.95,56.92,56.94
201911151555,56.94,56.94,56.92,56.92
201911151556,56.92,56.93,56.92,56.92
201911151557,56.91,56.92,56.91,56.91
201911151558,56.91,56.92,56.91,56.92
201911151559,56.92,56.92,56.91,56.92
201911151600,56.92,56.92,56.9,56.91
201911151601,56.91,56.92,56.9,56.92
201911151602,56.92,56.92,56.92,56.92
201911151603,56.92,56.92,56.91,56.92
201911151604,56.92,56.92,56.9,56.91
201911151605,56.91,56.92,56.91,56.92
201911151606,56.92,56.93,56.92,56.92
201911151607,56.92,56.92,56.91,56.91
201911151608,56.91,56.92,56.91,56.92
201911151609,56.92,56.92,56.91,56.92
201911151610,56.92,56.94,56.92,56.93
201911151611,56.93,56.93,56.92,56.92
201911151612,56.93,56.94,56.91,56.91
201911151613,56.91,56.92,56.91,56.92
201911151614,56.92,56.92,56.91,56.92
201911151615,56.92,56.93,56.91,56.92
201911151616,56.92,56.93,56.91,56.93
201911151617,56.93,56.93,56.92,56.92
201911151618,56.92,56.92,56.91,56.92
201911151619,56.92,56.92,56.91,56.92
201911151620,56.92,56.92,56.91,56.92
201911151621,56.92,56.92,56.91,56.92
201911151622,56.92,56.92,56.92,56.92
201911151623,56.92,56.92,56.91,56.92
201911151624,56.92,56.93,56.91,56.92
201911151625,56.92,56.94,56.92,56.94
201911151626,56.94,56.94,56.93,56.94
201911151627,56.94,56.95,56.94,56.95
201911151628,56.95,56.95,56.95,56.95
201911151629,56.95,56.97,56.95,56.96
201911151630,56.96,56.97,56.95,56.95
201911151631,56.95,56.96,56.95,56.96
201911151632,56.96,56.96,56.95,56.96
201911151633,56.96,56.97,56.96,56.96
201911151634,56.96,56.98,56.96,56.97
201911151635,56.97,56.98,56.97,56.98
201911151636,56.98,56.99,56.97,56.98
201911151637,56.98,56.98,56.97,56.98
201911151638,56.98,56.99,56.98,56.99
201911151639,56.99,57,56.97,56.97
201911151640,56.97,56.97,56.96,56.97
201911151641,56.97,56.97,56.97,56.97
201911151642,56.97,56.98,56.96,56.96
201911151643,56.96,56.96,56.95,56.95
201911151644,56.95,56.95,56.93,56.94
201911151645,56.94,56.95,56.94,56.94
201911151646,56.94,56.94,56.94,56.94
201911151647,56.94,56.95,56.93,56.93
201911151648,56.93,56.94,56.93,56.93
201911151649,56.93,56.95,56.93,56.94
201911151650,56.94,56.94,56.91,56.91
201911151651,56.91,56.92,56.91,56.92
201911151652,56.92,56.92,56.9,56.9
201911151653,56.9,56.93,56.89,56.93
201911151654,56.93,56.93,56.92,56.92
201911151655,56.92,56.94,56.92,56.94
201911151656,56.94,56.96,56.94,56.96
201911151657,56.96,56.97,56.95,56.97
201911151658,56.97,56.97,56.95,56.96
201911151659,56.96,56.97,56.96,56.97
201911151700,56.97,56.97,56.93,56.94
201911151701,56.93,56.96,56.93,56.95
201911151702,56.95,56.97,56.93,56.94
201911151703,56.94,56.95,56.92,56.93
201911151704,56.93,56.94,56.93,56.93
201911151705,56.93,56.94,56.91,56.94
201911151706,56.94,56.94,56.93,56.94
201911151707,56.94,56.97,56.94,56.97
201911151708,56.97,56.97,56.96,56.97
201911151709,56.97,56.97,56.95,56.96
201911151710,56.96,56.97,56.95,56.95
201911151711,56.95,56.97,56.94,56.95
201911151712,56.95,56.95,56.93,56.95
201911151713,56.95,56.95,56.94,56.95
201911151714,56.95,56.97,56.94,56.96
201911151715,56.96,57.03,56.95,57.02
201911151716,57.02,57.04,57.02,57.03
201911151717,57.03,57.03,57.01,57.02
201911151718,57.02,57.03,57.01,57.01
201911151719,57.01,57.04,57.01,57.04
201911151720,57.04,57.04,57.02,57.03
201911151721,57.03,57.03,57.02,57.02
201911151722,57.02,57.02,57.01,57.02
201911151723,57.02,57.02,56.99,57
201911151724,57,57.01,56.99,57.01
201911151725,57.01,57.04,57,57.02
201911151726,57.03,57.03,56.99,57
201911151727,57,57.02,56.99,57
201911151728,57,57.02,56.99,57
201911151729,57,57.03,56.96,56.97
201911151730,56.97,56.97,56.83,56.87
201911151731,56.87,56.87,56.77,56.79
201911151732,56.79,56.82,56.78,56.81
201911151733,56.81,56.84,56.81,56.83
201911151734,56.83,56.87,56.83,56.87
201911151735,56.87,56.88,56.83,56.88
201911151736,56.88,56.89,56.86,56.87
201911151737,56.87,56.87,56.86,56.87
201911151738,56.87,56.88,56.87,56.88
201911151739,56.88,56.89,56.85,56.85
201911151740,56.85,56.87,56.85,56.86
201911151741,56.86,56.88,56.83,56.84
201911151742,56.84,56.88,56.84,56.86
201911151743,56.86,56.86,56.84,56.85
201911151744,56.85,56.86,56.83,56.86
201911151745,56.86,56.86,56.83,56.84
201911151746,56.84,56.84,56.83,56.84
201911151747,56.84,56.85,56.83,56.83
201911151748,56.83,56.83,56.81,56.82
201911151749,56.82,56.82,56.79,56.8
201911151750,56.8,56.81,56.78,56.8
201911151751,56.8,56.82,56.8,56.82
201911151752,56.82,56.82,56.79,56.79
201911151753,56.79,56.8,56.78,56.8
201911151754,56.8,56.81,56.79,56.8
201911151755,56.8,56.82,56.79,56.79
201911151756,56.79,56.8,56.78,56.8
201911151757,56.8,56.8,56.78,56.79
201911151758,56.79,56.8,56.77,56.79
201911151759,56.79,56.81,56.77,56.78
201911151800,56.78,56.79,56.74,56.76
201911151801,56.76,56.77,56.76,56.76
201911151802,56.76,56.8,56.76,56.79
201911151803,56.79,56.83,56.79,56.83
201911151804,56.83,56.83,56.79,56.8
201911151805,56.8,56.83,56.8,56.83
201911151806,56.83,56.83,56.78,56.79
201911151807,56.79,56.79,56.78,56.78
201911151808,56.78,56.78,56.74,56.75
201911151809,56.75,56.75,56.72,56.75
201911151810,56.75,56.75,56.72,56.73
201911151811,56.73,56.73,56.71,56.72
201911151812,56.72,56.75,56.72,56.75
201911151813,56.75,56.75,56.72,56.72
201911151814,56.72,56.76,56.72,56.76
201911151815,56.76,56.76,56.72,56.74
201911151816,56.74,56.77,56.74,56.77
201911151817,56.77,56.78,56.74,56.78
201911151818,56.78,56.8,56.78,56.8
201911151819,56.8,56.8,56.78,56.79
201911151820,56.79,56.82,56.77,56.82
201911151821,56.82,56.82,56.8,56.81
201911151822,56.81,56.81,56.79,56.81
201911151823,56.81,56.82,56.73,56.74
201911151824,56.75,56.77,56.74,56.75
201911151825,56.75,56.78,56.74,56.76
201911151826,56.76,56.76,56.74,56.74
201911151827,56.74,56.75,56.72,56.74
201911151828,56.74,56.75,56.72,56.73
201911151829,56.73,56.76,56.73,56.74
201911151830,56.74,56.77,56.74,56.76
201911151831,56.76,56.76,56.73,56.74
201911151832,56.74,56.74,56.72,56.73
201911151833,56.73,56.75,56.73,56.74
201911151834,56.74,56.75,56.72,56.72
201911151835,56.72,56.74,56.72,56.72
201911151836,56.72,56.73,56.71,56.71
201911151837,56.71,56.72,56.71,56.71
201911151838,56.71,56.71,56.65,56.66
201911151839,56.66,56.68,56.66,56.66
201911151840,56.66,56.71,56.65,56.68
201911151841,56.68,56.69,56.66,56.68
201911151842,56.68,56.7,56.67,56.7
201911151843,56.7,56.71,56.69,56.7
201911151844,56.7,56.7,56.7,56.7
201911151845,56.7,56.7,56.68,56.69
201911151846,56.69,56.7,56.69,56.7
201911151847,56.7,56.71,56.67,56.68
201911151848,56.68,56.71,56.68,56.71
201911151849,56.71,56.73,56.7,56.72
201911151850,56.72,56.72,56.71,56.72
201911151851,56.72,56.73,56.71,56.71
201911151852,56.71,56.71,56.69,56.7
201911151853,56.7,56.72,56.7,56.72
201911151854,56.72,56.73,56.69,56.7
201911151855,56.7,56.71,56.7,56.71
201911151856,56.71,56.71,56.68,56.68
201911151857,56.68,56.68,56.65,56.67
201911151858,56.67,56.68,56.66,56.68
201911151859,56.68,56.69,56.67,56.68
201911151900,56.68,56.71,56.66,56.69
201911151901,56.69,56.69,56.66,56.67
201911151902,56.67,56.67,56.54,56.55
201911151903,56.55,56.58,56.53,56.53
201911151904,56.53,56.53,56.49,56.5
201911151905,56.5,56.56,56.5,56.56
201911151906,56.56,56.57,56.55,56.56
201911151907,56.56,56.56,56.55,56.55
201911151908,56.55,56.57,56.53,56.53
201911151909,56.53,56.53,56.47,56.48
201911151910,56.48,56.49,56.44,56.44
201911151911,56.44,56.47,56.43,56.47
201911151912,56.47,56.47,56.43,56.44
201911151913,56.44,56.45,56.43,56.43
201911151914,56.43,56.46,56.43,56.44
201911151915,56.44,56.45,56.42,56.45
201911151916,56.45,56.47,56.44,56.47
201911151917,56.47,56.48,56.44,56.46
201911151918,56.46,56.46,56.43,56.46
201911151919,56.46,56.47,56.43,56.46
201911151920,56.46,56.47,56.45,56.46
201911151921,56.46,56.5,56.45,56.49
201911151922,56.49,56.51,56.49,56.49
201911151923,56.5,56.5,56.48,56.5
201911151924,56.5,56.52,56.5,56.51
201911151925,56.51,56.52,56.49,56.51
201911151926,56.51,56.51,56.49,56.49
201911151927,56.49,56.52,56.49,56.5
201911151928,56.5,56.51,56.48,56.48
201911151929,56.48,56.52,56.45,56.52
201911151930,56.52,56.52,56.48,56.5
201911151931,56.5,56.5,56.47,56.47
201911151932,56.47,56.49,56.45,56.49
201911151933,56.49,56.51,56.49,56.49
201911151934,56.49,56.51,56.49,56.49
201911151935,56.49,56.49,56.47,56.47
201911151936,56.47,56.47,56.45,56.46
201911151937,56.46,56.49,56.46,56.48
201911151938,56.48,56.48,56.47,56.48
201911151939,56.48,56.49,56.47,56.49
201911151940,56.49,56.5,56.49,56.49
201911151941,56.49,56.5,56.49,56.49
201911151942,56.49,56.49,56.47,56.48
201911151943,56.48,56.49,56.48,56.49
201911151944,56.49,56.51,56.48,56.5
201911151945,56.5,56.53,56.5,56.52
201911151946,56.52,56.53,56.49,56.5
201911151947,56.5,56.52,56.48,56.5
201911151948,56.5,56.51,56.49,56.5
201911151949,56.5,56.52,56.49,56.52
201911151950,56.52,56.53,56.5,56.53
201911151951,56.53,56.53,56.5,56.52
201911151952,56.52,56.53,56.51,56.52
201911151953,56.52,56.54,56.51,56.54
201911151954,56.54,56.54,56.52,56.53
201911151955,56.53,56.54,56.48,56.5
201911151956,56.5,56.53,56.5,56.53
201911151957,56.53,56.54,56.52,56.54
201911151958,56.54,56.55,56.53,56.53
201911151959,56.53,56.53,56.51,56.52
201911152000,56.52,56.54,56.51,56.54
201911152001,56.54,56.54,56.52,56.54
201911152002,56.54,56.55,56.53,56.54
201911152003,56.54,56.54,56.53,56.54
201911152004,56.54,56.56,56.54,56.56
201911152005,56.56,56.57,56.54,56.55
201911152006,56.55,56.55,56.53,56.54
201911152007,56.54,56.54,56.51,56.51
201911152008,56.51,56.55,56.51,56.55
201911152009,56.55,56.55,56.53,56.54
201911152010,56.54,56.54,56.52,56.53
201911152011,56.53,56.55,56.53,56.55
201911152012,56.55,56.56,56.52,56.52
201911152013,56.52,56.55,56.52,56.54
201911152014,56.54,56.54,56.51,56.51
201911152015,56.51,56.51,56.47,56.48
201911152016,56.48,56.48,56.45,56.48
201911152017,56.48,56.52,56.48,56.51
201911152018,56.51,56.52,56.5,56.5
201911152019,56.5,56.5,56.48,56.49
201911152020,56.49,56.49,56.48,56.48
201911152021,56.48,56.51,56.48,56.51
201911152022,56.51,56.56,56.51,56.56
201911152023,56.56,56.58,56.55,56.57
201911152024,56.57,56.58,56.57,56.57
201911152025,56.57,56.58,56.57,56.57
201911152026,56.57,56.57,56.55,56.56
201911152027,56.56,56.57,56.53,56.57
201911152028,56.57,56.58,56.57,56.57
201911152029,56.57,56.57,56.56,56.56
201911152030,56.56,56.56,56.54,56.56
201911152031,56.56,56.56,56.53,56.54
201911152032,56.54,56.58,56.52,56.58
201911152033,56.58,56.62,56.58,56.62
201911152034,56.62,56.69,56.62,56.67
201911152035,56.67,56.68,56.65,56.68
201911152036,56.68,56.7,56.66,56.7
201911152037,56.7,56.7,56.68,56.68
201911152038,56.68,56.69,56.66,56.69
201911152039,56.69,56.7,56.68,56.68
201911152040,56.68,56.7,56.67,56.67
201911152041,56.67,56.69,56.67,56.68
201911152042,56.68,56.68,56.67,56.68
201911152043,56.68,56.7,56.67,56.68
201911152044,56.68,56.69,56.68,56.68
201911152045,56.68,56.68,56.67,56.68
201911152046,56.68,56.68,56.67,56.68
201911152047,56.68,56.68,56.67,56.67
201911152048,56.67,56.67,56.65,56.67
201911152049,56.67,56.67,56.64,56.66
201911152050,56.66,56.66,56.63,56.64
201911152051,56.64,56.67,56.64,56.66
201911152052,56.66,56.66,56.64,56.64
201911152053,56.64,56.64,56.63,56.63
201911152054,56.63,56.66,56.63,56.65
201911152055,56.65,56.66,56.64,56.65
201911152056,56.65,56.66,56.62,56.62
201911152057,56.62,56.63,56.6,56.61
201911152058,56.61,56.62,56.6,56.61
201911152059,56.61,56.63,56.6,56.61
201911152100,56.61,56.62,56.6,56.62
201911152101,56.62,56.66,56.62,56.65
201911152102,56.65,56.67,56.62,56.67
201911152103,56.67,56.68,56.67,56.67
201911152104,56.67,56.73,56.66,56.73
201911152105,56.73,56.74,56.68,56.69
201911152106,56.69,56.72,56.69,56.7
201911152107,56.7,56.72,56.68,56.72
201911152108,56.72,56.73,56.71,56.71
201911152109,56.71,56.72,56.7,56.72
201911152110,56.72,56.72,56.7,56.71
201911152111,56.71,56.72,56.7,56.71
201911152112,56.71,56.72,56.7,56.72
201911152113,56.72,56.72,56.7,56.7
201911152114,56.7,56.71,56.69,56.69
201911152115,56.69,56.7,56.69,56.69
201911152116,56.69,56.72,56.69,56.7
201911152117,56.7,56.71,56.7,56.71
201911152118,56.71,56.71,56.68,56.68
201911152119,56.68,56.71,56.68,56.69
201911152120,56.69,56.7,56.68,56.7
201911152121,56.7,56.72,56.7,56.7
201911152122,56.7,56.73,56.7,56.73
201911152123,56.73,56.73,56.72,56.72
201911152124,56.72,56.73,56.7,56.71
201911152125,56.71,56.72,56.7,56.72
201911152126,56.72,56.74,56.72,56.73
201911152127,56.73,56.74,56.73,56.73
201911152128,56.73,56.74,56.72,56.73
201911152129,56.73,56.74,56.72,56.72
201911152130,56.72,56.73,56.71,56.71
201911152131,56.71,56.71,56.69,56.69
201911152132,56.69,56.69,56.66,56.68
201911152133,56.68,56.68,56.66,56.67
201911152134,56.67,56.67,56.65,56.66
201911152135,56.66,56.66,56.64,56.65
201911152136,56.65,56.66,56.64,56.65
201911152137,56.65,56.66,56.64,56.66
201911152138,56.66,56.67,56.65,56.65
201911152139,56.65,56.65,56.64,56.64
201911152140,56.64,56.68,56.64,56.68
201911152141,56.68,56.68,56.67,56.67
201911152142,56.67,56.69,56.67,56.67
201911152143,56.67,56.68,56.67,56.67
201911152144,56.67,56.68,56.67,56.67
201911152145,56.67,56.68,56.66,56.68
201911152146,56.68,56.68,56.67,56.67
201911152147,56.67,56.67,56.66,56.67
201911152148,56.67,56.67,56.67,56.67
201911152149,56.67,56.68,56.66,56.66
201911152150,56.66,56.67,56.66,56.66
201911152151,56.66,56.67,56.66,56.66
201911152152,56.66,56.66,56.65,56.66
201911152153,56.66,56.67,56.65,56.66
201911152154,56.66,56.66,56.65,56.66
201911152155,56.66,56.66,56.63,56.63
201911152156,56.63,56.64,56.61,56.62
201911152157,56.62,56.63,56.62,56.63
201911152158,56.63,56.63,56.62,56.63
201911152159,56.63,56.68,56.63,56.67
201911152200,56.67,56.7,56.65,56.66
201911152201,56.66,56.66,56.61,56.62
201911152202,56.62,56.64,56.61,56.62
201911152203,56.62,56.64,56.62,56.63
201911152204,56.63,56.63,56.61,56.61
201911152205,56.61,56.62,56.58,56.58
201911152206,56.58,56.59,56.57,56.58
201911152207,56.58,56.59,56.57,56.59
201911152208,56.59,56.59,56.57,56.58
201911152209,56.58,56.61,56.57,56.59
201911152210,56.59,56.6,56.58,56.59
201911152211,56.59,56.59,56.56,56.58
201911152212,56.57,56.59,56.57,56.58
201911152213,56.58,56.61,56.57,56.6
201911152214,56.6,56.6,56.57,56.57
201911152215,56.57,56.6,56.57,56.58
201911152216,56.58,56.62,56.57,56.6
201911152217,56.6,56.63,56.6,56.6
201911152218,56.61,56.61,56.57,56.58
201911152219,56.58,56.6,56.57,56.6
201911152220,56.6,56.6,56.59,56.59
201911152221,56.59,56.59,56.56,56.58
201911152222,56.58,56.61,56.57,56.61
201911152223,56.61,56.61,56.59,56.61
201911152224,56.61,56.61,56.59,56.59
201911152225,56.59,56.61,56.58,56.58
201911152226,56.58,56.61,56.57,56.59
201911152227,56.59,56.6,56.58,56.6
201911152228,56.6,56.6,56.58,56.58
201911152229,56.58,56.59,56.58,56.58
201911152230,56.58,56.59,56.55,56.56
201911152231,56.56,56.58,56.56,56.58
201911152232,56.58,56.58,56.56,56.57
201911152233,56.57,56.59,56.56,56.59
201911152234,56.59,56.62,56.59,56.62
201911152235,56.62,56.66,56.62,56.65
201911152236,56.65,56.67,56.65,56.67
201911152237,56.67,56.71,56.66,56.7
201911152238,56.7,56.74,56.7,56.72
201911152239,56.72,56.77,56.72,56.75
201911152240,56.75,56.76,56.72,56.75
201911152241,56.75,56.76,56.74,56.76
201911152242,56.76,56.78,56.76,56.77
201911152243,56.77,56.79,56.76,56.78
201911152244,56.78,56.81,56.78,56.81
201911152245,56.81,56.9,56.81,56.86
201911152246,56.86,56.88,56.85,56.88
201911152247,56.88,56.9,56.87,56.87
201911152248,56.87,56.89,56.86,56.89
201911152249,56.89,56.89,56.87,56.88
201911152250,56.88,56.91,56.87,56.89
201911152251,56.89,56.92,56.88,56.89
201911152252,56.89,56.91,56.88,56.89
201911152253,56.89,56.91,56.89,56.91
201911152254,56.91,56.96,56.91,56.96
201911152255,56.96,56.96,56.93,56.95
201911152256,56.95,56.96,56.94,56.94
201911152257,56.94,56.95,56.93,56.95
201911152258,56.95,56.96,56.94,56.95
201911152259,56.95,56.96,56.93,56.95
201911152300,56.95,57,56.95,57
201911152301,57,57.02,56.99,56.99
201911152302,56.99,56.99,56.93,56.94
201911152303,56.94,56.95,56.9,56.91
201911152304,56.91,56.93,56.91,56.92
201911152305,56.92,56.96,56.91,56.91
201911152306,56.91,56.91,56.86,56.86
201911152307,56.87,56.92,56.85,56.92
201911152308,56.92,56.92,56.89,56.92
201911152309,56.92,56.92,56.89,56.9
201911152310,56.89,56.91,56.86,56.86
201911152311,56.86,56.88,56.85,56.87
201911152312,56.87,56.87,56.84,56.85
201911152313,56.85,56.85,56.84,56.84
201911152314,56.84,56.85,56.82,56.84
201911152315,56.84,56.84,56.8,56.81
201911152316,56.8,56.8,56.76,56.79
201911152317,56.79,56.86,56.79,56.85
201911152318,56.85,56.85,56.82,56.84
201911152319,56.84,56.85,56.79,56.81
201911152320,56.81,56.83,56.81,56.83
201911152321,56.83,56.83,56.8,56.82
201911152322,56.82,56.84,56.8,56.83
201911152323,56.83,56.85,56.82,56.84
201911152324,56.84,56.85,56.78,56.79
201911152325,56.79,56.81,56.78,56.8
201911152326,56.8,56.8,56.78,56.8
201911152327,56.8,56.8,56.77,56.78
201911152328,56.78,56.79,56.77,56.77
201911152329,56.77,56.79,56.76,56.77
201911152330,56.77,56.77,56.72,56.77
201911152331,56.77,56.77,56.73,56.74
201911152332,56.74,56.86,56.74,56.85
201911152333,56.85,56.86,56.77,56.79
201911152334,56.79,56.8,56.75,56.78
201911152335,56.78,56.79,56.76,56.77
201911152336,56.77,56.78,56.76,56.78
201911152337,56.78,56.78,56.76,56.77
201911152338,56.78,56.83,56.77,56.83
201911152339,56.83,56.91,56.82,56.87
201911152340,56.87,56.95,56.87,56.95
201911152341,56.95,56.96,56.92,56.93
201911152342,56.93,57,56.92,56.99
201911152343,56.99,57.01,56.96,56.99
201911152344,56.99,57.02,56.97,56.97
201911152345,56.97,57.01,56.97,56.99
201911152346,56.99,57.02,56.98,56.99
201911152347,56.99,57,56.94,56.96
201911152348,56.96,56.97,56.92,56.92
201911152349,56.92,56.94,56.89,56.92
201911152350,56.92,56.93,56.88,56.9
201911152351,56.9,56.9,56.85,56.85
201911152352,56.85,56.87,56.84,56.85
201911152353,56.85,56.87,56.85,56.86
201911152354,56.86,56.91,56.85,56.89
201911152355,56.89,56.89,56.82,56.82
201911152356,56.82,56.84,56.81,56.81
201911152357,56.81,56.84,56.81,56.84
201911152358,56.84,56.86,56.83,56.83
201911152359,56.83,56.87,56.83,56.85
201911160000,56.85,56.89,56.84,56.89
201911160001,56.89,56.89,56.86,56.88
201911160002,56.88,56.93,56.87,56.92
201911160003,56.92,56.98,56.91,56.98
201911160004,56.98,57.01,56.97,57.01
201911160005,57,57.04,56.99,57.02
201911160006,57.02,57.03,56.98,57
201911160007,57,57.03,57,57
201911160008,57,57.01,56.99,57
201911160009,57,57.03,56.99,57.01
201911160010,57.01,57.05,56.99,56.99
201911160011,56.99,57,56.95,56.97
201911160012,56.97,56.99,56.96,56.96
201911160013,56.96,56.97,56.94,56.97
201911160014,56.97,56.97,56.96,56.97
201911160015,56.97,57.05,56.97,57.05
201911160016,57.05,57.12,57.05,57.08
201911160017,57.08,57.09,57.04,57.08
201911160018,57.08,57.11,57.07,57.09
201911160019,57.09,57.12,57.09,57.12
201911160020,57.12,57.18,57.12,57.17
201911160021,57.18,57.18,57.13,57.17
201911160022,57.17,57.17,57.13,57.17
201911160023,57.17,57.19,57.15,57.19
201911160024,57.19,57.19,57.16,57.16
201911160025,57.16,57.18,57.15,57.15
201911160026,57.15,57.19,57.15,57.19
201911160027,57.19,57.22,57.17,57.17
201911160028,57.17,57.19,57.16,57.17
201911160029,57.17,57.19,57.16,57.18
201911160030,57.18,57.22,57.18,57.21
201911160031,57.21,57.24,57.21,57.24
201911160032,57.24,57.24,57.19,57.19
201911160033,57.19,57.2,57.16,57.16
201911160034,57.16,57.22,57.16,57.21
201911160035,57.21,57.21,57.17,57.17
201911160036,57.17,57.19,57.16,57.18
201911160037,57.18,57.19,57.16,57.18
201911160038,57.18,57.18,57.1,57.11
201911160039,57.11,57.11,57.08,57.1
201911160040,57.1,57.13,57.09,57.12
201911160041,57.12,57.13,57.1,57.11
201911160042,57.11,57.11,57.09,57.1
201911160043,57.1,57.11,57.08,57.08
201911160044,57.08,57.09,57.08,57.09
201911160045,57.09,57.12,57.09,57.1
201911160046,57.1,57.13,57.1,57.13
201911160047,57.13,57.14,57.09,57.09
201911160048,57.09,57.09,57.06,57.07
201911160049,57.07,57.09,57.07,57.07
201911160050,57.07,57.1,57.06,57.09
201911160051,57.09,57.13,57.09,57.12
201911160052,57.12,57.13,57.1,57.1
201911160053,57.1,57.13,57.1,57.13
201911160054,57.13,57.15,57.13,57.14
201911160055,57.14,57.17,57.14,57.17
201911160056,57.17,57.2,57.16,57.19
201911160057,57.19,57.21,57.17,57.18
201911160058,57.18,57.2,57.17,57.2
201911160059,57.2,57.21,57.18,57.18
201911160100,57.18,57.21,57.18,57.21
201911160101,57.21,57.28,57.21,57.26
201911160102,57.26,57.27,57.2,57.21
201911160103,57.21,57.22,57.18,57.2
201911160104,57.2,57.24,57.2,57.23
201911160105,57.23,57.25,57.23,57.24
201911160106,57.24,57.25,57.22,57.22
201911160107,57.22,57.24,57.22,57.23
201911160108,57.23,57.24,57.22,57.23
201911160109,57.23,57.26,57.23,57.25
201911160110,57.25,57.26,57.24,57.25
201911160111,57.25,57.29,57.25,57.28
201911160112,57.28,57.3,57.26,57.28
201911160113,57.28,57.3,57.25,57.28
201911160114,57.28,57.29,57.27,57.29
201911160115,57.29,57.32,57.27,57.28
201911160116,57.28,57.29,57.26,57.27
201911160117,57.27,57.29,57.24,57.24
201911160118,57.24,57.29,57.24,57.28
201911160119,57.28,57.31,57.28,57.29
201911160120,57.29,57.35,57.29,57.34
201911160121,57.34,57.36,57.33,57.35
201911160122,57.35,57.4,57.35,57.39
201911160123,57.39,57.43,57.39,57.43
201911160124,57.43,57.44,57.39,57.4
201911160125,57.4,57.44,57.4,57.44
201911160126,57.44,57.47,57.43,57.46
201911160127,57.46,57.5,57.45,57.49
201911160128,57.5,57.57,57.5,57.53
201911160129,57.53,57.61,57.51,57.61
201911160130,57.61,57.9,57.61,57.83
201911160131,57.82,57.85,57.75,57.75
201911160132,57.75,57.76,57.71,57.72
201911160133,57.72,57.75,57.68,57.72
201911160134,57.73,57.82,57.73,57.81
201911160135,57.81,57.82,57.74,57.75
201911160136,57.75,57.77,57.71,57.73
201911160137,57.73,57.76,57.67,57.68
201911160138,57.68,57.7,57.67,57.68
201911160139,57.68,57.73,57.68,57.71
201911160140,57.71,57.73,57.71,57.73
201911160141,57.73,57.77,57.73,57.76
201911160142,57.76,57.78,57.73,57.74
201911160143,57.74,57.77,57.73,57.75
201911160144,57.75,57.77,57.73,57.73
201911160145,57.73,57.78,57.72,57.76
201911160146,57.76,57.77,57.73,57.74
201911160147,57.74,57.75,57.69,57.69
201911160148,57.69,57.7,57.64,57.65
201911160149,57.65,57.66,57.64,57.65
201911160150,57.65,57.68,57.65,57.68
201911160151,57.68,57.7,57.67,57.68
201911160152,57.68,57.71,57.68,57.7
201911160153,57.7,57.7,57.66,57.68
201911160154,57.68,57.7,57.66,57.67
201911160155,57.67,57.7,57.66,57.7
201911160156,57.7,57.72,57.68,57.68
201911160157,57.68,57.7,57.65,57.66
201911160158,57.66,57.66,57.62,57.63
201911160159,57.63,57.66,57.62,57.66
201911160200,57.66,57.69,57.66,57.69
201911160201,57.69,57.71,57.67,57.71
201911160202,57.71,57.72,57.68,57.71
201911160203,57.71,57.73,57.71,57.73
201911160204,57.73,57.75,57.73,57.75
201911160205,57.75,57.75,57.72,57.75
201911160206,57.75,57.76,57.72,57.73
201911160207,57.73,57.74,57.71,57.74
201911160208,57.74,57.74,57.69,57.71
201911160209,57.71,57.72,57.69,57.71
201911160210,57.71,57.72,57.7,57.7
201911160211,57.7,57.71,57.66,57.66
201911160212,57.66,57.71,57.66,57.71
201911160213,57.71,57.71,57.68,57.69
201911160214,57.69,57.71,57.69,57.71
201911160215,57.71,57.75,57.71,57.74
201911160216,57.74,57.75,57.74,57.74
201911160217,57.74,57.76,57.73,57.76
201911160218,57.76,57.76,57.73,57.74
201911160219,57.74,57.76,57.74,57.76
201911160220,57.75,57.78,57.74,57.78
201911160221,57.78,57.85,57.78,57.83
201911160222,57.83,57.87,57.83,57.86
201911160223,57.86,57.94,57.86,57.92
201911160224,57.92,57.95,57.92,57.94
201911160225,57.94,57.94,57.88,57.91
201911160226,57.91,57.92,57.84,57.86
201911160227,57.86,57.86,57.83,57.85
201911160228,57.85,57.88,57.84,57.84
201911160229,57.84,57.85,57.83,57.83
201911160230,57.83,57.85,57.83,57.85
201911160231,57.85,57.85,57.82,57.82
201911160232,57.82,57.83,57.8,57.83
201911160233,57.83,57.87,57.82,57.85
201911160234,57.85,57.88,57.84,57.88
201911160235,57.88,57.88,57.85,57.87
201911160236,57.87,57.89,57.87,57.88
201911160237,57.88,57.88,57.84,57.85
201911160238,57.85,57.86,57.84,57.84
201911160239,57.84,57.84,57.79,57.79
201911160240,57.79,57.82,57.79,57.8
201911160241,57.8,57.83,57.8,57.83
201911160242,57.83,57.88,57.83,57.86
201911160243,57.86,57.88,57.85,57.88
201911160244,57.88,57.89,57.86,57.88
201911160245,57.88,57.9,57.86,57.88
201911160246,57.88,57.9,57.87,57.88
201911160247,57.88,57.9,57.88,57.9
201911160248,57.9,57.9,57.87,57.88
201911160249,57.88,57.89,57.82,57.82
201911160250,57.82,57.83,57.81,57.81
201911160251,57.82,57.83,57.8,57.81
201911160252,57.81,57.81,57.79,57.79
201911160253,57.79,57.8,57.77,57.77
201911160254,57.77,57.8,57.76,57.78
201911160255,57.78,57.78,57.77,57.77
201911160256,57.77,57.77,57.73,57.75
201911160257,57.75,57.79,57.75,57.76
201911160258,57.76,57.77,57.74,57.76
201911160259,57.76,57.76,57.75,57.75
201911160300,57.75,57.75,57.71,57.72
201911160301,57.72,57.73,57.72,57.73
201911160302,57.73,57.75,57.72,57.73
201911160303,57.73,57.73,57.71,57.71
201911160304,57.71,57.74,57.7,57.74
201911160305,57.74,57.75,57.72,57.74
201911160306,57.74,57.74,57.71,57.72
201911160307,57.72,57.74,57.7,57.71
201911160308,57.71,57.71,57.65,57.66
201911160309,57.66,57.68,57.66,57.68
201911160310,57.68,57.7,57.66,57.66
201911160311,57.66,57.68,57.65,57.66
201911160312,57.66,57.71,57.66,57.7
201911160313,57.7,57.7,57.68,57.68
201911160314,57.68,57.71,57.68,57.7
201911160315,57.7,57.71,57.69,57.7
201911160316,57.7,57.74,57.7,57.73
201911160317,57.73,57.74,57.72,57.73
201911160318,57.73,57.74,57.72,57.74
201911160319,57.74,57.74,57.72,57.74
201911160320,57.74,57.75,57.7,57.7
201911160321,57.7,57.7,57.66,57.67
201911160322,57.67,57.67,57.66,57.67
201911160323,57.67,57.69,57.66,57.67
201911160324,57.67,57.69,57.67,57.68
201911160325,57.68,57.68,57.66,57.67
201911160326,57.67,57.74,57.67,57.73
201911160327,57.73,57.76,57.72,57.72
201911160328,57.72,57.74,57.71,57.71
201911160329,57.71,57.73,57.71,57.71
201911160330,57.71,57.71,57.68,57.69
201911160331,57.69,57.69,57.67,57.67
201911160332,57.67,57.67,57.65,57.66
201911160333,57.66,57.69,57.66,57.68
201911160334,57.68,57.69,57.67,57.68
201911160335,57.68,57.68,57.65,57.66
201911160336,57.66,57.66,57.64,57.64
201911160337,57.64,57.65,57.63,57.63
201911160338,57.63,57.65,57.62,57.62
201911160339,57.62,57.65,57.62,57.65
201911160340,57.65,57.65,57.6,57.6
201911160341,57.6,57.6,57.55,57.58
201911160342,57.58,57.62,57.56,57.62
201911160343,57.62,57.65,57.62,57.65
201911160344,57.65,57.67,57.64,57.66
201911160345,57.66,57.67,57.65,57.67
201911160346,57.67,57.7,57.66,57.7
201911160347,57.7,57.73,57.7,57.71
201911160348,57.71,57.72,57.68,57.71
201911160349,57.71,57.75,57.71,57.74
201911160350,57.74,57.74,57.7,57.71
201911160351,57.71,57.72,57.69,57.72
201911160352,57.72,57.73,57.71,57.71
201911160353,57.71,57.74,57.71,57.72
201911160354,57.72,57.73,57.71,57.73
201911160355,57.72,57.73,57.71,57.71
201911160356,57.71,57.73,57.71,57.72
201911160357,57.72,57.73,57.71,57.71
201911160358,57.71,57.75,57.71,57.75
201911160359,57.74,57.76,57.73,57.76
201911160400,57.76,57.76,57.73,57.73
201911160401,57.73,57.73,57.71,57.72
201911160402,57.72,57.73,57.7,57.71
201911160403,57.71,57.71,57.68,57.7
201911160404,57.7,57.73,57.7,57.71
201911160405,57.71,57.72,57.7,57.72
201911160406,57.72,57.74,57.71,57.74
201911160407,57.74,57.75,57.72,57.72
201911160408,57.72,57.74,57.71,57.72
201911160409,57.72,57.73,57.71,57.72
201911160410,57.72,57.72,57.65,57.65
201911160411,57.65,57.66,57.63,57.63
201911160412,57.63,57.66,57.61,57.61
201911160413,57.61,57.65,57.58,57.65
201911160414,57.65,57.65,57.63,57.65
201911160415,57.65,57.7,57.64,57.7
201911160416,57.7,57.73,57.66,57.71
201911160417,57.72,57.73,57.7,57.73
201911160418,57.73,57.75,57.71,57.72
201911160419,57.72,57.73,57.7,57.7
201911160420,57.7,57.72,57.69,57.71
201911160421,57.71,57.71,57.66,57.66
201911160422,57.66,57.69,57.64,57.65
201911160423,57.65,57.66,57.61,57.63
201911160424,57.63,57.65,57.61,57.63
201911160425,57.63,57.67,57.6,57.61
201911160426,57.62,57.64,57.6,57.61
201911160427,57.61,57.66,57.61,57.66
201911160428,57.66,57.73,57.62,57.71
201911160429,57.71,57.76,57.7,57.74
201911160430,57.74,57.79,57.71,57.76
201911160431,57.76,57.8,57.75,57.79
201911160432,57.79,57.79,57.76,57.78
201911160433,57.78,57.79,57.77,57.77
201911160434,57.77,57.8,57.76,57.8
201911160435,57.8,57.82,57.79,57.79
201911160436,57.79,57.8,57.78,57.79
201911160437,57.79,57.8,57.76,57.8
201911160438,57.8,57.8,57.79,57.8
201911160439,57.8,57.8,57.78,57.79
201911160440,57.79,57.81,57.78,57.78
201911160441,57.78,57.78,57.75,57.76
201911160442,57.76,57.77,57.76,57.77
201911160443,57.77,57.78,57.77,57.77
201911160444,57.77,57.78,57.76,57.77
201911160445,57.77,57.77,57.75,57.75
201911160446,57.75,57.76,57.75,57.76
201911160447,57.76,57.77,57.75,57.76
201911160448,57.76,57.77,57.75,57.76
201911160449,57.76,57.77,57.76,57.77
201911160450,57.77,57.77,57.76,57.76
201911160451,57.76,57.76,57.75,57.75
201911160452,57.75,57.76,57.75,57.75
201911160453,57.75,57.76,57.75,57.76
201911160454,57.76,57.76,57.75,57.75
201911160455,57.75,57.75,57.73,57.75
201911160456,57.75,57.76,57.75,57.76
201911160457,57.76,57.77,57.74,57.74
201911160458,57.74,57.74,57.73,57.74
201911160459,57.74,57.74,57.73,57.74
201911160500,57.74,57.74,57.73,57.73
201911160501,57.73,57.73,57.73,57.73
201911160502,57.73,57.74,57.73,57.74
201911160503,57.74,57.74,57.72,57.73
201911160504,57.73,57.75,57.73,57.74
201911160505,57.74,57.74,57.73,57.73
201911160506,57.73,57.73,57.73,57.73
201911160507,57.73,57.74,57.73,57.74
201911160508,57.74,57.74,57.73,57.73
201911160509,57.74,57.75,57.74,57.75
201911160510,57.75,57.75,57.74,57.74
201911160511,57.74,57.75,57.74,57.75
201911160512,57.75,57.77,57.75,57.77
201911160513,57.77,57.78,57.77,57.78
201911160514,57.78,57.78,57.77,57.77
201911160515,57.77,57.78,57.77,57.77
201911160516,57.77,57.78,57.77,57.78
201911160517,57.78,57.79,57.76,57.78
201911160518,57.78,57.78,57.78,57.78
201911160519,57.78,57.78,57.76,57.76
201911160520,57.76,57.76,57.75,57.76
201911160521,57.76,57.77,57.76,57.76
201911160522,57.76,57.76,57.74,57.74
201911160523,57.74,57.76,57.74,57.75
201911160524,57.75,57.76,57.74,57.75
201911160525,57.75,57.76,57.75,57.76
201911160526,57.76,57.77,57.76,57.77
201911160527,57.77,57.77,57.77,57.77
201911160528,57.77,57.78,57.76,57.76
201911160529,57.76,57.76,57.75,57.75
201911160530,57.75,57.78,57.75,57.76
201911160531,57.76,57.77,57.76,57.77
201911160532,57.77,57.77,57.76,57.77
201911160533,57.77,57.77,57.76,57.76
201911160534,57.76,57.77,57.76,57.77
201911160535,57.77,57.77,57.76,57.76
201911160536,57.76,57.77,57.76,57.77
201911160537,57.77,57.77,57.76,57.76
201911160538,57.76,57.77,57.76,57.76
201911160539,57.76,57.78,57.76,57.77
201911160540,57.77,57.77,57.76,57.76
201911160541,57.76,57.77,57.75,57.77
201911160542,57.77,57.78,57.77,57.78
201911160543,57.78,57.78,57.77,57.78
201911160544,57.78,57.78,57.75,57.76
201911160545,57.76,57.78,57.76,57.77
201911160546,57.77,57.78,57.77,57.77
201911160547,57.77,57.78,57.77,57.77
201911160548,57.77,57.78,57.77,57.78
201911160549,57.78,57.78,57.77,57.77
201911160550,57.77,57.78,57.77,57.78
201911160551,57.78,57.78,57.78,57.78
201911160552,57.78,57.78,57.78,57.78
201911160553,57.78,57.79,57.78,57.79
201911160554,57.79,57.79,57.78,57.79
201911160555,57.79,57.79,57.77,57.78
201911160556,57.78,57.79,57.78,57.78
201911160557,57.78,57.78,57.76,57.77
201911160558,57.77,57.78,57.76,57.77
201911160559,57.77,57.78,57.76,57.78
201911160600,57.78,57.78,57.77,57.78
201911160601,57.78,57.78,57.77,57.77
201911160602,57.77,57.78,57.77,57.78
201911160603,57.78,57.78,57.78,57.78
201911160604,57.78,57.78,57.78,57.78
201911160605,57.78,57.78,57.78,57.78
201911160606,57.78,57.78,57.78,57.78
201911160607,57.78,57.79,57.78,57.79
201911160608,57.79,57.79,57.78,57.79
201911160609,57.79,57.79,57.77,57.77
201911160610,57.77,57.78,57.77,57.78
201911160611,57.78,57.79,57.78,57.79
201911160612,57.79,57.79,57.79,57.79
201911160613,57.79,57.8,57.79,57.79
201911160614,57.79,57.84,57.79,57.84
201911160615,57.84,57.84,57.83,57.83
201911160616,57.83,57.83,57.8,57.8
201911160617,57.8,57.81,57.79,57.8
201911160618,57.8,57.81,57.8,57.81
201911160619,57.81,57.81,57.8,57.81
201911160620,57.81,57.83,57.81,57.83
201911160621,57.83,57.87,57.83,57.87
201911160622,57.87,57.87,57.85,57.85
201911160623,57.85,57.92,57.85,57.88
201911160624,57.88,57.88,57.86,57.86
201911160625,57.86,57.87,57.85,57.86
201911160626,57.86,57.86,57.85,57.85
201911160627,57.85,57.85,57.85,57.85
201911160628,57.85,57.85,57.84,57.85
201911160629,57.85,57.85,57.82,57.83
201911160630,57.83,57.85,57.83,57.84
201911160631,57.84,57.86,57.83,57.86
201911160632,57.86,57.86,57.83,57.84
201911160633,57.84,57.84,57.82,57.83
201911160634,57.83,57.83,57.79,57.8
201911160635,57.8,57.82,57.8,57.81
201911160636,57.81,57.81,57.78,57.79
201911160637,57.79,57.8,57.79,57.8
201911160638,57.8,57.82,57.8,57.82
201911160639,57.82,57.83,57.81,57.82
201911160640,57.82,57.83,57.81,57.83
201911160641,57.83,57.84,57.83,57.84
201911160642,57.84,57.84,57.83,57.84
201911160643,57.84,57.84,57.82,57.83
201911160644,57.83,57.83,57.8,57.8
201911160645,57.8,57.81,57.78,57.78
201911160646,57.78,57.81,57.78,57.81
201911160647,57.81,57.81,57.78,57.78
201911160648,57.78,57.82,57.78,57.81
201911160649,57.81,57.81,57.8,57.81
201911160650,57.81,57.84,57.81,57.83
201911160651,57.83,57.84,57.83,57.84
201911160652,57.84,57.85,57.84,57.85
201911160653,57.85,57.85,57.85,57.85
201911160654,57.85,57.85,57.84,57.85
201911160655,57.85,57.85,57.84,57.84
201911160656,57.84,57.84,57.83,57.84
201911160657,57.84,57.87,57.84,57.87
201911160658,57.87,57.87,57.86,57.87
201911160659,57.87,57.88,57.85,57.88
