日時,始値(BID),高値(BID),安値(BID),終値(BID)
201906190700,54.3,54.31,54.22,54.25
201906190701,54.25,54.3,54.23,54.29
201906190702,54.29,54.3,54.26,54.26
201906190703,54.26,54.27,54.26,54.26
201906190704,54.26,54.27,54.26,54.27
201906190705,54.27,54.28,54.24,54.25
201906190706,54.25,54.25,54.23,54.23
201906190707,54.23,54.25,54.22,54.23
201906190708,54.23,54.25,54.22,54.23
201906190709,54.23,54.23,54.2,54.2
201906190710,54.2,54.21,54.19,54.21
201906190711,54.21,54.21,54.21,54.21
201906190712,54.21,54.22,54.21,54.22
201906190713,54.22,54.22,54.21,54.21
201906190714,54.21,54.21,54.2,54.2
201906190715,54.2,54.2,54.19,54.2
201906190716,54.2,54.2,54.13,54.18
201906190717,54.18,54.18,54.15,54.16
201906190718,54.16,54.16,54.15,54.15
201906190719,54.15,54.15,54.15,54.15
201906190720,54.15,54.18,54.15,54.18
201906190721,54.18,54.18,54.14,54.15
201906190722,54.15,54.16,54.15,54.15
201906190723,54.15,54.17,54.14,54.15
201906190724,54.15,54.16,54.14,54.16
201906190725,54.16,54.17,54.16,54.16
201906190726,54.16,54.16,54.15,54.16
201906190727,54.16,54.16,54.15,54.15
201906190728,54.15,54.16,54.15,54.16
201906190729,54.16,54.16,54.15,54.16
201906190730,54.16,54.17,54.16,54.17
201906190731,54.17,54.19,54.17,54.19
201906190732,54.19,54.2,54.18,54.2
201906190733,54.2,54.21,54.19,54.19
201906190734,54.19,54.19,54.19,54.19
201906190735,54.19,54.19,54.19,54.19
201906190736,54.19,54.21,54.19,54.21
201906190737,54.21,54.21,54.21,54.21
201906190738,54.21,54.21,54.19,54.19
201906190739,54.19,54.19,54.17,54.17
201906190740,54.17,54.18,54.17,54.18
201906190741,54.18,54.18,54.17,54.18
201906190742,54.18,54.18,54.17,54.18
201906190743,54.18,54.18,54.18,54.18
201906190744,54.18,54.18,54.18,54.18
201906190745,54.18,54.19,54.18,54.19
201906190746,54.19,54.19,54.18,54.18
201906190747,54.18,54.18,54.17,54.17
201906190748,54.17,54.18,54.17,54.18
201906190749,54.18,54.19,54.18,54.19
201906190750,54.19,54.19,54.19,54.19
201906190751,54.19,54.19,54.18,54.18
201906190752,54.18,54.19,54.18,54.19
201906190753,54.19,54.19,54.18,54.19
201906190754,54.19,54.19,54.18,54.18
201906190755,54.18,54.19,54.18,54.19
201906190756,54.19,54.19,54.19,54.19
201906190757,54.19,54.21,54.19,54.21
201906190758,54.21,54.21,54.2,54.21
201906190759,54.21,54.21,54.2,54.2
201906190800,54.21,54.21,54.2,54.21
201906190801,54.21,54.21,54.2,54.21
201906190802,54.21,54.21,54.21,54.21
201906190803,54.21,54.21,54.21,54.21
201906190804,54.21,54.25,54.21,54.25
201906190805,54.26,54.26,54.23,54.24
201906190806,54.24,54.25,54.23,54.24
201906190807,54.24,54.24,54.24,54.24
201906190808,54.24,54.24,54.23,54.23
201906190809,54.23,54.25,54.23,54.25
201906190810,54.25,54.26,54.25,54.26
201906190811,54.26,54.27,54.26,54.27
201906190812,54.27,54.28,54.25,54.26
201906190813,54.26,54.26,54.26,54.26
201906190814,54.26,54.26,54.25,54.25
201906190815,54.25,54.26,54.25,54.26
201906190816,54.26,54.26,54.25,54.26
201906190817,54.26,54.26,54.26,54.26
201906190818,54.26,54.28,54.26,54.28
201906190819,54.28,54.28,54.26,54.26
201906190820,54.26,54.26,54.25,54.25
201906190821,54.25,54.25,54.24,54.25
201906190822,54.25,54.26,54.25,54.26
201906190823,54.26,54.27,54.26,54.27
201906190824,54.27,54.28,54.27,54.28
201906190825,54.28,54.3,54.27,54.27
201906190826,54.27,54.29,54.27,54.29
201906190827,54.29,54.3,54.28,54.3
201906190828,54.3,54.3,54.29,54.29
201906190829,54.29,54.29,54.29,54.29
201906190830,54.29,54.29,54.27,54.27
201906190831,54.27,54.28,54.27,54.27
201906190832,54.27,54.29,54.27,54.28
201906190833,54.28,54.29,54.28,54.28
201906190834,54.28,54.29,54.28,54.29
201906190835,54.29,54.3,54.29,54.29
201906190836,54.29,54.3,54.29,54.3
201906190837,54.3,54.35,54.3,54.35
201906190838,54.35,54.36,54.35,54.36
201906190839,54.36,54.36,54.35,54.36
201906190840,54.36,54.36,54.35,54.36
201906190841,54.36,54.37,54.36,54.37
201906190842,54.37,54.37,54.36,54.37
201906190843,54.37,54.4,54.37,54.39
201906190844,54.39,54.41,54.39,54.4
201906190845,54.4,54.42,54.4,54.42
201906190846,54.42,54.44,54.42,54.42
201906190847,54.42,54.46,54.42,54.46
201906190848,54.46,54.46,54.43,54.44
201906190849,54.44,54.44,54.42,54.43
201906190850,54.43,54.44,54.42,54.44
201906190851,54.44,54.44,54.42,54.43
201906190852,54.43,54.44,54.43,54.43
201906190853,54.43,54.43,54.42,54.43
201906190854,54.43,54.45,54.43,54.43
201906190855,54.43,54.44,54.43,54.43
201906190856,54.43,54.44,54.43,54.44
201906190857,54.44,54.44,54.41,54.42
201906190858,54.42,54.43,54.41,54.42
201906190859,54.42,54.42,54.4,54.4
201906190900,54.4,54.41,54.39,54.41
201906190901,54.41,54.46,54.4,54.46
201906190902,54.46,54.55,54.44,54.55
201906190903,54.55,54.56,54.54,54.56
201906190904,54.56,54.57,54.49,54.49
201906190905,54.49,54.49,54.45,54.47
201906190906,54.47,54.49,54.47,54.47
201906190907,54.47,54.48,54.44,54.45
201906190908,54.45,54.46,54.44,54.44
201906190909,54.44,54.45,54.42,54.42
201906190910,54.42,54.45,54.41,54.45
201906190911,54.45,54.47,54.44,54.47
201906190912,54.47,54.5,54.47,54.48
201906190913,54.48,54.5,54.48,54.5
201906190914,54.5,54.5,54.47,54.47
201906190915,54.47,54.47,54.46,54.46
201906190916,54.46,54.48,54.46,54.47
201906190917,54.47,54.48,54.46,54.48
201906190918,54.48,54.52,54.48,54.51
201906190919,54.51,54.52,54.5,54.51
201906190920,54.51,54.51,54.5,54.51
201906190921,54.51,54.56,54.51,54.55
201906190922,54.55,54.56,54.53,54.53
201906190923,54.53,54.55,54.52,54.54
201906190924,54.54,54.56,54.53,54.53
201906190925,54.53,54.53,54.5,54.5
201906190926,54.5,54.53,54.5,54.52
201906190927,54.52,54.53,54.51,54.51
201906190928,54.51,54.53,54.51,54.51
201906190929,54.51,54.51,54.49,54.49
201906190930,54.49,54.54,54.48,54.53
201906190931,54.53,54.55,54.53,54.54
201906190932,54.54,54.54,54.52,54.53
201906190933,54.53,54.53,54.51,54.51
201906190934,54.51,54.51,54.5,54.5
201906190935,54.5,54.5,54.5,54.5
201906190936,54.5,54.5,54.49,54.49
201906190937,54.49,54.49,54.46,54.46
201906190938,54.46,54.47,54.46,54.46
201906190939,54.46,54.47,54.46,54.47
201906190940,54.47,54.48,54.47,54.48
201906190941,54.48,54.49,54.48,54.49
201906190942,54.49,54.52,54.49,54.52
201906190943,54.52,54.52,54.5,54.5
201906190944,54.5,54.51,54.5,54.51
201906190945,54.51,54.51,54.49,54.49
201906190946,54.49,54.49,54.45,54.46
201906190947,54.46,54.46,54.45,54.46
201906190948,54.46,54.46,54.46,54.46
201906190949,54.46,54.46,54.45,54.45
201906190950,54.45,54.46,54.45,54.46
201906190951,54.46,54.46,54.45,54.46
201906190952,54.46,54.46,54.45,54.45
201906190953,54.45,54.46,54.45,54.45
201906190954,54.45,54.45,54.42,54.42
201906190955,54.42,54.43,54.42,54.42
201906190956,54.42,54.42,54.41,54.42
201906190957,54.42,54.42,54.41,54.42
201906190958,54.42,54.43,54.42,54.43
201906190959,54.43,54.43,54.41,54.41
201906191000,54.41,54.41,54.35,54.36
201906191001,54.36,54.38,54.35,54.35
201906191002,54.35,54.4,54.35,54.39
201906191003,54.39,54.39,54.38,54.38
201906191004,54.38,54.39,54.37,54.37
201906191005,54.37,54.37,54.35,54.35
201906191006,54.35,54.36,54.35,54.36
201906191007,54.36,54.36,54.34,54.36
201906191008,54.36,54.36,54.3,54.31
201906191009,54.31,54.32,54.29,54.29
201906191010,54.29,54.32,54.28,54.32
201906191011,54.32,54.33,54.3,54.3
201906191012,54.3,54.32,54.3,54.3
201906191013,54.3,54.31,54.3,54.3
201906191014,54.31,54.32,54.3,54.31
201906191015,54.31,54.32,54.3,54.32
201906191016,54.32,54.33,54.32,54.33
201906191017,54.33,54.34,54.32,54.34
201906191018,54.34,54.34,54.32,54.33
201906191019,54.33,54.33,54.32,54.33
201906191020,54.33,54.34,54.32,54.32
201906191021,54.32,54.32,54.3,54.3
201906191022,54.3,54.32,54.3,54.32
201906191023,54.32,54.32,54.29,54.3
201906191024,54.3,54.31,54.27,54.28
201906191025,54.28,54.29,54.27,54.28
201906191026,54.28,54.3,54.28,54.3
201906191027,54.3,54.3,54.29,54.3
201906191028,54.3,54.3,54.28,54.28
201906191029,54.28,54.32,54.28,54.32
201906191030,54.32,54.32,54.28,54.28
201906191031,54.28,54.29,54.27,54.28
201906191032,54.28,54.28,54.25,54.26
201906191033,54.26,54.32,54.26,54.31
201906191034,54.31,54.32,54.3,54.31
201906191035,54.31,54.31,54.28,54.29
201906191036,54.29,54.29,54.26,54.27
201906191037,54.27,54.28,54.24,54.24
201906191038,54.24,54.25,54.24,54.25
201906191039,54.25,54.26,54.23,54.25
201906191040,54.25,54.27,54.25,54.26
201906191041,54.26,54.3,54.25,54.29
201906191042,54.29,54.3,54.26,54.27
201906191043,54.27,54.29,54.26,54.28
201906191044,54.28,54.28,54.26,54.27
201906191045,54.27,54.29,54.27,54.28
201906191046,54.28,54.29,54.27,54.27
201906191047,54.27,54.27,54.23,54.24
201906191048,54.24,54.24,54.19,54.21
201906191049,54.21,54.21,54.13,54.13
201906191050,54.13,54.16,54.13,54.15
201906191051,54.15,54.18,54.15,54.16
201906191052,54.16,54.18,54.16,54.16
201906191053,54.16,54.16,54.08,54.09
201906191054,54.09,54.12,54.08,54.12
201906191055,54.12,54.16,54.11,54.15
201906191056,54.15,54.16,54.14,54.15
201906191057,54.15,54.15,54.13,54.14
201906191058,54.14,54.17,54.12,54.17
201906191059,54.17,54.19,54.16,54.19
201906191100,54.19,54.3,54.19,54.3
201906191101,54.3,54.31,54.26,54.26
201906191102,54.26,54.27,54.23,54.23
201906191103,54.23,54.25,54.22,54.22
201906191104,54.22,54.23,54.21,54.21
201906191105,54.21,54.21,54.19,54.19
201906191106,54.19,54.21,54.19,54.21
201906191107,54.21,54.23,54.21,54.22
201906191108,54.22,54.22,54.2,54.21
201906191109,54.21,54.23,54.21,54.22
201906191110,54.22,54.22,54.19,54.19
201906191111,54.19,54.21,54.19,54.2
201906191112,54.2,54.22,54.2,54.22
201906191113,54.22,54.23,54.21,54.22
201906191114,54.22,54.24,54.22,54.24
201906191115,54.24,54.24,54.23,54.23
201906191116,54.23,54.25,54.22,54.25
201906191117,54.25,54.25,54.23,54.24
201906191118,54.24,54.25,54.23,54.24
201906191119,54.24,54.24,54.21,54.22
201906191120,54.22,54.23,54.22,54.23
201906191121,54.23,54.25,54.23,54.24
201906191122,54.24,54.25,54.24,54.24
201906191123,54.24,54.24,54.22,54.23
201906191124,54.23,54.23,54.21,54.21
201906191125,54.21,54.21,54.2,54.21
201906191126,54.21,54.21,54.2,54.2
201906191127,54.2,54.21,54.2,54.2
201906191128,54.2,54.2,54.19,54.19
201906191129,54.19,54.19,54.16,54.16
201906191130,54.16,54.18,54.16,54.18
201906191131,54.18,54.22,54.17,54.22
201906191132,54.22,54.23,54.21,54.21
201906191133,54.21,54.21,54.19,54.21
201906191134,54.21,54.22,54.21,54.21
201906191135,54.21,54.22,54.19,54.22
201906191136,54.22,54.22,54.2,54.21
201906191137,54.21,54.21,54.13,54.13
201906191138,54.13,54.19,54.1,54.19
201906191139,54.19,54.19,54.16,54.17
201906191140,54.17,54.18,54.16,54.16
201906191141,54.16,54.18,54.16,54.18
201906191142,54.18,54.19,54.17,54.17
201906191143,54.17,54.17,54.15,54.16
201906191144,54.16,54.17,54.14,54.15
201906191145,54.15,54.15,54.13,54.14
201906191146,54.14,54.14,54.13,54.14
201906191147,54.14,54.14,54.14,54.14
201906191148,54.14,54.16,54.14,54.14
201906191149,54.14,54.15,54.14,54.15
201906191150,54.15,54.16,54.14,54.16
201906191151,54.16,54.16,54.14,54.14
201906191152,54.14,54.16,54.13,54.15
201906191153,54.15,54.16,54.14,54.15
201906191154,54.15,54.17,54.15,54.16
201906191155,54.16,54.16,54.16,54.16
201906191156,54.16,54.16,54.13,54.13
201906191157,54.13,54.15,54.12,54.14
201906191158,54.14,54.15,54.12,54.12
201906191159,54.12,54.12,54.1,54.11
201906191200,54.11,54.12,54.1,54.12
201906191201,54.12,54.13,54.11,54.13
201906191202,54.13,54.14,54.12,54.13
201906191203,54.13,54.15,54.13,54.14
201906191204,54.14,54.14,54.12,54.13
201906191205,54.13,54.14,54.12,54.14
201906191206,54.14,54.14,54.13,54.13
201906191207,54.13,54.13,54.12,54.12
201906191208,54.12,54.14,54.11,54.13
201906191209,54.13,54.14,54.12,54.12
201906191210,54.12,54.12,54.11,54.12
201906191211,54.12,54.12,54.11,54.12
201906191212,54.12,54.12,54.12,54.12
201906191213,54.12,54.13,54.12,54.12
201906191214,54.12,54.13,54.12,54.12
201906191215,54.12,54.13,54.12,54.13
201906191216,54.13,54.13,54.12,54.13
201906191217,54.13,54.14,54.13,54.14
201906191218,54.14,54.14,54.14,54.14
201906191219,54.14,54.14,54.14,54.14
201906191220,54.14,54.16,54.14,54.15
201906191221,54.15,54.18,54.15,54.17
201906191222,54.17,54.19,54.17,54.19
201906191223,54.19,54.19,54.18,54.19
201906191224,54.19,54.21,54.19,54.2
201906191225,54.2,54.2,54.19,54.19
201906191226,54.19,54.19,54.17,54.18
201906191227,54.18,54.2,54.18,54.2
201906191228,54.2,54.2,54.19,54.2
201906191229,54.2,54.2,54.2,54.2
201906191230,54.2,54.21,54.2,54.2
201906191231,54.2,54.2,54.19,54.2
201906191232,54.2,54.2,54.2,54.2
201906191233,54.2,54.21,54.2,54.2
201906191234,54.2,54.2,54.19,54.19
201906191235,54.19,54.2,54.18,54.18
201906191236,54.18,54.18,54.16,54.17
201906191237,54.17,54.17,54.15,54.15
201906191238,54.15,54.15,54.15,54.15
201906191239,54.15,54.16,54.15,54.16
201906191240,54.16,54.16,54.15,54.15
201906191241,54.15,54.15,54.15,54.15
201906191242,54.15,54.15,54.15,54.15
201906191243,54.15,54.16,54.15,54.16
201906191244,54.16,54.16,54.15,54.15
201906191245,54.15,54.16,54.15,54.15
201906191246,54.15,54.15,54.15,54.15
201906191247,54.15,54.15,54.13,54.14
201906191248,54.14,54.16,54.14,54.16
201906191249,54.16,54.17,54.16,54.17
201906191250,54.17,54.19,54.17,54.19
201906191251,54.19,54.2,54.19,54.19
201906191252,54.19,54.19,54.18,54.19
201906191253,54.19,54.2,54.19,54.19
201906191254,54.19,54.19,54.19,54.19
201906191255,54.19,54.19,54.18,54.19
201906191256,54.19,54.2,54.19,54.2
201906191257,54.2,54.21,54.19,54.21
201906191258,54.21,54.21,54.18,54.18
201906191259,54.18,54.18,54.18,54.18
201906191300,54.18,54.18,54.17,54.17
201906191301,54.17,54.18,54.17,54.17
201906191302,54.17,54.18,54.16,54.18
201906191303,54.18,54.19,54.17,54.17
201906191304,54.17,54.22,54.16,54.22
201906191305,54.22,54.23,54.2,54.2
201906191306,54.2,54.22,54.2,54.22
201906191307,54.22,54.23,54.21,54.22
201906191308,54.22,54.23,54.22,54.22
201906191309,54.22,54.24,54.22,54.23
201906191310,54.23,54.25,54.23,54.25
201906191311,54.25,54.26,54.25,54.26
201906191312,54.26,54.26,54.25,54.25
201906191313,54.25,54.25,54.24,54.25
201906191314,54.25,54.25,54.24,54.25
201906191315,54.25,54.25,54.24,54.24
201906191316,54.24,54.24,54.24,54.24
201906191317,54.24,54.24,54.24,54.24
201906191318,54.24,54.24,54.23,54.24
201906191319,54.24,54.25,54.24,54.24
201906191320,54.24,54.25,54.24,54.24
201906191321,54.24,54.24,54.24,54.24
201906191322,54.24,54.24,54.23,54.24
201906191323,54.24,54.25,54.23,54.24
201906191324,54.24,54.24,54.23,54.24
201906191325,54.24,54.27,54.24,54.26
201906191326,54.26,54.26,54.25,54.26
201906191327,54.26,54.27,54.26,54.27
201906191328,54.27,54.27,54.27,54.27
201906191329,54.27,54.27,54.27,54.27
201906191330,54.27,54.28,54.27,54.27
201906191331,54.27,54.28,54.27,54.28
201906191332,54.28,54.28,54.27,54.27
201906191333,54.27,54.27,54.27,54.27
201906191334,54.27,54.27,54.25,54.25
201906191335,54.25,54.25,54.23,54.23
201906191336,54.23,54.24,54.22,54.24
201906191337,54.24,54.25,54.24,54.24
201906191338,54.24,54.24,54.23,54.24
201906191339,54.24,54.24,54.23,54.23
201906191340,54.23,54.23,54.22,54.23
201906191341,54.23,54.23,54.21,54.21
201906191342,54.21,54.21,54.21,54.21
201906191343,54.21,54.21,54.2,54.21
201906191344,54.21,54.21,54.2,54.21
201906191345,54.21,54.22,54.21,54.22
201906191346,54.22,54.22,54.21,54.21
201906191347,54.21,54.22,54.21,54.21
201906191348,54.21,54.22,54.2,54.22
201906191349,54.22,54.22,54.21,54.21
201906191350,54.21,54.21,54.21,54.21
201906191351,54.21,54.22,54.21,54.22
201906191352,54.22,54.23,54.22,54.22
201906191353,54.22,54.22,54.22,54.22
201906191354,54.22,54.22,54.22,54.22
201906191355,54.22,54.24,54.22,54.24
201906191356,54.24,54.25,54.24,54.25
201906191357,54.25,54.27,54.25,54.27
201906191358,54.27,54.27,54.25,54.25
201906191359,54.25,54.26,54.25,54.25
201906191400,54.25,54.25,54.24,54.24
201906191401,54.24,54.24,54.24,54.24
201906191402,54.24,54.25,54.23,54.24
201906191403,54.24,54.25,54.23,54.23
201906191404,54.23,54.24,54.22,54.23
201906191405,54.23,54.23,54.22,54.23
201906191406,54.23,54.26,54.23,54.26
201906191407,54.26,54.29,54.26,54.28
201906191408,54.28,54.29,54.28,54.29
201906191409,54.29,54.29,54.29,54.29
201906191410,54.29,54.29,54.27,54.28
201906191411,54.28,54.28,54.28,54.28
201906191412,54.28,54.28,54.28,54.28
201906191413,54.28,54.28,54.27,54.27
201906191414,54.27,54.28,54.27,54.28
201906191415,54.28,54.29,54.28,54.29
201906191416,54.29,54.29,54.28,54.28
201906191417,54.28,54.29,54.28,54.29
201906191418,54.29,54.3,54.28,54.3
201906191419,54.3,54.3,54.29,54.3
201906191420,54.3,54.3,54.28,54.29
201906191421,54.29,54.29,54.28,54.28
201906191422,54.28,54.29,54.28,54.29
201906191423,54.29,54.3,54.29,54.3
201906191424,54.3,54.3,54.3,54.3
201906191425,54.3,54.3,54.27,54.28
201906191426,54.28,54.3,54.28,54.3
201906191427,54.3,54.3,54.29,54.3
201906191428,54.3,54.3,54.29,54.3
201906191429,54.3,54.3,54.29,54.29
201906191430,54.29,54.31,54.29,54.31
201906191431,54.31,54.31,54.26,54.27
201906191432,54.27,54.27,54.26,54.27
201906191433,54.27,54.27,54.24,54.24
201906191434,54.24,54.25,54.21,54.23
201906191435,54.23,54.24,54.23,54.23
201906191436,54.23,54.24,54.21,54.22
201906191437,54.22,54.22,54.2,54.21
201906191438,54.21,54.22,54.2,54.2
201906191439,54.2,54.22,54.2,54.22
201906191440,54.22,54.22,54.2,54.2
201906191441,54.2,54.21,54.18,54.19
201906191442,54.19,54.2,54.19,54.2
201906191443,54.2,54.22,54.2,54.22
201906191444,54.22,54.22,54.2,54.2
201906191445,54.2,54.22,54.2,54.22
201906191446,54.22,54.22,54.2,54.22
201906191447,54.22,54.23,54.22,54.22
201906191448,54.22,54.22,54.21,54.22
201906191449,54.22,54.24,54.22,54.24
201906191450,54.24,54.25,54.21,54.21
201906191451,54.21,54.22,54.19,54.2
201906191452,54.2,54.2,54.18,54.19
201906191453,54.19,54.2,54.19,54.19
201906191454,54.19,54.2,54.18,54.2
201906191455,54.2,54.22,54.2,54.21
201906191456,54.21,54.23,54.21,54.22
201906191457,54.22,54.25,54.22,54.24
201906191458,54.24,54.24,54.2,54.21
201906191459,54.21,54.25,54.21,54.25
201906191500,54.25,54.25,54.22,54.22
201906191501,54.22,54.25,54.22,54.24
201906191502,54.24,54.25,54.21,54.23
201906191503,54.23,54.23,54.19,54.19
201906191504,54.19,54.2,54.18,54.2
201906191505,54.2,54.23,54.2,54.22
201906191506,54.22,54.22,54.2,54.2
201906191507,54.2,54.22,54.19,54.21
201906191508,54.21,54.24,54.21,54.22
201906191509,54.22,54.22,54.21,54.22
201906191510,54.22,54.22,54.21,54.21
201906191511,54.21,54.22,54.21,54.21
201906191512,54.21,54.23,54.2,54.22
201906191513,54.22,54.23,54.21,54.21
201906191514,54.22,54.24,54.21,54.24
201906191515,54.24,54.28,54.24,54.27
201906191516,54.27,54.36,54.27,54.35
201906191517,54.35,54.36,54.33,54.33
201906191518,54.33,54.36,54.33,54.35
201906191519,54.35,54.4,54.34,54.39
201906191520,54.4,54.4,54.37,54.37
201906191521,54.37,54.38,54.37,54.37
201906191522,54.37,54.37,54.34,54.34
201906191523,54.34,54.35,54.34,54.35
201906191524,54.35,54.36,54.35,54.36
201906191525,54.36,54.37,54.36,54.37
201906191526,54.37,54.38,54.36,54.37
201906191527,54.37,54.38,54.37,54.37
201906191528,54.37,54.38,54.36,54.37
201906191529,54.37,54.38,54.37,54.38
201906191530,54.38,54.4,54.38,54.4
201906191531,54.4,54.41,54.39,54.41
201906191532,54.41,54.41,54.38,54.39
201906191533,54.39,54.39,54.36,54.36
201906191534,54.36,54.36,54.34,54.36
201906191535,54.36,54.36,54.34,54.35
201906191536,54.35,54.35,54.34,54.34
201906191537,54.34,54.35,54.33,54.34
201906191538,54.34,54.34,54.33,54.34
201906191539,54.34,54.34,54.33,54.33
201906191540,54.33,54.35,54.33,54.34
201906191541,54.34,54.34,54.34,54.34
201906191542,54.34,54.37,54.33,54.36
201906191543,54.36,54.37,54.33,54.33
201906191544,54.33,54.33,54.28,54.29
201906191545,54.29,54.3,54.28,54.28
201906191546,54.28,54.28,54.25,54.26
201906191547,54.26,54.29,54.26,54.29
201906191548,54.29,54.3,54.27,54.28
201906191549,54.28,54.3,54.28,54.3
201906191550,54.3,54.31,54.29,54.3
201906191551,54.3,54.31,54.29,54.29
201906191552,54.29,54.3,54.28,54.29
201906191553,54.29,54.29,54.27,54.27
201906191554,54.27,54.28,54.26,54.27
201906191555,54.27,54.33,54.26,54.31
201906191556,54.31,54.32,54.3,54.3
201906191557,54.3,54.31,54.29,54.3
201906191558,54.3,54.31,54.29,54.3
201906191559,54.3,54.3,54.29,54.3
201906191600,54.29,54.29,54.23,54.27
201906191601,54.27,54.29,54.26,54.29
201906191602,54.29,54.29,54.25,54.26
201906191603,54.26,54.28,54.26,54.26
201906191604,54.26,54.27,54.25,54.26
201906191605,54.26,54.26,54.21,54.22
201906191606,54.22,54.22,54.19,54.21
201906191607,54.21,54.22,54.17,54.17
201906191608,54.17,54.21,54.16,54.19
201906191609,54.19,54.19,54.16,54.17
201906191610,54.17,54.17,54.13,54.16
201906191611,54.16,54.18,54.16,54.18
201906191612,54.18,54.18,54.17,54.17
201906191613,54.17,54.18,54.14,54.14
201906191614,54.14,54.18,54.14,54.17
201906191615,54.17,54.18,54.16,54.18
201906191616,54.18,54.2,54.17,54.18
201906191617,54.18,54.18,54.18,54.18
201906191618,54.18,54.18,54.17,54.17
201906191619,54.17,54.2,54.17,54.19
201906191620,54.19,54.2,54.18,54.19
201906191621,54.19,54.23,54.19,54.22
201906191622,54.22,54.22,54.19,54.2
201906191623,54.2,54.2,54.19,54.19
201906191624,54.19,54.2,54.17,54.2
201906191625,54.2,54.2,54.17,54.17
201906191626,54.17,54.17,54.15,54.16
201906191627,54.16,54.16,54.15,54.15
201906191628,54.15,54.15,54.14,54.14
201906191629,54.14,54.19,54.14,54.18
201906191630,54.18,54.22,54.18,54.22
201906191631,54.22,54.26,54.22,54.26
201906191632,54.26,54.27,54.25,54.25
201906191633,54.25,54.27,54.23,54.26
201906191634,54.26,54.32,54.26,54.3
201906191635,54.3,54.33,54.29,54.3
201906191636,54.3,54.31,54.25,54.26
201906191637,54.26,54.39,54.26,54.35
201906191638,54.35,54.35,54.33,54.34
201906191639,54.34,54.37,54.33,54.37
201906191640,54.37,54.37,54.33,54.35
201906191641,54.35,54.35,54.31,54.32
201906191642,54.32,54.33,54.31,54.32
201906191643,54.32,54.32,54.3,54.31
201906191644,54.31,54.32,54.29,54.29
201906191645,54.29,54.32,54.29,54.31
201906191646,54.31,54.32,54.29,54.3
201906191647,54.3,54.31,54.28,54.3
201906191648,54.3,54.3,54.29,54.29
201906191649,54.29,54.29,54.27,54.29
201906191650,54.29,54.29,54.26,54.28
201906191651,54.28,54.33,54.28,54.31
201906191652,54.31,54.33,54.29,54.33
201906191653,54.33,54.33,54.31,54.32
201906191654,54.32,54.33,54.32,54.32
201906191655,54.32,54.34,54.3,54.3
201906191656,54.3,54.31,54.29,54.29
201906191657,54.29,54.32,54.28,54.31
201906191658,54.31,54.32,54.26,54.27
201906191659,54.27,54.27,54.23,54.24
201906191700,54.24,54.33,54.24,54.32
201906191701,54.32,54.34,54.29,54.33
201906191702,54.33,54.37,54.3,54.31
201906191703,54.31,54.32,54.28,54.28
201906191704,54.28,54.32,54.27,54.3
201906191705,54.31,54.31,54.26,54.27
201906191706,54.27,54.27,54.22,54.25
201906191707,54.25,54.27,54.24,54.26
201906191708,54.26,54.26,54.23,54.23
201906191709,54.23,54.23,54.21,54.22
201906191710,54.22,54.22,54.2,54.22
201906191711,54.22,54.23,54.21,54.22
201906191712,54.22,54.25,54.22,54.24
201906191713,54.24,54.25,54.21,54.21
201906191714,54.21,54.23,54.21,54.21
201906191715,54.21,54.21,54.17,54.18
201906191716,54.18,54.22,54.18,54.22
201906191717,54.22,54.23,54.21,54.22
201906191718,54.22,54.26,54.22,54.26
201906191719,54.26,54.29,54.24,54.25
201906191720,54.25,54.26,54.22,54.25
201906191721,54.25,54.25,54.18,54.18
201906191722,54.18,54.21,54.17,54.2
201906191723,54.2,54.2,54.04,54.09
201906191724,54.09,54.09,54.03,54.07
201906191725,54.07,54.12,54.05,54.12
201906191726,54.11,54.13,54.11,54.11
201906191727,54.11,54.12,54.09,54.1
201906191728,54.1,54.13,54.09,54.13
201906191729,54.13,54.13,54.1,54.12
201906191730,54.12,54.13,54.07,54.11
201906191731,54.11,54.12,54.09,54.1
201906191732,54.1,54.1,54.07,54.07
201906191733,54.07,54.08,54.06,54.07
201906191734,54.07,54.11,54.07,54.1
201906191735,54.1,54.12,54.08,54.08
201906191736,54.08,54.09,54.05,54.06
201906191737,54.06,54.1,54.03,54.07
201906191738,54.07,54.08,54.05,54.05
201906191739,54.05,54.06,54.02,54.03
201906191740,54.03,54.09,54,54.07
201906191741,54.07,54.08,54.05,54.07
201906191742,54.07,54.08,54.05,54.05
201906191743,54.05,54.05,54.02,54.04
201906191744,54.04,54.05,54.01,54.02
201906191745,54.02,54.05,54,54.05
201906191746,54.05,54.07,54.03,54.04
201906191747,54.04,54.04,54.02,54.02
201906191748,54.02,54.02,54,54.01
201906191749,54.01,54.04,54.01,54.02
201906191750,54.02,54.03,54.01,54.01
201906191751,54.01,54.05,53.99,54.05
201906191752,54.05,54.06,54.03,54.03
201906191753,54.03,54.04,53.99,54.01
201906191754,54.01,54.03,53.99,54
201906191755,54,54.02,54,54.02
201906191756,54.02,54.05,54.01,54.05
201906191757,54.05,54.06,54.02,54.03
201906191758,54.03,54.03,53.95,53.97
201906191759,53.97,54.02,53.97,54.01
201906191800,54.02,54.02,53.98,53.98
201906191801,53.98,53.98,53.95,53.97
201906191802,53.97,54.02,53.97,54.01
201906191803,54.01,54.02,53.97,53.99
201906191804,53.99,54.02,53.99,54.02
201906191805,54.02,54.02,53.98,53.98
201906191806,53.98,54,53.98,54
201906191807,54,54.01,53.98,53.99
201906191808,53.99,54.01,53.99,54.01
201906191809,54.01,54.06,54.01,54.03
201906191810,54.03,54.06,54.01,54.01
201906191811,54.01,54.04,54.01,54.04
201906191812,54.04,54.04,53.96,53.96
201906191813,53.96,53.97,53.92,53.93
201906191814,53.93,53.93,53.9,53.91
201906191815,53.91,53.95,53.9,53.93
201906191816,53.94,53.97,53.93,53.96
201906191817,53.96,53.98,53.95,53.97
201906191818,53.97,53.98,53.95,53.98
201906191819,53.98,53.98,53.96,53.97
201906191820,53.97,54.01,53.97,54
201906191821,54,54.05,53.97,54.03
201906191822,54.02,54.05,54,54.02
201906191823,54.02,54.03,54,54.02
201906191824,54.02,54.03,54,54
201906191825,54,54.01,53.97,54
201906191826,54,54.05,54,54.02
201906191827,54.02,54.04,54,54.01
201906191828,54.01,54.03,53.98,54.03
201906191829,54.03,54.06,54.02,54.06
201906191830,54.06,54.06,54.04,54.04
201906191831,54.05,54.07,54.04,54.06
201906191832,54.06,54.1,54.05,54.09
201906191833,54.09,54.12,54.09,54.1
201906191834,54.1,54.12,54.08,54.12
201906191835,54.12,54.12,54.05,54.06
201906191836,54.06,54.07,54.01,54.04
201906191837,54.04,54.06,54.03,54.03
201906191838,54.03,54.04,53.99,54
201906191839,54,54.03,54,54.03
201906191840,54.03,54.03,54,54.01
201906191841,54.01,54.02,53.99,54.01
201906191842,54.01,54.04,54,54.04
201906191843,54.04,54.08,54.03,54.08
201906191844,54.08,54.1,54.06,54.06
201906191845,54.06,54.1,54.05,54.07
201906191846,54.07,54.07,54.01,54.04
201906191847,54.04,54.06,54.01,54.02
201906191848,54.02,54.05,54.02,54.04
201906191849,54.04,54.04,54.03,54.04
201906191850,54.04,54.08,54.04,54.08
201906191851,54.08,54.09,54.03,54.05
201906191852,54.05,54.06,54.04,54.04
201906191853,54.04,54.07,54.04,54.06
201906191854,54.06,54.06,54.04,54.04
201906191855,54.04,54.06,54.04,54.05
201906191856,54.05,54.06,54.03,54.04
201906191857,54.04,54.05,54.02,54.03
201906191858,54.03,54.04,54.02,54.03
201906191859,54.03,54.06,54.03,54.06
201906191900,54.06,54.07,54,54.01
201906191901,54.01,54.01,53.96,54
201906191902,54,54.03,53.98,54.03
201906191903,54.03,54.03,54,54.01
201906191904,54.01,54.03,54.01,54.01
201906191905,54.01,54.02,53.98,54.01
201906191906,54.01,54.03,54,54.02
201906191907,54.02,54.03,54.01,54.02
201906191908,54.02,54.04,54.01,54.02
201906191909,54.02,54.02,54,54.01
201906191910,54.01,54.05,54,54.05
201906191911,54.05,54.07,54.03,54.07
201906191912,54.07,54.08,54.06,54.06
201906191913,54.06,54.11,54.06,54.1
201906191914,54.1,54.1,54.07,54.08
201906191915,54.08,54.08,54.05,54.06
201906191916,54.06,54.06,54.03,54.06
201906191917,54.06,54.08,54.04,54.04
201906191918,54.04,54.08,54.04,54.07
201906191919,54.07,54.11,54.07,54.11
201906191920,54.11,54.13,54.09,54.13
201906191921,54.13,54.14,54.11,54.11
201906191922,54.11,54.13,54.1,54.13
201906191923,54.13,54.17,54.12,54.15
201906191924,54.15,54.2,54.14,54.2
201906191925,54.2,54.2,54.18,54.19
201906191926,54.19,54.19,54.17,54.17
201906191927,54.17,54.19,54.16,54.19
201906191928,54.19,54.19,54.15,54.16
201906191929,54.16,54.17,54.15,54.16
201906191930,54.16,54.17,54.11,54.12
201906191931,54.12,54.14,54.11,54.12
201906191932,54.12,54.13,54.11,54.12
201906191933,54.12,54.14,54.11,54.11
201906191934,54.11,54.11,54.1,54.11
201906191935,54.11,54.11,54.07,54.08
201906191936,54.07,54.08,54.04,54.08
201906191937,54.08,54.08,54.04,54.05
201906191938,54.05,54.07,54.05,54.06
201906191939,54.06,54.06,54.04,54.04
201906191940,54.04,54.04,54.03,54.04
201906191941,54.04,54.05,54.03,54.04
201906191942,54.04,54.06,54.04,54.06
201906191943,54.06,54.07,54.05,54.06
201906191944,54.06,54.06,54,54.01
201906191945,54.02,54.03,54,54
201906191946,54,54.02,54,54.01
201906191947,54.01,54.04,54.01,54.03
201906191948,54.03,54.04,54.03,54.03
201906191949,54.03,54.04,54.02,54.03
201906191950,54.03,54.03,54,54.01
201906191951,54.01,54.01,53.99,54
201906191952,54,54.04,54,54.01
201906191953,54.01,54.03,54,54.02
201906191954,54.02,54.02,54,54
201906191955,54,54.04,54,54.04
201906191956,54.04,54.07,54.04,54.07
201906191957,54.07,54.08,54.07,54.07
201906191958,54.07,54.1,54.07,54.1
201906191959,54.1,54.12,54.1,54.12
201906192000,54.12,54.12,54.05,54.06
201906192001,54.06,54.07,54.06,54.06
201906192002,54.06,54.07,54.06,54.06
201906192003,54.06,54.07,54.06,54.07
201906192004,54.07,54.08,54.06,54.08
201906192005,54.08,54.09,54.07,54.07
201906192006,54.07,54.1,54.07,54.07
201906192007,54.07,54.08,54.07,54.07
201906192008,54.07,54.07,54.02,54.02
201906192009,54.02,54.03,54.01,54.01
201906192010,54.01,54.01,53.99,54.01
201906192011,54.01,54.01,53.99,54
201906192012,54,54.02,54,54.02
201906192013,54.02,54.04,54.01,54.03
201906192014,54.03,54.03,54.02,54.02
201906192015,54.02,54.02,53.99,53.99
201906192016,53.99,54,53.99,53.99
201906192017,53.99,54.01,53.99,54.01
201906192018,54.01,54.03,54.01,54.02
201906192019,54.02,54.03,54.02,54.02
201906192020,54.02,54.04,54.01,54.04
201906192021,54.04,54.1,54.04,54.08
201906192022,54.08,54.08,54.05,54.06
201906192023,54.06,54.08,54.06,54.08
201906192024,54.08,54.09,54.06,54.07
201906192025,54.07,54.08,54.06,54.06
201906192026,54.06,54.07,54.06,54.06
201906192027,54.06,54.13,54.06,54.1
201906192028,54.1,54.11,54.08,54.08
201906192029,54.08,54.08,54.06,54.06
201906192030,54.06,54.06,54.03,54.03
201906192031,54.03,54.06,54.02,54.05
201906192032,54.05,54.05,54.03,54.05
201906192033,54.05,54.06,54.04,54.04
201906192034,54.04,54.04,54.03,54.03
201906192035,54.03,54.05,54.03,54.03
201906192036,54.03,54.03,54.01,54.01
201906192037,54.01,54.02,53.99,54
201906192038,54,54.04,54,54.04
201906192039,54.04,54.05,54.03,54.03
201906192040,54.03,54.03,54.01,54.01
201906192041,54.01,54.03,54.01,54.02
201906192042,54.02,54.02,54.01,54.02
201906192043,54.02,54.04,54.01,54.04
201906192044,54.04,54.05,54.01,54.02
201906192045,54.02,54.02,54,54.01
201906192046,54.01,54.04,54.01,54.03
201906192047,54.03,54.03,54.02,54.02
201906192048,54.02,54.03,54.02,54.03
201906192049,54.03,54.05,54.03,54.04
201906192050,54.04,54.04,54.03,54.04
201906192051,54.04,54.05,54.04,54.04
201906192052,54.04,54.05,54.04,54.04
201906192053,54.04,54.06,54.04,54.05
201906192054,54.05,54.05,54.04,54.05
201906192055,54.05,54.05,54.05,54.05
201906192056,54.05,54.05,54.05,54.05
201906192057,54.05,54.05,54.05,54.05
201906192058,54.05,54.11,54.05,54.1
201906192059,54.1,54.13,54.07,54.13
201906192100,54.13,54.13,54.08,54.09
201906192101,54.09,54.11,54.08,54.11
201906192102,54.11,54.11,54.09,54.11
201906192103,54.11,54.17,54.1,54.16
201906192104,54.16,54.18,54.13,54.16
201906192105,54.16,54.16,54.13,54.13
201906192106,54.13,54.14,54.12,54.12
201906192107,54.12,54.14,54.12,54.13
201906192108,54.13,54.14,54.11,54.11
201906192109,54.11,54.19,54.11,54.19
201906192110,54.19,54.19,54.16,54.17
201906192111,54.17,54.17,54.08,54.11
201906192112,54.11,54.11,54.1,54.1
201906192113,54.1,54.11,54.09,54.09
201906192114,54.09,54.1,54.08,54.09
201906192115,54.09,54.1,54.07,54.1
201906192116,54.1,54.11,54.08,54.09
201906192117,54.09,54.09,54.07,54.08
201906192118,54.08,54.08,54.06,54.07
201906192119,54.07,54.09,54.07,54.08
201906192120,54.08,54.08,54.05,54.06
201906192121,54.06,54.06,54.06,54.06
201906192122,54.06,54.1,54.06,54.09
201906192123,54.09,54.11,54.08,54.08
201906192124,54.08,54.11,54.08,54.1
201906192125,54.1,54.11,54.08,54.09
201906192126,54.09,54.1,54.08,54.08
201906192127,54.08,54.08,54.04,54.05
201906192128,54.05,54.05,54.04,54.05
201906192129,54.05,54.05,54.04,54.05
201906192130,54.05,54.07,54.05,54.07
201906192131,54.07,54.07,54.05,54.06
201906192132,54.06,54.1,54.05,54.1
201906192133,54.1,54.11,54.08,54.08
201906192134,54.08,54.1,54.08,54.1
201906192135,54.1,54.14,54.1,54.14
201906192136,54.14,54.15,54.12,54.12
201906192137,54.12,54.13,54.12,54.13
201906192138,54.13,54.13,54.1,54.12
201906192139,54.12,54.14,54.11,54.13
201906192140,54.13,54.15,54.11,54.11
201906192141,54.11,54.13,54.11,54.13
201906192142,54.13,54.14,54.12,54.13
201906192143,54.13,54.15,54.13,54.14
201906192144,54.14,54.14,54.12,54.13
201906192145,54.13,54.15,54.12,54.13
201906192146,54.13,54.16,54.08,54.16
201906192147,54.16,54.16,54.13,54.14
201906192148,54.15,54.16,54.14,54.14
201906192149,54.14,54.16,54.14,54.15
201906192150,54.15,54.15,54.12,54.12
201906192151,54.12,54.12,54.1,54.11
201906192152,54.11,54.13,54.09,54.13
201906192153,54.13,54.15,54.13,54.14
201906192154,54.14,54.16,54.12,54.15
201906192155,54.15,54.16,54.13,54.14
201906192156,54.14,54.17,54.11,54.17
201906192157,54.17,54.19,54.11,54.15
201906192158,54.15,54.15,54.13,54.14
201906192159,54.14,54.17,54.12,54.12
201906192200,54.12,54.12,53.93,53.93
201906192201,53.93,53.95,53.87,53.87
201906192202,53.87,53.89,53.82,53.86
201906192203,53.86,53.9,53.82,53.9
201906192204,53.9,53.9,53.84,53.87
201906192205,53.87,53.9,53.85,53.89
201906192206,53.89,53.89,53.86,53.88
201906192207,53.88,53.89,53.85,53.89
201906192208,53.89,53.91,53.88,53.9
201906192209,53.9,53.96,53.9,53.92
201906192210,53.92,53.93,53.9,53.9
201906192211,53.9,53.92,53.88,53.9
201906192212,53.9,53.91,53.89,53.89
201906192213,53.89,53.9,53.83,53.83
201906192214,53.83,53.85,53.82,53.84
201906192215,53.84,53.86,53.82,53.82
201906192216,53.82,53.85,53.82,53.83
201906192217,53.83,53.85,53.79,53.8
201906192218,53.8,53.88,53.8,53.84
201906192219,53.85,53.85,53.8,53.8
201906192220,53.8,53.85,53.78,53.84
201906192221,53.84,53.84,53.81,53.82
201906192222,53.82,53.83,53.8,53.82
201906192223,53.82,53.82,53.79,53.81
201906192224,53.81,53.84,53.8,53.84
201906192225,53.84,53.85,53.81,53.84
201906192226,53.84,53.84,53.77,53.79
201906192227,53.79,53.79,53.64,53.69
201906192228,53.69,53.69,53.63,53.65
201906192229,53.65,53.65,53.62,53.64
201906192230,53.64,53.66,53.6,53.66
201906192231,53.66,53.69,53.62,53.65
201906192232,53.65,53.72,53.63,53.71
201906192233,53.71,53.71,53.65,53.66
201906192234,53.66,53.68,53.63,53.63
201906192235,53.63,53.64,53.55,53.57
201906192236,53.57,53.57,53.52,53.54
201906192237,53.53,53.55,53.49,53.5
201906192238,53.5,53.55,53.49,53.54
201906192239,53.54,53.58,53.52,53.58
201906192240,53.58,53.59,53.54,53.58
201906192241,53.58,53.63,53.55,53.63
201906192242,53.63,53.64,53.6,53.62
201906192243,53.62,53.63,53.57,53.57
201906192244,53.57,53.61,53.56,53.58
201906192245,53.58,53.61,53.57,53.58
201906192246,53.58,53.61,53.57,53.59
201906192247,53.59,53.59,53.54,53.57
201906192248,53.57,53.58,53.55,53.56
201906192249,53.56,53.6,53.55,53.58
201906192250,53.58,53.59,53.54,53.58
201906192251,53.58,53.63,53.58,53.63
201906192252,53.63,53.69,53.62,53.67
201906192253,53.67,53.71,53.66,53.7
201906192254,53.7,53.7,53.65,53.67
201906192255,53.67,53.73,53.67,53.7
201906192256,53.7,53.73,53.7,53.73
201906192257,53.73,53.74,53.69,53.72
201906192258,53.73,53.74,53.7,53.72
201906192259,53.72,53.76,53.7,53.75
201906192300,53.75,53.79,53.75,53.79
201906192301,53.79,53.87,53.79,53.87
201906192302,53.87,53.87,53.8,53.8
201906192303,53.8,53.8,53.74,53.74
201906192304,53.75,53.77,53.7,53.71
201906192305,53.71,53.73,53.71,53.71
201906192306,53.71,53.78,53.7,53.78
201906192307,53.78,53.79,53.73,53.73
201906192308,53.73,53.74,53.67,53.67
201906192309,53.67,53.7,53.65,53.7
201906192310,53.7,53.73,53.7,53.73
201906192311,53.73,53.78,53.72,53.76
201906192312,53.76,53.76,53.7,53.74
201906192313,53.73,53.76,53.73,53.75
201906192314,53.75,53.78,53.75,53.77
201906192315,53.77,53.79,53.75,53.75
201906192316,53.74,53.74,53.7,53.71
201906192317,53.71,53.71,53.69,53.7
201906192318,53.71,53.71,53.67,53.69
201906192319,53.7,53.72,53.66,53.67
201906192320,53.66,53.66,53.62,53.63
201906192321,53.63,53.67,53.63,53.66
201906192322,53.66,53.68,53.64,53.67
201906192323,53.67,53.71,53.67,53.7
201906192324,53.7,53.71,53.69,53.69
201906192325,53.69,53.71,53.68,53.7
201906192326,53.69,53.7,53.67,53.67
201906192327,53.67,53.67,53.62,53.63
201906192328,53.63,53.71,53.63,53.69
201906192329,53.69,53.69,53.65,53.66
201906192330,53.66,54.4,53.66,54.38
201906192331,54.38,54.48,54.3,54.46
201906192332,54.46,54.5,54.4,54.45
201906192333,54.44,54.46,54.35,54.43
201906192334,54.43,54.48,54.24,54.32
201906192335,54.33,54.37,54.25,54.3
201906192336,54.31,54.44,54.3,54.44
201906192337,54.43,54.51,54.4,54.42
201906192338,54.42,54.43,54.36,54.38
201906192339,54.38,54.39,54.31,54.33
201906192340,54.33,54.42,54.32,54.4
201906192341,54.4,54.41,54.36,54.38
201906192342,54.38,54.4,54.25,54.27
201906192343,54.27,54.29,54.19,54.23
201906192344,54.25,54.34,54.23,54.34
201906192345,54.34,54.36,54.26,54.27
201906192346,54.27,54.33,54.26,54.31
201906192347,54.31,54.32,54.26,54.3
201906192348,54.3,54.35,54.29,54.35
201906192349,54.35,54.41,54.35,54.41
201906192350,54.41,54.43,54.37,54.39
201906192351,54.39,54.39,54.31,54.34
201906192352,54.34,54.37,54.33,54.35
201906192353,54.35,54.38,54.35,54.35
201906192354,54.35,54.38,54.33,54.33
201906192355,54.33,54.34,54.29,54.32
201906192356,54.33,54.34,54.25,54.25
201906192357,54.25,54.27,54.2,54.23
201906192358,54.23,54.28,54.21,54.28
201906192359,54.28,54.33,54.25,54.31
201906200000,54.31,54.31,54.22,54.22
201906200001,54.22,54.25,54.19,54.2
201906200002,54.2,54.22,54.19,54.2
201906200003,54.2,54.21,54,54.07
201906200004,54.07,54.12,54.07,54.07
201906200005,54.07,54.12,54.07,54.1
201906200006,54.1,54.12,54.07,54.07
201906200007,54.07,54.1,54.01,54.01
201906200008,54.01,54.1,53.96,54.07
201906200009,54.07,54.08,54.02,54.06
201906200010,54.06,54.1,54.05,54.1
201906200011,54.1,54.21,54.1,54.2
201906200012,54.2,54.21,54.13,54.14
201906200013,54.14,54.17,54.13,54.16
201906200014,54.16,54.17,54.14,54.16
201906200015,54.16,54.21,54.14,54.16
201906200016,54.16,54.21,54.15,54.19
201906200017,54.19,54.22,54.13,54.13
201906200018,54.13,54.14,54.05,54.08
201906200019,54.08,54.08,54.03,54.04
201906200020,54.04,54.08,54.02,54.07
201906200021,54.07,54.1,54.05,54.06
201906200022,54.06,54.06,54.02,54.03
201906200023,54.03,54.05,53.98,54
201906200024,54,54.07,53.96,53.98
201906200025,53.98,53.99,53.85,53.87
201906200026,53.87,53.9,53.8,53.88
201906200027,53.89,53.89,53.81,53.81
201906200028,53.81,53.9,53.81,53.84
201906200029,53.84,53.87,53.82,53.82
201906200030,53.82,53.88,53.8,53.82
201906200031,53.82,53.88,53.82,53.85
201906200032,53.85,53.86,53.74,53.86
201906200033,53.86,53.86,53.79,53.83
201906200034,53.83,53.83,53.77,53.8
201906200035,53.8,53.85,53.8,53.84
201906200036,53.84,53.87,53.81,53.81
201906200037,53.81,53.87,53.8,53.86
201906200038,53.86,53.87,53.82,53.82
201906200039,53.82,53.83,53.77,53.77
201906200040,53.77,53.86,53.77,53.85
201906200041,53.85,53.97,53.83,53.95
201906200042,53.95,53.96,53.92,53.94
201906200043,53.94,54,53.94,53.99
201906200044,53.99,54,53.94,53.95
201906200045,53.95,54,53.93,54
201906200046,54,54.01,53.95,53.96
201906200047,53.96,54.02,53.96,54.01
201906200048,54.01,54.02,53.99,54
201906200049,54,54.03,53.97,53.99
201906200050,53.99,54,53.9,53.9
201906200051,53.9,53.92,53.88,53.92
201906200052,53.92,53.92,53.87,53.91
201906200053,53.91,53.93,53.89,53.92
201906200054,53.92,53.93,53.89,53.89
201906200055,53.89,53.91,53.86,53.9
201906200056,53.9,53.9,53.86,53.86
201906200057,53.87,53.87,53.83,53.87
201906200058,53.87,53.9,53.86,53.9
201906200059,53.9,53.93,53.88,53.92
201906200100,53.92,53.94,53.92,53.93
201906200101,53.95,54.01,53.94,54
201906200102,54,54.01,53.98,54
201906200103,54,54.02,53.98,54
201906200104,54,54.02,54,54.01
201906200105,54.01,54.02,54,54.01
201906200106,54.01,54.02,54.01,54.02
201906200107,54.02,54.02,53.96,53.98
201906200108,53.98,54,53.98,53.99
201906200109,53.99,54.02,53.98,53.99
201906200110,53.99,54.02,53.99,54.01
201906200111,54.01,54.03,54,54.02
201906200112,54.02,54.02,54,54.01
201906200113,54.01,54.02,54,54
201906200114,54,54.02,54,54.01
201906200115,54.01,54.11,54.01,54.1
201906200116,54.1,54.13,54.09,54.12
201906200117,54.12,54.13,54.06,54.06
201906200118,54.06,54.11,54.06,54.11
201906200119,54.12,54.12,54.06,54.07
201906200120,54.07,54.07,54.03,54.04
201906200121,54.03,54.06,54.03,54.05
201906200122,54.05,54.07,54.04,54.06
201906200123,54.06,54.06,54.04,54.05
201906200124,54.05,54.11,54.05,54.06
201906200125,54.06,54.07,54.03,54.03
201906200126,54.03,54.08,54.03,54.07
201906200127,54.07,54.1,54.06,54.09
201906200128,54.09,54.09,54.05,54.06
201906200129,54.06,54.09,54.06,54.09
201906200130,54.09,54.11,54.04,54.06
201906200131,54.06,54.07,54.03,54.04
201906200132,54.04,54.05,54.04,54.05
201906200133,54.05,54.05,54.02,54.02
201906200134,54.02,54.02,53.99,54
201906200135,54,54.02,53.97,53.97
201906200136,53.97,54.01,53.96,54
201906200137,54,54.01,54,54
201906200138,54,54.01,53.99,54
201906200139,54,54,53.97,53.97
201906200140,53.98,54.03,53.97,54.03
201906200141,54.03,54.04,54.02,54.03
201906200142,54.03,54.05,54.03,54.04
201906200143,54.04,54.05,54,54.01
201906200144,54.01,54.04,54.01,54.02
201906200145,54.02,54.02,53.95,53.97
201906200146,53.97,53.98,53.96,53.98
201906200147,53.98,53.98,53.96,53.96
201906200148,53.96,53.96,53.9,53.9
201906200149,53.9,53.94,53.9,53.94
201906200150,53.94,53.94,53.9,53.92
201906200151,53.92,53.92,53.9,53.91
201906200152,53.91,53.91,53.88,53.89
201906200153,53.89,53.9,53.85,53.88
201906200154,53.88,53.89,53.82,53.85
201906200155,53.85,53.85,53.82,53.82
201906200156,53.82,53.88,53.81,53.86
201906200157,53.86,53.91,53.84,53.88
201906200158,53.88,53.91,53.88,53.91
201906200159,53.91,53.91,53.89,53.91
201906200200,53.91,53.91,53.84,53.86
201906200201,53.86,53.86,53.84,53.84
201906200202,53.84,53.87,53.84,53.86
201906200203,53.86,53.87,53.84,53.85
201906200204,53.85,53.92,53.85,53.9
201906200205,53.9,53.91,53.89,53.9
201906200206,53.9,53.91,53.86,53.87
201906200207,53.87,53.89,53.87,53.89
201906200208,53.89,53.92,53.89,53.92
201906200209,53.92,53.93,53.86,53.89
201906200210,53.89,53.93,53.88,53.91
201906200211,53.91,53.91,53.86,53.88
201906200212,53.88,53.88,53.82,53.85
201906200213,53.85,53.86,53.84,53.84
201906200214,53.84,53.86,53.84,53.84
201906200215,53.84,53.87,53.84,53.87
201906200216,53.87,53.88,53.83,53.84
201906200217,53.84,53.86,53.82,53.83
201906200218,53.83,53.87,53.82,53.86
201906200219,53.86,53.88,53.85,53.87
201906200220,53.86,53.86,53.81,53.82
201906200221,53.82,53.83,53.73,53.74
201906200222,53.74,53.74,53.6,53.65
201906200223,53.65,53.73,53.65,53.72
201906200224,53.72,53.77,53.69,53.77
201906200225,53.77,53.78,53.73,53.78
201906200226,53.77,53.79,53.76,53.77
201906200227,53.77,53.78,53.76,53.77
201906200228,53.77,53.82,53.77,53.8
201906200229,53.8,53.81,53.71,53.76
201906200230,53.76,53.76,53.69,53.74
201906200231,53.74,53.8,53.72,53.77
201906200232,53.77,53.81,53.76,53.81
201906200233,53.81,53.81,53.77,53.78
201906200234,53.78,53.8,53.77,53.78
201906200235,53.78,53.81,53.78,53.81
201906200236,53.81,53.83,53.8,53.83
201906200237,53.83,53.86,53.82,53.86
201906200238,53.86,53.92,53.86,53.91
201906200239,53.91,53.96,53.9,53.95
201906200240,53.95,53.97,53.94,53.95
201906200241,53.95,53.95,53.91,53.91
201906200242,53.92,53.92,53.88,53.9
201906200243,53.9,53.9,53.84,53.84
201906200244,53.84,53.87,53.84,53.86
201906200245,53.86,53.9,53.86,53.88
201906200246,53.88,53.9,53.84,53.85
201906200247,53.85,53.86,53.8,53.83
201906200248,53.83,53.87,53.83,53.87
201906200249,53.87,53.87,53.85,53.86
201906200250,53.86,53.87,53.84,53.85
201906200251,53.85,53.89,53.85,53.89
201906200252,53.89,53.92,53.89,53.91
201906200253,53.91,53.91,53.89,53.89
201906200254,53.89,53.9,53.89,53.9
201906200255,53.9,53.9,53.87,53.87
201906200256,53.87,53.89,53.86,53.87
201906200257,53.87,53.87,53.86,53.87
201906200258,53.87,53.87,53.79,53.79
201906200259,53.79,53.8,53.76,53.8
201906200300,53.8,53.93,53.72,53.89
201906200301,53.89,54.03,53.87,53.96
201906200302,53.96,53.97,53.86,53.9
201906200303,53.91,53.97,53.91,53.94
201906200304,53.94,53.97,53.91,53.94
201906200305,53.94,53.95,53.91,53.91
201906200306,53.91,53.92,53.82,53.83
201906200307,53.83,53.85,53.73,53.74
201906200308,53.74,53.77,53.69,53.71
201906200309,53.7,53.8,53.7,53.74
201906200310,53.74,53.83,53.72,53.81
201906200311,53.81,53.85,53.78,53.82
201906200312,53.81,53.86,53.8,53.82
201906200313,53.82,53.86,53.79,53.85
201906200314,53.85,53.88,53.83,53.84
201906200315,53.85,53.87,53.83,53.85
201906200316,53.85,53.86,53.82,53.85
201906200317,53.85,53.85,53.7,53.78
201906200318,53.77,53.77,53.67,53.67
201906200319,53.67,53.8,53.66,53.69
201906200320,53.69,53.8,53.69,53.79
201906200321,53.79,53.9,53.74,53.89
201906200322,53.89,53.95,53.88,53.95
201906200323,53.95,53.95,53.9,53.91
201906200324,53.91,53.96,53.89,53.95
201906200325,53.95,53.95,53.88,53.94
201906200326,53.94,54,53.93,54
201906200327,54,54.01,53.9,53.98
201906200328,53.98,54.01,53.93,53.96
201906200329,53.96,53.97,53.91,53.92
201906200330,53.92,53.98,53.91,53.97
201906200331,53.97,53.98,53.92,53.95
201906200332,53.95,53.99,53.95,53.98
201906200333,53.98,54.02,53.97,53.99
201906200334,53.99,54.02,53.98,54.02
201906200335,54.02,54.03,53.98,54.03
201906200336,54.03,54.1,54.03,54.1
201906200337,54.1,54.19,54.1,54.12
201906200338,54.12,54.19,54.11,54.13
201906200339,54.13,54.13,54.05,54.06
201906200340,54.06,54.1,54.03,54.06
201906200341,54.06,54.08,54.05,54.06
201906200342,54.06,54.08,54.05,54.08
201906200343,54.08,54.1,54.06,54.1
201906200344,54.11,54.11,54.06,54.08
201906200345,54.08,54.13,54.06,54.11
201906200346,54.11,54.12,54.09,54.11
201906200347,54.11,54.11,54.08,54.1
201906200348,54.1,54.13,54.1,54.1
201906200349,54.1,54.12,54.09,54.11
201906200350,54.11,54.13,54.11,54.12
201906200351,54.12,54.12,54.09,54.1
201906200352,54.1,54.12,54.1,54.1
201906200353,54.1,54.1,54.08,54.08
201906200354,54.08,54.09,54.07,54.08
201906200355,54.08,54.1,54.07,54.09
201906200356,54.09,54.1,54.08,54.08
201906200357,54.08,54.2,54.07,54.19
201906200358,54.19,54.3,54.19,54.27
201906200359,54.27,54.31,54.2,54.29
201906200400,54.29,54.32,54.27,54.27
201906200401,54.27,54.3,54.27,54.29
201906200402,54.29,54.33,54.29,54.33
201906200403,54.33,54.33,54.29,54.31
201906200404,54.31,54.32,54.26,54.27
201906200405,54.27,54.28,54.22,54.23
201906200406,54.23,54.24,54.21,54.23
201906200407,54.23,54.26,54.23,54.24
201906200408,54.24,54.26,54.23,54.24
201906200409,54.24,54.3,54.24,54.28
201906200410,54.28,54.29,54.27,54.29
201906200411,54.29,54.3,54.28,54.29
201906200412,54.29,54.33,54.29,54.33
201906200413,54.33,54.35,54.3,54.31
201906200414,54.31,54.32,54.29,54.3
201906200415,54.29,54.31,54.27,54.31
201906200416,54.31,54.32,54.3,54.31
201906200417,54.31,54.33,54.3,54.31
201906200418,54.31,54.32,54.31,54.32
201906200419,54.32,54.33,54.31,54.31
201906200420,54.31,54.32,54.31,54.31
201906200421,54.31,54.31,54.29,54.3
201906200422,54.3,54.3,54.28,54.29
201906200423,54.29,54.31,54.27,54.27
201906200424,54.27,54.28,54.27,54.28
201906200425,54.28,54.29,54.26,54.29
201906200426,54.29,54.31,54.28,54.31
201906200427,54.31,54.31,54.3,54.31
201906200428,54.31,54.32,54.31,54.32
201906200429,54.32,54.33,54.32,54.32
201906200430,54.32,54.33,54.31,54.33
201906200431,54.33,54.35,54.33,54.34
201906200432,54.34,54.35,54.34,54.34
201906200433,54.34,54.34,54.32,54.33
201906200434,54.33,54.34,54.32,54.33
201906200435,54.33,54.33,54.31,54.32
201906200436,54.32,54.33,54.31,54.31
201906200437,54.31,54.31,54.3,54.3
201906200438,54.3,54.3,54.27,54.27
201906200439,54.27,54.28,54.27,54.28
201906200440,54.28,54.31,54.27,54.3
201906200441,54.3,54.32,54.3,54.32
201906200442,54.31,54.34,54.31,54.34
201906200443,54.34,54.39,54.33,54.38
201906200444,54.38,54.39,54.37,54.38
201906200445,54.38,54.44,54.38,54.44
201906200446,54.44,54.5,54.42,54.5
201906200447,54.5,54.56,54.5,54.53
201906200448,54.53,54.59,54.52,54.53
201906200449,54.53,54.53,54.51,54.53
201906200450,54.53,54.55,54.51,54.53
201906200451,54.53,54.63,54.53,54.62
201906200452,54.61,54.62,54.59,54.6
201906200453,54.6,54.61,54.57,54.6
201906200454,54.6,54.62,54.59,54.62
201906200455,54.62,54.63,54.61,54.62
201906200456,54.62,54.62,54.6,54.6
201906200457,54.6,54.62,54.59,54.61
201906200458,54.61,54.61,54.6,54.61
201906200459,54.61,54.62,54.6,54.62
201906200500,54.62,54.62,54.57,54.58
201906200501,54.58,54.58,54.57,54.57
201906200502,54.57,54.58,54.56,54.58
201906200503,54.58,54.58,54.57,54.57
201906200504,54.57,54.57,54.57,54.57
201906200505,54.57,54.57,54.52,54.52
201906200506,54.52,54.55,54.52,54.54
201906200507,54.54,54.54,54.54,54.54
201906200508,54.54,54.54,54.51,54.51
201906200509,54.51,54.51,54.5,54.5
201906200510,54.5,54.5,54.49,54.49
201906200511,54.49,54.49,54.47,54.48
201906200512,54.48,54.48,54.47,54.47
201906200513,54.47,54.47,54.46,54.47
201906200514,54.47,54.47,54.46,54.46
201906200515,54.46,54.49,54.46,54.48
201906200516,54.48,54.48,54.48,54.48
201906200517,54.48,54.49,54.46,54.46
201906200518,54.46,54.46,54.39,54.41
201906200519,54.41,54.42,54.4,54.42
201906200520,54.42,54.43,54.42,54.43
201906200521,54.43,54.43,54.42,54.43
201906200522,54.43,54.43,54.42,54.43
201906200523,54.43,54.43,54.42,54.43
201906200524,54.43,54.43,54.42,54.43
201906200525,54.43,54.43,54.43,54.43
201906200526,54.43,54.43,54.42,54.42
201906200527,54.42,54.44,54.42,54.43
201906200528,54.43,54.44,54.43,54.44
201906200529,54.44,54.44,54.43,54.44
201906200530,54.44,54.44,54.42,54.43
201906200531,54.43,54.44,54.43,54.43
201906200532,54.43,54.43,54.42,54.42
201906200533,54.42,54.43,54.41,54.41
201906200534,54.41,54.41,54.41,54.41
201906200535,54.41,54.41,54.41,54.41
201906200536,54.41,54.41,54.4,54.41
201906200537,54.41,54.41,54.4,54.41
201906200538,54.41,54.41,54.4,54.4
201906200539,54.4,54.43,54.4,54.42
201906200540,54.42,54.43,54.42,54.42
201906200541,54.42,54.43,54.41,54.41
201906200542,54.41,54.42,54.41,54.41
201906200543,54.41,54.42,54.41,54.42
201906200544,54.42,54.42,54.42,54.42
201906200545,54.42,54.43,54.4,54.41
201906200546,54.41,54.41,54.41,54.41
201906200547,54.41,54.41,54.41,54.41
201906200548,54.41,54.41,54.41,54.41
201906200549,54.41,54.42,54.41,54.42
201906200550,54.42,54.43,54.41,54.43
201906200551,54.43,54.43,54.42,54.42
201906200552,54.42,54.43,54.42,54.43
201906200553,54.43,54.43,54.43,54.43
201906200554,54.43,54.43,54.42,54.42
201906200555,54.42,54.43,54.42,54.43
201906200556,54.43,54.44,54.4,54.41
201906200557,54.41,54.41,54.37,54.38
201906200558,54.38,54.38,54.37,54.37
201906200559,54.37,54.38,54.37,54.37
