日時,始値(BID),高値(BID),安値(BID),終値(BID)
201906170700,52.5,52.5,52.26,52.32
201906170701,52.32,52.4,52.32,52.36
201906170702,52.36,52.39,52.31,52.39
201906170703,52.4,52.46,52.4,52.44
201906170704,52.44,52.45,52.41,52.44
201906170705,52.44,52.46,52.44,52.46
201906170706,52.46,52.46,52.44,52.45
201906170707,52.45,52.45,52.43,52.44
201906170708,52.44,52.45,52.42,52.44
201906170709,52.44,52.51,52.44,52.51
201906170710,52.51,52.56,52.49,52.53
201906170711,52.53,52.55,52.51,52.51
201906170712,52.51,52.58,52.51,52.56
201906170713,52.56,52.66,52.56,52.62
201906170714,52.62,52.62,52.58,52.61
201906170715,52.61,52.68,52.61,52.68
201906170716,52.68,52.72,52.67,52.67
201906170717,52.67,52.69,52.66,52.69
201906170718,52.69,52.69,52.65,52.65
201906170719,52.65,52.65,52.63,52.65
201906170720,52.65,52.66,52.64,52.65
201906170721,52.65,52.66,52.65,52.65
201906170722,52.65,52.65,52.65,52.65
201906170723,52.65,52.66,52.64,52.64
201906170724,52.64,52.66,52.64,52.66
201906170725,52.66,52.68,52.66,52.68
201906170726,52.68,52.69,52.68,52.68
201906170727,52.68,52.68,52.67,52.68
201906170728,52.68,52.68,52.67,52.67
201906170729,52.67,52.68,52.66,52.67
201906170730,52.67,52.71,52.67,52.71
201906170731,52.71,52.71,52.68,52.69
201906170732,52.69,52.69,52.68,52.69
201906170733,52.69,52.7,52.68,52.69
201906170734,52.69,52.69,52.66,52.68
201906170735,52.68,52.68,52.66,52.67
201906170736,52.67,52.67,52.66,52.66
201906170737,52.66,52.66,52.63,52.64
201906170738,52.64,52.64,52.63,52.64
201906170739,52.64,52.64,52.63,52.63
201906170740,52.63,52.63,52.62,52.63
201906170741,52.63,52.63,52.62,52.63
201906170742,52.63,52.64,52.63,52.64
201906170743,52.64,52.66,52.63,52.66
201906170744,52.66,52.67,52.65,52.67
201906170745,52.67,52.67,52.66,52.66
201906170746,52.66,52.66,52.65,52.65
201906170747,52.65,52.65,52.63,52.63
201906170748,52.63,52.63,52.63,52.63
201906170749,52.63,52.64,52.63,52.63
201906170750,52.63,52.64,52.63,52.64
201906170751,52.64,52.64,52.63,52.63
201906170752,52.63,52.63,52.6,52.6
201906170753,52.6,52.61,52.6,52.6
201906170754,52.6,52.6,52.57,52.6
201906170755,52.6,52.61,52.58,52.58
201906170756,52.58,52.6,52.58,52.6
201906170757,52.6,52.6,52.59,52.6
201906170758,52.6,52.61,52.6,52.6
201906170759,52.6,52.61,52.59,52.61
201906170800,52.61,52.61,52.6,52.6
201906170801,52.6,52.6,52.58,52.58
201906170802,52.58,52.59,52.58,52.58
201906170803,52.58,52.59,52.58,52.58
201906170804,52.58,52.58,52.56,52.56
201906170805,52.56,52.57,52.56,52.56
201906170806,52.56,52.58,52.56,52.58
201906170807,52.58,52.58,52.57,52.58
201906170808,52.57,52.58,52.56,52.57
201906170809,52.57,52.58,52.57,52.57
201906170810,52.57,52.57,52.56,52.57
201906170811,52.57,52.57,52.57,52.57
201906170812,52.57,52.58,52.57,52.58
201906170813,52.58,52.58,52.58,52.58
201906170814,52.58,52.6,52.58,52.58
201906170815,52.58,52.59,52.58,52.58
201906170816,52.58,52.6,52.58,52.6
201906170817,52.6,52.61,52.59,52.59
201906170818,52.59,52.6,52.59,52.6
201906170819,52.6,52.6,52.58,52.58
201906170820,52.58,52.59,52.58,52.58
201906170821,52.58,52.58,52.57,52.58
201906170822,52.58,52.58,52.57,52.58
201906170823,52.58,52.58,52.55,52.55
201906170824,52.55,52.57,52.55,52.57
201906170825,52.57,52.57,52.57,52.57
201906170826,52.57,52.57,52.57,52.57
201906170827,52.57,52.57,52.56,52.56
201906170828,52.56,52.56,52.56,52.56
201906170829,52.56,52.56,52.56,52.56
201906170830,52.56,52.56,52.56,52.56
201906170831,52.56,52.59,52.56,52.59
201906170832,52.59,52.6,52.59,52.6
201906170833,52.6,52.61,52.6,52.61
201906170834,52.61,52.61,52.61,52.61
201906170835,52.61,52.61,52.59,52.6
201906170836,52.6,52.6,52.59,52.6
201906170837,52.6,52.62,52.6,52.62
201906170838,52.62,52.62,52.61,52.61
201906170839,52.61,52.62,52.6,52.6
201906170840,52.6,52.6,52.59,52.59
201906170841,52.59,52.59,52.58,52.58
201906170842,52.58,52.58,52.58,52.58
201906170843,52.58,52.58,52.57,52.58
201906170844,52.58,52.58,52.58,52.58
201906170845,52.58,52.64,52.58,52.64
201906170846,52.64,52.64,52.63,52.64
201906170847,52.64,52.66,52.63,52.65
201906170848,52.65,52.65,52.64,52.64
201906170849,52.64,52.66,52.63,52.64
201906170850,52.64,52.65,52.63,52.64
201906170851,52.64,52.66,52.63,52.65
201906170852,52.65,52.65,52.65,52.65
201906170853,52.65,52.67,52.65,52.66
201906170854,52.66,52.67,52.66,52.66
201906170855,52.66,52.68,52.66,52.67
201906170856,52.67,52.67,52.66,52.67
201906170857,52.67,52.67,52.65,52.66
201906170858,52.66,52.66,52.66,52.66
201906170859,52.66,52.67,52.65,52.66
201906170900,52.66,52.67,52.62,52.62
201906170901,52.62,52.63,52.59,52.6
201906170902,52.6,52.65,52.59,52.65
201906170903,52.65,52.68,52.64,52.67
201906170904,52.67,52.67,52.65,52.65
201906170905,52.65,52.66,52.6,52.6
201906170906,52.6,52.6,52.59,52.59
201906170907,52.59,52.59,52.59,52.59
201906170908,52.59,52.6,52.59,52.6
201906170909,52.6,52.63,52.59,52.62
201906170910,52.62,52.64,52.61,52.64
201906170911,52.64,52.65,52.64,52.65
201906170912,52.65,52.69,52.65,52.67
201906170913,52.67,52.67,52.65,52.66
201906170914,52.66,52.66,52.64,52.65
201906170915,52.65,52.68,52.65,52.68
201906170916,52.68,52.7,52.67,52.68
201906170917,52.68,52.68,52.65,52.65
201906170918,52.65,52.66,52.64,52.65
201906170919,52.65,52.65,52.63,52.64
201906170920,52.64,52.65,52.64,52.65
201906170921,52.65,52.65,52.63,52.63
201906170922,52.63,52.64,52.63,52.63
201906170923,52.63,52.65,52.63,52.64
201906170924,52.64,52.66,52.64,52.66
201906170925,52.66,52.66,52.64,52.66
201906170926,52.66,52.66,52.66,52.66
201906170927,52.66,52.67,52.65,52.65
201906170928,52.65,52.67,52.65,52.67
201906170929,52.67,52.69,52.67,52.68
201906170930,52.68,52.69,52.67,52.67
201906170931,52.67,52.68,52.66,52.67
201906170932,52.67,52.67,52.65,52.65
201906170933,52.65,52.67,52.65,52.67
201906170934,52.67,52.67,52.67,52.67
201906170935,52.67,52.69,52.67,52.69
201906170936,52.69,52.7,52.68,52.69
201906170937,52.69,52.7,52.69,52.69
201906170938,52.69,52.69,52.67,52.67
201906170939,52.67,52.68,52.67,52.68
201906170940,52.68,52.68,52.68,52.68
201906170941,52.68,52.68,52.67,52.68
201906170942,52.68,52.68,52.66,52.66
201906170943,52.66,52.67,52.66,52.66
201906170944,52.66,52.66,52.65,52.66
201906170945,52.66,52.67,52.65,52.67
201906170946,52.67,52.7,52.67,52.68
201906170947,52.68,52.68,52.68,52.68
201906170948,52.68,52.69,52.68,52.69
201906170949,52.69,52.71,52.69,52.69
201906170950,52.69,52.71,52.69,52.7
201906170951,52.7,52.7,52.68,52.69
201906170952,52.69,52.69,52.68,52.68
201906170953,52.68,52.7,52.68,52.69
201906170954,52.69,52.7,52.66,52.66
201906170955,52.66,52.66,52.63,52.64
201906170956,52.64,52.64,52.62,52.62
201906170957,52.62,52.64,52.62,52.64
201906170958,52.64,52.64,52.62,52.62
201906170959,52.62,52.62,52.61,52.62
201906171000,52.62,52.67,52.53,52.54
201906171001,52.54,52.63,52.53,52.6
201906171002,52.6,52.64,52.59,52.61
201906171003,52.61,52.62,52.57,52.61
201906171004,52.62,52.64,52.6,52.64
201906171005,52.64,52.65,52.63,52.63
201906171006,52.63,52.63,52.59,52.6
201906171007,52.6,52.61,52.58,52.58
201906171008,52.58,52.62,52.58,52.59
201906171009,52.59,52.6,52.56,52.57
201906171010,52.57,52.59,52.54,52.55
201906171011,52.55,52.56,52.53,52.54
201906171012,52.54,52.57,52.52,52.56
201906171013,52.56,52.57,52.51,52.52
201906171014,52.52,52.55,52.51,52.55
201906171015,52.55,52.61,52.54,52.6
201906171016,52.59,52.62,52.58,52.61
201906171017,52.61,52.64,52.59,52.62
201906171018,52.62,52.64,52.62,52.64
201906171019,52.64,52.64,52.62,52.63
201906171020,52.63,52.66,52.63,52.65
201906171021,52.65,52.66,52.64,52.64
201906171022,52.64,52.66,52.63,52.63
201906171023,52.63,52.64,52.62,52.63
201906171024,52.63,52.63,52.58,52.58
201906171025,52.58,52.61,52.57,52.6
201906171026,52.6,52.61,52.58,52.58
201906171027,52.58,52.59,52.52,52.52
201906171028,52.52,52.57,52.5,52.56
201906171029,52.56,52.57,52.54,52.56
201906171030,52.56,52.6,52.56,52.59
201906171031,52.59,52.61,52.58,52.6
201906171032,52.6,52.61,52.59,52.59
201906171033,52.59,52.6,52.58,52.6
201906171034,52.6,52.62,52.59,52.61
201906171035,52.61,52.64,52.61,52.63
201906171036,52.63,52.66,52.63,52.65
201906171037,52.65,52.67,52.63,52.67
201906171038,52.67,52.67,52.64,52.65
201906171039,52.65,52.67,52.65,52.67
201906171040,52.67,52.68,52.65,52.67
201906171041,52.66,52.69,52.66,52.69
201906171042,52.69,52.7,52.68,52.68
201906171043,52.68,52.69,52.66,52.66
201906171044,52.66,52.67,52.66,52.67
201906171045,52.67,52.67,52.65,52.66
201906171046,52.66,52.68,52.65,52.66
201906171047,52.66,52.67,52.66,52.66
201906171048,52.66,52.67,52.66,52.67
201906171049,52.67,52.67,52.65,52.66
201906171050,52.66,52.68,52.66,52.68
201906171051,52.68,52.68,52.67,52.68
201906171052,52.68,52.68,52.67,52.67
201906171053,52.67,52.67,52.63,52.63
201906171054,52.63,52.64,52.63,52.64
201906171055,52.64,52.64,52.63,52.64
201906171056,52.64,52.64,52.63,52.63
201906171057,52.63,52.66,52.63,52.66
201906171058,52.66,52.66,52.65,52.66
201906171059,52.66,52.66,52.66,52.66
201906171100,52.66,52.67,52.65,52.65
201906171101,52.65,52.66,52.62,52.62
201906171102,52.62,52.64,52.62,52.64
201906171103,52.64,52.66,52.64,52.66
201906171104,52.66,52.66,52.64,52.65
201906171105,52.65,52.66,52.64,52.65
201906171106,52.65,52.66,52.65,52.65
201906171107,52.65,52.7,52.65,52.7
201906171108,52.69,52.7,52.67,52.68
201906171109,52.68,52.71,52.68,52.71
201906171110,52.71,52.72,52.69,52.69
201906171111,52.69,52.71,52.69,52.7
201906171112,52.7,52.7,52.68,52.69
201906171113,52.69,52.69,52.68,52.68
201906171114,52.68,52.69,52.67,52.68
201906171115,52.68,52.69,52.67,52.67
201906171116,52.67,52.67,52.66,52.67
201906171117,52.67,52.67,52.66,52.67
201906171118,52.66,52.66,52.66,52.66
201906171119,52.66,52.66,52.65,52.65
201906171120,52.65,52.65,52.62,52.63
201906171121,52.63,52.66,52.63,52.66
201906171122,52.66,52.66,52.64,52.65
201906171123,52.65,52.67,52.64,52.67
201906171124,52.67,52.67,52.66,52.67
201906171125,52.67,52.67,52.66,52.66
201906171126,52.66,52.67,52.66,52.66
201906171127,52.66,52.66,52.65,52.65
201906171128,52.65,52.65,52.63,52.64
201906171129,52.64,52.64,52.63,52.64
201906171130,52.64,52.65,52.62,52.62
201906171131,52.62,52.64,52.6,52.62
201906171132,52.62,52.64,52.62,52.63
201906171133,52.63,52.63,52.6,52.62
201906171134,52.62,52.64,52.61,52.63
201906171135,52.63,52.64,52.61,52.62
201906171136,52.62,52.63,52.6,52.63
201906171137,52.63,52.65,52.62,52.64
201906171138,52.64,52.65,52.61,52.63
201906171139,52.63,52.63,52.6,52.61
201906171140,52.61,52.65,52.61,52.63
201906171141,52.63,52.64,52.62,52.63
201906171142,52.63,52.65,52.63,52.64
201906171143,52.64,52.66,52.64,52.64
201906171144,52.64,52.65,52.64,52.64
201906171145,52.64,52.64,52.63,52.63
201906171146,52.63,52.64,52.63,52.64
201906171147,52.64,52.64,52.63,52.63
201906171148,52.63,52.64,52.61,52.61
201906171149,52.61,52.62,52.61,52.61
201906171150,52.61,52.63,52.61,52.63
201906171151,52.63,52.63,52.61,52.62
201906171152,52.62,52.64,52.62,52.63
201906171153,52.63,52.63,52.63,52.63
201906171154,52.63,52.63,52.62,52.62
201906171155,52.62,52.62,52.61,52.61
201906171156,52.61,52.62,52.61,52.62
201906171157,52.62,52.63,52.62,52.62
201906171158,52.62,52.62,52.59,52.59
201906171159,52.59,52.6,52.59,52.6
201906171200,52.6,52.6,52.59,52.59
201906171201,52.59,52.62,52.59,52.6
201906171202,52.6,52.61,52.59,52.59
201906171203,52.59,52.6,52.57,52.6
201906171204,52.6,52.6,52.59,52.6
201906171205,52.6,52.6,52.58,52.58
201906171206,52.58,52.6,52.58,52.59
201906171207,52.6,52.62,52.6,52.62
201906171208,52.62,52.62,52.61,52.61
201906171209,52.61,52.61,52.6,52.6
201906171210,52.6,52.62,52.59,52.61
201906171211,52.61,52.63,52.6,52.62
201906171212,52.63,52.65,52.62,52.65
201906171213,52.65,52.68,52.65,52.67
201906171214,52.67,52.68,52.67,52.67
201906171215,52.67,52.68,52.66,52.66
201906171216,52.66,52.66,52.65,52.65
201906171217,52.65,52.66,52.65,52.65
201906171218,52.65,52.65,52.63,52.64
201906171219,52.64,52.64,52.63,52.64
201906171220,52.64,52.64,52.62,52.63
201906171221,52.63,52.64,52.61,52.62
201906171222,52.61,52.63,52.6,52.62
201906171223,52.62,52.64,52.62,52.64
201906171224,52.64,52.64,52.63,52.63
201906171225,52.63,52.63,52.6,52.61
201906171226,52.61,52.61,52.6,52.61
201906171227,52.61,52.61,52.59,52.59
201906171228,52.59,52.59,52.58,52.59
201906171229,52.59,52.6,52.58,52.59
201906171230,52.59,52.6,52.59,52.59
201906171231,52.59,52.6,52.59,52.6
201906171232,52.6,52.61,52.6,52.61
201906171233,52.61,52.62,52.61,52.61
201906171234,52.61,52.61,52.61,52.61
201906171235,52.61,52.61,52.61,52.61
201906171236,52.61,52.61,52.6,52.6
201906171237,52.6,52.61,52.6,52.61
201906171238,52.61,52.61,52.6,52.61
201906171239,52.61,52.61,52.6,52.61
201906171240,52.61,52.61,52.61,52.61
201906171241,52.61,52.61,52.6,52.61
201906171242,52.61,52.64,52.61,52.63
201906171243,52.63,52.64,52.63,52.63
201906171244,52.63,52.63,52.62,52.62
201906171245,52.62,52.64,52.62,52.63
201906171246,52.63,52.63,52.63,52.63
201906171247,52.63,52.63,52.63,52.63
201906171248,52.63,52.63,52.62,52.62
201906171249,52.62,52.62,52.62,52.62
201906171250,52.62,52.63,52.62,52.63
201906171251,52.63,52.63,52.62,52.62
201906171252,52.62,52.62,52.62,52.62
201906171253,52.62,52.62,52.6,52.61
201906171254,52.61,52.61,52.61,52.61
201906171255,52.61,52.61,52.61,52.61
201906171256,52.61,52.62,52.6,52.6
201906171257,52.6,52.61,52.6,52.61
201906171258,52.61,52.61,52.6,52.6
201906171259,52.6,52.61,52.6,52.61
201906171300,52.61,52.61,52.59,52.59
201906171301,52.59,52.6,52.59,52.6
201906171302,52.6,52.61,52.6,52.61
201906171303,52.61,52.61,52.6,52.6
201906171304,52.6,52.6,52.59,52.6
201906171305,52.6,52.6,52.59,52.59
201906171306,52.59,52.6,52.59,52.6
201906171307,52.6,52.6,52.6,52.6
201906171308,52.6,52.61,52.6,52.6
201906171309,52.6,52.61,52.6,52.61
201906171310,52.61,52.61,52.61,52.61
201906171311,52.61,52.62,52.61,52.61
201906171312,52.61,52.61,52.6,52.6
201906171313,52.6,52.6,52.6,52.6
201906171314,52.6,52.6,52.6,52.6
201906171315,52.6,52.6,52.6,52.6
201906171316,52.6,52.6,52.58,52.58
201906171317,52.58,52.59,52.58,52.59
201906171318,52.59,52.59,52.59,52.59
201906171319,52.59,52.6,52.59,52.6
201906171320,52.6,52.6,52.57,52.57
201906171321,52.57,52.58,52.55,52.56
201906171322,52.56,52.56,52.55,52.56
201906171323,52.56,52.57,52.55,52.56
201906171324,52.56,52.57,52.55,52.56
201906171325,52.56,52.57,52.56,52.57
201906171326,52.57,52.57,52.56,52.56
201906171327,52.56,52.57,52.56,52.57
201906171328,52.57,52.57,52.57,52.57
201906171329,52.57,52.57,52.57,52.57
201906171330,52.57,52.57,52.56,52.56
201906171331,52.56,52.56,52.56,52.56
201906171332,52.56,52.56,52.54,52.54
201906171333,52.54,52.55,52.54,52.55
201906171334,52.55,52.55,52.54,52.54
201906171335,52.54,52.55,52.54,52.55
201906171336,52.55,52.55,52.55,52.55
201906171337,52.55,52.55,52.53,52.53
201906171338,52.53,52.53,52.52,52.53
201906171339,52.53,52.54,52.53,52.54
201906171340,52.54,52.54,52.54,52.54
201906171341,52.54,52.55,52.54,52.55
201906171342,52.55,52.56,52.55,52.56
201906171343,52.56,52.57,52.55,52.56
201906171344,52.56,52.57,52.55,52.55
201906171345,52.55,52.55,52.55,52.55
201906171346,52.55,52.55,52.54,52.54
201906171347,52.54,52.55,52.54,52.55
201906171348,52.55,52.55,52.55,52.55
201906171349,52.55,52.56,52.55,52.55
201906171350,52.55,52.56,52.55,52.56
201906171351,52.56,52.56,52.56,52.56
201906171352,52.56,52.57,52.55,52.55
201906171353,52.55,52.56,52.55,52.56
201906171354,52.56,52.58,52.56,52.56
201906171355,52.56,52.57,52.56,52.56
201906171356,52.56,52.56,52.56,52.56
201906171357,52.56,52.56,52.56,52.56
201906171358,52.56,52.56,52.56,52.56
201906171359,52.56,52.56,52.56,52.56
201906171400,52.56,52.56,52.55,52.56
201906171401,52.56,52.56,52.55,52.56
201906171402,52.56,52.57,52.56,52.57
201906171403,52.57,52.57,52.56,52.56
201906171404,52.56,52.57,52.56,52.57
201906171405,52.57,52.57,52.56,52.56
201906171406,52.56,52.58,52.56,52.58
201906171407,52.58,52.58,52.57,52.58
201906171408,52.58,52.58,52.58,52.58
201906171409,52.58,52.58,52.58,52.58
201906171410,52.58,52.58,52.58,52.58
201906171411,52.58,52.58,52.58,52.58
201906171412,52.58,52.59,52.58,52.59
201906171413,52.59,52.6,52.59,52.6
201906171414,52.6,52.6,52.57,52.57
201906171415,52.57,52.58,52.57,52.58
201906171416,52.58,52.58,52.57,52.58
201906171417,52.58,52.58,52.58,52.58
201906171418,52.58,52.6,52.58,52.59
201906171419,52.59,52.6,52.59,52.59
201906171420,52.59,52.59,52.59,52.59
201906171421,52.59,52.59,52.58,52.59
201906171422,52.59,52.6,52.58,52.6
201906171423,52.6,52.6,52.59,52.59
201906171424,52.59,52.59,52.59,52.59
201906171425,52.59,52.6,52.59,52.6
201906171426,52.6,52.6,52.6,52.6
201906171427,52.6,52.61,52.6,52.6
201906171428,52.6,52.6,52.6,52.6
201906171429,52.6,52.6,52.59,52.59
201906171430,52.59,52.62,52.59,52.62
201906171431,52.62,52.63,52.62,52.63
201906171432,52.63,52.64,52.61,52.63
201906171433,52.63,52.63,52.63,52.63
201906171434,52.63,52.63,52.6,52.61
201906171435,52.61,52.63,52.6,52.61
201906171436,52.61,52.64,52.61,52.64
201906171437,52.64,52.65,52.64,52.64
201906171438,52.64,52.65,52.63,52.64
201906171439,52.64,52.65,52.63,52.63
201906171440,52.63,52.64,52.62,52.64
201906171441,52.64,52.65,52.63,52.64
201906171442,52.64,52.66,52.64,52.66
201906171443,52.66,52.66,52.63,52.63
201906171444,52.63,52.64,52.62,52.63
201906171445,52.63,52.63,52.62,52.63
201906171446,52.63,52.64,52.63,52.63
201906171447,52.63,52.63,52.62,52.63
201906171448,52.63,52.63,52.62,52.62
201906171449,52.62,52.63,52.61,52.63
201906171450,52.63,52.64,52.62,52.64
201906171451,52.64,52.64,52.63,52.63
201906171452,52.63,52.63,52.62,52.62
201906171453,52.62,52.62,52.6,52.6
201906171454,52.6,52.6,52.57,52.59
201906171455,52.59,52.6,52.58,52.6
201906171456,52.6,52.6,52.59,52.59
201906171457,52.59,52.61,52.59,52.61
201906171458,52.61,52.61,52.6,52.6
201906171459,52.6,52.61,52.59,52.59
201906171500,52.59,52.59,52.53,52.54
201906171501,52.54,52.54,52.51,52.54
201906171502,52.54,52.54,52.52,52.53
201906171503,52.53,52.55,52.52,52.54
201906171504,52.54,52.55,52.53,52.54
201906171505,52.54,52.55,52.54,52.54
201906171506,52.54,52.54,52.5,52.51
201906171507,52.5,52.51,52.46,52.47
201906171508,52.47,52.51,52.46,52.51
201906171509,52.51,52.51,52.49,52.5
201906171510,52.5,52.5,52.49,52.5
201906171511,52.5,52.5,52.48,52.48
201906171512,52.48,52.5,52.48,52.5
201906171513,52.5,52.52,52.5,52.51
201906171514,52.51,52.54,52.5,52.5
201906171515,52.5,52.5,52.46,52.48
201906171516,52.48,52.49,52.48,52.49
201906171517,52.49,52.5,52.46,52.46
201906171518,52.46,52.47,52.45,52.46
201906171519,52.46,52.47,52.44,52.45
201906171520,52.45,52.46,52.45,52.46
201906171521,52.46,52.46,52.45,52.46
201906171522,52.46,52.48,52.45,52.48
201906171523,52.48,52.48,52.46,52.47
201906171524,52.47,52.48,52.47,52.47
201906171525,52.47,52.48,52.46,52.47
201906171526,52.47,52.48,52.46,52.48
201906171527,52.48,52.49,52.47,52.49
201906171528,52.49,52.49,52.46,52.46
201906171529,52.46,52.47,52.46,52.47
201906171530,52.47,52.47,52.46,52.47
201906171531,52.47,52.48,52.47,52.48
201906171532,52.48,52.48,52.47,52.47
201906171533,52.47,52.47,52.45,52.46
201906171534,52.46,52.46,52.45,52.45
201906171535,52.45,52.45,52.41,52.44
201906171536,52.44,52.46,52.44,52.45
201906171537,52.45,52.46,52.44,52.46
201906171538,52.46,52.5,52.45,52.5
201906171539,52.5,52.53,52.5,52.52
201906171540,52.52,52.53,52.51,52.51
201906171541,52.51,52.53,52.51,52.52
201906171542,52.52,52.53,52.52,52.52
201906171543,52.52,52.53,52.5,52.52
201906171544,52.52,52.52,52.52,52.52
201906171545,52.52,52.53,52.52,52.53
201906171546,52.53,52.54,52.52,52.52
201906171547,52.52,52.53,52.52,52.52
201906171548,52.52,52.53,52.52,52.52
201906171549,52.52,52.54,52.52,52.53
201906171550,52.53,52.54,52.53,52.54
201906171551,52.54,52.54,52.53,52.53
201906171552,52.53,52.54,52.5,52.51
201906171553,52.51,52.51,52.49,52.49
201906171554,52.49,52.49,52.47,52.49
201906171555,52.49,52.49,52.47,52.49
201906171556,52.49,52.49,52.48,52.48
201906171557,52.48,52.48,52.44,52.44
201906171558,52.44,52.46,52.41,52.46
201906171559,52.45,52.46,52.43,52.43
201906171600,52.43,52.44,52.39,52.44
201906171601,52.44,52.44,52.4,52.41
201906171602,52.41,52.41,52.4,52.41
201906171603,52.43,52.43,52.4,52.4
201906171604,52.4,52.42,52.39,52.4
201906171605,52.4,52.41,52.37,52.39
201906171606,52.39,52.41,52.34,52.36
201906171607,52.36,52.36,52.31,52.31
201906171608,52.31,52.37,52.31,52.36
201906171609,52.36,52.37,52.34,52.34
201906171610,52.34,52.36,52.3,52.33
201906171611,52.33,52.35,52.33,52.34
201906171612,52.34,52.35,52.33,52.33
201906171613,52.33,52.36,52.33,52.35
201906171614,52.35,52.36,52.32,52.33
201906171615,52.33,52.33,52.28,52.29
201906171616,52.29,52.29,52.26,52.27
201906171617,52.27,52.27,52.26,52.27
201906171618,52.27,52.27,52.23,52.23
201906171619,52.23,52.24,52.22,52.23
201906171620,52.23,52.28,52.23,52.27
201906171621,52.26,52.26,52.19,52.22
201906171622,52.22,52.23,52.2,52.23
201906171623,52.23,52.24,52.21,52.23
201906171624,52.22,52.23,52.22,52.22
201906171625,52.22,52.23,52.21,52.22
201906171626,52.22,52.23,52.21,52.23
201906171627,52.23,52.27,52.23,52.25
201906171628,52.25,52.27,52.22,52.24
201906171629,52.24,52.26,52.23,52.25
201906171630,52.25,52.27,52.25,52.25
201906171631,52.25,52.26,52.22,52.23
201906171632,52.23,52.26,52.22,52.22
201906171633,52.22,52.25,52.22,52.22
201906171634,52.22,52.23,52.21,52.21
201906171635,52.21,52.25,52.21,52.24
201906171636,52.24,52.25,52.22,52.22
201906171637,52.22,52.22,52.21,52.22
201906171638,52.22,52.24,52.22,52.23
201906171639,52.23,52.23,52.22,52.22
201906171640,52.22,52.22,52.19,52.21
201906171641,52.21,52.22,52.19,52.22
201906171642,52.22,52.22,52.2,52.21
201906171643,52.21,52.22,52.21,52.22
201906171644,52.22,52.24,52.22,52.24
201906171645,52.24,52.28,52.23,52.27
201906171646,52.27,52.28,52.22,52.25
201906171647,52.25,52.27,52.22,52.24
201906171648,52.24,52.26,52.24,52.26
201906171649,52.26,52.28,52.26,52.28
201906171650,52.28,52.29,52.26,52.26
201906171651,52.26,52.27,52.25,52.26
201906171652,52.26,52.26,52.24,52.24
201906171653,52.24,52.24,52.23,52.23
201906171654,52.23,52.28,52.23,52.28
201906171655,52.28,52.28,52.25,52.25
201906171656,52.25,52.27,52.23,52.23
201906171657,52.23,52.26,52.23,52.23
201906171658,52.23,52.25,52.23,52.24
201906171659,52.24,52.25,52.23,52.24
201906171700,52.24,52.24,52.19,52.21
201906171701,52.21,52.22,52.19,52.21
201906171702,52.21,52.23,52.2,52.2
201906171703,52.2,52.23,52.2,52.23
201906171704,52.23,52.23,52.22,52.23
201906171705,52.23,52.29,52.23,52.29
201906171706,52.29,52.3,52.28,52.29
201906171707,52.29,52.3,52.28,52.28
201906171708,52.28,52.28,52.27,52.28
201906171709,52.28,52.28,52.25,52.27
201906171710,52.27,52.27,52.22,52.22
201906171711,52.22,52.25,52.2,52.24
201906171712,52.24,52.28,52.24,52.26
201906171713,52.26,52.29,52.25,52.26
201906171714,52.26,52.28,52.25,52.28
201906171715,52.28,52.29,52.26,52.27
201906171716,52.27,52.28,52.24,52.25
201906171717,52.25,52.28,52.25,52.25
201906171718,52.25,52.27,52.25,52.26
201906171719,52.26,52.26,52.23,52.24
201906171720,52.24,52.25,52.22,52.22
201906171721,52.22,52.24,52.2,52.23
201906171722,52.23,52.23,52.19,52.2
201906171723,52.2,52.21,52.09,52.12
201906171724,52.12,52.15,52.12,52.15
201906171725,52.15,52.15,52.13,52.15
201906171726,52.15,52.17,52.13,52.17
201906171727,52.17,52.17,52.14,52.15
201906171728,52.15,52.24,52.15,52.22
201906171729,52.22,52.32,52.22,52.31
201906171730,52.31,52.31,52.25,52.27
201906171731,52.27,52.28,52.23,52.24
201906171732,52.25,52.3,52.25,52.28
201906171733,52.28,52.28,52.25,52.26
201906171734,52.26,52.28,52.25,52.27
201906171735,52.27,52.3,52.25,52.27
201906171736,52.27,52.29,52.26,52.26
201906171737,52.26,52.27,52.24,52.25
201906171738,52.25,52.3,52.25,52.3
201906171739,52.3,52.32,52.28,52.29
201906171740,52.29,52.32,52.28,52.32
201906171741,52.31,52.33,52.28,52.28
201906171742,52.28,52.28,52.2,52.21
201906171743,52.21,52.26,52.21,52.25
201906171744,52.25,52.28,52.25,52.26
201906171745,52.26,52.26,52.21,52.25
201906171746,52.25,52.26,52.23,52.24
201906171747,52.24,52.24,52.2,52.21
201906171748,52.21,52.24,52.21,52.22
201906171749,52.22,52.23,52.18,52.18
201906171750,52.18,52.22,52.18,52.22
201906171751,52.22,52.26,52.22,52.25
201906171752,52.25,52.26,52.23,52.26
201906171753,52.26,52.29,52.26,52.28
201906171754,52.28,52.29,52.26,52.26
201906171755,52.26,52.28,52.26,52.28
201906171756,52.28,52.28,52.27,52.27
201906171757,52.27,52.28,52.27,52.27
201906171758,52.27,52.28,52.27,52.28
201906171759,52.28,52.32,52.28,52.31
201906171800,52.29,52.33,52.29,52.31
201906171801,52.31,52.31,52.29,52.3
201906171802,52.3,52.33,52.3,52.33
201906171803,52.33,52.37,52.33,52.36
201906171804,52.36,52.36,52.34,52.35
201906171805,52.35,52.36,52.34,52.34
201906171806,52.34,52.35,52.33,52.34
201906171807,52.34,52.35,52.33,52.33
201906171808,52.33,52.33,52.31,52.32
201906171809,52.32,52.33,52.31,52.32
201906171810,52.32,52.36,52.32,52.33
201906171811,52.33,52.33,52.31,52.31
201906171812,52.31,52.31,52.26,52.28
201906171813,52.28,52.28,52.25,52.25
201906171814,52.25,52.32,52.25,52.29
201906171815,52.28,52.28,52.25,52.27
201906171816,52.27,52.27,52.25,52.25
201906171817,52.25,52.26,52.22,52.24
201906171818,52.24,52.26,52.23,52.25
201906171819,52.25,52.26,52.23,52.25
201906171820,52.25,52.3,52.24,52.24
201906171821,52.24,52.26,52.23,52.25
201906171822,52.25,52.26,52.23,52.25
201906171823,52.25,52.25,52.24,52.24
201906171824,52.24,52.26,52.24,52.24
201906171825,52.24,52.25,52.23,52.25
201906171826,52.25,52.25,52.23,52.23
201906171827,52.23,52.24,52.23,52.24
201906171828,52.24,52.24,52.21,52.21
201906171829,52.21,52.23,52.21,52.22
201906171830,52.22,52.23,52.2,52.2
201906171831,52.2,52.26,52.2,52.26
201906171832,52.26,52.28,52.25,52.26
201906171833,52.26,52.26,52.19,52.23
201906171834,52.23,52.24,52.22,52.22
201906171835,52.22,52.24,52.22,52.23
201906171836,52.23,52.25,52.23,52.23
201906171837,52.23,52.25,52.23,52.24
201906171838,52.24,52.25,52.22,52.23
201906171839,52.23,52.24,52.22,52.23
201906171840,52.23,52.23,52.2,52.22
201906171841,52.22,52.23,52.19,52.19
201906171842,52.19,52.2,52.19,52.2
201906171843,52.2,52.21,52.18,52.18
201906171844,52.18,52.18,52.14,52.16
201906171845,52.16,52.18,52.15,52.18
201906171846,52.18,52.2,52.16,52.19
201906171847,52.19,52.21,52.18,52.21
201906171848,52.21,52.24,52.21,52.24
201906171849,52.24,52.24,52.2,52.2
201906171850,52.2,52.21,52.18,52.2
201906171851,52.2,52.21,52.2,52.2
201906171852,52.2,52.2,52.16,52.18
201906171853,52.18,52.23,52.18,52.22
201906171854,52.22,52.24,52.22,52.23
201906171855,52.23,52.24,52.22,52.23
201906171856,52.23,52.24,52.21,52.21
201906171857,52.21,52.21,52.18,52.19
201906171858,52.19,52.2,52.18,52.2
201906171859,52.2,52.2,52.18,52.19
201906171900,52.19,52.2,52.17,52.19
201906171901,52.19,52.19,52.17,52.17
201906171902,52.17,52.2,52.17,52.19
201906171903,52.19,52.21,52.19,52.2
201906171904,52.2,52.21,52.19,52.21
201906171905,52.21,52.22,52.19,52.19
201906171906,52.19,52.22,52.18,52.2
201906171907,52.2,52.2,52.18,52.19
201906171908,52.19,52.2,52.18,52.2
201906171909,52.2,52.21,52.19,52.2
201906171910,52.2,52.2,52.19,52.2
201906171911,52.2,52.2,52.19,52.2
201906171912,52.2,52.2,52.18,52.18
201906171913,52.18,52.19,52.18,52.19
201906171914,52.19,52.19,52.18,52.18
201906171915,52.18,52.18,52.14,52.14
201906171916,52.14,52.14,52.11,52.11
201906171917,52.11,52.12,52.11,52.12
201906171918,52.12,52.15,52.12,52.15
201906171919,52.15,52.17,52.14,52.17
201906171920,52.17,52.2,52.16,52.2
201906171921,52.2,52.22,52.16,52.17
201906171922,52.17,52.18,52.16,52.16
201906171923,52.16,52.17,52.16,52.17
201906171924,52.17,52.17,52.15,52.15
201906171925,52.15,52.17,52.13,52.17
201906171926,52.17,52.18,52.16,52.18
201906171927,52.18,52.18,52.16,52.17
201906171928,52.17,52.18,52.16,52.18
201906171929,52.18,52.18,52.16,52.16
201906171930,52.16,52.16,52.14,52.15
201906171931,52.15,52.15,52.14,52.15
201906171932,52.15,52.16,52.14,52.14
201906171933,52.14,52.16,52.13,52.14
201906171934,52.14,52.15,52.13,52.14
201906171935,52.14,52.14,52.12,52.13
201906171936,52.13,52.14,52.12,52.13
201906171937,52.13,52.13,52.12,52.12
201906171938,52.12,52.13,52.11,52.11
201906171939,52.11,52.12,52.09,52.1
201906171940,52.1,52.12,52.05,52.12
201906171941,52.12,52.17,52.1,52.12
201906171942,52.12,52.14,52.12,52.13
201906171943,52.13,52.16,52.11,52.15
201906171944,52.15,52.19,52.14,52.16
201906171945,52.16,52.19,52.16,52.19
201906171946,52.19,52.19,52.18,52.18
201906171947,52.18,52.18,52.14,52.16
201906171948,52.16,52.16,52.12,52.13
201906171949,52.13,52.14,52.1,52.11
201906171950,52.11,52.14,52.1,52.13
201906171951,52.13,52.16,52.12,52.12
201906171952,52.12,52.12,52.06,52.09
201906171953,52.09,52.09,51.95,51.97
201906171954,51.97,51.99,51.84,51.88
201906171955,51.88,51.88,51.81,51.82
201906171956,51.82,51.82,51.75,51.79
201906171957,51.79,51.83,51.79,51.81
201906171958,51.81,51.81,51.75,51.77
201906171959,51.77,51.84,51.77,51.82
201906172000,51.82,51.84,51.8,51.83
201906172001,51.83,51.84,51.82,51.83
201906172002,51.83,51.84,51.82,51.82
201906172003,51.82,51.85,51.82,51.83
201906172004,51.83,51.84,51.8,51.83
201906172005,51.83,51.84,51.82,51.83
201906172006,51.83,51.83,51.8,51.83
201906172007,51.83,51.84,51.82,51.83
201906172008,51.83,51.85,51.83,51.84
201906172009,51.84,51.84,51.81,51.82
201906172010,51.82,51.85,51.81,51.84
201906172011,51.84,51.88,51.84,51.87
201906172012,51.87,51.88,51.86,51.86
201906172013,51.86,51.89,51.84,51.88
201906172014,51.88,51.9,51.85,51.86
201906172015,51.86,51.89,51.86,51.88
201906172016,51.88,51.88,51.85,51.87
201906172017,51.87,51.87,51.85,51.86
201906172018,51.86,51.91,51.86,51.91
201906172019,51.91,51.94,51.91,51.93
201906172020,51.93,51.96,51.93,51.95
201906172021,51.95,51.97,51.95,51.97
201906172022,51.97,51.99,51.94,51.98
201906172023,51.98,51.99,51.96,51.96
201906172024,51.96,51.96,51.93,51.94
201906172025,51.94,51.95,51.93,51.93
201906172026,51.93,51.93,51.9,51.93
201906172027,51.93,51.94,51.91,51.94
201906172028,51.94,51.94,51.92,51.92
201906172029,51.92,51.95,51.92,51.94
201906172030,51.94,51.94,51.92,51.92
201906172031,51.92,51.95,51.92,51.94
201906172032,51.94,51.94,51.92,51.94
201906172033,51.94,51.94,51.92,51.92
201906172034,51.92,51.95,51.91,51.94
201906172035,51.94,51.94,51.91,51.92
201906172036,51.92,51.94,51.89,51.93
201906172037,51.93,51.94,51.92,51.93
201906172038,51.93,51.93,51.91,51.91
201906172039,51.91,51.93,51.9,51.92
201906172040,51.92,51.93,51.89,51.93
201906172041,51.93,51.95,51.93,51.93
201906172042,51.93,51.97,51.93,51.97
201906172043,51.97,51.98,51.96,51.98
201906172044,51.98,51.98,51.97,51.98
201906172045,51.98,51.98,51.95,51.95
201906172046,51.95,51.99,51.95,51.98
201906172047,51.98,51.99,51.96,51.97
201906172048,51.97,51.99,51.95,51.96
201906172049,51.96,51.97,51.94,51.96
201906172050,51.96,51.96,51.94,51.95
201906172051,51.95,51.95,51.92,51.93
201906172052,51.93,51.94,51.92,51.93
201906172053,51.93,51.95,51.93,51.95
201906172054,51.95,51.99,51.94,51.99
201906172055,52,52,51.98,51.98
201906172056,51.98,51.99,51.94,51.98
201906172057,51.98,51.98,51.96,51.97
201906172058,51.97,51.98,51.96,51.97
201906172059,51.97,51.98,51.94,51.95
201906172100,51.95,51.96,51.93,51.94
201906172101,51.94,51.97,51.94,51.97
201906172102,51.97,52,51.96,51.96
201906172103,51.96,51.97,51.93,51.93
201906172104,51.93,51.98,51.92,51.97
201906172105,51.97,51.97,51.94,51.97
201906172106,51.97,51.98,51.94,51.98
201906172107,51.98,51.99,51.97,51.98
201906172108,51.98,51.99,51.97,51.99
201906172109,51.99,52.02,51.98,52.01
201906172110,52.01,52.04,52.01,52.01
201906172111,52.01,52.03,52.01,52.03
201906172112,52.03,52.04,52.02,52.02
201906172113,52.02,52.04,52.02,52.02
201906172114,52.02,52.06,52.01,52.05
201906172115,52.05,52.05,52.02,52.03
201906172116,52.03,52.03,52.02,52.03
201906172117,52.03,52.05,52.02,52.02
201906172118,52.02,52.04,52.01,52.02
201906172119,52.02,52.06,52.01,52.05
201906172120,52.05,52.05,52.02,52.03
201906172121,52.03,52.04,52.02,52.03
201906172122,52.03,52.04,52.02,52.04
201906172123,52.04,52.04,52.03,52.04
201906172124,52.04,52.05,52.02,52.05
201906172125,52.05,52.05,52.02,52.02
201906172126,52.02,52.04,52.02,52.02
201906172127,52.02,52.04,52.02,52.03
201906172128,52.03,52.04,52.03,52.03
201906172129,52.03,52.06,52.02,52.06
201906172130,52.06,52.06,52.04,52.05
201906172131,52.05,52.1,52.05,52.09
201906172132,52.09,52.1,52.08,52.09
201906172133,52.09,52.1,52.08,52.09
201906172134,52.09,52.09,52.06,52.06
201906172135,52.05,52.07,52.05,52.06
201906172136,52.06,52.12,52.06,52.1
201906172137,52.1,52.12,52.09,52.11
201906172138,52.11,52.13,52.1,52.11
201906172139,52.11,52.11,52.08,52.09
201906172140,52.09,52.11,52.09,52.11
201906172141,52.11,52.12,52.11,52.11
201906172142,52.11,52.12,52.1,52.11
201906172143,52.11,52.12,52.1,52.11
201906172144,52.11,52.13,52.09,52.09
201906172145,52.09,52.14,52.08,52.14
201906172146,52.14,52.31,52.14,52.31
201906172147,52.31,52.32,52.24,52.25
201906172148,52.25,52.31,52.25,52.31
201906172149,52.31,52.33,52.29,52.3
201906172150,52.31,52.32,52.25,52.25
201906172151,52.25,52.31,52.25,52.29
201906172152,52.29,52.29,52.25,52.26
201906172153,52.26,52.27,52.25,52.25
201906172154,52.25,52.25,52.23,52.23
201906172155,52.23,52.23,52.18,52.21
201906172156,52.21,52.29,52.2,52.26
201906172157,52.26,52.28,52.24,52.24
201906172158,52.24,52.24,52.2,52.2
201906172159,52.2,52.26,52.2,52.25
201906172200,52.25,52.28,52.14,52.25
201906172201,52.25,52.25,52.17,52.22
201906172202,52.22,52.24,52.17,52.18
201906172203,52.18,52.24,52.18,52.21
201906172204,52.21,52.26,52.18,52.23
201906172205,52.23,52.26,52.19,52.26
201906172206,52.26,52.31,52.16,52.18
201906172207,52.18,52.21,52.17,52.2
201906172208,52.2,52.2,52.16,52.17
201906172209,52.17,52.17,52.08,52.08
201906172210,52.08,52.16,52.08,52.12
201906172211,52.12,52.13,52.08,52.09
201906172212,52.09,52.11,52.08,52.09
201906172213,52.09,52.09,52.02,52.03
201906172214,52.03,52.06,51.99,52.04
201906172215,52.04,52.1,52.01,52.06
201906172216,52.06,52.06,52.02,52.02
201906172217,52.02,52.05,52.02,52.05
201906172218,52.04,52.05,52.02,52.05
201906172219,52.05,52.08,52.04,52.08
201906172220,52.08,52.08,52.04,52.06
201906172221,52.07,52.07,52.02,52.03
201906172222,52.03,52.06,52.02,52.06
201906172223,52.06,52.06,52.03,52.05
201906172224,52.05,52.05,52.02,52.04
201906172225,52.04,52.05,52.01,52.05
201906172226,52.05,52.05,52.03,52.04
201906172227,52.04,52.05,52.01,52.01
201906172228,52.01,52.05,52,52.03
201906172229,52.03,52.05,52,52.03
201906172230,52.03,52.1,52,52.1
201906172231,52.1,52.15,52.07,52.07
201906172232,52.07,52.09,52,52.04
201906172233,52.04,52.04,51.95,51.96
201906172234,51.96,52.04,51.95,52.03
201906172235,52.03,52.05,51.99,52.01
201906172236,52.01,52.07,52,52.06
201906172237,52.06,52.06,52.01,52.03
201906172238,52.03,52.09,52.03,52.07
201906172239,52.07,52.07,52,52.01
201906172240,52.01,52.1,51.99,52.05
201906172241,52.05,52.09,52.04,52.07
201906172242,52.07,52.1,52.02,52.03
201906172243,52.03,52.04,51.97,51.98
201906172244,51.98,52.07,51.96,52.03
201906172245,52.03,52.06,52.03,52.06
201906172246,52.06,52.07,52.01,52.02
201906172247,52.02,52.04,52,52.04
201906172248,52.04,52.07,52.03,52.06
201906172249,52.06,52.08,52.05,52.07
201906172250,52.07,52.18,52.07,52.17
201906172251,52.17,52.17,52.11,52.13
201906172252,52.13,52.16,52.11,52.16
201906172253,52.16,52.2,52.12,52.12
201906172254,52.12,52.16,52.12,52.13
201906172255,52.13,52.23,52.12,52.21
201906172256,52.21,52.22,52.18,52.18
201906172257,52.18,52.2,52.17,52.19
201906172258,52.19,52.21,52.18,52.18
201906172259,52.18,52.2,52.17,52.18
201906172300,52.18,52.18,52.1,52.15
201906172301,52.15,52.19,52.14,52.17
201906172302,52.17,52.25,52.16,52.22
201906172303,52.22,52.25,52.17,52.21
201906172304,52.21,52.21,52.17,52.2
201906172305,52.2,52.22,52.15,52.17
201906172306,52.17,52.2,52.16,52.17
201906172307,52.17,52.2,52.15,52.19
201906172308,52.19,52.19,52.14,52.18
201906172309,52.18,52.19,52.15,52.17
201906172310,52.17,52.18,52.14,52.17
201906172311,52.17,52.17,52.14,52.15
201906172312,52.15,52.15,52.11,52.12
201906172313,52.12,52.14,52.1,52.13
201906172314,52.13,52.14,52.11,52.13
201906172315,52.13,52.18,52.13,52.18
201906172316,52.18,52.22,52.16,52.18
201906172317,52.18,52.21,52.16,52.16
201906172318,52.16,52.22,52.15,52.2
201906172319,52.2,52.2,52.16,52.16
201906172320,52.16,52.17,52.14,52.16
201906172321,52.15,52.15,52.12,52.13
201906172322,52.13,52.14,52.11,52.12
201906172323,52.12,52.13,52.05,52.08
201906172324,52.08,52.09,52.04,52.07
201906172325,52.07,52.09,52.03,52.07
201906172326,52.07,52.07,52.01,52.02
201906172327,52.02,52.07,52.01,52.07
201906172328,52.07,52.09,52.05,52.07
201906172329,52.07,52.09,52.06,52.09
201906172330,52.09,52.11,52.08,52.09
201906172331,52.09,52.16,52.09,52.15
201906172332,52.15,52.21,52.15,52.19
201906172333,52.19,52.28,52.18,52.27
201906172334,52.27,52.33,52.26,52.31
201906172335,52.31,52.44,52.31,52.38
201906172336,52.38,52.45,52.35,52.39
201906172337,52.39,52.39,52.31,52.34
201906172338,52.34,52.34,52.29,52.31
201906172339,52.31,52.37,52.31,52.33
201906172340,52.33,52.35,52.29,52.31
201906172341,52.31,52.38,52.31,52.37
201906172342,52.37,52.39,52.32,52.34
201906172343,52.33,52.36,52.33,52.33
201906172344,52.33,52.34,52.31,52.31
201906172345,52.31,52.37,52.31,52.36
201906172346,52.36,52.4,52.35,52.38
201906172347,52.38,52.4,52.37,52.38
201906172348,52.38,52.39,52.34,52.35
201906172349,52.35,52.38,52.34,52.35
201906172350,52.35,52.43,52.35,52.38
201906172351,52.38,52.4,52.35,52.37
201906172352,52.37,52.4,52.37,52.4
201906172353,52.4,52.43,52.39,52.42
201906172354,52.42,52.45,52.41,52.42
201906172355,52.42,52.45,52.42,52.45
201906172356,52.45,52.48,52.41,52.42
201906172357,52.42,52.43,52.39,52.39
201906172358,52.4,52.41,52.38,52.38
201906172359,52.38,52.38,52.33,52.34
201906180000,52.34,52.35,52.31,52.33
201906180001,52.33,52.38,52.33,52.38
201906180002,52.38,52.43,52.37,52.42
201906180003,52.42,52.44,52.36,52.36
201906180004,52.37,52.38,52.35,52.37
201906180005,52.37,52.39,52.36,52.38
201906180006,52.38,52.38,52.31,52.33
201906180007,52.33,52.36,52.32,52.35
201906180008,52.35,52.37,52.34,52.36
201906180009,52.36,52.37,52.34,52.35
201906180010,52.35,52.36,52.32,52.36
201906180011,52.36,52.37,52.33,52.35
201906180012,52.35,52.36,52.33,52.34
201906180013,52.34,52.36,52.29,52.3
201906180014,52.3,52.3,52.27,52.27
201906180015,52.27,52.35,52.26,52.31
201906180016,52.31,52.32,52.26,52.27
201906180017,52.27,52.32,52.27,52.31
201906180018,52.31,52.33,52.31,52.32
201906180019,52.32,52.4,52.32,52.39
201906180020,52.39,52.39,52.36,52.37
201906180021,52.37,52.39,52.37,52.38
201906180022,52.38,52.4,52.38,52.38
201906180023,52.38,52.4,52.35,52.39
201906180024,52.39,52.4,52.35,52.35
201906180025,52.35,52.35,52.3,52.34
201906180026,52.34,52.35,52.3,52.31
201906180027,52.31,52.32,52.27,52.29
201906180028,52.29,52.31,52.26,52.27
201906180029,52.27,52.32,52.24,52.24
201906180030,52.24,52.26,52.19,52.22
201906180031,52.22,52.22,52.13,52.19
201906180032,52.19,52.24,52.16,52.2
201906180033,52.2,52.24,52.2,52.23
201906180034,52.23,52.25,52.2,52.23
201906180035,52.23,52.27,52.22,52.22
201906180036,52.22,52.26,52.2,52.24
201906180037,52.24,52.26,52.23,52.26
201906180038,52.26,52.26,52.23,52.25
201906180039,52.25,52.26,52.24,52.25
201906180040,52.25,52.27,52.22,52.26
201906180041,52.26,52.26,52.21,52.22
201906180042,52.22,52.23,52.22,52.22
201906180043,52.22,52.23,52.18,52.18
201906180044,52.19,52.23,52.18,52.22
201906180045,52.22,52.23,52.19,52.23
201906180046,52.23,52.26,52.22,52.25
201906180047,52.25,52.26,52.22,52.25
201906180048,52.25,52.26,52.21,52.23
201906180049,52.23,52.23,52.21,52.23
201906180050,52.23,52.28,52.22,52.26
201906180051,52.26,52.31,52.26,52.26
201906180052,52.26,52.26,52.2,52.2
201906180053,52.2,52.21,52.16,52.2
201906180054,52.2,52.23,52.19,52.2
201906180055,52.2,52.22,52.17,52.19
201906180056,52.19,52.22,52.19,52.22
201906180057,52.22,52.25,52.22,52.24
201906180058,52.24,52.26,52.23,52.26
201906180059,52.26,52.29,52.26,52.27
201906180100,52.27,52.35,52.27,52.32
201906180101,52.32,52.33,52.31,52.31
201906180102,52.31,52.34,52.29,52.31
201906180103,52.31,52.31,52.29,52.3
201906180104,52.3,52.33,52.27,52.27
201906180105,52.27,52.32,52.26,52.31
201906180106,52.31,52.31,52.29,52.3
201906180107,52.3,52.32,52.3,52.31
201906180108,52.31,52.32,52.28,52.28
201906180109,52.28,52.28,52.25,52.26
201906180110,52.26,52.28,52.26,52.27
201906180111,52.27,52.31,52.27,52.31
201906180112,52.31,52.32,52.29,52.3
201906180113,52.3,52.33,52.3,52.32
201906180114,52.32,52.38,52.32,52.37
201906180115,52.37,52.4,52.37,52.39
201906180116,52.39,52.39,52.34,52.36
201906180117,52.36,52.36,52.32,52.35
201906180118,52.35,52.36,52.33,52.35
201906180119,52.35,52.37,52.35,52.36
201906180120,52.36,52.36,52.31,52.31
201906180121,52.31,52.31,52.23,52.28
201906180122,52.26,52.28,52.26,52.27
201906180123,52.27,52.29,52.27,52.27
201906180124,52.27,52.27,52.25,52.26
201906180125,52.26,52.27,52.26,52.27
201906180126,52.27,52.29,52.26,52.27
201906180127,52.27,52.27,52.26,52.26
201906180128,52.26,52.31,52.26,52.28
201906180129,52.28,52.32,52.28,52.31
201906180130,52.31,52.33,52.28,52.3
201906180131,52.3,52.3,52.27,52.28
201906180132,52.28,52.29,52.27,52.27
201906180133,52.27,52.3,52.27,52.3
201906180134,52.3,52.32,52.3,52.31
201906180135,52.31,52.35,52.31,52.33
201906180136,52.33,52.35,52.31,52.33
201906180137,52.33,52.33,52.32,52.32
201906180138,52.32,52.34,52.29,52.29
201906180139,52.29,52.32,52.28,52.31
201906180140,52.31,52.33,52.3,52.32
201906180141,52.32,52.33,52.3,52.32
201906180142,52.32,52.39,52.32,52.39
201906180143,52.39,52.39,52.33,52.33
201906180144,52.33,52.33,52.3,52.31
201906180145,52.31,52.31,52.25,52.27
201906180146,52.27,52.27,52.24,52.25
201906180147,52.25,52.28,52.25,52.26
201906180148,52.26,52.27,52.25,52.25
201906180149,52.25,52.25,52.18,52.22
201906180150,52.22,52.23,52.21,52.23
201906180151,52.23,52.25,52.22,52.22
201906180152,52.22,52.23,52.2,52.23
201906180153,52.23,52.24,52.2,52.2
201906180154,52.2,52.23,52.2,52.21
201906180155,52.21,52.23,52.21,52.22
201906180156,52.22,52.25,52.22,52.24
201906180157,52.24,52.25,52.21,52.22
201906180158,52.22,52.22,52.2,52.21
201906180159,52.21,52.23,52.21,52.23
201906180200,52.23,52.24,52.21,52.23
201906180201,52.23,52.23,52.21,52.22
201906180202,52.22,52.25,52.22,52.23
201906180203,52.23,52.25,52.23,52.25
201906180204,52.25,52.26,52.23,52.24
201906180205,52.24,52.25,52.23,52.24
201906180206,52.24,52.26,52.23,52.24
201906180207,52.24,52.25,52.23,52.24
201906180208,52.24,52.28,52.24,52.28
201906180209,52.28,52.29,52.27,52.28
201906180210,52.28,52.32,52.28,52.31
201906180211,52.31,52.32,52.3,52.31
201906180212,52.31,52.33,52.3,52.32
201906180213,52.32,52.32,52.29,52.3
201906180214,52.3,52.33,52.3,52.3
201906180215,52.29,52.32,52.28,52.31
201906180216,52.31,52.32,52.31,52.31
201906180217,52.31,52.32,52.3,52.31
201906180218,52.31,52.34,52.31,52.32
201906180219,52.32,52.34,52.3,52.33
201906180220,52.33,52.35,52.32,52.33
201906180221,52.33,52.34,52.31,52.31
201906180222,52.31,52.31,52.29,52.31
201906180223,52.31,52.31,52.29,52.29
201906180224,52.29,52.29,52.27,52.29
201906180225,52.29,52.31,52.27,52.28
201906180226,52.28,52.29,52.26,52.26
201906180227,52.26,52.27,52.25,52.27
201906180228,52.27,52.29,52.27,52.28
201906180229,52.28,52.28,52.27,52.28
201906180230,52.28,52.28,52.25,52.26
201906180231,52.26,52.26,52.22,52.23
201906180232,52.23,52.24,52.22,52.23
201906180233,52.23,52.25,52.23,52.25
201906180234,52.25,52.27,52.24,52.24
201906180235,52.24,52.24,52.21,52.22
201906180236,52.22,52.26,52.22,52.24
201906180237,52.24,52.26,52.23,52.26
201906180238,52.26,52.26,52.23,52.24
201906180239,52.24,52.24,52.23,52.23
201906180240,52.23,52.23,52.21,52.22
201906180241,52.22,52.22,52.18,52.2
201906180242,52.2,52.2,52.18,52.19
201906180243,52.19,52.2,52.11,52.12
201906180244,52.12,52.14,52.07,52.11
201906180245,52.12,52.12,52,52
201906180246,52.01,52.03,52,52.02
201906180247,52.02,52.02,51.97,51.99
201906180248,51.99,52.07,51.99,52.05
201906180249,52.05,52.07,52.04,52.05
201906180250,52.05,52.06,52.03,52.04
201906180251,52.04,52.07,52.04,52.05
201906180252,52.05,52.07,52.05,52.06
201906180253,52.06,52.08,52.04,52.06
201906180254,52.06,52.08,52.04,52.06
201906180255,52.06,52.06,52.03,52.05
201906180256,52.05,52.08,52.05,52.06
201906180257,52.06,52.08,52.05,52.08
201906180258,52.08,52.1,52.07,52.1
201906180259,52.1,52.1,52.04,52.07
201906180300,52.07,52.07,52.01,52.03
201906180301,52.03,52.1,52.03,52.09
201906180302,52.09,52.11,52.07,52.11
201906180303,52.11,52.12,52.1,52.11
201906180304,52.11,52.11,52.08,52.1
201906180305,52.1,52.12,52.09,52.11
201906180306,52.11,52.11,52.06,52.06
201906180307,52.06,52.1,52.06,52.07
201906180308,52.07,52.13,52.02,52.03
201906180309,52.03,52.06,52.02,52.05
201906180310,52.05,52.11,52.03,52.1
201906180311,52.1,52.1,52.05,52.06
201906180312,52.06,52.09,52.05,52.05
201906180313,52.05,52.07,52.04,52.06
201906180314,52.06,52.09,52.05,52.08
201906180315,52.08,52.11,52.07,52.08
201906180316,52.08,52.08,52.05,52.07
201906180317,52.07,52.1,52.06,52.1
201906180318,52.1,52.1,52.05,52.05
201906180319,52.05,52.06,52.03,52.05
201906180320,52.05,52.07,51.95,51.98
201906180321,51.98,52,51.95,51.98
201906180322,51.98,51.99,51.95,51.96
201906180323,51.96,51.98,51.95,51.95
201906180324,51.95,52.03,51.93,52.03
201906180325,52.03,52.03,51.93,51.96
201906180326,51.96,52,51.95,51.97
201906180327,51.97,51.97,51.89,51.93
201906180328,51.93,52,51.9,51.9
201906180329,51.9,51.95,51.86,51.92
201906180330,51.92,51.93,51.83,51.83
201906180331,51.83,51.84,51.71,51.75
201906180332,51.75,51.77,51.73,51.75
201906180333,51.75,51.81,51.75,51.78
201906180334,51.78,51.78,51.69,51.7
201906180335,51.7,51.71,51.66,51.69
201906180336,51.69,51.69,51.67,51.67
201906180337,51.67,51.69,51.58,51.59
201906180338,51.6,51.69,51.6,51.67
201906180339,51.67,51.71,51.67,51.7
201906180340,51.7,51.7,51.68,51.7
201906180341,51.7,51.7,51.64,51.68
201906180342,51.68,51.74,51.67,51.73
201906180343,51.73,51.73,51.71,51.71
201906180344,51.71,51.71,51.68,51.68
201906180345,51.68,51.68,51.66,51.66
201906180346,51.66,51.69,51.66,51.68
201906180347,51.67,51.69,51.67,51.68
201906180348,51.68,51.69,51.66,51.67
201906180349,51.67,51.71,51.67,51.7
201906180350,51.7,51.73,51.7,51.7
201906180351,51.7,51.75,51.7,51.73
201906180352,51.73,51.75,51.72,51.73
201906180353,51.73,51.79,51.73,51.78
201906180354,51.78,51.78,51.74,51.75
201906180355,51.75,51.76,51.74,51.74
201906180356,51.74,51.75,51.73,51.74
201906180357,51.74,51.75,51.69,51.74
201906180358,51.74,51.76,51.73,51.74
201906180359,51.74,51.78,51.74,51.78
201906180400,51.78,51.79,51.76,51.79
201906180401,51.79,51.79,51.78,51.79
201906180402,51.79,51.83,51.79,51.81
201906180403,51.81,51.82,51.8,51.81
201906180404,51.81,51.81,51.8,51.8
201906180405,51.8,51.8,51.78,51.79
201906180406,51.79,51.79,51.78,51.78
201906180407,51.78,51.78,51.76,51.78
201906180408,51.78,51.78,51.74,51.74
201906180409,51.74,51.76,51.74,51.76
201906180410,51.76,51.78,51.76,51.78
201906180411,51.78,51.8,51.78,51.8
201906180412,51.8,51.8,51.79,51.8
201906180413,51.8,51.8,51.78,51.79
201906180414,51.79,51.79,51.77,51.79
201906180415,51.79,51.81,51.79,51.8
201906180416,51.8,51.81,51.79,51.8
201906180417,51.8,51.81,51.79,51.8
201906180418,51.8,51.81,51.79,51.8
201906180419,51.8,51.82,51.8,51.81
201906180420,51.81,51.82,51.81,51.81
201906180421,51.82,51.83,51.81,51.83
201906180422,51.83,51.84,51.83,51.84
201906180423,51.84,51.86,51.84,51.86
201906180424,51.86,51.87,51.85,51.85
201906180425,51.85,51.85,51.82,51.82
201906180426,51.82,51.83,51.82,51.83
201906180427,51.83,51.85,51.83,51.84
201906180428,51.84,51.84,51.82,51.82
201906180429,51.82,51.84,51.82,51.83
201906180430,51.83,51.84,51.82,51.84
201906180431,51.84,51.86,51.83,51.83
201906180432,51.83,51.86,51.83,51.85
201906180433,51.85,51.87,51.85,51.87
201906180434,51.87,51.88,51.86,51.86
201906180435,51.86,51.86,51.85,51.86
201906180436,51.86,51.86,51.84,51.86
201906180437,51.86,51.87,51.86,51.86
201906180438,51.86,51.86,51.85,51.85
201906180439,51.85,51.86,51.85,51.85
201906180440,51.85,51.86,51.85,51.85
201906180441,51.85,51.86,51.84,51.85
201906180442,51.85,51.86,51.85,51.86
201906180443,51.86,51.88,51.86,51.88
201906180444,51.88,51.89,51.88,51.89
201906180445,51.88,51.91,51.88,51.91
201906180446,51.91,51.92,51.9,51.91
201906180447,51.91,51.94,51.91,51.94
201906180448,51.94,51.94,51.93,51.93
201906180449,51.93,51.93,51.92,51.92
201906180450,51.92,51.92,51.9,51.91
201906180451,51.91,51.92,51.91,51.92
201906180452,51.92,51.94,51.91,51.93
201906180453,51.93,51.94,51.93,51.93
201906180454,51.93,51.94,51.93,51.93
201906180455,51.93,51.94,51.93,51.93
201906180456,51.93,51.94,51.93,51.94
201906180457,51.94,51.94,51.92,51.93
201906180458,51.93,51.94,51.93,51.94
201906180459,51.94,51.94,51.91,51.94
201906180500,51.93,51.94,51.93,51.93
201906180501,51.93,51.93,51.92,51.92
201906180502,51.92,51.93,51.92,51.93
201906180503,51.93,51.94,51.92,51.93
201906180504,51.93,51.94,51.93,51.94
201906180505,51.94,51.95,51.94,51.94
201906180506,51.94,51.94,51.94,51.94
201906180507,51.94,51.94,51.94,51.94
201906180508,51.94,51.95,51.94,51.94
201906180509,51.94,51.96,51.94,51.96
201906180510,51.96,51.97,51.95,51.97
201906180511,51.97,51.98,51.97,51.97
201906180512,51.97,51.98,51.97,51.98
201906180513,51.98,51.99,51.98,51.98
201906180514,51.98,51.99,51.98,51.98
201906180515,51.98,51.98,51.97,51.98
201906180516,51.98,51.98,51.96,51.96
201906180517,51.96,51.96,51.95,51.96
201906180518,51.96,51.97,51.95,51.97
201906180519,51.97,51.97,51.97,51.97
201906180520,51.97,51.97,51.96,51.96
201906180521,51.96,51.96,51.93,51.93
201906180522,51.93,51.95,51.93,51.94
201906180523,51.94,51.94,51.93,51.94
201906180524,51.94,51.94,51.93,51.94
201906180525,51.94,51.94,51.93,51.94
201906180526,51.94,51.94,51.93,51.94
201906180527,51.94,51.94,51.94,51.94
201906180528,51.94,51.96,51.94,51.95
201906180529,51.95,51.95,51.95,51.95
201906180530,51.95,51.96,51.95,51.96
201906180531,51.96,51.96,51.94,51.94
201906180532,51.94,51.95,51.94,51.94
201906180533,51.95,51.95,51.94,51.95
201906180534,51.95,51.96,51.94,51.95
201906180535,51.95,51.96,51.95,51.95
201906180536,51.95,51.96,51.95,51.95
201906180537,51.95,51.95,51.95,51.95
201906180538,51.95,51.96,51.93,51.93
201906180539,51.93,51.94,51.93,51.94
201906180540,51.94,51.94,51.93,51.93
201906180541,51.93,51.94,51.92,51.92
201906180542,51.92,51.92,51.91,51.91
201906180543,51.91,51.91,51.89,51.89
201906180544,51.89,51.9,51.89,51.9
201906180545,51.9,51.91,51.9,51.9
201906180546,51.9,51.91,51.9,51.91
201906180547,51.91,51.91,51.91,51.91
201906180548,51.91,51.91,51.91,51.91
201906180549,51.91,51.91,51.91,51.91
201906180550,51.91,51.92,51.9,51.91
201906180551,51.91,51.91,51.9,51.9
201906180552,51.9,51.9,51.89,51.89
201906180553,51.89,51.89,51.88,51.89
201906180554,51.89,51.89,51.88,51.88
201906180555,51.88,51.88,51.87,51.88
201906180556,51.88,51.91,51.88,51.91
201906180557,51.91,51.91,51.9,51.9
201906180558,51.9,51.91,51.9,51.91
201906180559,51.91,51.92,51.9,51.91
