日時,始値(BID),高値(BID),安値(BID),終値(BID)
201906250700,57.73,57.76,57.63,57.65
201906250701,57.65,57.71,57.65,57.67
201906250702,57.67,57.72,57.67,57.68
201906250703,57.68,57.69,57.68,57.69
201906250704,57.69,57.69,57.69,57.69
201906250705,57.69,57.7,57.69,57.7
201906250706,57.7,57.72,57.68,57.7
201906250707,57.7,57.71,57.7,57.7
201906250708,57.7,57.73,57.7,57.73
201906250709,57.73,57.75,57.72,57.72
201906250710,57.72,57.73,57.71,57.72
201906250711,57.72,57.73,57.72,57.72
201906250712,57.72,57.73,57.71,57.72
201906250713,57.72,57.73,57.72,57.73
201906250714,57.73,57.75,57.73,57.74
201906250715,57.74,57.74,57.73,57.73
201906250716,57.73,57.74,57.73,57.74
201906250717,57.74,57.75,57.74,57.74
201906250718,57.74,57.76,57.74,57.76
201906250719,57.76,57.76,57.76,57.76
201906250720,57.76,57.76,57.76,57.76
201906250721,57.76,57.76,57.76,57.76
201906250722,57.76,57.76,57.76,57.76
201906250723,57.76,57.77,57.76,57.77
201906250724,57.77,57.77,57.76,57.76
201906250725,57.76,57.76,57.76,57.76
201906250726,57.76,57.77,57.76,57.77
201906250727,57.77,57.77,57.77,57.77
201906250728,57.77,57.77,57.77,57.77
201906250729,57.77,57.77,57.75,57.75
201906250730,57.75,57.75,57.72,57.72
201906250731,57.72,57.73,57.71,57.73
201906250732,57.73,57.75,57.73,57.74
201906250733,57.74,57.75,57.74,57.74
201906250734,57.74,57.74,57.73,57.73
201906250735,57.73,57.74,57.73,57.73
201906250736,57.73,57.73,57.72,57.72
201906250737,57.72,57.73,57.71,57.73
201906250738,57.73,57.73,57.73,57.73
201906250739,57.73,57.73,57.73,57.73
201906250740,57.73,57.78,57.73,57.78
201906250741,57.78,57.78,57.76,57.76
201906250742,57.76,57.76,57.75,57.75
201906250743,57.75,57.76,57.75,57.75
201906250744,57.75,57.78,57.75,57.77
201906250745,57.77,57.77,57.75,57.76
201906250746,57.76,57.76,57.75,57.76
201906250747,57.76,57.81,57.76,57.8
201906250748,57.8,57.81,57.79,57.81
201906250749,57.81,57.81,57.79,57.8
201906250750,57.8,57.8,57.79,57.79
201906250751,57.79,57.8,57.79,57.8
201906250752,57.8,57.8,57.79,57.8
201906250753,57.8,57.8,57.8,57.8
201906250754,57.8,57.8,57.8,57.8
201906250755,57.8,57.8,57.79,57.8
201906250756,57.8,57.8,57.77,57.78
201906250757,57.78,57.79,57.78,57.79
201906250758,57.79,57.8,57.78,57.8
201906250759,57.8,57.83,57.8,57.83
201906250800,57.83,57.83,57.81,57.83
201906250801,57.83,57.83,57.83,57.83
201906250802,57.83,57.84,57.83,57.83
201906250803,57.83,57.83,57.81,57.81
201906250804,57.81,57.81,57.8,57.8
201906250805,57.8,57.8,57.78,57.79
201906250806,57.79,57.81,57.79,57.81
201906250807,57.81,57.82,57.81,57.82
201906250808,57.82,57.83,57.82,57.82
201906250809,57.82,57.82,57.81,57.81
201906250810,57.81,57.81,57.79,57.79
201906250811,57.79,57.8,57.79,57.79
201906250812,57.79,57.8,57.79,57.8
201906250813,57.8,57.8,57.8,57.8
201906250814,57.8,57.8,57.8,57.8
201906250815,57.8,57.81,57.79,57.81
201906250816,57.81,57.81,57.81,57.81
201906250817,57.81,57.82,57.81,57.81
201906250818,57.81,57.81,57.8,57.8
201906250819,57.8,57.8,57.8,57.8
201906250820,57.8,57.8,57.78,57.78
201906250821,57.78,57.78,57.78,57.78
201906250822,57.78,57.78,57.78,57.78
201906250823,57.78,57.78,57.75,57.75
201906250824,57.75,57.77,57.75,57.77
201906250825,57.77,57.78,57.77,57.77
201906250826,57.77,57.77,57.77,57.77
201906250827,57.77,57.77,57.77,57.77
201906250828,57.77,57.78,57.77,57.78
201906250829,57.78,57.8,57.78,57.8
201906250830,57.8,57.81,57.79,57.79
201906250831,57.79,57.79,57.78,57.78
201906250832,57.78,57.79,57.78,57.78
201906250833,57.78,57.78,57.77,57.77
201906250834,57.77,57.77,57.76,57.76
201906250835,57.76,57.77,57.76,57.77
201906250836,57.77,57.77,57.74,57.74
201906250837,57.74,57.76,57.74,57.76
201906250838,57.76,57.76,57.75,57.75
201906250839,57.75,57.76,57.75,57.76
201906250840,57.76,57.76,57.76,57.76
201906250841,57.76,57.78,57.76,57.77
201906250842,57.77,57.77,57.76,57.77
201906250843,57.77,57.77,57.77,57.77
201906250844,57.77,57.77,57.77,57.77
201906250845,57.77,57.77,57.77,57.77
201906250846,57.77,57.78,57.77,57.78
201906250847,57.78,57.78,57.77,57.77
201906250848,57.77,57.77,57.76,57.76
201906250849,57.76,57.77,57.76,57.77
201906250850,57.77,57.78,57.77,57.78
201906250851,57.78,57.79,57.78,57.79
201906250852,57.79,57.79,57.79,57.79
201906250853,57.79,57.8,57.79,57.79
201906250854,57.79,57.79,57.77,57.77
201906250855,57.77,57.77,57.77,57.77
201906250856,57.77,57.78,57.77,57.78
201906250857,57.78,57.78,57.78,57.78
201906250858,57.78,57.8,57.78,57.8
201906250859,57.8,57.8,57.79,57.79
201906250900,57.79,57.85,57.79,57.84
201906250901,57.84,57.89,57.81,57.82
201906250902,57.82,57.83,57.81,57.83
201906250903,57.83,57.89,57.83,57.88
201906250904,57.88,57.93,57.88,57.9
201906250905,57.9,57.91,57.9,57.9
201906250906,57.9,57.9,57.89,57.89
201906250907,57.89,57.9,57.87,57.9
201906250908,57.9,57.9,57.87,57.88
201906250909,57.88,57.89,57.87,57.89
201906250910,57.89,57.89,57.87,57.88
201906250911,57.88,57.89,57.87,57.88
201906250912,57.88,57.88,57.88,57.88
201906250913,57.88,57.88,57.85,57.85
201906250914,57.85,57.85,57.85,57.85
201906250915,57.85,57.85,57.83,57.85
201906250916,57.85,57.85,57.83,57.85
201906250917,57.85,57.85,57.84,57.85
201906250918,57.85,57.85,57.83,57.84
201906250919,57.84,57.85,57.83,57.85
201906250920,57.85,57.85,57.84,57.84
201906250921,57.84,57.84,57.83,57.83
201906250922,57.83,57.85,57.83,57.85
201906250923,57.85,57.86,57.84,57.85
201906250924,57.85,57.85,57.84,57.85
201906250925,57.85,57.86,57.84,57.85
201906250926,57.85,57.85,57.84,57.84
201906250927,57.84,57.87,57.84,57.85
201906250928,57.85,57.86,57.85,57.85
201906250929,57.85,57.86,57.85,57.85
201906250930,57.85,57.85,57.85,57.85
201906250931,57.85,57.85,57.85,57.85
201906250932,57.85,57.85,57.84,57.85
201906250933,57.85,57.85,57.84,57.85
201906250934,57.85,57.86,57.85,57.86
201906250935,57.86,57.86,57.85,57.85
201906250936,57.85,57.85,57.84,57.84
201906250937,57.84,57.85,57.84,57.85
201906250938,57.85,57.85,57.85,57.85
201906250939,57.85,57.87,57.85,57.87
201906250940,57.87,57.87,57.86,57.86
201906250941,57.86,57.86,57.82,57.82
201906250942,57.82,57.83,57.81,57.82
201906250943,57.82,57.83,57.82,57.83
201906250944,57.83,57.84,57.83,57.84
201906250945,57.84,57.84,57.83,57.83
201906250946,57.83,57.84,57.83,57.84
201906250947,57.84,57.85,57.84,57.85
201906250948,57.85,57.88,57.85,57.87
201906250949,57.87,57.88,57.86,57.86
201906250950,57.86,57.87,57.85,57.87
201906250951,57.87,57.87,57.86,57.87
201906250952,57.87,57.87,57.86,57.87
201906250953,57.87,57.88,57.86,57.88
201906250954,57.88,57.88,57.87,57.88
201906250955,57.88,57.89,57.87,57.88
201906250956,57.88,57.88,57.87,57.87
201906250957,57.87,57.87,57.87,57.87
201906250958,57.87,57.88,57.87,57.88
201906250959,57.88,57.88,57.87,57.87
201906251000,57.87,57.95,57.86,57.94
201906251001,57.94,57.96,57.91,57.94
201906251002,57.94,57.95,57.91,57.91
201906251003,57.91,57.92,57.91,57.91
201906251004,57.91,57.92,57.89,57.9
201906251005,57.9,57.9,57.89,57.89
201906251006,57.89,57.9,57.86,57.86
201906251007,57.86,57.86,57.79,57.8
201906251008,57.8,57.8,57.77,57.77
201906251009,57.77,57.79,57.77,57.77
201906251010,57.77,57.77,57.74,57.74
201906251011,57.74,57.76,57.73,57.74
201906251012,57.74,57.76,57.73,57.75
201906251013,57.75,57.76,57.74,57.74
201906251014,57.74,57.76,57.74,57.74
201906251015,57.74,57.77,57.73,57.76
201906251016,57.76,57.78,57.76,57.77
201906251017,57.77,57.78,57.76,57.77
201906251018,57.77,57.77,57.74,57.75
201906251019,57.75,57.75,57.74,57.74
201906251020,57.74,57.75,57.74,57.75
201906251021,57.75,57.75,57.75,57.75
201906251022,57.75,57.75,57.75,57.75
201906251023,57.75,57.77,57.75,57.77
201906251024,57.77,57.77,57.77,57.77
201906251025,57.77,57.78,57.77,57.78
201906251026,57.78,57.8,57.78,57.79
201906251027,57.79,57.8,57.79,57.8
201906251028,57.8,57.83,57.8,57.83
201906251029,57.83,57.83,57.81,57.81
201906251030,57.81,57.83,57.79,57.83
201906251031,57.83,57.85,57.82,57.83
201906251032,57.83,57.84,57.81,57.81
201906251033,57.81,57.81,57.78,57.79
201906251034,57.79,57.8,57.78,57.79
201906251035,57.79,57.79,57.78,57.78
201906251036,57.78,57.78,57.77,57.78
201906251037,57.78,57.81,57.78,57.79
201906251038,57.79,57.82,57.78,57.82
201906251039,57.82,57.84,57.81,57.83
201906251040,57.83,57.84,57.82,57.83
201906251041,57.83,57.83,57.83,57.83
201906251042,57.83,57.86,57.83,57.86
201906251043,57.86,57.89,57.86,57.86
201906251044,57.86,57.88,57.85,57.86
201906251045,57.86,57.86,57.85,57.85
201906251046,57.85,57.85,57.84,57.84
201906251047,57.84,57.85,57.84,57.85
201906251048,57.85,57.85,57.84,57.85
201906251049,57.85,57.85,57.83,57.84
201906251050,57.84,57.86,57.83,57.84
201906251051,57.84,57.84,57.83,57.83
201906251052,57.84,57.85,57.82,57.82
201906251053,57.82,57.82,57.8,57.8
201906251054,57.8,57.8,57.77,57.77
201906251055,57.77,57.78,57.76,57.77
201906251056,57.77,57.78,57.76,57.77
201906251057,57.77,57.77,57.75,57.76
201906251058,57.76,57.76,57.74,57.75
201906251059,57.75,57.76,57.74,57.76
201906251100,57.76,57.79,57.75,57.78
201906251101,57.78,57.8,57.78,57.8
201906251102,57.81,57.82,57.8,57.81
201906251103,57.81,57.81,57.8,57.81
201906251104,57.81,57.81,57.8,57.81
201906251105,57.81,57.81,57.8,57.8
201906251106,57.8,57.81,57.79,57.8
201906251107,57.8,57.81,57.78,57.79
201906251108,57.79,57.79,57.76,57.77
201906251109,57.77,57.78,57.76,57.77
201906251110,57.77,57.77,57.76,57.76
201906251111,57.76,57.76,57.75,57.76
201906251112,57.76,57.77,57.76,57.76
201906251113,57.76,57.77,57.76,57.77
201906251114,57.77,57.78,57.77,57.77
201906251115,57.77,57.78,57.76,57.77
201906251116,57.77,57.78,57.76,57.77
201906251117,57.77,57.77,57.75,57.75
201906251118,57.75,57.76,57.74,57.75
201906251119,57.75,57.75,57.74,57.75
201906251120,57.75,57.75,57.74,57.74
201906251121,57.74,57.75,57.73,57.73
201906251122,57.73,57.73,57.71,57.72
201906251123,57.72,57.73,57.71,57.73
201906251124,57.73,57.73,57.72,57.73
201906251125,57.73,57.73,57.72,57.72
201906251126,57.72,57.73,57.71,57.72
201906251127,57.72,57.72,57.71,57.71
201906251128,57.71,57.72,57.71,57.71
201906251129,57.71,57.72,57.71,57.71
201906251130,57.71,57.72,57.7,57.71
201906251131,57.71,57.73,57.71,57.72
201906251132,57.72,57.73,57.71,57.71
201906251133,57.71,57.71,57.59,57.61
201906251134,57.61,57.63,57.61,57.62
201906251135,57.62,57.62,57.56,57.56
201906251136,57.56,57.56,57.5,57.53
201906251137,57.53,57.53,57.51,57.52
201906251138,57.52,57.52,57.42,57.43
201906251139,57.43,57.48,57.39,57.45
201906251140,57.45,57.48,57.43,57.45
201906251141,57.45,57.45,57.39,57.41
201906251142,57.41,57.44,57.38,57.39
201906251143,57.39,57.42,57.38,57.41
201906251144,57.41,57.41,57.35,57.36
201906251145,57.36,57.37,57.29,57.37
201906251146,57.37,57.42,57.37,57.42
201906251147,57.42,57.42,57.37,57.38
201906251148,57.38,57.39,57.36,57.37
201906251149,57.37,57.38,57.36,57.37
201906251150,57.37,57.37,57.32,57.34
201906251151,57.34,57.37,57.31,57.32
201906251152,57.32,57.35,57.32,57.33
201906251153,57.33,57.35,57.32,57.32
201906251154,57.32,57.34,57.31,57.33
201906251155,57.33,57.35,57.33,57.34
201906251156,57.34,57.35,57.33,57.33
201906251157,57.33,57.35,57.33,57.34
201906251158,57.34,57.35,57.3,57.31
201906251159,57.31,57.39,57.28,57.39
201906251200,57.38,57.4,57.38,57.4
201906251201,57.4,57.41,57.36,57.38
201906251202,57.38,57.38,57.31,57.32
201906251203,57.32,57.34,57.32,57.32
201906251204,57.32,57.32,57.28,57.31
201906251205,57.31,57.31,57.29,57.29
201906251206,57.29,57.3,57.28,57.3
201906251207,57.3,57.33,57.3,57.32
201906251208,57.32,57.33,57.32,57.33
201906251209,57.33,57.38,57.33,57.37
201906251210,57.37,57.38,57.35,57.37
201906251211,57.37,57.37,57.34,57.35
201906251212,57.35,57.36,57.34,57.34
201906251213,57.34,57.37,57.34,57.35
201906251214,57.35,57.36,57.34,57.35
201906251215,57.35,57.35,57.32,57.32
201906251216,57.32,57.35,57.32,57.35
201906251217,57.35,57.35,57.3,57.31
201906251218,57.31,57.31,57.27,57.28
201906251219,57.28,57.29,57.27,57.27
201906251220,57.27,57.27,57.2,57.23
201906251221,57.23,57.29,57.22,57.29
201906251222,57.29,57.29,57.26,57.27
201906251223,57.27,57.29,57.26,57.29
201906251224,57.29,57.3,57.27,57.28
201906251225,57.28,57.29,57.27,57.28
201906251226,57.28,57.3,57.27,57.29
201906251227,57.29,57.3,57.28,57.29
201906251228,57.29,57.3,57.27,57.28
201906251229,57.28,57.3,57.27,57.29
201906251230,57.29,57.3,57.27,57.29
201906251231,57.29,57.29,57.28,57.29
201906251232,57.29,57.3,57.28,57.29
201906251233,57.29,57.3,57.29,57.3
201906251234,57.3,57.3,57.28,57.28
201906251235,57.28,57.3,57.28,57.3
201906251236,57.3,57.32,57.3,57.3
201906251237,57.3,57.31,57.3,57.31
201906251238,57.31,57.31,57.3,57.31
201906251239,57.31,57.32,57.31,57.31
201906251240,57.31,57.32,57.3,57.3
201906251241,57.3,57.3,57.29,57.3
201906251242,57.3,57.31,57.29,57.3
201906251243,57.3,57.3,57.29,57.29
201906251244,57.29,57.31,57.29,57.31
201906251245,57.31,57.32,57.3,57.31
201906251246,57.31,57.31,57.29,57.3
201906251247,57.3,57.3,57.27,57.28
201906251248,57.28,57.28,57.27,57.28
201906251249,57.28,57.3,57.28,57.3
201906251250,57.3,57.3,57.29,57.3
201906251251,57.3,57.3,57.28,57.29
201906251252,57.29,57.3,57.27,57.29
201906251253,57.29,57.29,57.25,57.25
201906251254,57.25,57.25,57.23,57.23
201906251255,57.23,57.31,57.23,57.31
201906251256,57.31,57.31,57.29,57.29
201906251257,57.29,57.3,57.29,57.3
201906251258,57.3,57.31,57.28,57.29
201906251259,57.29,57.29,57.28,57.28
201906251300,57.28,57.32,57.28,57.31
201906251301,57.31,57.32,57.29,57.29
201906251302,57.29,57.32,57.29,57.32
201906251303,57.32,57.34,57.31,57.32
201906251304,57.32,57.34,57.3,57.33
201906251305,57.33,57.34,57.33,57.33
201906251306,57.33,57.33,57.32,57.33
201906251307,57.33,57.33,57.32,57.33
201906251308,57.33,57.39,57.33,57.39
201906251309,57.39,57.41,57.37,57.4
201906251310,57.4,57.44,57.39,57.43
201906251311,57.43,57.44,57.39,57.43
201906251312,57.43,57.44,57.42,57.43
201906251313,57.43,57.44,57.42,57.43
201906251314,57.43,57.44,57.43,57.44
201906251315,57.44,57.44,57.42,57.42
201906251316,57.42,57.43,57.42,57.42
201906251317,57.42,57.42,57.41,57.41
201906251318,57.41,57.42,57.41,57.41
201906251319,57.41,57.43,57.4,57.42
201906251320,57.42,57.44,57.42,57.43
201906251321,57.43,57.44,57.42,57.42
201906251322,57.42,57.42,57.41,57.41
201906251323,57.41,57.41,57.4,57.41
201906251324,57.41,57.41,57.4,57.4
201906251325,57.4,57.43,57.4,57.42
201906251326,57.42,57.42,57.4,57.4
201906251327,57.4,57.4,57.38,57.39
201906251328,57.39,57.4,57.38,57.39
201906251329,57.39,57.39,57.38,57.39
201906251330,57.39,57.39,57.36,57.38
201906251331,57.38,57.38,57.36,57.36
201906251332,57.36,57.38,57.36,57.36
201906251333,57.36,57.36,57.36,57.36
201906251334,57.36,57.36,57.35,57.35
201906251335,57.35,57.35,57.34,57.35
201906251336,57.35,57.36,57.34,57.35
201906251337,57.35,57.35,57.34,57.35
201906251338,57.35,57.37,57.34,57.36
201906251339,57.36,57.36,57.34,57.35
201906251340,57.35,57.36,57.35,57.35
201906251341,57.35,57.37,57.35,57.35
201906251342,57.35,57.36,57.35,57.36
201906251343,57.36,57.36,57.35,57.36
201906251344,57.36,57.38,57.36,57.38
201906251345,57.38,57.39,57.37,57.37
201906251346,57.37,57.37,57.37,57.37
201906251347,57.37,57.37,57.35,57.36
201906251348,57.36,57.37,57.35,57.35
201906251349,57.35,57.36,57.35,57.35
201906251350,57.35,57.36,57.35,57.35
201906251351,57.35,57.35,57.32,57.33
201906251352,57.33,57.33,57.31,57.33
201906251353,57.33,57.33,57.3,57.32
201906251354,57.32,57.32,57.32,57.32
201906251355,57.32,57.35,57.32,57.34
201906251356,57.34,57.34,57.3,57.3
201906251357,57.3,57.31,57.3,57.31
201906251358,57.31,57.32,57.31,57.32
201906251359,57.32,57.32,57.32,57.32
201906251400,57.32,57.33,57.3,57.31
201906251401,57.31,57.31,57.3,57.31
201906251402,57.31,57.32,57.3,57.32
201906251403,57.32,57.32,57.3,57.31
201906251404,57.31,57.34,57.3,57.34
201906251405,57.35,57.35,57.33,57.35
201906251406,57.35,57.36,57.34,57.34
201906251407,57.34,57.34,57.33,57.34
201906251408,57.34,57.34,57.32,57.33
201906251409,57.33,57.33,57.33,57.33
201906251410,57.33,57.34,57.32,57.32
201906251411,57.32,57.33,57.3,57.3
201906251412,57.3,57.32,57.3,57.32
201906251413,57.32,57.32,57.31,57.31
201906251414,57.31,57.32,57.31,57.32
201906251415,57.32,57.32,57.31,57.31
201906251416,57.31,57.31,57.3,57.31
201906251417,57.31,57.31,57.3,57.31
201906251418,57.31,57.32,57.31,57.32
201906251419,57.32,57.33,57.32,57.32
201906251420,57.32,57.33,57.32,57.33
201906251421,57.33,57.33,57.33,57.33
201906251422,57.33,57.33,57.32,57.32
201906251423,57.32,57.32,57.31,57.31
201906251424,57.31,57.32,57.31,57.32
201906251425,57.32,57.33,57.32,57.33
201906251426,57.33,57.34,57.33,57.33
201906251427,57.33,57.34,57.32,57.33
201906251428,57.33,57.33,57.32,57.32
201906251429,57.32,57.33,57.32,57.33
201906251430,57.33,57.38,57.33,57.37
201906251431,57.37,57.38,57.36,57.36
201906251432,57.36,57.37,57.35,57.37
201906251433,57.37,57.41,57.36,57.41
201906251434,57.41,57.43,57.41,57.42
201906251435,57.42,57.44,57.42,57.43
201906251436,57.43,57.44,57.41,57.42
201906251437,57.42,57.45,57.42,57.43
201906251438,57.43,57.45,57.43,57.44
201906251439,57.44,57.46,57.43,57.46
201906251440,57.46,57.53,57.46,57.51
201906251441,57.51,57.53,57.51,57.53
201906251442,57.53,57.54,57.5,57.52
201906251443,57.52,57.53,57.51,57.52
201906251444,57.52,57.52,57.49,57.51
201906251445,57.51,57.51,57.48,57.51
201906251446,57.51,57.52,57.5,57.52
201906251447,57.52,57.53,57.51,57.53
201906251448,57.53,57.54,57.52,57.53
201906251449,57.53,57.54,57.52,57.53
201906251450,57.53,57.53,57.49,57.51
201906251451,57.51,57.51,57.49,57.51
201906251452,57.51,57.53,57.51,57.53
201906251453,57.53,57.53,57.52,57.53
201906251454,57.53,57.53,57.52,57.52
201906251455,57.52,57.54,57.51,57.53
201906251456,57.53,57.53,57.51,57.52
201906251457,57.52,57.6,57.52,57.58
201906251458,57.58,57.61,57.58,57.6
201906251459,57.6,57.64,57.6,57.64
201906251500,57.64,57.72,57.64,57.68
201906251501,57.68,57.68,57.62,57.62
201906251502,57.62,57.71,57.62,57.69
201906251503,57.69,57.71,57.69,57.7
201906251504,57.7,57.75,57.69,57.71
201906251505,57.71,57.72,57.69,57.7
201906251506,57.7,57.7,57.67,57.67
201906251507,57.67,57.69,57.66,57.67
201906251508,57.67,57.69,57.65,57.67
201906251509,57.67,57.69,57.65,57.67
201906251510,57.67,57.71,57.67,57.71
201906251511,57.71,57.79,57.68,57.77
201906251512,57.77,57.85,57.77,57.84
201906251513,57.84,57.86,57.82,57.86
201906251514,57.86,57.89,57.84,57.89
201906251515,57.89,57.9,57.8,57.89
201906251516,57.89,57.92,57.87,57.89
201906251517,57.89,57.95,57.88,57.88
201906251518,57.88,57.88,57.84,57.84
201906251519,57.85,57.87,57.82,57.83
201906251520,57.83,57.85,57.8,57.83
201906251521,57.83,57.86,57.79,57.83
201906251522,57.83,57.84,57.81,57.82
201906251523,57.82,57.82,57.77,57.79
201906251524,57.79,57.8,57.76,57.77
201906251525,57.77,57.82,57.75,57.79
201906251526,57.79,57.82,57.78,57.8
201906251527,57.8,57.8,57.76,57.77
201906251528,57.77,57.81,57.77,57.8
201906251529,57.8,57.82,57.79,57.79
201906251530,57.79,57.8,57.76,57.78
201906251531,57.78,57.78,57.75,57.75
201906251532,57.75,57.76,57.74,57.76
201906251533,57.76,57.78,57.75,57.78
201906251534,57.78,57.78,57.75,57.76
201906251535,57.76,57.76,57.72,57.76
201906251536,57.76,57.76,57.64,57.64
201906251537,57.64,57.66,57.59,57.65
201906251538,57.65,57.67,57.64,57.64
201906251539,57.64,57.65,57.62,57.65
201906251540,57.65,57.66,57.62,57.63
201906251541,57.63,57.67,57.63,57.66
201906251542,57.66,57.66,57.63,57.64
201906251543,57.64,57.66,57.64,57.65
201906251544,57.65,57.66,57.65,57.65
201906251545,57.65,57.66,57.65,57.65
201906251546,57.65,57.66,57.63,57.63
201906251547,57.63,57.66,57.62,57.66
201906251548,57.66,57.67,57.65,57.67
201906251549,57.67,57.71,57.67,57.71
201906251550,57.71,57.78,57.7,57.77
201906251551,57.77,57.81,57.77,57.79
201906251552,57.79,57.79,57.74,57.75
201906251553,57.75,57.76,57.72,57.76
201906251554,57.76,57.79,57.76,57.77
201906251555,57.77,57.8,57.76,57.8
201906251556,57.8,57.81,57.76,57.78
201906251557,57.78,57.79,57.77,57.78
201906251558,57.78,57.79,57.73,57.75
201906251559,57.75,57.76,57.72,57.75
201906251600,57.75,57.81,57.72,57.79
201906251601,57.79,57.79,57.71,57.76
201906251602,57.76,57.76,57.72,57.74
201906251603,57.74,57.75,57.71,57.72
201906251604,57.72,57.77,57.71,57.77
201906251605,57.77,57.77,57.72,57.74
201906251606,57.74,57.76,57.73,57.75
201906251607,57.75,57.75,57.71,57.73
201906251608,57.73,57.75,57.73,57.75
201906251609,57.74,57.75,57.73,57.74
201906251610,57.74,57.76,57.73,57.73
201906251611,57.73,57.75,57.73,57.74
201906251612,57.74,57.75,57.73,57.74
201906251613,57.74,57.78,57.73,57.77
201906251614,57.77,57.78,57.76,57.76
201906251615,57.76,57.78,57.75,57.78
201906251616,57.78,57.81,57.77,57.77
201906251617,57.77,57.78,57.73,57.73
201906251618,57.73,57.74,57.71,57.73
201906251619,57.73,57.74,57.7,57.72
201906251620,57.72,57.75,57.71,57.75
201906251621,57.75,57.75,57.7,57.7
201906251622,57.7,57.71,57.67,57.68
201906251623,57.68,57.72,57.68,57.72
201906251624,57.72,57.72,57.68,57.72
201906251625,57.72,57.72,57.71,57.72
201906251626,57.72,57.74,57.71,57.73
201906251627,57.73,57.75,57.72,57.73
201906251628,57.73,57.75,57.72,57.75
201906251629,57.75,57.75,57.73,57.74
201906251630,57.74,57.84,57.74,57.8
201906251631,57.8,57.84,57.78,57.84
201906251632,57.84,57.86,57.81,57.82
201906251633,57.82,57.83,57.8,57.82
201906251634,57.82,57.84,57.82,57.84
201906251635,57.84,57.85,57.79,57.83
201906251636,57.83,57.83,57.8,57.82
201906251637,57.82,57.83,57.79,57.79
201906251638,57.79,57.82,57.79,57.8
201906251639,57.8,57.81,57.78,57.8
201906251640,57.8,57.81,57.77,57.8
201906251641,57.8,57.81,57.78,57.81
201906251642,57.81,57.83,57.8,57.83
201906251643,57.83,57.86,57.83,57.83
201906251644,57.83,57.84,57.8,57.81
201906251645,57.81,57.82,57.73,57.81
201906251646,57.81,57.82,57.79,57.82
201906251647,57.82,57.82,57.78,57.78
201906251648,57.78,57.81,57.78,57.8
201906251649,57.8,57.8,57.77,57.78
201906251650,57.78,57.8,57.75,57.76
201906251651,57.76,57.78,57.72,57.73
201906251652,57.73,57.74,57.71,57.73
201906251653,57.73,57.73,57.69,57.71
201906251654,57.71,57.71,57.68,57.69
201906251655,57.69,57.73,57.69,57.73
201906251656,57.73,57.73,57.71,57.71
201906251657,57.71,57.73,57.7,57.71
201906251658,57.71,57.72,57.67,57.68
201906251659,57.68,57.69,57.64,57.65
201906251700,57.65,57.74,57.65,57.73
201906251701,57.73,57.77,57.73,57.74
201906251702,57.74,57.76,57.73,57.75
201906251703,57.75,57.79,57.75,57.77
201906251704,57.77,57.78,57.76,57.77
201906251705,57.77,57.8,57.77,57.79
201906251706,57.79,57.8,57.74,57.74
201906251707,57.74,57.75,57.7,57.74
201906251708,57.74,57.76,57.73,57.74
201906251709,57.74,57.76,57.74,57.74
201906251710,57.74,57.78,57.74,57.77
201906251711,57.77,57.78,57.75,57.75
201906251712,57.75,57.76,57.7,57.74
201906251713,57.74,57.76,57.73,57.75
201906251714,57.75,57.76,57.73,57.75
201906251715,57.75,57.82,57.75,57.78
201906251716,57.79,57.79,57.75,57.76
201906251717,57.76,57.77,57.75,57.75
201906251718,57.75,57.78,57.74,57.78
201906251719,57.78,57.82,57.77,57.82
201906251720,57.82,57.83,57.8,57.81
201906251721,57.81,57.98,57.81,57.95
201906251722,57.95,58.03,57.93,58
201906251723,58,58.02,57.99,57.99
201906251724,57.99,57.99,57.95,57.97
201906251725,57.97,57.98,57.94,57.96
201906251726,57.96,57.97,57.94,57.97
201906251727,57.97,57.98,57.93,57.94
201906251728,57.94,57.96,57.91,57.91
201906251729,57.91,57.92,57.83,57.84
201906251730,57.84,57.91,57.8,57.88
201906251731,57.88,57.89,57.85,57.86
201906251732,57.86,57.92,57.85,57.92
201906251733,57.92,57.93,57.88,57.89
201906251734,57.88,57.94,57.88,57.94
201906251735,57.94,57.96,57.93,57.95
201906251736,57.95,58.03,57.94,58.02
201906251737,58.02,58.09,58.02,58.05
201906251738,58.05,58.05,57.97,57.97
201906251739,57.97,57.99,57.96,57.97
201906251740,57.97,57.99,57.95,57.96
201906251741,57.96,57.98,57.89,57.89
201906251742,57.89,57.93,57.89,57.9
201906251743,57.9,57.92,57.88,57.88
201906251744,57.88,57.88,57.83,57.85
201906251745,57.85,57.89,57.85,57.87
201906251746,57.87,57.89,57.83,57.83
201906251747,57.83,57.84,57.8,57.8
201906251748,57.8,57.81,57.79,57.81
201906251749,57.81,57.84,57.78,57.83
201906251750,57.83,57.83,57.8,57.81
201906251751,57.81,57.82,57.79,57.8
201906251752,57.8,57.83,57.8,57.81
201906251753,57.81,57.83,57.79,57.82
201906251754,57.82,57.82,57.78,57.81
201906251755,57.81,57.81,57.77,57.78
201906251756,57.78,57.81,57.77,57.81
201906251757,57.81,57.82,57.77,57.78
201906251758,57.78,57.83,57.77,57.82
201906251759,57.82,57.82,57.79,57.81
201906251800,57.81,57.87,57.81,57.87
201906251801,57.87,57.91,57.85,57.91
201906251802,57.91,57.92,57.85,57.87
201906251803,57.87,57.87,57.82,57.85
201906251804,57.85,57.88,57.84,57.87
201906251805,57.87,57.87,57.83,57.85
201906251806,57.85,57.89,57.84,57.87
201906251807,57.87,57.92,57.87,57.91
201906251808,57.91,57.91,57.87,57.87
201906251809,57.87,57.91,57.87,57.91
201906251810,57.91,57.92,57.89,57.91
201906251811,57.91,57.93,57.91,57.91
201906251812,57.91,57.95,57.89,57.94
201906251813,57.94,57.95,57.89,57.9
201906251814,57.9,57.93,57.88,57.91
201906251815,57.91,57.93,57.89,57.91
201906251816,57.91,57.94,57.91,57.94
201906251817,57.94,57.94,57.92,57.92
201906251818,57.92,57.94,57.92,57.93
201906251819,57.93,57.96,57.93,57.95
201906251820,57.95,57.99,57.94,57.97
201906251821,57.97,57.97,57.93,57.93
201906251822,57.93,57.94,57.91,57.91
201906251823,57.91,57.94,57.89,57.92
201906251824,57.93,57.94,57.91,57.91
201906251825,57.91,57.93,57.89,57.92
201906251826,57.92,57.92,57.9,57.9
201906251827,57.9,57.91,57.89,57.9
201906251828,57.9,57.93,57.89,57.89
201906251829,57.89,57.9,57.89,57.9
201906251830,57.9,57.97,57.89,57.93
201906251831,57.93,57.93,57.88,57.89
201906251832,57.89,57.9,57.87,57.89
201906251833,57.89,57.91,57.86,57.9
201906251834,57.9,57.91,57.87,57.89
201906251835,57.89,57.9,57.87,57.89
201906251836,57.89,57.91,57.86,57.86
201906251837,57.86,57.89,57.86,57.87
201906251838,57.87,57.87,57.84,57.85
201906251839,57.85,57.87,57.84,57.85
201906251840,57.85,57.87,57.84,57.84
201906251841,57.84,57.87,57.84,57.85
201906251842,57.85,57.89,57.85,57.88
201906251843,57.88,57.88,57.85,57.87
201906251844,57.87,57.88,57.85,57.85
201906251845,57.85,57.9,57.85,57.87
201906251846,57.87,57.87,57.85,57.86
201906251847,57.86,57.86,57.83,57.84
201906251848,57.84,57.86,57.84,57.86
201906251849,57.86,57.86,57.83,57.84
201906251850,57.84,57.86,57.84,57.85
201906251851,57.85,57.86,57.84,57.84
201906251852,57.84,57.84,57.82,57.83
201906251853,57.83,57.83,57.82,57.82
201906251854,57.82,57.83,57.81,57.82
201906251855,57.82,57.83,57.81,57.82
201906251856,57.82,57.83,57.81,57.82
201906251857,57.82,57.83,57.81,57.82
201906251858,57.82,57.82,57.77,57.78
201906251859,57.78,57.81,57.78,57.79
201906251900,57.79,57.8,57.78,57.79
201906251901,57.79,57.79,57.75,57.75
201906251902,57.75,57.76,57.69,57.69
201906251903,57.69,57.71,57.66,57.67
201906251904,57.67,57.72,57.65,57.66
201906251905,57.66,57.69,57.66,57.67
201906251906,57.67,57.67,57.64,57.64
201906251907,57.64,57.64,57.54,57.56
201906251908,57.56,57.6,57.56,57.6
201906251909,57.6,57.61,57.58,57.6
201906251910,57.6,57.62,57.6,57.6
201906251911,57.6,57.61,57.58,57.61
201906251912,57.61,57.61,57.59,57.6
201906251913,57.6,57.61,57.58,57.59
201906251914,57.59,57.59,57.55,57.57
201906251915,57.57,57.58,57.53,57.55
201906251916,57.55,57.56,57.54,57.56
201906251917,57.56,57.58,57.56,57.58
201906251918,57.58,57.58,57.55,57.55
201906251919,57.55,57.58,57.52,57.57
201906251920,57.57,57.61,57.54,57.6
201906251921,57.6,57.61,57.59,57.61
201906251922,57.6,57.62,57.6,57.61
201906251923,57.61,57.61,57.6,57.6
201906251924,57.6,57.6,57.57,57.58
201906251925,57.58,57.58,57.54,57.58
201906251926,57.58,57.59,57.57,57.58
201906251927,57.58,57.58,57.56,57.58
201906251928,57.58,57.59,57.57,57.59
201906251929,57.59,57.59,57.58,57.58
201906251930,57.58,57.61,57.57,57.59
201906251931,57.59,57.59,57.57,57.58
201906251932,57.58,57.59,57.55,57.56
201906251933,57.56,57.58,57.56,57.58
201906251934,57.58,57.58,57.56,57.58
201906251935,57.58,57.58,57.43,57.46
201906251936,57.46,57.52,57.46,57.5
201906251937,57.5,57.52,57.5,57.52
201906251938,57.52,57.53,57.52,57.52
201906251939,57.52,57.52,57.49,57.51
201906251940,57.51,57.57,57.51,57.55
201906251941,57.55,57.62,57.55,57.59
201906251942,57.59,57.6,57.59,57.59
201906251943,57.59,57.6,57.58,57.59
201906251944,57.59,57.59,57.58,57.58
201906251945,57.58,57.58,57.54,57.56
201906251946,57.56,57.57,57.56,57.56
201906251947,57.56,57.56,57.54,57.55
201906251948,57.55,57.57,57.55,57.56
201906251949,57.56,57.57,57.56,57.56
201906251950,57.56,57.57,57.53,57.53
201906251951,57.53,57.57,57.53,57.57
201906251952,57.57,57.62,57.57,57.6
201906251953,57.6,57.64,57.59,57.63
201906251954,57.63,57.64,57.62,57.64
201906251955,57.64,57.66,57.63,57.63
201906251956,57.63,57.64,57.61,57.61
201906251957,57.61,57.63,57.59,57.62
201906251958,57.62,57.62,57.6,57.6
201906251959,57.6,57.63,57.6,57.63
201906252000,57.63,57.67,57.63,57.66
201906252001,57.66,57.66,57.61,57.62
201906252002,57.62,57.64,57.62,57.62
201906252003,57.62,57.66,57.62,57.65
201906252004,57.65,57.66,57.63,57.64
201906252005,57.64,57.65,57.63,57.63
201906252006,57.63,57.65,57.63,57.65
201906252007,57.65,57.66,57.64,57.64
201906252008,57.64,57.64,57.6,57.61
201906252009,57.61,57.62,57.57,57.6
201906252010,57.6,57.62,57.57,57.58
201906252011,57.58,57.58,57.54,57.55
201906252012,57.55,57.55,57.52,57.52
201906252013,57.52,57.52,57.5,57.51
201906252014,57.51,57.54,57.51,57.54
201906252015,57.54,57.55,57.53,57.55
201906252016,57.55,57.6,57.55,57.59
201906252017,57.59,57.6,57.57,57.59
201906252018,57.59,57.65,57.59,57.64
201906252019,57.64,57.66,57.64,57.65
201906252020,57.65,57.69,57.65,57.67
201906252021,57.67,57.7,57.66,57.67
201906252022,57.67,57.68,57.66,57.66
201906252023,57.66,57.66,57.63,57.65
201906252024,57.65,57.66,57.63,57.64
201906252025,57.64,57.66,57.62,57.63
201906252026,57.63,57.64,57.63,57.64
201906252027,57.64,57.68,57.64,57.64
201906252028,57.64,57.66,57.64,57.66
201906252029,57.66,57.66,57.64,57.66
201906252030,57.66,57.69,57.66,57.69
201906252031,57.69,57.7,57.67,57.68
201906252032,57.68,57.71,57.68,57.69
201906252033,57.69,57.71,57.69,57.7
201906252034,57.7,57.72,57.68,57.68
201906252035,57.68,57.68,57.66,57.67
201906252036,57.67,57.7,57.67,57.7
201906252037,57.7,57.71,57.69,57.71
201906252038,57.71,57.76,57.71,57.75
201906252039,57.75,57.76,57.72,57.73
201906252040,57.73,57.73,57.71,57.72
201906252041,57.72,57.73,57.71,57.71
201906252042,57.71,57.74,57.71,57.73
201906252043,57.73,57.74,57.72,57.73
201906252044,57.73,57.73,57.71,57.72
201906252045,57.72,57.72,57.71,57.72
201906252046,57.72,57.72,57.68,57.71
201906252047,57.71,57.72,57.7,57.71
201906252048,57.71,57.71,57.68,57.69
201906252049,57.69,57.7,57.62,57.62
201906252050,57.62,57.67,57.61,57.65
201906252051,57.65,57.65,57.63,57.63
201906252052,57.63,57.63,57.61,57.63
201906252053,57.63,57.69,57.63,57.68
201906252054,57.68,57.72,57.68,57.72
201906252055,57.72,57.8,57.72,57.79
201906252056,57.79,57.81,57.78,57.8
201906252057,57.8,57.82,57.79,57.8
201906252058,57.8,57.83,57.8,57.82
201906252059,57.82,57.83,57.8,57.83
201906252100,57.83,57.87,57.8,57.85
201906252101,57.85,57.91,57.85,57.91
201906252102,57.91,57.93,57.88,57.9
201906252103,57.9,57.91,57.88,57.9
201906252104,57.9,57.91,57.88,57.9
201906252105,57.9,57.91,57.88,57.9
201906252106,57.9,57.92,57.89,57.89
201906252107,57.89,57.9,57.86,57.89
201906252108,57.89,57.9,57.87,57.88
201906252109,57.88,57.88,57.86,57.87
201906252110,57.87,57.91,57.87,57.9
201906252111,57.9,57.91,57.9,57.9
201906252112,57.9,57.9,57.84,57.84
201906252113,57.84,57.85,57.82,57.83
201906252114,57.83,57.85,57.8,57.83
201906252115,57.83,57.88,57.83,57.85
201906252116,57.85,57.87,57.85,57.86
201906252117,57.86,57.87,57.85,57.85
201906252118,57.85,57.85,57.83,57.85
201906252119,57.85,57.86,57.84,57.86
201906252120,57.86,57.86,57.8,57.81
201906252121,57.81,57.81,57.78,57.79
201906252122,57.79,57.82,57.77,57.8
201906252123,57.8,57.82,57.79,57.8
201906252124,57.8,57.83,57.79,57.81
201906252125,57.81,57.82,57.79,57.81
201906252126,57.81,57.83,57.81,57.82
201906252127,57.82,57.85,57.82,57.85
201906252128,57.85,57.86,57.84,57.84
201906252129,57.84,57.86,57.84,57.86
201906252130,57.86,57.89,57.85,57.86
201906252131,57.86,57.87,57.85,57.87
201906252132,57.87,57.89,57.86,57.88
201906252133,57.88,57.91,57.84,57.86
201906252134,57.86,57.87,57.78,57.8
201906252135,57.8,57.83,57.78,57.83
201906252136,57.83,57.83,57.81,57.82
201906252137,57.83,57.83,57.81,57.82
201906252138,57.82,57.88,57.82,57.87
201906252139,57.87,57.89,57.86,57.87
201906252140,57.86,57.88,57.83,57.86
201906252141,57.86,57.87,57.86,57.87
201906252142,57.87,57.92,57.87,57.9
201906252143,57.9,57.91,57.88,57.88
201906252144,57.88,57.9,57.88,57.89
201906252145,57.89,57.92,57.88,57.91
201906252146,57.91,57.92,57.89,57.91
201906252147,57.91,57.92,57.9,57.91
201906252148,57.91,57.92,57.88,57.9
201906252149,57.9,57.91,57.89,57.91
201906252150,57.91,57.92,57.9,57.9
201906252151,57.9,57.93,57.9,57.92
201906252152,57.92,57.93,57.89,57.9
201906252153,57.9,57.92,57.85,57.89
201906252154,57.89,57.92,57.89,57.9
201906252155,57.9,57.93,57.9,57.92
201906252156,57.92,57.92,57.88,57.89
201906252157,57.89,57.9,57.82,57.82
201906252158,57.82,57.83,57.8,57.83
201906252159,57.83,57.84,57.82,57.82
201906252200,57.82,58,57.8,58
201906252201,58,58.16,57.98,58.15
201906252202,58.15,58.15,57.96,57.96
201906252203,57.96,57.96,57.73,57.78
201906252204,57.78,57.78,57.66,57.75
201906252205,57.76,57.83,57.7,57.83
201906252206,57.83,57.87,57.8,57.86
201906252207,57.86,57.89,57.86,57.88
201906252208,57.88,57.92,57.84,57.86
201906252209,57.86,57.94,57.86,57.87
201906252210,57.87,57.91,57.86,57.87
201906252211,57.87,57.88,57.84,57.87
201906252212,57.87,57.87,57.83,57.85
201906252213,57.85,57.86,57.8,57.82
201906252214,57.82,57.84,57.81,57.84
201906252215,57.84,57.88,57.82,57.84
201906252216,57.84,57.94,57.83,57.93
201906252217,57.93,57.93,57.82,57.82
201906252218,57.82,57.83,57.7,57.75
201906252219,57.75,57.82,57.75,57.8
201906252220,57.8,57.8,57.77,57.8
201906252221,57.8,57.82,57.75,57.79
201906252222,57.79,57.85,57.78,57.85
201906252223,57.85,57.85,57.81,57.83
201906252224,57.83,57.88,57.82,57.88
201906252225,57.88,57.95,57.87,57.89
201906252226,57.89,57.93,57.86,57.93
201906252227,57.93,58.05,57.92,57.99
201906252228,57.99,58,57.95,57.97
201906252229,57.97,58.04,57.97,57.99
201906252230,57.99,58.07,57.98,58.01
201906252231,58.01,58.05,57.99,58.05
201906252232,58.05,58.08,58.05,58.06
201906252233,58.05,58.06,58.02,58.02
201906252234,58.02,58.13,58.01,58.13
201906252235,58.13,58.3,58.1,58.26
201906252236,58.26,58.29,58.2,58.25
201906252237,58.25,58.31,58.2,58.2
201906252238,58.2,58.23,58.17,58.21
201906252239,58.21,58.32,58.21,58.28
201906252240,58.28,58.28,58.25,58.26
201906252241,58.26,58.27,58.2,58.25
201906252242,58.25,58.31,58.19,58.2
201906252243,58.2,58.23,58.2,58.21
201906252244,58.21,58.27,58.21,58.25
201906252245,58.25,58.25,58.21,58.21
201906252246,58.21,58.21,58.17,58.19
201906252247,58.19,58.19,58.11,58.12
201906252248,58.12,58.13,58.08,58.1
201906252249,58.1,58.1,57.92,57.99
201906252250,57.99,58.05,57.99,57.99
201906252251,57.98,58.02,57.95,58.02
201906252252,58.02,58.09,58.02,58.08
201906252253,58.07,58.13,58.07,58.12
201906252254,58.12,58.17,58.1,58.15
201906252255,58.15,58.16,58.12,58.14
201906252256,58.14,58.15,58.1,58.11
201906252257,58.11,58.12,58.09,58.11
201906252258,58.11,58.11,58.06,58.07
201906252259,58.07,58.09,58.07,58.09
201906252300,58.09,58.36,58.08,58.3
201906252301,58.3,58.3,58.17,58.17
201906252302,58.17,58.18,58.09,58.12
201906252303,58.12,58.16,58.1,58.15
201906252304,58.15,58.22,58.15,58.19
201906252305,58.19,58.22,58.18,58.18
201906252306,58.18,58.24,58.17,58.2
201906252307,58.2,58.21,58.04,58.06
201906252308,58.06,58.12,58.05,58.11
201906252309,58.1,58.17,58.1,58.15
201906252310,58.15,58.21,58.12,58.17
201906252311,58.17,58.19,58.15,58.17
201906252312,58.17,58.18,58.09,58.1
201906252313,58.1,58.15,58.09,58.1
201906252314,58.1,58.14,58.09,58.12
201906252315,58.12,58.12,58.06,58.08
201906252316,58.08,58.12,58,58.06
201906252317,58.06,58.08,57.98,58
201906252318,58,58.03,57.97,58.01
201906252319,58.01,58.03,57.99,58
201906252320,58,58,57.92,57.92
201906252321,57.93,57.95,57.86,57.88
201906252322,57.88,57.88,57.78,57.78
201906252323,57.78,57.88,57.78,57.83
201906252324,57.83,57.83,57.77,57.8
201906252325,57.8,57.83,57.77,57.83
201906252326,57.83,57.86,57.82,57.86
201906252327,57.86,57.89,57.8,57.83
201906252328,57.83,57.83,57.8,57.82
201906252329,57.82,57.87,57.82,57.84
201906252330,57.84,57.84,57.8,57.81
201906252331,57.81,57.84,57.75,57.75
201906252332,57.75,57.8,57.63,57.76
201906252333,57.77,57.77,57.7,57.71
201906252334,57.71,57.73,57.69,57.7
201906252335,57.7,57.72,57.67,57.69
201906252336,57.69,57.69,57.59,57.67
201906252337,57.67,57.67,57.64,57.65
201906252338,57.65,57.68,57.64,57.65
201906252339,57.65,57.69,57.6,57.62
201906252340,57.62,57.71,57.62,57.71
201906252341,57.71,57.76,57.7,57.73
201906252342,57.72,57.77,57.68,57.76
201906252343,57.76,57.77,57.69,57.71
201906252344,57.71,57.73,57.69,57.72
201906252345,57.72,57.74,57.68,57.72
201906252346,57.72,57.74,57.7,57.72
201906252347,57.72,57.74,57.62,57.67
201906252348,57.67,57.69,57.66,57.68
201906252349,57.68,57.69,57.61,57.61
201906252350,57.61,57.67,57.59,57.66
201906252351,57.66,57.67,57.62,57.63
201906252352,57.63,57.63,57.54,57.57
201906252353,57.57,57.61,57.54,57.61
201906252354,57.61,57.66,57.55,57.66
201906252355,57.66,57.7,57.63,57.68
201906252356,57.68,57.69,57.63,57.67
201906252357,57.67,57.7,57.66,57.67
201906252358,57.67,57.77,57.67,57.76
201906252359,57.76,57.77,57.73,57.77
201906260000,57.76,57.79,57.72,57.79
201906260001,57.79,57.84,57.77,57.8
201906260002,57.8,57.84,57.78,57.81
201906260003,57.81,57.87,57.81,57.87
201906260004,57.87,57.93,57.86,57.89
201906260005,57.89,57.95,57.89,57.94
201906260006,57.94,57.94,57.86,57.86
201906260007,57.87,57.88,57.84,57.85
201906260008,57.85,57.93,57.85,57.92
201906260009,57.92,57.94,57.91,57.92
201906260010,57.92,57.93,57.89,57.92
201906260011,57.92,57.93,57.85,57.89
201906260012,57.89,57.96,57.89,57.95
201906260013,57.95,58,57.95,57.95
201906260014,57.95,58.03,57.94,58.02
201906260015,58.02,58.04,58.02,58.04
201906260016,58.04,58.06,57.98,58.02
201906260017,58.02,58.03,57.97,57.98
201906260018,57.98,58,57.96,57.96
201906260019,57.96,58.02,57.93,57.95
201906260020,57.95,58.04,57.95,58.04
201906260021,58.04,58.07,58.03,58.06
201906260022,58.06,58.11,58.05,58.09
201906260023,58.09,58.15,58.09,58.13
201906260024,58.13,58.14,58.06,58.09
201906260025,58.09,58.16,58.09,58.16
201906260026,58.16,58.19,58.09,58.1
201906260027,58.1,58.13,58.06,58.12
201906260028,58.12,58.16,58.12,58.14
201906260029,58.14,58.16,58.12,58.15
201906260030,58.15,58.16,58.08,58.13
201906260031,58.13,58.16,58.11,58.11
201906260032,58.11,58.14,58.08,58.11
201906260033,58.11,58.11,58.08,58.08
201906260034,58.08,58.09,58.04,58.04
201906260035,58.04,58.04,58.01,58.01
201906260036,58,58.08,58,58.05
201906260037,58.05,58.1,58.04,58.05
201906260038,58.05,58.08,58.05,58.07
201906260039,58.07,58.08,58.03,58.04
201906260040,58.04,58.08,58.04,58.05
201906260041,58.05,58.08,58.04,58.08
201906260042,58.08,58.12,58.07,58.11
201906260043,58.11,58.15,58.11,58.14
201906260044,58.14,58.16,58.12,58.14
201906260045,58.14,58.16,58.13,58.15
201906260046,58.15,58.16,58.14,58.16
201906260047,58.16,58.2,58.15,58.19
201906260048,58.19,58.26,58.19,58.26
201906260049,58.26,58.32,58.25,58.29
201906260050,58.29,58.29,58.18,58.18
201906260051,58.18,58.2,58.17,58.2
201906260052,58.2,58.2,58.14,58.15
201906260053,58.15,58.16,58.12,58.15
201906260054,58.15,58.15,58.12,58.14
201906260055,58.14,58.17,58.12,58.12
201906260056,58.12,58.12,58.08,58.11
201906260057,58.11,58.11,58.06,58.07
201906260058,58.07,58.1,58.06,58.09
201906260059,58.09,58.1,58.08,58.09
201906260100,58.09,58.1,58.06,58.1
201906260101,58.1,58.1,58.07,58.09
201906260102,58.09,58.1,58.08,58.09
201906260103,58.09,58.11,58.07,58.09
201906260104,58.08,58.1,58.07,58.1
201906260105,58.1,58.12,58.08,58.09
201906260106,58.09,58.12,58.09,58.12
201906260107,58.12,58.13,58.1,58.11
201906260108,58.11,58.11,58.09,58.1
201906260109,58.1,58.1,58.08,58.1
201906260110,58.1,58.1,58.08,58.08
201906260111,58.08,58.09,58.07,58.08
201906260112,58.08,58.09,58.06,58.07
201906260113,58.07,58.08,58.03,58.04
201906260114,58.04,58.05,58.03,58.05
201906260115,58.05,58.05,58.02,58.04
201906260116,58.04,58.07,58.04,58.07
201906260117,58.07,58.08,58.07,58.07
201906260118,58.07,58.07,58.01,58.01
201906260119,58.02,58.04,58,58.01
201906260120,58.01,58.02,58,58
201906260121,58,58,57.95,57.96
201906260122,57.96,57.98,57.96,57.96
201906260123,57.96,58.03,57.94,58.03
201906260124,58.03,58.08,58.03,58.06
201906260125,58.06,58.11,58.05,58.07
201906260126,58.07,58.08,58.05,58.07
201906260127,58.07,58.08,58.05,58.08
201906260128,58.08,58.1,58.08,58.08
201906260129,58.08,58.1,58.08,58.1
201906260130,58.1,58.11,58.08,58.08
201906260131,58.08,58.12,58.07,58.11
201906260132,58.11,58.11,58.07,58.09
201906260133,58.09,58.1,58.08,58.09
201906260134,58.09,58.1,58.07,58.07
201906260135,58.08,58.1,58.08,58.09
201906260136,58.09,58.09,58.04,58.04
201906260137,58.04,58.05,58.02,58.03
201906260138,58.03,58.04,58.01,58.01
201906260139,58.01,58.01,57.96,57.96
201906260140,57.96,58.03,57.95,57.99
201906260141,58,58,57.97,57.98
201906260142,57.98,58,57.96,57.98
201906260143,57.98,58,57.9,57.9
201906260144,57.9,57.92,57.89,57.91
201906260145,57.91,57.96,57.9,57.94
201906260146,57.94,58.04,57.93,58.02
201906260147,58.02,58.03,57.98,57.98
201906260148,57.98,58.02,57.98,58.01
201906260149,58.01,58.04,58,58.04
201906260150,58.04,58.04,58,58.02
201906260151,58.02,58.04,58.02,58.04
201906260152,58.04,58.06,58.03,58.03
201906260153,58.05,58.07,58.03,58.07
201906260154,58.07,58.07,58.03,58.04
201906260155,58.04,58.06,58.03,58.04
201906260156,58.04,58.05,58.02,58.04
201906260157,58.04,58.04,58.01,58.02
201906260158,58.02,58.05,58.02,58.03
201906260159,58.03,58.06,58.02,58.05
201906260200,58.05,58.07,58.03,58.05
201906260201,58.04,58.04,57.97,57.98
201906260202,57.98,58.04,57.98,58.04
201906260203,58.04,58.08,58.03,58.07
201906260204,58.07,58.07,58.05,58.06
201906260205,58.06,58.09,58.05,58.06
201906260206,58.06,58.06,58.04,58.04
201906260207,58.04,58.05,58.03,58.04
201906260208,58.04,58.04,58.01,58.02
201906260209,58.02,58.03,58.01,58.03
201906260210,58.03,58.03,58.01,58.02
201906260211,58.02,58.03,57.97,57.98
201906260212,57.98,57.99,57.94,57.97
201906260213,57.97,57.99,57.94,57.95
201906260214,57.95,57.96,57.92,57.93
201906260215,57.93,57.97,57.93,57.96
201906260216,57.95,57.99,57.92,57.98
201906260217,57.98,58,57.98,57.99
201906260218,57.99,58.01,57.98,58.01
201906260219,58.01,58.07,58.01,58.07
201906260220,58.07,58.2,58.07,58.16
201906260221,58.16,58.2,58.16,58.19
201906260222,58.19,58.21,58.17,58.17
201906260223,58.17,58.19,58.15,58.15
201906260224,58.14,58.14,58.1,58.13
201906260225,58.13,58.14,58.11,58.13
201906260226,58.13,58.16,58.12,58.14
201906260227,58.14,58.14,58.11,58.13
201906260228,58.13,58.16,58.12,58.16
201906260229,58.16,58.18,58.14,58.14
201906260230,58.14,58.18,58.14,58.16
201906260231,58.16,58.17,58.13,58.14
201906260232,58.14,58.14,58.13,58.13
201906260233,58.13,58.13,58.08,58.1
201906260234,58.1,58.13,58.06,58.11
201906260235,58.11,58.11,58.05,58.06
201906260236,58.06,58.07,58.05,58.06
201906260237,58.06,58.08,58.04,58.05
201906260238,58.05,58.08,58.03,58.04
201906260239,58.04,58.05,58.03,58.04
201906260240,58.04,58.06,58.03,58.06
201906260241,58.06,58.07,58.02,58.02
201906260242,58.02,58.03,58,58.02
201906260243,58.02,58.06,57.97,58.05
201906260244,58.05,58.07,58,58.02
201906260245,58.02,58.04,58,58.02
201906260246,58.02,58.04,58,58.04
201906260247,58.04,58.04,58.01,58.01
201906260248,58.01,58.03,57.99,58
201906260249,58,58.02,57.99,58.02
201906260250,58.02,58.02,57.97,57.98
201906260251,57.98,57.98,57.93,57.95
201906260252,57.95,58,57.95,57.99
201906260253,57.99,58.01,57.96,57.99
201906260254,57.99,57.99,57.96,57.97
201906260255,57.97,57.97,57.91,57.95
201906260256,57.95,57.95,57.92,57.92
201906260257,57.92,57.93,57.91,57.93
201906260258,57.93,57.95,57.92,57.95
201906260259,57.95,57.95,57.92,57.95
201906260300,57.95,58.01,57.94,58
201906260301,58,58,57.99,58
201906260302,58,58,57.97,57.98
201906260303,57.98,58.02,57.97,58.01
201906260304,58.01,58.01,57.97,57.97
201906260305,57.97,58,57.95,57.95
201906260306,57.95,57.95,57.9,57.94
201906260307,57.94,57.94,57.91,57.94
201906260308,57.94,57.97,57.94,57.97
201906260309,57.97,58.01,57.97,58
201906260310,58,58.01,57.96,57.97
201906260311,57.97,57.97,57.94,57.95
201906260312,57.95,57.96,57.92,57.93
201906260313,57.93,57.96,57.92,57.95
201906260314,57.95,57.95,57.93,57.94
201906260315,57.94,57.97,57.92,57.92
201906260316,57.92,57.95,57.91,57.93
201906260317,57.93,57.97,57.92,57.94
201906260318,57.94,57.94,57.88,57.92
201906260319,57.92,57.92,57.89,57.92
201906260320,57.92,57.92,57.85,57.85
201906260321,57.85,57.89,57.83,57.88
201906260322,57.88,57.88,57.84,57.84
201906260323,57.84,57.9,57.82,57.83
201906260324,57.83,57.86,57.82,57.83
201906260325,57.84,57.87,57.7,57.73
201906260326,57.73,57.8,57.71,57.76
201906260327,57.76,57.79,57.71,57.74
201906260328,57.74,57.85,57.74,57.82
201906260329,57.82,57.84,57.79,57.84
201906260330,57.84,57.84,57.73,57.8
201906260331,57.8,57.81,57.75,57.75
201906260332,57.75,57.75,57.68,57.69
201906260333,57.69,57.7,57.68,57.69
201906260334,57.69,57.7,57.68,57.69
201906260335,57.69,57.71,57.68,57.7
201906260336,57.7,57.74,57.69,57.73
201906260337,57.73,57.75,57.72,57.74
201906260338,57.74,57.76,57.73,57.74
201906260339,57.74,57.75,57.73,57.75
201906260340,57.75,57.77,57.75,57.76
201906260341,57.76,57.76,57.75,57.75
201906260342,57.75,57.76,57.74,57.75
201906260343,57.75,57.76,57.75,57.75
201906260344,57.75,57.75,57.74,57.74
201906260345,57.74,57.76,57.74,57.76
201906260346,57.76,57.77,57.75,57.76
201906260347,57.76,57.77,57.76,57.76
201906260348,57.76,57.76,57.75,57.75
201906260349,57.75,57.77,57.75,57.77
201906260350,57.77,57.77,57.75,57.76
201906260351,57.76,57.77,57.75,57.76
201906260352,57.76,57.76,57.75,57.76
201906260353,57.76,57.79,57.76,57.79
201906260354,57.79,57.79,57.77,57.78
201906260355,57.78,57.81,57.78,57.8
201906260356,57.8,57.8,57.79,57.8
201906260357,57.8,57.81,57.79,57.81
201906260358,57.81,57.82,57.79,57.8
201906260359,57.8,57.8,57.79,57.8
201906260400,57.8,57.81,57.79,57.8
201906260401,57.8,57.81,57.8,57.8
201906260402,57.8,57.81,57.79,57.8
201906260403,57.8,57.82,57.79,57.81
201906260404,57.81,57.81,57.81,57.81
201906260405,57.81,57.83,57.81,57.82
201906260406,57.82,57.82,57.8,57.8
201906260407,57.8,57.8,57.77,57.78
201906260408,57.78,57.79,57.77,57.78
201906260409,57.78,57.78,57.75,57.76
201906260410,57.76,57.76,57.75,57.75
201906260411,57.75,57.76,57.75,57.76
201906260412,57.76,57.77,57.76,57.76
201906260413,57.76,57.78,57.76,57.78
201906260414,57.78,57.78,57.76,57.77
201906260415,57.77,57.78,57.76,57.77
201906260416,57.77,57.77,57.76,57.77
201906260417,57.77,57.78,57.77,57.77
201906260418,57.77,57.78,57.76,57.76
201906260419,57.76,57.77,57.75,57.76
201906260420,57.76,57.78,57.75,57.78
201906260421,57.78,57.8,57.78,57.79
201906260422,57.79,57.8,57.79,57.79
201906260423,57.79,57.8,57.78,57.79
201906260424,57.79,57.79,57.78,57.79
201906260425,57.79,57.8,57.78,57.8
201906260426,57.8,57.8,57.79,57.79
201906260427,57.79,57.8,57.79,57.79
201906260428,57.79,57.8,57.78,57.79
201906260429,57.79,57.8,57.79,57.79
201906260430,57.79,57.8,57.77,57.78
201906260431,57.78,57.78,57.76,57.77
201906260432,57.77,57.78,57.77,57.78
201906260433,57.78,57.78,57.78,57.78
201906260434,57.78,57.8,57.78,57.8
201906260435,57.8,57.8,57.79,57.8
201906260436,57.8,57.8,57.79,57.79
201906260437,57.79,57.8,57.79,57.79
201906260438,57.79,57.79,57.78,57.79
201906260439,57.79,57.81,57.79,57.81
201906260440,57.81,57.83,57.81,57.82
201906260441,57.82,57.85,57.82,57.84
201906260442,57.84,57.86,57.84,57.86
201906260443,57.86,57.87,57.86,57.86
201906260444,57.86,57.88,57.86,57.87
201906260445,57.87,57.88,57.87,57.87
201906260446,57.87,57.87,57.85,57.87
201906260447,57.87,57.87,57.85,57.86
201906260448,57.86,57.87,57.86,57.87
201906260449,57.87,57.88,57.86,57.87
201906260450,57.87,57.87,57.83,57.83
201906260451,57.83,57.84,57.8,57.8
201906260452,57.8,57.8,57.79,57.8
201906260453,57.8,57.82,57.79,57.79
201906260454,57.8,57.81,57.79,57.81
201906260455,57.81,57.83,57.8,57.82
201906260456,57.82,57.83,57.82,57.82
201906260457,57.82,57.83,57.82,57.83
201906260458,57.83,57.84,57.83,57.83
201906260459,57.83,57.84,57.83,57.84
201906260500,57.84,57.85,57.82,57.84
201906260501,57.84,57.84,57.8,57.81
201906260502,57.81,57.82,57.81,57.82
201906260503,57.82,57.83,57.82,57.83
201906260504,57.83,57.84,57.83,57.84
201906260505,57.84,57.85,57.83,57.85
201906260506,57.85,57.85,57.85,57.85
201906260507,57.85,57.85,57.85,57.85
201906260508,57.85,57.87,57.85,57.86
201906260509,57.86,57.86,57.86,57.86
201906260510,57.86,57.87,57.86,57.86
201906260511,57.86,57.87,57.86,57.86
201906260512,57.86,57.87,57.85,57.85
201906260513,57.85,57.86,57.85,57.86
201906260514,57.86,57.86,57.85,57.86
201906260515,57.86,57.87,57.86,57.86
201906260516,57.86,57.87,57.86,57.87
201906260517,57.87,57.91,57.87,57.91
201906260518,57.91,57.91,57.9,57.9
201906260519,57.9,57.9,57.9,57.9
201906260520,57.9,57.91,57.9,57.9
201906260521,57.9,57.91,57.9,57.9
201906260522,57.9,57.91,57.89,57.9
201906260523,57.9,57.9,57.89,57.89
201906260524,57.89,57.89,57.89,57.89
201906260525,57.89,57.9,57.88,57.88
201906260526,57.88,57.88,57.87,57.87
201906260527,57.87,57.87,57.86,57.87
201906260528,57.87,57.87,57.82,57.83
201906260529,57.83,57.84,57.82,57.83
201906260530,57.84,58.26,57.83,58.18
201906260531,58.17,58.29,58.15,58.29
201906260532,58.29,58.29,58.25,58.29
201906260533,58.29,58.46,58.27,58.45
201906260534,58.46,58.58,58.45,58.49
201906260535,58.49,58.59,58.49,58.54
201906260536,58.54,58.56,58.52,58.52
201906260537,58.52,58.52,58.47,58.5
201906260538,58.5,58.55,58.49,58.49
201906260539,58.49,58.56,58.49,58.56
201906260540,58.56,58.65,58.55,58.6
201906260541,58.6,58.61,58.55,58.6
201906260542,58.6,58.61,58.59,58.6
201906260543,58.6,58.63,58.55,58.57
201906260544,58.57,58.59,58.56,58.58
201906260545,58.58,58.62,58.58,58.62
201906260546,58.61,58.64,58.61,58.64
201906260547,58.64,58.66,58.63,58.64
201906260548,58.64,58.81,58.64,58.74
201906260549,58.74,58.82,58.74,58.78
201906260550,58.78,58.79,58.69,58.75
201906260551,58.75,58.78,58.75,58.77
201906260552,58.77,58.77,58.68,58.71
201906260553,58.71,58.74,58.7,58.73
201906260554,58.73,58.75,58.71,58.74
201906260555,58.74,58.75,58.7,58.71
201906260556,58.71,58.72,58.66,58.68
201906260557,58.68,58.7,58.67,58.69
201906260558,58.69,58.74,58.69,58.74
201906260559,58.74,58.76,58.72,58.74
