日時,始値(BID),高値(BID),安値(BID),終値(BID)
201906280700,59.2,59.23,59.18,59.2
201906280701,59.2,59.22,59.2,59.22
201906280702,59.22,59.22,59.21,59.22
201906280703,59.22,59.25,59.22,59.24
201906280704,59.24,59.24,59.24,59.24
201906280705,59.24,59.24,59.24,59.24
201906280706,59.24,59.24,59.23,59.24
201906280707,59.24,59.26,59.24,59.24
201906280708,59.24,59.25,59.24,59.25
201906280709,59.25,59.26,59.25,59.26
201906280710,59.26,59.27,59.26,59.26
201906280711,59.26,59.26,59.25,59.25
201906280712,59.25,59.26,59.25,59.26
201906280713,59.26,59.26,59.26,59.26
201906280714,59.26,59.27,59.24,59.25
201906280715,59.25,59.26,59.25,59.26
201906280716,59.26,59.26,59.25,59.25
201906280717,59.25,59.26,59.24,59.26
201906280718,59.26,59.26,59.25,59.25
201906280719,59.25,59.26,59.25,59.26
201906280720,59.26,59.26,59.26,59.26
201906280721,59.26,59.26,59.24,59.24
201906280722,59.24,59.25,59.24,59.25
201906280723,59.25,59.25,59.25,59.25
201906280724,59.25,59.25,59.24,59.25
201906280725,59.25,59.25,59.24,59.24
201906280726,59.24,59.24,59.24,59.24
201906280727,59.24,59.24,59.24,59.24
201906280728,59.24,59.24,59.24,59.24
201906280729,59.24,59.25,59.24,59.25
201906280730,59.25,59.26,59.25,59.26
201906280731,59.26,59.27,59.25,59.26
201906280732,59.26,59.27,59.26,59.27
201906280733,59.27,59.28,59.27,59.28
201906280734,59.28,59.31,59.28,59.31
201906280735,59.31,59.32,59.29,59.29
201906280736,59.29,59.31,59.29,59.3
201906280737,59.3,59.3,59.29,59.3
201906280738,59.3,59.3,59.29,59.3
201906280739,59.3,59.31,59.29,59.3
201906280740,59.3,59.3,59.29,59.3
201906280741,59.3,59.31,59.3,59.31
201906280742,59.31,59.32,59.31,59.31
201906280743,59.31,59.32,59.31,59.32
201906280744,59.32,59.33,59.32,59.33
201906280745,59.33,59.34,59.33,59.34
201906280746,59.34,59.34,59.32,59.32
201906280747,59.32,59.33,59.32,59.33
201906280748,59.33,59.33,59.32,59.33
201906280749,59.33,59.33,59.33,59.33
201906280750,59.33,59.34,59.33,59.34
201906280751,59.34,59.35,59.34,59.35
201906280752,59.35,59.35,59.34,59.34
201906280753,59.34,59.34,59.34,59.34
201906280754,59.34,59.34,59.34,59.34
201906280755,59.34,59.34,59.33,59.33
201906280756,59.33,59.33,59.32,59.33
201906280757,59.33,59.33,59.32,59.32
201906280758,59.32,59.32,59.32,59.32
201906280759,59.32,59.32,59.31,59.31
201906280800,59.31,59.32,59.31,59.32
201906280801,59.32,59.32,59.32,59.32
201906280802,59.32,59.32,59.31,59.31
201906280803,59.31,59.31,59.31,59.31
201906280804,59.31,59.31,59.31,59.31
201906280805,59.31,59.31,59.3,59.3
201906280806,59.3,59.31,59.3,59.31
201906280807,59.31,59.31,59.31,59.31
201906280808,59.31,59.31,59.31,59.31
201906280809,59.31,59.32,59.31,59.31
201906280810,59.31,59.32,59.31,59.32
201906280811,59.32,59.34,59.32,59.34
201906280812,59.34,59.34,59.34,59.34
201906280813,59.34,59.35,59.34,59.35
201906280814,59.35,59.37,59.35,59.36
201906280815,59.36,59.36,59.34,59.34
201906280816,59.34,59.34,59.33,59.34
201906280817,59.34,59.35,59.34,59.35
201906280818,59.35,59.36,59.35,59.36
201906280819,59.36,59.37,59.36,59.36
201906280820,59.36,59.37,59.36,59.36
201906280821,59.36,59.37,59.36,59.36
201906280822,59.36,59.37,59.36,59.37
201906280823,59.37,59.37,59.37,59.37
201906280824,59.37,59.37,59.37,59.37
201906280825,59.37,59.37,59.37,59.37
201906280826,59.37,59.37,59.37,59.37
201906280827,59.37,59.38,59.37,59.38
201906280828,59.38,59.38,59.37,59.37
201906280829,59.37,59.37,59.37,59.37
201906280830,59.37,59.37,59.35,59.35
201906280831,59.35,59.35,59.35,59.35
201906280832,59.35,59.35,59.35,59.35
201906280833,59.35,59.36,59.35,59.36
201906280834,59.36,59.36,59.35,59.35
201906280835,59.35,59.35,59.35,59.35
201906280836,59.35,59.35,59.35,59.35
201906280837,59.35,59.35,59.35,59.35
201906280838,59.35,59.35,59.35,59.35
201906280839,59.35,59.36,59.35,59.36
201906280840,59.36,59.36,59.36,59.36
201906280841,59.36,59.36,59.36,59.36
201906280842,59.36,59.37,59.36,59.36
201906280843,59.36,59.36,59.36,59.36
201906280844,59.36,59.37,59.36,59.37
201906280845,59.37,59.37,59.36,59.36
201906280846,59.36,59.36,59.34,59.34
201906280847,59.34,59.34,59.33,59.34
201906280848,59.34,59.34,59.33,59.34
201906280849,59.33,59.33,59.32,59.32
201906280850,59.32,59.32,59.29,59.3
201906280851,59.3,59.32,59.29,59.32
201906280852,59.32,59.33,59.31,59.32
201906280853,59.32,59.33,59.32,59.33
201906280854,59.33,59.35,59.33,59.34
201906280855,59.34,59.35,59.34,59.34
201906280856,59.34,59.35,59.34,59.35
201906280857,59.35,59.35,59.34,59.34
201906280858,59.34,59.36,59.34,59.35
201906280859,59.35,59.36,59.35,59.35
201906280900,59.35,59.37,59.35,59.37
201906280901,59.37,59.41,59.36,59.4
201906280902,59.4,59.45,59.4,59.45
201906280903,59.45,59.45,59.42,59.43
201906280904,59.43,59.44,59.42,59.43
201906280905,59.43,59.46,59.43,59.44
201906280906,59.44,59.44,59.43,59.44
201906280907,59.44,59.46,59.44,59.45
201906280908,59.45,59.45,59.42,59.42
201906280909,59.42,59.43,59.4,59.41
201906280910,59.41,59.42,59.39,59.4
201906280911,59.4,59.43,59.4,59.41
201906280912,59.41,59.44,59.41,59.43
201906280913,59.43,59.45,59.43,59.44
201906280914,59.44,59.45,59.44,59.45
201906280915,59.45,59.46,59.44,59.46
201906280916,59.46,59.47,59.46,59.46
201906280917,59.46,59.46,59.44,59.44
201906280918,59.44,59.44,59.43,59.44
201906280919,59.44,59.44,59.44,59.44
201906280920,59.44,59.46,59.43,59.46
201906280921,59.46,59.46,59.44,59.44
201906280922,59.44,59.45,59.43,59.43
201906280923,59.43,59.44,59.43,59.43
201906280924,59.43,59.44,59.42,59.42
201906280925,59.42,59.43,59.38,59.4
201906280926,59.4,59.41,59.39,59.4
201906280927,59.4,59.45,59.4,59.45
201906280928,59.45,59.46,59.44,59.46
201906280929,59.46,59.46,59.44,59.44
201906280930,59.44,59.46,59.44,59.45
201906280931,59.45,59.45,59.42,59.43
201906280932,59.43,59.44,59.42,59.42
201906280933,59.42,59.42,59.41,59.41
201906280934,59.41,59.42,59.4,59.4
201906280935,59.4,59.41,59.39,59.41
201906280936,59.41,59.41,59.4,59.41
201906280937,59.41,59.41,59.4,59.41
201906280938,59.41,59.42,59.41,59.42
201906280939,59.42,59.42,59.41,59.42
201906280940,59.42,59.42,59.4,59.4
201906280941,59.4,59.41,59.4,59.41
201906280942,59.41,59.41,59.4,59.4
201906280943,59.4,59.4,59.39,59.39
201906280944,59.39,59.4,59.39,59.4
201906280945,59.4,59.42,59.4,59.42
201906280946,59.42,59.42,59.41,59.42
201906280947,59.42,59.43,59.42,59.43
201906280948,59.43,59.43,59.42,59.43
201906280949,59.43,59.43,59.43,59.43
201906280950,59.43,59.43,59.41,59.42
201906280951,59.42,59.42,59.42,59.42
201906280952,59.42,59.42,59.41,59.42
201906280953,59.42,59.42,59.41,59.41
201906280954,59.41,59.41,59.4,59.41
201906280955,59.41,59.42,59.41,59.41
201906280956,59.41,59.42,59.41,59.41
201906280957,59.41,59.41,59.41,59.41
201906280958,59.41,59.41,59.4,59.4
201906280959,59.4,59.4,59.4,59.4
201906281000,59.4,59.47,59.4,59.47
201906281001,59.47,59.48,59.45,59.47
201906281002,59.47,59.52,59.47,59.49
201906281003,59.49,59.5,59.45,59.45
201906281004,59.46,59.47,59.45,59.45
201906281005,59.45,59.46,59.44,59.44
201906281006,59.44,59.48,59.44,59.47
201906281007,59.47,59.48,59.43,59.43
201906281008,59.43,59.43,59.4,59.4
201906281009,59.4,59.4,59.37,59.37
201906281010,59.37,59.39,59.36,59.36
201906281011,59.36,59.37,59.33,59.34
201906281012,59.34,59.36,59.34,59.36
201906281013,59.36,59.39,59.35,59.39
201906281014,59.39,59.43,59.39,59.42
201906281015,59.42,59.43,59.37,59.38
201906281016,59.38,59.43,59.37,59.41
201906281017,59.41,59.42,59.39,59.41
201906281018,59.41,59.42,59.4,59.41
201906281019,59.41,59.42,59.4,59.4
201906281020,59.4,59.4,59.39,59.39
201906281021,59.39,59.39,59.38,59.38
201906281022,59.38,59.4,59.38,59.39
201906281023,59.39,59.39,59.39,59.39
201906281024,59.39,59.41,59.39,59.4
201906281025,59.4,59.41,59.38,59.39
201906281026,59.39,59.39,59.37,59.38
201906281027,59.38,59.38,59.36,59.37
201906281028,59.37,59.37,59.36,59.37
201906281029,59.37,59.37,59.36,59.36
201906281030,59.36,59.38,59.35,59.38
201906281031,59.38,59.38,59.35,59.36
201906281032,59.36,59.36,59.35,59.35
201906281033,59.35,59.36,59.33,59.36
201906281034,59.36,59.36,59.36,59.36
201906281035,59.36,59.38,59.36,59.37
201906281036,59.37,59.37,59.33,59.33
201906281037,59.33,59.34,59.32,59.33
201906281038,59.33,59.33,59.31,59.32
201906281039,59.32,59.32,59.32,59.32
201906281040,59.32,59.33,59.31,59.31
201906281041,59.31,59.32,59.29,59.3
201906281042,59.3,59.32,59.29,59.31
201906281043,59.31,59.32,59.3,59.32
201906281044,59.31,59.32,59.3,59.31
201906281045,59.31,59.31,59.29,59.3
201906281046,59.3,59.3,59.28,59.29
201906281047,59.29,59.29,59.27,59.28
201906281048,59.28,59.29,59.27,59.29
201906281049,59.29,59.29,59.28,59.29
201906281050,59.29,59.31,59.29,59.31
201906281051,59.31,59.32,59.3,59.32
201906281052,59.32,59.32,59.32,59.32
201906281053,59.33,59.34,59.33,59.34
201906281054,59.34,59.34,59.33,59.34
201906281055,59.34,59.35,59.33,59.35
201906281056,59.35,59.35,59.34,59.35
201906281057,59.35,59.35,59.33,59.33
201906281058,59.33,59.33,59.33,59.33
201906281059,59.33,59.34,59.32,59.34
201906281100,59.34,59.34,59.31,59.32
201906281101,59.32,59.33,59.32,59.33
201906281102,59.33,59.34,59.31,59.34
201906281103,59.34,59.35,59.34,59.34
201906281104,59.34,59.35,59.33,59.33
201906281105,59.33,59.34,59.33,59.33
201906281106,59.33,59.33,59.31,59.32
201906281107,59.32,59.33,59.32,59.32
201906281108,59.32,59.32,59.31,59.31
201906281109,59.31,59.31,59.29,59.29
201906281110,59.29,59.3,59.29,59.3
201906281111,59.3,59.3,59.28,59.29
201906281112,59.29,59.29,59.26,59.27
201906281113,59.27,59.27,59.26,59.26
201906281114,59.26,59.27,59.25,59.25
201906281115,59.25,59.26,59.25,59.25
201906281116,59.25,59.25,59.25,59.25
201906281117,59.25,59.26,59.25,59.26
201906281118,59.26,59.27,59.26,59.27
201906281119,59.27,59.27,59.27,59.27
201906281120,59.27,59.27,59.26,59.26
201906281121,59.26,59.26,59.26,59.26
201906281122,59.26,59.26,59.25,59.25
201906281123,59.25,59.27,59.25,59.27
201906281124,59.27,59.27,59.26,59.26
201906281125,59.26,59.26,59.25,59.25
201906281126,59.25,59.25,59.25,59.25
201906281127,59.25,59.25,59.22,59.22
201906281128,59.22,59.23,59.21,59.23
201906281129,59.23,59.23,59.23,59.23
201906281130,59.23,59.23,59.2,59.21
201906281131,59.21,59.21,59.07,59.09
201906281132,59.09,59.09,59.05,59.06
201906281133,59.06,59.07,59.03,59.07
201906281134,59.07,59.07,59.05,59.06
201906281135,59.06,59.07,59.03,59.07
201906281136,59.07,59.08,59.06,59.06
201906281137,59.06,59.08,59.05,59.05
201906281138,59.05,59.08,59.05,59.07
201906281139,59.07,59.07,59.06,59.07
201906281140,59.07,59.07,59.04,59.04
201906281141,59.04,59.04,59.01,59.02
201906281142,59.02,59.04,59,59.04
201906281143,59.04,59.05,59.02,59.03
201906281144,59.03,59.05,59.02,59.04
201906281145,59.04,59.04,59.01,59.03
201906281146,59.03,59.05,59.03,59.04
201906281147,59.04,59.05,59.03,59.05
201906281148,59.05,59.08,59.05,59.08
201906281149,59.08,59.08,59.07,59.08
201906281150,59.08,59.08,59.06,59.08
201906281151,59.08,59.08,59.06,59.07
201906281152,59.07,59.08,59.06,59.07
201906281153,59.07,59.08,59.07,59.08
201906281154,59.08,59.09,59.07,59.07
201906281155,59.07,59.08,59.07,59.07
201906281156,59.07,59.08,59.07,59.07
201906281157,59.07,59.08,59.07,59.08
201906281158,59.08,59.08,59.07,59.07
201906281159,59.07,59.08,59.07,59.08
201906281200,59.08,59.08,59.06,59.06
201906281201,59.06,59.06,59.06,59.06
201906281202,59.06,59.07,59.06,59.07
201906281203,59.07,59.08,59.07,59.07
201906281204,59.07,59.07,59.05,59.05
201906281205,59.05,59.05,59.05,59.05
201906281206,59.05,59.05,59.04,59.05
201906281207,59.05,59.06,59.04,59.06
201906281208,59.06,59.08,59.06,59.07
201906281209,59.07,59.09,59.07,59.08
201906281210,59.08,59.09,59.08,59.08
201906281211,59.08,59.1,59.08,59.1
201906281212,59.1,59.11,59.09,59.1
201906281213,59.1,59.11,59.1,59.1
201906281214,59.1,59.11,59.1,59.1
201906281215,59.1,59.11,59.1,59.11
201906281216,59.11,59.12,59.11,59.11
201906281217,59.11,59.12,59.1,59.11
201906281218,59.11,59.11,59.1,59.11
201906281219,59.11,59.12,59.11,59.11
201906281220,59.11,59.12,59.11,59.12
201906281221,59.12,59.12,59.11,59.12
201906281222,59.12,59.13,59.11,59.12
201906281223,59.12,59.13,59.12,59.13
201906281224,59.13,59.14,59.13,59.14
201906281225,59.14,59.15,59.13,59.13
201906281226,59.13,59.15,59.12,59.14
201906281227,59.14,59.14,59.14,59.14
201906281228,59.14,59.15,59.14,59.15
201906281229,59.15,59.15,59.14,59.15
201906281230,59.15,59.15,59.13,59.14
201906281231,59.14,59.14,59.14,59.14
201906281232,59.14,59.15,59.14,59.15
201906281233,59.15,59.15,59.15,59.15
201906281234,59.15,59.15,59.14,59.15
201906281235,59.15,59.16,59.14,59.15
201906281236,59.15,59.15,59.14,59.14
201906281237,59.14,59.15,59.14,59.15
201906281238,59.15,59.16,59.15,59.15
201906281239,59.15,59.16,59.15,59.16
201906281240,59.16,59.16,59.15,59.15
201906281241,59.15,59.15,59.15,59.15
201906281242,59.15,59.15,59.15,59.15
201906281243,59.15,59.15,59.15,59.15
201906281244,59.15,59.16,59.15,59.16
201906281245,59.16,59.16,59.16,59.16
201906281246,59.16,59.17,59.16,59.16
201906281247,59.16,59.17,59.16,59.17
201906281248,59.17,59.18,59.17,59.17
201906281249,59.17,59.17,59.17,59.17
201906281250,59.17,59.17,59.17,59.17
201906281251,59.17,59.17,59.16,59.16
201906281252,59.16,59.16,59.15,59.15
201906281253,59.15,59.16,59.15,59.15
201906281254,59.15,59.16,59.15,59.15
201906281255,59.15,59.16,59.15,59.16
201906281256,59.16,59.17,59.16,59.17
201906281257,59.17,59.17,59.15,59.16
201906281258,59.16,59.16,59.15,59.15
201906281259,59.15,59.16,59.15,59.16
201906281300,59.16,59.18,59.16,59.17
201906281301,59.17,59.17,59.16,59.16
201906281302,59.16,59.16,59.15,59.15
201906281303,59.15,59.16,59.15,59.16
201906281304,59.16,59.17,59.16,59.17
201906281305,59.17,59.17,59.17,59.17
201906281306,59.17,59.18,59.17,59.17
201906281307,59.17,59.17,59.17,59.17
201906281308,59.17,59.17,59.17,59.17
201906281309,59.17,59.17,59.17,59.17
201906281310,59.17,59.17,59.17,59.17
201906281311,59.17,59.17,59.17,59.17
201906281312,59.17,59.17,59.15,59.16
201906281313,59.16,59.16,59.15,59.16
201906281314,59.16,59.16,59.15,59.16
201906281315,59.16,59.16,59.15,59.16
201906281316,59.16,59.16,59.15,59.15
201906281317,59.15,59.16,59.14,59.16
201906281318,59.16,59.16,59.15,59.15
201906281319,59.15,59.15,59.15,59.15
201906281320,59.15,59.15,59.15,59.15
201906281321,59.15,59.15,59.13,59.13
201906281322,59.13,59.13,59.12,59.13
201906281323,59.13,59.13,59.12,59.13
201906281324,59.13,59.14,59.12,59.13
201906281325,59.13,59.13,59.11,59.12
201906281326,59.12,59.12,59.11,59.12
201906281327,59.12,59.12,59.1,59.11
201906281328,59.11,59.12,59.1,59.12
201906281329,59.12,59.12,59.12,59.12
201906281330,59.12,59.12,59.12,59.12
201906281331,59.12,59.13,59.12,59.12
201906281332,59.12,59.13,59.12,59.12
201906281333,59.12,59.13,59.12,59.13
201906281334,59.13,59.13,59.12,59.12
201906281335,59.12,59.12,59.11,59.11
201906281336,59.11,59.11,59.11,59.11
201906281337,59.11,59.12,59.11,59.12
201906281338,59.12,59.13,59.12,59.12
201906281339,59.12,59.12,59.12,59.12
201906281340,59.12,59.14,59.12,59.14
201906281341,59.14,59.14,59.13,59.13
201906281342,59.13,59.14,59.13,59.13
201906281343,59.13,59.14,59.13,59.14
201906281344,59.14,59.14,59.14,59.14
201906281345,59.14,59.14,59.13,59.13
201906281346,59.13,59.14,59.13,59.14
201906281347,59.14,59.14,59.13,59.13
201906281348,59.13,59.14,59.13,59.14
201906281349,59.14,59.14,59.14,59.14
201906281350,59.14,59.14,59.14,59.14
201906281351,59.14,59.14,59.13,59.13
201906281352,59.13,59.13,59.11,59.12
201906281353,59.12,59.12,59.12,59.12
201906281354,59.12,59.12,59.12,59.12
201906281355,59.12,59.13,59.12,59.13
201906281356,59.13,59.13,59.12,59.13
201906281357,59.13,59.13,59.13,59.13
201906281358,59.13,59.14,59.13,59.13
201906281359,59.13,59.13,59.12,59.13
201906281400,59.13,59.13,59.12,59.12
201906281401,59.12,59.12,59.11,59.12
201906281402,59.12,59.12,59.1,59.11
201906281403,59.11,59.11,59.1,59.1
201906281404,59.1,59.1,59.07,59.08
201906281405,59.08,59.08,59.07,59.08
201906281406,59.08,59.08,59.07,59.08
201906281407,59.08,59.08,59.07,59.08
201906281408,59.08,59.08,59.07,59.07
201906281409,59.07,59.08,59.07,59.08
201906281410,59.08,59.09,59.08,59.09
201906281411,59.09,59.1,59.09,59.09
201906281412,59.09,59.09,59.09,59.09
201906281413,59.09,59.1,59.09,59.09
201906281414,59.09,59.09,59.09,59.09
201906281415,59.09,59.1,59.09,59.1
201906281416,59.1,59.13,59.1,59.13
201906281417,59.13,59.13,59.12,59.13
201906281418,59.13,59.14,59.13,59.14
201906281419,59.14,59.14,59.13,59.13
201906281420,59.13,59.14,59.13,59.14
201906281421,59.14,59.14,59.13,59.14
201906281422,59.14,59.14,59.13,59.13
201906281423,59.13,59.13,59.13,59.13
201906281424,59.13,59.13,59.13,59.13
201906281425,59.13,59.15,59.13,59.14
201906281426,59.14,59.14,59.14,59.14
201906281427,59.14,59.14,59.13,59.13
201906281428,59.13,59.14,59.13,59.13
201906281429,59.13,59.14,59.13,59.14
201906281430,59.14,59.15,59.14,59.15
201906281431,59.15,59.15,59.14,59.14
201906281432,59.14,59.16,59.14,59.15
201906281433,59.15,59.17,59.15,59.15
201906281434,59.15,59.17,59.15,59.16
201906281435,59.16,59.16,59.15,59.15
201906281436,59.15,59.17,59.15,59.16
201906281437,59.16,59.17,59.16,59.17
201906281438,59.17,59.18,59.17,59.17
201906281439,59.17,59.17,59.17,59.17
201906281440,59.17,59.17,59.16,59.16
201906281441,59.16,59.17,59.16,59.16
201906281442,59.16,59.16,59.15,59.15
201906281443,59.15,59.15,59.14,59.15
201906281444,59.15,59.15,59.13,59.14
201906281445,59.14,59.14,59.13,59.13
201906281446,59.13,59.15,59.13,59.14
201906281447,59.14,59.15,59.14,59.14
201906281448,59.14,59.15,59.14,59.15
201906281449,59.15,59.15,59.14,59.14
201906281450,59.14,59.14,59.13,59.13
201906281451,59.13,59.13,59.11,59.11
201906281452,59.11,59.11,59.02,59.03
201906281453,59.03,59.03,59,59.01
201906281454,59.01,59.03,59.01,59.02
201906281455,59.02,59.03,59.02,59.03
201906281456,59.03,59.04,59.02,59.03
201906281457,59.03,59.03,59.02,59.03
201906281458,59.03,59.04,59.02,59.04
201906281459,59.04,59.06,59.03,59.06
201906281500,59.06,59.07,59.04,59.05
201906281501,59.05,59.07,59.05,59.07
201906281502,59.07,59.08,59.07,59.08
201906281503,59.08,59.1,59.08,59.09
201906281504,59.09,59.09,59.06,59.06
201906281505,59.06,59.07,59.05,59.07
201906281506,59.07,59.1,59.07,59.09
201906281507,59.09,59.1,59.09,59.09
201906281508,59.09,59.11,59.09,59.1
201906281509,59.1,59.11,59.1,59.11
201906281510,59.11,59.13,59.11,59.12
201906281511,59.12,59.12,59.1,59.1
201906281512,59.1,59.11,59.09,59.11
201906281513,59.11,59.11,59.09,59.09
201906281514,59.09,59.1,59.09,59.09
201906281515,59.09,59.09,59.06,59.06
201906281516,59.06,59.07,59.06,59.07
201906281517,59.07,59.11,59.07,59.1
201906281518,59.1,59.11,59.09,59.1
201906281519,59.1,59.1,59.09,59.09
201906281520,59.09,59.1,59.09,59.09
201906281521,59.09,59.1,59.08,59.1
201906281522,59.1,59.1,59.08,59.09
201906281523,59.09,59.1,59.08,59.1
201906281524,59.1,59.12,59.1,59.12
201906281525,59.12,59.13,59.12,59.12
201906281526,59.12,59.13,59.12,59.12
201906281527,59.12,59.13,59.11,59.13
201906281528,59.13,59.14,59.12,59.13
201906281529,59.13,59.14,59.12,59.13
201906281530,59.13,59.15,59.13,59.15
201906281531,59.15,59.18,59.15,59.18
201906281532,59.18,59.18,59.17,59.18
201906281533,59.18,59.18,59.16,59.16
201906281534,59.16,59.17,59.16,59.17
201906281535,59.17,59.21,59.17,59.19
201906281536,59.2,59.21,59.19,59.2
201906281537,59.2,59.2,59.17,59.18
201906281538,59.18,59.19,59.17,59.17
201906281539,59.18,59.18,59.16,59.17
201906281540,59.17,59.18,59.16,59.18
201906281541,59.18,59.18,59.17,59.17
201906281542,59.17,59.17,59.15,59.15
201906281543,59.15,59.15,59.12,59.13
201906281544,59.13,59.13,59.1,59.12
201906281545,59.11,59.11,59.08,59.09
201906281546,59.09,59.09,59.04,59.05
201906281547,59.05,59.07,59.05,59.06
201906281548,59.06,59.07,59.05,59.07
201906281549,59.07,59.08,59.07,59.08
201906281550,59.08,59.08,59.07,59.07
201906281551,59.07,59.08,59.07,59.07
201906281552,59.07,59.08,59.05,59.06
201906281553,59.06,59.08,59.06,59.08
201906281554,59.08,59.09,59.06,59.09
201906281555,59.09,59.09,59.06,59.06
201906281556,59.06,59.08,59.06,59.07
201906281557,59.07,59.09,59.07,59.09
201906281558,59.09,59.09,59.06,59.06
201906281559,59.06,59.09,59.06,59.09
201906281600,59.08,59.12,59.08,59.11
201906281601,59.11,59.15,59.11,59.15
201906281602,59.15,59.16,59.14,59.15
201906281603,59.15,59.19,59.14,59.19
201906281604,59.19,59.19,59.17,59.18
201906281605,59.18,59.19,59.17,59.19
201906281606,59.19,59.19,59.16,59.16
201906281607,59.16,59.18,59.13,59.14
201906281608,59.14,59.14,59.09,59.11
201906281609,59.11,59.13,59.11,59.13
201906281610,59.13,59.15,59.12,59.13
201906281611,59.13,59.14,59.12,59.13
201906281612,59.13,59.13,59.12,59.13
201906281613,59.13,59.13,59.11,59.12
201906281614,59.12,59.13,59.11,59.12
201906281615,59.12,59.14,59.11,59.14
201906281616,59.14,59.16,59.13,59.15
201906281617,59.15,59.15,59.14,59.15
201906281618,59.15,59.17,59.14,59.17
201906281619,59.17,59.19,59.17,59.18
201906281620,59.18,59.18,59.16,59.16
201906281621,59.16,59.17,59.14,59.15
201906281622,59.15,59.17,59.13,59.16
201906281623,59.16,59.18,59.16,59.18
201906281624,59.18,59.19,59.18,59.18
201906281625,59.18,59.19,59.15,59.16
201906281626,59.16,59.17,59.16,59.16
201906281627,59.16,59.17,59.16,59.16
201906281628,59.16,59.16,59.14,59.15
201906281629,59.15,59.17,59.15,59.17
201906281630,59.17,59.19,59.16,59.17
201906281631,59.16,59.17,59.13,59.14
201906281632,59.14,59.16,59.13,59.14
201906281633,59.14,59.18,59.14,59.16
201906281634,59.16,59.17,59.16,59.16
201906281635,59.16,59.17,59.16,59.16
201906281636,59.16,59.17,59.16,59.17
201906281637,59.17,59.22,59.17,59.21
201906281638,59.21,59.24,59.21,59.24
201906281639,59.24,59.29,59.22,59.23
201906281640,59.23,59.28,59.22,59.28
201906281641,59.28,59.28,59.23,59.23
201906281642,59.23,59.24,59.23,59.24
201906281643,59.24,59.25,59.22,59.22
201906281644,59.22,59.26,59.22,59.26
201906281645,59.26,59.27,59.25,59.26
201906281646,59.26,59.27,59.25,59.26
201906281647,59.26,59.26,59.25,59.25
201906281648,59.25,59.25,59.23,59.24
201906281649,59.24,59.25,59.23,59.24
201906281650,59.24,59.25,59.23,59.24
201906281651,59.24,59.24,59.24,59.24
201906281652,59.24,59.28,59.24,59.28
201906281653,59.28,59.28,59.25,59.25
201906281654,59.25,59.26,59.24,59.25
201906281655,59.25,59.26,59.25,59.26
201906281656,59.26,59.29,59.26,59.27
201906281657,59.27,59.27,59.25,59.25
201906281658,59.25,59.25,59.24,59.25
201906281659,59.25,59.26,59.23,59.23
201906281700,59.23,59.28,59.23,59.26
201906281701,59.26,59.27,59.21,59.22
201906281702,59.22,59.22,59.19,59.2
201906281703,59.2,59.2,59.09,59.11
201906281704,59.11,59.14,59.1,59.14
201906281705,59.14,59.14,59.11,59.11
201906281706,59.11,59.13,59.11,59.12
201906281707,59.12,59.14,59.11,59.14
201906281708,59.14,59.16,59.14,59.15
201906281709,59.15,59.17,59.15,59.16
201906281710,59.16,59.18,59.16,59.17
201906281711,59.17,59.18,59.16,59.17
201906281712,59.17,59.18,59.16,59.17
201906281713,59.17,59.21,59.17,59.2
201906281714,59.2,59.22,59.17,59.18
201906281715,59.18,59.21,59.17,59.2
201906281716,59.2,59.25,59.19,59.22
201906281717,59.22,59.22,59.19,59.22
201906281718,59.22,59.22,59.19,59.2
201906281719,59.2,59.21,59.2,59.21
201906281720,59.21,59.21,59.17,59.18
201906281721,59.18,59.18,59.16,59.16
201906281722,59.16,59.16,59.11,59.15
201906281723,59.15,59.17,59.14,59.17
201906281724,59.17,59.18,59.16,59.18
201906281725,59.18,59.19,59.17,59.17
201906281726,59.17,59.22,59.14,59.21
201906281727,59.21,59.22,59.19,59.2
201906281728,59.2,59.2,59.13,59.19
201906281729,59.19,59.19,59.14,59.17
201906281730,59.17,59.18,59.14,59.14
201906281731,59.14,59.23,59.14,59.21
201906281732,59.21,59.24,59.21,59.21
201906281733,59.21,59.23,59.21,59.22
201906281734,59.22,59.23,59.19,59.22
201906281735,59.22,59.22,59.16,59.16
201906281736,59.16,59.18,59.15,59.17
201906281737,59.17,59.2,59.16,59.17
201906281738,59.17,59.18,59.17,59.17
201906281739,59.17,59.19,59.17,59.17
201906281740,59.17,59.18,59.14,59.16
201906281741,59.16,59.18,59.16,59.17
201906281742,59.17,59.2,59.17,59.18
201906281743,59.18,59.2,59.18,59.19
201906281744,59.19,59.2,59.17,59.18
201906281745,59.18,59.19,59.16,59.17
201906281746,59.17,59.2,59.17,59.19
201906281747,59.19,59.21,59.19,59.2
201906281748,59.2,59.21,59.18,59.19
201906281749,59.19,59.2,59.16,59.19
201906281750,59.19,59.2,59.17,59.19
201906281751,59.19,59.2,59.18,59.19
201906281752,59.19,59.19,59.18,59.19
201906281753,59.19,59.2,59.18,59.18
201906281754,59.18,59.19,59.17,59.19
201906281755,59.19,59.21,59.19,59.2
201906281756,59.2,59.2,59.19,59.2
201906281757,59.2,59.22,59.17,59.17
201906281758,59.17,59.18,59.13,59.16
201906281759,59.16,59.21,59.16,59.19
201906281800,59.19,59.23,59.19,59.22
201906281801,59.22,59.22,59.2,59.2
201906281802,59.19,59.2,59.18,59.19
201906281803,59.19,59.22,59.19,59.21
201906281804,59.21,59.22,59.21,59.21
201906281805,59.21,59.23,59.16,59.17
201906281806,59.17,59.19,59.16,59.18
201906281807,59.18,59.2,59.18,59.2
201906281808,59.2,59.21,59.2,59.21
201906281809,59.21,59.21,59.18,59.2
201906281810,59.2,59.22,59.19,59.21
201906281811,59.21,59.22,59.2,59.22
201906281812,59.22,59.23,59.21,59.23
201906281813,59.23,59.26,59.21,59.23
201906281814,59.23,59.24,59.23,59.23
201906281815,59.23,59.25,59.23,59.23
201906281816,59.23,59.25,59.23,59.23
201906281817,59.23,59.25,59.23,59.25
201906281818,59.25,59.25,59.23,59.24
201906281819,59.24,59.24,59.2,59.2
201906281820,59.2,59.23,59.2,59.22
201906281821,59.22,59.23,59.2,59.2
201906281822,59.2,59.2,59.17,59.19
201906281823,59.19,59.21,59.19,59.19
201906281824,59.19,59.19,59.12,59.12
201906281825,59.13,59.15,59.11,59.14
201906281826,59.14,59.15,59.13,59.13
201906281827,59.13,59.15,59.13,59.13
201906281828,59.13,59.27,59.13,59.26
201906281829,59.26,59.39,59.26,59.31
201906281830,59.31,59.38,59.31,59.35
201906281831,59.35,59.35,59.31,59.31
201906281832,59.31,59.31,59.29,59.31
201906281833,59.31,59.31,59.29,59.29
201906281834,59.29,59.32,59.29,59.32
201906281835,59.32,59.34,59.31,59.32
201906281836,59.32,59.36,59.32,59.36
201906281837,59.36,59.37,59.35,59.35
201906281838,59.35,59.35,59.33,59.34
201906281839,59.34,59.39,59.34,59.38
201906281840,59.38,59.41,59.37,59.38
201906281841,59.38,59.38,59.35,59.37
201906281842,59.37,59.4,59.37,59.38
201906281843,59.38,59.39,59.36,59.38
201906281844,59.38,59.38,59.36,59.37
201906281845,59.37,59.4,59.37,59.38
201906281846,59.38,59.39,59.37,59.38
201906281847,59.38,59.38,59.37,59.38
201906281848,59.38,59.42,59.38,59.4
201906281849,59.4,59.4,59.39,59.4
201906281850,59.4,59.48,59.4,59.47
201906281851,59.47,59.48,59.42,59.42
201906281852,59.42,59.45,59.41,59.43
201906281853,59.43,59.43,59.4,59.41
201906281854,59.41,59.42,59.39,59.39
201906281855,59.39,59.39,59.37,59.38
201906281856,59.38,59.4,59.36,59.4
201906281857,59.4,59.4,59.38,59.38
201906281858,59.38,59.39,59.37,59.38
201906281859,59.38,59.41,59.38,59.4
201906281900,59.4,59.43,59.39,59.42
201906281901,59.42,59.43,59.4,59.41
201906281902,59.41,59.44,59.41,59.43
201906281903,59.43,59.45,59.43,59.44
201906281904,59.44,59.44,59.42,59.42
201906281905,59.42,59.44,59.42,59.43
201906281906,59.43,59.44,59.41,59.41
201906281907,59.41,59.45,59.41,59.44
201906281908,59.44,59.45,59.43,59.45
201906281909,59.45,59.48,59.44,59.45
201906281910,59.45,59.46,59.44,59.44
201906281911,59.44,59.47,59.44,59.45
201906281912,59.45,59.46,59.43,59.44
201906281913,59.44,59.45,59.42,59.43
201906281914,59.43,59.45,59.42,59.43
201906281915,59.43,59.44,59.42,59.42
201906281916,59.42,59.45,59.42,59.44
201906281917,59.44,59.44,59.44,59.44
201906281918,59.44,59.46,59.43,59.43
201906281919,59.43,59.44,59.43,59.44
201906281920,59.44,59.45,59.41,59.42
201906281921,59.42,59.44,59.41,59.42
201906281922,59.42,59.44,59.41,59.44
201906281923,59.44,59.47,59.43,59.46
201906281924,59.46,59.55,59.45,59.55
201906281925,59.55,59.55,59.5,59.53
201906281926,59.53,59.53,59.49,59.51
201906281927,59.51,59.51,59.5,59.51
201906281928,59.51,59.54,59.51,59.53
201906281929,59.53,59.54,59.52,59.52
201906281930,59.52,59.53,59.51,59.53
201906281931,59.53,59.54,59.48,59.49
201906281932,59.5,59.53,59.5,59.53
201906281933,59.53,59.54,59.52,59.52
201906281934,59.52,59.54,59.52,59.53
201906281935,59.53,59.54,59.49,59.51
201906281936,59.51,59.51,59.47,59.48
201906281937,59.48,59.48,59.44,59.45
201906281938,59.45,59.47,59.45,59.45
201906281939,59.45,59.45,59.43,59.44
201906281940,59.44,59.45,59.43,59.45
201906281941,59.45,59.46,59.44,59.44
201906281942,59.44,59.45,59.44,59.44
201906281943,59.44,59.45,59.42,59.43
201906281944,59.43,59.43,59.42,59.43
201906281945,59.43,59.45,59.43,59.44
201906281946,59.44,59.46,59.44,59.44
201906281947,59.44,59.45,59.43,59.43
201906281948,59.43,59.43,59.42,59.42
201906281949,59.42,59.42,59.4,59.41
201906281950,59.41,59.41,59.4,59.41
201906281951,59.41,59.43,59.41,59.43
201906281952,59.43,59.43,59.42,59.42
201906281953,59.42,59.42,59.4,59.4
201906281954,59.4,59.41,59.38,59.39
201906281955,59.39,59.4,59.38,59.4
201906281956,59.4,59.42,59.39,59.42
201906281957,59.42,59.44,59.42,59.43
201906281958,59.43,59.45,59.42,59.44
201906281959,59.44,59.46,59.42,59.42
201906282000,59.42,59.44,59.42,59.43
201906282001,59.43,59.44,59.4,59.41
201906282002,59.41,59.41,59.4,59.4
201906282003,59.4,59.4,59.4,59.4
201906282004,59.4,59.4,59.39,59.4
201906282005,59.4,59.42,59.39,59.41
201906282006,59.41,59.41,59.4,59.4
201906282007,59.4,59.41,59.4,59.41
201906282008,59.41,59.42,59.4,59.41
201906282009,59.41,59.41,59.4,59.4
201906282010,59.4,59.41,59.4,59.4
201906282011,59.4,59.42,59.4,59.41
201906282012,59.41,59.44,59.41,59.43
201906282013,59.43,59.44,59.42,59.44
201906282014,59.44,59.45,59.43,59.43
201906282015,59.43,59.47,59.43,59.45
201906282016,59.45,59.46,59.44,59.44
201906282017,59.44,59.44,59.44,59.44
201906282018,59.44,59.44,59.43,59.44
201906282019,59.44,59.46,59.44,59.46
201906282020,59.46,59.47,59.44,59.47
201906282021,59.47,59.49,59.46,59.48
201906282022,59.48,59.5,59.48,59.48
201906282023,59.48,59.48,59.46,59.47
201906282024,59.47,59.48,59.46,59.47
201906282025,59.47,59.47,59.45,59.46
201906282026,59.46,59.51,59.46,59.51
201906282027,59.51,59.52,59.49,59.5
201906282028,59.5,59.58,59.5,59.56
201906282029,59.56,59.63,59.56,59.58
201906282030,59.58,59.62,59.58,59.61
201906282031,59.61,59.61,59.57,59.57
201906282032,59.57,59.58,59.54,59.54
201906282033,59.54,59.56,59.52,59.52
201906282034,59.52,59.52,59.5,59.51
201906282035,59.51,59.55,59.51,59.53
201906282036,59.53,59.53,59.52,59.52
201906282037,59.52,59.52,59.51,59.52
201906282038,59.52,59.52,59.5,59.51
201906282039,59.51,59.52,59.51,59.51
201906282040,59.51,59.51,59.5,59.51
201906282041,59.51,59.51,59.49,59.5
201906282042,59.5,59.51,59.49,59.51
201906282043,59.51,59.52,59.5,59.51
201906282044,59.51,59.52,59.5,59.51
201906282045,59.51,59.52,59.47,59.48
201906282046,59.48,59.49,59.47,59.49
201906282047,59.49,59.49,59.48,59.49
201906282048,59.49,59.49,59.48,59.48
201906282049,59.48,59.49,59.48,59.49
201906282050,59.49,59.51,59.49,59.51
201906282051,59.51,59.55,59.51,59.53
201906282052,59.53,59.54,59.52,59.53
201906282053,59.53,59.56,59.53,59.56
201906282054,59.56,59.56,59.55,59.55
201906282055,59.55,59.56,59.54,59.55
201906282056,59.55,59.56,59.55,59.55
201906282057,59.55,59.55,59.53,59.54
201906282058,59.54,59.55,59.52,59.55
201906282059,59.55,59.55,59.52,59.53
201906282100,59.53,59.56,59.52,59.54
201906282101,59.55,59.56,59.54,59.55
201906282102,59.55,59.55,59.55,59.55
201906282103,59.55,59.58,59.55,59.55
201906282104,59.55,59.56,59.53,59.54
201906282105,59.54,59.55,59.5,59.52
201906282106,59.52,59.55,59.52,59.54
201906282107,59.54,59.55,59.54,59.54
201906282108,59.53,59.55,59.53,59.55
201906282109,59.55,59.58,59.55,59.58
201906282110,59.58,59.58,59.57,59.58
201906282111,59.58,59.58,59.53,59.54
201906282112,59.54,59.56,59.53,59.56
201906282113,59.56,59.58,59.56,59.58
201906282114,59.58,59.58,59.57,59.58
201906282115,59.58,59.58,59.55,59.56
201906282116,59.56,59.57,59.55,59.55
201906282117,59.55,59.56,59.51,59.53
201906282118,59.53,59.53,59.48,59.5
201906282119,59.5,59.51,59.48,59.5
201906282120,59.5,59.52,59.49,59.51
201906282121,59.51,59.52,59.5,59.51
201906282122,59.51,59.51,59.5,59.51
201906282123,59.51,59.53,59.5,59.51
201906282124,59.51,59.57,59.51,59.56
201906282125,59.56,59.56,59.54,59.55
201906282126,59.55,59.56,59.54,59.55
201906282127,59.55,59.57,59.54,59.56
201906282128,59.56,59.62,59.56,59.61
201906282129,59.61,59.61,59.58,59.58
201906282130,59.58,59.61,59.58,59.59
201906282131,59.59,59.6,59.59,59.59
201906282132,59.59,59.61,59.59,59.6
201906282133,59.6,59.6,59.58,59.58
201906282134,59.58,59.59,59.56,59.59
201906282135,59.59,59.61,59.58,59.6
201906282136,59.6,59.6,59.57,59.58
201906282137,59.58,59.59,59.57,59.58
201906282138,59.58,59.59,59.56,59.57
201906282139,59.57,59.58,59.56,59.57
201906282140,59.57,59.6,59.56,59.59
201906282141,59.59,59.59,59.57,59.58
201906282142,59.58,59.58,59.57,59.58
201906282143,59.58,59.59,59.57,59.57
201906282144,59.57,59.58,59.56,59.58
201906282145,59.58,59.6,59.58,59.58
201906282146,59.58,59.63,59.58,59.62
201906282147,59.62,59.62,59.59,59.61
201906282148,59.61,59.63,59.6,59.63
201906282149,59.63,59.64,59.6,59.63
201906282150,59.63,59.63,59.59,59.6
201906282151,59.6,59.6,59.55,59.55
201906282152,59.55,59.55,59.51,59.53
201906282153,59.53,59.55,59.53,59.54
201906282154,59.54,59.54,59.53,59.54
201906282155,59.54,59.56,59.53,59.55
201906282156,59.55,59.55,59.52,59.54
201906282157,59.54,59.55,59.53,59.54
201906282158,59.54,59.54,59.48,59.49
201906282159,59.49,59.52,59.48,59.51
201906282200,59.51,59.56,59.48,59.55
201906282201,59.55,59.59,59.5,59.51
201906282202,59.51,59.55,59.49,59.52
201906282203,59.52,59.54,59.5,59.53
201906282204,59.53,59.54,59.5,59.54
201906282205,59.54,59.57,59.49,59.56
201906282206,59.56,59.56,59.53,59.55
201906282207,59.55,59.67,59.53,59.65
201906282208,59.65,59.78,59.57,59.77
201906282209,59.78,59.78,59.65,59.72
201906282210,59.72,59.74,59.64,59.64
201906282211,59.64,59.64,59.49,59.56
201906282212,59.56,59.56,59.42,59.45
201906282213,59.45,59.51,59.44,59.49
201906282214,59.49,59.51,59.45,59.51
201906282215,59.51,59.54,59.45,59.46
201906282216,59.46,59.51,59.45,59.51
201906282217,59.51,59.53,59.49,59.52
201906282218,59.53,59.54,59.51,59.54
201906282219,59.54,59.54,59.46,59.49
201906282220,59.49,59.52,59.47,59.49
201906282221,59.49,59.5,59.45,59.48
201906282222,59.48,59.49,59.45,59.49
201906282223,59.49,59.5,59.4,59.41
201906282224,59.41,59.46,59.4,59.45
201906282225,59.45,59.45,59.38,59.41
201906282226,59.41,59.42,59.36,59.36
201906282227,59.36,59.4,59.34,59.38
201906282228,59.38,59.45,59.37,59.45
201906282229,59.45,59.46,59.38,59.44
201906282230,59.44,59.45,59.35,59.4
201906282231,59.4,59.45,59.37,59.44
201906282232,59.44,59.44,59.41,59.44
201906282233,59.44,59.46,59.39,59.4
201906282234,59.4,59.46,59.4,59.44
201906282235,59.44,59.5,59.43,59.47
201906282236,59.47,59.47,59.42,59.45
201906282237,59.45,59.46,59.41,59.42
201906282238,59.42,59.42,59.34,59.37
201906282239,59.37,59.38,59.35,59.37
201906282240,59.37,59.4,59.36,59.37
201906282241,59.37,59.41,59.37,59.4
201906282242,59.4,59.4,59.36,59.36
201906282243,59.36,59.38,59.34,59.37
201906282244,59.37,59.38,59.36,59.37
201906282245,59.37,59.37,59.34,59.34
201906282246,59.34,59.36,59.34,59.35
201906282247,59.35,59.37,59.34,59.35
201906282248,59.35,59.35,59.2,59.21
201906282249,59.21,59.25,59.17,59.23
201906282250,59.23,59.23,59.13,59.13
201906282251,59.13,59.13,59.01,59.05
201906282252,59.05,59.06,58.97,59
201906282253,59,59.06,58.98,59.06
201906282254,59.06,59.08,59.02,59.08
201906282255,59.08,59.12,59.08,59.12
201906282256,59.12,59.14,59.1,59.14
201906282257,59.14,59.16,59.12,59.13
201906282258,59.13,59.13,59.06,59.06
201906282259,59.06,59.09,59.06,59.06
201906282300,59.06,59.11,59.06,59.09
201906282301,59.1,59.11,59.08,59.09
201906282302,59.09,59.09,59.03,59.09
201906282303,59.09,59.11,59.08,59.09
201906282304,59.09,59.09,59.03,59.09
201906282305,59.09,59.12,59.09,59.09
201906282306,59.09,59.11,59.08,59.09
201906282307,59.09,59.1,59.07,59.1
201906282308,59.1,59.11,59.08,59.09
201906282309,59.09,59.13,59.08,59.11
201906282310,59.12,59.15,59.09,59.15
201906282311,59.15,59.22,59.14,59.22
201906282312,59.22,59.22,59.15,59.16
201906282313,59.16,59.22,59.15,59.21
201906282314,59.21,59.22,59.17,59.19
201906282315,59.19,59.22,59.17,59.17
201906282316,59.17,59.21,59.16,59.21
201906282317,59.21,59.24,59.2,59.23
201906282318,59.23,59.24,59.17,59.17
201906282319,59.17,59.18,59.15,59.18
201906282320,59.18,59.2,59.18,59.18
201906282321,59.18,59.19,59.17,59.19
201906282322,59.19,59.19,59.17,59.18
201906282323,59.18,59.18,59.12,59.12
201906282324,59.12,59.17,59.1,59.17
201906282325,59.17,59.22,59.11,59.11
201906282326,59.11,59.13,59.04,59.05
201906282327,59.05,59.06,58.95,58.97
201906282328,58.97,59.05,58.9,59.05
201906282329,59.05,59.05,59.01,59.02
201906282330,59.02,59.1,59.02,59.08
201906282331,59.08,59.13,59.07,59.08
201906282332,59.08,59.08,59.03,59.03
201906282333,59.03,59.05,59,59.01
201906282334,59.01,59.02,59,59.01
201906282335,59.01,59.05,59,59.05
201906282336,59.05,59.06,59.03,59.06
201906282337,59.06,59.09,59.05,59.06
201906282338,59.06,59.07,59.05,59.07
201906282339,59.07,59.11,59.07,59.09
201906282340,59.09,59.11,59.08,59.09
201906282341,59.09,59.11,59.08,59.09
201906282342,59.09,59.12,59.09,59.1
201906282343,59.1,59.11,59.07,59.07
201906282344,59.07,59.09,59.04,59.09
201906282345,59.09,59.15,59.09,59.15
201906282346,59.15,59.16,59.13,59.16
201906282347,59.16,59.18,59.15,59.16
201906282348,59.16,59.16,59.12,59.14
201906282349,59.14,59.17,59.12,59.12
201906282350,59.12,59.13,59.1,59.13
201906282351,59.13,59.13,59.07,59.09
201906282352,59.09,59.09,59.07,59.08
201906282353,59.08,59.08,59.05,59.06
201906282354,59.06,59.06,58.95,58.98
201906282355,58.98,59.07,58.95,59.06
201906282356,59.06,59.06,59,59.02
201906282357,59.02,59.1,59.02,59.06
201906282358,59.06,59.06,59,59.02
201906282359,59.02,59.04,59,59.01
201906290000,59.01,59.01,58.95,58.97
201906290001,58.97,59.03,58.95,59.02
201906290002,59.02,59.03,58.95,58.95
201906290003,58.96,59.04,58.95,59.04
201906290004,59.04,59.04,59.01,59.03
201906290005,59.03,59.08,59.02,59.08
201906290006,59.1,59.1,59.05,59.08
201906290007,59.08,59.1,59.06,59.1
201906290008,59.1,59.13,59.1,59.13
201906290009,59.13,59.19,59.12,59.18
201906290010,59.18,59.25,59.17,59.21
201906290011,59.21,59.24,59.19,59.23
201906290012,59.23,59.26,59.2,59.22
201906290013,59.22,59.22,59.17,59.19
201906290014,59.19,59.22,59.19,59.21
201906290015,59.21,59.25,59.21,59.23
201906290016,59.23,59.26,59.23,59.24
201906290017,59.24,59.24,59.18,59.18
201906290018,59.18,59.21,59.18,59.21
201906290019,59.21,59.21,59.18,59.18
201906290020,59.18,59.19,59.14,59.15
201906290021,59.15,59.18,59.15,59.17
201906290022,59.17,59.21,59.16,59.16
201906290023,59.16,59.22,59.14,59.19
201906290024,59.19,59.19,59.12,59.15
201906290025,59.15,59.24,59.15,59.24
201906290026,59.24,59.34,59.24,59.33
201906290027,59.33,59.33,59.28,59.29
201906290028,59.29,59.39,59.29,59.34
201906290029,59.34,59.42,59.33,59.36
201906290030,59.35,59.42,59.32,59.39
201906290031,59.39,59.41,59.32,59.33
201906290032,59.33,59.35,59.32,59.35
201906290033,59.35,59.38,59.33,59.37
201906290034,59.37,59.38,59.34,59.36
201906290035,59.36,59.43,59.36,59.41
201906290036,59.42,59.43,59.36,59.37
201906290037,59.37,59.41,59.37,59.39
201906290038,59.39,59.41,59.38,59.38
201906290039,59.38,59.41,59.38,59.39
201906290040,59.38,59.39,59.35,59.35
201906290041,59.35,59.36,59.32,59.32
201906290042,59.32,59.35,59.3,59.34
201906290043,59.34,59.35,59.32,59.35
201906290044,59.35,59.36,59.34,59.35
201906290045,59.35,59.35,59.32,59.32
201906290046,59.32,59.38,59.32,59.37
201906290047,59.37,59.37,59.3,59.3
201906290048,59.3,59.32,59.3,59.31
201906290049,59.31,59.34,59.3,59.33
201906290050,59.33,59.34,59.31,59.31
201906290051,59.31,59.33,59.29,59.3
201906290052,59.3,59.31,59.27,59.28
201906290053,59.28,59.29,59.27,59.27
201906290054,59.27,59.31,59.27,59.31
201906290055,59.31,59.35,59.3,59.35
201906290056,59.35,59.37,59.32,59.37
201906290057,59.37,59.38,59.35,59.36
201906290058,59.36,59.36,59.35,59.35
201906290059,59.35,59.36,59.33,59.34
201906290100,59.34,59.36,59.32,59.34
201906290101,59.34,59.36,59.33,59.36
201906290102,59.36,59.38,59.35,59.37
201906290103,59.37,59.38,59.35,59.37
201906290104,59.37,59.38,59.36,59.37
201906290105,59.37,59.42,59.37,59.39
201906290106,59.39,59.4,59.39,59.39
201906290107,59.39,59.42,59.38,59.39
201906290108,59.39,59.4,59.35,59.35
201906290109,59.35,59.38,59.33,59.37
201906290110,59.36,59.38,59.36,59.37
201906290111,59.37,59.37,59.33,59.34
201906290112,59.34,59.34,59.33,59.33
201906290113,59.33,59.34,59.32,59.33
201906290114,59.33,59.33,59.32,59.33
201906290115,59.33,59.35,59.33,59.34
201906290116,59.34,59.35,59.32,59.35
201906290117,59.35,59.4,59.35,59.39
201906290118,59.39,59.4,59.38,59.4
201906290119,59.4,59.4,59.37,59.37
201906290120,59.37,59.41,59.37,59.41
201906290121,59.41,59.42,59.38,59.39
201906290122,59.39,59.41,59.39,59.41
201906290123,59.41,59.43,59.4,59.42
201906290124,59.42,59.42,59.41,59.42
201906290125,59.42,59.49,59.42,59.46
201906290126,59.46,59.48,59.46,59.48
201906290127,59.48,59.49,59.47,59.47
201906290128,59.47,59.48,59.46,59.47
201906290129,59.47,59.49,59.47,59.49
201906290130,59.49,59.49,59.41,59.43
201906290131,59.43,59.45,59.43,59.43
201906290132,59.43,59.45,59.41,59.45
201906290133,59.45,59.45,59.4,59.42
201906290134,59.42,59.44,59.41,59.42
201906290135,59.42,59.46,59.42,59.43
201906290136,59.43,59.44,59.41,59.42
201906290137,59.42,59.43,59.41,59.43
201906290138,59.43,59.43,59.39,59.39
201906290139,59.39,59.4,59.36,59.38
201906290140,59.38,59.39,59.35,59.37
201906290141,59.37,59.38,59.36,59.37
201906290142,59.37,59.38,59.37,59.37
201906290143,59.37,59.39,59.37,59.37
201906290144,59.37,59.38,59.36,59.37
201906290145,59.37,59.38,59.36,59.37
201906290146,59.37,59.38,59.36,59.36
201906290147,59.36,59.36,59.33,59.33
201906290148,59.33,59.36,59.33,59.34
201906290149,59.34,59.36,59.34,59.36
201906290150,59.36,59.37,59.34,59.34
201906290151,59.34,59.34,59.32,59.32
201906290152,59.32,59.33,59.3,59.3
201906290153,59.3,59.32,59.3,59.31
201906290154,59.31,59.31,59.3,59.3
201906290155,59.3,59.31,59.29,59.31
201906290156,59.31,59.31,59.3,59.3
201906290157,59.3,59.31,59.25,59.26
201906290158,59.26,59.26,59.25,59.25
201906290159,59.25,59.27,59.25,59.27
201906290200,59.27,59.29,59.25,59.26
201906290201,59.26,59.29,59.26,59.26
201906290202,59.26,59.26,59.2,59.2
201906290203,59.2,59.24,59.19,59.24
201906290204,59.24,59.25,59.23,59.24
201906290205,59.24,59.24,59.22,59.23
201906290206,59.23,59.27,59.23,59.25
201906290207,59.25,59.25,59.22,59.23
201906290208,59.23,59.26,59.23,59.26
201906290209,59.26,59.26,59.24,59.25
201906290210,59.25,59.26,59.24,59.26
201906290211,59.26,59.28,59.26,59.26
201906290212,59.26,59.27,59.25,59.26
201906290213,59.26,59.28,59.25,59.28
201906290214,59.27,59.27,59.25,59.27
201906290215,59.27,59.27,59.24,59.24
201906290216,59.24,59.25,59.24,59.24
201906290217,59.23,59.23,59.2,59.22
201906290218,59.22,59.22,59.2,59.2
201906290219,59.2,59.21,59.18,59.18
201906290220,59.18,59.23,59.18,59.22
201906290221,59.22,59.23,59.21,59.22
201906290222,59.22,59.22,59.17,59.19
201906290223,59.19,59.21,59.19,59.2
201906290224,59.2,59.21,59.19,59.2
201906290225,59.2,59.21,59.18,59.19
201906290226,59.19,59.23,59.19,59.23
201906290227,59.23,59.23,59.19,59.2
201906290228,59.2,59.21,59.2,59.21
201906290229,59.21,59.21,59.18,59.18
201906290230,59.18,59.23,59.18,59.22
201906290231,59.22,59.24,59.2,59.24
201906290232,59.24,59.26,59.24,59.24
201906290233,59.24,59.26,59.23,59.25
201906290234,59.25,59.25,59.24,59.24
201906290235,59.24,59.24,59.21,59.21
201906290236,59.21,59.23,59.21,59.23
201906290237,59.23,59.23,59.21,59.21
201906290238,59.21,59.22,59.21,59.21
201906290239,59.21,59.22,59.2,59.21
201906290240,59.21,59.21,59.18,59.18
201906290241,59.18,59.18,59.16,59.18
201906290242,59.18,59.19,59.17,59.18
201906290243,59.18,59.19,59.17,59.18
201906290244,59.18,59.19,59.17,59.17
201906290245,59.17,59.19,59.16,59.18
201906290246,59.18,59.31,59.18,59.3
201906290247,59.3,59.31,59.28,59.29
201906290248,59.29,59.29,59.26,59.28
201906290249,59.28,59.29,59.28,59.29
201906290250,59.29,59.29,59.25,59.25
201906290251,59.25,59.28,59.25,59.27
201906290252,59.27,59.31,59.27,59.31
201906290253,59.31,59.33,59.3,59.31
201906290254,59.3,59.31,59.27,59.28
201906290255,59.28,59.28,59.24,59.24
201906290256,59.24,59.25,59.22,59.22
201906290257,59.22,59.24,59.21,59.22
201906290258,59.22,59.24,59.21,59.24
201906290259,59.24,59.28,59.24,59.27
201906290300,59.27,59.28,59.26,59.27
201906290301,59.27,59.33,59.27,59.3
201906290302,59.3,59.31,59.29,59.29
201906290303,59.29,59.34,59.28,59.33
201906290304,59.33,59.35,59.33,59.34
201906290305,59.34,59.35,59.32,59.33
201906290306,59.32,59.33,59.28,59.3
201906290307,59.3,59.31,59.25,59.27
201906290308,59.27,59.34,59.27,59.31
201906290309,59.31,59.33,59.29,59.32
201906290310,59.32,59.32,59.21,59.22
201906290311,59.22,59.22,59.11,59.11
201906290312,59.11,59.17,59.1,59.15
201906290313,59.15,59.16,59.09,59.11
201906290314,59.11,59.14,59.1,59.12
201906290315,59.12,59.14,59.1,59.13
201906290316,59.14,59.15,59.1,59.13
201906290317,59.13,59.17,59.12,59.15
201906290318,59.15,59.23,59.15,59.2
201906290319,59.2,59.22,59.16,59.17
201906290320,59.17,59.17,59.12,59.13
201906290321,59.13,59.13,58.99,59.03
201906290322,59.02,59.04,58.85,58.93
201906290323,58.93,58.93,58.84,58.85
201906290324,58.85,58.87,58.76,58.77
201906290325,58.77,58.92,58.76,58.87
201906290326,58.87,58.92,58.84,58.89
201906290327,58.89,58.89,58.62,58.69
201906290328,58.68,58.68,58.37,58.41
201906290329,58.41,58.49,58.36,58.4
201906290330,58.4,58.46,58.34,58.37
201906290331,58.37,58.38,58.17,58.21
201906290332,58.21,58.34,58.18,58.25
201906290333,58.26,58.33,58.25,58.28
201906290334,58.28,58.3,58.25,58.26
201906290335,58.26,58.31,58.23,58.24
201906290336,58.24,58.28,58.16,58.18
201906290337,58.18,58.25,58.13,58.24
201906290338,58.24,58.28,58.15,58.17
201906290339,58.17,58.19,58.14,58.18
201906290340,58.18,58.2,58.1,58.16
201906290341,58.16,58.2,58.12,58.13
201906290342,58.13,58.14,58.04,58.07
201906290343,58.07,58.08,58.06,58.07
201906290344,58.07,58.15,58.07,58.11
201906290345,58.11,58.11,58.07,58.11
201906290346,58.11,58.13,58.11,58.11
201906290347,58.11,58.12,58.01,58.01
201906290348,58.01,58.03,57.9,57.98
201906290349,57.97,58.03,57.95,57.98
201906290350,57.98,58.01,57.92,57.98
201906290351,57.98,58.02,57.97,57.97
201906290352,57.97,57.97,57.9,57.93
201906290353,57.93,57.95,57.89,57.93
201906290354,57.93,57.97,57.93,57.97
201906290355,57.97,58.07,57.97,58.07
201906290356,58.07,58.1,58.05,58.07
201906290357,58.07,58.07,58.03,58.05
201906290358,58.05,58.07,58.02,58.04
201906290359,58.04,58.04,57.95,57.98
201906290400,57.98,57.99,57.95,57.97
201906290401,57.97,57.97,57.84,57.88
201906290402,57.88,57.88,57.76,57.81
201906290403,57.81,57.82,57.75,57.75
201906290404,57.75,57.89,57.75,57.84
201906290405,57.84,57.84,57.74,57.77
201906290406,57.77,57.9,57.77,57.89
201906290407,57.89,57.95,57.87,57.93
201906290408,57.93,57.94,57.9,57.92
201906290409,57.92,57.93,57.86,57.91
201906290410,57.91,57.92,57.86,57.87
201906290411,57.87,57.87,57.84,57.85
201906290412,57.85,57.9,57.85,57.89
201906290413,57.89,57.96,57.89,57.93
201906290414,57.93,57.94,57.93,57.93
201906290415,57.93,57.94,57.83,57.85
201906290416,57.85,57.92,57.85,57.89
201906290417,57.89,57.93,57.88,57.91
201906290418,57.91,57.95,57.91,57.94
201906290419,57.94,57.95,57.93,57.95
201906290420,57.95,57.96,57.92,57.96
201906290421,57.96,58.07,57.96,58.05
201906290422,58.05,58.06,58.05,58.05
201906290423,58.05,58.05,58.01,58.02
201906290424,58.02,58.03,57.98,58
201906290425,58,58.04,58,58.02
201906290426,58.02,58.04,57.98,57.99
201906290427,57.99,58.01,57.96,58
201906290428,58,58.01,57.98,57.99
201906290429,57.99,58.01,57.98,57.99
201906290430,57.99,58,57.97,57.98
201906290431,57.98,57.99,57.94,57.96
201906290432,57.96,57.98,57.96,57.98
201906290433,57.98,58.04,57.97,58.04
201906290434,58.04,58.06,58.02,58.04
201906290435,58.04,58.04,58.01,58.04
201906290436,58.04,58.05,58.02,58.05
201906290437,58.05,58.06,58.04,58.06
201906290438,58.06,58.06,58.04,58.04
201906290439,58.04,58.05,58.03,58.05
201906290440,58.05,58.07,58.05,58.07
201906290441,58.07,58.08,58.06,58.07
201906290442,58.07,58.08,58.04,58.04
201906290443,58.04,58.04,58.03,58.04
201906290444,58.04,58.04,57.96,57.97
201906290445,57.97,57.98,57.97,57.98
201906290446,57.98,58.01,57.97,57.97
201906290447,57.97,57.97,57.79,57.9
201906290448,57.9,57.94,57.9,57.94
201906290449,57.94,58,57.94,57.99
201906290450,57.99,58.02,57.99,58.01
201906290451,58.01,58.02,57.96,57.99
201906290452,57.99,58,57.97,57.97
201906290453,57.97,57.97,57.87,57.93
201906290454,57.93,57.97,57.92,57.92
201906290455,57.92,57.97,57.92,57.95
201906290456,57.95,57.95,57.93,57.94
201906290457,57.94,58,57.94,57.99
201906290458,57.99,58.02,57.99,58
201906290459,58,58,57.95,57.98
201906290500,57.98,58,57.97,57.98
201906290501,57.98,57.98,57.96,57.98
201906290502,57.98,58.01,57.97,58.01
201906290503,58.01,58.02,58.01,58.01
201906290504,58.01,58.06,58.01,58.04
201906290505,58.04,58.04,58.03,58.03
201906290506,58.03,58.04,58.03,58.04
201906290507,58.04,58.05,58.04,58.05
201906290508,58.05,58.06,58.05,58.05
201906290509,58.05,58.05,58.03,58.03
201906290510,58.03,58.03,57.97,57.98
201906290511,57.98,57.98,57.91,57.92
201906290512,57.92,57.96,57.91,57.94
201906290513,57.94,57.97,57.94,57.96
201906290514,57.96,57.99,57.96,57.98
201906290515,57.98,58.01,57.98,58.01
201906290516,58.01,58.01,57.96,57.99
201906290517,57.99,58.01,57.98,58
201906290518,58,58,57.99,58
201906290519,58,58.02,58,58
201906290520,58,58.01,57.99,58
201906290521,58,58,57.99,58
201906290522,58,58.02,57.99,58.01
201906290523,58.01,58.02,58.01,58.02
201906290524,58.02,58.04,58.02,58.04
201906290525,58.04,58.15,58.04,58.13
201906290526,58.13,58.15,58.12,58.14
201906290527,58.14,58.17,58.14,58.16
201906290528,58.16,58.17,58.13,58.14
201906290529,58.14,58.14,58.13,58.13
201906290530,58.14,58.15,58.13,58.14
201906290531,58.14,58.15,58.13,58.13
201906290532,58.13,58.14,58.12,58.12
201906290533,58.12,58.12,58.1,58.1
201906290534,58.1,58.1,58.09,58.1
201906290535,58.1,58.12,58.09,58.12
201906290536,58.12,58.16,58.12,58.15
201906290537,58.15,58.16,58.14,58.16
201906290538,58.16,58.16,58.14,58.14
201906290539,58.14,58.17,58.14,58.16
201906290540,58.16,58.16,58.14,58.14
201906290541,58.14,58.17,58.14,58.15
201906290542,58.15,58.17,58.14,58.16
201906290543,58.16,58.17,58.14,58.16
201906290544,58.16,58.17,58.16,58.16
201906290545,58.16,58.16,58.16,58.16
201906290546,58.16,58.2,58.16,58.2
201906290547,58.2,58.21,58.16,58.16
201906290548,58.16,58.17,58.15,58.16
201906290549,58.16,58.17,58.16,58.17
201906290550,58.17,58.17,58.16,58.17
201906290551,58.17,58.19,58.17,58.18
201906290552,58.18,58.18,58.16,58.16
201906290553,58.16,58.17,58.16,58.16
201906290554,58.16,58.17,58.16,58.17
201906290555,58.17,58.2,58.16,58.17
201906290556,58.17,58.17,58.16,58.16
201906290557,58.16,58.17,58.16,58.17
201906290558,58.17,58.2,58.17,58.18
201906290559,58.18,58.2,58.15,58.17
