日時,始値(BID),高値(BID),安値(BID),終値(BID)
201906200830,21318,21322,21310,21311
201906200831,21311,21327,21310,21327
201906200832,21327,21332,21322,21327
201906200833,21327,21327,21324,21324
201906200834,21324,21326,21320,21324
201906200835,21324,21331,21324,21330
201906200836,21330,21332,21327,21331
201906200837,21331,21332,21331,21332
201906200838,21332,21335,21330,21335
201906200839,21335,21335,21326,21327
201906200840,21327,21328,21322,21325
201906200841,21325,21334,21323,21332
201906200842,21330,21335,21330,21335
201906200843,21335,21344,21335,21342
201906200844,21342,21347,21334,21337
201906200845,21340,21351,21332,21351
201906200846,21352,21371,21351,21370
201906200847,21370,21371,21365,21368
201906200848,21368,21369,21361,21367
201906200849,21366,21367,21361,21362
201906200850,21362,21369,21362,21367
201906200851,21367,21367,21367,21367
201906200852,21367,21377,21367,21377
201906200853,21377,21382,21375,21377
201906200854,21377,21377,21372,21372
201906200855,21372,21372,21361,21362
201906200856,21362,21366,21361,21362
201906200857,21362,21366,21362,21366
201906200858,21366,21370,21365,21367
201906200859,21367,21367,21361,21361
201906200900,21361,21371,21356,21362
201906200901,21362,21385,21358,21378
201906200902,21378,21402,21378,21401
201906200903,21401,21402,21376,21377
201906200904,21378,21382,21371,21377
201906200905,21377,21388,21376,21383
201906200906,21383,21389,21381,21382
201906200907,21381,21386,21376,21380
201906200908,21380,21387,21376,21386
201906200909,21386,21387,21377,21377
201906200910,21377,21382,21376,21382
201906200911,21382,21386,21381,21386
201906200912,21386,21390,21381,21387
201906200913,21387,21387,21376,21377
201906200914,21377,21377,21371,21372
201906200915,21372,21372,21366,21366
201906200916,21366,21367,21357,21361
201906200917,21361,21361,21352,21352
201906200918,21352,21356,21351,21355
201906200919,21356,21360,21352,21358
201906200920,21358,21362,21357,21362
201906200921,21361,21361,21352,21352
201906200922,21351,21353,21351,21352
201906200923,21352,21357,21352,21357
201906200924,21357,21357,21346,21346
201906200925,21346,21349,21332,21336
201906200926,21336,21342,21333,21340
201906200927,21340,21341,21332,21341
201906200928,21341,21345,21340,21342
201906200929,21342,21342,21340,21341
201906200930,21341,21346,21341,21342
201906200931,21341,21341,21336,21337
201906200932,21339,21344,21336,21340
201906200933,21340,21341,21336,21337
201906200934,21337,21340,21331,21333
201906200935,21333,21336,21332,21333
201906200936,21333,21341,21331,21340
201906200937,21340,21343,21338,21343
201906200938,21343,21351,21343,21349
201906200939,21349,21349,21347,21347
201906200940,21347,21349,21346,21347
201906200941,21348,21361,21347,21361
201906200942,21361,21375,21361,21372
201906200943,21372,21377,21361,21361
201906200944,21361,21363,21356,21358
201906200945,21358,21359,21355,21357
201906200946,21357,21357,21351,21351
201906200947,21348,21352,21346,21346
201906200948,21346,21346,21342,21342
201906200949,21342,21346,21341,21344
201906200950,21344,21353,21344,21352
201906200951,21352,21352,21343,21352
201906200952,21352,21355,21351,21355
201906200953,21355,21359,21352,21353
201906200954,21353,21358,21353,21356
201906200955,21356,21356,21336,21342
201906200956,21343,21346,21336,21341
201906200957,21338,21339,21327,21328
201906200958,21328,21332,21321,21325
201906200959,21325,21326,21323,21326
201906201000,21327,21332,21326,21327
201906201001,21327,21327,21318,21322
201906201002,21322,21332,21321,21327
201906201003,21327,21329,21321,21328
201906201004,21328,21331,21326,21330
201906201005,21330,21330,21324,21325
201906201006,21325,21326,21321,21322
201906201007,21322,21324,21320,21321
201906201008,21321,21341,21321,21340
201906201009,21340,21352,21339,21347
201906201010,21347,21347,21336,21337
201906201011,21337,21342,21337,21342
201906201012,21340,21342,21339,21340
201906201013,21339,21346,21339,21345
201906201014,21345,21354,21343,21352
201906201015,21352,21353,21341,21342
201906201016,21342,21346,21337,21339
201906201017,21339,21341,21336,21337
201906201018,21337,21337,21331,21335
201906201019,21335,21336,21331,21332
201906201020,21332,21332,21321,21332
201906201021,21331,21334,21323,21325
201906201022,21325,21325,21316,21317
201906201023,21317,21325,21316,21325
201906201024,21325,21325,21316,21317
201906201025,21317,21317,21307,21311
201906201026,21311,21319,21309,21317
201906201027,21317,21324,21316,21322
201906201028,21322,21328,21321,21327
201906201029,21327,21329,21321,21322
201906201030,21322,21326,21316,21326
201906201031,21326,21326,21321,21325
201906201032,21327,21334,21326,21334
201906201033,21334,21345,21332,21345
201906201034,21345,21351,21341,21347
201906201035,21347,21350,21341,21347
201906201036,21347,21348,21333,21339
201906201037,21338,21349,21338,21349
201906201038,21349,21351,21346,21350
201906201039,21350,21356,21346,21355
201906201040,21355,21356,21351,21352
201906201041,21352,21360,21351,21352
201906201042,21352,21354,21347,21347
201906201043,21347,21347,21341,21347
201906201044,21349,21355,21346,21355
201906201045,21355,21363,21351,21362
201906201046,21362,21363,21351,21357
201906201047,21357,21360,21356,21357
201906201048,21357,21362,21356,21356
201906201049,21356,21356,21351,21354
201906201050,21353,21355,21351,21354
201906201051,21353,21364,21353,21361
201906201052,21361,21364,21361,21363
201906201053,21363,21365,21361,21361
201906201054,21363,21369,21363,21368
201906201055,21368,21374,21368,21372
201906201056,21372,21374,21366,21372
201906201057,21372,21375,21370,21375
201906201058,21375,21376,21374,21374
201906201059,21375,21381,21373,21380
201906201100,21380,21382,21376,21380
201906201101,21381,21384,21379,21382
201906201102,21382,21384,21376,21377
201906201103,21377,21377,21371,21372
201906201104,21372,21375,21367,21371
201906201105,21371,21377,21371,21375
201906201106,21376,21376,21371,21372
201906201107,21372,21374,21371,21374
201906201108,21374,21380,21373,21380
201906201109,21380,21385,21380,21385
201906201110,21384,21385,21384,21384
201906201111,21385,21387,21384,21386
201906201112,21386,21392,21386,21392
201906201113,21392,21394,21391,21394
201906201114,21395,21395,21388,21388
201906201115,21388,21396,21388,21396
201906201116,21396,21401,21396,21400
201906201117,21400,21402,21400,21402
201906201118,21402,21402,21397,21401
201906201119,21401,21405,21400,21405
201906201120,21405,21412,21401,21402
201906201121,21402,21411,21402,21411
201906201122,21411,21415,21410,21412
201906201123,21412,21417,21411,21417
201906201124,21419,21422,21417,21417
201906201125,21417,21417,21410,21410
201906201126,21410,21412,21409,21409
201906201127,21409,21413,21408,21412
201906201128,21412,21412,21403,21406
201906201129,21406,21410,21402,21405
201906201130,21405,21409,21405,21407
201906201131,21407,21407,21406,21407
201906201132,21407,21407,21407,21407
201906201133,21407,21407,21406,21407
201906201134,21407,21407,21406,21407
201906201135,21407,21407,21402,21402
201906201136,21402,21406,21402,21402
201906201137,21402,21402,21402,21402
201906201138,21402,21402,21402,21402
201906201139,21402,21402,21396,21397
201906201140,21397,21397,21397,21397
201906201141,21397,21397,21397,21397
201906201142,21397,21400,21397,21400
201906201143,21400,21401,21398,21399
201906201144,21399,21399,21398,21398
201906201145,21398,21400,21392,21392
201906201146,21392,21392,21392,21392
201906201147,21392,21392,21387,21389
201906201148,21388,21392,21387,21392
201906201149,21392,21393,21387,21387
201906201150,21387,21387,21386,21386
201906201151,21386,21386,21382,21382
201906201152,21382,21386,21381,21381
201906201153,21381,21382,21377,21377
201906201154,21377,21377,21358,21359
201906201155,21359,21362,21357,21359
201906201156,21360,21364,21357,21360
201906201157,21359,21361,21357,21361
201906201158,21361,21364,21356,21359
201906201159,21358,21361,21356,21360
201906201200,21361,21365,21359,21365
201906201201,21364,21367,21361,21367
201906201202,21367,21367,21363,21363
201906201203,21363,21366,21361,21366
201906201204,21365,21368,21365,21368
201906201205,21368,21374,21366,21372
201906201206,21372,21374,21367,21374
201906201207,21374,21376,21371,21371
201906201208,21372,21376,21371,21375
201906201209,21375,21375,21371,21373
201906201210,21373,21374,21371,21371
201906201211,21371,21377,21371,21377
201906201212,21377,21377,21377,21377
201906201213,21377,21385,21377,21381
201906201214,21381,21391,21381,21387
201906201215,21387,21389,21381,21382
201906201216,21382,21384,21377,21377
201906201217,21377,21377,21376,21377
201906201218,21377,21378,21373,21377
201906201219,21377,21380,21376,21376
201906201220,21375,21382,21373,21380
201906201221,21380,21391,21380,21390
201906201222,21390,21395,21390,21392
201906201223,21392,21392,21387,21392
201906201224,21392,21392,21386,21392
201906201225,21392,21394,21391,21391
201906201226,21392,21392,21386,21386
201906201227,21387,21387,21381,21384
201906201228,21384,21387,21384,21387
201906201229,21387,21387,21381,21382
201906201230,21382,21392,21382,21386
201906201231,21386,21390,21381,21390
201906201232,21390,21392,21389,21392
201906201233,21392,21392,21389,21389
201906201234,21389,21395,21389,21394
201906201235,21395,21395,21392,21395
201906201236,21395,21396,21395,21395
201906201237,21395,21396,21395,21395
201906201238,21395,21395,21391,21395
201906201239,21395,21401,21394,21401
201906201240,21401,21402,21401,21401
201906201241,21401,21401,21392,21394
201906201242,21394,21394,21391,21392
201906201243,21392,21397,21392,21396
201906201244,21396,21397,21395,21396
201906201245,21396,21397,21394,21395
201906201246,21395,21401,21394,21401
201906201247,21401,21402,21400,21401
201906201248,21401,21405,21401,21405
201906201249,21405,21407,21405,21406
201906201250,21406,21409,21406,21406
201906201251,21406,21406,21401,21402
201906201252,21402,21402,21397,21397
201906201253,21397,21397,21396,21397
201906201254,21397,21399,21396,21397
201906201255,21396,21399,21396,21397
201906201256,21397,21401,21397,21401
201906201257,21401,21402,21401,21402
201906201258,21402,21402,21402,21402
201906201259,21402,21402,21401,21402
201906201300,21402,21402,21401,21402
201906201301,21402,21402,21402,21402
201906201302,21402,21402,21402,21402
201906201303,21402,21402,21397,21400
201906201304,21400,21402,21400,21401
201906201305,21402,21402,21401,21402
201906201306,21402,21402,21401,21402
201906201307,21402,21410,21401,21407
201906201308,21407,21408,21407,21407
201906201309,21407,21407,21407,21407
201906201310,21407,21411,21407,21408
201906201311,21409,21412,21408,21412
201906201312,21412,21412,21410,21410
201906201313,21410,21412,21410,21411
201906201314,21411,21411,21411,21411
201906201315,21411,21411,21410,21411
201906201316,21411,21411,21410,21411
201906201317,21411,21412,21411,21412
201906201318,21412,21412,21411,21412
201906201319,21412,21412,21411,21411
201906201320,21411,21416,21411,21416
201906201321,21416,21416,21416,21416
201906201322,21416,21416,21416,21416
201906201323,21416,21416,21416,21416
201906201324,21416,21417,21416,21416
201906201325,21416,21417,21416,21416
201906201326,21416,21416,21412,21415
201906201327,21415,21416,21415,21416
201906201328,21416,21419,21416,21417
201906201329,21417,21417,21417,21417
201906201330,21417,21421,21416,21417
201906201331,21417,21417,21416,21416
201906201332,21417,21417,21416,21417
201906201333,21417,21417,21406,21407
201906201334,21407,21407,21403,21406
201906201335,21406,21408,21403,21407
201906201336,21407,21410,21406,21407
201906201337,21407,21411,21407,21411
201906201338,21411,21411,21410,21410
201906201339,21410,21414,21410,21414
201906201340,21414,21414,21411,21412
201906201341,21412,21412,21409,21409
201906201342,21409,21412,21409,21412
201906201343,21412,21412,21408,21411
201906201344,21411,21412,21406,21408
201906201345,21408,21409,21406,21407
201906201346,21407,21407,21407,21407
201906201347,21407,21407,21407,21407
201906201348,21407,21407,21407,21407
201906201349,21407,21407,21407,21407
201906201350,21407,21407,21407,21407
201906201351,21407,21407,21407,21407
201906201352,21407,21407,21406,21406
201906201353,21406,21407,21406,21407
201906201354,21407,21410,21406,21407
201906201355,21407,21407,21407,21407
201906201356,21407,21407,21407,21407
201906201357,21407,21407,21407,21407
201906201358,21407,21409,21407,21407
201906201359,21407,21417,21407,21417
201906201400,21418,21418,21412,21412
201906201401,21412,21412,21402,21404
201906201402,21404,21404,21402,21404
201906201403,21404,21405,21402,21402
201906201404,21402,21402,21396,21397
201906201405,21397,21399,21391,21394
201906201406,21394,21402,21394,21402
201906201407,21402,21402,21402,21402
201906201408,21402,21402,21396,21397
201906201409,21397,21397,21394,21395
201906201410,21395,21397,21391,21392
201906201411,21392,21394,21391,21393
201906201412,21393,21394,21386,21387
201906201413,21387,21387,21382,21387
201906201414,21387,21392,21386,21392
201906201415,21392,21392,21387,21388
201906201416,21387,21387,21387,21387
201906201417,21387,21387,21386,21387
201906201418,21387,21387,21383,21384
201906201419,21382,21382,21372,21372
201906201420,21372,21376,21371,21374
201906201421,21374,21375,21371,21374
201906201422,21374,21375,21373,21374
201906201423,21374,21375,21374,21375
201906201424,21375,21381,21375,21380
201906201425,21381,21387,21381,21387
201906201426,21387,21392,21387,21392
201906201427,21392,21395,21392,21392
201906201428,21392,21394,21392,21392
201906201429,21392,21392,21386,21386
201906201430,21386,21388,21386,21387
201906201431,21387,21395,21387,21395
201906201432,21395,21397,21391,21397
201906201433,21397,21402,21396,21402
201906201434,21402,21406,21402,21406
201906201435,21406,21407,21405,21407
201906201436,21407,21407,21406,21406
201906201437,21406,21407,21406,21406
201906201438,21406,21407,21406,21406
201906201439,21406,21407,21397,21397
201906201440,21397,21404,21397,21404
201906201441,21404,21405,21402,21403
201906201442,21404,21407,21403,21407
201906201443,21407,21411,21404,21411
201906201444,21411,21412,21402,21402
201906201445,21402,21410,21402,21407
201906201446,21407,21407,21407,21407
201906201447,21407,21407,21407,21407
201906201448,21407,21412,21407,21411
201906201449,21411,21411,21402,21405
201906201450,21405,21406,21404,21404
201906201451,21404,21405,21397,21397
201906201452,21397,21400,21392,21392
201906201453,21392,21397,21392,21396
201906201454,21396,21397,21392,21392
201906201455,21392,21392,21392,21392
201906201456,21392,21397,21392,21392
201906201457,21392,21392,21390,21390
201906201458,21390,21392,21390,21392
201906201459,21391,21397,21386,21396
201906201500,21395,21395,21386,21391
201906201501,21392,21392,21386,21386
201906201502,21386,21391,21386,21389
201906201503,21389,21390,21387,21387
201906201504,21387,21390,21387,21390
201906201505,21390,21390,21387,21389
201906201506,21389,21389,21387,21387
201906201507,21387,21387,21387,21387
201906201508,21387,21391,21387,21389
201906201509,21390,21390,21386,21389
201906201510,21390,21392,21390,21392
201906201511,21392,21395,21390,21395
201906201512,21395,21395,21390,21392
201906201513,21392,21395,21389,21393
201906201514,21393,21394,21385,21386
201906201515,21386,21396,21385,21392
201906201516,21392,21392,21389,21392
201906201517,21392,21392,21387,21392
201906201518,21392,21395,21390,21392
201906201519,21392,21392,21390,21392
201906201520,21392,21392,21389,21389
201906201521,21389,21392,21389,21392
201906201522,21392,21392,21391,21391
201906201523,21391,21392,21390,21392
201906201524,21392,21392,21392,21392
201906201525,21392,21392,21392,21392
201906201526,21392,21397,21391,21394
201906201527,21394,21395,21394,21394
201906201528,21394,21396,21392,21392
201906201529,21392,21397,21392,21397
201906201530,21397,21402,21397,21402
201906201531,21402,21407,21401,21405
201906201532,21405,21417,21405,21416
201906201533,21416,21416,21407,21410
201906201534,21410,21411,21407,21407
201906201535,21407,21407,21405,21406
201906201536,21406,21407,21402,21402
201906201537,21402,21407,21402,21406
201906201538,21406,21407,21402,21406
201906201539,21406,21412,21406,21411
201906201540,21411,21412,21406,21406
201906201541,21406,21408,21406,21408
201906201542,21407,21408,21406,21407
201906201543,21407,21408,21407,21407
201906201544,21408,21412,21408,21411
201906201545,21411,21413,21410,21411
201906201546,21411,21417,21410,21415
201906201547,21415,21416,21411,21413
201906201548,21413,21417,21413,21416
201906201549,21416,21417,21414,21415
201906201550,21415,21417,21415,21415
201906201551,21415,21416,21406,21407
201906201552,21407,21412,21407,21410
201906201553,21410,21411,21400,21402
201906201554,21402,21417,21401,21411
201906201555,21419,21419,21410,21411
201906201556,21411,21412,21406,21411
201906201557,21410,21412,21410,21411
201906201558,21411,21412,21410,21412
201906201559,21412,21416,21407,21407
201906201600,21407,21411,21406,21410
201906201601,21410,21417,21410,21416
201906201602,21416,21418,21410,21417
201906201603,21416,21417,21413,21413
201906201604,21413,21416,21410,21412
201906201605,21412,21417,21411,21416
201906201606,21416,21416,21410,21412
201906201607,21412,21426,21412,21422
201906201608,21422,21432,21420,21432
201906201609,21432,21437,21426,21437
201906201610,21437,21452,21435,21447
201906201611,21447,21452,21445,21447
201906201612,21447,21452,21446,21452
201906201613,21452,21452,21452,21452
201906201614,21452,21452,21446,21446
201906201615,21446,21452,21445,21452
201906201616,21452,21460,21450,21460
201906201617,21460,21460,21455,21457
201906201618,21457,21458,21455,21457
201906201619,21457,21457,21450,21451
201906201620,21451,21456,21443,21447
201906201621,21447,21449,21444,21444
201906201622,21444,21444,21436,21439
201906201623,21439,21447,21439,21447
201906201624,21447,21452,21447,21451
201906201625,21451,21452,21450,21451
201906201626,21451,21452,21445,21451
201906201627,21451,21455,21450,21451
201906201628,21450,21462,21450,21451
201906201629,21451,21455,21449,21451
201906201630,21455,21457,21450,21457
201906201631,21457,21467,21456,21467
201906201632,21466,21482,21466,21477
201906201633,21477,21482,21476,21482
201906201634,21482,21482,21476,21477
201906201635,21477,21477,21471,21474
201906201636,21474,21479,21472,21477
201906201637,21477,21477,21468,21470
201906201638,21470,21470,21466,21467
201906201639,21467,21467,21467,21467
201906201640,21467,21471,21461,21462
201906201641,21462,21465,21461,21465
201906201642,21465,21467,21461,21462
201906201643,21462,21468,21461,21467
201906201644,21467,21467,21462,21462
201906201645,21462,21467,21462,21467
201906201646,21467,21467,21461,21461
201906201647,21461,21467,21461,21462
201906201648,21462,21462,21452,21454
201906201649,21455,21456,21451,21452
201906201650,21452,21456,21451,21452
201906201651,21452,21452,21446,21448
201906201652,21448,21449,21446,21447
201906201653,21450,21452,21446,21452
201906201654,21452,21455,21449,21451
201906201655,21453,21453,21448,21451
201906201656,21451,21452,21451,21451
201906201657,21451,21454,21451,21452
201906201658,21452,21452,21449,21451
201906201659,21451,21452,21446,21447
201906201700,21447,21452,21447,21452
201906201701,21452,21452,21451,21452
201906201702,21452,21454,21451,21452
201906201703,21453,21453,21451,21452
201906201704,21452,21452,21452,21452
201906201705,21452,21452,21452,21452
201906201706,21452,21452,21452,21452
201906201707,21452,21456,21451,21452
201906201708,21452,21456,21451,21452
201906201709,21451,21456,21451,21456
201906201710,21456,21457,21456,21457
201906201711,21457,21461,21456,21460
201906201712,21460,21462,21460,21462
201906201713,21462,21464,21461,21462
201906201714,21462,21462,21457,21457
201906201715,21457,21461,21456,21460
201906201716,21460,21461,21456,21458
201906201717,21458,21459,21451,21452
201906201718,21452,21457,21452,21457
201906201719,21457,21457,21456,21456
201906201720,21456,21457,21455,21457
201906201721,21457,21459,21456,21459
201906201722,21459,21460,21459,21460
201906201723,21460,21461,21460,21460
201906201724,21460,21461,21460,21461
201906201725,21461,21461,21460,21461
201906201726,21461,21462,21461,21462
201906201727,21462,21463,21462,21462
201906201728,21462,21466,21461,21466
201906201729,21466,21467,21462,21462
201906201730,21462,21466,21461,21465
201906201731,21465,21470,21465,21466
201906201732,21466,21475,21466,21475
201906201733,21475,21479,21474,21478
201906201734,21479,21486,21477,21486
201906201735,21486,21489,21486,21487
201906201736,21487,21487,21483,21486
201906201737,21486,21489,21481,21482
201906201738,21482,21482,21476,21478
201906201739,21478,21481,21477,21477
201906201740,21478,21492,21478,21487
201906201741,21487,21491,21486,21491
201906201742,21491,21495,21491,21495
201906201743,21495,21501,21495,21501
201906201744,21501,21510,21501,21509
201906201745,21509,21512,21506,21512
201906201746,21512,21512,21506,21507
201906201747,21507,21512,21506,21511
201906201748,21511,21511,21506,21507
201906201749,21507,21512,21506,21512
201906201750,21512,21513,21510,21512
201906201751,21512,21512,21512,21512
201906201752,21512,21512,21507,21508
201906201753,21508,21509,21506,21507
201906201754,21507,21507,21502,21504
201906201755,21504,21505,21503,21505
201906201756,21505,21505,21502,21502
201906201757,21502,21506,21501,21503
201906201758,21503,21506,21502,21505
201906201759,21505,21506,21503,21504
201906201800,21504,21504,21502,21504
201906201801,21504,21505,21504,21505
201906201802,21505,21508,21505,21506
201906201803,21506,21506,21504,21505
201906201804,21505,21507,21504,21507
201906201805,21507,21509,21506,21507
201906201806,21507,21509,21506,21507
201906201807,21507,21507,21507,21507
201906201808,21507,21509,21506,21507
201906201809,21507,21508,21507,21507
201906201810,21507,21509,21506,21509
201906201811,21508,21510,21507,21510
201906201812,21510,21515,21510,21515
201906201813,21515,21516,21515,21516
201906201814,21516,21522,21516,21522
201906201815,21522,21522,21516,21517
201906201816,21517,21522,21517,21521
201906201817,21521,21521,21520,21521
201906201818,21521,21525,21521,21524
201906201819,21524,21526,21523,21526
201906201820,21526,21527,21522,21524
201906201821,21524,21524,21521,21522
201906201822,21522,21522,21521,21521
201906201823,21521,21521,21516,21517
201906201824,21517,21518,21516,21517
201906201825,21517,21519,21516,21516
201906201826,21518,21530,21516,21527
201906201827,21527,21532,21527,21532
201906201828,21532,21534,21531,21534
201906201829,21534,21534,21530,21532
201906201830,21532,21542,21532,21542
201906201831,21542,21543,21541,21542
201906201832,21542,21542,21542,21542
201906201833,21542,21542,21542,21542
201906201834,21542,21542,21542,21542
201906201835,21542,21547,21542,21547
201906201836,21547,21547,21542,21544
201906201837,21544,21546,21542,21542
201906201838,21542,21542,21542,21542
201906201839,21542,21542,21542,21542
201906201840,21542,21542,21542,21542
201906201841,21542,21542,21542,21542
201906201842,21542,21542,21541,21542
201906201843,21542,21544,21541,21542
201906201844,21542,21546,21542,21546
201906201845,21546,21546,21541,21544
201906201846,21544,21545,21541,21545
201906201847,21545,21545,21544,21545
201906201848,21545,21546,21544,21545
201906201849,21545,21546,21544,21545
201906201850,21545,21545,21543,21544
201906201851,21544,21545,21541,21544
201906201852,21544,21544,21541,21544
201906201853,21544,21545,21543,21545
201906201854,21545,21550,21545,21550
201906201855,21550,21553,21550,21552
201906201856,21552,21552,21552,21552
201906201857,21552,21552,21551,21552
201906201858,21552,21552,21552,21552
201906201859,21552,21552,21552,21552
201906201900,21552,21552,21552,21552
201906201901,21552,21552,21551,21551
201906201902,21551,21552,21551,21551
201906201903,21551,21552,21551,21551
201906201904,21551,21552,21551,21552
201906201905,21552,21554,21552,21552
201906201906,21552,21552,21552,21552
201906201907,21552,21552,21552,21552
201906201908,21552,21557,21552,21557
201906201909,21557,21557,21553,21553
201906201910,21553,21555,21551,21554
201906201911,21554,21556,21553,21555
201906201912,21555,21555,21551,21552
201906201913,21552,21555,21551,21555
201906201914,21555,21555,21553,21555
201906201915,21555,21557,21554,21556
201906201916,21556,21557,21556,21556
201906201917,21556,21557,21555,21556
201906201918,21556,21556,21555,21555
201906201919,21555,21556,21555,21556
201906201920,21556,21556,21555,21556
201906201921,21556,21556,21554,21555
201906201922,21555,21555,21553,21555
201906201923,21555,21556,21555,21556
201906201924,21556,21566,21556,21562
201906201925,21562,21562,21561,21562
201906201926,21562,21567,21562,21567
201906201927,21567,21567,21562,21562
201906201928,21562,21566,21562,21563
201906201929,21564,21565,21562,21564
201906201930,21564,21566,21563,21564
201906201931,21564,21564,21562,21562
201906201932,21562,21562,21561,21561
201906201933,21561,21561,21557,21557
201906201934,21557,21557,21556,21556
201906201935,21556,21556,21552,21552
201906201936,21552,21554,21552,21552
201906201937,21552,21552,21552,21552
201906201938,21552,21552,21552,21552
201906201939,21552,21552,21552,21552
201906201940,21552,21552,21547,21547
201906201941,21547,21547,21547,21547
201906201942,21547,21547,21547,21547
201906201943,21547,21548,21547,21547
201906201944,21547,21548,21546,21547
201906201945,21547,21548,21547,21547
201906201946,21546,21551,21546,21551
201906201947,21551,21552,21551,21552
201906201948,21552,21552,21552,21552
201906201949,21552,21552,21546,21547
201906201950,21547,21547,21547,21547
201906201951,21547,21547,21547,21547
201906201952,21547,21547,21547,21547
201906201953,21547,21550,21547,21550
201906201954,21550,21551,21550,21550
201906201955,21551,21551,21550,21551
201906201956,21551,21554,21551,21552
201906201957,21552,21552,21552,21552
201906201958,21552,21552,21547,21548
201906201959,21548,21550,21546,21547
201906202000,21547,21547,21536,21539
201906202001,21538,21542,21536,21541
201906202002,21541,21545,21541,21542
201906202003,21542,21542,21540,21542
201906202004,21542,21544,21541,21542
201906202005,21542,21545,21541,21544
201906202006,21542,21544,21542,21543
201906202007,21543,21545,21541,21545
201906202008,21545,21549,21545,21547
201906202009,21547,21547,21542,21542
201906202010,21542,21543,21541,21542
201906202011,21542,21542,21542,21542
201906202012,21542,21545,21541,21542
201906202013,21542,21542,21542,21542
201906202014,21542,21542,21539,21542
201906202015,21542,21542,21537,21537
201906202016,21537,21541,21537,21541
201906202017,21541,21545,21541,21545
201906202018,21545,21545,21544,21544
201906202019,21544,21545,21542,21543
201906202020,21543,21545,21541,21544
201906202021,21544,21544,21541,21542
201906202022,21542,21544,21541,21544
201906202023,21544,21545,21544,21545
201906202024,21545,21551,21545,21551
201906202025,21551,21552,21551,21551
201906202026,21551,21552,21551,21552
201906202027,21552,21552,21551,21552
201906202028,21552,21552,21549,21549
201906202029,21549,21549,21546,21547
201906202030,21547,21551,21547,21551
201906202031,21550,21552,21550,21551
201906202032,21551,21551,21550,21551
201906202033,21551,21551,21550,21550
201906202034,21550,21552,21550,21552
201906202035,21552,21552,21551,21552
201906202036,21552,21556,21552,21555
201906202037,21555,21557,21555,21556
201906202038,21556,21557,21556,21556
201906202039,21556,21562,21556,21561
201906202040,21562,21563,21561,21562
201906202041,21562,21565,21561,21562
201906202042,21562,21566,21561,21565
201906202043,21565,21566,21565,21565
201906202044,21566,21566,21565,21566
201906202045,21566,21566,21566,21566
201906202046,21566,21566,21566,21566
201906202047,21566,21566,21562,21562
201906202048,21562,21562,21556,21557
201906202049,21557,21557,21557,21557
201906202050,21557,21557,21557,21557
201906202051,21557,21557,21556,21557
201906202052,21557,21557,21556,21557
201906202053,21557,21557,21556,21557
201906202054,21556,21557,21556,21557
201906202055,21557,21557,21556,21557
201906202056,21557,21557,21551,21556
201906202057,21556,21556,21552,21552
201906202058,21552,21555,21552,21553
201906202059,21552,21553,21551,21552
201906202100,21552,21555,21552,21552
201906202101,21552,21552,21547,21547
201906202102,21547,21550,21546,21546
201906202103,21548,21551,21546,21551
201906202104,21551,21551,21546,21548
201906202105,21548,21552,21548,21550
201906202106,21550,21550,21546,21547
201906202107,21547,21547,21547,21547
201906202108,21547,21547,21547,21547
201906202109,21547,21547,21547,21547
201906202110,21547,21551,21546,21547
201906202111,21547,21547,21547,21547
201906202112,21547,21547,21547,21547
201906202113,21547,21550,21546,21547
201906202114,21547,21550,21547,21547
201906202115,21547,21551,21547,21547
201906202116,21547,21547,21547,21547
201906202117,21547,21547,21547,21547
201906202118,21547,21547,21541,21543
201906202119,21543,21543,21541,21542
201906202120,21542,21548,21541,21543
201906202121,21543,21546,21542,21545
201906202122,21545,21546,21544,21546
201906202123,21546,21551,21546,21550
201906202124,21550,21551,21548,21549
201906202125,21550,21551,21548,21548
201906202126,21548,21551,21548,21551
201906202127,21551,21551,21548,21548
201906202128,21548,21550,21548,21549
201906202129,21549,21549,21546,21547
201906202130,21547,21548,21541,21546
201906202131,21546,21554,21546,21551
201906202132,21551,21560,21551,21559
201906202133,21560,21566,21556,21563
201906202134,21563,21564,21560,21563
201906202135,21563,21564,21560,21562
201906202136,21562,21562,21561,21562
201906202137,21562,21562,21556,21559
201906202138,21558,21561,21556,21558
201906202139,21558,21561,21558,21560
201906202140,21560,21561,21557,21560
201906202141,21560,21560,21556,21559
201906202142,21560,21562,21559,21561
201906202143,21561,21561,21559,21561
201906202144,21561,21562,21560,21561
201906202145,21561,21561,21560,21561
201906202146,21561,21561,21560,21560
201906202147,21560,21561,21559,21560
201906202148,21560,21560,21557,21557
201906202149,21557,21557,21557,21557
201906202150,21557,21557,21557,21557
201906202151,21557,21557,21557,21557
201906202152,21557,21557,21557,21557
201906202153,21557,21557,21557,21557
201906202154,21557,21557,21557,21557
201906202155,21557,21557,21556,21556
201906202156,21556,21556,21551,21555
201906202157,21555,21556,21555,21556
201906202158,21555,21555,21552,21554
201906202159,21554,21554,21551,21552
201906202200,21552,21555,21552,21554
201906202201,21554,21560,21554,21560
201906202202,21559,21560,21559,21560
201906202203,21560,21565,21560,21563
201906202204,21563,21565,21560,21564
201906202205,21564,21564,21561,21564
201906202206,21564,21564,21562,21562
201906202207,21562,21562,21562,21562
201906202208,21562,21562,21562,21562
201906202209,21562,21562,21556,21557
201906202210,21557,21557,21552,21556
201906202211,21556,21557,21556,21556
201906202212,21556,21557,21551,21552
201906202213,21552,21556,21551,21555
201906202214,21556,21556,21551,21555
201906202215,21555,21556,21551,21552
201906202216,21552,21552,21551,21552
201906202217,21552,21556,21551,21556
201906202218,21556,21556,21552,21552
201906202219,21552,21552,21546,21547
201906202220,21547,21549,21547,21547
201906202221,21547,21547,21547,21547
201906202222,21547,21551,21547,21549
201906202223,21549,21549,21547,21548
201906202224,21548,21551,21546,21548
201906202225,21548,21551,21546,21551
201906202226,21551,21553,21551,21552
201906202227,21552,21552,21551,21551
201906202228,21551,21551,21546,21547
201906202229,21547,21547,21547,21547
201906202230,21547,21553,21546,21548
201906202231,21549,21550,21541,21542
201906202232,21542,21547,21541,21542
201906202233,21542,21542,21532,21532
201906202234,21532,21541,21532,21534
201906202235,21534,21535,21532,21532
201906202236,21532,21532,21526,21527
201906202237,21527,21531,21527,21527
201906202238,21527,21530,21526,21527
201906202239,21527,21533,21527,21533
201906202240,21532,21536,21531,21536
201906202241,21536,21536,21531,21533
201906202242,21531,21533,21531,21532
201906202243,21532,21535,21531,21531
201906202244,21531,21531,21526,21527
201906202245,21527,21531,21526,21527
201906202246,21527,21529,21527,21529
201906202247,21530,21532,21526,21532
201906202248,21531,21536,21531,21534
201906202249,21534,21536,21531,21532
201906202250,21532,21535,21531,21535
201906202251,21535,21536,21532,21535
201906202252,21536,21537,21536,21537
201906202253,21537,21537,21528,21532
201906202254,21532,21537,21531,21537
201906202255,21537,21541,21537,21541
201906202256,21541,21541,21533,21533
201906202257,21534,21535,21531,21535
201906202258,21535,21535,21531,21532
201906202259,21532,21532,21522,21522
201906202300,21522,21522,21517,21518
201906202301,21518,21530,21518,21528
201906202302,21526,21530,21526,21529
201906202303,21529,21530,21526,21528
201906202304,21528,21529,21518,21522
201906202305,21522,21522,21517,21521
201906202306,21521,21521,21511,21513
201906202307,21511,21514,21511,21512
201906202308,21512,21515,21511,21512
201906202309,21512,21515,21511,21512
201906202310,21512,21513,21506,21507
201906202311,21507,21512,21506,21512
201906202312,21512,21515,21510,21510
201906202313,21510,21510,21502,21502
201906202314,21502,21504,21496,21497
201906202315,21497,21500,21492,21492
201906202316,21492,21492,21486,21487
201906202317,21487,21487,21481,21482
201906202318,21482,21486,21481,21482
201906202319,21482,21482,21474,21475
201906202320,21475,21475,21461,21462
201906202321,21462,21466,21461,21462
201906202322,21462,21462,21461,21461
201906202323,21461,21470,21461,21468
201906202324,21468,21473,21468,21473
201906202325,21473,21481,21473,21477
201906202326,21477,21478,21471,21472
201906202327,21472,21472,21466,21467
201906202328,21467,21467,21462,21467
201906202329,21467,21467,21456,21461
201906202330,21461,21462,21455,21455
201906202331,21455,21456,21451,21455
201906202332,21455,21455,21448,21452
201906202333,21452,21452,21447,21448
201906202334,21448,21449,21436,21438
201906202335,21438,21442,21436,21442
201906202336,21442,21442,21431,21432
201906202337,21432,21432,21422,21427
201906202338,21427,21427,21421,21425
201906202339,21425,21427,21424,21427
201906202340,21427,21427,21421,21422
201906202341,21422,21427,21421,21427
201906202342,21427,21431,21421,21424
201906202343,21425,21431,21425,21430
201906202344,21430,21432,21427,21432
201906202345,21432,21432,21426,21431
201906202346,21431,21434,21430,21431
201906202347,21431,21431,21422,21424
201906202348,21424,21430,21422,21429
201906202349,21429,21429,21426,21427
201906202350,21427,21436,21426,21436
201906202351,21436,21436,21426,21429
201906202352,21430,21434,21430,21433
201906202353,21433,21435,21431,21432
201906202354,21432,21434,21426,21427
201906202355,21427,21428,21426,21426
201906202356,21426,21427,21421,21422
201906202357,21422,21422,21408,21411
201906202358,21411,21416,21411,21416
201906202359,21416,21416,21401,21402
201906210000,21402,21414,21402,21410
201906210001,21410,21414,21405,21414
201906210002,21414,21417,21411,21411
201906210003,21411,21412,21406,21407
201906210004,21407,21409,21401,21406
201906210005,21407,21411,21407,21410
201906210006,21411,21412,21411,21411
201906210007,21411,21416,21411,21414
201906210008,21414,21416,21413,21415
201906210009,21415,21420,21415,21417
201906210010,21417,21420,21416,21417
201906210011,21416,21422,21416,21421
201906210012,21421,21421,21416,21417
201906210013,21417,21417,21411,21412
201906210014,21412,21412,21401,21402
201906210015,21402,21402,21391,21395
201906210016,21394,21397,21394,21397
201906210017,21396,21402,21391,21396
201906210018,21396,21397,21391,21392
201906210019,21392,21392,21392,21392
201906210020,21392,21392,21392,21392
201906210021,21392,21392,21382,21385
201906210022,21385,21391,21385,21391
201906210023,21391,21397,21391,21396
201906210024,21396,21396,21391,21394
201906210025,21394,21396,21391,21396
201906210026,21395,21396,21394,21395
201906210027,21395,21395,21386,21387
201906210028,21387,21389,21381,21384
201906210029,21383,21386,21381,21385
201906210030,21383,21392,21381,21391
201906210031,21392,21392,21389,21390
201906210032,21390,21390,21382,21383
201906210033,21383,21385,21377,21382
201906210034,21381,21381,21376,21376
201906210035,21376,21382,21372,21382
201906210036,21382,21382,21376,21377
201906210037,21377,21382,21376,21382
201906210038,21382,21386,21381,21384
201906210039,21384,21390,21384,21388
201906210040,21388,21391,21386,21387
201906210041,21387,21387,21384,21385
201906210042,21385,21386,21381,21382
201906210043,21382,21386,21381,21386
201906210044,21386,21397,21386,21396
201906210045,21396,21402,21391,21402
201906210046,21402,21403,21401,21402
201906210047,21402,21405,21401,21402
201906210048,21402,21407,21401,21407
201906210049,21407,21407,21401,21401
201906210050,21401,21407,21401,21406
201906210051,21406,21407,21406,21407
201906210052,21407,21407,21406,21407
201906210053,21407,21411,21406,21407
201906210054,21406,21407,21406,21407
201906210055,21407,21407,21406,21407
201906210056,21407,21407,21405,21406
201906210057,21406,21407,21406,21406
201906210058,21406,21406,21392,21392
201906210059,21392,21396,21390,21391
201906210100,21391,21396,21391,21392
201906210101,21392,21392,21386,21387
201906210102,21386,21391,21386,21388
201906210103,21388,21390,21386,21389
201906210104,21389,21389,21386,21387
201906210105,21387,21389,21386,21387
201906210106,21387,21391,21386,21391
201906210107,21391,21392,21386,21388
201906210108,21388,21389,21386,21387
201906210109,21387,21388,21371,21371
201906210110,21371,21372,21339,21342
201906210111,21341,21352,21341,21352
201906210112,21352,21352,21346,21347
201906210113,21347,21347,21333,21335
201906210114,21335,21336,21327,21328
201906210115,21328,21329,21316,21321
201906210116,21320,21325,21312,21312
201906210117,21312,21326,21311,21321
201906210118,21321,21321,21312,21312
201906210119,21312,21313,21301,21312
201906210120,21312,21317,21306,21317
201906210121,21317,21317,21306,21316
201906210122,21316,21317,21311,21313
201906210123,21313,21326,21313,21326
201906210124,21327,21342,21321,21342
201906210125,21342,21346,21333,21336
201906210126,21336,21357,21336,21352
201906210127,21352,21352,21341,21347
201906210128,21347,21351,21346,21347
201906210129,21347,21354,21346,21351
201906210130,21351,21354,21346,21352
201906210131,21352,21355,21347,21353
201906210132,21353,21362,21353,21355
201906210133,21355,21355,21346,21347
201906210134,21347,21347,21341,21345
201906210135,21345,21345,21337,21341
201906210136,21341,21348,21338,21347
201906210137,21346,21347,21341,21346
201906210138,21346,21352,21344,21347
201906210139,21347,21349,21343,21346
201906210140,21345,21350,21341,21347
201906210141,21347,21351,21345,21351
201906210142,21351,21358,21350,21356
201906210143,21356,21356,21350,21356
201906210144,21356,21360,21351,21356
201906210145,21356,21357,21349,21350
201906210146,21351,21356,21351,21352
201906210147,21352,21357,21351,21355
201906210148,21355,21356,21351,21353
201906210149,21353,21357,21351,21355
201906210150,21355,21359,21351,21353
201906210151,21353,21357,21351,21354
201906210152,21354,21355,21351,21354
201906210153,21354,21354,21351,21351
201906210154,21351,21352,21343,21345
201906210155,21345,21346,21337,21340
201906210156,21341,21349,21340,21349
201906210157,21349,21353,21348,21352
201906210158,21352,21354,21350,21351
201906210159,21351,21359,21346,21346
201906210200,21347,21357,21345,21356
201906210201,21356,21356,21350,21350
201906210202,21350,21352,21346,21350
201906210203,21350,21354,21350,21354
201906210204,21354,21362,21354,21355
201906210205,21355,21357,21351,21355
201906210206,21355,21357,21351,21357
201906210207,21357,21362,21354,21362
201906210208,21358,21366,21356,21361
201906210209,21361,21365,21360,21362
201906210210,21362,21362,21357,21357
201906210211,21357,21361,21356,21361
201906210212,21361,21362,21360,21360
201906210213,21360,21360,21355,21359
201906210214,21359,21362,21356,21359
201906210215,21361,21362,21358,21358
201906210216,21358,21359,21354,21354
201906210217,21354,21361,21354,21361
201906210218,21361,21362,21357,21359
201906210219,21359,21362,21355,21360
201906210220,21360,21365,21360,21365
201906210221,21365,21367,21364,21365
201906210222,21365,21367,21360,21360
201906210223,21360,21365,21360,21365
201906210224,21365,21370,21365,21370
201906210225,21370,21371,21369,21370
201906210226,21370,21376,21370,21376
201906210227,21376,21385,21376,21381
201906210228,21381,21392,21380,21391
201906210229,21391,21392,21391,21392
201906210230,21392,21392,21385,21390
201906210231,21390,21392,21390,21392
201906210232,21392,21392,21383,21387
201906210233,21387,21389,21385,21387
201906210234,21387,21387,21381,21385
201906210235,21385,21385,21379,21380
201906210236,21380,21380,21379,21380
201906210237,21380,21381,21375,21380
201906210238,21380,21380,21376,21380
201906210239,21380,21381,21377,21380
201906210240,21380,21381,21375,21381
201906210241,21381,21381,21378,21379
201906210242,21379,21380,21376,21376
201906210243,21376,21377,21370,21376
201906210244,21376,21379,21375,21377
201906210245,21377,21377,21375,21377
201906210246,21377,21379,21375,21379
201906210247,21379,21379,21375,21376
201906210248,21376,21377,21374,21377
201906210249,21377,21379,21375,21379
201906210250,21379,21382,21376,21382
201906210251,21382,21382,21381,21381
201906210252,21382,21382,21376,21377
201906210253,21377,21381,21375,21381
201906210254,21381,21382,21376,21381
201906210255,21381,21382,21376,21382
201906210256,21382,21382,21375,21381
201906210257,21381,21382,21376,21382
201906210258,21382,21382,21382,21382
201906210259,21382,21382,21379,21379
201906210300,21379,21382,21374,21382
201906210301,21382,21387,21380,21381
201906210302,21381,21387,21380,21382
201906210303,21382,21387,21380,21387
201906210304,21387,21387,21383,21387
201906210305,21387,21387,21384,21387
201906210306,21387,21387,21380,21384
201906210307,21384,21389,21384,21386
201906210308,21386,21390,21384,21390
201906210309,21390,21392,21385,21391
201906210310,21391,21392,21385,21386
201906210311,21386,21387,21385,21386
201906210312,21386,21391,21385,21387
201906210313,21387,21392,21386,21389
201906210314,21389,21401,21386,21399
201906210315,21399,21402,21395,21402
201906210316,21402,21402,21400,21402
201906210317,21402,21402,21401,21402
201906210318,21402,21406,21400,21406
201906210319,21406,21407,21401,21406
201906210320,21406,21407,21401,21402
201906210321,21402,21406,21400,21401
201906210322,21401,21402,21400,21402
201906210323,21402,21402,21397,21399
201906210324,21399,21402,21397,21399
201906210325,21399,21402,21399,21401
201906210326,21401,21402,21399,21402
201906210327,21402,21402,21400,21400
201906210328,21400,21404,21400,21402
201906210329,21402,21402,21401,21402
201906210330,21402,21402,21398,21400
201906210331,21400,21406,21398,21405
201906210332,21405,21407,21405,21407
201906210333,21407,21407,21401,21405
201906210334,21405,21407,21405,21406
201906210335,21406,21412,21406,21412
201906210336,21412,21412,21409,21410
201906210337,21410,21412,21410,21411
201906210338,21411,21411,21405,21411
201906210339,21411,21412,21400,21406
201906210340,21406,21406,21405,21406
201906210341,21406,21406,21400,21406
201906210342,21406,21407,21405,21406
201906210343,21406,21407,21405,21407
201906210344,21407,21407,21402,21406
201906210345,21406,21411,21406,21410
201906210346,21410,21412,21407,21411
201906210347,21411,21412,21410,21410
201906210348,21410,21412,21405,21412
201906210349,21412,21412,21410,21410
201906210350,21410,21417,21410,21416
201906210351,21416,21421,21416,21421
201906210352,21421,21421,21415,21416
201906210353,21416,21420,21414,21420
201906210354,21420,21422,21419,21422
201906210355,21422,21422,21415,21419
201906210356,21419,21420,21417,21419
201906210357,21419,21422,21419,21420
201906210358,21420,21422,21419,21420
201906210359,21420,21421,21415,21420
201906210400,21420,21420,21415,21417
201906210401,21417,21417,21410,21410
201906210402,21410,21412,21410,21412
201906210403,21412,21412,21410,21411
201906210404,21411,21412,21410,21412
201906210405,21412,21412,21401,21402
201906210406,21402,21402,21395,21401
201906210407,21401,21402,21396,21400
201906210408,21400,21407,21400,21406
201906210409,21406,21406,21401,21402
201906210410,21402,21407,21400,21407
201906210411,21407,21407,21403,21406
201906210412,21406,21408,21405,21407
201906210413,21407,21408,21406,21407
201906210414,21407,21408,21407,21407
201906210415,21407,21407,21404,21407
201906210416,21407,21407,21406,21407
201906210417,21407,21410,21406,21410
201906210418,21410,21411,21406,21407
201906210419,21407,21408,21405,21406
201906210420,21406,21412,21406,21412
201906210421,21412,21414,21410,21414
201906210422,21414,21417,21412,21416
201906210423,21416,21416,21411,21411
201906210424,21411,21411,21405,21409
201906210425,21409,21412,21409,21412
201906210426,21412,21417,21412,21417
201906210427,21417,21422,21416,21422
201906210428,21422,21427,21420,21424
201906210429,21424,21424,21420,21422
201906210430,21422,21425,21420,21425
201906210431,21425,21425,21415,21417
201906210432,21417,21420,21416,21417
201906210433,21417,21418,21416,21417
201906210434,21417,21417,21415,21416
201906210435,21415,21417,21411,21416
201906210436,21416,21421,21415,21421
201906210437,21421,21422,21419,21422
201906210438,21422,21422,21420,21421
201906210439,21421,21422,21420,21420
201906210440,21420,21422,21420,21422
201906210441,21422,21427,21421,21426
201906210442,21427,21432,21426,21432
201906210443,21432,21432,21429,21430
201906210444,21430,21432,21429,21432
201906210445,21432,21432,21430,21432
201906210446,21432,21432,21430,21432
201906210447,21432,21432,21430,21432
201906210448,21432,21436,21431,21434
201906210449,21434,21439,21434,21439
201906210450,21439,21439,21435,21437
201906210451,21437,21437,21430,21432
201906210452,21432,21437,21430,21437
201906210453,21437,21440,21435,21440
201906210454,21440,21442,21436,21442
201906210455,21442,21447,21440,21446
201906210456,21444,21449,21444,21449
201906210457,21449,21450,21446,21447
201906210458,21447,21447,21440,21444
201906210459,21444,21445,21425,21427
201906210500,21427,21432,21421,21427
201906210501,21427,21432,21426,21427
201906210502,21427,21429,21426,21427
201906210503,21427,21428,21427,21427
201906210504,21427,21427,21414,21417
201906210505,21417,21420,21415,21419
201906210506,21419,21419,21418,21419
201906210507,21419,21424,21419,21423
201906210508,21423,21424,21421,21421
201906210509,21421,21422,21416,21418
201906210510,21418,21419,21416,21418
201906210511,21418,21419,21416,21419
201906210512,21419,21422,21418,21420
201906210513,21420,21421,21419,21419
201906210514,21419,21433,21418,21433
201906210515,21434,21434,21431,21432
201906210516,21432,21436,21432,21436
201906210517,21436,21436,21435,21435
201906210518,21435,21436,21435,21436
201906210519,21436,21437,21435,21437
201906210520,21437,21437,21437,21437
201906210521,21437,21437,21425,21427
201906210522,21427,21427,21425,21427
201906210523,21427,21432,21425,21426
201906210524,21425,21427,21425,21426
201906210525,21426,21428,21421,21421
201906210526,21421,21426,21421,21425
201906210527,21425,21428,21422,21422
201906210528,21422,21424,21422,21423
201906210529,21423,21427,21422,21427
201906210530,21427,21427,21415,21418
201906210531,21418,21422,21416,21421
201906210532,21421,21428,21421,21428
201906210533,21428,21428,21425,21425
201906210534,21425,21426,21425,21425
201906210535,21425,21425,21425,21425
201906210536,21425,21425,21420,21420
201906210537,21420,21420,21420,21420
201906210538,21420,21420,21420,21420
201906210539,21420,21421,21420,21420
201906210540,21421,21422,21420,21421
201906210541,21421,21422,21420,21422
201906210542,21422,21423,21420,21423
201906210543,21423,21423,21421,21422
201906210544,21422,21423,21417,21418
201906210545,21418,21422,21416,21420
201906210546,21420,21421,21416,21421
201906210547,21421,21421,21419,21419
201906210548,21419,21420,21419,21420
201906210549,21420,21422,21420,21421
201906210550,21421,21421,21421,21421
201906210551,21421,21422,21420,21420
201906210552,21420,21422,21420,21422
201906210553,21422,21422,21420,21420
201906210554,21420,21421,21417,21417
201906210555,21417,21418,21416,21417
201906210556,21417,21421,21416,21421
201906210557,21421,21421,21418,21418
201906210558,21418,21421,21418,21421
201906210559,21421,21422,21419,21419
