日時,始値(BID),高値(BID),安値(BID),終値(BID)
201906250830,21174,21177,21174,21176
201906250831,21176,21176,21166,21170
201906250832,21170,21170,21161,21167
201906250833,21167,21168,21163,21166
201906250834,21166,21167,21165,21165
201906250835,21160,21162,21158,21161
201906250836,21161,21161,21160,21161
201906250837,21161,21161,21159,21160
201906250838,21160,21162,21158,21161
201906250839,21161,21166,21161,21166
201906250840,21166,21166,21159,21161
201906250841,21161,21162,21160,21162
201906250842,21162,21163,21160,21161
201906250843,21161,21161,21155,21161
201906250844,21158,21162,21155,21161
201906250845,21165,21170,21158,21162
201906250846,21162,21162,21162,21162
201906250847,21160,21160,21156,21157
201906250848,21157,21157,21151,21152
201906250849,21152,21152,21148,21148
201906250850,21148,21151,21146,21147
201906250851,21147,21147,21142,21142
201906250852,21142,21142,21140,21141
201906250853,21141,21147,21141,21147
201906250854,21147,21152,21146,21146
201906250855,21146,21152,21146,21152
201906250856,21152,21154,21146,21150
201906250857,21150,21150,21146,21147
201906250858,21147,21156,21147,21156
201906250859,21156,21161,21156,21161
201906250900,21161,21191,21161,21177
201906250901,21176,21215,21176,21202
201906250902,21202,21212,21198,21212
201906250903,21212,21216,21209,21215
201906250904,21215,21216,21214,21215
201906250905,21215,21215,21198,21201
201906250906,21201,21204,21196,21197
201906250907,21197,21205,21196,21205
201906250908,21205,21207,21203,21206
201906250909,21206,21212,21206,21212
201906250910,21212,21220,21208,21216
201906250911,21216,21221,21215,21220
201906250912,21218,21224,21217,21222
201906250913,21222,21222,21206,21207
201906250914,21207,21210,21197,21202
201906250915,21202,21202,21191,21192
201906250916,21192,21192,21186,21187
201906250917,21187,21193,21181,21191
201906250918,21191,21195,21191,21195
201906250919,21195,21195,21186,21188
201906250920,21188,21191,21181,21190
201906250921,21190,21190,21186,21186
201906250922,21186,21194,21184,21192
201906250923,21192,21202,21191,21197
201906250924,21197,21199,21195,21197
201906250925,21197,21203,21196,21202
201906250926,21202,21207,21202,21207
201906250927,21207,21215,21207,21214
201906250928,21214,21220,21214,21220
201906250929,21220,21222,21218,21222
201906250930,21221,21222,21217,21217
201906250931,21217,21217,21209,21212
201906250932,21212,21215,21210,21215
201906250933,21215,21220,21215,21220
201906250934,21220,21220,21212,21216
201906250935,21216,21217,21216,21217
201906250936,21217,21217,21212,21212
201906250937,21212,21213,21212,21212
201906250938,21212,21217,21212,21214
201906250939,21214,21216,21213,21216
201906250940,21216,21219,21216,21217
201906250941,21217,21217,21216,21216
201906250942,21216,21217,21212,21212
201906250943,21212,21215,21206,21210
201906250944,21210,21211,21206,21211
201906250945,21211,21213,21211,21213
201906250946,21213,21217,21212,21216
201906250947,21216,21221,21216,21221
201906250948,21221,21225,21221,21221
201906250949,21221,21221,21207,21214
201906250950,21214,21220,21212,21220
201906250951,21219,21224,21219,21222
201906250952,21222,21222,21217,21222
201906250953,21222,21222,21219,21222
201906250954,21222,21222,21216,21216
201906250955,21216,21225,21216,21223
201906250956,21223,21224,21221,21221
201906250957,21221,21225,21221,21225
201906250958,21225,21229,21225,21227
201906250959,21226,21227,21226,21227
201906251000,21227,21231,21226,21231
201906251001,21231,21239,21231,21237
201906251002,21237,21242,21237,21241
201906251003,21241,21246,21241,21242
201906251004,21242,21242,21235,21236
201906251005,21236,21236,21226,21226
201906251006,21226,21227,21212,21212
201906251007,21212,21221,21212,21221
201906251008,21221,21222,21217,21217
201906251009,21217,21217,21212,21212
201906251010,21212,21212,21205,21206
201906251011,21206,21206,21198,21201
201906251012,21201,21202,21192,21200
201906251013,21200,21205,21199,21202
201906251014,21202,21202,21192,21192
201906251015,21192,21200,21192,21195
201906251016,21195,21197,21192,21194
201906251017,21194,21195,21192,21192
201906251018,21192,21192,21188,21191
201906251019,21191,21191,21187,21187
201906251020,21187,21187,21182,21182
201906251021,21182,21184,21182,21183
201906251022,21184,21184,21182,21182
201906251023,21182,21184,21182,21182
201906251024,21182,21187,21182,21187
201906251025,21187,21188,21185,21187
201906251026,21187,21194,21187,21192
201906251027,21192,21196,21191,21194
201906251028,21194,21194,21187,21191
201906251029,21190,21194,21186,21194
201906251030,21194,21194,21182,21193
201906251031,21193,21199,21191,21197
201906251032,21197,21201,21196,21197
201906251033,21197,21197,21191,21192
201906251034,21192,21197,21191,21197
201906251035,21196,21197,21191,21194
201906251036,21193,21194,21186,21187
201906251037,21187,21190,21186,21186
201906251038,21187,21196,21187,21195
201906251039,21195,21201,21195,21197
201906251040,21197,21201,21197,21199
201906251041,21199,21199,21192,21195
201906251042,21195,21196,21193,21194
201906251043,21193,21195,21187,21187
201906251044,21182,21183,21182,21182
201906251045,21182,21182,21177,21182
201906251046,21182,21189,21180,21188
201906251047,21189,21193,21186,21192
201906251048,21192,21200,21192,21197
201906251049,21197,21198,21196,21197
201906251050,21196,21196,21192,21192
201906251051,21192,21192,21187,21189
201906251052,21189,21190,21186,21186
201906251053,21186,21187,21182,21183
201906251054,21183,21183,21180,21180
201906251055,21180,21180,21175,21175
201906251056,21175,21176,21171,21173
201906251057,21173,21173,21172,21172
201906251058,21172,21176,21172,21176
201906251059,21176,21176,21162,21162
201906251100,21164,21166,21162,21164
201906251101,21164,21167,21157,21157
201906251102,21157,21162,21156,21162
201906251103,21162,21164,21162,21162
201906251104,21162,21164,21161,21163
201906251105,21163,21163,21157,21157
201906251106,21157,21161,21153,21160
201906251107,21160,21161,21147,21151
201906251108,21152,21152,21148,21152
201906251109,21152,21154,21148,21148
201906251110,21148,21150,21140,21142
201906251111,21142,21157,21142,21157
201906251112,21157,21166,21157,21165
201906251113,21165,21172,21165,21171
201906251114,21171,21175,21169,21172
201906251115,21172,21176,21169,21176
201906251116,21176,21181,21171,21175
201906251117,21175,21176,21171,21173
201906251118,21174,21174,21166,21171
201906251119,21171,21172,21170,21172
201906251120,21172,21174,21171,21171
201906251121,21171,21172,21170,21171
201906251122,21171,21171,21166,21166
201906251123,21166,21170,21162,21167
201906251124,21167,21170,21163,21169
201906251125,21169,21171,21167,21167
201906251126,21167,21170,21166,21170
201906251127,21170,21170,21166,21170
201906251128,21170,21171,21169,21170
201906251129,21170,21174,21166,21174
201906251130,21174,21174,21169,21171
201906251131,21171,21172,21170,21171
201906251132,21171,21172,21168,21170
201906251133,21170,21170,21158,21160
201906251134,21160,21162,21148,21148
201906251135,21148,21148,21142,21146
201906251136,21146,21147,21145,21146
201906251137,21146,21147,21146,21147
201906251138,21147,21147,21141,21142
201906251139,21142,21146,21141,21146
201906251140,21146,21147,21145,21147
201906251141,21146,21146,21141,21144
201906251142,21144,21147,21143,21146
201906251143,21146,21146,21144,21145
201906251144,21145,21146,21142,21142
201906251145,21142,21142,21142,21142
201906251146,21142,21142,21142,21142
201906251147,21142,21142,21142,21142
201906251148,21142,21142,21142,21142
201906251149,21142,21142,21139,21141
201906251150,21141,21142,21139,21142
201906251151,21142,21142,21137,21137
201906251152,21137,21137,21134,21134
201906251153,21135,21135,21126,21130
201906251154,21130,21131,21127,21127
201906251155,21127,21130,21126,21127
201906251156,21127,21127,21126,21126
201906251157,21126,21127,21121,21126
201906251158,21126,21126,21113,21117
201906251159,21117,21117,21111,21112
201906251200,21112,21122,21112,21122
201906251201,21122,21126,21120,21124
201906251202,21124,21125,21116,21120
201906251203,21120,21122,21118,21120
201906251204,21120,21121,21118,21121
201906251205,21121,21123,21119,21121
201906251206,21121,21125,21117,21125
201906251207,21125,21137,21125,21137
201906251208,21137,21137,21135,21137
201906251209,21137,21142,21137,21142
201906251210,21142,21142,21135,21135
201906251211,21135,21136,21131,21132
201906251212,21132,21132,21127,21127
201906251213,21127,21132,21127,21132
201906251214,21132,21136,21132,21135
201906251215,21135,21135,21129,21130
201906251216,21130,21136,21129,21136
201906251217,21136,21136,21127,21127
201906251218,21127,21130,21127,21127
201906251219,21127,21127,21127,21127
201906251220,21127,21127,21121,21122
201906251221,21122,21132,21121,21132
201906251222,21131,21132,21127,21127
201906251223,21127,21127,21121,21125
201906251224,21125,21126,21117,21119
201906251225,21119,21122,21116,21121
201906251226,21120,21120,21116,21117
201906251227,21117,21120,21117,21120
201906251228,21120,21121,21118,21120
201906251229,21120,21127,21117,21127
201906251230,21127,21127,21121,21125
201906251231,21124,21125,21116,21120
201906251232,21120,21120,21116,21117
201906251233,21117,21117,21116,21117
201906251234,21117,21117,21117,21117
201906251235,21117,21117,21117,21117
201906251236,21117,21126,21117,21126
201906251237,21126,21131,21126,21131
201906251238,21131,21136,21131,21132
201906251239,21132,21132,21131,21132
201906251240,21132,21132,21126,21130
201906251241,21130,21132,21129,21132
201906251242,21132,21132,21122,21122
201906251243,21122,21122,21121,21122
201906251244,21122,21122,21122,21122
201906251245,21122,21122,21117,21117
201906251246,21117,21117,21112,21112
201906251247,21112,21112,21107,21111
201906251248,21111,21112,21109,21110
201906251249,21110,21111,21110,21110
201906251250,21110,21111,21110,21110
201906251251,21110,21111,21108,21109
201906251252,21109,21110,21108,21109
201906251253,21109,21111,21107,21110
201906251254,21110,21110,21107,21107
201906251255,21107,21107,21107,21107
201906251256,21107,21110,21107,21107
201906251257,21107,21109,21100,21100
201906251258,21100,21102,21095,21096
201906251259,21096,21096,21092,21092
201906251300,21092,21097,21090,21096
201906251301,21096,21109,21096,21107
201906251302,21107,21111,21104,21111
201906251303,21111,21112,21106,21110
201906251304,21110,21115,21109,21115
201906251305,21115,21116,21111,21112
201906251306,21112,21115,21107,21112
201906251307,21112,21116,21111,21116
201906251308,21116,21117,21115,21117
201906251309,21117,21117,21116,21117
201906251310,21117,21126,21117,21126
201906251311,21126,21126,21116,21117
201906251312,21117,21117,21108,21115
201906251313,21116,21117,21115,21117
201906251314,21117,21117,21115,21115
201906251315,21115,21117,21113,21117
201906251316,21117,21117,21113,21115
201906251317,21115,21117,21115,21117
201906251318,21117,21120,21117,21117
201906251319,21117,21122,21117,21122
201906251320,21122,21125,21121,21125
201906251321,21125,21125,21116,21120
201906251322,21120,21120,21108,21110
201906251323,21110,21111,21106,21107
201906251324,21107,21107,21092,21097
201906251325,21097,21102,21096,21102
201906251326,21102,21102,21096,21097
201906251327,21097,21098,21086,21088
201906251328,21088,21091,21082,21082
201906251329,21082,21090,21082,21085
201906251330,21085,21086,21077,21084
201906251331,21084,21088,21081,21082
201906251332,21082,21090,21082,21090
201906251333,21090,21090,21086,21088
201906251334,21088,21091,21086,21091
201906251335,21091,21091,21086,21087
201906251336,21087,21087,21079,21082
201906251337,21082,21082,21072,21072
201906251338,21072,21072,21068,21069
201906251339,21070,21071,21063,21065
201906251340,21065,21073,21065,21072
201906251341,21072,21077,21072,21075
201906251342,21075,21077,21074,21076
201906251343,21076,21081,21076,21081
201906251344,21081,21081,21080,21081
201906251345,21081,21082,21077,21077
201906251346,21077,21077,21077,21077
201906251347,21077,21077,21072,21072
201906251348,21072,21077,21067,21077
201906251349,21077,21078,21073,21075
201906251350,21075,21085,21075,21085
201906251351,21085,21086,21079,21079
201906251352,21080,21080,21077,21077
201906251353,21077,21081,21077,21080
201906251354,21080,21080,21062,21064
201906251355,21063,21067,21061,21067
201906251356,21067,21068,21066,21066
201906251357,21066,21066,21065,21065
201906251358,21065,21066,21056,21059
201906251359,21057,21059,21057,21057
201906251400,21057,21059,21046,21054
201906251401,21054,21055,21046,21046
201906251402,21046,21055,21042,21053
201906251403,21053,21057,21047,21057
201906251404,21057,21060,21056,21060
201906251405,21060,21072,21060,21072
201906251406,21072,21075,21072,21072
201906251407,21072,21078,21071,21077
201906251408,21077,21081,21076,21081
201906251409,21081,21087,21080,21084
201906251410,21084,21084,21081,21084
201906251411,21084,21084,21078,21078
201906251412,21079,21081,21076,21081
201906251413,21081,21082,21081,21082
201906251414,21082,21086,21081,21084
201906251415,21084,21086,21081,21082
201906251416,21082,21085,21081,21082
201906251417,21082,21084,21081,21082
201906251418,21082,21085,21081,21084
201906251419,21084,21086,21083,21086
201906251420,21086,21092,21085,21092
201906251421,21092,21092,21087,21090
201906251422,21090,21091,21087,21090
201906251423,21090,21091,21086,21087
201906251424,21087,21092,21086,21091
201906251425,21091,21092,21091,21092
201906251426,21092,21092,21091,21092
201906251427,21092,21092,21092,21092
201906251428,21092,21092,21091,21091
201906251429,21091,21092,21087,21089
201906251430,21089,21089,21087,21087
201906251431,21087,21087,21086,21087
201906251432,21087,21087,21087,21087
201906251433,21087,21091,21087,21091
201906251434,21091,21097,21091,21097
201906251435,21097,21102,21097,21102
201906251436,21102,21102,21096,21097
201906251437,21097,21097,21087,21087
201906251438,21087,21088,21087,21087
201906251439,21087,21089,21087,21089
201906251440,21088,21091,21087,21087
201906251441,21087,21087,21086,21086
201906251442,21086,21087,21086,21087
201906251443,21087,21087,21086,21087
201906251444,21087,21089,21086,21089
201906251445,21088,21089,21087,21087
201906251446,21087,21092,21086,21091
201906251447,21091,21094,21091,21092
201906251448,21092,21097,21092,21097
201906251449,21097,21102,21096,21100
201906251450,21100,21100,21091,21098
201906251451,21099,21101,21098,21101
201906251452,21101,21109,21101,21107
201906251453,21107,21111,21107,21111
201906251454,21111,21111,21110,21111
201906251455,21111,21111,21106,21107
201906251456,21107,21109,21107,21107
201906251457,21106,21107,21101,21105
201906251458,21105,21106,21097,21097
201906251459,21097,21109,21097,21107
201906251500,21108,21117,21108,21111
201906251501,21111,21112,21106,21107
201906251502,21107,21120,21107,21116
201906251503,21116,21120,21116,21117
201906251504,21117,21117,21115,21117
201906251505,21117,21117,21101,21102
201906251506,21102,21107,21101,21102
201906251507,21102,21102,21100,21100
201906251508,21100,21102,21096,21097
201906251509,21097,21101,21096,21097
201906251510,21097,21101,21096,21097
201906251511,21097,21097,21091,21092
201906251512,21092,21092,21086,21087
201906251513,21087,21088,21086,21086
201906251514,21086,21086,21080,21082
201906251515,21082,21097,21081,21097
201906251516,21097,21101,21091,21097
201906251517,21097,21097,21086,21087
201906251518,21087,21087,21080,21082
201906251519,21082,21082,21077,21077
201906251520,21077,21077,21065,21072
201906251521,21072,21077,21066,21066
201906251522,21066,21074,21066,21074
201906251523,21074,21075,21068,21070
201906251524,21070,21077,21069,21077
201906251525,21076,21081,21068,21078
201906251526,21078,21082,21075,21075
201906251527,21075,21077,21074,21076
201906251528,21077,21082,21075,21082
201906251529,21082,21087,21080,21082
201906251530,21082,21085,21075,21077
201906251531,21077,21077,21075,21077
201906251532,21077,21077,21075,21076
201906251533,21076,21076,21073,21075
201906251534,21075,21077,21073,21077
201906251535,21077,21081,21075,21079
201906251536,21079,21081,21075,21079
201906251537,21079,21079,21076,21079
201906251538,21079,21079,21076,21076
201906251539,21076,21086,21075,21086
201906251540,21086,21087,21075,21076
201906251541,21076,21081,21076,21080
201906251542,21080,21081,21076,21076
201906251543,21076,21077,21075,21076
201906251544,21076,21081,21076,21080
201906251545,21080,21081,21079,21081
201906251546,21081,21081,21075,21076
201906251547,21076,21077,21076,21077
201906251548,21077,21081,21075,21075
201906251549,21075,21082,21075,21078
201906251550,21077,21077,21075,21076
201906251551,21076,21081,21076,21080
201906251552,21080,21082,21080,21082
201906251553,21082,21086,21082,21083
201906251554,21083,21087,21083,21087
201906251555,21083,21088,21083,21085
201906251556,21085,21088,21082,21083
201906251557,21083,21086,21082,21082
201906251558,21082,21086,21080,21086
201906251559,21085,21096,21085,21096
201906251600,21096,21101,21091,21096
201906251601,21096,21097,21085,21091
201906251602,21091,21091,21081,21091
201906251603,21091,21097,21085,21085
201906251604,21085,21097,21084,21097
201906251605,21097,21101,21090,21101
201906251606,21101,21101,21091,21096
201906251607,21096,21097,21085,21086
201906251608,21086,21087,21080,21086
201906251609,21086,21091,21086,21090
201906251610,21090,21097,21088,21096
201906251611,21096,21102,21095,21101
201906251612,21102,21107,21099,21106
201906251613,21106,21111,21105,21106
201906251614,21106,21111,21104,21104
201906251615,21104,21107,21101,21105
201906251616,21105,21106,21091,21094
201906251617,21094,21101,21092,21092
201906251618,21092,21094,21090,21093
201906251619,21093,21093,21090,21091
201906251620,21091,21092,21085,21091
201906251621,21091,21091,21085,21085
201906251622,21085,21087,21080,21080
201906251623,21080,21087,21080,21080
201906251624,21080,21087,21080,21085
201906251625,21085,21092,21085,21092
201906251626,21092,21097,21092,21096
201906251627,21096,21097,21091,21092
201906251628,21092,21097,21091,21096
201906251629,21096,21096,21090,21091
201906251630,21095,21096,21091,21091
201906251631,21092,21096,21090,21096
201906251632,21096,21101,21095,21099
201906251633,21100,21102,21097,21101
201906251634,21101,21102,21098,21102
201906251635,21102,21102,21096,21098
201906251636,21097,21097,21096,21097
201906251637,21097,21097,21091,21092
201906251638,21092,21096,21092,21096
201906251639,21096,21096,21091,21096
201906251640,21096,21096,21091,21092
201906251641,21092,21093,21091,21092
201906251642,21092,21092,21089,21092
201906251643,21092,21095,21091,21095
201906251644,21095,21095,21093,21094
201906251645,21094,21094,21086,21087
201906251646,21087,21087,21087,21087
201906251647,21087,21087,21086,21086
201906251648,21086,21086,21082,21086
201906251649,21086,21086,21083,21084
201906251650,21084,21086,21082,21086
201906251651,21086,21086,21081,21082
201906251652,21082,21084,21082,21084
201906251653,21084,21085,21082,21085
201906251654,21085,21087,21085,21087
201906251655,21087,21090,21086,21090
201906251656,21090,21091,21090,21091
201906251657,21091,21095,21091,21093
201906251658,21093,21097,21093,21097
201906251659,21097,21099,21094,21099
201906251700,21096,21102,21096,21102
201906251701,21102,21102,21100,21101
201906251702,21101,21107,21101,21107
201906251703,21107,21107,21107,21107
201906251704,21107,21107,21107,21107
201906251705,21107,21107,21107,21107
201906251706,21107,21111,21107,21111
201906251707,21111,21112,21110,21110
201906251708,21110,21110,21102,21104
201906251709,21104,21108,21104,21107
201906251710,21107,21107,21104,21105
201906251711,21105,21106,21101,21102
201906251712,21102,21102,21098,21099
201906251713,21098,21100,21096,21100
201906251714,21100,21101,21099,21101
201906251715,21101,21102,21101,21101
201906251716,21101,21101,21096,21097
201906251717,21097,21097,21091,21093
201906251718,21093,21094,21092,21094
201906251719,21094,21096,21092,21092
201906251720,21092,21092,21091,21092
201906251721,21092,21104,21091,21102
201906251722,21102,21102,21096,21101
201906251723,21101,21102,21098,21098
201906251724,21098,21102,21098,21101
201906251725,21101,21104,21101,21104
201906251726,21104,21104,21102,21103
201906251727,21103,21105,21101,21103
201906251728,21103,21103,21101,21102
201906251729,21102,21104,21101,21103
201906251730,21103,21111,21103,21111
201906251731,21111,21116,21111,21116
201906251732,21116,21120,21116,21117
201906251733,21117,21117,21116,21116
201906251734,21116,21121,21116,21120
201906251735,21120,21132,21120,21132
201906251736,21132,21132,21127,21132
201906251737,21132,21134,21131,21133
201906251738,21133,21135,21130,21131
201906251739,21131,21135,21131,21134
201906251740,21135,21136,21131,21132
201906251741,21132,21135,21126,21128
201906251742,21128,21129,21126,21129
201906251743,21128,21129,21126,21129
201906251744,21129,21130,21128,21130
201906251745,21129,21130,21126,21127
201906251746,21127,21127,21122,21122
201906251747,21122,21126,21121,21126
201906251748,21126,21126,21125,21126
201906251749,21126,21126,21122,21122
201906251750,21122,21124,21117,21117
201906251751,21117,21117,21112,21113
201906251752,21113,21116,21111,21116
201906251753,21116,21116,21111,21112
201906251754,21112,21114,21107,21109
201906251755,21109,21111,21107,21107
201906251756,21107,21107,21106,21107
201906251757,21107,21107,21107,21107
201906251758,21107,21108,21106,21107
201906251759,21107,21107,21107,21107
201906251800,21107,21111,21107,21108
201906251801,21107,21111,21107,21111
201906251802,21111,21112,21111,21112
201906251803,21112,21114,21111,21112
201906251804,21112,21112,21112,21112
201906251805,21112,21112,21107,21111
201906251806,21111,21112,21108,21112
201906251807,21112,21112,21111,21112
201906251808,21112,21116,21112,21114
201906251809,21114,21116,21113,21116
201906251810,21116,21116,21112,21112
201906251811,21112,21112,21112,21112
201906251812,21112,21112,21112,21112
201906251813,21112,21112,21107,21108
201906251814,21107,21109,21107,21107
201906251815,21107,21107,21102,21102
201906251816,21102,21108,21101,21108
201906251817,21108,21111,21108,21110
201906251818,21110,21112,21109,21109
201906251819,21110,21112,21109,21111
201906251820,21112,21117,21111,21116
201906251821,21116,21116,21107,21108
201906251822,21108,21111,21106,21109
201906251823,21109,21112,21109,21110
201906251824,21110,21112,21110,21111
201906251825,21111,21116,21110,21116
201906251826,21116,21116,21113,21116
201906251827,21116,21116,21116,21116
201906251828,21116,21116,21115,21115
201906251829,21115,21115,21111,21111
201906251830,21111,21117,21111,21116
201906251831,21116,21116,21113,21114
201906251832,21114,21116,21113,21116
201906251833,21116,21117,21115,21116
201906251834,21116,21121,21116,21121
201906251835,21121,21126,21120,21126
201906251836,21126,21127,21122,21122
201906251837,21122,21123,21120,21121
201906251838,21121,21122,21121,21121
201906251839,21121,21122,21120,21121
201906251840,21121,21121,21119,21121
201906251841,21121,21122,21121,21122
201906251842,21122,21123,21121,21122
201906251843,21122,21122,21116,21121
201906251844,21121,21124,21121,21123
201906251845,21123,21129,21123,21126
201906251846,21126,21126,21121,21122
201906251847,21122,21126,21121,21125
201906251848,21125,21125,21122,21122
201906251849,21122,21122,21118,21121
201906251850,21121,21121,21118,21120
201906251851,21120,21121,21118,21120
201906251852,21120,21120,21117,21117
201906251853,21117,21121,21117,21117
201906251854,21117,21117,21117,21117
201906251855,21117,21117,21117,21117
201906251856,21117,21117,21117,21117
201906251857,21117,21117,21117,21117
201906251858,21117,21117,21117,21117
201906251859,21117,21117,21117,21117
201906251900,21117,21117,21117,21117
201906251901,21117,21117,21117,21117
201906251902,21117,21117,21107,21107
201906251903,21107,21107,21107,21107
201906251904,21107,21107,21107,21107
201906251905,21107,21107,21107,21107
201906251906,21107,21107,21101,21103
201906251907,21103,21105,21101,21102
201906251908,21102,21102,21102,21102
201906251909,21102,21105,21102,21102
201906251910,21102,21102,21102,21102
201906251911,21102,21102,21102,21102
201906251912,21102,21102,21099,21100
201906251913,21100,21101,21096,21101
201906251914,21101,21103,21100,21102
201906251915,21102,21102,21100,21100
201906251916,21100,21100,21097,21097
201906251917,21097,21097,21096,21096
201906251918,21096,21097,21091,21092
201906251919,21092,21096,21092,21096
201906251920,21096,21099,21096,21099
201906251921,21099,21101,21098,21099
201906251922,21099,21103,21099,21102
201906251923,21102,21102,21102,21102
201906251924,21102,21104,21101,21104
201906251925,21104,21104,21101,21101
201906251926,21101,21104,21101,21102
201906251927,21102,21105,21101,21105
201906251928,21105,21105,21101,21103
201906251929,21103,21104,21101,21103
201906251930,21103,21104,21102,21102
201906251931,21102,21102,21102,21102
201906251932,21102,21102,21098,21100
201906251933,21100,21101,21098,21100
201906251934,21100,21100,21095,21096
201906251935,21096,21096,21091,21091
201906251936,21091,21094,21091,21093
201906251937,21093,21095,21091,21092
201906251938,21092,21092,21092,21092
201906251939,21092,21096,21091,21092
201906251940,21092,21095,21092,21093
201906251941,21093,21096,21093,21096
201906251942,21096,21096,21091,21094
201906251943,21094,21096,21093,21094
201906251944,21094,21096,21091,21095
201906251945,21095,21096,21093,21095
201906251946,21095,21096,21094,21095
201906251947,21095,21095,21091,21092
201906251948,21092,21092,21092,21092
201906251949,21092,21092,21092,21092
201906251950,21092,21095,21091,21094
201906251951,21095,21096,21093,21096
201906251952,21096,21096,21091,21092
201906251953,21092,21094,21092,21093
201906251954,21093,21095,21093,21095
201906251955,21096,21101,21096,21100
201906251956,21100,21101,21096,21097
201906251957,21097,21097,21096,21097
201906251958,21097,21097,21097,21097
201906251959,21097,21104,21097,21102
201906252000,21102,21104,21101,21104
201906252001,21104,21105,21102,21104
201906252002,21104,21105,21102,21104
201906252003,21104,21104,21104,21104
201906252004,21104,21105,21104,21104
201906252005,21104,21105,21104,21105
201906252006,21105,21105,21102,21104
201906252007,21104,21104,21104,21104
201906252008,21104,21104,21103,21104
201906252009,21104,21104,21101,21102
201906252010,21102,21105,21102,21105
201906252011,21105,21105,21101,21104
201906252012,21104,21106,21102,21106
201906252013,21106,21110,21105,21110
201906252014,21110,21111,21110,21111
201906252015,21111,21111,21106,21109
201906252016,21108,21110,21106,21108
201906252017,21109,21109,21106,21107
201906252018,21107,21110,21106,21107
201906252019,21107,21109,21106,21109
201906252020,21108,21110,21108,21110
201906252021,21110,21110,21109,21110
201906252022,21110,21111,21110,21111
201906252023,21111,21111,21110,21110
201906252024,21110,21110,21106,21108
201906252025,21108,21111,21108,21109
201906252026,21109,21109,21109,21109
201906252027,21109,21111,21109,21109
201906252028,21109,21110,21109,21110
201906252029,21110,21111,21109,21110
201906252030,21110,21114,21110,21112
201906252031,21112,21112,21111,21111
201906252032,21111,21112,21111,21111
201906252033,21111,21112,21111,21112
201906252034,21112,21112,21112,21112
201906252035,21112,21114,21112,21114
201906252036,21114,21114,21111,21112
201906252037,21112,21112,21107,21107
201906252038,21107,21111,21107,21109
201906252039,21109,21109,21106,21109
201906252040,21109,21109,21107,21107
201906252041,21107,21107,21102,21102
201906252042,21102,21105,21102,21105
201906252043,21104,21107,21103,21106
201906252044,21106,21106,21101,21102
201906252045,21102,21102,21096,21097
201906252046,21097,21098,21096,21097
201906252047,21097,21098,21097,21097
201906252048,21097,21100,21097,21100
201906252049,21100,21101,21099,21101
201906252050,21101,21101,21100,21101
201906252051,21101,21102,21101,21102
201906252052,21103,21103,21102,21102
201906252053,21102,21106,21102,21106
201906252054,21106,21107,21106,21107
201906252055,21107,21110,21106,21109
201906252056,21109,21111,21106,21109
201906252057,21109,21109,21106,21106
201906252058,21106,21110,21106,21109
201906252059,21109,21109,21108,21108
201906252100,21108,21110,21107,21110
201906252101,21110,21111,21110,21111
201906252102,21111,21116,21111,21114
201906252103,21114,21115,21114,21114
201906252104,21114,21114,21111,21112
201906252105,21112,21112,21106,21107
201906252106,21107,21107,21101,21102
201906252107,21102,21105,21101,21105
201906252108,21105,21110,21103,21110
201906252109,21110,21111,21106,21110
201906252110,21111,21111,21108,21110
201906252111,21110,21111,21109,21111
201906252112,21111,21111,21109,21110
201906252113,21110,21112,21108,21112
201906252114,21112,21112,21110,21111
201906252115,21111,21112,21109,21111
201906252116,21111,21111,21110,21111
201906252117,21111,21112,21110,21112
201906252118,21112,21112,21110,21112
201906252119,21112,21112,21111,21111
201906252120,21111,21114,21111,21112
201906252121,21112,21114,21111,21112
201906252122,21112,21114,21111,21113
201906252123,21113,21114,21111,21111
201906252124,21111,21113,21111,21112
201906252125,21112,21112,21110,21111
201906252126,21111,21112,21109,21110
201906252127,21110,21111,21102,21102
201906252128,21102,21106,21101,21102
201906252129,21101,21107,21101,21107
201906252130,21107,21108,21104,21106
201906252131,21106,21107,21103,21107
201906252132,21107,21107,21106,21107
201906252133,21107,21107,21103,21106
201906252134,21106,21106,21103,21104
201906252135,21104,21107,21102,21107
201906252136,21107,21107,21107,21107
201906252137,21107,21107,21107,21107
201906252138,21107,21109,21106,21109
201906252139,21109,21114,21109,21114
201906252140,21114,21114,21109,21114
201906252141,21114,21115,21114,21114
201906252142,21114,21115,21113,21114
201906252143,21114,21114,21113,21114
201906252144,21114,21114,21113,21114
201906252145,21114,21114,21114,21114
201906252146,21114,21115,21114,21114
201906252147,21114,21115,21114,21115
201906252148,21115,21115,21114,21115
201906252149,21115,21115,21114,21114
201906252150,21115,21115,21114,21115
201906252151,21115,21115,21114,21115
201906252152,21115,21115,21114,21115
201906252153,21115,21116,21115,21116
201906252154,21116,21122,21115,21122
201906252155,21122,21122,21122,21122
201906252156,21122,21122,21122,21122
201906252157,21122,21122,21122,21122
201906252158,21122,21122,21122,21122
201906252159,21122,21122,21122,21122
201906252200,21122,21126,21122,21125
201906252201,21126,21130,21125,21129
201906252202,21129,21129,21126,21126
201906252203,21128,21130,21126,21127
201906252204,21127,21127,21127,21127
201906252205,21127,21127,21126,21126
201906252206,21126,21129,21125,21129
201906252207,21129,21129,21127,21128
201906252208,21128,21130,21126,21130
201906252209,21130,21131,21130,21130
201906252210,21130,21130,21130,21130
201906252211,21130,21131,21130,21130
201906252212,21130,21130,21127,21129
201906252213,21129,21130,21129,21129
201906252214,21129,21129,21129,21129
201906252215,21129,21130,21129,21130
201906252216,21130,21134,21130,21132
201906252217,21132,21132,21132,21132
201906252218,21132,21132,21132,21132
201906252219,21132,21132,21131,21131
201906252220,21131,21131,21127,21127
201906252221,21127,21127,21127,21127
201906252222,21127,21127,21126,21127
201906252223,21127,21127,21127,21127
201906252224,21127,21128,21127,21127
201906252225,21127,21127,21127,21127
201906252226,21127,21127,21126,21127
201906252227,21127,21127,21121,21122
201906252228,21122,21122,21122,21122
201906252229,21122,21122,21118,21120
201906252230,21120,21122,21118,21122
201906252231,21122,21122,21113,21114
201906252232,21114,21116,21113,21114
201906252233,21114,21120,21114,21116
201906252234,21116,21118,21113,21114
201906252235,21115,21116,21113,21115
201906252236,21115,21116,21102,21102
201906252237,21102,21105,21091,21096
201906252238,21096,21101,21088,21094
201906252239,21093,21096,21088,21095
201906252240,21095,21095,21091,21092
201906252241,21092,21096,21092,21096
201906252242,21096,21097,21092,21092
201906252243,21092,21092,21087,21087
201906252244,21087,21092,21087,21091
201906252245,21091,21097,21090,21097
201906252246,21097,21099,21095,21097
201906252247,21097,21097,21087,21087
201906252248,21087,21087,21081,21082
201906252249,21082,21086,21081,21086
201906252250,21086,21087,21082,21086
201906252251,21086,21091,21086,21091
201906252252,21091,21094,21091,21092
201906252253,21091,21101,21090,21100
201906252254,21100,21102,21100,21102
201906252255,21102,21102,21096,21097
201906252256,21097,21097,21091,21093
201906252257,21093,21095,21093,21093
201906252258,21093,21095,21091,21091
201906252259,21091,21094,21091,21092
201906252300,21091,21094,21086,21092
201906252301,21092,21097,21091,21091
201906252302,21091,21091,21086,21087
201906252303,21087,21087,21087,21087
201906252304,21087,21087,21082,21084
201906252305,21084,21086,21083,21084
201906252306,21084,21087,21083,21085
201906252307,21085,21085,21082,21082
201906252308,21082,21083,21075,21075
201906252309,21075,21083,21071,21083
201906252310,21084,21085,21081,21082
201906252311,21082,21082,21073,21076
201906252312,21076,21076,21067,21067
201906252313,21067,21076,21067,21075
201906252314,21076,21077,21071,21074
201906252315,21073,21073,21067,21067
201906252316,21067,21067,21067,21067
201906252317,21067,21067,21061,21062
201906252318,21062,21062,21061,21062
201906252319,21062,21062,21062,21062
201906252320,21062,21062,21052,21052
201906252321,21052,21055,21052,21052
201906252322,21052,21052,21052,21052
201906252323,21052,21059,21052,21055
201906252324,21055,21057,21051,21057
201906252325,21057,21066,21056,21062
201906252326,21062,21067,21061,21067
201906252327,21067,21067,21061,21062
201906252328,21062,21064,21060,21064
201906252329,21064,21067,21063,21066
201906252330,21066,21071,21065,21071
201906252331,21071,21071,21066,21066
201906252332,21065,21071,21062,21067
201906252333,21067,21067,21066,21066
201906252334,21066,21066,21056,21060
201906252335,21060,21062,21057,21059
201906252336,21059,21061,21056,21058
201906252337,21058,21061,21056,21060
201906252338,21060,21060,21052,21052
201906252339,21052,21052,21046,21048
201906252340,21048,21060,21048,21056
201906252341,21056,21061,21056,21057
201906252342,21057,21061,21056,21057
201906252343,21057,21057,21051,21057
201906252344,21057,21059,21051,21054
201906252345,21054,21062,21054,21060
201906252346,21061,21061,21051,21054
201906252347,21054,21057,21050,21052
201906252348,21052,21054,21051,21052
201906252349,21052,21052,21042,21042
201906252350,21042,21056,21042,21055
201906252351,21056,21057,21051,21051
201906252352,21051,21054,21046,21047
201906252353,21047,21047,21041,21047
201906252354,21047,21047,21043,21047
201906252355,21047,21050,21046,21047
201906252356,21047,21047,21041,21041
201906252357,21041,21048,21041,21047
201906252358,21047,21052,21046,21052
201906252359,21052,21052,21051,21051
201906260000,21051,21052,21041,21042
201906260001,21042,21045,21041,21045
201906260002,21045,21051,21042,21048
201906260003,21048,21050,21043,21046
201906260004,21045,21049,21045,21048
201906260005,21048,21049,21043,21047
201906260006,21047,21051,21043,21046
201906260007,21046,21052,21044,21051
201906260008,21052,21052,21050,21051
201906260009,21050,21052,21050,21051
201906260010,21051,21055,21051,21055
201906260011,21055,21056,21054,21055
201906260012,21055,21056,21051,21052
201906260013,21052,21054,21051,21053
201906260014,21054,21054,21050,21054
201906260015,21054,21058,21053,21057
201906260016,21057,21061,21056,21061
201906260017,21061,21064,21061,21064
201906260018,21064,21066,21063,21066
201906260019,21066,21068,21065,21067
201906260020,21067,21068,21061,21063
201906260021,21063,21067,21063,21063
201906260022,21063,21069,21063,21067
201906260023,21067,21071,21067,21069
201906260024,21069,21069,21067,21067
201906260025,21067,21072,21066,21071
201906260026,21071,21071,21066,21067
201906260027,21067,21067,21063,21063
201906260028,21063,21065,21063,21064
201906260029,21064,21064,21061,21062
201906260030,21062,21063,21057,21057
201906260031,21057,21061,21057,21057
201906260032,21057,21060,21057,21060
201906260033,21060,21060,21052,21052
201906260034,21052,21052,21042,21042
201906260035,21042,21042,21032,21034
201906260036,21034,21039,21032,21037
201906260037,21037,21042,21036,21038
201906260038,21038,21039,21036,21038
201906260039,21038,21040,21036,21037
201906260040,21037,21037,21036,21037
201906260041,21037,21037,21036,21037
201906260042,21037,21037,21036,21037
201906260043,21037,21042,21037,21042
201906260044,21042,21042,21042,21042
201906260045,21042,21042,21042,21042
201906260046,21042,21042,21037,21037
201906260047,21037,21037,21037,21037
201906260048,21037,21041,21037,21040
201906260049,21040,21041,21037,21040
201906260050,21040,21041,21037,21037
201906260051,21037,21040,21037,21040
201906260052,21040,21041,21036,21038
201906260053,21038,21040,21037,21038
201906260054,21036,21041,21036,21039
201906260055,21039,21040,21036,21039
201906260056,21039,21040,21036,21039
201906260057,21039,21040,21036,21039
201906260058,21038,21041,21037,21039
201906260059,21039,21045,21039,21042
201906260100,21042,21042,21037,21039
201906260101,21039,21041,21036,21039
201906260102,21039,21042,21039,21041
201906260103,21041,21043,21041,21042
201906260104,21042,21042,21042,21042
201906260105,21042,21045,21041,21045
201906260106,21045,21052,21045,21052
201906260107,21052,21056,21051,21056
201906260108,21056,21060,21052,21052
201906260109,21052,21054,21051,21052
201906260110,21052,21052,21052,21052
201906260111,21052,21052,21052,21052
201906260112,21052,21055,21052,21055
201906260113,21055,21055,21051,21052
201906260114,21052,21054,21050,21054
201906260115,21054,21054,21051,21052
201906260116,21052,21054,21047,21053
201906260117,21053,21054,21051,21052
201906260118,21052,21052,21051,21051
201906260119,21051,21052,21050,21052
201906260120,21052,21052,21051,21051
201906260121,21051,21052,21051,21051
201906260122,21051,21052,21048,21051
201906260123,21051,21052,21047,21052
201906260124,21052,21052,21051,21052
201906260125,21052,21055,21052,21054
201906260126,21054,21055,21053,21054
201906260127,21054,21054,21051,21052
201906260128,21052,21052,21042,21046
201906260129,21046,21051,21046,21051
201906260130,21051,21053,21051,21053
201906260131,21052,21054,21050,21051
201906260132,21051,21052,21046,21047
201906260133,21047,21049,21041,21042
201906260134,21042,21043,21041,21042
201906260135,21042,21044,21041,21042
201906260136,21042,21055,21041,21055
201906260137,21055,21057,21046,21052
201906260138,21052,21052,21046,21048
201906260139,21048,21050,21046,21047
201906260140,21047,21052,21046,21049
201906260141,21049,21054,21046,21053
201906260142,21053,21060,21051,21057
201906260143,21057,21057,21055,21056
201906260144,21056,21057,21051,21052
201906260145,21052,21053,21051,21052
201906260146,21052,21056,21052,21055
201906260147,21055,21056,21051,21054
201906260148,21054,21056,21054,21056
201906260149,21056,21071,21056,21070
201906260150,21070,21070,21066,21067
201906260151,21067,21069,21063,21066
201906260152,21066,21068,21061,21062
201906260153,21062,21066,21061,21064
201906260154,21063,21067,21063,21067
201906260155,21067,21071,21066,21067
201906260156,21067,21070,21066,21070
201906260157,21070,21070,21066,21068
201906260158,21068,21070,21066,21067
201906260159,21067,21067,21066,21066
201906260200,21065,21067,21055,21060
201906260201,21060,21060,21035,21047
201906260202,21047,21047,21041,21046
201906260203,21046,21059,21045,21056
201906260204,21056,21067,21056,21066
201906260205,21066,21072,21060,21067
201906260206,21067,21067,21060,21067
201906260207,21067,21067,21060,21065
201906260208,21065,21067,21061,21066
201906260209,21066,21076,21066,21076
201906260210,21076,21076,21070,21076
201906260211,21076,21082,21075,21082
201906260212,21079,21079,21074,21077
201906260213,21077,21077,21070,21072
201906260214,21072,21072,21066,21071
201906260215,21071,21077,21071,21077
201906260216,21077,21077,21070,21072
201906260217,21072,21077,21070,21070
201906260218,21070,21077,21070,21072
201906260219,21071,21082,21070,21082
201906260220,21082,21082,21076,21077
201906260221,21077,21082,21075,21082
201906260222,21082,21087,21075,21082
201906260223,21082,21085,21080,21082
201906260224,21082,21082,21075,21082
201906260225,21082,21087,21080,21082
201906260226,21082,21087,21080,21084
201906260227,21084,21092,21080,21085
201906260228,21085,21087,21080,21087
201906260229,21087,21091,21085,21087
201906260230,21087,21087,21081,21083
201906260231,21083,21087,21077,21077
201906260232,21077,21084,21075,21081
201906260233,21081,21082,21079,21080
201906260234,21080,21082,21076,21079
201906260235,21079,21087,21075,21085
201906260236,21085,21085,21076,21076
201906260237,21076,21076,21068,21071
201906260238,21071,21072,21065,21070
201906260239,21070,21072,21066,21070
201906260240,21070,21076,21068,21076
201906260241,21076,21077,21071,21077
201906260242,21077,21077,21070,21077
201906260243,21077,21077,21075,21077
201906260244,21077,21077,21072,21076
201906260245,21076,21082,21075,21077
201906260246,21077,21077,21076,21077
201906260247,21077,21077,21075,21077
201906260248,21077,21077,21076,21076
201906260249,21076,21077,21076,21077
201906260250,21077,21081,21076,21076
201906260251,21076,21077,21070,21071
201906260252,21071,21072,21064,21067
201906260253,21067,21067,21060,21067
201906260254,21063,21071,21061,21066
201906260255,21066,21066,21060,21062
201906260256,21062,21065,21061,21062
201906260257,21062,21064,21059,21062
201906260258,21062,21062,21057,21059
201906260259,21059,21061,21059,21061
201906260300,21061,21062,21055,21057
201906260301,21057,21061,21057,21059
201906260302,21059,21062,21055,21057
201906260303,21057,21057,21051,21056
201906260304,21056,21057,21050,21052
201906260305,21052,21056,21050,21050
201906260306,21050,21052,21049,21052
201906260307,21052,21052,21047,21052
201906260308,21052,21057,21050,21057
201906260309,21057,21062,21056,21062
201906260310,21061,21061,21050,21056
201906260311,21056,21056,21051,21056
201906260312,21056,21057,21051,21057
201906260313,21057,21060,21056,21059
201906260314,21059,21061,21059,21061
201906260315,21061,21061,21059,21061
201906260316,21061,21061,21059,21060
201906260317,21060,21065,21057,21065
201906260318,21065,21065,21064,21065
201906260319,21065,21065,21061,21062
201906260320,21062,21062,21055,21062
201906260321,21062,21062,21057,21057
201906260322,21057,21057,21050,21054
201906260323,21054,21057,21051,21052
201906260324,21052,21054,21049,21049
201906260325,21047,21052,21045,21046
201906260326,21046,21047,21040,21046
201906260327,21046,21047,21041,21046
201906260328,21046,21047,21042,21044
201906260329,21044,21047,21040,21045
201906260330,21045,21046,21039,21044
201906260331,21041,21046,21041,21042
201906260332,21042,21044,21035,21037
201906260333,21037,21037,21027,21030
201906260334,21030,21032,21025,21027
201906260335,21027,21031,21016,21019
201906260336,21019,21027,21016,21026
201906260337,21026,21026,21015,21019
201906260338,21019,21025,21015,21025
201906260339,21025,21028,21020,21026
201906260340,21026,21027,21020,21027
201906260341,21027,21027,21015,21016
201906260342,21016,21020,21014,21019
201906260343,21019,21024,21019,21022
201906260344,21022,21022,21016,21017
201906260345,21017,21022,21014,21019
201906260346,21016,21027,21016,21023
201906260347,21023,21027,21023,21026
201906260348,21026,21027,21022,21027
201906260349,21027,21031,21026,21027
201906260350,21030,21031,21025,21027
201906260351,21027,21027,21021,21026
201906260352,21026,21030,21025,21026
201906260353,21026,21027,21021,21027
201906260354,21027,21031,21025,21031
201906260355,21031,21034,21030,21031
201906260356,21031,21037,21031,21037
201906260357,21037,21042,21031,21041
201906260358,21040,21044,21036,21041
201906260359,21041,21042,21035,21037
201906260400,21037,21042,21036,21037
201906260401,21037,21040,21034,21037
201906260402,21037,21042,21037,21039
201906260403,21039,21041,21035,21037
201906260404,21036,21037,21034,21035
201906260405,21036,21040,21036,21037
201906260406,21037,21042,21037,21040
201906260407,21038,21042,21037,21041
201906260408,21041,21044,21040,21040
201906260409,21040,21042,21040,21042
201906260410,21042,21042,21036,21036
201906260411,21036,21037,21035,21037
201906260412,21036,21036,21030,21031
201906260413,21031,21032,21030,21030
201906260414,21030,21030,21020,21026
201906260415,21026,21027,21020,21026
201906260416,21026,21027,21020,21021
201906260417,21022,21022,21021,21021
201906260418,21021,21026,21020,21022
201906260419,21022,21022,21021,21022
201906260420,21022,21027,21021,21027
201906260421,21027,21035,21027,21035
201906260422,21035,21038,21031,21033
201906260423,21033,21037,21031,21036
201906260424,21036,21037,21030,21037
201906260425,21037,21039,21035,21039
201906260426,21039,21042,21035,21039
201906260427,21039,21042,21039,21039
201906260428,21039,21047,21039,21047
201906260429,21047,21047,21041,21041
201906260430,21040,21042,21040,21042
201906260431,21042,21042,21035,21036
201906260432,21036,21042,21035,21038
201906260433,21038,21042,21035,21040
201906260434,21040,21041,21035,21040
201906260435,21041,21047,21041,21042
201906260436,21042,21045,21040,21041
201906260437,21041,21050,21041,21050
201906260438,21050,21050,21040,21043
201906260439,21043,21047,21041,21043
201906260440,21040,21047,21040,21043
201906260441,21043,21043,21036,21038
201906260442,21037,21038,21035,21038
201906260443,21038,21038,21035,21037
201906260444,21037,21037,21035,21037
201906260445,21037,21037,21026,21031
201906260446,21030,21041,21030,21037
201906260447,21037,21037,21020,21022
201906260448,21022,21024,21021,21022
201906260449,21022,21032,21020,21027
201906260450,21027,21028,21020,21021
201906260451,21021,21032,21020,21022
201906260452,21022,21024,21019,21022
201906260453,21022,21026,21020,21022
201906260454,21022,21027,21020,21027
201906260455,21027,21027,21019,21027
201906260456,21027,21032,21026,21032
201906260457,21032,21032,21026,21031
201906260458,21031,21032,21027,21029
201906260459,21029,21032,21020,21022
201906260500,21022,21027,21020,21025
201906260501,21025,21027,21024,21027
201906260502,21027,21037,21021,21036
201906260503,21036,21037,21036,21037
201906260504,21037,21037,21030,21030
201906260505,21030,21037,21030,21037
201906260506,21037,21037,21031,21034
201906260507,21034,21036,21030,21035
201906260508,21035,21037,21035,21037
201906260509,21037,21037,21034,21034
201906260510,21034,21037,21034,21035
201906260511,21035,21037,21034,21035
201906260512,21035,21037,21031,21037
201906260513,21037,21037,21036,21037
201906260514,21037,21038,21033,21036
201906260515,21036,21037,21034,21037
201906260516,21037,21037,21036,21036
201906260517,21036,21037,21036,21037
201906260518,21037,21037,21036,21036
201906260519,21036,21036,21036,21036
201906260520,21036,21037,21036,21037
201906260521,21037,21037,21036,21037
201906260522,21037,21037,21036,21037
201906260523,21037,21037,21036,21037
201906260524,21037,21042,21036,21041
201906260525,21041,21042,21041,21042
201906260526,21042,21042,21042,21042
201906260527,21042,21047,21040,21046
201906260528,21046,21047,21045,21046
201906260529,21046,21047,21044,21047
201906260530,21047,21047,21042,21045
201906260531,21045,21052,21045,21052
201906260532,21052,21052,21050,21051
201906260533,21051,21051,21050,21051
201906260534,21051,21051,21045,21045
201906260535,21045,21047,21045,21047
201906260536,21047,21047,21046,21046
201906260537,21046,21047,21045,21045
201906260538,21045,21046,21045,21046
201906260539,21046,21046,21039,21039
201906260540,21039,21042,21039,21041
201906260541,21041,21042,21040,21041
201906260542,21041,21041,21038,21038
201906260543,21038,21041,21038,21041
201906260544,21041,21042,21040,21041
201906260545,21041,21041,21040,21040
201906260546,21040,21040,21040,21040
201906260547,21040,21041,21040,21041
201906260548,21044,21046,21041,21043
201906260549,21043,21045,21042,21044
201906260550,21044,21044,21044,21044
201906260551,21044,21044,21040,21043
201906260552,21044,21044,21041,21041
201906260553,21041,21047,21041,21047
201906260554,21047,21047,21045,21045
201906260555,21045,21045,21041,21043
201906260556,21043,21043,21041,21042
201906260557,21042,21042,21040,21040
201906260558,21040,21040,21040,21040
201906260559,21040,21040,21037,21037
