日時,始値(BID),高値(BID),安値(BID),終値(BID)
201907010700,26804,26838,26789,26836
201907010701,26834,26850,26817,26827
201907010702,26827,26837,26819,26832
201907010703,26832,26836,26821,26829
201907010704,26829,26837,26828,26828
201907010705,26828,26834,26819,26833
201907010706,26833,26848,26833,26847
201907010707,26849,26861,26847,26848
201907010708,26848,26848,26840,26845
201907010709,26845,26848,26837,26840
201907010710,26840,26842,26839,26840
201907010711,26840,26840,26830,26830
201907010712,26830,26835,26826,26835
201907010713,26835,26838,26834,26837
201907010714,26837,26839,26832,26839
201907010715,26840,26841,26838,26839
201907010716,26839,26841,26837,26839
201907010717,26839,26839,26833,26833
201907010718,26833,26840,26832,26833
201907010719,26834,26834,26832,26834
201907010720,26834,26840,26834,26839
201907010721,26839,26846,26838,26844
201907010722,26844,26844,26830,26830
201907010723,26830,26834,26830,26832
201907010724,26832,26834,26832,26834
201907010725,26834,26836,26831,26834
201907010726,26834,26835,26832,26832
201907010727,26832,26832,26828,26829
201907010728,26829,26832,26827,26832
201907010729,26832,26837,26830,26837
201907010730,26837,26837,26835,26835
201907010731,26835,26839,26833,26838
201907010732,26838,26838,26831,26831
201907010733,26831,26831,26819,26819
201907010734,26819,26823,26817,26823
201907010735,26823,26824,26823,26824
201907010736,26824,26825,26823,26824
201907010737,26824,26831,26822,26823
201907010738,26823,26823,26819,26820
201907010739,26820,26826,26819,26824
201907010740,26825,26825,26819,26821
201907010741,26820,26820,26815,26815
201907010742,26815,26817,26815,26817
201907010743,26817,26817,26811,26812
201907010744,26813,26815,26812,26815
201907010745,26815,26815,26813,26815
201907010746,26815,26818,26814,26817
201907010747,26817,26818,26816,26816
201907010748,26816,26817,26816,26816
201907010749,26815,26817,26810,26811
201907010750,26811,26812,26808,26811
201907010751,26811,26815,26811,26815
201907010752,26815,26815,26814,26814
201907010753,26814,26814,26813,26813
201907010754,26814,26815,26812,26814
201907010755,26814,26819,26814,26818
201907010756,26818,26821,26818,26820
201907010757,26820,26825,26815,26824
201907010758,26824,26825,26822,26823
201907010759,26823,26823,26820,26820
201907010800,26819,26821,26818,26821
201907010801,26821,26825,26821,26822
201907010802,26822,26823,26821,26821
201907010803,26821,26823,26821,26823
201907010804,26822,26824,26822,26823
201907010805,26823,26825,26822,26823
201907010806,26823,26824,26822,26824
201907010807,26824,26826,26823,26823
201907010808,26823,26824,26819,26819
201907010809,26820,26821,26820,26820
201907010810,26820,26822,26820,26822
201907010811,26822,26822,26819,26819
201907010812,26819,26820,26818,26819
201907010813,26819,26819,26818,26818
201907010814,26818,26818,26812,26814
201907010815,26814,26818,26813,26814
201907010816,26814,26818,26814,26818
201907010817,26818,26818,26817,26818
201907010818,26817,26818,26814,26815
201907010819,26815,26816,26815,26815
201907010820,26815,26818,26815,26818
201907010821,26818,26818,26818,26818
201907010822,26818,26819,26817,26818
201907010823,26818,26819,26815,26815
201907010824,26815,26815,26814,26814
201907010825,26814,26815,26814,26814
201907010826,26814,26814,26812,26813
201907010827,26813,26814,26813,26814
201907010828,26814,26814,26811,26811
201907010829,26812,26814,26812,26814
201907010830,26812,26817,26811,26814
201907010831,26814,26818,26813,26815
201907010832,26815,26817,26811,26812
201907010833,26812,26813,26810,26810
201907010834,26810,26810,26806,26807
201907010835,26807,26809,26806,26807
201907010836,26807,26807,26803,26803
201907010837,26803,26803,26801,26801
201907010838,26801,26802,26800,26800
201907010839,26800,26804,26800,26804
201907010840,26804,26807,26803,26807
201907010841,26807,26807,26800,26803
201907010842,26803,26807,26803,26806
201907010843,26806,26807,26806,26806
201907010844,26806,26807,26805,26806
201907010845,26806,26811,26806,26806
201907010846,26806,26810,26806,26810
201907010847,26810,26810,26808,26808
201907010848,26808,26809,26808,26808
201907010849,26808,26808,26807,26808
201907010850,26808,26808,26803,26804
201907010851,26804,26805,26799,26800
201907010852,26800,26804,26800,26801
201907010853,26801,26804,26801,26803
201907010854,26803,26809,26803,26807
201907010855,26807,26809,26807,26808
201907010856,26808,26810,26808,26810
201907010857,26810,26810,26809,26809
201907010858,26809,26809,26808,26809
201907010859,26809,26812,26807,26810
201907010900,26810,26812,26807,26808
201907010901,26806,26809,26798,26798
201907010902,26799,26802,26796,26799
201907010903,26799,26802,26797,26801
201907010904,26801,26806,26800,26803
201907010905,26803,26803,26800,26801
201907010906,26802,26804,26799,26801
201907010907,26801,26806,26799,26805
201907010908,26805,26807,26801,26801
201907010909,26800,26803,26799,26801
201907010910,26801,26805,26801,26803
201907010911,26803,26807,26803,26806
201907010912,26806,26807,26802,26802
201907010913,26802,26803,26800,26800
201907010914,26800,26803,26800,26802
201907010915,26802,26805,26801,26802
201907010916,26802,26805,26802,26802
201907010917,26802,26802,26795,26799
201907010918,26799,26800,26792,26797
201907010919,26796,26800,26794,26794
201907010920,26794,26798,26792,26793
201907010921,26793,26795,26791,26794
201907010922,26794,26797,26794,26795
201907010923,26793,26797,26793,26795
201907010924,26795,26795,26790,26795
201907010925,26795,26795,26792,26793
201907010926,26793,26793,26791,26793
201907010927,26793,26793,26786,26790
201907010928,26789,26789,26783,26784
201907010929,26784,26786,26782,26785
201907010930,26785,26787,26784,26784
201907010931,26784,26786,26779,26785
201907010932,26785,26787,26781,26781
201907010933,26781,26782,26780,26782
201907010934,26782,26783,26776,26776
201907010935,26776,26777,26772,26775
201907010936,26775,26777,26773,26774
201907010937,26774,26775,26773,26775
201907010938,26774,26775,26770,26771
201907010939,26771,26773,26770,26772
201907010940,26772,26772,26768,26771
201907010941,26771,26771,26767,26769
201907010942,26769,26769,26765,26767
201907010943,26767,26769,26767,26768
201907010944,26768,26769,26767,26769
201907010945,26768,26775,26768,26775
201907010946,26776,26776,26770,26773
201907010947,26773,26773,26770,26770
201907010948,26770,26772,26770,26771
201907010949,26771,26772,26770,26772
201907010950,26772,26772,26771,26772
201907010951,26772,26772,26766,26767
201907010952,26767,26769,26764,26769
201907010953,26770,26770,26766,26766
201907010954,26766,26766,26759,26759
201907010955,26759,26762,26758,26760
201907010956,26760,26760,26749,26749
201907010957,26749,26757,26747,26757
201907010958,26757,26760,26756,26759
201907010959,26759,26761,26758,26761
201907011000,26761,26772,26761,26772
201907011001,26772,26774,26766,26774
201907011002,26774,26779,26773,26777
201907011003,26777,26778,26775,26776
201907011004,26776,26777,26772,26774
201907011005,26774,26782,26774,26781
201907011006,26781,26784,26781,26784
201907011007,26784,26784,26781,26781
201907011008,26781,26785,26781,26785
201907011009,26785,26788,26783,26786
201907011010,26786,26786,26780,26780
201907011011,26780,26782,26780,26781
201907011012,26781,26786,26781,26785
201907011013,26785,26790,26785,26788
201907011014,26788,26788,26785,26786
201907011015,26786,26787,26784,26785
201907011016,26784,26784,26780,26781
201907011017,26781,26782,26779,26781
201907011018,26781,26782,26781,26781
201907011019,26781,26785,26781,26784
201907011020,26785,26785,26778,26779
201907011021,26779,26780,26776,26777
201907011022,26776,26776,26770,26771
201907011023,26771,26773,26769,26770
201907011024,26770,26772,26767,26772
201907011025,26772,26775,26771,26775
201907011026,26775,26776,26773,26775
201907011027,26775,26776,26775,26776
201907011028,26777,26779,26777,26779
201907011029,26779,26785,26779,26785
201907011030,26784,26784,26777,26780
201907011031,26780,26780,26772,26772
201907011032,26772,26777,26771,26776
201907011033,26776,26779,26775,26777
201907011034,26777,26779,26776,26776
201907011035,26776,26776,26767,26771
201907011036,26771,26772,26766,26771
201907011037,26770,26774,26769,26770
201907011038,26771,26771,26765,26767
201907011039,26767,26768,26765,26766
201907011040,26767,26771,26764,26770
201907011041,26770,26775,26769,26775
201907011042,26774,26774,26770,26770
201907011043,26770,26773,26768,26773
201907011044,26773,26775,26772,26774
201907011045,26774,26774,26758,26763
201907011046,26764,26769,26763,26769
201907011047,26769,26775,26768,26774
201907011048,26773,26779,26772,26774
201907011049,26774,26782,26773,26782
201907011050,26782,26782,26777,26777
201907011051,26776,26781,26776,26781
201907011052,26781,26783,26777,26778
201907011053,26778,26780,26776,26780
201907011054,26780,26780,26777,26778
201907011055,26778,26785,26778,26785
201907011056,26784,26784,26775,26775
201907011057,26775,26782,26774,26781
201907011058,26781,26784,26781,26783
201907011059,26783,26787,26783,26786
201907011100,26786,26790,26786,26788
201907011101,26788,26790,26787,26789
201907011102,26790,26792,26789,26791
201907011103,26791,26794,26791,26794
201907011104,26793,26793,26790,26791
201907011105,26791,26795,26790,26792
201907011106,26792,26794,26791,26792
201907011107,26792,26793,26789,26791
201907011108,26791,26795,26791,26794
201907011109,26794,26795,26793,26794
201907011110,26794,26797,26794,26795
201907011111,26796,26797,26793,26796
201907011112,26796,26800,26795,26800
201907011113,26800,26802,26800,26802
201907011114,26802,26806,26801,26802
201907011115,26802,26803,26797,26801
201907011116,26801,26801,26799,26799
201907011117,26799,26801,26799,26799
201907011118,26799,26803,26799,26800
201907011119,26801,26805,26800,26805
201907011120,26805,26805,26803,26804
201907011121,26804,26804,26798,26801
201907011122,26801,26803,26801,26801
201907011123,26801,26801,26799,26799
201907011124,26799,26800,26798,26800
201907011125,26800,26803,26799,26803
201907011126,26802,26804,26801,26804
201907011127,26804,26804,26798,26798
201907011128,26798,26800,26797,26799
201907011129,26798,26798,26798,26798
201907011130,26798,26798,26797,26798
201907011131,26798,26798,26796,26797
201907011132,26796,26797,26795,26795
201907011133,26795,26797,26795,26796
201907011134,26796,26797,26796,26797
201907011135,26797,26797,26794,26794
201907011136,26794,26796,26794,26794
201907011137,26794,26794,26793,26793
201907011138,26792,26795,26792,26795
201907011139,26795,26797,26794,26796
201907011140,26796,26797,26795,26796
201907011141,26796,26797,26794,26796
201907011142,26796,26800,26795,26799
201907011143,26799,26799,26792,26792
201907011144,26792,26793,26791,26793
201907011145,26793,26796,26793,26796
201907011146,26796,26796,26794,26796
201907011147,26796,26796,26794,26794
201907011148,26794,26795,26793,26793
201907011149,26793,26794,26793,26794
201907011150,26794,26795,26792,26794
201907011151,26794,26795,26794,26795
201907011152,26794,26798,26794,26797
201907011153,26797,26798,26797,26797
201907011154,26797,26797,26796,26796
201907011155,26796,26797,26796,26797
201907011156,26797,26800,26797,26799
201907011157,26799,26800,26797,26799
201907011158,26799,26799,26797,26797
201907011159,26797,26800,26797,26800
201907011200,26799,26799,26796,26797
201907011201,26797,26797,26795,26795
201907011202,26794,26794,26793,26793
201907011203,26793,26797,26793,26797
201907011204,26797,26797,26796,26796
201907011205,26796,26798,26796,26797
201907011206,26797,26797,26796,26796
201907011207,26796,26796,26793,26794
201907011208,26794,26796,26793,26796
201907011209,26796,26797,26795,26797
201907011210,26797,26797,26796,26796
201907011211,26796,26797,26795,26795
201907011212,26795,26796,26794,26796
201907011213,26796,26796,26796,26796
201907011214,26796,26796,26795,26795
201907011215,26795,26797,26794,26796
201907011216,26796,26797,26795,26796
201907011217,26796,26797,26795,26796
201907011218,26796,26797,26796,26796
201907011219,26796,26797,26795,26796
201907011220,26796,26796,26795,26795
201907011221,26795,26796,26795,26796
201907011222,26795,26796,26795,26796
201907011223,26796,26796,26795,26795
201907011224,26795,26795,26795,26795
201907011225,26795,26795,26794,26795
201907011226,26795,26795,26792,26793
201907011227,26793,26793,26792,26792
201907011228,26792,26792,26790,26791
201907011229,26791,26791,26790,26790
201907011230,26790,26793,26790,26790
201907011231,26790,26792,26790,26792
201907011232,26792,26792,26791,26792
201907011233,26793,26796,26793,26794
201907011234,26794,26795,26792,26793
201907011235,26793,26794,26792,26793
201907011236,26793,26794,26793,26794
201907011237,26794,26796,26793,26796
201907011238,26796,26796,26795,26796
201907011239,26796,26796,26795,26796
201907011240,26796,26798,26796,26798
201907011241,26798,26799,26798,26798
201907011242,26798,26798,26797,26798
201907011243,26798,26798,26797,26798
201907011244,26798,26799,26798,26799
201907011245,26799,26799,26799,26799
201907011246,26799,26804,26799,26804
201907011247,26804,26804,26803,26803
201907011248,26803,26804,26803,26803
201907011249,26804,26804,26803,26804
201907011250,26804,26805,26803,26803
201907011251,26803,26803,26801,26802
201907011252,26802,26803,26800,26801
201907011253,26801,26801,26800,26800
201907011254,26800,26801,26800,26801
201907011255,26801,26803,26801,26803
201907011256,26803,26808,26803,26808
201907011257,26808,26808,26805,26807
201907011258,26807,26808,26806,26808
201907011259,26808,26809,26806,26807
201907011300,26807,26807,26804,26804
201907011301,26804,26805,26803,26803
201907011302,26803,26804,26803,26804
201907011303,26804,26809,26803,26809
201907011304,26809,26809,26807,26808
201907011305,26808,26809,26807,26809
201907011306,26809,26809,26806,26809
201907011307,26808,26809,26805,26807
201907011308,26807,26808,26805,26806
201907011309,26806,26808,26806,26808
201907011310,26808,26808,26808,26808
201907011311,26808,26810,26806,26808
201907011312,26809,26809,26808,26809
201907011313,26809,26809,26808,26808
201907011314,26808,26808,26806,26806
201907011315,26806,26807,26806,26806
201907011316,26806,26808,26806,26808
201907011317,26809,26809,26804,26804
201907011318,26804,26804,26803,26804
201907011319,26804,26804,26802,26804
201907011320,26804,26806,26804,26806
201907011321,26806,26806,26805,26806
201907011322,26806,26807,26806,26806
201907011323,26806,26808,26806,26808
201907011324,26808,26810,26806,26807
201907011325,26806,26807,26806,26807
201907011326,26807,26807,26806,26807
201907011327,26807,26809,26806,26809
201907011328,26809,26809,26802,26806
201907011329,26806,26806,26805,26805
201907011330,26805,26805,26803,26804
201907011331,26805,26806,26803,26805
201907011332,26806,26807,26805,26806
201907011333,26806,26813,26806,26812
201907011334,26812,26813,26810,26813
201907011335,26812,26813,26812,26812
201907011336,26811,26812,26810,26811
201907011337,26811,26812,26811,26811
201907011338,26811,26812,26809,26810
201907011339,26810,26812,26810,26812
201907011340,26812,26812,26810,26812
201907011341,26812,26813,26811,26811
201907011342,26811,26813,26811,26813
201907011343,26813,26813,26812,26812
201907011344,26812,26813,26812,26813
201907011345,26813,26816,26813,26816
201907011346,26816,26817,26814,26817
201907011347,26817,26822,26817,26822
201907011348,26822,26822,26820,26822
201907011349,26822,26822,26817,26817
201907011350,26817,26819,26816,26816
201907011351,26816,26816,26814,26816
201907011352,26816,26816,26814,26815
201907011353,26815,26818,26815,26817
201907011354,26817,26819,26815,26818
201907011355,26818,26818,26813,26817
201907011356,26818,26818,26816,26817
201907011357,26817,26817,26816,26817
201907011358,26817,26818,26816,26816
201907011359,26816,26819,26815,26819
201907011400,26819,26819,26816,26818
201907011401,26818,26819,26818,26819
201907011402,26819,26819,26818,26818
201907011403,26818,26819,26818,26818
201907011404,26818,26823,26817,26821
201907011405,26821,26830,26819,26830
201907011406,26830,26830,26829,26830
201907011407,26830,26830,26829,26829
201907011408,26829,26829,26824,26824
201907011409,26823,26829,26823,26828
201907011410,26829,26830,26827,26828
201907011411,26828,26834,26828,26834
201907011412,26834,26834,26831,26834
201907011413,26834,26836,26834,26836
201907011414,26836,26836,26835,26836
201907011415,26836,26836,26832,26833
201907011416,26833,26836,26832,26836
201907011417,26836,26839,26836,26838
201907011418,26838,26838,26837,26837
201907011419,26838,26844,26838,26843
201907011420,26843,26843,26838,26838
201907011421,26838,26838,26836,26837
201907011422,26836,26839,26836,26839
201907011423,26838,26839,26837,26838
201907011424,26838,26839,26836,26836
201907011425,26836,26838,26836,26837
201907011426,26837,26838,26835,26838
201907011427,26838,26839,26838,26839
201907011428,26838,26846,26838,26845
201907011429,26845,26845,26843,26844
201907011430,26844,26844,26839,26840
201907011431,26840,26843,26840,26843
201907011432,26843,26849,26842,26846
201907011433,26846,26846,26843,26844
201907011434,26844,26844,26844,26844
201907011435,26844,26849,26843,26849
201907011436,26849,26853,26849,26851
201907011437,26851,26851,26849,26849
201907011438,26849,26849,26844,26845
201907011439,26845,26848,26845,26848
201907011440,26848,26848,26844,26844
201907011441,26844,26847,26843,26847
201907011442,26846,26851,26846,26851
201907011443,26852,26852,26848,26849
201907011444,26849,26850,26849,26850
201907011445,26850,26854,26850,26853
201907011446,26853,26853,26853,26853
201907011447,26853,26853,26851,26852
201907011448,26852,26852,26848,26848
201907011449,26848,26849,26847,26849
201907011450,26849,26852,26849,26851
201907011451,26852,26855,26852,26855
201907011452,26855,26855,26854,26854
201907011453,26854,26858,26853,26856
201907011454,26856,26857,26854,26857
201907011455,26857,26862,26857,26861
201907011456,26861,26866,26861,26865
201907011457,26865,26866,26862,26866
201907011458,26866,26867,26860,26860
201907011459,26860,26861,26858,26860
201907011500,26860,26862,26853,26853
201907011501,26853,26857,26849,26850
201907011502,26850,26852,26846,26852
201907011503,26852,26856,26851,26856
201907011504,26855,26859,26855,26858
201907011505,26858,26860,26853,26853
201907011506,26853,26856,26852,26854
201907011507,26854,26858,26854,26857
201907011508,26857,26858,26856,26858
201907011509,26859,26863,26859,26861
201907011510,26861,26863,26860,26862
201907011511,26862,26862,26859,26859
201907011512,26859,26862,26859,26862
201907011513,26862,26868,26860,26866
201907011514,26865,26865,26863,26865
201907011515,26865,26867,26862,26863
201907011516,26863,26864,26862,26863
201907011517,26864,26872,26864,26871
201907011518,26871,26875,26871,26872
201907011519,26873,26876,26870,26873
201907011520,26873,26873,26865,26865
201907011521,26865,26871,26865,26870
201907011522,26870,26870,26866,26867
201907011523,26868,26872,26868,26869
201907011524,26869,26872,26869,26872
201907011525,26872,26872,26868,26868
201907011526,26868,26872,26868,26871
201907011527,26871,26871,26868,26870
201907011528,26870,26876,26870,26876
201907011529,26876,26877,26876,26877
201907011530,26876,26878,26872,26872
201907011531,26872,26873,26870,26871
201907011532,26871,26872,26869,26872
201907011533,26872,26873,26868,26869
201907011534,26870,26872,26870,26871
201907011535,26871,26872,26870,26870
201907011536,26870,26873,26869,26871
201907011537,26870,26872,26870,26870
201907011538,26870,26871,26869,26870
201907011539,26869,26870,26869,26870
201907011540,26870,26870,26869,26870
201907011541,26869,26870,26867,26867
201907011542,26867,26867,26862,26863
201907011543,26863,26865,26862,26865
201907011544,26865,26867,26864,26866
201907011545,26866,26869,26865,26869
201907011546,26869,26869,26868,26869
201907011547,26869,26870,26868,26869
201907011548,26869,26869,26868,26869
201907011549,26868,26868,26866,26866
201907011550,26866,26867,26866,26867
201907011551,26867,26867,26866,26866
201907011552,26867,26868,26866,26867
201907011553,26867,26869,26866,26869
201907011554,26870,26870,26868,26868
201907011555,26868,26870,26867,26870
201907011556,26870,26871,26868,26871
201907011557,26871,26872,26868,26868
201907011558,26868,26870,26867,26870
201907011559,26870,26870,26866,26867
201907011600,26867,26874,26864,26872
201907011601,26872,26876,26872,26872
201907011602,26873,26883,26872,26883
201907011603,26883,26890,26883,26888
201907011604,26888,26888,26878,26880
201907011605,26881,26887,26878,26886
201907011606,26885,26888,26882,26885
201907011607,26885,26887,26884,26884
201907011608,26883,26887,26883,26885
201907011609,26885,26885,26878,26879
201907011610,26879,26879,26876,26878
201907011611,26878,26879,26875,26878
201907011612,26878,26879,26874,26877
201907011613,26877,26880,26875,26876
201907011614,26876,26884,26876,26880
201907011615,26880,26880,26870,26872
201907011616,26872,26873,26868,26869
201907011617,26869,26869,26865,26867
201907011618,26867,26868,26863,26864
201907011619,26864,26869,26864,26869
201907011620,26869,26870,26867,26867
201907011621,26867,26869,26866,26867
201907011622,26867,26869,26864,26868
201907011623,26868,26869,26864,26868
201907011624,26868,26870,26863,26869
201907011625,26869,26876,26868,26873
201907011626,26873,26875,26871,26872
201907011627,26873,26874,26871,26871
201907011628,26871,26872,26869,26870
201907011629,26870,26872,26865,26865
201907011630,26865,26867,26863,26865
201907011631,26866,26866,26862,26865
201907011632,26865,26871,26864,26871
201907011633,26870,26873,26869,26871
201907011634,26871,26872,26867,26871
201907011635,26871,26876,26871,26871
201907011636,26873,26878,26871,26878
201907011637,26877,26878,26872,26875
201907011638,26875,26877,26873,26876
201907011639,26875,26875,26868,26869
201907011640,26869,26880,26869,26878
201907011641,26878,26881,26877,26881
201907011642,26881,26883,26878,26882
201907011643,26882,26882,26878,26880
201907011644,26880,26893,26879,26890
201907011645,26890,26891,26882,26884
201907011646,26884,26885,26883,26885
201907011647,26885,26888,26880,26880
201907011648,26880,26881,26875,26879
201907011649,26879,26880,26875,26880
201907011650,26880,26886,26879,26885
201907011651,26884,26884,26877,26878
201907011652,26877,26878,26876,26878
201907011653,26878,26880,26875,26878
201907011654,26878,26882,26877,26880
201907011655,26880,26880,26871,26871
201907011656,26871,26871,26868,26868
201907011657,26868,26870,26867,26868
201907011658,26867,26868,26865,26865
201907011659,26865,26865,26860,26862
201907011700,26862,26864,26852,26864
201907011701,26864,26870,26864,26868
201907011702,26869,26870,26864,26867
201907011703,26868,26868,26861,26862
201907011704,26863,26864,26859,26861
201907011705,26861,26864,26859,26861
201907011706,26861,26866,26861,26864
201907011707,26864,26867,26860,26861
201907011708,26861,26864,26859,26860
201907011709,26860,26865,26858,26865
201907011710,26865,26865,26852,26852
201907011711,26852,26860,26852,26859
201907011712,26859,26859,26854,26855
201907011713,26855,26857,26852,26857
201907011714,26857,26857,26852,26854
201907011715,26855,26855,26850,26854
201907011716,26854,26857,26852,26854
201907011717,26854,26864,26852,26864
201907011718,26864,26864,26860,26862
201907011719,26862,26862,26854,26856
201907011720,26856,26860,26854,26860
201907011721,26860,26865,26860,26865
201907011722,26864,26867,26862,26866
201907011723,26866,26867,26862,26865
201907011724,26865,26865,26858,26860
201907011725,26860,26860,26855,26858
201907011726,26858,26862,26858,26858
201907011727,26858,26858,26852,26854
201907011728,26854,26856,26850,26855
201907011729,26855,26859,26852,26859
201907011730,26859,26862,26858,26861
201907011731,26861,26862,26858,26858
201907011732,26859,26862,26857,26862
201907011733,26862,26862,26852,26855
201907011734,26855,26856,26852,26853
201907011735,26853,26859,26853,26856
201907011736,26856,26861,26855,26861
201907011737,26861,26861,26857,26860
201907011738,26861,26862,26860,26862
201907011739,26862,26863,26860,26863
201907011740,26863,26863,26859,26863
201907011741,26863,26866,26861,26866
201907011742,26866,26867,26863,26866
201907011743,26867,26867,26864,26867
201907011744,26867,26867,26863,26867
201907011745,26867,26867,26864,26867
201907011746,26867,26867,26865,26865
201907011747,26865,26865,26862,26863
201907011748,26863,26866,26863,26865
201907011749,26865,26868,26865,26868
201907011750,26868,26868,26858,26863
201907011751,26863,26870,26863,26870
201907011752,26871,26871,26868,26868
201907011753,26868,26871,26868,26871
201907011754,26871,26871,26866,26867
201907011755,26867,26870,26867,26869
201907011756,26869,26869,26863,26863
201907011757,26863,26864,26862,26864
201907011758,26863,26864,26862,26864
201907011759,26864,26864,26860,26862
201907011800,26862,26867,26860,26865
201907011801,26865,26866,26861,26863
201907011802,26862,26862,26857,26860
201907011803,26860,26865,26859,26865
201907011804,26865,26867,26865,26866
201907011805,26865,26869,26864,26869
201907011806,26868,26870,26867,26868
201907011807,26868,26869,26865,26865
201907011808,26865,26868,26863,26865
201907011809,26865,26868,26856,26858
201907011810,26857,26858,26856,26858
201907011811,26858,26858,26847,26848
201907011812,26848,26851,26847,26849
201907011813,26849,26851,26848,26848
201907011814,26848,26850,26846,26848
201907011815,26848,26849,26847,26847
201907011816,26847,26847,26843,26843
201907011817,26843,26847,26842,26847
201907011818,26848,26848,26841,26842
201907011819,26842,26845,26841,26844
201907011820,26843,26845,26841,26845
201907011821,26845,26849,26845,26848
201907011822,26848,26851,26848,26849
201907011823,26849,26849,26847,26849
201907011824,26849,26849,26846,26847
201907011825,26847,26848,26842,26845
201907011826,26845,26845,26842,26844
201907011827,26844,26847,26844,26847
201907011828,26847,26850,26847,26848
201907011829,26848,26852,26848,26852
201907011830,26853,26855,26851,26851
201907011831,26851,26855,26851,26854
201907011832,26854,26858,26854,26857
201907011833,26857,26862,26857,26862
201907011834,26862,26862,26860,26860
201907011835,26860,26862,26860,26861
201907011836,26861,26863,26860,26862
201907011837,26862,26866,26862,26866
201907011838,26866,26868,26865,26867
201907011839,26867,26868,26861,26863
201907011840,26862,26864,26860,26860
201907011841,26860,26862,26860,26862
201907011842,26862,26863,26861,26862
201907011843,26862,26862,26861,26862
201907011844,26863,26865,26861,26862
201907011845,26862,26864,26861,26864
201907011846,26863,26865,26863,26865
201907011847,26865,26869,26864,26869
201907011848,26869,26872,26866,26868
201907011849,26868,26871,26867,26869
201907011850,26869,26869,26865,26865
201907011851,26865,26869,26864,26869
201907011852,26869,26871,26866,26871
201907011853,26870,26871,26868,26868
201907011854,26868,26868,26866,26867
201907011855,26867,26867,26863,26864
201907011856,26864,26865,26862,26864
201907011857,26864,26864,26862,26862
201907011858,26862,26864,26861,26861
201907011859,26861,26863,26860,26860
201907011900,26860,26865,26860,26863
201907011901,26863,26863,26858,26860
201907011902,26860,26866,26860,26865
201907011903,26865,26865,26863,26863
201907011904,26863,26867,26862,26867
201907011905,26867,26867,26866,26867
201907011906,26867,26869,26867,26867
201907011907,26867,26869,26866,26869
201907011908,26870,26872,26869,26870
201907011909,26870,26870,26863,26864
201907011910,26864,26869,26863,26868
201907011911,26868,26869,26867,26867
201907011912,26867,26869,26865,26869
201907011913,26870,26872,26869,26870
201907011914,26870,26872,26868,26872
201907011915,26871,26872,26871,26872
201907011916,26872,26875,26872,26874
201907011917,26874,26874,26874,26874
201907011918,26874,26878,26874,26878
201907011919,26879,26881,26878,26881
201907011920,26881,26881,26875,26875
201907011921,26875,26876,26873,26876
201907011922,26876,26877,26874,26877
201907011923,26878,26884,26877,26881
201907011924,26881,26887,26881,26884
201907011925,26884,26884,26881,26881
201907011926,26881,26883,26881,26882
201907011927,26882,26882,26880,26882
201907011928,26882,26882,26879,26880
201907011929,26880,26880,26878,26880
201907011930,26880,26880,26877,26877
201907011931,26877,26878,26877,26877
201907011932,26877,26881,26876,26881
201907011933,26881,26881,26880,26880
201907011934,26880,26880,26878,26878
201907011935,26878,26883,26878,26882
201907011936,26882,26883,26878,26878
201907011937,26878,26879,26875,26879
201907011938,26878,26880,26877,26878
201907011939,26878,26880,26877,26878
201907011940,26878,26878,26874,26874
201907011941,26874,26874,26871,26871
201907011942,26871,26873,26871,26871
201907011943,26871,26873,26871,26872
201907011944,26872,26873,26870,26871
201907011945,26871,26873,26869,26873
201907011946,26873,26873,26871,26872
201907011947,26872,26873,26871,26871
201907011948,26871,26872,26868,26868
201907011949,26868,26869,26867,26868
201907011950,26868,26872,26868,26869
201907011951,26869,26872,26868,26868
201907011952,26868,26869,26866,26868
201907011953,26868,26871,26867,26869
201907011954,26869,26870,26868,26869
201907011955,26869,26871,26866,26866
201907011956,26866,26867,26865,26867
201907011957,26866,26869,26866,26868
201907011958,26868,26869,26867,26867
201907011959,26866,26866,26862,26864
201907012000,26864,26865,26854,26854
201907012001,26855,26855,26853,26854
201907012002,26854,26854,26850,26851
201907012003,26851,26851,26847,26848
201907012004,26848,26849,26846,26846
201907012005,26846,26847,26844,26844
201907012006,26845,26847,26844,26845
201907012007,26844,26845,26842,26842
201907012008,26842,26844,26837,26838
201907012009,26838,26841,26838,26841
201907012010,26841,26845,26841,26845
201907012011,26846,26849,26843,26849
201907012012,26849,26851,26842,26846
201907012013,26846,26846,26840,26841
201907012014,26841,26846,26840,26845
201907012015,26845,26845,26839,26841
201907012016,26841,26842,26839,26840
201907012017,26840,26843,26840,26843
201907012018,26843,26843,26842,26843
201907012019,26843,26845,26843,26845
201907012020,26845,26846,26839,26840
201907012021,26840,26841,26839,26841
201907012022,26841,26843,26841,26843
201907012023,26843,26844,26843,26843
201907012024,26843,26845,26843,26844
201907012025,26844,26844,26841,26842
201907012026,26842,26846,26841,26845
201907012027,26846,26846,26843,26845
201907012028,26845,26847,26844,26847
201907012029,26847,26847,26845,26846
201907012030,26846,26847,26845,26847
201907012031,26847,26847,26845,26847
201907012032,26847,26849,26846,26848
201907012033,26848,26848,26847,26847
201907012034,26847,26848,26846,26848
201907012035,26848,26848,26845,26847
201907012036,26847,26848,26847,26847
201907012037,26847,26848,26847,26848
201907012038,26848,26848,26847,26847
201907012039,26847,26847,26847,26847
201907012040,26847,26849,26846,26849
201907012041,26849,26850,26847,26849
201907012042,26849,26853,26849,26851
201907012043,26852,26853,26851,26852
201907012044,26852,26853,26851,26851
201907012045,26851,26853,26850,26850
201907012046,26850,26850,26850,26850
201907012047,26851,26851,26850,26850
201907012048,26850,26852,26850,26850
201907012049,26850,26851,26850,26850
201907012050,26850,26850,26850,26850
201907012051,26850,26850,26848,26848
201907012052,26848,26849,26846,26848
201907012053,26848,26848,26847,26848
201907012054,26849,26852,26849,26852
201907012055,26852,26854,26851,26854
201907012056,26855,26856,26853,26853
201907012057,26853,26853,26848,26848
201907012058,26848,26848,26847,26847
201907012059,26848,26848,26845,26846
201907012100,26846,26852,26843,26844
201907012101,26844,26856,26844,26856
201907012102,26856,26861,26855,26859
201907012103,26860,26861,26856,26857
201907012104,26857,26857,26855,26855
201907012105,26855,26859,26855,26856
201907012106,26857,26860,26856,26859
201907012107,26858,26860,26856,26857
201907012108,26857,26857,26855,26856
201907012109,26855,26859,26854,26859
201907012110,26858,26859,26853,26855
201907012111,26855,26855,26851,26853
201907012112,26853,26856,26853,26856
201907012113,26856,26856,26855,26856
201907012114,26856,26859,26853,26855
201907012115,26855,26856,26850,26851
201907012116,26851,26855,26851,26853
201907012117,26854,26856,26853,26855
201907012118,26855,26857,26854,26857
201907012119,26857,26860,26856,26860
201907012120,26860,26863,26859,26861
201907012121,26861,26864,26856,26857
201907012122,26857,26860,26856,26858
201907012123,26858,26860,26858,26859
201907012124,26859,26860,26856,26859
201907012125,26860,26860,26857,26859
201907012126,26859,26862,26858,26859
201907012127,26860,26864,26859,26864
201907012128,26864,26870,26864,26866
201907012129,26866,26870,26866,26868
201907012130,26868,26870,26865,26866
201907012131,26865,26868,26865,26867
201907012132,26867,26868,26865,26866
201907012133,26865,26866,26865,26866
201907012134,26865,26867,26864,26864
201907012135,26864,26867,26864,26866
201907012136,26866,26867,26863,26865
201907012137,26865,26866,26864,26866
201907012138,26866,26869,26865,26865
201907012139,26864,26865,26864,26864
201907012140,26864,26865,26862,26863
201907012141,26863,26863,26862,26862
201907012142,26862,26862,26862,26862
201907012143,26862,26862,26860,26861
201907012144,26860,26862,26859,26859
201907012145,26859,26860,26854,26855
201907012146,26855,26857,26853,26857
201907012147,26857,26865,26856,26865
201907012148,26865,26865,26854,26855
201907012149,26855,26858,26854,26854
201907012150,26855,26855,26852,26852
201907012151,26853,26856,26853,26855
201907012152,26855,26857,26848,26849
201907012153,26849,26852,26849,26851
201907012154,26851,26856,26850,26856
201907012155,26856,26856,26851,26854
201907012156,26854,26855,26853,26853
201907012157,26853,26854,26851,26853
201907012158,26854,26856,26853,26855
201907012159,26855,26855,26852,26854
201907012200,26853,26857,26853,26856
201907012201,26855,26857,26854,26856
201907012202,26855,26860,26853,26859
201907012203,26859,26859,26851,26852
201907012204,26852,26857,26852,26856
201907012205,26856,26861,26856,26860
201907012206,26860,26860,26858,26859
201907012207,26859,26860,26858,26860
201907012208,26860,26861,26856,26857
201907012209,26857,26857,26852,26853
201907012210,26853,26856,26853,26855
201907012211,26855,26858,26854,26858
201907012212,26858,26859,26857,26857
201907012213,26857,26860,26856,26859
201907012214,26859,26864,26859,26862
201907012215,26863,26865,26862,26862
201907012216,26862,26862,26859,26861
201907012217,26862,26864,26860,26863
201907012218,26863,26865,26862,26864
201907012219,26865,26865,26863,26864
201907012220,26865,26865,26862,26862
201907012221,26862,26865,26862,26863
201907012222,26863,26864,26862,26862
201907012223,26862,26869,26862,26868
201907012224,26868,26868,26865,26866
201907012225,26866,26868,26862,26862
201907012226,26862,26867,26862,26865
201907012227,26864,26868,26864,26868
201907012228,26868,26873,26865,26873
201907012229,26873,26875,26864,26864
201907012230,26864,26876,26842,26855
201907012231,26853,26854,26842,26845
201907012232,26846,26852,26840,26840
201907012233,26840,26853,26839,26850
201907012234,26850,26853,26841,26845
201907012235,26845,26863,26845,26862
201907012236,26862,26871,26859,26863
201907012237,26863,26870,26860,26869
201907012238,26869,26880,26867,26874
201907012239,26875,26886,26875,26876
201907012240,26876,26886,26870,26877
201907012241,26877,26887,26875,26878
201907012242,26878,26880,26867,26868
201907012243,26868,26869,26857,26857
201907012244,26857,26863,26854,26858
201907012245,26858,26866,26832,26836
201907012246,26836,26836,26818,26819
201907012247,26820,26828,26814,26827
201907012248,26829,26832,26817,26821
201907012249,26821,26821,26812,26815
201907012250,26815,26818,26813,26813
201907012251,26812,26820,26809,26817
201907012252,26817,26830,26817,26827
201907012253,26827,26830,26825,26829
201907012254,26829,26831,26825,26826
201907012255,26826,26826,26817,26818
201907012256,26818,26818,26812,26815
201907012257,26815,26824,26815,26823
201907012258,26823,26835,26822,26833
201907012259,26833,26838,26822,26826
201907012300,26825,26846,26825,26835
201907012301,26836,26841,26834,26841
201907012302,26840,26849,26839,26845
201907012303,26846,26852,26843,26849
201907012304,26849,26850,26840,26843
201907012305,26843,26851,26839,26847
201907012306,26846,26847,26836,26845
201907012307,26845,26851,26843,26850
201907012308,26850,26850,26838,26843
201907012309,26843,26847,26833,26835
201907012310,26835,26835,26826,26829
201907012311,26829,26829,26820,26822
201907012312,26822,26823,26816,26819
201907012313,26819,26820,26814,26820
201907012314,26820,26825,26817,26823
201907012315,26823,26827,26821,26821
201907012316,26820,26827,26816,26816
201907012317,26817,26823,26815,26821
201907012318,26821,26822,26816,26822
201907012319,26822,26825,26820,26825
201907012320,26825,26835,26823,26835
201907012321,26835,26835,26828,26829
201907012322,26829,26831,26811,26813
201907012323,26812,26814,26792,26792
201907012324,26792,26796,26788,26788
201907012325,26788,26788,26775,26776
201907012326,26776,26779,26770,26771
201907012327,26771,26777,26768,26777
201907012328,26777,26778,26772,26773
201907012329,26772,26776,26765,26770
201907012330,26770,26776,26770,26772
201907012331,26772,26772,26757,26759
201907012332,26759,26762,26754,26760
201907012333,26760,26764,26755,26757
201907012334,26756,26756,26738,26744
201907012335,26744,26752,26744,26749
201907012336,26749,26759,26748,26758
201907012337,26758,26767,26758,26765
201907012338,26765,26769,26758,26769
201907012339,26769,26770,26764,26765
201907012340,26765,26772,26765,26772
201907012341,26772,26776,26770,26775
201907012342,26775,26787,26775,26783
201907012343,26783,26789,26783,26787
201907012344,26786,26786,26783,26785
201907012345,26784,26788,26779,26787
201907012346,26787,26788,26780,26783
201907012347,26784,26792,26782,26788
201907012348,26787,26788,26781,26782
201907012349,26783,26784,26779,26779
201907012350,26779,26779,26770,26771
201907012351,26771,26779,26769,26779
201907012352,26778,26784,26776,26777
201907012353,26776,26779,26772,26779
201907012354,26779,26780,26774,26776
201907012355,26776,26776,26764,26770
201907012356,26771,26775,26766,26774
201907012357,26774,26775,26771,26775
201907012358,26775,26775,26771,26772
201907012359,26772,26775,26770,26774
201907020000,26774,26783,26774,26781
201907020001,26783,26787,26779,26782
201907020002,26783,26783,26767,26770
201907020003,26770,26772,26766,26772
201907020004,26772,26778,26768,26768
201907020005,26768,26768,26764,26765
201907020006,26765,26768,26761,26761
201907020007,26762,26765,26759,26765
201907020008,26765,26767,26762,26765
201907020009,26766,26767,26759,26760
201907020010,26759,26760,26750,26753
201907020011,26753,26763,26753,26753
201907020012,26754,26756,26745,26754
201907020013,26752,26752,26745,26748
201907020014,26747,26750,26745,26745
201907020015,26745,26750,26740,26749
201907020016,26749,26754,26743,26754
201907020017,26754,26764,26753,26763
201907020018,26763,26763,26753,26754
201907020019,26754,26755,26746,26754
201907020020,26754,26760,26752,26754
201907020021,26753,26753,26747,26752
201907020022,26752,26752,26739,26741
201907020023,26741,26741,26723,26731
201907020024,26731,26731,26723,26727
201907020025,26727,26728,26721,26723
201907020026,26723,26730,26723,26729
201907020027,26729,26731,26726,26728
201907020028,26727,26727,26720,26720
201907020029,26719,26720,26711,26712
201907020030,26712,26725,26711,26722
201907020031,26722,26725,26716,26720
201907020032,26720,26732,26717,26732
201907020033,26732,26744,26729,26743
201907020034,26743,26746,26736,26746
201907020035,26745,26749,26743,26745
201907020036,26745,26749,26745,26747
201907020037,26747,26752,26744,26752
201907020038,26752,26759,26752,26755
201907020039,26755,26759,26753,26758
201907020040,26759,26759,26754,26757
201907020041,26757,26758,26751,26751
201907020042,26751,26752,26743,26743
201907020043,26742,26742,26731,26731
201907020044,26731,26732,26726,26726
201907020045,26726,26729,26716,26717
201907020046,26717,26730,26716,26730
201907020047,26730,26730,26725,26729
201907020048,26729,26733,26725,26726
201907020049,26726,26726,26717,26722
201907020050,26722,26729,26722,26722
201907020051,26722,26732,26721,26732
201907020052,26733,26737,26731,26733
201907020053,26733,26733,26726,26728
201907020054,26728,26728,26720,26721
201907020055,26721,26725,26719,26725
201907020056,26725,26726,26721,26722
201907020057,26722,26724,26719,26722
201907020058,26722,26729,26721,26729
201907020059,26729,26729,26719,26722
201907020100,26722,26729,26720,26723
201907020101,26722,26726,26721,26725
201907020102,26725,26726,26723,26725
201907020103,26725,26727,26724,26727
201907020104,26727,26729,26724,26726
201907020105,26726,26726,26708,26709
201907020106,26709,26718,26709,26714
201907020107,26714,26714,26710,26713
201907020108,26712,26720,26712,26719
201907020109,26719,26720,26711,26715
201907020110,26715,26721,26715,26720
201907020111,26720,26720,26713,26714
201907020112,26714,26719,26714,26717
201907020113,26717,26719,26712,26718
201907020114,26718,26723,26718,26722
201907020115,26724,26726,26722,26724
201907020116,26724,26724,26716,26717
201907020117,26717,26717,26711,26716
201907020118,26715,26720,26713,26715
201907020119,26716,26716,26706,26707
201907020120,26706,26711,26705,26705
201907020121,26705,26705,26694,26694
201907020122,26694,26696,26689,26692
201907020123,26692,26694,26690,26691
201907020124,26691,26692,26687,26687
201907020125,26687,26693,26687,26693
201907020126,26693,26693,26688,26690
201907020127,26690,26691,26687,26690
201907020128,26690,26690,26685,26689
201907020129,26689,26696,26686,26695
201907020130,26695,26697,26689,26689
201907020131,26689,26692,26688,26692
201907020132,26692,26699,26692,26692
201907020133,26692,26695,26690,26693
201907020134,26694,26697,26690,26697
201907020135,26697,26703,26692,26692
201907020136,26692,26693,26690,26693
201907020137,26694,26694,26691,26694
201907020138,26694,26700,26692,26692
201907020139,26692,26694,26688,26688
201907020140,26688,26696,26687,26689
201907020141,26688,26694,26688,26691
201907020142,26691,26695,26688,26692
201907020143,26692,26693,26691,26691
201907020144,26691,26697,26689,26696
201907020145,26695,26697,26692,26696
201907020146,26696,26698,26690,26690
201907020147,26690,26693,26689,26691
201907020148,26691,26692,26689,26690
201907020149,26690,26697,26688,26696
201907020150,26695,26695,26687,26687
201907020151,26687,26687,26680,26680
201907020152,26681,26681,26675,26675
201907020153,26675,26681,26671,26676
201907020154,26676,26678,26673,26674
201907020155,26674,26675,26665,26666
201907020156,26665,26666,26661,26662
201907020157,26662,26673,26660,26673
201907020158,26673,26673,26669,26671
201907020159,26670,26670,26662,26667
201907020200,26667,26675,26667,26674
201907020201,26675,26675,26668,26668
201907020202,26667,26668,26661,26664
201907020203,26663,26665,26660,26661
201907020204,26661,26663,26660,26662
201907020205,26662,26673,26660,26671
201907020206,26671,26675,26668,26674
201907020207,26674,26683,26673,26683
201907020208,26682,26688,26681,26681
201907020209,26681,26686,26677,26686
201907020210,26687,26687,26682,26683
201907020211,26683,26684,26674,26674
201907020212,26674,26674,26659,26662
201907020213,26661,26663,26638,26641
201907020214,26641,26652,26639,26651
201907020215,26652,26652,26643,26648
201907020216,26648,26652,26643,26643
201907020217,26643,26646,26631,26633
201907020218,26633,26640,26633,26640
201907020219,26639,26645,26639,26643
201907020220,26643,26644,26631,26633
201907020221,26632,26637,26628,26636
201907020222,26635,26641,26632,26640
201907020223,26640,26642,26637,26637
201907020224,26637,26647,26637,26647
201907020225,26647,26652,26646,26646
201907020226,26646,26647,26643,26647
201907020227,26647,26650,26645,26648
201907020228,26648,26655,26648,26655
201907020229,26655,26658,26652,26658
201907020230,26658,26658,26651,26651
201907020231,26651,26658,26649,26655
201907020232,26655,26655,26644,26645
201907020233,26645,26646,26636,26643
201907020234,26643,26644,26637,26641
201907020235,26641,26651,26641,26650
201907020236,26650,26652,26649,26650
201907020237,26650,26654,26649,26650
201907020238,26650,26656,26649,26655
201907020239,26655,26655,26647,26648
201907020240,26647,26652,26639,26639
201907020241,26639,26650,26639,26641
201907020242,26641,26647,26639,26644
201907020243,26643,26652,26643,26649
201907020244,26649,26650,26643,26646
201907020245,26646,26649,26643,26647
201907020246,26647,26653,26647,26652
201907020247,26653,26658,26653,26655
201907020248,26655,26656,26650,26653
201907020249,26653,26658,26649,26649
201907020250,26650,26652,26649,26651
201907020251,26651,26653,26647,26649
201907020252,26649,26649,26645,26649
201907020253,26649,26649,26645,26645
201907020254,26645,26648,26644,26645
201907020255,26645,26651,26645,26646
201907020256,26646,26650,26646,26649
201907020257,26650,26652,26650,26651
201907020258,26650,26653,26649,26653
201907020259,26653,26657,26653,26656
201907020300,26657,26659,26646,26649
201907020301,26649,26649,26645,26647
201907020302,26647,26649,26645,26646
201907020303,26646,26646,26631,26632
201907020304,26632,26632,26621,26631
201907020305,26631,26631,26621,26622
201907020306,26622,26626,26621,26626
201907020307,26627,26631,26623,26623
201907020308,26623,26623,26615,26618
201907020309,26618,26621,26616,26617
201907020310,26618,26622,26611,26622
201907020311,26622,26629,26622,26625
201907020312,26625,26627,26622,26627
201907020313,26627,26631,26627,26630
201907020314,26630,26634,26630,26634
201907020315,26633,26633,26626,26628
201907020316,26628,26631,26625,26628
201907020317,26628,26630,26623,26626
201907020318,26626,26632,26626,26627
201907020319,26627,26628,26621,26622
201907020320,26622,26627,26620,26620
201907020321,26620,26626,26618,26625
201907020322,26625,26625,26621,26624
201907020323,26623,26623,26621,26621
201907020324,26622,26622,26614,26616
201907020325,26616,26620,26612,26614
201907020326,26614,26619,26613,26617
201907020327,26617,26619,26613,26613
201907020328,26613,26615,26609,26615
201907020329,26614,26619,26613,26613
201907020330,26613,26615,26610,26611
201907020331,26611,26618,26610,26618
201907020332,26618,26627,26618,26625
201907020333,26626,26633,26625,26633
201907020334,26633,26634,26631,26634
201907020335,26634,26635,26626,26627
201907020336,26627,26630,26620,26624
201907020337,26624,26628,26622,26627
201907020338,26627,26631,26627,26630
201907020339,26630,26631,26623,26624
201907020340,26624,26626,26622,26625
201907020341,26625,26630,26624,26625
201907020342,26625,26630,26625,26630
201907020343,26630,26631,26627,26631
201907020344,26631,26636,26631,26632
201907020345,26632,26636,26631,26632
201907020346,26631,26632,26628,26628
201907020347,26628,26632,26628,26632
201907020348,26632,26633,26629,26631
201907020349,26631,26635,26630,26634
201907020350,26635,26637,26631,26636
201907020351,26637,26641,26637,26640
201907020352,26641,26644,26640,26641
201907020353,26641,26644,26641,26644
201907020354,26644,26645,26640,26645
201907020355,26645,26647,26640,26642
201907020356,26641,26642,26636,26636
201907020357,26636,26640,26636,26636
201907020358,26635,26636,26628,26630
201907020359,26630,26633,26627,26628
201907020400,26628,26636,26625,26634
201907020401,26634,26642,26631,26642
201907020402,26642,26649,26639,26647
201907020403,26647,26647,26644,26646
201907020404,26646,26648,26646,26646
201907020405,26646,26651,26646,26648
201907020406,26648,26650,26648,26649
201907020407,26649,26652,26647,26649
201907020408,26649,26651,26647,26651
201907020409,26650,26654,26650,26652
201907020410,26652,26659,26651,26659
201907020411,26660,26667,26660,26665
201907020412,26665,26670,26662,26668
201907020413,26669,26682,26669,26682
201907020414,26681,26682,26673,26679
201907020415,26679,26684,26676,26680
201907020416,26680,26682,26678,26678
201907020417,26678,26680,26677,26678
201907020418,26679,26680,26677,26677
201907020419,26677,26682,26677,26680
201907020420,26680,26683,26679,26682
201907020421,26683,26685,26681,26681
201907020422,26681,26688,26681,26686
201907020423,26686,26688,26683,26685
201907020424,26685,26692,26685,26690
201907020425,26690,26694,26689,26693
201907020426,26692,26696,26691,26691
201907020427,26691,26692,26680,26682
201907020428,26682,26691,26682,26690
201907020429,26690,26690,26682,26682
201907020430,26682,26690,26682,26687
201907020431,26688,26692,26687,26691
201907020432,26691,26696,26691,26693
201907020433,26693,26698,26692,26692
201907020434,26692,26692,26684,26684
201907020435,26684,26688,26684,26687
201907020436,26687,26689,26685,26687
201907020437,26687,26693,26686,26692
201907020438,26693,26696,26692,26696
201907020439,26696,26701,26696,26701
201907020440,26701,26708,26701,26708
201907020441,26709,26709,26703,26704
201907020442,26705,26705,26697,26697
201907020443,26697,26699,26693,26697
201907020444,26697,26698,26693,26695
201907020445,26695,26695,26686,26691
201907020446,26691,26699,26690,26699
201907020447,26699,26699,26695,26698
201907020448,26697,26701,26696,26699
201907020449,26699,26699,26692,26696
201907020450,26695,26703,26695,26703
201907020451,26703,26708,26703,26707
201907020452,26707,26707,26699,26702
201907020453,26702,26703,26691,26701
201907020454,26701,26713,26701,26709
201907020455,26709,26716,26702,26707
201907020456,26707,26708,26704,26706
201907020457,26706,26707,26697,26699
201907020458,26699,26703,26692,26697
201907020459,26697,26708,26683,26708
201907020500,26708,26709,26700,26703
201907020501,26703,26706,26701,26703
201907020502,26704,26707,26701,26705
201907020503,26705,26709,26705,26707
201907020504,26706,26708,26706,26708
201907020505,26708,26709,26708,26708
201907020506,26708,26708,26706,26706
201907020507,26706,26706,26702,26702
201907020508,26702,26702,26699,26700
201907020509,26699,26700,26696,26698
201907020510,26698,26698,26695,26695
201907020511,26695,26696,26692,26692
201907020512,26692,26696,26691,26691
201907020513,26691,26692,26690,26691
201907020514,26690,26705,26689,26704
