日時,始値(BID),高値(BID),安値(BID),終値(BID)
201907290700,27143,27157,27141,27153
201907290701,27153,27157,27149,27153
201907290702,27152,27155,27151,27155
201907290703,27155,27155,27150,27151
201907290704,27151,27152,27149,27151
201907290705,27151,27156,27151,27154
201907290706,27154,27155,27153,27153
201907290707,27153,27155,27149,27149
201907290708,27149,27154,27149,27154
201907290709,27154,27154,27153,27154
201907290710,27154,27157,27154,27157
201907290711,27156,27157,27155,27156
201907290712,27156,27158,27154,27154
201907290713,27154,27157,27154,27155
201907290714,27155,27156,27155,27155
201907290715,27155,27156,27154,27154
201907290716,27154,27157,27154,27157
201907290717,27157,27158,27156,27158
201907290718,27158,27161,27158,27160
201907290719,27160,27160,27158,27158
201907290720,27158,27160,27158,27158
201907290721,27158,27159,27158,27158
201907290722,27158,27159,27158,27159
201907290723,27159,27160,27159,27159
201907290724,27159,27159,27158,27159
201907290725,27159,27161,27159,27159
201907290726,27159,27161,27159,27161
201907290727,27161,27161,27159,27159
201907290728,27159,27160,27159,27159
201907290729,27160,27161,27160,27161
201907290730,27161,27161,27159,27159
201907290731,27159,27160,27157,27157
201907290732,27157,27157,27154,27155
201907290733,27155,27156,27155,27156
201907290734,27156,27156,27155,27155
201907290735,27155,27155,27154,27154
201907290736,27154,27154,27154,27154
201907290737,27154,27155,27153,27153
201907290738,27153,27153,27151,27151
201907290739,27151,27152,27151,27152
201907290740,27152,27152,27151,27151
201907290741,27151,27154,27151,27154
201907290742,27154,27154,27153,27153
201907290743,27153,27153,27152,27152
201907290744,27152,27154,27152,27153
201907290745,27153,27153,27152,27153
201907290746,27153,27153,27153,27153
201907290747,27153,27153,27153,27153
201907290748,27153,27153,27153,27153
201907290749,27153,27153,27151,27153
201907290750,27153,27154,27153,27154
201907290751,27154,27154,27152,27153
201907290752,27153,27155,27152,27154
201907290753,27154,27154,27154,27154
201907290754,27154,27155,27154,27154
201907290755,27153,27153,27153,27153
201907290756,27153,27153,27150,27151
201907290757,27151,27151,27151,27151
201907290758,27151,27151,27150,27151
201907290759,27151,27151,27149,27150
201907290800,27149,27151,27149,27150
201907290801,27150,27150,27149,27149
201907290802,27149,27150,27148,27150
201907290803,27150,27150,27150,27150
201907290804,27150,27150,27149,27149
201907290805,27149,27151,27149,27151
201907290806,27151,27151,27150,27151
201907290807,27151,27151,27151,27151
201907290808,27150,27151,27150,27150
201907290809,27150,27150,27150,27150
201907290810,27151,27151,27149,27151
201907290811,27151,27151,27150,27150
201907290812,27150,27150,27148,27149
201907290813,27149,27151,27149,27151
201907290814,27151,27151,27148,27148
201907290815,27148,27148,27148,27148
201907290816,27148,27149,27147,27147
201907290817,27148,27149,27148,27149
201907290818,27149,27151,27149,27151
201907290819,27151,27151,27150,27150
201907290820,27150,27151,27150,27151
201907290821,27150,27151,27150,27151
201907290822,27151,27151,27148,27148
201907290823,27148,27149,27148,27149
201907290824,27149,27149,27149,27149
201907290825,27149,27149,27149,27149
201907290826,27149,27149,27148,27149
201907290827,27149,27149,27149,27149
201907290828,27149,27149,27148,27149
201907290829,27149,27149,27148,27148
201907290830,27148,27148,27147,27147
201907290831,27148,27148,27147,27147
201907290832,27147,27148,27147,27147
201907290833,27147,27148,27147,27147
201907290834,27147,27148,27147,27148
201907290835,27148,27148,27147,27148
201907290836,27149,27151,27148,27151
201907290837,27151,27152,27151,27151
201907290838,27151,27152,27151,27151
201907290839,27151,27151,27151,27151
201907290840,27151,27151,27150,27150
201907290841,27150,27150,27148,27148
201907290842,27148,27148,27147,27148
201907290843,27148,27148,27147,27147
201907290844,27147,27147,27147,27147
201907290845,27147,27148,27147,27147
201907290846,27147,27147,27145,27146
201907290847,27146,27146,27145,27145
201907290848,27145,27146,27145,27146
201907290849,27145,27146,27145,27146
201907290850,27145,27145,27145,27145
201907290851,27145,27145,27145,27145
201907290852,27145,27145,27144,27144
201907290853,27144,27145,27144,27145
201907290854,27145,27145,27144,27145
201907290855,27145,27145,27144,27144
201907290856,27145,27145,27144,27145
201907290857,27145,27147,27145,27147
201907290858,27147,27148,27145,27147
201907290859,27147,27147,27147,27147
201907290900,27147,27148,27145,27148
201907290901,27147,27148,27144,27144
201907290902,27144,27144,27140,27142
201907290903,27142,27142,27140,27140
201907290904,27140,27140,27139,27140
201907290905,27140,27140,27139,27139
201907290906,27139,27139,27135,27136
201907290907,27137,27137,27128,27130
201907290908,27129,27129,27123,27126
201907290909,27126,27131,27124,27131
201907290910,27131,27131,27128,27130
201907290911,27129,27136,27128,27135
201907290912,27135,27136,27133,27136
201907290913,27136,27138,27135,27137
201907290914,27137,27138,27134,27135
201907290915,27136,27138,27135,27135
201907290916,27135,27137,27135,27137
201907290917,27137,27138,27136,27136
201907290918,27136,27140,27136,27139
201907290919,27139,27139,27137,27137
201907290920,27138,27138,27138,27138
201907290921,27138,27145,27138,27145
201907290922,27145,27145,27144,27145
201907290923,27144,27144,27141,27142
201907290924,27141,27142,27139,27139
201907290925,27139,27139,27136,27136
201907290926,27136,27137,27136,27136
201907290927,27137,27139,27136,27138
201907290928,27138,27138,27136,27137
201907290929,27137,27140,27136,27140
201907290930,27140,27141,27137,27140
201907290931,27140,27142,27139,27141
201907290932,27141,27142,27140,27140
201907290933,27140,27141,27139,27140
201907290934,27140,27141,27138,27138
201907290935,27138,27140,27138,27140
201907290936,27140,27140,27138,27139
201907290937,27138,27139,27138,27139
201907290938,27139,27140,27138,27140
201907290939,27140,27140,27139,27139
201907290940,27139,27139,27138,27139
201907290941,27139,27140,27139,27139
201907290942,27139,27140,27137,27137
201907290943,27137,27137,27136,27137
201907290944,27137,27137,27136,27137
201907290945,27137,27138,27133,27134
201907290946,27134,27134,27131,27131
201907290947,27131,27131,27128,27130
201907290948,27130,27130,27125,27126
201907290949,27126,27126,27125,27125
201907290950,27124,27126,27123,27126
201907290951,27126,27133,27126,27132
201907290952,27132,27133,27132,27132
201907290953,27132,27132,27131,27131
201907290954,27131,27131,27129,27130
201907290955,27130,27130,27124,27124
201907290956,27124,27125,27123,27123
201907290957,27123,27125,27122,27123
201907290958,27123,27123,27119,27123
201907290959,27123,27123,27121,27122
201907291000,27123,27124,27120,27121
201907291001,27121,27125,27121,27125
201907291002,27125,27128,27125,27128
201907291003,27128,27132,27128,27132
201907291004,27131,27133,27130,27131
201907291005,27131,27132,27130,27132
201907291006,27132,27133,27131,27132
201907291007,27133,27134,27132,27133
201907291008,27133,27133,27132,27132
201907291009,27132,27132,27127,27129
201907291010,27130,27130,27126,27128
201907291011,27127,27131,27127,27131
201907291012,27132,27134,27132,27132
201907291013,27132,27134,27132,27134
201907291014,27134,27134,27131,27131
201907291015,27132,27132,27124,27126
201907291016,27126,27129,27125,27128
201907291017,27128,27134,27127,27133
201907291018,27133,27134,27132,27133
201907291019,27133,27133,27130,27130
201907291020,27130,27130,27128,27128
201907291021,27127,27128,27127,27128
201907291022,27128,27131,27128,27131
201907291023,27131,27133,27131,27133
201907291024,27133,27133,27132,27133
201907291025,27132,27134,27132,27134
201907291026,27135,27135,27133,27134
201907291027,27134,27138,27134,27138
201907291028,27138,27139,27137,27138
201907291029,27138,27139,27135,27136
201907291030,27136,27140,27136,27139
201907291031,27139,27140,27138,27139
201907291032,27139,27141,27139,27141
201907291033,27141,27142,27138,27138
201907291034,27138,27138,27133,27133
201907291035,27133,27134,27130,27131
201907291036,27131,27131,27128,27129
201907291037,27130,27130,27128,27128
201907291038,27128,27131,27128,27130
201907291039,27131,27132,27128,27128
201907291040,27128,27131,27127,27131
201907291041,27131,27135,27130,27135
201907291042,27135,27135,27129,27132
201907291043,27131,27135,27131,27135
201907291044,27136,27136,27133,27134
201907291045,27133,27136,27131,27136
201907291046,27135,27138,27135,27138
201907291047,27138,27138,27135,27136
201907291048,27137,27138,27135,27138
201907291049,27138,27140,27138,27140
201907291050,27140,27140,27134,27135
201907291051,27135,27136,27133,27134
201907291052,27134,27135,27130,27131
201907291053,27131,27131,27129,27131
201907291054,27131,27132,27130,27130
201907291055,27130,27132,27130,27132
201907291056,27132,27133,27130,27131
201907291057,27130,27133,27130,27132
201907291058,27132,27133,27131,27133
201907291059,27133,27133,27132,27133
201907291100,27133,27133,27131,27131
201907291101,27131,27131,27127,27127
201907291102,27127,27130,27127,27129
201907291103,27129,27129,27128,27129
201907291104,27129,27130,27128,27128
201907291105,27129,27129,27128,27128
201907291106,27128,27128,27124,27124
201907291107,27124,27125,27122,27125
201907291108,27125,27126,27125,27126
201907291109,27126,27128,27125,27126
201907291110,27126,27126,27122,27122
201907291111,27122,27125,27122,27123
201907291112,27123,27123,27121,27121
201907291113,27121,27126,27121,27126
201907291114,27126,27128,27125,27128
201907291115,27128,27128,27126,27126
201907291116,27126,27126,27123,27123
201907291117,27123,27124,27122,27123
201907291118,27123,27125,27123,27124
201907291119,27124,27124,27122,27123
201907291120,27123,27124,27121,27122
201907291121,27122,27124,27121,27123
201907291122,27123,27125,27123,27124
201907291123,27124,27125,27122,27125
201907291124,27125,27125,27122,27123
201907291125,27123,27123,27121,27121
201907291126,27121,27121,27119,27120
201907291127,27120,27120,27119,27120
201907291128,27120,27120,27119,27120
201907291129,27121,27121,27119,27119
201907291130,27119,27119,27114,27118
201907291131,27118,27122,27118,27121
201907291132,27121,27122,27121,27121
201907291133,27121,27121,27116,27117
201907291134,27117,27119,27117,27118
201907291135,27118,27118,27112,27113
201907291136,27113,27119,27113,27118
201907291137,27118,27118,27116,27118
201907291138,27118,27118,27117,27117
201907291139,27118,27118,27117,27118
201907291140,27119,27121,27117,27121
201907291141,27121,27121,27118,27119
201907291142,27119,27120,27119,27120
201907291143,27121,27123,27121,27123
201907291144,27123,27123,27120,27122
201907291145,27123,27124,27122,27123
201907291146,27123,27124,27123,27124
201907291147,27124,27124,27123,27123
201907291148,27123,27125,27123,27125
201907291149,27125,27125,27124,27124
201907291150,27124,27124,27123,27124
201907291151,27124,27125,27123,27123
201907291152,27123,27124,27123,27124
201907291153,27124,27124,27122,27123
201907291154,27122,27125,27122,27125
201907291155,27124,27124,27123,27124
201907291156,27124,27125,27123,27125
201907291157,27125,27125,27123,27123
201907291158,27123,27124,27122,27122
201907291159,27122,27124,27121,27123
201907291200,27123,27123,27119,27119
201907291201,27120,27120,27119,27120
201907291202,27120,27123,27120,27122
201907291203,27122,27126,27122,27126
201907291204,27125,27127,27125,27126
201907291205,27126,27127,27126,27127
201907291206,27127,27128,27127,27128
201907291207,27128,27128,27125,27126
201907291208,27126,27126,27126,27126
201907291209,27126,27126,27124,27125
201907291210,27124,27124,27122,27123
201907291211,27123,27123,27121,27123
201907291212,27123,27123,27121,27121
201907291213,27121,27123,27121,27122
201907291214,27122,27122,27120,27120
201907291215,27120,27122,27120,27122
201907291216,27121,27122,27121,27121
201907291217,27121,27123,27121,27123
201907291218,27123,27123,27121,27122
201907291219,27121,27123,27121,27122
201907291220,27122,27123,27121,27122
201907291221,27122,27122,27121,27121
201907291222,27121,27121,27120,27120
201907291223,27120,27120,27118,27118
201907291224,27118,27118,27118,27118
201907291225,27118,27119,27118,27118
201907291226,27118,27118,27118,27118
201907291227,27118,27122,27118,27122
201907291228,27122,27124,27121,27124
201907291229,27124,27124,27122,27122
201907291230,27122,27123,27121,27123
201907291231,27123,27124,27122,27123
201907291232,27124,27124,27123,27124
201907291233,27123,27124,27123,27123
201907291234,27123,27123,27123,27123
201907291235,27123,27124,27123,27123
201907291236,27122,27123,27121,27121
201907291237,27121,27123,27121,27123
201907291238,27122,27124,27122,27123
201907291239,27123,27123,27122,27122
201907291240,27122,27123,27122,27123
201907291241,27123,27123,27121,27121
201907291242,27122,27122,27121,27122
201907291243,27122,27123,27121,27123
201907291244,27123,27124,27123,27124
201907291245,27124,27124,27123,27124
201907291246,27124,27124,27123,27124
201907291247,27124,27125,27123,27124
201907291248,27124,27124,27124,27124
201907291249,27124,27125,27124,27125
201907291250,27125,27127,27125,27126
201907291251,27126,27126,27126,27126
201907291252,27126,27127,27126,27127
201907291253,27127,27127,27127,27127
201907291254,27127,27127,27127,27127
201907291255,27127,27127,27124,27125
201907291256,27125,27125,27124,27124
201907291257,27124,27124,27124,27124
201907291258,27124,27124,27124,27124
201907291259,27124,27124,27123,27123
201907291300,27123,27125,27123,27124
201907291301,27124,27125,27124,27125
201907291302,27125,27125,27125,27125
201907291303,27125,27127,27125,27126
201907291304,27126,27127,27126,27127
201907291305,27127,27127,27127,27127
201907291306,27127,27127,27127,27127
201907291307,27127,27127,27127,27127
201907291308,27127,27127,27126,27127
201907291309,27127,27127,27126,27127
201907291310,27127,27127,27126,27126
201907291311,27126,27126,27126,27126
201907291312,27127,27127,27126,27126
201907291313,27126,27126,27126,27126
201907291314,27126,27126,27126,27126
201907291315,27126,27126,27126,27126
201907291316,27125,27126,27125,27126
201907291317,27126,27126,27126,27126
201907291318,27126,27126,27126,27126
201907291319,27126,27128,27126,27127
201907291320,27127,27127,27126,27126
201907291321,27126,27127,27126,27127
201907291322,27127,27128,27127,27127
201907291323,27127,27127,27126,27126
201907291324,27126,27127,27126,27127
201907291325,27127,27127,27125,27126
201907291326,27126,27126,27125,27125
201907291327,27125,27125,27124,27125
201907291328,27125,27125,27123,27123
201907291329,27123,27123,27123,27123
201907291330,27123,27124,27122,27124
201907291331,27124,27124,27123,27124
201907291332,27124,27124,27124,27124
201907291333,27124,27124,27123,27123
201907291334,27123,27124,27123,27124
201907291335,27124,27124,27122,27122
201907291336,27122,27124,27122,27123
201907291337,27123,27123,27122,27122
201907291338,27122,27122,27122,27122
201907291339,27122,27124,27122,27124
201907291340,27124,27124,27124,27124
201907291341,27124,27124,27123,27123
201907291342,27123,27124,27122,27124
201907291343,27124,27124,27123,27124
201907291344,27124,27125,27123,27123
201907291345,27122,27122,27121,27121
201907291346,27122,27122,27120,27121
201907291347,27121,27122,27121,27122
201907291348,27122,27123,27122,27122
201907291349,27122,27123,27122,27123
201907291350,27123,27123,27122,27122
201907291351,27122,27123,27122,27122
201907291352,27122,27122,27121,27121
201907291353,27122,27122,27120,27122
201907291354,27122,27122,27121,27122
201907291355,27122,27122,27121,27121
201907291356,27121,27121,27121,27121
201907291357,27121,27122,27121,27121
201907291358,27121,27123,27121,27123
201907291359,27124,27124,27121,27122
201907291400,27122,27123,27120,27121
201907291401,27121,27122,27121,27121
201907291402,27121,27121,27119,27119
201907291403,27119,27120,27118,27119
201907291404,27120,27121,27120,27120
201907291405,27120,27120,27118,27118
201907291406,27118,27118,27115,27116
201907291407,27116,27116,27115,27116
201907291408,27116,27116,27115,27116
201907291409,27116,27116,27115,27115
201907291410,27115,27115,27113,27114
201907291411,27113,27113,27113,27113
201907291412,27113,27114,27111,27114
201907291413,27114,27115,27113,27115
201907291414,27116,27116,27115,27115
201907291415,27115,27115,27114,27114
201907291416,27115,27116,27115,27116
201907291417,27116,27117,27115,27116
201907291418,27116,27116,27114,27115
201907291419,27114,27114,27113,27114
201907291420,27114,27115,27113,27114
201907291421,27115,27116,27114,27116
201907291422,27116,27118,27115,27117
201907291423,27117,27118,27116,27117
201907291424,27117,27118,27117,27117
201907291425,27117,27118,27115,27117
201907291426,27117,27118,27116,27117
201907291427,27116,27118,27116,27118
201907291428,27118,27118,27117,27117
201907291429,27118,27118,27117,27118
201907291430,27118,27118,27115,27117
201907291431,27117,27118,27115,27116
201907291432,27116,27118,27116,27116
201907291433,27116,27116,27115,27115
201907291434,27115,27116,27114,27115
201907291435,27115,27116,27114,27115
201907291436,27115,27115,27114,27114
201907291437,27114,27116,27114,27114
201907291438,27114,27116,27113,27113
201907291439,27113,27114,27113,27114
201907291440,27114,27114,27113,27113
201907291441,27114,27116,27114,27116
201907291442,27116,27117,27115,27116
201907291443,27116,27118,27116,27118
201907291444,27118,27118,27117,27117
201907291445,27117,27118,27117,27118
201907291446,27118,27120,27118,27120
201907291447,27120,27120,27118,27118
201907291448,27117,27118,27117,27118
201907291449,27118,27120,27118,27119
201907291450,27119,27121,27118,27120
201907291451,27121,27123,27120,27123
201907291452,27123,27124,27123,27123
201907291453,27123,27124,27123,27124
201907291454,27124,27124,27123,27124
201907291455,27125,27126,27124,27126
201907291456,27126,27126,27122,27122
201907291457,27123,27125,27123,27125
201907291458,27124,27124,27123,27123
201907291459,27123,27125,27123,27124
201907291500,27124,27125,27121,27125
201907291501,27125,27126,27123,27123
201907291502,27123,27125,27123,27125
201907291503,27125,27125,27124,27124
201907291504,27125,27126,27124,27125
201907291505,27125,27125,27123,27124
201907291506,27124,27126,27124,27125
201907291507,27125,27125,27124,27124
201907291508,27124,27125,27124,27124
201907291509,27124,27124,27122,27122
201907291510,27122,27124,27122,27124
201907291511,27124,27124,27121,27122
201907291512,27122,27124,27121,27123
201907291513,27123,27123,27122,27122
201907291514,27122,27124,27122,27123
201907291515,27123,27125,27122,27124
201907291516,27124,27125,27124,27125
201907291517,27125,27127,27124,27126
201907291518,27126,27126,27125,27125
201907291519,27125,27126,27125,27125
201907291520,27125,27127,27125,27127
201907291521,27127,27130,27127,27130
201907291522,27130,27130,27129,27129
201907291523,27129,27130,27128,27130
201907291524,27130,27130,27127,27128
201907291525,27128,27130,27127,27129
201907291526,27129,27129,27128,27129
201907291527,27129,27129,27127,27128
201907291528,27129,27129,27128,27128
201907291529,27128,27130,27127,27129
201907291530,27129,27130,27129,27130
201907291531,27130,27133,27129,27132
201907291532,27132,27132,27129,27130
201907291533,27129,27131,27129,27130
201907291534,27130,27131,27129,27130
201907291535,27130,27130,27129,27130
201907291536,27130,27131,27130,27130
201907291537,27128,27130,27128,27128
201907291538,27129,27130,27129,27129
201907291539,27129,27129,27127,27127
201907291540,27127,27127,27126,27126
201907291541,27126,27127,27126,27127
201907291542,27127,27128,27126,27127
201907291543,27127,27128,27127,27128
201907291544,27127,27127,27126,27126
201907291545,27126,27128,27126,27127
201907291546,27127,27127,27126,27126
201907291547,27127,27128,27126,27127
201907291548,27127,27128,27127,27127
201907291549,27127,27127,27126,27127
201907291550,27127,27129,27126,27129
201907291551,27128,27129,27128,27128
201907291552,27129,27129,27127,27128
201907291553,27128,27129,27126,27126
201907291554,27126,27128,27126,27126
201907291555,27126,27128,27126,27126
201907291556,27126,27126,27124,27124
201907291557,27124,27124,27122,27123
201907291558,27123,27124,27122,27123
201907291559,27122,27123,27122,27122
201907291600,27122,27128,27120,27128
201907291601,27127,27128,27123,27123
201907291602,27123,27123,27120,27120
201907291603,27120,27125,27120,27123
201907291604,27123,27123,27120,27120
201907291605,27120,27120,27116,27117
201907291606,27117,27120,27115,27119
201907291607,27119,27122,27118,27122
201907291608,27122,27124,27121,27124
201907291609,27124,27126,27124,27126
201907291610,27125,27127,27125,27126
201907291611,27126,27127,27124,27124
201907291612,27125,27133,27123,27132
201907291613,27132,27133,27130,27133
201907291614,27133,27137,27132,27137
201907291615,27137,27140,27133,27133
201907291616,27133,27138,27133,27134
201907291617,27134,27139,27134,27136
201907291618,27136,27136,27131,27132
201907291619,27132,27134,27129,27129
201907291620,27129,27133,27129,27131
201907291621,27131,27131,27126,27126
201907291622,27126,27130,27126,27130
201907291623,27129,27131,27127,27130
201907291624,27130,27133,27130,27133
201907291625,27133,27134,27129,27133
201907291626,27134,27137,27133,27135
201907291627,27135,27136,27133,27134
201907291628,27134,27135,27133,27134
201907291629,27133,27137,27133,27136
201907291630,27136,27138,27135,27137
201907291631,27137,27143,27137,27141
201907291632,27141,27142,27139,27139
201907291633,27139,27140,27138,27140
201907291634,27140,27140,27138,27140
201907291635,27140,27142,27139,27142
201907291636,27142,27142,27141,27142
201907291637,27142,27142,27141,27141
201907291638,27141,27143,27140,27141
201907291639,27141,27143,27141,27142
201907291640,27142,27145,27142,27144
201907291641,27144,27146,27143,27146
201907291642,27146,27150,27146,27150
201907291643,27150,27152,27149,27152
201907291644,27152,27152,27149,27150
201907291645,27150,27152,27148,27152
201907291646,27151,27157,27150,27157
201907291647,27157,27157,27153,27154
201907291648,27154,27155,27150,27151
201907291649,27152,27152,27148,27149
201907291650,27149,27150,27148,27149
201907291651,27149,27150,27149,27149
201907291652,27149,27149,27148,27149
201907291653,27149,27150,27148,27148
201907291654,27147,27150,27147,27150
201907291655,27150,27151,27148,27151
201907291656,27151,27154,27151,27153
201907291657,27153,27153,27151,27151
201907291658,27151,27152,27150,27151
201907291659,27150,27154,27149,27154
201907291700,27154,27156,27153,27154
201907291701,27154,27156,27153,27156
201907291702,27156,27157,27156,27157
201907291703,27157,27158,27155,27158
201907291704,27157,27157,27155,27156
201907291705,27156,27156,27152,27153
201907291706,27153,27155,27152,27154
201907291707,27154,27155,27153,27153
201907291708,27153,27153,27151,27151
201907291709,27151,27151,27150,27150
201907291710,27150,27153,27150,27153
201907291711,27152,27152,27150,27152
201907291712,27152,27153,27151,27152
201907291713,27152,27154,27151,27154
201907291714,27154,27156,27153,27155
201907291715,27154,27156,27153,27155
201907291716,27155,27164,27154,27159
201907291717,27159,27160,27156,27156
201907291718,27156,27157,27153,27157
201907291719,27157,27157,27154,27156
201907291720,27156,27157,27156,27157
201907291721,27156,27156,27154,27155
201907291722,27155,27156,27154,27155
201907291723,27155,27159,27155,27159
201907291724,27159,27160,27158,27158
201907291725,27159,27160,27158,27159
201907291726,27159,27159,27156,27157
201907291727,27157,27158,27156,27157
201907291728,27157,27158,27155,27156
201907291729,27155,27157,27155,27157
201907291730,27157,27158,27156,27157
201907291731,27157,27158,27151,27152
201907291732,27152,27157,27152,27155
201907291733,27155,27158,27155,27158
201907291734,27158,27159,27157,27158
201907291735,27157,27157,27154,27154
201907291736,27154,27155,27153,27154
201907291737,27154,27155,27153,27155
201907291738,27155,27155,27149,27150
201907291739,27149,27150,27149,27149
201907291740,27150,27150,27149,27149
201907291741,27149,27150,27148,27149
201907291742,27149,27150,27148,27149
201907291743,27148,27149,27146,27147
201907291744,27148,27148,27146,27147
201907291745,27147,27148,27147,27148
201907291746,27148,27150,27148,27149
201907291747,27149,27151,27149,27151
201907291748,27151,27152,27150,27150
201907291749,27150,27150,27150,27150
201907291750,27150,27150,27149,27149
201907291751,27149,27152,27149,27151
201907291752,27151,27152,27150,27150
201907291753,27151,27151,27149,27149
201907291754,27150,27151,27149,27150
201907291755,27150,27151,27150,27150
201907291756,27150,27151,27150,27150
201907291757,27149,27150,27149,27149
201907291758,27149,27151,27149,27150
201907291759,27150,27150,27149,27149
201907291800,27149,27149,27147,27147
201907291801,27148,27149,27147,27148
201907291802,27147,27148,27147,27148
201907291803,27147,27151,27147,27149
201907291804,27150,27151,27149,27150
201907291805,27150,27150,27148,27148
201907291806,27148,27150,27147,27150
201907291807,27150,27150,27147,27148
201907291808,27148,27148,27145,27146
201907291809,27146,27148,27144,27147
201907291810,27148,27151,27147,27151
201907291811,27150,27151,27150,27151
201907291812,27150,27154,27150,27153
201907291813,27153,27153,27150,27152
201907291814,27152,27153,27152,27153
201907291815,27153,27153,27150,27151
201907291816,27151,27151,27148,27148
201907291817,27148,27148,27147,27147
201907291818,27147,27147,27143,27147
201907291819,27146,27146,27144,27145
201907291820,27145,27146,27144,27146
201907291821,27146,27146,27144,27145
201907291822,27145,27146,27145,27145
201907291823,27145,27146,27145,27146
201907291824,27146,27147,27144,27146
201907291825,27146,27146,27141,27142
201907291826,27142,27143,27142,27142
201907291827,27142,27143,27142,27142
201907291828,27143,27143,27141,27143
201907291829,27143,27143,27138,27138
201907291830,27138,27138,27136,27137
201907291831,27137,27142,27136,27142
201907291832,27141,27144,27141,27142
201907291833,27142,27143,27141,27141
201907291834,27141,27142,27141,27141
201907291835,27141,27142,27140,27141
201907291836,27141,27141,27137,27138
201907291837,27138,27139,27137,27138
201907291838,27138,27141,27138,27141
201907291839,27141,27141,27139,27139
201907291840,27139,27142,27139,27141
201907291841,27141,27142,27140,27141
201907291842,27141,27142,27140,27140
201907291843,27139,27140,27137,27140
201907291844,27140,27140,27137,27139
201907291845,27139,27140,27139,27139
201907291846,27140,27140,27137,27137
201907291847,27137,27139,27136,27139
201907291848,27139,27139,27138,27138
201907291849,27138,27138,27136,27136
201907291850,27137,27137,27136,27137
201907291851,27137,27140,27137,27137
201907291852,27138,27141,27137,27141
201907291853,27141,27143,27140,27140
201907291854,27142,27143,27142,27142
201907291855,27142,27142,27142,27142
201907291856,27142,27142,27140,27141
201907291857,27141,27143,27141,27142
201907291858,27142,27142,27138,27138
201907291859,27138,27142,27138,27142
201907291900,27142,27143,27140,27141
201907291901,27141,27142,27141,27141
201907291902,27141,27142,27140,27140
201907291903,27141,27147,27141,27147
201907291904,27147,27151,27147,27150
201907291905,27150,27150,27148,27148
201907291906,27148,27149,27148,27148
201907291907,27148,27150,27148,27149
201907291908,27150,27152,27150,27152
201907291909,27152,27153,27152,27153
201907291910,27154,27157,27154,27157
201907291911,27157,27158,27157,27158
201907291912,27158,27158,27156,27157
201907291913,27157,27157,27155,27155
201907291914,27155,27155,27152,27153
201907291915,27153,27157,27153,27157
201907291916,27157,27158,27157,27157
201907291917,27157,27158,27155,27155
201907291918,27156,27157,27153,27153
201907291919,27153,27154,27152,27153
201907291920,27153,27154,27147,27147
201907291921,27147,27148,27145,27147
201907291922,27147,27151,27147,27150
201907291923,27149,27151,27149,27150
201907291924,27150,27151,27150,27150
201907291925,27150,27152,27150,27151
201907291926,27150,27152,27150,27150
201907291927,27151,27152,27150,27152
201907291928,27152,27152,27151,27151
201907291929,27151,27151,27150,27150
201907291930,27150,27152,27150,27152
201907291931,27152,27152,27150,27151
201907291932,27151,27151,27145,27146
201907291933,27146,27152,27146,27152
201907291934,27151,27152,27151,27151
201907291935,27151,27152,27150,27151
201907291936,27151,27152,27147,27147
201907291937,27147,27148,27146,27147
201907291938,27147,27149,27147,27149
201907291939,27149,27149,27147,27147
201907291940,27147,27148,27142,27142
201907291941,27142,27142,27140,27140
201907291942,27140,27142,27140,27142
201907291943,27142,27143,27141,27143
201907291944,27143,27144,27141,27143
201907291945,27143,27146,27142,27145
201907291946,27145,27146,27144,27145
201907291947,27146,27146,27144,27145
201907291948,27145,27146,27144,27145
201907291949,27145,27145,27144,27145
201907291950,27145,27145,27145,27145
201907291951,27145,27145,27144,27144
201907291952,27144,27144,27144,27144
201907291953,27145,27145,27145,27145
201907291954,27145,27145,27143,27144
201907291955,27144,27144,27141,27143
201907291956,27143,27145,27139,27139
201907291957,27139,27145,27139,27144
201907291958,27145,27147,27144,27147
201907291959,27146,27146,27143,27143
201907292000,27143,27146,27142,27146
201907292001,27146,27146,27145,27145
201907292002,27145,27147,27145,27145
201907292003,27146,27146,27143,27145
201907292004,27144,27146,27144,27146
201907292005,27145,27154,27145,27153
201907292006,27154,27155,27153,27154
201907292007,27154,27155,27153,27153
201907292008,27154,27156,27154,27154
201907292009,27154,27154,27150,27150
201907292010,27150,27154,27150,27154
201907292011,27153,27155,27152,27155
201907292012,27155,27155,27149,27151
201907292013,27151,27152,27148,27152
201907292014,27152,27154,27151,27154
201907292015,27154,27157,27154,27157
201907292016,27157,27158,27156,27157
201907292017,27158,27158,27156,27157
201907292018,27157,27157,27155,27155
201907292019,27155,27157,27155,27156
201907292020,27155,27157,27155,27155
201907292021,27155,27157,27155,27156
201907292022,27156,27160,27156,27160
201907292023,27160,27160,27159,27159
201907292024,27159,27159,27157,27158
201907292025,27158,27163,27157,27160
201907292026,27160,27161,27159,27159
201907292027,27160,27163,27158,27162
201907292028,27162,27163,27162,27162
201907292029,27162,27163,27161,27163
201907292030,27163,27165,27163,27163
201907292031,27163,27165,27163,27164
201907292032,27164,27166,27163,27164
201907292033,27164,27164,27163,27163
201907292034,27163,27163,27162,27162
201907292035,27162,27166,27162,27165
201907292036,27166,27166,27162,27162
201907292037,27162,27163,27161,27162
201907292038,27163,27163,27160,27161
201907292039,27161,27163,27161,27163
201907292040,27163,27165,27163,27163
201907292041,27163,27168,27163,27166
201907292042,27166,27168,27165,27167
201907292043,27168,27170,27168,27169
201907292044,27169,27172,27169,27170
201907292045,27170,27173,27169,27171
201907292046,27171,27174,27170,27171
201907292047,27172,27179,27172,27178
201907292048,27178,27180,27176,27180
201907292049,27180,27180,27175,27175
201907292050,27175,27175,27174,27175
201907292051,27175,27178,27175,27176
201907292052,27176,27180,27176,27178
201907292053,27179,27179,27177,27177
201907292054,27178,27178,27175,27176
201907292055,27177,27178,27176,27177
201907292056,27177,27178,27176,27177
201907292057,27178,27180,27177,27180
201907292058,27180,27181,27179,27180
201907292059,27181,27181,27179,27179
201907292100,27179,27179,27175,27178
201907292101,27178,27179,27177,27178
201907292102,27178,27181,27178,27181
201907292103,27181,27181,27175,27177
201907292104,27177,27177,27174,27175
201907292105,27175,27175,27174,27175
201907292106,27175,27176,27175,27175
201907292107,27175,27175,27169,27169
201907292108,27170,27171,27167,27167
201907292109,27167,27167,27166,27167
201907292110,27167,27168,27167,27168
201907292111,27167,27167,27166,27167
201907292112,27167,27167,27166,27166
201907292113,27166,27167,27165,27166
201907292114,27166,27168,27166,27168
201907292115,27168,27169,27167,27167
201907292116,27167,27170,27167,27168
201907292117,27168,27169,27167,27167
201907292118,27167,27167,27164,27166
201907292119,27166,27167,27165,27166
201907292120,27166,27167,27165,27166
201907292121,27166,27169,27166,27169
201907292122,27169,27170,27168,27169
201907292123,27169,27171,27168,27168
201907292124,27167,27169,27164,27165
201907292125,27164,27166,27162,27162
201907292126,27162,27163,27161,27161
201907292127,27161,27165,27161,27163
201907292128,27164,27164,27163,27164
201907292129,27165,27165,27163,27163
201907292130,27163,27166,27163,27166
201907292131,27167,27167,27164,27165
201907292132,27165,27166,27163,27163
201907292133,27163,27164,27163,27163
201907292134,27163,27167,27163,27167
201907292135,27167,27167,27163,27165
201907292136,27165,27165,27164,27164
201907292137,27164,27164,27163,27163
201907292138,27163,27163,27158,27160
201907292139,27160,27161,27160,27160
201907292140,27160,27164,27160,27164
201907292141,27164,27164,27163,27163
201907292142,27163,27165,27163,27165
201907292143,27165,27165,27160,27161
201907292144,27161,27162,27160,27161
201907292145,27160,27163,27160,27162
201907292146,27162,27162,27160,27161
201907292147,27161,27165,27161,27164
201907292148,27164,27164,27162,27162
201907292149,27162,27165,27162,27164
201907292150,27164,27164,27162,27163
201907292151,27163,27166,27162,27166
201907292152,27166,27166,27164,27165
201907292153,27165,27168,27162,27166
201907292154,27166,27167,27165,27165
201907292155,27165,27165,27164,27164
201907292156,27165,27165,27164,27165
201907292157,27164,27166,27164,27164
201907292158,27164,27167,27164,27167
201907292159,27166,27167,27165,27165
201907292200,27165,27171,27165,27171
201907292201,27170,27173,27169,27173
201907292202,27173,27175,27173,27174
201907292203,27174,27175,27170,27171
201907292204,27172,27172,27170,27171
201907292205,27171,27172,27170,27170
201907292206,27170,27173,27170,27171
201907292207,27171,27172,27169,27169
201907292208,27169,27170,27168,27170
201907292209,27169,27169,27165,27165
201907292210,27164,27168,27164,27167
201907292211,27168,27168,27167,27167
201907292212,27167,27168,27167,27168
201907292213,27168,27168,27165,27165
201907292214,27165,27169,27165,27168
201907292215,27168,27170,27168,27170
201907292216,27170,27172,27169,27172
201907292217,27172,27173,27171,27173
201907292218,27173,27177,27172,27176
201907292219,27176,27176,27172,27172
201907292220,27172,27174,27172,27173
201907292221,27173,27173,27171,27172
201907292222,27172,27175,27171,27175
201907292223,27176,27178,27175,27177
201907292224,27177,27181,27177,27181
201907292225,27181,27181,27179,27180
201907292226,27179,27181,27178,27180
201907292227,27181,27181,27172,27177
201907292228,27177,27178,27176,27177
201907292229,27177,27178,27170,27170
201907292230,27172,27180,27165,27180
201907292231,27180,27188,27179,27187
201907292232,27188,27194,27176,27176
201907292233,27176,27180,27171,27172
201907292234,27172,27193,27170,27189
201907292235,27189,27204,27184,27197
201907292236,27197,27211,27196,27202
201907292237,27202,27212,27200,27208
201907292238,27208,27211,27202,27208
201907292239,27207,27214,27207,27210
201907292240,27210,27215,27202,27206
201907292241,27205,27208,27203,27205
201907292242,27204,27211,27203,27208
201907292243,27208,27209,27199,27200
201907292244,27199,27199,27185,27190
201907292245,27190,27196,27186,27193
201907292246,27193,27198,27191,27194
201907292247,27194,27197,27187,27196
201907292248,27196,27200,27192,27195
201907292249,27195,27196,27187,27190
201907292250,27190,27200,27185,27199
201907292251,27200,27201,27192,27195
201907292252,27195,27198,27191,27195
201907292253,27195,27196,27183,27183
201907292254,27183,27186,27180,27183
201907292255,27182,27182,27174,27180
201907292256,27180,27181,27176,27177
201907292257,27175,27183,27173,27176
201907292258,27176,27180,27174,27179
201907292259,27179,27179,27171,27173
201907292300,27173,27173,27160,27163
201907292301,27163,27164,27153,27155
201907292302,27155,27173,27154,27172
201907292303,27172,27177,27166,27168
201907292304,27168,27170,27164,27168
201907292305,27169,27169,27158,27159
201907292306,27159,27162,27157,27160
201907292307,27161,27168,27158,27168
201907292308,27168,27168,27162,27164
201907292309,27164,27165,27156,27160
201907292310,27161,27167,27159,27165
201907292311,27165,27167,27163,27165
201907292312,27166,27166,27163,27165
201907292313,27165,27174,27164,27164
201907292314,27164,27174,27162,27173
201907292315,27173,27182,27171,27181
201907292316,27181,27183,27174,27183
201907292317,27183,27191,27182,27191
201907292318,27191,27191,27184,27184
201907292319,27184,27194,27183,27194
201907292320,27194,27194,27191,27191
201907292321,27191,27194,27190,27193
201907292322,27193,27198,27192,27198
201907292323,27198,27199,27192,27192
201907292324,27192,27195,27190,27195
201907292325,27195,27196,27192,27194
201907292326,27194,27200,27192,27200
201907292327,27200,27201,27193,27196
201907292328,27196,27198,27194,27198
201907292329,27198,27198,27193,27193
201907292330,27192,27194,27191,27191
201907292331,27192,27201,27190,27201
201907292332,27201,27207,27201,27203
201907292333,27203,27207,27202,27203
201907292334,27203,27205,27199,27199
201907292335,27199,27202,27197,27200
201907292336,27200,27200,27195,27196
201907292337,27196,27199,27191,27199
201907292338,27199,27199,27192,27194
201907292339,27193,27194,27190,27190
201907292340,27190,27190,27186,27186
201907292341,27186,27192,27185,27192
201907292342,27192,27194,27187,27194
201907292343,27195,27200,27195,27200
201907292344,27200,27206,27198,27206
201907292345,27206,27217,27204,27215
201907292346,27216,27220,27216,27217
201907292347,27217,27217,27214,27216
201907292348,27216,27216,27211,27215
201907292349,27214,27214,27210,27212
201907292350,27212,27216,27212,27214
201907292351,27215,27215,27213,27215
201907292352,27215,27220,27215,27218
201907292353,27218,27218,27214,27215
201907292354,27216,27216,27210,27215
201907292355,27215,27221,27214,27214
201907292356,27214,27214,27209,27210
201907292357,27210,27211,27208,27208
201907292358,27209,27211,27208,27208
201907292359,27208,27215,27207,27215
201907300000,27215,27216,27208,27210
201907300001,27210,27211,27209,27210
201907300002,27211,27221,27211,27220
201907300003,27220,27230,27219,27221
201907300004,27221,27224,27219,27224
201907300005,27224,27229,27224,27228
201907300006,27228,27229,27227,27228
201907300007,27228,27230,27225,27225
201907300008,27225,27230,27225,27229
201907300009,27229,27230,27227,27230
201907300010,27230,27240,27229,27233
201907300011,27233,27235,27231,27233
201907300012,27233,27243,27233,27235
201907300013,27235,27237,27231,27233
201907300014,27233,27235,27232,27232
201907300015,27232,27236,27231,27232
201907300016,27232,27236,27230,27234
201907300017,27234,27240,27234,27239
201907300018,27239,27242,27238,27241
201907300019,27241,27241,27237,27239
201907300020,27239,27242,27238,27239
201907300021,27240,27245,27237,27243
201907300022,27243,27245,27243,27244
201907300023,27244,27244,27240,27240
201907300024,27240,27247,27240,27244
201907300025,27245,27253,27245,27253
201907300026,27253,27253,27248,27250
201907300027,27250,27250,27244,27244
201907300028,27244,27247,27241,27246
201907300029,27246,27248,27245,27246
201907300030,27246,27248,27236,27236
201907300031,27236,27241,27236,27238
201907300032,27237,27240,27236,27236
201907300033,27235,27241,27235,27238
201907300034,27238,27238,27231,27232
201907300035,27231,27235,27229,27234
201907300036,27234,27238,27232,27238
201907300037,27238,27243,27238,27243
201907300038,27243,27246,27240,27240
201907300039,27240,27241,27239,27240
201907300040,27239,27239,27236,27236
201907300041,27236,27239,27235,27237
201907300042,27237,27240,27236,27238
201907300043,27237,27237,27233,27234
201907300044,27233,27236,27232,27234
201907300045,27234,27239,27234,27236
201907300046,27235,27239,27234,27237
201907300047,27237,27240,27236,27237
201907300048,27237,27237,27235,27236
201907300049,27236,27237,27235,27237
201907300050,27237,27240,27237,27240
201907300051,27240,27240,27236,27238
201907300052,27238,27239,27237,27237
201907300053,27237,27239,27236,27237
201907300054,27237,27239,27237,27238
201907300055,27238,27243,27238,27240
201907300056,27240,27243,27239,27242
201907300057,27242,27243,27241,27242
201907300058,27242,27243,27238,27239
201907300059,27239,27241,27238,27240
201907300100,27240,27242,27237,27238
201907300101,27238,27239,27233,27233
201907300102,27233,27234,27227,27229
201907300103,27230,27230,27223,27225
201907300104,27224,27226,27224,27225
201907300105,27225,27229,27224,27229
201907300106,27228,27229,27225,27225
201907300107,27225,27226,27220,27220
201907300108,27220,27222,27219,27219
201907300109,27219,27222,27219,27222
201907300110,27222,27222,27220,27220
201907300111,27220,27220,27213,27213
201907300112,27213,27215,27212,27213
201907300113,27213,27218,27213,27216
201907300114,27216,27217,27214,27215
201907300115,27215,27215,27207,27207
201907300116,27208,27208,27203,27206
201907300117,27206,27208,27205,27208
201907300118,27208,27209,27206,27206
201907300119,27206,27209,27204,27209
201907300120,27209,27216,27209,27215
201907300121,27215,27218,27214,27218
201907300122,27218,27219,27213,27214
201907300123,27214,27214,27209,27210
201907300124,27210,27215,27207,27213
201907300125,27213,27213,27209,27213
201907300126,27213,27215,27213,27215
201907300127,27215,27216,27214,27216
201907300128,27217,27219,27215,27219
201907300129,27220,27220,27217,27219
201907300130,27219,27219,27215,27215
201907300131,27215,27220,27215,27219
201907300132,27219,27219,27215,27216
201907300133,27216,27217,27214,27216
201907300134,27216,27218,27214,27216
201907300135,27216,27221,27215,27215
201907300136,27217,27219,27214,27215
201907300137,27214,27215,27212,27212
201907300138,27212,27216,27212,27216
201907300139,27216,27216,27212,27213
201907300140,27213,27217,27212,27212
201907300141,27212,27216,27212,27213
201907300142,27213,27214,27213,27213
201907300143,27213,27214,27205,27205
201907300144,27205,27213,27205,27211
201907300145,27211,27214,27210,27213
201907300146,27213,27216,27213,27215
201907300147,27216,27219,27211,27211
201907300148,27211,27215,27211,27212
201907300149,27212,27213,27210,27213
201907300150,27213,27214,27212,27213
201907300151,27213,27216,27211,27213
201907300152,27213,27217,27212,27212
201907300153,27212,27214,27211,27214
201907300154,27214,27215,27213,27214
201907300155,27214,27219,27214,27219
201907300156,27219,27223,27219,27222
201907300157,27222,27229,27222,27227
201907300158,27227,27233,27226,27232
201907300159,27232,27235,27232,27235
201907300200,27235,27242,27232,27241
201907300201,27241,27241,27231,27231
201907300202,27230,27234,27230,27233
201907300203,27233,27235,27228,27228
201907300204,27227,27234,27225,27234
201907300205,27234,27235,27230,27230
201907300206,27230,27231,27227,27230
201907300207,27229,27233,27227,27233
201907300208,27233,27233,27229,27229
201907300209,27229,27230,27226,27229
201907300210,27229,27230,27226,27227
201907300211,27227,27230,27227,27230
201907300212,27230,27234,27229,27234
201907300213,27234,27235,27232,27235
201907300214,27235,27236,27232,27233
201907300215,27233,27238,27233,27235
201907300216,27235,27240,27235,27240
201907300217,27240,27240,27236,27240
201907300218,27240,27241,27237,27238
201907300219,27237,27237,27234,27236
201907300220,27236,27241,27236,27241
201907300221,27241,27242,27240,27242
201907300222,27242,27245,27242,27242
201907300223,27242,27243,27241,27242
201907300224,27242,27245,27240,27245
201907300225,27244,27245,27241,27241
201907300226,27241,27242,27237,27238
201907300227,27238,27238,27234,27234
201907300228,27234,27236,27233,27233
201907300229,27233,27235,27231,27235
201907300230,27235,27237,27233,27236
201907300231,27237,27239,27237,27239
201907300232,27238,27238,27237,27237
201907300233,27237,27237,27233,27237
201907300234,27237,27238,27232,27234
201907300235,27234,27235,27233,27233
201907300236,27233,27234,27233,27233
201907300237,27233,27234,27231,27232
201907300238,27233,27234,27230,27232
201907300239,27232,27234,27232,27234
201907300240,27234,27235,27232,27234
201907300241,27234,27236,27234,27235
201907300242,27235,27236,27231,27232
201907300243,27231,27232,27229,27229
201907300244,27229,27229,27227,27227
201907300245,27227,27230,27227,27227
201907300246,27227,27229,27226,27228
201907300247,27228,27228,27227,27228
201907300248,27227,27230,27226,27230
201907300249,27230,27234,27230,27232
201907300250,27232,27232,27230,27231
201907300251,27231,27231,27226,27229
201907300252,27229,27230,27226,27227
201907300253,27227,27229,27225,27225
201907300254,27225,27226,27223,27224
201907300255,27224,27227,27223,27226
201907300256,27225,27226,27223,27226
201907300257,27227,27227,27222,27223
201907300258,27223,27225,27223,27225
201907300259,27225,27226,27222,27222
201907300300,27222,27228,27221,27222
201907300301,27222,27222,27220,27221
201907300302,27221,27223,27220,27220
201907300303,27220,27221,27219,27219
201907300304,27220,27220,27214,27214
201907300305,27214,27215,27209,27210
201907300306,27210,27212,27209,27211
201907300307,27212,27214,27208,27208
201907300308,27208,27211,27208,27209
201907300309,27209,27210,27203,27203
201907300310,27203,27211,27203,27209
201907300311,27209,27210,27208,27208
201907300312,27208,27210,27207,27209
201907300313,27209,27210,27208,27209
201907300314,27210,27212,27208,27211
201907300315,27211,27212,27208,27209
201907300316,27209,27210,27207,27209
201907300317,27209,27209,27206,27206
201907300318,27206,27209,27203,27205
201907300319,27205,27210,27205,27210
201907300320,27210,27211,27208,27209
201907300321,27209,27215,27209,27213
201907300322,27213,27213,27211,27211
201907300323,27211,27211,27209,27209
201907300324,27210,27212,27209,27210
201907300325,27210,27210,27207,27208
201907300326,27208,27208,27204,27206
201907300327,27206,27213,27206,27212
201907300328,27212,27215,27212,27215
201907300329,27215,27219,27215,27216
201907300330,27216,27218,27210,27210
201907300331,27210,27210,27207,27209
201907300332,27209,27209,27202,27204
201907300333,27204,27209,27202,27209
201907300334,27209,27211,27208,27209
201907300335,27208,27209,27206,27208
201907300336,27208,27209,27205,27206
201907300337,27206,27209,27205,27209
201907300338,27209,27209,27202,27202
201907300339,27202,27204,27201,27201
201907300340,27201,27201,27197,27197
201907300341,27197,27202,27196,27200
201907300342,27199,27200,27197,27200
201907300343,27200,27200,27198,27199
201907300344,27199,27199,27196,27196
201907300345,27196,27200,27196,27197
201907300346,27196,27196,27194,27194
201907300347,27194,27196,27193,27193
201907300348,27193,27198,27193,27197
201907300349,27197,27200,27193,27200
201907300350,27200,27203,27198,27201
201907300351,27202,27215,27202,27214
201907300352,27214,27214,27209,27209
201907300353,27209,27213,27208,27211
201907300354,27211,27211,27208,27209
201907300355,27210,27212,27210,27212
201907300356,27212,27213,27211,27212
201907300357,27212,27215,27212,27213
201907300358,27213,27214,27209,27209
201907300359,27209,27212,27209,27210
201907300400,27210,27217,27210,27217
201907300401,27217,27217,27211,27213
201907300402,27213,27216,27213,27213
201907300403,27213,27214,27211,27211
201907300404,27211,27213,27206,27212
201907300405,27212,27212,27210,27212
201907300406,27212,27212,27204,27204
201907300407,27204,27204,27202,27203
201907300408,27203,27212,27203,27212
201907300409,27212,27212,27207,27212
201907300410,27212,27212,27208,27210
201907300411,27210,27210,27204,27205
201907300412,27205,27207,27203,27204
201907300413,27204,27206,27203,27206
201907300414,27206,27206,27203,27203
201907300415,27203,27207,27200,27201
201907300416,27201,27203,27198,27198
201907300417,27198,27201,27195,27195
201907300418,27195,27196,27191,27193
201907300419,27193,27204,27191,27204
201907300420,27204,27204,27199,27202
201907300421,27201,27203,27199,27203
201907300422,27201,27205,27199,27199
201907300423,27199,27206,27198,27206
201907300424,27206,27207,27202,27202
201907300425,27202,27205,27199,27199
201907300426,27199,27199,27194,27195
201907300427,27195,27198,27194,27194
201907300428,27194,27197,27194,27197
201907300429,27197,27197,27192,27195
201907300430,27195,27199,27192,27195
201907300431,27195,27198,27192,27192
201907300432,27192,27201,27192,27200
201907300433,27201,27202,27197,27198
201907300434,27198,27202,27198,27201
201907300435,27201,27204,27198,27201
201907300436,27201,27201,27198,27198
201907300437,27198,27201,27198,27198
201907300438,27198,27206,27198,27206
201907300439,27206,27209,27204,27206
201907300440,27207,27214,27206,27214
201907300441,27214,27224,27213,27223
201907300442,27223,27226,27221,27222
201907300443,27221,27225,27221,27224
201907300444,27224,27226,27222,27225
201907300445,27225,27226,27219,27219
201907300446,27220,27226,27220,27222
201907300447,27222,27222,27219,27220
201907300448,27220,27224,27219,27223
201907300449,27223,27223,27219,27220
201907300450,27220,27229,27220,27229
201907300451,27229,27229,27220,27220
201907300452,27221,27226,27220,27225
201907300453,27225,27225,27221,27221
201907300454,27221,27229,27220,27224
201907300455,27224,27226,27211,27211
201907300456,27211,27214,27207,27213
201907300457,27213,27217,27212,27212
201907300458,27211,27213,27207,27209
201907300459,27208,27213,27196,27196
201907300500,27197,27201,27196,27201
201907300501,27200,27205,27200,27204
201907300502,27203,27209,27202,27202
201907300503,27202,27207,27202,27206
201907300504,27206,27206,27202,27203
201907300505,27204,27204,27202,27203
201907300506,27202,27203,27201,27202
201907300507,27202,27202,27200,27200
201907300508,27200,27200,27197,27198
201907300509,27198,27198,27196,27197
201907300510,27197,27200,27196,27197
201907300511,27198,27198,27194,27196
201907300512,27196,27196,27195,27196
201907300513,27195,27200,27195,27196
201907300514,27196,27199,27196,27198
