日時,始値(BID),高値(BID),安値(BID),終値(BID)
201911270800,1460.4,1461.9,1460.4,1461.8
201911270801,1461.8,1461.8,1461.1,1461.6
201911270802,1461.6,1461.6,1461.5,1461.6
201911270803,1461.6,1461.6,1461.3,1461.4
201911270804,1461.3,1461.5,1461.3,1461.4
201911270805,1461.4,1461.5,1461.3,1461.4
201911270806,1461.4,1461.5,1461.4,1461.4
201911270807,1461.4,1461.6,1461.4,1461.5
201911270808,1461.5,1461.5,1461.5,1461.5
201911270809,1461.5,1461.5,1461.4,1461.4
201911270810,1461.4,1461.5,1461.4,1461.4
201911270811,1461.4,1461.5,1461.4,1461.4
201911270812,1461.4,1461.5,1461.4,1461.4
201911270813,1461.4,1461.5,1461.4,1461.5
201911270814,1461.5,1461.6,1461.4,1461.5
201911270815,1461.5,1461.7,1461.5,1461.7
201911270816,1461.7,1461.7,1461.6,1461.6
201911270817,1461.6,1461.7,1461.6,1461.7
201911270818,1461.7,1461.7,1461.6,1461.6
201911270819,1461.6,1461.7,1461.6,1461.7
201911270820,1461.7,1461.7,1461.5,1461.7
201911270821,1461.7,1461.7,1461.7,1461.7
201911270822,1461.7,1461.7,1461.6,1461.6
201911270823,1461.6,1461.6,1461.6,1461.6
201911270824,1461.6,1461.6,1461.5,1461.5
201911270825,1461.5,1461.5,1461.4,1461.5
201911270826,1461.5,1461.6,1461.4,1461.4
201911270827,1461.5,1461.5,1461.5,1461.5
201911270828,1461.5,1461.5,1461.5,1461.5
201911270829,1461.5,1461.5,1461.4,1461.5
201911270830,1461.5,1461.5,1461.4,1461.4
201911270831,1461.4,1461.4,1461.3,1461.3
201911270832,1461.3,1461.4,1461.3,1461.3
201911270833,1461.3,1461.4,1461.3,1461.4
201911270834,1461.4,1461.4,1461.4,1461.4
201911270835,1461.4,1461.4,1461.3,1461.3
201911270836,1461.3,1461.3,1461.1,1461.1
201911270837,1461.1,1461.1,1461.1,1461.1
201911270838,1461.1,1461.1,1461.1,1461.1
201911270839,1461.1,1461.1,1461.1,1461.1
201911270840,1461.1,1461.1,1461,1461.1
201911270841,1461.1,1461.1,1461.1,1461.1
201911270842,1461.1,1461.1,1460.8,1460.8
201911270843,1460.8,1460.8,1460.8,1460.8
201911270844,1460.8,1460.9,1460.8,1460.8
201911270845,1460.8,1460.8,1460.6,1460.6
201911270846,1460.6,1460.6,1460.5,1460.6
201911270847,1460.6,1460.6,1460.5,1460.5
201911270848,1460.5,1460.5,1460.4,1460.5
201911270849,1460.5,1460.5,1460.4,1460.5
201911270850,1460.5,1460.7,1460.5,1460.6
201911270851,1460.6,1460.7,1460.6,1460.6
201911270852,1460.6,1460.7,1460.6,1460.7
201911270853,1460.7,1460.7,1460.5,1460.5
201911270854,1460.5,1460.6,1460.5,1460.6
201911270855,1460.6,1460.6,1460.5,1460.5
201911270856,1460.5,1460.5,1460.5,1460.5
201911270857,1460.5,1460.6,1460.4,1460.5
201911270858,1460.5,1460.5,1460.5,1460.5
201911270859,1460.5,1460.5,1460.4,1460.4
201911270900,1460.4,1460.7,1460.3,1460.6
201911270901,1460.6,1460.6,1460.5,1460.5
201911270902,1460.5,1460.6,1460.1,1460.2
201911270903,1460.2,1460.2,1460.1,1460.2
201911270904,1460.2,1460.3,1460.1,1460.1
201911270905,1460.1,1460.5,1460.1,1460.4
201911270906,1460.4,1460.4,1460.3,1460.3
201911270907,1460.3,1460.5,1460.3,1460.5
201911270908,1460.5,1460.6,1460.4,1460.6
201911270909,1460.6,1460.9,1460.6,1460.6
201911270910,1460.6,1460.6,1460.4,1460.4
201911270911,1460.4,1460.5,1460.2,1460.2
201911270912,1460.2,1460.2,1460,1460.1
201911270913,1460.1,1460.4,1460.1,1460.2
201911270914,1460.2,1460.3,1460.2,1460.3
201911270915,1460.3,1460.3,1460.2,1460.2
201911270916,1460.2,1460.2,1460,1460.2
201911270917,1460.2,1460.2,1459.9,1460
201911270918,1460,1460.1,1459.9,1460.1
201911270919,1460.1,1460.2,1460.1,1460.2
201911270920,1460.2,1460.3,1460.2,1460.3
201911270921,1460.3,1460.4,1460.3,1460.4
201911270922,1460.4,1460.5,1460.4,1460.5
201911270923,1460.5,1460.6,1460.5,1460.6
201911270924,1460.6,1460.7,1460.5,1460.5
201911270925,1460.5,1460.6,1460.4,1460.4
201911270926,1460.4,1460.4,1460.4,1460.4
201911270927,1460.4,1460.4,1460.1,1460.1
201911270928,1460.1,1460.2,1460.1,1460.1
201911270929,1460.1,1460.3,1460.1,1460.3
201911270930,1460.3,1460.3,1460.1,1460.2
201911270931,1460.2,1460.4,1460.2,1460.4
201911270932,1460.4,1460.9,1460.4,1460.9
201911270933,1460.9,1461.1,1460.7,1460.7
201911270934,1460.7,1460.7,1460.4,1460.5
201911270935,1460.5,1460.6,1460.5,1460.6
201911270936,1460.6,1460.9,1460.6,1460.7
201911270937,1460.7,1460.8,1460.6,1460.7
201911270938,1460.7,1460.8,1460.6,1460.8
201911270939,1460.8,1460.8,1460.6,1460.6
201911270940,1460.6,1460.6,1460.4,1460.5
201911270941,1460.5,1460.6,1460.3,1460.6
201911270942,1460.6,1460.6,1460.5,1460.6
201911270943,1460.6,1460.8,1460.5,1460.6
201911270944,1460.6,1460.8,1460.6,1460.7
201911270945,1460.7,1460.8,1460.7,1460.8
201911270946,1460.8,1460.9,1460.5,1460.5
201911270947,1460.5,1460.7,1460.5,1460.7
201911270948,1460.7,1460.7,1460.5,1460.5
201911270949,1460.6,1460.6,1460.5,1460.5
201911270950,1460.5,1460.9,1460.5,1460.8
201911270951,1460.8,1460.8,1460.7,1460.7
201911270952,1460.7,1460.7,1460.6,1460.6
201911270953,1460.6,1460.7,1460.6,1460.6
201911270954,1460.6,1460.6,1460.4,1460.4
201911270955,1460.4,1460.4,1460.1,1460.2
201911270956,1460.2,1460.3,1460.2,1460.2
201911270957,1460.2,1460.2,1460,1460
201911270958,1460,1460.1,1460,1460
201911270959,1460,1460,1459.8,1459.8
201911271000,1459.8,1460,1459.5,1459.7
201911271001,1459.7,1460,1459.6,1460
201911271002,1460,1460,1459.8,1459.9
201911271003,1459.9,1460,1459.8,1459.8
201911271004,1459.8,1459.9,1459.8,1459.9
201911271005,1459.9,1459.9,1459.7,1459.9
201911271006,1459.8,1459.9,1459.7,1459.8
201911271007,1459.8,1460.1,1459.7,1460.1
201911271008,1460.1,1460.3,1460.1,1460.3
201911271009,1460.3,1460.3,1460.1,1460.3
201911271010,1460.3,1460.5,1460.2,1460.4
201911271011,1460.4,1460.7,1460.4,1460.5
201911271012,1460.5,1460.6,1460.5,1460.5
201911271013,1460.5,1460.6,1460.4,1460.4
201911271014,1460.4,1460.6,1460.4,1460.4
201911271015,1460.4,1460.4,1460.2,1460.2
201911271016,1460.2,1460.4,1460.2,1460.3
201911271017,1460.3,1460.3,1460.2,1460.3
201911271018,1460.3,1460.5,1460.2,1460.4
201911271019,1460.4,1460.4,1460.1,1460.2
201911271020,1460.2,1460.2,1460.2,1460.2
201911271021,1460.2,1460.6,1460.2,1460.4
201911271022,1460.4,1460.5,1460.3,1460.5
201911271023,1460.5,1460.7,1460.5,1460.7
201911271024,1460.7,1460.7,1460.5,1460.5
201911271025,1460.5,1460.6,1460.2,1460.2
201911271026,1460.2,1460.3,1460.2,1460.2
201911271027,1460.2,1460.3,1460.1,1460.2
201911271028,1460.2,1460.2,1460,1460.1
201911271029,1460.1,1460.3,1460,1460.2
201911271030,1460.2,1460.2,1459.9,1460.1
201911271031,1460.1,1460.3,1460,1460.2
201911271032,1460.2,1460.2,1460.1,1460.1
201911271033,1460.1,1460.2,1460.1,1460.2
201911271034,1460.2,1460.2,1460,1460
201911271035,1460,1460,1459.9,1459.9
201911271036,1459.9,1460,1459.8,1460
201911271037,1460,1460.2,1460,1460.2
201911271038,1460.2,1460.3,1460.1,1460.1
201911271039,1460.1,1460.3,1460.1,1460.3
201911271040,1460.3,1460.3,1459.9,1459.9
201911271041,1459.9,1460,1459.8,1459.9
201911271042,1459.9,1460.1,1459.8,1459.9
201911271043,1459.9,1459.9,1459.6,1459.9
201911271044,1459.9,1460,1459.8,1459.9
201911271045,1459.9,1460,1459.8,1460
201911271046,1460,1460.1,1459.9,1460
201911271047,1460,1460.1,1459.9,1460.1
201911271048,1460.1,1460.1,1459.9,1460.1
201911271049,1460.1,1460.1,1459.7,1459.7
201911271050,1459.7,1459.8,1459.7,1459.8
201911271051,1459.8,1459.9,1459.7,1459.9
201911271052,1459.9,1459.9,1459.8,1459.8
201911271053,1459.8,1459.8,1459.6,1459.7
201911271054,1459.7,1459.9,1459.6,1459.9
201911271055,1459.9,1459.9,1459.6,1459.6
201911271056,1459.6,1459.7,1459.5,1459.6
201911271057,1459.6,1459.9,1459.6,1459.8
201911271058,1459.9,1459.9,1459.8,1459.8
201911271059,1459.8,1459.8,1459.5,1459.6
201911271100,1459.6,1459.8,1459.5,1459.8
201911271101,1459.8,1459.9,1459.7,1459.7
201911271102,1459.7,1459.7,1459.5,1459.5
201911271103,1459.5,1459.7,1459.5,1459.6
201911271104,1459.6,1459.6,1459.5,1459.5
201911271105,1459.5,1459.6,1459.4,1459.5
201911271106,1459.5,1459.6,1459.4,1459.6
201911271107,1459.6,1459.6,1459.3,1459.4
201911271108,1459.4,1459.4,1459.3,1459.4
201911271109,1459.4,1459.4,1459.3,1459.4
201911271110,1459.4,1459.4,1459.2,1459.3
201911271111,1459.3,1459.4,1459.3,1459.3
201911271112,1459.3,1459.3,1459.2,1459.3
201911271113,1459.3,1459.3,1459.2,1459.3
201911271114,1459.3,1459.3,1459.2,1459.2
201911271115,1459.2,1459.4,1459.2,1459.4
201911271116,1459.4,1459.4,1459.3,1459.4
201911271117,1459.4,1459.4,1459.3,1459.4
201911271118,1459.4,1459.4,1459.4,1459.4
201911271119,1459.4,1459.6,1459.4,1459.6
201911271120,1459.6,1459.6,1459.5,1459.5
201911271121,1459.5,1459.6,1459.4,1459.6
201911271122,1459.6,1459.6,1459.5,1459.6
201911271123,1459.6,1459.6,1459.5,1459.5
201911271124,1459.5,1459.5,1459.3,1459.4
201911271125,1459.4,1459.4,1459.3,1459.3
201911271126,1459.3,1459.3,1459.3,1459.3
201911271127,1459.3,1459.3,1459.2,1459.3
201911271128,1459.3,1459.3,1459.2,1459.3
201911271129,1459.3,1459.3,1459.2,1459.2
201911271130,1459.2,1459.3,1459.2,1459.3
201911271131,1459.3,1459.4,1459.2,1459.4
201911271132,1459.4,1459.4,1459.3,1459.4
201911271133,1459.4,1459.4,1459.3,1459.3
201911271134,1459.3,1459.4,1459.3,1459.4
201911271135,1459.4,1459.4,1459.2,1459.2
201911271136,1459.3,1459.4,1459.3,1459.4
201911271137,1459.4,1459.5,1459.4,1459.5
201911271138,1459.4,1459.6,1459.4,1459.6
201911271139,1459.6,1459.6,1459.4,1459.5
201911271140,1459.5,1459.5,1459.4,1459.5
201911271141,1459.5,1459.6,1459.5,1459.5
201911271142,1459.5,1459.5,1459.4,1459.5
201911271143,1459.5,1459.5,1459.5,1459.5
201911271144,1459.5,1459.5,1459.3,1459.3
201911271145,1459.3,1459.3,1459.1,1459.2
201911271146,1459.2,1459.2,1459.1,1459.1
201911271147,1459.1,1459.2,1459,1459.1
201911271148,1459.1,1459.1,1459,1459
201911271149,1459,1459.1,1459,1459.1
201911271150,1459.1,1459.2,1459.1,1459.1
201911271151,1459.1,1459.1,1459,1459
201911271152,1459,1459.1,1459,1459.1
201911271153,1459.1,1459.1,1459,1459
201911271154,1459,1459,1458.9,1458.9
201911271155,1458.9,1458.9,1458.9,1458.9
201911271156,1458.9,1458.9,1458.9,1458.9
201911271157,1458.9,1458.9,1458.9,1458.9
201911271158,1458.9,1459.1,1458.9,1459
201911271159,1459,1459.1,1459,1459.1
201911271200,1459.2,1459.2,1459.1,1459.2
201911271201,1459.2,1459.2,1459.1,1459.2
201911271202,1459.2,1459.2,1459.1,1459.2
201911271203,1459.2,1459.3,1459.2,1459.3
201911271204,1459.3,1459.3,1459.3,1459.3
201911271205,1459.3,1459.3,1459.2,1459.2
201911271206,1459.2,1459.3,1459.2,1459.3
201911271207,1459.3,1459.3,1459.3,1459.3
201911271208,1459.3,1459.3,1459.2,1459.2
201911271209,1459.2,1459.3,1459.1,1459.3
201911271210,1459.3,1459.3,1459.1,1459.1
201911271211,1459.1,1459.1,1459.1,1459.1
201911271212,1459.1,1459.1,1459.1,1459.1
201911271213,1459.1,1459.5,1459.1,1459.4
201911271214,1459.4,1459.5,1459.3,1459.3
201911271215,1459.3,1459.3,1459.2,1459.3
201911271216,1459.3,1459.4,1459.3,1459.4
201911271217,1459.4,1459.5,1459.4,1459.4
201911271218,1459.4,1459.5,1459.4,1459.5
201911271219,1459.5,1459.5,1459.3,1459.4
201911271220,1459.4,1459.5,1459.4,1459.5
201911271221,1459.5,1459.5,1459.5,1459.5
201911271222,1459.5,1459.5,1459.4,1459.4
201911271223,1459.4,1459.4,1459.3,1459.4
201911271224,1459.4,1459.4,1459.3,1459.4
201911271225,1459.4,1459.4,1459.3,1459.3
201911271226,1459.3,1459.4,1459.2,1459.4
201911271227,1459.4,1459.5,1459.4,1459.4
201911271228,1459.4,1459.4,1459.3,1459.4
201911271229,1459.4,1459.5,1458.9,1458.9
201911271230,1458.9,1459.3,1458.9,1459.3
201911271231,1459.3,1459.4,1459.3,1459.3
201911271232,1459.3,1459.4,1459.2,1459.4
201911271233,1459.4,1459.5,1459.4,1459.5
201911271234,1459.5,1459.8,1459.5,1459.7
201911271235,1459.7,1460,1459.7,1460
201911271236,1460,1460,1459.9,1460
201911271237,1460,1460,1459.9,1460
201911271238,1460,1460,1459.7,1459.8
201911271239,1459.7,1459.8,1459.6,1459.6
201911271240,1459.6,1459.6,1459.6,1459.6
201911271241,1459.6,1459.6,1459.4,1459.4
201911271242,1459.4,1459.4,1459.4,1459.4
201911271243,1459.4,1459.4,1459.4,1459.4
201911271244,1459.4,1459.4,1459.3,1459.3
201911271245,1459.3,1459.3,1459.3,1459.3
201911271246,1459.3,1459.4,1459.3,1459.3
201911271247,1459.3,1459.4,1459.3,1459.3
201911271248,1459.3,1459.3,1459.2,1459.2
201911271249,1459.2,1459.2,1459.2,1459.2
201911271250,1459.2,1459.4,1459.2,1459.4
201911271251,1459.4,1459.4,1459.2,1459.2
201911271252,1459.2,1459.3,1459.2,1459.3
201911271253,1459.3,1459.4,1459.3,1459.3
201911271254,1459.3,1459.5,1459.3,1459.4
201911271255,1459.4,1459.4,1459.3,1459.4
201911271256,1459.4,1459.5,1459.4,1459.5
201911271257,1459.5,1459.6,1459.3,1459.3
201911271258,1459.3,1459.4,1459.3,1459.4
201911271259,1459.4,1459.4,1459.3,1459.3
201911271300,1459.4,1459.4,1459.3,1459.3
201911271301,1459.3,1459.3,1459.2,1459.2
201911271302,1459.2,1459.3,1459.2,1459.3
201911271303,1459.3,1459.3,1459,1459.1
201911271304,1459.1,1459.1,1459,1459.1
201911271305,1459.1,1459.1,1459,1459.1
201911271306,1459.1,1459.2,1459.1,1459.1
201911271307,1459.2,1459.2,1459.2,1459.2
201911271308,1459.2,1459.2,1459.1,1459.1
201911271309,1459.1,1459.3,1459.1,1459.2
201911271310,1459.2,1459.2,1459.1,1459.1
201911271311,1459.1,1459.2,1459.1,1459.2
201911271312,1459.2,1459.2,1459.2,1459.2
201911271313,1459.2,1459.2,1459.2,1459.2
201911271314,1459.2,1459.3,1459.2,1459.3
201911271315,1459.3,1459.3,1459.2,1459.3
201911271316,1459.3,1459.3,1459.2,1459.3
201911271317,1459.3,1459.3,1459.2,1459.2
201911271318,1459.2,1459.2,1459.2,1459.2
201911271319,1459.2,1459.3,1459.2,1459.2
201911271320,1459.2,1459.2,1459.2,1459.2
201911271321,1459.2,1459.3,1459.2,1459.2
201911271322,1459.2,1459.2,1459.2,1459.2
201911271323,1459.2,1459.2,1459.2,1459.2
201911271324,1459.2,1459.2,1459,1459
201911271325,1459,1459,1458.9,1459
201911271326,1459,1459.1,1459,1459
201911271327,1459,1459.1,1459,1459.1
201911271328,1459.1,1459.2,1459.1,1459.1
201911271329,1459.1,1459.1,1459,1459.1
201911271330,1459.1,1459.3,1459.1,1459.3
201911271331,1459.3,1459.3,1459.2,1459.3
201911271332,1459.3,1459.3,1459.2,1459.2
201911271333,1459.2,1459.3,1459.2,1459.3
201911271334,1459.3,1459.3,1459.2,1459.3
201911271335,1459.3,1459.3,1459.2,1459.2
201911271336,1459.2,1459.2,1459.1,1459.1
201911271337,1459.1,1459.1,1459.1,1459.1
201911271338,1459.1,1459.3,1459.1,1459.2
201911271339,1459.3,1459.3,1459.2,1459.3
201911271340,1459.3,1459.3,1459.2,1459.2
201911271341,1459.2,1459.2,1459.1,1459.1
201911271342,1459.1,1459.2,1459.1,1459.2
201911271343,1459.2,1459.2,1459.1,1459.1
201911271344,1459.1,1459.1,1459.1,1459.1
201911271345,1459.1,1459.1,1459.1,1459.1
201911271346,1459.1,1459.2,1459,1459.1
201911271347,1459.1,1459.2,1459.1,1459.1
201911271348,1459.1,1459.2,1459.1,1459.2
201911271349,1459.2,1459.3,1459.1,1459.1
201911271350,1459.1,1459.1,1458.9,1459.1
201911271351,1459,1459.1,1458.9,1458.9
201911271352,1459,1459,1458.8,1458.9
201911271353,1458.9,1459,1458.9,1459
201911271354,1459,1459.1,1458.9,1459.1
201911271355,1459.1,1459.1,1459,1459
201911271356,1459,1459.1,1459,1459
201911271357,1459,1459.1,1458.8,1459.1
201911271358,1459.1,1459.1,1459,1459.1
201911271359,1459.1,1459.1,1459.1,1459.1
201911271400,1459.1,1459.1,1458.9,1458.9
201911271401,1458.9,1459,1458.9,1459
201911271402,1459,1459.1,1459,1459.1
201911271403,1459.1,1459.1,1459,1459
201911271404,1459,1459.1,1459,1459
201911271405,1459,1459,1459,1459
201911271406,1459,1459.1,1459,1459.1
201911271407,1459.1,1459.1,1459,1459
201911271408,1459.1,1459.1,1459,1459.1
201911271409,1459.1,1459.2,1459.1,1459.1
201911271410,1459.1,1459.2,1459.1,1459.1
201911271411,1459.1,1459.2,1459.1,1459.1
201911271412,1459.1,1459.2,1459.1,1459.1
201911271413,1459.1,1459.2,1459.1,1459.1
201911271414,1459.1,1459.2,1459.1,1459.2
201911271415,1459.2,1459.3,1459.2,1459.2
201911271416,1459.2,1459.2,1459.2,1459.2
201911271417,1459.2,1459.3,1459.2,1459.3
201911271418,1459.3,1459.4,1459.3,1459.4
201911271419,1459.4,1459.4,1459.3,1459.4
201911271420,1459.4,1459.4,1459.4,1459.4
201911271421,1459.4,1459.6,1459.4,1459.5
201911271422,1459.6,1459.6,1459.4,1459.4
201911271423,1459.4,1459.5,1459.4,1459.5
201911271424,1459.5,1459.6,1459.5,1459.6
201911271425,1459.6,1459.6,1459.4,1459.6
201911271426,1459.6,1459.6,1459.5,1459.5
201911271427,1459.5,1459.6,1459.5,1459.6
201911271428,1459.6,1459.6,1459.5,1459.6
201911271429,1459.6,1459.6,1459.3,1459.3
201911271430,1459.3,1459.3,1458.7,1458.8
201911271431,1458.8,1458.8,1458.2,1458.5
201911271432,1458.5,1458.7,1458.5,1458.6
201911271433,1458.6,1458.8,1458.6,1458.8
201911271434,1458.8,1458.9,1458.7,1458.8
201911271435,1458.8,1458.9,1458.8,1458.9
201911271436,1458.9,1458.9,1458.5,1458.6
201911271437,1458.6,1458.7,1458.2,1458.3
201911271438,1458.3,1458.3,1458,1458.2
201911271439,1458.2,1458.3,1458.1,1458.3
201911271440,1458.3,1458.4,1458.2,1458.4
201911271441,1458.4,1458.4,1457.8,1457.9
201911271442,1457.9,1458.3,1457.9,1458.2
201911271443,1458.2,1458.3,1458.1,1458.2
201911271444,1458.2,1458.3,1458.1,1458.3
201911271445,1458.3,1458.4,1458.2,1458.3
201911271446,1458.3,1458.4,1458.1,1458.1
201911271447,1458.1,1458.2,1458,1458.2
201911271448,1458.2,1458.3,1458.2,1458.3
201911271449,1458.3,1458.4,1458.3,1458.3
201911271450,1458.3,1458.4,1458.3,1458.4
201911271451,1458.4,1458.5,1458.4,1458.5
201911271452,1458.5,1458.5,1458.3,1458.3
201911271453,1458.3,1458.4,1458.3,1458.4
201911271454,1458.4,1458.5,1458.4,1458.4
201911271455,1458.4,1458.5,1458.4,1458.5
201911271456,1458.5,1458.6,1458.5,1458.6
201911271457,1458.6,1458.8,1458.6,1458.8
201911271458,1458.8,1458.8,1458.7,1458.7
201911271459,1458.7,1458.8,1458.7,1458.8
201911271500,1458.8,1458.9,1458.6,1458.6
201911271501,1458.6,1458.7,1458.5,1458.5
201911271502,1458.5,1458.6,1458.5,1458.6
201911271503,1458.6,1458.6,1458.5,1458.6
201911271504,1458.6,1458.7,1458.6,1458.6
201911271505,1458.7,1458.7,1458.6,1458.6
201911271506,1458.6,1458.7,1458.6,1458.7
201911271507,1458.7,1458.9,1458.7,1458.9
201911271508,1458.9,1458.9,1458.7,1458.8
201911271509,1458.8,1458.8,1458.7,1458.8
201911271510,1458.8,1458.9,1458.7,1458.9
201911271511,1458.9,1458.9,1458.8,1458.9
201911271512,1458.9,1459,1458.9,1459
201911271513,1459,1459.1,1459,1459.1
201911271514,1459.1,1459.1,1459,1459.1
201911271515,1459.1,1459.2,1459.1,1459.1
201911271516,1459.1,1459.2,1459.1,1459.1
201911271517,1459.1,1459.1,1459,1459.1
201911271518,1459.1,1459.1,1459,1459
201911271519,1459,1459.2,1459,1459
201911271520,1459,1459.2,1459,1459.2
201911271521,1459.2,1459.4,1459.2,1459.2
201911271522,1459.2,1459.4,1459.2,1459.3
201911271523,1459.3,1459.3,1459.3,1459.3
201911271524,1459.3,1459.4,1459.2,1459.3
201911271525,1459.3,1459.4,1459.2,1459.2
201911271526,1459.2,1459.2,1458.7,1458.7
201911271527,1458.7,1459,1458.7,1458.9
201911271528,1458.9,1459,1458.7,1458.7
201911271529,1458.7,1458.8,1458.6,1458.7
201911271530,1458.7,1458.7,1458.6,1458.6
201911271531,1458.6,1458.6,1458.4,1458.5
201911271532,1458.5,1458.6,1458.5,1458.6
201911271533,1458.6,1458.6,1458.4,1458.4
201911271534,1458.4,1458.5,1458.4,1458.5
201911271535,1458.6,1458.6,1458.5,1458.5
201911271536,1458.5,1458.6,1458.4,1458.5
201911271537,1458.5,1458.5,1458.5,1458.5
201911271538,1458.5,1458.5,1458.4,1458.5
201911271539,1458.5,1458.6,1458.5,1458.6
201911271540,1458.6,1458.6,1458.6,1458.6
201911271541,1458.6,1458.8,1458.6,1458.8
201911271542,1458.8,1458.8,1458.8,1458.8
201911271543,1458.8,1458.8,1458.7,1458.8
201911271544,1458.8,1458.8,1458.6,1458.7
201911271545,1458.7,1458.7,1458.7,1458.7
201911271546,1458.7,1458.9,1458.7,1458.9
201911271547,1458.9,1459.2,1458.9,1459.1
201911271548,1459.1,1459.1,1458.9,1458.9
201911271549,1458.9,1459.1,1458.9,1459
201911271550,1459,1459.1,1458.9,1459.1
201911271551,1459.1,1459.4,1459.1,1459.4
201911271552,1459.4,1459.4,1459.3,1459.3
201911271553,1459.3,1459.4,1459.3,1459.4
201911271554,1459.4,1459.5,1459.4,1459.5
201911271555,1459.5,1459.6,1459.5,1459.6
201911271556,1459.6,1459.7,1459.6,1459.6
201911271557,1459.6,1459.6,1459.4,1459.6
201911271558,1459.6,1459.7,1459.5,1459.7
201911271559,1459.7,1459.8,1459.6,1459.7
201911271600,1459.7,1459.9,1459.6,1459.9
201911271601,1459.9,1460.1,1459.9,1460
201911271602,1460,1460.1,1460,1460.1
201911271603,1460.1,1460.1,1459.8,1459.9
201911271604,1459.9,1459.9,1459.6,1459.7
201911271605,1459.8,1459.8,1459.6,1459.6
201911271606,1459.7,1459.7,1459.5,1459.6
201911271607,1459.6,1459.6,1459.4,1459.4
201911271608,1459.4,1459.5,1459.4,1459.5
201911271609,1459.5,1459.5,1459.4,1459.5
201911271610,1459.5,1459.5,1459.3,1459.3
201911271611,1459.3,1459.4,1459.3,1459.4
201911271612,1459.4,1459.4,1459.3,1459.3
201911271613,1459.3,1459.4,1459.3,1459.3
201911271614,1459.3,1459.4,1459.3,1459.3
201911271615,1459.3,1459.3,1459.1,1459.1
201911271616,1459.1,1459.3,1459.1,1459.3
201911271617,1459.3,1459.3,1459.1,1459.1
201911271618,1459.1,1459.3,1459.1,1459.3
201911271619,1459.3,1459.3,1459.1,1459.2
201911271620,1459.2,1459.2,1459.1,1459.1
201911271621,1459.1,1459.1,1458.6,1459
201911271622,1459,1459.5,1459,1459.5
201911271623,1459.5,1459.5,1459.4,1459.5
201911271624,1459.5,1459.6,1459.5,1459.6
201911271625,1459.6,1459.7,1459.6,1459.6
201911271626,1459.6,1459.7,1459.5,1459.5
201911271627,1459.5,1459.5,1459.3,1459.3
201911271628,1459.3,1459.3,1459.1,1459.2
201911271629,1459.2,1459.3,1459.2,1459.2
201911271630,1459.2,1459.2,1459,1459.2
201911271631,1459.2,1459.4,1459.2,1459.4
201911271632,1459.4,1459.6,1459.3,1459.6
201911271633,1459.6,1459.8,1459.4,1459.7
201911271634,1459.7,1459.8,1459.7,1459.8
201911271635,1459.8,1459.8,1459.6,1459.7
201911271636,1459.7,1459.8,1459.6,1459.6
201911271637,1459.6,1459.6,1459.3,1459.3
201911271638,1459.3,1459.3,1458.9,1459.1
201911271639,1459.1,1459.1,1458.9,1458.9
201911271640,1458.9,1458.9,1458.5,1458.7
201911271641,1458.8,1458.8,1458.6,1458.7
201911271642,1458.7,1458.8,1458.7,1458.8
201911271643,1458.8,1458.9,1458.8,1458.9
201911271644,1458.9,1459,1458.8,1458.9
201911271645,1458.9,1458.9,1458.8,1458.9
201911271646,1458.9,1459,1458.8,1459
201911271647,1459,1459.2,1459,1459.1
201911271648,1459.1,1459.1,1459.1,1459.1
201911271649,1459.1,1459.1,1459.1,1459.1
201911271650,1459.1,1459.1,1459,1459
201911271651,1459,1459,1458.7,1458.7
201911271652,1458.7,1458.8,1458.7,1458.8
201911271653,1458.8,1458.8,1458.7,1458.8
201911271654,1458.8,1458.8,1458.4,1458.6
201911271655,1458.6,1458.8,1458.6,1458.7
201911271656,1458.6,1458.8,1458.6,1458.7
201911271657,1458.7,1458.8,1458.6,1458.7
201911271658,1458.7,1458.8,1458.6,1458.7
201911271659,1458.7,1458.7,1458.2,1458.2
201911271700,1458.2,1458.6,1457.9,1458.4
201911271701,1458.4,1458.7,1458.4,1458.5
201911271702,1458.5,1458.9,1458.4,1458.4
201911271703,1458.4,1458.8,1458.4,1458.6
201911271704,1458.6,1458.8,1458.5,1458.8
201911271705,1458.8,1458.9,1458.7,1458.8
201911271706,1458.8,1459.2,1458.8,1459.1
201911271707,1459.1,1459.2,1459,1459.1
201911271708,1459.1,1459.3,1459,1459.3
201911271709,1459.2,1459.4,1459.2,1459.3
201911271710,1459.3,1459.4,1459.1,1459.1
201911271711,1459.1,1459.4,1459.1,1459.3
201911271712,1459.3,1459.3,1459,1459.1
201911271713,1459.1,1459.2,1459,1459.1
201911271714,1459.1,1459.1,1458.9,1459.1
201911271715,1459.1,1459.2,1459,1459.1
201911271716,1459.1,1459.2,1459,1459.1
201911271717,1459.1,1459.2,1458.9,1459
201911271718,1459,1459.1,1458.9,1459
201911271719,1459,1459.1,1458.6,1458.6
201911271720,1458.6,1459,1458.6,1458.7
201911271721,1458.8,1458.8,1458.6,1458.8
201911271722,1458.8,1458.9,1458.6,1458.6
201911271723,1458.6,1458.7,1458.5,1458.7
201911271724,1458.7,1458.8,1458.7,1458.8
201911271725,1458.8,1458.8,1458.6,1458.6
201911271726,1458.6,1458.6,1458.6,1458.6
201911271727,1458.6,1458.6,1458.5,1458.6
201911271728,1458.6,1458.7,1458.5,1458.5
201911271729,1458.5,1458.6,1458.3,1458.4
201911271730,1458.4,1458.5,1458.2,1458.5
201911271731,1458.5,1458.6,1458.4,1458.6
201911271732,1458.7,1458.9,1458.7,1458.8
201911271733,1458.8,1458.8,1458.6,1458.7
201911271734,1458.7,1458.8,1458.6,1458.6
201911271735,1458.6,1458.6,1458.4,1458.5
201911271736,1458.5,1458.5,1458.4,1458.5
201911271737,1458.5,1458.5,1458.3,1458.3
201911271738,1458.3,1458.4,1458.2,1458.3
201911271739,1458.3,1458.4,1458.2,1458.2
201911271740,1458.2,1458.3,1458.2,1458.3
201911271741,1458.3,1458.4,1458.3,1458.4
201911271742,1458.4,1458.4,1458.3,1458.3
201911271743,1458.3,1458.5,1458.3,1458.4
201911271744,1458.4,1458.6,1458.4,1458.6
201911271745,1458.6,1458.8,1458.6,1458.8
201911271746,1458.8,1458.9,1458.7,1458.7
201911271747,1458.7,1459,1458.7,1458.9
201911271748,1458.9,1459,1458.9,1459
201911271749,1459,1459,1458.8,1459
201911271750,1459,1459,1458.6,1458.6
201911271751,1458.6,1458.7,1458.5,1458.5
201911271752,1458.5,1459,1458.5,1458.7
201911271753,1458.7,1459.2,1458.7,1459.1
201911271754,1459.1,1459.2,1459,1459
201911271755,1459,1459,1458.9,1459
201911271756,1459,1459.1,1459,1459.1
201911271757,1459.1,1459.3,1459.1,1459.2
201911271758,1459.2,1459.4,1459.1,1459.3
201911271759,1459.2,1459.3,1459.1,1459.3
201911271800,1459.3,1459.4,1459.2,1459.4
201911271801,1459.4,1459.7,1459.3,1459.7
201911271802,1459.7,1459.7,1459.4,1459.4
201911271803,1459.5,1459.5,1459.2,1459.4
201911271804,1459.4,1459.5,1459.2,1459.3
201911271805,1459.3,1459.3,1459,1459
201911271806,1459.1,1459.3,1459,1459.2
201911271807,1459.2,1459.3,1459.1,1459.2
201911271808,1459.2,1459.3,1459.1,1459.1
201911271809,1459.1,1459.2,1459,1459.1
201911271810,1459.1,1459.3,1459.1,1459.1
201911271811,1459.1,1459.1,1459,1459.1
201911271812,1459.1,1459.1,1458.6,1458.6
201911271813,1458.6,1458.9,1458.6,1458.8
201911271814,1458.8,1458.8,1458.7,1458.7
201911271815,1458.7,1458.7,1458.3,1458.5
201911271816,1458.5,1458.5,1458.4,1458.5
201911271817,1458.5,1458.7,1458.4,1458.6
201911271818,1458.6,1458.9,1458.6,1458.9
201911271819,1458.9,1459.1,1458.8,1459.1
201911271820,1459.1,1459.1,1458.8,1458.8
201911271821,1458.8,1459,1458.7,1458.7
201911271822,1458.7,1459.1,1458.6,1459
201911271823,1459,1459,1458.6,1458.6
201911271824,1458.6,1458.7,1458.5,1458.7
201911271825,1458.7,1458.8,1458.4,1458.5
201911271826,1458.5,1458.7,1458.5,1458.7
201911271827,1458.7,1458.7,1458.5,1458.5
201911271828,1458.5,1458.8,1458.4,1458.8
201911271829,1458.8,1458.9,1458.6,1458.6
201911271830,1458.6,1458.6,1458.4,1458.5
201911271831,1458.5,1458.6,1458.4,1458.6
201911271832,1458.6,1458.7,1458.5,1458.6
201911271833,1458.6,1458.8,1458.6,1458.8
201911271834,1458.8,1458.8,1458.7,1458.7
201911271835,1458.7,1458.7,1458.6,1458.6
201911271836,1458.6,1458.8,1458.5,1458.8
201911271837,1458.8,1459,1458.8,1458.9
201911271838,1458.9,1458.9,1458.8,1458.8
201911271839,1458.8,1458.8,1458.7,1458.7
201911271840,1458.7,1458.8,1458.6,1458.7
201911271841,1458.7,1458.7,1458.6,1458.7
201911271842,1458.7,1458.7,1458.5,1458.5
201911271843,1458.5,1458.6,1458.5,1458.6
201911271844,1458.6,1458.8,1458.6,1458.7
201911271845,1458.7,1458.9,1458.7,1458.8
201911271846,1458.8,1458.8,1458.8,1458.8
201911271847,1458.8,1458.8,1458.8,1458.8
201911271848,1458.8,1458.8,1458.6,1458.6
201911271849,1458.6,1458.6,1458.4,1458.5
201911271850,1458.5,1458.7,1458.4,1458.7
201911271851,1458.7,1458.8,1458.6,1458.6
201911271852,1458.6,1458.7,1458.6,1458.7
201911271853,1458.7,1459,1458.7,1458.9
201911271854,1458.9,1458.9,1458.8,1458.9
201911271855,1458.9,1459,1458.8,1458.9
201911271856,1458.9,1459,1458.8,1458.9
201911271857,1458.9,1458.9,1458.7,1458.9
201911271858,1458.9,1459,1458.8,1459
201911271859,1459,1459,1458.8,1458.8
201911271900,1458.8,1458.8,1458.7,1458.7
201911271901,1458.7,1458.8,1458.7,1458.7
201911271902,1458.7,1458.8,1458.6,1458.8
201911271903,1458.8,1458.8,1458.7,1458.7
201911271904,1458.7,1458.8,1458.5,1458.5
201911271905,1458.5,1458.6,1458.4,1458.6
201911271906,1458.6,1458.6,1458.4,1458.5
201911271907,1458.5,1458.6,1458.5,1458.5
201911271908,1458.5,1458.6,1458.5,1458.5
201911271909,1458.5,1458.5,1458.4,1458.4
201911271910,1458.4,1458.5,1458.4,1458.5
201911271911,1458.4,1458.4,1458.3,1458.4
201911271912,1458.4,1458.4,1458.3,1458.3
201911271913,1458.3,1458.3,1458.3,1458.3
201911271914,1458.3,1458.4,1458.3,1458.3
201911271915,1458.3,1458.3,1458.2,1458.3
201911271916,1458.3,1458.4,1458.3,1458.4
201911271917,1458.4,1458.8,1458.4,1458.8
201911271918,1458.8,1458.8,1458.6,1458.6
201911271919,1458.6,1458.7,1458.5,1458.7
201911271920,1458.7,1458.7,1458.5,1458.6
201911271921,1458.6,1458.6,1458.5,1458.6
201911271922,1458.6,1458.6,1458.5,1458.6
201911271923,1458.6,1458.9,1458.5,1458.9
201911271924,1458.9,1458.9,1458.8,1458.9
201911271925,1458.9,1459.1,1458.9,1459
201911271926,1459,1459.1,1458.9,1459
201911271927,1459,1459.2,1459,1459.1
201911271928,1459.1,1459.2,1459.1,1459.1
201911271929,1459.1,1459.4,1459.1,1459.2
201911271930,1459.2,1459.7,1459.1,1459.6
201911271931,1459.6,1459.7,1459.4,1459.5
201911271932,1459.5,1459.7,1459.5,1459.7
201911271933,1459.7,1459.8,1459.6,1459.6
201911271934,1459.6,1459.8,1459.5,1459.8
201911271935,1459.8,1459.8,1459.5,1459.6
201911271936,1459.6,1459.6,1459.5,1459.5
201911271937,1459.5,1459.5,1459.5,1459.5
201911271938,1459.5,1459.5,1459.5,1459.5
201911271939,1459.5,1459.6,1459.5,1459.5
201911271940,1459.5,1459.6,1459.5,1459.5
201911271941,1459.5,1459.6,1459.4,1459.4
201911271942,1459.4,1459.5,1459.4,1459.5
201911271943,1459.5,1459.5,1459.4,1459.5
201911271944,1459.5,1459.6,1459.5,1459.6
201911271945,1459.6,1459.8,1459.6,1459.7
201911271946,1459.7,1459.8,1459.7,1459.7
201911271947,1459.7,1459.9,1459.7,1459.7
201911271948,1459.7,1460,1459.7,1459.9
201911271949,1459.9,1460.1,1459.8,1460
201911271950,1460,1460,1459.8,1460
201911271951,1460,1460,1459.9,1459.9
201911271952,1459.9,1460,1459.8,1460
201911271953,1460,1460,1459.8,1459.9
201911271954,1459.9,1460.1,1459.9,1460.1
201911271955,1460.1,1460.1,1460,1460
201911271956,1460,1460.1,1460,1460.1
201911271957,1460.1,1460.1,1459.9,1460
201911271958,1460,1460,1459.9,1459.9
201911271959,1459.9,1459.9,1459.7,1459.8
201911272000,1459.8,1460.1,1459.8,1459.8
201911272001,1459.8,1459.8,1459.7,1459.7
201911272002,1459.7,1459.7,1459.5,1459.5
201911272003,1459.5,1459.5,1459.3,1459.5
201911272004,1459.6,1459.7,1459.5,1459.5
201911272005,1459.5,1459.6,1459.4,1459.5
201911272006,1459.5,1459.7,1459.5,1459.7
201911272007,1459.7,1459.7,1459.3,1459.4
201911272008,1459.4,1459.4,1459.2,1459.3
201911272009,1459.3,1459.4,1459.2,1459.4
201911272010,1459.4,1459.4,1459.3,1459.4
201911272011,1459.4,1459.5,1459.3,1459.4
201911272012,1459.4,1459.4,1459.2,1459.3
201911272013,1459.3,1459.3,1459.2,1459.2
201911272014,1459.3,1459.4,1459.2,1459.3
201911272015,1459.3,1459.5,1459.3,1459.3
201911272016,1459.3,1459.5,1459.3,1459.4
201911272017,1459.4,1459.5,1459.4,1459.4
201911272018,1459.4,1459.5,1459.4,1459.5
201911272019,1459.5,1459.5,1459.1,1459.1
201911272020,1459.1,1459.3,1459.1,1459.3
201911272021,1459.3,1459.3,1459.1,1459.1
201911272022,1459.1,1459.2,1459.1,1459.2
201911272023,1459.2,1459.2,1459,1459.1
201911272024,1459.1,1459.1,1458.7,1458.9
201911272025,1458.9,1459,1458.8,1459
201911272026,1459,1459,1458.9,1458.9
201911272027,1458.9,1458.9,1458.7,1458.8
201911272028,1458.8,1458.8,1458.6,1458.6
201911272029,1458.6,1458.6,1458.4,1458.5
201911272030,1458.6,1458.6,1458.4,1458.4
201911272031,1458.4,1458.5,1458.4,1458.5
201911272032,1458.5,1458.6,1458.5,1458.5
201911272033,1458.5,1458.7,1458.4,1458.6
201911272034,1458.6,1458.6,1458.5,1458.5
201911272035,1458.5,1458.7,1458.5,1458.6
201911272036,1458.6,1458.7,1458.6,1458.6
201911272037,1458.6,1458.6,1458.5,1458.5
201911272038,1458.5,1458.6,1458.4,1458.4
201911272039,1458.4,1458.5,1457.3,1457.5
201911272040,1457.4,1458,1457.3,1457.8
201911272041,1457.8,1458,1457.8,1457.9
201911272042,1457.9,1457.9,1457.8,1457.8
201911272043,1457.8,1457.9,1457.8,1457.9
201911272044,1457.9,1458,1457.9,1458
201911272045,1458,1458,1457.7,1457.7
201911272046,1457.7,1457.8,1457.5,1457.8
201911272047,1457.9,1458,1457.8,1457.8
201911272048,1457.8,1457.9,1457.8,1457.9
201911272049,1457.9,1458,1457.7,1457.8
201911272050,1457.8,1457.8,1457.4,1457.5
201911272051,1457.5,1457.6,1457.4,1457.6
201911272052,1457.6,1457.7,1457.3,1457.7
201911272053,1457.7,1457.7,1457.6,1457.6
201911272054,1457.6,1458,1457.5,1458
201911272055,1458,1458,1457.7,1457.8
201911272056,1457.8,1458,1457.8,1458
201911272057,1458,1458,1457.8,1457.9
201911272058,1457.9,1458.1,1457.8,1458.1
201911272059,1458.1,1458.6,1458.1,1458.6
201911272100,1458.6,1458.9,1458.5,1458.9
201911272101,1458.9,1458.9,1458.7,1458.7
201911272102,1458.7,1458.7,1458.4,1458.4
201911272103,1458.4,1458.5,1457.9,1458
201911272104,1458,1458.2,1458,1458.1
201911272105,1458.1,1458.1,1458,1458.1
201911272106,1458.1,1458.4,1458,1458.4
201911272107,1458.4,1458.5,1458.3,1458.4
201911272108,1458.4,1458.6,1458.3,1458.6
201911272109,1458.6,1458.6,1458.4,1458.4
201911272110,1458.4,1458.5,1458.3,1458.4
201911272111,1458.4,1458.5,1458.3,1458.5
201911272112,1458.5,1458.6,1458.4,1458.6
201911272113,1458.6,1458.8,1458.4,1458.4
201911272114,1458.4,1458.7,1458.4,1458.7
201911272115,1458.7,1458.7,1458.5,1458.6
201911272116,1458.6,1458.6,1458.4,1458.4
201911272117,1458.4,1458.5,1458.4,1458.4
201911272118,1458.4,1458.6,1458.4,1458.5
201911272119,1458.5,1458.5,1458.4,1458.5
201911272120,1458.5,1458.6,1458.4,1458.4
201911272121,1458.4,1458.4,1458.3,1458.3
201911272122,1458.3,1458.3,1458.1,1458.2
201911272123,1458.2,1458.3,1458.1,1458.1
201911272124,1458.1,1458.2,1458.1,1458.1
201911272125,1458.1,1458.2,1458,1458.2
201911272126,1458.1,1458.2,1458.1,1458.2
201911272127,1458.2,1458.3,1458.2,1458.3
201911272128,1458.3,1458.5,1458.3,1458.4
201911272129,1458.4,1458.6,1458.4,1458.5
201911272130,1458.5,1458.5,1458,1458
201911272131,1458,1458.1,1457.9,1458
201911272132,1457.9,1457.9,1457.8,1457.9
201911272133,1457.9,1457.9,1457.5,1457.7
201911272134,1457.6,1457.7,1457.4,1457.5
201911272135,1457.5,1457.9,1457.5,1457.9
201911272136,1457.9,1458.1,1457.9,1458
201911272137,1458,1458.2,1457.9,1458
201911272138,1458,1458,1458,1458
201911272139,1458,1458,1457.7,1457.8
201911272140,1457.8,1457.8,1457.6,1457.6
201911272141,1457.6,1457.8,1457.5,1457.6
201911272142,1457.6,1457.8,1457.5,1457.8
201911272143,1457.8,1457.9,1457.6,1457.6
201911272144,1457.6,1457.7,1457.5,1457.6
201911272145,1457.6,1457.6,1457.5,1457.5
201911272146,1457.5,1457.6,1457.5,1457.5
201911272147,1457.5,1457.7,1457.4,1457.5
201911272148,1457.5,1457.5,1457.2,1457.5
201911272149,1457.4,1457.5,1457.4,1457.5
201911272150,1457.5,1457.8,1457.5,1457.7
201911272151,1457.7,1457.7,1457.6,1457.6
201911272152,1457.6,1457.6,1457.4,1457.4
201911272153,1457.4,1457.9,1457.4,1457.8
201911272154,1457.8,1457.8,1457.6,1457.6
201911272155,1457.6,1457.8,1457.6,1457.8
201911272156,1457.8,1457.8,1457.7,1457.8
201911272157,1457.8,1457.8,1457.7,1457.8
201911272158,1457.8,1457.9,1457.7,1457.9
201911272159,1457.9,1458.1,1457.7,1457.8
201911272200,1457.8,1458.2,1457.7,1458
201911272201,1458,1458,1457.8,1457.9
201911272202,1457.9,1458.2,1457.9,1458.1
201911272203,1458.1,1458.1,1457.8,1457.9
201911272204,1457.9,1457.9,1457.6,1457.6
201911272205,1457.6,1457.6,1456.5,1456.8
201911272206,1456.8,1456.9,1456.7,1456.9
201911272207,1456.9,1457,1456.9,1457
201911272208,1457,1457.1,1456.7,1456.8
201911272209,1456.8,1457.1,1456.8,1457.1
201911272210,1457.1,1457.1,1456.9,1456.9
201911272211,1456.9,1456.9,1456.7,1456.7
201911272212,1456.7,1456.8,1456.4,1456.6
201911272213,1456.6,1456.7,1456.4,1456.4
201911272214,1456.4,1456.5,1456.1,1456.4
201911272215,1456.4,1456.5,1456.2,1456.3
201911272216,1456.3,1456.8,1456.3,1456.6
201911272217,1456.6,1456.7,1456.5,1456.6
201911272218,1456.6,1456.6,1456.4,1456.6
201911272219,1456.6,1456.6,1456.2,1456.3
201911272220,1456.3,1456.3,1456,1456.1
201911272221,1456.1,1456.1,1455.3,1455.4
201911272222,1455.4,1456,1455.2,1455.9
201911272223,1456,1456.2,1456,1456.1
201911272224,1456.1,1456.5,1455.9,1456.3
201911272225,1456.3,1456.4,1455.9,1456.1
201911272226,1456.1,1456.3,1455.9,1456.3
201911272227,1456.3,1456.5,1456.1,1456.5
201911272228,1456.5,1456.6,1456.5,1456.6
201911272229,1456.7,1456.8,1456.4,1456.5
201911272230,1456.5,1456.5,1454.1,1454.4
201911272231,1454.4,1455.1,1453.9,1454.8
201911272232,1454.8,1454.8,1454,1454.4
201911272233,1454.4,1454.5,1453.7,1454.5
201911272234,1454.5,1454.8,1454.2,1454.6
201911272235,1454.6,1455.1,1454.4,1454.9
201911272236,1455,1455,1454.1,1454.6
201911272237,1454.6,1454.7,1454.2,1454.4
201911272238,1454.4,1454.7,1454.3,1454.3
201911272239,1454.3,1454.6,1454.1,1454.6
201911272240,1454.6,1454.8,1454.3,1454.7
201911272241,1454.7,1454.7,1454.2,1454.4
201911272242,1454.4,1454.4,1454,1454.2
201911272243,1454.2,1454.9,1454.2,1454.9
201911272244,1454.8,1454.8,1454.2,1454.4
201911272245,1454.4,1454.5,1454,1454.4
201911272246,1454.7,1454.8,1454.5,1454.6
201911272247,1454.6,1454.7,1454.5,1454.6
201911272248,1454.6,1454.6,1454.4,1454.5
201911272249,1454.5,1454.7,1454.3,1454.3
201911272250,1454.3,1454.4,1454.1,1454.4
201911272251,1454.4,1454.8,1454.4,1454.6
201911272252,1454.6,1454.6,1454.1,1454.1
201911272253,1454.1,1454.5,1453.9,1454.4
201911272254,1454.4,1454.5,1454.1,1454.3
201911272255,1454.3,1454.5,1454.2,1454.3
201911272256,1454.3,1454.5,1454.2,1454.4
201911272257,1454.4,1454.6,1454.3,1454.6
201911272258,1454.6,1454.9,1454.6,1454.9
201911272259,1454.9,1455.1,1454.8,1455.1
201911272300,1455.1,1455.2,1454.4,1455.2
201911272301,1455.2,1455.3,1454.8,1454.9
201911272302,1454.9,1455.1,1454.6,1454.7
201911272303,1454.7,1454.8,1454.5,1454.6
201911272304,1454.6,1454.7,1454.5,1454.6
201911272305,1454.6,1454.6,1453,1453.4
201911272306,1453.4,1453.9,1453.4,1453.8
201911272307,1453.8,1454.1,1453.7,1453.9
201911272308,1453.9,1454.1,1453.5,1453.6
201911272309,1453.6,1453.9,1453.6,1453.8
201911272310,1453.8,1454.7,1453.7,1454.4
201911272311,1454.4,1454.4,1454.1,1454.3
201911272312,1454.3,1454.8,1454.3,1454.8
201911272313,1454.8,1454.8,1454.4,1454.5
201911272314,1454.5,1454.9,1454.5,1454.7
201911272315,1454.7,1454.9,1454.5,1454.9
201911272316,1454.9,1455,1454.6,1454.6
201911272317,1454.6,1454.8,1454.1,1454.8
201911272318,1454.8,1454.9,1454.7,1454.8
201911272319,1454.8,1454.8,1454.6,1454.8
201911272320,1454.7,1454.9,1454.6,1454.9
201911272321,1454.9,1455,1454.9,1454.9
201911272322,1454.9,1455,1454.6,1454.7
201911272323,1454.7,1454.8,1454.5,1454.5
201911272324,1454.5,1454.7,1454.4,1454.7
201911272325,1454.7,1454.9,1454.4,1454.4
201911272326,1454.4,1454.6,1454.2,1454.2
201911272327,1454.2,1454.5,1454.2,1454.5
201911272328,1454.5,1454.5,1454.3,1454.3
201911272329,1454.3,1454.4,1454.2,1454.3
201911272330,1454.5,1454.6,1454.3,1454.5
201911272331,1454.5,1454.9,1454.3,1454.5
201911272332,1454.5,1454.8,1453.8,1453.9
201911272333,1453.8,1454.7,1453.8,1454.4
201911272334,1454.4,1454.8,1454.2,1454.3
201911272335,1454.3,1454.6,1454.1,1454.5
201911272336,1454.5,1454.7,1454.3,1454.5
201911272337,1454.5,1454.5,1454.2,1454.3
201911272338,1454.3,1454.8,1454.1,1454.7
201911272339,1454.7,1454.9,1454.6,1454.7
201911272340,1454.7,1454.7,1454.4,1454.5
201911272341,1454.5,1454.5,1454.2,1454.2
201911272342,1454.2,1454.8,1454.2,1454.7
201911272343,1454.7,1454.8,1454.5,1454.6
201911272344,1454.7,1454.8,1454.7,1454.7
201911272345,1454.7,1454.9,1454.4,1454.5
201911272346,1454.5,1454.5,1454.3,1454.3
201911272347,1454.3,1454.3,1454,1454.3
201911272348,1454.3,1454.4,1454,1454.1
201911272349,1454.1,1454.2,1453.6,1453.9
201911272350,1453.9,1453.9,1453.6,1453.8
201911272351,1453.8,1454,1453.6,1453.7
201911272352,1453.8,1453.8,1453.5,1453.6
201911272353,1453.6,1453.8,1453.2,1453.4
201911272354,1453.4,1453.5,1453.1,1453.4
201911272355,1453.5,1453.8,1453.1,1453.8
201911272356,1453.8,1453.9,1453.7,1453.8
201911272357,1453.8,1454.1,1453.7,1453.9
201911272358,1453.9,1454.3,1453.9,1454.3
201911272359,1454.3,1454.3,1454,1454
201911280000,1454.1,1455.2,1453.7,1455.1
201911280001,1455.2,1456.5,1455.2,1456.1
201911280002,1456.1,1456.1,1455.2,1455.7
201911280003,1455.7,1456.4,1455.6,1456
201911280004,1456,1456,1455.5,1456
201911280005,1455.9,1455.9,1455.5,1455.7
201911280006,1455.7,1455.9,1455.6,1455.9
201911280007,1455.9,1456.3,1455.8,1456.2
201911280008,1456.2,1456.3,1456.1,1456.3
201911280009,1456.3,1456.4,1456.1,1456.3
201911280010,1456.2,1456.2,1455.6,1455.7
201911280011,1455.7,1455.9,1455.6,1455.8
201911280012,1455.7,1455.7,1455.4,1455.6
201911280013,1455.6,1455.8,1455.5,1455.6
201911280014,1455.6,1455.8,1455.5,1455.6
201911280015,1455.5,1456.1,1455.5,1456
201911280016,1456.1,1456.1,1455.6,1455.7
201911280017,1455.7,1455.7,1455.2,1455.3
201911280018,1455.3,1455.3,1454.9,1454.9
201911280019,1454.9,1455,1454.5,1454.5
201911280020,1454.6,1454.8,1454.2,1454.3
201911280021,1454.3,1454.5,1454.2,1454.5
201911280022,1454.5,1455,1454.5,1455
201911280023,1455,1455,1454.7,1455
201911280024,1455,1455.1,1454.7,1454.7
201911280025,1454.7,1454.7,1454.4,1454.6
201911280026,1454.5,1454.9,1454.4,1454.6
201911280027,1454.7,1454.8,1454.6,1454.6
201911280028,1454.6,1454.8,1454.5,1454.5
201911280029,1454.5,1454.6,1454.4,1454.6
201911280030,1454.6,1454.7,1454.5,1454.5
201911280031,1454.5,1454.8,1454.3,1454.7
201911280032,1454.7,1454.9,1454.6,1454.8
201911280033,1454.8,1455.3,1454.8,1455.2
201911280034,1455.2,1455.5,1455.1,1455.5
201911280035,1455.5,1455.7,1455.3,1455.3
201911280036,1455.3,1455.8,1455.2,1455.6
201911280037,1455.6,1456.1,1455.6,1456
201911280038,1456,1456.3,1456,1456.2
201911280039,1456.2,1456.3,1455.8,1455.8
201911280040,1455.7,1456,1455.7,1455.8
201911280041,1455.8,1456.1,1455.8,1456
201911280042,1456,1456.2,1455.9,1456.2
201911280043,1456.2,1456.4,1456.1,1456.1
201911280044,1456.1,1456.3,1456.1,1456.2
201911280045,1456.2,1456.4,1456.2,1456.3
201911280046,1456.3,1456.4,1456,1456
201911280047,1456,1456,1455.4,1455.4
201911280048,1455.4,1455.6,1455.3,1455.6
201911280049,1455.6,1455.9,1455.6,1455.9
201911280050,1455.9,1455.9,1455.7,1455.7
201911280051,1455.7,1455.7,1455.4,1455.4
201911280052,1455.4,1455.4,1455.2,1455.3
201911280053,1455.3,1455.3,1455,1455
201911280054,1455,1455.1,1454.9,1455
201911280055,1455,1455.2,1455,1455.1
201911280056,1455,1455.2,1454.8,1455.1
201911280057,1455.1,1455.4,1455,1455.1
201911280058,1455.1,1455.2,1454.9,1455
201911280059,1455,1455.3,1454.6,1455.1
201911280100,1455.2,1455.2,1454.5,1454.6
201911280101,1454.6,1454.7,1454.4,1454.7
201911280102,1454.6,1454.6,1454.3,1454.3
201911280103,1454.3,1454.7,1454.3,1454.7
201911280104,1454.7,1454.8,1454.4,1454.6
201911280105,1454.6,1454.6,1454,1454
201911280106,1454,1454.5,1454,1454.5
201911280107,1454.5,1454.8,1454.4,1454.8
201911280108,1454.8,1454.9,1454.5,1454.6
201911280109,1454.6,1454.9,1454.5,1454.8
201911280110,1454.8,1454.8,1454.6,1454.6
201911280111,1454.6,1454.8,1454.5,1454.6
201911280112,1454.6,1454.7,1454.5,1454.6
201911280113,1454.6,1454.6,1454.3,1454.4
201911280114,1454.4,1454.4,1454,1454.2
201911280115,1454.2,1454.4,1454,1454.2
201911280116,1454.2,1454.2,1453.9,1454.1
201911280117,1454.1,1454.4,1454,1454.2
201911280118,1454.2,1454.4,1454,1454.4
201911280119,1454.4,1454.4,1454.1,1454.2
201911280120,1454.2,1454.2,1453.7,1453.8
201911280121,1453.8,1454,1453.7,1453.8
201911280122,1453.8,1453.8,1453.5,1453.7
201911280123,1453.7,1453.7,1453.4,1453.4
201911280124,1453.4,1453.4,1453.1,1453.2
201911280125,1453.2,1453.3,1452.8,1453.1
201911280126,1453.1,1453.1,1452.8,1452.8
201911280127,1452.8,1452.8,1452.6,1452.8
201911280128,1452.8,1453,1452.5,1453
201911280129,1452.9,1453,1452.9,1453
201911280130,1453,1453.8,1452.9,1453.8
201911280131,1453.8,1453.9,1453.6,1453.7
201911280132,1453.7,1453.9,1453.4,1453.8
201911280133,1453.8,1454.1,1453.8,1454
201911280134,1454,1454.2,1453.9,1454
201911280135,1454,1454.1,1453.7,1454.1
201911280136,1454.1,1454.2,1453.8,1454.2
201911280137,1454.2,1454.2,1454.1,1454.1
201911280138,1454.1,1454.5,1453.8,1454.4
201911280139,1454.5,1454.5,1454.4,1454.4
201911280140,1454.4,1454.4,1454,1454.1
201911280141,1454.1,1454.2,1453.7,1453.9
201911280142,1453.9,1454.1,1453.8,1453.8
201911280143,1453.8,1454.1,1453.8,1454.1
201911280144,1454.1,1454.2,1454,1454.2
201911280145,1454.2,1454.3,1454.1,1454.2
201911280146,1454.2,1454.2,1454,1454
201911280147,1454,1454.1,1454,1454
201911280148,1454,1454,1453.9,1454
201911280149,1454,1454.1,1454,1454.1
201911280150,1454.1,1454.2,1454,1454.2
201911280151,1454.2,1454.2,1453.8,1453.9
201911280152,1453.9,1453.9,1453.7,1453.8
201911280153,1453.8,1454.4,1453.8,1454.4
201911280154,1454.4,1454.7,1454.3,1454.7
201911280155,1454.7,1454.9,1454.6,1454.9
201911280156,1454.9,1454.9,1454.7,1454.9
201911280157,1454.9,1454.9,1454.9,1454.9
201911280158,1454.9,1455,1454.9,1454.9
201911280159,1454.9,1455.1,1454.9,1455.1
201911280200,1455.1,1455.2,1455,1455.1
201911280201,1455.1,1455.2,1455,1455.1
201911280202,1455.1,1455.1,1454.9,1455
201911280203,1455,1455.3,1455,1455.2
201911280204,1455.1,1455.4,1455.1,1455.4
201911280205,1455.4,1455.5,1455.3,1455.4
201911280206,1455.4,1455.7,1455.4,1455.6
201911280207,1455.6,1455.8,1455.6,1455.7
201911280208,1455.7,1455.7,1455.5,1455.5
201911280209,1455.5,1455.6,1455.4,1455.4
201911280210,1455.4,1455.6,1455.4,1455.6
201911280211,1455.6,1455.6,1455.5,1455.6
201911280212,1455.6,1455.6,1455.4,1455.4
201911280213,1455.4,1455.6,1455.4,1455.6
201911280214,1455.6,1455.8,1455.6,1455.7
201911280215,1455.7,1455.7,1455.4,1455.4
201911280216,1455.4,1455.7,1455.3,1455.3
201911280217,1455.3,1455.5,1455.2,1455.2
201911280218,1455.2,1455.2,1455.2,1455.2
201911280219,1455.2,1455.2,1455,1455.2
201911280220,1455.2,1455.4,1455.2,1455.2
201911280221,1455.2,1455.2,1455.1,1455.2
201911280222,1455.2,1455.2,1455,1455.1
201911280223,1455.1,1455.2,1455,1455.1
201911280224,1455.2,1455.2,1455.2,1455.2
201911280225,1455.2,1455.2,1454.8,1454.9
201911280226,1454.9,1455,1454.7,1454.8
201911280227,1454.8,1455,1454.8,1455
201911280228,1455,1455.3,1455,1455.2
201911280229,1455.2,1455.3,1455.1,1455.2
201911280230,1455.1,1455.3,1455.1,1455.2
201911280231,1455.2,1455.2,1455.1,1455.2
201911280232,1455.2,1455.2,1455,1455.2
201911280233,1455.2,1455.2,1454.8,1454.9
201911280234,1454.9,1455.1,1454.9,1455.1
201911280235,1455.1,1455.2,1455.1,1455.2
201911280236,1455.2,1455.2,1455.1,1455.1
201911280237,1455.1,1455.2,1455.1,1455.1
201911280238,1455.1,1455.1,1455.1,1455.1
201911280239,1455.1,1455.2,1455.1,1455.2
201911280240,1455.2,1455.3,1455.2,1455.3
201911280241,1455.3,1455.5,1455.3,1455.5
201911280242,1455.5,1455.7,1455.5,1455.7
201911280243,1455.7,1456,1455.7,1455.8
201911280244,1455.8,1456.2,1455.8,1456.2
201911280245,1456.1,1456.2,1455.9,1456
201911280246,1456,1456.1,1456,1456
201911280247,1456,1456,1455.5,1455.5
201911280248,1455.5,1455.7,1455.5,1455.6
201911280249,1455.6,1455.8,1455.6,1455.7
201911280250,1455.7,1455.9,1455.6,1455.6
201911280251,1455.6,1455.8,1455.6,1455.8
201911280252,1455.8,1456,1455.8,1456
201911280253,1456,1456,1455.9,1456
201911280254,1456,1456.1,1455.9,1456
201911280255,1456,1456.1,1456,1456
201911280256,1456,1456.1,1455.9,1455.9
201911280257,1455.9,1456.2,1455.9,1456.2
201911280258,1456.1,1456.2,1456,1456.1
201911280259,1456.1,1456.1,1455.9,1455.9
201911280300,1455.9,1455.9,1455.8,1455.8
201911280301,1455.8,1455.8,1455.6,1455.7
201911280302,1455.7,1455.7,1455.3,1455.3
201911280303,1455.3,1455.4,1455.1,1455.2
201911280304,1455.2,1455.3,1455.1,1455.2
201911280305,1455.2,1455.3,1454.9,1455.2
201911280306,1455.2,1455.2,1455,1455.1
201911280307,1455.1,1455.1,1454.9,1455
201911280308,1455,1455.1,1454.9,1454.9
201911280309,1454.9,1455,1454.8,1455
201911280310,1455,1455.2,1455,1455
201911280311,1455,1455,1454.9,1455
201911280312,1455,1455,1454.9,1455
201911280313,1455,1455,1454.7,1454.8
201911280314,1454.8,1454.8,1454.6,1454.8
201911280315,1454.8,1454.9,1454.7,1454.7
201911280316,1454.7,1454.7,1454.5,1454.7
201911280317,1454.7,1454.9,1454.7,1454.9
201911280318,1454.9,1454.9,1454.8,1454.8
201911280319,1454.8,1454.8,1454.4,1454.5
201911280320,1454.5,1454.6,1454.3,1454.3
201911280321,1454.3,1454.4,1454.2,1454.4
201911280322,1454.4,1454.4,1454.2,1454.2
201911280323,1454.2,1454.2,1453.9,1453.9
201911280324,1453.9,1454.4,1453.8,1453.9
201911280325,1453.9,1454.3,1453.8,1454.1
201911280326,1454.1,1454.4,1454.1,1454.3
201911280327,1454.3,1454.4,1454.2,1454.3
201911280328,1454.3,1454.4,1453.9,1453.9
201911280329,1453.9,1454.2,1453.9,1453.9
201911280330,1454,1454.4,1453.9,1454.3
201911280331,1454.3,1454.4,1454.2,1454.2
201911280332,1454.2,1454.2,1454.1,1454.1
201911280333,1454.1,1454.2,1453.9,1453.9
201911280334,1453.9,1454,1453.7,1453.7
201911280335,1453.7,1453.8,1453.5,1453.6
201911280336,1453.5,1453.7,1453.5,1453.5
201911280337,1453.5,1453.7,1453.5,1453.6
201911280338,1453.6,1453.7,1453.5,1453.7
201911280339,1453.7,1453.8,1453.6,1453.8
201911280340,1453.8,1454,1453.8,1453.8
201911280341,1453.8,1453.8,1453.6,1453.6
201911280342,1453.6,1453.6,1453.5,1453.5
201911280343,1453.5,1453.6,1453.5,1453.5
201911280344,1453.5,1453.6,1453.5,1453.6
201911280345,1453.6,1454.4,1453.6,1454.4
201911280346,1454.4,1454.4,1454.3,1454.4
201911280347,1454.4,1454.4,1454.1,1454.1
201911280348,1454.1,1454.3,1454.1,1454.2
201911280349,1454.2,1454.3,1454.2,1454.3
201911280350,1454.2,1454.5,1454.2,1454.5
201911280351,1454.5,1454.6,1454.4,1454.6
201911280352,1454.5,1454.7,1454.5,1454.7
201911280353,1454.6,1454.8,1454.6,1454.6
201911280354,1454.6,1454.8,1454.5,1454.6
201911280355,1454.6,1454.7,1454.3,1454.5
201911280356,1454.5,1454.5,1454.4,1454.4
201911280357,1454.4,1454.5,1454.4,1454.5
201911280358,1454.5,1454.5,1454.4,1454.4
201911280359,1454.4,1454.4,1454,1454.1
201911280400,1454.1,1454.3,1454.1,1454.3
201911280401,1454.3,1454.5,1454.3,1454.4
201911280402,1454.4,1454.5,1454.4,1454.4
201911280403,1454.4,1454.5,1454.4,1454.4
201911280404,1454.4,1454.4,1454.3,1454.3
201911280405,1454.3,1454.4,1454.2,1454.3
201911280406,1454.2,1454.3,1454.1,1454.2
201911280407,1454.2,1454.2,1453.9,1453.9
201911280408,1453.9,1454,1453.9,1454
201911280409,1454,1454.3,1453.9,1454.2
201911280410,1454.2,1454.5,1454.2,1454.4
201911280411,1454.4,1454.7,1454.4,1454.6
201911280412,1454.6,1454.7,1453.9,1454.1
201911280413,1454.1,1454.4,1453.9,1454.3
201911280414,1454.4,1454.4,1454.3,1454.4
201911280415,1454.4,1454.6,1454.4,1454.6
201911280416,1454.6,1454.8,1454.6,1454.6
201911280417,1454.6,1454.9,1454.5,1454.5
201911280418,1454.4,1454.5,1454.4,1454.5
201911280419,1454.5,1454.6,1454.5,1454.6
201911280420,1454.6,1454.6,1454.6,1454.6
201911280421,1454.6,1454.7,1454.4,1454.4
201911280422,1454.4,1454.6,1454.4,1454.6
201911280423,1454.6,1454.7,1454.6,1454.7
201911280424,1454.7,1454.8,1454.7,1454.8
201911280425,1454.8,1454.8,1454.5,1454.7
201911280426,1454.6,1454.9,1454.6,1454.8
201911280427,1454.8,1454.8,1454.6,1454.6
201911280428,1454.6,1454.6,1454.1,1454.1
201911280429,1454.2,1454.2,1454,1454.1
201911280430,1454.1,1454.3,1454.1,1454.2
201911280431,1454.2,1454.3,1454.2,1454.2
201911280432,1454.2,1454.4,1454.2,1454.4
201911280433,1454.4,1454.4,1454.2,1454.3
201911280434,1454.3,1454.4,1454.1,1454.1
201911280435,1454.1,1454.2,1454.1,1454.1
201911280436,1454.1,1454.1,1453.8,1453.8
201911280437,1453.8,1453.9,1453.5,1453.6
201911280438,1453.6,1453.9,1453.5,1453.8
201911280439,1453.8,1453.9,1453.7,1453.7
201911280440,1453.7,1453.8,1453.7,1453.8
201911280441,1453.8,1453.8,1453.7,1453.8
201911280442,1453.8,1453.8,1453.7,1453.7
201911280443,1453.7,1453.8,1453.7,1453.8
201911280444,1453.7,1454,1453.7,1453.9
201911280445,1453.9,1454.1,1453.8,1454.1
201911280446,1454.1,1454.1,1454,1454.1
201911280447,1454.1,1454.2,1454,1454.1
201911280448,1454.1,1454.3,1454.1,1454.3
201911280449,1454.3,1454.4,1454.2,1454.2
201911280450,1454.2,1454.2,1454,1454.2
201911280451,1454.2,1454.4,1454.2,1454.4
201911280452,1454.4,1454.7,1454.3,1454.6
201911280453,1454.6,1454.7,1454.6,1454.6
201911280454,1454.6,1454.7,1454.6,1454.7
201911280455,1454.7,1454.8,1454.7,1454.8
201911280456,1454.8,1454.8,1454.5,1454.5
201911280457,1454.6,1454.9,1454.5,1454.8
201911280458,1454.8,1454.9,1454.8,1454.8
201911280459,1454.8,1454.8,1454.2,1454.4
201911280500,1454.4,1455,1454.4,1454.9
201911280501,1454.9,1455,1454.8,1455
201911280502,1455,1455,1454.8,1454.9
201911280503,1454.9,1455,1454.8,1454.9
201911280504,1454.9,1454.9,1454.8,1454.9
201911280505,1454.9,1455,1454.9,1454.9
201911280506,1454.9,1454.9,1454.7,1454.8
201911280507,1454.8,1454.8,1454.5,1454.7
201911280508,1454.7,1454.7,1454.6,1454.6
201911280509,1454.6,1454.6,1454.5,1454.5
201911280510,1454.5,1454.5,1454.4,1454.4
201911280511,1454.4,1454.5,1454.4,1454.4
201911280512,1454.4,1454.5,1454.2,1454.4
201911280513,1454.4,1454.4,1454.1,1454.2
201911280514,1454.2,1454.4,1454.1,1454.4
201911280515,1454.4,1454.5,1454.3,1454.5
201911280516,1454.5,1454.5,1454.4,1454.4
201911280517,1454.4,1454.5,1454.4,1454.4
201911280518,1454.4,1454.5,1454.4,1454.5
201911280519,1454.5,1454.6,1454.5,1454.6
201911280520,1454.6,1454.6,1454.3,1454.3
201911280521,1454.3,1454.4,1454.3,1454.4
201911280522,1454.4,1454.4,1454.4,1454.4
201911280523,1454.4,1454.5,1454.4,1454.5
201911280524,1454.5,1454.6,1454.5,1454.5
201911280525,1454.5,1454.6,1454.4,1454.4
201911280526,1454.4,1454.5,1454.2,1454.2
201911280527,1454.2,1454.7,1454.2,1454.7
201911280528,1454.7,1454.7,1454.6,1454.6
201911280529,1454.6,1454.7,1454.6,1454.7
201911280530,1454.7,1454.8,1454.4,1454.8
201911280531,1454.7,1454.8,1454.6,1454.6
201911280532,1454.6,1454.6,1454.6,1454.6
201911280533,1454.6,1454.6,1454.4,1454.4
201911280534,1454.4,1454.5,1454.4,1454.4
201911280535,1454.4,1454.5,1454.2,1454.3
201911280536,1454.3,1454.6,1454.3,1454.5
201911280537,1454.5,1454.5,1454.5,1454.5
201911280538,1454.5,1454.6,1454.5,1454.6
201911280539,1454.6,1454.7,1454.6,1454.7
201911280540,1454.7,1454.7,1454.6,1454.7
201911280541,1454.7,1454.8,1454.7,1454.7
201911280542,1454.7,1454.7,1454.6,1454.6
201911280543,1454.6,1454.7,1454.5,1454.6
201911280544,1454.6,1454.7,1454.6,1454.7
201911280545,1454.7,1454.7,1454.5,1454.6
201911280546,1454.6,1454.6,1454.4,1454.4
201911280547,1454.4,1454.4,1454.3,1454.4
201911280548,1454.4,1454.5,1454.4,1454.4
201911280549,1454.4,1454.6,1454.4,1454.6
201911280550,1454.5,1454.6,1454.5,1454.5
201911280551,1454.5,1454.5,1454.5,1454.5
201911280552,1454.5,1454.6,1454.4,1454.5
201911280553,1454.5,1454.6,1454.5,1454.6
201911280554,1454.6,1454.6,1454.5,1454.6
201911280555,1454.6,1454.7,1454.6,1454.7
201911280556,1454.7,1455.1,1454.6,1454.6
201911280557,1454.6,1454.9,1454.5,1454.9
201911280558,1454.9,1454.9,1454.7,1454.7
201911280559,1454.6,1454.8,1454.5,1454.5
201911280600,1454.5,1454.8,1454.5,1454.7
201911280601,1454.7,1454.8,1454.7,1454.8
201911280602,1454.8,1454.8,1454.7,1454.7
201911280603,1454.7,1454.7,1454.6,1454.6
201911280604,1454.6,1454.7,1454.6,1454.6
201911280605,1454.6,1454.6,1454.5,1454.6
201911280606,1454.6,1454.7,1454.6,1454.7
201911280607,1454.7,1454.8,1454.7,1454.8
201911280608,1454.8,1454.9,1454.8,1454.9
201911280609,1454.9,1454.9,1454.9,1454.9
201911280610,1454.9,1454.9,1454.8,1454.8
201911280611,1454.9,1454.9,1454.8,1454.8
201911280612,1454.8,1454.8,1454.7,1454.7
201911280613,1454.7,1454.9,1454.7,1454.7
201911280614,1454.7,1454.7,1454.5,1454.6
201911280615,1454.6,1454.6,1454.5,1454.6
201911280616,1454.6,1454.7,1454.5,1454.5
201911280617,1454.5,1454.5,1454.5,1454.5
201911280618,1454.5,1454.5,1454.5,1454.5
201911280619,1454.5,1454.5,1454.5,1454.5
201911280620,1454.5,1454.5,1454.5,1454.5
201911280621,1454.5,1454.5,1454.5,1454.5
201911280622,1454.5,1454.8,1454.5,1454.8
201911280623,1454.8,1454.8,1454.7,1454.7
201911280624,1454.7,1454.7,1454.7,1454.7
201911280625,1454.7,1454.7,1454.6,1454.6
201911280626,1454.6,1454.7,1454.6,1454.7
201911280627,1454.7,1454.7,1454.7,1454.7
201911280628,1454.7,1454.8,1454.7,1454.7
201911280629,1454.8,1454.8,1454.5,1454.5
201911280630,1454.5,1454.5,1454.4,1454.4
201911280631,1454.4,1454.5,1454.4,1454.4
201911280632,1454.4,1454.5,1454.4,1454.5
201911280633,1454.5,1454.6,1454.5,1454.6
201911280634,1454.6,1454.6,1454.6,1454.6
201911280635,1454.6,1454.6,1454.5,1454.5
201911280636,1454.5,1454.5,1454.5,1454.5
201911280637,1454.5,1454.5,1454.5,1454.5
201911280638,1454.5,1454.6,1454.5,1454.5
201911280639,1454.5,1454.5,1454.4,1454.4
201911280640,1454.4,1454.5,1454.3,1454.5
201911280641,1454.5,1454.6,1454.4,1454.4
201911280642,1454.5,1454.5,1454.4,1454.5
201911280643,1454.5,1454.5,1454,1454.3
201911280644,1454.3,1454.3,1454.3,1454.3
201911280645,1454.3,1454.4,1454.2,1454.3
201911280646,1454.3,1454.4,1454.3,1454.4
201911280647,1454.4,1454.4,1454.1,1454.2
201911280648,1454.2,1454.3,1454.2,1454.2
201911280649,1454.2,1454.2,1454.1,1454.2
201911280650,1454.2,1454.2,1454,1454
201911280651,1454,1454.1,1454,1454
201911280652,1454,1454,1453.9,1453.9
201911280653,1453.9,1453.9,1453.9,1453.9
201911280654,1453.9,1454,1453.9,1453.9
201911280655,1453.9,1454,1453.8,1454
201911280656,1454,1454.1,1454,1454
201911280657,1454,1454.2,1454,1454.1
201911280658,1454.1,1454.2,1454.1,1454.2
201911280659,1454.2,1454.3,1454.2,1454.3
