日時,始値(BID),高値(BID),安値(BID),終値(BID)
201911260800,1454.8,1455.3,1454.7,1455.1
201911260801,1455.1,1455.1,1454.6,1454.7
201911260802,1454.7,1454.9,1454.7,1454.8
201911260803,1454.8,1454.9,1454.8,1454.9
201911260804,1454.9,1454.9,1454.9,1454.9
201911260805,1454.9,1454.9,1454.9,1454.9
201911260806,1454.9,1455,1454.9,1455
201911260807,1455,1455.1,1454.9,1455.1
201911260808,1455.1,1455.1,1454.9,1454.9
201911260809,1455,1455,1454.9,1454.9
201911260810,1454.9,1454.9,1454.8,1454.9
201911260811,1454.9,1454.9,1454.8,1454.8
201911260812,1454.8,1454.9,1454.8,1454.8
201911260813,1454.8,1454.8,1454.5,1454.5
201911260814,1454.5,1454.7,1454.5,1454.7
201911260815,1454.7,1454.7,1454.6,1454.6
201911260816,1454.6,1454.6,1454.6,1454.6
201911260817,1454.6,1454.6,1454.4,1454.5
201911260818,1454.5,1454.5,1454.4,1454.4
201911260819,1454.4,1454.4,1454.3,1454.3
201911260820,1454.3,1454.3,1454.3,1454.3
201911260821,1454.3,1454.3,1454.2,1454.2
201911260822,1454.2,1454.3,1454.2,1454.3
201911260823,1454.3,1454.3,1454.2,1454.2
201911260824,1454.2,1454.3,1454,1454.1
201911260825,1454.1,1454.2,1454,1454.1
201911260826,1454.1,1454.1,1454.1,1454.1
201911260827,1454.1,1454.1,1454.1,1454.1
201911260828,1454.1,1454.2,1454.1,1454.2
201911260829,1454.2,1454.2,1454.1,1454.2
201911260830,1454.2,1454.3,1454.2,1454.2
201911260831,1454.2,1454.2,1454.1,1454.1
201911260832,1454.1,1454.2,1453.7,1453.7
201911260833,1453.7,1453.8,1453.6,1453.7
201911260834,1453.8,1453.8,1453.6,1453.7
201911260835,1453.7,1453.7,1453.6,1453.7
201911260836,1453.7,1453.7,1453.6,1453.7
201911260837,1453.7,1453.7,1453.7,1453.7
201911260838,1453.7,1453.7,1453.7,1453.7
201911260839,1453.7,1453.7,1453.7,1453.7
201911260840,1453.7,1453.7,1453.6,1453.6
201911260841,1453.6,1453.9,1453.6,1453.9
201911260842,1453.9,1454.1,1453.9,1454.1
201911260843,1454.1,1454.1,1453.9,1453.9
201911260844,1453.8,1453.9,1453.8,1453.9
201911260845,1453.9,1454,1453.8,1453.9
201911260846,1453.9,1454,1453.9,1454
201911260847,1454,1454.1,1454,1454
201911260848,1454.1,1454.3,1453.8,1454.3
201911260849,1454.3,1454.3,1454.2,1454.2
201911260850,1454.2,1454.2,1454.1,1454.1
201911260851,1454.1,1454.1,1454,1454.1
201911260852,1454.1,1454.1,1453.9,1454
201911260853,1454,1454.1,1454,1454.1
201911260854,1454.1,1454.1,1454,1454
201911260855,1454,1454,1454,1454
201911260856,1454,1454,1453.8,1453.8
201911260857,1453.8,1453.8,1453.8,1453.8
201911260858,1453.8,1453.9,1453.8,1453.9
201911260859,1454,1454,1453.7,1453.8
201911260900,1453.8,1454.1,1453.7,1454.1
201911260901,1454.1,1454.1,1454,1454
201911260902,1454,1454,1453.8,1453.8
201911260903,1453.8,1453.8,1453.6,1453.6
201911260904,1453.6,1453.6,1453.5,1453.5
201911260905,1453.5,1453.6,1453.4,1453.4
201911260906,1453.4,1453.7,1453.4,1453.7
201911260907,1453.7,1453.7,1453.6,1453.7
201911260908,1453.7,1453.7,1453.5,1453.5
201911260909,1453.5,1453.6,1453.5,1453.5
201911260910,1453.5,1453.5,1453.4,1453.4
201911260911,1453.4,1453.4,1453.3,1453.3
201911260912,1453.3,1453.3,1453.3,1453.3
201911260913,1453.3,1453.4,1453.3,1453.4
201911260914,1453.4,1453.5,1453.3,1453.4
201911260915,1453.4,1453.5,1453.4,1453.5
201911260916,1453.5,1453.6,1453.3,1453.4
201911260917,1453.4,1453.4,1453.2,1453.4
201911260918,1453.4,1453.5,1453.4,1453.4
201911260919,1453.4,1453.4,1453.3,1453.3
201911260920,1453.4,1453.4,1453.3,1453.4
201911260921,1453.4,1453.5,1453.3,1453.4
201911260922,1453.4,1453.5,1453.4,1453.5
201911260923,1453.5,1453.5,1453.4,1453.4
201911260924,1453.4,1453.4,1453.4,1453.4
201911260925,1453.4,1453.4,1453.4,1453.4
201911260926,1453.4,1453.4,1453.4,1453.4
201911260927,1453.4,1453.4,1453.2,1453.2
201911260928,1453.3,1453.3,1453.1,1453.2
201911260929,1453.2,1453.4,1453.2,1453.3
201911260930,1453.3,1453.3,1453.1,1453.1
201911260931,1453.1,1453.3,1453.1,1453.2
201911260932,1453.2,1453.2,1453.1,1453.2
201911260933,1453.2,1453.2,1453.2,1453.2
201911260934,1453.2,1453.2,1453.2,1453.2
201911260935,1453.2,1453.3,1453.1,1453.1
201911260936,1453.1,1453.2,1453,1453
201911260937,1453,1453,1452.9,1452.9
201911260938,1452.9,1453.1,1452.9,1453
201911260939,1452.9,1453.1,1452.9,1453.1
201911260940,1453.1,1453.1,1453,1453.1
201911260941,1453.1,1453.3,1453.1,1453.2
201911260942,1453.2,1453.4,1453.2,1453.3
201911260943,1453.3,1453.4,1453.3,1453.3
201911260944,1453.3,1453.3,1453.2,1453.2
201911260945,1453.2,1453.5,1453.2,1453.5
201911260946,1453.5,1453.5,1453.4,1453.5
201911260947,1453.5,1453.5,1453.4,1453.4
201911260948,1453.4,1453.5,1453.4,1453.4
201911260949,1453.4,1453.4,1453.3,1453.3
201911260950,1453.3,1453.3,1453.2,1453.2
201911260951,1453.2,1453.2,1453.1,1453.2
201911260952,1453.2,1453.4,1453.2,1453.4
201911260953,1453.4,1453.5,1453.4,1453.5
201911260954,1453.5,1453.5,1453.3,1453.5
201911260955,1453.5,1453.6,1453.5,1453.6
201911260956,1453.6,1453.7,1453.6,1453.6
201911260957,1453.6,1453.7,1453.6,1453.6
201911260958,1453.6,1453.7,1453.6,1453.7
201911260959,1453.7,1453.7,1453.5,1453.5
201911261000,1453.5,1454,1453.5,1454
201911261001,1454,1454,1453.5,1453.6
201911261002,1453.6,1453.6,1453.5,1453.6
201911261003,1453.6,1453.6,1453.2,1453.3
201911261004,1453.3,1453.3,1453.2,1453.2
201911261005,1453.3,1453.3,1453.1,1453.1
201911261006,1453.1,1453.2,1452.7,1452.8
201911261007,1452.8,1453.2,1452.8,1453.1
201911261008,1453.1,1453.4,1453.1,1453.4
201911261009,1453.4,1453.5,1453.3,1453.4
201911261010,1453.3,1453.4,1453.1,1453.2
201911261011,1453.2,1453.2,1453.1,1453.2
201911261012,1453.2,1453.2,1453.1,1453.1
201911261013,1453.1,1453.1,1452.8,1453.1
201911261014,1453.1,1453.3,1453.1,1453.2
201911261015,1453.2,1453.2,1452.8,1452.9
201911261016,1452.9,1453.1,1452.9,1453.1
201911261017,1453.1,1453.3,1453.1,1453.2
201911261018,1453.2,1453.3,1453.1,1453.1
201911261019,1453.1,1453.2,1452.9,1452.9
201911261020,1452.9,1453,1452.8,1453
201911261021,1453,1453,1452.9,1452.9
201911261022,1452.9,1453.3,1452.9,1453.2
201911261023,1453.2,1453.4,1453.2,1453.3
201911261024,1453.3,1453.5,1453.3,1453.5
201911261025,1453.5,1453.5,1453.3,1453.3
201911261026,1453.3,1453.5,1453.3,1453.4
201911261027,1453.4,1453.4,1453.2,1453.3
201911261028,1453.3,1453.3,1453.2,1453.3
201911261029,1453.3,1453.5,1453.3,1453.5
201911261030,1453.5,1453.7,1453.5,1453.6
201911261031,1453.6,1453.6,1453.4,1453.5
201911261032,1453.5,1453.7,1453.5,1453.6
201911261033,1453.6,1453.6,1453.5,1453.6
201911261034,1453.6,1453.6,1453.4,1453.5
201911261035,1453.6,1453.7,1453.5,1453.6
201911261036,1453.6,1453.6,1453.2,1453.2
201911261037,1453.3,1453.4,1453.2,1453.3
201911261038,1453.3,1453.4,1453.3,1453.3
201911261039,1453.3,1453.3,1453.2,1453.2
201911261040,1453.2,1453.2,1453.1,1453.2
201911261041,1453.2,1453.3,1453.2,1453.3
201911261042,1453.3,1453.3,1453.2,1453.2
201911261043,1453.2,1453.2,1453,1453.1
201911261044,1453.1,1453.4,1453.1,1453.4
201911261045,1453.4,1453.4,1453,1453.3
201911261046,1453.3,1453.3,1451.5,1451.5
201911261047,1451.6,1452.2,1451.6,1452.1
201911261048,1452.1,1452.6,1452,1452.3
201911261049,1452.3,1452.6,1451.9,1452.5
201911261050,1452.5,1453.1,1452.4,1453
201911261051,1453,1453.7,1453,1453.4
201911261052,1453.4,1453.6,1453.2,1453.5
201911261053,1453.5,1453.7,1453.4,1453.5
201911261054,1453.5,1453.6,1453.4,1453.5
201911261055,1453.5,1453.6,1453.2,1453.3
201911261056,1453.3,1453.4,1453.3,1453.3
201911261057,1453.3,1453.5,1453.3,1453.5
201911261058,1453.5,1453.5,1453.3,1453.4
201911261059,1453.4,1453.6,1453.4,1453.5
201911261100,1453.5,1453.6,1453.4,1453.4
201911261101,1453.4,1453.6,1453.4,1453.5
201911261102,1453.5,1453.5,1453.3,1453.3
201911261103,1453.3,1453.3,1453.2,1453.3
201911261104,1453.3,1453.6,1453.3,1453.6
201911261105,1453.6,1453.7,1453.5,1453.6
201911261106,1453.6,1453.8,1453.5,1453.7
201911261107,1453.7,1453.8,1453.6,1453.7
201911261108,1453.7,1453.8,1453.7,1453.7
201911261109,1453.7,1453.8,1453.7,1453.8
201911261110,1453.8,1453.8,1453.6,1453.6
201911261111,1453.7,1453.7,1453.5,1453.6
201911261112,1453.6,1453.7,1453.6,1453.6
201911261113,1453.6,1453.8,1453.6,1453.7
201911261114,1453.7,1453.7,1453.5,1453.5
201911261115,1453.5,1453.9,1453.5,1453.7
201911261116,1453.8,1453.8,1453.7,1453.7
201911261117,1453.7,1453.9,1453.7,1453.9
201911261118,1453.9,1454,1453.8,1453.9
201911261119,1453.9,1454,1453.9,1454
201911261120,1454,1454,1453.5,1453.7
201911261121,1453.7,1453.8,1453.5,1453.6
201911261122,1453.6,1453.7,1453.6,1453.6
201911261123,1453.6,1453.7,1453.6,1453.7
201911261124,1453.7,1453.8,1453.6,1453.8
201911261125,1453.8,1453.9,1453.8,1453.8
201911261126,1453.8,1453.8,1453.6,1453.6
201911261127,1453.6,1453.8,1453.6,1453.6
201911261128,1453.6,1453.7,1453.6,1453.7
201911261129,1453.7,1453.7,1453.5,1453.5
201911261130,1453.5,1453.6,1453.5,1453.5
201911261131,1453.5,1453.6,1453.5,1453.6
201911261132,1453.6,1453.6,1453.5,1453.5
201911261133,1453.5,1453.7,1453.5,1453.5
201911261134,1453.5,1453.7,1453.5,1453.6
201911261135,1453.6,1453.7,1453.5,1453.6
201911261136,1453.6,1453.7,1453.5,1453.6
201911261137,1453.6,1453.9,1453.6,1453.8
201911261138,1453.8,1453.8,1453.6,1453.7
201911261139,1453.7,1453.8,1453.6,1453.7
201911261140,1453.7,1453.8,1453.7,1453.8
201911261141,1453.8,1453.8,1453.5,1453.6
201911261142,1453.6,1453.7,1453.6,1453.6
201911261143,1453.6,1453.6,1453.6,1453.6
201911261144,1453.6,1453.6,1453.6,1453.6
201911261145,1453.6,1453.7,1453.6,1453.7
201911261146,1453.7,1454.1,1453.7,1454.1
201911261147,1454.1,1454.3,1453.9,1454.3
201911261148,1454.3,1454.3,1454.1,1454.3
201911261149,1454.3,1454.3,1454.1,1454.1
201911261150,1454.1,1454.4,1454,1454.2
201911261151,1454.2,1454.2,1454,1454.1
201911261152,1454.1,1454.5,1454.1,1454.4
201911261153,1454.4,1454.5,1454.3,1454.4
201911261154,1454.4,1454.5,1454.4,1454.5
201911261155,1454.5,1454.6,1454.4,1454.5
201911261156,1454.5,1454.5,1454.4,1454.4
201911261157,1454.4,1454.5,1454.4,1454.4
201911261158,1454.4,1454.4,1454.4,1454.4
201911261159,1454.4,1454.4,1454.2,1454.4
201911261200,1454.4,1454.5,1454.4,1454.4
201911261201,1454.4,1454.5,1454.3,1454.3
201911261202,1454.3,1454.5,1454.3,1454.5
201911261203,1454.5,1454.5,1454.4,1454.4
201911261204,1454.4,1454.6,1454.4,1454.4
201911261205,1454.4,1454.5,1454.3,1454.4
201911261206,1454.4,1454.4,1454.1,1454.2
201911261207,1454.2,1454.2,1454.1,1454.1
201911261208,1454.1,1454.1,1454,1454.1
201911261209,1454.1,1454.1,1454,1454
201911261210,1454,1454,1454,1454
201911261211,1454,1454,1453.9,1453.9
201911261212,1453.9,1453.9,1453.8,1453.8
201911261213,1453.8,1453.8,1453.8,1453.8
201911261214,1453.8,1453.8,1453.6,1453.7
201911261215,1453.7,1453.8,1453.7,1453.7
201911261216,1453.7,1453.7,1453.5,1453.7
201911261217,1453.7,1453.8,1453.7,1453.8
201911261218,1453.8,1453.9,1453.7,1453.7
201911261219,1453.7,1453.9,1453.7,1453.9
201911261220,1453.9,1454,1453.9,1453.9
201911261221,1453.9,1453.9,1453.7,1453.9
201911261222,1453.9,1453.9,1453.8,1453.8
201911261223,1453.8,1453.9,1453.8,1453.8
201911261224,1453.8,1453.8,1453.7,1453.8
201911261225,1453.8,1453.9,1453.8,1453.9
201911261226,1453.9,1453.9,1453.7,1453.7
201911261227,1453.7,1453.8,1453.7,1453.8
201911261228,1453.8,1453.9,1453.7,1453.8
201911261229,1453.8,1453.8,1453.7,1453.8
201911261230,1453.8,1454.1,1453.8,1454.1
201911261231,1454,1454.2,1453.9,1453.9
201911261232,1453.9,1454.1,1453.9,1454
201911261233,1454,1454.1,1454,1454
201911261234,1454,1454.2,1454,1454.2
201911261235,1454.2,1454.4,1454.2,1454.3
201911261236,1454.3,1454.4,1454.3,1454.3
201911261237,1454.3,1454.6,1454.3,1454.6
201911261238,1454.6,1454.6,1454.4,1454.5
201911261239,1454.5,1454.6,1454.5,1454.5
201911261240,1454.5,1454.6,1454.5,1454.6
201911261241,1454.6,1454.7,1454.5,1454.5
201911261242,1454.5,1454.5,1454.4,1454.4
201911261243,1454.4,1454.5,1454.4,1454.4
201911261244,1454.4,1454.5,1454.4,1454.4
201911261245,1454.4,1454.5,1454.4,1454.4
201911261246,1454.4,1454.5,1454.4,1454.5
201911261247,1454.5,1454.6,1454.5,1454.5
201911261248,1454.5,1454.5,1454.5,1454.5
201911261249,1454.5,1454.6,1454.5,1454.6
201911261250,1454.6,1454.6,1454.5,1454.5
201911261251,1454.5,1454.5,1454.3,1454.4
201911261252,1454.4,1454.6,1454.4,1454.5
201911261253,1454.5,1454.6,1454.5,1454.5
201911261254,1454.5,1454.6,1454.4,1454.6
201911261255,1454.6,1454.7,1454.6,1454.7
201911261256,1454.7,1454.7,1454.6,1454.6
201911261257,1454.6,1454.6,1454.3,1454.4
201911261258,1454.4,1454.5,1454.4,1454.4
201911261259,1454.4,1454.4,1454.3,1454.4
201911261300,1454.4,1454.4,1454.3,1454.3
201911261301,1454.3,1454.4,1454.3,1454.4
201911261302,1454.4,1454.6,1454.4,1454.5
201911261303,1454.5,1454.6,1454.4,1454.5
201911261304,1454.6,1454.6,1454.5,1454.5
201911261305,1454.6,1454.7,1454.5,1454.6
201911261306,1454.7,1454.7,1454.6,1454.6
201911261307,1454.6,1454.8,1454.6,1454.7
201911261308,1454.7,1454.7,1454.6,1454.6
201911261309,1454.6,1454.7,1454.6,1454.6
201911261310,1454.6,1454.8,1454.6,1454.8
201911261311,1454.8,1454.8,1454.7,1454.8
201911261312,1454.8,1454.8,1454.7,1454.7
201911261313,1454.7,1454.8,1454.6,1454.8
201911261314,1454.8,1454.8,1454.8,1454.8
201911261315,1454.8,1454.8,1454.8,1454.8
201911261316,1454.8,1454.8,1454.6,1454.7
201911261317,1454.7,1454.8,1454.6,1454.8
201911261318,1454.8,1454.8,1454.7,1454.7
201911261319,1454.7,1454.7,1454.6,1454.6
201911261320,1454.6,1454.7,1454.6,1454.6
201911261321,1454.6,1454.6,1454.5,1454.6
201911261322,1454.6,1454.7,1454.6,1454.6
201911261323,1454.6,1454.6,1454.6,1454.6
201911261324,1454.6,1454.7,1454.5,1454.5
201911261325,1454.5,1454.6,1454.5,1454.6
201911261326,1454.6,1454.7,1454.6,1454.6
201911261327,1454.6,1454.6,1454.5,1454.5
201911261328,1454.5,1454.5,1454.4,1454.4
201911261329,1454.4,1454.4,1454.3,1454.4
201911261330,1454.4,1454.4,1454.3,1454.4
201911261331,1454.4,1454.4,1454.2,1454.3
201911261332,1454.3,1454.3,1454.3,1454.3
201911261333,1454.3,1454.4,1454.3,1454.4
201911261334,1454.4,1454.6,1454.4,1454.6
201911261335,1454.6,1454.6,1454.5,1454.5
201911261336,1454.5,1454.7,1454.5,1454.5
201911261337,1454.5,1454.6,1454.5,1454.6
201911261338,1454.6,1454.6,1454.5,1454.6
201911261339,1454.6,1454.7,1454.5,1454.6
201911261340,1454.6,1454.9,1454.6,1454.9
201911261341,1454.9,1455,1454.8,1454.8
201911261342,1454.8,1455,1454.7,1454.9
201911261343,1454.9,1455.4,1454.9,1455.2
201911261344,1455.2,1455.4,1455.2,1455.3
201911261345,1455.3,1455.4,1455.1,1455.1
201911261346,1455.1,1455.2,1455,1455.2
201911261347,1455.2,1455.3,1455.2,1455.3
201911261348,1455.3,1455.3,1455.2,1455.3
201911261349,1455.3,1455.5,1455.3,1455.4
201911261350,1455.4,1455.4,1455.3,1455.4
201911261351,1455.4,1455.4,1455.3,1455.3
201911261352,1455.3,1455.4,1455.2,1455.3
201911261353,1455.3,1455.3,1455.3,1455.3
201911261354,1455.3,1455.4,1455.3,1455.3
201911261355,1455.3,1455.3,1455.3,1455.3
201911261356,1455.3,1455.4,1455.2,1455.3
201911261357,1455.3,1455.4,1455.2,1455.2
201911261358,1455.2,1455.2,1455.1,1455.1
201911261359,1455.1,1455.1,1455.1,1455.1
201911261400,1455.1,1455.1,1455,1455.1
201911261401,1455.1,1455.2,1455,1455
201911261402,1455,1455.1,1455,1455.1
201911261403,1455.1,1455.1,1455,1455
201911261404,1455,1455,1454.9,1455
201911261405,1455,1455.1,1455,1455
201911261406,1455,1455.2,1455,1455
201911261407,1455.1,1455.1,1454.9,1454.9
201911261408,1454.9,1454.9,1454.8,1454.8
201911261409,1454.8,1454.9,1454.6,1454.6
201911261410,1454.6,1454.7,1454.6,1454.6
201911261411,1454.6,1454.6,1454.5,1454.5
201911261412,1454.5,1454.7,1454.5,1454.6
201911261413,1454.6,1454.7,1454.6,1454.6
201911261414,1454.6,1454.7,1454.6,1454.6
201911261415,1454.6,1454.6,1454.6,1454.6
201911261416,1454.6,1454.7,1454.5,1454.5
201911261417,1454.5,1454.5,1454.5,1454.5
201911261418,1454.5,1454.5,1454.4,1454.5
201911261419,1454.5,1454.6,1454.5,1454.5
201911261420,1454.5,1454.5,1454.5,1454.5
201911261421,1454.5,1454.7,1454.5,1454.6
201911261422,1454.6,1454.6,1454.5,1454.6
201911261423,1454.6,1454.6,1454.4,1454.4
201911261424,1454.4,1454.5,1453.9,1453.9
201911261425,1453.9,1453.9,1453.9,1453.9
201911261426,1453.9,1453.9,1453.8,1453.8
201911261427,1453.8,1454,1453.8,1453.9
201911261428,1453.9,1454,1453.9,1454
201911261429,1454,1454,1454,1454
201911261430,1454,1454,1453.9,1453.9
201911261431,1454,1454.1,1453.9,1454
201911261432,1454,1454.2,1453.9,1454.2
201911261433,1454.2,1454.4,1454.2,1454.4
201911261434,1454.4,1454.5,1454.2,1454.5
201911261435,1454.5,1454.7,1454.4,1454.6
201911261436,1454.6,1454.7,1454.6,1454.7
201911261437,1454.7,1454.8,1454.7,1454.7
201911261438,1454.7,1455,1454.7,1455
201911261439,1454.9,1455.2,1454.9,1455
201911261440,1455,1455.2,1455,1455.2
201911261441,1455.2,1455.2,1455,1455.1
201911261442,1455.1,1455.2,1455.1,1455.2
201911261443,1455.2,1455.6,1455.2,1455.4
201911261444,1455.4,1455.4,1455.4,1455.4
201911261445,1455.4,1455.5,1455.3,1455.3
201911261446,1455.3,1455.6,1455.3,1455.6
201911261447,1455.6,1455.8,1455.6,1455.7
201911261448,1455.7,1455.8,1455.6,1455.8
201911261449,1455.8,1456,1455.8,1455.9
201911261450,1455.9,1456,1455.9,1455.9
201911261451,1455.9,1455.9,1455.8,1455.9
201911261452,1455.9,1456,1455.8,1455.8
201911261453,1455.8,1456,1455.8,1456
201911261454,1456,1456.2,1456,1456
201911261455,1456,1456,1455.8,1455.8
201911261456,1455.8,1456,1455.8,1456
201911261457,1456,1456,1455.9,1455.9
201911261458,1455.9,1456,1455.6,1455.7
201911261459,1455.7,1455.7,1455.5,1455.7
201911261500,1455.7,1455.8,1455.5,1455.5
201911261501,1455.5,1455.7,1455.5,1455.7
201911261502,1455.7,1455.7,1455.5,1455.6
201911261503,1455.6,1455.6,1455.4,1455.5
201911261504,1455.5,1455.5,1455.4,1455.4
201911261505,1455.4,1455.6,1455.4,1455.6
201911261506,1455.6,1455.6,1455.5,1455.6
201911261507,1455.6,1455.8,1455.6,1455.8
201911261508,1455.8,1455.8,1455.7,1455.7
201911261509,1455.7,1455.8,1455.7,1455.7
201911261510,1455.7,1455.8,1455.7,1455.8
201911261511,1455.8,1455.8,1455.6,1455.6
201911261512,1455.6,1455.7,1455.6,1455.6
201911261513,1455.6,1455.8,1455.6,1455.7
201911261514,1455.7,1455.8,1455.7,1455.7
201911261515,1455.7,1455.9,1455.7,1455.9
201911261516,1455.9,1456,1455.8,1455.8
201911261517,1455.8,1455.9,1455.8,1455.9
201911261518,1455.9,1455.9,1455.6,1455.6
201911261519,1455.6,1455.6,1455.5,1455.5
201911261520,1455.5,1455.6,1455.3,1455.3
201911261521,1455.3,1455.4,1455.3,1455.4
201911261522,1455.4,1455.6,1455.3,1455.6
201911261523,1455.6,1455.9,1455.5,1455.8
201911261524,1455.8,1455.8,1455.7,1455.7
201911261525,1455.7,1456,1455.7,1455.9
201911261526,1455.9,1456.2,1455.9,1456.1
201911261527,1456.1,1456.4,1456.1,1456.4
201911261528,1456.4,1456.5,1456.3,1456.5
201911261529,1456.5,1456.8,1456.5,1456.8
201911261530,1456.8,1456.9,1456.6,1456.9
201911261531,1456.9,1457,1456.8,1456.8
201911261532,1456.8,1457,1456.7,1456.7
201911261533,1456.7,1456.8,1456.7,1456.7
201911261534,1456.7,1456.7,1456.7,1456.7
201911261535,1456.7,1456.7,1456.6,1456.6
201911261536,1456.6,1456.6,1456.6,1456.6
201911261537,1456.6,1456.7,1456.6,1456.7
201911261538,1456.6,1456.8,1456.5,1456.6
201911261539,1456.6,1456.6,1456.5,1456.5
201911261540,1456.5,1456.8,1456.5,1456.7
201911261541,1456.7,1456.8,1456.7,1456.8
201911261542,1456.8,1456.8,1456.6,1456.7
201911261543,1456.7,1456.7,1456.6,1456.7
201911261544,1456.7,1456.7,1456.5,1456.6
201911261545,1456.6,1456.9,1456.6,1456.8
201911261546,1456.8,1456.9,1456.7,1456.7
201911261547,1456.7,1456.9,1456.7,1456.8
201911261548,1456.8,1456.9,1456.8,1456.8
201911261549,1456.8,1456.8,1456.6,1456.7
201911261550,1456.7,1456.7,1456.7,1456.7
201911261551,1456.7,1456.8,1456.7,1456.8
201911261552,1456.8,1456.8,1456.7,1456.8
201911261553,1456.8,1457,1456.8,1457
201911261554,1457,1457,1456.9,1457
201911261555,1457,1457.1,1456.9,1457
201911261556,1457,1457,1456.8,1457
201911261557,1457,1457.1,1456.9,1457
201911261558,1457,1457,1456.8,1456.8
201911261559,1456.8,1457.1,1456.8,1457.1
201911261600,1457.1,1457.1,1456.8,1456.8
201911261601,1456.8,1456.9,1456.8,1456.9
201911261602,1456.9,1456.9,1456.7,1456.7
201911261603,1456.7,1456.9,1456.7,1456.9
201911261604,1456.9,1456.9,1456.7,1456.8
201911261605,1456.8,1456.8,1456.8,1456.8
201911261606,1456.8,1456.8,1456.6,1456.8
201911261607,1456.8,1456.8,1456.7,1456.8
201911261608,1456.8,1456.8,1456.6,1456.7
201911261609,1456.7,1456.7,1456.5,1456.5
201911261610,1456.5,1456.6,1456.5,1456.6
201911261611,1456.6,1456.6,1456.4,1456.5
201911261612,1456.5,1456.6,1456.5,1456.5
201911261613,1456.5,1456.5,1456.1,1456.2
201911261614,1456.2,1456.4,1456.1,1456.4
201911261615,1456.4,1456.4,1456.4,1456.4
201911261616,1456.4,1456.5,1456.3,1456.5
201911261617,1456.5,1456.6,1456.4,1456.4
201911261618,1456.4,1456.5,1456.3,1456.4
201911261619,1456.4,1456.6,1456.4,1456.5
201911261620,1456.5,1456.7,1456.5,1456.5
201911261621,1456.5,1456.5,1456.3,1456.3
201911261622,1456.3,1456.3,1456.1,1456.2
201911261623,1456.2,1456.2,1455.9,1456.1
201911261624,1456.1,1456.2,1456,1456.1
201911261625,1456.1,1456.3,1456.1,1456.1
201911261626,1456.1,1456.1,1456,1456
201911261627,1456,1456.1,1455.8,1455.8
201911261628,1455.8,1455.9,1455.7,1455.7
201911261629,1455.7,1455.9,1455.6,1455.6
201911261630,1455.6,1455.9,1455.5,1455.8
201911261631,1455.8,1455.9,1455.7,1455.8
201911261632,1455.8,1456,1455.7,1456
201911261633,1456,1456.1,1455.8,1455.9
201911261634,1455.9,1456,1455.8,1455.9
201911261635,1455.9,1455.9,1455.7,1455.8
201911261636,1455.8,1455.9,1455.7,1455.9
201911261637,1455.9,1456,1455.7,1456
201911261638,1456,1456,1455.8,1455.8
201911261639,1455.8,1455.9,1455.7,1455.7
201911261640,1455.7,1455.7,1455.6,1455.6
201911261641,1455.5,1455.5,1455.4,1455.5
201911261642,1455.5,1455.6,1455.4,1455.5
201911261643,1455.5,1455.5,1455.4,1455.4
201911261644,1455.4,1455.4,1455.3,1455.3
201911261645,1455.3,1455.5,1455.3,1455.5
201911261646,1455.5,1455.7,1455.5,1455.6
201911261647,1455.6,1455.8,1455.6,1455.7
201911261648,1455.7,1455.7,1455.5,1455.5
201911261649,1455.5,1455.5,1455.4,1455.4
201911261650,1455.3,1455.4,1455.2,1455.2
201911261651,1455.2,1455.3,1455.1,1455.2
201911261652,1455.2,1455.3,1455.1,1455.2
201911261653,1455.2,1455.2,1454.9,1455
201911261654,1455,1455.1,1454.9,1454.9
201911261655,1454.9,1455.1,1454.9,1455
201911261656,1455,1455.1,1455,1455
201911261657,1455,1455.1,1455,1455
201911261658,1455,1455.1,1455,1455.1
201911261659,1455.1,1455.5,1455,1455.4
201911261700,1455.4,1455.6,1454.9,1455.1
201911261701,1455.1,1455.5,1455.1,1455.5
201911261702,1455.5,1455.5,1455.2,1455.4
201911261703,1455.4,1456.2,1455.4,1456.2
201911261704,1456.2,1456.6,1456.1,1456.1
201911261705,1456.1,1456.2,1455.8,1455.8
201911261706,1455.8,1455.9,1455.4,1455.5
201911261707,1455.5,1455.5,1455.1,1455.3
201911261708,1455.3,1455.5,1455.2,1455.2
201911261709,1455.2,1455.3,1455.1,1455.3
201911261710,1455.2,1455.4,1455.2,1455.3
201911261711,1455.3,1455.4,1455.2,1455.2
201911261712,1455.2,1455.5,1455.2,1455.4
201911261713,1455.4,1455.6,1455.3,1455.4
201911261714,1455.4,1455.6,1455.3,1455.5
201911261715,1455.5,1455.6,1455.1,1455.1
201911261716,1455.1,1455.3,1455.1,1455.1
201911261717,1455.1,1455.4,1455.1,1455.1
201911261718,1455.1,1455.2,1455,1455
201911261719,1455,1455,1454.8,1454.9
201911261720,1454.9,1455.1,1454.9,1455
201911261721,1455,1455.1,1454.9,1455.1
201911261722,1455.1,1455.3,1454.9,1455.1
201911261723,1455.1,1455.3,1454.8,1455.3
201911261724,1455.3,1456.1,1455,1456.1
201911261725,1456.1,1456.3,1455.8,1456.2
201911261726,1456.2,1456.7,1456.2,1456.6
201911261727,1456.6,1457.2,1456.6,1457.2
201911261728,1457.2,1457.4,1456.9,1456.9
201911261729,1456.9,1456.9,1456.5,1456.5
201911261730,1456.5,1456.8,1456.4,1456.8
201911261731,1456.8,1457.1,1456.8,1457
201911261732,1457,1457.1,1456.8,1456.8
201911261733,1456.8,1456.9,1456.6,1456.9
201911261734,1456.9,1456.9,1456.6,1456.7
201911261735,1456.7,1456.8,1456.6,1456.7
201911261736,1456.7,1456.9,1456.7,1456.7
201911261737,1456.7,1456.7,1456.3,1456.3
201911261738,1456.3,1456.6,1456.3,1456.6
201911261739,1456.6,1456.6,1456.5,1456.6
201911261740,1456.6,1456.6,1456.5,1456.6
201911261741,1456.6,1456.6,1456.2,1456.3
201911261742,1456.3,1456.7,1456.3,1456.5
201911261743,1456.5,1457,1456.5,1457
201911261744,1457,1457.1,1456.9,1456.9
201911261745,1456.9,1457.1,1456.9,1457.1
201911261746,1457.1,1457.7,1457.1,1457.7
201911261747,1457.7,1457.7,1457.4,1457.4
201911261748,1457.4,1457.4,1457.3,1457.4
201911261749,1457.4,1457.6,1457.3,1457.6
201911261750,1457.6,1457.7,1457.5,1457.5
201911261751,1457.5,1457.5,1457.4,1457.5
201911261752,1457.5,1457.6,1457.4,1457.5
201911261753,1457.6,1457.8,1457.5,1457.7
201911261754,1457.7,1457.7,1457.5,1457.6
201911261755,1457.6,1457.7,1457.6,1457.7
201911261756,1457.7,1457.7,1457.4,1457.4
201911261757,1457.4,1457.6,1457.3,1457.3
201911261758,1457.3,1457.4,1457,1457.1
201911261759,1457.1,1457.3,1457,1457.3
201911261800,1457.3,1457.4,1457.1,1457.2
201911261801,1457.2,1457.3,1457.1,1457.3
201911261802,1457.3,1457.3,1457.2,1457.2
201911261803,1457.2,1457.4,1457.2,1457.4
201911261804,1457.5,1457.6,1457.4,1457.4
201911261805,1457.3,1457.6,1456.8,1457.2
201911261806,1457.2,1457.2,1457,1457
201911261807,1457,1457.2,1457,1457.1
201911261808,1457.1,1457.3,1457,1457.2
201911261809,1457.2,1457.5,1457.1,1457.4
201911261810,1457.4,1458.1,1457.4,1458.1
201911261811,1458.1,1458.6,1458,1458.5
201911261812,1458.5,1459,1458.5,1458.8
201911261813,1458.8,1459,1458.6,1458.7
201911261814,1458.7,1458.9,1458.7,1458.8
201911261815,1458.8,1459,1458.6,1458.6
201911261816,1458.6,1458.7,1458.4,1458.6
201911261817,1458.6,1458.7,1458.3,1458.3
201911261818,1458.3,1458.4,1458.3,1458.4
201911261819,1458.4,1458.4,1458.2,1458.3
201911261820,1458.3,1458.3,1457.9,1457.9
201911261821,1457.9,1458.1,1457.8,1458
201911261822,1458,1458.1,1457.9,1458
201911261823,1458,1458,1457.8,1457.9
201911261824,1457.9,1457.9,1457.5,1457.5
201911261825,1457.5,1457.8,1457.4,1457.8
201911261826,1457.8,1457.9,1457.7,1457.9
201911261827,1457.9,1458,1457.8,1457.8
201911261828,1457.8,1458,1457.7,1458
201911261829,1458,1458.2,1457.8,1457.8
201911261830,1457.8,1458,1457.8,1457.8
201911261831,1457.8,1457.8,1457.6,1457.8
201911261832,1457.8,1458,1457.7,1457.9
201911261833,1457.9,1458,1457.9,1457.9
201911261834,1457.9,1458.2,1457.9,1458.2
201911261835,1458.2,1458.3,1458.1,1458.3
201911261836,1458.3,1458.3,1458.2,1458.3
201911261837,1458.3,1458.3,1458.2,1458.3
201911261838,1458.3,1458.3,1458,1458
201911261839,1458,1458.2,1458,1458.1
201911261840,1458.1,1458.3,1458,1458.1
201911261841,1458.1,1458.1,1457.9,1458.1
201911261842,1458.1,1458.2,1458.1,1458.1
201911261843,1458.1,1458.1,1457.9,1457.9
201911261844,1457.9,1457.9,1457.4,1457.5
201911261845,1457.5,1457.6,1457.5,1457.5
201911261846,1457.5,1457.6,1457.4,1457.4
201911261847,1457.4,1457.7,1457.4,1457.7
201911261848,1457.7,1457.9,1457.7,1457.7
201911261849,1457.7,1457.7,1457.6,1457.6
201911261850,1457.6,1457.7,1457.4,1457.4
201911261851,1457.4,1457.4,1457.2,1457.4
201911261852,1457.4,1457.5,1457.3,1457.4
201911261853,1457.3,1457.5,1457.3,1457.4
201911261854,1457.4,1457.4,1457.3,1457.3
201911261855,1457.3,1457.4,1457.3,1457.4
201911261856,1457.4,1457.5,1457.4,1457.5
201911261857,1457.5,1457.6,1457.5,1457.5
201911261858,1457.5,1457.6,1457.4,1457.4
201911261859,1457.4,1457.4,1457.3,1457.3
201911261900,1457.3,1457.4,1457.3,1457.4
201911261901,1457.4,1457.4,1457.3,1457.4
201911261902,1457.4,1457.6,1457.1,1457.2
201911261903,1457.2,1457.4,1457.2,1457.4
201911261904,1457.4,1457.5,1457.4,1457.4
201911261905,1457.4,1457.4,1457.3,1457.3
201911261906,1457.3,1457.4,1457.3,1457.3
201911261907,1457.3,1457.4,1457.3,1457.4
201911261908,1457.4,1457.4,1457.2,1457.2
201911261909,1457.2,1457.4,1457.2,1457.4
201911261910,1457.4,1457.4,1457.2,1457.2
201911261911,1457.3,1457.3,1457.2,1457.2
201911261912,1457.2,1457.3,1457.2,1457.2
201911261913,1457.2,1457.3,1457.2,1457.3
201911261914,1457.3,1457.6,1457.2,1457.6
201911261915,1457.6,1457.9,1457.5,1457.5
201911261916,1457.5,1457.7,1457.5,1457.6
201911261917,1457.6,1457.7,1457.5,1457.6
201911261918,1457.6,1457.8,1457.6,1457.8
201911261919,1457.8,1457.8,1457.7,1457.8
201911261920,1457.8,1458,1457.7,1457.9
201911261921,1457.9,1457.9,1457.9,1457.9
201911261922,1457.9,1457.9,1457.8,1457.9
201911261923,1457.9,1457.9,1457.7,1457.7
201911261924,1457.7,1457.9,1457.7,1457.8
201911261925,1457.8,1457.8,1457.7,1457.7
201911261926,1457.7,1457.8,1457.6,1457.7
201911261927,1457.7,1458.4,1457.7,1458.1
201911261928,1458.1,1458.2,1457.9,1457.9
201911261929,1457.9,1458,1457.6,1457.7
201911261930,1457.7,1457.8,1457.6,1457.6
201911261931,1457.6,1457.8,1457.5,1457.5
201911261932,1457.5,1457.5,1457.4,1457.5
201911261933,1457.5,1457.6,1457.5,1457.6
201911261934,1457.6,1457.6,1457.5,1457.6
201911261935,1457.6,1457.8,1457.6,1457.7
201911261936,1457.7,1457.9,1457.7,1457.9
201911261937,1457.9,1458,1457.9,1457.9
201911261938,1457.9,1458.1,1457.9,1458.1
201911261939,1458.1,1458.1,1457.8,1457.8
201911261940,1457.8,1457.9,1457.8,1457.8
201911261941,1457.9,1457.9,1457.7,1457.8
201911261942,1457.8,1458.1,1457.8,1458
201911261943,1458,1458.1,1457.9,1458
201911261944,1457.9,1457.9,1457.6,1457.7
201911261945,1457.7,1457.7,1457.6,1457.6
201911261946,1457.6,1457.7,1457.4,1457.6
201911261947,1457.6,1457.6,1457.4,1457.5
201911261948,1457.5,1457.5,1457.3,1457.4
201911261949,1457.3,1457.5,1457.3,1457.5
201911261950,1457.5,1457.5,1457.5,1457.5
201911261951,1457.5,1457.7,1457.5,1457.6
201911261952,1457.6,1457.9,1457.6,1457.8
201911261953,1457.8,1457.8,1457.7,1457.8
201911261954,1457.8,1458.3,1457.8,1458.2
201911261955,1458.2,1458.3,1458.1,1458.2
201911261956,1458.2,1458.3,1458.2,1458.2
201911261957,1458.2,1458.3,1458.2,1458.3
201911261958,1458.3,1458.3,1458.2,1458.3
201911261959,1458.3,1458.3,1458.1,1458.1
201911262000,1458.1,1458.3,1458.1,1458.1
201911262001,1458.1,1458.3,1458.1,1458.2
201911262002,1458.2,1458.3,1458.1,1458.3
201911262003,1458.3,1458.4,1458.3,1458.4
201911262004,1458.4,1458.6,1458.3,1458.5
201911262005,1458.5,1458.6,1458.5,1458.5
201911262006,1458.5,1458.6,1458.4,1458.5
201911262007,1458.5,1458.8,1458.5,1458.8
201911262008,1458.8,1458.8,1458.4,1458.5
201911262009,1458.5,1458.6,1458.4,1458.5
201911262010,1458.5,1458.5,1458.4,1458.4
201911262011,1458.5,1458.6,1458.4,1458.4
201911262012,1458.4,1458.5,1458.4,1458.4
201911262013,1458.4,1458.4,1458,1458
201911262014,1458,1458.3,1458,1458.2
201911262015,1458.2,1458.2,1458,1458.1
201911262016,1458.1,1458.2,1457.9,1458
201911262017,1458,1458.2,1458,1458.1
201911262018,1458.1,1458.1,1457.9,1457.9
201911262019,1457.9,1457.9,1457.8,1457.8
201911262020,1457.8,1457.8,1457.6,1457.6
201911262021,1457.6,1457.6,1457.4,1457.4
201911262022,1457.4,1457.6,1457.4,1457.6
201911262023,1457.6,1457.7,1457.5,1457.5
201911262024,1457.5,1457.7,1457.5,1457.7
201911262025,1457.7,1457.9,1457.7,1457.8
201911262026,1457.8,1457.8,1457.6,1457.7
201911262027,1457.7,1457.9,1457.7,1457.7
201911262028,1457.7,1457.8,1457.6,1457.6
201911262029,1457.6,1457.8,1457.6,1457.7
201911262030,1457.7,1457.8,1457.6,1457.6
201911262031,1457.6,1457.6,1457.5,1457.6
201911262032,1457.6,1457.9,1457.5,1457.7
201911262033,1457.7,1457.7,1457.7,1457.7
201911262034,1457.7,1457.9,1457.7,1457.7
201911262035,1457.7,1457.9,1457.5,1457.6
201911262036,1457.6,1457.7,1457.6,1457.7
201911262037,1457.7,1457.8,1457.7,1457.8
201911262038,1457.8,1457.8,1457.7,1457.7
201911262039,1457.7,1457.9,1457.7,1457.9
201911262040,1457.9,1457.9,1457.6,1457.6
201911262041,1457.6,1457.7,1457.5,1457.6
201911262042,1457.6,1457.8,1457.6,1457.7
201911262043,1457.7,1457.7,1457.6,1457.7
201911262044,1457.6,1457.7,1457.6,1457.7
201911262045,1457.7,1457.8,1457.6,1457.8
201911262046,1457.8,1457.9,1457.7,1457.9
201911262047,1457.9,1457.9,1457.9,1457.9
201911262048,1457.9,1458.2,1457.9,1458.1
201911262049,1458.2,1458.3,1458.2,1458.3
201911262050,1458.3,1458.4,1458.2,1458.2
201911262051,1458.2,1458.3,1458.2,1458.2
201911262052,1458.2,1458.3,1458.1,1458.3
201911262053,1458.3,1458.4,1458.2,1458.2
201911262054,1458.2,1458.3,1458.2,1458.3
201911262055,1458.3,1458.5,1458.3,1458.3
201911262056,1458.3,1458.3,1458,1458
201911262057,1458,1458,1458,1458
201911262058,1458,1458.1,1457.7,1457.7
201911262059,1457.7,1457.8,1457.7,1457.8
201911262100,1457.8,1457.9,1457.5,1457.5
201911262101,1457.5,1457.8,1457.5,1457.6
201911262102,1457.6,1457.7,1457.6,1457.7
201911262103,1457.7,1457.8,1457.7,1457.7
201911262104,1457.7,1457.9,1457.6,1457.6
201911262105,1457.6,1457.8,1457.5,1457.5
201911262106,1457.5,1457.8,1457.5,1457.7
201911262107,1457.7,1457.8,1457.7,1457.7
201911262108,1457.7,1457.8,1457.6,1457.7
201911262109,1457.7,1457.7,1457.6,1457.7
201911262110,1457.7,1457.7,1457.6,1457.6
201911262111,1457.6,1457.6,1457.3,1457.4
201911262112,1457.4,1457.5,1457.3,1457.3
201911262113,1457.3,1457.4,1457.2,1457.2
201911262114,1457.2,1457.2,1456.9,1456.9
201911262115,1456.9,1457.1,1456.9,1457
201911262116,1457,1457,1456.8,1456.8
201911262117,1456.9,1456.9,1456.4,1456.5
201911262118,1456.5,1456.6,1456.4,1456.5
201911262119,1456.5,1456.7,1456.4,1456.4
201911262120,1456.4,1456.5,1456.4,1456.5
201911262121,1456.5,1456.7,1456.4,1456.7
201911262122,1456.7,1456.7,1456.6,1456.6
201911262123,1456.6,1456.7,1456.4,1456.5
201911262124,1456.5,1456.5,1456.4,1456.5
201911262125,1456.5,1456.6,1456.4,1456.4
201911262126,1456.4,1456.6,1456.3,1456.6
201911262127,1456.6,1456.6,1456.4,1456.6
201911262128,1456.6,1456.7,1456.6,1456.6
201911262129,1456.6,1456.8,1456.6,1456.7
201911262130,1456.7,1456.7,1456.4,1456.6
201911262131,1456.6,1456.8,1456.6,1456.7
201911262132,1456.7,1456.8,1456.7,1456.8
201911262133,1456.8,1457,1456.8,1456.9
201911262134,1457,1457.1,1456.9,1457
201911262135,1457,1457,1456.7,1456.7
201911262136,1456.7,1456.8,1456.7,1456.8
201911262137,1456.8,1457,1456.7,1457
201911262138,1457,1457,1457,1457
201911262139,1457,1457.1,1457,1457.1
201911262140,1457.1,1457.2,1457,1457.2
201911262141,1457.2,1457.2,1457.1,1457.1
201911262142,1457.1,1457.2,1457.1,1457.2
201911262143,1457.2,1457.3,1457.2,1457.2
201911262144,1457.2,1457.3,1457,1457
201911262145,1457,1457,1456.9,1456.9
201911262146,1456.9,1457.1,1456.9,1457
201911262147,1457,1457,1456.9,1456.9
201911262148,1456.9,1456.9,1456.7,1456.7
201911262149,1456.7,1456.7,1456.2,1456.3
201911262150,1456.3,1456.3,1456,1456.1
201911262151,1456.1,1456.4,1456,1456.3
201911262152,1456.3,1456.5,1456.3,1456.5
201911262153,1456.5,1456.6,1456.4,1456.5
201911262154,1456.5,1456.6,1456.5,1456.5
201911262155,1456.5,1456.5,1456.3,1456.3
201911262156,1456.3,1456.3,1455.9,1456.2
201911262157,1456.2,1456.2,1456.1,1456.2
201911262158,1456.2,1456.2,1456.1,1456.1
201911262159,1456.1,1456.4,1455.9,1456.4
201911262200,1456.4,1456.4,1455.4,1455.5
201911262201,1455.5,1455.9,1455.5,1455.7
201911262202,1455.7,1455.8,1455.5,1455.5
201911262203,1455.5,1455.8,1455.5,1455.8
201911262204,1455.8,1456,1455.5,1455.5
201911262205,1455.5,1455.9,1455.5,1455.7
201911262206,1455.7,1456,1455.7,1455.7
201911262207,1455.7,1455.8,1455.5,1455.5
201911262208,1455.5,1455.5,1455.3,1455.4
201911262209,1455.4,1455.4,1455.3,1455.4
201911262210,1455.4,1455.4,1455.2,1455.4
201911262211,1455.4,1455.7,1455.3,1455.6
201911262212,1455.6,1455.7,1455.4,1455.4
201911262213,1455.4,1455.6,1455.4,1455.5
201911262214,1455.5,1455.5,1455.2,1455.3
201911262215,1455.3,1455.6,1455,1455.2
201911262216,1455.2,1455.8,1455,1455.7
201911262217,1455.7,1455.9,1455.5,1455.5
201911262218,1455.5,1455.6,1455.4,1455.4
201911262219,1455.4,1455.4,1455.2,1455.4
201911262220,1455.4,1455.5,1454.9,1455
201911262221,1455,1455.9,1454.9,1455.4
201911262222,1455.4,1455.8,1455.2,1455.8
201911262223,1455.8,1456.7,1455.8,1456.5
201911262224,1456.5,1456.8,1455.9,1456.1
201911262225,1456.1,1456.4,1456.1,1456.3
201911262226,1456.3,1456.4,1456,1456
201911262227,1456,1456.2,1455.9,1456
201911262228,1456,1456,1455.8,1455.9
201911262229,1455.9,1455.9,1455.5,1455.5
201911262230,1455.5,1455.8,1454.8,1455.2
201911262231,1455.2,1455.2,1454.5,1454.7
201911262232,1454.6,1455,1454.5,1455
201911262233,1455,1455.3,1454.5,1454.7
201911262234,1454.7,1454.8,1454.5,1454.7
201911262235,1454.7,1454.9,1454.5,1454.6
201911262236,1454.6,1454.6,1453.7,1453.8
201911262237,1453.8,1454,1453.6,1454
201911262238,1454,1454.4,1453.9,1454.1
201911262239,1454,1454.3,1453.9,1454.2
201911262240,1454.2,1454.7,1454.2,1454.6
201911262241,1454.6,1454.7,1454.5,1454.7
201911262242,1454.7,1454.8,1454.5,1454.8
201911262243,1454.8,1454.9,1454.8,1454.9
201911262244,1454.9,1455.1,1454.9,1455
201911262245,1455,1455.3,1454.9,1455
201911262246,1455,1455,1454.6,1454.6
201911262247,1454.6,1455,1454.5,1454.9
201911262248,1454.9,1454.9,1454.8,1454.9
201911262249,1454.9,1455,1454.9,1454.9
201911262250,1454.9,1455.3,1454.9,1455.2
201911262251,1455.2,1455.3,1455.1,1455.1
201911262252,1455.1,1455.3,1455.1,1455.2
201911262253,1455.2,1455.3,1455,1455.1
201911262254,1455.1,1455.2,1455,1455
201911262255,1455,1455.3,1455,1455.1
201911262256,1455.1,1455.2,1455,1455.1
201911262257,1455.1,1455.2,1455,1455
201911262258,1455,1455.3,1455,1455.3
201911262259,1455.3,1455.5,1455.3,1455.4
201911262300,1455.4,1455.5,1455.2,1455.5
201911262301,1455.5,1455.5,1455.3,1455.3
201911262302,1455.3,1455.6,1455.2,1455.6
201911262303,1455.5,1456.1,1455.5,1455.9
201911262304,1455.9,1456.4,1455.9,1456.4
201911262305,1456.4,1456.4,1455.8,1455.9
201911262306,1455.9,1456.2,1455.8,1456.1
201911262307,1456.1,1456.1,1455.7,1455.8
201911262308,1455.8,1456,1455.7,1455.9
201911262309,1455.9,1456.1,1455.9,1455.9
201911262310,1455.9,1456,1455.7,1455.9
201911262311,1455.9,1455.9,1455.7,1455.8
201911262312,1455.9,1456.1,1455.7,1455.7
201911262313,1455.7,1455.7,1455.3,1455.4
201911262314,1455.4,1455.5,1455.2,1455.3
201911262315,1455.4,1455.4,1455.1,1455.3
201911262316,1455.3,1455.5,1455,1455
201911262317,1455,1455.2,1455,1455.1
201911262318,1455.1,1455.1,1454.6,1454.6
201911262319,1454.6,1454.9,1454.6,1454.9
201911262320,1454.9,1454.9,1454.7,1454.7
201911262321,1454.7,1454.7,1454.2,1454.2
201911262322,1454.2,1454.3,1454.1,1454.1
201911262323,1454.1,1454.2,1453.7,1453.8
201911262324,1453.8,1454.3,1453.6,1454.3
201911262325,1454.3,1454.6,1454.2,1454.6
201911262326,1454.6,1454.8,1454.6,1454.8
201911262327,1454.8,1455.1,1454.8,1454.8
201911262328,1454.9,1454.9,1454.3,1454.4
201911262329,1454.3,1454.6,1454,1454
201911262330,1454,1455.3,1454,1454.6
201911262331,1454.6,1455,1454.5,1454.7
201911262332,1454.7,1455,1454.5,1454.7
201911262333,1454.7,1454.7,1453.9,1454.3
201911262334,1454.3,1454.8,1454.3,1454.5
201911262335,1454.5,1454.5,1453.9,1454.4
201911262336,1454.4,1454.6,1453.8,1453.8
201911262337,1453.8,1454,1453.5,1453.7
201911262338,1453.7,1453.9,1453.7,1453.9
201911262339,1453.9,1453.9,1453.6,1453.8
201911262340,1453.8,1453.8,1450,1450.6
201911262341,1450.6,1451.5,1450.5,1451.5
201911262342,1451.5,1452.1,1451.5,1452
201911262343,1452,1452.8,1451.9,1452.7
201911262344,1452.7,1453.1,1452.5,1453
201911262345,1452.9,1453.8,1452.8,1453.7
201911262346,1453.6,1453.7,1453.1,1453.3
201911262347,1453.3,1453.4,1453,1453.1
201911262348,1453.1,1453.7,1453.1,1453.7
201911262349,1453.7,1454.1,1453.7,1453.9
201911262350,1453.9,1454.1,1453.7,1454
201911262351,1454,1454.1,1453.8,1453.8
201911262352,1453.8,1454.3,1453.8,1453.9
201911262353,1453.9,1454.3,1453.9,1454.1
201911262354,1454.2,1454.7,1454.2,1454.4
201911262355,1454.4,1454.6,1454.4,1454.5
201911262356,1454.5,1454.5,1454.1,1454.1
201911262357,1454.1,1454.4,1454,1454.3
201911262358,1454.3,1454.6,1454.3,1454.6
201911262359,1454.6,1454.9,1454.5,1454.9
201911270000,1454.9,1455.2,1454.5,1454.6
201911270001,1454.6,1454.7,1454.2,1454.3
201911270002,1454.3,1454.5,1454,1454.1
201911270003,1454.1,1454.1,1453.8,1453.9
201911270004,1453.8,1454.7,1453.7,1454.6
201911270005,1454.6,1456.5,1454.6,1455.8
201911270006,1455.8,1456.8,1455.8,1456.6
201911270007,1456.6,1456.9,1456.2,1456.3
201911270008,1456.3,1456.3,1455.6,1455.7
201911270009,1455.7,1456.1,1455.7,1455.9
201911270010,1455.9,1456,1455.3,1455.3
201911270011,1455.3,1455.9,1455.3,1455.7
201911270012,1455.7,1455.8,1455.4,1455.8
201911270013,1455.8,1455.9,1455.3,1455.8
201911270014,1455.8,1456,1455.8,1456
201911270015,1456,1456.7,1456,1456.6
201911270016,1456.6,1456.7,1456.4,1456.4
201911270017,1456.4,1456.7,1456.3,1456.4
201911270018,1456.4,1456.7,1456.3,1456.4
201911270019,1456.4,1456.7,1456.2,1456.5
201911270020,1456.5,1457,1456.4,1456.9
201911270021,1457.1,1457.2,1456.7,1456.9
201911270022,1456.9,1457,1456.5,1456.5
201911270023,1456.5,1456.8,1456.5,1456.7
201911270024,1456.7,1456.9,1456.7,1456.9
201911270025,1456.9,1457,1456.7,1456.8
201911270026,1456.7,1456.9,1456.6,1456.9
201911270027,1456.9,1456.9,1456.7,1456.8
201911270028,1456.8,1456.8,1456.6,1456.8
201911270029,1456.8,1457.2,1456.7,1457.1
201911270030,1457.1,1457.5,1457,1457.5
201911270031,1457.4,1457.8,1457.3,1457.8
201911270032,1457.8,1458.1,1457.6,1458
201911270033,1458,1458,1457.5,1457.5
201911270034,1457.5,1458,1457.5,1458
201911270035,1458,1458,1457.7,1457.7
201911270036,1457.7,1458,1457.7,1457.9
201911270037,1457.9,1458,1457.8,1457.8
201911270038,1457.8,1458.1,1457.8,1458
201911270039,1458,1458.5,1458,1458.5
201911270040,1458.5,1458.7,1458.4,1458.4
201911270041,1458.5,1458.6,1458.3,1458.4
201911270042,1458.4,1459.1,1458.3,1459
201911270043,1459,1459.6,1458.9,1459.5
201911270044,1459.5,1459.7,1459,1459.6
201911270045,1459.4,1460.1,1459.4,1460
201911270046,1460,1460,1459.6,1459.9
201911270047,1459.9,1460.3,1459.6,1459.9
201911270048,1459.9,1460.1,1459.3,1459.3
201911270049,1459.3,1459.5,1459.2,1459.5
201911270050,1459.5,1459.6,1459.1,1459.4
201911270051,1459.4,1459.7,1459.4,1459.4
201911270052,1459.4,1459.4,1458.5,1458.5
201911270053,1458.5,1458.7,1458.3,1458.3
201911270054,1458.3,1458.6,1458.1,1458.5
201911270055,1458.5,1458.8,1458.5,1458.7
201911270056,1458.7,1458.8,1458.3,1458.4
201911270057,1458.4,1458.5,1458.2,1458.4
201911270058,1458.4,1458.6,1458.4,1458.5
201911270059,1458.5,1458.6,1458.4,1458.5
201911270100,1458.5,1458.9,1458.5,1458.7
201911270101,1458.7,1459.1,1458.6,1459.1
201911270102,1459.1,1460.1,1459,1460.1
201911270103,1460.1,1460.2,1459.8,1460.1
201911270104,1460.1,1460.2,1459.9,1459.9
201911270105,1459.9,1459.9,1459.2,1459.5
201911270106,1459.5,1459.5,1459.2,1459.3
201911270107,1459.3,1459.4,1458.9,1459.1
201911270108,1459.1,1459.6,1459.1,1459.5
201911270109,1459.5,1460.2,1459.5,1459.8
201911270110,1459.8,1459.8,1459.3,1459.4
201911270111,1459.4,1459.7,1459.4,1459.5
201911270112,1459.5,1459.5,1459.2,1459.3
201911270113,1459.3,1459.4,1459.1,1459.4
201911270114,1459.4,1459.5,1459.3,1459.5
201911270115,1459.5,1459.8,1459.4,1459.8
201911270116,1459.8,1459.9,1459.7,1459.8
201911270117,1459.8,1459.9,1459.7,1459.9
201911270118,1459.9,1460.2,1459.7,1460.1
201911270119,1460.1,1460.5,1460,1460.4
201911270120,1460.5,1460.7,1460.4,1460.7
201911270121,1460.7,1460.7,1460.5,1460.6
201911270122,1460.6,1460.7,1460.3,1460.4
201911270123,1460.4,1460.7,1460.4,1460.5
201911270124,1460.5,1460.9,1460.5,1460.8
201911270125,1460.8,1461.1,1460.8,1461
201911270126,1461,1461.1,1460.4,1460.5
201911270127,1460.5,1460.5,1460,1460.1
201911270128,1460,1460.3,1459.8,1460.3
201911270129,1460.3,1460.3,1460,1460.2
201911270130,1460.2,1460.6,1460.1,1460.4
201911270131,1460.4,1460.4,1460.3,1460.3
201911270132,1460.3,1460.7,1460.3,1460.4
201911270133,1460.3,1460.7,1460.3,1460.6
201911270134,1460.6,1460.9,1460.5,1460.9
201911270135,1460.9,1462.5,1460.6,1462.2
201911270136,1462.1,1462.4,1458.7,1460
201911270137,1460,1460.4,1459.7,1459.8
201911270138,1459.7,1459.9,1459.5,1459.7
201911270139,1459.6,1459.7,1459.4,1459.5
201911270140,1459.5,1459.6,1459.1,1459.1
201911270141,1459.1,1459.3,1458.9,1458.9
201911270142,1458.9,1459,1458.8,1458.9
201911270143,1458.9,1459,1458.8,1458.8
201911270144,1458.8,1458.9,1458.5,1458.7
201911270145,1458.6,1458.7,1458.4,1458.5
201911270146,1458.5,1458.7,1458.3,1458.4
201911270147,1458.4,1458.6,1458.2,1458.6
201911270148,1458.6,1459.2,1458.5,1459.2
201911270149,1459.1,1459.3,1459,1459.2
201911270150,1459.2,1459.3,1459.1,1459.2
201911270151,1459.2,1459.4,1459.1,1459.1
201911270152,1459.1,1459.1,1458.8,1458.9
201911270153,1458.8,1459,1458.8,1458.9
201911270154,1458.9,1458.9,1458.6,1458.7
201911270155,1458.7,1458.9,1458.6,1458.8
201911270156,1458.8,1458.9,1458.3,1458.4
201911270157,1458.4,1458.4,1458.2,1458.2
201911270158,1458.2,1458.3,1458.1,1458.3
201911270159,1458.2,1458.3,1457.8,1458
201911270200,1458,1458.4,1458,1458.4
201911270201,1458.4,1458.6,1458.3,1458.4
201911270202,1458.4,1458.4,1458.1,1458.4
201911270203,1458.3,1458.5,1458.3,1458.5
201911270204,1458.5,1458.6,1458.4,1458.5
201911270205,1458.5,1458.7,1458.5,1458.7
201911270206,1458.6,1458.7,1458.5,1458.7
201911270207,1458.7,1458.7,1458.6,1458.6
201911270208,1458.6,1458.8,1458.4,1458.6
201911270209,1458.6,1458.6,1458.4,1458.5
201911270210,1458.5,1458.6,1458.4,1458.6
201911270211,1458.6,1459.1,1458.6,1459
201911270212,1459,1459.2,1459,1459.1
201911270213,1459.1,1459.3,1459,1459.2
201911270214,1459.2,1459.2,1459.1,1459.1
201911270215,1459.1,1459.4,1459.1,1459.3
201911270216,1459.3,1459.6,1459.3,1459.5
201911270217,1459.5,1459.6,1459.3,1459.3
201911270218,1459.4,1459.5,1459.3,1459.5
201911270219,1459.5,1459.7,1459.4,1459.6
201911270220,1459.6,1459.7,1459.5,1459.7
201911270221,1459.7,1459.9,1459.6,1459.8
201911270222,1459.8,1459.8,1459.7,1459.7
201911270223,1459.7,1459.7,1459.6,1459.7
201911270224,1459.6,1459.7,1459.6,1459.7
201911270225,1459.7,1459.9,1459.7,1459.9
201911270226,1459.9,1460,1459.8,1459.9
201911270227,1459.9,1460.1,1459.8,1459.8
201911270228,1459.8,1459.8,1459.6,1459.6
201911270229,1459.7,1459.7,1459.5,1459.6
201911270230,1459.6,1459.8,1459.6,1459.7
201911270231,1459.7,1459.7,1459.5,1459.5
201911270232,1459.5,1459.5,1459.2,1459.2
201911270233,1459.2,1459.3,1459.2,1459.2
201911270234,1459.2,1459.2,1459.1,1459.1
201911270235,1459.1,1459.2,1459,1459.1
201911270236,1459.1,1459.2,1458.9,1458.9
201911270237,1458.9,1459,1458.8,1459
201911270238,1459,1459.1,1459,1459.1
201911270239,1459,1459,1458.8,1458.8
201911270240,1458.8,1459,1458.8,1459
201911270241,1459,1459.1,1459,1459
201911270242,1459,1459.1,1459,1459
201911270243,1459,1459,1458.9,1458.9
201911270244,1458.9,1459,1458.7,1458.9
201911270245,1458.8,1459,1458.8,1458.9
201911270246,1458.9,1459.1,1458.8,1459.1
201911270247,1459.1,1459.3,1459,1459.2
201911270248,1459.2,1459.4,1459.2,1459.4
201911270249,1459.4,1459.5,1459.4,1459.5
201911270250,1459.5,1459.6,1459.2,1459.6
201911270251,1459.6,1459.7,1459.5,1459.7
201911270252,1459.7,1459.9,1459.7,1459.9
201911270253,1459.9,1459.9,1459.7,1459.8
201911270254,1459.8,1459.8,1459.6,1459.6
201911270255,1459.6,1459.7,1459.5,1459.7
201911270256,1459.6,1459.7,1459.6,1459.7
201911270257,1459.7,1459.8,1459.7,1459.8
201911270258,1459.8,1460,1459.8,1460
201911270259,1460,1460.1,1459.9,1460
201911270300,1460,1460.1,1459.9,1459.9
201911270301,1459.9,1459.9,1459.5,1459.6
201911270302,1459.6,1459.8,1459.6,1459.6
201911270303,1459.6,1459.7,1459.5,1459.7
201911270304,1459.7,1459.8,1459.7,1459.7
201911270305,1459.7,1460,1459.7,1460
201911270306,1460,1460.3,1459.9,1460.2
201911270307,1460.2,1460.2,1460.1,1460.2
201911270308,1460.2,1460.2,1460.1,1460.1
201911270309,1460.1,1460.1,1460,1460
201911270310,1460,1460.1,1460,1460
201911270311,1460,1460.1,1459.9,1460
201911270312,1460,1460.1,1460,1460.1
201911270313,1460.1,1460.1,1459.9,1459.9
201911270314,1459.9,1459.9,1459.4,1459.6
201911270315,1459.6,1459.7,1459.5,1459.6
201911270316,1459.6,1459.6,1459.3,1459.4
201911270317,1459.3,1459.4,1459.1,1459.2
201911270318,1459.3,1459.3,1459.2,1459.2
201911270319,1459.2,1459.7,1459.2,1459.7
201911270320,1459.7,1459.9,1459.6,1459.6
201911270321,1459.6,1460,1459.6,1460
201911270322,1459.9,1460.3,1459.8,1460.3
201911270323,1460.3,1460.3,1460.2,1460.3
201911270324,1460.3,1460.3,1460.1,1460.2
201911270325,1460.2,1460.2,1460.1,1460.2
201911270326,1460.2,1460.4,1460.1,1460.2
201911270327,1460.2,1460.2,1460.1,1460.2
201911270328,1460.2,1460.5,1460.2,1460.5
201911270329,1460.5,1460.5,1460.1,1460.1
201911270330,1460.2,1460.5,1460.1,1460.5
201911270331,1460.5,1460.8,1460.5,1460.8
201911270332,1460.8,1460.9,1460.8,1460.9
201911270333,1460.9,1461.1,1460.9,1461.1
201911270334,1461.1,1462,1461.1,1461.8
201911270335,1461.8,1461.8,1461.4,1461.8
201911270336,1461.8,1461.8,1461.5,1461.5
201911270337,1461.5,1461.5,1461.3,1461.4
201911270338,1461.4,1461.5,1461.4,1461.4
201911270339,1461.4,1461.7,1461.4,1461.6
201911270340,1461.6,1461.9,1461.5,1461.6
201911270341,1461.6,1461.7,1461.4,1461.6
201911270342,1461.6,1461.6,1461.2,1461.4
201911270343,1461.4,1461.6,1461.3,1461.6
201911270344,1461.6,1461.6,1461.5,1461.6
201911270345,1461.6,1461.7,1461.5,1461.7
201911270346,1461.7,1461.8,1461.6,1461.8
201911270347,1461.7,1461.9,1461.6,1461.6
201911270348,1461.6,1461.8,1461.6,1461.7
201911270349,1461.7,1461.8,1461.6,1461.7
201911270350,1461.7,1461.8,1461.7,1461.8
201911270351,1461.8,1461.8,1461.7,1461.8
201911270352,1461.8,1461.9,1461.8,1461.9
201911270353,1461.9,1462,1461.9,1461.9
201911270354,1461.9,1462.3,1461.9,1462.2
201911270355,1462.2,1462.3,1462.1,1462.1
201911270356,1462.1,1462.2,1461.8,1461.8
201911270357,1461.8,1461.9,1461.5,1461.6
201911270358,1461.6,1461.6,1461.3,1461.4
201911270359,1461.4,1461.9,1461.4,1461.9
201911270400,1461.9,1461.9,1461.7,1461.7
201911270401,1461.7,1461.9,1461.6,1461.6
201911270402,1461.6,1461.6,1461.5,1461.6
201911270403,1461.6,1461.6,1461.5,1461.6
201911270404,1461.6,1461.6,1461.4,1461.5
201911270405,1461.5,1461.5,1461.1,1461.1
201911270406,1461.1,1461.3,1461.1,1461.2
201911270407,1461.2,1461.3,1461.1,1461.1
201911270408,1461.1,1461.3,1461,1461.2
201911270409,1461.2,1461.2,1461.1,1461.2
201911270410,1461.2,1461.2,1461.1,1461.2
201911270411,1461.2,1461.2,1460.9,1461.2
201911270412,1461.2,1461.2,1461,1461.1
201911270413,1461.1,1461.2,1461,1461.2
201911270414,1461.2,1461.2,1461.1,1461.1
201911270415,1461.1,1461.1,1461,1461.1
201911270416,1461,1461.1,1461,1461.1
201911270417,1461,1461.1,1461,1461.1
201911270418,1461.1,1461.2,1461,1461.1
201911270419,1461.1,1461.2,1461,1461
201911270420,1461,1461.1,1460.8,1460.8
201911270421,1460.8,1461,1460.8,1461
201911270422,1461,1461.1,1460.5,1461
201911270423,1461,1461.3,1461,1461.2
201911270424,1461.2,1461.2,1460.8,1460.8
201911270425,1460.8,1460.9,1460.7,1460.8
201911270426,1460.8,1460.9,1460.8,1460.8
201911270427,1460.8,1460.9,1460.8,1460.8
201911270428,1460.8,1460.9,1460.8,1460.9
201911270429,1460.9,1460.9,1460.5,1460.8
201911270430,1460.8,1460.9,1460.8,1460.8
201911270431,1460.8,1460.8,1460.7,1460.8
201911270432,1460.8,1461,1460.8,1460.9
201911270433,1460.9,1461,1460.8,1460.8
201911270434,1460.8,1461,1460.8,1461
201911270435,1461,1461.2,1461,1461.2
201911270436,1461.2,1461.2,1461.1,1461.1
201911270437,1461.1,1461.1,1460.8,1460.9
201911270438,1460.9,1461,1460.8,1461
201911270439,1461,1461,1460.9,1461
201911270440,1461,1461.4,1461,1461.4
201911270441,1461.4,1461.5,1461.4,1461.4
201911270442,1461.4,1461.6,1461.4,1461.5
201911270443,1461.5,1461.5,1461.2,1461.3
201911270444,1461.3,1461.3,1461.2,1461.3
201911270445,1461.3,1461.4,1461.3,1461.4
201911270446,1461.4,1461.5,1461.2,1461.3
201911270447,1461.2,1461.3,1461.1,1461.2
201911270448,1461.2,1461.3,1461.1,1461.2
201911270449,1461.2,1461.3,1461.2,1461.3
201911270450,1461.3,1461.3,1461.1,1461.1
201911270451,1461.1,1461.4,1460.9,1461.2
201911270452,1461.2,1461.2,1461.1,1461.1
201911270453,1461.1,1461.4,1461.1,1461.4
201911270454,1461.4,1461.5,1461.2,1461.5
201911270455,1461.5,1461.5,1461.4,1461.4
201911270456,1461.4,1461.5,1461.1,1461.3
201911270457,1461.3,1461.3,1461.2,1461.2
201911270458,1461.2,1461.3,1461.2,1461.3
201911270459,1461.3,1461.5,1461.2,1461.5
201911270500,1461.6,1461.6,1461.5,1461.6
201911270501,1461.6,1461.7,1461.5,1461.7
201911270502,1461.7,1461.9,1461.6,1461.9
201911270503,1461.9,1462,1461.9,1461.9
201911270504,1461.9,1462.1,1461.9,1462
201911270505,1462,1462.1,1461.9,1462
201911270506,1462,1462,1461.9,1462
201911270507,1462,1462.2,1462,1462
201911270508,1462,1462,1461.9,1461.9
201911270509,1461.9,1461.9,1461.7,1461.7
201911270510,1461.7,1461.8,1461.6,1461.7
201911270511,1461.7,1461.8,1461.6,1461.8
201911270512,1461.8,1461.8,1461.7,1461.7
201911270513,1461.7,1461.8,1461.5,1461.6
201911270514,1461.6,1461.6,1461.3,1461.4
201911270515,1461.4,1461.4,1461.2,1461.2
201911270516,1461.2,1461.3,1461,1461
201911270517,1461,1461.1,1461,1461
201911270518,1461,1461,1460.9,1461
201911270519,1461,1461.1,1460.9,1460.9
201911270520,1460.9,1461,1460.9,1461
201911270521,1461,1461.2,1461,1461.2
201911270522,1461.2,1461.4,1461.2,1461.3
201911270523,1461.3,1461.5,1461.3,1461.4
201911270524,1461.4,1461.5,1461.3,1461.5
201911270525,1461.5,1461.5,1461.2,1461.2
201911270526,1461.3,1461.4,1461.1,1461.2
201911270527,1461.2,1461.4,1461.2,1461.4
201911270528,1461.4,1461.4,1461.1,1461.2
201911270529,1461.2,1461.3,1461.2,1461.2
201911270530,1461.2,1461.5,1461.2,1461.5
201911270531,1461.5,1461.5,1461.4,1461.5
201911270532,1461.5,1461.5,1461.4,1461.4
201911270533,1461.4,1461.5,1461.4,1461.5
201911270534,1461.5,1462.1,1461.5,1461.9
201911270535,1461.9,1462,1461.9,1461.9
201911270536,1461.9,1462,1461.9,1462
201911270537,1462,1462,1461.9,1461.9
201911270538,1461.9,1462,1461.9,1461.9
201911270539,1461.9,1461.9,1461.9,1461.9
201911270540,1461.9,1462,1461.8,1462
201911270541,1462,1462,1461.8,1461.8
201911270542,1461.8,1461.9,1461.7,1461.8
201911270543,1461.8,1461.8,1461.7,1461.8
201911270544,1461.8,1461.8,1461.7,1461.7
201911270545,1461.7,1461.7,1461.5,1461.6
201911270546,1461.6,1461.8,1461.6,1461.8
201911270547,1461.8,1461.9,1461.8,1461.8
201911270548,1461.8,1462,1461.8,1461.9
201911270549,1461.9,1462.1,1461.9,1462
201911270550,1462,1462.2,1462,1462.1
201911270551,1462.1,1462.1,1462,1462.1
201911270552,1462.1,1462.2,1462.1,1462.2
201911270553,1462.2,1462.2,1462.1,1462.1
201911270554,1462.1,1462.2,1462.1,1462.2
201911270555,1462.2,1462.3,1462.1,1462.2
201911270556,1462.3,1462.3,1462.2,1462.3
201911270557,1462.3,1462.4,1462.1,1462.1
201911270558,1462.1,1462.2,1462,1462
201911270559,1462,1462.4,1462,1462.2
201911270600,1462.2,1462.5,1462.2,1462.3
201911270601,1462.3,1462.4,1462.2,1462.2
201911270602,1462.2,1462.3,1462.2,1462.3
201911270603,1462.3,1462.3,1462.1,1462.1
201911270604,1462.1,1462.2,1462.1,1462.1
201911270605,1462.1,1462.1,1462,1462
201911270606,1462,1462.3,1462,1462.3
201911270607,1462.3,1462.3,1462.2,1462.3
201911270608,1462.3,1462.3,1462.2,1462.2
201911270609,1462.2,1462.4,1462.2,1462.4
201911270610,1462.4,1462.7,1462.4,1462.6
201911270611,1462.6,1462.7,1462.6,1462.6
201911270612,1462.6,1462.7,1462.6,1462.6
201911270613,1462.6,1462.6,1462.1,1462.2
201911270614,1462.2,1462.4,1462.2,1462.4
201911270615,1462.4,1462.4,1462.3,1462.3
201911270616,1462.3,1462.4,1462.3,1462.4
201911270617,1462.4,1462.4,1462.2,1462.3
201911270618,1462.3,1462.6,1462.2,1462.6
201911270619,1462.6,1462.7,1462.5,1462.5
201911270620,1462.5,1462.6,1462.5,1462.6
201911270621,1462.6,1462.6,1462.3,1462.3
201911270622,1462.3,1462.5,1462.3,1462.5
201911270623,1462.5,1462.5,1462.5,1462.5
201911270624,1462.5,1462.5,1462.5,1462.5
201911270625,1462.5,1462.6,1462.5,1462.5
201911270626,1462.5,1462.5,1462.5,1462.5
201911270627,1462.5,1462.5,1462.5,1462.5
201911270628,1462.5,1462.5,1462.5,1462.5
201911270629,1462.5,1462.6,1462.5,1462.5
201911270630,1462.5,1462.6,1462.5,1462.6
201911270631,1462.6,1462.6,1462.5,1462.5
201911270632,1462.5,1462.5,1462.3,1462.3
201911270633,1462.3,1462.3,1461.9,1462
201911270634,1462,1462,1461.9,1462
201911270635,1462,1462.1,1462,1462
201911270636,1462,1462,1461.9,1461.9
201911270637,1461.9,1461.9,1461.9,1461.9
201911270638,1461.9,1461.9,1461.7,1461.7
201911270639,1461.7,1461.8,1461.7,1461.8
201911270640,1461.8,1461.9,1461.8,1461.8
201911270641,1461.8,1461.8,1461.8,1461.8
201911270642,1461.8,1461.8,1461.8,1461.8
201911270643,1461.8,1461.9,1461.8,1461.9
201911270644,1461.9,1461.9,1461.9,1461.9
201911270645,1461.9,1462,1461.8,1461.8
201911270646,1461.8,1461.8,1461.6,1461.6
201911270647,1461.6,1461.6,1461.5,1461.6
201911270648,1461.6,1461.6,1461.5,1461.5
201911270649,1461.5,1461.5,1461.5,1461.5
201911270650,1461.5,1461.5,1461.3,1461.5
201911270651,1461.5,1461.5,1461.4,1461.4
201911270652,1461.4,1461.5,1461.4,1461.5
201911270653,1461.4,1461.4,1461.3,1461.3
201911270654,1461.3,1461.3,1461.3,1461.3
201911270655,1461.3,1461.3,1461.3,1461.3
201911270656,1461.3,1461.3,1461.3,1461.3
201911270657,1461.3,1461.3,1461.3,1461.3
201911270658,1461.3,1461.4,1461.3,1461.3
201911270659,1461.3,1461.4,1461.2,1461.2
