日時,始値(BID),高値(BID),安値(BID),終値(BID)
201910300700,17.813,17.813,17.804,17.806
201910300701,17.807,17.808,17.805,17.808
201910300702,17.808,17.809,17.808,17.809
201910300703,17.809,17.812,17.808,17.81
201910300704,17.81,17.81,17.809,17.809
201910300705,17.809,17.811,17.809,17.81
201910300706,17.809,17.809,17.805,17.806
201910300707,17.806,17.806,17.801,17.801
201910300708,17.801,17.801,17.799,17.801
201910300709,17.801,17.801,17.801,17.801
201910300710,17.801,17.803,17.801,17.803
201910300711,17.805,17.81,17.805,17.81
201910300712,17.81,17.811,17.81,17.811
201910300713,17.811,17.811,17.811,17.811
201910300714,17.811,17.811,17.81,17.811
201910300715,17.811,17.811,17.81,17.81
201910300716,17.81,17.81,17.808,17.808
201910300717,17.808,17.808,17.807,17.808
201910300718,17.808,17.808,17.807,17.807
201910300719,17.807,17.809,17.805,17.806
201910300720,17.805,17.806,17.805,17.806
201910300721,17.806,17.807,17.805,17.807
201910300722,17.807,17.807,17.806,17.807
201910300723,17.807,17.808,17.805,17.805
201910300724,17.804,17.806,17.8,17.806
201910300725,17.806,17.807,17.803,17.806
201910300726,17.806,17.806,17.802,17.802
201910300727,17.802,17.802,17.799,17.799
201910300728,17.799,17.799,17.798,17.798
201910300729,17.798,17.798,17.796,17.796
201910300730,17.796,17.796,17.794,17.794
201910300731,17.795,17.796,17.794,17.794
201910300732,17.794,17.795,17.794,17.794
201910300733,17.794,17.795,17.794,17.795
201910300734,17.795,17.795,17.794,17.795
201910300735,17.795,17.795,17.791,17.791
201910300736,17.791,17.791,17.791,17.791
201910300737,17.791,17.791,17.79,17.79
201910300738,17.79,17.791,17.786,17.786
201910300739,17.786,17.786,17.784,17.785
201910300740,17.785,17.785,17.785,17.785
201910300741,17.785,17.792,17.785,17.79
201910300742,17.791,17.791,17.789,17.789
201910300743,17.789,17.789,17.788,17.789
201910300744,17.789,17.795,17.789,17.795
201910300745,17.795,17.795,17.793,17.795
201910300746,17.795,17.796,17.793,17.793
201910300747,17.793,17.795,17.79,17.79
201910300748,17.79,17.791,17.79,17.791
201910300749,17.791,17.791,17.79,17.791
201910300750,17.791,17.795,17.79,17.793
201910300751,17.793,17.794,17.792,17.793
201910300752,17.793,17.794,17.793,17.793
201910300753,17.793,17.794,17.793,17.794
201910300754,17.794,17.794,17.793,17.793
201910300755,17.793,17.793,17.789,17.789
201910300756,17.789,17.79,17.788,17.788
201910300757,17.788,17.79,17.788,17.788
201910300758,17.788,17.789,17.786,17.789
201910300759,17.789,17.79,17.788,17.79
201910300800,17.79,17.795,17.79,17.794
201910300801,17.794,17.798,17.793,17.795
201910300802,17.794,17.795,17.794,17.794
201910300803,17.795,17.795,17.794,17.794
201910300804,17.794,17.795,17.792,17.795
201910300805,17.795,17.798,17.794,17.798
201910300806,17.798,17.798,17.796,17.796
201910300807,17.796,17.796,17.794,17.795
201910300808,17.795,17.795,17.791,17.793
201910300809,17.793,17.798,17.792,17.797
201910300810,17.797,17.797,17.794,17.794
201910300811,17.794,17.796,17.793,17.795
201910300812,17.795,17.796,17.792,17.792
201910300813,17.792,17.794,17.792,17.794
201910300814,17.794,17.795,17.792,17.795
201910300815,17.795,17.797,17.795,17.796
201910300816,17.797,17.797,17.794,17.795
201910300817,17.795,17.798,17.795,17.796
201910300818,17.796,17.796,17.794,17.794
201910300819,17.794,17.795,17.793,17.794
201910300820,17.794,17.795,17.794,17.795
201910300821,17.795,17.796,17.794,17.795
201910300822,17.795,17.795,17.793,17.793
201910300823,17.793,17.795,17.793,17.794
201910300824,17.794,17.795,17.793,17.795
201910300825,17.795,17.795,17.794,17.795
201910300826,17.795,17.795,17.794,17.794
201910300827,17.794,17.794,17.793,17.794
201910300828,17.794,17.794,17.793,17.794
201910300829,17.794,17.796,17.794,17.795
201910300830,17.795,17.795,17.794,17.794
201910300831,17.794,17.796,17.794,17.795
201910300832,17.795,17.796,17.795,17.795
201910300833,17.795,17.796,17.795,17.796
201910300834,17.796,17.796,17.795,17.795
201910300835,17.795,17.795,17.795,17.795
201910300836,17.795,17.796,17.795,17.795
201910300837,17.795,17.796,17.794,17.794
201910300838,17.794,17.795,17.794,17.794
201910300839,17.794,17.799,17.794,17.799
201910300840,17.8,17.801,17.798,17.8
201910300841,17.8,17.8,17.799,17.8
201910300842,17.801,17.801,17.796,17.797
201910300843,17.797,17.8,17.796,17.8
201910300844,17.8,17.8,17.794,17.796
201910300845,17.796,17.801,17.795,17.8
201910300846,17.801,17.801,17.798,17.798
201910300847,17.798,17.801,17.798,17.8
201910300848,17.801,17.803,17.799,17.802
201910300849,17.802,17.802,17.8,17.801
201910300850,17.801,17.801,17.801,17.801
201910300851,17.801,17.801,17.8,17.801
201910300852,17.801,17.801,17.793,17.793
201910300853,17.794,17.795,17.79,17.79
201910300854,17.79,17.791,17.789,17.789
201910300855,17.79,17.791,17.785,17.785
201910300856,17.785,17.786,17.783,17.786
201910300857,17.786,17.786,17.785,17.785
201910300858,17.785,17.785,17.781,17.781
201910300859,17.781,17.781,17.781,17.781
201910300900,17.781,17.784,17.779,17.784
201910300901,17.785,17.785,17.78,17.78
201910300902,17.781,17.781,17.778,17.778
201910300903,17.778,17.784,17.778,17.783
201910300904,17.783,17.786,17.782,17.786
201910300905,17.786,17.789,17.786,17.788
201910300906,17.788,17.788,17.783,17.784
201910300907,17.784,17.785,17.783,17.783
201910300908,17.783,17.785,17.782,17.782
201910300909,17.782,17.785,17.779,17.783
201910300910,17.783,17.784,17.783,17.783
201910300911,17.783,17.788,17.783,17.783
201910300912,17.783,17.791,17.783,17.79
201910300913,17.79,17.795,17.788,17.793
201910300914,17.795,17.796,17.793,17.793
201910300915,17.793,17.8,17.793,17.795
201910300916,17.795,17.796,17.78,17.781
201910300917,17.78,17.808,17.771,17.808
201910300918,17.808,17.808,17.8,17.807
201910300919,17.807,17.807,17.802,17.802
201910300920,17.802,17.802,17.798,17.801
201910300921,17.801,17.801,17.798,17.799
201910300922,17.799,17.799,17.798,17.798
201910300923,17.798,17.801,17.795,17.799
201910300924,17.799,17.803,17.798,17.801
201910300925,17.801,17.803,17.8,17.803
201910300926,17.803,17.808,17.803,17.808
201910300927,17.808,17.812,17.807,17.812
201910300928,17.812,17.812,17.808,17.811
201910300929,17.812,17.812,17.807,17.808
201910300930,17.808,17.814,17.807,17.813
201910300931,17.813,17.824,17.813,17.824
201910300932,17.824,17.824,17.819,17.819
201910300933,17.819,17.819,17.817,17.818
201910300934,17.819,17.82,17.817,17.818
201910300935,17.818,17.818,17.817,17.818
201910300936,17.818,17.823,17.818,17.821
201910300937,17.821,17.822,17.818,17.821
201910300938,17.821,17.822,17.818,17.821
201910300939,17.821,17.823,17.821,17.822
201910300940,17.822,17.824,17.822,17.824
201910300941,17.824,17.824,17.82,17.82
201910300942,17.82,17.82,17.818,17.819
201910300943,17.819,17.819,17.815,17.815
201910300944,17.815,17.815,17.814,17.814
201910300945,17.814,17.814,17.813,17.813
201910300946,17.813,17.814,17.812,17.814
201910300947,17.814,17.814,17.811,17.813
201910300948,17.813,17.814,17.813,17.814
201910300949,17.814,17.817,17.814,17.816
201910300950,17.816,17.816,17.809,17.812
201910300951,17.812,17.814,17.812,17.812
201910300952,17.812,17.813,17.81,17.811
201910300953,17.811,17.813,17.81,17.813
201910300954,17.814,17.818,17.814,17.818
201910300955,17.818,17.822,17.818,17.821
201910300956,17.821,17.823,17.821,17.821
201910300957,17.821,17.823,17.821,17.823
201910300958,17.823,17.824,17.821,17.823
201910300959,17.823,17.823,17.821,17.822
201910301000,17.822,17.837,17.818,17.819
201910301001,17.818,17.822,17.809,17.813
201910301002,17.813,17.813,17.788,17.79
201910301003,17.789,17.796,17.782,17.782
201910301004,17.783,17.783,17.776,17.782
201910301005,17.779,17.788,17.777,17.784
201910301006,17.784,17.785,17.782,17.782
201910301007,17.782,17.784,17.773,17.776
201910301008,17.776,17.785,17.774,17.783
201910301009,17.783,17.783,17.779,17.779
201910301010,17.779,17.783,17.778,17.782
201910301011,17.782,17.784,17.781,17.784
201910301012,17.784,17.793,17.784,17.793
201910301013,17.793,17.794,17.783,17.784
201910301014,17.784,17.784,17.779,17.783
201910301015,17.784,17.794,17.783,17.792
201910301016,17.792,17.793,17.784,17.784
201910301017,17.784,17.789,17.783,17.788
201910301018,17.788,17.796,17.787,17.792
201910301019,17.792,17.795,17.791,17.793
201910301020,17.793,17.798,17.793,17.793
201910301021,17.794,17.794,17.789,17.794
201910301022,17.794,17.799,17.794,17.798
201910301023,17.798,17.804,17.798,17.803
201910301024,17.803,17.804,17.802,17.803
201910301025,17.803,17.804,17.803,17.803
201910301026,17.803,17.803,17.798,17.8
201910301027,17.8,17.802,17.798,17.8
201910301028,17.8,17.802,17.799,17.799
201910301029,17.799,17.799,17.796,17.798
201910301030,17.798,17.799,17.797,17.799
201910301031,17.799,17.803,17.795,17.802
201910301032,17.802,17.807,17.802,17.803
201910301033,17.803,17.808,17.803,17.808
201910301034,17.808,17.808,17.808,17.808
201910301035,17.808,17.812,17.808,17.812
201910301036,17.812,17.812,17.803,17.803
201910301037,17.803,17.808,17.802,17.808
201910301038,17.808,17.809,17.807,17.807
201910301039,17.807,17.809,17.807,17.807
201910301040,17.807,17.81,17.802,17.802
201910301041,17.802,17.803,17.8,17.802
201910301042,17.802,17.803,17.802,17.803
201910301043,17.803,17.803,17.8,17.801
201910301044,17.801,17.804,17.8,17.802
201910301045,17.802,17.802,17.799,17.799
201910301046,17.799,17.799,17.789,17.792
201910301047,17.792,17.798,17.792,17.798
201910301048,17.798,17.799,17.797,17.799
201910301049,17.799,17.804,17.797,17.803
201910301050,17.803,17.803,17.798,17.8
201910301051,17.8,17.802,17.798,17.798
201910301052,17.798,17.798,17.792,17.793
201910301053,17.793,17.793,17.79,17.793
201910301054,17.793,17.794,17.791,17.793
201910301055,17.793,17.793,17.792,17.793
201910301056,17.793,17.793,17.789,17.792
201910301057,17.791,17.797,17.791,17.796
201910301058,17.795,17.797,17.795,17.795
201910301059,17.796,17.796,17.789,17.792
201910301100,17.793,17.793,17.789,17.789
201910301101,17.789,17.791,17.784,17.786
201910301102,17.786,17.786,17.783,17.783
201910301103,17.783,17.783,17.782,17.783
201910301104,17.783,17.783,17.782,17.783
201910301105,17.782,17.783,17.778,17.783
201910301106,17.783,17.783,17.778,17.778
201910301107,17.778,17.782,17.778,17.779
201910301108,17.779,17.779,17.777,17.778
201910301109,17.779,17.782,17.779,17.779
201910301110,17.779,17.779,17.778,17.779
201910301111,17.779,17.783,17.779,17.779
201910301112,17.779,17.784,17.779,17.783
201910301113,17.783,17.784,17.779,17.782
201910301114,17.782,17.783,17.779,17.78
201910301115,17.779,17.78,17.77,17.774
201910301116,17.774,17.774,17.772,17.774
201910301117,17.774,17.774,17.769,17.77
201910301118,17.77,17.773,17.769,17.772
201910301119,17.772,17.773,17.772,17.773
201910301120,17.773,17.773,17.772,17.773
201910301121,17.773,17.775,17.773,17.774
201910301122,17.774,17.775,17.774,17.774
201910301123,17.774,17.778,17.773,17.778
201910301124,17.778,17.783,17.778,17.783
201910301125,17.783,17.786,17.782,17.785
201910301126,17.785,17.786,17.783,17.784
201910301127,17.784,17.785,17.783,17.784
201910301128,17.784,17.786,17.784,17.784
201910301129,17.784,17.785,17.783,17.784
201910301130,17.784,17.788,17.781,17.784
201910301131,17.784,17.785,17.782,17.785
201910301132,17.785,17.789,17.782,17.789
201910301133,17.789,17.789,17.784,17.785
201910301134,17.785,17.785,17.783,17.783
201910301135,17.783,17.783,17.779,17.779
201910301136,17.779,17.779,17.772,17.774
201910301137,17.774,17.774,17.772,17.773
201910301138,17.773,17.774,17.77,17.77
201910301139,17.77,17.773,17.769,17.77
201910301140,17.77,17.77,17.759,17.759
201910301141,17.759,17.759,17.753,17.755
201910301142,17.754,17.757,17.748,17.755
201910301143,17.755,17.759,17.754,17.759
201910301144,17.759,17.759,17.757,17.758
201910301145,17.758,17.758,17.753,17.754
201910301146,17.755,17.76,17.754,17.759
201910301147,17.759,17.759,17.755,17.758
201910301148,17.758,17.761,17.758,17.759
201910301149,17.759,17.76,17.756,17.756
201910301150,17.756,17.757,17.754,17.755
201910301151,17.754,17.758,17.754,17.756
201910301152,17.756,17.76,17.756,17.759
201910301153,17.758,17.763,17.758,17.761
201910301154,17.761,17.77,17.76,17.768
201910301155,17.768,17.77,17.766,17.769
201910301156,17.769,17.769,17.764,17.769
201910301157,17.769,17.774,17.768,17.77
201910301158,17.77,17.77,17.768,17.77
201910301159,17.77,17.77,17.768,17.768
201910301200,17.768,17.77,17.767,17.77
201910301201,17.77,17.77,17.768,17.768
201910301202,17.768,17.771,17.768,17.771
201910301203,17.771,17.773,17.769,17.773
201910301204,17.773,17.773,17.773,17.773
201910301205,17.774,17.774,17.769,17.774
201910301206,17.774,17.775,17.77,17.77
201910301207,17.77,17.774,17.769,17.77
201910301208,17.77,17.77,17.766,17.769
201910301209,17.769,17.77,17.768,17.769
201910301210,17.77,17.773,17.768,17.773
201910301211,17.774,17.776,17.769,17.77
201910301212,17.77,17.77,17.767,17.769
201910301213,17.769,17.773,17.769,17.772
201910301214,17.772,17.772,17.763,17.764
201910301215,17.765,17.77,17.764,17.769
201910301216,17.769,17.77,17.766,17.769
201910301217,17.769,17.77,17.769,17.769
201910301218,17.769,17.77,17.764,17.764
201910301219,17.764,17.766,17.764,17.765
201910301220,17.765,17.765,17.763,17.764
201910301221,17.764,17.765,17.764,17.764
201910301222,17.764,17.765,17.762,17.762
201910301223,17.762,17.763,17.76,17.762
201910301224,17.762,17.768,17.762,17.766
201910301225,17.766,17.768,17.764,17.768
201910301226,17.768,17.768,17.766,17.768
201910301227,17.768,17.774,17.767,17.773
201910301228,17.774,17.774,17.771,17.771
201910301229,17.771,17.774,17.769,17.774
201910301230,17.774,17.774,17.773,17.774
201910301231,17.774,17.774,17.773,17.774
201910301232,17.774,17.776,17.773,17.774
201910301233,17.774,17.776,17.774,17.776
201910301234,17.776,17.776,17.774,17.774
201910301235,17.774,17.775,17.774,17.775
201910301236,17.775,17.776,17.774,17.775
201910301237,17.775,17.775,17.773,17.774
201910301238,17.774,17.775,17.773,17.774
201910301239,17.774,17.774,17.773,17.773
201910301240,17.773,17.775,17.772,17.775
201910301241,17.775,17.775,17.773,17.773
201910301242,17.773,17.773,17.772,17.773
201910301243,17.773,17.773,17.773,17.773
201910301244,17.773,17.773,17.77,17.77
201910301245,17.771,17.774,17.771,17.772
201910301246,17.772,17.774,17.772,17.774
201910301247,17.774,17.775,17.773,17.775
201910301248,17.774,17.775,17.774,17.774
201910301249,17.774,17.776,17.774,17.775
201910301250,17.775,17.776,17.774,17.775
201910301251,17.775,17.775,17.774,17.774
201910301252,17.774,17.774,17.774,17.774
201910301253,17.774,17.774,17.774,17.774
201910301254,17.774,17.775,17.774,17.775
201910301255,17.775,17.775,17.774,17.774
201910301256,17.774,17.775,17.774,17.775
201910301257,17.775,17.775,17.773,17.774
201910301258,17.774,17.775,17.774,17.774
201910301259,17.774,17.778,17.774,17.776
201910301300,17.775,17.779,17.774,17.779
201910301301,17.779,17.78,17.778,17.78
201910301302,17.78,17.78,17.778,17.779
201910301303,17.779,17.779,17.775,17.777
201910301304,17.777,17.78,17.777,17.78
201910301305,17.78,17.786,17.78,17.784
201910301306,17.784,17.784,17.779,17.779
201910301307,17.779,17.784,17.779,17.784
201910301308,17.784,17.785,17.782,17.784
201910301309,17.784,17.785,17.783,17.785
201910301310,17.785,17.785,17.782,17.783
201910301311,17.783,17.783,17.778,17.779
201910301312,17.778,17.78,17.778,17.779
201910301313,17.779,17.781,17.778,17.779
201910301314,17.779,17.78,17.777,17.778
201910301315,17.778,17.779,17.777,17.778
201910301316,17.778,17.779,17.775,17.776
201910301317,17.776,17.778,17.776,17.778
201910301318,17.778,17.778,17.777,17.778
201910301319,17.778,17.779,17.778,17.779
201910301320,17.779,17.78,17.777,17.778
201910301321,17.778,17.78,17.778,17.779
201910301322,17.779,17.781,17.779,17.78
201910301323,17.78,17.78,17.779,17.78
201910301324,17.78,17.78,17.779,17.78
201910301325,17.78,17.78,17.778,17.779
201910301326,17.779,17.781,17.778,17.78
201910301327,17.78,17.783,17.779,17.782
201910301328,17.782,17.783,17.782,17.783
201910301329,17.783,17.784,17.783,17.783
201910301330,17.783,17.784,17.782,17.783
201910301331,17.783,17.784,17.783,17.784
201910301332,17.784,17.784,17.782,17.782
201910301333,17.783,17.784,17.783,17.783
201910301334,17.783,17.785,17.783,17.784
201910301335,17.784,17.785,17.783,17.785
201910301336,17.785,17.789,17.784,17.784
201910301337,17.784,17.787,17.784,17.786
201910301338,17.786,17.789,17.786,17.789
201910301339,17.789,17.79,17.788,17.789
201910301340,17.789,17.79,17.788,17.789
201910301341,17.789,17.789,17.785,17.786
201910301342,17.786,17.788,17.784,17.785
201910301343,17.785,17.788,17.784,17.786
201910301344,17.786,17.789,17.786,17.786
201910301345,17.786,17.786,17.785,17.786
201910301346,17.786,17.787,17.784,17.786
201910301347,17.785,17.786,17.784,17.784
201910301348,17.784,17.785,17.783,17.784
201910301349,17.784,17.785,17.784,17.784
201910301350,17.784,17.786,17.783,17.784
201910301351,17.783,17.784,17.783,17.784
201910301352,17.784,17.785,17.783,17.784
201910301353,17.784,17.787,17.784,17.787
201910301354,17.787,17.787,17.786,17.786
201910301355,17.787,17.788,17.785,17.785
201910301356,17.785,17.786,17.785,17.786
201910301357,17.788,17.789,17.788,17.789
201910301358,17.789,17.79,17.788,17.789
201910301359,17.789,17.79,17.787,17.789
201910301400,17.789,17.79,17.787,17.79
201910301401,17.79,17.79,17.787,17.787
201910301402,17.787,17.787,17.783,17.784
201910301403,17.784,17.786,17.783,17.785
201910301404,17.785,17.787,17.783,17.783
201910301405,17.783,17.784,17.781,17.783
201910301406,17.783,17.784,17.778,17.78
201910301407,17.78,17.78,17.778,17.779
201910301408,17.779,17.779,17.778,17.778
201910301409,17.778,17.778,17.773,17.773
201910301410,17.773,17.774,17.772,17.772
201910301411,17.772,17.773,17.772,17.772
201910301412,17.772,17.774,17.772,17.773
201910301413,17.773,17.773,17.769,17.769
201910301414,17.769,17.77,17.768,17.769
201910301415,17.769,17.77,17.769,17.77
201910301416,17.769,17.77,17.763,17.764
201910301417,17.764,17.765,17.763,17.763
201910301418,17.763,17.769,17.762,17.769
201910301419,17.769,17.769,17.764,17.769
201910301420,17.768,17.769,17.765,17.769
201910301421,17.768,17.768,17.765,17.766
201910301422,17.766,17.769,17.766,17.768
201910301423,17.768,17.77,17.768,17.77
201910301424,17.769,17.77,17.767,17.769
201910301425,17.769,17.769,17.763,17.767
201910301426,17.767,17.771,17.767,17.767
201910301427,17.767,17.77,17.764,17.77
201910301428,17.77,17.77,17.768,17.769
201910301429,17.769,17.773,17.768,17.772
201910301430,17.772,17.774,17.768,17.774
201910301431,17.774,17.778,17.774,17.777
201910301432,17.777,17.782,17.777,17.78
201910301433,17.782,17.783,17.778,17.78
201910301434,17.78,17.784,17.78,17.784
201910301435,17.784,17.787,17.764,17.765
201910301436,17.765,17.768,17.759,17.761
201910301437,17.761,17.766,17.759,17.765
201910301438,17.765,17.771,17.764,17.767
201910301439,17.767,17.771,17.767,17.769
201910301440,17.769,17.777,17.769,17.774
201910301441,17.774,17.779,17.773,17.774
201910301442,17.773,17.777,17.773,17.775
201910301443,17.775,17.775,17.77,17.772
201910301444,17.772,17.778,17.772,17.774
201910301445,17.774,17.774,17.769,17.773
201910301446,17.773,17.773,17.767,17.769
201910301447,17.769,17.777,17.769,17.777
201910301448,17.777,17.784,17.777,17.782
201910301449,17.782,17.789,17.782,17.785
201910301450,17.784,17.789,17.783,17.784
201910301451,17.784,17.784,17.775,17.777
201910301452,17.776,17.778,17.772,17.773
201910301453,17.773,17.778,17.769,17.777
201910301454,17.777,17.783,17.777,17.782
201910301455,17.782,17.783,17.778,17.779
201910301456,17.78,17.783,17.779,17.779
201910301457,17.779,17.783,17.778,17.782
201910301458,17.782,17.784,17.779,17.779
201910301459,17.779,17.779,17.775,17.779
201910301500,17.778,17.778,17.769,17.773
201910301501,17.773,17.783,17.773,17.782
201910301502,17.782,17.783,17.78,17.782
201910301503,17.782,17.786,17.779,17.784
201910301504,17.784,17.785,17.779,17.783
201910301505,17.783,17.784,17.779,17.782
201910301506,17.782,17.788,17.782,17.788
201910301507,17.788,17.797,17.787,17.797
201910301508,17.796,17.797,17.793,17.794
201910301509,17.794,17.795,17.788,17.788
201910301510,17.788,17.794,17.788,17.794
201910301511,17.794,17.797,17.794,17.794
201910301512,17.794,17.795,17.788,17.795
201910301513,17.795,17.797,17.793,17.796
201910301514,17.796,17.803,17.796,17.8
201910301515,17.8,17.803,17.798,17.799
201910301516,17.799,17.799,17.79,17.792
201910301517,17.792,17.792,17.786,17.789
201910301518,17.789,17.792,17.787,17.792
201910301519,17.792,17.802,17.792,17.802
201910301520,17.801,17.805,17.799,17.803
201910301521,17.803,17.803,17.798,17.799
201910301522,17.799,17.801,17.796,17.798
201910301523,17.798,17.804,17.796,17.804
201910301524,17.804,17.808,17.803,17.805
201910301525,17.805,17.808,17.804,17.808
201910301526,17.809,17.833,17.809,17.832
201910301527,17.832,17.834,17.828,17.83
201910301528,17.831,17.831,17.827,17.827
201910301529,17.828,17.841,17.827,17.836
201910301530,17.836,17.84,17.834,17.835
201910301531,17.835,17.847,17.835,17.847
201910301532,17.847,17.864,17.847,17.852
201910301533,17.851,17.856,17.84,17.841
201910301534,17.842,17.842,17.839,17.84
201910301535,17.84,17.849,17.832,17.832
201910301536,17.832,17.833,17.826,17.826
201910301537,17.827,17.831,17.826,17.826
201910301538,17.826,17.83,17.826,17.83
201910301539,17.83,17.833,17.829,17.831
201910301540,17.831,17.838,17.831,17.836
201910301541,17.836,17.836,17.827,17.827
201910301542,17.827,17.832,17.826,17.831
201910301543,17.83,17.839,17.826,17.836
201910301544,17.836,17.843,17.836,17.842
201910301545,17.842,17.848,17.838,17.848
201910301546,17.848,17.852,17.843,17.847
201910301547,17.847,17.847,17.837,17.838
201910301548,17.838,17.843,17.835,17.837
201910301549,17.837,17.838,17.832,17.836
201910301550,17.837,17.837,17.829,17.835
201910301551,17.834,17.834,17.83,17.833
201910301552,17.833,17.837,17.832,17.836
201910301553,17.836,17.837,17.832,17.832
201910301554,17.832,17.832,17.829,17.83
201910301555,17.831,17.834,17.829,17.833
201910301556,17.833,17.836,17.829,17.829
201910301557,17.829,17.831,17.829,17.829
201910301558,17.829,17.831,17.829,17.829
201910301559,17.829,17.833,17.828,17.832
201910301600,17.832,17.838,17.832,17.835
201910301601,17.835,17.835,17.832,17.833
201910301602,17.833,17.834,17.83,17.833
201910301603,17.833,17.833,17.827,17.832
201910301604,17.832,17.832,17.83,17.831
201910301605,17.831,17.836,17.831,17.833
201910301606,17.832,17.833,17.828,17.83
201910301607,17.83,17.833,17.83,17.833
201910301608,17.832,17.835,17.83,17.832
201910301609,17.832,17.834,17.831,17.831
201910301610,17.831,17.831,17.826,17.826
201910301611,17.826,17.829,17.826,17.827
201910301612,17.827,17.829,17.827,17.827
201910301613,17.827,17.829,17.823,17.826
201910301614,17.826,17.827,17.817,17.822
201910301615,17.822,17.822,17.816,17.816
201910301616,17.816,17.818,17.816,17.817
201910301617,17.817,17.821,17.816,17.821
201910301618,17.821,17.827,17.82,17.827
201910301619,17.827,17.832,17.825,17.831
201910301620,17.831,17.831,17.826,17.829
201910301621,17.829,17.831,17.826,17.83
201910301622,17.83,17.836,17.83,17.836
201910301623,17.836,17.839,17.835,17.838
201910301624,17.837,17.844,17.835,17.835
201910301625,17.836,17.841,17.835,17.837
201910301626,17.837,17.838,17.832,17.833
201910301627,17.832,17.836,17.831,17.836
201910301628,17.836,17.843,17.836,17.841
201910301629,17.842,17.843,17.837,17.837
201910301630,17.837,17.841,17.836,17.838
201910301631,17.838,17.838,17.836,17.838
201910301632,17.837,17.839,17.837,17.838
201910301633,17.838,17.838,17.827,17.83
201910301634,17.83,17.83,17.816,17.82
201910301635,17.82,17.821,17.816,17.817
201910301636,17.817,17.817,17.813,17.815
201910301637,17.815,17.816,17.811,17.813
201910301638,17.813,17.814,17.811,17.814
201910301639,17.814,17.814,17.807,17.812
201910301640,17.812,17.813,17.811,17.811
201910301641,17.811,17.811,17.807,17.807
201910301642,17.806,17.81,17.801,17.81
201910301643,17.81,17.811,17.81,17.81
201910301644,17.81,17.81,17.805,17.805
201910301645,17.806,17.807,17.806,17.807
201910301646,17.806,17.81,17.806,17.807
201910301647,17.807,17.809,17.806,17.808
201910301648,17.808,17.809,17.806,17.808
201910301649,17.809,17.81,17.802,17.804
201910301650,17.804,17.809,17.804,17.807
201910301651,17.807,17.807,17.804,17.805
201910301652,17.805,17.808,17.805,17.808
201910301653,17.808,17.811,17.806,17.807
201910301654,17.807,17.81,17.807,17.81
201910301655,17.81,17.812,17.81,17.811
201910301656,17.811,17.811,17.806,17.806
201910301657,17.806,17.808,17.806,17.807
201910301658,17.807,17.809,17.806,17.807
201910301659,17.807,17.807,17.8,17.8
201910301700,17.801,17.803,17.788,17.798
201910301701,17.797,17.8,17.789,17.792
201910301702,17.791,17.794,17.788,17.792
201910301703,17.792,17.801,17.791,17.801
201910301704,17.801,17.801,17.796,17.797
201910301705,17.796,17.805,17.796,17.799
201910301706,17.8,17.802,17.799,17.8
201910301707,17.8,17.801,17.799,17.799
201910301708,17.799,17.806,17.799,17.806
201910301709,17.806,17.806,17.8,17.801
201910301710,17.801,17.801,17.796,17.797
201910301711,17.797,17.803,17.797,17.801
201910301712,17.801,17.801,17.799,17.801
201910301713,17.801,17.805,17.8,17.804
201910301714,17.803,17.81,17.802,17.81
201910301715,17.81,17.812,17.81,17.81
201910301716,17.81,17.812,17.81,17.812
201910301717,17.812,17.812,17.811,17.812
201910301718,17.812,17.812,17.81,17.81
201910301719,17.81,17.811,17.81,17.81
201910301720,17.81,17.815,17.81,17.811
201910301721,17.811,17.812,17.81,17.811
201910301722,17.811,17.813,17.81,17.811
201910301723,17.811,17.82,17.811,17.82
201910301724,17.82,17.821,17.816,17.82
201910301725,17.82,17.82,17.816,17.819
201910301726,17.818,17.819,17.816,17.818
201910301727,17.817,17.819,17.816,17.819
201910301728,17.817,17.819,17.815,17.815
201910301729,17.815,17.816,17.815,17.816
201910301730,17.816,17.816,17.812,17.816
201910301731,17.816,17.825,17.816,17.824
201910301732,17.824,17.825,17.824,17.825
201910301733,17.825,17.827,17.825,17.827
201910301734,17.827,17.833,17.827,17.832
201910301735,17.832,17.835,17.829,17.835
201910301736,17.833,17.835,17.833,17.834
201910301737,17.834,17.835,17.829,17.831
201910301738,17.831,17.831,17.824,17.827
201910301739,17.827,17.83,17.827,17.83
201910301740,17.83,17.835,17.83,17.835
201910301741,17.835,17.836,17.834,17.835
201910301742,17.835,17.84,17.835,17.84
201910301743,17.84,17.84,17.834,17.839
201910301744,17.837,17.84,17.837,17.839
201910301745,17.84,17.84,17.835,17.835
201910301746,17.835,17.84,17.835,17.837
201910301747,17.837,17.84,17.837,17.84
201910301748,17.84,17.841,17.837,17.837
201910301749,17.837,17.839,17.834,17.838
201910301750,17.838,17.84,17.836,17.837
201910301751,17.837,17.837,17.835,17.835
201910301752,17.835,17.835,17.83,17.83
201910301753,17.83,17.835,17.83,17.83
201910301754,17.83,17.83,17.82,17.823
201910301755,17.823,17.825,17.819,17.825
201910301756,17.825,17.83,17.825,17.829
201910301757,17.829,17.831,17.829,17.831
201910301758,17.831,17.834,17.829,17.829
201910301759,17.829,17.831,17.827,17.828
201910301800,17.828,17.83,17.818,17.82
201910301801,17.82,17.82,17.817,17.819
201910301802,17.819,17.831,17.819,17.828
201910301803,17.828,17.832,17.828,17.83
201910301804,17.83,17.832,17.827,17.827
201910301805,17.828,17.83,17.827,17.829
201910301806,17.829,17.83,17.829,17.83
201910301807,17.83,17.833,17.829,17.831
201910301808,17.832,17.833,17.829,17.833
201910301809,17.833,17.835,17.833,17.833
201910301810,17.833,17.843,17.833,17.842
201910301811,17.843,17.848,17.842,17.844
201910301812,17.844,17.848,17.844,17.847
201910301813,17.845,17.849,17.843,17.843
201910301814,17.844,17.845,17.842,17.843
201910301815,17.843,17.845,17.838,17.838
201910301816,17.837,17.839,17.837,17.838
201910301817,17.838,17.839,17.837,17.837
201910301818,17.837,17.84,17.837,17.839
201910301819,17.839,17.844,17.838,17.843
201910301820,17.843,17.844,17.842,17.844
201910301821,17.844,17.846,17.839,17.841
201910301822,17.839,17.848,17.839,17.845
201910301823,17.845,17.846,17.845,17.845
201910301824,17.845,17.848,17.845,17.848
201910301825,17.848,17.848,17.842,17.843
201910301826,17.843,17.845,17.838,17.838
201910301827,17.838,17.839,17.835,17.835
201910301828,17.835,17.835,17.832,17.832
201910301829,17.831,17.832,17.828,17.829
201910301830,17.829,17.829,17.827,17.828
201910301831,17.828,17.829,17.827,17.828
201910301832,17.828,17.828,17.827,17.827
201910301833,17.827,17.83,17.827,17.828
201910301834,17.828,17.83,17.828,17.829
201910301835,17.829,17.834,17.829,17.834
201910301836,17.834,17.834,17.83,17.831
201910301837,17.831,17.832,17.828,17.832
201910301838,17.832,17.832,17.831,17.831
201910301839,17.83,17.83,17.826,17.827
201910301840,17.827,17.829,17.826,17.829
201910301841,17.829,17.829,17.824,17.825
201910301842,17.825,17.825,17.821,17.825
201910301843,17.825,17.825,17.822,17.822
201910301844,17.822,17.824,17.821,17.824
201910301845,17.824,17.828,17.823,17.824
201910301846,17.824,17.824,17.816,17.819
201910301847,17.819,17.82,17.816,17.82
201910301848,17.82,17.82,17.818,17.82
201910301849,17.82,17.821,17.816,17.821
201910301850,17.821,17.823,17.82,17.823
201910301851,17.823,17.823,17.821,17.821
201910301852,17.821,17.822,17.819,17.82
201910301853,17.819,17.82,17.815,17.816
201910301854,17.816,17.817,17.816,17.817
201910301855,17.817,17.817,17.816,17.817
201910301856,17.817,17.817,17.816,17.816
201910301857,17.816,17.816,17.814,17.816
201910301858,17.815,17.818,17.814,17.818
201910301859,17.818,17.818,17.81,17.811
201910301900,17.811,17.812,17.81,17.812
201910301901,17.812,17.813,17.811,17.811
201910301902,17.811,17.811,17.797,17.802
201910301903,17.802,17.803,17.799,17.802
201910301904,17.802,17.803,17.801,17.802
201910301905,17.802,17.803,17.799,17.799
201910301906,17.799,17.802,17.798,17.802
201910301907,17.802,17.802,17.801,17.801
201910301908,17.802,17.803,17.801,17.803
201910301909,17.803,17.805,17.802,17.803
201910301910,17.803,17.803,17.802,17.802
201910301911,17.802,17.802,17.797,17.797
201910301912,17.797,17.797,17.773,17.773
201910301913,17.775,17.778,17.756,17.775
201910301914,17.774,17.793,17.769,17.789
201910301915,17.789,17.794,17.789,17.792
201910301916,17.79,17.796,17.788,17.792
201910301917,17.792,17.795,17.791,17.793
201910301918,17.793,17.803,17.792,17.803
201910301919,17.803,17.806,17.802,17.805
201910301920,17.805,17.805,17.804,17.804
201910301921,17.804,17.806,17.802,17.805
201910301922,17.804,17.807,17.803,17.805
201910301923,17.805,17.81,17.805,17.81
201910301924,17.81,17.81,17.808,17.81
201910301925,17.81,17.811,17.809,17.809
201910301926,17.809,17.816,17.809,17.815
201910301927,17.816,17.816,17.81,17.811
201910301928,17.811,17.816,17.811,17.815
201910301929,17.815,17.815,17.813,17.814
201910301930,17.814,17.815,17.813,17.813
201910301931,17.813,17.816,17.808,17.808
201910301932,17.808,17.808,17.803,17.807
201910301933,17.807,17.816,17.807,17.815
201910301934,17.815,17.815,17.814,17.815
201910301935,17.815,17.815,17.815,17.815
201910301936,17.815,17.82,17.815,17.82
201910301937,17.82,17.826,17.82,17.823
201910301938,17.823,17.841,17.823,17.838
201910301939,17.838,17.843,17.835,17.84
201910301940,17.84,17.848,17.839,17.843
201910301941,17.843,17.845,17.841,17.845
201910301942,17.845,17.848,17.843,17.847
201910301943,17.847,17.847,17.843,17.843
201910301944,17.844,17.846,17.843,17.845
201910301945,17.845,17.861,17.845,17.86
201910301946,17.859,17.873,17.859,17.873
201910301947,17.874,17.907,17.873,17.881
201910301948,17.881,17.886,17.878,17.881
201910301949,17.883,17.885,17.878,17.881
201910301950,17.88,17.88,17.868,17.87
201910301951,17.868,17.871,17.862,17.865
201910301952,17.865,17.87,17.863,17.869
201910301953,17.869,17.872,17.866,17.87
201910301954,17.868,17.869,17.861,17.866
201910301955,17.866,17.868,17.862,17.865
201910301956,17.866,17.87,17.866,17.869
201910301957,17.869,17.871,17.867,17.871
201910301958,17.871,17.875,17.869,17.869
201910301959,17.869,17.874,17.867,17.873
201910302000,17.873,17.875,17.866,17.866
201910302001,17.867,17.869,17.864,17.867
201910302002,17.867,17.872,17.867,17.868
201910302003,17.867,17.869,17.867,17.869
201910302004,17.869,17.871,17.864,17.866
201910302005,17.866,17.871,17.865,17.87
201910302006,17.87,17.871,17.863,17.863
201910302007,17.863,17.869,17.863,17.868
201910302008,17.868,17.87,17.868,17.868
201910302009,17.868,17.868,17.861,17.862
201910302010,17.862,17.872,17.862,17.87
201910302011,17.87,17.87,17.863,17.863
201910302012,17.863,17.872,17.863,17.869
201910302013,17.869,17.869,17.865,17.865
201910302014,17.865,17.869,17.865,17.868
201910302015,17.869,17.87,17.868,17.869
201910302016,17.869,17.87,17.867,17.868
201910302017,17.868,17.868,17.865,17.865
201910302018,17.864,17.872,17.864,17.872
201910302019,17.872,17.872,17.868,17.869
201910302020,17.869,17.87,17.868,17.87
201910302021,17.87,17.893,17.87,17.892
201910302022,17.892,17.898,17.892,17.893
201910302023,17.893,17.893,17.892,17.893
201910302024,17.891,17.892,17.888,17.888
201910302025,17.888,17.893,17.887,17.893
201910302026,17.893,17.899,17.892,17.898
201910302027,17.898,17.902,17.897,17.897
201910302028,17.897,17.897,17.89,17.896
201910302029,17.895,17.903,17.895,17.899
201910302030,17.898,17.902,17.897,17.902
201910302031,17.902,17.903,17.901,17.902
201910302032,17.902,17.902,17.891,17.893
201910302033,17.893,17.905,17.893,17.899
201910302034,17.899,17.908,17.899,17.908
201910302035,17.908,17.908,17.901,17.903
201910302036,17.901,17.905,17.895,17.898
201910302037,17.9,17.902,17.899,17.901
201910302038,17.901,17.906,17.9,17.906
201910302039,17.906,17.906,17.901,17.901
201910302040,17.901,17.901,17.892,17.896
201910302041,17.896,17.9,17.896,17.899
201910302042,17.899,17.9,17.89,17.89
201910302043,17.89,17.89,17.875,17.882
201910302044,17.88,17.891,17.88,17.889
201910302045,17.889,17.89,17.886,17.89
201910302046,17.891,17.894,17.89,17.891
201910302047,17.891,17.896,17.891,17.895
201910302048,17.895,17.895,17.886,17.889
201910302049,17.889,17.889,17.883,17.884
201910302050,17.884,17.889,17.884,17.889
201910302051,17.889,17.89,17.888,17.889
201910302052,17.889,17.891,17.885,17.889
201910302053,17.889,17.899,17.889,17.898
201910302054,17.898,17.9,17.894,17.895
201910302055,17.895,17.899,17.893,17.896
201910302056,17.895,17.897,17.89,17.891
201910302057,17.891,17.898,17.891,17.898
201910302058,17.898,17.901,17.898,17.9
201910302059,17.9,17.928,17.9,17.928
201910302100,17.93,17.944,17.929,17.942
201910302101,17.941,17.945,17.935,17.94
201910302102,17.94,17.944,17.935,17.943
201910302103,17.943,17.951,17.942,17.95
201910302104,17.95,17.958,17.947,17.949
201910302105,17.949,17.952,17.939,17.939
201910302106,17.939,17.939,17.926,17.934
201910302107,17.934,17.939,17.933,17.935
201910302108,17.935,17.935,17.924,17.933
201910302109,17.933,17.936,17.928,17.934
201910302110,17.934,17.941,17.934,17.939
201910302111,17.939,17.942,17.937,17.938
201910302112,17.938,17.939,17.93,17.931
201910302113,17.932,17.934,17.927,17.927
201910302114,17.927,17.935,17.927,17.932
201910302115,17.932,17.932,17.894,17.905
201910302116,17.905,17.919,17.899,17.902
201910302117,17.902,17.902,17.883,17.883
201910302118,17.883,17.886,17.881,17.881
201910302119,17.883,17.897,17.882,17.897
201910302120,17.897,17.9,17.886,17.887
201910302121,17.887,17.897,17.884,17.884
201910302122,17.884,17.9,17.884,17.899
201910302123,17.899,17.904,17.893,17.901
201910302124,17.901,17.901,17.896,17.899
201910302125,17.897,17.899,17.887,17.891
201910302126,17.891,17.907,17.891,17.902
201910302127,17.902,17.912,17.902,17.908
201910302128,17.908,17.912,17.907,17.907
201910302129,17.907,17.91,17.901,17.906
201910302130,17.906,17.906,17.838,17.838
201910302131,17.838,17.845,17.81,17.827
201910302132,17.827,17.828,17.812,17.819
201910302133,17.819,17.838,17.807,17.838
201910302134,17.833,17.836,17.824,17.833
201910302135,17.833,17.834,17.823,17.833
201910302136,17.833,17.836,17.82,17.824
201910302137,17.824,17.838,17.824,17.834
201910302138,17.834,17.838,17.833,17.833
201910302139,17.833,17.838,17.829,17.838
201910302140,17.838,17.838,17.828,17.829
201910302141,17.829,17.831,17.824,17.829
201910302142,17.829,17.832,17.813,17.813
201910302143,17.813,17.813,17.794,17.803
201910302144,17.803,17.815,17.803,17.809
201910302145,17.809,17.811,17.804,17.805
201910302146,17.805,17.814,17.796,17.81
201910302147,17.811,17.814,17.794,17.794
201910302148,17.794,17.794,17.774,17.774
201910302149,17.774,17.775,17.77,17.775
201910302150,17.775,17.78,17.769,17.78
201910302151,17.78,17.78,17.774,17.778
201910302152,17.779,17.796,17.779,17.796
201910302153,17.796,17.821,17.794,17.817
201910302154,17.819,17.826,17.816,17.822
201910302155,17.822,17.828,17.822,17.826
201910302156,17.826,17.833,17.826,17.832
201910302157,17.832,17.842,17.832,17.837
201910302158,17.837,17.842,17.831,17.832
201910302159,17.832,17.84,17.831,17.836
201910302200,17.836,17.842,17.822,17.842
201910302201,17.844,17.851,17.83,17.835
201910302202,17.835,17.87,17.835,17.87
201910302203,17.87,17.871,17.851,17.851
201910302204,17.851,17.851,17.841,17.845
201910302205,17.845,17.855,17.841,17.849
201910302206,17.849,17.85,17.84,17.847
201910302207,17.847,17.85,17.84,17.84
201910302208,17.84,17.85,17.836,17.85
201910302209,17.85,17.855,17.839,17.84
201910302210,17.84,17.84,17.828,17.834
201910302211,17.834,17.839,17.831,17.839
201910302212,17.839,17.839,17.834,17.835
201910302213,17.835,17.835,17.815,17.815
201910302214,17.815,17.824,17.812,17.815
201910302215,17.815,17.821,17.805,17.808
201910302216,17.808,17.817,17.805,17.817
201910302217,17.818,17.826,17.813,17.825
201910302218,17.825,17.826,17.813,17.814
201910302219,17.814,17.825,17.814,17.819
201910302220,17.818,17.819,17.808,17.809
201910302221,17.809,17.815,17.806,17.81
201910302222,17.81,17.81,17.804,17.805
201910302223,17.805,17.821,17.804,17.819
201910302224,17.819,17.823,17.817,17.818
201910302225,17.818,17.818,17.813,17.814
201910302226,17.814,17.822,17.814,17.818
201910302227,17.817,17.823,17.816,17.818
201910302228,17.819,17.828,17.819,17.827
201910302229,17.827,17.83,17.823,17.826
201910302230,17.826,17.833,17.823,17.824
201910302231,17.824,17.833,17.819,17.827
201910302232,17.826,17.828,17.818,17.819
201910302233,17.818,17.828,17.818,17.824
201910302234,17.824,17.825,17.819,17.821
201910302235,17.821,17.829,17.814,17.814
201910302236,17.814,17.823,17.806,17.806
201910302237,17.805,17.805,17.789,17.795
201910302238,17.795,17.811,17.794,17.81
201910302239,17.809,17.82,17.809,17.816
201910302240,17.816,17.84,17.815,17.835
201910302241,17.834,17.84,17.833,17.835
201910302242,17.834,17.84,17.829,17.835
201910302243,17.835,17.839,17.833,17.835
201910302244,17.836,17.838,17.831,17.835
201910302245,17.835,17.841,17.834,17.836
201910302246,17.836,17.844,17.835,17.836
201910302247,17.836,17.839,17.831,17.836
201910302248,17.836,17.843,17.835,17.838
201910302249,17.838,17.84,17.835,17.838
201910302250,17.838,17.841,17.83,17.84
201910302251,17.841,17.846,17.841,17.845
201910302252,17.845,17.848,17.841,17.845
201910302253,17.845,17.85,17.842,17.85
201910302254,17.849,17.854,17.845,17.846
201910302255,17.846,17.846,17.84,17.84
201910302256,17.841,17.841,17.83,17.832
201910302257,17.832,17.836,17.822,17.822
201910302258,17.822,17.824,17.82,17.82
201910302259,17.82,17.823,17.818,17.821
201910302300,17.821,17.825,17.811,17.825
201910302301,17.825,17.832,17.824,17.825
201910302302,17.825,17.834,17.822,17.831
201910302303,17.832,17.87,17.827,17.869
201910302304,17.867,17.88,17.832,17.841
201910302305,17.841,17.848,17.821,17.827
201910302306,17.828,17.833,17.822,17.83
201910302307,17.83,17.83,17.816,17.822
201910302308,17.822,17.83,17.821,17.825
201910302309,17.826,17.833,17.826,17.826
201910302310,17.826,17.838,17.826,17.837
201910302311,17.837,17.843,17.835,17.837
201910302312,17.84,17.841,17.836,17.84
201910302313,17.838,17.84,17.834,17.838
201910302314,17.839,17.84,17.83,17.832
201910302315,17.831,17.846,17.83,17.842
201910302316,17.842,17.842,17.832,17.841
201910302317,17.841,17.842,17.835,17.839
201910302318,17.84,17.84,17.825,17.828
201910302319,17.829,17.829,17.814,17.815
201910302320,17.815,17.822,17.814,17.821
201910302321,17.821,17.844,17.821,17.842
201910302322,17.844,17.846,17.817,17.819
201910302323,17.819,17.821,17.817,17.821
201910302324,17.821,17.825,17.817,17.821
201910302325,17.821,17.826,17.818,17.826
201910302326,17.826,17.826,17.812,17.813
201910302327,17.813,17.816,17.812,17.816
201910302328,17.816,17.816,17.81,17.815
201910302329,17.815,17.821,17.81,17.818
201910302330,17.818,17.832,17.817,17.827
201910302331,17.827,17.828,17.819,17.819
201910302332,17.819,17.823,17.814,17.817
201910302333,17.816,17.817,17.808,17.808
201910302334,17.808,17.809,17.805,17.807
201910302335,17.807,17.811,17.802,17.81
201910302336,17.81,17.814,17.807,17.811
201910302337,17.811,17.813,17.807,17.807
201910302338,17.806,17.807,17.803,17.803
201910302339,17.803,17.808,17.802,17.805
201910302340,17.805,17.807,17.802,17.807
201910302341,17.807,17.813,17.805,17.812
201910302342,17.812,17.82,17.811,17.82
201910302343,17.82,17.82,17.813,17.813
201910302344,17.811,17.818,17.81,17.816
201910302345,17.816,17.816,17.807,17.807
201910302346,17.807,17.809,17.806,17.807
201910302347,17.807,17.807,17.796,17.801
201910302348,17.801,17.803,17.795,17.795
201910302349,17.793,17.793,17.789,17.79
201910302350,17.788,17.788,17.764,17.766
201910302351,17.764,17.792,17.757,17.786
201910302352,17.786,17.788,17.777,17.781
201910302353,17.781,17.792,17.78,17.791
201910302354,17.791,17.793,17.782,17.787
201910302355,17.787,17.788,17.782,17.787
201910302356,17.787,17.798,17.787,17.791
201910302357,17.791,17.796,17.788,17.796
201910302358,17.796,17.8,17.796,17.8
201910302359,17.797,17.801,17.796,17.801
201910310000,17.801,17.812,17.801,17.807
201910310001,17.809,17.822,17.806,17.819
201910310002,17.816,17.83,17.816,17.82
201910310003,17.82,17.826,17.82,17.826
201910310004,17.826,17.829,17.821,17.826
201910310005,17.826,17.835,17.825,17.831
201910310006,17.831,17.832,17.829,17.832
201910310007,17.834,17.838,17.831,17.832
201910310008,17.832,17.835,17.827,17.83
201910310009,17.83,17.833,17.83,17.831
201910310010,17.832,17.835,17.831,17.831
201910310011,17.833,17.836,17.829,17.836
201910310012,17.836,17.841,17.836,17.841
201910310013,17.841,17.842,17.836,17.837
201910310014,17.837,17.84,17.832,17.837
201910310015,17.837,17.842,17.837,17.841
201910310016,17.841,17.842,17.837,17.84
201910310017,17.84,17.842,17.836,17.839
201910310018,17.838,17.842,17.838,17.842
201910310019,17.842,17.843,17.84,17.842
201910310020,17.841,17.85,17.841,17.848
201910310021,17.848,17.85,17.841,17.842
201910310022,17.842,17.845,17.842,17.842
201910310023,17.842,17.847,17.842,17.842
201910310024,17.842,17.845,17.841,17.845
201910310025,17.845,17.847,17.842,17.843
201910310026,17.843,17.85,17.843,17.849
201910310027,17.849,17.854,17.849,17.851
201910310028,17.851,17.853,17.847,17.847
201910310029,17.847,17.853,17.846,17.846
201910310030,17.846,17.852,17.845,17.85
201910310031,17.85,17.854,17.848,17.848
201910310032,17.848,17.854,17.848,17.854
201910310033,17.854,17.855,17.85,17.85
201910310034,17.85,17.852,17.85,17.85
201910310035,17.85,17.85,17.838,17.839
201910310036,17.839,17.842,17.833,17.84
201910310037,17.84,17.843,17.84,17.843
201910310038,17.843,17.85,17.843,17.849
201910310039,17.849,17.855,17.848,17.854
201910310040,17.854,17.864,17.854,17.858
201910310041,17.858,17.859,17.854,17.857
201910310042,17.857,17.867,17.856,17.865
201910310043,17.865,17.869,17.862,17.869
201910310044,17.869,17.87,17.863,17.865
201910310045,17.865,17.872,17.864,17.864
201910310046,17.864,17.865,17.86,17.861
201910310047,17.861,17.867,17.861,17.867
201910310048,17.867,17.867,17.86,17.86
201910310049,17.86,17.87,17.86,17.867
201910310050,17.866,17.871,17.864,17.864
201910310051,17.864,17.864,17.86,17.861
201910310052,17.86,17.862,17.859,17.86
201910310053,17.858,17.861,17.854,17.857
201910310054,17.857,17.86,17.853,17.854
201910310055,17.853,17.859,17.853,17.859
201910310056,17.859,17.864,17.858,17.864
201910310057,17.863,17.867,17.859,17.863
201910310058,17.863,17.865,17.858,17.858
201910310059,17.858,17.866,17.858,17.864
201910310100,17.864,17.865,17.861,17.861
201910310101,17.861,17.866,17.861,17.865
201910310102,17.865,17.87,17.864,17.87
201910310103,17.869,17.872,17.868,17.868
201910310104,17.868,17.872,17.864,17.864
201910310105,17.864,17.866,17.861,17.863
201910310106,17.863,17.866,17.863,17.864
201910310107,17.864,17.87,17.859,17.86
201910310108,17.86,17.861,17.853,17.854
201910310109,17.854,17.858,17.853,17.853
201910310110,17.853,17.855,17.847,17.854
201910310111,17.854,17.86,17.853,17.86
201910310112,17.86,17.86,17.857,17.859
201910310113,17.858,17.866,17.855,17.865
201910310114,17.865,17.865,17.861,17.864
201910310115,17.864,17.866,17.862,17.864
201910310116,17.865,17.865,17.862,17.863
201910310117,17.863,17.863,17.86,17.86
201910310118,17.86,17.861,17.857,17.858
201910310119,17.858,17.863,17.858,17.862
201910310120,17.862,17.864,17.858,17.86
201910310121,17.86,17.864,17.86,17.864
201910310122,17.864,17.864,17.861,17.861
201910310123,17.861,17.861,17.86,17.861
201910310124,17.861,17.861,17.856,17.856
201910310125,17.856,17.864,17.855,17.864
201910310126,17.864,17.865,17.863,17.864
201910310127,17.864,17.864,17.863,17.863
201910310128,17.863,17.865,17.863,17.864
201910310129,17.864,17.866,17.863,17.865
201910310130,17.864,17.864,17.861,17.861
201910310131,17.861,17.865,17.861,17.864
201910310132,17.864,17.867,17.861,17.861
201910310133,17.863,17.866,17.862,17.863
201910310134,17.863,17.864,17.86,17.861
201910310135,17.861,17.866,17.861,17.864
201910310136,17.864,17.866,17.86,17.86
201910310137,17.86,17.861,17.854,17.856
201910310138,17.856,17.856,17.85,17.85
201910310139,17.85,17.85,17.843,17.845
201910310140,17.845,17.85,17.843,17.85
201910310141,17.85,17.852,17.844,17.846
201910310142,17.846,17.85,17.845,17.848
201910310143,17.85,17.852,17.847,17.85
201910310144,17.85,17.851,17.849,17.849
201910310145,17.849,17.851,17.849,17.851
201910310146,17.85,17.853,17.849,17.849
201910310147,17.849,17.851,17.849,17.851
201910310148,17.851,17.851,17.85,17.851
201910310149,17.851,17.855,17.849,17.849
201910310150,17.849,17.851,17.849,17.851
201910310151,17.851,17.851,17.845,17.845
201910310152,17.845,17.845,17.836,17.836
201910310153,17.836,17.836,17.824,17.824
201910310154,17.824,17.856,17.819,17.852
201910310155,17.852,17.859,17.851,17.858
201910310156,17.857,17.86,17.857,17.859
201910310157,17.859,17.861,17.856,17.857
201910310158,17.857,17.859,17.855,17.855
201910310159,17.855,17.856,17.854,17.856
201910310200,17.856,17.865,17.856,17.862
201910310201,17.862,17.863,17.856,17.857
201910310202,17.857,17.858,17.857,17.857
201910310203,17.857,17.859,17.853,17.853
201910310204,17.853,17.857,17.853,17.857
201910310205,17.857,17.865,17.856,17.865
201910310206,17.865,17.866,17.861,17.862
201910310207,17.862,17.862,17.855,17.858
201910310208,17.858,17.863,17.858,17.863
201910310209,17.863,17.866,17.862,17.865
201910310210,17.863,17.865,17.86,17.862
201910310211,17.862,17.863,17.86,17.861
201910310212,17.86,17.865,17.86,17.861
201910310213,17.861,17.863,17.86,17.861
201910310214,17.861,17.865,17.861,17.863
201910310215,17.863,17.863,17.86,17.861
201910310216,17.861,17.862,17.86,17.86
201910310217,17.861,17.863,17.857,17.862
201910310218,17.861,17.863,17.86,17.863
201910310219,17.863,17.865,17.86,17.86
201910310220,17.86,17.86,17.86,17.86
201910310221,17.86,17.861,17.86,17.86
201910310222,17.861,17.861,17.858,17.86
201910310223,17.861,17.865,17.86,17.864
201910310224,17.864,17.865,17.854,17.855
201910310225,17.855,17.861,17.855,17.861
201910310226,17.86,17.865,17.86,17.865
201910310227,17.865,17.865,17.865,17.865
201910310228,17.865,17.866,17.865,17.865
201910310229,17.865,17.866,17.855,17.856
201910310230,17.856,17.862,17.855,17.86
201910310231,17.86,17.861,17.859,17.861
201910310232,17.861,17.865,17.861,17.865
201910310233,17.865,17.878,17.865,17.878
201910310234,17.878,17.882,17.854,17.859
201910310235,17.859,17.863,17.858,17.86
201910310236,17.859,17.86,17.858,17.858
201910310237,17.86,17.863,17.858,17.858
201910310238,17.858,17.858,17.84,17.845
201910310239,17.845,17.85,17.843,17.844
201910310240,17.843,17.844,17.84,17.842
201910310241,17.842,17.842,17.832,17.834
201910310242,17.834,17.837,17.831,17.837
201910310243,17.837,17.837,17.835,17.835
201910310244,17.835,17.838,17.834,17.834
201910310245,17.833,17.833,17.828,17.829
201910310246,17.829,17.832,17.828,17.832
201910310247,17.832,17.832,17.818,17.823
201910310248,17.823,17.827,17.821,17.823
201910310249,17.823,17.827,17.822,17.824
201910310250,17.824,17.828,17.823,17.823
201910310251,17.823,17.825,17.823,17.825
201910310252,17.825,17.828,17.824,17.828
201910310253,17.829,17.832,17.828,17.832
201910310254,17.832,17.833,17.83,17.832
201910310255,17.831,17.832,17.829,17.83
201910310256,17.831,17.832,17.828,17.829
201910310257,17.828,17.83,17.828,17.83
201910310258,17.83,17.834,17.821,17.821
201910310259,17.821,17.825,17.807,17.809
201910310300,17.809,17.812,17.719,17.732
201910310301,17.733,17.776,17.73,17.776
201910310302,17.776,17.819,17.776,17.806
201910310303,17.806,17.806,17.769,17.785
201910310304,17.785,17.801,17.775,17.794
201910310305,17.795,17.795,17.78,17.781
201910310306,17.778,17.778,17.768,17.776
201910310307,17.78,17.796,17.78,17.795
201910310308,17.797,17.804,17.795,17.8
201910310309,17.8,17.805,17.795,17.805
201910310310,17.805,17.816,17.787,17.787
201910310311,17.789,17.794,17.771,17.771
201910310312,17.77,17.779,17.767,17.771
201910310313,17.771,17.772,17.756,17.76
201910310314,17.76,17.771,17.757,17.771
201910310315,17.771,17.771,17.752,17.756
201910310316,17.755,17.763,17.749,17.761
201910310317,17.761,17.762,17.751,17.752
201910310318,17.752,17.768,17.751,17.766
201910310319,17.766,17.771,17.766,17.771
201910310320,17.771,17.773,17.758,17.758
201910310321,17.758,17.763,17.756,17.762
201910310322,17.762,17.762,17.743,17.743
201910310323,17.743,17.744,17.734,17.737
201910310324,17.737,17.74,17.716,17.717
201910310325,17.714,17.733,17.714,17.73
201910310326,17.728,17.739,17.728,17.732
201910310327,17.732,17.737,17.726,17.726
201910310328,17.726,17.728,17.718,17.718
201910310329,17.718,17.718,17.706,17.707
201910310330,17.707,17.72,17.688,17.688
201910310331,17.69,17.69,17.66,17.671
201910310332,17.669,17.696,17.667,17.692
201910310333,17.692,17.701,17.687,17.696
201910310334,17.694,17.697,17.637,17.645
201910310335,17.646,17.648,17.627,17.631
201910310336,17.633,17.633,17.588,17.599
201910310337,17.596,17.623,17.589,17.599
201910310338,17.597,17.609,17.595,17.598
201910310339,17.597,17.628,17.587,17.628
201910310340,17.632,17.632,17.589,17.593
201910310341,17.593,17.604,17.586,17.599
201910310342,17.599,17.636,17.59,17.636
201910310343,17.636,17.666,17.63,17.654
201910310344,17.654,17.662,17.652,17.654
201910310345,17.654,17.68,17.653,17.678
201910310346,17.678,17.692,17.67,17.685
201910310347,17.687,17.687,17.672,17.678
201910310348,17.679,17.685,17.673,17.685
201910310349,17.686,17.703,17.686,17.701
201910310350,17.703,17.769,17.703,17.746
201910310351,17.746,17.752,17.732,17.738
201910310352,17.738,17.74,17.723,17.723
201910310353,17.722,17.724,17.688,17.709
201910310354,17.704,17.751,17.703,17.74
201910310355,17.739,17.767,17.738,17.744
201910310356,17.746,17.788,17.746,17.772
201910310357,17.772,17.773,17.756,17.758
201910310358,17.756,17.769,17.752,17.762
201910310359,17.766,17.777,17.763,17.773
201910310400,17.774,17.778,17.75,17.758
201910310401,17.757,17.781,17.753,17.778
201910310402,17.777,17.786,17.771,17.773
201910310403,17.773,17.783,17.769,17.769
201910310404,17.769,17.773,17.748,17.748
201910310405,17.748,17.777,17.747,17.777
201910310406,17.777,17.798,17.777,17.798
201910310407,17.798,17.81,17.792,17.797
201910310408,17.798,17.818,17.797,17.815
201910310409,17.816,17.82,17.811,17.813
201910310410,17.814,17.826,17.813,17.821
201910310411,17.822,17.825,17.802,17.807
201910310412,17.807,17.825,17.806,17.821
201910310413,17.821,17.824,17.786,17.79
201910310414,17.789,17.8,17.787,17.79
201910310415,17.791,17.798,17.785,17.79
201910310416,17.79,17.805,17.79,17.805
201910310417,17.805,17.815,17.805,17.813
201910310418,17.813,17.819,17.805,17.816
201910310419,17.816,17.827,17.816,17.822
201910310420,17.824,17.831,17.822,17.826
201910310421,17.826,17.827,17.821,17.821
201910310422,17.821,17.831,17.821,17.827
201910310423,17.827,17.861,17.827,17.861
201910310424,17.861,17.869,17.845,17.86
201910310425,17.861,17.878,17.86,17.863
201910310426,17.863,17.87,17.851,17.853
201910310427,17.853,17.856,17.846,17.848
201910310428,17.848,17.851,17.839,17.841
201910310429,17.841,17.846,17.834,17.846
201910310430,17.846,17.847,17.835,17.846
201910310431,17.846,17.875,17.846,17.874
201910310432,17.876,17.878,17.863,17.864
201910310433,17.865,17.876,17.863,17.874
201910310434,17.874,17.88,17.86,17.866
201910310435,17.866,17.867,17.857,17.859
201910310436,17.859,17.864,17.85,17.851
201910310437,17.852,17.86,17.85,17.859
201910310438,17.86,17.872,17.859,17.867
201910310439,17.866,17.867,17.86,17.865
201910310440,17.864,17.865,17.856,17.857
201910310441,17.857,17.86,17.845,17.848
201910310442,17.848,17.853,17.844,17.849
201910310443,17.849,17.851,17.846,17.848
201910310444,17.848,17.853,17.845,17.853
201910310445,17.853,17.855,17.849,17.849
201910310446,17.849,17.854,17.849,17.853
201910310447,17.854,17.859,17.852,17.858
201910310448,17.859,17.864,17.856,17.859
201910310449,17.859,17.864,17.859,17.863
201910310450,17.863,17.864,17.859,17.859
201910310451,17.859,17.859,17.857,17.859
201910310452,17.859,17.864,17.855,17.855
201910310453,17.855,17.865,17.853,17.864
201910310454,17.864,17.865,17.859,17.864
201910310455,17.864,17.873,17.864,17.871
201910310456,17.871,17.871,17.864,17.871
201910310457,17.871,17.875,17.87,17.871
201910310458,17.871,17.871,17.864,17.867
201910310459,17.867,17.885,17.865,17.882
201910310500,17.884,17.886,17.88,17.885
201910310501,17.885,17.885,17.875,17.876
201910310502,17.875,17.875,17.864,17.866
201910310503,17.866,17.866,17.864,17.865
201910310504,17.865,17.874,17.864,17.865
201910310505,17.865,17.87,17.865,17.866
201910310506,17.866,17.876,17.865,17.876
201910310507,17.879,17.879,17.873,17.874
201910310508,17.875,17.876,17.87,17.87
201910310509,17.87,17.875,17.87,17.874
201910310510,17.874,17.874,17.865,17.87
201910310511,17.87,17.87,17.867,17.869
201910310512,17.87,17.87,17.866,17.87
201910310513,17.87,17.87,17.867,17.869
201910310514,17.869,17.874,17.868,17.874
201910310515,17.874,17.881,17.874,17.879
201910310516,17.879,17.881,17.875,17.876
201910310517,17.876,17.877,17.875,17.875
201910310518,17.876,17.876,17.874,17.875
201910310519,17.874,17.874,17.865,17.865
201910310520,17.865,17.865,17.865,17.865
201910310521,17.865,17.865,17.864,17.865
201910310522,17.865,17.865,17.86,17.864
201910310523,17.862,17.865,17.861,17.864
201910310524,17.863,17.863,17.85,17.854
201910310525,17.854,17.855,17.844,17.849
201910310526,17.848,17.849,17.845,17.846
201910310527,17.846,17.854,17.846,17.854
201910310528,17.854,17.854,17.85,17.85
201910310529,17.85,17.851,17.847,17.851
201910310530,17.853,17.86,17.851,17.851
201910310531,17.851,17.854,17.846,17.851
201910310532,17.85,17.855,17.85,17.855
201910310533,17.855,17.855,17.846,17.846
201910310534,17.846,17.849,17.845,17.849
201910310535,17.849,17.85,17.848,17.849
201910310536,17.849,17.849,17.845,17.845
201910310537,17.845,17.855,17.845,17.855
201910310538,17.855,17.855,17.85,17.851
201910310539,17.851,17.859,17.851,17.855
201910310540,17.855,17.857,17.855,17.856
201910310541,17.856,17.859,17.856,17.856
201910310542,17.856,17.856,17.855,17.856
201910310543,17.856,17.856,17.855,17.856
201910310544,17.856,17.856,17.856,17.856
201910310545,17.856,17.857,17.856,17.856
201910310546,17.856,17.859,17.856,17.859
201910310547,17.86,17.861,17.859,17.86
201910310548,17.859,17.859,17.855,17.856
201910310549,17.856,17.857,17.855,17.856
201910310550,17.856,17.86,17.855,17.856
201910310551,17.856,17.856,17.854,17.854
201910310552,17.854,17.857,17.853,17.857
201910310553,17.857,17.86,17.857,17.86
201910310554,17.86,17.86,17.859,17.859
201910310555,17.858,17.861,17.858,17.859
201910310556,17.859,17.861,17.859,17.861
201910310557,17.861,17.861,17.858,17.86
201910310558,17.859,17.859,17.853,17.854
201910310559,17.854,17.856,17.844,17.844
