日時,始値(BID),高値(BID),安値(BID),終値(BID)
201910090700,17.717,17.736,17.717,17.736
201910090701,17.736,17.74,17.736,17.736
201910090702,17.738,17.749,17.735,17.746
201910090703,17.746,17.752,17.746,17.752
201910090704,17.752,17.753,17.752,17.753
201910090705,17.753,17.753,17.751,17.751
201910090706,17.751,17.752,17.747,17.747
201910090707,17.747,17.748,17.743,17.747
201910090708,17.747,17.747,17.745,17.747
201910090709,17.747,17.747,17.746,17.746
201910090710,17.746,17.747,17.744,17.746
201910090711,17.746,17.746,17.744,17.744
201910090712,17.745,17.745,17.744,17.744
201910090713,17.744,17.744,17.744,17.744
201910090714,17.744,17.745,17.744,17.745
201910090715,17.745,17.747,17.745,17.746
201910090716,17.746,17.747,17.746,17.746
201910090717,17.746,17.748,17.746,17.748
201910090718,17.748,17.748,17.746,17.747
201910090719,17.746,17.748,17.746,17.748
201910090720,17.747,17.747,17.747,17.747
201910090721,17.747,17.751,17.747,17.75
201910090722,17.75,17.752,17.75,17.751
201910090723,17.751,17.751,17.747,17.75
201910090724,17.749,17.752,17.748,17.752
201910090725,17.752,17.752,17.747,17.747
201910090726,17.747,17.747,17.747,17.747
201910090727,17.747,17.747,17.742,17.742
201910090728,17.742,17.746,17.742,17.743
201910090729,17.743,17.744,17.743,17.743
201910090730,17.741,17.742,17.738,17.74
201910090731,17.74,17.742,17.74,17.742
201910090732,17.742,17.742,17.737,17.738
201910090733,17.738,17.742,17.737,17.742
201910090734,17.742,17.742,17.738,17.738
201910090735,17.738,17.738,17.737,17.737
201910090736,17.737,17.738,17.736,17.737
201910090737,17.737,17.737,17.736,17.737
201910090738,17.737,17.738,17.736,17.738
201910090739,17.738,17.738,17.736,17.737
201910090740,17.737,17.738,17.737,17.738
201910090741,17.738,17.741,17.738,17.74
201910090742,17.739,17.743,17.738,17.743
201910090743,17.743,17.743,17.742,17.743
201910090744,17.743,17.743,17.742,17.743
201910090745,17.743,17.743,17.741,17.742
201910090746,17.742,17.742,17.739,17.74
201910090747,17.74,17.743,17.739,17.742
201910090748,17.742,17.743,17.74,17.742
201910090749,17.741,17.742,17.739,17.74
201910090750,17.74,17.743,17.74,17.742
201910090751,17.741,17.741,17.739,17.741
201910090752,17.74,17.74,17.737,17.738
201910090753,17.738,17.739,17.732,17.734
201910090754,17.734,17.734,17.733,17.733
201910090755,17.733,17.734,17.731,17.733
201910090756,17.733,17.734,17.731,17.732
201910090757,17.732,17.733,17.731,17.731
201910090758,17.731,17.735,17.731,17.734
201910090759,17.734,17.739,17.733,17.739
201910090800,17.738,17.747,17.738,17.747
201910090801,17.747,17.748,17.746,17.748
201910090802,17.748,17.748,17.746,17.747
201910090803,17.747,17.753,17.743,17.753
201910090804,17.753,17.753,17.748,17.751
201910090805,17.751,17.751,17.748,17.748
201910090806,17.748,17.753,17.747,17.753
201910090807,17.753,17.753,17.751,17.752
201910090808,17.752,17.753,17.752,17.753
201910090809,17.753,17.758,17.752,17.758
201910090810,17.758,17.76,17.757,17.758
201910090811,17.759,17.76,17.755,17.755
201910090812,17.755,17.758,17.755,17.758
201910090813,17.758,17.758,17.757,17.757
201910090814,17.757,17.757,17.752,17.752
201910090815,17.752,17.753,17.751,17.751
201910090816,17.751,17.754,17.751,17.754
201910090817,17.754,17.758,17.754,17.758
201910090818,17.758,17.764,17.757,17.762
201910090819,17.762,17.764,17.762,17.763
201910090820,17.763,17.767,17.763,17.767
201910090821,17.767,17.767,17.764,17.764
201910090822,17.764,17.764,17.758,17.758
201910090823,17.757,17.759,17.757,17.759
201910090824,17.759,17.764,17.759,17.764
201910090825,17.764,17.764,17.763,17.764
201910090826,17.764,17.764,17.763,17.764
201910090827,17.764,17.764,17.763,17.764
201910090828,17.764,17.768,17.763,17.766
201910090829,17.766,17.767,17.763,17.764
201910090830,17.764,17.764,17.758,17.758
201910090831,17.758,17.759,17.756,17.757
201910090832,17.757,17.758,17.756,17.756
201910090833,17.756,17.757,17.755,17.756
201910090834,17.756,17.758,17.755,17.758
201910090835,17.758,17.758,17.757,17.758
201910090836,17.758,17.759,17.756,17.758
201910090837,17.758,17.759,17.757,17.757
201910090838,17.757,17.757,17.751,17.752
201910090839,17.752,17.754,17.751,17.753
201910090840,17.753,17.758,17.752,17.757
201910090841,17.757,17.761,17.755,17.761
201910090842,17.761,17.776,17.76,17.776
201910090843,17.775,17.786,17.773,17.783
201910090844,17.783,17.783,17.774,17.774
201910090845,17.774,17.777,17.77,17.775
201910090846,17.775,17.779,17.775,17.777
201910090847,17.777,17.777,17.772,17.773
201910090848,17.773,17.774,17.772,17.774
201910090849,17.774,17.778,17.774,17.777
201910090850,17.776,17.778,17.768,17.768
201910090851,17.769,17.769,17.768,17.768
201910090852,17.768,17.77,17.768,17.769
201910090853,17.769,17.773,17.768,17.772
201910090854,17.773,17.774,17.772,17.774
201910090855,17.774,17.777,17.772,17.774
201910090856,17.774,17.774,17.769,17.769
201910090857,17.769,17.769,17.768,17.768
201910090858,17.768,17.772,17.768,17.772
201910090859,17.772,17.773,17.769,17.773
201910090900,17.773,17.773,17.769,17.772
201910090901,17.772,17.772,17.767,17.767
201910090902,17.767,17.767,17.758,17.758
201910090903,17.758,17.76,17.757,17.759
201910090904,17.759,17.763,17.758,17.758
201910090905,17.758,17.758,17.747,17.747
201910090906,17.747,17.747,17.742,17.742
201910090907,17.742,17.742,17.741,17.742
201910090908,17.741,17.742,17.737,17.737
201910090909,17.737,17.738,17.731,17.731
201910090910,17.731,17.732,17.726,17.726
201910090911,17.726,17.731,17.725,17.731
201910090912,17.731,17.732,17.728,17.731
201910090913,17.731,17.732,17.728,17.732
201910090914,17.732,17.737,17.732,17.737
201910090915,17.737,17.737,17.736,17.736
201910090916,17.736,17.741,17.736,17.737
201910090917,17.737,17.737,17.726,17.726
201910090918,17.726,17.727,17.718,17.718
201910090919,17.718,17.718,17.701,17.71
201910090920,17.71,17.711,17.697,17.697
201910090921,17.697,17.697,17.689,17.694
201910090922,17.694,17.697,17.694,17.697
201910090923,17.696,17.701,17.691,17.691
201910090924,17.691,17.696,17.691,17.694
201910090925,17.694,17.701,17.691,17.701
201910090926,17.702,17.702,17.699,17.702
201910090927,17.702,17.702,17.698,17.698
201910090928,17.701,17.702,17.697,17.697
201910090929,17.697,17.702,17.697,17.702
201910090930,17.702,17.702,17.697,17.701
201910090931,17.7,17.703,17.698,17.698
201910090932,17.698,17.702,17.698,17.699
201910090933,17.698,17.703,17.697,17.703
201910090934,17.703,17.706,17.703,17.706
201910090935,17.706,17.707,17.703,17.703
201910090936,17.703,17.704,17.701,17.704
201910090937,17.704,17.704,17.697,17.701
201910090938,17.701,17.702,17.701,17.701
201910090939,17.701,17.702,17.701,17.701
201910090940,17.701,17.703,17.701,17.703
201910090941,17.703,17.711,17.7,17.711
201910090942,17.711,17.712,17.706,17.712
201910090943,17.712,17.712,17.705,17.707
201910090944,17.707,17.707,17.704,17.704
201910090945,17.704,17.705,17.699,17.701
201910090946,17.701,17.706,17.701,17.705
201910090947,17.705,17.707,17.702,17.705
201910090948,17.705,17.705,17.7,17.702
201910090949,17.702,17.703,17.701,17.702
201910090950,17.701,17.707,17.701,17.706
201910090951,17.706,17.711,17.702,17.711
201910090952,17.711,17.711,17.701,17.701
201910090953,17.701,17.701,17.697,17.698
201910090954,17.698,17.698,17.696,17.696
201910090955,17.696,17.698,17.681,17.687
201910090956,17.687,17.697,17.687,17.695
201910090957,17.695,17.696,17.687,17.691
201910090958,17.691,17.696,17.691,17.695
201910090959,17.695,17.695,17.688,17.688
201910091000,17.691,17.692,17.663,17.684
201910091001,17.684,17.687,17.678,17.684
201910091002,17.682,17.692,17.679,17.68
201910091003,17.68,17.684,17.672,17.677
201910091004,17.677,17.68,17.672,17.678
201910091005,17.678,17.683,17.672,17.673
201910091006,17.673,17.675,17.666,17.668
201910091007,17.668,17.668,17.663,17.666
201910091008,17.666,17.672,17.666,17.67
201910091009,17.67,17.678,17.67,17.674
201910091010,17.674,17.686,17.674,17.683
201910091011,17.683,17.692,17.683,17.692
201910091012,17.692,17.703,17.691,17.702
201910091013,17.702,17.71,17.699,17.705
201910091014,17.705,17.708,17.699,17.708
201910091015,17.708,17.724,17.708,17.722
201910091016,17.722,17.728,17.716,17.72
201910091017,17.719,17.719,17.712,17.714
201910091018,17.714,17.738,17.714,17.737
201910091019,17.737,17.746,17.733,17.74
201910091020,17.74,17.745,17.732,17.741
201910091021,17.741,17.744,17.732,17.738
201910091022,17.738,17.752,17.738,17.747
201910091023,17.747,17.754,17.745,17.753
201910091024,17.753,17.763,17.751,17.752
201910091025,17.752,17.76,17.745,17.754
201910091026,17.754,17.759,17.752,17.752
201910091027,17.752,17.752,17.732,17.738
201910091028,17.737,17.741,17.732,17.741
201910091029,17.741,17.743,17.726,17.728
201910091030,17.731,17.741,17.726,17.738
201910091031,17.738,17.739,17.722,17.729
201910091032,17.729,17.741,17.724,17.741
201910091033,17.741,17.759,17.739,17.756
201910091034,17.756,17.757,17.746,17.748
201910091035,17.75,17.768,17.75,17.766
201910091036,17.765,17.769,17.754,17.765
201910091037,17.765,17.774,17.762,17.773
201910091038,17.773,17.776,17.768,17.775
201910091039,17.775,17.779,17.764,17.768
201910091040,17.768,17.768,17.755,17.756
201910091041,17.757,17.765,17.757,17.764
201910091042,17.764,17.764,17.759,17.759
201910091043,17.759,17.771,17.758,17.771
201910091044,17.771,17.775,17.77,17.774
201910091045,17.774,17.776,17.761,17.761
201910091046,17.761,17.773,17.759,17.77
201910091047,17.77,17.777,17.769,17.772
201910091048,17.772,17.773,17.759,17.761
201910091049,17.761,17.761,17.756,17.761
201910091050,17.761,17.761,17.747,17.751
201910091051,17.751,17.759,17.748,17.759
201910091052,17.759,17.76,17.752,17.752
201910091053,17.752,17.758,17.748,17.754
201910091054,17.755,17.758,17.752,17.752
201910091055,17.752,17.752,17.733,17.737
201910091056,17.737,17.738,17.726,17.732
201910091057,17.732,17.732,17.716,17.731
201910091058,17.731,17.732,17.723,17.726
201910091059,17.726,17.731,17.726,17.728
201910091100,17.728,17.733,17.727,17.733
201910091101,17.733,17.743,17.729,17.738
201910091102,17.734,17.738,17.734,17.734
201910091103,17.734,17.738,17.727,17.737
201910091104,17.737,17.747,17.735,17.744
201910091105,17.744,17.749,17.74,17.749
201910091106,17.749,17.749,17.741,17.743
201910091107,17.743,17.743,17.735,17.738
201910091108,17.738,17.741,17.737,17.737
201910091109,17.737,17.738,17.733,17.734
201910091110,17.734,17.738,17.731,17.736
201910091111,17.737,17.739,17.734,17.738
201910091112,17.737,17.737,17.73,17.734
201910091113,17.734,17.738,17.733,17.736
201910091114,17.736,17.743,17.736,17.739
201910091115,17.739,17.739,17.733,17.733
201910091116,17.733,17.734,17.73,17.734
201910091117,17.732,17.734,17.732,17.733
201910091118,17.733,17.733,17.723,17.724
201910091119,17.724,17.727,17.724,17.727
201910091120,17.727,17.73,17.727,17.728
201910091121,17.728,17.736,17.728,17.735
201910091122,17.736,17.739,17.735,17.739
201910091123,17.738,17.745,17.738,17.744
201910091124,17.744,17.745,17.74,17.744
201910091125,17.744,17.744,17.744,17.744
201910091126,17.744,17.745,17.74,17.742
201910091127,17.742,17.744,17.735,17.735
201910091128,17.734,17.736,17.732,17.734
201910091129,17.734,17.736,17.734,17.734
201910091130,17.734,17.736,17.732,17.734
201910091131,17.734,17.737,17.732,17.734
201910091132,17.734,17.737,17.732,17.736
201910091133,17.736,17.74,17.736,17.739
201910091134,17.739,17.743,17.739,17.741
201910091135,17.741,17.744,17.739,17.741
201910091136,17.741,17.744,17.739,17.74
201910091137,17.74,17.744,17.74,17.743
201910091138,17.743,17.744,17.732,17.734
201910091139,17.734,17.738,17.733,17.737
201910091140,17.737,17.744,17.737,17.743
201910091141,17.744,17.746,17.742,17.745
201910091142,17.745,17.748,17.744,17.746
201910091143,17.748,17.75,17.745,17.749
201910091144,17.749,17.749,17.741,17.746
201910091145,17.745,17.752,17.745,17.749
201910091146,17.749,17.749,17.746,17.748
201910091147,17.748,17.751,17.745,17.746
201910091148,17.747,17.749,17.743,17.747
201910091149,17.747,17.753,17.746,17.749
201910091150,17.746,17.75,17.745,17.748
201910091151,17.748,17.754,17.748,17.753
201910091152,17.753,17.757,17.753,17.756
201910091153,17.755,17.759,17.754,17.758
201910091154,17.758,17.764,17.755,17.755
201910091155,17.759,17.76,17.758,17.759
201910091156,17.759,17.76,17.758,17.759
201910091157,17.759,17.76,17.74,17.74
201910091158,17.74,17.742,17.737,17.739
201910091159,17.739,17.74,17.735,17.735
201910091200,17.735,17.738,17.725,17.726
201910091201,17.726,17.726,17.719,17.725
201910091202,17.725,17.731,17.725,17.729
201910091203,17.729,17.734,17.729,17.734
201910091204,17.734,17.736,17.733,17.734
201910091205,17.734,17.735,17.731,17.734
201910091206,17.734,17.736,17.734,17.736
201910091207,17.736,17.745,17.736,17.745
201910091208,17.745,17.745,17.744,17.744
201910091209,17.744,17.747,17.744,17.744
201910091210,17.744,17.744,17.74,17.741
201910091211,17.741,17.745,17.736,17.745
201910091212,17.748,17.749,17.744,17.746
201910091213,17.746,17.749,17.745,17.749
201910091214,17.749,17.749,17.739,17.74
201910091215,17.739,17.744,17.739,17.743
201910091216,17.743,17.743,17.739,17.74
201910091217,17.74,17.744,17.74,17.744
201910091218,17.744,17.749,17.744,17.749
201910091219,17.749,17.751,17.748,17.751
201910091220,17.749,17.751,17.748,17.749
201910091221,17.749,17.752,17.749,17.752
201910091222,17.752,17.754,17.752,17.754
201910091223,17.754,17.76,17.754,17.76
201910091224,17.76,17.76,17.758,17.759
201910091225,17.759,17.761,17.753,17.753
201910091226,17.753,17.754,17.75,17.75
201910091227,17.75,17.75,17.746,17.749
201910091228,17.749,17.749,17.748,17.748
201910091229,17.748,17.754,17.748,17.754
201910091230,17.754,17.755,17.754,17.755
201910091231,17.758,17.759,17.754,17.756
201910091232,17.756,17.759,17.755,17.759
201910091233,17.759,17.759,17.759,17.759
201910091234,17.759,17.761,17.759,17.76
201910091235,17.76,17.76,17.757,17.758
201910091236,17.757,17.758,17.753,17.754
201910091237,17.754,17.754,17.753,17.754
201910091238,17.754,17.759,17.751,17.759
201910091239,17.757,17.759,17.755,17.756
201910091240,17.757,17.759,17.756,17.757
201910091241,17.757,17.758,17.755,17.758
201910091242,17.758,17.758,17.754,17.755
201910091243,17.755,17.755,17.752,17.753
201910091244,17.753,17.754,17.748,17.751
201910091245,17.751,17.751,17.749,17.75
201910091246,17.75,17.75,17.749,17.749
201910091247,17.749,17.75,17.749,17.75
201910091248,17.75,17.751,17.75,17.75
201910091249,17.75,17.75,17.748,17.749
201910091250,17.749,17.749,17.746,17.749
201910091251,17.749,17.753,17.748,17.751
201910091252,17.751,17.751,17.75,17.75
201910091253,17.75,17.751,17.748,17.748
201910091254,17.748,17.75,17.748,17.749
201910091255,17.749,17.749,17.745,17.745
201910091256,17.745,17.746,17.744,17.744
201910091257,17.744,17.75,17.743,17.748
201910091258,17.748,17.748,17.748,17.748
201910091259,17.748,17.748,17.747,17.748
201910091300,17.748,17.748,17.745,17.745
201910091301,17.745,17.745,17.745,17.745
201910091302,17.745,17.745,17.745,17.745
201910091303,17.745,17.748,17.745,17.745
201910091304,17.745,17.747,17.745,17.747
201910091305,17.747,17.748,17.746,17.748
201910091306,17.748,17.753,17.748,17.753
201910091307,17.753,17.757,17.753,17.754
201910091308,17.754,17.754,17.753,17.753
201910091309,17.753,17.754,17.753,17.754
201910091310,17.754,17.755,17.753,17.755
201910091311,17.755,17.756,17.754,17.754
201910091312,17.754,17.756,17.753,17.755
201910091313,17.755,17.758,17.754,17.758
201910091314,17.758,17.758,17.753,17.753
201910091315,17.753,17.758,17.753,17.758
201910091316,17.758,17.758,17.756,17.756
201910091317,17.756,17.758,17.755,17.757
201910091318,17.758,17.76,17.757,17.759
201910091319,17.759,17.763,17.759,17.76
201910091320,17.76,17.762,17.755,17.759
201910091321,17.759,17.76,17.758,17.76
201910091322,17.759,17.762,17.759,17.762
201910091323,17.762,17.767,17.762,17.767
201910091324,17.767,17.768,17.767,17.768
201910091325,17.768,17.768,17.767,17.768
201910091326,17.768,17.768,17.767,17.768
201910091327,17.768,17.768,17.768,17.768
201910091328,17.768,17.769,17.768,17.769
201910091329,17.768,17.768,17.768,17.768
201910091330,17.768,17.768,17.766,17.767
201910091331,17.767,17.767,17.767,17.767
201910091332,17.767,17.767,17.765,17.767
201910091333,17.767,17.768,17.767,17.768
201910091334,17.768,17.768,17.765,17.765
201910091335,17.764,17.765,17.764,17.764
201910091336,17.764,17.765,17.764,17.764
201910091337,17.764,17.764,17.764,17.764
201910091338,17.764,17.764,17.764,17.764
201910091339,17.764,17.765,17.764,17.765
201910091340,17.765,17.765,17.764,17.764
201910091341,17.765,17.765,17.764,17.764
201910091342,17.764,17.765,17.762,17.765
201910091343,17.765,17.765,17.764,17.764
201910091344,17.764,17.764,17.764,17.764
201910091345,17.764,17.765,17.764,17.765
201910091346,17.765,17.765,17.765,17.765
201910091347,17.765,17.765,17.763,17.765
201910091348,17.765,17.768,17.765,17.768
201910091349,17.768,17.768,17.767,17.767
201910091350,17.767,17.768,17.767,17.767
201910091351,17.768,17.768,17.765,17.765
201910091352,17.765,17.768,17.764,17.767
201910091353,17.767,17.768,17.766,17.768
201910091354,17.768,17.768,17.764,17.764
201910091355,17.764,17.764,17.76,17.76
201910091356,17.762,17.762,17.76,17.761
201910091357,17.76,17.761,17.759,17.759
201910091358,17.759,17.759,17.754,17.755
201910091359,17.755,17.756,17.754,17.755
201910091400,17.755,17.756,17.754,17.754
201910091401,17.754,17.758,17.754,17.754
201910091402,17.754,17.755,17.754,17.755
201910091403,17.755,17.761,17.755,17.761
201910091404,17.761,17.764,17.761,17.764
201910091405,17.764,17.764,17.764,17.764
201910091406,17.764,17.764,17.764,17.764
201910091407,17.764,17.764,17.76,17.761
201910091408,17.76,17.764,17.76,17.764
201910091409,17.764,17.765,17.764,17.765
201910091410,17.765,17.765,17.763,17.763
201910091411,17.763,17.765,17.763,17.764
201910091412,17.764,17.765,17.761,17.761
201910091413,17.76,17.76,17.759,17.759
201910091414,17.759,17.759,17.759,17.759
201910091415,17.759,17.763,17.759,17.76
201910091416,17.76,17.762,17.76,17.761
201910091417,17.76,17.765,17.759,17.764
201910091418,17.764,17.767,17.764,17.766
201910091419,17.766,17.766,17.764,17.764
201910091420,17.764,17.764,17.761,17.761
201910091421,17.761,17.767,17.761,17.764
201910091422,17.764,17.767,17.764,17.767
201910091423,17.767,17.768,17.767,17.768
201910091424,17.768,17.768,17.768,17.768
201910091425,17.768,17.768,17.768,17.768
201910091426,17.768,17.768,17.768,17.768
201910091427,17.768,17.769,17.768,17.768
201910091428,17.768,17.769,17.768,17.769
201910091429,17.768,17.769,17.768,17.769
201910091430,17.769,17.774,17.767,17.772
201910091431,17.772,17.773,17.771,17.773
201910091432,17.773,17.773,17.759,17.762
201910091433,17.763,17.765,17.759,17.765
201910091434,17.765,17.765,17.748,17.748
201910091435,17.748,17.752,17.738,17.738
201910091436,17.738,17.742,17.737,17.742
201910091437,17.742,17.743,17.738,17.742
201910091438,17.742,17.745,17.741,17.745
201910091439,17.745,17.747,17.743,17.743
201910091440,17.743,17.743,17.723,17.727
201910091441,17.727,17.736,17.726,17.733
201910091442,17.733,17.747,17.733,17.742
201910091443,17.742,17.745,17.742,17.744
201910091444,17.744,17.759,17.744,17.759
201910091445,17.759,17.768,17.758,17.767
201910091446,17.767,17.767,17.755,17.755
201910091447,17.756,17.777,17.755,17.774
201910091448,17.774,17.776,17.766,17.766
201910091449,17.766,17.769,17.766,17.768
201910091450,17.766,17.782,17.765,17.781
201910091451,17.781,17.781,17.775,17.776
201910091452,17.776,17.788,17.776,17.786
201910091453,17.786,17.788,17.78,17.78
201910091454,17.78,17.78,17.772,17.776
201910091455,17.776,17.777,17.773,17.773
201910091456,17.773,17.775,17.77,17.77
201910091457,17.77,17.777,17.769,17.777
201910091458,17.776,17.778,17.775,17.778
201910091459,17.778,17.778,17.774,17.774
201910091500,17.772,17.778,17.769,17.769
201910091501,17.769,17.773,17.768,17.768
201910091502,17.768,17.774,17.768,17.769
201910091503,17.768,17.768,17.765,17.766
201910091504,17.766,17.766,17.762,17.762
201910091505,17.763,17.768,17.763,17.767
201910091506,17.767,17.771,17.759,17.761
201910091507,17.761,17.764,17.76,17.763
201910091508,17.763,17.765,17.762,17.763
201910091509,17.762,17.764,17.759,17.76
201910091510,17.759,17.761,17.758,17.76
201910091511,17.759,17.761,17.758,17.759
201910091512,17.759,17.764,17.759,17.764
201910091513,17.764,17.768,17.763,17.768
201910091514,17.768,17.769,17.759,17.762
201910091515,17.761,17.765,17.761,17.763
201910091516,17.763,17.771,17.763,17.769
201910091517,17.769,17.779,17.769,17.778
201910091518,17.778,17.783,17.778,17.779
201910091519,17.779,17.783,17.778,17.783
201910091520,17.783,17.783,17.779,17.78
201910091521,17.781,17.781,17.777,17.778
201910091522,17.779,17.787,17.779,17.782
201910091523,17.782,17.783,17.775,17.778
201910091524,17.778,17.778,17.773,17.776
201910091525,17.777,17.78,17.773,17.778
201910091526,17.778,17.78,17.774,17.78
201910091527,17.78,17.793,17.78,17.793
201910091528,17.793,17.804,17.793,17.804
201910091529,17.804,17.828,17.803,17.821
201910091530,17.821,17.828,17.819,17.82
201910091531,17.82,17.821,17.81,17.812
201910091532,17.811,17.826,17.809,17.826
201910091533,17.826,17.83,17.821,17.829
201910091534,17.828,17.852,17.828,17.838
201910091535,17.838,17.863,17.838,17.86
201910091536,17.861,17.872,17.86,17.866
201910091537,17.866,17.869,17.854,17.868
201910091538,17.867,17.87,17.856,17.861
201910091539,17.861,17.861,17.848,17.848
201910091540,17.848,17.855,17.847,17.848
201910091541,17.846,17.846,17.834,17.835
201910091542,17.835,17.841,17.835,17.84
201910091543,17.84,17.843,17.83,17.843
201910091544,17.843,17.85,17.843,17.843
201910091545,17.843,17.857,17.843,17.856
201910091546,17.856,17.856,17.849,17.849
201910091547,17.849,17.855,17.848,17.854
201910091548,17.854,17.863,17.854,17.86
201910091549,17.86,17.863,17.859,17.863
201910091550,17.863,17.866,17.863,17.864
201910091551,17.864,17.87,17.864,17.866
201910091552,17.866,17.868,17.861,17.862
201910091553,17.862,17.875,17.859,17.872
201910091554,17.872,17.884,17.872,17.881
201910091555,17.882,17.885,17.879,17.883
201910091556,17.883,17.883,17.88,17.881
201910091557,17.881,17.881,17.871,17.876
201910091558,17.877,17.881,17.874,17.874
201910091559,17.874,17.882,17.87,17.879
201910091600,17.88,17.88,17.863,17.868
201910091601,17.869,17.869,17.866,17.867
201910091602,17.867,17.875,17.866,17.873
201910091603,17.873,17.882,17.873,17.877
201910091604,17.877,17.885,17.877,17.885
201910091605,17.885,17.895,17.882,17.892
201910091606,17.892,17.892,17.88,17.881
201910091607,17.881,17.885,17.879,17.881
201910091608,17.881,17.881,17.874,17.879
201910091609,17.879,17.879,17.875,17.875
201910091610,17.875,17.881,17.87,17.879
201910091611,17.878,17.879,17.87,17.871
201910091612,17.871,17.871,17.868,17.869
201910091613,17.869,17.874,17.867,17.874
201910091614,17.875,17.875,17.873,17.873
201910091615,17.873,17.878,17.873,17.878
201910091616,17.878,17.892,17.878,17.885
201910091617,17.885,17.887,17.884,17.885
201910091618,17.885,17.898,17.885,17.896
201910091619,17.896,17.896,17.889,17.89
201910091620,17.89,17.903,17.89,17.902
201910091621,17.902,17.905,17.889,17.905
201910091622,17.905,17.911,17.905,17.91
201910091623,17.91,17.925,17.91,17.919
201910091624,17.919,17.932,17.916,17.932
201910091625,17.93,17.951,17.93,17.937
201910091626,17.937,17.937,17.929,17.929
201910091627,17.93,17.935,17.92,17.92
201910091628,17.918,17.924,17.916,17.924
201910091629,17.924,17.924,17.907,17.908
201910091630,17.908,17.924,17.908,17.922
201910091631,17.922,17.93,17.922,17.929
201910091632,17.929,17.938,17.927,17.929
201910091633,17.928,17.929,17.923,17.923
201910091634,17.924,17.94,17.924,17.933
201910091635,17.933,17.933,17.91,17.912
201910091636,17.912,17.912,17.889,17.889
201910091637,17.889,17.891,17.879,17.884
201910091638,17.884,17.891,17.883,17.883
201910091639,17.883,17.887,17.866,17.868
201910091640,17.867,17.87,17.853,17.867
201910091641,17.868,17.869,17.84,17.84
201910091642,17.84,17.85,17.831,17.831
201910091643,17.832,17.85,17.832,17.85
201910091644,17.85,17.864,17.845,17.853
201910091645,17.853,17.853,17.833,17.842
201910091646,17.842,17.849,17.833,17.837
201910091647,17.837,17.843,17.836,17.843
201910091648,17.844,17.846,17.833,17.842
201910091649,17.842,17.857,17.842,17.853
201910091650,17.853,17.858,17.852,17.857
201910091651,17.857,17.884,17.857,17.881
201910091652,17.881,17.883,17.874,17.874
201910091653,17.874,17.874,17.867,17.867
201910091654,17.867,17.869,17.859,17.859
201910091655,17.859,17.863,17.85,17.863
201910091656,17.863,17.871,17.862,17.868
201910091657,17.868,17.874,17.867,17.874
201910091658,17.874,17.879,17.869,17.878
201910091659,17.878,17.881,17.877,17.879
201910091700,17.879,17.881,17.876,17.879
201910091701,17.879,17.881,17.863,17.863
201910091702,17.865,17.865,17.856,17.86
201910091703,17.86,17.872,17.86,17.863
201910091704,17.864,17.875,17.862,17.874
201910091705,17.874,17.879,17.873,17.875
201910091706,17.874,17.882,17.871,17.877
201910091707,17.877,17.88,17.875,17.879
201910091708,17.878,17.878,17.87,17.87
201910091709,17.872,17.879,17.872,17.879
201910091710,17.879,17.881,17.876,17.877
201910091711,17.877,17.877,17.869,17.87
201910091712,17.87,17.877,17.869,17.874
201910091713,17.874,17.876,17.866,17.87
201910091714,17.87,17.877,17.87,17.874
201910091715,17.874,17.878,17.871,17.875
201910091716,17.875,17.883,17.874,17.881
201910091717,17.881,17.881,17.872,17.875
201910091718,17.875,17.887,17.875,17.875
201910091719,17.875,17.878,17.87,17.87
201910091720,17.873,17.873,17.861,17.866
201910091721,17.864,17.864,17.855,17.859
201910091722,17.859,17.862,17.856,17.861
201910091723,17.861,17.864,17.858,17.86
201910091724,17.86,17.862,17.856,17.859
201910091725,17.859,17.868,17.856,17.856
201910091726,17.856,17.856,17.845,17.853
201910091727,17.853,17.859,17.843,17.844
201910091728,17.845,17.85,17.844,17.85
201910091729,17.85,17.85,17.845,17.847
201910091730,17.847,17.853,17.843,17.853
201910091731,17.853,17.855,17.844,17.848
201910091732,17.849,17.852,17.847,17.852
201910091733,17.853,17.863,17.853,17.863
201910091734,17.863,17.872,17.862,17.871
201910091735,17.871,17.879,17.87,17.879
201910091736,17.88,17.886,17.878,17.879
201910091737,17.879,17.886,17.877,17.886
201910091738,17.887,17.887,17.882,17.883
201910091739,17.884,17.893,17.882,17.893
201910091740,17.893,17.894,17.879,17.88
201910091741,17.88,17.893,17.88,17.887
201910091742,17.887,17.887,17.875,17.884
201910091743,17.883,17.883,17.859,17.867
201910091744,17.867,17.869,17.857,17.862
201910091745,17.862,17.863,17.852,17.855
201910091746,17.855,17.858,17.853,17.857
201910091747,17.857,17.868,17.857,17.864
201910091748,17.864,17.864,17.859,17.862
201910091749,17.862,17.866,17.862,17.865
201910091750,17.864,17.866,17.861,17.863
201910091751,17.862,17.864,17.86,17.863
201910091752,17.863,17.865,17.861,17.864
201910091753,17.865,17.867,17.864,17.866
201910091754,17.867,17.871,17.866,17.871
201910091755,17.871,17.872,17.868,17.872
201910091756,17.872,17.872,17.869,17.87
201910091757,17.87,17.876,17.867,17.875
201910091758,17.875,17.876,17.868,17.871
201910091759,17.871,17.871,17.867,17.867
201910091800,17.868,17.875,17.868,17.874
201910091801,17.874,17.874,17.872,17.872
201910091802,17.871,17.872,17.871,17.872
201910091803,17.872,17.872,17.871,17.872
201910091804,17.872,17.877,17.871,17.877
201910091805,17.877,17.877,17.874,17.874
201910091806,17.876,17.878,17.875,17.878
201910091807,17.879,17.885,17.879,17.885
201910091808,17.885,17.895,17.885,17.895
201910091809,17.895,17.902,17.893,17.902
201910091810,17.902,17.907,17.896,17.901
201910091811,17.901,17.901,17.86,17.86
201910091812,17.858,17.858,17.828,17.831
201910091813,17.831,17.839,17.823,17.83
201910091814,17.83,17.86,17.83,17.858
201910091815,17.857,17.857,17.836,17.848
201910091816,17.848,17.856,17.837,17.847
201910091817,17.847,17.856,17.845,17.847
201910091818,17.847,17.862,17.846,17.852
201910091819,17.852,17.871,17.852,17.866
201910091820,17.866,17.866,17.847,17.847
201910091821,17.847,17.847,17.821,17.823
201910091822,17.822,17.831,17.822,17.826
201910091823,17.826,17.837,17.826,17.837
201910091824,17.837,17.841,17.827,17.841
201910091825,17.842,17.842,17.822,17.822
201910091826,17.822,17.822,17.82,17.822
201910091827,17.822,17.825,17.822,17.825
201910091828,17.823,17.832,17.821,17.826
201910091829,17.827,17.827,17.82,17.822
201910091830,17.826,17.838,17.824,17.824
201910091831,17.824,17.824,17.812,17.818
201910091832,17.818,17.822,17.788,17.789
201910091833,17.789,17.796,17.773,17.78
201910091834,17.78,17.793,17.779,17.782
201910091835,17.782,17.784,17.773,17.778
201910091836,17.777,17.78,17.774,17.779
201910091837,17.779,17.783,17.774,17.783
201910091838,17.782,17.789,17.775,17.775
201910091839,17.775,17.781,17.771,17.774
201910091840,17.774,17.779,17.772,17.774
201910091841,17.774,17.781,17.773,17.78
201910091842,17.78,17.785,17.778,17.778
201910091843,17.778,17.778,17.753,17.763
201910091844,17.763,17.77,17.761,17.762
201910091845,17.763,17.767,17.726,17.73
201910091846,17.727,17.73,17.714,17.728
201910091847,17.728,17.736,17.706,17.711
201910091848,17.714,17.729,17.71,17.725
201910091849,17.726,17.744,17.722,17.737
201910091850,17.737,17.754,17.736,17.737
201910091851,17.737,17.75,17.737,17.747
201910091852,17.747,17.759,17.742,17.756
201910091853,17.754,17.761,17.751,17.756
201910091854,17.758,17.765,17.748,17.748
201910091855,17.748,17.749,17.737,17.738
201910091856,17.738,17.743,17.737,17.739
201910091857,17.737,17.743,17.735,17.735
201910091858,17.735,17.737,17.73,17.736
201910091859,17.736,17.742,17.731,17.742
201910091900,17.741,17.745,17.735,17.744
201910091901,17.744,17.759,17.744,17.759
201910091902,17.758,17.771,17.758,17.771
201910091903,17.771,17.777,17.768,17.777
201910091904,17.777,17.778,17.771,17.771
201910091905,17.771,17.771,17.765,17.766
201910091906,17.767,17.769,17.761,17.762
201910091907,17.762,17.766,17.76,17.766
201910091908,17.766,17.766,17.756,17.757
201910091909,17.757,17.77,17.756,17.763
201910091910,17.763,17.768,17.756,17.765
201910091911,17.766,17.766,17.761,17.763
201910091912,17.763,17.767,17.759,17.762
201910091913,17.763,17.767,17.762,17.767
201910091914,17.767,17.772,17.763,17.771
201910091915,17.771,17.772,17.767,17.768
201910091916,17.767,17.767,17.765,17.766
201910091917,17.766,17.767,17.762,17.762
201910091918,17.762,17.762,17.761,17.762
201910091919,17.762,17.764,17.762,17.762
201910091920,17.762,17.77,17.762,17.767
201910091921,17.767,17.767,17.759,17.761
201910091922,17.762,17.767,17.761,17.765
201910091923,17.765,17.767,17.761,17.764
201910091924,17.764,17.768,17.763,17.766
201910091925,17.766,17.769,17.766,17.768
201910091926,17.769,17.769,17.761,17.764
201910091927,17.764,17.772,17.764,17.77
201910091928,17.77,17.776,17.76,17.775
201910091929,17.776,17.781,17.776,17.781
201910091930,17.781,17.782,17.777,17.782
201910091931,17.782,17.792,17.778,17.788
201910091932,17.788,17.788,17.782,17.783
201910091933,17.783,17.789,17.782,17.787
201910091934,17.787,17.788,17.781,17.788
201910091935,17.788,17.791,17.783,17.783
201910091936,17.783,17.783,17.78,17.78
201910091937,17.779,17.782,17.777,17.777
201910091938,17.777,17.777,17.767,17.772
201910091939,17.772,17.777,17.772,17.777
201910091940,17.777,17.789,17.774,17.789
201910091941,17.789,17.793,17.785,17.785
201910091942,17.785,17.786,17.785,17.786
201910091943,17.786,17.797,17.786,17.797
201910091944,17.797,17.797,17.795,17.796
201910091945,17.796,17.796,17.786,17.786
201910091946,17.786,17.788,17.781,17.784
201910091947,17.784,17.785,17.78,17.784
201910091948,17.784,17.791,17.781,17.791
201910091949,17.791,17.797,17.788,17.795
201910091950,17.795,17.799,17.795,17.799
201910091951,17.799,17.8,17.796,17.797
201910091952,17.797,17.801,17.795,17.8
201910091953,17.8,17.8,17.79,17.79
201910091954,17.79,17.795,17.788,17.794
201910091955,17.793,17.793,17.791,17.792
201910091956,17.792,17.793,17.785,17.785
201910091957,17.786,17.787,17.775,17.775
201910091958,17.775,17.777,17.771,17.777
201910091959,17.777,17.777,17.767,17.769
201910092000,17.77,17.786,17.77,17.786
201910092001,17.788,17.788,17.778,17.779
201910092002,17.778,17.788,17.776,17.784
201910092003,17.783,17.786,17.782,17.784
201910092004,17.784,17.784,17.774,17.78
201910092005,17.78,17.78,17.776,17.776
201910092006,17.775,17.775,17.77,17.771
201910092007,17.771,17.771,17.767,17.769
201910092008,17.769,17.77,17.768,17.769
201910092009,17.769,17.776,17.768,17.776
201910092010,17.775,17.792,17.775,17.789
201910092011,17.79,17.79,17.788,17.79
201910092012,17.789,17.791,17.789,17.79
201910092013,17.79,17.799,17.789,17.789
201910092014,17.789,17.789,17.777,17.777
201910092015,17.777,17.777,17.77,17.77
201910092016,17.77,17.772,17.768,17.771
201910092017,17.771,17.779,17.771,17.778
201910092018,17.778,17.782,17.776,17.782
201910092019,17.782,17.782,17.773,17.773
201910092020,17.773,17.776,17.766,17.776
201910092021,17.772,17.773,17.767,17.767
201910092022,17.767,17.767,17.755,17.756
201910092023,17.756,17.756,17.75,17.75
201910092024,17.75,17.751,17.725,17.725
201910092025,17.725,17.738,17.725,17.735
201910092026,17.735,17.743,17.733,17.743
201910092027,17.743,17.743,17.74,17.741
201910092028,17.741,17.744,17.734,17.734
201910092029,17.735,17.738,17.733,17.733
201910092030,17.733,17.746,17.729,17.744
201910092031,17.745,17.751,17.742,17.75
201910092032,17.75,17.757,17.747,17.749
201910092033,17.75,17.762,17.75,17.762
201910092034,17.762,17.773,17.762,17.772
201910092035,17.769,17.776,17.769,17.776
201910092036,17.776,17.776,17.766,17.768
201910092037,17.768,17.772,17.767,17.772
201910092038,17.772,17.779,17.772,17.777
201910092039,17.777,17.779,17.775,17.777
201910092040,17.777,17.778,17.774,17.774
201910092041,17.775,17.778,17.772,17.776
201910092042,17.776,17.778,17.774,17.774
201910092043,17.775,17.776,17.773,17.773
201910092044,17.773,17.778,17.773,17.776
201910092045,17.776,17.783,17.776,17.783
201910092046,17.783,17.786,17.78,17.781
201910092047,17.781,17.788,17.778,17.786
201910092048,17.786,17.786,17.779,17.779
201910092049,17.78,17.786,17.778,17.781
201910092050,17.781,17.785,17.781,17.782
201910092051,17.782,17.782,17.779,17.78
201910092052,17.78,17.783,17.776,17.777
201910092053,17.777,17.783,17.777,17.78
201910092054,17.78,17.781,17.78,17.781
201910092055,17.781,17.79,17.781,17.788
201910092056,17.786,17.786,17.778,17.782
201910092057,17.782,17.787,17.782,17.786
201910092058,17.786,17.788,17.78,17.787
201910092059,17.787,17.797,17.787,17.791
201910092100,17.791,17.838,17.791,17.832
201910092101,17.832,17.834,17.816,17.817
201910092102,17.817,17.835,17.816,17.833
201910092103,17.833,17.833,17.82,17.822
201910092104,17.822,17.828,17.821,17.826
201910092105,17.826,17.839,17.819,17.833
201910092106,17.833,17.833,17.82,17.821
201910092107,17.821,17.835,17.819,17.834
201910092108,17.833,17.838,17.831,17.832
201910092109,17.832,17.844,17.828,17.844
201910092110,17.844,17.844,17.83,17.831
201910092111,17.832,17.836,17.827,17.836
201910092112,17.836,17.843,17.833,17.841
201910092113,17.841,17.844,17.838,17.84
201910092114,17.84,17.851,17.838,17.848
201910092115,17.849,17.862,17.847,17.856
201910092116,17.854,17.862,17.853,17.858
201910092117,17.857,17.857,17.84,17.84
201910092118,17.841,17.846,17.837,17.846
201910092119,17.845,17.846,17.841,17.841
201910092120,17.846,17.864,17.846,17.853
201910092121,17.853,17.865,17.852,17.859
201910092122,17.859,17.863,17.857,17.86
201910092123,17.86,17.865,17.859,17.862
201910092124,17.862,17.871,17.856,17.871
201910092125,17.871,17.877,17.858,17.865
201910092126,17.866,17.873,17.866,17.869
201910092127,17.869,17.869,17.851,17.851
201910092128,17.851,17.86,17.851,17.852
201910092129,17.852,17.852,17.836,17.842
201910092130,17.842,17.843,17.828,17.843
201910092131,17.843,17.847,17.837,17.842
201910092132,17.842,17.843,17.822,17.833
201910092133,17.833,17.837,17.829,17.832
201910092134,17.833,17.837,17.828,17.835
201910092135,17.836,17.838,17.82,17.82
201910092136,17.821,17.83,17.816,17.83
201910092137,17.826,17.826,17.815,17.815
201910092138,17.815,17.818,17.81,17.81
201910092139,17.81,17.814,17.805,17.811
201910092140,17.811,17.811,17.804,17.807
201910092141,17.807,17.812,17.806,17.81
201910092142,17.81,17.82,17.807,17.812
201910092143,17.813,17.815,17.81,17.814
201910092144,17.814,17.818,17.813,17.814
201910092145,17.814,17.817,17.814,17.816
201910092146,17.815,17.826,17.815,17.815
201910092147,17.815,17.815,17.803,17.806
201910092148,17.806,17.814,17.801,17.803
201910092149,17.803,17.803,17.797,17.802
201910092150,17.802,17.802,17.791,17.791
201910092151,17.792,17.793,17.781,17.783
201910092152,17.785,17.785,17.771,17.778
201910092153,17.778,17.789,17.773,17.786
201910092154,17.786,17.793,17.778,17.778
201910092155,17.778,17.783,17.776,17.782
201910092156,17.782,17.782,17.773,17.78
201910092157,17.78,17.781,17.772,17.772
201910092158,17.772,17.773,17.756,17.756
201910092159,17.756,17.761,17.745,17.746
201910092200,17.746,17.793,17.746,17.783
201910092201,17.783,17.792,17.78,17.788
201910092202,17.787,17.787,17.775,17.782
201910092203,17.781,17.786,17.777,17.779
201910092204,17.78,17.797,17.779,17.795
201910092205,17.796,17.807,17.793,17.802
201910092206,17.801,17.806,17.792,17.797
201910092207,17.796,17.812,17.796,17.812
201910092208,17.812,17.818,17.807,17.808
201910092209,17.809,17.811,17.801,17.802
201910092210,17.802,17.817,17.802,17.817
201910092211,17.816,17.817,17.806,17.806
201910092212,17.805,17.815,17.805,17.813
201910092213,17.813,17.814,17.808,17.813
201910092214,17.813,17.818,17.802,17.807
201910092215,17.807,17.818,17.807,17.817
201910092216,17.817,17.818,17.812,17.816
201910092217,17.815,17.818,17.812,17.818
201910092218,17.818,17.818,17.816,17.817
201910092219,17.817,17.818,17.815,17.817
201910092220,17.817,17.828,17.817,17.827
201910092221,17.827,17.838,17.827,17.834
201910092222,17.834,17.838,17.83,17.834
201910092223,17.834,17.843,17.832,17.841
201910092224,17.84,17.848,17.84,17.843
201910092225,17.843,17.846,17.841,17.843
201910092226,17.843,17.843,17.829,17.837
201910092227,17.837,17.838,17.829,17.83
201910092228,17.829,17.83,17.82,17.829
201910092229,17.829,17.831,17.828,17.829
201910092230,17.829,17.836,17.828,17.83
201910092231,17.83,17.83,17.796,17.796
201910092232,17.797,17.797,17.742,17.742
201910092233,17.743,17.754,17.713,17.738
201910092234,17.738,17.762,17.738,17.759
201910092235,17.759,17.759,17.744,17.753
201910092236,17.753,17.773,17.753,17.769
201910092237,17.769,17.77,17.756,17.764
201910092238,17.764,17.779,17.762,17.774
201910092239,17.774,17.784,17.77,17.784
201910092240,17.784,17.785,17.77,17.773
201910092241,17.773,17.78,17.766,17.773
201910092242,17.773,17.778,17.758,17.777
201910092243,17.777,17.778,17.766,17.767
201910092244,17.767,17.768,17.761,17.768
201910092245,17.769,17.771,17.761,17.766
201910092246,17.765,17.766,17.746,17.748
201910092247,17.749,17.759,17.746,17.754
201910092248,17.755,17.756,17.742,17.743
201910092249,17.743,17.749,17.741,17.743
201910092250,17.744,17.757,17.737,17.749
201910092251,17.751,17.764,17.751,17.763
201910092252,17.763,17.767,17.759,17.761
201910092253,17.761,17.768,17.761,17.765
201910092254,17.764,17.777,17.762,17.773
201910092255,17.773,17.774,17.768,17.773
201910092256,17.773,17.779,17.772,17.773
201910092257,17.773,17.776,17.767,17.767
201910092258,17.767,17.779,17.767,17.778
201910092259,17.778,17.778,17.772,17.773
201910092300,17.774,17.777,17.758,17.765
201910092301,17.765,17.766,17.753,17.755
201910092302,17.756,17.77,17.756,17.769
201910092303,17.769,17.798,17.769,17.795
201910092304,17.795,17.804,17.787,17.789
201910092305,17.789,17.795,17.782,17.788
201910092306,17.789,17.79,17.78,17.784
201910092307,17.784,17.79,17.777,17.79
201910092308,17.79,17.794,17.782,17.783
201910092309,17.783,17.785,17.768,17.768
201910092310,17.768,17.785,17.767,17.783
201910092311,17.783,17.793,17.783,17.788
201910092312,17.788,17.79,17.784,17.79
201910092313,17.79,17.79,17.783,17.789
201910092314,17.792,17.813,17.792,17.813
201910092315,17.813,17.813,17.801,17.809
201910092316,17.809,17.809,17.793,17.799
201910092317,17.799,17.806,17.797,17.8
201910092318,17.799,17.806,17.789,17.798
201910092319,17.798,17.8,17.793,17.796
201910092320,17.796,17.8,17.794,17.798
201910092321,17.799,17.804,17.798,17.804
201910092322,17.804,17.808,17.8,17.805
201910092323,17.805,17.809,17.802,17.803
201910092324,17.803,17.804,17.797,17.8
201910092325,17.8,17.81,17.798,17.805
201910092326,17.805,17.808,17.797,17.799
201910092327,17.798,17.801,17.794,17.795
201910092328,17.793,17.8,17.788,17.798
201910092329,17.798,17.799,17.789,17.795
201910092330,17.795,17.8,17.791,17.793
201910092331,17.793,17.795,17.784,17.788
201910092332,17.788,17.789,17.783,17.783
201910092333,17.783,17.791,17.778,17.788
201910092334,17.788,17.794,17.783,17.783
201910092335,17.783,17.791,17.782,17.785
201910092336,17.785,17.786,17.768,17.768
201910092337,17.768,17.769,17.762,17.766
201910092338,17.766,17.767,17.764,17.764
201910092339,17.764,17.769,17.753,17.753
201910092340,17.753,17.769,17.753,17.769
201910092341,17.77,17.773,17.765,17.772
201910092342,17.772,17.776,17.765,17.766
201910092343,17.767,17.767,17.762,17.765
201910092344,17.764,17.771,17.764,17.768
201910092345,17.768,17.768,17.763,17.763
201910092346,17.763,17.774,17.763,17.773
201910092347,17.773,17.774,17.769,17.77
201910092348,17.769,17.789,17.769,17.788
201910092349,17.788,17.788,17.778,17.779
201910092350,17.779,17.79,17.779,17.79
201910092351,17.789,17.793,17.787,17.792
201910092352,17.792,17.795,17.788,17.79
201910092353,17.79,17.79,17.783,17.784
201910092354,17.784,17.788,17.775,17.778
201910092355,17.779,17.779,17.766,17.768
201910092356,17.768,17.769,17.758,17.758
201910092357,17.758,17.769,17.758,17.762
201910092358,17.763,17.763,17.758,17.763
201910092359,17.763,17.764,17.761,17.763
201910100000,17.763,17.763,17.751,17.758
201910100001,17.758,17.768,17.757,17.763
201910100002,17.763,17.772,17.762,17.768
201910100003,17.768,17.769,17.734,17.737
201910100004,17.737,17.738,17.733,17.737
201910100005,17.737,17.742,17.718,17.72
201910100006,17.72,17.729,17.702,17.708
201910100007,17.708,17.725,17.698,17.725
201910100008,17.725,17.731,17.717,17.731
201910100009,17.731,17.735,17.728,17.735
201910100010,17.735,17.74,17.729,17.734
201910100011,17.734,17.734,17.724,17.729
201910100012,17.729,17.735,17.727,17.734
201910100013,17.733,17.734,17.725,17.73
201910100014,17.73,17.735,17.724,17.733
201910100015,17.733,17.734,17.721,17.733
201910100016,17.733,17.734,17.727,17.727
201910100017,17.725,17.73,17.722,17.723
201910100018,17.723,17.729,17.709,17.728
201910100019,17.728,17.733,17.723,17.732
201910100020,17.732,17.739,17.732,17.738
201910100021,17.738,17.748,17.738,17.745
201910100022,17.745,17.752,17.745,17.748
201910100023,17.748,17.751,17.742,17.75
201910100024,17.75,17.755,17.75,17.752
201910100025,17.752,17.758,17.749,17.758
201910100026,17.758,17.769,17.757,17.763
201910100027,17.762,17.762,17.751,17.76
201910100028,17.761,17.764,17.753,17.759
201910100029,17.758,17.76,17.757,17.76
201910100030,17.76,17.76,17.753,17.755
201910100031,17.755,17.755,17.738,17.739
201910100032,17.739,17.741,17.733,17.736
201910100033,17.735,17.74,17.733,17.739
201910100034,17.739,17.739,17.729,17.734
201910100035,17.734,17.74,17.727,17.739
201910100036,17.739,17.742,17.733,17.741
201910100037,17.741,17.745,17.734,17.735
201910100038,17.735,17.74,17.734,17.737
201910100039,17.737,17.737,17.729,17.735
201910100040,17.735,17.735,17.724,17.729
201910100041,17.729,17.734,17.723,17.725
201910100042,17.724,17.73,17.721,17.73
201910100043,17.73,17.735,17.728,17.735
201910100044,17.735,17.736,17.723,17.724
201910100045,17.725,17.725,17.718,17.72
201910100046,17.72,17.721,17.713,17.715
201910100047,17.715,17.73,17.713,17.73
201910100048,17.73,17.731,17.719,17.723
201910100049,17.723,17.727,17.72,17.725
201910100050,17.725,17.73,17.723,17.727
201910100051,17.728,17.73,17.723,17.725
201910100052,17.723,17.73,17.72,17.726
201910100053,17.726,17.734,17.725,17.734
201910100054,17.734,17.738,17.734,17.734
201910100055,17.734,17.74,17.728,17.74
201910100056,17.74,17.743,17.733,17.734
201910100057,17.734,17.734,17.728,17.734
201910100058,17.736,17.744,17.735,17.744
201910100059,17.744,17.756,17.744,17.752
201910100100,17.752,17.752,17.742,17.742
201910100101,17.742,17.746,17.738,17.742
201910100102,17.742,17.756,17.741,17.751
201910100103,17.751,17.756,17.749,17.756
201910100104,17.755,17.76,17.755,17.755
201910100105,17.755,17.756,17.741,17.742
201910100106,17.742,17.742,17.734,17.736
201910100107,17.736,17.747,17.735,17.74
201910100108,17.74,17.741,17.736,17.737
201910100109,17.736,17.746,17.736,17.746
201910100110,17.746,17.746,17.736,17.736
201910100111,17.736,17.741,17.727,17.729
201910100112,17.729,17.734,17.726,17.727
201910100113,17.727,17.731,17.726,17.731
201910100114,17.731,17.731,17.725,17.728
201910100115,17.728,17.731,17.723,17.727
201910100116,17.727,17.728,17.722,17.723
201910100117,17.723,17.727,17.722,17.726
201910100118,17.726,17.728,17.723,17.725
201910100119,17.725,17.725,17.72,17.724
201910100120,17.724,17.726,17.722,17.723
201910100121,17.723,17.724,17.719,17.722
201910100122,17.722,17.728,17.719,17.728
201910100123,17.728,17.728,17.72,17.72
201910100124,17.72,17.72,17.714,17.714
201910100125,17.713,17.723,17.711,17.723
201910100126,17.723,17.724,17.719,17.719
201910100127,17.719,17.72,17.707,17.709
201910100128,17.709,17.71,17.703,17.708
201910100129,17.708,17.72,17.708,17.72
201910100130,17.72,17.722,17.715,17.721
201910100131,17.721,17.73,17.718,17.718
201910100132,17.718,17.722,17.717,17.72
201910100133,17.721,17.721,17.717,17.717
201910100134,17.717,17.732,17.717,17.732
201910100135,17.73,17.73,17.722,17.724
201910100136,17.723,17.725,17.721,17.722
201910100137,17.722,17.728,17.722,17.722
201910100138,17.722,17.727,17.721,17.725
201910100139,17.725,17.729,17.725,17.727
201910100140,17.727,17.734,17.726,17.734
201910100141,17.734,17.736,17.731,17.735
201910100142,17.735,17.737,17.735,17.735
201910100143,17.734,17.737,17.734,17.737
201910100144,17.737,17.741,17.736,17.74
201910100145,17.74,17.745,17.74,17.74
201910100146,17.74,17.744,17.74,17.742
201910100147,17.742,17.742,17.73,17.736
201910100148,17.736,17.736,17.731,17.731
201910100149,17.731,17.732,17.695,17.702
201910100150,17.702,17.717,17.699,17.716
201910100151,17.716,17.725,17.715,17.725
201910100152,17.726,17.726,17.719,17.72
201910100153,17.72,17.726,17.719,17.725
201910100154,17.724,17.727,17.719,17.724
201910100155,17.723,17.723,17.712,17.716
201910100156,17.716,17.724,17.716,17.724
201910100157,17.724,17.724,17.714,17.714
201910100158,17.714,17.716,17.708,17.71
201910100159,17.71,17.712,17.704,17.709
201910100200,17.709,17.711,17.683,17.692
201910100201,17.692,17.707,17.691,17.707
201910100202,17.708,17.716,17.705,17.712
201910100203,17.712,17.722,17.712,17.714
201910100204,17.715,17.724,17.713,17.718
201910100205,17.718,17.724,17.718,17.718
201910100206,17.718,17.722,17.714,17.719
201910100207,17.719,17.727,17.717,17.724
201910100208,17.723,17.731,17.723,17.73
201910100209,17.73,17.734,17.726,17.734
201910100210,17.734,17.744,17.734,17.742
201910100211,17.742,17.742,17.733,17.736
201910100212,17.736,17.738,17.728,17.73
201910100213,17.73,17.733,17.725,17.73
201910100214,17.731,17.734,17.73,17.732
201910100215,17.732,17.735,17.729,17.734
201910100216,17.734,17.734,17.73,17.734
201910100217,17.734,17.745,17.734,17.744
201910100218,17.744,17.751,17.742,17.75
201910100219,17.75,17.761,17.75,17.76
201910100220,17.759,17.761,17.749,17.749
201910100221,17.749,17.764,17.748,17.763
201910100222,17.763,17.781,17.763,17.778
201910100223,17.779,17.779,17.768,17.77
201910100224,17.77,17.771,17.76,17.768
201910100225,17.768,17.768,17.757,17.765
201910100226,17.764,17.774,17.762,17.767
201910100227,17.768,17.776,17.767,17.775
201910100228,17.775,17.775,17.766,17.766
201910100229,17.766,17.775,17.762,17.769
201910100230,17.77,17.777,17.77,17.774
201910100231,17.774,17.779,17.773,17.774
201910100232,17.774,17.775,17.768,17.775
201910100233,17.775,17.777,17.769,17.771
201910100234,17.771,17.779,17.771,17.774
201910100235,17.774,17.774,17.759,17.765
201910100236,17.764,17.764,17.759,17.763
201910100237,17.763,17.765,17.758,17.758
201910100238,17.758,17.76,17.756,17.759
201910100239,17.759,17.76,17.759,17.76
201910100240,17.76,17.766,17.76,17.764
201910100241,17.764,17.769,17.763,17.764
201910100242,17.764,17.769,17.763,17.765
201910100243,17.765,17.766,17.763,17.765
201910100244,17.765,17.765,17.763,17.764
201910100245,17.764,17.764,17.759,17.759
201910100246,17.759,17.763,17.757,17.763
201910100247,17.763,17.767,17.761,17.765
201910100248,17.765,17.765,17.762,17.763
201910100249,17.763,17.764,17.758,17.76
201910100250,17.76,17.763,17.758,17.759
201910100251,17.759,17.764,17.758,17.764
201910100252,17.764,17.764,17.763,17.764
201910100253,17.764,17.764,17.759,17.763
201910100254,17.763,17.768,17.763,17.768
201910100255,17.768,17.774,17.768,17.77
201910100256,17.77,17.771,17.768,17.768
201910100257,17.768,17.77,17.768,17.769
201910100258,17.769,17.769,17.759,17.759
201910100259,17.76,17.768,17.756,17.763
201910100300,17.761,17.761,17.724,17.742
201910100301,17.741,17.762,17.737,17.752
201910100302,17.752,17.766,17.752,17.766
201910100303,17.766,17.784,17.76,17.78
201910100304,17.778,17.79,17.775,17.789
201910100305,17.789,17.791,17.781,17.783
201910100306,17.783,17.783,17.767,17.773
201910100307,17.772,17.784,17.772,17.774
201910100308,17.774,17.777,17.77,17.774
201910100309,17.774,17.783,17.774,17.781
201910100310,17.781,17.781,17.77,17.77
201910100311,17.771,17.776,17.769,17.776
201910100312,17.776,17.78,17.773,17.78
201910100313,17.78,17.781,17.779,17.779
201910100314,17.779,17.78,17.77,17.775
201910100315,17.775,17.789,17.774,17.789
201910100316,17.789,17.789,17.764,17.776
201910100317,17.776,17.78,17.772,17.776
201910100318,17.776,17.776,17.769,17.77
201910100319,17.77,17.773,17.769,17.773
201910100320,17.773,17.773,17.759,17.76
201910100321,17.76,17.766,17.76,17.764
201910100322,17.764,17.766,17.754,17.756
201910100323,17.756,17.762,17.751,17.752
201910100324,17.752,17.757,17.748,17.75
201910100325,17.75,17.756,17.75,17.751
201910100326,17.751,17.753,17.749,17.75
201910100327,17.75,17.756,17.746,17.755
201910100328,17.755,17.756,17.753,17.753
201910100329,17.753,17.757,17.746,17.755
201910100330,17.755,17.771,17.755,17.77
201910100331,17.77,17.77,17.766,17.767
201910100332,17.767,17.769,17.759,17.76
201910100333,17.76,17.76,17.756,17.759
201910100334,17.759,17.766,17.758,17.765
201910100335,17.765,17.781,17.762,17.779
201910100336,17.779,17.792,17.777,17.791
201910100337,17.79,17.794,17.783,17.791
201910100338,17.791,17.797,17.789,17.793
201910100339,17.793,17.795,17.784,17.787
201910100340,17.786,17.787,17.78,17.782
201910100341,17.782,17.783,17.779,17.78
201910100342,17.78,17.784,17.777,17.781
201910100343,17.781,17.787,17.78,17.782
201910100344,17.785,17.785,17.775,17.778
201910100345,17.779,17.78,17.772,17.772
201910100346,17.775,17.779,17.775,17.777
201910100347,17.777,17.78,17.77,17.774
201910100348,17.774,17.778,17.771,17.778
201910100349,17.778,17.779,17.769,17.77
201910100350,17.769,17.772,17.768,17.77
201910100351,17.77,17.774,17.764,17.766
201910100352,17.766,17.767,17.761,17.761
201910100353,17.759,17.759,17.75,17.751
201910100354,17.75,17.756,17.75,17.75
201910100355,17.75,17.752,17.749,17.75
201910100356,17.75,17.753,17.749,17.749
201910100357,17.749,17.75,17.746,17.75
201910100358,17.75,17.75,17.745,17.745
201910100359,17.745,17.746,17.741,17.744
201910100400,17.745,17.761,17.742,17.76
201910100401,17.76,17.761,17.759,17.761
201910100402,17.761,17.764,17.759,17.764
201910100403,17.764,17.766,17.764,17.764
201910100404,17.764,17.765,17.764,17.764
201910100405,17.764,17.764,17.759,17.76
201910100406,17.76,17.763,17.759,17.761
201910100407,17.761,17.762,17.759,17.761
201910100408,17.761,17.761,17.755,17.755
201910100409,17.755,17.756,17.754,17.754
201910100410,17.754,17.755,17.752,17.754
201910100411,17.754,17.755,17.754,17.754
201910100412,17.753,17.753,17.75,17.75
201910100413,17.751,17.754,17.75,17.752
201910100414,17.752,17.76,17.752,17.76
201910100415,17.76,17.762,17.76,17.76
201910100416,17.76,17.766,17.76,17.766
201910100417,17.766,17.766,17.763,17.765
201910100418,17.765,17.765,17.759,17.759
201910100419,17.76,17.76,17.754,17.754
201910100420,17.754,17.759,17.751,17.758
201910100421,17.758,17.761,17.756,17.76
201910100422,17.76,17.763,17.758,17.759
201910100423,17.759,17.759,17.752,17.752
201910100424,17.753,17.762,17.752,17.762
201910100425,17.762,17.762,17.756,17.759
201910100426,17.76,17.76,17.756,17.759
201910100427,17.759,17.759,17.753,17.758
201910100428,17.756,17.756,17.754,17.755
201910100429,17.755,17.76,17.755,17.759
201910100430,17.759,17.759,17.751,17.754
201910100431,17.753,17.755,17.75,17.755
201910100432,17.754,17.754,17.751,17.752
201910100433,17.752,17.754,17.747,17.747
201910100434,17.747,17.747,17.74,17.74
201910100435,17.74,17.742,17.74,17.74
201910100436,17.74,17.744,17.739,17.739
201910100437,17.739,17.742,17.739,17.74
201910100438,17.74,17.75,17.74,17.747
201910100439,17.747,17.748,17.744,17.746
201910100440,17.746,17.749,17.745,17.745
201910100441,17.745,17.746,17.743,17.744
201910100442,17.744,17.746,17.74,17.74
201910100443,17.74,17.82,17.738,17.768
201910100444,17.763,17.791,17.752,17.79
201910100445,17.789,17.793,17.755,17.761
201910100446,17.761,17.775,17.756,17.765
201910100447,17.766,17.766,17.747,17.747
201910100448,17.747,17.756,17.745,17.745
201910100449,17.745,17.745,17.731,17.739
201910100450,17.74,17.74,17.724,17.724
201910100451,17.724,17.735,17.723,17.733
201910100452,17.733,17.738,17.725,17.733
201910100453,17.732,17.739,17.732,17.739
201910100454,17.739,17.739,17.72,17.721
201910100455,17.721,17.732,17.709,17.729
201910100456,17.73,17.736,17.73,17.736
201910100457,17.736,17.76,17.736,17.748
201910100458,17.748,17.752,17.742,17.746
201910100459,17.746,17.762,17.746,17.755
201910100500,17.756,17.761,17.755,17.757
201910100501,17.757,17.757,17.747,17.751
201910100502,17.751,17.752,17.749,17.749
201910100503,17.747,17.747,17.743,17.745
201910100504,17.746,17.751,17.746,17.751
201910100505,17.751,17.751,17.746,17.749
201910100506,17.749,17.751,17.749,17.75
201910100507,17.75,17.759,17.75,17.754
201910100508,17.754,17.76,17.754,17.754
201910100509,17.754,17.754,17.754,17.754
201910100510,17.754,17.756,17.754,17.755
201910100511,17.755,17.761,17.755,17.76
201910100512,17.76,17.76,17.758,17.76
201910100513,17.76,17.762,17.759,17.759
201910100514,17.76,17.764,17.759,17.763
201910100515,17.763,17.763,17.761,17.761
201910100516,17.761,17.761,17.756,17.76
201910100517,17.76,17.76,17.76,17.76
201910100518,17.76,17.76,17.752,17.752
201910100519,17.752,17.76,17.752,17.759
201910100520,17.758,17.758,17.753,17.755
201910100521,17.755,17.755,17.753,17.753
201910100522,17.755,17.755,17.754,17.754
201910100523,17.754,17.755,17.754,17.755
201910100524,17.755,17.755,17.751,17.754
201910100525,17.754,17.755,17.749,17.755
201910100526,17.757,17.757,17.75,17.75
201910100527,17.75,17.751,17.747,17.751
201910100528,17.751,17.752,17.745,17.745
201910100529,17.745,17.745,17.742,17.742
201910100530,17.742,17.745,17.74,17.74
201910100531,17.74,17.745,17.74,17.745
201910100532,17.745,17.747,17.745,17.746
201910100533,17.746,17.747,17.743,17.745
201910100534,17.745,17.746,17.742,17.746
201910100535,17.746,17.746,17.735,17.735
201910100536,17.735,17.741,17.728,17.73
201910100537,17.73,17.736,17.73,17.736
201910100538,17.736,17.737,17.736,17.736
201910100539,17.736,17.738,17.735,17.735
201910100540,17.735,17.737,17.731,17.731
201910100541,17.731,17.735,17.725,17.729
201910100542,17.726,17.74,17.726,17.735
201910100543,17.735,17.742,17.735,17.74
201910100544,17.74,17.742,17.74,17.74
201910100545,17.739,17.739,17.735,17.736
201910100546,17.736,17.741,17.736,17.739
201910100547,17.739,17.742,17.739,17.74
201910100548,17.74,17.743,17.74,17.74
201910100549,17.739,17.742,17.735,17.735
201910100550,17.735,17.735,17.725,17.725
201910100551,17.725,17.727,17.715,17.715
201910100552,17.715,17.722,17.715,17.72
201910100553,17.72,17.722,17.72,17.72
201910100554,17.72,17.725,17.72,17.725
201910100555,17.721,17.727,17.721,17.725
201910100556,17.725,17.729,17.725,17.729
201910100557,17.729,17.733,17.728,17.728
201910100558,17.728,17.731,17.728,17.728
201910100559,17.731,17.731,17.724,17.724
