日時,始値(BID),高値(BID),安値(BID),終値(BID)
201910170700,17.387,17.395,17.387,17.395
201910170701,17.396,17.398,17.392,17.392
201910170702,17.392,17.395,17.392,17.395
201910170703,17.395,17.399,17.395,17.399
201910170704,17.399,17.402,17.399,17.401
201910170705,17.401,17.402,17.4,17.402
201910170706,17.401,17.402,17.398,17.401
201910170707,17.401,17.401,17.401,17.401
201910170708,17.398,17.401,17.398,17.399
201910170709,17.399,17.4,17.396,17.4
201910170710,17.4,17.401,17.397,17.4
201910170711,17.4,17.401,17.397,17.401
201910170712,17.401,17.401,17.4,17.401
201910170713,17.401,17.402,17.401,17.401
201910170714,17.401,17.402,17.4,17.4
201910170715,17.4,17.4,17.399,17.4
201910170716,17.4,17.4,17.398,17.398
201910170717,17.398,17.4,17.397,17.399
201910170718,17.399,17.399,17.395,17.395
201910170719,17.395,17.396,17.395,17.396
201910170720,17.396,17.396,17.395,17.395
201910170721,17.395,17.396,17.393,17.395
201910170722,17.395,17.397,17.395,17.397
201910170723,17.397,17.399,17.394,17.394
201910170724,17.395,17.395,17.392,17.393
201910170725,17.393,17.396,17.392,17.395
201910170726,17.395,17.396,17.395,17.395
201910170727,17.395,17.396,17.395,17.396
201910170728,17.397,17.397,17.393,17.393
201910170729,17.393,17.393,17.393,17.393
201910170730,17.393,17.396,17.392,17.393
201910170731,17.393,17.397,17.393,17.397
201910170732,17.397,17.397,17.393,17.394
201910170733,17.394,17.396,17.393,17.395
201910170734,17.395,17.397,17.395,17.396
201910170735,17.396,17.396,17.395,17.395
201910170736,17.395,17.399,17.394,17.399
201910170737,17.399,17.399,17.396,17.396
201910170738,17.396,17.396,17.395,17.396
201910170739,17.396,17.397,17.393,17.396
201910170740,17.396,17.4,17.396,17.399
201910170741,17.399,17.399,17.396,17.397
201910170742,17.397,17.397,17.396,17.397
201910170743,17.397,17.397,17.396,17.397
201910170744,17.397,17.397,17.396,17.397
201910170745,17.397,17.397,17.395,17.396
201910170746,17.396,17.397,17.395,17.395
201910170747,17.396,17.396,17.393,17.395
201910170748,17.395,17.396,17.395,17.396
201910170749,17.396,17.396,17.393,17.395
201910170750,17.395,17.397,17.394,17.396
201910170751,17.396,17.397,17.395,17.397
201910170752,17.396,17.401,17.396,17.4
201910170753,17.401,17.401,17.396,17.396
201910170754,17.396,17.397,17.395,17.396
201910170755,17.396,17.397,17.394,17.395
201910170756,17.395,17.397,17.395,17.397
201910170757,17.397,17.402,17.397,17.402
201910170758,17.402,17.402,17.401,17.401
201910170759,17.401,17.401,17.399,17.401
201910170800,17.401,17.401,17.396,17.397
201910170801,17.397,17.397,17.396,17.397
201910170802,17.397,17.398,17.396,17.397
201910170803,17.397,17.397,17.396,17.397
201910170804,17.397,17.397,17.396,17.397
201910170805,17.397,17.397,17.396,17.396
201910170806,17.396,17.397,17.396,17.397
201910170807,17.397,17.397,17.395,17.395
201910170808,17.395,17.396,17.394,17.396
201910170809,17.395,17.398,17.395,17.398
201910170810,17.398,17.398,17.396,17.396
201910170811,17.396,17.397,17.396,17.396
201910170812,17.396,17.398,17.396,17.397
201910170813,17.397,17.398,17.396,17.398
201910170814,17.398,17.398,17.396,17.396
201910170815,17.396,17.397,17.396,17.396
201910170816,17.396,17.398,17.396,17.398
201910170817,17.398,17.398,17.396,17.397
201910170818,17.397,17.398,17.397,17.397
201910170819,17.397,17.402,17.396,17.402
201910170820,17.402,17.402,17.4,17.402
201910170821,17.402,17.402,17.401,17.402
201910170822,17.402,17.402,17.401,17.402
201910170823,17.402,17.402,17.399,17.399
201910170824,17.399,17.399,17.397,17.398
201910170825,17.398,17.398,17.398,17.398
201910170826,17.398,17.398,17.398,17.398
201910170827,17.398,17.402,17.397,17.402
201910170828,17.402,17.407,17.401,17.407
201910170829,17.407,17.407,17.403,17.403
201910170830,17.404,17.404,17.402,17.402
201910170831,17.402,17.403,17.4,17.403
201910170832,17.403,17.407,17.402,17.407
201910170833,17.407,17.407,17.401,17.401
201910170834,17.402,17.404,17.401,17.403
201910170835,17.403,17.404,17.402,17.403
201910170836,17.403,17.408,17.402,17.406
201910170837,17.407,17.408,17.405,17.407
201910170838,17.407,17.407,17.403,17.403
201910170839,17.403,17.404,17.4,17.404
201910170840,17.404,17.406,17.403,17.404
201910170841,17.404,17.404,17.403,17.404
201910170842,17.404,17.405,17.401,17.404
201910170843,17.404,17.404,17.398,17.398
201910170844,17.398,17.399,17.396,17.398
201910170845,17.398,17.398,17.394,17.397
201910170846,17.396,17.398,17.395,17.398
201910170847,17.398,17.399,17.398,17.399
201910170848,17.399,17.4,17.394,17.396
201910170849,17.395,17.398,17.393,17.398
201910170850,17.398,17.398,17.395,17.398
201910170851,17.398,17.399,17.395,17.399
201910170852,17.399,17.399,17.396,17.396
201910170853,17.396,17.399,17.396,17.399
201910170854,17.398,17.399,17.395,17.395
201910170855,17.395,17.395,17.394,17.394
201910170856,17.395,17.395,17.393,17.394
201910170857,17.394,17.394,17.393,17.394
201910170858,17.394,17.394,17.393,17.394
201910170859,17.393,17.397,17.393,17.397
201910170900,17.397,17.403,17.396,17.398
201910170901,17.398,17.398,17.383,17.383
201910170902,17.383,17.384,17.382,17.383
201910170903,17.382,17.384,17.382,17.383
201910170904,17.383,17.387,17.378,17.379
201910170905,17.379,17.379,17.373,17.379
201910170906,17.379,17.379,17.377,17.377
201910170907,17.377,17.378,17.375,17.376
201910170908,17.376,17.379,17.374,17.378
201910170909,17.378,17.378,17.374,17.374
201910170910,17.374,17.374,17.368,17.369
201910170911,17.369,17.373,17.369,17.369
201910170912,17.369,17.374,17.369,17.373
201910170913,17.369,17.371,17.368,17.368
201910170914,17.368,17.369,17.367,17.368
201910170915,17.368,17.37,17.367,17.369
201910170916,17.369,17.373,17.369,17.369
201910170917,17.369,17.373,17.368,17.373
201910170918,17.373,17.376,17.372,17.375
201910170919,17.375,17.376,17.374,17.374
201910170920,17.375,17.38,17.375,17.379
201910170921,17.379,17.38,17.378,17.379
201910170922,17.38,17.38,17.379,17.379
201910170923,17.379,17.379,17.378,17.379
201910170924,17.378,17.379,17.374,17.378
201910170925,17.378,17.378,17.375,17.376
201910170926,17.376,17.376,17.374,17.374
201910170927,17.374,17.377,17.374,17.377
201910170928,17.377,17.377,17.373,17.377
201910170929,17.377,17.378,17.373,17.378
201910170930,17.378,17.382,17.373,17.374
201910170931,17.374,17.377,17.372,17.376
201910170932,17.376,17.378,17.375,17.377
201910170933,17.377,17.378,17.375,17.375
201910170934,17.377,17.379,17.375,17.379
201910170935,17.379,17.384,17.379,17.384
201910170936,17.384,17.384,17.378,17.384
201910170937,17.384,17.385,17.383,17.384
201910170938,17.384,17.386,17.382,17.386
201910170939,17.386,17.386,17.383,17.385
201910170940,17.385,17.388,17.385,17.388
201910170941,17.388,17.393,17.388,17.393
201910170942,17.393,17.393,17.387,17.387
201910170943,17.387,17.388,17.386,17.387
201910170944,17.387,17.415,17.387,17.414
201910170945,17.416,17.423,17.413,17.416
201910170946,17.416,17.422,17.415,17.421
201910170947,17.422,17.422,17.413,17.415
201910170948,17.415,17.419,17.413,17.419
201910170949,17.419,17.42,17.413,17.414
201910170950,17.414,17.414,17.409,17.411
201910170951,17.411,17.415,17.41,17.415
201910170952,17.415,17.415,17.409,17.412
201910170953,17.412,17.413,17.409,17.411
201910170954,17.411,17.414,17.41,17.413
201910170955,17.413,17.417,17.409,17.41
201910170956,17.409,17.414,17.407,17.41
201910170957,17.412,17.414,17.41,17.411
201910170958,17.412,17.412,17.4,17.404
201910170959,17.404,17.404,17.398,17.4
201910171000,17.4,17.409,17.397,17.404
201910171001,17.404,17.404,17.394,17.395
201910171002,17.395,17.398,17.387,17.388
201910171003,17.388,17.388,17.374,17.375
201910171004,17.375,17.377,17.359,17.36
201910171005,17.361,17.363,17.353,17.353
201910171006,17.353,17.358,17.352,17.357
201910171007,17.357,17.361,17.356,17.358
201910171008,17.358,17.361,17.354,17.355
201910171009,17.355,17.355,17.344,17.353
201910171010,17.355,17.357,17.345,17.35
201910171011,17.35,17.357,17.348,17.351
201910171012,17.351,17.36,17.351,17.358
201910171013,17.357,17.365,17.357,17.362
201910171014,17.362,17.362,17.354,17.355
201910171015,17.354,17.355,17.337,17.337
201910171016,17.337,17.342,17.336,17.339
201910171017,17.339,17.34,17.336,17.339
201910171018,17.339,17.34,17.333,17.338
201910171019,17.338,17.339,17.334,17.334
201910171020,17.335,17.345,17.335,17.342
201910171021,17.342,17.344,17.341,17.342
201910171022,17.342,17.343,17.338,17.339
201910171023,17.339,17.35,17.338,17.346
201910171024,17.345,17.346,17.34,17.346
201910171025,17.346,17.35,17.343,17.346
201910171026,17.346,17.352,17.346,17.351
201910171027,17.351,17.354,17.351,17.351
201910171028,17.351,17.354,17.351,17.353
201910171029,17.353,17.357,17.353,17.356
201910171030,17.356,17.36,17.356,17.357
201910171031,17.357,17.36,17.356,17.358
201910171032,17.358,17.358,17.35,17.354
201910171033,17.355,17.362,17.354,17.36
201910171034,17.36,17.364,17.36,17.363
201910171035,17.363,17.365,17.358,17.36
201910171036,17.36,17.36,17.354,17.354
201910171037,17.354,17.358,17.354,17.356
201910171038,17.356,17.358,17.354,17.354
201910171039,17.354,17.354,17.349,17.349
201910171040,17.349,17.352,17.346,17.351
201910171041,17.351,17.355,17.351,17.354
201910171042,17.354,17.354,17.349,17.349
201910171043,17.349,17.351,17.347,17.348
201910171044,17.348,17.352,17.347,17.352
201910171045,17.352,17.353,17.349,17.351
201910171046,17.351,17.355,17.35,17.352
201910171047,17.352,17.353,17.349,17.351
201910171048,17.351,17.355,17.351,17.353
201910171049,17.353,17.361,17.353,17.361
201910171050,17.361,17.364,17.359,17.363
201910171051,17.363,17.364,17.361,17.361
201910171052,17.361,17.368,17.361,17.363
201910171053,17.363,17.366,17.358,17.364
201910171054,17.364,17.366,17.362,17.363
201910171055,17.363,17.365,17.362,17.363
201910171056,17.362,17.364,17.359,17.36
201910171057,17.36,17.36,17.355,17.359
201910171058,17.359,17.359,17.354,17.354
201910171059,17.354,17.354,17.35,17.353
201910171100,17.353,17.353,17.351,17.353
201910171101,17.353,17.354,17.341,17.342
201910171102,17.341,17.344,17.34,17.342
201910171103,17.342,17.343,17.34,17.341
201910171104,17.341,17.341,17.34,17.341
201910171105,17.341,17.341,17.333,17.336
201910171106,17.336,17.339,17.335,17.339
201910171107,17.339,17.34,17.329,17.329
201910171108,17.329,17.334,17.329,17.332
201910171109,17.332,17.332,17.331,17.332
201910171110,17.331,17.34,17.331,17.34
201910171111,17.34,17.34,17.335,17.336
201910171112,17.336,17.337,17.332,17.337
201910171113,17.337,17.339,17.337,17.337
201910171114,17.337,17.34,17.337,17.338
201910171115,17.338,17.342,17.338,17.34
201910171116,17.34,17.342,17.34,17.341
201910171117,17.341,17.342,17.34,17.342
201910171118,17.342,17.342,17.34,17.34
201910171119,17.34,17.341,17.34,17.34
201910171120,17.34,17.345,17.34,17.345
201910171121,17.345,17.345,17.344,17.345
201910171122,17.345,17.346,17.343,17.346
201910171123,17.345,17.348,17.345,17.347
201910171124,17.347,17.35,17.346,17.346
201910171125,17.346,17.347,17.345,17.345
201910171126,17.345,17.347,17.345,17.345
201910171127,17.345,17.347,17.343,17.345
201910171128,17.345,17.345,17.342,17.342
201910171129,17.342,17.345,17.342,17.345
201910171130,17.345,17.347,17.343,17.346
201910171131,17.346,17.347,17.344,17.345
201910171132,17.345,17.35,17.345,17.346
201910171133,17.347,17.35,17.346,17.347
201910171134,17.347,17.35,17.345,17.346
201910171135,17.346,17.347,17.343,17.346
201910171136,17.346,17.348,17.344,17.348
201910171137,17.348,17.348,17.338,17.34
201910171138,17.34,17.348,17.336,17.348
201910171139,17.348,17.351,17.347,17.348
201910171140,17.348,17.351,17.347,17.348
201910171141,17.348,17.349,17.344,17.346
201910171142,17.346,17.351,17.346,17.349
201910171143,17.349,17.351,17.349,17.351
201910171144,17.351,17.351,17.348,17.349
201910171145,17.349,17.354,17.349,17.353
201910171146,17.353,17.356,17.346,17.348
201910171147,17.348,17.348,17.344,17.346
201910171148,17.346,17.355,17.346,17.35
201910171149,17.35,17.351,17.35,17.35
201910171150,17.35,17.352,17.349,17.351
201910171151,17.351,17.353,17.351,17.352
201910171152,17.352,17.353,17.351,17.351
201910171153,17.351,17.351,17.349,17.351
201910171154,17.351,17.353,17.35,17.35
201910171155,17.349,17.35,17.343,17.346
201910171156,17.346,17.346,17.344,17.345
201910171157,17.345,17.347,17.345,17.345
201910171158,17.345,17.348,17.345,17.348
201910171159,17.345,17.345,17.34,17.342
201910171200,17.342,17.343,17.34,17.343
201910171201,17.343,17.345,17.343,17.343
201910171202,17.343,17.343,17.338,17.339
201910171203,17.338,17.338,17.336,17.336
201910171204,17.336,17.337,17.336,17.336
201910171205,17.336,17.34,17.336,17.338
201910171206,17.338,17.338,17.332,17.332
201910171207,17.332,17.335,17.332,17.332
201910171208,17.332,17.334,17.332,17.334
201910171209,17.334,17.334,17.331,17.332
201910171210,17.332,17.332,17.326,17.33
201910171211,17.33,17.33,17.326,17.328
201910171212,17.328,17.328,17.327,17.328
201910171213,17.328,17.33,17.326,17.33
201910171214,17.33,17.331,17.328,17.329
201910171215,17.328,17.331,17.328,17.331
201910171216,17.331,17.336,17.33,17.336
201910171217,17.336,17.341,17.336,17.341
201910171218,17.341,17.342,17.34,17.341
201910171219,17.341,17.342,17.341,17.342
201910171220,17.342,17.343,17.34,17.341
201910171221,17.341,17.342,17.34,17.341
201910171222,17.341,17.341,17.335,17.336
201910171223,17.336,17.34,17.336,17.34
201910171224,17.34,17.342,17.34,17.341
201910171225,17.341,17.344,17.341,17.341
201910171226,17.341,17.342,17.334,17.336
201910171227,17.336,17.341,17.336,17.34
201910171228,17.339,17.343,17.339,17.341
201910171229,17.341,17.344,17.341,17.342
201910171230,17.342,17.344,17.341,17.344
201910171231,17.344,17.346,17.342,17.346
201910171232,17.346,17.346,17.337,17.337
201910171233,17.337,17.34,17.337,17.338
201910171234,17.338,17.342,17.337,17.342
201910171235,17.342,17.342,17.34,17.341
201910171236,17.341,17.341,17.336,17.336
201910171237,17.336,17.336,17.336,17.336
201910171238,17.336,17.341,17.336,17.341
201910171239,17.341,17.342,17.341,17.342
201910171240,17.342,17.345,17.342,17.345
201910171241,17.345,17.348,17.345,17.347
201910171242,17.347,17.349,17.346,17.346
201910171243,17.346,17.347,17.344,17.346
201910171244,17.347,17.347,17.346,17.346
201910171245,17.344,17.348,17.343,17.346
201910171246,17.346,17.348,17.345,17.348
201910171247,17.349,17.349,17.348,17.349
201910171248,17.349,17.35,17.349,17.35
201910171249,17.35,17.351,17.35,17.351
201910171250,17.351,17.351,17.347,17.349
201910171251,17.349,17.351,17.349,17.351
201910171252,17.351,17.354,17.351,17.353
201910171253,17.353,17.354,17.352,17.352
201910171254,17.352,17.354,17.351,17.352
201910171255,17.351,17.352,17.348,17.349
201910171256,17.349,17.349,17.349,17.349
201910171257,17.349,17.349,17.344,17.345
201910171258,17.345,17.348,17.344,17.346
201910171259,17.346,17.346,17.343,17.343
201910171300,17.343,17.344,17.341,17.344
201910171301,17.344,17.344,17.343,17.344
201910171302,17.344,17.344,17.342,17.342
201910171303,17.342,17.344,17.34,17.343
201910171304,17.343,17.343,17.342,17.343
201910171305,17.343,17.345,17.343,17.344
201910171306,17.344,17.346,17.342,17.343
201910171307,17.343,17.343,17.341,17.343
201910171308,17.343,17.343,17.341,17.343
201910171309,17.343,17.344,17.341,17.342
201910171310,17.342,17.344,17.341,17.343
201910171311,17.343,17.344,17.341,17.343
201910171312,17.343,17.345,17.343,17.344
201910171313,17.343,17.346,17.343,17.345
201910171314,17.345,17.345,17.343,17.345
201910171315,17.345,17.346,17.343,17.343
201910171316,17.343,17.345,17.343,17.345
201910171317,17.345,17.346,17.345,17.346
201910171318,17.345,17.345,17.337,17.337
201910171319,17.337,17.338,17.332,17.332
201910171320,17.332,17.334,17.332,17.333
201910171321,17.333,17.333,17.331,17.331
201910171322,17.331,17.333,17.331,17.333
201910171323,17.333,17.335,17.332,17.332
201910171324,17.332,17.332,17.332,17.332
201910171325,17.332,17.333,17.331,17.331
201910171326,17.332,17.332,17.331,17.331
201910171327,17.331,17.331,17.329,17.331
201910171328,17.331,17.331,17.33,17.331
201910171329,17.331,17.332,17.331,17.331
201910171330,17.331,17.333,17.33,17.333
201910171331,17.332,17.333,17.328,17.328
201910171332,17.328,17.328,17.326,17.326
201910171333,17.326,17.327,17.326,17.326
201910171334,17.326,17.326,17.323,17.323
201910171335,17.323,17.328,17.323,17.326
201910171336,17.326,17.328,17.325,17.328
201910171337,17.328,17.328,17.326,17.328
201910171338,17.328,17.328,17.326,17.326
201910171339,17.326,17.326,17.325,17.326
201910171340,17.326,17.327,17.325,17.325
201910171341,17.325,17.327,17.325,17.325
201910171342,17.325,17.327,17.325,17.326
201910171343,17.326,17.326,17.326,17.326
201910171344,17.326,17.326,17.324,17.326
201910171345,17.326,17.326,17.324,17.326
201910171346,17.326,17.326,17.325,17.326
201910171347,17.326,17.328,17.326,17.328
201910171348,17.328,17.329,17.326,17.328
201910171349,17.328,17.329,17.326,17.328
201910171350,17.328,17.328,17.327,17.327
201910171351,17.327,17.327,17.322,17.325
201910171352,17.325,17.326,17.324,17.324
201910171353,17.324,17.326,17.324,17.326
201910171354,17.326,17.327,17.325,17.326
201910171355,17.326,17.327,17.325,17.325
201910171356,17.325,17.325,17.323,17.323
201910171357,17.323,17.325,17.323,17.325
201910171358,17.324,17.326,17.323,17.323
201910171359,17.323,17.325,17.317,17.318
201910171400,17.318,17.318,17.315,17.315
201910171401,17.315,17.317,17.315,17.316
201910171402,17.316,17.316,17.313,17.313
201910171403,17.312,17.312,17.311,17.311
201910171404,17.311,17.316,17.311,17.315
201910171405,17.315,17.315,17.313,17.315
201910171406,17.314,17.315,17.312,17.312
201910171407,17.312,17.312,17.311,17.312
201910171408,17.312,17.314,17.311,17.313
201910171409,17.313,17.32,17.313,17.32
201910171410,17.32,17.321,17.32,17.321
201910171411,17.321,17.322,17.32,17.32
201910171412,17.32,17.321,17.317,17.317
201910171413,17.317,17.317,17.312,17.312
201910171414,17.312,17.316,17.312,17.315
201910171415,17.315,17.316,17.314,17.316
201910171416,17.316,17.316,17.316,17.316
201910171417,17.316,17.317,17.313,17.315
201910171418,17.315,17.315,17.311,17.312
201910171419,17.312,17.312,17.309,17.309
201910171420,17.31,17.312,17.31,17.31
201910171421,17.31,17.315,17.31,17.315
201910171422,17.315,17.316,17.315,17.315
201910171423,17.315,17.316,17.315,17.316
201910171424,17.316,17.325,17.315,17.325
201910171425,17.325,17.325,17.321,17.321
201910171426,17.321,17.324,17.321,17.322
201910171427,17.322,17.324,17.321,17.324
201910171428,17.324,17.324,17.321,17.321
201910171429,17.321,17.322,17.321,17.322
201910171430,17.322,17.334,17.321,17.332
201910171431,17.332,17.336,17.332,17.336
201910171432,17.336,17.34,17.336,17.34
201910171433,17.34,17.34,17.334,17.336
201910171434,17.336,17.338,17.334,17.336
201910171435,17.336,17.336,17.328,17.329
201910171436,17.33,17.334,17.328,17.334
201910171437,17.334,17.336,17.332,17.336
201910171438,17.336,17.339,17.335,17.337
201910171439,17.337,17.346,17.337,17.345
201910171440,17.346,17.353,17.346,17.353
201910171441,17.353,17.357,17.352,17.355
201910171442,17.355,17.366,17.355,17.366
201910171443,17.366,17.369,17.362,17.363
201910171444,17.363,17.366,17.359,17.365
201910171445,17.365,17.366,17.361,17.362
201910171446,17.362,17.374,17.362,17.374
201910171447,17.374,17.378,17.373,17.378
201910171448,17.377,17.384,17.374,17.378
201910171449,17.38,17.387,17.379,17.385
201910171450,17.385,17.392,17.38,17.381
201910171451,17.381,17.386,17.381,17.383
201910171452,17.382,17.383,17.373,17.378
201910171453,17.378,17.383,17.376,17.378
201910171454,17.378,17.38,17.376,17.377
201910171455,17.377,17.378,17.375,17.378
201910171456,17.378,17.383,17.378,17.379
201910171457,17.379,17.383,17.378,17.38
201910171458,17.38,17.386,17.38,17.386
201910171459,17.386,17.386,17.382,17.382
201910171500,17.382,17.386,17.382,17.382
201910171501,17.382,17.383,17.376,17.377
201910171502,17.377,17.379,17.372,17.378
201910171503,17.378,17.378,17.369,17.369
201910171504,17.369,17.379,17.369,17.377
201910171505,17.377,17.385,17.376,17.383
201910171506,17.383,17.385,17.379,17.381
201910171507,17.381,17.386,17.38,17.386
201910171508,17.386,17.386,17.378,17.378
201910171509,17.378,17.379,17.375,17.378
201910171510,17.378,17.378,17.371,17.371
201910171511,17.371,17.374,17.368,17.374
201910171512,17.374,17.375,17.373,17.374
201910171513,17.373,17.378,17.373,17.377
201910171514,17.377,17.378,17.374,17.375
201910171515,17.376,17.378,17.372,17.372
201910171516,17.372,17.378,17.372,17.378
201910171517,17.378,17.382,17.378,17.382
201910171518,17.382,17.395,17.382,17.395
201910171519,17.395,17.406,17.395,17.404
201910171520,17.404,17.422,17.401,17.422
201910171521,17.422,17.434,17.418,17.424
201910171522,17.424,17.424,17.417,17.417
201910171523,17.417,17.433,17.417,17.43
201910171524,17.43,17.432,17.424,17.431
201910171525,17.431,17.434,17.428,17.429
201910171526,17.43,17.43,17.424,17.426
201910171527,17.426,17.43,17.426,17.426
201910171528,17.426,17.43,17.425,17.427
201910171529,17.427,17.427,17.419,17.419
201910171530,17.419,17.426,17.419,17.42
201910171531,17.42,17.425,17.417,17.422
201910171532,17.422,17.426,17.419,17.425
201910171533,17.425,17.436,17.425,17.436
201910171534,17.436,17.442,17.435,17.441
201910171535,17.441,17.442,17.429,17.434
201910171536,17.434,17.44,17.432,17.439
201910171537,17.439,17.441,17.426,17.426
201910171538,17.427,17.43,17.422,17.422
201910171539,17.422,17.435,17.421,17.426
201910171540,17.426,17.43,17.424,17.428
201910171541,17.428,17.429,17.416,17.417
201910171542,17.417,17.418,17.413,17.418
201910171543,17.418,17.419,17.409,17.41
201910171544,17.41,17.411,17.402,17.408
201910171545,17.408,17.417,17.408,17.417
201910171546,17.417,17.417,17.404,17.406
201910171547,17.406,17.407,17.4,17.401
201910171548,17.401,17.405,17.392,17.395
201910171549,17.395,17.403,17.395,17.398
201910171550,17.398,17.401,17.396,17.401
201910171551,17.4,17.403,17.397,17.401
201910171552,17.401,17.404,17.4,17.402
201910171553,17.401,17.402,17.4,17.401
201910171554,17.401,17.406,17.401,17.404
201910171555,17.404,17.409,17.4,17.407
201910171556,17.407,17.414,17.407,17.411
201910171557,17.411,17.42,17.411,17.419
201910171558,17.419,17.421,17.416,17.416
201910171559,17.416,17.419,17.413,17.414
201910171600,17.414,17.418,17.405,17.406
201910171601,17.406,17.409,17.402,17.409
201910171602,17.409,17.417,17.409,17.417
201910171603,17.417,17.417,17.413,17.415
201910171604,17.415,17.415,17.406,17.406
201910171605,17.406,17.415,17.405,17.41
201910171606,17.41,17.412,17.408,17.411
201910171607,17.411,17.413,17.409,17.412
201910171608,17.412,17.416,17.412,17.415
201910171609,17.416,17.416,17.394,17.396
201910171610,17.396,17.406,17.395,17.406
201910171611,17.406,17.409,17.402,17.409
201910171612,17.409,17.416,17.409,17.415
201910171613,17.415,17.416,17.412,17.412
201910171614,17.412,17.412,17.402,17.406
201910171615,17.406,17.407,17.404,17.406
201910171616,17.406,17.413,17.406,17.412
201910171617,17.411,17.416,17.411,17.413
201910171618,17.413,17.416,17.41,17.416
201910171619,17.416,17.416,17.414,17.416
201910171620,17.416,17.416,17.415,17.415
201910171621,17.415,17.416,17.41,17.41
201910171622,17.41,17.411,17.41,17.41
201910171623,17.41,17.418,17.41,17.417
201910171624,17.417,17.418,17.415,17.415
201910171625,17.415,17.419,17.415,17.417
201910171626,17.416,17.419,17.413,17.416
201910171627,17.416,17.421,17.415,17.421
201910171628,17.421,17.426,17.421,17.421
201910171629,17.421,17.421,17.415,17.415
201910171630,17.415,17.417,17.413,17.413
201910171631,17.413,17.418,17.411,17.417
201910171632,17.417,17.418,17.416,17.418
201910171633,17.42,17.424,17.42,17.421
201910171634,17.421,17.429,17.421,17.429
201910171635,17.429,17.43,17.426,17.427
201910171636,17.427,17.431,17.427,17.43
201910171637,17.43,17.431,17.43,17.43
201910171638,17.43,17.432,17.426,17.431
201910171639,17.431,17.432,17.427,17.428
201910171640,17.428,17.447,17.426,17.447
201910171641,17.446,17.449,17.446,17.447
201910171642,17.448,17.454,17.447,17.448
201910171643,17.448,17.448,17.429,17.43
201910171644,17.43,17.432,17.423,17.425
201910171645,17.425,17.431,17.425,17.43
201910171646,17.43,17.436,17.429,17.429
201910171647,17.429,17.429,17.426,17.426
201910171648,17.426,17.426,17.414,17.414
201910171649,17.414,17.416,17.409,17.414
201910171650,17.415,17.419,17.412,17.412
201910171651,17.414,17.419,17.404,17.416
201910171652,17.416,17.416,17.407,17.407
201910171653,17.409,17.421,17.409,17.421
201910171654,17.421,17.427,17.419,17.424
201910171655,17.422,17.422,17.409,17.41
201910171656,17.41,17.41,17.398,17.4
201910171657,17.399,17.401,17.394,17.399
201910171658,17.399,17.399,17.387,17.391
201910171659,17.391,17.401,17.39,17.399
201910171700,17.4,17.407,17.394,17.406
201910171701,17.409,17.415,17.408,17.41
201910171702,17.41,17.411,17.403,17.404
201910171703,17.405,17.41,17.401,17.409
201910171704,17.409,17.423,17.409,17.423
201910171705,17.423,17.424,17.419,17.424
201910171706,17.424,17.427,17.422,17.424
201910171707,17.424,17.43,17.424,17.428
201910171708,17.429,17.43,17.425,17.426
201910171709,17.426,17.428,17.422,17.424
201910171710,17.424,17.429,17.423,17.428
201910171711,17.428,17.429,17.428,17.429
201910171712,17.429,17.434,17.429,17.433
201910171713,17.433,17.437,17.43,17.433
201910171714,17.433,17.435,17.429,17.429
201910171715,17.429,17.434,17.429,17.434
201910171716,17.434,17.435,17.429,17.429
201910171717,17.429,17.434,17.429,17.431
201910171718,17.43,17.43,17.425,17.429
201910171719,17.429,17.43,17.428,17.429
201910171720,17.429,17.429,17.428,17.429
201910171721,17.429,17.429,17.428,17.429
201910171722,17.429,17.429,17.425,17.429
201910171723,17.429,17.433,17.429,17.433
201910171724,17.433,17.434,17.43,17.433
201910171725,17.433,17.434,17.433,17.433
201910171726,17.433,17.434,17.433,17.433
201910171727,17.433,17.433,17.433,17.433
201910171728,17.433,17.434,17.433,17.433
201910171729,17.433,17.434,17.428,17.429
201910171730,17.429,17.429,17.424,17.428
201910171731,17.428,17.436,17.428,17.435
201910171732,17.436,17.439,17.436,17.438
201910171733,17.438,17.443,17.438,17.443
201910171734,17.443,17.449,17.443,17.448
201910171735,17.448,17.463,17.448,17.461
201910171736,17.461,17.461,17.458,17.459
201910171737,17.459,17.464,17.458,17.459
201910171738,17.459,17.459,17.444,17.444
201910171739,17.444,17.444,17.42,17.435
201910171740,17.436,17.44,17.433,17.44
201910171741,17.438,17.448,17.438,17.444
201910171742,17.444,17.444,17.431,17.431
201910171743,17.431,17.444,17.431,17.439
201910171744,17.442,17.455,17.442,17.454
201910171745,17.454,17.454,17.436,17.44
201910171746,17.44,17.448,17.435,17.445
201910171747,17.445,17.445,17.44,17.441
201910171748,17.441,17.446,17.438,17.439
201910171749,17.439,17.442,17.435,17.436
201910171750,17.436,17.45,17.436,17.446
201910171751,17.446,17.448,17.442,17.448
201910171752,17.448,17.452,17.445,17.445
201910171753,17.446,17.453,17.441,17.452
201910171754,17.453,17.455,17.45,17.451
201910171755,17.454,17.455,17.45,17.451
201910171756,17.451,17.456,17.449,17.455
201910171757,17.455,17.455,17.451,17.455
201910171758,17.455,17.455,17.454,17.454
201910171759,17.454,17.455,17.45,17.45
201910171800,17.45,17.45,17.442,17.445
201910171801,17.447,17.45,17.445,17.446
201910171802,17.447,17.448,17.444,17.448
201910171803,17.448,17.451,17.445,17.448
201910171804,17.448,17.449,17.446,17.446
201910171805,17.446,17.447,17.442,17.445
201910171806,17.445,17.446,17.445,17.445
201910171807,17.445,17.445,17.444,17.445
201910171808,17.445,17.449,17.444,17.449
201910171809,17.449,17.456,17.448,17.455
201910171810,17.456,17.456,17.449,17.449
201910171811,17.449,17.45,17.449,17.449
201910171812,17.449,17.451,17.449,17.451
201910171813,17.451,17.456,17.45,17.454
201910171814,17.454,17.456,17.449,17.449
201910171815,17.449,17.451,17.445,17.451
201910171816,17.451,17.453,17.448,17.45
201910171817,17.45,17.461,17.45,17.46
201910171818,17.459,17.459,17.454,17.454
201910171819,17.455,17.458,17.454,17.456
201910171820,17.456,17.461,17.454,17.461
201910171821,17.461,17.461,17.459,17.459
201910171822,17.459,17.46,17.459,17.46
201910171823,17.46,17.461,17.459,17.46
201910171824,17.46,17.462,17.459,17.459
201910171825,17.459,17.46,17.449,17.449
201910171826,17.45,17.45,17.438,17.444
201910171827,17.445,17.446,17.44,17.44
201910171828,17.436,17.439,17.429,17.433
201910171829,17.433,17.433,17.429,17.432
201910171830,17.432,17.445,17.43,17.435
201910171831,17.436,17.436,17.416,17.416
201910171832,17.416,17.416,17.401,17.405
201910171833,17.406,17.413,17.399,17.409
201910171834,17.407,17.409,17.401,17.409
201910171835,17.41,17.41,17.401,17.404
201910171836,17.404,17.412,17.399,17.41
201910171837,17.41,17.41,17.4,17.401
201910171838,17.403,17.406,17.388,17.398
201910171839,17.398,17.435,17.398,17.431
201910171840,17.431,17.432,17.414,17.416
201910171841,17.416,17.42,17.403,17.41
201910171842,17.411,17.415,17.406,17.408
201910171843,17.41,17.421,17.407,17.419
201910171844,17.42,17.43,17.419,17.428
201910171845,17.428,17.429,17.422,17.424
201910171846,17.424,17.424,17.408,17.416
201910171847,17.416,17.419,17.416,17.418
201910171848,17.418,17.42,17.409,17.418
201910171849,17.418,17.421,17.416,17.42
201910171850,17.42,17.42,17.412,17.418
201910171851,17.418,17.418,17.413,17.413
201910171852,17.413,17.415,17.401,17.403
201910171853,17.403,17.405,17.398,17.398
201910171854,17.398,17.409,17.394,17.408
201910171855,17.408,17.417,17.406,17.413
201910171856,17.413,17.417,17.413,17.416
201910171857,17.416,17.42,17.416,17.418
201910171858,17.418,17.419,17.414,17.417
201910171859,17.417,17.429,17.416,17.427
201910171900,17.426,17.426,17.417,17.419
201910171901,17.419,17.419,17.414,17.415
201910171902,17.415,17.416,17.412,17.413
201910171903,17.414,17.42,17.414,17.419
201910171904,17.419,17.423,17.418,17.419
201910171905,17.419,17.42,17.414,17.415
201910171906,17.415,17.419,17.411,17.417
201910171907,17.416,17.417,17.408,17.41
201910171908,17.409,17.41,17.405,17.409
201910171909,17.409,17.419,17.408,17.419
201910171910,17.418,17.42,17.415,17.417
201910171911,17.419,17.419,17.406,17.406
201910171912,17.407,17.414,17.407,17.41
201910171913,17.411,17.415,17.411,17.412
201910171914,17.412,17.415,17.411,17.413
201910171915,17.413,17.414,17.412,17.413
201910171916,17.412,17.418,17.407,17.418
201910171917,17.418,17.422,17.417,17.422
201910171918,17.422,17.428,17.42,17.426
201910171919,17.426,17.428,17.425,17.427
201910171920,17.427,17.43,17.426,17.43
201910171921,17.429,17.431,17.429,17.43
201910171922,17.43,17.431,17.429,17.43
201910171923,17.43,17.43,17.424,17.43
201910171924,17.43,17.436,17.428,17.436
201910171925,17.435,17.435,17.428,17.429
201910171926,17.429,17.431,17.424,17.425
201910171927,17.425,17.426,17.421,17.421
201910171928,17.421,17.427,17.421,17.425
201910171929,17.425,17.426,17.423,17.424
201910171930,17.424,17.442,17.423,17.436
201910171931,17.436,17.444,17.435,17.436
201910171932,17.435,17.437,17.433,17.435
201910171933,17.435,17.439,17.434,17.436
201910171934,17.438,17.445,17.438,17.444
201910171935,17.444,17.45,17.441,17.444
201910171936,17.444,17.448,17.444,17.446
201910171937,17.446,17.449,17.445,17.445
201910171938,17.445,17.445,17.44,17.441
201910171939,17.441,17.441,17.44,17.44
201910171940,17.44,17.441,17.433,17.439
201910171941,17.44,17.441,17.436,17.436
201910171942,17.436,17.44,17.435,17.436
201910171943,17.436,17.439,17.434,17.435
201910171944,17.433,17.438,17.433,17.436
201910171945,17.436,17.439,17.436,17.439
201910171946,17.439,17.44,17.436,17.439
201910171947,17.439,17.443,17.436,17.441
201910171948,17.441,17.446,17.439,17.446
201910171949,17.446,17.452,17.446,17.448
201910171950,17.448,17.448,17.445,17.448
201910171951,17.448,17.454,17.448,17.451
201910171952,17.451,17.452,17.444,17.445
201910171953,17.445,17.45,17.444,17.45
201910171954,17.45,17.45,17.438,17.438
201910171955,17.438,17.445,17.438,17.445
201910171956,17.445,17.445,17.44,17.444
201910171957,17.444,17.447,17.436,17.44
201910171958,17.44,17.445,17.44,17.44
201910171959,17.44,17.445,17.44,17.444
201910172000,17.443,17.449,17.44,17.447
201910172001,17.447,17.45,17.442,17.445
201910172002,17.445,17.456,17.445,17.455
201910172003,17.455,17.455,17.452,17.453
201910172004,17.453,17.468,17.453,17.466
201910172005,17.466,17.524,17.466,17.523
201910172006,17.522,17.524,17.509,17.521
201910172007,17.522,17.523,17.504,17.506
201910172008,17.505,17.519,17.504,17.519
201910172009,17.519,17.521,17.513,17.514
201910172010,17.514,17.515,17.505,17.508
201910172011,17.508,17.514,17.507,17.511
201910172012,17.511,17.519,17.509,17.517
201910172013,17.517,17.521,17.515,17.519
201910172014,17.519,17.519,17.513,17.518
201910172015,17.518,17.522,17.508,17.51
201910172016,17.51,17.516,17.51,17.514
201910172017,17.514,17.514,17.508,17.512
201910172018,17.512,17.514,17.511,17.512
201910172019,17.512,17.521,17.512,17.517
201910172020,17.517,17.52,17.51,17.513
201910172021,17.513,17.532,17.513,17.523
201910172022,17.523,17.524,17.511,17.514
201910172023,17.515,17.517,17.507,17.514
201910172024,17.514,17.514,17.509,17.514
201910172025,17.514,17.518,17.509,17.517
201910172026,17.517,17.522,17.514,17.514
201910172027,17.514,17.515,17.504,17.504
201910172028,17.504,17.504,17.499,17.499
201910172029,17.499,17.499,17.489,17.495
201910172030,17.495,17.499,17.493,17.494
201910172031,17.494,17.505,17.488,17.505
201910172032,17.504,17.514,17.503,17.506
201910172033,17.506,17.506,17.496,17.497
201910172034,17.497,17.502,17.493,17.494
201910172035,17.494,17.494,17.488,17.492
201910172036,17.492,17.493,17.487,17.49
201910172037,17.49,17.499,17.489,17.497
201910172038,17.497,17.497,17.493,17.493
201910172039,17.493,17.495,17.492,17.494
201910172040,17.494,17.501,17.492,17.5
201910172041,17.5,17.504,17.499,17.501
201910172042,17.501,17.504,17.499,17.504
201910172043,17.504,17.504,17.498,17.501
201910172044,17.503,17.507,17.501,17.504
201910172045,17.504,17.515,17.503,17.507
201910172046,17.508,17.508,17.501,17.504
201910172047,17.504,17.511,17.504,17.511
201910172048,17.512,17.513,17.511,17.511
201910172049,17.511,17.511,17.503,17.505
201910172050,17.505,17.505,17.496,17.497
201910172051,17.499,17.499,17.491,17.491
201910172052,17.491,17.499,17.489,17.499
201910172053,17.499,17.504,17.494,17.504
201910172054,17.504,17.51,17.504,17.509
201910172055,17.51,17.511,17.5,17.507
201910172056,17.507,17.508,17.499,17.499
201910172057,17.5,17.501,17.494,17.494
201910172058,17.494,17.494,17.485,17.485
201910172059,17.485,17.496,17.478,17.496
201910172100,17.495,17.506,17.487,17.498
201910172101,17.498,17.505,17.492,17.499
201910172102,17.499,17.503,17.488,17.502
201910172103,17.503,17.504,17.493,17.5
201910172104,17.499,17.503,17.499,17.501
201910172105,17.501,17.509,17.501,17.506
201910172106,17.506,17.51,17.504,17.507
201910172107,17.507,17.516,17.507,17.512
201910172108,17.512,17.516,17.502,17.504
201910172109,17.505,17.51,17.504,17.504
201910172110,17.504,17.513,17.502,17.508
201910172111,17.508,17.51,17.505,17.508
201910172112,17.508,17.514,17.507,17.514
201910172113,17.514,17.516,17.511,17.513
201910172114,17.513,17.513,17.506,17.507
201910172115,17.507,17.508,17.497,17.502
201910172116,17.503,17.504,17.497,17.499
201910172117,17.499,17.508,17.496,17.5
201910172118,17.501,17.507,17.499,17.503
201910172119,17.504,17.508,17.503,17.508
201910172120,17.508,17.52,17.508,17.518
201910172121,17.518,17.533,17.518,17.529
201910172122,17.528,17.544,17.528,17.54
201910172123,17.54,17.555,17.54,17.55
201910172124,17.55,17.554,17.55,17.553
201910172125,17.553,17.583,17.553,17.577
201910172126,17.577,17.586,17.57,17.57
201910172127,17.567,17.583,17.567,17.57
201910172128,17.57,17.577,17.561,17.565
201910172129,17.562,17.579,17.561,17.567
201910172130,17.567,17.601,17.567,17.596
201910172131,17.596,17.596,17.567,17.572
201910172132,17.572,17.572,17.557,17.557
201910172133,17.556,17.559,17.55,17.55
201910172134,17.551,17.56,17.539,17.539
201910172135,17.539,17.546,17.528,17.546
201910172136,17.546,17.552,17.536,17.541
201910172137,17.54,17.544,17.529,17.534
201910172138,17.534,17.54,17.528,17.539
201910172139,17.539,17.541,17.53,17.535
201910172140,17.535,17.535,17.509,17.51
201910172141,17.509,17.514,17.507,17.512
201910172142,17.512,17.512,17.495,17.495
201910172143,17.495,17.497,17.483,17.492
201910172144,17.492,17.507,17.492,17.507
201910172145,17.507,17.518,17.505,17.515
201910172146,17.515,17.516,17.509,17.509
201910172147,17.509,17.517,17.507,17.515
201910172148,17.515,17.516,17.496,17.497
201910172149,17.497,17.503,17.495,17.497
201910172150,17.497,17.498,17.492,17.498
201910172151,17.498,17.513,17.497,17.502
201910172152,17.503,17.512,17.503,17.511
201910172153,17.511,17.523,17.51,17.522
201910172154,17.522,17.523,17.512,17.513
201910172155,17.513,17.523,17.512,17.521
201910172156,17.521,17.523,17.508,17.513
201910172157,17.513,17.523,17.508,17.523
201910172158,17.523,17.528,17.52,17.527
201910172159,17.527,17.532,17.526,17.528
201910172200,17.528,17.541,17.523,17.524
201910172201,17.527,17.529,17.502,17.502
201910172202,17.502,17.518,17.491,17.491
201910172203,17.489,17.498,17.468,17.483
201910172204,17.483,17.486,17.467,17.473
201910172205,17.472,17.481,17.472,17.478
201910172206,17.478,17.488,17.477,17.482
201910172207,17.482,17.497,17.482,17.496
201910172208,17.496,17.502,17.492,17.497
201910172209,17.498,17.507,17.495,17.498
201910172210,17.499,17.503,17.499,17.502
201910172211,17.502,17.508,17.498,17.503
201910172212,17.503,17.503,17.492,17.493
201910172213,17.493,17.498,17.493,17.498
201910172214,17.498,17.504,17.496,17.496
201910172215,17.496,17.514,17.495,17.506
201910172216,17.506,17.509,17.503,17.504
201910172217,17.505,17.517,17.502,17.515
201910172218,17.514,17.526,17.514,17.526
201910172219,17.525,17.528,17.521,17.521
201910172220,17.521,17.521,17.517,17.518
201910172221,17.518,17.527,17.517,17.527
201910172222,17.527,17.543,17.527,17.537
201910172223,17.537,17.554,17.537,17.547
201910172224,17.547,17.567,17.547,17.554
201910172225,17.554,17.565,17.546,17.546
201910172226,17.547,17.551,17.545,17.546
201910172227,17.546,17.553,17.539,17.55
201910172228,17.551,17.554,17.538,17.54
201910172229,17.54,17.542,17.525,17.531
201910172230,17.53,17.548,17.527,17.538
201910172231,17.538,17.542,17.529,17.529
201910172232,17.529,17.53,17.515,17.517
201910172233,17.516,17.533,17.513,17.532
201910172234,17.532,17.538,17.529,17.537
201910172235,17.537,17.563,17.528,17.563
201910172236,17.562,17.567,17.56,17.567
201910172237,17.567,17.578,17.551,17.552
201910172238,17.552,17.552,17.538,17.539
201910172239,17.539,17.549,17.538,17.541
201910172240,17.542,17.547,17.534,17.536
201910172241,17.536,17.545,17.535,17.541
201910172242,17.541,17.545,17.535,17.543
201910172243,17.542,17.547,17.542,17.544
201910172244,17.544,17.551,17.529,17.532
201910172245,17.531,17.542,17.53,17.539
201910172246,17.54,17.541,17.53,17.53
201910172247,17.53,17.541,17.53,17.54
201910172248,17.54,17.544,17.537,17.541
201910172249,17.541,17.543,17.534,17.536
201910172250,17.536,17.549,17.534,17.545
201910172251,17.545,17.557,17.545,17.547
201910172252,17.547,17.556,17.547,17.554
201910172253,17.554,17.561,17.554,17.561
201910172254,17.561,17.573,17.56,17.57
201910172255,17.57,17.571,17.55,17.552
201910172256,17.552,17.561,17.551,17.555
201910172257,17.556,17.568,17.556,17.563
201910172258,17.563,17.568,17.562,17.563
201910172259,17.565,17.568,17.561,17.567
201910172300,17.566,17.575,17.562,17.566
201910172301,17.566,17.57,17.557,17.558
201910172302,17.558,17.56,17.552,17.555
201910172303,17.555,17.562,17.547,17.548
201910172304,17.548,17.552,17.545,17.547
201910172305,17.547,17.55,17.535,17.545
201910172306,17.545,17.547,17.534,17.535
201910172307,17.535,17.537,17.528,17.536
201910172308,17.536,17.538,17.53,17.532
201910172309,17.532,17.536,17.527,17.532
201910172310,17.534,17.542,17.534,17.541
201910172311,17.541,17.542,17.531,17.536
201910172312,17.539,17.54,17.53,17.531
201910172313,17.531,17.534,17.526,17.526
201910172314,17.526,17.527,17.503,17.51
201910172315,17.51,17.516,17.507,17.515
201910172316,17.515,17.518,17.51,17.51
201910172317,17.51,17.512,17.497,17.502
201910172318,17.502,17.511,17.501,17.509
201910172319,17.508,17.521,17.506,17.521
201910172320,17.521,17.521,17.515,17.516
201910172321,17.515,17.515,17.506,17.507
201910172322,17.507,17.507,17.501,17.502
201910172323,17.501,17.507,17.497,17.506
201910172324,17.506,17.517,17.501,17.51
201910172325,17.51,17.516,17.505,17.506
201910172326,17.506,17.506,17.498,17.505
201910172327,17.505,17.516,17.501,17.516
201910172328,17.515,17.517,17.51,17.511
201910172329,17.511,17.516,17.506,17.516
201910172330,17.516,17.525,17.514,17.522
201910172331,17.522,17.527,17.516,17.516
201910172332,17.516,17.517,17.507,17.51
201910172333,17.51,17.512,17.502,17.502
201910172334,17.502,17.507,17.496,17.505
201910172335,17.505,17.511,17.505,17.51
201910172336,17.51,17.51,17.502,17.504
201910172337,17.503,17.511,17.496,17.507
201910172338,17.507,17.52,17.505,17.515
201910172339,17.515,17.525,17.515,17.525
201910172340,17.525,17.525,17.517,17.525
201910172341,17.524,17.526,17.518,17.52
201910172342,17.52,17.522,17.52,17.521
201910172343,17.521,17.525,17.52,17.521
201910172344,17.521,17.529,17.52,17.526
201910172345,17.527,17.534,17.526,17.534
201910172346,17.534,17.54,17.534,17.54
201910172347,17.539,17.54,17.531,17.535
201910172348,17.535,17.54,17.535,17.54
201910172349,17.54,17.547,17.539,17.54
201910172350,17.54,17.545,17.529,17.53
201910172351,17.53,17.533,17.525,17.525
201910172352,17.526,17.528,17.524,17.524
201910172353,17.524,17.524,17.516,17.52
201910172354,17.521,17.521,17.516,17.518
201910172355,17.518,17.519,17.504,17.505
201910172356,17.506,17.508,17.503,17.505
201910172357,17.505,17.505,17.5,17.504
201910172358,17.503,17.503,17.497,17.501
201910172359,17.501,17.503,17.501,17.502
201910180000,17.502,17.512,17.5,17.5
201910180001,17.5,17.503,17.498,17.503
201910180002,17.503,17.507,17.502,17.506
201910180003,17.506,17.511,17.506,17.51
201910180004,17.511,17.514,17.51,17.511
201910180005,17.511,17.511,17.505,17.506
201910180006,17.506,17.507,17.498,17.502
201910180007,17.501,17.506,17.5,17.506
201910180008,17.506,17.507,17.502,17.505
201910180009,17.504,17.507,17.501,17.504
201910180010,17.505,17.505,17.497,17.497
201910180011,17.497,17.502,17.496,17.5
201910180012,17.5,17.504,17.496,17.504
201910180013,17.504,17.51,17.502,17.51
201910180014,17.509,17.517,17.509,17.516
201910180015,17.516,17.516,17.507,17.507
201910180016,17.507,17.518,17.505,17.517
201910180017,17.517,17.527,17.517,17.522
201910180018,17.522,17.531,17.521,17.523
201910180019,17.523,17.526,17.522,17.522
201910180020,17.522,17.527,17.522,17.527
201910180021,17.527,17.528,17.524,17.527
201910180022,17.527,17.528,17.527,17.527
201910180023,17.527,17.532,17.527,17.531
201910180024,17.531,17.536,17.531,17.533
201910180025,17.533,17.543,17.531,17.542
201910180026,17.542,17.547,17.54,17.544
201910180027,17.542,17.547,17.541,17.546
201910180028,17.546,17.552,17.545,17.551
201910180029,17.551,17.552,17.545,17.547
201910180030,17.547,17.551,17.544,17.545
201910180031,17.545,17.561,17.545,17.561
201910180032,17.56,17.579,17.56,17.576
201910180033,17.576,17.577,17.568,17.57
201910180034,17.57,17.57,17.558,17.565
201910180035,17.565,17.568,17.555,17.557
201910180036,17.556,17.556,17.551,17.552
201910180037,17.552,17.553,17.547,17.552
201910180038,17.552,17.554,17.547,17.549
201910180039,17.549,17.553,17.546,17.547
201910180040,17.547,17.553,17.544,17.544
201910180041,17.544,17.547,17.542,17.542
201910180042,17.543,17.546,17.538,17.542
201910180043,17.542,17.544,17.539,17.542
201910180044,17.542,17.552,17.542,17.55
201910180045,17.549,17.554,17.547,17.55
201910180046,17.55,17.572,17.55,17.569
201910180047,17.569,17.574,17.566,17.572
201910180048,17.572,17.573,17.565,17.565
201910180049,17.565,17.573,17.565,17.573
201910180050,17.573,17.573,17.569,17.572
201910180051,17.574,17.574,17.567,17.573
201910180052,17.573,17.589,17.572,17.588
201910180053,17.587,17.589,17.575,17.579
201910180054,17.578,17.579,17.573,17.577
201910180055,17.577,17.58,17.573,17.573
201910180056,17.573,17.575,17.572,17.573
201910180057,17.573,17.585,17.571,17.585
201910180058,17.585,17.586,17.579,17.58
201910180059,17.579,17.602,17.579,17.601
201910180100,17.601,17.623,17.598,17.615
201910180101,17.615,17.623,17.604,17.604
201910180102,17.604,17.605,17.602,17.602
201910180103,17.602,17.609,17.602,17.607
201910180104,17.607,17.608,17.601,17.601
201910180105,17.601,17.601,17.587,17.587
201910180106,17.587,17.594,17.586,17.586
201910180107,17.586,17.592,17.583,17.585
201910180108,17.585,17.587,17.583,17.585
201910180109,17.585,17.587,17.585,17.585
201910180110,17.585,17.593,17.585,17.589
201910180111,17.589,17.592,17.586,17.586
201910180112,17.586,17.591,17.584,17.584
201910180113,17.584,17.59,17.584,17.586
201910180114,17.586,17.593,17.586,17.588
201910180115,17.588,17.589,17.575,17.576
201910180116,17.575,17.58,17.571,17.571
201910180117,17.571,17.581,17.571,17.576
201910180118,17.576,17.577,17.567,17.567
201910180119,17.567,17.577,17.567,17.572
201910180120,17.572,17.58,17.571,17.577
201910180121,17.578,17.584,17.576,17.583
201910180122,17.583,17.588,17.582,17.585
201910180123,17.585,17.592,17.584,17.587
201910180124,17.587,17.593,17.587,17.59
201910180125,17.591,17.593,17.582,17.584
201910180126,17.584,17.59,17.581,17.584
201910180127,17.584,17.587,17.579,17.584
201910180128,17.584,17.589,17.583,17.588
201910180129,17.59,17.59,17.584,17.589
201910180130,17.589,17.596,17.588,17.594
201910180131,17.594,17.596,17.593,17.593
201910180132,17.593,17.595,17.591,17.591
201910180133,17.591,17.595,17.587,17.587
201910180134,17.587,17.59,17.587,17.59
201910180135,17.589,17.59,17.587,17.589
201910180136,17.589,17.59,17.584,17.585
201910180137,17.585,17.591,17.585,17.59
201910180138,17.59,17.594,17.59,17.591
201910180139,17.59,17.595,17.589,17.59
201910180140,17.589,17.605,17.589,17.604
201910180141,17.604,17.619,17.604,17.618
201910180142,17.618,17.619,17.609,17.617
201910180143,17.617,17.619,17.606,17.609
201910180144,17.609,17.614,17.607,17.608
201910180145,17.608,17.608,17.6,17.605
201910180146,17.605,17.626,17.604,17.624
201910180147,17.624,17.624,17.617,17.617
201910180148,17.618,17.634,17.615,17.633
201910180149,17.633,17.635,17.627,17.628
201910180150,17.628,17.633,17.627,17.63
201910180151,17.63,17.633,17.626,17.629
201910180152,17.629,17.629,17.618,17.62
201910180153,17.619,17.624,17.618,17.622
201910180154,17.622,17.622,17.614,17.615
201910180155,17.615,17.624,17.61,17.62
201910180156,17.62,17.62,17.617,17.618
201910180157,17.618,17.619,17.617,17.617
201910180158,17.617,17.617,17.599,17.602
201910180159,17.602,17.603,17.597,17.602
201910180200,17.602,17.605,17.598,17.598
201910180201,17.6,17.603,17.597,17.601
201910180202,17.601,17.608,17.601,17.604
201910180203,17.604,17.604,17.601,17.602
201910180204,17.602,17.604,17.601,17.601
201910180205,17.602,17.603,17.592,17.592
201910180206,17.592,17.599,17.592,17.597
201910180207,17.597,17.597,17.585,17.587
201910180208,17.587,17.59,17.585,17.587
201910180209,17.586,17.589,17.582,17.588
201910180210,17.588,17.589,17.58,17.582
201910180211,17.582,17.582,17.579,17.58
201910180212,17.581,17.59,17.581,17.587
201910180213,17.587,17.591,17.587,17.588
201910180214,17.588,17.593,17.587,17.593
201910180215,17.593,17.593,17.582,17.582
201910180216,17.582,17.586,17.582,17.582
201910180217,17.582,17.584,17.577,17.579
201910180218,17.579,17.588,17.576,17.584
201910180219,17.584,17.589,17.582,17.587
201910180220,17.586,17.592,17.584,17.585
201910180221,17.585,17.596,17.583,17.596
201910180222,17.596,17.598,17.589,17.589
201910180223,17.589,17.594,17.588,17.589
201910180224,17.589,17.589,17.577,17.578
201910180225,17.578,17.582,17.568,17.575
201910180226,17.575,17.576,17.572,17.573
201910180227,17.572,17.579,17.571,17.577
201910180228,17.577,17.579,17.576,17.577
201910180229,17.576,17.585,17.576,17.578
201910180230,17.579,17.579,17.574,17.576
201910180231,17.578,17.588,17.578,17.583
201910180232,17.583,17.585,17.579,17.584
201910180233,17.584,17.595,17.583,17.595
201910180234,17.595,17.599,17.593,17.595
201910180235,17.595,17.599,17.594,17.598
201910180236,17.598,17.599,17.594,17.598
201910180237,17.598,17.606,17.598,17.604
201910180238,17.604,17.605,17.601,17.603
201910180239,17.603,17.604,17.598,17.599
201910180240,17.599,17.599,17.594,17.598
201910180241,17.598,17.604,17.593,17.599
201910180242,17.599,17.607,17.599,17.605
201910180243,17.605,17.605,17.603,17.603
201910180244,17.603,17.603,17.594,17.594
201910180245,17.594,17.598,17.593,17.595
201910180246,17.595,17.599,17.589,17.593
201910180247,17.593,17.593,17.584,17.584
201910180248,17.584,17.587,17.583,17.586
201910180249,17.586,17.589,17.586,17.589
201910180250,17.589,17.595,17.588,17.594
201910180251,17.594,17.599,17.592,17.599
201910180252,17.599,17.6,17.598,17.599
201910180253,17.599,17.599,17.593,17.594
201910180254,17.594,17.598,17.593,17.593
201910180255,17.593,17.599,17.593,17.598
201910180256,17.599,17.604,17.598,17.599
201910180257,17.599,17.599,17.593,17.594
201910180258,17.594,17.6,17.592,17.6
201910180259,17.601,17.607,17.601,17.603
201910180300,17.603,17.603,17.597,17.599
201910180301,17.599,17.604,17.594,17.594
201910180302,17.594,17.596,17.58,17.582
201910180303,17.584,17.587,17.583,17.585
201910180304,17.585,17.586,17.583,17.585
201910180305,17.585,17.588,17.584,17.584
201910180306,17.583,17.584,17.58,17.582
201910180307,17.582,17.582,17.578,17.578
201910180308,17.578,17.578,17.572,17.573
201910180309,17.573,17.579,17.57,17.578
201910180310,17.578,17.578,17.573,17.574
201910180311,17.574,17.578,17.574,17.576
201910180312,17.576,17.576,17.572,17.573
201910180313,17.573,17.574,17.571,17.572
201910180314,17.572,17.572,17.567,17.569
201910180315,17.569,17.571,17.567,17.567
201910180316,17.567,17.568,17.563,17.563
201910180317,17.563,17.568,17.562,17.567
201910180318,17.567,17.568,17.551,17.553
201910180319,17.553,17.553,17.547,17.549
201910180320,17.549,17.549,17.542,17.542
201910180321,17.542,17.549,17.542,17.548
201910180322,17.548,17.552,17.545,17.545
201910180323,17.545,17.553,17.545,17.549
201910180324,17.549,17.553,17.547,17.548
201910180325,17.548,17.552,17.544,17.549
201910180326,17.549,17.552,17.544,17.547
201910180327,17.547,17.548,17.538,17.538
201910180328,17.538,17.544,17.538,17.539
201910180329,17.538,17.541,17.537,17.541
201910180330,17.541,17.543,17.54,17.542
201910180331,17.542,17.548,17.542,17.547
201910180332,17.548,17.554,17.547,17.554
201910180333,17.554,17.565,17.554,17.564
201910180334,17.564,17.565,17.563,17.564
201910180335,17.564,17.564,17.561,17.563
201910180336,17.563,17.564,17.555,17.555
201910180337,17.556,17.564,17.555,17.564
201910180338,17.564,17.564,17.559,17.563
201910180339,17.563,17.565,17.563,17.564
201910180340,17.564,17.567,17.56,17.562
201910180341,17.562,17.565,17.562,17.563
201910180342,17.563,17.569,17.563,17.568
201910180343,17.568,17.571,17.567,17.569
201910180344,17.569,17.57,17.565,17.565
201910180345,17.565,17.565,17.55,17.55
201910180346,17.551,17.553,17.545,17.548
201910180347,17.547,17.55,17.542,17.542
201910180348,17.541,17.547,17.54,17.545
201910180349,17.545,17.545,17.541,17.543
201910180350,17.541,17.541,17.528,17.528
201910180351,17.528,17.53,17.527,17.53
201910180352,17.53,17.531,17.525,17.526
201910180353,17.526,17.528,17.525,17.528
201910180354,17.528,17.532,17.526,17.527
201910180355,17.528,17.529,17.526,17.529
201910180356,17.529,17.534,17.529,17.53
201910180357,17.53,17.536,17.53,17.535
201910180358,17.535,17.541,17.534,17.537
201910180359,17.537,17.54,17.533,17.537
201910180400,17.536,17.54,17.533,17.539
201910180401,17.54,17.54,17.536,17.536
201910180402,17.536,17.541,17.535,17.541
201910180403,17.541,17.542,17.537,17.539
201910180404,17.539,17.542,17.538,17.54
201910180405,17.54,17.542,17.537,17.537
201910180406,17.537,17.537,17.532,17.532
201910180407,17.532,17.535,17.531,17.532
201910180408,17.532,17.534,17.531,17.532
201910180409,17.532,17.532,17.531,17.531
201910180410,17.532,17.533,17.529,17.531
201910180411,17.531,17.532,17.529,17.53
201910180412,17.53,17.532,17.529,17.53
201910180413,17.53,17.531,17.529,17.53
201910180414,17.53,17.531,17.526,17.526
201910180415,17.526,17.532,17.526,17.53
201910180416,17.53,17.532,17.529,17.532
201910180417,17.532,17.532,17.529,17.532
201910180418,17.531,17.533,17.528,17.531
201910180419,17.531,17.535,17.531,17.534
201910180420,17.535,17.537,17.535,17.535
201910180421,17.535,17.536,17.534,17.535
201910180422,17.537,17.538,17.53,17.53
201910180423,17.53,17.532,17.529,17.53
201910180424,17.53,17.53,17.525,17.526
201910180425,17.526,17.527,17.525,17.525
201910180426,17.525,17.527,17.524,17.525
201910180427,17.525,17.53,17.525,17.53
201910180428,17.53,17.531,17.526,17.531
201910180429,17.531,17.537,17.53,17.537
201910180430,17.537,17.537,17.531,17.532
201910180431,17.532,17.533,17.53,17.532
201910180432,17.532,17.534,17.531,17.531
201910180433,17.531,17.534,17.531,17.532
201910180434,17.532,17.535,17.532,17.532
201910180435,17.532,17.533,17.53,17.532
201910180436,17.532,17.533,17.532,17.533
201910180437,17.533,17.533,17.532,17.532
201910180438,17.532,17.537,17.532,17.534
201910180439,17.534,17.537,17.532,17.537
201910180440,17.536,17.538,17.535,17.536
201910180441,17.536,17.537,17.536,17.537
201910180442,17.537,17.537,17.536,17.537
201910180443,17.537,17.54,17.536,17.537
201910180444,17.537,17.541,17.536,17.541
201910180445,17.541,17.542,17.539,17.542
201910180446,17.542,17.542,17.538,17.538
201910180447,17.538,17.541,17.538,17.541
201910180448,17.541,17.542,17.541,17.542
201910180449,17.542,17.548,17.542,17.547
201910180450,17.547,17.553,17.546,17.547
201910180451,17.547,17.548,17.547,17.548
201910180452,17.548,17.548,17.547,17.548
201910180453,17.547,17.548,17.546,17.546
201910180454,17.547,17.548,17.541,17.541
201910180455,17.541,17.542,17.536,17.538
201910180456,17.538,17.54,17.536,17.539
201910180457,17.541,17.541,17.54,17.54
201910180458,17.541,17.542,17.54,17.541
201910180459,17.541,17.544,17.54,17.542
201910180500,17.542,17.546,17.542,17.545
201910180501,17.545,17.547,17.544,17.547
201910180502,17.547,17.548,17.546,17.546
201910180503,17.546,17.547,17.542,17.542
201910180504,17.542,17.544,17.541,17.542
201910180505,17.542,17.544,17.542,17.543
201910180506,17.542,17.542,17.541,17.541
201910180507,17.541,17.542,17.537,17.54
201910180508,17.54,17.542,17.539,17.542
201910180509,17.542,17.542,17.541,17.542
201910180510,17.542,17.546,17.541,17.542
201910180511,17.542,17.542,17.542,17.542
201910180512,17.542,17.542,17.542,17.542
201910180513,17.542,17.542,17.542,17.542
201910180514,17.542,17.542,17.542,17.542
201910180515,17.542,17.542,17.541,17.541
201910180516,17.541,17.542,17.541,17.542
201910180517,17.542,17.543,17.537,17.537
201910180518,17.537,17.538,17.537,17.537
201910180519,17.537,17.539,17.537,17.537
201910180520,17.537,17.542,17.537,17.541
201910180521,17.541,17.542,17.541,17.542
201910180522,17.542,17.542,17.541,17.542
201910180523,17.542,17.542,17.541,17.542
201910180524,17.542,17.542,17.542,17.542
201910180525,17.542,17.542,17.541,17.541
201910180526,17.541,17.541,17.541,17.541
201910180527,17.541,17.541,17.541,17.541
201910180528,17.541,17.542,17.541,17.542
201910180529,17.542,17.542,17.542,17.542
201910180530,17.542,17.542,17.541,17.542
201910180531,17.542,17.551,17.542,17.551
201910180532,17.551,17.551,17.551,17.551
201910180533,17.551,17.551,17.551,17.551
201910180534,17.551,17.551,17.546,17.546
201910180535,17.546,17.546,17.542,17.546
201910180536,17.546,17.546,17.546,17.546
201910180537,17.546,17.547,17.546,17.547
201910180538,17.547,17.547,17.547,17.547
201910180539,17.548,17.548,17.545,17.545
201910180540,17.545,17.547,17.545,17.547
201910180541,17.547,17.55,17.547,17.55
201910180542,17.55,17.55,17.547,17.55
201910180543,17.55,17.552,17.55,17.552
201910180544,17.552,17.552,17.55,17.552
201910180545,17.552,17.558,17.552,17.557
201910180546,17.557,17.558,17.556,17.557
201910180547,17.557,17.557,17.556,17.557
201910180548,17.557,17.559,17.555,17.555
201910180549,17.555,17.555,17.551,17.552
201910180550,17.552,17.552,17.551,17.551
201910180551,17.552,17.552,17.551,17.551
201910180552,17.551,17.552,17.547,17.547
201910180553,17.547,17.547,17.547,17.547
201910180554,17.547,17.548,17.547,17.548
201910180555,17.548,17.548,17.544,17.545
201910180556,17.545,17.545,17.542,17.542
201910180557,17.542,17.542,17.537,17.537
201910180558,17.539,17.539,17.535,17.536
201910180559,17.536,17.536,17.53,17.533
