日時,始値(BID),高値(BID),安値(BID),終値(BID)
201910070700,17.611,17.62,17.559,17.577
201910070701,17.579,17.587,17.568,17.568
201910070702,17.568,17.588,17.568,17.576
201910070703,17.576,17.605,17.576,17.59
201910070704,17.59,17.596,17.59,17.592
201910070705,17.592,17.592,17.589,17.59
201910070706,17.59,17.592,17.585,17.585
201910070707,17.585,17.587,17.584,17.587
201910070708,17.587,17.59,17.579,17.587
201910070709,17.587,17.587,17.58,17.582
201910070710,17.582,17.59,17.581,17.588
201910070711,17.588,17.588,17.585,17.585
201910070712,17.585,17.59,17.585,17.59
201910070713,17.59,17.59,17.587,17.587
201910070714,17.587,17.59,17.587,17.587
201910070715,17.587,17.592,17.587,17.588
201910070716,17.588,17.588,17.582,17.582
201910070717,17.582,17.587,17.582,17.585
201910070718,17.585,17.585,17.582,17.585
201910070719,17.585,17.587,17.584,17.584
201910070720,17.584,17.592,17.584,17.592
201910070721,17.592,17.592,17.587,17.587
201910070722,17.587,17.589,17.587,17.589
201910070723,17.589,17.589,17.588,17.589
201910070724,17.589,17.592,17.589,17.592
201910070725,17.592,17.592,17.589,17.589
201910070726,17.589,17.597,17.589,17.597
201910070727,17.598,17.598,17.596,17.597
201910070728,17.597,17.597,17.592,17.592
201910070729,17.593,17.594,17.592,17.594
201910070730,17.594,17.595,17.59,17.59
201910070731,17.59,17.591,17.582,17.586
201910070732,17.586,17.586,17.585,17.585
201910070733,17.586,17.586,17.584,17.585
201910070734,17.585,17.588,17.585,17.587
201910070735,17.587,17.587,17.586,17.586
201910070736,17.587,17.59,17.586,17.588
201910070737,17.589,17.589,17.585,17.588
201910070738,17.588,17.59,17.586,17.59
201910070739,17.59,17.59,17.586,17.586
201910070740,17.586,17.586,17.581,17.581
201910070741,17.581,17.581,17.58,17.58
201910070742,17.58,17.58,17.573,17.575
201910070743,17.575,17.577,17.573,17.576
201910070744,17.575,17.576,17.573,17.576
201910070745,17.576,17.576,17.569,17.571
201910070746,17.571,17.571,17.562,17.562
201910070747,17.562,17.568,17.562,17.568
201910070748,17.568,17.568,17.555,17.555
201910070749,17.555,17.558,17.555,17.557
201910070750,17.557,17.557,17.557,17.557
201910070751,17.557,17.557,17.556,17.557
201910070752,17.557,17.557,17.557,17.557
201910070753,17.557,17.557,17.547,17.547
201910070754,17.547,17.547,17.546,17.546
201910070755,17.547,17.553,17.543,17.553
201910070756,17.553,17.553,17.551,17.552
201910070757,17.551,17.551,17.537,17.541
201910070758,17.541,17.542,17.536,17.541
201910070759,17.54,17.54,17.536,17.537
201910070800,17.536,17.536,17.532,17.535
201910070801,17.535,17.538,17.535,17.538
201910070802,17.535,17.536,17.535,17.536
201910070803,17.536,17.536,17.535,17.536
201910070804,17.536,17.538,17.533,17.536
201910070805,17.535,17.535,17.531,17.532
201910070806,17.532,17.535,17.532,17.535
201910070807,17.535,17.541,17.535,17.541
201910070808,17.543,17.545,17.541,17.542
201910070809,17.545,17.545,17.541,17.545
201910070810,17.545,17.548,17.545,17.547
201910070811,17.547,17.548,17.545,17.545
201910070812,17.545,17.547,17.545,17.547
201910070813,17.547,17.548,17.547,17.547
201910070814,17.547,17.549,17.547,17.549
201910070815,17.549,17.553,17.549,17.552
201910070816,17.552,17.552,17.552,17.552
201910070817,17.552,17.554,17.552,17.554
201910070818,17.554,17.554,17.553,17.553
201910070819,17.552,17.554,17.552,17.554
201910070820,17.554,17.558,17.554,17.558
201910070821,17.558,17.558,17.557,17.557
201910070822,17.557,17.559,17.557,17.558
201910070823,17.558,17.559,17.556,17.557
201910070824,17.557,17.558,17.553,17.553
201910070825,17.553,17.557,17.553,17.557
201910070826,17.557,17.557,17.556,17.556
201910070827,17.556,17.556,17.552,17.553
201910070828,17.553,17.553,17.552,17.553
201910070829,17.553,17.553,17.552,17.553
201910070830,17.553,17.553,17.547,17.548
201910070831,17.548,17.548,17.544,17.548
201910070832,17.548,17.548,17.543,17.543
201910070833,17.543,17.543,17.539,17.543
201910070834,17.543,17.543,17.538,17.538
201910070835,17.538,17.543,17.538,17.543
201910070836,17.543,17.549,17.542,17.549
201910070837,17.549,17.557,17.549,17.557
201910070838,17.557,17.561,17.556,17.561
201910070839,17.561,17.564,17.56,17.564
201910070840,17.564,17.564,17.563,17.563
201910070841,17.563,17.563,17.557,17.557
201910070842,17.557,17.561,17.557,17.558
201910070843,17.558,17.56,17.557,17.557
201910070844,17.557,17.557,17.554,17.556
201910070845,17.556,17.557,17.554,17.556
201910070846,17.556,17.558,17.556,17.556
201910070847,17.556,17.556,17.551,17.553
201910070848,17.553,17.558,17.552,17.555
201910070849,17.555,17.557,17.552,17.553
201910070850,17.553,17.554,17.549,17.549
201910070851,17.549,17.553,17.548,17.552
201910070852,17.552,17.553,17.552,17.553
201910070853,17.554,17.554,17.553,17.553
201910070854,17.553,17.56,17.553,17.559
201910070855,17.559,17.561,17.558,17.558
201910070856,17.558,17.56,17.557,17.559
201910070857,17.559,17.561,17.558,17.561
201910070858,17.561,17.566,17.561,17.565
201910070859,17.565,17.567,17.565,17.565
201910070900,17.565,17.568,17.564,17.564
201910070901,17.564,17.571,17.563,17.571
201910070902,17.571,17.574,17.566,17.566
201910070903,17.566,17.568,17.562,17.562
201910070904,17.562,17.562,17.553,17.559
201910070905,17.559,17.565,17.557,17.565
201910070906,17.565,17.565,17.563,17.565
201910070907,17.565,17.571,17.565,17.57
201910070908,17.57,17.571,17.567,17.568
201910070909,17.568,17.57,17.568,17.568
201910070910,17.568,17.57,17.568,17.568
201910070911,17.568,17.571,17.565,17.57
201910070912,17.57,17.571,17.567,17.567
201910070913,17.567,17.567,17.565,17.566
201910070914,17.565,17.565,17.561,17.561
201910070915,17.561,17.561,17.556,17.558
201910070916,17.558,17.558,17.554,17.556
201910070917,17.556,17.556,17.553,17.555
201910070918,17.556,17.556,17.553,17.553
201910070919,17.553,17.555,17.551,17.552
201910070920,17.554,17.556,17.553,17.556
201910070921,17.556,17.562,17.555,17.562
201910070922,17.562,17.562,17.557,17.559
201910070923,17.559,17.566,17.559,17.566
201910070924,17.565,17.568,17.565,17.566
201910070925,17.565,17.568,17.563,17.567
201910070926,17.568,17.573,17.568,17.572
201910070927,17.572,17.572,17.572,17.572
201910070928,17.572,17.578,17.572,17.578
201910070929,17.578,17.578,17.577,17.578
201910070930,17.578,17.582,17.578,17.582
201910070931,17.582,17.582,17.582,17.582
201910070932,17.582,17.582,17.582,17.582
201910070933,17.582,17.587,17.582,17.586
201910070934,17.586,17.586,17.586,17.586
201910070935,17.586,17.586,17.578,17.581
201910070936,17.581,17.581,17.577,17.577
201910070937,17.577,17.581,17.577,17.581
201910070938,17.581,17.581,17.578,17.581
201910070939,17.581,17.585,17.581,17.583
201910070940,17.583,17.585,17.582,17.582
201910070941,17.582,17.582,17.582,17.582
201910070942,17.582,17.586,17.582,17.582
201910070943,17.582,17.583,17.582,17.582
201910070944,17.582,17.583,17.578,17.58
201910070945,17.58,17.582,17.58,17.582
201910070946,17.582,17.582,17.582,17.582
201910070947,17.582,17.586,17.582,17.585
201910070948,17.586,17.586,17.583,17.583
201910070949,17.583,17.586,17.582,17.583
201910070950,17.583,17.585,17.581,17.582
201910070951,17.582,17.582,17.581,17.582
201910070952,17.582,17.582,17.581,17.582
201910070953,17.582,17.586,17.582,17.583
201910070954,17.583,17.586,17.58,17.582
201910070955,17.583,17.584,17.581,17.582
201910070956,17.582,17.586,17.582,17.586
201910070957,17.586,17.597,17.586,17.596
201910070958,17.596,17.596,17.595,17.596
201910070959,17.596,17.602,17.596,17.601
201910071000,17.601,17.601,17.592,17.592
201910071001,17.592,17.593,17.587,17.593
201910071002,17.593,17.601,17.593,17.601
201910071003,17.601,17.602,17.597,17.599
201910071004,17.599,17.601,17.597,17.598
201910071005,17.598,17.598,17.594,17.594
201910071006,17.594,17.597,17.594,17.596
201910071007,17.596,17.596,17.591,17.594
201910071008,17.594,17.596,17.592,17.596
201910071009,17.596,17.596,17.594,17.594
201910071010,17.594,17.596,17.591,17.596
201910071011,17.596,17.596,17.592,17.592
201910071012,17.591,17.594,17.591,17.594
201910071013,17.594,17.596,17.592,17.595
201910071014,17.595,17.598,17.592,17.597
201910071015,17.597,17.601,17.597,17.598
201910071016,17.598,17.601,17.597,17.597
201910071017,17.597,17.601,17.596,17.598
201910071018,17.599,17.601,17.596,17.596
201910071019,17.596,17.601,17.596,17.601
201910071020,17.601,17.602,17.601,17.601
201910071021,17.601,17.607,17.601,17.606
201910071022,17.606,17.608,17.604,17.605
201910071023,17.605,17.611,17.601,17.611
201910071024,17.611,17.612,17.606,17.608
201910071025,17.606,17.611,17.601,17.607
201910071026,17.607,17.608,17.602,17.607
201910071027,17.607,17.607,17.606,17.606
201910071028,17.607,17.607,17.606,17.606
201910071029,17.606,17.606,17.597,17.601
201910071030,17.601,17.602,17.597,17.602
201910071031,17.602,17.604,17.601,17.603
201910071032,17.602,17.603,17.598,17.602
201910071033,17.602,17.606,17.601,17.606
201910071034,17.606,17.606,17.596,17.596
201910071035,17.596,17.6,17.596,17.599
201910071036,17.597,17.597,17.592,17.597
201910071037,17.597,17.598,17.592,17.592
201910071038,17.592,17.597,17.592,17.593
201910071039,17.592,17.593,17.59,17.591
201910071040,17.591,17.591,17.587,17.587
201910071041,17.587,17.588,17.587,17.587
201910071042,17.587,17.591,17.586,17.59
201910071043,17.59,17.59,17.586,17.586
201910071044,17.586,17.586,17.577,17.58
201910071045,17.58,17.581,17.577,17.581
201910071046,17.581,17.581,17.581,17.581
201910071047,17.581,17.582,17.579,17.582
201910071048,17.582,17.586,17.581,17.581
201910071049,17.581,17.583,17.58,17.581
201910071050,17.581,17.586,17.581,17.585
201910071051,17.585,17.586,17.584,17.586
201910071052,17.586,17.586,17.582,17.583
201910071053,17.582,17.588,17.581,17.587
201910071054,17.587,17.587,17.582,17.586
201910071055,17.586,17.587,17.581,17.582
201910071056,17.581,17.581,17.576,17.576
201910071057,17.576,17.577,17.576,17.576
201910071058,17.576,17.576,17.566,17.566
201910071059,17.566,17.566,17.56,17.561
201910071100,17.561,17.561,17.557,17.561
201910071101,17.561,17.561,17.558,17.561
201910071102,17.562,17.565,17.56,17.561
201910071103,17.561,17.561,17.556,17.556
201910071104,17.556,17.557,17.555,17.556
201910071105,17.556,17.561,17.556,17.561
201910071106,17.561,17.561,17.557,17.557
201910071107,17.557,17.557,17.552,17.552
201910071108,17.552,17.557,17.552,17.557
201910071109,17.557,17.557,17.552,17.553
201910071110,17.552,17.555,17.551,17.552
201910071111,17.552,17.553,17.552,17.552
201910071112,17.552,17.555,17.552,17.555
201910071113,17.555,17.555,17.554,17.555
201910071114,17.555,17.555,17.541,17.541
201910071115,17.539,17.539,17.536,17.536
201910071116,17.536,17.541,17.536,17.541
201910071117,17.541,17.541,17.536,17.536
201910071118,17.536,17.539,17.536,17.539
201910071119,17.539,17.542,17.539,17.542
201910071120,17.542,17.542,17.536,17.536
201910071121,17.536,17.54,17.536,17.54
201910071122,17.54,17.542,17.54,17.541
201910071123,17.541,17.541,17.539,17.54
201910071124,17.541,17.541,17.54,17.54
201910071125,17.54,17.545,17.54,17.545
201910071126,17.545,17.545,17.543,17.545
201910071127,17.545,17.545,17.545,17.545
201910071128,17.545,17.546,17.545,17.546
201910071129,17.546,17.546,17.544,17.545
201910071130,17.545,17.546,17.543,17.545
201910071131,17.545,17.545,17.541,17.541
201910071132,17.541,17.545,17.541,17.545
201910071133,17.545,17.545,17.543,17.544
201910071134,17.544,17.554,17.544,17.554
201910071135,17.554,17.555,17.551,17.554
201910071136,17.554,17.554,17.549,17.552
201910071137,17.552,17.553,17.551,17.551
201910071138,17.551,17.551,17.549,17.551
201910071139,17.552,17.552,17.551,17.551
201910071140,17.551,17.557,17.551,17.556
201910071141,17.556,17.556,17.551,17.552
201910071142,17.551,17.559,17.551,17.558
201910071143,17.559,17.561,17.559,17.561
201910071144,17.561,17.562,17.561,17.562
201910071145,17.561,17.565,17.561,17.565
201910071146,17.565,17.567,17.561,17.561
201910071147,17.561,17.561,17.561,17.561
201910071148,17.561,17.565,17.561,17.562
201910071149,17.562,17.564,17.562,17.562
201910071150,17.562,17.562,17.561,17.561
201910071151,17.561,17.566,17.561,17.566
201910071152,17.566,17.567,17.565,17.567
201910071153,17.567,17.569,17.566,17.566
201910071154,17.566,17.57,17.566,17.566
201910071155,17.566,17.567,17.566,17.567
201910071156,17.567,17.571,17.567,17.571
201910071157,17.571,17.571,17.57,17.571
201910071158,17.571,17.571,17.566,17.567
201910071159,17.567,17.567,17.565,17.565
201910071200,17.565,17.565,17.561,17.564
201910071201,17.564,17.565,17.561,17.561
201910071202,17.561,17.565,17.561,17.564
201910071203,17.564,17.566,17.562,17.566
201910071204,17.566,17.566,17.564,17.566
201910071205,17.566,17.566,17.561,17.561
201910071206,17.561,17.562,17.561,17.561
201910071207,17.561,17.562,17.561,17.562
201910071208,17.562,17.562,17.551,17.551
201910071209,17.552,17.554,17.552,17.554
201910071210,17.554,17.556,17.553,17.556
201910071211,17.556,17.556,17.556,17.556
201910071212,17.556,17.561,17.556,17.559
201910071213,17.559,17.565,17.559,17.564
201910071214,17.564,17.564,17.562,17.562
201910071215,17.562,17.564,17.561,17.561
201910071216,17.561,17.564,17.556,17.556
201910071217,17.556,17.558,17.556,17.557
201910071218,17.557,17.557,17.556,17.556
201910071219,17.556,17.556,17.555,17.555
201910071220,17.555,17.558,17.555,17.556
201910071221,17.556,17.557,17.556,17.557
201910071222,17.557,17.557,17.556,17.556
201910071223,17.556,17.556,17.552,17.552
201910071224,17.552,17.553,17.552,17.553
201910071225,17.553,17.556,17.553,17.555
201910071226,17.555,17.56,17.555,17.56
201910071227,17.56,17.56,17.557,17.558
201910071228,17.558,17.558,17.557,17.558
201910071229,17.556,17.557,17.556,17.556
201910071230,17.556,17.556,17.551,17.554
201910071231,17.553,17.555,17.551,17.554
201910071232,17.554,17.556,17.553,17.553
201910071233,17.554,17.556,17.553,17.555
201910071234,17.556,17.556,17.553,17.553
201910071235,17.553,17.556,17.551,17.556
201910071236,17.556,17.557,17.556,17.556
201910071237,17.556,17.556,17.552,17.552
201910071238,17.552,17.554,17.551,17.551
201910071239,17.551,17.551,17.546,17.55
201910071240,17.55,17.55,17.546,17.549
201910071241,17.549,17.55,17.548,17.549
201910071242,17.549,17.55,17.546,17.55
201910071243,17.55,17.552,17.55,17.551
201910071244,17.551,17.551,17.548,17.55
201910071245,17.551,17.551,17.55,17.551
201910071246,17.551,17.551,17.546,17.546
201910071247,17.546,17.549,17.545,17.545
201910071248,17.545,17.545,17.541,17.541
201910071249,17.541,17.546,17.541,17.546
201910071250,17.546,17.55,17.545,17.547
201910071251,17.547,17.55,17.546,17.55
201910071252,17.55,17.554,17.55,17.553
201910071253,17.555,17.555,17.551,17.551
201910071254,17.552,17.552,17.551,17.551
201910071255,17.551,17.553,17.551,17.551
201910071256,17.551,17.551,17.548,17.55
201910071257,17.55,17.55,17.548,17.548
201910071258,17.548,17.549,17.546,17.548
201910071259,17.548,17.551,17.548,17.551
201910071300,17.551,17.551,17.546,17.546
201910071301,17.546,17.551,17.546,17.551
201910071302,17.551,17.551,17.55,17.55
201910071303,17.55,17.55,17.546,17.546
201910071304,17.546,17.547,17.546,17.546
201910071305,17.546,17.547,17.546,17.546
201910071306,17.546,17.547,17.546,17.547
201910071307,17.546,17.548,17.546,17.546
201910071308,17.546,17.546,17.542,17.543
201910071309,17.543,17.544,17.543,17.544
201910071310,17.543,17.543,17.54,17.541
201910071311,17.541,17.543,17.541,17.541
201910071312,17.541,17.541,17.541,17.541
201910071313,17.541,17.542,17.541,17.541
201910071314,17.541,17.543,17.541,17.543
201910071315,17.543,17.545,17.543,17.544
201910071316,17.544,17.545,17.541,17.541
201910071317,17.541,17.544,17.541,17.541
201910071318,17.543,17.543,17.541,17.541
201910071319,17.541,17.541,17.541,17.541
201910071320,17.541,17.541,17.541,17.541
201910071321,17.541,17.541,17.541,17.541
201910071322,17.541,17.541,17.522,17.522
201910071323,17.522,17.535,17.522,17.535
201910071324,17.535,17.536,17.531,17.531
201910071325,17.531,17.532,17.531,17.532
201910071326,17.532,17.541,17.532,17.541
201910071327,17.541,17.543,17.54,17.54
201910071328,17.54,17.541,17.539,17.539
201910071329,17.539,17.539,17.536,17.536
201910071330,17.536,17.536,17.532,17.534
201910071331,17.532,17.532,17.531,17.531
201910071332,17.531,17.531,17.522,17.522
201910071333,17.524,17.527,17.522,17.523
201910071334,17.522,17.527,17.522,17.526
201910071335,17.526,17.526,17.521,17.521
201910071336,17.521,17.526,17.521,17.525
201910071337,17.526,17.526,17.525,17.526
201910071338,17.526,17.526,17.522,17.523
201910071339,17.523,17.526,17.523,17.526
201910071340,17.526,17.526,17.521,17.522
201910071341,17.522,17.526,17.522,17.526
201910071342,17.526,17.527,17.526,17.527
201910071343,17.527,17.531,17.527,17.527
201910071344,17.527,17.527,17.526,17.527
201910071345,17.527,17.527,17.522,17.522
201910071346,17.522,17.527,17.522,17.522
201910071347,17.522,17.524,17.52,17.521
201910071348,17.521,17.521,17.517,17.517
201910071349,17.517,17.518,17.517,17.518
201910071350,17.518,17.521,17.513,17.514
201910071351,17.514,17.514,17.509,17.512
201910071352,17.512,17.512,17.509,17.509
201910071353,17.507,17.512,17.506,17.511
201910071354,17.513,17.518,17.512,17.516
201910071355,17.516,17.517,17.516,17.517
201910071356,17.517,17.521,17.516,17.521
201910071357,17.521,17.521,17.52,17.52
201910071358,17.52,17.52,17.517,17.517
201910071359,17.517,17.521,17.516,17.521
201910071400,17.521,17.521,17.506,17.506
201910071401,17.506,17.511,17.505,17.508
201910071402,17.508,17.508,17.507,17.507
201910071403,17.507,17.507,17.505,17.506
201910071404,17.506,17.506,17.506,17.506
201910071405,17.508,17.508,17.501,17.501
201910071406,17.501,17.506,17.501,17.506
201910071407,17.504,17.504,17.502,17.502
201910071408,17.502,17.502,17.501,17.502
201910071409,17.502,17.506,17.502,17.505
201910071410,17.503,17.505,17.501,17.501
201910071411,17.501,17.501,17.494,17.496
201910071412,17.497,17.501,17.497,17.498
201910071413,17.498,17.502,17.498,17.502
201910071414,17.502,17.505,17.501,17.505
201910071415,17.505,17.505,17.502,17.505
201910071416,17.506,17.508,17.506,17.507
201910071417,17.507,17.511,17.507,17.507
201910071418,17.507,17.511,17.507,17.511
201910071419,17.511,17.512,17.511,17.512
201910071420,17.512,17.521,17.512,17.52
201910071421,17.52,17.52,17.516,17.517
201910071422,17.518,17.519,17.517,17.517
201910071423,17.517,17.522,17.517,17.522
201910071424,17.522,17.522,17.521,17.522
201910071425,17.521,17.521,17.516,17.516
201910071426,17.516,17.516,17.512,17.513
201910071427,17.513,17.517,17.512,17.517
201910071428,17.517,17.518,17.517,17.517
201910071429,17.517,17.531,17.517,17.528
201910071430,17.528,17.539,17.527,17.539
201910071431,17.538,17.538,17.532,17.532
201910071432,17.532,17.534,17.532,17.532
201910071433,17.531,17.533,17.531,17.533
201910071434,17.533,17.537,17.533,17.537
201910071435,17.537,17.537,17.528,17.532
201910071436,17.532,17.532,17.527,17.527
201910071437,17.527,17.527,17.523,17.523
201910071438,17.523,17.531,17.523,17.529
201910071439,17.527,17.528,17.527,17.527
201910071440,17.527,17.527,17.522,17.527
201910071441,17.527,17.528,17.525,17.526
201910071442,17.526,17.527,17.524,17.527
201910071443,17.527,17.527,17.522,17.523
201910071444,17.523,17.523,17.522,17.522
201910071445,17.522,17.524,17.521,17.522
201910071446,17.522,17.522,17.519,17.522
201910071447,17.522,17.526,17.522,17.526
201910071448,17.527,17.527,17.523,17.527
201910071449,17.527,17.532,17.527,17.532
201910071450,17.532,17.537,17.532,17.537
201910071451,17.537,17.537,17.531,17.532
201910071452,17.532,17.532,17.527,17.528
201910071453,17.528,17.538,17.528,17.534
201910071454,17.534,17.537,17.534,17.536
201910071455,17.536,17.536,17.532,17.533
201910071456,17.533,17.534,17.528,17.533
201910071457,17.533,17.541,17.533,17.541
201910071458,17.541,17.541,17.54,17.541
201910071459,17.541,17.542,17.541,17.541
201910071500,17.541,17.545,17.537,17.538
201910071501,17.538,17.543,17.537,17.538
201910071502,17.538,17.538,17.527,17.529
201910071503,17.531,17.531,17.519,17.519
201910071504,17.519,17.527,17.519,17.527
201910071505,17.527,17.528,17.525,17.528
201910071506,17.528,17.531,17.528,17.531
201910071507,17.531,17.531,17.527,17.527
201910071508,17.527,17.532,17.527,17.53
201910071509,17.53,17.532,17.53,17.532
201910071510,17.532,17.533,17.531,17.532
201910071511,17.532,17.532,17.532,17.532
201910071512,17.532,17.536,17.532,17.536
201910071513,17.536,17.537,17.536,17.537
201910071514,17.537,17.541,17.537,17.538
201910071515,17.538,17.538,17.532,17.532
201910071516,17.532,17.537,17.532,17.537
201910071517,17.537,17.542,17.537,17.542
201910071518,17.542,17.542,17.538,17.542
201910071519,17.542,17.546,17.537,17.546
201910071520,17.547,17.552,17.546,17.547
201910071521,17.548,17.548,17.543,17.546
201910071522,17.546,17.553,17.546,17.552
201910071523,17.552,17.552,17.55,17.55
201910071524,17.55,17.552,17.548,17.552
201910071525,17.552,17.553,17.552,17.552
201910071526,17.552,17.554,17.552,17.552
201910071527,17.552,17.552,17.547,17.548
201910071528,17.548,17.549,17.547,17.549
201910071529,17.549,17.549,17.547,17.547
201910071530,17.547,17.554,17.547,17.553
201910071531,17.553,17.563,17.553,17.562
201910071532,17.562,17.562,17.555,17.557
201910071533,17.557,17.561,17.556,17.558
201910071534,17.558,17.558,17.554,17.558
201910071535,17.558,17.558,17.556,17.557
201910071536,17.557,17.558,17.556,17.557
201910071537,17.557,17.557,17.553,17.553
201910071538,17.553,17.554,17.553,17.553
201910071539,17.553,17.554,17.553,17.553
201910071540,17.553,17.553,17.552,17.553
201910071541,17.553,17.558,17.553,17.557
201910071542,17.557,17.558,17.557,17.557
201910071543,17.557,17.565,17.556,17.565
201910071544,17.565,17.565,17.562,17.562
201910071545,17.562,17.563,17.558,17.559
201910071546,17.558,17.558,17.553,17.553
201910071547,17.553,17.553,17.553,17.553
201910071548,17.552,17.552,17.54,17.543
201910071549,17.543,17.543,17.538,17.538
201910071550,17.538,17.543,17.538,17.543
201910071551,17.543,17.543,17.543,17.543
201910071552,17.542,17.543,17.54,17.543
201910071553,17.543,17.547,17.54,17.547
201910071554,17.547,17.548,17.543,17.543
201910071555,17.543,17.544,17.542,17.543
201910071556,17.543,17.543,17.537,17.537
201910071557,17.538,17.539,17.537,17.537
201910071558,17.537,17.537,17.533,17.533
201910071559,17.533,17.542,17.533,17.542
201910071600,17.543,17.545,17.538,17.538
201910071601,17.538,17.538,17.524,17.528
201910071602,17.528,17.538,17.528,17.537
201910071603,17.537,17.537,17.53,17.531
201910071604,17.532,17.532,17.528,17.528
201910071605,17.529,17.53,17.527,17.527
201910071606,17.527,17.532,17.523,17.532
201910071607,17.532,17.553,17.529,17.553
201910071608,17.553,17.561,17.55,17.561
201910071609,17.561,17.563,17.557,17.561
201910071610,17.561,17.572,17.561,17.567
201910071611,17.567,17.568,17.557,17.567
201910071612,17.565,17.565,17.552,17.557
201910071613,17.557,17.557,17.55,17.551
201910071614,17.551,17.551,17.537,17.538
201910071615,17.538,17.538,17.53,17.533
201910071616,17.536,17.536,17.527,17.527
201910071617,17.527,17.532,17.521,17.522
201910071618,17.522,17.523,17.521,17.522
201910071619,17.522,17.522,17.517,17.517
201910071620,17.517,17.517,17.484,17.486
201910071621,17.485,17.497,17.472,17.477
201910071622,17.477,17.48,17.457,17.472
201910071623,17.472,17.477,17.456,17.471
201910071624,17.471,17.475,17.452,17.454
201910071625,17.456,17.477,17.448,17.476
201910071626,17.476,17.477,17.462,17.468
201910071627,17.468,17.471,17.453,17.468
201910071628,17.468,17.482,17.457,17.477
201910071629,17.477,17.478,17.467,17.472
201910071630,17.472,17.473,17.46,17.462
201910071631,17.462,17.463,17.444,17.451
201910071632,17.452,17.457,17.442,17.447
201910071633,17.447,17.451,17.439,17.44
201910071634,17.44,17.463,17.44,17.456
201910071635,17.456,17.457,17.43,17.432
201910071636,17.432,17.447,17.425,17.445
201910071637,17.445,17.457,17.443,17.453
201910071638,17.453,17.464,17.453,17.463
201910071639,17.463,17.468,17.458,17.467
201910071640,17.467,17.467,17.461,17.463
201910071641,17.462,17.471,17.459,17.469
201910071642,17.469,17.475,17.464,17.467
201910071643,17.468,17.476,17.465,17.473
201910071644,17.473,17.476,17.472,17.472
201910071645,17.471,17.475,17.463,17.463
201910071646,17.462,17.463,17.455,17.458
201910071647,17.458,17.458,17.454,17.458
201910071648,17.461,17.461,17.453,17.458
201910071649,17.458,17.458,17.453,17.453
201910071650,17.454,17.464,17.454,17.463
201910071651,17.463,17.463,17.448,17.448
201910071652,17.448,17.448,17.447,17.447
201910071653,17.447,17.477,17.447,17.477
201910071654,17.477,17.479,17.472,17.479
201910071655,17.479,17.489,17.479,17.489
201910071656,17.488,17.488,17.483,17.487
201910071657,17.487,17.492,17.478,17.481
201910071658,17.481,17.484,17.478,17.484
201910071659,17.484,17.484,17.473,17.474
201910071700,17.472,17.492,17.462,17.49
201910071701,17.49,17.49,17.479,17.482
201910071702,17.482,17.487,17.479,17.483
201910071703,17.484,17.484,17.473,17.479
201910071704,17.479,17.483,17.474,17.478
201910071705,17.478,17.478,17.466,17.474
201910071706,17.475,17.482,17.473,17.481
201910071707,17.481,17.483,17.481,17.483
201910071708,17.483,17.487,17.471,17.472
201910071709,17.472,17.478,17.468,17.468
201910071710,17.468,17.478,17.467,17.473
201910071711,17.473,17.473,17.467,17.467
201910071712,17.467,17.468,17.465,17.468
201910071713,17.468,17.476,17.468,17.474
201910071714,17.476,17.481,17.472,17.472
201910071715,17.476,17.482,17.476,17.481
201910071716,17.481,17.481,17.473,17.473
201910071717,17.475,17.477,17.467,17.467
201910071718,17.467,17.473,17.467,17.47
201910071719,17.471,17.472,17.466,17.467
201910071720,17.466,17.468,17.461,17.462
201910071721,17.462,17.463,17.461,17.462
201910071722,17.462,17.465,17.462,17.462
201910071723,17.462,17.465,17.461,17.462
201910071724,17.462,17.467,17.457,17.467
201910071725,17.468,17.475,17.464,17.466
201910071726,17.467,17.467,17.457,17.457
201910071727,17.457,17.467,17.457,17.466
201910071728,17.466,17.467,17.464,17.464
201910071729,17.464,17.467,17.462,17.466
201910071730,17.466,17.471,17.464,17.471
201910071731,17.471,17.475,17.47,17.475
201910071732,17.475,17.476,17.465,17.466
201910071733,17.466,17.471,17.465,17.468
201910071734,17.469,17.469,17.462,17.462
201910071735,17.462,17.465,17.458,17.461
201910071736,17.459,17.46,17.453,17.457
201910071737,17.457,17.457,17.454,17.455
201910071738,17.453,17.454,17.448,17.449
201910071739,17.449,17.451,17.442,17.45
201910071740,17.45,17.452,17.447,17.45
201910071741,17.45,17.45,17.44,17.44
201910071742,17.441,17.445,17.437,17.442
201910071743,17.442,17.442,17.439,17.441
201910071744,17.441,17.444,17.441,17.441
201910071745,17.441,17.443,17.44,17.44
201910071746,17.441,17.441,17.435,17.437
201910071747,17.437,17.437,17.432,17.435
201910071748,17.435,17.437,17.435,17.437
201910071749,17.437,17.442,17.436,17.438
201910071750,17.438,17.442,17.438,17.44
201910071751,17.44,17.447,17.44,17.443
201910071752,17.443,17.443,17.434,17.437
201910071753,17.438,17.446,17.438,17.446
201910071754,17.446,17.449,17.445,17.447
201910071755,17.447,17.451,17.447,17.451
201910071756,17.451,17.453,17.451,17.452
201910071757,17.452,17.457,17.452,17.453
201910071758,17.453,17.453,17.452,17.452
201910071759,17.452,17.452,17.448,17.448
201910071800,17.448,17.453,17.447,17.452
201910071801,17.452,17.456,17.452,17.453
201910071802,17.453,17.457,17.448,17.448
201910071803,17.447,17.448,17.445,17.447
201910071804,17.447,17.447,17.445,17.447
201910071805,17.447,17.447,17.442,17.442
201910071806,17.442,17.447,17.442,17.447
201910071807,17.447,17.45,17.445,17.445
201910071808,17.445,17.452,17.445,17.452
201910071809,17.452,17.454,17.447,17.448
201910071810,17.448,17.452,17.448,17.449
201910071811,17.449,17.452,17.448,17.452
201910071812,17.452,17.452,17.446,17.446
201910071813,17.447,17.447,17.442,17.443
201910071814,17.443,17.443,17.442,17.442
201910071815,17.442,17.447,17.442,17.445
201910071816,17.447,17.447,17.437,17.437
201910071817,17.437,17.442,17.434,17.44
201910071818,17.442,17.446,17.441,17.446
201910071819,17.446,17.447,17.441,17.442
201910071820,17.442,17.442,17.438,17.442
201910071821,17.442,17.447,17.442,17.447
201910071822,17.447,17.447,17.446,17.447
201910071823,17.447,17.449,17.446,17.446
201910071824,17.446,17.447,17.445,17.445
201910071825,17.445,17.445,17.435,17.436
201910071826,17.437,17.437,17.437,17.437
201910071827,17.437,17.441,17.437,17.437
201910071828,17.437,17.441,17.435,17.441
201910071829,17.442,17.444,17.44,17.444
201910071830,17.444,17.447,17.442,17.444
201910071831,17.444,17.447,17.443,17.447
201910071832,17.448,17.448,17.447,17.448
201910071833,17.448,17.458,17.448,17.456
201910071834,17.456,17.457,17.452,17.453
201910071835,17.453,17.457,17.452,17.455
201910071836,17.455,17.458,17.454,17.456
201910071837,17.456,17.458,17.456,17.456
201910071838,17.456,17.456,17.452,17.453
201910071839,17.453,17.453,17.453,17.453
201910071840,17.453,17.453,17.449,17.449
201910071841,17.449,17.452,17.449,17.452
201910071842,17.452,17.46,17.452,17.46
201910071843,17.46,17.468,17.46,17.463
201910071844,17.463,17.468,17.463,17.468
201910071845,17.468,17.468,17.462,17.463
201910071846,17.463,17.465,17.458,17.458
201910071847,17.458,17.464,17.458,17.462
201910071848,17.462,17.463,17.462,17.462
201910071849,17.462,17.465,17.462,17.463
201910071850,17.463,17.463,17.461,17.462
201910071851,17.463,17.463,17.456,17.457
201910071852,17.457,17.459,17.457,17.458
201910071853,17.459,17.464,17.458,17.464
201910071854,17.464,17.464,17.458,17.459
201910071855,17.459,17.46,17.453,17.453
201910071856,17.453,17.458,17.453,17.457
201910071857,17.456,17.467,17.455,17.467
201910071858,17.467,17.469,17.463,17.463
201910071859,17.463,17.464,17.461,17.462
201910071900,17.462,17.465,17.462,17.463
201910071901,17.463,17.463,17.462,17.462
201910071902,17.462,17.463,17.461,17.462
201910071903,17.462,17.462,17.457,17.458
201910071904,17.458,17.462,17.458,17.462
201910071905,17.462,17.466,17.462,17.465
201910071906,17.465,17.466,17.463,17.464
201910071907,17.463,17.463,17.462,17.462
201910071908,17.462,17.462,17.461,17.462
201910071909,17.462,17.462,17.456,17.457
201910071910,17.456,17.456,17.449,17.452
201910071911,17.452,17.457,17.452,17.457
201910071912,17.458,17.46,17.457,17.458
201910071913,17.458,17.458,17.456,17.457
201910071914,17.458,17.458,17.453,17.457
201910071915,17.457,17.457,17.456,17.456
201910071916,17.456,17.457,17.454,17.456
201910071917,17.456,17.457,17.454,17.457
201910071918,17.457,17.459,17.457,17.459
201910071919,17.459,17.46,17.455,17.455
201910071920,17.455,17.457,17.453,17.453
201910071921,17.453,17.453,17.447,17.447
201910071922,17.447,17.452,17.447,17.452
201910071923,17.452,17.452,17.449,17.452
201910071924,17.452,17.452,17.448,17.448
201910071925,17.448,17.448,17.442,17.444
201910071926,17.443,17.446,17.443,17.446
201910071927,17.446,17.447,17.443,17.447
201910071928,17.447,17.447,17.441,17.443
201910071929,17.443,17.447,17.441,17.447
201910071930,17.447,17.453,17.447,17.453
201910071931,17.453,17.458,17.452,17.456
201910071932,17.456,17.456,17.451,17.451
201910071933,17.451,17.452,17.447,17.447
201910071934,17.448,17.449,17.446,17.446
201910071935,17.447,17.448,17.444,17.446
201910071936,17.447,17.451,17.447,17.448
201910071937,17.448,17.452,17.448,17.449
201910071938,17.449,17.455,17.448,17.453
201910071939,17.452,17.452,17.447,17.447
201910071940,17.447,17.452,17.447,17.451
201910071941,17.451,17.452,17.449,17.451
201910071942,17.452,17.459,17.452,17.456
201910071943,17.456,17.462,17.456,17.462
201910071944,17.462,17.462,17.457,17.457
201910071945,17.457,17.459,17.456,17.456
201910071946,17.456,17.458,17.45,17.452
201910071947,17.452,17.457,17.452,17.457
201910071948,17.456,17.457,17.454,17.454
201910071949,17.454,17.455,17.452,17.453
201910071950,17.453,17.453,17.447,17.451
201910071951,17.452,17.452,17.447,17.447
201910071952,17.447,17.449,17.437,17.437
201910071953,17.436,17.439,17.435,17.437
201910071954,17.437,17.438,17.425,17.431
201910071955,17.431,17.435,17.425,17.426
201910071956,17.425,17.428,17.422,17.425
201910071957,17.423,17.425,17.412,17.412
201910071958,17.412,17.417,17.412,17.415
201910071959,17.416,17.422,17.412,17.415
201910072000,17.415,17.418,17.413,17.417
201910072001,17.417,17.422,17.416,17.42
201910072002,17.422,17.422,17.416,17.416
201910072003,17.416,17.424,17.416,17.422
201910072004,17.422,17.422,17.421,17.422
201910072005,17.422,17.428,17.422,17.424
201910072006,17.424,17.424,17.385,17.385
201910072007,17.386,17.403,17.385,17.403
201910072008,17.403,17.407,17.4,17.407
201910072009,17.407,17.412,17.402,17.41
201910072010,17.411,17.412,17.406,17.406
201910072011,17.406,17.417,17.401,17.416
201910072012,17.416,17.421,17.416,17.421
201910072013,17.421,17.424,17.417,17.422
201910072014,17.422,17.432,17.421,17.431
201910072015,17.429,17.432,17.428,17.43
201910072016,17.43,17.438,17.43,17.436
201910072017,17.436,17.437,17.431,17.434
201910072018,17.434,17.441,17.434,17.439
201910072019,17.439,17.442,17.439,17.442
201910072020,17.442,17.445,17.437,17.441
201910072021,17.441,17.447,17.441,17.447
201910072022,17.447,17.45,17.443,17.45
201910072023,17.451,17.454,17.451,17.453
201910072024,17.453,17.457,17.453,17.456
201910072025,17.456,17.457,17.45,17.452
201910072026,17.452,17.458,17.451,17.455
201910072027,17.455,17.457,17.447,17.447
201910072028,17.447,17.448,17.447,17.447
201910072029,17.447,17.448,17.444,17.446
201910072030,17.446,17.447,17.443,17.447
201910072031,17.447,17.452,17.446,17.446
201910072032,17.447,17.452,17.438,17.438
201910072033,17.438,17.442,17.437,17.442
201910072034,17.442,17.446,17.441,17.442
201910072035,17.441,17.444,17.44,17.442
201910072036,17.442,17.446,17.437,17.438
201910072037,17.437,17.441,17.433,17.436
201910072038,17.436,17.441,17.436,17.441
201910072039,17.441,17.444,17.436,17.436
201910072040,17.436,17.436,17.436,17.436
201910072041,17.436,17.441,17.435,17.438
201910072042,17.438,17.439,17.434,17.438
201910072043,17.438,17.446,17.433,17.446
201910072044,17.446,17.447,17.444,17.447
201910072045,17.447,17.45,17.446,17.448
201910072046,17.448,17.452,17.447,17.447
201910072047,17.447,17.452,17.444,17.45
201910072048,17.451,17.451,17.443,17.443
201910072049,17.445,17.449,17.445,17.448
201910072050,17.448,17.452,17.448,17.452
201910072051,17.452,17.452,17.448,17.452
201910072052,17.452,17.456,17.448,17.456
201910072053,17.456,17.456,17.449,17.452
201910072054,17.452,17.458,17.452,17.458
201910072055,17.458,17.462,17.458,17.458
201910072056,17.458,17.458,17.458,17.458
201910072057,17.458,17.463,17.458,17.462
201910072058,17.462,17.467,17.462,17.467
201910072059,17.467,17.467,17.463,17.464
201910072100,17.464,17.484,17.464,17.477
201910072101,17.477,17.477,17.472,17.477
201910072102,17.477,17.484,17.476,17.483
201910072103,17.484,17.488,17.483,17.486
201910072104,17.485,17.489,17.484,17.487
201910072105,17.487,17.488,17.486,17.487
201910072106,17.487,17.488,17.483,17.483
201910072107,17.483,17.487,17.481,17.487
201910072108,17.487,17.498,17.487,17.498
201910072109,17.497,17.498,17.494,17.497
201910072110,17.496,17.497,17.495,17.497
201910072111,17.497,17.502,17.497,17.502
201910072112,17.502,17.51,17.502,17.502
201910072113,17.502,17.507,17.502,17.507
201910072114,17.507,17.52,17.503,17.507
201910072115,17.507,17.508,17.504,17.506
201910072116,17.505,17.506,17.492,17.502
201910072117,17.501,17.501,17.491,17.496
201910072118,17.496,17.501,17.496,17.497
201910072119,17.497,17.5,17.486,17.488
201910072120,17.486,17.491,17.476,17.491
201910072121,17.49,17.502,17.489,17.496
201910072122,17.496,17.5,17.491,17.496
201910072123,17.496,17.497,17.494,17.496
201910072124,17.497,17.497,17.487,17.487
201910072125,17.491,17.506,17.49,17.506
201910072126,17.506,17.518,17.506,17.518
201910072127,17.517,17.524,17.515,17.516
201910072128,17.516,17.518,17.51,17.513
201910072129,17.513,17.516,17.51,17.512
201910072130,17.511,17.513,17.496,17.503
201910072131,17.504,17.513,17.496,17.497
201910072132,17.497,17.503,17.495,17.502
201910072133,17.502,17.503,17.493,17.497
201910072134,17.497,17.498,17.485,17.485
201910072135,17.485,17.496,17.485,17.489
201910072136,17.489,17.495,17.483,17.489
201910072137,17.488,17.496,17.486,17.496
201910072138,17.496,17.502,17.491,17.502
201910072139,17.502,17.503,17.491,17.491
201910072140,17.491,17.491,17.483,17.487
201910072141,17.487,17.493,17.483,17.493
201910072142,17.493,17.497,17.49,17.496
201910072143,17.496,17.498,17.485,17.486
201910072144,17.486,17.486,17.475,17.481
201910072145,17.479,17.492,17.479,17.488
201910072146,17.488,17.488,17.472,17.484
201910072147,17.486,17.486,17.477,17.479
201910072148,17.479,17.495,17.477,17.485
201910072149,17.485,17.485,17.476,17.484
201910072150,17.484,17.508,17.483,17.506
201910072151,17.507,17.508,17.502,17.503
201910072152,17.503,17.508,17.497,17.507
201910072153,17.507,17.509,17.502,17.509
201910072154,17.509,17.509,17.502,17.503
201910072155,17.503,17.515,17.503,17.513
201910072156,17.513,17.519,17.508,17.508
201910072157,17.508,17.509,17.497,17.501
201910072158,17.501,17.51,17.499,17.51
201910072159,17.509,17.514,17.504,17.504
201910072200,17.504,17.505,17.493,17.499
201910072201,17.499,17.515,17.499,17.514
201910072202,17.514,17.517,17.508,17.514
201910072203,17.514,17.514,17.503,17.504
201910072204,17.504,17.504,17.473,17.478
201910072205,17.478,17.48,17.473,17.479
201910072206,17.478,17.478,17.465,17.468
201910072207,17.468,17.47,17.457,17.463
201910072208,17.463,17.469,17.463,17.464
201910072209,17.464,17.47,17.461,17.469
201910072210,17.469,17.475,17.458,17.458
201910072211,17.457,17.461,17.444,17.454
201910072212,17.454,17.464,17.452,17.464
201910072213,17.464,17.464,17.453,17.454
201910072214,17.454,17.46,17.443,17.443
201910072215,17.443,17.445,17.438,17.44
201910072216,17.44,17.45,17.433,17.445
201910072217,17.445,17.454,17.444,17.448
201910072218,17.448,17.458,17.448,17.458
201910072219,17.458,17.458,17.448,17.449
201910072220,17.451,17.46,17.448,17.46
201910072221,17.46,17.461,17.458,17.458
201910072222,17.459,17.473,17.459,17.469
201910072223,17.47,17.478,17.469,17.478
201910072224,17.478,17.482,17.477,17.477
201910072225,17.478,17.486,17.475,17.485
201910072226,17.486,17.49,17.484,17.489
201910072227,17.489,17.5,17.488,17.499
201910072228,17.499,17.5,17.487,17.494
201910072229,17.494,17.499,17.493,17.498
201910072230,17.498,17.53,17.496,17.526
201910072231,17.526,17.531,17.518,17.524
201910072232,17.524,17.526,17.519,17.525
201910072233,17.525,17.542,17.511,17.541
201910072234,17.541,17.541,17.529,17.531
201910072235,17.531,17.536,17.524,17.531
201910072236,17.531,17.541,17.525,17.54
201910072237,17.54,17.56,17.539,17.545
201910072238,17.546,17.555,17.536,17.555
201910072239,17.555,17.56,17.545,17.559
201910072240,17.56,17.567,17.555,17.559
201910072241,17.559,17.565,17.554,17.555
201910072242,17.555,17.571,17.555,17.57
201910072243,17.567,17.57,17.556,17.568
201910072244,17.565,17.57,17.563,17.57
201910072245,17.57,17.579,17.57,17.574
201910072246,17.574,17.58,17.57,17.577
201910072247,17.577,17.58,17.573,17.58
201910072248,17.58,17.587,17.574,17.574
201910072249,17.574,17.574,17.564,17.574
201910072250,17.574,17.578,17.563,17.563
201910072251,17.559,17.564,17.546,17.548
201910072252,17.548,17.549,17.544,17.548
201910072253,17.548,17.55,17.538,17.548
201910072254,17.548,17.552,17.542,17.548
201910072255,17.548,17.553,17.545,17.553
201910072256,17.557,17.559,17.553,17.553
201910072257,17.554,17.554,17.544,17.545
201910072258,17.545,17.553,17.543,17.547
201910072259,17.549,17.549,17.541,17.549
201910072300,17.549,17.558,17.538,17.549
201910072301,17.549,17.549,17.538,17.543
201910072302,17.543,17.549,17.54,17.544
201910072303,17.543,17.544,17.528,17.537
201910072304,17.537,17.537,17.517,17.524
201910072305,17.523,17.528,17.508,17.528
201910072306,17.528,17.539,17.523,17.538
201910072307,17.538,17.538,17.528,17.529
201910072308,17.529,17.54,17.527,17.539
201910072309,17.539,17.548,17.538,17.543
201910072310,17.543,17.559,17.537,17.558
201910072311,17.558,17.559,17.553,17.558
201910072312,17.558,17.559,17.553,17.558
201910072313,17.558,17.559,17.553,17.558
201910072314,17.558,17.564,17.554,17.564
201910072315,17.564,17.568,17.559,17.559
201910072316,17.558,17.564,17.557,17.564
201910072317,17.564,17.573,17.564,17.573
201910072318,17.569,17.57,17.562,17.563
201910072319,17.563,17.563,17.558,17.558
201910072320,17.558,17.564,17.553,17.564
201910072321,17.564,17.564,17.552,17.554
201910072322,17.554,17.554,17.547,17.548
201910072323,17.548,17.554,17.543,17.553
201910072324,17.553,17.553,17.543,17.548
201910072325,17.548,17.567,17.546,17.562
201910072326,17.562,17.569,17.562,17.565
201910072327,17.565,17.566,17.557,17.563
201910072328,17.563,17.564,17.56,17.56
201910072329,17.561,17.564,17.554,17.556
201910072330,17.554,17.558,17.542,17.543
201910072331,17.543,17.543,17.533,17.538
201910072332,17.538,17.54,17.534,17.538
201910072333,17.538,17.538,17.533,17.538
201910072334,17.538,17.551,17.535,17.548
201910072335,17.548,17.558,17.548,17.552
201910072336,17.552,17.559,17.551,17.553
201910072337,17.554,17.564,17.553,17.558
201910072338,17.558,17.564,17.555,17.563
201910072339,17.563,17.568,17.562,17.563
201910072340,17.563,17.57,17.563,17.568
201910072341,17.568,17.574,17.563,17.568
201910072342,17.568,17.568,17.563,17.563
201910072343,17.563,17.568,17.558,17.559
201910072344,17.56,17.567,17.556,17.556
201910072345,17.556,17.563,17.553,17.556
201910072346,17.556,17.557,17.552,17.552
201910072347,17.552,17.552,17.542,17.545
201910072348,17.545,17.549,17.544,17.547
201910072349,17.547,17.554,17.543,17.554
201910072350,17.554,17.554,17.54,17.546
201910072351,17.546,17.557,17.544,17.549
201910072352,17.548,17.55,17.545,17.547
201910072353,17.547,17.556,17.544,17.556
201910072354,17.557,17.557,17.552,17.553
201910072355,17.553,17.558,17.551,17.558
201910072356,17.558,17.558,17.553,17.554
201910072357,17.554,17.554,17.537,17.539
201910072358,17.539,17.544,17.537,17.543
201910072359,17.543,17.544,17.537,17.544
201910080000,17.544,17.544,17.527,17.527
201910080001,17.527,17.527,17.513,17.519
201910080002,17.519,17.522,17.508,17.512
201910080003,17.512,17.514,17.504,17.504
201910080004,17.505,17.506,17.496,17.502
201910080005,17.502,17.513,17.498,17.513
201910080006,17.515,17.524,17.512,17.523
201910080007,17.523,17.528,17.522,17.528
201910080008,17.528,17.528,17.522,17.523
201910080009,17.523,17.526,17.516,17.518
201910080010,17.518,17.518,17.512,17.512
201910080011,17.513,17.518,17.508,17.516
201910080012,17.517,17.522,17.516,17.518
201910080013,17.518,17.523,17.516,17.522
201910080014,17.522,17.522,17.516,17.517
201910080015,17.517,17.518,17.511,17.511
201910080016,17.511,17.513,17.506,17.512
201910080017,17.512,17.513,17.506,17.513
201910080018,17.513,17.518,17.511,17.511
201910080019,17.511,17.513,17.502,17.508
201910080020,17.508,17.513,17.501,17.511
201910080021,17.511,17.513,17.506,17.513
201910080022,17.513,17.517,17.506,17.516
201910080023,17.516,17.526,17.512,17.526
201910080024,17.526,17.526,17.52,17.526
201910080025,17.526,17.528,17.52,17.522
201910080026,17.522,17.523,17.511,17.511
201910080027,17.511,17.518,17.51,17.51
201910080028,17.513,17.514,17.511,17.513
201910080029,17.513,17.519,17.512,17.518
201910080030,17.518,17.524,17.516,17.519
201910080031,17.519,17.52,17.514,17.514
201910080032,17.514,17.514,17.506,17.508
201910080033,17.508,17.508,17.494,17.499
201910080034,17.499,17.503,17.496,17.502
201910080035,17.502,17.508,17.501,17.506
201910080036,17.506,17.514,17.504,17.513
201910080037,17.513,17.513,17.501,17.503
201910080038,17.503,17.507,17.499,17.502
201910080039,17.502,17.504,17.492,17.497
201910080040,17.497,17.508,17.497,17.507
201910080041,17.507,17.508,17.504,17.507
201910080042,17.507,17.507,17.491,17.497
201910080043,17.497,17.497,17.493,17.496
201910080044,17.496,17.497,17.492,17.493
201910080045,17.493,17.502,17.487,17.499
201910080046,17.499,17.502,17.497,17.497
201910080047,17.497,17.5,17.492,17.492
201910080048,17.492,17.494,17.49,17.491
201910080049,17.492,17.494,17.482,17.484
201910080050,17.484,17.49,17.482,17.486
201910080051,17.485,17.488,17.483,17.486
201910080052,17.486,17.489,17.486,17.487
201910080053,17.487,17.488,17.481,17.482
201910080054,17.482,17.488,17.479,17.487
201910080055,17.488,17.493,17.486,17.492
201910080056,17.492,17.502,17.486,17.501
201910080057,17.501,17.502,17.498,17.5
201910080058,17.5,17.501,17.492,17.495
201910080059,17.495,17.502,17.495,17.498
201910080100,17.498,17.507,17.495,17.507
201910080101,17.507,17.513,17.506,17.512
201910080102,17.512,17.513,17.51,17.513
201910080103,17.513,17.515,17.506,17.512
201910080104,17.512,17.518,17.511,17.516
201910080105,17.516,17.528,17.516,17.527
201910080106,17.527,17.527,17.52,17.522
201910080107,17.522,17.523,17.521,17.521
201910080108,17.521,17.525,17.521,17.521
201910080109,17.521,17.524,17.516,17.516
201910080110,17.516,17.517,17.511,17.511
201910080111,17.511,17.512,17.507,17.512
201910080112,17.512,17.512,17.507,17.512
201910080113,17.512,17.519,17.507,17.517
201910080114,17.517,17.517,17.51,17.511
201910080115,17.511,17.512,17.508,17.51
201910080116,17.51,17.51,17.501,17.504
201910080117,17.505,17.512,17.502,17.511
201910080118,17.512,17.517,17.511,17.517
201910080119,17.517,17.519,17.516,17.517
201910080120,17.517,17.517,17.501,17.502
201910080121,17.502,17.507,17.501,17.503
201910080122,17.502,17.502,17.492,17.493
201910080123,17.493,17.497,17.491,17.496
201910080124,17.496,17.498,17.492,17.497
201910080125,17.497,17.502,17.494,17.501
201910080126,17.501,17.507,17.5,17.506
201910080127,17.506,17.507,17.503,17.506
201910080128,17.506,17.506,17.501,17.503
201910080129,17.503,17.503,17.501,17.502
201910080130,17.502,17.502,17.491,17.492
201910080131,17.492,17.492,17.486,17.487
201910080132,17.487,17.491,17.486,17.491
201910080133,17.491,17.493,17.491,17.493
201910080134,17.493,17.493,17.488,17.492
201910080135,17.493,17.493,17.486,17.487
201910080136,17.487,17.488,17.485,17.487
201910080137,17.487,17.492,17.485,17.49
201910080138,17.49,17.49,17.486,17.488
201910080139,17.488,17.488,17.482,17.488
201910080140,17.488,17.488,17.481,17.482
201910080141,17.482,17.483,17.482,17.482
201910080142,17.482,17.491,17.482,17.491
201910080143,17.491,17.491,17.485,17.486
201910080144,17.486,17.489,17.485,17.487
201910080145,17.487,17.492,17.485,17.492
201910080146,17.492,17.496,17.486,17.487
201910080147,17.486,17.487,17.485,17.485
201910080148,17.485,17.485,17.481,17.482
201910080149,17.482,17.483,17.482,17.482
201910080150,17.482,17.485,17.481,17.482
201910080151,17.482,17.483,17.481,17.481
201910080152,17.481,17.482,17.475,17.476
201910080153,17.476,17.478,17.476,17.478
201910080154,17.478,17.493,17.478,17.491
201910080155,17.491,17.502,17.491,17.498
201910080156,17.5,17.5,17.491,17.498
201910080157,17.498,17.498,17.497,17.497
201910080158,17.497,17.502,17.495,17.502
201910080159,17.502,17.51,17.502,17.509
201910080200,17.508,17.512,17.502,17.503
201910080201,17.503,17.512,17.501,17.51
201910080202,17.511,17.514,17.505,17.512
201910080203,17.512,17.517,17.511,17.517
201910080204,17.517,17.518,17.513,17.518
201910080205,17.518,17.523,17.517,17.522
201910080206,17.522,17.522,17.511,17.516
201910080207,17.516,17.516,17.502,17.502
201910080208,17.502,17.504,17.502,17.503
201910080209,17.503,17.508,17.497,17.499
201910080210,17.499,17.504,17.497,17.504
201910080211,17.504,17.504,17.497,17.498
201910080212,17.498,17.499,17.496,17.498
201910080213,17.498,17.498,17.492,17.494
201910080214,17.494,17.508,17.493,17.507
201910080215,17.507,17.514,17.507,17.514
201910080216,17.514,17.515,17.503,17.503
201910080217,17.504,17.504,17.496,17.5
201910080218,17.5,17.503,17.5,17.503
201910080219,17.503,17.503,17.499,17.502
201910080220,17.502,17.503,17.495,17.495
201910080221,17.494,17.494,17.492,17.494
201910080222,17.494,17.494,17.486,17.486
201910080223,17.486,17.488,17.486,17.488
201910080224,17.488,17.498,17.486,17.487
201910080225,17.487,17.491,17.487,17.488
201910080226,17.488,17.489,17.487,17.487
201910080227,17.487,17.487,17.483,17.484
201910080228,17.483,17.488,17.481,17.483
201910080229,17.483,17.483,17.477,17.483
201910080230,17.482,17.492,17.482,17.492
201910080231,17.492,17.492,17.486,17.486
201910080232,17.486,17.487,17.446,17.447
201910080233,17.448,17.454,17.398,17.446
201910080234,17.444,17.465,17.429,17.46
201910080235,17.459,17.466,17.443,17.443
201910080236,17.443,17.456,17.432,17.45
201910080237,17.451,17.451,17.433,17.433
201910080238,17.434,17.435,17.411,17.415
201910080239,17.415,17.428,17.404,17.424
201910080240,17.426,17.432,17.418,17.421
201910080241,17.421,17.426,17.412,17.418
201910080242,17.419,17.445,17.417,17.438
201910080243,17.438,17.45,17.438,17.439
201910080244,17.441,17.449,17.439,17.445
201910080245,17.446,17.453,17.438,17.443
201910080246,17.443,17.443,17.435,17.438
201910080247,17.439,17.453,17.439,17.448
201910080248,17.448,17.448,17.438,17.442
201910080249,17.44,17.447,17.434,17.442
201910080250,17.44,17.44,17.435,17.437
201910080251,17.437,17.439,17.427,17.429
201910080252,17.429,17.436,17.429,17.434
201910080253,17.434,17.444,17.432,17.441
201910080254,17.441,17.45,17.441,17.446
201910080255,17.446,17.45,17.442,17.446
201910080256,17.445,17.448,17.426,17.427
201910080257,17.427,17.442,17.427,17.438
201910080258,17.44,17.443,17.434,17.435
201910080259,17.435,17.442,17.432,17.433
201910080300,17.433,17.437,17.429,17.437
201910080301,17.438,17.442,17.432,17.434
201910080302,17.433,17.433,17.427,17.427
201910080303,17.427,17.428,17.422,17.423
201910080304,17.423,17.429,17.423,17.427
201910080305,17.427,17.447,17.425,17.443
201910080306,17.444,17.457,17.442,17.449
201910080307,17.449,17.459,17.446,17.449
201910080308,17.449,17.451,17.436,17.438
201910080309,17.438,17.444,17.437,17.442
201910080310,17.442,17.458,17.438,17.452
201910080311,17.452,17.461,17.452,17.456
201910080312,17.454,17.458,17.448,17.451
201910080313,17.451,17.455,17.445,17.446
201910080314,17.447,17.449,17.441,17.448
201910080315,17.447,17.451,17.439,17.451
201910080316,17.449,17.449,17.438,17.438
201910080317,17.438,17.444,17.438,17.439
201910080318,17.439,17.444,17.437,17.437
201910080319,17.437,17.439,17.428,17.433
201910080320,17.433,17.435,17.429,17.433
201910080321,17.433,17.434,17.427,17.427
201910080322,17.427,17.431,17.423,17.423
201910080323,17.423,17.428,17.42,17.421
201910080324,17.422,17.425,17.417,17.419
201910080325,17.421,17.425,17.415,17.419
201910080326,17.419,17.42,17.415,17.417
201910080327,17.418,17.42,17.414,17.415
201910080328,17.415,17.416,17.407,17.41
201910080329,17.409,17.41,17.405,17.406
201910080330,17.406,17.416,17.405,17.406
201910080331,17.407,17.415,17.404,17.41
201910080332,17.41,17.413,17.406,17.408
201910080333,17.408,17.414,17.408,17.414
201910080334,17.414,17.417,17.408,17.408
201910080335,17.408,17.412,17.405,17.407
201910080336,17.407,17.413,17.406,17.409
201910080337,17.409,17.413,17.408,17.412
201910080338,17.412,17.418,17.412,17.418
201910080339,17.418,17.422,17.408,17.412
201910080340,17.413,17.419,17.412,17.416
201910080341,17.417,17.418,17.412,17.415
201910080342,17.414,17.423,17.414,17.418
201910080343,17.418,17.421,17.418,17.42
201910080344,17.42,17.421,17.418,17.419
201910080345,17.419,17.421,17.417,17.419
201910080346,17.419,17.424,17.417,17.423
201910080347,17.423,17.423,17.417,17.419
201910080348,17.419,17.421,17.415,17.415
201910080349,17.415,17.419,17.413,17.419
201910080350,17.418,17.438,17.418,17.436
201910080351,17.437,17.437,17.428,17.434
201910080352,17.434,17.435,17.429,17.429
201910080353,17.429,17.43,17.428,17.428
201910080354,17.428,17.43,17.426,17.43
201910080355,17.43,17.434,17.429,17.432
201910080356,17.432,17.434,17.431,17.431
201910080357,17.431,17.431,17.423,17.423
201910080358,17.423,17.428,17.422,17.428
201910080359,17.428,17.432,17.426,17.432
201910080400,17.429,17.434,17.428,17.433
201910080401,17.433,17.433,17.426,17.426
201910080402,17.428,17.428,17.423,17.428
201910080403,17.428,17.428,17.416,17.416
201910080404,17.417,17.429,17.416,17.425
201910080405,17.426,17.429,17.423,17.429
201910080406,17.429,17.43,17.426,17.428
201910080407,17.429,17.438,17.428,17.428
201910080408,17.428,17.428,17.417,17.418
201910080409,17.418,17.418,17.409,17.413
201910080410,17.413,17.418,17.413,17.417
201910080411,17.417,17.427,17.417,17.425
201910080412,17.425,17.431,17.423,17.428
201910080413,17.428,17.429,17.428,17.428
201910080414,17.424,17.426,17.423,17.423
201910080415,17.423,17.428,17.422,17.426
201910080416,17.426,17.426,17.421,17.423
201910080417,17.424,17.428,17.423,17.426
201910080418,17.426,17.426,17.423,17.425
201910080419,17.425,17.43,17.425,17.429
201910080420,17.429,17.435,17.429,17.435
201910080421,17.435,17.435,17.428,17.429
201910080422,17.429,17.435,17.428,17.432
201910080423,17.431,17.433,17.428,17.43
201910080424,17.43,17.43,17.428,17.428
201910080425,17.428,17.428,17.418,17.418
201910080426,17.418,17.421,17.417,17.418
201910080427,17.418,17.425,17.416,17.424
201910080428,17.424,17.43,17.424,17.428
201910080429,17.428,17.431,17.428,17.43
201910080430,17.429,17.431,17.426,17.429
201910080431,17.429,17.43,17.428,17.428
201910080432,17.428,17.43,17.426,17.427
201910080433,17.427,17.43,17.426,17.43
201910080434,17.43,17.43,17.424,17.425
201910080435,17.425,17.425,17.422,17.425
201910080436,17.424,17.425,17.418,17.419
201910080437,17.419,17.421,17.418,17.418
201910080438,17.418,17.419,17.417,17.419
201910080439,17.419,17.42,17.418,17.419
201910080440,17.419,17.419,17.414,17.419
201910080441,17.419,17.424,17.419,17.423
201910080442,17.423,17.424,17.419,17.423
201910080443,17.423,17.426,17.423,17.425
201910080444,17.425,17.425,17.42,17.421
201910080445,17.421,17.429,17.421,17.428
201910080446,17.428,17.429,17.414,17.417
201910080447,17.417,17.419,17.412,17.416
201910080448,17.416,17.42,17.415,17.415
201910080449,17.415,17.421,17.415,17.418
201910080450,17.418,17.43,17.418,17.428
201910080451,17.428,17.432,17.428,17.43
201910080452,17.43,17.433,17.429,17.429
201910080453,17.429,17.429,17.426,17.428
201910080454,17.428,17.435,17.428,17.433
201910080455,17.433,17.433,17.421,17.422
201910080456,17.421,17.423,17.418,17.419
201910080457,17.419,17.425,17.419,17.424
201910080458,17.426,17.426,17.423,17.423
201910080459,17.423,17.424,17.419,17.424
201910080500,17.425,17.426,17.422,17.424
201910080501,17.424,17.424,17.418,17.418
201910080502,17.418,17.42,17.414,17.419
201910080503,17.419,17.419,17.417,17.417
201910080504,17.417,17.418,17.417,17.418
201910080505,17.418,17.42,17.417,17.418
201910080506,17.418,17.42,17.418,17.418
201910080507,17.419,17.424,17.419,17.422
201910080508,17.422,17.426,17.422,17.423
201910080509,17.423,17.426,17.422,17.423
201910080510,17.423,17.424,17.422,17.422
201910080511,17.422,17.424,17.422,17.423
201910080512,17.423,17.424,17.423,17.424
201910080513,17.423,17.426,17.422,17.422
201910080514,17.422,17.422,17.421,17.421
201910080515,17.421,17.421,17.418,17.42
201910080516,17.42,17.421,17.418,17.418
201910080517,17.421,17.421,17.421,17.421
201910080518,17.421,17.423,17.419,17.421
201910080519,17.421,17.421,17.414,17.414
201910080520,17.415,17.419,17.414,17.418
201910080521,17.418,17.418,17.416,17.417
201910080522,17.417,17.417,17.416,17.416
201910080523,17.416,17.416,17.413,17.413
201910080524,17.413,17.414,17.413,17.413
201910080525,17.413,17.419,17.413,17.417
201910080526,17.417,17.419,17.416,17.418
201910080527,17.418,17.418,17.416,17.417
201910080528,17.417,17.419,17.414,17.418
201910080529,17.418,17.42,17.418,17.418
201910080530,17.418,17.418,17.414,17.415
201910080531,17.415,17.415,17.413,17.414
201910080532,17.414,17.419,17.414,17.415
201910080533,17.415,17.415,17.414,17.415
201910080534,17.414,17.419,17.414,17.419
201910080535,17.419,17.419,17.418,17.418
201910080536,17.418,17.42,17.418,17.419
201910080537,17.419,17.421,17.419,17.421
201910080538,17.42,17.425,17.42,17.422
201910080539,17.422,17.423,17.42,17.42
201910080540,17.42,17.423,17.42,17.42
201910080541,17.42,17.421,17.42,17.42
201910080542,17.42,17.424,17.42,17.423
201910080543,17.423,17.423,17.422,17.422
201910080544,17.422,17.422,17.418,17.418
201910080545,17.418,17.42,17.418,17.418
201910080546,17.418,17.423,17.418,17.419
201910080547,17.419,17.419,17.419,17.419
201910080548,17.419,17.424,17.419,17.423
201910080549,17.423,17.424,17.421,17.422
201910080550,17.422,17.423,17.418,17.422
201910080551,17.422,17.422,17.419,17.422
201910080552,17.422,17.426,17.422,17.424
201910080553,17.424,17.428,17.424,17.427
201910080554,17.427,17.429,17.426,17.429
201910080555,17.428,17.431,17.428,17.431
201910080556,17.431,17.431,17.428,17.43
201910080557,17.43,17.43,17.427,17.429
201910080558,17.428,17.429,17.425,17.426
201910080559,17.426,17.429,17.419,17.419
