日時,始値(BID),高値(BID),安値(BID),終値(BID)
201905130700,61.61,61.8,61.61,61.74
201905130701,61.71,61.79,61.71,61.75
201905130702,61.75,61.76,61.65,61.67
201905130703,61.67,61.7,61.65,61.66
201905130704,61.66,61.66,61.56,61.59
201905130705,61.59,61.63,61.56,61.62
201905130706,61.62,61.63,61.56,61.58
201905130707,61.58,61.58,61.46,61.49
201905130708,61.49,61.53,61.49,61.49
201905130709,61.49,61.49,61.29,61.33
201905130710,61.33,61.33,61.25,61.29
201905130711,61.29,61.33,61.28,61.33
201905130712,61.33,61.36,61.33,61.35
201905130713,61.35,61.35,61.31,61.31
201905130714,61.31,61.35,61.31,61.35
201905130715,61.35,61.45,61.35,61.45
201905130716,61.45,61.46,61.36,61.37
201905130717,61.37,61.44,61.36,61.43
201905130718,61.43,61.47,61.43,61.47
201905130719,61.47,61.47,61.43,61.43
201905130720,61.43,61.44,61.39,61.39
201905130721,61.39,61.41,61.38,61.39
201905130722,61.39,61.4,61.38,61.39
201905130723,61.39,61.42,61.38,61.41
201905130724,61.41,61.44,61.41,61.41
201905130725,61.41,61.44,61.41,61.44
201905130726,61.44,61.46,61.42,61.45
201905130727,61.45,61.46,61.42,61.45
201905130728,61.45,61.45,61.42,61.42
201905130729,61.42,61.42,61.39,61.4
201905130730,61.4,61.4,61.35,61.4
201905130731,61.4,61.42,61.39,61.41
201905130732,61.42,61.45,61.4,61.4
201905130733,61.4,61.41,61.39,61.41
201905130734,61.41,61.41,61.41,61.41
201905130735,61.41,61.42,61.39,61.42
201905130736,61.42,61.42,61.41,61.41
201905130737,61.41,61.43,61.38,61.39
201905130738,61.39,61.39,61.38,61.39
201905130739,61.39,61.39,61.38,61.38
201905130740,61.38,61.38,61.36,61.36
201905130741,61.36,61.36,61.32,61.33
201905130742,61.33,61.36,61.33,61.35
201905130743,61.35,61.35,61.34,61.34
201905130744,61.34,61.38,61.34,61.37
201905130745,61.37,61.38,61.36,61.37
201905130746,61.37,61.39,61.37,61.38
201905130747,61.38,61.38,61.38,61.38
201905130748,61.38,61.38,61.37,61.38
201905130749,61.38,61.39,61.38,61.38
201905130750,61.38,61.38,61.38,61.38
201905130751,61.38,61.38,61.38,61.38
201905130752,61.38,61.38,61.38,61.38
201905130753,61.38,61.38,61.36,61.36
201905130754,61.36,61.36,61.33,61.34
201905130755,61.34,61.36,61.34,61.36
201905130756,61.36,61.37,61.36,61.37
201905130757,61.37,61.38,61.37,61.38
201905130758,61.38,61.39,61.38,61.39
201905130759,61.39,61.39,61.35,61.35
201905130800,61.35,61.36,61.35,61.36
201905130801,61.36,61.36,61.35,61.36
201905130802,61.36,61.39,61.36,61.38
201905130803,61.38,61.38,61.37,61.37
201905130804,61.37,61.38,61.35,61.35
201905130805,61.35,61.35,61.35,61.35
201905130806,61.35,61.36,61.33,61.36
201905130807,61.36,61.36,61.35,61.35
201905130808,61.35,61.36,61.35,61.36
201905130809,61.36,61.37,61.36,61.36
201905130810,61.36,61.38,61.35,61.35
201905130811,61.35,61.36,61.35,61.36
201905130812,61.36,61.38,61.36,61.37
201905130813,61.37,61.37,61.36,61.36
201905130814,61.36,61.39,61.36,61.38
201905130815,61.38,61.4,61.38,61.39
201905130816,61.39,61.4,61.38,61.39
201905130817,61.39,61.39,61.38,61.39
201905130818,61.39,61.39,61.38,61.38
201905130819,61.38,61.38,61.36,61.36
201905130820,61.36,61.36,61.34,61.34
201905130821,61.34,61.35,61.34,61.35
201905130822,61.35,61.36,61.35,61.36
201905130823,61.36,61.36,61.35,61.35
201905130824,61.35,61.36,61.35,61.35
201905130825,61.35,61.36,61.34,61.35
201905130826,61.35,61.36,61.35,61.36
201905130827,61.36,61.36,61.32,61.32
201905130828,61.32,61.33,61.32,61.32
201905130829,61.32,61.32,61.32,61.32
201905130830,61.32,61.32,61.31,61.31
201905130831,61.31,61.32,61.31,61.32
201905130832,61.32,61.38,61.32,61.38
201905130833,61.38,61.38,61.35,61.35
201905130834,61.35,61.36,61.35,61.35
201905130835,61.35,61.35,61.33,61.33
201905130836,61.33,61.34,61.33,61.34
201905130837,61.34,61.34,61.33,61.34
201905130838,61.34,61.34,61.33,61.33
201905130839,61.33,61.34,61.33,61.34
201905130840,61.34,61.34,61.32,61.32
201905130841,61.32,61.32,61.31,61.32
201905130842,61.32,61.32,61.31,61.31
201905130843,61.31,61.33,61.3,61.33
201905130844,61.33,61.34,61.33,61.34
201905130845,61.34,61.35,61.33,61.33
201905130846,61.33,61.35,61.31,61.32
201905130847,61.32,61.35,61.31,61.34
201905130848,61.34,61.35,61.33,61.35
201905130849,61.35,61.36,61.34,61.36
201905130850,61.36,61.36,61.34,61.35
201905130851,61.35,61.35,61.3,61.3
201905130852,61.3,61.31,61.3,61.31
201905130853,61.31,61.31,61.3,61.3
201905130854,61.3,61.3,61.29,61.29
201905130855,61.29,61.31,61.26,61.3
201905130856,61.3,61.33,61.3,61.32
201905130857,61.32,61.33,61.32,61.33
201905130858,61.33,61.33,61.31,61.31
201905130859,61.31,61.31,61.3,61.31
201905130900,61.31,61.31,61.27,61.28
201905130901,61.28,61.33,61.28,61.32
201905130902,61.32,61.33,61.28,61.29
201905130903,61.29,61.29,61.21,61.21
201905130904,61.21,61.23,61.2,61.21
201905130905,61.21,61.27,61.21,61.25
201905130906,61.25,61.26,61.22,61.23
201905130907,61.23,61.26,61.23,61.24
201905130908,61.24,61.27,61.24,61.25
201905130909,61.25,61.3,61.22,61.3
201905130910,61.3,61.33,61.28,61.33
201905130911,61.33,61.35,61.29,61.31
201905130912,61.31,61.32,61.3,61.31
201905130913,61.31,61.37,61.3,61.36
201905130914,61.36,61.41,61.35,61.4
201905130915,61.4,61.41,61.34,61.38
201905130916,61.38,61.39,61.35,61.36
201905130917,61.36,61.38,61.35,61.35
201905130918,61.35,61.38,61.34,61.38
201905130919,61.38,61.38,61.35,61.37
201905130920,61.37,61.4,61.37,61.39
201905130921,61.39,61.39,61.36,61.37
201905130922,61.37,61.37,61.36,61.36
201905130923,61.36,61.38,61.36,61.38
201905130924,61.38,61.4,61.38,61.39
201905130925,61.4,61.41,61.39,61.41
201905130926,61.41,61.41,61.4,61.4
201905130927,61.4,61.4,61.38,61.39
201905130928,61.39,61.4,61.39,61.39
201905130929,61.39,61.4,61.36,61.36
201905130930,61.36,61.4,61.35,61.39
201905130931,61.39,61.4,61.39,61.39
201905130932,61.39,61.4,61.37,61.37
201905130933,61.37,61.37,61.36,61.36
201905130934,61.36,61.36,61.34,61.35
201905130935,61.35,61.36,61.35,61.36
201905130936,61.36,61.4,61.36,61.4
201905130937,61.4,61.4,61.38,61.4
201905130938,61.4,61.4,61.38,61.39
201905130939,61.39,61.39,61.37,61.39
201905130940,61.39,61.39,61.36,61.37
201905130941,61.37,61.37,61.35,61.37
201905130942,61.37,61.37,61.36,61.37
201905130943,61.37,61.37,61.36,61.36
201905130944,61.36,61.37,61.36,61.37
201905130945,61.37,61.37,61.36,61.37
201905130946,61.37,61.39,61.37,61.38
201905130947,61.38,61.39,61.37,61.39
201905130948,61.39,61.4,61.39,61.4
201905130949,61.4,61.41,61.39,61.4
201905130950,61.4,61.4,61.39,61.39
201905130951,61.39,61.39,61.38,61.38
201905130952,61.38,61.39,61.37,61.37
201905130953,61.37,61.38,61.37,61.38
201905130954,61.38,61.38,61.36,61.36
201905130955,61.36,61.37,61.35,61.37
201905130956,61.37,61.38,61.36,61.37
201905130957,61.37,61.37,61.36,61.36
201905130958,61.36,61.36,61.35,61.35
201905130959,61.35,61.35,61.33,61.34
201905131000,61.34,61.34,61.29,61.3
201905131001,61.3,61.31,61.29,61.31
201905131002,61.31,61.34,61.3,61.33
201905131003,61.33,61.34,61.31,61.34
201905131004,61.34,61.36,61.33,61.35
201905131005,61.35,61.39,61.35,61.39
201905131006,61.39,61.39,61.38,61.38
201905131007,61.39,61.41,61.39,61.41
201905131008,61.41,61.43,61.4,61.41
201905131009,61.41,61.42,61.4,61.42
201905131010,61.42,61.45,61.42,61.45
201905131011,61.45,61.45,61.44,61.44
201905131012,61.44,61.45,61.43,61.44
201905131013,61.44,61.44,61.43,61.44
201905131014,61.44,61.45,61.44,61.44
201905131015,61.44,61.5,61.44,61.5
201905131016,61.49,61.53,61.49,61.51
201905131017,61.51,61.56,61.51,61.56
201905131018,61.56,61.6,61.54,61.55
201905131019,61.55,61.56,61.52,61.54
201905131020,61.53,61.55,61.53,61.54
201905131021,61.54,61.55,61.54,61.54
201905131022,61.54,61.56,61.54,61.55
201905131023,61.55,61.55,61.54,61.55
201905131024,61.55,61.55,61.51,61.52
201905131025,61.52,61.52,61.5,61.51
201905131026,61.51,61.52,61.51,61.52
201905131027,61.52,61.52,61.5,61.5
201905131028,61.5,61.53,61.5,61.53
201905131029,61.53,61.54,61.53,61.53
201905131030,61.53,61.54,61.52,61.53
201905131031,61.53,61.53,61.51,61.51
201905131032,61.51,61.51,61.49,61.5
201905131033,61.5,61.51,61.49,61.5
201905131034,61.5,61.5,61.49,61.5
201905131035,61.5,61.52,61.49,61.52
201905131036,61.52,61.53,61.52,61.53
201905131037,61.53,61.55,61.52,61.55
201905131038,61.55,61.59,61.55,61.59
201905131039,61.59,61.59,61.57,61.59
201905131040,61.59,61.6,61.58,61.58
201905131041,61.59,61.59,61.57,61.57
201905131042,61.57,61.58,61.57,61.57
201905131043,61.57,61.57,61.56,61.57
201905131044,61.57,61.57,61.56,61.57
201905131045,61.57,61.6,61.57,61.6
201905131046,61.6,61.63,61.59,61.63
201905131047,61.63,61.66,61.62,61.65
201905131048,61.65,61.65,61.63,61.63
201905131049,61.63,61.63,61.59,61.6
201905131050,61.6,61.61,61.6,61.61
201905131051,61.61,61.61,61.56,61.58
201905131052,61.58,61.59,61.56,61.58
201905131053,61.58,61.58,61.57,61.57
201905131054,61.57,61.59,61.57,61.58
201905131055,61.58,61.6,61.57,61.57
201905131056,61.57,61.57,61.55,61.55
201905131057,61.55,61.55,61.52,61.53
201905131058,61.53,61.55,61.51,61.54
201905131059,61.54,61.55,61.54,61.55
201905131100,61.55,61.57,61.55,61.56
201905131101,61.56,61.57,61.55,61.57
201905131102,61.57,61.59,61.56,61.59
201905131103,61.59,61.62,61.59,61.62
201905131104,61.62,61.62,61.6,61.61
201905131105,61.61,61.61,61.6,61.61
201905131106,61.61,61.62,61.61,61.61
201905131107,61.61,61.62,61.61,61.62
201905131108,61.62,61.62,61.61,61.61
201905131109,61.61,61.62,61.58,61.58
201905131110,61.58,61.6,61.57,61.6
201905131111,61.6,61.6,61.57,61.57
201905131112,61.57,61.58,61.56,61.58
201905131113,61.58,61.59,61.58,61.58
201905131114,61.58,61.58,61.57,61.57
201905131115,61.57,61.57,61.56,61.57
201905131116,61.57,61.57,61.56,61.57
201905131117,61.57,61.57,61.56,61.57
201905131118,61.57,61.57,61.52,61.52
201905131119,61.52,61.54,61.51,61.53
201905131120,61.53,61.54,61.53,61.53
201905131121,61.53,61.54,61.53,61.53
201905131122,61.53,61.56,61.53,61.56
201905131123,61.56,61.56,61.55,61.55
201905131124,61.55,61.55,61.54,61.55
201905131125,61.55,61.56,61.55,61.56
201905131126,61.56,61.57,61.55,61.55
201905131127,61.55,61.56,61.55,61.55
201905131128,61.55,61.55,61.54,61.55
201905131129,61.55,61.56,61.55,61.55
201905131130,61.55,61.55,61.53,61.54
201905131131,61.54,61.55,61.54,61.55
201905131132,61.55,61.56,61.55,61.56
201905131133,61.56,61.56,61.54,61.56
201905131134,61.56,61.56,61.55,61.55
201905131135,61.55,61.56,61.54,61.54
201905131136,61.54,61.54,61.51,61.52
201905131137,61.52,61.53,61.52,61.53
201905131138,61.53,61.54,61.53,61.53
201905131139,61.53,61.53,61.53,61.53
201905131140,61.53,61.54,61.52,61.52
201905131141,61.52,61.52,61.5,61.51
201905131142,61.51,61.52,61.51,61.52
201905131143,61.52,61.52,61.5,61.51
201905131144,61.51,61.51,61.5,61.5
201905131145,61.5,61.52,61.5,61.52
201905131146,61.52,61.56,61.52,61.56
201905131147,61.56,61.59,61.55,61.58
201905131148,61.58,61.59,61.57,61.59
201905131149,61.59,61.6,61.59,61.6
201905131150,61.6,61.61,61.59,61.6
201905131151,61.6,61.62,61.6,61.62
201905131152,61.62,61.62,61.61,61.62
201905131153,61.62,61.64,61.62,61.62
201905131154,61.62,61.63,61.6,61.61
201905131155,61.61,61.61,61.6,61.6
201905131156,61.6,61.61,61.59,61.61
201905131157,61.61,61.61,61.61,61.61
201905131158,61.61,61.62,61.61,61.61
201905131159,61.61,61.61,61.6,61.6
201905131200,61.6,61.61,61.6,61.61
201905131201,61.6,61.6,61.59,61.59
201905131202,61.59,61.6,61.58,61.59
201905131203,61.59,61.6,61.58,61.58
201905131204,61.58,61.59,61.57,61.57
201905131205,61.57,61.58,61.55,61.56
201905131206,61.56,61.58,61.56,61.58
201905131207,61.58,61.58,61.57,61.58
201905131208,61.58,61.58,61.58,61.58
201905131209,61.58,61.6,61.58,61.6
201905131210,61.6,61.61,61.6,61.61
201905131211,61.61,61.62,61.61,61.61
201905131212,61.61,61.61,61.61,61.61
201905131213,61.61,61.64,61.6,61.63
201905131214,61.63,61.65,61.62,61.64
201905131215,61.64,61.66,61.64,61.66
201905131216,61.66,61.69,61.66,61.68
201905131217,61.68,61.69,61.67,61.67
201905131218,61.67,61.68,61.66,61.67
201905131219,61.67,61.68,61.67,61.68
201905131220,61.68,61.68,61.67,61.67
201905131221,61.67,61.67,61.66,61.66
201905131222,61.66,61.67,61.66,61.67
201905131223,61.67,61.68,61.66,61.67
201905131224,61.67,61.67,61.66,61.66
201905131225,61.66,61.66,61.66,61.66
201905131226,61.66,61.66,61.65,61.65
201905131227,61.65,61.66,61.65,61.66
201905131228,61.66,61.66,61.64,61.64
201905131229,61.64,61.65,61.64,61.64
201905131230,61.64,61.64,61.63,61.63
201905131231,61.63,61.63,61.63,61.63
201905131232,61.63,61.63,61.61,61.63
201905131233,61.63,61.64,61.63,61.64
201905131234,61.64,61.65,61.64,61.65
201905131235,61.65,61.66,61.65,61.66
201905131236,61.66,61.66,61.66,61.66
201905131237,61.66,61.66,61.63,61.63
201905131238,61.63,61.63,61.63,61.63
201905131239,61.63,61.63,61.63,61.63
201905131240,61.63,61.63,61.62,61.63
201905131241,61.63,61.64,61.63,61.64
201905131242,61.64,61.64,61.63,61.63
201905131243,61.63,61.63,61.63,61.63
201905131244,61.63,61.63,61.62,61.62
201905131245,61.62,61.63,61.62,61.63
201905131246,61.63,61.63,61.62,61.63
201905131247,61.63,61.63,61.62,61.62
201905131248,61.62,61.62,61.61,61.62
201905131249,61.62,61.62,61.62,61.62
201905131250,61.62,61.63,61.62,61.63
201905131251,61.63,61.63,61.62,61.62
201905131252,61.62,61.62,61.62,61.62
201905131253,61.62,61.63,61.62,61.62
201905131254,61.62,61.62,61.62,61.62
201905131255,61.62,61.62,61.62,61.62
201905131256,61.62,61.62,61.62,61.62
201905131257,61.62,61.62,61.59,61.6
201905131258,61.6,61.6,61.59,61.6
201905131259,61.6,61.6,61.6,61.6
201905131300,61.6,61.62,61.6,61.61
201905131301,61.61,61.61,61.61,61.61
201905131302,61.6,61.6,61.59,61.6
201905131303,61.6,61.6,61.6,61.6
201905131304,61.6,61.61,61.6,61.61
201905131305,61.61,61.62,61.61,61.62
201905131306,61.62,61.62,61.62,61.62
201905131307,61.62,61.63,61.62,61.63
201905131308,61.63,61.65,61.62,61.65
201905131309,61.65,61.66,61.65,61.66
201905131310,61.66,61.66,61.65,61.65
201905131311,61.65,61.67,61.65,61.66
201905131312,61.66,61.66,61.65,61.65
201905131313,61.65,61.67,61.64,61.64
201905131314,61.64,61.64,61.64,61.64
201905131315,61.64,61.65,61.64,61.65
201905131316,61.65,61.67,61.65,61.66
201905131317,61.66,61.66,61.66,61.66
201905131318,61.66,61.66,61.66,61.66
201905131319,61.66,61.66,61.66,61.66
201905131320,61.66,61.66,61.66,61.66
201905131321,61.66,61.66,61.66,61.66
201905131322,61.66,61.66,61.63,61.63
201905131323,61.63,61.63,61.63,61.63
201905131324,61.63,61.64,61.62,61.64
201905131325,61.64,61.65,61.63,61.65
201905131326,61.65,61.65,61.64,61.64
201905131327,61.64,61.64,61.64,61.64
201905131328,61.64,61.64,61.64,61.64
201905131329,61.64,61.65,61.63,61.64
201905131330,61.64,61.64,61.63,61.64
201905131331,61.64,61.64,61.63,61.64
201905131332,61.64,61.64,61.62,61.62
201905131333,61.62,61.62,61.61,61.62
201905131334,61.62,61.63,61.62,61.63
201905131335,61.63,61.63,61.62,61.63
201905131336,61.63,61.63,61.62,61.62
201905131337,61.62,61.62,61.62,61.62
201905131338,61.62,61.62,61.6,61.6
201905131339,61.6,61.61,61.6,61.6
201905131340,61.6,61.6,61.59,61.6
201905131341,61.6,61.61,61.6,61.6
201905131342,61.6,61.6,61.6,61.6
201905131343,61.6,61.6,61.6,61.6
201905131344,61.6,61.6,61.6,61.6
201905131345,61.6,61.6,61.6,61.6
201905131346,61.6,61.6,61.6,61.6
201905131347,61.6,61.61,61.6,61.61
201905131348,61.61,61.62,61.61,61.61
201905131349,61.61,61.61,61.61,61.61
201905131350,61.61,61.62,61.61,61.61
201905131351,61.61,61.61,61.61,61.61
201905131352,61.61,61.61,61.61,61.61
201905131353,61.61,61.61,61.61,61.61
201905131354,61.61,61.61,61.61,61.61
201905131355,61.61,61.61,61.61,61.61
201905131356,61.61,61.61,61.61,61.61
201905131357,61.61,61.62,61.61,61.62
201905131358,61.62,61.62,61.62,61.62
201905131359,61.62,61.62,61.62,61.62
201905131400,61.62,61.62,61.62,61.62
201905131401,61.62,61.62,61.62,61.62
201905131402,61.62,61.63,61.62,61.63
201905131403,61.63,61.64,61.61,61.61
201905131404,61.61,61.62,61.61,61.62
201905131405,61.62,61.62,61.61,61.61
201905131406,61.61,61.61,61.58,61.58
201905131407,61.58,61.58,61.57,61.58
201905131408,61.58,61.6,61.58,61.59
201905131409,61.59,61.59,61.59,61.59
201905131410,61.59,61.61,61.59,61.6
201905131411,61.6,61.61,61.6,61.6
201905131412,61.6,61.6,61.59,61.59
201905131413,61.59,61.59,61.59,61.59
201905131414,61.59,61.59,61.58,61.59
201905131415,61.59,61.59,61.58,61.59
201905131416,61.59,61.59,61.58,61.58
201905131417,61.58,61.63,61.58,61.63
201905131418,61.63,61.64,61.61,61.62
201905131419,61.62,61.62,61.62,61.62
201905131420,61.62,61.64,61.62,61.63
201905131421,61.63,61.63,61.62,61.63
201905131422,61.63,61.63,61.62,61.62
201905131423,61.62,61.62,61.61,61.61
201905131424,61.61,61.62,61.61,61.62
201905131425,61.62,61.63,61.61,61.61
201905131426,61.61,61.62,61.61,61.62
201905131427,61.62,61.62,61.61,61.61
201905131428,61.61,61.62,61.61,61.62
201905131429,61.62,61.62,61.62,61.62
201905131430,61.62,61.63,61.62,61.63
201905131431,61.63,61.64,61.61,61.61
201905131432,61.61,61.63,61.61,61.62
201905131433,61.62,61.62,61.61,61.61
201905131434,61.61,61.61,61.59,61.61
201905131435,61.61,61.62,61.61,61.62
201905131436,61.62,61.64,61.62,61.64
201905131437,61.64,61.65,61.64,61.64
201905131438,61.64,61.64,61.64,61.64
201905131439,61.64,61.65,61.63,61.64
201905131440,61.64,61.64,61.63,61.64
201905131441,61.64,61.65,61.64,61.65
201905131442,61.65,61.71,61.65,61.7
201905131443,61.7,61.75,61.7,61.74
201905131444,61.74,61.75,61.73,61.74
201905131445,61.74,61.74,61.72,61.73
201905131446,61.73,61.73,61.72,61.73
201905131447,61.73,61.75,61.72,61.75
201905131448,61.75,61.76,61.74,61.74
201905131449,61.74,61.76,61.74,61.74
201905131450,61.74,61.75,61.74,61.75
201905131451,61.75,61.75,61.73,61.73
201905131452,61.73,61.73,61.72,61.72
201905131453,61.72,61.73,61.72,61.72
201905131454,61.72,61.73,61.69,61.7
201905131455,61.7,61.72,61.7,61.71
201905131456,61.71,61.74,61.71,61.73
201905131457,61.73,61.74,61.73,61.74
201905131458,61.74,61.75,61.74,61.74
201905131459,61.74,61.74,61.73,61.74
201905131500,61.75,61.75,61.73,61.75
201905131501,61.75,61.75,61.72,61.73
201905131502,61.73,61.73,61.71,61.71
201905131503,61.71,61.72,61.7,61.7
201905131504,61.7,61.71,61.7,61.7
201905131505,61.7,61.7,61.69,61.7
201905131506,61.7,61.72,61.7,61.72
201905131507,61.72,61.72,61.7,61.7
201905131508,61.7,61.72,61.7,61.71
201905131509,61.71,61.72,61.7,61.71
201905131510,61.71,61.72,61.71,61.72
201905131511,61.72,61.73,61.72,61.72
201905131512,61.72,61.72,61.72,61.72
201905131513,61.72,61.72,61.72,61.72
201905131514,61.72,61.72,61.71,61.72
201905131515,61.72,61.73,61.72,61.73
201905131516,61.73,61.74,61.73,61.73
201905131517,61.73,61.73,61.72,61.73
201905131518,61.73,61.73,61.71,61.72
201905131519,61.72,61.72,61.71,61.72
201905131520,61.72,61.74,61.71,61.73
201905131521,61.73,61.75,61.72,61.75
201905131522,61.75,61.75,61.73,61.74
201905131523,61.74,61.74,61.72,61.72
201905131524,61.72,61.72,61.71,61.71
201905131525,61.71,61.72,61.7,61.7
201905131526,61.7,61.71,61.7,61.7
201905131527,61.7,61.71,61.69,61.7
201905131528,61.7,61.71,61.69,61.7
201905131529,61.7,61.71,61.69,61.7
201905131530,61.7,61.7,61.68,61.68
201905131531,61.68,61.71,61.68,61.7
201905131532,61.7,61.71,61.7,61.7
201905131533,61.7,61.71,61.7,61.71
201905131534,61.71,61.72,61.71,61.71
201905131535,61.71,61.71,61.7,61.71
201905131536,61.71,61.74,61.71,61.73
201905131537,61.73,61.74,61.73,61.73
201905131538,61.73,61.74,61.73,61.74
201905131539,61.74,61.74,61.72,61.72
201905131540,61.72,61.73,61.71,61.71
201905131541,61.71,61.73,61.71,61.73
201905131542,61.73,61.73,61.73,61.73
201905131543,61.73,61.74,61.73,61.74
201905131544,61.74,61.75,61.74,61.74
201905131545,61.74,61.75,61.73,61.73
201905131546,61.73,61.74,61.73,61.73
201905131547,61.73,61.75,61.73,61.75
201905131548,61.75,61.8,61.74,61.8
201905131549,61.8,61.81,61.79,61.8
201905131550,61.8,61.8,61.78,61.8
201905131551,61.8,61.82,61.79,61.82
201905131552,61.82,61.84,61.81,61.83
201905131553,61.83,61.84,61.82,61.84
201905131554,61.84,61.84,61.83,61.83
201905131555,61.83,61.83,61.82,61.83
201905131556,61.83,61.83,61.81,61.82
201905131557,61.82,61.82,61.81,61.82
201905131558,61.82,61.82,61.8,61.8
201905131559,61.8,61.81,61.8,61.81
201905131600,61.81,61.84,61.8,61.83
201905131601,61.83,61.87,61.83,61.85
201905131602,61.85,61.86,61.83,61.84
201905131603,61.84,61.85,61.84,61.84
201905131604,61.84,61.87,61.84,61.84
201905131605,61.84,61.85,61.83,61.84
201905131606,61.84,61.84,61.81,61.82
201905131607,61.82,61.84,61.81,61.84
201905131608,61.84,61.84,61.81,61.81
201905131609,61.81,61.83,61.8,61.83
201905131610,61.83,61.83,61.82,61.83
201905131611,61.83,61.84,61.83,61.84
201905131612,61.84,61.86,61.84,61.86
201905131613,61.86,61.86,61.81,61.81
201905131614,61.81,61.87,61.81,61.87
201905131615,61.87,61.87,61.83,61.87
201905131616,61.87,61.87,61.86,61.87
201905131617,61.87,61.87,61.85,61.86
201905131618,61.86,61.87,61.86,61.86
201905131619,61.86,61.87,61.85,61.86
201905131620,61.86,61.87,61.82,61.82
201905131621,61.82,61.84,61.77,61.77
201905131622,61.77,61.79,61.77,61.78
201905131623,61.78,61.78,61.75,61.77
201905131624,61.77,61.8,61.77,61.8
201905131625,61.8,61.8,61.78,61.78
201905131626,61.78,61.78,61.76,61.78
201905131627,61.78,61.78,61.74,61.74
201905131628,61.74,61.77,61.74,61.77
201905131629,61.77,61.78,61.76,61.77
201905131630,61.77,61.83,61.76,61.82
201905131631,61.82,61.83,61.81,61.83
201905131632,61.83,61.85,61.82,61.85
201905131633,61.85,61.85,61.83,61.83
201905131634,61.83,61.83,61.81,61.81
201905131635,61.81,61.86,61.81,61.85
201905131636,61.85,61.86,61.84,61.86
201905131637,61.86,61.87,61.85,61.86
201905131638,61.86,61.91,61.84,61.9
201905131639,61.9,61.91,61.89,61.91
201905131640,61.91,61.93,61.91,61.92
201905131641,61.92,61.92,61.91,61.91
201905131642,61.91,61.92,61.9,61.91
201905131643,61.91,61.92,61.9,61.91
201905131644,61.91,61.91,61.87,61.88
201905131645,61.88,61.89,61.87,61.88
201905131646,61.89,61.89,61.85,61.86
201905131647,61.86,61.86,61.83,61.84
201905131648,61.84,61.86,61.84,61.85
201905131649,61.85,61.88,61.85,61.88
201905131650,61.88,61.89,61.86,61.88
201905131651,61.88,61.91,61.88,61.9
201905131652,61.91,61.94,61.91,61.91
201905131653,61.91,61.93,61.88,61.89
201905131654,61.89,61.9,61.88,61.88
201905131655,61.88,61.91,61.88,61.89
201905131656,61.89,61.9,61.88,61.89
201905131657,61.89,61.91,61.89,61.91
201905131658,61.91,61.91,61.87,61.88
201905131659,61.88,61.9,61.88,61.89
201905131700,61.89,61.93,61.89,61.92
201905131701,61.92,61.92,61.9,61.91
201905131702,61.91,61.91,61.84,61.85
201905131703,61.85,61.86,61.83,61.84
201905131704,61.84,61.85,61.82,61.85
201905131705,61.85,61.86,61.83,61.85
201905131706,61.85,62.01,61.85,62
201905131707,62,62.07,61.98,62.05
201905131708,62.05,62.06,62.03,62.03
201905131709,62.03,62.04,62.02,62.03
201905131710,62.02,62.03,61.98,61.99
201905131711,61.99,62.01,61.97,61.98
201905131712,61.98,62.04,61.97,62.03
201905131713,62.03,62.09,62.02,62.07
201905131714,62.07,62.11,62.07,62.09
201905131715,62.09,62.15,62.09,62.14
201905131716,62.14,62.15,62.09,62.11
201905131717,62.1,62.11,62.09,62.1
201905131718,62.1,62.11,62.07,62.08
201905131719,62.08,62.09,62.07,62.08
201905131720,62.08,62.11,62.07,62.1
201905131721,62.1,62.18,62.09,62.16
201905131722,62.16,62.16,62.13,62.14
201905131723,62.14,62.18,62.14,62.15
201905131724,62.15,62.17,62.14,62.16
201905131725,62.16,62.18,62.14,62.14
201905131726,62.14,62.18,62.14,62.17
201905131727,62.17,62.18,62.14,62.14
201905131728,62.14,62.22,62.14,62.21
201905131729,62.21,62.26,62.21,62.22
201905131730,62.22,62.24,62.21,62.23
201905131731,62.23,62.31,62.23,62.3
201905131732,62.3,62.31,62.23,62.25
201905131733,62.25,62.25,62.2,62.22
201905131734,62.22,62.24,62.22,62.22
201905131735,62.22,62.23,62.22,62.23
201905131736,62.23,62.29,62.23,62.29
201905131737,62.29,62.31,62.25,62.29
201905131738,62.29,62.31,62.28,62.28
201905131739,62.28,62.3,62.27,62.28
201905131740,62.28,62.33,62.27,62.33
201905131741,62.33,62.33,62.29,62.3
201905131742,62.3,62.32,62.29,62.31
201905131743,62.31,62.34,62.31,62.32
201905131744,62.32,62.33,62.31,62.31
201905131745,62.31,62.37,62.31,62.37
201905131746,62.37,62.38,62.34,62.35
201905131747,62.36,62.37,62.34,62.35
201905131748,62.35,62.36,62.35,62.36
201905131749,62.36,62.37,62.36,62.37
201905131750,62.37,62.38,62.36,62.37
201905131751,62.37,62.42,62.36,62.42
201905131752,62.42,62.43,62.41,62.43
201905131753,62.43,62.43,62.41,62.42
201905131754,62.42,62.43,62.42,62.42
201905131755,62.42,62.42,62.4,62.4
201905131756,62.4,62.4,62.36,62.36
201905131757,62.36,62.37,62.32,62.33
201905131758,62.33,62.35,62.32,62.33
201905131759,62.33,62.37,62.33,62.37
201905131800,62.37,62.52,62.36,62.51
201905131801,62.51,62.6,62.51,62.53
201905131802,62.53,62.58,62.49,62.57
201905131803,62.57,62.58,62.51,62.51
201905131804,62.51,62.51,62.47,62.47
201905131805,62.47,62.53,62.47,62.5
201905131806,62.5,62.52,62.48,62.48
201905131807,62.48,62.51,62.46,62.46
201905131808,62.46,62.47,62.42,62.45
201905131809,62.45,62.47,62.43,62.47
201905131810,62.47,62.5,62.47,62.47
201905131811,62.47,62.49,62.45,62.45
201905131812,62.45,62.45,62.41,62.42
201905131813,62.42,62.42,62.4,62.4
201905131814,62.4,62.43,62.39,62.42
201905131815,62.42,62.43,62.4,62.41
201905131816,62.41,62.42,62.4,62.41
201905131817,62.41,62.45,62.41,62.44
201905131818,62.44,62.53,62.44,62.52
201905131819,62.52,62.52,62.49,62.49
201905131820,62.49,62.6,62.48,62.53
201905131821,62.53,62.54,62.49,62.5
201905131822,62.5,62.51,62.45,62.48
201905131823,62.48,62.55,62.48,62.51
201905131824,62.51,62.52,62.48,62.51
201905131825,62.51,62.56,62.5,62.55
201905131826,62.55,62.57,62.54,62.55
201905131827,62.54,62.56,62.54,62.54
201905131828,62.54,62.57,62.54,62.57
201905131829,62.57,62.65,62.57,62.62
201905131830,62.62,62.66,62.61,62.63
201905131831,62.63,62.63,62.55,62.56
201905131832,62.56,62.56,62.5,62.51
201905131833,62.51,62.54,62.51,62.54
201905131834,62.54,62.59,62.54,62.57
201905131835,62.57,62.57,62.54,62.56
201905131836,62.56,62.6,62.55,62.57
201905131837,62.57,62.59,62.56,62.57
201905131838,62.57,62.58,62.54,62.55
201905131839,62.55,62.59,62.54,62.57
201905131840,62.57,62.61,62.56,62.59
201905131841,62.59,62.6,62.57,62.6
201905131842,62.6,62.6,62.53,62.54
201905131843,62.54,62.56,62.51,62.53
201905131844,62.53,62.53,62.49,62.49
201905131845,62.49,62.52,62.49,62.52
201905131846,62.52,62.52,62.5,62.51
201905131847,62.51,62.53,62.5,62.5
201905131848,62.5,62.51,62.48,62.5
201905131849,62.5,62.51,62.48,62.48
201905131850,62.48,62.5,62.47,62.49
201905131851,62.49,62.49,62.46,62.47
201905131852,62.47,62.48,62.46,62.48
201905131853,62.48,62.52,62.48,62.51
201905131854,62.51,62.55,62.51,62.55
201905131855,62.55,62.55,62.53,62.54
201905131856,62.54,62.55,62.53,62.54
201905131857,62.54,62.57,62.53,62.56
201905131858,62.56,62.57,62.55,62.55
201905131859,62.55,62.56,62.54,62.55
201905131900,62.55,62.61,62.55,62.59
201905131901,62.61,62.61,62.59,62.59
201905131902,62.59,62.62,62.59,62.61
201905131903,62.61,62.63,62.61,62.63
201905131904,62.63,62.65,62.63,62.65
201905131905,62.65,62.65,62.64,62.64
201905131906,62.64,62.65,62.62,62.62
201905131907,62.62,62.62,62.56,62.57
201905131908,62.57,62.57,62.54,62.55
201905131909,62.55,62.56,62.54,62.55
201905131910,62.55,62.56,62.55,62.56
201905131911,62.56,62.56,62.54,62.54
201905131912,62.54,62.55,62.52,62.53
201905131913,62.53,62.55,62.53,62.55
201905131914,62.55,62.58,62.55,62.58
201905131915,62.58,62.63,62.57,62.6
201905131916,62.59,62.6,62.58,62.58
201905131917,62.58,62.59,62.57,62.59
201905131918,62.59,62.6,62.53,62.53
201905131919,62.53,62.54,62.52,62.53
201905131920,62.53,62.55,62.52,62.52
201905131921,62.52,62.55,62.52,62.54
201905131922,62.54,62.54,62.49,62.49
201905131923,62.49,62.49,62.45,62.46
201905131924,62.46,62.48,62.45,62.46
201905131925,62.46,62.46,62.43,62.44
201905131926,62.44,62.44,62.4,62.42
201905131927,62.42,62.47,62.42,62.46
201905131928,62.46,62.48,62.45,62.47
201905131929,62.47,62.49,62.47,62.49
201905131930,62.49,62.51,62.48,62.51
201905131931,62.51,62.52,62.49,62.49
201905131932,62.49,62.49,62.45,62.45
201905131933,62.45,62.45,62.42,62.42
201905131934,62.42,62.44,62.41,62.43
201905131935,62.43,62.44,62.43,62.44
201905131936,62.44,62.46,62.43,62.46
201905131937,62.46,62.47,62.45,62.47
201905131938,62.47,62.47,62.45,62.46
201905131939,62.46,62.46,62.45,62.45
201905131940,62.45,62.46,62.42,62.44
201905131941,62.44,62.52,62.44,62.5
201905131942,62.5,62.5,62.47,62.49
201905131943,62.49,62.49,62.45,62.46
201905131944,62.46,62.48,62.46,62.48
201905131945,62.48,62.49,62.46,62.48
201905131946,62.48,62.48,62.46,62.47
201905131947,62.48,62.49,62.46,62.48
201905131948,62.48,62.48,62.46,62.47
201905131949,62.47,62.52,62.47,62.52
201905131950,62.52,62.54,62.52,62.53
201905131951,62.53,62.53,62.5,62.51
201905131952,62.51,62.51,62.44,62.47
201905131953,62.47,62.49,62.45,62.48
201905131954,62.48,62.49,62.46,62.49
201905131955,62.49,62.49,62.48,62.48
201905131956,62.48,62.49,62.48,62.48
201905131957,62.48,62.49,62.46,62.48
201905131958,62.48,62.49,62.47,62.49
201905131959,62.49,62.49,62.47,62.49
201905132000,62.49,62.5,62.42,62.42
201905132001,62.42,62.42,62.4,62.41
201905132002,62.41,62.44,62.41,62.43
201905132003,62.43,62.45,62.43,62.45
201905132004,62.45,62.45,62.41,62.42
201905132005,62.42,62.45,62.42,62.43
201905132006,62.43,62.45,62.43,62.44
201905132007,62.44,62.47,62.44,62.47
201905132008,62.47,62.48,62.46,62.47
201905132009,62.47,62.48,62.44,62.45
201905132010,62.45,62.46,62.44,62.45
201905132011,62.45,62.47,62.44,62.46
201905132012,62.46,62.48,62.45,62.48
201905132013,62.48,62.52,62.47,62.52
201905132014,62.52,62.52,62.49,62.5
201905132015,62.5,62.53,62.5,62.53
201905132016,62.53,62.54,62.43,62.44
201905132017,62.44,62.45,62.4,62.41
201905132018,62.41,62.46,62.4,62.46
201905132019,62.46,62.48,62.45,62.46
201905132020,62.46,62.46,62.41,62.45
201905132021,62.45,62.47,62.43,62.47
201905132022,62.47,62.47,62.41,62.42
201905132023,62.42,62.46,62.42,62.45
201905132024,62.45,62.46,62.44,62.44
201905132025,62.44,62.45,62.43,62.43
201905132026,62.43,62.43,62.42,62.43
201905132027,62.43,62.44,62.41,62.43
201905132028,62.43,62.43,62.41,62.42
201905132029,62.42,62.44,62.42,62.44
201905132030,62.44,62.46,62.42,62.46
201905132031,62.46,62.47,62.45,62.45
201905132032,62.45,62.46,62.44,62.46
201905132033,62.46,62.49,62.45,62.49
201905132034,62.49,62.49,62.41,62.41
201905132035,62.41,62.44,62.41,62.43
201905132036,62.43,62.44,62.42,62.44
201905132037,62.44,62.46,62.43,62.45
201905132038,62.45,62.46,62.44,62.45
201905132039,62.45,62.48,62.44,62.48
201905132040,62.48,62.49,62.47,62.49
201905132041,62.49,62.51,62.48,62.49
201905132042,62.49,62.49,62.47,62.47
201905132043,62.47,62.47,62.45,62.45
201905132044,62.45,62.45,62.44,62.44
201905132045,62.44,62.44,62.4,62.42
201905132046,62.42,62.42,62.41,62.42
201905132047,62.42,62.42,62.37,62.39
201905132048,62.39,62.39,62.37,62.37
201905132049,62.37,62.37,62.32,62.33
201905132050,62.33,62.35,62.33,62.33
201905132051,62.33,62.33,62.31,62.32
201905132052,62.32,62.32,62.27,62.28
201905132053,62.28,62.31,62.27,62.29
201905132054,62.29,62.34,62.29,62.34
201905132055,62.34,62.34,62.31,62.31
201905132056,62.31,62.31,62.3,62.3
201905132057,62.3,62.33,62.3,62.33
201905132058,62.33,62.33,62.3,62.3
201905132059,62.3,62.31,62.3,62.31
201905132100,62.31,62.36,62.29,62.29
201905132101,62.29,62.33,62.29,62.33
201905132102,62.33,62.35,62.31,62.34
201905132103,62.34,62.35,62.33,62.34
201905132104,62.34,62.35,62.32,62.33
201905132105,62.33,62.35,62.31,62.35
201905132106,62.35,62.38,62.35,62.36
201905132107,62.36,62.36,62.22,62.24
201905132108,62.24,62.33,62.22,62.28
201905132109,62.28,62.36,62.27,62.32
201905132110,62.32,62.43,62.31,62.4
201905132111,62.4,62.52,62.4,62.52
201905132112,62.52,62.53,62.5,62.51
201905132113,62.51,62.52,62.48,62.49
201905132114,62.49,62.56,62.48,62.55
201905132115,62.55,62.72,62.55,62.71
201905132116,62.71,62.84,62.69,62.84
201905132117,62.84,62.85,62.8,62.84
201905132118,62.84,62.9,62.83,62.84
201905132119,62.84,62.88,62.81,62.87
201905132120,62.87,62.9,62.83,62.88
201905132121,62.88,62.88,62.79,62.79
201905132122,62.79,62.8,62.75,62.78
201905132123,62.79,62.81,62.78,62.81
201905132124,62.81,62.84,62.77,62.78
201905132125,62.78,62.79,62.75,62.77
201905132126,62.77,62.8,62.77,62.8
201905132127,62.8,62.82,62.79,62.82
201905132128,62.82,62.82,62.78,62.81
201905132129,62.81,62.81,62.75,62.75
201905132130,62.75,62.76,62.7,62.71
201905132131,62.71,62.75,62.71,62.75
201905132132,62.75,62.75,62.72,62.74
201905132133,62.74,62.76,62.73,62.75
201905132134,62.75,62.77,62.72,62.77
201905132135,62.77,62.8,62.76,62.8
201905132136,62.8,62.8,62.75,62.76
201905132137,62.76,62.79,62.74,62.78
201905132138,62.78,62.8,62.75,62.78
201905132139,62.78,62.78,62.76,62.76
201905132140,62.76,62.78,62.73,62.73
201905132141,62.73,62.74,62.67,62.69
201905132142,62.69,62.69,62.65,62.66
201905132143,62.66,62.69,62.63,62.68
201905132144,62.68,62.73,62.67,62.72
201905132145,62.72,62.72,62.67,62.7
201905132146,62.7,62.71,62.68,62.69
201905132147,62.68,62.69,62.66,62.68
201905132148,62.68,62.68,62.64,62.64
201905132149,62.64,62.65,62.61,62.63
201905132150,62.63,62.64,62.6,62.6
201905132151,62.6,62.61,62.56,62.57
201905132152,62.57,62.58,62.55,62.57
201905132153,62.57,62.58,62.54,62.54
201905132154,62.54,62.54,62.48,62.5
201905132155,62.5,62.52,62.5,62.5
201905132156,62.5,62.52,62.47,62.52
201905132157,62.52,62.55,62.51,62.54
201905132158,62.54,62.54,62.5,62.52
201905132159,62.52,62.56,62.51,62.55
201905132200,62.55,62.61,62.51,62.6
201905132201,62.6,62.68,62.59,62.65
201905132202,62.65,62.66,62.54,62.59
201905132203,62.59,62.6,62.54,62.58
201905132204,62.58,62.66,62.58,62.66
201905132205,62.66,62.73,62.64,62.7
201905132206,62.71,62.84,62.71,62.82
201905132207,62.82,62.92,62.81,62.91
201905132208,62.91,63.16,62.91,63.13
201905132209,63.14,63.2,63.1,63.18
201905132210,63.18,63.2,63.11,63.2
201905132211,63.2,63.21,63.17,63.2
201905132212,63.2,63.23,63.2,63.21
201905132213,63.21,63.27,63.2,63.24
201905132214,63.24,63.27,63.24,63.25
201905132215,63.25,63.27,63.2,63.2
201905132216,63.2,63.23,63.16,63.18
201905132217,63.18,63.19,63.09,63.11
201905132218,63.11,63.12,63.08,63.09
201905132219,63.09,63.12,63.08,63.1
201905132220,63.1,63.15,63.09,63.15
201905132221,63.15,63.17,63.12,63.16
201905132222,63.16,63.16,63.11,63.12
201905132223,63.12,63.13,63.06,63.11
201905132224,63.11,63.12,63.05,63.06
201905132225,63.06,63.07,63.03,63.06
201905132226,63.06,63.08,63.04,63.07
201905132227,63.07,63.1,63.06,63.1
201905132228,63.1,63.12,63.05,63.08
201905132229,63.08,63.09,63.02,63.03
201905132230,63.02,63.14,63.01,63.12
201905132231,63.12,63.15,63.07,63.13
201905132232,63.13,63.17,63.1,63.14
201905132233,63.14,63.17,63.11,63.11
201905132234,63.11,63.14,63.09,63.14
201905132235,63.14,63.16,63.12,63.15
201905132236,63.15,63.15,63.1,63.1
201905132237,63.1,63.12,63.08,63.08
201905132238,63.08,63.17,63.08,63.17
201905132239,63.17,63.2,63.14,63.14
201905132240,63.14,63.23,63.14,63.22
201905132241,63.22,63.23,63.21,63.22
201905132242,63.22,63.22,63.17,63.17
201905132243,63.17,63.2,63.12,63.13
201905132244,63.13,63.16,63.11,63.14
201905132245,63.14,63.17,63.12,63.17
201905132246,63.17,63.24,63.17,63.2
201905132247,63.2,63.26,63.2,63.26
201905132248,63.27,63.3,63.2,63.2
201905132249,63.2,63.23,63.16,63.17
201905132250,63.17,63.18,63.11,63.11
201905132251,63.11,63.11,63.04,63.1
201905132252,63.1,63.11,63.01,63.01
201905132253,63.01,63.02,62.93,62.94
201905132254,62.94,62.98,62.9,62.93
201905132255,62.93,62.96,62.86,62.86
201905132256,62.86,62.94,62.86,62.91
201905132257,62.91,62.98,62.89,62.98
201905132258,62.97,62.97,62.94,62.95
201905132259,62.95,62.96,62.88,62.89
201905132300,62.89,62.95,62.85,62.93
201905132301,62.93,62.94,62.85,62.88
201905132302,62.88,62.89,62.85,62.89
201905132303,62.88,62.95,62.88,62.94
201905132304,62.94,62.94,62.89,62.93
201905132305,62.93,62.95,62.91,62.94
201905132306,62.93,62.94,62.89,62.91
201905132307,62.91,63.03,62.91,62.99
201905132308,62.99,63.04,62.99,63.03
201905132309,63.03,63.03,62.93,62.97
201905132310,62.97,63,62.94,62.94
201905132311,62.94,62.97,62.93,62.96
201905132312,62.96,62.96,62.78,62.78
201905132313,62.78,62.84,62.76,62.82
201905132314,62.82,62.87,62.81,62.87
201905132315,62.87,62.87,62.83,62.85
201905132316,62.85,62.88,62.79,62.81
201905132317,62.81,62.93,62.81,62.87
201905132318,62.88,62.95,62.87,62.92
201905132319,62.94,62.94,62.89,62.89
201905132320,62.89,62.91,62.85,62.85
201905132321,62.85,62.86,62.77,62.77
201905132322,62.77,62.86,62.76,62.83
201905132323,62.83,62.84,62.8,62.81
201905132324,62.81,62.83,62.79,62.82
201905132325,62.82,62.84,62.75,62.78
201905132326,62.78,62.78,62.71,62.73
201905132327,62.73,62.76,62.65,62.65
201905132328,62.65,62.72,62.64,62.65
201905132329,62.65,62.66,62.6,62.6
201905132330,62.6,62.61,62.56,62.58
201905132331,62.59,62.66,62.58,62.64
201905132332,62.64,62.66,62.57,62.6
201905132333,62.6,62.62,62.56,62.6
201905132334,62.6,62.6,62.53,62.54
201905132335,62.54,62.54,62.45,62.5
201905132336,62.5,62.5,62.41,62.41
201905132337,62.41,62.47,62.38,62.38
201905132338,62.38,62.4,62.33,62.34
201905132339,62.34,62.37,62.31,62.37
201905132340,62.37,62.38,62.3,62.31
201905132341,62.31,62.37,62.29,62.37
201905132342,62.37,62.45,62.37,62.43
201905132343,62.43,62.47,62.42,62.43
201905132344,62.43,62.44,62.37,62.38
201905132345,62.38,62.4,62.34,62.4
201905132346,62.4,62.41,62.37,62.39
201905132347,62.39,62.39,62.31,62.38
201905132348,62.38,62.4,62.29,62.33
201905132349,62.33,62.33,62.2,62.22
201905132350,62.22,62.28,62.19,62.28
201905132351,62.28,62.32,62.26,62.31
201905132352,62.3,62.3,62.25,62.26
201905132353,62.26,62.26,62.15,62.18
201905132354,62.18,62.19,62.12,62.14
201905132355,62.13,62.21,62.13,62.18
201905132356,62.18,62.18,62.13,62.13
201905132357,62.13,62.16,62.11,62.14
201905132358,62.13,62.2,62.12,62.19
201905132359,62.19,62.3,62.19,62.26
201905140000,62.26,62.3,62.22,62.25
201905140001,62.25,62.26,62.1,62.1
201905140002,62.1,62.18,62.09,62.12
201905140003,62.12,62.13,62.02,62.02
201905140004,62.02,62.03,61.97,62.01
201905140005,62.03,62.11,62.02,62.1
201905140006,62.1,62.19,62.1,62.17
201905140007,62.17,62.2,62.16,62.17
201905140008,62.17,62.22,62.11,62.11
201905140009,62.11,62.12,62.04,62.06
201905140010,62.06,62.07,61.95,61.95
201905140011,61.95,61.96,61.86,61.95
201905140012,61.95,61.98,61.9,61.91
201905140013,61.9,61.93,61.86,61.88
201905140014,61.88,61.89,61.8,61.8
201905140015,61.8,61.8,61.74,61.76
201905140016,61.76,61.77,61.62,61.64
201905140017,61.64,61.76,61.61,61.73
201905140018,61.74,61.86,61.71,61.85
201905140019,61.87,61.87,61.79,61.83
201905140020,61.83,61.89,61.81,61.86
201905140021,61.86,61.92,61.86,61.91
201905140022,61.92,61.93,61.87,61.89
201905140023,61.88,61.94,61.88,61.92
201905140024,61.92,61.92,61.78,61.78
201905140025,61.78,61.84,61.74,61.74
201905140026,61.74,61.76,61.7,61.7
201905140027,61.7,61.72,61.67,61.69
201905140028,61.69,61.71,61.65,61.69
201905140029,61.69,61.85,61.69,61.85
201905140030,61.85,61.92,61.83,61.84
201905140031,61.83,61.83,61.73,61.74
201905140032,61.74,61.75,61.71,61.71
201905140033,61.71,61.72,61.64,61.7
201905140034,61.69,61.76,61.65,61.73
201905140035,61.74,61.75,61.65,61.65
201905140036,61.65,61.72,61.63,61.66
201905140037,61.66,61.68,61.62,61.62
201905140038,61.63,61.71,61.62,61.63
201905140039,61.63,61.66,61.62,61.65
201905140040,61.65,61.7,61.62,61.64
201905140041,61.64,61.71,61.62,61.7
201905140042,61.7,61.71,61.65,61.69
201905140043,61.69,61.73,61.65,61.67
201905140044,61.67,61.67,61.61,61.63
201905140045,61.63,61.67,61.56,61.63
201905140046,61.63,61.67,61.62,61.62
201905140047,61.62,61.62,61.39,61.4
201905140048,61.4,61.41,61.27,61.3
201905140049,61.3,61.37,61.27,61.36
201905140050,61.36,61.37,61.25,61.28
201905140051,61.27,61.37,61.26,61.29
201905140052,61.29,61.37,61.26,61.31
201905140053,61.3,61.3,61.16,61.19
201905140054,61.19,61.24,61.17,61.18
201905140055,61.18,61.18,61.04,61.09
201905140056,61.09,61.23,61.08,61.22
201905140057,61.22,61.31,61.18,61.29
201905140058,61.29,61.32,61.29,61.31
201905140059,61.31,61.35,61.29,61.3
201905140100,61.3,61.3,61.18,61.18
201905140101,61.18,61.19,61.15,61.19
201905140102,61.19,61.22,61.13,61.16
201905140103,61.16,61.18,61.12,61.12
201905140104,61.12,61.13,61.07,61.07
201905140105,61.07,61.09,61.01,61.09
201905140106,61.09,61.2,61.09,61.19
201905140107,61.19,61.19,61.11,61.16
201905140108,61.16,61.18,61.09,61.11
201905140109,61.11,61.14,61.04,61.06
201905140110,61.06,61.1,61.02,61.04
201905140111,61.04,61.07,61,61.01
201905140112,61.01,61.03,60.97,61
201905140113,61.01,61.07,61,61.03
201905140114,61.04,61.04,60.89,60.91
201905140115,60.91,60.94,60.87,60.91
201905140116,60.91,60.91,60.84,60.85
201905140117,60.85,61.01,60.82,60.99
201905140118,60.99,61.05,60.97,61.05
201905140119,61.04,61.12,61.04,61.1
201905140120,61.1,61.1,61,61.05
201905140121,61.05,61.1,61.05,61.09
201905140122,61.09,61.12,61.06,61.12
201905140123,61.12,61.14,61.09,61.11
201905140124,61.11,61.12,61.05,61.05
201905140125,61.05,61.08,61.04,61.05
201905140126,61.05,61.05,60.93,60.96
201905140127,60.96,60.96,60.92,60.93
201905140128,60.93,61.03,60.93,61.01
201905140129,61.01,61.05,61.01,61.04
201905140130,61.04,61.04,60.96,60.98
201905140131,60.98,60.98,60.94,60.95
201905140132,60.95,60.98,60.93,60.94
201905140133,60.94,60.94,60.87,60.9
201905140134,60.9,60.92,60.89,60.92
201905140135,60.92,60.98,60.9,60.98
201905140136,60.98,60.98,60.85,60.88
201905140137,60.88,60.98,60.88,60.98
201905140138,60.97,61,60.96,60.98
201905140139,60.98,60.98,60.95,60.96
201905140140,60.96,61,60.96,60.98
201905140141,60.98,61.05,60.97,61.03
201905140142,61.03,61.06,61.03,61.05
201905140143,61.05,61.06,61.01,61.02
201905140144,61.02,61.03,60.95,60.96
201905140145,60.96,60.98,60.94,60.97
201905140146,60.97,60.97,60.92,60.94
201905140147,60.93,61.02,60.93,61.02
201905140148,61.02,61.02,60.97,60.97
201905140149,60.97,60.99,60.97,60.98
201905140150,60.98,60.99,60.94,60.94
201905140151,60.94,60.96,60.92,60.94
201905140152,60.94,60.96,60.92,60.93
201905140153,60.93,60.93,60.88,60.89
201905140154,60.89,60.9,60.86,60.86
201905140155,60.86,60.86,60.75,60.77
201905140156,60.77,60.77,60.68,60.7
201905140157,60.7,60.72,60.64,60.65
201905140158,60.65,60.7,60.63,60.69
201905140159,60.69,60.71,60.65,60.65
201905140200,60.65,60.76,60.63,60.75
201905140201,60.75,60.76,60.67,60.67
201905140202,60.67,60.69,60.64,60.66
201905140203,60.66,60.77,60.65,60.77
201905140204,60.76,60.8,60.74,60.74
201905140205,60.74,60.76,60.71,60.71
201905140206,60.71,60.81,60.7,60.8
201905140207,60.8,60.83,60.79,60.82
201905140208,60.82,60.83,60.79,60.83
201905140209,60.83,60.83,60.78,60.8
201905140210,60.8,60.83,60.79,60.8
201905140211,60.8,60.82,60.78,60.8
201905140212,60.8,60.83,60.77,60.79
201905140213,60.79,60.8,60.77,60.79
201905140214,60.79,60.8,60.76,60.77
201905140215,60.77,60.86,60.76,60.86
201905140216,60.86,60.93,60.84,60.9
201905140217,60.89,60.95,60.88,60.95
201905140218,60.95,60.98,60.94,60.97
201905140219,60.97,61.05,60.96,61.02
201905140220,61.02,61.04,60.98,61.01
201905140221,61.01,61.07,61.01,61.04
201905140222,61.04,61.07,61.03,61.04
201905140223,61.04,61.14,61.04,61.13
201905140224,61.13,61.15,61.08,61.1
201905140225,61.1,61.17,61.1,61.15
201905140226,61.15,61.18,61.08,61.08
201905140227,61.07,61.1,61.04,61.04
201905140228,61.04,61.05,61.01,61.01
201905140229,61.01,61.04,61.01,61.03
201905140230,61.02,61.06,61.01,61.05
201905140231,61.05,61.07,61.05,61.07
201905140232,61.07,61.11,61.04,61.08
201905140233,61.08,61.09,61.05,61.06
201905140234,61.06,61.07,61.01,61.02
201905140235,61.02,61.07,61.02,61.05
201905140236,61.05,61.07,61.04,61.05
201905140237,61.05,61.06,61.03,61.04
201905140238,61.04,61.14,61.03,61.14
201905140239,61.13,61.15,61.06,61.06
201905140240,61.06,61.13,61.06,61.09
201905140241,61.09,61.11,61.05,61.05
201905140242,61.05,61.06,60.98,60.98
201905140243,60.98,60.99,60.94,60.95
201905140244,60.95,60.96,60.87,60.87
201905140245,60.88,60.88,60.84,60.84
201905140246,60.84,60.85,60.82,60.82
201905140247,60.82,60.88,60.82,60.88
201905140248,60.88,60.99,60.88,60.97
201905140249,60.97,61.01,60.96,60.99
201905140250,60.99,61,60.92,60.93
201905140251,60.91,60.93,60.91,60.93
201905140252,60.93,60.96,60.93,60.94
201905140253,60.94,60.97,60.92,60.93
201905140254,60.93,60.96,60.92,60.95
201905140255,60.95,61,60.95,60.98
201905140256,60.98,61.04,60.97,61.02
201905140257,61.01,61.02,60.99,60.99
201905140258,61,61.02,60.97,60.98
201905140259,60.98,60.98,60.95,60.96
201905140300,60.96,60.98,60.91,60.91
201905140301,60.92,60.96,60.92,60.93
201905140302,60.93,61.02,60.93,61
201905140303,61,61.03,60.98,61.03
201905140304,61.03,61.05,61,61.02
201905140305,61.02,61.07,61.02,61.03
201905140306,61.03,61.04,60.98,60.99
201905140307,60.99,61.05,60.99,61
201905140308,61,61.04,60.99,61
201905140309,61,61.02,60.99,61.01
201905140310,61.01,61.01,60.94,60.94
201905140311,60.94,60.99,60.93,60.96
201905140312,60.96,60.96,60.83,60.87
201905140313,60.87,60.98,60.86,60.96
201905140314,60.96,60.98,60.95,60.95
201905140315,60.95,61,60.9,60.91
201905140316,60.91,60.95,60.9,60.95
201905140317,60.95,60.98,60.9,60.94
201905140318,60.94,60.98,60.94,60.96
201905140319,60.96,60.98,60.9,60.96
201905140320,60.96,61.02,60.92,60.93
201905140321,60.93,60.99,60.91,60.97
201905140322,60.97,61.01,60.92,60.97
201905140323,60.97,61.03,60.97,61.01
201905140324,61.01,61.04,60.98,61.02
201905140325,61.02,61.2,60.99,61.12
201905140326,61.12,61.12,61.03,61.11
201905140327,61.11,61.14,61.09,61.1
201905140328,61.1,61.13,61.02,61.05
201905140329,61.05,61.07,60.95,60.97
201905140330,60.97,61.06,60.96,61.06
201905140331,61.06,61.09,61.04,61.05
201905140332,61.05,61.06,61.04,61.04
201905140333,61.04,61.05,60.99,61
201905140334,61,61.01,60.95,60.96
201905140335,60.96,60.99,60.95,60.95
201905140336,60.95,60.95,60.9,60.91
201905140337,60.91,60.94,60.91,60.92
201905140338,60.92,60.93,60.91,60.92
201905140339,60.92,60.93,60.91,60.91
201905140340,60.91,60.94,60.89,60.94
201905140341,60.94,60.95,60.92,60.93
201905140342,60.93,60.94,60.92,60.93
201905140343,60.93,60.93,60.87,60.87
201905140344,60.86,60.93,60.86,60.93
201905140345,60.93,60.95,60.93,60.93
201905140346,60.93,60.95,60.93,60.94
201905140347,60.94,60.97,60.94,60.96
201905140348,60.96,60.98,60.96,60.98
201905140349,60.98,61,60.98,60.98
201905140350,60.99,61.04,60.99,61.01
201905140351,61.01,61.03,61.01,61.03
201905140352,61.03,61.04,61.01,61.02
201905140353,61.02,61.04,61,61.02
201905140354,61.02,61.04,61.01,61.03
201905140355,61.03,61.03,61,61.02
201905140356,61.02,61.03,61,61.03
201905140357,61.03,61.04,61.02,61.03
201905140358,61.03,61.05,61.03,61.05
201905140359,61.05,61.05,61,61
201905140400,61.01,61.05,61.01,61.03
201905140401,61.03,61.03,60.99,60.99
201905140402,60.99,61,60.96,60.98
201905140403,60.98,60.99,60.95,60.95
201905140404,60.95,60.96,60.95,60.96
201905140405,60.96,60.97,60.94,60.96
201905140406,60.96,60.98,60.95,60.97
201905140407,60.97,60.98,60.97,60.97
201905140408,60.97,61.01,60.97,61.01
201905140409,61,61.01,60.96,60.96
201905140410,60.96,60.97,60.96,60.96
201905140411,60.96,61,60.95,60.98
201905140412,60.98,61,60.98,61
201905140413,61,61,60.98,61
201905140414,61,61,60.99,60.99
201905140415,60.99,61,60.97,60.99
201905140416,60.99,61.01,60.97,60.97
201905140417,60.97,60.99,60.97,60.97
201905140418,60.97,60.97,60.94,60.94
201905140419,60.94,60.94,60.91,60.91
201905140420,60.91,60.91,60.89,60.91
201905140421,60.91,60.94,60.91,60.92
201905140422,60.92,60.93,60.91,60.92
201905140423,60.92,60.94,60.92,60.94
201905140424,60.94,60.94,60.91,60.91
201905140425,60.91,60.91,60.9,60.91
201905140426,60.91,60.92,60.9,60.91
201905140427,60.91,60.92,60.9,60.91
201905140428,60.91,60.95,60.91,60.95
201905140429,60.95,60.95,60.9,60.91
201905140430,60.91,60.91,60.87,60.88
201905140431,60.88,60.89,60.87,60.87
201905140432,60.87,60.87,60.83,60.84
201905140433,60.84,60.84,60.79,60.8
201905140434,60.8,60.83,60.79,60.83
201905140435,60.83,60.85,60.82,60.84
201905140436,60.84,60.85,60.82,60.83
201905140437,60.83,60.83,60.81,60.81
201905140438,60.81,60.82,60.81,60.81
201905140439,60.81,60.83,60.81,60.83
201905140440,60.83,60.85,60.82,60.82
201905140441,60.82,60.84,60.8,60.81
201905140442,60.81,60.82,60.8,60.82
201905140443,60.82,60.83,60.82,60.83
201905140444,60.83,60.83,60.8,60.8
201905140445,60.8,60.84,60.8,60.81
201905140446,60.81,60.84,60.8,60.81
201905140447,60.81,60.86,60.8,60.86
201905140448,60.86,60.86,60.84,60.86
201905140449,60.86,60.86,60.83,60.83
201905140450,60.83,60.84,60.8,60.83
201905140451,60.83,60.83,60.82,60.82
201905140452,60.82,60.82,60.79,60.81
201905140453,60.81,60.81,60.79,60.8
201905140454,60.8,60.82,60.79,60.81
201905140455,60.81,60.83,60.8,60.81
201905140456,60.81,60.81,60.79,60.8
201905140457,60.8,60.8,60.79,60.8
201905140458,60.8,60.82,60.8,60.81
201905140459,60.81,60.82,60.79,60.79
201905140500,60.79,60.81,60.79,60.81
201905140501,60.81,60.81,60.79,60.8
201905140502,60.8,60.81,60.8,60.8
201905140503,60.8,60.82,60.79,60.8
201905140504,60.8,60.82,60.79,60.81
201905140505,60.81,60.81,60.8,60.81
201905140506,60.81,60.81,60.8,60.81
201905140507,60.81,60.81,60.8,60.81
201905140508,60.81,60.83,60.81,60.82
201905140509,60.82,60.82,60.81,60.81
201905140510,60.81,60.82,60.81,60.82
201905140511,60.82,60.82,60.82,60.82
201905140512,60.82,60.85,60.82,60.84
201905140513,60.84,60.85,60.84,60.85
201905140514,60.85,60.86,60.83,60.83
201905140515,60.83,60.86,60.83,60.86
201905140516,60.86,60.87,60.86,60.86
201905140517,60.86,60.87,60.86,60.86
201905140518,60.86,60.86,60.86,60.86
201905140519,60.86,60.86,60.85,60.85
201905140520,60.85,60.85,60.85,60.85
201905140521,60.85,60.85,60.84,60.85
201905140522,60.85,60.85,60.85,60.85
201905140523,60.85,60.85,60.85,60.85
201905140524,60.85,60.86,60.85,60.85
201905140525,60.85,60.86,60.85,60.86
201905140526,60.86,60.86,60.83,60.83
201905140527,60.83,60.84,60.83,60.83
201905140528,60.83,60.83,60.83,60.83
201905140529,60.83,60.84,60.83,60.84
201905140530,60.84,60.85,60.83,60.83
201905140531,60.83,60.83,60.82,60.83
201905140532,60.83,60.83,60.82,60.82
201905140533,60.82,60.83,60.82,60.83
201905140534,60.83,60.83,60.82,60.82
201905140535,60.82,60.83,60.82,60.82
201905140536,60.82,60.83,60.81,60.81
201905140537,60.81,60.81,60.8,60.81
201905140538,60.81,60.82,60.81,60.82
201905140539,60.82,60.82,60.82,60.82
201905140540,60.82,60.82,60.82,60.82
201905140541,60.82,60.82,60.82,60.82
201905140542,60.82,60.82,60.81,60.82
201905140543,60.82,60.83,60.82,60.83
201905140544,60.83,60.84,60.82,60.82
201905140545,60.82,60.83,60.81,60.82
201905140546,60.82,60.82,60.82,60.82
201905140547,60.82,60.82,60.81,60.82
201905140548,60.82,60.84,60.82,60.84
201905140549,60.84,60.84,60.83,60.84
201905140550,60.84,60.85,60.83,60.84
201905140551,60.84,60.84,60.83,60.83
201905140552,60.83,60.84,60.83,60.84
201905140553,60.84,60.84,60.83,60.83
201905140554,60.83,60.84,60.83,60.83
201905140555,60.83,60.84,60.83,60.83
201905140556,60.83,60.85,60.83,60.84
201905140557,60.84,60.84,60.83,60.83
201905140558,60.83,60.84,60.83,60.83
201905140559,60.83,60.84,60.81,60.82
