日時,始値(BID),高値(BID),安値(BID),終値(BID)
201912120800,8407.8,8407.8,8405.7,8406.6
201912120801,8406.6,8406.6,8405.2,8405.3
201912120802,8405.3,8406.7,8404.7,8406.7
201912120803,8406.7,8407.4,8406.6,8407.2
201912120804,8407.3,8407.3,8406.7,8406.9
201912120805,8406.9,8407.3,8406.9,8407
201912120806,8407,8407.8,8407,8407.8
201912120807,8407.8,8407.8,8407.2,8407.3
201912120808,8407.3,8407.6,8407.3,8407.5
201912120809,8407.5,8408.3,8407.5,8408.2
201912120810,8408.2,8408.4,8407.9,8407.9
201912120811,8407.9,8408.1,8407,8407
201912120812,8407,8407.2,8406.7,8406.7
201912120813,8406.7,8406.9,8406.4,8406.4
201912120814,8406.4,8406.6,8405.9,8405.9
201912120815,8405.9,8406.6,8405.7,8406.3
201912120816,8406.3,8406.4,8406.2,8406.3
201912120817,8406.3,8406.3,8406,8406
201912120818,8406,8406.6,8406,8406.6
201912120819,8406.6,8406.6,8406.2,8406.4
201912120820,8406.4,8406.6,8406.3,8406.6
201912120821,8406.7,8407.1,8406.7,8406.9
201912120822,8406.9,8407.3,8406.7,8407.2
201912120823,8407.2,8407.4,8407.1,8407.4
201912120824,8407.3,8407.8,8407.3,8407.8
201912120825,8407.9,8408,8407.7,8407.8
201912120826,8407.8,8408.6,8407.8,8408.6
201912120827,8408.6,8408.9,8408.5,8408.7
201912120828,8408.7,8408.7,8408.4,8408.4
201912120829,8408.4,8408.9,8408.4,8408.6
201912120830,8408.7,8409.2,8408.7,8409
201912120831,8409.1,8409.2,8409.1,8409.2
201912120832,8409.2,8409.2,8408.9,8408.9
201912120833,8408.9,8409.1,8408.9,8408.9
201912120834,8408.9,8409.1,8408.9,8409
201912120835,8409,8409.3,8409,8409.1
201912120836,8409,8409.2,8409,8409.2
201912120837,8409.2,8409.2,8408.9,8409.1
201912120838,8409.1,8409.2,8408.6,8409
201912120839,8409,8409.2,8408.9,8409.2
201912120840,8409.2,8409.3,8408.9,8409.2
201912120841,8409.2,8409.2,8408.9,8408.9
201912120842,8408.9,8409.4,8408.9,8409.4
201912120843,8409.4,8409.8,8408.7,8408.9
201912120844,8408.9,8409.1,8407.7,8409.1
201912120845,8409.1,8409.5,8408.9,8409.5
201912120846,8409.5,8409.8,8409,8409.8
201912120847,8409.9,8412.2,8409.9,8412
201912120848,8412.1,8412.9,8411.9,8412.3
201912120849,8412.3,8412.6,8411.9,8412.6
201912120850,8412.6,8412.9,8412.5,8412.9
201912120851,8412.9,8413.2,8412.9,8413.1
201912120852,8413.1,8413.2,8412.9,8413.2
201912120853,8413.2,8413.3,8412.8,8413.1
201912120854,8413.1,8413.1,8412,8412
201912120855,8412,8413.4,8412,8412.9
201912120856,8412.9,8415.1,8412.9,8413.7
201912120857,8413.7,8414.3,8413.7,8413.9
201912120858,8413.9,8414.4,8413.9,8414.4
201912120859,8414.4,8414.5,8414.2,8414.4
201912120900,8414.4,8414.9,8413.6,8413.6
201912120901,8413.5,8414.2,8413.3,8413.3
201912120902,8413.3,8413.3,8409.6,8411
201912120903,8411,8411.9,8410.8,8411.2
201912120904,8411.2,8413,8410.5,8412.4
201912120905,8412.4,8414.4,8412.2,8413.4
201912120906,8413.3,8413.8,8411.8,8412.1
201912120907,8412.1,8412.4,8411.4,8411.8
201912120908,8411.8,8412.2,8410.6,8412
201912120909,8412.1,8412.3,8410.7,8411.4
201912120910,8411.4,8411.4,8410.4,8410.9
201912120911,8410.9,8410.9,8410.4,8410.4
201912120912,8410.4,8410.5,8410.1,8410.5
201912120913,8410.5,8412.3,8410.4,8412.1
201912120914,8412.1,8413.8,8411.9,8412
201912120915,8412.1,8412.8,8410.4,8410.4
201912120916,8410.4,8412.5,8410.4,8412.3
201912120917,8412.3,8412.3,8410.4,8411.7
201912120918,8411.7,8411.7,8411.1,8411.4
201912120919,8411.6,8411.7,8410.2,8411.7
201912120920,8411.7,8412,8410.7,8410.7
201912120921,8410.7,8411.2,8410.3,8411.1
201912120922,8411.1,8411.4,8410.5,8411.3
201912120923,8411.4,8412,8411,8411.8
201912120924,8411.8,8412,8410.3,8410.5
201912120925,8410.5,8410.9,8410.4,8410.8
201912120926,8410.8,8411.4,8410.7,8411.3
201912120927,8411.3,8411.5,8410.4,8410.5
201912120928,8410.6,8410.6,8408.1,8408.1
201912120929,8408.1,8408.3,8407.6,8407.7
201912120930,8407.7,8408.7,8407.3,8408.4
201912120931,8408.4,8408.4,8407.1,8408.2
201912120932,8408.2,8408.5,8407.3,8407.3
201912120933,8407.3,8407.3,8406.7,8406.8
201912120934,8406.8,8407.1,8406.5,8406.5
201912120935,8406.5,8406.8,8405.9,8406
201912120936,8406,8407.2,8405.9,8407.2
201912120937,8407.2,8407.3,8405.7,8406
201912120938,8406,8407,8405.9,8407
201912120939,8407,8408.2,8407,8407.9
201912120940,8407.9,8408.2,8406.9,8406.9
201912120941,8406.9,8408.2,8406.9,8408.2
201912120942,8408.4,8408.4,8407.2,8407.4
201912120943,8407.4,8407.9,8407.4,8407.4
201912120944,8407.4,8407.4,8407,8407
201912120945,8406.9,8407.4,8405.6,8405.7
201912120946,8405.7,8406.5,8405.6,8406
201912120947,8406,8407.9,8406,8407.9
201912120948,8407.8,8408,8406,8406.2
201912120949,8406.2,8406.8,8406.2,8406.4
201912120950,8406.3,8406.3,8404.5,8404.9
201912120951,8404.9,8405,8404.2,8404.6
201912120952,8404.6,8405.3,8404.6,8404.7
201912120953,8404.9,8405.3,8404.7,8404.7
201912120954,8404.7,8405,8404.3,8404.8
201912120955,8404.8,8405.5,8404.8,8405.4
201912120956,8405.4,8406.3,8405.4,8406
201912120957,8406,8407.1,8406,8407.1
201912120958,8407.1,8407.7,8407.1,8407.7
201912120959,8407.8,8408,8407.2,8407.5
201912121000,8407.5,8408.5,8407.4,8407.5
201912121001,8407.5,8407.9,8406.9,8407
201912121002,8407.1,8407.9,8406.7,8407.5
201912121003,8407.5,8408.6,8407.2,8407.3
201912121004,8407.3,8407.3,8406.4,8406.4
201912121005,8406.4,8406.4,8406.1,8406.1
201912121006,8406.1,8406.3,8405.9,8406
201912121007,8406,8406.8,8406,8406.7
201912121008,8406.8,8406.9,8406,8406.3
201912121009,8406.3,8406.7,8406,8406.2
201912121010,8406.2,8406.9,8406.1,8406.3
201912121011,8406.3,8406.8,8406.2,8406.6
201912121012,8406.6,8406.9,8406.2,8406.7
201912121013,8406.7,8407.1,8406.5,8407.1
201912121014,8407,8408.2,8406.8,8408.2
201912121015,8408.2,8410.8,8408.2,8410.7
201912121016,8410.7,8411.3,8410.2,8411
201912121017,8411,8412,8410.7,8411.7
201912121018,8411.6,8412.2,8411.6,8411.8
201912121019,8411.8,8412.4,8411.5,8411.5
201912121020,8411.8,8411.8,8411.2,8411.8
201912121021,8411.8,8412,8411.7,8412
201912121022,8412,8412.1,8411.7,8411.8
201912121023,8411.9,8415,8411.9,8415
201912121024,8415,8415.9,8414,8414
201912121025,8414,8415.1,8413.9,8414
201912121026,8414,8414.3,8413.6,8413.8
201912121027,8413.7,8414.3,8413.5,8413.8
201912121028,8413.8,8414,8412.9,8413.6
201912121029,8413.6,8415.3,8413.4,8415.2
201912121030,8415.2,8415.3,8414.3,8414.3
201912121031,8414.4,8414.8,8413.7,8414.2
201912121032,8414.2,8414.5,8413.2,8414.3
201912121033,8414.3,8414.5,8413,8413.4
201912121034,8413.4,8413.5,8413,8413.2
201912121035,8413.2,8413.4,8412.2,8412.9
201912121036,8412.9,8415,8412.8,8414.8
201912121037,8414.9,8414.9,8413.8,8413.8
201912121038,8413.9,8414.3,8413.6,8414.2
201912121039,8414,8414.4,8413.4,8413.7
201912121040,8413.7,8414,8413.3,8414
201912121041,8414,8416.3,8414,8415.9
201912121042,8415.9,8417,8415.9,8416.2
201912121043,8416.2,8416.2,8415.4,8416
201912121044,8416,8416.3,8415.2,8416.2
201912121045,8416.2,8416.2,8415.2,8415.7
201912121046,8415.7,8415.8,8414.7,8414.7
201912121047,8414.7,8414.8,8413.7,8414.6
201912121048,8414.6,8414.7,8413.8,8414
201912121049,8414.2,8414.4,8413.2,8413.2
201912121050,8413.2,8414.1,8412.7,8413.9
201912121051,8413.9,8414.8,8413.7,8414
201912121052,8414,8415,8413.9,8415
201912121053,8415,8415.2,8414.2,8414.2
201912121054,8414.1,8415.1,8414.1,8415.1
201912121055,8415.2,8415.9,8415,8415.9
201912121056,8415.9,8415.9,8414.7,8415
201912121057,8415.1,8415.2,8414.7,8415.1
201912121058,8415.1,8415.2,8414.5,8414.7
201912121059,8414.7,8416.7,8414.7,8416.5
201912121100,8416.5,8416.7,8415.2,8416.1
201912121101,8416.1,8416.1,8415.7,8415.8
201912121102,8415.8,8415.9,8415.1,8415.1
201912121103,8415.1,8415.3,8414.4,8414.9
201912121104,8414.9,8415,8414.6,8414.8
201912121105,8414.7,8414.8,8414.1,8414.2
201912121106,8414.2,8414.6,8414.2,8414.6
201912121107,8414.6,8415.1,8414.2,8414.9
201912121108,8414.9,8415.1,8414.5,8414.8
201912121109,8414.9,8415.4,8414.9,8415.2
201912121110,8415.2,8416.1,8415.2,8416.1
201912121111,8416.1,8416.1,8415.9,8416
201912121112,8416,8416.4,8415.7,8416.2
201912121113,8416,8416.3,8415.7,8416
201912121114,8416.1,8416.5,8415.9,8415.9
201912121115,8415.9,8416,8414.9,8415.8
201912121116,8415.8,8416.3,8415.5,8415.6
201912121117,8415.6,8415.7,8414.7,8414.9
201912121118,8414.7,8415.1,8414.4,8415.1
201912121119,8415.1,8415.2,8414.2,8414.4
201912121120,8414.4,8415.5,8414.3,8415
201912121121,8415,8415.6,8414.9,8415.4
201912121122,8415.4,8415.6,8414.9,8414.9
201912121123,8414.9,8415,8414.2,8414.2
201912121124,8414.2,8414.5,8414.1,8414.3
201912121125,8414.4,8414.7,8414.4,8414.4
201912121126,8414.4,8414.5,8414.2,8414.4
201912121127,8414.4,8414.8,8414.4,8414.8
201912121128,8414.8,8415.4,8414.8,8415.3
201912121129,8415.3,8416,8415.3,8415.8
201912121130,8415.7,8415.8,8415.2,8415.7
201912121131,8415.6,8416.5,8415.4,8416.5
201912121132,8416.5,8416.5,8415.9,8415.9
201912121133,8415.9,8416.3,8415.9,8416.3
201912121134,8416.3,8416.4,8415.9,8416
201912121135,8416.1,8416.3,8415.9,8416.2
201912121136,8416.3,8416.9,8416.2,8416.4
201912121137,8416.4,8417.7,8416.4,8417.6
201912121138,8417.6,8418.3,8417.4,8418.1
201912121139,8418.1,8418.2,8417.9,8418
201912121140,8418,8418.1,8416.8,8417.1
201912121141,8417,8417.2,8416.9,8416.9
201912121142,8416.9,8417,8416.7,8416.9
201912121143,8416.9,8418,8416.9,8417.5
201912121144,8417.5,8418,8417.1,8417.9
201912121145,8417.9,8418,8417,8417
201912121146,8416.9,8417.3,8416.4,8416.5
201912121147,8416.5,8416.6,8415.4,8415.5
201912121148,8415.5,8415.6,8415.1,8415.2
201912121149,8415.4,8416,8415.3,8415.6
201912121150,8415.6,8416,8415.6,8415.6
201912121151,8415.6,8415.6,8414.9,8414.9
201912121152,8414.8,8415.2,8414.7,8414.8
201912121153,8414.8,8415,8414.3,8414.3
201912121154,8414.3,8414.6,8414.2,8414.2
201912121155,8414.1,8414.3,8413.7,8414.2
201912121156,8414.2,8414.5,8414.2,8414.4
201912121157,8414.4,8414.4,8413.7,8414
201912121158,8414,8414.5,8414,8414.4
201912121159,8414.3,8414.7,8414.3,8414.5
201912121200,8414.5,8415,8414.5,8414.7
201912121201,8414.7,8414.8,8413.2,8413.2
201912121202,8413.1,8413.5,8412.9,8413.5
201912121203,8413.5,8413.6,8413.1,8413.4
201912121204,8413.4,8413.5,8413,8413.3
201912121205,8413.3,8413.5,8413,8413.5
201912121206,8413.5,8413.5,8413.1,8413.4
201912121207,8413.4,8413.4,8412.8,8412.8
201912121208,8412.8,8412.9,8412,8412.1
201912121209,8412.2,8412.2,8411.9,8412.2
201912121210,8412.2,8412.9,8412,8412.8
201912121211,8412.9,8413.1,8412.6,8413
201912121212,8413,8413.3,8412.9,8413.3
201912121213,8413.3,8413.5,8413.1,8413.4
201912121214,8413.4,8413.4,8412.9,8413.2
201912121215,8413.1,8413.5,8412.9,8413.5
201912121216,8413.5,8413.8,8413.4,8413.5
201912121217,8413.6,8413.6,8413.3,8413.5
201912121218,8413.5,8413.5,8413.3,8413.4
201912121219,8413.3,8414,8413.2,8414
201912121220,8414,8414.6,8413.7,8414.3
201912121221,8414.3,8414.3,8413.9,8414.3
201912121222,8414.3,8414.3,8413.7,8413.9
201912121223,8413.9,8414,8413.6,8413.8
201912121224,8413.7,8414,8413.5,8413.5
201912121225,8413.5,8413.7,8413.2,8413.3
201912121226,8413.4,8413.8,8413.4,8413.7
201912121227,8413.7,8413.7,8413.4,8413.4
201912121228,8413.4,8413.6,8413.2,8413.3
201912121229,8413.3,8414,8413.1,8413.7
201912121230,8413.7,8414,8412.9,8413
201912121231,8413,8413.2,8412.6,8412.7
201912121232,8412.7,8413,8412.5,8412.6
201912121233,8412.7,8413,8412.7,8412.7
201912121234,8412.9,8413.3,8412.6,8412.6
201912121235,8412.7,8412.9,8412.4,8412.9
201912121236,8412.9,8413.8,8412.9,8413.7
201912121237,8413.7,8413.7,8412.7,8412.7
201912121238,8412.7,8413.4,8412.7,8413.4
201912121239,8413.3,8413.3,8412.7,8412.7
201912121240,8412.7,8412.9,8412.4,8412.7
201912121241,8412.7,8412.9,8412.6,8412.8
201912121242,8412.8,8413,8412.3,8412.3
201912121243,8412.3,8412.3,8411.9,8411.9
201912121244,8411.9,8412.3,8411.9,8412.1
201912121245,8412,8412.5,8411.9,8412.1
201912121246,8412.1,8412.3,8412,8412.1
201912121247,8412.2,8412.8,8412.2,8412.7
201912121248,8412.7,8413.1,8412.7,8412.9
201912121249,8412.8,8413.7,8412.6,8413.7
201912121250,8413.6,8413.6,8413.2,8413.5
201912121251,8413.5,8413.5,8412.9,8413
201912121252,8413,8413.2,8412.9,8413.2
201912121253,8413.2,8413.8,8413.2,8413.7
201912121254,8413.5,8413.8,8413.4,8413.8
201912121255,8413.8,8414,8413.3,8413.4
201912121256,8413.4,8414,8413.4,8413.7
201912121257,8413.7,8414.4,8413.7,8414.3
201912121258,8414.3,8414.3,8413.7,8413.9
201912121259,8413.9,8414.3,8413.9,8414.2
201912121300,8414,8414,8413.7,8413.7
201912121301,8413.5,8414,8413.4,8414
201912121302,8414,8414,8413.4,8413.7
201912121303,8413.7,8413.9,8413.6,8413.7
201912121304,8413.7,8413.8,8413.5,8413.5
201912121305,8413.5,8413.5,8413.2,8413.4
201912121306,8413.4,8413.4,8413.1,8413.3
201912121307,8413.3,8413.4,8413.2,8413.3
201912121308,8413.3,8413.7,8413.3,8413.7
201912121309,8413.8,8414.7,8413.8,8414.4
201912121310,8414.4,8414.5,8414.3,8414.3
201912121311,8414.3,8414.8,8414.3,8414.7
201912121312,8414.7,8414.8,8414.7,8414.7
201912121313,8414.6,8414.6,8413.9,8414.3
201912121314,8414.3,8414.3,8414.2,8414.2
201912121315,8414.2,8414.3,8413.6,8413.6
201912121316,8413.5,8413.6,8413.4,8413.4
201912121317,8413.4,8413.6,8413.4,8413.4
201912121318,8413.4,8413.6,8413.2,8413.6
201912121319,8413.6,8413.7,8413.4,8413.5
201912121320,8413.5,8413.6,8413.4,8413.5
201912121321,8413.7,8413.8,8413.6,8413.6
201912121322,8413.6,8413.6,8413.2,8413.3
201912121323,8413.3,8413.5,8413.1,8413.1
201912121324,8413,8413.5,8412.9,8413.4
201912121325,8413.4,8413.6,8413.2,8413.6
201912121326,8413.5,8413.6,8413.2,8413.3
201912121327,8413.3,8413.6,8413.3,8413.4
201912121328,8413.3,8413.5,8413.2,8413.4
201912121329,8413.4,8414,8413.4,8413.9
201912121330,8413.9,8413.9,8413.6,8413.6
201912121331,8413.6,8413.7,8413,8413
201912121332,8413,8413.3,8413,8413.3
201912121333,8413.3,8413.3,8413.2,8413.2
201912121334,8413.2,8413.4,8413.2,8413.3
201912121335,8413.3,8413.5,8413,8413.5
201912121336,8413.5,8413.8,8413.4,8413.4
201912121337,8413.4,8413.4,8412.9,8412.9
201912121338,8412.9,8413,8412.9,8413
201912121339,8413,8413.3,8413,8413.3
201912121340,8413.4,8413.8,8413.4,8413.8
201912121341,8413.8,8413.8,8413.6,8413.6
201912121342,8413.6,8414,8413.6,8413.9
201912121343,8413.9,8414.2,8413.9,8414.2
201912121344,8414.2,8414.2,8413.7,8413.7
201912121345,8413.7,8414.3,8413.7,8413.9
201912121346,8413.9,8413.9,8413.7,8413.8
201912121347,8413.8,8413.8,8413.7,8413.7
201912121348,8413.7,8413.8,8413.7,8413.7
201912121349,8413.7,8413.7,8413.4,8413.5
201912121350,8413.6,8414,8413.6,8413.7
201912121351,8413.7,8413.8,8413.7,8413.8
201912121352,8413.8,8413.8,8413.7,8413.7
201912121353,8413.7,8413.9,8413.5,8413.5
201912121354,8413.5,8414,8413.5,8414
201912121355,8414,8414,8413.4,8413.5
201912121356,8413.5,8413.7,8413.3,8413.7
201912121357,8413.7,8413.7,8413.4,8413.4
201912121358,8413.4,8413.5,8413.4,8413.4
201912121359,8413.4,8413.4,8412.9,8412.9
201912121400,8412.9,8413,8412.1,8412.3
201912121401,8412.3,8412.3,8411.9,8412.1
201912121402,8412.1,8412.1,8412,8412.1
201912121403,8412.1,8412.2,8412,8412
201912121404,8412.1,8412.1,8411.2,8411.4
201912121405,8411.3,8411.9,8410.8,8411.9
201912121406,8411.9,8412.1,8410.8,8410.9
201912121407,8410.9,8411.7,8410.9,8411.6
201912121408,8411.6,8411.8,8411.2,8411.7
201912121409,8411.7,8411.7,8410.9,8411.2
201912121410,8411.1,8412.2,8410.9,8412.2
201912121411,8412.2,8412.2,8411.7,8412.1
201912121412,8412.2,8412.2,8411.9,8412
201912121413,8412.2,8412.4,8411.8,8412.2
201912121414,8412.2,8412.8,8412.1,8412.8
201912121415,8412.8,8413.5,8412.7,8413.4
201912121416,8413.3,8413.3,8412.6,8412.6
201912121417,8412.6,8412.8,8412.2,8412.7
201912121418,8412.7,8412.8,8412.4,8412.7
201912121419,8412.7,8412.9,8412.7,8412.8
201912121420,8412.8,8413,8412.7,8412.8
201912121421,8412.8,8412.9,8412.6,8412.8
201912121422,8412.8,8412.8,8412.5,8412.6
201912121423,8412.5,8412.9,8412.5,8412.7
201912121424,8412.7,8413,8412.7,8413
201912121425,8413,8413,8411.2,8411.3
201912121426,8411.3,8411.8,8411,8411.8
201912121427,8411.9,8412.1,8411.7,8412
201912121428,8412,8412,8411.7,8411.8
201912121429,8411.8,8411.9,8411.7,8411.7
201912121430,8411.7,8412.5,8411.4,8412.3
201912121431,8412.3,8412.3,8411.9,8412
201912121432,8412.1,8412.9,8412,8412.9
201912121433,8412.9,8413.2,8412.8,8412.8
201912121434,8412.8,8412.9,8412.4,8412.6
201912121435,8412.5,8412.8,8412.4,8412.6
201912121436,8412.7,8413.3,8412.4,8412.6
201912121437,8412.5,8412.8,8412.1,8412.1
201912121438,8412.1,8412.3,8412.1,8412.2
201912121439,8412.2,8412.2,8411.6,8411.8
201912121440,8411.8,8411.8,8411.3,8411.7
201912121441,8411.6,8411.6,8411.2,8411.4
201912121442,8411.4,8411.4,8411.1,8411.4
201912121443,8411.3,8411.3,8411.1,8411.2
201912121444,8411.2,8411.5,8411.1,8411.3
201912121445,8411.3,8411.4,8411,8411.2
201912121446,8411.2,8411.4,8410.9,8411.2
201912121447,8411.1,8411.3,8410.9,8410.9
201912121448,8410.9,8411.3,8410.9,8411.2
201912121449,8411.2,8411.4,8411.1,8411.3
201912121450,8411.3,8411.4,8410.9,8411.4
201912121451,8411.4,8411.7,8411.3,8411.4
201912121452,8411.4,8411.9,8411.4,8411.8
201912121453,8411.8,8412.1,8411.7,8411.8
201912121454,8411.8,8412.1,8411.3,8411.6
201912121455,8411.5,8412.1,8411.5,8411.5
201912121456,8411.7,8411.9,8411.6,8411.6
201912121457,8411.6,8411.9,8411.6,8411.8
201912121458,8411.8,8411.9,8411,8411
201912121459,8411,8411.1,8410.5,8410.8
201912121500,8410.8,8411.9,8410.8,8411.7
201912121501,8411.7,8412.3,8411.4,8412.2
201912121502,8412.2,8412.3,8411.9,8412.1
201912121503,8412.1,8412.2,8411.3,8411.3
201912121504,8411.3,8411.7,8411.1,8411.3
201912121505,8411.3,8411.5,8411.2,8411.4
201912121506,8411.3,8411.3,8410.2,8411
201912121507,8410.9,8411.5,8410.7,8410.8
201912121508,8410.8,8410.8,8410.4,8410.4
201912121509,8410.4,8410.8,8410,8410.7
201912121510,8410.6,8411.8,8410.6,8411.2
201912121511,8411.2,8412.6,8411.2,8412.3
201912121512,8412.3,8412.3,8412.1,8412.2
201912121513,8412.2,8412.8,8412.1,8412.8
201912121514,8412.9,8414.3,8412.9,8414
201912121515,8414,8414.5,8413.2,8413.2
201912121516,8413.3,8413.4,8413.2,8413.3
201912121517,8413.3,8413.6,8413.2,8413.2
201912121518,8413.2,8413.5,8413.2,8413.3
201912121519,8413.3,8413.6,8413.3,8413.4
201912121520,8413.4,8413.8,8413.3,8413.7
201912121521,8413.6,8414.3,8413.6,8413.9
201912121522,8413.9,8414,8413.7,8413.7
201912121523,8413.7,8414.1,8413.6,8414
201912121524,8414,8414,8413.8,8413.9
201912121525,8413.9,8413.9,8413.7,8413.7
201912121526,8413.7,8413.9,8413.2,8413.2
201912121527,8413.4,8413.6,8413.2,8413.2
201912121528,8413.2,8413.2,8412.7,8412.7
201912121529,8412.7,8413.2,8412.7,8412.7
201912121530,8412.7,8413.3,8412.7,8413
201912121531,8413,8413.2,8412.9,8412.9
201912121532,8412.9,8413,8412.7,8412.7
201912121533,8412.7,8413.2,8412.7,8413
201912121534,8413,8413.1,8412.9,8412.9
201912121535,8412.9,8413,8412.7,8413
201912121536,8413,8413.1,8412.6,8412.8
201912121537,8412.8,8413,8412.4,8413
201912121538,8413,8413.1,8412.8,8413
201912121539,8413,8413.4,8413,8413.4
201912121540,8413.4,8413.7,8412.9,8413.5
201912121541,8413.5,8413.9,8413.4,8413.8
201912121542,8413.8,8413.8,8413.4,8413.4
201912121543,8413.4,8413.7,8413.4,8413.7
201912121544,8413.7,8414,8413.7,8414
201912121545,8414.1,8414.4,8414.1,8414.2
201912121546,8414.2,8414.5,8414.2,8414.4
201912121547,8414.4,8414.5,8414.2,8414.3
201912121548,8414.3,8414.4,8414.2,8414.4
201912121549,8414.4,8416.1,8414.4,8415.7
201912121550,8415.9,8416.3,8415.9,8415.9
201912121551,8415.9,8416.4,8415.9,8416.4
201912121552,8416.4,8417.2,8416.1,8416.3
201912121553,8416.4,8417.5,8416.4,8417.1
201912121554,8417.2,8417.4,8417,8417.1
201912121555,8417.2,8417.3,8416.9,8417
201912121556,8417,8417.1,8416.9,8416.9
201912121557,8416.9,8417.6,8416.9,8417
201912121558,8417,8417.1,8416.6,8417.1
201912121559,8417.1,8417.7,8416.6,8416.8
201912121600,8416.8,8416.8,8415.5,8415.5
201912121601,8415.5,8417.5,8415.3,8417.2
201912121602,8417.2,8417.2,8416.4,8416.7
201912121603,8416.7,8417.9,8416.7,8417.2
201912121604,8417.2,8417.3,8416.6,8416.9
201912121605,8416.9,8416.9,8415.8,8415.8
201912121606,8415.9,8415.9,8415.2,8415.2
201912121607,8415.2,8416.3,8415.1,8416.2
201912121608,8416.1,8417.1,8415.9,8417
201912121609,8417,8417.2,8416.5,8416.5
201912121610,8416.5,8416.9,8416.4,8416.4
201912121611,8416.3,8417.2,8416.3,8416.9
201912121612,8416.9,8417.4,8416.6,8417.2
201912121613,8417.2,8417.2,8416.7,8416.7
201912121614,8416.7,8416.9,8416.7,8416.9
201912121615,8416.9,8418,8416.7,8417.4
201912121616,8417.4,8417.5,8417.1,8417.1
201912121617,8417.1,8417.1,8415.9,8416
201912121618,8416,8416,8413.7,8413.9
201912121619,8413.9,8414.6,8413.9,8414.4
201912121620,8414.4,8414.5,8413.9,8414.4
201912121621,8414.4,8415.3,8414.4,8415.1
201912121622,8415.2,8415.3,8414.8,8415.1
201912121623,8415.1,8415.3,8414.9,8415.2
201912121624,8415.2,8415.3,8414.9,8414.9
201912121625,8414.8,8416,8414.8,8415.7
201912121626,8415.5,8416.7,8415.4,8416.6
201912121627,8416.6,8416.8,8415.9,8416.3
201912121628,8416.3,8416.3,8415.2,8415.7
201912121629,8415.7,8415.9,8414.7,8414.8
201912121630,8414.9,8415.2,8413.7,8414.2
201912121631,8414.2,8415.6,8414.2,8415.4
201912121632,8415.4,8415.7,8414.4,8414.4
201912121633,8414.4,8414.8,8414,8414.3
201912121634,8414.3,8415.1,8414.3,8415
201912121635,8415.1,8415.5,8414.4,8414.6
201912121636,8414.6,8415.3,8414.1,8415.3
201912121637,8415.3,8415.3,8414.9,8415.3
201912121638,8415.4,8415.4,8414.9,8415.3
201912121639,8415.3,8416.6,8415.2,8416.6
201912121640,8416.5,8417.5,8416.4,8417.2
201912121641,8417.2,8417.5,8416.8,8417.1
201912121642,8417.1,8417.6,8416.9,8417.2
201912121643,8417.2,8417.2,8415.6,8415.9
201912121644,8415.9,8416,8415.7,8415.9
201912121645,8415.8,8415.8,8414.7,8414.7
201912121646,8414.6,8415.6,8414.6,8415.6
201912121647,8415.6,8415.6,8414.7,8415
201912121648,8415,8415.4,8414.9,8415
201912121649,8415.2,8415.5,8414.9,8415.5
201912121650,8415.6,8415.6,8414,8414.6
201912121651,8414.6,8415,8414.4,8414.9
201912121652,8414.9,8415.9,8414.6,8415.9
201912121653,8415.9,8416.4,8415.4,8415.9
201912121654,8415.9,8415.9,8415.4,8415.4
201912121655,8415.5,8415.8,8414.9,8415.1
201912121656,8415.2,8415.3,8414.8,8414.8
201912121657,8414.8,8414.9,8413.2,8413.3
201912121658,8413.3,8414.2,8412.9,8414.1
201912121659,8414.1,8415.6,8414.1,8415.3
201912121700,8415.3,8418.2,8413.4,8413.8
201912121701,8413.8,8415,8413.4,8414.3
201912121702,8414.4,8415.9,8414.4,8415.9
201912121703,8415.9,8417.4,8414.4,8415
201912121704,8415,8422.9,8415,8422.6
201912121705,8422.5,8423.9,8419.9,8419.9
201912121706,8419.9,8420.9,8419.7,8420.9
201912121707,8420.9,8422.7,8420.9,8422.3
201912121708,8422.3,8422.6,8421.2,8422
201912121709,8421.9,8422.5,8420.9,8420.9
201912121710,8420.9,8421.8,8419.6,8419.6
201912121711,8419.6,8420.1,8419.1,8419.1
201912121712,8419.1,8419.7,8418.8,8419.7
201912121713,8419.6,8420.4,8419.4,8419.8
201912121714,8419.8,8419.9,8416.9,8417.9
201912121715,8417.9,8418.9,8417.3,8418.2
201912121716,8418.2,8418.9,8417.9,8418.4
201912121717,8418.4,8419.9,8418.4,8419.4
201912121718,8419.4,8419.6,8418.4,8419.6
201912121719,8419.6,8420,8419.4,8419.6
201912121720,8419.6,8420.3,8419.1,8419.9
201912121721,8419.9,8420.1,8418.1,8418.8
201912121722,8418.8,8419.7,8417.9,8419.7
201912121723,8419.7,8420.1,8419.1,8419.5
201912121724,8419.5,8420.3,8419.4,8420.1
201912121725,8420.1,8420.8,8418.1,8418.5
201912121726,8418.7,8419.6,8418.4,8419.4
201912121727,8419.4,8419.4,8417.2,8417.5
201912121728,8417.6,8418.8,8417.4,8418.4
201912121729,8418.4,8418.4,8417.5,8418.3
201912121730,8418.4,8419.4,8418.4,8419.1
201912121731,8419.2,8419.2,8418.1,8418.3
201912121732,8418.3,8419.3,8417.4,8417.9
201912121733,8417.9,8418.8,8417.8,8418.8
201912121734,8418.8,8418.8,8417.2,8418.4
201912121735,8418.3,8420.1,8417.9,8419.6
201912121736,8419.9,8421.6,8419.3,8421.2
201912121737,8421.2,8421.9,8420.9,8421.9
201912121738,8421.9,8424.5,8421.6,8424.4
201912121739,8424.4,8425,8421.9,8421.9
201912121740,8421.9,8422.5,8420.2,8421.9
201912121741,8421.9,8422.3,8420.8,8420.8
201912121742,8421.2,8421.3,8419.6,8420.1
201912121743,8420.1,8421.5,8419.9,8420.5
201912121744,8420.5,8421.1,8419.9,8420.8
201912121745,8420.9,8421.3,8420,8421.2
201912121746,8421.1,8421.4,8420.5,8420.5
201912121747,8420.5,8421.2,8420.2,8421.2
201912121748,8421.2,8421.4,8420.9,8421.2
201912121749,8421.3,8421.9,8420.7,8421.4
201912121750,8421.4,8423.5,8421.4,8422.9
201912121751,8422.8,8423.1,8422,8422.8
201912121752,8422.8,8422.8,8421.9,8422.1
201912121753,8422.1,8422.4,8421.6,8422.1
201912121754,8422,8422.6,8421.8,8422.4
201912121755,8422.4,8424.1,8422.4,8424
201912121756,8424.1,8424.5,8423.4,8424.4
201912121757,8424.4,8425.9,8424.4,8425.4
201912121758,8425.5,8426.2,8424.1,8424.4
201912121759,8424.4,8424.7,8423.6,8423.7
201912121800,8423.6,8424.5,8423.6,8424.4
201912121801,8424.4,8425.5,8424.4,8425.2
201912121802,8425.2,8425.8,8424.9,8425
201912121803,8425.1,8425.4,8424.7,8425.2
201912121804,8425.2,8426.5,8425.2,8426.2
201912121805,8426.2,8426.2,8424.2,8424.4
201912121806,8424.4,8424.8,8423.9,8423.9
201912121807,8423.9,8425.5,8423.9,8424.9
201912121808,8424.9,8425.7,8424.7,8425.7
201912121809,8425.7,8426,8425.1,8425.1
201912121810,8425.2,8426.3,8424,8424.2
201912121811,8424.1,8424.4,8423.5,8424.1
201912121812,8424.1,8424.3,8423.7,8424.2
201912121813,8424.1,8424.4,8423.6,8423.6
201912121814,8423.6,8423.8,8423.4,8423.4
201912121815,8423.4,8423.4,8421.3,8422.1
201912121816,8422.1,8424.4,8422.1,8423.7
201912121817,8423.7,8423.9,8417.9,8422.4
201912121818,8422.4,8424.2,8422.2,8423.9
201912121819,8423.7,8423.8,8422.8,8422.9
201912121820,8422.9,8423.9,8422.9,8423.3
201912121821,8423.3,8424.3,8423.2,8423.6
201912121822,8423.6,8423.6,8422.7,8423
201912121823,8423,8423.2,8422.2,8422.2
201912121824,8422.2,8422.7,8421.7,8422.1
201912121825,8422.1,8422.6,8421.9,8422.6
201912121826,8422.7,8423.8,8422.7,8423.3
201912121827,8423.3,8424.4,8423.3,8424.2
201912121828,8424,8425,8424,8424.4
201912121829,8424.4,8424.6,8424,8424.6
201912121830,8424.6,8425.3,8423.9,8425
201912121831,8424.9,8424.9,8423.9,8424.5
201912121832,8424.5,8424.8,8424.1,8424.7
201912121833,8424.7,8424.9,8423.3,8423.9
201912121834,8423.9,8424.5,8423.8,8424.2
201912121835,8424.1,8424.4,8423.6,8423.9
201912121836,8423.9,8425,8423.9,8424.8
201912121837,8424.8,8425.5,8424.7,8425.5
201912121838,8425.6,8425.6,8424.4,8424.8
201912121839,8424.8,8424.9,8424.4,8424.5
201912121840,8424.6,8424.6,8423.8,8424.3
201912121841,8424.3,8424.5,8423.9,8424
201912121842,8424.1,8424.5,8423.7,8424
201912121843,8424,8424.7,8423.8,8424.7
201912121844,8424.7,8424.7,8424.1,8424.1
201912121845,8424.1,8424.3,8423.4,8423.6
201912121846,8423.5,8424.3,8423.4,8424.3
201912121847,8424.4,8424.6,8423.9,8423.9
201912121848,8423.9,8425.2,8423.9,8425
201912121849,8425.1,8425.5,8424.7,8425.4
201912121850,8425.3,8429.5,8424.8,8424.8
201912121851,8424.8,8426.2,8424.7,8424.9
201912121852,8424.9,8425.8,8424.4,8425.7
201912121853,8425.7,8426,8425.3,8426
201912121854,8426,8426,8423.6,8423.6
201912121855,8423.8,8424.6,8423.8,8424.4
201912121856,8424.4,8424.8,8424.4,8424.6
201912121857,8424.6,8425.5,8424.6,8425.1
201912121858,8425.2,8425.7,8425,8425.6
201912121859,8425.6,8426.3,8425.4,8425.7
201912121900,8425.7,8426.3,8425.5,8426
201912121901,8426,8426.6,8425.9,8426.3
201912121902,8426.3,8426.5,8425.4,8425.4
201912121903,8425.4,8426,8425.1,8425.3
201912121904,8425.4,8426.5,8425.4,8425.4
201912121905,8425.4,8425.9,8424.9,8425.2
201912121906,8425.2,8426.3,8425,8425.8
201912121907,8425.9,8426.4,8425.7,8425.9
201912121908,8425.8,8425.9,8425.1,8425.4
201912121909,8425.4,8426.1,8425.4,8425.8
201912121910,8425.8,8426.6,8425.5,8426.4
201912121911,8426.3,8426.8,8426.2,8426.7
201912121912,8426.7,8427.7,8426.4,8427.1
201912121913,8427,8428.2,8426.9,8428.2
201912121914,8428.2,8428.2,8418,8422.7
201912121915,8422.7,8426.4,8422.6,8426.4
201912121916,8426.3,8426.4,8425.1,8426.4
201912121917,8426.4,8426.5,8424.9,8425.3
201912121918,8425.3,8425.9,8424.9,8425
201912121919,8425,8425.3,8420.2,8421.2
201912121920,8421.2,8422.9,8420.1,8422.7
201912121921,8422.5,8422.8,8421.3,8422.6
201912121922,8422.5,8422.8,8421.5,8421.5
201912121923,8421.5,8422.1,8419.8,8420.2
201912121924,8420.2,8420.5,8419.4,8419.4
201912121925,8419.4,8419.4,8418.1,8418.3
201912121926,8418.4,8419.4,8418.1,8419.1
201912121927,8419.1,8419.6,8416.6,8417.1
201912121928,8417.1,8419.3,8416.5,8418.4
201912121929,8418.4,8418.5,8417.1,8418.2
201912121930,8418.2,8418.9,8418.1,8418.8
201912121931,8418.8,8419.4,8417.9,8417.9
201912121932,8417.9,8418.2,8416.7,8417.8
201912121933,8417.8,8418.4,8417.7,8417.9
201912121934,8417.9,8418.2,8416.8,8417.9
201912121935,8417.9,8418.3,8417.6,8418.2
201912121936,8418.2,8418.3,8417.6,8418.1
201912121937,8418.1,8418.2,8415.4,8416.6
201912121938,8416.4,8417.5,8416.2,8417.4
201912121939,8417.4,8418.8,8417.2,8418.3
201912121940,8418.3,8418.6,8415.9,8417
201912121941,8417,8417.3,8416.6,8417
201912121942,8417.2,8417.5,8416.4,8416.5
201912121943,8416.6,8416.8,8415.4,8415.5
201912121944,8415.5,8415.5,8412.6,8412.9
201912121945,8413,8413.3,8410.7,8412.1
201912121946,8412.1,8414,8411.9,8413.9
201912121947,8413.9,8415.9,8413.9,8415.6
201912121948,8415.4,8416.1,8415.2,8416.1
201912121949,8416.1,8417.2,8416.1,8416.9
201912121950,8416.8,8417,8415.9,8416.1
201912121951,8416.1,8417,8415.8,8416.7
201912121952,8416.7,8416.7,8414.8,8414.8
201912121953,8414.9,8415.3,8413.1,8413.9
201912121954,8414.2,8416.2,8414.2,8414.9
201912121955,8414.9,8414.9,8413.9,8414.3
201912121956,8414.3,8415,8413.9,8414.8
201912121957,8414.8,8415.1,8414.3,8414.8
201912121958,8414.8,8415,8414.6,8414.8
201912121959,8414.9,8415,8414.6,8414.8
201912122000,8414.8,8416.6,8414.6,8416.6
201912122001,8416.2,8416.7,8415.1,8415.2
201912122002,8415.2,8415.5,8413.6,8414.1
201912122003,8414,8416,8413.6,8415.9
201912122004,8415.9,8416.9,8414.2,8414.2
201912122005,8414.3,8415.4,8413.9,8414.9
201912122006,8414.9,8416,8414.7,8415.7
201912122007,8415.7,8416,8414.4,8415
201912122008,8415.1,8415.6,8414.9,8414.9
201912122009,8414.9,8416.3,8414.2,8416.1
201912122010,8416.1,8416.1,8415.7,8415.7
201912122011,8415.7,8415.8,8415.4,8415.6
201912122012,8415.7,8417.3,8415.7,8416.4
201912122013,8416.4,8416.8,8415.4,8415.9
201912122014,8415.9,8416.4,8415.4,8415.7
201912122015,8415.6,8416.4,8414.7,8416.4
201912122016,8416.4,8416.9,8415.8,8416.9
201912122017,8416.9,8417.5,8416.6,8417.1
201912122018,8417.2,8417.3,8415.4,8416.4
201912122019,8416.4,8416.8,8416.1,8416.3
201912122020,8416.4,8416.5,8415.7,8416.4
201912122021,8416.4,8416.8,8415.9,8415.9
201912122022,8415.9,8416.8,8415.9,8416.1
201912122023,8416.2,8418.6,8416.1,8416.9
201912122024,8416.9,8417.5,8416.7,8417.3
201912122025,8417.3,8417.3,8415.4,8416.6
201912122026,8416.6,8416.6,8416,8416.4
201912122027,8416.4,8416.9,8415.9,8415.9
201912122028,8415.9,8416,8413.2,8414.9
201912122029,8414.9,8415.1,8413.4,8414
201912122030,8414,8414.5,8412.1,8413.8
201912122031,8413.8,8414.8,8413.6,8413.9
201912122032,8413.9,8414.3,8413.6,8413.6
201912122033,8413.6,8414,8412.8,8413
201912122034,8413,8413.5,8412.6,8413.2
201912122035,8413.2,8413.6,8412.7,8412.9
201912122036,8412.9,8413.8,8412.8,8413.2
201912122037,8413.2,8413.7,8413.1,8413.6
201912122038,8413.6,8414.1,8413.6,8413.8
201912122039,8413.9,8414.3,8413.6,8414
201912122040,8413.8,8416.4,8413.8,8415.8
201912122041,8415.8,8416.1,8415.2,8415.2
201912122042,8415.1,8415.8,8415.1,8415.6
201912122043,8415.7,8415.8,8415,8415.8
201912122044,8415.8,8415.8,8415.4,8415.6
201912122045,8415.5,8415.8,8415,8415.5
201912122046,8415.6,8415.7,8415,8415
201912122047,8415,8415.3,8414.9,8415.1
201912122048,8415.1,8415.2,8414.9,8415.1
201912122049,8415.1,8415.9,8414.4,8415.9
201912122050,8415.9,8415.9,8414.2,8414.4
201912122051,8414.4,8415,8414.4,8414.8
201912122052,8414.8,8415,8414.6,8414.6
201912122053,8414.6,8415.6,8413.9,8415.1
201912122054,8415.1,8415.4,8414.9,8415.2
201912122055,8415.2,8415.2,8414.6,8415.1
201912122056,8415.1,8415.3,8414.7,8415
201912122057,8415.2,8416,8414.7,8415.7
201912122058,8415.7,8417.6,8415.7,8417.4
201912122059,8417.4,8417.6,8417.2,8417.5
201912122100,8417.5,8417.9,8417.1,8417.7
201912122101,8417.7,8418.4,8417.4,8417.7
201912122102,8417.7,8418,8416.9,8416.9
201912122103,8416.9,8416.9,8415.2,8415.9
201912122104,8415.9,8416.5,8415.9,8415.9
201912122105,8416,8416,8414.4,8414.7
201912122106,8414.7,8415.1,8414.1,8414.5
201912122107,8414.6,8414.8,8414.2,8414.6
201912122108,8414.5,8414.9,8414.2,8414.3
201912122109,8414.4,8415.5,8414.4,8414.9
201912122110,8414.9,8414.9,8413.6,8413.6
201912122111,8413.6,8414.8,8413.6,8414.8
201912122112,8414.9,8415.5,8414.2,8415.3
201912122113,8415.3,8415.3,8414.7,8415.1
201912122114,8415.1,8415.1,8414.7,8414.9
201912122115,8414.9,8414.9,8406.9,8407.3
201912122116,8407.3,8410.7,8406.2,8410.2
201912122117,8410.1,8411.5,8409.8,8411.2
201912122118,8411.2,8411.2,8410.3,8410.5
201912122119,8410.5,8411.3,8410.4,8410.9
201912122120,8410.8,8411.8,8410.5,8411.4
201912122121,8411.4,8411.5,8410.8,8411.4
201912122122,8411.4,8412.5,8411.4,8412.2
201912122123,8412.3,8412.3,8411.4,8411.4
201912122124,8411.4,8411.5,8409.6,8410
201912122125,8410,8410,8408.2,8408.9
201912122126,8408.9,8410.3,8408.4,8409.7
201912122127,8409.6,8409.9,8409.4,8409.6
201912122128,8409.6,8410,8409.5,8409.6
201912122129,8409.6,8410,8409.5,8409.7
201912122130,8409.7,8409.7,8408.4,8408.7
201912122131,8408.6,8409.3,8408.1,8409.2
201912122132,8409.2,8409.8,8409,8409.4
201912122133,8409.4,8410,8409.4,8409.9
201912122134,8409.9,8409.9,8408.7,8408.8
201912122135,8408.8,8409.1,8407.2,8407.2
201912122136,8407.2,8408.2,8407.2,8407.9
201912122137,8407.9,8409.8,8407.2,8409.6
201912122138,8409.2,8410,8408.9,8409.7
201912122139,8409.7,8410.4,8409.6,8409.9
201912122140,8409.9,8410.3,8409.7,8410.2
201912122141,8410.1,8411.3,8410.1,8411.3
201912122142,8411.3,8412,8411.3,8411.7
201912122143,8411.7,8411.8,8410,8410
201912122144,8410,8410.8,8408.7,8410.4
201912122145,8410.4,8411.5,8410.1,8411.4
201912122146,8411.3,8412.2,8410.2,8410.9
201912122147,8410.9,8412,8410.9,8411.3
201912122148,8411.3,8411.5,8409.4,8409.8
201912122149,8409.9,8411.5,8409.9,8411.1
201912122150,8411.1,8411.5,8410,8410
201912122151,8410,8410,8406.9,8407.5
201912122152,8407.5,8407.7,8403.9,8406.1
201912122153,8406.1,8407.2,8406.1,8406.9
201912122154,8406.9,8407.6,8406.1,8406.1
201912122155,8406.2,8406.3,8403.9,8404.5
201912122156,8404.5,8405.8,8402.9,8405.7
201912122157,8405.7,8405.7,8403.9,8404.3
201912122158,8404.4,8404.6,8403,8403
201912122159,8403,8404,8401.8,8403
201912122200,8403,8404.7,8400.9,8401.4
201912122201,8401.4,8401.8,8398.4,8401.1
201912122202,8401.1,8401.5,8391.4,8393.4
201912122203,8392.8,8392.8,8388.3,8388.3
201912122204,8388.4,8390.6,8385.3,8390.3
201912122205,8390.3,8391,8388.1,8388.1
201912122206,8388.2,8391.3,8388.2,8390.4
201912122207,8390.4,8391.6,8390.3,8390.9
201912122208,8390.9,8391.9,8390.2,8391.4
201912122209,8391.4,8392.9,8391.4,8392.5
201912122210,8392.5,8392.5,8390.4,8391.1
201912122211,8391.1,8391.5,8390.4,8390.8
201912122212,8390.9,8391,8387.6,8389.3
201912122213,8389.4,8389.9,8387.9,8388.7
201912122214,8388.7,8390.8,8388.7,8389.5
201912122215,8389.5,8392,8388.4,8391.7
201912122216,8391.5,8392.9,8391.5,8392.9
201912122217,8392.8,8393.8,8391.5,8392.9
201912122218,8392.9,8393.5,8392.9,8392.9
201912122219,8392.9,8396.8,8392.9,8395.3
201912122220,8395.3,8395.9,8392.8,8392.8
201912122221,8392.5,8393.9,8391.6,8393.7
201912122222,8393.7,8394.2,8393.4,8394.2
201912122223,8394.2,8394.3,8393.2,8394
201912122224,8393.7,8395.5,8393.5,8394.9
201912122225,8394.9,8395.2,8394.3,8394.8
201912122226,8394.8,8395.6,8394.6,8395.6
201912122227,8395.6,8396.1,8394.8,8396.1
201912122228,8396.2,8397.8,8396.1,8397.4
201912122229,8397.4,8397.6,8395.4,8395.7
201912122230,8395.7,8395.9,8390.3,8391.8
201912122231,8391.8,8391.8,8382.9,8383.6
201912122232,8383.6,8389.7,8383,8389.7
201912122233,8389.6,8392.4,8388.9,8391.6
201912122234,8391.6,8392,8389.4,8390.1
201912122235,8390.1,8391.2,8386.9,8390.9
201912122236,8390.9,8395.3,8390.8,8395
201912122237,8395,8396.9,8393.9,8394.7
201912122238,8394.7,8395.7,8394.4,8394.6
201912122239,8394.6,8394.9,8393.7,8394.9
201912122240,8394.9,8395.3,8392.8,8393.7
201912122241,8393.7,8393.7,8389.7,8389.7
201912122242,8389.7,8389.7,8384.2,8387.9
201912122243,8387.9,8391.6,8387.9,8391.4
201912122244,8391.4,8391.4,8386.9,8387.6
201912122245,8387.5,8390.7,8387,8390
201912122246,8390.3,8393.8,8388.7,8393.8
201912122247,8393.7,8396.6,8390.9,8394.7
201912122248,8394.7,8398.5,8394.3,8397.4
201912122249,8397.3,8397.6,8395.9,8396
201912122250,8396.2,8397.3,8395.4,8396.5
201912122251,8396.7,8397.5,8395.6,8397
201912122252,8396.9,8396.9,8395.1,8395.9
201912122253,8395.9,8396.9,8395.4,8396.1
201912122254,8396.1,8398.1,8393.7,8397.9
201912122255,8397.9,8399.4,8396.9,8399.1
201912122256,8399.1,8399.1,8397.7,8398.1
201912122257,8398.1,8398.1,8396.2,8397.2
201912122258,8397.2,8398.1,8396.4,8397.1
201912122259,8397.1,8397.5,8395.9,8396.3
201912122300,8396.3,8397,8393,8395.4
201912122301,8395.4,8396.5,8395.4,8395.7
201912122302,8395.7,8396.3,8394.5,8396
201912122303,8396,8398.3,8395.2,8398.1
201912122304,8398,8398.5,8396.9,8397.4
201912122305,8397.4,8397.8,8396.7,8397.4
201912122306,8397.4,8397.8,8395.8,8396.2
201912122307,8396.5,8398.1,8395.9,8397.9
201912122308,8397.8,8398,8396.3,8396.9
201912122309,8396.9,8398,8396.5,8397.5
201912122310,8397.4,8397.8,8396.7,8396.8
201912122311,8396.8,8396.8,8395.8,8396.3
201912122312,8396.4,8396.4,8394.9,8396.2
201912122313,8396.1,8396.5,8395.2,8395.6
201912122314,8395.6,8396.3,8394.3,8394.4
201912122315,8394.4,8395.5,8393.9,8395.4
201912122316,8395.4,8395.5,8394.9,8395.2
201912122317,8395.2,8395.3,8394.1,8395.3
201912122318,8395.3,8395.8,8393.4,8393.4
201912122319,8393.3,8393.3,8388.4,8388.4
201912122320,8388.5,8389.9,8386.9,8389
201912122321,8389,8392.4,8389,8392.4
201912122322,8392.4,8393,8391.9,8392.1
201912122323,8392.1,8392.8,8390.9,8391.4
201912122324,8391.4,8392.6,8391.1,8392.4
201912122325,8392.4,8392.5,8390.9,8392.5
201912122326,8392.5,8392.9,8391.9,8391.9
201912122327,8391.9,8392.9,8391.5,8392.7
201912122328,8392.7,8394.2,8391,8391.7
201912122329,8391.7,8392.5,8390.4,8391.3
201912122330,8391.3,8394.3,8387.3,8390.9
201912122331,8390.9,8395.5,8386.2,8395.4
201912122332,8395.2,8400.9,8388.9,8389.5
201912122333,8389.5,8390.4,8385,8385
201912122334,8385,8388.4,8381.1,8388.3
201912122335,8388.3,8407.5,8380.9,8407.5
201912122336,8406.3,8424.2,8403.8,8419.9
201912122337,8419.2,8429.2,8419,8422.8
201912122338,8423,8445,8421.9,8445
201912122339,8444.4,8463.1,8444.4,8455.1
201912122340,8455.4,8459.9,8449.1,8449.1
201912122341,8448.8,8449.4,8441.4,8442.3
201912122342,8442.3,8449.3,8437.7,8444
201912122343,8443.8,8447.4,8441.7,8445.7
201912122344,8445.7,8450.8,8444.7,8448.4
201912122345,8448.3,8454.1,8444.6,8444.9
201912122346,8445,8446.2,8441.3,8441.7
201912122347,8441.7,8450.9,8441.4,8444.4
201912122348,8444.4,8446.8,8442.3,8445.5
201912122349,8445.1,8448.4,8445.1,8447.4
201912122350,8447.4,8452.7,8446.4,8450.2
201912122351,8450.2,8453.6,8449.2,8453.6
201912122352,8453.6,8456.4,8451.9,8453
201912122353,8453,8456.5,8451.3,8455
201912122354,8455,8456.4,8450.9,8455.5
201912122355,8455.7,8459.1,8452,8454.3
201912122356,8454.3,8457.4,8452.1,8455.1
201912122357,8455.2,8457.8,8451.4,8457.3
201912122358,8457.3,8459,8456.2,8458.2
201912122359,8458.3,8464.3,8458.2,8462.9
201912130000,8462.9,8473.6,8462.9,8472.2
201912130001,8472.9,8480.7,8472,8479.4
201912130002,8479.4,8479.4,8471.4,8475.8
201912130003,8475.8,8487.9,8474.4,8487.9
201912130004,8487.1,8487.9,8473.4,8482.1
201912130005,8481.4,8491.4,8478.4,8488.4
201912130006,8488.5,8488.9,8476.2,8479.2
201912130007,8478.3,8481.7,8474.3,8478.6
201912130008,8478.6,8483.1,8477.1,8480.2
201912130009,8480,8485.2,8479.8,8479.9
201912130010,8480,8485.3,8480,8484.9
201912130011,8484.9,8485.9,8477.7,8477.7
201912130012,8477.7,8482,8477.7,8480
201912130013,8479.8,8485.1,8479.8,8482.6
201912130014,8482.6,8493.2,8482.6,8486.3
201912130015,8486.3,8487,8482.7,8484.8
201912130016,8484.8,8485.8,8483.1,8483.6
201912130017,8483.7,8488.3,8483.7,8487.3
201912130018,8487,8488.3,8485.1,8487.5
201912130019,8487.8,8489.5,8485.4,8488.4
201912130020,8488.4,8496.5,8487.9,8494.1
201912130021,8493.9,8494.9,8491.1,8491.1
201912130022,8491.1,8494.8,8491,8493.9
201912130023,8493.9,8495.1,8488.7,8489.3
201912130024,8489.3,8493.5,8488.8,8493.5
201912130025,8493,8493.8,8489.5,8490.8
201912130026,8490.8,8492.5,8488,8488
201912130027,8488,8490.2,8488,8489.6
201912130028,8489.2,8491.4,8489,8490.2
201912130029,8490.2,8493.3,8489.9,8492.9
201912130030,8492.9,8494.3,8490,8491.3
201912130031,8491.3,8492.1,8488.9,8488.9
201912130032,8488.9,8489.5,8486.7,8486.7
201912130033,8486.7,8488.2,8484.2,8485.7
201912130034,8485.9,8488.7,8485.9,8486
201912130035,8486,8488.7,8485.4,8486.5
201912130036,8486.5,8488.1,8484.9,8484.9
201912130037,8485,8486.5,8484,8484.5
201912130038,8484.5,8485.2,8483.7,8484.5
201912130039,8484.5,8486.9,8483.4,8483.7
201912130040,8483.7,8485.2,8481,8481
201912130041,8481,8481.8,8479.2,8480.6
201912130042,8480.6,8481.1,8476.2,8476.6
201912130043,8476.7,8476.9,8471.5,8471.9
201912130044,8471.9,8472.8,8469,8469.3
201912130045,8469.2,8473,8467,8467
201912130046,8467.1,8471.1,8467.1,8468
201912130047,8468,8469,8466.2,8468.7
201912130048,8468.5,8470,8465,8465.3
201912130049,8465.7,8469.4,8465.7,8468.2
201912130050,8468.2,8470.8,8468.2,8470.3
201912130051,8470.3,8472.7,8470.3,8472.7
201912130052,8472.5,8475.3,8471.9,8475
201912130053,8475,8476.6,8472.9,8476.6
201912130054,8476.6,8479.2,8476.1,8478.9
201912130055,8478.9,8485.4,8478.6,8483.6
201912130056,8483.6,8483.6,8479.1,8480.6
201912130057,8480.4,8480.8,8479.2,8479.4
201912130058,8479.4,8480.4,8477.9,8479.8
201912130059,8479.7,8480.5,8478.3,8479.9
201912130100,8479.9,8481.8,8475.7,8477.5
201912130101,8477.5,8479,8475.1,8478.9
201912130102,8478.9,8479.5,8472,8472
201912130103,8472,8474.4,8471.4,8471.5
201912130104,8472,8472,8470,8470.4
201912130105,8470.4,8473.7,8469.6,8471.2
201912130106,8471.2,8475,8470.9,8473
201912130107,8472.9,8472.9,8467.9,8472.9
201912130108,8472.9,8473.6,8471.2,8471.4
201912130109,8471.4,8471.7,8466.9,8467.6
201912130110,8467.7,8470,8466,8469.8
201912130111,8469.9,8469.9,8466,8469.1
201912130112,8469.1,8469.1,8463.3,8464
201912130113,8464,8464,8460.9,8460.9
201912130114,8460.9,8463.3,8459.9,8462.4
201912130115,8462.3,8462.8,8460.2,8461.4
201912130116,8461.2,8462.8,8458.9,8462.8
201912130117,8462.9,8463.6,8461.5,8462
201912130118,8462,8463.2,8460.2,8461.5
201912130119,8461.5,8461.5,8458.9,8460.2
201912130120,8460.2,8461.1,8454.6,8455.5
201912130121,8455.5,8456.5,8451.5,8453.8
201912130122,8453.7,8454.8,8452.5,8453.9
201912130123,8453.9,8453.9,8449.7,8450
201912130124,8450,8451.8,8449.1,8449.8
201912130125,8449.7,8450.5,8447.7,8447.7
201912130126,8447.7,8447.7,8444,8445.8
201912130127,8445.7,8445.7,8441,8441.7
201912130128,8441.9,8442,8439.1,8440.7
201912130129,8440.8,8441.1,8436.2,8436.7
201912130130,8436.7,8440.4,8434.2,8439.4
201912130131,8439.4,8443.4,8439.4,8443.2
201912130132,8443.2,8446.1,8442.4,8445.4
201912130133,8445.4,8446.2,8440.7,8440.9
201912130134,8440.9,8441.8,8436.2,8436.2
201912130135,8436.2,8437.4,8433.5,8436.9
201912130136,8436.9,8440.2,8436.9,8439.7
201912130137,8439.6,8444,8439.6,8443.9
201912130138,8443.9,8445,8441.3,8444.7
201912130139,8444.6,8444.6,8440.4,8441.1
201912130140,8441.2,8441.2,8433.4,8435.9
201912130141,8435.9,8436.4,8430.8,8431.6
201912130142,8431.6,8436.7,8430.4,8435.3
201912130143,8435.5,8436.4,8433.2,8433.3
201912130144,8433.3,8437.6,8433.2,8436.7
201912130145,8436.7,8438,8434.4,8435.9
201912130146,8436,8441.6,8435.9,8439.7
201912130147,8439.7,8442.9,8438.4,8439.9
201912130148,8439.9,8441,8438.7,8440.5
201912130149,8440.6,8441.7,8438.3,8438.6
201912130150,8438.6,8440.9,8433.3,8439.6
201912130151,8439.6,8443.1,8439.5,8441
201912130152,8441,8441.5,8439.9,8441.3
201912130153,8441.3,8441.5,8438.6,8439.9
201912130154,8439.9,8440.1,8432.4,8432.7
201912130155,8432.3,8432.3,8416.8,8426.9
201912130156,8426.9,8434.8,8426.6,8432.3
201912130157,8432.3,8433.5,8428.3,8428.3
201912130158,8428.3,8433.3,8426.8,8432.5
201912130159,8432.5,8433.1,8430.4,8431.3
201912130200,8431.4,8432,8428.7,8432
201912130201,8431.7,8431.8,8427.1,8428.4
201912130202,8428.3,8429.7,8425.9,8426.7
201912130203,8426.8,8427.9,8424.5,8425.3
201912130204,8425.8,8426.5,8421.9,8423.4
201912130205,8423.4,8425.4,8421.2,8424.7
201912130206,8424.7,8426,8423.9,8424
201912130207,8424.2,8429.9,8423.7,8428.5
201912130208,8429,8430.5,8428.2,8429.5
201912130209,8429.5,8431.3,8428.2,8430.9
201912130210,8430.9,8431.5,8425.6,8427.5
201912130211,8427.5,8428.7,8426.2,8427.2
201912130212,8427.4,8428,8422.7,8423
201912130213,8423,8426.2,8421.6,8424.2
201912130214,8424.1,8424.9,8421.9,8423.2
201912130215,8423.2,8426.5,8422.7,8426.1
201912130216,8426.1,8426.4,8421.2,8422.4
201912130217,8422.2,8424.2,8420.5,8421.4
201912130218,8421.4,8421.9,8414.4,8414.6
201912130219,8414.9,8419,8414.9,8416.9
201912130220,8417.2,8418.1,8414.9,8417.1
201912130221,8417.1,8417.8,8416.1,8416.3
201912130222,8416.3,8417,8411.2,8411.2
201912130223,8411.2,8411.2,8402.3,8402.5
201912130224,8402.5,8406.5,8402.2,8404.4
201912130225,8404.4,8408,8404.1,8406
201912130226,8406,8408.9,8405.2,8408.7
201912130227,8408.7,8410.2,8407.7,8409.7
201912130228,8409.9,8410,8406.4,8407.1
201912130229,8407,8411.5,8403.3,8411.5
201912130230,8411.5,8420.9,8410.3,8418.5
201912130231,8418.5,8420.5,8417.4,8420.5
201912130232,8420.4,8423.9,8419.7,8423.4
201912130233,8423.4,8426.2,8423.2,8426.2
201912130234,8426.2,8426.9,8422.9,8423.2
201912130235,8423.2,8426.5,8422.9,8425.7
201912130236,8425.7,8432.1,8425.4,8432.1
201912130237,8432.1,8433.1,8429.5,8432.6
201912130238,8432.6,8432.8,8431.4,8432.4
201912130239,8432.3,8433.1,8429.7,8431.2
201912130240,8431.2,8433.4,8429.4,8433.3
201912130241,8433.2,8433.5,8430.4,8430.4
201912130242,8430.4,8432,8429.9,8429.9
201912130243,8429.9,8431.8,8429.9,8430.3
201912130244,8430.4,8431.6,8430.2,8431.2
201912130245,8431.2,8433.9,8430.4,8430.7
201912130246,8430.5,8434.6,8430.4,8434.2
201912130247,8434.1,8434.9,8431.7,8432.9
201912130248,8432.9,8436.1,8432.9,8435.5
201912130249,8435.7,8436.1,8434.1,8434.7
201912130250,8434.5,8436.4,8434.2,8435.4
201912130251,8435.4,8435.4,8433,8433.4
201912130252,8433.5,8435.1,8430.9,8430.9
201912130253,8430.9,8432.9,8430.4,8432.5
201912130254,8432.5,8433.4,8431.2,8431.7
201912130255,8431.7,8433.8,8431.7,8433
201912130256,8432.9,8433.5,8431.9,8432.9
201912130257,8432.9,8433.3,8431.5,8432.7
201912130258,8432.7,8433.2,8431.3,8431.3
201912130259,8431.3,8431.5,8425.3,8426.9
201912130300,8426.9,8432.7,8426.3,8432.4
201912130301,8432.3,8433,8426.7,8427.6
201912130302,8427.6,8438.1,8427.6,8433.2
201912130303,8433.3,8436.8,8433.3,8435.7
201912130304,8435.7,8440,8433.8,8438.5
201912130305,8438.5,8445.8,8436.4,8442.8
201912130306,8443,8443.1,8440,8440.8
201912130307,8440.9,8442.6,8440.7,8441.2
201912130308,8441.2,8442.8,8440.9,8441.2
201912130309,8441.2,8441.5,8438.4,8438.4
201912130310,8438.4,8441.4,8438.4,8440.7
201912130311,8440.7,8441.6,8438.1,8439.5
201912130312,8441.8,8443.5,8441.4,8442.7
201912130313,8442.7,8443.9,8441.8,8443.3
201912130314,8443.3,8444.9,8442.8,8443.2
201912130315,8443.2,8444.3,8442.7,8443.2
201912130316,8443.2,8444.4,8441.9,8443.9
201912130317,8443.9,8444.4,8443.4,8443.7
201912130318,8443.7,8444.4,8441.4,8442
201912130319,8442.2,8444.8,8441.6,8444.7
201912130320,8444.7,8445.5,8442.2,8442.2
201912130321,8442.1,8442.4,8440.2,8440.4
201912130322,8440.4,8442.1,8440.4,8441.4
201912130323,8441.4,8441.5,8439.5,8440.8
201912130324,8440.8,8441.2,8439.7,8440.5
201912130325,8440.6,8441.2,8439.2,8440.7
201912130326,8440.7,8442.1,8438.9,8440.8
201912130327,8440.8,8441,8438.4,8438.7
201912130328,8438.7,8439.3,8437.4,8438.6
201912130329,8438.7,8441.1,8438.7,8439.9
201912130330,8439.9,8442,8439.8,8440.4
201912130331,8440.4,8440.5,8438.2,8439.1
201912130332,8439.1,8441.7,8438.9,8438.9
201912130333,8438.9,8441,8438.5,8439.9
201912130334,8439.9,8440.2,8439.3,8439.8
201912130335,8439.8,8440.2,8436.2,8437
201912130336,8437,8437.3,8435.4,8436.2
201912130337,8436.4,8436.7,8434,8435.3
201912130338,8435.4,8435.5,8433.4,8433.6
201912130339,8434.2,8435.2,8433.6,8435
201912130340,8435,8436.5,8434.9,8436.4
201912130341,8436.4,8437.9,8436.1,8436.6
201912130342,8436.5,8436.8,8435.5,8436.2
201912130343,8436.1,8436.6,8433.9,8434.7
201912130344,8434.7,8435.5,8434.4,8435.3
201912130345,8435.4,8436.6,8433.8,8436.4
201912130346,8436.4,8436.6,8434.4,8434.4
201912130347,8434.3,8435.5,8433.9,8434.5
201912130348,8434.5,8435.4,8433.9,8435.2
201912130349,8435.2,8435.5,8434,8434.3
201912130350,8434.2,8437.4,8434.1,8437.3
201912130351,8437.4,8438.6,8437.4,8438.1
201912130352,8437.9,8438.5,8436.9,8437.7
201912130353,8437.7,8437.9,8437.2,8437.5
201912130354,8437.5,8437.8,8437.1,8437.7
201912130355,8437.7,8438,8436.7,8437.6
201912130356,8437.6,8437.9,8437.3,8437.4
201912130357,8437.4,8437.7,8434.5,8434.5
201912130358,8434.5,8437.2,8433.1,8437.1
201912130359,8437.1,8440.2,8437.1,8439.8
201912130400,8439.7,8441.3,8438.5,8439.4
201912130401,8439.4,8439.8,8436,8436.4
201912130402,8436.4,8437.2,8433.1,8433.7
201912130403,8433.5,8435.8,8433.3,8435.5
201912130404,8435.4,8436.4,8434.1,8435.3
201912130405,8435.3,8435.8,8434.2,8434.9
201912130406,8434.9,8440.1,8434.5,8439.1
201912130407,8438.7,8441.2,8437.9,8439.9
201912130408,8439.9,8439.9,8436.7,8438
201912130409,8438,8439.5,8437,8438.9
201912130410,8438.9,8441.5,8438.9,8441.1
201912130411,8441.1,8443,8441.1,8442.5
201912130412,8442.5,8443,8440.9,8442.8
201912130413,8443,8443.5,8442,8442
201912130414,8442,8442.5,8418.9,8426.7
201912130415,8426.7,8435.1,8425.1,8434.5
201912130416,8433.9,8434.5,8429.2,8429.2
201912130417,8429.2,8431.2,8426.3,8428.5
201912130418,8428.5,8432.9,8428.2,8431.7
201912130419,8431.5,8431.5,8426.7,8428.8
201912130420,8428.8,8429.9,8424.9,8426.4
201912130421,8426.4,8428,8425.1,8426.6
201912130422,8426.5,8427.1,8424.4,8425.2
201912130423,8425.2,8426.5,8423.6,8423.6
201912130424,8423.8,8425.4,8421,8421
201912130425,8420.7,8425,8418.9,8424.7
201912130426,8424.5,8426.5,8423.5,8424.7
201912130427,8424.7,8426.1,8424.2,8424.7
201912130428,8424.7,8426,8423.2,8425.4
201912130429,8425.3,8427.5,8421.1,8426.2
201912130430,8426,8457.7,8422.2,8454.1
201912130431,8455.2,8464.4,8451.9,8464.4
201912130432,8464.3,8465.8,8456.8,8459.6
201912130433,8459.6,8459.6,8453.3,8454.4
201912130434,8454.4,8458.8,8453.3,8456.6
201912130435,8456.6,8458.9,8454.3,8455.4
201912130436,8455.3,8456.8,8447.3,8448.2
201912130437,8447.4,8450.2,8439.4,8444.8
201912130438,8444.8,8447,8443.7,8445.8
201912130439,8445.8,8449.4,8443.5,8444.6
201912130440,8445.1,8449.5,8444.9,8448.6
201912130441,8448.6,8453.3,8446.4,8451.1
201912130442,8451.1,8452.8,8447.3,8448.9
201912130443,8448.9,8450.3,8447.6,8448.6
201912130444,8448.4,8449.1,8444.8,8447.3
201912130445,8447.3,8447.4,8444.1,8445.2
201912130446,8445.4,8448,8443.4,8446.9
201912130447,8446.6,8446.6,8440.8,8441.4
201912130448,8441.4,8442.1,8432.9,8433.9
201912130449,8433.8,8435.4,8432.4,8433.4
201912130450,8433.4,8435.5,8431.9,8432.2
201912130451,8432.2,8434.5,8431.7,8432.1
201912130452,8433,8433.5,8429.1,8431.4
201912130453,8431.5,8440.3,8431.5,8440.3
201912130454,8440.3,8443.3,8439.2,8443.3
201912130455,8443.3,8449.8,8442.4,8447
201912130456,8447.4,8448.1,8445.2,8446.4
201912130457,8446.4,8446.8,8444.1,8444.8
201912130458,8444.8,8445.4,8441,8442.6
201912130459,8442.6,8447.1,8442.3,8445.3
201912130500,8445.3,8449.6,8445.3,8448.9
201912130501,8448.9,8448.9,8442.6,8445.9
201912130502,8445.8,8453,8445.4,8452.7
201912130503,8452.7,8453.8,8451.6,8452.7
201912130504,8452.2,8453.7,8450.8,8451.1
201912130505,8451.1,8452.7,8450,8451.6
201912130506,8451.6,8453.3,8450.9,8452.6
201912130507,8452.4,8455.2,8452.3,8454
201912130508,8454,8454,8450.8,8453.6
201912130509,8453.5,8455,8450.9,8451.4
201912130510,8451.3,8452.8,8449.9,8450.4
201912130511,8450.3,8452.5,8448.6,8449
201912130512,8449,8449.5,8445.4,8446.3
201912130513,8446.2,8446.5,8444.7,8444.8
201912130514,8444.4,8444.6,8441.9,8442.6
201912130515,8442.6,8442.6,8440.3,8441.9
201912130516,8441.9,8445.2,8441.9,8444.9
201912130517,8445.2,8448,8444,8447.4
201912130518,8447.4,8448.3,8445.4,8446
201912130519,8446,8448.3,8445.2,8448
201912130520,8448.2,8450.8,8447.1,8449.2
201912130521,8449.2,8449.2,8446.3,8447.4
201912130522,8447.4,8449.6,8446.9,8449.2
201912130523,8449.4,8450.4,8447.2,8448.4
201912130524,8448.4,8449.2,8447.2,8449.2
201912130525,8449,8454.5,8448.4,8454.4
201912130526,8454.3,8456,8453.3,8454.6
201912130527,8454.6,8455.2,8453.2,8453.5
201912130528,8453.7,8456.7,8453,8455.7
201912130529,8455.8,8458.5,8454.9,8457.7
201912130530,8457.5,8459.1,8457.5,8458.3
201912130531,8458.3,8459.5,8457.7,8459.3
201912130532,8459.3,8461.5,8459,8459.3
201912130533,8459,8459.5,8454.9,8454.9
201912130534,8454.9,8455.8,8452.9,8454.9
201912130535,8454.9,8455.5,8450.7,8453.4
201912130536,8453.2,8453.6,8449.4,8450.4
201912130537,8450.4,8457.1,8450.4,8457
201912130538,8457,8461.3,8456.9,8460.9
201912130539,8461,8461.3,8456.7,8456.7
201912130540,8456.7,8461.5,8455.7,8459.6
201912130541,8459.6,8461.8,8459.4,8461.7
201912130542,8461.7,8462.5,8459.2,8460
201912130543,8460,8463.3,8460,8462.8
201912130544,8462.8,8463.2,8461.2,8462.3
201912130545,8462.3,8463.9,8460,8461.3
201912130546,8461.3,8464.8,8461.3,8464.3
201912130547,8464.3,8467.8,8462.6,8467.5
201912130548,8467.3,8471.6,8466.7,8470.9
201912130549,8470.9,8472.7,8469.2,8472.3
201912130550,8472.3,8476.2,8471.9,8474.9
201912130551,8474.9,8475.8,8474.1,8474.1
201912130552,8474.1,8475.6,8473.7,8475
201912130553,8475,8477,8474.1,8476.1
201912130554,8476.5,8479.2,8476.5,8478.4
201912130555,8478.4,8478.4,8470.8,8471.2
201912130556,8471.2,8474.7,8471.2,8473
201912130557,8473.3,8473.9,8469,8469.1
201912130558,8469.1,8471.2,8467.6,8467.6
201912130559,8467.6,8469.1,8465,8465
201912130600,8466.9,8466.9,8460.1,8460.3
201912130601,8460.3,8460.4,8455.9,8458.4
201912130602,8458.6,8460.3,8454.3,8460.1
201912130603,8460.1,8463,8459,8463
201912130604,8463,8463.8,8459.9,8461.9
201912130605,8461.9,8462.2,8460.9,8461.2
201912130606,8461.4,8462.1,8457.7,8458.9
201912130607,8458.9,8459.1,8456.1,8456.9
201912130608,8456.9,8457.8,8455.5,8456.6
201912130609,8456.6,8459.6,8456.5,8459.6
201912130610,8459.6,8462.3,8459.1,8459.1
201912130611,8459.1,8462.2,8459.1,8461.9
201912130612,8462.3,8464.2,8461.9,8464.1
201912130613,8464.1,8466,8464,8465.8
201912130614,8465.8,8465.9,8463.9,8464.9
