日時,始値(BID),高値(BID),安値(BID),終値(BID)
201904040700,7581,7584.6,7581,7581.9
201904040701,7581.9,7582.7,7579.7,7581.1
201904040702,7581.1,7581.5,7578.9,7581.5
201904040703,7581.5,7583.4,7581.5,7583
201904040704,7583,7583.8,7582.5,7583.3
201904040705,7583.3,7583.3,7581.3,7582.2
201904040706,7582.5,7582.8,7581.2,7581.4
201904040707,7581.4,7581.6,7580.2,7580.9
201904040708,7580.9,7581,7580.6,7581
201904040709,7581,7581,7580.4,7580.6
201904040710,7580.6,7580.9,7580.6,7580.9
201904040711,7580.9,7581.3,7579.2,7579.3
201904040712,7579.2,7581.1,7578.4,7581.1
201904040713,7581.1,7581.3,7580.7,7581.1
201904040714,7581.2,7583.1,7581.2,7582.8
201904040715,7582.8,7582.8,7581.6,7581.8
201904040716,7581.8,7581.8,7581,7581
201904040717,7581,7581.4,7581,7581.1
201904040718,7581,7581.1,7580.5,7580.8
201904040719,7580.7,7580.9,7579.7,7579.7
201904040720,7579.6,7581.7,7579.4,7581.6
201904040721,7581.6,7581.7,7581.1,7581.2
201904040722,7581.1,7581.1,7579.7,7579.8
201904040723,7579.9,7580.1,7579.4,7580.1
201904040724,7580.1,7581,7579.6,7579.9
201904040725,7579.9,7580.5,7579.9,7580.5
201904040726,7580.5,7580.7,7580.3,7580.3
201904040727,7580.3,7580.9,7580.3,7580.9
201904040728,7580.8,7581.3,7580.8,7581.3
201904040729,7581.3,7581.3,7580,7580
201904040730,7580,7580.8,7580,7580.5
201904040731,7580.7,7581.4,7580.7,7581.4
201904040732,7581.4,7581.4,7580.7,7580.8
201904040733,7580.8,7581.2,7580.3,7580.9
201904040734,7580.9,7581.1,7580.1,7580.1
201904040735,7580.1,7580.6,7578.9,7578.9
201904040736,7578.9,7579.4,7578.8,7579.3
201904040737,7579.4,7580.3,7579.4,7579.9
201904040738,7579.9,7580.1,7579.1,7579.4
201904040739,7579.4,7579.9,7579.2,7579.6
201904040740,7579.6,7579.6,7579.3,7579.4
201904040741,7579.4,7579.4,7579.2,7579.2
201904040742,7579.2,7579.4,7578.7,7578.7
201904040743,7578.7,7578.7,7577.1,7577.1
201904040744,7577.1,7577.2,7576.2,7576.3
201904040745,7576.4,7576.7,7576.1,7576.2
201904040746,7576.2,7576.2,7575.7,7576.1
201904040747,7576.2,7576.9,7576.2,7576.8
201904040748,7576.9,7577.5,7576.9,7577.5
201904040749,7577.5,7577.5,7577.4,7577.5
201904040750,7577.6,7578.1,7577.4,7577.9
201904040751,7577.9,7577.9,7577.7,7577.7
201904040752,7577.7,7577.7,7576.1,7576.6
201904040753,7576.6,7576.7,7576.2,7576.4
201904040754,7576.4,7577.5,7576.4,7577.2
201904040755,7577.2,7578.4,7577.2,7578.2
201904040756,7578.2,7578.6,7578.1,7578.5
201904040757,7578.5,7578.9,7578.1,7578.3
201904040758,7578.3,7578.3,7577.2,7577.6
201904040759,7577.6,7577.6,7577.5,7577.6
201904040800,7577.6,7578.2,7577.6,7577.9
201904040801,7577.9,7578.6,7577.9,7578.6
201904040802,7578.6,7578.6,7577.7,7578
201904040803,7578.1,7578.1,7576.9,7577.8
201904040804,7577.8,7577.8,7575.6,7575.7
201904040805,7575.7,7575.8,7574,7574
201904040806,7574,7576.4,7574,7575.7
201904040807,7575.8,7577,7575.8,7577
201904040808,7577.1,7577.5,7576.6,7576.6
201904040809,7576.6,7577,7576.6,7576.7
201904040810,7576.7,7576.9,7576.5,7576.6
201904040811,7576.6,7577.2,7576.6,7577.2
201904040812,7577.1,7578,7576.8,7577.9
201904040813,7577.9,7580,7577.9,7579
201904040814,7579.3,7579.6,7578.9,7579.3
201904040815,7579.3,7580.3,7579.2,7579.5
201904040816,7579.5,7582.2,7579.5,7581.9
201904040817,7581.9,7582.5,7580.8,7581.2
201904040818,7581.2,7581.3,7580.4,7580.4
201904040819,7580.4,7580.6,7579.4,7579.4
201904040820,7579.4,7581.3,7579.4,7580.7
201904040821,7580.7,7581.2,7580.2,7580.9
201904040822,7580.9,7581.6,7580.7,7581.4
201904040823,7581.4,7582,7581.3,7581.5
201904040824,7581.6,7582.1,7581.5,7582.1
201904040825,7582.2,7582.3,7581.6,7581.7
201904040826,7581.7,7582.1,7579.9,7579.9
201904040827,7579.9,7580.5,7579.9,7580
201904040828,7580,7580.3,7579.9,7580.3
201904040829,7580.4,7580.4,7578.9,7579
201904040830,7579.1,7579.6,7578.2,7579.4
201904040831,7579.4,7579.6,7577.4,7579.6
201904040832,7579.6,7579.6,7577.4,7577.8
201904040833,7577.8,7577.8,7577.7,7577.8
201904040834,7577.9,7577.9,7577,7577
201904040835,7577,7578.7,7577,7578.7
201904040836,7578.7,7579.2,7577.5,7577.6
201904040837,7577.6,7578,7577.4,7577.8
201904040838,7577.9,7578.8,7577.8,7578.7
201904040839,7578.7,7579,7578.1,7578.7
201904040840,7578.7,7578.9,7578.5,7578.7
201904040841,7578.6,7578.7,7578.3,7578.6
201904040842,7578.6,7579.3,7578.1,7578.1
201904040843,7578.2,7579,7578.1,7578.3
201904040844,7578.3,7578.5,7577.9,7578.4
201904040845,7578.4,7578.5,7578,7578.1
201904040846,7578.1,7578.8,7578.1,7578.8
201904040847,7578.8,7579.3,7578.4,7579
201904040848,7578.9,7578.9,7577.8,7578.6
201904040849,7578.7,7579.6,7578.6,7578.9
201904040850,7578.9,7579.4,7577.6,7577.6
201904040851,7577.6,7577.7,7576.9,7577.5
201904040852,7577.5,7578,7577.2,7577.3
201904040853,7577.3,7577.9,7577.2,7577.7
201904040854,7577.7,7578.7,7577.3,7578.6
201904040855,7578.6,7580,7578.6,7579
201904040856,7579,7580.8,7579,7580.1
201904040857,7580.1,7580.5,7579.6,7579.9
201904040858,7579.9,7580,7579,7579.1
201904040859,7579.1,7579.5,7577.2,7577.7
201904040900,7577.7,7577.8,7573.9,7575.6
201904040901,7575.6,7576.4,7573.9,7575.7
201904040902,7575.7,7575.7,7573.2,7573.3
201904040903,7573.3,7575.1,7573.2,7574.9
201904040904,7575,7576,7574.3,7575.2
201904040905,7575.2,7575.8,7574.7,7575
201904040906,7575,7575,7572.9,7573.5
201904040907,7573.5,7574.3,7572,7573.2
201904040908,7573.1,7574.3,7573.1,7573.6
201904040909,7573.6,7575.4,7573.6,7574.5
201904040910,7574.6,7575,7573.6,7573.8
201904040911,7573.8,7574.8,7572.6,7574.1
201904040912,7574.1,7576,7574.1,7575.7
201904040913,7575.7,7575.9,7574.9,7575.4
201904040914,7575.4,7576.8,7575.4,7576.6
201904040915,7576.6,7579.5,7575.9,7579.5
201904040916,7579.5,7579.9,7578.9,7579
201904040917,7579,7580.7,7578.7,7580.6
201904040918,7580.7,7583.7,7580.7,7582.1
201904040919,7581.8,7582.2,7581.2,7582
201904040920,7582,7582,7581.1,7581.4
201904040921,7581.4,7581.4,7580.1,7580.7
201904040922,7580.7,7582.2,7580.7,7581.7
201904040923,7581.7,7581.8,7580.2,7580.2
201904040924,7580.2,7581.3,7580.2,7580.9
201904040925,7580.9,7581.5,7580.6,7580.8
201904040926,7580.8,7581.5,7580.8,7581.3
201904040927,7581.3,7582,7580.6,7580.6
201904040928,7580.6,7580.9,7580.2,7580.4
201904040929,7580.4,7580.6,7579.4,7579.4
201904040930,7579.4,7579.6,7578.6,7579.3
201904040931,7579.4,7581.9,7579.4,7581
201904040932,7581,7581.8,7579.8,7580
201904040933,7580.1,7581.8,7580.1,7581.3
201904040934,7581.3,7582.3,7580.2,7581
201904040935,7581.2,7581.5,7580.9,7581.1
201904040936,7581.1,7581.6,7580.4,7580.8
201904040937,7580.8,7581.8,7579.9,7580.1
201904040938,7580.1,7580.3,7579.4,7579.6
201904040939,7579.6,7580.5,7579.6,7580.4
201904040940,7580.4,7580.5,7579.4,7579.4
201904040941,7579.4,7580.1,7579.4,7579.8
201904040942,7579.9,7579.9,7578.9,7579.9
201904040943,7579.9,7580.1,7579.4,7579.5
201904040944,7579.5,7580.3,7579.5,7579.6
201904040945,7579.6,7580.8,7579.6,7580.8
201904040946,7580.8,7580.9,7580.5,7580.8
201904040947,7580.8,7581,7580.5,7580.8
201904040948,7580.8,7580.8,7579.9,7580
201904040949,7579.9,7580.4,7579.6,7579.9
201904040950,7579.9,7580.5,7579.6,7580.1
201904040951,7580.1,7580.8,7580,7580.7
201904040952,7580.7,7581,7579.9,7580.9
201904040953,7580.9,7581.1,7579.9,7580.1
201904040954,7580.1,7581.4,7580,7581.4
201904040955,7581.8,7582.3,7581.3,7582.3
201904040956,7582.3,7586,7582.3,7585.4
201904040957,7585.4,7585.5,7583.4,7583.5
201904040958,7583.7,7583.8,7582.7,7583.3
201904040959,7582.8,7583.8,7582.8,7583.2
201904041000,7583.2,7583.8,7581.7,7581.9
201904041001,7581.9,7582.6,7581.4,7582.6
201904041002,7582.6,7582.8,7581.4,7581.5
201904041003,7581.5,7582.3,7580.9,7581.9
201904041004,7581.9,7582.3,7581.9,7581.9
201904041005,7581.9,7583,7581.8,7582.6
201904041006,7582.5,7583.6,7582.4,7583.6
201904041007,7583.5,7584,7582.9,7583.8
201904041008,7583.8,7585.8,7583.7,7585.3
201904041009,7585.3,7585.3,7583.2,7583.4
201904041010,7583.4,7583.5,7582.4,7583.5
201904041011,7583.5,7585.5,7583.5,7584.8
201904041012,7584.9,7584.9,7583.4,7583.4
201904041013,7583.4,7584.8,7582.8,7584.5
201904041014,7584.7,7585.3,7584.3,7584.8
201904041015,7584.8,7585.2,7583.7,7584.2
201904041016,7584.1,7586.8,7584,7586.8
201904041017,7586.8,7588.4,7586.3,7587.9
201904041018,7587.9,7588,7584.7,7585.4
201904041019,7585.4,7585.9,7584.2,7585.9
201904041020,7585.9,7585.9,7584.4,7584.9
201904041021,7584.9,7585,7584.4,7584.6
201904041022,7584.6,7585.8,7584.4,7584.9
201904041023,7584.8,7585.4,7584.3,7584.6
201904041024,7584.6,7585.4,7584.6,7584.8
201904041025,7584.9,7585.3,7584.1,7584.9
201904041026,7584.9,7585.6,7583.9,7584.7
201904041027,7584.7,7584.8,7583.9,7584.1
201904041028,7584.1,7585.7,7584,7585.4
201904041029,7585.3,7585.9,7585.1,7585.4
201904041030,7585.4,7585.7,7584.3,7585.1
201904041031,7585.1,7586.3,7584.7,7585.8
201904041032,7585.8,7586.8,7585.4,7586.8
201904041033,7586.8,7587.5,7585.7,7587.4
201904041034,7587.4,7588.1,7587.2,7588
201904041035,7588,7588.3,7586.4,7586.8
201904041036,7586.8,7586.8,7585.5,7586.4
201904041037,7586.4,7586.9,7585.6,7585.7
201904041038,7585.7,7586.9,7585.7,7586.8
201904041039,7586.8,7586.9,7586.2,7586.7
201904041040,7586.7,7589.1,7586.6,7588.8
201904041041,7588.8,7588.8,7588.1,7588.7
201904041042,7588.7,7590.6,7588.7,7589.6
201904041043,7589.6,7590.5,7589.2,7590.1
201904041044,7590.1,7590.5,7589.8,7589.8
201904041045,7589.8,7591.4,7589.7,7590.5
201904041046,7590.6,7591.2,7590.3,7590.9
201904041047,7590.9,7591.8,7590.9,7591.5
201904041048,7591.4,7593,7591.4,7592.8
201904041049,7592.8,7592.9,7591.5,7591.5
201904041050,7591.6,7592.5,7591.6,7592.5
201904041051,7592.5,7592.5,7591.7,7591.7
201904041052,7591.6,7592,7591.3,7591.7
201904041053,7591.7,7592.5,7591.4,7592.5
201904041054,7592.5,7593.6,7592.2,7593.4
201904041055,7593.4,7593.6,7592.7,7592.8
201904041056,7592.9,7593.7,7592.9,7593.1
201904041057,7593.1,7593.1,7592.5,7592.9
201904041058,7592.9,7593.6,7592.7,7593.1
201904041059,7593.1,7593.2,7591.8,7591.8
201904041100,7591.9,7592.1,7591.4,7591.8
201904041101,7591.8,7592.1,7590.7,7591.3
201904041102,7591.3,7591.3,7590.4,7590.4
201904041103,7590.3,7590.6,7589.7,7590.1
201904041104,7590.1,7590.3,7589.1,7589.2
201904041105,7589.2,7590.1,7589.2,7589.9
201904041106,7589.9,7590.1,7589.2,7589.5
201904041107,7589.5,7590.3,7589.3,7589.9
201904041108,7589.9,7590.4,7589.8,7590.4
201904041109,7590.3,7590.4,7590.1,7590.4
201904041110,7590.4,7590.6,7590.1,7590.5
201904041111,7590.5,7590.5,7588.9,7589.2
201904041112,7589.3,7589.8,7588.9,7589.2
201904041113,7589.1,7589.8,7589.1,7589.8
201904041114,7589.9,7590.2,7589.4,7590.2
201904041115,7590,7591.2,7590,7590.6
201904041116,7590.6,7591.3,7590.4,7590.9
201904041117,7590.8,7591.1,7590.4,7590.4
201904041118,7590.4,7590.8,7589.8,7589.8
201904041119,7589.8,7590,7589.1,7590
201904041120,7590.1,7590.5,7590.1,7590.3
201904041121,7590.3,7590.9,7590.2,7590.9
201904041122,7590.9,7591.7,7590.8,7591.6
201904041123,7591.6,7591.6,7591.1,7591.4
201904041124,7591.3,7591.5,7590.9,7591.3
201904041125,7591.3,7591.6,7590.9,7591.1
201904041126,7591.2,7591.3,7590.9,7591.2
201904041127,7591.2,7592.1,7591.2,7591.4
201904041128,7591.3,7591.4,7590.7,7590.9
201904041129,7590.9,7590.9,7589.4,7589.5
201904041130,7589.5,7590,7587.4,7587.9
201904041131,7587.9,7588.4,7587.5,7587.5
201904041132,7587.5,7588.5,7587.2,7588.5
201904041133,7588.5,7590.8,7588.5,7590.7
201904041134,7590.7,7591.3,7590.2,7590.2
201904041135,7590.2,7591.1,7590.2,7591.1
201904041136,7591,7591.1,7589.7,7590.1
201904041137,7590,7591.7,7589.9,7591.5
201904041138,7591.5,7591.5,7590.8,7590.9
201904041139,7590.9,7591.3,7589.7,7589.7
201904041140,7589.7,7589.9,7589.4,7589.4
201904041141,7589.4,7590.5,7589.2,7590.1
201904041142,7590,7590.1,7589.4,7589.7
201904041143,7589.7,7589.7,7589.2,7589.3
201904041144,7589.3,7589.4,7588.9,7589.2
201904041145,7589.2,7589.6,7588.9,7589.1
201904041146,7589,7589.2,7588.7,7588.9
201904041147,7588.9,7589.1,7587.6,7587.9
201904041148,7587.9,7587.9,7586.7,7587.2
201904041149,7587.2,7587.4,7586.7,7586.7
201904041150,7586.7,7586.8,7584.6,7584.9
201904041151,7584.9,7586,7584.9,7586
201904041152,7586,7586.5,7585.9,7586
201904041153,7586,7586.3,7585.6,7586.3
201904041154,7586.3,7586.4,7585.6,7585.9
201904041155,7585.9,7586.1,7584.6,7584.7
201904041156,7584.7,7585.5,7584.3,7585.3
201904041157,7585.4,7585.4,7584.4,7584.5
201904041158,7584.5,7584.7,7584,7584
201904041159,7584,7584,7583.1,7583.5
201904041200,7583.6,7584.1,7582.1,7582.5
201904041201,7582.6,7582.7,7582,7582.1
201904041202,7582.1,7582.5,7581.9,7582
201904041203,7582,7582.5,7582,7582.4
201904041204,7582.3,7582.5,7581.9,7582.4
201904041205,7582.4,7582.4,7580.4,7580.4
201904041206,7580.4,7581.3,7580.4,7581.3
201904041207,7581.3,7581.3,7580.4,7580.4
201904041208,7580.4,7580.6,7577.6,7577.8
201904041209,7577.8,7577.8,7574.7,7574.7
201904041210,7574.9,7574.9,7572.4,7573.2
201904041211,7573.2,7574.5,7570.9,7571.2
201904041212,7571.2,7571.5,7568.6,7569
201904041213,7569,7569.6,7568.2,7569.4
201904041214,7569.4,7571.8,7569.4,7571.7
201904041215,7571.5,7571.9,7570.9,7571.1
201904041216,7571,7573.3,7570.1,7573.1
201904041217,7573.2,7574.5,7573.2,7574.3
201904041218,7574.3,7574.6,7573.8,7574.1
201904041219,7574.1,7574.8,7573.9,7574.4
201904041220,7574.3,7575.2,7573.8,7574.9
201904041221,7574.9,7575.4,7574.2,7575.3
201904041222,7575.3,7575.3,7574.5,7574.7
201904041223,7574.6,7574.6,7573.2,7573.5
201904041224,7573.5,7575,7573.5,7574.7
201904041225,7574.7,7575.1,7573.9,7573.9
201904041226,7573.9,7575.5,7573.9,7574.8
201904041227,7574.8,7574.8,7574,7574.4
201904041228,7574.3,7576.1,7574.3,7575.6
201904041229,7575.6,7575.9,7574.9,7574.9
201904041230,7574.9,7575.1,7574.1,7574.7
201904041231,7574.7,7574.9,7574.1,7574.8
201904041232,7574.6,7575.2,7574.6,7575.1
201904041233,7575.1,7575.5,7574.4,7574.4
201904041234,7574.4,7575.3,7574.4,7575.1
201904041235,7575.1,7575.8,7575.1,7575.8
201904041236,7575.8,7576.5,7575.6,7575.9
201904041237,7575.8,7575.8,7574.4,7574.8
201904041238,7574.6,7574.8,7573.9,7573.9
201904041239,7573.9,7574.3,7573.4,7573.9
201904041240,7573.9,7574.3,7572.8,7572.9
201904041241,7572.9,7573.3,7571.7,7572
201904041242,7572,7572.5,7571.9,7572
201904041243,7572,7572.1,7570.6,7570.6
201904041244,7570.6,7571.1,7570.1,7570.4
201904041245,7570.4,7573.3,7570.4,7572.9
201904041246,7572.9,7573.1,7572.6,7572.9
201904041247,7572.9,7574,7572.7,7573.9
201904041248,7573.9,7574.3,7573.7,7573.9
201904041249,7573.9,7574.1,7573.6,7574.1
201904041250,7574,7574.1,7573.1,7573.9
201904041251,7573.9,7573.9,7573.4,7573.7
201904041252,7573.7,7574.3,7573.7,7574.1
201904041253,7574.1,7575.1,7574.1,7575.1
201904041254,7575.1,7575.1,7573.9,7574.1
201904041255,7574.1,7574.9,7574.1,7574.4
201904041256,7574.4,7574.9,7574.4,7574.7
201904041257,7574.7,7575.1,7574.7,7574.7
201904041258,7574.6,7574.7,7574.2,7574.5
201904041259,7574.4,7575,7574.3,7574.3
201904041300,7574.3,7575.1,7574.3,7574.7
201904041301,7574.6,7574.9,7574.4,7574.4
201904041302,7574.4,7574.8,7574.1,7574.8
201904041303,7574.8,7574.8,7574.3,7574.8
201904041304,7574.8,7574.9,7574.2,7574.6
201904041305,7574.6,7574.9,7574.5,7574.8
201904041306,7574.8,7576.4,7574.6,7576.3
201904041307,7576.3,7577.8,7575.7,7577.1
201904041308,7577.1,7577.5,7575.9,7576
201904041309,7576,7576.4,7575.4,7575.6
201904041310,7575.6,7576.5,7575.6,7575.9
201904041311,7575.9,7576.6,7575.8,7576.4
201904041312,7576.4,7577.1,7576.4,7576.6
201904041313,7576.6,7577.6,7576.4,7576.9
201904041314,7576.9,7577.1,7576.3,7576.3
201904041315,7576.3,7577,7576.3,7576.9
201904041316,7576.9,7577.2,7575.9,7576.1
201904041317,7576.2,7576.2,7574.9,7574.9
201904041318,7574.9,7574.9,7573.8,7573.9
201904041319,7573.9,7575,7573.7,7575
201904041320,7575,7575.1,7574.2,7574.7
201904041321,7574.6,7574.8,7574.5,7574.8
201904041322,7574.8,7574.9,7573.4,7573.4
201904041323,7573.3,7574.1,7573.3,7573.8
201904041324,7573.8,7574.5,7573.8,7574.4
201904041325,7574.4,7574.6,7574.1,7574.1
201904041326,7574.1,7574.2,7573.4,7573.4
201904041327,7573.5,7574.4,7573.4,7574.2
201904041328,7574.2,7574.2,7573.8,7574.1
201904041329,7574.1,7574.2,7573.7,7573.7
201904041330,7573.7,7574.3,7572.8,7573
201904041331,7573.1,7573.3,7571.9,7572.3
201904041332,7572.4,7572.6,7571.9,7572
201904041333,7572.1,7572.3,7570.7,7571.4
201904041334,7571.4,7572.8,7571.3,7572.7
201904041335,7572.7,7573.6,7572.7,7573.6
201904041336,7573.6,7573.7,7573.1,7573.1
201904041337,7573,7573.2,7572.3,7572.4
201904041338,7572.4,7573.4,7572.4,7573.1
201904041339,7573.1,7573.5,7573,7573.2
201904041340,7573.2,7573.2,7572.7,7572.7
201904041341,7572.7,7573.2,7572.4,7572.4
201904041342,7572.4,7573.1,7571.2,7571.4
201904041343,7571.4,7571.6,7571,7571.6
201904041344,7571.6,7571.8,7571,7571.3
201904041345,7571.4,7572.1,7571.4,7571.8
201904041346,7571.9,7572.1,7571.9,7572.1
201904041347,7572.1,7572.4,7572.1,7572.2
201904041348,7572.1,7572.1,7570.1,7570.1
201904041349,7569.9,7570.1,7569.1,7569.2
201904041350,7569.1,7569.8,7568.7,7569.8
201904041351,7569.8,7570.3,7569.8,7570.2
201904041352,7570.2,7570.3,7568.7,7569.1
201904041353,7569,7569.8,7568.7,7569.8
201904041354,7569.9,7570.3,7569.8,7570.2
201904041355,7570.3,7571.8,7570.1,7571.8
201904041356,7571.8,7572.2,7571.5,7571.9
201904041357,7571.9,7572.6,7571.9,7572.4
201904041358,7572.3,7572.8,7572.1,7572.6
201904041359,7572.6,7573.7,7572.6,7572.9
201904041400,7572.9,7572.9,7570.9,7570.9
201904041401,7570.8,7572.3,7570.6,7571.4
201904041402,7571.3,7571.9,7571.2,7571.6
201904041403,7571.6,7572.1,7571.4,7571.4
201904041404,7571.4,7571.4,7570.2,7570.9
201904041405,7570.9,7572.6,7570.9,7572.4
201904041406,7572.4,7573.6,7572.4,7573.2
201904041407,7573.1,7573.3,7572.6,7572.8
201904041408,7572.9,7573.1,7572.5,7573.1
201904041409,7573,7573.3,7572.7,7572.7
201904041410,7572.7,7573.3,7572,7572.6
201904041411,7572.6,7573,7572.4,7572.6
201904041412,7572.6,7573.5,7572.5,7572.5
201904041413,7572.5,7572.8,7572.4,7572.6
201904041414,7572.6,7573,7571.6,7571.9
201904041415,7571.9,7572.7,7571.6,7572.7
201904041416,7572.6,7572.8,7571.9,7572.4
201904041417,7572.4,7572.8,7571.6,7571.8
201904041418,7571.8,7572.3,7571.5,7572
201904041419,7572,7574.2,7571.8,7574.1
201904041420,7574.1,7574.8,7573.9,7574
201904041421,7574.1,7574.3,7573.4,7573.6
201904041422,7573.6,7573.8,7573.2,7573.3
201904041423,7573.3,7574.8,7573.2,7574.8
201904041424,7574.8,7575,7574.7,7574.7
201904041425,7574.7,7574.9,7574.6,7574.7
201904041426,7574.7,7574.9,7574.3,7574.3
201904041427,7574.3,7574.3,7573.2,7573.5
201904041428,7573.5,7574.4,7573.4,7573.9
201904041429,7573.9,7574.5,7573.7,7574.2
201904041430,7574.2,7574.6,7573.7,7573.8
201904041431,7573.8,7574.4,7573.4,7574.3
201904041432,7574.3,7574.5,7573.8,7573.8
201904041433,7573.9,7574.5,7573.8,7574.4
201904041434,7574.4,7574.6,7573.9,7574.2
201904041435,7574.1,7574.3,7573.2,7573.5
201904041436,7573.5,7573.8,7573.4,7573.6
201904041437,7573.6,7574.5,7573.6,7573.9
201904041438,7573.9,7574.1,7572.2,7572.4
201904041439,7572.4,7573.2,7572.4,7572.8
201904041440,7572.8,7572.9,7572.1,7572.1
201904041441,7572.1,7572.5,7571.9,7572.1
201904041442,7572.1,7573.1,7572.1,7572.9
201904041443,7572.9,7573.1,7571.9,7572.1
201904041444,7572.1,7572.4,7570.9,7571.9
201904041445,7571.8,7572.3,7570.9,7571.4
201904041446,7571.4,7572.5,7571.4,7572.5
201904041447,7572.5,7572.5,7571.3,7571.8
201904041448,7571.8,7571.9,7571.4,7571.9
201904041449,7571.8,7572.5,7571.6,7572
201904041450,7572,7572,7571.2,7571.2
201904041451,7571,7571.1,7570.3,7570.4
201904041452,7570.4,7571,7569.6,7570.2
201904041453,7570.2,7570.3,7569.1,7570.1
201904041454,7570.1,7570.4,7567.5,7568.3
201904041455,7568.3,7569.7,7568.1,7569.7
201904041456,7569.8,7570,7568.9,7569.1
201904041457,7569.1,7571.5,7569,7571.5
201904041458,7571.5,7571.8,7571,7571
201904041459,7571,7571.9,7571,7571.9
201904041500,7571.9,7572.2,7569.3,7569.3
201904041501,7569.3,7569.3,7567.1,7567.8
201904041502,7567.8,7568.8,7567.7,7568.5
201904041503,7568.6,7569.9,7568.6,7569.2
201904041504,7569.2,7569.5,7568.1,7568.6
201904041505,7568.7,7570.3,7568.3,7568.3
201904041506,7568.3,7568.6,7565.3,7565.3
201904041507,7565.4,7566.6,7565.4,7566.2
201904041508,7566.3,7567.6,7566.2,7567.6
201904041509,7567.5,7568,7567.1,7567.2
201904041510,7567.2,7567.2,7565.5,7565.5
201904041511,7565.6,7565.7,7564.7,7564.7
201904041512,7564.7,7566.6,7564.7,7566
201904041513,7566,7567.1,7565.2,7567.1
201904041514,7567,7567.8,7566.7,7567.2
201904041515,7567.2,7568.4,7566.9,7567.7
201904041516,7567.7,7568.3,7566.9,7567.6
201904041517,7567.6,7568.6,7567.6,7568.6
201904041518,7568.6,7568.7,7566,7566.1
201904041519,7566.1,7567.8,7565.9,7567.5
201904041520,7567.3,7569,7567.3,7567.7
201904041521,7567.7,7568.3,7567.6,7567.9
201904041522,7567.9,7568.3,7567.2,7567.5
201904041523,7567.5,7567.5,7566.4,7566.6
201904041524,7566.6,7566.6,7566,7566.1
201904041525,7566.1,7566.2,7565.4,7566.1
201904041526,7566.1,7566.5,7564.9,7565.8
201904041527,7565.8,7566.3,7565.2,7566.1
201904041528,7566.2,7566.4,7565.3,7565.3
201904041529,7565.4,7566.4,7565.1,7566
201904041530,7566,7566.5,7565.6,7566.2
201904041531,7566.2,7566.5,7566.2,7566.3
201904041532,7566.3,7567.5,7566.3,7566.5
201904041533,7566.4,7567.1,7566.4,7567.1
201904041534,7567.1,7567.3,7563.1,7563.6
201904041535,7563.6,7564.4,7562.1,7563.1
201904041536,7563.1,7563.8,7562.3,7563.4
201904041537,7563.3,7564.3,7563.2,7563.5
201904041538,7563.5,7564,7563.4,7563.4
201904041539,7563.4,7564.3,7562.7,7564.2
201904041540,7564.2,7565,7564.1,7564.9
201904041541,7564.9,7565.1,7564.4,7565.1
201904041542,7565.1,7565.1,7563.9,7564.3
201904041543,7564.3,7565.7,7564.1,7565.6
201904041544,7565.6,7566.2,7565.5,7565.9
201904041545,7565.9,7566.1,7565.1,7565.1
201904041546,7565.1,7565.8,7564.6,7564.6
201904041547,7564.6,7564.8,7563.4,7564.1
201904041548,7564.1,7566,7564.1,7565.5
201904041549,7565.5,7566,7564.4,7564.9
201904041550,7564.9,7566,7563.1,7563.6
201904041551,7563.6,7565.5,7563.6,7565.1
201904041552,7565.2,7565.2,7564.3,7564.7
201904041553,7564.7,7566,7564.7,7565.2
201904041554,7565.2,7566,7565.1,7565.9
201904041555,7565.8,7567.6,7565.7,7566.9
201904041556,7566.9,7567.4,7566.2,7566.9
201904041557,7566.9,7567.3,7566,7567.2
201904041558,7567.5,7568.3,7567,7568.3
201904041559,7568.3,7568.4,7566.8,7567
201904041600,7567,7567.4,7565.9,7566.5
201904041601,7566.5,7567.7,7566.1,7567.7
201904041602,7567.9,7569.7,7567.7,7567.7
201904041603,7567.5,7570.1,7567.2,7567.3
201904041604,7567.3,7568.1,7567.3,7567.3
201904041605,7567.3,7570.1,7566.9,7570
201904041606,7570,7570.2,7568.5,7569.6
201904041607,7569.6,7569.8,7568.9,7569.1
201904041608,7569.1,7569.2,7566.7,7567.4
201904041609,7567.4,7568.6,7567.4,7568.2
201904041610,7568.2,7568.9,7567.2,7567.4
201904041611,7567.4,7570.6,7566.9,7570.6
201904041612,7570.6,7570.7,7568.6,7568.6
201904041613,7569.1,7571.1,7569.1,7569.4
201904041614,7569.4,7569.7,7568.2,7569.1
201904041615,7569.3,7570,7567.7,7567.7
201904041616,7567.7,7569,7565.9,7566.2
201904041617,7566.2,7566.2,7563.9,7565.8
201904041618,7565.8,7567.8,7565.1,7567
201904041619,7567,7567.5,7565.2,7566.2
201904041620,7566.3,7567,7564.8,7565.3
201904041621,7565.3,7566.3,7564.9,7565.7
201904041622,7565.7,7566,7564.4,7564.9
201904041623,7564.8,7565.5,7564.2,7565.4
201904041624,7565.4,7567.5,7565.4,7566.8
201904041625,7566.7,7567,7566.4,7566.7
201904041626,7566.7,7568.5,7566.7,7568.3
201904041627,7568.4,7570.1,7568.1,7568.9
201904041628,7568.8,7569.6,7567.9,7567.9
201904041629,7567.9,7568.9,7567.9,7568.8
201904041630,7568.8,7570.3,7568.8,7569.5
201904041631,7569.5,7571.2,7569.5,7570.8
201904041632,7570.9,7571.5,7569.2,7569.4
201904041633,7569.4,7569.6,7567.6,7568.4
201904041634,7568.3,7569.3,7568,7568.6
201904041635,7568.6,7568.8,7567.7,7568.1
201904041636,7568.2,7569,7567.7,7568.5
201904041637,7568.5,7568.6,7567.7,7568.4
201904041638,7568.4,7568.6,7567,7567.4
201904041639,7567.4,7568.8,7566.6,7567.9
201904041640,7567.9,7569.3,7567.2,7569
201904041641,7568.9,7569.8,7568.9,7569.8
201904041642,7569.8,7569.8,7569.3,7569.6
201904041643,7569.6,7569.9,7568.4,7568.4
201904041644,7568.4,7569.8,7568.4,7568.8
201904041645,7568.8,7568.8,7567.6,7567.6
201904041646,7567.7,7569.9,7567.6,7569.9
201904041647,7569.9,7571,7569.4,7570.6
201904041648,7570.6,7571,7570.2,7570.8
201904041649,7570.9,7571,7570.2,7570.7
201904041650,7570.7,7570.7,7569.8,7569.9
201904041651,7569.8,7570.3,7569.4,7569.4
201904041652,7569.4,7571.6,7569.4,7570.8
201904041653,7570.8,7570.8,7569.7,7570.3
201904041654,7570.3,7571.5,7569.9,7571.5
201904041655,7571.5,7572.5,7569.7,7569.7
201904041656,7569.8,7569.9,7568.6,7568.7
201904041657,7568.7,7569.1,7568,7568.3
201904041658,7568.4,7569.5,7567.3,7567.3
201904041659,7567.4,7570.8,7567.4,7570.1
201904041700,7570.1,7570.9,7567.9,7568.2
201904041701,7568.2,7568.9,7565.9,7566.4
201904041702,7566.4,7567.3,7565.9,7567.3
201904041703,7567.3,7569.1,7567.1,7568
201904041704,7568,7568,7566.9,7567.2
201904041705,7567.2,7569,7567.2,7569
201904041706,7569,7569.2,7567.9,7567.9
201904041707,7567.8,7569.8,7567.7,7569
201904041708,7569,7570.1,7568.4,7568.6
201904041709,7568.6,7568.9,7566.9,7567.7
201904041710,7567.7,7568,7566.6,7566.6
201904041711,7566.7,7568.3,7566,7567.3
201904041712,7567.4,7568.3,7566.3,7567.2
201904041713,7567,7568.3,7566.9,7567.5
201904041714,7567.5,7568.4,7567.3,7567.3
201904041715,7567.3,7568.8,7567.2,7568.4
201904041716,7568.4,7568.4,7566.2,7566.2
201904041717,7566.3,7568.7,7566,7567.7
201904041718,7567.7,7567.9,7566.1,7566.8
201904041719,7566.8,7567.7,7566.6,7567.4
201904041720,7567.4,7568,7567.3,7567.6
201904041721,7567.7,7568.9,7567.7,7568.4
201904041722,7568.4,7568.4,7567.4,7567.5
201904041723,7567.5,7568.3,7567.4,7568.3
201904041724,7568.3,7568.8,7567.9,7568.3
201904041725,7568.4,7569,7568.1,7568.3
201904041726,7568.3,7568.6,7567.4,7567.4
201904041727,7567.4,7567.5,7564.7,7566.4
201904041728,7566.4,7567.2,7566.2,7567.2
201904041729,7567.2,7567.5,7566.4,7566.9
201904041730,7567.1,7567.5,7566.5,7567.4
201904041731,7567.4,7567.6,7566.8,7567.1
201904041732,7567.1,7568.2,7567.1,7567.6
201904041733,7567.6,7569.6,7567.4,7569.6
201904041734,7569.6,7571.2,7568.3,7568.4
201904041735,7568.4,7568.8,7568.2,7568.4
201904041736,7568.4,7568.4,7566.8,7567.5
201904041737,7567.5,7567.8,7566.9,7567.4
201904041738,7567.4,7568.2,7567.4,7568.2
201904041739,7568.2,7568.2,7565.7,7565.7
201904041740,7565.7,7566.3,7565.7,7566.1
201904041741,7566.1,7566.7,7564.9,7565.9
201904041742,7566.1,7566.1,7564.8,7565.7
201904041743,7565.7,7566,7564.6,7564.6
201904041744,7564.6,7565.2,7563.1,7565.2
201904041745,7565.1,7565.1,7562.4,7562.4
201904041746,7562.4,7562.4,7561.2,7561.5
201904041747,7561.5,7562.1,7561.2,7561.7
201904041748,7561.9,7562.2,7559.9,7560.1
201904041749,7560.1,7560.3,7559.2,7560.2
201904041750,7560.2,7560.2,7559.4,7559.8
201904041751,7559.7,7560,7558.2,7558.5
201904041752,7558.5,7561.8,7558.5,7561.1
201904041753,7561.1,7562.3,7560.9,7562.3
201904041754,7562.3,7562.3,7561.4,7561.9
201904041755,7561.9,7563.3,7561.9,7562.9
201904041756,7562.9,7563.8,7562.9,7563.8
201904041757,7563.8,7564.5,7563.7,7563.9
201904041758,7563.8,7565.1,7563.2,7565.1
201904041759,7565.1,7565.3,7564.4,7564.9
201904041800,7564.9,7565.3,7564.4,7565.1
201904041801,7565,7565.7,7564.4,7565.5
201904041802,7565.5,7565.7,7565.1,7565.4
201904041803,7565.4,7566,7565.4,7565.4
201904041804,7565.3,7565.6,7565.1,7565.4
201904041805,7565.3,7565.8,7565,7565.7
201904041806,7565.7,7566.3,7565.5,7565.7
201904041807,7565.7,7566.3,7564.7,7565.7
201904041808,7565.7,7566.5,7565.3,7565.6
201904041809,7565.7,7566.3,7565.6,7566.1
201904041810,7566.1,7567.2,7566.1,7566.9
201904041811,7566.9,7567.5,7566.5,7567.2
201904041812,7567.2,7567.3,7566.9,7566.9
201904041813,7566.9,7567.5,7566.8,7567.1
201904041814,7567.2,7567.8,7566.7,7567.8
201904041815,7567.8,7567.9,7566.7,7567.6
201904041816,7567.5,7567.7,7566.9,7567.3
201904041817,7567.3,7569,7566.9,7568.8
201904041818,7568.8,7569,7568.4,7568.9
201904041819,7568.9,7569.1,7568.2,7568.7
201904041820,7568.6,7568.6,7567.7,7567.7
201904041821,7567.7,7568.8,7567.7,7568.2
201904041822,7568.3,7568.3,7566.7,7567.2
201904041823,7567.2,7568.6,7566.9,7568.3
201904041824,7568.3,7568.5,7568,7568.4
201904041825,7568.3,7568.7,7567.4,7568.2
201904041826,7568.2,7568.6,7568.1,7568.4
201904041827,7568.4,7568.7,7567.4,7567.9
201904041828,7567.8,7567.8,7566.7,7567.3
201904041829,7567.3,7567.3,7565.9,7566.7
201904041830,7566.7,7566.7,7564.1,7564.7
201904041831,7564.7,7565.1,7564.4,7564.7
201904041832,7564.5,7565.4,7564.4,7565.4
201904041833,7565.4,7566.4,7565.2,7565.9
201904041834,7565.8,7567,7565.8,7566.8
201904041835,7566.8,7568.4,7566.7,7568.2
201904041836,7568.2,7570.2,7567.8,7569.6
201904041837,7569.6,7569.7,7568.4,7569.3
201904041838,7569.3,7570,7568.7,7569.5
201904041839,7569.5,7569.7,7568.9,7569.3
201904041840,7569.3,7569.4,7568.1,7568.1
201904041841,7568.1,7569.4,7568.1,7569.4
201904041842,7569.4,7569.6,7568.6,7568.6
201904041843,7568.7,7569,7567.9,7568.9
201904041844,7568.9,7569.5,7568.5,7568.9
201904041845,7568.9,7570.7,7568.9,7570.5
201904041846,7570.5,7570.8,7568.9,7570.5
201904041847,7570.8,7571.2,7570.5,7570.6
201904041848,7570.6,7570.7,7568.5,7569.6
201904041849,7569.5,7570.6,7568.9,7570.1
201904041850,7570,7570.4,7568.9,7569.3
201904041851,7569.2,7571.2,7569.2,7570.6
201904041852,7570.6,7570.7,7569.7,7570.1
201904041853,7570.1,7570.1,7569.1,7569.4
201904041854,7569.4,7569.9,7569.3,7569.8
201904041855,7569.8,7573.2,7568.9,7572.8
201904041856,7572.9,7573.7,7572.8,7573
201904041857,7573,7574.5,7572.9,7574.4
201904041858,7574.4,7574.5,7573.3,7573.6
201904041859,7573.6,7574,7573.4,7573.8
201904041900,7573.8,7573.9,7572.9,7573
201904041901,7573,7574.2,7572.4,7574.1
201904041902,7574.1,7575.3,7573.9,7575.2
201904041903,7575.2,7575.2,7573.7,7574
201904041904,7574,7575.1,7573.9,7575.1
201904041905,7575.1,7576.2,7574.4,7574.5
201904041906,7574.5,7576.6,7574.4,7576.4
201904041907,7576.4,7577.6,7575.6,7576.4
201904041908,7576.4,7578.5,7576.4,7578.4
201904041909,7578.4,7580,7578.1,7579.4
201904041910,7579.3,7579.7,7577.6,7578.3
201904041911,7578.1,7579,7578,7578.8
201904041912,7578.8,7579.1,7578.7,7578.8
201904041913,7578.8,7579.1,7576.8,7576.9
201904041914,7577.1,7577.6,7576.4,7577.4
201904041915,7577,7577.5,7576.1,7576.2
201904041916,7576.2,7576.8,7575.7,7576.2
201904041917,7576.2,7577,7576.1,7576.4
201904041918,7576.4,7577,7575.9,7576.2
201904041919,7576.2,7576.2,7575,7575.4
201904041920,7575.4,7575.4,7575,7575.3
201904041921,7575.3,7575.5,7574,7574.2
201904041922,7574.2,7575.4,7574.2,7574.2
201904041923,7574.2,7574.2,7573.1,7573.5
201904041924,7573.5,7573.9,7573.1,7573.4
201904041925,7573.4,7574.1,7573,7573.3
201904041926,7573.3,7573.8,7572.9,7573.3
201904041927,7573.2,7573.8,7573.2,7573.5
201904041928,7573.5,7574.3,7573.4,7573.4
201904041929,7573.4,7574.3,7573.4,7573.7
201904041930,7573.7,7576.2,7573.7,7575.8
201904041931,7575.8,7576.3,7575.2,7576.1
201904041932,7576.1,7577.2,7576.1,7576.9
201904041933,7576.9,7577.4,7575.7,7575.9
201904041934,7575.9,7576,7574.9,7575.4
201904041935,7575.4,7576.7,7575.1,7576.4
201904041936,7576.4,7577.8,7576.4,7577.5
201904041937,7577.5,7577.5,7576.3,7576.4
201904041938,7576.4,7576.8,7575.9,7576.1
201904041939,7576.1,7577.9,7576.1,7577.8
201904041940,7577.8,7578,7577.4,7577.4
201904041941,7577.4,7577.8,7577.4,7577.5
201904041942,7577.5,7577.8,7576.9,7577.5
201904041943,7577.5,7577.7,7575.9,7576.3
201904041944,7576.3,7576.4,7575.4,7575.6
201904041945,7575.6,7576.8,7574.9,7576.8
201904041946,7576.9,7578.3,7576.9,7578.1
201904041947,7578.1,7578.2,7576.9,7578
201904041948,7578.1,7578.6,7577.7,7577.9
201904041949,7577.9,7579.4,7577.9,7579.4
201904041950,7579.4,7579.4,7577.2,7577.4
201904041951,7577.4,7578.1,7577,7577
201904041952,7576.9,7577.5,7576.3,7576.8
201904041953,7576.8,7577.3,7576.6,7576.9
201904041954,7577,7578.5,7577,7578.4
201904041955,7578.4,7578.5,7578,7578.2
201904041956,7578.1,7578.5,7577.2,7577.5
201904041957,7577.5,7581,7577.4,7580
201904041958,7580,7580.1,7577.7,7578.2
201904041959,7578.2,7578.6,7577.6,7578.1
201904042000,7578.1,7578.1,7577.4,7577.7
201904042001,7577.7,7578.5,7577.7,7577.9
201904042002,7577.9,7578.6,7577.6,7578.6
201904042003,7578.6,7578.6,7576.5,7576.7
201904042004,7576.5,7577,7574.9,7575.3
201904042005,7575.3,7575.3,7574.6,7574.9
201904042006,7574.9,7574.9,7572.4,7572.8
201904042007,7572.8,7574.9,7572.7,7574.8
201904042008,7574.8,7575.3,7573.4,7573.6
201904042009,7573.6,7574.5,7573.4,7574.4
201904042010,7574.4,7575,7574.1,7574.5
201904042011,7574.5,7575,7574.5,7574.6
201904042012,7574.6,7574.6,7573,7573
201904042013,7573.1,7573.6,7572.2,7573.6
201904042014,7573.6,7573.9,7572.7,7573.1
201904042015,7573.1,7574.3,7571.4,7571.6
201904042016,7571.4,7571.8,7570.8,7570.8
201904042017,7570.8,7571.2,7570.4,7570.9
201904042018,7570.8,7572.2,7570.6,7571.4
201904042019,7571.4,7573,7571.4,7572.4
201904042020,7572.4,7572.4,7571.9,7572.2
201904042021,7572.2,7572.4,7570.5,7570.7
201904042022,7570.8,7571,7570.1,7570.9
201904042023,7570.9,7572.3,7570.9,7571
201904042024,7571.2,7571.4,7571.1,7571.3
201904042025,7571.4,7571.8,7571.3,7571.5
201904042026,7571.7,7572.8,7571.7,7572.5
201904042027,7572.6,7573.3,7572.5,7573.2
201904042028,7573.2,7573.9,7573.2,7573.8
201904042029,7573.8,7574.1,7570.6,7571.2
201904042030,7571.2,7575.5,7571.2,7574.4
201904042031,7574.4,7575.3,7574.1,7574.3
201904042032,7574.3,7574.4,7572.4,7573.8
201904042033,7573.8,7574.8,7573.8,7574.1
201904042034,7574.1,7574.1,7572.7,7572.7
201904042035,7572.5,7573,7571.9,7572
201904042036,7572,7572.9,7571.8,7572.7
201904042037,7572.7,7573.1,7572.4,7572.8
201904042038,7572.9,7573.6,7571.8,7571.8
201904042039,7571.8,7572.5,7571.2,7572
201904042040,7572,7572.8,7571.7,7571.7
201904042041,7571.6,7571.8,7570.9,7571.5
201904042042,7571.5,7571.8,7569.1,7569.8
201904042043,7569.8,7569.8,7568.4,7569.1
201904042044,7569.1,7570.4,7569.1,7569.9
201904042045,7569.8,7570.2,7569.4,7569.9
201904042046,7569.8,7569.8,7568.2,7568.4
201904042047,7568.4,7569.2,7567.9,7568.4
201904042048,7568.4,7568.8,7568.2,7568.4
201904042049,7568.4,7570,7568.1,7568.5
201904042050,7568.7,7569.2,7568,7568
201904042051,7568.1,7568.2,7567.9,7568
201904042052,7568,7568.8,7567.4,7568.6
201904042053,7568.6,7568.6,7568.2,7568.2
201904042054,7568.2,7569.8,7568.2,7569
201904042055,7569,7569,7565.8,7565.8
201904042056,7565.7,7566.8,7565.7,7566.1
201904042057,7566.1,7566.1,7565.4,7565.5
201904042058,7565.5,7565.6,7564.5,7565.2
201904042059,7565.2,7565.5,7564,7564.9
201904042100,7564.9,7566.8,7564.9,7566.7
201904042101,7566.7,7567,7565.9,7566.2
201904042102,7566.2,7566.7,7566,7566.2
201904042103,7566.2,7567.3,7566.2,7567.1
201904042104,7567.1,7567.2,7566.4,7567
201904042105,7567,7568.6,7567,7568.4
201904042106,7568.3,7570,7567.9,7569.7
201904042107,7569.7,7569.7,7568,7568.4
201904042108,7568.4,7568.5,7567.2,7568.3
201904042109,7568.3,7569.8,7568.1,7569.6
201904042110,7569.6,7570,7568.8,7569.1
201904042111,7569.2,7569.3,7565.3,7566
201904042112,7566,7566.3,7565.5,7566
201904042113,7566,7566.7,7565.7,7566.6
201904042114,7566.7,7567,7565.2,7565.5
201904042115,7565.5,7565.5,7564.4,7564.7
201904042116,7564.6,7564.8,7562.7,7564.2
201904042117,7564.2,7566.3,7564.2,7566
201904042118,7566,7567.4,7565.9,7567.3
201904042119,7567.3,7567.5,7566.1,7566.6
201904042120,7566.5,7566.5,7565.6,7566.2
201904042121,7566.2,7567.2,7565.7,7566.4
201904042122,7566.4,7566.9,7566.2,7566.5
201904042123,7566.5,7566.8,7566.1,7566.3
201904042124,7566.3,7568.5,7566.3,7568.2
201904042125,7568.2,7569.7,7567.9,7569.6
201904042126,7569.6,7570.6,7568.3,7568.4
201904042127,7568.4,7569.5,7568.4,7569
201904042128,7569.1,7569.5,7568.9,7569.2
201904042129,7569.1,7569.6,7568.3,7568.3
201904042130,7568.3,7569.5,7568.3,7569.3
201904042131,7569.3,7570.9,7568.9,7570
201904042132,7570,7570.9,7569.4,7570.5
201904042133,7570.4,7573,7569.6,7573
201904042134,7573,7574,7571.5,7572.3
201904042135,7572.3,7573.9,7572.3,7573.4
201904042136,7573.4,7573.4,7570.9,7570.9
201904042137,7570.9,7572.7,7570.9,7572.6
201904042138,7572.6,7572.6,7571.9,7572.4
201904042139,7572.4,7573.5,7571.9,7573.3
201904042140,7573.3,7573.9,7572.5,7573.1
201904042141,7573.1,7573.3,7572.2,7572.2
201904042142,7572.2,7572.8,7571.7,7572.5
201904042143,7572.5,7572.6,7570.9,7571.2
201904042144,7571.2,7572,7570.9,7571.3
201904042145,7571.3,7572.9,7571.2,7572.9
201904042146,7572.9,7573.1,7572.4,7573.1
201904042147,7573.1,7573.3,7572.6,7573.1
201904042148,7573,7574.1,7573,7574
201904042149,7574,7574.1,7573.1,7573.3
201904042150,7573.3,7573.4,7572.7,7573.1
201904042151,7573.2,7573.8,7572.2,7572.2
201904042152,7572.1,7572.6,7571.2,7571.2
201904042153,7571.2,7572.8,7571.2,7572.7
201904042154,7572.7,7572.9,7571.7,7572.6
201904042155,7572.7,7572.7,7571.2,7571.6
201904042156,7571.6,7571.7,7570.7,7571.7
201904042157,7571.5,7571.5,7570.9,7571
201904042158,7571,7571.3,7570.1,7571
201904042159,7571.1,7571.1,7569.4,7570.4
201904042200,7570.4,7570.5,7568.4,7569.2
201904042201,7569.2,7569.4,7568.4,7568.6
201904042202,7568.7,7568.9,7567.4,7568.2
201904042203,7568.2,7568.5,7565.9,7567.9
201904042204,7567.9,7567.9,7566.6,7566.7
201904042205,7566.7,7570,7566.6,7570
201904042206,7570,7572,7569.8,7571.9
201904042207,7571.9,7572.4,7570.8,7571.1
201904042208,7571.1,7571.3,7570.7,7570.7
201904042209,7570.7,7571.5,7570.4,7571.5
201904042210,7571.6,7571.9,7571.1,7571.3
201904042211,7571.3,7571.3,7568.9,7569.3
201904042212,7569.3,7571,7569.1,7570.5
201904042213,7570.3,7571.1,7569.9,7570.8
201904042214,7570.8,7571.2,7568.7,7568.8
201904042215,7568.8,7569.3,7567.7,7567.7
201904042216,7567.7,7568.1,7567.1,7567.7
201904042217,7567.7,7568.6,7567.4,7568.2
201904042218,7568.4,7571,7568.4,7570.4
201904042219,7570.4,7570.4,7569.4,7569.6
201904042220,7569.6,7569.8,7569.2,7569.2
201904042221,7569.2,7569.4,7568.4,7568.5
201904042222,7568.6,7568.6,7567.4,7568
201904042223,7568,7568.6,7568,7568.3
201904042224,7568.3,7570.1,7568.1,7570.1
201904042225,7570.1,7572.5,7570.1,7572.5
201904042226,7572.5,7574.1,7571.7,7574.1
201904042227,7574.2,7574.5,7572.7,7573.1
201904042228,7573.2,7573.3,7568.7,7570
201904042229,7570,7570.1,7567.4,7568.7
201904042230,7568.5,7571.4,7566.8,7567.5
201904042231,7567.8,7577.7,7567.8,7577.6
201904042232,7577.6,7578.8,7574.4,7576
201904042233,7576.1,7579.8,7574.2,7577
201904042234,7577,7579.4,7574.4,7576.2
201904042235,7576.2,7579.6,7573.4,7579.2
201904042236,7579.2,7580.8,7575.2,7580.7
201904042237,7580.3,7583.3,7578.5,7583.2
201904042238,7583.1,7584.3,7580.1,7583.4
201904042239,7583.4,7588.3,7583.4,7587.6
201904042240,7588,7588,7585.4,7586.5
201904042241,7586.7,7588.2,7584.9,7585.5
201904042242,7585.5,7588.4,7584.7,7586.9
201904042243,7587,7590.7,7587,7589.4
201904042244,7589.4,7592.2,7586.5,7587.1
201904042245,7587.1,7594.9,7587.1,7593.7
201904042246,7593.9,7597.4,7593.2,7597.4
201904042247,7597.4,7597.4,7593.9,7594.7
201904042248,7594.8,7596.3,7587.6,7590.9
201904042249,7590.9,7590.9,7586,7589.7
201904042250,7590.6,7594.3,7589.2,7593.4
201904042251,7593.4,7594.9,7590.8,7591
201904042252,7591,7591.8,7588.3,7591.3
201904042253,7590.8,7593.1,7587.9,7587.9
201904042254,7587.9,7589.3,7586.9,7588.8
201904042255,7588.8,7593.9,7588.8,7592.8
201904042256,7592.9,7594.6,7590.7,7591.5
201904042257,7591.5,7593.7,7587.8,7589
201904042258,7589,7591.2,7587.9,7590.7
201904042259,7590.7,7592,7588.2,7590.7
201904042300,7590.7,7591.6,7586.8,7587.8
201904042301,7587.8,7591.8,7587.8,7591.7
201904042302,7591.5,7592.4,7589.7,7591.4
201904042303,7591.5,7594,7590.8,7593
201904042304,7593,7593.6,7589.8,7589.9
201904042305,7589.9,7592.1,7588.4,7589.6
201904042306,7589.6,7590.8,7589.2,7589.3
201904042307,7589.3,7591,7588.6,7588.9
201904042308,7588.7,7591.2,7584.7,7585.4
201904042309,7585.4,7585.8,7580.9,7581.9
201904042310,7581.9,7581.9,7578.4,7579.6
201904042311,7579.7,7583.6,7579.6,7583.3
201904042312,7583.3,7584.1,7581.3,7583
201904042313,7583,7583.6,7581.8,7583.5
201904042314,7583.5,7583.6,7580.2,7581.2
201904042315,7581.2,7583.1,7580,7580.8
201904042316,7580.8,7582.4,7576,7576.7
201904042317,7576.9,7578,7571.7,7572.6
201904042318,7572.6,7573.2,7569.1,7569.9
201904042319,7569.9,7572,7569.7,7571.2
201904042320,7571.1,7572.1,7569.1,7569.6
201904042321,7569.5,7570.4,7564.4,7564.4
201904042322,7564.4,7564.4,7558.2,7561.1
201904042323,7561,7561,7556.4,7557
201904042324,7556.9,7559.2,7556.9,7557.3
201904042325,7557.3,7562,7557.3,7561.8
201904042326,7561.8,7563,7560.9,7562.6
201904042327,7562.6,7562.6,7559.1,7561.8
201904042328,7561.8,7563.4,7558.6,7559
201904042329,7559,7559.7,7552.3,7554.2
201904042330,7554.4,7554.4,7547.2,7547.2
201904042331,7547.2,7551,7546.3,7548.4
201904042332,7548.4,7548.4,7541,7542.4
201904042333,7542.4,7545.8,7542.2,7544.9
201904042334,7544.9,7544.9,7537.9,7539.8
201904042335,7539.9,7542.8,7537.9,7542
201904042336,7542,7545.2,7540.9,7545.2
201904042337,7545.2,7548.9,7545,7548.9
201904042338,7548.9,7552.1,7545.9,7551.5
201904042339,7551.4,7551.4,7547.2,7550.7
201904042340,7550.7,7552.2,7550,7551.9
201904042341,7551.9,7555.7,7549.2,7554.5
201904042342,7554.5,7557.5,7554.5,7556.6
201904042343,7556.6,7556.9,7552.9,7554.7
201904042344,7554.7,7561,7554.7,7561
201904042345,7561.1,7562.1,7559.4,7560.7
201904042346,7560.7,7561.7,7560.2,7561.2
201904042347,7561.2,7565.2,7558.2,7565.2
201904042348,7565.4,7569.1,7565.2,7568.7
201904042349,7568.7,7570,7567.7,7569.7
201904042350,7569.7,7570.1,7566.9,7567.2
201904042351,7567.4,7569.6,7567.2,7568.8
201904042352,7568.9,7572.8,7568.9,7571.6
201904042353,7571.6,7571.9,7570,7570.7
201904042354,7570.9,7572.9,7570.9,7572.2
201904042355,7572.3,7573.6,7571.8,7572.8
201904042356,7572.8,7573.3,7568.3,7569.3
201904042357,7568.9,7571.1,7568,7570.9
201904042358,7570.9,7570.9,7567,7567.4
201904042359,7567.4,7568.5,7564.4,7564.4
201904050000,7564.7,7565.7,7560.1,7560.6
201904050001,7560.6,7563.7,7560.5,7562.6
201904050002,7562.6,7566.6,7560.1,7564.3
201904050003,7564.3,7565.3,7557.4,7559.5
201904050004,7559.7,7561.1,7558.2,7558.9
201904050005,7558.8,7559.7,7556.8,7558.9
201904050006,7558.9,7560,7556.2,7556.9
201904050007,7557,7562.3,7555.7,7561.8
201904050008,7561.8,7567,7561.4,7563.4
201904050009,7563.4,7564.9,7562.5,7563.3
201904050010,7563.3,7563.3,7558.4,7560
201904050011,7560,7562.4,7560,7561.8
201904050012,7561.8,7562,7558.6,7559.1
201904050013,7559.1,7560.3,7554.2,7554.5
201904050014,7554.5,7555.1,7549.3,7549.3
201904050015,7549.3,7551.5,7547.9,7550.6
201904050016,7550.7,7551,7547.5,7548.3
201904050017,7548.4,7548.4,7544.7,7545.4
201904050018,7545.4,7546.7,7543.3,7543.3
201904050019,7543.4,7546.1,7542.6,7545.2
201904050020,7545.2,7545.2,7541.2,7541.4
201904050021,7541.4,7543.3,7538.9,7542.4
201904050022,7542.7,7545.5,7542.1,7545.5
201904050023,7545.5,7549.1,7545.1,7548.3
201904050024,7548.3,7551.1,7546.8,7551
201904050025,7551,7552,7550.2,7551.7
201904050026,7551.7,7553,7551,7552.8
201904050027,7552.8,7554.4,7551.4,7554.4
201904050028,7554.4,7555,7551,7552.2
201904050029,7552.2,7554,7550.7,7551.2
201904050030,7551.2,7554,7549.2,7549.2
201904050031,7549.5,7551.5,7548.2,7548.3
201904050032,7548.3,7550.1,7548,7548.9
201904050033,7548.9,7552.1,7548.2,7551.2
201904050034,7551,7551.7,7549,7549.2
201904050035,7549.2,7554.5,7548.9,7554.2
201904050036,7554.4,7559.9,7554.4,7558.7
201904050037,7558.7,7559.7,7557.9,7558.7
201904050038,7558.7,7561.9,7558.7,7561.4
201904050039,7561.4,7563.3,7561.4,7562
201904050040,7562.2,7563.4,7559.4,7559.9
201904050041,7559.9,7560.4,7558.9,7559.7
201904050042,7559.7,7561.8,7558.9,7559.5
201904050043,7559.5,7561.5,7557.9,7558.7
201904050044,7558.7,7561,7558.7,7559.2
201904050045,7559.2,7564.1,7559,7563
201904050046,7563.1,7564.2,7562.2,7563
201904050047,7562.8,7563.6,7561,7562
201904050048,7562,7562.7,7559.9,7560.6
201904050049,7560.6,7561.5,7558.4,7558.7
201904050050,7558.7,7558.8,7555,7556.4
201904050051,7556.4,7556.4,7550.2,7550.5
201904050052,7550.6,7552.3,7550.6,7551.8
201904050053,7551.8,7551.8,7547.9,7548.9
201904050054,7548.9,7549.1,7545.9,7546.4
201904050055,7546.4,7551.8,7546.4,7551.7
201904050056,7552.4,7552.4,7549.6,7549.9
201904050057,7549.9,7551.8,7549.2,7551.8
201904050058,7551.8,7553.7,7549.6,7550.5
201904050059,7550.5,7551.6,7547.9,7548.9
201904050100,7548.8,7551.4,7547.9,7550.9
201904050101,7550.9,7551.6,7546.4,7546.8
201904050102,7546.8,7549.5,7546.4,7548.5
201904050103,7548.5,7551.4,7548.1,7550.2
201904050104,7550.2,7550.7,7548.9,7549.5
201904050105,7549.5,7553.4,7549,7553.1
201904050106,7553.1,7556.5,7552.1,7555.9
201904050107,7555.9,7556.5,7553.9,7554.2
201904050108,7554.1,7554.1,7550.9,7551.4
201904050109,7551.4,7553.6,7550.1,7550.3
201904050110,7550.5,7550.7,7548.4,7550.5
201904050111,7550.5,7551.2,7549.2,7550.5
201904050112,7550.6,7553.8,7550.4,7552.9
201904050113,7552.9,7554.1,7551.7,7553.1
201904050114,7553.1,7553.7,7549.4,7549.8
201904050115,7549.8,7551,7544.2,7544.7
201904050116,7544.7,7546.7,7544.7,7545.1
201904050117,7545.2,7545.3,7540.3,7540.3
201904050118,7540.3,7541,7534.3,7534.5
201904050119,7534.5,7540.4,7534.5,7537.2
201904050120,7537.3,7542,7536,7541.9
201904050121,7541.9,7541.9,7539.7,7541.3
201904050122,7541.4,7543.9,7540.9,7543.9
201904050123,7543.9,7544.2,7541.7,7542
201904050124,7542,7542,7539.9,7541.1
201904050125,7541.1,7544,7540.9,7543.2
201904050126,7543.2,7543.2,7540.9,7542.4
201904050127,7542.4,7543.5,7540.3,7541.2
201904050128,7541.4,7543.2,7540.1,7540.2
201904050129,7540.3,7542.2,7540.1,7541
201904050130,7541,7541,7537,7538.4
201904050131,7538.4,7542.9,7538.2,7538.9
201904050132,7538.8,7538.9,7533.8,7534
201904050133,7534,7535.8,7532.4,7533.2
201904050134,7533.2,7534.5,7532.1,7533.9
201904050135,7534.1,7539.4,7534.1,7535.4
201904050136,7535.4,7536.5,7534,7536.2
201904050137,7536.2,7536.3,7534.5,7534.5
201904050138,7534.2,7536.1,7533,7536.1
201904050139,7536.1,7536.1,7533.7,7534.6
201904050140,7534.6,7538,7533.2,7538
201904050141,7537.9,7537.9,7530.7,7530.9
201904050142,7531.4,7531.4,7528.7,7529.3
201904050143,7529.3,7529.3,7525.4,7525.7
201904050144,7525.9,7530.7,7525.9,7527.4
201904050145,7527.5,7527.9,7524.7,7525.9
201904050146,7525.9,7526.2,7522.5,7522.6
201904050147,7522.6,7526.4,7522,7525.4
201904050148,7525.4,7529.6,7524.7,7529.5
201904050149,7529.5,7532.4,7528.7,7530.9
201904050150,7530.8,7532.8,7530.2,7532.3
201904050151,7532.3,7533.8,7532.2,7532.7
201904050152,7532.7,7535.4,7532.3,7535
201904050153,7534.9,7536.8,7534.4,7535.7
201904050154,7535.7,7538.8,7534.9,7538.6
201904050155,7538.6,7539.2,7537,7538.2
201904050156,7538.2,7540.5,7538.2,7540.2
201904050157,7540.2,7543.4,7539.9,7542.2
201904050158,7542.2,7542.9,7540.2,7540.2
201904050159,7540.2,7541.3,7539.9,7540.4
201904050200,7540.4,7542.3,7540.2,7540.5
201904050201,7540.5,7541.9,7540.2,7540.4
201904050202,7540.4,7542,7538.9,7541.8
201904050203,7541.9,7542.8,7540.2,7540.7
201904050204,7540.7,7541.9,7538.5,7541.9
201904050205,7542,7547.1,7541.5,7546.7
201904050206,7546.7,7547.5,7544.9,7545.2
201904050207,7545.1,7547.6,7545.1,7547.3
201904050208,7547.3,7549,7547.3,7547.9
201904050209,7547.6,7547.7,7545.9,7546.9
201904050210,7546.9,7548,7546.1,7547.2
201904050211,7547.2,7548.6,7546.5,7548.6
201904050212,7548.6,7550.2,7547.7,7549.4
201904050213,7549.4,7551.2,7549.4,7549.9
201904050214,7549.9,7550.4,7547.8,7548.8
201904050215,7548.9,7550.5,7547.9,7549.4
201904050216,7549.4,7551.7,7548.9,7549
201904050217,7549,7550,7546.9,7547
201904050218,7546.8,7548.5,7546.2,7548.4
201904050219,7548.4,7551.4,7548.4,7551.2
201904050220,7551.2,7551.6,7548.9,7549
201904050221,7549,7551.4,7548.9,7550.2
201904050222,7550.3,7551.2,7549.6,7549.9
201904050223,7549.9,7550.9,7548.9,7550.3
201904050224,7549.9,7551.4,7548.4,7548.9
201904050225,7548.6,7548.6,7546.5,7546.5
201904050226,7546.5,7547.6,7546.4,7547.1
201904050227,7547.4,7549.4,7547.1,7549.3
201904050228,7549.3,7549.8,7547.4,7547.4
201904050229,7547.4,7547.9,7546.2,7546.7
201904050230,7546.7,7549.5,7545,7549.2
201904050231,7549.3,7551.5,7546.8,7547.6
201904050232,7547.6,7548.4,7546.5,7547.3
201904050233,7547.1,7547.8,7546.2,7546.7
201904050234,7546.7,7547.6,7545.6,7547.3
201904050235,7547.3,7549.2,7546.5,7547.4
201904050236,7547.4,7548.8,7546.9,7547.5
201904050237,7547.9,7549.3,7546.9,7549.3
201904050238,7549.3,7549.4,7546.1,7547.3
201904050239,7547.3,7547.4,7545.2,7546.3
201904050240,7546.3,7548,7545.7,7547.9
201904050241,7547.9,7547.9,7546.4,7546.6
201904050242,7546.7,7546.7,7543.1,7543.4
201904050243,7543.4,7544.3,7543.2,7544
201904050244,7544.1,7546.7,7543.4,7544.9
201904050245,7544.9,7547.1,7544.4,7545.3
201904050246,7545.3,7546.6,7543.7,7546.6
201904050247,7546.6,7547.8,7546.4,7547.7
201904050248,7547.7,7548.7,7545.9,7546.5
201904050249,7546.5,7547,7545.3,7545.8
201904050250,7545.8,7547.8,7544.4,7547.5
201904050251,7547.5,7550.4,7547.5,7549.7
201904050252,7549.7,7549.8,7547.8,7548.5
201904050253,7548.5,7550.2,7548.4,7549.6
201904050254,7549.6,7551.7,7549.4,7551.1
201904050255,7551.1,7551.4,7548.7,7548.9
201904050256,7548.9,7550.2,7548.2,7548.2
201904050257,7548.2,7548.6,7547,7547.6
201904050258,7547.6,7549,7546.7,7548.5
201904050259,7548.5,7548.5,7547.4,7548
201904050300,7548,7549.2,7544.5,7545.8
201904050301,7545.8,7546.8,7545,7546.8
201904050302,7546.8,7547.2,7545.9,7546.7
201904050303,7546.7,7548.4,7546.3,7546.4
201904050304,7546.4,7548,7545.9,7548
201904050305,7548,7548.7,7547.4,7547.7
201904050306,7547.7,7548.5,7546.9,7548.4
201904050307,7548.4,7549.2,7547.6,7549.2
201904050308,7549.2,7551.1,7548.4,7550
201904050309,7550,7550.5,7547.4,7548.4
201904050310,7548.4,7549.6,7547.4,7549.2
201904050311,7549.2,7553.9,7548.8,7553.9
201904050312,7553.9,7554.8,7552.2,7554.7
201904050313,7554.7,7556,7553.9,7555.6
201904050314,7555.5,7557.7,7555.4,7557.1
201904050315,7557.2,7557.2,7554.9,7555.7
201904050316,7555.7,7559.5,7555.7,7559.5
201904050317,7559.5,7560.7,7559.5,7559.9
201904050318,7559.9,7560.8,7559.2,7559.4
201904050319,7559.2,7559.2,7557.9,7558.7
201904050320,7558.7,7560.9,7558.5,7560.7
201904050321,7560.7,7561.6,7558.7,7559.3
201904050322,7559.2,7560.7,7559,7560.4
201904050323,7560.4,7562.7,7560.4,7561.7
201904050324,7561.7,7563.4,7561.3,7562.7
201904050325,7562.7,7563.2,7561.1,7561.2
201904050326,7561.2,7561.8,7559.2,7559.6
201904050327,7559.6,7561.3,7558.9,7561
201904050328,7561,7561.5,7559.4,7560.6
201904050329,7560.5,7561.4,7559.9,7560.4
201904050330,7560.4,7561,7559.4,7560.4
201904050331,7560.4,7562,7560.4,7560.6
201904050332,7560.6,7561,7559.5,7560.9
201904050333,7560.9,7561.2,7560.2,7560.8
201904050334,7560.9,7561.1,7560.2,7560.8
201904050335,7560.8,7561.5,7560.1,7560.1
201904050336,7560.1,7562.1,7560.1,7562.1
201904050337,7562.1,7562.9,7560.4,7560.4
201904050338,7560.4,7562.6,7560.4,7562.2
201904050339,7562.1,7563.8,7561.9,7563.3
201904050340,7563.3,7564.1,7562.7,7563.9
201904050341,7563.7,7564.5,7563.4,7564.4
201904050342,7564.4,7565.9,7564.3,7564.9
201904050343,7564.9,7564.9,7562.3,7563.2
201904050344,7563.4,7565.2,7562.7,7565.2
201904050345,7565.2,7565.8,7564.4,7564.4
201904050346,7564.4,7564.9,7561.9,7561.9
201904050347,7562,7565,7561.8,7564.4
201904050348,7564.4,7565.6,7564.2,7565.6
201904050349,7565.6,7566.7,7565.5,7566.3
201904050350,7566.2,7567.7,7565.9,7567.6
201904050351,7567.6,7570.2,7567.2,7569.2
201904050352,7569.2,7569.2,7567.3,7567.8
201904050353,7567.9,7568.8,7567.5,7567.6
201904050354,7567.6,7569.4,7567.6,7568.9
201904050355,7568.9,7570.6,7568.1,7570.6
201904050356,7570.8,7571.1,7569.2,7569.4
201904050357,7569.4,7569.8,7568.7,7569.2
201904050358,7569.2,7571.4,7569.2,7570.5
201904050359,7570.6,7571.7,7570.2,7571.4
201904050400,7571.4,7572.6,7571.1,7571.4
201904050401,7571.4,7571.4,7568.4,7568.5
201904050402,7568.6,7569.5,7567.9,7568.2
201904050403,7568.2,7568.7,7565.2,7565.5
201904050404,7565.5,7566.7,7564.5,7564.6
201904050405,7564.6,7566.2,7564.5,7565.9
201904050406,7565.9,7567.5,7565.3,7567.5
201904050407,7567.5,7567.9,7564.5,7564.5
201904050408,7564.5,7564.5,7559.8,7560.2
201904050409,7560.2,7562.1,7559.7,7560.5
201904050410,7560.5,7563.5,7560,7563.4
201904050411,7563.4,7565.6,7563.2,7564.7
201904050412,7564.7,7565.6,7564.2,7564.5
201904050413,7564.5,7564.6,7562.5,7562.8
201904050414,7562.8,7564.3,7562.5,7564.1
201904050415,7564.1,7565,7562,7563.2
201904050416,7563.2,7564,7560.8,7562
201904050417,7561.9,7563.2,7561.9,7562.6
201904050418,7562.6,7563.8,7562.6,7563
201904050419,7563.2,7564.2,7562.4,7563.8
201904050420,7563.9,7564.7,7562.4,7562.5
201904050421,7562.5,7562.9,7560.5,7560.5
201904050422,7560.5,7561.9,7559,7559.3
201904050423,7559.3,7559.8,7558,7558.1
201904050424,7558.3,7558.4,7557,7558.3
201904050425,7558.2,7559.1,7557.2,7558.8
201904050426,7558.8,7559.9,7558.8,7559.9
201904050427,7559.9,7559.9,7557.3,7558.5
201904050428,7558.5,7559.9,7558.2,7558.4
201904050429,7558.3,7558.5,7555.4,7557.2
201904050430,7557.2,7562.5,7557.2,7561.4
201904050431,7561.5,7562.5,7560.9,7561.2
201904050432,7561.2,7561.7,7560.7,7561
201904050433,7561.2,7561.2,7560,7560.4
201904050434,7560.3,7560.8,7559.2,7559.9
201904050435,7559.7,7561.2,7559.7,7560.1
201904050436,7560.1,7562,7560.1,7561.7
201904050437,7561.7,7563.8,7561.7,7562.9
201904050438,7562.9,7564,7562.5,7563.7
201904050439,7563.7,7564.8,7563.2,7563.7
201904050440,7563.7,7564.2,7562.4,7562.4
201904050441,7562.4,7562.4,7559.4,7559.9
201904050442,7559.9,7560.4,7558,7558.7
201904050443,7558.7,7558.7,7557.2,7557.5
201904050444,7557.5,7559.2,7557.5,7559.2
201904050445,7559.2,7559.4,7557.4,7558.2
201904050446,7558.2,7559.2,7557.5,7558
201904050447,7558,7558,7556.6,7556.8
201904050448,7556.8,7557.7,7556.4,7556.6
201904050449,7556.6,7559.1,7556.2,7558.9
201904050450,7558.9,7561,7558.9,7560
201904050451,7560,7560.5,7557.9,7558.2
201904050452,7558.2,7560.3,7558.1,7560.3
201904050453,7560.3,7564.2,7560.2,7564.2
201904050454,7564,7566.1,7563,7564.7
201904050455,7564.7,7568.9,7564.7,7564.9
201904050456,7565,7565.3,7562.9,7563.6
201904050457,7563.6,7565,7562.9,7564.5
201904050458,7564.5,7564.5,7563,7564
201904050459,7564,7565.9,7562.9,7565.9
201904050500,7565.5,7567,7564.7,7566.7
201904050501,7566.7,7568.5,7566.4,7566.6
201904050502,7566.6,7566.7,7564.9,7564.9
201904050503,7564.9,7564.9,7562.6,7563
201904050504,7563,7563.6,7562.8,7563.5
201904050505,7563.5,7563.6,7560.5,7561.1
201904050506,7561.1,7564.4,7560.9,7564.2
201904050507,7564.2,7566,7564.2,7564.5
201904050508,7564.5,7565.6,7564.2,7565.6
201904050509,7565.6,7565.7,7565,7565.7
201904050510,7565.6,7565.6,7561.2,7562.1
201904050511,7562.1,7563.3,7561.5,7563.2
201904050512,7563.2,7563.6,7562.6,7563.4
201904050513,7563.4,7563.6,7559.6,7560.1
201904050514,7560.1,7561.9,7560.1,7561.6
