日時,始値(BID),高値(BID),安値(BID),終値(BID)
201904260700,7797,7797.5,7790.9,7797
201904260701,7797,7798.2,7794.1,7796.1
201904260702,7796.1,7796.2,7794.3,7794.5
201904260703,7794.5,7798.6,7794.2,7798.6
201904260704,7798.6,7801.4,7798.4,7800.9
201904260705,7800.9,7803.3,7800,7802.3
201904260706,7802.3,7803.5,7802.2,7803.3
201904260707,7803.3,7804.2,7802.8,7803.4
201904260708,7803.4,7804.8,7803.2,7804.7
201904260709,7804.9,7804.9,7801.9,7802.3
201904260710,7802.3,7807.1,7802.2,7807
201904260711,7807,7807,7805.2,7805.6
201904260712,7805.6,7806.6,7805.6,7805.9
201904260713,7805.9,7808,7805.9,7807.4
201904260714,7807.5,7807.6,7806.9,7807
201904260715,7807,7807,7805.9,7806.3
201904260716,7806.3,7806.5,7805.5,7805.6
201904260717,7805.6,7805.8,7805.1,7805.6
201904260718,7805.6,7806.8,7805.2,7806.3
201904260719,7806.3,7806.4,7805.9,7806.3
201904260720,7806.3,7807.1,7806.2,7806.5
201904260721,7806.6,7807.2,7806.6,7806.9
201904260722,7806.9,7807.3,7806.4,7807.3
201904260723,7807.3,7807.4,7806,7806.8
201904260724,7806.8,7807.2,7806.7,7806.8
201904260725,7806.8,7806.9,7806.7,7806.9
201904260726,7806.9,7807.1,7806.7,7806.8
201904260727,7806.8,7806.8,7805.4,7805.4
201904260728,7805.4,7805.6,7804.9,7805
201904260729,7805.1,7805.2,7804.7,7805.2
201904260730,7805.3,7806.1,7804.6,7804.6
201904260731,7804.6,7805.4,7804.6,7805.4
201904260732,7805.5,7806,7805.4,7806
201904260733,7806,7806,7804.8,7804.9
201904260734,7804.9,7806.1,7804.8,7805.8
201904260735,7805.8,7806.2,7805.4,7805.4
201904260736,7805.3,7805.8,7805.3,7805.8
201904260737,7805.8,7806.1,7805.6,7805.9
201904260738,7805.9,7805.9,7805.6,7805.7
201904260739,7805.7,7806.1,7805.6,7806.1
201904260740,7806,7806.2,7805.7,7806.1
201904260741,7806.1,7806.1,7805.5,7805.8
201904260742,7805.8,7805.9,7805.5,7805.7
201904260743,7805.7,7805.7,7805.3,7805.4
201904260744,7805.4,7805.6,7805.3,7805.6
201904260745,7805.6,7805.6,7805.2,7805.4
201904260746,7805.4,7805.4,7804.1,7804.1
201904260747,7804.1,7804.8,7804.1,7804.8
201904260748,7804.8,7804.8,7803.6,7803.7
201904260749,7803.7,7804.3,7803.6,7804.3
201904260750,7804.3,7804.4,7803.4,7803.4
201904260751,7803.4,7804.2,7803.4,7803.4
201904260752,7803.4,7803.4,7802.7,7802.7
201904260753,7802.7,7802.9,7802.4,7802.6
201904260754,7802.6,7803,7802.6,7802.8
201904260755,7802.8,7803.2,7802.8,7803
201904260756,7803,7803.3,7802.8,7802.9
201904260757,7802.9,7803.4,7802.9,7803.3
201904260758,7803.3,7804.4,7801.8,7801.9
201904260759,7801.8,7802.4,7801.8,7802.3
201904260800,7802.3,7803.5,7802.3,7803
201904260801,7803,7804.3,7803,7803.9
201904260802,7803.9,7803.9,7803.6,7803.7
201904260803,7803.7,7803.7,7803.2,7803.4
201904260804,7803.3,7803.9,7803.3,7803.8
201904260805,7803.8,7804.1,7803,7803.4
201904260806,7803.4,7804.3,7803.2,7804.3
201904260807,7804.2,7804.2,7803.1,7803.5
201904260808,7803.5,7804.1,7803.4,7803.5
201904260809,7803.5,7805.3,7803.5,7805.3
201904260810,7805.3,7805.4,7804.7,7804.9
201904260811,7804.9,7805.2,7804.9,7805
201904260812,7805.1,7805.8,7804.6,7805.5
201904260813,7805.5,7805.7,7804.7,7804.7
201904260814,7804.7,7805.3,7804.7,7805.3
201904260815,7805.3,7805.5,7804.2,7804.2
201904260816,7804.1,7804.7,7804,7804.7
201904260817,7804.7,7804.9,7804.4,7804.6
201904260818,7804.6,7804.9,7804.5,7804.7
201904260819,7804.6,7804.8,7802.9,7802.9
201904260820,7802.9,7803.5,7802.7,7803.4
201904260821,7803.4,7804.1,7803.4,7803.8
201904260822,7803.6,7803.8,7803.4,7803.4
201904260823,7803.4,7803.4,7803.4,7803.4
201904260824,7803.4,7803.4,7802.4,7802.4
201904260825,7802.4,7803.3,7802.3,7803.2
201904260826,7803.2,7804.3,7803.1,7804.3
201904260827,7804.4,7804.5,7804.3,7804.3
201904260828,7804.3,7804.9,7804.1,7804.8
201904260829,7804.8,7805.1,7804.8,7804.8
201904260830,7804.8,7804.8,7804.2,7804.4
201904260831,7804.4,7804.8,7804.4,7804.4
201904260832,7804.4,7805,7804.4,7804.8
201904260833,7804.8,7805.4,7804.8,7805.1
201904260834,7805.1,7805.3,7805,7805
201904260835,7805,7805.3,7805,7805.3
201904260836,7805.4,7805.6,7805.1,7805.2
201904260837,7805.2,7805.3,7804.6,7804.7
201904260838,7804.7,7804.7,7804.3,7804.4
201904260839,7804.4,7804.6,7804,7804
201904260840,7804,7804.3,7803.7,7803.7
201904260841,7803.7,7803.9,7803.4,7803.7
201904260842,7803.7,7804.1,7803.3,7803.5
201904260843,7803.4,7803.4,7801.4,7801.4
201904260844,7801.4,7801.5,7800.2,7801
201904260845,7801,7802.8,7801,7802.5
201904260846,7802.5,7802.6,7801,7801.1
201904260847,7801.1,7801.6,7801,7801.5
201904260848,7801.5,7802.5,7801.5,7802.3
201904260849,7802.3,7802.4,7801.4,7801.6
201904260850,7801.6,7801.6,7800.4,7800.4
201904260851,7800.4,7800.6,7799.9,7800.1
201904260852,7800.1,7800.8,7799.9,7800.8
201904260853,7800.8,7801.2,7800.6,7800.9
201904260854,7800.9,7800.9,7799.9,7800
201904260855,7800,7800.8,7799.2,7799.3
201904260856,7799.3,7799.9,7799.1,7799.2
201904260857,7799.2,7799.7,7798.8,7799
201904260858,7799,7799.5,7798.8,7799.4
201904260859,7799.4,7800.3,7798.3,7798.6
201904260900,7798.6,7800.8,7792.7,7793.4
201904260901,7793.4,7802.8,7793.4,7801.8
201904260902,7801.8,7801.8,7794.7,7796.2
201904260903,7796.2,7796.3,7793.9,7794.3
201904260904,7794.3,7798.2,7794,7798.2
201904260905,7798.2,7799.2,7797.1,7798.6
201904260906,7798.6,7800.3,7797.4,7799.2
201904260907,7799.2,7800.7,7799.2,7800.5
201904260908,7800.6,7800.6,7797,7797.7
201904260909,7797.7,7798,7794.6,7795.3
201904260910,7795.3,7795.9,7793.7,7793.7
201904260911,7793.7,7793.9,7785.8,7789.9
201904260912,7789.9,7791.6,7789,7791.2
201904260913,7791.2,7791.5,7788.1,7788.9
201904260914,7788.9,7789.3,7787.4,7788.8
201904260915,7788.8,7788.8,7786,7787.6
201904260916,7787.6,7788.1,7786.5,7787.6
201904260917,7787.6,7788,7786.4,7787.2
201904260918,7787.2,7787.6,7784.9,7785.3
201904260919,7785.4,7787.3,7785.4,7786.5
201904260920,7786.5,7787.5,7786.2,7786.4
201904260921,7786.4,7786.4,7782.6,7783.5
201904260922,7783.5,7784.5,7782.7,7784.3
201904260923,7784.3,7784.4,7781.2,7783.4
201904260924,7783.3,7783.5,7781.9,7782.7
201904260925,7782.7,7783.8,7782.5,7783
201904260926,7783.1,7783.8,7782.2,7782.7
201904260927,7782.7,7784.2,7782.5,7784.1
201904260928,7784.1,7784.7,7783.5,7784.5
201904260929,7784.5,7785.3,7784.2,7785
201904260930,7785,7786.3,7784.5,7785.9
201904260931,7786,7786.1,7785.5,7786
201904260932,7786,7786,7783.7,7784.2
201904260933,7784.2,7784.6,7780.9,7783.3
201904260934,7783.3,7783.9,7782.9,7783
201904260935,7783,7783,7781.9,7782
201904260936,7782.3,7783.5,7781.6,7783.4
201904260937,7783.4,7783.4,7781.2,7781.4
201904260938,7781.5,7782.9,7781.5,7782.3
201904260939,7782.3,7782.3,7780.9,7781
201904260940,7781,7783.1,7780.7,7783
201904260941,7783.1,7785,7783.1,7784.8
201904260942,7784.8,7786.2,7784.8,7786
201904260943,7786,7786,7784.7,7785.2
201904260944,7785.2,7786,7784.9,7785.1
201904260945,7785.3,7787.2,7784.9,7786.7
201904260946,7786.7,7787.1,7785.8,7786.1
201904260947,7786.1,7786.5,7785.3,7785.3
201904260948,7785.2,7785.6,7784.9,7785.4
201904260949,7785.4,7786.2,7785.3,7785.4
201904260950,7785.4,7786,7784.9,7785.3
201904260951,7785.2,7785.3,7783.9,7784.6
201904260952,7784.6,7784.8,7783.8,7783.8
201904260953,7783.8,7785.1,7783.8,7784.5
201904260954,7784.4,7784.5,7782.9,7782.9
201904260955,7782.9,7784.9,7782.2,7784.9
201904260956,7784.9,7785.3,7784.7,7785.2
201904260957,7785.2,7785.2,7784.3,7784.6
201904260958,7784.6,7784.6,7782.9,7783.4
201904260959,7783.4,7784,7783,7783.1
201904261000,7783.2,7784.1,7782.5,7783.5
201904261001,7783.5,7783.5,7781.4,7781.9
201904261002,7781.9,7781.9,7780.9,7781.2
201904261003,7781.2,7781.3,7780.1,7780.5
201904261004,7780.5,7780.8,7778.1,7780.5
201904261005,7780.5,7781.2,7779.7,7781.1
201904261006,7781.1,7781.4,7780.7,7780.9
201904261007,7780.8,7781.1,7780.4,7780.9
201904261008,7780.8,7782.9,7780.4,7782.5
201904261009,7782.8,7783.1,7782.4,7782.5
201904261010,7782.5,7783.7,7782,7783.7
201904261011,7783.7,7785.8,7783.6,7785.4
201904261012,7785.4,7785.9,7784.9,7785
201904261013,7785,7786,7785,7785.6
201904261014,7785.6,7786.2,7785.3,7786.1
201904261015,7786.1,7788.6,7785.7,7788.2
201904261016,7788.2,7788.3,7786.4,7787.9
201904261017,7787.9,7791,7787.6,7791
201904261018,7791,7792.4,7790.4,7791.2
201904261019,7791.2,7791.3,7788.5,7789.1
201904261020,7789.1,7789.8,7788.9,7789.4
201904261021,7789.4,7791.3,7789.4,7790.9
201904261022,7790.9,7792.5,7790.7,7791.9
201904261023,7791.9,7792.6,7791.6,7791.8
201904261024,7791.8,7794.2,7791.4,7794
201904261025,7794,7796.2,7791.9,7792.2
201904261026,7792.2,7792.7,7791.9,7792.3
201904261027,7792.3,7793.4,7792.1,7793.4
201904261028,7793.3,7794.3,7792.7,7793.7
201904261029,7793.7,7794,7792.9,7793.5
201904261030,7793.5,7795.3,7793.5,7795.1
201904261031,7795.1,7796.1,7794.9,7795.1
201904261032,7795.1,7795.1,7794.2,7794.6
201904261033,7794.6,7796.4,7794.1,7795
201904261034,7795.2,7795.4,7794,7794.3
201904261035,7794.3,7794.4,7793.7,7793.9
201904261036,7793.9,7793.9,7793,7793.2
201904261037,7793.1,7793.5,7792.1,7792.1
201904261038,7792.1,7794,7790.9,7793.3
201904261039,7793.3,7793.3,7791.3,7791.5
201904261040,7791.6,7792.4,7790.7,7791
201904261041,7791,7791.2,7789.4,7789.7
201904261042,7789.7,7790.9,7789.6,7790.4
201904261043,7790.4,7791.3,7790.4,7791.3
201904261044,7791.3,7791.3,7790.4,7790.7
201904261045,7790.7,7791.5,7790.4,7790.7
201904261046,7790.7,7792.3,7790.3,7792.1
201904261047,7792.1,7793,7791.4,7791.4
201904261048,7791.4,7792.3,7791.4,7791.4
201904261049,7791.3,7791.3,7789.4,7789.4
201904261050,7789.4,7790,7788.4,7789.5
201904261051,7789.5,7791.6,7789.5,7791.4
201904261052,7791.4,7794.7,7791.4,7794.1
201904261053,7794.1,7794.1,7792.8,7793
201904261054,7793,7794.4,7793,7794.3
201904261055,7794.3,7795,7794.3,7794.7
201904261056,7794.8,7795.6,7792.2,7792.5
201904261057,7792.5,7793.7,7791.2,7793.6
201904261058,7793.5,7794.3,7793.4,7793.4
201904261059,7793.4,7793.8,7792.9,7793.2
201904261100,7793.2,7793.3,7790.4,7790.5
201904261101,7790.6,7791.4,7789.3,7789.7
201904261102,7789.7,7790.4,7787.6,7787.8
201904261103,7787.8,7788.2,7786.9,7787.3
201904261104,7787.3,7788.3,7787.2,7788
201904261105,7788.1,7788.3,7785.7,7786
201904261106,7786,7787.3,7786,7787.3
201904261107,7787.3,7787.7,7786.9,7787.7
201904261108,7787.8,7790.1,7787.6,7789.5
201904261109,7789.6,7790.2,7788.7,7789.6
201904261110,7789.6,7792.1,7789.6,7791.6
201904261111,7791.5,7792.3,7791.2,7791.7
201904261112,7791.7,7793.3,7791.7,7793.3
201904261113,7793.3,7798.3,7793.1,7797
201904261114,7797,7799.6,7797,7798.1
201904261115,7798.1,7798.3,7796.8,7797.9
201904261116,7797.9,7798,7796.9,7797.7
201904261117,7797.7,7798.1,7797.5,7797.8
201904261118,7797.8,7798,7796.4,7797.3
201904261119,7797.3,7797.6,7796.9,7796.9
201904261120,7796.9,7797.5,7796.5,7796.8
201904261121,7796.8,7796.9,7794.4,7794.6
201904261122,7794.5,7795.4,7794.3,7794.8
201904261123,7794.7,7795.5,7794.4,7795.4
201904261124,7795.4,7797.3,7795.4,7795.7
201904261125,7795.7,7796.9,7795.2,7795.6
201904261126,7795.5,7795.5,7794.4,7794.4
201904261127,7794.4,7795.1,7794.4,7795.1
201904261128,7795.1,7795.4,7794,7794.5
201904261129,7794.5,7795.7,7794.1,7794.4
201904261130,7794.4,7796.6,7794.3,7796.1
201904261131,7796.2,7797.3,7795.9,7797.1
201904261132,7797.2,7797.5,7796.9,7797.2
201904261133,7797.2,7797.4,7795.9,7796.8
201904261134,7796.7,7797.5,7796.3,7797.5
201904261135,7797.5,7798.8,7797.4,7798.4
201904261136,7798.4,7798.9,7797.7,7797.8
201904261137,7797.9,7798.2,7797.7,7798.1
201904261138,7798.1,7798.5,7797.4,7798.4
201904261139,7798.4,7798.4,7796.7,7796.8
201904261140,7796.8,7797.1,7796.7,7797
201904261141,7797,7797,7796.7,7796.8
201904261142,7796.8,7796.8,7796.2,7796.3
201904261143,7796.4,7796.9,7796,7796.1
201904261144,7796,7796.5,7795.2,7796.5
201904261145,7796.7,7799.6,7796.7,7799.6
201904261146,7799.6,7799.7,7795.2,7795.2
201904261147,7795.4,7796.6,7795.2,7796.3
201904261148,7796.4,7796.4,7795.8,7796.2
201904261149,7796.1,7797,7795.9,7796.2
201904261150,7796.2,7796.6,7795.9,7796.1
201904261151,7796.1,7796.3,7795.7,7795.9
201904261152,7795.9,7796.2,7795.7,7795.7
201904261153,7795.7,7795.8,7795.2,7795.2
201904261154,7795.2,7795.5,7795.1,7795.4
201904261155,7795.4,7796.1,7794.9,7795.8
201904261156,7795.8,7795.8,7794.9,7795.1
201904261157,7795.1,7795.4,7794.7,7795
201904261158,7795,7795.3,7794.8,7795.1
201904261159,7795.1,7795.4,7794.4,7794.4
201904261200,7794.4,7795.3,7794.4,7794.7
201904261201,7794.7,7794.8,7793.9,7793.9
201904261202,7793.9,7794.1,7793.6,7793.6
201904261203,7793.7,7795,7793.7,7794.4
201904261204,7794.4,7795,7793.9,7794.1
201904261205,7794,7794,7792.7,7793.1
201904261206,7793.1,7794.8,7792.7,7794.8
201904261207,7794.9,7795.9,7794.6,7795.9
201904261208,7795.9,7797.3,7795.8,7797
201904261209,7797,7797,7796.1,7796.2
201904261210,7796.3,7796.8,7796.2,7796.4
201904261211,7796.4,7796.8,7794.4,7795.1
201904261212,7795.1,7795.1,7794.2,7794.6
201904261213,7794.6,7796.2,7794.3,7796.2
201904261214,7796.2,7798.6,7796.2,7798.6
201904261215,7798.6,7799.9,7795.4,7795.6
201904261216,7795.6,7797,7794.9,7796
201904261217,7796,7796.3,7794.2,7794.2
201904261218,7794.2,7795.1,7794.2,7794.8
201904261219,7794.8,7795.3,7794.2,7794.2
201904261220,7794.2,7795.1,7794.1,7794.9
201904261221,7794.9,7795.2,7794.2,7795.2
201904261222,7795.2,7796.3,7793.7,7793.8
201904261223,7793.8,7794.1,7792.7,7793.4
201904261224,7793.1,7794.1,7792.9,7793.1
201904261225,7793.1,7793.8,7792.7,7793.6
201904261226,7793.6,7794,7792.9,7793.3
201904261227,7793.3,7794.4,7793.3,7794.4
201904261228,7794.4,7795.3,7794.1,7794.3
201904261229,7794.4,7794.6,7793.9,7794.6
201904261230,7794.6,7795.9,7794.3,7795.4
201904261231,7795.5,7795.5,7795.4,7795.5
201904261232,7795.5,7796.4,7795.4,7795.8
201904261233,7795.8,7796.6,7795.7,7796.6
201904261234,7796.4,7796.4,7795.9,7796.1
201904261235,7796.2,7796.4,7795.9,7796.1
201904261236,7796,7796.6,7795.1,7796.4
201904261237,7796.4,7796.4,7795.7,7795.7
201904261238,7795.7,7796,7795.5,7795.5
201904261239,7795.5,7795.6,7794.9,7795
201904261240,7795,7795.4,7794.5,7795.2
201904261241,7795.2,7796,7795.1,7795.9
201904261242,7795.9,7796.3,7795.8,7795.8
201904261243,7795.8,7796.1,7795.4,7796
201904261244,7796,7796.1,7795.5,7795.9
201904261245,7795.9,7795.9,7795.8,7795.9
201904261246,7795.9,7795.9,7795.1,7795.7
201904261247,7795.7,7796.2,7795.4,7795.9
201904261248,7795.8,7796,7794.7,7794.7
201904261249,7794.8,7795.2,7794.1,7795.2
201904261250,7795.3,7796,7795.3,7795.4
201904261251,7795.4,7795.6,7795.3,7795.3
201904261252,7795.3,7795.3,7794.6,7794.6
201904261253,7794.6,7794.7,7793.9,7794.4
201904261254,7794.3,7794.5,7794.1,7794.2
201904261255,7794.2,7794.3,7793.2,7793.6
201904261256,7793.6,7794.1,7793.6,7794.1
201904261257,7794.1,7794.5,7794,7794.3
201904261258,7794.4,7795.3,7794.4,7795.3
201904261259,7795.3,7795.3,7794.2,7794.4
201904261300,7794.3,7794.5,7794,7794.1
201904261301,7794.1,7794.6,7794.1,7794.5
201904261302,7794.7,7795,7794.7,7794.9
201904261303,7794.8,7794.9,7794.4,7794.4
201904261304,7794.4,7795.1,7794.4,7794.7
201904261305,7794.7,7794.9,7794.6,7794.6
201904261306,7794.6,7794.8,7794.3,7794.5
201904261307,7794.5,7794.8,7794.1,7794.7
201904261308,7794.7,7795.3,7794.7,7794.9
201904261309,7794.9,7795.3,7794.9,7795.3
201904261310,7795.4,7795.5,7795.2,7795.4
201904261311,7795.4,7795.4,7795.2,7795.2
201904261312,7795.2,7795.4,7795.2,7795.2
201904261313,7795.2,7795.5,7794.7,7794.9
201904261314,7794.9,7796.1,7794.9,7795.8
201904261315,7795.8,7796.6,7795.7,7796.4
201904261316,7796.3,7796.3,7795.6,7795.9
201904261317,7795.9,7796.2,7795.7,7796.2
201904261318,7796.2,7796.3,7795.9,7795.9
201904261319,7795.9,7795.9,7794.6,7794.6
201904261320,7794.6,7794.6,7793.9,7794
201904261321,7794,7794.4,7793.7,7794
201904261322,7794,7794.3,7793.8,7794
201904261323,7794,7794.6,7794,7794.6
201904261324,7794.6,7794.8,7794.4,7794.6
201904261325,7794.6,7794.7,7794.6,7794.6
201904261326,7794.6,7794.8,7794.6,7794.7
201904261327,7794.5,7794.7,7794.2,7794.6
201904261328,7794.6,7794.7,7794.1,7794.4
201904261329,7794.4,7794.9,7794.4,7794.8
201904261330,7794.8,7794.8,7794.4,7794.5
201904261331,7794.6,7794.9,7794.5,7794.8
201904261332,7794.9,7795.1,7794.6,7795.1
201904261333,7795,7796.1,7795,7795.9
201904261334,7795.9,7796.5,7795.9,7796.5
201904261335,7796.5,7796.5,7796,7796.1
201904261336,7796.1,7796.4,7796.1,7796.3
201904261337,7796.3,7796.5,7795.9,7795.9
201904261338,7795.9,7796.1,7795.9,7796.1
201904261339,7796.1,7796.3,7796.1,7796.1
201904261340,7796.1,7796.4,7796.1,7796.3
201904261341,7796.2,7796.9,7796.1,7796.7
201904261342,7796.7,7796.7,7796.4,7796.4
201904261343,7796.4,7796.8,7796.4,7796.4
201904261344,7796.4,7796.7,7796.4,7796.5
201904261345,7796.5,7796.8,7796.4,7796.7
201904261346,7796.7,7796.7,7796.4,7796.7
201904261347,7796.7,7797,7796.6,7796.7
201904261348,7796.7,7796.9,7796.6,7796.9
201904261349,7796.9,7797,7796.7,7796.7
201904261350,7796.7,7797,7796.6,7796.6
201904261351,7796.6,7796.8,7796.4,7796.5
201904261352,7796.6,7796.7,7796.5,7796.6
201904261353,7796.6,7796.8,7796.6,7796.7
201904261354,7796.7,7796.7,7796.6,7796.7
201904261355,7796.7,7796.8,7796,7796.7
201904261356,7796.6,7797.5,7796.6,7796.9
201904261357,7796.9,7797.2,7796.7,7796.7
201904261358,7796.7,7796.9,7796.7,7796.8
201904261359,7796.8,7797.3,7796.7,7797.2
201904261400,7797.2,7798.3,7797.2,7797.9
201904261401,7797.9,7798,7796.4,7796.7
201904261402,7796.7,7797,7796.6,7796.7
201904261403,7796.7,7796.7,7796.1,7796.1
201904261404,7796.1,7796.2,7795.5,7795.9
201904261405,7795.9,7796.5,7795.8,7796.3
201904261406,7796.4,7796.5,7795.4,7795.6
201904261407,7795.6,7795.6,7794.9,7795.4
201904261408,7795.4,7796.3,7795.3,7796
201904261409,7796,7796.3,7795.3,7795.3
201904261410,7795.3,7795.5,7795,7795.4
201904261411,7795.4,7796.1,7795.1,7795.1
201904261412,7795.1,7795.4,7795.1,7795.1
201904261413,7795.1,7795.9,7795.1,7795.9
201904261414,7795.8,7796.5,7795.4,7795.7
201904261415,7795.7,7796.5,7795.7,7796.4
201904261416,7796.4,7796.9,7796.4,7796.7
201904261417,7796.8,7797.2,7796.4,7796.9
201904261418,7796.9,7797.2,7795.9,7796
201904261419,7796,7796,7794.4,7794.5
201904261420,7794.5,7798.4,7794.3,7797.9
201904261421,7797.9,7803.5,7797.9,7801.5
201904261422,7801.6,7802,7800.9,7801.3
201904261423,7801.3,7801.3,7800.7,7800.8
201904261424,7800.8,7802,7800.8,7801.8
201904261425,7801.8,7802.5,7801.4,7802.5
201904261426,7802.6,7804.1,7802.4,7804.1
201904261427,7804.5,7806.3,7804.4,7805.8
201904261428,7805.8,7806.3,7805.2,7805.2
201904261429,7805.2,7806.1,7805.2,7805.6
201904261430,7805.6,7806.4,7804.5,7805.1
201904261431,7805.1,7805.8,7805,7805.1
201904261432,7805.1,7805.2,7804.6,7804.7
201904261433,7804.7,7806.2,7804.7,7806.2
201904261434,7806.2,7806.2,7804.9,7805.4
201904261435,7805.3,7808.3,7805.3,7807.8
201904261436,7807.8,7807.8,7807.4,7807.4
201904261437,7807.4,7808,7807.3,7807.9
201904261438,7807.9,7807.9,7806.9,7807
201904261439,7807,7807.8,7807,7807.4
201904261440,7807.4,7808.3,7807.2,7807.7
201904261441,7807.7,7808.8,7807.6,7808.8
201904261442,7808.8,7808.8,7808.4,7808.8
201904261443,7808.7,7808.7,7808.2,7808.2
201904261444,7808.2,7808.2,7807.2,7807.2
201904261445,7807.1,7807.2,7805.7,7806.3
201904261446,7806.3,7806.4,7805.7,7805.9
201904261447,7805.9,7805.9,7804.9,7805.7
201904261448,7805.5,7806,7805.4,7805.7
201904261449,7805.7,7805.9,7805.3,7805.3
201904261450,7805.3,7806,7805.3,7805.6
201904261451,7805.7,7806,7805.6,7805.6
201904261452,7805.6,7805.6,7804.4,7804.8
201904261453,7804.8,7805,7804.4,7804.6
201904261454,7804.6,7804.9,7804.4,7804.7
201904261455,7804.7,7805.6,7804.4,7804.8
201904261456,7804.8,7804.8,7804.4,7804.7
201904261457,7804.7,7804.8,7803.3,7804
201904261458,7804.2,7804.5,7803.9,7804.1
201904261459,7804.1,7804.4,7803.7,7803.8
201904261500,7803.8,7806.4,7803.8,7805.3
201904261501,7805.3,7806.9,7805.2,7806.2
201904261502,7806.2,7806.6,7805.5,7806
201904261503,7806,7806.8,7805.8,7806.2
201904261504,7806.2,7807.5,7806.2,7806.8
201904261505,7806.8,7806.9,7806,7806
201904261506,7806,7807.1,7805.2,7807.1
201904261507,7807,7807,7805,7805.5
201904261508,7805.5,7805.7,7804.5,7804.7
201904261509,7804.6,7804.7,7804.2,7804.2
201904261510,7804.3,7804.8,7804.1,7804.7
201904261511,7804.7,7804.8,7804,7804.6
201904261512,7804.5,7804.6,7804.1,7804.4
201904261513,7804.4,7804.7,7804,7804.7
201904261514,7804.7,7805.3,7804.4,7805.2
201904261515,7805.2,7806.1,7805.1,7805.8
201904261516,7805.9,7806.3,7805.4,7806.3
201904261517,7806.3,7806.3,7806.1,7806.2
201904261518,7806.1,7806.1,7805.1,7805.1
201904261519,7805.1,7805.5,7804.7,7804.7
201904261520,7804.7,7805.1,7804.2,7804.5
201904261521,7804.5,7804.5,7802.9,7803.5
201904261522,7803.5,7804,7803.3,7803.7
201904261523,7803.7,7803.7,7802.9,7802.9
201904261524,7802.9,7803.5,7802.2,7802.2
201904261525,7802.2,7802.3,7801.1,7801.1
201904261526,7801.1,7801.1,7800,7800.6
201904261527,7800.6,7800.8,7800,7800.1
201904261528,7800.1,7800.1,7798.4,7798.8
201904261529,7798.8,7799.3,7797.9,7798.4
201904261530,7798.4,7800.5,7798.4,7800.3
201904261531,7800.4,7801,7800.4,7800.8
201904261532,7800.8,7800.8,7800.1,7800.2
201904261533,7800.2,7801.6,7800.1,7801.4
201904261534,7801.4,7801.8,7801.2,7801.2
201904261535,7801.2,7802,7801.2,7801.8
201904261536,7801.8,7802,7801.4,7801.9
201904261537,7801.9,7802,7801.5,7801.9
201904261538,7801.8,7802.3,7801.8,7801.9
201904261539,7801.9,7802.7,7801.6,7802.5
201904261540,7802.5,7802.7,7802.1,7802.7
201904261541,7802.4,7802.7,7801.6,7801.6
201904261542,7801.7,7802.9,7801.7,7802.4
201904261543,7802.4,7802.8,7802.2,7802.3
201904261544,7802.3,7802.4,7801.8,7802.4
201904261545,7802.4,7803.5,7802.3,7803.1
201904261546,7803.1,7803.2,7802.4,7802.5
201904261547,7802.5,7803.1,7802.5,7802.6
201904261548,7802.6,7802.9,7802.6,7802.8
201904261549,7802.8,7802.8,7802.3,7802.4
201904261550,7802.4,7803.2,7802.4,7803.1
201904261551,7803.1,7803.3,7801.6,7802.3
201904261552,7802.3,7802.8,7802.1,7802.7
201904261553,7802.8,7804,7802.6,7803.6
201904261554,7803.5,7804.1,7803.3,7803.6
201904261555,7803.5,7804.2,7803.2,7803.7
201904261556,7803.7,7804.1,7803.4,7803.9
201904261557,7803.8,7804.3,7803.8,7804.2
201904261558,7804.2,7804.3,7803.4,7803.6
201904261559,7803.6,7803.6,7802.9,7803
201904261600,7803,7804.6,7801.9,7802.4
201904261601,7802.4,7802.9,7801.2,7802.9
201904261602,7802.9,7803.4,7802.6,7802.8
201904261603,7802.8,7803.7,7801.9,7801.9
201904261604,7801.9,7802.4,7801.6,7802.3
201904261605,7802.3,7802.3,7801,7801
201904261606,7801,7801.3,7800.4,7800.8
201904261607,7800.9,7801.5,7800.6,7801.1
201904261608,7801.2,7801.9,7800.1,7800.3
201904261609,7800.3,7800.8,7798.9,7799.5
201904261610,7799.6,7799.7,7798.7,7799.5
201904261611,7799.5,7800.3,7798.9,7800.2
201904261612,7800,7801.3,7799.9,7801.2
201904261613,7801.4,7802.1,7801.4,7801.8
201904261614,7801.8,7802.3,7800.8,7802.3
201904261615,7802.3,7802.3,7799.6,7799.9
201904261616,7799.8,7799.8,7798.7,7798.9
201904261617,7798.6,7799.5,7798.5,7799.3
201904261618,7799.3,7799.6,7798.2,7798.4
201904261619,7798.4,7798.4,7796.6,7796.9
201904261620,7796.9,7797.9,7796.4,7797.2
201904261621,7797.2,7798.9,7796.7,7798
201904261622,7798,7798,7796.7,7797.2
201904261623,7797.2,7797.4,7795.4,7796.7
201904261624,7796.7,7797.9,7796.6,7797.9
201904261625,7797.9,7799.6,7797.6,7799.6
201904261626,7799.6,7799.6,7797.3,7798.6
201904261627,7798.6,7798.6,7796.1,7796.1
201904261628,7796.1,7797.8,7795.6,7796.4
201904261629,7796.4,7797.2,7796.3,7797
201904261630,7797,7799.7,7796.9,7798.7
201904261631,7798.5,7799,7797.7,7798.3
201904261632,7798.3,7799.1,7798,7798.9
201904261633,7798.9,7800.6,7798.9,7800.1
201904261634,7800.1,7800.1,7798.4,7799.3
201904261635,7799.4,7800.4,7799.4,7800.3
201904261636,7800.2,7801.9,7799.7,7800.2
201904261637,7800.2,7800.9,7799.9,7800.3
201904261638,7800.3,7800.9,7800.1,7800.5
201904261639,7800.5,7800.8,7800.1,7800.5
201904261640,7800.5,7801.3,7800.2,7800.5
201904261641,7800.6,7801.5,7799,7801.5
201904261642,7801.5,7801.5,7800.7,7800.7
201904261643,7800.7,7801.3,7800.7,7801.2
201904261644,7801.1,7803.3,7801.1,7802.4
201904261645,7802.4,7803.2,7802.4,7802.8
201904261646,7802.8,7802.9,7802.2,7802.6
201904261647,7802.6,7803.8,7802,7803.8
201904261648,7803.8,7804.8,7803.8,7804
201904261649,7804,7804.9,7804,7804.9
201904261650,7804.9,7804.9,7804.1,7804.4
201904261651,7804.5,7807.8,7804.4,7807.2
201904261652,7807.2,7808.6,7806.2,7806.3
201904261653,7806.3,7807.3,7806.1,7806.8
201904261654,7806.8,7807.3,7805.2,7806
201904261655,7806.2,7806.5,7805.2,7805.8
201904261656,7805.8,7806.9,7805.2,7806.7
201904261657,7806.7,7808.8,7806,7808.7
201904261658,7808.5,7810.4,7808.1,7809
201904261659,7809,7809,7807.9,7808.2
201904261700,7808.2,7810.3,7808.2,7809.8
201904261701,7809.8,7810.2,7807.7,7807.8
201904261702,7807.8,7807.8,7806.9,7807.4
201904261703,7807.4,7808.2,7806.6,7806.7
201904261704,7806.6,7806.6,7805.6,7805.8
201904261705,7805.8,7805.9,7804.7,7804.9
201904261706,7804.9,7805.1,7803.4,7803.8
201904261707,7803.9,7804.7,7801.9,7802.2
201904261708,7802.2,7803,7801.1,7802.4
201904261709,7802.4,7804.9,7801.3,7804.6
201904261710,7804.6,7805.1,7803.6,7803.6
201904261711,7803.6,7804.3,7803.6,7803.8
201904261712,7803.8,7804,7803.3,7803.9
201904261713,7803.9,7803.9,7801.9,7801.9
201904261714,7801.9,7802.9,7800.9,7802.3
201904261715,7802.3,7802.8,7800.1,7802.4
201904261716,7802.4,7804.3,7802.4,7803.3
201904261717,7803.3,7803.5,7802,7802
201904261718,7802,7804.8,7801.7,7803.9
201904261719,7803.9,7805.5,7803.6,7805.4
201904261720,7805.4,7805.6,7804.6,7804.9
201904261721,7804.8,7806.8,7804.6,7806.8
201904261722,7806.6,7807.4,7805.9,7806.1
201904261723,7806.1,7807,7805.2,7806.9
201904261724,7806.8,7807.1,7806.5,7806.7
201904261725,7806.7,7807.6,7806.2,7807.1
201904261726,7807.1,7808.3,7806.7,7807.2
201904261727,7807.1,7807.4,7806.1,7806.1
201904261728,7806.1,7807.5,7806,7806.8
201904261729,7806.9,7809.4,7806.6,7809.4
201904261730,7809.4,7809.4,7807.2,7808.2
201904261731,7808.1,7808.5,7806.8,7808
201904261732,7808,7808.5,7807,7807.7
201904261733,7807.7,7809.5,7807.7,7808.4
201904261734,7808.4,7808.9,7807.4,7807.4
201904261735,7807.4,7807.9,7807.2,7807.6
201904261736,7807.6,7807.8,7807,7807.1
201904261737,7807.3,7807.5,7806.7,7807.4
201904261738,7807.3,7807.5,7807.2,7807.3
201904261739,7807.3,7807.6,7805.4,7805.6
201904261740,7805.6,7806.2,7805.1,7805.1
201904261741,7805.1,7805.3,7804.3,7804.7
201904261742,7804.7,7805.7,7804.4,7804.7
201904261743,7804.7,7805,7804.5,7804.7
201904261744,7804.9,7804.9,7804.1,7804.4
201904261745,7804.4,7804.9,7804.3,7804.8
201904261746,7804.8,7806,7804.8,7805.9
201904261747,7805.9,7806.5,7805.3,7805.6
201904261748,7805.6,7806.2,7805.6,7806
201904261749,7805.9,7806.3,7805.9,7806.1
201904261750,7806.1,7806.4,7805.9,7805.9
201904261751,7805.9,7806.1,7805.8,7806
201904261752,7806,7807,7805.6,7806
201904261753,7806,7806,7802.6,7803.5
201904261754,7803.5,7803.9,7803,7803
201904261755,7803.2,7804.4,7802.8,7803.9
201904261756,7803.9,7804.5,7803.9,7804.3
201904261757,7804.3,7804.3,7803.9,7803.9
201904261758,7803.9,7804.6,7803.4,7803.6
201904261759,7803.5,7803.5,7802.9,7803.3
201904261800,7803.3,7803.7,7803.2,7803.4
201904261801,7803.4,7804.1,7803.4,7804
201904261802,7804,7804.6,7803.7,7803.9
201904261803,7803.8,7804.4,7803.8,7803.9
201904261804,7803.9,7804.1,7802.5,7802.7
201904261805,7802.7,7802.8,7800.8,7801.5
201904261806,7801.6,7802,7801.4,7801.4
201904261807,7801.4,7802.2,7800.4,7800.7
201904261808,7800.8,7802.6,7799.5,7801.7
201904261809,7801.7,7802.1,7800.8,7800.8
201904261810,7800.8,7801.3,7800.1,7800.8
201904261811,7800.8,7800.9,7798.2,7798.3
201904261812,7798.3,7801.3,7798.3,7801.3
201904261813,7801.3,7801.7,7799.4,7799.4
201904261814,7799.4,7799.9,7798.6,7799.9
201904261815,7799.9,7801.2,7798.6,7800.8
201904261816,7800.8,7801.3,7800.1,7801.3
201904261817,7801.3,7801.8,7800.8,7800.9
201904261818,7800.9,7801.4,7800.3,7801.2
201904261819,7801.2,7802.3,7801.2,7802
201904261820,7802,7802.7,7801.2,7801.2
201904261821,7801.2,7801.3,7799.9,7801.1
201904261822,7801.1,7802.8,7801.1,7802
201904261823,7802,7802,7800.4,7800.6
201904261824,7800.6,7800.9,7799.9,7800.6
201904261825,7800.6,7800.6,7799.9,7799.9
201904261826,7799.9,7800.4,7799.8,7800.2
201904261827,7800.1,7800.6,7799.9,7800.4
201904261828,7800.4,7800.5,7800,7800.2
201904261829,7800.2,7801.5,7800.2,7800.8
201904261830,7800.8,7800.8,7800.5,7800.6
201904261831,7800.6,7802.1,7800.6,7801.7
201904261832,7801.5,7802.8,7800.9,7802.5
201904261833,7802.5,7803,7802.2,7802.8
201904261834,7802.8,7803.4,7802.6,7803.4
201904261835,7803.4,7803.4,7802.9,7803.1
201904261836,7803.1,7804.3,7803,7804.3
201904261837,7804.4,7804.4,7803.7,7803.9
201904261838,7803.9,7804.8,7803.9,7804.8
201904261839,7804.9,7805.1,7804.3,7805.1
201904261840,7805,7805.6,7804.9,7805.2
201904261841,7805.2,7806.5,7804.9,7806.4
201904261842,7806.4,7806.5,7805.8,7806.2
201904261843,7806.2,7806.9,7806.1,7806.6
201904261844,7806.6,7806.8,7805.9,7806.3
201904261845,7806.1,7807,7806,7806.8
201904261846,7806.8,7807.1,7806.5,7806.9
201904261847,7806.9,7806.9,7806.4,7806.9
201904261848,7806.9,7807.1,7806.7,7806.9
201904261849,7806.9,7807.3,7806.1,7807.1
201904261850,7807.1,7807.6,7806.9,7807.4
201904261851,7807.4,7807.6,7807.3,7807.4
201904261852,7807.4,7807.4,7806.4,7806.9
201904261853,7806.8,7808.2,7806.4,7807.3
201904261854,7807.3,7808.2,7806.9,7806.9
201904261855,7806.9,7807,7806.2,7806.2
201904261856,7806.2,7806.5,7804.7,7805.9
201904261857,7805.9,7806.2,7805.7,7805.9
201904261858,7805.8,7806.6,7805.8,7806.3
201904261859,7806.4,7807.5,7806.1,7806.8
201904261900,7806.7,7808.1,7806.7,7807.5
201904261901,7807.5,7808,7807.4,7807.5
201904261902,7807.5,7807.7,7807.4,7807.4
201904261903,7807.3,7807.4,7806.1,7806.1
201904261904,7806.1,7806.5,7805.9,7806.2
201904261905,7806.2,7806.6,7806.1,7806.4
201904261906,7806.4,7806.5,7805.9,7806.3
201904261907,7806.2,7806.6,7805.9,7806.3
201904261908,7806.3,7807,7806.1,7807
201904261909,7807,7807.6,7806.9,7807
201904261910,7807,7807.1,7806.6,7806.8
201904261911,7806.8,7808,7806.6,7807.8
201904261912,7807.9,7807.9,7807.6,7807.7
201904261913,7807.7,7808.4,7807.7,7807.9
201904261914,7807.8,7807.9,7807.4,7807.9
201904261915,7807.8,7808.6,7807.7,7808.4
201904261916,7808.4,7809.8,7808.4,7809.8
201904261917,7809.8,7810,7808.9,7808.9
201904261918,7808.9,7809.1,7808.9,7809.1
201904261919,7809.1,7809.3,7808.9,7809.3
201904261920,7809.3,7809.4,7808.9,7809
201904261921,7809,7810.1,7808.9,7810.1
201904261922,7810.1,7810.1,7808.1,7808.6
201904261923,7808.6,7809.4,7808.4,7809.4
201904261924,7809.4,7810.1,7809.3,7809.9
201904261925,7809.9,7810,7809.3,7809.6
201904261926,7809.6,7809.7,7809,7809.6
201904261927,7809.7,7812.1,7809.7,7811.9
201904261928,7812.1,7812.1,7811.6,7811.7
201904261929,7811.7,7811.7,7811.2,7811.4
201904261930,7811.4,7811.6,7811.2,7811.2
201904261931,7811.2,7811.9,7811.2,7811.9
201904261932,7811.9,7813.7,7811.8,7812.6
201904261933,7812.6,7812.7,7812.3,7812.7
201904261934,7812.5,7812.6,7810.7,7811.7
201904261935,7811.7,7811.8,7810.9,7811.7
201904261936,7811.7,7812.1,7811.4,7811.9
201904261937,7812,7812,7811.5,7811.9
201904261938,7811.9,7813.1,7811.8,7812.2
201904261939,7812.2,7812.2,7810.7,7810.7
201904261940,7810.9,7810.9,7810.4,7810.7
201904261941,7810.7,7810.8,7809.9,7810.4
201904261942,7810.4,7810.4,7808.7,7808.8
201904261943,7808.8,7809.3,7808.4,7809.2
201904261944,7809.2,7809.3,7808.7,7808.7
201904261945,7808.6,7808.6,7807,7808.2
201904261946,7808.2,7809.5,7808.2,7809.1
201904261947,7809.1,7809.2,7808.9,7809.2
201904261948,7809.2,7809.2,7808.8,7809.1
201904261949,7809.1,7809.4,7809.1,7809.2
201904261950,7809.1,7809.2,7808.8,7809.1
201904261951,7809.2,7809.7,7809,7809.1
201904261952,7809,7809.9,7808.9,7809.9
201904261953,7809.9,7810,7809.4,7809.9
201904261954,7809.9,7810.3,7809.9,7810
201904261955,7810,7810.5,7809.7,7810.3
201904261956,7810.3,7810.6,7809.8,7809.9
201904261957,7809.9,7810,7808.6,7808.6
201904261958,7808.5,7809,7808.2,7809
201904261959,7809,7809.4,7808.9,7809.1
201904262000,7809.1,7810.6,7809.1,7810.2
201904262001,7810.2,7811.1,7809.9,7811
201904262002,7811,7811,7810.7,7810.9
201904262003,7810.9,7812.8,7810.9,7812.8
201904262004,7812.8,7813.4,7811.8,7813.2
201904262005,7813.1,7813.1,7810.9,7811.1
201904262006,7811.1,7811.3,7809,7809.1
201904262007,7809.1,7809.1,7807.2,7807.4
201904262008,7807.5,7808.1,7807.2,7807.2
201904262009,7807.2,7807.9,7807,7807.4
201904262010,7807.4,7807.4,7805.9,7806.2
201904262011,7806.1,7806.4,7805.7,7805.9
201904262012,7805.9,7806,7803.8,7803.9
201904262013,7803.8,7804.6,7803.3,7803.9
201904262014,7804,7804.5,7803.6,7804
201904262015,7804,7804.8,7803.6,7804.7
201904262016,7804.7,7805.5,7804.6,7805.5
201904262017,7805.5,7805.5,7805.1,7805.2
201904262018,7805.1,7805.1,7804.3,7804.6
201904262019,7804.6,7805.9,7804.6,7805.7
201904262020,7805.7,7805.7,7804.3,7804.5
201904262021,7804.5,7805,7804.4,7804.7
201904262022,7804.7,7804.7,7803.9,7804.1
201904262023,7804.1,7804.1,7802.9,7802.9
201904262024,7802.9,7805.3,7802.9,7805.3
201904262025,7805.4,7805.7,7805.3,7805.5
201904262026,7805.5,7806.5,7805.4,7806.5
201904262027,7806.5,7807.3,7806.5,7806.8
201904262028,7806.8,7807,7806.5,7807
201904262029,7807.2,7807.6,7806.1,7806.1
201904262030,7806.1,7807.1,7805.9,7806.5
201904262031,7806.5,7806.5,7806.1,7806.1
201904262032,7806.2,7806.2,7804.1,7804.4
201904262033,7804.4,7804.4,7803.4,7803.8
201904262034,7803.8,7804.6,7803.5,7804.6
201904262035,7804.6,7804.6,7804,7804.4
201904262036,7804.4,7804.4,7803.4,7803.7
201904262037,7803.7,7803.7,7803,7803.6
201904262038,7803.6,7804.8,7803.5,7804.6
201904262039,7804.6,7804.6,7803.9,7804.5
201904262040,7804.6,7806.1,7804.3,7805.6
201904262041,7805.6,7806,7805.2,7805.9
201904262042,7805.9,7806,7805.4,7805.4
201904262043,7805.4,7805.8,7805.2,7805.2
201904262044,7805.3,7805.3,7802.9,7802.9
201904262045,7802.9,7802.9,7801.9,7802.5
201904262046,7802.5,7802.8,7802.1,7802.2
201904262047,7802.2,7803.1,7802.2,7803.1
201904262048,7803.1,7803.5,7802.9,7803.4
201904262049,7803.4,7803.4,7803.2,7803.2
201904262050,7803.2,7803.3,7802.7,7802.9
201904262051,7802.9,7803,7802.2,7802.2
201904262052,7802.1,7802.3,7801.4,7801.4
201904262053,7801.4,7801.5,7800.2,7800.3
201904262054,7800.3,7801,7798.4,7799.1
201904262055,7799.1,7799.8,7798.3,7799.1
201904262056,7799.2,7799.3,7798.9,7799
201904262057,7799,7799,7797.4,7797.8
201904262058,7797.8,7799.4,7797.8,7799
201904262059,7799,7800.1,7798.9,7799.6
201904262100,7799.6,7799.8,7796.2,7798.8
201904262101,7798.8,7798.8,7796.1,7797.7
201904262102,7797.7,7797.7,7795.6,7796.6
201904262103,7796.6,7797.5,7795.7,7797.1
201904262104,7797.1,7798,7795.9,7797.8
201904262105,7797.8,7798.3,7797.6,7797.8
201904262106,7798,7799.1,7797.6,7798.4
201904262107,7798.4,7799.1,7798.1,7798.9
201904262108,7798.9,7800.6,7798.8,7799.8
201904262109,7799.8,7801,7799.8,7801
201904262110,7801.1,7804.5,7801,7803.8
201904262111,7803.8,7804.1,7802.9,7804.1
201904262112,7804.1,7805.9,7803.6,7805.9
201904262113,7805.9,7806.1,7805.2,7805.2
201904262114,7805.2,7805.4,7804.5,7805.4
201904262115,7805.4,7806.6,7805.4,7805.5
201904262116,7805.3,7806.2,7804.9,7805.1
201904262117,7805.1,7805.1,7803.4,7803.9
201904262118,7803.9,7806.7,7803.7,7806.5
201904262119,7806.4,7807.3,7806.2,7806.2
201904262120,7806.2,7807.1,7805.7,7806.1
201904262121,7806.1,7807.4,7805.9,7807.3
201904262122,7807.4,7807.6,7806.4,7807.5
201904262123,7807.5,7807.6,7806.3,7806.4
201904262124,7806.4,7806.6,7806.1,7806.5
201904262125,7806.5,7814.4,7806.5,7813.6
201904262126,7813.6,7816.3,7813,7815.6
201904262127,7815.6,7816.8,7814.9,7816.4
201904262128,7816.4,7816.4,7813.9,7815.2
201904262129,7815.2,7815.2,7812.4,7813.9
201904262130,7813.9,7831.4,7813.9,7830.4
201904262131,7830.5,7833.7,7823,7823
201904262132,7823,7829,7822,7826.9
201904262133,7826.9,7830.1,7825.8,7829.4
201904262134,7829.3,7832,7828.2,7829.1
201904262135,7829.1,7830.3,7827.1,7828.9
201904262136,7828.9,7830.4,7827.4,7830.4
201904262137,7830.4,7831,7827.8,7829.1
201904262138,7829.2,7830.3,7828.4,7828.5
201904262139,7828.5,7831.3,7826.9,7826.9
201904262140,7826.8,7828.3,7824.9,7826.6
201904262141,7826.6,7827,7823.7,7825.8
201904262142,7825.8,7826,7822.7,7823.8
201904262143,7823.8,7826.2,7823.4,7826
201904262144,7826,7826,7822.9,7822.9
201904262145,7822.9,7825.1,7821.1,7824.1
201904262146,7824.1,7824.6,7822.9,7823.6
201904262147,7823.6,7825.2,7822.2,7825
201904262148,7825.1,7825.2,7823.2,7823.3
201904262149,7823.3,7825.5,7823.3,7825
201904262150,7825,7829.7,7824.9,7829.5
201904262151,7829.3,7831.1,7829.1,7830.2
201904262152,7830.2,7831.1,7829.8,7830.4
201904262153,7830.4,7830.7,7829.7,7830.6
201904262154,7830.6,7830.6,7828,7828.4
201904262155,7828.4,7829.5,7828.2,7829.5
201904262156,7829.5,7829.5,7828.4,7828.6
201904262157,7828.7,7828.9,7827.2,7827.5
201904262158,7827.5,7829.4,7827.5,7828.6
201904262159,7828.6,7829.6,7827.9,7828.7
201904262200,7828.9,7829.4,7828.2,7828.4
201904262201,7828.4,7829.1,7828.1,7828.6
201904262202,7828.6,7829.4,7827.9,7828.9
201904262203,7828.9,7829.9,7828.9,7829.9
201904262204,7829.8,7832.4,7829.8,7830.6
201904262205,7831.3,7833,7830.2,7832.7
201904262206,7832.7,7835,7832,7835
201904262207,7835,7837.9,7834.4,7837.4
201904262208,7837.4,7840.1,7837.2,7838.6
201904262209,7838.7,7839.2,7837.2,7838.7
201904262210,7838.7,7838.8,7836.5,7836.9
201904262211,7836.7,7837.4,7836.4,7836.9
201904262212,7836.9,7837.4,7835,7835
201904262213,7835,7835,7833,7833.4
201904262214,7833.2,7833.5,7832.9,7833
201904262215,7833,7833,7831.9,7832.3
201904262216,7832.3,7833.3,7831.9,7832.3
201904262217,7832.3,7832.6,7830.2,7830.6
201904262218,7830.6,7831.5,7830,7831.2
201904262219,7831.4,7833.6,7831.4,7832.2
201904262220,7832.2,7832.9,7831.4,7831.4
201904262221,7831.3,7831.8,7829.2,7829.2
201904262222,7829.2,7830.5,7828.2,7828.3
201904262223,7828.3,7828.8,7824.9,7826.1
201904262224,7826.5,7827.5,7825.9,7826.1
201904262225,7826.1,7826.5,7824.8,7825.4
201904262226,7825.4,7826.6,7825.2,7825.8
201904262227,7825.8,7825.8,7822.2,7822.4
201904262228,7822.4,7822.5,7821.2,7822.2
201904262229,7822.2,7823.6,7821,7823.5
201904262230,7822.8,7823.5,7810.9,7816.3
201904262231,7816.3,7820.7,7806.4,7807
201904262232,7807,7813.5,7805.4,7805.6
201904262233,7805.1,7807.5,7800.8,7807
201904262234,7807,7807.2,7799.8,7804
201904262235,7804.4,7809.3,7804,7808.9
201904262236,7809,7810.3,7800.2,7804
201904262237,7804,7804.6,7789.4,7789.4
201904262238,7789.3,7790.5,7783.9,7785.8
201904262239,7785.6,7785.8,7780.3,7784.9
201904262240,7784.9,7786.7,7782.9,7785.1
201904262241,7784.9,7785.3,7780.1,7782.8
201904262242,7783.5,7789.5,7782.1,7783.5
201904262243,7783.5,7783.5,7773.6,7778.2
201904262244,7778.2,7783.9,7778.2,7783.7
201904262245,7784.3,7785.7,7774.3,7778.8
201904262246,7778.8,7783.5,7777.8,7778.4
201904262247,7778.4,7780.7,7772.9,7775.2
201904262248,7775,7779,7773.9,7778.6
201904262249,7778.6,7787.2,7778.3,7787.2
201904262250,7787.2,7791.8,7784.2,7786.2
201904262251,7785.8,7790.4,7785.5,7785.8
201904262252,7785.7,7785.8,7780.8,7782.4
201904262253,7782.4,7782.8,7777.3,7779.6
201904262254,7779.2,7779.6,7773,7773
201904262255,7773,7773,7766.7,7771.1
201904262256,7770.9,7771,7767.3,7768.3
201904262257,7768.4,7769.5,7762.2,7763.4
201904262258,7763.4,7770.4,7762.2,7770.3
201904262259,7770.4,7772.9,7770.4,7770.5
201904262300,7770.5,7772.6,7765.4,7772.5
201904262301,7772.5,7773.9,7757.9,7761.4
201904262302,7761.4,7765.4,7755.5,7760.6
201904262303,7761.2,7771.8,7761.2,7770.8
201904262304,7770.8,7775.9,7769.5,7774.6
201904262305,7774.6,7780.5,7774.1,7779.5
201904262306,7779.5,7779.8,7773.4,7775
201904262307,7775,7780.4,7775,7779.6
201904262308,7779.6,7782.8,7778.4,7779.5
201904262309,7779.7,7783,7779.2,7780.5
201904262310,7780.5,7784.2,7780.2,7782.2
201904262311,7781.9,7786.2,7781.9,7782
201904262312,7782,7783.5,7779.9,7782.4
201904262313,7782.4,7783.4,7780.9,7781.4
201904262314,7781.4,7783.4,7778.7,7782.1
201904262315,7782.1,7785.1,7781.6,7784.5
201904262316,7784.5,7789.7,7783.2,7786.9
201904262317,7786.9,7790.7,7785.2,7790
201904262318,7790.3,7792.9,7787,7788.8
201904262319,7788.7,7789.4,7785.4,7785.6
201904262320,7785.6,7789.4,7785.6,7788.8
201904262321,7788.8,7795.2,7788.7,7794.4
201904262322,7794.4,7796.4,7791.1,7794.5
201904262323,7794.5,7795.8,7793.4,7793.4
201904262324,7793.4,7795.1,7792.2,7794.6
201904262325,7794.4,7795.1,7792.7,7794.7
201904262326,7794.7,7797,7792.5,7796
201904262327,7796,7796.1,7792.5,7793.9
201904262328,7794.1,7794.1,7789.4,7793.4
201904262329,7793.3,7794.6,7791.9,7794.3
201904262330,7794.2,7794.2,7791.9,7793.2
201904262331,7793.2,7795.5,7793.2,7794.8
201904262332,7794.8,7798.9,7794.8,7796.4
201904262333,7796.4,7796.8,7792.9,7794.1
201904262334,7794.2,7798.2,7793.4,7797.6
201904262335,7797.6,7797.7,7794.7,7795.8
201904262336,7795.9,7796.9,7794.2,7795.7
201904262337,7795.9,7796.6,7794.6,7796.5
201904262338,7796.5,7796.6,7792.6,7793.2
201904262339,7793.2,7797.1,7793.2,7794.7
201904262340,7794.5,7795.5,7787.2,7787.9
201904262341,7787.9,7790,7786.2,7787
201904262342,7787,7789.9,7787,7788.7
201904262343,7788.2,7793.4,7787.7,7791.6
201904262344,7791.6,7794,7791.4,7793
201904262345,7793,7795.3,7792,7794.9
201904262346,7794.9,7794.9,7791.9,7793.5
201904262347,7793.5,7795.4,7791.4,7795.1
201904262348,7795.1,7795.3,7792.1,7792.4
201904262349,7792.4,7793.9,7792,7793.7
201904262350,7793.7,7795.6,7790.4,7792.3
201904262351,7792.3,7793.2,7790.7,7793
201904262352,7792.7,7797,7792.7,7796.3
201904262353,7796.4,7802.6,7796.2,7800.9
201904262354,7800.9,7802.5,7799.4,7799.9
201904262355,7800.1,7801.2,7798.5,7798.8
201904262356,7798.8,7798.8,7795.9,7797.3
201904262357,7797.3,7798.8,7795.9,7795.9
201904262358,7795.6,7800.1,7795.5,7799.2
201904262359,7799.2,7800,7797.2,7798.2
201904270000,7798.2,7799.4,7796.2,7796.9
201904270001,7796.9,7800.1,7795.9,7800
201904270002,7800,7801.1,7797.4,7798.5
201904270003,7798.5,7799.3,7796.9,7796.9
201904270004,7796.9,7797.1,7791.9,7794.2
201904270005,7794.2,7795,7791.9,7794
201904270006,7794,7797,7792.7,7796.8
201904270007,7797,7800.9,7796.2,7800.9
201904270008,7800.9,7805.2,7800.9,7803.4
201904270009,7803.4,7804.9,7802.2,7804
201904270010,7804,7809.2,7804,7808.5
201904270011,7808,7808.5,7805.3,7806.2
201904270012,7806.2,7810,7806.2,7809.1
201904270013,7809.1,7810.1,7808.6,7809.9
201904270014,7809.9,7811.3,7808.9,7809.3
201904270015,7809.3,7812.3,7809.3,7811.5
201904270016,7811.4,7811.4,7807.2,7807.6
201904270017,7807.6,7809.3,7806.8,7808.1
201904270018,7808.1,7808.4,7806.7,7807
201904270019,7807,7807.9,7806.6,7807.7
201904270020,7807.7,7808.1,7806.4,7808
201904270021,7808,7810.1,7806.7,7808.1
201904270022,7808.1,7811.2,7808.1,7809
201904270023,7809,7810.3,7807,7808.7
201904270024,7808.7,7809.3,7806.4,7806.4
201904270025,7806.4,7810.5,7806.3,7810.4
201904270026,7810.6,7813.1,7810.2,7811.1
201904270027,7811.1,7811.8,7810.5,7810.7
201904270028,7810.7,7811.6,7809.7,7811.2
201904270029,7811.3,7814.3,7811.3,7812.8
201904270030,7812.8,7814.3,7811.5,7813.6
201904270031,7813.6,7815.1,7813,7815.1
201904270032,7815.1,7815.7,7814,7814.1
201904270033,7814.1,7814.8,7812.2,7813
201904270034,7813,7813.1,7811.2,7812.7
201904270035,7812.7,7813.5,7810.8,7811.2
201904270036,7811.2,7813.1,7811,7813
201904270037,7813,7813,7811.2,7812.6
201904270038,7812.6,7813.6,7811.2,7811.7
201904270039,7811.7,7812.6,7810.9,7810.9
201904270040,7810.9,7813.8,7810.4,7813.5
201904270041,7813.3,7814.9,7813.1,7813.5
201904270042,7813.5,7814,7812.9,7813.9
201904270043,7813.8,7814.5,7813,7814.4
201904270044,7814.4,7816.4,7814.4,7815.9
201904270045,7815.9,7816.1,7813.2,7814.3
201904270046,7814.3,7817.7,7814.3,7817
201904270047,7817,7817,7815.5,7816.9
201904270048,7816.9,7816.9,7815.4,7815.4
201904270049,7815.4,7815.7,7814.4,7815.7
201904270050,7815.7,7816.1,7814.6,7815.2
201904270051,7814.8,7814.9,7812.5,7812.7
201904270052,7812.7,7814.7,7812.7,7813.9
201904270053,7813.8,7815.6,7813.6,7815.2
201904270054,7815.2,7815.6,7812.9,7812.9
201904270055,7812.9,7813.3,7811.1,7813
201904270056,7813,7814.2,7812.5,7813.4
201904270057,7813.4,7813.5,7807.1,7807.1
201904270058,7807.2,7807.2,7803.9,7805
201904270059,7805,7807.5,7804.6,7806.7
201904270100,7806.7,7806.7,7804.4,7805.7
201904270101,7805.6,7805.9,7804.9,7805.4
201904270102,7805.4,7806.5,7804.6,7806.4
201904270103,7806.5,7806.9,7805.2,7806.1
201904270104,7806.1,7807.1,7805.6,7806.6
201904270105,7806.6,7809.4,7806.5,7808.8
201904270106,7808.8,7810.7,7808.6,7810.7
201904270107,7810.7,7812,7810.3,7811.7
201904270108,7811.7,7813,7811.4,7812.6
201904270109,7812.6,7812.9,7810.9,7811.5
201904270110,7811.5,7812.9,7811.2,7812.9
201904270111,7812.9,7812.9,7811.4,7811.4
201904270112,7811.4,7811.9,7809.7,7811.1
201904270113,7811.1,7813.9,7810.6,7813.8
201904270114,7813.8,7814.3,7812.2,7813.5
201904270115,7813.4,7813.6,7811.7,7812.3
201904270116,7812.4,7813,7811.9,7812
201904270117,7812,7812.6,7808.9,7808.9
201904270118,7808.6,7810.3,7808.2,7810
201904270119,7810,7811,7809.4,7810.3
201904270120,7810.3,7810.6,7808.2,7808.2
201904270121,7808.2,7809.7,7807.8,7808
201904270122,7807.9,7808.4,7806.7,7808.4
201904270123,7808.4,7810,7807.9,7809.4
201904270124,7809.4,7811.8,7809.4,7811.4
201904270125,7811.4,7811.9,7810,7811.9
201904270126,7811.9,7813.1,7811.6,7812.8
201904270127,7812.8,7813.3,7812.2,7813.1
201904270128,7813.1,7814.5,7812.5,7812.5
201904270129,7812.5,7812.9,7811.2,7811.8
201904270130,7811.7,7814,7811.7,7813.4
201904270131,7813.4,7814.6,7813.1,7814
201904270132,7814,7815.6,7813.6,7815.2
201904270133,7815.2,7817.9,7815.1,7817.3
201904270134,7817.3,7817.8,7816.4,7816.7
201904270135,7816.6,7817,7815.4,7815.4
201904270136,7815,7815.9,7814.5,7815.7
201904270137,7815.7,7816.6,7815.5,7815.5
201904270138,7815.6,7815.8,7814.2,7814.7
201904270139,7814.8,7814.8,7810.3,7810.3
201904270140,7810.3,7811.9,7810.3,7811.8
201904270141,7811.8,7813,7811.2,7811.4
201904270142,7811.4,7812.3,7811.4,7812.2
201904270143,7812.2,7813.4,7812.2,7812.9
201904270144,7812.8,7814.2,7812.5,7813
201904270145,7813,7813,7811.9,7812.4
201904270146,7812.4,7812.5,7811.1,7811.2
201904270147,7811.2,7812.1,7809.8,7809.9
201904270148,7809.9,7811.5,7809.9,7811.4
201904270149,7811.4,7813.6,7811.4,7813.6
201904270150,7813.6,7813.9,7812.7,7813.5
201904270151,7813.5,7813.9,7811.5,7811.5
201904270152,7811.5,7812.7,7811.2,7812.6
201904270153,7812.6,7813.3,7812.6,7812.9
201904270154,7812.9,7813.5,7812.6,7813.3
201904270155,7813.2,7813.2,7812,7812.1
201904270156,7812.1,7813,7810.3,7810.3
201904270157,7810.3,7810.9,7809.4,7809.6
201904270158,7809.6,7810.2,7808.5,7809.6
201904270159,7809.6,7810.3,7809.4,7809.8
201904270200,7809.8,7809.8,7805.9,7807.4
201904270201,7807.5,7808.5,7806.6,7807.2
201904270202,7807.2,7807.2,7804.1,7805.4
201904270203,7805.4,7805.8,7804.7,7805
201904270204,7804.9,7804.9,7801.6,7802.5
201904270205,7802.5,7803.7,7802.4,7803.2
201904270206,7803.2,7803.5,7798.5,7798.9
201904270207,7798.9,7799.1,7797.5,7798.8
201904270208,7798.8,7800.1,7797.6,7799.6
201904270209,7799.6,7799.6,7797.6,7799.1
201904270210,7799.1,7799.6,7798.4,7798.9
201904270211,7798.9,7800.7,7797.7,7798.8
201904270212,7798.8,7799.1,7796.1,7799
201904270213,7799,7799.8,7798.5,7799.8
201904270214,7799.9,7802.2,7799.7,7802.1
201904270215,7802.1,7802.5,7800.8,7802.3
201904270216,7802.3,7802.4,7801.2,7801.3
201904270217,7801.3,7802.4,7801,7801.4
201904270218,7801.4,7802.8,7801.2,7802.1
201904270219,7802,7804.6,7802,7804.4
201904270220,7804.4,7804.5,7803.2,7803.9
201904270221,7803.9,7804.1,7802.5,7803.3
201904270222,7803.1,7803.3,7801.9,7802.9
201904270223,7802.9,7804.6,7802.9,7804.6
201904270224,7804.6,7805.3,7802.9,7804.5
201904270225,7804.5,7805.2,7804.1,7804.5
201904270226,7804.4,7806,7804.2,7805.8
201904270227,7805.8,7806.4,7805.4,7805.9
201904270228,7805.9,7807.3,7805.9,7807.2
201904270229,7807.3,7807.9,7806.9,7807.5
201904270230,7807.4,7808.9,7807.3,7808.9
201904270231,7808.8,7809.1,7807.9,7808.4
201904270232,7808.4,7808.4,7807.4,7807.5
201904270233,7807.4,7807.8,7806.9,7807
201904270234,7807,7807.7,7806.8,7806.8
201904270235,7806.6,7808.9,7806.5,7808.7
201904270236,7808.7,7809.7,7806.2,7806.4
201904270237,7806.4,7806.7,7804.2,7804.8
201904270238,7804.9,7806.6,7804.2,7806.6
201904270239,7806.6,7807,7806.2,7806.9
201904270240,7806.8,7807.1,7803.9,7804.3
201904270241,7804.3,7804.3,7802.7,7803
201904270242,7803,7803.5,7802.6,7802.8
201904270243,7802.8,7805.4,7802.5,7805
201904270244,7805,7806,7804.4,7805.8
201904270245,7805.8,7808.2,7805.8,7808.1
201904270246,7808.1,7809.6,7807.6,7809.3
201904270247,7809.3,7809.3,7807.7,7807.9
201904270248,7807.9,7809.1,7807.8,7808.9
201904270249,7808.9,7809.7,7808.7,7809.5
201904270250,7809.6,7810.2,7808.6,7809.7
201904270251,7809.7,7809.8,7808.2,7808.4
201904270252,7808.4,7808.5,7806.7,7806.7
201904270253,7806.7,7808,7806.2,7808
201904270254,7808,7809.3,7807.9,7808.7
201904270255,7808.7,7809.7,7808.6,7809.1
201904270256,7809.1,7809.9,7809.1,7809.4
201904270257,7809.4,7810.1,7808.7,7809.6
201904270258,7809.4,7809.5,7807.2,7807.5
201904270259,7807.5,7807.8,7806.5,7807.5
201904270300,7807.5,7809.1,7805.2,7805.5
201904270301,7805.5,7806,7804.5,7804.6
201904270302,7804.5,7804.9,7800.9,7801.4
201904270303,7801.4,7801.6,7799.7,7800.7
201904270304,7800.7,7805.1,7800.7,7805.1
201904270305,7805.2,7806.6,7804.5,7806.4
201904270306,7806.6,7807.5,7806.1,7806.9
201904270307,7806.9,7807.7,7806.6,7807.2
201904270308,7807.2,7808.3,7807.2,7807.7
201904270309,7807.9,7810.9,7806.9,7810
201904270310,7810,7810.3,7808.4,7808.7
201904270311,7808.7,7808.8,7807.2,7808.2
201904270312,7808.4,7808.7,7807.9,7808.3
201904270313,7808.3,7808.3,7807.2,7808.1
201904270314,7808,7809.6,7807.7,7809
201904270315,7809,7810.4,7808.7,7809.6
201904270316,7809.6,7812.5,7809.5,7812
201904270317,7812,7813.1,7811.9,7811.9
201904270318,7812.2,7812.6,7811.4,7811.9
201904270319,7811.9,7814.2,7811.3,7814.2
201904270320,7814.2,7817,7813.5,7816.7
201904270321,7816.7,7816.9,7815.7,7816.1
201904270322,7816.1,7819.5,7816.1,7819.2
201904270323,7819.2,7819.6,7818.2,7818.9
201904270324,7818.9,7821.6,7818.9,7819.4
201904270325,7819.4,7819.5,7817.7,7818.7
201904270326,7818.8,7819.9,7818.2,7819.6
201904270327,7819.6,7820,7818.3,7818.4
201904270328,7818.4,7818.8,7818,7818.1
201904270329,7818.1,7819.4,7817.2,7818.9
201904270330,7818.9,7819.6,7818.2,7818.7
201904270331,7818.7,7820.2,7818.7,7819.4
201904270332,7819.4,7819.7,7818.2,7818.4
201904270333,7818.3,7818.6,7816.8,7817.1
201904270334,7817.1,7818.1,7815.9,7818
201904270335,7818,7819.3,7817.4,7819.2
201904270336,7819.2,7819.2,7818.6,7818.7
201904270337,7818.6,7819.1,7817.3,7819.1
201904270338,7819.1,7819.6,7818.8,7819.3
201904270339,7819.3,7819.5,7818.5,7818.9
201904270340,7818.9,7819,7817.5,7818.8
201904270341,7818.8,7819.3,7818.6,7819.2
201904270342,7818.9,7819.5,7817.7,7818.9
201904270343,7818.9,7820.6,7818.9,7819.4
201904270344,7819.3,7821.9,7819.2,7821.7
201904270345,7821.8,7822.3,7819,7819.2
201904270346,7819.2,7820.3,7818.5,7819.4
201904270347,7819.4,7819.4,7818.2,7818.2
201904270348,7818.4,7818.6,7817.9,7818.2
201904270349,7818.2,7818.5,7815.6,7815.6
201904270350,7815.7,7817,7815.6,7816.9
201904270351,7816.9,7818.5,7816.9,7818.5
201904270352,7818.5,7819.4,7818.1,7819.4
201904270353,7819.3,7819.6,7818.7,7818.9
201904270354,7818.9,7819.3,7818.4,7818.8
201904270355,7818.8,7819.4,7817.9,7818.6
201904270356,7818.6,7819.2,7818.1,7818.9
201904270357,7818.9,7820.1,7817.6,7820.1
201904270358,7819.9,7820.9,7819.4,7819.9
201904270359,7819.9,7821.7,7819.9,7821.4
201904270400,7821.4,7823.7,7820.8,7822.8
201904270401,7822.8,7824.3,7822.5,7824.2
201904270402,7824.2,7828.9,7823.9,7827.8
201904270403,7828.1,7828.6,7827.4,7827.7
201904270404,7827.7,7829.9,7827.7,7828.7
201904270405,7828.7,7831.4,7828.7,7830.9
201904270406,7830.9,7832,7830.9,7831.4
201904270407,7831.4,7832.3,7830.9,7831.9
201904270408,7831.9,7833.2,7830.1,7830.4
201904270409,7830.4,7830.4,7828.1,7828.2
201904270410,7828.4,7829.8,7828.4,7829.2
201904270411,7829.2,7830.1,7828.4,7829.3
201904270412,7829.3,7829.3,7827.9,7828.9
201904270413,7828.9,7829.1,7826.9,7827.2
201904270414,7827.2,7828.6,7826.7,7828
201904270415,7828,7828.5,7826.4,7826.6
201904270416,7826.6,7827.9,7826,7826.5
201904270417,7826.5,7827.8,7826.4,7827.6
201904270418,7827.6,7828.3,7827.1,7828.2
201904270419,7828.2,7828.7,7826.2,7826.9
201904270420,7826.9,7828,7826.8,7827.2
201904270421,7827.1,7827.8,7826.4,7826.5
201904270422,7826.5,7826.9,7824.7,7824.9
201904270423,7824.9,7826.2,7824.7,7825.9
201904270424,7825.9,7828.3,7825.8,7828.3
201904270425,7828.1,7828.1,7827.3,7827.4
201904270426,7827.4,7827.7,7826.7,7827
201904270427,7827,7829.4,7826.4,7827.5
201904270428,7827.5,7827.6,7825.7,7827
201904270429,7827.1,7828.6,7826.4,7826.5
201904270430,7826.5,7826.5,7824.9,7826.3
201904270431,7826.4,7828.3,7826.4,7827.2
201904270432,7827.2,7828.4,7827.2,7827.3
201904270433,7827.3,7830,7827.2,7830
201904270434,7829.9,7830,7828.3,7828.6
201904270435,7828.6,7830,7828.4,7829.5
201904270436,7829.5,7831.9,7829.5,7831.9
201904270437,7831.8,7832.7,7830.7,7832.7
201904270438,7832.7,7833.1,7830.8,7833.1
201904270439,7833.1,7834.3,7832.8,7834.2
201904270440,7834.2,7836.1,7834.2,7835.9
201904270441,7835.8,7836,7833.1,7834
201904270442,7834,7834,7832,7832
201904270443,7832,7833.2,7831.7,7832.9
201904270444,7832.9,7834.3,7832.9,7833.9
201904270445,7833.9,7834.8,7832.5,7832.8
201904270446,7832.8,7833,7831.5,7831.9
201904270447,7831.7,7832.1,7829.5,7829.5
201904270448,7829.5,7830.8,7829.2,7830.7
201904270449,7830.7,7831,7829.4,7829.5
201904270450,7829.4,7830.3,7827.5,7828.2
201904270451,7828.2,7828.5,7826.9,7826.9
201904270452,7826.8,7827.3,7826.2,7826.2
201904270453,7826.2,7826.9,7825.4,7826.7
201904270454,7826.7,7828.6,7825.6,7828.4
201904270455,7828.4,7836.8,7828.4,7834.4
201904270456,7834.4,7835.4,7833,7834.8
201904270457,7834.8,7835.9,7834.7,7835.2
201904270458,7835.2,7836.6,7835.1,7836.2
201904270459,7836.2,7842.3,7836,7841.6
201904270500,7841.6,7843.8,7840.5,7843.7
201904270501,7843.7,7845.1,7841.2,7841.6
201904270502,7842.2,7843.6,7840.4,7842.7
201904270503,7842.5,7844.3,7841.5,7843.9
201904270504,7843.9,7843.9,7841.6,7842.3
201904270505,7842.3,7843.4,7841.9,7842.4
201904270506,7842.4,7842.9,7841.8,7842.6
201904270507,7842.6,7842.7,7841.6,7841.6
201904270508,7841.6,7842.6,7841.5,7841.5
201904270509,7841.5,7843.8,7841.5,7843.5
201904270510,7843.5,7843.7,7842.2,7842.6
201904270511,7842.6,7842.6,7842.1,7842.3
201904270512,7842.3,7842.5,7841.8,7842.2
201904270513,7842.1,7842.9,7842,7842.7
201904270514,7842.7,7842.7,7838.9,7842
