日時,始値(BID),高値(BID),安値(BID),終値(BID)
201902070830,20864,20866,20860,20861
201902070831,20861,20862,20852,20862
201902070832,20862,20862,20850,20853
201902070833,20853,20854,20849,20852
201902070834,20852,20852,20848,20851
201902070835,20851,20851,20846,20850
201902070836,20850,20851,20850,20851
201902070837,20851,20852,20851,20851
201902070838,20851,20852,20851,20852
201902070839,20852,20852,20848,20852
201902070840,20852,20857,20848,20850
201902070841,20850,20862,20850,20861
201902070842,20861,20872,20855,20872
201902070843,20872,20872,20862,20866
201902070844,20866,20872,20860,20871
201902070845,20870,20870,20861,20865
201902070846,20865,20868,20860,20866
201902070847,20866,20867,20856,20865
201902070848,20865,20867,20856,20856
201902070849,20856,20862,20856,20861
201902070850,20861,20865,20861,20861
201902070851,20861,20862,20861,20862
201902070852,20862,20877,20862,20872
201902070853,20872,20874,20869,20870
201902070854,20870,20870,20866,20867
201902070855,20867,20867,20861,20861
201902070856,20861,20866,20861,20866
201902070857,20866,20866,20866,20866
201902070858,20866,20870,20866,20870
201902070859,20869,20871,20864,20871
201902070900,20871,20887,20871,20882
201902070901,20882,20882,20851,20851
201902070902,20852,20856,20841,20841
201902070903,20841,20844,20828,20837
201902070904,20837,20842,20836,20842
201902070905,20842,20845,20826,20837
201902070906,20837,20838,20831,20836
201902070907,20836,20842,20831,20835
201902070908,20835,20837,20831,20832
201902070909,20832,20836,20818,20821
201902070910,20821,20822,20813,20815
201902070911,20815,20815,20797,20802
201902070912,20802,20802,20783,20790
201902070913,20790,20797,20786,20790
201902070914,20790,20797,20786,20792
201902070915,20792,20792,20786,20787
201902070916,20787,20792,20786,20787
201902070917,20787,20787,20778,20780
201902070918,20780,20786,20771,20772
201902070919,20772,20774,20758,20772
201902070920,20772,20785,20766,20767
201902070921,20767,20771,20761,20761
201902070922,20762,20765,20757,20757
201902070923,20757,20772,20757,20771
201902070924,20766,20772,20766,20772
201902070925,20772,20784,20771,20782
201902070926,20782,20784,20778,20782
201902070927,20782,20782,20778,20779
201902070928,20780,20792,20780,20791
201902070929,20791,20797,20787,20792
201902070930,20792,20794,20786,20787
201902070931,20787,20797,20786,20787
201902070932,20787,20789,20785,20787
201902070933,20787,20787,20781,20782
201902070934,20782,20783,20778,20782
201902070935,20782,20786,20777,20784
201902070936,20784,20789,20783,20788
201902070937,20788,20794,20786,20791
201902070938,20791,20794,20788,20790
201902070939,20790,20791,20786,20791
201902070940,20791,20797,20791,20791
201902070941,20792,20807,20791,20804
201902070942,20804,20805,20785,20785
201902070943,20785,20786,20773,20775
201902070944,20775,20777,20766,20766
201902070945,20766,20766,20746,20752
201902070946,20752,20752,20746,20747
201902070947,20747,20750,20743,20743
201902070948,20744,20747,20743,20746
201902070949,20746,20746,20741,20742
201902070950,20742,20742,20721,20722
201902070951,20722,20724,20711,20717
201902070952,20717,20722,20712,20715
201902070953,20716,20721,20715,20717
201902070954,20717,20720,20716,20717
201902070955,20717,20722,20707,20722
201902070956,20722,20728,20722,20727
201902070957,20726,20726,20721,20723
201902070958,20723,20728,20723,20726
201902070959,20726,20762,20726,20737
201902071000,20738,20741,20731,20733
201902071001,20733,20737,20726,20727
201902071002,20727,20727,20717,20717
201902071003,20716,20717,20712,20717
201902071004,20717,20717,20716,20717
201902071005,20717,20722,20711,20716
201902071006,20717,20717,20697,20701
201902071007,20701,20701,20689,20697
201902071008,20696,20697,20683,20691
201902071009,20691,20691,20672,20673
201902071010,20673,20680,20662,20663
201902071011,20664,20664,20651,20652
201902071012,20652,20656,20631,20652
201902071013,20652,20656,20651,20652
201902071014,20652,20657,20651,20656
201902071015,20656,20669,20656,20662
201902071016,20662,20669,20659,20666
201902071017,20666,20672,20661,20672
201902071018,20672,20678,20671,20676
201902071019,20676,20680,20670,20677
201902071020,20677,20681,20676,20681
201902071021,20681,20681,20671,20678
201902071022,20678,20682,20675,20681
201902071023,20681,20682,20676,20678
201902071024,20678,20682,20675,20682
201902071025,20682,20685,20681,20683
201902071026,20683,20685,20676,20677
201902071027,20677,20677,20671,20674
201902071028,20674,20683,20673,20682
201902071029,20682,20687,20681,20682
201902071030,20682,20682,20671,20671
201902071031,20671,20682,20671,20680
201902071032,20680,20680,20676,20677
201902071033,20677,20677,20668,20671
201902071034,20671,20672,20670,20672
201902071035,20672,20672,20666,20669
201902071036,20668,20672,20667,20670
201902071037,20670,20679,20670,20678
201902071038,20678,20682,20671,20676
201902071039,20676,20678,20657,20661
201902071040,20661,20661,20655,20656
201902071041,20656,20662,20655,20657
201902071042,20657,20662,20656,20662
201902071043,20662,20668,20662,20667
201902071044,20666,20675,20666,20673
201902071045,20673,20687,20671,20687
201902071046,20687,20690,20686,20687
201902071047,20687,20694,20686,20693
201902071048,20693,20697,20691,20697
201902071049,20697,20697,20691,20692
201902071050,20692,20697,20691,20696
201902071051,20696,20697,20691,20697
201902071052,20697,20697,20693,20695
201902071053,20695,20697,20691,20696
201902071054,20696,20707,20695,20707
201902071055,20707,20707,20701,20701
201902071056,20701,20702,20694,20696
201902071057,20697,20702,20695,20700
201902071058,20700,20700,20693,20695
201902071059,20695,20697,20693,20696
201902071100,20696,20696,20683,20686
201902071101,20686,20695,20686,20694
201902071102,20694,20697,20692,20697
201902071103,20697,20699,20696,20697
201902071104,20697,20698,20696,20696
201902071105,20696,20697,20685,20689
201902071106,20689,20694,20686,20692
201902071107,20692,20692,20686,20686
201902071108,20687,20687,20686,20687
201902071109,20687,20687,20682,20686
201902071110,20686,20686,20681,20684
201902071111,20684,20686,20681,20683
201902071112,20683,20686,20682,20684
201902071113,20684,20691,20681,20682
201902071114,20682,20686,20681,20686
201902071115,20686,20692,20686,20692
201902071116,20692,20692,20686,20692
201902071117,20692,20692,20691,20692
201902071118,20692,20692,20691,20692
201902071119,20692,20695,20691,20692
201902071120,20692,20701,20691,20697
201902071121,20697,20702,20696,20702
201902071122,20702,20702,20696,20696
201902071123,20696,20698,20696,20697
201902071124,20698,20698,20696,20697
201902071125,20697,20702,20696,20702
201902071126,20702,20705,20701,20705
201902071127,20705,20716,20705,20716
201902071128,20716,20718,20711,20712
201902071129,20712,20712,20701,20704
201902071130,20705,20705,20701,20702
201902071131,20702,20702,20696,20701
201902071132,20701,20705,20700,20703
201902071133,20703,20712,20702,20712
201902071134,20712,20712,20706,20706
201902071135,20706,20706,20702,20702
201902071136,20702,20703,20702,20702
201902071137,20702,20702,20701,20701
201902071138,20701,20706,20701,20706
201902071139,20706,20706,20702,20706
201902071140,20706,20706,20705,20706
201902071141,20706,20706,20706,20706
201902071142,20706,20709,20706,20706
201902071143,20706,20706,20701,20702
201902071144,20702,20705,20701,20705
201902071145,20704,20707,20702,20707
201902071146,20707,20714,20706,20714
201902071147,20714,20722,20713,20722
201902071148,20722,20723,20721,20722
201902071149,20722,20722,20717,20717
201902071150,20717,20720,20716,20717
201902071151,20717,20718,20716,20717
201902071152,20717,20717,20716,20716
201902071153,20716,20717,20716,20717
201902071154,20717,20717,20717,20717
201902071155,20717,20719,20717,20718
201902071156,20718,20719,20716,20717
201902071157,20717,20719,20716,20717
201902071158,20717,20720,20717,20717
201902071159,20717,20717,20717,20717
201902071200,20717,20718,20716,20716
201902071201,20716,20719,20716,20717
201902071202,20717,20717,20711,20711
201902071203,20711,20711,20706,20707
201902071204,20707,20707,20701,20701
201902071205,20701,20707,20701,20707
201902071206,20707,20707,20703,20705
201902071207,20705,20705,20701,20702
201902071208,20702,20702,20700,20702
201902071209,20702,20702,20701,20702
201902071210,20702,20703,20701,20702
201902071211,20702,20702,20701,20702
201902071212,20702,20702,20700,20700
201902071213,20700,20701,20700,20701
201902071214,20701,20702,20701,20701
201902071215,20701,20706,20701,20706
201902071216,20706,20707,20706,20707
201902071217,20707,20707,20701,20705
201902071218,20705,20707,20705,20707
201902071219,20707,20707,20706,20706
201902071220,20706,20707,20704,20707
201902071221,20707,20707,20707,20707
201902071222,20707,20707,20706,20706
201902071223,20706,20712,20706,20712
201902071224,20712,20712,20711,20712
201902071225,20712,20712,20711,20712
201902071226,20712,20712,20711,20711
201902071227,20711,20712,20711,20712
201902071228,20712,20712,20706,20706
201902071229,20706,20707,20702,20705
201902071230,20705,20705,20686,20689
201902071231,20688,20694,20687,20688
201902071232,20688,20695,20688,20692
201902071233,20692,20694,20688,20691
201902071234,20691,20695,20691,20695
201902071235,20695,20695,20693,20694
201902071236,20693,20695,20691,20692
201902071237,20692,20700,20691,20697
201902071238,20697,20704,20696,20703
201902071239,20703,20710,20702,20706
201902071240,20706,20706,20701,20702
201902071241,20702,20703,20701,20701
201902071242,20701,20708,20701,20706
201902071243,20707,20707,20701,20701
201902071244,20701,20705,20701,20704
201902071245,20704,20707,20704,20707
201902071246,20707,20712,20706,20711
201902071247,20711,20717,20711,20714
201902071248,20714,20715,20711,20712
201902071249,20712,20713,20708,20711
201902071250,20711,20713,20707,20711
201902071251,20711,20712,20707,20709
201902071252,20709,20712,20708,20708
201902071253,20708,20708,20701,20702
201902071254,20702,20705,20701,20701
201902071255,20701,20704,20701,20703
201902071256,20704,20712,20703,20707
201902071257,20707,20711,20706,20708
201902071258,20708,20708,20706,20707
201902071259,20707,20707,20706,20707
201902071300,20707,20707,20706,20707
201902071301,20707,20707,20703,20703
201902071302,20704,20709,20704,20706
201902071303,20706,20707,20706,20706
201902071304,20706,20710,20706,20709
201902071305,20710,20712,20706,20709
201902071306,20709,20716,20709,20714
201902071307,20714,20718,20711,20717
201902071308,20717,20718,20716,20717
201902071309,20717,20721,20716,20721
201902071310,20721,20721,20706,20712
201902071311,20712,20712,20711,20712
201902071312,20712,20712,20706,20712
201902071313,20712,20716,20709,20715
201902071314,20715,20717,20715,20717
201902071315,20717,20717,20716,20717
201902071316,20717,20717,20716,20717
201902071317,20717,20717,20716,20717
201902071318,20717,20717,20716,20716
201902071319,20716,20717,20712,20712
201902071320,20711,20712,20711,20712
201902071321,20712,20718,20711,20716
201902071322,20716,20721,20716,20720
201902071323,20720,20721,20720,20721
201902071324,20721,20722,20721,20722
201902071325,20722,20737,20722,20737
201902071326,20737,20739,20737,20737
201902071327,20737,20737,20737,20737
201902071328,20737,20737,20731,20731
201902071329,20731,20731,20721,20722
201902071330,20722,20727,20721,20725
201902071331,20725,20725,20716,20720
201902071332,20720,20722,20720,20722
201902071333,20722,20727,20721,20726
201902071334,20726,20727,20726,20727
201902071335,20727,20727,20721,20722
201902071336,20722,20723,20721,20722
201902071337,20722,20726,20722,20726
201902071338,20726,20727,20726,20727
201902071339,20727,20727,20725,20726
201902071340,20726,20727,20724,20726
201902071341,20726,20727,20725,20727
201902071342,20727,20727,20722,20722
201902071343,20722,20724,20721,20722
201902071344,20722,20722,20711,20715
201902071345,20715,20716,20711,20715
201902071346,20715,20716,20711,20712
201902071347,20712,20716,20711,20716
201902071348,20716,20717,20716,20717
201902071349,20717,20717,20711,20713
201902071350,20713,20717,20713,20717
201902071351,20717,20717,20717,20717
201902071352,20717,20717,20717,20717
201902071353,20717,20717,20711,20712
201902071354,20712,20712,20707,20707
201902071355,20707,20707,20707,20707
201902071356,20707,20707,20694,20694
201902071357,20695,20697,20692,20696
201902071358,20696,20702,20695,20702
201902071359,20702,20708,20701,20707
201902071400,20707,20707,20701,20704
201902071401,20704,20708,20704,20706
201902071402,20706,20711,20706,20710
201902071403,20710,20712,20709,20709
201902071404,20709,20711,20697,20697
201902071405,20697,20697,20692,20692
201902071406,20692,20692,20686,20689
201902071407,20688,20691,20686,20687
201902071408,20686,20692,20686,20687
201902071409,20687,20692,20683,20691
201902071410,20692,20696,20691,20694
201902071411,20694,20697,20691,20697
201902071412,20697,20698,20692,20694
201902071413,20695,20697,20691,20693
201902071414,20693,20695,20688,20695
201902071415,20695,20695,20691,20693
201902071416,20693,20698,20693,20696
201902071417,20696,20699,20696,20696
201902071418,20696,20702,20696,20697
201902071419,20697,20697,20696,20697
201902071420,20697,20698,20695,20695
201902071421,20695,20695,20682,20682
201902071422,20682,20682,20672,20677
201902071423,20677,20679,20676,20676
201902071424,20677,20681,20676,20678
201902071425,20678,20682,20676,20677
201902071426,20677,20678,20668,20671
201902071427,20671,20672,20668,20672
201902071428,20672,20676,20672,20676
201902071429,20676,20682,20676,20682
201902071430,20682,20682,20675,20675
201902071431,20676,20682,20672,20681
201902071432,20681,20689,20681,20686
201902071433,20686,20692,20686,20692
201902071434,20692,20697,20692,20697
201902071435,20697,20703,20692,20692
201902071436,20692,20694,20691,20691
201902071437,20691,20692,20686,20691
201902071438,20691,20692,20683,20684
201902071439,20684,20688,20684,20687
201902071440,20687,20694,20687,20691
201902071441,20691,20692,20687,20687
201902071442,20687,20687,20676,20679
201902071443,20680,20684,20676,20684
201902071444,20684,20684,20676,20680
201902071445,20680,20682,20678,20682
201902071446,20682,20692,20681,20692
201902071447,20692,20697,20691,20696
201902071448,20696,20702,20696,20702
201902071449,20702,20704,20701,20704
201902071450,20703,20710,20703,20707
201902071451,20707,20718,20707,20718
201902071452,20718,20718,20716,20718
201902071453,20718,20718,20716,20717
201902071454,20717,20720,20716,20717
201902071455,20717,20717,20711,20717
201902071456,20717,20717,20715,20715
201902071457,20715,20716,20712,20715
201902071458,20715,20717,20713,20716
201902071459,20717,20731,20717,20731
201902071500,20731,20752,20725,20752
201902071501,20752,20755,20741,20742
201902071502,20742,20743,20736,20736
201902071503,20736,20737,20732,20732
201902071504,20732,20737,20732,20736
201902071505,20736,20736,20722,20722
201902071506,20722,20732,20721,20731
201902071507,20731,20732,20726,20732
201902071508,20732,20732,20726,20726
201902071509,20727,20727,20721,20722
201902071510,20722,20732,20722,20730
201902071511,20730,20732,20725,20732
201902071512,20732,20732,20725,20727
201902071513,20727,20732,20723,20728
201902071514,20728,20732,20720,20721
201902071515,20721,20726,20721,20724
201902071516,20724,20726,20721,20724
201902071517,20724,20729,20721,20722
201902071518,20722,20723,20719,20722
201902071519,20722,20722,20715,20722
201902071520,20722,20722,20722,20722
201902071521,20722,20725,20720,20725
201902071522,20725,20725,20724,20724
201902071523,20724,20727,20724,20727
201902071524,20727,20730,20725,20726
201902071525,20722,20726,20722,20725
201902071526,20725,20725,20721,20723
201902071527,20723,20723,20720,20721
201902071528,20721,20724,20721,20721
201902071529,20721,20730,20721,20728
201902071530,20728,20729,20726,20728
201902071531,20728,20728,20726,20726
201902071532,20726,20726,20725,20726
201902071533,20726,20726,20725,20726
201902071534,20726,20726,20725,20725
201902071535,20725,20728,20725,20728
201902071536,20728,20728,20726,20726
201902071537,20726,20728,20726,20728
201902071538,20728,20731,20728,20731
201902071539,20731,20731,20730,20730
201902071540,20730,20731,20730,20730
201902071541,20730,20730,20730,20730
201902071542,20730,20731,20725,20726
201902071543,20726,20726,20724,20724
201902071544,20724,20728,20724,20728
201902071545,20728,20730,20728,20728
201902071546,20728,20728,20726,20726
201902071547,20726,20728,20726,20726
201902071548,20726,20726,20725,20725
201902071549,20725,20726,20725,20725
201902071550,20725,20726,20725,20726
201902071551,20725,20728,20725,20727
201902071552,20727,20731,20726,20727
201902071553,20727,20728,20727,20728
201902071554,20728,20728,20727,20727
201902071555,20727,20730,20727,20730
201902071556,20730,20735,20730,20732
201902071557,20731,20737,20730,20736
201902071558,20736,20737,20735,20735
201902071559,20735,20736,20735,20736
201902071600,20736,20736,20730,20733
201902071601,20733,20736,20732,20736
201902071602,20736,20736,20735,20735
201902071603,20735,20736,20725,20726
201902071604,20726,20726,20708,20715
201902071605,20715,20716,20708,20709
201902071606,20709,20709,20708,20709
201902071607,20709,20709,20707,20709
201902071608,20709,20709,20709,20709
201902071609,20709,20709,20702,20708
201902071610,20708,20710,20702,20707
201902071611,20707,20707,20707,20707
201902071612,20707,20708,20706,20706
201902071613,20706,20707,20706,20707
201902071614,20707,20709,20707,20709
201902071615,20709,20709,20705,20707
201902071616,20707,20707,20701,20705
201902071617,20705,20705,20700,20701
201902071618,20701,20701,20701,20701
201902071619,20701,20702,20701,20701
201902071620,20701,20705,20700,20703
201902071621,20703,20705,20700,20700
201902071622,20700,20703,20695,20695
201902071623,20695,20702,20695,20701
201902071624,20701,20702,20700,20701
201902071625,20701,20707,20700,20706
201902071626,20706,20707,20705,20707
201902071627,20707,20707,20706,20706
201902071628,20704,20709,20700,20700
201902071629,20700,20702,20698,20701
201902071630,20705,20709,20697,20708
201902071631,20708,20712,20706,20712
201902071632,20711,20715,20711,20715
201902071633,20715,20715,20711,20712
201902071634,20712,20712,20711,20712
201902071635,20712,20713,20711,20713
201902071636,20713,20713,20711,20712
201902071637,20712,20713,20711,20712
201902071638,20712,20712,20712,20712
201902071639,20712,20714,20711,20713
201902071640,20713,20716,20711,20716
201902071641,20716,20716,20711,20711
201902071642,20711,20712,20706,20712
201902071643,20712,20712,20711,20712
201902071644,20712,20713,20711,20711
201902071645,20711,20713,20711,20711
201902071646,20711,20713,20711,20712
201902071647,20712,20715,20711,20715
201902071648,20715,20716,20715,20715
201902071649,20715,20715,20715,20715
201902071650,20715,20715,20707,20707
201902071651,20707,20709,20707,20707
201902071652,20707,20707,20707,20707
201902071653,20707,20707,20701,20706
201902071654,20706,20706,20701,20702
201902071655,20702,20704,20701,20702
201902071656,20702,20702,20696,20697
201902071657,20697,20697,20691,20691
201902071658,20691,20695,20691,20692
201902071659,20692,20692,20692,20692
201902071700,20692,20702,20692,20697
201902071701,20697,20697,20695,20697
201902071702,20697,20710,20696,20708
201902071703,20708,20711,20706,20709
201902071704,20709,20711,20709,20710
201902071705,20710,20715,20710,20714
201902071706,20714,20716,20710,20713
201902071707,20714,20742,20710,20742
201902071708,20742,20746,20736,20737
201902071709,20737,20750,20731,20746
201902071710,20746,20766,20746,20766
201902071711,20766,20766,20760,20761
201902071712,20761,20763,20761,20762
201902071713,20762,20764,20756,20761
201902071714,20761,20762,20756,20758
201902071715,20758,20761,20756,20760
201902071716,20760,20761,20756,20759
201902071717,20759,20763,20758,20761
201902071718,20761,20762,20756,20760
201902071719,20760,20762,20757,20761
201902071720,20761,20766,20761,20766
201902071721,20766,20773,20766,20773
201902071722,20773,20776,20771,20773
201902071723,20773,20774,20771,20774
201902071724,20774,20774,20766,20768
201902071725,20768,20770,20766,20769
201902071726,20769,20769,20766,20767
201902071727,20766,20768,20763,20765
201902071728,20765,20771,20765,20771
201902071729,20771,20771,20768,20770
201902071730,20769,20770,20768,20770
201902071731,20770,20770,20765,20767
201902071732,20767,20767,20766,20767
201902071733,20767,20767,20763,20764
201902071734,20764,20764,20761,20762
201902071735,20762,20762,20761,20762
201902071736,20762,20764,20762,20762
201902071737,20762,20762,20756,20758
201902071738,20758,20761,20756,20760
201902071739,20760,20761,20756,20759
201902071740,20759,20759,20756,20758
201902071741,20759,20759,20756,20756
201902071742,20756,20760,20756,20759
201902071743,20759,20761,20758,20761
201902071744,20761,20764,20760,20762
201902071745,20762,20762,20760,20761
201902071746,20761,20761,20758,20761
201902071747,20761,20761,20756,20759
201902071748,20759,20762,20758,20762
201902071749,20762,20762,20761,20761
201902071750,20761,20762,20760,20761
201902071751,20761,20762,20761,20761
201902071752,20761,20762,20761,20762
201902071753,20762,20765,20761,20763
201902071754,20763,20770,20763,20766
201902071755,20766,20770,20766,20770
201902071756,20770,20770,20767,20770
201902071757,20770,20772,20768,20771
201902071758,20771,20772,20771,20771
201902071759,20771,20775,20771,20775
201902071800,20775,20783,20775,20782
201902071801,20782,20782,20776,20777
201902071802,20777,20778,20771,20771
201902071803,20773,20776,20773,20775
201902071804,20775,20775,20771,20774
201902071805,20774,20776,20774,20776
201902071806,20776,20780,20776,20780
201902071807,20780,20781,20776,20777
201902071808,20777,20779,20776,20778
201902071809,20778,20780,20776,20777
201902071810,20777,20777,20777,20777
201902071811,20777,20777,20771,20772
201902071812,20772,20775,20771,20773
201902071813,20773,20773,20771,20772
201902071814,20772,20772,20772,20772
201902071815,20772,20772,20772,20772
201902071816,20772,20774,20771,20772
201902071817,20772,20772,20766,20767
201902071818,20767,20770,20767,20769
201902071819,20769,20770,20766,20767
201902071820,20767,20767,20767,20767
201902071821,20767,20767,20767,20767
201902071822,20767,20770,20762,20770
201902071823,20770,20771,20768,20771
201902071824,20771,20773,20768,20769
201902071825,20769,20770,20768,20769
201902071826,20769,20769,20766,20767
201902071827,20767,20767,20761,20761
201902071828,20761,20764,20761,20762
201902071829,20762,20764,20761,20762
201902071830,20762,20762,20762,20762
201902071831,20762,20762,20762,20762
201902071832,20762,20762,20762,20762
201902071833,20762,20762,20757,20761
201902071834,20761,20762,20756,20756
201902071835,20756,20761,20756,20758
201902071836,20758,20760,20757,20757
201902071837,20757,20757,20757,20757
201902071838,20757,20757,20756,20756
201902071839,20757,20757,20757,20757
201902071840,20757,20761,20757,20760
201902071841,20760,20761,20756,20758
201902071842,20758,20759,20757,20757
201902071843,20757,20762,20756,20757
201902071844,20757,20760,20756,20760
201902071845,20760,20762,20756,20757
201902071846,20757,20758,20757,20757
201902071847,20757,20757,20757,20757
201902071848,20757,20758,20757,20757
201902071849,20757,20757,20757,20757
201902071850,20757,20759,20757,20757
201902071851,20757,20759,20756,20758
201902071852,20759,20766,20759,20765
201902071853,20765,20767,20764,20767
201902071854,20767,20770,20766,20767
201902071855,20767,20771,20766,20771
201902071856,20771,20774,20770,20772
201902071857,20772,20774,20771,20774
201902071858,20774,20781,20774,20780
201902071859,20780,20782,20777,20778
201902071900,20779,20780,20776,20777
201902071901,20777,20777,20776,20777
201902071902,20777,20777,20776,20776
201902071903,20776,20776,20772,20775
201902071904,20775,20776,20771,20772
201902071905,20772,20772,20769,20770
201902071906,20770,20770,20764,20764
201902071907,20765,20765,20760,20760
201902071908,20760,20760,20757,20757
201902071909,20757,20758,20756,20758
201902071910,20758,20762,20756,20762
201902071911,20762,20762,20756,20758
201902071912,20758,20759,20756,20757
201902071913,20757,20758,20752,20752
201902071914,20752,20755,20738,20738
201902071915,20738,20738,20721,20722
201902071916,20722,20722,20715,20722
201902071917,20722,20723,20721,20721
201902071918,20721,20722,20716,20716
201902071919,20716,20716,20706,20707
201902071920,20707,20711,20701,20702
201902071921,20702,20702,20696,20697
201902071922,20697,20697,20696,20697
201902071923,20697,20704,20697,20702
201902071924,20702,20704,20701,20702
201902071925,20702,20702,20696,20702
201902071926,20702,20703,20701,20702
201902071927,20702,20702,20696,20697
201902071928,20697,20702,20691,20694
201902071929,20695,20702,20695,20702
201902071930,20702,20702,20691,20697
201902071931,20697,20700,20694,20700
201902071932,20700,20701,20696,20701
201902071933,20701,20702,20699,20701
201902071934,20701,20706,20698,20706
201902071935,20706,20707,20703,20706
201902071936,20706,20708,20706,20707
201902071937,20707,20709,20706,20707
201902071938,20707,20707,20706,20707
201902071939,20707,20708,20701,20705
201902071940,20705,20706,20701,20701
201902071941,20702,20705,20701,20702
201902071942,20702,20707,20702,20704
201902071943,20704,20707,20702,20706
201902071944,20706,20707,20706,20707
201902071945,20707,20707,20701,20702
201902071946,20702,20703,20701,20702
201902071947,20702,20702,20698,20701
201902071948,20701,20701,20696,20697
201902071949,20697,20706,20697,20705
201902071950,20705,20708,20705,20707
201902071951,20707,20707,20701,20701
201902071952,20701,20703,20701,20702
201902071953,20702,20706,20701,20706
201902071954,20706,20707,20705,20706
201902071955,20706,20709,20701,20704
201902071956,20706,20706,20701,20701
201902071957,20701,20706,20701,20701
201902071958,20701,20705,20696,20697
201902071959,20697,20702,20696,20702
201902072000,20702,20702,20696,20696
201902072001,20696,20705,20696,20705
201902072002,20705,20707,20705,20706
201902072003,20706,20707,20701,20702
201902072004,20702,20705,20701,20703
201902072005,20703,20705,20702,20702
201902072006,20701,20707,20701,20706
201902072007,20706,20707,20706,20706
201902072008,20706,20707,20706,20707
201902072009,20707,20707,20706,20706
201902072010,20706,20707,20702,20703
201902072011,20703,20705,20701,20702
201902072012,20702,20702,20683,20684
201902072013,20684,20686,20678,20682
201902072014,20682,20682,20677,20681
201902072015,20681,20683,20676,20682
201902072016,20682,20684,20681,20681
201902072017,20681,20686,20681,20682
201902072018,20682,20686,20681,20686
201902072019,20686,20686,20681,20682
201902072020,20682,20682,20682,20682
201902072021,20682,20682,20676,20677
201902072022,20677,20677,20672,20672
201902072023,20672,20672,20672,20672
201902072024,20672,20675,20672,20675
201902072025,20675,20675,20662,20662
201902072026,20662,20665,20658,20661
201902072027,20661,20663,20660,20662
201902072028,20662,20662,20661,20662
201902072029,20662,20676,20662,20676
201902072030,20676,20676,20671,20672
201902072031,20672,20672,20671,20672
201902072032,20672,20675,20671,20674
201902072033,20674,20676,20674,20675
201902072034,20675,20677,20674,20676
201902072035,20676,20676,20671,20673
201902072036,20673,20674,20671,20672
201902072037,20672,20672,20664,20664
201902072038,20664,20665,20661,20662
201902072039,20662,20662,20660,20662
201902072040,20662,20669,20661,20669
201902072041,20668,20670,20666,20670
201902072042,20670,20672,20670,20672
201902072043,20672,20672,20672,20672
201902072044,20672,20672,20671,20671
201902072045,20671,20671,20666,20668
201902072046,20668,20674,20666,20673
201902072047,20674,20675,20671,20675
201902072048,20675,20675,20671,20673
201902072049,20674,20674,20671,20672
201902072050,20672,20672,20670,20672
201902072051,20672,20672,20666,20667
201902072052,20667,20667,20652,20652
201902072053,20652,20652,20642,20642
201902072054,20642,20646,20642,20646
201902072055,20646,20646,20641,20642
201902072056,20642,20642,20638,20638
201902072057,20638,20643,20638,20642
201902072058,20642,20644,20641,20644
201902072059,20644,20647,20643,20646
201902072100,20646,20652,20646,20652
201902072101,20651,20657,20651,20652
201902072102,20652,20652,20641,20643
201902072103,20643,20653,20643,20653
201902072104,20653,20657,20651,20657
201902072105,20657,20657,20646,20647
201902072106,20647,20651,20646,20647
201902072107,20647,20650,20646,20649
201902072108,20649,20657,20646,20655
201902072109,20654,20655,20647,20647
201902072110,20647,20649,20646,20647
201902072111,20647,20655,20647,20652
201902072112,20652,20654,20651,20654
201902072113,20654,20655,20646,20647
201902072114,20647,20647,20646,20647
201902072115,20647,20647,20643,20647
201902072116,20647,20651,20646,20650
201902072117,20651,20654,20651,20652
201902072118,20652,20656,20651,20656
201902072119,20656,20656,20654,20655
201902072120,20655,20662,20655,20661
201902072121,20662,20665,20661,20665
201902072122,20665,20666,20660,20662
201902072123,20662,20664,20661,20662
201902072124,20662,20662,20662,20662
201902072125,20662,20662,20656,20659
201902072126,20659,20660,20656,20659
201902072127,20659,20661,20657,20657
201902072128,20657,20657,20656,20657
201902072129,20657,20657,20653,20657
201902072130,20657,20664,20656,20662
201902072131,20662,20663,20656,20656
201902072132,20656,20657,20651,20652
201902072133,20652,20656,20652,20656
201902072134,20656,20656,20651,20652
201902072135,20652,20652,20652,20652
201902072136,20652,20652,20646,20647
201902072137,20647,20651,20644,20644
201902072138,20644,20647,20643,20646
201902072139,20646,20646,20641,20642
201902072140,20642,20646,20641,20642
201902072141,20642,20642,20632,20639
201902072142,20639,20639,20591,20597
201902072143,20597,20602,20591,20592
201902072144,20592,20596,20591,20592
201902072145,20592,20596,20591,20596
201902072146,20596,20607,20596,20607
201902072147,20607,20607,20601,20601
201902072148,20601,20606,20601,20602
201902072149,20602,20602,20602,20602
201902072150,20602,20609,20602,20607
201902072151,20607,20611,20604,20611
201902072152,20611,20612,20610,20612
201902072153,20612,20612,20607,20607
201902072154,20607,20611,20607,20611
201902072155,20611,20612,20606,20607
201902072156,20607,20611,20606,20607
201902072157,20607,20607,20601,20602
201902072158,20602,20602,20598,20602
201902072159,20602,20602,20591,20592
201902072200,20592,20598,20589,20596
201902072201,20597,20601,20596,20601
201902072202,20602,20610,20601,20610
201902072203,20611,20612,20606,20607
201902072204,20607,20607,20601,20604
201902072205,20604,20604,20601,20602
201902072206,20602,20604,20598,20604
201902072207,20604,20610,20603,20609
201902072208,20610,20611,20605,20607
201902072209,20607,20607,20605,20607
201902072210,20607,20607,20599,20606
201902072211,20606,20610,20605,20609
201902072212,20609,20612,20603,20604
201902072213,20604,20604,20597,20597
201902072214,20597,20597,20578,20579
201902072215,20579,20582,20562,20567
201902072216,20567,20572,20562,20571
201902072217,20571,20580,20569,20580
201902072218,20580,20582,20576,20582
201902072219,20582,20587,20581,20587
201902072220,20587,20589,20581,20587
201902072221,20587,20590,20583,20583
201902072222,20584,20585,20581,20582
201902072223,20582,20582,20581,20582
201902072224,20582,20584,20581,20584
201902072225,20584,20588,20584,20587
201902072226,20587,20587,20583,20586
201902072227,20586,20587,20583,20586
201902072228,20586,20591,20585,20591
201902072229,20591,20597,20591,20597
201902072230,20597,20597,20591,20595
201902072231,20595,20600,20594,20597
201902072232,20597,20600,20595,20597
201902072233,20597,20602,20596,20602
201902072234,20602,20605,20601,20601
201902072235,20602,20602,20597,20602
201902072236,20602,20602,20597,20597
201902072237,20597,20604,20597,20602
201902072238,20602,20602,20596,20596
201902072239,20596,20602,20596,20602
201902072240,20602,20604,20602,20602
201902072241,20602,20602,20596,20597
201902072242,20597,20597,20591,20595
201902072243,20595,20601,20591,20601
201902072244,20601,20602,20596,20597
201902072245,20597,20601,20596,20601
201902072246,20601,20604,20600,20602
201902072247,20602,20604,20600,20603
201902072248,20603,20603,20596,20599
201902072249,20599,20602,20599,20601
201902072250,20602,20612,20601,20611
201902072251,20611,20612,20610,20612
201902072252,20612,20612,20606,20608
201902072253,20608,20610,20606,20609
201902072254,20609,20612,20608,20612
201902072255,20612,20614,20608,20611
201902072256,20611,20614,20611,20614
201902072257,20615,20615,20611,20614
201902072258,20614,20621,20611,20618
201902072259,20617,20620,20616,20617
201902072300,20617,20617,20613,20613
201902072301,20613,20617,20611,20617
201902072302,20617,20617,20611,20613
201902072303,20613,20622,20613,20622
201902072304,20622,20626,20622,20626
201902072305,20626,20630,20621,20622
201902072306,20622,20622,20622,20622
201902072307,20621,20622,20617,20617
201902072308,20617,20619,20616,20617
201902072309,20617,20618,20616,20617
201902072310,20617,20620,20616,20617
201902072311,20617,20620,20616,20618
201902072312,20619,20620,20616,20618
201902072313,20620,20624,20616,20618
201902072314,20618,20620,20616,20617
201902072315,20617,20622,20617,20621
201902072316,20621,20621,20617,20620
201902072317,20620,20620,20616,20617
201902072318,20617,20617,20611,20611
201902072319,20611,20612,20611,20612
201902072320,20612,20612,20606,20606
201902072321,20606,20606,20601,20602
201902072322,20602,20603,20601,20601
201902072323,20601,20601,20597,20601
201902072324,20601,20601,20596,20601
201902072325,20601,20604,20601,20602
201902072326,20602,20609,20602,20609
201902072327,20609,20609,20604,20605
201902072328,20606,20606,20601,20604
201902072329,20604,20604,20601,20601
201902072330,20601,20612,20591,20593
201902072331,20593,20597,20586,20596
201902072332,20596,20603,20591,20603
201902072333,20601,20603,20587,20587
201902072334,20587,20590,20582,20587
201902072335,20587,20587,20576,20578
201902072336,20578,20591,20574,20575
201902072337,20576,20577,20566,20571
201902072338,20571,20572,20566,20568
201902072339,20570,20578,20570,20572
201902072340,20572,20572,20561,20565
201902072341,20563,20572,20560,20572
201902072342,20572,20579,20571,20572
201902072343,20572,20580,20571,20572
201902072344,20572,20581,20566,20567
201902072345,20567,20567,20561,20564
201902072346,20564,20572,20561,20572
201902072347,20572,20575,20566,20574
201902072348,20574,20579,20561,20562
201902072349,20562,20567,20556,20556
201902072350,20558,20576,20556,20571
201902072351,20571,20572,20561,20566
201902072352,20566,20575,20562,20572
201902072353,20572,20572,20561,20563
201902072354,20562,20571,20561,20570
201902072355,20570,20581,20569,20579
201902072356,20579,20592,20572,20592
201902072357,20591,20592,20586,20591
201902072358,20591,20592,20589,20592
201902072359,20592,20600,20591,20596
201902080000,20597,20600,20586,20586
201902080001,20586,20586,20566,20567
201902080002,20567,20577,20566,20571
201902080003,20571,20571,20561,20562
201902080004,20562,20563,20553,20561
201902080005,20561,20570,20556,20567
201902080006,20567,20571,20561,20570
201902080007,20570,20585,20569,20581
201902080008,20582,20591,20580,20587
201902080009,20586,20587,20581,20583
201902080010,20582,20595,20581,20594
201902080011,20594,20610,20594,20607
201902080012,20607,20614,20606,20612
201902080013,20612,20612,20606,20606
201902080014,20606,20608,20601,20603
201902080015,20604,20612,20601,20604
201902080016,20604,20604,20593,20596
201902080017,20597,20606,20591,20596
201902080018,20596,20598,20591,20592
201902080019,20592,20592,20586,20590
201902080020,20590,20593,20581,20593
201902080021,20592,20599,20591,20597
201902080022,20598,20599,20591,20593
201902080023,20593,20619,20593,20619
201902080024,20619,20626,20619,20621
201902080025,20621,20624,20616,20619
201902080026,20619,20621,20616,20620
201902080027,20620,20622,20613,20621
201902080028,20621,20629,20621,20629
201902080029,20629,20632,20626,20627
201902080030,20627,20635,20626,20635
201902080031,20635,20636,20629,20630
201902080032,20630,20634,20630,20632
201902080033,20632,20632,20630,20632
201902080034,20632,20634,20629,20632
201902080035,20632,20632,20625,20626
201902080036,20626,20626,20617,20617
201902080037,20617,20617,20611,20616
201902080038,20616,20616,20611,20615
201902080039,20616,20622,20616,20618
201902080040,20619,20628,20616,20628
201902080041,20628,20631,20627,20630
201902080042,20631,20631,20601,20607
201902080043,20611,20614,20601,20613
201902080044,20612,20620,20611,20613
201902080045,20613,20622,20611,20622
201902080046,20622,20622,20613,20613
201902080047,20614,20614,20606,20607
201902080048,20607,20608,20596,20601
201902080049,20601,20601,20587,20589
201902080050,20590,20593,20586,20588
201902080051,20588,20590,20575,20575
201902080052,20575,20575,20561,20562
201902080053,20562,20566,20561,20562
201902080054,20562,20566,20551,20566
201902080055,20566,20566,20551,20553
201902080056,20553,20565,20552,20561
201902080057,20561,20562,20551,20561
201902080058,20561,20562,20551,20561
201902080059,20561,20562,20551,20552
201902080100,20553,20557,20551,20552
201902080101,20552,20557,20547,20549
201902080102,20548,20552,20541,20548
201902080103,20550,20562,20547,20558
201902080104,20558,20572,20558,20566
201902080105,20566,20568,20561,20561
201902080106,20560,20561,20542,20546
201902080107,20546,20561,20542,20549
201902080108,20550,20550,20541,20546
201902080109,20546,20549,20541,20545
201902080110,20545,20545,20541,20542
201902080111,20541,20552,20536,20551
201902080112,20551,20557,20546,20547
201902080113,20546,20551,20541,20542
201902080114,20544,20553,20541,20545
201902080115,20545,20556,20545,20553
201902080116,20553,20555,20551,20552
201902080117,20552,20562,20546,20560
201902080118,20560,20560,20546,20549
201902080119,20548,20552,20546,20546
201902080120,20546,20547,20540,20542
201902080121,20542,20552,20541,20552
201902080122,20552,20552,20546,20546
201902080123,20546,20549,20541,20541
201902080124,20541,20547,20537,20542
201902080125,20542,20547,20539,20547
201902080126,20547,20547,20538,20540
201902080127,20540,20542,20536,20541
201902080128,20541,20542,20529,20531
201902080129,20531,20532,20528,20532
201902080130,20532,20534,20511,20515
201902080131,20515,20525,20502,20521
201902080132,20522,20522,20501,20504
201902080133,20503,20507,20492,20502
201902080134,20504,20504,20486,20492
201902080135,20492,20494,20487,20491
201902080136,20491,20492,20476,20477
201902080137,20477,20492,20477,20490
201902080138,20491,20502,20491,20502
201902080139,20502,20511,20501,20508
201902080140,20509,20512,20505,20507
201902080141,20506,20511,20501,20509
201902080142,20510,20517,20508,20516
201902080143,20516,20525,20516,20521
201902080144,20521,20521,20511,20511
201902080145,20512,20513,20506,20512
201902080146,20511,20516,20506,20514
201902080147,20515,20517,20511,20514
201902080148,20513,20515,20496,20496
201902080149,20496,20502,20496,20497
201902080150,20496,20507,20496,20507
201902080151,20506,20529,20506,20517
201902080152,20516,20517,20496,20496
201902080153,20496,20510,20491,20507
201902080154,20506,20517,20503,20506
201902080155,20506,20514,20506,20507
201902080156,20508,20511,20501,20503
201902080157,20502,20502,20496,20501
201902080158,20501,20501,20486,20486
201902080159,20486,20492,20481,20481
201902080200,20482,20487,20470,20472
201902080201,20472,20478,20470,20473
201902080202,20473,20482,20470,20472
201902080203,20471,20474,20466,20471
201902080204,20471,20477,20468,20472
201902080205,20472,20487,20468,20484
201902080206,20484,20487,20480,20481
201902080207,20482,20485,20480,20484
201902080208,20484,20497,20481,20497
201902080209,20497,20507,20494,20502
201902080210,20501,20507,20495,20502
201902080211,20502,20506,20496,20496
201902080212,20496,20504,20490,20501
201902080213,20501,20502,20496,20497
201902080214,20497,20499,20490,20497
201902080215,20497,20497,20486,20490
201902080216,20490,20502,20489,20492
201902080217,20492,20502,20491,20497
201902080218,20497,20497,20490,20492
201902080219,20492,20502,20490,20502
201902080220,20502,20507,20496,20507
201902080221,20507,20514,20500,20514
201902080222,20514,20522,20511,20517
201902080223,20517,20517,20512,20516
201902080224,20516,20517,20514,20516
201902080225,20516,20516,20504,20507
201902080226,20507,20509,20502,20503
201902080227,20507,20512,20500,20512
201902080228,20512,20512,20505,20508
201902080229,20508,20512,20500,20507
201902080230,20507,20509,20501,20506
201902080231,20506,20517,20506,20511
201902080232,20511,20517,20507,20507
201902080233,20507,20512,20505,20511
201902080234,20511,20517,20505,20517
201902080235,20517,20527,20515,20526
201902080236,20526,20526,20511,20513
201902080237,20513,20517,20506,20516
201902080238,20516,20517,20506,20509
201902080239,20509,20517,20505,20516
201902080240,20516,20522,20508,20512
201902080241,20512,20512,20501,20507
201902080242,20507,20511,20499,20502
201902080243,20502,20504,20490,20492
201902080244,20492,20492,20481,20481
201902080245,20481,20482,20473,20477
201902080246,20477,20485,20465,20468
201902080247,20468,20472,20465,20467
201902080248,20467,20472,20461,20461
201902080249,20461,20467,20456,20466
201902080250,20466,20467,20457,20458
201902080251,20458,20462,20456,20459
201902080252,20459,20462,20450,20453
201902080253,20453,20458,20450,20456
201902080254,20456,20457,20440,20441
201902080255,20441,20447,20439,20440
201902080256,20439,20452,20438,20452
201902080257,20452,20457,20446,20451
201902080258,20451,20457,20450,20457
201902080259,20457,20457,20451,20455
201902080300,20455,20464,20452,20462
201902080301,20462,20472,20460,20472
201902080302,20471,20490,20470,20487
201902080303,20487,20502,20486,20497
201902080304,20497,20502,20495,20502
201902080305,20502,20522,20500,20516
201902080306,20516,20517,20510,20517
201902080307,20517,20520,20515,20516
201902080308,20516,20520,20511,20516
201902080309,20516,20517,20512,20516
201902080310,20516,20517,20510,20510
201902080311,20511,20517,20510,20511
201902080312,20511,20512,20503,20503
201902080313,20503,20512,20500,20509
201902080314,20510,20516,20504,20506
201902080315,20506,20517,20505,20507
201902080316,20507,20508,20501,20501
201902080317,20501,20506,20500,20501
201902080318,20501,20506,20496,20501
201902080319,20501,20502,20495,20496
201902080320,20496,20507,20496,20501
201902080321,20501,20507,20496,20502
201902080322,20502,20507,20498,20505
201902080323,20505,20508,20503,20507
201902080324,20507,20512,20505,20511
201902080325,20511,20517,20505,20517
201902080326,20517,20527,20510,20527
201902080327,20527,20527,20509,20509
201902080328,20509,20512,20500,20509
201902080329,20509,20521,20506,20520
201902080330,20520,20527,20512,20517
201902080331,20517,20527,20515,20527
201902080332,20527,20527,20520,20527
201902080333,20527,20537,20527,20531
201902080334,20531,20532,20525,20528
201902080335,20528,20532,20528,20530
201902080336,20530,20532,20525,20525
201902080337,20525,20528,20521,20527
201902080338,20527,20527,20520,20522
201902080339,20522,20522,20520,20522
201902080340,20522,20522,20515,20516
201902080341,20516,20520,20511,20517
201902080342,20517,20521,20511,20511
201902080343,20511,20517,20511,20516
201902080344,20516,20523,20516,20517
201902080345,20517,20522,20515,20520
201902080346,20520,20527,20516,20521
201902080347,20521,20527,20520,20527
201902080348,20527,20531,20525,20525
201902080349,20525,20527,20511,20517
201902080350,20517,20521,20510,20511
201902080351,20512,20517,20507,20515
201902080352,20515,20522,20515,20522
201902080353,20522,20527,20520,20522
201902080354,20522,20527,20515,20522
201902080355,20522,20522,20515,20522
201902080356,20522,20522,20516,20520
201902080357,20520,20521,20511,20515
201902080358,20512,20532,20511,20531
201902080359,20531,20534,20520,20522
201902080400,20522,20522,20510,20512
201902080401,20512,20512,20505,20512
201902080402,20512,20519,20510,20512
201902080403,20512,20517,20510,20517
201902080404,20517,20517,20510,20517
201902080405,20517,20521,20511,20516
201902080406,20516,20521,20515,20516
201902080407,20514,20517,20510,20512
201902080408,20512,20512,20505,20512
201902080409,20512,20512,20505,20507
201902080410,20507,20508,20495,20497
201902080411,20497,20497,20487,20487
201902080412,20487,20492,20486,20489
201902080413,20489,20492,20488,20492
201902080414,20492,20497,20490,20492
201902080415,20492,20497,20486,20491
201902080416,20491,20497,20480,20485
201902080417,20485,20487,20455,20455
201902080418,20455,20467,20455,20467
201902080419,20467,20472,20464,20471
201902080420,20471,20477,20466,20476
201902080421,20476,20477,20470,20472
201902080422,20472,20477,20470,20472
201902080423,20472,20482,20471,20481
201902080424,20481,20482,20476,20479
201902080425,20479,20487,20477,20487
201902080426,20487,20487,20480,20487
201902080427,20487,20500,20485,20498
201902080428,20498,20506,20495,20506
201902080429,20506,20517,20506,20516
201902080430,20516,20520,20515,20517
201902080431,20517,20521,20515,20517
201902080432,20517,20517,20510,20512
201902080433,20512,20517,20510,20512
201902080434,20512,20514,20505,20514
201902080435,20514,20522,20512,20520
201902080436,20520,20522,20516,20517
201902080437,20517,20517,20506,20509
201902080438,20509,20512,20506,20507
201902080439,20507,20507,20500,20507
201902080440,20507,20507,20500,20507
201902080441,20507,20507,20500,20502
201902080442,20502,20507,20500,20506
201902080443,20506,20512,20504,20507
201902080444,20507,20507,20500,20502
201902080445,20502,20512,20501,20511
201902080446,20511,20517,20506,20506
201902080447,20506,20507,20500,20500
201902080448,20500,20502,20490,20497
201902080449,20497,20502,20492,20500
201902080450,20500,20504,20495,20497
201902080451,20497,20500,20490,20500
201902080452,20500,20507,20500,20507
201902080453,20507,20509,20501,20506
201902080454,20506,20509,20502,20507
201902080455,20507,20512,20505,20506
201902080456,20506,20512,20504,20505
201902080457,20505,20509,20501,20502
201902080458,20502,20507,20495,20497
201902080459,20497,20502,20495,20496
201902080500,20496,20512,20496,20507
201902080501,20507,20512,20507,20509
201902080502,20509,20510,20500,20502
201902080503,20502,20506,20500,20500
201902080504,20500,20502,20495,20495
201902080505,20495,20497,20490,20490
201902080506,20490,20499,20490,20497
201902080507,20497,20500,20496,20500
201902080508,20500,20507,20496,20506
201902080509,20506,20511,20504,20505
201902080510,20505,20507,20502,20502
201902080511,20502,20503,20495,20497
201902080512,20497,20502,20496,20502
201902080513,20502,20509,20500,20505
201902080514,20505,20511,20505,20507
201902080515,20507,20511,20505,20506
201902080516,20506,20511,20505,20507
201902080517,20507,20511,20506,20511
201902080518,20511,20511,20500,20502
201902080519,20502,20504,20500,20504
201902080520,20501,20508,20501,20501
201902080521,20501,20502,20495,20502
201902080522,20502,20507,20500,20501
201902080523,20501,20502,20495,20502
201902080524,20502,20502,20496,20501
201902080525,20501,20507,20496,20498
201902080526,20498,20503,20492,20500
201902080527,20500,20502,20498,20500
201902080528,20500,20502,20496,20501
201902080529,20501,20507,20497,20501
201902080530,20501,20507,20498,20504
201902080531,20504,20507,20495,20497
201902080532,20497,20497,20482,20486
201902080533,20486,20487,20482,20484
201902080534,20484,20487,20481,20486
201902080535,20486,20490,20486,20487
201902080536,20487,20489,20480,20484
201902080537,20484,20496,20484,20492
201902080538,20492,20497,20490,20496
201902080539,20496,20502,20495,20498
201902080540,20498,20510,20496,20508
201902080541,20508,20517,20508,20515
201902080542,20515,20537,20515,20537
201902080543,20537,20542,20531,20542
201902080544,20542,20544,20531,20532
201902080545,20532,20537,20525,20531
201902080546,20531,20532,20526,20527
201902080547,20527,20532,20522,20527
201902080548,20527,20527,20522,20526
201902080549,20526,20526,20520,20525
201902080550,20525,20537,20525,20534
201902080551,20534,20537,20527,20532
201902080552,20532,20532,20520,20525
201902080553,20525,20532,20522,20531
201902080554,20531,20535,20530,20531
201902080555,20531,20531,20521,20524
201902080556,20524,20532,20524,20527
201902080557,20527,20529,20525,20527
201902080558,20527,20527,20520,20527
201902080559,20527,20541,20525,20541
201902080600,20539,20542,20530,20536
201902080601,20536,20545,20536,20544
201902080602,20544,20544,20543,20544
201902080603,20544,20544,20541,20542
201902080604,20542,20543,20540,20541
201902080605,20541,20542,20540,20542
201902080606,20542,20542,20540,20540
201902080607,20540,20542,20540,20540
201902080608,20540,20545,20540,20541
201902080609,20541,20542,20540,20541
201902080610,20541,20542,20539,20541
201902080611,20541,20542,20540,20540
201902080612,20540,20540,20534,20537
201902080613,20537,20537,20532,20534
201902080614,20534,20537,20533,20537
201902080615,20536,20537,20534,20534
201902080616,20534,20534,20533,20533
201902080617,20533,20534,20533,20534
201902080618,20534,20534,20532,20532
201902080619,20532,20532,20532,20532
201902080620,20532,20534,20532,20534
201902080621,20534,20534,20533,20533
201902080622,20533,20533,20530,20531
201902080623,20531,20531,20525,20525
201902080624,20525,20525,20525,20525
201902080625,20525,20529,20525,20529
201902080626,20529,20530,20529,20530
201902080627,20530,20531,20530,20531
201902080628,20531,20531,20529,20530
201902080629,20530,20531,20530,20530
201902080630,20530,20530,20525,20525
201902080631,20525,20526,20525,20526
201902080632,20526,20528,20526,20528
201902080633,20528,20530,20527,20527
201902080634,20527,20527,20525,20525
201902080635,20525,20525,20525,20525
201902080636,20525,20526,20525,20526
201902080637,20526,20526,20526,20526
201902080638,20526,20526,20526,20526
201902080639,20525,20526,20521,20522
201902080640,20522,20522,20522,20522
201902080641,20522,20522,20522,20522
201902080642,20522,20525,20521,20525
201902080643,20525,20525,20525,20525
201902080644,20525,20525,20525,20525
201902080645,20525,20525,20525,20525
201902080646,20525,20525,20525,20525
201902080647,20525,20526,20525,20525
201902080648,20525,20526,20525,20526
201902080649,20526,20526,20520,20520
201902080650,20520,20521,20520,20521
201902080651,20521,20521,20520,20520
201902080652,20520,20520,20520,20520
201902080653,20520,20522,20520,20522
201902080654,20522,20524,20521,20523
201902080655,20523,20524,20520,20524
201902080656,20524,20524,20522,20522
201902080657,20522,20524,20521,20521
201902080658,20521,20522,20521,20521
201902080659,20521,20522,20518,20518
