日時,始値(BID),高値(BID),安値(BID),終値(BID)
201907030830,21673,21677,21672,21676
201907030831,21676,21677,21675,21675
201907030832,21675,21675,21670,21672
201907030833,21672,21672,21666,21669
201907030834,21669,21671,21669,21670
201907030835,21670,21672,21668,21670
201907030836,21670,21671,21666,21667
201907030837,21667,21667,21665,21666
201907030838,21666,21666,21657,21662
201907030839,21662,21662,21656,21657
201907030840,21657,21657,21647,21649
201907030841,21649,21650,21641,21642
201907030842,21642,21651,21642,21650
201907030843,21650,21650,21635,21637
201907030844,21637,21642,21636,21642
201907030845,21640,21649,21640,21646
201907030846,21646,21646,21640,21641
201907030847,21641,21646,21641,21646
201907030848,21646,21647,21641,21642
201907030849,21642,21646,21638,21646
201907030850,21646,21651,21645,21646
201907030851,21646,21651,21645,21651
201907030852,21651,21656,21651,21651
201907030853,21652,21652,21646,21647
201907030854,21647,21647,21646,21647
201907030855,21647,21647,21642,21642
201907030856,21642,21642,21642,21642
201907030857,21642,21642,21637,21637
201907030858,21637,21642,21636,21642
201907030859,21642,21662,21642,21661
201907030900,21658,21662,21641,21661
201907030901,21661,21661,21639,21642
201907030902,21642,21642,21627,21627
201907030903,21627,21636,21624,21635
201907030904,21634,21637,21626,21630
201907030905,21630,21631,21618,21618
201907030906,21619,21627,21617,21626
201907030907,21626,21632,21621,21627
201907030908,21627,21641,21627,21640
201907030909,21640,21650,21640,21649
201907030910,21650,21654,21645,21652
201907030911,21652,21667,21651,21661
201907030912,21661,21667,21656,21657
201907030913,21657,21657,21651,21652
201907030914,21651,21655,21651,21654
201907030915,21654,21656,21646,21651
201907030916,21651,21655,21647,21647
201907030917,21647,21647,21645,21647
201907030918,21647,21647,21641,21641
201907030919,21641,21642,21636,21636
201907030920,21636,21637,21631,21637
201907030921,21637,21646,21637,21638
201907030922,21638,21639,21632,21632
201907030923,21632,21632,21632,21632
201907030924,21632,21632,21623,21625
201907030925,21625,21632,21622,21632
201907030926,21632,21636,21632,21632
201907030927,21632,21632,21627,21627
201907030928,21627,21627,21627,21627
201907030929,21627,21627,21622,21624
201907030930,21624,21625,21622,21622
201907030931,21622,21627,21622,21624
201907030932,21624,21629,21624,21627
201907030933,21627,21632,21626,21632
201907030934,21632,21637,21632,21637
201907030935,21637,21637,21632,21632
201907030936,21632,21632,21631,21631
201907030937,21632,21632,21622,21622
201907030938,21622,21622,21622,21622
201907030939,21622,21632,21622,21632
201907030940,21632,21632,21631,21632
201907030941,21632,21632,21632,21632
201907030942,21632,21637,21632,21636
201907030943,21636,21642,21636,21642
201907030944,21642,21644,21635,21635
201907030945,21635,21641,21631,21632
201907030946,21632,21632,21622,21627
201907030947,21627,21627,21617,21617
201907030948,21617,21621,21615,21620
201907030949,21620,21622,21617,21622
201907030950,21622,21623,21617,21617
201907030951,21617,21619,21616,21617
201907030952,21617,21618,21614,21614
201907030953,21614,21620,21614,21620
201907030954,21618,21621,21618,21620
201907030955,21620,21621,21612,21612
201907030956,21612,21615,21612,21612
201907030957,21612,21613,21607,21607
201907030958,21607,21607,21599,21599
201907030959,21599,21601,21592,21595
201907031000,21594,21595,21589,21590
201907031001,21590,21592,21588,21592
201907031002,21592,21594,21591,21592
201907031003,21592,21605,21592,21604
201907031004,21604,21612,21603,21611
201907031005,21611,21615,21606,21613
201907031006,21614,21616,21613,21615
201907031007,21615,21616,21613,21615
201907031008,21615,21616,21612,21614
201907031009,21614,21619,21614,21617
201907031010,21617,21617,21616,21617
201907031011,21617,21622,21617,21621
201907031012,21621,21625,21621,21624
201907031013,21624,21625,21622,21622
201907031014,21622,21622,21616,21617
201907031015,21617,21617,21616,21617
201907031016,21617,21617,21612,21612
201907031017,21612,21617,21611,21611
201907031018,21611,21616,21611,21612
201907031019,21612,21612,21606,21608
201907031020,21607,21608,21596,21597
201907031021,21597,21597,21582,21589
201907031022,21589,21592,21586,21589
201907031023,21589,21594,21589,21592
201907031024,21592,21592,21586,21587
201907031025,21586,21591,21586,21591
201907031026,21591,21591,21587,21587
201907031027,21587,21587,21587,21587
201907031028,21587,21587,21587,21587
201907031029,21587,21592,21587,21592
201907031030,21591,21594,21587,21588
201907031031,21588,21589,21587,21587
201907031032,21587,21587,21582,21582
201907031033,21582,21584,21576,21576
201907031034,21576,21582,21576,21582
201907031035,21582,21595,21582,21592
201907031036,21592,21596,21587,21587
201907031037,21587,21589,21582,21589
201907031038,21589,21590,21581,21582
201907031039,21582,21584,21576,21584
201907031040,21583,21583,21577,21579
201907031041,21581,21589,21581,21589
201907031042,21588,21595,21586,21594
201907031043,21594,21596,21581,21582
201907031044,21582,21587,21582,21586
201907031045,21586,21586,21577,21577
201907031046,21577,21577,21572,21576
201907031047,21576,21585,21575,21583
201907031048,21584,21585,21575,21585
201907031049,21585,21586,21571,21572
201907031050,21572,21576,21571,21572
201907031051,21572,21572,21567,21570
201907031052,21570,21572,21562,21562
201907031053,21562,21567,21562,21567
201907031054,21567,21574,21567,21571
201907031055,21572,21581,21571,21580
201907031056,21580,21587,21576,21586
201907031057,21586,21590,21582,21583
201907031058,21583,21587,21578,21585
201907031059,21584,21586,21581,21581
201907031100,21581,21581,21572,21576
201907031101,21576,21587,21576,21583
201907031102,21583,21583,21576,21577
201907031103,21577,21581,21576,21578
201907031104,21579,21584,21576,21583
201907031105,21584,21591,21584,21590
201907031106,21590,21597,21589,21596
201907031107,21596,21599,21591,21599
201907031108,21599,21600,21596,21598
201907031109,21598,21599,21591,21592
201907031110,21592,21592,21586,21587
201907031111,21587,21587,21581,21584
201907031112,21584,21587,21582,21582
201907031113,21582,21587,21582,21587
201907031114,21587,21587,21586,21587
201907031115,21587,21587,21583,21583
201907031116,21583,21586,21581,21584
201907031117,21584,21592,21583,21590
201907031118,21590,21592,21586,21588
201907031119,21589,21594,21587,21594
201907031120,21594,21594,21586,21587
201907031121,21587,21587,21582,21582
201907031122,21582,21587,21582,21586
201907031123,21586,21587,21586,21587
201907031124,21587,21587,21582,21582
201907031125,21582,21582,21575,21575
201907031126,21575,21576,21567,21567
201907031127,21567,21567,21567,21567
201907031128,21567,21570,21562,21567
201907031129,21567,21571,21566,21570
201907031130,21571,21571,21566,21567
201907031131,21567,21567,21562,21567
201907031132,21567,21572,21566,21572
201907031133,21572,21572,21571,21572
201907031134,21572,21575,21572,21572
201907031135,21572,21572,21568,21570
201907031136,21570,21572,21568,21570
201907031137,21571,21571,21568,21569
201907031138,21569,21572,21567,21571
201907031139,21571,21572,21570,21570
201907031140,21568,21569,21566,21567
201907031141,21567,21567,21566,21567
201907031142,21567,21567,21563,21565
201907031143,21565,21565,21562,21562
201907031144,21562,21562,21562,21562
201907031145,21562,21562,21557,21559
201907031146,21559,21562,21559,21561
201907031147,21561,21567,21561,21564
201907031148,21564,21565,21561,21561
201907031149,21561,21566,21561,21564
201907031150,21564,21567,21564,21567
201907031151,21567,21567,21566,21567
201907031152,21567,21567,21561,21562
201907031153,21562,21563,21561,21563
201907031154,21563,21567,21561,21565
201907031155,21565,21567,21561,21562
201907031156,21562,21562,21557,21558
201907031157,21558,21562,21557,21561
201907031158,21561,21562,21560,21560
201907031159,21561,21562,21561,21562
201907031200,21562,21566,21562,21566
201907031201,21565,21567,21565,21567
201907031202,21567,21567,21567,21567
201907031203,21567,21571,21566,21567
201907031204,21567,21570,21567,21570
201907031205,21570,21576,21566,21576
201907031206,21576,21580,21575,21580
201907031207,21580,21583,21576,21577
201907031208,21577,21578,21576,21577
201907031209,21577,21577,21576,21577
201907031210,21577,21577,21571,21571
201907031211,21572,21577,21572,21576
201907031212,21576,21577,21576,21577
201907031213,21577,21577,21576,21577
201907031214,21577,21577,21572,21572
201907031215,21572,21572,21567,21567
201907031216,21567,21567,21567,21567
201907031217,21567,21567,21567,21567
201907031218,21567,21567,21566,21567
201907031219,21567,21567,21567,21567
201907031220,21567,21567,21562,21562
201907031221,21562,21562,21562,21562
201907031222,21562,21566,21562,21562
201907031223,21562,21562,21557,21557
201907031224,21557,21562,21557,21562
201907031225,21562,21562,21561,21562
201907031226,21562,21562,21561,21561
201907031227,21561,21562,21561,21561
201907031228,21561,21566,21561,21565
201907031229,21565,21565,21557,21557
201907031230,21557,21562,21557,21561
201907031231,21561,21562,21560,21562
201907031232,21562,21571,21561,21570
201907031233,21571,21577,21571,21577
201907031234,21577,21581,21577,21581
201907031235,21581,21581,21577,21577
201907031236,21577,21577,21571,21573
201907031237,21574,21577,21572,21572
201907031238,21572,21577,21572,21575
201907031239,21575,21576,21575,21575
201907031240,21576,21576,21571,21575
201907031241,21575,21575,21571,21572
201907031242,21572,21572,21572,21572
201907031243,21572,21577,21572,21577
201907031244,21577,21577,21577,21577
201907031245,21577,21577,21567,21567
201907031246,21567,21567,21567,21567
201907031247,21570,21577,21570,21577
201907031248,21577,21577,21575,21577
201907031249,21577,21578,21576,21577
201907031250,21577,21577,21577,21577
201907031251,21577,21582,21577,21582
201907031252,21582,21582,21581,21581
201907031253,21581,21582,21580,21581
201907031254,21581,21581,21576,21577
201907031255,21577,21577,21575,21576
201907031256,21576,21578,21576,21577
201907031257,21577,21580,21574,21575
201907031258,21575,21576,21575,21576
201907031259,21576,21576,21573,21574
201907031300,21574,21574,21573,21573
201907031301,21573,21574,21566,21566
201907031302,21567,21567,21566,21567
201907031303,21567,21568,21567,21567
201907031304,21567,21567,21567,21567
201907031305,21567,21567,21567,21567
201907031306,21567,21567,21567,21567
201907031307,21567,21571,21567,21571
201907031308,21571,21571,21570,21570
201907031309,21570,21571,21570,21570
201907031310,21570,21571,21567,21567
201907031311,21567,21567,21566,21567
201907031312,21567,21567,21562,21562
201907031313,21562,21567,21562,21567
201907031314,21567,21567,21564,21565
201907031315,21565,21566,21562,21562
201907031316,21562,21562,21556,21557
201907031317,21557,21559,21552,21552
201907031318,21552,21552,21541,21547
201907031319,21547,21549,21542,21542
201907031320,21542,21545,21536,21545
201907031321,21545,21545,21538,21540
201907031322,21540,21540,21532,21536
201907031323,21537,21537,21537,21537
201907031324,21537,21537,21532,21535
201907031325,21535,21536,21526,21529
201907031326,21529,21535,21527,21534
201907031327,21534,21541,21534,21541
201907031328,21541,21542,21536,21537
201907031329,21537,21541,21537,21540
201907031330,21540,21541,21536,21537
201907031331,21537,21540,21537,21539
201907031332,21539,21539,21532,21532
201907031333,21532,21536,21532,21536
201907031334,21536,21542,21536,21540
201907031335,21540,21541,21537,21537
201907031336,21537,21542,21537,21541
201907031337,21542,21542,21541,21542
201907031338,21542,21542,21542,21542
201907031339,21542,21546,21542,21546
201907031340,21546,21546,21541,21542
201907031341,21542,21542,21542,21542
201907031342,21542,21542,21538,21538
201907031343,21538,21541,21536,21541
201907031344,21541,21542,21540,21542
201907031345,21542,21545,21542,21542
201907031346,21542,21542,21542,21542
201907031347,21542,21542,21542,21542
201907031348,21542,21542,21541,21541
201907031349,21539,21542,21539,21541
201907031350,21541,21542,21540,21541
201907031351,21541,21542,21541,21542
201907031352,21541,21546,21541,21542
201907031353,21542,21545,21542,21544
201907031354,21545,21547,21545,21547
201907031355,21547,21548,21546,21546
201907031356,21546,21547,21546,21546
201907031357,21546,21547,21542,21545
201907031358,21545,21546,21544,21546
201907031359,21546,21547,21544,21546
201907031400,21546,21546,21542,21542
201907031401,21542,21545,21542,21543
201907031402,21543,21545,21542,21545
201907031403,21545,21545,21542,21542
201907031404,21542,21545,21542,21545
201907031405,21545,21546,21542,21542
201907031406,21542,21542,21542,21542
201907031407,21542,21542,21542,21542
201907031408,21542,21546,21542,21546
201907031409,21546,21547,21545,21547
201907031410,21547,21552,21546,21552
201907031411,21552,21552,21552,21552
201907031412,21552,21559,21552,21557
201907031413,21556,21566,21556,21566
201907031414,21566,21566,21565,21565
201907031415,21565,21566,21561,21562
201907031416,21562,21566,21561,21566
201907031417,21566,21568,21566,21567
201907031418,21567,21567,21558,21560
201907031419,21560,21561,21557,21561
201907031420,21561,21562,21560,21562
201907031421,21562,21562,21562,21562
201907031422,21562,21564,21562,21562
201907031423,21562,21562,21556,21557
201907031424,21557,21557,21557,21557
201907031425,21557,21557,21557,21557
201907031426,21557,21557,21557,21557
201907031427,21557,21561,21557,21560
201907031428,21560,21562,21560,21561
201907031429,21561,21562,21560,21560
201907031430,21561,21562,21557,21559
201907031431,21559,21561,21556,21556
201907031432,21556,21559,21556,21557
201907031433,21557,21559,21556,21559
201907031434,21559,21559,21557,21557
201907031435,21557,21560,21556,21559
201907031436,21560,21562,21557,21562
201907031437,21562,21562,21561,21561
201907031438,21561,21562,21561,21562
201907031439,21562,21566,21562,21565
201907031440,21565,21567,21565,21567
201907031441,21567,21570,21567,21570
201907031442,21570,21571,21567,21567
201907031443,21567,21567,21567,21567
201907031444,21567,21570,21567,21569
201907031445,21570,21570,21563,21567
201907031446,21567,21569,21566,21568
201907031447,21568,21571,21567,21570
201907031448,21570,21570,21569,21570
201907031449,21570,21571,21570,21570
201907031450,21570,21571,21570,21571
201907031451,21571,21575,21571,21573
201907031452,21573,21575,21572,21574
201907031453,21575,21581,21575,21577
201907031454,21577,21578,21577,21577
201907031455,21577,21577,21572,21572
201907031456,21572,21572,21571,21571
201907031457,21571,21575,21571,21574
201907031458,21576,21580,21576,21580
201907031459,21580,21586,21577,21577
201907031500,21581,21590,21577,21577
201907031501,21581,21582,21577,21577
201907031502,21577,21580,21577,21577
201907031503,21577,21577,21572,21572
201907031504,21572,21572,21568,21570
201907031505,21569,21571,21565,21565
201907031506,21565,21565,21555,21555
201907031507,21555,21562,21555,21562
201907031508,21561,21570,21561,21565
201907031509,21565,21566,21561,21562
201907031510,21562,21572,21560,21572
201907031511,21572,21582,21571,21582
201907031512,21582,21582,21576,21581
201907031513,21581,21582,21580,21582
201907031514,21582,21590,21582,21587
201907031515,21587,21590,21585,21585
201907031516,21585,21587,21585,21586
201907031517,21586,21587,21585,21587
201907031518,21587,21587,21585,21586
201907031519,21586,21587,21585,21587
201907031520,21587,21590,21584,21584
201907031521,21584,21586,21584,21586
201907031522,21586,21586,21581,21581
201907031523,21581,21584,21580,21582
201907031524,21582,21582,21580,21581
201907031525,21580,21582,21580,21581
201907031526,21581,21581,21576,21576
201907031527,21576,21581,21575,21576
201907031528,21576,21577,21576,21576
201907031529,21576,21580,21575,21578
201907031530,21578,21581,21576,21580
201907031531,21580,21582,21578,21578
201907031532,21578,21580,21566,21567
201907031533,21567,21567,21565,21567
201907031534,21567,21572,21566,21566
201907031535,21566,21572,21566,21572
201907031536,21572,21573,21571,21572
201907031537,21572,21572,21570,21571
201907031538,21571,21571,21566,21566
201907031539,21566,21576,21566,21572
201907031540,21572,21572,21571,21572
201907031541,21572,21577,21571,21577
201907031542,21577,21577,21572,21572
201907031543,21572,21575,21572,21575
201907031544,21575,21577,21574,21576
201907031545,21576,21577,21576,21577
201907031546,21577,21577,21577,21577
201907031547,21577,21582,21575,21577
201907031548,21577,21577,21571,21571
201907031549,21571,21574,21570,21573
201907031550,21573,21576,21573,21574
201907031551,21574,21576,21574,21576
201907031552,21576,21576,21576,21576
201907031553,21576,21577,21571,21572
201907031554,21572,21577,21571,21577
201907031555,21578,21578,21572,21576
201907031556,21576,21576,21575,21576
201907031557,21576,21576,21575,21576
201907031558,21576,21576,21575,21575
201907031559,21575,21586,21575,21580
201907031600,21580,21586,21580,21582
201907031601,21582,21582,21581,21581
201907031602,21581,21582,21581,21581
201907031603,21581,21582,21581,21582
201907031604,21582,21592,21581,21591
201907031605,21590,21592,21590,21591
201907031606,21591,21592,21591,21591
201907031607,21591,21592,21589,21591
201907031608,21591,21591,21589,21589
201907031609,21589,21591,21585,21586
201907031610,21586,21587,21582,21585
201907031611,21585,21591,21585,21589
201907031612,21589,21596,21589,21596
201907031613,21596,21596,21590,21594
201907031614,21594,21597,21590,21592
201907031615,21592,21600,21590,21598
201907031616,21598,21606,21598,21601
201907031617,21601,21607,21600,21607
201907031618,21607,21607,21598,21601
201907031619,21601,21603,21600,21600
201907031620,21600,21602,21600,21602
201907031621,21602,21602,21597,21601
201907031622,21601,21602,21600,21602
201907031623,21602,21602,21601,21602
201907031624,21602,21604,21600,21602
201907031625,21602,21606,21601,21602
201907031626,21602,21602,21602,21602
201907031627,21602,21606,21601,21605
201907031628,21605,21617,21605,21612
201907031629,21612,21612,21611,21612
201907031630,21615,21616,21611,21615
201907031631,21616,21616,21615,21615
201907031632,21615,21617,21615,21617
201907031633,21617,21619,21616,21617
201907031634,21617,21626,21617,21625
201907031635,21626,21627,21626,21627
201907031636,21627,21627,21617,21617
201907031637,21617,21621,21617,21621
201907031638,21620,21621,21615,21616
201907031639,21616,21616,21612,21612
201907031640,21612,21616,21612,21615
201907031641,21615,21615,21611,21612
201907031642,21612,21615,21611,21615
201907031643,21615,21615,21612,21615
201907031644,21615,21615,21613,21615
201907031645,21615,21621,21614,21620
201907031646,21620,21621,21620,21621
201907031647,21621,21627,21620,21627
201907031648,21626,21630,21626,21630
201907031649,21630,21632,21630,21631
201907031650,21631,21632,21630,21632
201907031651,21631,21632,21626,21627
201907031652,21627,21631,21626,21631
201907031653,21631,21631,21630,21631
201907031654,21631,21632,21630,21631
201907031655,21631,21632,21631,21631
201907031656,21631,21636,21631,21636
201907031657,21636,21637,21635,21637
201907031658,21637,21642,21637,21642
201907031659,21642,21642,21635,21641
201907031700,21641,21641,21640,21641
201907031701,21641,21641,21641,21641
201907031702,21641,21641,21641,21641
201907031703,21641,21641,21641,21641
201907031704,21641,21641,21640,21640
201907031705,21640,21647,21640,21642
201907031706,21642,21647,21642,21647
201907031707,21648,21651,21646,21651
201907031708,21651,21651,21647,21651
201907031709,21651,21652,21647,21647
201907031710,21647,21655,21646,21655
201907031711,21655,21656,21652,21652
201907031712,21652,21652,21652,21652
201907031713,21652,21652,21651,21651
201907031714,21651,21652,21647,21647
201907031715,21647,21647,21646,21647
201907031716,21647,21651,21646,21651
201907031717,21651,21652,21651,21652
201907031718,21652,21652,21651,21651
201907031719,21651,21651,21646,21647
201907031720,21647,21647,21642,21645
201907031721,21645,21646,21642,21642
201907031722,21642,21642,21642,21642
201907031723,21642,21646,21641,21646
201907031724,21645,21646,21645,21645
201907031725,21645,21646,21642,21642
201907031726,21642,21644,21642,21644
201907031727,21644,21645,21643,21644
201907031728,21645,21646,21643,21643
201907031729,21643,21645,21642,21642
201907031730,21642,21642,21636,21637
201907031731,21637,21644,21636,21642
201907031732,21642,21642,21641,21642
201907031733,21642,21645,21640,21644
201907031734,21644,21650,21644,21648
201907031735,21648,21649,21646,21648
201907031736,21648,21651,21646,21651
201907031737,21651,21654,21651,21654
201907031738,21654,21655,21654,21655
201907031739,21655,21657,21655,21657
201907031740,21657,21657,21656,21656
201907031741,21656,21656,21652,21652
201907031742,21652,21652,21652,21652
201907031743,21652,21652,21651,21651
201907031744,21651,21660,21651,21659
201907031745,21659,21660,21657,21657
201907031746,21657,21657,21656,21656
201907031747,21656,21657,21656,21657
201907031748,21657,21659,21656,21656
201907031749,21656,21656,21656,21656
201907031750,21656,21657,21656,21656
201907031751,21656,21657,21656,21657
201907031752,21657,21661,21657,21659
201907031753,21659,21661,21657,21657
201907031754,21657,21660,21657,21660
201907031755,21660,21665,21660,21662
201907031756,21662,21662,21662,21662
201907031757,21662,21662,21662,21662
201907031758,21662,21662,21662,21662
201907031759,21662,21662,21662,21662
201907031800,21662,21662,21662,21662
201907031801,21662,21662,21662,21662
201907031802,21662,21664,21662,21662
201907031803,21662,21665,21662,21665
201907031804,21665,21665,21664,21665
201907031805,21665,21665,21662,21662
201907031806,21662,21662,21662,21662
201907031807,21662,21664,21662,21664
201907031808,21664,21664,21662,21662
201907031809,21662,21662,21662,21662
201907031810,21662,21662,21662,21662
201907031811,21662,21662,21662,21662
201907031812,21662,21662,21662,21662
201907031813,21662,21664,21661,21664
201907031814,21664,21664,21662,21664
201907031815,21664,21664,21657,21661
201907031816,21661,21661,21660,21661
201907031817,21661,21661,21659,21660
201907031818,21660,21661,21660,21660
201907031819,21660,21660,21659,21660
201907031820,21660,21661,21660,21660
201907031821,21660,21660,21659,21660
201907031822,21660,21660,21657,21657
201907031823,21657,21660,21656,21659
201907031824,21659,21660,21659,21659
201907031825,21659,21661,21659,21661
201907031826,21661,21661,21660,21660
201907031827,21660,21660,21659,21659
201907031828,21659,21661,21659,21660
201907031829,21660,21661,21656,21657
201907031830,21657,21659,21656,21656
201907031831,21656,21657,21656,21656
201907031832,21656,21657,21656,21656
201907031833,21656,21656,21655,21656
201907031834,21656,21656,21652,21652
201907031835,21652,21652,21651,21651
201907031836,21651,21652,21651,21651
201907031837,21651,21651,21647,21650
201907031838,21650,21650,21650,21650
201907031839,21650,21650,21650,21650
201907031840,21650,21650,21650,21650
201907031841,21650,21651,21650,21650
201907031842,21651,21651,21650,21651
201907031843,21651,21651,21651,21651
201907031844,21651,21651,21651,21651
201907031845,21651,21651,21651,21651
201907031846,21651,21651,21647,21647
201907031847,21647,21647,21641,21642
201907031848,21642,21642,21642,21642
201907031849,21642,21645,21642,21645
201907031850,21644,21649,21644,21647
201907031851,21647,21647,21647,21647
201907031852,21647,21647,21647,21647
201907031853,21647,21647,21641,21646
201907031854,21646,21647,21642,21646
201907031855,21646,21647,21646,21646
201907031856,21646,21649,21646,21648
201907031857,21648,21650,21647,21649
201907031858,21649,21650,21648,21650
201907031859,21650,21651,21649,21651
201907031900,21651,21651,21647,21647
201907031901,21647,21647,21647,21647
201907031902,21647,21647,21647,21647
201907031903,21647,21647,21647,21647
201907031904,21647,21649,21647,21649
201907031905,21649,21649,21647,21649
201907031906,21649,21649,21647,21647
201907031907,21647,21650,21646,21650
201907031908,21650,21650,21649,21650
201907031909,21650,21650,21649,21649
201907031910,21650,21650,21646,21648
201907031911,21648,21649,21647,21647
201907031912,21647,21647,21647,21647
201907031913,21647,21649,21647,21647
201907031914,21647,21648,21646,21647
201907031915,21647,21647,21647,21647
201907031916,21647,21650,21647,21649
201907031917,21649,21650,21649,21649
201907031918,21649,21650,21647,21647
201907031919,21647,21647,21647,21647
201907031920,21647,21647,21647,21647
201907031921,21647,21648,21647,21647
201907031922,21647,21647,21642,21642
201907031923,21642,21644,21641,21642
201907031924,21642,21646,21642,21646
201907031925,21646,21646,21641,21642
201907031926,21642,21642,21642,21642
201907031927,21642,21642,21637,21639
201907031928,21640,21641,21637,21640
201907031929,21640,21643,21640,21642
201907031930,21642,21642,21641,21642
201907031931,21642,21642,21641,21642
201907031932,21642,21642,21641,21642
201907031933,21642,21642,21642,21642
201907031934,21642,21642,21642,21642
201907031935,21642,21642,21641,21642
201907031936,21642,21642,21641,21642
201907031937,21642,21642,21640,21642
201907031938,21642,21642,21642,21642
201907031939,21642,21642,21641,21642
201907031940,21642,21642,21642,21642
201907031941,21642,21642,21642,21642
201907031942,21642,21642,21642,21642
201907031943,21642,21642,21641,21641
201907031944,21641,21642,21641,21641
201907031945,21641,21642,21641,21642
201907031946,21642,21642,21642,21642
201907031947,21642,21642,21642,21642
201907031948,21642,21642,21642,21642
201907031949,21642,21642,21642,21642
201907031950,21642,21642,21642,21642
201907031951,21642,21642,21642,21642
201907031952,21642,21642,21637,21637
201907031953,21637,21641,21637,21641
201907031954,21641,21642,21638,21639
201907031955,21639,21641,21639,21640
201907031956,21640,21640,21637,21637
201907031957,21637,21637,21637,21637
201907031958,21637,21637,21637,21637
201907031959,21637,21637,21637,21637
201907032000,21637,21640,21637,21639
201907032001,21639,21649,21639,21647
201907032002,21647,21647,21647,21647
201907032003,21647,21647,21644,21646
201907032004,21646,21647,21646,21646
201907032005,21646,21647,21646,21647
201907032006,21647,21647,21647,21647
201907032007,21647,21647,21647,21647
201907032008,21647,21651,21647,21651
201907032009,21651,21652,21651,21652
201907032010,21652,21654,21652,21652
201907032011,21652,21655,21652,21652
201907032012,21652,21652,21652,21652
201907032013,21652,21655,21651,21654
201907032014,21654,21656,21654,21656
201907032015,21656,21656,21652,21655
201907032016,21655,21655,21655,21655
201907032017,21655,21655,21652,21652
201907032018,21652,21655,21652,21654
201907032019,21654,21654,21653,21654
201907032020,21654,21655,21654,21654
201907032021,21652,21652,21648,21648
201907032022,21648,21654,21646,21652
201907032023,21652,21652,21652,21652
201907032024,21652,21652,21651,21651
201907032025,21651,21652,21649,21651
201907032026,21651,21651,21647,21651
201907032027,21651,21652,21651,21652
201907032028,21652,21652,21652,21652
201907032029,21652,21652,21652,21652
201907032030,21652,21652,21652,21652
201907032031,21652,21652,21647,21647
201907032032,21647,21649,21647,21649
201907032033,21648,21651,21648,21649
201907032034,21649,21650,21649,21649
201907032035,21649,21654,21649,21652
201907032036,21652,21652,21646,21647
201907032037,21647,21647,21647,21647
201907032038,21647,21647,21647,21647
201907032039,21647,21647,21647,21647
201907032040,21647,21647,21647,21647
201907032041,21647,21647,21647,21647
201907032042,21647,21649,21646,21647
201907032043,21647,21647,21647,21647
201907032044,21647,21647,21647,21647
201907032045,21647,21647,21647,21647
201907032046,21647,21647,21647,21647
201907032047,21647,21647,21642,21642
201907032048,21642,21647,21642,21646
201907032049,21646,21647,21646,21646
201907032050,21646,21647,21642,21642
201907032051,21642,21642,21642,21642
201907032052,21642,21642,21642,21642
201907032053,21642,21642,21642,21642
201907032054,21642,21642,21642,21642
201907032055,21642,21646,21641,21644
201907032056,21644,21646,21644,21646
201907032057,21646,21646,21645,21646
201907032058,21646,21646,21641,21643
201907032059,21643,21649,21641,21647
201907032100,21647,21652,21646,21652
201907032101,21652,21652,21651,21652
201907032102,21652,21654,21651,21653
201907032103,21653,21655,21653,21655
201907032104,21655,21656,21655,21656
201907032105,21656,21656,21656,21656
201907032106,21656,21656,21656,21656
201907032107,21656,21660,21656,21660
201907032108,21660,21661,21660,21660
201907032109,21660,21660,21656,21657
201907032110,21657,21657,21656,21656
201907032111,21656,21657,21656,21657
201907032112,21657,21657,21656,21657
201907032113,21656,21657,21656,21657
201907032114,21657,21657,21656,21657
201907032115,21657,21657,21640,21652
201907032116,21652,21653,21651,21652
201907032117,21652,21652,21647,21647
201907032118,21647,21652,21646,21646
201907032119,21646,21651,21646,21651
201907032120,21651,21655,21651,21655
201907032121,21655,21655,21651,21655
201907032122,21655,21655,21651,21652
201907032123,21652,21652,21652,21652
201907032124,21652,21652,21651,21652
201907032125,21652,21652,21651,21652
201907032126,21652,21652,21646,21647
201907032127,21647,21647,21647,21647
201907032128,21647,21651,21646,21650
201907032129,21650,21652,21650,21652
201907032130,21652,21652,21651,21652
201907032131,21652,21652,21650,21651
201907032132,21651,21652,21646,21650
201907032133,21651,21652,21646,21650
201907032134,21650,21652,21646,21647
201907032135,21647,21651,21646,21648
201907032136,21649,21652,21646,21651
201907032137,21651,21652,21650,21650
201907032138,21650,21651,21649,21650
201907032139,21650,21651,21650,21650
201907032140,21650,21654,21650,21652
201907032141,21652,21652,21647,21647
201907032142,21647,21651,21647,21647
201907032143,21647,21647,21641,21646
201907032144,21646,21649,21646,21647
201907032145,21647,21655,21646,21654
201907032146,21654,21654,21651,21654
201907032147,21654,21659,21654,21657
201907032148,21657,21659,21656,21657
201907032149,21657,21657,21656,21657
201907032150,21657,21659,21653,21657
201907032151,21657,21657,21656,21656
201907032152,21656,21657,21653,21656
201907032153,21656,21656,21652,21652
201907032154,21652,21654,21652,21654
201907032155,21654,21655,21653,21653
201907032156,21653,21655,21653,21655
201907032157,21655,21655,21652,21655
201907032158,21654,21655,21653,21655
201907032159,21655,21656,21654,21655
201907032200,21655,21659,21654,21657
201907032201,21657,21659,21657,21657
201907032202,21657,21658,21656,21657
201907032203,21657,21657,21657,21657
201907032204,21657,21659,21657,21659
201907032205,21659,21660,21657,21657
201907032206,21657,21660,21657,21660
201907032207,21660,21660,21657,21657
201907032208,21657,21660,21657,21660
201907032209,21660,21660,21660,21660
201907032210,21660,21660,21657,21657
201907032211,21657,21657,21657,21657
201907032212,21657,21657,21652,21656
201907032213,21656,21657,21656,21656
201907032214,21656,21656,21656,21656
201907032215,21656,21656,21654,21656
201907032216,21656,21656,21655,21656
201907032217,21656,21656,21655,21656
201907032218,21656,21660,21656,21660
201907032219,21660,21660,21659,21659
201907032220,21659,21660,21657,21657
201907032221,21657,21659,21657,21659
201907032222,21659,21660,21657,21657
201907032223,21657,21657,21657,21657
201907032224,21657,21657,21655,21655
201907032225,21655,21655,21652,21652
201907032226,21652,21652,21652,21652
201907032227,21652,21652,21652,21652
201907032228,21652,21656,21647,21656
201907032229,21656,21656,21651,21652
201907032230,21652,21656,21646,21647
201907032231,21647,21653,21647,21647
201907032232,21647,21652,21645,21652
201907032233,21652,21656,21646,21647
201907032234,21647,21651,21641,21642
201907032235,21642,21647,21641,21647
201907032236,21646,21649,21646,21647
201907032237,21648,21649,21646,21647
201907032238,21647,21650,21646,21647
201907032239,21647,21647,21642,21646
201907032240,21646,21649,21642,21646
201907032241,21646,21647,21641,21642
201907032242,21642,21647,21641,21644
201907032243,21645,21645,21641,21641
201907032244,21641,21645,21641,21642
201907032245,21642,21646,21641,21642
201907032246,21642,21644,21641,21642
201907032247,21642,21650,21641,21649
201907032248,21649,21650,21647,21647
201907032249,21647,21647,21642,21645
201907032250,21645,21645,21641,21645
201907032251,21645,21645,21641,21642
201907032252,21642,21642,21636,21642
201907032253,21641,21645,21641,21645
201907032254,21645,21645,21643,21644
201907032255,21644,21651,21644,21649
201907032256,21649,21651,21646,21650
201907032257,21649,21651,21647,21649
201907032258,21649,21650,21649,21649
201907032259,21649,21649,21645,21647
201907032300,21647,21649,21642,21646
201907032301,21646,21647,21644,21647
201907032302,21647,21649,21647,21647
201907032303,21647,21649,21647,21649
201907032304,21649,21649,21642,21644
201907032305,21644,21645,21642,21642
201907032306,21642,21644,21641,21642
201907032307,21642,21645,21642,21645
201907032308,21645,21645,21643,21644
201907032309,21644,21645,21644,21645
201907032310,21645,21645,21641,21642
201907032311,21642,21645,21642,21642
201907032312,21642,21642,21637,21642
201907032313,21642,21642,21639,21641
201907032314,21642,21645,21641,21645
201907032315,21644,21645,21643,21645
201907032316,21645,21650,21645,21645
201907032317,21645,21652,21645,21650
201907032318,21650,21654,21650,21651
201907032319,21651,21653,21651,21652
201907032320,21652,21654,21651,21652
201907032321,21652,21655,21647,21649
201907032322,21648,21651,21648,21650
201907032323,21650,21651,21649,21651
201907032324,21651,21654,21651,21652
201907032325,21652,21653,21651,21652
201907032326,21652,21654,21652,21654
201907032327,21654,21657,21654,21657
201907032328,21657,21657,21656,21657
201907032329,21657,21657,21656,21657
201907032330,21657,21657,21656,21656
201907032331,21657,21657,21651,21652
201907032332,21652,21657,21652,21657
201907032333,21657,21657,21656,21657
201907032334,21657,21657,21652,21652
201907032335,21652,21657,21651,21657
201907032336,21657,21659,21656,21659
201907032337,21659,21660,21656,21657
201907032338,21657,21660,21655,21660
201907032339,21660,21664,21659,21662
201907032340,21662,21665,21661,21665
201907032341,21665,21667,21665,21666
201907032342,21666,21667,21665,21667
201907032343,21667,21667,21666,21666
201907032344,21666,21666,21666,21666
201907032345,21666,21666,21661,21662
201907032346,21662,21662,21661,21661
201907032347,21661,21662,21660,21662
201907032348,21662,21662,21661,21662
201907032349,21662,21662,21661,21661
201907032350,21661,21662,21661,21662
201907032351,21662,21662,21661,21662
201907032352,21661,21664,21661,21662
201907032353,21662,21666,21662,21664
201907032354,21664,21665,21663,21665
201907032355,21665,21665,21662,21665
201907032356,21665,21667,21663,21663
201907032357,21663,21665,21661,21665
201907032358,21665,21667,21664,21666
201907032359,21665,21667,21665,21665
201907040000,21665,21667,21663,21667
201907040001,21667,21672,21666,21671
201907040002,21671,21671,21667,21671
201907040003,21671,21672,21671,21671
201907040004,21671,21672,21667,21669
201907040005,21669,21671,21666,21667
201907040006,21667,21667,21661,21662
201907040007,21662,21666,21662,21664
201907040008,21664,21666,21663,21665
201907040009,21665,21666,21661,21665
201907040010,21665,21666,21665,21666
201907040011,21666,21666,21664,21664
201907040012,21664,21665,21662,21662
201907040013,21662,21665,21662,21662
201907040014,21662,21662,21662,21662
201907040015,21662,21662,21662,21662
201907040016,21662,21666,21662,21665
201907040017,21664,21666,21664,21665
201907040018,21665,21666,21662,21663
201907040019,21663,21666,21662,21663
201907040020,21664,21665,21662,21662
201907040021,21662,21662,21661,21662
201907040022,21662,21662,21661,21661
201907040023,21661,21662,21661,21662
201907040024,21662,21664,21662,21662
201907040025,21662,21666,21662,21666
201907040026,21665,21671,21665,21666
201907040027,21667,21670,21666,21669
201907040028,21669,21670,21666,21667
201907040029,21667,21671,21666,21668
201907040030,21667,21667,21667,21667
201907040031,21667,21671,21664,21671
201907040032,21671,21675,21671,21675
201907040033,21675,21676,21674,21676
201907040034,21676,21676,21676,21676
201907040035,21676,21677,21672,21672
201907040036,21672,21676,21672,21674
201907040037,21674,21676,21674,21675
201907040038,21675,21676,21675,21675
201907040039,21675,21676,21675,21676
201907040040,21676,21679,21676,21677
201907040041,21677,21681,21677,21680
201907040042,21680,21681,21680,21680
201907040043,21680,21681,21680,21680
201907040044,21680,21681,21680,21681
201907040045,21681,21682,21680,21681
201907040046,21681,21682,21681,21682
201907040047,21682,21686,21681,21685
201907040048,21685,21686,21682,21682
201907040049,21682,21682,21681,21682
201907040050,21682,21682,21676,21677
201907040051,21677,21677,21677,21677
201907040052,21677,21680,21677,21677
201907040053,21677,21678,21677,21677
201907040054,21677,21680,21677,21680
201907040055,21680,21681,21676,21677
201907040056,21677,21677,21677,21677
201907040057,21677,21679,21677,21677
201907040058,21677,21677,21677,21677
201907040059,21677,21677,21676,21677
201907040100,21677,21678,21676,21677
201907040101,21677,21677,21677,21677
201907040102,21677,21679,21677,21677
201907040103,21677,21677,21677,21677
201907040104,21677,21677,21677,21677
201907040105,21677,21677,21677,21677
201907040106,21677,21677,21677,21677
201907040107,21677,21677,21677,21677
201907040108,21677,21677,21677,21677
201907040109,21677,21677,21672,21672
201907040110,21672,21676,21672,21676
201907040111,21676,21676,21675,21676
201907040112,21676,21677,21676,21677
201907040113,21677,21677,21677,21677
201907040114,21677,21677,21676,21676
201907040115,21676,21677,21676,21676
201907040116,21676,21677,21676,21676
201907040117,21676,21677,21676,21677
201907040118,21677,21681,21677,21679
201907040119,21679,21681,21678,21679
201907040120,21679,21679,21676,21676
201907040121,21676,21677,21676,21677
201907040122,21677,21679,21676,21678
201907040123,21679,21679,21677,21677
201907040124,21677,21677,21677,21677
201907040125,21677,21677,21677,21677
201907040126,21677,21677,21677,21677
201907040127,21677,21677,21677,21677
201907040128,21677,21681,21676,21676
201907040129,21677,21678,21677,21677
201907040130,21677,21680,21677,21680
201907040131,21680,21681,21680,21680
201907040132,21680,21680,21677,21677
201907040133,21677,21677,21677,21677
201907040134,21677,21677,21676,21677
201907040135,21677,21677,21676,21677
201907040136,21677,21677,21677,21677
201907040137,21677,21677,21677,21677
201907040138,21677,21677,21677,21677
201907040139,21677,21677,21677,21677
201907040140,21677,21677,21677,21677
201907040141,21677,21680,21677,21680
201907040142,21680,21680,21676,21676
201907040143,21676,21677,21676,21676
201907040144,21676,21677,21676,21676
201907040145,21676,21677,21672,21675
201907040146,21674,21675,21672,21674
201907040147,21674,21675,21673,21674
201907040148,21674,21676,21673,21673
201907040149,21673,21676,21673,21674
201907040150,21674,21678,21674,21677
201907040151,21678,21678,21676,21677
201907040152,21677,21677,21676,21677
201907040153,21677,21677,21676,21676
201907040154,21676,21676,21671,21672
201907040155,21672,21677,21672,21676
201907040156,21676,21679,21675,21679
201907040157,21678,21681,21678,21679
201907040158,21679,21681,21678,21679
201907040159,21679,21687,21679,21686
201907040200,21687,21689,21684,21689
201907040201,21689,21689,21686,21687
201907040202,21687,21689,21685,21689
201907040203,21689,21690,21685,21687
201907040204,21687,21687,21685,21687
201907040205,21687,21687,21684,21687
201907040206,21687,21687,21685,21687
201907040207,21687,21690,21686,21689
201907040208,21689,21689,21686,21687
201907040209,21687,21689,21685,21689
201907040210,21689,21690,21686,21690
201907040211,21690,21691,21690,21691
201907040212,21691,21691,21690,21690
201907040213,21690,21690,21685,21690
201907040214,21689,21692,21686,21691
201907040215,21691,21692,21691,21692
201907040216,21692,21692,21692,21692
201907040217,21692,21692,21692,21692
201907040218,21692,21692,21692,21692
201907040219,21692,21692,21691,21692
201907040220,21692,21692,21692,21692
201907040221,21692,21692,21692,21692
201907040222,21692,21692,21692,21692
201907040223,21692,21692,21692,21692
201907040224,21692,21692,21692,21692
201907040225,21692,21692,21692,21692
201907040226,21692,21692,21692,21692
201907040227,21692,21692,21692,21692
201907040228,21692,21692,21692,21692
201907040229,21692,21692,21692,21692
201907040230,21692,21692,21692,21692
201907040231,21692,21692,21692,21692
201907040232,21692,21692,21692,21692
201907040233,21692,21692,21692,21692
201907040234,21692,21692,21692,21692
201907040235,21692,21692,21692,21692
201907040236,21692,21692,21692,21692
201907040237,21692,21692,21692,21692
201907040238,21692,21692,21692,21692
201907040239,21692,21692,21691,21692
201907040240,21692,21692,21692,21692
201907040241,21692,21692,21692,21692
201907040242,21692,21692,21691,21692
201907040243,21692,21692,21692,21692
201907040244,21692,21692,21692,21692
201907040245,21692,21694,21691,21694
201907040246,21694,21695,21694,21695
201907040247,21695,21696,21695,21696
201907040248,21696,21696,21696,21696
201907040249,21696,21696,21696,21696
201907040250,21696,21696,21696,21696
201907040251,21696,21696,21696,21696
201907040252,21696,21696,21696,21696
201907040253,21696,21697,21696,21697
201907040254,21697,21697,21697,21697
201907040255,21697,21697,21697,21697
201907040256,21697,21697,21697,21697
201907040257,21697,21697,21697,21697
201907040258,21697,21697,21697,21697
201907040259,21697,21697,21697,21697
201907040300,21697,21697,21697,21697
201907040301,21697,21697,21696,21697
201907040302,21697,21697,21696,21697
201907040303,21697,21697,21697,21697
201907040304,21697,21697,21697,21697
201907040305,21697,21697,21697,21697
201907040306,21697,21697,21697,21697
201907040307,21697,21697,21697,21697
201907040308,21697,21697,21697,21697
201907040309,21697,21697,21697,21697
201907040310,21697,21697,21697,21697
201907040311,21697,21697,21697,21697
201907040312,21697,21697,21697,21697
201907040313,21697,21697,21697,21697
201907040314,21697,21697,21697,21697
201907040315,21697,21697,21697,21697
201907040316,21697,21697,21697,21697
201907040317,21697,21697,21697,21697
201907040318,21697,21697,21696,21697
201907040319,21697,21697,21697,21697
201907040320,21697,21697,21697,21697
201907040321,21697,21697,21697,21697
201907040322,21697,21697,21697,21697
201907040323,21697,21697,21697,21697
201907040324,21697,21697,21697,21697
201907040325,21697,21697,21697,21697
201907040326,21697,21697,21697,21697
201907040327,21697,21697,21696,21697
201907040328,21697,21697,21696,21696
201907040329,21696,21697,21696,21697
201907040330,21697,21697,21697,21697
201907040331,21697,21697,21697,21697
201907040332,21697,21697,21697,21697
201907040333,21697,21697,21697,21697
201907040334,21697,21697,21696,21696
201907040335,21696,21697,21696,21697
201907040336,21697,21697,21695,21697
201907040337,21697,21697,21697,21697
201907040338,21697,21697,21697,21697
201907040339,21697,21697,21697,21697
201907040340,21697,21697,21697,21697
201907040341,21697,21697,21697,21697
201907040342,21697,21697,21697,21697
201907040343,21697,21697,21697,21697
201907040344,21697,21697,21696,21697
201907040345,21697,21697,21697,21697
201907040346,21697,21697,21697,21697
201907040347,21697,21697,21697,21697
201907040348,21697,21697,21697,21697
201907040349,21697,21697,21697,21697
201907040350,21697,21697,21697,21697
201907040351,21697,21697,21697,21697
201907040352,21697,21697,21697,21697
201907040353,21697,21697,21697,21697
201907040354,21697,21697,21697,21697
201907040355,21697,21697,21697,21697
201907040356,21697,21697,21697,21697
201907040357,21697,21697,21697,21697
201907040358,21697,21697,21697,21697
201907040359,21697,21697,21697,21697
201907040400,21697,21697,21697,21697
201907040401,21697,21697,21697,21697
201907040402,21697,21697,21697,21697
201907040403,21697,21697,21697,21697
201907040404,21697,21697,21697,21697
201907040405,21697,21697,21697,21697
201907040406,21697,21697,21697,21697
201907040407,21697,21697,21697,21697
201907040408,21697,21697,21697,21697
201907040409,21697,21697,21696,21697
201907040410,21697,21697,21696,21696
201907040411,21696,21700,21695,21695
201907040412,21695,21695,21695,21695
201907040413,21695,21696,21695,21695
201907040414,21695,21695,21695,21695
201907040415,21695,21695,21695,21695
201907040416,21695,21698,21695,21696
201907040417,21696,21696,21696,21696
201907040418,21696,21696,21696,21696
201907040419,21696,21696,21696,21696
201907040420,21696,21696,21696,21696
201907040421,21696,21700,21696,21700
201907040422,21700,21701,21700,21700
201907040423,21700,21700,21700,21700
201907040424,21700,21700,21700,21700
201907040425,21700,21700,21700,21700
201907040426,21700,21701,21700,21701
201907040427,21701,21701,21701,21701
201907040428,21701,21702,21701,21702
201907040429,21702,21702,21702,21702
201907040430,21702,21702,21702,21702
201907040431,21702,21702,21702,21702
201907040432,21702,21702,21702,21702
201907040433,21702,21702,21702,21702
201907040434,21702,21702,21702,21702
201907040435,21702,21702,21701,21702
201907040436,21702,21705,21702,21705
201907040437,21705,21706,21705,21706
201907040438,21706,21706,21706,21706
201907040439,21706,21706,21706,21706
201907040440,21706,21706,21706,21706
201907040441,21706,21706,21706,21706
201907040442,21706,21706,21706,21706
201907040443,21706,21706,21706,21706
201907040444,21706,21706,21706,21706
201907040445,21706,21706,21706,21706
201907040446,21706,21706,21706,21706
201907040447,21706,21706,21706,21706
201907040448,21706,21707,21706,21707
201907040449,21707,21707,21707,21707
201907040450,21707,21707,21707,21707
201907040451,21707,21707,21707,21707
201907040452,21707,21707,21707,21707
201907040453,21707,21707,21707,21707
201907040454,21707,21707,21707,21707
201907040455,21707,21707,21701,21701
201907040456,21701,21707,21701,21706
201907040457,21706,21707,21706,21707
201907040458,21707,21707,21706,21707
201907040459,21707,21707,21706,21707
201907040500,21707,21707,21705,21705
201907040501,21705,21705,21705,21705
201907040502,21705,21706,21702,21705
201907040503,21705,21706,21701,21705
201907040504,21705,21706,21705,21706
201907040505,21706,21706,21705,21705
201907040506,21705,21706,21705,21705
201907040507,21705,21706,21705,21706
201907040508,21706,21706,21706,21706
201907040509,21706,21706,21706,21706
201907040510,21706,21706,21706,21706
201907040511,21706,21706,21706,21706
201907040512,21706,21706,21706,21706
201907040513,21706,21707,21706,21706
201907040514,21706,21711,21705,21709
201907040515,21709,21715,21709,21715
201907040516,21715,21715,21715,21715
201907040517,21715,21715,21715,21715
201907040518,21715,21715,21715,21715
201907040519,21715,21715,21711,21714
201907040520,21714,21715,21714,21715
201907040521,21715,21715,21715,21715
201907040522,21715,21715,21715,21715
201907040523,21715,21715,21715,21715
201907040524,21715,21717,21715,21716
201907040525,21719,21720,21716,21716
201907040526,21716,21721,21716,21721
201907040527,21721,21721,21720,21720
201907040528,21720,21720,21715,21715
201907040529,21715,21721,21715,21721
201907040530,21721,21721,21719,21719
201907040531,21719,21720,21719,21720
201907040532,21720,21721,21720,21721
201907040533,21721,21721,21721,21721
201907040534,21721,21721,21721,21721
201907040535,21721,21721,21720,21720
201907040536,21720,21721,21720,21721
201907040537,21721,21721,21721,21721
201907040538,21721,21721,21721,21721
201907040539,21721,21721,21721,21721
201907040540,21721,21721,21720,21721
201907040541,21721,21721,21721,21721
201907040542,21720,21720,21713,21713
201907040543,21713,21713,21713,21713
201907040544,21713,21713,21711,21711
