日時,始値(BID),高値(BID),安値(BID),終値(BID)
201907250830,21731,21739,21729,21739
201907250831,21739,21744,21739,21742
201907250832,21742,21745,21740,21741
201907250833,21741,21742,21741,21741
201907250834,21741,21742,21741,21742
201907250835,21742,21746,21741,21745
201907250836,21745,21750,21745,21747
201907250837,21747,21747,21746,21747
201907250838,21747,21751,21745,21751
201907250839,21751,21751,21750,21751
201907250840,21751,21754,21750,21753
201907250841,21753,21754,21751,21751
201907250842,21751,21753,21750,21752
201907250843,21752,21752,21752,21752
201907250844,21752,21754,21751,21752
201907250845,21750,21756,21748,21755
201907250846,21756,21761,21755,21761
201907250847,21761,21762,21761,21761
201907250848,21761,21765,21761,21765
201907250849,21764,21766,21764,21766
201907250850,21766,21766,21766,21766
201907250851,21766,21767,21762,21764
201907250852,21762,21762,21762,21762
201907250853,21762,21762,21757,21757
201907250854,21757,21762,21757,21762
201907250855,21762,21762,21762,21762
201907250856,21762,21762,21762,21762
201907250857,21762,21765,21762,21765
201907250858,21765,21765,21762,21762
201907250859,21762,21762,21751,21756
201907250900,21756,21762,21747,21747
201907250901,21747,21765,21747,21764
201907250902,21764,21764,21751,21759
201907250903,21758,21762,21755,21757
201907250904,21756,21756,21747,21751
201907250905,21751,21752,21737,21741
201907250906,21742,21751,21742,21749
201907250907,21750,21770,21750,21770
201907250908,21770,21792,21769,21792
201907250909,21792,21796,21785,21787
201907250910,21787,21787,21766,21767
201907250911,21767,21772,21757,21757
201907250912,21757,21760,21751,21757
201907250913,21757,21757,21739,21740
201907250914,21740,21740,21722,21722
201907250915,21723,21742,21723,21742
201907250916,21742,21742,21738,21742
201907250917,21742,21752,21741,21746
201907250918,21746,21746,21737,21739
201907250919,21739,21742,21737,21742
201907250920,21742,21747,21741,21742
201907250921,21742,21742,21737,21742
201907250922,21742,21742,21736,21737
201907250923,21737,21747,21737,21747
201907250924,21747,21747,21739,21739
201907250925,21739,21739,21731,21732
201907250926,21732,21745,21732,21744
201907250927,21745,21746,21742,21746
201907250928,21746,21747,21745,21745
201907250929,21746,21752,21746,21752
201907250930,21752,21757,21748,21752
201907250931,21752,21753,21746,21749
201907250932,21749,21752,21746,21747
201907250933,21747,21754,21746,21754
201907250934,21754,21757,21752,21757
201907250935,21757,21759,21756,21757
201907250936,21757,21767,21756,21762
201907250937,21762,21767,21761,21766
201907250938,21766,21777,21766,21776
201907250939,21777,21777,21761,21762
201907250940,21762,21762,21752,21752
201907250941,21752,21759,21752,21758
201907250942,21758,21768,21756,21767
201907250943,21767,21768,21763,21763
201907250944,21763,21768,21761,21767
201907250945,21768,21770,21761,21767
201907250946,21767,21770,21766,21767
201907250947,21767,21768,21766,21767
201907250948,21767,21767,21766,21766
201907250949,21766,21771,21761,21761
201907250950,21761,21761,21751,21755
201907250951,21755,21769,21755,21768
201907250952,21768,21770,21763,21764
201907250953,21764,21768,21761,21765
201907250954,21765,21767,21760,21762
201907250955,21762,21767,21761,21767
201907250956,21767,21767,21765,21766
201907250957,21766,21767,21764,21766
201907250958,21766,21766,21762,21762
201907250959,21762,21767,21761,21767
201907251000,21767,21767,21766,21767
201907251001,21767,21772,21767,21771
201907251002,21770,21770,21766,21766
201907251003,21766,21766,21757,21757
201907251004,21757,21757,21747,21747
201907251005,21747,21747,21742,21746
201907251006,21747,21753,21746,21751
201907251007,21752,21752,21746,21747
201907251008,21747,21749,21746,21747
201907251009,21747,21747,21741,21742
201907251010,21742,21750,21742,21747
201907251011,21746,21761,21746,21761
201907251012,21761,21763,21761,21762
201907251013,21762,21762,21758,21762
201907251014,21762,21762,21757,21758
201907251015,21758,21759,21752,21759
201907251016,21759,21762,21756,21757
201907251017,21756,21762,21756,21756
201907251018,21756,21757,21748,21748
201907251019,21748,21756,21748,21752
201907251020,21752,21752,21746,21748
201907251021,21748,21757,21747,21757
201907251022,21757,21757,21751,21752
201907251023,21752,21757,21751,21751
201907251024,21752,21763,21752,21763
201907251025,21763,21772,21761,21771
201907251026,21771,21775,21768,21772
201907251027,21772,21772,21771,21772
201907251028,21772,21772,21762,21762
201907251029,21762,21768,21762,21767
201907251030,21767,21767,21761,21762
201907251031,21762,21772,21762,21767
201907251032,21767,21767,21761,21763
201907251033,21763,21767,21761,21762
201907251034,21762,21762,21756,21757
201907251035,21757,21762,21756,21757
201907251036,21757,21760,21756,21759
201907251037,21759,21759,21752,21752
201907251038,21752,21767,21752,21766
201907251039,21766,21769,21761,21769
201907251040,21768,21769,21766,21767
201907251041,21767,21769,21765,21769
201907251042,21769,21769,21766,21767
201907251043,21767,21767,21757,21757
201907251044,21757,21757,21752,21752
201907251045,21752,21759,21752,21757
201907251046,21758,21760,21756,21757
201907251047,21757,21757,21753,21756
201907251048,21756,21760,21754,21757
201907251049,21757,21757,21753,21757
201907251050,21757,21760,21757,21757
201907251051,21757,21758,21752,21752
201907251052,21752,21758,21752,21757
201907251053,21757,21758,21752,21753
201907251054,21752,21754,21752,21752
201907251055,21752,21752,21752,21752
201907251056,21752,21752,21747,21747
201907251057,21747,21747,21742,21746
201907251058,21746,21747,21746,21747
201907251059,21746,21747,21742,21742
201907251100,21742,21742,21737,21737
201907251101,21737,21742,21736,21740
201907251102,21740,21741,21737,21741
201907251103,21741,21741,21732,21732
201907251104,21732,21735,21731,21732
201907251105,21732,21735,21731,21735
201907251106,21735,21737,21734,21737
201907251107,21737,21747,21736,21743
201907251108,21742,21745,21741,21744
201907251109,21744,21744,21738,21742
201907251110,21742,21742,21738,21738
201907251111,21738,21742,21736,21742
201907251112,21742,21744,21742,21742
201907251113,21742,21744,21741,21741
201907251114,21741,21742,21741,21742
201907251115,21742,21742,21741,21742
201907251116,21742,21742,21737,21742
201907251117,21742,21742,21738,21740
201907251118,21740,21745,21740,21744
201907251119,21744,21746,21742,21742
201907251120,21742,21750,21742,21750
201907251121,21750,21751,21749,21750
201907251122,21750,21752,21747,21749
201907251123,21748,21751,21745,21749
201907251124,21749,21750,21748,21748
201907251125,21747,21750,21746,21748
201907251126,21748,21748,21747,21747
201907251127,21747,21750,21746,21749
201907251128,21749,21750,21749,21750
201907251129,21750,21754,21750,21752
201907251130,21752,21752,21751,21752
201907251131,21752,21753,21751,21751
201907251132,21751,21755,21751,21755
201907251133,21755,21756,21751,21752
201907251134,21752,21755,21751,21753
201907251135,21753,21754,21751,21752
201907251136,21752,21752,21746,21747
201907251137,21747,21750,21745,21747
201907251138,21746,21747,21746,21747
201907251139,21747,21747,21742,21742
201907251140,21742,21742,21742,21742
201907251141,21742,21742,21742,21742
201907251142,21742,21747,21742,21746
201907251143,21746,21748,21745,21748
201907251144,21748,21748,21746,21746
201907251145,21746,21750,21746,21749
201907251146,21749,21749,21748,21748
201907251147,21748,21748,21744,21746
201907251148,21746,21746,21742,21746
201907251149,21746,21747,21746,21747
201907251150,21747,21747,21747,21747
201907251151,21747,21749,21746,21747
201907251152,21747,21749,21746,21746
201907251153,21747,21749,21746,21747
201907251154,21747,21747,21747,21747
201907251155,21747,21747,21747,21747
201907251156,21747,21749,21746,21749
201907251157,21749,21751,21749,21751
201907251158,21751,21751,21751,21751
201907251159,21751,21751,21751,21751
201907251200,21751,21754,21751,21752
201907251201,21752,21752,21752,21752
201907251202,21752,21752,21752,21752
201907251203,21752,21752,21752,21752
201907251204,21752,21752,21751,21752
201907251205,21752,21752,21747,21747
201907251206,21747,21750,21746,21750
201907251207,21750,21750,21747,21747
201907251208,21747,21747,21747,21747
201907251209,21747,21747,21747,21747
201907251210,21747,21752,21747,21752
201907251211,21752,21753,21747,21752
201907251212,21752,21752,21752,21752
201907251213,21752,21753,21751,21751
201907251214,21751,21751,21750,21750
201907251215,21750,21752,21750,21751
201907251216,21751,21751,21751,21751
201907251217,21751,21751,21751,21751
201907251218,21751,21751,21751,21751
201907251219,21751,21751,21751,21751
201907251220,21751,21751,21751,21751
201907251221,21751,21751,21751,21751
201907251222,21751,21751,21751,21751
201907251223,21751,21751,21751,21751
201907251224,21751,21751,21751,21751
201907251225,21751,21751,21751,21751
201907251226,21751,21751,21747,21747
201907251227,21747,21747,21747,21747
201907251228,21747,21747,21747,21747
201907251229,21747,21747,21746,21747
201907251230,21747,21751,21742,21742
201907251231,21742,21744,21742,21742
201907251232,21742,21742,21742,21742
201907251233,21742,21742,21742,21742
201907251234,21742,21742,21742,21742
201907251235,21742,21747,21742,21747
201907251236,21747,21752,21747,21750
201907251237,21750,21752,21750,21750
201907251238,21750,21756,21750,21755
201907251239,21755,21756,21755,21755
201907251240,21755,21756,21755,21756
201907251241,21755,21755,21751,21752
201907251242,21752,21752,21747,21750
201907251243,21750,21751,21749,21751
201907251244,21751,21752,21750,21752
201907251245,21752,21755,21752,21755
201907251246,21755,21756,21755,21755
201907251247,21755,21756,21755,21756
201907251248,21756,21756,21756,21756
201907251249,21756,21756,21755,21756
201907251250,21756,21756,21755,21756
201907251251,21756,21756,21755,21756
201907251252,21756,21756,21756,21756
201907251253,21756,21756,21756,21756
201907251254,21756,21756,21755,21756
201907251255,21756,21756,21755,21755
201907251256,21755,21756,21755,21756
201907251257,21756,21756,21755,21755
201907251258,21755,21755,21755,21755
201907251259,21755,21755,21752,21752
201907251300,21752,21752,21752,21752
201907251301,21752,21752,21747,21751
201907251302,21751,21752,21751,21752
201907251303,21752,21752,21751,21751
201907251304,21751,21753,21749,21752
201907251305,21752,21752,21752,21752
201907251306,21752,21754,21752,21754
201907251307,21754,21754,21754,21754
201907251308,21754,21762,21754,21762
201907251309,21762,21762,21762,21762
201907251310,21762,21762,21756,21757
201907251311,21757,21757,21757,21757
201907251312,21757,21757,21756,21756
201907251313,21756,21756,21753,21755
201907251314,21755,21756,21754,21755
201907251315,21755,21755,21755,21755
201907251316,21755,21755,21752,21752
201907251317,21752,21755,21752,21754
201907251318,21754,21755,21754,21754
201907251319,21754,21754,21747,21747
201907251320,21747,21751,21747,21751
201907251321,21751,21754,21750,21754
201907251322,21754,21757,21754,21757
201907251323,21757,21757,21757,21757
201907251324,21757,21757,21757,21757
201907251325,21757,21757,21757,21757
201907251326,21757,21761,21757,21761
201907251327,21761,21761,21760,21760
201907251328,21760,21761,21759,21760
201907251329,21760,21761,21760,21761
201907251330,21761,21761,21760,21760
201907251331,21760,21761,21760,21760
201907251332,21760,21760,21757,21757
201907251333,21757,21757,21756,21757
201907251334,21757,21757,21755,21755
201907251335,21755,21756,21755,21756
201907251336,21756,21756,21755,21755
201907251337,21755,21755,21755,21755
201907251338,21755,21755,21755,21755
201907251339,21755,21755,21755,21755
201907251340,21755,21756,21754,21755
201907251341,21755,21755,21755,21755
201907251342,21755,21756,21755,21756
201907251343,21756,21756,21754,21754
201907251344,21754,21755,21754,21755
201907251345,21755,21756,21754,21755
201907251346,21755,21755,21754,21754
201907251347,21754,21755,21754,21754
201907251348,21754,21755,21752,21754
201907251349,21755,21755,21755,21755
201907251350,21755,21755,21755,21755
201907251351,21755,21760,21755,21757
201907251352,21757,21757,21756,21757
201907251353,21757,21757,21756,21756
201907251354,21756,21757,21752,21752
201907251355,21752,21752,21752,21752
201907251356,21752,21756,21752,21756
201907251357,21756,21756,21755,21756
201907251358,21756,21758,21755,21757
201907251359,21757,21757,21752,21752
201907251400,21752,21755,21752,21752
201907251401,21752,21752,21752,21752
201907251402,21752,21752,21752,21752
201907251403,21752,21752,21752,21752
201907251404,21752,21752,21752,21752
201907251405,21752,21754,21752,21752
201907251406,21752,21752,21747,21747
201907251407,21747,21749,21747,21747
201907251408,21747,21747,21747,21747
201907251409,21747,21754,21747,21752
201907251410,21752,21754,21751,21752
201907251411,21752,21755,21752,21755
201907251412,21755,21758,21755,21757
201907251413,21757,21757,21753,21754
201907251414,21754,21758,21754,21758
201907251415,21758,21759,21757,21758
201907251416,21758,21758,21756,21756
201907251417,21756,21757,21752,21752
201907251418,21752,21754,21752,21752
201907251419,21752,21752,21752,21752
201907251420,21752,21752,21747,21747
201907251421,21747,21747,21747,21747
201907251422,21747,21747,21747,21747
201907251423,21747,21747,21747,21747
201907251424,21747,21747,21747,21747
201907251425,21747,21747,21747,21747
201907251426,21747,21747,21747,21747
201907251427,21747,21747,21747,21747
201907251428,21747,21747,21747,21747
201907251429,21747,21747,21747,21747
201907251430,21747,21747,21737,21737
201907251431,21737,21737,21732,21732
201907251432,21732,21732,21731,21732
201907251433,21732,21732,21725,21725
201907251434,21726,21726,21724,21725
201907251435,21725,21727,21721,21727
201907251436,21727,21727,21727,21727
201907251437,21727,21731,21727,21730
201907251438,21731,21732,21727,21731
201907251439,21731,21735,21731,21734
201907251440,21734,21736,21734,21736
201907251441,21736,21736,21732,21732
201907251442,21732,21732,21732,21732
201907251443,21732,21735,21732,21732
201907251444,21732,21732,21732,21732
201907251445,21732,21732,21732,21732
201907251446,21732,21732,21727,21727
201907251447,21727,21727,21726,21727
201907251448,21727,21727,21722,21722
201907251449,21722,21731,21722,21731
201907251450,21731,21732,21726,21727
201907251451,21727,21731,21727,21731
201907251452,21731,21732,21731,21732
201907251453,21732,21735,21729,21730
201907251454,21730,21731,21730,21731
201907251455,21731,21732,21731,21732
201907251456,21732,21737,21732,21737
201907251457,21737,21737,21736,21737
201907251458,21737,21737,21733,21733
201907251459,21732,21742,21732,21739
201907251500,21739,21740,21733,21737
201907251501,21737,21739,21734,21735
201907251502,21735,21744,21735,21742
201907251503,21742,21745,21742,21745
201907251504,21745,21746,21742,21742
201907251505,21742,21746,21742,21742
201907251506,21742,21742,21742,21742
201907251507,21742,21742,21737,21737
201907251508,21737,21737,21737,21737
201907251509,21737,21740,21736,21738
201907251510,21737,21737,21735,21737
201907251511,21737,21742,21735,21737
201907251512,21737,21742,21737,21741
201907251513,21741,21747,21740,21747
201907251514,21747,21747,21744,21745
201907251515,21745,21749,21745,21747
201907251516,21747,21752,21745,21752
201907251517,21752,21752,21752,21752
201907251518,21752,21754,21748,21752
201907251519,21752,21752,21752,21752
201907251520,21752,21752,21746,21746
201907251521,21746,21747,21746,21747
201907251522,21747,21747,21742,21742
201907251523,21742,21742,21735,21735
201907251524,21735,21737,21734,21737
201907251525,21737,21737,21737,21737
201907251526,21737,21737,21737,21737
201907251527,21737,21737,21735,21737
201907251528,21737,21737,21731,21731
201907251529,21731,21733,21731,21732
201907251530,21732,21737,21732,21735
201907251531,21735,21737,21735,21737
201907251532,21737,21742,21737,21741
201907251533,21741,21742,21740,21740
201907251534,21740,21742,21740,21741
201907251535,21741,21742,21740,21740
201907251536,21740,21742,21740,21741
201907251537,21741,21742,21741,21741
201907251538,21741,21742,21740,21741
201907251539,21741,21746,21740,21745
201907251540,21745,21747,21745,21747
201907251541,21747,21747,21747,21747
201907251542,21747,21747,21741,21741
201907251543,21741,21742,21741,21741
201907251544,21741,21741,21740,21740
201907251545,21741,21742,21740,21742
201907251546,21742,21742,21740,21742
201907251547,21742,21742,21740,21740
201907251548,21740,21742,21740,21740
201907251549,21740,21742,21740,21742
201907251550,21742,21746,21740,21743
201907251551,21743,21745,21742,21745
201907251552,21745,21746,21740,21740
201907251553,21741,21742,21740,21741
201907251554,21741,21742,21740,21742
201907251555,21740,21741,21735,21738
201907251556,21738,21747,21738,21746
201907251557,21746,21747,21745,21745
201907251558,21745,21746,21745,21745
201907251559,21745,21746,21745,21745
201907251600,21745,21747,21740,21741
201907251601,21741,21742,21740,21741
201907251602,21741,21741,21735,21736
201907251603,21736,21740,21735,21738
201907251604,21738,21739,21735,21735
201907251605,21735,21741,21732,21735
201907251606,21735,21742,21735,21740
201907251607,21740,21740,21732,21735
201907251608,21735,21736,21730,21730
201907251609,21730,21731,21725,21726
201907251610,21726,21731,21720,21720
201907251611,21720,21726,21719,21719
201907251612,21719,21719,21719,21719
201907251613,21719,21727,21719,21727
201907251614,21727,21737,21725,21731
201907251615,21731,21733,21725,21732
201907251616,21732,21735,21726,21726
201907251617,21726,21727,21720,21721
201907251618,21721,21722,21715,21716
201907251619,21716,21717,21714,21717
201907251620,21717,21717,21715,21715
201907251621,21715,21716,21712,21716
201907251622,21716,21719,21715,21719
201907251623,21719,21722,21718,21721
201907251624,21721,21722,21720,21722
201907251625,21722,21727,21720,21725
201907251626,21725,21730,21725,21729
201907251627,21729,21732,21727,21730
201907251628,21730,21737,21730,21737
201907251629,21737,21737,21734,21734
201907251630,21740,21740,21731,21733
201907251631,21733,21733,21728,21731
201907251632,21731,21732,21726,21732
201907251633,21732,21734,21731,21732
201907251634,21732,21732,21727,21729
201907251635,21727,21731,21727,21727
201907251636,21727,21729,21726,21728
201907251637,21728,21731,21728,21730
201907251638,21730,21735,21730,21735
201907251639,21735,21736,21735,21736
201907251640,21736,21736,21732,21732
201907251641,21732,21733,21731,21732
201907251642,21732,21732,21732,21732
201907251643,21732,21732,21732,21732
201907251644,21732,21732,21726,21727
201907251645,21727,21727,21727,21727
201907251646,21727,21732,21727,21732
201907251647,21732,21732,21726,21727
201907251648,21727,21728,21726,21727
201907251649,21727,21727,21726,21727
201907251650,21727,21727,21726,21727
201907251651,21727,21727,21726,21727
201907251652,21727,21729,21727,21727
201907251653,21727,21730,21726,21727
201907251654,21727,21731,21727,21731
201907251655,21730,21730,21726,21729
201907251656,21729,21732,21729,21731
201907251657,21731,21734,21731,21732
201907251658,21732,21732,21732,21732
201907251659,21732,21732,21726,21728
201907251700,21728,21729,21727,21727
201907251701,21727,21727,21727,21727
201907251702,21727,21732,21727,21731
201907251703,21731,21731,21730,21731
201907251704,21731,21731,21726,21727
201907251705,21727,21729,21727,21728
201907251706,21728,21729,21726,21727
201907251707,21727,21729,21726,21728
201907251708,21728,21728,21726,21727
201907251709,21727,21727,21727,21727
201907251710,21727,21727,21727,21727
201907251711,21727,21730,21726,21730
201907251712,21730,21730,21727,21727
201907251713,21727,21727,21727,21727
201907251714,21727,21727,21727,21727
201907251715,21727,21727,21722,21722
201907251716,21723,21727,21721,21726
201907251717,21726,21726,21725,21726
201907251718,21726,21726,21722,21722
201907251719,21722,21724,21722,21724
201907251720,21724,21725,21721,21722
201907251721,21722,21722,21722,21722
201907251722,21722,21722,21722,21722
201907251723,21722,21722,21722,21722
201907251724,21722,21722,21722,21722
201907251725,21722,21722,21722,21722
201907251726,21722,21722,21722,21722
201907251727,21722,21722,21722,21722
201907251728,21722,21722,21722,21722
201907251729,21722,21722,21722,21722
201907251730,21722,21722,21722,21722
201907251731,21722,21722,21716,21716
201907251732,21716,21721,21716,21721
201907251733,21721,21721,21718,21720
201907251734,21720,21720,21716,21719
201907251735,21719,21719,21717,21719
201907251736,21719,21719,21717,21717
201907251737,21717,21719,21716,21717
201907251738,21717,21717,21717,21717
201907251739,21717,21719,21717,21719
201907251740,21719,21720,21719,21720
201907251741,21718,21720,21718,21720
201907251742,21720,21721,21720,21720
201907251743,21720,21720,21717,21719
201907251744,21719,21720,21719,21719
201907251745,21719,21721,21719,21720
201907251746,21720,21720,21716,21719
201907251747,21719,21719,21717,21717
201907251748,21717,21720,21717,21720
201907251749,21720,21720,21720,21720
201907251750,21720,21720,21720,21720
201907251751,21720,21720,21718,21719
201907251752,21719,21720,21719,21720
201907251753,21720,21720,21718,21720
201907251754,21720,21720,21718,21720
201907251755,21720,21720,21716,21719
201907251756,21719,21720,21717,21719
201907251757,21719,21721,21719,21721
201907251758,21721,21721,21721,21721
201907251759,21721,21721,21721,21721
201907251800,21720,21721,21717,21717
201907251801,21717,21717,21717,21717
201907251802,21717,21717,21717,21717
201907251803,21717,21717,21712,21712
201907251804,21712,21712,21712,21712
201907251805,21712,21712,21712,21712
201907251806,21712,21712,21712,21712
201907251807,21712,21712,21712,21712
201907251808,21712,21712,21712,21712
201907251809,21712,21712,21712,21712
201907251810,21712,21712,21707,21707
201907251811,21707,21709,21707,21708
201907251812,21708,21711,21707,21707
201907251813,21707,21707,21707,21707
201907251814,21707,21707,21707,21707
201907251815,21707,21707,21707,21707
201907251816,21707,21707,21707,21707
201907251817,21707,21707,21707,21707
201907251818,21707,21707,21707,21707
201907251819,21707,21707,21707,21707
201907251820,21707,21707,21702,21702
201907251821,21702,21702,21702,21702
201907251822,21702,21702,21701,21702
201907251823,21701,21702,21701,21702
201907251824,21702,21702,21701,21701
201907251825,21701,21701,21701,21701
201907251826,21701,21702,21701,21701
201907251827,21701,21701,21701,21701
201907251828,21701,21701,21701,21701
201907251829,21701,21705,21701,21705
201907251830,21705,21707,21705,21707
201907251831,21707,21712,21707,21712
201907251832,21711,21712,21711,21712
201907251833,21712,21712,21712,21712
201907251834,21712,21712,21712,21712
201907251835,21712,21712,21712,21712
201907251836,21712,21712,21712,21712
201907251837,21712,21712,21712,21712
201907251838,21712,21712,21712,21712
201907251839,21712,21712,21712,21712
201907251840,21712,21712,21712,21712
201907251841,21712,21712,21712,21712
201907251842,21712,21712,21712,21712
201907251843,21712,21712,21711,21712
201907251844,21712,21712,21712,21712
201907251845,21712,21712,21711,21711
201907251846,21711,21712,21711,21712
201907251847,21712,21712,21712,21712
201907251848,21712,21716,21712,21716
201907251849,21716,21717,21716,21717
201907251850,21717,21717,21717,21717
201907251851,21717,21717,21717,21717
201907251852,21717,21717,21717,21717
201907251853,21717,21717,21716,21717
201907251854,21717,21717,21717,21717
201907251855,21717,21717,21717,21717
201907251856,21717,21717,21717,21717
201907251857,21717,21717,21717,21717
201907251858,21717,21717,21717,21717
201907251859,21717,21717,21717,21717
201907251900,21717,21717,21717,21717
201907251901,21717,21717,21716,21717
201907251902,21717,21717,21711,21711
201907251903,21711,21711,21711,21711
201907251904,21711,21712,21711,21712
201907251905,21712,21712,21711,21711
201907251906,21711,21712,21711,21711
201907251907,21711,21712,21711,21712
201907251908,21712,21712,21711,21711
201907251909,21711,21711,21707,21707
201907251910,21707,21707,21705,21706
201907251911,21706,21706,21702,21704
201907251912,21704,21705,21702,21705
201907251913,21705,21706,21705,21705
201907251914,21705,21706,21704,21706
201907251915,21706,21706,21705,21705
201907251916,21705,21706,21704,21705
201907251917,21705,21705,21702,21702
201907251918,21702,21702,21696,21697
201907251919,21697,21697,21692,21692
201907251920,21692,21692,21691,21692
201907251921,21692,21692,21691,21691
201907251922,21691,21692,21691,21692
201907251923,21692,21692,21690,21691
201907251924,21691,21691,21689,21690
201907251925,21690,21690,21687,21687
201907251926,21687,21689,21687,21689
201907251927,21689,21690,21689,21689
201907251928,21689,21690,21687,21687
201907251929,21687,21690,21687,21690
201907251930,21690,21690,21687,21687
201907251931,21687,21688,21687,21687
201907251932,21687,21687,21687,21687
201907251933,21687,21687,21687,21687
201907251934,21687,21687,21687,21687
201907251935,21687,21687,21687,21687
201907251936,21687,21687,21687,21687
201907251937,21687,21687,21687,21687
201907251938,21687,21690,21687,21689
201907251939,21689,21691,21689,21690
201907251940,21690,21691,21689,21690
201907251941,21690,21690,21687,21687
201907251942,21687,21687,21687,21687
201907251943,21687,21687,21687,21687
201907251944,21687,21687,21687,21687
201907251945,21687,21687,21687,21687
201907251946,21687,21687,21687,21687
201907251947,21687,21687,21685,21686
201907251948,21686,21686,21682,21682
201907251949,21682,21685,21682,21683
201907251950,21684,21684,21682,21682
201907251951,21682,21683,21682,21682
201907251952,21682,21682,21682,21682
201907251953,21682,21682,21681,21681
201907251954,21681,21681,21676,21679
201907251955,21679,21681,21679,21681
201907251956,21681,21681,21681,21681
201907251957,21681,21681,21681,21681
201907251958,21681,21681,21681,21681
201907251959,21681,21686,21681,21686
201907252000,21686,21690,21686,21687
201907252001,21687,21687,21687,21687
201907252002,21687,21687,21683,21685
201907252003,21685,21686,21685,21686
201907252004,21686,21687,21686,21686
201907252005,21686,21686,21686,21686
201907252006,21686,21687,21686,21686
201907252007,21686,21687,21686,21686
201907252008,21686,21687,21685,21687
201907252009,21687,21687,21686,21687
201907252010,21687,21687,21686,21686
201907252011,21686,21687,21686,21687
201907252012,21687,21687,21687,21687
201907252013,21687,21687,21687,21687
201907252014,21687,21687,21687,21687
201907252015,21687,21687,21687,21687
201907252016,21687,21689,21686,21689
201907252017,21689,21690,21686,21689
201907252018,21689,21690,21689,21690
201907252019,21690,21690,21690,21690
201907252020,21690,21690,21688,21689
201907252021,21689,21690,21689,21690
201907252022,21690,21690,21690,21690
201907252023,21690,21690,21690,21690
201907252024,21690,21691,21690,21691
201907252025,21691,21691,21690,21691
201907252026,21691,21692,21691,21692
201907252027,21692,21692,21692,21692
201907252028,21692,21692,21692,21692
201907252029,21692,21692,21692,21692
201907252030,21692,21692,21692,21692
201907252031,21692,21692,21692,21692
201907252032,21692,21692,21692,21692
201907252033,21692,21692,21692,21692
201907252034,21692,21692,21692,21692
201907252035,21692,21692,21692,21692
201907252036,21692,21692,21692,21692
201907252037,21692,21692,21692,21692
201907252038,21692,21694,21692,21694
201907252039,21694,21696,21694,21696
201907252040,21696,21696,21695,21696
201907252041,21696,21697,21696,21697
201907252042,21697,21700,21697,21700
201907252043,21700,21701,21696,21696
201907252044,21696,21699,21696,21699
201907252045,21699,21704,21696,21702
201907252046,21705,21706,21696,21698
201907252047,21698,21712,21698,21708
201907252048,21708,21725,21708,21721
201907252049,21722,21736,21721,21727
201907252050,21727,21732,21726,21726
201907252051,21727,21735,21726,21734
201907252052,21735,21738,21731,21732
201907252053,21732,21737,21731,21733
201907252054,21733,21739,21731,21737
201907252055,21737,21738,21732,21737
201907252056,21737,21739,21731,21732
201907252057,21732,21740,21732,21737
201907252058,21737,21737,21731,21734
201907252059,21733,21737,21731,21737
201907252100,21737,21739,21736,21737
201907252101,21736,21737,21732,21733
201907252102,21733,21735,21731,21735
201907252103,21735,21737,21734,21736
201907252104,21736,21737,21734,21737
201907252105,21736,21738,21733,21737
201907252106,21737,21739,21736,21739
201907252107,21739,21739,21737,21737
201907252108,21737,21739,21736,21737
201907252109,21737,21737,21736,21737
201907252110,21737,21737,21736,21737
201907252111,21737,21739,21737,21737
201907252112,21737,21737,21737,21737
201907252113,21737,21737,21732,21732
201907252114,21732,21732,21727,21727
201907252115,21727,21731,21727,21730
201907252116,21730,21730,21722,21723
201907252117,21723,21724,21722,21722
201907252118,21722,21727,21721,21727
201907252119,21727,21727,21727,21727
201907252120,21727,21727,21726,21727
201907252121,21727,21728,21726,21728
201907252122,21729,21730,21726,21729
201907252123,21729,21730,21726,21727
201907252124,21727,21731,21727,21731
201907252125,21731,21735,21731,21734
201907252126,21734,21739,21733,21739
201907252127,21739,21739,21736,21737
201907252128,21737,21738,21736,21737
201907252129,21737,21737,21731,21731
201907252130,21731,21732,21726,21728
201907252131,21730,21734,21726,21732
201907252132,21732,21734,21727,21732
201907252133,21731,21732,21726,21729
201907252134,21729,21735,21729,21735
201907252135,21735,21741,21735,21740
201907252136,21740,21746,21740,21745
201907252137,21745,21746,21737,21739
201907252138,21739,21745,21739,21744
201907252139,21744,21745,21744,21744
201907252140,21744,21746,21742,21745
201907252141,21745,21751,21745,21749
201907252142,21749,21755,21747,21755
201907252143,21755,21757,21751,21754
201907252144,21754,21754,21737,21745
201907252145,21745,21749,21745,21747
201907252146,21747,21748,21743,21744
201907252147,21743,21744,21736,21736
201907252148,21736,21737,21731,21732
201907252149,21733,21739,21733,21737
201907252150,21736,21740,21736,21738
201907252151,21739,21739,21721,21722
201907252152,21722,21727,21721,21722
201907252153,21722,21726,21721,21724
201907252154,21724,21729,21721,21729
201907252155,21729,21730,21726,21729
201907252156,21729,21729,21727,21727
201907252157,21727,21728,21722,21722
201907252158,21722,21727,21721,21724
201907252159,21724,21724,21721,21724
201907252200,21724,21725,21717,21721
201907252201,21721,21722,21717,21720
201907252202,21720,21721,21717,21717
201907252203,21717,21720,21712,21712
201907252204,21712,21712,21702,21705
201907252205,21705,21708,21691,21695
201907252206,21692,21701,21686,21696
201907252207,21696,21697,21692,21695
201907252208,21695,21702,21695,21702
201907252209,21702,21702,21701,21702
201907252210,21702,21704,21700,21701
201907252211,21701,21701,21691,21692
201907252212,21692,21692,21687,21687
201907252213,21687,21692,21686,21692
201907252214,21692,21696,21691,21692
201907252215,21692,21696,21691,21692
201907252216,21692,21696,21692,21696
201907252217,21696,21696,21691,21693
201907252218,21693,21697,21691,21696
201907252219,21696,21696,21691,21692
201907252220,21692,21699,21692,21698
201907252221,21698,21699,21696,21699
201907252222,21699,21700,21696,21697
201907252223,21697,21699,21696,21697
201907252224,21697,21700,21696,21699
201907252225,21699,21699,21691,21692
201907252226,21692,21705,21692,21698
201907252227,21698,21700,21692,21694
201907252228,21694,21696,21692,21695
201907252229,21695,21700,21692,21692
201907252230,21692,21695,21686,21691
201907252231,21691,21694,21682,21682
201907252232,21682,21694,21677,21677
201907252233,21677,21683,21676,21681
201907252234,21681,21682,21676,21682
201907252235,21682,21686,21678,21681
201907252236,21681,21682,21678,21681
201907252237,21681,21682,21677,21677
201907252238,21677,21687,21672,21682
201907252239,21681,21684,21676,21677
201907252240,21677,21686,21672,21686
201907252241,21686,21686,21674,21676
201907252242,21677,21678,21666,21667
201907252243,21667,21672,21662,21662
201907252244,21662,21663,21652,21655
201907252245,21655,21661,21652,21652
201907252246,21652,21652,21642,21646
201907252247,21646,21651,21637,21637
201907252248,21638,21638,21622,21632
201907252249,21632,21639,21630,21637
201907252250,21637,21637,21631,21632
201907252251,21632,21632,21626,21627
201907252252,21627,21627,21616,21618
201907252253,21619,21619,21602,21604
201907252254,21604,21612,21602,21607
201907252255,21607,21612,21606,21611
201907252256,21611,21620,21610,21620
201907252257,21620,21621,21611,21615
201907252258,21615,21627,21615,21627
201907252259,21627,21630,21626,21627
201907252300,21627,21629,21626,21627
201907252301,21627,21627,21627,21627
201907252302,21627,21630,21627,21630
201907252303,21630,21641,21630,21641
201907252304,21641,21651,21636,21651
201907252305,21651,21657,21651,21652
201907252306,21652,21657,21651,21657
201907252307,21657,21660,21656,21656
201907252308,21656,21656,21650,21650
201907252309,21650,21650,21643,21646
201907252310,21646,21650,21646,21647
201907252311,21647,21651,21647,21651
201907252312,21651,21651,21646,21647
201907252313,21647,21649,21646,21647
201907252314,21647,21647,21642,21642
201907252315,21642,21642,21635,21637
201907252316,21637,21640,21636,21637
201907252317,21637,21651,21636,21650
201907252318,21651,21652,21648,21652
201907252319,21652,21652,21651,21651
201907252320,21651,21652,21646,21646
201907252321,21648,21649,21641,21642
201907252322,21642,21642,21636,21637
201907252323,21637,21637,21626,21629
201907252324,21628,21629,21624,21627
201907252325,21627,21627,21617,21623
201907252326,21623,21624,21621,21622
201907252327,21622,21627,21621,21627
201907252328,21627,21636,21626,21636
201907252329,21636,21636,21631,21636
201907252330,21636,21640,21635,21640
201907252331,21640,21652,21640,21652
201907252332,21651,21654,21649,21652
201907252333,21652,21652,21650,21651
201907252334,21651,21653,21646,21646
201907252335,21648,21652,21646,21649
201907252336,21649,21654,21649,21653
201907252337,21653,21661,21651,21659
201907252338,21659,21664,21659,21662
201907252339,21661,21664,21661,21662
201907252340,21662,21664,21661,21663
201907252341,21664,21664,21662,21662
201907252342,21662,21662,21651,21657
201907252343,21657,21664,21656,21663
201907252344,21663,21664,21661,21664
201907252345,21664,21672,21664,21667
201907252346,21667,21669,21666,21667
201907252347,21667,21667,21666,21666
201907252348,21666,21666,21657,21658
201907252349,21658,21660,21656,21657
201907252350,21657,21663,21656,21657
201907252351,21657,21660,21652,21652
201907252352,21652,21657,21646,21657
201907252353,21657,21670,21657,21669
201907252354,21669,21670,21657,21660
201907252355,21660,21666,21660,21662
201907252356,21662,21662,21658,21660
201907252357,21660,21671,21659,21671
201907252358,21671,21675,21671,21673
201907252359,21674,21674,21663,21667
201907260000,21666,21676,21665,21674
201907260001,21674,21681,21672,21677
201907260002,21677,21678,21671,21676
201907260003,21677,21677,21676,21677
201907260004,21677,21677,21675,21677
201907260005,21677,21681,21675,21677
201907260006,21677,21680,21676,21679
201907260007,21679,21685,21678,21682
201907260008,21682,21682,21676,21679
201907260009,21679,21681,21677,21680
201907260010,21680,21684,21680,21682
201907260011,21682,21686,21682,21683
201907260012,21683,21684,21672,21672
201907260013,21672,21677,21671,21676
201907260014,21676,21679,21675,21676
201907260015,21676,21680,21676,21677
201907260016,21677,21680,21676,21677
201907260017,21677,21677,21666,21667
201907260018,21666,21666,21661,21662
201907260019,21662,21662,21656,21659
201907260020,21659,21662,21656,21659
201907260021,21659,21662,21656,21657
201907260022,21657,21659,21654,21659
201907260023,21659,21662,21658,21660
201907260024,21660,21660,21653,21654
201907260025,21654,21655,21651,21652
201907260026,21652,21652,21652,21652
201907260027,21652,21657,21652,21657
201907260028,21657,21658,21656,21657
201907260029,21657,21658,21656,21656
201907260030,21656,21661,21652,21660
201907260031,21660,21661,21656,21657
201907260032,21657,21658,21656,21657
201907260033,21657,21660,21653,21654
201907260034,21654,21656,21651,21653
201907260035,21653,21653,21651,21652
201907260036,21652,21652,21652,21652
201907260037,21652,21652,21652,21652
201907260038,21652,21654,21651,21652
201907260039,21652,21654,21652,21652
201907260040,21652,21655,21651,21652
201907260041,21652,21656,21651,21653
201907260042,21653,21653,21647,21647
201907260043,21647,21652,21647,21652
201907260044,21651,21652,21646,21651
201907260045,21651,21652,21646,21647
201907260046,21647,21647,21647,21647
201907260047,21647,21649,21646,21647
201907260048,21647,21647,21642,21642
201907260049,21643,21643,21637,21642
201907260050,21642,21646,21637,21637
201907260051,21637,21641,21636,21637
201907260052,21637,21641,21637,21637
201907260053,21637,21637,21632,21636
201907260054,21636,21637,21631,21637
201907260055,21637,21646,21636,21646
201907260056,21646,21647,21641,21647
201907260057,21647,21647,21642,21643
201907260058,21643,21647,21642,21647
201907260059,21647,21647,21645,21647
201907260100,21647,21647,21642,21644
201907260101,21643,21647,21643,21647
201907260102,21647,21647,21641,21644
201907260103,21644,21647,21640,21640
201907260104,21640,21641,21633,21633
201907260105,21634,21637,21631,21636
201907260106,21636,21641,21635,21641
201907260107,21641,21641,21637,21637
201907260108,21637,21637,21631,21637
201907260109,21637,21637,21631,21633
201907260110,21633,21635,21631,21634
201907260111,21634,21636,21631,21634
201907260112,21634,21637,21634,21635
201907260113,21635,21637,21635,21637
201907260114,21637,21637,21637,21637
201907260115,21637,21643,21636,21642
201907260116,21642,21647,21641,21646
201907260117,21646,21646,21643,21644
201907260118,21644,21646,21641,21646
201907260119,21646,21651,21646,21650
201907260120,21650,21652,21649,21652
201907260121,21652,21652,21652,21652
201907260122,21652,21652,21649,21649
201907260123,21649,21651,21646,21647
201907260124,21647,21648,21643,21644
201907260125,21643,21647,21641,21647
201907260126,21647,21647,21645,21646
201907260127,21646,21646,21641,21645
201907260128,21645,21646,21643,21644
201907260129,21644,21646,21641,21642
201907260130,21641,21644,21641,21642
201907260131,21642,21642,21640,21641
201907260132,21641,21641,21640,21640
201907260133,21640,21642,21640,21641
201907260134,21641,21641,21639,21640
201907260135,21640,21640,21632,21633
201907260136,21634,21649,21627,21646
201907260137,21646,21649,21622,21632
201907260138,21632,21634,21626,21632
201907260139,21632,21632,21622,21622
201907260140,21622,21622,21611,21612
201907260141,21612,21616,21611,21614
201907260142,21614,21622,21613,21617
201907260143,21617,21617,21611,21615
201907260144,21615,21619,21613,21619
201907260145,21619,21630,21616,21630
201907260146,21630,21630,21621,21626
201907260147,21626,21632,21624,21632
201907260148,21632,21639,21632,21639
201907260149,21639,21639,21631,21633
201907260150,21633,21637,21629,21629
201907260151,21630,21631,21626,21628
201907260152,21628,21628,21622,21622
201907260153,21622,21622,21620,21622
201907260154,21622,21627,21622,21627
201907260155,21627,21632,21626,21632
201907260156,21632,21634,21630,21632
201907260157,21632,21633,21631,21632
201907260158,21632,21632,21626,21631
201907260159,21631,21635,21630,21633
201907260200,21631,21632,21625,21627
201907260201,21627,21632,21626,21630
201907260202,21630,21632,21628,21632
201907260203,21632,21632,21631,21631
201907260204,21631,21632,21621,21621
201907260205,21622,21632,21622,21632
201907260206,21632,21634,21626,21634
201907260207,21634,21636,21630,21631
201907260208,21631,21636,21631,21636
201907260209,21636,21636,21630,21632
201907260210,21632,21635,21630,21635
201907260211,21635,21635,21628,21628
201907260212,21628,21632,21628,21632
201907260213,21632,21632,21629,21632
201907260214,21632,21632,21628,21632
201907260215,21632,21632,21629,21632
201907260216,21632,21636,21630,21636
201907260217,21636,21636,21630,21635
201907260218,21635,21635,21630,21634
201907260219,21634,21634,21630,21632
201907260220,21632,21632,21631,21631
201907260221,21631,21632,21625,21631
201907260222,21631,21631,21625,21631
201907260223,21631,21632,21626,21630
201907260224,21630,21632,21626,21627
201907260225,21627,21627,21625,21626
201907260226,21626,21627,21626,21627
201907260227,21627,21630,21625,21627
201907260228,21627,21631,21625,21627
201907260229,21627,21630,21627,21630
201907260230,21630,21633,21626,21632
201907260231,21632,21636,21630,21631
201907260232,21632,21632,21631,21632
201907260233,21632,21634,21631,21634
201907260234,21634,21636,21631,21634
201907260235,21634,21635,21631,21632
201907260236,21632,21636,21630,21632
201907260237,21632,21632,21630,21632
201907260238,21632,21633,21631,21632
201907260239,21632,21632,21631,21632
201907260240,21631,21641,21631,21641
201907260241,21641,21641,21635,21641
201907260242,21641,21646,21640,21646
201907260243,21646,21647,21645,21647
201907260244,21647,21647,21647,21647
201907260245,21647,21647,21642,21642
201907260246,21642,21647,21641,21642
201907260247,21642,21642,21642,21642
201907260248,21642,21642,21642,21642
201907260249,21642,21642,21640,21642
201907260250,21642,21642,21642,21642
201907260251,21642,21642,21636,21637
201907260252,21637,21637,21637,21637
201907260253,21637,21637,21637,21637
201907260254,21637,21637,21630,21636
201907260255,21636,21637,21631,21637
201907260256,21637,21641,21635,21637
201907260257,21637,21637,21630,21633
201907260258,21633,21636,21630,21632
201907260259,21632,21632,21629,21629
201907260300,21629,21637,21629,21637
201907260301,21637,21642,21636,21641
201907260302,21640,21646,21636,21638
201907260303,21638,21642,21638,21642
201907260304,21642,21642,21638,21638
201907260305,21638,21641,21635,21636
201907260306,21636,21641,21635,21641
201907260307,21641,21642,21638,21642
201907260308,21642,21642,21639,21642
201907260309,21642,21642,21636,21642
201907260310,21642,21645,21640,21645
201907260311,21645,21650,21644,21650
201907260312,21650,21652,21643,21652
201907260313,21652,21652,21650,21652
201907260314,21652,21653,21650,21652
201907260315,21652,21652,21650,21652
201907260316,21652,21652,21647,21647
201907260317,21647,21647,21647,21647
201907260318,21647,21647,21636,21641
201907260319,21641,21642,21640,21642
201907260320,21642,21647,21639,21647
201907260321,21647,21647,21640,21647
201907260322,21647,21652,21645,21647
201907260323,21647,21647,21641,21642
201907260324,21642,21642,21640,21641
201907260325,21642,21647,21639,21639
201907260326,21639,21642,21639,21642
201907260327,21642,21642,21640,21641
201907260328,21641,21646,21641,21642
201907260329,21642,21642,21639,21639
201907260330,21639,21639,21631,21634
201907260331,21634,21637,21630,21637
201907260332,21637,21641,21636,21641
201907260333,21641,21642,21635,21641
201907260334,21641,21642,21636,21637
201907260335,21637,21637,21634,21634
201907260336,21634,21636,21631,21636
201907260337,21636,21640,21635,21637
201907260338,21637,21637,21636,21637
201907260339,21637,21637,21630,21636
201907260340,21636,21636,21631,21632
201907260341,21632,21636,21631,21635
201907260342,21635,21636,21631,21633
201907260343,21633,21637,21631,21635
201907260344,21635,21642,21633,21642
201907260345,21642,21644,21635,21638
201907260346,21636,21637,21636,21637
201907260347,21637,21637,21630,21634
201907260348,21637,21637,21631,21636
201907260349,21636,21637,21634,21637
201907260350,21637,21637,21632,21632
201907260351,21632,21637,21632,21637
201907260352,21637,21637,21630,21631
201907260353,21631,21634,21630,21632
201907260354,21632,21632,21625,21626
201907260355,21626,21631,21625,21629
201907260356,21629,21630,21617,21617
201907260357,21617,21622,21617,21619
201907260358,21619,21622,21614,21621
201907260359,21621,21622,21617,21617
201907260400,21617,21617,21605,21611
201907260401,21611,21622,21611,21617
201907260402,21616,21617,21609,21612
201907260403,21612,21612,21604,21605
201907260404,21605,21607,21605,21607
201907260405,21607,21607,21600,21604
201907260406,21604,21607,21600,21606
201907260407,21606,21607,21605,21607
201907260408,21607,21609,21605,21609
201907260409,21609,21610,21603,21607
201907260410,21607,21607,21600,21605
201907260411,21605,21611,21605,21605
201907260412,21605,21607,21605,21606
201907260413,21606,21607,21606,21607
201907260414,21607,21607,21606,21607
201907260415,21607,21611,21606,21606
201907260416,21606,21611,21605,21611
201907260417,21611,21612,21606,21611
201907260418,21611,21616,21611,21615
201907260419,21615,21616,21611,21614
201907260420,21614,21617,21614,21617
201907260421,21617,21620,21610,21610
201907260422,21610,21612,21604,21607
201907260423,21607,21612,21606,21611
201907260424,21611,21612,21605,21606
201907260425,21606,21614,21606,21611
201907260426,21611,21616,21611,21616
201907260427,21616,21617,21610,21612
201907260428,21612,21614,21611,21612
201907260429,21612,21617,21610,21616
201907260430,21616,21617,21611,21617
201907260431,21617,21622,21614,21622
201907260432,21622,21622,21616,21622
201907260433,21622,21624,21621,21622
201907260434,21622,21622,21621,21621
201907260435,21621,21622,21616,21617
201907260436,21617,21621,21613,21617
201907260437,21617,21622,21616,21622
201907260438,21622,21622,21615,21617
201907260439,21617,21617,21611,21613
201907260440,21613,21616,21611,21616
201907260441,21616,21617,21616,21617
201907260442,21617,21621,21615,21620
201907260443,21620,21622,21615,21617
201907260444,21617,21617,21614,21614
201907260445,21614,21621,21614,21621
201907260446,21621,21622,21616,21617
201907260447,21617,21622,21615,21617
201907260448,21617,21617,21615,21615
201907260449,21615,21620,21615,21620
201907260450,21620,21622,21616,21617
201907260451,21617,21622,21615,21622
201907260452,21622,21630,21620,21627
201907260453,21627,21632,21625,21632
201907260454,21632,21632,21627,21627
201907260455,21626,21626,21615,21617
201907260456,21617,21617,21614,21617
201907260457,21617,21617,21615,21617
201907260458,21617,21617,21615,21617
201907260459,21617,21624,21615,21620
201907260500,21620,21629,21620,21627
201907260501,21627,21631,21610,21617
201907260502,21617,21622,21610,21622
201907260503,21622,21627,21621,21622
201907260504,21622,21622,21616,21621
201907260505,21621,21627,21620,21624
201907260506,21624,21631,21620,21626
201907260507,21626,21627,21624,21627
201907260508,21627,21627,21620,21622
201907260509,21622,21625,21621,21621
201907260510,21621,21627,21621,21625
201907260511,21625,21640,21620,21640
201907260512,21640,21640,21626,21626
201907260513,21626,21626,21620,21621
201907260514,21621,21621,21612,21614
201907260515,21614,21616,21614,21616
201907260516,21616,21617,21616,21617
201907260517,21616,21617,21611,21612
201907260518,21612,21612,21611,21612
201907260519,21612,21612,21612,21612
201907260520,21612,21612,21609,21609
201907260521,21609,21609,21609,21609
201907260522,21609,21609,21609,21609
201907260523,21609,21610,21607,21610
201907260524,21610,21612,21609,21612
201907260525,21612,21612,21602,21602
201907260526,21602,21603,21600,21600
201907260527,21600,21603,21600,21601
201907260528,21601,21605,21601,21601
201907260529,21601,21606,21601,21604
201907260530,21604,21608,21601,21601
201907260531,21601,21607,21601,21606
201907260532,21606,21606,21605,21605
201907260533,21605,21607,21605,21607
201907260534,21607,21607,21605,21605
201907260535,21605,21605,21595,21601
201907260536,21601,21601,21598,21601
201907260537,21601,21601,21595,21598
201907260538,21598,21598,21597,21597
201907260539,21597,21598,21597,21598
201907260540,21598,21598,21595,21596
201907260541,21596,21596,21595,21595
201907260542,21595,21598,21595,21598
201907260543,21598,21598,21597,21597
201907260544,21597,21598,21597,21598
201907260545,21598,21598,21597,21597
201907260546,21597,21597,21597,21597
201907260547,21597,21597,21596,21597
201907260548,21597,21597,21590,21593
201907260549,21593,21593,21590,21590
201907260550,21590,21592,21585,21586
201907260551,21586,21591,21585,21587
201907260552,21587,21587,21586,21586
201907260553,21586,21587,21586,21587
201907260554,21587,21588,21585,21588
201907260555,21588,21592,21588,21592
201907260556,21592,21592,21586,21588
201907260557,21588,21593,21588,21588
201907260558,21588,21588,21585,21585
201907260559,21585,21589,21582,21582
