日時,始値(BID),高値(BID),安値(BID),終値(BID)
201907010830,21602,21614,21592,21600
201907010831,21600,21622,21600,21616
201907010832,21616,21631,21616,21621
201907010833,21621,21627,21603,21604
201907010834,21604,21610,21600,21606
201907010835,21606,21622,21606,21621
201907010836,21621,21622,21606,21609
201907010837,21609,21612,21605,21607
201907010838,21607,21607,21607,21607
201907010839,21607,21616,21606,21616
201907010840,21616,21622,21611,21615
201907010841,21615,21616,21600,21612
201907010842,21612,21622,21610,21622
201907010843,21627,21632,21620,21622
201907010844,21622,21641,21622,21636
201907010845,21635,21641,21625,21632
201907010846,21632,21637,21626,21636
201907010847,21636,21640,21635,21637
201907010848,21637,21637,21632,21633
201907010849,21633,21635,21626,21630
201907010850,21627,21630,21626,21626
201907010851,21626,21629,21621,21622
201907010852,21622,21626,21621,21624
201907010853,21624,21625,21621,21625
201907010854,21625,21626,21624,21625
201907010855,21625,21632,21625,21631
201907010856,21631,21635,21630,21635
201907010857,21635,21638,21635,21636
201907010858,21636,21639,21636,21637
201907010859,21637,21640,21632,21637
201907010900,21637,21646,21631,21642
201907010901,21642,21653,21616,21618
201907010902,21619,21620,21607,21612
201907010903,21612,21624,21612,21622
201907010904,21622,21624,21602,21602
201907010905,21602,21606,21586,21591
201907010906,21591,21598,21591,21597
201907010907,21597,21610,21596,21607
201907010908,21607,21607,21593,21595
201907010909,21595,21601,21591,21593
201907010910,21593,21597,21588,21591
201907010911,21591,21597,21591,21597
201907010912,21596,21596,21589,21590
201907010913,21590,21591,21582,21582
201907010914,21582,21584,21577,21578
201907010915,21578,21587,21578,21587
201907010916,21587,21591,21583,21583
201907010917,21585,21585,21576,21582
201907010918,21582,21582,21576,21577
201907010919,21577,21584,21577,21582
201907010920,21582,21586,21581,21582
201907010921,21582,21582,21581,21582
201907010922,21582,21585,21581,21582
201907010923,21582,21584,21581,21582
201907010924,21582,21585,21577,21583
201907010925,21584,21584,21578,21582
201907010926,21582,21582,21577,21577
201907010927,21577,21577,21566,21570
201907010928,21570,21572,21566,21568
201907010929,21568,21572,21566,21568
201907010930,21568,21571,21568,21569
201907010931,21569,21570,21565,21567
201907010932,21567,21567,21562,21562
201907010933,21561,21562,21561,21562
201907010934,21562,21566,21554,21554
201907010935,21555,21561,21555,21561
201907010936,21561,21562,21557,21561
201907010937,21561,21561,21557,21559
201907010938,21559,21559,21551,21552
201907010939,21552,21555,21547,21551
201907010940,21551,21555,21550,21550
201907010941,21551,21551,21542,21544
201907010942,21544,21544,21537,21537
201907010943,21537,21542,21537,21540
201907010944,21540,21545,21540,21545
201907010945,21545,21552,21545,21548
201907010946,21548,21552,21547,21551
201907010947,21551,21552,21551,21551
201907010948,21552,21555,21552,21552
201907010949,21552,21552,21552,21552
201907010950,21552,21552,21552,21552
201907010951,21552,21552,21543,21544
201907010952,21545,21545,21537,21541
201907010953,21541,21541,21533,21533
201907010954,21534,21536,21531,21531
201907010955,21531,21535,21527,21533
201907010956,21533,21533,21521,21524
201907010957,21524,21538,21522,21536
201907010958,21536,21542,21536,21542
201907010959,21542,21544,21541,21543
201907011000,21543,21556,21543,21556
201907011001,21556,21561,21551,21561
201907011002,21561,21566,21561,21566
201907011003,21566,21567,21565,21567
201907011004,21567,21567,21562,21562
201907011005,21562,21576,21562,21572
201907011006,21572,21580,21572,21578
201907011007,21577,21582,21577,21581
201907011008,21581,21582,21581,21582
201907011009,21582,21591,21582,21591
201907011010,21591,21592,21585,21585
201907011011,21588,21590,21586,21590
201907011012,21590,21602,21590,21596
201907011013,21596,21604,21596,21602
201907011014,21602,21602,21597,21597
201907011015,21597,21599,21596,21596
201907011016,21596,21597,21590,21590
201907011017,21590,21591,21586,21587
201907011018,21587,21594,21587,21592
201907011019,21592,21595,21592,21594
201907011020,21594,21595,21592,21592
201907011021,21592,21592,21586,21587
201907011022,21587,21587,21582,21584
201907011023,21584,21587,21582,21582
201907011024,21582,21585,21577,21582
201907011025,21582,21587,21581,21587
201907011026,21587,21591,21587,21591
201907011027,21590,21591,21590,21591
201907011028,21591,21596,21591,21594
201907011029,21594,21603,21593,21602
201907011030,21602,21602,21596,21600
201907011031,21600,21600,21586,21587
201907011032,21587,21596,21587,21595
201907011033,21595,21600,21594,21599
201907011034,21599,21604,21592,21593
201907011035,21593,21593,21576,21580
201907011036,21581,21582,21572,21572
201907011037,21572,21576,21571,21572
201907011038,21572,21572,21562,21563
201907011039,21563,21564,21557,21560
201907011040,21560,21565,21557,21565
201907011041,21565,21569,21564,21568
201907011042,21569,21569,21565,21569
201907011043,21569,21570,21565,21569
201907011044,21569,21574,21569,21573
201907011045,21573,21573,21551,21562
201907011046,21562,21574,21561,21571
201907011047,21571,21575,21571,21575
201907011048,21574,21579,21574,21577
201907011049,21577,21587,21573,21587
201907011050,21587,21588,21586,21587
201907011051,21587,21592,21586,21590
201907011052,21590,21594,21586,21587
201907011053,21587,21591,21586,21589
201907011054,21589,21590,21586,21587
201907011055,21587,21594,21587,21594
201907011056,21594,21594,21581,21582
201907011057,21582,21590,21581,21590
201907011058,21590,21593,21590,21592
201907011059,21592,21595,21591,21595
201907011100,21595,21602,21595,21602
201907011101,21602,21612,21602,21612
201907011102,21612,21623,21612,21619
201907011103,21619,21622,21616,21621
201907011104,21621,21621,21616,21617
201907011105,21617,21619,21606,21606
201907011106,21608,21612,21606,21608
201907011107,21610,21612,21609,21612
201907011108,21612,21616,21611,21616
201907011109,21616,21622,21616,21617
201907011110,21617,21623,21617,21622
201907011111,21622,21622,21611,21617
201907011112,21617,21621,21613,21621
201907011113,21621,21626,21620,21625
201907011114,21625,21633,21625,21627
201907011115,21627,21627,21621,21622
201907011116,21622,21623,21621,21622
201907011117,21622,21622,21622,21622
201907011118,21622,21626,21621,21622
201907011119,21622,21627,21622,21627
201907011120,21627,21627,21626,21627
201907011121,21627,21627,21621,21623
201907011122,21623,21632,21622,21626
201907011123,21626,21627,21622,21622
201907011124,21622,21627,21621,21622
201907011125,21622,21630,21621,21628
201907011126,21626,21633,21626,21632
201907011127,21632,21632,21623,21624
201907011128,21624,21627,21623,21625
201907011129,21625,21626,21621,21623
201907011130,21623,21623,21621,21622
201907011131,21622,21622,21621,21621
201907011132,21621,21621,21615,21616
201907011133,21616,21617,21615,21616
201907011134,21616,21617,21616,21617
201907011135,21617,21617,21615,21616
201907011136,21616,21617,21614,21616
201907011137,21616,21616,21611,21612
201907011138,21612,21612,21611,21611
201907011139,21611,21617,21611,21617
201907011140,21617,21620,21616,21619
201907011141,21619,21620,21617,21617
201907011142,21617,21624,21617,21623
201907011143,21623,21623,21617,21619
201907011144,21619,21621,21618,21621
201907011145,21621,21625,21620,21625
201907011146,21625,21626,21624,21625
201907011147,21625,21626,21621,21622
201907011148,21622,21622,21622,21622
201907011149,21622,21622,21621,21621
201907011150,21621,21622,21621,21622
201907011151,21622,21622,21621,21621
201907011152,21621,21622,21621,21622
201907011153,21622,21622,21622,21622
201907011154,21622,21622,21621,21621
201907011155,21621,21622,21621,21622
201907011156,21622,21625,21621,21623
201907011157,21622,21629,21621,21627
201907011158,21627,21627,21627,21627
201907011159,21627,21627,21626,21627
201907011200,21627,21627,21626,21627
201907011201,21627,21627,21622,21622
201907011202,21622,21622,21622,21622
201907011203,21622,21627,21622,21627
201907011204,21627,21627,21627,21627
201907011205,21627,21627,21627,21627
201907011206,21627,21627,21627,21627
201907011207,21627,21627,21627,21627
201907011208,21627,21627,21627,21627
201907011209,21627,21629,21627,21627
201907011210,21627,21627,21627,21627
201907011211,21627,21627,21627,21627
201907011212,21627,21627,21627,21627
201907011213,21627,21627,21627,21627
201907011214,21627,21628,21627,21627
201907011215,21627,21634,21627,21634
201907011216,21634,21635,21632,21632
201907011217,21632,21632,21632,21632
201907011218,21632,21632,21632,21632
201907011219,21632,21632,21632,21632
201907011220,21632,21632,21632,21632
201907011221,21632,21632,21632,21632
201907011222,21632,21632,21632,21632
201907011223,21632,21632,21632,21632
201907011224,21632,21632,21631,21632
201907011225,21632,21632,21631,21632
201907011226,21631,21632,21626,21627
201907011227,21627,21627,21622,21622
201907011228,21622,21622,21616,21617
201907011229,21617,21617,21611,21612
201907011230,21612,21617,21611,21612
201907011231,21612,21613,21612,21612
201907011232,21612,21612,21601,21610
201907011233,21611,21620,21611,21620
201907011234,21620,21622,21617,21621
201907011235,21621,21627,21621,21627
201907011236,21627,21631,21627,21631
201907011237,21631,21634,21630,21634
201907011238,21634,21635,21634,21635
201907011239,21635,21635,21634,21635
201907011240,21635,21635,21632,21632
201907011241,21632,21634,21631,21632
201907011242,21632,21633,21631,21632
201907011243,21632,21634,21632,21634
201907011244,21634,21635,21634,21635
201907011245,21635,21636,21635,21636
201907011246,21636,21641,21635,21641
201907011247,21641,21642,21641,21642
201907011248,21642,21642,21642,21642
201907011249,21642,21642,21642,21642
201907011250,21642,21642,21632,21632
201907011251,21632,21632,21632,21632
201907011252,21632,21632,21625,21629
201907011253,21629,21630,21628,21628
201907011254,21628,21630,21628,21629
201907011255,21629,21637,21629,21636
201907011256,21636,21642,21636,21642
201907011257,21642,21642,21639,21640
201907011258,21640,21644,21640,21642
201907011259,21642,21642,21638,21639
201907011300,21640,21640,21636,21640
201907011301,21640,21644,21640,21642
201907011302,21642,21643,21641,21642
201907011303,21642,21644,21642,21644
201907011304,21644,21645,21644,21645
201907011305,21645,21645,21644,21645
201907011306,21645,21645,21642,21644
201907011307,21644,21644,21642,21642
201907011308,21642,21645,21642,21644
201907011309,21644,21645,21644,21645
201907011310,21645,21645,21645,21645
201907011311,21645,21653,21645,21652
201907011312,21652,21652,21652,21652
201907011313,21652,21652,21652,21652
201907011314,21652,21652,21646,21646
201907011315,21646,21646,21638,21641
201907011316,21640,21643,21640,21642
201907011317,21642,21643,21636,21637
201907011318,21637,21637,21636,21636
201907011319,21636,21651,21636,21650
201907011320,21650,21653,21650,21652
201907011321,21652,21652,21652,21652
201907011322,21652,21652,21652,21652
201907011323,21652,21656,21652,21655
201907011324,21655,21656,21652,21652
201907011325,21652,21654,21651,21654
201907011326,21654,21654,21650,21652
201907011327,21652,21658,21652,21658
201907011328,21658,21659,21647,21649
201907011329,21649,21650,21648,21649
201907011330,21649,21649,21648,21648
201907011331,21649,21651,21649,21651
201907011332,21651,21655,21651,21655
201907011333,21655,21662,21655,21662
201907011334,21661,21663,21661,21662
201907011335,21662,21664,21661,21662
201907011336,21662,21662,21662,21662
201907011337,21662,21663,21661,21662
201907011338,21662,21662,21662,21662
201907011339,21662,21662,21662,21662
201907011340,21662,21662,21662,21662
201907011341,21662,21662,21662,21662
201907011342,21662,21662,21662,21662
201907011343,21662,21663,21662,21662
201907011344,21662,21665,21662,21665
201907011345,21665,21670,21665,21670
201907011346,21670,21671,21670,21671
201907011347,21671,21677,21671,21677
201907011348,21677,21682,21677,21682
201907011349,21682,21682,21672,21672
201907011350,21672,21677,21672,21672
201907011351,21672,21677,21672,21677
201907011352,21677,21677,21676,21677
201907011353,21677,21677,21677,21677
201907011354,21677,21677,21677,21677
201907011355,21677,21678,21672,21677
201907011356,21677,21678,21677,21677
201907011357,21677,21677,21677,21677
201907011358,21677,21677,21672,21672
201907011359,21672,21677,21672,21677
201907011400,21677,21677,21671,21674
201907011401,21674,21676,21674,21676
201907011402,21676,21676,21675,21675
201907011403,21675,21677,21675,21677
201907011404,21677,21680,21676,21677
201907011405,21677,21686,21677,21686
201907011406,21686,21687,21686,21686
201907011407,21686,21686,21686,21686
201907011408,21686,21686,21682,21682
201907011409,21682,21685,21682,21685
201907011410,21685,21685,21684,21685
201907011411,21685,21690,21685,21689
201907011412,21689,21690,21687,21690
201907011413,21690,21697,21690,21697
201907011414,21697,21697,21696,21697
201907011415,21697,21697,21692,21692
201907011416,21692,21694,21692,21692
201907011417,21692,21700,21692,21697
201907011418,21697,21698,21696,21697
201907011419,21697,21701,21696,21701
201907011420,21701,21702,21687,21692
201907011421,21692,21696,21692,21695
201907011422,21695,21699,21692,21697
201907011423,21697,21697,21697,21697
201907011424,21697,21697,21697,21697
201907011425,21697,21697,21697,21697
201907011426,21697,21697,21689,21692
201907011427,21692,21695,21691,21695
201907011428,21695,21697,21691,21697
201907011429,21697,21700,21697,21697
201907011430,21697,21699,21697,21697
201907011431,21697,21697,21697,21697
201907011432,21697,21701,21697,21701
201907011433,21701,21701,21692,21692
201907011434,21692,21692,21692,21692
201907011435,21692,21695,21688,21694
201907011436,21694,21697,21692,21695
201907011437,21695,21696,21695,21695
201907011438,21695,21696,21692,21692
201907011439,21692,21692,21692,21692
201907011440,21692,21692,21687,21687
201907011441,21687,21692,21687,21692
201907011442,21692,21695,21692,21694
201907011443,21694,21695,21692,21694
201907011444,21694,21695,21693,21694
201907011445,21694,21699,21693,21697
201907011446,21697,21699,21697,21697
201907011447,21697,21697,21697,21697
201907011448,21697,21697,21697,21697
201907011449,21697,21697,21687,21690
201907011450,21690,21696,21690,21695
201907011451,21695,21701,21695,21701
201907011452,21700,21702,21700,21702
201907011453,21702,21707,21702,21707
201907011454,21707,21707,21700,21702
201907011455,21702,21707,21702,21705
201907011456,21705,21712,21705,21712
201907011457,21712,21716,21712,21716
201907011458,21716,21720,21712,21712
201907011459,21712,21714,21707,21712
201907011500,21712,21715,21701,21712
201907011501,21712,21714,21706,21707
201907011502,21707,21713,21702,21712
201907011503,21712,21717,21712,21717
201907011504,21717,21727,21717,21726
201907011505,21726,21729,21725,21726
201907011506,21726,21731,21726,21731
201907011507,21731,21735,21730,21735
201907011508,21735,21742,21735,21741
201907011509,21741,21752,21740,21749
201907011510,21750,21751,21739,21742
201907011511,21742,21750,21740,21747
201907011512,21747,21762,21745,21762
201907011513,21762,21762,21751,21752
201907011514,21752,21767,21752,21767
201907011515,21767,21767,21756,21757
201907011516,21757,21764,21757,21761
201907011517,21761,21770,21761,21770
201907011518,21770,21776,21769,21773
201907011519,21773,21775,21770,21771
201907011520,21771,21772,21768,21770
201907011521,21770,21774,21770,21774
201907011522,21774,21774,21771,21772
201907011523,21772,21775,21772,21774
201907011524,21774,21779,21774,21779
201907011525,21777,21777,21770,21772
201907011526,21772,21772,21770,21772
201907011527,21772,21772,21765,21766
201907011528,21766,21777,21766,21776
201907011529,21776,21779,21774,21778
201907011530,21778,21781,21772,21776
201907011531,21776,21777,21771,21777
201907011532,21776,21777,21770,21775
201907011533,21775,21775,21770,21771
201907011534,21771,21772,21771,21772
201907011535,21772,21775,21770,21770
201907011536,21770,21777,21770,21777
201907011537,21777,21777,21776,21777
201907011538,21777,21777,21770,21772
201907011539,21772,21772,21770,21771
201907011540,21771,21772,21770,21772
201907011541,21772,21772,21771,21771
201907011542,21771,21772,21766,21767
201907011543,21767,21771,21765,21766
201907011544,21766,21772,21765,21772
201907011545,21772,21772,21771,21772
201907011546,21772,21772,21772,21772
201907011547,21772,21776,21770,21772
201907011548,21772,21775,21771,21772
201907011549,21772,21772,21771,21772
201907011550,21772,21772,21771,21771
201907011551,21771,21771,21765,21767
201907011552,21767,21767,21767,21767
201907011553,21767,21770,21765,21767
201907011554,21767,21767,21767,21767
201907011555,21769,21772,21762,21765
201907011556,21765,21765,21762,21764
201907011557,21764,21765,21760,21765
201907011558,21765,21774,21765,21774
201907011559,21774,21779,21769,21779
201907011600,21779,21784,21775,21784
201907011601,21784,21792,21784,21789
201907011602,21789,21795,21786,21794
201907011603,21794,21801,21794,21800
201907011604,21800,21801,21790,21795
201907011605,21796,21797,21790,21796
201907011606,21796,21802,21795,21801
201907011607,21801,21807,21800,21807
201907011608,21807,21807,21800,21801
201907011609,21801,21802,21791,21796
201907011610,21796,21797,21788,21791
201907011611,21791,21791,21785,21787
201907011612,21787,21788,21784,21786
201907011613,21786,21787,21783,21786
201907011614,21786,21792,21786,21791
201907011615,21791,21791,21776,21781
201907011616,21781,21784,21780,21781
201907011617,21781,21782,21771,21773
201907011618,21773,21775,21770,21772
201907011619,21772,21777,21771,21777
201907011620,21777,21777,21773,21773
201907011621,21773,21774,21769,21769
201907011622,21769,21771,21760,21760
201907011623,21760,21766,21759,21759
201907011624,21759,21760,21745,21751
201907011625,21751,21763,21750,21761
201907011626,21761,21763,21757,21763
201907011627,21762,21762,21757,21761
201907011628,21761,21766,21760,21766
201907011629,21766,21767,21761,21762
201907011630,21770,21770,21758,21762
201907011631,21763,21767,21757,21767
201907011632,21767,21771,21766,21770
201907011633,21770,21772,21766,21772
201907011634,21772,21772,21767,21767
201907011635,21767,21772,21766,21767
201907011636,21767,21771,21766,21771
201907011637,21771,21772,21766,21767
201907011638,21767,21767,21762,21762
201907011639,21762,21762,21751,21752
201907011640,21752,21761,21752,21758
201907011641,21758,21761,21756,21759
201907011642,21759,21760,21755,21756
201907011643,21757,21757,21753,21757
201907011644,21757,21769,21756,21766
201907011645,21766,21766,21753,21756
201907011646,21756,21756,21755,21756
201907011647,21756,21758,21751,21752
201907011648,21752,21752,21742,21745
201907011649,21745,21745,21742,21745
201907011650,21744,21750,21743,21747
201907011651,21747,21747,21739,21742
201907011652,21742,21742,21742,21742
201907011653,21742,21742,21740,21742
201907011654,21742,21744,21741,21744
201907011655,21744,21744,21736,21737
201907011656,21737,21737,21731,21732
201907011657,21732,21732,21732,21732
201907011658,21732,21732,21726,21727
201907011659,21727,21727,21721,21723
201907011700,21723,21727,21717,21726
201907011701,21726,21732,21726,21732
201907011702,21732,21732,21727,21732
201907011703,21732,21732,21722,21725
201907011704,21725,21726,21716,21722
201907011705,21722,21722,21716,21720
201907011706,21720,21725,21720,21724
201907011707,21723,21728,21722,21723
201907011708,21723,21731,21723,21728
201907011709,21727,21732,21725,21732
201907011710,21732,21732,21720,21722
201907011711,21722,21727,21721,21727
201907011712,21727,21727,21721,21721
201907011713,21721,21726,21721,21726
201907011714,21726,21726,21721,21725
201907011715,21725,21726,21721,21726
201907011716,21726,21729,21721,21724
201907011717,21724,21732,21722,21732
201907011718,21732,21732,21731,21732
201907011719,21732,21732,21723,21726
201907011720,21727,21731,21726,21730
201907011721,21730,21732,21727,21727
201907011722,21727,21728,21726,21727
201907011723,21727,21727,21717,21722
201907011724,21722,21722,21716,21717
201907011725,21717,21718,21716,21717
201907011726,21717,21720,21716,21718
201907011727,21718,21718,21716,21717
201907011728,21717,21717,21711,21713
201907011729,21713,21716,21709,21716
201907011730,21716,21717,21713,21717
201907011731,21717,21717,21712,21713
201907011732,21711,21712,21710,21712
201907011733,21712,21712,21706,21708
201907011734,21707,21708,21706,21707
201907011735,21707,21711,21707,21707
201907011736,21707,21710,21706,21710
201907011737,21710,21711,21708,21711
201907011738,21711,21712,21711,21712
201907011739,21712,21712,21712,21712
201907011740,21712,21712,21707,21711
201907011741,21711,21716,21711,21716
201907011742,21716,21716,21714,21714
201907011743,21714,21714,21711,21713
201907011744,21714,21714,21711,21712
201907011745,21712,21712,21708,21709
201907011746,21709,21710,21707,21708
201907011747,21708,21708,21706,21707
201907011748,21707,21710,21707,21710
201907011749,21710,21712,21710,21710
201907011750,21710,21711,21707,21708
201907011751,21708,21712,21708,21711
201907011752,21711,21712,21711,21711
201907011753,21711,21712,21711,21711
201907011754,21711,21712,21707,21708
201907011755,21709,21711,21709,21710
201907011756,21710,21710,21707,21707
201907011757,21707,21707,21707,21707
201907011758,21707,21707,21707,21707
201907011759,21707,21708,21707,21707
201907011800,21707,21712,21707,21712
201907011801,21712,21712,21707,21707
201907011802,21707,21707,21702,21702
201907011803,21702,21705,21701,21704
201907011804,21704,21707,21704,21707
201907011805,21707,21709,21706,21708
201907011806,21708,21712,21708,21711
201907011807,21711,21712,21706,21707
201907011808,21707,21710,21705,21707
201907011809,21707,21709,21702,21703
201907011810,21703,21706,21702,21705
201907011811,21705,21705,21695,21696
201907011812,21696,21701,21695,21697
201907011813,21697,21700,21696,21697
201907011814,21697,21697,21696,21697
201907011815,21697,21697,21692,21693
201907011816,21693,21694,21692,21692
201907011817,21692,21695,21692,21695
201907011818,21695,21696,21692,21693
201907011819,21693,21697,21693,21697
201907011820,21697,21698,21695,21698
201907011821,21698,21702,21696,21701
201907011822,21701,21702,21701,21702
201907011823,21702,21702,21701,21702
201907011824,21702,21706,21701,21702
201907011825,21701,21703,21701,21702
201907011826,21702,21702,21696,21698
201907011827,21699,21702,21698,21702
201907011828,21702,21707,21702,21706
201907011829,21706,21711,21706,21711
201907011830,21711,21713,21711,21712
201907011831,21712,21712,21712,21712
201907011832,21712,21712,21712,21712
201907011833,21712,21717,21712,21717
201907011834,21717,21717,21717,21717
201907011835,21717,21717,21717,21717
201907011836,21717,21720,21716,21720
201907011837,21721,21723,21721,21722
201907011838,21722,21722,21722,21722
201907011839,21722,21724,21717,21720
201907011840,21719,21721,21716,21717
201907011841,21717,21717,21716,21717
201907011842,21717,21717,21716,21716
201907011843,21716,21717,21716,21716
201907011844,21716,21716,21711,21713
201907011845,21713,21716,21711,21716
201907011846,21716,21717,21714,21716
201907011847,21716,21717,21715,21717
201907011848,21717,21719,21716,21716
201907011849,21716,21717,21716,21717
201907011850,21717,21717,21713,21713
201907011851,21713,21717,21713,21717
201907011852,21716,21722,21716,21722
201907011853,21722,21722,21720,21721
201907011854,21721,21721,21720,21721
201907011855,21721,21721,21720,21720
201907011856,21720,21721,21718,21721
201907011857,21721,21721,21720,21720
201907011858,21721,21722,21721,21721
201907011859,21721,21721,21718,21720
201907011900,21720,21721,21717,21717
201907011901,21717,21717,21716,21717
201907011902,21717,21721,21717,21721
201907011903,21721,21721,21719,21720
201907011904,21720,21722,21720,21721
201907011905,21721,21722,21721,21721
201907011906,21721,21722,21720,21721
201907011907,21721,21724,21721,21724
201907011908,21724,21725,21723,21725
201907011909,21725,21725,21722,21722
201907011910,21722,21725,21721,21725
201907011911,21725,21725,21725,21725
201907011912,21725,21725,21723,21724
201907011913,21724,21725,21724,21725
201907011914,21725,21725,21723,21725
201907011915,21725,21726,21725,21725
201907011916,21725,21731,21725,21731
201907011917,21731,21731,21730,21730
201907011918,21730,21732,21730,21732
201907011919,21732,21732,21731,21732
201907011920,21732,21736,21732,21735
201907011921,21734,21735,21731,21731
201907011922,21731,21735,21731,21734
201907011923,21734,21738,21734,21737
201907011924,21737,21741,21736,21740
201907011925,21740,21741,21737,21737
201907011926,21737,21737,21737,21737
201907011927,21737,21737,21737,21737
201907011928,21737,21737,21736,21737
201907011929,21737,21737,21735,21736
201907011930,21736,21736,21731,21732
201907011931,21732,21732,21731,21732
201907011932,21732,21736,21731,21735
201907011933,21736,21736,21735,21736
201907011934,21736,21736,21735,21735
201907011935,21735,21737,21735,21737
201907011936,21737,21737,21731,21732
201907011937,21732,21732,21731,21732
201907011938,21732,21732,21729,21731
201907011939,21731,21732,21730,21731
201907011940,21731,21732,21729,21729
201907011941,21729,21729,21727,21727
201907011942,21727,21727,21727,21727
201907011943,21727,21730,21727,21730
201907011944,21730,21730,21727,21727
201907011945,21727,21727,21727,21727
201907011946,21727,21730,21726,21730
201907011947,21730,21730,21726,21727
201907011948,21727,21730,21722,21722
201907011949,21722,21725,21722,21725
201907011950,21725,21727,21725,21726
201907011951,21726,21727,21725,21726
201907011952,21726,21726,21723,21725
201907011953,21725,21727,21725,21727
201907011954,21727,21727,21727,21727
201907011955,21727,21731,21726,21728
201907011956,21728,21730,21726,21729
201907011957,21729,21731,21729,21731
201907011958,21731,21731,21728,21728
201907011959,21728,21730,21726,21728
201907012000,21729,21730,21722,21722
201907012001,21722,21726,21722,21726
201907012002,21726,21726,21725,21726
201907012003,21726,21726,21725,21726
201907012004,21726,21727,21726,21727
201907012005,21727,21727,21724,21726
201907012006,21726,21727,21726,21726
201907012007,21726,21726,21722,21723
201907012008,21724,21726,21722,21726
201907012009,21726,21727,21726,21727
201907012010,21727,21727,21726,21727
201907012011,21727,21728,21726,21727
201907012012,21727,21731,21727,21731
201907012013,21731,21731,21726,21727
201907012014,21727,21731,21726,21731
201907012015,21731,21731,21727,21731
201907012016,21731,21732,21729,21730
201907012017,21730,21735,21730,21734
201907012018,21734,21735,21731,21735
201907012019,21735,21739,21735,21739
201907012020,21739,21741,21736,21737
201907012021,21737,21737,21736,21737
201907012022,21737,21737,21736,21737
201907012023,21737,21737,21736,21737
201907012024,21737,21737,21736,21736
201907012025,21736,21737,21733,21733
201907012026,21733,21737,21733,21737
201907012027,21737,21737,21733,21737
201907012028,21737,21737,21736,21737
201907012029,21736,21737,21733,21733
201907012030,21733,21737,21733,21737
201907012031,21737,21738,21736,21737
201907012032,21737,21737,21737,21737
201907012033,21737,21737,21737,21737
201907012034,21737,21737,21736,21737
201907012035,21737,21737,21736,21737
201907012036,21737,21737,21737,21737
201907012037,21737,21737,21737,21737
201907012038,21737,21737,21736,21737
201907012039,21737,21737,21737,21737
201907012040,21737,21737,21737,21737
201907012041,21737,21740,21737,21740
201907012042,21740,21741,21740,21741
201907012043,21741,21741,21741,21741
201907012044,21741,21745,21741,21745
201907012045,21745,21745,21741,21742
201907012046,21742,21742,21741,21742
201907012047,21742,21742,21742,21742
201907012048,21742,21742,21742,21742
201907012049,21742,21742,21742,21742
201907012050,21742,21742,21742,21742
201907012051,21742,21742,21741,21741
201907012052,21741,21741,21737,21740
201907012053,21741,21741,21739,21739
201907012054,21739,21741,21739,21741
201907012055,21741,21743,21741,21741
201907012056,21741,21744,21741,21744
201907012057,21744,21745,21742,21744
201907012058,21744,21746,21744,21746
201907012059,21746,21746,21745,21746
201907012100,21746,21749,21741,21745
201907012101,21745,21750,21741,21750
201907012102,21750,21751,21750,21751
201907012103,21751,21751,21746,21747
201907012104,21747,21747,21747,21747
201907012105,21747,21749,21746,21747
201907012106,21747,21747,21747,21747
201907012107,21747,21747,21747,21747
201907012108,21747,21747,21747,21747
201907012109,21747,21749,21746,21749
201907012110,21749,21749,21746,21747
201907012111,21747,21747,21741,21744
201907012112,21744,21746,21741,21745
201907012113,21745,21745,21743,21745
201907012114,21745,21747,21745,21746
201907012115,21746,21746,21746,21746
201907012116,21746,21747,21746,21746
201907012117,21746,21747,21746,21746
201907012118,21746,21747,21746,21747
201907012119,21747,21750,21747,21749
201907012120,21749,21750,21746,21749
201907012121,21749,21750,21747,21747
201907012122,21747,21750,21746,21749
201907012123,21749,21750,21749,21749
201907012124,21749,21749,21747,21747
201907012125,21747,21747,21746,21746
201907012126,21746,21749,21746,21749
201907012127,21749,21752,21749,21751
201907012128,21751,21756,21751,21753
201907012129,21753,21755,21751,21755
201907012130,21755,21755,21755,21755
201907012131,21755,21755,21754,21755
201907012132,21755,21755,21754,21755
201907012133,21755,21756,21754,21755
201907012134,21756,21757,21756,21756
201907012135,21756,21757,21754,21757
201907012136,21757,21759,21756,21757
201907012137,21757,21757,21757,21757
201907012138,21757,21757,21757,21757
201907012139,21757,21757,21757,21757
201907012140,21757,21757,21756,21757
201907012141,21757,21757,21756,21756
201907012142,21756,21757,21756,21757
201907012143,21757,21757,21756,21756
201907012144,21756,21756,21751,21752
201907012145,21752,21752,21751,21752
201907012146,21752,21755,21752,21754
201907012147,21754,21761,21752,21760
201907012148,21760,21761,21756,21757
201907012149,21757,21757,21756,21757
201907012150,21757,21757,21756,21757
201907012151,21757,21757,21757,21757
201907012152,21757,21757,21756,21756
201907012153,21756,21757,21756,21757
201907012154,21757,21760,21757,21759
201907012155,21759,21759,21756,21757
201907012156,21757,21757,21757,21757
201907012157,21757,21757,21757,21757
201907012158,21757,21759,21756,21759
201907012159,21759,21759,21756,21757
201907012200,21757,21760,21756,21760
201907012201,21759,21760,21758,21759
201907012202,21759,21760,21756,21760
201907012203,21760,21760,21757,21757
201907012204,21757,21760,21756,21759
201907012205,21759,21761,21759,21760
201907012206,21760,21761,21760,21761
201907012207,21761,21761,21760,21761
201907012208,21761,21761,21759,21760
201907012209,21759,21760,21756,21757
201907012210,21757,21759,21757,21759
201907012211,21759,21764,21759,21764
201907012212,21764,21765,21763,21764
201907012213,21764,21765,21764,21765
201907012214,21765,21766,21765,21766
201907012215,21766,21767,21762,21762
201907012216,21762,21762,21762,21762
201907012217,21762,21767,21761,21767
201907012218,21767,21767,21767,21767
201907012219,21767,21767,21767,21767
201907012220,21767,21767,21767,21767
201907012221,21767,21767,21767,21767
201907012222,21767,21767,21767,21767
201907012223,21767,21770,21766,21767
201907012224,21767,21767,21766,21767
201907012225,21767,21767,21766,21766
201907012226,21766,21767,21761,21765
201907012227,21765,21766,21763,21766
201907012228,21766,21768,21766,21768
201907012229,21768,21769,21761,21762
201907012230,21762,21767,21757,21762
201907012231,21762,21762,21755,21756
201907012232,21756,21761,21756,21757
201907012233,21757,21762,21756,21759
201907012234,21759,21759,21753,21753
201907012235,21753,21756,21753,21756
201907012236,21756,21759,21753,21757
201907012237,21757,21757,21756,21757
201907012238,21757,21759,21756,21757
201907012239,21757,21758,21751,21753
201907012240,21753,21757,21753,21756
201907012241,21756,21759,21755,21756
201907012242,21756,21757,21752,21752
201907012243,21752,21752,21747,21747
201907012244,21747,21747,21740,21741
201907012245,21741,21747,21736,21737
201907012246,21736,21736,21721,21723
201907012247,21723,21727,21721,21727
201907012248,21727,21727,21725,21726
201907012249,21726,21727,21721,21721
201907012250,21721,21722,21720,21721
201907012251,21721,21722,21721,21722
201907012252,21722,21723,21721,21722
201907012253,21722,21722,21721,21722
201907012254,21722,21722,21716,21716
201907012255,21716,21716,21711,21712
201907012256,21712,21712,21712,21712
201907012257,21712,21716,21711,21716
201907012258,21716,21719,21716,21716
201907012259,21716,21719,21711,21712
201907012300,21712,21729,21712,21716
201907012301,21716,21721,21716,21721
201907012302,21721,21727,21718,21726
201907012303,21726,21729,21722,21726
201907012304,21727,21727,21721,21723
201907012305,21724,21724,21721,21722
201907012306,21722,21725,21721,21723
201907012307,21723,21727,21721,21726
201907012308,21726,21726,21719,21720
201907012309,21720,21721,21716,21716
201907012310,21716,21717,21716,21716
201907012311,21716,21716,21711,21712
201907012312,21712,21712,21707,21707
201907012313,21707,21709,21706,21708
201907012314,21709,21712,21707,21707
201907012315,21708,21709,21701,21701
201907012316,21702,21702,21695,21696
201907012317,21696,21701,21693,21700
201907012318,21700,21700,21696,21700
201907012319,21699,21702,21698,21701
201907012320,21701,21707,21700,21707
201907012321,21707,21707,21701,21703
201907012322,21703,21705,21693,21693
201907012323,21693,21695,21679,21679
201907012324,21679,21681,21677,21680
201907012325,21680,21682,21680,21680
201907012326,21680,21681,21677,21677
201907012327,21677,21682,21677,21681
201907012328,21681,21682,21681,21682
201907012329,21682,21682,21681,21682
201907012330,21682,21682,21681,21682
201907012331,21682,21682,21677,21679
201907012332,21679,21682,21676,21682
201907012333,21682,21682,21681,21682
201907012334,21682,21682,21672,21674
201907012335,21674,21681,21674,21677
201907012336,21677,21685,21676,21685
201907012337,21685,21692,21685,21692
201907012338,21692,21702,21691,21702
201907012339,21702,21703,21701,21702
201907012340,21702,21711,21702,21711
201907012341,21711,21717,21711,21713
201907012342,21713,21717,21713,21717
201907012343,21717,21720,21717,21719
201907012344,21719,21720,21717,21717
201907012345,21717,21717,21716,21716
201907012346,21716,21716,21709,21716
201907012347,21716,21721,21715,21717
201907012348,21717,21717,21711,21713
201907012349,21713,21716,21707,21707
201907012350,21707,21707,21701,21706
201907012351,21706,21711,21705,21711
201907012352,21711,21712,21708,21711
201907012353,21711,21712,21708,21711
201907012354,21712,21712,21706,21709
201907012355,21709,21711,21703,21707
201907012356,21707,21710,21706,21707
201907012357,21707,21707,21701,21704
201907012358,21704,21706,21701,21703
201907012359,21703,21708,21702,21707
201907020000,21707,21713,21706,21711
201907020001,21714,21716,21711,21714
201907020002,21714,21714,21702,21706
201907020003,21705,21711,21703,21709
201907020004,21709,21716,21706,21712
201907020005,21712,21712,21706,21707
201907020006,21707,21707,21701,21703
201907020007,21703,21704,21701,21703
201907020008,21703,21705,21701,21701
201907020009,21701,21703,21696,21697
201907020010,21697,21697,21691,21692
201907020011,21691,21701,21691,21696
201907020012,21696,21699,21691,21697
201907020013,21697,21697,21691,21692
201907020014,21692,21696,21692,21694
201907020015,21694,21699,21691,21699
201907020016,21699,21702,21696,21702
201907020017,21702,21707,21702,21707
201907020018,21707,21707,21702,21704
201907020019,21703,21706,21701,21703
201907020020,21703,21707,21701,21704
201907020021,21705,21706,21702,21706
201907020022,21706,21706,21696,21698
201907020023,21699,21700,21686,21687
201907020024,21687,21687,21682,21682
201907020025,21682,21684,21682,21682
201907020026,21682,21686,21681,21686
201907020027,21686,21687,21686,21687
201907020028,21686,21687,21682,21682
201907020029,21682,21682,21671,21671
201907020030,21672,21680,21671,21676
201907020031,21677,21679,21671,21672
201907020032,21673,21679,21671,21678
201907020033,21678,21682,21676,21681
201907020034,21681,21681,21675,21679
201907020035,21678,21681,21676,21681
201907020036,21681,21686,21680,21686
201907020037,21686,21691,21685,21690
201907020038,21690,21695,21690,21692
201907020039,21692,21696,21691,21696
201907020040,21696,21696,21693,21696
201907020041,21696,21696,21693,21693
201907020042,21693,21693,21687,21689
201907020043,21689,21689,21681,21686
201907020044,21686,21686,21681,21681
201907020045,21681,21682,21676,21677
201907020046,21677,21682,21676,21682
201907020047,21682,21686,21681,21686
201907020048,21686,21688,21681,21681
201907020049,21682,21682,21676,21680
201907020050,21681,21682,21679,21679
201907020051,21679,21687,21678,21687
201907020052,21687,21692,21687,21692
201907020053,21692,21692,21692,21692
201907020054,21692,21692,21686,21686
201907020055,21686,21686,21684,21685
201907020056,21685,21691,21685,21686
201907020057,21686,21687,21683,21684
201907020058,21684,21688,21684,21687
201907020059,21687,21687,21682,21684
201907020100,21684,21687,21682,21685
201907020101,21685,21690,21684,21689
201907020102,21691,21691,21686,21689
201907020103,21689,21691,21689,21691
201907020104,21691,21692,21687,21690
201907020105,21690,21690,21681,21682
201907020106,21682,21687,21681,21686
201907020107,21685,21686,21681,21686
201907020108,21686,21687,21685,21686
201907020109,21687,21687,21681,21683
201907020110,21684,21686,21684,21685
201907020111,21685,21686,21681,21682
201907020112,21682,21686,21681,21683
201907020113,21683,21684,21681,21683
201907020114,21683,21689,21682,21688
201907020115,21689,21691,21686,21690
201907020116,21690,21690,21686,21687
201907020117,21687,21687,21685,21687
201907020118,21687,21691,21686,21689
201907020119,21689,21689,21686,21687
201907020120,21687,21687,21681,21683
201907020121,21683,21683,21672,21672
201907020122,21672,21674,21671,21672
201907020123,21672,21672,21671,21671
201907020124,21671,21672,21671,21671
201907020125,21671,21672,21669,21672
201907020126,21672,21672,21670,21671
201907020127,21671,21671,21671,21671
201907020128,21671,21671,21669,21671
201907020129,21671,21681,21671,21680
201907020130,21680,21681,21676,21677
201907020131,21677,21677,21675,21676
201907020132,21676,21682,21676,21677
201907020133,21677,21678,21676,21677
201907020134,21677,21680,21676,21680
201907020135,21680,21682,21676,21677
201907020136,21677,21681,21676,21681
201907020137,21680,21681,21676,21677
201907020138,21677,21681,21676,21677
201907020139,21677,21677,21677,21677
201907020140,21677,21682,21676,21677
201907020141,21677,21681,21676,21677
201907020142,21677,21677,21672,21673
201907020143,21673,21675,21671,21674
201907020144,21674,21679,21672,21677
201907020145,21677,21677,21676,21677
201907020146,21677,21678,21676,21677
201907020147,21677,21677,21671,21675
201907020148,21675,21675,21671,21672
201907020149,21672,21677,21671,21677
201907020150,21673,21676,21671,21672
201907020151,21671,21672,21657,21659
201907020152,21659,21661,21658,21658
201907020153,21658,21661,21657,21661
201907020154,21661,21662,21660,21661
201907020155,21661,21661,21657,21657
201907020156,21657,21657,21656,21656
201907020157,21656,21656,21652,21656
201907020158,21656,21656,21654,21654
201907020159,21655,21655,21652,21652
201907020200,21652,21654,21650,21654
201907020201,21654,21654,21650,21650
201907020202,21650,21651,21649,21651
201907020203,21651,21652,21650,21650
201907020204,21650,21652,21649,21650
201907020205,21650,21655,21650,21654
201907020206,21654,21659,21654,21656
201907020207,21656,21660,21656,21660
201907020208,21660,21661,21660,21660
201907020209,21660,21660,21655,21656
201907020210,21656,21659,21655,21657
201907020211,21657,21657,21654,21654
201907020212,21654,21654,21646,21651
201907020213,21651,21651,21635,21640
201907020214,21640,21644,21638,21641
201907020215,21640,21644,21636,21642
201907020216,21642,21642,21641,21641
201907020217,21641,21642,21636,21637
201907020218,21637,21637,21635,21637
201907020219,21637,21637,21632,21636
201907020220,21636,21637,21631,21632
201907020221,21632,21635,21631,21633
201907020222,21633,21637,21631,21637
201907020223,21637,21637,21630,21631
201907020224,21631,21637,21631,21637
201907020225,21637,21642,21635,21637
201907020226,21637,21638,21637,21638
201907020227,21638,21642,21636,21640
201907020228,21640,21642,21640,21642
201907020229,21642,21647,21641,21645
201907020230,21645,21649,21640,21647
201907020231,21647,21650,21645,21647
201907020232,21647,21648,21641,21641
201907020233,21641,21645,21640,21645
201907020234,21645,21646,21640,21642
201907020235,21642,21649,21641,21649
201907020236,21649,21650,21648,21650
201907020237,21650,21651,21650,21650
201907020238,21650,21652,21650,21651
201907020239,21651,21652,21645,21645
201907020240,21645,21650,21642,21642
201907020241,21642,21650,21642,21647
201907020242,21647,21651,21645,21647
201907020243,21647,21650,21646,21647
201907020244,21647,21648,21643,21644
201907020245,21645,21647,21644,21646
201907020246,21646,21652,21645,21651
201907020247,21651,21652,21651,21652
201907020248,21652,21652,21650,21652
201907020249,21652,21652,21651,21651
201907020250,21651,21652,21651,21652
201907020251,21652,21652,21650,21651
201907020252,21651,21651,21650,21651
201907020253,21651,21652,21650,21650
201907020254,21650,21652,21650,21652
201907020255,21652,21652,21651,21652
201907020256,21652,21654,21650,21654
201907020257,21654,21654,21651,21654
201907020258,21654,21655,21651,21655
201907020259,21655,21657,21655,21657
201907020300,21657,21657,21651,21652
201907020301,21652,21652,21650,21650
201907020302,21650,21652,21650,21652
201907020303,21652,21652,21644,21646
201907020304,21646,21646,21640,21642
201907020305,21642,21644,21638,21640
201907020306,21640,21642,21639,21641
201907020307,21640,21647,21640,21642
201907020308,21642,21642,21639,21640
201907020309,21640,21642,21640,21641
201907020310,21641,21642,21634,21641
201907020311,21641,21647,21640,21647
201907020312,21647,21650,21645,21650
201907020313,21650,21650,21647,21650
201907020314,21650,21652,21650,21652
201907020315,21651,21651,21647,21648
201907020316,21648,21651,21646,21649
201907020317,21649,21651,21644,21646
201907020318,21646,21650,21646,21646
201907020319,21646,21647,21636,21638
201907020320,21638,21642,21638,21642
201907020321,21642,21642,21639,21641
201907020322,21641,21642,21641,21642
201907020323,21641,21642,21640,21642
201907020324,21642,21642,21635,21636
201907020325,21636,21637,21633,21635
201907020326,21635,21639,21633,21637
201907020327,21637,21637,21635,21635
201907020328,21635,21635,21630,21631
201907020329,21631,21636,21630,21632
201907020330,21632,21634,21630,21631
201907020331,21631,21636,21631,21635
201907020332,21635,21642,21635,21642
201907020333,21642,21645,21640,21645
201907020334,21645,21645,21644,21645
201907020335,21645,21645,21641,21641
201907020336,21641,21642,21635,21636
201907020337,21636,21642,21636,21641
201907020338,21641,21644,21641,21644
201907020339,21644,21644,21640,21641
201907020340,21641,21642,21639,21642
201907020341,21642,21642,21640,21640
201907020342,21640,21642,21640,21641
201907020343,21641,21642,21640,21642
201907020344,21642,21644,21640,21642
201907020345,21642,21644,21641,21642
201907020346,21642,21642,21640,21640
201907020347,21640,21642,21640,21642
201907020348,21642,21642,21641,21642
201907020349,21642,21642,21641,21642
201907020350,21642,21644,21640,21644
201907020351,21644,21647,21644,21647
201907020352,21647,21649,21645,21646
201907020353,21646,21649,21645,21649
201907020354,21649,21650,21649,21650
201907020355,21650,21650,21645,21647
201907020356,21647,21647,21646,21646
201907020357,21646,21647,21646,21646
201907020358,21646,21646,21640,21641
201907020359,21641,21641,21639,21639
201907020400,21639,21644,21637,21642
201907020401,21642,21642,21641,21641
201907020402,21641,21647,21640,21646
201907020403,21646,21647,21644,21644
201907020404,21644,21645,21641,21644
201907020405,21644,21647,21641,21642
201907020406,21642,21644,21640,21642
201907020407,21642,21642,21640,21641
201907020408,21641,21642,21641,21642
201907020409,21642,21647,21641,21641
201907020410,21641,21647,21641,21647
201907020411,21647,21647,21647,21647
201907020412,21647,21647,21645,21647
201907020413,21647,21657,21646,21657
201907020414,21657,21657,21651,21651
201907020415,21651,21655,21650,21651
201907020416,21651,21652,21650,21652
201907020417,21652,21652,21651,21652
201907020418,21652,21654,21651,21651
201907020419,21651,21655,21651,21654
201907020420,21654,21655,21651,21655
201907020421,21655,21656,21655,21656
201907020422,21655,21660,21655,21660
201907020423,21660,21660,21656,21660
201907020424,21660,21662,21660,21662
201907020425,21662,21666,21661,21666
201907020426,21665,21667,21665,21667
201907020427,21667,21667,21661,21662
201907020428,21662,21667,21662,21667
201907020429,21667,21667,21663,21663
201907020430,21663,21667,21663,21667
201907020431,21667,21667,21667,21667
201907020432,21667,21672,21667,21671
201907020433,21671,21672,21671,21671
201907020434,21671,21672,21666,21666
201907020435,21666,21667,21666,21667
201907020436,21667,21667,21666,21666
201907020437,21666,21670,21666,21670
201907020438,21670,21672,21669,21670
201907020439,21670,21677,21670,21677
201907020440,21677,21682,21676,21682
201907020441,21682,21682,21680,21681
201907020442,21681,21681,21678,21679
201907020443,21679,21679,21675,21677
201907020444,21677,21677,21674,21676
201907020445,21676,21676,21671,21671
201907020446,21671,21677,21671,21677
201907020447,21677,21677,21675,21677
201907020448,21677,21677,21674,21677
201907020449,21677,21677,21674,21677
201907020450,21676,21682,21675,21682
201907020451,21682,21682,21681,21682
201907020452,21682,21682,21681,21681
201907020453,21681,21682,21670,21677
201907020454,21677,21682,21674,21681
201907020455,21681,21684,21674,21676
201907020456,21676,21677,21675,21677
201907020457,21677,21677,21675,21676
201907020458,21676,21677,21675,21675
201907020459,21675,21685,21670,21685
201907020500,21685,21687,21680,21687
201907020501,21687,21687,21687,21687
201907020502,21687,21687,21687,21687
201907020503,21687,21689,21685,21687
201907020504,21687,21687,21687,21687
201907020505,21687,21687,21687,21687
201907020506,21687,21687,21686,21686
201907020507,21686,21686,21680,21682
201907020508,21682,21682,21681,21681
201907020509,21681,21681,21675,21677
201907020510,21677,21678,21676,21677
201907020511,21677,21677,21677,21677
201907020512,21677,21677,21675,21677
201907020513,21677,21677,21677,21677
201907020514,21677,21679,21675,21678
201907020515,21678,21678,21675,21676
201907020516,21676,21678,21676,21678
201907020517,21678,21679,21678,21679
201907020518,21679,21681,21679,21681
201907020519,21681,21681,21676,21676
201907020520,21676,21677,21676,21676
201907020521,21676,21677,21676,21677
201907020522,21677,21677,21677,21677
201907020523,21677,21677,21671,21671
201907020524,21671,21672,21671,21672
201907020525,21672,21672,21651,21651
201907020526,21651,21651,21651,21651
201907020527,21651,21651,21651,21651
201907020528,21651,21652,21644,21646
201907020529,21646,21652,21645,21652
201907020530,21652,21677,21652,21676
201907020531,21676,21677,21675,21676
201907020532,21676,21677,21672,21675
201907020533,21675,21675,21675,21675
201907020534,21675,21682,21675,21681
201907020535,21681,21682,21675,21677
201907020536,21677,21677,21677,21677
201907020537,21677,21678,21677,21678
201907020538,21678,21680,21676,21679
201907020539,21679,21681,21678,21680
201907020540,21680,21682,21680,21681
201907020541,21681,21681,21681,21681
201907020542,21681,21682,21679,21679
201907020543,21679,21679,21677,21678
201907020544,21678,21678,21675,21676
201907020545,21676,21676,21675,21676
201907020546,21675,21676,21675,21676
201907020547,21676,21676,21676,21676
201907020548,21676,21676,21675,21675
201907020549,21675,21677,21675,21676
201907020550,21676,21676,21671,21672
201907020551,21672,21672,21670,21671
201907020552,21671,21672,21671,21671
201907020553,21671,21671,21671,21671
201907020554,21671,21671,21671,21671
201907020555,21671,21671,21671,21671
201907020556,21671,21671,21670,21670
201907020557,21670,21672,21670,21672
201907020558,21671,21672,21671,21672
201907020559,21672,21672,21665,21665
