日時,始値(BID),高値(BID),安値(BID),終値(BID)
201907170830,21451,21452,21436,21441
201907170831,21441,21441,21440,21441
201907170832,21441,21442,21440,21442
201907170833,21442,21442,21441,21442
201907170834,21442,21442,21434,21434
201907170835,21434,21441,21434,21437
201907170836,21437,21440,21435,21440
201907170837,21440,21440,21435,21435
201907170838,21435,21438,21435,21437
201907170839,21437,21451,21437,21451
201907170840,21451,21451,21446,21446
201907170841,21446,21447,21440,21442
201907170842,21442,21442,21437,21437
201907170843,21437,21441,21436,21436
201907170844,21437,21443,21435,21443
201907170845,21450,21455,21444,21452
201907170846,21452,21452,21451,21452
201907170847,21452,21452,21451,21452
201907170848,21452,21452,21452,21452
201907170849,21452,21454,21452,21452
201907170850,21452,21452,21452,21452
201907170851,21452,21452,21452,21452
201907170852,21452,21453,21451,21452
201907170853,21452,21452,21452,21452
201907170854,21452,21452,21452,21452
201907170855,21452,21455,21452,21455
201907170856,21455,21462,21455,21461
201907170857,21461,21462,21461,21462
201907170858,21462,21462,21462,21462
201907170859,21462,21462,21456,21457
201907170900,21457,21457,21442,21442
201907170901,21442,21447,21437,21437
201907170902,21437,21437,21425,21431
201907170903,21431,21431,21412,21415
201907170904,21414,21414,21401,21407
201907170905,21407,21411,21386,21410
201907170906,21411,21412,21396,21412
201907170907,21412,21412,21406,21412
201907170908,21412,21422,21411,21422
201907170909,21422,21422,21417,21421
201907170910,21422,21422,21412,21422
201907170911,21422,21426,21411,21426
201907170912,21427,21432,21426,21432
201907170913,21432,21440,21431,21440
201907170914,21442,21442,21431,21432
201907170915,21432,21432,21426,21429
201907170916,21430,21430,21422,21422
201907170917,21422,21427,21418,21423
201907170918,21423,21423,21418,21422
201907170919,21422,21426,21422,21426
201907170920,21426,21426,21416,21421
201907170921,21421,21425,21421,21422
201907170922,21422,21427,21422,21426
201907170923,21426,21432,21426,21427
201907170924,21427,21431,21427,21430
201907170925,21430,21433,21430,21432
201907170926,21432,21433,21429,21431
201907170927,21431,21432,21426,21428
201907170928,21428,21430,21425,21427
201907170929,21426,21430,21426,21428
201907170930,21429,21431,21428,21431
201907170931,21431,21431,21426,21426
201907170932,21426,21427,21426,21426
201907170933,21426,21427,21426,21427
201907170934,21427,21427,21424,21426
201907170935,21429,21431,21426,21430
201907170936,21431,21431,21427,21427
201907170937,21427,21428,21426,21426
201907170938,21426,21426,21426,21426
201907170939,21426,21432,21426,21432
201907170940,21432,21432,21430,21431
201907170941,21431,21431,21426,21426
201907170942,21426,21429,21424,21427
201907170943,21427,21427,21427,21427
201907170944,21427,21427,21425,21427
201907170945,21427,21432,21424,21432
201907170946,21432,21432,21431,21432
201907170947,21432,21437,21432,21437
201907170948,21437,21437,21437,21437
201907170949,21437,21442,21437,21442
201907170950,21442,21442,21441,21441
201907170951,21441,21442,21441,21442
201907170952,21442,21442,21437,21437
201907170953,21437,21440,21437,21440
201907170954,21440,21441,21440,21441
201907170955,21441,21441,21432,21432
201907170956,21432,21432,21432,21432
201907170957,21432,21432,21427,21427
201907170958,21427,21427,21417,21417
201907170959,21417,21417,21413,21415
201907171000,21415,21422,21415,21416
201907171001,21416,21416,21406,21406
201907171002,21406,21407,21403,21405
201907171003,21406,21406,21393,21394
201907171004,21394,21395,21387,21387
201907171005,21387,21387,21382,21385
201907171006,21386,21387,21382,21382
201907171007,21382,21382,21366,21367
201907171008,21367,21367,21358,21360
201907171009,21361,21361,21356,21356
201907171010,21356,21361,21356,21361
201907171011,21361,21364,21361,21362
201907171012,21362,21364,21362,21362
201907171013,21362,21362,21362,21362
201907171014,21362,21362,21362,21362
201907171015,21362,21367,21357,21367
201907171016,21367,21367,21367,21367
201907171017,21367,21377,21367,21372
201907171018,21372,21375,21367,21367
201907171019,21367,21371,21367,21371
201907171020,21371,21371,21370,21371
201907171021,21371,21372,21371,21371
201907171022,21371,21374,21371,21374
201907171023,21374,21375,21371,21372
201907171024,21372,21374,21367,21369
201907171025,21369,21372,21367,21371
201907171026,21371,21371,21367,21367
201907171027,21367,21372,21367,21372
201907171028,21372,21376,21372,21375
201907171029,21375,21375,21374,21375
201907171030,21375,21375,21366,21367
201907171031,21367,21372,21362,21371
201907171032,21371,21371,21365,21369
201907171033,21369,21374,21367,21374
201907171034,21373,21374,21371,21372
201907171035,21372,21381,21372,21380
201907171036,21380,21395,21380,21392
201907171037,21392,21394,21386,21387
201907171038,21387,21392,21387,21392
201907171039,21392,21399,21392,21397
201907171040,21397,21401,21395,21395
201907171041,21395,21397,21392,21392
201907171042,21392,21395,21391,21391
201907171043,21391,21395,21391,21395
201907171044,21395,21400,21392,21392
201907171045,21392,21392,21388,21392
201907171046,21392,21402,21391,21399
201907171047,21399,21404,21397,21402
201907171048,21402,21409,21402,21407
201907171049,21407,21411,21407,21407
201907171050,21407,21407,21401,21405
201907171051,21405,21407,21405,21406
201907171052,21406,21407,21397,21398
201907171053,21396,21401,21396,21398
201907171054,21398,21400,21395,21395
201907171055,21395,21399,21391,21396
201907171056,21399,21399,21396,21397
201907171057,21397,21407,21397,21407
201907171058,21407,21407,21406,21407
201907171059,21407,21421,21407,21421
201907171100,21422,21427,21421,21422
201907171101,21422,21424,21422,21422
201907171102,21423,21424,21414,21415
201907171103,21415,21417,21413,21414
201907171104,21414,21417,21414,21414
201907171105,21414,21416,21412,21416
201907171106,21416,21416,21413,21416
201907171107,21416,21416,21412,21414
201907171108,21414,21414,21411,21412
201907171109,21412,21412,21412,21412
201907171110,21412,21417,21407,21414
201907171111,21413,21427,21413,21427
201907171112,21427,21437,21427,21436
201907171113,21436,21436,21432,21433
201907171114,21434,21435,21432,21434
201907171115,21433,21439,21433,21437
201907171116,21437,21437,21434,21437
201907171117,21437,21437,21432,21432
201907171118,21432,21434,21432,21434
201907171119,21434,21436,21432,21436
201907171120,21436,21439,21436,21437
201907171121,21437,21438,21432,21432
201907171122,21432,21437,21432,21437
201907171123,21437,21437,21436,21437
201907171124,21437,21437,21436,21436
201907171125,21436,21437,21432,21432
201907171126,21432,21432,21425,21426
201907171127,21426,21431,21426,21427
201907171128,21427,21427,21425,21426
201907171129,21426,21426,21421,21422
201907171130,21422,21422,21422,21422
201907171131,21422,21427,21421,21427
201907171132,21427,21427,21427,21427
201907171133,21427,21427,21418,21419
201907171134,21419,21421,21416,21421
201907171135,21421,21423,21421,21421
201907171136,21421,21426,21421,21425
201907171137,21425,21425,21424,21425
201907171138,21425,21425,21421,21421
201907171139,21421,21422,21420,21420
201907171140,21420,21422,21420,21422
201907171141,21422,21422,21420,21421
201907171142,21421,21421,21414,21414
201907171143,21414,21417,21414,21417
201907171144,21417,21421,21417,21417
201907171145,21417,21417,21410,21412
201907171146,21412,21412,21412,21412
201907171147,21412,21412,21411,21412
201907171148,21412,21412,21406,21407
201907171149,21407,21407,21406,21407
201907171150,21407,21411,21407,21411
201907171151,21410,21417,21410,21417
201907171152,21417,21419,21412,21412
201907171153,21412,21415,21411,21412
201907171154,21412,21415,21411,21415
201907171155,21415,21417,21412,21417
201907171156,21417,21417,21415,21415
201907171157,21415,21420,21414,21420
201907171158,21420,21421,21420,21421
201907171159,21421,21422,21415,21422
201907171200,21422,21422,21416,21420
201907171201,21420,21425,21419,21425
201907171202,21425,21427,21425,21427
201907171203,21427,21427,21427,21427
201907171204,21427,21427,21425,21426
201907171205,21426,21429,21426,21427
201907171206,21427,21428,21426,21427
201907171207,21427,21427,21427,21427
201907171208,21427,21429,21425,21427
201907171209,21427,21427,21426,21426
201907171210,21426,21426,21426,21426
201907171211,21426,21430,21426,21430
201907171212,21430,21432,21430,21432
201907171213,21432,21437,21432,21436
201907171214,21436,21436,21430,21430
201907171215,21430,21430,21425,21427
201907171216,21427,21432,21427,21432
201907171217,21432,21432,21427,21427
201907171218,21427,21432,21427,21432
201907171219,21432,21437,21432,21437
201907171220,21437,21437,21437,21437
201907171221,21437,21437,21430,21430
201907171222,21430,21430,21430,21430
201907171223,21430,21436,21430,21435
201907171224,21435,21435,21435,21435
201907171225,21435,21437,21435,21435
201907171226,21435,21435,21432,21432
201907171227,21432,21434,21432,21434
201907171228,21434,21435,21433,21434
201907171229,21434,21435,21434,21434
201907171230,21434,21440,21432,21440
201907171231,21440,21440,21432,21432
201907171232,21432,21432,21427,21427
201907171233,21427,21429,21426,21427
201907171234,21427,21427,21427,21427
201907171235,21427,21427,21426,21427
201907171236,21427,21427,21426,21427
201907171237,21427,21427,21426,21426
201907171238,21426,21426,21422,21424
201907171239,21424,21425,21424,21425
201907171240,21425,21430,21425,21427
201907171241,21427,21427,21422,21422
201907171242,21422,21422,21415,21415
201907171243,21415,21415,21412,21412
201907171244,21412,21417,21412,21417
201907171245,21417,21417,21416,21416
201907171246,21416,21417,21416,21416
201907171247,21416,21422,21416,21417
201907171248,21417,21417,21417,21417
201907171249,21417,21417,21416,21417
201907171250,21417,21417,21417,21417
201907171251,21417,21417,21412,21415
201907171252,21415,21417,21413,21415
201907171253,21415,21416,21412,21412
201907171254,21412,21414,21412,21414
201907171255,21414,21416,21411,21411
201907171256,21411,21412,21411,21412
201907171257,21412,21412,21412,21412
201907171258,21412,21412,21407,21407
201907171259,21407,21407,21402,21404
201907171300,21404,21405,21404,21405
201907171301,21405,21414,21405,21412
201907171302,21412,21416,21411,21416
201907171303,21416,21418,21416,21416
201907171304,21416,21419,21416,21417
201907171305,21417,21417,21416,21416
201907171306,21416,21416,21411,21411
201907171307,21411,21412,21411,21412
201907171308,21412,21412,21412,21412
201907171309,21412,21417,21412,21417
201907171310,21417,21417,21415,21415
201907171311,21415,21415,21412,21412
201907171312,21412,21412,21412,21412
201907171313,21412,21417,21412,21417
201907171314,21417,21422,21416,21422
201907171315,21422,21422,21422,21422
201907171316,21422,21422,21417,21417
201907171317,21417,21419,21416,21417
201907171318,21417,21422,21417,21422
201907171319,21422,21423,21421,21421
201907171320,21421,21422,21421,21422
201907171321,21422,21422,21421,21422
201907171322,21422,21422,21421,21421
201907171323,21421,21422,21421,21422
201907171324,21422,21422,21422,21422
201907171325,21422,21422,21420,21421
201907171326,21421,21422,21420,21421
201907171327,21421,21421,21416,21416
201907171328,21416,21417,21416,21416
201907171329,21416,21417,21416,21417
201907171330,21417,21422,21417,21417
201907171331,21417,21422,21417,21422
201907171332,21422,21422,21420,21421
201907171333,21421,21421,21420,21421
201907171334,21421,21422,21421,21422
201907171335,21422,21422,21421,21421
201907171336,21421,21422,21421,21422
201907171337,21422,21422,21421,21422
201907171338,21422,21422,21421,21421
201907171339,21421,21425,21421,21425
201907171340,21425,21425,21424,21424
201907171341,21424,21425,21424,21425
201907171342,21425,21425,21424,21425
201907171343,21425,21425,21425,21425
201907171344,21425,21425,21425,21425
201907171345,21425,21425,21425,21425
201907171346,21425,21425,21425,21425
201907171347,21425,21425,21425,21425
201907171348,21425,21426,21425,21426
201907171349,21426,21426,21425,21425
201907171350,21425,21426,21425,21425
201907171351,21425,21426,21425,21426
201907171352,21426,21426,21426,21426
201907171353,21426,21426,21426,21426
201907171354,21426,21426,21426,21426
201907171355,21426,21432,21426,21432
201907171356,21432,21434,21430,21432
201907171357,21432,21435,21432,21435
201907171358,21436,21436,21435,21436
201907171359,21436,21437,21436,21437
201907171400,21437,21437,21436,21437
201907171401,21437,21438,21437,21437
201907171402,21437,21437,21432,21437
201907171403,21437,21437,21435,21436
201907171404,21436,21436,21435,21435
201907171405,21435,21435,21432,21432
201907171406,21432,21435,21432,21435
201907171407,21435,21437,21435,21437
201907171408,21437,21437,21437,21437
201907171409,21437,21437,21432,21432
201907171410,21432,21434,21432,21434
201907171411,21434,21435,21434,21434
201907171412,21434,21436,21434,21436
201907171413,21436,21436,21432,21432
201907171414,21432,21435,21432,21435
201907171415,21435,21435,21432,21432
201907171416,21432,21432,21432,21432
201907171417,21432,21435,21432,21434
201907171418,21434,21435,21434,21434
201907171419,21434,21435,21434,21435
201907171420,21435,21435,21434,21435
201907171421,21435,21435,21435,21435
201907171422,21435,21436,21434,21436
201907171423,21436,21436,21434,21434
201907171424,21434,21435,21434,21435
201907171425,21435,21437,21435,21437
201907171426,21437,21437,21437,21437
201907171427,21437,21442,21437,21442
201907171428,21442,21442,21442,21442
201907171429,21442,21442,21442,21442
201907171430,21442,21442,21442,21442
201907171431,21442,21442,21442,21442
201907171432,21442,21442,21442,21442
201907171433,21442,21442,21442,21442
201907171434,21442,21442,21442,21442
201907171435,21442,21442,21442,21442
201907171436,21442,21442,21442,21442
201907171437,21442,21442,21432,21432
201907171438,21432,21436,21432,21435
201907171439,21435,21437,21435,21437
201907171440,21437,21442,21437,21442
201907171441,21442,21445,21442,21445
201907171442,21445,21446,21445,21446
201907171443,21446,21446,21446,21446
201907171444,21446,21452,21446,21452
201907171445,21452,21452,21452,21452
201907171446,21452,21452,21452,21452
201907171447,21452,21452,21452,21452
201907171448,21452,21452,21446,21446
201907171449,21446,21452,21446,21451
201907171450,21451,21451,21450,21450
201907171451,21450,21451,21450,21451
201907171452,21451,21452,21451,21452
201907171453,21452,21452,21452,21452
201907171454,21452,21452,21446,21446
201907171455,21446,21446,21446,21446
201907171456,21446,21446,21442,21442
201907171457,21442,21442,21437,21440
201907171458,21439,21444,21439,21442
201907171459,21442,21443,21436,21437
201907171500,21437,21437,21432,21437
201907171501,21437,21440,21432,21435
201907171502,21435,21435,21432,21432
201907171503,21432,21435,21428,21432
201907171504,21432,21436,21432,21436
201907171505,21436,21440,21436,21437
201907171506,21437,21437,21436,21436
201907171507,21436,21436,21427,21427
201907171508,21427,21427,21422,21422
201907171509,21421,21425,21420,21422
201907171510,21425,21426,21420,21420
201907171511,21422,21422,21422,21422
201907171512,21422,21422,21422,21422
201907171513,21422,21422,21422,21422
201907171514,21422,21426,21422,21422
201907171515,21422,21422,21416,21422
201907171516,21422,21426,21422,21426
201907171517,21426,21427,21424,21426
201907171518,21426,21427,21426,21427
201907171519,21427,21427,21421,21421
201907171520,21421,21424,21421,21424
201907171521,21425,21432,21424,21432
201907171522,21432,21432,21426,21426
201907171523,21426,21427,21425,21427
201907171524,21427,21429,21425,21427
201907171525,21427,21431,21427,21427
201907171526,21427,21427,21426,21426
201907171527,21426,21427,21422,21422
201907171528,21422,21423,21420,21420
201907171529,21420,21422,21420,21421
201907171530,21421,21422,21420,21422
201907171531,21422,21422,21422,21422
201907171532,21422,21423,21420,21423
201907171533,21424,21424,21423,21423
201907171534,21423,21425,21423,21425
201907171535,21425,21425,21421,21421
201907171536,21421,21422,21420,21420
201907171537,21420,21424,21420,21424
201907171538,21424,21424,21421,21421
201907171539,21421,21424,21421,21422
201907171540,21422,21423,21422,21422
201907171541,21422,21422,21422,21422
201907171542,21422,21422,21422,21422
201907171543,21422,21422,21422,21422
201907171544,21422,21425,21421,21425
201907171545,21425,21426,21423,21425
201907171546,21425,21426,21425,21426
201907171547,21426,21426,21425,21426
201907171548,21426,21427,21426,21427
201907171549,21427,21427,21427,21427
201907171550,21427,21427,21427,21427
201907171551,21427,21427,21425,21425
201907171552,21425,21427,21425,21425
201907171553,21425,21426,21424,21426
201907171554,21426,21429,21425,21429
201907171555,21423,21436,21423,21434
201907171556,21434,21434,21430,21432
201907171557,21432,21432,21431,21431
201907171558,21431,21432,21430,21432
201907171559,21432,21436,21430,21436
201907171600,21436,21436,21426,21426
201907171601,21426,21431,21425,21429
201907171602,21429,21437,21429,21436
201907171603,21436,21436,21433,21436
201907171604,21436,21442,21435,21439
201907171605,21439,21442,21435,21435
201907171606,21435,21440,21431,21435
201907171607,21435,21440,21435,21435
201907171608,21435,21437,21435,21435
201907171609,21435,21442,21432,21437
201907171610,21437,21437,21430,21431
201907171611,21431,21437,21431,21436
201907171612,21435,21435,21429,21430
201907171613,21430,21436,21429,21436
201907171614,21436,21437,21434,21436
201907171615,21436,21436,21425,21429
201907171616,21429,21429,21429,21429
201907171617,21429,21429,21428,21428
201907171618,21428,21429,21428,21429
201907171619,21429,21429,21429,21429
201907171620,21429,21437,21429,21436
201907171621,21436,21436,21434,21436
201907171622,21436,21436,21435,21435
201907171623,21435,21435,21431,21431
201907171624,21431,21436,21431,21435
201907171625,21435,21435,21430,21431
201907171626,21431,21432,21431,21432
201907171627,21432,21432,21430,21431
201907171628,21431,21435,21431,21434
201907171629,21434,21435,21433,21435
201907171630,21435,21438,21431,21437
201907171631,21437,21439,21435,21435
201907171632,21435,21436,21433,21434
201907171633,21434,21437,21433,21437
201907171634,21437,21437,21436,21436
201907171635,21436,21437,21436,21436
201907171636,21436,21437,21431,21432
201907171637,21432,21432,21432,21432
201907171638,21432,21432,21427,21431
201907171639,21431,21432,21431,21432
201907171640,21432,21432,21426,21428
201907171641,21428,21430,21426,21430
201907171642,21430,21431,21430,21431
201907171643,21430,21431,21430,21430
201907171644,21430,21431,21430,21431
201907171645,21431,21431,21430,21431
201907171646,21431,21436,21431,21432
201907171647,21432,21435,21431,21435
201907171648,21435,21439,21434,21439
201907171649,21439,21440,21439,21440
201907171650,21440,21440,21440,21440
201907171651,21440,21441,21440,21440
201907171652,21440,21446,21440,21446
201907171653,21446,21446,21446,21446
201907171654,21446,21446,21441,21444
201907171655,21444,21444,21442,21442
201907171656,21442,21444,21441,21442
201907171657,21442,21442,21442,21442
201907171658,21442,21442,21442,21442
201907171659,21442,21442,21441,21442
201907171700,21442,21444,21442,21444
201907171701,21444,21445,21441,21443
201907171702,21444,21445,21444,21444
201907171703,21445,21451,21444,21451
201907171704,21451,21451,21447,21449
201907171705,21449,21449,21446,21447
201907171706,21447,21449,21446,21447
201907171707,21447,21447,21442,21446
201907171708,21446,21449,21445,21447
201907171709,21447,21449,21447,21449
201907171710,21449,21449,21446,21447
201907171711,21447,21447,21447,21447
201907171712,21447,21449,21447,21449
201907171713,21449,21449,21446,21447
201907171714,21447,21449,21447,21449
201907171715,21449,21449,21448,21449
201907171716,21449,21449,21449,21449
201907171717,21449,21449,21449,21449
201907171718,21449,21449,21447,21447
201907171719,21447,21449,21446,21447
201907171720,21447,21447,21447,21447
201907171721,21447,21447,21446,21446
201907171722,21446,21446,21446,21446
201907171723,21446,21447,21446,21446
201907171724,21446,21447,21446,21447
201907171725,21447,21447,21447,21447
201907171726,21447,21447,21446,21447
201907171727,21447,21447,21446,21447
201907171728,21447,21447,21446,21446
201907171729,21446,21447,21446,21447
201907171730,21447,21447,21446,21446
201907171731,21446,21447,21446,21447
201907171732,21447,21447,21441,21441
201907171733,21441,21441,21441,21441
201907171734,21441,21441,21441,21441
201907171735,21441,21446,21441,21446
201907171736,21446,21447,21446,21446
201907171737,21446,21446,21446,21446
201907171738,21446,21446,21445,21446
201907171739,21446,21446,21446,21446
201907171740,21446,21446,21441,21445
201907171741,21445,21445,21445,21445
201907171742,21445,21445,21444,21445
201907171743,21445,21446,21445,21446
201907171744,21446,21446,21445,21445
201907171745,21445,21449,21445,21449
201907171746,21449,21449,21446,21449
201907171747,21448,21449,21448,21449
201907171748,21449,21449,21447,21447
201907171749,21447,21447,21447,21447
201907171750,21447,21447,21446,21447
201907171751,21447,21447,21446,21447
201907171752,21447,21447,21446,21447
201907171753,21447,21447,21446,21447
201907171754,21447,21447,21446,21446
201907171755,21447,21447,21446,21446
201907171756,21446,21446,21442,21442
201907171757,21442,21445,21442,21444
201907171758,21444,21444,21443,21443
201907171759,21443,21444,21441,21443
201907171800,21443,21444,21443,21444
201907171801,21444,21444,21441,21444
201907171802,21444,21444,21441,21443
201907171803,21443,21445,21443,21445
201907171804,21445,21445,21445,21445
201907171805,21445,21446,21445,21445
201907171806,21445,21446,21445,21446
201907171807,21446,21449,21445,21449
201907171808,21449,21449,21446,21447
201907171809,21447,21447,21447,21447
201907171810,21447,21447,21447,21447
201907171811,21447,21449,21447,21449
201907171812,21448,21449,21447,21449
201907171813,21449,21449,21447,21447
201907171814,21447,21450,21447,21450
201907171815,21450,21450,21449,21449
201907171816,21449,21450,21447,21449
201907171817,21449,21449,21447,21449
201907171818,21449,21449,21449,21449
201907171819,21449,21449,21449,21449
201907171820,21449,21449,21449,21449
201907171821,21449,21449,21449,21449
201907171822,21449,21449,21447,21447
201907171823,21447,21447,21447,21447
201907171824,21447,21447,21447,21447
201907171825,21447,21447,21447,21447
201907171826,21447,21447,21447,21447
201907171827,21447,21447,21447,21447
201907171828,21447,21448,21447,21447
201907171829,21447,21447,21447,21447
201907171830,21447,21447,21447,21447
201907171831,21447,21447,21447,21447
201907171832,21447,21449,21446,21447
201907171833,21447,21449,21446,21448
201907171834,21448,21448,21446,21447
201907171835,21447,21449,21447,21447
201907171836,21447,21449,21447,21447
201907171837,21447,21449,21447,21448
201907171838,21447,21449,21447,21447
201907171839,21447,21449,21446,21448
201907171840,21448,21449,21447,21449
201907171841,21449,21449,21449,21449
201907171842,21449,21449,21449,21449
201907171843,21449,21450,21449,21450
201907171844,21450,21450,21449,21449
201907171845,21449,21450,21449,21450
201907171846,21450,21450,21450,21450
201907171847,21450,21450,21449,21450
201907171848,21450,21450,21450,21450
201907171849,21450,21451,21449,21450
201907171850,21450,21450,21449,21450
201907171851,21450,21451,21450,21451
201907171852,21451,21451,21449,21450
201907171853,21450,21450,21450,21450
201907171854,21450,21450,21450,21450
201907171855,21450,21451,21449,21449
201907171856,21449,21450,21446,21447
201907171857,21447,21447,21447,21447
201907171858,21447,21449,21447,21447
201907171859,21447,21449,21447,21447
201907171900,21447,21449,21447,21448
201907171901,21448,21449,21447,21447
201907171902,21447,21449,21447,21448
201907171903,21447,21449,21447,21449
201907171904,21449,21449,21447,21448
201907171905,21448,21449,21447,21447
201907171906,21447,21447,21447,21447
201907171907,21447,21447,21447,21447
201907171908,21447,21447,21447,21447
201907171909,21447,21447,21447,21447
201907171910,21447,21447,21447,21447
201907171911,21447,21447,21447,21447
201907171912,21447,21447,21447,21447
201907171913,21447,21447,21447,21447
201907171914,21447,21447,21447,21447
201907171915,21447,21447,21447,21447
201907171916,21447,21447,21442,21442
201907171917,21442,21442,21442,21442
201907171918,21442,21442,21441,21442
201907171919,21442,21442,21441,21441
201907171920,21441,21441,21440,21441
201907171921,21441,21441,21440,21441
201907171922,21441,21442,21441,21442
201907171923,21442,21442,21442,21442
201907171924,21442,21442,21441,21441
201907171925,21441,21442,21441,21441
201907171926,21441,21441,21441,21441
201907171927,21441,21441,21440,21441
201907171928,21441,21441,21440,21441
201907171929,21441,21441,21441,21441
201907171930,21441,21441,21440,21441
201907171931,21441,21441,21440,21441
201907171932,21441,21441,21440,21441
201907171933,21441,21441,21440,21441
201907171934,21441,21441,21440,21441
201907171935,21441,21441,21441,21441
201907171936,21441,21441,21440,21441
201907171937,21441,21441,21440,21441
201907171938,21441,21441,21440,21441
201907171939,21441,21441,21440,21440
201907171940,21440,21441,21440,21440
201907171941,21440,21441,21440,21440
201907171942,21440,21440,21437,21437
201907171943,21436,21436,21435,21435
201907171944,21435,21436,21431,21431
201907171945,21431,21432,21430,21432
201907171946,21431,21434,21431,21434
201907171947,21434,21436,21431,21434
201907171948,21434,21436,21434,21434
201907171949,21434,21435,21434,21435
201907171950,21435,21435,21434,21435
201907171951,21435,21435,21434,21434
201907171952,21435,21435,21432,21434
201907171953,21434,21434,21432,21432
201907171954,21432,21432,21431,21431
201907171955,21431,21432,21431,21432
201907171956,21432,21432,21431,21431
201907171957,21431,21432,21430,21431
201907171958,21431,21431,21430,21431
201907171959,21431,21432,21431,21432
201907172000,21432,21432,21429,21430
201907172001,21430,21431,21430,21431
201907172002,21431,21431,21430,21431
201907172003,21431,21431,21429,21430
201907172004,21430,21431,21428,21429
201907172005,21429,21430,21427,21430
201907172006,21430,21431,21430,21430
201907172007,21430,21432,21430,21431
201907172008,21431,21432,21431,21432
201907172009,21432,21435,21431,21434
201907172010,21434,21435,21433,21435
201907172011,21435,21437,21435,21437
201907172012,21437,21437,21436,21436
201907172013,21436,21436,21436,21436
201907172014,21436,21436,21433,21434
201907172015,21434,21435,21433,21434
201907172016,21434,21435,21434,21435
201907172017,21435,21435,21435,21435
201907172018,21435,21435,21431,21432
201907172019,21432,21432,21431,21432
201907172020,21432,21432,21431,21431
201907172021,21431,21432,21431,21432
201907172022,21432,21432,21431,21431
201907172023,21431,21432,21431,21431
201907172024,21431,21432,21431,21432
201907172025,21432,21432,21431,21432
201907172026,21432,21432,21432,21432
201907172027,21432,21432,21431,21431
201907172028,21431,21432,21431,21431
201907172029,21431,21431,21431,21431
201907172030,21431,21431,21427,21427
201907172031,21427,21427,21425,21426
201907172032,21426,21426,21422,21424
201907172033,21424,21424,21421,21422
201907172034,21422,21422,21422,21422
201907172035,21422,21422,21422,21422
201907172036,21422,21422,21422,21422
201907172037,21422,21422,21417,21417
201907172038,21417,21417,21416,21416
201907172039,21416,21416,21415,21416
201907172040,21416,21416,21413,21414
201907172041,21414,21416,21414,21415
201907172042,21415,21416,21415,21415
201907172043,21415,21416,21415,21416
201907172044,21416,21417,21416,21417
201907172045,21416,21421,21416,21421
201907172046,21421,21422,21421,21421
201907172047,21421,21421,21421,21421
201907172048,21421,21421,21421,21421
201907172049,21421,21422,21421,21421
201907172050,21421,21421,21421,21421
201907172051,21421,21421,21421,21421
201907172052,21421,21422,21421,21422
201907172053,21422,21426,21422,21426
201907172054,21426,21426,21426,21426
201907172055,21426,21427,21426,21427
201907172056,21427,21427,21426,21427
201907172057,21427,21427,21427,21427
201907172058,21427,21427,21427,21427
201907172059,21427,21430,21427,21430
201907172100,21430,21430,21426,21429
201907172101,21429,21430,21429,21429
201907172102,21429,21429,21426,21427
201907172103,21427,21427,21427,21427
201907172104,21427,21427,21427,21427
201907172105,21427,21427,21427,21427
201907172106,21427,21430,21427,21429
201907172107,21429,21430,21426,21426
201907172108,21426,21429,21426,21427
201907172109,21427,21429,21426,21429
201907172110,21429,21429,21426,21427
201907172111,21427,21428,21426,21427
201907172112,21427,21429,21427,21429
201907172113,21429,21429,21426,21429
201907172114,21429,21429,21426,21427
201907172115,21427,21427,21427,21427
201907172116,21427,21427,21425,21426
201907172117,21426,21427,21426,21427
201907172118,21427,21427,21427,21427
201907172119,21427,21429,21426,21429
201907172120,21429,21429,21426,21428
201907172121,21429,21430,21429,21430
201907172122,21430,21430,21426,21428
201907172123,21428,21429,21428,21429
201907172124,21429,21429,21429,21429
201907172125,21429,21430,21429,21429
201907172126,21429,21430,21429,21430
201907172127,21430,21430,21429,21430
201907172128,21430,21430,21430,21430
201907172129,21430,21431,21428,21431
201907172130,21431,21431,21429,21430
201907172131,21430,21431,21426,21427
201907172132,21427,21427,21421,21422
201907172133,21422,21422,21412,21412
201907172134,21412,21414,21411,21414
201907172135,21414,21415,21412,21415
201907172136,21415,21417,21415,21417
201907172137,21417,21421,21416,21417
201907172138,21417,21419,21416,21418
201907172139,21418,21421,21418,21419
201907172140,21419,21421,21419,21421
201907172141,21421,21421,21421,21421
201907172142,21421,21422,21421,21421
201907172143,21421,21426,21421,21423
201907172144,21423,21431,21423,21430
201907172145,21430,21431,21429,21431
201907172146,21431,21431,21428,21429
201907172147,21429,21430,21426,21427
201907172148,21427,21429,21427,21428
201907172149,21428,21429,21428,21429
201907172150,21429,21432,21429,21430
201907172151,21430,21430,21429,21429
201907172152,21429,21430,21428,21429
201907172153,21429,21429,21427,21427
201907172154,21427,21427,21427,21427
201907172155,21427,21427,21422,21422
201907172156,21422,21425,21422,21424
201907172157,21423,21425,21421,21425
201907172158,21425,21425,21424,21424
201907172159,21424,21425,21422,21425
201907172200,21425,21425,21423,21424
201907172201,21424,21425,21424,21425
201907172202,21425,21431,21425,21428
201907172203,21429,21430,21428,21430
201907172204,21430,21431,21426,21427
201907172205,21427,21427,21425,21426
201907172206,21426,21427,21426,21427
201907172207,21427,21429,21426,21427
201907172208,21427,21427,21424,21426
201907172209,21426,21426,21423,21424
201907172210,21424,21424,21421,21422
201907172211,21422,21423,21421,21422
201907172212,21422,21422,21422,21422
201907172213,21422,21422,21422,21422
201907172214,21422,21422,21422,21422
201907172215,21422,21425,21422,21425
201907172216,21425,21426,21425,21426
201907172217,21426,21427,21422,21427
201907172218,21427,21427,21427,21427
201907172219,21427,21427,21427,21427
201907172220,21427,21427,21423,21426
201907172221,21426,21428,21426,21427
201907172222,21427,21429,21426,21427
201907172223,21427,21427,21427,21427
201907172224,21427,21428,21426,21428
201907172225,21428,21430,21426,21429
201907172226,21429,21430,21428,21429
201907172227,21429,21430,21428,21430
201907172228,21430,21431,21428,21428
201907172229,21428,21429,21426,21429
201907172230,21429,21430,21426,21427
201907172231,21428,21432,21428,21431
201907172232,21431,21431,21426,21428
201907172233,21428,21428,21425,21425
201907172234,21425,21434,21425,21432
201907172235,21432,21435,21428,21428
201907172236,21428,21429,21422,21422
201907172237,21422,21424,21421,21424
201907172238,21424,21426,21423,21425
201907172239,21425,21432,21425,21428
201907172240,21428,21434,21427,21432
201907172241,21432,21432,21427,21427
201907172242,21427,21431,21422,21427
201907172243,21427,21427,21424,21427
201907172244,21427,21427,21425,21426
201907172245,21426,21427,21421,21422
201907172246,21422,21424,21415,21415
201907172247,21415,21417,21412,21412
201907172248,21412,21415,21412,21414
201907172249,21414,21420,21414,21418
201907172250,21419,21421,21417,21421
201907172251,21421,21426,21421,21425
201907172252,21425,21429,21425,21427
201907172253,21427,21429,21427,21429
201907172254,21429,21429,21426,21428
201907172255,21429,21430,21426,21426
201907172256,21428,21432,21426,21432
201907172257,21432,21434,21431,21431
201907172258,21431,21432,21426,21428
201907172259,21428,21431,21426,21430
201907172300,21429,21431,21427,21431
201907172301,21430,21431,21426,21429
201907172302,21429,21431,21426,21431
201907172303,21431,21432,21430,21431
201907172304,21431,21434,21430,21432
201907172305,21432,21436,21432,21436
201907172306,21436,21436,21435,21435
201907172307,21435,21436,21435,21436
201907172308,21435,21436,21428,21429
201907172309,21429,21430,21427,21427
201907172310,21427,21429,21427,21429
201907172311,21428,21429,21427,21427
201907172312,21427,21427,21422,21422
201907172313,21422,21424,21422,21422
201907172314,21422,21422,21407,21407
201907172315,21407,21407,21406,21407
201907172316,21407,21411,21402,21411
201907172317,21411,21412,21410,21412
201907172318,21412,21412,21411,21412
201907172319,21412,21412,21403,21406
201907172320,21406,21406,21402,21405
201907172321,21404,21406,21402,21406
201907172322,21406,21407,21402,21407
201907172323,21407,21411,21406,21410
201907172324,21409,21409,21407,21407
201907172325,21407,21407,21406,21407
201907172326,21407,21409,21406,21409
201907172327,21408,21411,21407,21408
201907172328,21407,21409,21407,21407
201907172329,21407,21407,21403,21404
201907172330,21404,21406,21397,21402
201907172331,21402,21402,21397,21397
201907172332,21397,21403,21396,21403
201907172333,21403,21406,21402,21406
201907172334,21406,21408,21406,21407
201907172335,21407,21411,21407,21407
201907172336,21407,21407,21401,21405
201907172337,21405,21406,21401,21405
201907172338,21405,21407,21403,21403
201907172339,21403,21404,21401,21402
201907172340,21402,21402,21396,21399
201907172341,21399,21402,21398,21399
201907172342,21399,21399,21393,21395
201907172343,21395,21396,21390,21391
201907172344,21391,21391,21387,21387
201907172345,21387,21387,21386,21386
201907172346,21386,21386,21379,21381
201907172347,21381,21382,21380,21380
201907172348,21380,21381,21376,21376
201907172349,21376,21377,21373,21375
201907172350,21374,21376,21372,21375
201907172351,21376,21377,21373,21376
201907172352,21376,21377,21372,21372
201907172353,21372,21372,21366,21367
201907172354,21367,21367,21362,21362
201907172355,21362,21366,21362,21365
201907172356,21365,21376,21365,21376
201907172357,21376,21382,21374,21377
201907172358,21377,21381,21376,21379
201907172359,21379,21381,21376,21377
201907180000,21377,21381,21376,21381
201907180001,21381,21387,21381,21386
201907180002,21386,21387,21386,21387
201907180003,21387,21387,21381,21382
201907180004,21382,21382,21382,21382
201907180005,21382,21382,21382,21382
201907180006,21382,21382,21376,21377
201907180007,21377,21379,21376,21379
201907180008,21379,21382,21379,21381
201907180009,21381,21387,21381,21387
201907180010,21387,21389,21386,21387
201907180011,21387,21394,21386,21392
201907180012,21392,21392,21392,21392
201907180013,21392,21396,21392,21395
201907180014,21395,21396,21394,21395
201907180015,21395,21396,21392,21395
201907180016,21395,21396,21395,21396
201907180017,21396,21396,21395,21395
201907180018,21395,21396,21395,21395
201907180019,21395,21395,21392,21392
201907180020,21392,21396,21392,21395
201907180021,21395,21395,21394,21395
201907180022,21395,21395,21392,21394
201907180023,21394,21396,21391,21396
201907180024,21396,21396,21395,21396
201907180025,21396,21397,21396,21396
201907180026,21396,21397,21395,21396
201907180027,21396,21396,21391,21392
201907180028,21392,21394,21391,21392
201907180029,21392,21392,21387,21387
201907180030,21387,21395,21387,21395
201907180031,21395,21397,21393,21393
201907180032,21393,21396,21392,21392
201907180033,21392,21393,21387,21392
201907180034,21392,21392,21387,21387
201907180035,21387,21388,21386,21388
201907180036,21389,21392,21387,21392
201907180037,21392,21395,21391,21392
201907180038,21392,21394,21391,21392
201907180039,21392,21393,21391,21392
201907180040,21392,21393,21391,21392
201907180041,21392,21392,21392,21392
201907180042,21392,21396,21392,21396
201907180043,21396,21406,21396,21406
201907180044,21406,21408,21405,21407
201907180045,21407,21407,21407,21407
201907180046,21407,21407,21402,21402
201907180047,21402,21402,21401,21401
201907180048,21401,21406,21401,21405
201907180049,21405,21406,21402,21405
201907180050,21405,21406,21405,21406
201907180051,21406,21406,21402,21404
201907180052,21404,21405,21404,21404
201907180053,21404,21408,21404,21407
201907180054,21407,21407,21406,21407
201907180055,21407,21409,21406,21407
201907180056,21407,21407,21407,21407
201907180057,21407,21407,21406,21407
201907180058,21407,21407,21402,21402
201907180059,21402,21405,21402,21402
201907180100,21402,21403,21402,21402
201907180101,21402,21403,21401,21402
201907180102,21402,21403,21402,21402
201907180103,21402,21402,21402,21402
201907180104,21402,21402,21402,21402
201907180105,21402,21405,21401,21402
201907180106,21402,21404,21401,21404
201907180107,21404,21405,21404,21404
201907180108,21404,21404,21402,21403
201907180109,21402,21403,21402,21402
201907180110,21402,21402,21397,21397
201907180111,21397,21397,21392,21392
201907180112,21392,21396,21391,21394
201907180113,21394,21394,21391,21391
201907180114,21391,21396,21391,21395
201907180115,21395,21395,21393,21395
201907180116,21395,21402,21395,21402
201907180117,21402,21402,21402,21402
201907180118,21402,21402,21396,21400
201907180119,21400,21400,21396,21397
201907180120,21397,21399,21396,21399
201907180121,21399,21399,21393,21396
201907180122,21396,21397,21396,21396
201907180123,21396,21397,21396,21397
201907180124,21397,21397,21393,21395
201907180125,21395,21397,21394,21397
201907180126,21397,21397,21396,21396
201907180127,21396,21397,21396,21397
201907180128,21397,21397,21396,21396
201907180129,21396,21396,21396,21396
201907180130,21396,21397,21396,21397
201907180131,21397,21397,21396,21396
201907180132,21396,21397,21396,21397
201907180133,21397,21397,21396,21397
201907180134,21397,21397,21396,21397
201907180135,21397,21397,21397,21397
201907180136,21397,21397,21397,21397
201907180137,21397,21402,21397,21401
201907180138,21401,21401,21401,21401
201907180139,21401,21401,21397,21397
201907180140,21397,21399,21396,21398
201907180141,21396,21399,21396,21397
201907180142,21397,21398,21396,21398
201907180143,21397,21398,21396,21397
201907180144,21397,21397,21397,21397
201907180145,21397,21397,21397,21397
201907180146,21397,21397,21397,21397
201907180147,21397,21397,21397,21397
201907180148,21397,21397,21397,21397
201907180149,21397,21397,21392,21392
201907180150,21392,21396,21391,21396
201907180151,21396,21397,21396,21397
201907180152,21397,21402,21397,21402
201907180153,21402,21402,21396,21398
201907180154,21398,21400,21396,21399
201907180155,21399,21402,21398,21399
201907180156,21399,21402,21399,21401
201907180157,21401,21402,21401,21402
201907180158,21402,21402,21401,21401
201907180159,21401,21401,21401,21401
201907180200,21400,21401,21396,21401
201907180201,21401,21401,21401,21401
201907180202,21401,21401,21401,21401
201907180203,21401,21401,21396,21397
201907180204,21397,21397,21396,21397
201907180205,21397,21397,21396,21397
201907180206,21397,21397,21396,21397
201907180207,21397,21400,21396,21400
201907180208,21400,21400,21396,21396
201907180209,21396,21400,21395,21396
201907180210,21396,21397,21395,21397
201907180211,21397,21399,21395,21397
201907180212,21397,21397,21395,21397
201907180213,21397,21397,21397,21397
201907180214,21397,21397,21397,21397
201907180215,21397,21397,21397,21397
201907180216,21397,21397,21397,21397
201907180217,21397,21397,21397,21397
201907180218,21397,21397,21390,21393
201907180219,21393,21397,21393,21396
201907180220,21396,21397,21395,21397
201907180221,21397,21397,21392,21392
201907180222,21392,21397,21390,21396
201907180223,21392,21392,21392,21392
201907180224,21392,21392,21391,21392
201907180225,21392,21392,21391,21391
201907180226,21391,21392,21391,21392
201907180227,21392,21397,21390,21396
201907180228,21396,21397,21396,21397
201907180229,21397,21397,21397,21397
201907180230,21397,21397,21397,21397
201907180231,21397,21397,21395,21396
201907180232,21396,21397,21395,21397
201907180233,21397,21397,21397,21397
201907180234,21397,21397,21396,21397
201907180235,21397,21397,21395,21397
201907180236,21397,21397,21396,21397
201907180237,21397,21397,21397,21397
201907180238,21397,21397,21397,21397
201907180239,21397,21397,21397,21397
201907180240,21397,21399,21396,21399
201907180241,21399,21401,21399,21400
201907180242,21400,21402,21400,21401
201907180243,21401,21402,21399,21400
201907180244,21400,21401,21399,21401
201907180245,21401,21402,21401,21401
201907180246,21401,21402,21397,21397
201907180247,21397,21402,21396,21402
201907180248,21402,21402,21402,21402
201907180249,21402,21402,21402,21402
201907180250,21402,21402,21402,21402
201907180251,21402,21402,21397,21397
201907180252,21397,21401,21397,21401
201907180253,21401,21401,21401,21401
201907180254,21401,21401,21401,21401
201907180255,21401,21401,21400,21401
201907180256,21401,21401,21400,21401
201907180257,21401,21401,21401,21401
201907180258,21401,21401,21400,21401
201907180259,21401,21401,21400,21401
201907180300,21401,21402,21394,21394
201907180301,21394,21396,21392,21396
201907180302,21396,21396,21391,21392
201907180303,21392,21392,21387,21391
201907180304,21391,21391,21387,21387
201907180305,21387,21389,21386,21387
201907180306,21387,21388,21385,21387
201907180307,21387,21387,21387,21387
201907180308,21387,21387,21381,21384
201907180309,21384,21386,21380,21385
201907180310,21385,21387,21382,21385
201907180311,21385,21387,21381,21385
201907180312,21385,21386,21380,21382
201907180313,21382,21382,21382,21382
201907180314,21382,21382,21379,21381
201907180315,21381,21382,21381,21382
201907180316,21382,21387,21381,21385
201907180317,21385,21387,21385,21386
201907180318,21386,21387,21385,21386
201907180319,21386,21386,21382,21386
201907180320,21386,21387,21386,21386
201907180321,21386,21387,21386,21387
201907180322,21387,21389,21385,21389
201907180323,21389,21391,21386,21387
201907180324,21387,21387,21387,21387
201907180325,21387,21390,21385,21390
201907180326,21391,21391,21391,21391
201907180327,21391,21391,21391,21391
201907180328,21391,21391,21390,21390
201907180329,21390,21391,21389,21391
201907180330,21391,21392,21390,21390
201907180331,21390,21392,21385,21390
201907180332,21390,21391,21390,21391
201907180333,21391,21391,21391,21391
201907180334,21391,21392,21391,21392
201907180335,21392,21392,21391,21391
201907180336,21391,21392,21391,21392
201907180337,21392,21392,21392,21392
201907180338,21392,21392,21391,21392
201907180339,21392,21392,21391,21392
201907180340,21392,21392,21392,21392
201907180341,21392,21392,21392,21392
201907180342,21392,21392,21390,21391
201907180343,21391,21392,21391,21391
201907180344,21391,21391,21390,21391
201907180345,21391,21391,21385,21390
201907180346,21390,21392,21390,21392
201907180347,21392,21392,21390,21392
201907180348,21392,21392,21391,21392
201907180349,21392,21392,21391,21392
201907180350,21392,21392,21391,21392
201907180351,21392,21392,21386,21387
201907180352,21387,21390,21385,21390
201907180353,21390,21390,21386,21387
201907180354,21387,21387,21387,21387
201907180355,21387,21387,21387,21387
201907180356,21387,21387,21387,21387
201907180357,21387,21387,21387,21387
201907180358,21387,21387,21387,21387
201907180359,21387,21390,21385,21385
201907180400,21385,21389,21385,21387
201907180401,21387,21387,21385,21386
201907180402,21386,21387,21380,21380
201907180403,21380,21387,21380,21381
201907180404,21381,21382,21380,21380
201907180405,21381,21382,21380,21382
201907180406,21382,21382,21381,21382
201907180407,21382,21384,21380,21384
201907180408,21384,21387,21384,21387
201907180409,21387,21391,21387,21391
201907180410,21391,21392,21391,21392
201907180411,21392,21392,21390,21392
201907180412,21392,21392,21387,21390
201907180413,21390,21391,21390,21391
201907180414,21391,21392,21391,21392
201907180415,21392,21395,21390,21392
201907180416,21392,21392,21391,21392
201907180417,21392,21394,21389,21394
201907180418,21394,21395,21394,21394
201907180419,21394,21394,21389,21394
201907180420,21394,21395,21389,21389
201907180421,21389,21392,21388,21389
201907180422,21389,21389,21384,21387
201907180423,21387,21387,21385,21385
201907180424,21385,21385,21384,21385
201907180425,21385,21385,21384,21385
201907180426,21385,21385,21384,21385
201907180427,21385,21385,21381,21382
201907180428,21382,21382,21380,21380
201907180429,21380,21380,21375,21376
201907180430,21376,21381,21376,21381
201907180431,21381,21384,21381,21383
201907180432,21382,21383,21380,21381
201907180433,21381,21385,21380,21385
201907180434,21385,21387,21384,21387
201907180435,21387,21387,21386,21386
201907180436,21386,21386,21381,21382
201907180437,21382,21382,21380,21381
201907180438,21381,21384,21380,21384
201907180439,21384,21384,21380,21381
201907180440,21381,21382,21380,21382
201907180441,21382,21382,21376,21379
201907180442,21379,21382,21376,21379
201907180443,21379,21379,21376,21377
201907180444,21377,21379,21375,21377
201907180445,21377,21382,21377,21379
201907180446,21379,21381,21375,21376
201907180447,21376,21377,21375,21375
201907180448,21375,21377,21372,21377
201907180449,21377,21379,21375,21378
201907180450,21378,21381,21376,21380
201907180451,21380,21382,21380,21381
201907180452,21381,21382,21375,21382
201907180453,21382,21382,21370,21373
201907180454,21373,21377,21372,21375
201907180455,21375,21375,21365,21372
201907180456,21372,21372,21361,21361
201907180457,21361,21362,21355,21359
201907180458,21359,21364,21359,21362
201907180459,21361,21361,21355,21356
201907180500,21352,21360,21352,21359
201907180501,21359,21364,21359,21360
201907180502,21361,21362,21357,21357
201907180503,21357,21357,21350,21352
201907180504,21352,21352,21347,21350
201907180505,21350,21350,21340,21342
201907180506,21342,21345,21342,21344
201907180507,21344,21344,21339,21340
201907180508,21340,21340,21335,21337
201907180509,21337,21340,21335,21340
201907180510,21340,21341,21335,21337
201907180511,21337,21337,21335,21335
201907180512,21333,21335,21329,21331
201907180513,21331,21332,21330,21330
201907180514,21330,21332,21326,21332
201907180515,21332,21342,21332,21342
201907180516,21342,21342,21340,21342
201907180517,21342,21342,21335,21335
201907180518,21335,21337,21331,21333
201907180519,21333,21337,21333,21337
201907180520,21337,21337,21336,21336
201907180521,21336,21337,21336,21337
201907180522,21337,21337,21336,21336
201907180523,21336,21337,21336,21337
201907180524,21336,21336,21332,21332
201907180525,21332,21335,21331,21334
201907180526,21334,21336,21334,21336
201907180527,21336,21336,21335,21336
201907180528,21336,21338,21335,21338
201907180529,21338,21342,21338,21341
201907180530,21341,21341,21332,21332
201907180531,21332,21332,21326,21327
201907180532,21327,21327,21321,21322
201907180533,21322,21323,21315,21319
201907180534,21319,21319,21315,21319
201907180535,21319,21319,21315,21319
201907180536,21319,21319,21306,21307
201907180537,21307,21307,21298,21298
201907180538,21298,21298,21296,21297
201907180539,21297,21302,21296,21298
201907180540,21298,21298,21293,21297
201907180541,21297,21297,21291,21291
201907180542,21291,21293,21291,21291
201907180543,21291,21292,21289,21290
201907180544,21290,21291,21290,21291
201907180545,21291,21295,21291,21295
201907180546,21295,21297,21295,21297
201907180547,21297,21297,21296,21297
201907180548,21297,21300,21297,21297
201907180549,21297,21297,21296,21296
201907180550,21296,21297,21296,21297
201907180551,21297,21297,21296,21297
201907180552,21297,21297,21296,21296
201907180553,21296,21296,21293,21293
201907180554,21293,21293,21289,21289
201907180555,21289,21293,21289,21292
201907180556,21292,21292,21286,21286
201907180557,21286,21287,21281,21282
201907180558,21282,21282,21280,21280
201907180559,21280,21283,21274,21274
