日時,始値(BID),高値(BID),安値(BID),終値(BID)
201911050800,18.054,18.059,18.054,18.059
201911050801,18.056,18.058,18.056,18.057
201911050802,18.057,18.063,18.057,18.058
201911050803,18.058,18.058,18.058,18.058
201911050804,18.058,18.058,18.052,18.052
201911050805,18.052,18.058,18.052,18.058
201911050806,18.058,18.058,18.058,18.058
201911050807,18.058,18.058,18.058,18.058
201911050808,18.058,18.058,18.058,18.058
201911050809,18.058,18.058,18.057,18.058
201911050810,18.058,18.059,18.058,18.058
201911050811,18.058,18.058,18.057,18.058
201911050812,18.058,18.058,18.053,18.053
201911050813,18.053,18.053,18.053,18.053
201911050814,18.053,18.058,18.052,18.058
201911050815,18.058,18.058,18.054,18.054
201911050816,18.054,18.055,18.048,18.048
201911050817,18.048,18.05,18.048,18.05
201911050818,18.05,18.05,18.048,18.049
201911050819,18.049,18.053,18.048,18.048
201911050820,18.048,18.05,18.048,18.05
201911050821,18.05,18.05,18.05,18.05
201911050822,18.05,18.05,18.048,18.049
201911050823,18.05,18.052,18.049,18.052
201911050824,18.052,18.054,18.05,18.053
201911050825,18.053,18.053,18.052,18.052
201911050826,18.052,18.053,18.052,18.053
201911050827,18.053,18.053,18.053,18.053
201911050828,18.053,18.053,18.053,18.053
201911050829,18.053,18.053,18.052,18.053
201911050830,18.052,18.054,18.051,18.052
201911050831,18.052,18.054,18.052,18.053
201911050832,18.053,18.053,18.052,18.053
201911050833,18.053,18.054,18.043,18.043
201911050834,18.043,18.043,18.028,18.029
201911050835,18.029,18.029,18.016,18.022
201911050836,18.024,18.032,18.023,18.03
201911050837,18.03,18.036,18.028,18.036
201911050838,18.036,18.038,18.031,18.035
201911050839,18.035,18.035,18.028,18.031
201911050840,18.031,18.039,18.03,18.035
201911050841,18.035,18.036,18.034,18.035
201911050842,18.035,18.035,18.026,18.026
201911050843,18.026,18.026,18.019,18.02
201911050844,18.02,18.025,18.02,18.022
201911050845,18.022,18.026,18.02,18.025
201911050846,18.025,18.027,18.017,18.019
201911050847,18.019,18.021,18.015,18.015
201911050848,18.015,18.015,18.014,18.015
201911050849,18.015,18.018,18.013,18.018
201911050850,18.018,18.018,18.014,18.015
201911050851,18.015,18.018,18.009,18.01
201911050852,18.01,18.015,18.009,18.013
201911050853,18.013,18.016,18.008,18.013
201911050854,18.013,18.013,18.008,18.012
201911050855,18.013,18.015,18.011,18.013
201911050856,18.013,18.016,18.013,18.014
201911050857,18.014,18.019,18.014,18.019
201911050858,18.019,18.02,18.011,18.014
201911050859,18.015,18.019,18.013,18.015
201911050900,18.015,18.015,18.013,18.013
201911050901,18.014,18.019,18.014,18.018
201911050902,18.018,18.021,18.014,18.018
201911050903,18.018,18.02,18.017,18.018
201911050904,18.018,18.018,18.018,18.018
201911050905,18.018,18.028,18.018,18.024
201911050906,18.024,18.025,18.018,18.023
201911050907,18.023,18.024,18.022,18.023
201911050908,18.023,18.023,18.02,18.02
201911050909,18.02,18.02,18.013,18.013
201911050910,18.013,18.017,18.013,18.013
201911050911,18.013,18.014,18.009,18.011
201911050912,18.011,18.015,18.009,18.015
201911050913,18.015,18.015,18.007,18.01
201911050914,18.01,18.012,18.01,18.011
201911050915,18.011,18.014,18.009,18.014
201911050916,18.014,18.02,18.014,18.018
201911050917,18.018,18.019,18.014,18.015
201911050918,18.015,18.021,18.014,18.018
201911050919,18.018,18.018,18.013,18.015
201911050920,18.015,18.017,18.014,18.015
201911050921,18.015,18.016,18.013,18.015
201911050922,18.015,18.016,18.014,18.015
201911050923,18.015,18.018,18.014,18.015
201911050924,18.015,18.016,18.01,18.01
201911050925,18.009,18.011,18.003,18.005
201911050926,18.006,18.009,18.005,18.009
201911050927,18.009,18.011,18.008,18.011
201911050928,18.011,18.011,18.008,18.01
201911050929,18.01,18.01,18.008,18.01
201911050930,18.01,18.011,18.008,18.01
201911050931,18.01,18.016,18.01,18.016
201911050932,18.016,18.018,18.013,18.017
201911050933,18.017,18.017,18.014,18.015
201911050934,18.015,18.016,18.01,18.01
201911050935,18.01,18.016,18.01,18.016
201911050936,18.016,18.016,18.013,18.016
201911050937,18.016,18.018,18.014,18.014
201911050938,18.014,18.016,18.014,18.016
201911050939,18.015,18.019,18.015,18.019
201911050940,18.018,18.02,18.015,18.015
201911050941,18.015,18.016,18.013,18.014
201911050942,18.014,18.016,18.014,18.016
201911050943,18.016,18.019,18.014,18.015
201911050944,18.015,18.016,18.014,18.015
201911050945,18.015,18.018,18.013,18.013
201911050946,18.013,18.014,18.012,18.014
201911050947,18.014,18.014,18.013,18.014
201911050948,18.014,18.017,18.014,18.014
201911050949,18.015,18.02,18.015,18.02
201911050950,18.02,18.02,18.012,18.018
201911050951,18.018,18.018,18.013,18.014
201911050952,18.014,18.018,18.013,18.018
201911050953,18.018,18.023,18.018,18.021
201911050954,18.02,18.023,18.019,18.023
201911050955,18.023,18.028,18.023,18.024
201911050956,18.024,18.029,18.023,18.029
201911050957,18.029,18.029,18.028,18.028
201911050958,18.028,18.03,18.027,18.029
201911050959,18.029,18.033,18.027,18.033
201911051000,18.033,18.043,18.029,18.029
201911051001,18.029,18.039,18.029,18.034
201911051002,18.035,18.038,18.033,18.038
201911051003,18.037,18.038,18.034,18.038
201911051004,18.038,18.049,18.038,18.048
201911051005,18.048,18.049,18.04,18.042
201911051006,18.042,18.043,18.034,18.037
201911051007,18.035,18.038,18.033,18.038
201911051008,18.038,18.043,18.035,18.043
201911051009,18.043,18.044,18.039,18.039
201911051010,18.039,18.042,18.032,18.032
201911051011,18.03,18.033,18.03,18.032
201911051012,18.033,18.034,18.028,18.033
201911051013,18.033,18.033,18.024,18.024
201911051014,18.024,18.028,18.018,18.019
201911051015,18.019,18.027,18.013,18.023
201911051016,18.023,18.023,18.019,18.02
201911051017,18.02,18.022,18.019,18.02
201911051018,18.021,18.021,18.017,18.019
201911051019,18.019,18.019,18.013,18.014
201911051020,18.014,18.017,18.013,18.014
201911051021,18.014,18.019,18.012,18.017
201911051022,18.017,18.025,18.017,18.024
201911051023,18.024,18.029,18.024,18.026
201911051024,18.026,18.033,18.026,18.033
201911051025,18.033,18.038,18.029,18.032
201911051026,18.032,18.032,18.03,18.031
201911051027,18.03,18.032,18.028,18.03
201911051028,18.03,18.031,18.03,18.03
201911051029,18.03,18.03,18.029,18.029
201911051030,18.03,18.03,18.019,18.019
201911051031,18.017,18.022,18.017,18.021
201911051032,18.021,18.023,18.02,18.021
201911051033,18.021,18.024,18.021,18.022
201911051034,18.022,18.022,18.016,18.018
201911051035,18.017,18.017,18.013,18.015
201911051036,18.015,18.016,18.014,18.015
201911051037,18.015,18.017,18.01,18.017
201911051038,18.017,18.017,18.011,18.013
201911051039,18.013,18.015,18.01,18.01
201911051040,18.01,18.012,18.004,18.012
201911051041,18.012,18.012,18.012,18.012
201911051042,18.012,18.022,18.012,18.017
201911051043,18.018,18.018,18.017,18.017
201911051044,18.017,18.021,18.016,18.021
201911051045,18.021,18.022,18.017,18.017
201911051046,18.017,18.018,18.009,18.009
201911051047,18.009,18.012,18,18.005
201911051048,18.005,18.02,18.005,18.017
201911051049,18.015,18.02,18.015,18.015
201911051050,18.015,18.016,18.01,18.016
201911051051,18.015,18.026,18.015,18.026
201911051052,18.025,18.027,18.024,18.025
201911051053,18.026,18.029,18.025,18.027
201911051054,18.028,18.03,18.026,18.027
201911051055,18.027,18.03,18.026,18.026
201911051056,18.027,18.028,18.025,18.026
201911051057,18.026,18.031,18.025,18.03
201911051058,18.03,18.03,18.026,18.029
201911051059,18.03,18.03,18.024,18.027
201911051100,18.027,18.028,18.025,18.026
201911051101,18.028,18.03,18.025,18.026
201911051102,18.026,18.03,18.025,18.027
201911051103,18.027,18.027,18.025,18.026
201911051104,18.026,18.027,18.025,18.025
201911051105,18.024,18.025,18.02,18.024
201911051106,18.023,18.026,18.02,18.026
201911051107,18.026,18.027,18.024,18.027
201911051108,18.027,18.03,18.025,18.026
201911051109,18.026,18.029,18.025,18.027
201911051110,18.027,18.028,18.024,18.028
201911051111,18.028,18.031,18.028,18.03
201911051112,18.03,18.031,18.03,18.03
201911051113,18.03,18.031,18.03,18.03
201911051114,18.03,18.03,18.025,18.027
201911051115,18.027,18.029,18.023,18.024
201911051116,18.024,18.025,18.021,18.021
201911051117,18.021,18.022,18.021,18.022
201911051118,18.022,18.023,18.021,18.022
201911051119,18.022,18.023,18.02,18.023
201911051120,18.023,18.026,18.021,18.021
201911051121,18.02,18.023,18.02,18.022
201911051122,18.022,18.023,18.021,18.023
201911051123,18.023,18.024,18.02,18.021
201911051124,18.024,18.025,18.021,18.023
201911051125,18.023,18.023,18.018,18.018
201911051126,18.018,18.021,18.017,18.018
201911051127,18.018,18.018,18.016,18.018
201911051128,18.018,18.018,18.016,18.018
201911051129,18.018,18.021,18.018,18.018
201911051130,18.018,18.019,18.013,18.013
201911051131,18.013,18.013,18.002,18.004
201911051132,18.003,18.004,17.997,17.998
201911051133,17.997,18.005,17.99,18.002
201911051134,18.002,18.008,17.998,18.006
201911051135,18.006,18.006,18,18.002
201911051136,18.002,18.006,18.002,18.003
201911051137,18.003,18.006,18.001,18.002
201911051138,18.002,18.007,18.001,18.007
201911051139,18.006,18.007,18.003,18.006
201911051140,18.006,18.007,18.002,18.002
201911051141,18.003,18.007,18.003,18.006
201911051142,18.006,18.006,18.003,18.006
201911051143,18.006,18.007,18.004,18.005
201911051144,18.004,18.006,18.001,18.003
201911051145,18.003,18.005,18.001,18.001
201911051146,18.001,18.003,17.994,17.995
201911051147,17.993,17.995,17.99,17.991
201911051148,17.991,17.995,17.989,17.992
201911051149,17.992,18.001,17.991,18.001
201911051150,18.001,18.002,17.998,18
201911051151,18,18.001,17.998,18.001
201911051152,18.001,18.004,17.998,18.001
201911051153,18,18.007,18,18.006
201911051154,18.006,18.009,18.005,18.007
201911051155,18.007,18.008,18.005,18.007
201911051156,18.007,18.008,18.005,18.007
201911051157,18.007,18.01,18.006,18.01
201911051158,18.01,18.011,18.01,18.011
201911051159,18.011,18.011,18.01,18.011
201911051200,18.01,18.011,18.006,18.011
201911051201,18.01,18.016,18.01,18.016
201911051202,18.016,18.016,18.015,18.015
201911051203,18.015,18.02,18.015,18.018
201911051204,18.017,18.021,18.017,18.02
201911051205,18.02,18.02,18.017,18.018
201911051206,18.018,18.018,18.016,18.016
201911051207,18.016,18.018,18.015,18.016
201911051208,18.016,18.018,18.013,18.016
201911051209,18.016,18.016,18.008,18.009
201911051210,18.009,18.01,18.007,18.008
201911051211,18.008,18.01,18.007,18.009
201911051212,18.009,18.011,18.009,18.011
201911051213,18.011,18.016,18.011,18.016
201911051214,18.016,18.016,18.012,18.015
201911051215,18.016,18.016,18.01,18.012
201911051216,18.011,18.013,18.011,18.012
201911051217,18.013,18.013,18.01,18.01
201911051218,18.01,18.016,18.01,18.016
201911051219,18.016,18.016,18.014,18.016
201911051220,18.016,18.018,18.015,18.015
201911051221,18.015,18.016,18.013,18.013
201911051222,18.013,18.014,18.012,18.012
201911051223,18.012,18.017,18.011,18.012
201911051224,18.012,18.016,18.01,18.016
201911051225,18.016,18.016,18.015,18.016
201911051226,18.016,18.017,18.015,18.015
201911051227,18.015,18.017,18.013,18.014
201911051228,18.014,18.017,18.014,18.017
201911051229,18.017,18.017,18.011,18.011
201911051230,18.015,18.015,18.01,18.011
201911051231,18.011,18.013,18.011,18.012
201911051232,18.012,18.012,18.01,18.01
201911051233,18.01,18.01,18.003,18.007
201911051234,18.007,18.008,18.005,18.006
201911051235,18.006,18.007,18.005,18.005
201911051236,18.006,18.013,18.006,18.012
201911051237,18.012,18.012,18.01,18.01
201911051238,18.011,18.013,18.01,18.013
201911051239,18.013,18.013,18.01,18.012
201911051240,18.012,18.013,18.01,18.013
201911051241,18.013,18.017,18.012,18.017
201911051242,18.017,18.018,18.015,18.018
201911051243,18.018,18.02,18.017,18.018
201911051244,18.018,18.018,18.017,18.018
201911051245,18.018,18.018,18.012,18.013
201911051246,18.015,18.015,18.01,18.011
201911051247,18.011,18.013,18.01,18.011
201911051248,18.011,18.013,18.01,18.01
201911051249,18.01,18.01,18.007,18.01
201911051250,18.01,18.01,18.007,18.01
201911051251,18.01,18.012,18.006,18.01
201911051252,18.01,18.012,18.01,18.012
201911051253,18.012,18.012,18.01,18.012
201911051254,18.012,18.016,18.011,18.016
201911051255,18.016,18.016,18.016,18.016
201911051256,18.016,18.016,18.016,18.016
201911051257,18.016,18.016,18.012,18.014
201911051258,18.013,18.015,18.011,18.013
201911051259,18.013,18.014,18.011,18.012
201911051300,18.012,18.014,18.011,18.011
201911051301,18.011,18.014,18.011,18.014
201911051302,18.014,18.016,18.012,18.014
201911051303,18.015,18.016,18.014,18.016
201911051304,18.016,18.016,18.013,18.014
201911051305,18.014,18.014,18.012,18.013
201911051306,18.013,18.017,18.012,18.017
201911051307,18.017,18.021,18.017,18.021
201911051308,18.021,18.021,18.021,18.021
201911051309,18.021,18.022,18.021,18.021
201911051310,18.021,18.025,18.021,18.023
201911051311,18.023,18.026,18.022,18.026
201911051312,18.026,18.026,18.025,18.026
201911051313,18.026,18.027,18.026,18.027
201911051314,18.027,18.028,18.026,18.028
201911051315,18.027,18.03,18.027,18.028
201911051316,18.028,18.028,18.026,18.028
201911051317,18.028,18.029,18.026,18.028
201911051318,18.028,18.029,18.026,18.027
201911051319,18.027,18.028,18.025,18.025
201911051320,18.025,18.028,18.025,18.028
201911051321,18.028,18.031,18.027,18.028
201911051322,18.029,18.031,18.027,18.028
201911051323,18.028,18.03,18.027,18.03
201911051324,18.029,18.03,18.027,18.027
201911051325,18.027,18.029,18.027,18.028
201911051326,18.029,18.029,18.027,18.029
201911051327,18.029,18.029,18.027,18.028
201911051328,18.028,18.029,18.027,18.028
201911051329,18.028,18.029,18.027,18.028
201911051330,18.028,18.029,18.027,18.028
201911051331,18.028,18.029,18.027,18.028
201911051332,18.028,18.031,18.028,18.028
201911051333,18.028,18.029,18.027,18.028
201911051334,18.028,18.028,18.022,18.023
201911051335,18.023,18.026,18.022,18.025
201911051336,18.025,18.025,18.022,18.023
201911051337,18.023,18.028,18.023,18.026
201911051338,18.026,18.028,18.026,18.028
201911051339,18.028,18.029,18.027,18.028
201911051340,18.028,18.031,18.027,18.029
201911051341,18.029,18.029,18.026,18.027
201911051342,18.027,18.027,18.022,18.022
201911051343,18.023,18.024,18.022,18.023
201911051344,18.023,18.025,18.022,18.024
201911051345,18.024,18.025,18.022,18.024
201911051346,18.024,18.026,18.023,18.023
201911051347,18.023,18.027,18.022,18.026
201911051348,18.026,18.028,18.025,18.027
201911051349,18.027,18.028,18.026,18.026
201911051350,18.026,18.026,18.022,18.026
201911051351,18.026,18.028,18.026,18.027
201911051352,18.028,18.028,18.027,18.028
201911051353,18.028,18.028,18.027,18.027
201911051354,18.027,18.028,18.026,18.026
201911051355,18.026,18.028,18.025,18.028
201911051356,18.028,18.028,18.026,18.028
201911051357,18.028,18.028,18.025,18.026
201911051358,18.026,18.027,18.025,18.026
201911051359,18.026,18.028,18.026,18.027
201911051400,18.027,18.028,18.026,18.028
201911051401,18.028,18.028,18.025,18.025
201911051402,18.025,18.031,18.025,18.028
201911051403,18.028,18.031,18.028,18.031
201911051404,18.031,18.033,18.031,18.033
201911051405,18.033,18.033,18.031,18.033
201911051406,18.033,18.033,18.032,18.033
201911051407,18.033,18.036,18.033,18.034
201911051408,18.034,18.036,18.034,18.035
201911051409,18.034,18.035,18.034,18.034
201911051410,18.034,18.037,18.034,18.036
201911051411,18.036,18.037,18.036,18.036
201911051412,18.036,18.037,18.036,18.036
201911051413,18.036,18.037,18.036,18.036
201911051414,18.036,18.037,18.034,18.035
201911051415,18.035,18.036,18.034,18.035
201911051416,18.035,18.036,18.034,18.036
201911051417,18.036,18.038,18.036,18.038
201911051418,18.038,18.038,18.035,18.036
201911051419,18.036,18.037,18.036,18.036
201911051420,18.036,18.037,18.036,18.037
201911051421,18.038,18.038,18.037,18.037
201911051422,18.037,18.038,18.037,18.038
201911051423,18.038,18.04,18.038,18.04
201911051424,18.04,18.04,18.04,18.04
201911051425,18.04,18.041,18.04,18.041
201911051426,18.041,18.042,18.041,18.041
201911051427,18.041,18.042,18.041,18.041
201911051428,18.041,18.041,18.04,18.041
201911051429,18.041,18.041,18.04,18.04
201911051430,18.04,18.045,18.04,18.045
201911051431,18.045,18.045,18.044,18.045
201911051432,18.045,18.045,18.042,18.043
201911051433,18.043,18.047,18.043,18.046
201911051434,18.046,18.06,18.045,18.06
201911051435,18.06,18.066,18.06,18.066
201911051436,18.066,18.075,18.066,18.074
201911051437,18.073,18.077,18.069,18.069
201911051438,18.065,18.065,18.05,18.05
201911051439,18.05,18.059,18.05,18.051
201911051440,18.051,18.051,18.045,18.046
201911051441,18.046,18.049,18.041,18.049
201911051442,18.049,18.051,18.041,18.041
201911051443,18.041,18.043,18.04,18.043
201911051444,18.043,18.045,18.04,18.041
201911051445,18.041,18.045,18.041,18.045
201911051446,18.045,18.05,18.043,18.045
201911051447,18.045,18.047,18.042,18.042
201911051448,18.042,18.047,18.042,18.047
201911051449,18.046,18.056,18.046,18.056
201911051450,18.056,18.056,18.055,18.056
201911051451,18.056,18.056,18.049,18.05
201911051452,18.051,18.053,18.049,18.05
201911051453,18.05,18.054,18.05,18.054
201911051454,18.054,18.059,18.054,18.058
201911051455,18.058,18.063,18.058,18.063
201911051456,18.063,18.072,18.063,18.072
201911051457,18.072,18.083,18.067,18.068
201911051458,18.068,18.068,18.045,18.049
201911051459,18.049,18.053,18.048,18.053
201911051500,18.053,18.054,18.047,18.053
201911051501,18.052,18.059,18.05,18.059
201911051502,18.059,18.06,18.052,18.059
201911051503,18.059,18.074,18.059,18.072
201911051504,18.072,18.074,18.062,18.067
201911051505,18.067,18.07,18.067,18.067
201911051506,18.067,18.067,18.061,18.061
201911051507,18.062,18.065,18.053,18.055
201911051508,18.055,18.056,18.05,18.052
201911051509,18.052,18.055,18.051,18.052
201911051510,18.05,18.05,18.043,18.048
201911051511,18.046,18.049,18.045,18.045
201911051512,18.045,18.046,18.044,18.045
201911051513,18.041,18.044,18.034,18.034
201911051514,18.034,18.036,18.03,18.035
201911051515,18.035,18.036,18.02,18.024
201911051516,18.024,18.024,18.013,18.014
201911051517,18.01,18.016,17.995,17.999
201911051518,17.999,18.009,17.999,18.009
201911051519,18.009,18.009,18,18.003
201911051520,18.002,18.003,17.986,17.996
201911051521,17.996,18.013,17.99,18.013
201911051522,18.013,18.022,18.012,18.021
201911051523,18.021,18.021,18.018,18.019
201911051524,18.021,18.029,18.021,18.028
201911051525,18.028,18.028,18.023,18.026
201911051526,18.026,18.028,18.025,18.028
201911051527,18.028,18.031,18.022,18.022
201911051528,18.022,18.024,18.019,18.023
201911051529,18.023,18.025,18.022,18.023
201911051530,18.023,18.028,18.02,18.027
201911051531,18.027,18.031,18.026,18.03
201911051532,18.03,18.033,18.026,18.032
201911051533,18.032,18.035,18.031,18.031
201911051534,18.031,18.033,18.023,18.03
201911051535,18.03,18.03,18.021,18.021
201911051536,18.021,18.026,18.021,18.024
201911051537,18.024,18.025,18.021,18.022
201911051538,18.022,18.026,18.021,18.021
201911051539,18.021,18.025,18.02,18.024
201911051540,18.024,18.024,18.02,18.021
201911051541,18.021,18.021,18.017,18.017
201911051542,18.017,18.021,18.014,18.02
201911051543,18.02,18.021,18.017,18.021
201911051544,18.02,18.021,18.016,18.016
201911051545,18.016,18.031,18.016,18.03
201911051546,18.03,18.036,18.027,18.029
201911051547,18.029,18.03,18.022,18.022
201911051548,18.022,18.022,18.02,18.022
201911051549,18.022,18.022,18.02,18.021
201911051550,18.021,18.021,18.006,18.011
201911051551,18.011,18.013,18.011,18.012
201911051552,18.012,18.022,18.012,18.02
201911051553,18.02,18.022,18.017,18.022
201911051554,18.022,18.026,18.019,18.023
201911051555,18.023,18.026,18.023,18.024
201911051556,18.024,18.026,18.022,18.022
201911051557,18.022,18.026,18.022,18.026
201911051558,18.026,18.026,18.02,18.024
201911051559,18.024,18.032,18.024,18.032
201911051600,18.031,18.032,18.028,18.032
201911051601,18.032,18.04,18.032,18.038
201911051602,18.038,18.042,18.037,18.037
201911051603,18.037,18.037,18.032,18.034
201911051604,18.034,18.037,18.033,18.034
201911051605,18.034,18.075,18.032,18.07
201911051606,18.069,18.069,18.057,18.057
201911051607,18.057,18.067,18.057,18.062
201911051608,18.062,18.062,18.051,18.051
201911051609,18.051,18.053,18.05,18.05
201911051610,18.052,18.052,18.047,18.048
201911051611,18.048,18.05,18.047,18.047
201911051612,18.047,18.049,18.039,18.042
201911051613,18.042,18.044,18.04,18.043
201911051614,18.043,18.044,18.042,18.042
201911051615,18.042,18.042,18.035,18.038
201911051616,18.038,18.038,18.03,18.033
201911051617,18.032,18.033,18.007,18.007
201911051618,18.007,18.049,18.005,18.046
201911051619,18.046,18.057,18.046,18.052
201911051620,18.052,18.06,18.049,18.06
201911051621,18.06,18.061,18.057,18.061
201911051622,18.061,18.063,18.057,18.06
201911051623,18.06,18.061,18.057,18.06
201911051624,18.06,18.061,18.056,18.06
201911051625,18.06,18.063,18.06,18.061
201911051626,18.061,18.065,18.059,18.063
201911051627,18.063,18.065,18.062,18.065
201911051628,18.065,18.068,18.056,18.058
201911051629,18.058,18.06,18.058,18.058
201911051630,18.058,18.073,18.058,18.071
201911051631,18.071,18.072,18.044,18.048
201911051632,18.048,18.057,18.048,18.056
201911051633,18.056,18.056,18.048,18.051
201911051634,18.051,18.054,18.05,18.051
201911051635,18.051,18.056,18.051,18.052
201911051636,18.053,18.054,18.048,18.05
201911051637,18.05,18.053,18.048,18.051
201911051638,18.048,18.053,18.045,18.051
201911051639,18.051,18.056,18.048,18.053
201911051640,18.053,18.054,18.048,18.051
201911051641,18.051,18.052,18.045,18.052
201911051642,18.052,18.052,18.046,18.048
201911051643,18.048,18.053,18.048,18.052
201911051644,18.052,18.053,18.047,18.052
201911051645,18.051,18.053,18.049,18.051
201911051646,18.051,18.052,18.045,18.049
201911051647,18.049,18.058,18.049,18.056
201911051648,18.056,18.066,18.054,18.065
201911051649,18.065,18.065,18.059,18.059
201911051650,18.059,18.063,18.056,18.06
201911051651,18.06,18.061,18.056,18.056
201911051652,18.056,18.058,18.054,18.057
201911051653,18.057,18.061,18.056,18.058
201911051654,18.058,18.06,18.058,18.06
201911051655,18.06,18.065,18.059,18.063
201911051656,18.063,18.071,18.063,18.067
201911051657,18.067,18.074,18.067,18.07
201911051658,18.07,18.071,18.059,18.059
201911051659,18.059,18.064,18.059,18.061
201911051700,18.061,18.073,18.061,18.068
201911051701,18.068,18.068,18.063,18.067
201911051702,18.067,18.071,18.064,18.07
201911051703,18.07,18.073,18.063,18.071
201911051704,18.071,18.083,18.071,18.083
201911051705,18.083,18.085,18.077,18.079
201911051706,18.079,18.079,18.068,18.072
201911051707,18.073,18.074,18.068,18.068
201911051708,18.068,18.074,18.067,18.074
201911051709,18.074,18.074,18.063,18.063
201911051710,18.063,18.065,18.06,18.063
201911051711,18.063,18.064,18.054,18.059
201911051712,18.059,18.059,18.046,18.046
201911051713,18.046,18.046,18.031,18.033
201911051714,18.036,18.044,18.035,18.044
201911051715,18.044,18.044,18.039,18.043
201911051716,18.044,18.053,18.041,18.048
201911051717,18.048,18.052,18.047,18.05
201911051718,18.05,18.058,18.048,18.054
201911051719,18.054,18.056,18.051,18.056
201911051720,18.056,18.063,18.056,18.061
201911051721,18.061,18.068,18.061,18.063
201911051722,18.063,18.066,18.058,18.061
201911051723,18.06,18.064,18.06,18.061
201911051724,18.061,18.061,18.057,18.06
201911051725,18.06,18.06,18.054,18.057
201911051726,18.057,18.058,18.053,18.055
201911051727,18.055,18.06,18.053,18.058
201911051728,18.058,18.063,18.058,18.063
201911051729,18.063,18.066,18.059,18.064
201911051730,18.064,18.068,18.063,18.068
201911051731,18.068,18.07,18.068,18.068
201911051732,18.068,18.074,18.068,18.073
201911051733,18.073,18.073,18.063,18.064
201911051734,18.064,18.064,18.058,18.061
201911051735,18.06,18.065,18.048,18.05
201911051736,18.05,18.06,18.049,18.058
201911051737,18.058,18.06,18.046,18.049
201911051738,18.049,18.05,18.047,18.049
201911051739,18.049,18.049,18.041,18.042
201911051740,18.042,18.045,18.031,18.036
201911051741,18.036,18.04,18.036,18.04
201911051742,18.04,18.053,18.04,18.053
201911051743,18.054,18.055,18.047,18.055
201911051744,18.054,18.058,18.054,18.055
201911051745,18.056,18.057,18.047,18.047
201911051746,18.047,18.054,18.046,18.051
201911051747,18.051,18.051,18.05,18.05
201911051748,18.05,18.056,18.05,18.056
201911051749,18.056,18.058,18.051,18.055
201911051750,18.055,18.055,18.054,18.055
201911051751,18.055,18.056,18.055,18.055
201911051752,18.055,18.06,18.055,18.06
201911051753,18.06,18.06,18.057,18.058
201911051754,18.057,18.058,18.052,18.055
201911051755,18.055,18.056,18.052,18.055
201911051756,18.055,18.056,18.049,18.054
201911051757,18.054,18.056,18.049,18.049
201911051758,18.049,18.056,18.049,18.056
201911051759,18.056,18.056,18.048,18.051
201911051800,18.051,18.057,18.05,18.057
201911051801,18.057,18.061,18.057,18.058
201911051802,18.058,18.061,18.058,18.058
201911051803,18.058,18.058,18.046,18.046
201911051804,18.046,18.051,18.045,18.051
201911051805,18.05,18.051,18.038,18.04
201911051806,18.04,18.041,18.035,18.036
201911051807,18.036,18.039,18.031,18.033
201911051808,18.033,18.036,18.032,18.032
201911051809,18.032,18.04,18.032,18.037
201911051810,18.036,18.037,18.029,18.033
201911051811,18.033,18.044,18.031,18.044
201911051812,18.044,18.052,18.044,18.051
201911051813,18.05,18.056,18.049,18.054
201911051814,18.054,18.055,18.052,18.053
201911051815,18.053,18.053,18.049,18.05
201911051816,18.05,18.052,18.049,18.05
201911051817,18.05,18.052,18.044,18.044
201911051818,18.044,18.046,18.041,18.043
201911051819,18.043,18.046,18.04,18.044
201911051820,18.044,18.046,18.043,18.045
201911051821,18.045,18.045,18.04,18.04
201911051822,18.04,18.042,18.037,18.04
201911051823,18.04,18.042,18.036,18.041
201911051824,18.041,18.042,18.04,18.041
201911051825,18.041,18.046,18.04,18.045
201911051826,18.046,18.049,18.045,18.046
201911051827,18.046,18.046,18.041,18.045
201911051828,18.045,18.046,18.041,18.044
201911051829,18.044,18.046,18.04,18.041
201911051830,18.041,18.041,18.031,18.035
201911051831,18.035,18.04,18.035,18.036
201911051832,18.036,18.042,18.036,18.042
201911051833,18.042,18.046,18.041,18.045
201911051834,18.045,18.051,18.045,18.046
201911051835,18.046,18.051,18.046,18.046
201911051836,18.046,18.051,18.046,18.05
201911051837,18.05,18.051,18.046,18.051
201911051838,18.05,18.051,18.046,18.047
201911051839,18.047,18.047,18.046,18.046
201911051840,18.046,18.051,18.046,18.047
201911051841,18.047,18.051,18.047,18.051
201911051842,18.051,18.051,18.051,18.051
201911051843,18.051,18.051,18.046,18.05
201911051844,18.05,18.05,18.041,18.046
201911051845,18.046,18.046,18.041,18.042
201911051846,18.042,18.043,18.041,18.043
201911051847,18.043,18.047,18.041,18.047
201911051848,18.047,18.047,18.041,18.041
201911051849,18.041,18.046,18.041,18.046
201911051850,18.046,18.046,18.042,18.046
201911051851,18.046,18.051,18.046,18.051
201911051852,18.051,18.051,18.048,18.05
201911051853,18.05,18.056,18.047,18.056
201911051854,18.056,18.059,18.056,18.057
201911051855,18.057,18.061,18.056,18.061
201911051856,18.061,18.061,18.06,18.061
201911051857,18.061,18.061,18.058,18.061
201911051858,18.061,18.061,18.056,18.061
201911051859,18.061,18.061,18.056,18.06
201911051900,18.06,18.061,18.056,18.061
201911051901,18.061,18.061,18.06,18.06
201911051902,18.06,18.061,18.056,18.061
201911051903,18.061,18.064,18.061,18.062
201911051904,18.062,18.063,18.051,18.051
201911051905,18.051,18.056,18.051,18.056
201911051906,18.056,18.06,18.055,18.059
201911051907,18.059,18.061,18.056,18.061
201911051908,18.061,18.065,18.061,18.065
201911051909,18.065,18.065,18.061,18.061
201911051910,18.061,18.065,18.061,18.065
201911051911,18.065,18.066,18.061,18.062
201911051912,18.061,18.062,18.061,18.061
201911051913,18.061,18.066,18.061,18.066
201911051914,18.066,18.069,18.066,18.068
201911051915,18.068,18.069,18.065,18.066
201911051916,18.066,18.067,18.065,18.065
201911051917,18.065,18.067,18.061,18.061
201911051918,18.061,18.062,18.059,18.06
201911051919,18.06,18.06,18.055,18.06
201911051920,18.06,18.061,18.059,18.06
201911051921,18.06,18.061,18.055,18.055
201911051922,18.055,18.056,18.05,18.054
201911051923,18.054,18.054,18.05,18.05
201911051924,18.05,18.051,18.046,18.049
201911051925,18.05,18.051,18.049,18.049
201911051926,18.049,18.05,18.046,18.048
201911051927,18.048,18.05,18.047,18.05
201911051928,18.05,18.052,18.049,18.049
201911051929,18.049,18.052,18.046,18.051
201911051930,18.051,18.056,18.05,18.053
201911051931,18.053,18.056,18.051,18.053
201911051932,18.053,18.053,18.049,18.051
201911051933,18.051,18.054,18.051,18.054
201911051934,18.054,18.054,18.05,18.052
201911051935,18.052,18.055,18.051,18.054
201911051936,18.054,18.054,18.051,18.051
201911051937,18.051,18.051,18.048,18.049
201911051938,18.049,18.051,18.049,18.05
201911051939,18.05,18.054,18.049,18.054
201911051940,18.054,18.054,18.051,18.054
201911051941,18.054,18.055,18.053,18.053
201911051942,18.054,18.061,18.053,18.061
201911051943,18.061,18.064,18.059,18.064
201911051944,18.064,18.064,18.06,18.06
201911051945,18.06,18.067,18.06,18.066
201911051946,18.066,18.066,18.063,18.063
201911051947,18.064,18.064,18.061,18.064
201911051948,18.064,18.066,18.064,18.065
201911051949,18.066,18.07,18.065,18.069
201911051950,18.069,18.07,18.061,18.061
201911051951,18.061,18.061,18.055,18.055
201911051952,18.055,18.06,18.055,18.059
201911051953,18.058,18.061,18.056,18.06
201911051954,18.06,18.06,18.054,18.055
201911051955,18.054,18.056,18.054,18.056
201911051956,18.056,18.056,18.049,18.049
201911051957,18.05,18.051,18.049,18.05
201911051958,18.05,18.054,18.05,18.051
201911051959,18.051,18.054,18.05,18.05
201911052000,18.049,18.05,18.041,18.048
201911052001,18.048,18.054,18.048,18.054
201911052002,18.054,18.055,18.051,18.053
201911052003,18.052,18.053,18.05,18.053
201911052004,18.054,18.057,18.054,18.055
201911052005,18.054,18.057,18.016,18.025
201911052006,18.025,18.044,18.025,18.043
201911052007,18.043,18.062,18.043,18.05
201911052008,18.05,18.057,18.05,18.052
201911052009,18.052,18.054,18.05,18.054
201911052010,18.053,18.057,18.052,18.055
201911052011,18.055,18.059,18.052,18.058
201911052012,18.058,18.061,18.057,18.059
201911052013,18.06,18.067,18.058,18.067
201911052014,18.067,18.068,18.062,18.067
201911052015,18.067,18.067,18.061,18.062
201911052016,18.062,18.063,18.056,18.061
201911052017,18.061,18.062,18.06,18.06
201911052018,18.06,18.061,18.06,18.061
201911052019,18.061,18.063,18.06,18.063
201911052020,18.064,18.064,18.057,18.06
201911052021,18.06,18.061,18.056,18.057
201911052022,18.057,18.061,18.056,18.061
201911052023,18.061,18.066,18.061,18.065
201911052024,18.066,18.071,18.066,18.068
201911052025,18.068,18.07,18.058,18.061
201911052026,18.061,18.063,18.059,18.063
201911052027,18.063,18.066,18.058,18.058
201911052028,18.058,18.058,18.056,18.057
201911052029,18.057,18.057,18.056,18.056
201911052030,18.056,18.057,18.051,18.057
201911052031,18.057,18.06,18.057,18.057
201911052032,18.057,18.057,18.055,18.057
201911052033,18.055,18.057,18.055,18.057
201911052034,18.057,18.057,18.055,18.055
201911052035,18.055,18.056,18.041,18.046
201911052036,18.046,18.051,18.046,18.051
201911052037,18.051,18.052,18.049,18.049
201911052038,18.049,18.053,18.049,18.051
201911052039,18.051,18.057,18.05,18.055
201911052040,18.055,18.055,18.049,18.051
201911052041,18.051,18.059,18.05,18.059
201911052042,18.059,18.06,18.056,18.056
201911052043,18.056,18.059,18.054,18.054
201911052044,18.054,18.054,18.05,18.052
201911052045,18.052,18.052,18.047,18.047
201911052046,18.047,18.051,18.047,18.051
201911052047,18.05,18.05,18.046,18.049
201911052048,18.047,18.051,18.046,18.05
201911052049,18.05,18.054,18.05,18.054
201911052050,18.054,18.055,18.051,18.052
201911052051,18.052,18.057,18.051,18.054
201911052052,18.054,18.055,18.045,18.045
201911052053,18.045,18.05,18.043,18.049
201911052054,18.049,18.049,18.046,18.047
201911052055,18.047,18.047,18.043,18.046
201911052056,18.046,18.046,18.034,18.034
201911052057,18.034,18.039,18.034,18.038
201911052058,18.039,18.039,18.036,18.036
201911052059,18.036,18.044,18.036,18.038
201911052100,18.038,18.044,18.037,18.044
201911052101,18.044,18.044,18.04,18.04
201911052102,18.04,18.041,18.031,18.036
201911052103,18.037,18.037,18.035,18.036
201911052104,18.036,18.037,18.035,18.036
201911052105,18.036,18.037,18.036,18.037
201911052106,18.037,18.037,18.03,18.036
201911052107,18.036,18.038,18.035,18.036
201911052108,18.036,18.036,18.032,18.033
201911052109,18.033,18.035,18.019,18.023
201911052110,18.021,18.031,18.021,18.029
201911052111,18.028,18.031,18.026,18.026
201911052112,18.026,18.026,18.005,18.005
201911052113,18.005,18.005,17.982,17.995
201911052114,17.995,17.996,17.99,17.996
201911052115,17.996,18.005,17.995,17.996
201911052116,17.997,18.002,17.997,18.001
201911052117,18.001,18.017,18.001,18.015
201911052118,18.014,18.015,18.011,18.015
201911052119,18.015,18.016,18.007,18.007
201911052120,18.007,18.008,18.002,18.002
201911052121,18.002,18.007,18.002,18.007
201911052122,18.007,18.01,18.007,18.008
201911052123,18.007,18.01,18.002,18.003
201911052124,18.003,18.008,18.001,18.008
201911052125,18.008,18.008,18.005,18.007
201911052126,18.007,18.007,17.992,17.996
201911052127,17.996,17.997,17.978,17.984
201911052128,17.985,17.986,17.98,17.982
201911052129,17.982,17.985,17.971,17.975
201911052130,17.975,17.977,17.971,17.976
201911052131,17.976,17.982,17.976,17.981
201911052132,17.981,17.995,17.981,17.99
201911052133,17.991,17.996,17.97,17.97
201911052134,17.97,17.977,17.951,17.971
201911052135,17.971,17.981,17.967,17.973
201911052136,17.973,17.98,17.971,17.974
201911052137,17.974,17.98,17.974,17.977
201911052138,17.977,17.98,17.973,17.978
201911052139,17.978,17.983,17.976,17.982
201911052140,17.982,17.982,17.976,17.977
201911052141,17.977,17.977,17.969,17.973
201911052142,17.972,17.973,17.968,17.969
201911052143,17.969,17.969,17.959,17.961
201911052144,17.961,17.963,17.955,17.959
201911052145,17.959,17.959,17.947,17.948
201911052146,17.948,17.957,17.948,17.954
201911052147,17.954,17.964,17.954,17.962
201911052148,17.964,17.967,17.962,17.964
201911052149,17.964,17.965,17.959,17.964
201911052150,17.964,17.968,17.964,17.967
201911052151,17.967,17.968,17.96,17.962
201911052152,17.962,17.963,17.954,17.957
201911052153,17.957,17.964,17.952,17.964
201911052154,17.964,17.969,17.964,17.967
201911052155,17.967,17.977,17.967,17.976
201911052156,17.976,17.976,17.972,17.973
201911052157,17.973,17.974,17.973,17.973
201911052158,17.973,17.977,17.973,17.973
201911052159,17.973,17.981,17.973,17.978
201911052200,17.978,17.991,17.974,17.986
201911052201,17.986,17.988,17.962,17.986
201911052202,17.986,17.996,17.984,17.993
201911052203,17.993,17.993,17.977,17.979
201911052204,17.978,17.979,17.964,17.978
201911052205,17.978,17.987,17.977,17.987
201911052206,17.987,17.992,17.986,17.987
201911052207,17.987,17.994,17.986,17.991
201911052208,17.991,18.004,17.991,18.001
201911052209,18.002,18.002,17.996,17.998
201911052210,17.998,18.001,17.991,18.001
201911052211,18.001,18.001,17.992,17.996
201911052212,17.996,17.999,17.995,17.997
201911052213,17.997,18.012,17.997,18.01
201911052214,18.01,18.016,18.002,18.002
201911052215,18.003,18.01,18.002,18.008
201911052216,18.008,18.011,18.004,18.004
201911052217,18.004,18.009,17.999,17.999
201911052218,17.999,18.01,17.99,18.009
201911052219,18.009,18.019,17.981,17.982
201911052220,17.983,17.993,17.978,17.983
201911052221,17.983,17.992,17.978,17.984
201911052222,17.984,17.984,17.945,17.945
201911052223,17.945,17.961,17.944,17.949
201911052224,17.949,17.949,17.915,17.927
201911052225,17.926,17.929,17.912,17.929
201911052226,17.929,17.93,17.923,17.923
201911052227,17.921,17.931,17.915,17.917
201911052228,17.917,17.917,17.901,17.907
201911052229,17.907,17.918,17.907,17.918
201911052230,17.918,17.918,17.89,17.896
201911052231,17.896,17.907,17.889,17.9
201911052232,17.901,17.903,17.884,17.894
201911052233,17.894,17.894,17.865,17.867
201911052234,17.867,17.877,17.856,17.866
201911052235,17.866,17.866,17.825,17.839
201911052236,17.84,17.845,17.835,17.841
201911052237,17.841,17.844,17.835,17.844
201911052238,17.844,17.844,17.83,17.832
201911052239,17.832,17.844,17.828,17.842
201911052240,17.843,17.85,17.841,17.845
201911052241,17.845,17.849,17.837,17.837
201911052242,17.837,17.842,17.835,17.838
201911052243,17.838,17.842,17.835,17.841
201911052244,17.841,17.847,17.841,17.847
201911052245,17.847,17.847,17.824,17.827
201911052246,17.827,17.838,17.827,17.833
201911052247,17.833,17.836,17.823,17.825
201911052248,17.825,17.825,17.798,17.802
201911052249,17.804,17.808,17.79,17.804
201911052250,17.804,17.804,17.789,17.794
201911052251,17.796,17.805,17.794,17.804
201911052252,17.804,17.805,17.757,17.768
201911052253,17.768,17.771,17.743,17.746
201911052254,17.746,17.759,17.745,17.757
201911052255,17.758,17.758,17.721,17.734
201911052256,17.734,17.734,17.693,17.696
201911052257,17.696,17.71,17.688,17.693
201911052258,17.693,17.71,17.686,17.702
201911052259,17.702,17.726,17.697,17.723
201911052300,17.723,17.73,17.708,17.726
201911052301,17.726,17.733,17.721,17.729
201911052302,17.729,17.742,17.726,17.734
201911052303,17.734,17.737,17.717,17.72
201911052304,17.72,17.726,17.712,17.712
201911052305,17.712,17.717,17.705,17.717
201911052306,17.717,17.721,17.707,17.71
201911052307,17.71,17.71,17.7,17.7
201911052308,17.7,17.716,17.696,17.716
201911052309,17.716,17.716,17.705,17.707
201911052310,17.706,17.726,17.699,17.726
201911052311,17.726,17.735,17.726,17.731
201911052312,17.731,17.751,17.731,17.746
201911052313,17.746,17.751,17.736,17.739
201911052314,17.739,17.741,17.715,17.738
201911052315,17.737,17.745,17.731,17.74
201911052316,17.74,17.741,17.73,17.731
201911052317,17.731,17.742,17.726,17.74
201911052318,17.741,17.746,17.735,17.742
201911052319,17.742,17.742,17.732,17.732
201911052320,17.732,17.732,17.722,17.725
201911052321,17.725,17.726,17.716,17.717
201911052322,17.717,17.723,17.717,17.718
201911052323,17.718,17.723,17.716,17.722
201911052324,17.722,17.732,17.722,17.726
201911052325,17.727,17.732,17.722,17.732
201911052326,17.732,17.738,17.732,17.732
201911052327,17.732,17.741,17.724,17.738
201911052328,17.738,17.742,17.737,17.741
201911052329,17.741,17.747,17.737,17.746
201911052330,17.748,17.751,17.737,17.741
201911052331,17.741,17.756,17.732,17.756
201911052332,17.756,17.756,17.747,17.756
201911052333,17.756,17.762,17.749,17.76
201911052334,17.76,17.766,17.759,17.765
201911052335,17.765,17.766,17.757,17.765
201911052336,17.765,17.771,17.763,17.77
201911052337,17.77,17.77,17.754,17.756
201911052338,17.756,17.757,17.751,17.754
201911052339,17.755,17.761,17.751,17.76
201911052340,17.76,17.765,17.755,17.755
201911052341,17.755,17.755,17.736,17.737
201911052342,17.737,17.741,17.735,17.741
201911052343,17.741,17.743,17.737,17.74
201911052344,17.74,17.74,17.737,17.739
201911052345,17.739,17.771,17.739,17.771
201911052346,17.771,17.776,17.764,17.769
201911052347,17.769,17.769,17.761,17.768
201911052348,17.77,17.772,17.766,17.771
201911052349,17.771,17.771,17.76,17.762
201911052350,17.762,17.772,17.761,17.771
201911052351,17.77,17.778,17.77,17.773
201911052352,17.773,17.776,17.766,17.77
201911052353,17.77,17.777,17.767,17.772
201911052354,17.771,17.772,17.765,17.771
201911052355,17.771,17.771,17.759,17.768
201911052356,17.768,17.776,17.767,17.775
201911052357,17.775,17.784,17.775,17.784
201911052358,17.781,17.784,17.774,17.779
201911052359,17.779,17.779,17.762,17.765
201911060000,17.768,17.768,17.682,17.682
201911060001,17.682,17.689,17.66,17.672
201911060002,17.672,17.691,17.665,17.677
201911060003,17.68,17.689,17.673,17.68
201911060004,17.68,17.693,17.676,17.676
201911060005,17.675,17.692,17.673,17.688
201911060006,17.688,17.695,17.675,17.675
201911060007,17.674,17.674,17.632,17.647
201911060008,17.648,17.65,17.625,17.647
201911060009,17.647,17.672,17.643,17.672
201911060010,17.672,17.677,17.658,17.677
201911060011,17.677,17.682,17.668,17.679
201911060012,17.679,17.698,17.677,17.696
201911060013,17.696,17.707,17.694,17.704
201911060014,17.705,17.71,17.697,17.699
201911060015,17.7,17.712,17.692,17.697
201911060016,17.697,17.698,17.692,17.697
201911060017,17.697,17.707,17.693,17.693
201911060018,17.694,17.696,17.688,17.688
201911060019,17.69,17.696,17.686,17.686
201911060020,17.686,17.693,17.684,17.692
201911060021,17.692,17.693,17.679,17.681
201911060022,17.681,17.692,17.681,17.692
201911060023,17.692,17.692,17.677,17.678
201911060024,17.678,17.685,17.676,17.681
201911060025,17.681,17.682,17.662,17.667
201911060026,17.668,17.672,17.657,17.669
201911060027,17.669,17.67,17.662,17.663
201911060028,17.663,17.672,17.657,17.663
201911060029,17.663,17.663,17.653,17.656
201911060030,17.656,17.656,17.637,17.642
201911060031,17.642,17.648,17.641,17.645
201911060032,17.645,17.648,17.631,17.633
201911060033,17.633,17.644,17.633,17.643
201911060034,17.643,17.655,17.639,17.655
201911060035,17.655,17.658,17.646,17.646
201911060036,17.645,17.653,17.643,17.647
201911060037,17.647,17.653,17.646,17.648
201911060038,17.648,17.652,17.647,17.649
201911060039,17.649,17.653,17.645,17.653
201911060040,17.653,17.654,17.639,17.642
201911060041,17.641,17.641,17.628,17.637
201911060042,17.637,17.662,17.637,17.659
201911060043,17.659,17.661,17.649,17.651
201911060044,17.651,17.667,17.65,17.667
201911060045,17.666,17.675,17.66,17.674
201911060046,17.674,17.675,17.662,17.665
201911060047,17.665,17.676,17.663,17.674
201911060048,17.674,17.676,17.668,17.673
201911060049,17.673,17.68,17.669,17.68
201911060050,17.68,17.685,17.678,17.681
201911060051,17.68,17.682,17.673,17.68
201911060052,17.68,17.684,17.673,17.679
201911060053,17.679,17.684,17.678,17.68
201911060054,17.68,17.689,17.68,17.683
201911060055,17.683,17.683,17.675,17.675
201911060056,17.674,17.682,17.67,17.68
201911060057,17.68,17.682,17.675,17.679
201911060058,17.679,17.685,17.665,17.665
201911060059,17.665,17.669,17.661,17.663
201911060100,17.664,17.673,17.663,17.667
201911060101,17.667,17.669,17.65,17.666
201911060102,17.667,17.669,17.645,17.647
201911060103,17.647,17.656,17.645,17.645
201911060104,17.644,17.646,17.635,17.642
201911060105,17.642,17.646,17.64,17.641
201911060106,17.641,17.643,17.616,17.62
201911060107,17.618,17.628,17.61,17.611
201911060108,17.611,17.614,17.597,17.597
201911060109,17.597,17.606,17.594,17.606
201911060110,17.606,17.61,17.599,17.605
201911060111,17.605,17.609,17.604,17.606
201911060112,17.606,17.61,17.605,17.608
201911060113,17.608,17.611,17.605,17.61
201911060114,17.61,17.611,17.605,17.607
201911060115,17.606,17.608,17.599,17.605
201911060116,17.605,17.605,17.59,17.59
201911060117,17.59,17.604,17.59,17.6
201911060118,17.6,17.604,17.599,17.6
201911060119,17.6,17.601,17.595,17.596
201911060120,17.596,17.596,17.58,17.591
201911060121,17.591,17.601,17.59,17.596
201911060122,17.596,17.601,17.594,17.601
201911060123,17.601,17.601,17.586,17.586
201911060124,17.586,17.586,17.575,17.58
201911060125,17.58,17.59,17.577,17.589
201911060126,17.59,17.601,17.586,17.599
201911060127,17.599,17.608,17.596,17.605
201911060128,17.605,17.611,17.6,17.605
201911060129,17.605,17.605,17.599,17.599
201911060130,17.596,17.6,17.585,17.585
201911060131,17.585,17.587,17.575,17.581
201911060132,17.581,17.587,17.58,17.582
201911060133,17.582,17.583,17.575,17.575
201911060134,17.575,17.576,17.551,17.552
201911060135,17.548,17.556,17.545,17.55
201911060136,17.551,17.556,17.542,17.556
201911060137,17.556,17.572,17.556,17.57
201911060138,17.57,17.578,17.567,17.576
201911060139,17.576,17.58,17.571,17.572
201911060140,17.571,17.575,17.567,17.573
201911060141,17.575,17.575,17.563,17.571
201911060142,17.571,17.575,17.56,17.56
201911060143,17.561,17.566,17.555,17.556
201911060144,17.556,17.56,17.55,17.55
201911060145,17.55,17.56,17.55,17.555
201911060146,17.555,17.562,17.553,17.561
201911060147,17.561,17.565,17.556,17.561
201911060148,17.561,17.561,17.55,17.555
201911060149,17.555,17.555,17.54,17.545
201911060150,17.545,17.571,17.545,17.565
201911060151,17.565,17.566,17.558,17.561
201911060152,17.561,17.561,17.545,17.546
201911060153,17.546,17.551,17.541,17.55
201911060154,17.55,17.556,17.55,17.551
201911060155,17.551,17.551,17.536,17.536
201911060156,17.535,17.55,17.532,17.546
201911060157,17.546,17.565,17.546,17.565
201911060158,17.565,17.57,17.561,17.561
201911060159,17.561,17.565,17.557,17.56
201911060200,17.56,17.576,17.56,17.571
201911060201,17.571,17.575,17.566,17.575
201911060202,17.576,17.586,17.575,17.58
201911060203,17.58,17.591,17.58,17.586
201911060204,17.586,17.586,17.576,17.58
201911060205,17.58,17.582,17.577,17.581
201911060206,17.581,17.581,17.576,17.577
201911060207,17.577,17.586,17.577,17.581
201911060208,17.581,17.582,17.576,17.582
201911060209,17.582,17.585,17.576,17.581
201911060210,17.582,17.582,17.578,17.582
201911060211,17.582,17.582,17.58,17.581
201911060212,17.581,17.581,17.571,17.576
201911060213,17.576,17.576,17.571,17.575
201911060214,17.576,17.581,17.575,17.58
201911060215,17.58,17.582,17.58,17.581
201911060216,17.581,17.581,17.58,17.581
201911060217,17.581,17.601,17.581,17.595
201911060218,17.595,17.604,17.592,17.604
201911060219,17.604,17.621,17.604,17.615
201911060220,17.615,17.62,17.601,17.605
201911060221,17.606,17.608,17.606,17.607
201911060222,17.606,17.62,17.605,17.616
201911060223,17.616,17.624,17.616,17.62
201911060224,17.62,17.626,17.62,17.621
201911060225,17.621,17.626,17.617,17.621
201911060226,17.621,17.625,17.62,17.62
201911060227,17.62,17.632,17.62,17.625
201911060228,17.625,17.631,17.625,17.625
201911060229,17.624,17.636,17.624,17.636
201911060230,17.635,17.639,17.625,17.625
201911060231,17.624,17.634,17.624,17.629
201911060232,17.629,17.633,17.629,17.63
201911060233,17.63,17.637,17.63,17.637
201911060234,17.637,17.64,17.634,17.638
201911060235,17.638,17.643,17.633,17.633
201911060236,17.633,17.634,17.625,17.629
201911060237,17.629,17.63,17.628,17.629
201911060238,17.629,17.629,17.624,17.624
201911060239,17.624,17.629,17.624,17.628
201911060240,17.628,17.628,17.62,17.62
201911060241,17.62,17.625,17.62,17.624
201911060242,17.624,17.634,17.622,17.634
201911060243,17.634,17.634,17.632,17.634
201911060244,17.634,17.639,17.633,17.634
201911060245,17.634,17.635,17.632,17.634
201911060246,17.634,17.634,17.633,17.634
201911060247,17.634,17.66,17.634,17.66
201911060248,17.659,17.66,17.654,17.657
201911060249,17.657,17.66,17.655,17.66
201911060250,17.66,17.66,17.653,17.654
201911060251,17.654,17.659,17.653,17.654
201911060252,17.654,17.654,17.644,17.649
201911060253,17.649,17.649,17.643,17.645
201911060254,17.645,17.649,17.643,17.644
201911060255,17.644,17.644,17.642,17.643
201911060256,17.643,17.643,17.638,17.638
201911060257,17.638,17.639,17.638,17.638
201911060258,17.639,17.639,17.633,17.633
201911060259,17.633,17.635,17.629,17.634
201911060300,17.634,17.645,17.634,17.638
201911060301,17.638,17.644,17.634,17.636
201911060302,17.638,17.638,17.634,17.634
201911060303,17.634,17.639,17.628,17.631
201911060304,17.631,17.635,17.629,17.629
201911060305,17.629,17.629,17.611,17.613
201911060306,17.613,17.614,17.612,17.613
201911060307,17.613,17.613,17.608,17.609
201911060308,17.609,17.62,17.609,17.619
201911060309,17.616,17.628,17.609,17.62
201911060310,17.62,17.62,17.602,17.609
201911060311,17.609,17.614,17.599,17.601
201911060312,17.601,17.619,17.601,17.614
201911060313,17.614,17.614,17.608,17.61
201911060314,17.61,17.619,17.608,17.608
201911060315,17.609,17.61,17.604,17.609
201911060316,17.609,17.609,17.596,17.599
201911060317,17.599,17.6,17.593,17.594
201911060318,17.594,17.594,17.583,17.583
201911060319,17.583,17.585,17.582,17.585
201911060320,17.584,17.585,17.581,17.581
201911060321,17.581,17.595,17.58,17.59
201911060322,17.59,17.605,17.589,17.605
201911060323,17.605,17.605,17.584,17.584
201911060324,17.584,17.585,17.574,17.58
201911060325,17.58,17.594,17.58,17.593
201911060326,17.593,17.594,17.589,17.593
201911060327,17.593,17.605,17.584,17.604
201911060328,17.604,17.607,17.599,17.6
201911060329,17.6,17.611,17.599,17.611
201911060330,17.61,17.619,17.61,17.619
201911060331,17.619,17.631,17.619,17.628
201911060332,17.628,17.634,17.628,17.629
201911060333,17.629,17.63,17.626,17.629
201911060334,17.628,17.629,17.622,17.627
201911060335,17.627,17.629,17.627,17.629
201911060336,17.629,17.634,17.628,17.634
201911060337,17.633,17.638,17.633,17.634
201911060338,17.634,17.634,17.632,17.632
201911060339,17.632,17.638,17.632,17.634
201911060340,17.634,17.634,17.628,17.628
201911060341,17.628,17.631,17.626,17.629
201911060342,17.629,17.634,17.629,17.634
201911060343,17.634,17.634,17.629,17.633
201911060344,17.633,17.639,17.633,17.639
201911060345,17.639,17.639,17.629,17.631
201911060346,17.632,17.633,17.622,17.624
201911060347,17.624,17.624,17.619,17.624
201911060348,17.624,17.625,17.619,17.62
201911060349,17.62,17.624,17.614,17.614
201911060350,17.614,17.62,17.599,17.6
201911060351,17.601,17.604,17.589,17.594
201911060352,17.594,17.608,17.594,17.606
201911060353,17.606,17.62,17.606,17.619
201911060354,17.619,17.624,17.619,17.621
201911060355,17.621,17.622,17.619,17.62
201911060356,17.62,17.625,17.619,17.62
201911060357,17.62,17.624,17.619,17.623
201911060358,17.623,17.626,17.623,17.624
201911060359,17.624,17.624,17.603,17.604
201911060400,17.604,17.608,17.603,17.605
201911060401,17.605,17.609,17.604,17.604
201911060402,17.604,17.605,17.6,17.605
201911060403,17.605,17.61,17.605,17.609
201911060404,17.609,17.61,17.608,17.609
201911060405,17.609,17.614,17.609,17.614
201911060406,17.614,17.614,17.61,17.61
201911060407,17.61,17.615,17.61,17.614
201911060408,17.614,17.62,17.614,17.619
201911060409,17.619,17.619,17.618,17.618
201911060410,17.618,17.62,17.616,17.619
201911060411,17.619,17.623,17.618,17.62
201911060412,17.62,17.624,17.62,17.624
201911060413,17.624,17.624,17.621,17.622
201911060414,17.622,17.622,17.613,17.613
201911060415,17.613,17.624,17.613,17.622
201911060416,17.621,17.621,17.618,17.62
201911060417,17.619,17.623,17.619,17.621
201911060418,17.621,17.621,17.613,17.613
201911060419,17.613,17.615,17.613,17.613
201911060420,17.613,17.613,17.608,17.613
201911060421,17.613,17.614,17.61,17.614
201911060422,17.614,17.616,17.614,17.615
201911060423,17.615,17.619,17.615,17.619
201911060424,17.619,17.62,17.614,17.614
201911060425,17.614,17.615,17.614,17.614
201911060426,17.614,17.615,17.613,17.615
201911060427,17.615,17.615,17.613,17.614
201911060428,17.614,17.619,17.613,17.613
201911060429,17.613,17.616,17.613,17.615
201911060430,17.615,17.617,17.613,17.615
201911060431,17.615,17.62,17.614,17.62
201911060432,17.62,17.62,17.618,17.619
201911060433,17.619,17.62,17.618,17.62
201911060434,17.62,17.624,17.619,17.624
201911060435,17.624,17.625,17.619,17.619
201911060436,17.619,17.619,17.615,17.618
201911060437,17.618,17.625,17.615,17.622
201911060438,17.622,17.625,17.619,17.621
201911060439,17.621,17.621,17.619,17.619
201911060440,17.619,17.624,17.618,17.62
201911060441,17.62,17.624,17.62,17.621
201911060442,17.621,17.621,17.615,17.618
201911060443,17.618,17.625,17.618,17.624
201911060444,17.624,17.624,17.619,17.62
201911060445,17.62,17.623,17.619,17.62
201911060446,17.62,17.623,17.619,17.62
201911060447,17.62,17.625,17.619,17.625
201911060448,17.625,17.625,17.619,17.62
201911060449,17.62,17.625,17.62,17.625
201911060450,17.625,17.625,17.621,17.625
201911060451,17.625,17.625,17.62,17.621
201911060452,17.621,17.625,17.621,17.624
201911060453,17.624,17.625,17.62,17.621
201911060454,17.621,17.626,17.62,17.626
201911060455,17.626,17.63,17.625,17.625
201911060456,17.625,17.627,17.625,17.626
201911060457,17.626,17.626,17.62,17.622
201911060458,17.622,17.625,17.619,17.619
201911060459,17.619,17.619,17.608,17.609
201911060500,17.609,17.61,17.604,17.604
201911060501,17.604,17.621,17.595,17.616
201911060502,17.616,17.621,17.615,17.62
201911060503,17.62,17.62,17.62,17.62
201911060504,17.62,17.621,17.62,17.62
201911060505,17.62,17.621,17.619,17.619
201911060506,17.619,17.62,17.609,17.614
201911060507,17.615,17.619,17.614,17.619
201911060508,17.619,17.62,17.614,17.614
201911060509,17.614,17.615,17.614,17.615
201911060510,17.615,17.619,17.615,17.619
201911060511,17.619,17.619,17.616,17.618
201911060512,17.616,17.619,17.616,17.616
201911060513,17.616,17.617,17.616,17.616
201911060514,17.616,17.617,17.615,17.616
201911060515,17.616,17.621,17.616,17.621
201911060516,17.621,17.625,17.615,17.622
201911060517,17.622,17.623,17.62,17.62
201911060518,17.62,17.62,17.612,17.615
201911060519,17.615,17.621,17.615,17.621
201911060520,17.621,17.626,17.619,17.62
201911060521,17.621,17.624,17.62,17.621
201911060522,17.621,17.621,17.62,17.621
201911060523,17.621,17.621,17.62,17.621
201911060524,17.621,17.622,17.617,17.619
201911060525,17.619,17.622,17.619,17.62
201911060526,17.62,17.62,17.62,17.62
201911060527,17.62,17.621,17.619,17.621
201911060528,17.621,17.625,17.62,17.625
201911060529,17.624,17.625,17.62,17.621
201911060530,17.621,17.621,17.615,17.619
201911060531,17.62,17.625,17.62,17.622
201911060532,17.622,17.63,17.622,17.626
201911060533,17.626,17.628,17.624,17.624
201911060534,17.625,17.626,17.625,17.626
201911060535,17.626,17.638,17.626,17.633
201911060536,17.632,17.632,17.627,17.627
201911060537,17.627,17.628,17.625,17.626
201911060538,17.625,17.626,17.622,17.622
201911060539,17.622,17.627,17.622,17.625
201911060540,17.626,17.627,17.622,17.623
201911060541,17.623,17.627,17.623,17.626
201911060542,17.626,17.63,17.625,17.63
201911060543,17.63,17.631,17.628,17.63
201911060544,17.629,17.634,17.629,17.634
201911060545,17.634,17.634,17.63,17.63
201911060546,17.63,17.63,17.625,17.63
201911060547,17.63,17.63,17.624,17.625
201911060548,17.625,17.626,17.624,17.624
201911060549,17.624,17.626,17.624,17.625
201911060550,17.625,17.626,17.624,17.625
201911060551,17.625,17.627,17.622,17.624
201911060552,17.624,17.625,17.623,17.624
201911060553,17.624,17.628,17.619,17.62
201911060554,17.62,17.621,17.612,17.613
201911060555,17.613,17.614,17.612,17.614
201911060556,17.614,17.614,17.613,17.613
201911060557,17.613,17.614,17.612,17.612
201911060558,17.614,17.614,17.609,17.614
201911060559,17.614,17.619,17.613,17.615
201911060600,17.61,17.61,17.608,17.609
201911060601,17.609,17.613,17.609,17.613
201911060602,17.613,17.618,17.613,17.618
201911060603,17.618,17.618,17.617,17.618
201911060604,17.618,17.618,17.618,17.618
201911060605,17.618,17.619,17.618,17.618
201911060606,17.618,17.618,17.615,17.615
201911060607,17.615,17.619,17.615,17.619
201911060608,17.619,17.62,17.618,17.618
201911060609,17.618,17.618,17.617,17.618
201911060610,17.618,17.618,17.617,17.618
201911060611,17.618,17.618,17.618,17.618
201911060612,17.618,17.618,17.609,17.609
201911060613,17.609,17.609,17.607,17.609
201911060614,17.609,17.614,17.609,17.613
201911060615,17.613,17.613,17.611,17.613
201911060616,17.613,17.618,17.613,17.617
201911060617,17.617,17.618,17.613,17.614
201911060618,17.614,17.614,17.614,17.614
201911060619,17.614,17.614,17.613,17.613
201911060620,17.613,17.614,17.613,17.613
201911060621,17.613,17.614,17.613,17.614
201911060622,17.614,17.614,17.613,17.614
201911060623,17.614,17.619,17.614,17.618
201911060624,17.618,17.624,17.618,17.623
201911060625,17.623,17.634,17.623,17.634
201911060626,17.635,17.639,17.634,17.634
201911060627,17.634,17.634,17.602,17.603
201911060628,17.603,17.603,17.598,17.599
201911060629,17.599,17.603,17.599,17.603
201911060630,17.603,17.608,17.602,17.603
201911060631,17.603,17.603,17.602,17.602
201911060632,17.602,17.607,17.602,17.603
201911060633,17.603,17.603,17.602,17.603
201911060634,17.603,17.603,17.6,17.603
201911060635,17.603,17.608,17.603,17.608
201911060636,17.608,17.612,17.608,17.608
201911060637,17.608,17.608,17.599,17.599
201911060638,17.599,17.601,17.599,17.599
201911060639,17.601,17.601,17.592,17.592
201911060640,17.592,17.592,17.587,17.588
201911060641,17.588,17.592,17.588,17.591
201911060642,17.591,17.596,17.591,17.592
201911060643,17.592,17.592,17.592,17.592
201911060644,17.592,17.593,17.587,17.589
201911060645,17.589,17.593,17.587,17.588
201911060646,17.588,17.588,17.583,17.583
201911060647,17.583,17.585,17.582,17.584
201911060648,17.584,17.584,17.577,17.577
201911060649,17.578,17.582,17.577,17.581
201911060650,17.581,17.581,17.569,17.576
201911060651,17.576,17.577,17.573,17.573
201911060652,17.573,17.575,17.569,17.569
201911060653,17.569,17.572,17.568,17.572
201911060654,17.572,17.573,17.571,17.572
201911060655,17.572,17.572,17.567,17.567
201911060656,17.567,17.569,17.567,17.568
201911060657,17.568,17.57,17.568,17.57
201911060658,17.57,17.579,17.57,17.575
201911060659,17.575,17.58,17.553,17.553
