日時,始値(BID),高値(BID),安値(BID),終値(BID)
201911250800,16.973,16.981,16.91,16.965
201911250801,16.964,16.969,16.946,16.948
201911250802,16.948,16.956,16.947,16.954
201911250803,16.954,16.954,16.942,16.944
201911250804,16.946,16.947,16.942,16.943
201911250805,16.943,16.945,16.94,16.941
201911250806,16.942,16.944,16.941,16.942
201911250807,16.941,16.942,16.926,16.926
201911250808,16.926,16.928,16.926,16.927
201911250809,16.927,16.928,16.923,16.923
201911250810,16.923,16.923,16.921,16.922
201911250811,16.922,16.925,16.921,16.922
201911250812,16.923,16.923,16.921,16.923
201911250813,16.923,16.924,16.922,16.923
201911250814,16.923,16.924,16.915,16.917
201911250815,16.917,16.917,16.914,16.915
201911250816,16.915,16.915,16.911,16.912
201911250817,16.912,16.914,16.912,16.914
201911250818,16.914,16.914,16.905,16.908
201911250819,16.908,16.908,16.896,16.897
201911250820,16.897,16.898,16.896,16.896
201911250821,16.896,16.898,16.895,16.897
201911250822,16.897,16.897,16.892,16.893
201911250823,16.893,16.898,16.893,16.898
201911250824,16.898,16.898,16.896,16.896
201911250825,16.896,16.896,16.89,16.892
201911250826,16.892,16.895,16.892,16.893
201911250827,16.893,16.894,16.893,16.894
201911250828,16.894,16.897,16.894,16.894
201911250829,16.894,16.897,16.894,16.894
201911250830,16.894,16.896,16.894,16.896
201911250831,16.896,16.9,16.896,16.898
201911250832,16.898,16.899,16.898,16.898
201911250833,16.898,16.899,16.896,16.897
201911250834,16.897,16.901,16.897,16.901
201911250835,16.901,16.91,16.901,16.909
201911250836,16.909,16.919,16.909,16.917
201911250837,16.917,16.919,16.916,16.916
201911250838,16.916,16.916,16.913,16.913
201911250839,16.913,16.916,16.913,16.916
201911250840,16.916,16.916,16.915,16.916
201911250841,16.916,16.916,16.913,16.913
201911250842,16.913,16.915,16.913,16.915
201911250843,16.915,16.918,16.915,16.918
201911250844,16.918,16.918,16.917,16.918
201911250845,16.918,16.919,16.909,16.909
201911250846,16.909,16.911,16.909,16.911
201911250847,16.911,16.911,16.91,16.91
201911250848,16.91,16.919,16.906,16.917
201911250849,16.917,16.917,16.913,16.915
201911250850,16.913,16.918,16.913,16.917
201911250851,16.917,16.917,16.916,16.917
201911250852,16.917,16.918,16.916,16.916
201911250853,16.916,16.917,16.916,16.917
201911250854,16.917,16.918,16.916,16.918
201911250855,16.918,16.921,16.918,16.919
201911250856,16.918,16.92,16.912,16.913
201911250857,16.913,16.915,16.913,16.915
201911250858,16.915,16.915,16.914,16.915
201911250859,16.915,16.916,16.913,16.915
201911250900,16.915,16.92,16.915,16.918
201911250901,16.918,16.925,16.918,16.923
201911250902,16.923,16.925,16.922,16.924
201911250903,16.924,16.925,16.923,16.924
201911250904,16.924,16.924,16.919,16.921
201911250905,16.921,16.93,16.921,16.929
201911250906,16.929,16.936,16.929,16.934
201911250907,16.934,16.935,16.932,16.934
201911250908,16.934,16.94,16.934,16.94
201911250909,16.94,16.942,16.939,16.939
201911250910,16.939,16.943,16.938,16.943
201911250911,16.943,16.944,16.942,16.942
201911250912,16.942,16.942,16.939,16.939
201911250913,16.939,16.943,16.938,16.943
201911250914,16.943,16.943,16.942,16.942
201911250915,16.942,16.945,16.941,16.943
201911250916,16.943,16.943,16.941,16.941
201911250917,16.941,16.943,16.941,16.941
201911250918,16.941,16.943,16.941,16.943
201911250919,16.943,16.943,16.942,16.943
201911250920,16.943,16.943,16.943,16.943
201911250921,16.943,16.943,16.941,16.942
201911250922,16.942,16.947,16.941,16.947
201911250923,16.947,16.948,16.945,16.948
201911250924,16.948,16.949,16.945,16.945
201911250925,16.945,16.948,16.945,16.947
201911250926,16.947,16.947,16.944,16.944
201911250927,16.944,16.945,16.944,16.944
201911250928,16.944,16.951,16.944,16.949
201911250929,16.949,16.953,16.949,16.953
201911250930,16.953,16.953,16.95,16.95
201911250931,16.95,16.951,16.95,16.95
201911250932,16.95,16.951,16.948,16.948
201911250933,16.948,16.949,16.948,16.948
201911250934,16.948,16.948,16.945,16.947
201911250935,16.948,16.949,16.946,16.947
201911250936,16.947,16.948,16.947,16.948
201911250937,16.948,16.949,16.948,16.948
201911250938,16.948,16.949,16.948,16.948
201911250939,16.948,16.949,16.948,16.948
201911250940,16.948,16.948,16.948,16.948
201911250941,16.948,16.949,16.945,16.949
201911250942,16.949,16.95,16.948,16.95
201911250943,16.95,16.954,16.949,16.95
201911250944,16.95,16.952,16.95,16.952
201911250945,16.952,16.953,16.95,16.953
201911250946,16.953,16.953,16.95,16.951
201911250947,16.951,16.951,16.936,16.939
201911250948,16.938,16.942,16.938,16.942
201911250949,16.942,16.949,16.942,16.949
201911250950,16.949,16.954,16.949,16.951
201911250951,16.951,16.953,16.951,16.952
201911250952,16.952,16.956,16.951,16.955
201911250953,16.954,16.955,16.95,16.95
201911250954,16.95,16.951,16.947,16.95
201911250955,16.95,16.952,16.949,16.951
201911250956,16.951,16.954,16.951,16.952
201911250957,16.953,16.954,16.951,16.953
201911250958,16.954,16.957,16.953,16.957
201911250959,16.957,16.957,16.952,16.952
201911251000,16.952,16.979,16.952,16.954
201911251001,16.952,16.967,16.948,16.953
201911251002,16.953,16.953,16.928,16.94
201911251003,16.94,16.943,16.933,16.939
201911251004,16.942,16.943,16.934,16.939
201911251005,16.939,16.948,16.928,16.948
201911251006,16.949,16.964,16.947,16.963
201911251007,16.964,16.964,16.948,16.949
201911251008,16.949,16.949,16.942,16.947
201911251009,16.947,16.949,16.945,16.946
201911251010,16.946,16.948,16.921,16.934
201911251011,16.934,16.934,16.913,16.918
201911251012,16.918,16.93,16.91,16.93
201911251013,16.93,16.932,16.924,16.932
201911251014,16.93,16.93,16.922,16.924
201911251015,16.924,16.925,16.92,16.923
201911251016,16.928,16.941,16.928,16.938
201911251017,16.938,16.939,16.937,16.938
201911251018,16.938,16.939,16.933,16.933
201911251019,16.933,16.94,16.933,16.94
201911251020,16.939,16.949,16.938,16.948
201911251021,16.948,16.948,16.934,16.934
201911251022,16.934,16.938,16.93,16.931
201911251023,16.931,16.934,16.928,16.928
201911251024,16.929,16.935,16.927,16.927
201911251025,16.924,16.929,16.92,16.929
201911251026,16.929,16.929,16.918,16.918
201911251027,16.918,16.93,16.91,16.93
201911251028,16.93,16.938,16.927,16.938
201911251029,16.938,16.938,16.931,16.933
201911251030,16.933,16.934,16.926,16.928
201911251031,16.928,16.929,16.926,16.928
201911251032,16.928,16.939,16.928,16.938
201911251033,16.938,16.938,16.935,16.938
201911251034,16.938,16.944,16.936,16.942
201911251035,16.942,16.944,16.94,16.944
201911251036,16.944,16.944,16.934,16.934
201911251037,16.934,16.935,16.933,16.934
201911251038,16.934,16.945,16.934,16.939
201911251039,16.939,16.951,16.938,16.948
201911251040,16.948,16.95,16.942,16.95
201911251041,16.95,16.953,16.949,16.953
201911251042,16.953,16.953,16.948,16.949
201911251043,16.949,16.953,16.948,16.952
201911251044,16.952,16.954,16.952,16.954
201911251045,16.954,16.955,16.953,16.954
201911251046,16.954,16.957,16.946,16.948
201911251047,16.948,16.949,16.947,16.947
201911251048,16.947,16.948,16.946,16.948
201911251049,16.948,16.958,16.946,16.953
201911251050,16.954,16.959,16.953,16.956
201911251051,16.957,16.957,16.953,16.954
201911251052,16.954,16.964,16.954,16.964
201911251053,16.964,16.965,16.959,16.963
201911251054,16.963,16.964,16.959,16.959
201911251055,16.959,16.966,16.959,16.959
201911251056,16.959,16.96,16.958,16.958
201911251057,16.957,16.958,16.955,16.958
201911251058,16.958,16.958,16.953,16.953
201911251059,16.953,16.957,16.951,16.957
201911251100,16.957,16.959,16.957,16.959
201911251101,16.959,16.959,16.949,16.949
201911251102,16.947,16.949,16.945,16.949
201911251103,16.949,16.949,16.944,16.949
201911251104,16.948,16.948,16.946,16.948
201911251105,16.948,16.95,16.948,16.948
201911251106,16.948,16.953,16.948,16.953
201911251107,16.953,16.959,16.953,16.959
201911251108,16.959,16.963,16.958,16.962
201911251109,16.962,16.962,16.959,16.959
201911251110,16.959,16.959,16.954,16.955
201911251111,16.955,16.955,16.954,16.954
201911251112,16.954,16.955,16.953,16.954
201911251113,16.954,16.955,16.953,16.954
201911251114,16.954,16.954,16.952,16.953
201911251115,16.953,16.956,16.953,16.954
201911251116,16.954,16.956,16.953,16.953
201911251117,16.953,16.954,16.949,16.949
201911251118,16.949,16.949,16.944,16.946
201911251119,16.946,16.946,16.943,16.944
201911251120,16.944,16.947,16.944,16.945
201911251121,16.944,16.946,16.943,16.944
201911251122,16.944,16.947,16.944,16.946
201911251123,16.946,16.947,16.945,16.946
201911251124,16.946,16.946,16.945,16.945
201911251125,16.945,16.947,16.944,16.946
201911251126,16.948,16.948,16.945,16.946
201911251127,16.946,16.948,16.945,16.946
201911251128,16.946,16.947,16.945,16.945
201911251129,16.945,16.946,16.943,16.944
201911251130,16.944,16.949,16.944,16.948
201911251131,16.949,16.949,16.948,16.949
201911251132,16.949,16.949,16.948,16.948
201911251133,16.948,16.949,16.948,16.948
201911251134,16.948,16.954,16.948,16.954
201911251135,16.954,16.954,16.949,16.951
201911251136,16.952,16.952,16.947,16.948
201911251137,16.948,16.948,16.947,16.948
201911251138,16.948,16.948,16.943,16.944
201911251139,16.944,16.949,16.944,16.949
201911251140,16.949,16.953,16.949,16.951
201911251141,16.951,16.952,16.949,16.952
201911251142,16.952,16.953,16.949,16.949
201911251143,16.949,16.952,16.949,16.949
201911251144,16.949,16.953,16.949,16.952
201911251145,16.952,16.953,16.951,16.951
201911251146,16.951,16.953,16.951,16.953
201911251147,16.953,16.953,16.95,16.952
201911251148,16.952,16.954,16.952,16.952
201911251149,16.952,16.966,16.952,16.963
201911251150,16.963,16.964,16.959,16.959
201911251151,16.959,16.959,16.956,16.959
201911251152,16.959,16.959,16.958,16.959
201911251153,16.959,16.959,16.954,16.959
201911251154,16.959,16.959,16.958,16.958
201911251155,16.958,16.958,16.955,16.955
201911251156,16.955,16.955,16.953,16.955
201911251157,16.954,16.956,16.952,16.954
201911251158,16.954,16.955,16.953,16.953
201911251159,16.953,16.954,16.949,16.949
201911251200,16.949,16.949,16.944,16.948
201911251201,16.948,16.954,16.948,16.954
201911251202,16.954,16.955,16.953,16.953
201911251203,16.953,16.956,16.953,16.954
201911251204,16.954,16.957,16.953,16.954
201911251205,16.954,16.954,16.944,16.944
201911251206,16.944,16.944,16.944,16.944
201911251207,16.944,16.948,16.942,16.945
201911251208,16.945,16.948,16.944,16.944
201911251209,16.944,16.944,16.943,16.944
201911251210,16.944,16.944,16.943,16.944
201911251211,16.944,16.944,16.938,16.938
201911251212,16.938,16.938,16.935,16.937
201911251213,16.937,16.946,16.937,16.943
201911251214,16.943,16.943,16.94,16.942
201911251215,16.942,16.944,16.941,16.944
201911251216,16.944,16.947,16.943,16.944
201911251217,16.944,16.947,16.944,16.947
201911251218,16.947,16.947,16.943,16.944
201911251219,16.944,16.944,16.935,16.937
201911251220,16.937,16.942,16.937,16.941
201911251221,16.941,16.942,16.936,16.937
201911251222,16.937,16.943,16.936,16.943
201911251223,16.942,16.943,16.938,16.941
201911251224,16.941,16.947,16.94,16.947
201911251225,16.947,16.947,16.943,16.944
201911251226,16.944,16.944,16.938,16.938
201911251227,16.938,16.939,16.935,16.936
201911251228,16.936,16.938,16.936,16.938
201911251229,16.938,16.94,16.934,16.934
201911251230,16.934,16.934,16.931,16.932
201911251231,16.932,16.934,16.932,16.934
201911251232,16.934,16.943,16.933,16.943
201911251233,16.943,16.944,16.942,16.943
201911251234,16.943,16.947,16.943,16.947
201911251235,16.947,16.947,16.945,16.946
201911251236,16.946,16.947,16.946,16.946
201911251237,16.946,16.946,16.943,16.943
201911251238,16.943,16.947,16.943,16.947
201911251239,16.947,16.947,16.946,16.947
201911251240,16.946,16.951,16.946,16.948
201911251241,16.948,16.949,16.947,16.948
201911251242,16.948,16.948,16.946,16.947
201911251243,16.947,16.948,16.945,16.947
201911251244,16.948,16.948,16.946,16.947
201911251245,16.948,16.948,16.947,16.948
201911251246,16.948,16.948,16.947,16.948
201911251247,16.948,16.948,16.947,16.947
201911251248,16.947,16.951,16.947,16.95
201911251249,16.949,16.95,16.948,16.948
201911251250,16.948,16.95,16.948,16.949
201911251251,16.949,16.949,16.948,16.948
201911251252,16.948,16.948,16.947,16.948
201911251253,16.948,16.949,16.947,16.949
201911251254,16.949,16.95,16.949,16.95
201911251255,16.95,16.953,16.947,16.953
201911251256,16.952,16.952,16.952,16.952
201911251257,16.952,16.953,16.952,16.953
201911251258,16.953,16.953,16.953,16.953
201911251259,16.953,16.958,16.953,16.958
201911251300,16.958,16.958,16.958,16.958
201911251301,16.958,16.958,16.955,16.955
201911251302,16.954,16.958,16.954,16.958
201911251303,16.958,16.958,16.957,16.958
201911251304,16.958,16.958,16.956,16.956
201911251305,16.956,16.958,16.956,16.958
201911251306,16.958,16.958,16.955,16.958
201911251307,16.958,16.958,16.955,16.955
201911251308,16.955,16.958,16.954,16.958
201911251309,16.958,16.958,16.954,16.954
201911251310,16.954,16.958,16.954,16.958
201911251311,16.958,16.958,16.956,16.956
201911251312,16.956,16.956,16.955,16.956
201911251313,16.956,16.956,16.952,16.952
201911251314,16.952,16.953,16.952,16.953
201911251315,16.953,16.955,16.952,16.953
201911251316,16.953,16.956,16.952,16.953
201911251317,16.953,16.954,16.952,16.953
201911251318,16.953,16.953,16.953,16.953
201911251319,16.953,16.954,16.953,16.954
201911251320,16.954,16.957,16.953,16.953
201911251321,16.953,16.954,16.953,16.954
201911251322,16.954,16.954,16.952,16.952
201911251323,16.952,16.952,16.952,16.952
201911251324,16.952,16.957,16.952,16.957
201911251325,16.957,16.958,16.957,16.958
201911251326,16.958,16.958,16.957,16.958
201911251327,16.958,16.958,16.949,16.953
201911251328,16.953,16.958,16.953,16.958
201911251329,16.958,16.959,16.957,16.958
201911251330,16.958,16.959,16.958,16.959
201911251331,16.959,16.959,16.958,16.958
201911251332,16.959,16.959,16.957,16.958
201911251333,16.958,16.959,16.958,16.958
201911251334,16.958,16.958,16.957,16.957
201911251335,16.958,16.958,16.952,16.953
201911251336,16.953,16.953,16.948,16.948
201911251337,16.948,16.949,16.947,16.948
201911251338,16.948,16.949,16.948,16.948
201911251339,16.948,16.952,16.948,16.952
201911251340,16.952,16.953,16.952,16.953
201911251341,16.953,16.954,16.953,16.954
201911251342,16.954,16.958,16.953,16.953
201911251343,16.953,16.954,16.953,16.953
201911251344,16.953,16.954,16.953,16.954
201911251345,16.954,16.954,16.953,16.953
201911251346,16.953,16.953,16.949,16.952
201911251347,16.952,16.953,16.952,16.953
201911251348,16.953,16.953,16.95,16.95
201911251349,16.95,16.953,16.95,16.953
201911251350,16.954,16.954,16.953,16.954
201911251351,16.954,16.954,16.953,16.953
201911251352,16.953,16.954,16.953,16.954
201911251353,16.954,16.954,16.953,16.954
201911251354,16.954,16.955,16.954,16.954
201911251355,16.954,16.954,16.953,16.954
201911251356,16.954,16.954,16.953,16.954
201911251357,16.955,16.955,16.954,16.955
201911251358,16.955,16.955,16.954,16.954
201911251359,16.954,16.958,16.954,16.958
201911251400,16.958,16.958,16.954,16.955
201911251401,16.954,16.958,16.954,16.954
201911251402,16.955,16.956,16.954,16.956
201911251403,16.956,16.958,16.953,16.953
201911251404,16.953,16.954,16.953,16.953
201911251405,16.953,16.953,16.953,16.953
201911251406,16.953,16.958,16.953,16.958
201911251407,16.958,16.958,16.957,16.958
201911251408,16.958,16.958,16.956,16.958
201911251409,16.958,16.958,16.957,16.958
201911251410,16.958,16.959,16.957,16.958
201911251411,16.958,16.958,16.957,16.958
201911251412,16.958,16.958,16.957,16.958
201911251413,16.958,16.959,16.958,16.958
201911251414,16.958,16.958,16.958,16.958
201911251415,16.958,16.958,16.953,16.953
201911251416,16.953,16.957,16.953,16.957
201911251417,16.957,16.962,16.957,16.962
201911251418,16.963,16.963,16.962,16.963
201911251419,16.963,16.963,16.959,16.96
201911251420,16.96,16.962,16.96,16.961
201911251421,16.961,16.961,16.959,16.959
201911251422,16.959,16.959,16.958,16.958
201911251423,16.958,16.958,16.957,16.957
201911251424,16.958,16.958,16.955,16.955
201911251425,16.955,16.955,16.954,16.955
201911251426,16.955,16.958,16.955,16.958
201911251427,16.958,16.958,16.953,16.954
201911251428,16.954,16.955,16.954,16.954
201911251429,16.954,16.955,16.953,16.955
201911251430,16.954,16.977,16.954,16.973
201911251431,16.973,16.973,16.968,16.968
201911251432,16.968,16.968,16.953,16.953
201911251433,16.953,16.953,16.943,16.945
201911251434,16.945,16.946,16.943,16.943
201911251435,16.943,16.943,16.938,16.939
201911251436,16.939,16.948,16.939,16.948
201911251437,16.948,16.948,16.944,16.948
201911251438,16.948,16.95,16.945,16.945
201911251439,16.944,16.944,16.933,16.94
201911251440,16.94,16.941,16.933,16.934
201911251441,16.934,16.939,16.933,16.933
201911251442,16.933,16.939,16.933,16.938
201911251443,16.938,16.94,16.938,16.939
201911251444,16.943,16.944,16.938,16.939
201911251445,16.939,16.94,16.938,16.938
201911251446,16.938,16.943,16.938,16.943
201911251447,16.943,16.943,16.937,16.938
201911251448,16.937,16.938,16.931,16.932
201911251449,16.932,16.933,16.93,16.931
201911251450,16.931,16.931,16.922,16.924
201911251451,16.924,16.929,16.923,16.926
201911251452,16.926,16.926,16.921,16.924
201911251453,16.924,16.925,16.923,16.924
201911251454,16.924,16.926,16.916,16.916
201911251455,16.916,16.918,16.914,16.915
201911251456,16.915,16.915,16.904,16.905
201911251457,16.905,16.909,16.901,16.908
201911251458,16.908,16.908,16.898,16.899
201911251459,16.899,16.901,16.895,16.896
201911251500,16.896,16.9,16.89,16.9
201911251501,16.9,16.901,16.891,16.893
201911251502,16.893,16.895,16.89,16.895
201911251503,16.895,16.898,16.892,16.894
201911251504,16.894,16.901,16.891,16.9
201911251505,16.9,16.9,16.895,16.899
201911251506,16.899,16.899,16.896,16.899
201911251507,16.899,16.899,16.894,16.895
201911251508,16.895,16.902,16.894,16.901
201911251509,16.901,16.906,16.901,16.904
201911251510,16.904,16.91,16.904,16.909
201911251511,16.909,16.909,16.904,16.908
201911251512,16.908,16.909,16.907,16.909
201911251513,16.909,16.909,16.906,16.909
201911251514,16.909,16.909,16.905,16.908
201911251515,16.907,16.908,16.904,16.904
201911251516,16.905,16.905,16.904,16.904
201911251517,16.904,16.904,16.9,16.9
201911251518,16.9,16.901,16.895,16.901
201911251519,16.901,16.901,16.899,16.899
201911251520,16.899,16.909,16.899,16.909
201911251521,16.909,16.91,16.908,16.91
201911251522,16.91,16.91,16.9,16.9
201911251523,16.9,16.9,16.895,16.899
201911251524,16.899,16.904,16.897,16.904
201911251525,16.904,16.904,16.9,16.9
201911251526,16.899,16.899,16.895,16.897
201911251527,16.897,16.897,16.895,16.896
201911251528,16.896,16.896,16.892,16.894
201911251529,16.894,16.895,16.89,16.89
201911251530,16.89,16.9,16.89,16.899
201911251531,16.899,16.901,16.899,16.9
201911251532,16.9,16.9,16.896,16.896
201911251533,16.896,16.9,16.896,16.9
201911251534,16.9,16.901,16.899,16.9
201911251535,16.9,16.9,16.896,16.896
201911251536,16.895,16.9,16.895,16.9
201911251537,16.9,16.9,16.892,16.899
201911251538,16.899,16.901,16.896,16.901
201911251539,16.901,16.901,16.897,16.898
201911251540,16.897,16.901,16.896,16.901
201911251541,16.901,16.906,16.899,16.906
201911251542,16.906,16.915,16.906,16.915
201911251543,16.915,16.915,16.91,16.911
201911251544,16.911,16.914,16.911,16.911
201911251545,16.912,16.912,16.91,16.91
201911251546,16.91,16.911,16.91,16.91
201911251547,16.91,16.91,16.905,16.906
201911251548,16.906,16.906,16.903,16.906
201911251549,16.906,16.914,16.906,16.911
201911251550,16.911,16.914,16.909,16.914
201911251551,16.914,16.916,16.913,16.916
201911251552,16.916,16.919,16.916,16.916
201911251553,16.917,16.919,16.915,16.915
201911251554,16.915,16.915,16.907,16.908
201911251555,16.907,16.907,16.896,16.905
201911251556,16.905,16.905,16.9,16.904
201911251557,16.903,16.905,16.903,16.905
201911251558,16.905,16.914,16.905,16.912
201911251559,16.912,16.912,16.905,16.905
201911251600,16.905,16.905,16.899,16.902
201911251601,16.902,16.905,16.89,16.895
201911251602,16.895,16.895,16.89,16.892
201911251603,16.892,16.894,16.89,16.894
201911251604,16.894,16.896,16.892,16.896
201911251605,16.896,16.902,16.894,16.902
201911251606,16.903,16.903,16.897,16.898
201911251607,16.898,16.903,16.898,16.901
201911251608,16.901,16.905,16.901,16.905
201911251609,16.905,16.905,16.898,16.898
201911251610,16.898,16.898,16.896,16.896
201911251611,16.896,16.904,16.895,16.902
201911251612,16.902,16.904,16.901,16.901
201911251613,16.901,16.903,16.9,16.901
201911251614,16.901,16.904,16.897,16.897
201911251615,16.896,16.896,16.89,16.892
201911251616,16.892,16.898,16.892,16.894
201911251617,16.894,16.895,16.889,16.891
201911251618,16.891,16.891,16.889,16.889
201911251619,16.891,16.891,16.889,16.891
201911251620,16.891,16.895,16.89,16.891
201911251621,16.891,16.891,16.884,16.885
201911251622,16.885,16.896,16.885,16.892
201911251623,16.892,16.892,16.886,16.887
201911251624,16.887,16.895,16.887,16.893
201911251625,16.893,16.901,16.89,16.895
201911251626,16.895,16.9,16.895,16.9
201911251627,16.9,16.9,16.895,16.896
201911251628,16.896,16.902,16.893,16.901
201911251629,16.9,16.9,16.893,16.895
201911251630,16.895,16.895,16.886,16.886
201911251631,16.886,16.89,16.883,16.89
201911251632,16.89,16.895,16.888,16.892
201911251633,16.892,16.892,16.882,16.883
201911251634,16.883,16.888,16.882,16.886
201911251635,16.886,16.886,16.879,16.881
201911251636,16.881,16.884,16.881,16.882
201911251637,16.881,16.881,16.872,16.879
201911251638,16.878,16.879,16.873,16.874
201911251639,16.874,16.875,16.874,16.874
201911251640,16.874,16.875,16.872,16.875
201911251641,16.875,16.879,16.869,16.87
201911251642,16.87,16.872,16.864,16.869
201911251643,16.869,16.869,16.863,16.865
201911251644,16.865,16.872,16.863,16.871
201911251645,16.872,16.878,16.871,16.878
201911251646,16.878,16.882,16.875,16.881
201911251647,16.881,16.883,16.88,16.883
201911251648,16.883,16.883,16.881,16.883
201911251649,16.883,16.889,16.882,16.886
201911251650,16.886,16.892,16.885,16.892
201911251651,16.892,16.898,16.892,16.898
201911251652,16.898,16.898,16.892,16.895
201911251653,16.895,16.896,16.895,16.896
201911251654,16.896,16.896,16.894,16.894
201911251655,16.895,16.895,16.892,16.892
201911251656,16.892,16.893,16.892,16.893
201911251657,16.893,16.893,16.888,16.891
201911251658,16.891,16.9,16.89,16.897
201911251659,16.897,16.897,16.892,16.893
201911251700,16.892,16.893,16.874,16.883
201911251701,16.882,16.882,16.869,16.872
201911251702,16.873,16.879,16.868,16.868
201911251703,16.868,16.868,16.858,16.863
201911251704,16.863,16.866,16.858,16.859
201911251705,16.859,16.863,16.857,16.858
201911251706,16.857,16.866,16.857,16.862
201911251707,16.862,16.862,16.856,16.858
201911251708,16.858,16.859,16.855,16.858
201911251709,16.858,16.865,16.858,16.86
201911251710,16.86,16.866,16.86,16.866
201911251711,16.866,16.866,16.852,16.856
201911251712,16.856,16.862,16.855,16.861
201911251713,16.861,16.867,16.856,16.866
201911251714,16.867,16.871,16.867,16.869
201911251715,16.869,16.869,16.866,16.868
201911251716,16.868,16.87,16.864,16.87
201911251717,16.87,16.872,16.867,16.872
201911251718,16.872,16.874,16.867,16.867
201911251719,16.868,16.869,16.866,16.868
201911251720,16.868,16.873,16.867,16.872
201911251721,16.872,16.872,16.867,16.872
201911251722,16.873,16.882,16.872,16.882
201911251723,16.882,16.883,16.876,16.88
201911251724,16.88,16.89,16.878,16.887
201911251725,16.886,16.888,16.885,16.885
201911251726,16.885,16.887,16.885,16.885
201911251727,16.885,16.889,16.882,16.885
201911251728,16.885,16.891,16.883,16.884
201911251729,16.884,16.884,16.883,16.883
201911251730,16.883,16.884,16.876,16.876
201911251731,16.876,16.878,16.871,16.873
201911251732,16.873,16.878,16.871,16.874
201911251733,16.874,16.879,16.873,16.879
201911251734,16.879,16.88,16.869,16.872
201911251735,16.872,16.872,16.867,16.87
201911251736,16.87,16.871,16.865,16.867
201911251737,16.867,16.87,16.865,16.865
201911251738,16.865,16.869,16.86,16.868
201911251739,16.868,16.874,16.866,16.874
201911251740,16.873,16.884,16.87,16.871
201911251741,16.871,16.871,16.87,16.87
201911251742,16.87,16.87,16.866,16.867
201911251743,16.866,16.869,16.865,16.866
201911251744,16.866,16.87,16.865,16.87
201911251745,16.87,16.873,16.87,16.871
201911251746,16.871,16.871,16.867,16.868
201911251747,16.868,16.871,16.867,16.869
201911251748,16.869,16.869,16.864,16.865
201911251749,16.865,16.871,16.865,16.87
201911251750,16.87,16.876,16.868,16.876
201911251751,16.876,16.88,16.875,16.878
201911251752,16.878,16.884,16.878,16.884
201911251753,16.884,16.885,16.884,16.884
201911251754,16.884,16.885,16.88,16.884
201911251755,16.884,16.884,16.881,16.884
201911251756,16.884,16.885,16.884,16.885
201911251757,16.885,16.886,16.882,16.886
201911251758,16.886,16.894,16.885,16.891
201911251759,16.891,16.891,16.889,16.889
201911251800,16.89,16.894,16.89,16.893
201911251801,16.893,16.894,16.891,16.894
201911251802,16.894,16.896,16.893,16.896
201911251803,16.896,16.898,16.896,16.897
201911251804,16.897,16.897,16.896,16.896
201911251805,16.897,16.897,16.892,16.893
201911251806,16.893,16.898,16.892,16.898
201911251807,16.898,16.899,16.894,16.899
201911251808,16.899,16.9,16.897,16.898
201911251809,16.898,16.899,16.898,16.899
201911251810,16.899,16.899,16.895,16.895
201911251811,16.895,16.897,16.895,16.896
201911251812,16.896,16.898,16.896,16.898
201911251813,16.898,16.898,16.896,16.896
201911251814,16.896,16.897,16.892,16.893
201911251815,16.893,16.894,16.891,16.891
201911251816,16.893,16.893,16.892,16.893
201911251817,16.893,16.898,16.893,16.897
201911251818,16.897,16.897,16.892,16.894
201911251819,16.894,16.897,16.894,16.896
201911251820,16.896,16.897,16.895,16.896
201911251821,16.895,16.896,16.892,16.895
201911251822,16.896,16.906,16.896,16.904
201911251823,16.902,16.905,16.899,16.905
201911251824,16.905,16.905,16.902,16.903
201911251825,16.903,16.903,16.901,16.901
201911251826,16.901,16.902,16.894,16.897
201911251827,16.897,16.897,16.895,16.896
201911251828,16.896,16.897,16.891,16.894
201911251829,16.894,16.895,16.89,16.891
201911251830,16.891,16.892,16.889,16.891
201911251831,16.891,16.894,16.89,16.894
201911251832,16.894,16.896,16.894,16.896
201911251833,16.896,16.896,16.89,16.89
201911251834,16.89,16.891,16.89,16.891
201911251835,16.89,16.892,16.889,16.89
201911251836,16.89,16.89,16.885,16.885
201911251837,16.885,16.886,16.885,16.886
201911251838,16.886,16.888,16.886,16.888
201911251839,16.889,16.889,16.885,16.889
201911251840,16.889,16.895,16.888,16.895
201911251841,16.894,16.895,16.891,16.891
201911251842,16.891,16.896,16.891,16.895
201911251843,16.895,16.896,16.894,16.894
201911251844,16.894,16.895,16.894,16.894
201911251845,16.894,16.895,16.889,16.891
201911251846,16.891,16.892,16.89,16.892
201911251847,16.892,16.898,16.892,16.897
201911251848,16.897,16.902,16.897,16.9
201911251849,16.9,16.9,16.898,16.9
201911251850,16.9,16.901,16.897,16.898
201911251851,16.898,16.898,16.895,16.897
201911251852,16.897,16.902,16.897,16.9
201911251853,16.9,16.905,16.898,16.905
201911251854,16.905,16.905,16.901,16.901
201911251855,16.901,16.904,16.901,16.903
201911251856,16.903,16.904,16.901,16.902
201911251857,16.902,16.904,16.901,16.904
201911251858,16.903,16.904,16.901,16.902
201911251859,16.902,16.903,16.901,16.902
201911251900,16.901,16.903,16.901,16.902
201911251901,16.901,16.905,16.901,16.901
201911251902,16.901,16.901,16.894,16.895
201911251903,16.895,16.901,16.895,16.9
201911251904,16.9,16.903,16.9,16.902
201911251905,16.902,16.902,16.9,16.9
201911251906,16.9,16.9,16.893,16.897
201911251907,16.897,16.897,16.894,16.897
201911251908,16.897,16.897,16.893,16.895
201911251909,16.895,16.895,16.89,16.89
201911251910,16.89,16.892,16.888,16.888
201911251911,16.888,16.888,16.884,16.886
201911251912,16.886,16.893,16.883,16.888
201911251913,16.889,16.89,16.887,16.889
201911251914,16.889,16.89,16.889,16.89
201911251915,16.89,16.895,16.89,16.89
201911251916,16.89,16.89,16.889,16.889
201911251917,16.889,16.89,16.886,16.887
201911251918,16.887,16.89,16.886,16.89
201911251919,16.889,16.893,16.889,16.892
201911251920,16.892,16.892,16.891,16.892
201911251921,16.892,16.895,16.891,16.895
201911251922,16.895,16.897,16.894,16.895
201911251923,16.895,16.896,16.891,16.891
201911251924,16.891,16.894,16.89,16.89
201911251925,16.89,16.897,16.89,16.893
201911251926,16.893,16.896,16.893,16.894
201911251927,16.894,16.895,16.891,16.892
201911251928,16.892,16.893,16.892,16.892
201911251929,16.892,16.896,16.892,16.896
201911251930,16.896,16.898,16.893,16.893
201911251931,16.893,16.893,16.891,16.891
201911251932,16.891,16.894,16.891,16.893
201911251933,16.893,16.893,16.89,16.89
201911251934,16.89,16.893,16.89,16.892
201911251935,16.892,16.892,16.89,16.89
201911251936,16.89,16.89,16.886,16.887
201911251937,16.887,16.888,16.886,16.886
201911251938,16.886,16.89,16.885,16.89
201911251939,16.89,16.892,16.89,16.89
201911251940,16.89,16.89,16.89,16.89
201911251941,16.89,16.89,16.884,16.885
201911251942,16.885,16.885,16.88,16.88
201911251943,16.882,16.883,16.88,16.881
201911251944,16.88,16.882,16.88,16.88
201911251945,16.88,16.88,16.88,16.88
201911251946,16.88,16.883,16.879,16.883
201911251947,16.883,16.885,16.881,16.885
201911251948,16.885,16.885,16.885,16.885
201911251949,16.885,16.886,16.88,16.88
201911251950,16.88,16.884,16.88,16.884
201911251951,16.885,16.885,16.881,16.882
201911251952,16.882,16.883,16.88,16.88
201911251953,16.879,16.88,16.879,16.879
201911251954,16.879,16.879,16.873,16.879
201911251955,16.879,16.879,16.873,16.874
201911251956,16.874,16.877,16.874,16.875
201911251957,16.875,16.879,16.874,16.879
201911251958,16.879,16.879,16.879,16.879
201911251959,16.879,16.884,16.879,16.884
201911252000,16.884,16.884,16.878,16.878
201911252001,16.878,16.879,16.874,16.875
201911252002,16.876,16.877,16.875,16.876
201911252003,16.877,16.878,16.873,16.874
201911252004,16.874,16.874,16.873,16.874
201911252005,16.874,16.874,16.874,16.874
201911252006,16.874,16.874,16.872,16.874
201911252007,16.874,16.874,16.869,16.869
201911252008,16.87,16.874,16.869,16.874
201911252009,16.874,16.874,16.874,16.874
201911252010,16.875,16.88,16.875,16.879
201911252011,16.879,16.879,16.879,16.879
201911252012,16.879,16.882,16.879,16.882
201911252013,16.882,16.882,16.879,16.879
201911252014,16.879,16.879,16.878,16.879
201911252015,16.879,16.879,16.875,16.876
201911252016,16.876,16.878,16.874,16.875
201911252017,16.875,16.887,16.875,16.885
201911252018,16.885,16.886,16.884,16.884
201911252019,16.884,16.886,16.884,16.886
201911252020,16.886,16.886,16.885,16.885
201911252021,16.885,16.885,16.884,16.885
201911252022,16.885,16.885,16.884,16.884
201911252023,16.884,16.884,16.881,16.884
201911252024,16.884,16.884,16.881,16.881
201911252025,16.881,16.882,16.881,16.882
201911252026,16.882,16.883,16.878,16.879
201911252027,16.879,16.88,16.878,16.88
201911252028,16.88,16.88,16.88,16.88
201911252029,16.88,16.88,16.875,16.875
201911252030,16.875,16.876,16.875,16.875
201911252031,16.875,16.879,16.875,16.879
201911252032,16.879,16.88,16.878,16.879
201911252033,16.879,16.88,16.879,16.879
201911252034,16.879,16.879,16.875,16.875
201911252035,16.876,16.878,16.876,16.876
201911252036,16.876,16.876,16.875,16.875
201911252037,16.875,16.876,16.875,16.876
201911252038,16.876,16.877,16.874,16.876
201911252039,16.875,16.875,16.871,16.872
201911252040,16.872,16.874,16.871,16.872
201911252041,16.872,16.874,16.872,16.873
201911252042,16.873,16.875,16.87,16.874
201911252043,16.874,16.889,16.874,16.889
201911252044,16.889,16.889,16.889,16.889
201911252045,16.89,16.894,16.89,16.894
201911252046,16.894,16.894,16.894,16.894
201911252047,16.894,16.894,16.892,16.892
201911252048,16.892,16.894,16.891,16.894
201911252049,16.894,16.894,16.894,16.894
201911252050,16.894,16.894,16.89,16.891
201911252051,16.891,16.891,16.88,16.88
201911252052,16.88,16.884,16.876,16.884
201911252053,16.884,16.884,16.88,16.88
201911252054,16.88,16.883,16.879,16.88
201911252055,16.88,16.88,16.864,16.865
201911252056,16.865,16.872,16.864,16.865
201911252057,16.865,16.865,16.86,16.863
201911252058,16.864,16.869,16.861,16.865
201911252059,16.865,16.871,16.859,16.859
201911252100,16.859,16.861,16.855,16.855
201911252101,16.855,16.863,16.855,16.863
201911252102,16.863,16.864,16.859,16.864
201911252103,16.864,16.864,16.859,16.861
201911252104,16.861,16.862,16.857,16.857
201911252105,16.857,16.857,16.852,16.852
201911252106,16.851,16.859,16.851,16.859
201911252107,16.859,16.86,16.856,16.86
201911252108,16.86,16.861,16.859,16.86
201911252109,16.86,16.864,16.86,16.864
201911252110,16.863,16.869,16.862,16.867
201911252111,16.867,16.867,16.863,16.864
201911252112,16.864,16.869,16.862,16.868
201911252113,16.868,16.872,16.868,16.872
201911252114,16.872,16.877,16.872,16.877
201911252115,16.877,16.882,16.876,16.881
201911252116,16.881,16.881,16.874,16.876
201911252117,16.876,16.88,16.876,16.88
201911252118,16.88,16.882,16.88,16.881
201911252119,16.882,16.885,16.881,16.881
201911252120,16.881,16.883,16.879,16.883
201911252121,16.883,16.883,16.881,16.882
201911252122,16.882,16.882,16.877,16.881
201911252123,16.881,16.883,16.879,16.883
201911252124,16.883,16.883,16.873,16.875
201911252125,16.875,16.875,16.866,16.868
201911252126,16.868,16.874,16.868,16.87
201911252127,16.87,16.872,16.868,16.868
201911252128,16.868,16.875,16.868,16.875
201911252129,16.875,16.879,16.873,16.877
201911252130,16.877,16.882,16.877,16.877
201911252131,16.877,16.878,16.876,16.876
201911252132,16.876,16.877,16.876,16.877
201911252133,16.877,16.881,16.876,16.876
201911252134,16.876,16.876,16.869,16.876
201911252135,16.876,16.876,16.873,16.873
201911252136,16.873,16.879,16.873,16.879
201911252137,16.878,16.882,16.876,16.879
201911252138,16.878,16.883,16.878,16.883
201911252139,16.883,16.883,16.882,16.882
201911252140,16.882,16.883,16.876,16.877
201911252141,16.877,16.884,16.876,16.884
201911252142,16.884,16.884,16.876,16.878
201911252143,16.878,16.878,16.876,16.878
201911252144,16.878,16.884,16.878,16.883
201911252145,16.883,16.883,16.879,16.879
201911252146,16.879,16.883,16.877,16.883
201911252147,16.883,16.883,16.882,16.883
201911252148,16.883,16.884,16.883,16.883
201911252149,16.883,16.888,16.883,16.888
201911252150,16.888,16.888,16.888,16.888
201911252151,16.888,16.892,16.887,16.889
201911252152,16.889,16.891,16.888,16.889
201911252153,16.889,16.892,16.888,16.889
201911252154,16.889,16.892,16.889,16.89
201911252155,16.89,16.891,16.889,16.889
201911252156,16.889,16.894,16.889,16.893
201911252157,16.893,16.898,16.893,16.898
201911252158,16.898,16.898,16.897,16.898
201911252159,16.898,16.911,16.896,16.907
201911252200,16.907,16.911,16.887,16.891
201911252201,16.891,16.922,16.891,16.918
201911252202,16.918,16.928,16.916,16.916
201911252203,16.916,16.921,16.908,16.911
201911252204,16.911,16.913,16.896,16.896
201911252205,16.896,16.909,16.896,16.906
201911252206,16.906,16.912,16.901,16.911
201911252207,16.911,16.912,16.909,16.912
201911252208,16.912,16.912,16.898,16.9
201911252209,16.9,16.915,16.881,16.886
201911252210,16.886,16.901,16.886,16.893
201911252211,16.893,16.895,16.887,16.887
201911252212,16.887,16.887,16.866,16.867
201911252213,16.868,16.885,16.865,16.883
201911252214,16.883,16.887,16.881,16.886
201911252215,16.886,16.887,16.881,16.881
201911252216,16.882,16.894,16.882,16.891
201911252217,16.892,16.892,16.886,16.891
201911252218,16.891,16.896,16.886,16.886
201911252219,16.885,16.889,16.883,16.886
201911252220,16.886,16.886,16.877,16.882
201911252221,16.882,16.884,16.879,16.881
201911252222,16.881,16.882,16.871,16.876
201911252223,16.876,16.876,16.863,16.863
201911252224,16.863,16.87,16.862,16.868
201911252225,16.868,16.868,16.857,16.866
201911252226,16.866,16.879,16.866,16.878
201911252227,16.877,16.886,16.876,16.885
201911252228,16.885,16.891,16.885,16.887
201911252229,16.887,16.892,16.887,16.887
201911252230,16.887,16.902,16.887,16.901
201911252231,16.901,16.912,16.901,16.912
201911252232,16.911,16.912,16.902,16.906
201911252233,16.906,16.906,16.902,16.905
201911252234,16.905,16.915,16.902,16.909
201911252235,16.91,16.921,16.905,16.906
201911252236,16.906,16.906,16.89,16.896
201911252237,16.896,16.907,16.895,16.904
201911252238,16.904,16.914,16.901,16.91
201911252239,16.909,16.91,16.905,16.905
201911252240,16.905,16.909,16.896,16.898
201911252241,16.898,16.904,16.892,16.894
201911252242,16.895,16.897,16.891,16.892
201911252243,16.892,16.896,16.889,16.889
201911252244,16.889,16.894,16.887,16.89
201911252245,16.89,16.909,16.89,16.906
201911252246,16.906,16.909,16.905,16.906
201911252247,16.906,16.91,16.896,16.904
201911252248,16.903,16.905,16.892,16.896
201911252249,16.896,16.9,16.894,16.9
201911252250,16.9,16.9,16.892,16.896
201911252251,16.896,16.904,16.887,16.89
201911252252,16.89,16.896,16.89,16.895
201911252253,16.895,16.899,16.893,16.896
201911252254,16.898,16.904,16.895,16.904
201911252255,16.904,16.909,16.903,16.908
201911252256,16.908,16.921,16.908,16.919
201911252257,16.92,16.924,16.918,16.92
201911252258,16.92,16.924,16.914,16.916
201911252259,16.917,16.918,16.909,16.916
201911252300,16.916,16.923,16.913,16.914
201911252301,16.914,16.919,16.905,16.909
201911252302,16.908,16.914,16.908,16.91
201911252303,16.91,16.91,16.904,16.904
201911252304,16.904,16.91,16.904,16.909
201911252305,16.909,16.914,16.901,16.901
201911252306,16.901,16.905,16.9,16.905
201911252307,16.905,16.914,16.904,16.914
201911252308,16.914,16.914,16.894,16.9
201911252309,16.9,16.903,16.899,16.899
201911252310,16.899,16.905,16.899,16.904
201911252311,16.905,16.905,16.898,16.899
201911252312,16.899,16.901,16.895,16.895
201911252313,16.895,16.902,16.895,16.895
201911252314,16.895,16.904,16.895,16.904
201911252315,16.904,16.909,16.904,16.904
201911252316,16.903,16.904,16.897,16.898
201911252317,16.899,16.905,16.899,16.9
201911252318,16.9,16.915,16.899,16.913
201911252319,16.913,16.915,16.907,16.908
201911252320,16.908,16.913,16.908,16.908
201911252321,16.908,16.91,16.905,16.905
201911252322,16.905,16.908,16.904,16.904
201911252323,16.904,16.904,16.899,16.901
201911252324,16.9,16.901,16.897,16.9
201911252325,16.903,16.907,16.903,16.904
201911252326,16.904,16.907,16.904,16.907
201911252327,16.907,16.912,16.907,16.909
201911252328,16.908,16.917,16.908,16.909
201911252329,16.909,16.918,16.908,16.918
201911252330,16.918,16.918,16.895,16.898
201911252331,16.898,16.902,16.891,16.891
201911252332,16.891,16.896,16.89,16.894
201911252333,16.894,16.894,16.889,16.889
201911252334,16.889,16.904,16.888,16.903
201911252335,16.903,16.908,16.898,16.908
201911252336,16.908,16.91,16.903,16.903
201911252337,16.903,16.905,16.898,16.898
201911252338,16.898,16.901,16.895,16.899
201911252339,16.899,16.909,16.898,16.904
201911252340,16.903,16.91,16.902,16.905
201911252341,16.905,16.914,16.905,16.914
201911252342,16.914,16.924,16.91,16.919
201911252343,16.918,16.925,16.918,16.924
201911252344,16.924,16.925,16.919,16.919
201911252345,16.919,16.919,16.909,16.913
201911252346,16.913,16.928,16.912,16.928
201911252347,16.928,16.932,16.924,16.924
201911252348,16.924,16.928,16.921,16.927
201911252349,16.927,16.945,16.925,16.941
201911252350,16.941,16.945,16.936,16.936
201911252351,16.936,16.945,16.936,16.94
201911252352,16.94,16.944,16.939,16.939
201911252353,16.939,16.946,16.935,16.944
201911252354,16.945,16.973,16.945,16.97
201911252355,16.97,16.976,16.964,16.964
201911252356,16.964,16.968,16.957,16.961
201911252357,16.961,16.963,16.954,16.954
201911252358,16.954,16.958,16.949,16.949
201911252359,16.949,16.953,16.947,16.949
201911260000,16.949,16.957,16.948,16.955
201911260001,16.955,16.956,16.948,16.948
201911260002,16.948,16.963,16.948,16.953
201911260003,16.953,16.954,16.949,16.952
201911260004,16.952,16.96,16.949,16.959
201911260005,16.96,16.973,16.96,16.964
201911260006,16.964,16.971,16.963,16.969
201911260007,16.969,16.983,16.969,16.983
201911260008,16.983,16.992,16.972,16.974
201911260009,16.974,16.974,16.967,16.969
201911260010,16.969,16.974,16.968,16.968
201911260011,16.968,16.969,16.964,16.968
201911260012,16.968,16.969,16.963,16.963
201911260013,16.963,16.969,16.963,16.968
201911260014,16.968,16.975,16.968,16.973
201911260015,16.973,16.978,16.972,16.974
201911260016,16.974,16.978,16.973,16.973
201911260017,16.973,16.973,16.963,16.968
201911260018,16.968,16.97,16.966,16.968
201911260019,16.968,16.968,16.964,16.964
201911260020,16.964,16.98,16.964,16.977
201911260021,16.977,16.982,16.977,16.978
201911260022,16.979,16.98,16.971,16.973
201911260023,16.973,16.978,16.972,16.973
201911260024,16.973,16.978,16.972,16.977
201911260025,16.977,16.979,16.976,16.978
201911260026,16.978,16.982,16.977,16.98
201911260027,16.98,16.981,16.961,16.961
201911260028,16.961,16.962,16.957,16.957
201911260029,16.957,16.962,16.957,16.961
201911260030,16.961,16.964,16.957,16.958
201911260031,16.958,16.961,16.954,16.961
201911260032,16.961,16.961,16.951,16.951
201911260033,16.951,16.956,16.951,16.956
201911260034,16.956,16.961,16.953,16.957
201911260035,16.957,16.96,16.952,16.952
201911260036,16.952,16.956,16.95,16.951
201911260037,16.951,16.951,16.95,16.951
201911260038,16.951,16.952,16.947,16.947
201911260039,16.947,16.951,16.946,16.947
201911260040,16.947,16.955,16.947,16.953
201911260041,16.953,16.957,16.953,16.954
201911260042,16.954,16.955,16.948,16.948
201911260043,16.948,16.954,16.948,16.949
201911260044,16.95,16.952,16.947,16.952
201911260045,16.952,16.953,16.948,16.951
201911260046,16.951,16.957,16.951,16.956
201911260047,16.956,16.956,16.95,16.952
201911260048,16.952,16.952,16.935,16.937
201911260049,16.937,16.943,16.936,16.941
201911260050,16.941,16.942,16.94,16.942
201911260051,16.941,16.941,16.937,16.941
201911260052,16.941,16.941,16.934,16.94
201911260053,16.94,16.944,16.938,16.938
201911260054,16.938,16.94,16.93,16.931
201911260055,16.931,16.931,16.918,16.919
201911260056,16.919,16.925,16.916,16.919
201911260057,16.92,16.923,16.917,16.92
201911260058,16.92,16.927,16.919,16.926
201911260059,16.926,16.932,16.925,16.931
201911260100,16.931,16.932,16.922,16.924
201911260101,16.924,16.934,16.923,16.932
201911260102,16.932,16.937,16.931,16.935
201911260103,16.935,16.936,16.932,16.935
201911260104,16.935,16.938,16.935,16.938
201911260105,16.938,16.938,16.926,16.928
201911260106,16.928,16.93,16.927,16.927
201911260107,16.927,16.931,16.925,16.93
201911260108,16.929,16.929,16.925,16.926
201911260109,16.926,16.927,16.925,16.926
201911260110,16.926,16.928,16.921,16.922
201911260111,16.924,16.928,16.924,16.926
201911260112,16.926,16.926,16.922,16.925
201911260113,16.925,16.926,16.922,16.926
201911260114,16.926,16.927,16.921,16.927
201911260115,16.926,16.932,16.925,16.93
201911260116,16.93,16.932,16.929,16.932
201911260117,16.932,16.933,16.93,16.931
201911260118,16.931,16.934,16.93,16.934
201911260119,16.932,16.935,16.93,16.93
201911260120,16.93,16.932,16.924,16.924
201911260121,16.925,16.927,16.924,16.926
201911260122,16.926,16.931,16.926,16.931
201911260123,16.931,16.94,16.931,16.934
201911260124,16.934,16.937,16.934,16.936
201911260125,16.936,16.94,16.936,16.937
201911260126,16.938,16.94,16.932,16.933
201911260127,16.933,16.933,16.928,16.929
201911260128,16.929,16.929,16.927,16.927
201911260129,16.927,16.936,16.927,16.935
201911260130,16.935,16.94,16.935,16.937
201911260131,16.937,16.942,16.937,16.941
201911260132,16.941,16.941,16.935,16.935
201911260133,16.935,16.936,16.934,16.935
201911260134,16.936,16.936,16.932,16.935
201911260135,16.935,16.94,16.935,16.936
201911260136,16.936,16.938,16.936,16.937
201911260137,16.937,16.94,16.936,16.94
201911260138,16.94,16.94,16.935,16.935
201911260139,16.935,16.935,16.932,16.935
201911260140,16.935,16.936,16.934,16.935
201911260141,16.935,16.936,16.93,16.935
201911260142,16.935,16.935,16.93,16.931
201911260143,16.931,16.931,16.929,16.931
201911260144,16.931,16.931,16.924,16.926
201911260145,16.926,16.927,16.925,16.926
201911260146,16.926,16.93,16.926,16.93
201911260147,16.93,16.931,16.93,16.931
201911260148,16.931,16.933,16.931,16.932
201911260149,16.932,16.936,16.932,16.936
201911260150,16.935,16.936,16.935,16.936
201911260151,16.936,16.936,16.935,16.936
201911260152,16.936,16.938,16.936,16.937
201911260153,16.937,16.942,16.936,16.942
201911260154,16.942,16.942,16.936,16.937
201911260155,16.937,16.938,16.936,16.938
201911260156,16.938,16.94,16.936,16.937
201911260157,16.937,16.938,16.936,16.938
201911260158,16.938,16.939,16.936,16.939
201911260159,16.939,16.939,16.936,16.937
201911260200,16.937,16.938,16.926,16.928
201911260201,16.929,16.932,16.929,16.932
201911260202,16.932,16.932,16.927,16.932
201911260203,16.932,16.932,16.928,16.932
201911260204,16.932,16.932,16.931,16.931
201911260205,16.931,16.933,16.93,16.931
201911260206,16.932,16.933,16.931,16.932
201911260207,16.931,16.933,16.931,16.932
201911260208,16.932,16.933,16.931,16.932
201911260209,16.932,16.935,16.932,16.934
201911260210,16.934,16.935,16.93,16.931
201911260211,16.931,16.932,16.93,16.932
201911260212,16.931,16.937,16.931,16.935
201911260213,16.935,16.935,16.931,16.931
201911260214,16.932,16.934,16.931,16.931
201911260215,16.932,16.938,16.931,16.936
201911260216,16.936,16.938,16.936,16.938
201911260217,16.939,16.945,16.937,16.944
201911260218,16.944,16.945,16.942,16.942
201911260219,16.942,16.947,16.942,16.946
201911260220,16.946,16.955,16.946,16.954
201911260221,16.954,16.954,16.952,16.952
201911260222,16.952,16.952,16.946,16.946
201911260223,16.946,16.951,16.946,16.951
201911260224,16.951,16.953,16.951,16.951
201911260225,16.951,16.951,16.944,16.946
201911260226,16.945,16.948,16.941,16.946
201911260227,16.946,16.948,16.946,16.947
201911260228,16.947,16.947,16.946,16.946
201911260229,16.946,16.946,16.946,16.946
201911260230,16.946,16.947,16.946,16.947
201911260231,16.947,16.947,16.942,16.945
201911260232,16.945,16.952,16.945,16.95
201911260233,16.95,16.951,16.948,16.948
201911260234,16.948,16.948,16.945,16.945
201911260235,16.945,16.951,16.945,16.95
201911260236,16.951,16.956,16.95,16.95
201911260237,16.95,16.95,16.946,16.946
201911260238,16.946,16.948,16.942,16.945
201911260239,16.945,16.945,16.936,16.938
201911260240,16.938,16.938,16.934,16.936
201911260241,16.936,16.936,16.934,16.936
201911260242,16.935,16.935,16.93,16.932
201911260243,16.932,16.932,16.93,16.931
201911260244,16.931,16.931,16.927,16.93
201911260245,16.93,16.934,16.927,16.934
201911260246,16.934,16.934,16.926,16.929
201911260247,16.929,16.929,16.925,16.926
201911260248,16.926,16.933,16.922,16.93
201911260249,16.93,16.932,16.93,16.93
201911260250,16.928,16.931,16.926,16.931
201911260251,16.931,16.931,16.93,16.93
201911260252,16.93,16.932,16.93,16.932
201911260253,16.932,16.934,16.93,16.93
201911260254,16.93,16.931,16.93,16.93
201911260255,16.93,16.932,16.926,16.931
201911260256,16.931,16.932,16.93,16.93
201911260257,16.93,16.935,16.93,16.931
201911260258,16.931,16.931,16.921,16.921
201911260259,16.921,16.924,16.921,16.924
201911260300,16.924,16.925,16.921,16.921
201911260301,16.921,16.922,16.919,16.921
201911260302,16.921,16.921,16.919,16.921
201911260303,16.92,16.926,16.918,16.925
201911260304,16.926,16.926,16.923,16.925
201911260305,16.925,16.926,16.918,16.919
201911260306,16.919,16.921,16.919,16.92
201911260307,16.92,16.925,16.92,16.925
201911260308,16.925,16.927,16.924,16.927
201911260309,16.927,16.928,16.925,16.927
201911260310,16.927,16.928,16.926,16.927
201911260311,16.927,16.931,16.927,16.93
201911260312,16.93,16.93,16.925,16.926
201911260313,16.925,16.926,16.922,16.926
201911260314,16.926,16.926,16.924,16.925
201911260315,16.925,16.926,16.919,16.919
201911260316,16.919,16.921,16.915,16.915
201911260317,16.915,16.916,16.914,16.916
201911260318,16.916,16.916,16.914,16.915
201911260319,16.916,16.916,16.915,16.916
201911260320,16.916,16.92,16.915,16.916
201911260321,16.916,16.916,16.916,16.916
201911260322,16.916,16.916,16.914,16.916
201911260323,16.916,16.916,16.911,16.911
201911260324,16.911,16.911,16.906,16.906
201911260325,16.906,16.91,16.906,16.907
201911260326,16.907,16.911,16.907,16.907
201911260327,16.907,16.907,16.905,16.906
201911260328,16.906,16.907,16.905,16.907
201911260329,16.907,16.909,16.903,16.905
201911260330,16.905,16.917,16.903,16.917
201911260331,16.917,16.918,16.908,16.909
201911260332,16.909,16.911,16.907,16.911
201911260333,16.911,16.917,16.911,16.916
201911260334,16.916,16.916,16.915,16.915
201911260335,16.915,16.921,16.915,16.92
201911260336,16.92,16.921,16.915,16.915
201911260337,16.915,16.919,16.911,16.911
201911260338,16.911,16.914,16.911,16.911
201911260339,16.911,16.912,16.909,16.909
201911260340,16.909,16.909,16.906,16.907
201911260341,16.907,16.911,16.906,16.911
201911260342,16.911,16.925,16.911,16.923
201911260343,16.924,16.924,16.918,16.919
201911260344,16.918,16.924,16.918,16.921
201911260345,16.921,16.926,16.917,16.917
201911260346,16.917,16.923,16.917,16.923
201911260347,16.923,16.923,16.915,16.919
201911260348,16.919,16.919,16.91,16.913
201911260349,16.913,16.913,16.911,16.912
201911260350,16.912,16.915,16.907,16.908
201911260351,16.908,16.908,16.907,16.907
201911260352,16.907,16.912,16.907,16.911
201911260353,16.911,16.911,16.907,16.909
201911260354,16.909,16.911,16.909,16.909
201911260355,16.909,16.91,16.909,16.91
201911260356,16.91,16.91,16.908,16.908
201911260357,16.908,16.908,16.904,16.904
201911260358,16.904,16.905,16.903,16.903
201911260359,16.903,16.903,16.902,16.903
201911260400,16.903,16.903,16.901,16.902
201911260401,16.902,16.904,16.902,16.903
201911260402,16.903,16.904,16.901,16.903
201911260403,16.901,16.903,16.901,16.903
201911260404,16.903,16.908,16.903,16.908
201911260405,16.908,16.908,16.906,16.908
201911260406,16.908,16.908,16.905,16.907
201911260407,16.907,16.908,16.903,16.906
201911260408,16.906,16.907,16.906,16.907
201911260409,16.907,16.907,16.906,16.907
201911260410,16.907,16.907,16.901,16.902
201911260411,16.902,16.902,16.901,16.901
201911260412,16.901,16.901,16.898,16.898
201911260413,16.898,16.898,16.897,16.897
201911260414,16.897,16.898,16.897,16.898
201911260415,16.898,16.898,16.896,16.897
201911260416,16.897,16.897,16.895,16.897
201911260417,16.897,16.898,16.893,16.897
201911260418,16.898,16.898,16.895,16.896
201911260419,16.896,16.897,16.895,16.897
201911260420,16.897,16.897,16.892,16.893
201911260421,16.893,16.898,16.892,16.898
201911260422,16.898,16.898,16.895,16.896
201911260423,16.897,16.898,16.895,16.897
201911260424,16.897,16.897,16.89,16.891
201911260425,16.891,16.892,16.89,16.892
201911260426,16.892,16.892,16.89,16.89
201911260427,16.89,16.892,16.89,16.892
201911260428,16.892,16.893,16.891,16.892
201911260429,16.892,16.893,16.892,16.893
201911260430,16.893,16.897,16.893,16.897
201911260431,16.897,16.904,16.897,16.904
201911260432,16.904,16.904,16.902,16.902
201911260433,16.902,16.904,16.902,16.902
201911260434,16.902,16.902,16.898,16.899
201911260435,16.899,16.899,16.898,16.898
201911260436,16.898,16.899,16.898,16.898
201911260437,16.898,16.899,16.897,16.897
201911260438,16.897,16.897,16.893,16.894
201911260439,16.894,16.897,16.894,16.897
201911260440,16.897,16.898,16.897,16.898
201911260441,16.898,16.899,16.895,16.899
201911260442,16.899,16.903,16.897,16.9
201911260443,16.9,16.901,16.897,16.897
201911260444,16.897,16.899,16.897,16.898
201911260445,16.898,16.899,16.897,16.898
201911260446,16.898,16.899,16.896,16.898
201911260447,16.898,16.901,16.898,16.899
201911260448,16.899,16.899,16.896,16.897
201911260449,16.897,16.897,16.894,16.894
201911260450,16.894,16.895,16.892,16.892
201911260451,16.892,16.893,16.892,16.892
201911260452,16.892,16.893,16.892,16.892
201911260453,16.892,16.894,16.889,16.889
201911260454,16.889,16.89,16.889,16.889
201911260455,16.889,16.891,16.885,16.886
201911260456,16.886,16.888,16.886,16.887
201911260457,16.887,16.888,16.886,16.887
201911260458,16.887,16.888,16.886,16.887
201911260459,16.887,16.887,16.886,16.887
201911260500,16.887,16.888,16.886,16.887
201911260501,16.887,16.887,16.887,16.887
201911260502,16.887,16.887,16.886,16.886
201911260503,16.886,16.887,16.886,16.887
201911260504,16.887,16.888,16.887,16.888
201911260505,16.888,16.888,16.888,16.888
201911260506,16.888,16.888,16.887,16.888
201911260507,16.888,16.888,16.888,16.888
201911260508,16.888,16.888,16.887,16.888
201911260509,16.888,16.888,16.887,16.887
201911260510,16.887,16.888,16.887,16.888
201911260511,16.888,16.888,16.886,16.888
201911260512,16.888,16.888,16.887,16.887
201911260513,16.887,16.888,16.886,16.888
201911260514,16.888,16.888,16.887,16.888
201911260515,16.888,16.888,16.887,16.887
201911260516,16.887,16.888,16.887,16.888
201911260517,16.887,16.888,16.887,16.888
201911260518,16.888,16.888,16.887,16.888
201911260519,16.888,16.888,16.887,16.888
201911260520,16.889,16.89,16.887,16.888
201911260521,16.888,16.889,16.887,16.889
201911260522,16.889,16.889,16.888,16.889
201911260523,16.889,16.889,16.887,16.887
201911260524,16.887,16.888,16.886,16.887
201911260525,16.887,16.893,16.887,16.892
201911260526,16.892,16.893,16.892,16.892
201911260527,16.892,16.892,16.889,16.889
201911260528,16.889,16.892,16.889,16.892
201911260529,16.892,16.893,16.892,16.893
201911260530,16.893,16.893,16.89,16.89
201911260531,16.89,16.891,16.889,16.889
201911260532,16.889,16.892,16.889,16.89
201911260533,16.89,16.892,16.89,16.892
201911260534,16.892,16.892,16.892,16.892
201911260535,16.892,16.894,16.892,16.894
201911260536,16.894,16.895,16.892,16.893
201911260537,16.893,16.895,16.893,16.895
201911260538,16.895,16.899,16.895,16.898
201911260539,16.898,16.899,16.898,16.898
201911260540,16.898,16.899,16.898,16.898
201911260541,16.898,16.9,16.897,16.898
201911260542,16.898,16.898,16.897,16.898
201911260543,16.898,16.899,16.898,16.898
201911260544,16.898,16.899,16.898,16.898
201911260545,16.898,16.899,16.898,16.899
201911260546,16.899,16.899,16.898,16.898
201911260547,16.898,16.899,16.897,16.899
201911260548,16.899,16.899,16.898,16.898
201911260549,16.898,16.899,16.898,16.899
201911260550,16.899,16.9,16.899,16.899
201911260551,16.899,16.899,16.897,16.898
201911260552,16.898,16.898,16.893,16.893
201911260553,16.893,16.894,16.892,16.893
201911260554,16.893,16.895,16.892,16.894
201911260555,16.894,16.895,16.892,16.893
201911260556,16.893,16.894,16.892,16.893
201911260557,16.893,16.895,16.892,16.894
201911260558,16.894,16.897,16.893,16.893
201911260559,16.893,16.894,16.892,16.892
201911260600,16.893,16.894,16.892,16.893
201911260601,16.892,16.892,16.892,16.892
201911260602,16.892,16.893,16.892,16.893
201911260603,16.893,16.893,16.893,16.893
201911260604,16.893,16.894,16.892,16.892
201911260605,16.892,16.892,16.892,16.892
201911260606,16.893,16.893,16.892,16.893
201911260607,16.893,16.897,16.893,16.897
201911260608,16.897,16.898,16.897,16.897
201911260609,16.897,16.897,16.897,16.897
201911260610,16.897,16.897,16.896,16.897
201911260611,16.897,16.897,16.897,16.897
201911260612,16.897,16.897,16.897,16.897
201911260613,16.897,16.897,16.895,16.897
201911260614,16.897,16.897,16.896,16.896
201911260615,16.896,16.896,16.892,16.893
201911260616,16.893,16.894,16.892,16.892
201911260617,16.892,16.893,16.892,16.893
201911260618,16.892,16.894,16.892,16.892
201911260619,16.892,16.893,16.892,16.893
201911260620,16.893,16.893,16.893,16.893
201911260621,16.893,16.893,16.892,16.892
201911260622,16.892,16.892,16.892,16.892
201911260623,16.892,16.892,16.892,16.892
201911260624,16.892,16.892,16.892,16.892
201911260625,16.892,16.894,16.892,16.892
201911260626,16.892,16.892,16.892,16.892
201911260627,16.892,16.892,16.892,16.892
201911260628,16.892,16.892,16.892,16.892
201911260629,16.892,16.892,16.892,16.892
201911260630,16.892,16.892,16.891,16.892
201911260631,16.892,16.892,16.892,16.892
201911260632,16.892,16.892,16.892,16.892
201911260633,16.892,16.892,16.892,16.892
201911260634,16.892,16.892,16.892,16.892
201911260635,16.892,16.892,16.892,16.892
201911260636,16.892,16.892,16.892,16.892
201911260637,16.892,16.892,16.892,16.892
201911260638,16.892,16.893,16.892,16.893
201911260639,16.893,16.893,16.892,16.893
201911260640,16.893,16.893,16.892,16.893
201911260641,16.893,16.893,16.892,16.892
201911260642,16.892,16.892,16.892,16.892
201911260643,16.892,16.897,16.892,16.897
201911260644,16.897,16.897,16.897,16.897
201911260645,16.896,16.897,16.896,16.897
201911260646,16.897,16.897,16.897,16.897
201911260647,16.897,16.899,16.897,16.897
201911260648,16.897,16.902,16.897,16.901
201911260649,16.901,16.902,16.901,16.902
201911260650,16.902,16.902,16.897,16.897
201911260651,16.897,16.897,16.897,16.897
201911260652,16.897,16.897,16.893,16.893
201911260653,16.893,16.897,16.888,16.889
201911260654,16.89,16.89,16.886,16.887
201911260655,16.887,16.887,16.882,16.882
201911260656,16.882,16.882,16.877,16.877
201911260657,16.877,16.884,16.877,16.878
201911260658,16.878,16.883,16.874,16.879
201911260659,16.88,16.881,16.87,16.87
