日時,始値(BID),高値(BID),安値(BID),終値(BID)
201903070800,25667,25668,25653,25659
201903070801,25659,25664,25658,25659
201903070802,25659,25659,25657,25657
201903070803,25656,25661,25655,25661
201903070804,25661,25661,25659,25660
201903070805,25659,25662,25659,25662
201903070806,25662,25665,25662,25664
201903070807,25664,25665,25664,25664
201903070808,25664,25665,25664,25664
201903070809,25664,25668,25663,25663
201903070810,25663,25664,25661,25664
201903070811,25663,25664,25663,25663
201903070812,25663,25664,25662,25664
201903070813,25664,25664,25663,25663
201903070814,25663,25664,25663,25663
201903070815,25663,25663,25661,25661
201903070816,25661,25662,25660,25660
201903070817,25660,25661,25653,25653
201903070818,25653,25655,25651,25654
201903070819,25654,25654,25654,25654
201903070820,25654,25656,25654,25655
201903070821,25655,25660,25655,25658
201903070822,25658,25660,25658,25660
201903070823,25660,25661,25659,25660
201903070824,25660,25660,25658,25659
201903070825,25658,25660,25658,25659
201903070826,25659,25660,25659,25659
201903070827,25660,25660,25659,25660
201903070828,25660,25664,25660,25664
201903070829,25664,25664,25661,25663
201903070830,25663,25664,25661,25661
201903070831,25661,25666,25661,25665
201903070832,25665,25668,25665,25667
201903070833,25668,25668,25665,25666
201903070834,25666,25666,25664,25664
201903070835,25664,25667,25664,25665
201903070836,25665,25665,25664,25665
201903070837,25665,25668,25665,25668
201903070838,25668,25670,25667,25669
201903070839,25669,25670,25668,25669
201903070840,25669,25669,25665,25665
201903070841,25665,25668,25665,25668
201903070842,25668,25668,25667,25667
201903070843,25667,25668,25666,25666
201903070844,25667,25668,25666,25668
201903070845,25668,25669,25662,25663
201903070846,25663,25666,25663,25666
201903070847,25666,25666,25664,25665
201903070848,25666,25666,25666,25666
201903070849,25666,25666,25659,25659
201903070850,25658,25658,25653,25654
201903070851,25655,25659,25655,25656
201903070852,25657,25657,25654,25655
201903070853,25655,25659,25655,25659
201903070854,25660,25662,25659,25662
201903070855,25662,25662,25629,25635
201903070856,25636,25644,25636,25641
201903070857,25640,25645,25639,25645
201903070858,25645,25645,25638,25638
201903070859,25639,25639,25635,25638
201903070900,25638,25641,25635,25641
201903070901,25641,25642,25630,25632
201903070902,25632,25635,25628,25631
201903070903,25632,25632,25629,25632
201903070904,25632,25632,25629,25629
201903070905,25629,25630,25620,25629
201903070906,25630,25636,25629,25636
201903070907,25637,25637,25629,25629
201903070908,25629,25634,25626,25628
201903070909,25628,25629,25619,25622
201903070910,25622,25626,25620,25623
201903070911,25623,25626,25621,25625
201903070912,25624,25628,25623,25628
201903070913,25628,25631,25628,25631
201903070914,25631,25633,25630,25630
201903070915,25630,25631,25627,25628
201903070916,25628,25628,25625,25625
201903070917,25625,25626,25622,25625
201903070918,25625,25626,25623,25623
201903070919,25623,25623,25613,25613
201903070920,25612,25624,25610,25621
201903070921,25621,25625,25620,25625
201903070922,25625,25626,25623,25625
201903070923,25625,25626,25622,25623
201903070924,25622,25625,25621,25624
201903070925,25625,25625,25622,25624
201903070926,25624,25628,25624,25628
201903070927,25629,25629,25623,25627
201903070928,25627,25628,25624,25624
201903070929,25623,25626,25622,25625
201903070930,25626,25626,25611,25618
201903070931,25618,25619,25616,25617
201903070932,25617,25625,25617,25624
201903070933,25623,25627,25623,25625
201903070934,25625,25627,25623,25627
201903070935,25627,25628,25626,25626
201903070936,25626,25626,25621,25622
201903070937,25622,25627,25622,25625
201903070938,25625,25631,25625,25630
201903070939,25630,25631,25626,25627
201903070940,25628,25629,25626,25629
201903070941,25629,25632,25629,25629
201903070942,25629,25634,25629,25632
201903070943,25632,25632,25629,25629
201903070944,25629,25629,25624,25626
201903070945,25626,25627,25624,25625
201903070946,25625,25625,25623,25625
201903070947,25624,25628,25624,25628
201903070948,25628,25629,25627,25629
201903070949,25629,25629,25624,25627
201903070950,25626,25629,25626,25629
201903070951,25629,25630,25627,25627
201903070952,25627,25628,25624,25624
201903070953,25624,25625,25620,25621
201903070954,25621,25623,25618,25620
201903070955,25620,25622,25619,25621
201903070956,25621,25621,25614,25615
201903070957,25615,25618,25614,25616
201903070958,25617,25618,25616,25618
201903070959,25618,25620,25617,25618
201903071000,25619,25623,25618,25623
201903071001,25623,25625,25621,25623
201903071002,25624,25628,25624,25628
201903071003,25628,25629,25627,25628
201903071004,25628,25631,25628,25630
201903071005,25630,25632,25628,25629
201903071006,25629,25630,25627,25628
201903071007,25628,25628,25625,25626
201903071008,25626,25632,25626,25630
201903071009,25630,25631,25628,25630
201903071010,25630,25630,25626,25627
201903071011,25628,25631,25628,25631
201903071012,25631,25636,25631,25634
201903071013,25634,25640,25634,25637
201903071014,25637,25639,25635,25636
201903071015,25636,25640,25635,25635
201903071016,25635,25641,25634,25639
201903071017,25640,25643,25639,25640
201903071018,25640,25641,25637,25639
201903071019,25639,25645,25639,25641
201903071020,25641,25644,25641,25642
201903071021,25641,25643,25640,25641
201903071022,25641,25642,25638,25639
201903071023,25639,25639,25634,25634
201903071024,25634,25635,25632,25632
201903071025,25632,25633,25632,25632
201903071026,25632,25634,25632,25634
201903071027,25634,25634,25628,25628
201903071028,25628,25630,25624,25629
201903071029,25629,25632,25628,25630
201903071030,25630,25636,25625,25633
201903071031,25634,25641,25630,25638
201903071032,25638,25639,25632,25632
201903071033,25632,25636,25630,25636
201903071034,25636,25636,25628,25628
201903071035,25628,25631,25626,25629
201903071036,25629,25631,25625,25626
201903071037,25626,25630,25625,25626
201903071038,25626,25627,25624,25625
201903071039,25625,25627,25621,25621
201903071040,25621,25621,25616,25619
201903071041,25619,25619,25615,25617
201903071042,25616,25618,25613,25618
201903071043,25619,25623,25619,25622
201903071044,25622,25625,25620,25624
201903071045,25624,25630,25621,25629
201903071046,25629,25632,25626,25631
201903071047,25631,25636,25630,25636
201903071048,25636,25637,25632,25633
201903071049,25633,25634,25626,25626
201903071050,25626,25635,25626,25633
201903071051,25633,25633,25629,25629
201903071052,25629,25629,25624,25624
201903071053,25624,25624,25621,25623
201903071054,25623,25627,25621,25625
201903071055,25624,25631,25624,25629
201903071056,25629,25630,25621,25621
201903071057,25621,25624,25619,25619
201903071058,25618,25628,25618,25627
201903071059,25627,25630,25627,25629
201903071100,25629,25635,25625,25631
201903071101,25631,25633,25626,25633
201903071102,25633,25634,25629,25633
201903071103,25633,25634,25631,25632
201903071104,25633,25637,25633,25633
201903071105,25633,25637,25633,25636
201903071106,25636,25638,25636,25637
201903071107,25637,25638,25636,25636
201903071108,25636,25637,25633,25637
201903071109,25637,25637,25633,25636
201903071110,25636,25636,25632,25632
201903071111,25632,25637,25632,25636
201903071112,25636,25641,25636,25640
201903071113,25640,25642,25636,25637
201903071114,25637,25638,25636,25636
201903071115,25636,25642,25632,25641
201903071116,25642,25644,25637,25637
201903071117,25637,25640,25637,25638
201903071118,25638,25638,25635,25637
201903071119,25637,25637,25634,25635
201903071120,25635,25638,25634,25638
201903071121,25638,25641,25637,25640
201903071122,25640,25647,25639,25644
201903071123,25644,25646,25641,25643
201903071124,25643,25645,25641,25642
201903071125,25642,25644,25639,25640
201903071126,25639,25641,25639,25641
201903071127,25641,25641,25638,25638
201903071128,25639,25639,25635,25636
201903071129,25636,25640,25635,25639
201903071130,25639,25639,25634,25635
201903071131,25636,25639,25636,25638
201903071132,25637,25638,25634,25636
201903071133,25636,25636,25634,25634
201903071134,25634,25637,25633,25635
201903071135,25634,25635,25633,25633
201903071136,25633,25635,25633,25634
201903071137,25634,25635,25634,25634
201903071138,25634,25635,25632,25632
201903071139,25632,25633,25630,25630
201903071140,25630,25633,25627,25633
201903071141,25633,25633,25629,25629
201903071142,25629,25631,25629,25629
201903071143,25629,25631,25628,25629
201903071144,25628,25632,25628,25631
201903071145,25631,25631,25628,25629
201903071146,25629,25630,25625,25625
201903071147,25626,25628,25625,25628
201903071148,25628,25628,25626,25626
201903071149,25626,25630,25626,25629
201903071150,25629,25632,25627,25631
201903071151,25631,25633,25630,25631
201903071152,25631,25633,25630,25630
201903071153,25630,25632,25628,25631
201903071154,25631,25633,25631,25632
201903071155,25632,25633,25631,25632
201903071156,25632,25634,25632,25634
201903071157,25634,25638,25633,25637
201903071158,25637,25637,25635,25636
201903071159,25636,25637,25633,25633
201903071200,25633,25633,25630,25630
201903071201,25630,25631,25629,25630
201903071202,25630,25630,25629,25629
201903071203,25629,25630,25629,25629
201903071204,25629,25629,25628,25628
201903071205,25628,25628,25618,25619
201903071206,25619,25620,25616,25620
201903071207,25620,25622,25619,25619
201903071208,25618,25621,25615,25616
201903071209,25616,25621,25615,25621
201903071210,25621,25627,25619,25625
201903071211,25625,25628,25624,25628
201903071212,25628,25629,25626,25626
201903071213,25626,25629,25626,25627
201903071214,25627,25634,25626,25631
201903071215,25632,25633,25630,25630
201903071216,25630,25631,25629,25631
201903071217,25631,25633,25630,25633
201903071218,25633,25634,25632,25633
201903071219,25633,25637,25633,25637
201903071220,25637,25637,25635,25637
201903071221,25636,25638,25635,25636
201903071222,25636,25638,25632,25632
201903071223,25632,25633,25630,25632
201903071224,25632,25633,25631,25632
201903071225,25632,25635,25632,25634
201903071226,25634,25635,25630,25632
201903071227,25632,25632,25630,25631
201903071228,25631,25632,25630,25631
201903071229,25631,25632,25629,25629
201903071230,25629,25635,25629,25632
201903071231,25633,25634,25631,25631
201903071232,25631,25632,25630,25630
201903071233,25630,25630,25628,25629
201903071234,25629,25629,25626,25626
201903071235,25626,25627,25624,25626
201903071236,25627,25627,25624,25625
201903071237,25625,25625,25623,25624
201903071238,25624,25624,25622,25623
201903071239,25623,25624,25622,25623
201903071240,25623,25625,25623,25624
201903071241,25624,25624,25622,25622
201903071242,25623,25623,25622,25623
201903071243,25623,25623,25622,25623
201903071244,25623,25623,25622,25622
201903071245,25623,25623,25620,25622
201903071246,25622,25625,25622,25625
201903071247,25625,25627,25625,25627
201903071248,25627,25627,25626,25627
201903071249,25627,25627,25625,25625
201903071250,25625,25625,25623,25625
201903071251,25625,25625,25622,25624
201903071252,25624,25626,25624,25625
201903071253,25625,25627,25625,25626
201903071254,25626,25627,25624,25625
201903071255,25625,25627,25625,25626
201903071256,25627,25627,25624,25627
201903071257,25626,25628,25626,25628
201903071258,25628,25628,25627,25627
201903071259,25627,25627,25626,25626
201903071300,25626,25628,25624,25627
201903071301,25627,25628,25626,25626
201903071302,25627,25628,25626,25627
201903071303,25627,25628,25627,25628
201903071304,25628,25628,25627,25628
201903071305,25628,25629,25628,25628
201903071306,25628,25628,25627,25627
201903071307,25627,25628,25624,25625
201903071308,25625,25625,25623,25625
201903071309,25624,25625,25623,25625
201903071310,25625,25627,25624,25627
201903071311,25627,25628,25626,25628
201903071312,25628,25629,25627,25627
201903071313,25627,25628,25626,25628
201903071314,25628,25628,25626,25626
201903071315,25626,25626,25625,25626
201903071316,25626,25627,25626,25627
201903071317,25627,25627,25625,25625
201903071318,25625,25626,25624,25626
201903071319,25626,25626,25622,25622
201903071320,25622,25623,25622,25622
201903071321,25622,25623,25622,25623
201903071322,25623,25624,25622,25624
201903071323,25623,25625,25623,25625
201903071324,25625,25625,25624,25624
201903071325,25625,25625,25624,25624
201903071326,25624,25624,25623,25623
201903071327,25624,25624,25621,25622
201903071328,25622,25622,25621,25622
201903071329,25622,25622,25621,25621
201903071330,25621,25622,25619,25619
201903071331,25619,25619,25616,25617
201903071332,25617,25617,25616,25617
201903071333,25617,25617,25616,25617
201903071334,25617,25617,25615,25615
201903071335,25615,25615,25613,25614
201903071336,25614,25615,25614,25614
201903071337,25614,25615,25614,25615
201903071338,25615,25615,25613,25613
201903071339,25613,25615,25613,25613
201903071340,25613,25614,25612,25613
201903071341,25613,25615,25613,25614
201903071342,25614,25614,25613,25614
201903071343,25615,25615,25614,25615
201903071344,25615,25617,25614,25617
201903071345,25617,25618,25617,25617
201903071346,25617,25617,25614,25615
201903071347,25616,25616,25613,25613
201903071348,25613,25615,25613,25614
201903071349,25615,25615,25614,25615
201903071350,25614,25615,25614,25615
201903071351,25615,25615,25614,25615
201903071352,25615,25616,25614,25615
201903071353,25615,25617,25615,25617
201903071354,25617,25617,25616,25617
201903071355,25617,25617,25614,25614
201903071356,25614,25615,25614,25614
201903071357,25614,25615,25614,25615
201903071358,25615,25615,25614,25614
201903071359,25614,25615,25614,25615
201903071400,25614,25614,25608,25608
201903071401,25609,25610,25606,25607
201903071402,25608,25611,25607,25611
201903071403,25611,25611,25610,25611
201903071404,25612,25612,25610,25610
201903071405,25610,25611,25608,25608
201903071406,25608,25610,25608,25609
201903071407,25609,25610,25606,25608
201903071408,25608,25610,25607,25609
201903071409,25609,25610,25606,25608
201903071410,25608,25610,25608,25608
201903071411,25608,25609,25607,25609
201903071412,25609,25609,25609,25609
201903071413,25609,25612,25609,25610
201903071414,25610,25611,25609,25610
201903071415,25610,25611,25609,25610
201903071416,25611,25611,25608,25608
201903071417,25608,25609,25608,25608
201903071418,25608,25608,25606,25606
201903071419,25606,25609,25606,25608
201903071420,25608,25608,25606,25607
201903071421,25608,25610,25607,25609
201903071422,25608,25608,25605,25606
201903071423,25606,25607,25606,25606
201903071424,25606,25608,25606,25608
201903071425,25608,25610,25607,25610
201903071426,25610,25610,25607,25607
201903071427,25607,25607,25600,25603
201903071428,25604,25604,25602,25602
201903071429,25602,25604,25601,25604
201903071430,25604,25605,25603,25604
201903071431,25604,25606,25603,25606
201903071432,25606,25606,25602,25602
201903071433,25602,25604,25602,25603
201903071434,25602,25605,25602,25605
201903071435,25605,25605,25603,25604
201903071436,25603,25604,25602,25603
201903071437,25603,25603,25600,25600
201903071438,25600,25601,25599,25599
201903071439,25599,25600,25599,25600
201903071440,25600,25603,25600,25602
201903071441,25602,25604,25602,25603
201903071442,25604,25605,25603,25603
201903071443,25604,25605,25603,25604
201903071444,25604,25606,25603,25606
201903071445,25607,25607,25606,25607
201903071446,25607,25608,25606,25607
201903071447,25607,25609,25607,25608
201903071448,25608,25610,25607,25609
201903071449,25609,25610,25608,25609
201903071450,25609,25610,25609,25609
201903071451,25608,25609,25608,25608
201903071452,25607,25611,25607,25611
201903071453,25611,25611,25609,25610
201903071454,25610,25610,25608,25608
201903071455,25609,25611,25609,25609
201903071456,25609,25609,25606,25606
201903071457,25606,25606,25603,25604
201903071458,25604,25604,25600,25600
201903071459,25600,25603,25600,25602
201903071500,25603,25603,25601,25601
201903071501,25601,25607,25598,25598
201903071502,25598,25602,25598,25602
201903071503,25601,25606,25601,25606
201903071504,25606,25607,25606,25606
201903071505,25607,25609,25606,25608
201903071506,25608,25609,25608,25608
201903071507,25608,25608,25606,25606
201903071508,25605,25606,25602,25603
201903071509,25603,25604,25601,25604
201903071510,25604,25604,25603,25604
201903071511,25604,25604,25603,25603
201903071512,25603,25604,25602,25602
201903071513,25602,25602,25600,25600
201903071514,25600,25601,25599,25601
201903071515,25601,25605,25600,25604
201903071516,25605,25605,25602,25605
201903071517,25605,25605,25604,25604
201903071518,25604,25604,25603,25604
201903071519,25604,25605,25603,25605
201903071520,25605,25605,25602,25602
201903071521,25602,25602,25601,25601
201903071522,25601,25604,25600,25604
201903071523,25604,25605,25602,25602
201903071524,25602,25603,25602,25603
201903071525,25604,25608,25604,25606
201903071526,25606,25607,25603,25604
201903071527,25604,25604,25602,25602
201903071528,25603,25603,25602,25602
201903071529,25602,25602,25602,25602
201903071530,25602,25604,25602,25603
201903071531,25604,25604,25603,25604
201903071532,25604,25604,25602,25603
201903071533,25603,25603,25602,25603
201903071534,25603,25603,25602,25603
201903071535,25603,25605,25603,25605
201903071536,25605,25606,25605,25606
201903071537,25606,25606,25605,25605
201903071538,25605,25605,25604,25605
201903071539,25605,25607,25605,25607
201903071540,25607,25607,25606,25606
201903071541,25606,25607,25606,25607
201903071542,25607,25608,25607,25608
201903071543,25607,25608,25606,25606
201903071544,25606,25607,25603,25604
201903071545,25604,25605,25603,25603
201903071546,25603,25605,25603,25603
201903071547,25603,25603,25602,25602
201903071548,25602,25602,25602,25602
201903071549,25602,25602,25601,25602
201903071550,25602,25602,25600,25600
201903071551,25600,25600,25599,25600
201903071552,25599,25600,25598,25598
201903071553,25598,25599,25595,25598
201903071554,25598,25598,25594,25597
201903071555,25597,25597,25594,25596
201903071556,25596,25598,25596,25598
201903071557,25598,25598,25595,25596
201903071558,25596,25597,25595,25597
201903071559,25597,25597,25596,25596
201903071600,25596,25598,25595,25598
201903071601,25598,25599,25598,25599
201903071602,25599,25599,25583,25585
201903071603,25585,25585,25576,25576
201903071604,25576,25582,25571,25571
201903071605,25570,25578,25570,25578
201903071606,25578,25579,25574,25574
201903071607,25574,25576,25572,25573
201903071608,25572,25576,25572,25576
201903071609,25576,25577,25575,25577
201903071610,25577,25580,25576,25580
201903071611,25580,25580,25575,25575
201903071612,25575,25576,25575,25576
201903071613,25576,25579,25575,25578
201903071614,25578,25579,25578,25579
201903071615,25579,25579,25575,25576
201903071616,25576,25580,25576,25579
201903071617,25579,25580,25579,25580
201903071618,25579,25579,25578,25578
201903071619,25577,25577,25573,25573
201903071620,25574,25576,25571,25571
201903071621,25571,25571,25567,25567
201903071622,25567,25570,25567,25569
201903071623,25569,25569,25566,25566
201903071624,25566,25567,25559,25562
201903071625,25562,25565,25561,25561
201903071626,25560,25562,25558,25559
201903071627,25558,25559,25556,25557
201903071628,25558,25558,25553,25556
201903071629,25556,25556,25554,25554
201903071630,25554,25558,25554,25556
201903071631,25556,25556,25555,25556
201903071632,25556,25556,25547,25550
201903071633,25550,25553,25548,25553
201903071634,25553,25555,25549,25551
201903071635,25551,25555,25551,25554
201903071636,25554,25555,25553,25554
201903071637,25554,25557,25554,25557
201903071638,25557,25557,25553,25556
201903071639,25556,25556,25551,25552
201903071640,25552,25558,25552,25557
201903071641,25557,25557,25554,25557
201903071642,25557,25558,25555,25556
201903071643,25556,25556,25553,25555
201903071644,25556,25556,25553,25555
201903071645,25555,25559,25554,25559
201903071646,25559,25563,25558,25560
201903071647,25560,25564,25559,25564
201903071648,25564,25564,25561,25562
201903071649,25562,25564,25562,25564
201903071650,25564,25564,25561,25564
201903071651,25564,25565,25563,25564
201903071652,25563,25566,25563,25566
201903071653,25566,25568,25566,25568
201903071654,25568,25570,25567,25568
201903071655,25568,25571,25567,25571
201903071656,25572,25573,25571,25572
201903071657,25572,25572,25569,25571
201903071658,25571,25572,25570,25571
201903071659,25571,25571,25567,25568
201903071700,25569,25575,25569,25575
201903071701,25574,25574,25568,25569
201903071702,25570,25573,25569,25571
201903071703,25570,25574,25565,25567
201903071704,25567,25572,25566,25572
201903071705,25572,25572,25563,25567
201903071706,25567,25570,25566,25566
201903071707,25566,25575,25566,25574
201903071708,25574,25575,25571,25575
201903071709,25574,25578,25574,25577
201903071710,25577,25579,25575,25575
201903071711,25575,25575,25568,25569
201903071712,25570,25579,25569,25579
201903071713,25579,25579,25576,25579
201903071714,25579,25579,25573,25575
201903071715,25575,25581,25572,25578
201903071716,25578,25582,25578,25580
201903071717,25580,25580,25576,25579
201903071718,25579,25580,25577,25579
201903071719,25579,25579,25574,25575
201903071720,25575,25577,25573,25576
201903071721,25576,25578,25574,25575
201903071722,25575,25580,25575,25575
201903071723,25575,25576,25573,25573
201903071724,25574,25576,25573,25576
201903071725,25576,25576,25568,25569
201903071726,25569,25576,25568,25575
201903071727,25575,25575,25571,25572
201903071728,25572,25572,25567,25569
201903071729,25569,25569,25557,25558
201903071730,25558,25567,25558,25566
201903071731,25566,25567,25564,25566
201903071732,25565,25569,25563,25569
201903071733,25569,25569,25563,25563
201903071734,25563,25564,25561,25563
201903071735,25562,25566,25561,25565
201903071736,25565,25570,25565,25570
201903071737,25570,25572,25569,25572
201903071738,25572,25572,25569,25571
201903071739,25571,25572,25567,25567
201903071740,25567,25576,25567,25573
201903071741,25573,25577,25572,25576
201903071742,25576,25579,25575,25579
201903071743,25579,25579,25574,25574
201903071744,25574,25577,25572,25572
201903071745,25572,25574,25570,25571
201903071746,25572,25574,25571,25571
201903071747,25571,25573,25570,25570
201903071748,25571,25574,25570,25574
201903071749,25575,25575,25570,25570
201903071750,25570,25570,25569,25570
201903071751,25570,25573,25570,25571
201903071752,25571,25571,25568,25570
201903071753,25570,25571,25569,25570
201903071754,25570,25575,25570,25574
201903071755,25574,25578,25573,25578
201903071756,25578,25581,25578,25579
201903071757,25579,25579,25576,25578
201903071758,25578,25579,25576,25576
201903071759,25576,25577,25574,25577
201903071800,25577,25577,25570,25574
201903071801,25573,25576,25572,25575
201903071802,25575,25579,25575,25579
201903071803,25579,25581,25579,25581
201903071804,25581,25584,25581,25583
201903071805,25583,25583,25579,25579
201903071806,25580,25581,25578,25581
201903071807,25581,25586,25581,25586
201903071808,25586,25586,25583,25584
201903071809,25584,25586,25583,25585
201903071810,25585,25588,25584,25585
201903071811,25585,25585,25582,25583
201903071812,25583,25585,25583,25583
201903071813,25583,25583,25582,25583
201903071814,25583,25583,25581,25582
201903071815,25582,25585,25582,25584
201903071816,25584,25584,25581,25581
201903071817,25581,25582,25579,25582
201903071818,25582,25582,25580,25582
201903071819,25582,25582,25578,25581
201903071820,25581,25581,25577,25579
201903071821,25579,25579,25577,25578
201903071822,25578,25580,25575,25580
201903071823,25579,25581,25578,25578
201903071824,25579,25582,25578,25582
201903071825,25581,25582,25581,25581
201903071826,25581,25582,25579,25581
201903071827,25581,25582,25579,25581
201903071828,25581,25584,25580,25584
201903071829,25584,25584,25578,25578
201903071830,25578,25580,25577,25580
201903071831,25580,25584,25579,25584
201903071832,25585,25586,25583,25585
201903071833,25586,25588,25585,25585
201903071834,25586,25587,25585,25586
201903071835,25586,25589,25585,25589
201903071836,25588,25588,25583,25585
201903071837,25585,25586,25583,25585
201903071838,25585,25586,25585,25586
201903071839,25586,25587,25585,25586
201903071840,25585,25586,25583,25583
201903071841,25583,25584,25582,25584
201903071842,25584,25586,25583,25586
201903071843,25585,25588,25585,25586
201903071844,25586,25587,25585,25587
201903071845,25587,25588,25586,25586
201903071846,25586,25587,25585,25586
201903071847,25586,25587,25583,25583
201903071848,25583,25583,25581,25582
201903071849,25582,25583,25579,25581
201903071850,25581,25583,25581,25582
201903071851,25582,25586,25582,25586
201903071852,25586,25586,25579,25580
201903071853,25579,25583,25579,25581
201903071854,25580,25581,25579,25580
201903071855,25580,25580,25579,25579
201903071856,25579,25580,25578,25579
201903071857,25579,25581,25577,25579
201903071858,25579,25579,25577,25579
201903071859,25579,25580,25578,25578
201903071900,25578,25584,25578,25584
201903071901,25583,25586,25582,25586
201903071902,25586,25586,25583,25585
201903071903,25585,25590,25585,25588
201903071904,25589,25589,25587,25588
201903071905,25589,25591,25588,25589
201903071906,25589,25589,25588,25588
201903071907,25589,25591,25588,25589
201903071908,25589,25590,25589,25589
201903071909,25589,25589,25585,25586
201903071910,25586,25587,25584,25587
201903071911,25587,25588,25585,25587
201903071912,25587,25588,25586,25587
201903071913,25587,25588,25586,25588
201903071914,25587,25587,25584,25584
201903071915,25584,25586,25584,25585
201903071916,25585,25586,25585,25585
201903071917,25585,25586,25580,25580
201903071918,25581,25581,25577,25578
201903071919,25579,25579,25575,25576
201903071920,25576,25576,25571,25571
201903071921,25572,25575,25571,25573
201903071922,25573,25576,25573,25576
201903071923,25576,25577,25575,25575
201903071924,25575,25580,25574,25579
201903071925,25579,25581,25579,25581
201903071926,25581,25582,25577,25578
201903071927,25578,25578,25575,25577
201903071928,25578,25580,25576,25580
201903071929,25579,25584,25579,25583
201903071930,25583,25583,25581,25581
201903071931,25580,25580,25579,25579
201903071932,25579,25580,25579,25580
201903071933,25581,25583,25579,25582
201903071934,25582,25583,25581,25582
201903071935,25582,25585,25582,25585
201903071936,25585,25585,25584,25585
201903071937,25586,25586,25579,25579
201903071938,25579,25580,25576,25577
201903071939,25577,25581,25577,25580
201903071940,25580,25584,25578,25584
201903071941,25584,25584,25582,25583
201903071942,25583,25583,25579,25579
201903071943,25579,25580,25576,25579
201903071944,25579,25580,25579,25580
201903071945,25580,25581,25577,25581
201903071946,25581,25588,25581,25587
201903071947,25586,25586,25582,25584
201903071948,25584,25585,25583,25584
201903071949,25583,25586,25583,25585
201903071950,25585,25586,25582,25582
201903071951,25582,25583,25582,25583
201903071952,25583,25583,25579,25580
201903071953,25580,25584,25579,25583
201903071954,25583,25584,25581,25584
201903071955,25584,25585,25583,25584
201903071956,25584,25587,25584,25584
201903071957,25584,25587,25583,25587
201903071958,25587,25589,25586,25588
201903071959,25589,25590,25588,25589
201903072000,25589,25590,25588,25589
201903072001,25589,25589,25586,25587
201903072002,25587,25587,25585,25585
201903072003,25586,25589,25585,25589
201903072004,25589,25589,25586,25587
201903072005,25586,25589,25586,25587
201903072006,25586,25586,25583,25584
201903072007,25584,25587,25583,25584
201903072008,25584,25586,25584,25584
201903072009,25584,25588,25584,25588
201903072010,25588,25589,25588,25588
201903072011,25588,25588,25584,25585
201903072012,25585,25585,25579,25582
201903072013,25582,25584,25582,25583
201903072014,25584,25586,25583,25584
201903072015,25584,25586,25582,25586
201903072016,25586,25587,25585,25587
201903072017,25587,25590,25587,25590
201903072018,25590,25591,25588,25588
201903072019,25588,25589,25587,25589
201903072020,25589,25591,25587,25587
201903072021,25587,25587,25585,25587
201903072022,25587,25589,25587,25587
201903072023,25587,25590,25587,25590
201903072024,25590,25590,25588,25589
201903072025,25589,25589,25586,25587
201903072026,25587,25589,25587,25588
201903072027,25588,25590,25588,25589
201903072028,25589,25593,25588,25593
201903072029,25592,25593,25591,25593
201903072030,25593,25594,25592,25593
201903072031,25593,25594,25593,25594
201903072032,25594,25594,25591,25591
201903072033,25591,25591,25590,25590
201903072034,25590,25592,25590,25592
201903072035,25592,25593,25590,25590
201903072036,25590,25590,25587,25589
201903072037,25589,25589,25588,25589
201903072038,25589,25590,25588,25589
201903072039,25589,25591,25586,25591
201903072040,25591,25592,25590,25590
201903072041,25590,25590,25587,25587
201903072042,25587,25588,25587,25588
201903072043,25588,25589,25587,25587
201903072044,25587,25587,25585,25585
201903072045,25585,25585,25582,25583
201903072046,25582,25584,25582,25582
201903072047,25583,25583,25582,25582
201903072048,25582,25582,25579,25580
201903072049,25580,25580,25580,25580
201903072050,25579,25580,25577,25578
201903072051,25578,25580,25578,25578
201903072052,25579,25579,25573,25573
201903072053,25574,25574,25569,25573
201903072054,25573,25577,25573,25577
201903072055,25577,25578,25574,25577
201903072056,25578,25578,25574,25575
201903072057,25575,25576,25575,25576
201903072058,25576,25578,25576,25577
201903072059,25578,25578,25575,25576
201903072100,25575,25575,25572,25573
201903072101,25573,25580,25573,25579
201903072102,25579,25579,25576,25577
201903072103,25577,25579,25576,25579
201903072104,25579,25580,25578,25578
201903072105,25578,25579,25578,25579
201903072106,25579,25585,25578,25584
201903072107,25584,25590,25584,25590
201903072108,25590,25594,25589,25594
201903072109,25594,25597,25594,25594
201903072110,25594,25594,25593,25593
201903072111,25593,25602,25593,25601
201903072112,25601,25606,25601,25605
201903072113,25606,25609,25605,25606
201903072114,25607,25608,25606,25608
201903072115,25608,25609,25608,25608
201903072116,25608,25609,25605,25607
201903072117,25606,25608,25606,25608
201903072118,25608,25609,25605,25606
201903072119,25606,25606,25604,25606
201903072120,25606,25608,25605,25605
201903072121,25606,25607,25606,25607
201903072122,25607,25610,25607,25610
201903072123,25610,25610,25607,25608
201903072124,25608,25608,25604,25604
201903072125,25604,25605,25604,25605
201903072126,25605,25607,25605,25606
201903072127,25606,25607,25606,25606
201903072128,25606,25608,25606,25608
201903072129,25608,25609,25608,25608
201903072130,25609,25609,25604,25605
201903072131,25605,25606,25601,25602
201903072132,25602,25603,25601,25602
201903072133,25602,25605,25601,25601
201903072134,25601,25603,25601,25602
201903072135,25603,25604,25601,25601
201903072136,25601,25601,25598,25600
201903072137,25600,25604,25600,25603
201903072138,25603,25603,25601,25603
201903072139,25603,25606,25601,25605
201903072140,25605,25605,25603,25604
201903072141,25604,25604,25600,25600
201903072142,25600,25601,25599,25600
201903072143,25600,25601,25598,25600
201903072144,25600,25602,25598,25602
201903072145,25602,25630,25601,25628
201903072146,25627,25630,25615,25616
201903072147,25616,25618,25607,25609
201903072148,25609,25616,25609,25612
201903072149,25612,25615,25609,25610
201903072150,25610,25617,25609,25617
201903072151,25617,25623,25614,25621
201903072152,25620,25620,25615,25615
201903072153,25615,25620,25615,25618
201903072154,25618,25621,25616,25619
201903072155,25620,25623,25618,25623
201903072156,25623,25625,25622,25625
201903072157,25624,25627,25624,25624
201903072158,25624,25633,25624,25633
201903072159,25633,25659,25632,25659
201903072200,25660,25660,25650,25650
201903072201,25650,25651,25647,25647
201903072202,25648,25649,25645,25648
201903072203,25647,25654,25647,25653
201903072204,25653,25666,25651,25666
201903072205,25666,25675,25663,25670
201903072206,25669,25684,25668,25682
201903072207,25682,25683,25678,25683
201903072208,25683,25687,25682,25687
201903072209,25687,25692,25687,25692
201903072210,25692,25694,25687,25688
201903072211,25688,25688,25683,25683
201903072212,25683,25683,25678,25681
201903072213,25682,25682,25678,25678
201903072214,25679,25683,25679,25682
201903072215,25682,25686,25677,25678
201903072216,25678,25678,25670,25672
201903072217,25672,25677,25671,25677
201903072218,25677,25678,25676,25677
201903072219,25677,25680,25677,25678
201903072220,25678,25680,25676,25680
201903072221,25680,25692,25679,25690
201903072222,25690,25702,25690,25696
201903072223,25696,25696,25693,25695
201903072224,25695,25696,25691,25691
201903072225,25691,25692,25687,25692
201903072226,25691,25692,25691,25692
201903072227,25692,25693,25691,25693
201903072228,25692,25692,25690,25691
201903072229,25692,25693,25690,25691
201903072230,25691,25692,25678,25678
201903072231,25678,25680,25674,25676
201903072232,25676,25682,25675,25680
201903072233,25680,25685,25676,25685
201903072234,25685,25686,25682,25684
201903072235,25684,25688,25682,25687
201903072236,25688,25691,25686,25689
201903072237,25689,25696,25687,25694
201903072238,25694,25705,25694,25705
201903072239,25705,25705,25686,25691
201903072240,25691,25700,25691,25697
201903072241,25697,25705,25697,25704
201903072242,25704,25704,25697,25700
201903072243,25700,25702,25699,25700
201903072244,25700,25701,25696,25696
201903072245,25695,25696,25685,25687
201903072246,25686,25691,25684,25684
201903072247,25684,25684,25671,25671
201903072248,25671,25676,25669,25669
201903072249,25669,25673,25668,25669
201903072250,25669,25671,25667,25669
201903072251,25670,25670,25647,25649
201903072252,25649,25653,25644,25651
201903072253,25652,25652,25630,25630
201903072254,25627,25634,25626,25630
201903072255,25630,25630,25619,25624
201903072256,25624,25633,25620,25631
201903072257,25632,25636,25631,25635
201903072258,25635,25638,25634,25638
201903072259,25638,25640,25632,25633
201903072300,25633,25643,25633,25643
201903072301,25643,25648,25643,25648
201903072302,25648,25655,25646,25653
201903072303,25652,25654,25646,25648
201903072304,25648,25648,25642,25642
201903072305,25642,25643,25635,25635
201903072306,25635,25638,25635,25638
201903072307,25638,25646,25636,25645
201903072308,25645,25647,25637,25639
201903072309,25639,25646,25637,25641
201903072310,25641,25643,25631,25631
201903072311,25631,25631,25613,25617
201903072312,25618,25625,25618,25621
201903072313,25621,25623,25617,25620
201903072314,25620,25625,25619,25621
201903072315,25621,25633,25621,25629
201903072316,25629,25630,25626,25629
201903072317,25629,25630,25626,25628
201903072318,25627,25631,25627,25629
201903072319,25629,25630,25625,25625
201903072320,25625,25625,25613,25613
201903072321,25616,25621,25615,25620
201903072322,25620,25623,25616,25619
201903072323,25618,25620,25615,25618
201903072324,25618,25619,25611,25611
201903072325,25612,25618,25612,25615
201903072326,25615,25623,25615,25621
201903072327,25621,25623,25618,25618
201903072328,25618,25618,25605,25613
201903072329,25613,25618,25610,25610
201903072330,25610,25612,25597,25601
201903072331,25601,25609,25592,25608
201903072332,25608,25614,25592,25614
201903072333,25614,25620,25595,25595
201903072334,25595,25600,25591,25599
201903072335,25599,25599,25566,25569
201903072336,25569,25581,25563,25567
201903072337,25567,25567,25544,25547
201903072338,25547,25559,25538,25540
201903072339,25540,25541,25526,25535
201903072340,25532,25548,25520,25546
201903072341,25546,25553,25535,25539
201903072342,25539,25539,25504,25507
201903072343,25505,25517,25504,25516
201903072344,25516,25520,25509,25512
201903072345,25512,25512,25469,25472
201903072346,25472,25475,25458,25472
201903072347,25473,25487,25472,25482
201903072348,25482,25484,25470,25475
201903072349,25474,25480,25458,25462
201903072350,25462,25474,25457,25457
201903072351,25457,25457,25442,25450
201903072352,25451,25454,25408,25412
201903072353,25412,25427,25405,25419
201903072354,25419,25432,25418,25428
201903072355,25428,25444,25421,25441
201903072356,25441,25442,25420,25425
201903072357,25425,25443,25424,25437
201903072358,25436,25436,25427,25434
201903072359,25434,25447,25427,25446
201903080000,25446,25446,25430,25440
201903080001,25440,25440,25418,25426
201903080002,25426,25426,25405,25425
201903080003,25427,25427,25406,25415
201903080004,25415,25422,25411,25420
201903080005,25420,25439,25416,25439
201903080006,25439,25440,25406,25409
201903080007,25409,25428,25408,25421
201903080008,25421,25430,25412,25426
201903080009,25427,25427,25409,25410
201903080010,25410,25419,25402,25403
201903080011,25403,25416,25400,25408
201903080012,25409,25412,25400,25407
201903080013,25407,25416,25402,25402
201903080014,25403,25407,25397,25405
201903080015,25405,25408,25398,25408
201903080016,25408,25418,25403,25403
201903080017,25403,25403,25366,25369
201903080018,25369,25374,25355,25355
201903080019,25355,25369,25354,25357
201903080020,25357,25357,25337,25346
201903080021,25346,25353,25345,25351
201903080022,25351,25374,25349,25369
201903080023,25370,25380,25370,25376
201903080024,25377,25379,25364,25371
201903080025,25371,25382,25370,25381
201903080026,25381,25385,25373,25382
201903080027,25382,25389,25371,25388
201903080028,25388,25393,25385,25388
201903080029,25389,25400,25389,25399
201903080030,25400,25400,25379,25395
201903080031,25395,25405,25393,25400
201903080032,25400,25407,25399,25406
201903080033,25406,25415,25399,25411
201903080034,25411,25424,25411,25417
201903080035,25417,25424,25415,25423
201903080036,25422,25425,25402,25411
201903080037,25411,25416,25400,25405
201903080038,25405,25405,25397,25397
201903080039,25397,25401,25395,25398
201903080040,25398,25398,25381,25383
201903080041,25383,25388,25376,25384
201903080042,25383,25390,25373,25385
201903080043,25385,25385,25361,25364
201903080044,25364,25374,25362,25369
201903080045,25366,25391,25366,25387
201903080046,25387,25403,25385,25403
201903080047,25403,25410,25400,25409
201903080048,25409,25413,25406,25408
201903080049,25407,25420,25407,25419
201903080050,25419,25424,25409,25411
201903080051,25411,25418,25405,25405
201903080052,25406,25417,25406,25407
201903080053,25406,25421,25406,25418
201903080054,25418,25426,25417,25426
201903080055,25427,25439,25427,25437
201903080056,25437,25437,25419,25426
201903080057,25426,25427,25420,25427
201903080058,25428,25434,25419,25419
201903080059,25420,25429,25418,25418
201903080100,25418,25422,25414,25417
201903080101,25417,25417,25400,25411
201903080102,25412,25424,25410,25410
201903080103,25411,25430,25409,25430
201903080104,25430,25430,25400,25400
201903080105,25400,25408,25400,25401
201903080106,25401,25407,25397,25398
201903080107,25398,25400,25388,25391
201903080108,25391,25405,25388,25404
201903080109,25404,25411,25399,25411
201903080110,25411,25420,25411,25412
201903080111,25412,25419,25402,25415
201903080112,25415,25415,25408,25413
201903080113,25414,25418,25410,25412
201903080114,25412,25424,25409,25424
201903080115,25424,25425,25406,25412
201903080116,25412,25417,25402,25407
201903080117,25407,25413,25401,25409
201903080118,25408,25410,25380,25385
201903080119,25382,25393,25378,25393
201903080120,25393,25394,25386,25392
201903080121,25392,25392,25375,25381
201903080122,25381,25392,25377,25391
201903080123,25391,25393,25385,25386
201903080124,25386,25397,25386,25394
201903080125,25394,25405,25394,25403
201903080126,25403,25418,25403,25417
201903080127,25416,25419,25409,25414
201903080128,25414,25428,25412,25428
201903080129,25428,25428,25419,25422
201903080130,25422,25440,25422,25435
201903080131,25435,25455,25433,25446
201903080132,25446,25458,25443,25457
201903080133,25457,25462,25455,25457
201903080134,25457,25462,25453,25453
201903080135,25453,25458,25451,25456
201903080136,25457,25465,25456,25457
201903080137,25456,25466,25456,25463
201903080138,25463,25468,25459,25463
201903080139,25462,25465,25455,25455
201903080140,25456,25459,25447,25449
201903080141,25450,25453,25447,25449
201903080142,25449,25457,25449,25455
201903080143,25455,25472,25455,25463
201903080144,25463,25468,25462,25468
201903080145,25468,25478,25468,25469
201903080146,25469,25472,25460,25464
201903080147,25464,25469,25460,25460
201903080148,25460,25464,25457,25457
201903080149,25457,25462,25456,25457
201903080150,25458,25461,25455,25455
201903080151,25455,25457,25447,25448
201903080152,25448,25463,25448,25461
201903080153,25461,25470,25454,25458
201903080154,25458,25458,25447,25449
201903080155,25449,25457,25445,25446
201903080156,25446,25453,25444,25452
201903080157,25452,25457,25444,25457
201903080158,25456,25461,25448,25451
201903080159,25452,25452,25444,25448
201903080200,25448,25448,25434,25438
201903080201,25438,25438,25425,25428
201903080202,25428,25439,25425,25437
201903080203,25437,25438,25425,25426
201903080204,25426,25437,25422,25437
201903080205,25436,25440,25431,25440
201903080206,25440,25454,25437,25452
201903080207,25452,25459,25451,25455
201903080208,25454,25464,25454,25459
201903080209,25458,25458,25450,25453
201903080210,25453,25461,25448,25451
201903080211,25450,25459,25450,25459
201903080212,25459,25459,25446,25451
201903080213,25451,25452,25442,25446
201903080214,25446,25454,25440,25454
201903080215,25454,25464,25443,25447
201903080216,25447,25451,25435,25442
201903080217,25442,25444,25438,25443
201903080218,25443,25444,25435,25437
201903080219,25437,25447,25435,25443
201903080220,25444,25446,25436,25440
201903080221,25440,25447,25435,25440
201903080222,25440,25454,25440,25442
201903080223,25442,25445,25437,25444
201903080224,25444,25454,25436,25443
201903080225,25443,25455,25442,25446
201903080226,25446,25459,25444,25456
201903080227,25456,25463,25448,25462
201903080228,25462,25473,25462,25468
201903080229,25469,25469,25460,25461
201903080230,25461,25469,25453,25462
201903080231,25462,25469,25456,25469
201903080232,25469,25471,25418,25429
201903080233,25429,25462,25422,25450
201903080234,25450,25486,25447,25475
201903080235,25476,25477,25464,25470
201903080236,25469,25475,25463,25464
201903080237,25464,25472,25460,25470
201903080238,25470,25477,25463,25474
201903080239,25474,25478,25468,25474
201903080240,25474,25485,25472,25483
201903080241,25482,25483,25475,25478
201903080242,25478,25485,25477,25484
201903080243,25484,25485,25476,25479
201903080244,25480,25490,25480,25484
201903080245,25484,25502,25484,25502
201903080246,25502,25503,25486,25487
201903080247,25487,25489,25480,25483
201903080248,25483,25487,25477,25486
201903080249,25486,25494,25485,25492
201903080250,25492,25494,25487,25491
201903080251,25491,25493,25487,25492
201903080252,25492,25500,25490,25500
201903080253,25500,25503,25496,25496
201903080254,25496,25529,25495,25527
201903080255,25527,25531,25521,25529
201903080256,25528,25536,25527,25531
201903080257,25531,25533,25527,25530
201903080258,25530,25532,25526,25529
201903080259,25529,25540,25527,25528
201903080300,25528,25529,25519,25522
201903080301,25522,25526,25518,25526
201903080302,25525,25527,25520,25525
201903080303,25525,25533,25525,25533
201903080304,25533,25535,25522,25525
201903080305,25525,25529,25520,25527
201903080306,25527,25527,25517,25518
201903080307,25518,25518,25510,25513
201903080308,25513,25513,25507,25507
201903080309,25507,25514,25502,25514
201903080310,25514,25521,25513,25521
201903080311,25521,25526,25520,25521
201903080312,25521,25531,25521,25525
201903080313,25526,25529,25520,25525
201903080314,25525,25527,25518,25522
201903080315,25522,25533,25522,25530
201903080316,25530,25533,25525,25525
201903080317,25525,25525,25511,25511
201903080318,25512,25515,25509,25512
201903080319,25512,25520,25511,25516
201903080320,25516,25522,25512,25521
201903080321,25522,25528,25517,25517
201903080322,25517,25520,25513,25513
201903080323,25513,25516,25508,25513
201903080324,25513,25516,25508,25510
201903080325,25510,25511,25506,25509
201903080326,25509,25517,25506,25511
201903080327,25512,25515,25508,25515
201903080328,25515,25515,25508,25513
201903080329,25513,25519,25513,25518
201903080330,25518,25519,25512,25514
201903080331,25514,25514,25500,25501
201903080332,25501,25502,25492,25495
201903080333,25495,25505,25494,25497
201903080334,25497,25497,25489,25491
201903080335,25491,25491,25483,25484
201903080336,25483,25491,25482,25489
201903080337,25489,25492,25483,25487
201903080338,25487,25496,25487,25495
201903080339,25496,25501,25494,25498
201903080340,25498,25506,25498,25506
201903080341,25507,25508,25503,25507
201903080342,25507,25514,25507,25512
201903080343,25512,25518,25512,25514
201903080344,25514,25520,25514,25518
201903080345,25517,25522,25517,25519
201903080346,25519,25526,25517,25518
201903080347,25518,25526,25516,25526
201903080348,25526,25532,25525,25530
201903080349,25530,25538,25530,25533
201903080350,25533,25541,25531,25531
201903080351,25531,25531,25524,25527
201903080352,25527,25530,25523,25524
201903080353,25525,25526,25511,25513
201903080354,25513,25524,25512,25519
201903080355,25518,25519,25509,25510
201903080356,25510,25512,25506,25508
201903080357,25508,25513,25507,25511
201903080358,25511,25511,25505,25507
201903080359,25507,25510,25501,25501
201903080400,25501,25518,25501,25516
201903080401,25516,25517,25493,25495
201903080402,25495,25504,25495,25503
201903080403,25503,25508,25501,25504
201903080404,25504,25504,25494,25498
201903080405,25498,25500,25482,25482
201903080406,25482,25488,25472,25478
201903080407,25479,25483,25475,25475
201903080408,25475,25479,25470,25473
201903080409,25473,25480,25473,25478
201903080410,25478,25481,25474,25477
201903080411,25477,25478,25470,25470
201903080412,25470,25471,25463,25465
201903080413,25466,25466,25457,25462
201903080414,25461,25461,25449,25449
201903080415,25449,25449,25442,25446
201903080416,25444,25445,25439,25441
201903080417,25441,25448,25439,25446
201903080418,25446,25450,25442,25449
201903080419,25449,25453,25447,25452
201903080420,25452,25468,25450,25468
201903080421,25468,25468,25459,25466
201903080422,25466,25466,25456,25457
201903080423,25457,25463,25456,25457
201903080424,25457,25458,25452,25453
201903080425,25454,25456,25450,25450
201903080426,25450,25455,25450,25454
201903080427,25454,25462,25453,25462
201903080428,25462,25465,25461,25462
201903080429,25462,25464,25457,25464
201903080430,25464,25473,25463,25471
201903080431,25471,25472,25450,25453
201903080432,25453,25454,25444,25449
201903080433,25449,25449,25435,25437
201903080434,25437,25446,25437,25443
201903080435,25443,25448,25442,25443
201903080436,25443,25448,25441,25445
201903080437,25444,25448,25440,25442
201903080438,25441,25441,25431,25431
201903080439,25432,25432,25423,25431
201903080440,25432,25444,25432,25437
201903080441,25437,25437,25420,25423
201903080442,25423,25433,25420,25431
201903080443,25431,25441,25431,25434
201903080444,25434,25439,25430,25435
201903080445,25435,25439,25432,25436
201903080446,25436,25436,25418,25418
201903080447,25418,25428,25417,25420
201903080448,25420,25421,25403,25405
201903080449,25405,25420,25404,25418
201903080450,25418,25421,25411,25420
201903080451,25421,25426,25412,25415
201903080452,25415,25422,25407,25411
201903080453,25411,25413,25395,25398
201903080454,25398,25416,25397,25416
201903080455,25416,25417,25407,25411
201903080456,25411,25428,25411,25428
201903080457,25427,25427,25400,25403
201903080458,25403,25407,25396,25400
201903080459,25400,25411,25398,25405
201903080500,25405,25407,25387,25396
201903080501,25396,25400,25387,25387
201903080502,25387,25409,25384,25390
201903080503,25390,25399,25381,25384
201903080504,25384,25393,25377,25392
201903080505,25392,25397,25389,25392
201903080506,25392,25393,25383,25389
201903080507,25390,25398,25388,25395
201903080508,25395,25401,25388,25399
201903080509,25400,25409,25398,25404
201903080510,25405,25405,25395,25403
201903080511,25403,25406,25401,25405
201903080512,25405,25412,25403,25410
201903080513,25410,25418,25409,25410
201903080514,25410,25411,25398,25399
201903080515,25399,25411,25399,25406
201903080516,25406,25410,25399,25400
201903080517,25400,25414,25397,25414
201903080518,25413,25416,25409,25409
201903080519,25409,25426,25409,25426
201903080520,25426,25426,25416,25423
201903080521,25422,25434,25418,25434
201903080522,25434,25434,25417,25417
201903080523,25417,25431,25417,25419
201903080524,25419,25429,25416,25426
201903080525,25426,25444,25426,25436
201903080526,25436,25436,25428,25430
201903080527,25430,25430,25416,25419
201903080528,25419,25423,25411,25421
201903080529,25421,25422,25400,25402
201903080530,25402,25410,25400,25409
201903080531,25408,25422,25407,25416
201903080532,25415,25422,25412,25422
201903080533,25422,25433,25421,25432
201903080534,25432,25433,25411,25411
201903080535,25411,25433,25411,25425
201903080536,25425,25431,25424,25428
201903080537,25428,25432,25424,25431
201903080538,25431,25441,25427,25441
201903080539,25441,25453,25437,25451
201903080540,25451,25451,25442,25448
201903080541,25447,25450,25432,25433
201903080542,25433,25437,25430,25433
201903080543,25433,25437,25421,25425
201903080544,25426,25437,25426,25432
201903080545,25432,25447,25420,25445
201903080546,25444,25452,25439,25439
201903080547,25439,25442,25436,25439
201903080548,25439,25442,25435,25442
201903080549,25442,25445,25429,25429
201903080550,25429,25429,25417,25419
201903080551,25419,25419,25413,25414
201903080552,25414,25422,25410,25412
201903080553,25412,25414,25402,25408
201903080554,25408,25427,25405,25421
201903080555,25421,25451,25421,25451
201903080556,25451,25456,25447,25456
201903080557,25456,25467,25455,25463
201903080558,25463,25469,25454,25458
201903080559,25458,25467,25449,25456
201903080600,25458,25467,25458,25460
201903080601,25459,25477,25459,25475
201903080602,25474,25474,25464,25468
201903080603,25468,25475,25468,25471
201903080604,25472,25477,25470,25474
201903080605,25474,25476,25474,25475
201903080606,25474,25476,25472,25473
201903080607,25473,25473,25470,25471
201903080608,25470,25470,25463,25463
201903080609,25463,25464,25461,25464
201903080610,25463,25463,25458,25458
201903080611,25459,25459,25456,25457
201903080612,25457,25457,25454,25457
201903080613,25457,25460,25457,25460
201903080614,25460,25471,25460,25468
