日時,始値(BID),高値(BID),安値(BID),終値(BID)
201903040800,26111,26114,26104,26112
201903040801,26112,26115,26093,26103
201903040802,26103,26103,26100,26101
201903040803,26101,26115,26101,26115
201903040804,26115,26152,26115,26137
201903040805,26137,26153,26137,26142
201903040806,26142,26149,26140,26146
201903040807,26146,26166,26146,26166
201903040808,26166,26167,26157,26157
201903040809,26157,26161,26154,26158
201903040810,26158,26160,26150,26156
201903040811,26156,26161,26149,26149
201903040812,26149,26152,26148,26152
201903040813,26152,26155,26149,26153
201903040814,26153,26155,26150,26150
201903040815,26151,26152,26149,26152
201903040816,26152,26153,26151,26152
201903040817,26152,26158,26150,26150
201903040818,26151,26152,26146,26147
201903040819,26147,26148,26145,26145
201903040820,26145,26147,26143,26143
201903040821,26143,26143,26141,26142
201903040822,26143,26146,26142,26145
201903040823,26144,26153,26144,26150
201903040824,26150,26150,26145,26145
201903040825,26145,26145,26143,26143
201903040826,26143,26147,26143,26147
201903040827,26146,26147,26140,26140
201903040828,26140,26143,26140,26142
201903040829,26142,26145,26142,26142
201903040830,26141,26142,26141,26142
201903040831,26142,26145,26141,26141
201903040832,26141,26145,26141,26145
201903040833,26145,26145,26142,26143
201903040834,26143,26145,26142,26144
201903040835,26146,26147,26145,26146
201903040836,26146,26146,26143,26143
201903040837,26143,26143,26140,26140
201903040838,26140,26143,26140,26143
201903040839,26143,26143,26140,26141
201903040840,26141,26143,26140,26143
201903040841,26144,26145,26143,26145
201903040842,26145,26147,26145,26145
201903040843,26145,26148,26142,26142
201903040844,26142,26143,26140,26140
201903040845,26140,26142,26139,26142
201903040846,26142,26146,26142,26146
201903040847,26146,26146,26141,26141
201903040848,26141,26144,26141,26143
201903040849,26144,26144,26143,26144
201903040850,26144,26146,26144,26146
201903040851,26146,26148,26145,26146
201903040852,26146,26148,26146,26147
201903040853,26147,26147,26146,26147
201903040854,26147,26147,26146,26147
201903040855,26147,26148,26146,26147
201903040856,26147,26149,26147,26148
201903040857,26148,26149,26146,26149
201903040858,26149,26153,26147,26147
201903040859,26147,26150,26146,26148
201903040900,26148,26148,26143,26144
201903040901,26144,26144,26140,26142
201903040902,26142,26142,26138,26140
201903040903,26140,26144,26140,26144
201903040904,26144,26145,26141,26141
201903040905,26141,26143,26141,26142
201903040906,26142,26143,26140,26140
201903040907,26140,26143,26138,26142
201903040908,26142,26142,26134,26137
201903040909,26137,26139,26136,26137
201903040910,26137,26139,26134,26136
201903040911,26136,26137,26132,26132
201903040912,26132,26136,26131,26136
201903040913,26136,26136,26132,26134
201903040914,26134,26136,26132,26135
201903040915,26135,26135,26130,26130
201903040916,26130,26131,26125,26125
201903040917,26125,26133,26125,26133
201903040918,26132,26133,26128,26129
201903040919,26128,26129,26128,26128
201903040920,26128,26128,26127,26127
201903040921,26125,26127,26122,26126
201903040922,26126,26126,26125,26125
201903040923,26125,26127,26125,26126
201903040924,26126,26130,26125,26129
201903040925,26128,26133,26128,26132
201903040926,26132,26135,26131,26135
201903040927,26134,26137,26133,26135
201903040928,26135,26135,26133,26135
201903040929,26135,26137,26135,26137
201903040930,26137,26140,26135,26135
201903040931,26135,26135,26130,26134
201903040932,26134,26137,26133,26137
201903040933,26136,26139,26135,26136
201903040934,26136,26137,26132,26132
201903040935,26133,26135,26132,26133
201903040936,26133,26135,26131,26132
201903040937,26132,26134,26132,26133
201903040938,26133,26135,26132,26132
201903040939,26132,26133,26130,26131
201903040940,26131,26131,26130,26130
201903040941,26130,26130,26127,26128
201903040942,26129,26129,26128,26129
201903040943,26129,26130,26128,26128
201903040944,26128,26129,26127,26129
201903040945,26128,26133,26128,26131
201903040946,26131,26133,26131,26133
201903040947,26132,26134,26132,26133
201903040948,26133,26135,26133,26134
201903040949,26134,26134,26129,26129
201903040950,26129,26130,26128,26129
201903040951,26129,26132,26129,26132
201903040952,26132,26135,26131,26131
201903040953,26131,26134,26131,26134
201903040954,26134,26136,26133,26136
201903040955,26136,26137,26135,26137
201903040956,26137,26139,26135,26139
201903040957,26139,26139,26134,26134
201903040958,26133,26134,26133,26133
201903040959,26133,26136,26132,26134
201903041000,26136,26138,26136,26136
201903041001,26136,26136,26134,26134
201903041002,26134,26135,26133,26134
201903041003,26134,26134,26133,26133
201903041004,26133,26133,26131,26131
201903041005,26131,26132,26130,26131
201903041006,26131,26133,26130,26132
201903041007,26131,26132,26130,26130
201903041008,26130,26134,26130,26134
201903041009,26134,26134,26129,26129
201903041010,26128,26130,26128,26129
201903041011,26129,26129,26124,26125
201903041012,26126,26126,26123,26123
201903041013,26123,26124,26122,26124
201903041014,26123,26124,26121,26124
201903041015,26123,26125,26122,26124
201903041016,26124,26124,26116,26119
201903041017,26119,26121,26117,26118
201903041018,26118,26118,26115,26118
201903041019,26117,26120,26114,26120
201903041020,26120,26126,26118,26125
201903041021,26125,26125,26122,26125
201903041022,26125,26126,26122,26125
201903041023,26125,26126,26124,26125
201903041024,26125,26125,26121,26123
201903041025,26123,26123,26121,26122
201903041026,26123,26126,26122,26123
201903041027,26123,26127,26122,26126
201903041028,26126,26133,26126,26133
201903041029,26134,26134,26129,26133
201903041030,26132,26137,26127,26128
201903041031,26128,26130,26121,26124
201903041032,26123,26130,26122,26129
201903041033,26129,26132,26128,26131
201903041034,26131,26138,26130,26134
201903041035,26134,26137,26133,26133
201903041036,26133,26136,26132,26135
201903041037,26135,26140,26134,26136
201903041038,26136,26137,26130,26131
201903041039,26132,26135,26130,26130
201903041040,26130,26132,26128,26132
201903041041,26132,26136,26132,26133
201903041042,26133,26134,26129,26130
201903041043,26130,26130,26124,26124
201903041044,26123,26129,26123,26127
201903041045,26127,26129,26125,26128
201903041046,26128,26131,26127,26130
201903041047,26130,26132,26126,26126
201903041048,26126,26132,26126,26132
201903041049,26131,26132,26128,26128
201903041050,26128,26129,26126,26126
201903041051,26126,26130,26126,26128
201903041052,26128,26133,26127,26133
201903041053,26133,26133,26131,26133
201903041054,26133,26133,26130,26133
201903041055,26133,26135,26132,26135
201903041056,26135,26137,26134,26135
201903041057,26135,26136,26132,26132
201903041058,26131,26132,26129,26131
201903041059,26131,26135,26131,26135
201903041100,26135,26138,26135,26137
201903041101,26136,26137,26135,26136
201903041102,26136,26138,26134,26135
201903041103,26136,26136,26135,26135
201903041104,26136,26139,26136,26138
201903041105,26138,26139,26135,26137
201903041106,26137,26138,26135,26135
201903041107,26135,26136,26133,26134
201903041108,26134,26136,26133,26133
201903041109,26133,26136,26133,26135
201903041110,26136,26138,26133,26133
201903041111,26133,26133,26129,26132
201903041112,26132,26132,26128,26131
201903041113,26131,26137,26130,26132
201903041114,26132,26138,26132,26136
201903041115,26136,26137,26134,26136
201903041116,26137,26139,26136,26138
201903041117,26138,26138,26136,26138
201903041118,26137,26140,26136,26139
201903041119,26140,26143,26139,26143
201903041120,26143,26146,26142,26145
201903041121,26145,26145,26141,26142
201903041122,26142,26142,26140,26141
201903041123,26141,26143,26140,26143
201903041124,26142,26144,26142,26142
201903041125,26142,26143,26141,26142
201903041126,26141,26143,26141,26142
201903041127,26142,26145,26142,26145
201903041128,26146,26148,26144,26146
201903041129,26148,26148,26144,26145
201903041130,26145,26146,26140,26140
201903041131,26140,26142,26140,26140
201903041132,26140,26140,26137,26137
201903041133,26137,26139,26137,26138
201903041134,26138,26140,26138,26139
201903041135,26138,26139,26137,26138
201903041136,26138,26140,26138,26139
201903041137,26139,26140,26139,26139
201903041138,26140,26140,26138,26139
201903041139,26139,26139,26132,26135
201903041140,26135,26137,26133,26135
201903041141,26135,26135,26132,26135
201903041142,26136,26140,26134,26140
201903041143,26140,26141,26139,26140
201903041144,26139,26141,26139,26140
201903041145,26140,26143,26139,26141
201903041146,26141,26141,26138,26140
201903041147,26140,26142,26140,26141
201903041148,26141,26143,26140,26140
201903041149,26140,26141,26139,26141
201903041150,26141,26141,26138,26141
201903041151,26141,26142,26140,26140
201903041152,26140,26144,26140,26144
201903041153,26144,26146,26143,26143
201903041154,26143,26147,26143,26147
201903041155,26146,26147,26145,26146
201903041156,26147,26148,26146,26147
201903041157,26147,26148,26146,26146
201903041158,26146,26147,26145,26146
201903041159,26146,26146,26142,26144
201903041200,26144,26144,26141,26142
201903041201,26142,26143,26141,26143
201903041202,26144,26148,26143,26146
201903041203,26146,26148,26146,26147
201903041204,26147,26148,26147,26148
201903041205,26148,26148,26146,26147
201903041206,26147,26147,26145,26145
201903041207,26145,26146,26144,26146
201903041208,26146,26147,26144,26146
201903041209,26146,26148,26146,26148
201903041210,26148,26151,26147,26151
201903041211,26150,26151,26149,26150
201903041212,26151,26152,26150,26151
201903041213,26151,26153,26151,26153
201903041214,26154,26154,26150,26150
201903041215,26150,26152,26149,26149
201903041216,26149,26150,26148,26149
201903041217,26149,26149,26148,26148
201903041218,26148,26150,26148,26149
201903041219,26149,26149,26147,26148
201903041220,26148,26149,26148,26148
201903041221,26149,26149,26148,26149
201903041222,26149,26149,26148,26148
201903041223,26148,26149,26147,26147
201903041224,26147,26150,26147,26149
201903041225,26149,26150,26148,26148
201903041226,26148,26149,26148,26148
201903041227,26149,26150,26148,26150
201903041228,26150,26151,26150,26150
201903041229,26150,26151,26149,26150
201903041230,26150,26150,26147,26148
201903041231,26147,26151,26147,26149
201903041232,26150,26152,26149,26151
201903041233,26152,26156,26152,26156
201903041234,26156,26156,26155,26155
201903041235,26155,26156,26155,26156
201903041236,26156,26156,26155,26155
201903041237,26154,26158,26154,26157
201903041238,26158,26159,26156,26156
201903041239,26156,26158,26156,26156
201903041240,26156,26156,26154,26155
201903041241,26155,26157,26154,26156
201903041242,26157,26160,26156,26159
201903041243,26159,26160,26156,26159
201903041244,26159,26163,26158,26163
201903041245,26163,26165,26161,26162
201903041246,26161,26161,26160,26160
201903041247,26160,26161,26160,26160
201903041248,26160,26160,26158,26159
201903041249,26159,26161,26158,26160
201903041250,26160,26160,26159,26159
201903041251,26159,26162,26159,26160
201903041252,26160,26162,26159,26162
201903041253,26162,26162,26161,26161
201903041254,26161,26162,26160,26162
201903041255,26162,26162,26161,26161
201903041256,26161,26162,26160,26161
201903041257,26161,26163,26160,26162
201903041258,26162,26164,26161,26162
201903041259,26162,26162,26160,26162
201903041300,26162,26164,26160,26161
201903041301,26161,26162,26161,26161
201903041302,26161,26161,26158,26158
201903041303,26158,26158,26154,26155
201903041304,26155,26155,26152,26154
201903041305,26154,26157,26154,26157
201903041306,26156,26157,26156,26156
201903041307,26156,26156,26155,26155
201903041308,26154,26155,26154,26155
201903041309,26155,26155,26155,26155
201903041310,26156,26157,26155,26155
201903041311,26155,26157,26155,26156
201903041312,26156,26158,26156,26158
201903041313,26159,26159,26159,26159
201903041314,26159,26159,26158,26158
201903041315,26159,26159,26158,26158
201903041316,26158,26158,26156,26157
201903041317,26157,26158,26157,26157
201903041318,26157,26159,26157,26157
201903041319,26157,26158,26156,26157
201903041320,26157,26157,26156,26157
201903041321,26156,26156,26155,26156
201903041322,26156,26157,26155,26157
201903041323,26156,26157,26155,26156
201903041324,26156,26157,26156,26156
201903041325,26156,26157,26156,26156
201903041326,26156,26159,26156,26157
201903041327,26157,26157,26156,26156
201903041328,26156,26157,26156,26156
201903041329,26156,26157,26156,26157
201903041330,26157,26157,26156,26156
201903041331,26156,26157,26156,26157
201903041332,26157,26157,26156,26157
201903041333,26157,26157,26156,26156
201903041334,26156,26157,26156,26157
201903041335,26157,26157,26155,26156
201903041336,26156,26157,26155,26156
201903041337,26156,26156,26154,26154
201903041338,26154,26155,26154,26155
201903041339,26154,26154,26152,26153
201903041340,26153,26153,26152,26152
201903041341,26152,26153,26152,26152
201903041342,26152,26154,26152,26154
201903041343,26154,26154,26153,26154
201903041344,26153,26154,26153,26154
201903041345,26154,26154,26153,26154
201903041346,26155,26155,26154,26154
201903041347,26154,26154,26153,26154
201903041348,26154,26155,26154,26154
201903041349,26154,26155,26154,26154
201903041350,26154,26154,26153,26154
201903041351,26154,26155,26154,26154
201903041352,26154,26155,26154,26155
201903041353,26155,26155,26154,26155
201903041354,26154,26154,26153,26153
201903041355,26153,26154,26153,26153
201903041356,26153,26154,26153,26154
201903041357,26154,26155,26154,26154
201903041358,26154,26155,26154,26155
201903041359,26155,26155,26154,26154
201903041400,26154,26158,26154,26157
201903041401,26157,26159,26155,26155
201903041402,26156,26157,26155,26155
201903041403,26155,26158,26155,26157
201903041404,26156,26159,26156,26157
201903041405,26157,26159,26157,26157
201903041406,26157,26161,26157,26161
201903041407,26161,26162,26159,26161
201903041408,26160,26160,26157,26157
201903041409,26157,26158,26153,26153
201903041410,26153,26153,26145,26145
201903041411,26145,26146,26145,26145
201903041412,26145,26145,26143,26144
201903041413,26144,26145,26143,26144
201903041414,26144,26149,26144,26149
201903041415,26150,26150,26143,26144
201903041416,26144,26147,26143,26146
201903041417,26146,26147,26145,26146
201903041418,26146,26147,26144,26147
201903041419,26147,26147,26144,26146
201903041420,26146,26147,26145,26147
201903041421,26147,26150,26147,26150
201903041422,26150,26150,26148,26149
201903041423,26149,26149,26144,26144
201903041424,26144,26144,26142,26143
201903041425,26142,26143,26142,26142
201903041426,26142,26142,26138,26140
201903041427,26140,26142,26139,26142
201903041428,26142,26142,26139,26141
201903041429,26141,26145,26138,26145
201903041430,26145,26145,26140,26140
201903041431,26140,26141,26137,26137
201903041432,26137,26139,26134,26135
201903041433,26134,26137,26133,26134
201903041434,26134,26138,26133,26138
201903041435,26138,26139,26137,26137
201903041436,26137,26137,26136,26137
201903041437,26137,26137,26133,26135
201903041438,26135,26136,26133,26134
201903041439,26134,26137,26134,26136
201903041440,26136,26138,26135,26137
201903041441,26137,26139,26136,26138
201903041442,26138,26140,26138,26138
201903041443,26138,26139,26137,26137
201903041444,26137,26140,26137,26139
201903041445,26139,26141,26138,26139
201903041446,26139,26140,26138,26139
201903041447,26139,26141,26139,26141
201903041448,26141,26141,26140,26140
201903041449,26140,26141,26140,26141
201903041450,26140,26141,26140,26140
201903041451,26140,26142,26137,26140
201903041452,26140,26141,26138,26140
201903041453,26140,26142,26140,26141
201903041454,26141,26142,26140,26142
201903041455,26142,26143,26141,26142
201903041456,26143,26143,26141,26141
201903041457,26141,26143,26141,26142
201903041458,26142,26143,26142,26142
201903041459,26142,26142,26140,26140
201903041500,26140,26141,26137,26138
201903041501,26137,26139,26131,26132
201903041502,26132,26134,26128,26129
201903041503,26130,26130,26128,26129
201903041504,26129,26134,26129,26132
201903041505,26132,26137,26131,26136
201903041506,26136,26136,26133,26133
201903041507,26133,26134,26130,26130
201903041508,26130,26130,26126,26126
201903041509,26126,26133,26126,26131
201903041510,26131,26131,26128,26130
201903041511,26129,26129,26126,26126
201903041512,26126,26128,26124,26127
201903041513,26128,26129,26128,26128
201903041514,26128,26130,26128,26130
201903041515,26130,26130,26124,26125
201903041516,26125,26128,26125,26128
201903041517,26128,26128,26126,26127
201903041518,26127,26128,26125,26125
201903041519,26125,26126,26124,26125
201903041520,26125,26126,26124,26124
201903041521,26124,26127,26124,26126
201903041522,26126,26126,26125,26126
201903041523,26126,26130,26126,26129
201903041524,26129,26131,26128,26129
201903041525,26129,26130,26129,26130
201903041526,26130,26130,26129,26129
201903041527,26128,26132,26128,26131
201903041528,26131,26132,26130,26131
201903041529,26132,26132,26130,26132
201903041530,26131,26132,26130,26130
201903041531,26131,26132,26130,26131
201903041532,26131,26131,26128,26131
201903041533,26131,26132,26131,26131
201903041534,26133,26133,26130,26130
201903041535,26130,26130,26125,26126
201903041536,26126,26127,26125,26126
201903041537,26126,26129,26125,26128
201903041538,26128,26129,26127,26127
201903041539,26127,26129,26125,26128
201903041540,26128,26131,26127,26131
201903041541,26131,26133,26131,26132
201903041542,26132,26139,26132,26139
201903041543,26139,26140,26136,26139
201903041544,26139,26139,26137,26138
201903041545,26138,26139,26137,26139
201903041546,26139,26139,26137,26138
201903041547,26138,26139,26137,26138
201903041548,26138,26144,26137,26141
201903041549,26142,26143,26140,26142
201903041550,26142,26143,26141,26142
201903041551,26142,26142,26141,26141
201903041552,26141,26141,26140,26141
201903041553,26141,26141,26140,26141
201903041554,26141,26141,26140,26141
201903041555,26141,26141,26140,26141
201903041556,26141,26144,26141,26143
201903041557,26143,26143,26141,26142
201903041558,26142,26143,26142,26142
201903041559,26142,26142,26140,26140
201903041600,26140,26140,26128,26130
201903041601,26130,26130,26126,26127
201903041602,26127,26127,26125,26126
201903041603,26127,26130,26126,26129
201903041604,26129,26131,26129,26130
201903041605,26130,26131,26129,26130
201903041606,26130,26132,26130,26132
201903041607,26132,26132,26131,26132
201903041608,26132,26132,26131,26131
201903041609,26130,26131,26129,26129
201903041610,26128,26129,26127,26127
201903041611,26127,26130,26127,26128
201903041612,26128,26133,26128,26133
201903041613,26133,26134,26132,26134
201903041614,26134,26137,26134,26136
201903041615,26135,26138,26132,26132
201903041616,26132,26132,26129,26129
201903041617,26130,26130,26125,26125
201903041618,26125,26128,26125,26128
201903041619,26128,26128,26123,26125
201903041620,26125,26125,26119,26119
201903041621,26119,26120,26118,26120
201903041622,26120,26123,26119,26123
201903041623,26123,26123,26122,26123
201903041624,26123,26125,26122,26125
201903041625,26124,26126,26122,26126
201903041626,26126,26127,26124,26124
201903041627,26124,26128,26121,26127
201903041628,26127,26127,26124,26124
201903041629,26124,26126,26124,26124
201903041630,26124,26125,26118,26119
201903041631,26120,26120,26117,26118
201903041632,26119,26123,26119,26120
201903041633,26120,26123,26120,26122
201903041634,26122,26123,26121,26122
201903041635,26122,26123,26116,26117
201903041636,26117,26117,26115,26116
201903041637,26116,26116,26115,26116
201903041638,26116,26116,26115,26116
201903041639,26115,26115,26109,26112
201903041640,26112,26114,26112,26114
201903041641,26114,26115,26113,26114
201903041642,26114,26116,26113,26115
201903041643,26116,26117,26115,26117
201903041644,26117,26118,26117,26118
201903041645,26118,26120,26117,26118
201903041646,26118,26119,26117,26119
201903041647,26119,26119,26116,26116
201903041648,26116,26118,26115,26116
201903041649,26116,26118,26115,26116
201903041650,26116,26119,26116,26119
201903041651,26119,26119,26117,26118
201903041652,26118,26121,26117,26117
201903041653,26118,26118,26116,26116
201903041654,26116,26118,26115,26117
201903041655,26117,26118,26115,26116
201903041656,26116,26118,26113,26113
201903041657,26114,26114,26112,26113
201903041658,26113,26119,26112,26119
201903041659,26118,26121,26117,26121
201903041700,26121,26121,26112,26115
201903041701,26115,26120,26114,26119
201903041702,26120,26124,26117,26123
201903041703,26123,26125,26122,26123
201903041704,26123,26125,26123,26125
201903041705,26125,26125,26117,26119
201903041706,26119,26119,26113,26115
201903041707,26115,26118,26112,26116
201903041708,26116,26116,26109,26112
201903041709,26112,26112,26109,26110
201903041710,26110,26113,26109,26109
201903041711,26109,26109,26102,26102
201903041712,26102,26107,26101,26101
201903041713,26101,26101,26098,26101
201903041714,26101,26101,26099,26100
201903041715,26100,26100,26093,26100
201903041716,26100,26100,26097,26098
201903041717,26098,26100,26097,26100
201903041718,26100,26103,26100,26102
201903041719,26102,26104,26101,26104
201903041720,26104,26107,26104,26107
201903041721,26107,26110,26106,26109
201903041722,26109,26113,26109,26110
201903041723,26111,26115,26110,26115
201903041724,26114,26117,26114,26116
201903041725,26116,26118,26111,26112
201903041726,26112,26113,26110,26111
201903041727,26111,26112,26109,26109
201903041728,26109,26110,26108,26110
201903041729,26110,26117,26109,26117
201903041730,26116,26116,26113,26114
201903041731,26114,26119,26114,26118
201903041732,26118,26119,26115,26118
201903041733,26118,26118,26114,26116
201903041734,26116,26117,26112,26113
201903041735,26113,26113,26106,26107
201903041736,26107,26111,26107,26110
201903041737,26110,26113,26109,26110
201903041738,26110,26111,26108,26109
201903041739,26109,26111,26108,26111
201903041740,26111,26112,26109,26112
201903041741,26112,26119,26112,26118
201903041742,26118,26121,26113,26114
201903041743,26115,26116,26113,26113
201903041744,26113,26114,26112,26112
201903041745,26112,26112,26110,26111
201903041746,26112,26113,26111,26112
201903041747,26112,26119,26111,26119
201903041748,26119,26121,26118,26120
201903041749,26120,26125,26120,26124
201903041750,26124,26130,26121,26124
201903041751,26124,26125,26120,26123
201903041752,26123,26123,26120,26122
201903041753,26121,26122,26121,26121
201903041754,26120,26121,26118,26121
201903041755,26120,26122,26120,26121
201903041756,26122,26122,26118,26121
201903041757,26121,26124,26120,26124
201903041758,26124,26127,26123,26126
201903041759,26125,26127,26125,26126
201903041800,26126,26128,26125,26126
201903041801,26126,26127,26124,26125
201903041802,26124,26128,26124,26127
201903041803,26126,26128,26125,26126
201903041804,26126,26126,26121,26122
201903041805,26121,26124,26121,26124
201903041806,26124,26128,26123,26128
201903041807,26128,26129,26126,26128
201903041808,26128,26128,26125,26126
201903041809,26126,26127,26125,26126
201903041810,26126,26126,26124,26125
201903041811,26125,26126,26124,26125
201903041812,26125,26125,26123,26124
201903041813,26124,26125,26124,26124
201903041814,26124,26124,26120,26120
201903041815,26120,26121,26120,26121
201903041816,26121,26125,26120,26125
201903041817,26125,26127,26124,26125
201903041818,26125,26126,26123,26125
201903041819,26125,26126,26125,26126
201903041820,26126,26126,26123,26123
201903041821,26123,26124,26121,26124
201903041822,26124,26124,26122,26124
201903041823,26124,26127,26123,26127
201903041824,26127,26128,26124,26127
201903041825,26127,26127,26120,26121
201903041826,26121,26121,26119,26121
201903041827,26122,26122,26117,26119
201903041828,26119,26120,26117,26119
201903041829,26119,26119,26117,26118
201903041830,26118,26118,26116,26116
201903041831,26116,26116,26112,26114
201903041832,26114,26116,26112,26113
201903041833,26114,26121,26113,26121
201903041834,26121,26122,26118,26121
201903041835,26122,26122,26119,26121
201903041836,26122,26124,26122,26124
201903041837,26124,26125,26112,26116
201903041838,26115,26116,26111,26111
201903041839,26111,26111,26106,26108
201903041840,26109,26109,26100,26100
201903041841,26100,26101,26098,26100
201903041842,26100,26105,26099,26104
201903041843,26104,26108,26103,26108
201903041844,26107,26108,26104,26105
201903041845,26105,26105,26099,26102
201903041846,26101,26102,26098,26099
201903041847,26099,26099,26095,26096
201903041848,26095,26096,26090,26091
201903041849,26091,26093,26090,26091
201903041850,26092,26092,26089,26091
201903041851,26091,26094,26090,26093
201903041852,26093,26096,26093,26096
201903041853,26096,26096,26093,26095
201903041854,26095,26097,26093,26097
201903041855,26097,26097,26090,26094
201903041856,26094,26094,26090,26090
201903041857,26090,26101,26088,26101
201903041858,26100,26107,26100,26100
201903041859,26100,26102,26090,26090
201903041900,26089,26089,26083,26089
201903041901,26089,26096,26089,26095
201903041902,26095,26096,26094,26095
201903041903,26095,26095,26088,26090
201903041904,26091,26095,26088,26094
201903041905,26094,26096,26093,26096
201903041906,26096,26096,26095,26096
201903041907,26096,26099,26095,26098
201903041908,26098,26098,26095,26095
201903041909,26095,26098,26095,26098
201903041910,26097,26097,26092,26093
201903041911,26093,26098,26093,26095
201903041912,26095,26100,26095,26100
201903041913,26100,26101,26099,26099
201903041914,26099,26102,26099,26100
201903041915,26100,26105,26099,26103
201903041916,26103,26105,26100,26105
201903041917,26105,26106,26103,26106
201903041918,26106,26106,26099,26099
201903041919,26100,26100,26097,26098
201903041920,26098,26100,26094,26094
201903041921,26093,26095,26089,26089
201903041922,26090,26093,26089,26092
201903041923,26092,26097,26090,26093
201903041924,26093,26094,26092,26092
201903041925,26092,26095,26091,26095
201903041926,26096,26098,26095,26097
201903041927,26097,26100,26093,26094
201903041928,26095,26099,26093,26098
201903041929,26098,26098,26097,26097
201903041930,26097,26099,26096,26098
201903041931,26099,26101,26098,26100
201903041932,26100,26106,26100,26106
201903041933,26106,26109,26104,26108
201903041934,26108,26109,26105,26108
201903041935,26108,26108,26101,26101
201903041936,26101,26103,26099,26101
201903041937,26101,26104,26101,26103
201903041938,26103,26104,26102,26103
201903041939,26103,26105,26101,26101
201903041940,26101,26101,26096,26096
201903041941,26096,26098,26095,26098
201903041942,26098,26098,26094,26095
201903041943,26095,26099,26094,26098
201903041944,26098,26099,26096,26096
201903041945,26097,26098,26096,26097
201903041946,26098,26098,26093,26094
201903041947,26094,26094,26092,26092
201903041948,26093,26095,26092,26095
201903041949,26095,26096,26094,26094
201903041950,26094,26094,26088,26090
201903041951,26090,26090,26087,26088
201903041952,26088,26089,26087,26088
201903041953,26089,26091,26088,26091
201903041954,26091,26096,26090,26095
201903041955,26096,26097,26093,26093
201903041956,26093,26095,26092,26093
201903041957,26093,26094,26092,26093
201903041958,26093,26094,26092,26094
201903041959,26093,26094,26092,26092
201903042000,26092,26093,26088,26091
201903042001,26091,26092,26083,26084
201903042002,26084,26086,26084,26086
201903042003,26085,26086,26084,26086
201903042004,26086,26092,26086,26091
201903042005,26091,26091,26086,26086
201903042006,26086,26087,26085,26086
201903042007,26087,26090,26087,26089
201903042008,26088,26089,26087,26088
201903042009,26088,26088,26084,26086
201903042010,26086,26087,26078,26081
201903042011,26081,26087,26080,26087
201903042012,26087,26090,26086,26090
201903042013,26090,26090,26088,26088
201903042014,26088,26095,26086,26095
201903042015,26094,26094,26091,26091
201903042016,26091,26092,26090,26091
201903042017,26090,26092,26090,26090
201903042018,26090,26090,26087,26089
201903042019,26089,26089,26087,26089
201903042020,26088,26091,26088,26091
201903042021,26091,26095,26091,26095
201903042022,26095,26095,26093,26094
201903042023,26094,26094,26092,26093
201903042024,26093,26094,26091,26094
201903042025,26094,26098,26094,26098
201903042026,26098,26098,26094,26094
201903042027,26094,26098,26094,26098
201903042028,26098,26102,26097,26100
201903042029,26101,26102,26098,26098
201903042030,26098,26102,26098,26102
201903042031,26101,26102,26100,26100
201903042032,26100,26101,26100,26100
201903042033,26100,26100,26099,26100
201903042034,26100,26101,26098,26098
201903042035,26099,26101,26098,26100
201903042036,26100,26100,26095,26096
201903042037,26097,26098,26097,26098
201903042038,26098,26100,26098,26098
201903042039,26098,26100,26097,26098
201903042040,26099,26101,26098,26101
201903042041,26101,26104,26101,26101
201903042042,26101,26104,26101,26104
201903042043,26103,26103,26100,26102
201903042044,26102,26102,26100,26102
201903042045,26102,26105,26101,26103
201903042046,26104,26105,26103,26105
201903042047,26105,26105,26104,26104
201903042048,26104,26104,26101,26102
201903042049,26102,26103,26100,26102
201903042050,26102,26102,26097,26098
201903042051,26097,26098,26096,26096
201903042052,26096,26096,26095,26096
201903042053,26096,26096,26094,26094
201903042054,26093,26097,26093,26096
201903042055,26095,26096,26094,26094
201903042056,26094,26095,26091,26092
201903042057,26092,26095,26091,26094
201903042058,26094,26098,26093,26097
201903042059,26097,26102,26097,26102
201903042100,26102,26107,26100,26106
201903042101,26106,26106,26103,26103
201903042102,26104,26106,26103,26105
201903042103,26105,26109,26105,26108
201903042104,26108,26111,26107,26108
201903042105,26108,26111,26106,26111
201903042106,26111,26118,26110,26118
201903042107,26118,26118,26114,26114
201903042108,26113,26114,26113,26114
201903042109,26114,26115,26111,26114
201903042110,26113,26114,26112,26112
201903042111,26112,26114,26111,26111
201903042112,26111,26111,26111,26111
201903042113,26111,26114,26111,26114
201903042114,26114,26115,26112,26113
201903042115,26113,26114,26113,26114
201903042116,26114,26114,26112,26113
201903042117,26113,26114,26112,26113
201903042118,26112,26113,26112,26113
201903042119,26112,26114,26111,26112
201903042120,26113,26116,26111,26111
201903042121,26111,26114,26111,26114
201903042122,26114,26115,26113,26115
201903042123,26115,26116,26115,26116
201903042124,26116,26117,26115,26115
201903042125,26114,26115,26111,26112
201903042126,26112,26112,26111,26111
201903042127,26112,26113,26111,26113
201903042128,26113,26113,26111,26111
201903042129,26111,26115,26111,26114
201903042130,26114,26114,26112,26114
201903042131,26114,26114,26113,26113
201903042132,26112,26114,26112,26112
201903042133,26112,26115,26112,26114
201903042134,26114,26117,26114,26116
201903042135,26116,26118,26115,26115
201903042136,26115,26117,26114,26116
201903042137,26117,26118,26113,26113
201903042138,26113,26113,26111,26113
201903042139,26113,26113,26111,26111
201903042140,26111,26111,26107,26107
201903042141,26107,26107,26105,26106
201903042142,26105,26111,26105,26111
201903042143,26111,26116,26111,26115
201903042144,26115,26115,26112,26114
201903042145,26114,26115,26111,26111
201903042146,26111,26112,26109,26111
201903042147,26111,26111,26109,26109
201903042148,26109,26109,26108,26109
201903042149,26109,26110,26109,26109
201903042150,26109,26110,26109,26110
201903042151,26109,26110,26109,26109
201903042152,26109,26109,26106,26107
201903042153,26106,26106,26105,26106
201903042154,26106,26107,26106,26106
201903042155,26106,26107,26105,26105
201903042156,26105,26106,26103,26105
201903042157,26105,26110,26105,26106
201903042158,26107,26108,26105,26108
201903042159,26108,26109,26106,26109
201903042200,26109,26109,26102,26103
201903042201,26103,26105,26102,26105
201903042202,26105,26109,26105,26108
201903042203,26108,26118,26108,26118
201903042204,26119,26132,26119,26127
201903042205,26126,26128,26120,26122
201903042206,26122,26122,26119,26120
201903042207,26120,26121,26117,26118
201903042208,26118,26121,26118,26119
201903042209,26119,26119,26115,26115
201903042210,26115,26116,26115,26115
201903042211,26115,26115,26113,26114
201903042212,26115,26117,26115,26115
201903042213,26116,26116,26114,26116
201903042214,26116,26119,26116,26117
201903042215,26118,26121,26116,26120
201903042216,26120,26123,26119,26120
201903042217,26120,26120,26115,26117
201903042218,26117,26118,26116,26116
201903042219,26116,26116,26113,26115
201903042220,26115,26121,26113,26121
201903042221,26121,26125,26121,26122
201903042222,26122,26128,26122,26125
201903042223,26125,26128,26124,26127
201903042224,26126,26126,26122,26122
201903042225,26122,26123,26121,26123
201903042226,26124,26127,26123,26124
201903042227,26124,26124,26122,26122
201903042228,26122,26122,26121,26122
201903042229,26122,26123,26120,26122
201903042230,26122,26126,26121,26126
201903042231,26126,26126,26123,26125
201903042232,26125,26125,26122,26123
201903042233,26123,26124,26123,26123
201903042234,26123,26124,26121,26123
201903042235,26124,26125,26123,26124
201903042236,26124,26128,26124,26127
201903042237,26127,26133,26127,26132
201903042238,26132,26133,26131,26131
201903042239,26130,26130,26128,26129
201903042240,26129,26129,26125,26128
201903042241,26128,26131,26128,26128
201903042242,26128,26129,26128,26129
201903042243,26129,26132,26128,26131
201903042244,26131,26133,26131,26132
201903042245,26131,26131,26128,26130
201903042246,26129,26129,26124,26126
201903042247,26126,26127,26125,26127
201903042248,26127,26129,26126,26127
201903042249,26127,26129,26126,26129
201903042250,26129,26129,26123,26124
201903042251,26124,26125,26122,26123
201903042252,26123,26125,26123,26124
201903042253,26124,26126,26124,26124
201903042254,26124,26125,26122,26123
201903042255,26124,26125,26123,26124
201903042256,26124,26124,26121,26121
201903042257,26121,26125,26119,26124
201903042258,26124,26126,26123,26126
201903042259,26126,26127,26125,26126
201903042300,26126,26131,26126,26131
201903042301,26131,26136,26131,26135
201903042302,26135,26135,26132,26135
201903042303,26135,26135,26132,26133
201903042304,26133,26134,26132,26134
201903042305,26134,26135,26132,26135
201903042306,26135,26137,26135,26136
201903042307,26136,26136,26132,26132
201903042308,26132,26133,26130,26131
201903042309,26131,26134,26131,26133
201903042310,26134,26134,26132,26134
201903042311,26134,26135,26134,26134
201903042312,26134,26134,26132,26132
201903042313,26132,26133,26130,26130
201903042314,26130,26131,26129,26130
201903042315,26130,26132,26130,26131
201903042316,26131,26131,26130,26130
201903042317,26130,26130,26128,26129
201903042318,26130,26130,26128,26130
201903042319,26130,26130,26128,26128
201903042320,26128,26129,26127,26129
201903042321,26129,26132,26129,26131
201903042322,26131,26133,26130,26131
201903042323,26131,26131,26128,26129
201903042324,26129,26130,26127,26127
201903042325,26127,26127,26122,26123
201903042326,26123,26123,26121,26121
201903042327,26121,26123,26120,26123
201903042328,26123,26127,26122,26127
201903042329,26127,26140,26126,26140
201903042330,26140,26153,26139,26143
201903042331,26143,26143,26133,26133
201903042332,26133,26139,26127,26134
201903042333,26134,26135,26122,26125
201903042334,26125,26127,26118,26123
201903042335,26122,26125,26115,26121
201903042336,26121,26130,26114,26115
201903042337,26115,26121,26115,26118
201903042338,26118,26127,26115,26127
201903042339,26127,26138,26122,26133
201903042340,26132,26141,26131,26131
201903042341,26131,26135,26126,26133
201903042342,26134,26140,26118,26119
201903042343,26119,26119,26108,26114
201903042344,26114,26128,26114,26126
201903042345,26126,26126,26109,26109
201903042346,26110,26116,26108,26109
201903042347,26109,26113,26101,26112
201903042348,26112,26113,26099,26101
201903042349,26100,26101,26077,26080
201903042350,26080,26081,26059,26059
201903042351,26059,26061,26048,26061
201903042352,26061,26065,26057,26063
201903042353,26063,26070,26062,26066
201903042354,26066,26069,26061,26063
201903042355,26064,26068,26062,26067
201903042356,26067,26079,26067,26078
201903042357,26078,26090,26075,26088
201903042358,26089,26097,26089,26091
201903042359,26091,26091,26085,26085
201903050000,26085,26096,26085,26096
201903050001,26098,26100,26087,26088
201903050002,26088,26088,26077,26078
201903050003,26078,26084,26070,26083
201903050004,26083,26088,26074,26074
201903050005,26074,26078,26068,26074
201903050006,26074,26080,26065,26065
201903050007,26064,26064,26058,26061
201903050008,26061,26062,26046,26056
201903050009,26056,26056,26049,26055
201903050010,26055,26055,26043,26051
201903050011,26051,26051,26039,26039
201903050012,26039,26047,26035,26037
201903050013,26037,26041,26030,26039
201903050014,26039,26049,26039,26049
201903050015,26049,26051,26040,26043
201903050016,26043,26052,26043,26051
201903050017,26051,26053,26046,26050
201903050018,26049,26056,26049,26056
201903050019,26056,26064,26056,26064
201903050020,26065,26065,26057,26060
201903050021,26060,26060,26055,26059
201903050022,26059,26062,26058,26059
201903050023,26059,26063,26055,26060
201903050024,26060,26065,26060,26063
201903050025,26063,26065,26061,26063
201903050026,26063,26076,26062,26075
201903050027,26075,26080,26071,26074
201903050028,26074,26074,26071,26073
201903050029,26073,26079,26070,26076
201903050030,26076,26087,26076,26080
201903050031,26080,26080,26066,26066
201903050032,26067,26067,26057,26059
201903050033,26059,26068,26055,26068
201903050034,26068,26068,26049,26052
201903050035,26052,26057,26046,26053
201903050036,26053,26058,26049,26051
201903050037,26051,26056,26049,26054
201903050038,26054,26054,26043,26045
201903050039,26045,26055,26045,26053
201903050040,26053,26053,26045,26047
201903050041,26047,26047,26032,26032
201903050042,26033,26039,26031,26033
201903050043,26033,26033,26026,26030
201903050044,26030,26042,26028,26041
201903050045,26041,26045,26034,26044
201903050046,26044,26048,26043,26045
201903050047,26045,26046,26037,26046
201903050048,26046,26055,26046,26052
201903050049,26053,26053,26041,26041
201903050050,26040,26041,26034,26037
201903050051,26037,26037,26025,26028
201903050052,26028,26029,26019,26024
201903050053,26024,26035,26017,26029
201903050054,26029,26029,26007,26008
201903050055,26008,26015,26006,26015
201903050056,26015,26016,25999,26000
201903050057,26000,26004,26000,26001
201903050058,26001,26002,25997,25997
201903050059,25997,25999,25989,25995
201903050100,25995,26005,25990,26004
201903050101,26004,26005,25993,25994
201903050102,25994,25997,25988,25991
201903050103,25991,25994,25985,25994
201903050104,25994,26002,25990,25990
201903050105,25990,25997,25986,25987
201903050106,25987,25993,25986,25987
201903050107,25987,25988,25976,25979
201903050108,25979,25981,25968,25979
201903050109,25979,25979,25960,25960
201903050110,25960,25965,25951,25960
201903050111,25960,25971,25959,25970
201903050112,25969,25979,25969,25979
201903050113,25979,25980,25975,25976
201903050114,25975,25977,25971,25973
201903050115,25973,25973,25962,25966
201903050116,25966,25974,25954,25972
201903050117,25973,25978,25973,25977
201903050118,25977,25983,25977,25982
201903050119,25982,25984,25979,25982
201903050120,25982,25986,25971,25971
201903050121,25971,25976,25958,25959
201903050122,25959,25968,25936,25939
201903050123,25939,25947,25927,25927
201903050124,25926,25930,25912,25918
201903050125,25918,25925,25907,25925
201903050126,25924,25924,25914,25914
201903050127,25914,25920,25905,25914
201903050128,25914,25914,25895,25911
201903050129,25911,25912,25899,25899
201903050130,25901,25904,25884,25902
201903050131,25902,25908,25898,25898
201903050132,25899,25900,25886,25889
201903050133,25888,25888,25861,25863
201903050134,25863,25868,25854,25868
201903050135,25868,25883,25867,25881
201903050136,25881,25889,25878,25880
201903050137,25880,25881,25851,25869
201903050138,25869,25871,25859,25870
201903050139,25870,25872,25859,25860
201903050140,25860,25861,25853,25854
201903050141,25854,25865,25843,25856
201903050142,25855,25856,25833,25842
201903050143,25842,25842,25813,25826
201903050144,25826,25833,25805,25812
201903050145,25813,25825,25804,25813
201903050146,25813,25820,25807,25820
201903050147,25821,25821,25789,25794
201903050148,25795,25809,25787,25801
201903050149,25801,25801,25781,25788
201903050150,25788,25797,25772,25791
201903050151,25790,25792,25776,25782
201903050152,25782,25782,25741,25744
201903050153,25744,25748,25735,25743
201903050154,25743,25757,25742,25752
201903050155,25752,25752,25690,25720
201903050156,25720,25724,25698,25705
201903050157,25706,25725,25705,25717
201903050158,25717,25727,25711,25725
201903050159,25726,25729,25713,25722
201903050200,25721,25730,25707,25725
201903050201,25725,25745,25715,25743
201903050202,25743,25754,25741,25745
201903050203,25745,25752,25740,25751
201903050204,25751,25762,25748,25762
201903050205,25763,25765,25751,25751
201903050206,25750,25750,25731,25739
201903050207,25739,25747,25737,25747
201903050208,25747,25757,25743,25746
201903050209,25746,25753,25744,25749
201903050210,25749,25749,25735,25740
201903050211,25740,25745,25732,25733
201903050212,25733,25737,25723,25726
201903050213,25726,25726,25712,25713
201903050214,25713,25715,25701,25707
201903050215,25707,25715,25702,25709
201903050216,25709,25710,25673,25673
201903050217,25673,25675,25649,25653
201903050218,25653,25664,25645,25645
201903050219,25645,25654,25633,25643
201903050220,25643,25671,25641,25671
201903050221,25671,25676,25657,25667
201903050222,25667,25675,25651,25662
201903050223,25662,25679,25660,25671
201903050224,25673,25674,25652,25661
201903050225,25661,25669,25644,25657
201903050226,25657,25661,25647,25649
201903050227,25652,25665,25647,25662
201903050228,25662,25684,25658,25683
201903050229,25683,25695,25672,25692
201903050230,25694,25708,25683,25707
201903050231,25707,25712,25700,25703
201903050232,25703,25713,25702,25710
201903050233,25710,25722,25703,25703
201903050234,25703,25710,25701,25709
201903050235,25709,25709,25699,25702
201903050236,25702,25702,25685,25685
201903050237,25685,25686,25676,25678
201903050238,25678,25692,25673,25674
201903050239,25674,25694,25674,25681
201903050240,25682,25682,25664,25664
201903050241,25664,25675,25659,25671
201903050242,25671,25671,25659,25663
201903050243,25663,25678,25659,25672
201903050244,25672,25672,25652,25657
201903050245,25657,25658,25644,25645
201903050246,25645,25665,25643,25661
201903050247,25661,25662,25627,25633
201903050248,25633,25639,25620,25631
201903050249,25631,25647,25626,25647
201903050250,25647,25665,25639,25663
201903050251,25665,25665,25655,25657
201903050252,25659,25676,25657,25662
201903050253,25662,25663,25655,25663
201903050254,25663,25670,25661,25667
201903050255,25666,25668,25646,25646
201903050256,25646,25646,25621,25631
201903050257,25631,25653,25630,25650
201903050258,25650,25655,25643,25647
201903050259,25647,25659,25640,25655
201903050300,25656,25656,25632,25633
201903050301,25634,25637,25623,25625
201903050302,25625,25644,25624,25639
201903050303,25639,25643,25628,25636
201903050304,25635,25635,25620,25620
201903050305,25620,25633,25615,25627
201903050306,25627,25632,25610,25619
201903050307,25619,25626,25609,25621
201903050308,25621,25621,25604,25605
201903050309,25605,25616,25604,25609
201903050310,25609,25627,25606,25626
201903050311,25626,25636,25613,25617
201903050312,25617,25632,25617,25620
201903050313,25620,25633,25616,25627
201903050314,25627,25639,25623,25625
201903050315,25626,25638,25620,25634
201903050316,25634,25652,25634,25649
201903050317,25649,25656,25643,25654
201903050318,25654,25662,25650,25660
201903050319,25660,25661,25648,25653
201903050320,25653,25668,25653,25663
201903050321,25663,25667,25657,25665
201903050322,25664,25669,25661,25667
201903050323,25667,25677,25667,25672
201903050324,25672,25682,25672,25677
201903050325,25678,25679,25663,25664
201903050326,25664,25673,25664,25673
201903050327,25673,25673,25669,25671
201903050328,25670,25689,25669,25687
201903050329,25687,25695,25685,25691
201903050330,25691,25701,25690,25701
201903050331,25701,25706,25695,25697
201903050332,25696,25703,25696,25699
201903050333,25699,25701,25695,25699
201903050334,25699,25704,25687,25687
201903050335,25687,25693,25682,25682
201903050336,25682,25687,25682,25682
201903050337,25682,25694,25682,25688
201903050338,25688,25690,25681,25682
201903050339,25682,25693,25677,25679
201903050340,25679,25685,25676,25682
201903050341,25681,25694,25681,25687
201903050342,25687,25699,25687,25694
201903050343,25694,25703,25694,25703
201903050344,25703,25713,25701,25710
201903050345,25709,25710,25700,25700
201903050346,25700,25700,25688,25691
201903050347,25691,25698,25689,25696
201903050348,25696,25710,25696,25705
201903050349,25705,25709,25701,25708
201903050350,25708,25714,25705,25714
201903050351,25714,25716,25695,25696
201903050352,25695,25711,25695,25709
201903050353,25709,25719,25709,25718
201903050354,25718,25733,25717,25729
201903050355,25729,25741,25728,25739
201903050356,25739,25744,25732,25732
201903050357,25731,25731,25727,25729
201903050358,25729,25733,25729,25733
201903050359,25733,25745,25733,25738
201903050400,25738,25749,25737,25748
201903050401,25748,25751,25731,25731
201903050402,25730,25734,25725,25725
201903050403,25725,25729,25723,25726
201903050404,25726,25736,25725,25736
201903050405,25735,25738,25730,25730
201903050406,25730,25747,25730,25746
201903050407,25746,25758,25741,25741
201903050408,25742,25742,25734,25735
201903050409,25735,25738,25733,25733
201903050410,25733,25737,25727,25737
201903050411,25737,25738,25722,25722
201903050412,25722,25746,25722,25742
201903050413,25742,25744,25729,25735
201903050414,25735,25746,25734,25743
201903050415,25742,25753,25733,25748
201903050416,25747,25764,25747,25759
201903050417,25758,25758,25749,25751
201903050418,25750,25756,25747,25751
201903050419,25751,25767,25751,25767
201903050420,25767,25767,25757,25757
201903050421,25756,25760,25753,25757
201903050422,25756,25767,25756,25767
201903050423,25767,25775,25761,25775
201903050424,25775,25785,25775,25785
201903050425,25785,25786,25777,25777
201903050426,25778,25778,25774,25778
201903050427,25779,25792,25779,25792
201903050428,25792,25804,25791,25803
201903050429,25803,25803,25796,25798
201903050430,25798,25805,25790,25792
201903050431,25792,25794,25789,25790
201903050432,25790,25791,25784,25790
201903050433,25790,25790,25777,25779
201903050434,25779,25781,25776,25777
201903050435,25777,25781,25777,25779
201903050436,25779,25779,25772,25773
201903050437,25773,25791,25772,25777
201903050438,25777,25785,25777,25781
201903050439,25781,25788,25776,25776
201903050440,25776,25796,25775,25792
201903050441,25792,25795,25782,25783
201903050442,25783,25793,25779,25790
201903050443,25790,25791,25782,25788
201903050444,25788,25794,25781,25792
201903050445,25792,25794,25781,25783
201903050446,25783,25789,25783,25788
201903050447,25788,25788,25776,25780
201903050448,25780,25781,25775,25777
201903050449,25777,25777,25765,25770
201903050450,25770,25785,25770,25785
201903050451,25785,25801,25778,25801
201903050452,25801,25811,25801,25810
201903050453,25810,25812,25794,25800
201903050454,25800,25803,25789,25796
201903050455,25796,25798,25791,25795
201903050456,25795,25797,25792,25797
201903050457,25797,25797,25781,25786
201903050458,25786,25787,25780,25780
201903050459,25780,25780,25769,25771
201903050500,25770,25779,25765,25766
201903050501,25766,25767,25750,25750
201903050502,25750,25752,25744,25749
201903050503,25750,25758,25750,25754
201903050504,25754,25754,25745,25748
201903050505,25748,25749,25743,25749
201903050506,25749,25749,25742,25745
201903050507,25745,25749,25740,25749
201903050508,25748,25757,25748,25754
201903050509,25754,25758,25742,25744
201903050510,25744,25755,25742,25755
201903050511,25755,25769,25755,25762
201903050512,25762,25765,25760,25762
201903050513,25762,25764,25751,25752
201903050514,25753,25761,25746,25755
201903050515,25754,25757,25742,25751
201903050516,25750,25765,25749,25765
201903050517,25765,25765,25761,25765
201903050518,25765,25768,25764,25768
201903050519,25768,25776,25766,25771
201903050520,25771,25778,25764,25775
201903050521,25775,25784,25775,25776
201903050522,25775,25775,25764,25765
201903050523,25766,25766,25750,25750
201903050524,25750,25763,25750,25759
201903050525,25759,25773,25759,25772
201903050526,25772,25780,25772,25778
201903050527,25778,25788,25776,25787
201903050528,25787,25791,25782,25782
201903050529,25782,25782,25770,25770
201903050530,25770,25772,25758,25769
201903050531,25769,25783,25769,25779
201903050532,25779,25790,25772,25789
201903050533,25788,25800,25788,25796
201903050534,25796,25798,25786,25792
201903050535,25792,25799,25790,25790
201903050536,25790,25790,25775,25786
201903050537,25785,25812,25785,25809
201903050538,25809,25809,25797,25804
201903050539,25804,25807,25794,25795
201903050540,25796,25806,25793,25802
201903050541,25802,25805,25792,25795
201903050542,25795,25798,25778,25782
201903050543,25784,25785,25780,25785
201903050544,25785,25806,25784,25805
201903050545,25805,25811,25797,25800
201903050546,25800,25811,25799,25810
201903050547,25810,25811,25807,25808
201903050548,25807,25813,25804,25805
201903050549,25803,25805,25786,25786
201903050550,25786,25798,25786,25797
201903050551,25797,25797,25775,25780
201903050552,25781,25787,25777,25782
201903050553,25782,25797,25779,25795
201903050554,25795,25809,25795,25796
201903050555,25796,25802,25781,25781
201903050556,25781,25797,25781,25786
201903050557,25786,25793,25784,25791
201903050558,25791,25804,25791,25801
201903050559,25800,25825,25800,25824
201903050600,25818,25820,25811,25818
201903050601,25818,25826,25818,25826
201903050602,25826,25827,25816,25821
201903050603,25821,25822,25818,25819
201903050604,25819,25819,25814,25818
201903050605,25818,25824,25818,25822
201903050606,25821,25822,25818,25818
201903050607,25818,25819,25817,25817
201903050608,25817,25817,25814,25816
201903050609,25816,25817,25815,25816
201903050610,25816,25816,25811,25812
201903050611,25812,25814,25810,25810
201903050612,25810,25812,25810,25810
201903050613,25810,25811,25804,25809
201903050614,25809,25818,25809,25812
