日時,始値(BID),高値(BID),安値(BID),終値(BID)
201906120700,1326.6,1327,1326.6,1326.9
201906120701,1326.9,1326.9,1326.9,1326.9
201906120702,1326.9,1326.9,1326.8,1326.8
201906120703,1326.9,1326.9,1326.8,1326.8
201906120704,1326.8,1326.8,1326.8,1326.8
201906120705,1326.8,1326.8,1326.8,1326.8
201906120706,1326.8,1326.8,1326.8,1326.8
201906120707,1326.8,1326.9,1326.8,1326.8
201906120708,1326.8,1326.8,1326.8,1326.8
201906120709,1326.8,1326.9,1326.8,1326.8
201906120710,1326.8,1326.9,1326.8,1326.8
201906120711,1326.8,1326.9,1326.8,1326.8
201906120712,1326.8,1326.8,1326.8,1326.8
201906120713,1326.8,1326.8,1326.8,1326.8
201906120714,1326.8,1326.8,1326.8,1326.8
201906120715,1326.8,1326.8,1326.8,1326.8
201906120716,1326.8,1326.8,1326.7,1326.7
201906120717,1326.7,1326.7,1326.7,1326.7
201906120718,1326.7,1326.7,1326.7,1326.7
201906120719,1326.7,1326.7,1326.6,1326.6
201906120720,1326.6,1326.8,1326.6,1326.8
201906120721,1326.8,1326.9,1326.8,1326.9
201906120722,1326.9,1326.9,1326.9,1326.9
201906120723,1326.9,1327,1326.9,1327
201906120724,1327,1327,1327,1327
201906120725,1327,1327.1,1327,1327
201906120726,1327,1327.1,1327,1327
201906120727,1327,1327.1,1327,1327.1
201906120728,1327.1,1327.1,1327,1327
201906120729,1327,1327.1,1327,1327
201906120730,1327,1327,1327,1327
201906120731,1327,1327,1327,1327
201906120732,1327,1327.1,1326.9,1326.9
201906120733,1326.9,1327,1326.9,1327
201906120734,1327,1327,1327,1327
201906120735,1327,1327,1327,1327
201906120736,1327,1327,1327,1327
201906120737,1327,1327.1,1327,1327
201906120738,1327,1327,1327,1327
201906120739,1327,1327,1327,1327
201906120740,1327,1327,1326.9,1326.9
201906120741,1326.9,1326.9,1326.9,1326.9
201906120742,1326.9,1326.9,1326.8,1326.9
201906120743,1326.9,1326.9,1326.9,1326.9
201906120744,1326.9,1326.9,1326.9,1326.9
201906120745,1326.9,1326.9,1326.8,1326.9
201906120746,1326.9,1326.9,1326.9,1326.9
201906120747,1326.9,1326.9,1326.8,1326.9
201906120748,1326.9,1327,1326.9,1327
201906120749,1327,1327,1327,1327
201906120750,1327.1,1327.1,1326.9,1326.9
201906120751,1326.9,1327,1326.9,1327
201906120752,1327,1327,1326.8,1326.9
201906120753,1326.9,1326.9,1326.9,1326.9
201906120754,1326.9,1326.9,1326.9,1326.9
201906120755,1326.9,1326.9,1326.9,1326.9
201906120756,1326.9,1326.9,1326.9,1326.9
201906120757,1326.9,1326.9,1326.9,1326.9
201906120758,1326.9,1326.9,1326.9,1326.9
201906120759,1326.9,1326.9,1326.9,1326.9
201906120800,1326.9,1327.2,1326.9,1327.1
201906120801,1327.1,1327.1,1327,1327.1
201906120802,1327.1,1327.1,1327.1,1327.1
201906120803,1327.1,1327.1,1326.9,1327
201906120804,1327,1327.1,1327,1327
201906120805,1327,1327,1326.7,1326.8
201906120806,1326.8,1326.8,1326.8,1326.8
201906120807,1326.8,1326.9,1326.8,1326.9
201906120808,1326.9,1326.9,1326.8,1326.8
201906120809,1326.8,1326.9,1326.8,1326.8
201906120810,1326.8,1327,1326.8,1327
201906120811,1327,1327,1326.9,1327
201906120812,1327,1327,1326.8,1326.8
201906120813,1326.8,1326.8,1326.8,1326.8
201906120814,1326.8,1326.8,1326.8,1326.8
201906120815,1326.8,1326.8,1326.8,1326.8
201906120816,1326.8,1326.8,1326.7,1326.8
201906120817,1326.8,1326.9,1326.8,1326.8
201906120818,1326.8,1326.9,1326.7,1326.7
201906120819,1326.7,1326.7,1326.7,1326.7
201906120820,1326.7,1326.7,1326.7,1326.7
201906120821,1326.7,1326.7,1326.7,1326.7
201906120822,1326.7,1326.7,1326.7,1326.7
201906120823,1326.7,1326.7,1326.7,1326.7
201906120824,1326.7,1326.7,1326.7,1326.7
201906120825,1326.7,1326.8,1326.7,1326.8
201906120826,1326.8,1326.8,1326.7,1326.7
201906120827,1326.7,1326.7,1326.7,1326.7
201906120828,1326.7,1326.7,1326.7,1326.7
201906120829,1326.7,1326.7,1326.6,1326.6
201906120830,1326.6,1326.6,1326.6,1326.6
201906120831,1326.6,1326.6,1326.5,1326.6
201906120832,1326.6,1326.6,1326.6,1326.6
201906120833,1326.6,1326.8,1326.6,1326.8
201906120834,1326.8,1326.8,1326.8,1326.8
201906120835,1326.8,1326.9,1326.8,1326.8
201906120836,1326.8,1326.8,1326.8,1326.8
201906120837,1326.8,1326.9,1326.8,1326.9
201906120838,1326.9,1326.9,1326.9,1326.9
201906120839,1326.9,1326.9,1326.9,1326.9
201906120840,1326.9,1326.9,1326.9,1326.9
201906120841,1326.9,1327,1326.9,1327
201906120842,1327,1327,1326.9,1326.9
201906120843,1326.9,1327,1326.9,1327
201906120844,1327,1327,1327,1327
201906120845,1327,1327,1326.9,1326.9
201906120846,1326.9,1327,1326.8,1326.9
201906120847,1326.9,1327,1326.8,1326.9
201906120848,1326.9,1327.2,1326.9,1327.2
201906120849,1327.1,1327.2,1327.1,1327.1
201906120850,1327.1,1327.2,1327.1,1327.2
201906120851,1327.2,1327.3,1327.2,1327.3
201906120852,1327.3,1327.6,1327.3,1327.5
201906120853,1327.5,1327.6,1327.4,1327.6
201906120854,1327.6,1327.6,1327.4,1327.4
201906120855,1327.4,1327.7,1327.4,1327.7
201906120856,1327.7,1327.7,1327.4,1327.4
201906120857,1327.4,1327.5,1327.4,1327.5
201906120858,1327.5,1327.5,1327.4,1327.4
201906120859,1327.4,1327.7,1327.4,1327.7
201906120900,1327.7,1327.7,1327.6,1327.7
201906120901,1327.7,1327.7,1327.6,1327.6
201906120902,1327.6,1327.7,1327.3,1327.3
201906120903,1327.3,1327.3,1327.2,1327.3
201906120904,1327.3,1327.5,1327.3,1327.5
201906120905,1327.5,1327.5,1327.4,1327.5
201906120906,1327.5,1327.7,1327.5,1327.6
201906120907,1327.6,1327.6,1327.4,1327.5
201906120908,1327.5,1327.6,1327.4,1327.4
201906120909,1327.4,1327.6,1327.4,1327.4
201906120910,1327.4,1327.5,1327.4,1327.5
201906120911,1327.5,1327.6,1327.5,1327.6
201906120912,1327.6,1327.7,1327.6,1327.6
201906120913,1327.6,1327.9,1327.6,1327.9
201906120914,1327.9,1327.9,1327.8,1327.9
201906120915,1327.9,1328,1327.8,1327.9
201906120916,1327.9,1327.9,1327.7,1327.8
201906120917,1327.8,1327.8,1327.6,1327.6
201906120918,1327.6,1327.6,1327.6,1327.6
201906120919,1327.6,1327.6,1327.4,1327.6
201906120920,1327.6,1327.7,1327.6,1327.6
201906120921,1327.6,1327.8,1327.6,1327.8
201906120922,1327.8,1327.9,1327.8,1327.8
201906120923,1327.8,1327.9,1327.8,1327.8
201906120924,1327.8,1327.9,1327.8,1327.9
201906120925,1327.9,1327.9,1327.8,1327.8
201906120926,1327.7,1327.8,1327.5,1327.5
201906120927,1327.5,1327.5,1327.2,1327.2
201906120928,1327.2,1327.2,1327.1,1327.1
201906120929,1327.1,1327.1,1326.9,1327.1
201906120930,1327.1,1327.1,1326.9,1327
201906120931,1327,1327,1326.8,1327
201906120932,1327,1327,1326.9,1327
201906120933,1327,1327.1,1327,1327
201906120934,1327,1327,1327,1327
201906120935,1327,1327,1326.7,1326.8
201906120936,1326.8,1326.8,1326.7,1326.7
201906120937,1326.7,1326.7,1326.6,1326.6
201906120938,1326.6,1326.6,1326.4,1326.4
201906120939,1326.4,1326.6,1326.4,1326.6
201906120940,1326.6,1326.6,1326.4,1326.4
201906120941,1326.4,1326.4,1326.3,1326.3
201906120942,1326.3,1326.4,1326.2,1326.3
201906120943,1326.3,1326.5,1326.3,1326.4
201906120944,1326.4,1326.4,1326.2,1326.2
201906120945,1326.2,1326.4,1326.2,1326.3
201906120946,1326.3,1326.5,1326.3,1326.5
201906120947,1326.5,1326.5,1326.5,1326.5
201906120948,1326.5,1326.6,1326.5,1326.5
201906120949,1326.5,1326.6,1326.5,1326.5
201906120950,1326.5,1326.6,1326.5,1326.6
201906120951,1326.6,1326.6,1326.6,1326.6
201906120952,1326.6,1326.7,1326.6,1326.7
201906120953,1326.8,1326.9,1326.7,1326.7
201906120954,1326.7,1326.7,1326.4,1326.5
201906120955,1326.5,1326.6,1326.4,1326.5
201906120956,1326.5,1326.6,1326.5,1326.5
201906120957,1326.5,1326.5,1326.3,1326.4
201906120958,1326.4,1326.4,1326.4,1326.4
201906120959,1326.4,1326.5,1326.4,1326.5
201906121000,1326.5,1326.6,1325.9,1326.2
201906121001,1326.2,1326.5,1326.2,1326.4
201906121002,1326.4,1326.7,1326.4,1326.6
201906121003,1326.6,1326.8,1326.6,1326.7
201906121004,1326.7,1326.9,1326.6,1326.8
201906121005,1326.7,1326.7,1326.4,1326.4
201906121006,1326.4,1326.5,1326.3,1326.5
201906121007,1326.5,1326.5,1326,1326
201906121008,1326,1326.1,1326,1326
201906121009,1326,1326.4,1326,1326.4
201906121010,1326.4,1326.6,1326.4,1326.6
201906121011,1326.6,1327.2,1326.5,1327.1
201906121012,1327,1327.3,1327,1327.1
201906121013,1327.1,1327.2,1327.1,1327.1
201906121014,1327.1,1327.2,1327.1,1327.1
201906121015,1327.1,1327.6,1327.1,1327.6
201906121016,1327.6,1327.6,1327.4,1327.5
201906121017,1327.5,1327.6,1327.5,1327.5
201906121018,1327.5,1327.7,1327.5,1327.7
201906121019,1327.7,1327.7,1327.7,1327.7
201906121020,1327.7,1327.8,1327.6,1327.7
201906121021,1327.7,1327.7,1327.4,1327.4
201906121022,1327.4,1328.1,1327.4,1328
201906121023,1328,1328.1,1327.8,1327.9
201906121024,1327.8,1327.9,1327.5,1327.6
201906121025,1327.5,1327.7,1327.5,1327.6
201906121026,1327.6,1327.7,1327.6,1327.7
201906121027,1327.7,1327.7,1327.6,1327.6
201906121028,1327.6,1327.8,1327.5,1327.7
201906121029,1327.7,1327.8,1327.6,1327.8
201906121030,1327.8,1328,1327.8,1328
201906121031,1328,1328.1,1327.7,1327.8
201906121032,1327.8,1328,1327.6,1327.7
201906121033,1327.6,1327.7,1327.4,1327.5
201906121034,1327.5,1327.5,1327.3,1327.3
201906121035,1327.3,1327.4,1327.3,1327.4
201906121036,1327.4,1327.5,1327.3,1327.3
201906121037,1327.3,1327.5,1327.2,1327.4
201906121038,1327.4,1327.7,1327.3,1327.6
201906121039,1327.6,1327.7,1327.5,1327.5
201906121040,1327.4,1327.7,1327.4,1327.7
201906121041,1327.7,1327.9,1327.7,1327.9
201906121042,1327.9,1328.1,1327.9,1328
201906121043,1328,1328.3,1328,1328.3
201906121044,1328.3,1328.6,1328.2,1328.6
201906121045,1328.6,1328.6,1328.3,1328.4
201906121046,1328.4,1328.7,1328.4,1328.7
201906121047,1328.7,1328.7,1328.4,1328.5
201906121048,1328.5,1328.6,1328.4,1328.4
201906121049,1328.3,1328.4,1328.2,1328.4
201906121050,1328.4,1328.6,1328.4,1328.6
201906121051,1328.6,1328.6,1328.5,1328.6
201906121052,1328.6,1328.6,1328.3,1328.4
201906121053,1328.4,1328.5,1328.3,1328.4
201906121054,1328.4,1328.5,1328.4,1328.4
201906121055,1328.4,1328.5,1328.3,1328.4
201906121056,1328.4,1328.4,1328.3,1328.4
201906121057,1328.4,1328.4,1328.3,1328.3
201906121058,1328.3,1328.6,1328.3,1328.5
201906121059,1328.5,1328.7,1328.5,1328.7
201906121100,1328.7,1328.7,1328.5,1328.6
201906121101,1328.6,1328.6,1328.5,1328.6
201906121102,1328.6,1328.7,1328.6,1328.7
201906121103,1328.7,1328.8,1328.7,1328.8
201906121104,1328.8,1328.9,1328.7,1328.8
201906121105,1328.8,1329.1,1328.8,1329.1
201906121106,1329.1,1329.1,1329,1329.1
201906121107,1329.1,1329.2,1329,1329.1
201906121108,1329.1,1329.3,1329.1,1329.2
201906121109,1329.2,1329.3,1329.1,1329.3
201906121110,1329.3,1329.3,1329.1,1329.3
201906121111,1329.3,1329.6,1329.2,1329.5
201906121112,1329.5,1329.7,1329.4,1329.7
201906121113,1329.7,1329.9,1329.6,1329.8
201906121114,1329.8,1330.2,1329.8,1330.2
201906121115,1330.2,1330.2,1329.9,1330
201906121116,1330,1330,1329.7,1329.8
201906121117,1329.8,1330,1329.7,1329.8
201906121118,1329.7,1329.9,1329.7,1329.8
201906121119,1329.8,1329.8,1329.6,1329.6
201906121120,1329.6,1329.8,1329.5,1329.8
201906121121,1329.8,1329.9,1329.7,1329.7
201906121122,1329.7,1329.8,1329.7,1329.7
201906121123,1329.7,1329.7,1329.7,1329.7
201906121124,1329.7,1329.9,1329.7,1329.8
201906121125,1329.8,1329.8,1329.8,1329.8
201906121126,1329.8,1329.8,1329.8,1329.8
201906121127,1329.8,1329.9,1329.8,1329.9
201906121128,1329.9,1330,1329.9,1329.9
201906121129,1329.9,1329.9,1329.9,1329.9
201906121130,1329.9,1330.1,1329.9,1330
201906121131,1330,1330.1,1329.9,1330
201906121132,1330,1330.1,1329.9,1330.1
201906121133,1330.1,1330.1,1330.1,1330.1
201906121134,1330.1,1330.1,1329.9,1329.9
201906121135,1329.9,1330.2,1329.9,1330.2
201906121136,1330.2,1330.4,1330.2,1330.3
201906121137,1330.4,1330.8,1330.3,1330.6
201906121138,1330.6,1331,1330.6,1330.8
201906121139,1330.8,1331.7,1330.8,1331.7
201906121140,1331.7,1332,1331.5,1331.8
201906121141,1331.9,1332,1331.7,1331.7
201906121142,1331.6,1331.9,1331.6,1331.8
201906121143,1331.8,1332,1331.8,1331.9
201906121144,1331.8,1331.9,1331.7,1331.8
201906121145,1331.7,1332.1,1331.7,1332.1
201906121146,1332.1,1332.3,1332.1,1332.3
201906121147,1332.3,1332.5,1332.1,1332.4
201906121148,1332.4,1332.4,1331.9,1332
201906121149,1332,1332.2,1332,1332
201906121150,1332,1332.1,1331.9,1332.1
201906121151,1332.1,1332.4,1332.1,1332.3
201906121152,1332.3,1332.3,1332.1,1332.1
201906121153,1332.1,1332.2,1331.8,1331.8
201906121154,1331.8,1331.9,1331.7,1331.8
201906121155,1331.8,1332.3,1331.8,1332.3
201906121156,1332.3,1332.4,1332.1,1332.1
201906121157,1332.1,1332.3,1332.1,1332.2
201906121158,1332.2,1332.4,1332.1,1332.2
201906121159,1332.2,1332.3,1332,1332.1
201906121200,1332.1,1332.4,1332,1332.4
201906121201,1332.4,1332.8,1332.4,1332.7
201906121202,1332.7,1332.8,1332.6,1332.8
201906121203,1332.8,1333,1332.8,1333
201906121204,1332.9,1333.5,1332.9,1333.5
201906121205,1333.4,1333.7,1333.1,1333.2
201906121206,1333.2,1333.3,1333,1333.1
201906121207,1333.1,1333.2,1333,1333
201906121208,1333,1333.3,1333,1333.2
201906121209,1333.2,1333.3,1333,1333
201906121210,1332.9,1333.1,1332.9,1333
201906121211,1333,1333,1332.7,1332.9
201906121212,1332.9,1332.9,1332.5,1332.5
201906121213,1332.5,1332.7,1332.5,1332.7
201906121214,1332.7,1332.8,1332.6,1332.8
201906121215,1332.8,1333,1332.8,1333
201906121216,1333,1333,1332.7,1332.7
201906121217,1332.7,1332.7,1332.6,1332.7
201906121218,1332.7,1332.7,1332.5,1332.7
201906121219,1332.7,1332.9,1332.6,1332.8
201906121220,1332.8,1332.9,1332.8,1332.8
201906121221,1332.8,1332.8,1332.6,1332.6
201906121222,1332.6,1332.8,1332.6,1332.7
201906121223,1332.7,1333,1332.7,1332.9
201906121224,1332.9,1333.1,1332.8,1333.1
201906121225,1333.1,1333.1,1332.9,1333.1
201906121226,1333.1,1333.1,1332.8,1332.9
201906121227,1332.9,1333,1332.8,1332.9
201906121228,1332.9,1333.1,1332.9,1333
201906121229,1333,1333.2,1333,1333
201906121230,1333,1333,1332.8,1332.8
201906121231,1332.9,1333,1332.9,1332.9
201906121232,1332.9,1332.9,1332.6,1332.7
201906121233,1332.7,1332.9,1332.7,1332.7
201906121234,1332.7,1332.7,1332.6,1332.7
201906121235,1332.7,1332.7,1332.5,1332.5
201906121236,1332.5,1332.7,1332.5,1332.7
201906121237,1332.7,1332.9,1332.7,1332.9
201906121238,1332.9,1332.9,1332.7,1332.7
201906121239,1332.7,1332.7,1332.7,1332.7
201906121240,1332.7,1332.7,1332.7,1332.7
201906121241,1332.7,1332.8,1332.7,1332.8
201906121242,1332.8,1332.8,1332.8,1332.8
201906121243,1332.8,1332.8,1332.8,1332.8
201906121244,1332.8,1332.8,1332.8,1332.8
201906121245,1332.8,1332.8,1332.8,1332.8
201906121246,1332.8,1332.9,1332.8,1332.9
201906121247,1332.9,1332.9,1332.8,1332.9
201906121248,1332.9,1332.9,1332.7,1332.8
201906121249,1332.8,1332.8,1332.7,1332.7
201906121250,1332.7,1332.7,1332.6,1332.6
201906121251,1332.6,1332.6,1332.4,1332.4
201906121252,1332.4,1332.5,1332.4,1332.4
201906121253,1332.4,1332.5,1332.4,1332.4
201906121254,1332.4,1332.6,1332.4,1332.5
201906121255,1332.5,1332.6,1332.4,1332.5
201906121256,1332.5,1332.5,1332.3,1332.3
201906121257,1332.3,1332.4,1332.3,1332.3
201906121258,1332.3,1332.3,1332.2,1332.3
201906121259,1332.3,1332.3,1332.3,1332.3
201906121300,1332.3,1332.3,1332.1,1332.1
201906121301,1332.1,1332.2,1332.1,1332.1
201906121302,1332.1,1332.2,1332,1332.1
201906121303,1332.2,1332.2,1332.1,1332.1
201906121304,1332.2,1332.4,1332.2,1332.3
201906121305,1332.3,1332.4,1332.2,1332.2
201906121306,1332.2,1332.3,1332.2,1332.3
201906121307,1332.3,1332.3,1332.2,1332.3
201906121308,1332.3,1332.4,1332.2,1332.2
201906121309,1332.2,1332.3,1332.1,1332.1
201906121310,1332.1,1332.1,1331.9,1331.9
201906121311,1331.9,1331.9,1331.8,1331.8
201906121312,1331.8,1331.9,1331.8,1331.8
201906121313,1331.8,1331.9,1331.7,1331.8
201906121314,1331.8,1331.8,1331.7,1331.8
201906121315,1331.8,1331.8,1331.8,1331.8
201906121316,1331.8,1331.9,1331.7,1331.9
201906121317,1331.9,1332,1331.9,1331.9
201906121318,1331.9,1331.9,1331.9,1331.9
201906121319,1331.9,1331.9,1331.9,1331.9
201906121320,1331.9,1332,1331.9,1332
201906121321,1332,1332,1331.9,1332
201906121322,1331.9,1332,1331.9,1331.9
201906121323,1331.9,1332,1331.9,1332
201906121324,1332,1332.1,1332,1332
201906121325,1332,1332.1,1332,1332.1
201906121326,1332,1332,1331.9,1332
201906121327,1332,1332.1,1331.9,1331.9
201906121328,1331.9,1331.9,1331.8,1331.9
201906121329,1331.9,1332,1331.9,1332
201906121330,1332,1332,1332,1332
201906121331,1332,1332.1,1332,1332.1
201906121332,1332.1,1332.2,1332,1332
201906121333,1332.1,1332.1,1332,1332
201906121334,1332,1332,1332,1332
201906121335,1332,1332.1,1332,1332
201906121336,1332,1332.1,1331.9,1332
201906121337,1332,1332,1331.9,1332
201906121338,1332,1332,1331.9,1331.9
201906121339,1331.9,1332,1331.9,1332
201906121340,1332,1332,1331.9,1331.9
201906121341,1331.9,1332,1331.9,1332
201906121342,1331.9,1332,1331.9,1331.9
201906121343,1331.9,1331.9,1331.9,1331.9
201906121344,1331.9,1331.9,1331.9,1331.9
201906121345,1331.9,1331.9,1331.8,1331.9
201906121346,1331.9,1332.1,1331.9,1332.1
201906121347,1332.1,1332.2,1332,1332.1
201906121348,1332.1,1332.3,1332.1,1332.2
201906121349,1332.2,1332.2,1332.1,1332.2
201906121350,1332.2,1332.2,1332.1,1332.2
201906121351,1332.2,1332.2,1332.1,1332.1
201906121352,1332.1,1332.1,1331.9,1332
201906121353,1332,1332.2,1332,1332
201906121354,1332,1332.2,1332,1332.1
201906121355,1332.1,1332.3,1332.1,1332.2
201906121356,1332.2,1332.2,1332.2,1332.2
201906121357,1332.2,1332.2,1332.2,1332.2
201906121358,1332.2,1332.3,1332.2,1332.2
201906121359,1332.2,1332.3,1332.2,1332.3
201906121400,1332.3,1332.3,1332.1,1332.2
201906121401,1332.2,1332.3,1332.2,1332.3
201906121402,1332.3,1332.3,1332.1,1332.2
201906121403,1332.2,1332.2,1332,1332.1
201906121404,1332.1,1332.2,1332,1332
201906121405,1332,1332.1,1332,1332
201906121406,1332,1332,1331.9,1331.9
201906121407,1331.9,1331.9,1331.8,1331.9
201906121408,1331.9,1331.9,1331.8,1331.8
201906121409,1331.8,1332,1331.8,1331.9
201906121410,1331.9,1332.1,1331.9,1332
201906121411,1332,1332,1331.9,1332
201906121412,1332,1332,1331.9,1332
201906121413,1332,1332.1,1332,1332
201906121414,1332,1332.1,1332,1332
201906121415,1332,1332,1331.9,1331.9
201906121416,1331.9,1332,1331.8,1332
201906121417,1332,1332.1,1331.9,1332
201906121418,1332,1332.1,1331.9,1332
201906121419,1332,1332.1,1332,1332.1
201906121420,1332.1,1332.4,1332.1,1332.4
201906121421,1332.4,1332.4,1332.3,1332.4
201906121422,1332.3,1332.6,1332.3,1332.6
201906121423,1332.6,1332.7,1332.6,1332.7
201906121424,1332.7,1332.8,1332.6,1332.7
201906121425,1332.7,1332.9,1332.7,1332.9
201906121426,1332.9,1332.9,1332.8,1332.8
201906121427,1332.8,1333,1332.8,1333
201906121428,1333,1333,1332.9,1333
201906121429,1333,1333.1,1333,1333
201906121430,1333,1333,1332.9,1332.9
201906121431,1332.9,1333,1332.9,1332.9
201906121432,1332.9,1332.9,1332.6,1332.6
201906121433,1332.6,1332.6,1332.5,1332.6
201906121434,1332.6,1332.8,1332.6,1332.8
201906121435,1332.8,1332.9,1332.8,1332.8
201906121436,1332.8,1332.8,1332.6,1332.6
201906121437,1332.6,1332.7,1332.5,1332.6
201906121438,1332.6,1332.7,1332.5,1332.5
201906121439,1332.5,1332.9,1332.5,1332.9
201906121440,1332.9,1333,1332.8,1333
201906121441,1333,1333.3,1333,1333.3
201906121442,1333.3,1333.5,1333.3,1333.4
201906121443,1333.4,1333.5,1333.1,1333.1
201906121444,1333.1,1333.5,1333.1,1333.4
201906121445,1333.4,1333.6,1333.4,1333.5
201906121446,1333.5,1333.8,1333.5,1333.7
201906121447,1333.7,1333.8,1333.7,1333.8
201906121448,1333.8,1334.1,1333.8,1333.9
201906121449,1334,1334.4,1333.9,1334.4
201906121450,1334.4,1334.4,1334.1,1334.2
201906121451,1334.2,1334.3,1334.1,1334.2
201906121452,1334.2,1334.4,1334.1,1334.4
201906121453,1334.4,1334.4,1334.3,1334.4
201906121454,1334.4,1334.8,1334.4,1334.8
201906121455,1334.8,1334.9,1334.7,1334.9
201906121456,1334.9,1334.9,1334.8,1334.9
201906121457,1334.9,1335.1,1334.9,1335
201906121458,1335,1335.1,1334.9,1335
201906121459,1335,1335.1,1334.9,1335
201906121500,1335,1335.5,1335,1335.4
201906121501,1335.5,1336,1335.5,1335.9
201906121502,1335.9,1336.1,1335.7,1335.7
201906121503,1335.7,1335.9,1335.6,1335.8
201906121504,1335.8,1335.8,1335.4,1335.4
201906121505,1335.4,1335.7,1335.4,1335.7
201906121506,1335.7,1335.7,1335.5,1335.6
201906121507,1335.5,1335.8,1335.5,1335.8
201906121508,1335.8,1336,1335.7,1336
201906121509,1336,1336.2,1335.9,1336.1
201906121510,1336.1,1336.1,1335.9,1336.1
201906121511,1336.2,1336.5,1336.1,1336.5
201906121512,1336.5,1336.5,1336.2,1336.3
201906121513,1336.3,1336.3,1336,1336.1
201906121514,1336.1,1336.2,1335.9,1336.2
201906121515,1336.2,1336.2,1336.1,1336.2
201906121516,1336.2,1336.5,1336.2,1336.4
201906121517,1336.4,1336.6,1336.4,1336.6
201906121518,1336.6,1336.8,1336.5,1336.8
201906121519,1336.8,1337,1336.8,1337
201906121520,1337,1337,1336.5,1336.5
201906121521,1336.5,1336.5,1336.3,1336.4
201906121522,1336.4,1336.4,1336.2,1336.3
201906121523,1336.4,1336.6,1336.3,1336.5
201906121524,1336.5,1336.5,1336,1336
201906121525,1336,1336.1,1336,1336.1
201906121526,1336.1,1336.2,1336,1336.1
201906121527,1336.1,1336.2,1336,1336
201906121528,1336,1336,1335.7,1335.7
201906121529,1335.7,1335.8,1335.5,1335.5
201906121530,1335.4,1335.6,1335.4,1335.6
201906121531,1335.6,1336.2,1335.5,1336.1
201906121532,1336.1,1336.7,1336.1,1336.6
201906121533,1336.6,1336.7,1336.4,1336.7
201906121534,1336.7,1336.7,1336.2,1336.3
201906121535,1336.3,1336.4,1336.1,1336.1
201906121536,1336.1,1336.2,1336.1,1336.2
201906121537,1336.2,1336.2,1335.6,1335.6
201906121538,1335.6,1335.8,1335.5,1335.7
201906121539,1335.7,1335.9,1335.5,1335.5
201906121540,1335.5,1335.7,1335.4,1335.5
201906121541,1335.5,1335.6,1335.4,1335.5
201906121542,1335.5,1335.5,1335.3,1335.5
201906121543,1335.5,1335.8,1335.5,1335.8
201906121544,1335.8,1335.8,1335.6,1335.7
201906121545,1335.7,1335.8,1335.5,1335.7
201906121546,1335.7,1335.7,1335.6,1335.6
201906121547,1335.6,1335.6,1335.6,1335.6
201906121548,1335.6,1335.7,1335.5,1335.6
201906121549,1335.6,1335.7,1335.5,1335.7
201906121550,1335.7,1335.7,1335.3,1335.3
201906121551,1335.4,1335.4,1335,1335
201906121552,1335,1335,1334.4,1334.4
201906121553,1334.4,1334.7,1334.4,1334.7
201906121554,1334.7,1334.7,1334.5,1334.6
201906121555,1334.6,1335.3,1334.6,1335.3
201906121556,1335.3,1335.3,1334.6,1334.7
201906121557,1334.7,1334.7,1334.6,1334.6
201906121558,1334.7,1334.9,1334.3,1334.6
201906121559,1334.6,1335,1334.6,1334.9
201906121600,1334.9,1335,1334.7,1335
201906121601,1335,1335.7,1334.9,1335.5
201906121602,1335.6,1335.6,1335.4,1335.4
201906121603,1335.4,1335.4,1334.8,1334.8
201906121604,1334.8,1335.3,1334.8,1335.2
201906121605,1335.2,1335.3,1335.1,1335.1
201906121606,1335.1,1335.1,1334.9,1334.9
201906121607,1334.9,1335.3,1334.9,1335.3
201906121608,1335.3,1335.6,1335.2,1335.3
201906121609,1335.3,1335.4,1335.3,1335.3
201906121610,1335.3,1335.3,1335,1335
201906121611,1335,1335.2,1335,1335.2
201906121612,1335.2,1335.3,1334.9,1335.2
201906121613,1335.2,1335.2,1334.9,1335.1
201906121614,1335.1,1335.1,1335,1335.1
201906121615,1335.1,1335.2,1334.9,1334.9
201906121616,1334.9,1335.1,1334.9,1334.9
201906121617,1334.9,1335,1334.7,1334.7
201906121618,1334.7,1335.1,1334.7,1334.9
201906121619,1334.9,1335,1334.8,1335
201906121620,1335,1335,1334.8,1335
201906121621,1335,1335.5,1335,1335.2
201906121622,1335.2,1335.4,1335.2,1335.4
201906121623,1335.4,1335.4,1335.1,1335.2
201906121624,1335.2,1335.3,1335.2,1335.2
201906121625,1335.2,1335.3,1335.2,1335.3
201906121626,1335.3,1335.3,1335.1,1335.3
201906121627,1335.3,1335.3,1335,1335
201906121628,1335,1335.1,1334.8,1335.1
201906121629,1335.1,1335.3,1335.1,1335.1
201906121630,1335.1,1335.3,1335.1,1335.1
201906121631,1335.1,1335.1,1334.8,1334.9
201906121632,1334.9,1335.5,1334.9,1335.4
201906121633,1335.4,1335.4,1335.2,1335.3
201906121634,1335.3,1335.4,1335.3,1335.4
201906121635,1335.4,1335.4,1335.2,1335.3
201906121636,1335.3,1335.5,1335.3,1335.4
201906121637,1335.4,1335.5,1335.4,1335.5
201906121638,1335.5,1335.5,1335.2,1335.2
201906121639,1335.2,1335.2,1335.1,1335.1
201906121640,1335.1,1335.2,1335.1,1335.2
201906121641,1335.2,1335.3,1335.1,1335.1
201906121642,1335.1,1335.3,1335.1,1335.3
201906121643,1335.3,1335.4,1335.3,1335.4
201906121644,1335.4,1335.5,1335.4,1335.5
201906121645,1335.5,1335.5,1335.2,1335.3
201906121646,1335.3,1335.4,1335.3,1335.4
201906121647,1335.4,1335.9,1335.4,1335.8
201906121648,1335.8,1335.9,1335.7,1335.8
201906121649,1335.8,1335.8,1335.8,1335.8
201906121650,1335.8,1336,1335.8,1336
201906121651,1336,1336,1335.8,1336
201906121652,1336,1336.4,1335.9,1336.4
201906121653,1336.4,1336.8,1336.4,1336.8
201906121654,1336.8,1337,1336.8,1337
201906121655,1337,1337,1336.6,1336.9
201906121656,1336.9,1337,1336.8,1336.8
201906121657,1336.8,1337.7,1336.8,1337.4
201906121658,1337.4,1337.5,1337.2,1337.2
201906121659,1337.2,1337.3,1337.2,1337.2
201906121700,1337.2,1337.2,1336.6,1336.6
201906121701,1336.6,1336.7,1336.4,1336.5
201906121702,1336.5,1336.7,1336.5,1336.7
201906121703,1336.7,1336.9,1336.6,1336.8
201906121704,1336.8,1336.8,1336.7,1336.7
201906121705,1336.7,1336.8,1336.7,1336.8
201906121706,1336.8,1336.8,1336.8,1336.8
201906121707,1336.8,1336.8,1336.4,1336.4
201906121708,1336.4,1337.3,1336.4,1337
201906121709,1337,1337,1336.8,1336.9
201906121710,1336.9,1337,1336.8,1337
201906121711,1337,1337.4,1336.9,1337.3
201906121712,1337.3,1337.3,1337,1337
201906121713,1337,1337.4,1337,1337.4
201906121714,1337.4,1337.5,1337.3,1337.5
201906121715,1337.5,1338.2,1337.5,1337.8
201906121716,1337.8,1338,1337.8,1338
201906121717,1338,1338,1337.8,1337.8
201906121718,1337.8,1337.9,1337.7,1337.9
201906121719,1337.9,1337.9,1337.8,1337.8
201906121720,1337.8,1337.8,1337.5,1337.6
201906121721,1337.6,1337.7,1337.4,1337.5
201906121722,1337.4,1337.7,1337.4,1337.6
201906121723,1337.6,1337.6,1337.4,1337.6
201906121724,1337.6,1337.9,1337.5,1337.7
201906121725,1337.7,1337.7,1337.3,1337.3
201906121726,1337.4,1337.5,1337.3,1337.4
201906121727,1337.4,1337.5,1337.2,1337.3
201906121728,1337.3,1337.4,1337.2,1337.3
201906121729,1337.4,1337.6,1337.4,1337.4
201906121730,1337.4,1337.4,1337.2,1337.3
201906121731,1337.3,1337.3,1336.9,1336.9
201906121732,1336.9,1337.2,1336.9,1337.2
201906121733,1337.2,1337.2,1337.2,1337.2
201906121734,1337.2,1337.4,1337.2,1337.3
201906121735,1337.3,1337.3,1337.1,1337.1
201906121736,1337.1,1337.2,1337.1,1337.2
201906121737,1337.2,1337.2,1337.2,1337.2
201906121738,1337.2,1337.2,1337.1,1337.1
201906121739,1337.1,1337.3,1336.9,1337.3
201906121740,1337.3,1337.3,1337.2,1337.3
201906121741,1337.3,1337.4,1337.3,1337.3
201906121742,1337.4,1337.4,1337.3,1337.4
201906121743,1337.4,1337.5,1337.4,1337.5
201906121744,1337.5,1337.7,1337.4,1337.5
201906121745,1337.5,1337.5,1337.4,1337.4
201906121746,1337.4,1337.5,1337.3,1337.3
201906121747,1337.3,1337.4,1337.2,1337.3
201906121748,1337.3,1337.6,1337.3,1337.3
201906121749,1337.3,1337.4,1337.3,1337.4
201906121750,1337.4,1337.4,1337.4,1337.4
201906121751,1337.4,1337.4,1337.3,1337.4
201906121752,1337.4,1338,1337.4,1337.9
201906121753,1337.9,1338.2,1337.8,1337.9
201906121754,1337.9,1337.9,1337.8,1337.8
201906121755,1337.8,1338,1337.8,1337.8
201906121756,1337.8,1338.1,1337.8,1337.8
201906121757,1337.8,1337.8,1337.5,1337.7
201906121758,1337.7,1337.7,1337.5,1337.5
201906121759,1337.5,1337.6,1337.4,1337.5
201906121800,1337.5,1337.7,1337.5,1337.6
201906121801,1337.5,1337.6,1337.2,1337.2
201906121802,1337.2,1337.4,1337.2,1337.3
201906121803,1337.3,1337.4,1337.3,1337.3
201906121804,1337.3,1337.3,1337,1337
201906121805,1337,1337.1,1336.7,1336.8
201906121806,1336.8,1336.8,1336.7,1336.8
201906121807,1336.8,1336.8,1336.5,1336.5
201906121808,1336.5,1336.5,1336.3,1336.5
201906121809,1336.5,1336.6,1336.5,1336.6
201906121810,1336.6,1336.6,1336.5,1336.6
201906121811,1336.6,1336.6,1336.5,1336.5
201906121812,1336.5,1336.5,1336.4,1336.4
201906121813,1336.4,1336.4,1336.1,1336.2
201906121814,1336.2,1336.4,1336.1,1336.2
201906121815,1336.2,1336.4,1336.2,1336.3
201906121816,1336.3,1336.4,1336.3,1336.4
201906121817,1336.4,1336.6,1336.3,1336.3
201906121818,1336.3,1336.3,1336.1,1336.1
201906121819,1336.1,1336.1,1335.6,1335.8
201906121820,1335.8,1336.3,1335.6,1336.3
201906121821,1336.3,1336.3,1335.9,1335.9
201906121822,1335.9,1336.4,1335.9,1336.3
201906121823,1336.3,1336.4,1336.2,1336.2
201906121824,1336.2,1336.3,1336.2,1336.3
201906121825,1336.3,1336.5,1336.2,1336.4
201906121826,1336.4,1336.5,1336.3,1336.5
201906121827,1336.5,1336.5,1336.3,1336.3
201906121828,1336.3,1336.4,1336.1,1336.2
201906121829,1336.2,1336.5,1336.2,1336.5
201906121830,1336.5,1336.6,1336.4,1336.4
201906121831,1336.4,1336.5,1336.4,1336.5
201906121832,1336.5,1336.6,1336.3,1336.3
201906121833,1336.3,1336.4,1336.3,1336.3
201906121834,1336.3,1336.4,1336.3,1336.4
201906121835,1336.4,1336.4,1336.2,1336.2
201906121836,1336.2,1336.3,1336.2,1336.2
201906121837,1336.2,1336.3,1336.2,1336.3
201906121838,1336.3,1336.4,1336.3,1336.3
201906121839,1336.3,1336.8,1336.3,1336.7
201906121840,1336.7,1337.6,1336.7,1337.5
201906121841,1337.5,1337.6,1337.4,1337.4
201906121842,1337.4,1337.6,1337.4,1337.5
201906121843,1337.5,1337.5,1337.4,1337.5
201906121844,1337.5,1337.5,1337.2,1337.5
201906121845,1337.5,1337.5,1337.3,1337.4
201906121846,1337.4,1337.5,1337.3,1337.4
201906121847,1337.4,1337.5,1337.3,1337.4
201906121848,1337.4,1337.4,1337.1,1337.1
201906121849,1337.1,1337.2,1337.1,1337.2
201906121850,1337.2,1337.4,1337.1,1337.3
201906121851,1337.3,1337.4,1336.6,1336.7
201906121852,1336.7,1336.7,1336.5,1336.5
201906121853,1336.5,1336.6,1336.4,1336.4
201906121854,1336.4,1336.5,1336.1,1336.2
201906121855,1336.2,1336.5,1336,1336
201906121856,1336,1336.2,1336,1336.1
201906121857,1336.1,1336.2,1335.8,1336.1
201906121858,1336.1,1336.3,1336.1,1336.3
201906121859,1336.3,1336.3,1336.1,1336.1
201906121900,1336.1,1336.2,1336,1336
201906121901,1336,1336.1,1335.9,1335.9
201906121902,1335.9,1336,1335.6,1335.8
201906121903,1335.8,1335.9,1335.7,1335.8
201906121904,1335.8,1335.8,1335.7,1335.7
201906121905,1335.7,1335.7,1335.4,1335.5
201906121906,1335.5,1335.8,1335.5,1335.7
201906121907,1335.7,1336,1335.6,1336
201906121908,1336,1336.2,1335.9,1336.1
201906121909,1336.2,1336.2,1336,1336.1
201906121910,1336.1,1336.1,1335.9,1335.9
201906121911,1335.9,1336,1335.8,1335.8
201906121912,1335.8,1335.8,1335.6,1335.6
201906121913,1335.6,1335.7,1335.6,1335.7
201906121914,1335.7,1335.7,1335.5,1335.6
201906121915,1335.6,1335.8,1335.6,1335.7
201906121916,1335.7,1335.9,1335.7,1335.8
201906121917,1335.8,1335.9,1335.7,1335.8
201906121918,1335.8,1335.9,1335.8,1335.9
201906121919,1335.9,1335.9,1335.7,1335.7
201906121920,1335.7,1335.7,1335.6,1335.7
201906121921,1335.7,1335.8,1335.6,1335.8
201906121922,1335.8,1335.9,1335.6,1335.6
201906121923,1335.6,1335.6,1335.5,1335.6
201906121924,1335.6,1335.6,1335.5,1335.5
201906121925,1335.5,1335.6,1335.5,1335.5
201906121926,1335.5,1335.6,1335.3,1335.4
201906121927,1335.4,1335.5,1335.3,1335.4
201906121928,1335.4,1335.5,1335.3,1335.4
201906121929,1335.4,1335.4,1335.3,1335.3
201906121930,1335.3,1335.3,1335.2,1335.2
201906121931,1335.2,1335.3,1335.1,1335.1
201906121932,1335.1,1335.5,1335,1335.5
201906121933,1335.5,1335.5,1335.3,1335.4
201906121934,1335.4,1335.4,1335.2,1335.3
201906121935,1335.3,1335.3,1335.2,1335.3
201906121936,1335.3,1335.3,1335.1,1335.1
201906121937,1335.1,1335.2,1335,1335.1
201906121938,1335.1,1335.2,1334.8,1334.8
201906121939,1334.8,1334.9,1334.6,1334.9
201906121940,1334.9,1334.9,1334.7,1334.7
201906121941,1334.7,1334.8,1334.6,1334.6
201906121942,1334.6,1334.6,1334.5,1334.5
201906121943,1334.5,1334.6,1334.5,1334.6
201906121944,1334.6,1334.9,1334.5,1334.9
201906121945,1334.9,1334.9,1334.7,1334.8
201906121946,1334.9,1335.3,1334.8,1335.3
201906121947,1335.3,1335.3,1335,1335.3
201906121948,1335.3,1335.7,1335.3,1335.3
201906121949,1335.3,1335.5,1335.3,1335.5
201906121950,1335.5,1335.5,1335.4,1335.4
201906121951,1335.4,1335.5,1335.4,1335.5
201906121952,1335.5,1335.5,1335.2,1335.2
201906121953,1335.2,1335.2,1335,1335
201906121954,1335,1335.2,1335,1335.1
201906121955,1335.1,1335.2,1334.9,1335
201906121956,1335,1335,1334.8,1334.8
201906121957,1334.8,1335,1334.8,1335
201906121958,1335,1335,1334.8,1334.9
201906121959,1334.9,1334.9,1334.7,1334.8
201906122000,1334.8,1334.9,1334.7,1334.9
201906122001,1334.9,1335,1334.8,1335
201906122002,1335,1335,1334.9,1334.9
201906122003,1334.9,1334.9,1334.8,1334.8
201906122004,1334.8,1334.9,1334.6,1334.8
201906122005,1334.8,1335,1334.8,1334.9
201906122006,1334.9,1335,1334.8,1334.9
201906122007,1334.9,1335.1,1334.8,1335.1
201906122008,1335.1,1335.1,1334.9,1335.1
201906122009,1335.1,1335.4,1335.1,1335.3
201906122010,1335.3,1335.4,1335.3,1335.4
201906122011,1335.4,1335.4,1335.2,1335.2
201906122012,1335.2,1335.4,1335.2,1335.4
201906122013,1335.5,1335.6,1335.4,1335.6
201906122014,1335.6,1335.7,1335.5,1335.7
201906122015,1335.6,1335.7,1335.5,1335.6
201906122016,1335.6,1335.6,1335.5,1335.5
201906122017,1335.5,1335.8,1335.5,1335.8
201906122018,1335.8,1335.8,1335.8,1335.8
201906122019,1335.8,1336,1335.8,1335.9
201906122020,1336,1336,1335.8,1336
201906122021,1336,1336,1335.8,1336
201906122022,1336,1336,1335.9,1336
201906122023,1336,1336,1335.8,1335.9
201906122024,1336,1336,1335.8,1335.8
201906122025,1335.8,1335.9,1335.8,1335.8
201906122026,1335.8,1335.9,1335.7,1335.9
201906122027,1335.9,1335.9,1335.6,1335.6
201906122028,1335.7,1335.7,1335.6,1335.6
201906122029,1335.6,1335.7,1335.6,1335.7
201906122030,1335.7,1335.7,1335.6,1335.7
201906122031,1335.7,1335.7,1335.6,1335.6
201906122032,1335.6,1335.6,1335.3,1335.4
201906122033,1335.5,1335.5,1335.1,1335.2
201906122034,1335.2,1335.2,1335,1335
201906122035,1335,1335.2,1334.6,1334.8
201906122036,1334.8,1334.9,1334.5,1334.9
201906122037,1334.9,1334.9,1334.7,1334.7
201906122038,1334.7,1334.7,1334.2,1334.4
201906122039,1334.4,1334.5,1334.3,1334.4
201906122040,1334.4,1334.9,1334.4,1334.5
201906122041,1334.5,1334.7,1334.5,1334.6
201906122042,1334.6,1334.6,1334.5,1334.5
201906122043,1334.5,1334.7,1334.5,1334.7
201906122044,1334.7,1334.9,1334.7,1334.9
201906122045,1334.9,1335.1,1334.9,1335.1
201906122046,1335.1,1335.3,1335,1335.3
201906122047,1335.3,1335.5,1335.3,1335.4
201906122048,1335.4,1335.5,1335.4,1335.4
201906122049,1335.4,1335.4,1335.3,1335.4
201906122050,1335.4,1335.4,1335.1,1335.1
201906122051,1335.1,1335.2,1335,1335.2
201906122052,1335.2,1335.2,1335.1,1335.1
201906122053,1335.1,1335.1,1334.9,1334.9
201906122054,1334.9,1335,1334.9,1335
201906122055,1335,1335,1334.8,1334.9
201906122056,1334.9,1335,1334.8,1334.9
201906122057,1334.9,1335.3,1334.9,1335.3
201906122058,1335.3,1335.3,1335,1335.1
201906122059,1335.1,1335.1,1334.8,1334.9
201906122100,1334.9,1334.9,1334.5,1334.8
201906122101,1334.8,1334.9,1334.7,1334.9
201906122102,1334.9,1335,1334.8,1334.8
201906122103,1334.8,1334.8,1334.6,1334.6
201906122104,1334.6,1334.8,1334.4,1334.6
201906122105,1334.6,1334.9,1334.5,1334.9
201906122106,1334.9,1335.2,1334.9,1335
201906122107,1335,1335.4,1335,1335.4
201906122108,1335.4,1335.4,1334.9,1335
201906122109,1335,1335,1334.8,1334.9
201906122110,1335,1335.2,1334.9,1335
201906122111,1335,1335,1334.7,1334.8
201906122112,1334.8,1334.9,1334.8,1334.9
201906122113,1334.9,1334.9,1334.6,1334.6
201906122114,1334.6,1334.7,1334.6,1334.6
201906122115,1334.6,1334.6,1332.8,1333.3
201906122116,1333.3,1333.3,1332.8,1333.2
201906122117,1333.2,1333.2,1332.9,1332.9
201906122118,1332.9,1332.9,1332.7,1332.7
201906122119,1332.7,1332.8,1332.7,1332.8
201906122120,1332.8,1333,1332.2,1332.5
201906122121,1332.5,1333.1,1332.5,1333
201906122122,1333,1333,1332.6,1332.6
201906122123,1332.6,1332.6,1332.2,1332.3
201906122124,1332.3,1332.4,1332.2,1332.3
201906122125,1332.3,1332.8,1332.2,1332.7
201906122126,1332.7,1333.1,1332.6,1333.1
201906122127,1333.1,1333.2,1332.9,1333.2
201906122128,1333.2,1333.3,1333.1,1333.2
201906122129,1333.2,1333.7,1333.2,1333.5
201906122130,1333.4,1336,1333.4,1335.9
201906122131,1335.9,1335.9,1335.1,1335.1
201906122132,1335.1,1335.5,1334.3,1335.5
201906122133,1335.6,1335.6,1334.5,1334.6
201906122134,1334.6,1335.2,1334.5,1335
201906122135,1335,1335.1,1334.6,1335
201906122136,1335.1,1335.5,1334.9,1335.3
201906122137,1335.2,1336,1335.1,1335.9
201906122138,1335.9,1335.9,1335.4,1335.4
201906122139,1335.5,1335.7,1335.2,1335.6
201906122140,1335.6,1335.7,1335.2,1335.6
201906122141,1335.6,1335.9,1335.6,1335.8
201906122142,1335.8,1335.9,1335.7,1335.7
201906122143,1335.7,1336,1335.6,1335.8
201906122144,1335.8,1336,1335.2,1335.2
201906122145,1335.2,1335.7,1335.2,1335.7
201906122146,1335.7,1335.7,1334.9,1335.2
201906122147,1335.2,1335.3,1333.8,1333.8
201906122148,1333.8,1334.1,1333.2,1333.5
201906122149,1333.5,1333.8,1333.2,1333.7
201906122150,1333.7,1333.7,1333.1,1333.5
201906122151,1333.5,1333.9,1333.5,1333.5
201906122152,1333.6,1333.9,1333.5,1333.9
201906122153,1333.9,1333.9,1333.6,1333.6
201906122154,1333.6,1333.8,1332.9,1333
201906122155,1333,1333.2,1332.8,1332.9
201906122156,1332.9,1333.8,1332.9,1333.6
201906122157,1333.6,1333.8,1333.5,1333.8
201906122158,1333.8,1333.8,1333.3,1333.6
201906122159,1333.6,1334,1333.5,1334
201906122200,1334,1334.3,1333.8,1333.8
201906122201,1333.8,1334,1333.5,1333.5
201906122202,1333.5,1333.8,1333.3,1333.3
201906122203,1333.3,1333.3,1332.3,1332.5
201906122204,1332.5,1333,1332.3,1332.4
201906122205,1332.4,1332.5,1332.2,1332.5
201906122206,1332.5,1332.6,1331.9,1332.1
201906122207,1332.1,1332.1,1331.9,1332
201906122208,1332,1332.1,1331.9,1332
201906122209,1332,1332.6,1332,1332.3
201906122210,1332.3,1332.5,1332.2,1332.4
201906122211,1332.4,1332.7,1332.4,1332.7
201906122212,1332.7,1333,1332.7,1332.9
201906122213,1332.9,1333.4,1332.8,1333.4
201906122214,1333.4,1333.7,1333.2,1333.5
201906122215,1333.5,1333.6,1333.3,1333.3
201906122216,1333.3,1333.6,1333.1,1333.6
201906122217,1333.6,1333.6,1333.1,1333.2
201906122218,1333.2,1333.3,1333,1333.2
201906122219,1333.2,1333.2,1332.8,1332.9
201906122220,1332.9,1333,1332.8,1332.9
201906122221,1332.9,1333.1,1332.4,1332.4
201906122222,1332.4,1332.6,1332.3,1332.4
201906122223,1332.4,1332.7,1332.4,1332.4
201906122224,1332.4,1332.4,1332.2,1332.2
201906122225,1332.2,1332.3,1332.2,1332.2
201906122226,1332.2,1332.3,1330.3,1330.4
201906122227,1330.4,1331.2,1330.4,1331.2
201906122228,1331.2,1331.4,1329.9,1330.3
201906122229,1330.3,1330.9,1330.3,1330.7
201906122230,1330.7,1331.4,1330.4,1331.4
201906122231,1331.4,1331.8,1331.3,1331.8
201906122232,1331.8,1332.1,1331.7,1331.9
201906122233,1331.9,1332.1,1331.6,1331.8
201906122234,1331.8,1332.3,1331.8,1332
201906122235,1332,1332.1,1331.5,1331.5
201906122236,1331.5,1332.2,1331.5,1332.2
201906122237,1332.2,1332.6,1332.1,1332.2
201906122238,1332.2,1332.2,1331.8,1331.9
201906122239,1331.9,1332.1,1331.9,1332.1
201906122240,1332.1,1332.3,1332,1332.2
201906122241,1332.2,1332.3,1331.9,1332
201906122242,1332,1332.3,1332,1332.3
201906122243,1332.3,1332.5,1332.3,1332.3
201906122244,1332.3,1332.5,1332,1332.2
201906122245,1332.2,1332.5,1332.1,1332.1
201906122246,1332.1,1332.2,1331.7,1331.7
201906122247,1331.7,1332.1,1331.6,1332.1
201906122248,1332.1,1332.3,1332,1332.2
201906122249,1332.2,1332.3,1331.6,1332
201906122250,1332,1332.2,1331.6,1332.2
201906122251,1332.2,1332.2,1331.8,1332
201906122252,1332,1332,1331.8,1331.9
201906122253,1331.9,1332,1331.6,1331.9
201906122254,1331.9,1332.4,1331.9,1332.3
201906122255,1332.3,1332.5,1332.3,1332.4
201906122256,1332.4,1332.5,1332.3,1332.5
201906122257,1332.5,1332.7,1332.3,1332.6
201906122258,1332.6,1332.7,1332.2,1332.3
201906122259,1332.3,1332.5,1332.2,1332.3
201906122300,1332.3,1332.9,1332.2,1332.9
201906122301,1332.9,1332.9,1332.6,1332.7
201906122302,1332.7,1332.9,1332.7,1332.8
201906122303,1332.8,1332.9,1332.7,1332.8
201906122304,1332.8,1332.9,1332.6,1332.7
201906122305,1332.7,1333,1332.5,1333
201906122306,1333,1333.5,1333,1333.2
201906122307,1333.2,1334.2,1333,1333.9
201906122308,1333.9,1334,1333.2,1333.2
201906122309,1333.2,1333.2,1332.5,1332.5
201906122310,1332.4,1332.5,1332.2,1332.4
201906122311,1332.5,1332.7,1332.1,1332.1
201906122312,1332.1,1332.4,1332.1,1332.3
201906122313,1332.3,1332.4,1332.2,1332.3
201906122314,1332.3,1332.9,1332.2,1332.9
201906122315,1332.9,1333.1,1332.8,1333
201906122316,1333,1333.1,1332.8,1332.9
201906122317,1332.9,1333,1332.7,1332.8
201906122318,1332.7,1332.8,1332.4,1332.4
201906122319,1332.4,1332.5,1332.3,1332.3
201906122320,1332.3,1332.5,1332.2,1332.5
201906122321,1332.5,1332.5,1332.3,1332.4
201906122322,1332.4,1332.5,1332.2,1332.2
201906122323,1332.2,1332.2,1332.1,1332.2
201906122324,1332.2,1332.3,1332.2,1332.3
201906122325,1332.2,1332.9,1332.2,1332.7
201906122326,1332.7,1333.5,1332.7,1333.4
201906122327,1333.4,1333.4,1333.2,1333.2
201906122328,1333.3,1333.4,1333.2,1333.4
201906122329,1333.4,1333.8,1333.3,1333.6
201906122330,1333.6,1333.6,1333.2,1333.3
201906122331,1333.3,1333.7,1333.3,1333.7
201906122332,1333.7,1333.9,1333.5,1333.6
201906122333,1333.6,1333.9,1333.5,1333.8
201906122334,1333.8,1334.1,1333.7,1333.8
201906122335,1333.8,1333.9,1333.4,1333.8
201906122336,1333.8,1334,1333.8,1334
201906122337,1334,1334,1333.4,1333.6
201906122338,1333.6,1333.9,1333.5,1333.8
201906122339,1333.8,1333.8,1333.1,1333.2
201906122340,1333.2,1333.9,1333,1333.9
201906122341,1333.9,1334,1333.8,1333.9
201906122342,1333.9,1334.4,1333.9,1334.3
201906122343,1334.3,1334.5,1334.3,1334.3
201906122344,1334.3,1334.4,1334.1,1334.3
201906122345,1334.3,1334.5,1333.9,1334.4
201906122346,1334.4,1334.5,1333.8,1334
201906122347,1334,1334.1,1334,1334
201906122348,1334.1,1334.1,1334,1334.1
201906122349,1334.1,1334.1,1333.8,1333.8
201906122350,1333.8,1333.9,1333.6,1333.8
201906122351,1333.8,1333.9,1333.5,1333.5
201906122352,1333.5,1333.8,1333.5,1333.8
201906122353,1333.8,1333.9,1333.7,1333.8
201906122354,1333.8,1333.9,1333.7,1333.9
201906122355,1333.9,1334.1,1333.7,1333.7
201906122356,1333.7,1333.8,1333.5,1333.6
201906122357,1333.6,1333.7,1333.4,1333.7
201906122358,1333.7,1333.9,1333.5,1333.7
201906122359,1333.7,1334,1333.5,1334
201906130000,1334,1334,1333.4,1333.6
201906130001,1333.6,1334.1,1333.6,1333.9
201906130002,1333.9,1334,1333.9,1333.9
201906130003,1333.9,1334.7,1333.9,1334.7
201906130004,1334.7,1334.8,1334.4,1334.5
201906130005,1334.5,1334.7,1334.3,1334.7
201906130006,1334.7,1334.8,1334.4,1334.7
201906130007,1334.7,1335,1334.7,1334.9
201906130008,1334.9,1334.9,1334.8,1334.9
201906130009,1334.9,1335.6,1334.9,1335.6
201906130010,1335.5,1335.6,1335.2,1335.3
201906130011,1335.3,1335.5,1335.2,1335.5
201906130012,1335.5,1335.5,1335.3,1335.3
201906130013,1335.3,1335.4,1335.1,1335.3
201906130014,1335.3,1335.3,1334.9,1335
201906130015,1335.1,1335.1,1334.9,1334.9
201906130016,1334.9,1334.9,1334.5,1334.8
201906130017,1334.8,1334.8,1334.1,1334.6
201906130018,1334.6,1334.7,1334.5,1334.6
201906130019,1334.6,1334.7,1334.5,1334.7
201906130020,1334.7,1334.7,1334.4,1334.5
201906130021,1334.5,1334.6,1334.4,1334.6
201906130022,1334.6,1334.8,1334.5,1334.8
201906130023,1334.8,1334.8,1334.5,1334.6
201906130024,1334.6,1334.6,1334.5,1334.5
201906130025,1334.5,1334.9,1334.5,1334.9
201906130026,1334.9,1334.9,1334.6,1334.9
201906130027,1334.9,1334.9,1334.4,1334.5
201906130028,1334.5,1334.8,1334.4,1334.8
201906130029,1334.8,1334.8,1334.6,1334.7
201906130030,1334.7,1334.9,1334.7,1334.7
201906130031,1334.7,1335,1334.7,1334.7
201906130032,1334.7,1334.9,1334.7,1334.9
201906130033,1334.9,1334.9,1334.3,1334.3
201906130034,1334.3,1334.5,1334.2,1334.4
201906130035,1334.4,1334.7,1334.3,1334.5
201906130036,1334.5,1334.7,1334.5,1334.7
201906130037,1334.6,1334.6,1334.4,1334.5
201906130038,1334.5,1334.8,1334.5,1334.8
201906130039,1334.8,1334.8,1334.4,1334.4
201906130040,1334.4,1334.5,1334.3,1334.5
201906130041,1334.6,1334.6,1334.4,1334.5
201906130042,1334.5,1334.6,1334.4,1334.6
201906130043,1334.6,1334.7,1334.5,1334.7
201906130044,1334.7,1334.7,1334.6,1334.7
201906130045,1334.6,1335,1334.6,1335
201906130046,1335,1335.1,1334.9,1334.9
201906130047,1334.9,1334.9,1334.7,1334.8
201906130048,1334.8,1335,1334.6,1335
201906130049,1335,1335.1,1334.8,1335.1
201906130050,1335.1,1335.2,1334.8,1334.8
201906130051,1334.9,1335.1,1334.8,1335
201906130052,1335.1,1335.2,1335,1335.2
201906130053,1335.2,1335.4,1335.1,1335.3
201906130054,1335.4,1335.5,1335.1,1335.1
201906130055,1335.1,1335.5,1335.1,1335.4
201906130056,1335.4,1335.5,1335.1,1335.4
201906130057,1335.4,1335.5,1335.1,1335.2
201906130058,1335.2,1335.4,1335.2,1335.2
201906130059,1335.2,1335.5,1335.2,1335.3
201906130100,1335.3,1335.5,1335.1,1335.5
201906130101,1335.5,1335.5,1335.2,1335.4
201906130102,1335.4,1335.5,1335.4,1335.4
201906130103,1335.4,1335.5,1335.4,1335.5
201906130104,1335.5,1335.5,1335.2,1335.4
201906130105,1335.4,1335.6,1335.3,1335.3
201906130106,1335.3,1335.5,1335.2,1335.5
201906130107,1335.5,1335.8,1335.4,1335.6
201906130108,1335.6,1335.8,1335.6,1335.7
201906130109,1335.7,1335.8,1335.6,1335.8
201906130110,1335.8,1336,1335.8,1335.9
201906130111,1336,1336,1335.9,1335.9
201906130112,1335.9,1336,1335.8,1336
201906130113,1336,1336.6,1335.9,1336.5
201906130114,1336.5,1336.6,1336.3,1336.3
201906130115,1336.3,1336.5,1336.2,1336.5
201906130116,1336.5,1336.6,1336.5,1336.6
201906130117,1336.6,1336.6,1336.4,1336.6
201906130118,1336.6,1336.8,1336.6,1336.7
201906130119,1336.7,1336.7,1335.7,1335.9
201906130120,1335.8,1336.4,1335.8,1336.4
201906130121,1336.4,1336.6,1336.3,1336.5
201906130122,1336.5,1336.9,1336.5,1336.9
201906130123,1336.9,1336.9,1336.2,1336.4
201906130124,1336.4,1336.4,1335.7,1336
201906130125,1336,1336,1335.7,1335.9
201906130126,1335.9,1336,1335.7,1335.8
201906130127,1335.9,1336,1335.8,1336
201906130128,1336,1336,1335.8,1335.8
201906130129,1335.8,1335.9,1335.7,1335.7
201906130130,1335.7,1335.7,1335.6,1335.7
201906130131,1335.7,1335.9,1335.5,1335.8
201906130132,1335.8,1335.9,1335.5,1335.5
201906130133,1335.5,1335.7,1335.4,1335.5
201906130134,1335.5,1335.6,1335.5,1335.5
201906130135,1335.5,1335.5,1335.2,1335.2
201906130136,1335.2,1335.3,1335,1335.1
201906130137,1335.1,1335.1,1333.9,1334
201906130138,1334,1334.3,1333.8,1334.1
201906130139,1334.1,1334.1,1333.7,1334
201906130140,1334,1334.2,1333.4,1333.5
201906130141,1333.5,1333.8,1333.3,1333.8
201906130142,1333.8,1333.8,1333.2,1333.5
201906130143,1333.6,1333.6,1333.4,1333.5
201906130144,1333.5,1333.6,1333.2,1333.4
201906130145,1333.4,1333.4,1333.1,1333.2
201906130146,1333.2,1333.5,1333.2,1333.4
201906130147,1333.4,1333.5,1333.3,1333.4
201906130148,1333.4,1333.4,1333.2,1333.2
201906130149,1333.2,1333.2,1332.7,1332.7
201906130150,1332.7,1332.7,1332.3,1332.5
201906130151,1332.7,1332.9,1332.4,1332.8
201906130152,1332.8,1333,1332.7,1332.9
201906130153,1332.8,1332.8,1332.4,1332.5
201906130154,1332.4,1332.7,1332.4,1332.6
201906130155,1332.6,1332.6,1332.4,1332.6
201906130156,1332.6,1332.7,1332.5,1332.7
201906130157,1332.7,1332.7,1332.5,1332.5
201906130158,1332.5,1332.6,1332.4,1332.6
201906130159,1332.6,1332.7,1332.4,1332.4
201906130200,1332.4,1332.4,1332.1,1332.2
201906130201,1332.2,1332.6,1331.8,1331.8
201906130202,1331.8,1332.3,1331.7,1332.2
201906130203,1332.2,1332.2,1331.8,1331.8
201906130204,1331.8,1332,1331.7,1332
201906130205,1332,1332,1331.7,1331.8
201906130206,1331.8,1332,1331.8,1331.9
201906130207,1331.9,1332,1331.8,1331.8
201906130208,1331.8,1332.2,1331.8,1332.2
201906130209,1332.2,1332.5,1332.2,1332.5
201906130210,1332.5,1332.5,1332.3,1332.5
201906130211,1332.5,1332.6,1332.4,1332.6
201906130212,1332.6,1332.6,1332.5,1332.6
201906130213,1332.6,1332.7,1332.4,1332.5
201906130214,1332.5,1332.8,1332.5,1332.8
201906130215,1332.7,1332.8,1332.7,1332.8
201906130216,1332.8,1333.1,1332.8,1332.8
201906130217,1332.8,1332.9,1332.7,1332.7
201906130218,1332.7,1332.7,1332.6,1332.6
201906130219,1332.6,1332.7,1332.6,1332.6
201906130220,1332.6,1332.6,1332.3,1332.4
201906130221,1332.4,1332.7,1332.4,1332.5
201906130222,1332.5,1332.5,1331.9,1332.1
201906130223,1332.1,1332.7,1332.1,1332.6
201906130224,1332.6,1332.6,1332.2,1332.3
201906130225,1332.3,1332.6,1332.3,1332.4
201906130226,1332.4,1332.5,1332.1,1332.3
201906130227,1332.3,1332.3,1332.1,1332.2
201906130228,1332.2,1332.5,1332.1,1332.4
201906130229,1332.4,1333,1332.4,1332.8
201906130230,1332.8,1332.9,1332.5,1332.6
201906130231,1332.6,1332.6,1332.3,1332.4
201906130232,1332.4,1332.8,1332.4,1332.8
201906130233,1332.8,1332.9,1332.7,1332.9
201906130234,1332.9,1332.9,1332.5,1332.5
201906130235,1332.5,1332.8,1332.4,1332.7
201906130236,1332.7,1332.8,1332.7,1332.8
201906130237,1332.8,1332.9,1332.7,1332.9
201906130238,1332.9,1333.1,1332.9,1333.1
201906130239,1333.1,1333.3,1332.9,1333.2
201906130240,1333.2,1333.2,1332.8,1332.9
201906130241,1332.9,1333,1332.8,1332.8
201906130242,1332.8,1332.8,1332.7,1332.7
201906130243,1332.7,1332.8,1332.7,1332.7
201906130244,1332.7,1332.9,1332.6,1332.8
201906130245,1332.8,1332.9,1332.5,1332.5
201906130246,1332.5,1332.7,1332.5,1332.6
201906130247,1332.6,1332.7,1332.4,1332.5
201906130248,1332.5,1332.7,1332.5,1332.7
201906130249,1332.7,1332.7,1332.5,1332.6
201906130250,1332.6,1332.9,1332.6,1332.8
201906130251,1332.8,1332.9,1332.8,1332.9
201906130252,1332.9,1333,1332.9,1332.9
201906130253,1332.9,1332.9,1332.7,1332.8
201906130254,1332.8,1332.9,1332.7,1332.8
201906130255,1332.8,1332.9,1332.7,1332.9
201906130256,1332.9,1333.2,1332.9,1333.1
201906130257,1333.1,1333.1,1332.9,1333
201906130258,1333,1333.2,1333,1333.1
201906130259,1333.1,1333.2,1332.9,1333
201906130300,1333,1333,1332.8,1332.8
201906130301,1332.8,1333.3,1332.8,1333.3
201906130302,1333.3,1333.4,1333.2,1333.3
201906130303,1333.3,1333.3,1332.8,1332.9
201906130304,1332.9,1333,1332.8,1332.9
201906130305,1332.9,1333.1,1332.8,1332.8
201906130306,1332.8,1333,1332.7,1332.7
201906130307,1332.8,1332.8,1332.6,1332.7
201906130308,1332.7,1332.7,1332.5,1332.7
201906130309,1332.7,1332.7,1332.3,1332.3
201906130310,1332.3,1332.5,1332.2,1332.5
201906130311,1332.5,1332.5,1332.3,1332.4
201906130312,1332.4,1332.7,1332.4,1332.6
201906130313,1332.6,1332.7,1332.6,1332.7
201906130314,1332.7,1332.8,1332.7,1332.8
201906130315,1332.7,1332.8,1332.7,1332.7
201906130316,1332.7,1332.8,1332.6,1332.8
201906130317,1332.8,1333,1332.7,1333
201906130318,1333,1333,1332.8,1332.8
201906130319,1332.8,1333.1,1332.8,1332.9
201906130320,1332.8,1333,1332.8,1332.9
201906130321,1332.9,1333.1,1332.9,1333.1
201906130322,1333.1,1333.1,1332.8,1332.8
201906130323,1332.8,1333.1,1332.8,1333
201906130324,1333,1333.2,1333,1333.1
201906130325,1333.1,1333.1,1332.9,1332.9
201906130326,1332.9,1333,1332.9,1333
201906130327,1333,1333.1,1332.8,1332.9
201906130328,1332.9,1333,1332.8,1332.9
201906130329,1332.9,1333,1332.8,1332.8
201906130330,1332.8,1332.8,1332.7,1332.7
201906130331,1332.7,1332.9,1332.7,1332.8
201906130332,1332.8,1332.8,1332.8,1332.8
201906130333,1332.8,1332.8,1332.7,1332.8
201906130334,1332.8,1332.9,1332.7,1332.8
201906130335,1332.8,1333.1,1332.8,1333.1
201906130336,1333,1333.1,1333,1333
201906130337,1333,1333,1332.9,1332.9
201906130338,1332.9,1332.9,1332.7,1332.8
201906130339,1332.8,1332.8,1332.7,1332.7
201906130340,1332.7,1332.8,1332.7,1332.8
201906130341,1332.8,1333,1332.8,1332.8
201906130342,1332.8,1332.8,1332.6,1332.7
201906130343,1332.7,1332.7,1332.5,1332.7
201906130344,1332.7,1332.9,1332.7,1332.7
201906130345,1332.7,1332.8,1332.6,1332.7
201906130346,1332.7,1332.7,1332.5,1332.6
201906130347,1332.6,1332.6,1331.8,1331.9
201906130348,1331.9,1332.3,1331.9,1332.2
201906130349,1332.2,1332.3,1332.1,1332.1
201906130350,1332.1,1332.3,1332.1,1332.3
201906130351,1332.3,1332.4,1332.3,1332.3
201906130352,1332.3,1332.4,1331.9,1331.9
201906130353,1332,1332.1,1331.9,1332
201906130354,1332,1332.2,1332,1332.2
201906130355,1332.2,1332.3,1332.1,1332.3
201906130356,1332.3,1332.5,1332,1332.2
201906130357,1332.2,1332.2,1331.8,1331.9
201906130358,1331.9,1332.3,1331.9,1332.3
201906130359,1332.3,1332.6,1332.3,1332.5
201906130400,1332.5,1332.7,1332.2,1332.3
201906130401,1332.3,1332.6,1332.3,1332.6
201906130402,1332.6,1332.6,1332.4,1332.6
201906130403,1332.6,1332.7,1332.5,1332.7
201906130404,1332.7,1332.7,1332.6,1332.6
201906130405,1332.7,1332.8,1332.5,1332.6
201906130406,1332.6,1332.7,1332.5,1332.7
201906130407,1332.7,1332.7,1332.6,1332.6
201906130408,1332.6,1332.7,1332.6,1332.7
201906130409,1332.7,1332.8,1332.6,1332.7
201906130410,1332.7,1332.8,1332.6,1332.6
201906130411,1332.6,1332.7,1332.6,1332.6
201906130412,1332.6,1332.6,1332.5,1332.5
201906130413,1332.5,1332.5,1332.3,1332.3
201906130414,1332.3,1332.3,1332.2,1332.3
201906130415,1332.3,1332.4,1332.2,1332.3
201906130416,1332.3,1332.4,1332.3,1332.4
201906130417,1332.4,1332.5,1332.2,1332.3
201906130418,1332.3,1332.4,1332.3,1332.3
201906130419,1332.3,1332.3,1332.2,1332.3
201906130420,1332.3,1332.3,1332.2,1332.2
201906130421,1332.2,1332.3,1332.2,1332.3
201906130422,1332.3,1332.3,1332.1,1332.3
201906130423,1332.3,1332.3,1332.3,1332.3
201906130424,1332.3,1332.5,1332.3,1332.4
201906130425,1332.4,1332.5,1332.3,1332.4
201906130426,1332.4,1332.4,1332.3,1332.4
201906130427,1332.4,1332.4,1332.3,1332.4
201906130428,1332.4,1332.4,1332.3,1332.3
201906130429,1332.3,1332.5,1332.3,1332.4
201906130430,1332.4,1332.5,1332.3,1332.5
201906130431,1332.5,1332.5,1332.3,1332.5
201906130432,1332.5,1332.6,1332.5,1332.5
201906130433,1332.5,1332.6,1332.5,1332.5
201906130434,1332.5,1332.6,1332.5,1332.5
201906130435,1332.5,1332.5,1332.3,1332.4
201906130436,1332.4,1332.4,1332.3,1332.4
201906130437,1332.4,1332.6,1332.4,1332.6
201906130438,1332.6,1332.6,1332.5,1332.5
201906130439,1332.5,1332.6,1332.4,1332.4
201906130440,1332.4,1332.6,1332.4,1332.6
201906130441,1332.6,1332.6,1332.5,1332.5
201906130442,1332.5,1332.5,1332.4,1332.5
201906130443,1332.5,1332.5,1332.5,1332.5
201906130444,1332.5,1332.6,1332.5,1332.6
201906130445,1332.6,1332.7,1332.5,1332.6
201906130446,1332.6,1332.6,1332.5,1332.6
201906130447,1332.6,1332.6,1332.5,1332.6
201906130448,1332.6,1332.7,1332.5,1332.5
201906130449,1332.5,1332.7,1332.5,1332.7
201906130450,1332.7,1332.7,1332.7,1332.7
201906130451,1332.7,1332.8,1332.6,1332.7
201906130452,1332.7,1332.7,1332.7,1332.7
201906130453,1332.7,1332.8,1332.6,1332.7
201906130454,1332.7,1332.8,1332.7,1332.7
201906130455,1332.7,1332.9,1332.6,1332.9
201906130456,1332.9,1333,1332.9,1332.9
201906130457,1332.9,1333,1332.8,1332.8
201906130458,1332.8,1332.8,1332.6,1332.7
201906130459,1332.7,1332.9,1332.7,1332.8
201906130500,1332.9,1332.9,1332.8,1332.9
201906130501,1332.9,1332.9,1332.8,1332.9
201906130502,1332.9,1332.9,1332.8,1332.8
201906130503,1332.8,1332.9,1332.8,1332.8
201906130504,1332.8,1332.9,1332.8,1332.9
201906130505,1332.9,1332.9,1332.8,1332.9
201906130506,1332.9,1332.9,1332.8,1332.8
201906130507,1332.8,1332.9,1332.8,1332.8
201906130508,1332.8,1333,1332.8,1332.9
201906130509,1332.9,1333,1332.9,1332.9
201906130510,1332.9,1332.9,1332.9,1332.9
201906130511,1332.9,1332.9,1332.9,1332.9
201906130512,1332.9,1332.9,1332.9,1332.9
201906130513,1332.9,1332.9,1332.9,1332.9
201906130514,1332.9,1332.9,1332.8,1332.9
201906130515,1332.9,1332.9,1332.9,1332.9
201906130516,1332.9,1332.9,1332.8,1332.9
201906130517,1332.9,1332.9,1332.8,1332.9
201906130518,1332.9,1332.9,1332.8,1332.8
201906130519,1332.8,1332.9,1332.8,1332.9
201906130520,1332.9,1332.9,1332.8,1332.8
201906130521,1332.9,1332.9,1332.8,1332.8
201906130522,1332.8,1332.8,1332.8,1332.8
201906130523,1332.8,1332.8,1332.8,1332.8
201906130524,1332.8,1332.8,1332.8,1332.8
201906130525,1332.9,1332.9,1332.9,1332.9
201906130526,1332.9,1332.9,1332.9,1332.9
201906130527,1332.9,1332.9,1332.8,1332.8
201906130528,1332.8,1332.9,1332.8,1332.8
201906130529,1332.8,1332.8,1332.8,1332.8
201906130530,1332.8,1332.8,1332.8,1332.8
201906130531,1332.8,1332.8,1332.8,1332.8
201906130532,1332.8,1332.8,1332.8,1332.8
201906130533,1332.8,1332.9,1332.8,1332.8
201906130534,1332.8,1332.9,1332.8,1332.9
201906130535,1332.9,1333.1,1332.8,1332.9
201906130536,1332.9,1332.9,1332.9,1332.9
201906130537,1332.9,1332.9,1332.8,1332.8
201906130538,1332.8,1332.9,1332.8,1332.8
201906130539,1332.8,1332.9,1332.8,1332.9
201906130540,1332.9,1332.9,1332.8,1332.8
201906130541,1332.8,1332.8,1332.7,1332.7
201906130542,1332.7,1332.8,1332.7,1332.8
201906130543,1332.8,1332.8,1332.8,1332.8
201906130544,1332.8,1332.8,1332.8,1332.8
201906130545,1332.8,1333,1332.7,1333
201906130546,1333,1333,1333,1333
201906130547,1333,1333,1333,1333
201906130548,1333.1,1333.2,1333,1333.1
201906130549,1333.1,1333.1,1333.1,1333.1
201906130550,1333.1,1333.1,1333,1333
201906130551,1333,1333.1,1333,1333.1
201906130552,1333.1,1333.2,1333.1,1333.2
201906130553,1333.2,1333.2,1333.1,1333.2
201906130554,1333.2,1333.2,1333.1,1333.2
201906130555,1333.1,1333.2,1333.1,1333.1
201906130556,1333.1,1333.2,1333.1,1333.2
201906130557,1333.2,1333.4,1333.2,1333.2
201906130558,1333.2,1333.4,1333.2,1333.3
201906130559,1333.4,1333.4,1333.2,1333.4
