日時,始値(BID),高値(BID),安値(BID),終値(BID)
201905270700,14.562,14.571,14.561,14.57
201905270701,14.57,14.571,14.57,14.57
201905270702,14.57,14.57,14.568,14.57
201905270703,14.57,14.57,14.57,14.57
201905270704,14.57,14.571,14.57,14.571
201905270705,14.571,14.571,14.57,14.57
201905270706,14.57,14.57,14.57,14.57
201905270707,14.57,14.57,14.57,14.57
201905270708,14.57,14.57,14.57,14.57
201905270709,14.57,14.57,14.57,14.57
201905270710,14.57,14.57,14.569,14.569
201905270711,14.569,14.57,14.569,14.57
201905270712,14.57,14.57,14.57,14.57
201905270713,14.57,14.57,14.57,14.57
201905270714,14.57,14.57,14.57,14.57
201905270715,14.57,14.57,14.569,14.57
201905270716,14.57,14.571,14.57,14.571
201905270717,14.571,14.574,14.571,14.573
201905270718,14.573,14.574,14.573,14.574
201905270719,14.574,14.574,14.573,14.573
201905270720,14.574,14.574,14.573,14.573
201905270721,14.573,14.574,14.572,14.573
201905270722,14.573,14.574,14.573,14.574
201905270723,14.574,14.575,14.573,14.575
201905270724,14.575,14.575,14.573,14.574
201905270725,14.574,14.575,14.574,14.575
201905270726,14.575,14.575,14.574,14.575
201905270727,14.575,14.575,14.572,14.573
201905270728,14.573,14.575,14.573,14.573
201905270729,14.573,14.575,14.573,14.573
201905270730,14.573,14.575,14.573,14.575
201905270731,14.575,14.575,14.573,14.573
201905270732,14.573,14.575,14.573,14.573
201905270733,14.573,14.575,14.573,14.575
201905270734,14.575,14.575,14.569,14.57
201905270735,14.57,14.57,14.569,14.57
201905270736,14.57,14.571,14.57,14.571
201905270737,14.571,14.575,14.571,14.573
201905270738,14.573,14.575,14.572,14.573
201905270739,14.573,14.575,14.572,14.573
201905270740,14.573,14.575,14.572,14.573
201905270741,14.573,14.575,14.573,14.575
201905270742,14.575,14.575,14.572,14.573
201905270743,14.573,14.575,14.572,14.575
201905270744,14.575,14.575,14.572,14.575
201905270745,14.575,14.575,14.572,14.573
201905270746,14.573,14.574,14.57,14.57
201905270747,14.57,14.57,14.57,14.57
201905270748,14.57,14.57,14.57,14.57
201905270749,14.57,14.57,14.569,14.57
201905270750,14.57,14.57,14.569,14.57
201905270751,14.57,14.571,14.57,14.571
201905270752,14.571,14.571,14.57,14.571
201905270753,14.571,14.571,14.571,14.571
201905270754,14.571,14.573,14.57,14.571
201905270755,14.571,14.571,14.57,14.571
201905270756,14.571,14.571,14.57,14.57
201905270757,14.57,14.571,14.57,14.571
201905270758,14.571,14.572,14.57,14.572
201905270759,14.572,14.572,14.571,14.571
201905270800,14.571,14.572,14.57,14.571
201905270801,14.571,14.572,14.571,14.572
201905270802,14.572,14.572,14.571,14.571
201905270803,14.571,14.572,14.57,14.572
201905270804,14.571,14.571,14.571,14.571
201905270805,14.571,14.571,14.571,14.571
201905270806,14.571,14.571,14.571,14.571
201905270807,14.571,14.571,14.571,14.571
201905270808,14.571,14.572,14.57,14.572
201905270809,14.572,14.572,14.571,14.571
201905270810,14.571,14.572,14.57,14.571
201905270811,14.571,14.571,14.571,14.571
201905270812,14.571,14.571,14.571,14.571
201905270813,14.571,14.571,14.571,14.571
201905270814,14.571,14.571,14.571,14.571
201905270815,14.571,14.571,14.571,14.571
201905270816,14.571,14.571,14.571,14.571
201905270817,14.571,14.571,14.569,14.57
201905270818,14.57,14.57,14.569,14.57
201905270819,14.57,14.571,14.57,14.571
201905270820,14.571,14.571,14.569,14.569
201905270821,14.571,14.571,14.571,14.571
201905270822,14.571,14.571,14.571,14.571
201905270823,14.571,14.571,14.57,14.57
201905270824,14.57,14.57,14.568,14.57
201905270825,14.57,14.57,14.565,14.566
201905270826,14.566,14.568,14.566,14.568
201905270827,14.568,14.57,14.568,14.57
201905270828,14.57,14.57,14.567,14.57
201905270829,14.57,14.57,14.567,14.568
201905270830,14.568,14.569,14.566,14.566
201905270831,14.566,14.567,14.565,14.567
201905270832,14.567,14.57,14.565,14.57
201905270833,14.57,14.57,14.568,14.57
201905270834,14.57,14.57,14.569,14.57
201905270835,14.57,14.57,14.569,14.57
201905270836,14.569,14.57,14.569,14.57
201905270837,14.57,14.57,14.568,14.569
201905270838,14.569,14.57,14.569,14.569
201905270839,14.569,14.569,14.568,14.569
201905270840,14.57,14.57,14.569,14.569
201905270841,14.569,14.569,14.568,14.569
201905270842,14.569,14.57,14.568,14.569
201905270843,14.569,14.57,14.566,14.567
201905270844,14.568,14.57,14.568,14.57
201905270845,14.57,14.571,14.569,14.57
201905270846,14.57,14.57,14.569,14.57
201905270847,14.57,14.57,14.569,14.57
201905270848,14.57,14.571,14.57,14.57
201905270849,14.57,14.57,14.57,14.57
201905270850,14.57,14.57,14.568,14.569
201905270851,14.569,14.57,14.569,14.569
201905270852,14.569,14.57,14.569,14.57
201905270853,14.57,14.57,14.569,14.569
201905270854,14.569,14.57,14.568,14.569
201905270855,14.569,14.571,14.569,14.571
201905270856,14.571,14.571,14.571,14.571
201905270857,14.571,14.571,14.57,14.57
201905270858,14.57,14.571,14.569,14.569
201905270859,14.569,14.569,14.568,14.569
201905270900,14.569,14.569,14.564,14.565
201905270901,14.565,14.566,14.564,14.566
201905270902,14.566,14.566,14.566,14.566
201905270903,14.566,14.566,14.565,14.566
201905270904,14.566,14.566,14.564,14.564
201905270905,14.564,14.565,14.562,14.564
201905270906,14.564,14.565,14.564,14.564
201905270907,14.564,14.565,14.564,14.565
201905270908,14.565,14.565,14.561,14.561
201905270909,14.56,14.561,14.559,14.559
201905270910,14.561,14.561,14.559,14.559
201905270911,14.559,14.561,14.557,14.557
201905270912,14.557,14.56,14.556,14.559
201905270913,14.559,14.56,14.559,14.56
201905270914,14.56,14.564,14.56,14.56
201905270915,14.56,14.561,14.56,14.56
201905270916,14.56,14.561,14.56,14.56
201905270917,14.56,14.561,14.559,14.559
201905270918,14.559,14.56,14.559,14.56
201905270919,14.56,14.56,14.56,14.56
201905270920,14.56,14.56,14.559,14.56
201905270921,14.56,14.561,14.559,14.559
201905270922,14.559,14.56,14.557,14.558
201905270923,14.559,14.56,14.559,14.56
201905270924,14.56,14.56,14.56,14.56
201905270925,14.56,14.56,14.559,14.56
201905270926,14.56,14.56,14.56,14.56
201905270927,14.56,14.561,14.559,14.561
201905270928,14.561,14.561,14.56,14.561
201905270929,14.561,14.561,14.559,14.56
201905270930,14.56,14.56,14.56,14.56
201905270931,14.56,14.561,14.56,14.56
201905270932,14.56,14.56,14.555,14.555
201905270933,14.555,14.555,14.554,14.554
201905270934,14.554,14.555,14.551,14.554
201905270935,14.554,14.555,14.553,14.554
201905270936,14.554,14.555,14.554,14.555
201905270937,14.555,14.556,14.554,14.555
201905270938,14.555,14.559,14.555,14.559
201905270939,14.559,14.563,14.559,14.563
201905270940,14.563,14.563,14.558,14.559
201905270941,14.557,14.557,14.555,14.555
201905270942,14.555,14.555,14.553,14.554
201905270943,14.554,14.557,14.553,14.555
201905270944,14.555,14.555,14.554,14.555
201905270945,14.555,14.556,14.554,14.555
201905270946,14.555,14.556,14.555,14.555
201905270947,14.555,14.561,14.555,14.561
201905270948,14.561,14.564,14.56,14.563
201905270949,14.564,14.566,14.564,14.565
201905270950,14.565,14.566,14.564,14.566
201905270951,14.566,14.566,14.565,14.565
201905270952,14.565,14.565,14.563,14.564
201905270953,14.564,14.565,14.564,14.564
201905270954,14.564,14.566,14.564,14.565
201905270955,14.565,14.565,14.564,14.565
201905270956,14.565,14.566,14.564,14.565
201905270957,14.565,14.565,14.565,14.565
201905270958,14.565,14.566,14.565,14.565
201905270959,14.565,14.565,14.564,14.565
201905271000,14.565,14.571,14.565,14.57
201905271001,14.57,14.572,14.568,14.57
201905271002,14.57,14.57,14.568,14.57
201905271003,14.57,14.571,14.57,14.57
201905271004,14.57,14.57,14.565,14.565
201905271005,14.565,14.566,14.564,14.566
201905271006,14.566,14.566,14.565,14.566
201905271007,14.566,14.576,14.566,14.575
201905271008,14.575,14.575,14.573,14.575
201905271009,14.575,14.577,14.573,14.575
201905271010,14.575,14.575,14.574,14.575
201905271011,14.575,14.575,14.575,14.575
201905271012,14.575,14.581,14.575,14.579
201905271013,14.579,14.58,14.575,14.577
201905271014,14.577,14.581,14.577,14.578
201905271015,14.578,14.583,14.577,14.582
201905271016,14.585,14.587,14.583,14.587
201905271017,14.587,14.592,14.584,14.592
201905271018,14.592,14.594,14.59,14.593
201905271019,14.593,14.598,14.593,14.595
201905271020,14.595,14.595,14.594,14.594
201905271021,14.594,14.598,14.594,14.597
201905271022,14.597,14.598,14.597,14.598
201905271023,14.598,14.604,14.598,14.603
201905271024,14.603,14.608,14.6,14.608
201905271025,14.608,14.608,14.604,14.604
201905271026,14.604,14.605,14.603,14.604
201905271027,14.604,14.605,14.603,14.604
201905271028,14.604,14.609,14.603,14.604
201905271029,14.604,14.604,14.6,14.6
201905271030,14.599,14.6,14.598,14.599
201905271031,14.599,14.6,14.598,14.6
201905271032,14.6,14.603,14.599,14.599
201905271033,14.599,14.599,14.598,14.599
201905271034,14.599,14.599,14.598,14.599
201905271035,14.599,14.599,14.598,14.598
201905271036,14.598,14.603,14.598,14.603
201905271037,14.603,14.603,14.599,14.599
201905271038,14.599,14.599,14.598,14.599
201905271039,14.599,14.602,14.598,14.598
201905271040,14.598,14.599,14.598,14.598
201905271041,14.598,14.599,14.598,14.599
201905271042,14.599,14.602,14.598,14.602
201905271043,14.602,14.603,14.599,14.601
201905271044,14.601,14.603,14.601,14.602
201905271045,14.602,14.602,14.599,14.599
201905271046,14.599,14.602,14.598,14.6
201905271047,14.6,14.6,14.599,14.6
201905271048,14.6,14.6,14.598,14.599
201905271049,14.599,14.599,14.599,14.599
201905271050,14.599,14.6,14.599,14.599
201905271051,14.599,14.604,14.599,14.603
201905271052,14.603,14.608,14.603,14.608
201905271053,14.608,14.609,14.604,14.609
201905271054,14.609,14.613,14.609,14.613
201905271055,14.613,14.615,14.612,14.614
201905271056,14.614,14.614,14.613,14.614
201905271057,14.614,14.623,14.614,14.621
201905271058,14.621,14.624,14.62,14.623
201905271059,14.622,14.624,14.619,14.623
201905271100,14.623,14.623,14.619,14.619
201905271101,14.619,14.619,14.615,14.618
201905271102,14.618,14.619,14.616,14.619
201905271103,14.619,14.624,14.619,14.623
201905271104,14.623,14.624,14.622,14.623
201905271105,14.623,14.623,14.621,14.623
201905271106,14.623,14.623,14.618,14.618
201905271107,14.618,14.619,14.618,14.618
201905271108,14.618,14.619,14.613,14.618
201905271109,14.618,14.619,14.614,14.614
201905271110,14.614,14.614,14.613,14.614
201905271111,14.614,14.614,14.613,14.613
201905271112,14.613,14.614,14.613,14.614
201905271113,14.614,14.615,14.613,14.615
201905271114,14.615,14.615,14.613,14.615
201905271115,14.615,14.615,14.613,14.613
201905271116,14.613,14.614,14.613,14.613
201905271117,14.613,14.614,14.612,14.614
201905271118,14.614,14.614,14.613,14.614
201905271119,14.614,14.615,14.613,14.613
201905271120,14.613,14.614,14.612,14.613
201905271121,14.613,14.613,14.613,14.613
201905271122,14.613,14.613,14.609,14.612
201905271123,14.612,14.613,14.611,14.613
201905271124,14.613,14.614,14.613,14.614
201905271125,14.614,14.614,14.613,14.614
201905271126,14.614,14.614,14.613,14.613
201905271127,14.613,14.613,14.612,14.613
201905271128,14.613,14.613,14.611,14.612
201905271129,14.612,14.613,14.612,14.612
201905271130,14.612,14.613,14.612,14.612
201905271131,14.612,14.612,14.608,14.612
201905271132,14.612,14.613,14.612,14.612
201905271133,14.612,14.612,14.612,14.612
201905271134,14.612,14.612,14.608,14.608
201905271135,14.608,14.609,14.608,14.609
201905271136,14.609,14.611,14.608,14.608
201905271137,14.608,14.611,14.608,14.611
201905271138,14.611,14.612,14.608,14.608
201905271139,14.608,14.609,14.608,14.609
201905271140,14.609,14.609,14.608,14.608
201905271141,14.608,14.608,14.606,14.608
201905271142,14.608,14.608,14.606,14.607
201905271143,14.606,14.608,14.606,14.607
201905271144,14.607,14.607,14.607,14.607
201905271145,14.607,14.607,14.606,14.607
201905271146,14.607,14.607,14.607,14.607
201905271147,14.607,14.607,14.607,14.607
201905271148,14.607,14.608,14.607,14.608
201905271149,14.607,14.608,14.607,14.607
201905271150,14.607,14.608,14.607,14.607
201905271151,14.607,14.608,14.607,14.608
201905271152,14.608,14.608,14.607,14.608
201905271153,14.608,14.608,14.607,14.607
201905271154,14.607,14.607,14.607,14.607
201905271155,14.607,14.607,14.607,14.607
201905271156,14.607,14.607,14.603,14.603
201905271157,14.603,14.604,14.602,14.602
201905271158,14.602,14.602,14.602,14.602
201905271159,14.602,14.607,14.602,14.603
201905271200,14.603,14.604,14.603,14.603
201905271201,14.603,14.603,14.602,14.602
201905271202,14.602,14.606,14.602,14.603
201905271203,14.603,14.604,14.601,14.602
201905271204,14.602,14.602,14.601,14.601
201905271205,14.601,14.601,14.601,14.601
201905271206,14.601,14.602,14.601,14.601
201905271207,14.601,14.602,14.601,14.601
201905271208,14.601,14.602,14.601,14.602
201905271209,14.602,14.606,14.601,14.605
201905271210,14.605,14.605,14.602,14.602
201905271211,14.601,14.603,14.601,14.602
201905271212,14.602,14.602,14.601,14.602
201905271213,14.602,14.602,14.602,14.602
201905271214,14.602,14.602,14.602,14.602
201905271215,14.602,14.602,14.602,14.602
201905271216,14.602,14.602,14.602,14.602
201905271217,14.602,14.602,14.602,14.602
201905271218,14.602,14.603,14.602,14.603
201905271219,14.603,14.606,14.603,14.606
201905271220,14.606,14.607,14.606,14.606
201905271221,14.606,14.606,14.606,14.606
201905271222,14.606,14.606,14.606,14.606
201905271223,14.606,14.606,14.606,14.606
201905271224,14.606,14.606,14.605,14.606
201905271225,14.606,14.607,14.606,14.606
201905271226,14.606,14.606,14.606,14.606
201905271227,14.606,14.606,14.606,14.606
201905271228,14.606,14.607,14.606,14.607
201905271229,14.607,14.607,14.606,14.606
201905271230,14.606,14.607,14.606,14.606
201905271231,14.606,14.606,14.606,14.606
201905271232,14.606,14.606,14.606,14.606
201905271233,14.606,14.607,14.606,14.606
201905271234,14.606,14.606,14.606,14.606
201905271235,14.606,14.607,14.606,14.606
201905271236,14.606,14.607,14.606,14.607
201905271237,14.607,14.607,14.606,14.607
201905271238,14.607,14.608,14.607,14.607
201905271239,14.607,14.607,14.606,14.607
201905271240,14.607,14.607,14.606,14.607
201905271241,14.607,14.607,14.607,14.607
201905271242,14.607,14.607,14.606,14.607
201905271243,14.607,14.607,14.607,14.607
201905271244,14.607,14.607,14.607,14.607
201905271245,14.607,14.607,14.606,14.607
201905271246,14.607,14.607,14.606,14.606
201905271247,14.607,14.607,14.606,14.607
201905271248,14.607,14.607,14.607,14.607
201905271249,14.607,14.607,14.606,14.606
201905271250,14.606,14.611,14.606,14.611
201905271251,14.611,14.611,14.61,14.61
201905271252,14.61,14.61,14.61,14.61
201905271253,14.61,14.611,14.61,14.61
201905271254,14.61,14.61,14.61,14.61
201905271255,14.61,14.61,14.61,14.61
201905271256,14.61,14.61,14.61,14.61
201905271257,14.61,14.61,14.609,14.609
201905271258,14.609,14.61,14.609,14.61
201905271259,14.61,14.61,14.609,14.61
201905271300,14.61,14.611,14.61,14.611
201905271301,14.611,14.611,14.607,14.611
201905271302,14.611,14.611,14.611,14.611
201905271303,14.611,14.611,14.61,14.611
201905271304,14.611,14.611,14.61,14.611
201905271305,14.611,14.612,14.61,14.61
201905271306,14.61,14.611,14.61,14.611
201905271307,14.61,14.611,14.61,14.611
201905271308,14.611,14.611,14.611,14.611
201905271309,14.611,14.611,14.611,14.611
201905271310,14.611,14.612,14.611,14.611
201905271311,14.611,14.615,14.611,14.615
201905271312,14.615,14.616,14.615,14.616
201905271313,14.616,14.616,14.616,14.616
201905271314,14.616,14.616,14.616,14.616
201905271315,14.616,14.616,14.616,14.616
201905271316,14.616,14.616,14.616,14.616
201905271317,14.616,14.62,14.616,14.618
201905271318,14.62,14.621,14.62,14.621
201905271319,14.621,14.621,14.62,14.621
201905271320,14.621,14.621,14.62,14.621
201905271321,14.62,14.62,14.62,14.62
201905271322,14.62,14.62,14.616,14.617
201905271323,14.617,14.618,14.616,14.617
201905271324,14.617,14.617,14.616,14.617
201905271325,14.617,14.617,14.616,14.617
201905271326,14.617,14.62,14.617,14.62
201905271327,14.62,14.622,14.62,14.62
201905271328,14.62,14.62,14.62,14.62
201905271329,14.62,14.621,14.62,14.62
201905271330,14.62,14.621,14.62,14.62
201905271331,14.62,14.621,14.62,14.62
201905271332,14.62,14.621,14.62,14.621
201905271333,14.621,14.621,14.62,14.621
201905271334,14.621,14.621,14.62,14.621
201905271335,14.621,14.621,14.621,14.621
201905271336,14.621,14.622,14.621,14.622
201905271337,14.622,14.622,14.62,14.62
201905271338,14.62,14.621,14.62,14.62
201905271339,14.62,14.621,14.62,14.62
201905271340,14.62,14.62,14.62,14.62
201905271341,14.62,14.621,14.62,14.621
201905271342,14.621,14.621,14.62,14.621
201905271343,14.621,14.621,14.62,14.621
201905271344,14.621,14.621,14.621,14.621
201905271345,14.621,14.621,14.62,14.621
201905271346,14.621,14.621,14.621,14.621
201905271347,14.621,14.621,14.621,14.621
201905271348,14.621,14.621,14.62,14.621
201905271349,14.621,14.622,14.62,14.62
201905271350,14.62,14.621,14.62,14.62
201905271351,14.62,14.62,14.62,14.62
201905271352,14.62,14.621,14.62,14.621
201905271353,14.621,14.621,14.621,14.621
201905271354,14.621,14.622,14.621,14.621
201905271355,14.621,14.621,14.621,14.621
201905271356,14.62,14.621,14.62,14.621
201905271357,14.621,14.622,14.62,14.622
201905271358,14.622,14.622,14.62,14.62
201905271359,14.62,14.62,14.616,14.616
201905271400,14.616,14.616,14.615,14.616
201905271401,14.616,14.616,14.616,14.616
201905271402,14.616,14.617,14.616,14.617
201905271403,14.617,14.617,14.616,14.616
201905271404,14.616,14.617,14.616,14.617
201905271405,14.617,14.617,14.616,14.616
201905271406,14.616,14.617,14.616,14.617
201905271407,14.617,14.617,14.616,14.617
201905271408,14.617,14.617,14.616,14.616
201905271409,14.616,14.62,14.616,14.62
201905271410,14.62,14.622,14.62,14.622
201905271411,14.622,14.622,14.621,14.621
201905271412,14.621,14.622,14.621,14.622
201905271413,14.622,14.622,14.621,14.622
201905271414,14.622,14.622,14.622,14.622
201905271415,14.622,14.622,14.621,14.622
201905271416,14.622,14.622,14.622,14.622
201905271417,14.622,14.622,14.621,14.622
201905271418,14.622,14.622,14.622,14.622
201905271419,14.622,14.622,14.622,14.622
201905271420,14.622,14.622,14.622,14.622
201905271421,14.622,14.622,14.622,14.622
201905271422,14.622,14.622,14.621,14.621
201905271423,14.621,14.622,14.621,14.621
201905271424,14.621,14.622,14.621,14.622
201905271425,14.622,14.622,14.621,14.621
201905271426,14.621,14.621,14.621,14.621
201905271427,14.621,14.621,14.62,14.621
201905271428,14.621,14.622,14.621,14.622
201905271429,14.622,14.622,14.62,14.622
201905271430,14.622,14.622,14.62,14.62
201905271431,14.62,14.62,14.615,14.616
201905271432,14.616,14.616,14.613,14.614
201905271433,14.615,14.616,14.614,14.615
201905271434,14.615,14.616,14.615,14.615
201905271435,14.615,14.616,14.615,14.616
201905271436,14.616,14.617,14.613,14.614
201905271437,14.614,14.615,14.61,14.61
201905271438,14.61,14.614,14.61,14.614
201905271439,14.614,14.615,14.611,14.614
201905271440,14.614,14.618,14.613,14.616
201905271441,14.616,14.616,14.615,14.616
201905271442,14.616,14.616,14.615,14.615
201905271443,14.615,14.616,14.613,14.615
201905271444,14.615,14.616,14.611,14.615
201905271445,14.615,14.616,14.615,14.615
201905271446,14.615,14.615,14.611,14.611
201905271447,14.611,14.615,14.611,14.611
201905271448,14.611,14.612,14.61,14.611
201905271449,14.61,14.611,14.61,14.611
201905271450,14.611,14.611,14.61,14.611
201905271451,14.611,14.611,14.61,14.61
201905271452,14.61,14.611,14.61,14.61
201905271453,14.61,14.611,14.61,14.61
201905271454,14.61,14.61,14.604,14.604
201905271455,14.603,14.604,14.6,14.604
201905271456,14.603,14.605,14.601,14.601
201905271457,14.601,14.605,14.601,14.605
201905271458,14.605,14.607,14.604,14.605
201905271459,14.605,14.605,14.6,14.6
201905271500,14.6,14.601,14.599,14.6
201905271501,14.6,14.6,14.599,14.6
201905271502,14.6,14.6,14.599,14.6
201905271503,14.6,14.6,14.599,14.6
201905271504,14.6,14.6,14.599,14.6
201905271505,14.6,14.6,14.599,14.6
201905271506,14.6,14.6,14.599,14.6
201905271507,14.6,14.6,14.599,14.6
201905271508,14.6,14.6,14.598,14.6
201905271509,14.6,14.6,14.599,14.599
201905271510,14.599,14.6,14.599,14.6
201905271511,14.6,14.601,14.6,14.601
201905271512,14.601,14.605,14.6,14.605
201905271513,14.605,14.606,14.605,14.605
201905271514,14.605,14.607,14.605,14.607
201905271515,14.607,14.608,14.605,14.605
201905271516,14.605,14.608,14.605,14.608
201905271517,14.608,14.608,14.608,14.608
201905271518,14.608,14.612,14.608,14.608
201905271519,14.608,14.612,14.608,14.612
201905271520,14.612,14.613,14.609,14.612
201905271521,14.612,14.612,14.612,14.612
201905271522,14.612,14.613,14.612,14.612
201905271523,14.612,14.612,14.611,14.612
201905271524,14.612,14.613,14.612,14.613
201905271525,14.613,14.613,14.608,14.608
201905271526,14.608,14.608,14.606,14.606
201905271527,14.606,14.607,14.605,14.607
201905271528,14.607,14.608,14.606,14.607
201905271529,14.607,14.607,14.606,14.606
201905271530,14.606,14.607,14.604,14.606
201905271531,14.606,14.606,14.603,14.605
201905271532,14.606,14.607,14.605,14.607
201905271533,14.607,14.608,14.607,14.607
201905271534,14.607,14.608,14.605,14.606
201905271535,14.606,14.606,14.602,14.602
201905271536,14.602,14.602,14.602,14.602
201905271537,14.602,14.603,14.602,14.602
201905271538,14.602,14.602,14.602,14.602
201905271539,14.602,14.602,14.6,14.6
201905271540,14.6,14.602,14.6,14.602
201905271541,14.602,14.602,14.6,14.601
201905271542,14.601,14.601,14.597,14.597
201905271543,14.597,14.597,14.595,14.595
201905271544,14.595,14.596,14.593,14.596
201905271545,14.596,14.596,14.593,14.595
201905271546,14.595,14.596,14.592,14.594
201905271547,14.594,14.596,14.593,14.596
201905271548,14.596,14.596,14.592,14.592
201905271549,14.592,14.592,14.591,14.591
201905271550,14.591,14.592,14.591,14.591
201905271551,14.591,14.591,14.59,14.591
201905271552,14.591,14.596,14.591,14.596
201905271553,14.596,14.596,14.595,14.596
201905271554,14.596,14.596,14.596,14.596
201905271555,14.596,14.597,14.596,14.596
201905271556,14.596,14.596,14.591,14.593
201905271557,14.592,14.593,14.592,14.593
201905271558,14.593,14.593,14.592,14.592
201905271559,14.592,14.596,14.592,14.596
201905271600,14.596,14.601,14.596,14.596
201905271601,14.596,14.597,14.591,14.592
201905271602,14.592,14.594,14.592,14.592
201905271603,14.592,14.596,14.592,14.594
201905271604,14.594,14.594,14.592,14.594
201905271605,14.594,14.597,14.593,14.596
201905271606,14.596,14.601,14.596,14.601
201905271607,14.6,14.605,14.6,14.605
201905271608,14.605,14.605,14.604,14.604
201905271609,14.605,14.605,14.603,14.604
201905271610,14.604,14.604,14.601,14.602
201905271611,14.602,14.604,14.601,14.603
201905271612,14.603,14.606,14.603,14.606
201905271613,14.605,14.608,14.605,14.607
201905271614,14.607,14.607,14.601,14.601
201905271615,14.601,14.601,14.597,14.597
201905271616,14.597,14.597,14.596,14.596
201905271617,14.596,14.6,14.596,14.597
201905271618,14.597,14.602,14.597,14.599
201905271619,14.599,14.6,14.597,14.597
201905271620,14.597,14.597,14.592,14.597
201905271621,14.596,14.597,14.594,14.596
201905271622,14.596,14.597,14.596,14.596
201905271623,14.596,14.598,14.596,14.597
201905271624,14.597,14.603,14.597,14.602
201905271625,14.602,14.602,14.601,14.601
201905271626,14.601,14.601,14.599,14.599
201905271627,14.6,14.6,14.599,14.6
201905271628,14.6,14.6,14.596,14.596
201905271629,14.596,14.596,14.596,14.596
201905271630,14.596,14.597,14.596,14.596
201905271631,14.596,14.599,14.596,14.599
201905271632,14.599,14.605,14.599,14.605
201905271633,14.604,14.605,14.601,14.601
201905271634,14.601,14.601,14.601,14.601
201905271635,14.601,14.601,14.598,14.598
201905271636,14.599,14.599,14.589,14.589
201905271637,14.589,14.592,14.589,14.592
201905271638,14.592,14.593,14.591,14.592
201905271639,14.592,14.592,14.591,14.592
201905271640,14.591,14.592,14.589,14.589
201905271641,14.59,14.59,14.586,14.586
201905271642,14.586,14.587,14.586,14.587
201905271643,14.587,14.587,14.585,14.586
201905271644,14.586,14.587,14.586,14.586
201905271645,14.586,14.586,14.584,14.585
201905271646,14.585,14.587,14.583,14.586
201905271647,14.586,14.587,14.586,14.586
201905271648,14.586,14.587,14.586,14.587
201905271649,14.587,14.591,14.586,14.591
201905271650,14.591,14.591,14.59,14.591
201905271651,14.591,14.591,14.59,14.591
201905271652,14.591,14.591,14.59,14.591
201905271653,14.591,14.592,14.591,14.592
201905271654,14.592,14.592,14.59,14.591
201905271655,14.591,14.592,14.59,14.591
201905271656,14.591,14.592,14.591,14.591
201905271657,14.591,14.592,14.591,14.591
201905271658,14.591,14.591,14.589,14.591
201905271659,14.591,14.595,14.59,14.595
201905271700,14.594,14.601,14.594,14.6
201905271701,14.599,14.601,14.599,14.601
201905271702,14.601,14.602,14.601,14.602
201905271703,14.602,14.605,14.601,14.605
201905271704,14.605,14.606,14.604,14.605
201905271705,14.605,14.615,14.605,14.615
201905271706,14.615,14.616,14.615,14.616
201905271707,14.617,14.617,14.613,14.614
201905271708,14.614,14.616,14.614,14.616
201905271709,14.616,14.616,14.614,14.616
201905271710,14.616,14.617,14.614,14.615
201905271711,14.615,14.616,14.614,14.615
201905271712,14.615,14.617,14.615,14.615
201905271713,14.615,14.615,14.614,14.615
201905271714,14.614,14.615,14.612,14.612
201905271715,14.612,14.612,14.612,14.612
201905271716,14.612,14.613,14.611,14.611
201905271717,14.611,14.611,14.611,14.611
201905271718,14.611,14.612,14.611,14.612
201905271719,14.611,14.611,14.611,14.611
201905271720,14.611,14.611,14.607,14.609
201905271721,14.61,14.612,14.61,14.612
201905271722,14.612,14.616,14.611,14.612
201905271723,14.612,14.612,14.611,14.611
201905271724,14.611,14.612,14.607,14.611
201905271725,14.611,14.611,14.607,14.609
201905271726,14.609,14.61,14.607,14.609
201905271727,14.609,14.611,14.608,14.609
201905271728,14.609,14.61,14.608,14.61
201905271729,14.61,14.61,14.608,14.61
201905271730,14.61,14.61,14.609,14.61
201905271731,14.61,14.611,14.61,14.61
201905271732,14.61,14.61,14.609,14.61
201905271733,14.61,14.612,14.61,14.61
201905271734,14.61,14.611,14.61,14.61
201905271735,14.61,14.61,14.606,14.608
201905271736,14.608,14.608,14.605,14.605
201905271737,14.605,14.606,14.605,14.605
201905271738,14.605,14.605,14.605,14.605
201905271739,14.604,14.604,14.595,14.598
201905271740,14.598,14.599,14.596,14.596
201905271741,14.597,14.599,14.596,14.599
201905271742,14.598,14.599,14.598,14.599
201905271743,14.599,14.599,14.598,14.599
201905271744,14.599,14.599,14.594,14.595
201905271745,14.595,14.595,14.594,14.595
201905271746,14.595,14.595,14.594,14.595
201905271747,14.595,14.595,14.594,14.595
201905271748,14.595,14.596,14.594,14.595
201905271749,14.595,14.595,14.594,14.595
201905271750,14.595,14.596,14.59,14.59
201905271751,14.59,14.591,14.589,14.59
201905271752,14.59,14.591,14.589,14.59
201905271753,14.59,14.59,14.589,14.59
201905271754,14.59,14.59,14.589,14.59
201905271755,14.59,14.59,14.585,14.586
201905271756,14.586,14.586,14.585,14.586
201905271757,14.585,14.587,14.585,14.587
201905271758,14.587,14.587,14.585,14.586
201905271759,14.586,14.586,14.585,14.585
201905271800,14.585,14.585,14.58,14.581
201905271801,14.581,14.586,14.58,14.584
201905271802,14.584,14.586,14.584,14.584
201905271803,14.584,14.586,14.583,14.586
201905271804,14.584,14.586,14.584,14.585
201905271805,14.585,14.59,14.584,14.59
201905271806,14.59,14.59,14.589,14.589
201905271807,14.59,14.59,14.588,14.589
201905271808,14.589,14.59,14.589,14.59
201905271809,14.589,14.59,14.589,14.59
201905271810,14.59,14.59,14.589,14.59
201905271811,14.59,14.59,14.589,14.59
201905271812,14.589,14.59,14.589,14.589
201905271813,14.589,14.59,14.589,14.59
201905271814,14.59,14.59,14.584,14.585
201905271815,14.585,14.59,14.584,14.589
201905271816,14.59,14.59,14.588,14.589
201905271817,14.589,14.59,14.588,14.59
201905271818,14.59,14.59,14.585,14.585
201905271819,14.585,14.585,14.584,14.585
201905271820,14.585,14.586,14.584,14.586
201905271821,14.586,14.589,14.585,14.589
201905271822,14.589,14.589,14.588,14.589
201905271823,14.589,14.589,14.584,14.585
201905271824,14.585,14.585,14.584,14.585
201905271825,14.584,14.584,14.577,14.577
201905271826,14.578,14.578,14.573,14.575
201905271827,14.575,14.576,14.575,14.576
201905271828,14.576,14.576,14.575,14.576
201905271829,14.576,14.581,14.576,14.581
201905271830,14.581,14.582,14.581,14.581
201905271831,14.581,14.582,14.581,14.581
201905271832,14.582,14.586,14.582,14.585
201905271833,14.585,14.585,14.581,14.581
201905271834,14.581,14.585,14.581,14.585
201905271835,14.585,14.586,14.585,14.585
201905271836,14.585,14.586,14.585,14.585
201905271837,14.585,14.585,14.585,14.585
201905271838,14.585,14.585,14.581,14.585
201905271839,14.585,14.586,14.584,14.586
201905271840,14.586,14.586,14.585,14.585
201905271841,14.586,14.586,14.586,14.586
201905271842,14.586,14.586,14.586,14.586
201905271843,14.586,14.59,14.585,14.586
201905271844,14.586,14.587,14.585,14.586
201905271845,14.586,14.586,14.586,14.586
201905271846,14.586,14.586,14.586,14.586
201905271847,14.586,14.586,14.584,14.586
201905271848,14.586,14.587,14.586,14.586
201905271849,14.586,14.587,14.586,14.586
201905271850,14.587,14.587,14.586,14.586
201905271851,14.586,14.587,14.586,14.587
201905271852,14.587,14.587,14.586,14.587
201905271853,14.587,14.587,14.587,14.587
201905271854,14.587,14.587,14.587,14.587
201905271855,14.587,14.587,14.586,14.586
201905271856,14.586,14.587,14.586,14.587
201905271857,14.587,14.587,14.586,14.587
201905271858,14.587,14.587,14.584,14.584
201905271859,14.585,14.585,14.581,14.581
201905271900,14.581,14.581,14.579,14.579
201905271901,14.579,14.581,14.579,14.581
201905271902,14.581,14.581,14.58,14.58
201905271903,14.581,14.581,14.581,14.581
201905271904,14.581,14.582,14.581,14.581
201905271905,14.581,14.586,14.581,14.586
201905271906,14.585,14.586,14.585,14.585
201905271907,14.585,14.586,14.583,14.585
201905271908,14.584,14.586,14.583,14.586
201905271909,14.586,14.586,14.583,14.584
201905271910,14.584,14.584,14.582,14.582
201905271911,14.582,14.582,14.581,14.582
201905271912,14.582,14.582,14.58,14.581
201905271913,14.581,14.585,14.581,14.585
201905271914,14.585,14.586,14.582,14.582
201905271915,14.582,14.582,14.581,14.581
201905271916,14.581,14.582,14.581,14.582
201905271917,14.582,14.584,14.581,14.581
201905271918,14.581,14.582,14.581,14.581
201905271919,14.581,14.582,14.58,14.581
201905271920,14.581,14.582,14.581,14.582
201905271921,14.582,14.583,14.582,14.582
201905271922,14.581,14.582,14.58,14.58
201905271923,14.58,14.582,14.58,14.582
201905271924,14.582,14.582,14.58,14.581
201905271925,14.581,14.582,14.581,14.582
201905271926,14.582,14.582,14.581,14.581
201905271927,14.581,14.582,14.581,14.581
201905271928,14.581,14.582,14.581,14.582
201905271929,14.582,14.582,14.582,14.582
201905271930,14.582,14.582,14.581,14.582
201905271931,14.581,14.582,14.581,14.582
201905271932,14.582,14.582,14.581,14.582
201905271933,14.582,14.582,14.581,14.582
201905271934,14.582,14.582,14.581,14.582
201905271935,14.582,14.582,14.581,14.582
201905271936,14.582,14.582,14.581,14.581
201905271937,14.582,14.582,14.582,14.582
201905271938,14.582,14.586,14.581,14.583
201905271939,14.583,14.587,14.583,14.587
201905271940,14.587,14.591,14.587,14.589
201905271941,14.589,14.591,14.587,14.587
201905271942,14.587,14.587,14.587,14.587
201905271943,14.587,14.587,14.586,14.586
201905271944,14.586,14.587,14.583,14.586
201905271945,14.586,14.587,14.586,14.586
201905271946,14.586,14.587,14.586,14.586
201905271947,14.586,14.586,14.586,14.586
201905271948,14.586,14.587,14.586,14.586
201905271949,14.586,14.586,14.582,14.586
201905271950,14.586,14.587,14.586,14.587
201905271951,14.587,14.587,14.586,14.587
201905271952,14.587,14.587,14.586,14.587
201905271953,14.587,14.587,14.583,14.585
201905271954,14.584,14.587,14.583,14.586
201905271955,14.586,14.587,14.586,14.587
201905271956,14.587,14.587,14.586,14.586
201905271957,14.586,14.587,14.586,14.587
201905271958,14.587,14.587,14.586,14.587
201905271959,14.587,14.587,14.586,14.587
201905272000,14.587,14.592,14.587,14.592
201905272001,14.592,14.592,14.592,14.592
201905272002,14.592,14.592,14.592,14.592
201905272003,14.592,14.592,14.591,14.592
201905272004,14.592,14.592,14.591,14.592
201905272005,14.592,14.592,14.592,14.592
201905272006,14.592,14.592,14.592,14.592
201905272007,14.592,14.592,14.592,14.592
201905272008,14.592,14.592,14.592,14.592
201905272009,14.592,14.592,14.592,14.592
201905272010,14.592,14.592,14.591,14.592
201905272011,14.592,14.592,14.591,14.592
201905272012,14.592,14.592,14.591,14.592
201905272013,14.592,14.592,14.592,14.592
201905272014,14.592,14.593,14.592,14.593
201905272015,14.593,14.595,14.593,14.595
201905272016,14.596,14.597,14.596,14.597
201905272017,14.597,14.597,14.596,14.597
201905272018,14.597,14.597,14.596,14.597
201905272019,14.597,14.597,14.596,14.597
201905272020,14.597,14.597,14.597,14.597
201905272021,14.597,14.597,14.596,14.597
201905272022,14.597,14.597,14.593,14.593
201905272023,14.593,14.593,14.593,14.593
201905272024,14.593,14.593,14.593,14.593
201905272025,14.593,14.593,14.593,14.593
201905272026,14.593,14.593,14.593,14.593
201905272027,14.593,14.593,14.593,14.593
201905272028,14.593,14.593,14.593,14.593
201905272029,14.593,14.593,14.593,14.593
201905272030,14.593,14.593,14.593,14.593
201905272031,14.593,14.593,14.593,14.593
201905272032,14.593,14.593,14.593,14.593
201905272033,14.593,14.594,14.593,14.593
201905272034,14.593,14.593,14.593,14.593
201905272035,14.593,14.593,14.593,14.593
201905272036,14.593,14.593,14.588,14.588
201905272037,14.588,14.589,14.588,14.589
201905272038,14.589,14.594,14.589,14.592
201905272039,14.592,14.593,14.592,14.592
201905272040,14.592,14.592,14.592,14.592
201905272041,14.592,14.593,14.592,14.592
201905272042,14.592,14.593,14.588,14.592
201905272043,14.592,14.592,14.587,14.588
201905272044,14.588,14.589,14.588,14.588
201905272045,14.588,14.588,14.587,14.587
201905272046,14.587,14.588,14.587,14.588
201905272047,14.588,14.589,14.587,14.588
201905272048,14.588,14.588,14.587,14.587
201905272049,14.587,14.587,14.582,14.582
201905272050,14.582,14.582,14.581,14.582
201905272051,14.581,14.582,14.581,14.582
201905272052,14.582,14.582,14.58,14.581
201905272053,14.581,14.581,14.577,14.577
201905272054,14.577,14.577,14.576,14.577
201905272055,14.577,14.578,14.577,14.577
201905272056,14.577,14.578,14.577,14.577
201905272057,14.577,14.578,14.577,14.577
201905272058,14.577,14.577,14.576,14.577
201905272059,14.577,14.577,14.576,14.577
201905272100,14.577,14.578,14.575,14.576
201905272101,14.576,14.577,14.576,14.577
201905272102,14.577,14.577,14.575,14.576
201905272103,14.576,14.576,14.572,14.572
201905272104,14.572,14.572,14.571,14.572
201905272105,14.572,14.572,14.571,14.572
201905272106,14.572,14.573,14.572,14.572
201905272107,14.572,14.576,14.572,14.576
201905272108,14.576,14.577,14.575,14.575
201905272109,14.575,14.577,14.575,14.577
201905272110,14.577,14.577,14.576,14.577
201905272111,14.577,14.578,14.577,14.577
201905272112,14.577,14.577,14.576,14.577
201905272113,14.579,14.582,14.579,14.581
201905272114,14.581,14.582,14.58,14.582
201905272115,14.582,14.582,14.58,14.581
201905272116,14.581,14.581,14.576,14.576
201905272117,14.576,14.576,14.571,14.571
201905272118,14.571,14.575,14.571,14.575
201905272119,14.575,14.581,14.575,14.581
201905272120,14.581,14.581,14.581,14.581
201905272121,14.581,14.581,14.576,14.576
201905272122,14.576,14.578,14.576,14.576
201905272123,14.576,14.578,14.576,14.576
201905272124,14.576,14.576,14.574,14.576
201905272125,14.576,14.577,14.576,14.576
201905272126,14.576,14.576,14.572,14.575
201905272127,14.575,14.575,14.575,14.575
201905272128,14.575,14.576,14.575,14.576
201905272129,14.576,14.578,14.575,14.576
201905272130,14.576,14.576,14.571,14.571
201905272131,14.571,14.571,14.571,14.571
201905272132,14.571,14.576,14.571,14.576
201905272133,14.576,14.58,14.576,14.58
201905272134,14.58,14.581,14.58,14.581
201905272135,14.581,14.581,14.579,14.581
201905272136,14.581,14.581,14.58,14.58
201905272137,14.58,14.583,14.58,14.583
201905272138,14.583,14.585,14.583,14.585
201905272139,14.585,14.585,14.581,14.581
201905272140,14.581,14.581,14.58,14.581
201905272141,14.581,14.585,14.581,14.584
201905272142,14.585,14.585,14.584,14.585
201905272143,14.585,14.585,14.585,14.585
201905272144,14.585,14.585,14.58,14.58
201905272145,14.58,14.581,14.58,14.58
201905272146,14.581,14.581,14.58,14.58
201905272147,14.575,14.576,14.575,14.576
201905272148,14.575,14.576,14.575,14.575
201905272149,14.575,14.576,14.575,14.575
201905272150,14.575,14.576,14.575,14.576
201905272151,14.576,14.58,14.576,14.58
201905272152,14.58,14.585,14.58,14.585
201905272153,14.585,14.585,14.585,14.585
201905272154,14.585,14.585,14.585,14.585
201905272155,14.585,14.585,14.585,14.585
201905272156,14.585,14.585,14.585,14.585
201905272157,14.585,14.586,14.581,14.586
201905272158,14.586,14.586,14.585,14.585
201905272159,14.585,14.586,14.585,14.585
201905272200,14.585,14.586,14.585,14.585
201905272201,14.585,14.59,14.585,14.59
201905272202,14.59,14.59,14.59,14.59
201905272203,14.59,14.591,14.586,14.59
201905272204,14.59,14.591,14.59,14.59
201905272205,14.59,14.59,14.59,14.59
201905272206,14.59,14.59,14.59,14.59
201905272207,14.589,14.59,14.589,14.59
201905272208,14.59,14.591,14.589,14.591
201905272209,14.591,14.591,14.59,14.59
201905272210,14.59,14.591,14.59,14.59
201905272211,14.59,14.591,14.59,14.59
201905272212,14.59,14.591,14.59,14.59
201905272213,14.59,14.595,14.59,14.595
201905272214,14.595,14.595,14.595,14.595
201905272215,14.595,14.596,14.595,14.596
201905272216,14.596,14.6,14.595,14.6
201905272217,14.6,14.6,14.596,14.6
201905272218,14.6,14.6,14.6,14.6
201905272219,14.6,14.601,14.6,14.6
201905272220,14.6,14.605,14.6,14.605
201905272221,14.605,14.605,14.605,14.605
201905272222,14.605,14.606,14.604,14.605
201905272223,14.605,14.605,14.601,14.605
201905272224,14.605,14.605,14.601,14.604
201905272225,14.604,14.605,14.604,14.605
201905272226,14.605,14.606,14.605,14.605
201905272227,14.605,14.605,14.604,14.605
201905272228,14.605,14.605,14.601,14.601
201905272229,14.601,14.604,14.601,14.601
201905272230,14.601,14.605,14.6,14.605
201905272231,14.605,14.605,14.604,14.605
201905272232,14.605,14.605,14.604,14.605
201905272233,14.605,14.605,14.605,14.605
201905272234,14.605,14.605,14.605,14.605
201905272235,14.605,14.605,14.605,14.605
201905272236,14.605,14.605,14.605,14.605
201905272237,14.605,14.605,14.605,14.605
201905272238,14.605,14.605,14.605,14.605
201905272239,14.605,14.606,14.605,14.605
201905272240,14.605,14.61,14.605,14.61
201905272241,14.61,14.61,14.61,14.61
201905272242,14.61,14.61,14.61,14.61
201905272243,14.61,14.61,14.605,14.605
201905272244,14.605,14.605,14.6,14.6
201905272245,14.6,14.601,14.599,14.601
201905272246,14.601,14.602,14.601,14.601
201905272247,14.601,14.601,14.601,14.601
201905272248,14.601,14.601,14.601,14.601
201905272249,14.601,14.602,14.601,14.602
201905272250,14.602,14.602,14.601,14.602
201905272251,14.602,14.602,14.596,14.596
201905272252,14.596,14.597,14.596,14.597
201905272253,14.596,14.597,14.596,14.596
201905272254,14.596,14.596,14.596,14.596
201905272255,14.596,14.596,14.596,14.596
201905272256,14.596,14.596,14.595,14.596
201905272257,14.596,14.596,14.595,14.595
201905272258,14.595,14.596,14.595,14.595
201905272259,14.595,14.595,14.595,14.595
201905272300,14.595,14.595,14.589,14.589
201905272301,14.589,14.59,14.589,14.59
201905272302,14.59,14.592,14.589,14.592
201905272303,14.592,14.592,14.59,14.59
201905272304,14.59,14.592,14.59,14.591
201905272305,14.591,14.591,14.591,14.591
201905272306,14.591,14.591,14.59,14.591
201905272307,14.591,14.591,14.591,14.591
201905272308,14.591,14.591,14.591,14.591
201905272309,14.591,14.591,14.59,14.591
201905272310,14.591,14.596,14.591,14.596
201905272311,14.596,14.596,14.595,14.595
201905272312,14.595,14.595,14.595,14.595
201905272313,14.595,14.596,14.595,14.596
201905272314,14.596,14.596,14.596,14.596
201905272315,14.596,14.596,14.596,14.596
201905272316,14.596,14.596,14.596,14.596
201905272317,14.596,14.596,14.596,14.596
201905272318,14.596,14.596,14.596,14.596
201905272319,14.596,14.596,14.596,14.596
201905272320,14.596,14.596,14.596,14.596
201905272321,14.596,14.596,14.591,14.591
201905272322,14.591,14.591,14.591,14.591
201905272323,14.591,14.592,14.587,14.587
201905272324,14.587,14.587,14.587,14.587
201905272325,14.587,14.587,14.587,14.587
201905272326,14.587,14.591,14.586,14.591
201905272327,14.591,14.591,14.59,14.59
201905272328,14.59,14.59,14.586,14.586
201905272329,14.586,14.587,14.586,14.586
201905272330,14.586,14.586,14.581,14.581
201905272331,14.581,14.582,14.581,14.582
201905272332,14.582,14.582,14.581,14.581
201905272333,14.581,14.586,14.581,14.586
201905272334,14.586,14.587,14.586,14.586
201905272335,14.586,14.586,14.586,14.586
201905272336,14.586,14.587,14.586,14.587
201905272337,14.587,14.587,14.586,14.586
201905272338,14.586,14.586,14.586,14.586
201905272339,14.586,14.586,14.586,14.586
201905272340,14.586,14.586,14.585,14.585
201905272341,14.585,14.585,14.581,14.581
201905272342,14.581,14.582,14.581,14.582
201905272343,14.582,14.582,14.581,14.582
201905272344,14.582,14.585,14.581,14.585
201905272345,14.585,14.585,14.584,14.585
201905272346,14.585,14.586,14.58,14.58
201905272347,14.58,14.58,14.576,14.576
201905272348,14.576,14.577,14.576,14.576
201905272349,14.576,14.576,14.576,14.576
201905272350,14.576,14.577,14.576,14.576
201905272351,14.576,14.576,14.576,14.576
201905272352,14.576,14.576,14.576,14.576
201905272353,14.576,14.576,14.576,14.576
201905272354,14.576,14.577,14.576,14.576
201905272355,14.576,14.577,14.576,14.576
201905272356,14.576,14.576,14.576,14.576
201905272357,14.576,14.576,14.576,14.576
201905272358,14.577,14.577,14.57,14.57
201905272359,14.57,14.571,14.57,14.571
201905280000,14.571,14.573,14.571,14.572
201905280001,14.572,14.573,14.571,14.571
201905280002,14.571,14.575,14.571,14.575
201905280003,14.575,14.575,14.575,14.575
201905280004,14.575,14.576,14.575,14.576
201905280005,14.576,14.576,14.576,14.576
201905280006,14.576,14.577,14.576,14.576
201905280007,14.576,14.577,14.576,14.577
201905280008,14.577,14.577,14.575,14.576
201905280009,14.576,14.576,14.575,14.575
201905280010,14.575,14.576,14.575,14.576
201905280011,14.576,14.577,14.576,14.576
201905280012,14.576,14.581,14.576,14.581
201905280013,14.581,14.582,14.576,14.576
201905280014,14.576,14.576,14.576,14.576
201905280015,14.576,14.578,14.576,14.578
201905280016,14.58,14.581,14.58,14.581
201905280017,14.581,14.581,14.576,14.576
201905280018,14.576,14.577,14.576,14.576
201905280019,14.576,14.577,14.576,14.577
201905280020,14.576,14.577,14.576,14.576
201905280021,14.576,14.577,14.576,14.576
201905280022,14.576,14.576,14.576,14.576
201905280023,14.576,14.576,14.576,14.576
201905280024,14.576,14.576,14.576,14.576
201905280025,14.576,14.576,14.57,14.57
201905280026,14.57,14.57,14.57,14.57
201905280027,14.57,14.576,14.57,14.575
201905280028,14.575,14.58,14.575,14.58
201905280029,14.58,14.585,14.58,14.585
201905280030,14.585,14.585,14.585,14.585
201905280031,14.585,14.59,14.581,14.581
201905280032,14.58,14.58,14.58,14.58
201905280033,14.58,14.58,14.58,14.58
201905280034,14.58,14.58,14.579,14.579
201905280035,14.579,14.579,14.578,14.578
201905280036,14.579,14.579,14.579,14.579
201905280037,14.576,14.576,14.574,14.574
201905280038,14.574,14.574,14.574,14.574
201905280039,14.575,14.575,14.569,14.57
201905280040,14.57,14.571,14.569,14.57
201905280041,14.57,14.571,14.57,14.57
201905280042,14.57,14.571,14.57,14.57
201905280043,14.57,14.571,14.57,14.571
201905280044,14.571,14.571,14.57,14.57
201905280045,14.57,14.571,14.57,14.571
201905280046,14.571,14.575,14.571,14.575
201905280047,14.575,14.576,14.575,14.576
201905280048,14.576,14.576,14.576,14.576
201905280049,14.575,14.575,14.574,14.574
201905280050,14.574,14.575,14.574,14.574
201905280051,14.574,14.574,14.574,14.574
201905280052,14.574,14.575,14.574,14.574
201905280053,14.574,14.575,14.574,14.574
201905280054,14.574,14.575,14.574,14.574
201905280055,14.574,14.574,14.574,14.574
201905280056,14.574,14.574,14.574,14.574
201905280057,14.574,14.574,14.574,14.574
201905280058,14.574,14.576,14.574,14.575
201905280059,14.575,14.575,14.574,14.575
201905280100,14.575,14.575,14.574,14.575
201905280101,14.575,14.575,14.575,14.575
201905280102,14.575,14.575,14.575,14.575
201905280103,14.575,14.575,14.575,14.575
201905280104,14.575,14.575,14.575,14.575
201905280105,14.575,14.575,14.571,14.572
201905280106,14.572,14.575,14.572,14.575
201905280107,14.575,14.575,14.574,14.575
201905280108,14.575,14.576,14.575,14.576
201905280109,14.576,14.577,14.575,14.576
201905280110,14.576,14.577,14.576,14.576
201905280111,14.576,14.577,14.576,14.577
201905280112,14.577,14.58,14.577,14.58
201905280113,14.58,14.58,14.58,14.58
201905280114,14.58,14.58,14.58,14.58
201905280115,14.58,14.581,14.58,14.58
201905280116,14.58,14.581,14.58,14.581
201905280117,14.581,14.582,14.58,14.581
201905280118,14.581,14.581,14.58,14.581
201905280119,14.581,14.581,14.58,14.581
201905280120,14.581,14.581,14.581,14.581
201905280121,14.581,14.581,14.58,14.58
201905280122,14.58,14.581,14.58,14.58
201905280123,14.58,14.582,14.58,14.582
201905280124,14.582,14.582,14.581,14.581
201905280125,14.581,14.581,14.58,14.58
201905280126,14.58,14.58,14.58,14.58
201905280127,14.58,14.581,14.58,14.58
201905280128,14.58,14.58,14.576,14.576
201905280129,14.576,14.576,14.575,14.576
201905280130,14.576,14.576,14.576,14.576
201905280131,14.576,14.576,14.576,14.576
201905280132,14.576,14.576,14.576,14.576
201905280133,14.576,14.576,14.576,14.576
201905280134,14.576,14.576,14.576,14.576
201905280135,14.576,14.576,14.576,14.576
201905280136,14.576,14.576,14.576,14.576
201905280137,14.576,14.577,14.576,14.576
201905280138,14.576,14.577,14.576,14.576
201905280139,14.576,14.576,14.576,14.576
201905280140,14.576,14.577,14.576,14.576
201905280141,14.576,14.576,14.576,14.576
201905280142,14.576,14.581,14.576,14.581
201905280143,14.581,14.581,14.58,14.58
201905280144,14.58,14.58,14.579,14.58
201905280145,14.58,14.58,14.579,14.579
201905280146,14.579,14.581,14.578,14.581
201905280147,14.581,14.581,14.581,14.581
201905280148,14.581,14.582,14.581,14.582
201905280149,14.582,14.582,14.582,14.582
201905280150,14.582,14.582,14.582,14.582
201905280151,14.582,14.582,14.581,14.581
201905280152,14.581,14.581,14.581,14.581
201905280153,14.581,14.581,14.581,14.581
201905280154,14.581,14.581,14.581,14.581
201905280155,14.582,14.582,14.581,14.581
201905280156,14.581,14.581,14.58,14.58
201905280157,14.58,14.58,14.58,14.58
201905280158,14.58,14.581,14.58,14.58
201905280159,14.581,14.584,14.578,14.578
