日時,始値(BID),高値(BID),安値(BID),終値(BID)
201905240700,14.575,14.589,14.572,14.586
201905240701,14.586,14.591,14.585,14.591
201905240702,14.591,14.591,14.587,14.591
201905240703,14.591,14.591,14.586,14.586
201905240704,14.586,14.591,14.585,14.591
201905240705,14.591,14.591,14.59,14.591
201905240706,14.591,14.591,14.591,14.591
201905240707,14.591,14.591,14.591,14.591
201905240708,14.591,14.591,14.591,14.591
201905240709,14.591,14.591,14.591,14.591
201905240710,14.591,14.591,14.591,14.591
201905240711,14.591,14.591,14.591,14.591
201905240712,14.591,14.591,14.587,14.587
201905240713,14.587,14.591,14.587,14.587
201905240714,14.587,14.587,14.587,14.587
201905240715,14.587,14.589,14.587,14.589
201905240716,14.589,14.591,14.589,14.589
201905240717,14.589,14.589,14.589,14.589
201905240718,14.589,14.589,14.589,14.589
201905240719,14.589,14.589,14.589,14.589
201905240720,14.589,14.589,14.589,14.589
201905240721,14.589,14.589,14.588,14.588
201905240722,14.588,14.59,14.588,14.59
201905240723,14.589,14.589,14.588,14.588
201905240724,14.588,14.588,14.588,14.588
201905240725,14.588,14.592,14.588,14.592
201905240726,14.592,14.593,14.592,14.593
201905240727,14.593,14.593,14.593,14.593
201905240728,14.593,14.593,14.592,14.593
201905240729,14.593,14.593,14.593,14.593
201905240730,14.593,14.593,14.591,14.591
201905240731,14.591,14.593,14.591,14.591
201905240732,14.591,14.591,14.591,14.591
201905240733,14.591,14.591,14.591,14.591
201905240734,14.591,14.591,14.591,14.591
201905240735,14.591,14.592,14.591,14.591
201905240736,14.591,14.592,14.591,14.592
201905240737,14.592,14.592,14.591,14.591
201905240738,14.591,14.592,14.591,14.591
201905240739,14.591,14.591,14.591,14.591
201905240740,14.591,14.591,14.591,14.591
201905240741,14.591,14.591,14.591,14.591
201905240742,14.591,14.591,14.591,14.591
201905240743,14.591,14.591,14.591,14.591
201905240744,14.591,14.591,14.591,14.591
201905240745,14.591,14.592,14.591,14.591
201905240746,14.591,14.591,14.591,14.591
201905240747,14.591,14.591,14.591,14.591
201905240748,14.591,14.591,14.591,14.591
201905240749,14.591,14.591,14.591,14.591
201905240750,14.591,14.596,14.591,14.596
201905240751,14.596,14.597,14.592,14.597
201905240752,14.597,14.597,14.593,14.597
201905240753,14.597,14.597,14.593,14.593
201905240754,14.596,14.597,14.593,14.596
201905240755,14.596,14.596,14.593,14.594
201905240756,14.594,14.597,14.593,14.593
201905240757,14.593,14.596,14.593,14.593
201905240758,14.593,14.594,14.593,14.593
201905240759,14.593,14.596,14.593,14.593
201905240800,14.593,14.596,14.593,14.593
201905240801,14.593,14.595,14.593,14.593
201905240802,14.593,14.593,14.593,14.593
201905240803,14.593,14.594,14.593,14.593
201905240804,14.593,14.593,14.592,14.593
201905240805,14.593,14.593,14.592,14.593
201905240806,14.593,14.593,14.592,14.592
201905240807,14.592,14.594,14.592,14.592
201905240808,14.592,14.592,14.592,14.592
201905240809,14.592,14.592,14.592,14.592
201905240810,14.592,14.592,14.589,14.589
201905240811,14.589,14.592,14.589,14.591
201905240812,14.591,14.591,14.591,14.591
201905240813,14.591,14.593,14.59,14.593
201905240814,14.593,14.594,14.593,14.594
201905240815,14.594,14.594,14.593,14.594
201905240816,14.594,14.594,14.593,14.594
201905240817,14.593,14.594,14.593,14.593
201905240818,14.593,14.593,14.593,14.593
201905240819,14.593,14.594,14.593,14.594
201905240820,14.594,14.595,14.594,14.594
201905240821,14.594,14.597,14.594,14.597
201905240822,14.597,14.598,14.597,14.598
201905240823,14.598,14.598,14.598,14.598
201905240824,14.598,14.598,14.597,14.598
201905240825,14.598,14.599,14.598,14.599
201905240826,14.599,14.599,14.598,14.599
201905240827,14.599,14.599,14.598,14.599
201905240828,14.599,14.599,14.598,14.599
201905240829,14.599,14.6,14.598,14.598
201905240830,14.599,14.599,14.597,14.599
201905240831,14.599,14.6,14.599,14.6
201905240832,14.6,14.601,14.599,14.599
201905240833,14.599,14.6,14.598,14.599
201905240834,14.599,14.599,14.597,14.598
201905240835,14.598,14.598,14.597,14.597
201905240836,14.598,14.599,14.597,14.599
201905240837,14.599,14.599,14.598,14.599
201905240838,14.599,14.6,14.599,14.599
201905240839,14.599,14.6,14.599,14.599
201905240840,14.599,14.599,14.598,14.599
201905240841,14.599,14.599,14.598,14.599
201905240842,14.599,14.603,14.599,14.602
201905240843,14.601,14.602,14.599,14.6
201905240844,14.6,14.6,14.6,14.6
201905240845,14.6,14.6,14.598,14.598
201905240846,14.598,14.599,14.597,14.598
201905240847,14.598,14.598,14.594,14.597
201905240848,14.597,14.597,14.595,14.596
201905240849,14.596,14.597,14.595,14.597
201905240850,14.597,14.598,14.596,14.597
201905240851,14.597,14.598,14.597,14.598
201905240852,14.598,14.599,14.597,14.598
201905240853,14.598,14.6,14.598,14.599
201905240854,14.599,14.6,14.598,14.599
201905240855,14.599,14.599,14.598,14.599
201905240856,14.598,14.599,14.598,14.598
201905240857,14.598,14.598,14.594,14.594
201905240858,14.594,14.595,14.594,14.595
201905240859,14.595,14.599,14.595,14.598
201905240900,14.598,14.599,14.598,14.598
201905240901,14.598,14.598,14.593,14.593
201905240902,14.593,14.598,14.593,14.598
201905240903,14.597,14.598,14.595,14.595
201905240904,14.595,14.598,14.595,14.598
201905240905,14.598,14.598,14.594,14.595
201905240906,14.595,14.595,14.593,14.595
201905240907,14.595,14.595,14.593,14.594
201905240908,14.595,14.595,14.593,14.594
201905240909,14.594,14.599,14.593,14.598
201905240910,14.598,14.6,14.598,14.6
201905240911,14.6,14.601,14.598,14.599
201905240912,14.598,14.601,14.598,14.601
201905240913,14.601,14.603,14.6,14.601
201905240914,14.601,14.601,14.598,14.599
201905240915,14.599,14.599,14.594,14.595
201905240916,14.595,14.595,14.594,14.594
201905240917,14.594,14.595,14.593,14.595
201905240918,14.595,14.595,14.593,14.595
201905240919,14.595,14.596,14.594,14.595
201905240920,14.595,14.596,14.595,14.595
201905240921,14.594,14.596,14.594,14.595
201905240922,14.595,14.596,14.595,14.595
201905240923,14.595,14.595,14.593,14.595
201905240924,14.595,14.596,14.594,14.595
201905240925,14.595,14.597,14.595,14.596
201905240926,14.596,14.597,14.595,14.595
201905240927,14.595,14.597,14.595,14.597
201905240928,14.597,14.599,14.595,14.596
201905240929,14.596,14.598,14.596,14.598
201905240930,14.598,14.6,14.598,14.599
201905240931,14.599,14.601,14.599,14.599
201905240932,14.599,14.599,14.596,14.598
201905240933,14.598,14.599,14.596,14.598
201905240934,14.598,14.598,14.597,14.597
201905240935,14.597,14.597,14.596,14.596
201905240936,14.596,14.596,14.595,14.596
201905240937,14.596,14.596,14.595,14.595
201905240938,14.595,14.596,14.595,14.596
201905240939,14.596,14.596,14.595,14.596
201905240940,14.596,14.596,14.595,14.596
201905240941,14.596,14.596,14.596,14.596
201905240942,14.596,14.596,14.594,14.595
201905240943,14.595,14.596,14.593,14.593
201905240944,14.594,14.595,14.59,14.59
201905240945,14.591,14.591,14.59,14.59
201905240946,14.59,14.591,14.59,14.59
201905240947,14.59,14.59,14.586,14.586
201905240948,14.586,14.587,14.586,14.587
201905240949,14.587,14.59,14.586,14.59
201905240950,14.589,14.591,14.589,14.59
201905240951,14.59,14.591,14.59,14.591
201905240952,14.59,14.591,14.586,14.587
201905240953,14.587,14.59,14.587,14.59
201905240954,14.59,14.592,14.589,14.591
201905240955,14.591,14.594,14.59,14.592
201905240956,14.592,14.595,14.591,14.595
201905240957,14.595,14.595,14.595,14.595
201905240958,14.595,14.6,14.595,14.6
201905240959,14.6,14.6,14.598,14.599
201905241000,14.599,14.6,14.598,14.599
201905241001,14.599,14.6,14.598,14.598
201905241002,14.598,14.599,14.598,14.599
201905241003,14.599,14.604,14.599,14.6
201905241004,14.601,14.601,14.6,14.601
201905241005,14.601,14.603,14.6,14.603
201905241006,14.603,14.605,14.603,14.604
201905241007,14.604,14.605,14.604,14.604
201905241008,14.604,14.606,14.6,14.601
201905241009,14.601,14.601,14.599,14.601
201905241010,14.601,14.602,14.6,14.602
201905241011,14.602,14.602,14.599,14.6
201905241012,14.6,14.602,14.599,14.602
201905241013,14.602,14.602,14.596,14.599
201905241014,14.599,14.601,14.598,14.6
201905241015,14.6,14.6,14.593,14.593
201905241016,14.593,14.594,14.585,14.585
201905241017,14.585,14.585,14.582,14.585
201905241018,14.585,14.586,14.585,14.586
201905241019,14.586,14.587,14.581,14.581
201905241020,14.581,14.582,14.58,14.582
201905241021,14.582,14.582,14.576,14.58
201905241022,14.58,14.581,14.576,14.579
201905241023,14.579,14.579,14.574,14.575
201905241024,14.575,14.576,14.575,14.576
201905241025,14.576,14.576,14.575,14.576
201905241026,14.576,14.577,14.575,14.576
201905241027,14.576,14.58,14.575,14.579
201905241028,14.579,14.581,14.579,14.581
201905241029,14.581,14.581,14.58,14.581
201905241030,14.581,14.581,14.58,14.58
201905241031,14.581,14.581,14.58,14.58
201905241032,14.58,14.584,14.58,14.584
201905241033,14.584,14.585,14.584,14.584
201905241034,14.584,14.586,14.584,14.585
201905241035,14.585,14.587,14.585,14.587
201905241036,14.587,14.587,14.585,14.585
201905241037,14.585,14.585,14.582,14.584
201905241038,14.584,14.584,14.583,14.584
201905241039,14.584,14.585,14.583,14.585
201905241040,14.584,14.585,14.58,14.58
201905241041,14.58,14.584,14.578,14.578
201905241042,14.578,14.58,14.576,14.579
201905241043,14.579,14.584,14.579,14.584
201905241044,14.584,14.584,14.58,14.583
201905241045,14.583,14.584,14.583,14.584
201905241046,14.584,14.584,14.582,14.583
201905241047,14.583,14.584,14.575,14.575
201905241048,14.575,14.575,14.57,14.57
201905241049,14.57,14.571,14.57,14.57
201905241050,14.57,14.57,14.567,14.569
201905241051,14.569,14.57,14.567,14.568
201905241052,14.568,14.57,14.568,14.569
201905241053,14.569,14.569,14.568,14.569
201905241054,14.569,14.569,14.567,14.568
201905241055,14.568,14.573,14.567,14.571
201905241056,14.571,14.572,14.57,14.571
201905241057,14.571,14.571,14.567,14.567
201905241058,14.567,14.568,14.566,14.567
201905241059,14.567,14.567,14.565,14.566
201905241100,14.566,14.567,14.565,14.566
201905241101,14.566,14.567,14.563,14.563
201905241102,14.563,14.566,14.563,14.565
201905241103,14.565,14.565,14.562,14.562
201905241104,14.562,14.564,14.562,14.564
201905241105,14.563,14.564,14.559,14.559
201905241106,14.559,14.562,14.559,14.559
201905241107,14.559,14.561,14.559,14.559
201905241108,14.559,14.559,14.559,14.559
201905241109,14.559,14.559,14.557,14.559
201905241110,14.559,14.563,14.558,14.561
201905241111,14.561,14.565,14.561,14.563
201905241112,14.563,14.563,14.559,14.561
201905241113,14.561,14.562,14.558,14.56
201905241114,14.56,14.562,14.559,14.559
201905241115,14.559,14.561,14.559,14.56
201905241116,14.56,14.561,14.56,14.561
201905241117,14.561,14.561,14.559,14.56
201905241118,14.56,14.563,14.56,14.562
201905241119,14.562,14.562,14.561,14.562
201905241120,14.562,14.563,14.561,14.562
201905241121,14.562,14.563,14.561,14.562
201905241122,14.562,14.562,14.551,14.552
201905241123,14.552,14.554,14.552,14.553
201905241124,14.553,14.554,14.552,14.554
201905241125,14.554,14.555,14.553,14.553
201905241126,14.553,14.553,14.553,14.553
201905241127,14.553,14.554,14.552,14.553
201905241128,14.553,14.554,14.552,14.554
201905241129,14.554,14.557,14.553,14.557
201905241130,14.557,14.558,14.557,14.558
201905241131,14.558,14.559,14.558,14.558
201905241132,14.558,14.56,14.558,14.559
201905241133,14.559,14.561,14.558,14.558
201905241134,14.559,14.563,14.559,14.562
201905241135,14.562,14.563,14.562,14.563
201905241136,14.563,14.563,14.562,14.562
201905241137,14.563,14.563,14.558,14.563
201905241138,14.563,14.563,14.562,14.563
201905241139,14.563,14.563,14.562,14.562
201905241140,14.562,14.567,14.562,14.567
201905241141,14.567,14.569,14.566,14.569
201905241142,14.569,14.569,14.568,14.568
201905241143,14.568,14.568,14.568,14.568
201905241144,14.568,14.572,14.568,14.572
201905241145,14.572,14.572,14.567,14.568
201905241146,14.568,14.568,14.567,14.568
201905241147,14.568,14.568,14.567,14.568
201905241148,14.568,14.568,14.567,14.567
201905241149,14.567,14.569,14.567,14.568
201905241150,14.568,14.569,14.567,14.567
201905241151,14.567,14.567,14.566,14.566
201905241152,14.567,14.567,14.565,14.566
201905241153,14.566,14.567,14.566,14.567
201905241154,14.567,14.567,14.566,14.567
201905241155,14.567,14.567,14.566,14.567
201905241156,14.567,14.567,14.566,14.567
201905241157,14.567,14.567,14.565,14.565
201905241158,14.565,14.566,14.565,14.566
201905241159,14.566,14.567,14.566,14.567
201905241200,14.568,14.568,14.566,14.568
201905241201,14.568,14.571,14.567,14.569
201905241202,14.569,14.571,14.567,14.568
201905241203,14.567,14.568,14.562,14.562
201905241204,14.562,14.563,14.562,14.562
201905241205,14.562,14.563,14.562,14.563
201905241206,14.563,14.563,14.562,14.563
201905241207,14.562,14.563,14.562,14.563
201905241208,14.563,14.566,14.561,14.562
201905241209,14.562,14.565,14.561,14.565
201905241210,14.565,14.566,14.563,14.566
201905241211,14.566,14.566,14.565,14.566
201905241212,14.566,14.567,14.565,14.565
201905241213,14.565,14.567,14.565,14.566
201905241214,14.567,14.567,14.566,14.566
201905241215,14.566,14.57,14.566,14.567
201905241216,14.567,14.571,14.567,14.57
201905241217,14.57,14.572,14.57,14.571
201905241218,14.571,14.572,14.571,14.571
201905241219,14.571,14.572,14.569,14.57
201905241220,14.57,14.571,14.569,14.571
201905241221,14.571,14.571,14.567,14.57
201905241222,14.57,14.571,14.568,14.571
201905241223,14.571,14.571,14.569,14.571
201905241224,14.571,14.571,14.569,14.57
201905241225,14.571,14.574,14.57,14.571
201905241226,14.57,14.575,14.57,14.574
201905241227,14.575,14.576,14.574,14.575
201905241228,14.574,14.576,14.574,14.576
201905241229,14.576,14.576,14.574,14.575
201905241230,14.575,14.577,14.575,14.577
201905241231,14.577,14.58,14.576,14.58
201905241232,14.58,14.58,14.578,14.579
201905241233,14.579,14.579,14.577,14.577
201905241234,14.577,14.58,14.576,14.58
201905241235,14.579,14.58,14.578,14.58
201905241236,14.58,14.58,14.579,14.58
201905241237,14.579,14.58,14.578,14.578
201905241238,14.577,14.577,14.576,14.576
201905241239,14.576,14.577,14.575,14.575
201905241240,14.575,14.578,14.575,14.577
201905241241,14.576,14.578,14.576,14.578
201905241242,14.578,14.578,14.575,14.575
201905241243,14.575,14.575,14.574,14.574
201905241244,14.574,14.575,14.574,14.575
201905241245,14.575,14.575,14.575,14.575
201905241246,14.575,14.576,14.575,14.575
201905241247,14.575,14.576,14.575,14.575
201905241248,14.575,14.575,14.574,14.575
201905241249,14.575,14.575,14.575,14.575
201905241250,14.575,14.576,14.575,14.575
201905241251,14.575,14.576,14.575,14.575
201905241252,14.575,14.575,14.575,14.575
201905241253,14.575,14.576,14.575,14.575
201905241254,14.575,14.575,14.575,14.575
201905241255,14.575,14.576,14.575,14.576
201905241256,14.576,14.576,14.575,14.575
201905241257,14.575,14.576,14.575,14.576
201905241258,14.576,14.578,14.576,14.578
201905241259,14.578,14.578,14.575,14.576
201905241300,14.576,14.578,14.575,14.575
201905241301,14.575,14.575,14.574,14.574
201905241302,14.574,14.575,14.574,14.574
201905241303,14.574,14.575,14.574,14.575
201905241304,14.575,14.576,14.574,14.574
201905241305,14.574,14.575,14.574,14.575
201905241306,14.575,14.575,14.574,14.575
201905241307,14.575,14.575,14.575,14.575
201905241308,14.575,14.575,14.575,14.575
201905241309,14.575,14.576,14.574,14.575
201905241310,14.575,14.576,14.575,14.576
201905241311,14.576,14.576,14.575,14.575
201905241312,14.575,14.575,14.575,14.575
201905241313,14.575,14.576,14.575,14.576
201905241314,14.576,14.576,14.575,14.575
201905241315,14.575,14.579,14.575,14.576
201905241316,14.576,14.579,14.575,14.576
201905241317,14.576,14.576,14.575,14.575
201905241318,14.575,14.577,14.575,14.575
201905241319,14.575,14.576,14.575,14.575
201905241320,14.575,14.576,14.575,14.575
201905241321,14.575,14.576,14.575,14.576
201905241322,14.576,14.576,14.575,14.575
201905241323,14.575,14.576,14.575,14.576
201905241324,14.576,14.579,14.576,14.579
201905241325,14.579,14.579,14.578,14.578
201905241326,14.578,14.58,14.578,14.578
201905241327,14.578,14.579,14.578,14.578
201905241328,14.578,14.578,14.578,14.578
201905241329,14.578,14.578,14.569,14.571
201905241330,14.571,14.571,14.57,14.57
201905241331,14.57,14.572,14.57,14.571
201905241332,14.57,14.574,14.57,14.571
201905241333,14.571,14.571,14.566,14.566
201905241334,14.566,14.566,14.565,14.566
201905241335,14.566,14.569,14.565,14.569
201905241336,14.569,14.57,14.566,14.566
201905241337,14.566,14.567,14.565,14.566
201905241338,14.566,14.566,14.565,14.566
201905241339,14.566,14.566,14.565,14.565
201905241340,14.565,14.565,14.564,14.565
201905241341,14.565,14.565,14.565,14.565
201905241342,14.565,14.565,14.565,14.565
201905241343,14.565,14.566,14.565,14.566
201905241344,14.566,14.566,14.565,14.566
201905241345,14.566,14.567,14.566,14.566
201905241346,14.566,14.566,14.565,14.566
201905241347,14.566,14.566,14.565,14.566
201905241348,14.566,14.566,14.565,14.565
201905241349,14.565,14.566,14.565,14.566
201905241350,14.565,14.566,14.564,14.565
201905241351,14.565,14.565,14.564,14.565
201905241352,14.565,14.565,14.561,14.564
201905241353,14.564,14.564,14.561,14.564
201905241354,14.564,14.567,14.564,14.565
201905241355,14.565,14.565,14.565,14.565
201905241356,14.565,14.566,14.565,14.565
201905241357,14.565,14.566,14.565,14.566
201905241358,14.566,14.566,14.565,14.566
201905241359,14.566,14.566,14.565,14.566
201905241400,14.566,14.566,14.564,14.564
201905241401,14.564,14.565,14.564,14.565
201905241402,14.565,14.567,14.564,14.564
201905241403,14.564,14.564,14.563,14.563
201905241404,14.563,14.565,14.563,14.564
201905241405,14.563,14.564,14.563,14.564
201905241406,14.564,14.564,14.564,14.564
201905241407,14.564,14.565,14.564,14.565
201905241408,14.565,14.569,14.565,14.565
201905241409,14.565,14.569,14.565,14.568
201905241410,14.568,14.569,14.568,14.569
201905241411,14.569,14.569,14.569,14.569
201905241412,14.569,14.571,14.568,14.569
201905241413,14.569,14.57,14.569,14.57
201905241414,14.57,14.57,14.569,14.569
201905241415,14.569,14.569,14.568,14.569
201905241416,14.569,14.57,14.569,14.57
201905241417,14.57,14.571,14.569,14.57
201905241418,14.57,14.57,14.568,14.569
201905241419,14.569,14.57,14.569,14.569
201905241420,14.569,14.569,14.565,14.565
201905241421,14.565,14.566,14.565,14.565
201905241422,14.565,14.566,14.565,14.565
201905241423,14.565,14.565,14.565,14.565
201905241424,14.565,14.565,14.565,14.565
201905241425,14.565,14.57,14.565,14.566
201905241426,14.566,14.568,14.566,14.568
201905241427,14.569,14.57,14.568,14.569
201905241428,14.569,14.57,14.569,14.569
201905241429,14.569,14.569,14.568,14.568
201905241430,14.568,14.57,14.568,14.57
201905241431,14.57,14.573,14.569,14.569
201905241432,14.569,14.571,14.569,14.57
201905241433,14.57,14.575,14.57,14.574
201905241434,14.574,14.575,14.574,14.574
201905241435,14.574,14.576,14.574,14.575
201905241436,14.575,14.576,14.574,14.574
201905241437,14.574,14.577,14.574,14.575
201905241438,14.575,14.579,14.574,14.579
201905241439,14.579,14.579,14.578,14.579
201905241440,14.579,14.579,14.579,14.579
201905241441,14.579,14.58,14.579,14.579
201905241442,14.579,14.579,14.575,14.575
201905241443,14.575,14.575,14.574,14.575
201905241444,14.575,14.575,14.575,14.575
201905241445,14.575,14.576,14.574,14.575
201905241446,14.574,14.576,14.574,14.574
201905241447,14.574,14.574,14.573,14.573
201905241448,14.573,14.574,14.573,14.574
201905241449,14.574,14.574,14.573,14.573
201905241450,14.573,14.579,14.573,14.579
201905241451,14.579,14.579,14.574,14.574
201905241452,14.574,14.578,14.574,14.575
201905241453,14.575,14.575,14.565,14.565
201905241454,14.565,14.566,14.564,14.566
201905241455,14.566,14.569,14.564,14.567
201905241456,14.567,14.569,14.565,14.566
201905241457,14.566,14.567,14.565,14.565
201905241458,14.565,14.565,14.564,14.564
201905241459,14.565,14.565,14.554,14.556
201905241500,14.556,14.558,14.555,14.556
201905241501,14.556,14.558,14.554,14.554
201905241502,14.554,14.555,14.544,14.545
201905241503,14.545,14.546,14.544,14.545
201905241504,14.545,14.55,14.545,14.55
201905241505,14.55,14.554,14.549,14.552
201905241506,14.551,14.554,14.549,14.55
201905241507,14.55,14.553,14.549,14.55
201905241508,14.55,14.55,14.548,14.55
201905241509,14.55,14.554,14.549,14.554
201905241510,14.554,14.555,14.553,14.555
201905241511,14.555,14.562,14.554,14.561
201905241512,14.561,14.564,14.56,14.56
201905241513,14.56,14.563,14.559,14.562
201905241514,14.562,14.569,14.561,14.568
201905241515,14.568,14.57,14.568,14.57
201905241516,14.57,14.571,14.569,14.57
201905241517,14.57,14.575,14.569,14.575
201905241518,14.575,14.579,14.575,14.577
201905241519,14.577,14.584,14.575,14.575
201905241520,14.576,14.576,14.566,14.569
201905241521,14.569,14.57,14.565,14.569
201905241522,14.569,14.57,14.567,14.568
201905241523,14.568,14.57,14.565,14.566
201905241524,14.567,14.568,14.564,14.567
201905241525,14.567,14.568,14.564,14.567
201905241526,14.566,14.568,14.564,14.566
201905241527,14.566,14.57,14.564,14.569
201905241528,14.569,14.569,14.568,14.568
201905241529,14.568,14.569,14.568,14.568
201905241530,14.568,14.57,14.568,14.57
201905241531,14.57,14.572,14.569,14.57
201905241532,14.57,14.573,14.57,14.573
201905241533,14.573,14.575,14.57,14.574
201905241534,14.574,14.575,14.573,14.574
201905241535,14.574,14.574,14.573,14.574
201905241536,14.574,14.575,14.569,14.573
201905241537,14.573,14.576,14.573,14.575
201905241538,14.575,14.576,14.575,14.575
201905241539,14.575,14.576,14.571,14.571
201905241540,14.571,14.572,14.571,14.571
201905241541,14.571,14.572,14.566,14.566
201905241542,14.566,14.567,14.566,14.566
201905241543,14.566,14.566,14.56,14.56
201905241544,14.56,14.561,14.559,14.561
201905241545,14.561,14.561,14.559,14.56
201905241546,14.56,14.561,14.559,14.56
201905241547,14.56,14.565,14.559,14.564
201905241548,14.564,14.566,14.561,14.564
201905241549,14.564,14.565,14.561,14.563
201905241550,14.564,14.566,14.563,14.565
201905241551,14.565,14.569,14.565,14.566
201905241552,14.566,14.568,14.56,14.563
201905241553,14.563,14.564,14.559,14.563
201905241554,14.563,14.563,14.559,14.561
201905241555,14.561,14.561,14.559,14.56
201905241556,14.56,14.56,14.554,14.554
201905241557,14.554,14.563,14.554,14.561
201905241558,14.561,14.561,14.56,14.56
201905241559,14.56,14.56,14.558,14.559
201905241600,14.559,14.559,14.554,14.555
201905241601,14.556,14.556,14.554,14.556
201905241602,14.556,14.559,14.554,14.559
201905241603,14.559,14.561,14.559,14.559
201905241604,14.559,14.561,14.559,14.561
201905241605,14.561,14.564,14.56,14.561
201905241606,14.56,14.565,14.559,14.559
201905241607,14.559,14.565,14.559,14.564
201905241608,14.564,14.566,14.564,14.564
201905241609,14.564,14.566,14.563,14.564
201905241610,14.565,14.567,14.561,14.565
201905241611,14.565,14.57,14.564,14.565
201905241612,14.565,14.575,14.565,14.571
201905241613,14.571,14.578,14.571,14.575
201905241614,14.576,14.582,14.575,14.582
201905241615,14.581,14.588,14.581,14.587
201905241616,14.587,14.591,14.586,14.586
201905241617,14.586,14.588,14.586,14.587
201905241618,14.587,14.587,14.581,14.586
201905241619,14.586,14.586,14.582,14.582
201905241620,14.582,14.583,14.577,14.581
201905241621,14.581,14.582,14.577,14.582
201905241622,14.582,14.582,14.578,14.578
201905241623,14.578,14.578,14.576,14.576
201905241624,14.577,14.577,14.571,14.571
201905241625,14.571,14.574,14.571,14.572
201905241626,14.572,14.573,14.567,14.57
201905241627,14.571,14.573,14.57,14.57
201905241628,14.571,14.571,14.567,14.571
201905241629,14.571,14.576,14.57,14.575
201905241630,14.576,14.576,14.571,14.571
201905241631,14.571,14.576,14.571,14.572
201905241632,14.572,14.575,14.571,14.573
201905241633,14.572,14.574,14.566,14.566
201905241634,14.566,14.566,14.56,14.562
201905241635,14.562,14.565,14.561,14.562
201905241636,14.562,14.563,14.56,14.561
201905241637,14.561,14.562,14.561,14.562
201905241638,14.562,14.568,14.562,14.566
201905241639,14.565,14.567,14.565,14.565
201905241640,14.565,14.57,14.565,14.567
201905241641,14.567,14.568,14.566,14.566
201905241642,14.566,14.568,14.562,14.563
201905241643,14.565,14.566,14.56,14.561
201905241644,14.561,14.566,14.561,14.566
201905241645,14.566,14.566,14.562,14.562
201905241646,14.562,14.566,14.562,14.566
201905241647,14.566,14.566,14.56,14.56
201905241648,14.561,14.565,14.557,14.557
201905241649,14.557,14.557,14.555,14.555
201905241650,14.556,14.557,14.55,14.555
201905241651,14.555,14.556,14.554,14.555
201905241652,14.555,14.556,14.554,14.555
201905241653,14.555,14.557,14.554,14.555
201905241654,14.555,14.557,14.555,14.556
201905241655,14.555,14.557,14.555,14.557
201905241656,14.557,14.558,14.555,14.558
201905241657,14.558,14.561,14.557,14.56
201905241658,14.56,14.561,14.559,14.56
201905241659,14.56,14.562,14.559,14.561
201905241700,14.561,14.561,14.556,14.558
201905241701,14.558,14.563,14.555,14.56
201905241702,14.56,14.562,14.559,14.56
201905241703,14.561,14.565,14.556,14.556
201905241704,14.558,14.558,14.555,14.557
201905241705,14.557,14.559,14.552,14.554
201905241706,14.555,14.556,14.553,14.555
201905241707,14.555,14.555,14.549,14.553
201905241708,14.553,14.555,14.55,14.551
201905241709,14.551,14.552,14.549,14.55
201905241710,14.55,14.554,14.549,14.55
201905241711,14.55,14.552,14.549,14.549
201905241712,14.549,14.55,14.547,14.549
201905241713,14.549,14.55,14.545,14.547
201905241714,14.547,14.548,14.545,14.546
201905241715,14.546,14.549,14.545,14.549
201905241716,14.549,14.55,14.549,14.55
201905241717,14.55,14.55,14.548,14.549
201905241718,14.55,14.55,14.549,14.549
201905241719,14.55,14.55,14.549,14.55
201905241720,14.55,14.55,14.545,14.549
201905241721,14.549,14.55,14.548,14.549
201905241722,14.549,14.55,14.549,14.55
201905241723,14.55,14.55,14.548,14.548
201905241724,14.548,14.55,14.548,14.55
201905241725,14.55,14.551,14.549,14.55
201905241726,14.55,14.551,14.549,14.55
201905241727,14.55,14.551,14.549,14.551
201905241728,14.551,14.559,14.549,14.559
201905241729,14.557,14.557,14.555,14.555
201905241730,14.555,14.556,14.555,14.555
201905241731,14.555,14.56,14.555,14.56
201905241732,14.56,14.561,14.56,14.561
201905241733,14.561,14.562,14.559,14.56
201905241734,14.56,14.561,14.555,14.556
201905241735,14.556,14.561,14.555,14.559
201905241736,14.56,14.561,14.554,14.558
201905241737,14.558,14.56,14.554,14.555
201905241738,14.555,14.556,14.55,14.555
201905241739,14.555,14.557,14.553,14.553
201905241740,14.553,14.554,14.549,14.549
201905241741,14.55,14.55,14.548,14.549
201905241742,14.549,14.552,14.548,14.549
201905241743,14.549,14.551,14.546,14.551
201905241744,14.551,14.551,14.546,14.55
201905241745,14.55,14.55,14.547,14.547
201905241746,14.548,14.55,14.548,14.55
201905241747,14.55,14.55,14.549,14.55
201905241748,14.55,14.55,14.549,14.55
201905241749,14.55,14.551,14.548,14.549
201905241750,14.549,14.549,14.545,14.546
201905241751,14.546,14.55,14.545,14.55
201905241752,14.55,14.551,14.549,14.55
201905241753,14.551,14.551,14.55,14.551
201905241754,14.551,14.552,14.55,14.551
201905241755,14.551,14.553,14.551,14.551
201905241756,14.551,14.551,14.546,14.547
201905241757,14.546,14.547,14.546,14.547
201905241758,14.546,14.547,14.546,14.547
201905241759,14.547,14.547,14.546,14.547
201905241800,14.547,14.548,14.546,14.547
201905241801,14.547,14.547,14.545,14.547
201905241802,14.547,14.547,14.545,14.545
201905241803,14.545,14.546,14.545,14.545
201905241804,14.545,14.547,14.545,14.546
201905241805,14.546,14.546,14.545,14.545
201905241806,14.545,14.55,14.545,14.545
201905241807,14.545,14.55,14.545,14.546
201905241808,14.547,14.549,14.546,14.546
201905241809,14.546,14.546,14.54,14.541
201905241810,14.541,14.542,14.534,14.534
201905241811,14.535,14.535,14.531,14.531
201905241812,14.531,14.534,14.531,14.531
201905241813,14.531,14.532,14.529,14.531
201905241814,14.531,14.535,14.531,14.533
201905241815,14.533,14.535,14.531,14.534
201905241816,14.534,14.535,14.531,14.533
201905241817,14.533,14.535,14.531,14.534
201905241818,14.535,14.535,14.531,14.532
201905241819,14.532,14.534,14.53,14.532
201905241820,14.532,14.536,14.531,14.536
201905241821,14.536,14.536,14.535,14.535
201905241822,14.535,14.538,14.535,14.536
201905241823,14.536,14.537,14.535,14.536
201905241824,14.536,14.537,14.535,14.536
201905241825,14.536,14.536,14.536,14.536
201905241826,14.536,14.536,14.536,14.536
201905241827,14.536,14.536,14.536,14.536
201905241828,14.536,14.537,14.536,14.536
201905241829,14.536,14.538,14.536,14.536
201905241830,14.536,14.537,14.531,14.535
201905241831,14.535,14.536,14.535,14.536
201905241832,14.536,14.536,14.535,14.535
201905241833,14.535,14.536,14.535,14.536
201905241834,14.536,14.537,14.536,14.536
201905241835,14.536,14.536,14.536,14.536
201905241836,14.536,14.536,14.536,14.536
201905241837,14.536,14.536,14.536,14.536
201905241838,14.536,14.537,14.536,14.536
201905241839,14.536,14.536,14.536,14.536
201905241840,14.536,14.54,14.536,14.54
201905241841,14.54,14.54,14.539,14.539
201905241842,14.539,14.54,14.536,14.536
201905241843,14.536,14.539,14.536,14.539
201905241844,14.539,14.54,14.539,14.54
201905241845,14.54,14.54,14.538,14.539
201905241846,14.539,14.54,14.539,14.54
201905241847,14.54,14.543,14.539,14.542
201905241848,14.542,14.543,14.542,14.542
201905241849,14.542,14.542,14.54,14.542
201905241850,14.542,14.542,14.542,14.542
201905241851,14.542,14.542,14.542,14.542
201905241852,14.542,14.543,14.542,14.542
201905241853,14.542,14.547,14.542,14.547
201905241854,14.547,14.547,14.545,14.546
201905241855,14.546,14.546,14.545,14.546
201905241856,14.546,14.547,14.545,14.546
201905241857,14.546,14.547,14.546,14.546
201905241858,14.546,14.547,14.546,14.546
201905241859,14.546,14.546,14.541,14.542
201905241900,14.542,14.542,14.536,14.541
201905241901,14.541,14.541,14.54,14.541
201905241902,14.541,14.541,14.536,14.537
201905241903,14.536,14.543,14.536,14.541
201905241904,14.541,14.547,14.541,14.546
201905241905,14.546,14.546,14.541,14.542
201905241906,14.542,14.545,14.541,14.545
201905241907,14.545,14.546,14.541,14.542
201905241908,14.541,14.542,14.54,14.541
201905241909,14.541,14.542,14.541,14.541
201905241910,14.541,14.542,14.54,14.541
201905241911,14.54,14.542,14.54,14.541
201905241912,14.541,14.541,14.54,14.541
201905241913,14.541,14.545,14.54,14.545
201905241914,14.545,14.545,14.544,14.545
201905241915,14.545,14.546,14.541,14.542
201905241916,14.542,14.544,14.541,14.542
201905241917,14.542,14.542,14.541,14.542
201905241918,14.542,14.544,14.541,14.542
201905241919,14.542,14.542,14.541,14.542
201905241920,14.542,14.543,14.542,14.543
201905241921,14.543,14.546,14.542,14.543
201905241922,14.543,14.543,14.54,14.542
201905241923,14.542,14.543,14.541,14.543
201905241924,14.542,14.543,14.539,14.541
201905241925,14.541,14.541,14.536,14.537
201905241926,14.537,14.542,14.537,14.542
201905241927,14.542,14.543,14.541,14.543
201905241928,14.543,14.543,14.542,14.543
201905241929,14.543,14.544,14.538,14.538
201905241930,14.538,14.542,14.538,14.541
201905241931,14.541,14.542,14.541,14.542
201905241932,14.542,14.543,14.542,14.543
201905241933,14.543,14.544,14.542,14.543
201905241934,14.543,14.543,14.54,14.541
201905241935,14.541,14.544,14.541,14.543
201905241936,14.543,14.543,14.541,14.543
201905241937,14.543,14.543,14.542,14.543
201905241938,14.543,14.543,14.542,14.543
201905241939,14.543,14.543,14.54,14.54
201905241940,14.54,14.541,14.539,14.54
201905241941,14.541,14.543,14.54,14.542
201905241942,14.542,14.542,14.541,14.542
201905241943,14.542,14.542,14.54,14.54
201905241944,14.54,14.542,14.54,14.541
201905241945,14.541,14.543,14.541,14.543
201905241946,14.543,14.543,14.541,14.542
201905241947,14.542,14.543,14.541,14.542
201905241948,14.542,14.542,14.539,14.541
201905241949,14.541,14.543,14.54,14.542
201905241950,14.542,14.543,14.542,14.542
201905241951,14.542,14.542,14.54,14.54
201905241952,14.54,14.542,14.54,14.541
201905241953,14.541,14.543,14.54,14.542
201905241954,14.542,14.543,14.541,14.542
201905241955,14.542,14.547,14.542,14.546
201905241956,14.546,14.547,14.545,14.546
201905241957,14.546,14.547,14.544,14.546
201905241958,14.546,14.546,14.544,14.545
201905241959,14.545,14.545,14.542,14.542
201905242000,14.543,14.547,14.541,14.542
201905242001,14.542,14.547,14.542,14.546
201905242002,14.546,14.548,14.545,14.547
201905242003,14.547,14.548,14.544,14.544
201905242004,14.545,14.547,14.543,14.547
201905242005,14.547,14.548,14.547,14.547
201905242006,14.547,14.547,14.546,14.547
201905242007,14.547,14.547,14.546,14.547
201905242008,14.547,14.548,14.547,14.548
201905242009,14.547,14.548,14.546,14.547
201905242010,14.547,14.547,14.546,14.546
201905242011,14.547,14.547,14.542,14.546
201905242012,14.546,14.547,14.544,14.547
201905242013,14.547,14.549,14.546,14.548
201905242014,14.548,14.548,14.547,14.547
201905242015,14.547,14.548,14.546,14.547
201905242016,14.547,14.547,14.542,14.544
201905242017,14.544,14.546,14.542,14.544
201905242018,14.544,14.548,14.543,14.548
201905242019,14.548,14.548,14.544,14.547
201905242020,14.547,14.549,14.547,14.548
201905242021,14.548,14.548,14.547,14.548
201905242022,14.548,14.548,14.547,14.547
201905242023,14.547,14.548,14.547,14.548
201905242024,14.548,14.548,14.547,14.548
201905242025,14.548,14.549,14.548,14.549
201905242026,14.549,14.549,14.548,14.548
201905242027,14.548,14.548,14.548,14.548
201905242028,14.548,14.549,14.547,14.547
201905242029,14.547,14.548,14.547,14.548
201905242030,14.548,14.548,14.548,14.548
201905242031,14.548,14.552,14.547,14.551
201905242032,14.551,14.551,14.548,14.548
201905242033,14.548,14.548,14.547,14.548
201905242034,14.548,14.548,14.544,14.546
201905242035,14.547,14.547,14.543,14.543
201905242036,14.543,14.544,14.543,14.544
201905242037,14.544,14.547,14.543,14.547
201905242038,14.547,14.548,14.544,14.548
201905242039,14.548,14.55,14.547,14.549
201905242040,14.549,14.563,14.547,14.562
201905242041,14.563,14.563,14.562,14.563
201905242042,14.563,14.564,14.563,14.563
201905242043,14.563,14.565,14.563,14.564
201905242044,14.564,14.564,14.562,14.563
201905242045,14.563,14.564,14.563,14.563
201905242046,14.563,14.564,14.562,14.563
201905242047,14.563,14.563,14.562,14.562
201905242048,14.562,14.563,14.562,14.563
201905242049,14.563,14.563,14.557,14.558
201905242050,14.558,14.563,14.558,14.563
201905242051,14.563,14.563,14.562,14.562
201905242052,14.562,14.562,14.559,14.561
201905242053,14.561,14.562,14.561,14.562
201905242054,14.562,14.563,14.562,14.563
201905242055,14.563,14.564,14.563,14.563
201905242056,14.563,14.563,14.558,14.558
201905242057,14.558,14.559,14.558,14.558
201905242058,14.558,14.559,14.557,14.558
201905242059,14.558,14.558,14.553,14.554
201905242100,14.554,14.554,14.55,14.552
201905242101,14.552,14.559,14.552,14.558
201905242102,14.558,14.559,14.557,14.557
201905242103,14.557,14.558,14.554,14.558
201905242104,14.558,14.565,14.556,14.565
201905242105,14.565,14.568,14.56,14.561
201905242106,14.561,14.566,14.56,14.562
201905242107,14.562,14.562,14.555,14.556
201905242108,14.556,14.561,14.556,14.556
201905242109,14.556,14.557,14.556,14.556
201905242110,14.555,14.555,14.554,14.555
201905242111,14.555,14.556,14.555,14.556
201905242112,14.556,14.56,14.555,14.559
201905242113,14.559,14.561,14.559,14.559
201905242114,14.559,14.566,14.559,14.565
201905242115,14.565,14.566,14.564,14.566
201905242116,14.566,14.57,14.565,14.57
201905242117,14.57,14.575,14.57,14.571
201905242118,14.571,14.574,14.569,14.574
201905242119,14.573,14.577,14.573,14.575
201905242120,14.575,14.575,14.564,14.567
201905242121,14.567,14.569,14.563,14.564
201905242122,14.564,14.568,14.563,14.568
201905242123,14.568,14.568,14.56,14.563
201905242124,14.562,14.565,14.561,14.565
201905242125,14.565,14.569,14.559,14.564
201905242126,14.564,14.567,14.563,14.564
201905242127,14.564,14.566,14.562,14.564
201905242128,14.564,14.564,14.559,14.56
201905242129,14.56,14.563,14.559,14.562
201905242130,14.561,14.568,14.561,14.567
201905242131,14.567,14.572,14.567,14.57
201905242132,14.569,14.573,14.569,14.572
201905242133,14.572,14.577,14.572,14.575
201905242134,14.575,14.582,14.573,14.579
201905242135,14.579,14.58,14.574,14.577
201905242136,14.577,14.579,14.574,14.579
201905242137,14.579,14.579,14.575,14.576
201905242138,14.575,14.575,14.572,14.572
201905242139,14.572,14.574,14.563,14.567
201905242140,14.569,14.574,14.567,14.573
201905242141,14.573,14.574,14.563,14.564
201905242142,14.564,14.564,14.557,14.558
201905242143,14.558,14.563,14.556,14.561
201905242144,14.562,14.562,14.558,14.56
201905242145,14.56,14.56,14.557,14.559
201905242146,14.559,14.561,14.556,14.558
201905242147,14.558,14.558,14.554,14.558
201905242148,14.558,14.559,14.555,14.558
201905242149,14.558,14.571,14.557,14.569
201905242150,14.569,14.571,14.566,14.568
201905242151,14.568,14.571,14.567,14.567
201905242152,14.567,14.572,14.567,14.568
201905242153,14.567,14.569,14.565,14.566
201905242154,14.565,14.565,14.558,14.563
201905242155,14.563,14.568,14.561,14.567
201905242156,14.567,14.569,14.566,14.568
201905242157,14.568,14.568,14.558,14.559
201905242158,14.559,14.562,14.558,14.562
201905242159,14.562,14.562,14.554,14.557
201905242200,14.557,14.572,14.557,14.566
201905242201,14.563,14.567,14.561,14.563
201905242202,14.561,14.562,14.553,14.555
201905242203,14.556,14.562,14.556,14.561
201905242204,14.561,14.567,14.561,14.567
201905242205,14.567,14.569,14.566,14.569
201905242206,14.569,14.569,14.565,14.566
201905242207,14.564,14.566,14.556,14.556
201905242208,14.556,14.563,14.556,14.563
201905242209,14.564,14.572,14.564,14.571
201905242210,14.571,14.572,14.563,14.568
201905242211,14.568,14.568,14.558,14.563
201905242212,14.563,14.563,14.558,14.559
201905242213,14.559,14.566,14.559,14.565
201905242214,14.565,14.566,14.563,14.564
201905242215,14.564,14.565,14.559,14.559
201905242216,14.559,14.565,14.559,14.565
201905242217,14.565,14.574,14.565,14.573
201905242218,14.573,14.574,14.568,14.57
201905242219,14.57,14.571,14.569,14.569
201905242220,14.569,14.575,14.569,14.575
201905242221,14.575,14.576,14.573,14.574
201905242222,14.574,14.574,14.569,14.574
201905242223,14.574,14.575,14.57,14.574
201905242224,14.574,14.575,14.568,14.569
201905242225,14.569,14.574,14.569,14.574
201905242226,14.574,14.575,14.574,14.574
201905242227,14.574,14.574,14.572,14.573
201905242228,14.573,14.574,14.564,14.564
201905242229,14.564,14.565,14.562,14.565
201905242230,14.565,14.565,14.549,14.549
201905242231,14.55,14.561,14.549,14.555
201905242232,14.555,14.56,14.552,14.552
201905242233,14.552,14.556,14.55,14.554
201905242234,14.554,14.554,14.544,14.545
201905242235,14.544,14.545,14.537,14.543
201905242236,14.544,14.544,14.541,14.541
201905242237,14.541,14.547,14.541,14.546
201905242238,14.546,14.551,14.546,14.546
201905242239,14.546,14.547,14.543,14.546
201905242240,14.545,14.547,14.544,14.546
201905242241,14.546,14.551,14.544,14.546
201905242242,14.546,14.546,14.535,14.539
201905242243,14.539,14.539,14.534,14.536
201905242244,14.536,14.54,14.536,14.536
201905242245,14.536,14.545,14.535,14.543
201905242246,14.542,14.545,14.542,14.542
201905242247,14.542,14.542,14.537,14.542
201905242248,14.542,14.542,14.539,14.541
201905242249,14.541,14.544,14.541,14.541
201905242250,14.541,14.542,14.539,14.542
201905242251,14.542,14.547,14.542,14.547
201905242252,14.547,14.547,14.541,14.541
201905242253,14.541,14.542,14.541,14.542
201905242254,14.542,14.547,14.542,14.546
201905242255,14.546,14.549,14.546,14.546
201905242256,14.547,14.552,14.547,14.551
201905242257,14.551,14.552,14.549,14.551
201905242258,14.55,14.551,14.538,14.539
201905242259,14.54,14.544,14.539,14.542
201905242300,14.542,14.549,14.541,14.549
201905242301,14.549,14.554,14.549,14.55
201905242302,14.55,14.552,14.549,14.55
201905242303,14.55,14.55,14.545,14.546
201905242304,14.546,14.546,14.543,14.544
201905242305,14.544,14.546,14.543,14.546
201905242306,14.546,14.547,14.545,14.545
201905242307,14.545,14.548,14.543,14.547
201905242308,14.547,14.548,14.546,14.547
201905242309,14.546,14.547,14.542,14.547
201905242310,14.546,14.552,14.544,14.545
201905242311,14.545,14.548,14.544,14.548
201905242312,14.548,14.549,14.546,14.547
201905242313,14.547,14.552,14.547,14.551
201905242314,14.551,14.554,14.551,14.553
201905242315,14.553,14.556,14.553,14.556
201905242316,14.556,14.561,14.556,14.557
201905242317,14.557,14.562,14.557,14.559
201905242318,14.559,14.561,14.556,14.558
201905242319,14.558,14.559,14.554,14.558
201905242320,14.558,14.558,14.554,14.557
201905242321,14.557,14.559,14.556,14.559
201905242322,14.559,14.561,14.558,14.56
201905242323,14.56,14.563,14.559,14.56
201905242324,14.56,14.561,14.547,14.547
201905242325,14.547,14.552,14.547,14.549
201905242326,14.549,14.554,14.549,14.552
201905242327,14.552,14.552,14.548,14.551
201905242328,14.55,14.552,14.549,14.551
201905242329,14.551,14.552,14.549,14.55
201905242330,14.55,14.556,14.55,14.555
201905242331,14.555,14.555,14.551,14.551
201905242332,14.551,14.559,14.55,14.557
201905242333,14.557,14.562,14.555,14.561
201905242334,14.561,14.563,14.559,14.561
201905242335,14.561,14.565,14.561,14.563
201905242336,14.563,14.565,14.554,14.555
201905242337,14.555,14.555,14.553,14.555
201905242338,14.555,14.555,14.553,14.554
201905242339,14.554,14.554,14.547,14.547
201905242340,14.547,14.552,14.547,14.549
201905242341,14.549,14.554,14.549,14.549
201905242342,14.549,14.553,14.549,14.552
201905242343,14.552,14.553,14.549,14.552
201905242344,14.552,14.554,14.549,14.549
201905242345,14.549,14.551,14.549,14.55
201905242346,14.551,14.551,14.55,14.551
201905242347,14.551,14.555,14.55,14.555
201905242348,14.555,14.56,14.555,14.56
201905242349,14.56,14.56,14.554,14.555
201905242350,14.555,14.555,14.554,14.554
201905242351,14.554,14.559,14.554,14.559
201905242352,14.559,14.561,14.559,14.56
201905242353,14.56,14.561,14.559,14.559
201905242354,14.559,14.562,14.554,14.555
201905242355,14.555,14.56,14.554,14.56
201905242356,14.56,14.56,14.557,14.558
201905242357,14.558,14.559,14.555,14.555
201905242358,14.555,14.557,14.554,14.554
201905242359,14.554,14.555,14.554,14.555
201905250000,14.555,14.558,14.554,14.555
201905250001,14.555,14.558,14.552,14.558
201905250002,14.557,14.557,14.552,14.553
201905250003,14.553,14.556,14.553,14.554
201905250004,14.554,14.555,14.549,14.55
201905250005,14.55,14.553,14.549,14.549
201905250006,14.549,14.551,14.549,14.55
201905250007,14.55,14.552,14.549,14.55
201905250008,14.55,14.552,14.549,14.55
201905250009,14.55,14.552,14.549,14.55
201905250010,14.55,14.552,14.549,14.55
201905250011,14.55,14.55,14.548,14.55
201905250012,14.55,14.55,14.549,14.549
201905250013,14.549,14.551,14.549,14.549
201905250014,14.549,14.551,14.549,14.549
201905250015,14.549,14.55,14.548,14.549
201905250016,14.549,14.555,14.549,14.555
201905250017,14.555,14.57,14.554,14.569
201905250018,14.569,14.579,14.568,14.575
201905250019,14.575,14.575,14.569,14.57
201905250020,14.57,14.572,14.569,14.57
201905250021,14.569,14.57,14.564,14.564
201905250022,14.565,14.57,14.565,14.569
201905250023,14.569,14.57,14.566,14.568
201905250024,14.568,14.571,14.566,14.567
201905250025,14.567,14.57,14.566,14.569
201905250026,14.569,14.571,14.568,14.571
201905250027,14.57,14.571,14.568,14.568
201905250028,14.569,14.571,14.568,14.571
201905250029,14.571,14.58,14.57,14.58
201905250030,14.58,14.58,14.575,14.575
201905250031,14.575,14.575,14.569,14.574
201905250032,14.575,14.575,14.57,14.573
201905250033,14.573,14.575,14.571,14.571
201905250034,14.571,14.574,14.571,14.571
201905250035,14.571,14.574,14.57,14.574
201905250036,14.574,14.574,14.57,14.572
201905250037,14.571,14.571,14.565,14.565
201905250038,14.564,14.565,14.562,14.565
201905250039,14.565,14.566,14.565,14.566
201905250040,14.565,14.566,14.564,14.566
201905250041,14.566,14.566,14.565,14.565
201905250042,14.565,14.576,14.565,14.576
201905250043,14.575,14.58,14.575,14.578
201905250044,14.579,14.58,14.575,14.575
201905250045,14.575,14.576,14.573,14.573
201905250046,14.573,14.575,14.57,14.571
201905250047,14.571,14.572,14.57,14.571
201905250048,14.571,14.571,14.57,14.57
201905250049,14.57,14.572,14.57,14.57
201905250050,14.57,14.57,14.567,14.57
201905250051,14.57,14.571,14.566,14.566
201905250052,14.566,14.568,14.565,14.566
201905250053,14.566,14.568,14.564,14.565
201905250054,14.565,14.568,14.563,14.565
201905250055,14.565,14.565,14.562,14.565
201905250056,14.565,14.567,14.564,14.565
201905250057,14.565,14.565,14.563,14.565
201905250058,14.565,14.565,14.562,14.564
201905250059,14.564,14.566,14.564,14.565
201905250100,14.565,14.566,14.564,14.566
201905250101,14.566,14.566,14.564,14.564
201905250102,14.564,14.565,14.564,14.565
201905250103,14.565,14.565,14.562,14.565
201905250104,14.565,14.566,14.564,14.566
201905250105,14.566,14.566,14.564,14.564
201905250106,14.564,14.567,14.564,14.565
201905250107,14.565,14.565,14.564,14.565
201905250108,14.565,14.565,14.562,14.562
201905250109,14.562,14.562,14.561,14.561
201905250110,14.561,14.562,14.56,14.561
201905250111,14.561,14.562,14.56,14.561
201905250112,14.561,14.562,14.559,14.56
201905250113,14.56,14.561,14.559,14.56
201905250114,14.56,14.566,14.56,14.566
201905250115,14.566,14.571,14.565,14.57
201905250116,14.571,14.571,14.569,14.57
201905250117,14.57,14.575,14.57,14.571
201905250118,14.571,14.571,14.565,14.566
201905250119,14.566,14.567,14.565,14.566
201905250120,14.565,14.566,14.564,14.565
201905250121,14.565,14.566,14.565,14.566
201905250122,14.566,14.566,14.566,14.566
201905250123,14.566,14.566,14.565,14.565
201905250124,14.565,14.566,14.565,14.566
201905250125,14.566,14.566,14.565,14.566
201905250126,14.566,14.566,14.565,14.566
201905250127,14.566,14.572,14.565,14.571
201905250128,14.571,14.575,14.57,14.57
201905250129,14.571,14.574,14.57,14.571
201905250130,14.571,14.572,14.57,14.57
201905250131,14.57,14.571,14.57,14.57
201905250132,14.57,14.572,14.57,14.571
201905250133,14.571,14.572,14.57,14.571
201905250134,14.571,14.571,14.569,14.57
201905250135,14.57,14.571,14.57,14.57
201905250136,14.57,14.571,14.57,14.571
201905250137,14.571,14.572,14.57,14.572
201905250138,14.572,14.575,14.571,14.575
201905250139,14.575,14.576,14.574,14.575
201905250140,14.575,14.578,14.574,14.576
201905250141,14.576,14.576,14.564,14.565
201905250142,14.565,14.566,14.564,14.566
201905250143,14.566,14.567,14.566,14.566
201905250144,14.566,14.57,14.566,14.567
201905250145,14.567,14.57,14.566,14.566
201905250146,14.566,14.567,14.562,14.565
201905250147,14.565,14.566,14.564,14.565
201905250148,14.565,14.566,14.564,14.564
201905250149,14.565,14.566,14.565,14.565
201905250150,14.565,14.57,14.565,14.57
201905250151,14.57,14.571,14.57,14.57
201905250152,14.57,14.57,14.569,14.57
201905250153,14.57,14.571,14.569,14.57
201905250154,14.57,14.575,14.57,14.574
201905250155,14.574,14.575,14.574,14.575
201905250156,14.575,14.575,14.57,14.57
201905250157,14.57,14.576,14.57,14.575
201905250158,14.575,14.575,14.574,14.575
201905250159,14.575,14.575,14.574,14.575
201905250200,14.575,14.575,14.575,14.575
201905250201,14.575,14.575,14.574,14.575
201905250202,14.575,14.581,14.575,14.58
201905250203,14.579,14.58,14.576,14.579
201905250204,14.579,14.579,14.576,14.576
201905250205,14.576,14.58,14.576,14.58
201905250206,14.58,14.581,14.579,14.579
201905250207,14.579,14.58,14.579,14.579
201905250208,14.579,14.579,14.579,14.579
201905250209,14.579,14.579,14.573,14.573
201905250210,14.573,14.574,14.573,14.574
201905250211,14.574,14.575,14.574,14.575
201905250212,14.575,14.575,14.574,14.575
201905250213,14.575,14.578,14.574,14.575
201905250214,14.575,14.575,14.574,14.575
201905250215,14.575,14.578,14.575,14.578
201905250216,14.578,14.58,14.577,14.579
201905250217,14.579,14.58,14.578,14.579
201905250218,14.579,14.579,14.579,14.579
201905250219,14.579,14.579,14.575,14.575
201905250220,14.575,14.575,14.574,14.575
201905250221,14.575,14.575,14.571,14.571
201905250222,14.571,14.571,14.569,14.57
201905250223,14.57,14.577,14.569,14.577
201905250224,14.576,14.576,14.563,14.565
201905250225,14.568,14.569,14.564,14.565
201905250226,14.565,14.565,14.56,14.565
201905250227,14.565,14.565,14.563,14.564
201905250228,14.564,14.565,14.564,14.565
201905250229,14.565,14.565,14.56,14.561
201905250230,14.561,14.562,14.561,14.561
201905250231,14.561,14.565,14.561,14.564
201905250232,14.564,14.565,14.564,14.564
201905250233,14.564,14.564,14.563,14.564
201905250234,14.564,14.565,14.564,14.565
201905250235,14.565,14.565,14.564,14.564
201905250236,14.565,14.565,14.564,14.564
201905250237,14.564,14.564,14.564,14.564
201905250238,14.564,14.565,14.564,14.564
201905250239,14.564,14.565,14.564,14.565
201905250240,14.564,14.565,14.564,14.565
201905250241,14.564,14.565,14.564,14.565
201905250242,14.565,14.566,14.564,14.564
201905250243,14.564,14.565,14.564,14.564
201905250244,14.564,14.565,14.564,14.564
201905250245,14.564,14.565,14.564,14.565
201905250246,14.565,14.565,14.56,14.56
201905250247,14.56,14.56,14.559,14.56
201905250248,14.56,14.56,14.559,14.559
201905250249,14.559,14.56,14.559,14.56
201905250250,14.56,14.561,14.559,14.559
201905250251,14.56,14.56,14.559,14.56
201905250252,14.559,14.561,14.559,14.56
201905250253,14.56,14.56,14.559,14.56
201905250254,14.56,14.562,14.56,14.561
201905250255,14.561,14.561,14.559,14.56
201905250256,14.56,14.56,14.56,14.56
201905250257,14.56,14.561,14.559,14.56
201905250258,14.56,14.561,14.56,14.56
201905250259,14.56,14.561,14.56,14.56
201905250300,14.56,14.561,14.559,14.56
201905250301,14.56,14.561,14.559,14.561
201905250302,14.561,14.565,14.561,14.565
201905250303,14.565,14.566,14.565,14.565
201905250304,14.565,14.565,14.56,14.561
201905250305,14.561,14.562,14.56,14.561
201905250306,14.56,14.561,14.56,14.561
201905250307,14.561,14.561,14.559,14.56
201905250308,14.56,14.56,14.559,14.559
201905250309,14.559,14.56,14.559,14.56
201905250310,14.56,14.56,14.56,14.56
201905250311,14.56,14.56,14.559,14.559
201905250312,14.559,14.56,14.559,14.56
201905250313,14.56,14.56,14.559,14.56
201905250314,14.56,14.56,14.559,14.56
201905250315,14.56,14.56,14.559,14.56
201905250316,14.559,14.56,14.559,14.56
201905250317,14.56,14.56,14.559,14.56
201905250318,14.56,14.56,14.56,14.56
201905250319,14.56,14.56,14.56,14.56
201905250320,14.56,14.56,14.56,14.56
201905250321,14.56,14.56,14.56,14.56
201905250322,14.56,14.56,14.56,14.56
201905250323,14.56,14.56,14.56,14.56
201905250324,14.56,14.561,14.56,14.56
201905250325,14.56,14.561,14.56,14.561
201905250326,14.561,14.561,14.56,14.56
201905250327,14.56,14.56,14.56,14.56
201905250328,14.56,14.561,14.56,14.56
201905250329,14.56,14.56,14.559,14.56
201905250330,14.56,14.56,14.56,14.56
201905250331,14.56,14.561,14.559,14.559
201905250332,14.559,14.559,14.556,14.557
201905250333,14.557,14.56,14.555,14.559
201905250334,14.559,14.56,14.559,14.56
201905250335,14.56,14.56,14.56,14.56
201905250336,14.56,14.56,14.559,14.56
201905250337,14.56,14.56,14.559,14.559
201905250338,14.559,14.56,14.559,14.56
201905250339,14.56,14.56,14.559,14.56
201905250340,14.56,14.56,14.559,14.56
201905250341,14.56,14.56,14.559,14.56
201905250342,14.56,14.56,14.559,14.56
201905250343,14.56,14.56,14.56,14.56
201905250344,14.56,14.563,14.56,14.56
201905250345,14.56,14.561,14.56,14.56
201905250346,14.56,14.56,14.559,14.56
201905250347,14.56,14.561,14.56,14.56
201905250348,14.56,14.561,14.559,14.56
201905250349,14.56,14.56,14.56,14.56
201905250350,14.561,14.562,14.56,14.562
201905250351,14.562,14.563,14.56,14.56
201905250352,14.56,14.562,14.56,14.562
201905250353,14.562,14.562,14.561,14.561
201905250354,14.561,14.561,14.56,14.56
201905250355,14.56,14.561,14.56,14.56
201905250356,14.56,14.561,14.56,14.561
201905250357,14.561,14.561,14.561,14.561
201905250358,14.561,14.565,14.561,14.565
201905250359,14.565,14.565,14.561,14.561
201905250400,14.561,14.561,14.56,14.56
201905250401,14.56,14.561,14.559,14.56
201905250402,14.56,14.561,14.56,14.56
201905250403,14.56,14.562,14.56,14.56
201905250404,14.56,14.56,14.56,14.56
201905250405,14.56,14.56,14.56,14.56
201905250406,14.56,14.564,14.56,14.562
201905250407,14.562,14.562,14.56,14.562
201905250408,14.562,14.562,14.56,14.56
201905250409,14.56,14.561,14.559,14.56
201905250410,14.56,14.561,14.56,14.56
201905250411,14.56,14.56,14.56,14.56
201905250412,14.56,14.562,14.56,14.561
201905250413,14.561,14.562,14.56,14.56
201905250414,14.56,14.564,14.56,14.562
201905250415,14.562,14.565,14.56,14.565
201905250416,14.565,14.565,14.564,14.564
201905250417,14.564,14.565,14.564,14.565
201905250418,14.565,14.565,14.56,14.562
201905250419,14.562,14.562,14.56,14.56
201905250420,14.56,14.562,14.56,14.561
201905250421,14.561,14.562,14.56,14.562
201905250422,14.562,14.563,14.561,14.561
201905250423,14.561,14.561,14.56,14.56
201905250424,14.56,14.56,14.559,14.56
201905250425,14.56,14.561,14.56,14.561
201905250426,14.561,14.561,14.56,14.56
201905250427,14.56,14.56,14.559,14.56
201905250428,14.56,14.56,14.56,14.56
201905250429,14.56,14.562,14.56,14.562
201905250430,14.562,14.565,14.562,14.565
201905250431,14.565,14.565,14.564,14.565
201905250432,14.565,14.565,14.564,14.564
201905250433,14.565,14.565,14.56,14.56
201905250434,14.56,14.563,14.56,14.561
201905250435,14.561,14.561,14.56,14.56
201905250436,14.56,14.561,14.559,14.559
201905250437,14.559,14.56,14.559,14.56
201905250438,14.56,14.56,14.559,14.56
201905250439,14.56,14.56,14.56,14.56
201905250440,14.56,14.56,14.559,14.559
201905250441,14.56,14.56,14.56,14.56
201905250442,14.56,14.56,14.56,14.56
201905250443,14.56,14.561,14.56,14.56
201905250444,14.56,14.561,14.56,14.561
201905250445,14.561,14.565,14.561,14.565
201905250446,14.565,14.565,14.564,14.565
201905250447,14.564,14.565,14.56,14.562
201905250448,14.562,14.564,14.562,14.564
201905250449,14.564,14.564,14.563,14.563
201905250450,14.564,14.564,14.56,14.56
201905250451,14.56,14.56,14.559,14.56
201905250452,14.56,14.56,14.559,14.56
201905250453,14.56,14.56,14.56,14.56
201905250454,14.56,14.564,14.56,14.564
201905250455,14.564,14.565,14.561,14.565
201905250456,14.565,14.566,14.564,14.566
201905250457,14.566,14.566,14.562,14.562
201905250458,14.562,14.562,14.561,14.562
201905250459,14.562,14.565,14.561,14.562
201905250500,14.562,14.562,14.561,14.562
201905250501,14.562,14.562,14.562,14.562
201905250502,14.562,14.566,14.561,14.566
201905250503,14.566,14.566,14.565,14.566
201905250504,14.566,14.566,14.564,14.564
201905250505,14.564,14.564,14.563,14.564
201905250506,14.564,14.564,14.564,14.564
201905250507,14.564,14.564,14.56,14.56
201905250508,14.56,14.56,14.56,14.56
201905250509,14.56,14.56,14.56,14.56
201905250510,14.56,14.56,14.559,14.559
201905250511,14.559,14.559,14.555,14.555
201905250512,14.555,14.555,14.555,14.555
201905250513,14.555,14.556,14.555,14.555
201905250514,14.555,14.555,14.555,14.555
201905250515,14.555,14.555,14.555,14.555
201905250516,14.555,14.555,14.555,14.555
201905250517,14.555,14.56,14.555,14.56
201905250518,14.56,14.56,14.555,14.555
201905250519,14.555,14.555,14.555,14.555
201905250520,14.555,14.556,14.555,14.555
201905250521,14.555,14.555,14.554,14.554
201905250522,14.554,14.555,14.554,14.555
201905250523,14.555,14.555,14.554,14.555
201905250524,14.555,14.555,14.554,14.555
201905250525,14.555,14.555,14.555,14.555
201905250526,14.555,14.555,14.555,14.555
201905250527,14.555,14.555,14.554,14.555
201905250528,14.555,14.555,14.554,14.554
201905250529,14.554,14.555,14.554,14.554
201905250530,14.555,14.556,14.555,14.555
201905250531,14.555,14.555,14.555,14.555
201905250532,14.555,14.555,14.555,14.555
201905250533,14.555,14.555,14.555,14.555
201905250534,14.555,14.555,14.555,14.555
201905250535,14.554,14.555,14.554,14.555
201905250536,14.555,14.555,14.555,14.555
201905250537,14.555,14.555,14.555,14.555
201905250538,14.555,14.555,14.555,14.555
201905250539,14.555,14.558,14.555,14.558
201905250540,14.558,14.558,14.556,14.558
201905250541,14.558,14.558,14.556,14.558
201905250542,14.558,14.558,14.557,14.557
201905250543,14.557,14.557,14.554,14.554
201905250544,14.554,14.559,14.554,14.559
201905250545,14.559,14.56,14.555,14.558
201905250546,14.558,14.559,14.558,14.559
201905250547,14.559,14.559,14.555,14.559
201905250548,14.559,14.559,14.558,14.558
201905250549,14.557,14.559,14.557,14.559
201905250550,14.559,14.559,14.558,14.558
201905250551,14.558,14.559,14.558,14.558
201905250552,14.558,14.56,14.558,14.56
201905250553,14.56,14.563,14.559,14.559
201905250554,14.559,14.559,14.558,14.558
201905250555,14.558,14.56,14.558,14.558
201905250556,14.558,14.558,14.557,14.558
201905250557,14.558,14.561,14.557,14.558
201905250558,14.558,14.558,14.552,14.552
201905250559,14.552,14.555,14.552,14.555
