日時,始値(BID),高値(BID),安値(BID),終値(BID)
201909160700,27106,27106,27025,27101
201909160701,27102,27102,27047,27064
201909160702,27062,27080,27061,27074
201909160703,27074,27086,27063,27084
201909160704,27084,27088,27076,27086
201909160705,27087,27104,27083,27100
201909160706,27100,27104,27089,27093
201909160707,27093,27101,27091,27099
201909160708,27099,27107,27097,27106
201909160709,27106,27111,27105,27106
201909160710,27106,27113,27104,27104
201909160711,27102,27107,27100,27101
201909160712,27101,27101,27090,27094
201909160713,27094,27100,27093,27095
201909160714,27095,27102,27094,27101
201909160715,27101,27109,27101,27106
201909160716,27106,27106,27088,27088
201909160717,27088,27098,27082,27098
201909160718,27098,27106,27096,27101
201909160719,27101,27108,27101,27106
201909160720,27106,27107,27096,27098
201909160721,27099,27106,27098,27105
201909160722,27105,27106,27097,27098
201909160723,27098,27103,27098,27103
201909160724,27103,27119,27103,27115
201909160725,27116,27119,27111,27115
201909160726,27116,27116,27107,27115
201909160727,27115,27115,27106,27110
201909160728,27110,27112,27109,27110
201909160729,27110,27110,27103,27107
201909160730,27107,27117,27106,27115
201909160731,27115,27122,27111,27118
201909160732,27118,27118,27110,27110
201909160733,27110,27114,27110,27112
201909160734,27112,27117,27112,27117
201909160735,27117,27123,27116,27121
201909160736,27121,27123,27120,27122
201909160737,27122,27125,27122,27124
201909160738,27124,27125,27122,27123
201909160739,27123,27129,27122,27129
201909160740,27129,27139,27129,27136
201909160741,27136,27140,27133,27136
201909160742,27136,27139,27136,27136
201909160743,27136,27138,27134,27137
201909160744,27137,27138,27137,27138
201909160745,27137,27142,27133,27134
201909160746,27134,27138,27133,27137
201909160747,27137,27138,27135,27137
201909160748,27137,27143,27137,27141
201909160749,27141,27141,27134,27137
201909160750,27137,27140,27134,27134
201909160751,27134,27134,27127,27129
201909160752,27129,27131,27125,27126
201909160753,27126,27133,27121,27128
201909160754,27128,27131,27121,27122
201909160755,27122,27122,27121,27122
201909160756,27122,27122,27113,27115
201909160757,27114,27114,27106,27107
201909160758,27107,27108,27105,27107
201909160759,27107,27113,27107,27112
201909160800,27112,27115,27112,27115
201909160801,27115,27115,27107,27110
201909160802,27110,27116,27110,27116
201909160803,27116,27118,27113,27114
201909160804,27114,27117,27114,27115
201909160805,27115,27119,27115,27119
201909160806,27119,27119,27116,27117
201909160807,27117,27117,27112,27115
201909160808,27115,27122,27114,27120
201909160809,27120,27122,27119,27119
201909160810,27119,27119,27118,27119
201909160811,27119,27119,27117,27118
201909160812,27118,27120,27118,27119
201909160813,27119,27120,27119,27120
201909160814,27120,27125,27119,27122
201909160815,27122,27125,27121,27124
201909160816,27124,27126,27123,27124
201909160817,27124,27126,27123,27126
201909160818,27126,27134,27126,27130
201909160819,27130,27131,27128,27131
201909160820,27131,27134,27130,27131
201909160821,27131,27131,27124,27124
201909160822,27124,27126,27123,27126
201909160823,27126,27131,27124,27126
201909160824,27126,27130,27126,27128
201909160825,27128,27129,27128,27128
201909160826,27128,27128,27124,27126
201909160827,27125,27128,27125,27128
201909160828,27128,27130,27119,27119
201909160829,27119,27124,27117,27118
201909160830,27118,27123,27118,27122
201909160831,27122,27124,27120,27121
201909160832,27121,27121,27113,27114
201909160833,27114,27117,27109,27110
201909160834,27110,27119,27110,27118
201909160835,27118,27121,27115,27120
201909160836,27120,27125,27120,27122
201909160837,27122,27122,27109,27114
201909160838,27114,27117,27111,27114
201909160839,27114,27115,27111,27112
201909160840,27112,27119,27106,27107
201909160841,27108,27112,27108,27110
201909160842,27110,27113,27109,27111
201909160843,27111,27111,27105,27105
201909160844,27105,27105,27096,27099
201909160845,27100,27104,27093,27096
201909160846,27096,27101,27095,27098
201909160847,27097,27102,27096,27102
201909160848,27102,27102,27095,27098
201909160849,27097,27097,27092,27092
201909160850,27093,27093,27089,27090
201909160851,27090,27091,27078,27080
201909160852,27080,27087,27078,27080
201909160853,27079,27080,27077,27077
201909160854,27077,27082,27070,27071
201909160855,27071,27082,27071,27080
201909160856,27082,27085,27075,27077
201909160857,27077,27080,27072,27072
201909160858,27072,27073,27070,27070
201909160859,27070,27079,27070,27077
201909160900,27077,27085,27076,27084
201909160901,27084,27085,27077,27078
201909160902,27077,27081,27073,27076
201909160903,27076,27076,27070,27072
201909160904,27072,27075,27068,27071
201909160905,27071,27074,27060,27062
201909160906,27062,27070,27061,27070
201909160907,27070,27070,27064,27067
201909160908,27067,27072,27065,27065
201909160909,27065,27069,27063,27068
201909160910,27068,27070,27052,27052
201909160911,27052,27055,27050,27054
201909160912,27053,27057,27051,27057
201909160913,27057,27058,27054,27057
201909160914,27057,27057,27054,27055
201909160915,27056,27059,27050,27050
201909160916,27050,27051,27041,27045
201909160917,27045,27052,27043,27045
201909160918,27045,27047,27042,27045
201909160919,27045,27050,27042,27044
201909160920,27044,27046,27036,27045
201909160921,27045,27053,27044,27052
201909160922,27052,27052,27045,27045
201909160923,27045,27052,27044,27052
201909160924,27052,27052,27043,27045
201909160925,27045,27054,27039,27040
201909160926,27039,27040,27032,27036
201909160927,27036,27038,27018,27022
201909160928,27022,27024,27009,27018
201909160929,27018,27027,27016,27026
201909160930,27025,27040,27025,27038
201909160931,27038,27041,27029,27032
201909160932,27033,27040,27032,27040
201909160933,27040,27042,27024,27025
201909160934,27025,27037,27025,27027
201909160935,27027,27037,27027,27036
201909160936,27036,27047,27036,27045
201909160937,27045,27047,27040,27040
201909160938,27040,27052,27040,27050
201909160939,27050,27057,27048,27057
201909160940,27057,27059,27052,27057
201909160941,27057,27057,27053,27055
201909160942,27055,27059,27052,27059
201909160943,27058,27063,27055,27063
201909160944,27063,27066,27061,27065
201909160945,27065,27065,27060,27064
201909160946,27064,27064,27058,27060
201909160947,27060,27062,27057,27058
201909160948,27058,27070,27057,27067
201909160949,27067,27070,27064,27067
201909160950,27068,27070,27061,27070
201909160951,27069,27075,27069,27072
201909160952,27072,27076,27070,27076
201909160953,27076,27076,27073,27076
201909160954,27076,27076,27072,27073
201909160955,27072,27073,27070,27072
201909160956,27072,27076,27070,27076
201909160957,27076,27081,27076,27076
201909160958,27076,27076,27073,27075
201909160959,27076,27076,27073,27075
201909161000,27074,27076,27061,27065
201909161001,27065,27072,27065,27071
201909161002,27072,27073,27068,27070
201909161003,27070,27072,27066,27068
201909161004,27068,27070,27063,27065
201909161005,27065,27067,27061,27064
201909161006,27064,27067,27056,27057
201909161007,27058,27059,27047,27047
201909161008,27047,27050,27046,27050
201909161009,27050,27057,27050,27055
201909161010,27055,27059,27055,27058
201909161011,27058,27059,27054,27054
201909161012,27054,27056,27049,27049
201909161013,27049,27050,27044,27047
201909161014,27046,27050,27046,27048
201909161015,27048,27053,27047,27053
201909161016,27053,27057,27044,27046
201909161017,27046,27050,27044,27046
201909161018,27046,27050,27043,27048
201909161019,27048,27054,27048,27050
201909161020,27050,27052,27046,27046
201909161021,27047,27050,27045,27045
201909161022,27045,27047,27042,27044
201909161023,27044,27044,27041,27041
201909161024,27040,27041,27036,27038
201909161025,27038,27046,27036,27045
201909161026,27045,27048,27044,27048
201909161027,27048,27048,27043,27046
201909161028,27046,27047,27042,27046
201909161029,27046,27047,27043,27044
201909161030,27043,27045,27037,27040
201909161031,27040,27040,27035,27036
201909161032,27036,27042,27034,27037
201909161033,27037,27040,27035,27039
201909161034,27039,27045,27038,27045
201909161035,27045,27051,27041,27048
201909161036,27048,27058,27046,27056
201909161037,27056,27073,27054,27073
201909161038,27074,27082,27070,27080
201909161039,27080,27080,27066,27069
201909161040,27069,27072,27062,27064
201909161041,27064,27075,27063,27075
201909161042,27075,27076,27067,27067
201909161043,27068,27068,27061,27062
201909161044,27061,27061,27058,27058
201909161045,27058,27062,27058,27061
201909161046,27062,27062,27052,27052
201909161047,27052,27057,27051,27056
201909161048,27056,27056,27049,27052
201909161049,27052,27053,27050,27052
201909161050,27052,27053,27046,27048
201909161051,27048,27059,27048,27058
201909161052,27058,27064,27054,27064
201909161053,27064,27065,27060,27062
201909161054,27061,27068,27061,27068
201909161055,27068,27068,27064,27064
201909161056,27064,27066,27060,27066
201909161057,27066,27067,27062,27065
201909161058,27064,27073,27064,27070
201909161059,27069,27070,27064,27065
201909161100,27066,27066,27044,27052
201909161101,27052,27057,27052,27054
201909161102,27054,27056,27050,27054
201909161103,27054,27057,27050,27055
201909161104,27055,27060,27054,27058
201909161105,27058,27058,27052,27054
201909161106,27054,27057,27052,27056
201909161107,27055,27055,27052,27053
201909161108,27053,27058,27052,27054
201909161109,27055,27059,27054,27057
201909161110,27057,27064,27057,27058
201909161111,27058,27060,27057,27058
201909161112,27058,27061,27056,27059
201909161113,27059,27063,27056,27061
201909161114,27058,27058,27052,27053
201909161115,27053,27053,27049,27050
201909161116,27050,27055,27049,27053
201909161117,27054,27056,27051,27052
201909161118,27052,27057,27052,27056
201909161119,27057,27057,27052,27054
201909161120,27053,27054,27052,27052
201909161121,27052,27053,27048,27049
201909161122,27049,27051,27048,27050
201909161123,27051,27051,27045,27051
201909161124,27051,27058,27049,27058
201909161125,27058,27064,27057,27062
201909161126,27062,27064,27058,27059
201909161127,27059,27064,27059,27063
201909161128,27063,27063,27059,27062
201909161129,27063,27065,27059,27061
201909161130,27060,27064,27059,27061
201909161131,27061,27061,27057,27059
201909161132,27059,27060,27056,27056
201909161133,27057,27067,27057,27064
201909161134,27064,27067,27064,27066
201909161135,27066,27067,27063,27067
201909161136,27067,27067,27062,27064
201909161137,27064,27065,27061,27062
201909161138,27062,27068,27062,27066
201909161139,27066,27066,27063,27065
201909161140,27064,27064,27061,27061
201909161141,27061,27061,27052,27058
201909161142,27057,27060,27057,27058
201909161143,27058,27062,27058,27062
201909161144,27062,27066,27062,27065
201909161145,27065,27072,27063,27072
201909161146,27072,27073,27070,27071
201909161147,27070,27070,27068,27069
201909161148,27069,27069,27068,27068
201909161149,27068,27071,27068,27068
201909161150,27068,27068,27063,27066
201909161151,27066,27067,27063,27067
201909161152,27067,27072,27066,27072
201909161153,27072,27073,27072,27073
201909161154,27073,27074,27072,27073
201909161155,27073,27077,27070,27071
201909161156,27071,27076,27071,27074
201909161157,27074,27076,27073,27074
201909161158,27074,27077,27073,27074
201909161159,27074,27076,27073,27076
201909161200,27076,27077,27072,27073
201909161201,27074,27077,27071,27075
201909161202,27075,27076,27073,27074
201909161203,27074,27079,27074,27077
201909161204,27077,27079,27077,27079
201909161205,27078,27085,27078,27083
201909161206,27083,27091,27083,27090
201909161207,27090,27091,27087,27087
201909161208,27087,27091,27087,27088
201909161209,27088,27091,27088,27091
201909161210,27091,27092,27087,27089
201909161211,27089,27091,27084,27089
201909161212,27089,27090,27084,27084
201909161213,27084,27085,27084,27085
201909161214,27084,27086,27083,27083
201909161215,27083,27085,27081,27082
201909161216,27082,27083,27081,27083
201909161217,27083,27086,27081,27086
201909161218,27086,27093,27086,27091
201909161219,27091,27091,27088,27088
201909161220,27088,27089,27087,27087
201909161221,27087,27088,27087,27087
201909161222,27087,27090,27086,27086
201909161223,27086,27090,27086,27090
201909161224,27090,27090,27089,27089
201909161225,27089,27092,27088,27089
201909161226,27088,27090,27088,27090
201909161227,27090,27090,27083,27084
201909161228,27084,27084,27079,27081
201909161229,27081,27082,27080,27082
201909161230,27082,27084,27082,27082
201909161231,27082,27085,27082,27085
201909161232,27085,27085,27084,27084
201909161233,27084,27085,27082,27085
201909161234,27084,27086,27084,27085
201909161235,27085,27087,27084,27087
201909161236,27087,27088,27084,27086
201909161237,27086,27088,27086,27087
201909161238,27088,27088,27084,27086
201909161239,27086,27088,27086,27087
201909161240,27087,27088,27085,27085
201909161241,27086,27087,27085,27086
201909161242,27086,27088,27086,27088
201909161243,27088,27089,27088,27089
201909161244,27089,27090,27087,27090
201909161245,27090,27092,27090,27090
201909161246,27090,27091,27088,27089
201909161247,27089,27090,27088,27089
201909161248,27089,27090,27089,27089
201909161249,27089,27089,27087,27087
201909161250,27087,27088,27087,27088
201909161251,27088,27088,27086,27086
201909161252,27086,27087,27085,27087
201909161253,27087,27091,27086,27091
201909161254,27091,27091,27090,27091
201909161255,27091,27092,27090,27090
201909161256,27091,27091,27090,27090
201909161257,27090,27090,27088,27089
201909161258,27089,27089,27086,27087
201909161259,27087,27089,27087,27089
201909161300,27089,27092,27089,27090
201909161301,27090,27092,27088,27088
201909161302,27088,27088,27085,27086
201909161303,27086,27086,27083,27084
201909161304,27083,27083,27082,27082
201909161305,27082,27084,27082,27084
201909161306,27084,27084,27081,27081
201909161307,27081,27082,27080,27080
201909161308,27080,27083,27080,27083
201909161309,27084,27084,27083,27083
201909161310,27083,27085,27083,27084
201909161311,27084,27084,27077,27077
201909161312,27077,27077,27073,27075
201909161313,27075,27075,27073,27075
201909161314,27075,27075,27073,27075
201909161315,27075,27075,27073,27074
201909161316,27074,27074,27073,27073
201909161317,27073,27073,27070,27072
201909161318,27072,27073,27071,27071
201909161319,27071,27072,27070,27070
201909161320,27070,27070,27068,27068
201909161321,27068,27069,27067,27067
201909161322,27067,27069,27067,27069
201909161323,27068,27069,27068,27069
201909161324,27069,27069,27065,27066
201909161325,27066,27067,27065,27065
201909161326,27066,27066,27065,27065
201909161327,27065,27066,27057,27059
201909161328,27059,27059,27057,27057
201909161329,27057,27057,27055,27055
201909161330,27055,27057,27053,27053
201909161331,27053,27059,27053,27059
201909161332,27059,27060,27057,27057
201909161333,27057,27058,27057,27057
201909161334,27057,27063,27057,27061
201909161335,27061,27062,27059,27062
201909161336,27062,27062,27061,27061
201909161337,27061,27061,27060,27061
201909161338,27061,27064,27061,27064
201909161339,27064,27064,27061,27061
201909161340,27061,27062,27060,27062
201909161341,27062,27063,27061,27062
201909161342,27062,27066,27062,27066
201909161343,27066,27066,27063,27063
201909161344,27063,27066,27063,27066
201909161345,27066,27066,27063,27063
201909161346,27064,27064,27063,27063
201909161347,27063,27063,27062,27062
201909161348,27063,27063,27059,27060
201909161349,27059,27060,27055,27055
201909161350,27055,27055,27055,27055
201909161351,27055,27059,27052,27058
201909161352,27058,27059,27057,27059
201909161353,27059,27061,27059,27061
201909161354,27061,27062,27061,27062
201909161355,27062,27062,27060,27061
201909161356,27061,27062,27060,27062
201909161357,27062,27064,27061,27064
201909161358,27064,27064,27062,27063
201909161359,27063,27063,27061,27061
201909161400,27061,27065,27061,27063
201909161401,27063,27063,27063,27063
201909161402,27063,27063,27058,27060
201909161403,27060,27061,27060,27061
201909161404,27061,27061,27059,27060
201909161405,27060,27063,27060,27062
201909161406,27063,27068,27062,27068
201909161407,27068,27068,27067,27067
201909161408,27067,27069,27066,27069
201909161409,27069,27070,27069,27070
201909161410,27070,27070,27069,27070
201909161411,27070,27070,27068,27069
201909161412,27069,27071,27069,27071
201909161413,27071,27071,27066,27066
201909161414,27067,27069,27066,27067
201909161415,27066,27067,27063,27063
201909161416,27063,27066,27063,27066
201909161417,27066,27068,27065,27067
201909161418,27067,27068,27066,27067
201909161419,27067,27070,27067,27069
201909161420,27069,27070,27069,27069
201909161421,27069,27072,27069,27072
201909161422,27072,27073,27071,27072
201909161423,27072,27075,27072,27073
201909161424,27073,27078,27073,27077
201909161425,27077,27077,27075,27076
201909161426,27077,27078,27075,27076
201909161427,27075,27098,27075,27097
201909161428,27097,27097,27089,27089
201909161429,27089,27095,27089,27095
201909161430,27095,27098,27093,27093
201909161431,27093,27094,27090,27090
201909161432,27090,27091,27089,27090
201909161433,27090,27096,27089,27093
201909161434,27093,27094,27091,27093
201909161435,27093,27093,27088,27090
201909161436,27089,27090,27086,27086
201909161437,27085,27088,27083,27087
201909161438,27087,27089,27085,27089
201909161439,27089,27093,27087,27091
201909161440,27091,27091,27089,27089
201909161441,27089,27091,27088,27090
201909161442,27090,27091,27088,27089
201909161443,27089,27089,27087,27087
201909161444,27087,27087,27084,27084
201909161445,27084,27086,27082,27084
201909161446,27084,27088,27084,27088
201909161447,27088,27090,27087,27087
201909161448,27087,27088,27085,27086
201909161449,27086,27086,27082,27085
201909161450,27084,27085,27081,27081
201909161451,27082,27083,27080,27080
201909161452,27080,27090,27079,27088
201909161453,27088,27090,27087,27087
201909161454,27087,27089,27087,27087
201909161455,27087,27087,27085,27087
201909161456,27087,27090,27084,27084
201909161457,27084,27090,27084,27088
201909161458,27088,27088,27086,27087
201909161459,27087,27088,27085,27087
201909161500,27087,27104,27087,27096
201909161501,27094,27101,27092,27100
201909161502,27100,27111,27100,27108
201909161503,27109,27114,27109,27111
201909161504,27111,27112,27109,27111
201909161505,27111,27117,27108,27117
201909161506,27117,27117,27107,27107
201909161507,27107,27112,27106,27109
201909161508,27109,27110,27106,27110
201909161509,27110,27112,27108,27110
201909161510,27110,27112,27106,27106
201909161511,27105,27114,27105,27109
201909161512,27109,27110,27106,27110
201909161513,27110,27110,27109,27109
201909161514,27109,27109,27098,27098
201909161515,27098,27102,27095,27098
201909161516,27099,27104,27098,27104
201909161517,27104,27110,27104,27108
201909161518,27108,27108,27102,27103
201909161519,27103,27106,27102,27105
201909161520,27105,27112,27103,27111
201909161521,27111,27111,27104,27109
201909161522,27109,27110,27107,27107
201909161523,27107,27109,27105,27106
201909161524,27106,27115,27105,27112
201909161525,27112,27115,27107,27107
201909161526,27107,27109,27103,27108
201909161527,27108,27108,27102,27104
201909161528,27104,27107,27100,27101
201909161529,27101,27103,27100,27103
201909161530,27103,27110,27101,27110
201909161531,27110,27112,27108,27111
201909161532,27111,27113,27110,27110
201909161533,27110,27110,27105,27105
201909161534,27105,27105,27100,27101
201909161535,27101,27104,27100,27100
201909161536,27100,27103,27099,27099
201909161537,27099,27103,27097,27102
201909161538,27102,27106,27100,27106
201909161539,27106,27106,27102,27104
201909161540,27104,27104,27099,27103
201909161541,27103,27104,27095,27095
201909161542,27095,27098,27095,27096
201909161543,27096,27096,27093,27094
201909161544,27094,27094,27090,27090
201909161545,27090,27091,27086,27090
201909161546,27090,27090,27086,27087
201909161547,27087,27087,27081,27085
201909161548,27085,27086,27080,27084
201909161549,27084,27084,27080,27083
201909161550,27083,27085,27081,27081
201909161551,27081,27092,27081,27088
201909161552,27088,27088,27084,27087
201909161553,27087,27095,27086,27094
201909161554,27094,27095,27091,27091
201909161555,27091,27091,27084,27088
201909161556,27088,27097,27088,27096
201909161557,27096,27098,27093,27095
201909161558,27095,27098,27095,27098
201909161559,27098,27102,27093,27101
201909161600,27101,27111,27101,27105
201909161601,27105,27105,27095,27101
201909161602,27101,27114,27099,27114
201909161603,27117,27117,27108,27108
201909161604,27108,27112,27106,27107
201909161605,27107,27114,27101,27106
201909161606,27106,27115,27106,27111
201909161607,27111,27118,27111,27114
201909161608,27114,27116,27111,27114
201909161609,27114,27115,27111,27114
201909161610,27114,27126,27113,27124
201909161611,27124,27132,27124,27132
201909161612,27132,27139,27129,27138
201909161613,27138,27141,27132,27136
201909161614,27136,27145,27135,27145
201909161615,27145,27147,27130,27130
201909161616,27130,27132,27128,27128
201909161617,27128,27129,27125,27126
201909161618,27126,27134,27126,27127
201909161619,27127,27127,27122,27126
201909161620,27126,27127,27123,27124
201909161621,27124,27124,27111,27113
201909161622,27113,27115,27107,27110
201909161623,27110,27112,27106,27108
201909161624,27108,27108,27102,27108
201909161625,27108,27110,27105,27107
201909161626,27107,27107,27097,27103
201909161627,27103,27105,27098,27101
201909161628,27101,27105,27094,27103
201909161629,27103,27103,27097,27101
201909161630,27101,27104,27095,27099
201909161631,27099,27100,27092,27098
201909161632,27098,27099,27092,27092
201909161633,27093,27097,27092,27093
201909161634,27093,27097,27092,27097
201909161635,27097,27104,27095,27102
201909161636,27102,27105,27099,27104
201909161637,27104,27106,27102,27106
201909161638,27106,27110,27106,27109
201909161639,27109,27115,27109,27114
201909161640,27114,27116,27104,27104
201909161641,27104,27107,27103,27105
201909161642,27105,27108,27102,27104
201909161643,27105,27109,27104,27109
201909161644,27109,27111,27105,27106
201909161645,27106,27110,27104,27105
201909161646,27104,27104,27100,27102
201909161647,27102,27105,27102,27105
201909161648,27105,27107,27103,27106
201909161649,27106,27111,27105,27107
201909161650,27107,27107,27100,27105
201909161651,27105,27105,27100,27100
201909161652,27100,27102,27097,27097
201909161653,27097,27101,27097,27098
201909161654,27098,27100,27093,27094
201909161655,27094,27105,27090,27105
201909161656,27105,27111,27104,27110
201909161657,27110,27116,27107,27116
201909161658,27116,27116,27111,27112
201909161659,27112,27117,27112,27115
201909161700,27115,27117,27112,27112
201909161701,27111,27112,27107,27108
201909161702,27108,27123,27108,27119
201909161703,27119,27127,27118,27126
201909161704,27126,27141,27124,27139
201909161705,27139,27140,27133,27134
201909161706,27135,27145,27133,27142
201909161707,27142,27142,27137,27138
201909161708,27138,27141,27135,27137
201909161709,27137,27144,27137,27144
201909161710,27144,27146,27137,27137
201909161711,27136,27136,27128,27129
201909161712,27129,27138,27129,27137
201909161713,27137,27139,27136,27137
201909161714,27137,27137,27128,27129
201909161715,27129,27129,27121,27125
201909161716,27125,27130,27120,27121
201909161717,27121,27132,27121,27127
201909161718,27128,27128,27123,27124
201909161719,27124,27125,27122,27123
201909161720,27124,27125,27118,27118
201909161721,27118,27118,27115,27117
201909161722,27117,27117,27114,27117
201909161723,27117,27123,27117,27122
201909161724,27122,27128,27122,27122
201909161725,27123,27127,27122,27126
201909161726,27127,27134,27126,27130
201909161727,27130,27130,27119,27124
201909161728,27124,27126,27122,27123
201909161729,27123,27125,27115,27119
201909161730,27119,27124,27118,27120
201909161731,27120,27124,27114,27119
201909161732,27119,27122,27117,27119
201909161733,27119,27123,27118,27122
201909161734,27122,27126,27119,27125
201909161735,27125,27134,27120,27122
201909161736,27122,27126,27120,27125
201909161737,27125,27130,27124,27128
201909161738,27128,27130,27122,27122
201909161739,27122,27124,27119,27123
201909161740,27123,27125,27118,27119
201909161741,27119,27119,27112,27113
201909161742,27113,27115,27110,27113
201909161743,27114,27118,27109,27111
201909161744,27111,27117,27110,27114
201909161745,27114,27121,27114,27120
201909161746,27120,27120,27114,27118
201909161747,27118,27120,27116,27120
201909161748,27120,27121,27119,27121
201909161749,27121,27121,27115,27117
201909161750,27117,27118,27109,27109
201909161751,27109,27109,27097,27098
201909161752,27098,27105,27096,27104
201909161753,27104,27108,27102,27108
201909161754,27108,27111,27106,27109
201909161755,27109,27111,27104,27111
201909161756,27112,27115,27110,27110
201909161757,27110,27114,27107,27114
201909161758,27114,27115,27113,27115
201909161759,27114,27115,27109,27114
201909161800,27114,27118,27108,27109
201909161801,27109,27111,27099,27101
201909161802,27101,27101,27072,27091
201909161803,27091,27101,27089,27099
201909161804,27099,27100,27096,27097
201909161805,27097,27107,27095,27106
201909161806,27106,27107,27101,27103
201909161807,27103,27105,27099,27102
201909161808,27102,27110,27098,27103
201909161809,27103,27111,27103,27105
201909161810,27105,27108,27102,27104
201909161811,27104,27105,27100,27100
201909161812,27100,27103,27093,27093
201909161813,27093,27095,27090,27091
201909161814,27091,27102,27091,27100
201909161815,27100,27103,27096,27097
201909161816,27097,27101,27093,27100
201909161817,27100,27100,27097,27099
201909161818,27099,27102,27096,27096
201909161819,27096,27100,27094,27097
201909161820,27097,27099,27092,27096
201909161821,27096,27100,27095,27098
201909161822,27099,27102,27096,27099
201909161823,27099,27099,27096,27096
201909161824,27096,27101,27094,27101
201909161825,27101,27107,27101,27105
201909161826,27105,27108,27100,27107
201909161827,27107,27115,27106,27111
201909161828,27111,27124,27111,27123
201909161829,27123,27126,27120,27120
201909161830,27120,27122,27117,27117
201909161831,27117,27120,27111,27114
201909161832,27114,27114,27109,27113
201909161833,27113,27117,27113,27115
201909161834,27116,27118,27110,27111
201909161835,27111,27114,27103,27103
201909161836,27103,27106,27082,27085
201909161837,27085,27098,27083,27098
201909161838,27098,27100,27095,27099
201909161839,27099,27100,27097,27098
201909161840,27098,27100,27091,27092
201909161841,27092,27100,27092,27097
201909161842,27098,27101,27094,27096
201909161843,27097,27100,27096,27098
201909161844,27098,27099,27093,27094
201909161845,27094,27095,27087,27087
201909161846,27088,27094,27086,27094
201909161847,27094,27099,27092,27092
201909161848,27092,27094,27090,27092
201909161849,27091,27104,27090,27104
201909161850,27104,27106,27099,27105
201909161851,27105,27111,27105,27108
201909161852,27107,27108,27105,27108
201909161853,27108,27112,27106,27110
201909161854,27110,27111,27107,27109
201909161855,27109,27110,27106,27109
201909161856,27109,27109,27100,27102
201909161857,27102,27105,27093,27100
201909161858,27099,27100,27095,27099
201909161859,27099,27108,27099,27105
201909161900,27105,27107,27103,27106
201909161901,27106,27107,27102,27107
201909161902,27107,27108,27102,27104
201909161903,27104,27104,27097,27098
201909161904,27099,27111,27098,27106
201909161905,27106,27110,27103,27105
201909161906,27105,27105,27101,27103
201909161907,27103,27113,27103,27112
201909161908,27112,27115,27107,27114
201909161909,27114,27117,27111,27112
201909161910,27112,27117,27108,27108
201909161911,27108,27109,27104,27106
201909161912,27106,27110,27106,27107
201909161913,27107,27115,27107,27114
201909161914,27114,27119,27113,27115
201909161915,27115,27116,27109,27109
201909161916,27109,27110,27107,27107
201909161917,27107,27110,27104,27105
201909161918,27105,27106,27101,27106
201909161919,27106,27106,27101,27102
201909161920,27102,27108,27101,27102
201909161921,27103,27105,27101,27104
201909161922,27104,27108,27103,27106
201909161923,27106,27106,27097,27097
201909161924,27096,27105,27096,27103
201909161925,27103,27105,27098,27101
201909161926,27101,27102,27099,27101
201909161927,27101,27104,27101,27103
201909161928,27103,27104,27101,27103
201909161929,27103,27103,27100,27100
201909161930,27100,27104,27096,27097
201909161931,27097,27099,27093,27093
201909161932,27093,27094,27091,27092
201909161933,27092,27092,27088,27089
201909161934,27090,27091,27083,27084
201909161935,27084,27093,27084,27092
201909161936,27092,27092,27090,27092
201909161937,27092,27099,27087,27096
201909161938,27096,27099,27092,27098
201909161939,27099,27106,27099,27103
201909161940,27103,27105,27102,27102
201909161941,27102,27108,27100,27104
201909161942,27104,27106,27102,27103
201909161943,27102,27103,27097,27099
201909161944,27099,27107,27099,27100
201909161945,27099,27107,27099,27107
201909161946,27108,27109,27106,27107
201909161947,27106,27107,27105,27106
201909161948,27106,27109,27103,27103
201909161949,27103,27105,27100,27104
201909161950,27104,27105,27098,27104
201909161951,27104,27105,27100,27105
201909161952,27105,27105,27100,27103
201909161953,27103,27106,27103,27103
201909161954,27103,27104,27103,27103
201909161955,27104,27104,27101,27104
201909161956,27104,27104,27100,27100
201909161957,27101,27111,27100,27108
201909161958,27108,27110,27105,27106
201909161959,27106,27109,27105,27109
201909162000,27109,27110,27107,27107
201909162001,27107,27107,27104,27105
201909162002,27105,27106,27100,27101
201909162003,27101,27101,27097,27101
201909162004,27100,27105,27100,27105
201909162005,27106,27110,27104,27108
201909162006,27108,27110,27107,27107
201909162007,27107,27108,27106,27107
201909162008,27107,27109,27106,27108
201909162009,27108,27110,27107,27109
201909162010,27109,27116,27109,27113
201909162011,27112,27122,27110,27111
201909162012,27111,27117,27110,27113
201909162013,27113,27114,27099,27100
201909162014,27100,27114,27100,27112
201909162015,27112,27112,27098,27098
201909162016,27098,27099,27089,27098
201909162017,27098,27102,27087,27093
201909162018,27093,27095,27091,27092
201909162019,27092,27092,27088,27091
201909162020,27091,27094,27089,27091
201909162021,27091,27096,27088,27093
201909162022,27093,27094,27086,27089
201909162023,27089,27096,27088,27093
201909162024,27094,27098,27090,27092
201909162025,27092,27102,27090,27098
201909162026,27098,27108,27098,27103
201909162027,27103,27104,27103,27104
201909162028,27104,27106,27103,27106
201909162029,27106,27109,27106,27109
201909162030,27109,27109,27100,27107
201909162031,27107,27114,27107,27109
201909162032,27109,27118,27108,27112
201909162033,27112,27115,27110,27114
201909162034,27114,27116,27113,27116
201909162035,27116,27119,27108,27108
201909162036,27108,27111,27107,27111
201909162037,27110,27112,27108,27109
201909162038,27109,27112,27106,27111
201909162039,27111,27113,27111,27112
201909162040,27112,27115,27107,27108
201909162041,27108,27111,27105,27105
201909162042,27105,27107,27105,27105
201909162043,27105,27107,27104,27106
201909162044,27106,27107,27102,27103
201909162045,27103,27109,27102,27106
201909162046,27106,27109,27105,27106
201909162047,27106,27109,27104,27109
201909162048,27110,27110,27107,27109
201909162049,27109,27121,27107,27120
201909162050,27120,27120,27115,27116
201909162051,27115,27117,27115,27115
201909162052,27116,27117,27112,27114
201909162053,27114,27117,27113,27114
201909162054,27114,27114,27112,27114
201909162055,27114,27117,27113,27117
201909162056,27117,27119,27113,27118
201909162057,27118,27126,27115,27124
201909162058,27124,27125,27120,27122
201909162059,27122,27123,27120,27120
201909162100,27120,27125,27118,27122
201909162101,27122,27124,27116,27119
201909162102,27119,27123,27118,27120
201909162103,27120,27122,27118,27119
201909162104,27119,27123,27116,27117
201909162105,27117,27123,27117,27122
201909162106,27122,27124,27120,27123
201909162107,27123,27129,27122,27128
201909162108,27128,27128,27120,27123
201909162109,27123,27137,27120,27134
201909162110,27134,27137,27132,27132
201909162111,27132,27135,27131,27134
201909162112,27133,27136,27130,27134
201909162113,27134,27135,27132,27132
201909162114,27132,27137,27130,27135
201909162115,27135,27135,27132,27134
201909162116,27134,27136,27130,27130
201909162117,27130,27132,27128,27132
201909162118,27132,27133,27129,27130
201909162119,27130,27131,27128,27129
201909162120,27129,27131,27128,27128
201909162121,27128,27131,27127,27127
201909162122,27127,27128,27123,27123
201909162123,27123,27127,27123,27126
201909162124,27127,27127,27123,27126
201909162125,27125,27129,27124,27129
201909162126,27129,27129,27124,27125
201909162127,27125,27128,27125,27126
201909162128,27126,27127,27126,27127
201909162129,27127,27127,27123,27125
201909162130,27125,27125,27122,27124
201909162131,27124,27127,27117,27117
201909162132,27117,27121,27115,27119
201909162133,27119,27121,27118,27120
201909162134,27120,27122,27118,27122
201909162135,27122,27123,27119,27120
201909162136,27120,27126,27118,27118
201909162137,27118,27121,27118,27118
201909162138,27118,27120,27118,27119
201909162139,27119,27121,27117,27121
201909162140,27121,27128,27121,27124
201909162141,27124,27124,27116,27117
201909162142,27117,27122,27117,27121
201909162143,27121,27123,27119,27121
201909162144,27121,27121,27116,27117
201909162145,27116,27121,27113,27120
201909162146,27120,27128,27119,27127
201909162147,27127,27127,27116,27118
201909162148,27118,27120,27116,27119
201909162149,27119,27120,27115,27116
201909162150,27116,27118,27113,27114
201909162151,27114,27117,27114,27115
201909162152,27115,27120,27115,27118
201909162153,27118,27120,27116,27118
201909162154,27118,27122,27117,27118
201909162155,27118,27120,27117,27117
201909162156,27117,27119,27116,27118
201909162157,27118,27119,27111,27112
201909162158,27112,27114,27111,27113
201909162159,27113,27113,27110,27110
201909162200,27111,27115,27110,27113
201909162201,27113,27114,27110,27113
201909162202,27113,27115,27108,27111
201909162203,27111,27111,27107,27108
201909162204,27108,27112,27108,27112
201909162205,27111,27113,27109,27109
201909162206,27109,27110,27106,27108
201909162207,27109,27113,27109,27111
201909162208,27111,27115,27111,27113
201909162209,27113,27115,27110,27110
201909162210,27110,27114,27109,27113
201909162211,27113,27113,27110,27112
201909162212,27112,27112,27106,27107
201909162213,27107,27110,27105,27107
201909162214,27108,27111,27108,27109
201909162215,27109,27114,27107,27111
201909162216,27111,27112,27108,27109
201909162217,27109,27110,27106,27108
201909162218,27108,27109,27102,27102
201909162219,27102,27105,27101,27102
201909162220,27102,27104,27098,27102
201909162221,27101,27103,27099,27102
201909162222,27102,27102,27096,27101
201909162223,27101,27102,27097,27097
201909162224,27097,27103,27096,27101
201909162225,27101,27110,27101,27107
201909162226,27107,27112,27105,27108
201909162227,27108,27111,27106,27107
201909162228,27107,27117,27105,27109
201909162229,27109,27110,27100,27105
201909162230,27109,27124,27105,27113
201909162231,27113,27130,27112,27118
201909162232,27118,27131,27117,27128
201909162233,27128,27173,27125,27163
201909162234,27163,27170,27144,27149
201909162235,27149,27169,27147,27152
201909162236,27152,27155,27116,27126
201909162237,27126,27142,27124,27133
201909162238,27133,27137,27119,27121
201909162239,27121,27130,27115,27121
201909162240,27121,27142,27119,27137
201909162241,27136,27139,27096,27116
201909162242,27117,27127,27113,27122
201909162243,27122,27128,27115,27118
201909162244,27119,27124,27116,27121
201909162245,27121,27123,27099,27101
201909162246,27101,27117,27101,27112
201909162247,27112,27114,27102,27103
201909162248,27102,27113,27100,27113
201909162249,27115,27117,27102,27103
201909162250,27104,27121,27104,27121
201909162251,27121,27140,27121,27140
201909162252,27140,27145,27134,27141
201909162253,27141,27157,27141,27146
201909162254,27146,27148,27139,27146
201909162255,27146,27155,27145,27147
201909162256,27149,27153,27144,27145
201909162257,27145,27156,27144,27154
201909162258,27153,27155,27146,27152
201909162259,27152,27153,27142,27149
201909162300,27150,27150,27133,27133
201909162301,27133,27137,27130,27130
201909162302,27130,27141,27128,27134
201909162303,27134,27139,27126,27133
201909162304,27133,27140,27130,27135
201909162305,27135,27140,27134,27140
201909162306,27140,27145,27130,27130
201909162307,27130,27130,27115,27122
201909162308,27121,27126,27119,27121
201909162309,27121,27123,27117,27119
201909162310,27119,27127,27116,27118
201909162311,27118,27120,27107,27110
201909162312,27110,27115,27106,27113
201909162313,27114,27117,27111,27116
201909162314,27116,27118,27108,27114
201909162315,27112,27125,27107,27125
201909162316,27124,27130,27120,27121
201909162317,27122,27124,27113,27115
201909162318,27115,27122,27114,27117
201909162319,27117,27117,27107,27113
201909162320,27113,27115,27104,27106
201909162321,27106,27116,27104,27113
201909162322,27114,27116,27105,27114
201909162323,27114,27126,27114,27123
201909162324,27122,27125,27119,27120
201909162325,27120,27122,27115,27119
201909162326,27119,27122,27111,27114
201909162327,27114,27116,27103,27104
201909162328,27103,27104,27089,27092
201909162329,27092,27096,27078,27082
201909162330,27082,27087,27077,27081
201909162331,27081,27091,27081,27090
201909162332,27090,27090,27072,27078
201909162333,27079,27090,27077,27089
201909162334,27089,27089,27080,27085
201909162335,27086,27088,27076,27080
201909162336,27080,27084,27076,27084
201909162337,27084,27085,27073,27084
201909162338,27084,27086,27082,27083
201909162339,27083,27091,27082,27086
201909162340,27085,27097,27076,27095
201909162341,27095,27099,27087,27091
201909162342,27091,27096,27086,27093
201909162343,27093,27099,27087,27091
201909162344,27091,27094,27085,27088
201909162345,27088,27095,27088,27092
201909162346,27092,27094,27086,27090
201909162347,27090,27093,27085,27092
201909162348,27093,27095,27088,27092
201909162349,27091,27092,27082,27084
201909162350,27084,27095,27084,27094
201909162351,27094,27099,27088,27088
201909162352,27088,27091,27084,27085
201909162353,27085,27087,27080,27081
201909162354,27081,27081,27062,27068
201909162355,27068,27076,27065,27076
201909162356,27077,27088,27076,27086
201909162357,27086,27087,27077,27083
201909162358,27083,27091,27073,27073
201909162359,27073,27080,27073,27078
201909170000,27079,27088,27078,27083
201909170001,27083,27092,27077,27079
201909170002,27079,27087,27079,27082
201909170003,27082,27084,27077,27084
201909170004,27084,27091,27084,27089
201909170005,27089,27095,27086,27091
201909170006,27091,27095,27090,27093
201909170007,27093,27098,27089,27098
201909170008,27099,27107,27099,27107
201909170009,27107,27123,27107,27118
201909170010,27118,27124,27115,27120
201909170011,27120,27125,27117,27120
201909170012,27120,27124,27116,27116
201909170013,27116,27116,27109,27113
201909170014,27113,27118,27111,27114
201909170015,27114,27121,27109,27113
201909170016,27113,27121,27112,27118
201909170017,27118,27120,27112,27115
201909170018,27114,27116,27109,27113
201909170019,27113,27118,27110,27111
201909170020,27111,27118,27104,27114
201909170021,27112,27119,27111,27114
201909170022,27114,27116,27109,27111
201909170023,27110,27111,27102,27104
201909170024,27105,27111,27103,27110
201909170025,27111,27115,27104,27112
201909170026,27112,27122,27112,27117
201909170027,27117,27129,27117,27129
201909170028,27129,27130,27118,27120
201909170029,27120,27126,27117,27117
201909170030,27117,27120,27109,27114
201909170031,27114,27114,27106,27110
201909170032,27110,27115,27108,27110
201909170033,27110,27110,27093,27100
201909170034,27100,27100,27086,27086
201909170035,27087,27103,27084,27098
201909170036,27098,27101,27093,27098
201909170037,27098,27100,27092,27095
201909170038,27095,27095,27082,27082
201909170039,27082,27093,27082,27090
201909170040,27090,27092,27087,27088
201909170041,27088,27090,27071,27077
201909170042,27077,27087,27077,27084
201909170043,27084,27085,27073,27073
201909170044,27073,27081,27071,27080
201909170045,27080,27083,27065,27068
201909170046,27068,27076,27064,27074
201909170047,27074,27077,27070,27076
201909170048,27076,27077,27070,27072
201909170049,27072,27072,27065,27065
201909170050,27065,27066,27055,27062
201909170051,27061,27068,27060,27067
201909170052,27067,27072,27064,27071
201909170053,27071,27076,27070,27072
201909170054,27072,27075,27068,27073
201909170055,27073,27075,27065,27065
201909170056,27065,27067,27061,27065
201909170057,27065,27068,27064,27064
201909170058,27064,27065,27052,27053
201909170059,27053,27053,27036,27043
201909170100,27043,27055,27040,27051
201909170101,27052,27059,27052,27055
201909170102,27055,27058,27054,27054
201909170103,27054,27061,27053,27061
201909170104,27060,27064,27059,27060
201909170105,27060,27063,27056,27057
201909170106,27057,27060,27054,27055
201909170107,27055,27057,27052,27054
201909170108,27054,27059,27052,27057
201909170109,27057,27063,27056,27062
201909170110,27061,27068,27061,27067
201909170111,27068,27068,27064,27065
201909170112,27065,27067,27063,27063
201909170113,27063,27066,27063,27064
201909170114,27064,27068,27064,27067
201909170115,27067,27069,27065,27065
201909170116,27065,27065,27061,27064
201909170117,27064,27064,27060,27060
201909170118,27060,27064,27060,27061
201909170119,27060,27063,27058,27061
201909170120,27062,27063,27055,27055
201909170121,27055,27058,27055,27058
201909170122,27058,27060,27054,27059
201909170123,27059,27063,27054,27056
201909170124,27056,27063,27055,27062
201909170125,27062,27064,27060,27060
201909170126,27060,27064,27060,27063
201909170127,27062,27065,27062,27064
201909170128,27064,27070,27063,27070
201909170129,27070,27076,27068,27071
201909170130,27071,27079,27071,27077
201909170131,27077,27081,27072,27072
201909170132,27071,27076,27070,27073
201909170133,27074,27080,27074,27080
201909170134,27080,27080,27070,27070
201909170135,27069,27072,27062,27063
201909170136,27063,27065,27059,27060
201909170137,27059,27067,27059,27065
201909170138,27065,27071,27061,27067
201909170139,27068,27073,27062,27073
201909170140,27073,27078,27072,27073
201909170141,27073,27073,27069,27070
201909170142,27070,27070,27060,27062
201909170143,27062,27062,27047,27049
201909170144,27049,27050,27045,27048
201909170145,27049,27054,27047,27050
201909170146,27050,27055,27050,27054
201909170147,27054,27058,27053,27056
201909170148,27056,27064,27055,27063
201909170149,27063,27069,27062,27069
201909170150,27068,27072,27068,27071
201909170151,27072,27073,27068,27071
201909170152,27070,27083,27070,27082
201909170153,27082,27083,27075,27075
201909170154,27074,27079,27073,27073
201909170155,27073,27073,27067,27067
201909170156,27067,27070,27065,27068
201909170157,27069,27074,27068,27071
201909170158,27071,27074,27070,27073
201909170159,27073,27074,27070,27071
201909170200,27071,27071,27063,27068
201909170201,27068,27074,27068,27072
201909170202,27071,27074,27068,27074
201909170203,27074,27075,27073,27075
201909170204,27075,27080,27074,27079
201909170205,27079,27082,27078,27080
201909170206,27080,27082,27076,27080
201909170207,27080,27083,27079,27083
201909170208,27083,27085,27082,27083
201909170209,27082,27086,27082,27086
201909170210,27086,27086,27081,27082
201909170211,27082,27086,27082,27085
201909170212,27086,27086,27083,27084
201909170213,27083,27084,27079,27081
201909170214,27081,27086,27081,27085
201909170215,27084,27088,27082,27087
201909170216,27087,27088,27086,27087
201909170217,27088,27089,27087,27087
201909170218,27087,27091,27087,27088
201909170219,27088,27090,27085,27085
201909170220,27085,27087,27082,27087
201909170221,27087,27090,27087,27090
201909170222,27091,27091,27082,27084
201909170223,27084,27084,27081,27083
201909170224,27083,27086,27082,27085
201909170225,27085,27090,27083,27090
201909170226,27089,27092,27089,27090
201909170227,27090,27091,27087,27090
201909170228,27090,27091,27088,27088
201909170229,27087,27089,27085,27087
201909170230,27088,27096,27088,27095
201909170231,27095,27098,27094,27095
201909170232,27095,27096,27088,27088
201909170233,27088,27088,27085,27086
201909170234,27085,27087,27083,27085
201909170235,27085,27085,27080,27081
201909170236,27081,27090,27081,27088
201909170237,27088,27091,27083,27083
201909170238,27083,27083,27076,27080
201909170239,27080,27088,27080,27084
201909170240,27084,27093,27084,27088
201909170241,27088,27095,27088,27095
201909170242,27094,27094,27089,27093
201909170243,27094,27094,27091,27093
201909170244,27093,27096,27090,27092
201909170245,27092,27093,27088,27088
201909170246,27088,27089,27084,27085
201909170247,27085,27085,27081,27082
201909170248,27082,27088,27082,27086
201909170249,27086,27089,27084,27089
201909170250,27089,27092,27085,27085
201909170251,27085,27085,27081,27081
201909170252,27081,27086,27080,27083
201909170253,27083,27089,27082,27089
201909170254,27089,27098,27088,27091
201909170255,27091,27093,27089,27092
201909170256,27092,27094,27090,27093
201909170257,27093,27094,27091,27092
201909170258,27093,27096,27093,27094
201909170259,27094,27095,27092,27093
201909170300,27094,27104,27094,27103
201909170301,27103,27105,27098,27102
201909170302,27102,27103,27099,27102
201909170303,27102,27102,27097,27097
201909170304,27097,27098,27093,27094
201909170305,27094,27095,27088,27089
201909170306,27090,27090,27085,27086
201909170307,27086,27086,27081,27082
201909170308,27082,27083,27077,27079
201909170309,27079,27082,27077,27077
201909170310,27079,27082,27075,27082
201909170311,27081,27084,27080,27084
201909170312,27084,27086,27078,27081
201909170313,27080,27082,27076,27082
201909170314,27082,27084,27077,27078
201909170315,27078,27081,27076,27079
201909170316,27079,27082,27077,27081
201909170317,27081,27084,27079,27082
201909170318,27082,27087,27081,27084
201909170319,27084,27090,27081,27090
201909170320,27089,27092,27086,27091
201909170321,27091,27092,27087,27090
201909170322,27090,27095,27090,27094
201909170323,27094,27096,27092,27094
201909170324,27094,27096,27093,27095
201909170325,27095,27099,27095,27099
201909170326,27099,27104,27096,27100
201909170327,27100,27100,27097,27097
201909170328,27096,27102,27096,27101
201909170329,27101,27106,27101,27102
201909170330,27101,27102,27088,27091
201909170331,27091,27093,27089,27089
201909170332,27089,27095,27088,27094
201909170333,27094,27103,27092,27102
201909170334,27103,27104,27092,27093
201909170335,27094,27094,27089,27089
201909170336,27089,27093,27088,27093
201909170337,27093,27093,27091,27092
201909170338,27092,27092,27088,27091
201909170339,27090,27091,27088,27090
201909170340,27090,27091,27087,27091
201909170341,27091,27094,27090,27092
201909170342,27092,27095,27092,27094
201909170343,27095,27095,27093,27095
201909170344,27095,27101,27089,27091
201909170345,27091,27097,27088,27089
201909170346,27089,27090,27085,27087
201909170347,27087,27095,27087,27093
201909170348,27093,27098,27093,27098
201909170349,27098,27100,27096,27099
201909170350,27099,27101,27097,27100
201909170351,27100,27102,27095,27095
201909170352,27095,27098,27093,27096
201909170353,27096,27100,27095,27100
201909170354,27100,27100,27096,27099
201909170355,27099,27100,27098,27099
201909170356,27098,27101,27098,27099
201909170357,27099,27100,27097,27098
201909170358,27098,27102,27098,27102
201909170359,27102,27104,27100,27101
201909170400,27101,27108,27099,27108
201909170401,27108,27108,27100,27100
201909170402,27100,27100,27095,27096
201909170403,27096,27096,27092,27094
201909170404,27094,27095,27092,27094
201909170405,27094,27095,27085,27086
201909170406,27086,27090,27084,27084
201909170407,27084,27087,27082,27083
201909170408,27083,27086,27079,27081
201909170409,27080,27084,27079,27084
201909170410,27084,27089,27084,27087
201909170411,27086,27103,27086,27101
201909170412,27101,27110,27101,27108
201909170413,27108,27109,27105,27107
201909170414,27109,27110,27106,27106
201909170415,27106,27108,27104,27108
201909170416,27109,27110,27101,27102
201909170417,27102,27102,27096,27097
201909170418,27097,27102,27096,27098
201909170419,27098,27099,27095,27098
201909170420,27098,27103,27088,27090
201909170421,27090,27090,27083,27084
201909170422,27084,27090,27083,27088
201909170423,27090,27093,27087,27091
201909170424,27092,27092,27087,27088
201909170425,27088,27088,27082,27083
201909170426,27082,27083,27079,27081
201909170427,27081,27092,27078,27081
201909170428,27081,27081,27071,27077
201909170429,27077,27081,27077,27077
201909170430,27077,27077,27069,27074
201909170431,27074,27077,27071,27072
201909170432,27072,27078,27069,27075
201909170433,27075,27082,27071,27078
201909170434,27078,27081,27077,27079
201909170435,27079,27086,27078,27083
201909170436,27083,27084,27080,27081
201909170437,27081,27082,27079,27079
201909170438,27079,27080,27075,27079
201909170439,27079,27079,27070,27079
201909170440,27078,27078,27072,27074
201909170441,27074,27078,27069,27078
201909170442,27078,27081,27074,27076
201909170443,27076,27077,27070,27071
201909170444,27072,27079,27069,27077
201909170445,27077,27084,27077,27080
201909170446,27080,27084,27078,27082
201909170447,27082,27084,27082,27083
201909170448,27082,27087,27080,27080
201909170449,27080,27081,27068,27068
201909170450,27068,27081,27068,27080
201909170451,27079,27080,27069,27069
201909170452,27068,27069,27061,27062
201909170453,27062,27072,27061,27071
201909170454,27071,27077,27068,27074
201909170455,27074,27075,27068,27075
201909170456,27075,27082,27073,27082
201909170457,27082,27086,27076,27086
201909170458,27086,27087,27081,27085
201909170459,27085,27089,27076,27076
201909170500,27075,27081,27073,27080
201909170501,27081,27081,27078,27079
201909170502,27079,27087,27079,27087
201909170503,27087,27099,27087,27096
201909170504,27096,27098,27093,27093
201909170505,27093,27097,27093,27094
201909170506,27094,27094,27092,27094
201909170507,27094,27094,27090,27091
201909170508,27090,27090,27089,27090
201909170509,27090,27090,27084,27086
201909170510,27086,27086,27079,27079
201909170511,27079,27084,27079,27082
201909170512,27083,27083,27078,27079
201909170513,27079,27079,27076,27078
201909170514,27078,27085,27075,27083
