日時,始値(BID),高値(BID),安値(BID),終値(BID)
201909090700,26809,26850,26809,26837
201909090701,26837,26840,26830,26833
201909090702,26833,26833,26827,26829
201909090703,26829,26832,26827,26829
201909090704,26830,26830,26827,26827
201909090705,26827,26828,26822,26823
201909090706,26823,26830,26821,26829
201909090707,26829,26832,26829,26831
201909090708,26831,26837,26831,26835
201909090709,26835,26835,26832,26832
201909090710,26832,26837,26832,26837
201909090711,26838,26842,26837,26841
201909090712,26841,26844,26841,26844
201909090713,26844,26847,26839,26846
201909090714,26845,26847,26845,26846
201909090715,26846,26848,26845,26847
201909090716,26847,26849,26847,26847
201909090717,26847,26852,26847,26851
201909090718,26851,26852,26851,26852
201909090719,26852,26852,26848,26848
201909090720,26848,26850,26841,26842
201909090721,26841,26844,26839,26842
201909090722,26842,26847,26841,26846
201909090723,26846,26848,26846,26848
201909090724,26847,26847,26846,26847
201909090725,26847,26849,26847,26847
201909090726,26846,26847,26843,26844
201909090727,26844,26844,26839,26839
201909090728,26839,26842,26839,26842
201909090729,26841,26843,26841,26843
201909090730,26843,26845,26840,26840
201909090731,26840,26840,26832,26835
201909090732,26835,26837,26831,26832
201909090733,26832,26833,26831,26833
201909090734,26833,26833,26830,26831
201909090735,26831,26831,26829,26829
201909090736,26829,26829,26827,26827
201909090737,26827,26834,26827,26833
201909090738,26833,26836,26832,26835
201909090739,26836,26836,26831,26831
201909090740,26831,26833,26830,26833
201909090741,26833,26833,26832,26832
201909090742,26832,26836,26832,26836
201909090743,26836,26836,26835,26835
201909090744,26835,26835,26832,26832
201909090745,26832,26834,26831,26831
201909090746,26831,26832,26830,26832
201909090747,26832,26833,26832,26832
201909090748,26832,26832,26831,26832
201909090749,26832,26835,26830,26833
201909090750,26833,26833,26829,26832
201909090751,26832,26832,26830,26830
201909090752,26830,26832,26830,26832
201909090753,26832,26832,26830,26831
201909090754,26832,26832,26831,26832
201909090755,26832,26833,26832,26832
201909090756,26832,26833,26832,26833
201909090757,26833,26834,26831,26832
201909090758,26832,26833,26828,26830
201909090759,26829,26829,26827,26827
201909090800,26827,26834,26827,26832
201909090801,26832,26832,26827,26830
201909090802,26830,26830,26828,26829
201909090803,26829,26830,26827,26827
201909090804,26826,26826,26822,26822
201909090805,26822,26826,26821,26824
201909090806,26824,26829,26824,26827
201909090807,26827,26827,26824,26825
201909090808,26825,26825,26818,26819
201909090809,26819,26822,26819,26820
201909090810,26820,26827,26820,26826
201909090811,26826,26827,26823,26827
201909090812,26827,26827,26824,26825
201909090813,26825,26826,26824,26824
201909090814,26824,26825,26824,26825
201909090815,26825,26826,26824,26826
201909090816,26826,26826,26824,26824
201909090817,26824,26828,26823,26827
201909090818,26827,26829,26827,26827
201909090819,26828,26828,26825,26825
201909090820,26825,26826,26825,26826
201909090821,26826,26827,26825,26827
201909090822,26827,26830,26827,26827
201909090823,26827,26827,26826,26826
201909090824,26826,26826,26826,26826
201909090825,26826,26827,26826,26827
201909090826,26827,26827,26826,26827
201909090827,26827,26827,26826,26826
201909090828,26826,26826,26823,26823
201909090829,26823,26825,26823,26824
201909090830,26824,26825,26822,26825
201909090831,26824,26824,26819,26820
201909090832,26820,26820,26814,26815
201909090833,26815,26820,26814,26820
201909090834,26820,26820,26815,26817
201909090835,26817,26818,26816,26816
201909090836,26817,26818,26816,26816
201909090837,26816,26819,26815,26818
201909090838,26818,26820,26817,26818
201909090839,26818,26820,26818,26819
201909090840,26819,26820,26819,26820
201909090841,26819,26824,26819,26822
201909090842,26822,26824,26821,26824
201909090843,26824,26824,26820,26821
201909090844,26821,26822,26819,26821
201909090845,26822,26823,26820,26823
201909090846,26823,26824,26820,26824
201909090847,26823,26824,26821,26823
201909090848,26824,26827,26824,26825
201909090849,26825,26826,26822,26825
201909090850,26825,26826,26822,26823
201909090851,26823,26824,26820,26821
201909090852,26820,26820,26815,26819
201909090853,26819,26820,26816,26817
201909090854,26817,26817,26814,26814
201909090855,26814,26815,26812,26814
201909090856,26814,26817,26814,26816
201909090857,26816,26818,26815,26817
201909090858,26817,26818,26814,26815
201909090859,26816,26817,26813,26814
201909090900,26814,26820,26813,26818
201909090901,26818,26818,26805,26809
201909090902,26809,26811,26807,26808
201909090903,26808,26809,26804,26808
201909090904,26808,26809,26805,26808
201909090905,26809,26816,26809,26809
201909090906,26809,26818,26809,26817
201909090907,26817,26824,26816,26823
201909090908,26824,26830,26823,26829
201909090909,26829,26835,26829,26834
201909090910,26834,26838,26829,26829
201909090911,26829,26832,26829,26832
201909090912,26832,26835,26830,26833
201909090913,26833,26840,26832,26837
201909090914,26837,26842,26836,26840
201909090915,26840,26841,26836,26838
201909090916,26838,26841,26836,26841
201909090917,26841,26843,26840,26840
201909090918,26841,26843,26841,26841
201909090919,26841,26841,26834,26834
201909090920,26835,26841,26834,26838
201909090921,26838,26840,26834,26834
201909090922,26835,26835,26825,26827
201909090923,26827,26833,26827,26832
201909090924,26832,26835,26830,26835
201909090925,26834,26835,26832,26832
201909090926,26832,26835,26832,26835
201909090927,26835,26835,26832,26833
201909090928,26833,26833,26829,26831
201909090929,26831,26831,26827,26828
201909090930,26828,26830,26827,26828
201909090931,26828,26830,26828,26830
201909090932,26830,26834,26828,26833
201909090933,26833,26837,26832,26837
201909090934,26837,26839,26835,26838
201909090935,26838,26841,26835,26835
201909090936,26835,26844,26833,26843
201909090937,26843,26856,26843,26853
201909090938,26853,26865,26852,26865
201909090939,26865,26866,26859,26859
201909090940,26859,26859,26854,26854
201909090941,26854,26857,26852,26856
201909090942,26855,26858,26853,26858
201909090943,26858,26863,26857,26862
201909090944,26862,26862,26859,26861
201909090945,26861,26861,26857,26859
201909090946,26859,26862,26858,26860
201909090947,26860,26860,26858,26859
201909090948,26859,26860,26858,26859
201909090949,26859,26860,26858,26860
201909090950,26859,26859,26853,26854
201909090951,26854,26857,26854,26856
201909090952,26856,26856,26852,26853
201909090953,26852,26854,26851,26851
201909090954,26851,26855,26851,26853
201909090955,26852,26854,26852,26852
201909090956,26852,26854,26852,26852
201909090957,26852,26858,26852,26855
201909090958,26855,26857,26855,26855
201909090959,26855,26857,26854,26854
201909091000,26854,26861,26852,26857
201909091001,26857,26858,26854,26857
201909091002,26857,26857,26854,26855
201909091003,26855,26856,26851,26853
201909091004,26854,26857,26853,26856
201909091005,26855,26856,26851,26852
201909091006,26852,26852,26850,26850
201909091007,26850,26850,26843,26848
201909091008,26848,26851,26848,26851
201909091009,26850,26854,26850,26852
201909091010,26852,26854,26851,26854
201909091011,26853,26858,26853,26855
201909091012,26854,26859,26854,26858
201909091013,26858,26859,26856,26856
201909091014,26856,26857,26855,26855
201909091015,26855,26857,26848,26848
201909091016,26848,26852,26845,26847
201909091017,26847,26852,26844,26852
201909091018,26853,26866,26852,26864
201909091019,26864,26866,26858,26859
201909091020,26859,26865,26858,26860
201909091021,26860,26863,26856,26859
201909091022,26860,26860,26856,26856
201909091023,26856,26860,26856,26859
201909091024,26858,26861,26856,26860
201909091025,26860,26862,26858,26858
201909091026,26858,26858,26855,26855
201909091027,26855,26860,26855,26859
201909091028,26859,26860,26857,26857
201909091029,26857,26870,26857,26864
201909091030,26864,26867,26860,26865
201909091031,26865,26866,26862,26863
201909091032,26863,26870,26863,26870
201909091033,26870,26877,26870,26876
201909091034,26875,26875,26867,26868
201909091035,26868,26869,26862,26864
201909091036,26863,26872,26863,26869
201909091037,26870,26874,26869,26873
201909091038,26873,26874,26869,26870
201909091039,26870,26875,26870,26871
201909091040,26871,26873,26866,26866
201909091041,26866,26868,26863,26865
201909091042,26865,26867,26863,26866
201909091043,26866,26870,26865,26869
201909091044,26869,26870,26868,26868
201909091045,26868,26868,26862,26865
201909091046,26865,26865,26857,26858
201909091047,26858,26860,26845,26846
201909091048,26846,26846,26819,26824
201909091049,26824,26833,26821,26826
201909091050,26826,26838,26826,26835
201909091051,26835,26842,26835,26839
201909091052,26839,26842,26837,26840
201909091053,26840,26841,26836,26839
201909091054,26839,26839,26834,26834
201909091055,26834,26837,26827,26829
201909091056,26829,26830,26821,26829
201909091057,26829,26831,26826,26829
201909091058,26830,26831,26827,26830
201909091059,26830,26831,26826,26827
201909091100,26826,26828,26825,26827
201909091101,26827,26832,26825,26830
201909091102,26830,26830,26824,26825
201909091103,26825,26828,26824,26828
201909091104,26827,26827,26822,26824
201909091105,26824,26839,26824,26839
201909091106,26839,26845,26839,26844
201909091107,26844,26852,26844,26851
201909091108,26851,26852,26846,26849
201909091109,26848,26853,26848,26849
201909091110,26850,26851,26842,26842
201909091111,26842,26845,26842,26843
201909091112,26843,26844,26840,26843
201909091113,26843,26844,26841,26842
201909091114,26841,26844,26841,26844
201909091115,26844,26849,26844,26848
201909091116,26848,26850,26847,26848
201909091117,26848,26849,26844,26844
201909091118,26844,26846,26844,26845
201909091119,26845,26848,26843,26847
201909091120,26847,26851,26846,26850
201909091121,26850,26852,26850,26850
201909091122,26850,26851,26848,26849
201909091123,26849,26857,26848,26855
201909091124,26855,26858,26855,26857
201909091125,26857,26857,26854,26856
201909091126,26856,26857,26854,26856
201909091127,26856,26858,26855,26855
201909091128,26855,26858,26855,26858
201909091129,26859,26860,26858,26859
201909091130,26859,26861,26859,26860
201909091131,26860,26861,26858,26858
201909091132,26858,26858,26853,26855
201909091133,26854,26860,26854,26858
201909091134,26858,26858,26855,26857
201909091135,26856,26860,26856,26856
201909091136,26856,26862,26856,26860
201909091137,26861,26861,26857,26858
201909091138,26858,26860,26857,26859
201909091139,26859,26862,26859,26860
201909091140,26860,26862,26860,26861
201909091141,26861,26862,26859,26862
201909091142,26862,26862,26857,26858
201909091143,26858,26858,26855,26857
201909091144,26857,26861,26857,26858
201909091145,26859,26863,26857,26857
201909091146,26857,26858,26857,26857
201909091147,26857,26857,26851,26854
201909091148,26854,26854,26850,26853
201909091149,26852,26854,26851,26852
201909091150,26852,26852,26847,26847
201909091151,26847,26849,26844,26848
201909091152,26847,26851,26846,26850
201909091153,26850,26851,26848,26851
201909091154,26851,26852,26850,26850
201909091155,26850,26854,26850,26854
201909091156,26854,26856,26853,26856
201909091157,26855,26855,26851,26853
201909091158,26853,26855,26852,26854
201909091159,26854,26854,26850,26851
201909091200,26851,26851,26847,26849
201909091201,26849,26851,26848,26848
201909091202,26848,26849,26845,26847
201909091203,26847,26847,26842,26844
201909091204,26844,26850,26844,26850
201909091205,26851,26851,26847,26847
201909091206,26847,26851,26847,26851
201909091207,26850,26851,26849,26850
201909091208,26850,26850,26849,26849
201909091209,26849,26850,26848,26849
201909091210,26849,26851,26848,26849
201909091211,26849,26851,26848,26851
201909091212,26851,26852,26849,26849
201909091213,26849,26850,26847,26847
201909091214,26847,26849,26847,26847
201909091215,26847,26849,26845,26849
201909091216,26849,26849,26845,26845
201909091217,26845,26848,26845,26847
201909091218,26847,26851,26847,26851
201909091219,26851,26851,26849,26850
201909091220,26850,26851,26849,26850
201909091221,26850,26852,26850,26850
201909091222,26850,26852,26847,26851
201909091223,26851,26854,26851,26854
201909091224,26855,26855,26854,26855
201909091225,26855,26855,26852,26852
201909091226,26852,26852,26851,26852
201909091227,26852,26854,26851,26853
201909091228,26853,26857,26853,26856
201909091229,26856,26856,26854,26854
201909091230,26854,26857,26854,26854
201909091231,26854,26855,26852,26852
201909091232,26852,26852,26851,26852
201909091233,26852,26852,26849,26849
201909091234,26849,26852,26849,26852
201909091235,26851,26854,26851,26854
201909091236,26854,26854,26853,26853
201909091237,26853,26855,26853,26854
201909091238,26854,26854,26852,26852
201909091239,26852,26853,26852,26852
201909091240,26852,26854,26851,26851
201909091241,26852,26852,26850,26850
201909091242,26850,26850,26849,26850
201909091243,26851,26851,26849,26850
201909091244,26850,26850,26848,26850
201909091245,26850,26851,26849,26851
201909091246,26851,26852,26850,26850
201909091247,26850,26850,26848,26850
201909091248,26849,26849,26847,26848
201909091249,26848,26848,26847,26847
201909091250,26847,26848,26847,26847
201909091251,26847,26848,26847,26847
201909091252,26848,26849,26847,26848
201909091253,26848,26848,26847,26848
201909091254,26848,26848,26847,26848
201909091255,26848,26848,26847,26847
201909091256,26847,26847,26846,26846
201909091257,26846,26846,26844,26845
201909091258,26845,26849,26845,26848
201909091259,26848,26851,26848,26850
201909091300,26850,26852,26850,26851
201909091301,26851,26851,26850,26851
201909091302,26850,26853,26850,26853
201909091303,26852,26854,26852,26853
201909091304,26853,26854,26853,26854
201909091305,26854,26857,26853,26857
201909091306,26857,26859,26856,26856
201909091307,26856,26857,26856,26857
201909091308,26857,26858,26856,26857
201909091309,26857,26859,26857,26858
201909091310,26858,26859,26858,26859
201909091311,26860,26860,26858,26858
201909091312,26858,26858,26856,26856
201909091313,26856,26857,26856,26857
201909091314,26857,26858,26857,26858
201909091315,26858,26859,26857,26859
201909091316,26859,26859,26858,26858
201909091317,26858,26858,26857,26858
201909091318,26858,26858,26857,26858
201909091319,26858,26858,26857,26858
201909091320,26858,26858,26857,26858
201909091321,26858,26859,26857,26857
201909091322,26858,26863,26856,26863
201909091323,26863,26867,26862,26866
201909091324,26865,26865,26864,26864
201909091325,26864,26864,26860,26862
201909091326,26862,26863,26862,26862
201909091327,26862,26862,26858,26858
201909091328,26858,26858,26856,26856
201909091329,26856,26856,26852,26853
201909091330,26853,26854,26852,26852
201909091331,26851,26851,26848,26848
201909091332,26848,26849,26848,26848
201909091333,26848,26851,26848,26850
201909091334,26850,26852,26850,26852
201909091335,26852,26854,26852,26854
201909091336,26854,26855,26853,26854
201909091337,26853,26856,26853,26854
201909091338,26855,26855,26853,26855
201909091339,26855,26857,26853,26855
201909091340,26855,26857,26855,26856
201909091341,26856,26856,26854,26854
201909091342,26854,26855,26854,26855
201909091343,26855,26856,26855,26856
201909091344,26855,26855,26853,26853
201909091345,26853,26856,26853,26856
201909091346,26856,26856,26856,26856
201909091347,26857,26857,26855,26856
201909091348,26856,26857,26856,26856
201909091349,26856,26857,26855,26856
201909091350,26856,26856,26855,26856
201909091351,26856,26858,26856,26856
201909091352,26856,26857,26856,26856
201909091353,26857,26860,26856,26860
201909091354,26860,26862,26860,26862
201909091355,26861,26863,26860,26860
201909091356,26860,26861,26860,26860
201909091357,26860,26861,26858,26859
201909091358,26859,26859,26858,26858
201909091359,26858,26860,26857,26859
201909091400,26859,26859,26855,26856
201909091401,26855,26857,26855,26856
201909091402,26856,26858,26856,26856
201909091403,26857,26858,26856,26857
201909091404,26857,26860,26857,26860
201909091405,26860,26862,26859,26861
201909091406,26861,26862,26859,26859
201909091407,26859,26863,26859,26863
201909091408,26863,26864,26861,26863
201909091409,26863,26863,26862,26862
201909091410,26862,26863,26859,26859
201909091411,26859,26861,26859,26860
201909091412,26860,26861,26858,26859
201909091413,26859,26860,26857,26859
201909091414,26859,26859,26857,26858
201909091415,26859,26860,26858,26858
201909091416,26859,26860,26858,26859
201909091417,26859,26860,26859,26859
201909091418,26859,26861,26859,26860
201909091419,26860,26862,26860,26860
201909091420,26860,26864,26860,26862
201909091421,26862,26863,26860,26862
201909091422,26862,26863,26861,26861
201909091423,26861,26862,26860,26861
201909091424,26861,26863,26861,26861
201909091425,26861,26862,26860,26860
201909091426,26860,26862,26860,26860
201909091427,26860,26863,26860,26863
201909091428,26863,26864,26863,26864
201909091429,26864,26865,26863,26865
201909091430,26865,26867,26864,26866
201909091431,26867,26867,26866,26867
201909091432,26866,26868,26866,26866
201909091433,26867,26867,26866,26866
201909091434,26866,26869,26865,26865
201909091435,26866,26867,26865,26867
201909091436,26867,26867,26866,26866
201909091437,26866,26866,26864,26865
201909091438,26865,26866,26865,26866
201909091439,26866,26866,26865,26866
201909091440,26866,26866,26866,26866
201909091441,26866,26866,26863,26865
201909091442,26864,26864,26861,26861
201909091443,26861,26863,26861,26862
201909091444,26863,26863,26861,26861
201909091445,26861,26862,26860,26861
201909091446,26861,26861,26859,26859
201909091447,26859,26859,26854,26854
201909091448,26854,26855,26853,26854
201909091449,26853,26855,26853,26855
201909091450,26855,26855,26850,26850
201909091451,26851,26853,26848,26853
201909091452,26853,26853,26849,26849
201909091453,26849,26851,26849,26850
201909091454,26850,26852,26850,26850
201909091455,26851,26852,26850,26851
201909091456,26851,26854,26851,26851
201909091457,26851,26854,26850,26852
201909091458,26852,26855,26852,26854
201909091459,26854,26858,26854,26857
201909091500,26858,26865,26858,26863
201909091501,26863,26865,26861,26864
201909091502,26865,26865,26859,26859
201909091503,26859,26860,26854,26854
201909091504,26854,26855,26850,26853
201909091505,26853,26856,26850,26854
201909091506,26854,26854,26850,26850
201909091507,26850,26853,26850,26851
201909091508,26851,26853,26850,26850
201909091509,26850,26852,26850,26852
201909091510,26852,26855,26849,26850
201909091511,26850,26850,26844,26845
201909091512,26844,26846,26843,26845
201909091513,26845,26851,26844,26851
201909091514,26851,26852,26849,26851
201909091515,26852,26854,26850,26852
201909091516,26853,26858,26852,26857
201909091517,26857,26858,26854,26858
201909091518,26857,26857,26854,26856
201909091519,26857,26858,26856,26857
201909091520,26857,26857,26851,26851
201909091521,26851,26851,26848,26851
201909091522,26851,26851,26848,26849
201909091523,26848,26849,26844,26848
201909091524,26850,26851,26848,26849
201909091525,26849,26853,26849,26851
201909091526,26851,26851,26850,26851
201909091527,26851,26852,26847,26849
201909091528,26849,26852,26849,26849
201909091529,26849,26852,26849,26852
201909091530,26852,26854,26850,26853
201909091531,26852,26854,26852,26854
201909091532,26854,26856,26853,26855
201909091533,26855,26857,26854,26856
201909091534,26856,26860,26855,26859
201909091535,26859,26861,26858,26860
201909091536,26860,26860,26855,26856
201909091537,26856,26856,26853,26853
201909091538,26853,26855,26853,26855
201909091539,26855,26861,26855,26861
201909091540,26861,26861,26858,26858
201909091541,26858,26860,26858,26858
201909091542,26858,26863,26858,26863
201909091543,26863,26865,26861,26862
201909091544,26862,26864,26860,26861
201909091545,26861,26861,26854,26856
201909091546,26857,26857,26855,26856
201909091547,26856,26862,26856,26862
201909091548,26862,26864,26862,26863
201909091549,26863,26863,26863,26863
201909091550,26863,26866,26862,26862
201909091551,26862,26862,26860,26862
201909091552,26862,26862,26859,26860
201909091553,26860,26864,26860,26861
201909091554,26860,26863,26860,26862
201909091555,26863,26864,26861,26861
201909091556,26861,26861,26859,26859
201909091557,26859,26862,26858,26861
201909091558,26863,26863,26858,26859
201909091559,26859,26869,26858,26865
201909091600,26864,26874,26860,26869
201909091601,26868,26872,26867,26868
201909091602,26867,26872,26865,26871
201909091603,26872,26878,26872,26875
201909091604,26875,26877,26873,26875
201909091605,26875,26877,26863,26863
201909091606,26863,26866,26861,26865
201909091607,26864,26864,26857,26861
201909091608,26861,26863,26860,26861
201909091609,26861,26862,26857,26857
201909091610,26857,26859,26852,26855
201909091611,26855,26858,26853,26855
201909091612,26855,26860,26855,26859
201909091613,26861,26866,26860,26865
201909091614,26865,26868,26863,26866
201909091615,26866,26866,26862,26863
201909091616,26863,26866,26861,26866
201909091617,26866,26867,26860,26860
201909091618,26860,26862,26859,26861
201909091619,26861,26865,26859,26865
201909091620,26865,26866,26864,26865
201909091621,26865,26870,26865,26868
201909091622,26868,26868,26864,26867
201909091623,26867,26867,26862,26863
201909091624,26863,26864,26862,26864
201909091625,26864,26866,26861,26861
201909091626,26861,26862,26860,26861
201909091627,26861,26862,26859,26861
201909091628,26861,26861,26857,26860
201909091629,26860,26860,26857,26859
201909091630,26859,26866,26859,26864
201909091631,26864,26869,26864,26867
201909091632,26867,26868,26865,26867
201909091633,26867,26867,26863,26863
201909091634,26863,26869,26863,26868
201909091635,26868,26869,26865,26866
201909091636,26866,26867,26861,26863
201909091637,26863,26863,26859,26859
201909091638,26859,26863,26859,26862
201909091639,26862,26864,26862,26863
201909091640,26862,26864,26859,26859
201909091641,26859,26860,26857,26858
201909091642,26858,26859,26857,26857
201909091643,26857,26861,26855,26858
201909091644,26859,26859,26856,26859
201909091645,26859,26863,26858,26863
201909091646,26863,26867,26863,26866
201909091647,26865,26867,26863,26863
201909091648,26863,26865,26861,26865
201909091649,26865,26865,26859,26860
201909091650,26860,26861,26859,26861
201909091651,26861,26861,26854,26854
201909091652,26853,26856,26852,26854
201909091653,26853,26853,26848,26851
201909091654,26851,26852,26848,26850
201909091655,26850,26850,26845,26848
201909091656,26849,26852,26847,26850
201909091657,26851,26852,26848,26851
201909091658,26851,26852,26849,26851
201909091659,26851,26854,26850,26854
201909091700,26853,26855,26849,26855
201909091701,26855,26857,26854,26854
201909091702,26854,26856,26851,26853
201909091703,26853,26857,26853,26857
201909091704,26857,26857,26854,26855
201909091705,26855,26855,26850,26853
201909091706,26853,26854,26851,26851
201909091707,26851,26851,26847,26847
201909091708,26847,26847,26843,26845
201909091709,26845,26847,26844,26846
201909091710,26846,26848,26844,26845
201909091711,26845,26849,26845,26847
201909091712,26848,26848,26845,26847
201909091713,26847,26851,26847,26848
201909091714,26848,26850,26846,26848
201909091715,26848,26848,26842,26843
201909091716,26843,26843,26841,26842
201909091717,26842,26844,26841,26841
201909091718,26841,26847,26841,26847
201909091719,26846,26850,26845,26849
201909091720,26849,26850,26846,26849
201909091721,26850,26850,26846,26847
201909091722,26847,26847,26841,26844
201909091723,26845,26849,26845,26847
201909091724,26848,26849,26846,26847
201909091725,26847,26847,26841,26844
201909091726,26844,26844,26843,26843
201909091727,26844,26846,26842,26843
201909091728,26842,26843,26839,26839
201909091729,26839,26843,26838,26841
201909091730,26841,26842,26841,26842
201909091731,26842,26842,26841,26841
201909091732,26841,26843,26841,26841
201909091733,26841,26846,26841,26842
201909091734,26842,26844,26840,26841
201909091735,26841,26843,26839,26840
201909091736,26840,26844,26839,26842
201909091737,26842,26846,26839,26845
201909091738,26845,26846,26844,26845
201909091739,26845,26845,26842,26842
201909091740,26843,26843,26841,26842
201909091741,26841,26845,26841,26844
201909091742,26844,26846,26843,26843
201909091743,26843,26844,26840,26840
201909091744,26841,26842,26840,26842
201909091745,26842,26843,26841,26841
201909091746,26842,26842,26841,26841
201909091747,26841,26842,26841,26841
201909091748,26842,26846,26842,26845
201909091749,26846,26846,26845,26845
201909091750,26845,26848,26845,26846
201909091751,26846,26848,26846,26846
201909091752,26846,26849,26846,26847
201909091753,26847,26849,26846,26847
201909091754,26847,26849,26847,26848
201909091755,26848,26848,26843,26846
201909091756,26846,26849,26845,26846
201909091757,26846,26851,26846,26850
201909091758,26851,26856,26851,26853
201909091759,26853,26855,26852,26853
201909091800,26852,26855,26851,26851
201909091801,26851,26851,26850,26851
201909091802,26850,26850,26848,26849
201909091803,26849,26849,26846,26847
201909091804,26847,26851,26846,26851
201909091805,26851,26851,26850,26851
201909091806,26851,26851,26851,26851
201909091807,26851,26853,26850,26852
201909091808,26853,26853,26850,26851
201909091809,26852,26853,26851,26852
201909091810,26852,26854,26851,26853
201909091811,26853,26854,26851,26852
201909091812,26852,26852,26850,26850
201909091813,26850,26852,26850,26851
201909091814,26851,26854,26850,26850
201909091815,26850,26856,26850,26852
201909091816,26852,26852,26849,26851
201909091817,26851,26854,26851,26853
201909091818,26853,26856,26853,26854
201909091819,26854,26856,26854,26856
201909091820,26856,26857,26853,26854
201909091821,26854,26857,26854,26856
201909091822,26857,26857,26854,26854
201909091823,26854,26854,26851,26852
201909091824,26852,26854,26852,26854
201909091825,26853,26853,26851,26852
201909091826,26852,26852,26851,26852
201909091827,26852,26853,26851,26853
201909091828,26853,26854,26851,26851
201909091829,26851,26854,26850,26851
201909091830,26852,26853,26852,26853
201909091831,26853,26853,26851,26852
201909091832,26852,26854,26851,26854
201909091833,26854,26856,26852,26854
201909091834,26854,26854,26850,26852
201909091835,26852,26858,26851,26854
201909091836,26854,26854,26850,26851
201909091837,26851,26853,26849,26850
201909091838,26850,26856,26850,26852
201909091839,26852,26853,26851,26851
201909091840,26851,26854,26851,26851
201909091841,26852,26853,26850,26850
201909091842,26850,26850,26847,26849
201909091843,26849,26854,26849,26853
201909091844,26852,26855,26852,26853
201909091845,26853,26855,26853,26854
201909091846,26854,26856,26853,26855
201909091847,26855,26863,26855,26863
201909091848,26863,26864,26860,26860
201909091849,26860,26863,26860,26863
201909091850,26863,26866,26862,26866
201909091851,26866,26868,26865,26865
201909091852,26865,26866,26864,26866
201909091853,26866,26871,26866,26871
201909091854,26872,26873,26870,26870
201909091855,26870,26871,26868,26868
201909091856,26868,26873,26868,26871
201909091857,26871,26873,26871,26871
201909091858,26871,26871,26869,26869
201909091859,26868,26869,26867,26868
201909091900,26868,26869,26866,26869
201909091901,26869,26871,26868,26870
201909091902,26870,26873,26870,26873
201909091903,26873,26873,26870,26870
201909091904,26870,26872,26870,26871
201909091905,26871,26872,26871,26872
201909091906,26872,26873,26872,26872
201909091907,26871,26875,26871,26875
201909091908,26874,26874,26872,26873
201909091909,26873,26874,26872,26874
201909091910,26875,26875,26874,26874
201909091911,26874,26875,26873,26873
201909091912,26873,26874,26873,26873
201909091913,26873,26875,26873,26874
201909091914,26874,26875,26871,26872
201909091915,26872,26873,26870,26871
201909091916,26871,26873,26871,26872
201909091917,26872,26872,26870,26870
201909091918,26870,26872,26870,26872
201909091919,26872,26873,26872,26873
201909091920,26872,26873,26872,26873
201909091921,26873,26873,26871,26872
201909091922,26872,26872,26870,26872
201909091923,26873,26874,26872,26874
201909091924,26875,26875,26873,26874
201909091925,26874,26874,26873,26874
201909091926,26874,26874,26873,26873
201909091927,26873,26873,26872,26873
201909091928,26873,26873,26871,26871
201909091929,26871,26873,26870,26872
201909091930,26872,26872,26867,26867
201909091931,26868,26868,26866,26867
201909091932,26866,26868,26864,26864
201909091933,26864,26866,26864,26865
201909091934,26866,26866,26860,26863
201909091935,26863,26865,26862,26865
201909091936,26865,26865,26862,26863
201909091937,26863,26864,26862,26863
201909091938,26863,26863,26859,26863
201909091939,26863,26864,26862,26862
201909091940,26863,26863,26861,26862
201909091941,26861,26862,26859,26860
201909091942,26860,26862,26859,26862
201909091943,26862,26864,26861,26862
201909091944,26862,26863,26861,26863
201909091945,26863,26863,26861,26861
201909091946,26862,26863,26860,26861
201909091947,26861,26861,26856,26860
201909091948,26860,26861,26858,26859
201909091949,26860,26865,26859,26864
201909091950,26864,26869,26863,26864
201909091951,26865,26865,26862,26862
201909091952,26862,26862,26859,26860
201909091953,26860,26861,26858,26861
201909091954,26862,26863,26861,26862
201909091955,26862,26864,26862,26864
201909091956,26864,26864,26859,26859
201909091957,26859,26860,26859,26859
201909091958,26859,26860,26859,26860
201909091959,26859,26860,26858,26859
201909092000,26859,26862,26858,26859
201909092001,26859,26861,26858,26860
201909092002,26860,26862,26859,26862
201909092003,26862,26862,26860,26862
201909092004,26861,26861,26858,26860
201909092005,26860,26860,26852,26856
201909092006,26856,26857,26854,26856
201909092007,26856,26857,26855,26856
201909092008,26857,26858,26856,26858
201909092009,26858,26858,26855,26856
201909092010,26856,26856,26853,26855
201909092011,26855,26856,26854,26855
201909092012,26855,26856,26854,26856
201909092013,26856,26856,26855,26856
201909092014,26855,26858,26855,26858
201909092015,26858,26859,26857,26859
201909092016,26859,26862,26857,26861
201909092017,26862,26862,26860,26860
201909092018,26860,26862,26860,26862
201909092019,26862,26866,26862,26865
201909092020,26865,26867,26863,26865
201909092021,26866,26867,26865,26866
201909092022,26866,26866,26865,26866
201909092023,26866,26867,26863,26863
201909092024,26863,26864,26861,26863
201909092025,26862,26862,26861,26861
201909092026,26862,26862,26860,26860
201909092027,26860,26863,26859,26863
201909092028,26863,26863,26862,26862
201909092029,26862,26865,26861,26863
201909092030,26863,26863,26861,26862
201909092031,26862,26863,26861,26861
201909092032,26862,26864,26856,26864
201909092033,26864,26865,26863,26864
201909092034,26864,26864,26860,26860
201909092035,26860,26863,26859,26861
201909092036,26861,26864,26860,26864
201909092037,26863,26865,26863,26863
201909092038,26863,26864,26863,26863
201909092039,26863,26863,26860,26861
201909092040,26860,26862,26859,26861
201909092041,26861,26861,26860,26861
201909092042,26861,26866,26860,26863
201909092043,26863,26863,26861,26863
201909092044,26863,26864,26861,26861
201909092045,26861,26862,26860,26860
201909092046,26860,26862,26856,26857
201909092047,26857,26859,26856,26857
201909092048,26857,26858,26855,26857
201909092049,26857,26858,26855,26856
201909092050,26856,26857,26854,26855
201909092051,26855,26857,26855,26856
201909092052,26856,26856,26854,26854
201909092053,26854,26857,26853,26856
201909092054,26856,26856,26855,26855
201909092055,26855,26857,26855,26856
201909092056,26856,26859,26856,26859
201909092057,26858,26858,26857,26858
201909092058,26858,26859,26857,26858
201909092059,26857,26858,26857,26858
201909092100,26858,26859,26856,26858
201909092101,26857,26858,26856,26857
201909092102,26857,26858,26856,26857
201909092103,26857,26858,26856,26858
201909092104,26859,26860,26858,26859
201909092105,26859,26859,26857,26858
201909092106,26858,26861,26857,26859
201909092107,26859,26860,26854,26854
201909092108,26854,26856,26854,26856
201909092109,26855,26856,26855,26855
201909092110,26855,26855,26854,26854
201909092111,26854,26856,26854,26856
201909092112,26855,26859,26855,26859
201909092113,26859,26860,26858,26859
201909092114,26859,26862,26859,26859
201909092115,26859,26860,26858,26859
201909092116,26860,26862,26859,26861
201909092117,26861,26862,26859,26859
201909092118,26859,26863,26859,26862
201909092119,26862,26864,26862,26863
201909092120,26863,26864,26862,26863
201909092121,26863,26865,26861,26862
201909092122,26862,26869,26862,26866
201909092123,26866,26868,26865,26866
201909092124,26866,26868,26865,26867
201909092125,26867,26868,26865,26867
201909092126,26867,26868,26865,26867
201909092127,26867,26870,26865,26868
201909092128,26869,26870,26867,26868
201909092129,26868,26871,26868,26868
201909092130,26868,26868,26864,26866
201909092131,26866,26866,26864,26864
201909092132,26864,26865,26864,26865
201909092133,26865,26866,26864,26864
201909092134,26864,26864,26861,26863
201909092135,26863,26866,26861,26864
201909092136,26864,26864,26861,26863
201909092137,26862,26864,26862,26863
201909092138,26863,26867,26862,26867
201909092139,26867,26867,26865,26865
201909092140,26866,26866,26865,26866
201909092141,26867,26867,26865,26866
201909092142,26866,26867,26864,26866
201909092143,26866,26869,26865,26869
201909092144,26869,26869,26868,26869
201909092145,26870,26870,26868,26868
201909092146,26868,26869,26865,26865
201909092147,26865,26867,26865,26867
201909092148,26867,26868,26866,26868
201909092149,26868,26869,26868,26869
201909092150,26869,26870,26868,26869
201909092151,26869,26869,26868,26868
201909092152,26869,26870,26868,26870
201909092153,26870,26870,26869,26870
201909092154,26870,26872,26870,26872
201909092155,26871,26872,26870,26872
201909092156,26872,26872,26869,26870
201909092157,26870,26871,26869,26870
201909092158,26870,26870,26869,26869
201909092159,26870,26870,26867,26868
201909092200,26868,26869,26866,26867
201909092201,26867,26869,26867,26868
201909092202,26868,26870,26867,26870
201909092203,26871,26871,26868,26868
201909092204,26868,26870,26868,26868
201909092205,26868,26870,26863,26869
201909092206,26869,26869,26867,26867
201909092207,26867,26869,26867,26867
201909092208,26867,26872,26867,26872
201909092209,26871,26876,26871,26876
201909092210,26876,26877,26870,26871
201909092211,26870,26873,26870,26873
201909092212,26872,26872,26870,26871
201909092213,26870,26871,26866,26868
201909092214,26868,26870,26868,26870
201909092215,26871,26871,26870,26870
201909092216,26870,26871,26868,26870
201909092217,26870,26873,26869,26873
201909092218,26874,26875,26873,26874
201909092219,26874,26874,26869,26869
201909092220,26869,26871,26869,26870
201909092221,26871,26872,26869,26869
201909092222,26869,26869,26864,26864
201909092223,26866,26866,26865,26866
201909092224,26866,26866,26860,26863
201909092225,26862,26862,26856,26861
201909092226,26861,26863,26860,26860
201909092227,26860,26860,26856,26858
201909092228,26858,26858,26852,26854
201909092229,26854,26856,26852,26854
201909092230,26854,26861,26833,26834
201909092231,26833,26837,26822,26825
201909092232,26825,26840,26823,26825
201909092233,26826,26830,26813,26828
201909092234,26828,26830,26815,26828
201909092235,26828,26828,26809,26827
201909092236,26827,26831,26817,26828
201909092237,26828,26832,26822,26828
201909092238,26828,26839,26827,26837
201909092239,26837,26842,26835,26836
201909092240,26836,26838,26832,26834
201909092241,26835,26842,26834,26842
201909092242,26842,26843,26837,26842
201909092243,26842,26842,26838,26838
201909092244,26839,26841,26833,26837
201909092245,26837,26840,26826,26833
201909092246,26833,26835,26829,26834
201909092247,26834,26834,26825,26827
201909092248,26827,26830,26822,26828
201909092249,26827,26831,26826,26830
201909092250,26830,26840,26828,26836
201909092251,26837,26839,26832,26832
201909092252,26832,26832,26830,26830
201909092253,26830,26834,26828,26833
201909092254,26833,26833,26827,26833
201909092255,26833,26836,26827,26827
201909092256,26827,26829,26820,26827
201909092257,26827,26832,26824,26825
201909092258,26825,26827,26822,26823
201909092259,26823,26834,26823,26834
201909092300,26833,26843,26833,26842
201909092301,26842,26844,26838,26840
201909092302,26841,26845,26839,26845
201909092303,26845,26859,26845,26852
201909092304,26852,26861,26852,26860
201909092305,26860,26866,26858,26866
201909092306,26867,26871,26862,26863
201909092307,26863,26870,26862,26866
201909092308,26867,26874,26867,26873
201909092309,26873,26875,26870,26871
201909092310,26871,26877,26870,26871
201909092311,26871,26871,26868,26871
201909092312,26871,26887,26870,26883
201909092313,26882,26892,26882,26885
201909092314,26885,26889,26873,26874
201909092315,26874,26880,26873,26878
201909092316,26878,26888,26875,26884
201909092317,26883,26885,26882,26885
201909092318,26885,26893,26885,26889
201909092319,26890,26894,26889,26892
201909092320,26892,26896,26889,26890
201909092321,26890,26892,26879,26879
201909092322,26879,26886,26878,26884
201909092323,26883,26884,26878,26884
201909092324,26885,26908,26882,26903
201909092325,26903,26905,26897,26903
201909092326,26903,26904,26891,26897
201909092327,26897,26899,26887,26887
201909092328,26887,26893,26887,26892
201909092329,26892,26894,26888,26892
201909092330,26894,26898,26890,26891
201909092331,26891,26896,26891,26892
201909092332,26892,26894,26891,26893
201909092333,26893,26896,26889,26896
201909092334,26896,26907,26894,26904
201909092335,26904,26904,26896,26898
201909092336,26899,26901,26896,26898
201909092337,26898,26899,26896,26897
201909092338,26897,26899,26897,26899
201909092339,26899,26901,26891,26894
201909092340,26894,26894,26888,26888
201909092341,26888,26897,26888,26895
201909092342,26895,26895,26888,26891
201909092343,26891,26899,26890,26895
201909092344,26895,26897,26893,26895
201909092345,26895,26898,26891,26893
201909092346,26893,26894,26888,26892
201909092347,26892,26901,26891,26895
201909092348,26894,26898,26890,26890
201909092349,26890,26896,26890,26895
201909092350,26895,26904,26894,26896
201909092351,26897,26906,26897,26903
201909092352,26903,26911,26900,26900
201909092353,26900,26903,26898,26902
201909092354,26902,26903,26898,26898
201909092355,26898,26901,26896,26901
201909092356,26901,26902,26898,26898
201909092357,26899,26902,26897,26902
201909092358,26902,26906,26899,26905
201909092359,26905,26908,26903,26905
201909100000,26906,26910,26906,26908
201909100001,26908,26911,26905,26905
201909100002,26905,26906,26901,26901
201909100003,26902,26902,26891,26891
201909100004,26891,26896,26889,26894
201909100005,26894,26900,26892,26899
201909100006,26899,26903,26898,26899
201909100007,26899,26899,26890,26891
201909100008,26891,26893,26888,26889
201909100009,26890,26896,26889,26894
201909100010,26894,26900,26892,26897
201909100011,26897,26898,26894,26895
201909100012,26896,26902,26895,26897
201909100013,26898,26907,26898,26904
201909100014,26904,26904,26890,26891
201909100015,26891,26892,26886,26888
201909100016,26887,26890,26887,26889
201909100017,26889,26889,26884,26885
201909100018,26885,26886,26882,26882
201909100019,26882,26886,26881,26882
201909100020,26882,26889,26882,26888
201909100021,26888,26892,26887,26890
201909100022,26890,26891,26885,26887
201909100023,26887,26887,26881,26883
201909100024,26884,26892,26884,26888
201909100025,26888,26892,26887,26890
201909100026,26890,26891,26890,26890
201909100027,26890,26894,26890,26893
201909100028,26893,26893,26890,26892
201909100029,26892,26894,26888,26891
201909100030,26889,26889,26887,26887
201909100031,26887,26891,26886,26891
201909100032,26890,26890,26887,26890
201909100033,26890,26892,26888,26891
201909100034,26891,26891,26888,26889
201909100035,26890,26892,26890,26891
201909100036,26891,26893,26890,26891
201909100037,26891,26892,26886,26886
201909100038,26886,26888,26883,26886
201909100039,26886,26886,26880,26880
201909100040,26880,26882,26878,26882
201909100041,26883,26884,26879,26881
201909100042,26880,26881,26875,26877
201909100043,26877,26877,26873,26874
201909100044,26875,26878,26873,26877
201909100045,26877,26877,26875,26876
201909100046,26876,26878,26874,26878
201909100047,26879,26880,26876,26876
201909100048,26876,26879,26875,26879
201909100049,26878,26880,26876,26880
201909100050,26880,26882,26879,26881
201909100051,26880,26880,26876,26879
201909100052,26879,26879,26876,26876
201909100053,26876,26877,26873,26877
201909100054,26878,26878,26874,26875
201909100055,26875,26876,26874,26874
201909100056,26874,26877,26873,26875
201909100057,26876,26878,26874,26876
201909100058,26876,26880,26875,26877
201909100059,26877,26878,26874,26876
201909100100,26876,26880,26876,26877
201909100101,26876,26878,26874,26876
201909100102,26875,26876,26867,26867
201909100103,26867,26867,26862,26863
201909100104,26863,26864,26862,26863
201909100105,26864,26868,26864,26865
201909100106,26865,26865,26862,26862
201909100107,26862,26862,26856,26856
201909100108,26856,26859,26854,26855
201909100109,26855,26859,26855,26858
201909100110,26858,26863,26856,26861
201909100111,26861,26863,26856,26856
201909100112,26856,26861,26853,26861
201909100113,26861,26861,26848,26848
201909100114,26849,26855,26847,26853
201909100115,26852,26855,26847,26847
201909100116,26848,26851,26845,26850
201909100117,26850,26852,26846,26848
201909100118,26848,26849,26841,26842
201909100119,26841,26841,26836,26838
201909100120,26839,26841,26834,26839
201909100121,26838,26841,26836,26836
201909100122,26836,26837,26832,26835
201909100123,26834,26836,26833,26835
201909100124,26835,26835,26831,26834
201909100125,26834,26836,26828,26831
201909100126,26831,26831,26822,26826
201909100127,26826,26828,26818,26818
201909100128,26818,26822,26816,26822
201909100129,26822,26824,26816,26822
201909100130,26822,26822,26814,26816
201909100131,26816,26816,26801,26804
201909100132,26804,26808,26803,26808
201909100133,26808,26814,26805,26814
201909100134,26813,26815,26810,26815
201909100135,26816,26816,26803,26803
201909100136,26803,26803,26777,26786
201909100137,26787,26796,26784,26792
201909100138,26792,26792,26782,26787
201909100139,26787,26793,26785,26793
201909100140,26794,26804,26794,26801
201909100141,26802,26805,26800,26802
201909100142,26802,26802,26794,26801
201909100143,26801,26804,26798,26804
201909100144,26806,26807,26804,26807
201909100145,26807,26814,26805,26810
201909100146,26810,26813,26808,26808
201909100147,26808,26814,26808,26812
201909100148,26813,26814,26808,26809
201909100149,26809,26810,26799,26800
201909100150,26800,26812,26798,26807
201909100151,26807,26807,26798,26799
201909100152,26798,26809,26794,26809
201909100153,26809,26824,26809,26823
201909100154,26823,26823,26818,26821
201909100155,26821,26826,26821,26825
201909100156,26825,26826,26824,26824
201909100157,26824,26824,26822,26824
201909100158,26824,26835,26824,26830
201909100159,26830,26836,26830,26834
201909100200,26834,26835,26828,26829
201909100201,26829,26831,26828,26830
201909100202,26831,26833,26829,26829
201909100203,26830,26834,26828,26833
201909100204,26833,26837,26830,26832
201909100205,26832,26833,26825,26825
201909100206,26825,26832,26822,26832
201909100207,26832,26833,26828,26828
201909100208,26827,26833,26827,26830
201909100209,26830,26832,26829,26832
201909100210,26832,26833,26830,26831
201909100211,26830,26830,26825,26827
201909100212,26827,26828,26824,26824
201909100213,26824,26824,26818,26819
201909100214,26819,26821,26817,26819
201909100215,26819,26823,26818,26820
201909100216,26820,26824,26820,26820
201909100217,26820,26823,26816,26817
201909100218,26817,26822,26816,26822
201909100219,26822,26823,26817,26817
201909100220,26816,26820,26812,26813
201909100221,26814,26817,26812,26812
201909100222,26811,26813,26806,26807
201909100223,26807,26807,26804,26804
201909100224,26804,26806,26802,26802
201909100225,26803,26808,26802,26806
201909100226,26806,26806,26803,26806
201909100227,26806,26807,26803,26803
201909100228,26803,26803,26797,26797
201909100229,26797,26799,26795,26797
201909100230,26797,26803,26794,26799
201909100231,26800,26800,26793,26794
201909100232,26793,26793,26779,26779
201909100233,26779,26783,26774,26779
201909100234,26779,26786,26778,26785
201909100235,26785,26785,26773,26773
201909100236,26773,26784,26772,26784
201909100237,26784,26787,26781,26781
201909100238,26782,26787,26782,26786
201909100239,26787,26794,26786,26793
201909100240,26793,26800,26793,26793
201909100241,26793,26794,26786,26788
201909100242,26788,26799,26788,26799
201909100243,26799,26799,26796,26799
201909100244,26799,26800,26796,26796
201909100245,26796,26801,26794,26798
201909100246,26798,26810,26798,26806
201909100247,26806,26809,26803,26808
201909100248,26809,26819,26809,26819
201909100249,26819,26820,26815,26816
201909100250,26816,26820,26815,26820
201909100251,26820,26828,26820,26825
201909100252,26825,26831,26824,26828
201909100253,26828,26829,26826,26829
201909100254,26829,26831,26826,26826
201909100255,26827,26828,26826,26827
201909100256,26827,26829,26826,26826
201909100257,26825,26825,26820,26820
201909100258,26820,26822,26819,26822
201909100259,26822,26823,26821,26822
201909100300,26822,26824,26820,26824
201909100301,26823,26824,26821,26822
201909100302,26821,26832,26820,26828
201909100303,26828,26830,26828,26829
201909100304,26830,26830,26828,26830
201909100305,26830,26830,26828,26829
201909100306,26829,26829,26827,26827
201909100307,26828,26828,26825,26825
201909100308,26826,26826,26818,26822
201909100309,26822,26822,26817,26819
201909100310,26819,26819,26813,26814
201909100311,26813,26818,26811,26812
201909100312,26812,26813,26810,26812
201909100313,26813,26820,26813,26820
201909100314,26820,26821,26819,26820
201909100315,26820,26821,26812,26815
201909100316,26815,26826,26814,26825
201909100317,26825,26828,26823,26825
201909100318,26824,26825,26823,26824
201909100319,26824,26824,26818,26818
201909100320,26818,26818,26809,26815
201909100321,26815,26821,26813,26816
201909100322,26816,26817,26812,26815
201909100323,26815,26817,26812,26813
201909100324,26813,26816,26812,26812
201909100325,26813,26814,26811,26812
201909100326,26813,26814,26809,26809
201909100327,26809,26812,26808,26808
201909100328,26808,26810,26807,26810
201909100329,26810,26813,26808,26812
201909100330,26813,26813,26805,26807
201909100331,26807,26819,26806,26819
201909100332,26819,26828,26819,26828
201909100333,26828,26828,26824,26827
201909100334,26827,26833,26827,26830
201909100335,26830,26830,26824,26825
201909100336,26826,26826,26818,26822
201909100337,26821,26821,26816,26818
201909100338,26818,26823,26817,26822
201909100339,26822,26830,26819,26825
201909100340,26825,26830,26822,26826
201909100341,26826,26827,26821,26823
201909100342,26823,26824,26818,26821
201909100343,26821,26828,26821,26827
201909100344,26827,26832,26824,26825
201909100345,26825,26830,26824,26827
201909100346,26828,26830,26827,26830
201909100347,26830,26830,26825,26829
201909100348,26829,26830,26828,26828
201909100349,26828,26829,26826,26826
201909100350,26827,26828,26820,26821
201909100351,26821,26823,26819,26821
201909100352,26821,26821,26818,26820
201909100353,26820,26824,26819,26819
201909100354,26818,26819,26814,26815
201909100355,26815,26824,26815,26824
201909100356,26823,26828,26823,26825
201909100357,26824,26825,26822,26822
201909100358,26822,26824,26820,26821
201909100359,26821,26821,26819,26820
201909100400,26819,26819,26811,26818
201909100401,26818,26828,26818,26826
201909100402,26826,26829,26826,26826
201909100403,26826,26841,26826,26834
201909100404,26835,26839,26833,26838
201909100405,26838,26838,26831,26831
201909100406,26830,26832,26827,26832
201909100407,26831,26833,26828,26829
201909100408,26829,26831,26827,26831
201909100409,26831,26833,26829,26829
201909100410,26829,26835,26827,26833
201909100411,26833,26837,26832,26837
201909100412,26837,26851,26837,26850
201909100413,26849,26852,26846,26847
201909100414,26847,26849,26846,26849
201909100415,26849,26850,26844,26847
201909100416,26847,26848,26845,26847
201909100417,26846,26850,26846,26849
201909100418,26849,26849,26844,26846
201909100419,26846,26852,26844,26852
201909100420,26852,26853,26849,26849
201909100421,26849,26852,26848,26851
201909100422,26851,26852,26848,26849
201909100423,26849,26851,26846,26850
201909100424,26850,26851,26848,26849
201909100425,26848,26851,26843,26846
201909100426,26846,26847,26844,26844
201909100427,26844,26849,26844,26848
201909100428,26847,26849,26847,26848
201909100429,26848,26849,26844,26847
201909100430,26847,26849,26844,26844
201909100431,26845,26845,26839,26839
201909100432,26839,26846,26838,26838
201909100433,26839,26841,26837,26838
201909100434,26838,26841,26838,26838
201909100435,26838,26839,26830,26830
201909100436,26830,26833,26827,26831
201909100437,26830,26832,26826,26831
201909100438,26831,26839,26831,26838
201909100439,26837,26845,26834,26844
201909100440,26844,26845,26839,26839
201909100441,26838,26841,26836,26837
201909100442,26838,26843,26838,26840
201909100443,26840,26843,26839,26840
201909100444,26840,26842,26838,26838
201909100445,26838,26838,26833,26836
201909100446,26837,26845,26835,26845
201909100447,26845,26851,26842,26847
201909100448,26848,26851,26844,26844
201909100449,26844,26846,26840,26842
201909100450,26842,26847,26838,26844
201909100451,26844,26845,26843,26845
201909100452,26846,26848,26843,26843
201909100453,26842,26848,26842,26847
201909100454,26849,26855,26846,26848
201909100455,26848,26848,26833,26847
201909100456,26847,26848,26840,26848
201909100457,26847,26853,26846,26852
201909100458,26852,26855,26846,26847
201909100459,26847,26856,26841,26849
201909100500,26847,26854,26838,26840
201909100501,26839,26848,26838,26847
201909100502,26847,26847,26841,26844
201909100503,26844,26847,26842,26846
201909100504,26846,26847,26840,26842
201909100505,26842,26844,26841,26841
201909100506,26841,26844,26840,26842
201909100507,26842,26845,26840,26844
201909100508,26844,26847,26844,26845
201909100509,26845,26848,26845,26847
201909100510,26848,26852,26848,26852
201909100511,26851,26851,26845,26845
201909100512,26845,26847,26843,26847
201909100513,26847,26848,26847,26848
201909100514,26848,26848,26836,26843
