日時,始値(BID),高値(BID),安値(BID),終値(BID)
201909100700,26852,26859,26851,26857
201909100701,26857,26860,26856,26856
201909100702,26856,26857,26849,26852
201909100703,26853,26855,26852,26853
201909100704,26853,26854,26852,26852
201909100705,26853,26853,26852,26852
201909100706,26851,26854,26851,26853
201909100707,26853,26855,26853,26855
201909100708,26855,26857,26854,26856
201909100709,26856,26858,26855,26856
201909100710,26857,26857,26856,26856
201909100711,26856,26856,26856,26856
201909100712,26856,26856,26854,26855
201909100713,26855,26856,26855,26856
201909100714,26856,26857,26856,26857
201909100715,26857,26859,26857,26859
201909100716,26859,26860,26858,26859
201909100717,26859,26862,26859,26861
201909100718,26861,26861,26861,26861
201909100719,26861,26861,26859,26860
201909100720,26860,26862,26859,26862
201909100721,26862,26865,26862,26863
201909100722,26863,26863,26862,26862
201909100723,26862,26862,26862,26862
201909100724,26862,26863,26860,26863
201909100725,26862,26863,26862,26862
201909100726,26862,26863,26861,26861
201909100727,26861,26863,26861,26862
201909100728,26862,26863,26862,26862
201909100729,26862,26864,26862,26864
201909100730,26864,26865,26863,26865
201909100731,26865,26867,26864,26866
201909100732,26866,26867,26866,26867
201909100733,26867,26867,26866,26867
201909100734,26867,26867,26866,26867
201909100735,26867,26868,26867,26868
201909100736,26869,26869,26867,26869
201909100737,26869,26870,26869,26869
201909100738,26869,26869,26869,26869
201909100739,26869,26869,26868,26868
201909100740,26868,26869,26867,26868
201909100741,26868,26871,26866,26871
201909100742,26872,26874,26872,26873
201909100743,26873,26873,26870,26873
201909100744,26873,26874,26872,26873
201909100745,26873,26873,26871,26872
201909100746,26871,26875,26871,26873
201909100747,26873,26875,26873,26875
201909100748,26875,26876,26874,26874
201909100749,26874,26874,26870,26871
201909100750,26870,26874,26870,26873
201909100751,26873,26873,26871,26871
201909100752,26871,26871,26870,26870
201909100753,26870,26871,26870,26870
201909100754,26870,26871,26869,26870
201909100755,26870,26872,26870,26871
201909100756,26871,26872,26870,26872
201909100757,26872,26872,26870,26870
201909100758,26870,26871,26870,26871
201909100759,26871,26873,26870,26871
201909100800,26872,26880,26872,26879
201909100801,26879,26881,26877,26879
201909100802,26879,26881,26874,26880
201909100803,26880,26880,26876,26878
201909100804,26878,26878,26876,26878
201909100805,26879,26880,26878,26880
201909100806,26880,26880,26877,26877
201909100807,26877,26879,26877,26879
201909100808,26879,26880,26879,26879
201909100809,26878,26880,26878,26879
201909100810,26879,26879,26877,26878
201909100811,26878,26879,26878,26878
201909100812,26878,26878,26878,26878
201909100813,26878,26879,26878,26879
201909100814,26879,26879,26877,26877
201909100815,26877,26878,26877,26878
201909100816,26878,26879,26878,26879
201909100817,26879,26880,26879,26880
201909100818,26880,26880,26877,26878
201909100819,26878,26880,26877,26880
201909100820,26880,26880,26875,26877
201909100821,26877,26877,26875,26875
201909100822,26875,26876,26874,26875
201909100823,26875,26876,26872,26873
201909100824,26872,26873,26871,26873
201909100825,26873,26873,26870,26870
201909100826,26870,26871,26870,26871
201909100827,26871,26871,26871,26871
201909100828,26872,26872,26870,26870
201909100829,26870,26872,26870,26872
201909100830,26872,26872,26867,26867
201909100831,26867,26870,26867,26869
201909100832,26869,26872,26869,26872
201909100833,26871,26872,26870,26870
201909100834,26870,26870,26868,26869
201909100835,26869,26869,26867,26868
201909100836,26868,26871,26867,26870
201909100837,26870,26870,26869,26869
201909100838,26868,26869,26866,26867
201909100839,26868,26869,26868,26868
201909100840,26867,26868,26866,26866
201909100841,26866,26867,26866,26867
201909100842,26867,26868,26867,26867
201909100843,26868,26868,26863,26863
201909100844,26863,26864,26861,26864
201909100845,26864,26869,26864,26869
201909100846,26869,26870,26860,26860
201909100847,26860,26867,26860,26864
201909100848,26865,26865,26863,26864
201909100849,26864,26865,26862,26865
201909100850,26865,26865,26864,26864
201909100851,26864,26866,26863,26866
201909100852,26866,26866,26865,26866
201909100853,26866,26867,26864,26866
201909100854,26866,26869,26865,26869
201909100855,26868,26869,26862,26865
201909100856,26864,26865,26864,26864
201909100857,26865,26875,26864,26874
201909100858,26876,26881,26875,26880
201909100859,26880,26881,26877,26878
201909100900,26878,26878,26869,26873
201909100901,26873,26878,26872,26874
201909100902,26874,26878,26870,26876
201909100903,26876,26881,26873,26877
201909100904,26877,26877,26870,26870
201909100905,26870,26875,26870,26874
201909100906,26874,26875,26872,26874
201909100907,26874,26879,26872,26879
201909100908,26879,26885,26876,26882
201909100909,26882,26897,26882,26894
201909100910,26893,26896,26889,26892
201909100911,26893,26893,26889,26891
201909100912,26891,26898,26890,26896
201909100913,26896,26902,26895,26895
201909100914,26895,26898,26895,26895
201909100915,26895,26896,26889,26890
201909100916,26890,26891,26889,26890
201909100917,26890,26892,26890,26890
201909100918,26890,26892,26890,26890
201909100919,26890,26891,26889,26889
201909100920,26889,26889,26886,26888
201909100921,26888,26893,26888,26892
201909100922,26891,26892,26887,26887
201909100923,26887,26887,26883,26883
201909100924,26883,26884,26881,26883
201909100925,26883,26885,26878,26880
201909100926,26880,26884,26880,26883
201909100927,26883,26886,26882,26886
201909100928,26886,26889,26886,26888
201909100929,26887,26887,26884,26885
201909100930,26885,26886,26883,26886
201909100931,26886,26889,26886,26886
201909100932,26887,26891,26886,26890
201909100933,26890,26893,26889,26893
201909100934,26893,26893,26890,26891
201909100935,26891,26891,26887,26887
201909100936,26888,26890,26887,26889
201909100937,26889,26891,26889,26891
201909100938,26890,26892,26890,26890
201909100939,26890,26891,26889,26890
201909100940,26890,26892,26887,26891
201909100941,26892,26894,26892,26894
201909100942,26894,26896,26891,26891
201909100943,26891,26893,26889,26893
201909100944,26893,26894,26892,26894
201909100945,26894,26897,26894,26895
201909100946,26896,26899,26895,26895
201909100947,26896,26896,26893,26893
201909100948,26893,26895,26891,26892
201909100949,26892,26893,26890,26890
201909100950,26890,26892,26888,26889
201909100951,26889,26890,26886,26889
201909100952,26889,26890,26889,26889
201909100953,26889,26890,26887,26887
201909100954,26887,26887,26882,26882
201909100955,26883,26886,26882,26886
201909100956,26886,26887,26883,26885
201909100957,26885,26885,26884,26885
201909100958,26885,26885,26884,26885
201909100959,26885,26889,26885,26887
201909101000,26887,26889,26886,26888
201909101001,26888,26888,26885,26887
201909101002,26888,26894,26888,26889
201909101003,26889,26891,26887,26887
201909101004,26887,26888,26886,26888
201909101005,26888,26888,26884,26885
201909101006,26885,26886,26883,26884
201909101007,26884,26885,26882,26883
201909101008,26883,26884,26882,26883
201909101009,26883,26884,26880,26883
201909101010,26883,26883,26880,26881
201909101011,26880,26881,26879,26880
201909101012,26880,26882,26878,26880
201909101013,26880,26882,26878,26881
201909101014,26881,26882,26879,26879
201909101015,26879,26884,26878,26881
201909101016,26881,26882,26877,26877
201909101017,26877,26878,26873,26874
201909101018,26874,26880,26873,26879
201909101019,26879,26882,26878,26880
201909101020,26880,26882,26879,26882
201909101021,26882,26885,26882,26884
201909101022,26884,26884,26881,26881
201909101023,26881,26886,26881,26884
201909101024,26883,26887,26882,26887
201909101025,26888,26889,26886,26889
201909101026,26889,26895,26889,26894
201909101027,26894,26894,26891,26892
201909101028,26892,26894,26891,26891
201909101029,26891,26891,26888,26890
201909101030,26891,26891,26884,26884
201909101031,26884,26886,26877,26879
201909101032,26879,26879,26867,26868
201909101033,26868,26877,26868,26876
201909101034,26876,26876,26868,26868
201909101035,26868,26872,26868,26870
201909101036,26871,26872,26869,26871
201909101037,26871,26871,26864,26864
201909101038,26864,26868,26861,26862
201909101039,26863,26863,26859,26859
201909101040,26859,26861,26857,26860
201909101041,26860,26861,26859,26861
201909101042,26860,26865,26860,26862
201909101043,26862,26868,26862,26866
201909101044,26866,26869,26865,26868
201909101045,26867,26867,26862,26863
201909101046,26863,26867,26862,26866
201909101047,26866,26866,26859,26859
201909101048,26860,26861,26858,26861
201909101049,26861,26861,26850,26851
201909101050,26850,26850,26844,26850
201909101051,26850,26850,26843,26846
201909101052,26845,26846,26836,26842
201909101053,26842,26852,26842,26851
201909101054,26851,26852,26849,26851
201909101055,26851,26851,26849,26850
201909101056,26850,26852,26849,26850
201909101057,26850,26855,26850,26855
201909101058,26854,26854,26851,26854
201909101059,26855,26857,26853,26856
201909101100,26856,26856,26844,26847
201909101101,26847,26847,26845,26846
201909101102,26846,26846,26837,26839
201909101103,26838,26846,26838,26846
201909101104,26846,26846,26830,26833
201909101105,26833,26842,26828,26838
201909101106,26838,26839,26835,26836
201909101107,26835,26837,26834,26835
201909101108,26835,26837,26829,26830
201909101109,26830,26838,26828,26836
201909101110,26836,26836,26828,26829
201909101111,26829,26832,26828,26831
201909101112,26831,26833,26831,26831
201909101113,26831,26839,26829,26839
201909101114,26838,26842,26837,26840
201909101115,26841,26841,26834,26834
201909101116,26834,26836,26834,26836
201909101117,26836,26836,26829,26832
201909101118,26833,26835,26830,26834
201909101119,26834,26835,26826,26826
201909101120,26827,26831,26827,26831
201909101121,26831,26839,26830,26838
201909101122,26838,26839,26825,26827
201909101123,26827,26830,26821,26821
201909101124,26822,26823,26814,26817
201909101125,26817,26819,26816,26816
201909101126,26816,26817,26810,26814
201909101127,26814,26814,26807,26807
201909101128,26807,26812,26807,26811
201909101129,26811,26811,26808,26810
201909101130,26810,26814,26810,26813
201909101131,26813,26816,26813,26815
201909101132,26815,26815,26809,26809
201909101133,26809,26813,26809,26812
201909101134,26813,26816,26809,26815
201909101135,26815,26823,26815,26821
201909101136,26820,26821,26819,26820
201909101137,26820,26825,26819,26825
201909101138,26825,26828,26825,26825
201909101139,26825,26825,26822,26822
201909101140,26822,26826,26822,26826
201909101141,26825,26826,26823,26823
201909101142,26823,26826,26823,26826
201909101143,26826,26831,26826,26831
201909101144,26830,26831,26830,26831
201909101145,26830,26832,26830,26831
201909101146,26832,26833,26831,26833
201909101147,26833,26843,26833,26840
201909101148,26840,26840,26835,26837
201909101149,26837,26837,26833,26834
201909101150,26834,26836,26833,26834
201909101151,26834,26834,26830,26830
201909101152,26830,26830,26827,26830
201909101153,26830,26831,26827,26831
201909101154,26831,26832,26824,26824
201909101155,26824,26825,26822,26823
201909101156,26824,26824,26818,26820
201909101157,26819,26819,26811,26814
201909101158,26814,26821,26814,26820
201909101159,26821,26821,26819,26820
201909101200,26820,26822,26818,26818
201909101201,26818,26818,26814,26816
201909101202,26816,26818,26815,26817
201909101203,26818,26818,26814,26815
201909101204,26815,26818,26814,26816
201909101205,26816,26816,26814,26815
201909101206,26816,26817,26815,26817
201909101207,26817,26817,26814,26814
201909101208,26814,26815,26814,26815
201909101209,26815,26817,26814,26814
201909101210,26815,26816,26815,26816
201909101211,26816,26816,26814,26814
201909101212,26814,26816,26813,26816
201909101213,26817,26819,26815,26818
201909101214,26818,26820,26818,26820
201909101215,26819,26819,26815,26816
201909101216,26817,26819,26817,26818
201909101217,26818,26818,26817,26817
201909101218,26817,26821,26817,26821
201909101219,26821,26823,26820,26823
201909101220,26823,26827,26823,26826
201909101221,26826,26827,26825,26825
201909101222,26825,26833,26825,26833
201909101223,26833,26833,26830,26832
201909101224,26832,26832,26830,26830
201909101225,26830,26830,26829,26830
201909101226,26830,26831,26828,26829
201909101227,26829,26829,26827,26829
201909101228,26829,26829,26827,26827
201909101229,26827,26830,26827,26827
201909101230,26827,26829,26820,26821
201909101231,26821,26822,26816,26818
201909101232,26818,26819,26817,26817
201909101233,26818,26818,26814,26816
201909101234,26816,26816,26814,26815
201909101235,26815,26818,26814,26817
201909101236,26817,26819,26817,26819
201909101237,26819,26819,26818,26818
201909101238,26818,26818,26818,26818
201909101239,26818,26821,26818,26821
201909101240,26821,26824,26821,26824
201909101241,26823,26823,26821,26821
201909101242,26821,26824,26820,26824
201909101243,26824,26828,26823,26828
201909101244,26828,26829,26826,26826
201909101245,26827,26827,26825,26826
201909101246,26826,26826,26823,26823
201909101247,26823,26824,26823,26824
201909101248,26824,26828,26824,26828
201909101249,26828,26829,26828,26829
201909101250,26830,26831,26828,26829
201909101251,26829,26831,26828,26828
201909101252,26827,26829,26826,26829
201909101253,26829,26829,26828,26829
201909101254,26828,26828,26827,26828
201909101255,26827,26828,26826,26827
201909101256,26827,26828,26825,26828
201909101257,26828,26828,26825,26825
201909101258,26825,26827,26825,26826
201909101259,26826,26827,26826,26826
201909101300,26826,26826,26823,26826
201909101301,26826,26827,26825,26825
201909101302,26825,26827,26825,26826
201909101303,26826,26828,26826,26827
201909101304,26827,26829,26827,26829
201909101305,26829,26829,26825,26825
201909101306,26825,26827,26823,26826
201909101307,26826,26827,26825,26826
201909101308,26826,26827,26825,26827
201909101309,26826,26827,26822,26822
201909101310,26821,26822,26820,26821
201909101311,26822,26822,26821,26821
201909101312,26821,26822,26821,26822
201909101313,26822,26822,26821,26822
201909101314,26822,26822,26819,26819
201909101315,26819,26820,26819,26820
201909101316,26820,26820,26819,26820
201909101317,26819,26821,26817,26821
201909101318,26821,26822,26821,26822
201909101319,26822,26822,26821,26821
201909101320,26821,26823,26821,26822
201909101321,26822,26825,26822,26823
201909101322,26823,26824,26822,26823
201909101323,26824,26824,26822,26823
201909101324,26823,26826,26823,26825
201909101325,26825,26827,26825,26825
201909101326,26825,26826,26825,26826
201909101327,26826,26827,26826,26826
201909101328,26826,26827,26824,26825
201909101329,26826,26828,26824,26827
201909101330,26826,26831,26826,26831
201909101331,26831,26831,26830,26831
201909101332,26831,26834,26830,26834
201909101333,26834,26835,26833,26835
201909101334,26835,26835,26833,26834
201909101335,26834,26835,26834,26835
201909101336,26835,26835,26829,26829
201909101337,26829,26830,26826,26827
201909101338,26827,26829,26827,26827
201909101339,26828,26829,26825,26828
201909101340,26828,26828,26823,26823
201909101341,26823,26823,26821,26822
201909101342,26822,26823,26822,26823
201909101343,26822,26823,26821,26823
201909101344,26823,26823,26821,26821
201909101345,26821,26822,26821,26821
201909101346,26821,26822,26821,26821
201909101347,26821,26823,26821,26822
201909101348,26821,26823,26821,26823
201909101349,26822,26823,26822,26822
201909101350,26822,26822,26817,26818
201909101351,26817,26818,26816,26817
201909101352,26817,26818,26817,26818
201909101353,26818,26818,26817,26818
201909101354,26818,26818,26817,26817
201909101355,26817,26818,26814,26814
201909101356,26814,26815,26814,26815
201909101357,26815,26816,26815,26816
201909101358,26816,26820,26816,26818
201909101359,26819,26819,26815,26815
201909101400,26815,26817,26815,26817
201909101401,26817,26819,26816,26818
201909101402,26818,26819,26817,26818
201909101403,26818,26819,26818,26818
201909101404,26818,26819,26817,26819
201909101405,26819,26819,26816,26818
201909101406,26818,26818,26817,26817
201909101407,26816,26818,26816,26818
201909101408,26818,26818,26816,26817
201909101409,26816,26816,26814,26814
201909101410,26814,26815,26814,26815
201909101411,26815,26815,26814,26814
201909101412,26814,26814,26802,26802
201909101413,26803,26805,26803,26804
201909101414,26804,26810,26804,26807
201909101415,26806,26811,26806,26809
201909101416,26809,26809,26807,26807
201909101417,26807,26808,26802,26803
201909101418,26804,26806,26802,26805
201909101419,26805,26808,26805,26806
201909101420,26806,26809,26805,26807
201909101421,26807,26811,26807,26811
201909101422,26811,26812,26810,26811
201909101423,26811,26814,26810,26810
201909101424,26810,26814,26810,26813
201909101425,26813,26813,26810,26812
201909101426,26813,26813,26811,26813
201909101427,26813,26814,26813,26813
201909101428,26813,26813,26810,26812
201909101429,26812,26814,26811,26811
201909101430,26811,26812,26810,26810
201909101431,26810,26812,26810,26812
201909101432,26811,26815,26811,26814
201909101433,26815,26816,26812,26815
201909101434,26815,26815,26811,26812
201909101435,26812,26812,26809,26809
201909101436,26809,26811,26808,26808
201909101437,26808,26808,26805,26807
201909101438,26806,26806,26803,26804
201909101439,26804,26807,26804,26805
201909101440,26805,26805,26802,26802
201909101441,26802,26806,26801,26806
201909101442,26806,26807,26806,26807
201909101443,26807,26808,26806,26807
201909101444,26807,26810,26806,26809
201909101445,26809,26809,26808,26809
201909101446,26809,26809,26806,26807
201909101447,26807,26807,26802,26804
201909101448,26804,26806,26802,26804
201909101449,26805,26807,26805,26807
201909101450,26807,26809,26806,26808
201909101451,26808,26808,26806,26807
201909101452,26807,26811,26806,26810
201909101453,26810,26810,26808,26809
201909101454,26809,26812,26809,26811
201909101455,26811,26812,26810,26811
201909101456,26811,26816,26811,26813
201909101457,26813,26813,26811,26811
201909101458,26811,26816,26811,26816
201909101459,26815,26821,26815,26819
201909101500,26819,26822,26819,26820
201909101501,26820,26823,26819,26820
201909101502,26820,26820,26817,26818
201909101503,26818,26823,26818,26823
201909101504,26822,26823,26822,26823
201909101505,26823,26824,26821,26821
201909101506,26821,26823,26820,26820
201909101507,26821,26821,26819,26821
201909101508,26821,26821,26816,26816
201909101509,26817,26818,26814,26815
201909101510,26815,26815,26806,26810
201909101511,26809,26813,26809,26812
201909101512,26812,26813,26810,26812
201909101513,26811,26813,26811,26811
201909101514,26811,26813,26807,26807
201909101515,26807,26807,26799,26805
201909101516,26805,26807,26801,26804
201909101517,26804,26804,26791,26796
201909101518,26796,26801,26795,26795
201909101519,26795,26797,26794,26795
201909101520,26795,26802,26795,26800
201909101521,26800,26800,26798,26799
201909101522,26799,26800,26796,26800
201909101523,26800,26802,26799,26799
201909101524,26799,26800,26798,26799
201909101525,26799,26801,26798,26801
201909101526,26801,26802,26799,26801
201909101527,26800,26804,26799,26801
201909101528,26801,26807,26801,26806
201909101529,26806,26807,26805,26805
201909101530,26806,26807,26803,26803
201909101531,26803,26804,26797,26797
201909101532,26797,26802,26797,26801
201909101533,26801,26802,26801,26802
201909101534,26802,26805,26802,26805
201909101535,26805,26806,26801,26802
201909101536,26801,26805,26801,26805
201909101537,26805,26806,26803,26806
201909101538,26806,26808,26804,26805
201909101539,26805,26807,26804,26804
201909101540,26805,26805,26800,26802
201909101541,26802,26807,26802,26807
201909101542,26807,26809,26806,26809
201909101543,26809,26810,26807,26807
201909101544,26807,26809,26807,26808
201909101545,26808,26809,26807,26807
201909101546,26808,26808,26805,26806
201909101547,26806,26808,26803,26803
201909101548,26803,26805,26803,26805
201909101549,26805,26806,26804,26804
201909101550,26805,26812,26805,26812
201909101551,26812,26812,26807,26812
201909101552,26811,26813,26810,26812
201909101553,26812,26815,26812,26815
201909101554,26814,26815,26812,26814
201909101555,26814,26814,26806,26812
201909101556,26812,26812,26810,26812
201909101557,26812,26818,26812,26818
201909101558,26817,26817,26815,26817
201909101559,26817,26817,26813,26814
201909101600,26814,26837,26814,26824
201909101601,26824,26828,26818,26822
201909101602,26822,26824,26817,26819
201909101603,26819,26822,26815,26822
201909101604,26822,26824,26817,26819
201909101605,26819,26824,26818,26820
201909101606,26820,26822,26813,26817
201909101607,26816,26820,26814,26816
201909101608,26816,26818,26812,26815
201909101609,26815,26818,26815,26815
201909101610,26816,26819,26815,26818
201909101611,26818,26818,26811,26815
201909101612,26815,26821,26814,26817
201909101613,26816,26816,26807,26809
201909101614,26809,26813,26808,26808
201909101615,26808,26809,26802,26803
201909101616,26803,26804,26800,26804
201909101617,26804,26809,26803,26806
201909101618,26806,26813,26806,26810
201909101619,26810,26811,26806,26809
201909101620,26809,26809,26800,26801
201909101621,26802,26805,26798,26803
201909101622,26803,26803,26795,26798
201909101623,26798,26799,26794,26798
201909101624,26798,26799,26790,26792
201909101625,26793,26793,26785,26789
201909101626,26789,26789,26785,26787
201909101627,26787,26795,26786,26793
201909101628,26793,26793,26789,26789
201909101629,26790,26793,26789,26791
201909101630,26791,26791,26786,26791
201909101631,26791,26793,26788,26793
201909101632,26793,26793,26789,26790
201909101633,26790,26794,26790,26794
201909101634,26795,26798,26791,26791
201909101635,26791,26793,26782,26784
201909101636,26784,26788,26782,26785
201909101637,26785,26785,26777,26779
201909101638,26779,26780,26776,26778
201909101639,26778,26780,26772,26774
201909101640,26775,26777,26766,26767
201909101641,26767,26768,26756,26763
201909101642,26763,26765,26760,26765
201909101643,26765,26769,26763,26768
201909101644,26768,26769,26763,26763
201909101645,26763,26765,26760,26762
201909101646,26762,26763,26753,26762
201909101647,26762,26764,26759,26764
201909101648,26764,26764,26758,26761
201909101649,26762,26764,26760,26763
201909101650,26764,26772,26762,26772
201909101651,26772,26773,26768,26771
201909101652,26771,26772,26765,26768
201909101653,26768,26773,26766,26772
201909101654,26771,26776,26770,26775
201909101655,26775,26777,26773,26774
201909101656,26774,26777,26772,26773
201909101657,26773,26774,26769,26769
201909101658,26769,26773,26769,26769
201909101659,26770,26774,26769,26771
201909101700,26771,26776,26771,26775
201909101701,26775,26776,26770,26770
201909101702,26770,26773,26769,26771
201909101703,26771,26771,26762,26765
201909101704,26765,26766,26763,26763
201909101705,26763,26768,26761,26763
201909101706,26762,26764,26761,26762
201909101707,26762,26762,26754,26758
201909101708,26757,26759,26756,26758
201909101709,26758,26761,26757,26758
201909101710,26758,26760,26747,26748
201909101711,26748,26754,26746,26753
201909101712,26754,26755,26749,26752
201909101713,26752,26754,26750,26751
201909101714,26751,26752,26744,26747
201909101715,26747,26749,26744,26744
201909101716,26745,26749,26739,26747
201909101717,26746,26748,26742,26744
201909101718,26743,26743,26740,26741
201909101719,26741,26745,26741,26745
201909101720,26745,26745,26740,26745
201909101721,26745,26746,26742,26746
201909101722,26746,26747,26746,26747
201909101723,26747,26749,26746,26748
201909101724,26748,26748,26743,26745
201909101725,26746,26750,26740,26741
201909101726,26741,26742,26738,26739
201909101727,26739,26745,26739,26745
201909101728,26745,26746,26743,26744
201909101729,26744,26746,26739,26743
201909101730,26744,26748,26740,26742
201909101731,26741,26743,26740,26741
201909101732,26741,26744,26740,26743
201909101733,26743,26745,26743,26744
201909101734,26744,26747,26743,26746
201909101735,26746,26746,26741,26741
201909101736,26741,26748,26740,26746
201909101737,26746,26751,26746,26750
201909101738,26750,26755,26750,26754
201909101739,26753,26759,26753,26759
201909101740,26759,26759,26755,26757
201909101741,26757,26759,26756,26758
201909101742,26758,26761,26758,26760
201909101743,26760,26761,26757,26757
201909101744,26757,26761,26755,26760
201909101745,26760,26765,26760,26761
201909101746,26761,26765,26761,26763
201909101747,26763,26763,26761,26761
201909101748,26761,26762,26752,26755
201909101749,26755,26757,26755,26757
201909101750,26757,26757,26754,26756
201909101751,26756,26758,26756,26757
201909101752,26757,26762,26757,26761
201909101753,26760,26762,26759,26761
201909101754,26761,26763,26760,26763
201909101755,26762,26765,26761,26765
201909101756,26765,26765,26761,26764
201909101757,26764,26767,26762,26766
201909101758,26766,26769,26765,26768
201909101759,26768,26768,26761,26762
201909101800,26762,26768,26762,26767
201909101801,26767,26767,26763,26764
201909101802,26764,26765,26761,26763
201909101803,26763,26778,26763,26773
201909101804,26773,26787,26773,26785
201909101805,26784,26786,26781,26781
201909101806,26781,26786,26781,26782
201909101807,26782,26790,26782,26788
201909101808,26788,26789,26782,26782
201909101809,26782,26792,26782,26787
201909101810,26787,26789,26785,26789
201909101811,26789,26801,26788,26794
201909101812,26794,26795,26787,26787
201909101813,26787,26790,26786,26787
201909101814,26787,26789,26786,26789
201909101815,26789,26790,26785,26786
201909101816,26786,26791,26786,26789
201909101817,26789,26790,26787,26788
201909101818,26788,26789,26784,26786
201909101819,26786,26788,26784,26784
201909101820,26784,26788,26782,26788
201909101821,26788,26789,26787,26789
201909101822,26788,26789,26785,26787
201909101823,26787,26787,26782,26782
201909101824,26782,26787,26782,26787
201909101825,26788,26788,26784,26785
201909101826,26785,26786,26785,26786
201909101827,26785,26787,26783,26785
201909101828,26785,26785,26781,26781
201909101829,26782,26783,26775,26776
201909101830,26775,26779,26775,26777
201909101831,26777,26781,26771,26774
201909101832,26773,26775,26772,26775
201909101833,26775,26775,26770,26773
201909101834,26772,26774,26772,26772
201909101835,26772,26772,26767,26772
201909101836,26772,26772,26766,26768
201909101837,26768,26769,26766,26768
201909101838,26768,26768,26763,26766
201909101839,26766,26769,26764,26767
201909101840,26767,26767,26763,26763
201909101841,26764,26767,26763,26766
201909101842,26765,26766,26763,26764
201909101843,26764,26768,26764,26768
201909101844,26768,26769,26765,26766
201909101845,26766,26769,26765,26766
201909101846,26766,26770,26765,26770
201909101847,26770,26774,26769,26771
201909101848,26771,26778,26771,26778
201909101849,26778,26782,26777,26779
201909101850,26779,26784,26779,26784
201909101851,26784,26787,26784,26786
201909101852,26786,26788,26785,26788
201909101853,26788,26801,26788,26800
201909101854,26800,26800,26793,26795
201909101855,26795,26796,26793,26794
201909101856,26793,26794,26788,26794
201909101857,26794,26795,26792,26793
201909101858,26793,26794,26788,26790
201909101859,26790,26794,26789,26792
201909101900,26792,26799,26792,26799
201909101901,26799,26803,26796,26796
201909101902,26796,26799,26793,26794
201909101903,26794,26797,26793,26796
201909101904,26796,26798,26795,26796
201909101905,26796,26800,26796,26798
201909101906,26798,26801,26797,26800
201909101907,26800,26800,26794,26795
201909101908,26795,26797,26794,26797
201909101909,26797,26797,26793,26794
201909101910,26794,26794,26790,26791
201909101911,26792,26797,26791,26795
201909101912,26796,26796,26792,26793
201909101913,26793,26793,26791,26792
201909101914,26792,26794,26789,26793
201909101915,26793,26797,26792,26796
201909101916,26796,26799,26796,26796
201909101917,26796,26799,26796,26799
201909101918,26799,26802,26796,26798
201909101919,26797,26797,26793,26795
201909101920,26795,26798,26794,26797
201909101921,26796,26800,26795,26800
201909101922,26800,26806,26799,26805
201909101923,26804,26805,26802,26802
201909101924,26803,26804,26803,26803
201909101925,26803,26803,26800,26802
201909101926,26802,26806,26802,26803
201909101927,26803,26807,26803,26806
201909101928,26806,26812,26805,26810
201909101929,26811,26811,26806,26807
201909101930,26807,26819,26806,26815
201909101931,26816,26816,26812,26813
201909101932,26813,26813,26812,26813
201909101933,26813,26815,26812,26814
201909101934,26814,26814,26812,26812
201909101935,26813,26815,26812,26813
201909101936,26814,26814,26807,26808
201909101937,26808,26809,26801,26801
201909101938,26801,26805,26801,26803
201909101939,26803,26806,26803,26805
201909101940,26805,26805,26802,26805
201909101941,26805,26805,26803,26804
201909101942,26803,26804,26802,26802
201909101943,26802,26803,26798,26799
201909101944,26799,26799,26792,26793
201909101945,26793,26794,26792,26792
201909101946,26792,26794,26792,26793
201909101947,26793,26801,26793,26801
201909101948,26801,26810,26801,26806
201909101949,26805,26811,26805,26811
201909101950,26811,26812,26807,26809
201909101951,26808,26810,26805,26805
201909101952,26805,26810,26804,26806
201909101953,26806,26809,26805,26807
201909101954,26807,26809,26802,26803
201909101955,26803,26805,26798,26799
201909101956,26799,26801,26796,26796
201909101957,26795,26797,26790,26790
201909101958,26790,26796,26789,26795
201909101959,26795,26796,26791,26792
201909102000,26791,26796,26791,26796
201909102001,26796,26802,26796,26799
201909102002,26799,26799,26794,26794
201909102003,26793,26799,26791,26797
201909102004,26797,26802,26797,26801
201909102005,26801,26819,26801,26817
201909102006,26817,26820,26815,26818
201909102007,26818,26819,26814,26817
201909102008,26818,26851,26818,26843
201909102009,26843,26846,26834,26841
201909102010,26841,26843,26834,26834
201909102011,26834,26838,26831,26837
201909102012,26837,26841,26834,26834
201909102013,26834,26834,26829,26830
201909102014,26830,26831,26825,26829
201909102015,26829,26830,26825,26830
201909102016,26831,26833,26824,26831
201909102017,26831,26831,26826,26827
201909102018,26827,26831,26824,26825
201909102019,26825,26832,26824,26824
201909102020,26825,26826,26820,26820
201909102021,26821,26822,26816,26817
201909102022,26817,26824,26816,26823
201909102023,26822,26825,26820,26822
201909102024,26822,26829,26822,26826
201909102025,26827,26829,26824,26826
201909102026,26826,26829,26825,26825
201909102027,26825,26834,26825,26832
201909102028,26831,26833,26830,26831
201909102029,26831,26833,26830,26832
201909102030,26833,26840,26823,26825
201909102031,26825,26825,26818,26818
201909102032,26818,26822,26814,26820
201909102033,26820,26822,26819,26821
201909102034,26820,26821,26814,26817
201909102035,26816,26820,26816,26820
201909102036,26820,26821,26815,26815
201909102037,26815,26818,26811,26813
201909102038,26813,26820,26813,26818
201909102039,26817,26825,26817,26822
201909102040,26822,26822,26817,26820
201909102041,26820,26821,26818,26820
201909102042,26820,26821,26807,26807
201909102043,26808,26811,26808,26811
201909102044,26811,26812,26807,26809
201909102045,26809,26816,26808,26816
201909102046,26816,26816,26810,26810
201909102047,26810,26811,26807,26809
201909102048,26809,26810,26804,26805
201909102049,26805,26808,26805,26808
201909102050,26808,26810,26806,26810
201909102051,26810,26810,26802,26805
201909102052,26805,26809,26802,26808
201909102053,26809,26809,26807,26808
201909102054,26809,26810,26805,26806
201909102055,26806,26810,26805,26810
201909102056,26810,26815,26808,26814
201909102057,26814,26814,26812,26812
201909102058,26812,26817,26812,26815
201909102059,26815,26818,26815,26817
201909102100,26817,26818,26814,26816
201909102101,26816,26820,26813,26818
201909102102,26818,26822,26818,26820
201909102103,26820,26822,26819,26819
201909102104,26819,26820,26818,26818
201909102105,26816,26821,26816,26820
201909102106,26820,26822,26818,26818
201909102107,26818,26818,26809,26813
201909102108,26813,26817,26812,26815
201909102109,26815,26820,26812,26818
201909102110,26818,26827,26817,26825
201909102111,26826,26829,26825,26826
201909102112,26827,26827,26821,26824
201909102113,26824,26825,26820,26822
201909102114,26822,26825,26821,26825
201909102115,26825,26826,26820,26823
201909102116,26823,26824,26815,26815
201909102117,26815,26820,26812,26814
201909102118,26814,26816,26812,26814
201909102119,26814,26817,26806,26809
201909102120,26809,26814,26809,26812
201909102121,26812,26812,26809,26811
201909102122,26811,26812,26809,26810
201909102123,26810,26810,26804,26808
201909102124,26808,26808,26804,26804
201909102125,26804,26807,26803,26806
201909102126,26806,26808,26805,26805
201909102127,26805,26807,26803,26803
201909102128,26803,26805,26803,26804
201909102129,26804,26805,26802,26802
201909102130,26802,26806,26799,26805
201909102131,26805,26805,26804,26804
201909102132,26804,26804,26800,26802
201909102133,26802,26807,26802,26804
201909102134,26804,26811,26804,26808
201909102135,26808,26812,26807,26811
201909102136,26811,26817,26811,26815
201909102137,26815,26816,26814,26814
201909102138,26814,26817,26814,26816
201909102139,26817,26817,26813,26814
201909102140,26814,26816,26813,26814
201909102141,26814,26816,26811,26811
201909102142,26811,26814,26808,26809
201909102143,26808,26809,26805,26805
201909102144,26806,26806,26796,26796
201909102145,26796,26803,26796,26802
201909102146,26802,26824,26801,26803
201909102147,26803,26806,26800,26802
201909102148,26801,26804,26796,26800
201909102149,26800,26804,26798,26803
201909102150,26803,26806,26802,26803
201909102151,26802,26803,26800,26803
201909102152,26803,26804,26801,26804
201909102153,26804,26807,26800,26800
201909102154,26800,26803,26800,26802
201909102155,26801,26807,26798,26798
201909102156,26798,26804,26796,26802
201909102157,26803,26803,26798,26801
201909102158,26801,26801,26798,26798
201909102159,26798,26804,26797,26800
201909102200,26800,26805,26797,26802
201909102201,26802,26809,26802,26808
201909102202,26808,26810,26804,26804
201909102203,26804,26805,26798,26800
201909102204,26799,26802,26799,26801
201909102205,26801,26806,26800,26801
201909102206,26801,26805,26801,26801
201909102207,26801,26806,26799,26806
201909102208,26806,26806,26801,26801
201909102209,26801,26803,26800,26801
201909102210,26801,26803,26799,26801
201909102211,26801,26803,26794,26796
201909102212,26796,26797,26790,26794
201909102213,26794,26799,26793,26798
201909102214,26798,26799,26793,26794
201909102215,26794,26798,26788,26791
201909102216,26792,26794,26790,26794
201909102217,26794,26794,26791,26793
201909102218,26793,26797,26792,26794
201909102219,26794,26798,26792,26797
201909102220,26797,26798,26792,26792
201909102221,26792,26794,26790,26794
201909102222,26793,26802,26793,26802
201909102223,26802,26802,26794,26798
201909102224,26798,26805,26795,26805
201909102225,26805,26806,26804,26805
201909102226,26805,26810,26805,26809
201909102227,26808,26813,26805,26812
201909102228,26812,26812,26808,26810
201909102229,26810,26813,26807,26812
201909102230,26812,26820,26796,26801
201909102231,26801,26820,26793,26815
201909102232,26815,26815,26789,26793
201909102233,26793,26810,26793,26798
201909102234,26797,26797,26782,26792
201909102235,26792,26794,26781,26794
201909102236,26793,26805,26790,26799
201909102237,26799,26807,26790,26792
201909102238,26791,26794,26780,26780
201909102239,26780,26788,26776,26778
201909102240,26777,26777,26760,26766
201909102241,26767,26769,26761,26765
201909102242,26765,26766,26753,26764
201909102243,26765,26779,26758,26777
201909102244,26777,26786,26771,26772
201909102245,26772,26784,26765,26783
201909102246,26783,26807,26781,26806
201909102247,26806,26807,26798,26801
201909102248,26800,26800,26790,26790
201909102249,26790,26795,26785,26795
201909102250,26795,26796,26788,26788
201909102251,26788,26788,26776,26777
201909102252,26777,26780,26768,26768
201909102253,26769,26775,26755,26769
201909102254,26769,26772,26760,26763
201909102255,26764,26777,26762,26776
201909102256,26777,26777,26758,26758
201909102257,26758,26776,26758,26772
201909102258,26774,26779,26771,26774
201909102259,26773,26783,26769,26778
201909102300,26778,26779,26766,26776
201909102301,26776,26780,26775,26777
201909102302,26777,26783,26775,26777
201909102303,26777,26779,26768,26773
201909102304,26772,26776,26770,26770
201909102305,26769,26776,26766,26771
201909102306,26771,26776,26770,26770
201909102307,26770,26773,26756,26758
201909102308,26758,26758,26741,26742
201909102309,26742,26762,26742,26761
201909102310,26760,26760,26740,26741
201909102311,26740,26750,26738,26750
201909102312,26750,26752,26742,26742
201909102313,26741,26757,26724,26754
201909102314,26754,26763,26742,26742
201909102315,26742,26748,26736,26741
201909102316,26742,26755,26740,26749
201909102317,26748,26757,26733,26733
201909102318,26733,26758,26732,26751
201909102319,26751,26754,26745,26748
201909102320,26747,26753,26742,26746
201909102321,26746,26758,26744,26758
201909102322,26757,26758,26753,26758
201909102323,26758,26768,26757,26768
201909102324,26768,26781,26766,26778
201909102325,26778,26783,26772,26773
201909102326,26773,26775,26770,26772
201909102327,26772,26773,26768,26770
201909102328,26770,26782,26770,26781
201909102329,26780,26782,26775,26780
201909102330,26781,26788,26776,26777
201909102331,26777,26777,26766,26772
201909102332,26772,26776,26768,26768
201909102333,26769,26780,26764,26778
201909102334,26778,26779,26770,26771
201909102335,26771,26774,26767,26769
201909102336,26769,26784,26769,26782
201909102337,26782,26793,26781,26791
201909102338,26791,26794,26769,26771
201909102339,26771,26778,26764,26766
201909102340,26766,26771,26763,26766
201909102341,26766,26769,26757,26760
201909102342,26760,26768,26757,26765
201909102343,26765,26773,26763,26765
201909102344,26765,26767,26758,26762
201909102345,26762,26769,26751,26752
201909102346,26752,26760,26751,26758
201909102347,26758,26759,26749,26751
201909102348,26751,26755,26748,26749
201909102349,26749,26760,26749,26753
201909102350,26753,26766,26751,26755
201909102351,26754,26754,26739,26745
201909102352,26745,26751,26740,26743
201909102353,26743,26744,26728,26735
201909102354,26735,26735,26726,26730
201909102355,26730,26735,26726,26732
201909102356,26732,26733,26727,26733
201909102357,26733,26733,26725,26730
201909102358,26730,26734,26726,26734
201909102359,26733,26743,26733,26740
201909110000,26740,26748,26737,26744
201909110001,26743,26759,26743,26757
201909110002,26756,26763,26756,26761
201909110003,26761,26774,26761,26772
201909110004,26771,26771,26764,26766
201909110005,26766,26771,26762,26762
201909110006,26761,26769,26761,26764
201909110007,26764,26766,26760,26764
201909110008,26765,26767,26764,26766
201909110009,26766,26771,26763,26770
201909110010,26770,26778,26770,26776
201909110011,26776,26776,26768,26772
201909110012,26773,26778,26773,26778
201909110013,26778,26782,26776,26780
201909110014,26780,26788,26780,26785
201909110015,26785,26790,26779,26780
201909110016,26780,26780,26773,26774
201909110017,26774,26774,26770,26773
201909110018,26773,26774,26769,26772
201909110019,26773,26773,26770,26773
201909110020,26773,26776,26771,26776
201909110021,26774,26778,26773,26773
201909110022,26773,26773,26767,26769
201909110023,26768,26769,26765,26765
201909110024,26765,26768,26756,26764
201909110025,26764,26767,26761,26761
201909110026,26761,26761,26749,26757
201909110027,26757,26759,26753,26756
201909110028,26756,26758,26754,26755
201909110029,26755,26762,26755,26758
201909110030,26758,26770,26756,26770
201909110031,26770,26773,26769,26772
201909110032,26772,26772,26765,26765
201909110033,26765,26766,26753,26762
201909110034,26762,26764,26759,26760
201909110035,26760,26764,26757,26758
201909110036,26760,26763,26757,26759
201909110037,26759,26760,26753,26754
201909110038,26754,26762,26754,26761
201909110039,26762,26766,26759,26765
201909110040,26765,26767,26761,26767
201909110041,26767,26768,26762,26764
201909110042,26764,26769,26764,26766
201909110043,26766,26776,26765,26776
201909110044,26776,26777,26770,26770
201909110045,26769,26793,26769,26783
201909110046,26783,26785,26768,26784
201909110047,26784,26817,26784,26817
201909110048,26816,26839,26814,26829
201909110049,26828,26842,26828,26833
201909110050,26833,26846,26833,26846
201909110051,26846,26865,26846,26858
201909110052,26858,26863,26850,26852
201909110053,26852,26857,26849,26851
201909110054,26851,26857,26849,26852
201909110055,26852,26856,26842,26843
201909110056,26843,26846,26834,26834
201909110057,26834,26838,26831,26835
201909110058,26835,26835,26825,26828
201909110059,26828,26832,26821,26830
201909110100,26830,26835,26829,26833
201909110101,26833,26835,26821,26824
201909110102,26824,26824,26809,26809
201909110103,26810,26811,26781,26783
201909110104,26783,26798,26783,26793
201909110105,26793,26796,26783,26796
201909110106,26796,26798,26794,26796
201909110107,26797,26798,26791,26796
201909110108,26796,26804,26792,26802
201909110109,26802,26808,26800,26805
201909110110,26805,26805,26797,26798
201909110111,26798,26801,26797,26799
201909110112,26800,26812,26798,26812
201909110113,26812,26819,26811,26814
201909110114,26814,26819,26808,26810
201909110115,26810,26819,26810,26818
201909110116,26817,26822,26817,26822
201909110117,26822,26823,26817,26819
201909110118,26819,26826,26818,26825
201909110119,26825,26828,26824,26828
201909110120,26828,26839,26827,26835
201909110121,26835,26839,26831,26835
201909110122,26835,26846,26835,26846
201909110123,26846,26860,26845,26859
201909110124,26859,26861,26853,26853
201909110125,26853,26855,26844,26844
201909110126,26844,26846,26840,26845
201909110127,26845,26845,26841,26841
201909110128,26840,26845,26840,26845
201909110129,26844,26847,26842,26845
201909110130,26845,26846,26843,26845
201909110131,26845,26846,26841,26844
201909110132,26844,26851,26842,26845
201909110133,26845,26846,26840,26840
201909110134,26840,26844,26837,26837
201909110135,26837,26843,26837,26843
201909110136,26843,26846,26836,26836
201909110137,26836,26842,26836,26839
201909110138,26839,26842,26839,26841
201909110139,26841,26841,26836,26837
201909110140,26836,26841,26835,26838
201909110141,26838,26840,26835,26835
201909110142,26835,26837,26834,26836
201909110143,26836,26842,26836,26839
201909110144,26839,26845,26839,26841
201909110145,26841,26849,26841,26849
201909110146,26848,26856,26848,26855
201909110147,26858,26858,26851,26853
201909110148,26853,26853,26846,26848
201909110149,26850,26860,26849,26857
201909110150,26857,26858,26854,26855
201909110151,26855,26857,26854,26855
201909110152,26855,26861,26855,26857
201909110153,26857,26862,26856,26857
201909110154,26857,26859,26854,26859
201909110155,26859,26863,26855,26855
201909110156,26855,26857,26849,26849
201909110157,26849,26850,26846,26848
201909110158,26847,26850,26847,26849
201909110159,26849,26854,26848,26854
201909110200,26854,26857,26847,26849
201909110201,26848,26852,26845,26848
201909110202,26847,26852,26846,26847
201909110203,26847,26850,26847,26847
201909110204,26847,26848,26837,26838
201909110205,26838,26840,26831,26833
201909110206,26833,26833,26825,26825
201909110207,26826,26832,26826,26826
201909110208,26827,26830,26826,26828
201909110209,26828,26828,26816,26819
201909110210,26820,26827,26820,26824
201909110211,26824,26825,26816,26817
201909110212,26817,26821,26815,26821
201909110213,26822,26825,26820,26824
201909110214,26824,26828,26824,26828
201909110215,26828,26830,26822,26824
201909110216,26824,26825,26816,26816
201909110217,26816,26818,26810,26813
201909110218,26813,26813,26794,26802
201909110219,26802,26810,26796,26809
201909110220,26809,26813,26806,26813
201909110221,26814,26819,26814,26819
201909110222,26819,26819,26815,26815
201909110223,26815,26828,26815,26825
201909110224,26825,26828,26821,26827
201909110225,26827,26828,26824,26827
201909110226,26827,26827,26823,26824
201909110227,26824,26824,26819,26820
201909110228,26819,26821,26817,26820
201909110229,26821,26824,26816,26817
201909110230,26817,26822,26817,26821
201909110231,26821,26826,26820,26821
201909110232,26822,26833,26821,26827
201909110233,26827,26838,26827,26833
201909110234,26834,26836,26832,26833
201909110235,26833,26837,26832,26836
201909110236,26836,26840,26835,26836
201909110237,26836,26837,26832,26837
201909110238,26837,26839,26835,26836
201909110239,26837,26837,26833,26835
201909110240,26835,26838,26830,26832
201909110241,26832,26832,26826,26830
201909110242,26830,26830,26824,26826
201909110243,26826,26828,26820,26820
201909110244,26820,26822,26818,26819
201909110245,26819,26823,26819,26822
201909110246,26822,26828,26822,26827
201909110247,26828,26829,26824,26826
201909110248,26826,26833,26826,26833
201909110249,26833,26838,26833,26835
201909110250,26834,26845,26834,26844
201909110251,26844,26846,26841,26842
201909110252,26842,26843,26837,26839
201909110253,26839,26839,26833,26833
201909110254,26833,26837,26831,26836
201909110255,26836,26839,26833,26836
201909110256,26836,26839,26833,26833
201909110257,26832,26834,26825,26827
201909110258,26827,26828,26814,26819
201909110259,26818,26821,26815,26817
201909110300,26816,26827,26816,26825
201909110301,26824,26826,26814,26816
201909110302,26816,26816,26806,26807
201909110303,26808,26809,26804,26804
201909110304,26804,26807,26803,26803
201909110305,26803,26806,26803,26806
201909110306,26806,26806,26793,26795
201909110307,26795,26815,26794,26812
201909110308,26812,26812,26803,26810
201909110309,26811,26811,26803,26803
201909110310,26803,26808,26796,26807
201909110311,26807,26810,26803,26810
201909110312,26810,26811,26805,26807
201909110313,26807,26810,26799,26799
201909110314,26799,26799,26792,26793
201909110315,26794,26799,26789,26794
201909110316,26795,26797,26792,26795
201909110317,26796,26797,26790,26790
201909110318,26790,26795,26786,26794
201909110319,26794,26798,26794,26797
201909110320,26797,26797,26793,26793
201909110321,26792,26799,26791,26798
201909110322,26798,26805,26795,26805
201909110323,26805,26808,26803,26806
201909110324,26807,26807,26802,26805
201909110325,26805,26810,26804,26810
201909110326,26810,26815,26806,26806
201909110327,26806,26808,26804,26807
201909110328,26807,26807,26793,26793
201909110329,26793,26796,26792,26792
201909110330,26792,26795,26788,26791
201909110331,26791,26801,26790,26801
201909110332,26799,26803,26799,26802
201909110333,26802,26810,26802,26810
201909110334,26810,26813,26807,26813
201909110335,26813,26813,26809,26811
201909110336,26810,26810,26803,26803
201909110337,26802,26806,26797,26806
201909110338,26806,26811,26805,26806
201909110339,26806,26807,26803,26803
201909110340,26803,26806,26792,26794
201909110341,26794,26799,26790,26790
201909110342,26791,26798,26790,26797
201909110343,26796,26798,26794,26797
201909110344,26797,26800,26796,26796
201909110345,26796,26800,26794,26799
201909110346,26799,26801,26796,26796
201909110347,26796,26797,26791,26797
201909110348,26796,26796,26787,26787
201909110349,26787,26791,26785,26787
201909110350,26787,26790,26783,26786
201909110351,26786,26788,26784,26786
201909110352,26786,26786,26781,26781
201909110353,26781,26786,26780,26786
201909110354,26786,26800,26786,26800
201909110355,26800,26804,26797,26804
201909110356,26803,26806,26802,26804
201909110357,26804,26804,26800,26801
201909110358,26801,26804,26801,26802
201909110359,26802,26809,26801,26804
201909110400,26804,26811,26804,26809
201909110401,26809,26810,26802,26808
201909110402,26808,26811,26807,26811
201909110403,26811,26818,26810,26815
201909110404,26815,26822,26814,26821
201909110405,26820,26820,26811,26814
201909110406,26814,26815,26811,26811
201909110407,26811,26815,26811,26812
201909110408,26812,26813,26810,26811
201909110409,26811,26811,26800,26802
201909110410,26802,26808,26802,26804
201909110411,26804,26808,26803,26805
201909110412,26805,26807,26803,26805
201909110413,26805,26810,26804,26808
201909110414,26808,26810,26802,26803
201909110415,26803,26807,26803,26803
201909110416,26803,26807,26801,26805
201909110417,26805,26810,26805,26810
201909110418,26810,26811,26806,26808
201909110419,26809,26810,26808,26810
201909110420,26810,26812,26804,26806
201909110421,26806,26807,26793,26797
201909110422,26797,26800,26793,26798
201909110423,26798,26798,26792,26792
201909110424,26792,26795,26791,26792
201909110425,26792,26797,26791,26793
201909110426,26793,26803,26793,26801
201909110427,26801,26804,26797,26798
201909110428,26798,26800,26797,26798
201909110429,26799,26805,26799,26805
201909110430,26806,26809,26803,26809
201909110431,26809,26817,26809,26812
201909110432,26812,26820,26812,26820
201909110433,26820,26821,26816,26817
201909110434,26816,26820,26815,26815
201909110435,26815,26819,26813,26816
201909110436,26816,26818,26814,26818
201909110437,26818,26820,26815,26818
201909110438,26817,26821,26817,26817
201909110439,26817,26819,26816,26816
201909110440,26816,26819,26815,26817
201909110441,26817,26821,26815,26820
201909110442,26820,26835,26818,26835
201909110443,26835,26838,26834,26834
201909110444,26834,26840,26834,26838
201909110445,26838,26840,26836,26840
201909110446,26840,26847,26840,26847
201909110447,26847,26848,26844,26844
201909110448,26844,26845,26842,26844
201909110449,26844,26845,26838,26840
201909110450,26839,26845,26838,26842
201909110451,26842,26843,26839,26841
201909110452,26841,26845,26840,26844
201909110453,26844,26845,26840,26842
201909110454,26842,26846,26840,26841
201909110455,26841,26871,26841,26861
201909110456,26861,26868,26860,26868
201909110457,26868,26871,26863,26870
201909110458,26870,26877,26867,26877
201909110459,26876,26907,26875,26907
201909110500,26907,26909,26886,26886
201909110501,26886,26896,26885,26891
201909110502,26890,26891,26886,26888
201909110503,26888,26891,26882,26884
201909110504,26885,26888,26882,26885
201909110505,26885,26887,26880,26885
201909110506,26885,26894,26885,26891
201909110507,26891,26893,26891,26892
201909110508,26892,26900,26892,26900
201909110509,26899,26899,26890,26891
201909110510,26891,26894,26888,26892
201909110511,26892,26900,26892,26898
201909110512,26899,26899,26894,26894
201909110513,26894,26896,26888,26888
201909110514,26888,26902,26885,26898
