日時,始値(BID),高値(BID),安値(BID),終値(BID)
201909230700,59.21,59.24,58.92,58.98
201909230701,58.98,59.11,58.98,59.01
201909230702,59.01,59.06,58.97,58.99
201909230703,58.99,59,58.84,58.9
201909230704,58.92,58.96,58.89,58.93
201909230705,58.93,58.96,58.87,58.87
201909230706,58.87,58.93,58.85,58.9
201909230707,58.89,58.97,58.89,58.9
201909230708,58.9,58.94,58.87,58.9
201909230709,58.9,58.92,58.88,58.89
201909230710,58.93,58.93,58.87,58.88
201909230711,58.88,58.9,58.87,58.89
201909230712,58.89,58.89,58.8,58.84
201909230713,58.84,58.84,58.79,58.82
201909230714,58.82,58.83,58.78,58.82
201909230715,58.82,58.86,58.82,58.85
201909230716,58.85,58.85,58.83,58.83
201909230717,58.83,58.84,58.8,58.81
201909230718,58.81,58.83,58.81,58.82
201909230719,58.82,58.83,58.81,58.82
201909230720,58.82,58.83,58.82,58.83
201909230721,58.83,58.83,58.81,58.81
201909230722,58.81,58.81,58.79,58.8
201909230723,58.8,58.83,58.79,58.81
201909230724,58.81,58.85,58.8,58.84
201909230725,58.84,58.85,58.82,58.82
201909230726,58.82,58.82,58.8,58.81
201909230727,58.81,58.86,58.81,58.86
201909230728,58.86,58.87,58.83,58.83
201909230729,58.83,58.84,58.82,58.84
201909230730,58.84,58.86,58.83,58.84
201909230731,58.84,58.85,58.83,58.84
201909230732,58.84,58.84,58.83,58.83
201909230733,58.83,58.83,58.81,58.82
201909230734,58.82,58.83,58.82,58.82
201909230735,58.82,58.82,58.79,58.8
201909230736,58.8,58.82,58.8,58.81
201909230737,58.81,58.81,58.8,58.81
201909230738,58.81,58.81,58.79,58.8
201909230739,58.8,58.82,58.8,58.82
201909230740,58.82,58.82,58.81,58.81
201909230741,58.81,58.81,58.81,58.81
201909230742,58.81,58.81,58.73,58.75
201909230743,58.75,58.75,58.7,58.7
201909230744,58.7,58.74,58.69,58.73
201909230745,58.73,58.76,58.72,58.75
201909230746,58.75,58.77,58.74,58.76
201909230747,58.76,58.78,58.76,58.78
201909230748,58.78,58.8,58.77,58.8
201909230749,58.8,58.8,58.76,58.78
201909230750,58.78,58.79,58.75,58.76
201909230751,58.76,58.77,58.76,58.76
201909230752,58.76,58.76,58.75,58.76
201909230753,58.76,58.76,58.74,58.75
201909230754,58.75,58.75,58.73,58.74
201909230755,58.74,58.76,58.73,58.76
201909230756,58.76,58.76,58.75,58.76
201909230757,58.76,58.77,58.76,58.77
201909230758,58.77,58.77,58.76,58.76
201909230759,58.76,58.76,58.72,58.73
201909230800,58.73,58.77,58.73,58.76
201909230801,58.76,58.76,58.75,58.76
201909230802,58.76,58.77,58.73,58.76
201909230803,58.76,58.77,58.75,58.77
201909230804,58.77,58.78,58.75,58.76
201909230805,58.76,58.77,58.76,58.77
201909230806,58.77,58.79,58.77,58.77
201909230807,58.77,58.78,58.77,58.78
201909230808,58.78,58.79,58.78,58.78
201909230809,58.78,58.78,58.77,58.77
201909230810,58.77,58.79,58.77,58.77
201909230811,58.77,58.77,58.77,58.77
201909230812,58.77,58.78,58.77,58.77
201909230813,58.77,58.77,58.76,58.76
201909230814,58.76,58.77,58.75,58.77
201909230815,58.77,58.78,58.77,58.78
201909230816,58.78,58.78,58.76,58.77
201909230817,58.77,58.77,58.77,58.77
201909230818,58.77,58.77,58.77,58.77
201909230819,58.77,58.77,58.77,58.77
201909230820,58.77,58.77,58.77,58.77
201909230821,58.77,58.77,58.77,58.77
201909230822,58.77,58.77,58.76,58.77
201909230823,58.77,58.77,58.77,58.77
201909230824,58.77,58.77,58.77,58.77
201909230825,58.77,58.79,58.77,58.77
201909230826,58.77,58.77,58.77,58.77
201909230827,58.77,58.78,58.77,58.77
201909230828,58.77,58.77,58.77,58.77
201909230829,58.77,58.77,58.75,58.76
201909230830,58.76,58.76,58.75,58.76
201909230831,58.76,58.76,58.71,58.72
201909230832,58.72,58.73,58.72,58.72
201909230833,58.73,58.73,58.72,58.72
201909230834,58.72,58.73,58.71,58.71
201909230835,58.71,58.72,58.7,58.71
201909230836,58.71,58.72,58.71,58.71
201909230837,58.71,58.71,58.7,58.71
201909230838,58.71,58.73,58.71,58.73
201909230839,58.73,58.73,58.72,58.73
201909230840,58.73,58.73,58.72,58.73
201909230841,58.73,58.75,58.73,58.75
201909230842,58.75,58.75,58.73,58.73
201909230843,58.73,58.73,58.73,58.73
201909230844,58.73,58.74,58.73,58.74
201909230845,58.74,58.74,58.73,58.73
201909230846,58.73,58.73,58.72,58.72
201909230847,58.72,58.72,58.7,58.71
201909230848,58.71,58.71,58.7,58.71
201909230849,58.71,58.72,58.71,58.72
201909230850,58.72,58.73,58.72,58.73
201909230851,58.73,58.73,58.72,58.73
201909230852,58.73,58.74,58.72,58.73
201909230853,58.73,58.73,58.72,58.73
201909230854,58.73,58.73,58.7,58.71
201909230855,58.71,58.72,58.7,58.71
201909230856,58.71,58.71,58.69,58.7
201909230857,58.7,58.7,58.69,58.7
201909230858,58.7,58.7,58.69,58.69
201909230859,58.69,58.69,58.64,58.67
201909230900,58.67,58.68,58.66,58.67
201909230901,58.67,58.67,58.65,58.65
201909230902,58.65,58.68,58.65,58.68
201909230903,58.68,58.69,58.67,58.68
201909230904,58.68,58.68,58.66,58.67
201909230905,58.67,58.67,58.67,58.67
201909230906,58.67,58.69,58.67,58.68
201909230907,58.68,58.69,58.67,58.69
201909230908,58.69,58.69,58.68,58.68
201909230909,58.68,58.69,58.68,58.69
201909230910,58.69,58.69,58.66,58.69
201909230911,58.69,58.72,58.69,58.71
201909230912,58.71,58.73,58.71,58.72
201909230913,58.72,58.73,58.71,58.72
201909230914,58.72,58.73,58.71,58.72
201909230915,58.72,58.73,58.7,58.71
201909230916,58.71,58.73,58.71,58.72
201909230917,58.72,58.72,58.7,58.71
201909230918,58.71,58.71,58.7,58.71
201909230919,58.71,58.71,58.7,58.71
201909230920,58.71,58.72,58.71,58.72
201909230921,58.72,58.72,58.72,58.72
201909230922,58.72,58.74,58.72,58.74
201909230923,58.74,58.74,58.73,58.73
201909230924,58.73,58.74,58.72,58.74
201909230925,58.74,58.74,58.74,58.74
201909230926,58.74,58.75,58.74,58.75
201909230927,58.75,58.75,58.74,58.74
201909230928,58.74,58.74,58.74,58.74
201909230929,58.74,58.75,58.72,58.73
201909230930,58.73,58.74,58.73,58.74
201909230931,58.74,58.74,58.73,58.73
201909230932,58.73,58.74,58.69,58.7
201909230933,58.7,58.7,58.69,58.69
201909230934,58.69,58.7,58.69,58.7
201909230935,58.7,58.7,58.69,58.69
201909230936,58.69,58.71,58.69,58.7
201909230937,58.7,58.72,58.7,58.72
201909230938,58.72,58.73,58.72,58.73
201909230939,58.73,58.74,58.72,58.73
201909230940,58.73,58.73,58.72,58.73
201909230941,58.73,58.74,58.73,58.73
201909230942,58.73,58.74,58.73,58.73
201909230943,58.73,58.74,58.73,58.74
201909230944,58.74,58.74,58.74,58.74
201909230945,58.74,58.74,58.73,58.73
201909230946,58.73,58.74,58.73,58.74
201909230947,58.74,58.74,58.73,58.73
201909230948,58.73,58.73,58.72,58.73
201909230949,58.73,58.73,58.72,58.73
201909230950,58.73,58.74,58.73,58.74
201909230951,58.74,58.76,58.73,58.75
201909230952,58.75,58.75,58.74,58.74
201909230953,58.74,58.75,58.74,58.75
201909230954,58.75,58.76,58.74,58.75
201909230955,58.75,58.75,58.75,58.75
201909230956,58.75,58.76,58.75,58.75
201909230957,58.75,58.75,58.75,58.75
201909230958,58.75,58.76,58.74,58.75
201909230959,58.75,58.76,58.74,58.75
201909231000,58.75,58.78,58.75,58.76
201909231001,58.76,58.77,58.72,58.73
201909231002,58.73,58.73,58.69,58.73
201909231003,58.73,58.74,58.72,58.72
201909231004,58.72,58.72,58.7,58.72
201909231005,58.72,58.75,58.72,58.75
201909231006,58.75,58.75,58.73,58.75
201909231007,58.75,58.76,58.73,58.76
201909231008,58.76,58.77,58.75,58.76
201909231009,58.76,58.78,58.76,58.77
201909231010,58.77,58.78,58.76,58.76
201909231011,58.76,58.77,58.75,58.77
201909231012,58.77,58.77,58.77,58.77
201909231013,58.77,58.78,58.76,58.76
201909231014,58.76,58.76,58.74,58.75
201909231015,58.75,58.77,58.75,58.76
201909231016,58.76,58.76,58.75,58.76
201909231017,58.76,58.8,58.76,58.8
201909231018,58.8,58.83,58.79,58.82
201909231019,58.82,58.85,58.81,58.82
201909231020,58.82,58.83,58.81,58.83
201909231021,58.82,58.83,58.82,58.82
201909231022,58.82,58.83,58.82,58.82
201909231023,58.82,58.83,58.82,58.83
201909231024,58.83,58.84,58.83,58.84
201909231025,58.84,58.85,58.84,58.84
201909231026,58.84,58.84,58.83,58.84
201909231027,58.84,58.85,58.84,58.84
201909231028,58.84,58.84,58.81,58.81
201909231029,58.81,58.82,58.81,58.81
201909231030,58.81,58.81,58.79,58.8
201909231031,58.8,58.81,58.78,58.78
201909231032,58.78,58.78,58.77,58.77
201909231033,58.77,58.77,58.76,58.77
201909231034,58.77,58.79,58.77,58.77
201909231035,58.77,58.79,58.77,58.79
201909231036,58.79,58.79,58.77,58.77
201909231037,58.77,58.78,58.77,58.77
201909231038,58.77,58.77,58.76,58.77
201909231039,58.77,58.8,58.77,58.79
201909231040,58.79,58.79,58.76,58.77
201909231041,58.77,58.79,58.77,58.78
201909231042,58.78,58.79,58.78,58.78
201909231043,58.78,58.79,58.78,58.78
201909231044,58.78,58.79,58.78,58.79
201909231045,58.79,58.79,58.77,58.77
201909231046,58.77,58.79,58.77,58.78
201909231047,58.78,58.78,58.77,58.77
201909231048,58.77,58.78,58.77,58.78
201909231049,58.78,58.78,58.78,58.78
201909231050,58.78,58.79,58.76,58.77
201909231051,58.77,58.78,58.76,58.77
201909231052,58.77,58.77,58.76,58.76
201909231053,58.76,58.76,58.74,58.74
201909231054,58.74,58.75,58.72,58.73
201909231055,58.73,58.73,58.69,58.71
201909231056,58.71,58.71,58.69,58.71
201909231057,58.71,58.72,58.7,58.71
201909231058,58.71,58.71,58.7,58.7
201909231059,58.7,58.71,58.67,58.67
201909231100,58.67,58.67,58.66,58.66
201909231101,58.66,58.66,58.6,58.6
201909231102,58.6,58.6,58.55,58.58
201909231103,58.58,58.6,58.57,58.6
201909231104,58.6,58.61,58.59,58.6
201909231105,58.6,58.62,58.59,58.62
201909231106,58.62,58.64,58.62,58.63
201909231107,58.63,58.63,58.6,58.6
201909231108,58.6,58.61,58.59,58.61
201909231109,58.61,58.61,58.6,58.6
201909231110,58.6,58.61,58.6,58.61
201909231111,58.61,58.62,58.61,58.62
201909231112,58.62,58.62,58.6,58.61
201909231113,58.61,58.61,58.57,58.58
201909231114,58.58,58.61,58.58,58.6
201909231115,58.6,58.6,58.58,58.59
201909231116,58.59,58.59,58.57,58.58
201909231117,58.58,58.59,58.58,58.58
201909231118,58.58,58.59,58.57,58.59
201909231119,58.59,58.59,58.58,58.59
201909231120,58.59,58.61,58.59,58.6
201909231121,58.6,58.62,58.6,58.62
201909231122,58.62,58.63,58.62,58.62
201909231123,58.62,58.63,58.62,58.62
201909231124,58.62,58.64,58.61,58.64
201909231125,58.64,58.64,58.62,58.63
201909231126,58.63,58.63,58.62,58.62
201909231127,58.62,58.63,58.62,58.63
201909231128,58.63,58.66,58.63,58.66
201909231129,58.66,58.66,58.64,58.65
201909231130,58.65,58.65,58.6,58.62
201909231131,58.62,58.62,58.62,58.62
201909231132,58.62,58.62,58.59,58.62
201909231133,58.62,58.62,58.59,58.6
201909231134,58.6,58.61,58.59,58.6
201909231135,58.6,58.61,58.59,58.61
201909231136,58.61,58.61,58.6,58.61
201909231137,58.61,58.61,58.6,58.61
201909231138,58.61,58.61,58.58,58.61
201909231139,58.61,58.61,58.59,58.59
201909231140,58.59,58.6,58.59,58.6
201909231141,58.6,58.6,58.58,58.59
201909231142,58.59,58.61,58.59,58.6
201909231143,58.6,58.62,58.6,58.62
201909231144,58.62,58.63,58.62,58.63
201909231145,58.63,58.63,58.62,58.63
201909231146,58.63,58.65,58.62,58.63
201909231147,58.63,58.63,58.6,58.6
201909231148,58.6,58.63,58.6,58.63
201909231149,58.63,58.64,58.63,58.64
201909231150,58.64,58.64,58.63,58.64
201909231151,58.64,58.65,58.63,58.64
201909231152,58.64,58.64,58.63,58.63
201909231153,58.63,58.64,58.63,58.63
201909231154,58.63,58.63,58.62,58.63
201909231155,58.63,58.63,58.62,58.63
201909231156,58.63,58.63,58.62,58.62
201909231157,58.62,58.62,58.61,58.62
201909231158,58.62,58.63,58.62,58.62
201909231159,58.62,58.64,58.62,58.63
201909231200,58.63,58.64,58.62,58.63
201909231201,58.63,58.64,58.62,58.62
201909231202,58.62,58.62,58.62,58.62
201909231203,58.62,58.62,58.62,58.62
201909231204,58.62,58.63,58.62,58.63
201909231205,58.63,58.63,58.61,58.61
201909231206,58.61,58.61,58.58,58.59
201909231207,58.59,58.61,58.59,58.6
201909231208,58.6,58.62,58.6,58.62
201909231209,58.62,58.63,58.62,58.63
201909231210,58.63,58.63,58.63,58.63
201909231211,58.63,58.63,58.63,58.63
201909231212,58.63,58.66,58.62,58.66
201909231213,58.66,58.68,58.64,58.66
201909231214,58.66,58.68,58.66,58.68
201909231215,58.68,58.68,58.66,58.66
201909231216,58.66,58.67,58.66,58.66
201909231217,58.66,58.66,58.65,58.66
201909231218,58.66,58.67,58.66,58.67
201909231219,58.67,58.68,58.67,58.68
201909231220,58.68,58.68,58.65,58.65
201909231221,58.65,58.65,58.64,58.65
201909231222,58.65,58.65,58.64,58.64
201909231223,58.64,58.65,58.64,58.65
201909231224,58.65,58.65,58.65,58.65
201909231225,58.65,58.67,58.65,58.65
201909231226,58.65,58.65,58.64,58.65
201909231227,58.65,58.65,58.64,58.64
201909231228,58.64,58.67,58.64,58.67
201909231229,58.67,58.67,58.66,58.66
201909231230,58.66,58.67,58.66,58.67
201909231231,58.67,58.68,58.65,58.65
201909231232,58.65,58.68,58.65,58.68
201909231233,58.68,58.68,58.67,58.67
201909231234,58.67,58.68,58.67,58.68
201909231235,58.68,58.68,58.68,58.68
201909231236,58.68,58.68,58.68,58.68
201909231237,58.68,58.69,58.68,58.68
201909231238,58.68,58.69,58.68,58.68
201909231239,58.68,58.68,58.67,58.67
201909231240,58.67,58.68,58.66,58.68
201909231241,58.68,58.68,58.68,58.68
201909231242,58.68,58.7,58.68,58.69
201909231243,58.69,58.69,58.68,58.68
201909231244,58.68,58.68,58.67,58.68
201909231245,58.68,58.68,58.67,58.68
201909231246,58.68,58.69,58.68,58.69
201909231247,58.69,58.69,58.66,58.66
201909231248,58.66,58.68,58.66,58.67
201909231249,58.67,58.67,58.65,58.65
201909231250,58.65,58.66,58.64,58.65
201909231251,58.65,58.65,58.64,58.65
201909231252,58.65,58.66,58.65,58.65
201909231253,58.65,58.67,58.65,58.67
201909231254,58.67,58.67,58.67,58.67
201909231255,58.67,58.68,58.67,58.68
201909231256,58.68,58.68,58.67,58.68
201909231257,58.68,58.68,58.68,58.68
201909231258,58.68,58.69,58.67,58.68
201909231259,58.68,58.68,58.67,58.67
201909231300,58.67,58.68,58.67,58.67
201909231301,58.67,58.68,58.67,58.67
201909231302,58.67,58.68,58.67,58.68
201909231303,58.68,58.68,58.68,58.68
201909231304,58.68,58.68,58.68,58.68
201909231305,58.68,58.69,58.68,58.68
201909231306,58.68,58.69,58.68,58.69
201909231307,58.69,58.69,58.69,58.69
201909231308,58.69,58.69,58.68,58.68
201909231309,58.68,58.68,58.68,58.68
201909231310,58.68,58.68,58.68,58.68
201909231311,58.68,58.69,58.67,58.69
201909231312,58.69,58.69,58.68,58.68
201909231313,58.68,58.68,58.66,58.66
201909231314,58.66,58.67,58.66,58.67
201909231315,58.67,58.67,58.66,58.67
201909231316,58.67,58.67,58.67,58.67
201909231317,58.67,58.67,58.66,58.67
201909231318,58.67,58.68,58.67,58.67
201909231319,58.67,58.67,58.67,58.67
201909231320,58.67,58.68,58.67,58.67
201909231321,58.67,58.68,58.67,58.67
201909231322,58.67,58.69,58.67,58.69
201909231323,58.69,58.69,58.69,58.69
201909231324,58.69,58.69,58.68,58.69
201909231325,58.69,58.69,58.68,58.68
201909231326,58.68,58.68,58.68,58.68
201909231327,58.68,58.68,58.67,58.67
201909231328,58.67,58.68,58.67,58.68
201909231329,58.68,58.68,58.67,58.67
201909231330,58.67,58.68,58.67,58.67
201909231331,58.67,58.68,58.67,58.68
201909231332,58.68,58.68,58.67,58.68
201909231333,58.68,58.68,58.67,58.68
201909231334,58.68,58.68,58.68,58.68
201909231335,58.68,58.68,58.68,58.68
201909231336,58.68,58.69,58.68,58.68
201909231337,58.68,58.68,58.68,58.68
201909231338,58.68,58.71,58.68,58.7
201909231339,58.7,58.7,58.7,58.7
201909231340,58.7,58.72,58.7,58.72
201909231341,58.72,58.72,58.71,58.72
201909231342,58.72,58.73,58.72,58.72
201909231343,58.72,58.72,58.7,58.7
201909231344,58.7,58.71,58.7,58.71
201909231345,58.71,58.73,58.71,58.73
201909231346,58.73,58.73,58.73,58.73
201909231347,58.73,58.73,58.73,58.73
201909231348,58.73,58.73,58.72,58.73
201909231349,58.73,58.73,58.73,58.73
201909231350,58.73,58.73,58.73,58.73
201909231351,58.73,58.73,58.72,58.73
201909231352,58.73,58.73,58.73,58.73
201909231353,58.73,58.73,58.72,58.72
201909231354,58.72,58.73,58.72,58.72
201909231355,58.72,58.72,58.72,58.72
201909231356,58.72,58.72,58.72,58.72
201909231357,58.72,58.76,58.72,58.75
201909231358,58.75,58.75,58.74,58.74
201909231359,58.74,58.74,58.73,58.74
201909231400,58.74,58.74,58.73,58.73
201909231401,58.73,58.73,58.73,58.73
201909231402,58.73,58.75,58.73,58.74
201909231403,58.74,58.75,58.74,58.75
201909231404,58.75,58.75,58.74,58.75
201909231405,58.75,58.76,58.75,58.75
201909231406,58.75,58.75,58.74,58.74
201909231407,58.74,58.74,58.73,58.73
201909231408,58.73,58.73,58.72,58.72
201909231409,58.72,58.72,58.72,58.72
201909231410,58.72,58.73,58.72,58.72
201909231411,58.72,58.72,58.72,58.72
201909231412,58.72,58.72,58.72,58.72
201909231413,58.72,58.72,58.71,58.71
201909231414,58.71,58.71,58.71,58.71
201909231415,58.71,58.71,58.71,58.71
201909231416,58.71,58.71,58.7,58.71
201909231417,58.71,58.71,58.67,58.68
201909231418,58.68,58.68,58.67,58.68
201909231419,58.68,58.68,58.68,58.68
201909231420,58.68,58.68,58.67,58.67
201909231421,58.67,58.68,58.66,58.68
201909231422,58.68,58.68,58.68,58.68
201909231423,58.68,58.69,58.68,58.69
201909231424,58.69,58.69,58.68,58.68
201909231425,58.68,58.68,58.68,58.68
201909231426,58.68,58.69,58.68,58.69
201909231427,58.69,58.7,58.69,58.69
201909231428,58.69,58.69,58.69,58.69
201909231429,58.69,58.69,58.69,58.69
201909231430,58.69,58.7,58.69,58.69
201909231431,58.69,58.69,58.69,58.69
201909231432,58.69,58.69,58.67,58.67
201909231433,58.67,58.67,58.67,58.67
201909231434,58.67,58.67,58.67,58.67
201909231435,58.67,58.69,58.67,58.68
201909231436,58.68,58.69,58.68,58.69
201909231437,58.69,58.7,58.69,58.69
201909231438,58.69,58.72,58.69,58.72
201909231439,58.72,58.72,58.69,58.7
201909231440,58.7,58.71,58.69,58.7
201909231441,58.7,58.75,58.7,58.74
201909231442,58.74,58.75,58.74,58.74
201909231443,58.74,58.74,58.73,58.73
201909231444,58.73,58.76,58.72,58.76
201909231445,58.76,58.79,58.75,58.78
201909231446,58.78,58.78,58.77,58.77
201909231447,58.77,58.77,58.76,58.76
201909231448,58.76,58.76,58.74,58.75
201909231449,58.75,58.76,58.75,58.76
201909231450,58.76,58.77,58.74,58.75
201909231451,58.75,58.77,58.75,58.77
201909231452,58.77,58.78,58.76,58.77
201909231453,58.77,58.77,58.76,58.76
201909231454,58.76,58.77,58.76,58.77
201909231455,58.77,58.77,58.77,58.77
201909231456,58.77,58.77,58.76,58.77
201909231457,58.77,58.77,58.77,58.77
201909231458,58.77,58.77,58.77,58.77
201909231459,58.77,58.77,58.76,58.77
201909231500,58.77,58.78,58.77,58.78
201909231501,58.78,58.78,58.75,58.75
201909231502,58.75,58.76,58.75,58.75
201909231503,58.75,58.75,58.75,58.75
201909231504,58.75,58.75,58.74,58.74
201909231505,58.74,58.74,58.72,58.72
201909231506,58.72,58.73,58.72,58.73
201909231507,58.73,58.74,58.73,58.74
201909231508,58.74,58.74,58.73,58.73
201909231509,58.73,58.74,58.73,58.74
201909231510,58.74,58.76,58.74,58.75
201909231511,58.75,58.76,58.75,58.75
201909231512,58.75,58.75,58.74,58.74
201909231513,58.74,58.74,58.72,58.72
201909231514,58.72,58.74,58.72,58.73
201909231515,58.73,58.73,58.72,58.73
201909231516,58.73,58.73,58.72,58.72
201909231517,58.72,58.73,58.69,58.72
201909231518,58.72,58.72,58.7,58.71
201909231519,58.71,58.71,58.7,58.7
201909231520,58.7,58.7,58.68,58.68
201909231521,58.69,58.69,58.67,58.68
201909231522,58.68,58.69,58.66,58.68
201909231523,58.68,58.7,58.67,58.7
201909231524,58.7,58.7,58.69,58.7
201909231525,58.7,58.71,58.69,58.71
201909231526,58.71,58.73,58.71,58.73
201909231527,58.73,58.74,58.71,58.72
201909231528,58.72,58.72,58.7,58.7
201909231529,58.7,58.71,58.7,58.71
201909231530,58.71,58.71,58.69,58.69
201909231531,58.69,58.71,58.69,58.7
201909231532,58.7,58.71,58.7,58.7
201909231533,58.7,58.7,58.68,58.69
201909231534,58.69,58.69,58.69,58.69
201909231535,58.69,58.69,58.68,58.69
201909231536,58.69,58.7,58.69,58.7
201909231537,58.7,58.72,58.7,58.72
201909231538,58.72,58.72,58.71,58.72
201909231539,58.72,58.74,58.72,58.74
201909231540,58.74,58.75,58.73,58.73
201909231541,58.73,58.74,58.73,58.74
201909231542,58.74,58.75,58.73,58.73
201909231543,58.73,58.74,58.7,58.7
201909231544,58.7,58.71,58.7,58.71
201909231545,58.71,58.73,58.71,58.73
201909231546,58.73,58.73,58.72,58.72
201909231547,58.72,58.73,58.7,58.7
201909231548,58.7,58.7,58.69,58.7
201909231549,58.7,58.7,58.66,58.67
201909231550,58.67,58.68,58.67,58.68
201909231551,58.68,58.68,58.63,58.65
201909231552,58.65,58.66,58.63,58.66
201909231553,58.66,58.69,58.64,58.69
201909231554,58.69,58.7,58.68,58.68
201909231555,58.68,58.69,58.66,58.66
201909231556,58.66,58.68,58.65,58.66
201909231557,58.66,58.67,58.65,58.66
201909231558,58.66,58.67,58.65,58.66
201909231559,58.66,58.66,58.64,58.64
201909231600,58.64,58.66,58.63,58.65
201909231601,58.65,58.68,58.65,58.68
201909231602,58.68,58.7,58.67,58.67
201909231603,58.67,58.67,58.64,58.65
201909231604,58.65,58.65,58.63,58.65
201909231605,58.65,58.68,58.65,58.67
201909231606,58.67,58.69,58.66,58.66
201909231607,58.66,58.67,58.65,58.67
201909231608,58.67,58.68,58.67,58.67
201909231609,58.67,58.67,58.65,58.65
201909231610,58.65,58.68,58.64,58.67
201909231611,58.67,58.68,58.66,58.67
201909231612,58.67,58.68,58.64,58.64
201909231613,58.64,58.64,58.62,58.64
201909231614,58.64,58.65,58.63,58.64
201909231615,58.65,58.66,58.6,58.65
201909231616,58.65,58.67,58.64,58.65
201909231617,58.65,58.65,58.59,58.6
201909231618,58.6,58.6,58.56,58.59
201909231619,58.59,58.61,58.59,58.61
201909231620,58.61,58.63,58.6,58.63
201909231621,58.63,58.68,58.63,58.65
201909231622,58.65,58.65,58.62,58.64
201909231623,58.64,58.66,58.63,58.65
201909231624,58.65,58.67,58.65,58.67
201909231625,58.67,58.69,58.67,58.68
201909231626,58.68,58.69,58.66,58.67
201909231627,58.67,58.68,58.67,58.68
201909231628,58.68,58.7,58.67,58.68
201909231629,58.68,58.7,58.66,58.69
201909231630,58.69,58.7,58.65,58.69
201909231631,58.69,58.72,58.69,58.7
201909231632,58.7,58.7,58.59,58.62
201909231633,58.62,58.62,58.54,58.58
201909231634,58.58,58.58,58.51,58.54
201909231635,58.54,58.59,58.54,58.58
201909231636,58.58,58.59,58.56,58.57
201909231637,58.57,58.57,58.53,58.54
201909231638,58.54,58.55,58.51,58.54
201909231639,58.54,58.55,58.51,58.51
201909231640,58.51,58.51,58.48,58.48
201909231641,58.48,58.49,58.43,58.48
201909231642,58.48,58.53,58.47,58.51
201909231643,58.51,58.51,58.47,58.49
201909231644,58.49,58.5,58.46,58.48
201909231645,58.48,58.48,58.44,58.44
201909231646,58.44,58.47,58.44,58.47
201909231647,58.47,58.52,58.47,58.51
201909231648,58.51,58.52,58.5,58.52
201909231649,58.52,58.52,58.48,58.49
201909231650,58.49,58.5,58.46,58.46
201909231651,58.46,58.48,58.46,58.46
201909231652,58.46,58.47,58.45,58.45
201909231653,58.45,58.45,58.4,58.4
201909231654,58.4,58.45,58.4,58.45
201909231655,58.45,58.47,58.42,58.42
201909231656,58.42,58.43,58.39,58.4
201909231657,58.4,58.42,58.39,58.41
201909231658,58.41,58.45,58.41,58.43
201909231659,58.43,58.44,58.39,58.4
201909231700,58.4,58.43,58.4,58.43
201909231701,58.43,58.44,58.41,58.42
201909231702,58.42,58.45,58.4,58.44
201909231703,58.44,58.45,58.43,58.44
201909231704,58.44,58.46,58.41,58.43
201909231705,58.43,58.44,58.35,58.37
201909231706,58.37,58.4,58.37,58.38
201909231707,58.38,58.41,58.36,58.38
201909231708,58.38,58.39,58.31,58.36
201909231709,58.36,58.4,58.34,58.4
201909231710,58.4,58.41,58.38,58.39
201909231711,58.39,58.44,58.39,58.44
201909231712,58.44,58.44,58.38,58.39
201909231713,58.39,58.4,58.38,58.39
201909231714,58.39,58.39,58.36,58.37
201909231715,58.37,58.37,58.33,58.34
201909231716,58.34,58.35,58.32,58.34
201909231717,58.34,58.37,58.32,58.34
201909231718,58.34,58.34,58.27,58.27
201909231719,58.27,58.31,58.27,58.29
201909231720,58.29,58.29,58.24,58.27
201909231721,58.27,58.29,58.26,58.28
201909231722,58.28,58.33,58.28,58.31
201909231723,58.31,58.31,58.25,58.27
201909231724,58.27,58.27,58.21,58.25
201909231725,58.25,58.3,58.25,58.29
201909231726,58.29,58.31,58.26,58.27
201909231727,58.27,58.27,58.21,58.21
201909231728,58.21,58.22,58.16,58.17
201909231729,58.17,58.18,58.1,58.15
201909231730,58.15,58.26,58.15,58.25
201909231731,58.25,58.26,58.19,58.21
201909231732,58.21,58.22,58.17,58.21
201909231733,58.21,58.25,58.21,58.22
201909231734,58.22,58.24,58.22,58.23
201909231735,58.23,58.25,58.2,58.24
201909231736,58.24,58.25,58.21,58.21
201909231737,58.21,58.23,58.2,58.23
201909231738,58.23,58.25,58.22,58.24
201909231739,58.24,58.28,58.23,58.28
201909231740,58.28,58.3,58.27,58.29
201909231741,58.29,58.3,58.28,58.29
201909231742,58.29,58.31,58.29,58.29
201909231743,58.29,58.29,58.26,58.26
201909231744,58.26,58.31,58.26,58.3
201909231745,58.3,58.34,58.3,58.33
201909231746,58.33,58.35,58.33,58.35
201909231747,58.35,58.37,58.32,58.35
201909231748,58.35,58.35,58.32,58.32
201909231749,58.32,58.34,58.32,58.32
201909231750,58.32,58.36,58.31,58.35
201909231751,58.35,58.35,58.32,58.33
201909231752,58.33,58.33,58.31,58.32
201909231753,58.32,58.35,58.3,58.35
201909231754,58.35,58.35,58.32,58.33
201909231755,58.33,58.33,58.3,58.31
201909231756,58.31,58.34,58.31,58.33
201909231757,58.33,58.38,58.33,58.37
201909231758,58.37,58.41,58.37,58.39
201909231759,58.39,58.39,58.36,58.37
201909231800,58.37,58.41,58.37,58.39
201909231801,58.39,58.4,58.36,58.39
201909231802,58.39,58.4,58.36,58.36
201909231803,58.36,58.39,58.35,58.39
201909231804,58.39,58.39,58.36,58.37
201909231805,58.37,58.38,58.35,58.38
201909231806,58.38,58.41,58.23,58.25
201909231807,58.25,58.34,58.21,58.33
201909231808,58.33,58.33,58.26,58.26
201909231809,58.26,58.29,58.25,58.27
201909231810,58.27,58.35,58.27,58.32
201909231811,58.32,58.36,58.32,58.35
201909231812,58.35,58.35,58.3,58.3
201909231813,58.3,58.31,58.28,58.29
201909231814,58.29,58.31,58.28,58.3
201909231815,58.3,58.33,58.29,58.32
201909231816,58.32,58.36,58.32,58.35
201909231817,58.35,58.37,58.29,58.29
201909231818,58.29,58.34,58.24,58.26
201909231819,58.26,58.27,58.22,58.23
201909231820,58.23,58.25,58.22,58.23
201909231821,58.23,58.25,58.23,58.24
201909231822,58.24,58.24,58.19,58.2
201909231823,58.2,58.21,58.19,58.2
201909231824,58.2,58.2,58.16,58.16
201909231825,58.16,58.19,58.12,58.18
201909231826,58.18,58.2,58.17,58.18
201909231827,58.18,58.2,58.17,58.19
201909231828,58.19,58.2,58.18,58.18
201909231829,58.18,58.2,58.16,58.16
201909231830,58.14,58.16,58.1,58.14
201909231831,58.14,58.15,57.69,57.73
201909231832,57.73,57.79,57.67,57.71
201909231833,57.71,57.75,57.69,57.74
201909231834,57.74,57.75,57.38,57.45
201909231835,57.45,57.48,57.39,57.46
201909231836,57.47,57.53,57.46,57.5
201909231837,57.5,57.54,57.49,57.53
201909231838,57.53,57.56,57.52,57.54
201909231839,57.54,57.55,57.49,57.52
201909231840,57.52,57.59,57.52,57.59
201909231841,57.59,57.61,57.56,57.6
201909231842,57.59,57.61,57.58,57.61
201909231843,57.61,57.66,57.61,57.65
201909231844,57.65,57.71,57.65,57.69
201909231845,57.69,57.69,57.64,57.65
201909231846,57.65,57.71,57.65,57.69
201909231847,57.69,57.7,57.66,57.67
201909231848,57.67,57.71,57.67,57.69
201909231849,57.69,57.71,57.67,57.7
201909231850,57.7,57.71,57.69,57.7
201909231851,57.7,57.75,57.69,57.7
201909231852,57.7,57.73,57.67,57.67
201909231853,57.67,57.71,57.66,57.7
201909231854,57.7,57.7,57.66,57.66
201909231855,57.66,57.7,57.65,57.66
201909231856,57.66,57.69,57.66,57.66
201909231857,57.66,57.69,57.66,57.67
201909231858,57.67,57.68,57.67,57.68
201909231859,57.68,57.73,57.68,57.72
201909231900,57.72,57.74,57.7,57.7
201909231901,57.7,57.73,57.7,57.73
201909231902,57.73,57.76,57.73,57.75
201909231903,57.75,57.76,57.73,57.76
201909231904,57.76,57.77,57.73,57.77
201909231905,57.77,57.79,57.75,57.77
201909231906,57.77,57.77,57.74,57.74
201909231907,57.74,57.79,57.74,57.78
201909231908,57.78,57.8,57.77,57.77
201909231909,57.77,57.79,57.77,57.79
201909231910,57.79,57.8,57.78,57.79
201909231911,57.79,57.82,57.78,57.79
201909231912,57.79,57.79,57.74,57.76
201909231913,57.76,57.77,57.72,57.74
201909231914,57.74,57.77,57.72,57.76
201909231915,57.76,57.76,57.74,57.75
201909231916,57.75,57.76,57.74,57.76
201909231917,57.76,57.8,57.75,57.8
201909231918,57.8,57.84,57.79,57.83
201909231919,57.83,57.83,57.8,57.8
201909231920,57.8,57.83,57.78,57.8
201909231921,57.8,57.8,57.77,57.78
201909231922,57.78,57.79,57.77,57.77
201909231923,57.77,57.78,57.76,57.77
201909231924,57.77,57.78,57.77,57.77
201909231925,57.77,57.81,57.77,57.8
201909231926,57.8,57.8,57.78,57.78
201909231927,57.78,57.81,57.78,57.81
201909231928,57.81,57.82,57.79,57.8
201909231929,57.8,57.81,57.8,57.8
201909231930,57.8,57.82,57.79,57.79
201909231931,57.79,57.81,57.78,57.78
201909231932,57.78,57.78,57.73,57.73
201909231933,57.73,57.74,57.71,57.71
201909231934,57.71,57.71,57.69,57.69
201909231935,57.69,57.73,57.69,57.73
201909231936,57.73,57.74,57.73,57.73
201909231937,57.73,57.73,57.68,57.68
201909231938,57.68,57.7,57.66,57.67
201909231939,57.67,57.72,57.67,57.71
201909231940,57.71,57.71,57.69,57.71
201909231941,57.71,57.74,57.71,57.74
201909231942,57.74,57.76,57.73,57.75
201909231943,57.75,57.75,57.73,57.74
201909231944,57.74,57.75,57.73,57.74
201909231945,57.74,57.74,57.72,57.72
201909231946,57.72,57.73,57.71,57.73
201909231947,57.73,57.74,57.71,57.73
201909231948,57.73,57.77,57.73,57.74
201909231949,57.73,57.75,57.73,57.73
201909231950,57.73,57.77,57.72,57.76
201909231951,57.76,57.76,57.75,57.76
201909231952,57.76,57.78,57.74,57.77
201909231953,57.77,57.79,57.76,57.78
201909231954,57.78,57.81,57.78,57.8
201909231955,57.8,57.8,57.75,57.76
201909231956,57.76,57.77,57.75,57.76
201909231957,57.76,57.84,57.76,57.84
201909231958,57.84,57.88,57.84,57.87
201909231959,57.87,57.9,57.86,57.87
201909232000,57.87,57.88,57.86,57.87
201909232001,57.87,57.88,57.85,57.86
201909232002,57.86,57.88,57.85,57.85
201909232003,57.85,57.87,57.82,57.82
201909232004,57.82,57.85,57.8,57.84
201909232005,57.84,57.88,57.84,57.86
201909232006,57.86,57.87,57.85,57.86
201909232007,57.86,57.86,57.83,57.84
201909232008,57.85,57.86,57.82,57.86
201909232009,57.86,57.9,57.85,57.89
201909232010,57.89,57.9,57.89,57.89
201909232011,57.89,57.89,57.86,57.87
201909232012,57.87,57.88,57.85,57.86
201909232013,57.86,57.87,57.85,57.86
201909232014,57.86,57.87,57.84,57.87
201909232015,57.87,57.88,57.86,57.88
201909232016,57.88,57.88,57.8,57.8
201909232017,57.8,57.82,57.78,57.8
201909232018,57.8,57.81,57.78,57.8
201909232019,57.8,57.82,57.79,57.81
201909232020,57.81,57.83,57.8,57.83
201909232021,57.83,57.83,57.82,57.83
201909232022,57.83,57.85,57.82,57.84
201909232023,57.84,57.84,57.75,57.79
201909232024,57.79,57.8,57.78,57.8
201909232025,57.8,57.83,57.8,57.82
201909232026,57.82,57.84,57.8,57.81
201909232027,57.81,57.83,57.78,57.78
201909232028,57.78,57.8,57.78,57.79
201909232029,57.79,57.79,57.76,57.76
201909232030,57.76,57.79,57.76,57.77
201909232031,57.77,57.77,57.74,57.75
201909232032,57.75,57.78,57.74,57.77
201909232033,57.77,57.77,57.76,57.76
201909232034,57.76,57.78,57.75,57.75
201909232035,57.75,57.79,57.75,57.79
201909232036,57.79,57.82,57.78,57.81
201909232037,57.81,57.81,57.79,57.8
201909232038,57.8,57.82,57.79,57.82
201909232039,57.82,57.83,57.8,57.8
201909232040,57.8,57.81,57.77,57.79
201909232041,57.79,57.82,57.79,57.79
201909232042,57.79,57.8,57.72,57.75
201909232043,57.75,57.75,57.69,57.7
201909232044,57.7,57.71,57.65,57.68
201909232045,57.68,57.72,57.67,57.72
201909232046,57.72,57.73,57.69,57.69
201909232047,57.69,57.71,57.67,57.67
201909232048,57.67,57.68,57.62,57.62
201909232049,57.62,57.65,57.62,57.65
201909232050,57.65,57.66,57.62,57.64
201909232051,57.64,57.68,57.64,57.65
201909232052,57.65,57.69,57.64,57.69
201909232053,57.69,57.71,57.68,57.7
201909232054,57.71,57.73,57.71,57.71
201909232055,57.71,57.76,57.71,57.74
201909232056,57.74,57.77,57.73,57.76
201909232057,57.76,57.78,57.75,57.78
201909232058,57.78,57.8,57.76,57.77
201909232059,57.77,57.78,57.76,57.77
201909232100,57.77,57.79,57.74,57.78
201909232101,57.78,57.8,57.78,57.79
201909232102,57.79,57.82,57.78,57.82
201909232103,57.82,57.82,57.8,57.81
201909232104,57.81,57.84,57.8,57.83
201909232105,57.83,57.83,57.77,57.79
201909232106,57.79,57.81,57.76,57.77
201909232107,57.77,57.77,57.73,57.75
201909232108,57.75,57.76,57.74,57.74
201909232109,57.74,57.75,57.74,57.74
201909232110,57.74,57.74,57.69,57.69
201909232111,57.69,57.7,57.68,57.69
201909232112,57.69,57.7,57.68,57.68
201909232113,57.68,57.7,57.68,57.69
201909232114,57.69,57.71,57.69,57.7
201909232115,57.7,57.76,57.69,57.74
201909232116,57.74,57.76,57.73,57.75
201909232117,57.75,57.77,57.72,57.72
201909232118,57.72,57.81,57.72,57.81
201909232119,57.81,57.84,57.81,57.83
201909232120,57.83,57.83,57.78,57.78
201909232121,57.78,57.82,57.77,57.81
201909232122,57.81,57.82,57.81,57.81
201909232123,57.81,57.87,57.8,57.87
201909232124,57.87,58.02,57.87,58.01
201909232125,58.01,58.05,57.99,58.01
201909232126,58.01,58.01,57.99,58
201909232127,58,58.04,57.99,58.01
201909232128,58.01,58.01,57.99,58.01
201909232129,58.01,58.06,58.01,58.05
201909232130,58.05,58.07,58.05,58.07
201909232131,58.07,58.07,58.02,58.04
201909232132,58.04,58.05,58.02,58.04
201909232133,58.04,58.05,58.02,58.05
201909232134,58.05,58.05,58.04,58.05
201909232135,58.05,58.06,58.03,58.03
201909232136,58.03,58.04,58.01,58.03
201909232137,58.03,58.04,58.02,58.03
201909232138,58.03,58.03,58.01,58.02
201909232139,58.02,58.05,58.02,58.04
201909232140,58.04,58.04,58.03,58.04
201909232141,58.04,58.06,58.02,58.06
201909232142,58.06,58.06,58,58.01
201909232143,58.01,58.02,57.99,58.01
201909232144,58.01,58.02,58,58.02
201909232145,58.02,58.07,58.02,58.04
201909232146,58.04,58.04,57.99,58.01
201909232147,58.01,58.01,57.97,57.97
201909232148,57.97,57.98,57.94,57.95
201909232149,57.95,57.97,57.94,57.95
201909232150,57.95,58,57.95,57.99
201909232151,57.99,58.01,57.95,57.97
201909232152,57.97,57.99,57.96,57.99
201909232153,57.99,57.99,57.96,57.97
201909232154,57.97,57.97,57.96,57.97
201909232155,57.97,57.99,57.96,57.97
201909232156,57.98,58.01,57.97,58
201909232157,58,58.01,57.98,57.99
201909232158,57.99,57.99,57.95,57.96
201909232159,57.96,58.08,57.95,58.07
201909232200,58.07,58.19,58.07,58.14
201909232201,58.14,58.23,58.1,58.1
201909232202,58.1,58.11,57.88,57.93
201909232203,57.93,58.03,57.88,58.02
201909232204,58.02,58.03,57.96,57.96
201909232205,57.96,58.18,57.96,58.15
201909232206,58.15,58.15,58.08,58.15
201909232207,58.15,58.16,58.12,58.14
201909232208,58.14,58.15,58.12,58.14
201909232209,58.14,58.31,58.14,58.26
201909232210,58.26,58.31,58.25,58.25
201909232211,58.26,58.31,58.26,58.28
201909232212,58.28,58.31,58.24,58.25
201909232213,58.25,58.29,58.25,58.27
201909232214,58.27,58.3,58.25,58.27
201909232215,58.27,58.31,58.24,58.25
201909232216,58.25,58.27,58.16,58.18
201909232217,58.18,58.2,58.17,58.18
201909232218,58.18,58.19,58.15,58.17
201909232219,58.17,58.21,58.17,58.19
201909232220,58.19,58.25,58.19,58.24
201909232221,58.24,58.24,58.21,58.22
201909232222,58.22,58.29,58.21,58.27
201909232223,58.27,58.27,58.2,58.2
201909232224,58.2,58.21,58.12,58.14
201909232225,58.14,58.22,58.14,58.22
201909232226,58.22,58.24,58.21,58.24
201909232227,58.24,58.27,58.24,58.26
201909232228,58.26,58.26,58.21,58.23
201909232229,58.23,58.23,58.19,58.19
201909232230,58.21,58.25,58.13,58.25
201909232231,58.25,58.26,58.16,58.25
201909232232,58.25,58.25,58.18,58.21
201909232233,58.22,58.26,58.18,58.18
201909232234,58.17,58.24,58.14,58.23
201909232235,58.22,58.29,58.21,58.23
201909232236,58.22,58.22,58.15,58.17
201909232237,58.17,58.23,58.17,58.2
201909232238,58.2,58.24,58.18,58.18
201909232239,58.18,58.23,58.18,58.22
201909232240,58.22,58.27,58.21,58.27
201909232241,58.28,58.33,58.26,58.31
201909232242,58.31,58.33,58.3,58.31
201909232243,58.31,58.36,58.25,58.27
201909232244,58.27,58.29,58.17,58.17
201909232245,58.17,58.27,58.1,58.24
201909232246,58.24,58.27,58.2,58.2
201909232247,58.2,58.2,58.05,58.05
201909232248,58.05,58.1,58.04,58.08
201909232249,58.08,58.08,57.97,57.97
201909232250,57.97,58.09,57.97,58.05
201909232251,58.05,58.06,58,58
201909232252,58,58.02,57.97,57.98
201909232253,57.98,58.04,57.98,58.02
201909232254,58.02,58.04,58,58.02
201909232255,58.02,58.03,57.93,57.93
201909232256,57.93,57.98,57.92,57.96
201909232257,57.96,58,57.95,57.98
201909232258,57.98,58,57.96,57.98
201909232259,57.98,57.98,57.93,57.93
201909232300,57.93,57.95,57.71,57.8
201909232301,57.8,57.85,57.76,57.78
201909232302,57.78,57.83,57.77,57.82
201909232303,57.82,57.82,57.78,57.78
201909232304,57.78,57.83,57.75,57.75
201909232305,57.75,57.9,57.75,57.88
201909232306,57.88,57.89,57.82,57.83
201909232307,57.83,57.87,57.82,57.85
201909232308,57.85,57.85,57.8,57.85
201909232309,57.85,57.86,57.82,57.82
201909232310,57.83,57.86,57.76,57.84
201909232311,57.84,57.88,57.84,57.84
201909232312,57.84,57.9,57.84,57.89
201909232313,57.89,57.9,57.85,57.87
201909232314,57.87,57.87,57.82,57.83
201909232315,57.83,57.83,57.72,57.76
201909232316,57.76,57.83,57.76,57.83
201909232317,57.83,57.87,57.82,57.86
201909232318,57.87,58.06,57.86,58.02
201909232319,58.02,58.03,57.95,57.99
201909232320,57.99,58.07,57.98,58.05
201909232321,58.05,58.12,58.02,58.11
201909232322,58.11,58.13,58.08,58.11
201909232323,58.11,58.16,58.1,58.13
201909232324,58.13,58.16,58.13,58.16
201909232325,58.16,58.16,58.11,58.15
201909232326,58.15,58.16,58.09,58.09
201909232327,58.09,58.14,58.09,58.1
201909232328,58.1,58.15,58.1,58.14
201909232329,58.14,58.18,58.13,58.14
201909232330,58.14,58.21,58.14,58.17
201909232331,58.17,58.2,58.16,58.19
201909232332,58.19,58.21,58.18,58.19
201909232333,58.2,58.22,58.16,58.16
201909232334,58.16,58.18,58.12,58.13
201909232335,58.13,58.22,58.13,58.22
201909232336,58.22,58.26,58.2,58.23
201909232337,58.23,58.27,58.21,58.22
201909232338,58.22,58.23,58.16,58.19
201909232339,58.19,58.21,58.12,58.13
201909232340,58.13,58.16,58.07,58.07
201909232341,58.08,58.18,58.08,58.14
201909232342,58.14,58.14,58.09,58.09
201909232343,58.1,58.12,58.07,58.09
201909232344,58.09,58.09,58.01,58.02
201909232345,58.02,58.06,57.98,57.98
201909232346,57.98,58.09,57.97,58.07
201909232347,58.07,58.14,58.06,58.08
201909232348,58.08,58.1,58.05,58.06
201909232349,58.06,58.08,58.04,58.08
201909232350,58.08,58.13,58.08,58.11
201909232351,58.11,58.11,58.09,58.1
201909232352,58.1,58.13,58.09,58.13
201909232353,58.13,58.13,58.06,58.1
201909232354,58.1,58.1,58.03,58.04
201909232355,58.03,58.07,58.02,58.04
201909232356,58.04,58.06,58.02,58.03
201909232357,58.03,58.08,58.02,58.07
201909232358,58.07,58.08,58.05,58.08
201909232359,58.08,58.08,58.03,58.08
201909240000,58.08,58.19,58.07,58.15
201909240001,58.15,58.18,58.11,58.18
201909240002,58.18,58.22,58.16,58.22
201909240003,58.22,58.5,58.21,58.47
201909240004,58.46,58.5,58.29,58.3
201909240005,58.3,58.37,58.3,58.33
201909240006,58.33,58.38,58.31,58.32
201909240007,58.32,58.32,58.26,58.31
201909240008,58.31,58.34,58.28,58.32
201909240009,58.32,58.32,58.24,58.26
201909240010,58.25,58.31,58.25,58.31
201909240011,58.31,58.35,58.3,58.34
201909240012,58.34,58.38,58.33,58.35
201909240013,58.37,58.37,58.32,58.35
201909240014,58.35,58.44,58.32,58.42
201909240015,58.42,58.5,58.42,58.47
201909240016,58.47,58.56,58.47,58.52
201909240017,58.52,58.53,58.5,58.51
201909240018,58.51,58.61,58.5,58.54
201909240019,58.56,58.57,58.45,58.47
201909240020,58.47,58.48,58.42,58.47
201909240021,58.47,58.49,58.44,58.49
201909240022,58.49,58.49,58.4,58.42
201909240023,58.42,58.44,58.39,58.4
201909240024,58.4,58.42,58.35,58.35
201909240025,58.36,58.42,58.36,58.38
201909240026,58.38,58.4,58.35,58.36
201909240027,58.36,58.4,58.34,58.37
201909240028,58.37,58.38,58.29,58.34
201909240029,58.34,58.36,58.25,58.25
201909240030,58.25,58.33,58.22,58.24
201909240031,58.24,58.27,58.21,58.22
201909240032,58.22,58.24,58.18,58.19
201909240033,58.19,58.24,58.17,58.22
201909240034,58.23,58.24,58.21,58.21
201909240035,58.21,58.21,58.14,58.2
201909240036,58.2,58.25,58.2,58.24
201909240037,58.23,58.23,58.18,58.22
201909240038,58.22,58.22,58.16,58.19
201909240039,58.19,58.2,58.18,58.18
201909240040,58.18,58.21,58.18,58.19
201909240041,58.18,58.21,58.08,58.14
201909240042,58.14,58.23,58.08,58.21
201909240043,58.21,58.21,58.16,58.18
201909240044,58.18,58.2,58.16,58.18
201909240045,58.18,58.2,58.16,58.19
201909240046,58.19,58.26,58.19,58.22
201909240047,58.22,58.22,58.16,58.22
201909240048,58.22,58.25,58.21,58.24
201909240049,58.24,58.25,58.22,58.23
201909240050,58.23,58.24,58.21,58.24
201909240051,58.24,58.27,58.21,58.22
201909240052,58.22,58.22,58.13,58.16
201909240053,58.16,58.22,58.16,58.19
201909240054,58.19,58.21,58.17,58.21
201909240055,58.21,58.27,58.21,58.27
201909240056,58.27,58.27,58.22,58.23
201909240057,58.23,58.26,58.21,58.21
201909240058,58.21,58.23,58.2,58.21
201909240059,58.21,58.24,58.21,58.22
201909240100,58.22,58.25,58.16,58.2
201909240101,58.2,58.25,58.19,58.24
201909240102,58.24,58.29,58.24,58.26
201909240103,58.26,58.26,58.2,58.25
201909240104,58.25,58.28,58.25,58.27
201909240105,58.27,58.31,58.26,58.29
201909240106,58.29,58.29,58.2,58.22
201909240107,58.22,58.24,58.17,58.19
201909240108,58.19,58.22,58.19,58.2
201909240109,58.2,58.21,58.17,58.19
201909240110,58.19,58.2,58.17,58.17
201909240111,58.17,58.2,58.17,58.2
201909240112,58.2,58.22,58.19,58.2
201909240113,58.2,58.2,58.16,58.16
201909240114,58.16,58.17,58.14,58.14
201909240115,58.15,58.16,58.12,58.13
201909240116,58.13,58.17,58.12,58.16
201909240117,58.16,58.16,58.14,58.15
201909240118,58.15,58.15,58.09,58.1
201909240119,58.1,58.12,58.1,58.11
201909240120,58.11,58.14,58.08,58.14
201909240121,58.14,58.14,58.1,58.12
201909240122,58.12,58.14,58.09,58.09
201909240123,58.09,58.13,58.05,58.12
201909240124,58.12,58.13,58.09,58.11
201909240125,58.11,58.14,58.1,58.14
201909240126,58.14,58.18,58.13,58.17
201909240127,58.17,58.18,58.16,58.17
201909240128,58.17,58.2,58.17,58.19
201909240129,58.19,58.2,58.12,58.13
201909240130,58.13,58.16,58.12,58.12
201909240131,58.12,58.14,58.12,58.14
201909240132,58.14,58.15,58.13,58.13
201909240133,58.13,58.13,58.11,58.12
201909240134,58.12,58.13,58.08,58.08
201909240135,58.08,58.1,58.08,58.1
201909240136,58.1,58.13,58.1,58.11
201909240137,58.11,58.15,58.1,58.15
201909240138,58.15,58.22,58.13,58.19
201909240139,58.19,58.2,58.18,58.19
201909240140,58.19,58.19,58.15,58.18
201909240141,58.18,58.19,58.17,58.18
201909240142,58.18,58.23,58.18,58.21
201909240143,58.21,58.23,58.19,58.21
201909240144,58.21,58.22,58.19,58.22
201909240145,58.22,58.25,58.22,58.25
201909240146,58.25,58.26,58.24,58.26
201909240147,58.26,58.28,58.25,58.25
201909240148,58.25,58.26,58.22,58.22
201909240149,58.22,58.23,58.19,58.2
201909240150,58.2,58.21,58.18,58.2
201909240151,58.2,58.23,58.2,58.23
201909240152,58.23,58.27,58.23,58.25
201909240153,58.25,58.26,58.23,58.24
201909240154,58.24,58.25,58.22,58.24
201909240155,58.24,58.26,58.24,58.26
201909240156,58.26,58.26,58.23,58.24
201909240157,58.24,58.25,58.22,58.23
201909240158,58.23,58.24,58.21,58.23
201909240159,58.23,58.25,58.21,58.22
201909240200,58.22,58.24,58.21,58.21
201909240201,58.21,58.26,58.21,58.25
201909240202,58.25,58.26,58.24,58.25
201909240203,58.25,58.28,58.23,58.23
201909240204,58.23,58.26,58.22,58.22
201909240205,58.22,58.22,58.19,58.19
201909240206,58.19,58.23,58.19,58.23
201909240207,58.23,58.23,58.22,58.22
201909240208,58.22,58.26,58.22,58.25
201909240209,58.25,58.27,58.25,58.26
201909240210,58.26,58.31,58.25,58.29
201909240211,58.29,58.31,58.29,58.29
201909240212,58.29,58.29,58.22,58.22
201909240213,58.21,58.22,58.2,58.21
201909240214,58.21,58.23,58.18,58.19
201909240215,58.19,58.19,58.17,58.18
201909240216,58.18,58.25,58.18,58.23
201909240217,58.23,58.28,58.22,58.26
201909240218,58.26,58.35,58.26,58.31
201909240219,58.31,58.32,58.28,58.28
201909240220,58.28,58.31,58.27,58.29
201909240221,58.29,58.3,58.27,58.28
201909240222,58.27,58.3,58.26,58.29
201909240223,58.29,58.29,58.25,58.26
201909240224,58.26,58.3,58.26,58.28
201909240225,58.28,58.31,58.27,58.31
201909240226,58.31,58.32,58.3,58.31
201909240227,58.31,58.31,58.25,58.26
201909240228,58.26,58.26,58.23,58.25
201909240229,58.25,58.27,58.24,58.26
201909240230,58.26,58.26,58.22,58.23
201909240231,58.23,58.24,58.22,58.24
201909240232,58.23,58.24,58.21,58.23
201909240233,58.23,58.29,58.22,58.28
201909240234,58.28,58.3,58.27,58.27
201909240235,58.27,58.3,58.27,58.29
201909240236,58.29,58.31,58.29,58.3
201909240237,58.3,58.3,58.26,58.28
201909240238,58.28,58.32,58.28,58.31
201909240239,58.31,58.34,58.3,58.33
201909240240,58.33,58.38,58.33,58.37
201909240241,58.37,58.39,58.36,58.36
201909240242,58.36,58.4,58.36,58.4
201909240243,58.4,58.41,58.39,58.39
201909240244,58.39,58.43,58.39,58.42
201909240245,58.42,58.45,58.41,58.42
201909240246,58.42,58.44,58.41,58.44
201909240247,58.44,58.46,58.42,58.42
201909240248,58.42,58.43,58.41,58.43
201909240249,58.43,58.44,58.41,58.43
201909240250,58.43,58.46,58.43,58.43
201909240251,58.43,58.44,58.42,58.43
201909240252,58.43,58.46,58.43,58.46
201909240253,58.46,58.46,58.42,58.44
201909240254,58.44,58.47,58.44,58.45
201909240255,58.45,58.46,58.44,58.45
201909240256,58.45,58.55,58.45,58.52
201909240257,58.52,58.52,58.49,58.5
201909240258,58.5,58.56,58.49,58.53
201909240259,58.53,58.56,58.5,58.51
201909240300,58.51,58.54,58.47,58.48
201909240301,58.48,58.5,58.47,58.48
201909240302,58.48,58.48,58.45,58.47
201909240303,58.47,58.49,58.45,58.46
201909240304,58.46,58.46,58.43,58.46
201909240305,58.46,58.46,58.43,58.44
201909240306,58.44,58.45,58.4,58.42
201909240307,58.42,58.44,58.42,58.44
201909240308,58.44,58.48,58.42,58.46
201909240309,58.46,58.5,58.46,58.47
201909240310,58.47,58.52,58.46,58.51
201909240311,58.51,58.6,58.51,58.58
201909240312,58.58,58.59,58.55,58.55
201909240313,58.55,58.55,58.52,58.53
201909240314,58.53,58.59,58.53,58.56
201909240315,58.56,58.58,58.51,58.52
201909240316,58.52,58.53,58.49,58.5
201909240317,58.5,58.54,58.48,58.52
201909240318,58.52,58.56,58.49,58.56
201909240319,58.56,58.58,58.55,58.57
201909240320,58.57,58.57,58.49,58.51
201909240321,58.5,58.53,58.48,58.53
201909240322,58.53,58.55,58.5,58.54
201909240323,58.54,58.54,58.51,58.51
201909240324,58.51,58.51,58.47,58.48
201909240325,58.48,58.51,58.43,58.45
201909240326,58.45,58.52,58.44,58.48
201909240327,58.48,58.54,58.47,58.54
201909240328,58.54,58.61,58.53,58.59
201909240329,58.59,58.69,58.58,58.67
201909240330,58.63,58.66,58.57,58.62
201909240331,58.62,58.67,58.61,58.67
201909240332,58.67,58.67,58.62,58.63
201909240333,58.63,58.63,58.58,58.58
201909240334,58.58,58.62,58.56,58.56
201909240335,58.56,58.57,58.54,58.55
201909240336,58.55,58.56,58.54,58.54
201909240337,58.54,58.55,58.52,58.52
201909240338,58.52,58.56,58.52,58.54
201909240339,58.54,58.54,58.51,58.52
201909240340,58.52,58.53,58.5,58.52
201909240341,58.52,58.54,58.5,58.53
201909240342,58.53,58.54,58.52,58.54
201909240343,58.54,58.56,58.53,58.53
201909240344,58.53,58.54,58.52,58.52
201909240345,58.52,58.54,58.51,58.52
201909240346,58.52,58.54,58.52,58.52
201909240347,58.52,58.53,58.52,58.53
201909240348,58.53,58.58,58.53,58.56
201909240349,58.56,58.56,58.53,58.55
201909240350,58.55,58.56,58.5,58.5
201909240351,58.5,58.55,58.49,58.54
201909240352,58.54,58.54,58.48,58.48
201909240353,58.48,58.51,58.48,58.5
201909240354,58.5,58.51,58.5,58.5
201909240355,58.5,58.53,58.49,58.52
201909240356,58.52,58.54,58.52,58.53
201909240357,58.53,58.54,58.53,58.54
201909240358,58.53,58.54,58.51,58.52
201909240359,58.52,58.53,58.51,58.52
201909240400,58.52,58.55,58.52,58.54
201909240401,58.54,58.54,58.53,58.53
201909240402,58.53,58.54,58.52,58.53
201909240403,58.53,58.54,58.52,58.52
201909240404,58.52,58.54,58.52,58.53
201909240405,58.53,58.54,58.53,58.53
201909240406,58.53,58.54,58.53,58.54
201909240407,58.54,58.54,58.53,58.53
201909240408,58.53,58.54,58.53,58.54
201909240409,58.54,58.54,58.53,58.54
201909240410,58.54,58.55,58.54,58.54
201909240411,58.54,58.55,58.54,58.55
201909240412,58.55,58.55,58.54,58.54
201909240413,58.54,58.54,58.54,58.54
201909240414,58.54,58.55,58.54,58.54
201909240415,58.54,58.59,58.53,58.54
201909240416,58.54,58.55,58.53,58.55
201909240417,58.55,58.57,58.55,58.56
201909240418,58.56,58.57,58.56,58.57
201909240419,58.57,58.57,58.56,58.57
201909240420,58.57,58.57,58.54,58.55
201909240421,58.55,58.55,58.54,58.54
201909240422,58.54,58.54,58.52,58.52
201909240423,58.52,58.54,58.5,58.5
201909240424,58.5,58.5,58.45,58.46
201909240425,58.46,58.47,58.43,58.43
201909240426,58.43,58.44,58.41,58.42
201909240427,58.42,58.42,58.37,58.38
201909240428,58.37,58.38,58.35,58.38
201909240429,58.38,58.4,58.37,58.4
201909240430,58.4,58.41,58.4,58.41
201909240431,58.41,58.43,58.4,58.4
201909240432,58.4,58.4,58.4,58.4
201909240433,58.4,58.4,58.38,58.38
201909240434,58.38,58.4,58.38,58.4
201909240435,58.4,58.43,58.4,58.43
201909240436,58.43,58.44,58.42,58.43
201909240437,58.43,58.43,58.41,58.41
201909240438,58.41,58.44,58.4,58.44
201909240439,58.44,58.44,58.43,58.44
201909240440,58.44,58.44,58.41,58.42
201909240441,58.42,58.43,58.42,58.43
201909240442,58.43,58.46,58.43,58.46
201909240443,58.47,58.47,58.46,58.47
201909240444,58.47,58.47,58.46,58.46
201909240445,58.46,58.47,58.44,58.45
201909240446,58.45,58.48,58.45,58.47
201909240447,58.47,58.48,58.45,58.47
201909240448,58.47,58.48,58.47,58.48
201909240449,58.48,58.49,58.47,58.47
201909240450,58.47,58.48,58.47,58.48
201909240451,58.48,58.49,58.48,58.49
201909240452,58.49,58.49,58.48,58.48
201909240453,58.48,58.49,58.48,58.48
201909240454,58.48,58.48,58.46,58.46
201909240455,58.46,58.47,58.44,58.46
201909240456,58.46,58.46,58.45,58.46
201909240457,58.46,58.47,58.45,58.47
201909240458,58.47,58.47,58.43,58.46
201909240459,58.46,58.49,58.45,58.46
201909240500,58.48,58.49,58.46,58.47
201909240501,58.47,58.48,58.44,58.46
201909240502,58.46,58.47,58.45,58.47
201909240503,58.47,58.47,58.46,58.46
201909240504,58.46,58.47,58.43,58.44
201909240505,58.43,58.44,58.42,58.42
201909240506,58.42,58.43,58.42,58.43
201909240507,58.43,58.43,58.42,58.42
201909240508,58.42,58.42,58.4,58.42
201909240509,58.42,58.42,58.41,58.42
201909240510,58.42,58.42,58.41,58.41
201909240511,58.41,58.41,58.4,58.41
201909240512,58.41,58.44,58.4,58.44
201909240513,58.44,58.45,58.44,58.45
201909240514,58.45,58.46,58.45,58.46
201909240515,58.46,58.47,58.46,58.47
201909240516,58.47,58.47,58.45,58.46
201909240517,58.46,58.46,58.45,58.46
201909240518,58.46,58.47,58.46,58.46
201909240519,58.46,58.46,58.46,58.46
201909240520,58.46,58.46,58.45,58.46
201909240521,58.46,58.47,58.46,58.47
201909240522,58.47,58.48,58.47,58.47
201909240523,58.47,58.47,58.46,58.46
201909240524,58.46,58.46,58.46,58.46
201909240525,58.46,58.48,58.46,58.48
201909240526,58.48,58.5,58.48,58.49
201909240527,58.49,58.5,58.49,58.49
201909240528,58.49,58.49,58.48,58.48
201909240529,58.48,58.48,58.48,58.48
201909240530,58.48,58.5,58.48,58.48
201909240531,58.48,58.49,58.48,58.49
201909240532,58.49,58.5,58.49,58.49
201909240533,58.49,58.52,58.49,58.5
201909240534,58.5,58.51,58.49,58.5
201909240535,58.5,58.5,58.48,58.49
201909240536,58.49,58.49,58.48,58.49
201909240537,58.49,58.49,58.49,58.49
201909240538,58.49,58.5,58.49,58.5
201909240539,58.5,58.5,58.45,58.46
201909240540,58.46,58.47,58.46,58.47
201909240541,58.47,58.47,58.46,58.46
201909240542,58.46,58.47,58.46,58.47
201909240543,58.47,58.48,58.46,58.46
201909240544,58.46,58.49,58.46,58.48
201909240545,58.48,58.48,58.45,58.46
201909240546,58.46,58.47,58.43,58.44
201909240547,58.44,58.45,58.44,58.45
201909240548,58.45,58.45,58.43,58.44
201909240549,58.44,58.46,58.44,58.45
201909240550,58.45,58.47,58.45,58.47
201909240551,58.47,58.47,58.45,58.45
201909240552,58.45,58.46,58.45,58.46
201909240553,58.46,58.46,58.45,58.45
201909240554,58.45,58.46,58.45,58.45
201909240555,58.45,58.45,58.44,58.44
201909240556,58.44,58.47,58.44,58.47
201909240557,58.47,58.48,58.46,58.47
201909240558,58.47,58.48,58.46,58.48
201909240559,58.48,58.49,58.46,58.48
