日時,始値(BID),高値(BID),安値(BID),終値(BID)
201906100700,7472.9,7481.6,7471.7,7479
201906100701,7479.9,7483.5,7476.5,7482.4
201906100702,7482.4,7482.5,7477.6,7478.2
201906100703,7478.2,7481.6,7471.4,7471.4
201906100704,7471.6,7476.4,7471.2,7474.1
201906100705,7474,7478.5,7473.8,7474.7
201906100706,7474.7,7475.6,7471.3,7471.3
201906100707,7471.5,7472,7468.8,7470.5
201906100708,7470.4,7474.3,7469.7,7470.5
201906100709,7470.5,7474,7469.4,7472.9
201906100710,7472.9,7476.1,7472,7475.6
201906100711,7475.6,7476.6,7474.6,7475.8
201906100712,7476,7477.6,7474.3,7474.3
201906100713,7474.3,7474.6,7471.2,7472.5
201906100714,7472.5,7475.2,7472.4,7475
201906100715,7474.9,7474.9,7472.2,7473.1
201906100716,7473.9,7473.9,7469.8,7472.2
201906100717,7472.2,7472.6,7472.1,7472.6
201906100718,7472.6,7473.9,7470.7,7470.7
201906100719,7470.7,7472.8,7470.7,7471.6
201906100720,7471.5,7471.5,7470.4,7471.2
201906100721,7471.4,7472.8,7471,7471.5
201906100722,7471.5,7472.1,7471.1,7471.4
201906100723,7471.4,7474.5,7471.4,7473.9
201906100724,7474,7474.3,7472,7472.7
201906100725,7472.7,7472.7,7471.2,7471.3
201906100726,7471.3,7472.3,7470.7,7470.8
201906100727,7470.8,7473.7,7470,7472.7
201906100728,7472.7,7473.4,7472.4,7473.2
201906100729,7473.2,7473.3,7471.3,7472.1
201906100730,7472.1,7473.1,7471.6,7472.7
201906100731,7472.7,7472.9,7470,7470.6
201906100732,7470.5,7471.4,7469.2,7470.4
201906100733,7470.4,7470.9,7470.2,7470.8
201906100734,7470.8,7472.3,7470.3,7471.7
201906100735,7471.7,7471.7,7470.1,7470.2
201906100736,7470.2,7470.2,7468.9,7469
201906100737,7469,7469,7465.7,7468.6
201906100738,7468.6,7468.8,7465.9,7466.3
201906100739,7466.3,7467.8,7466.3,7467.3
201906100740,7467.3,7467.7,7464.6,7465.2
201906100741,7465.2,7466.5,7464.4,7465.2
201906100742,7465.2,7466.3,7464.9,7465.7
201906100743,7465.6,7466.4,7465.6,7466.4
201906100744,7466.4,7466.4,7465.4,7465.5
201906100745,7465.5,7465.6,7463.9,7464
201906100746,7464,7464.2,7463.1,7463.1
201906100747,7463.1,7464.4,7463,7464.4
201906100748,7464.4,7465.3,7461.2,7462.6
201906100749,7462.6,7463,7461.1,7462.6
201906100750,7462.6,7462.6,7459.8,7462.4
201906100751,7462.4,7463.8,7462,7462.9
201906100752,7462.9,7462.9,7462.3,7462.6
201906100753,7462.6,7464.9,7462.4,7464.9
201906100754,7464.9,7465.5,7464,7465.1
201906100755,7464.9,7467.3,7464.9,7466.7
201906100756,7466.7,7467.3,7466.5,7467.2
201906100757,7467.2,7467.4,7465.5,7465.5
201906100758,7465.5,7466.4,7465.5,7465.8
201906100759,7465.5,7466.3,7465.5,7465.8
201906100800,7465.8,7466.1,7462.7,7465.6
201906100801,7465.5,7466.1,7464.8,7465.9
201906100802,7466,7466.9,7465.8,7466.6
201906100803,7466.7,7467.2,7466.4,7466.8
201906100804,7466.8,7467.2,7466.7,7467.1
201906100805,7467.1,7467.1,7466.6,7466.8
201906100806,7466.8,7467.3,7466.6,7467.3
201906100807,7467.3,7467.8,7467.3,7467.4
201906100808,7467.4,7467.4,7466.7,7466.7
201906100809,7466.9,7467.6,7466.9,7467.2
201906100810,7467.2,7467.2,7464.6,7466.6
201906100811,7466.6,7468.3,7466.5,7467.8
201906100812,7467.8,7468.1,7466.3,7468.1
201906100813,7468.1,7468.4,7467.5,7468.1
201906100814,7468.1,7468.5,7467.8,7467.8
201906100815,7467.8,7468.2,7465.3,7466.6
201906100816,7466.6,7467.7,7466.6,7467.4
201906100817,7467.4,7467.7,7467.1,7467.1
201906100818,7467,7467.4,7467,7467.4
201906100819,7467.3,7467.4,7465.4,7466
201906100820,7466,7466,7463.1,7463.6
201906100821,7463.6,7464,7463.4,7463.5
201906100822,7463.5,7464,7463,7464
201906100823,7464,7464,7462.8,7462.8
201906100824,7462.8,7462.9,7462.2,7462.7
201906100825,7462.6,7462.8,7461.9,7462.3
201906100826,7462.3,7462.3,7460.9,7461
201906100827,7461,7461.6,7460.8,7461.3
201906100828,7461.3,7462,7461,7461.9
201906100829,7461.9,7462.5,7461.9,7462.3
201906100830,7462.4,7462.4,7460.2,7460.8
201906100831,7460.8,7466.5,7460.8,7465.4
201906100832,7465.4,7465.4,7461,7461.5
201906100833,7461.5,7461.5,7459.1,7459.4
201906100834,7459.4,7460,7457.9,7458.1
201906100835,7457.9,7459.6,7457.2,7459.2
201906100836,7459.2,7460,7458.4,7458.4
201906100837,7458.4,7459.7,7458.4,7459.5
201906100838,7459.5,7460.3,7459.2,7460.1
201906100839,7460.1,7460.2,7458.4,7458.5
201906100840,7458.5,7458.6,7457.8,7457.8
201906100841,7457.8,7458.2,7457.7,7458
201906100842,7458.1,7459.4,7458.1,7458.7
201906100843,7458.7,7458.7,7457.7,7457.7
201906100844,7457.7,7458.8,7456.3,7458
201906100845,7458,7458.3,7456.3,7457.3
201906100846,7457.3,7457.6,7456.3,7456.6
201906100847,7456.6,7458.4,7456.2,7457.9
201906100848,7457.9,7458.1,7457.5,7457.7
201906100849,7457.7,7457.7,7455.3,7457.1
201906100850,7457.4,7457.8,7456.8,7457.5
201906100851,7457.5,7458.2,7457.1,7458.2
201906100852,7458.3,7458.8,7457.9,7458.3
201906100853,7458.3,7458.6,7457.9,7458.4
201906100854,7458.3,7459.2,7458,7459.1
201906100855,7459.1,7459.1,7458.1,7458.1
201906100856,7458.1,7458.9,7457.9,7458.8
201906100857,7458.7,7460.1,7458.2,7458.2
201906100858,7458.2,7458.6,7457.5,7457.6
201906100859,7457.6,7457.8,7455.5,7456.1
201906100900,7456,7458.2,7454.1,7457.8
201906100901,7457.8,7461.6,7457.8,7458.8
201906100902,7459.1,7460.5,7457.7,7458.3
201906100903,7458.3,7459.2,7457.1,7458.4
201906100904,7458.4,7459.9,7457.8,7458.2
201906100905,7458.2,7460.9,7458.1,7460.6
201906100906,7460.6,7460.8,7460.1,7460.1
201906100907,7460.1,7460.7,7458.6,7458.9
201906100908,7458.9,7459.6,7457.6,7459.1
201906100909,7459.1,7459.1,7457.6,7457.6
201906100910,7457.6,7458.6,7456.3,7456.3
201906100911,7456.3,7457.2,7456,7456.8
201906100912,7456.8,7458.3,7456.8,7457.3
201906100913,7457.3,7457.9,7455.9,7456.1
201906100914,7456.1,7457.1,7455.4,7456.4
201906100915,7456.4,7456.5,7454.1,7454.7
201906100916,7454.7,7455.4,7454.4,7454.4
201906100917,7454.5,7455.9,7454.5,7454.9
201906100918,7454.9,7456.1,7454.9,7456.1
201906100919,7456.1,7457,7455.9,7456.6
201906100920,7456.6,7456.9,7453.5,7454
201906100921,7454,7455.3,7453.9,7453.9
201906100922,7453.9,7455,7453.9,7454.4
201906100923,7454.4,7454.4,7452.3,7452.4
201906100924,7452.4,7453.6,7451.5,7452.8
201906100925,7452.8,7453.3,7451,7451
201906100926,7451,7451,7449.9,7449.9
201906100927,7450,7451.2,7449.3,7449.4
201906100928,7449.4,7449.6,7448.3,7448.3
201906100929,7448.3,7448.7,7444.3,7445.7
201906100930,7445.7,7448.1,7445.1,7448.1
201906100931,7448.2,7448.6,7447.6,7447.8
201906100932,7447.8,7448.4,7447.8,7448.1
201906100933,7448.2,7448.5,7447.7,7448.4
201906100934,7448.4,7449.3,7448.3,7448.9
201906100935,7448.9,7449,7447.1,7447.6
201906100936,7447.5,7448.4,7447.5,7448.1
201906100937,7448.1,7448.6,7447.8,7447.9
201906100938,7447.9,7448.1,7447.2,7447.5
201906100939,7447.5,7448.6,7447.3,7447.5
201906100940,7447.5,7448.3,7445.4,7445.7
201906100941,7445.7,7446.5,7445.6,7446.3
201906100942,7446.3,7446.4,7445,7446
201906100943,7446,7446,7444.4,7444.8
201906100944,7444.8,7444.8,7441,7442.1
201906100945,7442.1,7442.1,7438.8,7439.2
201906100946,7439.2,7439.2,7435.9,7436.3
201906100947,7436.4,7438.7,7436.1,7438.5
201906100948,7438.5,7440.5,7438.2,7440.3
201906100949,7440.4,7441.3,7440,7440.2
201906100950,7440.2,7440.7,7437.7,7438.6
201906100951,7438.6,7440.3,7438.4,7439.5
201906100952,7439.5,7441.6,7439.5,7441.2
201906100953,7441.2,7441.5,7439,7439.3
201906100954,7439.3,7441.4,7439.2,7441
201906100955,7441.3,7442,7441.1,7441.6
201906100956,7441.7,7441.7,7437.8,7437.9
201906100957,7437.9,7440.2,7437.4,7439.7
201906100958,7439.9,7440,7437.9,7438.4
201906100959,7438.4,7438.4,7436.1,7438.1
201906101000,7438.1,7440.8,7434.4,7435
201906101001,7435,7436.1,7432.7,7432.7
201906101002,7432.7,7435.6,7431.2,7434.4
201906101003,7434.4,7437.6,7433.5,7437.1
201906101004,7437,7439,7437,7438.4
201906101005,7438.4,7441.8,7438.4,7441.7
201906101006,7441.7,7441.7,7439.8,7439.8
201906101007,7439.9,7441.2,7439.4,7441.2
201906101008,7441.2,7441.2,7439.6,7440.1
201906101009,7440.1,7441.1,7440,7440.7
201906101010,7440.8,7440.8,7438.5,7439.1
201906101011,7439.1,7439.1,7437.5,7438
201906101012,7438.1,7438.9,7437.7,7438.1
201906101013,7438.1,7438.4,7437,7437.5
201906101014,7437.5,7438.1,7435.9,7437.1
201906101015,7437.1,7439.1,7436.4,7438.4
201906101016,7438.5,7440.3,7437.4,7438.6
201906101017,7438.5,7438.6,7436.6,7436.8
201906101018,7436.7,7438.1,7436.6,7436.7
201906101019,7436.9,7438.1,7435.6,7438.1
201906101020,7438.1,7439.8,7436.6,7438.9
201906101021,7438.9,7439.9,7438.4,7439.7
201906101022,7439.7,7441.5,7438.8,7441.5
201906101023,7441.5,7442.8,7440.8,7441.1
201906101024,7441.1,7442.9,7440.7,7440.7
201906101025,7440.7,7440.7,7437.4,7437.8
201906101026,7437.8,7441.1,7436.9,7441.1
201906101027,7441.1,7441.7,7440.4,7441.5
201906101028,7441.5,7442,7439.7,7439.9
201906101029,7439.9,7441.7,7439.6,7441
201906101030,7441,7441.9,7437.2,7437.6
201906101031,7436.9,7438.2,7435.2,7437.7
201906101032,7437.6,7438.3,7436.8,7438.3
201906101033,7438.3,7438.9,7436.8,7438.6
201906101034,7438.6,7443.4,7438.6,7440.3
201906101035,7440.3,7440.8,7439.4,7440.1
201906101036,7440.1,7441.4,7440,7440.8
201906101037,7440.8,7440.8,7438.3,7439.4
201906101038,7439.4,7441.9,7438.9,7441.4
201906101039,7441.4,7441.6,7438.9,7440.6
201906101040,7440.4,7440.9,7438.4,7438.9
201906101041,7438.9,7439.6,7438.2,7438.9
201906101042,7438.9,7441,7438.9,7440.7
201906101043,7440.7,7443.2,7440.7,7442.8
201906101044,7442.9,7444.2,7442.9,7443.9
201906101045,7443.9,7446,7443.9,7444.7
201906101046,7444.4,7446.8,7444,7446.8
201906101047,7446.8,7447,7445.4,7445.9
201906101048,7445.9,7448.5,7445.9,7447.3
201906101049,7447.3,7448.7,7447.2,7448.1
201906101050,7448.2,7448.5,7446,7446
201906101051,7446.1,7447.1,7445.9,7446.7
201906101052,7446.7,7447.3,7445.8,7445.8
201906101053,7445.8,7446.8,7444.9,7445.4
201906101054,7445.4,7446.7,7445.3,7445.9
201906101055,7445.9,7446.3,7444.5,7444.5
201906101056,7444.5,7446.4,7444.5,7446.4
201906101057,7446.3,7447.8,7446.1,7447.6
201906101058,7447.6,7448.5,7447.2,7447.5
201906101059,7447.5,7449.2,7447.5,7448.8
201906101100,7448.9,7450.1,7448.9,7449
201906101101,7449,7449.4,7446.9,7447.8
201906101102,7447.8,7449,7447.7,7448.8
201906101103,7448.8,7450.8,7448.7,7450.1
201906101104,7450.1,7451.4,7449.9,7451.3
201906101105,7451.4,7452.7,7450.8,7452.1
201906101106,7452.1,7453.1,7451.3,7451.3
201906101107,7451.4,7451.7,7450,7450.1
201906101108,7450.1,7452.6,7450.1,7452.1
201906101109,7452.1,7452.2,7451,7451.2
201906101110,7451.1,7452.2,7451,7451
201906101111,7451.1,7452.3,7451,7452.3
201906101112,7452.3,7452.8,7452.2,7452.3
201906101113,7452.3,7452.7,7450.5,7450.8
201906101114,7451.1,7453.3,7451.1,7453.1
201906101115,7453.1,7453.4,7451,7451.1
201906101116,7451.1,7452.7,7450.9,7452.6
201906101117,7452.6,7452.6,7451.4,7451.5
201906101118,7451.5,7452,7450.5,7450.5
201906101119,7450.5,7451.1,7449.9,7450
201906101120,7450,7450.4,7448.9,7449.4
201906101121,7449.3,7449.4,7447.9,7448
201906101122,7447.9,7448.2,7446.1,7446.6
201906101123,7446.6,7447.5,7446.3,7446.9
201906101124,7446.9,7448.8,7446.7,7448.8
201906101125,7448.8,7449,7447.2,7447.3
201906101126,7447.3,7447.8,7447.3,7447.4
201906101127,7447.4,7447.6,7445.7,7445.7
201906101128,7445.7,7445.7,7443.3,7444.6
201906101129,7444.6,7445.4,7444.2,7444.6
201906101130,7444.6,7445.7,7443,7443.2
201906101131,7443.2,7443.4,7442.2,7442.3
201906101132,7442.4,7444,7442.4,7443.4
201906101133,7443.4,7444.8,7443,7444.2
201906101134,7444.2,7444.6,7442.2,7442.3
201906101135,7442.3,7442.7,7441.3,7441.8
201906101136,7441.8,7443.5,7441.8,7443
201906101137,7443,7444,7443,7443.7
201906101138,7443.7,7444.8,7443.7,7444.5
201906101139,7444.5,7445.2,7444.5,7444.7
201906101140,7444.5,7444.8,7443.9,7444.4
201906101141,7444.4,7444.6,7443.4,7443.4
201906101142,7443.4,7444.2,7443.4,7443.7
201906101143,7443.7,7443.7,7442.9,7442.9
201906101144,7442.9,7444.3,7442.9,7443.8
201906101145,7443.8,7444.4,7442.9,7443
201906101146,7443,7443.4,7441.9,7442.2
201906101147,7442.2,7442.2,7440.4,7440.5
201906101148,7440.5,7441,7438.4,7439.1
201906101149,7439.1,7439.8,7438,7438.5
201906101150,7438.5,7438.6,7436.7,7437.6
201906101151,7437.6,7438,7437.2,7438
201906101152,7438.1,7439.1,7436.6,7436.6
201906101153,7436.6,7437.9,7436.6,7437.3
201906101154,7437.2,7438.8,7437.2,7438.7
201906101155,7438.6,7438.9,7438.3,7438.4
201906101156,7438.3,7439.5,7437.9,7438.6
201906101157,7438.6,7440,7438,7438.5
201906101158,7438.5,7438.5,7436.9,7436.9
201906101159,7436.9,7437.4,7436.5,7437.3
201906101200,7437.3,7439.9,7437.1,7439.7
201906101201,7439.7,7440.6,7439.2,7440.5
201906101202,7440.5,7440.9,7439.8,7440.1
201906101203,7440.1,7441.3,7440.1,7441
201906101204,7441,7441.6,7441,7441.4
201906101205,7441.4,7441.5,7439.5,7439.5
201906101206,7439.5,7439.8,7438.4,7438.6
201906101207,7438.7,7438.8,7438.2,7438.6
201906101208,7438.5,7439.4,7438.5,7438.6
201906101209,7438.6,7439.4,7438,7438.4
201906101210,7438.4,7438.6,7437.7,7438
201906101211,7438,7438.5,7437.7,7438.2
201906101212,7438.2,7439.2,7437.8,7438.9
201906101213,7438.9,7438.9,7438.1,7438.5
201906101214,7438.6,7439.4,7438.6,7438.8
201906101215,7438.8,7439.7,7438.8,7439.1
201906101216,7439.1,7439.3,7437.5,7437.9
201906101217,7437.9,7438.9,7437.9,7438.2
201906101218,7438.2,7439.1,7438,7438.9
201906101219,7438.8,7438.8,7437.9,7438
201906101220,7438,7438.7,7437.9,7437.9
201906101221,7437.9,7438.8,7437.9,7438.5
201906101222,7438.5,7439.3,7437.3,7439.3
201906101223,7439.3,7439.9,7438.8,7438.8
201906101224,7438.8,7440.4,7438.8,7440.4
201906101225,7440.4,7440.5,7438.8,7439.7
201906101226,7439.5,7439.5,7437.3,7437.9
201906101227,7437.9,7438.9,7437.6,7438.4
201906101228,7438.4,7438.4,7436.9,7436.9
201906101229,7436.9,7437.4,7436,7437.4
201906101230,7437.4,7437.7,7436.9,7437
201906101231,7437,7437.6,7436.9,7437.3
201906101232,7437.3,7437.4,7435.7,7436.5
201906101233,7436.6,7436.6,7435.3,7435.3
201906101234,7435.3,7435.6,7434.4,7434.4
201906101235,7434.4,7435.5,7434.4,7434.9
201906101236,7434.9,7435.1,7434.5,7434.7
201906101237,7434.7,7435.3,7434.5,7434.9
201906101238,7434.9,7435.1,7434.5,7434.8
201906101239,7434.8,7436.2,7434.8,7436.1
201906101240,7436.1,7436.2,7435.1,7435.4
201906101241,7435.4,7436.3,7435.3,7435.7
201906101242,7435.7,7435.9,7435.7,7435.7
201906101243,7435.7,7436.8,7435.7,7436.8
201906101244,7436.8,7438.4,7436.8,7438
201906101245,7438,7438.3,7436.9,7436.9
201906101246,7436.9,7437.8,7436.8,7437.7
201906101247,7437.7,7438.9,7437.1,7438.7
201906101248,7438.7,7438.9,7438.2,7438.4
201906101249,7438.4,7438.9,7438,7438.9
201906101250,7438.9,7440.4,7438.9,7440
201906101251,7440,7440.2,7439.7,7440.2
201906101252,7440.2,7441.1,7440,7441.1
201906101253,7441.1,7441.3,7440.9,7441.1
201906101254,7441.1,7441.5,7440.6,7441.1
201906101255,7441.1,7441.1,7440.1,7441.1
201906101256,7441.1,7441.3,7440.3,7440.4
201906101257,7440.4,7441.5,7440.4,7441.4
201906101258,7441.3,7441.5,7441,7441.5
201906101259,7441.5,7441.5,7441.2,7441.4
201906101300,7441.4,7442.5,7441.4,7442.4
201906101301,7442.4,7442.5,7442,7442.2
201906101302,7442.2,7442.6,7441.8,7441.8
201906101303,7441.8,7442.2,7441.7,7442.2
201906101304,7442.1,7442.6,7441,7442
201906101305,7442,7442.2,7441.5,7441.5
201906101306,7441.5,7441.6,7441.1,7441.6
201906101307,7441.6,7441.9,7441.2,7441.7
201906101308,7441.7,7441.8,7441.4,7441.5
201906101309,7441.4,7442.5,7441.4,7442.1
201906101310,7442.1,7442.1,7440.7,7440.9
201906101311,7440.9,7441.7,7440.7,7441.6
201906101312,7441.6,7441.7,7441.2,7441.2
201906101313,7441.2,7441.8,7441.1,7441.6
201906101314,7441.6,7442,7441.3,7442
201906101315,7442,7443.2,7441.8,7442.9
201906101316,7442.9,7443.1,7442.3,7443
201906101317,7443,7444.3,7442.9,7443.1
201906101318,7443.2,7443.8,7442.8,7443.7
201906101319,7443.7,7444.7,7443.7,7444.7
201906101320,7444.8,7445,7443.9,7443.9
201906101321,7443.9,7443.9,7442.9,7443.7
201906101322,7443.6,7443.8,7443,7443
201906101323,7443,7443.3,7443,7443.1
201906101324,7443.2,7443.4,7442.7,7443.2
201906101325,7443,7443,7442.5,7442.6
201906101326,7442.6,7443,7441.3,7442.8
201906101327,7442.8,7443,7442.4,7442.9
201906101328,7442.9,7443.4,7442.8,7443.2
201906101329,7443.2,7443.2,7442.5,7442.8
201906101330,7442.8,7442.8,7441.9,7442
201906101331,7442,7442,7439.9,7440
201906101332,7440,7440.9,7439.8,7440.7
201906101333,7440.7,7440.9,7440.2,7440.7
201906101334,7440.7,7441,7440.6,7440.9
201906101335,7441,7441.4,7440.9,7441.1
201906101336,7441.1,7441.3,7440.8,7441
201906101337,7441,7441,7440,7440.5
201906101338,7440.5,7441.3,7440.5,7440.8
201906101339,7440.9,7441.3,7440.7,7441.2
201906101340,7441.2,7441.5,7440.9,7441.3
201906101341,7441.4,7442.4,7441.2,7442.4
201906101342,7442.4,7443.8,7442.1,7443.5
201906101343,7443.5,7443.8,7443.3,7443.8
201906101344,7443.8,7444.5,7443.3,7443.3
201906101345,7443.3,7444.1,7443,7443.7
201906101346,7443.6,7444.2,7443,7443
201906101347,7443,7443.3,7442,7442
201906101348,7442,7442.8,7441.9,7442.7
201906101349,7442.7,7443.9,7442.6,7443.9
201906101350,7443.9,7444.3,7443.7,7443.9
201906101351,7443.9,7444.9,7443.9,7444.9
201906101352,7444.9,7445,7444.8,7444.9
201906101353,7444.9,7445.2,7444.4,7444.8
201906101354,7444.8,7447.2,7444.8,7447.2
201906101355,7447.1,7447.5,7445.9,7447.5
201906101356,7447.5,7448,7446.7,7447.5
201906101357,7447.5,7447.8,7447.2,7447.8
201906101358,7447.8,7448.8,7447.6,7448.2
201906101359,7448.4,7448.6,7447.9,7447.9
201906101400,7447.9,7447.9,7445.2,7445.9
201906101401,7445.9,7446.8,7445.9,7446.6
201906101402,7446.6,7446.6,7445.9,7446.4
201906101403,7446.4,7446.5,7445.6,7445.8
201906101404,7445.8,7445.8,7444.4,7445.1
201906101405,7445.1,7446.2,7444.4,7444.6
201906101406,7444.6,7445.9,7444.3,7445.1
201906101407,7445.1,7445.8,7445.1,7445.8
201906101408,7445.8,7446.1,7445.5,7445.5
201906101409,7445.5,7446.1,7445.5,7445.9
201906101410,7445.9,7446.5,7445.9,7445.9
201906101411,7445.9,7446.4,7445,7446.2
201906101412,7446.2,7446.9,7446,7446.9
201906101413,7446.9,7448,7446.8,7448
201906101414,7448,7448.2,7447.6,7447.8
201906101415,7447.9,7449,7447.1,7447.4
201906101416,7447.3,7447.3,7445.8,7446.8
201906101417,7446.8,7447.9,7446.8,7447.6
201906101418,7447.5,7447.6,7446.8,7447.1
201906101419,7447.1,7447.5,7446.8,7447.2
201906101420,7447.2,7447.9,7447.2,7447.7
201906101421,7447.7,7447.9,7447.4,7447.4
201906101422,7447.4,7447.6,7446.3,7446.5
201906101423,7446.5,7446.5,7445.1,7445.3
201906101424,7445.2,7445.7,7444.9,7445.2
201906101425,7445.2,7445.4,7444.9,7445.1
201906101426,7445.1,7445.5,7445.1,7445.1
201906101427,7445,7445.7,7444.4,7445.7
201906101428,7445.7,7445.7,7444.1,7444.3
201906101429,7444.4,7445.5,7444.2,7445.5
201906101430,7445.5,7445.7,7444.9,7444.9
201906101431,7444.9,7445.6,7444.5,7444.5
201906101432,7444.6,7445,7444.5,7444.6
201906101433,7444.6,7445.6,7444.6,7445.6
201906101434,7445.5,7446.8,7445,7445.8
201906101435,7445.8,7446.4,7445.2,7445.8
201906101436,7445.8,7445.8,7444.8,7444.8
201906101437,7444.8,7444.9,7444.3,7444.5
201906101438,7444.5,7444.9,7444.3,7444.7
201906101439,7444.4,7444.4,7442.8,7444.2
201906101440,7444.2,7444.2,7442.2,7443.4
201906101441,7443.5,7444.4,7443.4,7444.4
201906101442,7444.3,7444.3,7441.8,7441.8
201906101443,7441.7,7442.1,7441.5,7441.9
201906101444,7441.9,7442.4,7441.9,7442.1
201906101445,7442.1,7442.1,7441,7441.4
201906101446,7441.4,7442.5,7440.9,7442.4
201906101447,7442.4,7442.9,7442.3,7442.6
201906101448,7442.8,7443.7,7442,7443.7
201906101449,7443.7,7443.8,7443.3,7443.3
201906101450,7443.2,7445.1,7443,7444.9
201906101451,7444.8,7445,7444.4,7444.8
201906101452,7444.8,7444.8,7444.4,7444.5
201906101453,7444.5,7445.1,7444,7444
201906101454,7444,7444.3,7443.8,7444.3
201906101455,7444.3,7444.3,7443.1,7443.3
201906101456,7443.3,7446.8,7443.3,7445.6
201906101457,7445.7,7446.3,7444.5,7444.8
201906101458,7444.8,7444.8,7443.8,7444.2
201906101459,7444.2,7444.3,7442.3,7442.6
201906101500,7442.6,7443.6,7440.9,7441.8
201906101501,7441.8,7442.4,7441.4,7441.6
201906101502,7441.6,7441.9,7440.7,7441.3
201906101503,7441.3,7442.8,7441,7442.4
201906101504,7442.3,7442.8,7441.9,7441.9
201906101505,7441.9,7441.9,7440.2,7440.3
201906101506,7440.3,7441.4,7440.2,7440.9
201906101507,7440.9,7441.9,7440.4,7441.9
201906101508,7442,7443.3,7441.9,7443.1
201906101509,7443.1,7445.1,7443.1,7444.9
201906101510,7444.9,7445.1,7444.6,7444.8
201906101511,7444.8,7446.1,7444.8,7446
201906101512,7445.9,7448.3,7445.9,7447.2
201906101513,7447.2,7447.5,7446.7,7447.3
201906101514,7447.3,7448,7447,7447.1
201906101515,7447.1,7448.7,7446.5,7446.6
201906101516,7446.5,7447.3,7446.3,7447.1
201906101517,7447.1,7447.3,7445.9,7446.4
201906101518,7446.3,7448.6,7446.2,7448.2
201906101519,7448.1,7449.1,7447.8,7448.6
201906101520,7448.6,7450.4,7448.6,7450.4
201906101521,7450.5,7450.8,7449.3,7449.5
201906101522,7449.5,7449.5,7447.9,7448
201906101523,7448,7448,7446.6,7447.3
201906101524,7447.1,7448.6,7447,7448.6
201906101525,7448.5,7449,7448.2,7448.2
201906101526,7448.2,7448.4,7447.4,7448.1
201906101527,7448.1,7449.5,7447.6,7449
201906101528,7449,7449.9,7449,7449.6
201906101529,7449.6,7449.6,7448.5,7448.6
201906101530,7448.6,7448.6,7447.4,7447.9
201906101531,7447.9,7448,7444.9,7445.1
201906101532,7445.1,7445.9,7444.3,7444.3
201906101533,7444.3,7444.6,7443.1,7444.1
201906101534,7444.1,7444.6,7443.8,7444.6
201906101535,7444.6,7445.9,7444.3,7445.4
201906101536,7445.3,7446.2,7445,7445.9
201906101537,7445.9,7446,7445.3,7445.4
201906101538,7445.4,7446.8,7445.4,7446.4
201906101539,7446.4,7446.9,7446.3,7446.7
201906101540,7446.7,7446.8,7446.1,7446.4
201906101541,7446.4,7446.5,7445.2,7445.3
201906101542,7445.3,7445.4,7444.6,7445.1
201906101543,7445.1,7446.6,7445,7446.6
201906101544,7446.6,7447.6,7446.2,7447.4
201906101545,7447.4,7448.1,7447.1,7447.4
201906101546,7447.4,7447.4,7444.6,7445.3
201906101547,7445.3,7445.8,7445,7445.4
201906101548,7445.3,7445.5,7444.5,7444.8
201906101549,7444.8,7445.4,7442.9,7442.9
201906101550,7442.9,7442.9,7441.4,7442.4
201906101551,7442.4,7443.7,7442.2,7443.6
201906101552,7443.7,7444.5,7443.6,7443.9
201906101553,7443.9,7445,7443.7,7443.9
201906101554,7443.9,7443.9,7443.1,7443.8
201906101555,7443.8,7444.6,7443.6,7443.8
201906101556,7443.8,7443.9,7442.9,7442.9
201906101557,7442.9,7444.5,7442.7,7444.5
201906101558,7444.5,7444.6,7444.2,7444.3
201906101559,7444.2,7444.8,7443.6,7444.6
201906101600,7444.6,7444.9,7441.7,7444.9
201906101601,7444.9,7444.9,7443.3,7443.8
201906101602,7443.8,7443.8,7441.7,7441.8
201906101603,7441.8,7441.8,7440.2,7440.2
201906101604,7440.2,7440.6,7438.6,7439.1
201906101605,7439.1,7439.1,7437.6,7438.5
201906101606,7438.5,7440.3,7437.8,7438.6
201906101607,7438.6,7440,7438.4,7439.6
201906101608,7439.6,7439.6,7438,7438.3
201906101609,7438.4,7438.5,7437.1,7438.5
201906101610,7438.6,7439.9,7438.6,7439.4
201906101611,7439.4,7439.8,7438.5,7439.8
201906101612,7439.9,7440.3,7438.4,7438.5
201906101613,7438.5,7440.3,7438.4,7438.4
201906101614,7438.4,7439.4,7437.2,7438
201906101615,7438,7438.2,7436.9,7438.1
201906101616,7438.1,7440.1,7437.8,7440
201906101617,7439.9,7442,7439.5,7441.9
201906101618,7441.9,7444.3,7441.4,7444.2
201906101619,7444.2,7444.2,7442.6,7444.1
201906101620,7444.1,7445.8,7443.6,7444.5
201906101621,7444.5,7444.6,7443.4,7443.9
201906101622,7443.9,7447.3,7443.7,7446.7
201906101623,7446.7,7448.3,7446,7446.8
201906101624,7446.8,7448,7446.7,7447.1
201906101625,7447.1,7448,7446.8,7447.1
201906101626,7447.1,7447.1,7445,7445.4
201906101627,7445.4,7446.8,7444.6,7446.4
201906101628,7446.4,7446.4,7445.1,7445.6
201906101629,7445.6,7447.1,7445.6,7446.4
201906101630,7446.4,7447.4,7445.9,7446.9
201906101631,7446.9,7447.3,7445.7,7447
201906101632,7447,7448.3,7446.1,7448.3
201906101633,7448.3,7449.9,7448.1,7449.6
201906101634,7449.5,7449.5,7448.1,7448.3
201906101635,7448.3,7448.3,7444.1,7444.1
201906101636,7444.3,7445.6,7444,7444.8
201906101637,7444.8,7444.8,7443.8,7444.3
201906101638,7444.3,7446.6,7444.1,7445.5
201906101639,7445.5,7445.5,7443.7,7444.2
201906101640,7444.1,7445,7442.9,7443.1
201906101641,7443.1,7443.8,7441.9,7442.2
201906101642,7441.9,7442.6,7441,7442.2
201906101643,7442.2,7442.8,7441.9,7442.1
201906101644,7442.1,7442.1,7440.9,7441.5
201906101645,7441.5,7442.4,7440.7,7441.9
201906101646,7441.9,7442.8,7441.9,7442.7
201906101647,7442.5,7442.5,7441.3,7442.4
201906101648,7442.4,7443.8,7442.2,7443.8
201906101649,7443.8,7443.8,7442.9,7443.2
201906101650,7443.2,7444.3,7443.1,7444.2
201906101651,7444.2,7448.2,7444.1,7447.4
201906101652,7447.4,7448.2,7446.8,7447.5
201906101653,7447.5,7447.6,7445.4,7446.6
201906101654,7446.6,7449.2,7446.3,7449.2
201906101655,7449.2,7449.4,7447.7,7447.8
201906101656,7447.8,7448,7446.8,7447.5
201906101657,7447.4,7448.5,7447.4,7447.9
201906101658,7447.8,7447.8,7446.7,7447
201906101659,7447.1,7448.6,7447,7448.3
201906101700,7447.9,7450.5,7447.4,7448.2
201906101701,7448.2,7450.1,7447.9,7449.4
201906101702,7449.4,7449.6,7447.3,7447.4
201906101703,7447.5,7447.5,7446,7446.7
201906101704,7446.6,7446.9,7445.3,7446
201906101705,7446,7448.4,7445.9,7447.1
201906101706,7447.1,7448.8,7447.1,7448.4
201906101707,7448.4,7448.4,7446.4,7446.8
201906101708,7446.8,7448.3,7446.1,7447.2
201906101709,7447.2,7447.3,7446.1,7446.4
201906101710,7446.4,7447,7445.3,7446.1
201906101711,7446.1,7446.2,7444.5,7445.6
201906101712,7445.6,7445.8,7444.9,7445
201906101713,7445,7446.2,7444.9,7446.2
201906101714,7446.2,7446.9,7445.8,7446
201906101715,7446,7446.5,7445.3,7445.8
201906101716,7445.8,7445.8,7443.7,7444.1
201906101717,7444.1,7444.3,7442.9,7444.2
201906101718,7444.2,7445.4,7444.1,7444.6
201906101719,7444.8,7444.9,7441.4,7442.3
201906101720,7442.4,7443.4,7441.7,7442.8
201906101721,7442.8,7444.4,7442.2,7443.6
201906101722,7443.7,7444,7443.5,7443.9
201906101723,7443.9,7444.3,7443.3,7444.1
201906101724,7444.1,7444.6,7443.6,7444
201906101725,7444.1,7445.6,7444.1,7445.2
201906101726,7445.2,7447.6,7444.9,7447.6
201906101727,7447.5,7447.5,7445.8,7445.9
201906101728,7445.9,7446.8,7445.5,7446.8
201906101729,7446.9,7447.3,7445.1,7447
201906101730,7447.1,7447.3,7440.6,7441.3
201906101731,7441.2,7441.6,7439.6,7440.3
201906101732,7440.3,7442.6,7440.2,7442.5
201906101733,7442.7,7443.8,7441.7,7443.3
201906101734,7443.4,7444.3,7442.5,7444
201906101735,7444,7444.2,7442.5,7443.5
201906101736,7443.5,7443.8,7442.9,7443.3
201906101737,7443.3,7443.3,7441.8,7441.9
201906101738,7441.9,7442.8,7440,7441
201906101739,7441,7442.3,7440.7,7441.4
201906101740,7441.3,7442.2,7440.7,7441.8
201906101741,7441.9,7444.1,7441.9,7443.6
201906101742,7443.6,7443.8,7441.4,7441.6
201906101743,7441.6,7442.1,7440.2,7440.4
201906101744,7440.4,7442.6,7439.1,7442.3
201906101745,7442.3,7444.3,7441.8,7443.3
201906101746,7443.3,7445.3,7443.3,7443.4
201906101747,7443.4,7445.5,7442.4,7444.9
201906101748,7444.9,7447.4,7443.7,7447.2
201906101749,7447.6,7447.6,7445.7,7446.1
201906101750,7446.1,7446.4,7442.3,7443.4
201906101751,7443.3,7444.5,7442.9,7444.1
201906101752,7444.1,7444.8,7443.3,7443.8
201906101753,7443.8,7446.5,7443.8,7446.2
201906101754,7446.2,7446.3,7445,7445.9
201906101755,7445.9,7446.3,7444.8,7444.8
201906101756,7444.8,7446.5,7444.6,7445.9
201906101757,7445.9,7446.5,7445.2,7445.2
201906101758,7445.2,7445.2,7443,7443.6
201906101759,7443.6,7444.5,7443.1,7444.5
201906101800,7444.5,7445.4,7442.4,7442.5
201906101801,7442.5,7442.5,7441.4,7441.6
201906101802,7441.6,7441.7,7440.5,7441.7
201906101803,7441.7,7443.7,7441.7,7443.7
201906101804,7443.7,7445.3,7443.4,7445.3
201906101805,7445.3,7445.3,7442.2,7442.8
201906101806,7442.8,7443.1,7441.1,7441.4
201906101807,7441.4,7444,7441.4,7443.9
201906101808,7443.9,7444.9,7442.3,7442.5
201906101809,7442.5,7443,7440.9,7442.2
201906101810,7442.2,7442.9,7441.4,7442.2
201906101811,7442.2,7444,7440.8,7442.9
201906101812,7442.9,7443.3,7440.5,7440.8
201906101813,7440.8,7441.3,7440.3,7440.4
201906101814,7440.3,7442.9,7439.9,7442.7
201906101815,7442.7,7442.7,7441.4,7442.3
201906101816,7442.3,7445.2,7441.9,7444.9
201906101817,7444.9,7445,7444,7444.3
201906101818,7444.3,7444.7,7443.1,7444.5
201906101819,7444.5,7445.3,7442.9,7445.3
201906101820,7445.3,7446.1,7443.7,7444.5
201906101821,7444.6,7444.6,7442.7,7443.4
201906101822,7443.4,7445.4,7442.8,7445.1
201906101823,7445.1,7445.7,7444.6,7445.2
201906101824,7445.1,7446.1,7443.9,7444.3
201906101825,7444.4,7445.6,7443.8,7445.3
201906101826,7445.3,7445.4,7443.1,7444.6
201906101827,7444.7,7445.6,7443.7,7444
201906101828,7444,7444.5,7442.7,7442.7
201906101829,7442.7,7444.3,7442.6,7442.6
201906101830,7442.8,7443.5,7442.2,7443
201906101831,7443,7443.3,7442.6,7443
201906101832,7443,7443.3,7441.9,7442.6
201906101833,7442.6,7443.7,7441.4,7442.8
201906101834,7442.8,7442.8,7441.4,7441.6
201906101835,7441.7,7442.1,7441.1,7441.8
201906101836,7441.9,7441.9,7441.1,7441.5
201906101837,7441.5,7442.4,7441.1,7441.4
201906101838,7441.4,7442.3,7441.4,7441.5
201906101839,7441.5,7442.4,7441.3,7442.3
201906101840,7442.3,7443.4,7442.2,7443.1
201906101841,7443.1,7444.4,7442.7,7444.4
201906101842,7444.3,7444.5,7442.1,7442.1
201906101843,7442.1,7442.7,7442.1,7442.3
201906101844,7442.3,7442.7,7441.9,7442.6
201906101845,7442.6,7442.6,7439.7,7440.3
201906101846,7440.3,7442.3,7440.1,7442.2
201906101847,7442.3,7443.8,7442.3,7443.4
201906101848,7443.4,7444.2,7442.8,7444.2
201906101849,7444.1,7444.3,7443.4,7443.7
201906101850,7443.7,7444.1,7442.9,7443.9
201906101851,7443.8,7443.8,7442.9,7443.4
201906101852,7443.4,7444.8,7443.4,7444.1
201906101853,7444.1,7445.4,7444.1,7445.2
201906101854,7445.2,7445.6,7444.1,7444.4
201906101855,7444.4,7445.5,7444.4,7445.2
201906101856,7445.2,7445.8,7444.8,7444.8
201906101857,7444.9,7445.2,7444.7,7445
201906101858,7445,7445,7444.1,7444.6
201906101859,7444.6,7446.3,7444.5,7446.3
201906101900,7446.3,7446.3,7444.4,7444.9
201906101901,7444.9,7445.5,7444.7,7445
201906101902,7445,7447.2,7444.9,7446.8
201906101903,7446.8,7447.1,7446.1,7446.4
201906101904,7446.4,7447.4,7446.2,7446.9
201906101905,7446.9,7447.3,7445.3,7447.2
201906101906,7447.2,7447.8,7446.7,7446.7
201906101907,7446.7,7447.2,7445.7,7446.7
201906101908,7446.7,7446.7,7445.7,7446.3
201906101909,7446.3,7446.4,7445.9,7446
201906101910,7446.1,7446.3,7443.9,7444.1
201906101911,7444,7444,7443.1,7443.6
201906101912,7443.6,7443.6,7442.9,7443.2
201906101913,7443.2,7443.7,7442.1,7443.7
201906101914,7443.5,7444.8,7443.5,7444.7
201906101915,7444.7,7444.7,7443.4,7443.9
201906101916,7444.2,7444.5,7443.4,7443.6
201906101917,7443.6,7445,7442.5,7444.7
201906101918,7444.7,7445.6,7444.7,7444.9
201906101919,7444.9,7445.4,7444.9,7445.1
201906101920,7445.1,7445.3,7443.6,7444.1
201906101921,7444.2,7445.9,7444.2,7445.5
201906101922,7445.5,7446.6,7445.3,7446.6
201906101923,7446.7,7447.3,7446,7447.2
201906101924,7447.2,7447.7,7447.1,7447.6
201906101925,7447.4,7447.5,7445.8,7446.6
201906101926,7446.6,7447.9,7446.6,7446.8
201906101927,7446.8,7447.1,7446.7,7447.1
201906101928,7447.1,7447.6,7445.9,7447.1
201906101929,7447.1,7448.3,7447.1,7448.3
201906101930,7448.4,7448.7,7447.1,7447.4
201906101931,7447.4,7447.4,7446,7446.1
201906101932,7446.2,7446.9,7446.1,7446.9
201906101933,7446.9,7446.9,7445.9,7446
201906101934,7446.1,7446.6,7445.9,7446.2
201906101935,7446.1,7446.5,7445.7,7446.2
201906101936,7446.2,7447,7446.2,7446.8
201906101937,7446.9,7447.3,7446.4,7447
201906101938,7447.1,7447.8,7446.5,7446.5
201906101939,7446.5,7447.6,7446.5,7447.5
201906101940,7447.6,7448.4,7447.6,7447.9
201906101941,7447.9,7448.5,7447.4,7448.4
201906101942,7448.4,7448.6,7448,7448.4
201906101943,7448.4,7452.2,7448.4,7452
201906101944,7452,7452.1,7451,7451.9
201906101945,7451.9,7452,7450.4,7450.6
201906101946,7450.6,7451,7449.9,7451
201906101947,7451,7451,7450.1,7450.4
201906101948,7450.4,7451.4,7450.4,7450.5
201906101949,7450.5,7450.9,7449.4,7450.8
201906101950,7450.9,7450.9,7449.9,7450.2
201906101951,7450.1,7451,7449.7,7450.9
201906101952,7450.9,7452.2,7450,7451.3
201906101953,7451.3,7451.5,7450.5,7450.9
201906101954,7450.9,7451.1,7450.4,7450.9
201906101955,7450.9,7451.4,7450.1,7450.2
201906101956,7450.1,7450.1,7448.9,7449.7
201906101957,7449.7,7449.8,7449.1,7449.4
201906101958,7449.4,7449.8,7449,7449.7
201906101959,7449.8,7449.8,7444.4,7445
201906102000,7445,7445.1,7441.8,7444.8
201906102001,7444.8,7446.8,7444.4,7446.8
201906102002,7446.9,7448.5,7446.3,7448.1
201906102003,7448.1,7450.3,7447.9,7450.2
201906102004,7450.2,7451.4,7449.8,7450.5
201906102005,7450.5,7451.6,7450.2,7450.9
201906102006,7450.9,7451.3,7450.1,7450.4
201906102007,7450.4,7451.3,7450.4,7451.3
201906102008,7451.1,7454.2,7451.1,7453.3
201906102009,7453.4,7454.3,7453.4,7453.8
201906102010,7453.8,7454.3,7453.4,7453.9
201906102011,7453.9,7456.1,7453.9,7456.1
201906102012,7456.1,7456.7,7455.3,7456.7
201906102013,7456.6,7456.8,7455.6,7456.4
201906102014,7456.5,7458.6,7456.5,7458.6
201906102015,7458.6,7459,7457.5,7458.5
201906102016,7458.5,7459.4,7457.8,7458.6
201906102017,7458.6,7459.1,7458,7458
201906102018,7458,7458.1,7457,7457.5
201906102019,7457.5,7457.5,7456.3,7456.6
201906102020,7456.6,7457.2,7456,7456.9
201906102021,7456.9,7457.1,7456.7,7457
201906102022,7457,7457.2,7456.9,7457
201906102023,7457,7457.7,7457,7457.4
201906102024,7457.4,7458.4,7457,7458.1
201906102025,7458.2,7458.5,7456.9,7457.3
201906102026,7457.3,7457.3,7456.6,7457.1
201906102027,7457.1,7457.2,7455.7,7455.7
201906102028,7455.7,7458,7455.7,7458
201906102029,7457.8,7461.4,7457.8,7460.6
201906102030,7460.7,7460.9,7458.2,7458.2
201906102031,7458.2,7459.1,7456.2,7457.1
201906102032,7457.1,7457.1,7456.1,7456.7
201906102033,7456.7,7461.6,7456.4,7461.2
201906102034,7461.2,7461.5,7460,7460.1
201906102035,7460.1,7461,7459.9,7461
201906102036,7461,7461,7458.4,7459.4
201906102037,7459.4,7462.2,7459.4,7461.5
201906102038,7461.6,7461.6,7460.1,7460.1
201906102039,7460.1,7461.1,7458.5,7459.6
201906102040,7459.6,7462.3,7459.4,7461.2
201906102041,7461,7463.2,7461,7462.6
201906102042,7462.5,7462.8,7461.7,7462.4
201906102043,7462.4,7462.7,7461.9,7462.4
201906102044,7462.4,7464.7,7461.9,7464.7
201906102045,7464.7,7464.7,7462.9,7464.3
201906102046,7464.3,7464.3,7463.2,7463.9
201906102047,7463.9,7465.8,7463.9,7465.5
201906102048,7465.5,7467,7464.9,7466.7
201906102049,7466.7,7467.1,7466.2,7467.1
201906102050,7467.1,7467.2,7465.8,7466.4
201906102051,7466.4,7467.2,7465.4,7466.8
201906102052,7466.8,7467.2,7466,7466.8
201906102053,7466.8,7468.1,7466.7,7468.1
201906102054,7468.1,7468.5,7467.4,7467.5
201906102055,7467.5,7468,7466.5,7466.6
201906102056,7466.6,7468.4,7466.6,7468.3
201906102057,7468.4,7469.2,7466.6,7467.1
201906102058,7467.1,7467.4,7466.9,7467
201906102059,7467,7467.3,7466.1,7466.1
201906102100,7466.1,7466.4,7463.9,7464.6
201906102101,7464.6,7466,7464.4,7464.4
201906102102,7464.4,7464.6,7462.9,7463.2
201906102103,7463.3,7463.3,7462.3,7462.4
201906102104,7462.4,7462.8,7462.2,7462.6
201906102105,7462.6,7466.3,7462.2,7466.3
201906102106,7466.5,7468.2,7465.7,7468.1
201906102107,7468.1,7468.2,7466.3,7466.4
201906102108,7466.4,7468.3,7466.3,7467.8
201906102109,7467.9,7468.2,7467.6,7467.8
201906102110,7467.8,7468.1,7463.7,7463.9
201906102111,7463.9,7464.8,7463.7,7464.5
201906102112,7464.5,7466.1,7464.4,7465.5
201906102113,7465.4,7467.5,7465.2,7467.5
201906102114,7467.5,7469.3,7466.9,7468.7
201906102115,7468.7,7469.2,7466.3,7468.1
201906102116,7468.1,7469.2,7467.6,7467.6
201906102117,7467.6,7468.3,7466.7,7466.9
201906102118,7466.9,7467.4,7463.7,7463.7
201906102119,7463.7,7463.9,7461.3,7461.3
201906102120,7461.4,7462.6,7461.1,7461.6
201906102121,7461.5,7462,7457.1,7457.1
201906102122,7457.1,7458.6,7456.9,7457.3
201906102123,7457.4,7459.8,7457.4,7459.8
201906102124,7459.8,7460.5,7459.1,7459.8
201906102125,7459.8,7461.7,7459.7,7460.4
201906102126,7460.4,7462.8,7460.1,7461.3
201906102127,7461.3,7461.3,7459.4,7459.4
201906102128,7459.4,7460.7,7459.1,7459.4
201906102129,7459.4,7459.8,7458.4,7458.6
201906102130,7458.6,7460.9,7458.6,7460
201906102131,7460,7460.8,7459.2,7459.2
201906102132,7459.2,7461.5,7458.6,7460.4
201906102133,7460.4,7461.9,7460.3,7461.9
201906102134,7461.9,7462.4,7460.4,7460.4
201906102135,7460.4,7462.9,7460,7462.5
201906102136,7462.5,7464.1,7462.4,7463.8
201906102137,7463.8,7464.6,7460.6,7462.4
201906102138,7462.4,7465.8,7462.4,7464.9
201906102139,7464.9,7465.8,7464.1,7465.8
201906102140,7466,7467.9,7465.7,7467.2
201906102141,7467.2,7468,7464.9,7465.1
201906102142,7465.1,7466.4,7465.1,7465.5
201906102143,7465.6,7465.6,7462,7462
201906102144,7462,7462.8,7460.5,7460.5
201906102145,7460.5,7461.8,7458.7,7458.8
201906102146,7458.8,7460.4,7457.9,7459.2
201906102147,7459.2,7460.3,7459.1,7459.6
201906102148,7459.6,7461,7459.1,7460.9
201906102149,7460.9,7463.9,7460.9,7463.7
201906102150,7463.7,7470.8,7459.4,7465.1
201906102151,7465.1,7465.1,7461.2,7461.7
201906102152,7461.6,7463.3,7461.1,7461.8
201906102153,7461.8,7464.8,7461.7,7462.1
201906102154,7462.1,7464,7462.1,7462.3
201906102155,7462.3,7464.7,7462.3,7464.5
201906102156,7464.5,7464.8,7458.9,7459.4
201906102157,7459.4,7461.9,7456.6,7457.8
201906102158,7457.8,7461.9,7457.3,7460.6
201906102159,7460.7,7466.3,7460.7,7464.3
201906102200,7464.3,7464.4,7462.6,7463.5
201906102201,7463.3,7464.3,7462.6,7463.5
201906102202,7463.8,7465.5,7463.8,7464
201906102203,7464,7464.4,7463.2,7463.5
201906102204,7463.5,7464.3,7463,7463.4
201906102205,7463.2,7464.3,7463.2,7463.9
201906102206,7463.8,7464.7,7463.1,7464.2
201906102207,7464.3,7464.8,7464.1,7464.7
201906102208,7464.7,7465.5,7464.7,7465
201906102209,7464.9,7465.4,7464.2,7465.4
201906102210,7465.4,7466.1,7465.3,7465.9
201906102211,7465.9,7466.3,7465.1,7465.6
201906102212,7465.6,7465.6,7463.5,7463.5
201906102213,7463.6,7464.6,7463.4,7464
201906102214,7463.9,7465,7463.9,7464.3
201906102215,7464.3,7465.1,7464.1,7464.7
201906102216,7464.7,7464.9,7464,7464.8
201906102217,7465.2,7465.3,7463.5,7464.7
201906102218,7464.7,7464.8,7464.2,7464.8
201906102219,7464.8,7468.4,7464.8,7468.3
201906102220,7468.2,7470,7468,7468.6
201906102221,7468.6,7468.6,7467.6,7468.5
201906102222,7468.5,7468.8,7467.2,7467.4
201906102223,7467.4,7469.3,7467.4,7468.9
201906102224,7468.9,7469.3,7467.4,7467.4
201906102225,7467.4,7467.8,7465.9,7466
201906102226,7466,7467.2,7465.6,7467.2
201906102227,7467.2,7467.3,7465.8,7466.2
201906102228,7466.2,7469.6,7465.6,7469.2
201906102229,7469.4,7470.8,7468.6,7468.8
201906102230,7468.8,7476.2,7468.8,7474.3
201906102231,7474.3,7482.2,7474.3,7481.9
201906102232,7482.2,7490.1,7481.8,7489.5
201906102233,7489.5,7499.5,7489.1,7497.9
201906102234,7497.9,7503.4,7495.2,7500.7
201906102235,7500.7,7502.3,7494,7495.5
201906102236,7495.5,7497,7491.7,7492.4
201906102237,7492.4,7500.6,7491.8,7498.4
201906102238,7498.9,7505.7,7498.4,7501.7
201906102239,7501.7,7503.4,7496.9,7498
201906102240,7498,7510.5,7498,7509.8
201906102241,7509.4,7514.4,7505.8,7514.4
201906102242,7514.4,7515.1,7510.4,7514.5
201906102243,7514.5,7516.2,7511.9,7512.7
201906102244,7512.7,7513.9,7508.9,7509.9
201906102245,7510.2,7520.4,7508.5,7508.5
201906102246,7508.5,7509.6,7506.5,7508.2
201906102247,7508.2,7509,7502.1,7502.1
201906102248,7502.4,7505.8,7500.4,7500.7
201906102249,7500.5,7501.7,7495.6,7500.2
201906102250,7500.3,7503.4,7496.2,7497.7
201906102251,7497.7,7501.5,7496,7500.4
201906102252,7500.4,7501.5,7493.1,7493.9
201906102253,7493.9,7496.5,7493.4,7495
201906102254,7494.9,7498.6,7493.7,7498
201906102255,7498,7503.8,7497.9,7503
201906102256,7503,7507.3,7503,7506.1
201906102257,7506,7508.8,7503.9,7505.7
201906102258,7505.5,7508.8,7505.3,7507.9
201906102259,7508.2,7511.1,7507.9,7511
201906102300,7511.4,7512.7,7506,7510.3
201906102301,7510.4,7514.6,7507.9,7514.1
201906102302,7514.1,7514.3,7509.1,7509.8
201906102303,7509.8,7511.4,7507,7507.8
201906102304,7507.8,7513.3,7507.6,7511.7
201906102305,7511.7,7520.1,7511.7,7519.7
201906102306,7519.9,7524.5,7519.7,7523.7
201906102307,7523.7,7524.4,7518.9,7519.4
201906102308,7519.3,7524,7519,7524
201906102309,7523.9,7528.3,7523.8,7526.7
201906102310,7526.9,7530.6,7525,7527.7
201906102311,7527.7,7528.5,7525.1,7526.8
201906102312,7527.2,7528.4,7522.7,7527.9
201906102313,7527.9,7530.6,7526.3,7528.2
201906102314,7528.2,7529.7,7526.2,7528.1
201906102315,7528.1,7532,7528.1,7531.1
201906102316,7531.2,7535.4,7530.6,7534.6
201906102317,7534.6,7539.9,7534.3,7539.5
201906102318,7539.2,7539.8,7535.6,7537
201906102319,7537,7540.3,7536.2,7540.2
201906102320,7540.2,7540.6,7533.2,7536.5
201906102321,7536.4,7536.4,7532.9,7534
201906102322,7534,7535.3,7529.1,7530.9
201906102323,7530.9,7532.2,7529.2,7531.9
201906102324,7532.3,7534.6,7530.8,7533.2
201906102325,7533.2,7537.8,7532.7,7532.7
201906102326,7532.7,7532.8,7526.9,7529.5
201906102327,7529.5,7529.5,7526.6,7527.4
201906102328,7527.4,7530.8,7526.2,7529.3
201906102329,7529.3,7534.7,7528.6,7534.7
201906102330,7534.5,7534.8,7528.4,7529
201906102331,7529,7530.5,7526.6,7529.9
201906102332,7529.9,7534.2,7528.2,7533.2
201906102333,7533,7534.3,7531.4,7532.6
201906102334,7532.6,7535.9,7530.6,7533.3
201906102335,7533.3,7534.6,7531.8,7533.8
201906102336,7533.8,7534.7,7529.9,7534.1
201906102337,7534,7536.8,7528.8,7529.9
201906102338,7529.9,7532.3,7527,7527.7
201906102339,7527.7,7529.3,7526,7528.5
201906102340,7528.5,7532.3,7526.9,7531.9
201906102341,7531.9,7533.2,7529.9,7530.4
201906102342,7530.4,7538.3,7530.4,7537.1
201906102343,7536.9,7540.1,7536.2,7538.9
201906102344,7538.9,7542.6,7537.1,7540.9
201906102345,7540.9,7546.3,7540.9,7543.1
201906102346,7542.9,7548.7,7542.9,7548.7
201906102347,7548.7,7550.9,7548.6,7549.7
201906102348,7550.5,7553.1,7545.2,7552.9
201906102349,7552.9,7553.2,7550.3,7550.5
201906102350,7550.6,7550.6,7543.4,7544.9
201906102351,7545.2,7548.2,7544.7,7545.9
201906102352,7545.9,7548.9,7545.7,7547.9
201906102353,7547.9,7549.2,7546.8,7548.6
201906102354,7548.2,7551.6,7546.3,7549.2
201906102355,7549.2,7549.2,7544,7544
201906102356,7544.2,7546.3,7543.4,7544.5
201906102357,7544.7,7546.3,7541.4,7542.2
201906102358,7542.2,7545.8,7541.9,7545
201906102359,7545,7545,7540,7540.1
201906110000,7540.1,7544.9,7538.3,7544.7
201906110001,7544.5,7546.8,7543,7546.4
201906110002,7546.4,7547.9,7545.9,7546.6
201906110003,7546.6,7547.1,7544.4,7544.8
201906110004,7544.9,7546.7,7544.3,7545.9
201906110005,7545.9,7546.8,7543.7,7545.9
201906110006,7545.9,7547.8,7545.5,7546.4
201906110007,7546.2,7547.6,7543.8,7543.8
201906110008,7543.9,7549.1,7543.9,7548.9
201906110009,7548.9,7550.5,7547.9,7550.3
201906110010,7550,7556.2,7550,7553.2
201906110011,7553,7556.6,7553,7555.9
201906110012,7555.9,7556,7554.2,7554.7
201906110013,7554.6,7555.8,7553.9,7555.8
201906110014,7555.9,7557.4,7555.3,7556.2
201906110015,7556.2,7558.1,7555.1,7555.2
201906110016,7555.4,7556.5,7553.5,7553.5
201906110017,7553.6,7555.5,7552.9,7555.1
201906110018,7555.1,7555.8,7554.1,7555.7
201906110019,7555.7,7558,7555.4,7557.9
201906110020,7557.7,7559,7551.9,7553.8
201906110021,7553.9,7555,7551.5,7554.8
201906110022,7554.8,7556.9,7553.9,7555.7
201906110023,7555.7,7558.8,7555.2,7556.2
201906110024,7556.3,7558.9,7556.2,7557.6
201906110025,7557.6,7561.3,7557.6,7561.3
201906110026,7561.3,7561.3,7557.4,7558.3
201906110027,7558.2,7560.7,7557.9,7558.7
201906110028,7558.7,7560.2,7557.7,7557.7
201906110029,7557.7,7558.8,7555.4,7555.4
201906110030,7555.4,7559,7555.1,7557.3
201906110031,7557.7,7559.6,7557.4,7558.4
201906110032,7558.2,7563.5,7557.7,7563.1
201906110033,7563.2,7564.3,7561.9,7563.8
201906110034,7564,7564.2,7559.4,7560.7
201906110035,7560.9,7563.5,7559.3,7559.4
201906110036,7559.4,7560.1,7558.4,7558.7
201906110037,7558.7,7559.2,7557.5,7558
201906110038,7557.9,7558.4,7556.2,7557.5
201906110039,7557.5,7562.5,7557.4,7561.9
201906110040,7561.2,7564.2,7560.7,7563.9
201906110041,7563.5,7569.8,7563.2,7567.1
201906110042,7567.1,7567.6,7565,7567.3
201906110043,7567.3,7572.8,7567.3,7571
201906110044,7570.9,7573.3,7569.7,7573
201906110045,7573,7574.2,7569.3,7570
201906110046,7570,7570.5,7568.8,7569.9
201906110047,7569.9,7570.4,7567.2,7568
201906110048,7568,7571.2,7567.4,7569.8
201906110049,7569.8,7570.7,7568.9,7570.7
201906110050,7570.3,7574.7,7570.3,7572.2
201906110051,7572.2,7573.7,7570.2,7570.8
201906110052,7570.8,7572.3,7569.9,7572.3
201906110053,7572.2,7576,7571.9,7576
201906110054,7576,7576.9,7573.7,7576.4
201906110055,7576.4,7577.6,7575,7577.2
201906110056,7576.9,7578.1,7576.5,7577.4
201906110057,7577.3,7577.3,7573,7573.3
201906110058,7573.3,7573.6,7571.5,7573.5
201906110059,7573.5,7574.4,7572,7572.3
201906110100,7572.3,7574,7568.4,7568.6
201906110101,7568.6,7568.9,7567.2,7567.2
201906110102,7567.2,7568.5,7566,7567.7
201906110103,7567.7,7570.8,7567.7,7570.5
201906110104,7570.5,7571.5,7568.3,7568.4
201906110105,7568.4,7569.9,7567.4,7568.9
201906110106,7568.9,7570.9,7566.6,7570.9
201906110107,7570.9,7570.9,7567,7567.3
201906110108,7567.2,7567.2,7563.7,7564.4
201906110109,7564.4,7564.5,7563,7563
201906110110,7563.2,7565.8,7562.4,7565
201906110111,7564.7,7565.6,7563.4,7564
201906110112,7564,7564.7,7562,7562.5
201906110113,7562.5,7563.5,7562.2,7563
201906110114,7562.9,7564.3,7562,7562.1
201906110115,7562.1,7564.2,7560.7,7563
201906110116,7563.1,7565.1,7563,7564.7
201906110117,7564.7,7565.5,7561.2,7561.3
201906110118,7561.3,7562,7558,7558.7
201906110119,7558.7,7559.3,7557.4,7557.6
201906110120,7557.5,7557.8,7555.2,7555.5
201906110121,7555.5,7556.5,7546.2,7548.6
201906110122,7548.5,7552.7,7548.5,7550.3
201906110123,7550.5,7551.2,7548.2,7548.7
201906110124,7548.7,7549.9,7545.9,7547.2
201906110125,7547.2,7548.5,7544.9,7548.5
201906110126,7548.6,7551.2,7548.2,7551
201906110127,7551,7552,7550.2,7551.6
201906110128,7551.6,7554,7551.1,7553.4
201906110129,7553.4,7554.1,7550.5,7550.5
201906110130,7550.4,7551.9,7548.1,7551.2
201906110131,7551.2,7551.5,7547.7,7548
201906110132,7548.2,7548.6,7545.7,7547.3
201906110133,7547.3,7547.3,7541,7543.2
201906110134,7543.2,7544.3,7541.3,7542.5
201906110135,7542.5,7542.8,7540.4,7541.1
201906110136,7541.1,7542,7539.7,7539.7
201906110137,7539.7,7541.3,7536.6,7538.7
201906110138,7538.7,7542.1,7538.7,7541.3
201906110139,7541.3,7544.3,7541.3,7543.9
201906110140,7543.9,7549,7543.6,7547.9
201906110141,7547.9,7549.8,7547.4,7549.8
201906110142,7549.6,7550.2,7547.2,7547.7
201906110143,7547.7,7549.5,7546.9,7548.9
201906110144,7548.9,7549,7546.1,7546.1
201906110145,7546.1,7546.1,7540.1,7540.3
201906110146,7540.3,7543.2,7540.2,7542.6
201906110147,7542.6,7542.6,7540.6,7541.8
201906110148,7541.9,7542.7,7539.9,7540.8
201906110149,7540.8,7545,7540.6,7542.2
201906110150,7542.2,7543,7539.4,7539.7
201906110151,7539.5,7541.9,7537.9,7538.6
201906110152,7538.6,7539.5,7536,7537.4
201906110153,7537.4,7540.3,7537.4,7539.9
201906110154,7539.9,7543.2,7539.9,7542.4
201906110155,7542.4,7542.8,7539.5,7540.2
201906110156,7540.2,7540.2,7533.2,7533.7
201906110157,7533.7,7538.6,7533.7,7538.3
201906110158,7538.3,7540.3,7535.9,7536.4
201906110159,7536.4,7537.5,7534.6,7535.6
201906110200,7535.6,7539.2,7535.6,7537.3
201906110201,7537.3,7542,7537.3,7541.6
201906110202,7541.5,7545.8,7541.3,7545.4
201906110203,7545.4,7548,7545.4,7547
201906110204,7547,7549.4,7546.3,7547.2
201906110205,7547.2,7547.7,7544.6,7545.5
201906110206,7545.5,7546.3,7542.3,7545.3
201906110207,7545.3,7546.3,7543.1,7544
201906110208,7544.1,7544.5,7541.9,7542.9
201906110209,7542.9,7544.1,7541.9,7542.1
201906110210,7542.1,7544.8,7541.9,7544.4
201906110211,7544.3,7548,7544.2,7548
201906110212,7547.9,7548.8,7546.6,7547.7
201906110213,7547.5,7547.8,7543.2,7544.1
201906110214,7544.1,7547.7,7544.1,7546.2
201906110215,7546.2,7548.2,7543.4,7543.9
201906110216,7543.9,7544.5,7540.9,7541.6
201906110217,7541.6,7543.5,7541.1,7541.4
201906110218,7541.4,7544.3,7541.2,7542
201906110219,7542,7542,7538.1,7538.4
201906110220,7538.4,7539.2,7536.1,7538.1
201906110221,7538.1,7541.6,7538.1,7541.1
201906110222,7541,7541.8,7538.9,7540.4
201906110223,7540.3,7542,7539.6,7540.6
201906110224,7540.6,7540.6,7538.5,7539.2
201906110225,7539.3,7539.5,7537.4,7539.3
201906110226,7539.2,7539.2,7536,7536.4
201906110227,7536.1,7536.4,7535.2,7535.4
201906110228,7535.4,7536.6,7534.9,7536.6
201906110229,7536.6,7538.6,7536.4,7537.2
201906110230,7537.2,7542.4,7536.9,7542.1
201906110231,7542,7542,7537.7,7537.7
201906110232,7537.7,7538.6,7535,7535.3
201906110233,7535.3,7538.3,7535,7536
201906110234,7536,7537.5,7534.6,7537.4
201906110235,7537.4,7539.3,7536.4,7538.2
201906110236,7538.2,7538.5,7535.9,7537
201906110237,7537,7537.7,7533.5,7534
201906110238,7534,7536.5,7533.3,7535.6
201906110239,7535.5,7536.5,7534,7534.9
201906110240,7535.6,7540.8,7535.6,7539.7
201906110241,7539.7,7539.9,7537.4,7537.4
201906110242,7537,7538.7,7535.3,7538.4
201906110243,7538.4,7538.7,7533.9,7534
201906110244,7534,7534.4,7529.4,7529.9
201906110245,7530,7530.2,7526.4,7527.7
201906110246,7527.7,7530.3,7526.7,7528.8
201906110247,7528.8,7531.6,7528.8,7531.2
201906110248,7531.2,7531.4,7530.3,7530.6
201906110249,7530.5,7532.2,7530.4,7531.3
201906110250,7531.1,7532.8,7528.6,7529.5
201906110251,7529.5,7530.2,7526.2,7527.1
201906110252,7527.1,7529,7525.4,7526.7
201906110253,7526.9,7530.7,7526.9,7529.6
201906110254,7529.7,7531.5,7528.7,7528.9
201906110255,7528.9,7530.4,7527.9,7529.4
201906110256,7529.4,7532.8,7529.1,7532.7
201906110257,7532.7,7533.4,7531.2,7533
201906110258,7533.2,7534,7531.4,7533.8
201906110259,7533.9,7533.9,7531.2,7532.6
201906110300,7532.6,7532.8,7523.8,7523.8
201906110301,7523.6,7524.7,7515.6,7520
201906110302,7520,7521.3,7518.5,7519.2
201906110303,7519.2,7519.2,7516.1,7518.7
201906110304,7518.6,7521.4,7518.1,7518.5
201906110305,7518.5,7522.3,7517.4,7521.2
201906110306,7521.3,7523.5,7519.7,7521.7
201906110307,7521.9,7524.7,7521.9,7523.7
201906110308,7523.8,7523.8,7519.8,7521
201906110309,7521.2,7523.3,7519.6,7521.5
201906110310,7521.5,7521.7,7518.4,7520.2
201906110311,7520.2,7520.8,7518.4,7519.4
201906110312,7519.4,7519.4,7516.2,7517
201906110313,7516.4,7516.8,7508.7,7508.9
201906110314,7508.7,7513.1,7508.7,7512.4
201906110315,7512.4,7512.4,7505.6,7507.2
201906110316,7507.2,7507.2,7503.2,7504.4
201906110317,7504.1,7504.3,7501.3,7503
201906110318,7503,7506.2,7501.3,7506
201906110319,7506,7507,7504,7506.8
201906110320,7506.8,7508.3,7505.9,7507.4
201906110321,7507.4,7510.2,7506.6,7508.7
201906110322,7508.7,7513,7507.9,7512.9
201906110323,7512.9,7517.7,7512.4,7517.7
201906110324,7517.7,7518.7,7516.1,7516.1
201906110325,7516.1,7518.9,7515.5,7518.9
201906110326,7518.9,7520.4,7517.4,7519.4
201906110327,7519.3,7520.1,7517.4,7517.8
201906110328,7517.8,7521.1,7517.6,7520.3
201906110329,7520.2,7521.2,7518.7,7518.8
201906110330,7518.8,7520,7516.9,7518.8
201906110331,7518.8,7521.3,7518.5,7519.8
201906110332,7519.5,7521.3,7518.8,7521.1
201906110333,7521.1,7522.1,7520.4,7521.8
201906110334,7521.9,7524.5,7521.9,7522.2
201906110335,7522.2,7522.5,7518,7518.9
201906110336,7518.9,7518.9,7516.8,7517.6
201906110337,7517.7,7519.8,7516.9,7518.7
201906110338,7518.7,7521.9,7518.1,7521.9
201906110339,7522.3,7524.2,7521.9,7523.7
201906110340,7523.7,7523.9,7519.2,7519.3
201906110341,7519.2,7522.2,7518.1,7521.9
201906110342,7521.9,7523.7,7521.7,7523
201906110343,7523,7524.5,7522.4,7524.5
201906110344,7524.5,7524.5,7521.7,7522.9
201906110345,7522.9,7526.5,7522.9,7523.7
201906110346,7523.7,7527.3,7522.8,7527.2
201906110347,7527.2,7528.2,7525.9,7527.9
201906110348,7527.9,7528.4,7525.9,7526
201906110349,7526.1,7528.3,7526,7526.4
201906110350,7526.4,7528.5,7525.2,7526.7
201906110351,7526.7,7527.2,7525.9,7526.4
201906110352,7526.4,7526.4,7523.5,7524.7
201906110353,7524.7,7525.2,7522.7,7522.9
201906110354,7522.9,7525,7522.4,7524.8
201906110355,7524.8,7526.1,7524.2,7524.5
201906110356,7524.8,7530.3,7524.7,7529.8
201906110357,7529.9,7530.8,7528.6,7528.6
201906110358,7528.6,7529.5,7527.2,7528
201906110359,7528.1,7531,7527.6,7529.9
201906110400,7529.9,7531.2,7528.6,7528.6
201906110401,7528.6,7528.6,7525.2,7526.4
201906110402,7526.7,7531.3,7526.7,7530.1
201906110403,7530.1,7531.3,7529.1,7531.2
201906110404,7531.2,7532.5,7529.9,7529.9
201906110405,7529.9,7532,7528.6,7530.7
201906110406,7530.7,7530.7,7528.4,7530.4
201906110407,7530.4,7530.7,7528.4,7529.8
201906110408,7529.8,7531,7529.4,7530.1
201906110409,7530.1,7533.8,7530.1,7533.2
201906110410,7533.2,7534.1,7532.2,7533.9
201906110411,7533.9,7534.1,7528.5,7529.2
201906110412,7529.2,7530,7526.9,7526.9
201906110413,7526.9,7528.9,7525.9,7525.9
201906110414,7526,7526.4,7520.4,7521.1
201906110415,7521.1,7523.3,7518.9,7520.5
201906110416,7520.5,7525.2,7519.9,7524.7
201906110417,7524.7,7528.6,7523,7527.9
201906110418,7528.2,7528.5,7524.4,7526
201906110419,7526,7527.6,7524.4,7525.6
201906110420,7525.2,7527.8,7525.2,7525.7
201906110421,7525.7,7525.7,7520.7,7521.7
201906110422,7521.7,7523.8,7520.5,7520.5
201906110423,7520.5,7523.9,7520.5,7523.2
201906110424,7523.4,7523.4,7519.8,7520.9
201906110425,7520.9,7522.6,7517,7517.4
201906110426,7517.4,7520.2,7517.4,7518.5
201906110427,7518.4,7519.9,7517.2,7517.4
201906110428,7517.4,7517.5,7512.4,7512.4
201906110429,7512.4,7514.4,7512,7514.2
201906110430,7514.4,7514.9,7512,7514.6
201906110431,7514.6,7522.6,7514.6,7522.2
201906110432,7522.2,7525.1,7520.9,7524.4
201906110433,7524.4,7529.8,7523.9,7527.4
201906110434,7527.4,7527.4,7523.4,7524.4
201906110435,7524.4,7524.4,7519.1,7521.4
201906110436,7521.5,7523.1,7519.2,7521.8
201906110437,7521.9,7523.5,7518.7,7518.9
201906110438,7518.9,7519.6,7517.4,7519.2
201906110439,7519.2,7519.7,7515.4,7515.8
201906110440,7515.8,7520.2,7515.8,7519.2
201906110441,7519.2,7519.2,7511.2,7512.7
201906110442,7512.7,7513.7,7510.9,7512.2
201906110443,7512.2,7512.7,7508.8,7509.8
201906110444,7509.8,7512.4,7509.2,7511.8
201906110445,7511.8,7513.4,7506.4,7510.4
201906110446,7510.4,7510.8,7507.7,7510.5
201906110447,7510.5,7515.5,7509.4,7515.5
201906110448,7515.5,7516.2,7511.5,7513.2
201906110449,7513.4,7513.4,7508.9,7509.4
201906110450,7509.3,7514,7508.9,7510.2
201906110451,7510.2,7510.7,7507.7,7509.7
201906110452,7509.7,7509.7,7506.4,7507.7
201906110453,7508.2,7508.5,7505.2,7507.3
201906110454,7507.3,7514.5,7507.3,7514.4
201906110455,7514.4,7514.4,7503.4,7503.9
201906110456,7503.9,7506.3,7502.7,7506.3
201906110457,7506.3,7506.3,7502.3,7504.5
201906110458,7504.7,7508.5,7503.8,7508.2
201906110459,7508.2,7510.7,7506.1,7506.1
201906110500,7506.3,7509.3,7505.4,7508
201906110501,7508,7509,7507.6,7508.4
201906110502,7508.4,7511.5,7508.4,7510.1
201906110503,7510.1,7510.4,7509.3,7510.3
201906110504,7510.4,7510.4,7508.4,7509.7
201906110505,7509.7,7510.3,7507.9,7508.3
201906110506,7508.3,7510.2,7507.9,7508.8
201906110507,7508.8,7509.7,7508.7,7509.1
201906110508,7509.2,7511.2,7508.8,7511.2
201906110509,7511.2,7513,7511.2,7513
201906110510,7513,7515.2,7512.7,7514.4
201906110511,7514.4,7514.7,7514.3,7514.4
201906110512,7514.4,7514.5,7511.4,7512.1
201906110513,7512.1,7513.5,7511.2,7513
201906110514,7513,7516.1,7512.3,7515.7
