日時,始値(BID),高値(BID),安値(BID),終値(BID)
201903070800,15.07,15.079,15.067,15.075
201903070801,15.075,15.075,15.075,15.075
201903070802,15.075,15.076,15.075,15.076
201903070803,15.076,15.076,15.074,15.075
201903070804,15.075,15.079,15.074,15.075
201903070805,15.075,15.08,15.075,15.077
201903070806,15.077,15.079,15.077,15.079
201903070807,15.079,15.079,15.079,15.079
201903070808,15.079,15.079,15.078,15.078
201903070809,15.078,15.078,15.078,15.078
201903070810,15.078,15.078,15.076,15.078
201903070811,15.078,15.079,15.078,15.078
201903070812,15.078,15.078,15.076,15.077
201903070813,15.077,15.078,15.076,15.076
201903070814,15.076,15.076,15.076,15.076
201903070815,15.076,15.076,15.076,15.076
201903070816,15.076,15.078,15.076,15.078
201903070817,15.078,15.079,15.078,15.079
201903070818,15.079,15.079,15.078,15.078
201903070819,15.078,15.079,15.078,15.079
201903070820,15.079,15.083,15.079,15.083
201903070821,15.083,15.083,15.082,15.083
201903070822,15.083,15.083,15.08,15.08
201903070823,15.08,15.083,15.08,15.08
201903070824,15.08,15.08,15.08,15.08
201903070825,15.08,15.08,15.08,15.08
201903070826,15.082,15.082,15.081,15.082
201903070827,15.082,15.083,15.082,15.083
201903070828,15.083,15.083,15.082,15.083
201903070829,15.083,15.083,15.082,15.082
201903070830,15.082,15.082,15.081,15.082
201903070831,15.082,15.082,15.082,15.082
201903070832,15.082,15.082,15.081,15.082
201903070833,15.082,15.082,15.081,15.081
201903070834,15.081,15.082,15.08,15.081
201903070835,15.081,15.082,15.081,15.082
201903070836,15.082,15.082,15.082,15.082
201903070837,15.082,15.082,15.081,15.081
201903070838,15.081,15.081,15.081,15.081
201903070839,15.081,15.082,15.081,15.081
201903070840,15.081,15.081,15.08,15.08
201903070841,15.08,15.08,15.079,15.079
201903070842,15.079,15.079,15.077,15.077
201903070843,15.077,15.078,15.077,15.078
201903070844,15.078,15.078,15.077,15.078
201903070845,15.078,15.081,15.078,15.081
201903070846,15.081,15.082,15.08,15.08
201903070847,15.08,15.08,15.078,15.078
201903070848,15.078,15.079,15.078,15.078
201903070849,15.078,15.078,15.078,15.078
201903070850,15.078,15.078,15.078,15.078
201903070851,15.078,15.079,15.078,15.078
201903070852,15.078,15.082,15.078,15.082
201903070853,15.082,15.082,15.081,15.081
201903070854,15.081,15.082,15.081,15.082
201903070855,15.082,15.083,15.079,15.079
201903070856,15.079,15.082,15.079,15.082
201903070857,15.082,15.083,15.082,15.082
201903070858,15.082,15.083,15.082,15.082
201903070859,15.082,15.083,15.078,15.078
201903070900,15.078,15.083,15.078,15.083
201903070901,15.083,15.083,15.082,15.082
201903070902,15.082,15.082,15.082,15.082
201903070903,15.082,15.084,15.082,15.083
201903070904,15.083,15.084,15.083,15.083
201903070905,15.083,15.084,15.082,15.083
201903070906,15.083,15.084,15.083,15.083
201903070907,15.083,15.083,15.081,15.082
201903070908,15.082,15.082,15.081,15.082
201903070909,15.082,15.083,15.081,15.082
201903070910,15.082,15.082,15.078,15.078
201903070911,15.078,15.082,15.078,15.082
201903070912,15.082,15.083,15.082,15.082
201903070913,15.082,15.082,15.079,15.081
201903070914,15.081,15.082,15.079,15.081
201903070915,15.081,15.082,15.081,15.081
201903070916,15.081,15.082,15.081,15.082
201903070917,15.082,15.082,15.082,15.082
201903070918,15.082,15.082,15.082,15.082
201903070919,15.082,15.083,15.082,15.083
201903070920,15.083,15.087,15.082,15.087
201903070921,15.087,15.087,15.086,15.086
201903070922,15.086,15.087,15.086,15.086
201903070923,15.086,15.087,15.086,15.086
201903070924,15.086,15.087,15.086,15.086
201903070925,15.086,15.086,15.086,15.086
201903070926,15.086,15.087,15.086,15.086
201903070927,15.087,15.087,15.085,15.087
201903070928,15.087,15.088,15.087,15.087
201903070929,15.087,15.089,15.087,15.088
201903070930,15.088,15.088,15.083,15.087
201903070931,15.087,15.087,15.083,15.083
201903070932,15.084,15.087,15.083,15.084
201903070933,15.084,15.087,15.083,15.086
201903070934,15.086,15.087,15.084,15.086
201903070935,15.086,15.087,15.083,15.083
201903070936,15.083,15.087,15.083,15.085
201903070937,15.086,15.088,15.084,15.087
201903070938,15.087,15.088,15.087,15.088
201903070939,15.087,15.088,15.087,15.087
201903070940,15.087,15.088,15.087,15.088
201903070941,15.088,15.088,15.086,15.086
201903070942,15.086,15.088,15.084,15.088
201903070943,15.088,15.088,15.088,15.088
201903070944,15.088,15.088,15.086,15.086
201903070945,15.087,15.087,15.086,15.087
201903070946,15.087,15.087,15.087,15.087
201903070947,15.087,15.087,15.087,15.087
201903070948,15.087,15.088,15.087,15.088
201903070949,15.088,15.088,15.087,15.088
201903070950,15.088,15.088,15.087,15.088
201903070951,15.088,15.088,15.088,15.088
201903070952,15.088,15.093,15.088,15.092
201903070953,15.092,15.093,15.091,15.093
201903070954,15.093,15.094,15.093,15.093
201903070955,15.093,15.093,15.09,15.09
201903070956,15.09,15.092,15.089,15.092
201903070957,15.092,15.092,15.089,15.091
201903070958,15.091,15.092,15.089,15.089
201903070959,15.089,15.092,15.088,15.088
201903071000,15.088,15.088,15.086,15.087
201903071001,15.087,15.088,15.087,15.087
201903071002,15.087,15.088,15.087,15.087
201903071003,15.088,15.088,15.087,15.087
201903071004,15.087,15.088,15.087,15.087
201903071005,15.087,15.088,15.086,15.087
201903071006,15.087,15.087,15.082,15.082
201903071007,15.082,15.083,15.082,15.083
201903071008,15.083,15.086,15.082,15.086
201903071009,15.086,15.086,15.083,15.086
201903071010,15.086,15.086,15.083,15.083
201903071011,15.083,15.083,15.082,15.082
201903071012,15.082,15.086,15.082,15.086
201903071013,15.086,15.086,15.082,15.083
201903071014,15.083,15.091,15.083,15.088
201903071015,15.088,15.088,15.087,15.087
201903071016,15.087,15.087,15.083,15.083
201903071017,15.083,15.087,15.083,15.086
201903071018,15.086,15.086,15.085,15.086
201903071019,15.086,15.087,15.086,15.086
201903071020,15.086,15.086,15.086,15.086
201903071021,15.086,15.091,15.086,15.091
201903071022,15.091,15.092,15.091,15.091
201903071023,15.091,15.091,15.091,15.091
201903071024,15.091,15.092,15.091,15.092
201903071025,15.091,15.091,15.091,15.091
201903071026,15.091,15.091,15.09,15.091
201903071027,15.091,15.092,15.091,15.092
201903071028,15.092,15.092,15.091,15.091
201903071029,15.091,15.092,15.091,15.091
201903071030,15.091,15.092,15.091,15.092
201903071031,15.092,15.097,15.091,15.096
201903071032,15.096,15.096,15.093,15.093
201903071033,15.093,15.097,15.093,15.096
201903071034,15.096,15.097,15.096,15.096
201903071035,15.096,15.099,15.096,15.097
201903071036,15.097,15.097,15.093,15.093
201903071037,15.093,15.095,15.093,15.094
201903071038,15.094,15.096,15.093,15.093
201903071039,15.093,15.094,15.093,15.094
201903071040,15.094,15.096,15.093,15.096
201903071041,15.094,15.097,15.094,15.096
201903071042,15.096,15.097,15.096,15.097
201903071043,15.097,15.098,15.097,15.097
201903071044,15.097,15.101,15.097,15.098
201903071045,15.098,15.103,15.098,15.102
201903071046,15.102,15.103,15.101,15.102
201903071047,15.102,15.103,15.101,15.102
201903071048,15.102,15.107,15.102,15.106
201903071049,15.106,15.106,15.102,15.103
201903071050,15.103,15.104,15.102,15.103
201903071051,15.103,15.103,15.101,15.102
201903071052,15.102,15.102,15.1,15.101
201903071053,15.101,15.101,15.098,15.098
201903071054,15.098,15.098,15.097,15.098
201903071055,15.098,15.098,15.097,15.097
201903071056,15.097,15.098,15.097,15.098
201903071057,15.098,15.099,15.098,15.099
201903071058,15.099,15.1,15.099,15.099
201903071059,15.099,15.099,15.098,15.098
201903071100,15.098,15.098,15.093,15.094
201903071101,15.094,15.094,15.091,15.092
201903071102,15.092,15.093,15.092,15.093
201903071103,15.093,15.093,15.091,15.093
201903071104,15.093,15.093,15.092,15.093
201903071105,15.093,15.096,15.092,15.095
201903071106,15.095,15.097,15.094,15.097
201903071107,15.097,15.098,15.096,15.096
201903071108,15.097,15.097,15.094,15.094
201903071109,15.094,15.097,15.094,15.094
201903071110,15.094,15.097,15.094,15.094
201903071111,15.094,15.096,15.093,15.094
201903071112,15.094,15.096,15.094,15.096
201903071113,15.096,15.096,15.09,15.09
201903071114,15.09,15.093,15.089,15.092
201903071115,15.092,15.093,15.09,15.092
201903071116,15.092,15.093,15.09,15.09
201903071117,15.09,15.092,15.089,15.089
201903071118,15.089,15.09,15.088,15.089
201903071119,15.089,15.09,15.087,15.088
201903071120,15.088,15.088,15.084,15.085
201903071121,15.087,15.088,15.087,15.087
201903071122,15.087,15.088,15.086,15.087
201903071123,15.087,15.089,15.087,15.089
201903071124,15.088,15.094,15.088,15.093
201903071125,15.093,15.094,15.093,15.093
201903071126,15.093,15.094,15.091,15.093
201903071127,15.093,15.093,15.089,15.089
201903071128,15.089,15.091,15.089,15.089
201903071129,15.089,15.093,15.089,15.089
201903071130,15.089,15.09,15.089,15.089
201903071131,15.089,15.089,15.089,15.089
201903071132,15.089,15.09,15.089,15.089
201903071133,15.089,15.089,15.089,15.089
201903071134,15.089,15.089,15.087,15.088
201903071135,15.088,15.088,15.088,15.088
201903071136,15.088,15.088,15.086,15.086
201903071137,15.086,15.086,15.079,15.079
201903071138,15.079,15.084,15.079,15.084
201903071139,15.084,15.084,15.083,15.083
201903071140,15.083,15.083,15.08,15.083
201903071141,15.083,15.085,15.082,15.083
201903071142,15.084,15.085,15.08,15.085
201903071143,15.085,15.085,15.083,15.084
201903071144,15.084,15.085,15.083,15.085
201903071145,15.085,15.085,15.084,15.084
201903071146,15.084,15.084,15.082,15.083
201903071147,15.083,15.085,15.083,15.084
201903071148,15.084,15.086,15.083,15.083
201903071149,15.083,15.083,15.083,15.083
201903071150,15.083,15.083,15.082,15.082
201903071151,15.082,15.084,15.082,15.082
201903071152,15.082,15.084,15.082,15.083
201903071153,15.083,15.083,15.082,15.082
201903071154,15.082,15.083,15.078,15.078
201903071155,15.078,15.082,15.078,15.079
201903071156,15.079,15.083,15.079,15.082
201903071157,15.082,15.082,15.079,15.079
201903071158,15.079,15.079,15.078,15.078
201903071159,15.078,15.079,15.078,15.078
201903071200,15.078,15.079,15.078,15.078
201903071201,15.078,15.082,15.078,15.081
201903071202,15.081,15.081,15.078,15.078
201903071203,15.078,15.079,15.077,15.077
201903071204,15.077,15.078,15.077,15.077
201903071205,15.077,15.077,15.077,15.077
201903071206,15.077,15.077,15.076,15.077
201903071207,15.077,15.078,15.076,15.077
201903071208,15.077,15.077,15.075,15.076
201903071209,15.076,15.078,15.076,15.077
201903071210,15.077,15.079,15.076,15.078
201903071211,15.077,15.078,15.072,15.075
201903071212,15.075,15.077,15.075,15.077
201903071213,15.077,15.077,15.077,15.077
201903071214,15.077,15.078,15.077,15.078
201903071215,15.078,15.079,15.078,15.078
201903071216,15.078,15.078,15.077,15.078
201903071217,15.079,15.079,15.073,15.073
201903071218,15.073,15.074,15.073,15.073
201903071219,15.073,15.074,15.073,15.074
201903071220,15.074,15.074,15.073,15.073
201903071221,15.073,15.073,15.073,15.073
201903071222,15.073,15.073,15.072,15.072
201903071223,15.072,15.072,15.067,15.067
201903071224,15.067,15.068,15.067,15.068
201903071225,15.068,15.068,15.067,15.067
201903071226,15.067,15.069,15.066,15.067
201903071227,15.067,15.068,15.067,15.067
201903071228,15.068,15.068,15.064,15.064
201903071229,15.064,15.064,15.063,15.064
201903071230,15.064,15.068,15.064,15.065
201903071231,15.065,15.065,15.064,15.064
201903071232,15.064,15.064,15.063,15.064
201903071233,15.064,15.064,15.063,15.064
201903071234,15.064,15.064,15.064,15.064
201903071235,15.064,15.064,15.063,15.063
201903071236,15.063,15.064,15.063,15.064
201903071237,15.064,15.064,15.063,15.064
201903071238,15.064,15.064,15.063,15.064
201903071239,15.064,15.064,15.064,15.064
201903071240,15.064,15.067,15.064,15.067
201903071241,15.067,15.067,15.064,15.064
201903071242,15.064,15.064,15.064,15.064
201903071243,15.064,15.064,15.064,15.064
201903071244,15.064,15.064,15.064,15.064
201903071245,15.064,15.064,15.063,15.063
201903071246,15.063,15.064,15.063,15.064
201903071247,15.064,15.065,15.064,15.065
201903071248,15.065,15.067,15.065,15.067
201903071249,15.067,15.067,15.064,15.064
201903071250,15.064,15.065,15.064,15.064
201903071251,15.064,15.064,15.064,15.064
201903071252,15.064,15.064,15.063,15.064
201903071253,15.064,15.067,15.063,15.067
201903071254,15.067,15.067,15.066,15.067
201903071255,15.067,15.069,15.067,15.069
201903071256,15.069,15.072,15.068,15.072
201903071257,15.072,15.072,15.068,15.068
201903071258,15.068,15.069,15.068,15.068
201903071259,15.068,15.068,15.064,15.064
201903071300,15.064,15.064,15.063,15.064
201903071301,15.064,15.067,15.064,15.066
201903071302,15.066,15.068,15.066,15.067
201903071303,15.067,15.068,15.066,15.067
201903071304,15.067,15.067,15.065,15.066
201903071305,15.066,15.067,15.066,15.067
201903071306,15.067,15.067,15.066,15.066
201903071307,15.066,15.066,15.064,15.064
201903071308,15.064,15.065,15.064,15.064
201903071309,15.064,15.066,15.064,15.064
201903071310,15.064,15.067,15.064,15.067
201903071311,15.067,15.067,15.066,15.067
201903071312,15.067,15.067,15.066,15.067
201903071313,15.067,15.07,15.067,15.069
201903071314,15.068,15.068,15.067,15.067
201903071315,15.067,15.068,15.066,15.066
201903071316,15.066,15.066,15.064,15.064
201903071317,15.064,15.064,15.064,15.064
201903071318,15.064,15.064,15.063,15.064
201903071319,15.064,15.064,15.063,15.064
201903071320,15.064,15.064,15.063,15.064
201903071321,15.063,15.063,15.062,15.063
201903071322,15.063,15.064,15.062,15.064
201903071323,15.064,15.067,15.064,15.064
201903071324,15.064,15.064,15.063,15.064
201903071325,15.064,15.066,15.064,15.064
201903071326,15.064,15.064,15.063,15.064
201903071327,15.064,15.064,15.063,15.064
201903071328,15.064,15.064,15.063,15.064
201903071329,15.064,15.064,15.063,15.064
201903071330,15.064,15.065,15.063,15.064
201903071331,15.064,15.064,15.063,15.063
201903071332,15.063,15.064,15.063,15.064
201903071333,15.064,15.064,15.063,15.064
201903071334,15.064,15.064,15.063,15.063
201903071335,15.063,15.064,15.063,15.064
201903071336,15.064,15.064,15.063,15.063
201903071337,15.063,15.064,15.063,15.064
201903071338,15.064,15.064,15.063,15.063
201903071339,15.063,15.064,15.063,15.064
201903071340,15.064,15.064,15.063,15.064
201903071341,15.064,15.067,15.063,15.067
201903071342,15.067,15.067,15.067,15.067
201903071343,15.067,15.069,15.067,15.068
201903071344,15.068,15.068,15.067,15.067
201903071345,15.067,15.068,15.067,15.068
201903071346,15.068,15.069,15.068,15.069
201903071347,15.069,15.069,15.068,15.068
201903071348,15.068,15.069,15.067,15.068
201903071349,15.068,15.068,15.067,15.067
201903071350,15.067,15.067,15.067,15.067
201903071351,15.067,15.067,15.067,15.067
201903071352,15.067,15.068,15.067,15.068
201903071353,15.068,15.069,15.068,15.068
201903071354,15.068,15.069,15.068,15.069
201903071355,15.069,15.069,15.068,15.069
201903071356,15.069,15.069,15.068,15.068
201903071357,15.068,15.068,15.068,15.068
201903071358,15.068,15.069,15.068,15.069
201903071359,15.069,15.069,15.069,15.069
201903071400,15.069,15.069,15.068,15.068
201903071401,15.068,15.069,15.068,15.069
201903071402,15.069,15.069,15.069,15.069
201903071403,15.069,15.069,15.068,15.068
201903071404,15.068,15.069,15.068,15.068
201903071405,15.068,15.068,15.068,15.068
201903071406,15.068,15.069,15.067,15.069
201903071407,15.069,15.069,15.068,15.068
201903071408,15.068,15.069,15.068,15.068
201903071409,15.068,15.069,15.068,15.068
201903071410,15.068,15.069,15.068,15.069
201903071411,15.069,15.07,15.069,15.07
201903071412,15.07,15.07,15.069,15.07
201903071413,15.07,15.07,15.068,15.069
201903071414,15.069,15.07,15.069,15.07
201903071415,15.07,15.07,15.07,15.07
201903071416,15.07,15.07,15.07,15.07
201903071417,15.07,15.074,15.07,15.073
201903071418,15.073,15.073,15.073,15.073
201903071419,15.073,15.073,15.073,15.073
201903071420,15.073,15.073,15.073,15.073
201903071421,15.073,15.074,15.072,15.073
201903071422,15.073,15.073,15.07,15.071
201903071423,15.071,15.071,15.07,15.071
201903071424,15.071,15.071,15.07,15.07
201903071425,15.07,15.071,15.07,15.071
201903071426,15.071,15.071,15.07,15.07
201903071427,15.07,15.07,15.07,15.07
201903071428,15.07,15.071,15.07,15.07
201903071429,15.07,15.07,15.069,15.069
201903071430,15.069,15.069,15.065,15.066
201903071431,15.065,15.066,15.064,15.064
201903071432,15.064,15.065,15.06,15.061
201903071433,15.061,15.061,15.054,15.056
201903071434,15.056,15.061,15.056,15.06
201903071435,15.06,15.06,15.056,15.057
201903071436,15.057,15.057,15.056,15.056
201903071437,15.056,15.06,15.056,15.059
201903071438,15.059,15.059,15.057,15.059
201903071439,15.059,15.059,15.055,15.055
201903071440,15.055,15.056,15.054,15.055
201903071441,15.055,15.057,15.054,15.054
201903071442,15.054,15.055,15.054,15.054
201903071443,15.055,15.055,15.053,15.053
201903071444,15.053,15.054,15.05,15.051
201903071445,15.051,15.051,15.049,15.049
201903071446,15.049,15.055,15.049,15.055
201903071447,15.055,15.055,15.053,15.054
201903071448,15.054,15.054,15.053,15.054
201903071449,15.054,15.055,15.053,15.054
201903071450,15.054,15.055,15.053,15.054
201903071451,15.055,15.058,15.054,15.055
201903071452,15.056,15.058,15.055,15.057
201903071453,15.057,15.058,15.056,15.056
201903071454,15.057,15.057,15.053,15.055
201903071455,15.055,15.058,15.055,15.055
201903071456,15.055,15.055,15.054,15.055
201903071457,15.055,15.055,15.054,15.054
201903071458,15.054,15.055,15.052,15.053
201903071459,15.053,15.054,15.05,15.05
201903071500,15.049,15.049,15.047,15.048
201903071501,15.048,15.048,15.047,15.047
201903071502,15.047,15.048,15.045,15.048
201903071503,15.048,15.053,15.048,15.053
201903071504,15.053,15.054,15.053,15.053
201903071505,15.053,15.054,15.053,15.054
201903071506,15.054,15.055,15.053,15.054
201903071507,15.054,15.057,15.054,15.057
201903071508,15.057,15.058,15.057,15.057
201903071509,15.057,15.058,15.055,15.058
201903071510,15.058,15.058,15.058,15.058
201903071511,15.058,15.059,15.058,15.059
201903071512,15.059,15.059,15.059,15.059
201903071513,15.059,15.063,15.058,15.06
201903071514,15.06,15.062,15.059,15.062
201903071515,15.062,15.063,15.062,15.063
201903071516,15.063,15.064,15.062,15.064
201903071517,15.064,15.064,15.063,15.063
201903071518,15.063,15.064,15.062,15.063
201903071519,15.063,15.063,15.059,15.061
201903071520,15.062,15.063,15.059,15.06
201903071521,15.06,15.061,15.059,15.059
201903071522,15.059,15.063,15.059,15.06
201903071523,15.06,15.064,15.06,15.063
201903071524,15.063,15.064,15.063,15.064
201903071525,15.064,15.064,15.063,15.063
201903071526,15.063,15.063,15.062,15.063
201903071527,15.063,15.064,15.06,15.061
201903071528,15.061,15.062,15.059,15.059
201903071529,15.059,15.062,15.059,15.059
201903071530,15.059,15.06,15.058,15.059
201903071531,15.059,15.059,15.059,15.059
201903071532,15.059,15.059,15.058,15.058
201903071533,15.059,15.059,15.058,15.059
201903071534,15.058,15.058,15.053,15.054
201903071535,15.054,15.054,15.053,15.054
201903071536,15.054,15.056,15.054,15.056
201903071537,15.056,15.057,15.054,15.055
201903071538,15.055,15.058,15.054,15.054
201903071539,15.054,15.054,15.054,15.054
201903071540,15.054,15.054,15.054,15.054
201903071541,15.054,15.054,15.053,15.053
201903071542,15.053,15.058,15.053,15.057
201903071543,15.057,15.057,15.054,15.054
201903071544,15.054,15.055,15.053,15.053
201903071545,15.053,15.053,15.053,15.053
201903071546,15.053,15.054,15.053,15.053
201903071547,15.053,15.053,15.049,15.051
201903071548,15.051,15.051,15.048,15.048
201903071549,15.048,15.05,15.048,15.048
201903071550,15.048,15.049,15.048,15.048
201903071551,15.048,15.051,15.048,15.051
201903071552,15.051,15.051,15.048,15.048
201903071553,15.048,15.048,15.048,15.048
201903071554,15.048,15.049,15.048,15.048
201903071555,15.048,15.048,15.045,15.046
201903071556,15.046,15.046,15.046,15.046
201903071557,15.046,15.048,15.046,15.047
201903071558,15.047,15.047,15.046,15.046
201903071559,15.046,15.047,15.046,15.047
201903071600,15.047,15.047,15.046,15.047
201903071601,15.047,15.051,15.047,15.051
201903071602,15.051,15.051,15.051,15.051
201903071603,15.052,15.053,15.051,15.051
201903071604,15.051,15.052,15.051,15.051
201903071605,15.051,15.051,15.048,15.049
201903071606,15.049,15.049,15.048,15.048
201903071607,15.048,15.048,15.047,15.047
201903071608,15.047,15.048,15.047,15.047
201903071609,15.047,15.048,15.047,15.047
201903071610,15.047,15.048,15.045,15.046
201903071611,15.047,15.047,15.045,15.047
201903071612,15.047,15.047,15.045,15.045
201903071613,15.045,15.047,15.045,15.047
201903071614,15.047,15.048,15.045,15.047
201903071615,15.047,15.047,15.046,15.046
201903071616,15.047,15.048,15.047,15.047
201903071617,15.048,15.05,15.048,15.049
201903071618,15.049,15.049,15.047,15.049
201903071619,15.049,15.049,15.044,15.047
201903071620,15.047,15.047,15.045,15.047
201903071621,15.047,15.048,15.047,15.047
201903071622,15.047,15.05,15.047,15.048
201903071623,15.047,15.047,15.044,15.044
201903071624,15.044,15.044,15.043,15.043
201903071625,15.043,15.044,15.043,15.043
201903071626,15.043,15.045,15.043,15.044
201903071627,15.044,15.045,15.044,15.044
201903071628,15.044,15.045,15.043,15.044
201903071629,15.044,15.045,15.044,15.044
201903071630,15.044,15.044,15.044,15.044
201903071631,15.044,15.044,15.043,15.043
201903071632,15.043,15.044,15.043,15.044
201903071633,15.044,15.047,15.044,15.044
201903071634,15.044,15.044,15.044,15.044
201903071635,15.044,15.044,15.044,15.044
201903071636,15.044,15.049,15.044,15.049
201903071637,15.049,15.052,15.049,15.052
201903071638,15.052,15.054,15.052,15.054
201903071639,15.054,15.06,15.054,15.059
201903071640,15.059,15.059,15.058,15.059
201903071641,15.059,15.059,15.059,15.059
201903071642,15.059,15.065,15.059,15.059
201903071643,15.059,15.059,15.058,15.058
201903071644,15.058,15.059,15.055,15.055
201903071645,15.055,15.056,15.054,15.055
201903071646,15.055,15.058,15.055,15.055
201903071647,15.055,15.055,15.051,15.052
201903071648,15.052,15.052,15.05,15.051
201903071649,15.05,15.05,15.046,15.046
201903071650,15.046,15.046,15.045,15.045
201903071651,15.045,15.048,15.044,15.048
201903071652,15.048,15.048,15.044,15.044
201903071653,15.044,15.045,15.044,15.044
201903071654,15.044,15.047,15.044,15.045
201903071655,15.045,15.049,15.045,15.049
201903071656,15.049,15.052,15.046,15.046
201903071657,15.045,15.045,15.044,15.044
201903071658,15.044,15.045,15.044,15.044
201903071659,15.044,15.046,15.043,15.044
201903071700,15.044,15.047,15.026,15.026
201903071701,15.028,15.029,15.022,15.025
201903071702,15.026,15.026,15.014,15.019
201903071703,15.019,15.024,15.018,15.022
201903071704,15.022,15.026,15.021,15.025
201903071705,15.025,15.03,15.025,15.03
201903071706,15.03,15.034,15.03,15.034
201903071707,15.034,15.037,15.034,15.036
201903071708,15.036,15.037,15.034,15.035
201903071709,15.035,15.035,15.032,15.032
201903071710,15.032,15.046,15.032,15.044
201903071711,15.044,15.047,15.044,15.046
201903071712,15.047,15.047,15.046,15.047
201903071713,15.047,15.05,15.046,15.048
201903071714,15.047,15.05,15.046,15.047
201903071715,15.047,15.05,15.043,15.05
201903071716,15.05,15.053,15.049,15.052
201903071717,15.052,15.052,15.046,15.046
201903071718,15.047,15.048,15.046,15.046
201903071719,15.046,15.046,15.043,15.045
201903071720,15.045,15.047,15.043,15.047
201903071721,15.047,15.051,15.046,15.05
201903071722,15.051,15.057,15.05,15.056
201903071723,15.056,15.061,15.056,15.057
201903071724,15.057,15.059,15.057,15.058
201903071725,15.058,15.071,15.057,15.071
201903071726,15.071,15.082,15.071,15.081
201903071727,15.081,15.081,15.077,15.077
201903071728,15.077,15.077,15.073,15.073
201903071729,15.073,15.076,15.073,15.074
201903071730,15.075,15.082,15.075,15.077
201903071731,15.077,15.083,15.076,15.081
201903071732,15.081,15.083,15.08,15.083
201903071733,15.083,15.085,15.082,15.082
201903071734,15.082,15.082,15.078,15.081
201903071735,15.081,15.083,15.081,15.082
201903071736,15.082,15.086,15.081,15.086
201903071737,15.086,15.094,15.086,15.093
201903071738,15.093,15.098,15.093,15.093
201903071739,15.093,15.093,15.078,15.078
201903071740,15.078,15.079,15.077,15.077
201903071741,15.077,15.082,15.077,15.081
201903071742,15.081,15.088,15.081,15.088
201903071743,15.088,15.088,15.086,15.088
201903071744,15.088,15.091,15.087,15.09
201903071745,15.09,15.09,15.088,15.089
201903071746,15.088,15.093,15.088,15.092
201903071747,15.092,15.093,15.089,15.093
201903071748,15.093,15.096,15.092,15.096
201903071749,15.096,15.103,15.096,15.103
201903071750,15.103,15.103,15.097,15.099
201903071751,15.099,15.099,15.097,15.097
201903071752,15.097,15.097,15.093,15.093
201903071753,15.093,15.093,15.092,15.093
201903071754,15.093,15.093,15.092,15.092
201903071755,15.092,15.092,15.087,15.092
201903071756,15.093,15.096,15.092,15.093
201903071757,15.093,15.098,15.093,15.098
201903071758,15.098,15.098,15.097,15.097
201903071759,15.097,15.097,15.093,15.094
201903071800,15.094,15.096,15.089,15.093
201903071801,15.093,15.093,15.089,15.089
201903071802,15.089,15.09,15.088,15.088
201903071803,15.089,15.094,15.089,15.093
201903071804,15.093,15.093,15.092,15.093
201903071805,15.093,15.093,15.092,15.093
201903071806,15.093,15.093,15.092,15.093
201903071807,15.093,15.093,15.092,15.093
201903071808,15.093,15.094,15.092,15.092
201903071809,15.092,15.092,15.091,15.092
201903071810,15.092,15.092,15.091,15.092
201903071811,15.091,15.092,15.091,15.091
201903071812,15.091,15.092,15.091,15.091
201903071813,15.091,15.092,15.091,15.091
201903071814,15.091,15.092,15.09,15.091
201903071815,15.091,15.092,15.091,15.091
201903071816,15.091,15.092,15.091,15.091
201903071817,15.092,15.092,15.088,15.088
201903071818,15.088,15.088,15.087,15.088
201903071819,15.088,15.089,15.088,15.088
201903071820,15.088,15.088,15.087,15.087
201903071821,15.087,15.088,15.087,15.088
201903071822,15.088,15.088,15.088,15.088
201903071823,15.088,15.091,15.088,15.088
201903071824,15.088,15.091,15.088,15.091
201903071825,15.091,15.092,15.091,15.092
201903071826,15.092,15.093,15.092,15.092
201903071827,15.092,15.092,15.092,15.092
201903071828,15.092,15.093,15.092,15.093
201903071829,15.093,15.094,15.092,15.093
201903071830,15.093,15.094,15.092,15.092
201903071831,15.092,15.092,15.091,15.092
201903071832,15.092,15.092,15.092,15.092
201903071833,15.092,15.092,15.09,15.091
201903071834,15.091,15.092,15.09,15.091
201903071835,15.09,15.091,15.09,15.091
201903071836,15.091,15.091,15.09,15.09
201903071837,15.091,15.091,15.09,15.09
201903071838,15.09,15.09,15.086,15.087
201903071839,15.087,15.087,15.086,15.087
201903071840,15.087,15.088,15.087,15.087
201903071841,15.087,15.088,15.086,15.086
201903071842,15.086,15.088,15.086,15.088
201903071843,15.087,15.091,15.087,15.091
201903071844,15.091,15.091,15.088,15.091
201903071845,15.091,15.091,15.087,15.087
201903071846,15.087,15.089,15.087,15.089
201903071847,15.089,15.092,15.088,15.091
201903071848,15.091,15.091,15.088,15.089
201903071849,15.089,15.089,15.087,15.088
201903071850,15.088,15.088,15.088,15.088
201903071851,15.088,15.091,15.088,15.088
201903071852,15.088,15.089,15.087,15.088
201903071853,15.088,15.088,15.087,15.087
201903071854,15.087,15.087,15.087,15.087
201903071855,15.088,15.088,15.087,15.088
201903071856,15.088,15.088,15.088,15.088
201903071857,15.088,15.088,15.088,15.088
201903071858,15.088,15.088,15.088,15.088
201903071859,15.088,15.088,15.088,15.088
201903071900,15.088,15.089,15.088,15.088
201903071901,15.088,15.091,15.088,15.091
201903071902,15.091,15.097,15.091,15.097
201903071903,15.097,15.097,15.096,15.097
201903071904,15.097,15.098,15.097,15.098
201903071905,15.098,15.098,15.093,15.093
201903071906,15.093,15.093,15.088,15.088
201903071907,15.088,15.09,15.088,15.088
201903071908,15.088,15.088,15.088,15.088
201903071909,15.088,15.089,15.088,15.088
201903071910,15.088,15.088,15.086,15.087
201903071911,15.087,15.088,15.086,15.087
201903071912,15.087,15.088,15.086,15.088
201903071913,15.088,15.088,15.087,15.087
201903071914,15.087,15.088,15.087,15.088
201903071915,15.088,15.088,15.086,15.087
201903071916,15.087,15.088,15.087,15.087
201903071917,15.087,15.087,15.083,15.083
201903071918,15.083,15.084,15.083,15.084
201903071919,15.084,15.084,15.083,15.083
201903071920,15.083,15.087,15.083,15.086
201903071921,15.087,15.087,15.086,15.087
201903071922,15.087,15.088,15.086,15.087
201903071923,15.087,15.087,15.087,15.087
201903071924,15.087,15.091,15.086,15.089
201903071925,15.089,15.089,15.088,15.088
201903071926,15.088,15.089,15.088,15.089
201903071927,15.089,15.089,15.083,15.086
201903071928,15.086,15.086,15.083,15.083
201903071929,15.083,15.083,15.082,15.083
201903071930,15.083,15.087,15.083,15.087
201903071931,15.087,15.088,15.086,15.086
201903071932,15.086,15.086,15.083,15.083
201903071933,15.083,15.083,15.083,15.083
201903071934,15.083,15.083,15.082,15.083
201903071935,15.083,15.083,15.083,15.083
201903071936,15.083,15.083,15.083,15.083
201903071937,15.083,15.083,15.082,15.082
201903071938,15.082,15.082,15.082,15.082
201903071939,15.082,15.083,15.082,15.083
201903071940,15.082,15.083,15.082,15.083
201903071941,15.083,15.086,15.083,15.086
201903071942,15.086,15.086,15.086,15.086
201903071943,15.086,15.086,15.083,15.086
201903071944,15.086,15.086,15.083,15.083
201903071945,15.083,15.086,15.083,15.086
201903071946,15.086,15.091,15.086,15.087
201903071947,15.087,15.088,15.087,15.088
201903071948,15.088,15.088,15.087,15.087
201903071949,15.087,15.087,15.083,15.086
201903071950,15.086,15.086,15.086,15.086
201903071951,15.086,15.087,15.086,15.087
201903071952,15.087,15.087,15.086,15.086
201903071953,15.086,15.087,15.083,15.083
201903071954,15.083,15.084,15.083,15.083
201903071955,15.083,15.084,15.083,15.083
201903071956,15.083,15.083,15.082,15.083
201903071957,15.083,15.083,15.079,15.079
201903071958,15.079,15.082,15.079,15.082
201903071959,15.082,15.083,15.081,15.082
201903072000,15.082,15.082,15.081,15.082
201903072001,15.082,15.087,15.082,15.083
201903072002,15.083,15.086,15.082,15.086
201903072003,15.086,15.093,15.086,15.089
201903072004,15.089,15.09,15.088,15.089
201903072005,15.089,15.098,15.089,15.098
201903072006,15.098,15.098,15.097,15.097
201903072007,15.097,15.099,15.097,15.098
201903072008,15.098,15.1,15.097,15.098
201903072009,15.098,15.098,15.093,15.093
201903072010,15.093,15.093,15.088,15.088
201903072011,15.088,15.089,15.087,15.088
201903072012,15.088,15.091,15.087,15.091
201903072013,15.091,15.093,15.088,15.089
201903072014,15.089,15.089,15.088,15.089
201903072015,15.089,15.093,15.089,15.092
201903072016,15.093,15.093,15.092,15.092
201903072017,15.092,15.093,15.092,15.092
201903072018,15.092,15.093,15.089,15.089
201903072019,15.089,15.091,15.088,15.091
201903072020,15.091,15.092,15.089,15.092
201903072021,15.092,15.093,15.092,15.093
201903072022,15.093,15.093,15.092,15.092
201903072023,15.092,15.092,15.089,15.089
201903072024,15.089,15.092,15.088,15.092
201903072025,15.092,15.093,15.089,15.089
201903072026,15.089,15.089,15.089,15.089
201903072027,15.089,15.089,15.088,15.088
201903072028,15.089,15.089,15.088,15.088
201903072029,15.088,15.089,15.084,15.084
201903072030,15.084,15.085,15.083,15.083
201903072031,15.083,15.084,15.083,15.084
201903072032,15.084,15.084,15.084,15.084
201903072033,15.084,15.084,15.084,15.084
201903072034,15.084,15.084,15.084,15.084
201903072035,15.084,15.084,15.083,15.084
201903072036,15.084,15.084,15.082,15.082
201903072037,15.082,15.083,15.082,15.082
201903072038,15.082,15.083,15.082,15.082
201903072039,15.082,15.088,15.082,15.088
201903072040,15.088,15.089,15.088,15.088
201903072041,15.088,15.088,15.087,15.088
201903072042,15.088,15.088,15.088,15.088
201903072043,15.088,15.096,15.088,15.094
201903072044,15.094,15.097,15.093,15.094
201903072045,15.094,15.094,15.093,15.094
201903072046,15.094,15.094,15.094,15.094
201903072047,15.094,15.094,15.094,15.094
201903072048,15.094,15.094,15.089,15.089
201903072049,15.089,15.089,15.087,15.088
201903072050,15.088,15.089,15.084,15.084
201903072051,15.084,15.084,15.083,15.083
201903072052,15.083,15.084,15.083,15.084
201903072053,15.084,15.084,15.083,15.084
201903072054,15.084,15.085,15.083,15.084
201903072055,15.084,15.088,15.084,15.088
201903072056,15.088,15.088,15.087,15.088
201903072057,15.088,15.088,15.087,15.088
201903072058,15.088,15.088,15.087,15.088
201903072059,15.088,15.088,15.084,15.087
201903072100,15.087,15.087,15.078,15.078
201903072101,15.078,15.079,15.078,15.079
201903072102,15.079,15.079,15.078,15.079
201903072103,15.079,15.079,15.078,15.079
201903072104,15.079,15.079,15.078,15.078
201903072105,15.078,15.079,15.073,15.074
201903072106,15.074,15.074,15.072,15.073
201903072107,15.073,15.073,15.069,15.069
201903072108,15.069,15.069,15.068,15.068
201903072109,15.068,15.073,15.068,15.073
201903072110,15.073,15.073,15.072,15.072
201903072111,15.072,15.072,15.072,15.072
201903072112,15.072,15.073,15.072,15.073
201903072113,15.073,15.073,15.072,15.073
201903072114,15.073,15.073,15.068,15.068
201903072115,15.068,15.069,15.068,15.068
201903072116,15.068,15.068,15.067,15.067
201903072117,15.068,15.072,15.068,15.072
201903072118,15.072,15.073,15.068,15.068
201903072119,15.068,15.069,15.068,15.068
201903072120,15.068,15.073,15.068,15.071
201903072121,15.071,15.071,15.064,15.064
201903072122,15.064,15.064,15.063,15.063
201903072123,15.063,15.064,15.063,15.063
201903072124,15.063,15.063,15.063,15.063
201903072125,15.063,15.063,15.063,15.063
201903072126,15.063,15.072,15.063,15.071
201903072127,15.071,15.071,15.068,15.069
201903072128,15.069,15.069,15.068,15.068
201903072129,15.068,15.068,15.067,15.068
201903072130,15.068,15.068,15.068,15.068
201903072131,15.068,15.068,15.064,15.064
201903072132,15.064,15.064,15.063,15.064
201903072133,15.064,15.064,15.064,15.064
201903072134,15.064,15.064,15.064,15.064
201903072135,15.064,15.069,15.064,15.069
201903072136,15.069,15.069,15.067,15.067
201903072137,15.067,15.067,15.064,15.064
201903072138,15.064,15.064,15.063,15.064
201903072139,15.064,15.064,15.061,15.062
201903072140,15.062,15.063,15.061,15.063
201903072141,15.063,15.064,15.063,15.064
201903072142,15.064,15.068,15.064,15.068
201903072143,15.068,15.075,15.068,15.075
201903072144,15.075,15.077,15.073,15.077
201903072145,15.077,15.077,15.061,15.062
201903072146,15.062,15.062,15.048,15.061
201903072147,15.061,15.068,15.061,15.068
201903072148,15.068,15.085,15.068,15.085
201903072149,15.085,15.091,15.083,15.09
201903072150,15.09,15.101,15.09,15.094
201903072151,15.093,15.112,15.093,15.109
201903072152,15.109,15.109,15.104,15.108
201903072153,15.108,15.116,15.108,15.111
201903072154,15.111,15.113,15.111,15.112
201903072155,15.112,15.113,15.108,15.108
201903072156,15.108,15.108,15.103,15.103
201903072157,15.103,15.106,15.093,15.098
201903072158,15.098,15.102,15.097,15.099
201903072159,15.098,15.101,15.093,15.096
201903072200,15.096,15.096,15.087,15.094
201903072201,15.095,15.1,15.092,15.096
201903072202,15.096,15.096,15.087,15.087
201903072203,15.087,15.087,15.083,15.087
201903072204,15.087,15.087,15.082,15.083
201903072205,15.083,15.087,15.081,15.087
201903072206,15.087,15.087,15.078,15.087
201903072207,15.087,15.091,15.087,15.087
201903072208,15.087,15.087,15.081,15.081
201903072209,15.081,15.082,15.071,15.076
201903072210,15.076,15.076,15.071,15.071
201903072211,15.071,15.071,15.065,15.067
201903072212,15.067,15.077,15.066,15.073
201903072213,15.072,15.083,15.072,15.082
201903072214,15.082,15.082,15.077,15.078
201903072215,15.08,15.081,15.077,15.077
201903072216,15.077,15.078,15.073,15.073
201903072217,15.073,15.075,15.073,15.074
201903072218,15.073,15.074,15.062,15.072
201903072219,15.072,15.073,15.068,15.071
201903072220,15.071,15.072,15.066,15.071
201903072221,15.071,15.073,15.067,15.071
201903072222,15.071,15.072,15.068,15.071
201903072223,15.071,15.071,15.052,15.052
201903072224,15.053,15.055,15.049,15.053
201903072225,15.053,15.053,15.036,15.038
201903072226,15.038,15.042,15.033,15.04
201903072227,15.04,15.043,15.038,15.043
201903072228,15.043,15.047,15.043,15.044
201903072229,15.044,15.047,15.043,15.046
201903072230,15.046,15.05,15.029,15.029
201903072231,15.03,15.039,15.029,15.039
201903072232,15.039,15.043,15.019,15.02
201903072233,15.02,15.025,15.003,15.014
201903072234,15.014,15.018,15.003,15.015
201903072235,15.016,15.02,15.013,15.018
201903072236,15.018,15.028,15.013,15.028
201903072237,15.027,15.034,15.027,15.033
201903072238,15.033,15.045,15.033,15.043
201903072239,15.044,15.047,15.042,15.042
201903072240,15.039,15.043,15.038,15.038
201903072241,15.037,15.037,15.031,15.036
201903072242,15.037,15.038,15.033,15.034
201903072243,15.034,15.035,15.032,15.032
201903072244,15.032,15.034,15.032,15.033
201903072245,15.033,15.038,15.032,15.036
201903072246,15.036,15.036,15.032,15.033
201903072247,15.033,15.042,15.032,15.038
201903072248,15.039,15.042,15.037,15.037
201903072249,15.037,15.043,15.033,15.033
201903072250,15.034,15.037,15.029,15.031
201903072251,15.032,15.042,15.03,15.042
201903072252,15.042,15.043,15.042,15.042
201903072253,15.042,15.042,15.037,15.037
201903072254,15.037,15.042,15.037,15.038
201903072255,15.038,15.042,15.037,15.039
201903072256,15.038,15.038,15.028,15.038
201903072257,15.038,15.042,15.038,15.042
201903072258,15.042,15.045,15.039,15.039
201903072259,15.041,15.042,15.032,15.033
201903072300,15.033,15.033,15.021,15.027
201903072301,15.027,15.033,15.027,15.033
201903072302,15.032,15.034,15.028,15.028
201903072303,15.028,15.032,15.023,15.024
201903072304,15.024,15.041,15.024,15.032
201903072305,15.033,15.033,15.023,15.024
201903072306,15.023,15.023,15.017,15.018
201903072307,15.018,15.018,15.009,15.013
201903072308,15.013,15.013,15.007,15.008
201903072309,15.008,15.01,15.005,15.01
201903072310,15.01,15.013,15.008,15.009
201903072311,15.009,15.015,15.009,15.012
201903072312,15.013,15.013,15.004,15.005
201903072313,15.006,15.01,15.004,15.009
201903072314,15.009,15.011,15.006,15.009
201903072315,15.009,15.009,15.003,15.004
201903072316,15.004,15.005,15.004,15.005
201903072317,15.005,15.011,15.005,15.009
201903072318,15.009,15.009,15.004,15.004
201903072319,15.004,15.006,14.999,15.004
201903072320,15.004,15.008,15.003,15.004
201903072321,15.004,15.005,14.999,15.005
201903072322,15.004,15.005,15.003,15.005
201903072323,15.005,15.005,14.999,14.999
201903072324,14.999,15.008,14.999,15.008
201903072325,15.008,15.008,15.003,15.004
201903072326,15.004,15.005,15,15.004
201903072327,15.005,15.005,14.999,15.002
201903072328,15.003,15.004,15,15.003
201903072329,15.003,15.005,15,15.003
201903072330,15.003,15.01,15,15.006
201903072331,15.006,15.01,15.004,15.009
201903072332,15.009,15.011,15.006,15.006
201903072333,15.006,15.006,14.993,14.994
201903072334,14.994,14.995,14.974,14.975
201903072335,14.975,14.989,14.975,14.989
201903072336,14.989,14.989,14.984,14.989
201903072337,14.99,15.009,14.988,15.009
201903072338,15.009,15.01,15.007,15.008
201903072339,15.008,15.023,15.007,15.02
201903072340,15.02,15.02,15.007,15.008
201903072341,15.005,15.006,14.998,14.999
201903072342,14.999,15.004,14.996,15.004
201903072343,15.004,15.006,14.99,14.993
201903072344,14.993,14.993,14.983,14.983
201903072345,14.984,15,14.983,15
201903072346,15,15,14.988,14.997
201903072347,14.997,14.999,14.994,14.997
201903072348,14.997,15.008,14.995,15.007
201903072349,15.007,15.018,15.006,15.013
201903072350,15.013,15.013,15.007,15.008
201903072351,15.009,15.01,15.005,15.007
201903072352,15.007,15.009,15.005,15.009
201903072353,15.009,15.009,14.999,14.999
201903072354,14.999,15,14.996,14.999
201903072355,14.999,15.003,14.996,15.002
201903072356,15.002,15.004,14.998,14.999
201903072357,14.999,15,14.998,14.998
201903072358,14.998,15.002,14.997,15
201903072359,15.001,15.002,14.998,15.002
201903080000,15.002,15.003,14.991,14.992
201903080001,14.992,14.993,14.984,14.985
201903080002,14.986,14.998,14.985,14.998
201903080003,14.997,15.003,14.996,15.003
201903080004,15.003,15.011,15,15.01
201903080005,15.01,15.012,15.004,15.012
201903080006,15.012,15.013,15.009,15.012
201903080007,15.012,15.015,15.012,15.014
201903080008,15.014,15.014,15.008,15.008
201903080009,15.009,15.014,15.009,15.013
201903080010,15.013,15.018,15.012,15.016
201903080011,15.015,15.017,15.008,15.013
201903080012,15.013,15.013,15.009,15.009
201903080013,15.01,15.019,15.009,15.018
201903080014,15.018,15.018,15.016,15.017
201903080015,15.017,15.017,15.009,15.009
201903080016,15.009,15.015,15.009,15.015
201903080017,15.015,15.015,15.01,15.012
201903080018,15.012,15.014,15.012,15.013
201903080019,15.013,15.019,15.012,15.018
201903080020,15.017,15.019,15.012,15.012
201903080021,15.01,15.01,15.004,15.008
201903080022,15.008,15.013,15.008,15.013
201903080023,15.014,15.019,15.013,15.013
201903080024,15.013,15.015,15.01,15.01
201903080025,15.01,15.012,15.008,15.01
201903080026,15.009,15.011,15.008,15.009
201903080027,15.009,15.014,15.008,15.009
201903080028,15.009,15.01,15.007,15.008
201903080029,15.008,15.009,15.004,15.007
201903080030,15.007,15.008,15.004,15.007
201903080031,15.007,15.008,15.004,15.008
201903080032,15.007,15.008,15.004,15.004
201903080033,15.004,15.005,15.002,15.002
201903080034,15.003,15.004,14.999,15.002
201903080035,15.002,15.004,15.002,15.004
201903080036,15.003,15.012,15.003,15.01
201903080037,15.01,15.022,15.009,15.022
201903080038,15.022,15.035,15.021,15.033
201903080039,15.033,15.037,15.028,15.029
201903080040,15.029,15.03,15.028,15.028
201903080041,15.029,15.039,15.029,15.039
201903080042,15.039,15.058,15.039,15.058
201903080043,15.058,15.058,15.048,15.048
201903080044,15.048,15.058,15.048,15.058
201903080045,15.058,15.065,15.058,15.063
201903080046,15.063,15.063,15.049,15.053
201903080047,15.053,15.053,15.048,15.049
201903080048,15.049,15.049,15.044,15.048
201903080049,15.048,15.049,15.045,15.049
201903080050,15.048,15.049,15.044,15.045
201903080051,15.044,15.045,15.039,15.042
201903080052,15.043,15.05,15.04,15.044
201903080053,15.044,15.044,15.041,15.044
201903080054,15.044,15.049,15.043,15.049
201903080055,15.049,15.053,15.048,15.049
201903080056,15.049,15.049,15.043,15.044
201903080057,15.044,15.045,15.037,15.038
201903080058,15.038,15.04,15.035,15.04
201903080059,15.04,15.043,15.039,15.04
201903080100,15.04,15.048,15.039,15.048
201903080101,15.048,15.048,15.043,15.043
201903080102,15.043,15.049,15.043,15.048
201903080103,15.048,15.048,15.043,15.044
201903080104,15.044,15.047,15.043,15.045
201903080105,15.045,15.045,15.043,15.044
201903080106,15.044,15.044,15.043,15.043
201903080107,15.043,15.045,15.043,15.044
201903080108,15.044,15.044,15.042,15.043
201903080109,15.043,15.044,15.042,15.043
201903080110,15.043,15.045,15.042,15.042
201903080111,15.042,15.045,15.042,15.042
201903080112,15.042,15.044,15.042,15.043
201903080113,15.043,15.044,15.042,15.044
201903080114,15.044,15.044,15.043,15.043
201903080115,15.043,15.045,15.043,15.044
201903080116,15.044,15.044,15.043,15.043
201903080117,15.043,15.044,15.043,15.043
201903080118,15.043,15.044,15.042,15.042
201903080119,15.042,15.046,15.041,15.046
201903080120,15.046,15.046,15.043,15.044
201903080121,15.044,15.048,15.043,15.044
201903080122,15.043,15.044,15.043,15.044
201903080123,15.044,15.044,15.043,15.043
201903080124,15.043,15.044,15.043,15.044
201903080125,15.044,15.044,15.043,15.043
201903080126,15.043,15.044,15.041,15.041
201903080127,15.042,15.042,15.033,15.033
201903080128,15.033,15.037,15.032,15.032
201903080129,15.032,15.033,15.032,15.032
201903080130,15.032,15.033,15.029,15.029
201903080131,15.029,15.037,15.029,15.037
201903080132,15.037,15.037,15.037,15.037
201903080133,15.037,15.037,15.037,15.037
201903080134,15.037,15.037,15.034,15.036
201903080135,15.036,15.036,15.027,15.028
201903080136,15.028,15.028,15.024,15.027
201903080137,15.027,15.033,15.027,15.031
201903080138,15.031,15.033,15.031,15.031
201903080139,15.031,15.033,15.031,15.032
201903080140,15.032,15.032,15.028,15.028
201903080141,15.028,15.028,15.028,15.028
201903080142,15.028,15.029,15.027,15.028
201903080143,15.028,15.028,15.028,15.028
201903080144,15.028,15.029,15.027,15.028
201903080145,15.028,15.033,15.028,15.032
201903080146,15.032,15.034,15.032,15.034
201903080147,15.034,15.034,15.028,15.029
201903080148,15.029,15.034,15.028,15.033
201903080149,15.033,15.033,15.032,15.033
201903080150,15.033,15.033,15.032,15.033
201903080151,15.032,15.033,15.021,15.023
201903080152,15.023,15.029,15.022,15.028
201903080153,15.029,15.029,15.025,15.027
201903080154,15.027,15.032,15.027,15.032
201903080155,15.031,15.033,15.025,15.027
201903080156,15.027,15.028,15.024,15.028
201903080157,15.028,15.028,15.018,15.019
201903080158,15.019,15.021,15.017,15.017
201903080159,15.017,15.023,15.017,15.019
201903080200,15.019,15.023,15.019,15.019
201903080201,15.019,15.021,15.014,15.015
201903080202,15.014,15.018,15.014,15.015
201903080203,15.015,15.015,15.014,15.015
201903080204,15.015,15.016,15.01,15.013
201903080205,15.013,15.013,15.009,15.009
201903080206,15.009,15.01,15.005,15.009
201903080207,15.008,15.01,15.007,15.009
201903080208,15.009,15.01,15.008,15.008
201903080209,15.008,15.01,15.008,15.009
201903080210,15.01,15.01,15.008,15.009
201903080211,15.008,15.01,15.008,15.009
201903080212,15.009,15.01,15.008,15.009
201903080213,15.009,15.009,15.008,15.009
201903080214,15.009,15.013,15.008,15.01
201903080215,15.011,15.015,15.01,15.014
201903080216,15.014,15.018,15.014,15.015
201903080217,15.015,15.016,15.014,15.015
201903080218,15.015,15.016,15.01,15.011
201903080219,15.01,15.011,15.01,15.01
201903080220,15.01,15.011,15.005,15.006
201903080221,15.006,15.007,15.005,15.006
201903080222,15.006,15.01,15.005,15.01
201903080223,15.01,15.01,15.006,15.01
201903080224,15.01,15.011,15.01,15.011
201903080225,15.011,15.011,15.009,15.01
201903080226,15.01,15.01,15.006,15.009
201903080227,15.009,15.01,15.009,15.01
201903080228,15.01,15.01,15.005,15.009
201903080229,15.009,15.01,15.005,15.01
201903080230,15.01,15.01,15.005,15.008
201903080231,15.008,15.012,15.006,15.01
201903080232,15.01,15.014,15.003,15.013
201903080233,15.015,15.021,15.014,15.015
201903080234,15.015,15.015,15.011,15.014
201903080235,15.014,15.016,15.014,15.015
201903080236,15.015,15.02,15.015,15.02
201903080237,15.02,15.02,15.016,15.02
201903080238,15.02,15.025,15.02,15.024
201903080239,15.024,15.024,15.02,15.021
201903080240,15.021,15.022,15.02,15.021
201903080241,15.021,15.022,15.021,15.021
201903080242,15.021,15.022,15.021,15.021
201903080243,15.021,15.021,15.02,15.021
201903080244,15.021,15.021,15.015,15.016
201903080245,15.017,15.017,15.016,15.016
201903080246,15.016,15.016,15.015,15.016
201903080247,15.016,15.018,15.015,15.016
201903080248,15.016,15.02,15.015,15.019
201903080249,15.019,15.022,15.016,15.021
201903080250,15.021,15.021,15.015,15.016
201903080251,15.019,15.022,15.017,15.021
201903080252,15.021,15.024,15.02,15.02
201903080253,15.02,15.021,15.019,15.019
201903080254,15.019,15.02,15.016,15.02
201903080255,15.02,15.02,15.018,15.018
201903080256,15.018,15.018,15.015,15.018
201903080257,15.018,15.018,15.015,15.017
201903080258,15.017,15.017,15.014,15.014
201903080259,15.014,15.018,15.014,15.014
201903080300,15.014,15.017,15.008,15.011
201903080301,15.011,15.012,15.009,15.009
201903080302,15.009,15.013,15.009,15.013
201903080303,15.013,15.014,15.009,15.01
201903080304,15.01,15.014,15.009,15.014
201903080305,15.014,15.019,15.014,15.018
201903080306,15.018,15.018,15.013,15.014
201903080307,15.014,15.018,15.014,15.017
201903080308,15.017,15.022,15.017,15.022
201903080309,15.022,15.022,15.019,15.019
201903080310,15.02,15.02,15.018,15.018
201903080311,15.018,15.019,15.018,15.019
201903080312,15.019,15.023,15.019,15.023
201903080313,15.023,15.027,15.023,15.027
201903080314,15.026,15.026,15.022,15.023
201903080315,15.023,15.024,15.022,15.024
201903080316,15.023,15.024,15.019,15.02
201903080317,15.019,15.02,15.019,15.02
201903080318,15.02,15.02,15.018,15.018
201903080319,15.018,15.019,15.017,15.019
201903080320,15.018,15.023,15.018,15.022
201903080321,15.022,15.022,15.018,15.018
201903080322,15.018,15.027,15.017,15.027
201903080323,15.027,15.028,15.022,15.027
201903080324,15.027,15.028,15.022,15.028
201903080325,15.028,15.032,15.028,15.029
201903080326,15.029,15.029,15.024,15.024
201903080327,15.024,15.028,15.024,15.027
201903080328,15.026,15.028,15.024,15.028
201903080329,15.027,15.028,15.024,15.028
201903080330,15.028,15.033,15.027,15.032
201903080331,15.032,15.033,15.028,15.028
201903080332,15.028,15.029,15.027,15.029
201903080333,15.029,15.029,15.024,15.025
201903080334,15.025,15.027,15.023,15.024
201903080335,15.024,15.026,15.024,15.024
201903080336,15.024,15.025,15.023,15.024
201903080337,15.024,15.025,15.023,15.025
201903080338,15.024,15.024,15.017,15.017
201903080339,15.017,15.02,15.017,15.019
201903080340,15.019,15.021,15.018,15.02
201903080341,15.02,15.02,15.018,15.019
201903080342,15.019,15.02,15.019,15.019
201903080343,15.019,15.022,15.019,15.019
201903080344,15.019,15.022,15.018,15.018
201903080345,15.018,15.021,15.018,15.019
201903080346,15.019,15.022,15.019,15.02
201903080347,15.02,15.02,15.019,15.02
201903080348,15.02,15.023,15.02,15.023
201903080349,15.023,15.023,15.019,15.022
201903080350,15.022,15.028,15.022,15.028
201903080351,15.028,15.028,15.025,15.027
201903080352,15.028,15.028,15.027,15.027
201903080353,15.027,15.029,15.027,15.028
201903080354,15.028,15.028,15.028,15.028
201903080355,15.028,15.028,15.027,15.028
201903080356,15.028,15.028,15.027,15.028
201903080357,15.028,15.028,15.027,15.027
201903080358,15.027,15.028,15.026,15.026
201903080359,15.026,15.028,15.025,15.026
201903080400,15.026,15.027,15.025,15.026
201903080401,15.026,15.027,15.025,15.026
201903080402,15.027,15.028,15.023,15.023
201903080403,15.023,15.023,15.022,15.022
201903080404,15.022,15.023,15.021,15.022
201903080405,15.022,15.023,15.022,15.022
201903080406,15.022,15.023,15.022,15.023
201903080407,15.023,15.023,15.022,15.022
201903080408,15.022,15.023,15.022,15.022
201903080409,15.022,15.022,15.022,15.022
201903080410,15.022,15.022,15.018,15.018
201903080411,15.018,15.018,15.012,15.012
201903080412,15.012,15.013,15.011,15.011
201903080413,15.011,15.016,15.011,15.016
201903080414,15.016,15.017,15.016,15.017
201903080415,15.017,15.018,15.016,15.016
201903080416,15.016,15.017,15.016,15.016
201903080417,15.016,15.017,15.016,15.016
201903080418,15.016,15.017,15.016,15.016
201903080419,15.016,15.017,15.016,15.016
201903080420,15.016,15.017,15.013,15.013
201903080421,15.013,15.013,15.013,15.013
201903080422,15.013,15.014,15.013,15.013
201903080423,15.013,15.013,15.012,15.012
201903080424,15.012,15.013,15.008,15.008
201903080425,15.008,15.009,15.008,15.008
201903080426,15.008,15.008,15.008,15.008
201903080427,15.008,15.008,15.008,15.008
201903080428,15.008,15.008,15.007,15.008
201903080429,15.007,15.008,15.007,15.007
201903080430,15.007,15.008,15.007,15.007
201903080431,15.007,15.009,15.006,15.008
201903080432,15.008,15.008,15.007,15.007
201903080433,15.007,15.007,15.007,15.007
201903080434,15.007,15.007,14.997,14.998
201903080435,14.998,15.005,14.997,15.003
201903080436,15.004,15.004,15.002,15.002
201903080437,15.002,15.003,15.002,15.002
201903080438,15.002,15.003,15.002,15.002
201903080439,15.002,15.003,14.996,14.996
201903080440,14.996,14.998,14.996,14.998
201903080441,14.998,14.998,14.995,14.997
201903080442,14.997,14.998,14.996,14.997
201903080443,14.997,15.002,14.997,15
201903080444,15,15.007,14.999,15.002
201903080445,15.002,15.002,14.998,14.998
201903080446,14.998,14.998,14.993,14.996
201903080447,14.996,14.998,14.996,14.997
201903080448,14.997,15.003,14.996,15.001
201903080449,15.001,15.002,15,15
201903080450,15,15.003,15,15.003
201903080451,15.002,15.007,15.002,15.007
201903080452,15.007,15.008,15.005,15.007
201903080453,15.008,15.008,15.005,15.005
201903080454,15.005,15.008,15.004,15.005
201903080455,15.005,15.008,15.002,15.006
201903080456,15.006,15.007,15.002,15.002
201903080457,15.002,15.006,15.002,15.006
201903080458,15.006,15.006,15.002,15.003
201903080459,15.003,15.006,15.002,15.005
201903080500,15.005,15.007,15.005,15.007
201903080501,15.007,15.007,15.006,15.006
201903080502,15.006,15.007,15.005,15.005
201903080503,15.005,15.007,15.005,15.007
201903080504,15.007,15.007,15.006,15.006
201903080505,15.006,15.006,15.002,15.002
201903080506,15.002,15.003,15,15
201903080507,15,15.003,15,15.002
201903080508,15.002,15.003,15.001,15.001
201903080509,15.001,15.003,15,15.002
201903080510,15.002,15.005,15.002,15.002
201903080511,15.002,15.003,15.002,15.002
201903080512,15.002,15.002,15.001,15.001
201903080513,15.001,15.002,15,15.001
201903080514,15.001,15.002,15,15.001
201903080515,15.001,15.003,15.001,15.002
201903080516,15.002,15.003,15.001,15.001
201903080517,15.002,15.002,15.001,15.002
201903080518,15.002,15.002,15,15
201903080519,15,15.001,15,15.001
201903080520,15.001,15.001,15,15
201903080521,15,15.002,15,15.001
201903080522,15,15.001,15,15
201903080523,15,15.002,15,15.001
201903080524,15.001,15.002,14.999,15
201903080525,15,15.001,15,15
201903080526,15.001,15.001,15,15
201903080527,15,15.001,14.999,15
201903080528,14.999,15.001,14.999,15.001
201903080529,15.001,15.001,15,15.001
201903080530,15.001,15.002,15,15.001
201903080531,15.003,15.003,15,15
201903080532,15,15.002,15,15
201903080533,15,15.008,15,15.007
201903080534,15.007,15.008,15.006,15.006
201903080535,15.006,15.009,15.006,15.008
201903080536,15.008,15.01,15.006,15.009
201903080537,15.009,15.009,15.005,15.005
201903080538,15.005,15.013,15.005,15.011
201903080539,15.011,15.013,15.011,15.011
201903080540,15.011,15.014,15.011,15.013
201903080541,15.013,15.018,15.013,15.015
201903080542,15.015,15.016,15.015,15.016
201903080543,15.016,15.016,15.012,15.012
201903080544,15.013,15.015,15.012,15.013
201903080545,15.013,15.014,15.011,15.012
201903080546,15.012,15.013,15.011,15.012
201903080547,15.012,15.013,15.011,15.011
201903080548,15.011,15.013,15.01,15.011
201903080549,15.011,15.013,15.011,15.013
201903080550,15.013,15.015,15.012,15.012
201903080551,15.012,15.013,15.01,15.012
201903080552,15.012,15.012,15.007,15.01
201903080553,15.01,15.013,15.01,15.012
201903080554,15.012,15.012,15.01,15.011
201903080555,15.013,15.014,15.011,15.013
201903080556,15.012,15.014,15.011,15.011
201903080557,15.011,15.014,15.011,15.012
201903080558,15.012,15.016,15.012,15.016
201903080559,15.016,15.018,15.015,15.017
201903080600,15.017,15.021,15.016,15.02
201903080601,15.02,15.021,15.018,15.018
201903080602,15.018,15.018,15.017,15.017
201903080603,15.017,15.018,15.017,15.017
201903080604,15.017,15.017,15.016,15.017
201903080605,15.018,15.018,15.016,15.016
201903080606,15.016,15.017,15.016,15.017
201903080607,15.017,15.017,15.016,15.016
201903080608,15.016,15.017,15.016,15.016
201903080609,15.016,15.016,15.016,15.016
201903080610,15.016,15.021,15.016,15.02
201903080611,15.021,15.021,15.021,15.021
201903080612,15.021,15.023,15.021,15.021
201903080613,15.021,15.023,15.021,15.021
201903080614,15.021,15.021,15.021,15.021
201903080615,15.021,15.024,15.021,15.022
201903080616,15.021,15.022,15.021,15.022
201903080617,15.022,15.023,15.022,15.022
201903080618,15.022,15.023,15.021,15.022
201903080619,15.022,15.022,15.022,15.022
201903080620,15.022,15.022,15.022,15.022
201903080621,15.022,15.022,15.022,15.022
201903080622,15.022,15.023,15.021,15.022
201903080623,15.022,15.022,15.022,15.022
201903080624,15.021,15.022,15.021,15.021
201903080625,15.021,15.022,15.021,15.021
201903080626,15.021,15.021,15.021,15.021
201903080627,15.021,15.021,15.021,15.021
201903080628,15.021,15.023,15.021,15.022
201903080629,15.022,15.022,15.021,15.021
201903080630,15.023,15.023,15.022,15.022
201903080631,15.022,15.022,15.021,15.021
201903080632,15.021,15.021,15.02,15.02
201903080633,15.02,15.022,15.02,15.022
201903080634,15.022,15.022,15.021,15.021
201903080635,15.021,15.021,15.02,15.02
201903080636,15.02,15.02,15.02,15.02
201903080637,15.02,15.021,15.02,15.021
201903080638,15.021,15.021,15.021,15.021
201903080639,15.021,15.023,15.021,15.021
201903080640,15.021,15.022,15.021,15.021
201903080641,15.021,15.021,15.018,15.018
201903080642,15.018,15.018,15.017,15.017
201903080643,15.017,15.019,15.017,15.017
201903080644,15.017,15.021,15.017,15.021
201903080645,15.021,15.021,15.018,15.018
201903080646,15.018,15.019,15.018,15.018
201903080647,15.018,15.018,15.017,15.017
201903080648,15.017,15.018,15.017,15.017
201903080649,15.017,15.018,15.017,15.017
201903080650,15.017,15.018,15.017,15.017
201903080651,15.017,15.017,15.017,15.017
201903080652,15.017,15.019,15.017,15.017
201903080653,15.017,15.019,15.017,15.019
201903080654,15.019,15.019,15.018,15.018
201903080655,15.018,15.018,15.018,15.018
201903080656,15.018,15.018,15.018,15.018
201903080657,15.018,15.018,15.017,15.017
201903080658,15.017,15.017,15.017,15.017
201903080659,15.017,15.017,14.988,14.988
