日時,始値(BID),高値(BID),安値(BID),終値(BID)
201903010800,15.6,15.605,15.6,15.605
201903010801,15.605,15.606,15.604,15.605
201903010802,15.605,15.605,15.605,15.605
201903010803,15.605,15.609,15.605,15.609
201903010804,15.609,15.61,15.609,15.61
201903010805,15.61,15.615,15.61,15.612
201903010806,15.612,15.612,15.61,15.61
201903010807,15.61,15.61,15.609,15.61
201903010808,15.61,15.61,15.609,15.609
201903010809,15.609,15.612,15.609,15.612
201903010810,15.612,15.613,15.61,15.613
201903010811,15.613,15.613,15.61,15.61
201903010812,15.61,15.613,15.61,15.613
201903010813,15.613,15.613,15.613,15.613
201903010814,15.613,15.613,15.613,15.613
201903010815,15.613,15.614,15.613,15.614
201903010816,15.614,15.614,15.614,15.614
201903010817,15.614,15.615,15.614,15.615
201903010818,15.615,15.615,15.615,15.615
201903010819,15.615,15.615,15.615,15.615
201903010820,15.615,15.615,15.615,15.615
201903010821,15.615,15.615,15.615,15.615
201903010822,15.615,15.615,15.615,15.615
201903010823,15.615,15.615,15.615,15.615
201903010824,15.615,15.615,15.615,15.615
201903010825,15.615,15.615,15.615,15.615
201903010826,15.615,15.615,15.615,15.615
201903010827,15.615,15.615,15.615,15.615
201903010828,15.615,15.615,15.614,15.615
201903010829,15.615,15.615,15.614,15.615
201903010830,15.615,15.615,15.614,15.615
201903010831,15.615,15.615,15.614,15.615
201903010832,15.615,15.615,15.614,15.615
201903010833,15.615,15.615,15.613,15.613
201903010834,15.613,15.613,15.611,15.611
201903010835,15.611,15.612,15.611,15.612
201903010836,15.612,15.612,15.61,15.61
201903010837,15.61,15.61,15.61,15.61
201903010838,15.61,15.612,15.61,15.611
201903010839,15.611,15.612,15.611,15.612
201903010840,15.612,15.612,15.609,15.609
201903010841,15.609,15.609,15.609,15.609
201903010842,15.609,15.609,15.607,15.607
201903010843,15.607,15.608,15.607,15.607
201903010844,15.607,15.608,15.607,15.607
201903010845,15.607,15.609,15.607,15.609
201903010846,15.609,15.609,15.609,15.609
201903010847,15.609,15.616,15.609,15.615
201903010848,15.615,15.615,15.615,15.615
201903010849,15.615,15.616,15.614,15.615
201903010850,15.615,15.616,15.615,15.615
201903010851,15.615,15.616,15.615,15.616
201903010852,15.616,15.616,15.615,15.616
201903010853,15.616,15.621,15.615,15.621
201903010854,15.621,15.621,15.62,15.62
201903010855,15.62,15.62,15.62,15.62
201903010856,15.62,15.62,15.618,15.619
201903010857,15.619,15.619,15.618,15.619
201903010858,15.619,15.619,15.619,15.619
201903010859,15.619,15.619,15.616,15.616
201903010900,15.616,15.617,15.614,15.616
201903010901,15.616,15.618,15.616,15.617
201903010902,15.618,15.618,15.608,15.608
201903010903,15.609,15.609,15.607,15.607
201903010904,15.607,15.607,15.606,15.607
201903010905,15.607,15.607,15.606,15.607
201903010906,15.607,15.611,15.607,15.609
201903010907,15.609,15.614,15.608,15.614
201903010908,15.614,15.614,15.609,15.611
201903010909,15.611,15.611,15.611,15.611
201903010910,15.611,15.611,15.603,15.603
201903010911,15.603,15.606,15.602,15.606
201903010912,15.606,15.607,15.606,15.606
201903010913,15.607,15.607,15.606,15.607
201903010914,15.607,15.607,15.607,15.607
201903010915,15.607,15.607,15.606,15.607
201903010916,15.607,15.607,15.606,15.606
201903010917,15.606,15.607,15.606,15.606
201903010918,15.606,15.612,15.606,15.612
201903010919,15.612,15.612,15.611,15.612
201903010920,15.612,15.613,15.612,15.612
201903010921,15.612,15.612,15.612,15.612
201903010922,15.612,15.617,15.612,15.616
201903010923,15.616,15.616,15.613,15.616
201903010924,15.616,15.616,15.615,15.615
201903010925,15.615,15.615,15.613,15.613
201903010926,15.613,15.613,15.611,15.611
201903010927,15.611,15.611,15.604,15.606
201903010928,15.606,15.611,15.606,15.608
201903010929,15.608,15.608,15.607,15.607
201903010930,15.607,15.608,15.607,15.608
201903010931,15.608,15.608,15.607,15.607
201903010932,15.608,15.608,15.607,15.608
201903010933,15.608,15.608,15.608,15.608
201903010934,15.608,15.608,15.607,15.607
201903010935,15.607,15.607,15.606,15.607
201903010936,15.607,15.608,15.606,15.607
201903010937,15.607,15.608,15.607,15.608
201903010938,15.608,15.611,15.607,15.61
201903010939,15.61,15.611,15.61,15.61
201903010940,15.61,15.611,15.61,15.61
201903010941,15.61,15.615,15.61,15.615
201903010942,15.615,15.616,15.613,15.613
201903010943,15.613,15.616,15.613,15.616
201903010944,15.616,15.616,15.616,15.616
201903010945,15.616,15.617,15.616,15.617
201903010946,15.617,15.617,15.616,15.616
201903010947,15.616,15.617,15.616,15.616
201903010948,15.616,15.617,15.613,15.613
201903010949,15.613,15.616,15.612,15.616
201903010950,15.616,15.617,15.616,15.616
201903010951,15.616,15.616,15.613,15.613
201903010952,15.613,15.613,15.612,15.613
201903010953,15.614,15.615,15.612,15.612
201903010954,15.612,15.612,15.612,15.612
201903010955,15.611,15.611,15.607,15.607
201903010956,15.607,15.607,15.603,15.606
201903010957,15.606,15.606,15.605,15.605
201903010958,15.605,15.605,15.602,15.603
201903010959,15.603,15.608,15.603,15.606
201903011000,15.606,15.61,15.606,15.61
201903011001,15.61,15.61,15.607,15.607
201903011002,15.607,15.611,15.607,15.611
201903011003,15.611,15.611,15.611,15.611
201903011004,15.611,15.615,15.611,15.615
201903011005,15.615,15.62,15.615,15.62
201903011006,15.62,15.621,15.618,15.621
201903011007,15.621,15.627,15.621,15.627
201903011008,15.626,15.627,15.622,15.622
201903011009,15.622,15.622,15.619,15.621
201903011010,15.621,15.621,15.619,15.621
201903011011,15.621,15.621,15.62,15.621
201903011012,15.621,15.621,15.62,15.62
201903011013,15.62,15.62,15.619,15.62
201903011014,15.62,15.62,15.617,15.617
201903011015,15.617,15.626,15.617,15.624
201903011016,15.625,15.626,15.623,15.626
201903011017,15.626,15.627,15.626,15.626
201903011018,15.626,15.626,15.626,15.626
201903011019,15.626,15.626,15.623,15.626
201903011020,15.626,15.627,15.625,15.627
201903011021,15.627,15.628,15.626,15.628
201903011022,15.628,15.628,15.627,15.628
201903011023,15.628,15.628,15.625,15.626
201903011024,15.626,15.626,15.623,15.623
201903011025,15.623,15.623,15.618,15.62
201903011026,15.621,15.621,15.618,15.621
201903011027,15.621,15.623,15.621,15.621
201903011028,15.621,15.623,15.621,15.622
201903011029,15.622,15.623,15.618,15.618
201903011030,15.619,15.625,15.619,15.622
201903011031,15.622,15.622,15.618,15.618
201903011032,15.618,15.618,15.612,15.613
201903011033,15.613,15.613,15.611,15.612
201903011034,15.612,15.615,15.612,15.612
201903011035,15.612,15.615,15.612,15.613
201903011036,15.613,15.614,15.612,15.613
201903011037,15.613,15.616,15.613,15.615
201903011038,15.615,15.617,15.615,15.615
201903011039,15.615,15.617,15.615,15.617
201903011040,15.617,15.618,15.616,15.617
201903011041,15.616,15.62,15.616,15.617
201903011042,15.617,15.617,15.613,15.616
201903011043,15.616,15.616,15.613,15.616
201903011044,15.616,15.616,15.612,15.615
201903011045,15.616,15.627,15.616,15.626
201903011046,15.626,15.63,15.626,15.628
201903011047,15.628,15.63,15.627,15.63
201903011048,15.63,15.63,15.622,15.622
201903011049,15.622,15.626,15.621,15.623
201903011050,15.623,15.623,15.622,15.623
201903011051,15.623,15.626,15.622,15.623
201903011052,15.623,15.623,15.622,15.622
201903011053,15.622,15.623,15.621,15.621
201903011054,15.621,15.622,15.62,15.62
201903011055,15.62,15.62,15.618,15.62
201903011056,15.62,15.621,15.62,15.62
201903011057,15.62,15.62,15.618,15.62
201903011058,15.619,15.62,15.618,15.62
201903011059,15.62,15.62,15.617,15.617
201903011100,15.617,15.618,15.613,15.613
201903011101,15.613,15.613,15.612,15.612
201903011102,15.612,15.613,15.612,15.612
201903011103,15.612,15.612,15.612,15.612
201903011104,15.612,15.613,15.608,15.609
201903011105,15.609,15.612,15.608,15.608
201903011106,15.608,15.612,15.608,15.612
201903011107,15.612,15.612,15.608,15.611
201903011108,15.611,15.611,15.606,15.607
201903011109,15.607,15.607,15.607,15.607
201903011110,15.607,15.613,15.607,15.61
201903011111,15.61,15.611,15.607,15.607
201903011112,15.607,15.61,15.607,15.607
201903011113,15.607,15.611,15.607,15.608
201903011114,15.608,15.608,15.607,15.607
201903011115,15.607,15.607,15.601,15.601
201903011116,15.601,15.601,15.6,15.601
201903011117,15.601,15.603,15.599,15.603
201903011118,15.603,15.603,15.598,15.598
201903011119,15.598,15.598,15.597,15.598
201903011120,15.598,15.601,15.598,15.601
201903011121,15.601,15.602,15.601,15.602
201903011122,15.602,15.606,15.602,15.606
201903011123,15.606,15.606,15.603,15.604
201903011124,15.604,15.604,15.603,15.603
201903011125,15.603,15.603,15.598,15.598
201903011126,15.598,15.601,15.598,15.6
201903011127,15.6,15.6,15.6,15.6
201903011128,15.6,15.601,15.598,15.598
201903011129,15.598,15.6,15.593,15.593
201903011130,15.593,15.598,15.593,15.596
201903011131,15.596,15.596,15.594,15.595
201903011132,15.595,15.595,15.594,15.595
201903011133,15.595,15.596,15.595,15.595
201903011134,15.595,15.595,15.593,15.593
201903011135,15.594,15.594,15.592,15.593
201903011136,15.593,15.593,15.591,15.591
201903011137,15.591,15.591,15.588,15.591
201903011138,15.591,15.591,15.588,15.59
201903011139,15.59,15.591,15.588,15.59
201903011140,15.59,15.591,15.588,15.591
201903011141,15.591,15.591,15.591,15.591
201903011142,15.591,15.591,15.586,15.586
201903011143,15.586,15.586,15.578,15.579
201903011144,15.58,15.583,15.578,15.583
201903011145,15.583,15.586,15.582,15.583
201903011146,15.583,15.583,15.578,15.581
201903011147,15.581,15.583,15.581,15.582
201903011148,15.583,15.583,15.581,15.581
201903011149,15.581,15.586,15.58,15.586
201903011150,15.586,15.587,15.585,15.586
201903011151,15.586,15.591,15.586,15.591
201903011152,15.591,15.595,15.591,15.593
201903011153,15.593,15.596,15.592,15.592
201903011154,15.592,15.594,15.592,15.593
201903011155,15.593,15.593,15.592,15.593
201903011156,15.593,15.593,15.593,15.593
201903011157,15.593,15.593,15.593,15.593
201903011158,15.593,15.594,15.593,15.593
201903011159,15.593,15.594,15.593,15.594
201903011200,15.594,15.594,15.593,15.594
201903011201,15.594,15.594,15.593,15.594
201903011202,15.594,15.598,15.594,15.598
201903011203,15.598,15.598,15.598,15.598
201903011204,15.598,15.599,15.598,15.599
201903011205,15.599,15.6,15.599,15.599
201903011206,15.599,15.601,15.599,15.6
201903011207,15.6,15.603,15.599,15.6
201903011208,15.6,15.602,15.599,15.6
201903011209,15.599,15.6,15.599,15.599
201903011210,15.599,15.601,15.599,15.599
201903011211,15.599,15.6,15.599,15.599
201903011212,15.599,15.599,15.599,15.599
201903011213,15.599,15.599,15.599,15.599
201903011214,15.599,15.599,15.599,15.599
201903011215,15.599,15.599,15.599,15.599
201903011216,15.599,15.603,15.599,15.603
201903011217,15.603,15.603,15.602,15.603
201903011218,15.603,15.604,15.602,15.603
201903011219,15.603,15.604,15.603,15.603
201903011220,15.603,15.605,15.603,15.604
201903011221,15.604,15.605,15.604,15.604
201903011222,15.604,15.604,15.604,15.604
201903011223,15.604,15.604,15.599,15.602
201903011224,15.602,15.602,15.599,15.602
201903011225,15.602,15.602,15.602,15.602
201903011226,15.602,15.602,15.599,15.6
201903011227,15.6,15.6,15.599,15.599
201903011228,15.599,15.6,15.599,15.599
201903011229,15.599,15.599,15.597,15.597
201903011230,15.597,15.598,15.592,15.593
201903011231,15.594,15.594,15.594,15.594
201903011232,15.594,15.595,15.594,15.594
201903011233,15.594,15.594,15.594,15.594
201903011234,15.594,15.594,15.593,15.593
201903011235,15.593,15.593,15.593,15.593
201903011236,15.593,15.593,15.593,15.593
201903011237,15.593,15.594,15.593,15.594
201903011238,15.594,15.596,15.594,15.594
201903011239,15.594,15.594,15.594,15.594
201903011240,15.594,15.594,15.594,15.594
201903011241,15.594,15.594,15.593,15.594
201903011242,15.594,15.594,15.593,15.594
201903011243,15.594,15.597,15.593,15.597
201903011244,15.597,15.598,15.597,15.598
201903011245,15.598,15.598,15.594,15.594
201903011246,15.594,15.597,15.593,15.594
201903011247,15.594,15.594,15.593,15.593
201903011248,15.593,15.593,15.593,15.593
201903011249,15.593,15.594,15.593,15.594
201903011250,15.594,15.594,15.594,15.594
201903011251,15.594,15.594,15.593,15.593
201903011252,15.593,15.594,15.593,15.593
201903011253,15.593,15.594,15.593,15.594
201903011254,15.594,15.597,15.594,15.597
201903011255,15.597,15.598,15.595,15.597
201903011256,15.595,15.598,15.595,15.598
201903011257,15.598,15.598,15.594,15.594
201903011258,15.594,15.594,15.594,15.594
201903011259,15.594,15.594,15.593,15.594
201903011300,15.594,15.595,15.594,15.594
201903011301,15.594,15.594,15.594,15.594
201903011302,15.594,15.594,15.594,15.594
201903011303,15.594,15.595,15.594,15.595
201903011304,15.595,15.595,15.594,15.594
201903011305,15.594,15.594,15.594,15.594
201903011306,15.594,15.595,15.594,15.594
201903011307,15.594,15.595,15.594,15.594
201903011308,15.594,15.598,15.594,15.598
201903011309,15.598,15.598,15.597,15.597
201903011310,15.597,15.597,15.594,15.594
201903011311,15.594,15.595,15.594,15.594
201903011312,15.594,15.595,15.593,15.595
201903011313,15.595,15.595,15.594,15.594
201903011314,15.594,15.595,15.594,15.595
201903011315,15.595,15.595,15.594,15.594
201903011316,15.594,15.595,15.594,15.595
201903011317,15.595,15.595,15.594,15.594
201903011318,15.594,15.595,15.593,15.593
201903011319,15.593,15.595,15.593,15.594
201903011320,15.594,15.595,15.594,15.594
201903011321,15.594,15.597,15.594,15.595
201903011322,15.595,15.595,15.594,15.594
201903011323,15.594,15.594,15.594,15.594
201903011324,15.594,15.598,15.594,15.598
201903011325,15.598,15.599,15.598,15.598
201903011326,15.598,15.598,15.598,15.598
201903011327,15.598,15.598,15.594,15.594
201903011328,15.594,15.594,15.594,15.594
201903011329,15.594,15.594,15.594,15.594
201903011330,15.594,15.594,15.594,15.594
201903011331,15.594,15.595,15.594,15.594
201903011332,15.594,15.594,15.594,15.594
201903011333,15.594,15.594,15.592,15.592
201903011334,15.592,15.592,15.591,15.592
201903011335,15.592,15.592,15.588,15.588
201903011336,15.587,15.587,15.587,15.587
201903011337,15.587,15.587,15.587,15.587
201903011338,15.587,15.588,15.587,15.587
201903011339,15.587,15.588,15.587,15.587
201903011340,15.587,15.587,15.587,15.587
201903011341,15.587,15.587,15.587,15.587
201903011342,15.587,15.587,15.587,15.587
201903011343,15.587,15.592,15.587,15.592
201903011344,15.592,15.592,15.591,15.591
201903011345,15.591,15.593,15.591,15.592
201903011346,15.592,15.592,15.592,15.592
201903011347,15.592,15.592,15.592,15.592
201903011348,15.592,15.592,15.592,15.592
201903011349,15.592,15.592,15.592,15.592
201903011350,15.592,15.592,15.589,15.589
201903011351,15.589,15.589,15.589,15.589
201903011352,15.589,15.589,15.589,15.589
201903011353,15.589,15.589,15.589,15.589
201903011354,15.589,15.589,15.588,15.588
201903011355,15.588,15.589,15.588,15.588
201903011356,15.588,15.589,15.588,15.588
201903011357,15.588,15.589,15.588,15.589
201903011358,15.589,15.589,15.588,15.588
201903011359,15.588,15.59,15.588,15.589
201903011400,15.589,15.589,15.589,15.589
201903011401,15.589,15.589,15.588,15.588
201903011402,15.588,15.589,15.588,15.589
201903011403,15.589,15.589,15.588,15.588
201903011404,15.588,15.588,15.588,15.588
201903011405,15.588,15.588,15.587,15.587
201903011406,15.587,15.587,15.587,15.587
201903011407,15.587,15.588,15.587,15.588
201903011408,15.588,15.588,15.588,15.588
201903011409,15.588,15.588,15.587,15.588
201903011410,15.588,15.588,15.587,15.588
201903011411,15.588,15.588,15.588,15.588
201903011412,15.588,15.588,15.587,15.587
201903011413,15.587,15.588,15.587,15.587
201903011414,15.587,15.587,15.584,15.584
201903011415,15.584,15.585,15.583,15.584
201903011416,15.584,15.587,15.584,15.584
201903011417,15.584,15.587,15.583,15.587
201903011418,15.587,15.587,15.583,15.584
201903011419,15.584,15.584,15.583,15.583
201903011420,15.583,15.584,15.583,15.584
201903011421,15.584,15.584,15.583,15.584
201903011422,15.584,15.584,15.583,15.583
201903011423,15.583,15.584,15.583,15.584
201903011424,15.586,15.586,15.583,15.584
201903011425,15.584,15.584,15.584,15.584
201903011426,15.584,15.584,15.584,15.584
201903011427,15.584,15.584,15.583,15.584
201903011428,15.584,15.584,15.584,15.584
201903011429,15.584,15.586,15.583,15.584
201903011430,15.584,15.587,15.584,15.584
201903011431,15.584,15.587,15.584,15.587
201903011432,15.587,15.587,15.584,15.584
201903011433,15.584,15.587,15.583,15.583
201903011434,15.583,15.583,15.582,15.583
201903011435,15.583,15.583,15.579,15.579
201903011436,15.579,15.579,15.578,15.578
201903011437,15.579,15.582,15.578,15.582
201903011438,15.581,15.582,15.579,15.579
201903011439,15.579,15.582,15.579,15.579
201903011440,15.579,15.582,15.578,15.579
201903011441,15.579,15.579,15.579,15.579
201903011442,15.579,15.579,15.579,15.579
201903011443,15.579,15.579,15.579,15.579
201903011444,15.579,15.579,15.579,15.579
201903011445,15.579,15.583,15.579,15.579
201903011446,15.579,15.58,15.578,15.579
201903011447,15.579,15.582,15.578,15.578
201903011448,15.578,15.579,15.578,15.579
201903011449,15.579,15.579,15.575,15.575
201903011450,15.575,15.577,15.575,15.577
201903011451,15.577,15.578,15.577,15.578
201903011452,15.578,15.578,15.577,15.577
201903011453,15.577,15.577,15.573,15.573
201903011454,15.573,15.575,15.573,15.574
201903011455,15.574,15.574,15.569,15.572
201903011456,15.572,15.572,15.568,15.569
201903011457,15.568,15.569,15.566,15.567
201903011458,15.567,15.567,15.561,15.561
201903011459,15.561,15.562,15.558,15.562
201903011500,15.562,15.563,15.562,15.562
201903011501,15.562,15.562,15.557,15.558
201903011502,15.558,15.559,15.557,15.557
201903011503,15.557,15.558,15.556,15.557
201903011504,15.557,15.557,15.552,15.553
201903011505,15.553,15.557,15.551,15.553
201903011506,15.553,15.558,15.553,15.557
201903011507,15.557,15.559,15.557,15.559
201903011508,15.559,15.561,15.558,15.561
201903011509,15.561,15.562,15.557,15.56
201903011510,15.56,15.56,15.559,15.56
201903011511,15.56,15.562,15.557,15.561
201903011512,15.561,15.566,15.561,15.565
201903011513,15.565,15.571,15.565,15.571
201903011514,15.57,15.576,15.57,15.576
201903011515,15.575,15.577,15.574,15.577
201903011516,15.577,15.577,15.575,15.577
201903011517,15.577,15.577,15.576,15.577
201903011518,15.577,15.579,15.576,15.576
201903011519,15.576,15.578,15.576,15.577
201903011520,15.577,15.578,15.576,15.576
201903011521,15.575,15.576,15.575,15.576
201903011522,15.576,15.576,15.571,15.571
201903011523,15.571,15.571,15.57,15.57
201903011524,15.57,15.571,15.569,15.57
201903011525,15.57,15.571,15.569,15.569
201903011526,15.569,15.569,15.566,15.567
201903011527,15.567,15.567,15.565,15.566
201903011528,15.566,15.568,15.565,15.566
201903011529,15.567,15.569,15.566,15.568
201903011530,15.568,15.568,15.567,15.568
201903011531,15.568,15.569,15.568,15.569
201903011532,15.569,15.57,15.568,15.569
201903011533,15.569,15.569,15.567,15.568
201903011534,15.568,15.568,15.564,15.564
201903011535,15.564,15.565,15.564,15.565
201903011536,15.565,15.568,15.565,15.568
201903011537,15.568,15.568,15.565,15.568
201903011538,15.568,15.568,15.566,15.566
201903011539,15.566,15.566,15.565,15.566
201903011540,15.566,15.568,15.566,15.566
201903011541,15.566,15.569,15.566,15.569
201903011542,15.569,15.57,15.569,15.57
201903011543,15.57,15.57,15.569,15.57
201903011544,15.57,15.574,15.57,15.574
201903011545,15.574,15.574,15.574,15.574
201903011546,15.574,15.574,15.574,15.574
201903011547,15.574,15.574,15.574,15.574
201903011548,15.574,15.574,15.574,15.574
201903011549,15.574,15.574,15.571,15.571
201903011550,15.571,15.576,15.571,15.573
201903011551,15.573,15.574,15.571,15.571
201903011552,15.571,15.571,15.565,15.565
201903011553,15.565,15.565,15.555,15.555
201903011554,15.555,15.556,15.553,15.554
201903011555,15.554,15.559,15.553,15.557
201903011556,15.557,15.557,15.554,15.556
201903011557,15.556,15.559,15.556,15.559
201903011558,15.559,15.559,15.557,15.558
201903011559,15.558,15.56,15.556,15.559
201903011600,15.559,15.564,15.559,15.56
201903011601,15.56,15.561,15.56,15.56
201903011602,15.56,15.561,15.556,15.56
201903011603,15.56,15.564,15.555,15.557
201903011604,15.557,15.559,15.556,15.556
201903011605,15.556,15.557,15.55,15.55
201903011606,15.55,15.551,15.549,15.55
201903011607,15.55,15.552,15.55,15.551
201903011608,15.551,15.552,15.549,15.551
201903011609,15.551,15.559,15.551,15.559
201903011610,15.559,15.566,15.559,15.566
201903011611,15.566,15.566,15.562,15.564
201903011612,15.564,15.567,15.564,15.566
201903011613,15.566,15.566,15.562,15.562
201903011614,15.562,15.566,15.562,15.566
201903011615,15.566,15.568,15.566,15.567
201903011616,15.567,15.567,15.565,15.566
201903011617,15.566,15.566,15.563,15.565
201903011618,15.565,15.565,15.561,15.561
201903011619,15.561,15.563,15.561,15.563
201903011620,15.562,15.562,15.561,15.561
201903011621,15.561,15.562,15.561,15.562
201903011622,15.562,15.562,15.557,15.56
201903011623,15.56,15.561,15.56,15.56
201903011624,15.56,15.565,15.56,15.564
201903011625,15.564,15.57,15.562,15.57
201903011626,15.57,15.571,15.567,15.567
201903011627,15.567,15.568,15.566,15.566
201903011628,15.566,15.567,15.566,15.567
201903011629,15.567,15.57,15.567,15.567
201903011630,15.567,15.567,15.565,15.566
201903011631,15.566,15.567,15.565,15.567
201903011632,15.567,15.567,15.564,15.566
201903011633,15.566,15.567,15.566,15.566
201903011634,15.566,15.567,15.566,15.567
201903011635,15.567,15.567,15.566,15.566
201903011636,15.566,15.567,15.562,15.566
201903011637,15.566,15.569,15.566,15.569
201903011638,15.569,15.57,15.569,15.57
201903011639,15.57,15.57,15.569,15.57
201903011640,15.57,15.57,15.569,15.569
201903011641,15.569,15.569,15.569,15.569
201903011642,15.569,15.569,15.565,15.565
201903011643,15.565,15.566,15.565,15.565
201903011644,15.565,15.565,15.561,15.561
201903011645,15.561,15.561,15.556,15.556
201903011646,15.556,15.558,15.556,15.557
201903011647,15.557,15.56,15.556,15.559
201903011648,15.559,15.561,15.559,15.561
201903011649,15.561,15.561,15.56,15.56
201903011650,15.56,15.562,15.56,15.56
201903011651,15.56,15.565,15.558,15.558
201903011652,15.558,15.558,15.557,15.558
201903011653,15.558,15.561,15.558,15.56
201903011654,15.561,15.561,15.558,15.558
201903011655,15.558,15.562,15.558,15.561
201903011656,15.561,15.562,15.558,15.561
201903011657,15.559,15.559,15.558,15.558
201903011658,15.558,15.559,15.557,15.557
201903011659,15.557,15.559,15.557,15.558
201903011700,15.558,15.563,15.558,15.563
201903011701,15.563,15.563,15.558,15.558
201903011702,15.558,15.56,15.554,15.555
201903011703,15.555,15.556,15.549,15.55
201903011704,15.55,15.55,15.549,15.549
201903011705,15.549,15.549,15.544,15.544
201903011706,15.544,15.544,15.539,15.54
201903011707,15.541,15.543,15.539,15.543
201903011708,15.543,15.546,15.543,15.544
201903011709,15.544,15.546,15.541,15.544
201903011710,15.544,15.544,15.543,15.544
201903011711,15.544,15.544,15.535,15.539
201903011712,15.539,15.54,15.534,15.535
201903011713,15.535,15.539,15.535,15.539
201903011714,15.539,15.539,15.534,15.535
201903011715,15.535,15.535,15.534,15.535
201903011716,15.535,15.539,15.534,15.535
201903011717,15.536,15.54,15.536,15.54
201903011718,15.539,15.544,15.539,15.54
201903011719,15.54,15.54,15.539,15.539
201903011720,15.539,15.539,15.535,15.537
201903011721,15.537,15.539,15.535,15.539
201903011722,15.539,15.539,15.534,15.538
201903011723,15.538,15.538,15.533,15.534
201903011724,15.534,15.535,15.534,15.534
201903011725,15.534,15.534,15.534,15.534
201903011726,15.534,15.535,15.533,15.534
201903011727,15.533,15.534,15.533,15.534
201903011728,15.534,15.534,15.524,15.524
201903011729,15.524,15.524,15.523,15.524
201903011730,15.524,15.525,15.518,15.52
201903011731,15.52,15.52,15.519,15.519
201903011732,15.519,15.524,15.519,15.52
201903011733,15.52,15.524,15.519,15.523
201903011734,15.523,15.526,15.523,15.526
201903011735,15.525,15.53,15.525,15.529
201903011736,15.529,15.529,15.524,15.525
201903011737,15.526,15.526,15.525,15.525
201903011738,15.525,15.525,15.519,15.519
201903011739,15.52,15.52,15.511,15.511
201903011740,15.511,15.518,15.511,15.518
201903011741,15.518,15.519,15.517,15.519
201903011742,15.522,15.522,15.519,15.521
201903011743,15.521,15.521,15.518,15.52
201903011744,15.52,15.52,15.518,15.518
201903011745,15.519,15.523,15.519,15.519
201903011746,15.519,15.52,15.515,15.515
201903011747,15.515,15.515,15.509,15.51
201903011748,15.51,15.518,15.51,15.518
201903011749,15.518,15.524,15.518,15.523
201903011750,15.524,15.524,15.519,15.522
201903011751,15.522,15.524,15.52,15.523
201903011752,15.523,15.523,15.52,15.52
201903011753,15.52,15.521,15.52,15.52
201903011754,15.52,15.52,15.519,15.52
201903011755,15.52,15.523,15.52,15.523
201903011756,15.523,15.523,15.52,15.52
201903011757,15.52,15.523,15.52,15.521
201903011758,15.521,15.521,15.519,15.519
201903011759,15.519,15.519,15.516,15.516
201903011800,15.516,15.525,15.516,15.524
201903011801,15.523,15.524,15.52,15.524
201903011802,15.524,15.524,15.524,15.524
201903011803,15.524,15.524,15.522,15.523
201903011804,15.524,15.524,15.52,15.52
201903011805,15.52,15.524,15.52,15.524
201903011806,15.524,15.524,15.52,15.522
201903011807,15.522,15.522,15.515,15.515
201903011808,15.515,15.52,15.512,15.517
201903011809,15.516,15.516,15.509,15.51
201903011810,15.511,15.515,15.511,15.513
201903011811,15.513,15.515,15.513,15.514
201903011812,15.514,15.515,15.514,15.515
201903011813,15.515,15.515,15.511,15.511
201903011814,15.511,15.512,15.511,15.512
201903011815,15.512,15.517,15.512,15.517
201903011816,15.517,15.517,15.515,15.516
201903011817,15.516,15.52,15.515,15.516
201903011818,15.516,15.519,15.515,15.515
201903011819,15.515,15.516,15.514,15.515
201903011820,15.515,15.516,15.511,15.511
201903011821,15.511,15.516,15.51,15.513
201903011822,15.513,15.516,15.512,15.512
201903011823,15.512,15.512,15.51,15.512
201903011824,15.512,15.512,15.508,15.51
201903011825,15.51,15.511,15.509,15.51
201903011826,15.51,15.511,15.509,15.511
201903011827,15.511,15.511,15.507,15.511
201903011828,15.511,15.511,15.509,15.511
201903011829,15.511,15.511,15.51,15.51
201903011830,15.51,15.511,15.509,15.511
201903011831,15.51,15.511,15.509,15.511
201903011832,15.511,15.515,15.511,15.512
201903011833,15.512,15.515,15.511,15.515
201903011834,15.515,15.515,15.506,15.506
201903011835,15.506,15.509,15.505,15.506
201903011836,15.506,15.506,15.505,15.505
201903011837,15.505,15.51,15.501,15.51
201903011838,15.51,15.51,15.509,15.509
201903011839,15.509,15.511,15.509,15.51
201903011840,15.51,15.515,15.509,15.514
201903011841,15.514,15.516,15.514,15.516
201903011842,15.516,15.516,15.515,15.516
201903011843,15.516,15.516,15.513,15.513
201903011844,15.514,15.514,15.51,15.514
201903011845,15.514,15.514,15.508,15.508
201903011846,15.508,15.509,15.508,15.509
201903011847,15.509,15.51,15.509,15.51
201903011848,15.51,15.514,15.509,15.514
201903011849,15.514,15.514,15.513,15.514
201903011850,15.513,15.515,15.513,15.515
201903011851,15.515,15.518,15.514,15.515
201903011852,15.515,15.518,15.512,15.516
201903011853,15.516,15.518,15.51,15.514
201903011854,15.515,15.515,15.514,15.515
201903011855,15.515,15.515,15.514,15.515
201903011856,15.515,15.52,15.515,15.52
201903011857,15.52,15.524,15.516,15.516
201903011858,15.516,15.519,15.516,15.519
201903011859,15.519,15.526,15.518,15.526
201903011900,15.526,15.529,15.521,15.529
201903011901,15.53,15.532,15.526,15.526
201903011902,15.526,15.529,15.525,15.526
201903011903,15.526,15.526,15.524,15.524
201903011904,15.524,15.524,15.519,15.52
201903011905,15.52,15.524,15.519,15.52
201903011906,15.52,15.524,15.52,15.52
201903011907,15.52,15.524,15.52,15.524
201903011908,15.524,15.529,15.524,15.528
201903011909,15.528,15.531,15.528,15.531
201903011910,15.532,15.532,15.53,15.53
201903011911,15.53,15.534,15.53,15.534
201903011912,15.534,15.54,15.534,15.539
201903011913,15.539,15.54,15.539,15.539
201903011914,15.539,15.54,15.539,15.539
201903011915,15.536,15.54,15.535,15.54
201903011916,15.54,15.54,15.538,15.54
201903011917,15.54,15.54,15.538,15.54
201903011918,15.54,15.541,15.539,15.541
201903011919,15.541,15.55,15.54,15.55
201903011920,15.55,15.55,15.545,15.545
201903011921,15.545,15.55,15.545,15.549
201903011922,15.549,15.55,15.549,15.55
201903011923,15.55,15.561,15.55,15.56
201903011924,15.56,15.56,15.556,15.559
201903011925,15.559,15.559,15.558,15.559
201903011926,15.559,15.563,15.558,15.561
201903011927,15.561,15.561,15.556,15.556
201903011928,15.556,15.556,15.554,15.556
201903011929,15.556,15.558,15.555,15.558
201903011930,15.558,15.56,15.557,15.559
201903011931,15.559,15.56,15.555,15.556
201903011932,15.555,15.556,15.555,15.555
201903011933,15.555,15.555,15.551,15.555
201903011934,15.555,15.555,15.554,15.555
201903011935,15.555,15.559,15.555,15.555
201903011936,15.555,15.559,15.554,15.559
201903011937,15.559,15.559,15.555,15.555
201903011938,15.555,15.559,15.555,15.558
201903011939,15.558,15.558,15.551,15.554
201903011940,15.555,15.559,15.554,15.558
201903011941,15.558,15.558,15.555,15.558
201903011942,15.558,15.561,15.558,15.56
201903011943,15.56,15.56,15.555,15.555
201903011944,15.555,15.559,15.555,15.559
201903011945,15.559,15.56,15.558,15.558
201903011946,15.558,15.559,15.556,15.556
201903011947,15.556,15.556,15.553,15.553
201903011948,15.552,15.552,15.544,15.545
201903011949,15.545,15.545,15.541,15.543
201903011950,15.543,15.548,15.543,15.546
201903011951,15.546,15.547,15.543,15.543
201903011952,15.543,15.546,15.543,15.545
201903011953,15.545,15.549,15.545,15.548
201903011954,15.548,15.551,15.548,15.551
201903011955,15.551,15.553,15.549,15.553
201903011956,15.551,15.551,15.546,15.548
201903011957,15.548,15.549,15.548,15.549
201903011958,15.549,15.554,15.548,15.554
201903011959,15.553,15.555,15.553,15.555
201903012000,15.555,15.555,15.553,15.554
201903012001,15.554,15.559,15.554,15.559
201903012002,15.559,15.559,15.556,15.559
201903012003,15.559,15.559,15.555,15.556
201903012004,15.556,15.556,15.553,15.555
201903012005,15.555,15.555,15.554,15.555
201903012006,15.555,15.555,15.555,15.555
201903012007,15.555,15.555,15.555,15.555
201903012008,15.555,15.56,15.555,15.56
201903012009,15.56,15.56,15.558,15.559
201903012010,15.559,15.559,15.556,15.559
201903012011,15.558,15.559,15.557,15.557
201903012012,15.556,15.556,15.551,15.551
201903012013,15.551,15.553,15.551,15.552
201903012014,15.552,15.554,15.549,15.549
201903012015,15.549,15.549,15.546,15.546
201903012016,15.546,15.55,15.546,15.549
201903012017,15.549,15.55,15.548,15.55
201903012018,15.55,15.554,15.55,15.554
201903012019,15.554,15.555,15.552,15.555
201903012020,15.555,15.555,15.554,15.555
201903012021,15.555,15.555,15.555,15.555
201903012022,15.555,15.559,15.555,15.556
201903012023,15.556,15.56,15.556,15.559
201903012024,15.559,15.56,15.559,15.56
201903012025,15.56,15.56,15.559,15.56
201903012026,15.56,15.56,15.559,15.559
201903012027,15.559,15.559,15.554,15.554
201903012028,15.554,15.555,15.554,15.555
201903012029,15.553,15.555,15.553,15.555
201903012030,15.555,15.555,15.551,15.551
201903012031,15.551,15.551,15.55,15.55
201903012032,15.55,15.55,15.548,15.549
201903012033,15.549,15.55,15.545,15.545
201903012034,15.545,15.549,15.545,15.548
201903012035,15.548,15.548,15.544,15.544
201903012036,15.544,15.545,15.544,15.545
201903012037,15.545,15.549,15.544,15.549
201903012038,15.549,15.554,15.549,15.554
201903012039,15.554,15.555,15.553,15.554
201903012040,15.554,15.554,15.553,15.554
201903012041,15.554,15.554,15.55,15.55
201903012042,15.55,15.55,15.55,15.55
201903012043,15.55,15.551,15.55,15.55
201903012044,15.55,15.551,15.55,15.55
201903012045,15.55,15.554,15.55,15.554
201903012046,15.553,15.555,15.553,15.554
201903012047,15.554,15.555,15.554,15.554
201903012048,15.554,15.555,15.553,15.553
201903012049,15.553,15.554,15.553,15.553
201903012050,15.553,15.553,15.553,15.553
201903012051,15.553,15.554,15.553,15.554
201903012052,15.554,15.558,15.553,15.554
201903012053,15.554,15.555,15.553,15.555
201903012054,15.555,15.559,15.555,15.555
201903012055,15.555,15.556,15.551,15.551
201903012056,15.551,15.551,15.55,15.55
201903012057,15.55,15.55,15.549,15.55
201903012058,15.55,15.55,15.546,15.547
201903012059,15.547,15.547,15.545,15.545
201903012100,15.545,15.55,15.54,15.55
201903012101,15.549,15.55,15.545,15.545
201903012102,15.545,15.549,15.545,15.549
201903012103,15.549,15.55,15.548,15.55
201903012104,15.55,15.551,15.549,15.551
201903012105,15.551,15.555,15.55,15.55
201903012106,15.551,15.561,15.55,15.554
201903012107,15.554,15.554,15.549,15.55
201903012108,15.55,15.55,15.549,15.549
201903012109,15.549,15.55,15.546,15.547
201903012110,15.547,15.548,15.539,15.54
201903012111,15.54,15.54,15.537,15.539
201903012112,15.539,15.54,15.534,15.534
201903012113,15.534,15.543,15.53,15.543
201903012114,15.543,15.545,15.541,15.545
201903012115,15.545,15.548,15.544,15.548
201903012116,15.548,15.549,15.546,15.549
201903012117,15.549,15.554,15.549,15.55
201903012118,15.55,15.553,15.55,15.552
201903012119,15.552,15.553,15.55,15.55
201903012120,15.55,15.551,15.546,15.549
201903012121,15.549,15.549,15.545,15.545
201903012122,15.545,15.545,15.539,15.539
201903012123,15.54,15.543,15.54,15.542
201903012124,15.542,15.543,15.539,15.54
201903012125,15.54,15.543,15.54,15.543
201903012126,15.543,15.543,15.536,15.538
201903012127,15.538,15.539,15.536,15.538
201903012128,15.539,15.54,15.535,15.535
201903012129,15.535,15.537,15.533,15.533
201903012130,15.53,15.535,15.53,15.535
201903012131,15.535,15.538,15.535,15.537
201903012132,15.537,15.538,15.537,15.538
201903012133,15.538,15.538,15.537,15.538
201903012134,15.538,15.543,15.538,15.543
201903012135,15.544,15.545,15.539,15.539
201903012136,15.539,15.541,15.535,15.539
201903012137,15.539,15.539,15.534,15.534
201903012138,15.534,15.538,15.534,15.534
201903012139,15.534,15.538,15.534,15.536
201903012140,15.536,15.537,15.533,15.533
201903012141,15.532,15.533,15.524,15.526
201903012142,15.525,15.526,15.522,15.524
201903012143,15.524,15.53,15.524,15.525
201903012144,15.525,15.526,15.521,15.521
201903012145,15.521,15.524,15.509,15.511
201903012146,15.511,15.514,15.51,15.513
201903012147,15.513,15.519,15.513,15.519
201903012148,15.519,15.52,15.514,15.515
201903012149,15.515,15.515,15.511,15.511
201903012150,15.511,15.513,15.497,15.5
201903012151,15.5,15.506,15.5,15.504
201903012152,15.504,15.506,15.504,15.504
201903012153,15.504,15.505,15.5,15.5
201903012154,15.5,15.5,15.49,15.491
201903012155,15.491,15.495,15.489,15.495
201903012156,15.495,15.501,15.495,15.501
201903012157,15.501,15.505,15.501,15.502
201903012158,15.502,15.505,15.501,15.501
201903012159,15.501,15.501,15.496,15.496
201903012200,15.496,15.505,15.491,15.491
201903012201,15.491,15.504,15.49,15.504
201903012202,15.504,15.51,15.504,15.51
201903012203,15.51,15.525,15.51,15.521
201903012204,15.521,15.522,15.507,15.507
201903012205,15.508,15.521,15.508,15.52
201903012206,15.52,15.524,15.519,15.519
201903012207,15.519,15.52,15.516,15.519
201903012208,15.519,15.519,15.507,15.507
201903012209,15.507,15.51,15.505,15.51
201903012210,15.51,15.51,15.501,15.501
201903012211,15.501,15.509,15.497,15.497
201903012212,15.497,15.5,15.489,15.493
201903012213,15.493,15.498,15.493,15.497
201903012214,15.497,15.505,15.497,15.5
201903012215,15.501,15.503,15.496,15.501
201903012216,15.501,15.503,15.499,15.499
201903012217,15.499,15.499,15.494,15.496
201903012218,15.496,15.508,15.496,15.508
201903012219,15.508,15.509,15.505,15.508
201903012220,15.508,15.51,15.49,15.495
201903012221,15.495,15.503,15.49,15.49
201903012222,15.49,15.493,15.487,15.489
201903012223,15.489,15.498,15.489,15.498
201903012224,15.498,15.499,15.494,15.494
201903012225,15.494,15.495,15.489,15.493
201903012226,15.494,15.494,15.473,15.479
201903012227,15.479,15.481,15.475,15.475
201903012228,15.475,15.481,15.475,15.48
201903012229,15.481,15.489,15.479,15.486
201903012230,15.486,15.488,15.481,15.481
201903012231,15.481,15.485,15.48,15.484
201903012232,15.484,15.491,15.484,15.485
201903012233,15.485,15.486,15.481,15.486
201903012234,15.487,15.489,15.484,15.484
201903012235,15.484,15.485,15.48,15.484
201903012236,15.484,15.49,15.484,15.485
201903012237,15.485,15.486,15.484,15.484
201903012238,15.484,15.491,15.484,15.488
201903012239,15.488,15.489,15.48,15.483
201903012240,15.483,15.484,15.475,15.478
201903012241,15.477,15.477,15.47,15.47
201903012242,15.468,15.47,15.464,15.465
201903012243,15.465,15.465,15.457,15.458
201903012244,15.458,15.462,15.456,15.457
201903012245,15.456,15.462,15.455,15.455
201903012246,15.455,15.457,15.449,15.449
201903012247,15.449,15.455,15.448,15.455
201903012248,15.456,15.461,15.455,15.46
201903012249,15.46,15.462,15.455,15.462
201903012250,15.461,15.462,15.46,15.461
201903012251,15.461,15.463,15.461,15.462
201903012252,15.462,15.462,15.457,15.458
201903012253,15.458,15.461,15.457,15.46
201903012254,15.46,15.467,15.46,15.466
201903012255,15.466,15.467,15.465,15.466
201903012256,15.461,15.461,15.456,15.46
201903012257,15.46,15.461,15.456,15.461
201903012258,15.461,15.461,15.459,15.46
201903012259,15.46,15.462,15.457,15.462
201903012300,15.462,15.462,15.456,15.457
201903012301,15.457,15.462,15.456,15.46
201903012302,15.46,15.461,15.456,15.461
201903012303,15.462,15.467,15.462,15.466
201903012304,15.467,15.467,15.461,15.462
201903012305,15.462,15.466,15.461,15.463
201903012306,15.463,15.465,15.461,15.461
201903012307,15.461,15.462,15.446,15.446
201903012308,15.446,15.447,15.44,15.446
201903012309,15.446,15.448,15.445,15.448
201903012310,15.448,15.448,15.442,15.444
201903012311,15.445,15.451,15.445,15.448
201903012312,15.448,15.456,15.448,15.452
201903012313,15.452,15.457,15.452,15.452
201903012314,15.452,15.452,15.446,15.448
201903012315,15.448,15.452,15.446,15.446
201903012316,15.446,15.446,15.441,15.441
201903012317,15.441,15.442,15.43,15.431
201903012318,15.431,15.433,15.431,15.432
201903012319,15.431,15.431,15.426,15.427
201903012320,15.427,15.427,15.42,15.421
201903012321,15.421,15.421,15.42,15.421
201903012322,15.421,15.431,15.421,15.426
201903012323,15.426,15.43,15.426,15.426
201903012324,15.43,15.43,15.416,15.416
201903012325,15.416,15.417,15.411,15.416
201903012326,15.416,15.425,15.415,15.424
201903012327,15.422,15.425,15.421,15.424
201903012328,15.424,15.43,15.423,15.43
201903012329,15.431,15.442,15.43,15.442
201903012330,15.442,15.447,15.427,15.43
201903012331,15.43,15.438,15.427,15.432
201903012332,15.432,15.437,15.427,15.437
201903012333,15.437,15.437,15.423,15.426
201903012334,15.426,15.427,15.421,15.423
201903012335,15.423,15.431,15.421,15.426
201903012336,15.426,15.431,15.422,15.427
201903012337,15.427,15.439,15.426,15.439
201903012338,15.44,15.44,15.436,15.436
201903012339,15.436,15.437,15.432,15.436
201903012340,15.436,15.437,15.432,15.434
201903012341,15.434,15.435,15.431,15.432
201903012342,15.432,15.44,15.432,15.437
201903012343,15.437,15.44,15.436,15.44
201903012344,15.44,15.455,15.44,15.452
201903012345,15.452,15.455,15.447,15.448
201903012346,15.448,15.451,15.447,15.451
201903012347,15.451,15.451,15.446,15.448
201903012348,15.448,15.448,15.437,15.442
201903012349,15.442,15.446,15.442,15.444
201903012350,15.444,15.448,15.444,15.446
201903012351,15.446,15.452,15.443,15.449
201903012352,15.448,15.452,15.448,15.452
201903012353,15.452,15.453,15.448,15.45
201903012354,15.45,15.452,15.447,15.451
201903012355,15.451,15.453,15.448,15.448
201903012356,15.448,15.45,15.443,15.45
201903012357,15.45,15.453,15.448,15.451
201903012358,15.45,15.454,15.449,15.449
201903012359,15.45,15.454,15.448,15.454
201903020000,15.456,15.504,15.456,15.498
201903020001,15.498,15.503,15.485,15.485
201903020002,15.483,15.492,15.477,15.478
201903020003,15.478,15.487,15.477,15.477
201903020004,15.477,15.483,15.472,15.476
201903020005,15.476,15.478,15.472,15.476
201903020006,15.476,15.481,15.473,15.474
201903020007,15.473,15.481,15.471,15.481
201903020008,15.481,15.487,15.469,15.47
201903020009,15.47,15.475,15.468,15.472
201903020010,15.472,15.472,15.468,15.471
201903020011,15.47,15.472,15.467,15.47
201903020012,15.47,15.473,15.468,15.468
201903020013,15.468,15.476,15.467,15.472
201903020014,15.472,15.472,15.468,15.468
201903020015,15.468,15.469,15.462,15.462
201903020016,15.462,15.467,15.459,15.467
201903020017,15.467,15.468,15.463,15.466
201903020018,15.466,15.466,15.462,15.462
201903020019,15.462,15.466,15.461,15.462
201903020020,15.462,15.462,15.452,15.456
201903020021,15.456,15.46,15.456,15.458
201903020022,15.458,15.462,15.457,15.46
201903020023,15.46,15.462,15.458,15.462
201903020024,15.462,15.462,15.447,15.451
201903020025,15.451,15.456,15.449,15.455
201903020026,15.453,15.453,15.447,15.447
201903020027,15.447,15.447,15.428,15.431
201903020028,15.431,15.431,15.422,15.425
201903020029,15.424,15.429,15.423,15.429
201903020030,15.428,15.428,15.423,15.423
201903020031,15.423,15.423,15.391,15.392
201903020032,15.392,15.399,15.38,15.382
201903020033,15.382,15.393,15.378,15.393
201903020034,15.393,15.393,15.38,15.384
201903020035,15.384,15.384,15.379,15.38
201903020036,15.38,15.386,15.379,15.384
201903020037,15.384,15.391,15.384,15.39
201903020038,15.389,15.393,15.388,15.393
201903020039,15.393,15.393,15.38,15.38
201903020040,15.379,15.392,15.378,15.392
201903020041,15.392,15.393,15.389,15.392
201903020042,15.392,15.394,15.392,15.394
201903020043,15.394,15.4,15.388,15.388
201903020044,15.386,15.389,15.385,15.387
201903020045,15.387,15.387,15.382,15.384
201903020046,15.384,15.39,15.384,15.388
201903020047,15.388,15.388,15.383,15.388
201903020048,15.387,15.391,15.383,15.39
201903020049,15.391,15.392,15.382,15.385
201903020050,15.385,15.386,15.379,15.379
201903020051,15.379,15.381,15.377,15.38
201903020052,15.379,15.381,15.371,15.376
201903020053,15.376,15.381,15.376,15.38
201903020054,15.38,15.381,15.378,15.381
201903020055,15.381,15.381,15.373,15.373
201903020056,15.373,15.381,15.373,15.377
201903020057,15.377,15.377,15.373,15.375
201903020058,15.375,15.376,15.368,15.37
201903020059,15.37,15.373,15.366,15.372
201903020100,15.371,15.373,15.37,15.371
201903020101,15.371,15.371,15.363,15.365
201903020102,15.367,15.367,15.362,15.364
201903020103,15.367,15.368,15.363,15.363
201903020104,15.363,15.367,15.359,15.359
201903020105,15.358,15.37,15.357,15.37
201903020106,15.37,15.37,15.359,15.359
201903020107,15.359,15.359,15.348,15.352
201903020108,15.351,15.351,15.342,15.343
201903020109,15.343,15.345,15.339,15.343
201903020110,15.343,15.343,15.338,15.338
201903020111,15.338,15.339,15.326,15.328
201903020112,15.328,15.333,15.327,15.328
201903020113,15.329,15.337,15.328,15.337
201903020114,15.336,15.337,15.333,15.333
201903020115,15.333,15.343,15.328,15.342
201903020116,15.342,15.349,15.338,15.349
201903020117,15.348,15.349,15.343,15.343
201903020118,15.343,15.344,15.339,15.341
201903020119,15.341,15.351,15.34,15.351
201903020120,15.35,15.352,15.339,15.343
201903020121,15.343,15.343,15.334,15.339
201903020122,15.339,15.339,15.336,15.338
201903020123,15.338,15.338,15.332,15.333
201903020124,15.333,15.336,15.329,15.336
201903020125,15.336,15.336,15.332,15.332
201903020126,15.331,15.335,15.329,15.334
201903020127,15.334,15.334,15.33,15.332
201903020128,15.332,15.334,15.329,15.331
201903020129,15.331,15.334,15.33,15.332
201903020130,15.332,15.337,15.33,15.332
201903020131,15.332,15.333,15.33,15.332
201903020132,15.332,15.332,15.329,15.33
201903020133,15.33,15.343,15.328,15.339
201903020134,15.339,15.343,15.338,15.343
201903020135,15.343,15.348,15.343,15.344
201903020136,15.344,15.344,15.334,15.335
201903020137,15.335,15.339,15.335,15.338
201903020138,15.338,15.342,15.336,15.342
201903020139,15.342,15.342,15.34,15.34
201903020140,15.34,15.34,15.334,15.336
201903020141,15.336,15.34,15.335,15.338
201903020142,15.338,15.347,15.335,15.345
201903020143,15.345,15.346,15.34,15.345
201903020144,15.345,15.345,15.339,15.344
201903020145,15.344,15.344,15.334,15.335
201903020146,15.335,15.335,15.328,15.328
201903020147,15.328,15.329,15.319,15.324
201903020148,15.324,15.324,15.319,15.324
201903020149,15.324,15.324,15.32,15.32
201903020150,15.32,15.322,15.319,15.319
201903020151,15.319,15.32,15.315,15.319
201903020152,15.319,15.319,15.316,15.318
201903020153,15.318,15.318,15.313,15.315
201903020154,15.315,15.319,15.314,15.317
201903020155,15.317,15.317,15.315,15.316
201903020156,15.316,15.316,15.31,15.311
201903020157,15.311,15.316,15.311,15.312
201903020158,15.312,15.313,15.307,15.308
201903020159,15.307,15.308,15.301,15.302
201903020200,15.301,15.308,15.301,15.302
201903020201,15.302,15.302,15.295,15.295
201903020202,15.295,15.296,15.294,15.294
201903020203,15.295,15.295,15.289,15.29
201903020204,15.29,15.292,15.285,15.285
201903020205,15.285,15.286,15.275,15.275
201903020206,15.275,15.275,15.269,15.269
201903020207,15.269,15.281,15.267,15.274
201903020208,15.274,15.276,15.274,15.275
201903020209,15.274,15.274,15.25,15.258
201903020210,15.257,15.261,15.255,15.26
201903020211,15.26,15.26,15.251,15.251
201903020212,15.251,15.252,15.248,15.249
201903020213,15.249,15.249,15.234,15.244
201903020214,15.244,15.25,15.235,15.241
201903020215,15.241,15.247,15.23,15.231
201903020216,15.231,15.235,15.215,15.224
201903020217,15.224,15.24,15.222,15.238
201903020218,15.238,15.254,15.237,15.254
201903020219,15.254,15.256,15.252,15.256
201903020220,15.256,15.265,15.256,15.264
201903020221,15.265,15.266,15.258,15.265
201903020222,15.265,15.269,15.263,15.265
201903020223,15.265,15.266,15.264,15.264
201903020224,15.264,15.265,15.26,15.264
201903020225,15.264,15.269,15.263,15.264
201903020226,15.264,15.264,15.254,15.254
201903020227,15.253,15.258,15.253,15.258
201903020228,15.258,15.263,15.258,15.259
201903020229,15.259,15.259,15.253,15.253
201903020230,15.253,15.264,15.253,15.264
201903020231,15.264,15.268,15.259,15.26
201903020232,15.26,15.26,15.26,15.26
201903020233,15.26,15.26,15.254,15.254
201903020234,15.254,15.254,15.249,15.253
201903020235,15.253,15.255,15.249,15.253
201903020236,15.253,15.257,15.248,15.249
201903020237,15.249,15.252,15.247,15.247
201903020238,15.247,15.249,15.246,15.248
201903020239,15.248,15.248,15.244,15.244
201903020240,15.244,15.244,15.238,15.239
201903020241,15.239,15.239,15.234,15.235
201903020242,15.235,15.243,15.234,15.239
201903020243,15.239,15.239,15.234,15.238
201903020244,15.238,15.238,15.231,15.234
201903020245,15.234,15.239,15.233,15.239
201903020246,15.239,15.239,15.233,15.239
201903020247,15.239,15.239,15.235,15.239
201903020248,15.239,15.239,15.235,15.237
201903020249,15.238,15.238,15.229,15.234
201903020250,15.234,15.238,15.232,15.234
201903020251,15.234,15.236,15.234,15.235
201903020252,15.235,15.235,15.23,15.23
201903020253,15.23,15.23,15.226,15.23
201903020254,15.23,15.23,15.226,15.226
201903020255,15.226,15.227,15.224,15.224
201903020256,15.224,15.229,15.223,15.229
201903020257,15.229,15.229,15.224,15.225
201903020258,15.225,15.229,15.219,15.222
201903020259,15.221,15.223,15.216,15.217
201903020300,15.217,15.221,15.211,15.212
201903020301,15.212,15.221,15.212,15.221
201903020302,15.221,15.226,15.221,15.222
201903020303,15.222,15.222,15.218,15.221
201903020304,15.221,15.222,15.218,15.218
201903020305,15.218,15.222,15.218,15.221
201903020306,15.221,15.222,15.218,15.221
201903020307,15.221,15.221,15.217,15.221
201903020308,15.221,15.221,15.211,15.211
201903020309,15.211,15.216,15.208,15.21
201903020310,15.21,15.212,15.206,15.211
201903020311,15.211,15.216,15.211,15.213
201903020312,15.214,15.217,15.214,15.216
201903020313,15.217,15.231,15.216,15.23
201903020314,15.23,15.245,15.229,15.242
201903020315,15.243,15.245,15.24,15.244
201903020316,15.244,15.252,15.242,15.252
201903020317,15.252,15.255,15.246,15.246
201903020318,15.246,15.251,15.245,15.25
201903020319,15.25,15.251,15.247,15.249
201903020320,15.25,15.255,15.247,15.25
201903020321,15.25,15.251,15.237,15.237
201903020322,15.237,15.237,15.23,15.23
201903020323,15.23,15.236,15.224,15.224
201903020324,15.224,15.23,15.221,15.23
201903020325,15.229,15.237,15.227,15.227
201903020326,15.227,15.231,15.226,15.228
201903020327,15.227,15.23,15.223,15.23
201903020328,15.23,15.232,15.225,15.226
201903020329,15.227,15.231,15.226,15.226
201903020330,15.226,15.23,15.226,15.227
201903020331,15.226,15.226,15.22,15.221
201903020332,15.221,15.221,15.217,15.217
201903020333,15.217,15.221,15.212,15.214
201903020334,15.215,15.226,15.215,15.225
201903020335,15.225,15.235,15.224,15.235
201903020336,15.235,15.24,15.235,15.237
201903020337,15.237,15.237,15.232,15.232
201903020338,15.232,15.232,15.227,15.227
201903020339,15.227,15.227,15.217,15.218
201903020340,15.219,15.221,15.217,15.22
201903020341,15.22,15.226,15.219,15.221
201903020342,15.221,15.221,15.216,15.217
201903020343,15.217,15.218,15.216,15.216
201903020344,15.216,15.217,15.213,15.215
201903020345,15.215,15.226,15.215,15.226
201903020346,15.226,15.236,15.226,15.236
201903020347,15.236,15.241,15.236,15.238
201903020348,15.238,15.245,15.238,15.242
201903020349,15.241,15.242,15.238,15.242
201903020350,15.242,15.242,15.24,15.24
201903020351,15.24,15.241,15.237,15.238
201903020352,15.238,15.24,15.236,15.237
201903020353,15.237,15.237,15.235,15.237
201903020354,15.237,15.241,15.237,15.241
201903020355,15.241,15.242,15.24,15.241
201903020356,15.241,15.242,15.238,15.242
201903020357,15.242,15.243,15.239,15.239
201903020358,15.239,15.242,15.239,15.239
201903020359,15.239,15.239,15.236,15.237
201903020400,15.237,15.241,15.236,15.241
201903020401,15.241,15.242,15.233,15.233
201903020402,15.233,15.233,15.223,15.223
201903020403,15.223,15.226,15.223,15.223
201903020404,15.223,15.223,15.218,15.218
201903020405,15.218,15.218,15.216,15.217
201903020406,15.217,15.218,15.213,15.213
201903020407,15.212,15.213,15.212,15.213
201903020408,15.213,15.217,15.212,15.214
201903020409,15.214,15.214,15.205,15.207
201903020410,15.207,15.207,15.202,15.202
201903020411,15.202,15.209,15.202,15.203
201903020412,15.203,15.204,15.201,15.203
201903020413,15.203,15.204,15.19,15.193
201903020414,15.193,15.199,15.193,15.198
201903020415,15.198,15.203,15.19,15.19
201903020416,15.189,15.189,15.183,15.184
201903020417,15.184,15.195,15.184,15.195
201903020418,15.195,15.201,15.192,15.192
201903020419,15.194,15.195,15.187,15.19
201903020420,15.19,15.202,15.19,15.197
201903020421,15.197,15.201,15.191,15.191
201903020422,15.191,15.191,15.186,15.186
201903020423,15.186,15.19,15.186,15.189
201903020424,15.189,15.192,15.186,15.19
201903020425,15.19,15.195,15.189,15.195
201903020426,15.195,15.197,15.194,15.195
201903020427,15.195,15.201,15.195,15.197
201903020428,15.196,15.2,15.196,15.2
201903020429,15.2,15.202,15.2,15.2
201903020430,15.2,15.202,15.196,15.196
201903020431,15.196,15.2,15.195,15.2
201903020432,15.2,15.202,15.2,15.2
201903020433,15.2,15.201,15.2,15.2
201903020434,15.2,15.201,15.2,15.2
201903020435,15.201,15.217,15.2,15.215
201903020436,15.216,15.216,15.211,15.212
201903020437,15.212,15.213,15.21,15.21
201903020438,15.21,15.215,15.21,15.214
201903020439,15.214,15.215,15.214,15.215
201903020440,15.215,15.221,15.214,15.22
201903020441,15.22,15.224,15.219,15.219
201903020442,15.219,15.221,15.219,15.219
201903020443,15.219,15.221,15.218,15.219
201903020444,15.218,15.22,15.218,15.219
201903020445,15.219,15.22,15.216,15.22
201903020446,15.22,15.22,15.216,15.216
201903020447,15.217,15.218,15.216,15.216
201903020448,15.216,15.216,15.21,15.21
201903020449,15.209,15.209,15.205,15.205
201903020450,15.206,15.21,15.205,15.21
201903020451,15.21,15.212,15.209,15.21
201903020452,15.21,15.21,15.205,15.205
201903020453,15.206,15.206,15.205,15.205
201903020454,15.205,15.206,15.2,15.2
201903020455,15.2,15.201,15.198,15.198
201903020456,15.198,15.199,15.194,15.194
201903020457,15.194,15.199,15.193,15.195
201903020458,15.195,15.196,15.195,15.196
201903020459,15.196,15.205,15.195,15.2
201903020500,15.2,15.2,15.192,15.194
201903020501,15.194,15.197,15.194,15.194
201903020502,15.194,15.195,15.189,15.19
201903020503,15.19,15.194,15.189,15.191
201903020504,15.191,15.195,15.19,15.194
201903020505,15.194,15.194,15.191,15.192
201903020506,15.191,15.196,15.191,15.196
201903020507,15.196,15.2,15.196,15.2
201903020508,15.2,15.201,15.199,15.2
201903020509,15.2,15.2,15.196,15.199
201903020510,15.199,15.199,15.195,15.195
201903020511,15.195,15.195,15.186,15.186
201903020512,15.186,15.19,15.185,15.188
201903020513,15.188,15.189,15.184,15.184
201903020514,15.184,15.189,15.184,15.189
201903020515,15.189,15.189,15.184,15.184
201903020516,15.184,15.186,15.184,15.185
201903020517,15.185,15.186,15.184,15.185
201903020518,15.185,15.186,15.18,15.181
201903020519,15.181,15.184,15.18,15.184
201903020520,15.184,15.186,15.182,15.186
201903020521,15.185,15.191,15.185,15.191
201903020522,15.191,15.192,15.19,15.192
201903020523,15.192,15.192,15.185,15.185
201903020524,15.185,15.19,15.185,15.19
201903020525,15.191,15.191,15.186,15.189
201903020526,15.188,15.188,15.185,15.185
201903020527,15.185,15.191,15.185,15.19
201903020528,15.19,15.19,15.185,15.189
201903020529,15.189,15.189,15.184,15.184
201903020530,15.184,15.185,15.183,15.184
201903020531,15.184,15.184,15.183,15.184
201903020532,15.184,15.185,15.184,15.185
201903020533,15.185,15.185,15.183,15.184
201903020534,15.184,15.185,15.184,15.184
201903020535,15.184,15.185,15.183,15.184
201903020536,15.184,15.185,15.184,15.184
201903020537,15.184,15.184,15.184,15.184
201903020538,15.184,15.184,15.184,15.184
201903020539,15.184,15.19,15.183,15.189
201903020540,15.189,15.19,15.189,15.189
201903020541,15.19,15.19,15.184,15.184
201903020542,15.183,15.185,15.181,15.185
201903020543,15.185,15.185,15.181,15.184
201903020544,15.181,15.184,15.179,15.18
201903020545,15.18,15.186,15.18,15.186
201903020546,15.189,15.189,15.171,15.171
201903020547,15.171,15.171,15.163,15.163
201903020548,15.163,15.165,15.16,15.16
201903020549,15.16,15.161,15.159,15.159
201903020550,15.16,15.165,15.16,15.163
201903020551,15.163,15.163,15.159,15.16
201903020552,15.16,15.164,15.159,15.16
201903020553,15.16,15.161,15.15,15.15
201903020554,15.15,15.15,15.144,15.145
201903020555,15.145,15.145,15.142,15.143
201903020556,15.143,15.145,15.143,15.143
201903020557,15.143,15.144,15.141,15.141
201903020558,15.141,15.143,15.14,15.14
201903020559,15.141,15.142,15.14,15.142
201903020600,15.142,15.159,15.142,15.155
201903020601,15.155,15.157,15.154,15.155
201903020602,15.154,15.162,15.154,15.155
201903020603,15.155,15.16,15.155,15.16
201903020604,15.16,15.161,15.155,15.155
201903020605,15.155,15.155,15.155,15.155
201903020606,15.155,15.158,15.155,15.157
201903020607,15.157,15.157,15.153,15.153
201903020608,15.153,15.157,15.153,15.156
201903020609,15.156,15.157,15.155,15.155
201903020610,15.155,15.156,15.155,15.156
201903020611,15.156,15.156,15.155,15.156
201903020612,15.156,15.157,15.156,15.156
201903020613,15.156,15.156,15.151,15.153
201903020614,15.153,15.154,15.151,15.154
201903020615,15.154,15.154,15.153,15.153
201903020616,15.153,15.153,15.151,15.151
201903020617,15.151,15.152,15.15,15.15
201903020618,15.15,15.154,15.15,15.151
201903020619,15.151,15.151,15.15,15.151
201903020620,15.151,15.156,15.151,15.156
201903020621,15.156,15.161,15.155,15.16
201903020622,15.16,15.163,15.16,15.162
201903020623,15.162,15.167,15.162,15.167
201903020624,15.167,15.168,15.167,15.168
201903020625,15.168,15.173,15.167,15.172
201903020626,15.172,15.178,15.172,15.178
201903020627,15.178,15.178,15.175,15.176
201903020628,15.176,15.187,15.176,15.187
201903020629,15.187,15.187,15.182,15.185
201903020630,15.185,15.187,15.182,15.186
201903020631,15.186,15.186,15.186,15.186
201903020632,15.186,15.188,15.185,15.185
201903020633,15.185,15.19,15.185,15.185
201903020634,15.185,15.19,15.185,15.19
201903020635,15.19,15.19,15.19,15.19
201903020636,15.19,15.19,15.19,15.19
201903020637,15.19,15.191,15.19,15.191
201903020638,15.191,15.191,15.191,15.191
201903020639,15.191,15.194,15.19,15.193
201903020640,15.193,15.194,15.19,15.193
201903020641,15.193,15.194,15.193,15.193
201903020642,15.193,15.195,15.193,15.195
201903020643,15.195,15.197,15.194,15.195
201903020644,15.195,15.195,15.194,15.195
201903020645,15.195,15.196,15.194,15.195
201903020646,15.195,15.196,15.195,15.196
201903020647,15.196,15.196,15.195,15.196
201903020648,15.196,15.196,15.194,15.196
201903020649,15.196,15.196,15.194,15.196
201903020650,15.196,15.2,15.192,15.2
201903020651,15.2,15.207,15.2,15.207
201903020652,15.207,15.207,15.206,15.207
201903020653,15.207,15.209,15.207,15.208
201903020654,15.208,15.212,15.207,15.207
201903020655,15.207,15.207,15.198,15.202
201903020656,15.202,15.211,15.2,15.209
201903020657,15.209,15.211,15.206,15.211
201903020658,15.21,15.213,15.21,15.211
201903020659,15.211,15.222,15.204,15.222
