日時,始値(BID),高値(BID),安値(BID),終値(BID)
201910110700,1494,1495.1,1493.9,1494.5
201910110701,1494.5,1495.3,1494.5,1495.3
201910110702,1495.2,1495.2,1494.6,1494.9
201910110703,1494.9,1495.3,1494.8,1495.1
201910110704,1495.1,1495.1,1494.7,1494.7
201910110705,1494.7,1495.2,1494.6,1495.1
201910110706,1495.2,1495.3,1495.1,1495.2
201910110707,1495.2,1495.2,1495,1495
201910110708,1495,1495.1,1494.6,1494.8
201910110709,1494.8,1494.8,1494.5,1494.5
201910110710,1494.5,1494.5,1494.4,1494.4
201910110711,1494.4,1494.6,1494.4,1494.6
201910110712,1494.7,1494.7,1494.5,1494.5
201910110713,1494.5,1494.6,1494.2,1494.3
201910110714,1494.3,1494.4,1494.2,1494.3
201910110715,1494.3,1494.3,1494.1,1494.2
201910110716,1494.2,1494.2,1494.1,1494.1
201910110717,1494.1,1494.2,1494,1494.1
201910110718,1494.1,1494.2,1494.1,1494.2
201910110719,1494.2,1494.5,1494.2,1494.5
201910110720,1494.5,1494.6,1494.4,1494.6
201910110721,1494.6,1494.7,1494.5,1494.6
201910110722,1494.6,1494.7,1494.6,1494.6
201910110723,1494.6,1494.6,1494.4,1494.4
201910110724,1494.4,1494.6,1494.3,1494.5
201910110725,1494.5,1494.5,1494.2,1494.2
201910110726,1494.2,1494.2,1494.1,1494.1
201910110727,1494.1,1494.2,1494,1494.2
201910110728,1494.2,1494.4,1494.2,1494.4
201910110729,1494.4,1494.5,1494.2,1494.3
201910110730,1494.3,1494.3,1493.6,1493.7
201910110731,1493.7,1493.8,1493.7,1493.7
201910110732,1493.7,1493.7,1493.3,1493.3
201910110733,1493.3,1493.3,1492.8,1492.8
201910110734,1492.9,1493.2,1492.8,1492.9
201910110735,1492.9,1493,1492.6,1492.8
201910110736,1492.8,1492.9,1492.6,1492.6
201910110737,1492.6,1493,1492.6,1492.8
201910110738,1492.8,1493.1,1492.7,1492.8
201910110739,1492.8,1492.8,1492.3,1492.4
201910110740,1492.4,1492.5,1492.3,1492.4
201910110741,1492.4,1492.7,1492.4,1492.7
201910110742,1492.7,1492.7,1492.5,1492.6
201910110743,1492.6,1492.8,1492.5,1492.7
201910110744,1492.7,1492.9,1492.7,1492.9
201910110745,1492.8,1493,1492.8,1493
201910110746,1493,1493.2,1493,1493.1
201910110747,1493.1,1493.1,1493,1493.1
201910110748,1493.1,1493.1,1492.8,1492.8
201910110749,1492.8,1493,1492.8,1492.9
201910110750,1492.9,1493.1,1492.9,1493.1
201910110751,1493.1,1493.2,1493,1493.1
201910110752,1493.1,1493.1,1492.5,1493.1
201910110753,1493.1,1493.4,1493,1493.4
201910110754,1493.4,1493.5,1493.3,1493.4
201910110755,1493.4,1493.5,1493.2,1493.2
201910110756,1493.2,1493.4,1493.2,1493.4
201910110757,1493.4,1493.4,1493.3,1493.3
201910110758,1493.3,1493.3,1491,1491.6
201910110759,1491.6,1493.1,1491.5,1493.1
201910110800,1493.1,1493.5,1493.1,1493.5
201910110801,1493.5,1493.6,1493.1,1493.3
201910110802,1493.3,1493.3,1493.1,1493.2
201910110803,1493.1,1493.4,1493.1,1493.2
201910110804,1493.2,1493.5,1493,1493.3
201910110805,1493.3,1493.3,1493,1493.1
201910110806,1493.1,1493.4,1493,1493.1
201910110807,1493.1,1493.1,1492.9,1492.9
201910110808,1492.9,1493,1492.9,1493
201910110809,1493,1493.5,1493,1493.5
201910110810,1493.4,1493.4,1493.2,1493.3
201910110811,1493.3,1493.4,1493,1493.1
201910110812,1493.1,1493.2,1493.1,1493.2
201910110813,1493.2,1493.3,1493.2,1493.3
201910110814,1493.2,1493.3,1493,1493
201910110815,1493,1493.2,1493,1493.1
201910110816,1493.1,1493.1,1492.8,1492.8
201910110817,1492.8,1492.8,1492.7,1492.7
201910110818,1492.7,1492.8,1492.6,1492.7
201910110819,1492.7,1492.8,1492.7,1492.7
201910110820,1492.7,1493,1492.7,1493
201910110821,1493,1493.2,1493,1493.2
201910110822,1493.2,1493.3,1493.1,1493.2
201910110823,1493.2,1493.3,1493.1,1493.1
201910110824,1493.1,1493.4,1493.1,1493.3
201910110825,1493.3,1493.5,1493.3,1493.5
201910110826,1493.5,1493.5,1493.1,1493.2
201910110827,1493.2,1493.2,1493,1493.1
201910110828,1493.1,1493.3,1493.1,1493.3
201910110829,1493.3,1493.4,1493.2,1493.3
201910110830,1493.4,1493.9,1493.4,1493.6
201910110831,1493.6,1493.9,1493.6,1493.6
201910110832,1493.6,1493.8,1493.6,1493.6
201910110833,1493.6,1493.7,1493.6,1493.6
201910110834,1493.6,1493.7,1493.6,1493.6
201910110835,1493.7,1494,1493.7,1493.8
201910110836,1493.8,1494,1493.8,1493.8
201910110837,1493.8,1494,1493.8,1493.9
201910110838,1493.9,1494,1493.9,1494
201910110839,1494,1494,1493.9,1494
201910110840,1494,1494,1493.8,1493.8
201910110841,1493.8,1493.8,1493.5,1493.5
201910110842,1493.5,1493.6,1493.4,1493.4
201910110843,1493.4,1493.5,1493.4,1493.5
201910110844,1493.5,1493.6,1493.5,1493.6
201910110845,1493.6,1494,1493.6,1493.7
201910110846,1493.6,1494,1493.6,1493.9
201910110847,1493.9,1494,1493.8,1493.9
201910110848,1493.9,1494.2,1493.9,1494.1
201910110849,1494.1,1494.1,1493.9,1494
201910110850,1494,1494.1,1493.9,1493.9
201910110851,1493.9,1494.2,1493.9,1494.2
201910110852,1494.2,1494.2,1493.9,1493.9
201910110853,1493.9,1493.9,1493.8,1493.8
201910110854,1493.8,1494,1493.8,1494
201910110855,1494,1494.2,1493.9,1494
201910110856,1494,1494,1494,1494
201910110857,1494,1494,1493.7,1493.9
201910110858,1493.9,1493.9,1493.9,1493.9
201910110859,1493.9,1494,1493.8,1494
201910110900,1494,1494.4,1493.8,1493.8
201910110901,1493.8,1493.8,1493.4,1493.7
201910110902,1493.7,1494.1,1493.7,1494
201910110903,1494,1494.3,1493.9,1494.2
201910110904,1494.2,1494.4,1494.2,1494.3
201910110905,1494.3,1494.3,1493.8,1494.2
201910110906,1494.2,1494.5,1494.1,1494.5
201910110907,1494.5,1494.5,1494.3,1494.3
201910110908,1494.3,1494.5,1494.3,1494.4
201910110909,1494.4,1494.8,1494.3,1494.7
201910110910,1494.7,1494.7,1494.4,1494.4
201910110911,1494.4,1494.5,1494.2,1494.4
201910110912,1494.4,1494.4,1494.2,1494.2
201910110913,1494.2,1494.2,1494.1,1494.1
201910110914,1494.1,1494.2,1493.9,1493.9
201910110915,1493.9,1494,1493.7,1493.8
201910110916,1493.8,1494,1493.8,1493.9
201910110917,1493.9,1494,1493.9,1494
201910110918,1494,1494,1493.8,1493.8
201910110919,1493.8,1494.1,1493.8,1494
201910110920,1494,1494.1,1493.9,1494
201910110921,1494,1494.3,1493.9,1494.2
201910110922,1494.2,1494.2,1494,1494.1
201910110923,1494.1,1494.2,1493.9,1493.9
201910110924,1493.9,1494.1,1493.9,1494
201910110925,1494,1494,1493.9,1494
201910110926,1494,1494,1494,1494
201910110927,1494,1494.1,1493.8,1494
201910110928,1494,1494.2,1494,1494.1
201910110929,1494.1,1494.2,1494.1,1494.1
201910110930,1494.1,1494.3,1494,1494.2
201910110931,1494.2,1494.3,1493.9,1494.3
201910110932,1494.4,1494.4,1494.2,1494.4
201910110933,1494.4,1494.6,1494.4,1494.5
201910110934,1494.5,1494.6,1494.5,1494.5
201910110935,1494.6,1494.6,1494.4,1494.5
201910110936,1494.5,1494.6,1494.4,1494.6
201910110937,1494.6,1494.9,1494.6,1494.9
201910110938,1494.9,1494.9,1494.6,1494.6
201910110939,1494.6,1494.8,1494.5,1494.7
201910110940,1494.7,1494.7,1494.1,1494.2
201910110941,1494.2,1494.2,1493.6,1493.7
201910110942,1493.7,1493.7,1493,1493.4
201910110943,1493.4,1493.7,1493.4,1493.7
201910110944,1493.7,1493.8,1493.4,1493.6
201910110945,1493.6,1493.8,1493.5,1493.6
201910110946,1493.6,1493.8,1493.5,1493.6
201910110947,1493.6,1493.7,1493.4,1493.4
201910110948,1493.4,1493.7,1493.4,1493.5
201910110949,1493.5,1493.8,1493.5,1493.8
201910110950,1493.8,1493.8,1492.1,1492.6
201910110951,1492.6,1492.7,1492,1492.3
201910110952,1492.3,1492.6,1492.1,1492.4
201910110953,1492.3,1492.3,1491.8,1492
201910110954,1492,1492,1491.6,1491.8
201910110955,1491.8,1491.8,1491.2,1491.4
201910110956,1491.4,1491.5,1490.7,1491.4
201910110957,1491.4,1491.7,1491.3,1491.5
201910110958,1491.5,1491.7,1491,1491.3
201910110959,1491.3,1491.3,1490.8,1491
201910111000,1491,1493.2,1491,1493.1
201910111001,1493,1493.3,1492.7,1492.9
201910111002,1492.9,1493.3,1492.8,1493.2
201910111003,1493.2,1493.3,1492.9,1493.3
201910111004,1493.3,1493.4,1493,1493.3
201910111005,1493.3,1493.3,1492.8,1492.9
201910111006,1492.9,1493,1492.6,1492.6
201910111007,1492.6,1493,1492.5,1492.7
201910111008,1492.7,1493.2,1492.6,1493
201910111009,1493,1493.1,1492.8,1492.9
201910111010,1492.9,1493,1492.6,1492.8
201910111011,1492.8,1493.7,1492.8,1493.5
201910111012,1493.5,1494.8,1493.5,1494.7
201910111013,1494.6,1494.9,1494.2,1494.9
201910111014,1494.8,1494.8,1494.3,1494.5
201910111015,1494.5,1494.5,1494.2,1494.4
201910111016,1494.4,1494.5,1494.2,1494.3
201910111017,1494.3,1494.5,1494.1,1494.4
201910111018,1494.4,1494.5,1494.2,1494.3
201910111019,1494.3,1494.5,1494,1494.2
201910111020,1494.2,1494.2,1494,1494.2
201910111021,1494.2,1494.6,1494.1,1494.4
201910111022,1494.4,1494.7,1494.3,1494.6
201910111023,1494.6,1495,1494.6,1494.8
201910111024,1494.7,1495,1494.6,1494.8
201910111025,1494.8,1494.8,1494.6,1494.7
201910111026,1494.8,1495.7,1494.7,1495.5
201910111027,1495.5,1495.6,1495.4,1495.5
201910111028,1495.5,1496,1495.4,1495.8
201910111029,1495.8,1496,1495.7,1495.8
201910111030,1495.8,1496.3,1495.8,1496
201910111031,1496,1496,1495.5,1495.6
201910111032,1495.6,1495.9,1495.5,1495.8
201910111033,1495.8,1495.9,1495.5,1495.6
201910111034,1495.6,1496,1495.4,1496
201910111035,1496,1496.3,1495.9,1496.1
201910111036,1496.1,1496.3,1495.8,1496.3
201910111037,1496.3,1496.5,1496.3,1496.5
201910111038,1496.5,1496.5,1496.2,1496.3
201910111039,1496.4,1496.8,1496.3,1496.6
201910111040,1496.6,1496.7,1496.5,1496.6
201910111041,1496.6,1496.7,1496.4,1496.5
201910111042,1496.5,1496.7,1496.4,1496.5
201910111043,1496.5,1496.5,1496.5,1496.5
201910111044,1496.5,1496.6,1496.5,1496.6
201910111045,1496.6,1496.6,1496.1,1496.4
201910111046,1496.4,1496.5,1496.2,1496.2
201910111047,1496.2,1496.2,1495.8,1495.8
201910111048,1495.8,1495.8,1495.3,1495.7
201910111049,1495.7,1495.8,1495.1,1495.5
201910111050,1495.5,1495.8,1495.5,1495.8
201910111051,1495.8,1495.8,1495.5,1495.7
201910111052,1495.7,1495.8,1495.6,1495.7
201910111053,1495.7,1495.7,1495.6,1495.6
201910111054,1495.6,1495.9,1495.5,1495.9
201910111055,1495.9,1495.9,1495.8,1495.8
201910111056,1495.7,1496.1,1495.7,1495.9
201910111057,1495.9,1496,1495.8,1495.8
201910111058,1495.8,1496,1495.8,1495.9
201910111059,1495.9,1495.9,1495.6,1495.6
201910111100,1495.6,1495.6,1495.4,1495.6
201910111101,1495.6,1495.7,1495.5,1495.7
201910111102,1495.7,1495.7,1495.6,1495.7
201910111103,1495.7,1495.7,1495.5,1495.5
201910111104,1495.5,1495.5,1495.1,1495.2
201910111105,1495.2,1495.3,1495.1,1495.2
201910111106,1495.1,1495.3,1495.1,1495.3
201910111107,1495.3,1495.3,1495.2,1495.2
201910111108,1495.2,1495.2,1495.1,1495.2
201910111109,1495.2,1495.3,1495.1,1495.2
201910111110,1495.3,1495.6,1495.2,1495.6
201910111111,1495.6,1495.6,1495.2,1495.5
201910111112,1495.5,1495.7,1495.4,1495.7
201910111113,1495.7,1495.8,1495.6,1495.7
201910111114,1495.7,1495.7,1495.5,1495.6
201910111115,1495.6,1495.7,1495.5,1495.7
201910111116,1495.7,1495.9,1495.7,1495.9
201910111117,1495.9,1495.9,1495.7,1495.7
201910111118,1495.7,1495.9,1495.6,1495.7
201910111119,1495.7,1495.9,1495.6,1495.9
201910111120,1495.9,1495.9,1495.6,1495.6
201910111121,1495.6,1495.6,1495.6,1495.6
201910111122,1495.6,1495.6,1495.5,1495.5
201910111123,1495.5,1495.6,1495.4,1495.6
201910111124,1495.6,1495.7,1495.5,1495.6
201910111125,1495.6,1495.7,1495.5,1495.5
201910111126,1495.5,1495.5,1495.4,1495.5
201910111127,1495.5,1495.6,1495.5,1495.5
201910111128,1495.5,1495.6,1495.5,1495.6
201910111129,1495.5,1495.6,1495.4,1495.5
201910111130,1495.5,1495.6,1495.5,1495.6
201910111131,1495.6,1495.8,1495.6,1495.7
201910111132,1495.7,1495.7,1495.5,1495.5
201910111133,1495.5,1495.5,1495.4,1495.5
201910111134,1495.5,1495.5,1495.4,1495.4
201910111135,1495.4,1495.5,1495.4,1495.4
201910111136,1495.4,1495.4,1495.4,1495.4
201910111137,1495.4,1495.7,1495.4,1495.6
201910111138,1495.6,1495.7,1495.6,1495.6
201910111139,1495.6,1495.7,1495.6,1495.6
201910111140,1495.6,1495.7,1495.5,1495.5
201910111141,1495.5,1495.7,1495.5,1495.6
201910111142,1495.6,1495.7,1495.6,1495.7
201910111143,1495.7,1495.7,1495.7,1495.7
201910111144,1495.7,1495.7,1495.6,1495.6
201910111145,1495.6,1496.3,1495.6,1496.2
201910111146,1496.2,1496.5,1496.1,1496.4
201910111147,1496.4,1496.4,1496.1,1496.2
201910111148,1496.2,1496.4,1496.2,1496.4
201910111149,1496.4,1496.5,1496.3,1496.4
201910111150,1496.4,1496.5,1496.3,1496.4
201910111151,1496.4,1496.4,1496.2,1496.3
201910111152,1496.2,1496.7,1496.2,1496.6
201910111153,1496.6,1497,1496.6,1496.9
201910111154,1497,1497.1,1496.9,1496.9
201910111155,1496.9,1496.9,1496.6,1496.7
201910111156,1496.7,1496.8,1496.7,1496.7
201910111157,1496.7,1496.7,1496.6,1496.6
201910111158,1496.6,1496.7,1496.4,1496.4
201910111159,1496.4,1496.5,1496.4,1496.4
201910111200,1496.4,1496.5,1496.3,1496.3
201910111201,1496.3,1496.4,1496.3,1496.4
201910111202,1496.4,1496.5,1496.4,1496.4
201910111203,1496.4,1496.5,1496.2,1496.3
201910111204,1496.3,1496.4,1496.2,1496.2
201910111205,1496.2,1496.4,1496.1,1496.4
201910111206,1496.4,1496.4,1496.2,1496.2
201910111207,1496.2,1496.2,1496.1,1496.1
201910111208,1496.1,1496.2,1496.1,1496.1
201910111209,1496.1,1496.2,1496,1496
201910111210,1496,1496,1495.9,1495.9
201910111211,1495.9,1495.9,1495.9,1495.9
201910111212,1495.9,1496.1,1495.8,1496.1
201910111213,1496.1,1496.2,1496.1,1496.1
201910111214,1496.1,1496.3,1496,1496.1
201910111215,1496.1,1496.1,1496,1496.1
201910111216,1496.1,1496.2,1495.9,1496
201910111217,1496,1496,1495.7,1495.7
201910111218,1495.7,1495.7,1495.4,1495.5
201910111219,1495.5,1495.7,1495.5,1495.5
201910111220,1495.5,1495.7,1495.5,1495.6
201910111221,1495.7,1495.8,1495.6,1495.6
201910111222,1495.6,1495.6,1495.5,1495.5
201910111223,1495.5,1495.6,1495.5,1495.6
201910111224,1495.6,1495.6,1495.5,1495.5
201910111225,1495.5,1495.6,1495.4,1495.4
201910111226,1495.4,1495.5,1495.4,1495.5
201910111227,1495.5,1495.5,1495.4,1495.5
201910111228,1495.4,1495.6,1495.4,1495.6
201910111229,1495.6,1495.6,1495.4,1495.4
201910111230,1495.4,1495.5,1495.3,1495.3
201910111231,1495.3,1495.4,1495.2,1495.2
201910111232,1495.2,1495.2,1494.9,1495
201910111233,1495,1495,1494.8,1494.8
201910111234,1494.8,1495,1494.8,1495
201910111235,1495,1495,1495,1495
201910111236,1495.1,1495.1,1494.9,1495.1
201910111237,1495.1,1495.2,1495,1495.2
201910111238,1495.2,1495.3,1495.2,1495.3
201910111239,1495.3,1495.3,1495.1,1495.2
201910111240,1495.2,1495.2,1495.1,1495.1
201910111241,1495.1,1495.3,1495.1,1495.2
201910111242,1495.2,1495.2,1495,1495.1
201910111243,1495.1,1495.1,1495.1,1495.1
201910111244,1495.1,1495.1,1494.9,1495
201910111245,1495,1495.1,1494.9,1495
201910111246,1495,1495,1495,1495
201910111247,1495,1495.1,1495,1495
201910111248,1495,1495,1495,1495
201910111249,1495,1495,1495,1495
201910111250,1495,1495.2,1495,1495
201910111251,1495,1495.2,1495,1495.2
201910111252,1495.2,1495.3,1495.2,1495.2
201910111253,1495.2,1495.2,1495.1,1495.1
201910111254,1495.1,1495.2,1495.1,1495.1
201910111255,1495.1,1495.1,1495,1495.1
201910111256,1495.1,1495.2,1495.1,1495.2
201910111257,1495.2,1495.3,1495.2,1495.3
201910111258,1495.3,1495.3,1495.2,1495.3
201910111259,1495.3,1495.3,1495.2,1495.3
201910111300,1495.3,1495.3,1495.2,1495.3
201910111301,1495.3,1495.3,1495.2,1495.2
201910111302,1495.2,1495.3,1495.1,1495.2
201910111303,1495.2,1495.6,1495.2,1495.5
201910111304,1495.5,1495.6,1495.5,1495.6
201910111305,1495.7,1495.8,1495.6,1495.7
201910111306,1495.7,1495.8,1495.7,1495.7
201910111307,1495.7,1495.7,1495.6,1495.6
201910111308,1495.6,1495.7,1495.5,1495.5
201910111309,1495.5,1495.6,1495.5,1495.5
201910111310,1495.5,1495.5,1495.4,1495.4
201910111311,1495.4,1495.5,1495.3,1495.5
201910111312,1495.5,1495.6,1495.5,1495.5
201910111313,1495.5,1495.5,1495.5,1495.5
201910111314,1495.5,1495.5,1495.4,1495.4
201910111315,1495.4,1495.5,1495.4,1495.4
201910111316,1495.4,1495.4,1495.3,1495.3
201910111317,1495.3,1495.3,1495.1,1495.1
201910111318,1495.1,1495.3,1495.1,1495.2
201910111319,1495.2,1495.3,1495.2,1495.3
201910111320,1495.3,1495.3,1495.2,1495.2
201910111321,1495.2,1495.3,1495.1,1495.1
201910111322,1495.1,1495.1,1495.1,1495.1
201910111323,1495.1,1495.1,1495.1,1495.1
201910111324,1495.1,1495.1,1495.1,1495.1
201910111325,1495.1,1495.2,1495.1,1495.2
201910111326,1495.2,1495.2,1495.1,1495.1
201910111327,1495.1,1495.2,1495.1,1495.1
201910111328,1495.1,1495.1,1495.1,1495.1
201910111329,1495.1,1495.2,1495.1,1495.1
201910111330,1495.1,1495.2,1495,1495
201910111331,1495,1495,1494.9,1495
201910111332,1495,1495.1,1495,1495.1
201910111333,1495.1,1495.2,1495.1,1495.2
201910111334,1495.2,1495.3,1495.2,1495.3
201910111335,1495.3,1495.3,1495.2,1495.2
201910111336,1495.2,1495.2,1495.2,1495.2
201910111337,1495.2,1495.2,1495.1,1495.2
201910111338,1495.2,1495.2,1494.9,1495
201910111339,1495,1495.1,1494.9,1494.9
201910111340,1494.9,1495,1494.4,1494.5
201910111341,1494.6,1494.6,1494.4,1494.6
201910111342,1494.6,1494.9,1494.6,1494.9
201910111343,1494.9,1494.9,1494.8,1494.8
201910111344,1494.9,1494.9,1494.8,1494.8
201910111345,1494.8,1494.8,1494.7,1494.7
201910111346,1494.7,1494.9,1494.7,1494.9
201910111347,1494.9,1495.2,1494.8,1495.1
201910111348,1495.1,1495.3,1495.1,1495.2
201910111349,1495.2,1495.3,1495.1,1495.3
201910111350,1495.3,1495.4,1495.2,1495.2
201910111351,1495.2,1495.3,1495.2,1495.2
201910111352,1495.1,1495.1,1495.1,1495.1
201910111353,1495.1,1495.2,1495.1,1495.1
201910111354,1495.1,1495.2,1495.1,1495.1
201910111355,1495.1,1495.1,1494.9,1495
201910111356,1495,1495.2,1495,1495.2
201910111357,1495.2,1495.2,1495,1495
201910111358,1495,1495.1,1494.9,1494.9
201910111359,1494.9,1495.2,1494.9,1495.2
201910111400,1495.2,1495.2,1495.1,1495.1
201910111401,1495.1,1495.1,1494.9,1495
201910111402,1495.1,1495.1,1494.9,1494.9
201910111403,1494.9,1495,1494.8,1495
201910111404,1495,1495.1,1495,1495.1
201910111405,1495.1,1495.1,1495,1495
201910111406,1495.1,1495.1,1495,1495.1
201910111407,1495.1,1495.1,1494.7,1494.8
201910111408,1494.8,1494.9,1494.8,1494.8
201910111409,1494.8,1494.8,1494.7,1494.7
201910111410,1494.6,1494.7,1494.6,1494.6
201910111411,1494.6,1494.6,1494.3,1494.3
201910111412,1494.3,1494.3,1494.1,1494.1
201910111413,1494.1,1494.2,1494.1,1494.2
201910111414,1494.2,1494.4,1494,1494
201910111415,1494.1,1494.2,1494,1494.1
201910111416,1494.1,1494.2,1494.1,1494.1
201910111417,1494.1,1494.3,1494.1,1494.3
201910111418,1494.3,1494.3,1494.2,1494.2
201910111419,1494.2,1494.3,1494.2,1494.2
201910111420,1494.2,1494.3,1493.9,1494
201910111421,1494,1494,1493.8,1493.9
201910111422,1493.9,1494.4,1493.9,1494.3
201910111423,1494.4,1494.7,1494.4,1494.6
201910111424,1494.6,1494.6,1494.4,1494.4
201910111425,1494.4,1494.5,1494.2,1494.2
201910111426,1494.2,1494.4,1494.1,1494.2
201910111427,1494.2,1494.3,1494.1,1494.1
201910111428,1494.2,1494.2,1494,1494.1
201910111429,1494.1,1494.4,1494.1,1494.4
201910111430,1494.4,1494.4,1493.7,1493.7
201910111431,1493.7,1494.3,1493.7,1494.1
201910111432,1494.1,1494.4,1494.1,1494.1
201910111433,1494.1,1494.8,1494.1,1494.8
201910111434,1494.8,1494.9,1494.7,1494.7
201910111435,1494.7,1494.9,1494.7,1494.9
201910111436,1494.9,1494.9,1494.8,1494.8
201910111437,1494.8,1494.9,1494.8,1494.8
201910111438,1494.8,1494.8,1494.6,1494.7
201910111439,1494.7,1494.8,1494.5,1494.8
201910111440,1494.8,1495,1494.8,1494.9
201910111441,1494.9,1495,1494.7,1494.7
201910111442,1494.7,1495,1494.7,1494.9
201910111443,1494.9,1495.2,1494.9,1495.1
201910111444,1495.1,1495.3,1495.1,1495.3
201910111445,1495.3,1495.3,1495.1,1495.1
201910111446,1495.1,1495.2,1495.1,1495.2
201910111447,1495.2,1495.3,1495.1,1495.3
201910111448,1495.3,1495.4,1495.3,1495.3
201910111449,1495.3,1495.5,1495.3,1495.4
201910111450,1495.4,1496,1495.4,1495.9
201910111451,1495.9,1496.3,1495.9,1496.3
201910111452,1496.3,1496.4,1496,1496.1
201910111453,1496,1496.1,1495.9,1496.1
201910111454,1496.1,1496.2,1496,1496.2
201910111455,1496.1,1496.3,1495.8,1495.8
201910111456,1495.8,1496.2,1495.8,1496.1
201910111457,1496.1,1496.2,1496,1496
201910111458,1496,1496,1495.9,1495.9
201910111459,1495.9,1496.1,1495.9,1496
201910111500,1496,1496.4,1495.9,1496.4
201910111501,1496.4,1496.6,1496.4,1496.5
201910111502,1496.5,1496.7,1496.2,1496.3
201910111503,1496.3,1496.6,1496.3,1496.4
201910111504,1496.4,1496.8,1496.4,1496.7
201910111505,1496.7,1496.7,1496.2,1496.6
201910111506,1496.6,1496.6,1496.1,1496.4
201910111507,1496.5,1496.6,1496.2,1496.2
201910111508,1496.3,1497,1496.3,1496.9
201910111509,1496.9,1497.9,1496.9,1497.9
201910111510,1497.9,1498,1497.5,1497.9
201910111511,1497.9,1498.2,1497.8,1498
201910111512,1498,1498.2,1497.9,1497.9
201910111513,1497.9,1498,1497.8,1497.9
201910111514,1497.9,1498,1497.7,1497.7
201910111515,1497.7,1498,1497.5,1497.8
201910111516,1497.8,1498.1,1497.6,1497.8
201910111517,1497.8,1498,1497.6,1498
201910111518,1498,1498,1497.6,1497.7
201910111519,1497.7,1498,1497.6,1497.9
201910111520,1497.9,1498,1497.6,1497.6
201910111521,1497.6,1498,1497.6,1497.9
201910111522,1497.9,1498,1497.6,1497.9
201910111523,1497.9,1498.1,1497.8,1498
201910111524,1498.1,1498.8,1498.1,1498.7
201910111525,1498.7,1498.8,1498.5,1498.7
201910111526,1498.7,1498.9,1498.6,1498.9
201910111527,1499,1499.1,1498.9,1499.1
201910111528,1499,1499.3,1499,1499
201910111529,1499,1499,1498.5,1498.7
201910111530,1498.7,1498.8,1498.5,1498.5
201910111531,1498.5,1498.5,1498.2,1498.5
201910111532,1498.5,1498.8,1498.5,1498.7
201910111533,1498.7,1499.3,1498.7,1499.2
201910111534,1499.2,1499.4,1499.1,1499.2
201910111535,1499.2,1499.7,1499.2,1499.5
201910111536,1499.5,1499.8,1499.5,1499.6
201910111537,1499.5,1499.7,1499.3,1499.4
201910111538,1499.3,1499.4,1499,1499.3
201910111539,1499.3,1500.1,1499.3,1499.9
201910111540,1499.9,1500,1499.3,1499.3
201910111541,1499.3,1499.6,1499.2,1499.5
201910111542,1499.5,1499.6,1498.9,1499.3
201910111543,1499.3,1499.5,1498.9,1499.1
201910111544,1499.1,1499.1,1498.8,1498.8
201910111545,1498.8,1499,1498.4,1498.5
201910111546,1498.5,1498.9,1498.4,1498.5
201910111547,1498.5,1498.8,1498.5,1498.5
201910111548,1498.5,1498.9,1498.5,1498.8
201910111549,1498.9,1499.1,1498.8,1499.1
201910111550,1499.1,1499.5,1499,1499.5
201910111551,1499.5,1499.5,1498.6,1498.7
201910111552,1498.7,1498.9,1498.5,1498.6
201910111553,1498.6,1499.1,1498.6,1499.1
201910111554,1499.1,1499.2,1498.9,1498.9
201910111555,1498.9,1499.4,1498.9,1499.2
201910111556,1499.2,1499.7,1499.2,1499.4
201910111557,1499.4,1499.5,1498.7,1498.8
201910111558,1498.8,1498.9,1498.6,1498.8
201910111559,1498.8,1499.2,1498.7,1498.7
201910111600,1498.7,1499.7,1498.6,1499.5
201910111601,1499.5,1500,1499.4,1499.9
201910111602,1499.9,1500.1,1499.4,1499.6
201910111603,1499.6,1499.9,1499.5,1499.8
201910111604,1499.8,1500.6,1499.4,1500.6
201910111605,1500.6,1500.8,1500.3,1500.3
201910111606,1500.4,1500.7,1500.1,1500.1
201910111607,1500.1,1500.1,1499.6,1499.8
201910111608,1499.9,1500.1,1499.7,1499.7
201910111609,1499.7,1500,1499.7,1499.9
201910111610,1499.9,1500.2,1499.6,1500.2
201910111611,1500.2,1500.5,1500.2,1500.5
201910111612,1500.5,1500.7,1500.3,1500.5
201910111613,1500.5,1501.1,1500.3,1500.8
201910111614,1500.9,1501,1500.7,1500.8
201910111615,1500.8,1501.2,1500.6,1500.9
201910111616,1500.9,1501,1500.4,1500.4
201910111617,1500.4,1500.7,1500.2,1500.7
201910111618,1500.7,1500.9,1500.6,1500.9
201910111619,1500.9,1501.3,1500.9,1501
201910111620,1501,1501.3,1501,1501.2
201910111621,1501.2,1501.5,1500.7,1500.9
201910111622,1500.9,1500.9,1500.5,1500.5
201910111623,1500.5,1500.6,1500.2,1500.2
201910111624,1500.2,1500.3,1499.9,1499.9
201910111625,1499.9,1500.2,1499.8,1500.1
201910111626,1500.1,1500.3,1500,1500.3
201910111627,1500.3,1500.6,1499.9,1500.2
201910111628,1500.2,1500.8,1500.1,1500.5
201910111629,1500.5,1500.6,1500.4,1500.5
201910111630,1500.5,1500.5,1500.3,1500.4
201910111631,1500.4,1500.8,1500.4,1500.6
201910111632,1500.6,1500.6,1500.2,1500.3
201910111633,1500.3,1500.5,1500.2,1500.2
201910111634,1500.2,1500.5,1500.1,1500.4
201910111635,1500.5,1501.1,1500.4,1500.9
201910111636,1500.9,1501.1,1500.8,1500.8
201910111637,1500.8,1501.1,1500.7,1500.7
201910111638,1500.7,1501.2,1500.6,1500.9
201910111639,1500.9,1502,1500.9,1501.9
201910111640,1502,1502,1501.5,1501.9
201910111641,1501.9,1502.3,1501.8,1502.1
201910111642,1502.1,1502.4,1502,1502.2
201910111643,1502.2,1502.7,1502.2,1502.6
201910111644,1502.6,1502.9,1502.3,1502.3
201910111645,1502.2,1502.2,1501.9,1502.1
201910111646,1502.1,1502.1,1501.9,1502
201910111647,1502,1502.4,1502,1502.4
201910111648,1502.4,1502.4,1502,1502
201910111649,1502,1502.1,1501.9,1502
201910111650,1502,1502.2,1501.7,1502
201910111651,1502,1502.1,1501.9,1501.9
201910111652,1501.9,1502.2,1501.8,1502.2
201910111653,1502.3,1502.7,1502.2,1502.3
201910111654,1502.3,1502.6,1502.3,1502.4
201910111655,1502.4,1502.5,1502.1,1502.5
201910111656,1502.5,1502.6,1502,1502.1
201910111657,1502.1,1502.3,1501.9,1502.3
201910111658,1502.3,1502.3,1502.1,1502.2
201910111659,1502.2,1502.5,1502.2,1502.4
201910111700,1502.4,1502.4,1502.1,1502.4
201910111701,1502.4,1503,1502.4,1502.8
201910111702,1502.7,1502.9,1502.6,1502.6
201910111703,1502.6,1502.9,1502.4,1502.9
201910111704,1502.8,1503,1502.8,1502.8
201910111705,1502.8,1502.8,1502.5,1502.7
201910111706,1502.7,1502.9,1502.7,1502.9
201910111707,1502.9,1502.9,1502.6,1502.6
201910111708,1502.6,1502.7,1502.3,1502.6
201910111709,1502.6,1502.7,1502.4,1502.7
201910111710,1502.7,1502.9,1501.9,1502.1
201910111711,1502.1,1502.7,1502.1,1502.6
201910111712,1502.6,1502.8,1502.4,1502.5
201910111713,1502.5,1502.5,1502.3,1502.4
201910111714,1502.4,1502.5,1502.3,1502.4
201910111715,1502.4,1502.8,1502.4,1502.7
201910111716,1502.7,1502.8,1502.3,1502.3
201910111717,1502.2,1502.2,1501.4,1501.5
201910111718,1501.5,1501.5,1501.1,1501.1
201910111719,1501.1,1501.1,1500.6,1500.6
201910111720,1500.6,1500.9,1500.4,1500.5
201910111721,1500.5,1500.8,1500.5,1500.8
201910111722,1500.8,1500.9,1500.7,1500.9
201910111723,1500.9,1501,1500.6,1500.7
201910111724,1500.7,1500.8,1500.6,1500.7
201910111725,1500.7,1500.7,1500.4,1500.5
201910111726,1500.5,1500.7,1500.5,1500.6
201910111727,1500.6,1500.6,1499.9,1499.9
201910111728,1499.9,1500.1,1499.7,1499.7
201910111729,1499.8,1500,1499.6,1499.8
201910111730,1499.8,1500,1499.8,1499.8
201910111731,1499.8,1499.8,1499.3,1499.4
201910111732,1499.4,1499.7,1499.4,1499.4
201910111733,1499.4,1499.5,1498.6,1498.9
201910111734,1498.9,1499.2,1498.9,1498.9
201910111735,1499,1499.1,1498.9,1499.1
201910111736,1499.1,1499.1,1498.7,1498.7
201910111737,1498.7,1498.9,1498.7,1498.9
201910111738,1498.9,1499,1498.4,1498.6
201910111739,1498.6,1498.6,1498.2,1498.4
201910111740,1498.4,1498.6,1498.2,1498.2
201910111741,1498.2,1498.3,1498,1498.2
201910111742,1498.2,1498.4,1497.9,1498.2
201910111743,1498.2,1498.3,1497.7,1498
201910111744,1498,1499.1,1497.6,1498.9
201910111745,1498.9,1499.7,1498.8,1498.9
201910111746,1498.9,1499,1498.4,1498.8
201910111747,1498.8,1499,1498.6,1498.9
201910111748,1499,1499,1498.6,1498.7
201910111749,1498.7,1498.7,1498,1498.4
201910111750,1498.4,1498.5,1498.2,1498.4
201910111751,1498.4,1498.9,1498.4,1498.8
201910111752,1498.8,1498.9,1498.4,1498.7
201910111753,1498.7,1499,1498.6,1498.9
201910111754,1498.9,1499.1,1498.9,1499
201910111755,1499,1499,1498.5,1498.6
201910111756,1498.6,1498.7,1498.5,1498.6
201910111757,1498.6,1499,1498.6,1499
201910111758,1499,1499.1,1498.7,1498.7
201910111759,1498.7,1499.2,1498.6,1498.8
201910111800,1498.8,1499.2,1498.8,1499
201910111801,1499,1499.2,1498.9,1499.1
201910111802,1499.1,1499.1,1498.7,1498.8
201910111803,1498.7,1499.3,1498.7,1499.2
201910111804,1499.2,1499.4,1498.9,1499.3
201910111805,1499.3,1499.3,1499,1499.2
201910111806,1499.2,1499.5,1498.9,1499.5
201910111807,1499.5,1499.5,1499.1,1499.1
201910111808,1499.2,1499.2,1498.8,1498.8
201910111809,1498.8,1499.1,1498.7,1498.9
201910111810,1498.9,1499,1498.8,1498.9
201910111811,1498.9,1499.2,1498.9,1499.1
201910111812,1499.1,1499.2,1499,1499.2
201910111813,1499.2,1499.2,1499.1,1499.1
201910111814,1499.1,1499.1,1499,1499.1
201910111815,1499.1,1499.4,1498.9,1499.4
201910111816,1499.4,1499.7,1499.3,1499.5
201910111817,1499.5,1499.7,1499.3,1499.4
201910111818,1499.3,1499.3,1499,1499.2
201910111819,1499.2,1499.5,1499.1,1499.4
201910111820,1499.4,1499.5,1499.1,1499.2
201910111821,1499.2,1499.5,1499.2,1499.3
201910111822,1499.3,1499.5,1499.2,1499.3
201910111823,1499.3,1499.3,1499.1,1499.1
201910111824,1499.1,1499.3,1499,1499.2
201910111825,1499.2,1499.3,1499,1499.2
201910111826,1499.2,1499.3,1499,1499.1
201910111827,1499.1,1499.2,1499,1499.2
201910111828,1499.2,1499.3,1499.1,1499.1
201910111829,1499.1,1499.2,1499,1499.2
201910111830,1499.2,1499.2,1498.4,1498.4
201910111831,1498.4,1498.6,1498.2,1498.5
201910111832,1498.5,1499,1498.5,1498.8
201910111833,1498.8,1498.9,1498.6,1498.7
201910111834,1498.7,1499,1498.6,1498.7
201910111835,1498.7,1498.9,1498.5,1498.9
201910111836,1498.9,1498.9,1498.7,1498.7
201910111837,1498.8,1498.9,1498.6,1498.6
201910111838,1498.6,1498.6,1498.4,1498.4
201910111839,1498.4,1498.6,1497.7,1498.1
201910111840,1498.1,1498.1,1497.6,1497.6
201910111841,1497.6,1497.6,1496.8,1497
201910111842,1497,1497,1495.6,1495.7
201910111843,1495.7,1496.4,1493.6,1494.9
201910111844,1494.9,1495.1,1494.2,1494.8
201910111845,1494.8,1494.8,1494.3,1494.4
201910111846,1494.4,1494.8,1493.8,1494.7
201910111847,1494.7,1495.6,1494.6,1495.6
201910111848,1495.6,1495.7,1495.1,1495.1
201910111849,1495.1,1495.3,1495.1,1495.2
201910111850,1495.2,1495.3,1494.9,1495.1
201910111851,1495.1,1495.3,1495,1495.2
201910111852,1495.2,1495.3,1494.6,1494.7
201910111853,1494.7,1495.1,1494.7,1495
201910111854,1495,1495.1,1494.8,1494.9
201910111855,1494.9,1494.9,1494.7,1494.7
201910111856,1494.7,1494.8,1494.4,1494.6
201910111857,1494.6,1495.1,1494.6,1495
201910111858,1495,1495,1494.7,1494.9
201910111859,1494.9,1495.1,1494.7,1495
201910111900,1495,1495.2,1494.4,1494.5
201910111901,1494.5,1494.6,1494.3,1494.5
201910111902,1494.5,1494.7,1494.4,1494.7
201910111903,1494.7,1494.8,1494.5,1494.7
201910111904,1494.7,1494.8,1494.6,1494.6
201910111905,1494.6,1494.7,1494.2,1494.4
201910111906,1494.4,1494.5,1494.2,1494.5
201910111907,1494.5,1494.9,1494.4,1494.8
201910111908,1494.8,1494.8,1493.9,1494
201910111909,1494,1494.1,1493.4,1493.7
201910111910,1493.7,1494.3,1493.7,1493.9
201910111911,1493.9,1493.9,1493.3,1493.3
201910111912,1493.3,1493.8,1492.8,1493
201910111913,1493,1493.2,1492.9,1493.2
201910111914,1493.2,1493.2,1492.4,1492.5
201910111915,1492.5,1493.3,1492.5,1493.3
201910111916,1493.3,1493.3,1492.9,1493
201910111917,1493,1493.5,1492.9,1493.5
201910111918,1493.5,1493.7,1493.1,1493.5
201910111919,1493.5,1493.7,1493.5,1493.6
201910111920,1493.6,1493.8,1493.5,1493.8
201910111921,1493.8,1493.9,1493.5,1493.5
201910111922,1493.5,1493.7,1493.2,1493.6
201910111923,1493.6,1493.7,1492.9,1493.1
201910111924,1493.1,1493.3,1492.8,1493
201910111925,1493,1493,1492.6,1492.9
201910111926,1492.9,1493.2,1492.7,1492.7
201910111927,1492.7,1492.9,1492.7,1492.8
201910111928,1492.8,1493.2,1492.5,1493.1
201910111929,1493.2,1493.8,1493,1493.5
201910111930,1493.5,1494.1,1493.4,1493.4
201910111931,1493.4,1493.7,1493.2,1493.6
201910111932,1493.6,1493.7,1493.5,1493.7
201910111933,1493.7,1493.7,1493.4,1493.7
201910111934,1493.7,1493.8,1493.3,1493.3
201910111935,1493.3,1493.9,1493.3,1493.8
201910111936,1493.8,1494.5,1493.6,1494.4
201910111937,1494.4,1494.4,1493.7,1493.7
201910111938,1493.7,1493.9,1493.5,1493.5
201910111939,1493.5,1493.8,1493.5,1493.6
201910111940,1493.6,1493.8,1493.4,1493.6
201910111941,1493.6,1494.2,1493.6,1494.2
201910111942,1494.1,1494.4,1493.9,1494.2
201910111943,1494.2,1494.4,1494.1,1494.3
201910111944,1494.3,1494.7,1494.2,1494.4
201910111945,1494.4,1495,1494.3,1494.9
201910111946,1494.9,1494.9,1494.7,1494.8
201910111947,1494.8,1494.8,1494.5,1494.6
201910111948,1494.7,1495.1,1494.6,1495.1
201910111949,1495.1,1495.2,1495,1495.1
201910111950,1495.1,1495.2,1495,1495.1
201910111951,1495.1,1495.3,1495,1495.3
201910111952,1495.2,1495.4,1495.1,1495.2
201910111953,1495.2,1495.3,1495,1495.2
201910111954,1495.2,1495.2,1494.8,1495
201910111955,1495,1495,1494.8,1494.9
201910111956,1495,1495,1494.7,1495
201910111957,1495,1495.1,1494.7,1494.7
201910111958,1494.7,1494.8,1494.5,1494.6
201910111959,1494.6,1494.7,1494.4,1494.5
201910112000,1494.5,1494.8,1494.4,1494.6
201910112001,1494.7,1494.7,1494.4,1494.5
201910112002,1494.5,1494.9,1494.5,1494.7
201910112003,1494.7,1494.8,1494.4,1494.5
201910112004,1494.5,1494.7,1494.4,1494.4
201910112005,1494.4,1494.8,1494.4,1494.6
201910112006,1494.6,1494.7,1494.5,1494.6
201910112007,1494.6,1495,1494.6,1494.8
201910112008,1494.8,1495.2,1494.6,1495.2
201910112009,1495.2,1495.7,1495.2,1495.6
201910112010,1495.6,1495.7,1495.3,1495.3
201910112011,1495.3,1495.3,1495,1495.1
201910112012,1495.1,1495.1,1494.7,1494.7
201910112013,1494.7,1494.8,1494.7,1494.8
201910112014,1494.8,1495.1,1494.8,1495
201910112015,1495,1495,1494.3,1494.3
201910112016,1494.3,1494.4,1493.3,1493.5
201910112017,1493.5,1493.8,1493.2,1493.3
201910112018,1493.2,1493.4,1492.6,1492.7
201910112019,1492.7,1493,1492.6,1492.9
201910112020,1492.9,1493.3,1492.7,1493.1
201910112021,1493.1,1493.6,1493.1,1493.5
201910112022,1493.4,1493.4,1493,1493.1
201910112023,1493.1,1493.8,1492.8,1492.8
201910112024,1492.8,1492.9,1491.8,1492
201910112025,1492,1492.4,1491.4,1491.6
201910112026,1491.6,1492.2,1491.5,1491.7
201910112027,1491.7,1492.7,1491.7,1492.6
201910112028,1492.6,1492.9,1492.3,1492.9
201910112029,1492.8,1493,1492,1492
201910112030,1492.1,1492.1,1491.5,1491.5
201910112031,1491.5,1491.5,1489,1489.2
201910112032,1489.3,1489.5,1488,1488.7
201910112033,1488.6,1489.3,1488.5,1488.8
201910112034,1488.8,1489.1,1486.6,1486.6
201910112035,1486.6,1487.2,1486.1,1487.2
201910112036,1487.2,1487.2,1486.1,1486.3
201910112037,1486.3,1486.9,1486,1486.8
201910112038,1486.8,1487.2,1486.3,1486.4
201910112039,1486.4,1486.7,1485,1485
201910112040,1485,1486,1484.9,1485.8
201910112041,1485.8,1486.5,1485.8,1486.4
201910112042,1486.4,1486.6,1486,1486
201910112043,1486,1486.1,1484.8,1485
201910112044,1485,1485.2,1483.9,1484.3
201910112045,1484.3,1484.4,1482.3,1482.7
201910112046,1482.7,1483.3,1482,1482.7
201910112047,1482.7,1483.6,1482.6,1483.5
201910112048,1483.5,1483.5,1481.2,1481.6
201910112049,1481.6,1482.6,1481,1482.6
201910112050,1482.6,1482.6,1481.2,1481.5
201910112051,1481.5,1481.5,1480.8,1481
201910112052,1481,1481.2,1480.6,1481.1
201910112053,1481,1481,1479.9,1479.9
201910112054,1479.9,1480.7,1479.9,1480.3
201910112055,1480.3,1480.3,1479.5,1479.8
201910112056,1479.9,1480.5,1479.6,1480
201910112057,1479.9,1480.2,1479.9,1480.2
201910112058,1480.3,1482.5,1480.3,1482.2
201910112059,1482.4,1483.1,1481.8,1482.8
201910112100,1482.7,1484.4,1482.6,1484.2
201910112101,1484.2,1484.9,1484.2,1484.8
201910112102,1484.8,1485.1,1483.9,1483.9
201910112103,1483.9,1484.1,1483.5,1483.9
201910112104,1483.9,1483.9,1483.6,1483.9
201910112105,1483.9,1484.6,1483.8,1484
201910112106,1484,1484.5,1483.5,1484.3
201910112107,1484.3,1485.5,1484.1,1485.1
201910112108,1485.1,1485.2,1484.5,1484.9
201910112109,1484.9,1485,1484.4,1484.5
201910112110,1484.5,1484.7,1484.3,1484.6
201910112111,1484.6,1484.6,1484,1484
201910112112,1484.1,1484.2,1483.5,1483.7
201910112113,1483.7,1483.8,1483.4,1483.5
201910112114,1483.5,1483.8,1483.3,1483.6
201910112115,1483.6,1483.6,1483,1483.1
201910112116,1483.2,1483.6,1483,1483.5
201910112117,1483.5,1483.6,1483.1,1483.4
201910112118,1483.4,1483.4,1482.3,1482.5
201910112119,1482.5,1484,1482.3,1484
201910112120,1484,1484.6,1484,1484.5
201910112121,1484.5,1484.8,1484.3,1484.8
201910112122,1484.8,1485,1484.5,1484.7
201910112123,1484.7,1485.2,1484.5,1485.1
201910112124,1485.1,1485.8,1485.1,1485.5
201910112125,1485.5,1485.5,1485,1485.4
201910112126,1485.3,1485.6,1484.8,1484.8
201910112127,1484.8,1485.3,1484.5,1485.2
201910112128,1485.2,1485.7,1485.1,1485.2
201910112129,1485.2,1485.2,1484.6,1484.9
201910112130,1484.9,1485,1484.4,1484.9
201910112131,1484.9,1485,1483.4,1483.5
201910112132,1483.5,1484.5,1483.5,1484.4
201910112133,1484.4,1484.6,1484,1484.6
201910112134,1484.6,1485.4,1484.6,1485.4
201910112135,1485.5,1485.5,1484.5,1484.8
201910112136,1484.9,1485.8,1484.8,1485.3
201910112137,1485.3,1485.4,1485,1485.3
201910112138,1485.3,1485.6,1485,1485.3
201910112139,1485.3,1485.5,1484.5,1484.7
201910112140,1484.7,1484.7,1484.3,1484.4
201910112141,1484.4,1485.3,1484.4,1484.7
201910112142,1484.7,1484.7,1484.2,1484.5
201910112143,1484.4,1485.1,1484.4,1484.7
201910112144,1484.7,1485,1484.2,1484.2
201910112145,1484.2,1485.1,1484.2,1485.1
201910112146,1485,1485.3,1484.7,1485
201910112147,1485.1,1485.2,1484,1484
201910112148,1483.9,1484.4,1483.9,1484.2
201910112149,1484.2,1484.5,1484,1484.3
201910112150,1484.3,1484.6,1484.1,1484.5
201910112151,1484.5,1484.8,1483.8,1483.9
201910112152,1483.9,1483.9,1483.4,1483.5
201910112153,1483.5,1484.3,1483.4,1484.2
201910112154,1484.2,1484.2,1483.7,1483.7
201910112155,1483.7,1483.8,1483.3,1483.5
201910112156,1483.5,1483.6,1483.1,1483.3
201910112157,1483.3,1483.6,1483.1,1483.2
201910112158,1483.2,1483.4,1482.9,1483.2
201910112159,1483.2,1484,1483.1,1483.9
201910112200,1483.9,1485.5,1483.2,1485
201910112201,1485,1485.7,1484.5,1485.6
201910112202,1485.6,1486.2,1485.4,1485.9
201910112203,1486,1486.2,1485.2,1485.5
201910112204,1485.4,1485.5,1485,1485.3
201910112205,1485.2,1485.7,1484.9,1485.7
201910112206,1485.7,1487.9,1485.6,1487.2
201910112207,1487.2,1487.2,1485.6,1486
201910112208,1486,1486.5,1485.4,1485.4
201910112209,1485.5,1485.8,1485.2,1485.2
201910112210,1485.2,1486,1485.2,1485.8
201910112211,1485.8,1486,1485.6,1485.7
201910112212,1485.7,1486.1,1485.7,1485.9
201910112213,1485.9,1486,1485.4,1485.6
201910112214,1485.6,1485.7,1485.2,1485.4
201910112215,1485.4,1485.6,1485.2,1485.3
201910112216,1485.3,1485.9,1484.8,1485.9
201910112217,1485.9,1486.3,1485.9,1486.3
201910112218,1486.3,1486.3,1485.8,1486
201910112219,1486,1486.1,1485.4,1485.5
201910112220,1485.5,1486.2,1485.5,1485.6
201910112221,1485.6,1485.8,1485.3,1485.3
201910112222,1485.3,1485.6,1485,1485.2
201910112223,1485.2,1485.9,1485.2,1485.8
201910112224,1485.8,1485.9,1485.1,1485.1
201910112225,1485.1,1485.3,1484.7,1484.9
201910112226,1484.9,1484.9,1484.5,1484.8
201910112227,1484.8,1484.9,1484.3,1484.9
201910112228,1484.9,1485,1484.3,1484.4
201910112229,1484.4,1485.1,1484.3,1485.1
201910112230,1485.2,1485.2,1483.9,1484.7
201910112231,1484.7,1486,1484.4,1485.7
201910112232,1485.7,1486.1,1485.2,1485.5
201910112233,1485.5,1485.8,1485,1485
201910112234,1485,1485.1,1484.4,1484.8
201910112235,1484.8,1484.8,1484.3,1484.3
201910112236,1484.3,1484.6,1484.1,1484.6
201910112237,1484.6,1485.1,1484.1,1485.1
201910112238,1485.1,1485.2,1484.8,1484.8
201910112239,1484.9,1485.4,1484.7,1485.4
201910112240,1485.4,1485.6,1485.1,1485.6
201910112241,1485.6,1485.6,1484.3,1484.5
201910112242,1484.4,1484.4,1483.2,1483.2
201910112243,1483.2,1483.4,1482.7,1482.7
201910112244,1482.7,1483.1,1482.6,1482.6
201910112245,1482.7,1483,1482.1,1482.7
201910112246,1482.7,1483.2,1482.7,1483
201910112247,1483,1484.9,1482.8,1484.5
201910112248,1484.5,1484.6,1484,1484.6
201910112249,1484.6,1484.9,1481.6,1482.7
201910112250,1482.7,1483.1,1481.9,1482.5
201910112251,1482.4,1482.6,1481.6,1481.8
201910112252,1481.8,1481.9,1480.4,1480.7
201910112253,1480.7,1481.2,1479.8,1480.9
201910112254,1480.9,1481.8,1480.9,1481.6
201910112255,1481.6,1481.9,1481.3,1481.8
201910112256,1481.8,1481.8,1481.4,1481.6
201910112257,1481.6,1482.4,1481.4,1481.9
201910112258,1481.9,1482.7,1481.9,1482.5
201910112259,1482.5,1482.9,1482.2,1482.9
201910112300,1482.9,1482.9,1481.5,1481.5
201910112301,1481.5,1481.6,1480.1,1480.2
201910112302,1480.1,1480.4,1478.7,1478.8
201910112303,1478.8,1479.1,1477.7,1478
201910112304,1477.9,1478.6,1477.7,1478
201910112305,1478.1,1478.5,1477.8,1478.4
201910112306,1478.4,1479.6,1478.1,1479.2
201910112307,1479.3,1479.3,1477.4,1477.4
201910112308,1477.4,1477.5,1476.6,1476.9
201910112309,1476.9,1477.6,1476.5,1477.5
201910112310,1477.5,1477.5,1476.4,1476.5
201910112311,1476.4,1476.7,1475.7,1476.2
201910112312,1476.2,1477.2,1475.9,1476.4
201910112313,1476.4,1477.2,1476.4,1476.5
201910112314,1476.5,1476.5,1475.7,1476.1
201910112315,1476.1,1477.4,1475.7,1477.4
201910112316,1477.4,1478,1476.9,1477.7
201910112317,1477.7,1477.7,1476.7,1476.7
201910112318,1476.7,1476.7,1475.8,1476.7
201910112319,1476.7,1477.1,1476.3,1476.9
201910112320,1476.9,1476.9,1476.1,1476.8
201910112321,1476.9,1477.4,1476.5,1477.4
201910112322,1477.3,1478.8,1477,1478.3
201910112323,1478.2,1478.3,1477,1477
201910112324,1477,1477.2,1474.9,1475.3
201910112325,1475.3,1475.3,1473.9,1474.6
201910112326,1474.6,1475.2,1474.4,1475.1
201910112327,1475,1475.1,1474.5,1475.1
201910112328,1475.1,1475.5,1474.7,1475.5
201910112329,1475.5,1476,1475.4,1475.7
201910112330,1475.7,1476,1475.3,1475.8
201910112331,1475.8,1475.8,1474.5,1475
201910112332,1475,1475.2,1474.7,1475.2
201910112333,1475.2,1475.3,1474.3,1475.2
201910112334,1475.2,1475.8,1474.9,1475.7
201910112335,1475.7,1475.7,1474.5,1474.5
201910112336,1474.5,1474.9,1474.4,1474.9
201910112337,1474.9,1475.2,1474.5,1474.8
201910112338,1474.8,1475.3,1474.7,1474.7
201910112339,1474.7,1476.2,1474.6,1475.9
201910112340,1475.8,1476.7,1475.5,1476.5
201910112341,1476.5,1476.5,1474.8,1475
201910112342,1475,1475,1474.2,1474.9
201910112343,1474.9,1475.2,1474.7,1475.1
201910112344,1475.1,1475.4,1474.4,1475.4
201910112345,1475.4,1475.5,1474.9,1475.1
201910112346,1475.1,1476.7,1474.9,1476.1
201910112347,1476.1,1476.6,1475.8,1476
201910112348,1475.9,1476,1475.6,1475.9
201910112349,1475.9,1475.9,1475.5,1475.8
201910112350,1475.8,1476.1,1475.5,1475.8
201910112351,1475.8,1475.8,1475.3,1475.7
201910112352,1475.6,1475.7,1475.3,1475.4
201910112353,1475.4,1475.9,1475.2,1475.9
201910112354,1475.9,1476.3,1475.8,1476.1
201910112355,1476.1,1477.1,1476.1,1476.6
201910112356,1476.7,1476.8,1476.1,1476.3
201910112357,1476.3,1476.5,1475.9,1476.2
201910112358,1476.2,1476.8,1476.2,1476.7
201910112359,1476.7,1478,1476.7,1478
201910120000,1478.1,1480.2,1477.7,1479.8
201910120001,1479.8,1480.1,1478.6,1478.8
201910120002,1478.8,1479,1478.5,1478.7
201910120003,1478.7,1479.7,1478.6,1479.3
201910120004,1479.3,1479.4,1478.7,1479.1
201910120005,1479.1,1479.4,1478.3,1479.2
201910120006,1479.2,1479.7,1478.7,1479.6
201910120007,1479.6,1480.2,1479.4,1480.2
201910120008,1480.2,1481.4,1480.1,1481.4
201910120009,1481.4,1482.1,1481.3,1482
201910120010,1482,1483.2,1482,1482.8
201910120011,1482.8,1482.9,1482,1482.3
201910120012,1482.3,1482.5,1481.8,1482.5
201910120013,1482.4,1483,1482.4,1483
201910120014,1482.9,1482.9,1481.8,1481.9
201910120015,1481.9,1482.1,1481.5,1481.8
201910120016,1481.8,1481.9,1481.3,1481.3
201910120017,1481.3,1481.3,1480.8,1481.1
201910120018,1481.1,1481.1,1480.5,1480.9
201910120019,1480.9,1480.9,1480.1,1480.5
201910120020,1480.6,1480.7,1480,1480.2
201910120021,1480.2,1480.7,1480.2,1480.2
201910120022,1480.2,1480.4,1479.8,1480
201910120023,1480,1480.1,1479.8,1480.1
201910120024,1480.1,1480.8,1480.1,1480.7
201910120025,1480.7,1480.9,1479.9,1479.9
201910120026,1479.9,1480,1479.3,1479.4
201910120027,1479.4,1479.5,1479.1,1479.1
201910120028,1479.1,1479.5,1478.9,1479.5
201910120029,1479.5,1479.6,1479.1,1479.1
201910120030,1479.1,1479.4,1478.6,1478.8
201910120031,1478.7,1478.7,1478.2,1478.4
201910120032,1478.4,1478.6,1478.2,1478.4
201910120033,1478.4,1478.9,1478.2,1478.5
201910120034,1478.5,1478.5,1477.9,1477.9
201910120035,1477.9,1478.5,1477.9,1478.3
201910120036,1478.3,1478.9,1478.3,1478.8
201910120037,1478.8,1479.1,1478.7,1478.8
201910120038,1478.8,1479,1478.7,1478.8
201910120039,1478.8,1479.6,1478.8,1479.3
201910120040,1479.3,1480.5,1479.2,1480.2
201910120041,1480.2,1480.4,1480,1480.4
201910120042,1480.3,1480.5,1479.3,1479.9
201910120043,1479.9,1480.1,1479.5,1479.6
201910120044,1479.6,1480.3,1479.4,1480.1
201910120045,1480.1,1481.3,1480.1,1481.1
201910120046,1481.2,1481.2,1480.7,1481.1
201910120047,1481.1,1481.9,1478.4,1480.6
201910120048,1480.6,1482.1,1479.6,1480.2
201910120049,1480.5,1481.4,1480.4,1481.2
201910120050,1481.3,1481.7,1481.1,1481.2
201910120051,1481.2,1481.9,1481.1,1481.5
201910120052,1481.5,1481.9,1481.5,1481.8
201910120053,1481.7,1482.2,1480.9,1481.2
201910120054,1481.2,1481.7,1481.1,1481.2
201910120055,1481.2,1481.3,1480.8,1481
201910120056,1481,1481.2,1480.8,1481.1
201910120057,1481.1,1481.2,1480.7,1481.1
201910120058,1481.1,1481.4,1481.1,1481.3
201910120059,1481.3,1481.5,1480.9,1481.4
201910120100,1481.4,1481.6,1479.4,1480.5
201910120101,1480.6,1482,1480.6,1481.9
201910120102,1481.9,1482.7,1481.9,1482.4
201910120103,1482.3,1482.6,1482.1,1482.3
201910120104,1482.4,1482.7,1482.3,1482.7
201910120105,1482.7,1483.7,1482.7,1483.5
201910120106,1483.5,1483.8,1483,1483.1
201910120107,1483.1,1484,1483,1483.5
201910120108,1483.5,1484.4,1483.4,1483.7
201910120109,1483.7,1484.1,1483.3,1483.6
201910120110,1483.6,1484,1483.4,1483.9
201910120111,1483.9,1484.2,1483.7,1483.8
201910120112,1483.7,1483.8,1483.3,1483.4
201910120113,1483.3,1483.6,1482.8,1482.9
201910120114,1482.9,1483.3,1482.6,1483.1
201910120115,1483.1,1484.9,1483.1,1484.6
201910120116,1484.6,1485,1484.1,1484.1
201910120117,1484.1,1484.1,1483.4,1483.8
201910120118,1483.7,1484,1483.1,1483.1
201910120119,1483.1,1483.2,1482.7,1483
201910120120,1482.9,1483.2,1482.6,1482.8
201910120121,1482.8,1483.2,1482.8,1483.1
201910120122,1483.1,1483.2,1482.6,1482.6
201910120123,1482.7,1482.8,1482.1,1482.7
201910120124,1482.7,1482.8,1482.3,1482.7
201910120125,1482.7,1483.3,1482.6,1483
201910120126,1483,1483.1,1482.7,1483
201910120127,1483,1483.4,1483,1483.3
201910120128,1483.3,1484,1483.3,1483.9
201910120129,1483.9,1484,1483.5,1483.5
201910120130,1483.5,1484,1483.4,1484
201910120131,1484,1484,1483.2,1483.2
201910120132,1483.2,1486.6,1483.2,1484.8
201910120133,1484.8,1485.7,1483.7,1484.2
201910120134,1484.2,1484.5,1483.6,1483.7
201910120135,1483.7,1484.2,1483.6,1483.7
201910120136,1483.7,1484.4,1483.4,1484.1
201910120137,1484.1,1484.5,1483.8,1484
201910120138,1484,1484.6,1483.8,1484.5
201910120139,1484.5,1484.8,1484.1,1484.1
201910120140,1484.1,1484.6,1483.9,1483.9
201910120141,1483.9,1484,1483.5,1483.8
201910120142,1483.8,1483.8,1483,1483.4
201910120143,1483.4,1483.5,1483.1,1483.1
201910120144,1483.1,1483.6,1482.4,1483.3
201910120145,1483.3,1483.4,1483,1483
201910120146,1483,1483.7,1483,1483.3
201910120147,1483.2,1484.1,1483,1484.1
201910120148,1484,1484.1,1483.8,1484.1
201910120149,1484,1484.6,1484,1484.3
201910120150,1484.3,1484.5,1484.1,1484.4
201910120151,1484.5,1484.6,1484,1484.4
201910120152,1484.4,1484.7,1484.3,1484.5
201910120153,1484.5,1484.6,1482.8,1483.7
201910120154,1483.7,1484.5,1483.7,1484.3
201910120155,1484.3,1484.3,1483.8,1484.1
201910120156,1484.1,1484.4,1484,1484.1
201910120157,1484.1,1485.2,1483.9,1485.1
201910120158,1485.1,1485.1,1484.8,1485
201910120159,1485,1485.2,1484.7,1484.8
201910120200,1484.8,1485.4,1484.8,1485.3
201910120201,1485.3,1485.4,1484.8,1484.9
201910120202,1484.9,1485.4,1484.9,1485.4
201910120203,1485.5,1485.5,1484.9,1485
201910120204,1485,1485.3,1484.6,1484.9
201910120205,1484.9,1485.1,1484.7,1485.1
201910120206,1485.1,1486.3,1484.9,1486.3
201910120207,1486.3,1486.4,1485.1,1485.9
201910120208,1486.1,1486.6,1485.9,1486.6
201910120209,1486.6,1486.6,1485.4,1485.4
201910120210,1485.4,1485.7,1485,1485.5
201910120211,1485.5,1485.6,1485.1,1485.4
201910120212,1485.4,1485.5,1484.9,1485
201910120213,1485,1485.4,1484.9,1485.4
201910120214,1485.5,1485.5,1484.7,1485
201910120215,1485,1485.2,1484.5,1484.6
201910120216,1484.6,1484.7,1484.3,1484.4
201910120217,1484.4,1485.3,1484.4,1485.3
201910120218,1485.3,1485.4,1484.6,1484.7
201910120219,1484.7,1485,1484.3,1484.4
201910120220,1484.4,1484.5,1484.2,1484.4
201910120221,1484.4,1484.7,1484.4,1484.6
201910120222,1484.6,1484.7,1484.4,1484.6
201910120223,1484.6,1484.6,1484.1,1484.2
201910120224,1484.2,1484.7,1484.1,1484.6
201910120225,1484.7,1484.8,1484.3,1484.3
201910120226,1484.3,1484.5,1480.7,1482
201910120227,1481.9,1484.5,1481.9,1483
201910120228,1483,1484.4,1482.9,1483.9
201910120229,1483.8,1484.9,1483.6,1484.3
201910120230,1484.2,1484.5,1483.1,1483.2
201910120231,1483.2,1483.5,1483,1483.2
201910120232,1483.3,1483.5,1482.9,1483.2
201910120233,1483.3,1483.5,1482.9,1483.4
201910120234,1483.4,1483.5,1483,1483.1
201910120235,1483.1,1483.5,1482.9,1482.9
201910120236,1482.9,1483.3,1482.9,1483.2
201910120237,1483.2,1483.7,1483.2,1483.7
201910120238,1483.6,1483.7,1483.2,1483.4
201910120239,1483.4,1483.5,1483.2,1483.5
201910120240,1483.5,1483.5,1482.9,1483
201910120241,1483,1483.1,1482.9,1483.1
201910120242,1483.1,1483.4,1483.1,1483.3
201910120243,1483.3,1483.6,1483.1,1483.6
201910120244,1483.6,1483.9,1483.6,1483.6
201910120245,1483.6,1484,1483.6,1484
201910120246,1484,1484,1483.6,1483.9
201910120247,1484,1484,1483.8,1483.8
201910120248,1483.8,1483.9,1483.6,1483.6
201910120249,1483.7,1483.8,1483.2,1483.3
201910120250,1483.3,1483.7,1483.3,1483.7
201910120251,1483.7,1484.1,1483.4,1483.4
201910120252,1483.4,1483.9,1483.4,1483.7
201910120253,1483.7,1484.3,1483.7,1484.1
201910120254,1484.1,1484.1,1483.7,1483.8
201910120255,1483.9,1484,1483.5,1483.7
201910120256,1483.7,1484.3,1483.7,1484.3
201910120257,1484.3,1484.4,1484,1484.4
201910120258,1484.4,1485.1,1484.4,1484.6
201910120259,1484.6,1485,1484.5,1484.9
201910120300,1484.9,1485,1484.6,1484.6
201910120301,1484.8,1485.1,1484.4,1484.5
201910120302,1484.5,1484.9,1484.4,1484.8
201910120303,1484.8,1484.9,1484.6,1484.7
201910120304,1484.7,1484.9,1483.8,1484.1
201910120305,1484.1,1484.1,1483.8,1483.8
201910120306,1483.8,1483.9,1483.6,1483.6
201910120307,1483.7,1484,1483.5,1483.9
201910120308,1483.9,1484.3,1483.9,1484.3
201910120309,1484.3,1484.8,1484.3,1484.6
201910120310,1484.6,1485,1484.4,1484.4
201910120311,1484.4,1484.5,1484,1484.2
201910120312,1484.2,1484.6,1484.1,1484.5
201910120313,1484.5,1484.6,1484.4,1484.4
201910120314,1484.4,1484.5,1484.3,1484.4
201910120315,1484.5,1484.6,1484.4,1484.5
201910120316,1484.5,1484.7,1484.4,1484.6
201910120317,1484.6,1484.8,1484.5,1484.8
201910120318,1484.8,1484.8,1484.3,1484.3
201910120319,1484.3,1484.5,1484,1484.1
201910120320,1484.1,1484.4,1484,1484.3
201910120321,1484.3,1484.4,1484.1,1484.1
201910120322,1484.1,1484.1,1483.9,1483.9
201910120323,1484,1484,1483.7,1483.9
201910120324,1483.9,1484.1,1483.9,1484
201910120325,1484,1484.1,1483.8,1484
201910120326,1484,1484,1483.6,1483.8
201910120327,1483.8,1484,1483.4,1483.5
201910120328,1483.4,1483.6,1483.3,1483.5
201910120329,1483.5,1483.6,1483.4,1483.6
201910120330,1483.6,1483.7,1483.5,1483.7
201910120331,1483.7,1483.9,1483.6,1483.8
201910120332,1483.8,1483.9,1483.8,1483.8
201910120333,1483.8,1483.8,1483.2,1483.3
201910120334,1483.3,1483.6,1483.2,1483.5
201910120335,1483.5,1483.7,1483.4,1483.6
201910120336,1483.6,1483.7,1483.5,1483.7
201910120337,1483.7,1484,1483.7,1483.9
201910120338,1483.9,1483.9,1483.6,1483.6
201910120339,1483.6,1484.1,1483.6,1484.1
201910120340,1484,1484.1,1483.6,1484
201910120341,1484,1484.1,1484,1484.1
201910120342,1484.1,1484.2,1484,1484.2
201910120343,1484.2,1484.4,1484,1484.3
201910120344,1484.3,1484.4,1484.1,1484.3
201910120345,1484.3,1484.3,1484,1484
201910120346,1484,1484.2,1484,1484
201910120347,1484,1484.1,1484,1484.1
201910120348,1484.1,1484.5,1484,1484.4
201910120349,1484.4,1484.4,1484.3,1484.4
201910120350,1484.4,1484.7,1484.3,1484.4
201910120351,1484.4,1484.7,1484.4,1484.7
201910120352,1484.7,1484.7,1484.6,1484.6
201910120353,1484.6,1484.9,1484.6,1484.9
201910120354,1484.9,1485.1,1484.8,1485.1
201910120355,1485.1,1485.2,1484.9,1485
201910120356,1485,1485,1484.3,1484.3
201910120357,1484.3,1484.5,1484.2,1484.2
201910120358,1484.3,1484.7,1484.3,1484.7
201910120359,1484.7,1484.7,1483.9,1484
201910120400,1484,1484.1,1483.6,1483.6
201910120401,1483.6,1483.7,1483.2,1483.3
201910120402,1483.4,1483.4,1482.9,1483.1
201910120403,1483.1,1483.1,1482.5,1482.5
201910120404,1482.5,1482.8,1482.3,1482.6
201910120405,1482.6,1482.8,1482.2,1482.5
201910120406,1482.7,1483,1482.7,1482.9
201910120407,1482.9,1483.5,1482.9,1483.2
201910120408,1483.2,1483.4,1483.1,1483.1
201910120409,1483.1,1483.4,1482.5,1482.5
201910120410,1482.5,1482.9,1482.5,1482.8
201910120411,1482.8,1483,1482.6,1482.6
201910120412,1482.7,1482.8,1482.3,1482.6
201910120413,1482.6,1482.6,1482.2,1482.3
201910120414,1482.3,1482.4,1482,1482
201910120415,1482,1482.4,1482,1482.1
201910120416,1482.1,1482.5,1482,1482.5
201910120417,1482.5,1483.1,1482.5,1482.8
201910120418,1482.8,1483,1482.7,1482.8
201910120419,1482.9,1483.2,1482.8,1482.9
201910120420,1482.9,1483.1,1482.8,1483
201910120421,1483,1483.1,1482.9,1482.9
201910120422,1482.9,1483.2,1482.9,1483.1
201910120423,1483.2,1483.2,1482.9,1483
201910120424,1483,1483,1482.7,1482.7
201910120425,1482.7,1482.9,1482.5,1482.5
201910120426,1482.5,1482.6,1482.3,1482.3
201910120427,1482.3,1482.5,1482.2,1482.5
201910120428,1482.5,1482.8,1482,1482.2
201910120429,1482.2,1482.4,1481.6,1481.8
201910120430,1481.8,1482.1,1481.7,1481.9
201910120431,1481.9,1482.3,1481.8,1482
201910120432,1482,1482.3,1481.9,1482.1
201910120433,1482.1,1482.5,1481.9,1482
201910120434,1482,1482.2,1481.8,1482.1
201910120435,1482.1,1482.1,1481.6,1481.6
201910120436,1481.6,1481.6,1481.6,1481.6
201910120437,1481.6,1481.9,1481.4,1481.5
201910120438,1481.5,1481.9,1480.9,1481.8
201910120439,1481.8,1481.8,1479.3,1479.3
201910120440,1479.3,1480.5,1479.3,1480.4
201910120441,1480.4,1481.3,1480.3,1481.1
201910120442,1481.1,1481.7,1481.1,1481.2
201910120443,1481.2,1481.2,1480.8,1481
201910120444,1481,1482.9,1481,1482.9
201910120445,1483,1483.8,1482.9,1483
201910120446,1483,1484.6,1483,1484.4
201910120447,1484.4,1486.5,1484.4,1486.5
201910120448,1486.5,1486.6,1484.7,1484.7
201910120449,1484.7,1485,1483.2,1485
201910120450,1485,1485.3,1484.5,1485.1
201910120451,1485.1,1485.1,1484,1484.1
201910120452,1484,1484.6,1483.9,1484.2
201910120453,1484.1,1485.1,1484.1,1485
201910120454,1485,1486.2,1484.5,1485.7
201910120455,1485.6,1486.3,1485.5,1486.3
201910120456,1486.3,1486.7,1485.6,1485.9
201910120457,1485.9,1486.5,1485.8,1485.9
201910120458,1486,1486.1,1485.6,1485.7
201910120459,1485.7,1485.9,1485.6,1485.8
201910120500,1485.6,1485.8,1485.3,1485.7
201910120501,1485.7,1486.1,1485.7,1485.9
201910120502,1485.9,1486.1,1485.8,1485.9
201910120503,1485.9,1486.6,1485.9,1486.2
201910120504,1486.2,1486.3,1486.1,1486.2
201910120505,1486.2,1487.2,1486.2,1487
201910120506,1487,1487,1486.4,1486.5
201910120507,1486.5,1486.9,1486.4,1486.8
201910120508,1486.8,1488.1,1486.8,1487.5
201910120509,1487.6,1488.1,1487.5,1488
201910120510,1488,1488.1,1487.5,1487.5
201910120511,1487.4,1487.7,1487.3,1487.4
201910120512,1487.4,1487.7,1487.3,1487.3
201910120513,1487.3,1487.4,1486.9,1486.9
201910120514,1486.9,1487.2,1486.7,1487.1
201910120515,1487.2,1487.5,1487.2,1487.5
201910120516,1487.5,1487.8,1487.4,1487.6
201910120517,1487.6,1487.8,1487.5,1487.8
201910120518,1487.8,1487.8,1487.7,1487.8
201910120519,1487.8,1487.8,1487.7,1487.7
201910120520,1487.7,1487.8,1487.3,1487.3
201910120521,1487.3,1487.4,1487.3,1487.4
201910120522,1487.4,1487.4,1487.4,1487.4
201910120523,1487.4,1487.4,1487.2,1487.2
201910120524,1487.2,1487.4,1487.2,1487.3
201910120525,1487.3,1487.3,1487.2,1487.2
201910120526,1487.2,1487.2,1487.2,1487.2
201910120527,1487.2,1487.3,1487,1487.1
201910120528,1487.1,1487.1,1487,1487.1
201910120529,1487.1,1487.1,1487,1487
201910120530,1487,1487.3,1487,1487.3
201910120531,1487.3,1487.5,1487.3,1487.4
201910120532,1487.4,1487.5,1487.2,1487.4
201910120533,1487.4,1487.5,1487.4,1487.4
201910120534,1487.4,1487.4,1487.4,1487.4
201910120535,1487.4,1487.4,1487.2,1487.2
201910120536,1487.2,1487.3,1487.2,1487.2
201910120537,1487.3,1487.3,1486.7,1486.8
201910120538,1486.8,1486.9,1486.7,1486.9
201910120539,1486.9,1487.2,1486.9,1487.2
201910120540,1487.2,1487.4,1487.2,1487.2
201910120541,1487.2,1487.4,1487.2,1487.3
201910120542,1487.3,1487.4,1487.2,1487.3
201910120543,1487.2,1487.2,1487,1487
201910120544,1487,1487.1,1486.9,1486.9
201910120545,1486.9,1487,1486.9,1486.9
201910120546,1486.9,1487.3,1486.9,1487.3
201910120547,1487.3,1487.3,1487.2,1487.2
201910120548,1487.2,1487.4,1487.2,1487.4
201910120549,1487.4,1487.6,1487.3,1487.6
201910120550,1487.5,1487.8,1487.5,1487.8
201910120551,1487.7,1487.8,1487.7,1487.8
201910120552,1487.8,1487.8,1487.6,1487.8
201910120553,1487.8,1487.9,1487.6,1487.8
201910120554,1487.8,1488,1487.6,1488
201910120555,1488,1488.2,1488,1488.2
201910120556,1488.2,1489.1,1488.1,1488.4
201910120557,1488.4,1488.7,1488.3,1488.6
201910120558,1488.6,1488.8,1488.2,1488.5
201910120559,1488.5,1488.9,1488.5,1488.8
