日時,始値(BID),高値(BID),安値(BID),終値(BID)
201910160700,1481.5,1481.5,1481.2,1481.3
201910160701,1481.3,1481.3,1480.9,1480.9
201910160702,1480.9,1481.1,1480.9,1480.9
201910160703,1480.8,1481.1,1480.8,1481.1
201910160704,1481.1,1481.2,1481.1,1481.2
201910160705,1481.2,1481.2,1481.2,1481.2
201910160706,1481.2,1481.2,1481.2,1481.2
201910160707,1481.2,1481.2,1481.1,1481.2
201910160708,1481.2,1481.2,1481.1,1481.2
201910160709,1481.1,1481.2,1480.9,1481.2
201910160710,1481.2,1481.4,1481.2,1481.4
201910160711,1481.4,1481.4,1481.2,1481.2
201910160712,1481.2,1481.2,1481.2,1481.2
201910160713,1481.2,1481.3,1481.2,1481.3
201910160714,1481.3,1481.3,1481.2,1481.2
201910160715,1481.2,1481.2,1481,1481
201910160716,1481,1481.1,1480.9,1481.1
201910160717,1481.1,1481.1,1481.1,1481.1
201910160718,1481.1,1481.2,1481,1481.1
201910160719,1481.1,1481.1,1480.9,1480.9
201910160720,1480.9,1480.9,1480.6,1480.6
201910160721,1480.6,1480.8,1480.6,1480.6
201910160722,1480.6,1480.8,1480.6,1480.8
201910160723,1480.8,1480.9,1480.8,1480.9
201910160724,1480.9,1480.9,1480.9,1480.9
201910160725,1480.9,1480.9,1480.7,1480.7
201910160726,1480.7,1480.7,1480.7,1480.7
201910160727,1480.7,1480.7,1480.6,1480.6
201910160728,1480.6,1480.7,1480.6,1480.6
201910160729,1480.6,1480.6,1480.5,1480.6
201910160730,1480.6,1480.8,1480.6,1480.7
201910160731,1480.7,1480.7,1480.5,1480.6
201910160732,1480.6,1480.8,1480.6,1480.8
201910160733,1480.8,1480.8,1480.6,1480.6
201910160734,1480.7,1480.7,1480.4,1480.4
201910160735,1480.4,1480.7,1480.4,1480.7
201910160736,1480.7,1480.9,1480.7,1480.7
201910160737,1480.7,1480.8,1480.6,1480.7
201910160738,1480.7,1480.7,1480.6,1480.7
201910160739,1480.7,1480.9,1480.7,1480.8
201910160740,1480.8,1480.9,1480.6,1480.9
201910160741,1480.9,1481,1480.7,1480.7
201910160742,1480.7,1480.8,1480.6,1480.8
201910160743,1480.8,1480.8,1480.6,1480.6
201910160744,1480.6,1480.7,1480.6,1480.7
201910160745,1480.7,1480.8,1480.7,1480.8
201910160746,1480.8,1480.8,1480.8,1480.8
201910160747,1480.9,1480.9,1480.8,1480.9
201910160748,1480.9,1480.9,1480.8,1480.8
201910160749,1480.8,1480.8,1480.6,1480.7
201910160750,1480.7,1480.7,1480.6,1480.7
201910160751,1480.7,1480.7,1480.6,1480.7
201910160752,1480.7,1480.8,1480.7,1480.8
201910160753,1480.8,1480.8,1480.7,1480.8
201910160754,1480.8,1480.8,1480.7,1480.7
201910160755,1480.7,1480.8,1480.6,1480.8
201910160756,1480.8,1481.1,1480.7,1481
201910160757,1481.1,1481.1,1481,1481
201910160758,1481,1481,1481,1481
201910160759,1481,1481,1481,1481
201910160800,1481,1481.1,1480.8,1480.9
201910160801,1480.9,1481,1480.9,1480.9
201910160802,1480.9,1481.2,1480.9,1481
201910160803,1481,1481,1480.9,1481
201910160804,1481,1481,1480.9,1480.9
201910160805,1480.9,1481,1480.8,1480.8
201910160806,1480.8,1480.8,1480.7,1480.8
201910160807,1480.8,1480.9,1480.8,1480.9
201910160808,1480.9,1480.9,1480.8,1480.8
201910160809,1480.8,1481,1480.8,1480.8
201910160810,1480.8,1480.8,1480.5,1480.5
201910160811,1480.5,1480.6,1480.5,1480.6
201910160812,1480.6,1480.6,1480.5,1480.5
201910160813,1480.5,1480.5,1480.5,1480.5
201910160814,1480.5,1481.2,1480.5,1481
201910160815,1481,1481.1,1481,1481
201910160816,1481,1481.1,1481,1481.1
201910160817,1481,1481,1480.8,1480.8
201910160818,1480.8,1480.9,1480.8,1480.8
201910160819,1480.8,1480.8,1480.8,1480.8
201910160820,1480.8,1480.9,1480.8,1480.8
201910160821,1480.9,1480.9,1480.8,1480.8
201910160822,1480.8,1481.1,1480.7,1480.7
201910160823,1480.7,1480.8,1480.7,1480.8
201910160824,1480.8,1480.8,1480.7,1480.7
201910160825,1480.7,1481.1,1480.7,1481
201910160826,1481,1481.1,1481,1481
201910160827,1481,1481,1480.9,1480.9
201910160828,1480.9,1481,1480.8,1480.8
201910160829,1480.9,1481,1480.9,1480.9
201910160830,1480.9,1481.1,1480.9,1481
201910160831,1481,1481,1480.9,1480.9
201910160832,1480.9,1481,1480.9,1481
201910160833,1481,1481,1480.7,1480.7
201910160834,1480.7,1480.8,1480.7,1480.8
201910160835,1480.8,1480.8,1480.7,1480.8
201910160836,1480.8,1480.8,1480.7,1480.7
201910160837,1480.7,1480.8,1480.7,1480.8
201910160838,1480.8,1480.8,1480.5,1480.5
201910160839,1480.5,1480.6,1480.5,1480.6
201910160840,1480.6,1480.9,1480.6,1480.8
201910160841,1480.8,1480.9,1480.8,1480.9
201910160842,1480.9,1481.1,1480.9,1481.1
201910160843,1481.1,1481.1,1481.1,1481.1
201910160844,1481.1,1481.1,1481,1481.1
201910160845,1481.1,1481.4,1481.1,1481.4
201910160846,1481.4,1481.4,1481.4,1481.4
201910160847,1481.4,1481.5,1481.4,1481.5
201910160848,1481.5,1481.5,1481.5,1481.5
201910160849,1481.5,1481.5,1481.4,1481.5
201910160850,1481.5,1481.5,1481.4,1481.4
201910160851,1481.4,1481.6,1481.4,1481.4
201910160852,1481.4,1481.5,1481.3,1481.3
201910160853,1481.3,1481.4,1481.3,1481.3
201910160854,1481.3,1481.3,1481.3,1481.3
201910160855,1481.3,1481.6,1481.3,1481.5
201910160856,1481.5,1481.6,1481.5,1481.6
201910160857,1481.6,1481.6,1481.5,1481.6
201910160858,1481.6,1481.7,1481.6,1481.7
201910160859,1481.7,1481.9,1481.6,1481.9
201910160900,1481.9,1481.9,1481.5,1481.5
201910160901,1481.5,1481.7,1481.5,1481.6
201910160902,1481.6,1481.6,1481.4,1481.5
201910160903,1481.5,1481.8,1481.5,1481.7
201910160904,1481.7,1481.7,1481.5,1481.6
201910160905,1481.6,1481.7,1481.3,1481.3
201910160906,1481.3,1481.3,1480.8,1480.9
201910160907,1480.8,1481,1480.8,1481
201910160908,1481,1481.7,1481,1481.6
201910160909,1481.6,1481.6,1481.4,1481.5
201910160910,1481.5,1481.9,1481.5,1481.8
201910160911,1481.8,1481.8,1481.7,1481.8
201910160912,1481.8,1482,1481.8,1482
201910160913,1482,1482,1481.8,1481.9
201910160914,1481.9,1482,1481.8,1481.8
201910160915,1481.8,1481.8,1481.5,1481.5
201910160916,1481.5,1481.5,1481.3,1481.5
201910160917,1481.5,1481.7,1481.4,1481.7
201910160918,1481.7,1481.8,1481.7,1481.7
201910160919,1481.7,1481.8,1481.6,1481.7
201910160920,1481.7,1482,1481.7,1481.9
201910160921,1481.9,1482,1481.9,1482
201910160922,1482,1482.2,1482,1482.2
201910160923,1482.1,1482.3,1482,1482.2
201910160924,1482.2,1482.2,1481.8,1481.8
201910160925,1481.8,1482,1481.8,1482
201910160926,1482,1482,1481.9,1481.9
201910160927,1481.9,1482,1481.9,1481.9
201910160928,1481.9,1482,1481.9,1482
201910160929,1482,1482,1481.9,1481.9
201910160930,1481.9,1481.9,1481.8,1481.8
201910160931,1481.8,1481.9,1481.8,1481.8
201910160932,1481.9,1481.9,1481.8,1481.8
201910160933,1481.8,1481.9,1481.7,1481.7
201910160934,1481.7,1481.9,1481.7,1481.8
201910160935,1481.8,1481.9,1481.8,1481.9
201910160936,1482,1483.6,1482,1483.5
201910160937,1483.5,1484.3,1483.4,1484.1
201910160938,1484.2,1484.6,1484.1,1484.2
201910160939,1484.2,1484.5,1484.1,1484.3
201910160940,1484.3,1484.4,1483.9,1484.2
201910160941,1484.1,1484.7,1484.1,1484.6
201910160942,1484.6,1484.6,1484.3,1484.3
201910160943,1484.3,1484.5,1484.2,1484.3
201910160944,1484.3,1484.5,1484.2,1484.3
201910160945,1484.3,1484.4,1483.9,1483.9
201910160946,1483.9,1484,1483.8,1484
201910160947,1484,1484.5,1483.8,1484.5
201910160948,1484.5,1484.9,1484.4,1484.5
201910160949,1484.7,1484.7,1484.5,1484.5
201910160950,1484.5,1484.5,1484.1,1484.4
201910160951,1484.4,1484.4,1484,1484
201910160952,1484,1484.1,1484,1484.1
201910160953,1484.1,1484.1,1484,1484.1
201910160954,1484.1,1484.1,1484,1484
201910160955,1484,1484.2,1483.9,1484
201910160956,1484,1484,1483.4,1483.5
201910160957,1483.5,1483.7,1483.4,1483.7
201910160958,1483.7,1483.7,1483.6,1483.6
201910160959,1483.6,1483.7,1483.5,1483.5
201910161000,1483.5,1483.5,1482.7,1483.2
201910161001,1483.3,1483.3,1482.9,1483.1
201910161002,1483.1,1483.2,1483,1483.2
201910161003,1483.2,1483.8,1483.1,1483.6
201910161004,1483.6,1483.8,1483.3,1483.7
201910161005,1483.7,1483.7,1483.5,1483.6
201910161006,1483.6,1483.9,1483.4,1483.9
201910161007,1483.9,1483.9,1483.5,1483.6
201910161008,1483.6,1483.7,1483.3,1483.6
201910161009,1483.6,1483.8,1483.5,1483.7
201910161010,1483.7,1483.9,1483.7,1483.9
201910161011,1483.9,1484.3,1483.9,1484.1
201910161012,1484.1,1484.1,1483.5,1483.5
201910161013,1483.6,1483.7,1483.5,1483.7
201910161014,1483.7,1483.9,1483.6,1483.9
201910161015,1483.9,1483.9,1483.3,1483.5
201910161016,1483.5,1483.7,1483.5,1483.6
201910161017,1483.6,1483.6,1482.9,1483
201910161018,1483.1,1483.5,1482.9,1483.5
201910161019,1483.5,1484.5,1483.5,1484.1
201910161020,1484.1,1484.5,1483.9,1484.2
201910161021,1484.2,1484.3,1484.1,1484.1
201910161022,1484.1,1484.2,1483.9,1484
201910161023,1484,1484.2,1483.8,1483.9
201910161024,1483.9,1484,1483.7,1483.8
201910161025,1483.8,1484.2,1483.8,1484.1
201910161026,1484.1,1484.3,1483.9,1484.2
201910161027,1484.2,1484.3,1484,1484
201910161028,1484.1,1484.4,1484.1,1484.3
201910161029,1484.3,1484.4,1484.2,1484.4
201910161030,1484.4,1484.4,1484.2,1484.3
201910161031,1484.3,1484.3,1483.9,1483.9
201910161032,1483.9,1484,1483.5,1483.6
201910161033,1483.6,1483.7,1483.4,1483.4
201910161034,1483.4,1483.6,1483.4,1483.5
201910161035,1483.5,1483.7,1483.4,1483.7
201910161036,1483.7,1483.7,1483.5,1483.6
201910161037,1483.6,1483.6,1483.4,1483.5
201910161038,1483.5,1483.7,1483.1,1483.1
201910161039,1483.1,1483.1,1482.6,1483
201910161040,1483,1483.3,1482.8,1483.3
201910161041,1483.3,1483.3,1482.8,1482.9
201910161042,1482.9,1482.9,1482.7,1482.8
201910161043,1482.8,1482.8,1482.6,1482.7
201910161044,1482.7,1482.7,1482.4,1482.5
201910161045,1482.5,1482.8,1482.4,1482.7
201910161046,1482.7,1482.7,1482.2,1482.3
201910161047,1482.3,1482.4,1482.2,1482.3
201910161048,1482.4,1482.4,1482.1,1482.2
201910161049,1482.2,1482.4,1482,1482.3
201910161050,1482.4,1482.5,1482.3,1482.4
201910161051,1482.4,1482.5,1482.3,1482.4
201910161052,1482.4,1482.4,1482.2,1482.3
201910161053,1482.3,1482.4,1482.2,1482.4
201910161054,1482.4,1482.5,1482.3,1482.4
201910161055,1482.4,1482.7,1482.3,1482.7
201910161056,1482.7,1482.9,1482.7,1482.9
201910161057,1482.9,1482.9,1482.7,1482.9
201910161058,1482.9,1483,1482.7,1482.7
201910161059,1482.7,1483,1482.6,1482.9
201910161100,1483,1483,1482.8,1483
201910161101,1483,1483,1482.7,1482.9
201910161102,1482.9,1483.1,1482.9,1483.1
201910161103,1483.1,1483.4,1483.1,1483.1
201910161104,1483.1,1483.2,1483,1483.1
201910161105,1483.1,1483.1,1482.8,1482.8
201910161106,1482.8,1482.9,1482.6,1482.7
201910161107,1482.7,1482.7,1482.5,1482.5
201910161108,1482.5,1482.6,1482.5,1482.5
201910161109,1482.5,1482.6,1482.5,1482.6
201910161110,1482.6,1482.6,1482.4,1482.4
201910161111,1482.4,1482.4,1482.4,1482.4
201910161112,1482.4,1482.4,1482.2,1482.2
201910161113,1482.2,1482.4,1482.2,1482.3
201910161114,1482.4,1482.5,1482.4,1482.4
201910161115,1482.4,1482.4,1482.2,1482.2
201910161116,1482.2,1482.2,1482.1,1482.1
201910161117,1482.1,1482.2,1482.1,1482.2
201910161118,1482.2,1482.4,1482.2,1482.3
201910161119,1482.3,1482.3,1482,1482
201910161120,1482.1,1482.2,1482,1482
201910161121,1482,1482,1481.9,1482
201910161122,1482,1482.2,1481.9,1482
201910161123,1482.1,1482.1,1481.9,1482
201910161124,1482,1482.1,1482,1482.1
201910161125,1482.1,1482.2,1482,1482.1
201910161126,1482.2,1482.2,1482.1,1482.1
201910161127,1482.2,1482.2,1482,1482.1
201910161128,1482.1,1482.2,1482,1482
201910161129,1482,1482.1,1482,1482.1
201910161130,1482.2,1482.3,1482.2,1482.3
201910161131,1482.3,1482.3,1482.2,1482.3
201910161132,1482.3,1482.3,1482.1,1482.2
201910161133,1482.2,1482.2,1481.9,1482
201910161134,1482,1482.1,1481.9,1482
201910161135,1482,1482.1,1481.9,1482
201910161136,1482,1482.3,1482,1482.3
201910161137,1482.3,1482.4,1482.3,1482.4
201910161138,1482.4,1482.4,1482.3,1482.4
201910161139,1482.4,1482.5,1482.3,1482.5
201910161140,1482.5,1482.6,1482.4,1482.5
201910161141,1482.5,1482.6,1482.4,1482.6
201910161142,1482.6,1482.8,1482.6,1482.7
201910161143,1482.7,1482.8,1482.6,1482.7
201910161144,1482.7,1482.9,1482.7,1482.8
201910161145,1482.8,1482.8,1482.5,1482.5
201910161146,1482.5,1482.6,1482.5,1482.5
201910161147,1482.5,1482.6,1482.4,1482.4
201910161148,1482.4,1482.6,1482.4,1482.6
201910161149,1482.6,1482.7,1482.5,1482.7
201910161150,1482.7,1482.7,1482.5,1482.5
201910161151,1482.5,1482.5,1482.4,1482.4
201910161152,1482.4,1482.6,1482.4,1482.6
201910161153,1482.6,1482.7,1482.5,1482.6
201910161154,1482.6,1482.7,1482.6,1482.7
201910161155,1482.7,1482.8,1482.7,1482.8
201910161156,1482.8,1483,1482.8,1482.9
201910161157,1482.9,1483,1482.9,1482.9
201910161158,1482.9,1483,1482.9,1482.9
201910161159,1482.9,1482.9,1482.8,1482.8
201910161200,1482.8,1482.8,1482.6,1482.7
201910161201,1482.7,1482.8,1482.5,1482.6
201910161202,1482.6,1482.7,1482.6,1482.6
201910161203,1482.6,1482.6,1482.4,1482.5
201910161204,1482.5,1482.8,1482.4,1482.7
201910161205,1482.7,1482.7,1482.6,1482.7
201910161206,1482.7,1482.9,1482.7,1482.7
201910161207,1482.7,1482.8,1482.6,1482.6
201910161208,1482.6,1482.6,1482.5,1482.5
201910161209,1482.5,1482.7,1482.5,1482.6
201910161210,1482.6,1482.7,1482.4,1482.4
201910161211,1482.4,1482.4,1482.3,1482.4
201910161212,1482.3,1482.4,1482.3,1482.3
201910161213,1482.3,1482.4,1482.3,1482.3
201910161214,1482.3,1482.5,1482.3,1482.4
201910161215,1482.4,1482.9,1482.4,1482.9
201910161216,1482.9,1482.9,1482.7,1482.8
201910161217,1482.8,1483,1482.8,1482.9
201910161218,1483,1483.3,1482.9,1483.3
201910161219,1483.3,1483.4,1483.1,1483.4
201910161220,1483.4,1483.8,1483.4,1483.6
201910161221,1483.6,1483.8,1483.6,1483.8
201910161222,1483.8,1483.8,1483.6,1483.6
201910161223,1483.6,1483.8,1483.5,1483.7
201910161224,1483.7,1483.7,1483.5,1483.6
201910161225,1483.6,1483.6,1483.4,1483.4
201910161226,1483.4,1483.4,1483.3,1483.3
201910161227,1483.3,1483.5,1483.3,1483.4
201910161228,1483.4,1483.4,1483.3,1483.3
201910161229,1483.3,1483.4,1483.2,1483.2
201910161230,1483.2,1483.3,1483.2,1483.2
201910161231,1483.2,1483.4,1483.2,1483.2
201910161232,1483.2,1483.3,1483.2,1483.2
201910161233,1483.2,1483.3,1483.2,1483.2
201910161234,1483.2,1483.2,1483,1483
201910161235,1483,1483.1,1483,1483.1
201910161236,1483.1,1483.3,1483.1,1483.2
201910161237,1483.2,1483.2,1483.1,1483.1
201910161238,1483.1,1483.1,1483,1483
201910161239,1483,1483.1,1482.9,1482.9
201910161240,1482.9,1483.2,1482.9,1483.1
201910161241,1483.1,1483.2,1483.1,1483.1
201910161242,1483.1,1483.1,1482.9,1483
201910161243,1483,1483.1,1483,1483.1
201910161244,1483.1,1483.1,1483.1,1483.1
201910161245,1483.1,1483.3,1483.1,1483.3
201910161246,1483.2,1483.4,1483.2,1483.4
201910161247,1483.4,1483.5,1483.4,1483.4
201910161248,1483.5,1483.5,1483.4,1483.5
201910161249,1483.5,1483.6,1483.5,1483.6
201910161250,1483.6,1483.6,1483.5,1483.5
201910161251,1483.5,1483.6,1483.4,1483.4
201910161252,1483.4,1483.6,1483.4,1483.6
201910161253,1483.6,1483.6,1483.5,1483.5
201910161254,1483.5,1483.5,1483.4,1483.4
201910161255,1483.4,1483.4,1483.2,1483.3
201910161256,1483.3,1483.4,1483.2,1483.4
201910161257,1483.4,1483.6,1483.4,1483.4
201910161258,1483.4,1483.5,1483.3,1483.3
201910161259,1483.4,1483.4,1483.2,1483.3
201910161300,1483.2,1483.3,1483.2,1483.3
201910161301,1483.3,1483.4,1483.2,1483.2
201910161302,1483.2,1483.3,1483.2,1483.3
201910161303,1483.2,1483.3,1483.2,1483.3
201910161304,1483.3,1483.4,1483.3,1483.4
201910161305,1483.4,1483.4,1483.3,1483.4
201910161306,1483.4,1483.4,1483.2,1483.2
201910161307,1483.2,1483.5,1483.2,1483.5
201910161308,1483.5,1483.7,1483.5,1483.6
201910161309,1483.6,1483.8,1483.6,1483.7
201910161310,1483.7,1483.8,1483.6,1483.7
201910161311,1483.7,1483.9,1483.7,1483.8
201910161312,1483.8,1483.9,1483.8,1483.9
201910161313,1483.9,1484,1483.8,1484
201910161314,1484,1484.1,1483.9,1484
201910161315,1484,1484.1,1484,1484
201910161316,1484,1484.2,1484,1484.2
201910161317,1484.2,1484.2,1484,1484.1
201910161318,1484.1,1484.2,1484,1484
201910161319,1484,1484.1,1484,1484.1
201910161320,1484.1,1484.2,1484.1,1484.1
201910161321,1484.1,1484.2,1484,1484.1
201910161322,1484.1,1484.1,1483.9,1484
201910161323,1484,1484.1,1484,1484.1
201910161324,1484.1,1484.1,1484,1484
201910161325,1484,1484.1,1484,1484
201910161326,1484,1484,1483.9,1484
201910161327,1484,1484.1,1484,1484.1
201910161328,1484.1,1484.1,1483.9,1484
201910161329,1484,1484.2,1484,1484.2
201910161330,1484.2,1484.3,1484.2,1484.2
201910161331,1484.2,1484.5,1484.1,1484.4
201910161332,1484.4,1484.5,1484.4,1484.5
201910161333,1484.5,1484.5,1484.3,1484.3
201910161334,1484.3,1484.3,1484,1484
201910161335,1484,1484.1,1484,1484
201910161336,1484,1484.1,1484,1484.1
201910161337,1484.1,1484.1,1483.8,1483.8
201910161338,1483.8,1483.9,1483.8,1483.8
201910161339,1483.8,1483.9,1483.7,1483.7
201910161340,1483.7,1483.8,1483.6,1483.7
201910161341,1483.7,1483.8,1483.7,1483.7
201910161342,1483.7,1483.9,1483.7,1483.8
201910161343,1483.8,1483.9,1483.8,1483.9
201910161344,1483.9,1483.9,1483.8,1483.8
201910161345,1483.8,1483.9,1483.8,1483.9
201910161346,1483.9,1484,1483.9,1483.9
201910161347,1483.9,1484.1,1483.8,1484
201910161348,1484,1484.2,1484,1484.2
201910161349,1484.1,1484.2,1484.1,1484.1
201910161350,1484.1,1484.2,1484.1,1484.1
201910161351,1484.1,1484.2,1484.1,1484.2
201910161352,1484.1,1484.2,1484,1484.1
201910161353,1484.1,1484.1,1484,1484
201910161354,1484,1484.1,1484,1484
201910161355,1484,1484.1,1484,1484.1
201910161356,1484.1,1484.2,1484.1,1484.1
201910161357,1484.1,1484.2,1484.1,1484.1
201910161358,1484.1,1484.2,1484,1484.1
201910161359,1484.1,1484.2,1484.1,1484.2
201910161400,1484.2,1484.2,1483.9,1484
201910161401,1484,1484,1483.8,1483.8
201910161402,1483.8,1483.9,1483.8,1483.8
201910161403,1483.8,1483.8,1483.4,1483.4
201910161404,1483.4,1483.5,1483.3,1483.4
201910161405,1483.4,1483.4,1483.3,1483.3
201910161406,1483.3,1483.6,1483.3,1483.6
201910161407,1483.6,1483.6,1483.4,1483.4
201910161408,1483.4,1483.5,1483.3,1483.5
201910161409,1483.5,1483.5,1483.5,1483.5
201910161410,1483.5,1483.7,1483.5,1483.7
201910161411,1483.7,1483.7,1483.6,1483.7
201910161412,1483.7,1483.7,1483.5,1483.6
201910161413,1483.6,1483.6,1483.4,1483.5
201910161414,1483.5,1483.5,1483.4,1483.4
201910161415,1483.4,1483.5,1483.4,1483.4
201910161416,1483.4,1483.5,1483.4,1483.5
201910161417,1483.5,1483.6,1483.4,1483.6
201910161418,1483.6,1483.6,1483.5,1483.5
201910161419,1483.5,1483.6,1483.4,1483.5
201910161420,1483.5,1483.5,1483.4,1483.4
201910161421,1483.4,1483.5,1483.4,1483.4
201910161422,1483.4,1483.5,1483.4,1483.5
201910161423,1483.5,1483.7,1483.5,1483.6
201910161424,1483.6,1483.6,1483.5,1483.6
201910161425,1483.5,1483.9,1483.5,1483.9
201910161426,1483.9,1484,1483.9,1483.9
201910161427,1483.9,1484.1,1483.9,1484
201910161428,1484,1484.1,1484,1484.1
201910161429,1484.1,1484.1,1484,1484.1
201910161430,1484.1,1484.6,1484.1,1484.5
201910161431,1484.5,1484.5,1484.2,1484.2
201910161432,1484.2,1484.2,1484,1484
201910161433,1484.1,1484.2,1484,1484.1
201910161434,1484.1,1484.1,1483.6,1483.6
201910161435,1483.6,1483.8,1483.4,1483.4
201910161436,1483.4,1483.4,1483.3,1483.4
201910161437,1483.4,1483.7,1483.3,1483.6
201910161438,1483.6,1483.6,1483.3,1483.4
201910161439,1483.4,1483.5,1483.3,1483.4
201910161440,1483.4,1483.7,1483.4,1483.5
201910161441,1483.5,1483.5,1483,1483.1
201910161442,1483.1,1483.2,1483,1483.2
201910161443,1483.2,1483.3,1483.2,1483.3
201910161444,1483.3,1483.4,1483.3,1483.4
201910161445,1483.4,1483.7,1483.3,1483.3
201910161446,1483.3,1483.7,1483.3,1483.6
201910161447,1483.6,1483.6,1483.3,1483.5
201910161448,1483.5,1483.6,1483.3,1483.3
201910161449,1483.3,1483.7,1483.3,1483.7
201910161450,1483.7,1483.7,1483.5,1483.6
201910161451,1483.6,1483.9,1483.6,1483.8
201910161452,1483.8,1483.8,1483.6,1483.6
201910161453,1483.6,1483.6,1483.4,1483.5
201910161454,1483.5,1483.6,1483.4,1483.6
201910161455,1483.6,1483.6,1483.3,1483.6
201910161456,1483.6,1483.6,1483.4,1483.5
201910161457,1483.5,1483.6,1483.3,1483.6
201910161458,1483.6,1483.7,1483.5,1483.6
201910161459,1483.6,1483.7,1483.5,1483.6
201910161500,1483.6,1483.6,1483,1483
201910161501,1483,1483,1482.6,1482.8
201910161502,1482.8,1482.9,1482.3,1482.4
201910161503,1482.4,1482.4,1482.1,1482.1
201910161504,1482.1,1482.4,1482,1482.3
201910161505,1482.3,1482.3,1481.6,1481.8
201910161506,1481.8,1482,1481.6,1481.8
201910161507,1481.8,1481.9,1481.7,1481.9
201910161508,1481.9,1482,1481.5,1481.5
201910161509,1481.5,1481.8,1481.5,1481.6
201910161510,1481.6,1482,1481.6,1481.8
201910161511,1481.8,1481.9,1481.3,1481.3
201910161512,1481.3,1481.5,1481.1,1481.1
201910161513,1481.1,1481.3,1480.8,1480.9
201910161514,1480.9,1480.9,1480.4,1480.6
201910161515,1480.6,1480.9,1480,1480
201910161516,1480,1480.2,1479.4,1479.6
201910161517,1479.6,1480.1,1479.4,1479.9
201910161518,1479.9,1480.3,1479.9,1479.9
201910161519,1479.9,1480.3,1479.9,1480.1
201910161520,1480.1,1480.4,1479.9,1480.4
201910161521,1480.4,1480.6,1480.3,1480.6
201910161522,1480.6,1480.8,1480.4,1480.5
201910161523,1480.5,1480.6,1480,1480.2
201910161524,1480.2,1480.2,1479.6,1479.8
201910161525,1479.8,1479.8,1479.5,1479.6
201910161526,1479.6,1479.9,1479.6,1479.8
201910161527,1479.8,1480,1479.4,1479.4
201910161528,1479.4,1479.4,1478.6,1479
201910161529,1479.1,1479.2,1478.4,1478.4
201910161530,1478.4,1479.5,1478.4,1479.3
201910161531,1479.2,1479.5,1479.2,1479.3
201910161532,1479.3,1479.5,1479.3,1479.3
201910161533,1479.3,1479.5,1479.2,1479.5
201910161534,1479.4,1479.4,1479.1,1479.1
201910161535,1479.1,1479.8,1479.1,1479.8
201910161536,1479.8,1479.8,1479.5,1479.7
201910161537,1479.7,1479.9,1479.5,1479.9
201910161538,1479.9,1480.3,1479.9,1480.3
201910161539,1480.3,1480.5,1480.2,1480.4
201910161540,1480.4,1480.5,1480.3,1480.5
201910161541,1480.5,1480.9,1480.5,1480.9
201910161542,1480.9,1480.9,1480.5,1480.6
201910161543,1480.5,1480.8,1480.4,1480.4
201910161544,1480.4,1480.5,1480.3,1480.5
201910161545,1480.5,1480.6,1480.3,1480.3
201910161546,1480.3,1480.6,1480.1,1480.4
201910161547,1480.4,1480.5,1480,1480.1
201910161548,1480.1,1480.1,1479.6,1479.8
201910161549,1479.8,1480.4,1479.8,1480.4
201910161550,1480.4,1480.5,1480,1480.3
201910161551,1480.4,1480.4,1480,1480.4
201910161552,1480.4,1480.6,1480.3,1480.5
201910161553,1480.5,1480.8,1480.5,1480.6
201910161554,1480.6,1481,1480.6,1480.9
201910161555,1480.9,1481,1480.8,1481
201910161556,1481,1481.1,1480.8,1480.9
201910161557,1480.9,1481,1480.6,1481
201910161558,1481,1481,1480.8,1480.8
201910161559,1480.8,1481,1480.8,1480.8
201910161600,1480.8,1481.2,1480.1,1480.1
201910161601,1480.1,1481,1480.1,1481
201910161602,1481,1482,1481,1481.4
201910161603,1481.4,1481.9,1481.4,1481.4
201910161604,1481.3,1481.4,1481.1,1481.4
201910161605,1481.5,1481.8,1481.5,1481.7
201910161606,1481.7,1482.5,1481.7,1482.4
201910161607,1482.4,1482.5,1482,1482
201910161608,1482.1,1482.4,1482,1482.3
201910161609,1482.3,1482.6,1482.3,1482.6
201910161610,1482.6,1483.4,1482.6,1483.3
201910161611,1483.3,1483.6,1483.1,1483.1
201910161612,1483.1,1483.4,1483,1483.1
201910161613,1483.1,1483.2,1482.9,1483
201910161614,1483,1483.3,1482.9,1483.1
201910161615,1483.1,1483.5,1483,1483.2
201910161616,1483.2,1483.4,1483.1,1483.3
201910161617,1483.3,1483.9,1483.3,1483.6
201910161618,1483.6,1483.8,1483.6,1483.7
201910161619,1483.7,1484,1483.7,1483.8
201910161620,1483.8,1483.8,1483.5,1483.5
201910161621,1483.5,1483.6,1482.9,1482.9
201910161622,1482.9,1483.2,1482.9,1483.1
201910161623,1483.1,1483.2,1482.5,1482.5
201910161624,1482.5,1482.7,1482.4,1482.5
201910161625,1482.5,1483,1482.4,1483
201910161626,1483,1484.3,1482.7,1484.3
201910161627,1484.3,1484.5,1483.9,1484.4
201910161628,1484.4,1484.7,1483.6,1484.1
201910161629,1484.1,1484.6,1483.9,1484.2
201910161630,1484.2,1484.8,1484.2,1484.8
201910161631,1484.8,1484.8,1484.1,1484.6
201910161632,1484.6,1484.8,1484.1,1484.3
201910161633,1484.3,1484.4,1483.9,1484
201910161634,1484,1484,1483.5,1483.8
201910161635,1483.8,1484,1483.4,1483.6
201910161636,1483.6,1483.9,1483.6,1483.7
201910161637,1483.7,1483.7,1483.3,1483.6
201910161638,1483.6,1483.9,1483.4,1483.8
201910161639,1483.7,1484,1483.6,1484
201910161640,1484,1484.2,1483.9,1484
201910161641,1484,1484.2,1483.9,1484
201910161642,1484,1484.1,1483.8,1484.1
201910161643,1484.1,1484.3,1483.9,1484.1
201910161644,1484.1,1484.2,1484,1484.2
201910161645,1484.2,1484.7,1484.1,1484.4
201910161646,1484.4,1485.6,1484.4,1485.4
201910161647,1485.4,1485.4,1485.2,1485.3
201910161648,1485.3,1485.3,1484.6,1484.6
201910161649,1484.6,1484.7,1484.5,1484.6
201910161650,1484.6,1484.7,1484.5,1484.6
201910161651,1484.6,1484.6,1483.8,1483.9
201910161652,1483.9,1484,1483.4,1483.6
201910161653,1483.6,1483.8,1483.6,1483.8
201910161654,1483.8,1484.1,1483.7,1484
201910161655,1484,1484.2,1483.9,1484
201910161656,1484,1484.2,1483.9,1484.2
201910161657,1484.2,1484.2,1483.8,1483.9
201910161658,1484,1484,1483.5,1483.5
201910161659,1483.5,1483.6,1483.3,1483.3
201910161700,1483.3,1483.6,1483,1483.5
201910161701,1483.5,1484.3,1483.5,1484.1
201910161702,1484.1,1484.5,1483.9,1484.1
201910161703,1484.1,1484.8,1484,1484.8
201910161704,1484.8,1484.8,1484.2,1484.3
201910161705,1484.3,1484.3,1484,1484.2
201910161706,1484.2,1484.4,1484,1484.1
201910161707,1484.1,1484.4,1484,1484.3
201910161708,1484.3,1484.3,1484.1,1484.2
201910161709,1484.2,1484.4,1484.2,1484.3
201910161710,1484.3,1485.3,1484.3,1484.9
201910161711,1484.9,1485.4,1484.8,1485
201910161712,1485,1485.4,1485,1485.4
201910161713,1485.4,1485.5,1484.9,1485
201910161714,1485,1485.1,1484.9,1485
201910161715,1485,1485.2,1484.8,1484.8
201910161716,1484.8,1485,1484.6,1484.8
201910161717,1484.8,1484.8,1484.5,1484.5
201910161718,1484.5,1484.7,1484.4,1484.4
201910161719,1484.4,1484.5,1484.3,1484.3
201910161720,1484.3,1484.8,1484.3,1484.7
201910161721,1484.7,1484.7,1484.5,1484.7
201910161722,1484.7,1485,1484.7,1484.7
201910161723,1484.7,1484.8,1484.5,1484.5
201910161724,1484.5,1484.7,1484.4,1484.7
201910161725,1484.7,1484.7,1484.4,1484.5
201910161726,1484.5,1484.6,1484.4,1484.5
201910161727,1484.5,1484.6,1483.9,1484.1
201910161728,1484.1,1484.3,1483.9,1483.9
201910161729,1483.9,1484.1,1483.8,1483.8
201910161730,1483.8,1484.2,1483.7,1484
201910161731,1484.1,1484.1,1483.8,1484.1
201910161732,1484.1,1484.2,1484.1,1484.2
201910161733,1484.2,1484.4,1484.1,1484.1
201910161734,1484.1,1484.3,1484.1,1484.2
201910161735,1484.2,1484.2,1484,1484.2
201910161736,1484.2,1484.4,1484.2,1484.3
201910161737,1484.3,1484.4,1484.2,1484.2
201910161738,1484.2,1484.4,1483.9,1483.9
201910161739,1483.9,1484,1483.8,1484
201910161740,1484,1484.3,1484,1484.3
201910161741,1484.3,1484.4,1484.2,1484.3
201910161742,1484.3,1484.5,1484.3,1484.4
201910161743,1484.4,1484.5,1484.3,1484.4
201910161744,1484.4,1484.4,1484.3,1484.3
201910161745,1484.3,1484.5,1484.3,1484.5
201910161746,1484.5,1484.6,1484.4,1484.5
201910161747,1484.5,1484.6,1484.4,1484.4
201910161748,1484.4,1484.5,1484.3,1484.4
201910161749,1484.4,1484.4,1484.1,1484.2
201910161750,1484.2,1484.3,1484,1484.2
201910161751,1484.2,1484.3,1484,1484
201910161752,1484,1484.1,1483.9,1483.9
201910161753,1483.9,1484.1,1483.6,1484
201910161754,1484,1484,1483.5,1483.5
201910161755,1483.5,1483.8,1483.5,1483.7
201910161756,1483.7,1483.8,1483.4,1483.4
201910161757,1483.4,1483.5,1483.2,1483.5
201910161758,1483.5,1483.6,1483.4,1483.4
201910161759,1483.4,1483.6,1483.3,1483.5
201910161800,1483.5,1483.6,1483.3,1483.3
201910161801,1483.3,1485.3,1483.3,1485.3
201910161802,1485.4,1485.7,1484.3,1484.5
201910161803,1484.5,1484.7,1484.2,1484.3
201910161804,1484.3,1484.4,1484,1484.2
201910161805,1484.3,1484.3,1483.9,1484.1
201910161806,1484.1,1484.2,1484,1484.1
201910161807,1484.1,1484.1,1483.8,1484.1
201910161808,1484.1,1484.1,1483.9,1484
201910161809,1484,1484.1,1483.9,1484
201910161810,1484,1484,1483.6,1483.7
201910161811,1483.7,1483.9,1483.6,1483.6
201910161812,1483.6,1483.8,1483.6,1483.7
201910161813,1483.6,1483.7,1483.5,1483.7
201910161814,1483.7,1483.7,1483.4,1483.4
201910161815,1483.4,1483.6,1483.3,1483.4
201910161816,1483.4,1483.4,1483.1,1483.1
201910161817,1483.1,1483.2,1482.8,1483.1
201910161818,1483.1,1483.2,1482.8,1482.9
201910161819,1482.9,1482.9,1482.3,1482.3
201910161820,1482.3,1482.4,1481.8,1481.8
201910161821,1481.9,1482.1,1481.7,1482
201910161822,1482.1,1482.1,1481.7,1481.9
201910161823,1481.9,1482.4,1481.9,1482.3
201910161824,1482.3,1482.4,1482.1,1482.4
201910161825,1482.4,1482.5,1482.3,1482.3
201910161826,1482.3,1482.7,1482.3,1482.6
201910161827,1482.6,1482.7,1482.3,1482.5
201910161828,1482.5,1482.6,1482.4,1482.5
201910161829,1482.5,1482.5,1482.3,1482.4
201910161830,1482.4,1482.4,1482.2,1482.3
201910161831,1482.3,1482.4,1482.2,1482.4
201910161832,1482.4,1482.5,1482.2,1482.2
201910161833,1482.2,1482.3,1481.9,1481.9
201910161834,1481.9,1482,1481.8,1481.8
201910161835,1481.8,1482,1481.8,1482
201910161836,1481.9,1482.2,1481.9,1482.1
201910161837,1482.1,1482.4,1482,1482.4
201910161838,1482.4,1482.5,1482.3,1482.3
201910161839,1482.2,1482.2,1482.1,1482.2
201910161840,1482.2,1482.2,1482.1,1482.1
201910161841,1482.1,1482.7,1482.1,1482.7
201910161842,1482.7,1482.7,1482.5,1482.7
201910161843,1482.7,1482.7,1482.3,1482.5
201910161844,1482.5,1482.8,1482.5,1482.8
201910161845,1482.8,1482.9,1482.7,1482.8
201910161846,1482.8,1482.8,1482.5,1482.5
201910161847,1482.5,1483.1,1482.5,1483.1
201910161848,1483.1,1483.4,1483.1,1483.4
201910161849,1483.3,1483.4,1483.1,1483.2
201910161850,1483.2,1483.6,1483.1,1483.4
201910161851,1483.4,1483.5,1483.4,1483.4
201910161852,1483.3,1483.6,1483.3,1483.4
201910161853,1483.4,1483.7,1483.4,1483.7
201910161854,1483.7,1483.9,1483.6,1483.6
201910161855,1483.6,1483.9,1483.6,1483.7
201910161856,1483.7,1483.8,1483.3,1483.4
201910161857,1483.4,1483.5,1482.4,1482.5
201910161858,1482.5,1482.5,1482.1,1482.3
201910161859,1482.3,1482.4,1482,1482
201910161900,1482,1482.1,1481.3,1481.6
201910161901,1481.6,1481.7,1481.5,1481.5
201910161902,1481.6,1482,1481.4,1481.7
201910161903,1481.7,1481.9,1481.7,1481.7
201910161904,1481.7,1481.8,1481.3,1481.7
201910161905,1481.7,1481.8,1481.4,1481.4
201910161906,1481.4,1481.5,1481.1,1481.5
201910161907,1481.5,1481.8,1481.5,1481.7
201910161908,1481.7,1481.7,1480.6,1480.7
201910161909,1480.7,1481.6,1480.7,1481.6
201910161910,1481.6,1481.7,1481.3,1481.4
201910161911,1481.4,1481.5,1481.1,1481.3
201910161912,1481.3,1481.6,1481.3,1481.6
201910161913,1481.6,1482.3,1481.6,1482.3
201910161914,1482.4,1482.4,1482,1482.3
201910161915,1482.3,1482.6,1482.2,1482.6
201910161916,1482.5,1482.6,1482.3,1482.5
201910161917,1482.5,1482.6,1482.4,1482.5
201910161918,1482.5,1483,1482.4,1483
201910161919,1483,1483.1,1482.6,1483
201910161920,1483,1483,1482.6,1482.6
201910161921,1482.6,1482.7,1482.6,1482.6
201910161922,1482.6,1482.9,1482.6,1482.8
201910161923,1482.8,1482.9,1482.6,1482.7
201910161924,1482.7,1482.8,1482.7,1482.7
201910161925,1482.7,1482.8,1482.6,1482.7
201910161926,1482.7,1482.8,1482.7,1482.8
201910161927,1482.8,1483,1482.8,1482.9
201910161928,1482.9,1483,1482.7,1482.8
201910161929,1482.8,1483.1,1482.8,1482.8
201910161930,1482.8,1482.9,1482.4,1482.5
201910161931,1482.5,1482.5,1482.2,1482.5
201910161932,1482.5,1483,1482.4,1483
201910161933,1483,1483,1482.8,1482.8
201910161934,1482.8,1483.6,1482.6,1482.8
201910161935,1482.8,1482.9,1482,1482.3
201910161936,1482.4,1482.5,1482.3,1482.4
201910161937,1482.4,1482.4,1482.2,1482.2
201910161938,1482.2,1482.7,1482.2,1482.7
201910161939,1482.7,1482.7,1482.5,1482.6
201910161940,1482.6,1482.7,1482.4,1482.6
201910161941,1482.6,1482.7,1482.6,1482.7
201910161942,1482.7,1482.9,1482.6,1482.7
201910161943,1482.7,1482.9,1482.7,1482.9
201910161944,1482.9,1482.9,1482.7,1482.8
201910161945,1482.8,1483.1,1482.8,1483
201910161946,1483,1483.1,1482.9,1483
201910161947,1483,1483,1482.9,1483
201910161948,1482.9,1483,1482.8,1482.8
201910161949,1482.8,1482.9,1482.5,1482.6
201910161950,1482.6,1482.7,1482.5,1482.5
201910161951,1482.5,1482.5,1482.2,1482.2
201910161952,1482.2,1482.5,1482.1,1482.3
201910161953,1482.3,1482.3,1482.1,1482.1
201910161954,1482.1,1482.3,1481.9,1481.9
201910161955,1481.9,1482.1,1481.4,1481.5
201910161956,1481.5,1481.9,1481.5,1481.6
201910161957,1481.7,1482,1481.6,1481.7
201910161958,1481.7,1482,1481.6,1481.9
201910161959,1481.9,1481.9,1481.3,1481.5
201910162000,1481.5,1481.8,1481.1,1481.7
201910162001,1481.7,1481.7,1481.5,1481.6
201910162002,1481.6,1481.8,1481.5,1481.5
201910162003,1481.5,1481.6,1481.4,1481.6
201910162004,1481.6,1481.7,1481.5,1481.7
201910162005,1481.7,1481.7,1480.5,1481.3
201910162006,1481.3,1481.3,1480.9,1481
201910162007,1481,1481.3,1481,1481.1
201910162008,1481.1,1481.2,1480.9,1481.1
201910162009,1481.1,1481.1,1480.8,1480.9
201910162010,1480.9,1481.2,1480.9,1481.1
201910162011,1481.1,1481.1,1480.5,1480.6
201910162012,1480.6,1480.8,1480.6,1480.7
201910162013,1480.7,1481,1480.7,1481
201910162014,1481,1481,1480.6,1480.7
201910162015,1480.7,1480.9,1480.7,1480.8
201910162016,1480.8,1480.8,1480.5,1480.6
201910162017,1480.6,1480.7,1480.4,1480.5
201910162018,1480.5,1480.7,1480.2,1480.4
201910162019,1480.4,1480.5,1480.3,1480.5
201910162020,1480.5,1480.7,1480.5,1480.5
201910162021,1480.5,1480.5,1479.7,1479.8
201910162022,1479.8,1480.1,1479.6,1480.1
201910162023,1480.1,1480.2,1479.7,1479.9
201910162024,1479.9,1479.9,1479.5,1479.5
201910162025,1479.5,1479.6,1479.2,1479.5
201910162026,1479.5,1479.6,1479.3,1479.6
201910162027,1479.6,1480.1,1479.5,1479.7
201910162028,1479.7,1479.7,1479.3,1479.4
201910162029,1479.4,1479.6,1479.3,1479.5
201910162030,1479.5,1479.6,1479.3,1479.6
201910162031,1479.6,1479.9,1479.4,1479.9
201910162032,1479.9,1480,1479.8,1480
201910162033,1480,1480.2,1479.9,1480
201910162034,1480,1480.3,1479.7,1480.1
201910162035,1480.1,1480.8,1480.1,1480.7
201910162036,1480.7,1481,1480.7,1480.9
201910162037,1480.9,1481.1,1480.7,1481.1
201910162038,1481.1,1481.2,1481,1481.1
201910162039,1481.1,1481.1,1480.5,1480.5
201910162040,1480.5,1480.8,1480.5,1480.7
201910162041,1480.7,1482.1,1480.7,1481.9
201910162042,1482,1482,1481.4,1481.4
201910162043,1481.4,1481.7,1481.4,1481.4
201910162044,1481.4,1481.4,1481.2,1481.3
201910162045,1481.3,1481.3,1481,1481
201910162046,1481,1481,1480.7,1480.8
201910162047,1480.8,1481,1480.5,1480.5
201910162048,1480.5,1480.7,1480.4,1480.5
201910162049,1480.5,1480.9,1480.4,1480.8
201910162050,1480.9,1481.1,1480.8,1481
201910162051,1481,1481.3,1480.9,1480.9
201910162052,1480.9,1481.6,1480.9,1481.4
201910162053,1481.4,1481.5,1481.3,1481.3
201910162054,1481.3,1481.4,1481.2,1481.3
201910162055,1481.3,1481.3,1481,1481.3
201910162056,1481.3,1481.6,1481.2,1481.6
201910162057,1481.6,1481.6,1481.4,1481.4
201910162058,1481.4,1481.4,1481.2,1481.3
201910162059,1481.3,1481.9,1481.3,1481.8
201910162100,1481.8,1482.3,1481.3,1481.3
201910162101,1481.4,1481.4,1480.9,1481
201910162102,1481,1481.1,1480.9,1481
201910162103,1481,1481.2,1480.8,1481.1
201910162104,1481.1,1481.1,1480.5,1480.6
201910162105,1480.5,1480.7,1480.3,1480.7
201910162106,1480.7,1480.7,1480.3,1480.6
201910162107,1480.6,1480.8,1480.5,1480.6
201910162108,1480.6,1480.9,1480.6,1480.9
201910162109,1481,1481.3,1480.8,1480.8
201910162110,1480.8,1480.9,1480.7,1480.7
201910162111,1480.7,1480.7,1480.3,1480.3
201910162112,1480.4,1480.4,1479.9,1480.1
201910162113,1480.1,1480.2,1480,1480.1
201910162114,1480.1,1480.2,1479.8,1480
201910162115,1480,1480.2,1479.9,1480.1
201910162116,1480.1,1480.4,1480.1,1480.2
201910162117,1480.2,1480.2,1479.7,1479.8
201910162118,1479.8,1479.8,1478.8,1478.9
201910162119,1478.9,1479.2,1478.9,1478.9
201910162120,1478.9,1480.4,1478.8,1480.3
201910162121,1480.3,1480.6,1478.7,1478.8
201910162122,1478.8,1479,1477.8,1478
201910162123,1478,1478.3,1477.8,1478.3
201910162124,1478.2,1478.4,1477.3,1477.4
201910162125,1477.4,1477.6,1476.9,1476.9
201910162126,1477.1,1477.8,1477,1477.7
201910162127,1477.7,1478.6,1477.7,1478.5
201910162128,1478.5,1478.8,1478.3,1478.6
201910162129,1478.6,1480.2,1477.9,1478.6
201910162130,1478.7,1484.4,1478.7,1482.6
201910162131,1482.6,1482.9,1481.9,1482.7
201910162132,1482.7,1484,1482.5,1484
201910162133,1484,1484.1,1483,1483
201910162134,1483,1483.1,1482.2,1482.9
201910162135,1483,1484.1,1482.9,1483.9
201910162136,1483.9,1485.4,1483.8,1485.3
201910162137,1485.2,1487.3,1485.2,1486.6
201910162138,1486.6,1487.4,1485.9,1486.7
201910162139,1486.7,1486.9,1486.1,1486.6
201910162140,1486.7,1487,1486,1486.9
201910162141,1486.9,1487.2,1486,1486.1
201910162142,1486.1,1486.9,1486.1,1486.8
201910162143,1486.8,1486.9,1485.8,1486
201910162144,1486,1487.3,1486,1487.1
201910162145,1487.1,1487.8,1486.9,1487
201910162146,1487,1487,1486.3,1486.6
201910162147,1486.6,1486.7,1486.2,1486.4
201910162148,1486.4,1486.9,1486,1486.5
201910162149,1486.5,1486.8,1486.3,1486.5
201910162150,1486.5,1488.1,1486.1,1488
201910162151,1488,1488.2,1487.7,1488.1
201910162152,1488.1,1489.7,1488,1489.4
201910162153,1489.4,1489.7,1488.6,1488.9
201910162154,1488.9,1489.8,1488.8,1489.8
201910162155,1489.7,1490.3,1489.7,1490.3
201910162156,1490.3,1490.5,1490,1490
201910162157,1490,1490.7,1489.9,1490.5
201910162158,1490.6,1491.1,1490.5,1490.6
201910162159,1490.6,1490.7,1490.1,1490.5
201910162200,1490.5,1491,1489.7,1490.8
201910162201,1490.8,1491,1489.5,1489.7
201910162202,1489.7,1490.8,1489.6,1490.3
201910162203,1490.3,1491.4,1490.3,1490.7
201910162204,1490.7,1490.8,1490.2,1490.5
201910162205,1490.5,1490.8,1490.3,1490.6
201910162206,1490.5,1491.1,1490.5,1490.8
201910162207,1490.7,1491.1,1490.2,1490.2
201910162208,1490.2,1490.6,1490.1,1490.1
201910162209,1490.1,1490.1,1489.7,1489.8
201910162210,1489.8,1489.9,1489.1,1489.3
201910162211,1489.3,1489.4,1488.4,1488.4
201910162212,1488.4,1488.8,1488.2,1488.4
201910162213,1488.4,1489.1,1488.4,1489.1
201910162214,1489.1,1489.2,1488.7,1488.8
201910162215,1488.8,1489.4,1488.8,1489.3
201910162216,1489.3,1489.3,1488.7,1488.7
201910162217,1488.7,1488.9,1488.2,1488.4
201910162218,1488.4,1488.7,1488.4,1488.6
201910162219,1488.6,1488.9,1488.5,1488.5
201910162220,1488.6,1489.1,1488.5,1488.9
201910162221,1489,1489,1488.6,1488.6
201910162222,1488.6,1489.4,1488.6,1489.2
201910162223,1489.3,1489.6,1489,1489
201910162224,1489,1489.4,1489,1489.1
201910162225,1489.1,1489.3,1488,1488.1
201910162226,1488.1,1488.2,1487.8,1488
201910162227,1488,1488.2,1487.7,1488
201910162228,1488.1,1488.2,1487.1,1487.2
201910162229,1487.2,1487.2,1486.8,1487
201910162230,1487,1487.5,1487,1487.3
201910162231,1487.3,1487.6,1486.8,1487.3
201910162232,1487.3,1488.6,1487.3,1488.5
201910162233,1488.5,1488.7,1487.7,1487.7
201910162234,1487.8,1488.1,1486.9,1486.9
201910162235,1486.9,1487.6,1486.7,1487.6
201910162236,1487.6,1487.7,1486.7,1486.8
201910162237,1486.8,1486.8,1485.8,1485.9
201910162238,1485.9,1486,1485.2,1485.5
201910162239,1485.5,1485.5,1484.5,1485.2
201910162240,1485.2,1485.4,1484.5,1484.7
201910162241,1484.7,1484.8,1484,1484.8
201910162242,1484.8,1485.1,1484.5,1484.6
201910162243,1484.6,1484.6,1484.1,1484.2
201910162244,1484.2,1484.5,1483.8,1484.4
201910162245,1484.4,1485.2,1484.4,1485.1
201910162246,1485.1,1485.5,1485,1485.5
201910162247,1485.5,1485.6,1485.2,1485.4
201910162248,1485.4,1485.4,1484.9,1485.4
201910162249,1485.4,1485.4,1485,1485.3
201910162250,1485.2,1485.8,1485,1485.5
201910162251,1485.5,1485.7,1485.4,1485.7
201910162252,1485.7,1486,1485.7,1485.8
201910162253,1485.8,1486,1485.6,1485.8
201910162254,1485.8,1485.8,1485.4,1485.5
201910162255,1485.6,1485.7,1485.5,1485.6
201910162256,1485.6,1486,1485.4,1485.6
201910162257,1485.6,1486.5,1485.6,1486.1
201910162258,1486.2,1486.5,1486.2,1486.3
201910162259,1486.3,1486.7,1486.3,1486.7
201910162300,1486.6,1486.7,1485.4,1485.7
201910162301,1485.8,1485.8,1485,1485.1
201910162302,1485.1,1485.7,1485.1,1485.6
201910162303,1485.6,1485.9,1485.4,1485.9
201910162304,1485.9,1486.2,1485.6,1485.9
201910162305,1485.9,1486.2,1485.7,1486.1
201910162306,1486.1,1486.7,1486,1486.7
201910162307,1486.6,1486.7,1486.3,1486.4
201910162308,1486.4,1486.4,1485.8,1486.1
201910162309,1486.1,1486.3,1486,1486.1
201910162310,1486.1,1486.2,1485.3,1485.7
201910162311,1485.7,1485.7,1485.1,1485.3
201910162312,1485.3,1485.3,1484.7,1484.9
201910162313,1484.9,1485.2,1484.7,1485.2
201910162314,1485.2,1485.2,1484.7,1484.9
201910162315,1484.9,1485,1484.4,1484.5
201910162316,1484.5,1484.6,1484.3,1484.6
201910162317,1484.6,1484.6,1483.5,1483.6
201910162318,1483.6,1483.7,1482.9,1482.9
201910162319,1482.9,1483,1482.3,1482.5
201910162320,1482.5,1483.2,1482.2,1483.1
201910162321,1483.1,1483.9,1483.1,1483.8
201910162322,1483.8,1483.9,1483.6,1483.8
201910162323,1483.8,1483.9,1483.5,1483.6
201910162324,1483.6,1483.6,1483.1,1483.1
201910162325,1483.2,1483.7,1483,1483.6
201910162326,1483.5,1483.6,1483.2,1483.2
201910162327,1483.2,1483.5,1482.7,1483.3
201910162328,1483.3,1483.6,1483.2,1483.5
201910162329,1483.5,1483.6,1483.2,1483.2
201910162330,1483.2,1483.7,1483,1483.6
201910162331,1483.6,1483.9,1483.4,1483.5
201910162332,1483.5,1483.8,1483.3,1483.6
201910162333,1483.6,1484.2,1483.6,1484.2
201910162334,1484.2,1484.8,1484.1,1484.4
201910162335,1484.4,1484.5,1484,1484
201910162336,1484.1,1484.1,1483.6,1483.6
201910162337,1483.6,1483.7,1483.1,1483.6
201910162338,1483.7,1483.8,1482.9,1483
201910162339,1483,1483.1,1482.6,1482.9
201910162340,1482.9,1483.1,1482.7,1483
201910162341,1483,1483.1,1482.7,1482.8
201910162342,1482.8,1483.3,1482.6,1483.3
201910162343,1483.3,1483.6,1483.3,1483.5
201910162344,1483.5,1483.7,1483.2,1483.5
201910162345,1483.5,1483.5,1483.1,1483.5
201910162346,1483.5,1484.1,1483.3,1483.9
201910162347,1483.9,1484.2,1483.7,1484
201910162348,1484,1484.5,1484,1484.3
201910162349,1484.3,1484.8,1484.3,1484.5
201910162350,1484.5,1484.8,1484.4,1484.5
201910162351,1484.5,1484.6,1484.3,1484.4
201910162352,1484.5,1484.6,1484.1,1484.5
201910162353,1484.5,1484.9,1484.2,1484.2
201910162354,1484.2,1484.4,1484.2,1484.2
201910162355,1484.2,1484.3,1483.8,1483.9
201910162356,1483.9,1484.3,1483.9,1484.1
201910162357,1484.1,1484.4,1484.1,1484.3
201910162358,1484.3,1484.6,1484.2,1484.3
201910162359,1484.3,1485.4,1484.3,1485.2
201910170000,1485.3,1485.6,1485.3,1485.4
201910170001,1485.4,1485.4,1485,1485
201910170002,1485,1485.1,1484.8,1484.8
201910170003,1484.8,1485.1,1484.7,1485.1
201910170004,1485.1,1485.1,1484.8,1485
201910170005,1484.9,1485,1484.5,1484.5
201910170006,1484.4,1484.9,1484.4,1484.8
201910170007,1484.8,1485.3,1484.8,1485.3
201910170008,1485.3,1485.5,1485.2,1485.3
201910170009,1485.3,1485.5,1485.2,1485.4
201910170010,1485.4,1485.4,1485.1,1485.3
201910170011,1485.3,1485.8,1485.2,1485.8
201910170012,1485.8,1485.9,1485.6,1485.7
201910170013,1485.6,1485.8,1485.4,1485.6
201910170014,1485.6,1486,1485.6,1486
201910170015,1486,1486.3,1486,1486.1
201910170016,1486.1,1486.6,1486.1,1486.6
201910170017,1486.6,1486.8,1486.3,1486.7
201910170018,1486.7,1486.9,1486.3,1486.4
201910170019,1486.4,1486.6,1486.2,1486.4
201910170020,1486.4,1486.7,1486.3,1486.7
201910170021,1486.7,1486.9,1486.6,1486.7
201910170022,1486.7,1486.8,1486.5,1486.8
201910170023,1486.8,1487.3,1486.8,1487
201910170024,1487,1487.1,1486.8,1487.1
201910170025,1487.1,1487.5,1487.1,1487.5
201910170026,1487.5,1487.5,1487,1487
201910170027,1487,1487.2,1486.9,1487.2
201910170028,1487.2,1487.3,1487.1,1487.2
201910170029,1487.2,1487.5,1487.1,1487.4
201910170030,1487.5,1487.7,1487.1,1487.7
201910170031,1487.6,1488,1487.5,1487.8
201910170032,1487.8,1488,1487.6,1488
201910170033,1488,1488.2,1487.8,1488
201910170034,1488,1488,1487.5,1487.6
201910170035,1487.6,1487.6,1487.2,1487.4
201910170036,1487.4,1487.5,1487,1487
201910170037,1487,1487.1,1486.7,1487
201910170038,1487,1487.1,1486.9,1487
201910170039,1487,1487,1486.8,1486.8
201910170040,1486.8,1487,1486.7,1486.8
201910170041,1486.8,1487.2,1486.8,1487
201910170042,1487,1487.1,1486.8,1486.8
201910170043,1486.8,1486.8,1486.5,1486.7
201910170044,1486.7,1486.7,1486.2,1486.3
201910170045,1486.3,1486.3,1486,1486.1
201910170046,1486.1,1486.6,1486.1,1486.5
201910170047,1486.5,1486.5,1486.3,1486.3
201910170048,1486.3,1486.3,1486,1486.1
201910170049,1486.1,1486.3,1485.1,1485.3
201910170050,1485.3,1486.4,1485.1,1486.3
201910170051,1486.3,1486.9,1486.3,1486.9
201910170052,1486.9,1486.9,1486.6,1486.8
201910170053,1486.8,1487.1,1486.8,1487.1
201910170054,1487,1487.4,1486.9,1487.3
201910170055,1487.3,1487.6,1487.2,1487.6
201910170056,1487.6,1487.6,1487.3,1487.4
201910170057,1487.4,1487.8,1487.3,1487.6
201910170058,1487.7,1487.9,1487.5,1487.9
201910170059,1487.9,1488.1,1487.8,1487.9
201910170100,1487.9,1488,1487.7,1487.7
201910170101,1487.7,1487.9,1487.6,1487.7
201910170102,1487.6,1487.7,1487.4,1487.4
201910170103,1487.3,1487.7,1487.3,1487.5
201910170104,1487.4,1487.8,1487.4,1487.7
201910170105,1487.7,1487.9,1487.5,1487.9
201910170106,1487.9,1488,1487.8,1488
201910170107,1488,1488.1,1487.8,1488.1
201910170108,1488.1,1488.4,1488.1,1488.3
201910170109,1488.3,1488.4,1488,1488.2
201910170110,1488.3,1488.6,1488,1488
201910170111,1488,1488.4,1488,1488.2
201910170112,1488.1,1488.3,1488,1488.1
201910170113,1488.1,1488.2,1488.1,1488.1
201910170114,1488.2,1488.4,1488,1488.4
201910170115,1488.4,1488.8,1488.4,1488.8
201910170116,1488.8,1488.8,1488.5,1488.6
201910170117,1488.6,1488.9,1488.6,1488.8
201910170118,1488.8,1488.9,1488.5,1488.8
201910170119,1488.8,1489.2,1488.8,1489.2
201910170120,1489.2,1489.2,1488.9,1488.9
201910170121,1488.9,1489,1488.9,1488.9
201910170122,1488.9,1489.2,1488.8,1489.1
201910170123,1489.1,1489.7,1489.1,1489.6
201910170124,1489.6,1489.6,1489.3,1489.3
201910170125,1489.3,1489.7,1489.3,1489.6
201910170126,1489.6,1489.6,1489.1,1489.2
201910170127,1489.2,1489.3,1489.1,1489.3
201910170128,1489.3,1489.7,1489.3,1489.6
201910170129,1489.6,1489.6,1489.4,1489.4
201910170130,1489.3,1489.4,1489.1,1489.1
201910170131,1489.1,1489.4,1489.1,1489.1
201910170132,1489.1,1489.3,1489.1,1489.2
201910170133,1489.2,1489.5,1489.2,1489.5
201910170134,1489.5,1489.5,1489.4,1489.4
201910170135,1489.4,1489.4,1489.1,1489.1
201910170136,1489.1,1489.2,1489,1489
201910170137,1489,1489.2,1489,1489.1
201910170138,1489.1,1489.2,1489,1489.2
201910170139,1489.2,1489.6,1489.2,1489.6
201910170140,1489.6,1489.8,1489.2,1489.2
201910170141,1489.2,1489.3,1489,1489
201910170142,1489,1489.4,1489,1489.4
201910170143,1489.4,1489.8,1489.4,1489.7
201910170144,1489.7,1489.7,1489.5,1489.5
201910170145,1489.5,1489.7,1489.2,1489.3
201910170146,1489.3,1489.3,1488.8,1489.1
201910170147,1489.1,1489.1,1488.7,1488.7
201910170148,1488.7,1488.8,1488.7,1488.8
201910170149,1488.8,1488.9,1488.5,1488.5
201910170150,1488.5,1488.8,1488.4,1488.8
201910170151,1488.8,1488.9,1488.7,1488.8
201910170152,1488.8,1489,1488.7,1488.8
201910170153,1488.8,1488.8,1488.7,1488.7
201910170154,1488.7,1488.8,1488.1,1488.1
201910170155,1488.1,1488.3,1488.1,1488.2
201910170156,1488.2,1488.5,1488.2,1488.5
201910170157,1488.5,1488.8,1488.5,1488.8
201910170158,1488.8,1488.9,1488.6,1488.9
201910170159,1488.9,1488.9,1488.6,1488.7
201910170200,1488.7,1488.7,1488.4,1488.6
201910170201,1488.6,1489,1488.6,1488.9
201910170202,1488.9,1489,1488.8,1488.9
201910170203,1488.9,1489.1,1488.8,1488.8
201910170204,1488.8,1489,1488.8,1488.9
201910170205,1488.9,1489.1,1488.8,1489
201910170206,1489.1,1489.1,1488.9,1489.1
201910170207,1489.1,1489.3,1489,1489.3
201910170208,1489.3,1489.3,1489.1,1489.1
201910170209,1489.1,1489.3,1488.8,1488.8
201910170210,1488.8,1488.9,1488.4,1488.4
201910170211,1488.4,1488.5,1488.1,1488.2
201910170212,1488.2,1488.5,1488.2,1488.3
201910170213,1488.3,1488.6,1488.2,1488.5
201910170214,1488.5,1488.7,1488.3,1488.4
201910170215,1488.4,1488.5,1488.2,1488.3
201910170216,1488.3,1488.4,1488.2,1488.4
201910170217,1488.4,1488.8,1488.4,1488.6
201910170218,1488.6,1488.7,1488.4,1488.6
201910170219,1488.6,1488.9,1488.6,1488.9
201910170220,1488.9,1489.1,1488.7,1489.1
201910170221,1489.1,1489.2,1489,1489
201910170222,1489,1489.5,1488.9,1489.5
201910170223,1489.4,1489.4,1488.9,1488.9
201910170224,1489,1489,1488.9,1488.9
201910170225,1488.9,1488.9,1488.5,1488.6
201910170226,1488.7,1488.9,1488.6,1488.6
201910170227,1488.6,1489.2,1488.6,1489.1
201910170228,1489.1,1489.8,1489.1,1489.6
201910170229,1489.6,1490.4,1489.6,1490.3
201910170230,1490.3,1490.4,1489.8,1489.8
201910170231,1489.8,1489.8,1489.5,1489.6
201910170232,1489.6,1489.6,1489.4,1489.4
201910170233,1489.4,1489.4,1489.2,1489.2
201910170234,1489.2,1489.4,1489.2,1489.3
201910170235,1489.3,1489.5,1489.2,1489.3
201910170236,1489.3,1489.6,1489.3,1489.5
201910170237,1489.5,1489.7,1489.5,1489.5
201910170238,1489.5,1489.7,1489.5,1489.6
201910170239,1489.6,1489.6,1489.3,1489.4
201910170240,1489.4,1489.4,1489.3,1489.4
201910170241,1489.4,1489.7,1489.4,1489.4
201910170242,1489.4,1489.4,1488.5,1488.7
201910170243,1488.7,1490.8,1488.3,1489.6
201910170244,1489.5,1489.5,1488.8,1488.8
201910170245,1488.8,1489,1488.6,1488.6
201910170246,1488.6,1488.7,1488,1488.2
201910170247,1488.2,1488.4,1487.9,1488
201910170248,1488,1488.5,1488,1488.3
201910170249,1488.3,1488.7,1488.3,1488.7
201910170250,1488.7,1488.7,1488.5,1488.6
201910170251,1488.6,1489.1,1488.3,1488.3
201910170252,1488.3,1488.7,1488.1,1488.7
201910170253,1488.7,1489.1,1488.6,1488.6
201910170254,1488.6,1488.9,1488.4,1488.7
201910170255,1488.7,1488.8,1488.4,1488.6
201910170256,1488.6,1488.9,1488.6,1488.8
201910170257,1488.8,1488.9,1488.7,1488.7
201910170258,1488.7,1489,1488.7,1488.8
201910170259,1488.8,1489.1,1488.8,1489.1
201910170300,1489.1,1489.1,1488.6,1489
201910170301,1489,1489.1,1488.7,1488.8
201910170302,1488.8,1488.9,1488.5,1488.6
201910170303,1488.5,1488.8,1488.3,1488.4
201910170304,1488.3,1488.4,1488.3,1488.4
201910170305,1488.3,1488.4,1488.2,1488.2
201910170306,1488.2,1488.4,1488.2,1488.2
201910170307,1488.2,1488.5,1488.1,1488.5
201910170308,1488.5,1488.5,1488.3,1488.5
201910170309,1488.5,1488.8,1488.5,1488.8
201910170310,1488.8,1488.9,1488.7,1488.7
201910170311,1488.7,1488.8,1488.5,1488.5
201910170312,1488.5,1488.8,1488.5,1488.8
201910170313,1488.8,1488.8,1488.5,1488.7
201910170314,1488.7,1488.7,1488.6,1488.6
201910170315,1488.6,1488.7,1488.6,1488.7
201910170316,1488.6,1488.8,1488.3,1488.3
201910170317,1488.3,1488.4,1488.2,1488.3
201910170318,1488.3,1488.3,1488.2,1488.3
201910170319,1488.3,1488.5,1488.1,1488.3
201910170320,1488.3,1488.3,1487.5,1487.8
201910170321,1487.8,1487.9,1487.2,1487.3
201910170322,1487.3,1487.4,1487,1487.1
201910170323,1487.1,1487.1,1486.7,1486.8
201910170324,1486.8,1486.9,1486.5,1486.7
201910170325,1486.7,1486.8,1486.1,1486.6
201910170326,1486.6,1486.8,1486.4,1486.4
201910170327,1486.4,1486.6,1486.4,1486.6
201910170328,1486.6,1487.3,1485.8,1487.3
201910170329,1487.3,1488,1487.2,1488
201910170330,1488,1488,1487.6,1487.8
201910170331,1487.8,1488.1,1487.5,1488
201910170332,1488,1488.2,1487.9,1487.9
201910170333,1488,1488.1,1487.8,1488
201910170334,1488,1488.1,1487.8,1487.8
201910170335,1487.8,1488.2,1487.8,1488
201910170336,1488,1488.2,1487.9,1488
201910170337,1488,1488.1,1487.7,1488
201910170338,1488,1488.3,1488,1488.3
201910170339,1488.4,1488.4,1488.1,1488.2
201910170340,1488.2,1488.5,1488.1,1488.4
201910170341,1488.4,1488.5,1488.2,1488.2
201910170342,1488.2,1488.3,1488,1488.1
201910170343,1488,1488.1,1488,1488.1
201910170344,1488.1,1488.1,1487.9,1488
201910170345,1488,1488.1,1487.8,1487.8
201910170346,1487.8,1488.1,1487.8,1488.1
201910170347,1488,1488.4,1488,1488.4
201910170348,1488.4,1488.4,1488.2,1488.2
201910170349,1488.2,1488.3,1488.1,1488.2
201910170350,1488.2,1488.3,1488.1,1488.2
201910170351,1488.2,1488.4,1488.1,1488.3
201910170352,1488.3,1488.9,1488.2,1488.8
201910170353,1488.7,1489,1488.6,1489
201910170354,1489,1489,1488.8,1488.9
201910170355,1488.9,1488.9,1488.7,1488.8
201910170356,1488.9,1488.9,1488.4,1488.8
201910170357,1488.8,1488.8,1488.5,1488.6
201910170358,1488.6,1488.7,1488.3,1488.6
201910170359,1488.6,1489.5,1488.6,1489.4
201910170400,1489.4,1489.4,1489.2,1489.2
201910170401,1489.2,1489.4,1489.1,1489.2
201910170402,1489.2,1489.5,1489.2,1489.3
201910170403,1489.3,1489.6,1489.3,1489.5
201910170404,1489.5,1489.8,1489.4,1489.7
201910170405,1489.7,1489.8,1489.7,1489.8
201910170406,1489.8,1489.8,1489.7,1489.7
201910170407,1489.7,1489.7,1489.6,1489.7
201910170408,1489.7,1489.7,1489.6,1489.6
201910170409,1489.6,1489.8,1489.6,1489.7
201910170410,1489.7,1489.7,1489.6,1489.7
201910170411,1489.7,1489.8,1489.7,1489.8
201910170412,1489.7,1489.8,1489.7,1489.8
201910170413,1489.8,1490.6,1489.8,1490.4
201910170414,1490.3,1490.4,1489.9,1490.1
201910170415,1490.1,1490.1,1489.9,1489.9
201910170416,1489.9,1490.2,1489.8,1490.1
201910170417,1490.1,1490.2,1490.1,1490.2
201910170418,1490.2,1490.4,1489.8,1489.9
201910170419,1489.9,1489.9,1489.8,1489.9
201910170420,1489.9,1489.9,1489.8,1489.8
201910170421,1489.8,1490.2,1489.8,1490
201910170422,1490,1490.1,1490,1490
201910170423,1490,1490,1489.8,1489.9
201910170424,1489.9,1490.1,1489.9,1490.1
201910170425,1490.1,1490.1,1490.1,1490.1
201910170426,1490.1,1490.1,1490,1490.1
201910170427,1490.1,1490.1,1489.7,1489.7
201910170428,1489.8,1490,1489.7,1489.9
201910170429,1489.9,1489.9,1489.9,1489.9
201910170430,1489.9,1490,1489.9,1489.9
201910170431,1489.9,1490.1,1489.9,1490
201910170432,1490,1490.3,1490,1490.1
201910170433,1490.2,1490.2,1489.7,1489.7
201910170434,1489.7,1490.2,1489.7,1490.2
201910170435,1490.2,1490.3,1490.1,1490.3
201910170436,1490.3,1490.3,1490.2,1490.2
201910170437,1490.2,1490.2,1490.1,1490.1
201910170438,1490.1,1490.4,1490.1,1490.4
201910170439,1490.4,1490.4,1490.3,1490.4
201910170440,1490.4,1490.4,1489.9,1489.9
201910170441,1489.9,1489.9,1489.4,1489.4
201910170442,1489.4,1489.4,1489.2,1489.3
201910170443,1489.3,1489.3,1489,1489.3
201910170444,1489.3,1489.6,1489.3,1489.3
201910170445,1489.3,1489.4,1489.2,1489.2
201910170446,1489.2,1489.2,1489,1489
201910170447,1489,1489.1,1488.9,1489.1
201910170448,1489.1,1489.2,1489,1489.2
201910170449,1489.2,1489.5,1489.2,1489.4
201910170450,1489.4,1489.4,1489.3,1489.3
201910170451,1489.3,1489.3,1489.1,1489.3
201910170452,1489.3,1489.4,1489.2,1489.2
201910170453,1489.2,1489.5,1489.2,1489.5
201910170454,1489.5,1489.8,1489.5,1489.7
201910170455,1489.7,1489.8,1489.7,1489.7
201910170456,1489.7,1489.7,1489.4,1489.4
201910170457,1489.4,1489.6,1489.3,1489.4
201910170458,1489.4,1489.4,1489.2,1489.3
201910170459,1489.4,1489.8,1489.4,1489.4
201910170500,1489.4,1489.9,1489.4,1489.7
201910170501,1489.7,1489.8,1489.6,1489.8
201910170502,1489.8,1489.9,1489.8,1489.8
201910170503,1489.8,1489.9,1489.8,1489.9
201910170504,1489.9,1490,1489.8,1489.8
201910170505,1489.8,1489.8,1489.8,1489.8
201910170506,1489.8,1489.8,1489.6,1489.6
201910170507,1489.6,1489.7,1489.6,1489.6
201910170508,1489.6,1489.8,1489.6,1489.8
201910170509,1489.8,1489.8,1489.8,1489.8
201910170510,1489.8,1489.8,1489.8,1489.8
201910170511,1489.8,1489.9,1489.8,1489.8
201910170512,1489.8,1489.9,1489.8,1489.8
201910170513,1489.8,1489.8,1489.6,1489.7
201910170514,1489.7,1489.8,1489.7,1489.8
201910170515,1489.8,1489.8,1489.7,1489.7
201910170516,1489.7,1489.9,1489.7,1489.9
201910170517,1489.9,1489.9,1489.9,1489.9
201910170518,1489.9,1489.9,1489.9,1489.9
201910170519,1489.9,1489.9,1489.8,1489.8
201910170520,1489.8,1489.9,1489.8,1489.9
201910170521,1489.9,1489.9,1489.8,1489.8
201910170522,1489.8,1489.9,1489.8,1489.9
201910170523,1489.9,1489.9,1489.9,1489.9
201910170524,1489.9,1489.9,1489.7,1489.7
201910170525,1489.7,1489.8,1489.7,1489.7
201910170526,1489.7,1489.9,1489.7,1489.8
201910170527,1489.8,1489.9,1489.7,1489.9
201910170528,1489.9,1489.9,1489.8,1489.9
201910170529,1489.9,1489.9,1489.8,1489.8
201910170530,1489.8,1490.1,1489.8,1490
201910170531,1489.9,1490.1,1489.9,1490.1
201910170532,1490.1,1490.1,1489.9,1489.9
201910170533,1489.8,1490,1489.8,1490
201910170534,1490,1490.1,1489.9,1490
201910170535,1490,1490.1,1490,1490.1
201910170536,1490.1,1490.1,1490,1490
201910170537,1490,1490,1490,1490
201910170538,1490,1490,1490,1490
201910170539,1490,1490,1489.8,1489.8
201910170540,1489.8,1489.8,1489.6,1489.6
201910170541,1489.6,1489.7,1489.5,1489.5
201910170542,1489.5,1489.6,1489.3,1489.3
201910170543,1489.3,1489.7,1489.3,1489.6
201910170544,1489.6,1489.7,1489.5,1489.6
201910170545,1489.6,1489.6,1489.5,1489.5
201910170546,1489.5,1489.6,1489.5,1489.5
201910170547,1489.5,1489.7,1489.5,1489.7
201910170548,1489.6,1489.7,1489.6,1489.6
201910170549,1489.6,1489.7,1489.6,1489.6
201910170550,1489.6,1489.8,1489.6,1489.7
201910170551,1489.7,1489.7,1489.5,1489.5
201910170552,1489.5,1489.6,1489.4,1489.5
201910170553,1489.5,1489.5,1489.4,1489.4
201910170554,1489.4,1489.5,1489.4,1489.5
201910170555,1489.5,1489.8,1489.4,1489.5
201910170556,1489.5,1489.8,1489.4,1489.4
201910170557,1489.4,1489.5,1489.3,1489.4
201910170558,1489.4,1489.9,1489.4,1489.9
201910170559,1489.8,1489.9,1489.7,1489.9
