日時,始値(BID),高値(BID),安値(BID),終値(BID)
201901090800,23724,23736,23713,23728
201901090801,23736,23742,23727,23742
201901090802,23742,23751,23740,23750
201901090803,23750,23753,23744,23752
201901090804,23752,23752,23749,23750
201901090805,23750,23753,23746,23752
201901090806,23752,23755,23745,23747
201901090807,23747,23755,23747,23752
201901090808,23752,23752,23744,23749
201901090809,23749,23752,23748,23751
201901090810,23751,23760,23750,23757
201901090811,23757,23764,23757,23760
201901090812,23761,23771,23760,23760
201901090813,23760,23762,23758,23761
201901090814,23761,23761,23757,23758
201901090815,23758,23760,23751,23751
201901090816,23751,23753,23747,23751
201901090817,23751,23752,23751,23751
201901090818,23751,23752,23751,23752
201901090819,23751,23752,23742,23745
201901090820,23746,23753,23746,23751
201901090821,23751,23757,23751,23756
201901090822,23756,23756,23750,23750
201901090823,23749,23757,23749,23757
201901090824,23757,23759,23752,23752
201901090825,23752,23754,23747,23749
201901090826,23749,23751,23745,23751
201901090827,23751,23751,23750,23750
201901090828,23750,23750,23748,23750
201901090829,23750,23750,23746,23747
201901090830,23747,23749,23746,23746
201901090831,23745,23748,23744,23748
201901090832,23749,23750,23747,23749
201901090833,23749,23749,23744,23745
201901090834,23744,23748,23744,23748
201901090835,23748,23751,23747,23751
201901090836,23751,23757,23750,23756
201901090837,23756,23757,23752,23756
201901090838,23756,23758,23755,23756
201901090839,23756,23756,23755,23756
201901090840,23756,23756,23753,23754
201901090841,23754,23754,23751,23751
201901090842,23751,23754,23751,23753
201901090843,23753,23757,23753,23756
201901090844,23756,23758,23755,23756
201901090845,23756,23762,23755,23759
201901090846,23759,23762,23757,23762
201901090847,23762,23764,23760,23763
201901090848,23763,23769,23763,23768
201901090849,23768,23770,23766,23766
201901090850,23766,23767,23763,23764
201901090851,23762,23767,23762,23767
201901090852,23767,23768,23765,23768
201901090853,23768,23768,23763,23763
201901090854,23764,23767,23763,23766
201901090855,23766,23779,23766,23774
201901090856,23773,23794,23773,23793
201901090857,23792,23797,23789,23789
201901090858,23790,23790,23783,23784
201901090859,23784,23797,23784,23794
201901090900,23794,23794,23786,23788
201901090901,23787,23789,23786,23787
201901090902,23787,23791,23786,23786
201901090903,23786,23789,23784,23786
201901090904,23786,23790,23785,23788
201901090905,23788,23800,23788,23797
201901090906,23797,23799,23789,23789
201901090907,23789,23791,23788,23790
201901090908,23790,23796,23789,23791
201901090909,23791,23792,23787,23787
201901090910,23786,23788,23785,23787
201901090911,23787,23799,23786,23799
201901090912,23799,23818,23798,23813
201901090913,23813,23815,23808,23814
201901090914,23814,23814,23809,23811
201901090915,23811,23812,23802,23807
201901090916,23808,23808,23805,23808
201901090917,23808,23817,23808,23814
201901090918,23814,23815,23808,23808
201901090919,23808,23811,23807,23811
201901090920,23811,23811,23805,23805
201901090921,23806,23811,23805,23808
201901090922,23807,23811,23807,23810
201901090923,23810,23811,23808,23808
201901090924,23808,23811,23805,23805
201901090925,23806,23822,23805,23820
201901090926,23820,23820,23805,23806
201901090927,23806,23809,23801,23801
201901090928,23802,23808,23799,23807
201901090929,23807,23807,23802,23803
201901090930,23803,23803,23794,23796
201901090931,23796,23797,23791,23791
201901090932,23792,23795,23791,23794
201901090933,23795,23798,23794,23796
201901090934,23797,23797,23790,23795
201901090935,23795,23799,23793,23798
201901090936,23798,23801,23798,23801
201901090937,23802,23805,23799,23803
201901090938,23803,23804,23798,23800
201901090939,23800,23800,23790,23790
201901090940,23791,23800,23791,23797
201901090941,23797,23799,23794,23795
201901090942,23795,23797,23794,23796
201901090943,23796,23798,23794,23797
201901090944,23797,23798,23796,23796
201901090945,23797,23802,23796,23802
201901090946,23802,23809,23800,23804
201901090947,23804,23810,23804,23808
201901090948,23808,23816,23807,23812
201901090949,23811,23817,23811,23811
201901090950,23811,23811,23807,23811
201901090951,23811,23812,23804,23805
201901090952,23806,23806,23800,23803
201901090953,23803,23803,23799,23800
201901090954,23799,23802,23792,23792
201901090955,23792,23797,23792,23794
201901090956,23794,23795,23791,23795
201901090957,23795,23796,23785,23785
201901090958,23785,23785,23781,23784
201901090959,23785,23790,23784,23788
201901091000,23788,23790,23784,23787
201901091001,23788,23792,23785,23790
201901091002,23790,23793,23787,23787
201901091003,23787,23788,23784,23787
201901091004,23786,23791,23786,23791
201901091005,23791,23793,23790,23792
201901091006,23792,23793,23790,23792
201901091007,23792,23807,23791,23802
201901091008,23802,23806,23802,23804
201901091009,23804,23804,23801,23801
201901091010,23801,23803,23798,23802
201901091011,23802,23805,23801,23801
201901091012,23802,23803,23800,23803
201901091013,23803,23808,23803,23807
201901091014,23807,23811,23806,23807
201901091015,23808,23813,23805,23809
201901091016,23810,23816,23808,23814
201901091017,23814,23820,23814,23819
201901091018,23819,23828,23819,23826
201901091019,23826,23849,23826,23848
201901091020,23849,23852,23845,23849
201901091021,23849,23854,23847,23848
201901091022,23847,23854,23847,23854
201901091023,23853,23854,23849,23850
201901091024,23851,23851,23845,23847
201901091025,23847,23847,23841,23844
201901091026,23844,23847,23839,23839
201901091027,23839,23841,23836,23836
201901091028,23836,23838,23833,23837
201901091029,23837,23848,23835,23846
201901091030,23845,23846,23844,23844
201901091031,23845,23845,23834,23836
201901091032,23836,23847,23836,23844
201901091033,23848,23848,23837,23840
201901091034,23842,23844,23837,23837
201901091035,23838,23846,23838,23841
201901091036,23842,23843,23838,23838
201901091037,23838,23838,23834,23836
201901091038,23836,23838,23836,23836
201901091039,23835,23845,23835,23844
201901091040,23844,23847,23842,23846
201901091041,23846,23848,23843,23846
201901091042,23846,23847,23844,23845
201901091043,23845,23847,23843,23846
201901091044,23847,23854,23847,23853
201901091045,23854,23863,23854,23860
201901091046,23860,23861,23859,23860
201901091047,23860,23860,23856,23858
201901091048,23858,23864,23858,23864
201901091049,23865,23866,23858,23858
201901091050,23857,23862,23857,23858
201901091051,23855,23860,23855,23858
201901091052,23857,23857,23855,23856
201901091053,23855,23858,23855,23858
201901091054,23858,23859,23853,23853
201901091055,23852,23853,23850,23852
201901091056,23852,23858,23852,23858
201901091057,23858,23858,23853,23857
201901091058,23856,23862,23856,23862
201901091059,23862,23862,23859,23859
201901091100,23859,23860,23854,23854
201901091101,23854,23855,23852,23853
201901091102,23848,23855,23848,23855
201901091103,23854,23857,23853,23853
201901091104,23853,23857,23853,23854
201901091105,23854,23854,23852,23853
201901091106,23852,23854,23849,23849
201901091107,23849,23849,23843,23844
201901091108,23844,23846,23841,23846
201901091109,23846,23846,23840,23843
201901091110,23845,23848,23843,23843
201901091111,23843,23850,23843,23850
201901091112,23849,23866,23849,23865
201901091113,23865,23868,23854,23855
201901091114,23854,23858,23853,23853
201901091115,23851,23851,23844,23844
201901091116,23844,23845,23840,23843
201901091117,23844,23846,23840,23843
201901091118,23842,23845,23840,23844
201901091119,23845,23845,23835,23835
201901091120,23839,23839,23831,23838
201901091121,23839,23841,23837,23837
201901091122,23839,23843,23839,23843
201901091123,23842,23847,23842,23847
201901091124,23847,23851,23847,23849
201901091125,23847,23854,23847,23852
201901091126,23852,23857,23852,23854
201901091127,23854,23864,23854,23863
201901091128,23863,23863,23855,23855
201901091129,23855,23857,23853,23855
201901091130,23856,23858,23855,23855
201901091131,23856,23862,23855,23859
201901091132,23859,23865,23859,23865
201901091133,23865,23866,23861,23861
201901091134,23861,23862,23861,23861
201901091135,23861,23869,23861,23869
201901091136,23869,23872,23869,23870
201901091137,23867,23869,23865,23869
201901091138,23870,23885,23870,23878
201901091139,23878,23882,23878,23882
201901091140,23882,23882,23879,23882
201901091141,23882,23883,23881,23883
201901091142,23884,23886,23881,23881
201901091143,23881,23881,23875,23879
201901091144,23878,23878,23873,23874
201901091145,23874,23876,23873,23875
201901091146,23875,23877,23875,23877
201901091147,23875,23876,23874,23874
201901091148,23875,23877,23875,23876
201901091149,23877,23877,23874,23877
201901091150,23877,23877,23874,23874
201901091151,23874,23875,23870,23872
201901091152,23872,23872,23867,23867
201901091153,23867,23869,23862,23864
201901091154,23864,23869,23864,23866
201901091155,23864,23865,23861,23861
201901091156,23861,23862,23859,23859
201901091157,23859,23860,23857,23857
201901091158,23857,23863,23857,23863
201901091159,23863,23864,23859,23859
201901091200,23859,23860,23857,23859
201901091201,23859,23859,23853,23854
201901091202,23853,23854,23851,23852
201901091203,23853,23856,23853,23855
201901091204,23854,23855,23852,23854
201901091205,23854,23860,23854,23857
201901091206,23856,23860,23856,23858
201901091207,23858,23865,23858,23864
201901091208,23865,23867,23863,23867
201901091209,23867,23871,23867,23869
201901091210,23869,23871,23868,23868
201901091211,23866,23866,23863,23863
201901091212,23864,23865,23862,23863
201901091213,23863,23864,23862,23862
201901091214,23862,23862,23860,23860
201901091215,23860,23862,23858,23862
201901091216,23863,23866,23863,23865
201901091217,23865,23865,23861,23864
201901091218,23865,23865,23861,23862
201901091219,23862,23863,23861,23862
201901091220,23862,23863,23860,23863
201901091221,23863,23865,23861,23861
201901091222,23861,23862,23860,23860
201901091223,23860,23862,23859,23860
201901091224,23860,23863,23859,23860
201901091225,23860,23861,23859,23861
201901091226,23861,23862,23859,23861
201901091227,23860,23860,23859,23859
201901091228,23859,23859,23855,23855
201901091229,23854,23854,23852,23852
201901091230,23853,23855,23847,23849
201901091231,23849,23851,23846,23846
201901091232,23846,23849,23842,23843
201901091233,23844,23845,23844,23845
201901091234,23845,23850,23844,23850
201901091235,23850,23853,23850,23852
201901091236,23852,23859,23852,23859
201901091237,23858,23858,23854,23856
201901091238,23856,23856,23853,23853
201901091239,23853,23856,23853,23854
201901091240,23853,23866,23853,23863
201901091241,23863,23868,23862,23864
201901091242,23864,23867,23863,23865
201901091243,23865,23866,23859,23862
201901091244,23862,23862,23859,23859
201901091245,23860,23860,23857,23858
201901091246,23858,23858,23855,23857
201901091247,23856,23859,23855,23857
201901091248,23857,23860,23857,23859
201901091249,23859,23861,23857,23860
201901091250,23860,23861,23858,23858
201901091251,23858,23860,23857,23859
201901091252,23859,23859,23857,23857
201901091253,23857,23859,23857,23857
201901091254,23857,23860,23857,23860
201901091255,23860,23860,23859,23859
201901091256,23859,23867,23859,23862
201901091257,23863,23865,23862,23865
201901091258,23865,23865,23861,23863
201901091259,23863,23863,23861,23863
201901091300,23868,23870,23866,23868
201901091301,23868,23868,23867,23867
201901091302,23867,23868,23867,23868
201901091303,23867,23869,23865,23866
201901091304,23866,23866,23864,23864
201901091305,23863,23867,23863,23867
201901091306,23866,23869,23865,23869
201901091307,23869,23869,23867,23868
201901091308,23868,23872,23867,23868
201901091309,23868,23869,23866,23868
201901091310,23868,23868,23863,23866
201901091311,23866,23866,23865,23865
201901091312,23865,23868,23865,23868
201901091313,23867,23867,23864,23866
201901091314,23866,23868,23865,23868
201901091315,23868,23868,23862,23863
201901091316,23863,23864,23862,23862
201901091317,23862,23864,23862,23862
201901091318,23862,23865,23862,23865
201901091319,23865,23865,23863,23863
201901091320,23863,23865,23863,23865
201901091321,23865,23865,23863,23865
201901091322,23865,23866,23864,23865
201901091323,23865,23868,23863,23867
201901091324,23867,23869,23865,23866
201901091325,23866,23867,23865,23867
201901091326,23867,23867,23864,23865
201901091327,23866,23866,23862,23865
201901091328,23864,23865,23862,23862
201901091329,23862,23865,23861,23862
201901091330,23862,23864,23861,23862
201901091331,23862,23864,23862,23863
201901091332,23863,23865,23863,23865
201901091333,23865,23868,23864,23867
201901091334,23867,23867,23862,23862
201901091335,23862,23863,23859,23859
201901091336,23859,23860,23858,23858
201901091337,23858,23858,23857,23858
201901091338,23857,23860,23857,23858
201901091339,23858,23861,23858,23859
201901091340,23859,23859,23857,23859
201901091341,23859,23864,23859,23862
201901091342,23862,23864,23858,23858
201901091343,23859,23861,23858,23861
201901091344,23861,23861,23860,23860
201901091345,23860,23860,23858,23859
201901091346,23859,23859,23855,23856
201901091347,23856,23856,23849,23849
201901091348,23849,23849,23844,23847
201901091349,23846,23855,23845,23852
201901091350,23852,23853,23851,23851
201901091351,23851,23851,23850,23850
201901091352,23850,23854,23850,23851
201901091353,23851,23852,23849,23850
201901091354,23851,23852,23849,23851
201901091355,23851,23853,23851,23853
201901091356,23852,23856,23852,23855
201901091357,23855,23856,23855,23855
201901091358,23855,23858,23855,23857
201901091359,23857,23857,23855,23857
201901091400,23857,23857,23852,23853
201901091401,23853,23856,23853,23855
201901091402,23854,23855,23852,23855
201901091403,23855,23855,23844,23848
201901091404,23848,23850,23846,23848
201901091405,23848,23851,23847,23850
201901091406,23851,23852,23850,23852
201901091407,23852,23853,23850,23853
201901091408,23853,23853,23847,23847
201901091409,23847,23851,23847,23849
201901091410,23849,23852,23847,23852
201901091411,23852,23852,23849,23850
201901091412,23850,23851,23847,23848
201901091413,23848,23852,23848,23850
201901091414,23850,23855,23850,23853
201901091415,23853,23855,23853,23853
201901091416,23853,23857,23853,23855
201901091417,23855,23855,23853,23854
201901091418,23853,23856,23853,23853
201901091419,23854,23854,23852,23852
201901091420,23852,23853,23851,23853
201901091421,23852,23855,23852,23855
201901091422,23854,23856,23853,23853
201901091423,23853,23861,23853,23859
201901091424,23859,23867,23859,23865
201901091425,23864,23864,23860,23862
201901091426,23864,23864,23860,23862
201901091427,23862,23864,23862,23862
201901091428,23862,23864,23861,23862
201901091429,23862,23865,23862,23864
201901091430,23864,23864,23861,23861
201901091431,23861,23864,23860,23860
201901091432,23861,23862,23859,23861
201901091433,23861,23864,23860,23862
201901091434,23862,23864,23861,23862
201901091435,23862,23866,23862,23865
201901091436,23865,23867,23863,23866
201901091437,23866,23867,23859,23859
201901091438,23861,23861,23857,23858
201901091439,23857,23857,23851,23855
201901091440,23855,23855,23849,23851
201901091441,23851,23854,23850,23853
201901091442,23853,23854,23851,23851
201901091443,23851,23852,23850,23850
201901091444,23851,23853,23849,23852
201901091445,23852,23854,23852,23854
201901091446,23853,23854,23853,23853
201901091447,23853,23854,23853,23853
201901091448,23854,23858,23853,23857
201901091449,23856,23857,23853,23853
201901091450,23853,23857,23853,23857
201901091451,23857,23857,23853,23854
201901091452,23854,23854,23853,23854
201901091453,23855,23855,23853,23853
201901091454,23852,23852,23850,23851
201901091455,23850,23853,23849,23853
201901091456,23853,23856,23851,23856
201901091457,23856,23861,23855,23859
201901091458,23860,23860,23857,23858
201901091459,23858,23858,23852,23853
201901091500,23852,23852,23843,23846
201901091501,23846,23846,23841,23842
201901091502,23841,23845,23841,23841
201901091503,23841,23842,23837,23838
201901091504,23838,23841,23837,23839
201901091505,23839,23844,23838,23844
201901091506,23843,23844,23841,23841
201901091507,23841,23843,23839,23840
201901091508,23840,23843,23840,23843
201901091509,23843,23843,23841,23843
201901091510,23842,23843,23839,23843
201901091511,23843,23845,23841,23845
201901091512,23844,23848,23844,23844
201901091513,23844,23845,23842,23844
201901091514,23844,23846,23840,23841
201901091515,23842,23842,23832,23834
201901091516,23834,23836,23831,23832
201901091517,23832,23837,23831,23837
201901091518,23836,23837,23830,23832
201901091519,23832,23834,23831,23833
201901091520,23833,23835,23832,23833
201901091521,23833,23833,23824,23828
201901091522,23828,23831,23828,23828
201901091523,23829,23833,23829,23833
201901091524,23832,23835,23832,23834
201901091525,23834,23834,23829,23832
201901091526,23832,23835,23830,23834
201901091527,23834,23835,23833,23835
201901091528,23835,23835,23832,23833
201901091529,23834,23840,23834,23840
201901091530,23840,23841,23837,23840
201901091531,23839,23839,23833,23833
201901091532,23833,23835,23829,23830
201901091533,23830,23830,23824,23825
201901091534,23825,23827,23823,23826
201901091535,23825,23825,23821,23823
201901091536,23823,23824,23818,23818
201901091537,23818,23822,23816,23816
201901091538,23816,23816,23809,23809
201901091539,23809,23813,23809,23813
201901091540,23812,23816,23812,23816
201901091541,23817,23817,23811,23811
201901091542,23811,23811,23809,23809
201901091543,23809,23809,23806,23807
201901091544,23807,23808,23806,23807
201901091545,23807,23814,23807,23813
201901091546,23814,23819,23814,23818
201901091547,23818,23822,23816,23822
201901091548,23821,23822,23819,23820
201901091549,23818,23819,23814,23814
201901091550,23814,23816,23813,23816
201901091551,23816,23817,23814,23817
201901091552,23817,23819,23814,23815
201901091553,23815,23819,23815,23818
201901091554,23818,23820,23816,23819
201901091555,23819,23820,23813,23814
201901091556,23814,23814,23809,23809
201901091557,23809,23811,23802,23803
201901091558,23803,23804,23797,23803
201901091559,23802,23805,23801,23803
201901091600,23803,23804,23799,23804
201901091601,23805,23815,23805,23815
201901091602,23812,23819,23811,23815
201901091603,23816,23822,23816,23821
201901091604,23820,23821,23817,23819
201901091605,23819,23819,23811,23815
201901091606,23816,23825,23816,23823
201901091607,23822,23828,23821,23828
201901091608,23828,23828,23815,23816
201901091609,23816,23817,23810,23815
201901091610,23814,23822,23810,23822
201901091611,23821,23829,23821,23828
201901091612,23830,23837,23825,23836
201901091613,23836,23843,23836,23841
201901091614,23841,23842,23836,23837
201901091615,23838,23841,23834,23841
201901091616,23841,23844,23838,23839
201901091617,23838,23838,23826,23826
201901091618,23826,23832,23826,23832
201901091619,23831,23834,23825,23825
201901091620,23825,23828,23816,23816
201901091621,23817,23823,23816,23820
201901091622,23822,23827,23822,23827
201901091623,23827,23832,23827,23832
201901091624,23832,23832,23829,23830
201901091625,23829,23834,23829,23831
201901091626,23831,23831,23829,23831
201901091627,23831,23832,23825,23826
201901091628,23826,23828,23825,23826
201901091629,23826,23826,23823,23824
201901091630,23824,23828,23822,23822
201901091631,23820,23821,23807,23810
201901091632,23810,23813,23807,23810
201901091633,23814,23819,23813,23813
201901091634,23813,23818,23813,23815
201901091635,23813,23820,23813,23820
201901091636,23822,23823,23818,23818
201901091637,23818,23818,23815,23817
201901091638,23817,23822,23815,23821
201901091639,23824,23824,23816,23816
201901091640,23816,23819,23813,23814
201901091641,23814,23814,23805,23805
201901091642,23805,23805,23799,23801
201901091643,23802,23806,23802,23805
201901091644,23805,23808,23800,23802
201901091645,23801,23802,23799,23799
201901091646,23799,23799,23791,23797
201901091647,23798,23801,23795,23801
201901091648,23800,23809,23800,23803
201901091649,23803,23807,23803,23806
201901091650,23808,23808,23801,23806
201901091651,23806,23806,23804,23804
201901091652,23803,23807,23803,23806
201901091653,23801,23802,23797,23797
201901091654,23797,23798,23791,23791
201901091655,23792,23792,23786,23788
201901091656,23786,23786,23784,23785
201901091657,23783,23790,23783,23784
201901091658,23786,23789,23784,23788
201901091659,23787,23796,23787,23796
201901091700,23794,23804,23792,23794
201901091701,23797,23806,23793,23804
201901091702,23804,23804,23788,23789
201901091703,23789,23797,23789,23797
201901091704,23796,23800,23790,23790
201901091705,23790,23793,23784,23786
201901091706,23784,23787,23777,23780
201901091707,23778,23788,23778,23788
201901091708,23789,23805,23788,23800
201901091709,23800,23801,23789,23789
201901091710,23785,23796,23783,23791
201901091711,23791,23801,23791,23793
201901091712,23795,23796,23788,23788
201901091713,23788,23788,23779,23779
201901091714,23780,23789,23780,23783
201901091715,23783,23786,23779,23784
201901091716,23784,23787,23781,23787
201901091717,23787,23796,23786,23791
201901091718,23790,23805,23790,23802
201901091719,23802,23806,23798,23803
201901091720,23804,23804,23796,23803
201901091721,23803,23806,23798,23801
201901091722,23802,23809,23796,23808
201901091723,23808,23809,23803,23804
201901091724,23803,23809,23801,23801
201901091725,23796,23796,23786,23792
201901091726,23792,23799,23792,23793
201901091727,23792,23798,23790,23793
201901091728,23793,23800,23790,23799
201901091729,23799,23808,23798,23807
201901091730,23809,23809,23794,23795
201901091731,23797,23803,23796,23800
201901091732,23799,23801,23793,23793
201901091733,23793,23801,23792,23796
201901091734,23795,23795,23788,23790
201901091735,23790,23794,23787,23790
201901091736,23792,23799,23790,23793
201901091737,23792,23798,23791,23796
201901091738,23795,23797,23795,23797
201901091739,23796,23802,23796,23798
201901091740,23798,23819,23798,23815
201901091741,23815,23822,23815,23816
201901091742,23817,23828,23815,23827
201901091743,23828,23830,23822,23823
201901091744,23825,23829,23822,23828
201901091745,23828,23829,23821,23821
201901091746,23821,23826,23821,23825
201901091747,23827,23834,23826,23828
201901091748,23830,23840,23830,23833
201901091749,23833,23836,23830,23833
201901091750,23837,23837,23828,23837
201901091751,23837,23841,23830,23830
201901091752,23830,23843,23830,23835
201901091753,23835,23838,23831,23832
201901091754,23831,23834,23829,23832
201901091755,23831,23837,23830,23832
201901091756,23832,23836,23830,23833
201901091757,23832,23834,23830,23832
201901091758,23832,23835,23828,23831
201901091759,23831,23832,23826,23830
201901091800,23830,23839,23830,23837
201901091801,23837,23838,23832,23832
201901091802,23832,23834,23830,23830
201901091803,23831,23831,23824,23827
201901091804,23827,23828,23823,23827
201901091805,23827,23827,23813,23815
201901091806,23815,23823,23815,23823
201901091807,23823,23827,23821,23823
201901091808,23823,23827,23821,23824
201901091809,23823,23830,23823,23830
201901091810,23827,23830,23823,23823
201901091811,23823,23830,23822,23829
201901091812,23829,23844,23828,23837
201901091813,23837,23838,23833,23833
201901091814,23834,23838,23832,23834
201901091815,23832,23839,23832,23839
201901091816,23838,23840,23835,23839
201901091817,23839,23844,23839,23841
201901091818,23841,23844,23838,23839
201901091819,23839,23843,23835,23843
201901091820,23843,23847,23842,23842
201901091821,23842,23851,23841,23849
201901091822,23849,23855,23846,23854
201901091823,23854,23862,23854,23859
201901091824,23859,23862,23856,23857
201901091825,23857,23860,23853,23853
201901091826,23853,23858,23852,23854
201901091827,23854,23856,23852,23855
201901091828,23854,23856,23849,23852
201901091829,23852,23856,23851,23856
201901091830,23856,23856,23852,23852
201901091831,23853,23858,23851,23852
201901091832,23851,23864,23851,23863
201901091833,23862,23862,23857,23860
201901091834,23859,23863,23858,23858
201901091835,23858,23863,23858,23858
201901091836,23859,23862,23856,23857
201901091837,23856,23861,23856,23861
201901091838,23860,23871,23860,23870
201901091839,23871,23871,23862,23865
201901091840,23865,23866,23861,23863
201901091841,23863,23863,23859,23859
201901091842,23859,23864,23854,23856
201901091843,23856,23861,23855,23855
201901091844,23855,23860,23854,23855
201901091845,23855,23866,23855,23865
201901091846,23866,23867,23864,23866
201901091847,23866,23866,23856,23857
201901091848,23857,23859,23852,23853
201901091849,23853,23853,23848,23851
201901091850,23851,23851,23843,23844
201901091851,23844,23845,23841,23842
201901091852,23842,23842,23837,23838
201901091853,23838,23841,23837,23840
201901091854,23840,23840,23834,23836
201901091855,23835,23843,23835,23843
201901091856,23844,23845,23840,23841
201901091857,23841,23843,23838,23839
201901091858,23839,23841,23838,23838
201901091859,23838,23845,23837,23845
201901091900,23845,23845,23841,23842
201901091901,23842,23843,23823,23829
201901091902,23831,23832,23825,23829
201901091903,23829,23839,23829,23838
201901091904,23838,23838,23832,23833
201901091905,23833,23839,23832,23836
201901091906,23836,23837,23834,23835
201901091907,23834,23836,23833,23834
201901091908,23834,23837,23831,23836
201901091909,23836,23837,23831,23831
201901091910,23831,23844,23830,23844
201901091911,23844,23849,23843,23849
201901091912,23849,23851,23843,23846
201901091913,23846,23847,23843,23846
201901091914,23846,23846,23840,23840
201901091915,23840,23844,23838,23843
201901091916,23843,23846,23843,23844
201901091917,23844,23847,23842,23842
201901091918,23843,23854,23843,23850
201901091919,23850,23850,23847,23847
201901091920,23847,23847,23825,23826
201901091921,23826,23834,23825,23831
201901091922,23831,23833,23830,23832
201901091923,23832,23832,23827,23828
201901091924,23828,23829,23817,23817
201901091925,23817,23822,23815,23816
201901091926,23817,23817,23808,23812
201901091927,23812,23812,23798,23799
201901091928,23799,23805,23797,23799
201901091929,23799,23805,23798,23803
201901091930,23802,23803,23797,23799
201901091931,23799,23803,23798,23803
201901091932,23803,23811,23801,23808
201901091933,23808,23814,23808,23812
201901091934,23812,23814,23810,23810
201901091935,23810,23811,23803,23808
201901091936,23808,23808,23804,23807
201901091937,23807,23810,23806,23808
201901091938,23808,23808,23802,23805
201901091939,23805,23806,23802,23803
201901091940,23804,23810,23804,23809
201901091941,23809,23811,23808,23810
201901091942,23810,23810,23807,23809
201901091943,23809,23810,23806,23810
201901091944,23811,23821,23809,23814
201901091945,23814,23819,23807,23812
201901091946,23811,23812,23808,23808
201901091947,23808,23813,23805,23812
201901091948,23812,23815,23811,23811
201901091949,23811,23819,23811,23817
201901091950,23817,23823,23816,23822
201901091951,23822,23827,23820,23825
201901091952,23825,23826,23820,23826
201901091953,23826,23827,23823,23823
201901091954,23823,23829,23823,23828
201901091955,23828,23835,23828,23831
201901091956,23831,23832,23829,23830
201901091957,23830,23830,23828,23829
201901091958,23829,23833,23828,23830
201901091959,23831,23835,23830,23834
201901092000,23834,23834,23831,23831
201901092001,23831,23834,23829,23834
201901092002,23834,23840,23833,23840
201901092003,23841,23842,23838,23839
201901092004,23839,23840,23830,23833
201901092005,23832,23839,23831,23838
201901092006,23838,23843,23838,23843
201901092007,23843,23843,23833,23834
201901092008,23834,23836,23819,23822
201901092009,23822,23824,23815,23817
201901092010,23817,23819,23805,23805
201901092011,23805,23819,23805,23819
201901092012,23819,23828,23819,23826
201901092013,23826,23829,23825,23828
201901092014,23827,23829,23827,23827
201901092015,23827,23830,23827,23829
201901092016,23829,23837,23829,23836
201901092017,23836,23838,23834,23837
201901092018,23837,23840,23820,23820
201901092019,23820,23822,23814,23815
201901092020,23816,23821,23812,23815
201901092021,23815,23821,23812,23813
201901092022,23813,23814,23808,23810
201901092023,23810,23817,23806,23814
201901092024,23814,23820,23814,23817
201901092025,23817,23820,23810,23810
201901092026,23809,23812,23809,23812
201901092027,23812,23821,23812,23820
201901092028,23820,23828,23819,23823
201901092029,23823,23824,23808,23809
201901092030,23809,23813,23808,23812
201901092031,23812,23812,23793,23794
201901092032,23794,23798,23791,23794
201901092033,23793,23797,23789,23791
201901092034,23791,23795,23788,23794
201901092035,23795,23798,23795,23798
201901092036,23798,23804,23798,23804
201901092037,23804,23805,23801,23804
201901092038,23804,23807,23802,23803
201901092039,23803,23809,23803,23807
201901092040,23807,23815,23806,23813
201901092041,23813,23814,23808,23813
201901092042,23813,23816,23812,23813
201901092043,23813,23816,23813,23814
201901092044,23814,23819,23813,23817
201901092045,23817,23817,23813,23814
201901092046,23814,23814,23810,23813
201901092047,23812,23814,23801,23803
201901092048,23803,23807,23803,23807
201901092049,23808,23813,23807,23812
201901092050,23812,23821,23808,23818
201901092051,23818,23818,23809,23810
201901092052,23811,23815,23808,23809
201901092053,23809,23810,23802,23804
201901092054,23804,23815,23803,23815
201901092055,23815,23825,23814,23822
201901092056,23822,23822,23817,23820
201901092057,23820,23826,23819,23823
201901092058,23823,23826,23818,23820
201901092059,23820,23822,23816,23819
201901092100,23818,23820,23813,23816
201901092101,23816,23820,23816,23819
201901092102,23820,23821,23815,23815
201901092103,23816,23818,23815,23816
201901092104,23816,23818,23813,23814
201901092105,23813,23816,23810,23810
201901092106,23810,23811,23801,23803
201901092107,23802,23805,23801,23804
201901092108,23804,23805,23802,23805
201901092109,23805,23806,23797,23798
201901092110,23798,23799,23789,23789
201901092111,23788,23792,23787,23792
201901092112,23793,23800,23789,23795
201901092113,23795,23797,23790,23791
201901092114,23791,23798,23787,23795
201901092115,23795,23798,23790,23798
201901092116,23798,23804,23797,23803
201901092117,23803,23808,23802,23808
201901092118,23808,23815,23807,23807
201901092119,23807,23809,23803,23803
201901092120,23803,23807,23798,23807
201901092121,23807,23809,23803,23808
201901092122,23807,23809,23807,23807
201901092123,23807,23808,23803,23805
201901092124,23804,23811,23804,23806
201901092125,23807,23812,23806,23806
201901092126,23805,23806,23800,23803
201901092127,23804,23807,23804,23805
201901092128,23805,23807,23801,23803
201901092129,23803,23803,23798,23802
201901092130,23802,23806,23801,23806
201901092131,23805,23806,23797,23800
201901092132,23800,23802,23796,23799
201901092133,23799,23805,23798,23803
201901092134,23803,23804,23802,23803
201901092135,23803,23803,23798,23799
201901092136,23799,23801,23794,23794
201901092137,23794,23802,23788,23802
201901092138,23802,23813,23802,23813
201901092139,23813,23819,23811,23818
201901092140,23818,23823,23818,23819
201901092141,23819,23821,23818,23819
201901092142,23819,23820,23816,23816
201901092143,23816,23825,23815,23821
201901092144,23821,23824,23814,23824
201901092145,23824,23838,23822,23834
201901092146,23834,23834,23826,23826
201901092147,23829,23831,23826,23826
201901092148,23826,23830,23823,23823
201901092149,23823,23826,23818,23819
201901092150,23818,23824,23817,23823
201901092151,23824,23824,23822,23824
201901092152,23824,23827,23824,23824
201901092153,23824,23825,23820,23821
201901092154,23821,23831,23821,23831
201901092155,23831,23842,23828,23836
201901092156,23836,23841,23835,23838
201901092157,23837,23846,23837,23845
201901092158,23845,23847,23842,23847
201901092159,23847,23847,23840,23845
201901092200,23845,23845,23838,23843
201901092201,23842,23848,23841,23845
201901092202,23845,23854,23845,23852
201901092203,23852,23853,23845,23846
201901092204,23846,23846,23843,23844
201901092205,23844,23846,23842,23843
201901092206,23843,23846,23842,23846
201901092207,23845,23847,23842,23844
201901092208,23844,23850,23843,23848
201901092209,23847,23857,23847,23857
201901092210,23857,23864,23856,23860
201901092211,23861,23868,23857,23863
201901092212,23863,23863,23856,23856
201901092213,23857,23872,23854,23860
201901092214,23859,23861,23857,23861
201901092215,23861,23862,23855,23856
201901092216,23856,23858,23852,23855
201901092217,23855,23858,23853,23856
201901092218,23856,23859,23855,23858
201901092219,23858,23870,23858,23865
201901092220,23867,23867,23862,23867
201901092221,23867,23873,23866,23873
201901092222,23873,23875,23871,23872
201901092223,23872,23873,23867,23868
201901092224,23868,23870,23866,23867
201901092225,23867,23869,23866,23867
201901092226,23867,23867,23862,23862
201901092227,23861,23863,23858,23859
201901092228,23859,23864,23859,23862
201901092229,23862,23864,23859,23860
201901092230,23860,23867,23860,23867
201901092231,23867,23874,23867,23869
201901092232,23869,23874,23869,23874
201901092233,23874,23874,23867,23869
201901092234,23868,23873,23868,23872
201901092235,23872,23875,23870,23870
201901092236,23871,23879,23869,23877
201901092237,23877,23877,23868,23868
201901092238,23868,23869,23866,23868
201901092239,23868,23868,23860,23865
201901092240,23865,23866,23861,23864
201901092241,23864,23872,23864,23872
201901092242,23872,23874,23871,23871
201901092243,23871,23873,23870,23871
201901092244,23871,23871,23867,23868
201901092245,23868,23870,23862,23862
201901092246,23862,23864,23857,23863
201901092247,23864,23868,23863,23866
201901092248,23866,23868,23866,23868
201901092249,23868,23874,23868,23870
201901092250,23870,23874,23868,23870
201901092251,23870,23875,23870,23875
201901092252,23875,23879,23871,23879
201901092253,23879,23884,23878,23883
201901092254,23882,23886,23882,23884
201901092255,23884,23892,23884,23891
201901092256,23892,23894,23886,23889
201901092257,23888,23888,23879,23879
201901092258,23879,23881,23870,23872
201901092259,23872,23876,23869,23874
201901092300,23874,23877,23872,23873
201901092301,23873,23873,23867,23870
201901092302,23870,23871,23865,23871
201901092303,23871,23872,23858,23858
201901092304,23860,23864,23858,23861
201901092305,23860,23862,23859,23862
201901092306,23862,23863,23861,23863
201901092307,23862,23864,23860,23860
201901092308,23860,23861,23858,23859
201901092309,23859,23864,23858,23863
201901092310,23863,23868,23862,23866
201901092311,23866,23867,23861,23861
201901092312,23861,23867,23859,23867
201901092313,23867,23870,23867,23867
201901092314,23866,23868,23865,23867
201901092315,23867,23870,23858,23863
201901092316,23863,23865,23862,23862
201901092317,23862,23863,23859,23862
201901092318,23862,23867,23862,23864
201901092319,23864,23866,23863,23865
201901092320,23864,23864,23857,23858
201901092321,23859,23863,23858,23862
201901092322,23862,23863,23861,23863
201901092323,23863,23868,23860,23868
201901092324,23869,23872,23869,23870
201901092325,23870,23873,23864,23865
201901092326,23865,23875,23865,23871
201901092327,23871,23873,23866,23869
201901092328,23869,23881,23869,23879
201901092329,23877,23882,23871,23871
201901092330,23871,23888,23871,23883
201901092331,23884,23884,23866,23866
201901092332,23862,23867,23859,23863
201901092333,23871,23884,23871,23882
201901092334,23882,23891,23882,23884
201901092335,23885,23889,23884,23884
201901092336,23900,23900,23900,23900
201901092337,23913,23919,23901,23901
201901092338,23893,23901,23893,23899
201901092339,23912,23912,23898,23907
201901092340,23904,23911,23890,23908
201901092341,23895,23895,23881,23881
201901092342,23891,23891,23874,23881
201901092343,23876,23906,23876,23906
201901092344,23902,23906,23889,23890
201901092345,23895,23901,23895,23900
201901092346,23894,23894,23849,23849
201901092347,23860,23860,23856,23856
201901092348,23866,23866,23846,23846
201901092349,23853,23869,23853,23869
201901092350,23868,23903,23866,23903
201901092351,23890,23897,23887,23892
201901092352,23898,23919,23898,23916
201901092353,23918,23940,23918,23939
201901092354,23942,23951,23937,23938
201901092355,23941,23941,23928,23928
201901092356,23924,23930,23924,23929
201901092357,23927,23927,23922,23925
201901092358,23930,23930,23916,23916
201901092359,23917,23930,23917,23930
201901100000,23948,23952,23942,23946
201901100001,23955,23955,23937,23948
201901100002,23951,23953,23951,23951
201901100003,23954,23954,23930,23930
201901100004,23928,23944,23922,23944
201901100005,23941,23945,23936,23937
201901100006,23941,23946,23905,23905
201901100007,23907,23907,23893,23893
201901100008,23902,23918,23902,23917
201901100009,23905,23924,23905,23911
201901100010,23929,23939,23927,23936
201901100011,23930,23930,23904,23907
201901100012,23904,23906,23898,23901
201901100013,23911,23911,23893,23901
201901100014,23905,23911,23889,23889
201901100015,23879,23899,23878,23896
201901100016,23902,23903,23886,23890
201901100017,23894,23902,23894,23899
201901100018,23900,23905,23890,23893
201901100019,23897,23910,23897,23904
201901100020,23910,23915,23902,23915
201901100021,23912,23915,23907,23910
201901100022,23907,23910,23903,23905
201901100023,23899,23907,23899,23902
201901100024,23912,23914,23893,23899
201901100025,23908,23908,23898,23898
201901100026,23900,23900,23896,23899
201901100027,23897,23902,23893,23895
201901100028,23888,23892,23885,23887
201901100029,23889,23897,23886,23897
201901100030,23890,23890,23846,23848
201901100031,23844,23851,23835,23836
201901100032,23836,23836,23821,23821
201901100033,23821,23825,23813,23822
201901100034,23823,23828,23823,23828
201901100035,23824,23824,23807,23807
201901100036,23823,23833,23822,23822
201901100037,23823,23833,23815,23833
201901100038,23836,23845,23836,23840
201901100039,23840,23844,23828,23838
201901100040,23828,23831,23825,23827
201901100041,23826,23833,23826,23829
201901100042,23816,23823,23807,23807
201901100043,23817,23817,23781,23786
201901100044,23790,23790,23779,23782
201901100045,23776,23777,23765,23777
201901100046,23762,23774,23759,23774
201901100047,23775,23783,23772,23783
201901100048,23783,23792,23783,23789
201901100049,23786,23796,23786,23795
201901100050,23802,23802,23797,23799
201901100051,23800,23813,23800,23810
201901100052,23805,23813,23805,23808
201901100053,23806,23825,23804,23819
201901100054,23821,23821,23811,23812
201901100055,23807,23808,23804,23806
201901100056,23813,23831,23813,23827
201901100057,23824,23827,23810,23815
201901100058,23815,23825,23815,23815
201901100059,23818,23826,23808,23826
201901100100,23821,23828,23819,23828
201901100101,23834,23850,23834,23849
201901100102,23847,23878,23847,23869
201901100103,23868,23879,23867,23874
201901100104,23879,23882,23873,23876
201901100105,23880,23894,23879,23886
201901100106,23888,23888,23882,23882
201901100107,23886,23886,23875,23878
201901100108,23874,23878,23868,23868
201901100109,23864,23866,23858,23863
201901100110,23873,23873,23857,23857
201901100111,23857,23862,23852,23860
201901100112,23862,23870,23862,23870
201901100113,23868,23885,23860,23885
201901100114,23880,23880,23875,23875
201901100115,23864,23864,23848,23853
201901100116,23849,23855,23847,23848
201901100117,23855,23860,23853,23860
201901100118,23862,23862,23855,23855
201901100119,23853,23863,23853,23859
201901100120,23855,23855,23840,23841
201901100121,23834,23851,23834,23849
201901100122,23856,23860,23852,23858
201901100123,23857,23876,23857,23871
201901100124,23881,23893,23881,23887
201901100125,23890,23893,23880,23880
201901100126,23879,23884,23874,23884
201901100127,23881,23889,23879,23889
201901100128,23893,23900,23893,23899
201901100129,23903,23903,23886,23889
201901100130,23881,23883,23871,23872
201901100131,23873,23879,23873,23878
201901100132,23876,23878,23872,23872
201901100133,23871,23874,23870,23870
201901100134,23863,23878,23858,23878
201901100135,23880,23887,23876,23876
201901100136,23878,23883,23874,23883
201901100137,23883,23883,23865,23869
201901100138,23870,23870,23854,23856
201901100139,23855,23863,23851,23863
201901100140,23869,23870,23858,23858
201901100141,23856,23858,23852,23855
201901100142,23860,23866,23860,23862
201901100143,23871,23875,23868,23868
201901100144,23869,23872,23866,23868
201901100145,23870,23907,23870,23907
201901100146,23903,23903,23897,23901
201901100147,23906,23908,23892,23893
201901100148,23895,23897,23888,23897
201901100149,23902,23912,23900,23912
201901100150,23909,23911,23906,23911
201901100151,23908,23909,23902,23908
201901100152,23906,23923,23906,23923
201901100153,23938,23945,23938,23939
201901100154,23936,23936,23929,23931
201901100155,23933,23933,23928,23930
201901100156,23929,23929,23922,23923
201901100157,23923,23928,23921,23921
201901100158,23923,23923,23912,23914
201901100159,23918,23918,23907,23910
201901100200,23910,23914,23907,23907
201901100201,23908,23908,23895,23895
201901100202,23899,23905,23897,23905
201901100203,23907,23909,23902,23906
201901100204,23906,23907,23900,23907
201901100205,23901,23902,23894,23902
201901100206,23906,23910,23899,23900
201901100207,23901,23902,23891,23892
201901100208,23888,23890,23883,23889
201901100209,23890,23890,23885,23887
201901100210,23891,23900,23891,23892
201901100211,23892,23892,23883,23885
201901100212,23891,23894,23890,23892
201901100213,23897,23901,23896,23900
201901100214,23897,23904,23897,23897
201901100215,23902,23910,23902,23910
201901100216,23898,23901,23894,23901
201901100217,23901,23901,23891,23897
201901100218,23900,23903,23898,23901
201901100219,23899,23901,23899,23899
201901100220,23902,23904,23893,23901
201901100221,23904,23906,23899,23902
201901100222,23900,23901,23897,23900
201901100223,23902,23902,23895,23899
201901100224,23904,23904,23900,23904
201901100225,23901,23905,23901,23902
201901100226,23899,23909,23899,23908
201901100227,23907,23910,23903,23903
201901100228,23897,23905,23897,23901
201901100229,23902,23903,23895,23895
201901100230,23902,23902,23890,23896
201901100231,23898,23901,23896,23896
201901100232,23896,23905,23896,23905
201901100233,23899,23907,23897,23906
201901100234,23906,23911,23905,23908
201901100235,23922,23922,23920,23920
201901100236,23919,23922,23919,23922
201901100237,23914,23919,23907,23907
201901100238,23904,23913,23903,23910
201901100239,23910,23920,23910,23920
201901100240,23916,23918,23915,23916
201901100241,23920,23920,23913,23914
201901100242,23914,23918,23914,23918
201901100243,23916,23920,23912,23912
201901100244,23910,23921,23910,23918
201901100245,23920,23923,23916,23922
201901100246,23925,23929,23922,23926
201901100247,23923,23928,23923,23928
201901100248,23929,23932,23925,23925
201901100249,23924,23944,23920,23922
201901100250,23928,23935,23928,23934
201901100251,23937,23937,23931,23936
201901100252,23926,23927,23926,23927
201901100253,23927,23933,23927,23932
201901100254,23934,23934,23929,23929
201901100255,23927,23928,23926,23927
201901100256,23927,23929,23922,23929
201901100257,23927,23932,23927,23932
201901100258,23935,23939,23932,23937
201901100259,23935,23939,23934,23935
201901100300,23940,23943,23936,23943
201901100301,23937,23937,23927,23927
201901100302,23923,23923,23919,23922
201901100303,23921,23921,23919,23920
201901100304,23922,23922,23919,23919
201901100305,23915,23918,23914,23917
201901100306,23916,23916,23911,23912
201901100307,23911,23911,23899,23899
201901100308,23899,23903,23899,23903
201901100309,23914,23916,23911,23911
201901100310,23913,23913,23905,23905
201901100311,23893,23909,23893,23908
201901100312,23907,23911,23905,23905
201901100313,23907,23910,23905,23908
201901100314,23907,23912,23904,23912
201901100315,23912,23915,23911,23914
201901100316,23916,23920,23906,23906
201901100317,23914,23914,23912,23913
201901100318,23911,23921,23911,23919
201901100319,23918,23927,23918,23923
201901100320,23924,23926,23919,23924
201901100321,23926,23932,23926,23932
201901100322,23931,23933,23927,23927
201901100323,23931,23934,23929,23929
201901100324,23932,23936,23931,23934
201901100325,23936,23936,23933,23933
201901100326,23931,23937,23931,23937
201901100327,23935,23937,23935,23937
201901100328,23937,23937,23927,23927
201901100329,23927,23930,23927,23927
201901100330,23928,23933,23927,23927
201901100331,23926,23928,23917,23917
201901100332,23922,23922,23916,23921
201901100333,23913,23913,23907,23908
201901100334,23910,23910,23903,23908
201901100335,23908,23913,23908,23912
201901100336,23913,23914,23909,23910
201901100337,23912,23915,23912,23914
201901100338,23916,23917,23914,23914
201901100339,23913,23915,23910,23910
201901100340,23909,23913,23908,23913
201901100341,23912,23914,23909,23909
201901100342,23910,23920,23910,23919
201901100343,23916,23917,23916,23916
201901100344,23914,23916,23914,23916
201901100345,23917,23920,23916,23919
201901100346,23918,23920,23917,23917
201901100347,23918,23918,23917,23918
201901100348,23917,23917,23909,23909
201901100349,23910,23910,23906,23907
201901100350,23907,23908,23888,23888
201901100351,23889,23889,23883,23883
201901100352,23883,23890,23883,23888
201901100353,23885,23887,23868,23868
201901100354,23871,23876,23871,23873
201901100355,23882,23882,23882,23882
201901100356,23879,23879,23877,23877
201901100357,23879,23883,23879,23882
201901100358,23880,23885,23880,23885
201901100359,23883,23890,23883,23889
201901100400,23889,23918,23889,23918
201901100401,23936,23946,23921,23943
201901100402,23942,23942,23900,23909
201901100403,23928,23928,23901,23901
201901100404,23901,23920,23897,23918
201901100405,23925,23927,23921,23927
201901100406,23921,23933,23921,23933
201901100407,23935,23936,23928,23934
201901100408,23932,23934,23929,23933
201901100409,23939,23956,23939,23956
201901100410,23946,23954,23945,23954
201901100411,23945,23945,23942,23944
201901100412,23930,23932,23925,23930
201901100413,23931,23937,23926,23937
201901100414,23934,23940,23930,23935
201901100415,23933,23933,23929,23932
201901100416,23932,23932,23920,23921
201901100417,23919,23919,23913,23916
201901100418,23914,23915,23905,23905
201901100419,23897,23897,23859,23859
201901100420,23858,23862,23847,23862
201901100421,23863,23865,23858,23858
201901100422,23860,23861,23846,23852
201901100423,23847,23847,23832,23838
201901100424,23831,23843,23820,23843
201901100425,23841,23847,23836,23846
201901100426,23848,23853,23847,23849
201901100427,23852,23855,23840,23855
201901100428,23852,23855,23849,23849
201901100429,23846,23849,23846,23849
201901100430,23845,23845,23825,23828
201901100431,23831,23849,23831,23849
201901100432,23850,23869,23848,23865
201901100433,23867,23868,23859,23866
201901100434,23871,23871,23862,23862
201901100435,23865,23876,23865,23873
201901100436,23870,23870,23864,23867
201901100437,23866,23870,23866,23870
201901100438,23872,23879,23866,23879
201901100439,23876,23881,23873,23873
201901100440,23872,23872,23866,23866
201901100441,23874,23877,23868,23877
201901100442,23881,23882,23878,23882
201901100443,23886,23886,23882,23885
201901100444,23883,23895,23883,23892
201901100445,23897,23899,23895,23895
201901100446,23898,23914,23898,23908
201901100447,23910,23916,23910,23916
201901100448,23908,23910,23905,23906
201901100449,23910,23928,23910,23928
201901100450,23928,23928,23918,23918
201901100451,23919,23919,23908,23910
201901100452,23910,23913,23908,23913
201901100453,23908,23910,23907,23910
201901100454,23913,23919,23911,23915
201901100455,23916,23917,23904,23905
201901100456,23905,23907,23894,23895
201901100457,23899,23905,23899,23905
201901100458,23906,23907,23901,23904
201901100459,23904,23905,23891,23891
201901100500,23892,23906,23886,23906
201901100501,23903,23919,23903,23916
201901100502,23911,23914,23906,23906
201901100503,23908,23911,23906,23906
201901100504,23907,23910,23906,23908
201901100505,23913,23914,23906,23910
201901100506,23907,23915,23907,23914
201901100507,23908,23908,23899,23899
201901100508,23903,23903,23891,23902
201901100509,23908,23912,23907,23912
201901100510,23916,23924,23916,23922
201901100511,23920,23920,23918,23919
201901100512,23915,23924,23915,23919
201901100513,23914,23914,23898,23905
201901100514,23903,23910,23903,23907
201901100515,23907,23916,23907,23915
201901100516,23916,23919,23916,23917
201901100517,23918,23923,23915,23923
201901100518,23919,23922,23915,23915
201901100519,23913,23914,23912,23914
201901100520,23916,23920,23916,23920
201901100521,23919,23925,23917,23919
201901100522,23917,23922,23917,23922
201901100523,23924,23924,23908,23908
201901100524,23908,23910,23905,23910
201901100525,23909,23912,23908,23910
201901100526,23910,23912,23908,23912
201901100527,23910,23911,23908,23908
201901100528,23908,23912,23895,23895
201901100529,23903,23903,23896,23902
201901100530,23896,23896,23875,23875
201901100531,23885,23892,23884,23887
201901100532,23885,23900,23885,23892
201901100533,23894,23896,23894,23895
201901100534,23892,23910,23892,23906
201901100535,23894,23894,23869,23869
201901100536,23870,23877,23867,23877
201901100537,23876,23876,23866,23870
201901100538,23872,23875,23865,23865
201901100539,23863,23867,23863,23863
201901100540,23867,23867,23851,23851
201901100541,23850,23850,23840,23840
201901100542,23836,23849,23836,23849
201901100543,23851,23857,23851,23854
201901100544,23854,23854,23851,23854
201901100545,23851,23851,23837,23837
201901100546,23834,23836,23825,23826
201901100547,23830,23830,23820,23821
201901100548,23822,23822,23813,23813
201901100549,23816,23824,23816,23824
201901100550,23821,23823,23818,23822
201901100551,23820,23820,23814,23815
201901100552,23818,23819,23815,23819
201901100553,23809,23811,23809,23810
201901100554,23808,23813,23807,23811
201901100555,23817,23826,23806,23824
201901100556,23830,23841,23830,23841
201901100557,23842,23844,23841,23841
201901100558,23842,23843,23836,23841
201901100559,23853,23868,23851,23851
201901100600,23856,23856,23847,23853
201901100601,23853,23856,23851,23854
201901100602,23854,23862,23854,23861
201901100603,23861,23866,23858,23859
201901100604,23858,23863,23857,23860
201901100605,23860,23860,23855,23856
201901100606,23856,23859,23855,23858
201901100607,23858,23862,23856,23860
201901100608,23860,23861,23857,23857
201901100609,23857,23857,23846,23851
201901100610,23851,23852,23845,23847
201901100611,23847,23851,23844,23847
201901100612,23848,23848,23838,23838
201901100613,23838,23840,23833,23833
201901100614,23833,23833,23822,23827
