日時,始値(BID),高値(BID),安値(BID),終値(BID)
201901150800,23866,23869,23857,23859
201901150801,23859,23864,23857,23857
201901150802,23857,23859,23856,23856
201901150803,23857,23858,23854,23854
201901150804,23854,23858,23854,23858
201901150805,23858,23863,23858,23862
201901150806,23862,23862,23859,23862
201901150807,23862,23865,23862,23865
201901150808,23865,23867,23863,23865
201901150809,23865,23865,23862,23862
201901150810,23863,23864,23861,23864
201901150811,23864,23870,23864,23867
201901150812,23868,23872,23866,23872
201901150813,23872,23872,23867,23867
201901150814,23867,23878,23866,23874
201901150815,23874,23877,23874,23875
201901150816,23875,23876,23874,23875
201901150817,23875,23875,23864,23864
201901150818,23864,23868,23864,23865
201901150819,23865,23866,23863,23865
201901150820,23865,23869,23865,23867
201901150821,23867,23870,23867,23869
201901150822,23869,23870,23869,23870
201901150823,23869,23870,23865,23868
201901150824,23868,23872,23868,23869
201901150825,23870,23870,23869,23869
201901150826,23868,23869,23867,23869
201901150827,23869,23869,23863,23863
201901150828,23863,23864,23859,23860
201901150829,23860,23860,23855,23857
201901150830,23857,23862,23857,23861
201901150831,23861,23864,23860,23863
201901150832,23863,23867,23862,23867
201901150833,23867,23868,23864,23864
201901150834,23863,23866,23863,23866
201901150835,23866,23869,23866,23867
201901150836,23866,23867,23866,23866
201901150837,23866,23869,23866,23866
201901150838,23866,23867,23866,23866
201901150839,23866,23867,23866,23867
201901150840,23867,23877,23867,23874
201901150841,23874,23881,23873,23880
201901150842,23880,23880,23873,23873
201901150843,23873,23876,23873,23876
201901150844,23876,23877,23876,23876
201901150845,23877,23880,23874,23879
201901150846,23879,23882,23877,23881
201901150847,23881,23881,23875,23875
201901150848,23875,23880,23875,23879
201901150849,23879,23882,23879,23880
201901150850,23880,23882,23878,23880
201901150851,23880,23884,23880,23884
201901150852,23884,23885,23881,23883
201901150853,23883,23885,23882,23884
201901150854,23883,23885,23883,23885
201901150855,23885,23888,23882,23884
201901150856,23884,23885,23882,23882
201901150857,23883,23883,23881,23881
201901150858,23881,23883,23880,23880
201901150859,23880,23883,23880,23883
201901150900,23883,23891,23882,23887
201901150901,23887,23889,23886,23888
201901150902,23888,23890,23887,23889
201901150903,23889,23891,23885,23889
201901150904,23890,23895,23889,23895
201901150905,23894,23905,23894,23897
201901150906,23897,23907,23895,23907
201901150907,23907,23909,23902,23908
201901150908,23909,23912,23904,23905
201901150909,23905,23911,23903,23909
201901150910,23909,23912,23907,23907
201901150911,23907,23907,23901,23903
201901150912,23903,23909,23903,23906
201901150913,23906,23919,23905,23918
201901150914,23918,23921,23915,23918
201901150915,23918,23925,23915,23916
201901150916,23917,23924,23917,23923
201901150917,23923,23928,23923,23926
201901150918,23925,23925,23918,23918
201901150919,23918,23921,23918,23920
201901150920,23919,23926,23919,23922
201901150921,23921,23923,23919,23919
201901150922,23919,23925,23919,23920
201901150923,23920,23924,23920,23922
201901150924,23921,23927,23921,23925
201901150925,23925,23927,23922,23925
201901150926,23925,23927,23923,23926
201901150927,23927,23940,23927,23932
201901150928,23932,23933,23928,23930
201901150929,23930,23934,23928,23934
201901150930,23934,23935,23933,23935
201901150931,23935,23935,23927,23929
201901150932,23929,23932,23926,23926
201901150933,23926,23934,23926,23932
201901150934,23932,23934,23929,23930
201901150935,23930,23931,23927,23928
201901150936,23929,23929,23924,23925
201901150937,23925,23934,23925,23931
201901150938,23931,23931,23927,23927
201901150939,23927,23927,23922,23922
201901150940,23922,23923,23920,23923
201901150941,23923,23925,23923,23924
201901150942,23924,23933,23924,23931
201901150943,23931,23935,23931,23933
201901150944,23933,23939,23932,23933
201901150945,23933,23940,23933,23937
201901150946,23938,23938,23934,23936
201901150947,23936,23939,23932,23932
201901150948,23932,23933,23927,23927
201901150949,23927,23929,23927,23929
201901150950,23928,23930,23926,23926
201901150951,23926,23929,23925,23925
201901150952,23925,23930,23925,23928
201901150953,23928,23933,23928,23933
201901150954,23933,23935,23931,23931
201901150955,23931,23934,23930,23933
201901150956,23933,23933,23925,23925
201901150957,23925,23927,23922,23924
201901150958,23924,23926,23924,23925
201901150959,23925,23928,23922,23922
201901151000,23922,23928,23922,23927
201901151001,23928,23932,23922,23923
201901151002,23923,23937,23920,23933
201901151003,23933,23933,23927,23929
201901151004,23929,23933,23928,23930
201901151005,23930,23932,23924,23929
201901151006,23929,23929,23923,23923
201901151007,23923,23927,23923,23927
201901151008,23927,23932,23927,23929
201901151009,23930,23946,23930,23943
201901151010,23943,23944,23937,23939
201901151011,23939,23994,23939,23994
201901151012,23994,23994,23976,23976
201901151013,23976,23986,23976,23985
201901151014,23984,23988,23984,23988
201901151015,23988,23998,23988,23990
201901151016,23990,23995,23983,23986
201901151017,23986,23988,23978,23978
201901151018,23978,23980,23971,23971
201901151019,23971,23977,23971,23972
201901151020,23972,23980,23971,23976
201901151021,23976,23978,23971,23977
201901151022,23976,23979,23971,23971
201901151023,23971,23977,23970,23975
201901151024,23975,23977,23967,23967
201901151025,23967,23969,23965,23969
201901151026,23969,23974,23969,23974
201901151027,23973,23974,23968,23972
201901151028,23972,23972,23968,23970
201901151029,23970,23977,23969,23977
201901151030,23977,23979,23969,23979
201901151031,23979,23984,23974,23975
201901151032,23975,23975,23971,23974
201901151033,23974,23974,23970,23971
201901151034,23971,23976,23970,23972
201901151035,23972,23981,23972,23978
201901151036,23979,23983,23978,23981
201901151037,23981,23983,23977,23983
201901151038,23983,23984,23980,23983
201901151039,23983,23986,23982,23986
201901151040,23986,23990,23986,23987
201901151041,23987,23996,23987,23994
201901151042,23995,24009,23995,24001
201901151043,24001,24006,24000,24005
201901151044,24005,24008,24003,24008
201901151045,24008,24011,24002,24003
201901151046,24003,24005,24000,24002
201901151047,24002,24008,24002,24006
201901151048,24005,24007,23998,24002
201901151049,24001,24002,23998,24000
201901151050,24000,24003,23998,23999
201901151051,23999,24000,23995,23995
201901151052,23995,23999,23995,23996
201901151053,23996,23999,23996,23998
201901151054,23997,23998,23992,23993
201901151055,23993,23995,23990,23992
201901151056,23992,23996,23990,23990
201901151057,23990,23992,23989,23989
201901151058,23989,23989,23982,23984
201901151059,23984,23993,23982,23993
201901151100,23993,24003,23993,23996
201901151101,23996,23997,23993,23993
201901151102,23993,24002,23993,24002
201901151103,24002,24002,23999,24001
201901151104,24001,24002,24000,24000
201901151105,24000,24010,24000,24009
201901151106,24008,24019,24008,24019
201901151107,24019,24027,24018,24027
201901151108,24027,24029,24018,24019
201901151109,24018,24022,24018,24021
201901151110,24021,24026,24021,24022
201901151111,24021,24021,24017,24021
201901151112,24021,24025,24019,24020
201901151113,24020,24020,24016,24017
201901151114,24017,24021,24016,24020
201901151115,24020,24025,24020,24023
201901151116,24022,24022,24020,24020
201901151117,24020,24025,24020,24023
201901151118,24023,24024,24018,24019
201901151119,24019,24021,24018,24019
201901151120,24020,24022,24018,24019
201901151121,24019,24021,24014,24015
201901151122,24015,24016,24012,24015
201901151123,24015,24015,24008,24008
201901151124,24008,24013,24007,24009
201901151125,24010,24010,24004,24006
201901151126,24005,24007,24001,24003
201901151127,24003,24007,24003,24007
201901151128,24007,24008,24005,24008
201901151129,24008,24010,24006,24007
201901151130,24008,24009,24005,24007
201901151131,24007,24013,24005,24013
201901151132,24012,24018,24012,24017
201901151133,24017,24017,24007,24007
201901151134,24007,24009,24001,24001
201901151135,24001,24005,23997,24003
201901151136,24002,24005,23996,24005
201901151137,24005,24008,24005,24006
201901151138,24006,24007,24003,24003
201901151139,24003,24007,24001,24005
201901151140,24005,24008,24004,24007
201901151141,24007,24008,23995,23997
201901151142,23997,24002,23995,24001
201901151143,24001,24004,24000,24000
201901151144,24000,24002,23998,23998
201901151145,23999,24002,23998,24002
201901151146,24002,24004,24001,24001
201901151147,24001,24004,23999,24004
201901151148,24004,24012,24002,24011
201901151149,24011,24012,24005,24005
201901151150,24004,24005,24002,24003
201901151151,24002,24005,24001,24005
201901151152,24004,24005,24003,24004
201901151153,24004,24007,24003,24004
201901151154,24004,24010,24004,24010
201901151155,24010,24011,24005,24005
201901151156,24005,24006,24003,24003
201901151157,24003,24003,23997,23997
201901151158,23997,24001,23997,23997
201901151159,23997,24002,23995,24002
201901151200,24001,24007,24000,24005
201901151201,24005,24009,24005,24009
201901151202,24008,24018,24008,24017
201901151203,24017,24023,24017,24022
201901151204,24022,24022,24015,24015
201901151205,24015,24018,24015,24018
201901151206,24018,24019,24014,24018
201901151207,24018,24022,24017,24019
201901151208,24019,24025,24018,24025
201901151209,24025,24035,24023,24028
201901151210,24028,24031,24021,24021
201901151211,24022,24027,24021,24022
201901151212,24022,24024,24018,24020
201901151213,24020,24024,24019,24021
201901151214,24021,24021,24018,24019
201901151215,24018,24019,24015,24018
201901151216,24018,24022,24016,24016
201901151217,24016,24017,24014,24016
201901151218,24016,24017,24009,24010
201901151219,24010,24014,24010,24014
201901151220,24014,24016,24013,24015
201901151221,24014,24015,24013,24014
201901151222,24013,24015,24012,24013
201901151223,24013,24015,24008,24008
201901151224,24008,24015,24006,24013
201901151225,24013,24016,24012,24016
201901151226,24016,24022,24016,24021
201901151227,24021,24028,24021,24027
201901151228,24027,24027,24020,24021
201901151229,24021,24022,24017,24018
201901151230,24018,24019,24013,24015
201901151231,24015,24015,24008,24010
201901151232,24010,24017,24010,24015
201901151233,24015,24019,24015,24015
201901151234,24015,24016,24012,24014
201901151235,24014,24014,24006,24007
201901151236,24007,24008,24003,24007
201901151237,24007,24015,24007,24014
201901151238,24015,24016,24011,24013
201901151239,24013,24013,24009,24012
201901151240,24012,24015,24009,24014
201901151241,24015,24018,24015,24018
201901151242,24018,24020,24015,24015
201901151243,24014,24015,24013,24014
201901151244,24014,24018,24012,24015
201901151245,24015,24022,24013,24021
201901151246,24021,24024,24019,24021
201901151247,24021,24023,24019,24019
201901151248,24019,24019,24015,24016
201901151249,24016,24018,24015,24015
201901151250,24016,24022,24016,24020
201901151251,24020,24020,24015,24015
201901151252,24015,24016,24012,24012
201901151253,24012,24014,24011,24012
201901151254,24012,24013,24011,24012
201901151255,24012,24014,24012,24013
201901151256,24013,24018,24013,24015
201901151257,24016,24018,24014,24018
201901151258,24018,24018,24015,24016
201901151259,24015,24019,24014,24018
201901151300,24018,24023,24018,24021
201901151301,24020,24023,24019,24021
201901151302,24021,24022,24020,24020
201901151303,24020,24028,24020,24026
201901151304,24026,24028,24023,24023
201901151305,24023,24026,24023,24025
201901151306,24025,24029,24025,24028
201901151307,24028,24028,24024,24024
201901151308,24024,24025,24023,24025
201901151309,24025,24025,24021,24023
201901151310,24023,24026,24023,24026
201901151311,24026,24026,24022,24024
201901151312,24023,24024,24022,24023
201901151313,24023,24023,24022,24023
201901151314,24023,24023,24021,24021
201901151315,24021,24021,24019,24020
201901151316,24019,24020,24018,24019
201901151317,24019,24019,24015,24016
201901151318,24016,24018,24015,24017
201901151319,24017,24019,24016,24019
201901151320,24019,24019,24016,24018
201901151321,24018,24019,24017,24018
201901151322,24018,24022,24017,24022
201901151323,24022,24022,24020,24021
201901151324,24021,24021,24019,24020
201901151325,24020,24022,24020,24021
201901151326,24021,24022,24020,24021
201901151327,24021,24024,24018,24023
201901151328,24023,24025,24023,24025
201901151329,24025,24025,24022,24023
201901151330,24023,24023,24021,24022
201901151331,24022,24028,24022,24028
201901151332,24028,24029,24024,24025
201901151333,24024,24026,24022,24022
201901151334,24022,24022,24021,24022
201901151335,24022,24023,24020,24020
201901151336,24020,24021,24020,24020
201901151337,24020,24023,24020,24021
201901151338,24021,24022,24020,24021
201901151339,24020,24022,24020,24022
201901151340,24022,24023,24021,24023
201901151341,24023,24025,24022,24024
201901151342,24024,24024,24023,24023
201901151343,24023,24023,24021,24021
201901151344,24021,24023,24021,24022
201901151345,24022,24027,24022,24027
201901151346,24027,24027,24024,24025
201901151347,24025,24026,24023,24023
201901151348,24023,24025,24023,24024
201901151349,24024,24024,24023,24024
201901151350,24024,24024,24021,24021
201901151351,24021,24023,24020,24023
201901151352,24022,24024,24021,24023
201901151353,24023,24024,24023,24023
201901151354,24022,24023,24022,24022
201901151355,24022,24023,24020,24020
201901151356,24020,24020,24019,24019
201901151357,24019,24021,24019,24020
201901151358,24020,24022,24019,24021
201901151359,24021,24022,24018,24019
201901151400,24018,24020,24012,24017
201901151401,24016,24017,24013,24015
201901151402,24015,24017,24014,24014
201901151403,24015,24016,24014,24015
201901151404,24015,24019,24015,24017
201901151405,24017,24020,24017,24017
201901151406,24018,24018,24011,24013
201901151407,24013,24013,24010,24010
201901151408,24010,24015,24008,24014
201901151409,24014,24014,24010,24010
201901151410,24009,24018,24009,24015
201901151411,24015,24017,24013,24016
201901151412,24016,24017,24012,24012
201901151413,24012,24015,24012,24013
201901151414,24014,24015,24011,24013
201901151415,24013,24017,24013,24016
201901151416,24016,24018,24015,24018
201901151417,24018,24020,24017,24019
201901151418,24019,24019,24015,24015
201901151419,24015,24016,24014,24014
201901151420,24013,24014,24012,24013
201901151421,24013,24017,24011,24016
201901151422,24016,24017,24013,24017
201901151423,24017,24018,24014,24014
201901151424,24014,24015,24013,24013
201901151425,24014,24014,24013,24014
201901151426,24014,24016,24013,24016
201901151427,24016,24018,24015,24017
201901151428,24017,24017,24015,24017
201901151429,24018,24018,24016,24016
201901151430,24016,24018,24016,24017
201901151431,24017,24019,24016,24016
201901151432,24016,24016,24013,24014
201901151433,24014,24014,24012,24013
201901151434,24013,24013,24008,24010
201901151435,24010,24013,24010,24011
201901151436,24011,24013,24009,24012
201901151437,24012,24013,24009,24011
201901151438,24011,24012,24008,24009
201901151439,24009,24012,24009,24012
201901151440,24013,24014,24011,24013
201901151441,24013,24015,24012,24014
201901151442,24014,24014,24012,24014
201901151443,24014,24019,24014,24018
201901151444,24019,24019,24017,24018
201901151445,24018,24019,24017,24018
201901151446,24019,24021,24019,24020
201901151447,24020,24023,24020,24022
201901151448,24022,24023,24022,24022
201901151449,24022,24023,24021,24021
201901151450,24021,24026,24021,24025
201901151451,24025,24031,24025,24031
201901151452,24030,24033,24029,24033
201901151453,24033,24033,24028,24030
201901151454,24030,24043,24028,24041
201901151455,24040,24041,24035,24040
201901151456,24040,24063,24040,24051
201901151457,24051,24058,24048,24051
201901151458,24051,24051,24043,24045
201901151459,24045,24045,24037,24042
201901151500,24042,24042,24036,24036
201901151501,24036,24042,24034,24042
201901151502,24044,24047,24042,24047
201901151503,24046,24046,24037,24038
201901151504,24038,24042,24038,24041
201901151505,24041,24043,24040,24041
201901151506,24041,24041,24036,24041
201901151507,24041,24041,24038,24040
201901151508,24041,24046,24040,24043
201901151509,24043,24044,24038,24038
201901151510,24038,24040,24035,24039
201901151511,24040,24042,24039,24040
201901151512,24040,24041,24039,24041
201901151513,24041,24041,24039,24039
201901151514,24039,24044,24039,24043
201901151515,24043,24050,24041,24050
201901151516,24050,24051,24048,24049
201901151517,24049,24050,24048,24049
201901151518,24049,24049,24046,24046
201901151519,24046,24049,24046,24049
201901151520,24049,24050,24048,24050
201901151521,24050,24050,24047,24047
201901151522,24047,24048,24042,24043
201901151523,24042,24045,24042,24042
201901151524,24042,24042,24040,24041
201901151525,24041,24047,24041,24047
201901151526,24047,24052,24046,24052
201901151527,24051,24053,24049,24049
201901151528,24049,24050,24045,24046
201901151529,24046,24047,24044,24045
201901151530,24045,24045,24041,24041
201901151531,24041,24041,24037,24038
201901151532,24038,24042,24037,24042
201901151533,24041,24046,24041,24042
201901151534,24042,24044,24041,24043
201901151535,24043,24043,24037,24039
201901151536,24039,24041,24039,24039
201901151537,24038,24040,24037,24037
201901151538,24037,24042,24037,24041
201901151539,24041,24045,24040,24040
201901151540,24039,24042,24039,24041
201901151541,24041,24041,24039,24040
201901151542,24041,24042,24040,24041
201901151543,24041,24041,24036,24037
201901151544,24037,24039,24036,24038
201901151545,24039,24039,24037,24038
201901151546,24038,24038,24037,24037
201901151547,24037,24038,24036,24037
201901151548,24037,24038,24031,24031
201901151549,24031,24035,24029,24030
201901151550,24030,24031,24027,24028
201901151551,24028,24028,24026,24028
201901151552,24028,24030,24027,24030
201901151553,24030,24030,24028,24028
201901151554,24028,24028,24025,24025
201901151555,24025,24028,24024,24028
201901151556,24028,24031,24028,24030
201901151557,24030,24032,24030,24030
201901151558,24030,24032,24030,24031
201901151559,24031,24031,24029,24029
201901151600,24028,24030,24015,24016
201901151601,24016,24025,24016,24021
201901151602,24021,24024,24017,24022
201901151603,24022,24027,24022,24025
201901151604,24025,24025,24021,24023
201901151605,24023,24025,24022,24024
201901151606,24024,24037,24023,24034
201901151607,24034,24034,24027,24030
201901151608,24030,24030,24027,24029
201901151609,24029,24031,24027,24028
201901151610,24028,24029,24026,24028
201901151611,24028,24030,24028,24030
201901151612,24031,24036,24031,24033
201901151613,24033,24034,24028,24029
201901151614,24029,24029,24027,24028
201901151615,24029,24030,24028,24028
201901151616,24028,24028,24020,24022
201901151617,24022,24024,24020,24020
201901151618,24020,24025,24020,24025
201901151619,24025,24029,24024,24024
201901151620,24024,24025,24020,24020
201901151621,24020,24022,24019,24020
201901151622,24020,24021,24016,24019
201901151623,24019,24020,24017,24019
201901151624,24019,24023,24018,24023
201901151625,24022,24022,24016,24017
201901151626,24017,24022,24016,24018
201901151627,24018,24022,24018,24020
201901151628,24020,24021,24013,24013
201901151629,24013,24017,24012,24014
201901151630,24014,24015,24011,24012
201901151631,24012,24014,24005,24012
201901151632,24012,24015,24012,24014
201901151633,24014,24016,24012,24016
201901151634,24016,24018,24013,24013
201901151635,24013,24013,24006,24009
201901151636,24009,24011,24006,24007
201901151637,24007,24010,24007,24008
201901151638,24008,24009,24004,24006
201901151639,24006,24006,24000,24000
201901151640,24000,24000,23994,23997
201901151641,23998,24001,23994,23995
201901151642,23995,23997,23994,23997
201901151643,23997,23998,23993,23996
201901151644,23996,24000,23995,23999
201901151645,23999,24000,23996,23998
201901151646,23998,24001,23997,24000
201901151647,24000,24000,23995,23997
201901151648,23997,23998,23995,23998
201901151649,23998,23998,23996,23996
201901151650,23996,23998,23994,23995
201901151651,23995,23995,23991,23995
201901151652,23995,24000,23994,24000
201901151653,24000,24002,23998,23999
201901151654,23999,24004,23998,24003
201901151655,24003,24004,23998,24002
201901151656,24001,24006,24000,24004
201901151657,24005,24007,24002,24002
201901151658,24002,24002,23998,23999
201901151659,23999,24001,23995,24000
201901151700,23999,24008,23992,24008
201901151701,24008,24024,24008,24022
201901151702,24023,24023,24015,24016
201901151703,24016,24016,24003,24003
201901151704,24003,24019,24000,24018
201901151705,24018,24019,24013,24015
201901151706,24015,24022,24012,24019
201901151707,24019,24022,24018,24021
201901151708,24021,24027,24021,24023
201901151709,24023,24029,24023,24027
201901151710,24027,24032,24024,24026
201901151711,24026,24027,24023,24026
201901151712,24026,24028,24024,24025
201901151713,24025,24031,24025,24028
201901151714,24027,24031,24022,24022
201901151715,24022,24028,24021,24026
201901151716,24025,24026,24021,24022
201901151717,24022,24024,24018,24019
201901151718,24019,24020,24013,24015
201901151719,24015,24019,24015,24018
201901151720,24018,24020,24015,24015
201901151721,24015,24015,24006,24011
201901151722,24011,24015,24007,24008
201901151723,24007,24010,24005,24007
201901151724,24008,24011,24006,24009
201901151725,24009,24009,24004,24006
201901151726,24005,24005,24002,24002
201901151727,24002,24004,23994,23995
201901151728,23995,24005,23995,24001
201901151729,24001,24002,23991,23993
201901151730,23993,23995,23982,23983
201901151731,23983,23986,23975,23976
201901151732,23976,23980,23975,23978
201901151733,23978,23985,23978,23984
201901151734,23984,23984,23980,23981
201901151735,23981,23982,23978,23981
201901151736,23981,23983,23979,23979
201901151737,23979,23987,23979,23985
201901151738,23985,23985,23982,23985
201901151739,23985,23987,23984,23987
201901151740,23987,23990,23986,23990
201901151741,23990,23991,23987,23987
201901151742,23988,23990,23986,23988
201901151743,23988,23988,23981,23985
201901151744,23985,23990,23983,23988
201901151745,23990,23994,23986,23994
201901151746,23994,23994,23989,23989
201901151747,23989,23989,23984,23986
201901151748,23986,23987,23984,23985
201901151749,23985,23987,23981,23982
201901151750,23982,23985,23980,23982
201901151751,23982,23982,23973,23980
201901151752,23980,23990,23979,23989
201901151753,23988,23990,23980,23984
201901151754,23984,23988,23984,23984
201901151755,23984,23988,23984,23986
201901151756,23986,23988,23982,23983
201901151757,23983,23986,23974,23986
201901151758,23986,23986,23981,23981
201901151759,23982,23983,23978,23979
201901151800,23979,23980,23956,23957
201901151801,23957,23966,23957,23964
201901151802,23965,23968,23962,23965
201901151803,23965,23970,23963,23964
201901151804,23964,23965,23958,23958
201901151805,23958,23960,23947,23947
201901151806,23947,23948,23943,23944
201901151807,23944,23950,23943,23949
201901151808,23949,23954,23949,23953
201901151809,23952,23954,23947,23948
201901151810,23948,23953,23947,23952
201901151811,23952,23956,23950,23954
201901151812,23954,23954,23948,23948
201901151813,23948,23948,23938,23944
201901151814,23943,23948,23940,23947
201901151815,23947,23954,23943,23954
201901151816,23954,23956,23952,23955
201901151817,23955,23960,23953,23960
201901151818,23961,23962,23953,23954
201901151819,23954,23954,23945,23949
201901151820,23949,23949,23942,23946
201901151821,23946,23957,23946,23955
201901151822,23955,23959,23954,23957
201901151823,23957,23959,23956,23959
201901151824,23959,23964,23958,23962
201901151825,23962,23963,23957,23961
201901151826,23961,23966,23960,23964
201901151827,23964,23965,23961,23962
201901151828,23962,23963,23960,23962
201901151829,23962,23962,23953,23962
201901151830,23962,23970,23962,23969
201901151831,23969,23969,23961,23965
201901151832,23965,23971,23965,23970
201901151833,23970,23971,23958,23961
201901151834,23961,23962,23958,23959
201901151835,23959,23959,23951,23952
201901151836,23952,23956,23950,23952
201901151837,23952,23953,23944,23946
201901151838,23946,23946,23941,23944
201901151839,23944,23950,23941,23949
201901151840,23949,23951,23948,23950
201901151841,23950,23952,23946,23948
201901151842,23948,23949,23946,23946
201901151843,23946,23947,23941,23945
201901151844,23944,23948,23943,23947
201901151845,23947,23948,23944,23947
201901151846,23947,23953,23947,23951
201901151847,23952,23953,23948,23949
201901151848,23948,23951,23946,23947
201901151849,23947,23948,23942,23942
201901151850,23942,23944,23934,23941
201901151851,23941,23941,23933,23933
201901151852,23932,23936,23931,23934
201901151853,23934,23940,23933,23939
201901151854,23939,23940,23935,23935
201901151855,23935,23938,23933,23935
201901151856,23935,23939,23933,23935
201901151857,23935,23935,23926,23930
201901151858,23929,23930,23925,23929
201901151859,23929,23935,23927,23935
201901151900,23935,23937,23932,23937
201901151901,23937,23937,23934,23935
201901151902,23935,23940,23935,23940
201901151903,23940,23943,23938,23942
201901151904,23942,23945,23941,23945
201901151905,23945,23952,23945,23945
201901151906,23945,23945,23944,23944
201901151907,23944,23946,23944,23946
201901151908,23945,23945,23939,23941
201901151909,23941,23948,23941,23947
201901151910,23947,23952,23945,23952
201901151911,23951,23955,23951,23955
201901151912,23956,23958,23949,23949
201901151913,23949,23953,23949,23951
201901151914,23951,23951,23942,23945
201901151915,23945,23950,23945,23945
201901151916,23945,23948,23943,23947
201901151917,23947,23954,23947,23952
201901151918,23952,23952,23950,23951
201901151919,23951,23953,23945,23946
201901151920,23946,23946,23942,23944
201901151921,23944,23949,23944,23948
201901151922,23948,23950,23943,23945
201901151923,23945,23945,23940,23943
201901151924,23943,23945,23936,23943
201901151925,23943,23944,23937,23940
201901151926,23940,23949,23940,23949
201901151927,23949,23952,23945,23946
201901151928,23946,23947,23943,23944
201901151929,23944,23945,23938,23939
201901151930,23938,23938,23932,23934
201901151931,23933,23935,23933,23934
201901151932,23934,23937,23925,23927
201901151933,23927,23932,23925,23932
201901151934,23932,23937,23931,23937
201901151935,23936,23939,23934,23934
201901151936,23935,23942,23935,23939
201901151937,23939,23939,23933,23936
201901151938,23936,23943,23933,23941
201901151939,23941,23945,23941,23943
201901151940,23942,23946,23942,23944
201901151941,23944,23947,23942,23946
201901151942,23947,23952,23947,23951
201901151943,23951,23954,23945,23946
201901151944,23946,23949,23945,23948
201901151945,23948,23953,23946,23951
201901151946,23951,23957,23951,23955
201901151947,23955,23957,23946,23947
201901151948,23947,23951,23943,23944
201901151949,23945,23949,23941,23947
201901151950,23946,23948,23940,23940
201901151951,23940,23942,23938,23938
201901151952,23938,23940,23934,23939
201901151953,23939,23948,23939,23947
201901151954,23946,23955,23945,23954
201901151955,23954,23959,23942,23950
201901151956,23950,23959,23950,23957
201901151957,23957,23967,23955,23967
201901151958,23966,23971,23965,23968
201901151959,23968,23969,23959,23959
201901152000,23959,23966,23957,23959
201901152001,23959,23969,23959,23963
201901152002,23963,23966,23960,23964
201901152003,23963,23968,23958,23968
201901152004,23968,23975,23966,23974
201901152005,23974,23977,23973,23976
201901152006,23976,23984,23975,23980
201901152007,23980,23981,23973,23980
201901152008,23980,23982,23976,23977
201901152009,23977,23982,23977,23981
201901152010,23981,23982,23975,23975
201901152011,23975,23977,23967,23968
201901152012,23969,23972,23968,23969
201901152013,23969,23975,23965,23975
201901152014,23975,23975,23968,23969
201901152015,23968,23970,23965,23967
201901152016,23967,23967,23961,23962
201901152017,23962,23966,23961,23964
201901152018,23965,23970,23964,23969
201901152019,23969,23971,23967,23968
201901152020,23968,23974,23968,23969
201901152021,23969,23976,23968,23973
201901152022,23973,23973,23970,23971
201901152023,23971,23971,23964,23964
201901152024,23964,23965,23957,23957
201901152025,23957,23960,23955,23958
201901152026,23958,23965,23958,23962
201901152027,23962,23969,23962,23966
201901152028,23966,23969,23966,23967
201901152029,23967,23970,23964,23965
201901152030,23965,23967,23959,23960
201901152031,23961,23966,23961,23965
201901152032,23966,23972,23964,23970
201901152033,23970,23975,23968,23968
201901152034,23968,23970,23967,23969
201901152035,23969,23983,23969,23982
201901152036,23982,23984,23979,23980
201901152037,23980,23981,23976,23981
201901152038,23981,23982,23976,23977
201901152039,23977,23984,23977,23984
201901152040,23983,23993,23982,23991
201901152041,23991,23991,23988,23988
201901152042,23988,23989,23984,23984
201901152043,23984,23985,23982,23985
201901152044,23985,23988,23983,23984
201901152045,23984,23986,23981,23985
201901152046,23984,23987,23976,23980
201901152047,23980,23987,23976,23976
201901152048,23976,23979,23971,23974
201901152049,23977,23978,23965,23967
201901152050,23967,23969,23961,23963
201901152051,23963,23963,23945,23945
201901152052,23943,23950,23927,23927
201901152053,23927,23928,23912,23913
201901152054,23913,23917,23906,23909
201901152055,23908,23913,23907,23909
201901152056,23909,23909,23887,23887
201901152057,23887,23892,23883,23887
201901152058,23887,23896,23886,23894
201901152059,23894,23897,23892,23893
201901152100,23893,23895,23885,23893
201901152101,23893,23898,23891,23897
201901152102,23897,23906,23895,23896
201901152103,23896,23897,23888,23893
201901152104,23892,23900,23889,23899
201901152105,23899,23899,23893,23897
201901152106,23897,23902,23897,23901
201901152107,23902,23902,23884,23884
201901152108,23884,23892,23884,23892
201901152109,23891,23892,23882,23883
201901152110,23883,23884,23864,23872
201901152111,23872,23879,23872,23877
201901152112,23877,23877,23863,23863
201901152113,23863,23864,23855,23855
201901152114,23855,23864,23855,23864
201901152115,23864,23872,23864,23868
201901152116,23868,23875,23868,23875
201901152117,23874,23877,23872,23873
201901152118,23873,23876,23872,23875
201901152119,23875,23880,23875,23878
201901152120,23878,23879,23874,23876
201901152121,23876,23877,23871,23872
201901152122,23872,23874,23870,23871
201901152123,23871,23874,23869,23874
201901152124,23874,23878,23873,23875
201901152125,23875,23879,23871,23872
201901152126,23872,23880,23871,23879
201901152127,23880,23888,23874,23888
201901152128,23889,23889,23882,23882
201901152129,23882,23882,23876,23876
201901152130,23876,23876,23871,23873
201901152131,23873,23873,23871,23871
201901152132,23870,23872,23857,23858
201901152133,23858,23871,23858,23867
201901152134,23867,23870,23863,23863
201901152135,23862,23864,23857,23861
201901152136,23861,23864,23861,23864
201901152137,23864,23867,23862,23867
201901152138,23867,23873,23867,23873
201901152139,23873,23877,23870,23875
201901152140,23875,23875,23868,23870
201901152141,23870,23870,23863,23863
201901152142,23863,23867,23862,23867
201901152143,23867,23867,23862,23864
201901152144,23864,23865,23850,23859
201901152145,23859,23862,23858,23862
201901152146,23862,23866,23860,23860
201901152147,23859,23862,23858,23860
201901152148,23860,23864,23859,23862
201901152149,23862,23865,23860,23862
201901152150,23861,23862,23859,23861
201901152151,23861,23863,23861,23862
201901152152,23862,23863,23860,23862
201901152153,23862,23866,23858,23866
201901152154,23867,23868,23863,23867
201901152155,23867,23867,23862,23867
201901152156,23867,23867,23865,23866
201901152157,23866,23872,23866,23872
201901152158,23872,23873,23867,23868
201901152159,23868,23872,23868,23871
201901152200,23871,23875,23864,23871
201901152201,23871,23874,23868,23870
201901152202,23870,23879,23868,23875
201901152203,23876,23876,23872,23873
201901152204,23873,23874,23870,23871
201901152205,23871,23874,23869,23874
201901152206,23874,23887,23873,23877
201901152207,23877,23877,23868,23868
201901152208,23868,23873,23868,23871
201901152209,23870,23870,23862,23863
201901152210,23863,23868,23862,23868
201901152211,23868,23869,23865,23868
201901152212,23868,23868,23865,23866
201901152213,23866,23868,23862,23864
201901152214,23864,23866,23861,23862
201901152215,23863,23868,23862,23868
201901152216,23868,23877,23867,23875
201901152217,23875,23878,23871,23877
201901152218,23877,23877,23868,23868
201901152219,23868,23869,23861,23864
201901152220,23863,23865,23862,23863
201901152221,23864,23864,23852,23853
201901152222,23853,23855,23843,23844
201901152223,23844,23846,23840,23842
201901152224,23842,23847,23842,23844
201901152225,23844,23844,23840,23842
201901152226,23842,23843,23840,23843
201901152227,23843,23845,23838,23839
201901152228,23839,23840,23837,23838
201901152229,23838,23844,23838,23841
201901152230,23840,23844,23839,23841
201901152231,23841,23844,23832,23834
201901152232,23834,23837,23828,23835
201901152233,23835,23847,23834,23846
201901152234,23846,23846,23841,23843
201901152235,23843,23845,23833,23835
201901152236,23834,23837,23831,23834
201901152237,23834,23834,23824,23829
201901152238,23829,23836,23828,23829
201901152239,23829,23836,23829,23835
201901152240,23835,23835,23828,23828
201901152241,23828,23834,23828,23834
201901152242,23834,23839,23833,23839
201901152243,23839,23843,23838,23843
201901152244,23843,23848,23842,23845
201901152245,23845,23848,23845,23848
201901152246,23847,23849,23845,23848
201901152247,23848,23849,23845,23849
201901152248,23849,23852,23849,23851
201901152249,23851,23851,23848,23848
201901152250,23848,23848,23840,23841
201901152251,23841,23845,23841,23844
201901152252,23844,23848,23844,23845
201901152253,23845,23851,23845,23849
201901152254,23849,23852,23847,23849
201901152255,23849,23849,23843,23845
201901152256,23845,23846,23844,23845
201901152257,23845,23846,23841,23841
201901152258,23841,23842,23840,23841
201901152259,23841,23849,23841,23848
201901152300,23848,23851,23847,23847
201901152301,23847,23852,23847,23850
201901152302,23851,23859,23847,23856
201901152303,23856,23867,23856,23862
201901152304,23861,23862,23858,23859
201901152305,23859,23859,23852,23852
201901152306,23852,23853,23846,23850
201901152307,23851,23854,23849,23854
201901152308,23854,23858,23852,23856
201901152309,23856,23863,23856,23861
201901152310,23861,23862,23857,23859
201901152311,23859,23860,23854,23854
201901152312,23855,23856,23852,23855
201901152313,23855,23857,23854,23854
201901152314,23854,23854,23848,23852
201901152315,23852,23861,23850,23859
201901152316,23860,23865,23858,23864
201901152317,23864,23864,23858,23859
201901152318,23860,23862,23858,23859
201901152319,23859,23866,23859,23865
201901152320,23865,23866,23863,23864
201901152321,23864,23868,23864,23867
201901152322,23867,23873,23867,23870
201901152323,23871,23878,23871,23878
201901152324,23878,23880,23873,23874
201901152325,23874,23876,23870,23871
201901152326,23871,23872,23867,23867
201901152327,23867,23869,23861,23861
201901152328,23861,23863,23857,23863
201901152329,23862,23865,23859,23864
201901152330,23864,23882,23863,23870
201901152331,23870,23885,23866,23872
201901152332,23873,23881,23871,23872
201901152333,23872,23883,23865,23865
201901152334,23865,23876,23858,23863
201901152335,23863,23884,23857,23879
201901152336,23879,23927,23876,23925
201901152337,23925,23935,23914,23915
201901152338,23914,23922,23904,23920
201901152339,23920,23935,23914,23925
201901152340,23925,23932,23920,23927
201901152341,23927,23928,23918,23918
201901152342,23918,23933,23918,23932
201901152343,23932,23947,23930,23934
201901152344,23934,23945,23930,23943
201901152345,23943,23954,23936,23937
201901152346,23937,23938,23923,23927
201901152347,23927,23930,23925,23929
201901152348,23928,23938,23920,23922
201901152349,23922,23929,23918,23920
201901152350,23920,23946,23920,23941
201901152351,23941,23957,23927,23928
201901152352,23927,23932,23912,23916
201901152353,23916,23928,23915,23928
201901152354,23928,23934,23924,23933
201901152355,23933,23936,23922,23923
201901152356,23922,23926,23917,23917
201901152357,23918,23924,23912,23915
201901152358,23915,23925,23915,23916
201901152359,23917,23929,23916,23926
201901160000,23926,23974,23926,23970
201901160001,23970,24002,23970,24001
201901160002,24001,24010,23994,23996
201901160003,23996,24008,23996,24004
201901160004,24004,24004,23992,23995
201901160005,23995,23999,23987,23989
201901160006,23987,23997,23987,23996
201901160007,23997,23997,23989,23995
201901160008,23995,23997,23989,23992
201901160009,23991,23993,23955,23955
201901160010,23955,23961,23911,23944
201901160011,23946,23956,23922,23925
201901160012,23925,23932,23904,23907
201901160013,23907,23910,23890,23909
201901160014,23909,23910,23891,23902
201901160015,23902,23902,23863,23866
201901160016,23866,23887,23865,23876
201901160017,23876,23896,23874,23894
201901160018,23894,23902,23883,23884
201901160019,23884,23891,23875,23887
201901160020,23887,23889,23878,23885
201901160021,23885,23897,23878,23885
201901160022,23885,23886,23859,23869
201901160023,23869,23881,23865,23877
201901160024,23877,23899,23874,23892
201901160025,23892,23902,23883,23899
201901160026,23899,23904,23884,23884
201901160027,23884,23890,23880,23885
201901160028,23885,23899,23885,23896
201901160029,23895,23906,23889,23895
201901160030,23897,23921,23872,23883
201901160031,23883,23896,23882,23886
201901160032,23886,23896,23876,23893
201901160033,23893,23901,23884,23895
201901160034,23895,23912,23895,23908
201901160035,23908,23914,23900,23905
201901160036,23904,23920,23903,23912
201901160037,23912,23921,23909,23916
201901160038,23916,23928,23909,23926
201901160039,23926,23927,23911,23924
201901160040,23924,23959,23922,23945
201901160041,23945,23950,23934,23939
201901160042,23939,23950,23935,23942
201901160043,23942,23957,23939,23951
201901160044,23950,23954,23942,23945
201901160045,23945,23949,23932,23941
201901160046,23941,23946,23934,23940
201901160047,23939,23945,23927,23927
201901160048,23927,23928,23913,23927
201901160049,23927,23932,23919,23931
201901160050,23931,23943,23928,23940
201901160051,23940,23947,23937,23946
201901160052,23946,23956,23939,23951
201901160053,23951,23960,23948,23957
201901160054,23957,23961,23952,23956
201901160055,23956,23974,23956,23970
201901160056,23970,23972,23930,23946
201901160057,23946,23951,23941,23950
201901160058,23950,23958,23949,23957
201901160059,23956,23969,23956,23965
201901160100,23965,23971,23959,23963
201901160101,23963,23966,23957,23962
201901160102,23962,23980,23962,23968
201901160103,23966,23972,23966,23970
201901160104,23970,23982,23970,23980
201901160105,23980,23987,23973,23973
201901160106,23973,23974,23964,23965
201901160107,23965,23973,23964,23970
201901160108,23970,23974,23967,23969
201901160109,23969,23981,23968,23975
201901160110,23975,23975,23961,23964
201901160111,23964,23965,23940,23941
201901160112,23941,23963,23941,23958
201901160113,23958,23962,23951,23961
201901160114,23961,23961,23951,23955
201901160115,23955,23966,23948,23962
201901160116,23962,23972,23958,23968
201901160117,23969,23971,23961,23963
201901160118,23962,23970,23958,23961
201901160119,23961,23969,23957,23966
201901160120,23966,23971,23964,23966
201901160121,23966,23969,23961,23967
201901160122,23967,23968,23960,23961
201901160123,23961,23961,23940,23945
201901160124,23947,23948,23936,23940
201901160125,23939,23945,23927,23945
201901160126,23945,23946,23939,23945
201901160127,23945,23958,23944,23957
201901160128,23957,23961,23954,23954
201901160129,23955,23956,23945,23948
201901160130,23948,23952,23934,23942
201901160131,23942,23948,23939,23943
201901160132,23943,23947,23939,23941
201901160133,23941,23942,23933,23937
201901160134,23937,23942,23929,23940
201901160135,23940,23951,23940,23949
201901160136,23949,23950,23944,23947
201901160137,23947,23951,23937,23941
201901160138,23941,23949,23941,23945
201901160139,23945,23953,23945,23952
201901160140,23952,23959,23945,23957
201901160141,23957,23972,23951,23972
201901160142,23972,23983,23970,23974
201901160143,23974,23983,23970,23975
201901160144,23975,23975,23965,23966
201901160145,23966,23973,23966,23967
201901160146,23967,23980,23967,23973
201901160147,23973,23977,23970,23974
201901160148,23971,23976,23969,23975
201901160149,23975,23979,23974,23975
201901160150,23975,23979,23969,23972
201901160151,23971,23979,23968,23977
201901160152,23977,23978,23970,23975
201901160153,23975,23976,23968,23972
201901160154,23972,23980,23970,23977
201901160155,23977,23992,23977,23988
201901160156,23988,23998,23988,23996
201901160157,23995,23998,23991,23997
201901160158,23997,24022,23997,24018
201901160159,24018,24029,24018,24019
201901160200,24019,24026,24017,24020
201901160201,24020,24037,24020,24037
201901160202,24037,24056,24037,24056
201901160203,24055,24061,24052,24053
201901160204,24053,24057,24050,24055
201901160205,24055,24061,24054,24057
201901160206,24057,24069,24056,24061
201901160207,24063,24064,24052,24053
201901160208,24053,24055,24041,24041
201901160209,24041,24042,24038,24041
201901160210,24041,24048,24041,24048
201901160211,24047,24054,24046,24053
201901160212,24052,24060,24052,24059
201901160213,24061,24067,24058,24063
201901160214,24063,24063,24054,24057
201901160215,24058,24059,24050,24051
201901160216,24052,24055,24050,24054
201901160217,24054,24061,24053,24060
201901160218,24059,24059,24049,24050
201901160219,24050,24053,24048,24049
201901160220,24049,24054,24049,24053
201901160221,24053,24061,24053,24058
201901160222,24059,24069,24059,24062
201901160223,24062,24062,24053,24061
201901160224,24061,24063,24058,24061
201901160225,24061,24062,24051,24055
201901160226,24055,24056,24052,24053
201901160227,24053,24056,24051,24053
201901160228,24053,24056,24043,24043
201901160229,24043,24047,24041,24044
201901160230,24044,24047,24042,24043
201901160231,24043,24045,24031,24031
201901160232,24031,24033,24025,24028
201901160233,24028,24030,24018,24018
201901160234,24018,24024,24017,24023
201901160235,24023,24028,24019,24027
201901160236,24027,24035,24026,24034
201901160237,24035,24036,24033,24033
201901160238,24033,24037,24030,24036
201901160239,24036,24040,24036,24040
201901160240,24040,24047,24040,24046
201901160241,24046,24050,24036,24037
201901160242,24037,24040,24035,24037
201901160243,24037,24040,24027,24030
201901160244,24030,24034,24025,24029
201901160245,24029,24032,24024,24026
201901160246,24026,24040,24026,24037
201901160247,24037,24037,24031,24032
201901160248,24032,24032,24027,24028
201901160249,24027,24037,24027,24030
201901160250,24030,24030,24023,24027
201901160251,24027,24034,24026,24027
201901160252,24027,24030,24017,24020
201901160253,24020,24026,24017,24024
201901160254,24024,24025,24020,24021
201901160255,24021,24025,24020,24020
201901160256,24020,24020,24002,24002
201901160257,24002,24012,24000,24011
201901160258,24011,24015,24010,24014
201901160259,24014,24016,24011,24013
201901160300,24013,24013,24007,24008
201901160301,24009,24009,24006,24008
201901160302,24008,24008,24003,24005
201901160303,24005,24006,24000,24004
201901160304,24004,24008,24002,24008
201901160305,24007,24013,24006,24012
201901160306,24012,24020,24010,24020
201901160307,24020,24022,24017,24017
201901160308,24016,24021,24016,24017
201901160309,24017,24021,24017,24021
201901160310,24021,24021,24013,24015
201901160311,24015,24016,24012,24014
201901160312,24014,24015,23994,23999
201901160313,23999,24009,23999,24006
201901160314,24006,24006,23995,23996
201901160315,23996,23996,23989,23995
201901160316,23995,24000,23995,23999
201901160317,23999,24002,23994,23999
201901160318,23999,24005,23998,24003
201901160319,24003,24012,24003,24010
201901160320,24009,24024,24009,24022
201901160321,24022,24022,24009,24012
201901160322,24012,24014,24004,24007
201901160323,24006,24013,24004,24013
201901160324,24013,24014,24010,24012
201901160325,24012,24014,24005,24011
201901160326,24010,24013,24006,24013
201901160327,24014,24018,24013,24013
201901160328,24013,24021,24010,24013
201901160329,24013,24013,24009,24012
201901160330,24012,24016,24009,24013
201901160331,24013,24024,24008,24022
201901160332,24022,24022,24013,24015
201901160333,24015,24018,24015,24017
201901160334,24017,24018,24014,24018
201901160335,24017,24019,24016,24018
201901160336,24018,24029,24018,24023
201901160337,24023,24025,24021,24024
201901160338,24024,24027,24018,24018
201901160339,24019,24020,24016,24017
201901160340,24017,24020,24016,24018
201901160341,24019,24023,24016,24017
201901160342,24017,24023,24016,24018
201901160343,24018,24022,24017,24018
201901160344,24018,24021,24011,24014
201901160345,24014,24016,24012,24015
201901160346,24015,24016,24009,24010
201901160347,24009,24010,24003,24004
201901160348,24004,24004,23995,23997
201901160349,23997,24003,23994,24002
201901160350,24002,24005,24000,24004
201901160351,24005,24011,24004,24011
201901160352,24011,24012,24009,24010
201901160353,24010,24014,24009,24013
201901160354,24013,24014,24009,24009
201901160355,24010,24012,24006,24012
201901160356,24012,24013,24009,24011
201901160357,24011,24011,24005,24007
201901160358,24007,24012,24006,24012
201901160359,24012,24013,24006,24007
201901160400,24007,24017,24004,24014
201901160401,24014,24029,24012,24028
201901160402,24028,24037,24027,24033
201901160403,24033,24033,24022,24024
201901160404,24024,24025,23992,23993
201901160405,23993,23997,23981,23996
201901160406,23996,24000,23995,23997
201901160407,23997,24004,23997,24004
201901160408,24004,24004,23997,23999
201901160409,23999,24000,23990,23998
201901160410,23998,24006,23996,24002
201901160411,24002,24003,23998,23999
201901160412,23999,24003,23992,24003
201901160413,24003,24006,24000,24005
201901160414,24005,24005,23996,23998
201901160415,23998,23998,23963,23970
201901160416,23970,23985,23970,23977
201901160417,23977,23984,23977,23983
201901160418,23983,23986,23981,23983
201901160419,23983,23986,23981,23985
201901160420,23985,23985,23962,23971
201901160421,23971,23977,23969,23973
201901160422,23973,23975,23966,23973
201901160423,23973,23977,23968,23971
201901160424,23971,23971,23964,23965
201901160425,23965,23965,23950,23950
201901160426,23950,23950,23944,23948
201901160427,23948,23948,23941,23943
201901160428,23943,23953,23920,23925
201901160429,23925,23929,23904,23909
201901160430,23909,23909,23885,23903
201901160431,23903,23912,23895,23912
201901160432,23912,23919,23908,23919
201901160433,23918,23927,23916,23926
201901160434,23926,23932,23925,23928
201901160435,23928,23928,23920,23925
201901160436,23925,23929,23923,23926
201901160437,23927,23928,23913,23920
201901160438,23920,23929,23916,23928
201901160439,23928,23930,23883,23919
201901160440,23916,23937,23911,23927
201901160441,23927,23950,23921,23946
201901160442,23946,23963,23942,23953
201901160443,23953,23961,23946,23949
201901160444,23949,23952,23937,23947
201901160445,23947,23954,23941,23949
201901160446,23947,23961,23943,23957
201901160447,23957,23957,23948,23948
201901160448,23948,23952,23937,23947
201901160449,23946,23953,23933,23949
201901160450,23949,23968,23947,23968
201901160451,23968,23973,23962,23966
201901160452,23964,23968,23961,23966
201901160453,23966,23973,23966,23971
201901160454,23972,23972,23964,23967
201901160455,23967,23970,23957,23962
201901160456,23962,23969,23959,23960
201901160457,23960,23966,23958,23965
201901160458,23965,23973,23959,23966
201901160459,23966,23975,23965,23970
201901160500,23969,23972,23957,23972
201901160501,23972,23974,23966,23971
201901160502,23971,23982,23970,23979
201901160503,23979,23980,23967,23967
201901160504,23967,23982,23967,23978
201901160505,23978,23986,23970,23973
201901160506,23973,23984,23973,23983
201901160507,23983,23986,23980,23982
201901160508,23982,24001,23982,24001
201901160509,24001,24019,24001,24010
201901160510,24010,24017,24010,24016
201901160511,24016,24019,24007,24015
201901160512,24015,24015,24007,24008
201901160513,24007,24015,24007,24013
201901160514,24013,24018,24006,24016
201901160515,24016,24016,24009,24011
201901160516,24012,24016,24006,24008
201901160517,24009,24011,24002,24005
201901160518,24005,24006,23996,23997
201901160519,23992,24000,23991,23996
201901160520,23996,23996,23991,23992
201901160521,23992,23994,23980,23984
201901160522,23984,23992,23984,23988
201901160523,23988,23991,23982,23989
201901160524,23989,23992,23979,23982
201901160525,23982,23986,23979,23983
201901160526,23984,23984,23976,23977
201901160527,23977,23991,23977,23986
201901160528,23986,23996,23986,23989
201901160529,23989,24001,23989,23996
201901160530,23996,24001,23991,23991
201901160531,23991,24003,23990,24003
201901160532,24003,24007,23995,23999
201901160533,23999,24002,23996,24001
201901160534,24001,24008,23999,24001
201901160535,24001,24007,23996,23996
201901160536,23996,23996,23988,23989
201901160537,23989,23989,23983,23985
201901160538,23985,23991,23982,23988
201901160539,23988,23999,23983,23994
201901160540,23994,24001,23989,23998
201901160541,23998,24008,23992,24007
201901160542,24007,24015,24004,24012
201901160543,24012,24022,24007,24017
201901160544,24017,24021,24012,24018
201901160545,24018,24039,24018,24032
201901160546,24032,24033,24027,24031
201901160547,24031,24036,24029,24036
201901160548,24035,24053,24034,24045
201901160549,24045,24050,24030,24031
201901160550,24029,24032,24019,24022
201901160551,24022,24024,24017,24022
201901160552,24021,24026,24017,24017
201901160553,24017,24019,24012,24014
201901160554,24014,24022,24014,24020
201901160555,24020,24034,24015,24016
201901160556,24017,24030,24017,24024
201901160557,24024,24026,24019,24019
201901160558,24019,24022,24013,24017
201901160559,24018,24041,24018,24033
201901160600,24033,24036,24015,24025
201901160601,24025,24027,24015,24022
201901160602,24022,24024,24018,24019
201901160603,24019,24026,24019,24019
201901160604,24019,24023,24017,24022
201901160605,24022,24023,24009,24010
201901160606,24010,24010,24002,24005
201901160607,24005,24006,23998,24004
201901160608,24004,24007,24001,24001
201901160609,24001,24009,23998,24006
201901160610,24006,24008,24004,24005
201901160611,24005,24012,24005,24009
201901160612,24009,24009,24004,24009
201901160613,24009,24009,23999,23999
201901160614,23999,24001,23976,23980
