日時,始値(BID),高値(BID),安値(BID),終値(BID)
201901230800,24389,24391,24378,24390
201901230801,24387,24388,24380,24381
201901230802,24381,24382,24371,24380
201901230803,24381,24385,24378,24378
201901230804,24378,24378,24373,24375
201901230805,24374,24376,24374,24375
201901230806,24375,24376,24374,24374
201901230807,24374,24375,24374,24375
201901230808,24375,24376,24374,24374
201901230809,24374,24376,24373,24376
201901230810,24376,24377,24373,24376
201901230811,24376,24380,24375,24378
201901230812,24378,24394,24378,24385
201901230813,24384,24387,24379,24387
201901230814,24386,24386,24379,24379
201901230815,24379,24380,24378,24379
201901230816,24379,24381,24379,24380
201901230817,24380,24380,24379,24379
201901230818,24378,24378,24361,24361
201901230819,24361,24364,24355,24356
201901230820,24356,24363,24356,24362
201901230821,24362,24367,24362,24364
201901230822,24364,24365,24364,24365
201901230823,24367,24367,24363,24364
201901230824,24364,24364,24355,24355
201901230825,24355,24356,24350,24355
201901230826,24355,24361,24355,24361
201901230827,24361,24362,24358,24358
201901230828,24358,24368,24358,24367
201901230829,24367,24367,24362,24363
201901230830,24363,24363,24360,24361
201901230831,24360,24360,24354,24357
201901230832,24356,24360,24354,24360
201901230833,24360,24365,24360,24361
201901230834,24362,24366,24361,24366
201901230835,24366,24366,24361,24362
201901230836,24362,24373,24362,24372
201901230837,24372,24392,24369,24379
201901230838,24379,24385,24377,24385
201901230839,24384,24393,24384,24389
201901230840,24389,24390,24378,24379
201901230841,24379,24381,24373,24376
201901230842,24376,24391,24376,24386
201901230843,24386,24388,24385,24385
201901230844,24385,24385,24378,24378
201901230845,24378,24382,24377,24377
201901230846,24376,24379,24376,24378
201901230847,24378,24380,24376,24378
201901230848,24378,24381,24378,24380
201901230849,24380,24383,24380,24383
201901230850,24383,24386,24382,24386
201901230851,24386,24389,24384,24388
201901230852,24389,24402,24389,24393
201901230853,24393,24393,24386,24387
201901230854,24387,24391,24387,24389
201901230855,24389,24389,24385,24385
201901230856,24385,24386,24384,24385
201901230857,24385,24385,24382,24383
201901230858,24383,24383,24381,24382
201901230859,24383,24388,24383,24388
201901230900,24385,24391,24383,24389
201901230901,24389,24389,24385,24388
201901230902,24388,24395,24386,24392
201901230903,24392,24400,24388,24399
201901230904,24399,24406,24394,24394
201901230905,24394,24396,24390,24390
201901230906,24391,24413,24391,24404
201901230907,24405,24406,24401,24406
201901230908,24406,24417,24402,24416
201901230909,24415,24420,24410,24418
201901230910,24418,24423,24413,24413
201901230911,24413,24415,24410,24411
201901230912,24411,24415,24410,24415
201901230913,24415,24415,24410,24411
201901230914,24411,24414,24409,24414
201901230915,24414,24418,24410,24410
201901230916,24410,24410,24389,24389
201901230917,24389,24393,24388,24391
201901230918,24391,24393,24388,24393
201901230919,24393,24393,24384,24384
201901230920,24384,24388,24375,24388
201901230921,24387,24389,24386,24388
201901230922,24388,24391,24386,24389
201901230923,24389,24389,24382,24385
201901230924,24385,24391,24385,24388
201901230925,24388,24398,24388,24397
201901230926,24397,24404,24396,24403
201901230927,24403,24410,24402,24407
201901230928,24407,24408,24405,24406
201901230929,24406,24407,24405,24406
201901230930,24406,24418,24406,24413
201901230931,24413,24413,24404,24404
201901230932,24404,24408,24403,24405
201901230933,24406,24409,24405,24409
201901230934,24409,24416,24408,24415
201901230935,24415,24415,24408,24408
201901230936,24408,24409,24403,24404
201901230937,24404,24409,24404,24408
201901230938,24408,24411,24406,24409
201901230939,24409,24412,24409,24411
201901230940,24411,24416,24411,24416
201901230941,24416,24416,24411,24411
201901230942,24412,24413,24405,24409
201901230943,24409,24412,24408,24410
201901230944,24410,24412,24407,24408
201901230945,24408,24408,24402,24404
201901230946,24404,24404,24399,24401
201901230947,24401,24403,24400,24400
201901230948,24400,24401,24397,24399
201901230949,24399,24399,24395,24397
201901230950,24396,24401,24396,24397
201901230951,24398,24402,24397,24401
201901230952,24401,24401,24399,24400
201901230953,24400,24401,24396,24397
201901230954,24397,24398,24396,24396
201901230955,24397,24398,24394,24397
201901230956,24397,24397,24388,24391
201901230957,24392,24393,24386,24392
201901230958,24392,24392,24389,24391
201901230959,24392,24396,24390,24393
201901231000,24393,24395,24381,24381
201901231001,24381,24385,24379,24383
201901231002,24384,24385,24381,24385
201901231003,24385,24390,24384,24389
201901231004,24389,24395,24388,24391
201901231005,24391,24391,24386,24387
201901231006,24387,24391,24387,24391
201901231007,24391,24393,24381,24382
201901231008,24382,24388,24382,24385
201901231009,24385,24390,24385,24390
201901231010,24390,24392,24389,24390
201901231011,24390,24392,24388,24390
201901231012,24390,24402,24390,24400
201901231013,24400,24406,24400,24401
201901231014,24401,24408,24401,24405
201901231015,24405,24425,24405,24417
201901231016,24417,24420,24414,24420
201901231017,24420,24420,24412,24413
201901231018,24413,24418,24410,24411
201901231019,24412,24414,24410,24413
201901231020,24413,24414,24405,24408
201901231021,24408,24410,24406,24408
201901231022,24408,24410,24406,24407
201901231023,24407,24409,24406,24406
201901231024,24406,24411,24406,24410
201901231025,24410,24413,24408,24413
201901231026,24412,24419,24412,24418
201901231027,24418,24419,24416,24419
201901231028,24419,24419,24414,24414
201901231029,24414,24415,24409,24410
201901231030,24410,24427,24410,24426
201901231031,24426,24431,24420,24430
201901231032,24429,24432,24428,24430
201901231033,24430,24432,24428,24432
201901231034,24432,24437,24432,24433
201901231035,24433,24435,24431,24433
201901231036,24433,24436,24433,24433
201901231037,24433,24435,24431,24435
201901231038,24435,24436,24433,24433
201901231039,24432,24434,24431,24434
201901231040,24434,24436,24429,24429
201901231041,24429,24431,24427,24429
201901231042,24429,24430,24426,24426
201901231043,24426,24441,24426,24437
201901231044,24438,24456,24438,24455
201901231045,24455,24466,24455,24464
201901231046,24463,24466,24459,24464
201901231047,24464,24477,24462,24471
201901231048,24471,24491,24471,24481
201901231049,24481,24485,24475,24483
201901231050,24483,24488,24477,24478
201901231051,24478,24482,24475,24477
201901231052,24477,24480,24475,24476
201901231053,24476,24478,24473,24475
201901231054,24475,24481,24474,24481
201901231055,24481,24491,24479,24490
201901231056,24490,24493,24488,24488
201901231057,24488,24489,24485,24486
201901231058,24486,24488,24482,24485
201901231059,24485,24485,24482,24484
201901231100,24483,24486,24472,24474
201901231101,24474,24474,24466,24466
201901231102,24466,24469,24464,24468
201901231103,24468,24469,24459,24465
201901231104,24465,24465,24455,24455
201901231105,24455,24458,24453,24456
201901231106,24456,24458,24453,24457
201901231107,24457,24457,24450,24452
201901231108,24451,24456,24451,24456
201901231109,24455,24457,24451,24451
201901231110,24451,24459,24451,24458
201901231111,24458,24459,24453,24456
201901231112,24456,24456,24450,24453
201901231113,24454,24461,24454,24461
201901231114,24461,24462,24457,24457
201901231115,24457,24462,24457,24460
201901231116,24460,24462,24458,24461
201901231117,24461,24461,24456,24456
201901231118,24456,24457,24454,24457
201901231119,24457,24461,24456,24460
201901231120,24460,24462,24455,24462
201901231121,24462,24462,24458,24458
201901231122,24458,24462,24458,24459
201901231123,24459,24460,24457,24457
201901231124,24457,24457,24455,24457
201901231125,24457,24462,24457,24462
201901231126,24462,24466,24460,24465
201901231127,24466,24476,24466,24470
201901231128,24470,24470,24468,24468
201901231129,24468,24469,24464,24467
201901231130,24467,24474,24466,24466
201901231131,24466,24467,24461,24464
201901231132,24464,24465,24462,24465
201901231133,24465,24466,24463,24464
201901231134,24463,24463,24458,24458
201901231135,24458,24458,24456,24457
201901231136,24457,24461,24457,24459
201901231137,24459,24463,24459,24462
201901231138,24462,24462,24457,24459
201901231139,24459,24473,24457,24471
201901231140,24471,24475,24470,24471
201901231141,24471,24471,24464,24467
201901231142,24467,24467,24463,24465
201901231143,24465,24467,24465,24465
201901231144,24465,24465,24460,24460
201901231145,24461,24472,24460,24469
201901231146,24469,24471,24466,24471
201901231147,24471,24474,24463,24464
201901231148,24464,24468,24463,24467
201901231149,24467,24471,24467,24471
201901231150,24471,24472,24465,24465
201901231151,24465,24466,24463,24464
201901231152,24464,24466,24462,24462
201901231153,24463,24465,24462,24463
201901231154,24463,24466,24462,24464
201901231155,24464,24468,24464,24465
201901231156,24465,24468,24465,24466
201901231157,24466,24468,24457,24457
201901231158,24457,24462,24457,24460
201901231159,24460,24460,24457,24460
201901231200,24460,24460,24457,24457
201901231201,24458,24463,24457,24463
201901231202,24463,24466,24462,24466
201901231203,24466,24475,24465,24475
201901231204,24475,24475,24463,24464
201901231205,24464,24467,24463,24463
201901231206,24463,24464,24459,24459
201901231207,24459,24465,24459,24463
201901231208,24463,24467,24462,24464
201901231209,24464,24468,24463,24468
201901231210,24468,24469,24464,24465
201901231211,24466,24469,24462,24462
201901231212,24461,24469,24459,24468
201901231213,24468,24469,24460,24461
201901231214,24460,24464,24458,24462
201901231215,24462,24462,24459,24461
201901231216,24461,24466,24459,24461
201901231217,24461,24465,24461,24463
201901231218,24463,24466,24461,24465
201901231219,24465,24465,24460,24462
201901231220,24462,24466,24461,24463
201901231221,24463,24466,24462,24463
201901231222,24463,24468,24463,24467
201901231223,24467,24472,24466,24470
201901231224,24470,24471,24467,24469
201901231225,24469,24470,24466,24467
201901231226,24468,24468,24462,24465
201901231227,24465,24467,24463,24464
201901231228,24464,24465,24460,24460
201901231229,24460,24464,24458,24460
201901231230,24460,24461,24458,24458
201901231231,24458,24459,24453,24456
201901231232,24456,24457,24454,24456
201901231233,24456,24456,24454,24455
201901231234,24455,24458,24455,24457
201901231235,24457,24458,24455,24456
201901231236,24456,24457,24451,24453
201901231237,24453,24453,24451,24452
201901231238,24453,24458,24452,24456
201901231239,24455,24459,24455,24458
201901231240,24458,24458,24455,24456
201901231241,24456,24456,24450,24451
201901231242,24452,24456,24451,24456
201901231243,24455,24458,24455,24456
201901231244,24458,24458,24455,24455
201901231245,24455,24456,24454,24455
201901231246,24455,24456,24453,24456
201901231247,24456,24465,24456,24459
201901231248,24459,24459,24454,24455
201901231249,24456,24457,24455,24455
201901231250,24455,24457,24454,24456
201901231251,24457,24464,24457,24463
201901231252,24463,24463,24461,24462
201901231253,24462,24464,24458,24458
201901231254,24457,24458,24455,24457
201901231255,24457,24458,24453,24455
201901231256,24455,24458,24454,24458
201901231257,24458,24458,24454,24455
201901231258,24455,24455,24452,24455
201901231259,24454,24456,24454,24454
201901231300,24454,24454,24450,24451
201901231301,24451,24451,24445,24445
201901231302,24445,24449,24444,24449
201901231303,24449,24451,24447,24450
201901231304,24450,24451,24448,24448
201901231305,24449,24449,24445,24446
201901231306,24446,24447,24445,24447
201901231307,24446,24446,24436,24442
201901231308,24441,24449,24441,24445
201901231309,24445,24446,24439,24439
201901231310,24439,24444,24439,24444
201901231311,24445,24447,24441,24444
201901231312,24444,24449,24444,24446
201901231313,24446,24447,24445,24446
201901231314,24446,24449,24446,24449
201901231315,24450,24450,24446,24446
201901231316,24446,24449,24446,24449
201901231317,24449,24451,24448,24451
201901231318,24451,24451,24446,24447
201901231319,24447,24448,24446,24446
201901231320,24446,24448,24446,24446
201901231321,24446,24446,24443,24443
201901231322,24443,24445,24441,24445
201901231323,24445,24446,24444,24446
201901231324,24446,24446,24442,24442
201901231325,24442,24445,24442,24444
201901231326,24444,24450,24444,24444
201901231327,24443,24444,24443,24444
201901231328,24444,24444,24442,24442
201901231329,24442,24444,24440,24443
201901231330,24443,24446,24443,24444
201901231331,24444,24445,24442,24442
201901231332,24442,24447,24442,24447
201901231333,24447,24451,24446,24448
201901231334,24448,24448,24441,24441
201901231335,24441,24443,24436,24436
201901231336,24436,24437,24436,24437
201901231337,24437,24440,24437,24439
201901231338,24439,24441,24438,24438
201901231339,24438,24440,24438,24439
201901231340,24439,24439,24437,24437
201901231341,24437,24437,24434,24437
201901231342,24437,24437,24433,24433
201901231343,24433,24435,24433,24434
201901231344,24435,24436,24434,24434
201901231345,24435,24438,24435,24437
201901231346,24438,24440,24438,24440
201901231347,24440,24440,24436,24436
201901231348,24435,24438,24434,24438
201901231349,24437,24439,24437,24437
201901231350,24437,24441,24437,24440
201901231351,24440,24445,24440,24445
201901231352,24444,24445,24442,24442
201901231353,24443,24444,24441,24441
201901231354,24441,24444,24441,24444
201901231355,24444,24446,24443,24446
201901231356,24446,24447,24444,24444
201901231357,24444,24445,24441,24444
201901231358,24444,24447,24443,24447
201901231359,24447,24452,24447,24450
201901231400,24450,24451,24445,24446
201901231401,24445,24446,24440,24443
201901231402,24443,24443,24435,24436
201901231403,24436,24436,24433,24435
201901231404,24435,24441,24435,24440
201901231405,24440,24440,24437,24440
201901231406,24440,24440,24437,24439
201901231407,24439,24444,24439,24442
201901231408,24442,24444,24441,24442
201901231409,24442,24443,24439,24439
201901231410,24439,24439,24438,24438
201901231411,24438,24440,24438,24439
201901231412,24439,24441,24438,24441
201901231413,24441,24445,24441,24444
201901231414,24444,24444,24441,24442
201901231415,24442,24448,24441,24447
201901231416,24447,24449,24443,24444
201901231417,24443,24444,24439,24440
201901231418,24440,24440,24435,24435
201901231419,24435,24438,24435,24438
201901231420,24438,24438,24436,24437
201901231421,24437,24440,24437,24440
201901231422,24439,24440,24438,24440
201901231423,24439,24441,24438,24440
201901231424,24440,24444,24440,24444
201901231425,24444,24444,24440,24441
201901231426,24441,24441,24439,24440
201901231427,24440,24443,24440,24442
201901231428,24443,24443,24439,24439
201901231429,24439,24439,24435,24436
201901231430,24436,24438,24435,24438
201901231431,24438,24438,24436,24436
201901231432,24436,24438,24435,24438
201901231433,24438,24438,24435,24436
201901231434,24436,24438,24436,24436
201901231435,24436,24439,24435,24436
201901231436,24436,24436,24432,24432
201901231437,24432,24432,24428,24430
201901231438,24430,24432,24427,24432
201901231439,24433,24434,24431,24432
201901231440,24432,24432,24428,24429
201901231441,24428,24430,24428,24428
201901231442,24429,24431,24427,24429
201901231443,24429,24431,24429,24430
201901231444,24430,24433,24430,24432
201901231445,24433,24433,24429,24431
201901231446,24431,24432,24430,24430
201901231447,24430,24431,24428,24429
201901231448,24429,24429,24421,24422
201901231449,24422,24424,24421,24422
201901231450,24422,24427,24421,24427
201901231451,24427,24428,24424,24424
201901231452,24424,24428,24424,24428
201901231453,24427,24434,24427,24433
201901231454,24433,24434,24431,24433
201901231455,24433,24433,24427,24428
201901231456,24428,24434,24427,24433
201901231457,24433,24434,24432,24432
201901231458,24432,24434,24431,24431
201901231459,24431,24431,24427,24428
201901231500,24428,24433,24427,24432
201901231501,24431,24433,24431,24432
201901231502,24431,24434,24431,24434
201901231503,24434,24434,24431,24431
201901231504,24431,24432,24429,24430
201901231505,24430,24436,24429,24434
201901231506,24434,24435,24433,24434
201901231507,24434,24434,24431,24432
201901231508,24432,24437,24431,24436
201901231509,24436,24437,24433,24433
201901231510,24433,24435,24432,24433
201901231511,24433,24435,24433,24433
201901231512,24433,24435,24433,24435
201901231513,24435,24436,24435,24435
201901231514,24435,24435,24431,24432
201901231515,24431,24434,24430,24433
201901231516,24433,24435,24432,24435
201901231517,24435,24435,24432,24432
201901231518,24433,24437,24432,24435
201901231519,24435,24437,24434,24435
201901231520,24435,24438,24435,24437
201901231521,24437,24441,24436,24440
201901231522,24440,24444,24439,24444
201901231523,24444,24447,24444,24445
201901231524,24445,24448,24445,24447
201901231525,24447,24450,24445,24450
201901231526,24450,24450,24446,24447
201901231527,24447,24448,24446,24447
201901231528,24447,24447,24446,24446
201901231529,24445,24449,24445,24449
201901231530,24449,24450,24446,24447
201901231531,24446,24446,24443,24443
201901231532,24443,24445,24443,24444
201901231533,24445,24445,24440,24441
201901231534,24441,24453,24441,24453
201901231535,24453,24453,24449,24450
201901231536,24451,24452,24450,24451
201901231537,24451,24452,24450,24450
201901231538,24450,24451,24447,24447
201901231539,24447,24448,24445,24445
201901231540,24445,24447,24445,24446
201901231541,24446,24446,24442,24442
201901231542,24442,24444,24442,24443
201901231543,24443,24443,24440,24441
201901231544,24441,24442,24440,24442
201901231545,24441,24445,24441,24441
201901231546,24441,24442,24440,24440
201901231547,24440,24443,24438,24443
201901231548,24444,24444,24442,24442
201901231549,24442,24442,24438,24439
201901231550,24439,24441,24438,24440
201901231551,24440,24441,24439,24440
201901231552,24441,24441,24440,24440
201901231553,24441,24441,24440,24441
201901231554,24441,24441,24440,24440
201901231555,24440,24442,24438,24438
201901231556,24439,24439,24437,24438
201901231557,24438,24439,24438,24438
201901231558,24438,24438,24435,24437
201901231559,24437,24438,24435,24438
201901231600,24438,24442,24432,24433
201901231601,24433,24436,24431,24434
201901231602,24434,24434,24426,24428
201901231603,24428,24428,24420,24421
201901231604,24421,24431,24420,24429
201901231605,24428,24432,24426,24430
201901231606,24429,24431,24421,24421
201901231607,24421,24424,24414,24414
201901231608,24414,24417,24411,24412
201901231609,24412,24418,24412,24416
201901231610,24416,24423,24416,24423
201901231611,24422,24422,24420,24421
201901231612,24421,24421,24415,24416
201901231613,24416,24418,24413,24413
201901231614,24413,24413,24409,24410
201901231615,24410,24412,24405,24409
201901231616,24410,24412,24406,24406
201901231617,24406,24407,24396,24398
201901231618,24398,24398,24394,24394
201901231619,24394,24396,24390,24394
201901231620,24394,24402,24393,24402
201901231621,24402,24402,24396,24397
201901231622,24397,24400,24395,24395
201901231623,24395,24398,24394,24397
201901231624,24398,24403,24397,24403
201901231625,24403,24409,24403,24407
201901231626,24407,24411,24403,24406
201901231627,24406,24407,24403,24406
201901231628,24406,24406,24399,24402
201901231629,24401,24401,24395,24397
201901231630,24397,24401,24388,24401
201901231631,24401,24405,24397,24403
201901231632,24403,24406,24402,24403
201901231633,24403,24404,24399,24400
201901231634,24400,24410,24400,24408
201901231635,24407,24414,24407,24413
201901231636,24414,24414,24410,24411
201901231637,24411,24414,24406,24406
201901231638,24406,24409,24405,24409
201901231639,24409,24411,24406,24411
201901231640,24411,24417,24411,24414
201901231641,24413,24415,24412,24413
201901231642,24413,24413,24410,24412
201901231643,24412,24413,24406,24408
201901231644,24408,24408,24404,24408
201901231645,24409,24410,24407,24408
201901231646,24408,24411,24408,24410
201901231647,24408,24409,24401,24402
201901231648,24402,24407,24397,24406
201901231649,24406,24408,24404,24406
201901231650,24407,24408,24405,24405
201901231651,24405,24405,24400,24403
201901231652,24403,24404,24400,24404
201901231653,24405,24405,24399,24403
201901231654,24403,24405,24403,24404
201901231655,24404,24410,24404,24410
201901231656,24410,24415,24408,24413
201901231657,24413,24413,24403,24403
201901231658,24403,24403,24393,24397
201901231659,24397,24400,24394,24396
201901231700,24396,24408,24394,24394
201901231701,24394,24397,24387,24396
201901231702,24395,24402,24384,24385
201901231703,24385,24385,24368,24370
201901231704,24370,24376,24367,24372
201901231705,24373,24373,24364,24367
201901231706,24367,24372,24363,24366
201901231707,24366,24371,24363,24364
201901231708,24364,24368,24359,24364
201901231709,24364,24364,24358,24363
201901231710,24362,24366,24359,24360
201901231711,24360,24370,24359,24365
201901231712,24365,24369,24356,24363
201901231713,24364,24364,24354,24359
201901231714,24359,24359,24355,24358
201901231715,24358,24361,24354,24354
201901231716,24354,24367,24354,24364
201901231717,24364,24366,24359,24364
201901231718,24364,24372,24362,24370
201901231719,24370,24379,24369,24378
201901231720,24378,24387,24377,24378
201901231721,24378,24391,24376,24388
201901231722,24389,24396,24385,24392
201901231723,24392,24397,24391,24396
201901231724,24396,24396,24389,24392
201901231725,24392,24395,24390,24394
201901231726,24394,24394,24388,24389
201901231727,24389,24389,24385,24385
201901231728,24385,24386,24378,24378
201901231729,24378,24383,24378,24381
201901231730,24381,24381,24372,24376
201901231731,24376,24383,24375,24383
201901231732,24383,24396,24382,24394
201901231733,24395,24400,24394,24398
201901231734,24398,24399,24392,24393
201901231735,24393,24394,24389,24391
201901231736,24389,24403,24389,24401
201901231737,24401,24403,24399,24402
201901231738,24402,24407,24398,24405
201901231739,24405,24407,24403,24403
201901231740,24403,24405,24400,24400
201901231741,24401,24402,24396,24402
201901231742,24401,24403,24398,24398
201901231743,24399,24404,24398,24402
201901231744,24402,24406,24399,24405
201901231745,24406,24406,24394,24397
201901231746,24397,24402,24397,24402
201901231747,24402,24410,24399,24408
201901231748,24408,24408,24401,24404
201901231749,24404,24410,24401,24407
201901231750,24407,24409,24402,24404
201901231751,24404,24405,24400,24405
201901231752,24405,24405,24400,24402
201901231753,24402,24402,24396,24396
201901231754,24397,24399,24396,24396
201901231755,24396,24401,24396,24400
201901231756,24400,24400,24396,24400
201901231757,24400,24406,24396,24406
201901231758,24405,24405,24400,24401
201901231759,24402,24402,24393,24396
201901231800,24396,24400,24394,24398
201901231801,24398,24406,24398,24406
201901231802,24406,24412,24405,24409
201901231803,24409,24413,24409,24412
201901231804,24411,24412,24408,24411
201901231805,24411,24425,24410,24423
201901231806,24423,24423,24419,24420
201901231807,24420,24421,24417,24419
201901231808,24419,24419,24416,24419
201901231809,24418,24419,24416,24419
201901231810,24420,24425,24418,24420
201901231811,24420,24426,24420,24423
201901231812,24423,24427,24421,24426
201901231813,24426,24428,24425,24428
201901231814,24428,24435,24427,24435
201901231815,24435,24441,24434,24439
201901231816,24439,24440,24437,24438
201901231817,24439,24440,24431,24432
201901231818,24432,24436,24431,24436
201901231819,24436,24439,24435,24438
201901231820,24438,24438,24432,24432
201901231821,24432,24434,24431,24433
201901231822,24433,24433,24431,24431
201901231823,24431,24432,24431,24431
201901231824,24431,24438,24429,24438
201901231825,24438,24440,24432,24433
201901231826,24433,24440,24433,24440
201901231827,24439,24440,24435,24436
201901231828,24437,24439,24430,24438
201901231829,24438,24441,24435,24440
201901231830,24440,24453,24438,24452
201901231831,24452,24453,24437,24440
201901231832,24440,24440,24430,24430
201901231833,24430,24438,24427,24431
201901231834,24431,24432,24427,24427
201901231835,24427,24439,24426,24433
201901231836,24433,24434,24430,24430
201901231837,24430,24430,24423,24425
201901231838,24426,24441,24426,24440
201901231839,24440,24442,24437,24437
201901231840,24437,24442,24437,24441
201901231841,24440,24441,24437,24437
201901231842,24437,24437,24434,24435
201901231843,24435,24440,24435,24438
201901231844,24438,24448,24438,24445
201901231845,24446,24448,24439,24443
201901231846,24444,24449,24443,24449
201901231847,24449,24453,24447,24451
201901231848,24451,24456,24451,24451
201901231849,24451,24463,24451,24457
201901231850,24457,24462,24457,24459
201901231851,24459,24461,24457,24457
201901231852,24457,24457,24447,24447
201901231853,24447,24450,24444,24447
201901231854,24447,24459,24447,24459
201901231855,24459,24459,24451,24451
201901231856,24452,24456,24451,24455
201901231857,24455,24466,24454,24464
201901231858,24464,24466,24460,24463
201901231859,24463,24467,24462,24464
201901231900,24464,24466,24463,24465
201901231901,24465,24465,24460,24461
201901231902,24461,24464,24459,24461
201901231903,24461,24462,24459,24460
201901231904,24460,24460,24453,24453
201901231905,24453,24462,24453,24459
201901231906,24459,24460,24457,24458
201901231907,24459,24459,24454,24455
201901231908,24454,24459,24452,24458
201901231909,24458,24463,24458,24463
201901231910,24463,24466,24461,24465
201901231911,24465,24467,24462,24466
201901231912,24467,24468,24461,24464
201901231913,24464,24464,24458,24459
201901231914,24461,24462,24459,24461
201901231915,24461,24463,24459,24459
201901231916,24459,24464,24458,24464
201901231917,24464,24464,24463,24463
201901231918,24463,24470,24462,24470
201901231919,24470,24470,24467,24468
201901231920,24468,24473,24467,24472
201901231921,24472,24476,24472,24473
201901231922,24474,24481,24474,24476
201901231923,24476,24479,24473,24477
201901231924,24477,24481,24474,24479
201901231925,24479,24482,24477,24478
201901231926,24478,24479,24474,24476
201901231927,24476,24476,24470,24471
201901231928,24471,24473,24469,24471
201901231929,24472,24472,24469,24471
201901231930,24471,24472,24464,24464
201901231931,24464,24471,24464,24471
201901231932,24471,24482,24470,24481
201901231933,24481,24481,24470,24474
201901231934,24474,24478,24473,24474
201901231935,24474,24474,24468,24469
201901231936,24469,24473,24468,24469
201901231937,24469,24469,24461,24467
201901231938,24467,24468,24465,24465
201901231939,24465,24468,24463,24465
201901231940,24465,24471,24465,24469
201901231941,24469,24469,24463,24463
201901231942,24463,24466,24463,24466
201901231943,24466,24466,24461,24464
201901231944,24464,24468,24464,24465
201901231945,24465,24471,24465,24470
201901231946,24470,24471,24469,24469
201901231947,24469,24480,24469,24479
201901231948,24479,24480,24473,24480
201901231949,24480,24480,24477,24480
201901231950,24479,24486,24479,24481
201901231951,24481,24482,24477,24478
201901231952,24478,24478,24475,24476
201901231953,24476,24476,24472,24473
201901231954,24471,24473,24469,24471
201901231955,24471,24474,24467,24467
201901231956,24468,24469,24465,24466
201901231957,24467,24471,24465,24467
201901231958,24467,24467,24464,24466
201901231959,24466,24467,24464,24465
201901232000,24464,24469,24463,24465
201901232001,24465,24470,24465,24470
201901232002,24470,24470,24466,24466
201901232003,24466,24474,24466,24473
201901232004,24472,24474,24470,24471
201901232005,24470,24472,24462,24463
201901232006,24463,24467,24462,24465
201901232007,24465,24467,24464,24466
201901232008,24466,24466,24460,24464
201901232009,24464,24467,24464,24467
201901232010,24467,24467,24463,24463
201901232011,24463,24473,24463,24472
201901232012,24472,24474,24470,24471
201901232013,24471,24472,24464,24465
201901232014,24465,24465,24453,24458
201901232015,24458,24459,24455,24459
201901232016,24458,24459,24455,24459
201901232017,24458,24458,24455,24457
201901232018,24457,24458,24455,24457
201901232019,24457,24458,24450,24450
201901232020,24450,24455,24449,24451
201901232021,24452,24452,24448,24451
201901232022,24451,24451,24446,24451
201901232023,24451,24455,24451,24453
201901232024,24454,24459,24451,24457
201901232025,24458,24462,24457,24459
201901232026,24459,24459,24449,24450
201901232027,24450,24450,24448,24449
201901232028,24449,24450,24446,24449
201901232029,24449,24459,24448,24457
201901232030,24457,24465,24456,24464
201901232031,24464,24468,24461,24463
201901232032,24463,24464,24457,24458
201901232033,24458,24459,24454,24455
201901232034,24455,24460,24453,24459
201901232035,24459,24465,24459,24463
201901232036,24463,24463,24460,24463
201901232037,24463,24464,24460,24462
201901232038,24462,24475,24462,24473
201901232039,24473,24473,24469,24469
201901232040,24469,24470,24468,24469
201901232041,24469,24469,24464,24464
201901232042,24464,24468,24464,24468
201901232043,24468,24472,24467,24470
201901232044,24470,24473,24468,24469
201901232045,24469,24474,24469,24474
201901232046,24474,24475,24471,24472
201901232047,24472,24476,24468,24469
201901232048,24469,24471,24467,24467
201901232049,24467,24473,24467,24472
201901232050,24472,24474,24465,24465
201901232051,24465,24472,24465,24470
201901232052,24470,24483,24470,24482
201901232053,24482,24482,24474,24476
201901232054,24476,24477,24472,24474
201901232055,24475,24484,24475,24484
201901232056,24484,24497,24484,24494
201901232057,24494,24506,24494,24502
201901232058,24502,24504,24498,24500
201901232059,24500,24514,24499,24502
201901232100,24502,24514,24501,24512
201901232101,24512,24522,24512,24522
201901232102,24522,24522,24509,24511
201901232103,24511,24516,24511,24515
201901232104,24515,24518,24511,24517
201901232105,24517,24523,24517,24523
201901232106,24523,24527,24522,24526
201901232107,24525,24531,24525,24526
201901232108,24526,24531,24526,24530
201901232109,24530,24538,24529,24538
201901232110,24538,24548,24537,24548
201901232111,24547,24548,24537,24538
201901232112,24538,24541,24537,24540
201901232113,24540,24540,24535,24539
201901232114,24540,24541,24535,24538
201901232115,24538,24543,24537,24540
201901232116,24540,24544,24540,24541
201901232117,24541,24547,24540,24547
201901232118,24548,24554,24545,24546
201901232119,24546,24550,24544,24550
201901232120,24550,24558,24548,24556
201901232121,24556,24559,24554,24558
201901232122,24558,24558,24549,24549
201901232123,24548,24552,24544,24544
201901232124,24544,24571,24543,24568
201901232125,24568,24570,24564,24564
201901232126,24564,24564,24561,24564
201901232127,24563,24568,24563,24566
201901232128,24567,24569,24566,24568
201901232129,24569,24573,24568,24571
201901232130,24571,24573,24565,24565
201901232131,24566,24567,24563,24563
201901232132,24563,24564,24555,24558
201901232133,24558,24560,24554,24554
201901232134,24554,24557,24553,24555
201901232135,24555,24564,24555,24560
201901232136,24560,24573,24558,24570
201901232137,24570,24573,24568,24573
201901232138,24572,24572,24564,24565
201901232139,24565,24565,24561,24565
201901232140,24565,24568,24565,24566
201901232141,24565,24571,24563,24571
201901232142,24571,24572,24566,24567
201901232143,24567,24567,24559,24559
201901232144,24559,24566,24558,24566
201901232145,24566,24566,24559,24562
201901232146,24561,24563,24559,24561
201901232147,24561,24565,24561,24565
201901232148,24565,24566,24563,24563
201901232149,24563,24565,24557,24557
201901232150,24557,24558,24553,24553
201901232151,24553,24557,24553,24553
201901232152,24553,24558,24553,24558
201901232153,24558,24560,24556,24558
201901232154,24558,24560,24556,24557
201901232155,24557,24562,24555,24561
201901232156,24561,24566,24558,24562
201901232157,24561,24562,24559,24559
201901232158,24559,24562,24559,24561
201901232159,24561,24564,24559,24564
201901232200,24565,24565,24558,24563
201901232201,24563,24570,24560,24570
201901232202,24570,24591,24569,24583
201901232203,24583,24589,24580,24581
201901232204,24581,24581,24575,24578
201901232205,24578,24588,24577,24588
201901232206,24588,24589,24584,24585
201901232207,24585,24587,24583,24587
201901232208,24587,24588,24583,24588
201901232209,24587,24590,24586,24588
201901232210,24588,24589,24585,24587
201901232211,24587,24588,24581,24583
201901232212,24583,24584,24580,24580
201901232213,24580,24582,24576,24576
201901232214,24576,24578,24573,24573
201901232215,24573,24578,24573,24576
201901232216,24576,24578,24572,24577
201901232217,24577,24577,24571,24576
201901232218,24577,24577,24571,24571
201901232219,24571,24575,24571,24572
201901232220,24572,24576,24572,24573
201901232221,24573,24582,24573,24582
201901232222,24581,24581,24573,24573
201901232223,24573,24575,24564,24568
201901232224,24568,24569,24564,24566
201901232225,24565,24570,24565,24566
201901232226,24566,24567,24559,24559
201901232227,24559,24560,24557,24558
201901232228,24558,24562,24557,24561
201901232229,24561,24563,24560,24560
201901232230,24560,24560,24555,24557
201901232231,24557,24561,24557,24559
201901232232,24559,24560,24553,24555
201901232233,24555,24556,24544,24546
201901232234,24546,24547,24541,24544
201901232235,24544,24547,24543,24547
201901232236,24547,24551,24545,24545
201901232237,24545,24549,24545,24546
201901232238,24547,24548,24541,24546
201901232239,24546,24549,24542,24543
201901232240,24544,24545,24543,24544
201901232241,24544,24544,24540,24544
201901232242,24544,24546,24541,24545
201901232243,24545,24546,24541,24541
201901232244,24541,24541,24535,24540
201901232245,24540,24549,24540,24548
201901232246,24548,24550,24547,24549
201901232247,24548,24551,24548,24548
201901232248,24548,24551,24548,24551
201901232249,24551,24556,24550,24553
201901232250,24554,24554,24551,24553
201901232251,24553,24553,24551,24551
201901232252,24552,24556,24551,24554
201901232253,24555,24564,24554,24561
201901232254,24561,24566,24561,24562
201901232255,24562,24562,24561,24561
201901232256,24561,24565,24560,24565
201901232257,24565,24566,24562,24566
201901232258,24566,24570,24566,24566
201901232259,24566,24567,24562,24563
201901232300,24563,24568,24562,24564
201901232301,24564,24566,24562,24564
201901232302,24565,24568,24564,24564
201901232303,24564,24564,24560,24561
201901232304,24562,24566,24558,24564
201901232305,24564,24570,24563,24570
201901232306,24570,24572,24569,24571
201901232307,24571,24576,24568,24576
201901232308,24576,24586,24576,24584
201901232309,24585,24586,24580,24580
201901232310,24580,24584,24580,24583
201901232311,24584,24585,24583,24584
201901232312,24584,24586,24584,24585
201901232313,24585,24585,24579,24580
201901232314,24579,24580,24575,24579
201901232315,24578,24579,24576,24579
201901232316,24579,24583,24579,24581
201901232317,24580,24581,24572,24573
201901232318,24573,24576,24568,24568
201901232319,24568,24572,24567,24568
201901232320,24567,24574,24565,24573
201901232321,24573,24579,24573,24579
201901232322,24578,24581,24577,24581
201901232323,24581,24581,24573,24580
201901232324,24580,24586,24580,24585
201901232325,24585,24591,24585,24589
201901232326,24588,24595,24588,24595
201901232327,24595,24602,24593,24602
201901232328,24602,24609,24600,24604
201901232329,24604,24605,24597,24598
201901232330,24596,24602,24592,24593
201901232331,24593,24611,24590,24606
201901232332,24606,24608,24587,24591
201901232333,24592,24618,24592,24614
201901232334,24614,24630,24607,24624
201901232335,24624,24650,24624,24648
201901232336,24648,24651,24631,24641
201901232337,24641,24645,24628,24642
201901232338,24643,24646,24632,24636
201901232339,24636,24642,24630,24635
201901232340,24635,24643,24633,24638
201901232341,24638,24641,24625,24632
201901232342,24632,24633,24622,24625
201901232343,24625,24631,24623,24628
201901232344,24628,24632,24610,24614
201901232345,24615,24638,24614,24638
201901232346,24638,24639,24626,24626
201901232347,24626,24644,24624,24644
201901232348,24646,24667,24645,24663
201901232349,24663,24668,24656,24658
201901232350,24657,24669,24654,24666
201901232351,24667,24670,24659,24659
201901232352,24659,24660,24644,24647
201901232353,24647,24658,24646,24646
201901232354,24646,24656,24646,24653
201901232355,24653,24663,24653,24663
201901232356,24663,24666,24656,24659
201901232357,24659,24659,24650,24650
201901232358,24651,24655,24645,24646
201901232359,24646,24653,24641,24644
201901240000,24642,24652,24621,24622
201901240001,24622,24640,24622,24638
201901240002,24638,24650,24637,24643
201901240003,24644,24654,24644,24647
201901240004,24647,24664,24646,24656
201901240005,24656,24660,24642,24642
201901240006,24643,24645,24634,24640
201901240007,24640,24643,24632,24634
201901240008,24634,24640,24632,24638
201901240009,24638,24642,24631,24635
201901240010,24635,24646,24635,24642
201901240011,24642,24646,24629,24629
201901240012,24628,24635,24624,24624
201901240013,24624,24628,24615,24622
201901240014,24622,24628,24617,24621
201901240015,24621,24634,24621,24626
201901240016,24626,24628,24612,24614
201901240017,24615,24615,24604,24611
201901240018,24611,24613,24580,24581
201901240019,24581,24589,24572,24573
201901240020,24572,24588,24569,24584
201901240021,24584,24587,24575,24575
201901240022,24575,24575,24550,24551
201901240023,24551,24563,24549,24559
201901240024,24559,24565,24557,24557
201901240025,24557,24566,24554,24557
201901240026,24557,24557,24545,24547
201901240027,24548,24560,24548,24549
201901240028,24549,24549,24531,24536
201901240029,24537,24538,24527,24535
201901240030,24536,24536,24513,24523
201901240031,24523,24529,24522,24522
201901240032,24522,24540,24522,24539
201901240033,24539,24549,24537,24548
201901240034,24549,24549,24534,24538
201901240035,24538,24546,24535,24538
201901240036,24540,24545,24522,24534
201901240037,24534,24545,24530,24533
201901240038,24533,24546,24533,24538
201901240039,24538,24539,24517,24518
201901240040,24518,24523,24494,24501
201901240041,24501,24515,24497,24512
201901240042,24512,24519,24508,24511
201901240043,24511,24511,24498,24504
201901240044,24504,24504,24484,24486
201901240045,24487,24500,24478,24500
201901240046,24500,24504,24493,24499
201901240047,24499,24507,24494,24495
201901240048,24493,24509,24486,24507
201901240049,24507,24509,24494,24496
201901240050,24496,24496,24478,24490
201901240051,24490,24494,24480,24481
201901240052,24481,24483,24466,24471
201901240053,24471,24476,24463,24472
201901240054,24473,24484,24469,24484
201901240055,24484,24486,24480,24482
201901240056,24482,24483,24475,24476
201901240057,24475,24476,24461,24462
201901240058,24462,24479,24462,24477
201901240059,24477,24481,24471,24479
201901240100,24480,24490,24478,24482
201901240101,24482,24483,24473,24476
201901240102,24476,24484,24470,24472
201901240103,24468,24481,24468,24479
201901240104,24479,24497,24476,24496
201901240105,24496,24507,24495,24503
201901240106,24503,24504,24491,24498
201901240107,24498,24506,24496,24501
201901240108,24500,24500,24491,24493
201901240109,24493,24495,24484,24493
201901240110,24493,24506,24491,24503
201901240111,24503,24520,24503,24517
201901240112,24517,24522,24508,24513
201901240113,24513,24516,24499,24499
201901240114,24499,24507,24498,24501
201901240115,24501,24509,24500,24507
201901240116,24507,24509,24489,24490
201901240117,24490,24490,24463,24463
201901240118,24463,24463,24438,24442
201901240119,24441,24451,24439,24451
201901240120,24451,24451,24435,24438
201901240121,24439,24439,24428,24437
201901240122,24438,24438,24425,24429
201901240123,24429,24436,24424,24425
201901240124,24426,24426,24412,24417
201901240125,24416,24426,24414,24415
201901240126,24415,24417,24394,24403
201901240127,24404,24411,24401,24410
201901240128,24409,24420,24400,24419
201901240129,24420,24435,24416,24431
201901240130,24431,24434,24421,24425
201901240131,24425,24425,24413,24418
201901240132,24419,24426,24416,24424
201901240133,24424,24440,24422,24435
201901240134,24434,24443,24430,24440
201901240135,24439,24449,24437,24441
201901240136,24441,24441,24425,24433
201901240137,24433,24436,24427,24427
201901240138,24427,24429,24419,24424
201901240139,24424,24437,24423,24433
201901240140,24434,24434,24415,24419
201901240141,24419,24431,24416,24421
201901240142,24421,24430,24403,24405
201901240143,24405,24420,24405,24414
201901240144,24414,24417,24402,24404
201901240145,24404,24414,24398,24399
201901240146,24399,24399,24371,24374
201901240147,24374,24377,24369,24373
201901240148,24373,24378,24367,24374
201901240149,24374,24376,24361,24361
201901240150,24361,24374,24361,24366
201901240151,24366,24377,24364,24377
201901240152,24376,24378,24363,24363
201901240153,24363,24363,24345,24345
201901240154,24345,24355,24330,24341
201901240155,24341,24351,24332,24335
201901240156,24335,24350,24332,24348
201901240157,24348,24355,24332,24332
201901240158,24332,24340,24325,24328
201901240159,24328,24342,24320,24342
201901240200,24342,24351,24337,24341
201901240201,24341,24345,24320,24341
201901240202,24341,24354,24341,24348
201901240203,24348,24357,24347,24354
201901240204,24354,24354,24342,24350
201901240205,24351,24352,24338,24344
201901240206,24344,24358,24340,24358
201901240207,24358,24359,24339,24341
201901240208,24340,24340,24277,24278
201901240209,24278,24307,24278,24304
201901240210,24307,24315,24301,24305
201901240211,24306,24312,24302,24304
201901240212,24304,24313,24301,24307
201901240213,24307,24312,24297,24303
201901240214,24303,24326,24302,24315
201901240215,24315,24316,24289,24293
201901240216,24293,24298,24288,24294
201901240217,24294,24313,24292,24307
201901240218,24307,24311,24298,24298
201901240219,24297,24309,24288,24309
201901240220,24309,24314,24301,24312
201901240221,24312,24337,24312,24333
201901240222,24333,24333,24320,24320
201901240223,24320,24334,24320,24332
201901240224,24332,24354,24329,24348
201901240225,24349,24351,24340,24350
201901240226,24350,24370,24350,24367
201901240227,24367,24367,24359,24359
201901240228,24360,24365,24355,24361
201901240229,24361,24367,24361,24362
201901240230,24362,24382,24355,24379
201901240231,24379,24386,24377,24386
201901240232,24386,24397,24384,24388
201901240233,24389,24393,24381,24381
201901240234,24380,24385,24377,24380
201901240235,24380,24383,24376,24383
201901240236,24383,24384,24377,24379
201901240237,24380,24383,24364,24380
201901240238,24380,24381,24367,24368
201901240239,24368,24378,24361,24374
201901240240,24375,24376,24365,24370
201901240241,24370,24371,24363,24369
201901240242,24369,24384,24366,24384
201901240243,24383,24383,24368,24375
201901240244,24375,24390,24375,24385
201901240245,24385,24412,24385,24403
201901240246,24403,24404,24395,24395
201901240247,24395,24408,24395,24403
201901240248,24403,24416,24400,24415
201901240249,24415,24415,24409,24411
201901240250,24411,24412,24401,24403
201901240251,24403,24420,24399,24417
201901240252,24417,24422,24412,24417
201901240253,24417,24424,24416,24420
201901240254,24420,24423,24411,24412
201901240255,24413,24413,24402,24409
201901240256,24409,24414,24402,24411
201901240257,24411,24432,24410,24429
201901240258,24429,24436,24428,24432
201901240259,24432,24441,24432,24433
201901240300,24433,24437,24423,24427
201901240301,24426,24433,24424,24425
201901240302,24425,24426,24406,24407
201901240303,24408,24410,24396,24397
201901240304,24396,24405,24396,24400
201901240305,24400,24400,24390,24395
201901240306,24394,24396,24382,24382
201901240307,24382,24384,24377,24379
201901240308,24379,24395,24378,24395
201901240309,24394,24435,24392,24430
201901240310,24429,24435,24418,24424
201901240311,24424,24424,24413,24419
201901240312,24420,24422,24404,24405
201901240313,24406,24418,24402,24414
201901240314,24414,24419,24404,24405
201901240315,24405,24420,24405,24417
201901240316,24417,24424,24412,24418
201901240317,24418,24453,24417,24446
201901240318,24446,24451,24441,24444
201901240319,24444,24445,24435,24437
201901240320,24437,24441,24436,24437
201901240321,24437,24451,24437,24447
201901240322,24446,24452,24444,24446
201901240323,24446,24450,24440,24442
201901240324,24441,24446,24438,24441
201901240325,24441,24442,24438,24439
201901240326,24439,24447,24436,24445
201901240327,24445,24445,24438,24440
201901240328,24440,24442,24426,24426
201901240329,24426,24428,24421,24424
201901240330,24424,24437,24424,24435
201901240331,24435,24452,24435,24452
201901240332,24450,24464,24450,24453
201901240333,24453,24462,24451,24454
201901240334,24454,24460,24448,24452
201901240335,24452,24466,24452,24464
201901240336,24464,24465,24460,24462
201901240337,24462,24465,24461,24462
201901240338,24462,24462,24456,24456
201901240339,24456,24464,24453,24454
201901240340,24454,24458,24445,24445
201901240341,24445,24454,24445,24448
201901240342,24448,24452,24442,24447
201901240343,24447,24456,24447,24455
201901240344,24455,24470,24455,24464
201901240345,24465,24472,24463,24469
201901240346,24469,24477,24464,24473
201901240347,24473,24476,24465,24466
201901240348,24466,24478,24464,24471
201901240349,24471,24471,24462,24464
201901240350,24464,24468,24460,24461
201901240351,24461,24471,24461,24464
201901240352,24463,24463,24449,24450
201901240353,24450,24458,24450,24457
201901240354,24456,24475,24456,24470
201901240355,24470,24478,24464,24476
201901240356,24476,24481,24462,24463
201901240357,24463,24470,24456,24460
201901240358,24460,24479,24455,24464
201901240359,24464,24470,24461,24468
201901240400,24468,24482,24468,24480
201901240401,24480,24494,24478,24494
201901240402,24499,24511,24498,24509
201901240403,24509,24518,24505,24514
201901240404,24514,24516,24509,24514
201901240405,24514,24515,24506,24508
201901240406,24507,24512,24506,24510
201901240407,24510,24512,24501,24502
201901240408,24503,24506,24502,24504
201901240409,24504,24507,24501,24505
201901240410,24505,24510,24502,24503
201901240411,24502,24511,24502,24509
201901240412,24509,24512,24504,24504
201901240413,24504,24505,24501,24504
201901240414,24504,24505,24499,24501
201901240415,24500,24501,24493,24496
201901240416,24495,24495,24480,24481
201901240417,24482,24483,24472,24477
201901240418,24477,24477,24456,24462
201901240419,24462,24462,24453,24459
201901240420,24460,24474,24460,24468
201901240421,24468,24476,24467,24474
201901240422,24474,24479,24472,24477
201901240423,24477,24503,24477,24497
201901240424,24496,24501,24491,24497
201901240425,24497,24498,24487,24490
201901240426,24490,24492,24486,24489
201901240427,24489,24515,24489,24513
201901240428,24513,24514,24500,24500
201901240429,24500,24504,24496,24502
201901240430,24502,24502,24476,24485
201901240431,24485,24492,24482,24488
201901240432,24488,24488,24474,24484
201901240433,24484,24484,24460,24475
201901240434,24475,24493,24472,24488
201901240435,24488,24502,24487,24501
201901240436,24501,24502,24494,24499
201901240437,24499,24501,24466,24470
201901240438,24470,24493,24469,24482
201901240439,24482,24486,24471,24479
201901240440,24479,24479,24467,24472
201901240441,24472,24475,24451,24457
201901240442,24457,24468,24455,24463
201901240443,24463,24463,24453,24458
201901240444,24458,24463,24446,24446
201901240445,24446,24446,24427,24430
201901240446,24430,24444,24427,24439
201901240447,24439,24444,24435,24436
201901240448,24437,24442,24432,24441
201901240449,24441,24451,24438,24449
201901240450,24449,24463,24447,24463
201901240451,24463,24480,24463,24468
201901240452,24468,24475,24465,24469
201901240453,24469,24472,24461,24465
201901240454,24464,24472,24462,24465
201901240455,24465,24468,24458,24463
201901240456,24464,24467,24454,24458
201901240457,24458,24470,24458,24463
201901240458,24462,24475,24462,24471
201901240459,24471,24480,24469,24469
201901240500,24467,24488,24464,24478
201901240501,24477,24489,24477,24489
201901240502,24489,24504,24488,24493
201901240503,24493,24502,24493,24496
201901240504,24496,24503,24493,24496
201901240505,24496,24518,24496,24514
201901240506,24514,24514,24496,24499
201901240507,24499,24499,24490,24495
201901240508,24496,24498,24475,24476
201901240509,24476,24488,24476,24485
201901240510,24485,24488,24479,24486
201901240511,24485,24496,24483,24493
201901240512,24494,24505,24493,24504
201901240513,24504,24509,24502,24503
201901240514,24503,24505,24496,24499
201901240515,24499,24518,24499,24515
201901240516,24516,24529,24514,24527
201901240517,24527,24532,24527,24530
201901240518,24529,24530,24522,24528
201901240519,24528,24544,24528,24538
201901240520,24538,24545,24535,24545
201901240521,24544,24554,24544,24547
201901240522,24546,24556,24542,24555
201901240523,24555,24567,24544,24547
201901240524,24547,24550,24541,24541
201901240525,24541,24546,24537,24540
201901240526,24540,24542,24536,24540
201901240527,24540,24541,24534,24536
201901240528,24536,24538,24529,24536
201901240529,24536,24550,24534,24545
201901240530,24545,24550,24527,24530
201901240531,24530,24533,24520,24521
201901240532,24521,24526,24521,24524
201901240533,24524,24530,24515,24516
201901240534,24516,24525,24516,24518
201901240535,24519,24522,24516,24517
201901240536,24517,24529,24516,24525
201901240537,24525,24531,24521,24528
201901240538,24529,24541,24528,24540
201901240539,24540,24540,24520,24528
201901240540,24529,24538,24529,24533
201901240541,24533,24537,24530,24537
201901240542,24537,24543,24535,24541
201901240543,24540,24543,24537,24540
201901240544,24540,24547,24531,24534
201901240545,24534,24538,24518,24532
201901240546,24531,24540,24531,24538
201901240547,24538,24542,24533,24534
201901240548,24534,24545,24532,24538
201901240549,24538,24543,24533,24543
201901240550,24543,24544,24536,24536
201901240551,24536,24539,24529,24530
201901240552,24530,24531,24515,24517
201901240553,24517,24524,24517,24521
201901240554,24521,24530,24520,24524
201901240555,24524,24542,24524,24540
201901240556,24540,24546,24538,24544
201901240557,24544,24548,24530,24530
201901240558,24530,24540,24530,24534
201901240559,24533,24560,24533,24550
201901240600,24554,24562,24551,24558
201901240601,24558,24558,24547,24548
201901240602,24550,24551,24533,24535
201901240603,24534,24548,24533,24548
201901240604,24547,24551,24544,24546
201901240605,24546,24547,24540,24543
201901240606,24543,24543,24535,24537
201901240607,24536,24540,24536,24538
201901240608,24538,24543,24537,24539
201901240609,24539,24544,24538,24543
201901240610,24543,24549,24542,24543
201901240611,24543,24543,24536,24539
201901240612,24539,24547,24538,24547
201901240613,24547,24559,24544,24554
201901240614,24554,24560,24545,24548
