日時,始値(BID),高値(BID),安値(BID),終値(BID)
201903050800,7144.3,7144.3,7138.9,7138.9
201903050801,7138.9,7140.5,7137.2,7138
201903050802,7138,7138.1,7137.1,7138.1
201903050803,7138.1,7139.3,7137.9,7138.8
201903050804,7138.8,7139.8,7138.8,7139.5
201903050805,7139.5,7139.8,7139.3,7139.3
201903050806,7139.3,7139.3,7138.3,7138.5
201903050807,7138.5,7138.6,7136.9,7137.4
201903050808,7137.4,7137.8,7135.3,7135.9
201903050809,7135.9,7137.3,7135.9,7136.8
201903050810,7136.8,7137.6,7136.8,7137.6
201903050811,7137.6,7138.1,7137.1,7137.4
201903050812,7137.4,7138.3,7137.2,7138.3
201903050813,7138.3,7138.3,7137.1,7137.6
201903050814,7137.6,7138.2,7137.6,7138.2
201903050815,7138.1,7139.3,7138,7138.8
201903050816,7138.8,7139.1,7138.8,7139
201903050817,7139,7139,7138.2,7138.5
201903050818,7138.5,7139,7138.5,7138.8
201903050819,7138.8,7138.9,7137.9,7138.1
201903050820,7138.1,7139.2,7138,7138.9
201903050821,7138.9,7139,7138.5,7138.5
201903050822,7138.5,7139.1,7137.6,7137.8
201903050823,7137.9,7138.5,7137.9,7138.5
201903050824,7138.5,7139,7138.5,7139
201903050825,7139,7140.1,7139,7140.1
201903050826,7140.1,7140.1,7139.4,7139.7
201903050827,7139.7,7140.1,7138.7,7138.7
201903050828,7138.7,7138.9,7137.9,7137.9
201903050829,7137.9,7137.9,7136.9,7137.4
201903050830,7137.4,7138.1,7137.4,7137.6
201903050831,7137.7,7138.6,7137.7,7138.6
201903050832,7138.6,7139.8,7138.3,7139.5
201903050833,7139.5,7139.5,7138.9,7139.5
201903050834,7139.5,7141.3,7139.5,7140.7
201903050835,7140.7,7141,7139.2,7139.2
201903050836,7139.2,7139.3,7138.1,7138.1
201903050837,7138.1,7138.8,7138,7138.8
201903050838,7138.8,7139.1,7138.6,7138.7
201903050839,7138.9,7139.4,7138.8,7139.4
201903050840,7139.4,7140.2,7139.3,7139.6
201903050841,7139.6,7140.4,7139.3,7139.9
201903050842,7139.9,7140,7139.7,7139.7
201903050843,7139.7,7140.7,7138.9,7140.4
201903050844,7140.4,7141,7139.9,7140.1
201903050845,7140.1,7140.4,7137,7138
201903050846,7138,7138.6,7134.8,7137.8
201903050847,7137.7,7137.7,7135.3,7135.5
201903050848,7135.4,7136.9,7134.9,7136.8
201903050849,7136.8,7138.6,7136.8,7138.6
201903050850,7138.6,7139.6,7138.4,7139
201903050851,7139,7139,7137.6,7138.6
201903050852,7138.5,7139.8,7138.5,7138.9
201903050853,7138.9,7139.4,7138.5,7138.8
201903050854,7138.8,7138.8,7138.2,7138.7
201903050855,7138.7,7140,7138.2,7138.9
201903050856,7138.9,7139.3,7138.7,7139.1
201903050857,7139.2,7139.8,7138.9,7139.8
201903050858,7139.8,7141.5,7139.8,7140.9
201903050859,7140.9,7141.6,7140.7,7141.4
201903050900,7141.4,7145.4,7141.4,7145.4
201903050901,7145.4,7145.5,7143.3,7143.4
201903050902,7143.3,7143.3,7140.9,7141.2
201903050903,7141,7141.2,7138.1,7140.3
201903050904,7140.3,7141.3,7140.1,7140.4
201903050905,7140.4,7140.7,7134.9,7137.3
201903050906,7137.3,7138.3,7135.8,7136.5
201903050907,7136.4,7139.9,7136.4,7139.9
201903050908,7139.9,7141.8,7139.9,7140.6
201903050909,7140.6,7141.9,7140,7141.3
201903050910,7141.3,7143.3,7141.2,7142
201903050911,7141.9,7141.9,7140.8,7141.4
201903050912,7141.4,7141.8,7140.1,7140.3
201903050913,7140.3,7142.8,7140.3,7141.8
201903050914,7141.8,7141.9,7139.3,7140
201903050915,7140.3,7140.3,7139.4,7139.4
201903050916,7139.3,7140.4,7138.9,7140
201903050917,7140,7142,7139.9,7141.6
201903050918,7141.4,7141.8,7140.5,7141.7
201903050919,7141.7,7141.9,7140.8,7141.3
201903050920,7141.3,7142.4,7141.3,7141.9
201903050921,7142,7144.4,7141.8,7143.1
201903050922,7143.1,7144.7,7143,7144.4
201903050923,7144.4,7144.4,7143.4,7144
201903050924,7144,7144.2,7143.5,7143.7
201903050925,7143.7,7143.9,7142.9,7143.7
201903050926,7143.7,7143.8,7142.9,7142.9
201903050927,7142.9,7144.8,7142.9,7144.2
201903050928,7144.2,7144.4,7143.6,7144.4
201903050929,7144.3,7145,7143.7,7143.7
201903050930,7143.7,7145,7143.7,7144.9
201903050931,7144.9,7146.2,7144.8,7145.7
201903050932,7145.7,7146.2,7145.6,7146.2
201903050933,7146.2,7147.2,7146,7146.6
201903050934,7146.6,7147,7145.4,7145.9
201903050935,7145.9,7147.6,7145.9,7147.5
201903050936,7147.5,7147.9,7146.1,7146.4
201903050937,7146.4,7147.9,7145.3,7145.4
201903050938,7145.4,7145.6,7144.9,7145.1
201903050939,7145.1,7145.6,7144.4,7144.5
201903050940,7144.7,7145.1,7144.3,7145
201903050941,7144.9,7145.3,7144.2,7145.1
201903050942,7145.2,7145.2,7144.4,7144.6
201903050943,7144.7,7144.8,7144.4,7144.7
201903050944,7144.7,7145,7144.2,7144.7
201903050945,7144.7,7144.8,7143.9,7144.1
201903050946,7144.1,7144.1,7142.5,7143.2
201903050947,7143,7143,7141.6,7142
201903050948,7142,7142.5,7141,7141.3
201903050949,7141.3,7142,7140.5,7141.7
201903050950,7141.7,7142.5,7141.7,7142.4
201903050951,7142.3,7142.6,7141.9,7142.2
201903050952,7142.1,7143.3,7141.4,7142.9
201903050953,7142.9,7142.9,7141.1,7142.7
201903050954,7142.7,7143.2,7142.7,7142.8
201903050955,7142.9,7142.9,7140.9,7141.1
201903050956,7141.1,7141.7,7140.7,7141.1
201903050957,7141.1,7142.3,7141.1,7142.2
201903050958,7142.2,7142.2,7140.5,7140.5
201903050959,7140.5,7140.5,7139.1,7139.5
201903051000,7139.7,7139.8,7138.1,7139.1
201903051001,7139.1,7141.3,7139,7141.1
201903051002,7141.1,7141.3,7140.1,7141.2
201903051003,7141.2,7141.5,7140.9,7141.1
201903051004,7141.2,7144.5,7140.9,7144
201903051005,7144,7145.1,7142.2,7145.1
201903051006,7145.1,7145.1,7143.7,7143.7
201903051007,7143.6,7143.9,7142.5,7143.6
201903051008,7143.6,7144.6,7143,7143.2
201903051009,7143,7143.1,7141.2,7141.3
201903051010,7141.3,7143.6,7141.3,7143.5
201903051011,7143.5,7144.3,7143.3,7143.8
201903051012,7143.8,7143.8,7142.8,7143.4
201903051013,7143.4,7144,7142.9,7143.1
201903051014,7143.1,7144,7142.8,7143.7
201903051015,7143.7,7146.8,7143.1,7145.3
201903051016,7145.3,7146.4,7143.2,7143.3
201903051017,7143.3,7144,7142.4,7143.3
201903051018,7143.3,7145.3,7143.3,7144
201903051019,7144.4,7145,7141.8,7142
201903051020,7142.2,7142.4,7140.5,7141.3
201903051021,7141.4,7141.4,7140,7140.7
201903051022,7140.7,7141.3,7139.9,7139.9
201903051023,7139.9,7140.2,7138.3,7139.1
201903051024,7139.1,7139.1,7136.7,7137.5
201903051025,7137.3,7138.1,7136.7,7138.1
201903051026,7138.1,7139.3,7137.4,7138.6
201903051027,7138.6,7139.4,7138.1,7139.2
201903051028,7139.2,7140.2,7138.8,7139.5
201903051029,7139.5,7139.9,7139,7139.2
201903051030,7139.2,7139.3,7136.9,7137.6
201903051031,7137.6,7139.6,7137.4,7139.2
201903051032,7138.9,7140.9,7138.3,7139.4
201903051033,7139.4,7141.2,7139.2,7139.9
201903051034,7139.9,7139.9,7136.2,7139.1
201903051035,7139.1,7140.3,7138.3,7140.3
201903051036,7140.3,7141.2,7138.9,7141.1
201903051037,7140.8,7142.1,7140.8,7141.8
201903051038,7141.8,7142.3,7140.5,7140.9
201903051039,7140.9,7141.8,7137.6,7137.9
201903051040,7137.9,7138.9,7135.8,7135.9
201903051041,7135.9,7136.9,7135.5,7136.4
201903051042,7136.4,7136.7,7133.7,7134.3
201903051043,7134.4,7134.4,7133.3,7133.6
201903051044,7133.6,7134.3,7133.4,7133.8
201903051045,7133.8,7133.8,7130,7130.2
201903051046,7130.1,7130.1,7125.7,7126.6
201903051047,7126.5,7129,7126.5,7127.4
201903051048,7127.4,7129.4,7127.2,7129.3
201903051049,7129.3,7130.5,7129,7130.4
201903051050,7130.4,7130.8,7129.4,7130
201903051051,7130,7130,7128.2,7128.8
201903051052,7128.8,7130.1,7128.8,7129.9
201903051053,7129.8,7130.6,7126.5,7127.9
201903051054,7127.9,7130,7127.4,7128.9
201903051055,7128.9,7129.4,7127.1,7127.6
201903051056,7127.6,7129.6,7127.3,7128.8
201903051057,7128.8,7130.3,7128.1,7129.7
201903051058,7129.7,7129.9,7127.8,7129
201903051059,7129,7130.3,7127.5,7128
201903051100,7128,7131.8,7127.9,7131.1
201903051101,7131.1,7132.3,7131,7132.1
201903051102,7132.1,7132.9,7131.6,7132.7
201903051103,7132.7,7132.8,7131.9,7132.1
201903051104,7132.2,7132.7,7131.9,7132.4
201903051105,7132.3,7132.5,7131.4,7132.1
201903051106,7132.1,7133.3,7132.1,7132.8
201903051107,7132.8,7133,7132.3,7132.4
201903051108,7132.4,7132.8,7130.8,7131
201903051109,7131.1,7131.1,7128.8,7128.8
201903051110,7129.2,7130.6,7129,7130.3
201903051111,7130.5,7130.9,7130.2,7130.9
201903051112,7130.9,7133.3,7130.9,7133.1
201903051113,7133.1,7133.6,7130.8,7131.2
201903051114,7131.2,7132.3,7130.5,7132.3
201903051115,7132.3,7133.8,7131.7,7132.9
201903051116,7132.9,7134.5,7132.8,7133.8
201903051117,7133.8,7134.4,7132.2,7132.4
201903051118,7132.4,7133,7131,7133
201903051119,7133,7134.5,7131.9,7134
201903051120,7134,7134.3,7131.9,7131.9
201903051121,7131.9,7132.9,7130.9,7132.1
201903051122,7132.1,7132.7,7131.5,7132.1
201903051123,7132.1,7133,7131.4,7131.9
201903051124,7131.9,7132.6,7131.4,7131.9
201903051125,7131.9,7134.1,7131.9,7133.3
201903051126,7133.3,7133.9,7132.9,7133.9
201903051127,7133.8,7134.5,7133.6,7134.3
201903051128,7134.3,7134.5,7133.4,7133.8
201903051129,7133.8,7134.3,7132.4,7134.2
201903051130,7134.2,7134.7,7134,7134.4
201903051131,7134.4,7135.2,7133.7,7133.7
201903051132,7133.8,7135.6,7133.7,7135.4
201903051133,7135.4,7136.2,7134.1,7134.4
201903051134,7134.4,7134.8,7133.3,7133.4
201903051135,7133.4,7133.7,7132.1,7132.9
201903051136,7132.9,7134.6,7132.8,7134.6
201903051137,7134.6,7136.4,7134,7136.3
201903051138,7136.3,7136.3,7134.9,7134.9
201903051139,7134.9,7138,7134.9,7137.9
201903051140,7137.9,7137.9,7136.8,7137.1
201903051141,7137,7139.2,7136.4,7137.8
201903051142,7137.8,7138.8,7137.4,7138.5
201903051143,7138.5,7139.5,7138.4,7139.4
201903051144,7139.4,7139.4,7138.2,7139.2
201903051145,7139.1,7139.8,7138.8,7139.4
201903051146,7139.4,7139.5,7138.6,7139
201903051147,7139,7139.3,7138.7,7139.2
201903051148,7139.2,7140.1,7138.9,7138.9
201903051149,7138.9,7139.5,7138.6,7139.4
201903051150,7139.4,7142.4,7139.3,7141.1
201903051151,7141.1,7142.5,7141,7141.4
201903051152,7141.4,7141.5,7140.7,7141
201903051153,7141,7141.5,7140.7,7140.9
201903051154,7140.9,7142,7140.5,7140.7
201903051155,7140.6,7141.5,7140.6,7141.4
201903051156,7141.4,7141.6,7140.7,7140.9
201903051157,7140.9,7141.6,7139.9,7140.7
201903051158,7140.7,7142.5,7140.6,7141.8
201903051159,7141.8,7143.4,7141.6,7142.9
201903051200,7142.9,7147,7142.9,7145.4
201903051201,7145.4,7146.6,7145.4,7145.9
201903051202,7145.9,7150.3,7145.9,7149.8
201903051203,7149.7,7150.3,7147.6,7147.6
201903051204,7147.6,7148,7145.9,7146.1
201903051205,7146.1,7147.4,7145.9,7146.4
201903051206,7146.3,7146.3,7144.9,7145.2
201903051207,7145.2,7145.5,7144.2,7144.8
201903051208,7144.8,7145,7144,7144.4
201903051209,7144.4,7144.4,7142.1,7142.1
201903051210,7142.1,7142.3,7140.7,7141
201903051211,7141,7141,7138.9,7139.2
201903051212,7139.2,7139.5,7138.8,7138.9
201903051213,7138.9,7140.9,7138.4,7140.1
201903051214,7140.1,7141.8,7140,7141.2
201903051215,7141.2,7142.1,7138.6,7138.9
201903051216,7138.9,7140.3,7138.8,7139.8
201903051217,7139.8,7141.1,7139.7,7140.9
201903051218,7140.9,7140.9,7139.3,7139.6
201903051219,7139.5,7140.9,7139.1,7140.9
201903051220,7140.9,7141.8,7140.3,7140.4
201903051221,7140.1,7141.9,7140.1,7141.6
201903051222,7141.6,7144,7141.6,7143.7
201903051223,7143.7,7144.3,7142.8,7142.8
201903051224,7142.7,7144.4,7142.7,7142.9
201903051225,7142.9,7143.3,7140.3,7140.6
201903051226,7140.6,7140.8,7138.2,7139.1
201903051227,7139.7,7141,7138.9,7139.2
201903051228,7139.1,7140.2,7138.9,7140.1
201903051229,7140.1,7143.2,7140.1,7142.4
201903051230,7142.4,7143.5,7141.1,7141.8
201903051231,7141.8,7143.4,7140.7,7143.3
201903051232,7143.3,7144.9,7142.3,7142.7
201903051233,7142.1,7142.8,7140.9,7141.2
201903051234,7141.2,7142.2,7140.7,7141.7
201903051235,7141.7,7142.3,7139.8,7140.1
201903051236,7140.1,7140.9,7138.9,7140
201903051237,7140.4,7141.1,7140,7141.1
201903051238,7141.1,7142,7140.2,7141.8
201903051239,7141.8,7143,7141.2,7142.1
201903051240,7142.1,7142.7,7141.3,7141.4
201903051241,7141.4,7142.3,7140.9,7141.2
201903051242,7141.2,7141.6,7140.8,7141.6
201903051243,7141.5,7141.8,7140.9,7141
201903051244,7141,7142.3,7141,7141.6
201903051245,7141.6,7143,7141.6,7142.2
201903051246,7142.2,7144.5,7142.2,7144
201903051247,7144,7144.3,7143.3,7143.8
201903051248,7143.8,7145.1,7143.1,7143.9
201903051249,7144.1,7145,7143.4,7144.2
201903051250,7144.2,7145,7144,7145
201903051251,7145,7147.1,7145,7146.2
201903051252,7146.1,7147.1,7145.6,7147
201903051253,7147,7150.1,7147,7147.9
201903051254,7147.8,7148.1,7147.4,7147.4
201903051255,7147.4,7147.6,7146.4,7146.8
201903051256,7146.8,7147.1,7145.8,7146.3
201903051257,7146.3,7146.6,7145.9,7146.1
201903051258,7146.1,7146.2,7145.3,7145.5
201903051259,7145.5,7145.9,7145.1,7145.3
201903051300,7145.3,7145.9,7144.9,7144.9
201903051301,7144.9,7145.1,7144.9,7144.9
201903051302,7144.9,7145,7144.4,7144.4
201903051303,7144.4,7145.2,7144.4,7145.1
201903051304,7145.1,7145.6,7145,7145.6
201903051305,7145.5,7146.3,7145.5,7146.3
201903051306,7146.4,7147.1,7146.4,7147.1
201903051307,7147,7147,7145,7145.3
201903051308,7145.3,7145.6,7144.9,7145.1
201903051309,7145.1,7145.1,7143.8,7144.4
201903051310,7144.4,7144.5,7144.1,7144.1
201903051311,7144.2,7144.2,7143,7144
201903051312,7144.2,7144.4,7143.8,7144.4
201903051313,7144.3,7144.4,7143,7143.3
201903051314,7143.3,7144.6,7143,7144.6
201903051315,7144.6,7145.1,7144.1,7144.4
201903051316,7144.4,7144.4,7143.8,7143.9
201903051317,7143.9,7144.3,7143.6,7143.7
201903051318,7143.7,7143.7,7142.2,7142.2
201903051319,7142.2,7143.4,7142.2,7142.5
201903051320,7142.5,7143.6,7142.4,7143.5
201903051321,7143.4,7143.5,7143,7143.1
201903051322,7143.2,7144.1,7143,7144.1
201903051323,7144.1,7144.5,7144.1,7144.2
201903051324,7144.2,7144.5,7143.9,7144.5
201903051325,7144.5,7144.8,7144.2,7144.3
201903051326,7144.3,7145.1,7144.1,7144.8
201903051327,7144.8,7145.3,7144.7,7145.1
201903051328,7145.1,7145.1,7143.9,7144.2
201903051329,7144.2,7144.2,7142.8,7143
201903051330,7143.1,7144.6,7142.8,7143.8
201903051331,7143.8,7143.9,7142.9,7143.1
201903051332,7143,7143,7142.3,7142.7
201903051333,7142.7,7142.8,7141.5,7142.4
201903051334,7142.4,7143.5,7142.3,7142.9
201903051335,7142.9,7143.7,7142.8,7143.6
201903051336,7143.6,7143.6,7143.3,7143.4
201903051337,7143.4,7143.7,7143.3,7143.7
201903051338,7143.7,7143.9,7143.4,7143.9
201903051339,7143.8,7144.1,7143.4,7144
201903051340,7144,7144.3,7143.9,7144.2
201903051341,7144,7144.9,7144,7144.8
201903051342,7144.9,7144.9,7143.9,7144.1
201903051343,7144.1,7144.7,7144.1,7144.2
201903051344,7144.2,7144.7,7144.2,7144.3
201903051345,7144.3,7144.5,7144.3,7144.5
201903051346,7144.5,7145.1,7144,7144.1
201903051347,7144.1,7144.6,7144.1,7144.4
201903051348,7144.4,7145.1,7144.4,7144.7
201903051349,7144.7,7145.1,7144.3,7145.1
201903051350,7145.1,7145.1,7143.1,7143.1
201903051351,7143.1,7143.2,7142.1,7143.1
201903051352,7143.1,7143.3,7142.8,7143
201903051353,7143.2,7144,7143.2,7143.7
201903051354,7143.7,7144.3,7142.7,7142.7
201903051355,7142.7,7143.4,7142.6,7143.1
201903051356,7143.1,7143.8,7142.9,7143.7
201903051357,7143.6,7144.1,7143.4,7143.7
201903051358,7143.6,7144.3,7143.6,7143.8
201903051359,7143.8,7143.9,7143.7,7143.9
201903051400,7143.9,7144,7141.8,7141.9
201903051401,7141.9,7142.7,7141.5,7142.7
201903051402,7142.7,7142.7,7142.1,7142.6
201903051403,7142.7,7143,7141.9,7142.2
201903051404,7142.2,7142.5,7141.5,7142
201903051405,7142,7142.1,7141.4,7141.4
201903051406,7141.4,7142.4,7141.1,7142.3
201903051407,7142.4,7143.5,7141.9,7141.9
201903051408,7142.3,7142.3,7140.8,7141.2
201903051409,7141.2,7142.1,7141.2,7141.7
201903051410,7141.7,7141.9,7140.8,7141.6
201903051411,7141.7,7143.5,7141.7,7143
201903051412,7143,7143.5,7142.3,7142.9
201903051413,7142.8,7143.8,7142.3,7143.2
201903051414,7143.2,7143.7,7142.7,7143.2
201903051415,7143.2,7144.4,7143.1,7144.1
201903051416,7144.2,7144.4,7143.1,7143.2
201903051417,7143.2,7143.8,7142.9,7143.2
201903051418,7143.2,7144.1,7142.9,7143.4
201903051419,7143.4,7144.3,7143.3,7143.8
201903051420,7143.8,7144.6,7143.4,7144.4
201903051421,7144.4,7145.1,7144.1,7144.5
201903051422,7144.5,7144.6,7143.8,7143.9
201903051423,7143.9,7144.3,7143.3,7144.1
201903051424,7144.1,7144.6,7143.8,7144.2
201903051425,7144.2,7144.7,7143.6,7144.3
201903051426,7144.3,7145.4,7144,7145.4
201903051427,7145.4,7145.7,7144.9,7145
201903051428,7145,7146.3,7144.9,7146
201903051429,7146,7146,7145.9,7145.9
201903051430,7145.9,7146.9,7145.9,7146.4
201903051431,7146.2,7146.7,7145.8,7145.8
201903051432,7145.8,7145.8,7143.6,7143.7
201903051433,7143.6,7144.3,7143.2,7144.1
201903051434,7144.2,7144.4,7143.2,7143.6
201903051435,7143.6,7144.9,7143.6,7144.4
201903051436,7144.2,7146.6,7144.2,7146.6
201903051437,7146.5,7147.2,7145.8,7146.8
201903051438,7146.8,7147,7145.7,7146.4
201903051439,7146.4,7147.3,7145.3,7146.6
201903051440,7146.6,7147.2,7145,7145
201903051441,7145,7146,7144.7,7145.7
201903051442,7145.7,7146.1,7144.9,7145.7
201903051443,7145.6,7145.9,7145.3,7145.7
201903051444,7145.7,7145.7,7143.7,7144.1
201903051445,7144.1,7144.1,7143.2,7143.6
201903051446,7143.6,7143.9,7143.2,7143.7
201903051447,7143.7,7143.7,7142.4,7142.8
201903051448,7142.8,7143,7142.1,7143
201903051449,7143,7143.8,7142.8,7143.4
201903051450,7143.4,7144.2,7143.4,7144.1
201903051451,7144.1,7144.4,7143.8,7144.4
201903051452,7144.4,7145.1,7143.4,7144.5
201903051453,7144.5,7144.9,7144.1,7144.9
201903051454,7144.9,7145.4,7144.7,7144.8
201903051455,7144.8,7145.1,7143.7,7143.8
201903051456,7143.8,7144.2,7143.4,7143.8
201903051457,7143.8,7144.7,7143.8,7144
201903051458,7144,7146.6,7144,7146.1
201903051459,7146.2,7146.8,7146,7146.3
201903051500,7146.2,7148.5,7146.2,7148.2
201903051501,7148.2,7149.1,7147.6,7148.2
201903051502,7148.2,7148.8,7148.1,7148.4
201903051503,7148.3,7148.4,7147.8,7147.9
201903051504,7147.9,7148.6,7147.4,7148.6
201903051505,7148.6,7149.1,7148.2,7148.8
201903051506,7148.8,7149.1,7148.6,7149
201903051507,7149,7149.1,7148,7148.4
201903051508,7148.3,7149.3,7148.1,7149.3
201903051509,7149.3,7149.8,7149.2,7149.8
201903051510,7149.9,7149.9,7148.4,7148.9
201903051511,7148.9,7149.5,7148.6,7149.5
201903051512,7149.6,7149.6,7148.4,7148.5
201903051513,7148.5,7149.2,7148.5,7149.1
201903051514,7149.1,7149.1,7148.5,7148.6
201903051515,7148.6,7149.2,7148.6,7148.9
201903051516,7148.9,7149.3,7148.4,7148.9
201903051517,7148.8,7148.9,7148.2,7148.2
201903051518,7148.2,7148.4,7148,7148
201903051519,7147.9,7149.5,7147.9,7149.5
201903051520,7149.5,7150.3,7149.3,7150.3
201903051521,7150.3,7153.5,7150.1,7153.2
201903051522,7153.4,7153.4,7152,7152.1
201903051523,7152.1,7153.3,7152.1,7152.8
201903051524,7152.8,7153.3,7152.6,7153.1
201903051525,7153.1,7153.5,7152.8,7153.1
201903051526,7153,7153.1,7152.7,7152.9
201903051527,7152.9,7153.1,7152.4,7152.7
201903051528,7152.7,7152.7,7151.5,7151.5
201903051529,7151.5,7152.3,7151.5,7151.7
201903051530,7151.7,7152.2,7151.5,7151.7
201903051531,7151.8,7152.2,7151.5,7151.9
201903051532,7151.9,7152.3,7151.7,7151.7
201903051533,7151.7,7151.8,7151.4,7151.6
201903051534,7151.7,7151.8,7151.4,7151.8
201903051535,7151.9,7152.8,7151.9,7152.3
201903051536,7152.3,7152.3,7151.6,7151.6
201903051537,7151.7,7151.7,7151.3,7151.6
201903051538,7151.6,7151.6,7150.9,7151
201903051539,7151,7151.3,7150.1,7150.3
201903051540,7150.3,7150.5,7150,7150.3
201903051541,7150.3,7151.7,7150.1,7151.6
201903051542,7151.6,7151.9,7151,7151.5
201903051543,7151.7,7152.3,7151.3,7151.7
201903051544,7151.7,7151.8,7151.2,7151.4
201903051545,7151.4,7151.7,7151.2,7151.7
201903051546,7151.7,7151.7,7151.2,7151.2
201903051547,7151.2,7151.4,7151.1,7151.4
201903051548,7151.3,7151.8,7151.1,7151.6
201903051549,7151.5,7151.7,7150.8,7150.8
201903051550,7150.8,7151.9,7150.8,7151.7
201903051551,7151.6,7151.6,7150.1,7150.1
201903051552,7150.2,7150.9,7150.2,7150.7
201903051553,7150.7,7150.7,7150.1,7150.4
201903051554,7150.4,7151,7150.3,7150.8
201903051555,7150.8,7150.9,7150.2,7150.6
201903051556,7150.7,7151.2,7150.6,7150.8
201903051557,7150.8,7151.2,7150.5,7150.9
201903051558,7150.9,7151.1,7150.8,7151.1
201903051559,7151.1,7151.3,7150.8,7151
201903051600,7151,7153.3,7151,7152.3
201903051601,7152.3,7152.6,7151.4,7151.8
201903051602,7151.8,7153.3,7151.6,7152.9
201903051603,7152.9,7155.8,7152.8,7154.9
201903051604,7154.9,7155.4,7154.7,7155
201903051605,7155,7155,7154.3,7154.4
201903051606,7154.4,7154.7,7154,7154.1
201903051607,7154,7154.8,7153.6,7154.3
201903051608,7153.9,7154.3,7153.4,7153.7
201903051609,7153.7,7154.1,7153.6,7153.9
201903051610,7153.9,7154.5,7153.7,7154.4
201903051611,7154.2,7154.3,7153.7,7154.1
201903051612,7154.1,7154.2,7153.2,7153.3
201903051613,7153.3,7154,7152.9,7153.7
201903051614,7153.7,7153.8,7153.1,7153.6
201903051615,7153.7,7153.8,7152.6,7152.8
201903051616,7152.8,7153.3,7152.4,7152.5
201903051617,7152.7,7153.2,7152.4,7152.7
201903051618,7152.7,7152.9,7152.4,7152.5
201903051619,7152.5,7153.4,7152.4,7152.9
201903051620,7152.9,7153.3,7152.4,7153.3
201903051621,7153.3,7154,7153.1,7153.7
201903051622,7153.7,7153.7,7152.8,7152.8
201903051623,7152.7,7153.1,7152,7152.3
201903051624,7152.3,7152.7,7151.9,7152
201903051625,7152,7152.4,7151.4,7152.4
201903051626,7152.4,7152.4,7151.7,7152.2
201903051627,7152.2,7152.7,7151.7,7152.7
201903051628,7152.7,7152.7,7151.5,7151.9
201903051629,7151.9,7151.9,7150.4,7150.4
201903051630,7150.3,7150.3,7148.4,7148.6
201903051631,7148.6,7149.2,7147.4,7149
201903051632,7148.9,7149.1,7148.6,7148.7
201903051633,7148.7,7148.9,7148.2,7148.4
201903051634,7148.4,7149.1,7148.3,7148.6
201903051635,7148.6,7149.1,7148.2,7148.6
201903051636,7148.6,7148.6,7147.4,7148.2
201903051637,7148.2,7148.3,7147.6,7148
201903051638,7148,7149.1,7148,7148.4
201903051639,7148.4,7149.1,7148.4,7149
201903051640,7149,7149.5,7148.9,7149.2
201903051641,7149.2,7149.3,7148.4,7148.5
201903051642,7148.4,7149.8,7148.4,7149.4
201903051643,7149.4,7150,7149.3,7149.9
201903051644,7149.9,7150.9,7149.9,7150.3
201903051645,7150.3,7150.3,7149.7,7149.9
201903051646,7149.9,7150.4,7149.9,7150.4
201903051647,7150.4,7150.4,7149.4,7150.1
201903051648,7150.4,7150.6,7149.4,7149.5
201903051649,7149.6,7150.5,7149.6,7149.6
201903051650,7149.5,7150.3,7148.9,7149
201903051651,7149,7149.3,7148.8,7149.1
201903051652,7149.1,7149.6,7148.6,7148.8
201903051653,7148.8,7148.8,7147.8,7148.2
201903051654,7148.2,7148.8,7148,7148.8
201903051655,7148.8,7150,7148.6,7149.9
201903051656,7149.8,7150.2,7148.3,7148.4
201903051657,7148.4,7151.7,7148.2,7151.3
201903051658,7151.3,7152.3,7151.2,7152.2
201903051659,7152.2,7153.3,7151.6,7152.8
201903051700,7152.8,7154,7150.3,7150.4
201903051701,7150.4,7152.1,7150.4,7151.3
201903051702,7151.3,7151.6,7149.4,7149.4
201903051703,7149.4,7151.1,7149.1,7149.9
201903051704,7149.7,7150.8,7149.6,7149.9
201903051705,7149.9,7151.3,7149,7151.2
201903051706,7151.2,7152.3,7150,7151.2
201903051707,7151.1,7153.1,7150.9,7153.1
201903051708,7153.2,7153.2,7150.6,7150.9
201903051709,7150.9,7152.9,7150.7,7152.5
201903051710,7152.5,7154.3,7152.3,7153.7
201903051711,7153.6,7154.6,7153.3,7153.9
201903051712,7153.9,7154.3,7153.2,7153.2
201903051713,7153.2,7153.5,7152.4,7153.4
201903051714,7153.4,7153.6,7152.7,7153.5
201903051715,7153.5,7154.2,7153.4,7154.1
201903051716,7154.1,7154.7,7153.6,7153.7
201903051717,7153.7,7154.8,7153.7,7154.4
201903051718,7154.4,7155.1,7154.1,7154.8
201903051719,7154.9,7154.9,7153.1,7153.4
201903051720,7153.4,7154.1,7153.3,7153.8
201903051721,7153.8,7154.1,7153,7153
201903051722,7152.9,7153.4,7152.9,7153
201903051723,7153,7154.5,7153,7154.1
201903051724,7154,7154,7153.3,7153.7
201903051725,7153.7,7155.5,7153.7,7155.2
201903051726,7155.2,7155.4,7154.8,7155.2
201903051727,7155.1,7155.3,7153.6,7153.8
201903051728,7153.8,7153.8,7153.1,7153.4
201903051729,7153.4,7154.4,7153.4,7153.4
201903051730,7153.5,7155.2,7153.4,7155.2
201903051731,7155,7157,7155,7156.5
201903051732,7156.5,7157.3,7155.6,7157.3
201903051733,7157.2,7157.2,7155.8,7156.7
201903051734,7156.7,7157,7156.7,7156.9
201903051735,7156.9,7159.3,7156.6,7158.8
201903051736,7158.8,7159,7158.4,7158.8
201903051737,7158.8,7159.2,7158.1,7159.1
201903051738,7159,7159.5,7158.5,7158.5
201903051739,7158.5,7158.5,7157.7,7158.1
201903051740,7158.2,7159,7158.1,7158.7
201903051741,7158.7,7159.1,7158.4,7158.5
201903051742,7158.5,7158.8,7157.7,7158.2
201903051743,7158.3,7158.8,7158.2,7158.4
201903051744,7158.4,7158.6,7157.9,7158.2
201903051745,7158.3,7160.2,7158.3,7159.5
201903051746,7159.5,7159.9,7158.9,7159.7
201903051747,7159.7,7162.6,7159.7,7160.8
201903051748,7160.8,7163.8,7160.3,7163
201903051749,7163.1,7165,7162.6,7164.1
201903051750,7164.1,7165,7164.1,7165
201903051751,7165.2,7166.3,7164.9,7165
201903051752,7165,7165.7,7163.9,7165.7
201903051753,7165.7,7168.2,7165.6,7167.7
201903051754,7167.7,7168.6,7167.4,7167.7
201903051755,7167.7,7168.1,7166.7,7166.7
201903051756,7166.6,7167.1,7165.9,7166.2
201903051757,7166.2,7166.3,7164.9,7165.4
201903051758,7165.4,7165.4,7164.3,7164.7
201903051759,7164.6,7166.7,7164.6,7166.1
201903051800,7166,7166.4,7163.9,7164.1
201903051801,7164.2,7164.8,7163.1,7163.7
201903051802,7163.7,7164.4,7163.2,7163.7
201903051803,7163.7,7163.9,7162.9,7162.9
201903051804,7162.8,7163.6,7162.7,7163.1
201903051805,7163.1,7163.8,7162.6,7163.6
201903051806,7163.6,7164,7162.8,7163.2
201903051807,7163.2,7164.1,7163.2,7163.9
201903051808,7163.9,7164.6,7163.9,7164.3
201903051809,7164.3,7165,7164.2,7164.9
201903051810,7164.9,7164.9,7163,7163.3
201903051811,7163.4,7163.7,7162.5,7163.2
201903051812,7163.2,7163.4,7162.6,7163.1
201903051813,7163.1,7163.1,7162,7162.7
201903051814,7162.8,7162.9,7161.6,7162.4
201903051815,7162.4,7163.5,7162.4,7162.7
201903051816,7162.7,7162.9,7161.4,7162.6
201903051817,7162.6,7163,7162.1,7162.8
201903051818,7162.8,7164.6,7162.6,7164.6
201903051819,7164.6,7164.6,7163.1,7163.4
201903051820,7163.2,7164,7163.1,7163.4
201903051821,7163.4,7163.4,7161.9,7162.4
201903051822,7162.4,7163.5,7162.2,7163.4
201903051823,7163.3,7165.4,7163.3,7165.1
201903051824,7165.1,7166.3,7165.1,7166
201903051825,7166.1,7166.6,7165.2,7165.8
201903051826,7165.8,7165.8,7165,7165.2
201903051827,7165,7167,7164.9,7167
201903051828,7167,7167.5,7166.7,7166.7
201903051829,7166.7,7167.9,7166.5,7167.8
201903051830,7167.8,7168.8,7166.3,7166.3
201903051831,7166.3,7167.3,7166.3,7166.8
201903051832,7166.9,7166.9,7166.2,7166.4
201903051833,7166.3,7166.4,7165.9,7165.9
201903051834,7165.9,7166.1,7164.9,7165.1
201903051835,7165.1,7165.1,7164.4,7164.6
201903051836,7164.7,7165.1,7163.1,7163.2
201903051837,7163.2,7164.5,7162.9,7164
201903051838,7164,7164.4,7163.6,7164.1
201903051839,7164.1,7164.4,7163.4,7163.6
201903051840,7163.6,7165.6,7162.9,7165.5
201903051841,7165.5,7165.5,7162.9,7164
201903051842,7164.1,7164.1,7162.9,7162.9
201903051843,7162.9,7164.9,7162.9,7163.2
201903051844,7163,7164.8,7161.9,7164.7
201903051845,7164.6,7166.2,7163.8,7165.9
201903051846,7165.8,7167.2,7164.8,7166.6
201903051847,7166.5,7166.6,7165.3,7165.3
201903051848,7165.3,7165.4,7163.5,7163.9
201903051849,7163.9,7164.1,7163.2,7164.1
201903051850,7164.1,7164.7,7163.7,7163.9
201903051851,7164,7164.1,7162.6,7162.9
201903051852,7162.9,7163.6,7162.7,7163
201903051853,7163,7163.3,7161.9,7162.7
201903051854,7162.9,7163.4,7162.3,7163.2
201903051855,7163.1,7164.6,7162.9,7163.2
201903051856,7163.1,7163.9,7163,7163.9
201903051857,7163.9,7165.1,7163.9,7164.3
201903051858,7164.4,7166.2,7164,7165.3
201903051859,7165.3,7165.9,7165,7165.3
201903051900,7165.3,7166.2,7164.8,7164.8
201903051901,7164.8,7165,7163.9,7164.7
201903051902,7164.7,7164.7,7163.8,7164
201903051903,7164.2,7165.3,7163.8,7164.8
201903051904,7164.9,7165,7163.1,7164
201903051905,7164,7165.6,7163.8,7164.8
201903051906,7164.8,7166.2,7164.5,7165.8
201903051907,7166,7166.6,7165.1,7165.4
201903051908,7165.4,7165.6,7164.5,7164.5
201903051909,7164.5,7164.8,7163.7,7163.7
201903051910,7163.7,7164.1,7162.2,7162.6
201903051911,7162.6,7163.4,7162.3,7162.7
201903051912,7162.7,7163.1,7162.3,7162.6
201903051913,7162.6,7163.5,7162.6,7163.2
201903051914,7163.2,7163.4,7161.7,7161.9
201903051915,7161.9,7162.3,7159.7,7159.7
201903051916,7159.7,7160.3,7159.1,7159.4
201903051917,7159.5,7160.1,7158.3,7159
201903051918,7159,7159.5,7158.6,7159
201903051919,7158.7,7158.7,7157.5,7157.5
201903051920,7157.5,7158.3,7157.5,7158
201903051921,7158.1,7158.1,7156.1,7157.6
201903051922,7157.7,7158.4,7156.7,7158.1
201903051923,7158.1,7158.6,7157.9,7158
201903051924,7158,7159.3,7157.9,7158.6
201903051925,7158.6,7158.7,7157.4,7158.4
201903051926,7158.4,7160,7158.1,7159.4
201903051927,7159.4,7159.6,7158.9,7159.1
201903051928,7159.1,7159.2,7158.3,7158.9
201903051929,7158.9,7159.3,7158.6,7158.6
201903051930,7158.6,7160.3,7158.4,7159.9
201903051931,7159.9,7159.9,7159,7159.3
201903051932,7159.3,7159.8,7159.3,7159.5
201903051933,7159.6,7160.3,7159.1,7159.1
201903051934,7159.1,7159.1,7158.7,7158.8
201903051935,7158.8,7160.5,7158.2,7160.5
201903051936,7160.5,7160.5,7157.8,7157.8
201903051937,7157.8,7159.2,7157.8,7158.4
201903051938,7158.4,7158.6,7157.9,7157.9
201903051939,7157.9,7158.9,7157.7,7158.1
201903051940,7158.8,7158.8,7158.1,7158.3
201903051941,7158.4,7158.4,7157.2,7157.6
201903051942,7157.6,7157.6,7156.1,7156.7
201903051943,7156.7,7156.9,7156.1,7156.2
201903051944,7156.2,7156.3,7154.6,7154.8
201903051945,7154.8,7154.8,7152,7152
201903051946,7152,7153.8,7152,7153.8
201903051947,7153.8,7154.5,7152.8,7153.9
201903051948,7153.8,7155,7153.7,7155
201903051949,7155,7155.5,7154.8,7154.8
201903051950,7154.8,7156,7154.8,7156
201903051951,7156,7156.9,7156,7156.7
201903051952,7156.5,7157.3,7155.8,7155.8
201903051953,7155.8,7155.9,7155,7155.3
201903051954,7155.3,7156.1,7155.3,7155.5
201903051955,7155.7,7157.8,7155.7,7157.8
201903051956,7157.5,7157.5,7156.7,7156.7
201903051957,7156.7,7158.2,7156.4,7157.9
201903051958,7157.9,7158,7156.8,7157.4
201903051959,7157.3,7157.5,7156.4,7156.8
201903052000,7156.8,7156.8,7155.7,7156.3
201903052001,7156.3,7157,7156.2,7156.2
201903052002,7156.1,7156.1,7154.1,7154.4
201903052003,7154.4,7154.6,7153.7,7154
201903052004,7154,7154.3,7153.4,7154
201903052005,7154,7155.1,7153.4,7155
201903052006,7155,7155.1,7154,7154.3
201903052007,7154.3,7154.5,7153.5,7154.5
201903052008,7154.5,7154.9,7153.7,7154.3
201903052009,7154.3,7154.5,7152.8,7152.8
201903052010,7152.8,7153.3,7151.9,7152.7
201903052011,7152.7,7152.9,7149.7,7149.8
201903052012,7149.9,7152.3,7149.9,7152
201903052013,7152.2,7154.6,7152.1,7152.1
201903052014,7152,7153,7151.8,7153
201903052015,7153,7153.4,7152.7,7152.7
201903052016,7152.7,7153.9,7152.7,7153.8
201903052017,7153.8,7154,7153.3,7153.6
201903052018,7153.6,7154.1,7153.4,7154.1
201903052019,7154.2,7154.4,7150.8,7151.9
201903052020,7151.9,7153.3,7150.9,7153.3
201903052021,7153.3,7154,7152.9,7153.9
201903052022,7153.9,7155,7153.8,7154.8
201903052023,7154.8,7154.9,7154,7154.6
201903052024,7154.6,7156,7154.6,7155.4
201903052025,7155.4,7155.4,7154.8,7155.1
201903052026,7155.1,7155.3,7153.2,7153.2
201903052027,7153.1,7154.8,7153.1,7154.2
201903052028,7154.2,7154.4,7152.9,7153.9
201903052029,7153.9,7154.5,7153.2,7153.8
201903052030,7153.8,7155.1,7153.8,7155.1
201903052031,7155,7155.3,7154.4,7155
201903052032,7155,7155.1,7152.9,7153.4
201903052033,7153.4,7153.7,7152.7,7152.9
201903052034,7152.8,7154.2,7152.7,7153.7
201903052035,7153.7,7155.9,7153.3,7155.7
201903052036,7155.5,7156,7155.1,7155.8
201903052037,7155.8,7156.7,7155.8,7155.8
201903052038,7155.8,7156,7155,7155.4
201903052039,7155.4,7156,7154.7,7156
201903052040,7156,7156.2,7155.7,7155.9
201903052041,7155.8,7156,7154.4,7154.7
201903052042,7154.7,7155.8,7154.2,7155.7
201903052043,7155.7,7156,7154.9,7155.8
201903052044,7155.8,7156,7154.5,7154.5
201903052045,7154.6,7154.6,7153.7,7153.9
201903052046,7153.9,7153.9,7153.1,7153.4
201903052047,7153.4,7153.8,7152.7,7153.2
201903052048,7153.2,7153.6,7152.7,7153.1
201903052049,7153.2,7154.7,7153.2,7154.7
201903052050,7154.7,7155.1,7154.1,7154.5
201903052051,7154.5,7154.5,7153.4,7154.1
201903052052,7154.1,7154.3,7153.2,7154.1
201903052053,7154.1,7154.8,7153.8,7154.1
201903052054,7154.1,7155.1,7154.1,7155
201903052055,7155,7155.8,7154.7,7155.8
201903052056,7155.9,7155.9,7154.8,7154.9
201903052057,7154.8,7154.9,7154.6,7154.9
201903052058,7154.9,7156.2,7154.7,7156.2
201903052059,7156.2,7157,7156,7156.9
201903052100,7156.9,7156.9,7155.5,7156.4
201903052101,7156.4,7156.6,7155.6,7155.7
201903052102,7155.7,7156.5,7155.6,7156.5
201903052103,7156.5,7156.5,7154.4,7154.5
201903052104,7154.5,7154.7,7153.8,7154.2
201903052105,7154.2,7154.5,7153.4,7153.7
201903052106,7153.6,7153.6,7150.3,7150.6
201903052107,7150.7,7150.8,7147.4,7147.7
201903052108,7147.7,7149.1,7147.7,7148
201903052109,7148,7148.2,7146.4,7146.6
201903052110,7146.6,7147.8,7146.5,7147.4
201903052111,7147.4,7147.4,7146.2,7146.9
201903052112,7147,7147.2,7145.3,7146
201903052113,7146,7146.3,7145.4,7145.5
201903052114,7145.6,7145.9,7144.2,7145.3
201903052115,7145.3,7146.2,7144.5,7146.2
201903052116,7146.2,7146.8,7145.4,7145.4
201903052117,7145.3,7145.7,7143.9,7144
201903052118,7144,7144.8,7142.3,7144.7
201903052119,7144.7,7144.8,7141.7,7142
201903052120,7142,7143.5,7141.5,7142.7
201903052121,7142.7,7142.7,7140.7,7140.7
201903052122,7140.4,7144.5,7140.4,7144.2
201903052123,7144.2,7144.5,7141.9,7141.9
201903052124,7141.9,7143.8,7141.6,7143.8
201903052125,7143.8,7145.1,7143.8,7145
201903052126,7145,7146.1,7144.4,7144.9
201903052127,7144.9,7146.6,7144.9,7146.4
201903052128,7146.4,7147,7146.3,7146.7
201903052129,7146.7,7147.3,7145.9,7146.6
201903052130,7146.6,7147.1,7146.4,7147
201903052131,7146.8,7147.2,7146.5,7146.8
201903052132,7146.8,7146.9,7145.4,7146.2
201903052133,7146.2,7146.5,7145.9,7145.9
201903052134,7145.9,7147.1,7145.9,7146.8
201903052135,7146.7,7146.8,7146.1,7146.7
201903052136,7146.7,7147.4,7146.7,7146.9
201903052137,7146.9,7147.6,7146.8,7147.3
201903052138,7147.4,7148.5,7146.9,7147.5
201903052139,7147.5,7147.5,7145.4,7145.9
201903052140,7145.9,7145.9,7143.2,7143.8
201903052141,7143.8,7144,7142.9,7143.2
201903052142,7143.1,7147.2,7142.7,7147.2
201903052143,7147.2,7147.7,7146.2,7146.4
201903052144,7146.4,7146.4,7144.8,7145.2
201903052145,7145.2,7145.2,7142.9,7143.4
201903052146,7143.4,7143.4,7142.5,7142.6
201903052147,7142.6,7142.6,7138.4,7139.3
201903052148,7139.2,7140.8,7138.9,7138.9
201903052149,7138.9,7140.8,7138.4,7140.2
201903052150,7140.1,7141.4,7139.5,7140.4
201903052151,7140.4,7143.8,7140.4,7142.6
201903052152,7142.6,7143.3,7142.2,7142.2
201903052153,7142,7144,7141.9,7143.8
201903052154,7143.8,7144.6,7142.3,7142.3
201903052155,7142.3,7143.9,7141.5,7143.6
201903052156,7143.6,7143.7,7142.2,7142.2
201903052157,7142.2,7143.4,7142.2,7143.4
201903052158,7143.3,7144.1,7143.2,7143.2
201903052159,7143.2,7143.7,7142.1,7142.7
201903052200,7142.7,7146.1,7142.7,7145.4
201903052201,7145.4,7145.7,7144,7144.5
201903052202,7144.5,7145.3,7144.4,7145.1
201903052203,7145.1,7146.3,7145.1,7146.3
201903052204,7146.3,7147,7145.2,7145.9
201903052205,7145.9,7146,7145.3,7145.7
201903052206,7145.6,7146.1,7145.2,7145.8
201903052207,7145.8,7145.8,7143.4,7144.4
201903052208,7144.4,7145.3,7144.3,7145.3
201903052209,7145.4,7145.6,7144.6,7144.7
201903052210,7144.7,7146.1,7144.7,7145
201903052211,7145.1,7146.4,7144.6,7146.2
201903052212,7146.1,7147.5,7146.1,7147.3
201903052213,7147.4,7151.3,7147.3,7150.4
201903052214,7150.4,7150.8,7149.6,7149.9
201903052215,7149.9,7151.1,7149.6,7151.1
201903052216,7151.1,7151.1,7149.9,7150.1
201903052217,7150.1,7150.8,7149.4,7150.4
201903052218,7150.3,7150.4,7149.6,7149.9
201903052219,7149.9,7150.4,7148.9,7149.5
201903052220,7149.5,7151.3,7149.3,7151.2
201903052221,7151.2,7152.3,7151.1,7151.9
201903052222,7151.9,7153,7151.3,7152
201903052223,7152,7152,7151,7151
201903052224,7151.7,7151.9,7151.3,7151.4
201903052225,7151.4,7153.8,7151.4,7153.5
201903052226,7153.5,7154.1,7152.8,7153.6
201903052227,7153.6,7153.8,7151.4,7151.9
201903052228,7151.9,7153.1,7151.3,7152.9
201903052229,7152.8,7153.8,7152.4,7153.4
201903052230,7153.4,7154.1,7153.1,7153.8
201903052231,7153.8,7154,7152.7,7152.9
201903052232,7152.8,7153.1,7152.3,7153.1
201903052233,7153.1,7154.5,7153.1,7154.5
201903052234,7154.5,7155.5,7154.3,7154.7
201903052235,7154.6,7154.9,7154.2,7154.7
201903052236,7154.6,7156.1,7154.5,7155.1
201903052237,7155.1,7155.7,7154.6,7155.7
201903052238,7155.7,7157,7155.7,7157
201903052239,7157,7157.3,7156.8,7156.8
201903052240,7156.8,7159.4,7156.8,7159.4
201903052241,7159.3,7160,7158.5,7158.6
201903052242,7158.6,7161.6,7158.6,7160.9
201903052243,7160.9,7161.4,7160.2,7160.2
201903052244,7160.2,7160.8,7160,7160.1
201903052245,7160.1,7160.1,7159.2,7159.5
201903052246,7159.5,7160,7159.2,7159.2
201903052247,7159.2,7159.3,7157.2,7157.3
201903052248,7157.4,7158.3,7157.4,7158.2
201903052249,7158.2,7158.5,7157.7,7158.2
201903052250,7158.2,7158.7,7157.5,7157.6
201903052251,7157.6,7158.2,7157.2,7157.5
201903052252,7157.5,7158.4,7157.2,7157.3
201903052253,7157.3,7158,7157.1,7157.2
201903052254,7157.3,7157.6,7155.4,7156.2
201903052255,7156.2,7156.9,7155.6,7156.8
201903052256,7156.9,7156.9,7155.1,7155.4
201903052257,7155.3,7155.8,7155.2,7155.2
201903052258,7155.2,7155.3,7152.2,7152.5
201903052259,7152.5,7152.5,7149.3,7149.3
201903052300,7149.3,7151.2,7147,7151
201903052301,7151,7151.5,7150.5,7151.5
201903052302,7151.6,7154.1,7151.6,7153.5
201903052303,7153.5,7154.3,7153.1,7153.4
201903052304,7153.4,7153.5,7152.2,7153.3
201903052305,7153.3,7155.3,7153.3,7154.7
201903052306,7154.7,7155.2,7154.6,7154.9
201903052307,7154.9,7155.8,7154,7155.3
201903052308,7155.3,7156,7154.2,7155.4
201903052309,7155.4,7156,7154.8,7155.2
201903052310,7155.2,7155.6,7154.7,7155
201903052311,7154.9,7154.9,7153.1,7153.1
201903052312,7153.1,7154.4,7152.9,7153.7
201903052313,7153.7,7153.7,7152.6,7153
201903052314,7153,7153.4,7151.3,7151.3
201903052315,7151.3,7154.4,7151.1,7154.2
201903052316,7154.2,7154.6,7153.5,7154.6
201903052317,7154.6,7154.8,7153,7153.8
201903052318,7153.8,7153.9,7153.1,7153.8
201903052319,7153.8,7154,7153.3,7153.5
201903052320,7153.7,7153.8,7152.3,7152.7
201903052321,7152.7,7153.1,7152.7,7152.8
201903052322,7152.8,7152.8,7152.1,7152.4
201903052323,7152.4,7154,7152.3,7153.5
201903052324,7153.5,7154.2,7153.2,7153.6
201903052325,7153.6,7158.3,7153.6,7158.3
201903052326,7158.3,7158.7,7157,7157.3
201903052327,7157.3,7158.6,7155.8,7156
201903052328,7156,7158.6,7156,7158.1
201903052329,7158.1,7158.4,7155.9,7156.6
201903052330,7156.6,7160.6,7153.4,7156.1
201903052331,7156.1,7156.5,7147.1,7149.1
201903052332,7149.1,7149.3,7144.4,7148.5
201903052333,7148.5,7151.6,7146.9,7147.6
201903052334,7147.4,7154.3,7145.1,7146.4
201903052335,7146.4,7157.8,7144.5,7156.6
201903052336,7156.6,7161.9,7155.8,7156.4
201903052337,7156.3,7159.1,7154.2,7154.5
201903052338,7155,7160,7154.9,7156.8
201903052339,7156.8,7158.2,7151.2,7152.7
201903052340,7151.8,7153.9,7147.8,7152.7
201903052341,7152.7,7156.3,7151.6,7154.8
201903052342,7154.8,7154.8,7149.9,7154.5
201903052343,7154.5,7157.6,7151.8,7153
201903052344,7153,7153.7,7149.7,7150.2
201903052345,7150.2,7150.2,7141.5,7141.5
201903052346,7141.5,7141.6,7135.7,7136.1
201903052347,7136.1,7139.7,7136.1,7139.3
201903052348,7139.3,7143,7138.2,7142.7
201903052349,7142.4,7143.2,7131.9,7131.9
201903052350,7131.9,7139,7131.9,7137.9
201903052351,7137.9,7138,7130.4,7131.5
201903052352,7131.4,7131.9,7128.3,7128.9
201903052353,7128.9,7129.2,7124.1,7127.4
201903052354,7127.4,7130.2,7124.7,7129.2
201903052355,7129,7134,7129,7133.3
201903052356,7133.4,7137.2,7133.1,7135.8
201903052357,7135.8,7139.6,7135.8,7137.8
201903052358,7137.8,7137.8,7132.1,7132.7
201903052359,7132.8,7137.5,7131.9,7136.3
201903060000,7136.3,7150.7,7136.3,7149.1
201903060001,7149.1,7153.5,7148.7,7151.7
201903060002,7151.7,7151.7,7146.2,7147.2
201903060003,7147.2,7151.3,7147.2,7150.1
201903060004,7150.1,7155.1,7149.4,7151.5
201903060005,7151.5,7160.9,7150.9,7159.6
201903060006,7159.6,7160.9,7157.6,7157.6
201903060007,7157.6,7158,7155.8,7155.8
201903060008,7155.7,7155.9,7150.9,7151
201903060009,7151,7153.4,7149.5,7150.1
201903060010,7150.1,7150.1,7146.4,7147.4
201903060011,7147.4,7147.9,7142.2,7143.4
201903060012,7143.4,7147.5,7141.7,7147.3
201903060013,7147.4,7152.9,7147.2,7150.4
201903060014,7150.8,7150.8,7146.1,7147.5
201903060015,7147.5,7151.2,7144.7,7145.1
201903060016,7145.1,7146.3,7139.4,7139.8
201903060017,7139.8,7140.8,7135.3,7138.9
201903060018,7138.7,7141.3,7137.9,7141.3
201903060019,7141.3,7141.3,7137.6,7138.9
201903060020,7138.8,7142.3,7134.8,7142.1
201903060021,7142,7146.3,7141.5,7143.8
201903060022,7143.8,7146.5,7142.1,7143.7
201903060023,7143.6,7144.6,7141.8,7144.6
201903060024,7144.6,7150.5,7144.6,7149.3
201903060025,7149.4,7149.6,7145.7,7146.4
201903060026,7146.5,7147.9,7142.9,7142.9
201903060027,7142.9,7144.8,7140.2,7143
201903060028,7143.1,7143.8,7136.7,7136.7
201903060029,7136.6,7142.7,7136.6,7142.5
201903060030,7142.5,7152.2,7142.4,7151.9
201903060031,7151.9,7154,7150.2,7153.6
201903060032,7153.6,7158.2,7153.4,7158
201903060033,7158,7159,7154.5,7156.3
201903060034,7156.3,7156.3,7154.5,7155
201903060035,7155.1,7155.4,7153.4,7154.6
201903060036,7154.6,7157.4,7152.1,7157.4
201903060037,7157.4,7157.6,7151.8,7153.7
201903060038,7153.3,7155,7152.2,7154.5
201903060039,7154.5,7156.3,7153.1,7155.3
201903060040,7155.3,7160.2,7155.1,7159.5
201903060041,7159.6,7160.3,7155.9,7156
201903060042,7156,7157.4,7155.2,7156.9
201903060043,7156.9,7159.1,7155,7155.8
201903060044,7155.8,7157.3,7154.7,7156.9
201903060045,7156.9,7157.6,7153.7,7154.9
201903060046,7154.9,7155.2,7149.2,7150.1
201903060047,7150.3,7151.9,7147.9,7149.4
201903060048,7149.3,7151.4,7146.9,7150.9
201903060049,7150.9,7153.8,7150.2,7152.7
201903060050,7152.7,7155.7,7152.1,7153.9
201903060051,7153.9,7160,7153.5,7158.2
201903060052,7158.2,7163.8,7157.2,7162.7
201903060053,7163,7165.5,7161.4,7161.4
201903060054,7161.4,7161.4,7159,7159.1
201903060055,7159.2,7160.1,7158,7159.7
201903060056,7159.4,7160,7156.1,7156.8
201903060057,7156.8,7157.4,7155.7,7156.1
201903060058,7156,7157.1,7153,7153.1
201903060059,7152.9,7156.3,7151.8,7156.3
201903060100,7156.1,7158.7,7152,7152
201903060101,7152,7153.6,7149.6,7152.7
201903060102,7152.7,7155.5,7152.7,7152.9
201903060103,7153.2,7161,7152.2,7159.5
201903060104,7159.3,7159.3,7155.5,7156.9
201903060105,7156.9,7158.5,7154.9,7156
201903060106,7155.9,7157.6,7153.4,7157.4
201903060107,7157.4,7159.7,7156.8,7158.2
201903060108,7158.2,7162.5,7158.2,7160.3
201903060109,7160.2,7164.1,7158.1,7163.7
201903060110,7163.5,7166.7,7163.5,7165.4
201903060111,7165.4,7167.7,7164.5,7166.1
201903060112,7166.1,7166.1,7161.4,7161.7
201903060113,7161.7,7163.4,7161.1,7163.4
201903060114,7163.2,7163.5,7160.4,7161.8
201903060115,7161.8,7164.9,7160.4,7164.2
201903060116,7164.2,7166.3,7164.1,7164.7
201903060117,7164.7,7166.9,7164.7,7166.1
201903060118,7166.2,7166.7,7163.1,7163.9
201903060119,7163.9,7163.9,7160.7,7162.5
201903060120,7162.5,7163.6,7161,7162.3
201903060121,7162,7162.8,7160.3,7161.7
201903060122,7161.7,7163,7160.7,7160.8
201903060123,7160.9,7162.9,7160.4,7161.9
201903060124,7162.1,7165.6,7161.2,7164.1
201903060125,7164.1,7167.6,7163.8,7166.7
201903060126,7166.7,7167.3,7163,7163.7
201903060127,7163.7,7164.9,7162,7162.9
201903060128,7162.9,7164,7161.2,7163.7
201903060129,7163.7,7166.5,7162.4,7163.1
201903060130,7163.1,7163.2,7160.9,7161.9
201903060131,7161.9,7164.2,7161.3,7163.9
201903060132,7164.4,7167.5,7164.4,7165.3
201903060133,7165.1,7165.4,7163.4,7164.4
201903060134,7164.4,7164.8,7162.2,7164.7
201903060135,7164.7,7165.9,7163.9,7165.9
201903060136,7165.9,7167.2,7165.2,7166.3
201903060137,7166.1,7172.3,7165.9,7171.6
201903060138,7171.6,7174,7171.5,7173.7
201903060139,7173.4,7176.8,7173.4,7175.2
201903060140,7175.2,7176.1,7173.2,7173.8
201903060141,7173.8,7174.7,7173.4,7173.7
201903060142,7173.9,7175.5,7173.9,7174.2
201903060143,7174.2,7175.4,7173.5,7174.4
201903060144,7174.4,7175.1,7173.2,7174.1
201903060145,7174.2,7174.5,7170.7,7170.9
201903060146,7170.9,7171.2,7169.6,7169.7
201903060147,7169.7,7169.7,7168.7,7169.4
201903060148,7169.8,7170.6,7169.5,7170.2
201903060149,7170.2,7170.3,7167,7167.4
201903060150,7167.4,7168.2,7166.4,7166.4
201903060151,7166.5,7168.6,7166.3,7168.6
201903060152,7168.6,7168.9,7162.1,7162.5
201903060153,7162.5,7162.5,7158.5,7159.4
201903060154,7159.3,7160.9,7157.5,7159.8
201903060155,7159.7,7160.7,7158.1,7160.5
201903060156,7160.5,7162.9,7160.2,7162.9
201903060157,7162.9,7163.5,7161.7,7163.2
201903060158,7163.3,7166.2,7162.5,7165.8
201903060159,7165.6,7166.4,7165.3,7165.5
201903060200,7165.5,7166.7,7164.6,7165.4
201903060201,7165.4,7166.2,7164.7,7165.9
201903060202,7165.9,7167.3,7165.7,7166.5
201903060203,7166.5,7167.4,7165.9,7165.9
201903060204,7165.9,7167.4,7165.5,7167.2
201903060205,7167.2,7167.6,7164.7,7167
201903060206,7167,7167.2,7165.9,7166.4
201903060207,7166.3,7167,7164.6,7166.8
201903060208,7166.8,7167.7,7166.1,7166.5
201903060209,7166.5,7166.5,7164.7,7165.9
201903060210,7165.9,7166.7,7165,7166.5
201903060211,7166.5,7169.7,7165.7,7169.6
201903060212,7169.6,7169.6,7166.9,7166.9
201903060213,7166.9,7167.4,7164.6,7165.6
201903060214,7165.7,7166.2,7164.4,7165.6
201903060215,7165.6,7165.6,7161.9,7164.7
201903060216,7164.8,7165,7162,7162.9
201903060217,7162.9,7163.5,7161.8,7161.8
201903060218,7161.8,7161.8,7159.4,7161.5
201903060219,7161.5,7162.2,7158.7,7159
201903060220,7159,7160.7,7157.8,7160.3
201903060221,7160.3,7162.8,7160.3,7161.5
201903060222,7161.7,7162.3,7160.3,7161
201903060223,7161,7161.9,7160.2,7161.8
201903060224,7161.8,7162.7,7159.9,7162.2
201903060225,7162.2,7163.5,7161.1,7162.7
201903060226,7162.7,7163.2,7160.8,7161.2
201903060227,7161.2,7163,7160.7,7162.8
201903060228,7162.8,7163,7161.2,7161.7
201903060229,7161.7,7162.3,7160.7,7160.8
201903060230,7160.8,7162.1,7159.2,7162
201903060231,7161.7,7164,7161.7,7163.5
201903060232,7163.4,7164.1,7162.6,7162.6
201903060233,7162.6,7163,7161,7161.2
201903060234,7161.2,7162.2,7159.7,7160
201903060235,7160,7160.3,7155.8,7155.9
201903060236,7155.8,7159.4,7155.4,7158.2
201903060237,7158.4,7158.5,7157.3,7157.7
201903060238,7157.7,7158.5,7156.4,7157.7
201903060239,7157.7,7158.8,7156.9,7158.4
201903060240,7158.5,7160.1,7158.4,7160
201903060241,7160,7160.1,7158.8,7159.6
201903060242,7159.6,7160.6,7159.6,7160
201903060243,7160,7161.2,7159.9,7160.4
201903060244,7160.4,7162.2,7160.2,7161.1
201903060245,7161.1,7161.1,7159.4,7159.7
201903060246,7159.7,7160.5,7158.5,7159
201903060247,7159,7159.6,7158.4,7159.6
201903060248,7159.6,7160.3,7158,7160.1
201903060249,7160.1,7161,7159.7,7160.5
201903060250,7160.5,7161.8,7160.1,7161.5
201903060251,7161.5,7162.7,7160.9,7162.6
201903060252,7162.5,7162.9,7161,7161.3
201903060253,7161.3,7162.7,7159.9,7161.9
201903060254,7161.9,7162.7,7161.2,7162.2
201903060255,7162.2,7163.5,7161.6,7162.7
201903060256,7162.7,7162.7,7161,7161.6
201903060257,7161.6,7163.4,7161.5,7163.4
201903060258,7163.4,7164.2,7162,7162.7
201903060259,7162.6,7163.5,7162.5,7162.5
201903060300,7162.5,7163.6,7159.6,7160.2
201903060301,7160.2,7160.9,7159.8,7160.9
201903060302,7160.8,7165.5,7160.8,7164.7
201903060303,7164.7,7165.6,7164.4,7165.5
201903060304,7165.5,7168.1,7165.4,7167.4
201903060305,7167.4,7169.4,7167.2,7169.3
201903060306,7169.3,7169.3,7167.6,7168
201903060307,7168,7168.1,7166.9,7167.1
201903060308,7167.1,7168.3,7167.1,7168.1
201903060309,7168.1,7168.4,7166.4,7166.9
201903060310,7166.9,7167.7,7166.4,7166.9
201903060311,7166.9,7168,7166.4,7167.5
201903060312,7167.5,7169.7,7167.5,7168.7
201903060313,7168.7,7172,7168.7,7171.5
201903060314,7171.5,7171.5,7169.2,7170.6
201903060315,7170.6,7170.8,7169.2,7170.2
201903060316,7170.2,7170.6,7169.4,7169.9
201903060317,7169.7,7170.8,7168.7,7168.9
201903060318,7168.8,7169.8,7168,7168.2
201903060319,7168.2,7168.5,7167.4,7167.5
201903060320,7167.5,7167.8,7165.7,7166.5
201903060321,7166.5,7167.2,7165.5,7167.1
201903060322,7167.1,7167.7,7166.2,7166.2
201903060323,7166,7166.4,7164.9,7165.9
201903060324,7165.9,7166,7164.9,7165.2
201903060325,7164.8,7166.6,7164.7,7165.4
201903060326,7165.4,7165.4,7164.1,7165
201903060327,7165,7166.4,7164.2,7165
201903060328,7165,7165,7161.2,7161.5
201903060329,7161.6,7161.8,7157.5,7157.5
201903060330,7157.7,7159.5,7157.1,7159.2
201903060331,7159.2,7159.6,7156.7,7159.3
201903060332,7159.3,7159.4,7157.9,7158.1
201903060333,7158.1,7158.2,7157.2,7158
201903060334,7158,7159.1,7157.7,7158.9
201903060335,7158.9,7161.6,7158.9,7160.7
201903060336,7160.8,7162.4,7160.8,7162.4
201903060337,7162.4,7163.5,7162,7163
201903060338,7163,7163.2,7161.9,7162.1
201903060339,7162.1,7162.4,7160.6,7161.5
201903060340,7161.5,7161.5,7158.4,7158.6
201903060341,7158.6,7159,7157.6,7158.6
201903060342,7158.6,7159.2,7157.2,7157.3
201903060343,7157.3,7157.8,7155.7,7157
201903060344,7157.1,7158.5,7156.4,7158.1
201903060345,7158.1,7158.4,7156.1,7158.2
201903060346,7158.2,7159.9,7157.9,7159.5
201903060347,7159.5,7161,7159.2,7161
201903060348,7161,7161.1,7160,7160
201903060349,7160,7160.2,7158.6,7160
201903060350,7160.1,7162,7160.1,7161.3
201903060351,7161.3,7162.7,7161.3,7161.5
201903060352,7161.5,7163.1,7161.2,7162
201903060353,7161.8,7162.3,7160.8,7161.9
201903060354,7161.9,7162.4,7161.5,7162.2
201903060355,7162.2,7163.2,7162.2,7163
201903060356,7163,7163.6,7162.2,7163.6
201903060357,7163.6,7164.3,7161.1,7161.2
201903060358,7161.2,7162.2,7160.9,7161.5
201903060359,7161.5,7162.9,7161.4,7162.9
201903060400,7162.9,7163.6,7160.9,7163.6
201903060401,7163.6,7166.5,7163.6,7165.5
201903060402,7165.4,7166.9,7164,7165.8
201903060403,7165.8,7167.1,7165.5,7165.7
201903060404,7165.7,7166.5,7165.4,7165.5
201903060405,7165.5,7167.6,7165.4,7166.2
201903060406,7166.2,7166.7,7165.6,7166.2
201903060407,7166.2,7167.4,7166.2,7166.5
201903060408,7166.5,7167.6,7165.4,7165.8
201903060409,7165.8,7166.4,7165.5,7165.7
201903060410,7165.7,7166.4,7165.1,7165.5
201903060411,7165.5,7167.9,7165.2,7167.5
201903060412,7167.7,7168.7,7166.5,7166.7
201903060413,7166.7,7167.3,7165.9,7166.7
201903060414,7166.7,7166.7,7164.4,7164.9
201903060415,7164.4,7165.9,7164.4,7165.5
201903060416,7165.5,7165.6,7163.9,7163.9
201903060417,7163.9,7164.2,7162.8,7164.2
201903060418,7164.1,7167.5,7164.1,7167.3
201903060419,7167.3,7167.5,7166.4,7166.7
201903060420,7166.7,7169.4,7166.7,7168.5
201903060421,7168.4,7168.7,7167.2,7168
201903060422,7168,7169.9,7167.5,7169.5
201903060423,7169.5,7170.9,7169.2,7169.5
201903060424,7169.5,7169.5,7167.9,7167.9
201903060425,7167.9,7168.6,7167.4,7167.8
201903060426,7167.8,7168.2,7166.3,7167.1
201903060427,7167.2,7168,7166.2,7167.8
201903060428,7167.8,7169.5,7167.8,7169.5
201903060429,7169.5,7170,7168.8,7169.6
201903060430,7169.6,7172.5,7169.6,7172.3
201903060431,7172.3,7172.7,7171.7,7172.2
201903060432,7172.2,7172.5,7170.7,7171.1
201903060433,7171.1,7171.4,7169.9,7170.2
201903060434,7170.2,7170.3,7167,7167.2
201903060435,7167.2,7167.6,7164.9,7166
201903060436,7166,7166.7,7165.5,7166.4
201903060437,7166.4,7167.9,7166.1,7166.9
201903060438,7166.9,7168.8,7166.9,7167.7
201903060439,7167.7,7168.5,7166.7,7168
201903060440,7168,7171,7167.2,7170.9
201903060441,7170.9,7171.8,7170.5,7171.6
201903060442,7171.6,7172.5,7171.2,7172.2
201903060443,7172.2,7174,7171.2,7173.3
201903060444,7173.3,7173.3,7170.9,7171.9
201903060445,7171.9,7173.1,7171.1,7171.7
201903060446,7171.7,7172.3,7170.2,7170.5
201903060447,7170.5,7172.5,7169.5,7172.4
201903060448,7172.3,7173.2,7170.9,7172.4
201903060449,7172.4,7174.2,7172.4,7173.4
201903060450,7173.4,7174,7172.9,7174
201903060451,7174,7175.1,7172.6,7174.4
201903060452,7174.4,7175.4,7173.7,7174.4
201903060453,7174.4,7177.2,7173.9,7177.1
201903060454,7177,7177.3,7176,7176.9
201903060455,7176.9,7177.8,7176.2,7177.3
201903060456,7177.3,7177.3,7175,7175.2
201903060457,7175.2,7178.2,7175,7178.1
201903060458,7178.1,7178.3,7177.5,7177.9
201903060459,7177.9,7179.2,7177.7,7178.5
201903060500,7178.5,7178.5,7175.7,7176.4
201903060501,7176.4,7177.2,7175.9,7177
201903060502,7177,7179.5,7177,7178.4
201903060503,7178.4,7178.6,7174.1,7174.4
201903060504,7174.6,7175,7172.6,7173.4
201903060505,7173.5,7174.1,7171.7,7172
201903060506,7172,7173.3,7170.7,7171.2
201903060507,7171,7172.7,7170.7,7172.1
201903060508,7172.1,7172.5,7170.1,7170.1
201903060509,7170.1,7170.8,7169.2,7170.4
201903060510,7170.4,7172,7170.1,7171.7
201903060511,7171.7,7175.5,7171.5,7173.8
201903060512,7173.8,7174.1,7170.2,7171.9
201903060513,7171.9,7172.2,7169.4,7170.4
201903060514,7170.4,7171.4,7169.7,7170.7
201903060515,7170.7,7171.6,7170.2,7171.5
201903060516,7171.4,7171.5,7169.4,7169.4
201903060517,7169.4,7169.6,7168.2,7169.4
201903060518,7169.4,7171.9,7169.3,7171.6
201903060519,7171.7,7172.7,7171.3,7171.5
201903060520,7171.7,7171.8,7170.4,7171
201903060521,7171,7172.1,7170.7,7171.8
201903060522,7171.8,7172.9,7170.7,7172.9
201903060523,7172.7,7173.3,7171.7,7172.9
201903060524,7172.9,7175.1,7172.4,7175
201903060525,7174.9,7175.2,7173.9,7174.8
201903060526,7174.8,7174.8,7173.2,7173.2
201903060527,7173.4,7173.4,7170.9,7171.9
201903060528,7171.9,7172.5,7170.9,7172.5
201903060529,7172.5,7173.2,7172.2,7173.1
201903060530,7173.1,7173.1,7172.1,7172.6
201903060531,7172.6,7173.4,7171.7,7171.8
201903060532,7171.8,7173,7169.9,7170.4
201903060533,7170.4,7171.9,7170,7170.5
201903060534,7170.7,7172.3,7169.9,7171.9
201903060535,7171.9,7174.1,7171.2,7172.3
201903060536,7172.2,7175.3,7171.6,7175.1
201903060537,7174.9,7176.2,7174,7175.4
201903060538,7175.4,7176.1,7175.2,7175.9
201903060539,7175.9,7176,7175,7175.3
201903060540,7175.3,7177.3,7174.8,7177.1
201903060541,7177,7177.2,7175.9,7177
201903060542,7177.2,7178.7,7176.5,7178.1
201903060543,7178.1,7178.2,7175.9,7176.4
201903060544,7176.4,7178.9,7176.2,7178.4
201903060545,7178.4,7179.2,7177.4,7179
201903060546,7179,7179.2,7177.7,7179.1
201903060547,7179.1,7180.7,7178.9,7180.7
201903060548,7180.7,7181.5,7180.3,7181
201903060549,7181,7181.5,7180.5,7181.1
201903060550,7181.1,7181.2,7178.2,7178.6
201903060551,7178.6,7178.6,7175.9,7176.9
201903060552,7176.9,7177.3,7176.1,7177.2
201903060553,7177.2,7177.6,7175.7,7177.5
201903060554,7177.5,7177.5,7174,7175.9
201903060555,7175.8,7175.8,7168.8,7170.2
201903060556,7170.2,7170.3,7166.9,7167.7
201903060557,7167.7,7168.5,7166.3,7168.4
201903060558,7168.5,7171.2,7168.1,7169.2
201903060559,7169.2,7169.9,7159.2,7159.5
201903060600,7159.6,7160.8,7158.2,7160.1
201903060601,7160.1,7160.1,7158.3,7158.6
201903060602,7158.6,7158.8,7155.9,7156.6
201903060603,7156.6,7157.6,7156,7156.7
201903060604,7156.7,7157.2,7156.4,7156.4
201903060605,7156.3,7158.2,7156,7157.8
201903060606,7157.8,7159.4,7157.5,7159.3
201903060607,7159.3,7159.6,7158.9,7159.6
201903060608,7159.6,7161.1,7159.6,7160.7
201903060609,7160.7,7161.4,7160.7,7160.7
201903060610,7160.7,7162.1,7160.7,7162
201903060611,7162,7162.6,7160.8,7160.8
201903060612,7160.8,7161.7,7160.8,7161.4
201903060613,7161.4,7168.3,7161.4,7166.4
201903060614,7166.4,7166.4,7163.8,7164.2
