日時,始値(BID),高値(BID),安値(BID),終値(BID)
201908210700,1507.6,1507.7,1506.1,1506.2
201908210701,1506.2,1506.6,1505.8,1506.3
201908210702,1506.3,1506.6,1506.2,1506.3
201908210703,1506.5,1506.7,1506.5,1506.7
201908210704,1506.6,1506.7,1506.6,1506.7
201908210705,1506.7,1506.7,1506.3,1506.3
201908210706,1506.3,1506.6,1506.2,1506.2
201908210707,1506.2,1506.2,1506,1506
201908210708,1506,1506,1505.9,1505.9
201908210709,1505.9,1506,1505.8,1505.9
201908210710,1505.9,1505.9,1505.8,1505.8
201908210711,1505.8,1505.9,1505.8,1505.9
201908210712,1505.9,1505.9,1505.7,1505.7
201908210713,1505.7,1505.7,1505.3,1505.6
201908210714,1505.6,1505.7,1505.1,1505.1
201908210715,1505.1,1505.1,1504.9,1505
201908210716,1505,1505.3,1504.9,1505.3
201908210717,1505.3,1505.4,1505.1,1505.1
201908210718,1505.1,1505.2,1504.9,1505.1
201908210719,1505.2,1505.2,1505.1,1505.1
201908210720,1505.1,1505.1,1505,1505.1
201908210721,1505.1,1505.2,1505.1,1505.2
201908210722,1505.2,1505.3,1505.2,1505.2
201908210723,1505.2,1505.3,1505.1,1505.3
201908210724,1505.3,1505.5,1505.3,1505.3
201908210725,1505.3,1505.3,1505.3,1505.3
201908210726,1505.3,1505.4,1505.3,1505.4
201908210727,1505.4,1505.6,1505.4,1505.6
201908210728,1505.6,1505.6,1505.3,1505.3
201908210729,1505.3,1505.4,1505.3,1505.3
201908210730,1505.3,1505.3,1505.2,1505.3
201908210731,1505.3,1505.4,1505.3,1505.3
201908210732,1505.3,1505.5,1505.3,1505.5
201908210733,1505.5,1505.6,1505.4,1505.6
201908210734,1505.6,1505.7,1505.6,1505.7
201908210735,1505.7,1505.8,1505.7,1505.8
201908210736,1505.8,1505.8,1505.5,1505.5
201908210737,1505.5,1505.7,1505.5,1505.7
201908210738,1505.7,1505.7,1505.6,1505.6
201908210739,1505.6,1505.8,1505.6,1505.7
201908210740,1505.8,1506.1,1505.7,1506
201908210741,1506,1506.1,1506,1506
201908210742,1506,1506.1,1505.9,1505.9
201908210743,1505.9,1505.9,1505.8,1505.8
201908210744,1505.8,1505.9,1505.8,1505.9
201908210745,1505.9,1505.9,1505.8,1505.8
201908210746,1505.8,1506.2,1505.8,1506.1
201908210747,1506.2,1506.2,1506.1,1506.2
201908210748,1506.2,1506.2,1505.9,1506
201908210749,1506,1506.2,1506,1506.1
201908210750,1506.1,1506.1,1506,1506
201908210751,1506,1506.1,1506,1506.1
201908210752,1506.1,1506.4,1506.1,1506.3
201908210753,1506.3,1506.4,1506.3,1506.3
201908210754,1506.3,1506.3,1506.3,1506.3
201908210755,1506.3,1506.3,1506.1,1506.2
201908210756,1506.2,1506.4,1506.2,1506.4
201908210757,1506.4,1506.4,1506.2,1506.3
201908210758,1506.3,1506.3,1506.2,1506.3
201908210759,1506.3,1506.3,1506.2,1506.3
201908210800,1506.3,1506.4,1506.3,1506.4
201908210801,1506.4,1506.5,1506.4,1506.5
201908210802,1506.5,1506.7,1506.5,1506.5
201908210803,1506.5,1506.6,1506.5,1506.6
201908210804,1506.6,1507.1,1506.5,1507.1
201908210805,1507.1,1507.4,1507,1507
201908210806,1507,1507.4,1507,1507.4
201908210807,1507.4,1507.9,1507.4,1507.9
201908210808,1507.9,1507.9,1507.3,1507.3
201908210809,1507.3,1507.4,1506.9,1507
201908210810,1507,1507,1506.8,1506.9
201908210811,1506.8,1507,1506.8,1507
201908210812,1507,1507,1506.7,1506.7
201908210813,1506.7,1506.8,1506.7,1506.7
201908210814,1506.7,1506.8,1506.6,1506.6
201908210815,1506.6,1506.6,1506,1506
201908210816,1506,1506.2,1505.9,1506.2
201908210817,1506.2,1506.4,1506.2,1506.4
201908210818,1506.4,1506.5,1506.3,1506.5
201908210819,1506.5,1507.1,1506.5,1507.1
201908210820,1507.1,1507.1,1506.8,1506.8
201908210821,1506.8,1506.8,1506.7,1506.7
201908210822,1506.7,1506.7,1506.5,1506.6
201908210823,1506.6,1506.7,1506.6,1506.7
201908210824,1506.7,1506.7,1506.7,1506.7
201908210825,1506.7,1506.7,1506.6,1506.6
201908210826,1506.6,1506.7,1506.6,1506.7
201908210827,1506.7,1506.8,1506.7,1506.8
201908210828,1506.8,1507.1,1506.7,1507.1
201908210829,1507.1,1507.1,1507,1507
201908210830,1507,1507,1506.8,1506.9
201908210831,1506.9,1507,1506.9,1507
201908210832,1507,1507.2,1507,1507
201908210833,1507,1507,1506.7,1506.7
201908210834,1506.7,1506.8,1506.7,1506.7
201908210835,1506.7,1506.7,1506.4,1506.4
201908210836,1506.4,1506.4,1506.3,1506.3
201908210837,1506.3,1506.3,1506.2,1506.2
201908210838,1506.2,1506.4,1506.2,1506.4
201908210839,1506.4,1506.5,1506.3,1506.5
201908210840,1506.4,1506.5,1506.4,1506.5
201908210841,1506.4,1506.5,1506.4,1506.4
201908210842,1506.4,1506.5,1506.2,1506.2
201908210843,1506.2,1506.5,1506.2,1506.4
201908210844,1506.4,1506.5,1506.3,1506.3
201908210845,1506.3,1506.7,1506.3,1506.7
201908210846,1506.7,1506.7,1506.6,1506.6
201908210847,1506.6,1506.7,1506.5,1506.5
201908210848,1506.5,1506.5,1506.4,1506.5
201908210849,1506.4,1506.4,1506.3,1506.3
201908210850,1506.3,1506.3,1506.3,1506.3
201908210851,1506.3,1506.3,1506.3,1506.3
201908210852,1506.3,1506.5,1506.3,1506.3
201908210853,1506.3,1506.5,1506.3,1506.5
201908210854,1506.4,1506.5,1506.3,1506.5
201908210855,1506.5,1506.5,1506.4,1506.4
201908210856,1506.4,1506.4,1506.3,1506.3
201908210857,1506.3,1506.3,1506,1506
201908210858,1506,1506.2,1506,1506.1
201908210859,1506.1,1506.1,1506.1,1506.1
201908210900,1506.1,1506.1,1506,1506.1
201908210901,1506.1,1506.2,1506,1506.2
201908210902,1506.2,1506.2,1506,1506
201908210903,1505.8,1506,1505.7,1505.8
201908210904,1505.8,1506,1505.7,1506
201908210905,1506,1506.1,1505.6,1505.7
201908210906,1505.7,1505.9,1505.6,1505.9
201908210907,1505.9,1506,1505.8,1505.9
201908210908,1505.9,1506,1505.8,1505.9
201908210909,1506,1506.2,1506,1506.2
201908210910,1506.2,1506.3,1506.2,1506.3
201908210911,1506.3,1506.3,1506.1,1506.3
201908210912,1506.3,1506.5,1506.3,1506.5
201908210913,1506.5,1506.6,1506.4,1506.6
201908210914,1506.5,1506.5,1506,1506.1
201908210915,1506.1,1506.2,1506,1506.2
201908210916,1506.2,1506.2,1506.1,1506.2
201908210917,1506.2,1506.2,1505.9,1506.2
201908210918,1506.2,1506.2,1506,1506
201908210919,1506,1506.3,1506,1506.3
201908210920,1506.3,1506.3,1505.8,1506
201908210921,1506,1506.5,1506,1506.5
201908210922,1506.5,1506.8,1506.5,1506.6
201908210923,1506.6,1506.7,1506.5,1506.6
201908210924,1506.5,1506.5,1506.3,1506.3
201908210925,1506.3,1506.4,1506.3,1506.3
201908210926,1506.3,1506.4,1506.3,1506.3
201908210927,1506.3,1506.4,1506.3,1506.3
201908210928,1506.3,1506.4,1506.3,1506.3
201908210929,1506.3,1506.3,1506.1,1506.1
201908210930,1506.1,1506.3,1506,1506.3
201908210931,1506.3,1506.3,1506.2,1506.3
201908210932,1506.3,1506.3,1506,1506
201908210933,1506.1,1506.1,1506,1506.1
201908210934,1506.1,1506.1,1506,1506
201908210935,1506,1506,1505.8,1505.9
201908210936,1505.9,1506,1505.9,1506
201908210937,1506,1506.2,1506,1506
201908210938,1506,1506.2,1506,1506.2
201908210939,1506.2,1506.2,1506.1,1506.2
201908210940,1506.1,1506.2,1506.1,1506.2
201908210941,1506.2,1506.2,1506,1506
201908210942,1506,1506.2,1506,1506.2
201908210943,1506.2,1506.2,1506.1,1506.1
201908210944,1506.1,1506.3,1506.1,1506.3
201908210945,1506.3,1506.3,1506.1,1506.2
201908210946,1506.2,1506.2,1506.1,1506.1
201908210947,1506.1,1506.1,1505.9,1505.9
201908210948,1505.9,1506,1505.9,1506
201908210949,1506,1506,1506,1506
201908210950,1506,1506,1505.9,1506
201908210951,1506,1506,1505.8,1505.8
201908210952,1505.8,1506,1505.8,1506
201908210953,1506,1506.2,1506,1506.2
201908210954,1506.2,1506.3,1506.1,1506.1
201908210955,1506.1,1506.1,1505.9,1505.9
201908210956,1505.9,1506.1,1505.9,1506.1
201908210957,1506.1,1506.3,1506,1506.2
201908210958,1506.2,1506.2,1506.1,1506.2
201908210959,1506.2,1506.4,1506.2,1506.3
201908211000,1506.3,1506.3,1505.4,1505.6
201908211001,1505.6,1506.4,1505.6,1506.2
201908211002,1506.2,1506.9,1506.1,1506.9
201908211003,1506.9,1507,1506.2,1506.3
201908211004,1506.4,1506.5,1506,1506
201908211005,1506,1506.1,1505.8,1506
201908211006,1506,1506.2,1505.9,1506
201908211007,1506,1506,1505.4,1505.4
201908211008,1505.4,1505.6,1505.4,1505.4
201908211009,1505.4,1505.5,1505.2,1505.4
201908211010,1505.4,1505.6,1505.3,1505.5
201908211011,1505.5,1505.6,1505.4,1505.5
201908211012,1505.5,1505.6,1505.5,1505.5
201908211013,1505.5,1505.5,1505.2,1505.3
201908211014,1505.3,1505.5,1505.2,1505.4
201908211015,1505.4,1505.4,1505.2,1505.4
201908211016,1505.4,1505.4,1505,1505.2
201908211017,1505.2,1505.5,1504.8,1504.9
201908211018,1504.9,1505,1504.7,1504.8
201908211019,1504.8,1504.8,1504.2,1504.3
201908211020,1504.3,1504.4,1504.2,1504.4
201908211021,1504.5,1504.5,1504.1,1504.1
201908211022,1504.1,1504.4,1504.1,1504.3
201908211023,1504.3,1504.3,1504.2,1504.3
201908211024,1504.3,1504.4,1504.2,1504.3
201908211025,1504.2,1504.5,1504,1504.4
201908211026,1504.4,1505.1,1504.4,1505
201908211027,1505,1505.3,1504.9,1505.1
201908211028,1505.1,1505.2,1505.1,1505.2
201908211029,1505.2,1505.5,1505.2,1505.4
201908211030,1505.4,1505.5,1505.3,1505.4
201908211031,1505.4,1505.4,1505.2,1505.3
201908211032,1505.3,1505.6,1505.3,1505.6
201908211033,1505.6,1505.6,1505.1,1505.2
201908211034,1505.2,1505.3,1505.1,1505.2
201908211035,1505.2,1505.3,1505,1505
201908211036,1505,1505,1504.7,1504.7
201908211037,1504.7,1504.7,1504.3,1504.5
201908211038,1504.5,1504.5,1504.3,1504.4
201908211039,1504.4,1504.5,1504.4,1504.5
201908211040,1504.5,1504.5,1504.2,1504.4
201908211041,1504.4,1504.6,1504.3,1504.3
201908211042,1504.3,1504.6,1504.3,1504.6
201908211043,1504.6,1504.6,1504.4,1504.6
201908211044,1504.6,1504.6,1504.5,1504.6
201908211045,1504.6,1505,1504.6,1505
201908211046,1505,1505,1504.8,1504.9
201908211047,1504.9,1504.9,1504.8,1504.9
201908211048,1504.9,1505,1504.8,1504.9
201908211049,1504.9,1505,1504.9,1504.9
201908211050,1504.9,1505,1504.9,1505
201908211051,1505,1505,1504.9,1505
201908211052,1505,1505,1504.7,1504.7
201908211053,1504.7,1504.7,1504.5,1504.5
201908211054,1504.5,1504.5,1504.3,1504.3
201908211055,1504.3,1504.5,1504.2,1504.5
201908211056,1504.5,1504.6,1504.5,1504.5
201908211057,1504.5,1504.6,1504.5,1504.6
201908211058,1504.6,1505,1504.6,1505
201908211059,1505,1505,1504.8,1504.8
201908211100,1504.9,1504.9,1504.5,1504.8
201908211101,1504.8,1505.1,1504.8,1505
201908211102,1505,1505,1504.7,1504.8
201908211103,1504.9,1505,1504.4,1504.6
201908211104,1504.6,1504.6,1504.2,1504.5
201908211105,1504.5,1504.5,1504.4,1504.4
201908211106,1504.4,1504.6,1504.4,1504.5
201908211107,1504.5,1504.8,1504.4,1504.8
201908211108,1504.8,1505.2,1504.8,1505
201908211109,1504.9,1505.1,1504.7,1505
201908211110,1505,1505.1,1505,1505
201908211111,1505,1505.1,1504.9,1504.9
201908211112,1505,1505,1504.6,1504.7
201908211113,1504.7,1504.9,1504.7,1504.9
201908211114,1504.9,1504.9,1504.7,1504.7
201908211115,1504.7,1504.7,1504.5,1504.6
201908211116,1504.6,1504.6,1504.6,1504.6
201908211117,1504.6,1504.9,1504.5,1504.9
201908211118,1504.9,1504.9,1504.6,1504.7
201908211119,1504.8,1505.1,1504.8,1505
201908211120,1505,1505,1505,1505
201908211121,1505,1505,1504.7,1504.7
201908211122,1504.7,1504.7,1504.4,1504.5
201908211123,1504.5,1504.6,1504.4,1504.5
201908211124,1504.5,1504.7,1504.5,1504.7
201908211125,1504.7,1504.7,1504.5,1504.6
201908211126,1504.7,1504.7,1504.4,1504.4
201908211127,1504.4,1504.7,1504.4,1504.7
201908211128,1504.7,1504.8,1504.6,1504.8
201908211129,1504.7,1504.7,1504.4,1504.4
201908211130,1504.4,1504.5,1504.2,1504.4
201908211131,1504.4,1504.4,1504.3,1504.4
201908211132,1504.4,1504.4,1504.3,1504.3
201908211133,1504.3,1504.6,1504.3,1504.6
201908211134,1504.6,1504.6,1504.4,1504.4
201908211135,1504.4,1504.6,1504.4,1504.6
201908211136,1504.6,1504.7,1504.6,1504.7
201908211137,1504.7,1504.7,1504.6,1504.7
201908211138,1504.7,1504.7,1504.5,1504.6
201908211139,1504.6,1504.8,1504.6,1504.7
201908211140,1504.7,1504.7,1504.5,1504.6
201908211141,1504.6,1504.6,1504.5,1504.5
201908211142,1504.6,1504.6,1504.4,1504.4
201908211143,1504.4,1504.4,1504.3,1504.4
201908211144,1504.4,1504.4,1504.4,1504.4
201908211145,1504.4,1504.5,1504.3,1504.5
201908211146,1504.5,1504.6,1504.4,1504.5
201908211147,1504.4,1504.5,1504.4,1504.4
201908211148,1504.4,1504.6,1504.3,1504.4
201908211149,1504.4,1504.5,1504.3,1504.3
201908211150,1504.3,1504.3,1503.2,1503.5
201908211151,1503.5,1503.6,1503.3,1503.4
201908211152,1503.4,1503.5,1503.3,1503.4
201908211153,1503.4,1503.5,1503.1,1503.3
201908211154,1503.2,1503.5,1503.2,1503.5
201908211155,1503.5,1503.5,1503.3,1503.4
201908211156,1503.4,1503.5,1503.3,1503.5
201908211157,1503.5,1503.6,1503.3,1503.5
201908211158,1503.5,1503.6,1503.3,1503.6
201908211159,1503.6,1503.6,1503.4,1503.4
201908211200,1503.5,1503.5,1503.4,1503.5
201908211201,1503.5,1503.8,1503.5,1503.7
201908211202,1503.7,1503.8,1503.6,1503.8
201908211203,1503.8,1503.9,1503.7,1503.8
201908211204,1503.8,1503.9,1503.7,1503.9
201908211205,1503.9,1504,1503.7,1503.7
201908211206,1503.7,1503.8,1503.4,1503.4
201908211207,1503.4,1503.6,1503.2,1503.3
201908211208,1503.3,1503.3,1502.1,1502.3
201908211209,1502.3,1502.5,1501.9,1502
201908211210,1502,1502.5,1502,1502.4
201908211211,1502.4,1502.7,1502.2,1502.7
201908211212,1502.7,1502.7,1502.4,1502.6
201908211213,1502.6,1502.7,1502.5,1502.6
201908211214,1502.6,1503,1502.5,1502.8
201908211215,1502.8,1503,1502.6,1502.9
201908211216,1502.9,1503.2,1502.9,1503.1
201908211217,1503.1,1503.3,1503.1,1503.3
201908211218,1503.3,1503.3,1503.2,1503.2
201908211219,1503.2,1503.3,1503,1503.3
201908211220,1503.3,1503.3,1503.2,1503.2
201908211221,1503.2,1503.4,1503.2,1503.4
201908211222,1503.4,1503.4,1503.1,1503.1
201908211223,1503,1503.2,1503,1503.1
201908211224,1503.1,1503.1,1502.8,1502.8
201908211225,1502.8,1503.2,1502.8,1503.1
201908211226,1503.1,1503.2,1503.1,1503.2
201908211227,1503.1,1503.2,1503.1,1503.1
201908211228,1503.1,1503.1,1502.9,1502.9
201908211229,1502.9,1503,1502.9,1502.9
201908211230,1502.9,1503.1,1502.9,1503.1
201908211231,1503.1,1503.2,1503.1,1503.2
201908211232,1503.2,1503.3,1503.2,1503.3
201908211233,1503.3,1503.3,1503.2,1503.3
201908211234,1503.3,1503.3,1503.2,1503.2
201908211235,1503.2,1503.3,1503.2,1503.3
201908211236,1503.3,1503.3,1503.3,1503.3
201908211237,1503.3,1503.3,1503.2,1503.3
201908211238,1503.3,1503.3,1503.1,1503.2
201908211239,1503.2,1503.3,1503.2,1503.3
201908211240,1503.3,1503.3,1503.2,1503.3
201908211241,1503.3,1503.3,1503.2,1503.2
201908211242,1503.2,1503.2,1503.1,1503.1
201908211243,1503.1,1503.1,1503,1503.1
201908211244,1503.1,1503.2,1503.1,1503.2
201908211245,1503.2,1503.4,1503.2,1503.3
201908211246,1503.3,1503.3,1503.1,1503.2
201908211247,1503.2,1503.2,1503,1503
201908211248,1503,1503.1,1503,1503
201908211249,1503,1503.2,1503,1503.2
201908211250,1503.2,1503.2,1503.1,1503.1
201908211251,1503.1,1503.1,1503.1,1503.1
201908211252,1503.1,1503.1,1502.9,1502.9
201908211253,1502.9,1502.9,1502.7,1502.7
201908211254,1502.7,1502.8,1502.7,1502.7
201908211255,1502.7,1502.7,1502.6,1502.7
201908211256,1502.7,1502.8,1502.6,1502.8
201908211257,1502.8,1502.8,1502.8,1502.8
201908211258,1502.8,1502.8,1502.7,1502.7
201908211259,1502.7,1502.8,1502.7,1502.7
201908211300,1502.8,1502.8,1502.6,1502.7
201908211301,1502.7,1502.7,1502.6,1502.6
201908211302,1502.6,1502.7,1502.5,1502.6
201908211303,1502.6,1502.7,1502.5,1502.6
201908211304,1502.6,1502.6,1502.5,1502.6
201908211305,1502.5,1502.6,1502.5,1502.6
201908211306,1502.6,1502.8,1502.6,1502.8
201908211307,1502.8,1503.3,1502.7,1503.2
201908211308,1503.2,1503.3,1503.2,1503.3
201908211309,1503.3,1503.3,1503.2,1503.2
201908211310,1503.2,1503.3,1503.2,1503.2
201908211311,1503.2,1503.3,1503.2,1503.2
201908211312,1503.2,1503.3,1503.2,1503.3
201908211313,1503.3,1503.3,1503.2,1503.2
201908211314,1503.2,1503.3,1503.2,1503.3
201908211315,1503.3,1503.3,1503.3,1503.3
201908211316,1503.3,1503.3,1503.3,1503.3
201908211317,1503.3,1503.3,1503.3,1503.3
201908211318,1503.3,1503.3,1503.2,1503.2
201908211319,1503.2,1503.2,1503.1,1503.2
201908211320,1503.2,1503.2,1503.2,1503.2
201908211321,1503.2,1503.3,1503.2,1503.2
201908211322,1503.2,1503.3,1503.2,1503.3
201908211323,1503.3,1503.3,1503.2,1503.2
201908211324,1503.2,1503.2,1503.2,1503.2
201908211325,1503.2,1503.2,1503.2,1503.2
201908211326,1503.2,1503.3,1503.1,1503.3
201908211327,1503.3,1503.3,1503.2,1503.3
201908211328,1503.3,1503.3,1503.3,1503.3
201908211329,1503.3,1503.3,1503.2,1503.3
201908211330,1503.3,1503.3,1503.2,1503.3
201908211331,1503.3,1503.3,1503.2,1503.2
201908211332,1503.2,1503.2,1503.1,1503.1
201908211333,1503.1,1503.2,1503,1503.2
201908211334,1503.2,1503.3,1503.2,1503.3
201908211335,1503.3,1503.3,1503.2,1503.2
201908211336,1503.2,1503.3,1503.2,1503.3
201908211337,1503.3,1503.3,1503.2,1503.2
201908211338,1503.2,1503.2,1503.2,1503.2
201908211339,1503.2,1503.3,1503.2,1503.2
201908211340,1503.2,1503.3,1503.2,1503.3
201908211341,1503.3,1503.3,1503.2,1503.2
201908211342,1503.2,1503.2,1503,1503
201908211343,1503,1503,1502.8,1502.9
201908211344,1502.9,1503,1502.9,1502.9
201908211345,1502.9,1503,1502.9,1503
201908211346,1503,1503,1502.9,1503
201908211347,1503,1503.1,1503,1503
201908211348,1503,1503.2,1503,1503.2
201908211349,1503.2,1503.2,1503.1,1503.1
201908211350,1503.1,1503.1,1503,1503.1
201908211351,1503.1,1503.3,1503.1,1503.3
201908211352,1503.3,1503.3,1503.3,1503.3
201908211353,1503.3,1503.3,1503.3,1503.3
201908211354,1503.3,1503.3,1503.2,1503.2
201908211355,1503.2,1503.2,1503.2,1503.2
201908211356,1503.2,1503.2,1503.2,1503.2
201908211357,1503.2,1503.3,1503.2,1503.2
201908211358,1503.2,1503.3,1503.2,1503.2
201908211359,1503.2,1503.2,1503.1,1503.1
201908211400,1503.1,1503.1,1502.9,1503
201908211401,1503,1503,1502.9,1503
201908211402,1503,1503,1502.9,1502.9
201908211403,1503,1503,1502.9,1502.9
201908211404,1502.9,1502.9,1502.9,1502.9
201908211405,1502.9,1502.9,1502.9,1502.9
201908211406,1502.9,1502.9,1502.7,1502.7
201908211407,1502.7,1502.7,1502.5,1502.6
201908211408,1502.6,1502.6,1502.4,1502.5
201908211409,1502.5,1502.6,1502.1,1502.1
201908211410,1502.1,1502.3,1502.1,1502.3
201908211411,1502.3,1502.3,1502.2,1502.2
201908211412,1502.2,1502.2,1501.8,1502
201908211413,1502,1502.1,1502,1502.1
201908211414,1502.1,1502.1,1501.7,1501.7
201908211415,1501.7,1501.7,1501.3,1501.7
201908211416,1501.7,1502,1501.7,1501.9
201908211417,1501.9,1502,1501.8,1501.9
201908211418,1501.9,1502,1501.9,1502
201908211419,1502,1502.1,1502,1502.1
201908211420,1502.1,1502.3,1502,1502.3
201908211421,1502.3,1502.3,1502,1502.1
201908211422,1502.1,1502.2,1502,1502.1
201908211423,1502.1,1502.1,1501.9,1501.9
201908211424,1501.9,1501.9,1501.8,1501.8
201908211425,1501.8,1501.9,1501.8,1501.9
201908211426,1501.9,1502,1501.8,1501.9
201908211427,1501.9,1502,1501.9,1501.9
201908211428,1501.9,1501.9,1501.6,1501.8
201908211429,1501.7,1501.9,1501.7,1501.8
201908211430,1501.8,1502.2,1501.4,1502.1
201908211431,1502.1,1502.5,1501.9,1502.4
201908211432,1502.4,1502.5,1502.2,1502.4
201908211433,1502.4,1502.4,1502.3,1502.3
201908211434,1502.3,1502.3,1502,1502.2
201908211435,1502.3,1502.3,1502.1,1502.2
201908211436,1502.2,1502.2,1501.8,1501.9
201908211437,1501.9,1502.4,1501.9,1502.1
201908211438,1502.1,1502.2,1502,1502.2
201908211439,1502.2,1502.3,1502.1,1502.2
201908211440,1502.2,1502.2,1502,1502.1
201908211441,1502.1,1502.5,1502,1502.5
201908211442,1502.5,1502.6,1502.4,1502.6
201908211443,1502.7,1503.4,1502.7,1503.1
201908211444,1503.1,1503.3,1503.1,1503.3
201908211445,1503.3,1503.4,1503.1,1503.1
201908211446,1503.1,1503.4,1503.1,1503.3
201908211447,1503.3,1503.3,1503.2,1503.3
201908211448,1503.2,1503.3,1503,1503.1
201908211449,1503.1,1503.2,1503,1503.1
201908211450,1503.1,1503.1,1503,1503
201908211451,1503,1503,1503,1503
201908211452,1503,1503,1502.9,1503
201908211453,1502.9,1503,1502.9,1502.9
201908211454,1503,1503,1502.9,1503
201908211455,1503,1503,1502.9,1502.9
201908211456,1502.9,1502.9,1502.8,1502.9
201908211457,1502.9,1502.9,1502.8,1502.8
201908211458,1502.8,1502.8,1502.7,1502.7
201908211459,1502.7,1502.7,1502.5,1502.6
201908211500,1502.5,1503.2,1502.4,1503.1
201908211501,1503.1,1503.3,1503,1503
201908211502,1503,1503.1,1503,1503.1
201908211503,1503.1,1503.3,1503.1,1503.3
201908211504,1503.3,1503.3,1503.3,1503.3
201908211505,1503.3,1503.3,1503,1503
201908211506,1503,1503.2,1503,1503.1
201908211507,1503.1,1503.3,1503,1503.3
201908211508,1503.3,1503.5,1503.3,1503.4
201908211509,1503.4,1504.3,1503.4,1504.1
201908211510,1504.1,1504.4,1504,1504.2
201908211511,1504.1,1504.3,1504.1,1504.2
201908211512,1504.2,1504.2,1503.9,1504
201908211513,1504,1504.1,1503.9,1504
201908211514,1504,1504.1,1504,1504
201908211515,1504,1504.1,1503.7,1503.7
201908211516,1503.7,1504,1503.7,1504
201908211517,1504,1504,1503.8,1503.8
201908211518,1503.8,1503.8,1503.7,1503.7
201908211519,1503.7,1504,1503.7,1503.7
201908211520,1503.7,1503.8,1503.6,1503.6
201908211521,1503.6,1503.6,1503.5,1503.5
201908211522,1503.5,1503.6,1503.2,1503.2
201908211523,1503.2,1503.2,1503,1503.1
201908211524,1503.1,1503.3,1503,1503
201908211525,1503,1503.1,1503,1503.1
201908211526,1503.1,1503.3,1503.1,1503.3
201908211527,1503.3,1503.6,1503.3,1503.6
201908211528,1503.6,1503.6,1503.4,1503.5
201908211529,1503.5,1503.5,1503.4,1503.5
201908211530,1503.5,1503.5,1503.4,1503.4
201908211531,1503.4,1503.5,1503.3,1503.4
201908211532,1503.4,1503.4,1503.2,1503.2
201908211533,1503.3,1503.3,1503.1,1503.1
201908211534,1503.1,1503.1,1503.1,1503.1
201908211535,1503.1,1503.3,1503,1503.3
201908211536,1503.3,1503.4,1503.1,1503.1
201908211537,1503.1,1503.1,1503,1503
201908211538,1503,1503.1,1502.8,1503
201908211539,1503,1503.1,1502.9,1503
201908211540,1503,1503,1502.5,1502.5
201908211541,1502.6,1502.6,1502.1,1502.1
201908211542,1502.1,1502.2,1502,1502
201908211543,1502,1502.1,1500.4,1500.6
201908211544,1500.5,1501.2,1500.1,1500.2
201908211545,1500.2,1500.6,1500.1,1500.6
201908211546,1500.6,1500.6,1499.1,1499.3
201908211547,1499.3,1499.8,1499.2,1499.8
201908211548,1499.8,1499.9,1499.2,1499.3
201908211549,1499.3,1500,1499.3,1500
201908211550,1500,1500.1,1499.9,1500
201908211551,1500,1500.2,1500,1500.1
201908211552,1500.1,1500.3,1499.8,1500.2
201908211553,1500.2,1500.4,1500.2,1500.4
201908211554,1500.4,1500.4,1500,1500.1
201908211555,1500.1,1500.1,1499.9,1499.9
201908211556,1499.9,1500,1499.9,1499.9
201908211557,1499.9,1500,1499.7,1499.8
201908211558,1499.8,1500.4,1499.7,1499.7
201908211559,1499.8,1500,1499.3,1499.5
201908211600,1499.5,1500,1499.5,1499.9
201908211601,1499.9,1500,1499.2,1499.3
201908211602,1499.2,1499.2,1498.2,1498.3
201908211603,1498.3,1498.6,1498,1498.5
201908211604,1498.5,1498.8,1498.4,1498.6
201908211605,1498.6,1498.8,1497.2,1497.9
201908211606,1497.9,1498.1,1496.7,1497.6
201908211607,1497.6,1498.2,1497.5,1498
201908211608,1498,1498.8,1498,1498.7
201908211609,1498.7,1499,1498.7,1498.9
201908211610,1498.9,1499,1498.7,1498.9
201908211611,1498.9,1499.1,1498.9,1499.1
201908211612,1499.1,1499.2,1498.8,1499.1
201908211613,1499.1,1499.3,1499,1499.1
201908211614,1499.1,1499.3,1499,1499.2
201908211615,1499.2,1499.4,1499.1,1499.2
201908211616,1499.1,1499.3,1499.1,1499.3
201908211617,1499.3,1499.6,1499.2,1499.2
201908211618,1499.2,1499.3,1499.1,1499.3
201908211619,1499.3,1499.6,1499.3,1499.4
201908211620,1499.4,1499.5,1499.4,1499.4
201908211621,1499.4,1499.6,1499.4,1499.5
201908211622,1499.5,1499.5,1499,1499
201908211623,1499,1499.4,1499,1499.4
201908211624,1499.4,1499.4,1498.8,1499
201908211625,1499,1499.1,1498.5,1498.6
201908211626,1498.6,1498.8,1498.4,1498.7
201908211627,1498.7,1498.7,1498.3,1498.3
201908211628,1498.4,1498.6,1498.3,1498.5
201908211629,1498.5,1498.7,1498.4,1498.7
201908211630,1498.6,1499,1498.5,1498.9
201908211631,1498.9,1499,1498.8,1499
201908211632,1499,1499.1,1497.9,1497.9
201908211633,1497.9,1498,1496.9,1498
201908211634,1498,1498.3,1498,1498.3
201908211635,1498.3,1498.5,1498.2,1498.4
201908211636,1498.4,1498.5,1498.2,1498.5
201908211637,1498.5,1498.7,1498.2,1498.2
201908211638,1498.2,1498.3,1497.9,1498
201908211639,1498,1498.3,1497.4,1497.5
201908211640,1497.5,1497.6,1497.4,1497.4
201908211641,1497.4,1497.6,1497.4,1497.6
201908211642,1497.6,1498,1497.4,1498
201908211643,1498,1498,1497.5,1497.7
201908211644,1497.7,1497.9,1497.7,1497.9
201908211645,1497.8,1498,1497.7,1498
201908211646,1498,1498,1497.5,1497.5
201908211647,1497.5,1497.8,1497.5,1497.7
201908211648,1497.7,1497.7,1497.1,1497.5
201908211649,1497.5,1497.8,1497.5,1497.7
201908211650,1497.7,1497.7,1497.3,1497.3
201908211651,1497.3,1497.5,1497.2,1497.2
201908211652,1497.2,1497.3,1496.4,1496.6
201908211653,1496.6,1497.2,1496.6,1497.2
201908211654,1497.2,1497.3,1497.1,1497.3
201908211655,1497.3,1497.3,1497,1497.2
201908211656,1497.2,1497.3,1497.1,1497.2
201908211657,1497.2,1497.2,1496.5,1496.6
201908211658,1496.6,1496.8,1496.6,1496.7
201908211659,1496.7,1497.2,1496.7,1497.2
201908211700,1497.2,1497.6,1497.2,1497.5
201908211701,1497.5,1497.5,1497.2,1497.4
201908211702,1497.4,1497.5,1497.4,1497.4
201908211703,1497.4,1497.7,1497.4,1497.6
201908211704,1497.6,1498,1497.4,1497.8
201908211705,1497.8,1498.2,1497.7,1498.1
201908211706,1498.1,1498.3,1498.1,1498.2
201908211707,1498.2,1498.3,1498.1,1498.3
201908211708,1498.3,1498.4,1498,1498.2
201908211709,1498.2,1498.3,1498,1498.1
201908211710,1498.1,1498.2,1498,1498.1
201908211711,1498.1,1498.2,1498,1498.2
201908211712,1498.2,1498.4,1498.1,1498.3
201908211713,1498.3,1498.5,1498.3,1498.3
201908211714,1498.3,1498.4,1498.1,1498.3
201908211715,1498.3,1498.5,1498.2,1498.3
201908211716,1498.3,1498.8,1498.3,1498.8
201908211717,1498.8,1499,1498.8,1498.9
201908211718,1498.9,1498.9,1498.8,1498.8
201908211719,1498.8,1499,1498.8,1498.8
201908211720,1498.8,1499.1,1498.8,1498.9
201908211721,1498.9,1499,1498.6,1498.6
201908211722,1498.6,1498.8,1498.5,1498.5
201908211723,1498.5,1498.7,1498.5,1498.5
201908211724,1498.4,1498.6,1498.4,1498.5
201908211725,1498.5,1498.7,1498.4,1498.6
201908211726,1498.6,1498.6,1498.4,1498.4
201908211727,1498.4,1498.5,1498.1,1498.2
201908211728,1498.2,1498.2,1497.9,1498
201908211729,1498,1498,1497.7,1497.7
201908211730,1497.7,1498.1,1497.7,1498.1
201908211731,1498.1,1498.2,1498,1498.1
201908211732,1498.1,1498.4,1498.1,1498.3
201908211733,1498.3,1498.6,1498.2,1498.6
201908211734,1498.6,1498.6,1498.4,1498.5
201908211735,1498.5,1498.5,1498.4,1498.5
201908211736,1498.5,1498.6,1498.5,1498.5
201908211737,1498.6,1498.6,1498.4,1498.4
201908211738,1498.4,1498.5,1498.4,1498.5
201908211739,1498.5,1498.5,1498.3,1498.3
201908211740,1498.3,1498.3,1497.8,1497.8
201908211741,1497.8,1497.8,1497.3,1497.3
201908211742,1497.3,1497.5,1497,1497.1
201908211743,1497.1,1497.5,1497,1497.5
201908211744,1497.5,1497.6,1497.3,1497.4
201908211745,1497.4,1497.7,1497.3,1497.7
201908211746,1497.7,1497.9,1497.7,1497.8
201908211747,1497.8,1498.1,1497.7,1498.1
201908211748,1498.1,1498.2,1498,1498
201908211749,1498,1498.2,1497.9,1498.1
201908211750,1498.1,1498.1,1497.9,1497.9
201908211751,1497.9,1498,1497.8,1498
201908211752,1498,1498.4,1498,1498.4
201908211753,1498.5,1498.5,1498.4,1498.4
201908211754,1498.4,1498.5,1498.3,1498.5
201908211755,1498.5,1498.6,1498.3,1498.3
201908211756,1498.3,1498.3,1498.2,1498.3
201908211757,1498.3,1498.5,1498.3,1498.5
201908211758,1498.5,1498.5,1498.3,1498.5
201908211759,1498.5,1498.9,1498.5,1498.9
201908211800,1498.9,1498.9,1498.8,1498.8
201908211801,1498.8,1498.9,1498.5,1498.6
201908211802,1498.6,1498.9,1498.6,1498.9
201908211803,1498.9,1499.3,1498.9,1499.3
201908211804,1499.3,1499.3,1499,1499.2
201908211805,1499.2,1499.2,1499,1499.1
201908211806,1499.1,1499.2,1498.8,1499.2
201908211807,1499.2,1499.4,1499.1,1499.2
201908211808,1499.3,1499.3,1498.9,1499.1
201908211809,1499.1,1499.1,1498.9,1499.1
201908211810,1499.1,1499.1,1498.8,1498.9
201908211811,1498.9,1499,1498.9,1499
201908211812,1499,1499.2,1498.9,1499.2
201908211813,1499.2,1499.2,1498.9,1498.9
201908211814,1498.9,1499,1498.6,1498.7
201908211815,1498.7,1498.8,1498.5,1498.6
201908211816,1498.6,1498.7,1498.3,1498.3
201908211817,1498.3,1499.3,1498.3,1499.2
201908211818,1499.2,1500.5,1499.2,1500.4
201908211819,1500.3,1500.6,1500.3,1500.4
201908211820,1500.4,1500.6,1500.4,1500.4
201908211821,1500.4,1500.9,1500.4,1500.8
201908211822,1500.8,1500.8,1500.6,1500.7
201908211823,1500.7,1500.7,1500.5,1500.7
201908211824,1500.7,1500.7,1500.4,1500.4
201908211825,1500.4,1500.5,1500,1500.1
201908211826,1500.1,1500.4,1500,1500.4
201908211827,1500.4,1500.4,1500.1,1500.2
201908211828,1500.2,1500.2,1499.9,1500
201908211829,1500,1500,1499.9,1500
201908211830,1500,1500.1,1499.7,1499.7
201908211831,1499.7,1499.7,1499.2,1499.6
201908211832,1499.6,1499.7,1499.2,1499.2
201908211833,1499.2,1499.5,1499.2,1499.5
201908211834,1499.5,1499.6,1499.4,1499.5
201908211835,1499.5,1499.5,1499.1,1499.4
201908211836,1499.4,1499.7,1499.4,1499.7
201908211837,1499.7,1499.7,1499.4,1499.5
201908211838,1499.5,1499.6,1499.4,1499.4
201908211839,1499.4,1499.4,1499.2,1499.2
201908211840,1499.3,1499.3,1499.2,1499.3
201908211841,1499.3,1499.3,1499.1,1499.2
201908211842,1499.2,1499.3,1499,1499.1
201908211843,1499.1,1499.1,1499.1,1499.1
201908211844,1499.1,1499.4,1499.1,1499.3
201908211845,1499.2,1499.5,1499.1,1499.5
201908211846,1499.5,1499.6,1499.4,1499.5
201908211847,1499.5,1499.6,1499.2,1499.2
201908211848,1499.2,1499.2,1499.1,1499.2
201908211849,1499.2,1499.5,1499.2,1499.4
201908211850,1499.4,1499.6,1499.3,1499.5
201908211851,1499.5,1499.6,1499.4,1499.6
201908211852,1499.6,1499.6,1499.4,1499.4
201908211853,1499.4,1499.6,1499.3,1499.6
201908211854,1499.6,1499.7,1499.5,1499.6
201908211855,1499.6,1499.7,1499.5,1499.7
201908211856,1499.7,1499.8,1499.7,1499.8
201908211857,1499.8,1499.8,1499.7,1499.8
201908211858,1499.8,1499.9,1499.8,1499.9
201908211859,1499.9,1500.1,1499.9,1500.1
201908211900,1500.1,1500.5,1500,1500.5
201908211901,1500.5,1500.7,1500.4,1500.4
201908211902,1500.5,1500.7,1500.4,1500.7
201908211903,1500.7,1500.8,1500.6,1500.7
201908211904,1500.7,1500.9,1500.6,1500.6
201908211905,1500.6,1500.6,1500.3,1500.4
201908211906,1500.4,1500.4,1500.2,1500.4
201908211907,1500.4,1500.5,1500.3,1500.5
201908211908,1500.5,1500.6,1500.4,1500.4
201908211909,1500.4,1500.5,1500.2,1500.3
201908211910,1500.3,1500.6,1500.3,1500.5
201908211911,1500.5,1500.6,1500.5,1500.6
201908211912,1500.6,1500.7,1500.6,1500.7
201908211913,1500.7,1500.8,1500.7,1500.7
201908211914,1500.7,1500.7,1500.5,1500.5
201908211915,1500.5,1501.1,1500.5,1501
201908211916,1501,1501.5,1500.9,1501
201908211917,1501,1501.4,1501,1501.3
201908211918,1501.3,1501.4,1501,1501.2
201908211919,1501.2,1501.2,1500.9,1501
201908211920,1501.1,1501.1,1500.8,1500.8
201908211921,1500.9,1500.9,1500.4,1500.4
201908211922,1500.4,1500.5,1500.3,1500.3
201908211923,1500.3,1500.3,1500.2,1500.3
201908211924,1500.3,1500.6,1500.3,1500.6
201908211925,1500.6,1500.6,1500.3,1500.5
201908211926,1500.5,1500.6,1500.4,1500.6
201908211927,1500.6,1500.6,1500.5,1500.6
201908211928,1500.6,1500.6,1500.5,1500.6
201908211929,1500.6,1500.6,1500.3,1500.6
201908211930,1500.6,1500.6,1500.5,1500.6
201908211931,1500.6,1500.8,1500.6,1500.8
201908211932,1500.8,1501,1500.8,1501
201908211933,1501,1501.3,1501,1501.3
201908211934,1501.3,1501.6,1501.3,1501.4
201908211935,1501.4,1501.4,1501.2,1501.2
201908211936,1501.2,1501.6,1501.2,1501.6
201908211937,1501.6,1502,1501.4,1501.6
201908211938,1501.6,1501.6,1501.2,1501.4
201908211939,1501.4,1501.5,1501.2,1501.2
201908211940,1501.2,1501.3,1501.1,1501.3
201908211941,1501.3,1501.4,1501.2,1501.3
201908211942,1501.3,1501.3,1501.1,1501.2
201908211943,1501.2,1501.3,1501.2,1501.3
201908211944,1501.3,1501.7,1501.3,1501.7
201908211945,1501.7,1501.7,1501.5,1501.6
201908211946,1501.5,1501.8,1501.5,1501.7
201908211947,1501.7,1501.7,1501.4,1501.4
201908211948,1501.5,1501.5,1501.4,1501.5
201908211949,1501.5,1501.5,1501.1,1501.3
201908211950,1501.3,1501.3,1501.1,1501.2
201908211951,1501.2,1501.3,1501.2,1501.3
201908211952,1501.3,1501.3,1501.2,1501.2
201908211953,1501.2,1501.2,1500.9,1501.2
201908211954,1501.2,1501.3,1501.1,1501.2
201908211955,1501.3,1501.3,1501.2,1501.3
201908211956,1501.3,1501.5,1501.2,1501.2
201908211957,1501.2,1501.4,1501.2,1501.3
201908211958,1501.3,1501.5,1501.3,1501.4
201908211959,1501.4,1501.4,1501.3,1501.4
201908212000,1501.4,1501.5,1501.4,1501.4
201908212001,1501.4,1501.5,1501.4,1501.5
201908212002,1501.5,1501.8,1501.5,1501.8
201908212003,1501.8,1501.9,1501.6,1501.7
201908212004,1501.7,1501.8,1501.6,1501.7
201908212005,1501.7,1501.9,1501.6,1501.9
201908212006,1501.9,1501.9,1501.8,1501.9
201908212007,1501.9,1502,1501.9,1501.9
201908212008,1501.9,1502.1,1501.8,1501.9
201908212009,1501.9,1501.9,1501.7,1501.8
201908212010,1501.8,1501.9,1501.8,1501.8
201908212011,1501.8,1501.9,1501.8,1501.8
201908212012,1501.8,1501.8,1501.6,1501.8
201908212013,1501.8,1501.8,1501.7,1501.7
201908212014,1501.7,1501.8,1501.6,1501.7
201908212015,1501.7,1501.7,1501.6,1501.7
201908212016,1501.7,1501.7,1501.6,1501.7
201908212017,1501.7,1501.7,1501.6,1501.6
201908212018,1501.6,1501.6,1501.2,1501.2
201908212019,1501.2,1501.2,1500.8,1500.9
201908212020,1500.9,1501,1500.8,1500.8
201908212021,1500.8,1500.9,1500.7,1500.8
201908212022,1500.8,1501.1,1500.8,1501.1
201908212023,1501,1501.1,1501,1501.1
201908212024,1501.1,1501.4,1501.1,1501.2
201908212025,1501.2,1501.4,1501.2,1501.2
201908212026,1501.2,1501.4,1501,1501
201908212027,1501.1,1501.1,1500.9,1500.9
201908212028,1500.9,1500.9,1500.6,1500.7
201908212029,1500.7,1501,1500.7,1500.9
201908212030,1501,1501,1500.8,1500.8
201908212031,1500.8,1501,1500.8,1501
201908212032,1501,1501,1500.6,1500.7
201908212033,1500.7,1500.7,1500.5,1500.5
201908212034,1500.5,1500.5,1500.2,1500.2
201908212035,1500.2,1500.3,1500,1500.2
201908212036,1500.2,1500.3,1500.1,1500.1
201908212037,1500.1,1500.2,1500.1,1500.2
201908212038,1500.2,1500.2,1500.1,1500.2
201908212039,1500.2,1500.4,1500.2,1500.4
201908212040,1500.4,1500.4,1500.1,1500.1
201908212041,1500.1,1500.2,1500,1500
201908212042,1500,1500.6,1500,1500.5
201908212043,1500.5,1500.5,1500.2,1500.3
201908212044,1500.4,1500.4,1500,1500.1
201908212045,1500.1,1500.4,1500.1,1500.3
201908212046,1500.3,1500.3,1500.1,1500.1
201908212047,1500.1,1500.2,1500.1,1500.2
201908212048,1500.2,1500.2,1499.9,1499.9
201908212049,1499.9,1500.1,1499.9,1500
201908212050,1500.1,1500.1,1499.9,1499.9
201908212051,1499.9,1500,1499.7,1499.8
201908212052,1499.8,1499.9,1499.5,1499.8
201908212053,1499.8,1499.8,1499.4,1499.5
201908212054,1499.5,1499.6,1499.4,1499.4
201908212055,1499.4,1499.6,1499.2,1499.5
201908212056,1499.5,1499.8,1499.4,1499.7
201908212057,1499.7,1499.7,1499.6,1499.6
201908212058,1499.6,1499.7,1499.6,1499.7
201908212059,1499.7,1499.8,1499.4,1499.7
201908212100,1499.7,1499.7,1498.2,1498.8
201908212101,1498.7,1499.2,1498.4,1499.1
201908212102,1499.1,1499.3,1498.9,1499.3
201908212103,1499.3,1499.4,1499.1,1499.4
201908212104,1499.4,1499.8,1499.3,1499.8
201908212105,1499.8,1499.9,1499.7,1499.8
201908212106,1499.8,1499.8,1499.1,1499.3
201908212107,1499.3,1499.4,1499.1,1499.3
201908212108,1499.3,1499.7,1499,1499
201908212109,1498.9,1499.2,1498.9,1499.1
201908212110,1499.1,1499.3,1499,1499.2
201908212111,1499.2,1499.3,1499,1499.1
201908212112,1499.1,1499.2,1499,1499.1
201908212113,1499.1,1499.1,1498.7,1498.9
201908212114,1498.9,1499,1498.7,1498.7
201908212115,1498.7,1499.6,1498.7,1499.1
201908212116,1499,1499,1498.1,1498.4
201908212117,1498.4,1499,1498.4,1498.9
201908212118,1498.9,1499.1,1498.9,1499.1
201908212119,1499.1,1499.1,1498.7,1498.8
201908212120,1498.8,1499.2,1498.8,1499.1
201908212121,1499.2,1499.5,1498.8,1499.5
201908212122,1499.5,1499.6,1499.4,1499.4
201908212123,1499.4,1499.6,1499.3,1499.4
201908212124,1499.4,1500.2,1499.4,1499.7
201908212125,1499.7,1499.7,1499.4,1499.5
201908212126,1499.5,1499.9,1499.4,1499.9
201908212127,1500,1500,1499.4,1499.5
201908212128,1499.5,1499.7,1499.1,1499.1
201908212129,1499.1,1499.3,1499.1,1499.3
201908212130,1499.3,1499.4,1499,1499
201908212131,1499.1,1499.2,1499,1499.2
201908212132,1499.2,1499.8,1499,1499.8
201908212133,1499.7,1499.7,1499.4,1499.6
201908212134,1499.6,1500.4,1499.6,1500.3
201908212135,1500.2,1500.9,1500.2,1500.5
201908212136,1500.5,1500.5,1500.3,1500.3
201908212137,1500.3,1500.3,1500,1500.1
201908212138,1500.1,1500.1,1499.9,1500.1
201908212139,1500.1,1500.3,1499.9,1500.1
201908212140,1500.1,1500.4,1499.9,1500.4
201908212141,1500.5,1500.8,1500.4,1500.5
201908212142,1500.5,1500.8,1500.5,1500.7
201908212143,1500.8,1500.9,1500.5,1500.8
201908212144,1500.9,1501,1500.5,1500.6
201908212145,1500.5,1501,1500.5,1501
201908212146,1501,1501.1,1500.9,1501
201908212147,1501.1,1501.2,1500.9,1500.9
201908212148,1500.9,1501.2,1500.8,1500.9
201908212149,1500.9,1501,1500.7,1500.8
201908212150,1500.8,1501,1500.7,1500.8
201908212151,1500.8,1501.1,1500.7,1500.8
201908212152,1500.8,1500.9,1500.3,1500.4
201908212153,1500.4,1501.2,1500.4,1501
201908212154,1501,1501.1,1500.8,1500.8
201908212155,1500.8,1501,1500.6,1500.6
201908212156,1500.6,1501.1,1500.6,1500.9
201908212157,1500.9,1501.1,1500.7,1500.8
201908212158,1500.8,1500.8,1500.4,1500.6
201908212159,1500.6,1500.8,1500.4,1500.4
201908212200,1500.4,1500.4,1499.9,1500
201908212201,1499.9,1500,1499.8,1499.9
201908212202,1499.9,1500.4,1499.6,1500.4
201908212203,1500.4,1501.1,1500.4,1500.8
201908212204,1500.8,1501.8,1500.7,1501.5
201908212205,1501.5,1501.7,1500.9,1501
201908212206,1501,1501.1,1500.6,1500.6
201908212207,1500.6,1501.3,1500.5,1501.2
201908212208,1501.2,1501.2,1500.5,1500.6
201908212209,1500.6,1500.6,1500.3,1500.6
201908212210,1500.6,1500.9,1500.6,1500.7
201908212211,1500.7,1501.3,1500.7,1501
201908212212,1501,1501.1,1500.9,1500.9
201908212213,1500.9,1500.9,1500.2,1500.2
201908212214,1500.2,1500.4,1500.1,1500.2
201908212215,1500.2,1500.3,1499.9,1500
201908212216,1500,1500.5,1499.9,1500.4
201908212217,1500.4,1500.5,1500.3,1500.3
201908212218,1500.3,1500.7,1500.3,1500.7
201908212219,1500.7,1500.7,1500.7,1500.7
201908212220,1500.7,1501.2,1500.7,1501
201908212221,1501,1501,1500.6,1500.7
201908212222,1500.7,1501.3,1500.7,1501.2
201908212223,1501.2,1501.2,1500.9,1500.9
201908212224,1500.9,1501.2,1500.9,1501.1
201908212225,1501,1501.1,1500.9,1501
201908212226,1501,1501,1500.6,1500.9
201908212227,1500.9,1500.9,1500.8,1500.9
201908212228,1500.9,1501.1,1500.8,1501.1
201908212229,1501.1,1501.6,1501.1,1501.5
201908212230,1501.5,1502.9,1501.4,1502.6
201908212231,1502.6,1503.1,1502.3,1503
201908212232,1503,1503.7,1502.8,1503.6
201908212233,1503.6,1503.6,1503,1503.3
201908212234,1503.3,1503.6,1503,1503
201908212235,1503,1503.3,1502.8,1502.9
201908212236,1502.9,1502.9,1502.5,1502.6
201908212237,1502.6,1502.6,1502.2,1502.2
201908212238,1502.2,1502.4,1502.1,1502.3
201908212239,1502.3,1502.4,1502.2,1502.2
201908212240,1502.2,1502.3,1501.6,1501.6
201908212241,1501.5,1501.9,1501.4,1501.9
201908212242,1501.9,1502,1501.3,1501.4
201908212243,1501.4,1501.7,1501,1501.1
201908212244,1501.1,1501.1,1500.7,1501
201908212245,1501,1501.6,1500.9,1501.4
201908212246,1501.4,1501.7,1501.3,1501.5
201908212247,1501.5,1501.9,1501.4,1501.6
201908212248,1501.6,1501.9,1501.5,1501.9
201908212249,1501.9,1502,1501.4,1501.4
201908212250,1501.4,1501.6,1501.2,1501.4
201908212251,1501.4,1501.7,1501.3,1501.5
201908212252,1501.5,1502.1,1501.5,1502
201908212253,1502,1502.5,1502,1502.4
201908212254,1502.4,1502.7,1502.3,1502.4
201908212255,1502.4,1502.8,1502.4,1502.4
201908212256,1502.4,1502.6,1502.2,1502.4
201908212257,1502.4,1502.8,1502.4,1502.8
201908212258,1502.8,1503.2,1502.8,1503.2
201908212259,1503.1,1503.2,1503,1503
201908212300,1503,1503.4,1502.7,1502.8
201908212301,1502.8,1502.8,1502.5,1502.7
201908212302,1502.7,1502.7,1502.2,1502.5
201908212303,1502.5,1502.9,1502.5,1502.7
201908212304,1502.7,1502.7,1502.3,1502.4
201908212305,1502.4,1502.5,1502.4,1502.4
201908212306,1502.4,1503.1,1502.4,1502.7
201908212307,1502.7,1502.7,1502.5,1502.5
201908212308,1502.5,1502.8,1502.5,1502.7
201908212309,1502.7,1502.8,1502.6,1502.8
201908212310,1502.8,1502.9,1502.6,1502.9
201908212311,1502.9,1503.1,1502.7,1503
201908212312,1503,1503.9,1502.9,1503.4
201908212313,1503.4,1503.8,1503.1,1503.4
201908212314,1503.4,1504.1,1503.3,1504
201908212315,1504,1504.3,1503.8,1504.1
201908212316,1504.1,1504.5,1503.9,1504.4
201908212317,1504.4,1504.7,1504,1504
201908212318,1504,1504.1,1503.7,1503.7
201908212319,1503.7,1503.8,1503.5,1503.7
201908212320,1503.7,1504.1,1503.6,1504.1
201908212321,1504.1,1504.2,1503.9,1504
201908212322,1504,1504,1503.6,1503.7
201908212323,1503.7,1503.8,1503.2,1503.2
201908212324,1503.2,1503.5,1503.2,1503.4
201908212325,1503.4,1503.6,1503.2,1503.6
201908212326,1503.6,1503.7,1503.6,1503.6
201908212327,1503.6,1503.7,1503.4,1503.6
201908212328,1503.6,1503.7,1503.2,1503.3
201908212329,1503.3,1503.3,1503,1503.2
201908212330,1503.2,1504.3,1503.2,1503.3
201908212331,1503.3,1503.4,1503.1,1503.1
201908212332,1503.2,1503.2,1502.9,1503.1
201908212333,1503.1,1503.2,1502.2,1502.4
201908212334,1502.5,1502.8,1502.3,1502.8
201908212335,1502.8,1503.3,1502.8,1503
201908212336,1503,1504,1503,1503.9
201908212337,1503.9,1504.2,1503.9,1504.1
201908212338,1504.1,1504.4,1504.1,1504.4
201908212339,1504.4,1504.5,1503.8,1503.8
201908212340,1503.8,1504.4,1503.8,1504.2
201908212341,1504.2,1504.3,1504.1,1504.3
201908212342,1504.3,1504.3,1503.8,1503.9
201908212343,1503.9,1503.9,1503.5,1503.6
201908212344,1503.6,1503.8,1503.5,1503.6
201908212345,1503.6,1503.8,1503.6,1503.8
201908212346,1503.8,1503.8,1503.5,1503.8
201908212347,1503.8,1503.8,1503.4,1503.4
201908212348,1503.3,1503.7,1503.3,1503.6
201908212349,1503.6,1503.6,1503.2,1503.4
201908212350,1503.4,1503.7,1503.2,1503.2
201908212351,1503.2,1503.4,1503.2,1503.4
201908212352,1503.4,1503.4,1503,1503.1
201908212353,1503.1,1503.2,1503,1503.1
201908212354,1503.1,1503.3,1503.1,1503.2
201908212355,1503.2,1503.2,1502.9,1503.1
201908212356,1503.1,1503.2,1502.9,1503
201908212357,1503,1503.3,1503,1503.3
201908212358,1503.4,1503.4,1503.1,1503.2
201908212359,1503.2,1503.3,1502.9,1503
201908220000,1503,1503.6,1503,1503.6
201908220001,1503.6,1503.6,1503.3,1503.6
201908220002,1503.6,1503.7,1503.5,1503.5
201908220003,1503.5,1503.5,1503.3,1503.4
201908220004,1503.4,1503.7,1503.4,1503.6
201908220005,1503.6,1503.6,1503,1503.2
201908220006,1503.1,1503.4,1503.1,1503.3
201908220007,1503.3,1503.4,1503,1503
201908220008,1503,1503.3,1503,1503.1
201908220009,1503.1,1503.2,1503,1503.2
201908220010,1503.2,1503.6,1503.2,1503.6
201908220011,1503.5,1503.7,1503.3,1503.4
201908220012,1503.4,1503.4,1503.3,1503.3
201908220013,1503.3,1503.4,1503.3,1503.4
201908220014,1503.4,1503.8,1503.4,1503.7
201908220015,1503.7,1503.8,1503.6,1503.7
201908220016,1503.7,1503.7,1503.1,1503.1
201908220017,1503.1,1503.3,1503.1,1503.1
201908220018,1503.1,1503.4,1503.1,1503.2
201908220019,1503.2,1503.3,1503.1,1503.3
201908220020,1503.3,1503.5,1503.2,1503.3
201908220021,1503.3,1503.4,1503.1,1503.2
201908220022,1503.2,1503.2,1502.9,1503.1
201908220023,1503.1,1503.2,1503,1503.1
201908220024,1503.2,1503.5,1503.2,1503.3
201908220025,1503.3,1503.3,1503,1503
201908220026,1503.1,1503.2,1502.9,1503.1
201908220027,1503.1,1503.1,1502.9,1503
201908220028,1503,1503,1502.9,1503
201908220029,1503,1503,1502.9,1502.9
201908220030,1502.9,1503.3,1502.9,1503.2
201908220031,1503.2,1503.6,1503.2,1503.4
201908220032,1503.4,1503.7,1503.4,1503.6
201908220033,1503.6,1503.7,1503.4,1503.6
201908220034,1503.6,1503.7,1503.5,1503.5
201908220035,1503.6,1503.6,1503.5,1503.6
201908220036,1503.6,1503.6,1503.4,1503.5
201908220037,1503.5,1503.6,1503.4,1503.6
201908220038,1503.6,1503.7,1503.6,1503.6
201908220039,1503.6,1503.8,1503.6,1503.7
201908220040,1503.7,1503.8,1503.5,1503.5
201908220041,1503.5,1503.9,1503.5,1503.9
201908220042,1503.9,1504.2,1503.8,1504.2
201908220043,1504.2,1504.3,1504.2,1504.2
201908220044,1504.2,1504.5,1504.2,1504.5
201908220045,1504.5,1505,1504.5,1504.9
201908220046,1504.9,1505,1504.5,1504.6
201908220047,1504.6,1504.9,1504.6,1504.9
201908220048,1504.9,1505,1504.6,1504.9
201908220049,1504.9,1505,1504.8,1504.9
201908220050,1504.9,1505.3,1504.9,1505.3
201908220051,1505.2,1505.5,1505.2,1505.5
201908220052,1505.5,1505.7,1505.2,1505.3
201908220053,1505.3,1505.7,1505.3,1505.5
201908220054,1505.5,1505.5,1505.3,1505.4
201908220055,1505.4,1505.6,1505.2,1505.6
201908220056,1505.6,1505.7,1505.2,1505.4
201908220057,1505.4,1505.6,1505.3,1505.6
201908220058,1505.6,1505.8,1501.5,1501.5
201908220059,1501.6,1503.9,1501.3,1502.7
201908220100,1502.7,1503.3,1501.8,1502.3
201908220101,1502.3,1503.1,1501.9,1502.9
201908220102,1502.9,1503.4,1502.8,1503.3
201908220103,1503.3,1503.7,1503.3,1503.4
201908220104,1503.4,1503.8,1503.3,1503.6
201908220105,1503.6,1504.2,1503.5,1503.9
201908220106,1503.9,1504.2,1503.9,1504
201908220107,1504,1504.1,1503.9,1503.9
201908220108,1503.8,1504.1,1503.7,1504
201908220109,1504,1504,1503.7,1503.8
201908220110,1503.8,1504.1,1503.8,1504.1
201908220111,1504.1,1504.4,1504,1504.2
201908220112,1504.2,1504.5,1504.1,1504.4
201908220113,1504.4,1504.4,1504.2,1504.4
201908220114,1504.4,1504.6,1504.1,1504.2
201908220115,1504.2,1504.6,1504.1,1504.3
201908220116,1504.3,1504.5,1504.1,1504.2
201908220117,1504.3,1504.7,1504.1,1504.3
201908220118,1504.3,1504.6,1504.3,1504.4
201908220119,1504.4,1504.5,1504.2,1504.2
201908220120,1504.2,1504.5,1504.1,1504.4
201908220121,1504.4,1504.4,1504,1504.2
201908220122,1504.2,1504.3,1504.1,1504.3
201908220123,1504.3,1504.7,1504.3,1504.7
201908220124,1504.7,1504.8,1504.6,1504.6
201908220125,1504.6,1504.7,1504.3,1504.4
201908220126,1504.4,1504.6,1504.4,1504.6
201908220127,1504.6,1504.6,1504.3,1504.4
201908220128,1504.4,1504.5,1504.2,1504.3
201908220129,1504.4,1504.4,1504.2,1504.3
201908220130,1504.3,1504.5,1504.2,1504.4
201908220131,1504.4,1505.1,1504.1,1504.6
201908220132,1504.6,1504.6,1504.3,1504.4
201908220133,1504.4,1504.6,1504.2,1504.4
201908220134,1504.4,1504.7,1504.4,1504.6
201908220135,1504.6,1504.9,1504.6,1504.8
201908220136,1504.8,1504.9,1504.7,1504.7
201908220137,1504.7,1504.9,1504.7,1504.9
201908220138,1504.9,1505.1,1504.8,1505
201908220139,1505.1,1505.1,1504.8,1505
201908220140,1504.9,1505.1,1504.9,1505
201908220141,1505,1505.3,1505,1505
201908220142,1505,1505.5,1505,1505.5
201908220143,1505.5,1505.7,1505.4,1505.6
201908220144,1505.6,1506.3,1505.4,1505.9
201908220145,1505.9,1506.3,1505.8,1505.9
201908220146,1505.9,1506,1505.6,1505.7
201908220147,1505.7,1505.7,1505.3,1505.3
201908220148,1505.3,1505.4,1505.2,1505.3
201908220149,1505.2,1505.5,1505.2,1505.4
201908220150,1505.4,1505.4,1505.3,1505.3
201908220151,1505.3,1505.4,1505.1,1505.1
201908220152,1505.1,1505.2,1505.1,1505.2
201908220153,1505.2,1505.4,1505.2,1505.2
201908220154,1505.2,1505.3,1505.1,1505.1
201908220155,1505.1,1505.3,1505.1,1505.3
201908220156,1505.3,1505.6,1505.2,1505.5
201908220157,1505.5,1505.9,1505.5,1505.7
201908220158,1505.7,1505.9,1505.6,1505.9
201908220159,1505.9,1506,1505.8,1505.9
201908220200,1506,1506,1505.4,1505.6
201908220201,1505.6,1505.7,1505.3,1505.3
201908220202,1505.3,1505.7,1505.3,1505.7
201908220203,1505.7,1506,1505.7,1505.9
201908220204,1505.9,1506,1505.8,1506
201908220205,1505.9,1506.3,1505.9,1506.2
201908220206,1506.2,1506.3,1506,1506
201908220207,1506,1506.1,1505.7,1505.9
201908220208,1505.9,1506,1505.8,1505.8
201908220209,1505.8,1506,1505.8,1505.8
201908220210,1505.8,1506,1505.8,1506
201908220211,1506,1506,1505.7,1505.8
201908220212,1505.8,1505.8,1505.7,1505.7
201908220213,1505.7,1505.9,1505.7,1505.9
201908220214,1505.9,1505.9,1505.7,1505.7
201908220215,1505.7,1505.7,1505.6,1505.6
201908220216,1505.6,1506,1505.6,1506
201908220217,1506,1506.1,1505.9,1506
201908220218,1506,1506,1505.9,1505.9
201908220219,1505.9,1506,1505.9,1505.9
201908220220,1505.9,1506.4,1505.9,1506.2
201908220221,1506.2,1506.3,1506.1,1506.1
201908220222,1506.1,1506.1,1505.7,1505.9
201908220223,1505.9,1505.9,1505.8,1505.8
201908220224,1505.8,1506,1505.7,1505.9
201908220225,1505.9,1506,1505.9,1506
201908220226,1506,1506,1505.7,1505.7
201908220227,1505.7,1505.7,1505.5,1505.7
201908220228,1505.7,1505.7,1505.3,1505.3
201908220229,1505.3,1505.6,1505.3,1505.4
201908220230,1505.4,1505.5,1505.4,1505.5
201908220231,1505.5,1505.7,1505.4,1505.7
201908220232,1505.7,1505.7,1505.6,1505.6
201908220233,1505.6,1505.6,1505.3,1505.4
201908220234,1505.4,1505.5,1505.4,1505.4
201908220235,1505.4,1505.4,1505.4,1505.4
201908220236,1505.4,1505.4,1505.4,1505.4
201908220237,1505.4,1505.4,1505.2,1505.2
201908220238,1505.2,1505.2,1504.4,1504.6
201908220239,1504.5,1504.6,1504.3,1504.4
201908220240,1504.4,1504.6,1504,1504.1
201908220241,1504.1,1504.2,1503.7,1503.8
201908220242,1503.8,1503.8,1503,1503.6
201908220243,1503.6,1503.9,1503.6,1503.8
201908220244,1503.8,1503.9,1503.8,1503.9
201908220245,1503.9,1504,1503.7,1503.7
201908220246,1503.7,1504.1,1503.6,1504.1
201908220247,1504.1,1504.3,1504,1504
201908220248,1504,1504.1,1503.9,1504.1
201908220249,1504.1,1504.1,1503.9,1504.1
201908220250,1504.1,1504.3,1504,1504.2
201908220251,1504.2,1504.4,1504.2,1504.3
201908220252,1504.3,1504.4,1504.1,1504.2
201908220253,1504.2,1504.4,1504.1,1504.2
201908220254,1504.2,1504.2,1504.1,1504.1
201908220255,1504.2,1504.2,1504.1,1504.1
201908220256,1504.1,1504.4,1504.1,1504.2
201908220257,1504.2,1504.3,1504.2,1504.2
201908220258,1504.2,1504.2,1503.7,1503.8
201908220259,1503.8,1503.9,1503.2,1503.3
201908220300,1503.3,1504.5,1500.4,1502
201908220301,1501.9,1505.4,1501.8,1505.2
201908220302,1505.1,1506.2,1504.5,1505.7
201908220303,1505.6,1505.7,1503.8,1504.5
201908220304,1504.5,1504.8,1504.1,1504.4
201908220305,1504.4,1504.5,1503.9,1504.1
201908220306,1504.2,1505.8,1504.1,1505.1
201908220307,1505.1,1505.2,1504.7,1504.8
201908220308,1504.8,1504.9,1503.6,1503.9
201908220309,1503.9,1504.8,1503.8,1504.3
201908220310,1504.3,1504.6,1504.1,1504.3
201908220311,1504.3,1504.8,1504.2,1504.5
201908220312,1504.5,1504.9,1504.4,1504.8
201908220313,1504.9,1507.1,1504.8,1507
201908220314,1507.1,1507.1,1506.5,1506.9
201908220315,1506.9,1507,1506.2,1506.5
201908220316,1506.5,1507.3,1506.5,1507
201908220317,1507.2,1507.3,1506.1,1506.5
201908220318,1506.5,1506.7,1506.3,1506.7
201908220319,1506.7,1506.7,1505.9,1506
201908220320,1506,1506.3,1505.9,1506
201908220321,1506,1506.5,1505.9,1506.3
201908220322,1506.3,1506.5,1506.2,1506.3
201908220323,1506.3,1506.5,1506,1506
201908220324,1506,1506.1,1505.3,1505.7
201908220325,1505.7,1505.8,1505.3,1505.4
201908220326,1505.4,1505.5,1505.3,1505.4
201908220327,1505.4,1505.4,1504,1504.4
201908220328,1504.4,1504.6,1504,1504.2
201908220329,1504.2,1504.5,1504,1504.5
201908220330,1504.4,1504.5,1503.6,1504
201908220331,1504,1504.2,1503.9,1504
201908220332,1504.1,1504.4,1503.6,1503.7
201908220333,1503.7,1503.7,1503.4,1503.7
201908220334,1503.7,1503.8,1503.3,1503.7
201908220335,1503.7,1504.3,1503.6,1504.1
201908220336,1504.1,1505,1504.1,1505
201908220337,1505,1505,1504.3,1504.3
201908220338,1504.3,1504.5,1503.9,1504.4
201908220339,1504.4,1504.6,1503.8,1503.8
201908220340,1503.8,1504.4,1503.8,1504.4
201908220341,1504.4,1504.4,1503.7,1503.7
201908220342,1503.7,1503.9,1503.6,1503.6
201908220343,1503.6,1503.6,1502.8,1503.1
201908220344,1503.1,1503.7,1503,1503.6
201908220345,1503.6,1504,1503.3,1503.6
201908220346,1503.6,1504,1503.6,1503.8
201908220347,1503.8,1504.1,1503.5,1503.7
201908220348,1503.7,1504.2,1503.6,1504.2
201908220349,1504.2,1504.3,1504,1504.1
201908220350,1504.1,1504.5,1504.1,1504.2
201908220351,1504.2,1504.2,1503.8,1504.2
201908220352,1504.1,1504.1,1503.9,1503.9
201908220353,1503.9,1504.1,1503.8,1503.9
201908220354,1503.9,1504.2,1503.9,1504.2
201908220355,1504.2,1504.3,1504,1504.2
201908220356,1504.2,1504.2,1503.5,1503.5
201908220357,1503.5,1504.1,1503.5,1503.9
201908220358,1503.9,1504.3,1503.6,1503.6
201908220359,1503.6,1503.7,1503,1503.1
201908220400,1503,1503,1501.3,1501.3
201908220401,1501.3,1502.1,1501.3,1501.7
201908220402,1501.7,1502.1,1501.6,1501.9
201908220403,1501.9,1502.5,1501.9,1502
201908220404,1502,1502.3,1502,1502
201908220405,1502,1502.1,1501.5,1501.6
201908220406,1501.6,1501.9,1501.6,1501.7
201908220407,1501.7,1501.9,1501.6,1501.9
201908220408,1502,1502.2,1501.8,1501.8
201908220409,1501.8,1501.8,1501.1,1501.1
201908220410,1501.1,1501.5,1501.1,1501.5
201908220411,1501.5,1501.6,1500.8,1501
201908220412,1501,1501.3,1500.9,1501.2
201908220413,1501.2,1501.3,1501,1501
201908220414,1501,1501.1,1501,1501
201908220415,1501,1501,1500.8,1500.8
201908220416,1500.8,1500.9,1500.6,1500.9
201908220417,1500.9,1500.9,1500.1,1500.1
201908220418,1500,1500.2,1500,1500.1
201908220419,1500.1,1501.4,1500.1,1501.2
201908220420,1501.2,1501.5,1500.8,1501.4
201908220421,1501.4,1501.6,1501.4,1501.4
201908220422,1501.4,1501.7,1501.3,1501.4
201908220423,1501.4,1501.7,1501.4,1501.6
201908220424,1501.6,1501.8,1501.5,1501.7
201908220425,1501.7,1501.9,1501.7,1501.9
201908220426,1501.9,1502,1501.7,1501.7
201908220427,1501.7,1502,1501.7,1501.9
201908220428,1501.9,1502.1,1501.8,1501.9
201908220429,1501.9,1501.9,1501.7,1501.8
201908220430,1501.8,1503.3,1501.6,1502
201908220431,1502,1502.1,1501.7,1501.8
201908220432,1501.8,1501.8,1501.4,1501.6
201908220433,1501.6,1501.8,1501.4,1501.7
201908220434,1501.7,1501.8,1501.5,1501.7
201908220435,1501.7,1501.9,1501.4,1501.8
201908220436,1501.8,1502,1501.8,1501.9
201908220437,1501.9,1502,1501.8,1501.8
201908220438,1501.8,1502,1501.8,1501.9
201908220439,1501.9,1502,1501.7,1501.7
201908220440,1501.7,1501.8,1501.5,1501.5
201908220441,1501.5,1501.8,1501.5,1501.8
201908220442,1501.8,1501.9,1501.6,1501.8
201908220443,1501.7,1501.9,1501.6,1501.7
201908220444,1501.7,1501.8,1501.4,1501.4
201908220445,1501.4,1502.2,1501.4,1502
201908220446,1502,1502.1,1501.9,1502
201908220447,1502,1502.2,1501.8,1502.1
201908220448,1502.1,1502.2,1501.9,1501.9
201908220449,1501.9,1502.4,1501.9,1502.4
201908220450,1502.4,1502.5,1502.2,1502.4
201908220451,1502.4,1502.4,1502.3,1502.4
201908220452,1502.4,1502.4,1502.1,1502.1
201908220453,1502.1,1502.1,1502,1502.1
201908220454,1502.1,1502.3,1502,1502
201908220455,1502,1502.2,1501.8,1502
201908220456,1502,1502.4,1501.9,1502.4
201908220457,1502.4,1502.5,1502.3,1502.5
201908220458,1502.5,1502.7,1502.2,1502.4
201908220459,1502.4,1503.1,1502.3,1502.9
201908220500,1502.8,1502.8,1502.3,1502.3
201908220501,1502.3,1502.4,1502.1,1502.1
201908220502,1502.1,1502.1,1502.1,1502.1
201908220503,1502.1,1502.1,1501.8,1501.8
201908220504,1501.8,1502,1501.8,1502
201908220505,1502,1502,1501.9,1501.9
201908220506,1501.9,1502,1501.9,1502
201908220507,1502,1502.2,1502,1502.2
201908220508,1502.2,1502.3,1502.1,1502.1
201908220509,1502.1,1502.2,1501.9,1501.9
201908220510,1501.9,1502.3,1501.8,1502.3
201908220511,1502.3,1502.4,1502.2,1502.4
201908220512,1502.4,1502.4,1502.3,1502.4
201908220513,1502.4,1502.4,1502.3,1502.4
201908220514,1502.4,1502.5,1502.4,1502.4
201908220515,1502.4,1502.4,1502.3,1502.4
201908220516,1502.4,1502.4,1502.3,1502.3
201908220517,1502.3,1502.3,1502.2,1502.2
201908220518,1502.2,1502.2,1502.2,1502.2
201908220519,1502.2,1502.3,1502.2,1502.3
201908220520,1502.3,1502.4,1502.3,1502.3
201908220521,1502.3,1502.5,1502.3,1502.5
201908220522,1502.5,1502.5,1502.4,1502.4
201908220523,1502.4,1502.4,1502.2,1502.2
201908220524,1502.2,1502.2,1502.2,1502.2
201908220525,1502.2,1502.4,1502.2,1502.3
201908220526,1502.3,1502.4,1502.2,1502.4
201908220527,1502.4,1502.4,1502.2,1502.2
201908220528,1502.2,1502.3,1502.1,1502.2
201908220529,1502.2,1502.3,1502.2,1502.2
201908220530,1502.2,1502.2,1502.1,1502.2
201908220531,1502.2,1502.2,1502.1,1502.1
201908220532,1502.1,1502.2,1502.1,1502.2
201908220533,1502.2,1502.2,1502.2,1502.2
201908220534,1502.2,1502.2,1502.1,1502.1
201908220535,1502.1,1502.2,1502.1,1502.1
201908220536,1502.1,1502.1,1501.8,1501.8
201908220537,1501.8,1501.9,1501.8,1501.8
201908220538,1501.8,1502,1501.8,1501.9
201908220539,1501.9,1502.2,1501.8,1502
201908220540,1502,1502.1,1501.9,1502
201908220541,1502,1502,1501.9,1502
201908220542,1502,1502,1501.8,1501.8
201908220543,1501.8,1502,1501.8,1502
201908220544,1502,1502,1501.9,1502
201908220545,1502,1502,1501.9,1502
201908220546,1502,1502.1,1501.9,1502
201908220547,1502,1502,1501.9,1502
201908220548,1502,1502.3,1502,1502.3
201908220549,1502.3,1502.3,1502.3,1502.3
201908220550,1502.3,1502.3,1502.3,1502.3
201908220551,1502.3,1502.3,1502.3,1502.3
201908220552,1502.3,1502.3,1502.2,1502.2
201908220553,1502.2,1502.3,1502.2,1502.3
201908220554,1502.3,1502.3,1502.3,1502.3
201908220555,1502.3,1502.4,1502.2,1502.4
201908220556,1502.4,1502.5,1502.3,1502.4
201908220557,1502.4,1502.4,1502.2,1502.3
201908220558,1502.3,1502.3,1502.3,1502.3
201908220559,1502.3,1502.5,1502.3,1502.4
