日時,始値(BID),高値(BID),安値(BID),終値(BID)
201912200800,17.053,17.058,17.053,17.057
201912200801,17.059,17.059,17.059,17.059
201912200802,17.059,17.062,17.059,17.06
201912200803,17.061,17.061,17.059,17.059
201912200804,17.059,17.06,17.059,17.06
201912200805,17.06,17.064,17.059,17.064
201912200806,17.064,17.064,17.058,17.059
201912200807,17.059,17.06,17.057,17.057
201912200808,17.057,17.058,17.055,17.055
201912200809,17.055,17.055,17.054,17.054
201912200810,17.054,17.054,17.053,17.054
201912200811,17.054,17.054,17.049,17.052
201912200812,17.052,17.054,17.051,17.053
201912200813,17.053,17.055,17.053,17.055
201912200814,17.055,17.055,17.054,17.055
201912200815,17.055,17.055,17.053,17.053
201912200816,17.053,17.054,17.051,17.053
201912200817,17.053,17.054,17.049,17.049
201912200818,17.049,17.051,17.049,17.051
201912200819,17.051,17.051,17.051,17.051
201912200820,17.051,17.054,17.051,17.053
201912200821,17.053,17.053,17.049,17.051
201912200822,17.051,17.051,17.048,17.049
201912200823,17.049,17.05,17.048,17.049
201912200824,17.049,17.05,17.048,17.05
201912200825,17.05,17.05,17.048,17.049
201912200826,17.049,17.05,17.049,17.049
201912200827,17.049,17.05,17.049,17.049
201912200828,17.049,17.05,17.048,17.049
201912200829,17.049,17.053,17.049,17.051
201912200830,17.051,17.051,17.046,17.046
201912200831,17.046,17.047,17.045,17.047
201912200832,17.048,17.048,17.046,17.046
201912200833,17.046,17.046,17.044,17.044
201912200834,17.044,17.044,17.044,17.044
201912200835,17.044,17.049,17.044,17.046
201912200836,17.046,17.049,17.046,17.049
201912200837,17.049,17.049,17.049,17.049
201912200838,17.049,17.049,17.049,17.049
201912200839,17.049,17.049,17.047,17.049
201912200840,17.049,17.05,17.045,17.05
201912200841,17.049,17.049,17.048,17.049
201912200842,17.049,17.049,17.049,17.049
201912200843,17.049,17.05,17.049,17.049
201912200844,17.049,17.05,17.049,17.049
201912200845,17.049,17.05,17.049,17.049
201912200846,17.049,17.05,17.049,17.049
201912200847,17.049,17.049,17.048,17.049
201912200848,17.049,17.049,17.049,17.049
201912200849,17.049,17.049,17.049,17.049
201912200850,17.049,17.049,17.046,17.046
201912200851,17.046,17.047,17.046,17.047
201912200852,17.047,17.049,17.046,17.046
201912200853,17.046,17.046,17.046,17.046
201912200854,17.046,17.046,17.046,17.046
201912200855,17.046,17.05,17.046,17.05
201912200856,17.05,17.05,17.049,17.049
201912200857,17.049,17.049,17.049,17.049
201912200858,17.049,17.05,17.049,17.049
201912200859,17.049,17.049,17.049,17.049
201912200900,17.049,17.054,17.046,17.053
201912200901,17.053,17.053,17.05,17.05
201912200902,17.05,17.055,17.05,17.055
201912200903,17.055,17.058,17.055,17.055
201912200904,17.055,17.058,17.055,17.055
201912200905,17.055,17.055,17.053,17.054
201912200906,17.054,17.054,17.053,17.053
201912200907,17.053,17.054,17.053,17.054
201912200908,17.054,17.056,17.054,17.056
201912200909,17.056,17.058,17.055,17.058
201912200910,17.058,17.058,17.056,17.058
201912200911,17.058,17.058,17.057,17.058
201912200912,17.058,17.058,17.055,17.055
201912200913,17.055,17.058,17.055,17.058
201912200914,17.057,17.059,17.056,17.057
201912200915,17.057,17.058,17.055,17.055
201912200916,17.058,17.058,17.056,17.058
201912200917,17.058,17.058,17.055,17.056
201912200918,17.056,17.058,17.055,17.058
201912200919,17.058,17.058,17.056,17.058
201912200920,17.058,17.058,17.056,17.058
201912200921,17.058,17.063,17.058,17.063
201912200922,17.064,17.066,17.064,17.065
201912200923,17.065,17.065,17.064,17.064
201912200924,17.064,17.064,17.059,17.059
201912200925,17.059,17.06,17.059,17.059
201912200926,17.06,17.06,17.059,17.06
201912200927,17.06,17.06,17.059,17.06
201912200928,17.06,17.06,17.058,17.058
201912200929,17.058,17.061,17.058,17.061
201912200930,17.061,17.064,17.061,17.064
201912200931,17.064,17.064,17.063,17.063
201912200932,17.063,17.064,17.061,17.063
201912200933,17.063,17.063,17.063,17.063
201912200934,17.063,17.063,17.061,17.063
201912200935,17.063,17.064,17.062,17.064
201912200936,17.064,17.064,17.064,17.064
201912200937,17.064,17.068,17.064,17.068
201912200938,17.068,17.069,17.068,17.068
201912200939,17.068,17.07,17.068,17.07
201912200940,17.07,17.072,17.07,17.07
201912200941,17.07,17.07,17.069,17.069
201912200942,17.07,17.07,17.064,17.064
201912200943,17.064,17.064,17.059,17.06
201912200944,17.06,17.062,17.06,17.06
201912200945,17.06,17.06,17.06,17.06
201912200946,17.06,17.06,17.06,17.06
201912200947,17.06,17.064,17.06,17.064
201912200948,17.064,17.064,17.063,17.064
201912200949,17.064,17.064,17.061,17.062
201912200950,17.062,17.062,17.06,17.06
201912200951,17.06,17.064,17.06,17.063
201912200952,17.063,17.063,17.059,17.059
201912200953,17.059,17.059,17.059,17.059
201912200954,17.059,17.061,17.059,17.061
201912200955,17.061,17.064,17.061,17.064
201912200956,17.064,17.064,17.063,17.063
201912200957,17.063,17.066,17.063,17.065
201912200958,17.065,17.065,17.063,17.064
201912200959,17.064,17.064,17.059,17.059
201912201000,17.059,17.068,17.058,17.06
201912201001,17.062,17.066,17.06,17.06
201912201002,17.06,17.062,17.054,17.055
201912201003,17.055,17.058,17.054,17.058
201912201004,17.058,17.059,17.058,17.058
201912201005,17.058,17.058,17.058,17.058
201912201006,17.058,17.059,17.055,17.059
201912201007,17.059,17.059,17.057,17.058
201912201008,17.058,17.059,17.058,17.058
201912201009,17.058,17.061,17.058,17.06
201912201010,17.061,17.061,17.057,17.058
201912201011,17.058,17.058,17.054,17.055
201912201012,17.055,17.058,17.054,17.055
201912201013,17.055,17.055,17.051,17.052
201912201014,17.052,17.052,17.05,17.05
201912201015,17.051,17.051,17.045,17.048
201912201016,17.048,17.048,17.045,17.045
201912201017,17.045,17.051,17.044,17.051
201912201018,17.05,17.051,17.047,17.05
201912201019,17.05,17.053,17.05,17.053
201912201020,17.053,17.058,17.053,17.054
201912201021,17.054,17.058,17.053,17.058
201912201022,17.058,17.062,17.047,17.047
201912201023,17.047,17.049,17.036,17.036
201912201024,17.036,17.039,17.035,17.035
201912201025,17.035,17.035,17.03,17.031
201912201026,17.031,17.032,17.028,17.031
201912201027,17.031,17.033,17.027,17.032
201912201028,17.032,17.032,17.027,17.027
201912201029,17.027,17.031,17.027,17.03
201912201030,17.03,17.031,17.026,17.028
201912201031,17.028,17.029,17.025,17.028
201912201032,17.029,17.033,17.028,17.029
201912201033,17.029,17.035,17.029,17.034
201912201034,17.034,17.034,17.031,17.033
201912201035,17.033,17.034,17.031,17.034
201912201036,17.034,17.034,17.033,17.034
201912201037,17.034,17.037,17.034,17.036
201912201038,17.036,17.036,17.034,17.036
201912201039,17.036,17.036,17.035,17.036
201912201040,17.036,17.038,17.034,17.038
201912201041,17.038,17.038,17.034,17.035
201912201042,17.035,17.038,17.035,17.038
201912201043,17.038,17.043,17.038,17.04
201912201044,17.04,17.043,17.04,17.041
201912201045,17.041,17.043,17.039,17.043
201912201046,17.043,17.044,17.04,17.043
201912201047,17.043,17.044,17.04,17.043
201912201048,17.041,17.044,17.038,17.038
201912201049,17.038,17.04,17.038,17.04
201912201050,17.041,17.043,17.04,17.041
201912201051,17.041,17.041,17.039,17.04
201912201052,17.04,17.04,17.037,17.039
201912201053,17.039,17.039,17.035,17.035
201912201054,17.035,17.039,17.034,17.039
201912201055,17.039,17.041,17.038,17.041
201912201056,17.041,17.043,17.04,17.042
201912201057,17.043,17.044,17.04,17.044
201912201058,17.044,17.044,17.042,17.044
201912201059,17.044,17.044,17.041,17.044
201912201100,17.044,17.044,17.042,17.043
201912201101,17.043,17.044,17.042,17.042
201912201102,17.042,17.044,17.04,17.044
201912201103,17.044,17.047,17.044,17.045
201912201104,17.045,17.046,17.041,17.044
201912201105,17.044,17.044,17.041,17.041
201912201106,17.041,17.041,17.039,17.039
201912201107,17.039,17.04,17.039,17.039
201912201108,17.04,17.04,17.04,17.04
201912201109,17.04,17.04,17.038,17.039
201912201110,17.039,17.04,17.038,17.04
201912201111,17.04,17.04,17.04,17.04
201912201112,17.04,17.045,17.039,17.045
201912201113,17.045,17.045,17.044,17.044
201912201114,17.046,17.046,17.042,17.042
201912201115,17.042,17.044,17.042,17.044
201912201116,17.044,17.045,17.044,17.045
201912201117,17.045,17.046,17.045,17.046
201912201118,17.046,17.047,17.045,17.047
201912201119,17.047,17.05,17.045,17.05
201912201120,17.05,17.05,17.048,17.05
201912201121,17.05,17.05,17.048,17.048
201912201122,17.048,17.048,17.046,17.048
201912201123,17.048,17.048,17.047,17.048
201912201124,17.048,17.048,17.048,17.048
201912201125,17.048,17.048,17.048,17.048
201912201126,17.048,17.05,17.048,17.05
201912201127,17.05,17.05,17.048,17.049
201912201128,17.049,17.05,17.049,17.05
201912201129,17.05,17.05,17.047,17.048
201912201130,17.048,17.048,17.045,17.045
201912201131,17.045,17.046,17.045,17.045
201912201132,17.045,17.048,17.045,17.048
201912201133,17.046,17.048,17.045,17.046
201912201134,17.046,17.047,17.041,17.041
201912201135,17.041,17.042,17.04,17.04
201912201136,17.04,17.041,17.04,17.041
201912201137,17.041,17.043,17.041,17.042
201912201138,17.042,17.042,17.038,17.039
201912201139,17.039,17.04,17.039,17.039
201912201140,17.04,17.04,17.04,17.04
201912201141,17.04,17.04,17.039,17.04
201912201142,17.04,17.042,17.04,17.042
201912201143,17.042,17.042,17.04,17.04
201912201144,17.04,17.04,17.04,17.04
201912201145,17.04,17.04,17.031,17.031
201912201146,17.031,17.032,17.03,17.03
201912201147,17.03,17.033,17.03,17.031
201912201148,17.031,17.032,17.03,17.031
201912201149,17.031,17.033,17.03,17.031
201912201150,17.031,17.033,17.029,17.029
201912201151,17.029,17.03,17.027,17.027
201912201152,17.027,17.028,17.025,17.025
201912201153,17.025,17.027,17.025,17.026
201912201154,17.026,17.027,17.023,17.026
201912201155,17.026,17.028,17.026,17.027
201912201156,17.026,17.029,17.026,17.029
201912201157,17.029,17.029,17.027,17.029
201912201158,17.029,17.032,17.028,17.03
201912201159,17.03,17.033,17.029,17.03
201912201200,17.03,17.031,17.03,17.031
201912201201,17.031,17.031,17.03,17.03
201912201202,17.03,17.035,17.03,17.032
201912201203,17.032,17.033,17.031,17.033
201912201204,17.033,17.036,17.033,17.036
201912201205,17.036,17.036,17.033,17.034
201912201206,17.034,17.034,17.032,17.033
201912201207,17.034,17.034,17.033,17.033
201912201208,17.033,17.035,17.032,17.035
201912201209,17.036,17.037,17.035,17.037
201912201210,17.037,17.038,17.036,17.037
201912201211,17.037,17.037,17.034,17.035
201912201212,17.035,17.035,17.031,17.031
201912201213,17.031,17.032,17.03,17.031
201912201214,17.031,17.033,17.03,17.033
201912201215,17.033,17.035,17.033,17.035
201912201216,17.035,17.035,17.034,17.035
201912201217,17.035,17.035,17.034,17.034
201912201218,17.034,17.035,17.032,17.033
201912201219,17.033,17.033,17.032,17.032
201912201220,17.032,17.033,17.031,17.031
201912201221,17.031,17.033,17.031,17.032
201912201222,17.032,17.032,17.032,17.032
201912201223,17.032,17.033,17.03,17.032
201912201224,17.032,17.032,17.03,17.032
201912201225,17.032,17.033,17.032,17.033
201912201226,17.035,17.035,17.034,17.035
201912201227,17.035,17.035,17.035,17.035
201912201228,17.035,17.036,17.035,17.036
201912201229,17.036,17.038,17.035,17.038
201912201230,17.038,17.039,17.036,17.038
201912201231,17.038,17.04,17.038,17.04
201912201232,17.04,17.04,17.038,17.038
201912201233,17.038,17.039,17.037,17.038
201912201234,17.038,17.039,17.038,17.038
201912201235,17.038,17.039,17.038,17.039
201912201236,17.039,17.039,17.038,17.039
201912201237,17.039,17.04,17.039,17.04
201912201238,17.04,17.04,17.039,17.04
201912201239,17.04,17.04,17.039,17.039
201912201240,17.039,17.04,17.039,17.04
201912201241,17.04,17.041,17.04,17.04
201912201242,17.04,17.041,17.04,17.041
201912201243,17.041,17.041,17.04,17.041
201912201244,17.041,17.041,17.04,17.041
201912201245,17.041,17.041,17.041,17.041
201912201246,17.041,17.045,17.041,17.045
201912201247,17.045,17.045,17.043,17.045
201912201248,17.044,17.045,17.043,17.045
201912201249,17.045,17.045,17.045,17.045
201912201250,17.045,17.045,17.043,17.043
201912201251,17.043,17.045,17.043,17.044
201912201252,17.044,17.044,17.043,17.043
201912201253,17.043,17.046,17.043,17.045
201912201254,17.045,17.046,17.045,17.045
201912201255,17.045,17.045,17.045,17.045
201912201256,17.045,17.045,17.045,17.045
201912201257,17.045,17.046,17.045,17.045
201912201258,17.045,17.046,17.045,17.045
201912201259,17.045,17.046,17.045,17.046
201912201300,17.046,17.047,17.046,17.047
201912201301,17.047,17.047,17.046,17.046
201912201302,17.046,17.046,17.045,17.046
201912201303,17.046,17.046,17.046,17.046
201912201304,17.046,17.046,17.046,17.046
201912201305,17.046,17.048,17.043,17.043
201912201306,17.043,17.044,17.043,17.044
201912201307,17.044,17.045,17.043,17.045
201912201308,17.045,17.045,17.045,17.045
201912201309,17.045,17.045,17.045,17.045
201912201310,17.045,17.046,17.045,17.046
201912201311,17.046,17.046,17.045,17.046
201912201312,17.046,17.046,17.046,17.046
201912201313,17.046,17.046,17.045,17.045
201912201314,17.045,17.046,17.045,17.045
201912201315,17.045,17.046,17.045,17.046
201912201316,17.046,17.047,17.045,17.046
201912201317,17.046,17.047,17.046,17.047
201912201318,17.047,17.047,17.045,17.046
201912201319,17.046,17.046,17.045,17.045
201912201320,17.045,17.046,17.045,17.045
201912201321,17.045,17.046,17.045,17.045
201912201322,17.045,17.047,17.045,17.046
201912201323,17.046,17.046,17.046,17.046
201912201324,17.046,17.046,17.046,17.046
201912201325,17.046,17.048,17.046,17.047
201912201326,17.047,17.05,17.047,17.049
201912201327,17.049,17.05,17.048,17.049
201912201328,17.049,17.049,17.047,17.049
201912201329,17.049,17.05,17.047,17.049
201912201330,17.049,17.052,17.048,17.05
201912201331,17.05,17.052,17.047,17.05
201912201332,17.05,17.053,17.05,17.053
201912201333,17.053,17.053,17.05,17.051
201912201334,17.052,17.054,17.051,17.054
201912201335,17.054,17.054,17.053,17.054
201912201336,17.054,17.054,17.052,17.054
201912201337,17.054,17.055,17.053,17.055
201912201338,17.055,17.056,17.054,17.055
201912201339,17.053,17.056,17.053,17.055
201912201340,17.055,17.055,17.052,17.055
201912201341,17.055,17.056,17.054,17.055
201912201342,17.055,17.056,17.054,17.055
201912201343,17.055,17.056,17.053,17.053
201912201344,17.053,17.054,17.053,17.053
201912201345,17.053,17.054,17.053,17.054
201912201346,17.054,17.054,17.054,17.054
201912201347,17.054,17.054,17.05,17.053
201912201348,17.053,17.053,17.051,17.052
201912201349,17.052,17.054,17.051,17.053
201912201350,17.053,17.054,17.052,17.054
201912201351,17.054,17.055,17.052,17.053
201912201352,17.053,17.055,17.051,17.052
201912201353,17.053,17.053,17.05,17.051
201912201354,17.051,17.052,17.05,17.052
201912201355,17.052,17.053,17.05,17.051
201912201356,17.051,17.052,17.05,17.052
201912201357,17.052,17.052,17.05,17.051
201912201358,17.051,17.051,17.05,17.051
201912201359,17.051,17.052,17.05,17.051
201912201400,17.051,17.053,17.051,17.052
201912201401,17.052,17.052,17.051,17.052
201912201402,17.052,17.053,17.05,17.05
201912201403,17.05,17.052,17.048,17.051
201912201404,17.051,17.053,17.051,17.052
201912201405,17.052,17.055,17.052,17.054
201912201406,17.054,17.056,17.054,17.054
201912201407,17.055,17.057,17.055,17.057
201912201408,17.057,17.058,17.056,17.056
201912201409,17.056,17.058,17.056,17.057
201912201410,17.057,17.06,17.057,17.058
201912201411,17.058,17.061,17.058,17.06
201912201412,17.06,17.06,17.058,17.058
201912201413,17.058,17.061,17.058,17.061
201912201414,17.061,17.061,17.06,17.06
201912201415,17.06,17.062,17.06,17.061
201912201416,17.061,17.062,17.061,17.062
201912201417,17.062,17.063,17.06,17.063
201912201418,17.063,17.063,17.061,17.062
201912201419,17.062,17.062,17.061,17.061
201912201420,17.061,17.061,17.056,17.056
201912201421,17.054,17.055,17.052,17.055
201912201422,17.055,17.056,17.054,17.056
201912201423,17.056,17.056,17.054,17.055
201912201424,17.055,17.055,17.054,17.055
201912201425,17.055,17.055,17.054,17.055
201912201426,17.055,17.057,17.055,17.055
201912201427,17.055,17.056,17.055,17.055
201912201428,17.055,17.056,17.055,17.055
201912201429,17.055,17.058,17.055,17.058
201912201430,17.058,17.058,17.053,17.055
201912201431,17.055,17.057,17.055,17.055
201912201432,17.055,17.057,17.055,17.056
201912201433,17.056,17.058,17.053,17.057
201912201434,17.057,17.06,17.056,17.058
201912201435,17.058,17.059,17.054,17.054
201912201436,17.054,17.054,17.051,17.052
201912201437,17.052,17.055,17.052,17.054
201912201438,17.054,17.061,17.054,17.061
201912201439,17.061,17.061,17.06,17.061
201912201440,17.061,17.063,17.058,17.058
201912201441,17.058,17.06,17.055,17.055
201912201442,17.055,17.056,17.055,17.055
201912201443,17.055,17.057,17.055,17.055
201912201444,17.055,17.058,17.055,17.056
201912201445,17.056,17.058,17.056,17.057
201912201446,17.057,17.057,17.055,17.057
201912201447,17.057,17.058,17.057,17.057
201912201448,17.057,17.06,17.057,17.057
201912201449,17.057,17.06,17.057,17.057
201912201450,17.057,17.059,17.057,17.057
201912201451,17.057,17.059,17.057,17.058
201912201452,17.059,17.059,17.057,17.057
201912201453,17.057,17.062,17.057,17.062
201912201454,17.062,17.064,17.062,17.064
201912201455,17.063,17.064,17.063,17.063
201912201456,17.063,17.069,17.063,17.068
201912201457,17.068,17.07,17.068,17.069
201912201458,17.069,17.079,17.069,17.077
201912201459,17.077,17.077,17.074,17.076
201912201500,17.076,17.079,17.074,17.077
201912201501,17.077,17.1,17.077,17.098
201912201502,17.099,17.104,17.095,17.096
201912201503,17.096,17.112,17.096,17.108
201912201504,17.108,17.108,17.099,17.102
201912201505,17.103,17.105,17.097,17.1
201912201506,17.1,17.1,17.093,17.095
201912201507,17.095,17.097,17.09,17.096
201912201508,17.096,17.1,17.091,17.091
201912201509,17.091,17.091,17.09,17.09
201912201510,17.09,17.09,17.08,17.085
201912201511,17.086,17.086,17.081,17.083
201912201512,17.083,17.086,17.081,17.081
201912201513,17.081,17.085,17.081,17.083
201912201514,17.083,17.083,17.081,17.082
201912201515,17.082,17.085,17.081,17.082
201912201516,17.082,17.082,17.075,17.076
201912201517,17.076,17.076,17.076,17.076
201912201518,17.076,17.077,17.076,17.076
201912201519,17.076,17.076,17.073,17.074
201912201520,17.074,17.075,17.072,17.073
201912201521,17.073,17.083,17.072,17.083
201912201522,17.083,17.083,17.066,17.066
201912201523,17.066,17.072,17.066,17.071
201912201524,17.072,17.073,17.069,17.072
201912201525,17.072,17.079,17.072,17.078
201912201526,17.078,17.078,17.073,17.073
201912201527,17.073,17.075,17.07,17.073
201912201528,17.073,17.074,17.07,17.07
201912201529,17.07,17.072,17.07,17.07
201912201530,17.071,17.074,17.071,17.073
201912201531,17.073,17.074,17.067,17.067
201912201532,17.067,17.068,17.066,17.067
201912201533,17.067,17.07,17.067,17.068
201912201534,17.068,17.072,17.068,17.072
201912201535,17.071,17.071,17.065,17.065
201912201536,17.065,17.066,17.063,17.064
201912201537,17.064,17.065,17.057,17.061
201912201538,17.061,17.061,17.059,17.06
201912201539,17.061,17.064,17.06,17.061
201912201540,17.06,17.065,17.06,17.065
201912201541,17.065,17.07,17.064,17.07
201912201542,17.07,17.07,17.059,17.06
201912201543,17.06,17.064,17.06,17.064
201912201544,17.063,17.065,17.061,17.063
201912201545,17.063,17.063,17.061,17.061
201912201546,17.061,17.062,17.06,17.06
201912201547,17.06,17.066,17.06,17.065
201912201548,17.065,17.067,17.065,17.066
201912201549,17.066,17.066,17.064,17.066
201912201550,17.066,17.066,17.063,17.063
201912201551,17.063,17.063,17.06,17.061
201912201552,17.061,17.063,17.06,17.063
201912201553,17.063,17.065,17.062,17.065
201912201554,17.065,17.067,17.065,17.067
201912201555,17.067,17.067,17.062,17.064
201912201556,17.064,17.064,17.062,17.064
201912201557,17.065,17.07,17.065,17.07
201912201558,17.07,17.071,17.068,17.069
201912201559,17.069,17.07,17.068,17.068
201912201600,17.068,17.068,17.066,17.066
201912201601,17.067,17.071,17.067,17.069
201912201602,17.069,17.07,17.069,17.069
201912201603,17.069,17.074,17.069,17.074
201912201604,17.074,17.08,17.074,17.08
201912201605,17.08,17.081,17.079,17.08
201912201606,17.08,17.08,17.076,17.076
201912201607,17.076,17.076,17.074,17.075
201912201608,17.074,17.075,17.074,17.075
201912201609,17.075,17.078,17.074,17.078
201912201610,17.078,17.08,17.078,17.078
201912201611,17.078,17.08,17.072,17.072
201912201612,17.072,17.072,17.069,17.071
201912201613,17.071,17.072,17.071,17.072
201912201614,17.072,17.072,17.068,17.069
201912201615,17.069,17.07,17.067,17.067
201912201616,17.067,17.068,17.064,17.066
201912201617,17.066,17.068,17.064,17.068
201912201618,17.068,17.068,17.065,17.067
201912201619,17.067,17.067,17.064,17.065
201912201620,17.065,17.065,17.061,17.061
201912201621,17.061,17.067,17.06,17.064
201912201622,17.064,17.064,17.063,17.063
201912201623,17.063,17.068,17.063,17.067
201912201624,17.067,17.068,17.065,17.065
201912201625,17.065,17.066,17.064,17.066
201912201626,17.066,17.066,17.064,17.065
201912201627,17.065,17.066,17.065,17.066
201912201628,17.066,17.066,17.064,17.064
201912201629,17.064,17.065,17.063,17.064
201912201630,17.064,17.065,17.062,17.064
201912201631,17.064,17.065,17.061,17.061
201912201632,17.061,17.062,17.061,17.062
201912201633,17.062,17.065,17.062,17.065
201912201634,17.065,17.067,17.065,17.066
201912201635,17.066,17.07,17.066,17.066
201912201636,17.066,17.066,17.063,17.063
201912201637,17.063,17.063,17.063,17.063
201912201638,17.063,17.063,17.063,17.063
201912201639,17.063,17.065,17.063,17.065
201912201640,17.065,17.067,17.064,17.067
201912201641,17.067,17.067,17.066,17.066
201912201642,17.066,17.069,17.066,17.067
201912201643,17.067,17.072,17.067,17.071
201912201644,17.071,17.077,17.071,17.075
201912201645,17.075,17.077,17.074,17.074
201912201646,17.073,17.076,17.073,17.075
201912201647,17.075,17.078,17.074,17.078
201912201648,17.078,17.078,17.074,17.075
201912201649,17.075,17.077,17.073,17.073
201912201650,17.073,17.075,17.073,17.073
201912201651,17.073,17.076,17.073,17.075
201912201652,17.075,17.076,17.074,17.074
201912201653,17.074,17.075,17.073,17.074
201912201654,17.074,17.077,17.073,17.073
201912201655,17.073,17.076,17.06,17.065
201912201656,17.065,17.066,17.064,17.064
201912201657,17.064,17.066,17.06,17.061
201912201658,17.061,17.062,17.059,17.059
201912201659,17.059,17.059,17.055,17.059
201912201700,17.059,17.065,17.057,17.064
201912201701,17.064,17.065,17.06,17.062
201912201702,17.061,17.063,17.055,17.059
201912201703,17.059,17.06,17.055,17.059
201912201704,17.059,17.061,17.055,17.059
201912201705,17.059,17.063,17.058,17.062
201912201706,17.062,17.065,17.062,17.063
201912201707,17.063,17.064,17.06,17.06
201912201708,17.06,17.065,17.058,17.063
201912201709,17.064,17.066,17.062,17.064
201912201710,17.064,17.064,17.055,17.056
201912201711,17.055,17.059,17.055,17.056
201912201712,17.056,17.059,17.055,17.058
201912201713,17.058,17.059,17.056,17.057
201912201714,17.057,17.057,17.049,17.049
201912201715,17.049,17.05,17.045,17.048
201912201716,17.048,17.057,17.047,17.057
201912201717,17.057,17.061,17.057,17.06
201912201718,17.06,17.063,17.06,17.061
201912201719,17.061,17.062,17.056,17.059
201912201720,17.059,17.06,17.057,17.057
201912201721,17.057,17.057,17.054,17.054
201912201722,17.054,17.057,17.054,17.057
201912201723,17.057,17.057,17.054,17.054
201912201724,17.057,17.057,17.054,17.055
201912201725,17.054,17.059,17.052,17.057
201912201726,17.057,17.057,17.052,17.056
201912201727,17.057,17.061,17.055,17.061
201912201728,17.062,17.062,17.059,17.06
201912201729,17.06,17.06,17.054,17.058
201912201730,17.058,17.059,17.055,17.055
201912201731,17.055,17.059,17.055,17.057
201912201732,17.057,17.057,17.052,17.053
201912201733,17.053,17.054,17.052,17.053
201912201734,17.053,17.053,17.05,17.05
201912201735,17.05,17.05,17.045,17.046
201912201736,17.046,17.047,17.045,17.046
201912201737,17.046,17.046,17.042,17.044
201912201738,17.044,17.044,17.035,17.035
201912201739,17.035,17.041,17.031,17.04
201912201740,17.04,17.041,17.038,17.039
201912201741,17.039,17.041,17.039,17.041
201912201742,17.041,17.045,17.04,17.044
201912201743,17.044,17.047,17.044,17.047
201912201744,17.047,17.047,17.045,17.047
201912201745,17.047,17.047,17.041,17.046
201912201746,17.046,17.047,17.044,17.046
201912201747,17.046,17.049,17.045,17.049
201912201748,17.049,17.051,17.046,17.051
201912201749,17.051,17.053,17.048,17.048
201912201750,17.048,17.049,17.045,17.047
201912201751,17.047,17.048,17.046,17.047
201912201752,17.046,17.053,17.046,17.052
201912201753,17.051,17.052,17.05,17.051
201912201754,17.051,17.052,17.05,17.05
201912201755,17.051,17.053,17.05,17.053
201912201756,17.053,17.053,17.05,17.051
201912201757,17.051,17.053,17.05,17.053
201912201758,17.053,17.053,17.049,17.051
201912201759,17.051,17.053,17.05,17.052
201912201800,17.052,17.052,17.05,17.05
201912201801,17.05,17.052,17.048,17.049
201912201802,17.048,17.049,17.047,17.048
201912201803,17.048,17.049,17.045,17.045
201912201804,17.045,17.047,17.044,17.045
201912201805,17.047,17.048,17.044,17.045
201912201806,17.045,17.048,17.045,17.045
201912201807,17.045,17.048,17.044,17.046
201912201808,17.046,17.048,17.045,17.045
201912201809,17.045,17.046,17.045,17.045
201912201810,17.045,17.045,17.044,17.045
201912201811,17.045,17.046,17.045,17.045
201912201812,17.045,17.05,17.045,17.05
201912201813,17.05,17.05,17.049,17.05
201912201814,17.05,17.05,17.049,17.049
201912201815,17.049,17.05,17.048,17.049
201912201816,17.049,17.049,17.044,17.045
201912201817,17.045,17.048,17.045,17.046
201912201818,17.046,17.05,17.046,17.049
201912201819,17.049,17.052,17.047,17.052
201912201820,17.052,17.053,17.051,17.052
201912201821,17.052,17.053,17.051,17.052
201912201822,17.052,17.052,17.052,17.052
201912201823,17.052,17.052,17.052,17.052
201912201824,17.052,17.052,17.052,17.052
201912201825,17.052,17.052,17.051,17.052
201912201826,17.052,17.052,17.052,17.052
201912201827,17.052,17.052,17.052,17.052
201912201828,17.052,17.052,17.05,17.051
201912201829,17.051,17.052,17.049,17.051
201912201830,17.051,17.052,17.048,17.052
201912201831,17.052,17.052,17.047,17.048
201912201832,17.048,17.052,17.047,17.052
201912201833,17.052,17.052,17.051,17.051
201912201834,17.051,17.052,17.051,17.051
201912201835,17.051,17.059,17.051,17.057
201912201836,17.057,17.057,17.056,17.057
201912201837,17.057,17.057,17.056,17.057
201912201838,17.057,17.059,17.056,17.058
201912201839,17.059,17.059,17.056,17.057
201912201840,17.057,17.057,17.056,17.057
201912201841,17.056,17.057,17.056,17.057
201912201842,17.057,17.057,17.055,17.055
201912201843,17.055,17.057,17.055,17.056
201912201844,17.056,17.057,17.056,17.056
201912201845,17.056,17.056,17.053,17.053
201912201846,17.054,17.057,17.054,17.056
201912201847,17.056,17.058,17.056,17.057
201912201848,17.057,17.058,17.056,17.057
201912201849,17.057,17.057,17.052,17.052
201912201850,17.052,17.052,17.052,17.052
201912201851,17.052,17.056,17.052,17.054
201912201852,17.054,17.057,17.054,17.057
201912201853,17.057,17.057,17.057,17.057
201912201854,17.057,17.058,17.057,17.057
201912201855,17.057,17.057,17.052,17.054
201912201856,17.054,17.056,17.052,17.052
201912201857,17.052,17.054,17.052,17.053
201912201858,17.054,17.054,17.052,17.052
201912201859,17.052,17.057,17.052,17.057
201912201900,17.057,17.057,17.056,17.057
201912201901,17.056,17.06,17.056,17.06
201912201902,17.06,17.06,17.057,17.057
201912201903,17.057,17.059,17.057,17.058
201912201904,17.058,17.058,17.057,17.057
201912201905,17.057,17.057,17.053,17.057
201912201906,17.057,17.059,17.057,17.058
201912201907,17.058,17.058,17.055,17.057
201912201908,17.057,17.057,17.056,17.057
201912201909,17.057,17.057,17.056,17.056
201912201910,17.056,17.056,17.053,17.053
201912201911,17.053,17.053,17.052,17.053
201912201912,17.052,17.053,17.052,17.053
201912201913,17.053,17.053,17.052,17.052
201912201914,17.052,17.053,17.05,17.05
201912201915,17.05,17.05,17.048,17.049
201912201916,17.049,17.05,17.048,17.049
201912201917,17.049,17.049,17.049,17.049
201912201918,17.049,17.05,17.048,17.049
201912201919,17.049,17.049,17.048,17.049
201912201920,17.048,17.049,17.048,17.048
201912201921,17.048,17.048,17.047,17.047
201912201922,17.047,17.047,17.047,17.047
201912201923,17.047,17.047,17.041,17.042
201912201924,17.042,17.042,17.039,17.039
201912201925,17.039,17.041,17.039,17.041
201912201926,17.041,17.041,17.04,17.04
201912201927,17.04,17.041,17.04,17.04
201912201928,17.04,17.041,17.039,17.04
201912201929,17.04,17.042,17.035,17.035
201912201930,17.035,17.036,17.031,17.034
201912201931,17.034,17.034,17.03,17.032
201912201932,17.032,17.038,17.03,17.037
201912201933,17.037,17.037,17.035,17.035
201912201934,17.035,17.039,17.035,17.035
201912201935,17.035,17.038,17.035,17.035
201912201936,17.035,17.035,17.034,17.034
201912201937,17.034,17.035,17.034,17.034
201912201938,17.034,17.035,17.033,17.033
201912201939,17.033,17.035,17.03,17.03
201912201940,17.03,17.032,17.029,17.032
201912201941,17.032,17.032,17.025,17.026
201912201942,17.026,17.027,17.024,17.027
201912201943,17.027,17.028,17.027,17.027
201912201944,17.027,17.031,17.027,17.03
201912201945,17.03,17.032,17.03,17.032
201912201946,17.032,17.033,17.031,17.031
201912201947,17.031,17.033,17.03,17.033
201912201948,17.033,17.037,17.032,17.036
201912201949,17.036,17.037,17.034,17.034
201912201950,17.034,17.034,17.03,17.032
201912201951,17.032,17.032,17.03,17.032
201912201952,17.031,17.034,17.031,17.031
201912201953,17.031,17.034,17.031,17.033
201912201954,17.033,17.033,17.031,17.033
201912201955,17.033,17.036,17.033,17.035
201912201956,17.036,17.037,17.036,17.036
201912201957,17.036,17.036,17.035,17.035
201912201958,17.035,17.035,17.033,17.033
201912201959,17.033,17.035,17.033,17.035
201912202000,17.035,17.036,17.032,17.036
201912202001,17.036,17.036,17.033,17.033
201912202002,17.033,17.036,17.032,17.032
201912202003,17.032,17.034,17.031,17.031
201912202004,17.031,17.033,17.031,17.032
201912202005,17.032,17.037,17.032,17.036
201912202006,17.036,17.037,17.036,17.037
201912202007,17.037,17.041,17.037,17.041
201912202008,17.041,17.043,17.041,17.043
201912202009,17.043,17.048,17.043,17.048
201912202010,17.048,17.048,17.046,17.047
201912202011,17.047,17.047,17.043,17.043
201912202012,17.043,17.043,17.042,17.042
201912202013,17.042,17.042,17.038,17.038
201912202014,17.038,17.038,17.036,17.038
201912202015,17.038,17.039,17.037,17.039
201912202016,17.039,17.039,17.038,17.038
201912202017,17.038,17.042,17.038,17.042
201912202018,17.042,17.042,17.037,17.037
201912202019,17.037,17.037,17.031,17.031
201912202020,17.031,17.033,17.028,17.033
201912202021,17.033,17.036,17.033,17.036
201912202022,17.037,17.038,17.033,17.033
201912202023,17.033,17.038,17.033,17.038
201912202024,17.038,17.038,17.033,17.036
201912202025,17.036,17.037,17.036,17.036
201912202026,17.036,17.036,17.036,17.036
201912202027,17.036,17.038,17.036,17.038
201912202028,17.038,17.043,17.038,17.043
201912202029,17.043,17.043,17.039,17.039
201912202030,17.039,17.04,17.038,17.039
201912202031,17.039,17.04,17.038,17.039
201912202032,17.039,17.043,17.039,17.04
201912202033,17.041,17.042,17.039,17.04
201912202034,17.039,17.044,17.039,17.044
201912202035,17.044,17.044,17.044,17.044
201912202036,17.044,17.044,17.04,17.04
201912202037,17.04,17.04,17.036,17.038
201912202038,17.038,17.042,17.038,17.038
201912202039,17.038,17.042,17.038,17.041
201912202040,17.041,17.044,17.04,17.041
201912202041,17.041,17.041,17.038,17.038
201912202042,17.038,17.039,17.038,17.039
201912202043,17.039,17.039,17.036,17.036
201912202044,17.036,17.04,17.036,17.038
201912202045,17.038,17.04,17.036,17.038
201912202046,17.038,17.039,17.038,17.038
201912202047,17.038,17.039,17.036,17.036
201912202048,17.036,17.036,17.034,17.036
201912202049,17.036,17.036,17.035,17.036
201912202050,17.036,17.04,17.035,17.04
201912202051,17.04,17.041,17.038,17.038
201912202052,17.038,17.039,17.038,17.038
201912202053,17.038,17.04,17.038,17.039
201912202054,17.039,17.041,17.038,17.039
201912202055,17.039,17.041,17.039,17.039
201912202056,17.039,17.041,17.039,17.039
201912202057,17.039,17.041,17.039,17.039
201912202058,17.039,17.039,17.037,17.037
201912202059,17.037,17.039,17.037,17.039
201912202100,17.039,17.044,17.038,17.039
201912202101,17.039,17.039,17.032,17.033
201912202102,17.033,17.038,17.033,17.038
201912202103,17.038,17.043,17.038,17.039
201912202104,17.039,17.04,17.037,17.038
201912202105,17.038,17.039,17.037,17.039
201912202106,17.039,17.042,17.039,17.042
201912202107,17.042,17.066,17.038,17.058
201912202108,17.058,17.068,17.057,17.063
201912202109,17.068,17.068,17.063,17.064
201912202110,17.064,17.068,17.063,17.064
201912202111,17.064,17.072,17.063,17.072
201912202112,17.072,17.075,17.071,17.074
201912202113,17.074,17.074,17.072,17.072
201912202114,17.072,17.074,17.071,17.071
201912202115,17.071,17.075,17.07,17.075
201912202116,17.075,17.075,17.069,17.071
201912202117,17.071,17.075,17.068,17.075
201912202118,17.075,17.077,17.071,17.077
201912202119,17.077,17.077,17.075,17.075
201912202120,17.075,17.076,17.072,17.076
201912202121,17.076,17.079,17.074,17.074
201912202122,17.076,17.076,17.073,17.073
201912202123,17.073,17.077,17.07,17.076
201912202124,17.077,17.077,17.074,17.077
201912202125,17.076,17.077,17.076,17.077
201912202126,17.077,17.078,17.074,17.076
201912202127,17.076,17.08,17.076,17.078
201912202128,17.078,17.082,17.077,17.081
201912202129,17.081,17.083,17.08,17.081
201912202130,17.081,17.085,17.081,17.085
201912202131,17.085,17.085,17.078,17.079
201912202132,17.079,17.082,17.077,17.077
201912202133,17.078,17.082,17.076,17.082
201912202134,17.082,17.084,17.079,17.083
201912202135,17.083,17.084,17.081,17.083
201912202136,17.083,17.088,17.082,17.087
201912202137,17.087,17.089,17.082,17.082
201912202138,17.082,17.086,17.081,17.086
201912202139,17.086,17.088,17.086,17.088
201912202140,17.088,17.088,17.085,17.085
201912202141,17.086,17.086,17.083,17.083
201912202142,17.083,17.086,17.081,17.083
201912202143,17.083,17.084,17.081,17.083
201912202144,17.083,17.093,17.083,17.092
201912202145,17.093,17.094,17.086,17.087
201912202146,17.087,17.087,17.085,17.086
201912202147,17.086,17.088,17.085,17.086
201912202148,17.086,17.086,17.082,17.085
201912202149,17.085,17.086,17.081,17.081
201912202150,17.081,17.088,17.081,17.085
201912202151,17.085,17.085,17.078,17.079
201912202152,17.079,17.086,17.078,17.082
201912202153,17.082,17.084,17.082,17.082
201912202154,17.082,17.084,17.082,17.082
201912202155,17.082,17.088,17.082,17.086
201912202156,17.086,17.092,17.086,17.087
201912202157,17.087,17.089,17.087,17.087
201912202158,17.087,17.089,17.087,17.087
201912202159,17.087,17.09,17.086,17.087
201912202200,17.087,17.092,17.085,17.09
201912202201,17.09,17.098,17.09,17.09
201912202202,17.09,17.095,17.085,17.086
201912202203,17.086,17.086,17.082,17.082
201912202204,17.082,17.087,17.082,17.087
201912202205,17.087,17.087,17.082,17.086
201912202206,17.086,17.088,17.085,17.087
201912202207,17.087,17.089,17.081,17.081
201912202208,17.081,17.084,17.075,17.083
201912202209,17.083,17.09,17.083,17.09
201912202210,17.09,17.093,17.088,17.09
201912202211,17.09,17.091,17.085,17.086
201912202212,17.086,17.091,17.085,17.091
201912202213,17.091,17.093,17.089,17.092
201912202214,17.092,17.096,17.091,17.096
201912202215,17.096,17.098,17.095,17.095
201912202216,17.095,17.11,17.095,17.108
201912202217,17.107,17.107,17.1,17.1
201912202218,17.1,17.101,17.096,17.1
201912202219,17.1,17.101,17.096,17.1
201912202220,17.1,17.129,17.1,17.122
201912202221,17.122,17.141,17.122,17.139
201912202222,17.14,17.147,17.134,17.144
201912202223,17.144,17.144,17.134,17.134
201912202224,17.134,17.145,17.132,17.142
201912202225,17.143,17.143,17.139,17.141
201912202226,17.141,17.142,17.139,17.141
201912202227,17.141,17.142,17.14,17.142
201912202228,17.142,17.143,17.137,17.139
201912202229,17.139,17.139,17.12,17.122
201912202230,17.123,17.125,17.088,17.095
201912202231,17.095,17.099,17.087,17.095
201912202232,17.095,17.101,17.089,17.1
201912202233,17.1,17.1,17.089,17.1
201912202234,17.1,17.1,17.094,17.1
201912202235,17.1,17.113,17.095,17.111
201912202236,17.111,17.111,17.104,17.105
201912202237,17.105,17.11,17.096,17.1
201912202238,17.1,17.1,17.095,17.097
201912202239,17.1,17.101,17.095,17.097
201912202240,17.096,17.106,17.095,17.106
201912202241,17.106,17.106,17.104,17.105
201912202242,17.105,17.105,17.099,17.104
201912202243,17.104,17.105,17.104,17.104
201912202244,17.103,17.105,17.102,17.104
201912202245,17.104,17.112,17.1,17.112
201912202246,17.113,17.113,17.104,17.109
201912202247,17.109,17.113,17.108,17.108
201912202248,17.109,17.114,17.107,17.114
201912202249,17.114,17.119,17.113,17.117
201912202250,17.116,17.12,17.114,17.12
201912202251,17.12,17.126,17.12,17.125
201912202252,17.125,17.135,17.125,17.129
201912202253,17.129,17.137,17.129,17.132
201912202254,17.132,17.136,17.131,17.135
201912202255,17.135,17.139,17.132,17.139
201912202256,17.139,17.152,17.139,17.15
201912202257,17.15,17.167,17.15,17.164
201912202258,17.163,17.176,17.159,17.159
201912202259,17.159,17.164,17.155,17.162
201912202300,17.162,17.205,17.161,17.204
201912202301,17.204,17.222,17.2,17.207
201912202302,17.207,17.213,17.201,17.204
201912202303,17.205,17.206,17.199,17.201
201912202304,17.2,17.2,17.194,17.2
201912202305,17.2,17.211,17.198,17.2
201912202306,17.201,17.206,17.193,17.193
201912202307,17.193,17.213,17.193,17.212
201912202308,17.212,17.218,17.212,17.212
201912202309,17.212,17.228,17.212,17.222
201912202310,17.223,17.232,17.223,17.229
201912202311,17.229,17.238,17.222,17.227
201912202312,17.227,17.228,17.221,17.221
201912202313,17.221,17.228,17.212,17.225
201912202314,17.226,17.228,17.212,17.213
201912202315,17.213,17.224,17.212,17.218
201912202316,17.218,17.219,17.203,17.203
201912202317,17.203,17.206,17.198,17.203
201912202318,17.203,17.214,17.202,17.212
201912202319,17.212,17.218,17.206,17.218
201912202320,17.218,17.223,17.216,17.218
201912202321,17.218,17.221,17.203,17.204
201912202322,17.204,17.215,17.204,17.206
201912202323,17.206,17.206,17.197,17.198
201912202324,17.198,17.198,17.193,17.193
201912202325,17.193,17.201,17.191,17.195
201912202326,17.194,17.196,17.192,17.192
201912202327,17.192,17.196,17.182,17.192
201912202328,17.193,17.203,17.192,17.202
201912202329,17.202,17.208,17.202,17.207
201912202330,17.207,17.216,17.206,17.211
201912202331,17.211,17.218,17.21,17.213
201912202332,17.213,17.222,17.21,17.211
201912202333,17.21,17.211,17.192,17.192
201912202334,17.192,17.202,17.192,17.201
201912202335,17.201,17.207,17.196,17.206
201912202336,17.206,17.207,17.202,17.205
201912202337,17.206,17.213,17.206,17.212
201912202338,17.211,17.212,17.201,17.201
201912202339,17.201,17.204,17.201,17.201
201912202340,17.201,17.202,17.197,17.202
201912202341,17.202,17.202,17.2,17.201
201912202342,17.201,17.206,17.201,17.206
201912202343,17.206,17.21,17.203,17.206
201912202344,17.206,17.206,17.193,17.194
201912202345,17.194,17.194,17.186,17.187
201912202346,17.187,17.198,17.181,17.194
201912202347,17.194,17.201,17.191,17.201
201912202348,17.201,17.201,17.191,17.191
201912202349,17.191,17.194,17.163,17.163
201912202350,17.163,17.176,17.16,17.176
201912202351,17.177,17.192,17.177,17.191
201912202352,17.191,17.195,17.187,17.187
201912202353,17.187,17.188,17.181,17.182
201912202354,17.182,17.192,17.181,17.188
201912202355,17.188,17.197,17.187,17.192
201912202356,17.192,17.192,17.188,17.188
201912202357,17.189,17.189,17.185,17.186
201912202358,17.186,17.187,17.183,17.187
201912202359,17.187,17.187,17.178,17.181
201912210000,17.181,17.183,17.147,17.156
201912210001,17.156,17.163,17.146,17.16
201912210002,17.159,17.163,17.15,17.163
201912210003,17.163,17.163,17.149,17.158
201912210004,17.157,17.158,17.15,17.157
201912210005,17.157,17.157,17.148,17.15
201912210006,17.15,17.161,17.15,17.161
201912210007,17.161,17.167,17.157,17.161
201912210008,17.161,17.161,17.155,17.157
201912210009,17.157,17.162,17.154,17.156
201912210010,17.157,17.162,17.156,17.161
201912210011,17.161,17.163,17.161,17.162
201912210012,17.162,17.166,17.161,17.163
201912210013,17.163,17.172,17.163,17.172
201912210014,17.172,17.179,17.169,17.176
201912210015,17.176,17.181,17.172,17.172
201912210016,17.173,17.174,17.168,17.168
201912210017,17.168,17.174,17.162,17.17
201912210018,17.17,17.172,17.168,17.172
201912210019,17.172,17.177,17.171,17.177
201912210020,17.177,17.183,17.176,17.183
201912210021,17.183,17.198,17.182,17.197
201912210022,17.196,17.196,17.191,17.191
201912210023,17.191,17.197,17.191,17.197
201912210024,17.197,17.205,17.196,17.196
201912210025,17.195,17.201,17.195,17.195
201912210026,17.192,17.203,17.191,17.201
201912210027,17.201,17.206,17.192,17.198
201912210028,17.198,17.202,17.196,17.198
201912210029,17.198,17.205,17.198,17.201
201912210030,17.201,17.209,17.201,17.207
201912210031,17.206,17.214,17.206,17.213
201912210032,17.213,17.222,17.212,17.222
201912210033,17.222,17.226,17.216,17.217
201912210034,17.217,17.221,17.216,17.217
201912210035,17.217,17.222,17.217,17.217
201912210036,17.217,17.227,17.217,17.227
201912210037,17.227,17.227,17.217,17.218
201912210038,17.218,17.224,17.218,17.224
201912210039,17.224,17.224,17.22,17.22
201912210040,17.221,17.227,17.219,17.223
201912210041,17.223,17.225,17.22,17.221
201912210042,17.221,17.221,17.212,17.216
201912210043,17.217,17.222,17.217,17.222
201912210044,17.222,17.222,17.22,17.222
201912210045,17.222,17.222,17.218,17.22
201912210046,17.22,17.221,17.215,17.217
201912210047,17.217,17.218,17.216,17.217
201912210048,17.217,17.217,17.212,17.212
201912210049,17.212,17.215,17.211,17.211
201912210050,17.211,17.215,17.211,17.215
201912210051,17.215,17.216,17.212,17.215
201912210052,17.215,17.22,17.214,17.22
201912210053,17.22,17.222,17.213,17.217
201912210054,17.217,17.217,17.215,17.216
201912210055,17.216,17.22,17.215,17.217
201912210056,17.217,17.22,17.217,17.22
201912210057,17.221,17.227,17.217,17.222
201912210058,17.222,17.226,17.217,17.222
201912210059,17.222,17.225,17.219,17.222
201912210100,17.222,17.226,17.22,17.221
201912210101,17.221,17.227,17.221,17.227
201912210102,17.227,17.232,17.227,17.231
201912210103,17.231,17.252,17.231,17.248
201912210104,17.245,17.246,17.23,17.23
201912210105,17.228,17.231,17.216,17.216
201912210106,17.216,17.22,17.216,17.217
201912210107,17.217,17.217,17.211,17.212
201912210108,17.212,17.212,17.205,17.21
201912210109,17.21,17.21,17.199,17.201
201912210110,17.201,17.201,17.195,17.196
201912210111,17.196,17.201,17.195,17.197
201912210112,17.197,17.197,17.195,17.196
201912210113,17.196,17.196,17.18,17.181
201912210114,17.181,17.181,17.152,17.164
201912210115,17.164,17.171,17.16,17.165
201912210116,17.165,17.166,17.16,17.162
201912210117,17.162,17.167,17.157,17.164
201912210118,17.164,17.164,17.16,17.163
201912210119,17.162,17.163,17.152,17.157
201912210120,17.156,17.161,17.152,17.161
201912210121,17.161,17.162,17.16,17.162
201912210122,17.162,17.163,17.157,17.16
201912210123,17.16,17.165,17.159,17.161
201912210124,17.161,17.161,17.118,17.125
201912210125,17.124,17.125,17.11,17.112
201912210126,17.111,17.122,17.111,17.12
201912210127,17.12,17.122,17.115,17.12
201912210128,17.118,17.121,17.116,17.116
201912210129,17.117,17.122,17.111,17.122
201912210130,17.122,17.122,17.111,17.116
201912210131,17.116,17.117,17.112,17.112
201912210132,17.112,17.117,17.111,17.112
201912210133,17.112,17.112,17.087,17.097
201912210134,17.097,17.102,17.087,17.102
201912210135,17.102,17.102,17.096,17.097
201912210136,17.097,17.102,17.097,17.097
201912210137,17.098,17.098,17.081,17.097
201912210138,17.097,17.101,17.092,17.092
201912210139,17.092,17.1,17.092,17.097
201912210140,17.097,17.111,17.096,17.111
201912210141,17.111,17.126,17.106,17.123
201912210142,17.123,17.126,17.12,17.126
201912210143,17.126,17.126,17.121,17.122
201912210144,17.122,17.13,17.121,17.126
201912210145,17.126,17.127,17.123,17.124
201912210146,17.124,17.126,17.116,17.119
201912210147,17.119,17.121,17.115,17.115
201912210148,17.115,17.124,17.115,17.122
201912210149,17.122,17.131,17.121,17.128
201912210150,17.128,17.129,17.125,17.126
201912210151,17.126,17.13,17.125,17.126
201912210152,17.126,17.127,17.12,17.122
201912210153,17.122,17.128,17.122,17.128
201912210154,17.128,17.13,17.123,17.127
201912210155,17.127,17.13,17.127,17.129
201912210156,17.129,17.134,17.129,17.134
201912210157,17.135,17.138,17.134,17.136
201912210158,17.135,17.146,17.135,17.145
201912210159,17.145,17.15,17.144,17.149
201912210200,17.149,17.149,17.142,17.148
201912210201,17.148,17.156,17.146,17.156
201912210202,17.156,17.158,17.153,17.156
201912210203,17.156,17.158,17.146,17.148
201912210204,17.148,17.157,17.146,17.157
201912210205,17.157,17.158,17.153,17.156
201912210206,17.156,17.161,17.156,17.161
201912210207,17.161,17.161,17.157,17.161
201912210208,17.161,17.162,17.157,17.161
201912210209,17.161,17.161,17.16,17.161
201912210210,17.161,17.162,17.161,17.162
201912210211,17.162,17.162,17.156,17.156
201912210212,17.156,17.163,17.156,17.161
201912210213,17.161,17.166,17.161,17.166
201912210214,17.166,17.168,17.162,17.166
201912210215,17.166,17.166,17.161,17.161
201912210216,17.161,17.163,17.161,17.162
201912210217,17.162,17.167,17.162,17.167
201912210218,17.167,17.167,17.163,17.166
201912210219,17.164,17.167,17.163,17.166
201912210220,17.166,17.168,17.166,17.168
201912210221,17.168,17.176,17.166,17.176
201912210222,17.176,17.176,17.171,17.172
201912210223,17.172,17.177,17.172,17.176
201912210224,17.176,17.178,17.176,17.176
201912210225,17.176,17.178,17.172,17.173
201912210226,17.173,17.174,17.171,17.172
201912210227,17.172,17.173,17.168,17.169
201912210228,17.168,17.172,17.168,17.169
201912210229,17.169,17.172,17.167,17.168
201912210230,17.168,17.169,17.166,17.169
201912210231,17.169,17.171,17.168,17.168
201912210232,17.167,17.169,17.166,17.167
201912210233,17.167,17.167,17.166,17.167
201912210234,17.167,17.171,17.166,17.171
201912210235,17.171,17.172,17.171,17.171
201912210236,17.173,17.175,17.171,17.174
201912210237,17.174,17.174,17.172,17.174
201912210238,17.174,17.174,17.173,17.173
201912210239,17.172,17.173,17.171,17.172
201912210240,17.172,17.172,17.168,17.169
201912210241,17.169,17.169,17.166,17.167
201912210242,17.167,17.167,17.163,17.163
201912210243,17.163,17.169,17.163,17.166
201912210244,17.166,17.172,17.166,17.171
201912210245,17.171,17.173,17.171,17.172
201912210246,17.172,17.175,17.171,17.173
201912210247,17.173,17.176,17.173,17.176
201912210248,17.176,17.176,17.175,17.175
201912210249,17.175,17.176,17.172,17.172
201912210250,17.172,17.175,17.172,17.175
201912210251,17.175,17.176,17.173,17.175
201912210252,17.175,17.176,17.17,17.17
201912210253,17.17,17.172,17.17,17.172
201912210254,17.172,17.172,17.17,17.17
201912210255,17.17,17.172,17.165,17.165
201912210256,17.161,17.161,17.155,17.155
201912210257,17.155,17.156,17.151,17.156
201912210258,17.157,17.161,17.157,17.157
201912210259,17.157,17.157,17.155,17.156
201912210300,17.155,17.157,17.154,17.155
201912210301,17.155,17.155,17.151,17.151
201912210302,17.151,17.152,17.151,17.152
201912210303,17.152,17.152,17.151,17.152
201912210304,17.152,17.155,17.152,17.155
201912210305,17.155,17.156,17.152,17.152
201912210306,17.152,17.158,17.152,17.157
201912210307,17.157,17.158,17.156,17.156
201912210308,17.156,17.158,17.156,17.157
201912210309,17.157,17.158,17.156,17.156
201912210310,17.156,17.162,17.156,17.161
201912210311,17.161,17.161,17.16,17.161
201912210312,17.161,17.162,17.158,17.158
201912210313,17.158,17.158,17.157,17.158
201912210314,17.158,17.163,17.158,17.162
201912210315,17.162,17.163,17.161,17.162
201912210316,17.162,17.163,17.162,17.162
201912210317,17.162,17.163,17.162,17.162
201912210318,17.162,17.163,17.162,17.162
201912210319,17.162,17.162,17.156,17.156
201912210320,17.156,17.158,17.156,17.157
201912210321,17.157,17.162,17.157,17.162
201912210322,17.162,17.162,17.161,17.161
201912210323,17.161,17.162,17.161,17.161
201912210324,17.161,17.163,17.161,17.162
201912210325,17.162,17.168,17.162,17.168
201912210326,17.168,17.172,17.166,17.166
201912210327,17.166,17.172,17.166,17.172
201912210328,17.172,17.172,17.163,17.163
201912210329,17.163,17.166,17.163,17.166
201912210330,17.166,17.167,17.166,17.167
201912210331,17.167,17.167,17.165,17.165
201912210332,17.165,17.167,17.165,17.167
201912210333,17.167,17.168,17.166,17.166
201912210334,17.166,17.167,17.163,17.163
201912210335,17.163,17.168,17.163,17.168
201912210336,17.168,17.168,17.166,17.167
201912210337,17.167,17.176,17.167,17.176
201912210338,17.176,17.176,17.172,17.175
201912210339,17.175,17.176,17.175,17.176
201912210340,17.176,17.178,17.176,17.177
201912210341,17.177,17.181,17.176,17.18
201912210342,17.181,17.183,17.175,17.176
201912210343,17.176,17.176,17.172,17.173
201912210344,17.173,17.175,17.173,17.175
201912210345,17.175,17.176,17.172,17.173
201912210346,17.173,17.176,17.172,17.176
201912210347,17.176,17.177,17.175,17.177
201912210348,17.177,17.178,17.176,17.176
201912210349,17.176,17.177,17.176,17.177
201912210350,17.177,17.181,17.177,17.178
201912210351,17.179,17.18,17.177,17.177
201912210352,17.177,17.177,17.176,17.177
201912210353,17.177,17.177,17.176,17.177
201912210354,17.177,17.178,17.175,17.177
201912210355,17.177,17.178,17.175,17.175
201912210356,17.175,17.175,17.172,17.172
201912210357,17.172,17.176,17.171,17.176
201912210358,17.176,17.176,17.175,17.175
201912210359,17.175,17.178,17.175,17.177
201912210400,17.176,17.182,17.176,17.182
201912210401,17.182,17.183,17.181,17.182
201912210402,17.182,17.182,17.181,17.181
201912210403,17.181,17.186,17.176,17.186
201912210404,17.186,17.186,17.186,17.186
201912210405,17.186,17.187,17.186,17.187
201912210406,17.187,17.187,17.187,17.187
201912210407,17.187,17.191,17.187,17.191
201912210408,17.191,17.192,17.19,17.192
201912210409,17.192,17.192,17.191,17.192
201912210410,17.191,17.193,17.19,17.191
201912210411,17.191,17.195,17.191,17.195
201912210412,17.195,17.197,17.195,17.195
201912210413,17.195,17.196,17.194,17.196
201912210414,17.196,17.198,17.196,17.197
201912210415,17.197,17.197,17.196,17.197
201912210416,17.197,17.197,17.192,17.192
201912210417,17.192,17.196,17.192,17.196
201912210418,17.196,17.197,17.196,17.197
201912210419,17.197,17.197,17.196,17.196
201912210420,17.196,17.197,17.196,17.196
201912210421,17.197,17.197,17.195,17.197
201912210422,17.197,17.197,17.196,17.196
201912210423,17.196,17.196,17.196,17.196
201912210424,17.196,17.196,17.186,17.186
201912210425,17.185,17.186,17.185,17.185
201912210426,17.182,17.186,17.182,17.185
201912210427,17.185,17.185,17.176,17.176
201912210428,17.176,17.177,17.176,17.177
201912210429,17.177,17.185,17.176,17.182
201912210430,17.182,17.182,17.181,17.181
201912210431,17.181,17.182,17.181,17.181
201912210432,17.181,17.182,17.181,17.181
201912210433,17.181,17.181,17.181,17.181
201912210434,17.182,17.182,17.181,17.182
201912210435,17.182,17.183,17.182,17.182
201912210436,17.182,17.185,17.182,17.182
201912210437,17.182,17.185,17.182,17.185
201912210438,17.185,17.186,17.185,17.186
201912210439,17.186,17.186,17.186,17.186
201912210440,17.186,17.186,17.185,17.186
201912210441,17.186,17.186,17.185,17.185
201912210442,17.185,17.186,17.185,17.186
201912210443,17.186,17.186,17.185,17.186
201912210444,17.186,17.192,17.186,17.189
201912210445,17.189,17.189,17.186,17.186
201912210446,17.186,17.186,17.185,17.185
201912210447,17.185,17.187,17.185,17.186
201912210448,17.186,17.187,17.184,17.185
201912210449,17.185,17.186,17.184,17.185
201912210450,17.185,17.185,17.184,17.185
201912210451,17.185,17.187,17.182,17.182
201912210452,17.182,17.187,17.182,17.186
201912210453,17.185,17.186,17.185,17.186
201912210454,17.186,17.187,17.184,17.186
201912210455,17.186,17.187,17.184,17.185
201912210456,17.185,17.187,17.182,17.182
201912210457,17.182,17.184,17.181,17.181
201912210458,17.182,17.182,17.181,17.182
201912210459,17.182,17.184,17.181,17.182
201912210500,17.182,17.188,17.182,17.186
201912210501,17.186,17.186,17.184,17.184
201912210502,17.184,17.185,17.184,17.185
201912210503,17.185,17.186,17.184,17.184
201912210504,17.184,17.186,17.183,17.186
201912210505,17.186,17.186,17.184,17.184
201912210506,17.184,17.186,17.184,17.184
201912210507,17.184,17.185,17.184,17.184
201912210508,17.184,17.186,17.184,17.185
201912210509,17.185,17.187,17.184,17.186
201912210510,17.186,17.186,17.185,17.186
201912210511,17.186,17.186,17.184,17.185
201912210512,17.185,17.185,17.181,17.181
201912210513,17.181,17.181,17.181,17.181
201912210514,17.181,17.181,17.179,17.179
201912210515,17.179,17.18,17.177,17.179
201912210516,17.179,17.179,17.174,17.175
201912210517,17.175,17.175,17.172,17.172
201912210518,17.172,17.174,17.171,17.171
201912210519,17.172,17.175,17.172,17.174
201912210520,17.174,17.175,17.174,17.175
201912210521,17.175,17.175,17.174,17.175
201912210522,17.175,17.176,17.174,17.174
201912210523,17.174,17.176,17.174,17.176
201912210524,17.176,17.177,17.175,17.176
201912210525,17.176,17.177,17.176,17.176
201912210526,17.176,17.176,17.174,17.174
201912210527,17.175,17.175,17.174,17.175
201912210528,17.175,17.175,17.174,17.175
201912210529,17.175,17.176,17.174,17.175
201912210530,17.175,17.175,17.171,17.171
201912210531,17.171,17.171,17.17,17.17
201912210532,17.17,17.171,17.169,17.171
201912210533,17.171,17.171,17.165,17.165
201912210534,17.165,17.165,17.161,17.161
201912210535,17.161,17.162,17.161,17.162
201912210536,17.162,17.165,17.162,17.164
201912210537,17.164,17.165,17.164,17.165
201912210538,17.165,17.166,17.163,17.164
201912210539,17.164,17.164,17.159,17.159
201912210540,17.159,17.163,17.159,17.162
201912210541,17.162,17.162,17.16,17.161
201912210542,17.161,17.162,17.159,17.161
201912210543,17.161,17.164,17.16,17.16
201912210544,17.16,17.16,17.16,17.16
201912210545,17.16,17.16,17.158,17.159
201912210546,17.159,17.162,17.159,17.159
201912210547,17.159,17.159,17.158,17.158
201912210548,17.158,17.159,17.158,17.158
201912210549,17.158,17.159,17.158,17.159
201912210550,17.159,17.159,17.155,17.159
201912210551,17.159,17.159,17.159,17.159
201912210552,17.159,17.164,17.159,17.164
201912210553,17.164,17.164,17.161,17.162
201912210554,17.162,17.165,17.16,17.161
201912210555,17.161,17.165,17.159,17.161
201912210556,17.16,17.165,17.16,17.165
201912210557,17.164,17.165,17.16,17.163
201912210558,17.163,17.163,17.162,17.163
201912210559,17.163,17.167,17.163,17.166
201912210600,17.167,17.171,17.167,17.17
201912210601,17.17,17.171,17.167,17.17
201912210602,17.17,17.171,17.17,17.17
201912210603,17.17,17.171,17.168,17.168
201912210604,17.168,17.168,17.167,17.168
201912210605,17.168,17.17,17.167,17.17
201912210606,17.17,17.17,17.167,17.167
201912210607,17.168,17.168,17.166,17.167
201912210608,17.167,17.168,17.167,17.168
201912210609,17.168,17.17,17.168,17.17
201912210610,17.17,17.172,17.168,17.171
201912210611,17.171,17.172,17.169,17.171
201912210612,17.171,17.173,17.169,17.171
201912210613,17.171,17.171,17.169,17.171
201912210614,17.171,17.172,17.169,17.172
201912210615,17.172,17.172,17.169,17.171
201912210616,17.171,17.174,17.171,17.171
201912210617,17.171,17.173,17.171,17.172
201912210618,17.171,17.171,17.167,17.171
201912210619,17.171,17.172,17.168,17.172
201912210620,17.171,17.173,17.171,17.171
201912210621,17.171,17.174,17.171,17.171
201912210622,17.171,17.175,17.169,17.172
201912210623,17.172,17.172,17.17,17.172
201912210624,17.172,17.182,17.172,17.182
201912210625,17.182,17.184,17.181,17.181
201912210626,17.181,17.184,17.181,17.182
201912210627,17.182,17.182,17.182,17.182
201912210628,17.182,17.182,17.181,17.182
201912210629,17.182,17.182,17.182,17.182
201912210630,17.182,17.182,17.182,17.182
201912210631,17.182,17.182,17.182,17.182
201912210632,17.182,17.182,17.182,17.182
201912210633,17.182,17.192,17.182,17.192
201912210634,17.192,17.193,17.192,17.193
201912210635,17.193,17.193,17.191,17.191
201912210636,17.191,17.191,17.191,17.191
201912210637,17.191,17.192,17.191,17.191
201912210638,17.191,17.191,17.191,17.191
201912210639,17.191,17.191,17.191,17.191
201912210640,17.191,17.191,17.19,17.191
201912210641,17.191,17.191,17.19,17.19
201912210642,17.19,17.194,17.19,17.193
201912210643,17.193,17.194,17.192,17.192
201912210644,17.192,17.192,17.191,17.191
201912210645,17.191,17.191,17.191,17.191
201912210646,17.191,17.195,17.191,17.192
201912210647,17.192,17.192,17.191,17.191
201912210648,17.191,17.195,17.191,17.195
201912210649,17.195,17.195,17.195,17.195
201912210650,17.195,17.195,17.191,17.192
201912210651,17.192,17.192,17.187,17.191
201912210652,17.191,17.191,17.19,17.19
201912210653,17.19,17.191,17.19,17.191
201912210654,17.191,17.192,17.191,17.192
201912210655,17.192,17.192,17.188,17.19
201912210656,17.19,17.191,17.189,17.191
201912210657,17.191,17.195,17.19,17.195
201912210658,17.194,17.194,17.194,17.194
201912210659,17.194,17.202,17.194,17.202
