日時,始値(BID),高値(BID),安値(BID),終値(BID)
201912230800,17.178,17.199,17.173,17.174
201912230801,17.174,17.18,17.174,17.177
201912230802,17.177,17.179,17.176,17.178
201912230803,17.179,17.179,17.178,17.179
201912230804,17.179,17.184,17.179,17.183
201912230805,17.183,17.184,17.179,17.184
201912230806,17.184,17.184,17.179,17.179
201912230807,17.179,17.184,17.178,17.18
201912230808,17.18,17.18,17.179,17.18
201912230809,17.18,17.181,17.18,17.18
201912230810,17.18,17.18,17.179,17.179
201912230811,17.179,17.18,17.179,17.179
201912230812,17.179,17.181,17.179,17.181
201912230813,17.181,17.186,17.181,17.185
201912230814,17.185,17.186,17.181,17.183
201912230815,17.183,17.185,17.181,17.181
201912230816,17.181,17.192,17.18,17.192
201912230817,17.192,17.192,17.188,17.188
201912230818,17.188,17.188,17.185,17.185
201912230819,17.185,17.185,17.183,17.184
201912230820,17.184,17.187,17.183,17.187
201912230821,17.187,17.187,17.185,17.187
201912230822,17.187,17.187,17.181,17.182
201912230823,17.182,17.182,17.18,17.182
201912230824,17.182,17.183,17.181,17.181
201912230825,17.181,17.182,17.181,17.181
201912230826,17.181,17.181,17.179,17.179
201912230827,17.179,17.182,17.179,17.182
201912230828,17.182,17.182,17.181,17.182
201912230829,17.182,17.183,17.179,17.182
201912230830,17.183,17.184,17.183,17.183
201912230831,17.183,17.183,17.183,17.183
201912230832,17.183,17.183,17.183,17.183
201912230833,17.183,17.183,17.181,17.182
201912230834,17.183,17.183,17.183,17.183
201912230835,17.183,17.184,17.183,17.184
201912230836,17.184,17.185,17.184,17.185
201912230837,17.185,17.185,17.185,17.185
201912230838,17.185,17.185,17.184,17.185
201912230839,17.185,17.189,17.184,17.188
201912230840,17.188,17.189,17.185,17.185
201912230841,17.186,17.189,17.186,17.189
201912230842,17.189,17.189,17.185,17.185
201912230843,17.185,17.189,17.185,17.187
201912230844,17.185,17.186,17.185,17.185
201912230845,17.185,17.187,17.185,17.187
201912230846,17.187,17.192,17.187,17.192
201912230847,17.194,17.196,17.194,17.194
201912230848,17.194,17.196,17.19,17.191
201912230849,17.191,17.191,17.189,17.189
201912230850,17.189,17.189,17.188,17.189
201912230851,17.189,17.191,17.189,17.191
201912230852,17.191,17.191,17.19,17.191
201912230853,17.191,17.191,17.19,17.191
201912230854,17.191,17.194,17.191,17.191
201912230855,17.191,17.191,17.19,17.19
201912230856,17.19,17.191,17.19,17.191
201912230857,17.191,17.191,17.191,17.191
201912230858,17.191,17.191,17.191,17.191
201912230859,17.191,17.191,17.19,17.191
201912230900,17.191,17.195,17.191,17.195
201912230901,17.195,17.2,17.195,17.2
201912230902,17.2,17.2,17.199,17.2
201912230903,17.2,17.2,17.196,17.199
201912230904,17.199,17.199,17.195,17.195
201912230905,17.195,17.195,17.19,17.19
201912230906,17.19,17.196,17.19,17.196
201912230907,17.196,17.198,17.195,17.195
201912230908,17.195,17.198,17.195,17.198
201912230909,17.198,17.198,17.194,17.194
201912230910,17.194,17.194,17.194,17.194
201912230911,17.194,17.194,17.19,17.192
201912230912,17.192,17.193,17.189,17.189
201912230913,17.189,17.191,17.189,17.189
201912230914,17.189,17.19,17.189,17.189
201912230915,17.189,17.19,17.189,17.189
201912230916,17.189,17.193,17.189,17.193
201912230917,17.193,17.194,17.193,17.194
201912230918,17.194,17.194,17.193,17.193
201912230919,17.193,17.194,17.192,17.193
201912230920,17.193,17.193,17.188,17.188
201912230921,17.188,17.189,17.188,17.188
201912230922,17.188,17.188,17.185,17.185
201912230923,17.185,17.188,17.184,17.188
201912230924,17.188,17.188,17.188,17.188
201912230925,17.188,17.189,17.188,17.189
201912230926,17.188,17.189,17.185,17.185
201912230927,17.185,17.185,17.184,17.184
201912230928,17.184,17.185,17.184,17.185
201912230929,17.185,17.185,17.184,17.184
201912230930,17.184,17.184,17.184,17.184
201912230931,17.184,17.184,17.184,17.184
201912230932,17.184,17.185,17.184,17.185
201912230933,17.185,17.185,17.179,17.179
201912230934,17.179,17.18,17.179,17.179
201912230935,17.179,17.179,17.179,17.179
201912230936,17.179,17.18,17.179,17.179
201912230937,17.179,17.179,17.179,17.179
201912230938,17.179,17.18,17.179,17.179
201912230939,17.179,17.179,17.178,17.178
201912230940,17.179,17.184,17.179,17.184
201912230941,17.184,17.185,17.184,17.184
201912230942,17.184,17.184,17.184,17.184
201912230943,17.184,17.188,17.184,17.185
201912230944,17.185,17.185,17.185,17.185
201912230945,17.185,17.189,17.185,17.189
201912230946,17.189,17.19,17.189,17.19
201912230947,17.19,17.193,17.19,17.193
201912230948,17.193,17.193,17.189,17.189
201912230949,17.189,17.19,17.188,17.189
201912230950,17.189,17.19,17.189,17.19
201912230951,17.19,17.19,17.19,17.19
201912230952,17.19,17.192,17.19,17.19
201912230953,17.19,17.195,17.19,17.194
201912230954,17.194,17.194,17.193,17.193
201912230955,17.193,17.194,17.192,17.193
201912230956,17.193,17.193,17.19,17.192
201912230957,17.193,17.193,17.19,17.192
201912230958,17.192,17.193,17.192,17.193
201912230959,17.193,17.193,17.193,17.193
201912231000,17.193,17.198,17.185,17.198
201912231001,17.198,17.208,17.196,17.203
201912231002,17.203,17.218,17.202,17.217
201912231003,17.217,17.218,17.208,17.208
201912231004,17.208,17.214,17.208,17.213
201912231005,17.213,17.213,17.199,17.199
201912231006,17.199,17.207,17.199,17.204
201912231007,17.204,17.205,17.204,17.204
201912231008,17.204,17.204,17.199,17.199
201912231009,17.199,17.202,17.199,17.199
201912231010,17.199,17.2,17.198,17.199
201912231011,17.199,17.2,17.197,17.199
201912231012,17.199,17.204,17.199,17.199
201912231013,17.199,17.2,17.199,17.199
201912231014,17.199,17.2,17.199,17.199
201912231015,17.199,17.201,17.199,17.199
201912231016,17.2,17.202,17.199,17.199
201912231017,17.199,17.203,17.197,17.203
201912231018,17.203,17.208,17.203,17.206
201912231019,17.206,17.215,17.206,17.212
201912231020,17.212,17.214,17.21,17.214
201912231021,17.214,17.224,17.214,17.219
201912231022,17.219,17.221,17.214,17.214
201912231023,17.214,17.215,17.212,17.213
201912231024,17.213,17.213,17.21,17.21
201912231025,17.21,17.211,17.209,17.209
201912231026,17.209,17.211,17.209,17.21
201912231027,17.21,17.211,17.196,17.198
201912231028,17.198,17.198,17.19,17.19
201912231029,17.191,17.194,17.191,17.193
201912231030,17.193,17.203,17.193,17.194
201912231031,17.194,17.194,17.191,17.192
201912231032,17.192,17.192,17.188,17.188
201912231033,17.188,17.188,17.184,17.184
201912231034,17.184,17.184,17.178,17.178
201912231035,17.178,17.179,17.173,17.178
201912231036,17.178,17.185,17.178,17.184
201912231037,17.184,17.189,17.184,17.189
201912231038,17.189,17.193,17.189,17.191
201912231039,17.193,17.194,17.189,17.194
201912231040,17.194,17.196,17.193,17.194
201912231041,17.194,17.195,17.19,17.191
201912231042,17.191,17.191,17.19,17.19
201912231043,17.19,17.194,17.189,17.194
201912231044,17.194,17.196,17.194,17.196
201912231045,17.195,17.196,17.193,17.194
201912231046,17.194,17.194,17.191,17.194
201912231047,17.194,17.198,17.193,17.198
201912231048,17.198,17.199,17.197,17.198
201912231049,17.198,17.199,17.198,17.199
201912231050,17.199,17.199,17.196,17.197
201912231051,17.197,17.199,17.196,17.196
201912231052,17.196,17.2,17.195,17.199
201912231053,17.199,17.202,17.199,17.201
201912231054,17.201,17.201,17.2,17.2
201912231055,17.2,17.201,17.2,17.201
201912231056,17.201,17.202,17.2,17.201
201912231057,17.201,17.204,17.201,17.204
201912231058,17.204,17.205,17.204,17.204
201912231059,17.204,17.206,17.203,17.206
201912231100,17.206,17.209,17.203,17.204
201912231101,17.204,17.209,17.204,17.208
201912231102,17.208,17.208,17.204,17.208
201912231103,17.208,17.21,17.205,17.205
201912231104,17.205,17.209,17.204,17.204
201912231105,17.204,17.209,17.203,17.208
201912231106,17.208,17.209,17.206,17.209
201912231107,17.209,17.213,17.209,17.213
201912231108,17.213,17.218,17.21,17.218
201912231109,17.218,17.223,17.216,17.223
201912231110,17.223,17.226,17.215,17.22
201912231111,17.22,17.235,17.22,17.234
201912231112,17.234,17.236,17.23,17.23
201912231113,17.23,17.239,17.23,17.236
201912231114,17.236,17.236,17.224,17.225
201912231115,17.225,17.225,17.216,17.216
201912231116,17.216,17.22,17.216,17.219
201912231117,17.218,17.22,17.218,17.22
201912231118,17.22,17.22,17.215,17.219
201912231119,17.219,17.22,17.216,17.217
201912231120,17.217,17.219,17.215,17.219
201912231121,17.219,17.219,17.217,17.219
201912231122,17.219,17.219,17.218,17.219
201912231123,17.219,17.219,17.215,17.215
201912231124,17.215,17.215,17.215,17.215
201912231125,17.215,17.215,17.214,17.214
201912231126,17.214,17.215,17.214,17.215
201912231127,17.215,17.215,17.215,17.215
201912231128,17.215,17.217,17.215,17.216
201912231129,17.216,17.219,17.216,17.219
201912231130,17.217,17.224,17.217,17.223
201912231131,17.223,17.227,17.223,17.224
201912231132,17.224,17.226,17.223,17.223
201912231133,17.223,17.226,17.223,17.226
201912231134,17.226,17.228,17.225,17.225
201912231135,17.225,17.225,17.223,17.223
201912231136,17.223,17.223,17.221,17.223
201912231137,17.223,17.223,17.221,17.223
201912231138,17.223,17.224,17.223,17.223
201912231139,17.223,17.223,17.221,17.221
201912231140,17.219,17.22,17.217,17.218
201912231141,17.218,17.222,17.218,17.22
201912231142,17.222,17.226,17.222,17.224
201912231143,17.224,17.228,17.222,17.228
201912231144,17.228,17.228,17.22,17.22
201912231145,17.22,17.221,17.219,17.221
201912231146,17.221,17.221,17.219,17.221
201912231147,17.221,17.221,17.22,17.22
201912231148,17.22,17.223,17.22,17.223
201912231149,17.223,17.223,17.222,17.223
201912231150,17.223,17.227,17.221,17.227
201912231151,17.226,17.227,17.226,17.227
201912231152,17.227,17.228,17.227,17.227
201912231153,17.227,17.228,17.227,17.228
201912231154,17.228,17.228,17.227,17.227
201912231155,17.227,17.229,17.227,17.228
201912231156,17.228,17.228,17.227,17.228
201912231157,17.228,17.228,17.227,17.227
201912231158,17.227,17.228,17.226,17.228
201912231159,17.228,17.232,17.227,17.232
201912231200,17.232,17.243,17.232,17.236
201912231201,17.236,17.237,17.236,17.236
201912231202,17.236,17.237,17.232,17.236
201912231203,17.236,17.246,17.236,17.245
201912231204,17.245,17.248,17.239,17.24
201912231205,17.24,17.244,17.24,17.243
201912231206,17.243,17.244,17.239,17.239
201912231207,17.239,17.253,17.239,17.253
201912231208,17.253,17.258,17.253,17.254
201912231209,17.254,17.254,17.249,17.251
201912231210,17.251,17.262,17.251,17.253
201912231211,17.252,17.252,17.239,17.242
201912231212,17.242,17.244,17.241,17.244
201912231213,17.244,17.244,17.241,17.242
201912231214,17.242,17.244,17.239,17.239
201912231215,17.242,17.243,17.242,17.242
201912231216,17.242,17.242,17.239,17.242
201912231217,17.242,17.244,17.242,17.243
201912231218,17.243,17.244,17.242,17.243
201912231219,17.243,17.244,17.239,17.239
201912231220,17.239,17.239,17.239,17.239
201912231221,17.239,17.24,17.238,17.239
201912231222,17.239,17.239,17.234,17.237
201912231223,17.237,17.24,17.237,17.239
201912231224,17.239,17.239,17.237,17.238
201912231225,17.238,17.239,17.236,17.238
201912231226,17.238,17.242,17.238,17.242
201912231227,17.242,17.242,17.239,17.239
201912231228,17.239,17.239,17.234,17.236
201912231229,17.235,17.237,17.235,17.237
201912231230,17.237,17.237,17.237,17.237
201912231231,17.237,17.237,17.235,17.235
201912231232,17.235,17.237,17.235,17.237
201912231233,17.237,17.238,17.237,17.238
201912231234,17.238,17.239,17.237,17.237
201912231235,17.237,17.238,17.237,17.237
201912231236,17.237,17.238,17.237,17.238
201912231237,17.238,17.238,17.237,17.237
201912231238,17.237,17.237,17.237,17.237
201912231239,17.237,17.237,17.237,17.237
201912231240,17.237,17.237,17.234,17.234
201912231241,17.234,17.237,17.234,17.234
201912231242,17.234,17.237,17.234,17.234
201912231243,17.234,17.237,17.234,17.237
201912231244,17.237,17.237,17.237,17.237
201912231245,17.237,17.237,17.237,17.237
201912231246,17.237,17.237,17.237,17.237
201912231247,17.237,17.237,17.235,17.235
201912231248,17.235,17.238,17.234,17.238
201912231249,17.238,17.238,17.234,17.234
201912231250,17.234,17.237,17.234,17.235
201912231251,17.235,17.238,17.235,17.235
201912231252,17.235,17.238,17.235,17.237
201912231253,17.237,17.237,17.234,17.234
201912231254,17.234,17.237,17.234,17.237
201912231255,17.237,17.238,17.235,17.238
201912231256,17.238,17.238,17.235,17.236
201912231257,17.236,17.238,17.236,17.238
201912231258,17.238,17.238,17.236,17.238
201912231259,17.238,17.238,17.234,17.235
201912231300,17.235,17.237,17.235,17.236
201912231301,17.236,17.238,17.236,17.238
201912231302,17.238,17.238,17.237,17.238
201912231303,17.238,17.238,17.238,17.238
201912231304,17.238,17.238,17.235,17.235
201912231305,17.235,17.238,17.235,17.238
201912231306,17.238,17.238,17.237,17.238
201912231307,17.238,17.239,17.238,17.239
201912231308,17.239,17.239,17.238,17.239
201912231309,17.239,17.239,17.238,17.239
201912231310,17.239,17.239,17.239,17.239
201912231311,17.239,17.244,17.239,17.244
201912231312,17.244,17.248,17.244,17.246
201912231313,17.246,17.253,17.246,17.25
201912231314,17.25,17.253,17.25,17.252
201912231315,17.251,17.251,17.248,17.248
201912231316,17.248,17.248,17.246,17.246
201912231317,17.246,17.248,17.246,17.247
201912231318,17.246,17.249,17.246,17.248
201912231319,17.248,17.248,17.248,17.248
201912231320,17.248,17.25,17.248,17.249
201912231321,17.249,17.251,17.249,17.251
201912231322,17.251,17.253,17.251,17.253
201912231323,17.253,17.254,17.253,17.254
201912231324,17.254,17.254,17.252,17.253
201912231325,17.253,17.253,17.253,17.253
201912231326,17.253,17.253,17.253,17.253
201912231327,17.253,17.258,17.253,17.255
201912231328,17.255,17.258,17.254,17.257
201912231329,17.257,17.258,17.255,17.257
201912231330,17.257,17.257,17.252,17.252
201912231331,17.252,17.254,17.252,17.252
201912231332,17.252,17.254,17.252,17.252
201912231333,17.252,17.252,17.25,17.251
201912231334,17.251,17.251,17.25,17.251
201912231335,17.252,17.252,17.252,17.252
201912231336,17.252,17.252,17.251,17.252
201912231337,17.252,17.254,17.251,17.252
201912231338,17.252,17.253,17.251,17.251
201912231339,17.251,17.253,17.25,17.251
201912231340,17.251,17.253,17.251,17.252
201912231341,17.252,17.253,17.251,17.251
201912231342,17.251,17.254,17.251,17.252
201912231343,17.252,17.253,17.252,17.252
201912231344,17.252,17.253,17.252,17.252
201912231345,17.252,17.253,17.251,17.252
201912231346,17.252,17.253,17.251,17.251
201912231347,17.251,17.254,17.251,17.254
201912231348,17.254,17.256,17.253,17.254
201912231349,17.254,17.254,17.254,17.254
201912231350,17.254,17.254,17.252,17.253
201912231351,17.253,17.253,17.25,17.253
201912231352,17.253,17.253,17.25,17.251
201912231353,17.251,17.252,17.25,17.25
201912231354,17.249,17.249,17.248,17.248
201912231355,17.248,17.248,17.247,17.248
201912231356,17.248,17.248,17.242,17.243
201912231357,17.243,17.243,17.243,17.243
201912231358,17.243,17.243,17.242,17.242
201912231359,17.242,17.243,17.242,17.242
201912231400,17.242,17.243,17.241,17.242
201912231401,17.242,17.243,17.238,17.238
201912231402,17.238,17.238,17.237,17.238
201912231403,17.238,17.238,17.237,17.238
201912231404,17.238,17.238,17.233,17.233
201912231405,17.233,17.233,17.232,17.233
201912231406,17.233,17.234,17.233,17.234
201912231407,17.234,17.238,17.234,17.236
201912231408,17.236,17.238,17.236,17.237
201912231409,17.237,17.238,17.237,17.237
201912231410,17.237,17.238,17.237,17.237
201912231411,17.237,17.238,17.237,17.237
201912231412,17.237,17.238,17.237,17.237
201912231413,17.237,17.238,17.237,17.237
201912231414,17.237,17.238,17.237,17.238
201912231415,17.238,17.238,17.237,17.237
201912231416,17.237,17.238,17.237,17.237
201912231417,17.237,17.238,17.237,17.238
201912231418,17.238,17.238,17.237,17.238
201912231419,17.238,17.238,17.237,17.238
201912231420,17.238,17.239,17.237,17.237
201912231421,17.236,17.238,17.236,17.238
201912231422,17.238,17.238,17.237,17.238
201912231423,17.238,17.239,17.238,17.238
201912231424,17.238,17.239,17.238,17.238
201912231425,17.239,17.239,17.237,17.238
201912231426,17.238,17.247,17.238,17.247
201912231427,17.247,17.248,17.246,17.247
201912231428,17.247,17.247,17.242,17.242
201912231429,17.242,17.247,17.242,17.247
201912231430,17.247,17.251,17.242,17.251
201912231431,17.251,17.263,17.251,17.262
201912231432,17.262,17.262,17.248,17.248
201912231433,17.248,17.253,17.248,17.252
201912231434,17.252,17.255,17.252,17.253
201912231435,17.253,17.273,17.253,17.272
201912231436,17.272,17.273,17.268,17.271
201912231437,17.272,17.279,17.271,17.272
201912231438,17.272,17.272,17.267,17.272
201912231439,17.272,17.273,17.267,17.267
201912231440,17.267,17.273,17.267,17.267
201912231441,17.267,17.268,17.263,17.267
201912231442,17.268,17.273,17.267,17.268
201912231443,17.268,17.271,17.264,17.267
201912231444,17.267,17.268,17.253,17.253
201912231445,17.253,17.264,17.253,17.263
201912231446,17.262,17.268,17.262,17.262
201912231447,17.262,17.263,17.262,17.262
201912231448,17.262,17.262,17.247,17.247
201912231449,17.248,17.258,17.248,17.258
201912231450,17.258,17.258,17.248,17.248
201912231451,17.248,17.253,17.248,17.253
201912231452,17.253,17.258,17.253,17.258
201912231453,17.258,17.263,17.258,17.263
201912231454,17.263,17.268,17.262,17.268
201912231455,17.268,17.268,17.262,17.263
201912231456,17.263,17.268,17.262,17.267
201912231457,17.267,17.27,17.263,17.263
201912231458,17.263,17.266,17.262,17.263
201912231459,17.263,17.264,17.259,17.263
201912231500,17.263,17.265,17.263,17.263
201912231501,17.263,17.263,17.262,17.263
201912231502,17.263,17.263,17.26,17.262
201912231503,17.262,17.265,17.262,17.263
201912231504,17.263,17.265,17.261,17.261
201912231505,17.261,17.261,17.258,17.26
201912231506,17.26,17.261,17.258,17.258
201912231507,17.258,17.263,17.258,17.262
201912231508,17.262,17.266,17.262,17.262
201912231509,17.262,17.264,17.262,17.262
201912231510,17.262,17.263,17.259,17.263
201912231511,17.263,17.266,17.261,17.263
201912231512,17.263,17.263,17.262,17.263
201912231513,17.263,17.268,17.262,17.263
201912231514,17.263,17.265,17.262,17.263
201912231515,17.263,17.263,17.261,17.262
201912231516,17.261,17.261,17.258,17.261
201912231517,17.261,17.263,17.261,17.262
201912231518,17.262,17.264,17.261,17.263
201912231519,17.263,17.265,17.262,17.262
201912231520,17.262,17.263,17.261,17.263
201912231521,17.263,17.264,17.261,17.262
201912231522,17.262,17.266,17.262,17.266
201912231523,17.266,17.266,17.263,17.264
201912231524,17.265,17.266,17.26,17.26
201912231525,17.26,17.262,17.26,17.262
201912231526,17.262,17.263,17.262,17.263
201912231527,17.263,17.265,17.263,17.265
201912231528,17.265,17.267,17.265,17.266
201912231529,17.266,17.277,17.265,17.276
201912231530,17.276,17.286,17.276,17.278
201912231531,17.278,17.283,17.278,17.282
201912231532,17.281,17.299,17.281,17.299
201912231533,17.299,17.301,17.294,17.296
201912231534,17.296,17.3,17.291,17.292
201912231535,17.294,17.297,17.291,17.293
201912231536,17.293,17.295,17.291,17.293
201912231537,17.293,17.302,17.292,17.302
201912231538,17.301,17.301,17.289,17.291
201912231539,17.291,17.306,17.29,17.304
201912231540,17.304,17.309,17.297,17.297
201912231541,17.297,17.297,17.292,17.296
201912231542,17.297,17.3,17.295,17.296
201912231543,17.295,17.3,17.294,17.296
201912231544,17.296,17.299,17.294,17.299
201912231545,17.299,17.302,17.296,17.296
201912231546,17.296,17.303,17.296,17.3
201912231547,17.3,17.302,17.297,17.299
201912231548,17.299,17.301,17.297,17.301
201912231549,17.301,17.302,17.3,17.3
201912231550,17.3,17.306,17.3,17.302
201912231551,17.302,17.309,17.302,17.309
201912231552,17.309,17.315,17.309,17.314
201912231553,17.314,17.316,17.311,17.316
201912231554,17.316,17.321,17.315,17.316
201912231555,17.316,17.316,17.311,17.316
201912231556,17.316,17.316,17.312,17.316
201912231557,17.316,17.316,17.311,17.316
201912231558,17.312,17.316,17.312,17.312
201912231559,17.312,17.319,17.312,17.317
201912231600,17.317,17.32,17.317,17.317
201912231601,17.317,17.33,17.317,17.328
201912231602,17.327,17.334,17.327,17.333
201912231603,17.333,17.339,17.333,17.336
201912231604,17.336,17.336,17.327,17.327
201912231605,17.327,17.331,17.326,17.331
201912231606,17.331,17.337,17.331,17.335
201912231607,17.334,17.336,17.332,17.336
201912231608,17.336,17.336,17.334,17.335
201912231609,17.335,17.335,17.331,17.331
201912231610,17.331,17.334,17.328,17.328
201912231611,17.328,17.332,17.327,17.329
201912231612,17.329,17.332,17.329,17.33
201912231613,17.329,17.334,17.329,17.331
201912231614,17.331,17.334,17.33,17.331
201912231615,17.331,17.331,17.327,17.329
201912231616,17.329,17.331,17.328,17.328
201912231617,17.328,17.331,17.328,17.329
201912231618,17.329,17.334,17.329,17.334
201912231619,17.334,17.334,17.327,17.329
201912231620,17.329,17.329,17.327,17.327
201912231621,17.327,17.328,17.324,17.327
201912231622,17.327,17.335,17.327,17.334
201912231623,17.334,17.334,17.329,17.33
201912231624,17.33,17.331,17.327,17.328
201912231625,17.328,17.33,17.327,17.33
201912231626,17.329,17.33,17.329,17.33
201912231627,17.33,17.334,17.33,17.331
201912231628,17.332,17.334,17.331,17.334
201912231629,17.334,17.339,17.334,17.337
201912231630,17.339,17.341,17.337,17.341
201912231631,17.341,17.371,17.341,17.37
201912231632,17.37,17.371,17.367,17.367
201912231633,17.367,17.367,17.367,17.367
201912231634,17.367,17.372,17.367,17.371
201912231635,17.371,17.375,17.369,17.374
201912231636,17.373,17.376,17.37,17.373
201912231637,17.373,17.39,17.373,17.38
201912231638,17.38,17.4,17.379,17.4
201912231639,17.399,17.399,17.388,17.39
201912231640,17.39,17.39,17.379,17.379
201912231641,17.379,17.383,17.379,17.38
201912231642,17.38,17.381,17.376,17.38
201912231643,17.38,17.386,17.38,17.381
201912231644,17.381,17.381,17.38,17.381
201912231645,17.381,17.381,17.377,17.379
201912231646,17.379,17.38,17.373,17.377
201912231647,17.377,17.38,17.377,17.378
201912231648,17.378,17.38,17.377,17.379
201912231649,17.379,17.382,17.379,17.38
201912231650,17.38,17.38,17.377,17.378
201912231651,17.378,17.379,17.371,17.371
201912231652,17.371,17.374,17.369,17.369
201912231653,17.369,17.377,17.369,17.377
201912231654,17.377,17.377,17.371,17.371
201912231655,17.371,17.374,17.371,17.372
201912231656,17.372,17.372,17.372,17.372
201912231657,17.372,17.375,17.372,17.374
201912231658,17.372,17.373,17.37,17.372
201912231659,17.372,17.372,17.367,17.368
201912231700,17.368,17.371,17.347,17.348
201912231701,17.349,17.359,17.348,17.357
201912231702,17.357,17.367,17.357,17.366
201912231703,17.366,17.372,17.366,17.372
201912231704,17.372,17.372,17.367,17.367
201912231705,17.367,17.372,17.367,17.367
201912231706,17.367,17.372,17.367,17.367
201912231707,17.368,17.369,17.364,17.364
201912231708,17.364,17.366,17.361,17.364
201912231709,17.364,17.369,17.364,17.366
201912231710,17.366,17.376,17.366,17.376
201912231711,17.376,17.377,17.372,17.377
201912231712,17.374,17.376,17.373,17.375
201912231713,17.375,17.375,17.37,17.371
201912231714,17.371,17.373,17.37,17.373
201912231715,17.372,17.376,17.37,17.37
201912231716,17.37,17.371,17.366,17.366
201912231717,17.366,17.366,17.357,17.364
201912231718,17.364,17.367,17.363,17.366
201912231719,17.366,17.37,17.363,17.365
201912231720,17.365,17.365,17.36,17.36
201912231721,17.36,17.36,17.35,17.35
201912231722,17.35,17.359,17.349,17.357
201912231723,17.357,17.36,17.352,17.352
201912231724,17.352,17.356,17.352,17.356
201912231725,17.356,17.357,17.353,17.353
201912231726,17.353,17.354,17.353,17.353
201912231727,17.353,17.355,17.351,17.354
201912231728,17.354,17.357,17.353,17.356
201912231729,17.356,17.357,17.355,17.356
201912231730,17.357,17.362,17.356,17.362
201912231731,17.362,17.378,17.362,17.377
201912231732,17.377,17.378,17.376,17.377
201912231733,17.377,17.388,17.377,17.388
201912231734,17.388,17.388,17.383,17.387
201912231735,17.387,17.387,17.381,17.384
201912231736,17.384,17.385,17.382,17.384
201912231737,17.383,17.386,17.377,17.379
201912231738,17.379,17.382,17.378,17.378
201912231739,17.378,17.378,17.373,17.377
201912231740,17.377,17.378,17.373,17.376
201912231741,17.376,17.379,17.367,17.372
201912231742,17.372,17.372,17.371,17.371
201912231743,17.371,17.372,17.361,17.366
201912231744,17.366,17.366,17.365,17.365
201912231745,17.365,17.367,17.364,17.366
201912231746,17.366,17.37,17.366,17.368
201912231747,17.368,17.372,17.366,17.372
201912231748,17.372,17.372,17.367,17.367
201912231749,17.367,17.369,17.367,17.369
201912231750,17.368,17.373,17.367,17.372
201912231751,17.372,17.372,17.367,17.368
201912231752,17.368,17.37,17.367,17.367
201912231753,17.367,17.37,17.364,17.367
201912231754,17.367,17.374,17.366,17.374
201912231755,17.374,17.374,17.373,17.374
201912231756,17.374,17.374,17.369,17.37
201912231757,17.369,17.369,17.367,17.367
201912231758,17.367,17.372,17.367,17.37
201912231759,17.369,17.37,17.367,17.368
201912231800,17.368,17.369,17.367,17.368
201912231801,17.368,17.377,17.368,17.374
201912231802,17.374,17.374,17.372,17.374
201912231803,17.374,17.374,17.372,17.372
201912231804,17.372,17.378,17.372,17.373
201912231805,17.373,17.377,17.372,17.374
201912231806,17.374,17.374,17.373,17.373
201912231807,17.373,17.382,17.373,17.382
201912231808,17.382,17.383,17.382,17.382
201912231809,17.382,17.388,17.382,17.388
201912231810,17.388,17.388,17.383,17.387
201912231811,17.387,17.388,17.387,17.387
201912231812,17.387,17.388,17.384,17.386
201912231813,17.386,17.386,17.383,17.386
201912231814,17.386,17.386,17.383,17.384
201912231815,17.384,17.385,17.377,17.377
201912231816,17.377,17.377,17.373,17.377
201912231817,17.377,17.378,17.372,17.377
201912231818,17.377,17.382,17.377,17.382
201912231819,17.382,17.388,17.382,17.384
201912231820,17.384,17.388,17.384,17.386
201912231821,17.386,17.387,17.383,17.383
201912231822,17.383,17.384,17.382,17.382
201912231823,17.382,17.382,17.379,17.379
201912231824,17.379,17.382,17.378,17.379
201912231825,17.379,17.379,17.374,17.375
201912231826,17.375,17.377,17.373,17.373
201912231827,17.373,17.373,17.367,17.368
201912231828,17.368,17.374,17.368,17.374
201912231829,17.374,17.374,17.37,17.373
201912231830,17.372,17.374,17.367,17.367
201912231831,17.367,17.377,17.366,17.373
201912231832,17.372,17.374,17.371,17.371
201912231833,17.371,17.371,17.366,17.367
201912231834,17.367,17.37,17.367,17.369
201912231835,17.369,17.372,17.367,17.371
201912231836,17.371,17.372,17.368,17.368
201912231837,17.368,17.368,17.366,17.366
201912231838,17.366,17.368,17.365,17.368
201912231839,17.368,17.371,17.368,17.371
201912231840,17.371,17.372,17.368,17.372
201912231841,17.372,17.372,17.368,17.368
201912231842,17.368,17.371,17.368,17.371
201912231843,17.371,17.372,17.371,17.372
201912231844,17.372,17.372,17.369,17.372
201912231845,17.372,17.372,17.367,17.367
201912231846,17.367,17.369,17.367,17.369
201912231847,17.368,17.384,17.368,17.383
201912231848,17.382,17.384,17.381,17.383
201912231849,17.383,17.388,17.383,17.386
201912231850,17.386,17.392,17.386,17.391
201912231851,17.39,17.39,17.387,17.388
201912231852,17.388,17.392,17.388,17.389
201912231853,17.389,17.389,17.388,17.388
201912231854,17.388,17.39,17.388,17.389
201912231855,17.389,17.39,17.388,17.388
201912231856,17.388,17.392,17.388,17.388
201912231857,17.388,17.391,17.387,17.388
201912231858,17.388,17.389,17.386,17.389
201912231859,17.389,17.391,17.387,17.388
201912231900,17.388,17.388,17.387,17.388
201912231901,17.388,17.392,17.388,17.39
201912231902,17.39,17.393,17.39,17.39
201912231903,17.39,17.397,17.39,17.396
201912231904,17.396,17.397,17.389,17.391
201912231905,17.391,17.393,17.391,17.391
201912231906,17.391,17.392,17.381,17.382
201912231907,17.382,17.383,17.376,17.377
201912231908,17.377,17.378,17.376,17.378
201912231909,17.378,17.38,17.368,17.37
201912231910,17.37,17.373,17.37,17.372
201912231911,17.373,17.373,17.368,17.368
201912231912,17.368,17.369,17.365,17.367
201912231913,17.367,17.367,17.363,17.363
201912231914,17.363,17.364,17.363,17.364
201912231915,17.364,17.364,17.362,17.364
201912231916,17.362,17.366,17.361,17.366
201912231917,17.366,17.366,17.36,17.361
201912231918,17.361,17.361,17.36,17.36
201912231919,17.36,17.365,17.357,17.364
201912231920,17.365,17.365,17.362,17.365
201912231921,17.365,17.369,17.365,17.369
201912231922,17.369,17.37,17.366,17.366
201912231923,17.366,17.374,17.366,17.371
201912231924,17.371,17.378,17.369,17.371
201912231925,17.371,17.375,17.371,17.375
201912231926,17.375,17.378,17.375,17.376
201912231927,17.376,17.376,17.366,17.371
201912231928,17.371,17.371,17.37,17.37
201912231929,17.37,17.371,17.366,17.366
201912231930,17.365,17.366,17.36,17.361
201912231931,17.361,17.362,17.361,17.361
201912231932,17.361,17.361,17.357,17.358
201912231933,17.358,17.36,17.357,17.358
201912231934,17.358,17.359,17.356,17.358
201912231935,17.359,17.359,17.358,17.359
201912231936,17.359,17.364,17.358,17.364
201912231937,17.365,17.369,17.365,17.369
201912231938,17.37,17.37,17.367,17.367
201912231939,17.367,17.368,17.366,17.366
201912231940,17.366,17.368,17.366,17.368
201912231941,17.368,17.368,17.364,17.367
201912231942,17.367,17.368,17.366,17.368
201912231943,17.368,17.369,17.368,17.368
201912231944,17.368,17.373,17.368,17.371
201912231945,17.371,17.372,17.371,17.371
201912231946,17.371,17.371,17.358,17.36
201912231947,17.36,17.363,17.36,17.363
201912231948,17.363,17.363,17.361,17.362
201912231949,17.361,17.365,17.361,17.362
201912231950,17.361,17.363,17.361,17.361
201912231951,17.361,17.363,17.361,17.361
201912231952,17.361,17.361,17.36,17.36
201912231953,17.359,17.361,17.358,17.361
201912231954,17.361,17.361,17.358,17.358
201912231955,17.358,17.361,17.357,17.361
201912231956,17.361,17.365,17.36,17.365
201912231957,17.365,17.366,17.363,17.365
201912231958,17.365,17.365,17.359,17.36
201912231959,17.36,17.362,17.36,17.361
201912232000,17.361,17.363,17.36,17.363
201912232001,17.363,17.366,17.363,17.365
201912232002,17.365,17.366,17.362,17.365
201912232003,17.365,17.367,17.365,17.366
201912232004,17.366,17.366,17.366,17.366
201912232005,17.366,17.366,17.363,17.363
201912232006,17.365,17.365,17.363,17.363
201912232007,17.363,17.363,17.362,17.363
201912232008,17.363,17.364,17.363,17.363
201912232009,17.363,17.363,17.361,17.362
201912232010,17.362,17.362,17.356,17.36
201912232011,17.36,17.36,17.356,17.357
201912232012,17.357,17.357,17.355,17.355
201912232013,17.355,17.356,17.355,17.356
201912232014,17.356,17.357,17.356,17.356
201912232015,17.356,17.356,17.355,17.356
201912232016,17.356,17.357,17.356,17.356
201912232017,17.356,17.356,17.355,17.356
201912232018,17.356,17.36,17.356,17.357
201912232019,17.357,17.361,17.357,17.36
201912232020,17.36,17.361,17.36,17.361
201912232021,17.361,17.365,17.361,17.365
201912232022,17.365,17.366,17.364,17.364
201912232023,17.364,17.366,17.364,17.365
201912232024,17.365,17.366,17.362,17.362
201912232025,17.362,17.363,17.361,17.362
201912232026,17.362,17.362,17.362,17.362
201912232027,17.362,17.365,17.362,17.363
201912232028,17.363,17.367,17.363,17.365
201912232029,17.365,17.367,17.365,17.367
201912232030,17.367,17.367,17.365,17.366
201912232031,17.366,17.37,17.366,17.367
201912232032,17.367,17.368,17.367,17.367
201912232033,17.367,17.368,17.366,17.366
201912232034,17.366,17.367,17.366,17.367
201912232035,17.367,17.368,17.362,17.362
201912232036,17.362,17.363,17.357,17.357
201912232037,17.357,17.357,17.353,17.353
201912232038,17.353,17.354,17.352,17.353
201912232039,17.353,17.353,17.351,17.352
201912232040,17.352,17.354,17.352,17.353
201912232041,17.353,17.355,17.353,17.353
201912232042,17.353,17.353,17.352,17.352
201912232043,17.352,17.353,17.352,17.353
201912232044,17.353,17.356,17.352,17.352
201912232045,17.352,17.356,17.352,17.353
201912232046,17.353,17.354,17.352,17.354
201912232047,17.354,17.354,17.348,17.348
201912232048,17.345,17.346,17.341,17.343
201912232049,17.343,17.347,17.342,17.347
201912232050,17.348,17.348,17.347,17.347
201912232051,17.347,17.347,17.343,17.344
201912232052,17.344,17.345,17.344,17.344
201912232053,17.344,17.348,17.343,17.346
201912232054,17.346,17.349,17.346,17.346
201912232055,17.346,17.347,17.346,17.347
201912232056,17.348,17.353,17.348,17.353
201912232057,17.353,17.354,17.353,17.353
201912232058,17.353,17.357,17.353,17.354
201912232059,17.354,17.354,17.348,17.348
201912232100,17.349,17.363,17.349,17.363
201912232101,17.363,17.372,17.363,17.369
201912232102,17.37,17.371,17.364,17.364
201912232103,17.364,17.369,17.364,17.368
201912232104,17.368,17.372,17.367,17.371
201912232105,17.371,17.371,17.367,17.367
201912232106,17.367,17.367,17.364,17.365
201912232107,17.365,17.365,17.359,17.359
201912232108,17.359,17.359,17.357,17.357
201912232109,17.357,17.357,17.344,17.355
201912232110,17.358,17.364,17.355,17.361
201912232111,17.36,17.363,17.357,17.357
201912232112,17.357,17.362,17.357,17.36
201912232113,17.36,17.361,17.355,17.355
201912232114,17.355,17.355,17.349,17.35
201912232115,17.35,17.351,17.349,17.349
201912232116,17.349,17.35,17.346,17.346
201912232117,17.346,17.351,17.346,17.35
201912232118,17.35,17.35,17.346,17.346
201912232119,17.346,17.346,17.344,17.345
201912232120,17.346,17.35,17.34,17.35
201912232121,17.35,17.351,17.349,17.35
201912232122,17.35,17.351,17.346,17.347
201912232123,17.347,17.347,17.335,17.335
201912232124,17.335,17.34,17.33,17.331
201912232125,17.33,17.338,17.33,17.335
201912232126,17.335,17.336,17.32,17.32
201912232127,17.321,17.322,17.319,17.32
201912232128,17.319,17.323,17.318,17.32
201912232129,17.32,17.321,17.317,17.318
201912232130,17.318,17.323,17.318,17.323
201912232131,17.323,17.324,17.32,17.32
201912232132,17.322,17.322,17.32,17.32
201912232133,17.32,17.321,17.32,17.321
201912232134,17.321,17.322,17.32,17.321
201912232135,17.321,17.321,17.315,17.315
201912232136,17.315,17.316,17.311,17.315
201912232137,17.315,17.317,17.311,17.311
201912232138,17.311,17.311,17.307,17.307
201912232139,17.307,17.311,17.305,17.306
201912232140,17.306,17.313,17.305,17.311
201912232141,17.312,17.312,17.308,17.308
201912232142,17.308,17.311,17.307,17.31
201912232143,17.31,17.312,17.307,17.307
201912232144,17.307,17.307,17.305,17.305
201912232145,17.305,17.32,17.303,17.318
201912232146,17.318,17.318,17.316,17.317
201912232147,17.317,17.317,17.306,17.312
201912232148,17.312,17.312,17.31,17.311
201912232149,17.311,17.318,17.31,17.313
201912232150,17.313,17.316,17.308,17.314
201912232151,17.315,17.315,17.312,17.315
201912232152,17.315,17.317,17.315,17.316
201912232153,17.316,17.318,17.312,17.314
201912232154,17.315,17.316,17.312,17.312
201912232155,17.312,17.312,17.3,17.305
201912232156,17.305,17.307,17.305,17.305
201912232157,17.305,17.306,17.295,17.301
201912232158,17.301,17.308,17.301,17.307
201912232159,17.307,17.307,17.298,17.298
201912232200,17.298,17.302,17.296,17.297
201912232201,17.297,17.311,17.297,17.307
201912232202,17.307,17.307,17.298,17.3
201912232203,17.302,17.319,17.302,17.314
201912232204,17.314,17.315,17.309,17.309
201912232205,17.309,17.311,17.293,17.293
201912232206,17.291,17.298,17.288,17.298
201912232207,17.296,17.3,17.294,17.299
201912232208,17.299,17.299,17.285,17.286
201912232209,17.286,17.288,17.28,17.288
201912232210,17.288,17.298,17.285,17.298
201912232211,17.298,17.298,17.285,17.286
201912232212,17.287,17.29,17.284,17.285
201912232213,17.285,17.294,17.285,17.294
201912232214,17.294,17.294,17.284,17.284
201912232215,17.283,17.283,17.26,17.273
201912232216,17.273,17.273,17.265,17.268
201912232217,17.268,17.284,17.268,17.282
201912232218,17.282,17.283,17.279,17.281
201912232219,17.281,17.281,17.277,17.279
201912232220,17.278,17.299,17.277,17.299
201912232221,17.299,17.313,17.299,17.307
201912232222,17.307,17.307,17.301,17.302
201912232223,17.302,17.303,17.298,17.301
201912232224,17.302,17.308,17.302,17.303
201912232225,17.303,17.308,17.301,17.308
201912232226,17.308,17.314,17.306,17.306
201912232227,17.306,17.313,17.306,17.313
201912232228,17.313,17.313,17.306,17.308
201912232229,17.308,17.313,17.307,17.312
201912232230,17.312,17.338,17.312,17.328
201912232231,17.328,17.346,17.328,17.343
201912232232,17.343,17.348,17.342,17.343
201912232233,17.343,17.348,17.331,17.331
201912232234,17.332,17.336,17.329,17.331
201912232235,17.331,17.348,17.318,17.348
201912232236,17.348,17.348,17.338,17.343
201912232237,17.341,17.344,17.338,17.34
201912232238,17.339,17.352,17.339,17.352
201912232239,17.352,17.354,17.348,17.354
201912232240,17.354,17.356,17.349,17.35
201912232241,17.349,17.349,17.341,17.345
201912232242,17.346,17.352,17.344,17.35
201912232243,17.35,17.35,17.343,17.346
201912232244,17.347,17.348,17.339,17.339
201912232245,17.339,17.339,17.33,17.332
201912232246,17.332,17.338,17.328,17.334
201912232247,17.334,17.346,17.334,17.346
201912232248,17.346,17.347,17.328,17.328
201912232249,17.328,17.341,17.328,17.34
201912232250,17.34,17.343,17.336,17.342
201912232251,17.342,17.343,17.333,17.333
201912232252,17.333,17.337,17.333,17.334
201912232253,17.335,17.336,17.333,17.335
201912232254,17.335,17.342,17.333,17.338
201912232255,17.338,17.34,17.338,17.34
201912232256,17.339,17.349,17.339,17.348
201912232257,17.349,17.351,17.348,17.351
201912232258,17.351,17.351,17.345,17.348
201912232259,17.348,17.35,17.348,17.348
201912232300,17.348,17.352,17.347,17.347
201912232301,17.347,17.349,17.344,17.347
201912232302,17.347,17.347,17.333,17.335
201912232303,17.334,17.338,17.331,17.336
201912232304,17.336,17.342,17.335,17.341
201912232305,17.341,17.342,17.327,17.327
201912232306,17.325,17.325,17.318,17.319
201912232307,17.319,17.32,17.316,17.317
201912232308,17.317,17.322,17.315,17.315
201912232309,17.315,17.315,17.308,17.313
201912232310,17.312,17.315,17.309,17.314
201912232311,17.314,17.32,17.313,17.317
201912232312,17.317,17.325,17.315,17.325
201912232313,17.325,17.326,17.316,17.316
201912232314,17.315,17.321,17.315,17.32
201912232315,17.32,17.32,17.313,17.315
201912232316,17.315,17.315,17.301,17.303
201912232317,17.303,17.305,17.303,17.304
201912232318,17.304,17.304,17.285,17.289
201912232319,17.289,17.299,17.287,17.295
201912232320,17.294,17.297,17.289,17.295
201912232321,17.295,17.296,17.294,17.296
201912232322,17.296,17.296,17.279,17.284
201912232323,17.284,17.29,17.284,17.29
201912232324,17.29,17.294,17.29,17.29
201912232325,17.29,17.307,17.288,17.307
201912232326,17.307,17.307,17.3,17.304
201912232327,17.302,17.305,17.302,17.305
201912232328,17.305,17.307,17.305,17.306
201912232329,17.305,17.306,17.301,17.302
201912232330,17.304,17.307,17.302,17.306
201912232331,17.306,17.312,17.305,17.305
201912232332,17.306,17.314,17.305,17.312
201912232333,17.312,17.33,17.311,17.329
201912232334,17.329,17.331,17.325,17.33
201912232335,17.33,17.335,17.33,17.335
201912232336,17.335,17.336,17.335,17.336
201912232337,17.336,17.342,17.335,17.342
201912232338,17.342,17.342,17.335,17.34
201912232339,17.34,17.344,17.335,17.335
201912232340,17.335,17.341,17.335,17.341
201912232341,17.341,17.341,17.335,17.339
201912232342,17.34,17.345,17.34,17.341
201912232343,17.341,17.346,17.341,17.345
201912232344,17.345,17.345,17.335,17.336
201912232345,17.336,17.345,17.336,17.342
201912232346,17.341,17.345,17.339,17.342
201912232347,17.342,17.349,17.342,17.347
201912232348,17.347,17.352,17.346,17.352
201912232349,17.352,17.352,17.347,17.35
201912232350,17.35,17.356,17.348,17.348
201912232351,17.348,17.352,17.348,17.35
201912232352,17.35,17.357,17.35,17.354
201912232353,17.354,17.357,17.348,17.349
201912232354,17.349,17.351,17.347,17.35
201912232355,17.35,17.356,17.35,17.356
201912232356,17.356,17.36,17.351,17.354
201912232357,17.354,17.356,17.353,17.354
201912232358,17.354,17.355,17.352,17.355
201912232359,17.355,17.357,17.352,17.356
201912240000,17.356,17.359,17.349,17.349
201912240001,17.349,17.35,17.344,17.345
201912240002,17.345,17.354,17.345,17.35
201912240003,17.35,17.359,17.348,17.359
201912240004,17.359,17.361,17.359,17.36
201912240005,17.36,17.366,17.36,17.366
201912240006,17.366,17.367,17.363,17.364
201912240007,17.364,17.372,17.364,17.37
201912240008,17.37,17.371,17.367,17.368
201912240009,17.368,17.39,17.368,17.387
201912240010,17.387,17.394,17.386,17.389
201912240011,17.389,17.392,17.387,17.387
201912240012,17.387,17.39,17.384,17.389
201912240013,17.389,17.393,17.387,17.391
201912240014,17.391,17.397,17.391,17.396
201912240015,17.396,17.399,17.393,17.394
201912240016,17.394,17.395,17.39,17.394
201912240017,17.394,17.394,17.39,17.394
201912240018,17.393,17.394,17.386,17.387
201912240019,17.387,17.387,17.378,17.38
201912240020,17.38,17.382,17.377,17.378
201912240021,17.378,17.38,17.376,17.377
201912240022,17.377,17.381,17.377,17.377
201912240023,17.377,17.377,17.372,17.375
201912240024,17.375,17.376,17.371,17.372
201912240025,17.371,17.376,17.37,17.372
201912240026,17.372,17.376,17.371,17.376
201912240027,17.376,17.377,17.374,17.375
201912240028,17.374,17.382,17.373,17.377
201912240029,17.377,17.382,17.376,17.381
201912240030,17.381,17.382,17.38,17.382
201912240031,17.382,17.383,17.38,17.381
201912240032,17.381,17.386,17.381,17.382
201912240033,17.382,17.392,17.382,17.386
201912240034,17.386,17.394,17.386,17.393
201912240035,17.393,17.397,17.392,17.397
201912240036,17.397,17.397,17.395,17.396
201912240037,17.396,17.397,17.391,17.394
201912240038,17.395,17.413,17.395,17.412
201912240039,17.412,17.416,17.407,17.407
201912240040,17.407,17.411,17.406,17.406
201912240041,17.406,17.406,17.402,17.403
201912240042,17.403,17.404,17.392,17.395
201912240043,17.395,17.406,17.394,17.405
201912240044,17.405,17.405,17.402,17.403
201912240045,17.403,17.404,17.402,17.404
201912240046,17.404,17.409,17.403,17.407
201912240047,17.407,17.409,17.407,17.408
201912240048,17.408,17.409,17.406,17.408
201912240049,17.408,17.418,17.408,17.412
201912240050,17.412,17.418,17.412,17.417
201912240051,17.416,17.418,17.415,17.416
201912240052,17.416,17.419,17.412,17.415
201912240053,17.415,17.416,17.413,17.413
201912240054,17.413,17.413,17.403,17.407
201912240055,17.407,17.408,17.4,17.402
201912240056,17.401,17.403,17.398,17.403
201912240057,17.403,17.407,17.398,17.398
201912240058,17.398,17.402,17.397,17.399
201912240059,17.399,17.404,17.399,17.402
201912240100,17.402,17.403,17.386,17.39
201912240101,17.39,17.391,17.386,17.388
201912240102,17.388,17.388,17.379,17.384
201912240103,17.384,17.384,17.378,17.379
201912240104,17.379,17.385,17.378,17.379
201912240105,17.379,17.383,17.375,17.383
201912240106,17.383,17.388,17.382,17.387
201912240107,17.388,17.388,17.385,17.386
201912240108,17.387,17.388,17.382,17.387
201912240109,17.387,17.388,17.383,17.387
201912240110,17.387,17.39,17.386,17.387
201912240111,17.387,17.388,17.377,17.383
201912240112,17.383,17.384,17.383,17.383
201912240113,17.383,17.384,17.383,17.384
201912240114,17.383,17.389,17.383,17.388
201912240115,17.388,17.389,17.385,17.388
201912240116,17.388,17.388,17.387,17.388
201912240117,17.388,17.388,17.385,17.385
201912240118,17.384,17.389,17.384,17.387
201912240119,17.387,17.388,17.387,17.388
201912240120,17.387,17.388,17.383,17.388
201912240121,17.388,17.388,17.383,17.384
201912240122,17.384,17.388,17.384,17.388
201912240123,17.388,17.393,17.388,17.393
201912240124,17.393,17.393,17.393,17.393
201912240125,17.393,17.394,17.392,17.392
201912240126,17.392,17.393,17.392,17.392
201912240127,17.392,17.392,17.388,17.392
201912240128,17.392,17.393,17.387,17.388
201912240129,17.388,17.393,17.383,17.393
201912240130,17.393,17.394,17.388,17.393
201912240131,17.393,17.393,17.391,17.392
201912240132,17.392,17.393,17.392,17.392
201912240133,17.392,17.393,17.392,17.393
201912240134,17.393,17.398,17.393,17.398
201912240135,17.398,17.404,17.398,17.403
201912240136,17.403,17.407,17.402,17.407
201912240137,17.407,17.407,17.403,17.404
201912240138,17.404,17.409,17.404,17.408
201912240139,17.407,17.408,17.406,17.407
201912240140,17.407,17.407,17.402,17.402
201912240141,17.402,17.403,17.402,17.403
201912240142,17.403,17.407,17.402,17.406
201912240143,17.406,17.407,17.402,17.402
201912240144,17.402,17.403,17.398,17.398
201912240145,17.398,17.403,17.397,17.402
201912240146,17.402,17.403,17.397,17.401
201912240147,17.401,17.405,17.401,17.405
201912240148,17.405,17.406,17.404,17.404
201912240149,17.404,17.405,17.403,17.404
201912240150,17.404,17.404,17.401,17.401
201912240151,17.401,17.401,17.4,17.4
201912240152,17.4,17.401,17.399,17.4
201912240153,17.4,17.401,17.4,17.401
201912240154,17.401,17.401,17.398,17.398
201912240155,17.398,17.398,17.393,17.398
201912240156,17.4,17.401,17.395,17.396
201912240157,17.396,17.397,17.393,17.395
201912240158,17.395,17.396,17.392,17.395
201912240159,17.395,17.401,17.394,17.401
201912240200,17.401,17.401,17.399,17.401
201912240201,17.401,17.406,17.401,17.405
201912240202,17.405,17.406,17.403,17.405
201912240203,17.405,17.41,17.405,17.407
201912240204,17.407,17.412,17.406,17.41
201912240205,17.41,17.412,17.41,17.41
201912240206,17.41,17.417,17.41,17.417
201912240207,17.417,17.422,17.417,17.42
201912240208,17.42,17.421,17.416,17.417
201912240209,17.417,17.423,17.417,17.423
201912240210,17.422,17.423,17.422,17.423
201912240211,17.423,17.423,17.422,17.422
201912240212,17.422,17.423,17.422,17.423
201912240213,17.423,17.424,17.418,17.418
201912240214,17.418,17.421,17.418,17.419
201912240215,17.419,17.42,17.419,17.419
201912240216,17.419,17.425,17.419,17.424
201912240217,17.424,17.425,17.421,17.424
201912240218,17.424,17.424,17.42,17.421
201912240219,17.421,17.425,17.42,17.425
201912240220,17.425,17.426,17.425,17.426
201912240221,17.426,17.432,17.426,17.429
201912240222,17.429,17.434,17.429,17.432
201912240223,17.432,17.432,17.429,17.429
201912240224,17.429,17.429,17.426,17.427
201912240225,17.427,17.427,17.423,17.425
201912240226,17.425,17.426,17.424,17.426
201912240227,17.426,17.426,17.419,17.42
201912240228,17.42,17.421,17.418,17.419
201912240229,17.419,17.426,17.419,17.421
201912240230,17.421,17.421,17.418,17.42
201912240231,17.42,17.42,17.418,17.42
201912240232,17.42,17.421,17.418,17.42
201912240233,17.419,17.426,17.418,17.424
201912240234,17.424,17.425,17.418,17.419
201912240235,17.419,17.42,17.413,17.413
201912240236,17.413,17.416,17.413,17.416
201912240237,17.421,17.421,17.419,17.421
201912240238,17.421,17.421,17.42,17.421
201912240239,17.421,17.421,17.419,17.419
201912240240,17.419,17.424,17.418,17.421
201912240241,17.421,17.421,17.415,17.416
201912240242,17.416,17.416,17.412,17.415
201912240243,17.416,17.416,17.414,17.416
201912240244,17.415,17.416,17.414,17.415
201912240245,17.414,17.42,17.414,17.419
201912240246,17.419,17.419,17.416,17.417
201912240247,17.417,17.418,17.413,17.418
201912240248,17.418,17.419,17.418,17.419
201912240249,17.419,17.42,17.418,17.419
201912240250,17.419,17.424,17.419,17.421
201912240251,17.422,17.424,17.42,17.424
201912240252,17.424,17.425,17.42,17.423
201912240253,17.423,17.424,17.42,17.42
201912240254,17.42,17.425,17.42,17.423
201912240255,17.423,17.424,17.42,17.42
201912240256,17.42,17.421,17.42,17.42
201912240257,17.42,17.42,17.415,17.418
201912240258,17.419,17.421,17.418,17.42
201912240259,17.42,17.421,17.419,17.419
201912240300,17.419,17.45,17.419,17.441
201912240301,17.441,17.447,17.438,17.443
201912240302,17.443,17.448,17.435,17.438
201912240303,17.438,17.439,17.434,17.438
201912240304,17.438,17.44,17.433,17.439
201912240305,17.439,17.443,17.436,17.44
201912240306,17.44,17.44,17.434,17.434
201912240307,17.434,17.434,17.427,17.428
201912240308,17.428,17.428,17.427,17.428
201912240309,17.428,17.431,17.427,17.427
201912240310,17.427,17.429,17.427,17.428
201912240311,17.428,17.441,17.428,17.441
201912240312,17.441,17.441,17.435,17.435
201912240313,17.435,17.436,17.434,17.436
201912240314,17.439,17.439,17.43,17.43
201912240315,17.43,17.435,17.43,17.434
201912240316,17.434,17.435,17.432,17.435
201912240317,17.435,17.436,17.429,17.43
201912240318,17.43,17.434,17.427,17.427
201912240319,17.427,17.429,17.424,17.427
201912240320,17.427,17.428,17.422,17.422
201912240321,17.422,17.423,17.412,17.413
201912240322,17.413,17.417,17.412,17.416
201912240323,17.416,17.421,17.416,17.421
201912240324,17.421,17.44,17.42,17.439
201912240325,17.436,17.44,17.435,17.436
201912240326,17.436,17.44,17.435,17.436
201912240327,17.436,17.436,17.433,17.435
201912240328,17.435,17.435,17.423,17.425
201912240329,17.425,17.426,17.419,17.42
201912240330,17.419,17.42,17.413,17.413
201912240331,17.414,17.419,17.414,17.415
201912240332,17.415,17.415,17.41,17.411
201912240333,17.411,17.411,17.406,17.409
201912240334,17.409,17.409,17.406,17.406
201912240335,17.406,17.409,17.399,17.4
201912240336,17.4,17.4,17.394,17.395
201912240337,17.395,17.396,17.39,17.391
201912240338,17.391,17.394,17.39,17.391
201912240339,17.391,17.396,17.39,17.396
201912240340,17.396,17.396,17.394,17.395
201912240341,17.395,17.399,17.395,17.399
201912240342,17.399,17.399,17.396,17.396
201912240343,17.396,17.396,17.394,17.395
201912240344,17.395,17.395,17.394,17.395
201912240345,17.396,17.396,17.389,17.39
201912240346,17.39,17.391,17.388,17.391
201912240347,17.391,17.395,17.39,17.394
201912240348,17.394,17.396,17.394,17.395
201912240349,17.395,17.397,17.395,17.397
201912240350,17.397,17.397,17.395,17.395
201912240351,17.395,17.395,17.391,17.395
201912240352,17.395,17.396,17.395,17.395
201912240353,17.395,17.397,17.395,17.396
201912240354,17.396,17.397,17.395,17.395
201912240355,17.395,17.397,17.395,17.397
201912240356,17.397,17.399,17.395,17.397
201912240357,17.397,17.399,17.395,17.395
201912240358,17.395,17.402,17.395,17.401
201912240359,17.401,17.405,17.401,17.405
201912240400,17.405,17.412,17.405,17.412
201912240401,17.412,17.414,17.41,17.413
201912240402,17.414,17.415,17.412,17.415
201912240403,17.415,17.416,17.414,17.416
201912240404,17.416,17.416,17.411,17.412
201912240405,17.412,17.416,17.412,17.416
201912240406,17.416,17.417,17.414,17.415
201912240407,17.415,17.417,17.414,17.416
201912240408,17.416,17.416,17.415,17.415
201912240409,17.415,17.416,17.415,17.416
201912240410,17.416,17.417,17.415,17.415
201912240411,17.415,17.416,17.414,17.415
201912240412,17.415,17.416,17.414,17.414
201912240413,17.414,17.416,17.414,17.416
201912240414,17.416,17.416,17.409,17.41
201912240415,17.41,17.41,17.409,17.41
201912240416,17.41,17.41,17.408,17.409
201912240417,17.409,17.41,17.409,17.41
201912240418,17.41,17.411,17.41,17.411
201912240419,17.411,17.415,17.411,17.411
201912240420,17.411,17.416,17.411,17.416
201912240421,17.414,17.414,17.409,17.409
201912240422,17.409,17.411,17.409,17.411
201912240423,17.411,17.412,17.409,17.41
201912240424,17.41,17.411,17.409,17.41
201912240425,17.41,17.411,17.406,17.406
201912240426,17.406,17.409,17.406,17.409
201912240427,17.409,17.409,17.406,17.406
201912240428,17.406,17.406,17.404,17.406
201912240429,17.406,17.406,17.404,17.406
201912240430,17.409,17.411,17.406,17.406
201912240431,17.406,17.406,17.404,17.405
201912240432,17.405,17.405,17.403,17.403
201912240433,17.403,17.406,17.403,17.405
201912240434,17.405,17.405,17.403,17.405
201912240435,17.405,17.405,17.403,17.405
201912240436,17.405,17.405,17.404,17.405
201912240437,17.405,17.408,17.404,17.408
201912240438,17.408,17.409,17.408,17.408
201912240439,17.408,17.409,17.408,17.409
201912240440,17.409,17.409,17.408,17.409
201912240441,17.409,17.41,17.408,17.409
201912240442,17.409,17.429,17.409,17.429
201912240443,17.429,17.429,17.426,17.429
201912240444,17.429,17.43,17.429,17.429
201912240445,17.429,17.429,17.426,17.426
201912240446,17.426,17.434,17.426,17.43
201912240447,17.43,17.432,17.429,17.431
201912240448,17.431,17.434,17.43,17.43
201912240449,17.43,17.43,17.428,17.43
201912240450,17.43,17.43,17.428,17.43
201912240451,17.429,17.429,17.428,17.428
201912240452,17.428,17.43,17.428,17.429
201912240453,17.429,17.431,17.428,17.43
201912240454,17.43,17.431,17.428,17.429
201912240455,17.429,17.43,17.429,17.429
201912240456,17.429,17.431,17.428,17.431
201912240457,17.429,17.43,17.428,17.429
201912240458,17.429,17.43,17.428,17.428
201912240459,17.428,17.431,17.428,17.43
201912240500,17.43,17.43,17.428,17.428
201912240501,17.428,17.429,17.428,17.429
201912240502,17.429,17.43,17.429,17.429
201912240503,17.429,17.429,17.428,17.429
201912240504,17.429,17.43,17.428,17.428
201912240505,17.428,17.429,17.428,17.428
201912240506,17.428,17.428,17.425,17.428
201912240507,17.428,17.429,17.428,17.428
201912240508,17.428,17.43,17.428,17.43
201912240509,17.43,17.43,17.428,17.428
201912240510,17.428,17.429,17.428,17.428
201912240511,17.428,17.43,17.428,17.428
201912240512,17.428,17.43,17.428,17.43
201912240513,17.43,17.431,17.43,17.43
201912240514,17.43,17.431,17.429,17.43
201912240515,17.43,17.43,17.429,17.43
201912240516,17.43,17.43,17.427,17.427
201912240517,17.427,17.428,17.421,17.422
201912240518,17.421,17.423,17.421,17.423
201912240519,17.423,17.424,17.421,17.423
201912240520,17.423,17.423,17.421,17.422
201912240521,17.422,17.423,17.422,17.422
201912240522,17.422,17.423,17.422,17.423
201912240523,17.423,17.423,17.421,17.423
201912240524,17.423,17.424,17.422,17.422
201912240525,17.422,17.423,17.422,17.422
201912240526,17.423,17.428,17.423,17.427
201912240527,17.427,17.427,17.422,17.424
201912240528,17.424,17.424,17.422,17.422
201912240529,17.422,17.423,17.422,17.422
201912240530,17.422,17.423,17.419,17.419
201912240531,17.419,17.419,17.417,17.419
201912240532,17.419,17.424,17.419,17.424
201912240533,17.424,17.424,17.421,17.423
201912240534,17.423,17.424,17.423,17.424
201912240535,17.424,17.424,17.421,17.424
201912240536,17.424,17.424,17.424,17.424
201912240537,17.424,17.424,17.424,17.424
201912240538,17.424,17.424,17.424,17.424
201912240539,17.424,17.424,17.423,17.424
201912240540,17.424,17.425,17.424,17.424
201912240541,17.425,17.425,17.424,17.425
201912240542,17.425,17.425,17.424,17.424
201912240543,17.424,17.425,17.424,17.425
201912240544,17.425,17.425,17.424,17.425
201912240545,17.425,17.425,17.424,17.424
201912240546,17.424,17.425,17.424,17.424
201912240547,17.424,17.426,17.424,17.426
201912240548,17.426,17.426,17.424,17.424
201912240549,17.424,17.425,17.424,17.425
201912240550,17.425,17.425,17.424,17.424
201912240551,17.424,17.425,17.424,17.425
201912240552,17.425,17.425,17.42,17.42
201912240553,17.419,17.42,17.419,17.419
201912240554,17.419,17.421,17.419,17.42
201912240555,17.42,17.421,17.419,17.421
201912240556,17.421,17.421,17.419,17.42
201912240557,17.42,17.421,17.42,17.421
201912240558,17.421,17.425,17.421,17.425
201912240559,17.425,17.425,17.424,17.425
201912240600,17.424,17.424,17.42,17.421
201912240601,17.421,17.421,17.419,17.42
201912240602,17.42,17.421,17.419,17.42
201912240603,17.419,17.42,17.419,17.419
201912240604,17.419,17.419,17.419,17.419
201912240605,17.419,17.419,17.414,17.414
201912240606,17.415,17.415,17.414,17.414
201912240607,17.414,17.416,17.414,17.415
201912240608,17.415,17.415,17.415,17.415
201912240609,17.415,17.416,17.415,17.416
201912240610,17.416,17.419,17.415,17.419
201912240611,17.419,17.419,17.419,17.419
201912240612,17.419,17.419,17.419,17.419
201912240613,17.419,17.419,17.416,17.416
201912240614,17.416,17.416,17.415,17.416
201912240615,17.416,17.416,17.415,17.416
201912240616,17.416,17.416,17.416,17.416
201912240617,17.416,17.417,17.416,17.416
201912240618,17.416,17.417,17.415,17.415
201912240619,17.415,17.415,17.415,17.415
201912240620,17.415,17.415,17.415,17.415
201912240621,17.415,17.415,17.414,17.415
201912240622,17.416,17.416,17.415,17.415
201912240623,17.415,17.416,17.415,17.415
201912240624,17.415,17.415,17.415,17.415
201912240625,17.415,17.415,17.415,17.415
201912240626,17.415,17.415,17.415,17.415
201912240627,17.415,17.418,17.415,17.415
201912240628,17.415,17.416,17.415,17.415
201912240629,17.415,17.418,17.415,17.415
201912240630,17.415,17.419,17.415,17.418
201912240631,17.417,17.419,17.416,17.419
201912240632,17.419,17.419,17.419,17.419
201912240633,17.419,17.419,17.416,17.417
201912240634,17.417,17.417,17.416,17.416
201912240635,17.416,17.416,17.416,17.416
201912240636,17.416,17.417,17.416,17.416
201912240637,17.416,17.416,17.416,17.416
201912240638,17.416,17.417,17.416,17.417
201912240639,17.417,17.417,17.417,17.417
201912240640,17.417,17.418,17.415,17.418
201912240641,17.418,17.418,17.418,17.418
201912240642,17.418,17.418,17.418,17.418
201912240643,17.418,17.418,17.418,17.418
201912240644,17.418,17.418,17.417,17.417
201912240645,17.418,17.422,17.417,17.421
201912240646,17.421,17.421,17.421,17.421
201912240647,17.421,17.424,17.421,17.423
201912240648,17.423,17.424,17.422,17.424
201912240649,17.424,17.425,17.424,17.425
201912240650,17.425,17.43,17.425,17.43
201912240651,17.43,17.43,17.426,17.429
201912240652,17.429,17.43,17.429,17.43
201912240653,17.43,17.43,17.427,17.427
201912240654,17.427,17.429,17.426,17.426
201912240655,17.425,17.425,17.423,17.423
201912240656,17.423,17.428,17.423,17.428
201912240657,17.428,17.428,17.425,17.427
201912240658,17.427,17.431,17.424,17.426
201912240659,17.425,17.465,17.425,17.443
