日時,始値(BID),高値(BID),安値(BID),終値(BID)
201912190800,16.997,17.005,16.997,17.002
201912190801,17,17.003,16.998,17.002
201912190802,17.002,17.004,17.002,17.004
201912190803,17.004,17.006,17.003,17.004
201912190804,17.004,17.006,17.004,17.006
201912190805,17.006,17.006,17.003,17.003
201912190806,17.003,17.005,17.003,17.005
201912190807,17.005,17.006,17.005,17.006
201912190808,17.006,17.006,17.004,17.005
201912190809,17.005,17.005,17.004,17.004
201912190810,17.004,17.009,17.004,17.008
201912190811,17.008,17.008,17.008,17.008
201912190812,17.008,17.01,17.008,17.009
201912190813,17.009,17.01,17.009,17.009
201912190814,17.008,17.009,17.008,17.009
201912190815,17.009,17.011,17.009,17.01
201912190816,17.01,17.012,17.01,17.012
201912190817,17.011,17.012,17.011,17.011
201912190818,17.011,17.011,17.009,17.009
201912190819,17.009,17.011,17.009,17.01
201912190820,17.01,17.014,17.009,17.014
201912190821,17.014,17.014,17.013,17.014
201912190822,17.014,17.014,17.014,17.014
201912190823,17.014,17.014,17.014,17.014
201912190824,17.014,17.014,17.014,17.014
201912190825,17.014,17.015,17.014,17.015
201912190826,17.015,17.015,17.015,17.015
201912190827,17.015,17.015,17.015,17.015
201912190828,17.015,17.015,17.015,17.015
201912190829,17.015,17.015,17.015,17.015
201912190830,17.016,17.016,17.015,17.015
201912190831,17.015,17.016,17.015,17.016
201912190832,17.016,17.018,17.016,17.016
201912190833,17.016,17.02,17.016,17.02
201912190834,17.02,17.02,17.02,17.02
201912190835,17.02,17.023,17.02,17.022
201912190836,17.022,17.023,17.021,17.021
201912190837,17.021,17.024,17.021,17.023
201912190838,17.023,17.024,17.021,17.024
201912190839,17.024,17.024,17.021,17.021
201912190840,17.021,17.022,17.02,17.02
201912190841,17.02,17.021,17.02,17.021
201912190842,17.021,17.021,17.021,17.021
201912190843,17.018,17.018,17.018,17.018
201912190844,17.018,17.018,17.018,17.018
201912190845,17.018,17.018,17.014,17.014
201912190846,17.014,17.019,17.014,17.019
201912190847,17.019,17.019,17.015,17.019
201912190848,17.019,17.019,17.017,17.017
201912190849,17.017,17.017,17.017,17.017
201912190850,17.017,17.018,17.016,17.017
201912190851,17.018,17.018,17.016,17.016
201912190852,17.016,17.017,17.016,17.017
201912190853,17.017,17.017,17.016,17.017
201912190854,17.017,17.017,17.016,17.016
201912190855,17.016,17.016,17.016,17.016
201912190856,17.016,17.016,17.016,17.016
201912190857,17.016,17.016,17.016,17.016
201912190858,17.016,17.019,17.016,17.017
201912190859,17.017,17.019,17.017,17.017
201912190900,17.016,17.019,17.016,17.016
201912190901,17.016,17.017,17.014,17.014
201912190902,17.014,17.016,17.01,17.013
201912190903,17.013,17.014,17.011,17.014
201912190904,17.014,17.014,17.013,17.014
201912190905,17.014,17.014,17.01,17.01
201912190906,17.011,17.012,17.01,17.01
201912190907,17.01,17.011,17.01,17.01
201912190908,17.01,17.01,17.006,17.006
201912190909,17.006,17.007,17.005,17.005
201912190910,17.004,17.006,17.003,17.004
201912190911,17.004,17.004,17.001,17.001
201912190912,17.001,17.004,17.001,17.004
201912190913,17.004,17.006,17.002,17.006
201912190914,17.006,17.006,17.004,17.004
201912190915,17.004,17.006,17.004,17.006
201912190916,17.006,17.006,17.003,17.006
201912190917,17.006,17.007,17.003,17.007
201912190918,17.007,17.007,17.004,17.004
201912190919,17.004,17.007,17.004,17.007
201912190920,17.007,17.007,17.005,17.007
201912190921,17.007,17.007,17.005,17.007
201912190922,17.007,17.008,17.005,17.008
201912190923,17.008,17.008,17.004,17.005
201912190924,17.005,17.007,17.004,17.007
201912190925,17.007,17.008,17.006,17.007
201912190926,17.008,17.008,17.006,17.006
201912190927,17.006,17.01,17.006,17.01
201912190928,17.01,17.011,17.01,17.011
201912190929,17.011,17.012,17.01,17.011
201912190930,17.011,17.012,17.007,17.011
201912190931,17.011,17.012,17.01,17.011
201912190932,17.011,17.011,17.009,17.011
201912190933,17.011,17.012,17.009,17.011
201912190934,17.011,17.012,17.004,17.006
201912190935,17.006,17.006,17.005,17.006
201912190936,17.006,17.007,17.004,17.005
201912190937,17.005,17.007,17.004,17.006
201912190938,17.006,17.007,17.005,17.005
201912190939,17.005,17.008,17.005,17.008
201912190940,17.008,17.008,17.006,17.006
201912190941,17.006,17.007,17.006,17.007
201912190942,17.007,17.008,17.006,17.008
201912190943,17.008,17.008,17.006,17.006
201912190944,17.006,17.008,17.005,17.005
201912190945,17.006,17.007,17.005,17.005
201912190946,17.006,17.006,17.006,17.006
201912190947,17.006,17.006,16.999,17.005
201912190948,17.005,17.008,17.003,17.007
201912190949,17.006,17.007,17.006,17.007
201912190950,17.007,17.007,17.006,17.007
201912190951,17.007,17.007,17.001,17.007
201912190952,17.007,17.01,17.001,17.008
201912190953,17.008,17.01,17.008,17.008
201912190954,17.009,17.012,17.007,17.007
201912190955,17.007,17.012,17.007,17.01
201912190956,17.01,17.013,17.009,17.011
201912190957,17.011,17.012,17.009,17.012
201912190958,17.012,17.013,17.01,17.011
201912190959,17.011,17.013,17.01,17.012
201912191000,17.012,17.012,16.994,16.994
201912191001,16.994,17.002,16.994,17.002
201912191002,17.002,17.007,17.002,17.005
201912191003,17.005,17.008,17.004,17.006
201912191004,17.006,17.007,17.005,17.005
201912191005,17.005,17.005,16.996,16.997
201912191006,16.997,17.003,16.994,17.002
201912191007,17.002,17.002,16.999,16.999
201912191008,16.999,17.002,16.998,17.002
201912191009,17.002,17.005,17.002,17.003
201912191010,17.003,17.006,17.003,17.003
201912191011,17.003,17.003,16.995,17
201912191012,17,17,17,17
201912191013,16.999,17.002,16.999,16.999
201912191014,16.999,17,16.997,16.999
201912191015,16.999,17,16.995,16.995
201912191016,16.995,17,16.995,17
201912191017,17,17.006,17,17.004
201912191018,17.004,17.004,17.003,17.004
201912191019,17.004,17.005,17.004,17.004
201912191020,17.004,17.008,17.004,17.005
201912191021,17.005,17.005,17.003,17.004
201912191022,17.004,17.004,16.995,16.995
201912191023,16.995,17.009,16.995,17.009
201912191024,17.009,17.01,17.008,17.01
201912191025,17.009,17.014,17.009,17.014
201912191026,17.014,17.016,17.013,17.014
201912191027,17.014,17.016,17.014,17.016
201912191028,17.016,17.018,17.013,17.013
201912191029,17.013,17.013,17.012,17.012
201912191030,17.012,17.013,17.012,17.013
201912191031,17.012,17.018,17.012,17.018
201912191032,17.018,17.025,17.018,17.024
201912191033,17.024,17.029,17.024,17.028
201912191034,17.028,17.028,17.025,17.028
201912191035,17.028,17.032,17.028,17.032
201912191036,17.032,17.033,17.029,17.029
201912191037,17.029,17.033,17.029,17.032
201912191038,17.032,17.033,17.032,17.032
201912191039,17.032,17.036,17.032,17.034
201912191040,17.033,17.036,17.033,17.034
201912191041,17.034,17.037,17.033,17.035
201912191042,17.036,17.038,17.035,17.038
201912191043,17.038,17.038,17.033,17.034
201912191044,17.034,17.034,17.032,17.032
201912191045,17.032,17.032,17.031,17.031
201912191046,17.031,17.037,17.031,17.033
201912191047,17.033,17.037,17.032,17.033
201912191048,17.033,17.033,17.027,17.029
201912191049,17.029,17.032,17.027,17.032
201912191050,17.032,17.033,17.031,17.032
201912191051,17.032,17.033,17.032,17.032
201912191052,17.032,17.033,17.032,17.032
201912191053,17.032,17.033,17.032,17.032
201912191054,17.032,17.035,17.032,17.033
201912191055,17.033,17.038,17.032,17.037
201912191056,17.037,17.038,17.035,17.037
201912191057,17.037,17.038,17.036,17.037
201912191058,17.037,17.038,17.037,17.038
201912191059,17.038,17.038,17.037,17.038
201912191100,17.038,17.039,17.036,17.037
201912191101,17.037,17.037,17.037,17.037
201912191102,17.037,17.039,17.037,17.037
201912191103,17.037,17.04,17.037,17.038
201912191104,17.038,17.04,17.036,17.036
201912191105,17.036,17.037,17.034,17.034
201912191106,17.034,17.035,17.034,17.035
201912191107,17.035,17.036,17.035,17.035
201912191108,17.035,17.037,17.035,17.036
201912191109,17.035,17.037,17.035,17.035
201912191110,17.035,17.035,17.031,17.033
201912191111,17.033,17.034,17.032,17.034
201912191112,17.034,17.034,17.033,17.034
201912191113,17.034,17.035,17.031,17.033
201912191114,17.033,17.034,17.032,17.033
201912191115,17.033,17.034,17.033,17.034
201912191116,17.034,17.034,17.034,17.034
201912191117,17.034,17.034,17.033,17.034
201912191118,17.034,17.034,17.034,17.034
201912191119,17.034,17.034,17.034,17.034
201912191120,17.034,17.034,17.034,17.034
201912191121,17.034,17.034,17.034,17.034
201912191122,17.034,17.039,17.034,17.039
201912191123,17.039,17.041,17.036,17.037
201912191124,17.037,17.037,17.035,17.035
201912191125,17.035,17.035,17.034,17.034
201912191126,17.034,17.035,17.034,17.034
201912191127,17.034,17.037,17.034,17.035
201912191128,17.035,17.039,17.034,17.038
201912191129,17.038,17.039,17.038,17.039
201912191130,17.039,17.039,17.036,17.037
201912191131,17.037,17.039,17.036,17.039
201912191132,17.039,17.044,17.039,17.041
201912191133,17.041,17.041,17.041,17.041
201912191134,17.04,17.042,17.04,17.042
201912191135,17.041,17.041,17.04,17.041
201912191136,17.041,17.041,17.04,17.041
201912191137,17.041,17.043,17.041,17.043
201912191138,17.043,17.043,17.041,17.043
201912191139,17.043,17.043,17.041,17.042
201912191140,17.042,17.046,17.042,17.042
201912191141,17.042,17.042,17.041,17.042
201912191142,17.042,17.042,17.04,17.042
201912191143,17.042,17.042,17.041,17.042
201912191144,17.042,17.042,17.041,17.041
201912191145,17.041,17.042,17.037,17.037
201912191146,17.038,17.039,17.037,17.037
201912191147,17.037,17.038,17.037,17.037
201912191148,17.037,17.037,17.036,17.036
201912191149,17.034,17.035,17.031,17.035
201912191150,17.035,17.038,17.034,17.035
201912191151,17.035,17.038,17.035,17.036
201912191152,17.036,17.039,17.036,17.039
201912191153,17.039,17.039,17.039,17.039
201912191154,17.039,17.039,17.035,17.036
201912191155,17.039,17.039,17.039,17.039
201912191156,17.039,17.039,17.036,17.039
201912191157,17.039,17.039,17.039,17.039
201912191158,17.039,17.043,17.039,17.041
201912191159,17.041,17.041,17.036,17.037
201912191200,17.037,17.038,17.036,17.036
201912191201,17.036,17.039,17.036,17.036
201912191202,17.036,17.036,17.035,17.035
201912191203,17.035,17.036,17.035,17.036
201912191204,17.036,17.036,17.032,17.036
201912191205,17.036,17.037,17.035,17.037
201912191206,17.037,17.037,17.032,17.034
201912191207,17.034,17.034,17.032,17.034
201912191208,17.034,17.036,17.032,17.035
201912191209,17.035,17.036,17.032,17.033
201912191210,17.033,17.036,17.031,17.033
201912191211,17.035,17.035,17.031,17.035
201912191212,17.033,17.037,17.033,17.037
201912191213,17.037,17.038,17.035,17.038
201912191214,17.038,17.039,17.037,17.038
201912191215,17.038,17.039,17.037,17.038
201912191216,17.038,17.038,17.037,17.038
201912191217,17.038,17.039,17.037,17.037
201912191218,17.037,17.038,17.037,17.037
201912191219,17.037,17.037,17.032,17.033
201912191220,17.033,17.037,17.032,17.035
201912191221,17.035,17.037,17.035,17.035
201912191222,17.035,17.036,17.032,17.032
201912191223,17.032,17.037,17.032,17.036
201912191224,17.036,17.039,17.035,17.039
201912191225,17.039,17.039,17.036,17.038
201912191226,17.037,17.038,17.035,17.038
201912191227,17.038,17.038,17.036,17.036
201912191228,17.036,17.04,17.036,17.038
201912191229,17.038,17.042,17.037,17.04
201912191230,17.041,17.043,17.041,17.042
201912191231,17.041,17.042,17.04,17.042
201912191232,17.042,17.043,17.041,17.043
201912191233,17.043,17.043,17.041,17.042
201912191234,17.042,17.043,17.04,17.042
201912191235,17.042,17.042,17.037,17.039
201912191236,17.039,17.042,17.039,17.042
201912191237,17.042,17.042,17.04,17.041
201912191238,17.041,17.042,17.039,17.039
201912191239,17.039,17.04,17.037,17.037
201912191240,17.037,17.038,17.037,17.038
201912191241,17.038,17.038,17.036,17.037
201912191242,17.037,17.039,17.037,17.037
201912191243,17.037,17.04,17.037,17.038
201912191244,17.038,17.041,17.037,17.041
201912191245,17.041,17.043,17.041,17.041
201912191246,17.041,17.043,17.041,17.041
201912191247,17.041,17.047,17.041,17.046
201912191248,17.046,17.05,17.046,17.047
201912191249,17.047,17.049,17.047,17.047
201912191250,17.047,17.048,17.047,17.047
201912191251,17.047,17.048,17.047,17.047
201912191252,17.047,17.049,17.047,17.047
201912191253,17.047,17.048,17.047,17.048
201912191254,17.048,17.048,17.045,17.046
201912191255,17.046,17.049,17.046,17.049
201912191256,17.049,17.049,17.047,17.047
201912191257,17.047,17.048,17.046,17.047
201912191258,17.047,17.049,17.047,17.048
201912191259,17.048,17.049,17.047,17.048
201912191300,17.048,17.049,17.047,17.048
201912191301,17.048,17.049,17.046,17.047
201912191302,17.047,17.048,17.046,17.047
201912191303,17.047,17.048,17.046,17.048
201912191304,17.048,17.048,17.046,17.047
201912191305,17.047,17.048,17.046,17.047
201912191306,17.047,17.05,17.046,17.05
201912191307,17.05,17.051,17.048,17.049
201912191308,17.049,17.05,17.045,17.045
201912191309,17.045,17.046,17.045,17.045
201912191310,17.045,17.046,17.045,17.045
201912191311,17.045,17.046,17.045,17.045
201912191312,17.045,17.047,17.045,17.046
201912191313,17.046,17.047,17.046,17.046
201912191314,17.046,17.047,17.045,17.045
201912191315,17.045,17.046,17.045,17.045
201912191316,17.045,17.046,17.045,17.045
201912191317,17.045,17.046,17.041,17.042
201912191318,17.042,17.042,17.04,17.041
201912191319,17.041,17.042,17.04,17.041
201912191320,17.041,17.043,17.041,17.042
201912191321,17.042,17.043,17.042,17.042
201912191322,17.042,17.043,17.042,17.042
201912191323,17.042,17.043,17.041,17.042
201912191324,17.042,17.043,17.04,17.041
201912191325,17.041,17.043,17.04,17.04
201912191326,17.04,17.041,17.04,17.041
201912191327,17.041,17.042,17.04,17.041
201912191328,17.041,17.042,17.041,17.041
201912191329,17.041,17.043,17.04,17.04
201912191330,17.04,17.042,17.04,17.041
201912191331,17.041,17.042,17.041,17.042
201912191332,17.042,17.042,17.04,17.042
201912191333,17.042,17.042,17.04,17.042
201912191334,17.042,17.042,17.041,17.042
201912191335,17.042,17.042,17.041,17.042
201912191336,17.042,17.042,17.04,17.042
201912191337,17.042,17.042,17.041,17.042
201912191338,17.042,17.043,17.041,17.043
201912191339,17.043,17.044,17.043,17.043
201912191340,17.043,17.044,17.043,17.044
201912191341,17.044,17.044,17.043,17.043
201912191342,17.043,17.043,17.042,17.042
201912191343,17.042,17.042,17.042,17.042
201912191344,17.042,17.043,17.041,17.042
201912191345,17.042,17.044,17.041,17.042
201912191346,17.042,17.042,17.042,17.042
201912191347,17.042,17.042,17.041,17.042
201912191348,17.042,17.043,17.041,17.041
201912191349,17.041,17.042,17.04,17.041
201912191350,17.041,17.041,17.04,17.041
201912191351,17.041,17.041,17.039,17.039
201912191352,17.039,17.042,17.038,17.041
201912191353,17.041,17.042,17.04,17.042
201912191354,17.042,17.042,17.039,17.04
201912191355,17.04,17.041,17.037,17.037
201912191356,17.037,17.037,17.037,17.037
201912191357,17.037,17.037,17.037,17.037
201912191358,17.037,17.038,17.037,17.038
201912191359,17.038,17.038,17.037,17.037
201912191400,17.037,17.041,17.035,17.04
201912191401,17.04,17.041,17.038,17.038
201912191402,17.038,17.038,17.037,17.037
201912191403,17.037,17.037,17.037,17.037
201912191404,17.037,17.038,17.037,17.038
201912191405,17.038,17.038,17.037,17.038
201912191406,17.038,17.038,17.037,17.037
201912191407,17.037,17.037,17.037,17.037
201912191408,17.037,17.037,17.037,17.037
201912191409,17.037,17.037,17.036,17.037
201912191410,17.037,17.037,17.036,17.037
201912191411,17.037,17.037,17.036,17.037
201912191412,17.037,17.037,17.035,17.036
201912191413,17.036,17.036,17.035,17.036
201912191414,17.036,17.037,17.034,17.034
201912191415,17.034,17.037,17.034,17.036
201912191416,17.036,17.036,17.032,17.033
201912191417,17.033,17.034,17.032,17.033
201912191418,17.033,17.034,17.032,17.032
201912191419,17.032,17.033,17.03,17.032
201912191420,17.032,17.032,17.03,17.03
201912191421,17.03,17.031,17.029,17.03
201912191422,17.03,17.032,17.03,17.032
201912191423,17.032,17.032,17.031,17.031
201912191424,17.031,17.031,17.03,17.031
201912191425,17.031,17.031,17.03,17.031
201912191426,17.031,17.032,17.03,17.03
201912191427,17.03,17.032,17.03,17.031
201912191428,17.031,17.032,17.031,17.031
201912191429,17.031,17.032,17.031,17.031
201912191430,17.031,17.032,17.03,17.031
201912191431,17.031,17.032,17.027,17.028
201912191432,17.028,17.031,17.026,17.026
201912191433,17.026,17.027,17.026,17.026
201912191434,17.026,17.027,17.026,17.026
201912191435,17.027,17.027,17.02,17.02
201912191436,17.02,17.021,17.019,17.02
201912191437,17.02,17.021,17.019,17.02
201912191438,17.02,17.021,17.015,17.016
201912191439,17.016,17.017,17.011,17.011
201912191440,17.012,17.015,17.011,17.014
201912191441,17.015,17.015,17.011,17.011
201912191442,17.011,17.012,17.008,17.011
201912191443,17.011,17.012,17.011,17.011
201912191444,17.011,17.017,17.011,17.015
201912191445,17.015,17.017,17.015,17.016
201912191446,17.016,17.017,17.016,17.016
201912191447,17.016,17.017,17.015,17.015
201912191448,17.015,17.017,17.014,17.016
201912191449,17.016,17.017,17.011,17.011
201912191450,17.011,17.015,17.011,17.012
201912191451,17.011,17.016,17.011,17.012
201912191452,17.012,17.012,17.002,17.002
201912191453,17.002,17.003,17.001,17.002
201912191454,17.002,17.002,16.996,16.999
201912191455,16.999,16.999,16.996,16.997
201912191456,16.997,17.003,16.996,17.003
201912191457,17.002,17.002,16.999,17
201912191458,17,17,16.996,16.997
201912191459,16.997,16.997,16.996,16.997
201912191500,16.997,16.997,16.986,16.987
201912191501,16.987,16.992,16.986,16.992
201912191502,16.992,16.996,16.992,16.992
201912191503,16.992,16.993,16.986,16.987
201912191504,16.987,16.993,16.983,16.992
201912191505,16.992,16.993,16.991,16.992
201912191506,16.992,16.997,16.991,16.993
201912191507,16.993,16.997,16.991,16.991
201912191508,16.991,16.994,16.99,16.991
201912191509,16.991,16.996,16.991,16.991
201912191510,16.991,16.991,16.986,16.986
201912191511,16.986,16.987,16.986,16.987
201912191512,16.987,16.991,16.986,16.986
201912191513,16.986,16.987,16.981,16.987
201912191514,16.986,16.987,16.983,16.984
201912191515,16.984,16.992,16.984,16.992
201912191516,16.992,16.994,16.991,16.993
201912191517,16.993,16.995,16.991,16.992
201912191518,16.992,16.994,16.987,16.994
201912191519,16.992,16.997,16.992,16.996
201912191520,16.996,16.997,16.99,16.992
201912191521,16.992,16.996,16.991,16.991
201912191522,16.991,16.992,16.989,16.992
201912191523,16.992,16.996,16.991,16.991
201912191524,16.991,16.997,16.991,16.995
201912191525,16.995,16.997,16.993,16.995
201912191526,16.995,16.997,16.994,16.994
201912191527,16.995,16.996,16.992,16.994
201912191528,16.994,16.996,16.993,16.995
201912191529,16.995,16.996,16.994,16.996
201912191530,16.996,16.997,16.994,16.996
201912191531,16.996,16.996,16.994,16.995
201912191532,16.995,16.997,16.995,16.996
201912191533,16.996,16.997,16.995,16.996
201912191534,16.996,16.996,16.991,16.991
201912191535,16.991,16.996,16.991,16.996
201912191536,16.996,16.996,16.991,16.991
201912191537,16.991,16.994,16.989,16.99
201912191538,16.99,16.991,16.986,16.986
201912191539,16.986,16.987,16.985,16.986
201912191540,16.986,16.987,16.981,16.984
201912191541,16.985,16.986,16.983,16.985
201912191542,16.985,16.987,16.985,16.985
201912191543,16.985,16.986,16.983,16.985
201912191544,16.985,16.987,16.983,16.986
201912191545,16.986,16.991,16.986,16.991
201912191546,16.991,16.992,16.99,16.99
201912191547,16.99,16.992,16.99,16.991
201912191548,16.991,16.992,16.99,16.99
201912191549,16.99,16.992,16.99,16.991
201912191550,16.991,16.991,16.989,16.99
201912191551,16.99,16.992,16.99,16.99
201912191552,16.99,16.992,16.99,16.991
201912191553,16.991,16.992,16.991,16.992
201912191554,16.992,16.992,16.991,16.991
201912191555,16.99,16.991,16.989,16.991
201912191556,16.991,16.991,16.986,16.987
201912191557,16.987,16.987,16.986,16.987
201912191558,16.987,16.988,16.986,16.987
201912191559,16.987,16.991,16.986,16.991
201912191600,16.991,16.992,16.984,16.986
201912191601,16.986,16.987,16.982,16.987
201912191602,16.987,16.987,16.986,16.986
201912191603,16.986,16.988,16.986,16.987
201912191604,16.987,16.99,16.987,16.989
201912191605,16.989,16.992,16.989,16.991
201912191606,16.991,16.997,16.991,16.995
201912191607,16.995,16.996,16.992,16.992
201912191608,16.992,16.994,16.987,16.991
201912191609,16.991,16.994,16.99,16.994
201912191610,16.994,16.994,16.976,16.976
201912191611,16.976,16.982,16.976,16.981
201912191612,16.981,16.983,16.981,16.982
201912191613,16.982,16.987,16.982,16.984
201912191614,16.984,16.986,16.982,16.984
201912191615,16.984,16.988,16.984,16.988
201912191616,16.987,16.992,16.986,16.992
201912191617,16.992,16.992,16.989,16.991
201912191618,16.991,16.992,16.989,16.992
201912191619,16.992,16.992,16.991,16.991
201912191620,16.991,16.991,16.987,16.991
201912191621,16.992,16.992,16.988,16.99
201912191622,16.99,16.99,16.986,16.987
201912191623,16.987,16.988,16.983,16.985
201912191624,16.985,16.988,16.983,16.988
201912191625,16.988,16.988,16.986,16.987
201912191626,16.987,16.987,16.983,16.983
201912191627,16.983,16.985,16.982,16.984
201912191628,16.984,16.987,16.984,16.985
201912191629,16.985,16.986,16.982,16.983
201912191630,16.983,16.991,16.983,16.987
201912191631,16.987,16.992,16.985,16.99
201912191632,16.99,16.99,16.986,16.987
201912191633,16.987,16.991,16.986,16.989
201912191634,16.988,16.988,16.984,16.987
201912191635,16.987,16.987,16.984,16.984
201912191636,16.984,16.986,16.98,16.983
201912191637,16.983,16.986,16.982,16.984
201912191638,16.984,16.987,16.982,16.987
201912191639,16.987,16.988,16.986,16.987
201912191640,16.987,16.988,16.985,16.988
201912191641,16.988,16.988,16.986,16.986
201912191642,16.986,16.989,16.986,16.987
201912191643,16.987,16.988,16.986,16.987
201912191644,16.987,16.989,16.986,16.986
201912191645,16.986,16.986,16.98,16.98
201912191646,16.98,16.982,16.979,16.98
201912191647,16.98,16.981,16.979,16.979
201912191648,16.979,16.981,16.976,16.976
201912191649,16.976,16.981,16.976,16.98
201912191650,16.98,16.981,16.974,16.974
201912191651,16.974,16.974,16.955,16.956
201912191652,16.956,16.961,16.956,16.96
201912191653,16.96,16.961,16.959,16.96
201912191654,16.96,16.966,16.96,16.966
201912191655,16.966,16.966,16.961,16.962
201912191656,16.962,16.962,16.959,16.961
201912191657,16.961,16.962,16.959,16.96
201912191658,16.96,16.964,16.96,16.962
201912191659,16.962,16.963,16.96,16.962
201912191700,16.962,16.967,16.959,16.966
201912191701,16.966,16.971,16.966,16.967
201912191702,16.966,16.966,16.96,16.964
201912191703,16.965,16.967,16.965,16.967
201912191704,16.967,16.967,16.965,16.965
201912191705,16.965,16.971,16.962,16.971
201912191706,16.97,16.971,16.963,16.965
201912191707,16.966,16.971,16.957,16.971
201912191708,16.971,16.971,16.966,16.968
201912191709,16.968,16.969,16.957,16.957
201912191710,16.956,16.958,16.953,16.958
201912191711,16.958,16.958,16.953,16.954
201912191712,16.954,16.955,16.951,16.952
201912191713,16.952,16.952,16.949,16.949
201912191714,16.948,16.952,16.948,16.952
201912191715,16.953,16.954,16.951,16.952
201912191716,16.952,16.955,16.952,16.953
201912191717,16.953,16.956,16.953,16.956
201912191718,16.956,16.957,16.955,16.955
201912191719,16.955,16.963,16.954,16.962
201912191720,16.962,16.963,16.957,16.961
201912191721,16.961,16.962,16.96,16.96
201912191722,16.96,16.961,16.957,16.957
201912191723,16.957,16.958,16.955,16.955
201912191724,16.955,16.957,16.953,16.955
201912191725,16.955,16.957,16.955,16.955
201912191726,16.957,16.957,16.953,16.953
201912191727,16.953,16.956,16.953,16.955
201912191728,16.955,16.956,16.954,16.954
201912191729,16.954,16.956,16.953,16.953
201912191730,16.953,16.953,16.946,16.947
201912191731,16.947,16.958,16.945,16.958
201912191732,16.958,16.958,16.955,16.957
201912191733,16.957,16.958,16.956,16.957
201912191734,16.958,16.958,16.957,16.957
201912191735,16.957,16.959,16.955,16.957
201912191736,16.957,16.965,16.957,16.962
201912191737,16.962,16.963,16.959,16.959
201912191738,16.959,16.961,16.953,16.953
201912191739,16.953,16.958,16.951,16.957
201912191740,16.957,16.957,16.955,16.956
201912191741,16.956,16.958,16.956,16.958
201912191742,16.958,16.961,16.957,16.96
201912191743,16.96,16.962,16.957,16.959
201912191744,16.959,16.959,16.956,16.958
201912191745,16.958,16.959,16.956,16.957
201912191746,16.957,16.957,16.952,16.957
201912191747,16.957,16.957,16.952,16.952
201912191748,16.952,16.953,16.949,16.951
201912191749,16.951,16.951,16.949,16.951
201912191750,16.952,16.952,16.949,16.949
201912191751,16.949,16.949,16.945,16.947
201912191752,16.946,16.947,16.942,16.946
201912191753,16.946,16.946,16.944,16.945
201912191754,16.945,16.946,16.945,16.946
201912191755,16.946,16.946,16.94,16.94
201912191756,16.941,16.941,16.939,16.939
201912191757,16.939,16.942,16.931,16.941
201912191758,16.941,16.941,16.939,16.941
201912191759,16.941,16.941,16.939,16.941
201912191800,16.941,16.941,16.921,16.921
201912191801,16.921,16.922,16.913,16.916
201912191802,16.916,16.917,16.913,16.915
201912191803,16.915,16.917,16.914,16.915
201912191804,16.915,16.92,16.914,16.918
201912191805,16.918,16.918,16.914,16.916
201912191806,16.915,16.916,16.913,16.915
201912191807,16.915,16.915,16.913,16.914
201912191808,16.914,16.918,16.914,16.915
201912191809,16.915,16.917,16.91,16.915
201912191810,16.915,16.916,16.913,16.915
201912191811,16.915,16.916,16.911,16.913
201912191812,16.913,16.914,16.911,16.914
201912191813,16.914,16.915,16.912,16.914
201912191814,16.914,16.922,16.913,16.921
201912191815,16.921,16.921,16.913,16.915
201912191816,16.915,16.916,16.913,16.916
201912191817,16.916,16.916,16.913,16.916
201912191818,16.916,16.917,16.911,16.912
201912191819,16.912,16.917,16.912,16.916
201912191820,16.916,16.916,16.909,16.911
201912191821,16.911,16.911,16.909,16.91
201912191822,16.91,16.911,16.905,16.905
201912191823,16.905,16.91,16.905,16.91
201912191824,16.91,16.917,16.91,16.916
201912191825,16.916,16.917,16.914,16.914
201912191826,16.914,16.914,16.914,16.914
201912191827,16.914,16.914,16.907,16.908
201912191828,16.908,16.908,16.907,16.907
201912191829,16.907,16.908,16.906,16.907
201912191830,16.907,16.912,16.907,16.908
201912191831,16.908,16.908,16.906,16.906
201912191832,16.906,16.907,16.902,16.902
201912191833,16.902,16.904,16.902,16.904
201912191834,16.904,16.904,16.901,16.904
201912191835,16.904,16.904,16.898,16.901
201912191836,16.901,16.903,16.9,16.902
201912191837,16.902,16.905,16.901,16.904
201912191838,16.904,16.907,16.903,16.905
201912191839,16.905,16.905,16.902,16.902
201912191840,16.902,16.903,16.901,16.902
201912191841,16.902,16.902,16.897,16.897
201912191842,16.897,16.898,16.896,16.897
201912191843,16.898,16.91,16.897,16.909
201912191844,16.909,16.91,16.908,16.909
201912191845,16.909,16.91,16.908,16.909
201912191846,16.909,16.91,16.906,16.91
201912191847,16.91,16.91,16.908,16.908
201912191848,16.909,16.909,16.908,16.909
201912191849,16.909,16.914,16.909,16.914
201912191850,16.914,16.918,16.913,16.918
201912191851,16.918,16.92,16.915,16.919
201912191852,16.919,16.921,16.919,16.92
201912191853,16.92,16.921,16.92,16.92
201912191854,16.92,16.921,16.92,16.921
201912191855,16.921,16.921,16.917,16.917
201912191856,16.917,16.918,16.915,16.916
201912191857,16.915,16.918,16.915,16.915
201912191858,16.915,16.918,16.915,16.918
201912191859,16.918,16.922,16.917,16.922
201912191900,16.922,16.922,16.919,16.921
201912191901,16.922,16.924,16.92,16.92
201912191902,16.92,16.923,16.919,16.92
201912191903,16.92,16.927,16.92,16.927
201912191904,16.927,16.929,16.926,16.929
201912191905,16.929,16.93,16.928,16.929
201912191906,16.929,16.93,16.929,16.93
201912191907,16.93,16.93,16.93,16.93
201912191908,16.93,16.936,16.93,16.936
201912191909,16.936,16.936,16.935,16.936
201912191910,16.936,16.942,16.935,16.942
201912191911,16.942,16.942,16.936,16.936
201912191912,16.936,16.937,16.935,16.936
201912191913,16.936,16.938,16.935,16.935
201912191914,16.935,16.936,16.934,16.936
201912191915,16.936,16.936,16.935,16.936
201912191916,16.936,16.936,16.932,16.935
201912191917,16.935,16.935,16.933,16.935
201912191918,16.935,16.935,16.933,16.935
201912191919,16.935,16.936,16.933,16.935
201912191920,16.935,16.935,16.932,16.935
201912191921,16.935,16.936,16.932,16.933
201912191922,16.933,16.934,16.932,16.933
201912191923,16.933,16.937,16.933,16.937
201912191924,16.937,16.938,16.935,16.935
201912191925,16.937,16.938,16.936,16.937
201912191926,16.937,16.939,16.937,16.939
201912191927,16.939,16.941,16.939,16.941
201912191928,16.941,16.941,16.94,16.941
201912191929,16.94,16.944,16.94,16.944
201912191930,16.944,16.944,16.939,16.94
201912191931,16.94,16.94,16.937,16.937
201912191932,16.937,16.938,16.936,16.938
201912191933,16.938,16.938,16.936,16.938
201912191934,16.938,16.938,16.936,16.936
201912191935,16.936,16.938,16.934,16.937
201912191936,16.937,16.937,16.936,16.937
201912191937,16.937,16.938,16.935,16.936
201912191938,16.936,16.936,16.933,16.933
201912191939,16.933,16.933,16.932,16.933
201912191940,16.932,16.933,16.932,16.932
201912191941,16.932,16.932,16.93,16.93
201912191942,16.93,16.93,16.925,16.927
201912191943,16.926,16.927,16.925,16.926
201912191944,16.926,16.927,16.925,16.926
201912191945,16.926,16.926,16.92,16.922
201912191946,16.921,16.924,16.921,16.924
201912191947,16.924,16.924,16.921,16.922
201912191948,16.922,16.925,16.921,16.925
201912191949,16.925,16.925,16.921,16.923
201912191950,16.923,16.925,16.922,16.924
201912191951,16.924,16.926,16.924,16.925
201912191952,16.925,16.929,16.925,16.926
201912191953,16.926,16.928,16.926,16.927
201912191954,16.927,16.927,16.927,16.927
201912191955,16.927,16.93,16.927,16.929
201912191956,16.929,16.93,16.928,16.93
201912191957,16.93,16.931,16.929,16.93
201912191958,16.93,16.933,16.929,16.933
201912191959,16.933,16.936,16.933,16.936
201912192000,16.936,16.936,16.931,16.931
201912192001,16.931,16.931,16.928,16.928
201912192002,16.928,16.929,16.928,16.928
201912192003,16.928,16.93,16.926,16.929
201912192004,16.929,16.93,16.928,16.929
201912192005,16.929,16.929,16.926,16.928
201912192006,16.928,16.928,16.925,16.926
201912192007,16.926,16.926,16.926,16.926
201912192008,16.926,16.926,16.925,16.925
201912192009,16.925,16.926,16.925,16.926
201912192010,16.926,16.926,16.921,16.921
201912192011,16.921,16.922,16.921,16.922
201912192012,16.922,16.922,16.92,16.92
201912192013,16.92,16.924,16.92,16.924
201912192014,16.924,16.925,16.923,16.923
201912192015,16.923,16.924,16.921,16.921
201912192016,16.921,16.921,16.92,16.921
201912192017,16.921,16.921,16.92,16.92
201912192018,16.92,16.921,16.92,16.92
201912192019,16.92,16.92,16.911,16.912
201912192020,16.912,16.914,16.912,16.913
201912192021,16.913,16.914,16.911,16.913
201912192022,16.913,16.915,16.913,16.914
201912192023,16.914,16.919,16.913,16.916
201912192024,16.915,16.923,16.915,16.922
201912192025,16.922,16.926,16.922,16.926
201912192026,16.926,16.931,16.924,16.924
201912192027,16.924,16.925,16.924,16.924
201912192028,16.924,16.932,16.924,16.932
201912192029,16.932,16.933,16.932,16.932
201912192030,16.932,16.932,16.926,16.926
201912192031,16.926,16.926,16.926,16.926
201912192032,16.926,16.927,16.926,16.927
201912192033,16.927,16.927,16.927,16.927
201912192034,16.927,16.931,16.926,16.931
201912192035,16.931,16.931,16.927,16.928
201912192036,16.928,16.931,16.928,16.931
201912192037,16.931,16.931,16.927,16.928
201912192038,16.928,16.933,16.928,16.933
201912192039,16.933,16.937,16.933,16.937
201912192040,16.937,16.937,16.937,16.937
201912192041,16.937,16.937,16.937,16.937
201912192042,16.937,16.937,16.936,16.936
201912192043,16.936,16.937,16.935,16.937
201912192044,16.937,16.937,16.937,16.937
201912192045,16.937,16.941,16.934,16.935
201912192046,16.935,16.936,16.931,16.935
201912192047,16.935,16.935,16.93,16.932
201912192048,16.933,16.933,16.931,16.932
201912192049,16.932,16.933,16.931,16.932
201912192050,16.932,16.935,16.931,16.934
201912192051,16.935,16.935,16.934,16.934
201912192052,16.935,16.935,16.934,16.934
201912192053,16.935,16.935,16.934,16.934
201912192054,16.934,16.935,16.934,16.934
201912192055,16.934,16.935,16.931,16.933
201912192056,16.933,16.936,16.933,16.934
201912192057,16.934,16.936,16.932,16.933
201912192058,16.933,16.937,16.933,16.933
201912192059,16.933,16.937,16.932,16.937
201912192100,16.937,16.943,16.932,16.936
201912192101,16.937,16.937,16.936,16.937
201912192102,16.937,16.941,16.936,16.938
201912192103,16.938,16.941,16.936,16.938
201912192104,16.937,16.941,16.937,16.941
201912192105,16.941,16.942,16.94,16.942
201912192106,16.942,16.942,16.94,16.941
201912192107,16.941,16.942,16.94,16.942
201912192108,16.942,16.948,16.942,16.948
201912192109,16.948,16.949,16.948,16.948
201912192110,16.948,16.952,16.947,16.947
201912192111,16.947,16.953,16.947,16.953
201912192112,16.953,16.953,16.949,16.953
201912192113,16.953,16.953,16.952,16.953
201912192114,16.953,16.959,16.953,16.956
201912192115,16.956,16.957,16.954,16.957
201912192116,16.957,16.959,16.956,16.956
201912192117,16.956,16.957,16.955,16.955
201912192118,16.955,16.957,16.952,16.955
201912192119,16.955,16.957,16.954,16.955
201912192120,16.955,16.956,16.953,16.954
201912192121,16.954,16.959,16.953,16.957
201912192122,16.957,16.958,16.954,16.956
201912192123,16.956,16.957,16.955,16.955
201912192124,16.955,16.956,16.954,16.954
201912192125,16.954,16.957,16.952,16.953
201912192126,16.953,16.953,16.952,16.952
201912192127,16.952,16.954,16.951,16.954
201912192128,16.954,16.954,16.954,16.954
201912192129,16.954,16.955,16.953,16.954
201912192130,16.954,16.955,16.951,16.951
201912192131,16.951,16.951,16.95,16.951
201912192132,16.951,16.951,16.944,16.946
201912192133,16.946,16.946,16.942,16.944
201912192134,16.944,16.947,16.944,16.947
201912192135,16.947,16.949,16.947,16.948
201912192136,16.948,16.952,16.948,16.948
201912192137,16.948,16.948,16.941,16.942
201912192138,16.941,16.944,16.939,16.944
201912192139,16.944,16.949,16.944,16.947
201912192140,16.947,16.948,16.945,16.945
201912192141,16.945,16.948,16.943,16.945
201912192142,16.945,16.949,16.943,16.949
201912192143,16.949,16.949,16.947,16.949
201912192144,16.949,16.949,16.947,16.949
201912192145,16.949,16.949,16.945,16.946
201912192146,16.946,16.948,16.944,16.946
201912192147,16.946,16.95,16.945,16.948
201912192148,16.948,16.949,16.948,16.949
201912192149,16.949,16.949,16.946,16.946
201912192150,16.946,16.952,16.946,16.951
201912192151,16.952,16.952,16.948,16.949
201912192152,16.948,16.949,16.946,16.949
201912192153,16.949,16.949,16.947,16.948
201912192154,16.948,16.948,16.945,16.948
201912192155,16.948,16.953,16.948,16.95
201912192156,16.95,16.952,16.949,16.951
201912192157,16.951,16.952,16.944,16.947
201912192158,16.947,16.947,16.945,16.945
201912192159,16.945,16.945,16.942,16.942
201912192200,16.943,16.96,16.943,16.959
201912192201,16.959,16.967,16.957,16.967
201912192202,16.967,16.973,16.963,16.963
201912192203,16.962,16.969,16.962,16.969
201912192204,16.969,16.973,16.966,16.97
201912192205,16.97,16.97,16.967,16.968
201912192206,16.967,16.97,16.967,16.969
201912192207,16.969,16.973,16.969,16.972
201912192208,16.972,16.973,16.971,16.972
201912192209,16.973,16.973,16.968,16.969
201912192210,16.968,16.972,16.968,16.971
201912192211,16.971,16.973,16.971,16.973
201912192212,16.973,16.974,16.973,16.973
201912192213,16.973,16.974,16.961,16.973
201912192214,16.973,16.973,16.97,16.971
201912192215,16.971,16.971,16.967,16.967
201912192216,16.967,16.968,16.962,16.964
201912192217,16.964,16.966,16.962,16.963
201912192218,16.963,16.964,16.961,16.963
201912192219,16.963,16.963,16.953,16.954
201912192220,16.955,16.963,16.955,16.96
201912192221,16.962,16.963,16.96,16.962
201912192222,16.962,16.964,16.962,16.963
201912192223,16.964,16.972,16.964,16.97
201912192224,16.969,16.974,16.967,16.97
201912192225,16.969,16.972,16.969,16.972
201912192226,16.972,16.973,16.968,16.971
201912192227,16.971,16.972,16.969,16.97
201912192228,16.97,16.973,16.97,16.973
201912192229,16.973,16.975,16.972,16.972
201912192230,16.972,16.999,16.972,16.998
201912192231,16.998,16.998,16.984,16.996
201912192232,16.995,17.001,16.993,16.998
201912192233,16.998,17.008,16.998,17.006
201912192234,17.007,17.024,17.007,17.024
201912192235,17.024,17.025,17.018,17.018
201912192236,17.018,17.024,17.017,17.017
201912192237,17.017,17.022,17.011,17.012
201912192238,17.012,17.019,17.012,17.018
201912192239,17.018,17.024,17.015,17.016
201912192240,17.016,17.024,17.015,17.015
201912192241,17.015,17.015,17.007,17.009
201912192242,17.008,17.01,17.005,17.009
201912192243,17.009,17.015,17.009,17.011
201912192244,17.011,17.013,17.007,17.008
201912192245,17.008,17.017,17.008,17.012
201912192246,17.01,17.01,17,17.009
201912192247,17.009,17.01,17.001,17.003
201912192248,17.003,17.007,17.003,17.006
201912192249,17.006,17.009,17.005,17.006
201912192250,17.004,17.009,17.003,17.008
201912192251,17.007,17.008,17.003,17.003
201912192252,17.003,17.008,17.003,17.008
201912192253,17.008,17.008,16.998,16.998
201912192254,16.998,17.001,16.996,17
201912192255,16.999,17.002,16.998,17.001
201912192256,17,17.003,16.998,17.003
201912192257,17.003,17.004,16.998,16.998
201912192258,16.998,16.998,16.997,16.998
201912192259,16.998,16.998,16.993,16.997
201912192300,16.997,16.998,16.994,16.994
201912192301,16.994,16.998,16.992,16.993
201912192302,16.993,16.999,16.993,16.997
201912192303,16.997,16.998,16.99,16.994
201912192304,16.994,17.003,16.994,17.003
201912192305,17.003,17.004,16.998,16.998
201912192306,16.998,16.999,16.994,16.999
201912192307,16.998,16.999,16.998,16.998
201912192308,16.998,16.999,16.994,16.994
201912192309,16.994,16.994,16.988,16.99
201912192310,16.99,16.99,16.984,16.984
201912192311,16.984,16.989,16.981,16.989
201912192312,16.989,16.99,16.983,16.983
201912192313,16.983,16.988,16.982,16.987
201912192314,16.988,16.988,16.983,16.986
201912192315,16.986,16.989,16.982,16.987
201912192316,16.987,16.999,16.987,16.996
201912192317,16.996,16.996,16.993,16.994
201912192318,16.993,16.994,16.992,16.994
201912192319,16.993,16.993,16.987,16.991
201912192320,16.99,16.991,16.987,16.989
201912192321,16.989,16.989,16.988,16.988
201912192322,16.988,16.988,16.983,16.984
201912192323,16.983,16.983,16.982,16.983
201912192324,16.983,16.983,16.98,16.982
201912192325,16.981,16.987,16.98,16.986
201912192326,16.986,16.987,16.985,16.986
201912192327,16.986,16.991,16.986,16.991
201912192328,16.991,16.992,16.986,16.987
201912192329,16.987,16.987,16.986,16.987
201912192330,16.986,16.987,16.979,16.982
201912192331,16.981,16.981,16.951,16.965
201912192332,16.965,16.97,16.962,16.969
201912192333,16.969,16.971,16.969,16.97
201912192334,16.97,16.972,16.968,16.97
201912192335,16.97,16.977,16.968,16.974
201912192336,16.974,16.977,16.973,16.975
201912192337,16.975,16.976,16.969,16.969
201912192338,16.969,16.971,16.963,16.963
201912192339,16.963,16.975,16.963,16.972
201912192340,16.972,16.976,16.969,16.97
201912192341,16.97,16.97,16.96,16.962
201912192342,16.962,16.962,16.95,16.956
201912192343,16.956,16.967,16.951,16.967
201912192344,16.967,16.974,16.966,16.972
201912192345,16.972,16.973,16.969,16.972
201912192346,16.973,16.982,16.973,16.981
201912192347,16.981,16.987,16.98,16.982
201912192348,16.982,16.992,16.981,16.989
201912192349,16.989,16.992,16.987,16.992
201912192350,16.991,16.992,16.986,16.986
201912192351,16.986,16.992,16.986,16.989
201912192352,16.989,16.993,16.987,16.99
201912192353,16.99,16.992,16.988,16.99
201912192354,16.99,16.992,16.988,16.992
201912192355,16.991,16.991,16.982,16.988
201912192356,16.988,16.994,16.986,16.992
201912192357,16.993,16.998,16.992,16.997
201912192358,16.997,16.998,16.992,16.992
201912192359,16.992,16.998,16.992,16.993
201912200000,16.994,17.003,16.994,17.002
201912200001,17.002,17.009,17.002,17.008
201912200002,17.008,17.011,17.007,17.009
201912200003,17.009,17.009,17.006,17.007
201912200004,17.007,17.012,17.007,17.008
201912200005,17.008,17.012,17.007,17.01
201912200006,17.01,17.011,17.002,17.002
201912200007,17.002,17.002,16.996,17
201912200008,17.001,17.003,17,17.002
201912200009,17.003,17.005,17.001,17.002
201912200010,17.002,17.003,16.998,16.998
201912200011,16.998,17.004,16.998,17.002
201912200012,17.002,17.003,17,17.002
201912200013,17.002,17.003,16.999,17.001
201912200014,17.001,17.002,16.997,17
201912200015,17.001,17.006,17,17.005
201912200016,17.006,17.006,17.001,17.002
201912200017,17.002,17.002,16.992,16.992
201912200018,16.992,16.996,16.991,16.994
201912200019,16.994,16.994,16.991,16.991
201912200020,16.991,16.992,16.988,16.991
201912200021,16.991,16.993,16.991,16.991
201912200022,16.991,16.998,16.991,16.996
201912200023,16.996,16.998,16.996,16.998
201912200024,16.998,16.998,16.99,16.991
201912200025,16.992,16.998,16.992,16.998
201912200026,16.998,16.998,16.997,16.997
201912200027,16.997,16.997,16.991,16.991
201912200028,16.991,16.993,16.991,16.991
201912200029,16.991,16.992,16.987,16.987
201912200030,16.987,16.998,16.986,16.997
201912200031,16.997,16.999,16.996,16.998
201912200032,16.998,16.998,16.995,16.996
201912200033,16.996,17.001,16.993,17
201912200034,17,17,16.994,16.997
201912200035,16.997,17.003,16.991,17.003
201912200036,17.005,17.017,17.003,17.015
201912200037,17.014,17.014,17.003,17.003
201912200038,17.003,17.007,17.002,17.003
201912200039,17.003,17.01,17.002,17.006
201912200040,17.006,17.014,17.006,17.011
201912200041,17.011,17.013,17.009,17.013
201912200042,17.013,17.013,17.01,17.011
201912200043,17.011,17.017,17.011,17.015
201912200044,17.015,17.016,17.014,17.014
201912200045,17.014,17.019,17.014,17.014
201912200046,17.014,17.017,17.011,17.011
201912200047,17.011,17.012,17.01,17.01
201912200048,17.01,17.012,17.01,17.011
201912200049,17.011,17.013,17.01,17.011
201912200050,17.011,17.012,17.007,17.007
201912200051,17.007,17.013,17.004,17.011
201912200052,17.011,17.011,17.009,17.01
201912200053,17.01,17.011,17.007,17.01
201912200054,17.011,17.012,17.009,17.01
201912200055,17.01,17.012,17.009,17.01
201912200056,17.01,17.012,17.01,17.011
201912200057,17.011,17.012,17.007,17.007
201912200058,17.007,17.007,17.005,17.005
201912200059,17.005,17.007,17.003,17.004
201912200100,17.004,17.006,17.003,17.004
201912200101,17.004,17.01,17.004,17.008
201912200102,17.008,17.011,17.005,17.008
201912200103,17.008,17.011,17.008,17.009
201912200104,17.009,17.01,17.005,17.008
201912200105,17.008,17.01,17.008,17.008
201912200106,17.008,17.011,17.005,17.005
201912200107,17.005,17.006,16.998,16.998
201912200108,16.998,17,16.997,16.998
201912200109,16.998,17.001,16.996,16.999
201912200110,17,17.003,16.999,17.002
201912200111,17.001,17.004,17,17.001
201912200112,17,17.007,17,17.004
201912200113,17.004,17.006,17.003,17.003
201912200114,17.003,17.006,17.003,17.003
201912200115,17.003,17.006,17.001,17.006
201912200116,17.005,17.008,17.004,17.008
201912200117,17.008,17.011,17.005,17.006
201912200118,17.006,17.011,17.006,17.01
201912200119,17.01,17.011,17.008,17.01
201912200120,17.01,17.012,17.009,17.012
201912200121,17.012,17.012,17.005,17.006
201912200122,17.005,17.006,17.003,17.004
201912200123,17.004,17.008,17.002,17.006
201912200124,17.006,17.006,17.003,17.005
201912200125,17.005,17.008,17.004,17.008
201912200126,17.007,17.015,17.007,17.015
201912200127,17.015,17.028,17.015,17.028
201912200128,17.028,17.035,17.025,17.026
201912200129,17.026,17.03,17.026,17.027
201912200130,17.027,17.033,17.027,17.028
201912200131,17.028,17.033,17.028,17.033
201912200132,17.033,17.033,17.027,17.028
201912200133,17.028,17.034,17.026,17.033
201912200134,17.033,17.034,17.028,17.03
201912200135,17.03,17.033,17.027,17.028
201912200136,17.029,17.029,17.025,17.026
201912200137,17.026,17.028,17.023,17.027
201912200138,17.027,17.03,17.026,17.026
201912200139,17.027,17.028,17.026,17.026
201912200140,17.026,17.028,17.024,17.025
201912200141,17.025,17.032,17.024,17.031
201912200142,17.031,17.033,17.028,17.03
201912200143,17.03,17.031,17.027,17.028
201912200144,17.028,17.032,17.028,17.032
201912200145,17.032,17.038,17.032,17.038
201912200146,17.038,17.039,17.037,17.038
201912200147,17.038,17.043,17.038,17.042
201912200148,17.042,17.043,17.039,17.039
201912200149,17.039,17.047,17.039,17.045
201912200150,17.045,17.048,17.044,17.048
201912200151,17.048,17.049,17.043,17.043
201912200152,17.044,17.044,17.038,17.039
201912200153,17.039,17.039,17.031,17.031
201912200154,17.032,17.047,17.032,17.043
201912200155,17.043,17.046,17.041,17.041
201912200156,17.041,17.044,17.041,17.043
201912200157,17.043,17.047,17.042,17.047
201912200158,17.047,17.05,17.047,17.048
201912200159,17.048,17.053,17.048,17.053
201912200200,17.053,17.059,17.053,17.057
201912200201,17.057,17.059,17.054,17.055
201912200202,17.055,17.056,17.051,17.054
201912200203,17.054,17.055,17.052,17.054
201912200204,17.054,17.055,17.053,17.055
201912200205,17.055,17.06,17.054,17.059
201912200206,17.059,17.065,17.059,17.06
201912200207,17.06,17.065,17.06,17.064
201912200208,17.065,17.065,17.062,17.065
201912200209,17.065,17.065,17.059,17.059
201912200210,17.059,17.063,17.059,17.06
201912200211,17.06,17.062,17.059,17.059
201912200212,17.056,17.056,17.052,17.053
201912200213,17.053,17.055,17.053,17.054
201912200214,17.054,17.055,17.053,17.054
201912200215,17.054,17.065,17.054,17.065
201912200216,17.065,17.065,17.064,17.064
201912200217,17.064,17.065,17.061,17.061
201912200218,17.061,17.065,17.061,17.064
201912200219,17.065,17.066,17.06,17.06
201912200220,17.06,17.065,17.06,17.064
201912200221,17.065,17.075,17.065,17.07
201912200222,17.07,17.073,17.07,17.072
201912200223,17.072,17.074,17.068,17.068
201912200224,17.068,17.068,17.063,17.063
201912200225,17.063,17.068,17.063,17.063
201912200226,17.062,17.073,17.062,17.073
201912200227,17.073,17.074,17.072,17.074
201912200228,17.074,17.074,17.073,17.074
201912200229,17.074,17.074,17.073,17.073
201912200230,17.073,17.073,17.073,17.073
201912200231,17.073,17.087,17.073,17.087
201912200232,17.087,17.088,17.077,17.079
201912200233,17.078,17.08,17.07,17.07
201912200234,17.07,17.079,17.07,17.075
201912200235,17.075,17.084,17.075,17.077
201912200236,17.077,17.085,17.076,17.077
201912200237,17.077,17.082,17.073,17.074
201912200238,17.073,17.077,17.072,17.073
201912200239,17.073,17.076,17.072,17.074
201912200240,17.074,17.077,17.073,17.077
201912200241,17.077,17.078,17.077,17.078
201912200242,17.078,17.078,17.077,17.077
201912200243,17.077,17.078,17.076,17.077
201912200244,17.077,17.078,17.077,17.078
201912200245,17.078,17.083,17.078,17.079
201912200246,17.079,17.082,17.079,17.079
201912200247,17.079,17.082,17.079,17.082
201912200248,17.082,17.085,17.082,17.082
201912200249,17.082,17.084,17.081,17.083
201912200250,17.083,17.088,17.081,17.086
201912200251,17.087,17.089,17.086,17.088
201912200252,17.088,17.089,17.085,17.089
201912200253,17.088,17.097,17.086,17.088
201912200254,17.088,17.088,17.086,17.087
201912200255,17.087,17.094,17.087,17.09
201912200256,17.09,17.095,17.09,17.094
201912200257,17.094,17.101,17.094,17.098
201912200258,17.098,17.1,17.092,17.093
201912200259,17.093,17.096,17.092,17.094
201912200300,17.094,17.103,17.093,17.102
201912200301,17.102,17.104,17.102,17.102
201912200302,17.102,17.106,17.098,17.1
201912200303,17.1,17.1,17.093,17.094
201912200304,17.094,17.098,17.093,17.096
201912200305,17.096,17.097,17.093,17.096
201912200306,17.096,17.098,17.093,17.095
201912200307,17.096,17.097,17.092,17.092
201912200308,17.092,17.093,17.09,17.091
201912200309,17.091,17.092,17.091,17.091
201912200310,17.091,17.097,17.091,17.096
201912200311,17.096,17.097,17.096,17.096
201912200312,17.096,17.097,17.092,17.093
201912200313,17.093,17.094,17.091,17.091
201912200314,17.091,17.093,17.09,17.091
201912200315,17.091,17.094,17.089,17.094
201912200316,17.094,17.094,17.092,17.093
201912200317,17.093,17.103,17.093,17.102
201912200318,17.102,17.106,17.101,17.106
201912200319,17.106,17.106,17.102,17.104
201912200320,17.104,17.115,17.101,17.108
201912200321,17.108,17.113,17.108,17.108
201912200322,17.108,17.11,17.1,17.1
201912200323,17.1,17.11,17.1,17.106
201912200324,17.106,17.107,17.087,17.09
201912200325,17.09,17.096,17.088,17.09
201912200326,17.09,17.094,17.083,17.087
201912200327,17.086,17.095,17.086,17.093
201912200328,17.093,17.093,17.087,17.087
201912200329,17.086,17.087,17.083,17.084
201912200330,17.084,17.088,17.083,17.087
201912200331,17.087,17.088,17.084,17.087
201912200332,17.087,17.087,17.087,17.087
201912200333,17.087,17.087,17.084,17.087
201912200334,17.087,17.089,17.084,17.084
201912200335,17.084,17.084,17.083,17.083
201912200336,17.083,17.084,17.082,17.084
201912200337,17.083,17.088,17.083,17.087
201912200338,17.087,17.087,17.083,17.083
201912200339,17.083,17.084,17.083,17.083
201912200340,17.083,17.088,17.083,17.085
201912200341,17.085,17.088,17.083,17.087
201912200342,17.087,17.089,17.083,17.086
201912200343,17.086,17.087,17.086,17.086
201912200344,17.086,17.089,17.085,17.085
201912200345,17.085,17.086,17.084,17.085
201912200346,17.085,17.086,17.084,17.084
201912200347,17.084,17.084,17.073,17.075
201912200348,17.075,17.078,17.075,17.077
201912200349,17.077,17.083,17.077,17.083
201912200350,17.083,17.085,17.082,17.085
201912200351,17.085,17.085,17.082,17.085
201912200352,17.085,17.088,17.085,17.088
201912200353,17.088,17.089,17.087,17.087
201912200354,17.087,17.087,17.082,17.084
201912200355,17.085,17.092,17.085,17.091
201912200356,17.091,17.093,17.091,17.093
201912200357,17.093,17.094,17.092,17.094
201912200358,17.093,17.098,17.093,17.098
201912200359,17.098,17.102,17.097,17.102
201912200400,17.102,17.108,17.102,17.107
201912200401,17.107,17.108,17.107,17.108
201912200402,17.108,17.113,17.107,17.107
201912200403,17.107,17.111,17.107,17.111
201912200404,17.111,17.111,17.104,17.106
201912200405,17.107,17.108,17.107,17.108
201912200406,17.108,17.113,17.107,17.113
201912200407,17.113,17.117,17.112,17.117
201912200408,17.117,17.117,17.109,17.109
201912200409,17.109,17.11,17.109,17.11
201912200410,17.11,17.111,17.109,17.11
201912200411,17.11,17.111,17.11,17.111
201912200412,17.111,17.115,17.11,17.111
201912200413,17.111,17.112,17.104,17.105
201912200414,17.105,17.106,17.105,17.106
201912200415,17.106,17.11,17.106,17.11
201912200416,17.11,17.11,17.107,17.107
201912200417,17.107,17.11,17.106,17.106
201912200418,17.106,17.106,17.105,17.105
201912200419,17.105,17.106,17.105,17.106
201912200420,17.106,17.107,17.105,17.107
201912200421,17.107,17.11,17.107,17.109
201912200422,17.109,17.109,17.104,17.104
201912200423,17.104,17.104,17.101,17.104
201912200424,17.104,17.105,17.102,17.102
201912200425,17.101,17.105,17.101,17.102
201912200426,17.101,17.102,17.1,17.1
201912200427,17.1,17.101,17.095,17.095
201912200428,17.095,17.096,17.095,17.095
201912200429,17.095,17.1,17.095,17.095
201912200430,17.095,17.1,17.091,17.091
201912200431,17.091,17.092,17.09,17.09
201912200432,17.09,17.091,17.089,17.09
201912200433,17.09,17.091,17.09,17.091
201912200434,17.091,17.091,17.09,17.091
201912200435,17.091,17.091,17.09,17.09
201912200436,17.09,17.091,17.09,17.09
201912200437,17.09,17.091,17.09,17.091
201912200438,17.091,17.091,17.086,17.087
201912200439,17.087,17.09,17.086,17.087
201912200440,17.087,17.09,17.087,17.09
201912200441,17.09,17.09,17.089,17.09
201912200442,17.09,17.095,17.09,17.095
201912200443,17.095,17.095,17.091,17.094
201912200444,17.094,17.095,17.09,17.091
201912200445,17.09,17.1,17.089,17.099
201912200446,17.099,17.099,17.099,17.099
201912200447,17.099,17.102,17.099,17.1
201912200448,17.1,17.101,17.096,17.1
201912200449,17.1,17.1,17.097,17.097
201912200450,17.097,17.097,17.095,17.095
201912200451,17.095,17.097,17.095,17.095
201912200452,17.095,17.097,17.095,17.097
201912200453,17.098,17.098,17.091,17.092
201912200454,17.092,17.094,17.09,17.09
201912200455,17.09,17.093,17.09,17.093
201912200456,17.093,17.094,17.09,17.091
201912200457,17.091,17.092,17.09,17.091
201912200458,17.091,17.091,17.09,17.09
201912200459,17.09,17.091,17.088,17.091
201912200500,17.091,17.091,17.086,17.088
201912200501,17.086,17.09,17.086,17.09
201912200502,17.09,17.09,17.089,17.089
201912200503,17.089,17.09,17.085,17.085
201912200504,17.085,17.085,17.084,17.084
201912200505,17.084,17.085,17.084,17.084
201912200506,17.084,17.086,17.081,17.085
201912200507,17.085,17.085,17.084,17.085
201912200508,17.084,17.086,17.084,17.086
201912200509,17.086,17.086,17.085,17.085
201912200510,17.085,17.086,17.084,17.085
201912200511,17.085,17.089,17.085,17.086
201912200512,17.089,17.09,17.086,17.086
201912200513,17.086,17.089,17.086,17.088
201912200514,17.089,17.089,17.085,17.086
201912200515,17.086,17.086,17.08,17.081
201912200516,17.081,17.081,17.08,17.08
201912200517,17.08,17.08,17.075,17.075
201912200518,17.075,17.076,17.07,17.071
201912200519,17.071,17.071,17.07,17.07
201912200520,17.07,17.071,17.07,17.071
201912200521,17.071,17.071,17.07,17.07
201912200522,17.07,17.07,17.064,17.065
201912200523,17.065,17.065,17.064,17.065
201912200524,17.065,17.065,17.064,17.064
201912200525,17.064,17.067,17.064,17.065
201912200526,17.065,17.065,17.065,17.065
201912200527,17.064,17.065,17.064,17.065
201912200528,17.065,17.066,17.064,17.066
201912200529,17.066,17.066,17.066,17.066
201912200530,17.066,17.067,17.066,17.066
201912200531,17.067,17.067,17.065,17.065
201912200532,17.065,17.066,17.065,17.066
201912200533,17.066,17.066,17.065,17.065
201912200534,17.065,17.066,17.065,17.065
201912200535,17.065,17.066,17.065,17.066
201912200536,17.066,17.066,17.065,17.065
201912200537,17.065,17.066,17.065,17.066
201912200538,17.066,17.066,17.065,17.065
201912200539,17.066,17.066,17.065,17.066
201912200540,17.066,17.066,17.061,17.061
201912200541,17.061,17.063,17.061,17.061
201912200542,17.061,17.062,17.061,17.061
201912200543,17.061,17.061,17.061,17.061
201912200544,17.061,17.061,17.061,17.061
201912200545,17.061,17.061,17.061,17.061
201912200546,17.061,17.065,17.06,17.065
201912200547,17.065,17.065,17.065,17.065
201912200548,17.065,17.065,17.065,17.065
201912200549,17.065,17.065,17.061,17.061
201912200550,17.061,17.061,17.06,17.061
201912200551,17.061,17.062,17.06,17.06
201912200552,17.06,17.061,17.06,17.06
201912200553,17.06,17.065,17.06,17.065
201912200554,17.065,17.065,17.062,17.065
201912200555,17.065,17.065,17.063,17.065
201912200556,17.065,17.065,17.064,17.064
201912200557,17.064,17.065,17.064,17.065
201912200558,17.064,17.065,17.064,17.065
201912200559,17.065,17.07,17.065,17.066
201912200600,17.067,17.067,17.065,17.065
201912200601,17.065,17.065,17.063,17.065
201912200602,17.065,17.065,17.063,17.065
201912200603,17.065,17.065,17.065,17.065
201912200604,17.065,17.065,17.065,17.065
201912200605,17.065,17.065,17.065,17.065
201912200606,17.065,17.065,17.063,17.065
201912200607,17.065,17.065,17.061,17.061
201912200608,17.061,17.061,17.061,17.061
201912200609,17.061,17.062,17.061,17.061
201912200610,17.061,17.061,17.06,17.061
201912200611,17.061,17.061,17.06,17.061
201912200612,17.061,17.061,17.061,17.061
201912200613,17.061,17.061,17.061,17.061
201912200614,17.061,17.061,17.06,17.061
201912200615,17.061,17.061,17.057,17.057
201912200616,17.057,17.058,17.057,17.058
201912200617,17.058,17.058,17.058,17.058
201912200618,17.058,17.058,17.058,17.058
201912200619,17.058,17.058,17.058,17.058
201912200620,17.058,17.058,17.058,17.058
201912200621,17.058,17.059,17.058,17.058
201912200622,17.058,17.058,17.057,17.057
201912200623,17.057,17.058,17.057,17.058
201912200624,17.058,17.058,17.057,17.057
201912200625,17.057,17.057,17.054,17.057
201912200626,17.057,17.057,17.057,17.057
201912200627,17.057,17.058,17.057,17.058
201912200628,17.058,17.058,17.057,17.057
201912200629,17.057,17.058,17.057,17.057
201912200630,17.058,17.059,17.058,17.058
201912200631,17.058,17.058,17.058,17.058
201912200632,17.058,17.058,17.058,17.058
201912200633,17.058,17.058,17.058,17.058
201912200634,17.058,17.058,17.058,17.058
201912200635,17.058,17.058,17.058,17.058
201912200636,17.058,17.058,17.058,17.058
201912200637,17.058,17.058,17.055,17.055
201912200638,17.055,17.057,17.055,17.057
201912200639,17.057,17.057,17.057,17.057
201912200640,17.057,17.057,17.054,17.054
201912200641,17.054,17.057,17.054,17.057
201912200642,17.057,17.058,17.057,17.058
201912200643,17.058,17.058,17.058,17.058
201912200644,17.058,17.058,17.058,17.058
201912200645,17.058,17.058,17.058,17.058
201912200646,17.058,17.058,17.058,17.058
201912200647,17.058,17.058,17.057,17.057
201912200648,17.058,17.058,17.057,17.058
201912200649,17.058,17.058,17.058,17.058
201912200650,17.058,17.058,17.058,17.058
201912200651,17.058,17.058,17.057,17.057
201912200652,17.057,17.057,17.053,17.053
201912200653,17.053,17.053,17.052,17.052
201912200654,17.052,17.053,17.052,17.053
201912200655,17.053,17.053,17.052,17.052
201912200656,17.053,17.054,17.053,17.054
201912200657,17.054,17.054,17.051,17.054
201912200658,17.053,17.056,17.05,17.052
201912200659,17.052,17.059,17.051,17.059
